{"adult": false, "backdrop_path": "/AfmzRpR4CoT4WRYtMc4ZjQHLJub.jpg", "belongs_to_collection": null, "budget": 0, "genres": [{"id": 27, "name": "Horror"}], "homepage": "http://www.fps-movie.com/", "id": 338752, "imdb_id": "tt3530830", "original_language": "en", "original_title": "FPS: First Person Shooter", "overview": "Your pregnant wife Linda has been captured by a ruthless scientist, who created a devastating virus. To rescue her, you have to fight through the old rotten experimental clinic, armed to the teeth, one level after another right through the dark, decayed guts of this evil complex. unfortunately you don't have much time, at dawn, the whole area will be eradicated.", "popularity": 2.636, "poster_path": "/aRaLJ1Xp5HjAbPaP59KyN7x6r1N.jpg", "production_companies": [], "production_countries": [{"iso_3166_1": "DE", "name": "Germany"}], "release_date": "2015-08-01", "revenue": 0, "runtime": 80, "spoken_languages": [{"iso_639_1": "de", "name": "Deutsch"}], "status": "Released", "tagline": "", "title": "FPS: First Person Shooter", "video": false, "vote_average": 4.9, "vote_count": 13, "keywords": {"keywords": [{"id": 8087, "name": "horror"}, {"id": 12377, "name": "zombie"}, {"id": 160174, "name": "mental asylum"}, {"id": 185859, "name": "first person shooter"}]}, "similar": {"page": 1, "results": [{"adult": false, "backdrop_path": "/uZVs1cX00LBKcLMWrmCsZznCuGu.jpg", "genre_ids": [18, 27, 878], "id": 338676, "original_language": "en", "original_title": "Extinction", "overview": "And suddenly, overnight, the world came to a halt. Two men, two survivors, one kid, and hatred that separates them. A place forgotten by everyone, including the creatures that inhabit the Earth... until now.", "poster_path": "/xEoleA3nm71cE7wiu4IXfk7yH8K.jpg", "release_date": "2015-08-07", "title": "Extinction", "video": false, "vote_average": 5.7, "vote_count": 342, "popularity": 9.328}, {"id": 8408, "video": false, "vote_count": 568, "vote_average": 7.0, "title": "Day of the Dead", "release_date": "1985-07-19", "original_language": "en", "original_title": "Day of the Dead", "genre_ids": [27, 878], "backdrop_path": "/pWaXoU1aqD2KpMVLt4E9ZmKQXIk.jpg", "adult": false, "overview": "Trapped in a missile silo, a small team of scientists, civilians and trigger-happy soldiers battle desperately to ensure the survival of the human race. However, the tension inside the base is reaching a breaking point, and the zombies are gathering outside.", "poster_path": "/yJ2emwXWwQc6VHW3fO4GZr0hXBt.jpg", "popularity": 9.762}, {"adult": false, "backdrop_path": "/eHaGbnX2kukzcYGOpNF3YLPmOG5.jpg", "genre_ids": [27, 35], "id": 16281, "original_language": "en", "original_title": "Creepshow", "overview": "Inspired by the E.C. comics of the 1950s, George A. Romero and Stephen King bring five tales of terror to the screen.", "poster_path": "/hgKeTL416BPzLZntcsD1k7mNFRN.jpg", "release_date": "1982-11-12", "title": "Creepshow", "video": false, "vote_average": 6.8, "vote_count": 458, "popularity": 13.179}, {"id": 72190, "video": false, "vote_count": 9917, "vote_average": 6.7, "title": "World War Z", "release_date": "2013-06-20", "original_language": "en", "original_title": "World War Z", "genre_ids": [28, 18, 27, 878, 53], "backdrop_path": "/xMOQVYLeIKBXenJ9KMeasj7S64y.jpg", "adult": false, "overview": "Life for former United Nations investigator Gerry Lane and his family seems content. Suddenly, the world is plagued by a mysterious infection turning whole human populations into rampaging mindless zombies. After barely escaping the chaos, Lane is persuaded to go on a mission to investigate this disease. What follows is a perilous trek around the world where Lane must brave horrific dangers and long odds to find answers before human civilization falls.", "poster_path": "/Ha5t0J21eyiq6Az1EXzx0iwsGH.jpg", "popularity": 27.681}, {"id": 747, "video": false, "vote_count": 5110, "vote_average": 7.5, "title": "Shaun of the Dead", "release_date": "2004-04-09", "original_language": "en", "original_title": "Shaun of the Dead", "genre_ids": [35, 27], "backdrop_path": "/50mMiR0R1QclaAODTutwXBrReLJ.jpg", "adult": false, "overview": "Shaun lives a supremely uneventful life, which revolves around his girlfriend, his mother, and, above all, his local pub. This gentle routine is threatened when the dead return to life and make strenuous attempts to snack on ordinary Londoners.", "poster_path": "/2evlcGnsfdFWLb7geNlIjIewc0Q.jpg", "popularity": 25.866}, {"adult": false, "backdrop_path": "/5RPXs9g0sZ9Woo4pNLxdXdge7tc.jpg", "genre_ids": [14, 27, 35], "id": 766, "original_language": "en", "original_title": "Army of Darkness", "overview": "A man is accidentally transported to 1300 A.D., where he must battle an army of the dead and retrieve the Necronomicon so he can return home.", "poster_path": "/2eZKDIwLNnySbwqQtAaUz0kYDIL.jpg", "release_date": "1992-10-09", "title": "Army of Darkness", "video": false, "vote_average": 7.3, "vote_count": 1664, "popularity": 18.122}, {"id": 338967, "video": false, "vote_count": 1169, "vote_average": 7.0, "title": "Zombieland: Double Tap", "release_date": "2019-10-09", "original_language": "en", "original_title": "Zombieland: Double Tap", "genre_ids": [28, 35, 27], "backdrop_path": "/3ghImmHdp4RnC3UkL6hpLayclnb.jpg", "adult": false, "overview": "Columbus, Tallahassee, Wichita, and Little Rock move to the American heartland as they face off against evolved zombies, fellow survivors, and the growing pains of the snarky makeshift family.", "poster_path": "/dtRbVsUb5O12WWO54SRpiMtHKC0.jpg", "popularity": 66.191}, {"id": 19908, "video": false, "vote_count": 7598, "vote_average": 7.2, "title": "Zombieland", "release_date": "2009-10-07", "original_language": "en", "original_title": "Zombieland", "genre_ids": [35, 27], "backdrop_path": "/lLgLFzSZduH9kBxrk6BvoHc1gg0.jpg", "adult": false, "overview": "Columbus has made a habit of running from what scares him. Tallahassee doesn't have fears. If he did, he'd kick their ever-living ass. In a world overrun by zombies, these two are perfectly evolved survivors. But now, they're about to stare down the most terrifying prospect of all: each other.", "poster_path": "/vUzzDpVrab1BOG3ogxhRGfLN94d.jpg", "popularity": 27.301}, {"adult": false, "backdrop_path": "/oeGQCv7bRZKaDOxLFC8oqVRCnOd.jpg", "genre_ids": [878, 35, 27], "id": 1694, "original_language": "en", "original_title": "Re-Animator", "overview": "A dedicated student at a medical college and his girlfriend become involved in bizarre experiments centering around the re-animation of dead tissue when an odd new student arrives on campus.", "poster_path": "/hJnP2O0uTuh8HsR094WLTi3sQwc.jpg", "release_date": "1985-10-18", "title": "Re-Animator", "video": false, "vote_average": 7.1, "vote_count": 558, "popularity": 14.126}, {"id": 485415, "video": false, "vote_count": 277, "vote_average": 4.1, "title": "Day of the Dead: Bloodline", "release_date": "2018-01-04", "original_language": "en", "original_title": "Day of the Dead: Bloodline", "genre_ids": [28, 27], "backdrop_path": "/1CKntz5l7oblq2RYligHHvY64sh.jpg", "adult": false, "overview": "In a world overrun by zombies, military personnel and survivalists live in an underground bunker while they seek a cure.", "poster_path": "/3jM4C1wJxHLWlF4tcSyyv6fnJPR.jpg", "popularity": 14.184}, {"adult": false, "backdrop_path": "/5CPIk2eE3Nk4UPwx5HCHKDdIiJs.jpg", "genre_ids": [35, 27, 878], "id": 11429, "original_language": "en", "original_title": "Beyond Re-Animator", "overview": "Once again tampering with mother nature to disastrous results, Dr. Herbert West continues his research while serving time in a maximum security prison for his previous exploits. West's limited prison-cell experiments are suddenly interrupted by the arrival of a new prison doctor and the brother of the girl who suffered from West's experiments 13 years earlier.", "poster_path": "/7K8odajc1QUaeOtD5XvlBiWzypQ.jpg", "release_date": "2003-04-04", "title": "Beyond Re-Animator", "video": false, "vote_average": 5.5, "vote_count": 124, "popularity": 10.121}, {"adult": false, "backdrop_path": "/pAD4FAkCERB3sDprJM4f5YaKL3v.jpg", "genre_ids": [27, 35], "id": 24935, "original_language": "en", "original_title": "Return of the Living Dead: Necropolis", "overview": "A group of teenagers who, in an attempt to rescue their friend from an evil corporation, end up releasing a horde of blood thirsty zombies.", "poster_path": "/wez633rPnd9x4xObQwRHmOOM5sE.jpg", "release_date": "2005-10-15", "title": "Return of the Living Dead: Necropolis", "video": false, "vote_average": 3.6, "vote_count": 56, "popularity": 7.853}, {"adult": false, "backdrop_path": "/o4lpqMqDQGx4RVorWzcHnSaDeRo.jpg", "genre_ids": [27], "id": 1690, "original_language": "en", "original_title": "Hostel", "overview": "Three backpackers head to a Slovakian city that promises to meet their hedonistic expectations, with no idea of the hell that awaits them.", "poster_path": "/zF3pEs1CUbjPgioxDH4h2MEHsWl.jpg", "release_date": "2006-01-06", "title": "Hostel", "video": false, "vote_average": 5.8, "vote_count": 2026, "popularity": 16.556}, {"id": 10925, "video": false, "vote_count": 551, "vote_average": 7.3, "title": "The Return of the Living Dead", "release_date": "1985-04-25", "original_language": "en", "original_title": "The Return of the Living Dead", "genre_ids": [35, 27], "backdrop_path": "/jA34vdJCxOZUoi4khkfhq1pX3WG.jpg", "adult": false, "overview": "When a bumbling pair of employees at a medical supply warehouse accidentally release a deadly gas into the air, the vapors cause the dead to re-animate as they go on a rampage seeking their favorite food: brains!", "poster_path": "/1vydUitzC8W8W5oNevEArCltydJ.jpg", "popularity": 13.326}, {"id": 19994, "video": false, "vote_count": 1888, "vote_average": 5.4, "title": "Jennifer's Body", "release_date": "2009-09-18", "original_language": "en", "original_title": "Jennifer's Body", "genre_ids": [35, 27], "backdrop_path": "/aTmh5w201d86lt3juFk8tbK297Y.jpg", "adult": false, "overview": "A newly possessed cheerleader turns into a killer who specializes in offing her male classmates. Can her best friend put an end to the horror?", "poster_path": "/tdNlGoHmz77XQlBB21tL8qtxFHq.jpg", "popularity": 21.542}, {"adult": false, "backdrop_path": "/bvbyidkMaBls1LTaIWYY6UmYTaL.jpg", "genre_ids": [28, 878], "id": 336843, "original_language": "en", "original_title": "Maze Runner: The Death Cure", "overview": "Thomas leads his group of escaped Gladers on their final and most dangerous mission yet. To save their friends, they must break into the legendary Last City, a WCKD-controlled labyrinth that may turn out to be the deadliest maze of all. Anyone who makes it out alive will get answers to the questions the Gladers have been asking since they first arrived in the maze.", "poster_path": "/2zYfzA3TBwrMC8tfFbpiTLODde0.jpg", "release_date": "2018-01-10", "title": "Maze Runner: The Death Cure", "video": false, "vote_average": 7.0, "vote_count": 4396, "popularity": 25.259}, {"id": 1992, "video": false, "vote_count": 2033, "vote_average": 6.6, "title": "Planet Terror", "release_date": "2007-04-06", "original_language": "en", "original_title": "Planet Terror", "genre_ids": [28, 27, 53], "backdrop_path": "/a2zIKDg5QGFc2vzdaPXT7uZKipe.jpg", "adult": false, "overview": "Two doctors find their graveyard shift inundated with townspeople ravaged by sores. Among the wounded is Cherry, a dancer whose leg was ripped from her body. As the invalids quickly become enraged aggressors, Cherry and her ex-boyfriend Wray lead a team of accidental warriors into the night.", "poster_path": "/7Yjzttt0VfPphSsUg8vFUO9WaEt.jpg", "popularity": 18.01}, {"adult": false, "backdrop_path": "/7GR03LqwB7ePPPhaK5BAYNzt3Vm.jpg", "genre_ids": [27, 35, 14, 10402], "id": 461928, "original_language": "en", "original_title": "Anna and the Apocalypse", "overview": "A zombie apocalypse threatens the sleepy town of Little Haven \u2013 at Christmas \u2013 forcing Anna and her friends to fight, slash and sing their way to survival, facing the undead in a desperate race to reach their loved ones. But they soon discover that no one is safe in this new world, and with civilization falling apart around them, the only people they can truly rely on are each other.", "poster_path": "/36HmDXMzeLpTPEhjEbpzI3Kv4Vk.jpg", "release_date": "2018-11-30", "title": "Anna and the Apocalypse", "video": false, "vote_average": 6.2, "vote_count": 104, "popularity": 8.874}, {"id": 11683, "video": false, "vote_count": 762, "vote_average": 6.1, "title": "Land of the Dead", "release_date": "2005-06-24", "original_language": "en", "original_title": "Land of the Dead", "genre_ids": [27, 878], "backdrop_path": "/auPv1B8wVHnDn9ypAxeit44CFMN.jpg", "adult": false, "overview": "The world is full of zombies and the survivors have barricaded themselves inside a walled city to keep out the living dead. As the wealthy hide out in skyscrapers and chaos rules the streets, the rest of the survivors must find a way to stop the evolving zombies from breaking into the city.", "poster_path": "/1VYvkSiyJg9Za2R5KSHjUygLKEq.jpg", "popularity": 11.432}, {"id": 587138, "video": false, "vote_count": 0, "vote_average": 0.0, "title": "Driven", "release_date": "2019-02-09", "original_language": "en", "original_title": "Driven", "genre_ids": [35, 27, 53], "backdrop_path": null, "adult": false, "overview": "Emerson Graham's nights as a cab driver are filled with annoyances and inconveniences, but until tonight, never attacks and disappearances. After picking up a mysterious passenger her evening goes from working a job to performing a quest as they must race against the clock to defeat a force of evil. The meter is running.", "poster_path": "/ca0URmLciw4rZgjWU6y2nOapyGU.jpg", "popularity": 2.366}], "total_pages": 116, "total_results": 2306}, "recommendations": {"page": 1, "results": [{"id": 73303, "video": false, "vote_count": 6, "vote_average": 4.7, "title": "The Creeps", "release_date": "1997-12-16", "original_language": "en", "original_title": "The Creeps", "genre_ids": [35, 27, 878], "backdrop_path": "/531UL6W2RQiYZKQYFd7dePzeyVF.jpg", "adult": false, "overview": "Mad scientist brings Dracula, the Wolfman, the Mummy, and Frankenstein's Monster to life... but there's a problem and they end up three feet tall.", "poster_path": "/namzEWDmsJCF8NlQo3PPIFWr4e4.jpg", "popularity": 3.433}, {"adult": false, "backdrop_path": "/7NQcdGaIE59hKn80WjyTGhLJhND.jpg", "genre_ids": [27], "id": 70878, "original_language": "en", "original_title": "Mimesis", "overview": "A group of horror fans find themselves unwilling participants in a nightmarish role playing game that pays homage to a classic horror film.", "poster_path": "/8St7XReDe49OWPScjtjUaoen1jz.jpg", "release_date": "2011-10-07", "title": "Mimesis", "video": false, "vote_average": 3.9, "vote_count": 19, "popularity": 3.814}, {"adult": false, "backdrop_path": "/cML6NbTssu961VdsYzGNWATmC3o.jpg", "genre_ids": [16, 27], "id": 198757, "original_language": "en", "original_title": "The Amazing Adventures of the Living Corpse", "overview": "A somewhat self-aware zombie takes it upon himself to keep the rest of the walking dead at bay.", "poster_path": "/z2hOVqLIPsOEAxf59wJKgXsAhXD.jpg", "release_date": "2012-07-14", "title": "The Amazing Adventures of the Living Corpse", "video": false, "vote_average": 3.1, "vote_count": 8, "popularity": 3.545}, {"adult": false, "backdrop_path": "/oJ1xiZZJYGQsG2I4Ad6PxDVS8Sf.jpg", "genre_ids": [99], "id": 395965, "original_language": "en", "original_title": "A Billion Lives", "overview": "In 20 years\u2019 time, there will be nearly 1.6 billion smokers around the world. Approximately 70% of smokers want to quit. The United Nations\u2019 World Health Organisation expects a billion people will die prematurely from smoking this century. The products their doctors recommend are rarely effective and many are trapped. A new vapour technology was invented to give smokers a successful way to quit. But it was quickly demonised, and even banned in many countries. A perfect storm is brewing between smokers trying to quit, government regulators, and health charities funded by the powerful pharmaceutical industry. Director Aaron Biebert travelled across four continents interviewing doctors, scientists, and others working to save a billion lives. What he found was profound government failure, widespread corruption in the public health community and powerful subversion by big business.", "poster_path": "/jCmysd8VgMtG6lBKH0Kjnmyc1gY.jpg", "release_date": "2016-05-11", "title": "A Billion Lives", "video": false, "vote_average": 9.1, "vote_count": 9, "popularity": 8.992}, {"adult": false, "backdrop_path": "/4HYq2w38M8ok96R2RKxjsqqfvo.jpg", "genre_ids": [35, 27], "id": 279997, "original_language": "en", "original_title": "I Survived a Zombie Holocaust", "overview": "From the land of early Peter Jackson comes another Braindead movie in bad taste. It\u2019s the third day of shooting the low budget horror \u2018Tonight They Come\u2019 on location in the wilds of New Zealand. Director SMP is already beside himself having to work with a self-obsessed leading man and a bimbo actress when into his line of fire comes a new runner, wannabe screenwriter Wesley Pennington. Clearly an accident-prone nerd, Wesley nevertheless tries his best to fit in with the crazed cast and demented crew while falling head over heels for Susan, the set caterer. But something nasty has entered the local water supply and suddenly the zombie extras start acting like genuine members of the living dead, gore stunts looks even more authentic and actual severed limbs fly. Reel life turns real as Wesley attempts to save the day while ensuring his latest script will get made.", "poster_path": "/6gn2cL63dkTSAOqC9gmwytsvAkk.jpg", "release_date": "2014-08-25", "title": "I Survived a Zombie Holocaust", "video": false, "vote_average": 5.6, "vote_count": 25, "popularity": 3.132}, {"adult": false, "backdrop_path": "/bk6cch0OFFg84ioyTq6mXzGPpVm.jpg", "genre_ids": [27, 9648, 53], "id": 54132, "original_language": "en", "original_title": "The Dorm That Dripped Blood", "overview": "A crazed killer stalks college students who gave up their vacation to clean a deserted dormitory.", "poster_path": "/yJIZFdAVDpjIULI6A8wLh4wyMIR.jpg", "release_date": "1982-04-02", "title": "The Dorm That Dripped Blood", "video": false, "vote_average": 5.3, "vote_count": 18, "popularity": 3.178}, {"adult": false, "backdrop_path": "/qrnj80liNAaAwukDXjOMjY9hAJA.jpg", "genre_ids": [80, 27, 28, 53], "id": 256742, "original_language": "en", "original_title": "Hotel Inferno", "overview": "The contract killer Frank Zimosa has just been hired for a ridiculously lucrative mission by the rich and powerful Jorge Mistrandia. The objective: to kill a couple of people hiding in one of his European hotels. What would look like one of the simplest jobs Frank has ever had is just about to turn into a living nightmare. He will soon realize he's nothing more than prey for Mistrandia and his army of crazy henchmen that have hiding in the hotel along with an ancient and unstoppable Horror. In their hotels you can only rent rooms....in Hell! See everything through the eyes of the Anti-Hero Frank Zimosa and boost your mind with an overdose of: nonstop violence, adrenaline, and pure fear, surrounded in a mysterious, deep and twisted story. You won't just watch it, you will experience it.", "poster_path": "/k56Z9BUdBwRjewaMrmaeeupv7o2.jpg", "release_date": "2013-12-26", "title": "Hotel Inferno", "video": false, "vote_average": 5.4, "vote_count": 31, "popularity": 3.073}, {"adult": false, "backdrop_path": "/3viNdUBEauryYk9Xu4EpXgScwuf.jpg", "genre_ids": [27], "id": 126463, "original_language": "en", "original_title": "Night Killer", "overview": "Melanie Beck is the only surviving victim of a killer-rapist who wears a Freddy Kruger-esque mask and claw. Despite having seen the killer's face, Beck has blocked it from her memory. Becoming suicidal, she tries to kill herself on the beach but is saved by Axel, another rapist sleazeball who keeps her locked in his hotel room. All this builds to a mind blowing conclusion.", "poster_path": "/4wVbUQG8ntGHHQzaWqNPpWn5Xlo.jpg", "release_date": "1990-08-03", "title": "Night Killer", "video": false, "vote_average": 5.3, "vote_count": 11, "popularity": 2.758}], "total_pages": 1, "total_results": 8}, "credits": {"cast": [{"cast_id": 0, "character": "Gamer", "credit_id": "5547cfd3c3a3680cdb00bd37", "gender": 0, "id": 1462996, "name": "Stephan Weyte", "order": 1, "profile_path": "/nlIVk9K0C9q43hrB5xQLN2RBpAb.jpg"}, {"cast_id": 1, "character": "Nurse", "credit_id": "5547cfec925141114a00480e", "gender": 0, "id": 1462997, "name": "Atlanta Amanda L\u00fctzelschwab", "order": 2, "profile_path": null}, {"cast_id": 2, "character": "Surgeon", "credit_id": "5547cffdc3a36856e5008e0d", "gender": 0, "id": 1462998, "name": "Hans L\u00fctzelschwab", "order": 3, "profile_path": null}, {"cast_id": 3, "character": "Doctor, Security", "credit_id": "5547d013c3a3680ce600bedf", "gender": 0, "id": 1462999, "name": "Sascha Strack", "order": 4, "profile_path": "/gP82hyrFgcrGw9SzdajS80aWgn7.jpg"}, {"cast_id": 4, "character": "Wife", "credit_id": "5547d025c3a3680cd700c0dc", "gender": 0, "id": 1463000, "name": "Ines Klein", "order": 5, "profile_path": null}], "crew": [{"credit_id": "5547d14792514108af000172", "department": "Costume & Make-Up", "gender": 0, "id": 1462997, "job": "Makeup Artist", "name": "Atlanta Amanda L\u00fctzelschwab", "profile_path": null}, {"credit_id": "5547d10a92514119e0009497", "department": "Directing", "gender": 0, "id": 1463001, "job": "Director", "name": "Andreas Tom", "profile_path": null}, {"credit_id": "5547d11c92514119e0009499", "department": "Writing", "gender": 0, "id": 1463001, "job": "Writer", "name": "Andreas Tom", "profile_path": null}, {"credit_id": "5547d12ec3a36856e5008e1c", "department": "Directing", "gender": 0, "id": 1463003, "job": "Assistant Director", "name": "Achim Volker L\u00fctzelschwab", "profile_path": null}]}}