{"adult": false, "backdrop_path": "/yMAGaLFxeYDDzcBs06H0YjYQsyU.jpg", "belongs_to_collection": null, "budget": 0, "genres": [{"id": 18, "name": "Drama"}], "homepage": "http://www.acountrycalledhome.com/", "id": 339079, "imdb_id": "tt3953626", "original_language": "en", "original_title": "A Country Called Home", "overview": "Ellie is a 27-year old whose life is far from where she imagined it to be. Filled with annoying friends, a self-involved boyfriend, and a career that she can\u2019t bring herself to pursue, Ellie feels detached from her life. When she learns that her estranged alcoholic father has died, her world is disrupted and she begins a journey that takes her to a small town in Texas. While dealing with the logistical arrangements of her father\u2019s death Ellie has to confront what happens when the structures and safety nets we build for ourselves come undone.", "popularity": 2.869, "poster_path": "/zMtmTtnI4GojzNoT3pFUiRq3FtI.jpg", "production_companies": [{"id": 2526, "logo_path": "/kzIW6QWhacDwzGoXEIWhac8rb70.png", "name": "Kickstart", "origin_country": "US"}], "production_countries": [], "release_date": "2016-02-26", "revenue": 0, "runtime": 90, "spoken_languages": [{"iso_639_1": "en", "name": "English"}], "status": "Released", "tagline": "She Had To Find Her Past To Embrace Her Future.", "title": "A Country Called Home", "video": false, "vote_average": 5.7, "vote_count": 23, "keywords": {"keywords": [{"id": 187056, "name": "woman director"}]}, "similar": {"page": 1, "results": [{"adult": false, "backdrop_path": "/cADbqsIoiDW7X3Myg9nz8eAuno5.jpg", "genre_ids": [18, 10749], "id": 10818, "original_language": "fr", "original_title": "Naissance des pieuvres", "overview": "Set during a sultry summer in a French suburb, Marie is desperate to join the local pool's synchronized swimming team, but is her interest solely for the sake of sport or for a chance to get close to Floriane, the bad girl of the team? Sciamma, and the two leads, capture the uncertainty of teenage sexuality with a sympathetic eye in this delicate drama of the angst of coming-of-age.", "poster_path": "/4jajELYrR4Xmv3CVoKnukRnALa2.jpg", "release_date": "2007-05-17", "title": "Water Lilies", "video": false, "vote_average": 6.1, "vote_count": 119, "popularity": 9.614}, {"adult": false, "backdrop_path": "/gZeJziVigmRqbkEZwKAtSqlLQ6s.jpg", "genre_ids": [18, 10749], "id": 370663, "original_language": "en", "original_title": "Below Her Mouth", "overview": "An unexpected affair quickly escalates into a heart-stopping reality for two women whose passionate connection changes their lives forever.", "poster_path": "/nTGbq37hYLuNy7YgMg0gVLma0NS.jpg", "release_date": "2016-09-10", "title": "Below Her Mouth", "video": false, "vote_average": 6.2, "vote_count": 456, "popularity": 18.664}, {"adult": false, "backdrop_path": "/dvQDRfv3qvfHNnVAR57ouVsuErf.jpg", "genre_ids": [10749, 18], "id": 28031, "original_language": "en", "original_title": "If These Walls Could Talk 2", "overview": "The stories of three lesbian couples -- who live in the same house at different periods of time -- who are at a crossroads in their lives. In 1961, Edith loses her lover, Abby, to a stroke. Linda and Amy struggle with feminist issues in 1972. And, in 2000, Kal and Fran try to have a baby with the help of sperm donor.", "poster_path": "/xs7ODbmYQXCDhvXNvz5tF17T59H.jpg", "release_date": "2000-03-05", "title": "If These Walls Could Talk 2", "video": false, "vote_average": 7.1, "vote_count": 55, "popularity": 8.86}, {"adult": false, "backdrop_path": "/knczzNAjBXzSYkeWxoT1u9VNmjR.jpg", "genre_ids": [10749, 18], "id": 258480, "original_language": "en", "original_title": "Carol", "overview": "In 1950s New York, a department-store clerk who dreams of a better life falls for an older, married woman.", "poster_path": "/AbKa7ANxmui0Jmhh7gV7OSELKIL.jpg", "release_date": "2015-11-20", "title": "Carol", "video": false, "vote_average": 7.4, "vote_count": 2184, "popularity": 13.539}, {"adult": false, "backdrop_path": "/fZ8oFcREAr6wgWcXISGql0xyxjB.jpg", "genre_ids": [35, 18], "id": 39781, "original_language": "en", "original_title": "The Kids Are All Right", "overview": "Two women, Nic and Jules, brought a son and daughter into the world through artificial insemination. When one of their children reaches age, both kids go behind their mothers' backs to meet with the donor. Life becomes so much more interesting when the father, two mothers and children start to become attached to each other.", "poster_path": "/fPDeK4MmoGfi2X0oWZev7LrbMqM.jpg", "release_date": "2010-07-09", "title": "The Kids Are All Right", "video": false, "vote_average": 6.6, "vote_count": 923, "popularity": 12.159}, {"adult": false, "backdrop_path": "/rf6G51j0SZL0tP57I8gnqHTRFEr.jpg", "genre_ids": [35, 18, 10749], "id": 273153, "original_language": "fr", "original_title": "La belle saison", "overview": "In 1971, Carole and Delphine meet and fall in love in Paris. When Carole follows Delphine back to her family farm in Limousin, the two find lesbianism and feminism are not as easy in the countryside.", "poster_path": "/evvAkNMO5VJiy5qIo1Hu7fUfvVI.jpg", "release_date": "2015-08-19", "title": "Summertime", "video": false, "vote_average": 6.6, "vote_count": 162, "popularity": 11.575}, {"adult": false, "backdrop_path": "/s12HEmmkJfI2mjltI61hGm5kubD.jpg", "genre_ids": [35, 18, 10749], "id": 20770, "original_language": "en", "original_title": "But I'm a Cheerleader", "overview": "Megan is an all-American girl. A cheerleader. She has a boyfriend. But Megan doesn't like kissing her boyfriend very much. And she's pretty touchy with her cheerleader friends. Her conservative parents worry that she must be a lesbian and send her off to \"sexual redirection\" school, where she must, with other lesbians and gays learn how to be straight.", "poster_path": "/eDGH7CHSdkrYcuUJV1e0WS9DlQL.jpg", "release_date": "1999-12-09", "title": "But I'm a Cheerleader", "video": false, "vote_average": 6.8, "vote_count": 246, "popularity": 9.011}, {"id": 9813, "video": false, "vote_count": 128, "vote_average": 6.1, "title": "The Quiet", "release_date": "2005-09-12", "original_language": "en", "original_title": "The Quiet", "genre_ids": [18, 53], "backdrop_path": "/6eyWAZA4CEidZW1xXnQ4vlYBXTP.jpg", "adult": false, "overview": "After her widowed father dies, deaf teenager Dot moves in with her godparents, Olivia and Paul Deer. The Deers' daughter, Nina, is openly hostile to Dot, but that does not prevent her from telling her secrets to her silent stepsister, including the fact that she wants to kill her lecherous father.", "poster_path": "/GEqIE9YlmygHVUfS64LW2cwAAM.jpg", "popularity": 14.844}, {"adult": false, "backdrop_path": "/tzqeuHWMFihFbiLGHdalPgAcSf6.jpg", "genre_ids": [18, 10749], "id": 18620, "original_language": "en", "original_title": "Go Fish", "overview": "Max is a trendy, pretty, young lesbian, who is having trouble finding love. A friend sets her up with Ely, whom Max likes, but Ely is frumpy, homely, and older. Nor do they have much in common. Can Max learn to look past the packaging?", "poster_path": "/qrEFYrwykaGsY8NULYuYLLI7zrM.jpg", "release_date": "1994-06-10", "title": "Go Fish", "video": false, "vote_average": 5.0, "vote_count": 11, "popularity": 3.676}, {"adult": false, "backdrop_path": "/6tern9vOEwwmkDYC1vRCuO64z0C.jpg", "genre_ids": [10749, 18], "id": 475888, "original_language": "en", "original_title": "Tell It to the Bees", "overview": "Dr. Jean Markham returns to the town she left as a teenager to take over her late father's medical practice. When a school-yard scuffle lands Charlie in her surgery, she invites him to visit the hives in her garden and tell his secrets to the bees, as she once did. The new friendship between the boy and the bee keeper brings his mother Lydia into Jean's world.", "poster_path": "/Rj6zpHhMU1zFW3v28U4PSRSRgP.jpg", "release_date": "2019-05-03", "title": "Tell It to the Bees", "video": false, "vote_average": 6.4, "vote_count": 53, "popularity": 13.175}, {"adult": false, "backdrop_path": "/baYbbMtKRDoDWYJeVWkbygAvAj8.jpg", "genre_ids": [18, 10749], "id": 31216, "original_language": "en", "original_title": "I Can't Think Straight", "overview": "I CAN'T THINK STRAIGHT is a 2007 romance movie about a London-based Jordanian of Palestinian descent, Tala, who is preparing for an elaborate wedding. A turn of events causes her to have an affair and subsequently fall in love with another woman, Leyla, a British Indian.", "poster_path": "/1kapga6rkM5wNuQBYw7sdE42CrA.jpg", "release_date": "2008-06-01", "title": "I Can't Think Straight", "video": false, "vote_average": 7.6, "vote_count": 109, "popularity": 7.815}, {"adult": false, "backdrop_path": "/lI5h8KaoeObu4NMTwzeRuUHzRwD.jpg", "genre_ids": [18, 9648, 53], "id": 401898, "original_language": "no", "original_title": "Thelma", "overview": "A college student starts to experience extreme seizures. She soon learns that the violent episodes are a symptom of inexplicable abilities.", "poster_path": "/yzSfG8TLAqw7nMQh2lxirQkQpgs.jpg", "release_date": "2017-09-15", "title": "Thelma", "video": false, "vote_average": 7.1, "vote_count": 418, "popularity": 13.105}, {"adult": false, "backdrop_path": "/tIFRPjIXQ3sYrmxbIeOu9K1JkUz.jpg", "genre_ids": [18, 10749], "id": 294, "original_language": "en", "original_title": "Desert Hearts", "overview": "The story of straight-edge literature professor Vivian who travels to Reno to get away from a relationship breakup when she falls in love with an attractive and unconventional girl named Cay.", "poster_path": "/b8JSmQSpYYJhctMtxNgqh0elENg.jpg", "release_date": "1985-10-01", "title": "Desert Hearts", "video": false, "vote_average": 7.3, "vote_count": 58, "popularity": 6.976}, {"id": 2255, "video": false, "vote_count": 772, "vote_average": 6.8, "title": "Chasing Amy", "release_date": "1997-04-04", "original_language": "en", "original_title": "Chasing Amy", "genre_ids": [35, 18, 10749], "backdrop_path": "/doKYVK61Vb8J1KUjlb9dNWkQNp6.jpg", "adult": false, "overview": "Holden and Banky are comic book artists. Everything is going good for them until they meet Alyssa, also a comic book artist. Holden falls for her, but his hopes are crushed when he finds out she's a lesbian.", "poster_path": "/4vFJileWrCGaBeobCmF0tXpQCUb.jpg", "popularity": 13.95}, {"adult": false, "backdrop_path": "/hD8DQM72Xacg1d3mFqS0eN8vKYw.jpg", "genre_ids": [18], "id": 8272, "original_language": "en", "original_title": "The Savages", "overview": "A sister and brother face the realities of familial responsibility as they begin to care for their ailing father.", "poster_path": "/nY54gSmTOmSXlQpWDB7DWp4u8a7.jpg", "release_date": "2007-01-19", "title": "The Savages", "video": false, "vote_average": 6.9, "vote_count": 192, "popularity": 9.466}, {"adult": false, "backdrop_path": "/g3LYarEY9LjB28Ct2trwFN72gqZ.jpg", "genre_ids": [35], "id": 437557, "original_language": "en", "original_title": "Blockers", "overview": "When three parents discover their daughters\u2019 pact to lose their virginity at prom, they launch a covert one-night operation to stop the teens from sealing the deal.", "poster_path": "/uvlUQXg0AlpGzKukO11K7QtW3Yu.jpg", "release_date": "2018-03-14", "title": "Blockers", "video": false, "vote_average": 6.2, "vote_count": 1155, "popularity": 17.886}, {"adult": false, "backdrop_path": "/zBB1mzmqnUuSrlTuf0SFFlI1EoJ.jpg", "genre_ids": [18], "id": 244772, "original_language": "en", "original_title": "The Skeleton Twins", "overview": "Estranged twins Maggie and Milo coincidentally cheat death on the same day, prompting them to reunite and confront the reasons their lives went so wrong. As the twins' reunion reinvigorates them, they realize the key to fixing their lives may just lie in repairing their relationship.", "poster_path": "/vvmv1R2jDXJeeeyYcGg0ypXc2XK.jpg", "release_date": "2014-09-12", "title": "The Skeleton Twins", "video": false, "vote_average": 6.7, "vote_count": 416, "popularity": 10.481}, {"adult": false, "backdrop_path": "/3YGy88nTV2e0wxZcKI1goiEN9oy.jpg", "genre_ids": [18, 10749], "id": 37636, "original_language": "en", "original_title": "High Art", "overview": "A young female intern at a small magazine company becomes involved with a drug-addicted lesbian photographer, both of whom seek to exploit each other for their respective careers, while slowly falling in love with each other.", "poster_path": "/qTg05RNJIvb9w4Z7XIcAZxuZmTn.jpg", "release_date": "1998-06-12", "title": "High Art", "video": false, "vote_average": 6.6, "vote_count": 61, "popularity": 7.422}, {"adult": false, "backdrop_path": "/caLMOD3ZJ3V7qjlxDXrzlJfBLgD.jpg", "genre_ids": [18, 10749], "id": 20, "original_language": "en", "original_title": "My Life Without Me", "overview": "A Pedro Almodovar production in which a fatally ill mother with only two months to live creates a list of things she wants to do before she dies with out telling her family of her illness.", "poster_path": "/vVj92VBFUBzjqzLvBiPVVlJDp78.jpg", "release_date": "2003-03-07", "title": "My Life Without Me", "video": false, "vote_average": 6.1, "vote_count": 220, "popularity": 10.382}, {"adult": false, "backdrop_path": "/useuHJQ5HOoEWkAvEjL1FW1sUfe.jpg", "genre_ids": [18], "id": 376867, "original_language": "en", "original_title": "Moonlight", "overview": "The tender, heartbreaking story of a young man\u2019s struggle to find himself, told across three defining chapters in his life as he experiences the ecstasy, pain, and beauty of falling in love, while grappling with his own sexuality.", "poster_path": "/qAwFbszz0kRyTuXmMeKQZCX3Q2O.jpg", "release_date": "2016-10-21", "title": "Moonlight", "video": false, "vote_average": 7.4, "vote_count": 4410, "popularity": 21.716}], "total_pages": 1446, "total_results": 28909}, "recommendations": {"page": 1, "results": [{"adult": false, "backdrop_path": "/yz82csAKOFy1Y9LkoB6xsdM9FhH.jpg", "genre_ids": [35], "id": 333358, "original_language": "en", "original_title": "Better Off Single", "overview": "A comedy that follows a man on a mission of self-discovery that results in hallucinations, flashbacks and fantasies in his quest to find new love and himself.", "poster_path": "/sjNkyJ6ZpeHcJO1PL2D2CdRYXOM.jpg", "release_date": "2016-10-07", "title": "Better Off Single", "video": false, "vote_average": 5.2, "vote_count": 21, "popularity": 4.523}, {"adult": false, "backdrop_path": "/mEv4jeolrc0PYhdOPJLIsbXRkPl.jpg", "genre_ids": [18, 99], "id": 278990, "original_language": "en", "original_title": "Seve", "overview": "Despite being blocked at almost every turn in pursuit of the sport he loved, Seve Ballesteros fought against adversity to become the most spectacular and charismatic golfer to ever play the game.", "poster_path": "/6Z3XqhSjVA9zxY1DvTa8UFO3YxZ.jpg", "release_date": "2014-06-27", "title": "Seve", "video": false, "vote_average": 7.8, "vote_count": 9, "popularity": 3.445}, {"adult": false, "backdrop_path": "/kLKuwv8fgK6BF5bOAkUB1QjEENM.jpg", "genre_ids": [18], "id": 360284, "original_language": "en", "original_title": "A Light Beneath Their Feet", "overview": "A high school senior must choose between enrolling at the college of her dreams and remaining at home to take care of her bipolar mother.", "poster_path": "/tIRo0HeKAaYIIXJjgEHzWbiel8y.jpg", "release_date": "2016-05-06", "title": "A Light Beneath Their Feet", "video": false, "vote_average": 7.0, "vote_count": 8, "popularity": 3.679}, {"adult": false, "backdrop_path": "/8AjxuwDzOyn24f8HkdqSaatCUzs.jpg", "genre_ids": [35, 18], "id": 285844, "original_language": "en", "original_title": "Preggoland", "overview": "A 35-year-old woman fakes being pregnant to fit in with her friends.", "poster_path": "/7bens9y1eyjuE3dN32dC58KuWjC.jpg", "release_date": "2014-09-04", "title": "Preggoland", "video": false, "vote_average": 6.0, "vote_count": 16, "popularity": 5.253}, {"adult": false, "backdrop_path": "/fPvB7R0bo6egc9pEyxaL4ijwKo5.jpg", "genre_ids": [28, 18, 53], "id": 192210, "original_language": "en", "original_title": "Open Road", "overview": "Angie, a young Brazilian artist, abandons her old life and embarks on a journey around the country. Running from her past, and searching for her foundation in life, Angie finds not only herself but love in its many forms.", "poster_path": "/dEqGX02mRgl3EuyEqzgTG8rTGe4.jpg", "release_date": "2013-04-12", "title": "Open Road", "video": false, "vote_average": 5.2, "vote_count": 23, "popularity": 4.347}, {"adult": false, "backdrop_path": "/3JdjShN5RTmovlAfJKmcAYE5o09.jpg", "genre_ids": [35], "id": 261820, "original_language": "en", "original_title": "Goodbye to All That", "overview": "Otto Wall is just a little unlucky in life, and unbeknownst to him, in love. When his wife suddenly asks for a divorce, he bounces between a search for answers, desperate attempts to stay connected to his daughter, and his fateful reentry into the dating pool.", "poster_path": "/opUPuwRZktQfGZe6nqw1DKajwDx.jpg", "release_date": "2014-12-17", "title": "Goodbye to All That", "video": false, "vote_average": 5.3, "vote_count": 37, "popularity": 5.381}, {"adult": false, "backdrop_path": null, "genre_ids": [18], "id": 308980, "original_language": "et", "original_title": "Nullpunkt", "overview": "Sensitive and restless Johannes is accepted to an elite school in Tallinn and expects life to go uphill. Instead, he becomes the victim of mental abuse by his classmates. In search of recognition, he goes to his old Lasnam\u00e4e friends, who spend their time doing drugs, hanging around, and partying, rather than focusing on schoolwork. At home, Johannes must deal with his mother\u2019s deteriorating mental health. As the tension grows, he finds himself at zero point, where he must completely reset his life to build it up from scratch.", "poster_path": "/gcKS7fMpKedjuAHcImOoKvl3QNa.jpg", "release_date": "2014-12-04", "title": "Zero Point", "video": false, "vote_average": 7.3, "vote_count": 16, "popularity": 2.099}], "total_pages": 1, "total_results": 7}, "credits": {"cast": [{"cast_id": 1, "character": "Ellie Edwards", "credit_id": "558d5b789251411baf000135", "gender": 1, "id": 17606, "name": "Imogen Poots", "order": 0, "profile_path": "/kJOUQP0I5HzyenTLWUTCdx6mIAk.jpg"}, {"cast_id": 6, "character": "Reno Thacker", "credit_id": "558d5e1cc3a3687bdb000439", "gender": 1, "id": 1110405, "name": "Mackenzie Davis", "order": 1, "profile_path": "/ekQbEIKh26jbz17P0wwLbo6uNs9.jpg"}, {"cast_id": 2, "character": "Amanda", "credit_id": "558d5b8cc3a36834fc0001b3", "gender": 1, "id": 1980, "name": "Mary McCormack", "order": 2, "profile_path": "/e2brLtFCfgLdOp356bcEyRzQkoJ.jpg"}, {"cast_id": 14, "character": "Jack", "credit_id": "58099a689251413790004dfb", "gender": 2, "id": 1674161, "name": "Ryan Bingham", "order": 3, "profile_path": "/bAUf5BHUIioTk1t0hVNrth1aHYw.jpg"}, {"cast_id": 7, "character": "Judy Edwards", "credit_id": "558d5e3fc3a3683482000226", "gender": 1, "id": 35515, "name": "June Squibb", "order": 4, "profile_path": "/2QDE0wZ9B9a4Kd2S4e9XP65agrf.jpg"}, {"cast_id": 17, "character": "Bruce Edwards", "credit_id": "58099a919251413787004dd3", "gender": 0, "id": 1234808, "name": "Norman Bennett", "order": 5, "profile_path": null}, {"cast_id": 15, "character": "Cole Edwards", "credit_id": "58099a749251413790004e03", "gender": 2, "id": 74242, "name": "Shea Whigham", "order": 6, "profile_path": "/xlLI0hrutcyKOIHs4b47iSh65NU.jpg"}, {"cast_id": 16, "character": "Tommy", "credit_id": "58099a809251413784004d05", "gender": 0, "id": 1697390, "name": "Presley Jack Bowen", "order": 7, "profile_path": null}, {"cast_id": 18, "character": "Roger", "credit_id": "58099aa19251413793004bcd", "gender": 2, "id": 177905, "name": "Joe Stevens", "order": 8, "profile_path": "/pCflBRau0xOGR17W1kzue7ySVqv.jpg"}, {"cast_id": 13, "character": "James", "credit_id": "558d71219251415be80001d3", "gender": 2, "id": 1056053, "name": "Josh Helman", "order": 9, "profile_path": "/rmj2HHc1uNESTlHk50qnCHK11jD.jpg"}, {"cast_id": 19, "character": "Brenda Thacker", "credit_id": "58099aabc3a3681b25004b9c", "gender": 0, "id": 1476863, "name": "Melanie Haynes", "order": 10, "profile_path": null}, {"cast_id": 20, "character": "Sammy", "credit_id": "58099ab6c3a3681b25004ba1", "gender": 0, "id": 590984, "name": "John Merriman", "order": 11, "profile_path": "/uX025hZ54qoHynVH8OjW3hkl5mT.jpg"}, {"cast_id": 21, "character": "Susan", "credit_id": "58099abfc3a3681b1d00497c", "gender": 0, "id": 1650303, "name": "Peggy Schott", "order": 12, "profile_path": "/fDuPjwOjQK63iNA6wRo7gOfU6zz.jpg"}, {"cast_id": 22, "character": "Mr. Harris", "credit_id": "58099ac9c3a3681b3b004d69", "gender": 0, "id": 1094672, "name": "Larry Jack Dotson", "order": 13, "profile_path": "/nHdugQPPN77zzffkNdwjdbkv4aP.jpg"}, {"cast_id": 23, "character": "Hannah", "credit_id": "58099ad2c3a3681b21004cc4", "gender": 0, "id": 1552445, "name": "Kay Epperson", "order": 14, "profile_path": null}, {"cast_id": 24, "character": "Jessica", "credit_id": "58099ae69251413790004e42", "gender": 1, "id": 111009, "name": "Cassandra L. Small", "order": 15, "profile_path": "/ychoMaUFHblybxrulhtkg9QAvPk.jpg"}, {"cast_id": 31, "character": "Katie", "credit_id": "5a02b726925141120100f5b9", "gender": 1, "id": 965770, "name": "Carlson Young", "order": 16, "profile_path": "/90JU3u7haX0ASvA1rwXNJNuhTQR.jpg"}, {"cast_id": 32, "character": "Mark Edwards", "credit_id": "5a02b745c3a36861aa00de02", "gender": 0, "id": 1380098, "name": "J. Alan Nelson", "order": 17, "profile_path": null}, {"cast_id": 25, "character": "Ticket Agent", "credit_id": "5a02b6ccc3a36861c500f897", "gender": 1, "id": 1277218, "name": "Nancy Nave", "order": 18, "profile_path": "/zvCm6rqLLMpucBEFxyh3FaG0zlc.jpg"}, {"cast_id": 26, "character": "Hardware Store Owner", "credit_id": "5a02b6db92514111cb00fd80", "gender": 2, "id": 525243, "name": "Richard Jackson", "order": 19, "profile_path": "/xvgHFv71C7qHONipResk9HEUrr3.jpg"}, {"cast_id": 27, "character": "Priest", "credit_id": "5a02b6e492514111e400f1a1", "gender": 0, "id": 59455, "name": "Steve Uzzell", "order": 20, "profile_path": null}, {"cast_id": 28, "character": "Mom at Dairy Queen", "credit_id": "5a02b6ef92514111e400f1b2", "gender": 0, "id": 1919645, "name": "Tatiana Panovich", "order": 21, "profile_path": null}, {"cast_id": 29, "character": "Kid at Dairy Queen", "credit_id": "5a02b6fd92514111af00f9f2", "gender": 0, "id": 1919646, "name": "William C May", "order": 22, "profile_path": null}, {"cast_id": 30, "character": "Mailman", "credit_id": "5a02b714c3a368639100f353", "gender": 0, "id": 1919647, "name": "Sam Henderson", "order": 23, "profile_path": null}, {"cast_id": 33, "character": "Bank Manager", "credit_id": "5a02b75b92514111f900f768", "gender": 0, "id": 1919648, "name": "Shelby Davenport", "order": 24, "profile_path": null}, {"cast_id": 34, "character": "Waitress", "credit_id": "5a02b765c3a368637f00eae7", "gender": 0, "id": 1243224, "name": "Jessica Schwartz", "order": 25, "profile_path": null}], "crew": [{"credit_id": "558d5dd09251417c380009e2", "department": "Production", "gender": 2, "id": 56238, "job": "Producer", "name": "Jason Netter", "profile_path": null}, {"credit_id": "558d70379251415be80001a8", "department": "Writing", "gender": 0, "id": 1079598, "job": "Writer", "name": "Jim Beggarly", "profile_path": null}, {"credit_id": "558d5f7a9251411bc70001c3", "department": "Production", "gender": 2, "id": 1089521, "job": "Producer", "name": "Nicolas Gonda", "profile_path": null}, {"credit_id": "558d5da1c3a3687bfc00044f", "department": "Editing", "gender": 0, "id": 1167489, "job": "Editor", "name": "Kiran Pallegadda", "profile_path": null}, {"credit_id": "554a6eca9251412bb4001dd2", "department": "Directing", "gender": 1, "id": 1464250, "job": "Director", "name": "Anna Axster", "profile_path": null}, {"credit_id": "558d70259251416c2a004c2c", "department": "Writing", "gender": 1, "id": 1464250, "job": "Writer", "name": "Anna Axster", "profile_path": null}, {"credit_id": "558d5d4dc3a36834820001ed", "department": "Production", "gender": 1, "id": 1475160, "job": "Casting", "name": "Vicky Boone", "profile_path": null}]}}