{"adult": false, "backdrop_path": "/lKeOvKSPovKCdEEdqcBDoIlg9o1.jpg", "belongs_to_collection": null, "budget": 0, "genres": [{"id": 18, "name": "Drama"}], "homepage": "http://www.thegirlinthebook.com/", "id": 339145, "imdb_id": "tt2980554", "original_language": "en", "original_title": "The Girl in the Book", "overview": "The story of a young writer's transformation when her past invades her present.", "popularity": 6.571, "poster_path": "/qoxyVaXgIwWCW4m0whX7Uo7G3ku.jpg", "production_companies": [{"id": 83316, "logo_path": null, "name": "Varient Busted Buggy Entertainmen", "origin_country": ""}], "production_countries": [{"iso_3166_1": "US", "name": "United States of America"}], "release_date": "2015-06-13", "revenue": 0, "runtime": 86, "spoken_languages": [{"iso_639_1": "en", "name": "English"}], "status": "Released", "tagline": "She's ready to reclaim her story", "title": "The Girl in the Book", "video": false, "vote_average": 5.9, "vote_count": 100, "keywords": {"keywords": [{"id": 187056, "name": "woman director"}]}, "similar": {"page": 1, "results": [{"adult": false, "backdrop_path": "/cADbqsIoiDW7X3Myg9nz8eAuno5.jpg", "genre_ids": [18, 10749], "id": 10818, "original_language": "fr", "original_title": "Naissance des pieuvres", "overview": "Set during a sultry summer in a French suburb, Marie is desperate to join the local pool's synchronized swimming team, but is her interest solely for the sake of sport or for a chance to get close to Floriane, the bad girl of the team? Sciamma, and the two leads, capture the uncertainty of teenage sexuality with a sympathetic eye in this delicate drama of the angst of coming-of-age.", "poster_path": "/4jajELYrR4Xmv3CVoKnukRnALa2.jpg", "release_date": "2007-05-17", "title": "Water Lilies", "video": false, "vote_average": 6.1, "vote_count": 119, "popularity": 9.614}, {"adult": false, "backdrop_path": "/gZeJziVigmRqbkEZwKAtSqlLQ6s.jpg", "genre_ids": [18, 10749], "id": 370663, "original_language": "en", "original_title": "Below Her Mouth", "overview": "An unexpected affair quickly escalates into a heart-stopping reality for two women whose passionate connection changes their lives forever.", "poster_path": "/nTGbq37hYLuNy7YgMg0gVLma0NS.jpg", "release_date": "2016-09-10", "title": "Below Her Mouth", "video": false, "vote_average": 6.2, "vote_count": 456, "popularity": 18.664}, {"adult": false, "backdrop_path": "/dvQDRfv3qvfHNnVAR57ouVsuErf.jpg", "genre_ids": [10749, 18], "id": 28031, "original_language": "en", "original_title": "If These Walls Could Talk 2", "overview": "The stories of three lesbian couples -- who live in the same house at different periods of time -- who are at a crossroads in their lives. In 1961, Edith loses her lover, Abby, to a stroke. Linda and Amy struggle with feminist issues in 1972. And, in 2000, Kal and Fran try to have a baby with the help of sperm donor.", "poster_path": "/xs7ODbmYQXCDhvXNvz5tF17T59H.jpg", "release_date": "2000-03-05", "title": "If These Walls Could Talk 2", "video": false, "vote_average": 7.1, "vote_count": 55, "popularity": 8.86}, {"adult": false, "backdrop_path": "/knczzNAjBXzSYkeWxoT1u9VNmjR.jpg", "genre_ids": [10749, 18], "id": 258480, "original_language": "en", "original_title": "Carol", "overview": "In 1950s New York, a department-store clerk who dreams of a better life falls for an older, married woman.", "poster_path": "/AbKa7ANxmui0Jmhh7gV7OSELKIL.jpg", "release_date": "2015-11-20", "title": "Carol", "video": false, "vote_average": 7.4, "vote_count": 2184, "popularity": 13.539}, {"adult": false, "backdrop_path": "/fZ8oFcREAr6wgWcXISGql0xyxjB.jpg", "genre_ids": [35, 18], "id": 39781, "original_language": "en", "original_title": "The Kids Are All Right", "overview": "Two women, Nic and Jules, brought a son and daughter into the world through artificial insemination. When one of their children reaches age, both kids go behind their mothers' backs to meet with the donor. Life becomes so much more interesting when the father, two mothers and children start to become attached to each other.", "poster_path": "/fPDeK4MmoGfi2X0oWZev7LrbMqM.jpg", "release_date": "2010-07-09", "title": "The Kids Are All Right", "video": false, "vote_average": 6.6, "vote_count": 923, "popularity": 12.159}, {"adult": false, "backdrop_path": "/rf6G51j0SZL0tP57I8gnqHTRFEr.jpg", "genre_ids": [35, 18, 10749], "id": 273153, "original_language": "fr", "original_title": "La belle saison", "overview": "In 1971, Carole and Delphine meet and fall in love in Paris. When Carole follows Delphine back to her family farm in Limousin, the two find lesbianism and feminism are not as easy in the countryside.", "poster_path": "/evvAkNMO5VJiy5qIo1Hu7fUfvVI.jpg", "release_date": "2015-08-19", "title": "Summertime", "video": false, "vote_average": 6.6, "vote_count": 162, "popularity": 11.575}, {"adult": false, "backdrop_path": "/s12HEmmkJfI2mjltI61hGm5kubD.jpg", "genre_ids": [35, 18, 10749], "id": 20770, "original_language": "en", "original_title": "But I'm a Cheerleader", "overview": "Megan is an all-American girl. A cheerleader. She has a boyfriend. But Megan doesn't like kissing her boyfriend very much. And she's pretty touchy with her cheerleader friends. Her conservative parents worry that she must be a lesbian and send her off to \"sexual redirection\" school, where she must, with other lesbians and gays learn how to be straight.", "poster_path": "/eDGH7CHSdkrYcuUJV1e0WS9DlQL.jpg", "release_date": "1999-12-09", "title": "But I'm a Cheerleader", "video": false, "vote_average": 6.8, "vote_count": 246, "popularity": 9.011}, {"id": 9813, "video": false, "vote_count": 128, "vote_average": 6.1, "title": "The Quiet", "release_date": "2005-09-12", "original_language": "en", "original_title": "The Quiet", "genre_ids": [18, 53], "backdrop_path": "/6eyWAZA4CEidZW1xXnQ4vlYBXTP.jpg", "adult": false, "overview": "After her widowed father dies, deaf teenager Dot moves in with her godparents, Olivia and Paul Deer. The Deers' daughter, Nina, is openly hostile to Dot, but that does not prevent her from telling her secrets to her silent stepsister, including the fact that she wants to kill her lecherous father.", "poster_path": "/GEqIE9YlmygHVUfS64LW2cwAAM.jpg", "popularity": 14.844}, {"adult": false, "backdrop_path": "/tzqeuHWMFihFbiLGHdalPgAcSf6.jpg", "genre_ids": [18, 10749], "id": 18620, "original_language": "en", "original_title": "Go Fish", "overview": "Max is a trendy, pretty, young lesbian, who is having trouble finding love. A friend sets her up with Ely, whom Max likes, but Ely is frumpy, homely, and older. Nor do they have much in common. Can Max learn to look past the packaging?", "poster_path": "/qrEFYrwykaGsY8NULYuYLLI7zrM.jpg", "release_date": "1994-06-10", "title": "Go Fish", "video": false, "vote_average": 5.0, "vote_count": 11, "popularity": 3.676}, {"adult": false, "backdrop_path": "/6tern9vOEwwmkDYC1vRCuO64z0C.jpg", "genre_ids": [10749, 18], "id": 475888, "original_language": "en", "original_title": "Tell It to the Bees", "overview": "Dr. Jean Markham returns to the town she left as a teenager to take over her late father's medical practice. When a school-yard scuffle lands Charlie in her surgery, she invites him to visit the hives in her garden and tell his secrets to the bees, as she once did. The new friendship between the boy and the bee keeper brings his mother Lydia into Jean's world.", "poster_path": "/Rj6zpHhMU1zFW3v28U4PSRSRgP.jpg", "release_date": "2019-05-03", "title": "Tell It to the Bees", "video": false, "vote_average": 6.4, "vote_count": 53, "popularity": 13.175}, {"adult": false, "backdrop_path": "/baYbbMtKRDoDWYJeVWkbygAvAj8.jpg", "genre_ids": [18, 10749], "id": 31216, "original_language": "en", "original_title": "I Can't Think Straight", "overview": "I CAN'T THINK STRAIGHT is a 2007 romance movie about a London-based Jordanian of Palestinian descent, Tala, who is preparing for an elaborate wedding. A turn of events causes her to have an affair and subsequently fall in love with another woman, Leyla, a British Indian.", "poster_path": "/1kapga6rkM5wNuQBYw7sdE42CrA.jpg", "release_date": "2008-06-01", "title": "I Can't Think Straight", "video": false, "vote_average": 7.6, "vote_count": 109, "popularity": 7.815}, {"adult": false, "backdrop_path": "/lI5h8KaoeObu4NMTwzeRuUHzRwD.jpg", "genre_ids": [18, 9648, 53], "id": 401898, "original_language": "no", "original_title": "Thelma", "overview": "A college student starts to experience extreme seizures. She soon learns that the violent episodes are a symptom of inexplicable abilities.", "poster_path": "/yzSfG8TLAqw7nMQh2lxirQkQpgs.jpg", "release_date": "2017-09-15", "title": "Thelma", "video": false, "vote_average": 7.1, "vote_count": 418, "popularity": 13.105}, {"adult": false, "backdrop_path": "/tIFRPjIXQ3sYrmxbIeOu9K1JkUz.jpg", "genre_ids": [18, 10749], "id": 294, "original_language": "en", "original_title": "Desert Hearts", "overview": "The story of straight-edge literature professor Vivian who travels to Reno to get away from a relationship breakup when she falls in love with an attractive and unconventional girl named Cay.", "poster_path": "/b8JSmQSpYYJhctMtxNgqh0elENg.jpg", "release_date": "1985-10-01", "title": "Desert Hearts", "video": false, "vote_average": 7.3, "vote_count": 58, "popularity": 6.976}, {"id": 2255, "video": false, "vote_count": 772, "vote_average": 6.8, "title": "Chasing Amy", "release_date": "1997-04-04", "original_language": "en", "original_title": "Chasing Amy", "genre_ids": [35, 18, 10749], "backdrop_path": "/doKYVK61Vb8J1KUjlb9dNWkQNp6.jpg", "adult": false, "overview": "Holden and Banky are comic book artists. Everything is going good for them until they meet Alyssa, also a comic book artist. Holden falls for her, but his hopes are crushed when he finds out she's a lesbian.", "poster_path": "/4vFJileWrCGaBeobCmF0tXpQCUb.jpg", "popularity": 13.95}, {"adult": false, "backdrop_path": "/hD8DQM72Xacg1d3mFqS0eN8vKYw.jpg", "genre_ids": [18], "id": 8272, "original_language": "en", "original_title": "The Savages", "overview": "A sister and brother face the realities of familial responsibility as they begin to care for their ailing father.", "poster_path": "/nY54gSmTOmSXlQpWDB7DWp4u8a7.jpg", "release_date": "2007-01-19", "title": "The Savages", "video": false, "vote_average": 6.9, "vote_count": 192, "popularity": 9.466}, {"adult": false, "backdrop_path": "/g3LYarEY9LjB28Ct2trwFN72gqZ.jpg", "genre_ids": [35], "id": 437557, "original_language": "en", "original_title": "Blockers", "overview": "When three parents discover their daughters\u2019 pact to lose their virginity at prom, they launch a covert one-night operation to stop the teens from sealing the deal.", "poster_path": "/uvlUQXg0AlpGzKukO11K7QtW3Yu.jpg", "release_date": "2018-03-14", "title": "Blockers", "video": false, "vote_average": 6.2, "vote_count": 1155, "popularity": 17.886}, {"adult": false, "backdrop_path": "/zBB1mzmqnUuSrlTuf0SFFlI1EoJ.jpg", "genre_ids": [18], "id": 244772, "original_language": "en", "original_title": "The Skeleton Twins", "overview": "Estranged twins Maggie and Milo coincidentally cheat death on the same day, prompting them to reunite and confront the reasons their lives went so wrong. As the twins' reunion reinvigorates them, they realize the key to fixing their lives may just lie in repairing their relationship.", "poster_path": "/vvmv1R2jDXJeeeyYcGg0ypXc2XK.jpg", "release_date": "2014-09-12", "title": "The Skeleton Twins", "video": false, "vote_average": 6.7, "vote_count": 416, "popularity": 10.481}, {"adult": false, "backdrop_path": "/3YGy88nTV2e0wxZcKI1goiEN9oy.jpg", "genre_ids": [18, 10749], "id": 37636, "original_language": "en", "original_title": "High Art", "overview": "A young female intern at a small magazine company becomes involved with a drug-addicted lesbian photographer, both of whom seek to exploit each other for their respective careers, while slowly falling in love with each other.", "poster_path": "/qTg05RNJIvb9w4Z7XIcAZxuZmTn.jpg", "release_date": "1998-06-12", "title": "High Art", "video": false, "vote_average": 6.6, "vote_count": 61, "popularity": 7.422}, {"adult": false, "backdrop_path": "/caLMOD3ZJ3V7qjlxDXrzlJfBLgD.jpg", "genre_ids": [18, 10749], "id": 20, "original_language": "en", "original_title": "My Life Without Me", "overview": "A Pedro Almodovar production in which a fatally ill mother with only two months to live creates a list of things she wants to do before she dies with out telling her family of her illness.", "poster_path": "/vVj92VBFUBzjqzLvBiPVVlJDp78.jpg", "release_date": "2003-03-07", "title": "My Life Without Me", "video": false, "vote_average": 6.1, "vote_count": 220, "popularity": 10.382}, {"id": 434714, "video": false, "vote_count": 32, "vote_average": 7.5, "title": "My Days of Mercy", "release_date": "2019-07-11", "original_language": "en", "original_title": "My Days of Mercy", "genre_ids": [18, 10749], "backdrop_path": "/7Lbzq33nMMIQtAfZAmSqG6ibLSg.jpg", "adult": false, "overview": "The daughter of a man on death row falls in love with a woman on the opposing side of her family's political cause.", "poster_path": "/adIPKAoKnKL9vCTkvfF4J9ZA7Ln.jpg", "popularity": 9.342}], "total_pages": 1446, "total_results": 28909}, "recommendations": {"page": 1, "results": [{"id": 33646, "video": false, "vote_count": 4, "vote_average": 6.3, "title": "The Perfect You", "release_date": "2002-03-01", "original_language": "en", "original_title": "The Perfect You", "genre_ids": [35, 10749], "backdrop_path": "/5FovWg1IFT0s7joNl5qF55YMZRd.jpg", "adult": false, "overview": "A waiter/writer living with his dad and a neat freak who's just landed a job as a reporter in New York, meet by colliding on the Brooklyn Bridge, and romance ensues.", "poster_path": "/4r4dqTTkm4mud0VfWyBdtPt7abr.jpg", "popularity": 2.377}, {"adult": false, "backdrop_path": "/i47OnMHp1wuwROe6WD7lrCorW4u.jpg", "genre_ids": [35, 18, 10749], "id": 241071, "original_language": "en", "original_title": "Brightest Star", "overview": "A recent college graduate sets out to win back the girl of his dreams.", "poster_path": "/xrRkr0rYBze7tYuxH96hQr9j6uS.jpg", "release_date": "2014-01-31", "title": "Brightest Star", "video": false, "vote_average": 4.3, "vote_count": 13, "popularity": 3.251}, {"adult": false, "backdrop_path": null, "genre_ids": [18, 10402], "id": 468201, "original_language": "en", "original_title": "Pure Country: Pure Heart", "overview": "Pure Country: Pure Heart is the moving, music-driven tale of teenage sisters Ada and Piper. Upon discovering a letter about their late father, a Marine who died in Iraq, they leave rural Tennessee and hit the road secretly in search of the truth about the man they never knew. As they uncover his past as a budding country music star, the sisters find their own voice, beginning their journey as singers/songwriters.", "poster_path": "/zNjOvy1zfe2FeUpJhxM4yJjKDMy.jpg", "release_date": "2017-08-01", "title": "Pure Country: Pure Heart", "video": false, "vote_average": 6.2, "vote_count": 10, "popularity": 2.839}, {"adult": false, "backdrop_path": null, "genre_ids": [35], "id": 254952, "original_language": "en", "original_title": "Me Him Her", "overview": "Three very different people in their twenties try to figure out love, sex, identity and friendship in Los Angeles.", "poster_path": "/ptcdA0qsnXxRGAOK23quLadBqyd.jpg", "release_date": "2016-03-11", "title": "Me Him Her", "video": false, "vote_average": 5.0, "vote_count": 23, "popularity": 3.432}, {"adult": false, "backdrop_path": null, "genre_ids": [35], "id": 349177, "original_language": "en", "original_title": "Sucker", "overview": "When Chinese-Australian teenager Lawrence cheats at and fails his high-school exams, destroying his dreams of a medical degree, he's banished to the country for the summer. There, he meets wily old conman the Professor and his cynical daughter Sarah, and learns that even the sneakiest scam can't conjure up love. Is it a true story? That might be another of Leung's tricks.", "poster_path": "/93fnZEylJnZd2HLp5Kk8fFDPZV9.jpg", "release_date": "2015-08-15", "title": "Sucker", "video": false, "vote_average": 5.2, "vote_count": 8, "popularity": 2.178}, {"id": 422792, "video": false, "vote_count": 9, "vote_average": 4.2, "title": "Holiday Breakup", "release_date": "2016-11-01", "original_language": "en", "original_title": "Holiday Breakup", "genre_ids": [35, 10749], "backdrop_path": "/1SAY2ewiPhO1LokK5yYgZVEHMeD.jpg", "adult": false, "overview": "Polar opposites meet and fall in love, but it isn't long before their relationship is on the rocks. In order to get through the holiday season without too much drama they decide to pretend they are still a couple, but their plan takes an unexpected turn.", "poster_path": "/nEMrQYHGXSjmfVcV67cdmZf1Xju.jpg", "popularity": 2.974}, {"adult": false, "backdrop_path": "/9lzKDnv1Fcbi8sHEUkR9iD2oRNK.jpg", "genre_ids": [99], "id": 329005, "original_language": "en", "original_title": "Autism in Love", "overview": "The story of four adults with autism spectrum disorders as they search for and manage romantic relationships.", "poster_path": "/4NTEo21bOcMknOZTPQRtxY5WwaE.jpg", "release_date": "2015-04-15", "title": "Autism in Love", "video": false, "vote_average": 6.3, "vote_count": 7, "popularity": 1.654}, {"adult": false, "backdrop_path": "/6gIzjw82M83mhULm37kK8qyruLs.jpg", "genre_ids": [99], "id": 117924, "original_language": "en", "original_title": "Somewhere Between", "overview": "Questions of race, identity and heritage are explored through the lives of young American women growing up as adoptees from China. These four distinct individuals reflect on their experiences as members of transracial families.", "poster_path": "/cA7F3XCtxc50hgznOKkyHiuK6M6.jpg", "release_date": "2012-08-24", "title": "Somewhere Between", "video": false, "vote_average": 7.3, "vote_count": 6, "popularity": 3.829}, {"adult": false, "backdrop_path": "/3oNFUMtbF6vkMBVo9mbWtowywwI.jpg", "genre_ids": [35], "id": 254170, "original_language": "en", "original_title": "Random Encounters", "overview": "What seems to be a chance encounter one day at a coffee shop leads to a full-fledged romance, but the couple must fight for their relationship to survive the craziness that is show business.", "poster_path": "/aBjcZJOkwQS7pMZRHNdwDXkzqnU.jpg", "release_date": "2013-12-01", "title": "Random Encounters", "video": false, "vote_average": 3.0, "vote_count": 4, "popularity": 5.127}, {"adult": false, "backdrop_path": "/8CBrEuy32naxxfOwWaSkecoL6zJ.jpg", "genre_ids": [18], "id": 352327, "original_language": "en", "original_title": "After Words", "overview": "Faced with a midlife crisis, a woman travels to Costa Rica and meets a younger man who shows her adventure and romance.", "poster_path": "/3oBlXxB3DWk8rpTol4TcKA4rLZU.jpg", "release_date": "2015-08-21", "title": "After Words", "video": false, "vote_average": 6.0, "vote_count": 12, "popularity": 2.774}, {"id": 321030, "video": false, "vote_count": 31, "vote_average": 5.3, "title": "One More Time", "release_date": "2016-04-08", "original_language": "en", "original_title": "One More Time", "genre_ids": [35, 18, 10402], "backdrop_path": "/iiKMbO5aQ0K1BeZXEOThB2Nr6OF.jpg", "adult": false, "overview": "Beautiful aspiring rock star Jude is stuck in a rut - relegated to recording commercial jingles and lost in a series of one night stands. When she is evicted from her Brooklyn apartment, she is forced to move into the Hamptons home of her wealthy - and selfish - father Paul Lombard, an over-the-hill, Sinatra-esque crooner angling for a musical comeback.", "poster_path": "/ztc6w7rLDVlufaAdaIN19sWuUjd.jpg", "popularity": 9.877}, {"adult": false, "backdrop_path": "/yMAGaLFxeYDDzcBs06H0YjYQsyU.jpg", "genre_ids": [18], "id": 339079, "original_language": "en", "original_title": "A Country Called Home", "overview": "Ellie is a 27-year old whose life is far from where she imagined it to be. Filled with annoying friends, a self-involved boyfriend, and a career that she can\u2019t bring herself to pursue, Ellie feels detached from her life. When she learns that her estranged alcoholic father has died, her world is disrupted and she begins a journey that takes her to a small town in Texas. While dealing with the logistical arrangements of her father\u2019s death Ellie has to confront what happens when the structures and safety nets we build for ourselves come undone.", "poster_path": "/zMtmTtnI4GojzNoT3pFUiRq3FtI.jpg", "release_date": "2016-02-26", "title": "A Country Called Home", "video": false, "vote_average": 5.7, "vote_count": 23, "popularity": 4.017}, {"id": 245169, "video": false, "vote_count": 32, "vote_average": 4.9, "title": "Three Night Stand", "release_date": "2013-12-06", "original_language": "en", "original_title": "Three Night Stand", "genre_ids": [35, 18], "backdrop_path": "/v6YQDKbnGZO386JifsJlgTvBAGR.jpg", "adult": false, "overview": "A man's plans for a romantic weekend go awry when he learns that his ex-girlfriend, whom he still secretly loves, manages the ski lodge where he and his wife are staying.", "poster_path": "/z51kTRypNwJrQsRXtwY9OQdeef6.jpg", "popularity": 4.025}, {"adult": false, "backdrop_path": "/mktNLLHb2LkCdqFA1Ujv2QC7JNL.jpg", "genre_ids": [99], "id": 169860, "original_language": "en", "original_title": "Hey Bartender", "overview": "Two bartenders try to achieve their dreams through bartending. An injured Marine turns his goals to becoming a principal bartender at the best cocktail bar in the world. A young man leaves his white collar job to buy the corner bar in his hometown, and years later he struggles to keep it afloat. Featuring the world's most renowned bartenders and access to the most exclusive bars in New York, this is the story of the comeback of the cocktail and the rebirth of the bartender.", "poster_path": "/m7jneeX9RhyNLKLqX3Ox0TJ9RTQ.jpg", "release_date": "2013-06-07", "title": "Hey Bartender", "video": false, "vote_average": 4.8, "vote_count": 6, "popularity": 1.446}, {"adult": false, "backdrop_path": "/t6pvUROooT3Mzea9eaziMnWyaCb.jpg", "genre_ids": [10751, 18], "id": 340881, "original_language": "en", "original_title": "About Scout", "overview": "A rebellious Goth girl embarks on a road trip across Texas with a suicidal young man in an effort to find her little sister.", "poster_path": "/zT0j8Sdkp61yhWRuz8dCDRle8Qg.jpg", "release_date": "2015-04-25", "title": "About Scout", "video": false, "vote_average": 5.9, "vote_count": 9, "popularity": 2.311}, {"adult": false, "backdrop_path": "/a6emRlxVR0qdZoBMqQ50HLOcJNS.jpg", "genre_ids": [35, 18], "id": 172548, "original_language": "en", "original_title": "Good Night", "overview": "Leigh\u2019s 29th birthday party takes a sudden turn when she announces that the evening maybe the last time her friends see her alive. A night of questions, coping and debauchery immediately follow.", "poster_path": "/5JEYVNrHiycKILGTQatGS7hVewd.jpg", "release_date": "2013-03-08", "title": "Good Night", "video": false, "vote_average": 5.9, "vote_count": 4, "popularity": 3.489}, {"adult": false, "backdrop_path": "/eWKkAfcNfGOVyRJtu8tBS0lkdoZ.jpg", "genre_ids": [35, 18, 10749], "id": 96534, "original_language": "de", "original_title": "My Last Day Without You", "overview": "On a one-day business trip to New York, a young German business executive falls in love with a singer-songwriter who exposes him to her Brooklyn world and emotions he's never experienced before.", "poster_path": "/6yIdZ1Rnd4QR9u1UrxWEXMTxnnw.jpg", "release_date": "2011-06-11", "title": "My Last Day Without You", "video": false, "vote_average": 5.7, "vote_count": 6, "popularity": 1.081}, {"adult": false, "backdrop_path": "/b8wO26mD3cWwFPgQKcOVWvXS2kK.jpg", "genre_ids": [18, 53], "id": 340243, "original_language": "en", "original_title": "All Mistakes Buried", "overview": "A lone, struggling addict takes on a dangerous underground criminal ring in his small Southern town to retrieve a stolen pendant he believes will save his marriage.", "poster_path": "/bw6OyRDE7EKiwQRHgcunvEoovj3.jpg", "release_date": "2015-05-14", "title": "All Mistakes Buried", "video": false, "vote_average": 4.6, "vote_count": 5, "popularity": 2.941}, {"adult": false, "backdrop_path": "/9Ibj4HrskYjWsbupXWbfO5NcHAd.jpg", "genre_ids": [18], "id": 81707, "original_language": "en", "original_title": "The Wise Kids", "overview": "A vivid, dynamic Southern coming-of-age drama, takes place in the transitional space between high school and college, when life seems to be all questions and no answers, and the future is scarily wide open. Set in and around a Charleston, SC Baptist church, weaving through this ensemble piece are three main characters - Brea, an introspective pastor's daughter experiencing debilitating doubt, the hyperactive Laura, Brea's best friend and a devout believer, and Tim, the open-hearted son of a single father, confronting his homosexuality for the first time. Tensions and buried feelings abound, as colleges are chosen and adults behave badly, as Brea, Laura and Tim attempt to hang onto what they have, all the while yearning to break free.", "poster_path": "/5EiP1mW0yA5kovHOYDoJEWLzbRl.jpg", "release_date": "2011-07-09", "title": "The Wise Kids", "video": false, "vote_average": 6.2, "vote_count": 20, "popularity": 3.0}, {"adult": false, "backdrop_path": "/uK5R8eHKoCVNtgfU5WyNKFAL5xJ.jpg", "genre_ids": [35], "id": 326434, "original_language": "en", "original_title": "Manny Lewis", "overview": "The film follows the story of a famous fictional stand-up comedian Manny Lewis, who connects with millions of fans but finds it hard to connect to one person. Manny struggles to overcome his sense of alienation and shyness, and a difficult relationship with his father, in a romantic and feel-good quest for the love of the quirky Maria.", "poster_path": "/8arMU3ZykE4wAlBL0GBA6NZMUSZ.jpg", "release_date": "2015-03-12", "title": "Manny Lewis", "video": false, "vote_average": 6.2, "vote_count": 7, "popularity": 2.314}], "total_pages": 2, "total_results": 40}, "credits": {"cast": [{"cast_id": 2, "character": "Alice Harvey", "credit_id": "55c587b39251417a2a000d81", "gender": 1, "id": 84247, "name": "Emily VanCamp", "order": 0, "profile_path": "/2nBBndedoyJvuDaUwZ1nNgip6Tn.jpg"}, {"cast_id": 3, "character": "Milan Daneker", "credit_id": "55c587bbc3a3682f1f000be3", "gender": 2, "id": 6283, "name": "Michael Nyqvist", "order": 1, "profile_path": "/bDjPDDiSna8FN5rqHdheg2wIYYo.jpg"}, {"cast_id": 4, "character": "Young Alice", "credit_id": "55c587c4c3a3682f21000daa", "gender": 1, "id": 553700, "name": "Ana Mulvoy-Ten", "order": 2, "profile_path": "/eQ0KrHajV8r4HgX6ujCTT5fH9tV.jpg"}, {"cast_id": 5, "character": "Mom", "credit_id": "55c587ce9251417a30000d00", "gender": 1, "id": 140253, "name": "Talia Balsam", "order": 3, "profile_path": "/4adzNEL8GD9lKlxWDlnuKcp37SF.jpg"}, {"cast_id": 6, "character": "Sadie", "credit_id": "55c587d59251417a2a000d85", "gender": 1, "id": 1323810, "name": "Ali Ahn", "order": 4, "profile_path": "/hyIsbq0BsHLHpfc0RgbKDlNd56U.jpg"}, {"cast_id": 9, "character": "Emmett Grant", "credit_id": "574e7fc39251410c9c000185", "gender": 2, "id": 118076, "name": "David Call", "order": 5, "profile_path": "/lAaKXY9vh9KMpJSQofzEISZKW4W.jpg"}, {"cast_id": 10, "character": "Dad", "credit_id": "599447ac925141540e0174b1", "gender": 2, "id": 21136, "name": "Michael Cristofer", "order": 6, "profile_path": "/yWZr1U6A4UAatvgqvX1zmOgB92S.jpg"}, {"cast_id": 8, "character": "Lynn", "credit_id": "55c587ea9251417a1e000def", "gender": 0, "id": 1429053, "name": "Courtney Daniels", "order": 7, "profile_path": null}, {"cast_id": 7, "character": "Tyler", "credit_id": "55c587e0c3a3682f1c000df2", "gender": 0, "id": 1494786, "name": "Mason Yam", "order": 8, "profile_path": null}, {"cast_id": 21, "character": "Boy", "credit_id": "5d072b8cc3a3680a5723308f", "gender": 2, "id": 1689285, "name": "Eric Tabach", "order": 9, "profile_path": "/npZV1MoQGHtcZZJQbmHYavrt3CL.jpg"}], "crew": [{"credit_id": "5ae67385c3a3681351006dda", "department": "Production", "gender": 2, "id": 52363, "job": "Executive Producer", "name": "Nick Quested", "profile_path": null}, {"credit_id": "5ae67392c3a3681348005ab9", "department": "Production", "gender": 1, "id": 56416, "job": "Producer", "name": "Gina Resnick", "profile_path": null}, {"credit_id": "554ac490c3a3685e4e0007e2", "department": "Directing", "gender": 0, "id": 223747, "job": "Director", "name": "Marya Cohn", "profile_path": null}, {"credit_id": "55c587a49251417a30000cfb", "department": "Writing", "gender": 0, "id": 223747, "job": "Writer", "name": "Marya Cohn", "profile_path": null}, {"credit_id": "5ae672d6c3a3681351006d5e", "department": "Camera", "gender": 0, "id": 1024291, "job": "Director of Photography", "name": "Trevor Forrest", "profile_path": null}, {"credit_id": "5ae672fbc3a3681358005896", "department": "Editing", "gender": 0, "id": 1203779, "job": "Editor", "name": "Jessica Brunetto", "profile_path": null}, {"credit_id": "5ae673240e0a261072004d5f", "department": "Production", "gender": 1, "id": 1493973, "job": "Casting", "name": "Lisa Zagoria", "profile_path": null}, {"credit_id": "5ae6734bc3a368135500780d", "department": "Art", "gender": 0, "id": 1530080, "job": "Art Direction", "name": "Richard C. Walker", "profile_path": null}, {"credit_id": "5ae6731b0e0a26105a0052e3", "department": "Production", "gender": 1, "id": 1539404, "job": "Casting", "name": "Zoe E. Rotter", "profile_path": null}, {"credit_id": "5ae673370e0a261072004d78", "department": "Art", "gender": 0, "id": 1869437, "job": "Set Decoration", "name": "Kendall Anderson", "profile_path": null}, {"credit_id": "5ae672e50e0a261063004c9b", "department": "Art", "gender": 1, "id": 2031077, "job": "Art Direction", "name": "Kelley Lutter", "profile_path": null}, {"credit_id": "5ae673750e0a26104f004f2e", "department": "Production", "gender": 0, "id": 2032570, "job": "Producer", "name": "Kyle Heller", "profile_path": null}]}}