{"adult": false, "backdrop_path": "/cCs6sXOC4JmrMDdofXhLtmZDjKN.jpg", "belongs_to_collection": null, "budget": 0, "genres": [{"id": 28, "name": "Action"}], "homepage": null, "id": 339349, "imdb_id": "tt0057489", "original_language": "ja", "original_title": "\u6226\u56fd\u91ce\u90ce", "overview": "A brave, highly principled warrior resigns his post as a body guard to the head of a powerful clan after he learns that his employers have been smuggling arms to the enemy. The remaining samurai try in vain to coerce him back, but their efforts are thwarted by crooked warriors who launch an attack...", "popularity": 1.857, "poster_path": "/1vMLyycKOuHlJUoai1Dwi4S5IUM.jpg", "production_companies": [{"id": 882, "logo_path": "/fRSWWjquvzcHjACbtF53utZFIll.png", "name": "Toho Company, Ltd.", "origin_country": "JP"}], "production_countries": [{"iso_3166_1": "JP", "name": "Japan"}], "release_date": "1963-03-23", "revenue": 0, "runtime": 98, "spoken_languages": [{"iso_639_1": "ja", "name": "\u65e5\u672c\u8a9e"}], "status": "Released", "tagline": "", "title": "Warring Clans", "video": false, "vote_average": 7.0, "vote_count": 6, "keywords": {"keywords": [{"id": 1462, "name": "samurai"}, {"id": 10052, "name": "chambara"}, {"id": 10278, "name": "ninja"}]}, "similar": {"page": 1, "results": [{"id": 64686, "video": false, "vote_count": 2274, "vote_average": 6.0, "title": "47 Ronin", "release_date": "2013-12-06", "original_language": "en", "original_title": "47 Ronin", "genre_ids": [28, 12, 18, 14], "backdrop_path": "/slQkkaBHH1K915HtuN89iu0xqOv.jpg", "adult": false, "overview": "Kai\u2014an outcast\u2014joins Oishi, the leader of 47 outcast samurai.  Together they seek vengeance upon the treacherous overlord who killed their master and banished their kind.  To restore honour to their homeland, the warriors embark upon a quest that challenges them with a series of trials that would destroy ordinary warriors.", "poster_path": "/pUH46wa0n4zXZytpriSaoNUXai4.jpg", "popularity": 16.258}, {"adult": false, "backdrop_path": "/7geWAyhcmjcMQWcZA5lrS7Le8cG.jpg", "genre_ids": [18, 53], "id": 11878, "original_language": "ja", "original_title": "\u7528\u5fc3\u68d2", "overview": "A nameless ronin, or samurai with no master, enters a small village in feudal Japan where two rival businessmen are struggling for control of the local gambling trade. Taking the name Sanjuro Kuwabatake, the ronin convinces both silk merchant Tazaemon and sake merchant Tokuemon to hire him as a personal bodyguard, then artfully sets in motion a full-scale gang war between the two ambitious and unscrupulous men.", "poster_path": "/tN7kYPjRhDolpui9sc9Eq9n5b2O.jpg", "release_date": "1961-04-25", "title": "Yojimbo", "video": false, "vote_average": 8.2, "vote_count": 646, "popularity": 13.689}, {"id": 14537, "video": false, "vote_count": 304, "vote_average": 8.3, "title": "Harakiri", "release_date": "1962-09-15", "original_language": "ja", "original_title": "\u5207\u8179", "genre_ids": [28, 18, 36], "backdrop_path": "/pz9fxHyGiiNLZ21bccAtwrMAH7f.jpg", "adult": false, "overview": "Aging samurai Hanshiro Tsugumo arrives at the home of Kageyu Saito and asks to commit a ritual suicide on the property, which Saito thinks is a ploy to gain pity and a job. Saito tells Tsugumo of another samurai, Motome Chijiiwa, who threatened suicide as a stratagem, only to be forced to follow through on the task. When Tsugumo reveals that Chijiiwa was his son-in-law, the disclosure sets off a fierce conflict.", "poster_path": "/k2SE5P8expiI4Pt9qzIX0xJn94E.jpg", "popularity": 15.33}, {"id": 313297, "video": false, "vote_count": 2277, "vote_average": 7.7, "title": "Kubo and the Two Strings", "release_date": "2016-08-18", "original_language": "en", "original_title": "Kubo and the Two Strings", "genre_ids": [12, 16, 10751], "backdrop_path": "/aF4TrSc1IbNNtsWdwixMQNku3Dv.jpg", "adult": false, "overview": "Kubo mesmerizes the people in his village with his magical gift for spinning wild tales with origami. When he accidentally summons an evil spirit seeking vengeance, Kubo is forced to go on a quest to solve the mystery of his fallen samurai father and his mystical weaponry, as well as discover his own magical powers.", "poster_path": "/3Kr9CIIMcXTPlm6cdZ9y3QTe4Y7.jpg", "popularity": 33.362}, {"id": 221731, "video": false, "vote_count": 187, "vote_average": 7.6, "title": "Rurouni Kenshin: Kyoto Inferno", "release_date": "2014-08-01", "original_language": "ja", "original_title": "\u308b\u308d\u3046\u306b\u5263\u5fc3 \u4eac\u90fd\u5927\u706b\u7de8", "genre_ids": [28, 12, 18], "backdrop_path": "/4Rjl7vhjgzkAYrisGH5DQtGMrxh.jpg", "adult": false, "overview": "Kenshin has settled into his new life with Kaoru and his other friends when he is approached with a request from the Meiji government. Makoto Shishio, a former assassin like Kenshin, was betrayed, set on fire and left for dead. He survived, and is now in Kyoto, plotting with his gathered warriors to overthrow the new government. Against Kaoru's wishes, Kenshin reluctantly agrees to go to Kyoto and help keep his country from falling back into civil war.", "poster_path": "/3UHvMtp6OaWMqHgpsWGhNhUR0wg.jpg", "popularity": 15.061}, {"id": 308531, "video": false, "vote_count": 2031, "vote_average": 5.9, "title": "Teenage Mutant Ninja Turtles: Out of the Shadows", "release_date": "2016-06-01", "original_language": "en", "original_title": "Teenage Mutant Ninja Turtles: Out of the Shadows", "genre_ids": [28, 12, 35, 878, 10751], "backdrop_path": "/999RuhZvog8ocyvcccVV9yGmMjL.jpg", "adult": false, "overview": "After supervillain Shredder escapes custody, he joins forces with mad scientist Baxter Stockman and two dimwitted henchmen, Bebop and Rocksteady, to unleash a diabolical plan to take over the world. As the Turtles prepare to take on Shredder and his new crew, they find themselves facing an even greater evil with similar intentions: the notorious Krang.", "poster_path": "/u3M0HzkQR1pYNaadJWuxe84B34r.jpg", "popularity": 20.995}, {"id": 346, "video": false, "vote_count": 1683, "vote_average": 8.4, "title": "Seven Samurai", "release_date": "1954-04-26", "original_language": "ja", "original_title": "\u4e03\u4eba\u306e\u4f8d", "genre_ids": [28, 18], "backdrop_path": "/61vLiK96sbXeHpQiMxI4CuqBA3z.jpg", "adult": false, "overview": "A samurai answers a village's request for protection after he falls on hard times. The town needs protection from bandits, so the samurai gathers six others to help him teach the people how to defend themselves, and the villagers provide the soldiers with food. A giant battle occurs when 40 bandits attack the village.", "poster_path": "/v6xrz4fr92KY1oNC3HsEvrsvR1n.jpg", "popularity": 25.017}, {"id": 274862, "video": false, "vote_count": 491, "vote_average": 6.3, "title": "The Lego Ninjago Movie", "release_date": "2017-09-21", "original_language": "en", "original_title": "The Lego Ninjago Movie", "genre_ids": [28, 12, 16, 10751], "backdrop_path": "/3DPuzZmkBD9vbMpLvQcrymYoDBk.jpg", "adult": false, "overview": "Six young ninjas are tasked with defending their island home of Ninjago. By night, they\u2019re gifted warriors using their skill and awesome fleet of vehicles to fight villains and monsters. By day, they\u2019re ordinary teens struggling against their greatest enemy....high school.", "poster_path": "/vUo0pNXGhp2ffTJxiStWt6fHL7F.jpg", "popularity": 17.867}, {"id": 1498, "video": false, "vote_count": 919, "vote_average": 6.6, "title": "Teenage Mutant Ninja Turtles", "release_date": "1990-03-30", "original_language": "en", "original_title": "Teenage Mutant Ninja Turtles", "genre_ids": [28, 12, 35, 878, 10751], "backdrop_path": "/PxZWmNlfpuU8A26ZrYzpLaOX9S.jpg", "adult": false, "overview": "A quartet of mutated humanoid turtles clash with an uprising criminal gang of ninjas", "poster_path": "/cok0SSxmD7fYeZj6l9XOr2mb0YL.jpg", "popularity": 16.055}, {"id": 9312, "video": false, "vote_count": 1039, "vote_average": 5.7, "title": "Mortal Kombat", "release_date": "1995-08-18", "original_language": "en", "original_title": "Mortal Kombat", "genre_ids": [28, 14], "backdrop_path": "/mOIvM0pQA7J9I0Caai0zTPxnE3f.jpg", "adult": false, "overview": "For nine generations an evil sorcerer has been victorious in hand-to-hand battle against his mortal enemies. If he wins a tenth Mortal Kombat tournament, desolation and evil will reign over the multiverse forever. To save Earth, three warriors must overcome seemingly insurmountable odds, their own inner demons, and superhuman foes in this action/adventure movie based on one of the most popular video games of all time.", "poster_path": "/aQarGLCGr9ueYuwh9EXz3DfeEd9.jpg", "popularity": 17.982}, {"id": 98566, "video": false, "vote_count": 4596, "vote_average": 5.8, "title": "Teenage Mutant Ninja Turtles", "release_date": "2014-08-07", "original_language": "en", "original_title": "Teenage Mutant Ninja Turtles", "genre_ids": [28, 12, 35, 14, 878], "backdrop_path": "/OqCXGt5nl1cHPeotxCDvXLLe6p.jpg", "adult": false, "overview": "The city needs heroes. Darkness has settled over New York City as Shredder and his evil Foot Clan have an iron grip on everything from the police to the politicians. The future is grim until four unlikely outcast brothers rise from the sewers and discover their destiny as Teenage Mutant Ninja Turtles. The Turtles must work with fearless reporter April and her wise-cracking cameraman Vern Fenwick to save the city and unravel Shredder's diabolical plan.", "poster_path": "/oDL2ryJ0sV2bmjgshVgJb3qzvwp.jpg", "popularity": 33.698}, {"id": 272, "video": false, "vote_count": 13437, "vote_average": 7.6, "title": "Batman Begins", "release_date": "2005-06-10", "original_language": "en", "original_title": "Batman Begins", "genre_ids": [28, 80, 18], "backdrop_path": "/9myrRcegWGGp24mpVfkD4zhUfhi.jpg", "adult": false, "overview": "Driven by tragedy, billionaire Bruce Wayne dedicates his life to uncovering and defeating the corruption that plagues his home, Gotham City.  Unable to work within the system, he instead creates a new identity, a symbol of fear for the criminal underworld - The Batman.", "poster_path": "/dr6x4GyyegBWtinPBzipY02J2lV.jpg", "popularity": 54.458}, {"adult": false, "backdrop_path": "/tBWZkKMcrWdrpkOAA84FBlzE2XK.jpg", "genre_ids": [12, 28, 53], "id": 9053, "original_language": "en", "original_title": "DOA: Dead or Alive", "overview": "Four beautiful rivals at an invitation-only martial-arts tournament join forces against a sinister threat. Princess Kasumi is an aristocratic warrior trained by martial-arts masters. Tina Armstrong is a wrestling superstar. Helena Douglas is an athlete with a tragic past. Christie Allen earns her keep as a thief and an assassin-for-hire.", "poster_path": "/lZ6vZka2M0jtH1khYWa8j73E275.jpg", "release_date": "2006-09-07", "title": "DOA: Dead or Alive", "video": false, "vote_average": 4.9, "vote_count": 415, "popularity": 15.433}, {"id": 548, "video": false, "vote_count": 991, "vote_average": 8.2, "title": "Rashomon", "release_date": "1950-08-25", "original_language": "ja", "original_title": "\u7f85\u751f\u9580", "genre_ids": [80, 18, 9648], "backdrop_path": "/eGWc9KHURMRghR1bEj25hZNztNX.jpg", "adult": false, "overview": "Brimming with action while incisively examining the nature of truth, \"Rashomon\" is perhaps the finest film ever to investigate the philosophy of justice. Through an ingenious use of camera and flashbacks, Kurosawa reveals the complexities of human nature as four people recount different versions of the story of a man's murder and the rape of his wife.", "poster_path": "/mwWJuktWk8z5OY4og0z48Jg4u3n.jpg", "popularity": 15.839}, {"id": 1497, "video": false, "vote_count": 558, "vote_average": 6.0, "title": "Teenage Mutant Ninja Turtles II: The Secret of the Ooze", "release_date": "1991-03-22", "original_language": "en", "original_title": "Teenage Mutant Ninja Turtles II: The Secret of the Ooze", "genre_ids": [28, 12, 35, 878, 10751], "backdrop_path": "/kcBgrUeBjtDCEUcRfO9JfMtQ6BQ.jpg", "adult": false, "overview": "The Turtles and the Shredder battle once again, this time for the last cannister of the ooze that created the Turtles, which Shredder wants to create an army of new mutants.", "poster_path": "/HD4LtUw4Ono9tzgwWOhHpHcjkj.jpg", "popularity": 14.529}, {"id": 1499, "video": false, "vote_count": 393, "vote_average": 5.1, "title": "Teenage Mutant Ninja Turtles III", "release_date": "1993-03-17", "original_language": "en", "original_title": "Teenage Mutant Ninja Turtles III", "genre_ids": [28, 12, 35, 14, 878, 10751], "backdrop_path": "/3Ws5ePyLJDLamVzWnkCM6kPBbgh.jpg", "adult": false, "overview": "The four turtles travel back in time to the days of the legendary and deadly samurai in ancient Japan, where they train to perfect the art of becoming one. The turtles also assist a small village in an uprising.", "poster_path": "/bax6hItUe0XSeyO25J5V7hhgkkZ.jpg", "popularity": 14.324}, {"id": 127533, "video": false, "vote_count": 271, "vote_average": 7.5, "title": "Rurouni Kenshin: Origins", "release_date": "2012-08-25", "original_language": "ja", "original_title": "\u308b\u308d\u3046\u306b\u5263\u5fc3", "genre_ids": [28, 18, 36], "backdrop_path": "/6cf1HWR2KF68zTwYIlcOscStMHn.jpg", "adult": false, "overview": "Former legendary assassin Kenshin Himura has now become a wandering samurai. Offering aid & protecting those in need as atonement for his past deeds. During this time Kenshin Himura comes across and aides Kaoru Kamiya (Emi Takei). Her father opened the Kamiya Kasshin-ryu, a kendo school located in Tokyo and Kaoru is now an instructor there. Kaoru then invites Kenshin to stay at her dojo. Their relationship develops further, but Kenshin is still haunted by his violent past...", "poster_path": "/rmBUaljPj6SJVArR68fHl41oJU4.jpg", "popularity": 11.268}, {"id": 616, "video": false, "vote_count": 3886, "vote_average": 7.5, "title": "The Last Samurai", "release_date": "2003-12-05", "original_language": "en", "original_title": "The Last Samurai", "genre_ids": [28, 18, 36, 10752], "backdrop_path": "/lm15lu2jt3I3Syxsb90UJzUzMRV.jpg", "adult": false, "overview": "Nathan Algren is an American hired to instruct the Japanese army in the ways of modern warfare, which finds him learning to respect the samurai and the honorable principles that rule them. Pressed to destroy the samurai's way of life in the name of modernization and open trade, Algren decides to become an ultimate warrior himself and to fight for their right to exist.", "poster_path": "/sLv5pXysIz7QbtKFJy85d5yxv2W.jpg", "popularity": 27.268}, {"id": 11953, "video": false, "vote_count": 294, "vote_average": 7.9, "title": "Kagemusha", "release_date": "1980-04-26", "original_language": "ja", "original_title": "\u5f71\u6b66\u8005", "genre_ids": [28, 18, 36, 10752], "backdrop_path": "/3LVGjFPk8dxoGRHe9YSCRvjLSJ8.jpg", "adult": false, "overview": "Akira Kurosawa's lauded feudal epic presents the tale of a petty thief who is recruited to impersonate Shingen, an aging warlord, in order to avoid attacks by competing clans. When Shingen dies, his generals reluctantly agree to have the impostor take over as the powerful ruler. He soon begins to appreciate life as Shingen, but his commitment to the role is tested when he must lead his troops into battle against the forces of a rival warlord.", "poster_path": "/5ZfxTO5IWuefPrUALF0GFKql4O0.jpg", "popularity": 16.603}, {"id": 22832, "video": false, "vote_count": 681, "vote_average": 6.2, "title": "Ninja Assassin", "release_date": "2009-09-29", "original_language": "en", "original_title": "Ninja Assassin", "genre_ids": [28, 53], "backdrop_path": "/kmKZVgUPqf9v4c0UitSZlDM3RPv.jpg", "adult": false, "overview": "Ninja Assassin follows Raizo, one of the deadliest assassins in the world. Taken from the streets as a child, he was transformed into a trained killer by the Ozunu Clan, a secret society whose very existence is considered a myth. But haunted by the merciless execution of his friend by the Clan, Raizo breaks free from them and vanishes. Now he waits, preparing to exact his revenge.", "poster_path": "/k0Nu7HuUdnjfeNPR6YSY0PDH2et.jpg", "popularity": 15.95}], "total_pages": 24, "total_results": 471}, "recommendations": {"page": 1, "results": [{"adult": false, "backdrop_path": "/qIDJ1zJOitloUyge711Wt7zWswT.jpg", "genre_ids": [27, 18], "id": 108808, "original_language": "ja", "original_title": "\u685c\u306e\u68ee\u306e\u6e80\u958b\u306e\u4e0b", "overview": "A mountain man beheads his many wives to prove his love to an alluring woman he meets in an enchanted forest.", "poster_path": "/sWPs0Zi5MhsY5l32kFXlLwd6Wha.jpg", "release_date": "1975-05-31", "title": "Under the Blossoming Cherry Trees", "video": false, "vote_average": 7.2, "vote_count": 14, "popularity": 2.849}, {"adult": false, "backdrop_path": "/llwx3WLs16WiRggiVjGprZR9teZ.jpg", "genre_ids": [878, 80, 18, 10749], "id": 125266, "original_language": "ja", "original_title": "\u30ac\u30b9\u4eba\u9593\u7b2c\u4e00\u53f7", "overview": "A librarian is subject to a scientific experiment which goes wrong and transforms him into 'The Human Vapour'. He uses his new ability to rob banks to fund the career of his girlfriend, a beautiful dancer. The Human Vapour is ruthless in his quest for money and kills anyone who stands in his way, especially police. He soon becomes Tokyo's most wanted criminal. Can he be stopped before he kills again?", "poster_path": "/m9rfFz983E4FjLgEISc3MTqfFrb.jpg", "release_date": "1960-12-11", "title": "The Human Vapor", "video": false, "vote_average": 6.2, "vote_count": 6, "popularity": 1.38}, {"adult": false, "backdrop_path": "/vVrJSURMpfSDelHhH5XhKfeGcPA.jpg", "genre_ids": [28], "id": 31297, "original_language": "ja", "original_title": "\u5fcd\u3073\u306e\u8005", "overview": "[Period covered: 1575-1681] Fist film in the Shinobi series starring Raizo Ichikawa. Warlord Oda Nobunaga seeks to unite a fractured Japan, a young man trained in the arts of ninjitsu is manipulated by a ninja master into attempting to assassinate the warlord before he completes his task.", "poster_path": "/sngWy9gsX99QQwgOZL2OVKbyahn.jpg", "release_date": "1962-12-01", "title": "Shinobi no Mono", "video": false, "vote_average": 6.7, "vote_count": 11, "popularity": 2.791}, {"id": 64912, "video": false, "vote_count": 16, "vote_average": 6.9, "title": "Battles Without Honor and Humanity: Final Episode", "release_date": "1974-06-29", "original_language": "ja", "original_title": "\u4ec1\u7fa9\u306a\u304d\u6226\u3044 \u5b8c\u7d50\u7bc7", "genre_ids": [28, 80, 18], "backdrop_path": "/tcmvDVzH7JpVhhRGDemOrYNNo4g.jpg", "adult": false, "overview": "While Hirono is in prison, his rival Takeda turns his own crime organization into a political party, whose two executives stir up new tensions in their thirst for power.", "poster_path": "/hU54IC4vbi5htQg6AVxjwTeYy6t.jpg", "popularity": 3.322}], "total_pages": 1, "total_results": 4}, "credits": {"cast": [{"cast_id": 9, "character": "Ochi Kittan \"Batta\"", "credit_id": "59691e96c3a3683b4f00080f", "gender": 2, "id": 33764, "name": "Y\u00fbz\u00f4 Kayama", "order": 1, "profile_path": "/oiyhZCBhvkidUNIiuKBmZmUavRt.jpg"}, {"cast_id": 10, "character": "Saghiri", "credit_id": "59691e9fc3a3683b4f000814", "gender": 1, "id": 67023, "name": "Yuriko Hoshi", "order": 2, "profile_path": "/hepS7Io9Qbv3QyU66r0lCYuXw5B.jpg"}, {"cast_id": 11, "character": "Kinoshita", "credit_id": "59691eab92514136e700084c", "gender": 2, "id": 127834, "name": "Makoto Sat\u014d", "order": 3, "profile_path": "/j6C6KijAPNigTXJIZTRFDoXWrxf.jpg"}, {"cast_id": 12, "character": "Harunezuni", "credit_id": "59691eb2c3a3683af20008e9", "gender": 2, "id": 118993, "name": "Ichir\u00f4 Nakatani", "order": 4, "profile_path": "/ejoCkb7p2dfSUI2uq3kX8NHEClu.jpg"}, {"cast_id": 13, "character": "", "credit_id": "59691ebbc3a3683b8c000910", "gender": 0, "id": 96800, "name": "Tatsuyoshi Ehara", "order": 5, "profile_path": "/wk6s2lf4V1FtOPCs35ixbKNTK2P.jpg"}, {"cast_id": 14, "character": "Takihime", "credit_id": "59691ec392514136a00008c0", "gender": 1, "id": 30564, "name": "Kumi Mizuno", "order": 6, "profile_path": "/6gJ9LKkcJY3puMRhAPzT2tH2rWp.jpg"}, {"cast_id": 15, "character": "", "credit_id": "5a19271492514103390270c6", "gender": 2, "id": 87544, "name": "Tadao Nakamaru", "order": 7, "profile_path": "/heU4o9jcpHDG67gHe7VSRqUGal5.jpg"}, {"cast_id": 16, "character": "", "credit_id": "5a1927219251410329028068", "gender": 2, "id": 30470, "name": "Jun Tazaki", "order": 8, "profile_path": "/xCaRyiMo8sleDYjLKGl8xUXsIHQ.jpg"}, {"cast_id": 17, "character": "", "credit_id": "5a19272c0e0a264cc802844b", "gender": 2, "id": 30565, "name": "Hideo Sunazuka", "order": 9, "profile_path": null}, {"cast_id": 18, "character": "", "credit_id": "5a1927360e0a264ccd027e25", "gender": 2, "id": 227622, "name": "Hideyo Amamoto", "order": 10, "profile_path": "/gdvkD83TwnFLChPzQzOiZd0cc66.jpg"}, {"cast_id": 19, "character": "", "credit_id": "5a1927400e0a264cd00274c7", "gender": 0, "id": 97204, "name": "Ikio Sawamura", "order": 11, "profile_path": "/a7xfDSbK6bqwuFZ0iRcppfZcURt.jpg"}, {"cast_id": 20, "character": "", "credit_id": "5a192755c3a3680b9602751f", "gender": 2, "id": 1167986, "name": "Masaya Nihei", "order": 12, "profile_path": "/qVxSEH1H1UfQhxfnEjIkCCORmHT.jpg"}, {"cast_id": 21, "character": "", "credit_id": "5a19275f9251410324026aa7", "gender": 2, "id": 1060036, "name": "Yasuz\u00f4 Ogawa", "order": 13, "profile_path": null}, {"cast_id": 22, "character": "", "credit_id": "5a19276b925141033902711f", "gender": 0, "id": 1185642, "name": "Yutaka Nakayama", "order": 14, "profile_path": null}, {"cast_id": 23, "character": "", "credit_id": "5a1927a99251410339027169", "gender": 2, "id": 931390, "name": "Hiroshi Hasegawa", "order": 15, "profile_path": null}], "crew": [{"credit_id": "5914b379c3a368371b00108e", "department": "Sound", "gender": 2, "id": 18609, "job": "Music", "name": "Masaru Sat\u00f4", "profile_path": "/eXVLW2cSdIqQmwvXqlN0soZwYNz.jpg"}, {"credit_id": "5914b3e3c3a36842c1010fe8", "department": "Production", "gender": 2, "id": 18604, "job": "Producer", "name": "Tomoyuki Tanaka", "profile_path": "/fceS19GAexPnmtVQJHG9VxaVHGZ.jpg"}, {"credit_id": "5914b32dc3a368371b00104d", "department": "Writing", "gender": 2, "id": 18611, "job": "Writer", "name": "Shinichi Sekizawa", "profile_path": "/aaI9IAXJnR62Xtuz9aKLbZIDbuP.jpg"}, {"credit_id": "554cf1e59251410877002cdf", "department": "Directing", "gender": 2, "id": 85309, "job": "Director", "name": "Kihachi Okamoto", "profile_path": "/gJmUTQxOTYHD0vu5r15kKkjTQGP.jpg"}, {"credit_id": "5914b30a925141061e0088ea", "department": "Writing", "gender": 2, "id": 85309, "job": "Writer", "name": "Kihachi Okamoto", "profile_path": "/gJmUTQxOTYHD0vu5r15kKkjTQGP.jpg"}, {"credit_id": "5914b402925141583c010882", "department": "Art", "gender": 2, "id": 119014, "job": "Production Design", "name": "Hiroshi Ueda", "profile_path": null}, {"credit_id": "5914b3b392514159c101027b", "department": "Crew", "gender": 0, "id": 123386, "job": "Cinematography", "name": "Yuzuru Aizawa", "profile_path": null}, {"credit_id": "5914b426c3a3683fb600fcbc", "department": "Directing", "gender": 2, "id": 1044262, "job": "Assistant Director", "name": "Michio Yamamoto", "profile_path": null}, {"credit_id": "5914b34f925141580d01091b", "department": "Writing", "gender": 0, "id": 1814927, "job": "Writer", "name": "Ken Sano", "profile_path": null}]}}