{"adult": false, "backdrop_path": "/o8f91kxA1eJRUTwmYKqHwXeZeNI.jpg", "belongs_to_collection": null, "budget": 0, "genres": [{"id": 99, "name": "Documentary"}], "homepage": null, "id": 339790, "imdb_id": "tt3581384", "original_language": "en", "original_title": "Burroughs: The Movie", "overview": "An exploration of Burroughs\u2019 life story, as told by Burroughs himself along with many of his contemporaries, including Allen Ginsberg, Brion Gysin, Francis Bacon, Herbert Huncke, Patti Smith, Terry Southern, and William Burroughs Jr.", "popularity": 3.355, "poster_path": "/hUUzRe3gvyO2S3rXiPNCGXnA6IF.jpg", "production_companies": [{"id": 43092, "logo_path": null, "name": "Pinball London", "origin_country": ""}, {"id": 77536, "logo_path": null, "name": "DPI", "origin_country": ""}, {"id": 79475, "logo_path": null, "name": "Citifilmworks", "origin_country": ""}], "production_countries": [{"iso_3166_1": "US", "name": "United States of America"}], "release_date": "1984-02-10", "revenue": 0, "runtime": 90, "spoken_languages": [{"iso_639_1": "en", "name": "English"}], "status": "Released", "tagline": "", "title": "Burroughs: The Movie", "video": false, "vote_average": 7.6, "vote_count": 11, "keywords": {"keywords": [{"id": 1803, "name": "drug addiction"}, {"id": 2375, "name": "junkie"}, {"id": 5565, "name": "biography"}, {"id": 194180, "name": "literacy"}, {"id": 205781, "name": "beat generation"}]}, "similar": {"page": 1, "results": [{"id": 627, "video": false, "vote_count": 6006, "vote_average": 8.0, "title": "Trainspotting", "release_date": "1996-02-23", "original_language": "en", "original_title": "Trainspotting", "genre_ids": [80, 18], "backdrop_path": "/Aw0z8bUhGljT0ots6udf1MTLEMi.jpg", "adult": false, "overview": "Mark Renton, deeply immersed in the Edinburgh drug scene, tries to clean up and get out, despite the allure of the drugs and influence of friends.", "poster_path": "/p1O3eFsdb0GEIYu87xlwV7P4jM1.jpg", "popularity": 35.793}, {"adult": false, "backdrop_path": "/9alS7FBSf8rvDLskpCRuKqAI2h5.jpg", "genre_ids": [18, 36], "id": 746, "original_language": "en", "original_title": "The Last Emperor", "overview": "A dramatic history of Pu Yi, the last of the Emperors of China, from his lofty birth and brief reign in the Forbidden City, the object of worship by half a billion people; through his abdication, his decline and dissolute lifestyle; his exploitation by the invading Japanese, and finally to his obscure existence as just another peasant worker in the People's Republic.", "poster_path": "/KTirnfG6FZLKWbm8Am3EEKmZDx.jpg", "release_date": "1987-10-21", "title": "The Last Emperor", "video": false, "vote_average": 7.6, "vote_count": 774, "popularity": 13.039}, {"id": 331781, "video": false, "vote_count": 769, "vote_average": 7.6, "title": "Amy", "release_date": "2015-07-03", "original_language": "en", "original_title": "Amy", "genre_ids": [99, 10402], "backdrop_path": "/ktivqGIKG8hk9nwwX2G2FgsBgaD.jpg", "adult": false, "overview": "A documentary on the life of Amy Winehouse, the immensely talented yet doomed songstress. We see her from her teen years, where she already showed her singing abilities, to her finding success and then her downward spiral into alcoholism and drugs.", "poster_path": "/hr0laiK7CVmsT87iQml153xs3Up.jpg", "popularity": 12.766}, {"id": 451915, "video": false, "vote_count": 818, "vote_average": 7.6, "title": "Beautiful Boy", "release_date": "2018-10-12", "original_language": "en", "original_title": "Beautiful Boy", "genre_ids": [18], "backdrop_path": "/sOhtC4cmaYPOlcjXCWxxrx2NKKn.jpg", "adult": false, "overview": "After he and his first wife separate, journalist David Sheff struggles to help their teenage son, who goes from experimenting with drugs to becoming devastatingly addicted to methamphetamine.", "poster_path": "/i7gsLrNxpSf8NF5IZIrcOEfMyA3.jpg", "popularity": 17.739}, {"adult": false, "backdrop_path": "/kR48L1E3OLOkQcnlmpi5wDj7ZZt.jpg", "genre_ids": [80, 18], "id": 180863, "original_language": "en", "original_title": "T2 Trainspotting", "overview": "After 20 years abroad, Mark Renton returns to Scotland and reunites with his old friends Sick Boy, Spud and Begbie.", "poster_path": "/fbHXfr2N4pI2j7i9RLYiddjotBl.jpg", "release_date": "2017-01-27", "title": "T2 Trainspotting", "video": false, "vote_average": 7.0, "vote_count": 1919, "popularity": 17.054}, {"adult": false, "backdrop_path": "/mYKP6qcDUimVMAHQWLOuDHjO19S.jpg", "genre_ids": [35], "id": 445629, "original_language": "en", "original_title": "Fighting with My Family", "overview": "Born into a tight-knit wrestling family, Paige and her brother Zak are ecstatic when they get the once-in-a-lifetime opportunity to try out for the WWE. But when only Paige earns a spot in the competitive training program, she must leave her loved ones behind and face this new cutthroat world alone. Paige's journey pushes her to dig deep and ultimately prove to the world that what makes her different is the very thing that can make her a star.", "poster_path": "/cVhe15rJLRjolunSWLBN6xQLyGU.jpg", "release_date": "2019-02-14", "title": "Fighting with My Family", "video": false, "vote_average": 6.7, "vote_count": 643, "popularity": 18.498}, {"adult": false, "backdrop_path": "/urnGzQvP8fwWWGkn1k809KqIjbm.jpg", "genre_ids": [18], "id": 87093, "original_language": "en", "original_title": "Big Eyes", "overview": "The story of the awakening of painter, Margaret Keane, her phenomenal success in the 1950s, and the subsequent legal difficulties she had with her husband, who claimed credit for her works in the 1960s.", "poster_path": "/z2tqzprHojhgEGYKQepjU28oQg6.jpg", "release_date": "2014-12-24", "title": "Big Eyes", "video": false, "vote_average": 7.0, "vote_count": 2349, "popularity": 14.024}, {"id": 5915, "video": false, "vote_count": 6283, "vote_average": 7.8, "title": "Into the Wild", "release_date": "2007-09-11", "original_language": "en", "original_title": "Into the Wild", "genre_ids": [12, 18], "backdrop_path": "/9yJehIjvR7ULOLxeDJoth4kDDNe.jpg", "adult": false, "overview": "After graduating from Emory University in 1992, top student and athlete Christopher McCandless abandons his possessions, gives his entire $24,000 savings account to charity, and hitchhikes to Alaska to live in the wilderness.", "poster_path": "/lHyYgaocXR6KcJLxVmxZDj115hH.jpg", "popularity": 13.103}, {"id": 416234, "video": false, "vote_count": 1007, "vote_average": 5.8, "title": "Winchester", "release_date": "2018-02-02", "original_language": "en", "original_title": "Winchester", "genre_ids": [14, 27, 9648, 53], "backdrop_path": "/d4wnMDSrQonB9iArMzd90WqaoJ4.jpg", "adult": false, "overview": "San Jose, California, 1906. Isolated in her labyrinthine mansion, eccentric firearm heiress Sarah Winchester believes that she is being haunted by the souls of those killed by the guns manufactured by her company.", "poster_path": "/tHDtskokZeO9B3JBdR1dSH0uqad.jpg", "popularity": 13.27}, {"id": 457799, "video": false, "vote_count": 1572, "vote_average": 7.0, "title": "Extremely Wicked, Shockingly Evil and Vile", "release_date": "2019-05-02", "original_language": "en", "original_title": "Extremely Wicked, Shockingly Evil and Vile", "genre_ids": [80, 18, 53], "backdrop_path": "/uRoA67sM5vvCI4cplxhl67BTPly.jpg", "adult": false, "overview": "A chronicle of the crimes of Ted Bundy, from the perspective of his longtime girlfriend, Elizabeth Kloepfer, who refused to believe the truth about him for years.", "poster_path": "/zSuJ3r5zr5T26tTxyygHhgkUAIM.jpg", "popularity": 22.062}, {"id": 396371, "video": false, "vote_count": 1970, "vote_average": 7.1, "title": "Molly's Game", "release_date": "2017-12-25", "original_language": "en", "original_title": "Molly's Game", "genre_ids": [80, 18], "backdrop_path": "/rHcBZ6ZKCe4FalWHyvBGsyMsh0k.jpg", "adult": false, "overview": "Molly Bloom, a young skier and former Olympic hopeful becomes a successful entrepreneur (and a target of an FBI investigation) when she establishes a high-stakes, international poker game.", "poster_path": "/in43bQ7k0ttr666IPP94IlbQbTR.jpg", "popularity": 18.141}, {"id": 369972, "video": false, "vote_count": 3001, "vote_average": 7.1, "title": "First Man", "release_date": "2018-10-11", "original_language": "en", "original_title": "First Man", "genre_ids": [18, 36], "backdrop_path": "/jrudoaXcoLyHRPdolyOGemXgPEs.jpg", "adult": false, "overview": "A look at the life of the astronaut, Neil Armstrong, and the legendary space mission that led him to become the first man to walk on the Moon on July 20, 1969.", "poster_path": "/i91mfvFcPPlaegcbOyjGgiWfZzh.jpg", "popularity": 27.464}, {"adult": false, "backdrop_path": "/jK3EAFk3GdOaQfUDCOiTujzMpwH.jpg", "genre_ids": [18], "id": 389015, "original_language": "en", "original_title": "I, Tonya", "overview": "Competitive ice skater Tonya Harding rises amongst the ranks at the U. S. Figure Skating Championships, but her future in the sport is thrown into doubt when her ex-husband intervenes.", "poster_path": "/6gNXwSHxaksR1PjVZRqNapmkgj3.jpg", "release_date": "2017-12-08", "title": "I, Tonya", "video": false, "vote_average": 7.5, "vote_count": 3332, "popularity": 20.099}, {"id": 318846, "video": false, "vote_count": 5227, "vote_average": 7.3, "title": "The Big Short", "release_date": "2015-12-11", "original_language": "en", "original_title": "The Big Short", "genre_ids": [35, 18], "backdrop_path": "/6UyMLbe0lAPqfZLtVllAwBNFIis.jpg", "adult": false, "overview": "The men who made millions from a global economic meltdown.", "poster_path": "/p11Ftd4VposrAzthkhF53ifYZRl.jpg", "popularity": 25.578}, {"id": 300671, "video": false, "vote_count": 1700, "vote_average": 7.1, "title": "13 Hours: The Secret Soldiers of Benghazi", "release_date": "2016-01-13", "original_language": "en", "original_title": "13 Hours: The Secret Soldiers of Benghazi", "genre_ids": [28, 18, 36, 53, 10752], "backdrop_path": "/hY8myWhjSOUeeiPskhOfwwgaCwc.jpg", "adult": false, "overview": "An American Ambassador is killed during an attack at a U.S. compound in Libya as a security team struggles to make sense out of the chaos.", "poster_path": "/4gpW4MkRI0BB17GHOJzXq0WamDP.jpg", "popularity": 20.173}, {"id": 334543, "video": false, "vote_count": 4306, "vote_average": 8.1, "title": "Lion", "release_date": "2016-11-24", "original_language": "en", "original_title": "Lion", "genre_ids": [18], "backdrop_path": "/fgffluhvdOv79SkYaKrfRA0xkf4.jpg", "adult": false, "overview": "A five-year-old Indian boy gets lost on the streets of Calcutta, thousands of kilometers from home. He survives many challenges before being adopted by a couple in Australia; 25 years later, he sets out to find his lost family.", "poster_path": "/iBGRbLvg6kVc7wbS8wDdVHq6otm.jpg", "popularity": 30.623}, {"id": 487558, "video": false, "vote_count": 4020, "vote_average": 7.6, "title": "BlacKkKlansman", "release_date": "2018-07-30", "original_language": "en", "original_title": "BlacKkKlansman", "genre_ids": [80], "backdrop_path": "/wKRrldOtg6HVeGqGLls6iT9XO7I.jpg", "adult": false, "overview": "Colorado Springs, late 1970s. Ron Stallworth, an African American police officer, and Flip Zimmerman, his Jewish colleague, run an undercover operation to infiltrate the Ku Klux Klan.", "poster_path": "/8jxqAvSDoneSKRczaK8v9X5gqBp.jpg", "popularity": 25.597}, {"id": 424, "video": false, "vote_count": 8988, "vote_average": 8.6, "title": "Schindler's List", "release_date": "1993-11-30", "original_language": "en", "original_title": "Schindler's List", "genre_ids": [18, 36, 10752], "backdrop_path": "/cTNYRUTXkBgPH3wP3kmPUB5U6dA.jpg", "adult": false, "overview": "The true story of how businessman Oskar Schindler saved over a thousand Jewish lives from the Nazis while they worked as slaves in his factory during World War II.", "poster_path": "/yPisjyLweCl1tbgwgtzBCNCBle.jpg", "popularity": 25.457}, {"id": 424694, "video": false, "vote_count": 9728, "vote_average": 8.0, "title": "Bohemian Rhapsody", "release_date": "2018-10-24", "original_language": "en", "original_title": "Bohemian Rhapsody", "genre_ids": [18, 10402], "backdrop_path": "/93xA62uLd5CwMOAs37eQ7vPc1iV.jpg", "adult": false, "overview": "Singer Freddie Mercury, guitarist Brian May, drummer Roger Taylor and bass guitarist John Deacon take the music world by storm when they form the rock 'n' roll band Queen in 1970. Hit songs become instant classics. When Mercury's increasingly wild lifestyle starts to spiral out of control, Queen soon faces its greatest challenge yet \u2013 finding a way to keep the band together amid the success and excess.", "poster_path": "/lHu1wtNaczFPGFDTrjCSzeLPTKN.jpg", "popularity": 37.217}, {"adult": false, "backdrop_path": "/fJQ5kjLx4UdK05MC323Vlzwr6S8.jpg", "genre_ids": [35, 18, 36], "id": 140823, "original_language": "en", "original_title": "Saving Mr. Banks", "overview": "Author P.L. Travers travels from London to Hollywood as Walt Disney Pictures adapts her novel Mary Poppins for the big screen.", "poster_path": "/mvs3reS18RP6IhjLwwLeVtkoeg0.jpg", "release_date": "2013-11-16", "title": "Saving Mr. Banks", "video": false, "vote_average": 7.4, "vote_count": 2230, "popularity": 11.476}], "total_pages": 193, "total_results": 3849}, "recommendations": {"page": 1, "results": [{"adult": false, "backdrop_path": "/d38HOsXJ128w8ngieCCAhkvniFU.jpg", "genre_ids": [99], "id": 385581, "original_language": "en", "original_title": "The Brainwashing of My Dad", "overview": "A filmmaker examines the rise of right-wing media through the lens of her father, whose immersion in it radicalized him and rocked the foundation of their family. She discovers this political phenomenon recurring in living rooms everywhere, and reveals the consequences conservative media has had on families and a nation.", "poster_path": "/gITVueWeMsfqVy5qkRzME7YOuFa.jpg", "release_date": "2015-07-29", "title": "The Brainwashing of My Dad", "video": false, "vote_average": 6.2, "vote_count": 9, "popularity": 3.682}, {"adult": false, "backdrop_path": "/ywogXOiBS7uLt5TWl4ghdEWPKgp.jpg", "genre_ids": [99], "id": 413786, "original_language": "en", "original_title": "Letters from Baghdad", "overview": "Gertrude Bell, the most powerful woman in the British Empire in her day, shaped the destiny of Iraq after WWI in ways that still reverberate today.", "poster_path": "/9YaJ589jqiO0AsQhvsBw9sGUZQc.jpg", "release_date": "2016-10-06", "title": "Letters from Baghdad", "video": false, "vote_average": 6.8, "vote_count": 5, "popularity": 3.973}, {"adult": false, "backdrop_path": null, "genre_ids": [99], "id": 359807, "original_language": "pt", "original_title": "Chico - Artista Brasileiro", "overview": "Chico Buarque is a constant presence in Brazil's art scene and makes up its citizen's popular culture. This wealth in music, poems, theater and novels has been created over the last 50 years and in this film Chico Buarque converses about his memories, shows, daily life, work methods, creative process, in summary all his trajectory. The musician\u2019s search for his German brother, whom he never got to meet, serves as one of the axis for the narrative.", "poster_path": "/cNySjJRiKZcPjFnvNDiQGVBYtBe.jpg", "release_date": "2015-11-26", "title": "Chico - Brazilian Artist", "video": false, "vote_average": 8.0, "vote_count": 3, "popularity": 1.031}, {"adult": false, "backdrop_path": null, "genre_ids": [], "id": 102223, "original_language": "mn", "original_title": "Nohoi oron", "overview": "In Ulan Bator, Mongolia, the cur Baatar is shot by a hunter hired by the authorities to get rid off the dogs in the city...", "poster_path": "/fA3YifgflnpLhiyk3i0gynVeZKi.jpg", "release_date": "1998-09-16", "title": "Nohoi oron", "video": false, "vote_average": 8.0, "vote_count": 3, "popularity": 1.566}, {"id": 55060, "video": false, "vote_count": 4, "vote_average": 5.5, "title": "This Is My Body", "release_date": "2001-08-29", "original_language": "fr", "original_title": "Ceci est mon corps", "genre_ids": [18], "backdrop_path": null, "adult": false, "overview": "Gifted student Antoine goes against his family\u2019s wishes and accepts the lead role in a controversial director\u2019s film. He learns that the role had previously been offered to a young man who committed suicide after an on-set affair \u2013 and events conspire to draw Antoine towards the same lover.", "poster_path": "/tBDlgirvS9fyxiTCr98xSUMJWmh.jpg", "popularity": 2.996}, {"adult": false, "backdrop_path": "/yy3drMqb08XqJIumfaeyR7OmAyJ.jpg", "genre_ids": [18], "id": 422117, "original_language": "pt", "original_title": "Por Tr\u00e1s do C\u00e9u", "overview": "In a place taken by poverty, Aparecida lives full of dreams and hope. While her husband leads a bitter life caused by a tragedy from the past, she decides to take an attitude that can change everything: to leave for the big city.", "poster_path": "/8JlHILhZHlIKVWyDfVADfwij6K9.jpg", "release_date": "2016-05-02", "title": "Por Tr\u00e1s do C\u00e9u", "video": false, "vote_average": 7.0, "vote_count": 4, "popularity": 2.426}, {"adult": false, "backdrop_path": "/214ikt8ykleN5ftDoxFD1gz2SO3.jpg", "genre_ids": [35], "id": 169497, "original_language": "en", "original_title": "Falsa Loura", "overview": "Silmara, an industrial worker and a woman of exuberant beauty, supports her arsonist father and gets involved with two different pop stars, from whom she learns traumatic life lessons.", "poster_path": "/rjIdTmcudS79x844GNf6PqMeTfL.jpg", "release_date": "2007-11-24", "title": "Fake Blond", "video": false, "vote_average": 6.0, "vote_count": 4, "popularity": 3.219}, {"adult": false, "backdrop_path": "/wsmSPM48J2wRR0KUDRyqpwLhtcT.jpg", "genre_ids": [80], "id": 303798, "original_language": "pt", "original_title": "A Maldi\u00e7\u00e3o do Sanpaku", "overview": "", "poster_path": "/cJheyU5OStCEMVwlgbNjCTWCYjN.jpg", "release_date": "1991-05-21", "title": "A Maldi\u00e7\u00e3o do Sanpaku", "video": false, "vote_average": 5.3, "vote_count": 4, "popularity": 1.074}, {"adult": false, "backdrop_path": null, "genre_ids": [], "id": 82349, "original_language": "it", "original_title": "Nessuna qualit\u00e0 agli eroi", "overview": "Fallen Heroes is a 2007 Italian crime-drama film directed by Paolo Franchi. It entered the competition at the 64th Venice International Film Festival. Wikipedia", "poster_path": "/423pq1JCr08zyeeapJqd5EdpYfa.jpg", "release_date": "2007-01-01", "title": "Fallen Heroes", "video": false, "vote_average": 5.0, "vote_count": 3, "popularity": 1.782}, {"adult": false, "backdrop_path": "/6vPrss495fJpqtJkxTfTja9eeS7.jpg", "genre_ids": [18, 35, 10749], "id": 530294, "original_language": "fi", "original_title": "Tyhji\u00f6", "overview": "Eero\u2019s career as an author is spiraling down: he just can\u2019t get started with his new novel. The ambitious actor Pihla is about to get her international break. Neither of them is willing to sacrifice their career even though their relationship is doing worse than ever. Void is a comedy-drama about the price of success and the agony of failure, and about situations where your partner just doesn\u2019t get it.", "poster_path": "/50vFlmgxK21BzfxsvfoPt2JAw8k.jpg", "release_date": "2018-09-28", "title": "Void", "video": false, "vote_average": 6.8, "vote_count": 5, "popularity": 1.96}, {"adult": false, "backdrop_path": "/7DB5LOsifr5leGWlTSPycCYB6qb.jpg", "genre_ids": [10749, 18, 10402], "id": 336784, "original_language": "pt", "original_title": "Rock Estrela", "overview": "Classical music student arrives from Buenos Aires to live with his rocker cousin in Rio De Janeiro. Between parties full of rock and roll, he has to decide between his childhood girlfriend, now a respectful businesswoman, and the volleyball player Vera.", "poster_path": "/fB5GxtKzFyxBWJT8Hnguy2KfVAC.jpg", "release_date": "1986-01-01", "title": "Rock Estrela", "video": false, "vote_average": 5.0, "vote_count": 3, "popularity": 1.646}, {"adult": false, "backdrop_path": "/i4uSUlFD5BJbiyL43Rsb4B70y7e.jpg", "genre_ids": [18], "id": 551306, "original_language": "pt", "original_title": "Mare Nostrum", "overview": "", "poster_path": "/85RUsv3MczX2V1n80PraKM8Obwg.jpg", "release_date": "2018-10-04", "title": "Mare Nostrum", "video": false, "vote_average": 6.0, "vote_count": 3, "popularity": 1.865}, {"adult": false, "backdrop_path": "/aHOi4NRO37Xsv9FtSkIijYe03J7.jpg", "genre_ids": [18], "id": 326193, "original_language": "es", "original_title": "Tiempo sin aire", "overview": "Maria, a nurse whose daughter was killed by three militiamen, travels from Colombia to Spain with her younger son in order to get revenge.", "poster_path": "/iPkSTYNJypGvGVi6uHxuv4IXb1O.jpg", "release_date": "2015-04-30", "title": "Breathless Time", "video": false, "vote_average": 6.5, "vote_count": 4, "popularity": 2.341}, {"adult": false, "backdrop_path": null, "genre_ids": [99], "id": 465159, "original_language": "fr", "original_title": "Ni dieu ni ma\u00eetre, une histoire de l'anarchisme", "overview": "Anarchy is often used as a synonym for chaos and destruction with anarchists seen as black-clad nihilists fomenting violence at peaceful protests. But NO GODS NO MASTERS reveals the far more complex history of a viable social system and the men and women who devoted themselves to making it a reality.  Part One: The Passion for Destruction (1840 1906)\r Part Two: Land and Freedom (1907 1921)\r Part Three: In Memory of the Vanquished (1922 1945)", "poster_path": "/5ycgjqU8e9MW0Eo6n0DECGIdk2C.jpg", "release_date": "2016-10-16", "title": "No Gods, No Masters: A History of Anarchism in Three Parts", "video": false, "vote_average": 8.5, "vote_count": 6, "popularity": 0.905}, {"adult": false, "backdrop_path": "/pzXvGn2FakDlW6KVgnEZajcXDFq.jpg", "genre_ids": [10402, 35, 18], "id": 268282, "original_language": "pt", "original_title": "Bete Balan\u00e7o", "overview": "A small town girl, who's an aspiring singer, tries to make a living out of music in the big city of Rio de Janeiro.", "poster_path": "/bh5Qp4G7RjiY0zuJon6bBiDuBJw.jpg", "release_date": "1984-07-30", "title": "Bete Balan\u00e7o", "video": false, "vote_average": 5.0, "vote_count": 5, "popularity": 1.346}, {"adult": false, "backdrop_path": "/3WVLCfSSK8NQ3WSqCjkic0tMXyp.jpg", "genre_ids": [], "id": 204761, "original_language": "en", "original_title": "Suspension of Disbelief", "overview": "Martin is a screenwriter, who finds himself in one of his own plays: A young woman is found dead in the Thames and no one really knows, what has happened to her.", "poster_path": "/6p3ye0n2CNNxeUbirkYTGesAdqr.jpg", "release_date": "2012-11-01", "title": "Suspension of Disbelief", "video": false, "vote_average": 3.9, "vote_count": 10, "popularity": 3.648}, {"adult": false, "backdrop_path": "/dVszwjtJP2rL4SbxoNzBOmXX2RT.jpg", "genre_ids": [18], "id": 120399, "original_language": "en", "original_title": "The King Is Dead!", "overview": "A happy, unsuspecting couple, Max (Dan Wyllie) and Therese (Bojana Novakovic), buy a house in what appears to be a quiet, friendly neighbourhood. Settling in well, they make friends with a nice family on one side and soon meet a more interesting family on the other side. But interesting soon becomes loud and loud soon becomes intolerable. When the intolerable becomes violent and the police are powerless, Max and Therese attempt to take matters into their own hands.", "poster_path": "/1nrcwAyVhiTZqOoKFeSr3I46WIn.jpg", "release_date": "2012-07-12", "title": "The King Is Dead!", "video": false, "vote_average": 5.7, "vote_count": 13, "popularity": 3.718}, {"adult": false, "backdrop_path": "/yKuTgZeXDqDCOmVF2aBpSz26nhH.jpg", "genre_ids": [18], "id": 479781, "original_language": "pt", "original_title": "Unic\u00f3rnio", "overview": "A young girl of 13 lives with her mother on an isolated property. They are awaiting the return of their father and husband. But instead, another man appears, transforming the relationship between the mother and daughter. Based on two short stories by Brazilian poet Hilda Hilst.", "poster_path": "/fA3gy9deTRiFwTovAnNyMh7iL8R.jpg", "release_date": "2017-10-06", "title": "Unicorn", "video": false, "vote_average": 6.9, "vote_count": 8, "popularity": 0.97}, {"adult": false, "backdrop_path": null, "genre_ids": [18], "id": 72700, "original_language": "pt", "original_title": "Se Nada Mais Der Certo", "overview": "In 2006, a journalist in financial problems, a woman who dresses as a man and a troubled taxi driver become friends, and gradually, an awkward, strong emotional bond emerges among them, especially when they decide to play a confidence game.", "poster_path": "/c1LOo3ojZADR0Lf3vIxt6s5OOcr.jpg", "release_date": "2008-08-08", "title": "If Nothing Else Works Out", "video": false, "vote_average": 5.4, "vote_count": 5, "popularity": 1.15}, {"adult": false, "backdrop_path": "/mDRPHUIIZLCCo0oNoednvB2q6MF.jpg", "genre_ids": [18], "id": 320470, "original_language": "fr", "original_title": "Ne nous soumets pas \u00e0 la tentation", "overview": "A young woman strikes up an affair with an older married man, but twisted secrets begin to emerge as their tale is told from different points of view.", "poster_path": "/hSrHIhG5ssY9ydR9kfoBdfxf1Ei.jpg", "release_date": "2011-12-21", "title": "Lead Us Not Into Temptation", "video": false, "vote_average": 6.7, "vote_count": 3, "popularity": 3.803}], "total_pages": 2, "total_results": 40}, "credits": {"cast": [{"cast_id": 1, "character": "Himself", "credit_id": "565ca1f6c3a3682a0700038f", "gender": 2, "id": 6471, "name": "William S. Burroughs", "order": 1, "profile_path": "/cdwNs9LcUnt3b393ZeJXChNQEGh.jpg"}, {"cast_id": 2, "character": "", "credit_id": "578f2f6b925141754f000b64", "gender": 0, "id": 1653441, "name": "Mortimer Burroughs", "order": 2, "profile_path": null}, {"cast_id": 3, "character": "", "credit_id": "578f2f7bc3a3680733005213", "gender": 0, "id": 1653442, "name": "Lucien Carr", "order": 3, "profile_path": null}, {"cast_id": 4, "character": "", "credit_id": "578f2f80c3a368179600a6aa", "gender": 1, "id": 234296, "name": "Jackie Curtis", "order": 4, "profile_path": "/fgBQvktgF6sNq9MHyV2jnATbC56.jpg"}, {"cast_id": 5, "character": "", "credit_id": "578f2f8f9251412ec2004cb7", "gender": 2, "id": 110589, "name": "Allen Ginsberg", "order": 5, "profile_path": "/w7qQvokS1lp7IRgefiJdALaaiIi.jpg"}, {"cast_id": 6, "character": "", "credit_id": "578f2f94c3a3682bb20215d2", "gender": 2, "id": 1091965, "name": "John Giorno", "order": 6, "profile_path": "/uE8MVuHEpuEiqgmUg5c0Dg6hzKO.jpg"}, {"cast_id": 7, "character": "", "credit_id": "578f2f9e9251417514000b33", "gender": 0, "id": 1550552, "name": "James Grauerholz", "order": 7, "profile_path": null}, {"cast_id": 8, "character": "", "credit_id": "578f2fa592514118b600a3fd", "gender": 0, "id": 550260, "name": "Brion Gysin", "order": 8, "profile_path": null}, {"cast_id": 9, "character": "", "credit_id": "578f2fad9251417514000b3e", "gender": 1, "id": 56200, "name": "Patti Smith", "order": 9, "profile_path": "/yrrJRuLam6oTJEeAIvvxq07eEEv.jpg"}, {"cast_id": 10, "character": "", "credit_id": "578f2fb592514108480149d8", "gender": 2, "id": 8950, "name": "Terry Southern", "order": 10, "profile_path": "/ywOX51CnUxagVaNtPROeTv4eihI.jpg"}, {"cast_id": 21, "character": "", "credit_id": "5a49ed5c9251415c9500b428", "gender": 2, "id": 1174033, "name": "Francis Bacon", "order": 11, "profile_path": "/2OBaxds5qpXh1sBOuZF4shxVrYO.jpg"}, {"cast_id": 22, "character": "", "credit_id": "5a49ed770e0a262dc200c55c", "gender": 1, "id": 27964, "name": "Lauren Hutton", "order": 12, "profile_path": "/kYJFTG1On90T9eLJZ0pE56LC781.jpg"}], "crew": [{"credit_id": "55a9b568c3a368648e002e6d", "department": "Directing", "gender": 0, "id": 940694, "job": "Director", "name": "Howard Brookner", "profile_path": null}, {"credit_id": "578f2feb9251412ec2004ce5", "department": "Production", "gender": 0, "id": 940694, "job": "Producer", "name": "Howard Brookner", "profile_path": null}, {"credit_id": "578f2ff992514175de000af6", "department": "Production", "gender": 0, "id": 6424, "job": "Executive Producer", "name": "Edouard Douek", "profile_path": null}, {"credit_id": "578f30049251410848014a00", "department": "Crew", "gender": 0, "id": 940694, "job": "Cinematography", "name": "Howard Brookner", "profile_path": null}, {"credit_id": "578f301692514174ac000c40", "department": "Crew", "gender": 0, "id": 1653444, "job": "Cinematography", "name": "Richard Camp", "profile_path": null}, {"credit_id": "578f301ec3a3686ecc00f66e", "department": "Crew", "gender": 2, "id": 6400, "job": "Cinematography", "name": "Tom DiCillo", "profile_path": "/epndh7usUrwI958G3Mbk6h4KXMU.jpg"}, {"credit_id": "578f302892514175de000b0e", "department": "Crew", "gender": 0, "id": 1653445, "job": "Cinematography", "name": "Cathy Dorsey", "profile_path": null}, {"credit_id": "578f3031c3a3685acb019ade", "department": "Crew", "gender": 0, "id": 59953, "job": "Cinematography", "name": "James A. Lebovitz", "profile_path": null}, {"credit_id": "578f303a92514175de000b17", "department": "Crew", "gender": 0, "id": 1653446, "job": "Cinematography", "name": "Larry Shlu", "profile_path": null}, {"credit_id": "578f304392514174ac000c57", "department": "Crew", "gender": 2, "id": 25012, "job": "Cinematography", "name": "Mike Southon", "profile_path": null}, {"credit_id": "578f305ac3a3680c87000ab3", "department": "Crew", "gender": 2, "id": 4429, "job": "Sound Recordist", "name": "Jim Jarmusch", "profile_path": "/4HqTXHUXTVnFhQ8TCnIMD62Lhqr.jpg"}]}}