{"adult": false, "backdrop_path": "/hnmdJMgtvuk17X5tblGNhdCAwR3.jpg", "belongs_to_collection": null, "budget": 9900000, "genres": [{"id": 35, "name": "Comedy"}], "homepage": "http://www.kevinhartwhatnow.com/", "id": 339927, "imdb_id": "tt4669186", "original_language": "en", "original_title": "Kevin Hart: What Now?", "overview": "Comedian Kevin Hart performs in front of a crowd of 50,000 people at Philadelphia's outdoor venue, Lincoln Financial Field.", "popularity": 6.92, "poster_path": "/v5QIdxFbo6izF00R7rqUD7yfeYa.jpg", "production_companies": [{"id": 33, "logo_path": "/8lvHyhjr8oUKOOy2dKXoALWKdp0.png", "name": "Universal Pictures", "origin_country": "US"}, {"id": 40268, "logo_path": "/shdAxUj8uF6exNLrF0kSqYVxCzG.png", "name": "HartBeat Productions", "origin_country": "US"}], "production_countries": [{"iso_3166_1": "US", "name": "United States of America"}], "release_date": "2016-10-14", "revenue": 23600000, "runtime": 96, "spoken_languages": [{"iso_639_1": "en", "name": "English"}], "status": "Released", "tagline": "", "title": "Kevin Hart: What Now?", "video": false, "vote_average": 6.6, "vote_count": 177, "keywords": {"keywords": [{"id": 155876, "name": "reenactment"}]}, "similar": {"page": 1, "results": [{"adult": false, "backdrop_path": "/uvosDEp9iWUfQ0kuWVou8GemDaA.jpg", "genre_ids": [80, 99, 18], "id": 30017, "original_language": "fa", "original_title": "\u06a9\u0644\u0648\u0632\u0622\u067e \u060c \u0646\u0645\u0627\u06cc \u0646\u0632\u062f\u06cc\u06a9", "overview": "This fiction-documentary hybrid uses a sensational real-life event\u2014the arrest of a young man on charges that he fraudulently impersonated the well-known filmmaker Mohsen Makhmalbaf\u2014as the basis for a stunning, multilayered investigation into movies, identity, artistic creation, and existence, in which the real people from the case play themselves.", "poster_path": "/2AqA9enmHq5ts8VH9jlYgVKPNf3.jpg", "release_date": "1990-05-09", "title": "Close-Up", "video": false, "vote_average": 8.1, "vote_count": 132, "popularity": 6.694}, {"id": 367215, "video": false, "vote_count": 76, "vote_average": 7.8, "title": "The Fear of 13", "release_date": "2015-10-15", "original_language": "en", "original_title": "The Fear of 13", "genre_ids": [80, 99], "backdrop_path": "/lXzTqBH7BMmL3BO9DxYLXTAb4v6.jpg", "adult": false, "overview": "After 23 years on Death Row a convicted murderer petitions the court asking to be executed, but as his story unfolds, it becomes clear that nothing is what it seems.", "poster_path": "/k5uLNLfmX5aUVm9uiYpAA1uj4BQ.jpg", "popularity": 7.227}, {"adult": false, "backdrop_path": "/hEBBtwQ4ZU0pjrXbKbRTU1IQOrj.jpg", "genre_ids": [99], "id": 430826, "original_language": "en", "original_title": "Casting JonBenet", "overview": "Twenty years after the modern world's most notorious child murder, the legacy of the crime and its impact are explored.", "poster_path": "/aHDr48Zq4IojCHRMxzGaS1EMaDB.jpg", "release_date": "2017-04-28", "title": "Casting JonBenet", "video": false, "vote_average": 5.7, "vote_count": 110, "popularity": 9.963}, {"adult": false, "backdrop_path": null, "genre_ids": [35, 99, 18], "id": 258967, "original_language": "en", "original_title": "The Creep Behind the Camera", "overview": "An exploration of the making of b-movie sci-fi cult classic \"The Creeping Terror\" and its con-man director Art \"A.J.\" Nelson/Vic Savage.", "poster_path": "/bhd6jdDvTEl9GlRDVDUc3hTHrz8.jpg", "release_date": "2015-08-04", "title": "The Creep Behind the Camera", "video": false, "vote_average": 6.0, "vote_count": 4, "popularity": 3.432}, {"adult": false, "backdrop_path": null, "genre_ids": [35], "id": 416573, "original_language": "en", "original_title": "The Incredible Socks", "overview": "The Incredible Socks is a short live-action film that appeared on the The Incredibles DVD. It re-enacts the film's story using sock puppets.", "poster_path": "/sB9rdBuevwxiFxudWrSY46pyp4F.jpg", "release_date": "2005-03-15", "title": "The Incredible Socks", "video": false, "vote_average": 5.7, "vote_count": 3, "popularity": 0.685}, {"adult": false, "backdrop_path": "/tHRzpP1YfY93axbmY7z1YgLEMHz.jpg", "genre_ids": [35, 80, 9648], "id": 263141, "original_language": "en", "original_title": "Ladies of the Jury", "overview": "Society matron Mrs. Livingston Baldwin Crane is selected as a juror in the trial of former chorus girl Yvette Gordon, who's accused of murdering her rich older husband. In court and during deliberations, Mrs. Crane proves to be a disruptive and unorthodox juror.", "poster_path": "/ultgCDFLaA2OKnwrCcrkBj1yRzh.jpg", "release_date": "1932-02-05", "title": "Ladies of the Jury", "video": false, "vote_average": 7.3, "vote_count": 3, "popularity": 2.166}, {"adult": false, "backdrop_path": "/6kx1UdsFBsPzeRukpCO3hquTPi2.jpg", "genre_ids": [99, 18], "id": 378441, "original_language": "en", "original_title": "Notes on Blindness", "overview": "After losing sight in 1983, John Hull began keeping an audio diary, a unique testimony of loss, rebirth and renewal, excavating the interior world of blindness. Following on from the Emmy Award-winning short film of the same name, Notes on Blindness is an ambitious and groundbreaking work, both affecting and innovative.", "poster_path": "/pCCaqxVbToOOSmjwrOvz0TmIZSc.jpg", "release_date": "2016-07-01", "title": "Notes on Blindness", "video": false, "vote_average": 7.3, "vote_count": 35, "popularity": 4.695}, {"adult": false, "backdrop_path": "/bmkIjWG11V3Rb1elh1aAvlyaM0Q.jpg", "genre_ids": [99, 18], "id": 68297, "original_language": "en", "original_title": "Hiroshima", "overview": "The documentary recounts the world's first nuclear attack and examines the alarming repercussions. Covering a three-week period from the Trinity test to the atomic bombing of Hiroshima, the program chronicles America's political gamble and the planning for the momentous event. Archival film, dramatizations, and special effects feature what occurred aboard the Enola Gay (the aircraft that dropped the bomb) and inside the exploding bomb.", "poster_path": "/jHIyA9zRm6nEo4P8pYwTa3zCsJt.jpg", "release_date": "2005-08-05", "title": "Hiroshima", "video": false, "vote_average": 7.0, "vote_count": 30, "popularity": 4.402}, {"adult": false, "backdrop_path": null, "genre_ids": [], "id": 190615, "original_language": "en", "original_title": "Execution of Czolgosz with Panorama of Auburn Prison", "overview": "This early docudrama shows Auburn Prison and recreates the electrocution of Leon Czolgosz, the assassin of President McKinley of the United States.", "poster_path": null, "release_date": "1901-11-16", "title": "Execution of Czolgosz with Panorama of Auburn Prison", "video": false, "vote_average": 3.8, "vote_count": 6, "popularity": 1.652}, {"adult": false, "backdrop_path": "/uynnXR6jS6hqkdb2agv4gLyfSBU.jpg", "genre_ids": [53, 80], "id": 25532, "original_language": "es", "original_title": "Cr\u00f3nica de una fuga", "overview": "The true story of four men who narrowly escaped death at the hands of Argentina's military death squads in 1977. Claudio Tamburrini is a goalie for a minor-league football team when he is abducted by members of the Argentine military police and taken to an unofficial detention center on the false suspicion that he is a terrorist. As he is tortured by intelligence agents looking for information he doesn't have, Tamburrini fully expects to be killed. After many sessions of brutal torture, Tamburrini and his fellow captives Guillermo and Tano are being readied for execution when, in a final desperate act, Tamburrini dives out a window during a rainstorm.", "poster_path": "/6HhXb4IF3dkViOkTanziTqabrQ7.jpg", "release_date": "2006-04-27", "title": "Chronicle of an Escape", "video": false, "vote_average": 6.7, "vote_count": 30, "popularity": 4.536}, {"id": 402919, "video": false, "vote_count": 16, "vote_average": 6.1, "title": "The Promise", "release_date": "2016-10-27", "original_language": "de", "original_title": "Das Versprechen", "genre_ids": [80, 99], "backdrop_path": "/u3MEYUcPy43BvfKVMiOReFxvw4s.jpg", "adult": false, "overview": "Derek and Nancy Haysom were brutally murdered in their house in Lynchburg, Virginia, on March 30, 1985. Suspicion fell on their daughter Elizabeth and her boyfriend Jens S\u00f6ring. They flee to Europe, but are caught and extradited to the U.S. Elizabeth is sentenced to 90 years in jail for incitement to murder, Jens S\u00f6ring to two life sentences. Karin Steinberger, Marcus Vetter and their team spent over three years researching this case, which achieved world-wide notoriety. They uncovered new evidence, including the fact none of the blood samples found at the scene of the crime belonged to Jens S\u00f6ring.", "poster_path": "/s5BKx1E6WHoKzXpjHRKxfvCRikT.jpg", "popularity": 2.921}, {"id": 278077, "video": false, "vote_count": 4, "vote_average": 8.3, "title": "Surviving Edged Weapons", "release_date": "1988-01-01", "original_language": "en", "original_title": "Surviving Edged Weapons", "genre_ids": [28, 99], "backdrop_path": null, "adult": false, "overview": "In an intense action-filled 85 minutes, you will learn to defend yourself against the mounting threat of \u201cknife culture\u201d offenders.", "poster_path": "/5wzDxKTG2T2LDyeDuvseeDDwKDz.jpg", "popularity": 2.255}, {"adult": false, "backdrop_path": null, "genre_ids": [99], "id": 621315, "original_language": "en", "original_title": "The Remarkable Life of John Weld", "overview": "The true life story of John Weld, who went from stuntman during Hollywood's golden era, to journalist, novelist and many other careers.", "poster_path": "/j7F4DsNQpUpENvzK33FjB75Aala.jpg", "release_date": "2018-10-09", "title": "The Remarkable Life of John Weld", "video": false, "vote_average": 0.0, "vote_count": 0, "popularity": 0.932}, {"adult": false, "backdrop_path": null, "genre_ids": [99, 18], "id": 98132, "original_language": "en", "original_title": "In Search of Historic Jesus", "overview": "Re-created Biblical tableaux mixed with interviews.", "poster_path": "/pS4QQzID7Rxsdm7Id79TizpR5PY.jpg", "release_date": "1979-08-01", "title": "In Search of Historic Jesus", "video": false, "vote_average": 0.0, "vote_count": 0, "popularity": 1.231}, {"adult": false, "backdrop_path": null, "genre_ids": [99], "id": 623800, "original_language": "es", "original_title": "LA CIFRA NEGRA de la violencia institucional", "overview": "", "poster_path": "/xRDZnjIbQoaL2PCaP3MEWLx1FM0.jpg", "release_date": "2018-03-01", "title": "LA CIFRA NEGRA de la violencia institucional", "video": false, "vote_average": 9.0, "vote_count": 1, "popularity": 0.653}, {"adult": false, "backdrop_path": null, "genre_ids": [99], "id": 348528, "original_language": "en", "original_title": "This Is Not an Exit: The Fictional World of Bret Easton Ellis", "overview": "When \"American Psycho\" was released early in 2000 it reaffirmed author Bret Easton Ellis as the controversial \"bad boy\" of contemporary American Fiction. \"This is Not an Exit\" reveals the world inhabited by Ellis.", "poster_path": "/A76Olmgx5azRglbmAMFJyxFIvZW.jpg", "release_date": "1998-08-23", "title": "This Is Not an Exit: The Fictional World of Bret Easton Ellis", "video": false, "vote_average": 1.8, "vote_count": 2, "popularity": 1.271}, {"adult": false, "backdrop_path": null, "genre_ids": [36], "id": 306497, "original_language": "en", "original_title": "Let the Lion Roar", "overview": "Uncover one of the greatest and darkest deceptions of our time - the conspiracy to cover up the Church's true identity.", "poster_path": "/8iA2cuK6eiS47fIkFfr1XVMtpCq.jpg", "release_date": "2014-09-19", "title": "Let the Lion Roar", "video": false, "vote_average": 0.5, "vote_count": 1, "popularity": 1.258}, {"adult": false, "backdrop_path": null, "genre_ids": [99, 18], "id": 513837, "original_language": "en", "original_title": "Painting Anna", "overview": "A young accountant finally pursues her dreams of becoming a painter.", "poster_path": "/2MWS0HV4TZrehy9ftDFAKp0wOOd.jpg", "release_date": "2015-04-04", "title": "Painting Anna", "video": false, "vote_average": 0.0, "vote_count": 0, "popularity": 1.577}, {"adult": false, "backdrop_path": null, "genre_ids": [10752], "id": 193396, "original_language": "en", "original_title": "Shooting Captured Insurgents", "overview": "\u201cA file of Spanish soldiers line up the Cubans against a blank wall and fire a volley. The flash of rifles and drifting smoke make a very striking picture.\u201d (Edison film catalog)", "poster_path": "/ouhF2FSqyow8d9lte0y47OmD6D.jpg", "release_date": "1898-07-31", "title": "Shooting Captured Insurgents", "video": false, "vote_average": 4.2, "vote_count": 5, "popularity": 0.811}, {"adult": false, "backdrop_path": null, "genre_ids": [99], "id": 151018, "original_language": "nl", "original_title": "Darryl F. Zanuck: 20th Century Filmmaker", "overview": "A biography of Darryl F. Zanuck, mogul and the power behind 20th Century Fox throughout the Golden Age.", "poster_path": "/7syy1HfxNb3036Iy4ZA8STWH93L.jpg", "release_date": "1995-09-03", "title": "Darryl F. Zanuck: 20th Century Filmmaker", "video": false, "vote_average": 7.0, "vote_count": 1, "popularity": 0.699}], "total_pages": 2, "total_results": 31}, "recommendations": {"page": 1, "results": [{"adult": false, "backdrop_path": "/rr5mB2DaAvl1jDx1SwTX1zwZwxF.jpg", "genre_ids": [35], "id": 42189, "original_language": "en", "original_title": "Kevin Hart: Seriously Funny", "overview": "Fresh off the heels of appearing in movies like Superhero Movie and The 40 Year-Old Virgin, fast-talking comedian Kevin Hart stars in his second live stand-up performance in Cleveland, Ohio, where he makes fun of everything and everybody - especially himself.", "poster_path": "/xtlPSX3HDQs3NlFgM97bXdaQInh.jpg", "release_date": "2010-07-20", "title": "Kevin Hart: Seriously Funny", "video": false, "vote_average": 7.4, "vote_count": 103, "popularity": 8.478}, {"adult": false, "backdrop_path": "/34NdjXFgHhxTRMcwfmpETv28AJO.jpg", "genre_ids": [35, 99], "id": 181330, "original_language": "en", "original_title": "Kevin Hart: Let Me Explain", "overview": "Captures the laughter, energy and mayhem from Hart's 2012 \"Let Me Explain\" concert tour, which spanned 10 countries and 80 cities, and generated over $32 million in ticket sales.", "poster_path": "/lzYQkVuEN0zw2JvJsMUsOU47nb4.jpg", "release_date": "2013-07-03", "title": "Kevin Hart: Let Me Explain", "video": false, "vote_average": 7.0, "vote_count": 150, "popularity": 9.334}, {"adult": false, "backdrop_path": "/MfFug21CLOgAJ0GF4ocdM33B8j.jpg", "genre_ids": [35, 99], "id": 74510, "original_language": "en", "original_title": "Kevin Hart: Laugh at My Pain", "overview": "Experience the show that quickly became a national phenomenon. Get an up-close and personal look at Kevin Hart back in Philly where he began his journey to become one of the funniest comedians of all time. You will laugh 'til it hurts!", "poster_path": "/g0VB9CDxFQnbPuzIAjc0hc6gIRi.jpg", "release_date": "2011-09-09", "title": "Kevin Hart: Laugh at My Pain", "video": false, "vote_average": 7.5, "vote_count": 85, "popularity": 10.418}, {"adult": false, "backdrop_path": "/ucGIZAQJ7ZZTjoVj3otDiXLfn29.jpg", "genre_ids": [35], "id": 27866, "original_language": "en", "original_title": "Kevin Hart: I'm a Grown Little Man", "overview": "Fresh off the heels of appearing in movies like Superhero Movie and The 40 Year-Old Virgin, fast-talking comedian Kevin Hart stars in this live stand-up performance where he makes fun of everything and everybody - especially himself.", "poster_path": "/eGR1PmPG3erNiIXOg86o6JMtqmf.jpg", "release_date": "2009-02-03", "title": "Kevin Hart: I'm a Grown Little Man", "video": false, "vote_average": 7.5, "vote_count": 79, "popularity": 7.234}, {"adult": false, "backdrop_path": "/gbmfGSbQo4bWp6vF8f5cRtOE0mB.jpg", "genre_ids": [35], "id": 592136, "original_language": "en", "original_title": "Kevin Hart: Irresponsible", "overview": "Stand-up comedian Kevin Hart talks about his family, travel and a year full of reckless behavior in front of a live sold-out crowd in London.", "poster_path": "/bRB4LDeo0VS2Sovghkx1DsKxLi5.jpg", "release_date": "2019-04-02", "title": "Kevin Hart: Irresponsible", "video": false, "vote_average": 6.8, "vote_count": 58, "popularity": 6.813}, {"id": 444705, "video": false, "vote_count": 131, "vote_average": 7.9, "title": "Dave Chappelle: The Age of Spin", "release_date": "2017-03-21", "original_language": "en", "original_title": "Dave Chappelle: The Age of Spin", "genre_ids": [35], "backdrop_path": "/xlwFzTxkqoBm3dLkfPSZU0rWS9L.jpg", "adult": false, "overview": "Comedy icon Dave Chappelle makes his triumphant return to the screen with a pair of blistering, fresh stand-up specials. Filmed at The Palladium in Los Angeles, California, in March 2016.", "poster_path": "/lFGP9COk4X3sBqrkUpbQ78GdnZm.jpg", "popularity": 10.751}, {"adult": false, "backdrop_path": "/n8ODmEUzv6iO0dBuVbKsat16DPj.jpg", "genre_ids": [35], "id": 456210, "original_language": "en", "original_title": "Tracy Morgan: Staying Alive", "overview": "In his first special since his serious car accident, Tracy Morgan cracks jokes about life in a coma, his second marriage and his family's dark side.", "poster_path": "/khMAxp24RhZeZYgLup0uSgRlU58.jpg", "release_date": "2017-05-16", "title": "Tracy Morgan: Staying Alive", "video": false, "vote_average": 6.5, "vote_count": 24, "popularity": 4.915}, {"id": 505159, "video": false, "vote_count": 74, "vote_average": 6.6, "title": "Chris Rock: Tamborine", "release_date": "2018-02-14", "original_language": "en", "original_title": "Chris Rock: Tamborine", "genre_ids": [35], "backdrop_path": "/5lSF2ZlhzX5LEPUvAwCe6Hbv9Nh.jpg", "adult": false, "overview": "Chris Rock takes the stage for his first comedy special in 10 years, filled with searing observations on fatherhood, infidelity and American politics.", "poster_path": "/7Pf9fQsDY2HvCsSQ6ObYBkMsdo5.jpg", "popularity": 6.539}, {"adult": false, "backdrop_path": null, "genre_ids": [35], "id": 416290, "original_language": "en", "original_title": "Cedric the Entertainer: Live from the Ville", "overview": "Donning his signature suit and fedora, the dapper comic offers a unique spin on getting old, the presidential election and \"Honky Tonk Badonkadonk.\"", "poster_path": "/z6ch0e7xuoae0JLLtJoVLyDcIKs.jpg", "release_date": "2016-09-16", "title": "Cedric the Entertainer: Live from the Ville", "video": false, "vote_average": 5.8, "vote_count": 12, "popularity": 2.965}, {"id": 507729, "video": false, "vote_count": 29, "vote_average": 6.6, "title": "Marlon Wayans: Woke-ish", "release_date": "2018-02-27", "original_language": "en", "original_title": "Marlon Wayans: Woke-ish", "genre_ids": [35], "backdrop_path": null, "adult": false, "overview": "An American stand-up comedy special starring Marlon Wayans who jokes about racism, hip-hop, gay rights, and raising kids.", "poster_path": "/n4LE5FaNvkexps3eDUeLYAuHvBN.jpg", "popularity": 4.372}, {"id": 497522, "video": false, "vote_count": 23, "vote_average": 5.3, "title": "Katt Williams: Great America", "release_date": "2018-01-16", "original_language": "en", "original_title": "Katt Williams: Great America", "genre_ids": [35], "backdrop_path": "/hXQGpo7TKpOy8aA7toYc5SRag3j.jpg", "adult": false, "overview": "The king of underground comedy takes the stage in Jacksonville with unflinching riffs on American politics and the raunchy perils of getting old.", "poster_path": "/6p9W1Ppd8YEVcNHrSWnGcQoqXil.jpg", "popularity": 3.403}, {"adult": false, "backdrop_path": "/xVZWdrTLM4aPk78Wk44qyNbyMJn.jpg", "genre_ids": [35], "id": 497520, "original_language": "en", "original_title": "Tom Segura: Disgraceful", "overview": "Tom Segura gives voice to the sordid thoughts you'd never say out loud, with blunt musings on porn, parking lot power struggles, parenthood and more.", "poster_path": "/ll5QVhDsp6MbNWWZAGXc8vFu6Y9.jpg", "release_date": "2018-01-12", "title": "Tom Segura: Disgraceful", "video": false, "vote_average": 7.2, "vote_count": 23, "popularity": 3.497}, {"adult": false, "backdrop_path": "/pkjtFdzeqEYfp6XHpaSyF4wxijT.jpg", "genre_ids": [35], "id": 478054, "original_language": "en", "original_title": "Def Comedy Jam 25", "overview": "In this special live event, giants of stand-up come together to commemorate the 25th anniversary of Russell Simmons's groundbreaking \"Def Comedy Jam.\"", "poster_path": "/n4NtEw3QcdKAwYGeastBjyTNy9b.jpg", "release_date": "2017-09-26", "title": "Def Comedy Jam 25", "video": false, "vote_average": 6.3, "vote_count": 21, "popularity": 4.878}, {"adult": false, "backdrop_path": "/wQ6sRvAh1ytZ7XpMgJ1WyQF20Jh.jpg", "genre_ids": [99], "id": 396093, "original_language": "en", "original_title": "Naledi: A Baby Elephant's Tale", "overview": "The incredible, true-life story of a baby elephant born into a rescue camp in the wilderness of Botswana. When she's suddenly orphaned at one month of age, it's up to the men who look after her herd to save her life.", "poster_path": "/k99UGXmWXr4uOE6OoYvggnSfMeZ.jpg", "release_date": "2016-06-05", "title": "Naledi: A Baby Elephant's Tale", "video": false, "vote_average": 6.2, "vote_count": 8, "popularity": 4.143}, {"adult": false, "backdrop_path": "/fESEDQRgO1UiD9vxjhPxmyYuckf.jpg", "genre_ids": [99], "id": 302037, "original_language": "en", "original_title": "Almost Ablaze", "overview": "Awarded \"Film Of The Year\" at the 2014 International Freeski Film Festival, TGR's Almost Ablaze is a global odyssey combining state-of-the-art cinematography and the most progressive riding on The Planet. Experience a new level of sensory overload as each athlete is wired for sound, immersing the audience completely in the moment. Watch as athletes push the edge to realize a heightened state.", "poster_path": "/f9cl1zhbzkxrRAQPPQg14IrSVgc.jpg", "release_date": "2014-10-21", "title": "Almost Ablaze", "video": false, "vote_average": 8.3, "vote_count": 3, "popularity": 0.938}, {"id": 378137, "video": false, "vote_count": 36, "vote_average": 6.4, "title": "Hannibal Buress: Comedy Camisado", "release_date": "2016-02-05", "original_language": "en", "original_title": "Hannibal Buress: Comedy Camisado", "genre_ids": [35], "backdrop_path": "/ct5MVqyiYZn9TEE7l2VUr4F5935.jpg", "adult": false, "overview": "He's a kamikaze gambler. A one-arm cuddler. And if his fly is down, so be it. A night of sly riffs and slow burns.", "poster_path": "/oPSom5l7110UaMmLc1gmGbXCY7W.jpg", "popularity": 4.66}, {"adult": false, "backdrop_path": "/qRLUanQryKXRj3mKNK89Z7vv5Dy.jpg", "genre_ids": [35], "id": 27169, "original_language": "en", "original_title": "Gabriel Iglesias: I'm Not Fat... I'm Fluffy", "overview": "Gabriel Iglesias entertains a packed house at El Paso's Theatre in this Comedy Central special. For I'm Not Fat, I'm Fluffy, the comedian reaches new heights of hilarity, providing eerily perfect imitations and tales too tall not to be true. He also adds a new step to his five levels of fatness, and the sixth level is sure to leave audiences rolling in the aisles.", "poster_path": "/dghGdIthZkgp8rzFOl30H1CZUCd.jpg", "release_date": "2009-11-08", "title": "Gabriel Iglesias: I'm Not Fat... I'm Fluffy", "video": false, "vote_average": 7.2, "vote_count": 35, "popularity": 5.155}, {"adult": false, "backdrop_path": "/kMJ7pw8MVnr65oPqElUWkoGP2az.jpg", "genre_ids": [35], "id": 178946, "original_language": "en", "original_title": "Craig Ferguson: I'm Here to Help", "overview": "Craig Ferguson unleashes his trademark stream-of-consciousness comedy before a sold-out crowd, riffing on fatherhood, Helen of Troy and shark penises. His show's not safe for kids -- or the easily offended.", "poster_path": "/4d66zksqBGStgSYmPqF9j4oKExC.jpg", "release_date": "2013-03-14", "title": "Craig Ferguson: I'm Here to Help", "video": false, "vote_average": 6.6, "vote_count": 18, "popularity": 2.897}, {"adult": false, "backdrop_path": "/x3Yp8iDSDEhYNUphPNQwM1DARpf.jpg", "genre_ids": [99], "id": 334679, "original_language": "en", "original_title": "All Work All Play: The Pursuit of eSports Glory Live", "overview": "There\u2019s something happening in the world of video games. Thousands are flocking to arenas to watch tournaments unfold. Tens of millions are watching online. One percent of the world population is playing the most popular competitive game. In All Work All Play, go behind the scenes and follow the ascent of eSports, and watch as the best pro gamers in the world fight for the Intel Extreme Masters championship.", "poster_path": "/fd3fLXiaiD9B5RIAIrCxRLdXzWk.jpg", "release_date": "2015-04-20", "title": "All Work All Play: The Pursuit of eSports Glory Live", "video": false, "vote_average": 6.0, "vote_count": 15, "popularity": 3.614}, {"adult": false, "backdrop_path": "/tICWBSVpbTuXMOyqshCe66XAGG7.jpg", "genre_ids": [18], "id": 356301, "original_language": "en", "original_title": "Across the Line", "overview": "Out of the approximately 600 players in the National Hockey League, thirty are Black. Mattie Slaughter, a hockey phenom from the rural Black community of North Preston, wants to make it thirty-one. To reach his goal, Mattie needs to keep his nose clean and avoid trouble. Hard to do though, when you go to a school where racism taints every interaction, your older brother is a hustler and you\u2019re crushing on a girl who\u2019s already hooked up.", "poster_path": "/pswZgwZVxxaoh1QMcTvFNTVQPjF.jpg", "release_date": "2016-04-08", "title": "Across the Line", "video": false, "vote_average": 5.7, "vote_count": 6, "popularity": 3.132}], "total_pages": 2, "total_results": 40}, "credits": {"cast": [{"cast_id": 0, "character": "Himself", "credit_id": "57c48ea192514105db00539f", "gender": 2, "id": 55638, "name": "Kevin Hart", "order": 0, "profile_path": "/nTYKqSQzJ9VlYKgqoES7WIDHywi.jpg"}, {"cast_id": 2, "character": "Money Berry", "credit_id": "57c48eae92514165f800641b", "gender": 1, "id": 4587, "name": "Halle Berry", "order": 1, "profile_path": "/AmCXHowNbUXpNf41dNrxNB0naM2.jpg"}, {"cast_id": 1, "character": "Rival Agent", "credit_id": "57c48ea8c3a3681f3f006899", "gender": 2, "id": 1896, "name": "Don Cheadle", "order": 2, "profile_path": "/b1EVJWdFn7a75qVYJgwO87W2TJU.jpg"}, {"cast_id": 4, "character": "Frank (Bartender)", "credit_id": "5802c4379251413e8b000c99", "gender": 2, "id": 27105, "name": "Ed Helms", "order": 3, "profile_path": "/euQxeETzWnPUqu1vm4hGtFa7zPd.jpg"}, {"cast_id": 3, "character": "Victor", "credit_id": "57fc5b74c3a3683a8f00e5c9", "gender": 2, "id": 1224149, "name": "David Meunier", "order": 4, "profile_path": "/bBCXP8UmTHjwqAJRO3Nk3UBftBt.jpg"}, {"cast_id": 7, "character": "African Dictator", "credit_id": "59a801b29251415799014841", "gender": 2, "id": 68278, "name": "Peter Mensah", "order": 5, "profile_path": "/4mn8HoKONrRYlZJIizbAgEaaMte.jpg"}, {"cast_id": 11, "character": "Denzel", "credit_id": "5a73ac0b9251410597013065", "gender": 0, "id": 1320508, "name": "Joey Wells", "order": 6, "profile_path": null}], "crew": [{"credit_id": "5802c45fc3a368784900508e", "department": "Directing", "gender": 2, "id": 20400, "job": "Director", "name": "Tim Story", "profile_path": "/30HZn70vyclGRRn5AU3szpKyfgC.jpg"}, {"credit_id": "5a73add60e0a26643c014e22", "department": "Sound", "gender": 2, "id": 49911, "job": "Music", "name": "Christopher Lennertz", "profile_path": "/uLAViWJT5ktkQDpnXaV59BVVaBm.jpg"}, {"credit_id": "5a039b589251412e0d000545", "department": "Writing", "gender": 2, "id": 55638, "job": "Writer", "name": "Kevin Hart", "profile_path": "/nTYKqSQzJ9VlYKgqoES7WIDHywi.jpg"}, {"credit_id": "5a73ad1992514105a9012d2e", "department": "Art", "gender": 0, "id": 553361, "job": "Production Design", "name": "Bruce Ryan", "profile_path": null}, {"credit_id": "5802c456c3a368755c000ea8", "department": "Directing", "gender": 2, "id": 559968, "job": "Director", "name": "Leslie Small", "profile_path": null}, {"credit_id": "5a73ad2992514105940134ef", "department": "Editing", "gender": 0, "id": 1082597, "job": "Editor", "name": "Guy Harding", "profile_path": null}, {"credit_id": "5a73ad5d92514105a6013458", "department": "Camera", "gender": 0, "id": 1092687, "job": "Director of Photography", "name": "Cameron Barnett", "profile_path": null}, {"credit_id": "5a73ad4f0e0a26642d015689", "department": "Costume & Make-Up", "gender": 1, "id": 1200487, "job": "Costume Design", "name": "Olivia Miles", "profile_path": null}, {"credit_id": "5a039bf39251412e28000602", "department": "Writing", "gender": 0, "id": 1320506, "job": "Writer", "name": "Harry Ratchford", "profile_path": null}, {"credit_id": "5a039bd79251412e280005b2", "department": "Writing", "gender": 0, "id": 1320508, "job": "Writer", "name": "Joey Wells", "profile_path": null}, {"credit_id": "5a73ad3ac3a36859d9013320", "department": "Art", "gender": 0, "id": 1899630, "job": "Production Design", "name": "Gary Kordan", "profile_path": null}, {"credit_id": "5aa71c920e0a263dcd01491b", "department": "Sound", "gender": 2, "id": 1997029, "job": "Songs", "name": "Lil Yachty", "profile_path": "/roVuFlFUPIljklTMpJcoFiGoIkI.jpg"}]}}