{"adult": false, "backdrop_path": "/yrV32mrAqny3oP2Nbw2u0c6Wb2h.jpg", "belongs_to_collection": null, "budget": 0, "genres": [{"id": 53, "name": "Thriller"}, {"id": 9648, "name": "Mystery"}], "homepage": null, "id": 340868, "imdb_id": "tt3447876", "original_language": "en", "original_title": "Deadly Sanctuary", "overview": "Feisty, flame-haired reporter, Kendall O'Dell is drawn into an evil web of conspiracy beyond anything she could have ever imagined when she accepts a position at a small newspaper in isolated Castle Valley, Arizona. In the mix is a vanished reporter, two dead teenage girls and an attractive cowboy. Kendall's life hangs in the balance as she strives to uncover the horrifying secret.", "popularity": 2.128, "poster_path": "/aegIVLdlhrYOJF1kFLdduRfJfNF.jpg", "production_companies": [{"id": 69102, "logo_path": null, "name": "Starfire Productions", "origin_country": ""}, {"id": 53243, "logo_path": null, "name": "WeatherVane Productions", "origin_country": ""}, {"id": 68552, "logo_path": null, "name": "Nandar Entertainment", "origin_country": ""}], "production_countries": [{"iso_3166_1": "US", "name": "United States of America"}], "release_date": "2015-05-15", "revenue": 0, "runtime": 102, "spoken_languages": [{"iso_639_1": "en", "name": "English"}], "status": "Released", "tagline": "", "title": "Deadly Sanctuary", "video": false, "vote_average": 2.0, "vote_count": 1, "keywords": {"keywords": [{"id": 1859, "name": "arizona"}, {"id": 12193, "name": "reporter"}, {"id": 18034, "name": "desert"}, {"id": 161982, "name": "murder investigation"}]}, "similar": {"page": 1, "results": [{"adult": false, "backdrop_path": "/mMcHuNXGZON6G9VTBsBIfAbfKBh.jpg", "genre_ids": [37, 28], "id": 11969, "original_language": "en", "original_title": "Tombstone", "overview": "Legendary marshal Wyatt Earp, now a weary gunfighter, joins his brothers Morgan and Virgil to pursue their collective fortune in the thriving mining town of Tombstone. But Earp is forced to don a badge again and get help from his notorious pal Doc Holliday when a gang of renegade brigands and rustlers begins terrorizing the town.", "poster_path": "/xYVtxxQjY0ZT80mMu9kyz4A9QR6.jpg", "release_date": "1993-12-25", "title": "Tombstone", "video": false, "vote_average": 7.5, "vote_count": 1035, "popularity": 14.426}, {"id": 1949, "video": false, "vote_count": 5165, "vote_average": 7.5, "title": "Zodiac", "release_date": "2007-03-02", "original_language": "en", "original_title": "Zodiac", "genre_ids": [80, 18, 9648, 53], "backdrop_path": "/jP2htGBHE7vKq4MLeC75UeC0sZH.jpg", "adult": false, "overview": "The true story of the investigation of the \"Zodiac Killer\", a serial killer who terrified the San Francisco Bay Area, taunting police with his ciphers and letters. The case becomes an obsession for three men as their lives and careers are built and destroyed by the endless trail of clues.", "poster_path": "/bgLyOROfFQI3FqYL7jQbiaV8lkN.jpg", "popularity": 24.455}, {"id": 9008, "video": false, "vote_count": 953, "vote_average": 7.4, "title": "The Insider", "release_date": "1999-10-28", "original_language": "en", "original_title": "The Insider", "genre_ids": [18, 53], "backdrop_path": "/7oq51chQ7MW7RVKqhL4ivxhrwGf.jpg", "adult": false, "overview": "Tells the true story of a 60 Minutes television series expos\u00e9 of the tobacco industry, as seen through the eyes of a real tobacco executive, Jeffrey Wigand.", "poster_path": "/sYQsmMl4oG56NtFaNkDxuJhhODa.jpg", "popularity": 16.427}, {"id": 10155, "video": false, "vote_count": 340, "vote_average": 6.6, "title": "U Turn", "release_date": "1997-10-03", "original_language": "en", "original_title": "U Turn", "genre_ids": [53], "backdrop_path": "/58e2QJsmWT4tKWXENu8OID7s1F4.jpg", "adult": false, "overview": "When Bobby's car breaks down in the desert while on the run from some of the bookies who have already taken two of his fingers, he becomes trapped in the nearby small town where the people are stranger than anyone he's encountered. After becoming involved with a young married woman, her husband hires Bobby to kill her. Later, she hires Bobby to kill the husband.", "poster_path": "/mG4GerNC6ZVnsFTXcsTeKuj8OG.jpg", "popularity": 20.517}, {"adult": false, "backdrop_path": "/7AUPQeq5hITjaTahU8zbHpfWeev.jpg", "genre_ids": [18, 28, 37, 12], "id": 12160, "original_language": "en", "original_title": "Wyatt Earp", "overview": "Covering the life and times of one of the West's most iconic heroes Wyatt Earp weaves an intricate tale of Earp and his friends and family. With a star studded cast, sweeping cinematography and authentic costumes Wyatt Earp led the way during the Western revival in the 90's.", "poster_path": "/zSGDgcWHqmQxmX4mLJZgT5UgLjj.jpg", "release_date": "1994-06-24", "title": "Wyatt Earp", "video": false, "vote_average": 6.6, "vote_count": 386, "popularity": 12.818}, {"id": 1701, "video": false, "vote_count": 2370, "vote_average": 6.7, "title": "Con Air", "release_date": "1997-06-01", "original_language": "en", "original_title": "Con Air", "genre_ids": [28, 80, 53], "backdrop_path": "/aX2mwtawBe2TD1csPBYvm03sx3a.jpg", "adult": false, "overview": "When the government puts all its rotten criminal eggs in one airborne basket, it's asking for trouble. Before you can say, \"Pass the barf bag,\" the crooks control the plane, led by creepy Cyrus \"The Virus\" Grissom. Watching his every move is the just-released Cameron Poe, who'd rather reunite with his family.", "poster_path": "/yhaOQ7xXw0PLHLvg1w0M9zlPdg6.jpg", "popularity": 27.211}, {"id": 341013, "video": false, "vote_count": 4063, "vote_average": 6.3, "title": "Atomic Blonde", "release_date": "2017-07-26", "original_language": "en", "original_title": "Atomic Blonde", "genre_ids": [28, 9648, 53], "backdrop_path": "/g3hni0i9iAQ13jDGOFWavJFlojc.jpg", "adult": false, "overview": "An undercover MI6 agent is sent to Berlin during the Cold War to investigate the murder of a fellow agent and recover a missing list of double agents.", "poster_path": "/kV9R5h0Yct1kR8Hf8sJ1nX0Vz4x.jpg", "popularity": 28.364}, {"id": 49849, "video": false, "vote_count": 3363, "vote_average": 5.5, "title": "Cowboys & Aliens", "release_date": "2011-07-29", "original_language": "en", "original_title": "Cowboys & Aliens", "genre_ids": [28, 878, 53, 37], "backdrop_path": "/gTDwoJBCu7scwYQoykIlLNpkCes.jpg", "adult": false, "overview": "A stranger stumbles into the desert town of Absolution with no memory of his past and a futuristic shackle around his wrist. With the help of mysterious beauty Ella and the iron-fisted Colonel Dolarhyde, he finds himself leading an unlikely posse of cowboys, outlaws, and Apache warriors against a common enemy from beyond this world in an epic showdown for survival.", "poster_path": "/9uZsGCP4rvOHVGCpMpYq5gNCuNI.jpg", "popularity": 21.609}, {"id": 539, "video": false, "vote_count": 5674, "vote_average": 8.4, "title": "Psycho", "release_date": "1960-06-16", "original_language": "en", "original_title": "Psycho", "genre_ids": [18, 27, 53], "backdrop_path": "/3md49VBCeqY6MSNyAVY6d5eC6bA.jpg", "adult": false, "overview": "When larcenous real estate clerk Marion Crane goes on the lam with a wad of cash and hopes of starting a new life, she ends up at the notorious Bates Motel, where manager Norman Bates cares for his housebound mother. The place seems quirky, but fine\u2026 until Marion decides to take a shower.", "poster_path": "/81d8oyEFgj7FlxJqSDXWr8JH8kV.jpg", "popularity": 25.393}, {"id": 180, "video": false, "vote_count": 5106, "vote_average": 7.3, "title": "Minority Report", "release_date": "2002-06-20", "original_language": "en", "original_title": "Minority Report", "genre_ids": [28, 9648, 878, 53], "backdrop_path": "/6HbOqP1GUElNLdX8Bx2uP542CIP.jpg", "adult": false, "overview": "John Anderton is a top 'Precrime' cop in the late-21st century, when technology can predict crimes before they're committed. But Anderton becomes the quarry when another investigator targets him for a murder charge.", "poster_path": "/dS5AHLt4DhZpisxryIxKJU6Urxb.jpg", "popularity": 21.222}, {"id": 294254, "video": false, "vote_count": 6849, "vote_average": 6.6, "title": "Maze Runner: The Scorch Trials", "release_date": "2015-09-09", "original_language": "en", "original_title": "Maze Runner: The Scorch Trials", "genre_ids": [28, 878, 53], "backdrop_path": "/iapRFMGKvN9tsjqPlN7MIDTCezG.jpg", "adult": false, "overview": "Thomas and his fellow Gladers face their greatest challenge yet: searching for clues about the mysterious and powerful organization known as WCKD. Their journey takes them to the Scorch, a desolate landscape filled with unimaginable obstacles. Teaming up with resistance fighters, the Gladers take on WCKD\u2019s vastly superior forces and uncover its shocking plans for them all.", "poster_path": "/vlTPQANjLYTebzFJM1G4KeON0cb.jpg", "popularity": 28.283}, {"id": 458156, "video": false, "vote_count": 3686, "vote_average": 7.1, "title": "John Wick: Chapter 3 - Parabellum", "release_date": "2019-05-15", "original_language": "en", "original_title": "John Wick: Chapter 3 - Parabellum", "genre_ids": [28, 80, 53], "backdrop_path": "/stemLQMLDrlpfIlZ5OjllOPT8QX.jpg", "adult": false, "overview": "Super-assassin John Wick returns with a $14 million price tag on his head and an army of bounty-hunting killers on his trail. After killing a member of the shadowy international assassin\u2019s guild, the High Table, John Wick is excommunicado, but the world\u2019s most ruthless hit men and women await his every turn.", "poster_path": "/ziEuG1essDuWuC5lpWUaw1uXY2O.jpg", "popularity": 56.335}, {"id": 340674, "video": false, "vote_count": 186, "vote_average": 4.5, "title": "Dark Crimes", "release_date": "2018-05-18", "original_language": "en", "original_title": "Dark Crimes", "genre_ids": [80, 18, 53], "backdrop_path": "/7vR0frpPSBhToKKESNfnPfDTY8y.jpg", "adult": false, "overview": "A Polish detective becomes suspicious of a controversial author when the incidents described in his unpublished novel resemble the inner workings of an unsolved murder.", "poster_path": "/bEwK1r4pmJ9huEjqrZf73NXJvFy.jpg", "popularity": 13.734}, {"adult": false, "backdrop_path": "/t3Oea7KbSpOvuqddMnlFtZ4WHn.jpg", "genre_ids": [18, 53, 36], "id": 314365, "original_language": "en", "original_title": "Spotlight", "overview": "In 2001, editor Marty Baron of The Boston Globe assigns a team of journalists to investigate allegations against John Geoghan, an unfrocked priest accused of molesting more than 80 boys. Led by editor Walter \"Robby\" Robinson, reporters Michael Rezendes, Matt Carroll and Sacha Pfeiffer interview victims and try to unseal sensitive documents. The reporters make it their mission to provide proof of a cover-up of sexual abuse within the Roman Catholic Church.", "poster_path": "/ngKxbvsn9Si5TYVJfi1EGAGwThU.jpg", "release_date": "2015-11-06", "title": "Spotlight", "video": false, "vote_average": 7.8, "vote_count": 5410, "popularity": 19.217}, {"id": 9792, "video": false, "vote_count": 1554, "vote_average": 6.3, "title": "The Hills Have Eyes", "release_date": "2006-03-10", "original_language": "en", "original_title": "The Hills Have Eyes", "genre_ids": [27, 53], "backdrop_path": "/7JmFtKtvgVD0zQ2xPQdUKtTXdeA.jpg", "adult": false, "overview": "Based on Wes Craven's 1977 suspenseful cult classic, The Hills Have Eyes is the story of a family road trip that goes terrifyingly awry when the travelers become stranded in a government atomic zone. Miles from nowhere, the Carter family soon realizes the seemingly uninhabited wasteland is actually the breeding ground of a blood-thirsty mutant family...and they are the prey.", "poster_path": "/hNuqY8h1oBGTnEQK75AH4IwuiPG.jpg", "popularity": 15.649}, {"id": 17578, "video": false, "vote_count": 3534, "vote_average": 6.8, "title": "The Adventures of Tintin", "release_date": "2011-10-25", "original_language": "en", "original_title": "The Adventures of Tintin", "genre_ids": [12, 16, 9648], "backdrop_path": "/m3xgF9JiTlfN1rO9hcvTd4PTIQy.jpg", "adult": false, "overview": "Intrepid young reporter, Tintin, and his loyal dog, Snowy, are thrust into a world of high adventure when they discover a ship carrying an explosive secret. As Tintin is drawn into a centuries-old mystery, Ivan Ivanovitch Sakharine suspects him of stealing a priceless treasure. Tintin and Snowy, with the help of salty, cantankerous Captain Haddock and bumbling detectives, Thompson and Thomson, travel half the world, one step ahead of their enemies, as Tintin endeavors to find the Unicorn, a sunken ship that may hold a vast fortune, but also an ancient curse.", "poster_path": "/3XOaHJARdZIXcd7sgJV24Txp3gf.jpg", "popularity": 20.831}, {"id": 891, "video": false, "vote_count": 889, "vote_average": 7.8, "title": "All the President's Men", "release_date": "1976-04-04", "original_language": "en", "original_title": "All the President's Men", "genre_ids": [18, 36, 9648, 53], "backdrop_path": "/rqM0Uq57NNOpEx7BBk7FqBfGqzc.jpg", "adult": false, "overview": "In the run-up to the 1972 elections, Washington Post reporter Bob Woodward covers what seems to be a minor break-in at the Democratic Party National Headquarters. He is surprised to find top lawyers already on the defense case, and the discovery of names and addresses of Republican fund organizers on the accused further arouses his suspicions. After the editor of the Post runs with the story and assigns Woodward and Carl Bernstein to it, they find the trail leading higher and higher in the Republican Party\u2014and eventually into the White House itself.", "poster_path": "/jvXiGgWyBYDfQb44spH9JPTOmAZ.jpg", "popularity": 28.872}, {"adult": false, "backdrop_path": "/zGutQCLUIQ5LakubDZtfM8s22eA.jpg", "genre_ids": [9648, 18], "id": 15, "original_language": "en", "original_title": "Citizen Kane", "overview": "Newspaper magnate, Charles Foster Kane is taken from his mother as a boy and made the ward of a rich industrialist. As a result, every well-meaning, tyrannical or self-destructive move he makes for the rest of his life appears in some way to be a reaction to that deeply wounding event.", "poster_path": "/sav0jxhqiH0bPr2vZFU0Kjt2nZL.jpg", "release_date": "1941-04-30", "title": "Citizen Kane", "video": false, "vote_average": 8.1, "vote_count": 2765, "popularity": 22.836}, {"id": 522938, "video": false, "vote_count": 1062, "vote_average": 5.9, "title": "Rambo: Last Blood", "release_date": "2019-09-19", "original_language": "en", "original_title": "Rambo: Last Blood", "genre_ids": [28, 18, 53], "backdrop_path": "/spYx9XQFODuqEVoPpvaJI1ksAVt.jpg", "adult": false, "overview": "After fighting his demons for decades, John Rambo now lives in peace on his family ranch in Arizona, but his rest is interrupted when Gabriela, the granddaughter of his housekeeper Mar\u00eda, disappears after crossing the border into Mexico to meet her biological father. Rambo, who has become a true father figure for Gabriela over the years, undertakes a desperate and dangerous journey to find her.", "poster_path": "/kTQ3J8oTTKofAVLYnds2cHUz9KO.jpg", "popularity": 77.532}, {"id": 6977, "video": false, "vote_count": 6625, "vote_average": 7.9, "title": "No Country for Old Men", "release_date": "2007-11-08", "original_language": "en", "original_title": "No Country for Old Men", "genre_ids": [80, 18, 53], "backdrop_path": "/7hx7ANh11TbbvHLDXUuywYkg5rK.jpg", "adult": false, "overview": "Llewelyn Moss stumbles upon dead bodies, $2 million and a hoard of heroin in a Texas desert, but methodical killer Anton Chigurh comes looking for it, with local sheriff Ed Tom Bell hot on his trail. The roles of prey and predator blur as the violent pursuit of money and justice collide.", "poster_path": "/nBaqryObPuxmuAndWUjDE5rriTd.jpg", "popularity": 26.075}], "total_pages": 46, "total_results": 910}, "recommendations": {"page": 1, "results": [], "total_pages": 1, "total_results": 0}, "credits": {"cast": [{"cast_id": 0, "character": "Kendall O'Dell", "credit_id": "565e40dec3a3687cff003c7d", "gender": 0, "id": 94224, "name": "Rebekah Kochan", "order": 1, "profile_path": "/1RNd3wPnpAkdCdxOtfOtAggJWhW.jpg"}, {"cast_id": 1, "character": "Roy Hollingsworth", "credit_id": "565e417d9251416da1003dd6", "gender": 2, "id": 21721, "name": "Dean Cain", "order": 2, "profile_path": "/cICjOmo5KZWdfJLBvIExDE6Ma5f.jpg"}, {"cast_id": 2, "character": "Dr. Price", "credit_id": "565e41a19251416daa0039d5", "gender": 2, "id": 24516, "name": "Daniel Baldwin", "order": 3, "profile_path": "/vDLkhz6EliUtYumpJdFTquUvdfp.jpg"}, {"cast_id": 3, "character": "Tugg", "credit_id": "565e41d49251416da7003c49", "gender": 2, "id": 21315, "name": "Eric Roberts", "order": 4, "profile_path": "/sZ6MiyrU6VWFavcArxOBhTMIyYq.jpg"}, {"cast_id": 4, "character": "Bradley Talverson", "credit_id": "565e454f9251416db0003c2e", "gender": 0, "id": 1235295, "name": "Marco Dapper", "order": 5, "profile_path": "/sqsgdtRES4QQWtSUBgp5QUpqzM.jpg"}, {"cast_id": 5, "character": "Eric Heisler", "credit_id": "565e45869251416da7003d1a", "gender": 2, "id": 939564, "name": "Paul Greene", "order": 6, "profile_path": "/pkRTlpRkD0rQqVDuCz85y0BSbq7.jpg"}, {"cast_id": 6, "character": "Ginger", "credit_id": "565e46229251416daa003b04", "gender": 0, "id": 1543468, "name": "Teri Lee", "order": 7, "profile_path": null}], "crew": [{"credit_id": "565e46999251416da4004e69", "department": "Production", "gender": 0, "id": 230334, "job": "Casting", "name": "Nancy Criss", "profile_path": "/xcQvHG7UMd0NAVVNTlKWRcvGgMC.jpg"}, {"credit_id": "565e46c0c3a3687ce5003df7", "department": "Production", "gender": 0, "id": 1543476, "job": "Casting", "name": "Sylvia Nobel", "profile_path": null}, {"credit_id": "565e46fb9251416db0003cae", "department": "Writing", "gender": 0, "id": 1543476, "job": "Novel", "name": "Sylvia Nobel", "profile_path": null}, {"credit_id": "565e48e49251416daa003bab", "department": "Costume & Make-Up", "gender": 0, "id": 1543527, "job": "Costume Design", "name": "Gail Mitchell-Panella", "profile_path": null}, {"credit_id": "565e49479251416db4003e47", "department": "Editing", "gender": 0, "id": 1469151, "job": "Editor", "name": "Pete Brown", "profile_path": null}, {"credit_id": "565e496dc3a3687cf1003e6a", "department": "Editing", "gender": 2, "id": 25296, "job": "Editor", "name": "Stephen Adrianson", "profile_path": null}, {"credit_id": "565e49b79251416da1003fe3", "department": "Art", "gender": 0, "id": 1543529, "job": "Production Design", "name": "Amy Saetang", "profile_path": null}, {"credit_id": "565e49f9c3a3687cff003e9c", "department": "Camera", "gender": 0, "id": 1469151, "job": "Director of Photography", "name": "Pete Brown", "profile_path": null}, {"credit_id": "565e4a1c9251416daa003bef", "department": "Production", "gender": 0, "id": 1543530, "job": "Executive Producer", "name": "Jerry Williams", "profile_path": "/nf4DI3l6KZyvPSubwLJRLsAfknJ.jpg"}, {"credit_id": "565e4a31c3a3687cf1003e98", "department": "Production", "gender": 0, "id": 1543476, "job": "Executive Producer", "name": "Sylvia Nobel", "profile_path": null}, {"credit_id": "565e4a599251416dad003f24", "department": "Production", "gender": 2, "id": 1543531, "job": "Executive Producer", "name": "Jason Van Eman", "profile_path": "/gI1ru1DMR7EoyZBB2pyvn7otOQW.jpg"}, {"credit_id": "565e4ab09251416da1004027", "department": "Production", "gender": 0, "id": 230334, "job": "Producer", "name": "Nancy Criss", "profile_path": "/xcQvHG7UMd0NAVVNTlKWRcvGgMC.jpg"}, {"credit_id": "565e4abe9251416da7003e8b", "department": "Production", "gender": 0, "id": 1543476, "job": "Producer", "name": "Sylvia Nobel", "profile_path": null}, {"credit_id": "565e4ad29251416db0003ddc", "department": "Production", "gender": 2, "id": 1543532, "job": "Producer", "name": "Harvey Lowry", "profile_path": "/lvRTxVgoS0x9LCP09jq5U7Etkl6.jpg"}, {"credit_id": "565e4b279251416daa003c4c", "department": "Production", "gender": 0, "id": 1469151, "job": "Producer", "name": "Pete Brown", "profile_path": null}, {"credit_id": "565e4b579251416da7003eb6", "department": "Writing", "gender": 0, "id": 1543536, "job": "Writer", "name": "Bower Yousse", "profile_path": null}, {"credit_id": "565e4b73c3a3687cf3003b3e", "department": "Writing", "gender": 0, "id": 1543476, "job": "Writer", "name": "Sylvia Nobel", "profile_path": null}, {"credit_id": "565e4be1c3a3687ce70044f2", "department": "Directing", "gender": 0, "id": 230334, "job": "Director", "name": "Nancy Criss", "profile_path": "/xcQvHG7UMd0NAVVNTlKWRcvGgMC.jpg"}, {"credit_id": "565e4d27c3a3687ce5003fc1", "department": "Production", "gender": 0, "id": 1543558, "job": "Executive Producer", "name": "Ben McConley", "profile_path": null}, {"credit_id": "565f1d93c3a36874fe0039f0", "department": "Sound", "gender": 2, "id": 928975, "job": "Original Music Composer", "name": "Dean Andre", "profile_path": null}, {"credit_id": "565f1dc0c3a3687510003749", "department": "Sound", "gender": 2, "id": 928975, "job": "Sound Editor", "name": "Dean Andre", "profile_path": null}, {"credit_id": "565f1dce9251415e6e001903", "department": "Sound", "gender": 2, "id": 928975, "job": "Sound Re-Recording Mixer", "name": "Dean Andre", "profile_path": null}, {"credit_id": "565f1de2c3a3687510003757", "department": "Sound", "gender": 2, "id": 928975, "job": "Sound mixer", "name": "Dean Andre", "profile_path": null}]}}