{"adult": false, "backdrop_path": "/eb8xEwHJCJSH9rq5b2QrkVuoOUX.jpg", "belongs_to_collection": null, "budget": 0, "genres": [{"id": 28, "name": "Action"}, {"id": 12, "name": "Adventure"}, {"id": 99, "name": "Documentary"}, {"id": 18, "name": "Drama"}], "homepage": "http://woodshed.com/", "id": 34091, "imdb_id": "tt0479584", "original_language": "en", "original_title": "A Brokedown Melody", "overview": "A Brokedown Melody explores the times, travels and experiences of a tribe of surfers who search for the spark of life and look to pass it on to the younger generation. The film follows swell through South America, Polynesia and Jamaica documenting the surfing and times of Kelly Slater, Jack Johnson, Gerry Lopez, Rob Machado and the Malloys.", "popularity": 1.259, "poster_path": "/dZPkB3ZvtfzBH4DPqRMtUGFzNi9.jpg", "production_companies": [], "production_countries": [{"iso_3166_1": "CL", "name": "Chile"}], "release_date": "2004-01-01", "revenue": 0, "runtime": null, "spoken_languages": [{"iso_639_1": "en", "name": "English"}], "status": "Released", "tagline": "", "title": "A Brokedown Melody", "video": false, "vote_average": 7.0, "vote_count": 1, "keywords": {"keywords": [{"id": 6075, "name": "sport"}]}, "similar": {"page": 1, "results": [{"adult": false, "backdrop_path": "/qVjKZMB0IdOc2JlwiiGsuKTvTJs.jpg", "genre_ids": [18], "id": 22881, "original_language": "en", "original_title": "The Blind Side", "overview": "The story of Michael Oher, a homeless and traumatized boy who became an All American football player and first round NFL draft pick with the help of a caring woman and her family", "poster_path": "/wEGFSgPebLk6g1ngKsJ6a46PYLV.jpg", "release_date": "2009-11-20", "title": "The Blind Side", "video": false, "vote_average": 7.5, "vote_count": 3212, "popularity": 42.202}, {"adult": false, "backdrop_path": "/jK3EAFk3GdOaQfUDCOiTujzMpwH.jpg", "genre_ids": [18], "id": 389015, "original_language": "en", "original_title": "I, Tonya", "overview": "Competitive ice skater Tonya Harding rises amongst the ranks at the U. S. Figure Skating Championships, but her future in the sport is thrown into doubt when her ex-husband intervenes.", "poster_path": "/6gNXwSHxaksR1PjVZRqNapmkgj3.jpg", "release_date": "2017-12-08", "title": "I, Tonya", "video": false, "vote_average": 7.5, "vote_count": 3332, "popularity": 20.099}, {"id": 8923, "video": false, "vote_count": 1359, "vote_average": 7.2, "title": "Green Street Hooligans", "release_date": "2005-09-09", "original_language": "en", "original_title": "Green Street Hooligans", "genre_ids": [80, 18], "backdrop_path": "/oasVTD3UpTEjhTAVx9ZCy1k19Qv.jpg", "adult": false, "overview": "After being wrongfully expelled from Harvard University, American Matt Buckner flees to his sister's home in England. Once there, he is befriended by her charming and dangerous brother-in-law, Pete Dunham, and introduced to the underworld of British football hooliganism. Matt learns to stand his ground through a friendship that develops against the backdrop of this secret and often violent world. 'Green Street Hooligans' is a story of loyalty, trust and the sometimes brutal consequences of living close to the edge.", "poster_path": "/z3LC4kI8azbeuHRGgDdWo6VBCdX.jpg", "popularity": 20.194}, {"adult": false, "backdrop_path": "/n1Gh3MJAVvXmkgSDf3SOLlPCjag.jpg", "genre_ids": [35, 18, 10749], "id": 9390, "original_language": "en", "original_title": "Jerry Maguire", "overview": "Jerry Maguire used to be a typical sports agent: willing to do just about anything he could to get the biggest possible contracts for his clients, plus a nice commission for himself. Then, one day, he suddenly has second thoughts about what he's really doing. When he voices these doubts, he ends up losing his job and all of his clients, save Rod Tidwell, an egomaniacal football player.", "poster_path": "/99YTEdKOKDRClsscOpJfdkbaTrQ.jpg", "release_date": "1996-12-13", "title": "Jerry Maguire", "video": false, "vote_average": 6.9, "vote_count": 1796, "popularity": 20.431}, {"adult": false, "backdrop_path": "/kBTdPNTAzagAY6UiwY957KCDGuu.jpg", "genre_ids": [16, 35, 10751], "id": 2300, "original_language": "en", "original_title": "Space Jam", "overview": "Swackhammer, an evil alien theme park owner, needs a new attraction at Moron Mountain. When his gang, the Nerdlucks, heads to Earth to kidnap Bugs Bunny and the Looney Tunes, Bugs challenges them to a basketball game to determine their fate. The aliens agree, but they steal the powers of NBA basketball players, including Larry Bird and Charles Barkley -- so Bugs gets some help from superstar Michael Jordan.", "poster_path": "/xI9AwhOWtsbFlS8tYD2PXa80p7u.jpg", "release_date": "1996-11-15", "title": "Space Jam", "video": false, "vote_average": 6.7, "vote_count": 3180, "popularity": 17.288}, {"adult": false, "backdrop_path": "/zu3zLkJeRtGJq4I6D7ONMWmFOLh.jpg", "genre_ids": [28, 18], "id": 9766, "original_language": "en", "original_title": "Gridiron Gang", "overview": "Teenagers at a juvenile detention center, under the leadership of their counselor, gain self-esteem by playing football together.", "poster_path": "/8UlDsCPjAfg15L5Sgkcmy8rv1rg.jpg", "release_date": "2006-09-15", "title": "Gridiron Gang", "video": false, "vote_average": 6.7, "vote_count": 431, "popularity": 10.994}, {"adult": false, "backdrop_path": "/3fcBsj9JMQQ27Wuk3LVrEwVZ2VT.jpg", "genre_ids": [28, 18], "id": 323677, "original_language": "en", "original_title": "Race", "overview": "Based on the story of Jesse Owens, the athlete whose quest to become the greatest track and field athlete in history thrusts him onto the world stage of the 1936 Olympics, where he faces off against Adolf Hitler's vision of Aryan supremacy.", "poster_path": "/szLfTQ2vLFQkNbP3dc0pnco1rje.jpg", "release_date": "2016-02-19", "title": "Race", "video": false, "vote_average": 7.3, "vote_count": 990, "popularity": 15.646}, {"id": 391757, "video": false, "vote_count": 185, "vote_average": 6.5, "title": "Never Back Down: No Surrender", "release_date": "2016-06-07", "original_language": "en", "original_title": "Never Back Down: No Surrender", "genre_ids": [28, 18], "backdrop_path": "/pzjnObK3uiHcKwiir9OPPWzbW8f.jpg", "adult": false, "overview": "Picking up after the events of Never Back Down 2, former MMA champion Case Walker is on the comeback trail to become champion once again.", "poster_path": "/dYNS4o4Q4DDLiKRAAvZ9KcrhHuy.jpg", "popularity": 15.446}, {"id": 44833, "video": false, "vote_count": 3512, "vote_average": 5.6, "title": "Battleship", "release_date": "2012-04-11", "original_language": "en", "original_title": "Battleship", "genre_ids": [28, 12, 878, 53], "backdrop_path": "/rLhO767vwqRfUBmJOqvEmt5myIF.jpg", "adult": false, "overview": "When mankind beams a radio signal into space, a reply comes from \u2018Planet G\u2019, in the form of several alien crafts that splash down in the waters off Hawaii. Lieutenant Alex Hopper is a weapons officer assigned to the USS John Paul Jones, part of an international naval coalition which becomes the world's last hope for survival as they engage the hostile alien force of unimaginable strength. While taking on the invaders, Hopper must also try to live up to the potential that his brother, and his fianc\u00e9e's father, Admiral Shane, expect of him.", "poster_path": "/7hN6WtMepoMZyeHZU2DM21cEj3z.jpg", "popularity": 24.873}, {"id": 307081, "video": false, "vote_count": 3703, "vote_average": 7.4, "title": "Southpaw", "release_date": "2015-03-24", "original_language": "en", "original_title": "Southpaw", "genre_ids": [28, 18], "backdrop_path": "/tTt1cdEEkKMJ1R4VBTe5vbE3bWO.jpg", "adult": false, "overview": "Billy \"The Great\" Hope, the reigning junior middleweight boxing champion, has an impressive career, a loving wife and daughter, and a lavish lifestyle. However, when tragedy strikes, Billy hits rock bottom, losing his family, his house and his manager. He soon finds an unlikely savior in Tick Willis, a former fighter who trains the city's toughest amateur boxers. With his future on the line, Hope fights to reclaim the trust of those he loves the most.", "poster_path": "/50d0XQQETSyg3bwBXhC7K33pKgc.jpg", "popularity": 28.235}, {"adult": false, "backdrop_path": "/w41zFKYTsq4wf5QnQJWMXuzWl2F.jpg", "genre_ids": [18, 28], "id": 96721, "original_language": "en", "original_title": "Rush", "overview": "A biographical drama centered on the rivalry between Formula 1 drivers James Hunt and Niki Lauda during the 1976 Formula One motor-racing season.", "poster_path": "/cjEepHZOZAwmK6nAj5jis6HV75E.jpg", "release_date": "2013-09-02", "title": "Rush", "video": false, "vote_average": 7.7, "vote_count": 4276, "popularity": 17.673}, {"id": 70006, "video": false, "vote_count": 288, "vote_average": 6.1, "title": "Never Back Down 2: The Beatdown", "release_date": "2011-09-13", "original_language": "en", "original_title": "Never Back Down 2: The Beatdown", "genre_ids": [28, 18], "backdrop_path": "/lSFqtjxMfAHa58TBDDBELKeq2DH.jpg", "adult": false, "overview": "Four fighters different backgrounds come together to train under an ex MMA rising star and then ultimately have to fight each other and the traitor in heir midst.", "poster_path": "/qeISu4rUk9l9sQTMs86fAoxSx8p.jpg", "popularity": 15.641}, {"adult": false, "backdrop_path": "/nb70B4EXuoegiQ0C5N1fNVHIaYc.jpg", "genre_ids": [12, 18, 36, 53, 10752], "id": 5925, "original_language": "en", "original_title": "The Great Escape", "overview": "The Nazis, exasperated at the number of escapes from their prison camps by a relatively small number of Allied prisoners, relocates them to a high-security 'escape-proof' camp to sit out the remainder of the war. Undaunted, the prisoners plan one of the most ambitious escape attempts of World War II. Based on a true story.", "poster_path": "/qhy4HgUqhEbwQ1ekKTv7yEB3b0e.jpg", "release_date": "1963-06-20", "title": "The Great Escape", "video": false, "vote_average": 8.0, "vote_count": 1359, "popularity": 19.093}, {"id": 699, "video": false, "vote_count": 908, "vote_average": 6.5, "title": "For Your Eyes Only", "release_date": "1981-06-23", "original_language": "en", "original_title": "For Your Eyes Only", "genre_ids": [28, 12, 53], "backdrop_path": "/hg8ecg8LrR8ChvZh4aMETNUraGA.jpg", "adult": false, "overview": "A British spy ship has sunk and on board was a hi-tech encryption device. James Bond is sent to find the device that holds British launching instructions before the enemy Soviets get to it first.", "poster_path": "/vpZZZ2eq8z4I6PSeGxR2UWNciGG.jpg", "popularity": 18.605}, {"adult": false, "backdrop_path": "/9SudvdR6HYtgTqMz17RYXdWuTUl.jpg", "genre_ids": [12, 28, 53], "id": 707, "original_language": "en", "original_title": "A View to a Kill", "overview": "A newly developed microchip designed by Zorin Industries for the British Government that can survive the electromagnetic radiation caused by a nuclear explosion has landed in the hands of the KGB. James Bond must find out how and why. His suspicions soon lead him to big industry leader Max Zorin.", "poster_path": "/veDMW7eX6tat86EapsvGEICJ8Tq.jpg", "release_date": "1985-05-24", "title": "A View to a Kill", "video": false, "vote_average": 6.2, "vote_count": 957, "popularity": 24.223}, {"adult": false, "backdrop_path": "/39jfRKSZZlHxfrdZOsR4R80gVoc.jpg", "genre_ids": [18, 28], "id": 8456, "original_language": "en", "original_title": "Never Back Down", "overview": "Rebellious Jake Tyler is lured into an ultimate underground fight Scene at his new high school, after receiving threats to the safety of his friends and family Jake decides to seek the mentoring of a veteran fighter who trains him for one final no-holds-barred elimination fight with his nemesis and local martial arts champion Ryan McCarthy.", "poster_path": "/6vT35MJ67U3llfi6W7MbM5r2dav.jpg", "release_date": "2008-03-04", "title": "Never Back Down", "video": false, "vote_average": 6.6, "vote_count": 1246, "popularity": 14.955}, {"id": 39254, "video": false, "vote_count": 4971, "vote_average": 6.8, "title": "Real Steel", "release_date": "2011-09-28", "original_language": "en", "original_title": "Real Steel", "genre_ids": [28, 18, 878], "backdrop_path": "/bwaMcX2zjfc3C7YLBWRnBnHEDHW.jpg", "adult": false, "overview": "Charlie Kenton is a washed-up fighter who retired from the ring when robots took over the sport. After his robot is trashed, he reluctantly teams up with his estranged son to rebuild and train an unlikely contender.", "poster_path": "/drtXi58nN6P3zcoLh6wUlsZAYqh.jpg", "popularity": 21.957}, {"adult": false, "backdrop_path": "/eD8PxfDsmWyUcj2LzQ9Ha2O7UvB.jpg", "genre_ids": [99], "id": 614423, "original_language": "en", "original_title": "Collingwood: From The Inside Out", "overview": "An  intimate look at Collingwood Football Club as it rebuilds itself and aims for glory over the course of the 2018 season.", "poster_path": "/dsJMvBJ7M2HvGkJdhW4nKNHEgDs.jpg", "release_date": "2019-08-15", "title": "Collingwood: From The Inside Out", "video": false, "vote_average": 1.0, "vote_count": 1, "popularity": 1.883}, {"adult": false, "backdrop_path": "/20IgqkdFw5kuItqDCJtidSESP0t.jpg", "genre_ids": [27, 18], "id": 10066, "original_language": "en", "original_title": "House of Wax", "overview": "A group of unwitting teens are stranded near a strange wax museum and soon must fight to survive and keep from becoming the next exhibit.", "poster_path": "/uM1RebQywM5PPYsauayefpXGxVk.jpg", "release_date": "2005-04-30", "title": "House of Wax", "video": false, "vote_average": 5.7, "vote_count": 1532, "popularity": 16.398}, {"adult": false, "backdrop_path": "/mYKP6qcDUimVMAHQWLOuDHjO19S.jpg", "genre_ids": [35], "id": 445629, "original_language": "en", "original_title": "Fighting with My Family", "overview": "Born into a tight-knit wrestling family, Paige and her brother Zak are ecstatic when they get the once-in-a-lifetime opportunity to try out for the WWE. But when only Paige earns a spot in the competitive training program, she must leave her loved ones behind and face this new cutthroat world alone. Paige's journey pushes her to dig deep and ultimately prove to the world that what makes her different is the very thing that can make her a star.", "poster_path": "/cVhe15rJLRjolunSWLBN6xQLyGU.jpg", "release_date": "2019-02-14", "title": "Fighting with My Family", "video": false, "vote_average": 6.7, "vote_count": 643, "popularity": 18.498}], "total_pages": 182, "total_results": 3632}, "recommendations": {"page": 1, "results": [], "total_pages": 1, "total_results": 0}, "credits": {"cast": [{"cast_id": 2, "character": "", "credit_id": "52fe45529251416c9102e66f", "gender": 0, "id": 111854, "name": "Mark Cunningham", "order": 0, "profile_path": null}, {"cast_id": 3, "character": "", "credit_id": "52fe45529251416c9102e673", "gender": 0, "id": 22083, "name": "Jack Johnson", "order": 1, "profile_path": "/aNPho9m18zey5lV8cI9njqKYsHt.jpg"}, {"cast_id": 4, "character": "", "credit_id": "52fe45529251416c9102e677", "gender": 2, "id": 4330, "name": "Gerry Lopez", "order": 2, "profile_path": "/2lu12xvrwhSzcqNzmFmIs6wrN17.jpg"}, {"cast_id": 5, "character": "", "credit_id": "52fe45529251416c9102e67b", "gender": 0, "id": 108333, "name": "Rob Machado", "order": 3, "profile_path": "/j1wHDl7aRqRTld8GsuZiesBnwDM.jpg"}, {"cast_id": 6, "character": "", "credit_id": "52fe45529251416c9102e67f", "gender": 2, "id": 4334, "name": "Kelly Slater", "order": 4, "profile_path": "/hzgs3mpat2FhvPzGhJBgV8BTlxY.jpg"}], "crew": [{"credit_id": "52fe45529251416c9102e68b", "department": "Production", "gender": 2, "id": 82222, "job": "Producer", "name": "Emmett Malloy", "profile_path": null}, {"credit_id": "52fe45529251416c9102e697", "department": "Crew", "gender": 2, "id": 82222, "job": "Thanks", "name": "Emmett Malloy", "profile_path": null}, {"credit_id": "5a6f63379251413745000344", "department": "Directing", "gender": 0, "id": 108334, "job": "Director", "name": "Chris Malloy", "profile_path": "/tLhyrIfWacVXp1B24vgSjKeGsfy.jpg"}, {"credit_id": "52fe45529251416c9102e685", "department": "Production", "gender": 2, "id": 82223, "job": "Producer", "name": "Tim Lynch", "profile_path": null}, {"credit_id": "52fe45529251416c9102e69d", "department": "Editing", "gender": 0, "id": 111855, "job": "Editor", "name": "Clark Eddy", "profile_path": null}]}}