{"adult": false, "backdrop_path": "/t23eHP0W8pfrBEyWmpGq3SVeK57.jpg", "belongs_to_collection": null, "budget": 0, "genres": [{"id": 99, "name": "Documentary"}], "homepage": "https://www.facebook.com/sherpafilm", "id": 341366, "imdb_id": "tt3746250", "original_language": "en", "original_title": "Sherpa", "overview": "In 2013, the world's media reported on a shocking mountain-high brawl as European climbers fled a mob of angry Sherpas. Director Jennifer Peedom and her team set out to uncover the cause of this altercation, intending to film the 2014 climbing season from the Sherpa's point-of-view. Instead, they captured Everest's greatest tragedy, when a huge block of ice crashed down onto the climbing route...", "popularity": 2.738, "poster_path": "/4goHS59pHIyaGe7OTrOSjxDekat.jpg", "production_companies": [{"id": 41577, "logo_path": "/6tkgqMVglDM5XFY1DWXVEQ4WZvV.png", "name": "Felix Media", "origin_country": "AU"}, {"id": 67302, "logo_path": "/3xfDii9VwPHRj9nVZhJAPXRA1hN.png", "name": "Arrow Media", "origin_country": "GB"}], "production_countries": [{"iso_3166_1": "NP", "name": "Nepal"}, {"iso_3166_1": "AU", "name": "Australia"}], "release_date": "2015-06-07", "revenue": 0, "runtime": 96, "spoken_languages": [{"iso_639_1": "en", "name": "English"}, {"iso_639_1": "ne", "name": ""}], "status": "Released", "tagline": "Some Live to Climb. They Climb to Live.", "title": "Sherpa", "video": false, "vote_average": 7.5, "vote_count": 28, "keywords": {"keywords": [{"id": 485, "name": "nepal"}, {"id": 5096, "name": "natural disaster"}, {"id": 47972, "name": "native peoples"}, {"id": 187056, "name": "woman director"}, {"id": 192779, "name": "mount everest"}, {"id": 192940, "name": "geography"}, {"id": 209502, "name": "sherpa"}]}, "similar": {"page": 1, "results": [{"id": 616584, "video": false, "vote_count": 92, "vote_average": 7.5, "title": "K-12", "release_date": "2019-09-05", "original_language": "en", "original_title": "K-12", "genre_ids": [14, 27, 10402], "backdrop_path": "/fSlfaF0Ydfr2SK6hOYHvDsb7a9Z.jpg", "adult": false, "overview": "Cry Baby, a strong and sensitive girl, is sent off to a disturbing sleepaway school that\u2019s hidden underneath a grandiose fa\u00e7ade. Luckily, she has a sweet and unapologetic best friend who sticks up for her when she gets bullied by the other students whose brains are under control by the Principal and his wicked staff. With the help of the magical friends they meet along the way, as well as an Angelic Spirit Guide, they are able to gain the strength they need to fight off the school\u2019s belligerent patriarchal conditioning.", "poster_path": "/nVi0yBBPj5Z96JgGWVIg94kv7bR.jpg", "popularity": 15.107}, {"id": 9813, "video": false, "vote_count": 128, "vote_average": 6.1, "title": "The Quiet", "release_date": "2005-09-12", "original_language": "en", "original_title": "The Quiet", "genre_ids": [18, 53], "backdrop_path": "/6eyWAZA4CEidZW1xXnQ4vlYBXTP.jpg", "adult": false, "overview": "After her widowed father dies, deaf teenager Dot moves in with her godparents, Olivia and Paul Deer. The Deers' daughter, Nina, is openly hostile to Dot, but that does not prevent her from telling her secrets to her silent stepsister, including the fact that she wants to kill her lecherous father.", "poster_path": "/GEqIE9YlmygHVUfS64LW2cwAAM.jpg", "popularity": 14.844}, {"id": 326359, "video": false, "vote_count": 1180, "vote_average": 6.8, "title": "Frozen Fever", "release_date": "2015-03-09", "original_language": "en", "original_title": "Frozen Fever", "genre_ids": [12, 16, 10751], "backdrop_path": "/ubioPGniCfDiASmYYpeJs5RRNaC.jpg", "adult": false, "overview": "On Anna's birthday, Elsa and Kristoff are determined to give her the best celebration ever, but Elsa's icy powers may put more than just the party at risk.", "poster_path": "/lKJiVPzsAO9IJ4LKWXZ8vkR2bg4.jpg", "popularity": 17.218}, {"id": 8656, "video": false, "vote_count": 1621, "vote_average": 6.1, "title": "Deep Impact", "release_date": "1998-05-08", "original_language": "en", "original_title": "Deep Impact", "genre_ids": [28, 18, 878], "backdrop_path": "/zdPHv4OkhjUNTCO0KkhoowfJmH0.jpg", "adult": false, "overview": "A seven-mile-wide space rock is hurtling toward Earth, threatening to obliterate the planet. Now, it's up to the president of the United States to save the world. He appoints a tough-as-nails veteran astronaut to lead a joint American-Russian crew into space to destroy the comet before impact. Meanwhile, an enterprising reporter uses her smarts to uncover the scoop of the century.", "poster_path": "/nbF4Tuj4OY8btrjoOHtk64hkKbJ.jpg", "popularity": 27.398}, {"id": 297762, "video": false, "vote_count": 13722, "vote_average": 7.3, "title": "Wonder Woman", "release_date": "2017-05-30", "original_language": "en", "original_title": "Wonder Woman", "genre_ids": [28, 12, 14], "backdrop_path": "/6iUNJZymJBMXXriQyFZfLAKnjO6.jpg", "adult": false, "overview": "An Amazon princess comes to the world of Man in the grips of the First World War to confront the forces of evil and bring an end to human conflict.", "poster_path": "/gfJGlDaHuWimErCr5Ql0I8x9QSy.jpg", "popularity": 44.687}, {"adult": false, "backdrop_path": "/gZeJziVigmRqbkEZwKAtSqlLQ6s.jpg", "genre_ids": [18, 10749], "id": 370663, "original_language": "en", "original_title": "Below Her Mouth", "overview": "An unexpected affair quickly escalates into a heart-stopping reality for two women whose passionate connection changes their lives forever.", "poster_path": "/nTGbq37hYLuNy7YgMg0gVLma0NS.jpg", "release_date": "2016-09-10", "title": "Below Her Mouth", "video": false, "vote_average": 6.2, "vote_count": 456, "popularity": 18.664}, {"adult": false, "backdrop_path": "/6tern9vOEwwmkDYC1vRCuO64z0C.jpg", "genre_ids": [10749, 18], "id": 475888, "original_language": "en", "original_title": "Tell It to the Bees", "overview": "Dr. Jean Markham returns to the town she left as a teenager to take over her late father's medical practice. When a school-yard scuffle lands Charlie in her surgery, she invites him to visit the hives in her garden and tell his secrets to the bees, as she once did. The new friendship between the boy and the bee keeper brings his mother Lydia into Jean's world.", "poster_path": "/Rj6zpHhMU1zFW3v28U4PSRSRgP.jpg", "release_date": "2019-05-03", "title": "Tell It to the Bees", "video": false, "vote_average": 6.4, "vote_count": 53, "popularity": 13.175}, {"adult": false, "backdrop_path": "/xOGEw8iywxcFMolV6SF6YdTdJTb.jpg", "genre_ids": [10402, 10749], "id": 52371, "original_language": "nl", "original_title": "LelleBelle", "overview": "19-year old Belle practices playing the violin diligently, but is unable to impart her music with a sensitive undertone. Her life changes when she discovers that sexual desire stimulates passion in her music.", "poster_path": "/nJVPgIq3icZMQ26p5uWIFdUZJfL.jpg", "release_date": "2010-10-08", "title": "LelleBelle", "video": false, "vote_average": 4.7, "vote_count": 41, "popularity": 13.747}, {"adult": false, "backdrop_path": "/fZ8oFcREAr6wgWcXISGql0xyxjB.jpg", "genre_ids": [35, 18], "id": 39781, "original_language": "en", "original_title": "The Kids Are All Right", "overview": "Two women, Nic and Jules, brought a son and daughter into the world through artificial insemination. When one of their children reaches age, both kids go behind their mothers' backs to meet with the donor. Life becomes so much more interesting when the father, two mothers and children start to become attached to each other.", "poster_path": "/fPDeK4MmoGfi2X0oWZev7LrbMqM.jpg", "release_date": "2010-07-09", "title": "The Kids Are All Right", "video": false, "vote_average": 6.6, "vote_count": 923, "popularity": 12.159}, {"adult": false, "backdrop_path": "/pBgGl3GfVxs84T7ZniUAz5FMMNx.jpg", "genre_ids": [35, 10751, 12, 14, 10749], "id": 11451, "original_language": "en", "original_title": "Herbie Fully Loaded", "overview": "Maggie Peyton, the new owner of Number 53 - the free-wheelin' Volkswagen bug with a mind of its own - puts the car through its paces on the road to becoming a NASCAR competitor.", "poster_path": "/7lTfTZ8CDfXw09eAv3OOvsbCVgs.jpg", "release_date": "2005-06-22", "title": "Herbie Fully Loaded", "video": false, "vote_average": 5.3, "vote_count": 1347, "popularity": 14.041}, {"adult": false, "backdrop_path": "/rf6G51j0SZL0tP57I8gnqHTRFEr.jpg", "genre_ids": [35, 18, 10749], "id": 273153, "original_language": "fr", "original_title": "La belle saison", "overview": "In 1971, Carole and Delphine meet and fall in love in Paris. When Carole follows Delphine back to her family farm in Limousin, the two find lesbianism and feminism are not as easy in the countryside.", "poster_path": "/evvAkNMO5VJiy5qIo1Hu7fUfvVI.jpg", "release_date": "2015-08-19", "title": "Summertime", "video": false, "vote_average": 6.6, "vote_count": 162, "popularity": 11.575}, {"adult": false, "backdrop_path": "/cADbqsIoiDW7X3Myg9nz8eAuno5.jpg", "genre_ids": [18, 10749], "id": 10818, "original_language": "fr", "original_title": "Naissance des pieuvres", "overview": "Set during a sultry summer in a French suburb, Marie is desperate to join the local pool's synchronized swimming team, but is her interest solely for the sake of sport or for a chance to get close to Floriane, the bad girl of the team? Sciamma, and the two leads, capture the uncertainty of teenage sexuality with a sympathetic eye in this delicate drama of the angst of coming-of-age.", "poster_path": "/4jajELYrR4Xmv3CVoKnukRnALa2.jpg", "release_date": "2007-05-17", "title": "Water Lilies", "video": false, "vote_average": 6.1, "vote_count": 119, "popularity": 9.614}, {"adult": false, "backdrop_path": "/nriBinb7Y3Bm6LdbmOC0mFxSm8d.jpg", "genre_ids": [80, 18], "id": 226, "original_language": "en", "original_title": "Boys Don't Cry", "overview": "Female born, Teena Brandon adopts his male identity of Brandon Teena and attempts to find himself and love in Nebraska.", "poster_path": "/6bqIZTEuJnUrgnxcymciszvOz8J.jpg", "release_date": "1999-09-02", "title": "Boys Don't Cry", "video": false, "vote_average": 7.5, "vote_count": 718, "popularity": 10.072}, {"adult": false, "backdrop_path": "/24JDK9dRRRzkBjHBsKQIGs7sBkj.jpg", "genre_ids": [53, 18], "id": 303858, "original_language": "en", "original_title": "Money Monster", "overview": "Financial TV host Lee Gates and his producer Patty are put in an extreme situation when an irate investor takes over their studio.", "poster_path": "/p7KDmC2beuKCCMO49L767OgwLQr.jpg", "release_date": "2016-05-12", "title": "Money Monster", "video": false, "vote_average": 6.4, "vote_count": 2031, "popularity": 11.472}, {"id": 71688, "video": false, "vote_count": 1019, "vote_average": 6.4, "title": "The Iron Lady", "release_date": "2011-12-30", "original_language": "en", "original_title": "The Iron Lady", "genre_ids": [18, 36], "backdrop_path": "/dfM5XwQcw36HAnKhowEh5776MJl.jpg", "adult": false, "overview": "A look at the life of Margaret Thatcher, the former Prime Minister of the United Kingdom, with a focus on the price she paid for power.", "poster_path": "/e67tal4u66eFz8yGnJGTO5FYRxY.jpg", "popularity": 10.839}, {"adult": false, "backdrop_path": "/akgjzb4o3t7k6PbAzhNM2DBCN4e.jpg", "genre_ids": [80, 10749, 53], "id": 9303, "original_language": "en", "original_title": "Bound", "overview": "Corky, a tough female ex con and her lover Violet concoct a scheme to steal millions of stashed mob money and pin the blame on Violet's crooked boyfriend Caesar.", "poster_path": "/xfITNjW2sunPiB7BNotJJsCxhdA.jpg", "release_date": "1996-09-13", "title": "Bound", "video": false, "vote_average": 7.0, "vote_count": 397, "popularity": 13.294}, {"adult": false, "backdrop_path": "/dvQDRfv3qvfHNnVAR57ouVsuErf.jpg", "genre_ids": [10749, 18], "id": 28031, "original_language": "en", "original_title": "If These Walls Could Talk 2", "overview": "The stories of three lesbian couples -- who live in the same house at different periods of time -- who are at a crossroads in their lives. In 1961, Edith loses her lover, Abby, to a stroke. Linda and Amy struggle with feminist issues in 1972. And, in 2000, Kal and Fran try to have a baby with the help of sperm donor.", "poster_path": "/xs7ODbmYQXCDhvXNvz5tF17T59H.jpg", "release_date": "2000-03-05", "title": "If These Walls Could Talk 2", "video": false, "vote_average": 7.1, "vote_count": 55, "popularity": 8.86}, {"adult": false, "backdrop_path": "/dXQdfVXUOrGhby6yTk9yZEDKhhg.jpg", "genre_ids": [18], "id": 65229, "original_language": "fr", "original_title": "Tomboy", "overview": "A French family with two daughters, 10-year-old Laure and 6-year-old Jeanne, moves to a new neighborhood during the summer holidays. With her tomboy ways, Laure is immediately mistaken for a boy by the local kids and passes herself off as Micka\u00ebl.", "poster_path": "/q4bl7q32VmqWMPl5WWfCdu2UFSw.jpg", "release_date": "2011-04-20", "title": "Tomboy", "video": false, "vote_average": 7.2, "vote_count": 339, "popularity": 9.175}, {"adult": false, "backdrop_path": "/s12HEmmkJfI2mjltI61hGm5kubD.jpg", "genre_ids": [35, 18, 10749], "id": 20770, "original_language": "en", "original_title": "But I'm a Cheerleader", "overview": "Megan is an all-American girl. A cheerleader. She has a boyfriend. But Megan doesn't like kissing her boyfriend very much. And she's pretty touchy with her cheerleader friends. Her conservative parents worry that she must be a lesbian and send her off to \"sexual redirection\" school, where she must, with other lesbians and gays learn how to be straight.", "poster_path": "/eDGH7CHSdkrYcuUJV1e0WS9DlQL.jpg", "release_date": "1999-12-09", "title": "But I'm a Cheerleader", "video": false, "vote_average": 6.8, "vote_count": 246, "popularity": 9.011}, {"adult": false, "backdrop_path": "/wRZCI7HbecEcqPaU9OqURg7pmXQ.jpg", "genre_ids": [18, 10749], "id": 10399, "original_language": "en", "original_title": "Mansfield Park", "overview": "This fun and sexy comedy tells a timelessly entertaining story where wealthy, secret passions and mischievous women put love to the test.. When a spirited young woman, Fanny Price, is sent away to live on the great country estate of her rich cousins, she's meant to learn the ways of proper society. But while Fanny learns \"their\" ways, she also enlightens them with a wit and sparkle all her own!", "poster_path": "/reh2SdnPDmFbjWWAEbTv9GgQbke.jpg", "release_date": "1999-11-12", "title": "Mansfield Park", "video": false, "vote_average": 6.8, "vote_count": 186, "popularity": 11.106}], "total_pages": 39, "total_results": 770}, "recommendations": {"page": 1, "results": [{"adult": false, "backdrop_path": "/4Mq0qtQvWFsQQe5XRdf7ytezoGu.jpg", "genre_ids": [53], "id": 502800, "original_language": "en", "original_title": "Crisis Hotline", "overview": "A cynical counselor at a crisis hotline finds himself in a life or death situation when a young man calls and threatens to kill three people and then himself.", "poster_path": "/AkyTEsEwe2W8iPfxJD1TcJTHCDx.jpg", "release_date": "2019-06-11", "title": "Crisis Hotline", "video": false, "vote_average": 5.3, "vote_count": 3, "popularity": 4.492}, {"adult": false, "backdrop_path": "/iPRKgNK9Gls5djXpO4e94fQxPmh.jpg", "genre_ids": [], "id": 543889, "original_language": "en", "original_title": "An Audience of Chairs", "overview": "Maura Mackenzie (Carolina Bartczak) believes the world is hers to conquer. With her career as a concert pianist gaining momentum, it seems her beauty and talent will be strong enough to mask the demons that threaten to engulf her. But with an absent husband (Chris Jacot) and two young daughters at home, her precarious sanity begins to unravel until one summer day, burning with manic energy, she makes a terrible mistake \u2014 a mistake that will change her life forever. The consequences for Maura are catastrophic: her ambitious husband runs for his life, taking the children with him, leaving Maura to lapse into a full-scale breakdown. Life as she knew it is now over. With the help of her father, Ian (Peter MacNeill), Maura works to reclaim her life and waits for a miracle to bring her daughters home. But when the fates align, can the past be forgiven?", "poster_path": "/e5MPJTwEPDjdVwifFFO3nKaFVZH.jpg", "release_date": "2018-09-14", "title": "An Audience of Chairs", "video": false, "vote_average": 7.3, "vote_count": 4, "popularity": 3.31}, {"adult": false, "backdrop_path": "/vNeCUQ2q64essNMKu1Ob26B0M1S.jpg", "genre_ids": [], "id": 46148, "original_language": "en", "original_title": "The Red Menace", "overview": "A couple try to leave the Communist party after a murder by the group they were once loyal to.", "poster_path": "/a7mPps5f7VfVqyeeJ3W6CGyrkJq.jpg", "release_date": "1949-08-01", "title": "The Red Menace", "video": false, "vote_average": 4.1, "vote_count": 7, "popularity": 2.925}, {"id": 83926, "video": false, "vote_count": 3, "vote_average": 7.0, "title": "Ninety Degrees in the Shade", "release_date": "1965-06-01", "original_language": "en", "original_title": "Ninety Degrees in the Shade", "genre_ids": [80, 18, 53], "backdrop_path": "/Abbs7FQ4oBe5rTmo496j5enG92B.jpg", "adult": false, "overview": "A woman attempts to cover up the thefts committed by the manager at the shop she works at.", "poster_path": "/GsW0wqXs40fgZV8MrGItKeRgWu.jpg", "popularity": 2.501}, {"adult": false, "backdrop_path": "/fvc6xGo60iGHqqeToc0wzxY2LO2.jpg", "genre_ids": [80, 18], "id": 514185, "original_language": "en", "original_title": "Savage Youth", "overview": "Six young lives collide in the most horrific and twisted of ways. Based on true events.", "poster_path": "/o6xavktLk9VSURAlSAn6yFEjsln.jpg", "release_date": "2018-01-22", "title": "Savage Youth", "video": false, "vote_average": 7.7, "vote_count": 3, "popularity": 2.15}, {"adult": false, "backdrop_path": "/bUwwofZUjJ50WFYo2CisXgUadUt.jpg", "genre_ids": [35], "id": 537734, "original_language": "en", "original_title": "The Weekend", "overview": "An acerbic comedian becomes romantically entangled with her ex, his new girlfriend, and another guest during a weekend getaway.", "poster_path": "/6IJ9UcJjUjMW6UOvQ99MllDZhoN.jpg", "release_date": "2019-09-13", "title": "The Weekend", "video": false, "vote_average": 7.0, "vote_count": 4, "popularity": 4.251}, {"adult": false, "backdrop_path": "/vWYGm5VfrL96KXltrkB7CmF1uf8.jpg", "genre_ids": [18, 10751], "id": 36527, "original_language": "en", "original_title": "Phar Lap", "overview": "Phar Lap, the big bold chestnut reigned as the king of the turf in the depression that gripped Australia of the 1930s. From his humble beginnings the New Zealand bred horse raced on to become the hero of a nation.", "poster_path": "/1sIFVIAoGQJ1sNsVnVLE3qam086.jpg", "release_date": "1983-08-11", "title": "Phar Lap", "video": false, "vote_average": 7.7, "vote_count": 14, "popularity": 3.258}, {"id": 515917, "video": false, "vote_count": 4, "vote_average": 7.8, "title": "Saints Rest", "release_date": "2018-04-26", "original_language": "en", "original_title": "Saints Rest", "genre_ids": [18, 10402], "backdrop_path": "/cdPS99Rg2X7jCkkbYWAwuvslq8A.jpg", "adult": false, "overview": "A musical drama set in small-town Iowa, SAINTS REST tells the story of two estranged sisters, who over the course of one summer, form a connection through their shared love of music, as they grieve the recent death of their mother.", "poster_path": "/8gNHJ3iLIcne4RWqG5t6eUBfz19.jpg", "popularity": 4.736}, {"adult": false, "backdrop_path": "/lhYIgXqEXwQWdTBoiWju0gKkhjA.jpg", "genre_ids": [99], "id": 360150, "original_language": "en", "original_title": "Love Is a Verb", "overview": "Love Is A Verb is an examination of a social movement of Sufi-inspired Sunni Muslims that began in Turkey in the l960s and now spans across the globe. The group is called Hizmet, the Turkish word for \"service\" or The G\u00fclen Movement after its inspiration and teacher, Fethullah G\u00fclen, a man TIME magazine named as one of the most influential leaders in the world in 2013 for \"...preaching a message of tolerance.\"", "poster_path": "/3kPA4EeqiOaq6RTCDcYQzZYQgZs.jpg", "release_date": "2014-04-01", "title": "Love Is a Verb", "video": false, "vote_average": 7.0, "vote_count": 3, "popularity": 1.806}, {"id": 579386, "video": false, "vote_count": 7, "vote_average": 4.9, "title": "Darker than Night", "release_date": "2018-10-28", "original_language": "en", "original_title": "Darker than Night", "genre_ids": [27, 53], "backdrop_path": "/gU7aMn8P7f1pICmtCp2Uu3Tmn5r.jpg", "adult": false, "overview": "Sloan Carter is a young girl who has recently been blinded. Her father leaves for the weekend and her two best friends, returning home from University, keep her company. A protege of her father's, passing through town, also spends the night. The peaceful weekend is interrupted by a shadowy threat and the safe country getaway turns into a fight for survival.", "poster_path": "/7ksR1JDlzXIeXJ6mKeMkoseEt77.jpg", "popularity": 4.738}, {"adult": false, "backdrop_path": "/j9UUnuZHoI434vYX9qL4AV5t1EA.jpg", "genre_ids": [99], "id": 253291, "original_language": "en", "original_title": "DamNation", "overview": "This powerful film odyssey across America explores the sea change in national attitude from pride in big dams as engineering wonders to the growing awareness that our own future is bound to the life and health of our rivers.", "poster_path": "/nMMowv4ZFV7KUtQHIIOlLC875GD.jpg", "release_date": "2014-03-10", "title": "DamNation", "video": false, "vote_average": 7.3, "vote_count": 7, "popularity": 3.028}, {"adult": false, "backdrop_path": "/b6VJT1EuQtmJm4JpkLhK62dPQmB.jpg", "genre_ids": [35, 18], "id": 507660, "original_language": "en", "original_title": "The Merger", "overview": "A country football coach who has a plan to rebuild the local football team by recruiting recently settled asylum seekers.", "poster_path": "/v1bCOU6touQ4qWidGGD8LtqwiBW.jpg", "release_date": "2018-08-30", "title": "The Merger", "video": false, "vote_average": 6.1, "vote_count": 7, "popularity": 2.973}, {"adult": false, "backdrop_path": "/q6z0jtnoaUDxhQsfFTzWjUWLmfO.jpg", "genre_ids": [], "id": 495831, "original_language": "en", "original_title": "Quality Problems", "overview": "Bailey and Drew are a 40 something couple much like other couples: They have two kids, two jobs, one dad with Alzheimers and one boob with cancer. Toss in planning an 8 year old\u2019s birthday party and the only thing you CAN do is laugh.", "poster_path": "/eItrIDqNkNlLkafTzQ3kWMiozrB.jpg", "release_date": "2018-05-08", "title": "Quality Problems", "video": false, "vote_average": 8.3, "vote_count": 3, "popularity": 1.76}, {"adult": false, "backdrop_path": "/aPJdv8ynbVlMKeJgSJUguqColuh.jpg", "genre_ids": [18, 10749], "id": 47920, "original_language": "en", "original_title": "Magnificent Obsession", "overview": "A playboy tries to redeem himself after his careless behavior causes a great man's death.", "poster_path": "/9ypouSkN5BzMQUaXqC80XH3GAXi.jpg", "release_date": "1935-12-30", "title": "Magnificent Obsession", "video": false, "vote_average": 7.7, "vote_count": 7, "popularity": 3.451}, {"id": 43116, "video": false, "vote_count": 5, "vote_average": 6.8, "title": "High School Confidential!", "release_date": "1958-05-30", "original_language": "en", "original_title": "High School Confidential!", "genre_ids": [9648, 53], "backdrop_path": "/aGYiuTcaG73iJBX31ihEWJLCNok.jpg", "adult": false, "overview": "Tony Baker is a rebel with a cause in this classic exploitation tale of teens gone wild.Sent undercover to expose a dope ring at Santa Bella High, Baker infiltrates the gang, pulls a switchblade and gets his girl all in one fell swoop.Banned in numerous countries on release for its edgy content of dancing, drugs and drag car racing,", "poster_path": "/aqCCtvx9SsM8i8cBE7HOJMvYS6p.jpg", "popularity": 4.327}, {"adult": false, "backdrop_path": "/iEeR1Ezr0rIviKHOfOWDsvycUxc.jpg", "genre_ids": [18], "id": 183361, "original_language": "en", "original_title": "Caroline and Jackie", "overview": "A woman turns her sister's belated birthday celebration into an intervention, but as events unfold, it becomes unclear which sibling needs the most help.", "poster_path": "/flC2O1aqEbbqRj5pWmIKPUu1gdd.jpg", "release_date": "2013-05-03", "title": "Caroline and Jackie", "video": false, "vote_average": 7.0, "vote_count": 4, "popularity": 1.776}, {"id": 104874, "video": false, "vote_count": 8, "vote_average": 7.2, "title": "The Tempest", "release_date": "1979-09-13", "original_language": "en", "original_title": "The Tempest", "genre_ids": [18], "backdrop_path": "/5QQlqQuIjhZoQyxRvi5t48dATy.jpg", "adult": false, "overview": "Prospero, a potent magician, lives on a desolate isle with his virginal daughter, Miranda. He's in exile, banished from his duchy by his usurping brother and the King of Naples. Providence brings these enemies near; aided by his vassal the spirit Ariel, Prospero conjures a tempest to wreck the Italian ship. The king's son, thinking all others lost, becomes Prospero's prisoner, falling in love with Miranda and she with him. Prospero's brother and the king wander the island, as do a drunken cook and sailor, who conspire with Caliban, Prospero's beastly slave, to murder Prospero. Prospero wants reason to triumph, Ariel wants his freedom, Miranda a husband; the sailors want to dance.", "poster_path": "/8DMGa0ChOx6SbinDkfPHA4G1uHk.jpg", "popularity": 2.377}], "total_pages": 1, "total_results": 17}, "credits": {"cast": [], "crew": [{"credit_id": "555fe0eac3a36868d9003c0f", "department": "Directing", "gender": 1, "id": 114335, "job": "Director", "name": "Jennifer Peedom", "profile_path": "/642vQ1YgRFaLmuVmacOrtxhBBQf.jpg"}, {"credit_id": "57665b6fc3a3687fe400209f", "department": "Camera", "gender": 2, "id": 1638125, "job": "Director of Photography", "name": "Hugh Miller", "profile_path": null}, {"credit_id": "57665d1bc3a3687fe40020e5", "department": "Camera", "gender": 2, "id": 1123183, "job": "Director of Photography", "name": "Renan Ozturk", "profile_path": "/8n6t81MDM1CGmdACuqDV6AtjJFV.jpg"}, {"credit_id": "57665d2bc3a3682b7200117a", "department": "Camera", "gender": 0, "id": 1638130, "job": "Director of Photography", "name": "Ken Sauls", "profile_path": null}, {"credit_id": "57665d41c3a36879320008e1", "department": "Editing", "gender": 0, "id": 59780, "job": "Editor", "name": "Christian Gazal", "profile_path": null}, {"credit_id": "5d555d54e8131d3e338983ee", "department": "Production", "gender": 2, "id": 68542, "job": "Producer", "name": "John Smithson", "profile_path": "/1QmSA7YmYprh1m8jb1rc4jQ9DR8.jpg"}, {"credit_id": "5d555e50bc86574b372c2744", "department": "Production", "gender": 1, "id": 79686, "job": "Producer", "name": "Bridget Ikin", "profile_path": null}]}}