{"adult": false, "backdrop_path": null, "belongs_to_collection": null, "budget": 0, "genres": [{"id": 18, "name": "Drama"}, {"id": 36, "name": "History"}], "homepage": null, "id": 342945, "imdb_id": "tt0070437", "original_language": "en", "original_title": "Bequest to the Nation", "overview": "Set before the Battle of Trafalgar, this is the story of relationship between Admiral Lord Nelson and Lady Hamilton during the Napoleonic Wars.", "popularity": 1.373, "poster_path": "/xOq1aYj5PTrh70gZubUAICaxEY3.jpg", "production_companies": [{"id": 3468, "logo_path": null, "name": "Hal Wallis Productions", "origin_country": ""}], "production_countries": [{"iso_3166_1": "GB", "name": "United Kingdom"}], "release_date": "1973-04-18", "revenue": 0, "runtime": 118, "spoken_languages": [{"iso_639_1": "en", "name": "English"}], "status": "Released", "tagline": "", "title": "Bequest to the Nation", "video": false, "vote_average": 3.0, "vote_count": 1, "keywords": {"keywords": [{"id": 5565, "name": "biography"}, {"id": 33384, "name": "napoleonic wars"}]}, "similar": {"page": 1, "results": [{"adult": false, "backdrop_path": "/nU6DDTabbMkd3649WYtSiOdHCMC.jpg", "genre_ids": [18, 10749], "id": 332283, "original_language": "en", "original_title": "Mary Shelley", "overview": "The love affair between poet Percy Shelley and Mary Wollstonecraft Godwin resulted in the creation of an immortal novel, \u201cFrankenstein; or, The Modern Prometheus.\u201d", "poster_path": "/gKHJTsrfxJtfFNPQJn2hDNEMtFf.jpg", "release_date": "2018-04-22", "title": "Mary Shelley", "video": false, "vote_average": 7.1, "vote_count": 516, "popularity": 12.227}, {"adult": false, "backdrop_path": "/jK3EAFk3GdOaQfUDCOiTujzMpwH.jpg", "genre_ids": [18], "id": 389015, "original_language": "en", "original_title": "I, Tonya", "overview": "Competitive ice skater Tonya Harding rises amongst the ranks at the U. S. Figure Skating Championships, but her future in the sport is thrown into doubt when her ex-husband intervenes.", "poster_path": "/6gNXwSHxaksR1PjVZRqNapmkgj3.jpg", "release_date": "2017-12-08", "title": "I, Tonya", "video": false, "vote_average": 7.5, "vote_count": 3332, "popularity": 20.099}, {"id": 266856, "video": false, "vote_count": 6976, "vote_average": 7.9, "title": "The Theory of Everything", "release_date": "2014-11-26", "original_language": "en", "original_title": "The Theory of Everything", "genre_ids": [18, 10749], "backdrop_path": "/geAe08WmchATnZF461WffQBqJk1.jpg", "adult": false, "overview": "The Theory of Everything is the extraordinary story of one of the world\u2019s greatest living minds, the renowned astrophysicist Stephen Hawking, who falls deeply in love with fellow Cambridge student Jane Wilde.", "poster_path": "/4jspr8hLLuju59bCnMiefzRW4p0.jpg", "popularity": 22.686}, {"adult": false, "backdrop_path": "/9lS59Fwxwe6nPntp0Otp52NTyJC.jpg", "genre_ids": [36, 12, 80], "id": 478820, "original_language": "fr", "original_title": "L'Empereur de Paris", "overview": "Paris, France, early 19th century. The legendary convict Fran\u00e7ois Vidocq lives in disguise trying to escape from a tragic past that torments him. When, after an unfortunate event, he crosses paths with the police chief, he makes a bold decision that will turn the ruthless mastermind of the Parisian underworld against him.", "poster_path": "/7mZBfj3dFIzQgMVfkDwi9u4JBxI.jpg", "release_date": "2018-12-19", "title": "The Emperor of Paris", "video": false, "vote_average": 6.4, "vote_count": 228, "popularity": 9.038}, {"id": 451915, "video": false, "vote_count": 818, "vote_average": 7.6, "title": "Beautiful Boy", "release_date": "2018-10-12", "original_language": "en", "original_title": "Beautiful Boy", "genre_ids": [18], "backdrop_path": "/sOhtC4cmaYPOlcjXCWxxrx2NKKn.jpg", "adult": false, "overview": "After he and his first wife separate, journalist David Sheff struggles to help their teenage son, who goes from experimenting with drugs to becoming devastatingly addicted to methamphetamine.", "poster_path": "/i7gsLrNxpSf8NF5IZIrcOEfMyA3.jpg", "popularity": 17.739}, {"id": 228970, "video": false, "vote_count": 1566, "vote_average": 7.0, "title": "Wild", "release_date": "2014-12-05", "original_language": "en", "original_title": "Wild", "genre_ids": [18], "backdrop_path": "/pl6mEeLTI4IRnjbBGTMrJSBoYsU.jpg", "adult": false, "overview": "A woman with a tragic past decides to start her new life by hiking for one thousand miles on the Pacific Crest Trail.", "poster_path": "/zpdwj7Q8ZdTX2bWbltCFjVwugJu.jpg", "popularity": 12.623}, {"id": 1955, "video": false, "vote_count": 1711, "vote_average": 8.1, "title": "The Elephant Man", "release_date": "1980-10-02", "original_language": "en", "original_title": "The Elephant Man", "genre_ids": [18, 36], "backdrop_path": "/rR479zn26lJp4vNxXKjfBVCHLAW.jpg", "adult": false, "overview": "A Victorian surgeon rescues a heavily disfigured man being mistreated by his \"owner\" as a side-show freak. Behind his monstrous fa\u00e7ade, there is revealed a person of great intelligence and sensitivity. Based on the true story of Joseph Merrick (called John Merrick in the film), a severely deformed man in 19th century London.", "poster_path": "/lDXJUmLQsViSKLbil2luD91l2kE.jpg", "popularity": 12.883}, {"id": 363676, "video": false, "vote_count": 4336, "vote_average": 7.1, "title": "Sully", "release_date": "2016-09-07", "original_language": "en", "original_title": "Sully", "genre_ids": [18, 36], "backdrop_path": "/vC9H1ZVdXi1KjH4aPfGB54mvDNh.jpg", "adult": false, "overview": "On 15 January 2009, the world witnessed the 'Miracle on the Hudson' when Captain 'Sully' Sullenberger glided his disabled plane onto the frigid waters of the Hudson River, saving the lives of all 155 aboard. However, even as Sully was being heralded by the public and the media for his unprecedented feat of aviation skill, an investigation was unfolding that threatened to destroy his reputation and career.", "poster_path": "/h6O5OE3ueRVdCc7V7cwTiQocI7D.jpg", "popularity": 20.325}, {"adult": false, "backdrop_path": "/3fcBsj9JMQQ27Wuk3LVrEwVZ2VT.jpg", "genre_ids": [28, 18], "id": 323677, "original_language": "en", "original_title": "Race", "overview": "Based on the story of Jesse Owens, the athlete whose quest to become the greatest track and field athlete in history thrusts him onto the world stage of the 1936 Olympics, where he faces off against Adolf Hitler's vision of Aryan supremacy.", "poster_path": "/szLfTQ2vLFQkNbP3dc0pnco1rje.jpg", "release_date": "2016-02-19", "title": "Race", "video": false, "vote_average": 7.3, "vote_count": 990, "popularity": 15.646}, {"id": 369192, "video": false, "vote_count": 1153, "vote_average": 6.9, "title": "Battle of the Sexes", "release_date": "2017-09-05", "original_language": "en", "original_title": "Battle of the Sexes", "genre_ids": [35, 18, 36], "backdrop_path": "/wCHJuJwEfOrrykgDas8T4m79Bzs.jpg", "adult": false, "overview": "The true story of the 1973 tennis match between World number one Billie Jean King and ex-champ and serial hustler Bobby Riggs.", "poster_path": "/fWy0A3VojTCb0S2MKtEJjpquubF.jpg", "popularity": 7.932}, {"adult": false, "backdrop_path": "/nNcZFJYLEzRa4rlYUCeWS849k6l.jpg", "genre_ids": [18], "id": 3558, "original_language": "en", "original_title": "Girl, Interrupted", "overview": "Set in the changing world of the late 1960s, Susanna Kaysen's prescribed \"short rest\" from a psychiatrist she had met only once becomes a strange, unknown journey into Alice's Wonderland, where she struggles with the thin line between normal and crazy. Susanna soon realizes how hard it is to get out once she has been committed, and she ultimately has to choose between the world of people who belong inside or the difficult world of reality outside.", "poster_path": "/vp46lgVDiFdT4Hw5WIISOPwnMaH.jpg", "release_date": "1999-12-21", "title": "Girl, Interrupted", "video": false, "vote_average": 7.6, "vote_count": 1912, "popularity": 15.937}, {"adult": false, "backdrop_path": "/mYKP6qcDUimVMAHQWLOuDHjO19S.jpg", "genre_ids": [35], "id": 445629, "original_language": "en", "original_title": "Fighting with My Family", "overview": "Born into a tight-knit wrestling family, Paige and her brother Zak are ecstatic when they get the once-in-a-lifetime opportunity to try out for the WWE. But when only Paige earns a spot in the competitive training program, she must leave her loved ones behind and face this new cutthroat world alone. Paige's journey pushes her to dig deep and ultimately prove to the world that what makes her different is the very thing that can make her a star.", "poster_path": "/cVhe15rJLRjolunSWLBN6xQLyGU.jpg", "release_date": "2019-02-14", "title": "Fighting with My Family", "video": false, "vote_average": 6.7, "vote_count": 643, "popularity": 18.498}, {"id": 487558, "video": false, "vote_count": 4020, "vote_average": 7.6, "title": "BlacKkKlansman", "release_date": "2018-07-30", "original_language": "en", "original_title": "BlacKkKlansman", "genre_ids": [80], "backdrop_path": "/wKRrldOtg6HVeGqGLls6iT9XO7I.jpg", "adult": false, "overview": "Colorado Springs, late 1970s. Ron Stallworth, an African American police officer, and Flip Zimmerman, his Jewish colleague, run an undercover operation to infiltrate the Ku Klux Klan.", "poster_path": "/8jxqAvSDoneSKRczaK8v9X5gqBp.jpg", "popularity": 25.597}, {"id": 317557, "video": false, "vote_count": 250, "vote_average": 7.1, "title": "Queen of Katwe", "release_date": "2016-09-23", "original_language": "en", "original_title": "Queen of Katwe", "genre_ids": [18], "backdrop_path": "/awZwLXuPAGZEARF3y18S3qWt5LH.jpg", "adult": false, "overview": "A young girl overcomes her disadvantaged upbringing in the slums of Uganda to become a Chess master.", "poster_path": "/8nIIoHuV1c8orDNCyTcHuDhoc4q.jpg", "popularity": 9.376}, {"adult": false, "backdrop_path": "/urnGzQvP8fwWWGkn1k809KqIjbm.jpg", "genre_ids": [18], "id": 87093, "original_language": "en", "original_title": "Big Eyes", "overview": "The story of the awakening of painter, Margaret Keane, her phenomenal success in the 1950s, and the subsequent legal difficulties she had with her husband, who claimed credit for her works in the 1960s.", "poster_path": "/z2tqzprHojhgEGYKQepjU28oQg6.jpg", "release_date": "2014-12-24", "title": "Big Eyes", "video": false, "vote_average": 7.0, "vote_count": 2349, "popularity": 14.024}, {"id": 5915, "video": false, "vote_count": 6283, "vote_average": 7.8, "title": "Into the Wild", "release_date": "2007-09-11", "original_language": "en", "original_title": "Into the Wild", "genre_ids": [12, 18], "backdrop_path": "/9yJehIjvR7ULOLxeDJoth4kDDNe.jpg", "adult": false, "overview": "After graduating from Emory University in 1992, top student and athlete Christopher McCandless abandons his possessions, gives his entire $24,000 savings account to charity, and hitchhikes to Alaska to live in the wilderness.", "poster_path": "/lHyYgaocXR6KcJLxVmxZDj115hH.jpg", "popularity": 13.103}, {"id": 205775, "video": false, "vote_count": 2362, "vote_average": 6.6, "title": "In the Heart of the Sea", "release_date": "2015-11-20", "original_language": "en", "original_title": "In the Heart of the Sea", "genre_ids": [28, 12, 18, 36, 53], "backdrop_path": "/aZoZ0NglXgiBMToem9HhTAYYamw.jpg", "adult": false, "overview": "In the winter of 1820, the New England whaling ship Essex is assaulted by something no one could believe\u2014a whale of mammoth size and will, and an almost human sense of vengeance.", "poster_path": "/zVmWh0Zfg4UhbvdGI8LQrn1lQZJ.jpg", "popularity": 18.435}, {"id": 457799, "video": false, "vote_count": 1572, "vote_average": 7.0, "title": "Extremely Wicked, Shockingly Evil and Vile", "release_date": "2019-05-02", "original_language": "en", "original_title": "Extremely Wicked, Shockingly Evil and Vile", "genre_ids": [80, 18, 53], "backdrop_path": "/uRoA67sM5vvCI4cplxhl67BTPly.jpg", "adult": false, "overview": "A chronicle of the crimes of Ted Bundy, from the perspective of his longtime girlfriend, Elizabeth Kloepfer, who refused to believe the truth about him for years.", "poster_path": "/zSuJ3r5zr5T26tTxyygHhgkUAIM.jpg", "popularity": 22.062}, {"adult": false, "backdrop_path": "/w41zFKYTsq4wf5QnQJWMXuzWl2F.jpg", "genre_ids": [18, 28], "id": 96721, "original_language": "en", "original_title": "Rush", "overview": "A biographical drama centered on the rivalry between Formula 1 drivers James Hunt and Niki Lauda during the 1976 Formula One motor-racing season.", "poster_path": "/cjEepHZOZAwmK6nAj5jis6HV75E.jpg", "release_date": "2013-09-02", "title": "Rush", "video": false, "vote_average": 7.7, "vote_count": 4276, "popularity": 17.673}, {"id": 396371, "video": false, "vote_count": 1970, "vote_average": 7.1, "title": "Molly's Game", "release_date": "2017-12-25", "original_language": "en", "original_title": "Molly's Game", "genre_ids": [80, 18], "backdrop_path": "/rHcBZ6ZKCe4FalWHyvBGsyMsh0k.jpg", "adult": false, "overview": "Molly Bloom, a young skier and former Olympic hopeful becomes a successful entrepreneur (and a target of an FBI investigation) when she establishes a high-stakes, international poker game.", "poster_path": "/in43bQ7k0ttr666IPP94IlbQbTR.jpg", "popularity": 18.141}], "total_pages": 332, "total_results": 6630}, "recommendations": {"page": 1, "results": [], "total_pages": 1, "total_results": 0}, "credits": {"cast": [{"cast_id": 0, "character": "", "credit_id": "556ea184925141157d000c56", "gender": 1, "id": 115573, "name": "Glenda Jackson", "order": 1, "profile_path": "/2DwosJkEhMGE3uek7fsVskxE5VS.jpg"}, {"cast_id": 1, "character": "", "credit_id": "556ea18cc3a3680e86002031", "gender": 2, "id": 29903, "name": "Peter Finch", "order": 2, "profile_path": "/rfG6zneBXQJxFxez865nlSt5ExM.jpg"}, {"cast_id": 2, "character": "", "credit_id": "556ea193c3a3680e8a00231b", "gender": 2, "id": 29069, "name": "Michael Jayston", "order": 3, "profile_path": "/yoTNX1Bx2YqEaEHyzQXlkTZ5Iq2.jpg"}, {"cast_id": 3, "character": "", "credit_id": "556ea19b925141153b000c02", "gender": 2, "id": 14371, "name": "Anthony Quayle", "order": 4, "profile_path": "/au2nJAa5detncsuS7il5z7StaUh.jpg"}, {"cast_id": 4, "character": "", "credit_id": "556ea1a5925141157d000c5a", "gender": 1, "id": 80255, "name": "Margaret Leighton", "order": 5, "profile_path": "/cONUWV4s2sYTO9Nx1PSZf8BMJ6M.jpg"}, {"cast_id": 5, "character": "", "credit_id": "556ea1b0c3a3684796000c52", "gender": 2, "id": 16274, "name": "Dominic Guard", "order": 6, "profile_path": "/m5auOR8ibxs9lZeGHBEKQAzqBkS.jpg"}, {"cast_id": 6, "character": "", "credit_id": "556ea1b7c3a3680ea20024a4", "gender": 2, "id": 108637, "name": "Nigel Stock", "order": 7, "profile_path": "/yv4cY1k6KWAQgsln2IHobAyVEtg.jpg"}, {"cast_id": 7, "character": "", "credit_id": "556ea1c0c3a36847fd000bb6", "gender": 2, "id": 9926, "name": "Roland Culver", "order": 8, "profile_path": "/93CvXcv5dBXSjzYd5yf9qxxnvhj.jpg"}], "crew": [{"credit_id": "57cf77be92514134b300429e", "department": "Editing", "gender": 1, "id": 6346, "job": "Editor", "name": "Anne V. Coates", "profile_path": "/l6q2h2n7oZzgUjmRAYiw8w86f97.jpg"}, {"credit_id": "556ea1df925141422c002117", "department": "Writing", "gender": 0, "id": 137992, "job": "Writer", "name": "Terence Rattigan", "profile_path": null}, {"credit_id": "556ea1d0c3a3680e7a0020a2", "department": "Directing", "gender": 0, "id": 1223020, "job": "Director", "name": "James Cellan Jones", "profile_path": null}, {"credit_id": "5c284673c3a3683a59d378d5", "department": "Camera", "gender": 2, "id": 2202100, "job": "Assistant Camera", "name": "Mike Rutter", "profile_path": null}]}}