{"adult": false, "backdrop_path": "/6Boy7ZCX6em6KQLIOrt6YdJdj4b.jpg", "belongs_to_collection": null, "budget": 0, "genres": [{"id": 36, "name": "History"}], "homepage": null, "id": 34372, "imdb_id": "tt0132134", "original_language": "xx", "original_title": "The Execution of Mary, Queen of Scots", "overview": "A short film depicting the execution of Mary, Queen of the Scots. Mary is brought to the execution block and made to kneel down with her neck over it. The executioner lifts his axe ready to bring it down. After that frame Mary has been replaced by a dummy. The axe comes down and severs the head of the dummy from the body. The executioner picks up the head and shows it around for everyone else to see. One of the first camera tricks to be used in a movie.", "popularity": 2.641, "poster_path": "/28eVQfY7IbAp4ufSBBr0kNURfI7.jpg", "production_companies": [{"id": 18758, "logo_path": "/fe3cMUJLhbkTM9PDxdDA8hQpAxp.png", "name": "Edison Manufacturing Company", "origin_country": "US"}], "production_countries": [{"iso_3166_1": "US", "name": "United States of America"}], "release_date": "1895-08-28", "revenue": 0, "runtime": 1, "spoken_languages": [{"iso_639_1": "xx", "name": "No Language"}], "status": "Released", "tagline": "", "title": "The Execution of Mary, Queen of Scots", "video": false, "vote_average": 6.1, "vote_count": 44, "keywords": {"keywords": [{"id": 7537, "name": "tudors"}, {"id": 11181, "name": "decapitation"}, {"id": 11670, "name": "mary queen of scots"}, {"id": 13129, "name": "execution"}, {"id": 154802, "name": "silent film"}, {"id": 208244, "name": "16th century"}]}, "similar": {"page": 1, "results": [{"adult": false, "backdrop_path": "/twGxeStlGooWV3gP6ZIcSNuQ6jf.jpg", "genre_ids": [12, 16, 10751, 14], "id": 81684, "original_language": "en", "original_title": "The Gruffalo's Child", "overview": "A follow up to the 2009 animated feature and adapted from the childrens' book by Julia Donaldson and Alex Scheffler.  The Gruffalo's child explores the deep dark wood in search of the big bad mouse and meets the Snake, Owl and Fox in the process.  She eventually finds the mouse, who manages to outwit her like the Gruffalo before!", "poster_path": "/qaGH2AoaLvoGXURQtNzj1nw6oZd.jpg", "release_date": "2011-12-25", "title": "The Gruffalo's Child", "video": false, "vote_average": 6.9, "vote_count": 73, "popularity": 9.51}, {"adult": false, "backdrop_path": "/hPByrqJXCXIViFheXQh48wtI7T6.jpg", "genre_ids": [16, 12, 14, 10751], "id": 31135, "original_language": "en", "original_title": "Mickey Mouse: Mickey and the Beanstalk", "overview": "Based on the timeless adventures of \"Jack and the Beanstalk,\" Mickey, Donald and Goofy climb a fantastic beanstalk up into the sky to a place where everything is huge -- the food, the castle and the fearsome giant named Willy who guards a beautiful golden harp! Will Mickey and his friends outwit the giant and make it safely back home?", "poster_path": "/kk1Xg1f1lv6loekjlKinpKJlGOu.jpg", "release_date": "1947-09-27", "title": "Mickey Mouse: Mickey and the Beanstalk", "video": false, "vote_average": 6.7, "vote_count": 166, "popularity": 13.649}, {"adult": false, "backdrop_path": "/2CR4OT6Ou4axUfThbJ6sbnMGWWm.jpg", "genre_ids": [12, 14, 878], "id": 775, "original_language": "fr", "original_title": "Le Voyage dans la Lune", "overview": "Professor Barbenfouillis and five of his colleagues from the Academy of Astronomy travel to the Moon aboard a rocket propelled by a giant cannon. Once on the lunar surface, the bold explorers face the many perils hidden in the caves of the mysterious satellite.", "poster_path": "/zztHYAfSecYuaDyIjQudjKaOLLY.jpg", "release_date": "1902-09-01", "title": "A Trip to the Moon", "video": false, "vote_average": 8.0, "vote_count": 822, "popularity": 12.649}, {"adult": false, "backdrop_path": "/wdMq7F5Cr1DGg8ioNPZvWxqQer4.jpg", "genre_ids": [878, 14], "id": 76535, "original_language": "en", "original_title": "Marvel One-Shot: A Funny Thing Happened on the Way to Thor's Hammer", "overview": "Agent Coulson stops at a convenience store and deals with a coincidental robbery during his visit.", "poster_path": "/5uGaqAnt0RQ87uKy8UlRDNrL2jY.jpg", "release_date": "2011-10-25", "title": "Marvel One-Shot: A Funny Thing Happened on the Way to Thor's Hammer", "video": false, "vote_average": 7.1, "vote_count": 181, "popularity": 11.889}, {"id": 5698, "video": false, "vote_count": 268, "vote_average": 7.1, "title": "The Great Train Robbery", "release_date": "1903-12-01", "original_language": "en", "original_title": "The Great Train Robbery", "genre_ids": [28, 12, 80, 37], "backdrop_path": "/9GO8h44nckngDtdJ6R1QfIsl43j.jpg", "adult": false, "overview": "The clerk at the train station is assaulted and left tied by four men, then they rob the train threatening the operator. (They) take all the money and shoot a passenger when trying to run away. A little girl discovers the clerk tied and gives notice to the sheriff, who at once goes along with his men hunting the bandits.", "poster_path": "/uf7Hr1wuUh4T83Ifg5pVpwTqRdI.jpg", "popularity": 11.231}, {"adult": false, "backdrop_path": "/wwwkeSqtU4Agi7HFp1NvtZCD5IJ.jpg", "genre_ids": [99], "id": 17700, "original_language": "en", "original_title": "Deep Sea 3D", "overview": "Sea life in a whole new way. Deep Sea 3D, an underwater adventure from the filmmakers behind the successful IMAX\u00ae 3D film Into the Deep, transports audiences deep below the ocean surface. Through the magic of IMAX\u00ae; and IMAX 3D, moviegoers will swim with some of the planets most unique, dangerous and colorful creatures, and understand this inspiring underworld.", "poster_path": "/2UglT7JjN6o7dYni4G16NYOFRJO.jpg", "release_date": "2006-03-03", "title": "Deep Sea 3D", "video": false, "vote_average": 6.5, "vote_count": 40, "popularity": 6.367}, {"adult": false, "backdrop_path": "/43TK5GtHUiPelQpnSX0bl9ONLh0.jpg", "genre_ids": [16, 35, 10751], "id": 54553, "original_language": "en", "original_title": "Home Makeover", "overview": "The Minions have to make Gru's home safe for the children, before Child Services arrive!", "poster_path": "/uRlT6hzUE6pMCtSsUhKd7OtjD1l.jpg", "release_date": "2010-12-13", "title": "Home Makeover", "video": false, "vote_average": 6.9, "vote_count": 97, "popularity": 11.492}, {"id": 54559, "video": false, "vote_count": 123, "vote_average": 6.9, "title": "Minions: Orientation Day", "release_date": "2010-12-13", "original_language": "en", "original_title": "Minions: Orientation Day", "genre_ids": [16, 35, 10751], "backdrop_path": "/8BueE3xOMMd2Z2ix6ayqj2uPIGL.jpg", "adult": false, "overview": "With so many jobs to choose from, the Minions have to make serious decisions after watching an 'Initiation Video'. What could go wrong?!", "poster_path": "/u1gyqMqRvdwj49vsBLRBGBs4Yoi.jpg", "popularity": 9.749}, {"id": 234567, "video": false, "vote_count": 130, "vote_average": 7.6, "title": "Get a Horse!", "release_date": "2013-11-27", "original_language": "en", "original_title": "Get a Horse!", "genre_ids": [16, 10751], "backdrop_path": "/pHKhvWkI65I579uXvIU2TcIxIRe.jpg", "adult": false, "overview": "Mickey, Minnie, Horace Horsecollar, and Clarabelle Cow go on a musical wagon ride until Peg-Leg Pete tries to run them off the road.", "poster_path": "/gJD2wDa5gGUTQITW9ZfjckxSBEs.jpg", "popularity": 8.087}, {"id": 3059, "video": false, "vote_count": 141, "vote_average": 7.4, "title": "Intolerance: Love's Struggle Throughout the Ages", "release_date": "1916-09-04", "original_language": "en", "original_title": "Intolerance: Love's Struggle Throughout the Ages", "genre_ids": [18], "backdrop_path": "/9XksyoSydGAiMjDx7bVp0JdPsIl.jpg", "adult": false, "overview": "The story of a poor young woman, separated by prejudice from her husband and baby, is interwoven with tales of intolerance from throughout history.", "poster_path": "/mnjifw19X094HvG80CN7nyMSRsD.jpg", "popularity": 9.721}, {"id": 54551, "video": false, "vote_count": 191, "vote_average": 7.1, "title": "Banana", "release_date": "2010-12-13", "original_language": "en", "original_title": "Banana", "genre_ids": [16, 35, 10751], "backdrop_path": "/byw8CLHK87KRrLrCcFGf55dRjB6.jpg", "adult": false, "overview": "The Minions fight over a delicious banana.. but is that all they want?!", "poster_path": "/afIcxtzw37hunY6VkQw0DqKslO7.jpg", "popularity": 9.764}, {"id": 17963, "video": false, "vote_count": 93, "vote_average": 6.7, "title": "Gone Nutty", "release_date": "2002-10-21", "original_language": "en", "original_title": "Gone Nutty", "genre_ids": [16, 35], "backdrop_path": "/83uvnsfFIHvKQQwcfqtxWZv8RFR.jpg", "adult": false, "overview": "Scrat tries to finish his rather large collection of acorns when things start going nutty.", "poster_path": "/uK111YcLeGmfJOWEetRmyiRvfya.jpg", "popularity": 12.017}, {"adult": false, "backdrop_path": "/cVSDTY9m1QvDFOXL6E6Cwj2BLvO.jpg", "genre_ids": [99], "id": 18085, "original_language": "en", "original_title": "Roving Mars", "overview": "Join the Mars rovers Spirit and Opportunity for an awe-inspiring journey to the surface of the mysterious red planet.", "poster_path": "/bc7kxn7JfjHQAqTmhZUNAPjAcw.jpg", "release_date": "2006-01-27", "title": "Roving Mars", "video": false, "vote_average": 7.3, "vote_count": 12, "popularity": 8.714}, {"adult": false, "backdrop_path": "/kw44acMdZBc1NAvuHAdMRO4i4pi.jpg", "genre_ids": [27, 16, 10751, 10402], "id": 88018, "original_language": "en", "original_title": "The Skeleton Dance", "overview": "The clock strikes midnight, the bats fly from the belfry, a dog howls at the full moon, and two black cats fight in the cemetery: a perfect time for four skeletons to come out and dance a bit.", "poster_path": "/kmW0RJVpA3nyzWiEV0kt5829AS.jpg", "release_date": "1929-08-21", "title": "The Skeleton Dance", "video": false, "vote_average": 7.3, "vote_count": 99, "popularity": 6.847}, {"id": 18221, "video": false, "vote_count": 18, "vote_average": 6.6, "title": "Space Station 3D", "release_date": "2002-04-17", "original_language": "en", "original_title": "Space Station 3D", "genre_ids": [99], "backdrop_path": "/3oc4nMu2mtSnlxTGioBwEhvEN2y.jpg", "adult": false, "overview": "Some 220 miles above Earth lies the International Space Station, a one-of-a-kind outer space laboratory that 16 nations came together to build. Get a behind-the-scenes look at the making of this extraordinary structure in this spectacular IMAX film. Viewers will blast off from Florida's Kennedy Space Center and the Baikonur Cosmodrome in Russia for this incredible journey -- IMAX's first-ever space film. Tom Cruise narrates.", "poster_path": "/eVVuwum5pnweuXKR413OQuk1RzI.jpg", "popularity": 9.839}, {"id": 36123, "video": false, "vote_count": 33, "vote_average": 7.2, "title": "Under the Sea 3D", "release_date": "2009-02-13", "original_language": "en", "original_title": "Under the Sea 3D", "genre_ids": [99], "backdrop_path": "/YvCaGFoKkq16KHXj7WruSM0W4U.jpg", "adult": false, "overview": "Imagine a world of incredible color and beauty. Of crabs wearing jellyfish for hats. Of fish disguised as frogs, stones and shag carpets. Of a kaleidoscope of life dancing and weaving, floating and darting in an underwater wonderland. Now, go explore it! Howard Hall and his filmmaking team, who brought you Deep Sea and Into the Deep, take you into tropical waters alive with adventure: the Great Barrier Reef and other South Pacific realms. Narrated by Jim Carrey and featuring astonishing camerawork, this amazing film brings you face to fin with Nature's marvels, from the terrible grandeur (and terrible teeth) of a Great White to the comic antics of a lovestruck cuttlefish. Excitement and fun run deep Under the Sea!", "poster_path": "/sjpiI96sJvas7fdrtHOM9QFTqmF.jpg", "popularity": 6.534}, {"id": 91815, "video": false, "vote_count": 34, "vote_average": 6.5, "title": "The Wise Little Hen", "release_date": "1934-06-08", "original_language": "en", "original_title": "The Wise Little Hen", "genre_ids": [16, 35, 10402, 10751], "backdrop_path": "/6MAsBak2rBRaLJEGzVO3wYbDccO.jpg", "adult": false, "overview": "Donald and his friend Peter Pig try to avoid work by faking stomach aches until Mrs. Hen teaches them the value of labor.", "poster_path": "/4kLo2e4MFB1WYRZupKYfDiaXX4I.jpg", "popularity": 8.406}, {"id": 58159, "video": false, "vote_count": 60, "vote_average": 6.8, "title": "The Tortoise and the Hare", "release_date": "1935-01-05", "original_language": "en", "original_title": "The Tortoise and the Hare", "genre_ids": [16], "backdrop_path": "/kUP7XATJ98puqeL6WhgPvtEebLe.jpg", "adult": false, "overview": "The Tortoise and the Hare is an animated short film released on January 5, 1935 by United Artists, produced by Walt Disney and directed by Wilfred Jackson. Based on an Aesop's fable of the same name, The Tortoise and the Hare won the 1934 Academy Award for Best Short Subject: Cartoons. This cartoon is also believed to be one of the influences for Bugs Bunny.", "poster_path": "/5vigKmZnR5hXTC6X2wXXsjGhYWc.jpg", "popularity": 6.911}, {"id": 36208, "video": false, "vote_count": 144, "vote_average": 7.5, "title": "A Dog's Life", "release_date": "1918-04-14", "original_language": "en", "original_title": "A Dog's Life", "genre_ids": [35, 18], "backdrop_path": "/nhdKUNC6diqOAMtZdudttvguBb1.jpg", "adult": false, "overview": "The Tramp and his dog companion struggle to survive in the inner city.", "poster_path": "/fCjliYnnHFGqw9roMINAfADf0cv.jpg", "popularity": 7.997}, {"id": 46067, "video": false, "vote_count": 23, "vote_average": 6.8, "title": "Mary, Queen of Scots", "release_date": "1971-12-22", "original_language": "en", "original_title": "Mary, Queen of Scots", "genre_ids": [18, 36], "backdrop_path": "/o4tyt3rnbu7Zz71IaNCS16xTA2b.jpg", "adult": false, "overview": "Mary Stuart, who was named Queen of Scotland when she was only six days old, is the last Roman Catholic ruler of Scotland. She is imprisoned at the age of 23 by her cousin Elizabeth Tudor, the English Queen and her arch adversary. Nineteen years later the life of Mary is to be ended on the scaffold and with her execution the last threat to Elizabeth's throne has been removed. The two Queens with their contrasting personalities make a dramatic counterpoint to history.", "poster_path": "/uAZd7X1Vav7k6NkT6NJuTZEPcn5.jpg", "popularity": 7.242}], "total_pages": 107, "total_results": 2126}, "recommendations": {"page": 1, "results": [{"adult": false, "backdrop_path": null, "genre_ids": [99], "id": 105160, "original_language": "en", "original_title": "Annabelle Butterfly Dance", "overview": "Annabelle (Whitford) Moore performs one of her popular dances. For this performance, her costume has a pair of wings attached to her back, to suggest a butterfly. As she dances, she uses her long, flowing skirts to create visual patterns.", "poster_path": "/a6ixo1zEKR8q6R3hObfZRSdvNlX.jpg", "release_date": "1894-01-01", "title": "Annabelle Butterfly Dance", "video": false, "vote_average": 5.5, "vote_count": 23, "popularity": 2.491}, {"adult": false, "backdrop_path": null, "genre_ids": [99], "id": 16612, "original_language": "en", "original_title": "Carmencita", "overview": "The first woman to appear in front of an Edison motion picture camera and possibly the first woman to appear in a motion picture within the United States. In the film, Carmencita is recorded going through a routine she had been performing at Koster & Bial's in New York since February 1890.", "poster_path": "/6QJowxF4f2hrUtmrDXOqbRDMdDH.jpg", "release_date": "1894-03-14", "title": "Carmencita", "video": false, "vote_average": 5.1, "vote_count": 30, "popularity": 2.294}, {"adult": false, "backdrop_path": null, "genre_ids": [99], "id": 33229, "original_language": "xx", "original_title": "Dickson Greeting", "overview": "William K.L. Dickson brings his hat from his one hand to the other and moves his head slightly, as a small nod toward the audience. This was the first film produced by the Edison Manufacturing Company to be shown to public audiences and the press.", "poster_path": "/nzxhqmDVlVAGMkjJJhRdUv0esiv.jpg", "release_date": "1891-01-01", "title": "Dickson Greeting", "video": false, "vote_average": 4.7, "vote_count": 29, "popularity": 2.44}, {"adult": false, "backdrop_path": "/speBQRMetQOQH2qcuTsfMCAuat3.jpg", "genre_ids": [99], "id": 144410, "original_language": "en", "original_title": "Annabelle Serpentine Dance", "overview": "Two dancers perform in succession facing a stationary camera. The first is in a diaphanous skirt, held out by her hands with arms extended. She smiles, wearing butterfly wings on her back and the wings of Mercury in her hair. Her dance emphasizes the movement of her visible, bare legs. She kicks high, bows, and moves to her right and left. The second dancer has a voluminous, long skirt, and holds sticks in each hand attached to the skirt's outer edges, so that the emphasis is on the swirling patterns the skirt makes, often obscuring her unsmiling face. Her feet move little on the unadorned stage; changes in the color of the lens filter accent the swirling patterns.", "poster_path": "/l7Lzvah6PL6vdMF5p0elKiyYqp9.jpg", "release_date": "1895-04-01", "title": "Annabelle Serpentine Dance", "video": false, "vote_average": 5.8, "vote_count": 46, "popularity": 2.585}, {"adult": false, "backdrop_path": null, "genre_ids": [99], "id": 144393, "original_language": "xx", "original_title": "Annie Oakley", "overview": "Annie Oakley was probably the most famous marksman/woman in the world when this short clip was produced in Edison's Black Maria studio in West Orange, New Jersey. Barely five feet tall, Annie was always associated with the wild west, although she was born in 1860 as Phoebe Ann Oakley Mozee (or Moses)in Darke County, Ohio. Nevertheless, she was a staple in the Buffalo Bill Wild West Show and similar wild west companies. Because of her diminutive stature, she was billed as \"Little Sure Shot.\" The man assisting her is this appearance is probably her husband, Frank E. Butler. Annie had outshot Butler (a famous dead-eye marksman himself) in a shooting contest in the 1880's. Instead of nursing his bruised ego because he had been throughly outgunned by a woman, Butler fell in love, married Little Sure Shot, and became her manager.", "poster_path": "/onLyR1ktBBLWQjBBNcO78HalgJc.jpg", "release_date": "1894-11-01", "title": "Annie Oakley", "video": false, "vote_average": 6.1, "vote_count": 20, "popularity": 1.126}, {"adult": false, "backdrop_path": null, "genre_ids": [18], "id": 16624, "original_language": "xx", "original_title": "Blacksmith Scene", "overview": "Three men hammer on an anvil and pass a bottle of beer around. Notable for being the first film in which a scene is being acted out.", "poster_path": "/sQHhjP7khHjrifGqVivO35R5k7K.jpg", "release_date": "1893-05-08", "title": "Blacksmith Scene", "video": false, "vote_average": 5.5, "vote_count": 40, "popularity": 2.162}, {"adult": false, "backdrop_path": null, "genre_ids": [99], "id": 155107, "original_language": "en", "original_title": "Buffalo Dance", "overview": "Long before Hollywood started painting white men red and dressing them as 'Injuns' Edison's company was using the genuine article! Featuring for what is believed to be the Native Americans first appearance before a motion picture camera 'Buffalo Dance' features genuine members of the Sioux Tribe dressed in full war paint and costume! The dancers are believed to be veteran members of Buffalo Bill's Wild West Show. Filmed again at the Black Maria studios by both Dickson and Heise the 'Buffalo Dance' warriors were named as Hair Coat, Parts His Hair and Last Horse. Its quite strange seeing these movies at first they all stand around waiting to begin and as they start some of the dancers look at the camera in an almost sad way at having lost their way of life.", "poster_path": "/4YD0GzfmGq33KJhkRuDUefTrlVn.jpg", "release_date": "1894-09-23", "title": "Buffalo Dance", "video": false, "vote_average": 4.4, "vote_count": 16, "popularity": 1.191}, {"adult": false, "backdrop_path": null, "genre_ids": [99], "id": 127224, "original_language": "en", "original_title": "Sioux Ghost Dance", "overview": "From Edison films catalog: One of the most peculiar customs of the Sioux Tribe is here shown, the dancers being genuine Sioux Indians, in full war paint and war costumes. 40 feet. 7.50. According to Edison film historian C. Musser, this film and others shot on the same day (see also Buffalo dance) featured Native American Indian dancers from Buffalo Bill's Wild West show, and represent the American Indian's first appearance before a motion picture camera.", "poster_path": "/jaLceLoZuw7Uh3KdOvGF3SWC9dZ.jpg", "release_date": "1894-09-23", "title": "Sioux Ghost Dance", "video": false, "vote_average": 4.8, "vote_count": 13, "popularity": 0.84}, {"adult": false, "backdrop_path": null, "genre_ids": [35], "id": 32571, "original_language": "xx", "original_title": "Monkeyshines, No. 1", "overview": "Experimental film made to test the original cylinder format of the Kinetoscope and believed to be the first film shot in the United States. It shows a blurry figure in white standing in one place making large gestures and is only a few seconds long.", "poster_path": "/pXnvY4HMY7cgbFJNTCOFH3Jh4ho.jpg", "release_date": "1890-11-21", "title": "Monkeyshines, No. 1", "video": false, "vote_average": 4.1, "vote_count": 30, "popularity": 1.805}, {"adult": false, "backdrop_path": null, "genre_ids": [10402], "id": 104396, "original_language": "xx", "original_title": "Dickson Experimental Sound Film", "overview": "William K.L. Dickson plays the violin while two men dance. This is the oldest surviving sound film where sound is recorded on the phonograph.", "poster_path": "/29GejylcrVahrRziYn3B1CLUs9y.jpg", "release_date": "1894-08-31", "title": "Dickson Experimental Sound Film", "video": false, "vote_average": 6.5, "vote_count": 44, "popularity": 3.057}, {"adult": false, "backdrop_path": null, "genre_ids": [99], "id": 189054, "original_language": "en", "original_title": "Luis Martinetti, Contortionist", "overview": "Luis Martinetti, a contortionist suspended from acrobatic flying rings, contorts himself for about thirty seconds. This is one of the first films made for Edison's kinetoscopes.", "poster_path": "/hzOL0hUqIUddCnOffhCaX4SzAJm.jpg", "release_date": "1894-01-01", "title": "Luis Martinetti, Contortionist", "video": false, "vote_average": 5.6, "vote_count": 12, "popularity": 1.956}, {"adult": false, "backdrop_path": null, "genre_ids": [99], "id": 104852, "original_language": "xx", "original_title": "Newark Athlete", "overview": "Experimental film fragment made with the Edison-Dickson-Heise experimental horizontal-feed kinetograph camera and viewer, using 3/4-inch wide film.", "poster_path": "/itnuTVUMuvlal8CxQhT1PNoH2HF.jpg", "release_date": "1891-05-01", "title": "Newark Athlete", "video": false, "vote_average": 4.4, "vote_count": 31, "popularity": 2.029}, {"adult": false, "backdrop_path": null, "genre_ids": [99], "id": 159904, "original_language": "en", "original_title": "Bucking Broncho", "overview": "Lee Martin, one of the cowboy stars in 'Buffalo Bill's Wild West', rides a bronco as a crowd looks on. While the horse is trying to throw Martin off its back, another cowboy stands on top of a fence rail and occasionally fires his six-shooter, to spur on both horse and rider.", "poster_path": "/wDpn8I8wTI1U2Lk6qwg1fI827xe.jpg", "release_date": "1894-10-16", "title": "Bucking Broncho", "video": false, "vote_average": 3.9, "vote_count": 11, "popularity": 2.065}, {"adult": false, "backdrop_path": null, "genre_ids": [28, 99], "id": 33318, "original_language": "xx", "original_title": "Men Boxing", "overview": "Experimental film fragment made with the Edison-Dickson-Heise experimental horizontal-feed kinetograph camera and viewer, using 3/4-inch wide film.", "poster_path": "/7csTEvz5gWAUwB5FpybN4GI25jq.jpg", "release_date": "1891-04-30", "title": "Men Boxing", "video": false, "vote_average": 3.9, "vote_count": 18, "popularity": 1.251}, {"adult": false, "backdrop_path": null, "genre_ids": [99], "id": 129863, "original_language": "en", "original_title": "Demolishing and Building Up the Star Theatre", "overview": "Time-lapse photography showing the one month-long demolition of the Star Theatre in New York.", "poster_path": "/Ak50Z0xgsaD1iTI6amwDiJD38E9.jpg", "release_date": "1901-04-29", "title": "Demolishing and Building Up the Star Theatre", "video": false, "vote_average": 6.8, "vote_count": 18, "popularity": 1.227}, {"adult": false, "backdrop_path": null, "genre_ids": [99], "id": 186019, "original_language": "en", "original_title": "Souvenir Strip of the Edison Kinetoscope", "overview": "Eugen Sandow, who claims to be the strongest man in the world, appears in the Edison Company's film studio.", "poster_path": "/2PQnbZlYPDN1Bz4VthD8lQIHEn7.jpg", "release_date": "1894-05-18", "title": "Souvenir Strip of the Edison Kinetoscope", "video": false, "vote_average": 5.1, "vote_count": 18, "popularity": 2.364}, {"adult": false, "backdrop_path": "/j4jolq3KUkQyN9Jn321W0cW0ox7.jpg", "genre_ids": [35, 16], "id": 88013, "original_language": "fr", "original_title": "Pauvre Pierrot", "overview": "One night, Arlequin come to see his lover Colombine. But then Pierrot knocks at the door and Colombine and Arlequin hide. Pierrot starts singing but Arlequin scares him and the poor man goes away.", "poster_path": "/oS7ll70TnNHROejIvpnVJzl2ZIu.jpg", "release_date": "1892-10-28", "title": "Poor Pierrot", "video": false, "vote_average": 6.1, "vote_count": 39, "popularity": 4.056}, {"adult": false, "backdrop_path": null, "genre_ids": [99], "id": 186021, "original_language": "en", "original_title": "Caicedo (with Pole)", "overview": "King of the slack wire. His daring feats of balancing as he performs his thrilling feats in midair show that he is perfectly at home.", "poster_path": "/dxDywveAdV5yljrEsTkywRyfA9N.jpg", "release_date": "1894-07-25", "title": "Caicedo (with Pole)", "video": false, "vote_average": 5.9, "vote_count": 12, "popularity": 1.978}, {"adult": false, "backdrop_path": null, "genre_ids": [], "id": 33315, "original_language": "xx", "original_title": "Monkeyshines, No. 2", "overview": "Experimental film that follows up on the results of \"Monkeyshines, No. 1\". Once again, an Edison company worker moves around in front of the motion picture camera.", "poster_path": "/kx0jO0Z6jCLZiAwfjBp93dDeJEQ.jpg", "release_date": "1890-11-21", "title": "Monkeyshines, No. 2", "video": false, "vote_average": 4.4, "vote_count": 22, "popularity": 1.698}, {"adult": false, "backdrop_path": null, "genre_ids": [], "id": 163053, "original_language": "en", "original_title": "A Morning Bath", "overview": "\u201cMammy is washing her little pickaninny. She thrusts him, kicking and struggling, into a tub full of foaming suds.\u201d (Edison film catalog)", "poster_path": "/nMwKnRC5aGQ0uuoCfbppqF6RWPM.jpg", "release_date": "1896-10-30", "title": "A Morning Bath", "video": false, "vote_average": 4.3, "vote_count": 10, "popularity": 1.205}], "total_pages": 2, "total_results": 40}, "credits": {"cast": [{"cast_id": 3, "character": "Queen Mary", "credit_id": "54d1b67bc3a368307d0019af", "gender": 0, "id": 1422717, "name": "Robert Thomae", "order": 1, "profile_path": null}], "crew": [{"credit_id": "52fe45619251416c91030535", "department": "Directing", "gender": 0, "id": 1170484, "job": "Director", "name": "Alfred Clark", "profile_path": null}]}}