{"adult": false, "backdrop_path": "/ip6Hx0BUcs8PkDejt2TTFPKmdW7.jpg", "belongs_to_collection": null, "budget": 0, "genres": [{"id": 99, "name": "Documentary"}], "homepage": null, "id": 345661, "imdb_id": "tt3828488", "original_language": "en", "original_title": "Salam Neighbor", "overview": "Two Americans deliberately head to the edge of war, just seven miles from the Syrian border, to live among 80,000 uprooted refugees in Jordan's Za'atari refugee camp.", "popularity": 2.899, "poster_path": "/uJW3RlaXeR8TGtbO5nHqwHfV1am.jpg", "production_companies": [], "production_countries": [], "release_date": "2015-06-20", "revenue": 0, "runtime": 75, "spoken_languages": [{"iso_639_1": "ar", "name": "\u0627\u0644\u0639\u0631\u0628\u064a\u0629"}, {"iso_639_1": "en", "name": "English"}], "status": "Released", "tagline": "", "title": "Salam Neighbor", "video": false, "vote_average": 7.2, "vote_count": 10, "keywords": {"keywords": [{"id": 973, "name": "refugee camp"}, {"id": 6091, "name": "war"}, {"id": 15053, "name": "united nations"}, {"id": 191111, "name": "syria"}, {"id": 227704, "name": "npo"}]}, "similar": {"page": 1, "results": [{"adult": false, "backdrop_path": null, "genre_ids": [99], "id": 630727, "original_language": "de", "original_title": "Volunteer", "overview": "A film about the unprecedented Swiss grassroots movement of regular citizens who rise to aid thousands of refugees stranded at the European borders. In rich and safe Switzerland people from all backgrounds leave their regular life behind to support people in need. There is a Swiss farmer and his wife who keep cows in the Swiss Alps, a former commander of the Swiss Army, an elder rich lady residing at the lakeside, and a successful comedian and entertainer. These unexperienced volunteers take on an adventure that will change their lives forever.", "poster_path": "/s6LXN8PHqBHkINA7B32GRYz1LMX.jpg", "release_date": "2019-09-29", "title": "Volunteer", "video": false, "vote_average": 0.0, "vote_count": 0, "popularity": 0.772}, {"adult": false, "backdrop_path": "/pKawqrtCBMmxarft7o1LbEynys7.jpg", "genre_ids": [10752, 18, 28], "id": 228150, "original_language": "en", "original_title": "Fury", "overview": "In the last months of World War II, as the Allies make their final push in the European theatre, a battle-hardened U.S. Army sergeant named 'Wardaddy' commands a Sherman tank called 'Fury' and its five-man crew on a deadly mission behind enemy lines. Outnumbered and outgunned, Wardaddy and his men face overwhelming odds in their heroic attempts to strike at the heart of Nazi Germany.", "poster_path": "/fa4PxEPRKWRyjzYje1jM4m30qzd.jpg", "release_date": "2014-10-15", "title": "Fury", "video": false, "vote_average": 7.4, "vote_count": 7302, "popularity": 53.985}, {"id": 369885, "video": false, "vote_count": 3048, "vote_average": 6.7, "title": "Allied", "release_date": "2016-11-17", "original_language": "en", "original_title": "Allied", "genre_ids": [28, 18, 53, 10749, 10752], "backdrop_path": "/tC0tVH5KQhCwMlddnyA3iWOSuBA.jpg", "adult": false, "overview": "In 1942, an intelligence officer in North Africa encounters a female French Resistance fighter on a deadly mission behind enemy lines. When they reunite in London, their relationship is tested by the pressures of war.", "poster_path": "/nzXzLFTnd0Zb3ExfhOxlQgizgSu.jpg", "popularity": 29.818}, {"id": 190859, "video": false, "vote_count": 8311, "vote_average": 7.4, "title": "American Sniper", "release_date": "2014-12-11", "original_language": "en", "original_title": "American Sniper", "genre_ids": [28, 10752], "backdrop_path": "/oJNu8vS6Wf10Cv2996KO65jt4C0.jpg", "adult": false, "overview": "U.S. Navy SEAL Chris Kyle takes his sole mission\u2014protect his comrades\u2014to heart and becomes one of the most lethal snipers in American history. His pinpoint accuracy not only saves countless lives but also makes him a prime target of insurgents. Despite grave danger and his struggle to be a good husband and father to his family back in the States, Kyle serves four tours of duty in Iraq. However, when he finally returns home, he finds that he cannot leave the war behind.", "poster_path": "/svPHnYE7N5NAGO49dBmRhq0vDQ3.jpg", "popularity": 19.216}, {"id": 227306, "video": false, "vote_count": 2439, "vote_average": 7.4, "title": "Unbroken", "release_date": "2014-12-25", "original_language": "en", "original_title": "Unbroken", "genre_ids": [18, 10752], "backdrop_path": "/eSbKT3v3RKFRGeOmxJbZhIvrevR.jpg", "adult": false, "overview": "A chronicle of the life of Louis Zamperini, an Olympic runner who was taken prisoner by Japanese forces during World War II.", "poster_path": "/1un8i8UtCjSCnY3OfdxtB5kDRvF.jpg", "popularity": 18.995}, {"id": 676, "video": false, "vote_count": 3795, "vote_average": 6.8, "title": "Pearl Harbor", "release_date": "2001-05-21", "original_language": "en", "original_title": "Pearl Harbor", "genre_ids": [18, 36, 10749, 10752], "backdrop_path": "/cDctk61tUeQz4LX7tTFPknI28ea.jpg", "adult": false, "overview": "The lifelong friendship between Rafe McCawley and Danny Walker is put to the ultimate test when the two ace fighter pilots become entangled in a love triangle with beautiful Naval nurse Evelyn Johnson. But the rivalry between the friends-turned-foes is immediately put on hold when they find themselves at the center of Japan's devastating attack on Pearl Harbor on Dec. 7, 1941.", "poster_path": "/gzjMpcyV1RksWonaA87DZ8wQTH0.jpg", "popularity": 26.975}, {"id": 324786, "video": false, "vote_count": 7336, "vote_average": 8.1, "title": "Hacksaw Ridge", "release_date": "2016-10-07", "original_language": "en", "original_title": "Hacksaw Ridge", "genre_ids": [18, 36, 10752], "backdrop_path": "/zBK4QZONMQXhcgaJv1YYTdCW7q9.jpg", "adult": false, "overview": "WWII American Army Medic Desmond T. Doss, who served during the Battle of Okinawa, refuses to kill people and becomes the first Conscientious Objector in American history to receive the Congressional Medal of Honor.", "poster_path": "/bndiUFfJxNd2fYx8XO610L9a07m.jpg", "popularity": 23.616}, {"id": 522162, "video": false, "vote_count": 208, "vote_average": 6.7, "title": "Midway", "release_date": "2019-11-06", "original_language": "en", "original_title": "Midway", "genre_ids": [28, 18, 36, 10752], "backdrop_path": "/xjP88DFPCQ81mbZHXFscyYtGskT.jpg", "adult": false, "overview": "MIDWAY centers on the Battle of Midway, a clash between the American fleet and the Imperial Japanese Navy which marked a pivotal turning point in the Pacific Theater during WWII. The film, based on the real-life events of this heroic feat, tells the story of the leaders and soldiers who used their instincts, fortitude and bravery to overcome the odds.", "poster_path": "/hj8pyoNnynGeJTAbl7jcLZO8Uhx.jpg", "popularity": 61.116}, {"adult": false, "backdrop_path": "/9alS7FBSf8rvDLskpCRuKqAI2h5.jpg", "genre_ids": [18, 36], "id": 746, "original_language": "en", "original_title": "The Last Emperor", "overview": "A dramatic history of Pu Yi, the last of the Emperors of China, from his lofty birth and brief reign in the Forbidden City, the object of worship by half a billion people; through his abdication, his decline and dissolute lifestyle; his exploitation by the invading Japanese, and finally to his obscure existence as just another peasant worker in the People's Republic.", "poster_path": "/KTirnfG6FZLKWbm8Am3EEKmZDx.jpg", "release_date": "1987-10-21", "title": "The Last Emperor", "video": false, "vote_average": 7.6, "vote_count": 774, "popularity": 13.039}, {"id": 205, "video": false, "vote_count": 1598, "vote_average": 7.7, "title": "Hotel Rwanda", "release_date": "2004-09-11", "original_language": "en", "original_title": "Hotel Rwanda", "genre_ids": [18, 36, 10752], "backdrop_path": "/dQCTuhrP8bgsctRYeHSX21ceNX1.jpg", "adult": false, "overview": "Inspired by true events, this film takes place in Rwanda in the 1990s when more than a million Tutsis were killed in a genocide that went mostly unnoticed by the rest of the world. Hotel owner Paul Rusesabagina houses over a thousand refuges in his hotel in attempt to save their lives.", "poster_path": "/p3pHw85UMZPegfMZBA6dZ06yarm.jpg", "popularity": 16.039}, {"id": 8916, "video": false, "vote_count": 2873, "vote_average": 6.1, "title": "Antz", "release_date": "1998-10-02", "original_language": "en", "original_title": "Antz", "genre_ids": [12, 16, 35, 10751], "backdrop_path": "/kMfLkbVTsALj5eIu72jtwzDhVsV.jpg", "adult": false, "overview": "In this animated hit, a neurotic worker ant in love with a rebellious princess rises to unlikely stardom when he switches places with a soldier. Signing up to march in a parade, he ends up under the command of a bloodthirsty general. But he's actually been enlisted to fight against a termite army.", "poster_path": "/3biVcPu5hrfKUMC73sTFq17dmmS.jpg", "popularity": 19.964}, {"adult": false, "backdrop_path": "/xStFRUQtjdQWiZEGN80rgkhN0Kh.jpg", "genre_ids": [18, 878], "id": 11864, "original_language": "en", "original_title": "Enemy Mine", "overview": "A soldier from Earth crashlands on an alien world after sustaining battle damage. Eventually he encounters another survivor, but from the enemy species he was fighting; they band together to survive on this hostile world. In the end the human finds himself caring for his enemy in a completely unexpected way.", "poster_path": "/rOGOW5BnkT0Ccg7XEDmdBUBuw0K.jpg", "release_date": "1985-12-12", "title": "Enemy Mine", "video": false, "vote_average": 6.8, "vote_count": 456, "popularity": 12.134}, {"id": 11589, "video": false, "vote_count": 338, "vote_average": 7.4, "title": "Kelly's Heroes", "release_date": "1970-06-22", "original_language": "en", "original_title": "Kelly's Heroes", "genre_ids": [12, 35, 10752], "backdrop_path": "/js7WdYkmPDx8zHX0pgzhNuOTk77.jpg", "adult": false, "overview": "A misfit group of World War II American soldiers goes AWOL to rob a bank behind German lines.", "poster_path": "/lLFncrtTIz1hcteLbM9eKRflrMd.jpg", "popularity": 13.185}, {"id": 205584, "video": false, "vote_count": 2544, "vote_average": 5.4, "title": "Gods of Egypt", "release_date": "2016-02-25", "original_language": "en", "original_title": "Gods of Egypt", "genre_ids": [28, 12, 14], "backdrop_path": "/xy74anT8ZGhUIGVoalnHrmRDHbQ.jpg", "adult": false, "overview": "A common thief joins a mythical god on a quest through Egypt.", "poster_path": "/uPqAW07bGoljf3cmT5gecdOvVol.jpg", "popularity": 18.688}, {"id": 475132, "video": false, "vote_count": 207, "vote_average": 6.9, "title": "A Private War", "release_date": "2018-11-16", "original_language": "en", "original_title": "A Private War", "genre_ids": [18, 10752], "backdrop_path": "/a34Q2xknjRKhcG9ZMDa7FjkP05H.jpg", "adult": false, "overview": "One of the most celebrated war correspondents of our time, Marie Colvin is an utterly fearless and rebellious spirit, driven to the frontlines of conflicts across the globe to give voice to the voiceless.", "poster_path": "/pAh6uDR9bBznybiJCVYZNJmjg63.jpg", "popularity": 13.889}, {"adult": false, "backdrop_path": "/r3xsFBD1VTUusk393bBc7SsDUJe.jpg", "genre_ids": [80, 18, 53], "id": 553, "original_language": "en", "original_title": "Dogville", "overview": "A barren soundstage is stylishly utilized to create a minimalist small-town setting in which a mysterious woman named Grace hides from the criminals who pursue her. The town is two-faced and offers to harbor Grace as long as she can make it worth their effort, so Grace works hard under the employ of various townspeople to win their favor. Tensions flare, however, and Grace's status as a helpless outsider provokes vicious contempt and abuse from the citizens of Dogville.", "poster_path": "/g1xLrof2RVgtHBB4fLvR5Xr8l5x.jpg", "release_date": "2003-05-19", "title": "Dogville", "video": false, "vote_average": 7.8, "vote_count": 1359, "popularity": 16.355}, {"id": 205596, "video": false, "vote_count": 11347, "vote_average": 8.1, "title": "The Imitation Game", "release_date": "2014-11-14", "original_language": "en", "original_title": "The Imitation Game", "genre_ids": [18, 36, 53, 10752], "backdrop_path": "/qcb6z1HpokTOKdjqDTsnjJk0Xvg.jpg", "adult": false, "overview": "Based on the real life story of legendary cryptanalyst Alan Turing, the film portrays the nail-biting race against time by Turing and his brilliant team of code-breakers at Britain's top-secret Government Code and Cypher School at Bletchley Park, during the darkest days of World War II.", "poster_path": "/noUp0XOqIcmgefRnRZa1nhtRvWO.jpg", "popularity": 40.487}, {"id": 602, "video": false, "vote_count": 6006, "vote_average": 6.8, "title": "Independence Day", "release_date": "1996-06-25", "original_language": "en", "original_title": "Independence Day", "genre_ids": [28, 12, 878], "backdrop_path": "/4E2xKGrU2qcqUE2S3Nl27hwZdqy.jpg", "adult": false, "overview": "On July 2, a giant alien mothership enters orbit around Earth and deploys several dozen saucer-shaped 'destroyer' spacecraft that quickly lay waste to major cities around the planet. On July 3, the United States conducts a coordinated counterattack that fails. On July 4, a plan is devised to gain access to the interior of the alien mothership in space, in order to plant a nuclear missile.", "poster_path": "/bqLlWZJdhrS0knfEJRkquW7L8z2.jpg", "popularity": 20.636}, {"id": 11046, "video": false, "vote_count": 434, "vote_average": 7.6, "title": "Where Eagles Dare", "release_date": "1968-12-04", "original_language": "en", "original_title": "Where Eagles Dare", "genre_ids": [28, 12, 18, 36, 10752], "backdrop_path": "/aAFq5jVHV6RZpLcRXATskNBuEbM.jpg", "adult": false, "overview": "World War II is raging, and an American general has been captured and is being held hostage in the Schloss Adler, a Bavarian castle that's nearly impossible to breach. It's up to a group of skilled Allied soldiers to liberate the general before it's too late.", "poster_path": "/991u0tSWGTVXCYkgC6ftaGE4bkQ.jpg", "popularity": 15.171}, {"id": 300671, "video": false, "vote_count": 1700, "vote_average": 7.1, "title": "13 Hours: The Secret Soldiers of Benghazi", "release_date": "2016-01-13", "original_language": "en", "original_title": "13 Hours: The Secret Soldiers of Benghazi", "genre_ids": [28, 18, 36, 53, 10752], "backdrop_path": "/hY8myWhjSOUeeiPskhOfwwgaCwc.jpg", "adult": false, "overview": "An American Ambassador is killed during an attack at a U.S. compound in Libya as a security team struggles to make sense out of the chaos.", "poster_path": "/4gpW4MkRI0BB17GHOJzXq0WamDP.jpg", "popularity": 20.173}], "total_pages": 123, "total_results": 2460}, "recommendations": {"page": 1, "results": [{"adult": false, "backdrop_path": "/4R6WbxtSeOI9sd6x6XvyvMRQygU.jpg", "genre_ids": [18, 10749], "id": 499802, "original_language": "es", "original_title": "L\u00ednea 9", "overview": "In a city with constant movement like the subway rides, the paths of Andr\u00e9s and Miguel are crossing. It seems like the beginning of a new Romance but Andr\u00e9s doesn't know which direction to take.", "poster_path": "/4mUdPrT5KE9Bb6xoWOnz0epPVhr.jpg", "release_date": "2017-07-09", "title": "Line 9", "video": false, "vote_average": 7.2, "vote_count": 5, "popularity": 1.119}, {"adult": false, "backdrop_path": null, "genre_ids": [], "id": 172539, "original_language": "en", "original_title": "My Uncle Mario", "overview": "A young boy delivers food in the summer vacation for this mother, who has some sort of a restaurant. Suddenly his uncle Mario, who lives in Italy, visits them by surprise. The boy's life changes when he follows his uncle one night to an appointment. After that night things will never be the same.", "poster_path": "/w0q49rCVVVtpt9gR4EuvDEHFgWS.jpg", "release_date": "2004-07-01", "title": "My Uncle Mario", "video": false, "vote_average": 9.2, "vote_count": 5, "popularity": 2.514}, {"adult": false, "backdrop_path": null, "genre_ids": [18], "id": 471155, "original_language": "es", "original_title": "Vestido nuevo", "overview": "This is the story of Mario, an 8 year old boy, who comes to his class dressed as a girl.", "poster_path": "/78xe5NUfvb63zZDeWKVVUbit0FF.jpg", "release_date": "2007-10-06", "title": "Vestido nuevo", "video": false, "vote_average": 8.0, "vote_count": 5, "popularity": 1.96}, {"adult": false, "backdrop_path": "/nBXCrRYcBb2KUww6gKUKJ1zcOny.jpg", "genre_ids": [18], "id": 177906, "original_language": "he", "original_title": "\u05d5\u05d0\u05d4\u05d1\u05ea", "overview": "Ohad, the protagonist, is serving in the Israel Defense Forces as a Hesder student. He has not told anyone that he is gay. He tries various ways of dealing with the conflict between his religious beliefs and his sexual orientation, including Atzat Nefesh. He is told to spend forty days fasting and repenting to help rid him of his homosexual inclinations. He does this and believes himself to be cured.  After this, his best friend, Nir, returns from leave. Ohed is torn between his homosexuality and his religion. The film deals with the struggles Ohed faces when it comes to loving God and loving Nir.", "poster_path": "/ic32WOiy6yGCygnnI7G600orlU6.jpg", "release_date": "2007-01-01", "title": "And Thou Shalt Love", "video": false, "vote_average": 5.2, "vote_count": 6, "popularity": 1.165}, {"adult": false, "backdrop_path": "/hKO2HTNq8LX2LpdLXiQzOfl77Aw.jpg", "genre_ids": [35, 10751], "id": 306562, "original_language": "en", "original_title": "Por mis Bigotes", "overview": "Though it sounds incredible, little Ulises with only nine years old, from one day to another grows an enourmous mustache. This situation, appearing to be ordinary, starts a series of extraordinary events for him, his mother and his best friends. From this moment onward with the company of a bunch of very curious characters they will have to face this hairy adventure.", "poster_path": "/jJfZQIuNBtpMOdIctgyTiwM1pVb.jpg", "release_date": "2014-12-10", "title": "Ulises and the 10,000 moustaches", "video": false, "vote_average": 6.6, "vote_count": 7, "popularity": 3.661}, {"adult": false, "backdrop_path": null, "genre_ids": [10749], "id": 346638, "original_language": "pt", "original_title": "Antes de Palavras", "overview": "Fragments of the approximation between two boys shows the naive curiosity of Celio for Dario, the assumption of Sofia by this approximation and the previous interest of Dario for Celio.", "poster_path": "/9xrsFlVzJIV1lfCW6hFGGFPDugx.jpg", "release_date": "2013-09-25", "title": "Before Words", "video": false, "vote_average": 6.7, "vote_count": 7, "popularity": 1.676}, {"adult": false, "backdrop_path": "/e2ouN2JcJLs6BCoa0z9APi12ANP.jpg", "genre_ids": [], "id": 553421, "original_language": "es", "original_title": "Cuentos sin hadas", "overview": "", "poster_path": "/cEoMfaof0TVotcydAolEZoYY6UQ.jpg", "release_date": "2012-08-02", "title": "Cuentos sin hadas", "video": false, "vote_average": 2.0, "vote_count": 5, "popularity": 0.6}, {"adult": false, "backdrop_path": "/cq2L6uo2fpUJUXkrnY8wQ7A3mkA.jpg", "genre_ids": [18], "id": 228302, "original_language": "fr", "original_title": "13 ans", "overview": "Jonathan is in love with Julie, the most beautiful girl of his school... However, Julie doesn't even know him. He becomes friend with Charles, Julie's brother. One day, he sneaks in Julie's room to steal her diary. Back home, he finds in the diary a drawn heart, with the quote \"I love Jonathan\"... Back to his new friend Charles' home, he realizes that the diary belongs to Charles, himself...", "poster_path": "/oAPya6oHqitViceuUVKViRqvUVx.jpg", "release_date": "2008-02-04", "title": "My 13", "video": false, "vote_average": 9.3, "vote_count": 7, "popularity": 1.208}, {"adult": false, "backdrop_path": null, "genre_ids": [99], "id": 344900, "original_language": "en", "original_title": "Oriented", "overview": "Documentary of three gay men living in the Palestine-Israel region trade reflections on their situation and that of the region they live.", "poster_path": "/6H2Yrh8oJsqHktVgft3jHNnF83X.jpg", "release_date": "2015-06-06", "title": "Oriented", "video": false, "vote_average": 5.3, "vote_count": 13, "popularity": 3.528}, {"adult": false, "backdrop_path": "/2RVXBt0DwStN4LP56V2XxIHkdnU.jpg", "genre_ids": [18], "id": 337101, "original_language": "es", "original_title": "El bosque de Karadima", "overview": "Based on true events, involving powerful Catholic priest Fernando Karadima, who committed crimes of child abuse and pedophile between 1980's-2000's. The struggle of his victims, to be able to reveal the truth and look for justice.", "poster_path": "/xjmipY93H5HRk4BS79cDSYpGTRu.jpg", "release_date": "2015-04-23", "title": "Karadima Forest", "video": false, "vote_average": 7.5, "vote_count": 15, "popularity": 1.925}, {"adult": false, "backdrop_path": "/m2gc8a8PWkV5V5SBrVVoxQXQJSE.jpg", "genre_ids": [18], "id": 412199, "original_language": "es", "original_title": "La mujer del animal", "overview": "Colombian director V\u00edctor Gaviria melds stark realism with nail-biting thrills in this story about a teenage girl who is kidnapped and forced into marriage with a ferocious shantytown thug.", "poster_path": "/cTX6hl7gTX6jRkhb4Rat3w18gpc.jpg", "release_date": "2016-05-01", "title": "The Animal's Wife", "video": false, "vote_average": 7.6, "vote_count": 12, "popularity": 1.7}, {"adult": false, "backdrop_path": "/3QDIICROOAMu85KInnL2gWSKgkX.jpg", "genre_ids": [18], "id": 184801, "original_language": "fr", "original_title": "Le silence des \u00e9glises", "overview": "At the age of 12, Gabriel was sexually abused by Father Vincey, his headmaster. Fifteen years later, he is still traumatized. Constantly racked by this wrong that he has kept secret, Gabriel buys a gun and moves in near the boarding school where the priest is still headmaster...", "poster_path": "/twsBOWazG27zbFpkKmqhgdQnI84.jpg", "release_date": "2013-04-10", "title": "Le silence des \u00e9glises", "video": false, "vote_average": 7.1, "vote_count": 7, "popularity": 2.327}, {"id": 269572, "video": false, "vote_count": 12, "vote_average": 3.3, "title": "Almost Thirty", "release_date": "2013-10-04", "original_language": "es", "original_title": "Casi treinta", "genre_ids": [35], "backdrop_path": "/jwhGFbJIUZHYzaoGnVFVhsGHExw.jpg", "adult": false, "overview": "Hilarious romantic comedy which main essence is based on the maturation process that young people face when entering their thirties. When their options come to settling down and starting a family or pursuing and achieving what they've always dreamed of, even though this could become a risk for their economic and emotional stability.", "poster_path": "/4udSnM84ocWoPx3ApcX8S4ifTDc.jpg", "popularity": 1.293}, {"adult": false, "backdrop_path": "/gAaYAiH4k4amITp68fsdTmssLEX.jpg", "genre_ids": [99, 36], "id": 411918, "original_language": "en", "original_title": "Targeted: Exposing the Gun Control Agenda", "overview": "Targeted will be examining one of the key issues of the day, gun control, and will take you on a fast-paced journey, following 22 year-old director Jesse Winton as he travels across the world, and goes back to the historical roots of the gun-control agenda, exposing it, and bringing out the dark truth behind gun control.", "poster_path": "/2wec7rUmyXuWUqb36RoU2L6AipJ.jpg", "release_date": "2016-09-29", "title": "Targeted: Exposing the Gun Control Agenda", "video": false, "vote_average": 4.3, "vote_count": 4, "popularity": 1.008}, {"adult": false, "backdrop_path": "/kwlASL9zo6hv2NNFmAs3bKOTR5I.jpg", "genre_ids": [99], "id": 403581, "original_language": "en", "original_title": "After the Spill", "overview": "Ten years ago Hurricane Katrina devastated the coast of Louisiana. Five years later the Deepwater Horizon exploded and spilled more than 200 million gallons of oil into the Gulf of Mexico, the worst ecologic disaster in North American history. Amazingly those aren't the worst things facing Louisiana's coastline today. It is that the state is fast disappearing. When on Earth Day 2010 BP's Deepwater Horizon exploded and sank many in Louisiana predicted it would change the state's coastline forever, both its economy and its people. How has the coast changed in the past five years?", "poster_path": "/yXtnCKqkWw8HeuIAd9UfNWZ1VB.jpg", "release_date": "2015-10-04", "title": "After the Spill", "video": false, "vote_average": 7.0, "vote_count": 4, "popularity": 1.25}, {"id": 395940, "video": false, "vote_count": 18, "vote_average": 8.3, "title": "For My Brother", "release_date": "2014-12-08", "original_language": "da", "original_title": "For Min Brors Skyld", "genre_ids": [18], "backdrop_path": "/oD8xZChOxvUfRyV1kVhJvZff2Tw.jpg", "adult": false, "overview": "The two brothers Aske and Bastian live with their father, Lasse, in a world of fear, violence and alcohol but the brothers' strong and close relationship means everything. Aske must serve his father's sexual needs, as well as paying customers and his father's friend, Hans. Aske tries everything to keep his little brother out of it all so that he won't experience the same as himself. But one day Bastian is abused by their father. The brothers choose to move to Norway, far away in the beautiful mountains. Their friendship outshines everything! They are together and far away from their evil father...", "poster_path": "/xm9YypsAZkZUqp8GIPsGKiOk7nE.jpg", "popularity": 5.725}, {"adult": false, "backdrop_path": "/4sJ8UGogsC9EJSw7crteOx90EU5.jpg", "genre_ids": [10749, 18], "id": 50724, "original_language": "es", "original_title": "La mujer de mi hermano", "overview": "After almost 10 years of marriage, attractive Zoe discovers that her marriage lacks passion and surprise, and is seduced by the possibility of finding those sensations already forgotten in her husband's brother. From this premise a series of events lead these three characters to a dangerous game of revenges, secrets and passions. Two brothers and one woman: the triangle is outlined in a disquieting way. It is a bomb that triggers family secrets, the contained rage of desire and the unmanageable power of love. An exciting story that subjugates the viewer from beginning to end.", "poster_path": "/iRZ0YxUw7ebI7WcEzl001M3RmQw.jpg", "release_date": "2005-11-04", "title": "My Brother's Wife", "video": false, "vote_average": 5.4, "vote_count": 34, "popularity": 11.164}, {"id": 329687, "video": false, "vote_count": 19, "vote_average": 7.3, "title": "Sara", "release_date": "2014-11-21", "original_language": "cn", "original_title": "\u96db\u5993", "genre_ids": [18], "backdrop_path": "/2e5amtYBtPYtdUkEjQqOqp9fiPI.jpg", "adult": false, "overview": "Journalist Sara has just spent four months completing an in-depth investigation piece. Her editor-in-chief, afraid of offending powerful politicians and business moguls, refuses to run it. Sara\u2019s boyfriend, who works for the same magazine, chooses not to warn her and even sides with the editor-in-chief. In just one moment, Sara is turned off by her work, her love relationship, and even about life.At this low point in her life, Sara exiles herself to Chiang Mai, Thailand. One evening, while at a bar, Sara meets child prostitute Dok-My. During her time getting to know Dok-My and through the process of rescuing her, Sara becomes haunted by the memories of her own past\u2026", "poster_path": "/2cacos6D9vJKmTQg784VqlR2m1d.jpg", "popularity": 4.988}, {"adult": false, "backdrop_path": "/ai9smvLKDlKl9nExJdEWrIAFZYp.jpg", "genre_ids": [18], "id": 73738, "original_language": "es", "original_title": "No tengas miedo", "overview": "Silvia is a young girl marked by a dark childhood. When she is barely twenty-five, she decides to start over and to face the people, feelings and emotions that keep her bound to the past. In her fight against adversity and against herself, she will learn to control her fears and become an adult, responsible for her own actions.", "poster_path": "/yyM4gEgLtW6SdHiVdH4SWzEiAY3.jpg", "release_date": "2011-04-28", "title": "Don't Be Afraid", "video": false, "vote_average": 6.3, "vote_count": 18, "popularity": 2.746}, {"adult": false, "backdrop_path": "/yp4EHngjCoen7JRWOzCM0MqFc4Y.jpg", "genre_ids": [18], "id": 273828, "original_language": "es", "original_title": "Las Aparicio", "overview": "Three generations of women who share a strange family tradition: all widowed in extraordinary circumstances; all give birth only to girls. This is the film based on the television series.", "poster_path": "/mUY3XXKiCh9s6h8BqRbX9rLr2ge.jpg", "release_date": "2016-02-26", "title": "Las Aparicio", "video": false, "vote_average": 4.2, "vote_count": 12, "popularity": 1.846}], "total_pages": 2, "total_results": 23}, "credits": {"cast": [], "crew": []}}