{"adult": false, "backdrop_path": null, "belongs_to_collection": null, "budget": 0, "genres": [{"id": 99, "name": "Documentary"}], "homepage": null, "id": 34581, "imdb_id": "tt0436857", "original_language": "en", "original_title": "Twist of Faith", "overview": "A man confronts the trauma of past sexual abuse as a boy by a Catholic priest only to find his decision shatters his relationships with his family, community and faith.", "popularity": 2.778, "poster_path": "/2qIb9EMcyLIuto3mrX0eSCbbWsu.jpg", "production_companies": [], "production_countries": [{"iso_3166_1": "US", "name": "United States of America"}], "release_date": "2005-07-04", "revenue": 0, "runtime": 87, "spoken_languages": [{"iso_639_1": "en", "name": "English"}], "status": "Released", "tagline": "", "title": "Twist of Faith", "video": false, "vote_average": 6.6, "vote_count": 7, "keywords": {"keywords": [{"id": 739, "name": "sexual abuse"}, {"id": 11001, "name": "religion"}, {"id": 14765, "name": "church"}]}, "similar": {"page": 1, "results": [{"id": 9946, "video": false, "vote_count": 931, "vote_average": 5.7, "title": "End of Days", "release_date": "1999-11-24", "original_language": "en", "original_title": "End of Days", "genre_ids": [28, 14, 27, 9648], "backdrop_path": "/q5KcZBMc4Vs5SQelnSdY3ICm56M.jpg", "adult": false, "overview": "On 28 December 1999, the citizens of New York City are getting ready for the turn of the millennium. However, the Devil decides to crash the party by coming to the city, inhabiting a man's body, and searching for his chosen bride\u2014a 20-year-old woman named Christine York. The world will end, and the only hope lies within an atheist named Jericho Cane.", "poster_path": "/bEIjH6GroeWaBkn6o7MVpMNbuyw.jpg", "popularity": 23.346}, {"adult": false, "backdrop_path": "/j9gn5IfNvI6EoIx0r9OXjSleru2.jpg", "genre_ids": [35, 99], "id": 13007, "original_language": "en", "original_title": "Religulous", "overview": "Commentator-comic Bill Maher plays devil's advocate with religion as he talks to believers about their faith. Traveling around the world, Maher examines the tenets of Christianity, Judaism and Islam and raises questions about homosexuality, proof of Christ's existence, Jewish Sabbath laws, violent Muslim extremists.", "poster_path": "/dsSVlA5HbWZUR3XdpJfiuT4TDMR.jpg", "release_date": "2008-10-01", "title": "Religulous", "video": false, "vote_average": 7.2, "vote_count": 335, "popularity": 11.36}, {"adult": false, "backdrop_path": "/g8G91vbvyUqnyFSlVruwiaZsUrn.jpg", "genre_ids": [18], "id": 458737, "original_language": "en", "original_title": "First Reformed", "overview": "A pastor of a small church in upstate New York starts to spiral out of control after a soul-shaking encounter with an unstable environmental activist and his pregnant wife.", "poster_path": "/p2UylV0hPefEuWPFMo1r56vu2nb.jpg", "release_date": "2018-05-18", "title": "First Reformed", "video": false, "vote_average": 7.0, "vote_count": 577, "popularity": 11.112}, {"adult": false, "backdrop_path": "/t3Oea7KbSpOvuqddMnlFtZ4WHn.jpg", "genre_ids": [18, 53, 36], "id": 314365, "original_language": "en", "original_title": "Spotlight", "overview": "In 2001, editor Marty Baron of The Boston Globe assigns a team of journalists to investigate allegations against John Geoghan, an unfrocked priest accused of molesting more than 80 boys. Led by editor Walter \"Robby\" Robinson, reporters Michael Rezendes, Matt Carroll and Sacha Pfeiffer interview victims and try to unseal sensitive documents. The reporters make it their mission to provide proof of a cover-up of sexual abuse within the Roman Catholic Church.", "poster_path": "/ngKxbvsn9Si5TYVJfi1EGAGwThU.jpg", "release_date": "2015-11-06", "title": "Spotlight", "video": false, "vote_average": 7.8, "vote_count": 5408, "popularity": 22.049}, {"id": 154400, "video": false, "vote_count": 1342, "vote_average": 6.7, "title": "The Drop", "release_date": "2014-09-12", "original_language": "en", "original_title": "The Drop", "genre_ids": [80, 18], "backdrop_path": "/lI7TD9Z9TsASnc3GxkLbBBpXCac.jpg", "adult": false, "overview": "Bob Saginowski finds himself at the center of a robbery gone awry and entwined in an investigation that digs deep into the neighborhood's past where friends, families, and foes all work together to make a living - no matter the cost.", "poster_path": "/lj8AMCjWx0jU93XajzUEOUUNKZF.jpg", "popularity": 22.374}, {"id": 591, "video": false, "vote_count": 5717, "vote_average": 6.7, "title": "The Da Vinci Code", "release_date": "2006-05-17", "original_language": "en", "original_title": "The Da Vinci Code", "genre_ids": [9648, 53], "backdrop_path": "/hcAMO4LF6G2hvsTpNgmY1kFj3jJ.jpg", "adult": false, "overview": "A murder in Paris\u2019 Louvre Museum and cryptic clues in some of Leonardo da Vinci\u2019s most famous paintings lead to the discovery of a religious mystery. For 2,000 years a secret society closely guards information that \u2014 should it come to light \u2014 could rock the very foundations of Christianity.", "poster_path": "/5IqaT3fza0Y9vKazjGwDGsNuuS8.jpg", "popularity": 32.475}, {"id": 310, "video": false, "vote_count": 6933, "vote_average": 6.6, "title": "Bruce Almighty", "release_date": "2003-05-23", "original_language": "en", "original_title": "Bruce Almighty", "genre_ids": [35, 14], "backdrop_path": "/bhEudqWbWsiEBdnl0kCIwFp5Hay.jpg", "adult": false, "overview": "Bruce Nolan toils as a 'human interest' television reporter in Buffalo, N.Y., but despite his high ratings and the love of his beautiful girlfriend, Bruce remains unfulfilled. At the end of the worst day in his life, he angrily ridicules God\u2014and the Almighty responds, endowing Bruce with all of His divine powers.", "poster_path": "/lgYKHifMMLT8OxYObMKa8b4STsr.jpg", "popularity": 33.694}, {"adult": false, "backdrop_path": "/hyVHeKqCDwZdvgeFvAFZD2pDcFy.jpg", "genre_ids": [14, 35, 12], "id": 1832, "original_language": "en", "original_title": "Dogma", "overview": "The latest battle in the eternal war between Good and Evil has come to New Jersey in the late, late 20th Century. Angels, demons, apostles and prophets (of a sort) walk among the cynics and innocents of America and duke it out for the fate of humankind.", "poster_path": "/zuJJAEvyiZiddzRx7JRGNDzjP07.jpg", "release_date": "1999-11-12", "title": "Dogma", "video": false, "vote_average": 6.9, "vote_count": 1483, "popularity": 14.747}, {"adult": false, "backdrop_path": "/dAK3Sql45m1xyMzCm5LDa4Bmucx.jpg", "genre_ids": [878, 18], "id": 13363, "original_language": "en", "original_title": "The Man from Earth", "overview": "An impromptu goodbye party for Professor John Oldman becomes a mysterious interrogation after the retiring scholar reveals to his colleagues he never ages and has walked the earth for 14,000 years.", "poster_path": "/zYP2lBJ5GRV1HaIi4USqRl3phe.jpg", "release_date": "2007-06-10", "title": "The Man from Earth", "video": false, "vote_average": 7.7, "vote_count": 1235, "popularity": 12.079}, {"id": 551332, "video": false, "vote_count": 769, "vote_average": 7.7, "title": "The Two Popes", "release_date": "2019-11-27", "original_language": "en", "original_title": "The Two Popes", "genre_ids": [35, 18, 36], "backdrop_path": "/mHz65gYQ3SmkQH3GKWSKWUkK5zW.jpg", "adult": false, "overview": "Frustrated with the direction of the church, Cardinal Bergoglio requests permission to retire in 2012 from Pope Benedict. Instead, facing scandal and self-doubt, the introspective Pope Benedict summons his harshest critic and future successor to Rome to reveal a secret that would shake the foundations of the Catholic Church.", "poster_path": "/4d4mTSfDIFIbUbMLUfaKodvxYXA.jpg", "popularity": 44.87}, {"id": 9945, "video": false, "vote_count": 533, "vote_average": 6.1, "title": "Vampires", "release_date": "1998-10-30", "original_language": "en", "original_title": "Vampires", "genre_ids": [28, 18, 14, 27, 53, 37], "backdrop_path": "/rFCx9xDNgywf1A5hsBbic0C0ihd.jpg", "adult": false, "overview": "The church enlists a team of vampire-hunters to hunt down and destroy a group of vampires searching for an ancient relic that will allow them to exist in sunlight.", "poster_path": "/qHGawU64MeGvtU86s6V0MA7MqFV.jpg", "popularity": 11.856}, {"id": 87827, "video": false, "vote_count": 9356, "vote_average": 7.3, "title": "Life of Pi", "release_date": "2012-11-20", "original_language": "en", "original_title": "Life of Pi", "genre_ids": [28, 12, 18], "backdrop_path": "/tk159LPfy69zSHw4dabehfAaJXi.jpg", "adult": false, "overview": "The story of an Indian boy named Pi, a zookeeper's son who finds himself in the company of a hyena, zebra, orangutan, and a Bengal tiger after a shipwreck sets them adrift in the Pacific Ocean.", "poster_path": "/sLYdcz7easaS7CmJGwQcVVYZqiF.jpg", "popularity": 23.211}, {"id": 2454, "video": false, "vote_count": 3951, "vote_average": 6.5, "title": "The Chronicles of Narnia: Prince Caspian", "release_date": "2008-05-15", "original_language": "en", "original_title": "The Chronicles of Narnia: Prince Caspian", "genre_ids": [12, 14, 10751], "backdrop_path": "/eiET76GO3xECOic1rL8VcTLuy3L.jpg", "adult": false, "overview": "One year after their incredible adventures in the Lion, the Witch and the Wardrobe, Peter, Edmund, Lucy and Susan Pevensie return to Narnia to aid a young prince whose life has been threatened by the evil King Miraz. Now, with the help of a colorful cast of new characters, including Trufflehunter the badger and Nikabrik the dwarf, the Pevensie clan embarks on an incredible quest to ensure that Narnia is returned to its rightful heir.", "poster_path": "/kSSyzqw9C4wUggicG4D81XmptR1.jpg", "popularity": 20.084}, {"id": 22894, "video": false, "vote_count": 1307, "vote_average": 5.4, "title": "Legion", "release_date": "2010-01-21", "original_language": "en", "original_title": "Legion", "genre_ids": [28, 14, 27], "backdrop_path": "/gWaMoxVrkiMJ5xgvnXDhpKtP10E.jpg", "adult": false, "overview": "When God loses faith in humankind, he sends his legion of angels to bring on the Apocalypse. Humanity's only hope for survival lies in a group of strangers trapped in an out-of-the-way, desert diner with the Archangel Michael.", "poster_path": "/mXJJPsVfQdf0OWxgoWgDUFyzJQo.jpg", "popularity": 15.662}, {"id": 10545, "video": false, "vote_count": 3017, "vote_average": 7.0, "title": "The Hunchback of Notre Dame", "release_date": "1996-06-21", "original_language": "en", "original_title": "The Hunchback of Notre Dame", "genre_ids": [16, 18, 10751], "backdrop_path": "/oslaee3VX9kJAjVezbjZKlEJDzn.jpg", "adult": false, "overview": "When Quasimodo defies the evil Frollo and ventures out to the Festival of Fools, the cruel crowd jeers him. Rescued by fellow outcast the gypsy Esmeralda, Quasi soon finds himself battling to save the people and the city he loves.", "poster_path": "/r7V92gY3AMO6li17MmGTixAnFcv.jpg", "popularity": 34.935}, {"id": 686, "video": false, "vote_count": 2421, "vote_average": 7.3, "title": "Contact", "release_date": "1997-07-11", "original_language": "en", "original_title": "Contact", "genre_ids": [18, 9648, 878], "backdrop_path": "/dBK75oCKuHVuJ9rSUnusIFbhocH.jpg", "adult": false, "overview": "Contact is a science fiction film about an encounter with alien intelligence. Based on the novel by Carl Sagan the film starred Jodie Foster as the one chosen scientist who must make some difficult decisions between her beliefs, the truth, and reality.", "poster_path": "/bCpMIywuNZeWt3i5UMLEIc0VSwM.jpg", "popularity": 19.203}, {"id": 2284, "video": false, "vote_count": 766, "vote_average": 6.2, "title": "Mr. Magorium's Wonder Emporium", "release_date": "2007-11-14", "original_language": "en", "original_title": "Mr. Magorium's Wonder Emporium", "genre_ids": [35, 14, 10751], "backdrop_path": "/icq8EO55IEvDo7OGCQfFXZ8l3Sv.jpg", "adult": false, "overview": "Molly Mahoney is the awkward and insecure manager of Mr. Magorium's Wonder Emporium\u2014the strangest, most fantastic and most wonderful toy store in the world. After Mr. Magorium bequeaths the store to her, a dark and ominous change begins to take over the once-remarkable Emporium.", "poster_path": "/75m4IBZE6gUrltcDgTSBTFg68QT.jpg", "popularity": 15.641}, {"adult": false, "backdrop_path": "/q3eNcig4YFEsUTnmIYDA90FdndO.jpg", "genre_ids": [10402, 35, 28, 80], "id": 525, "original_language": "en", "original_title": "The Blues Brothers", "overview": "Jake Blues is just out of jail, and teams up with his brother, Elwood on a 'mission from God' to raise funds for the orphanage in which they grew up. The only thing they can do is do what they do best: play music. So they get their old band together, and set out on their way\u2014while getting in a bit of trouble here and there.", "poster_path": "/6hesUNBkpVRqBTBw2HlTg0h8b56.jpg", "release_date": "1980-06-17", "title": "The Blues Brothers", "video": false, "vote_average": 7.7, "vote_count": 2298, "popularity": 17.917}, {"adult": false, "backdrop_path": "/xcjJ5khg2yzOa282mza39Lbrm7j.jpg", "genre_ids": [27], "id": 9552, "original_language": "en", "original_title": "The Exorcist", "overview": "12-year-old Regan MacNeil begins to adapt an explicit new personality as strange events befall the local area of Georgetown. Her mother becomes torn between science and superstition in a desperate bid to save her daughter, and ultimately turns to her last hope: Father Damien Karras, a troubled priest who is struggling with his own faith.", "poster_path": "/4ucLGcXVVSVnsfkGtbLY4XAius8.jpg", "release_date": "1973-12-26", "title": "The Exorcist", "video": false, "vote_average": 7.6, "vote_count": 4355, "popularity": 21.648}, {"adult": false, "backdrop_path": "/kormVYncbZMrToXaOV58o74LNIz.jpg", "genre_ids": [18, 53, 878, 9648], "id": 2675, "original_language": "en", "original_title": "Signs", "overview": "A family living on a farm finds mysterious crop circles in their fields which suggests something more frightening to come.", "poster_path": "/bY9lCUVUajpkKWlfjWF1mtXaSUp.jpg", "release_date": "2002-08-02", "title": "Signs", "video": false, "vote_average": 6.6, "vote_count": 3220, "popularity": 16.644}], "total_pages": 74, "total_results": 1461}, "recommendations": {"page": 1, "results": [{"adult": false, "backdrop_path": null, "genre_ids": [16, 14, 10402], "id": 266513, "original_language": "en", "original_title": "Rock Odyssey", "overview": "The story of a mysterious woman named Laura, who embarks on a journey to find her true love. The movie's soundtrack is set to four decades of classic rock. Scatman Crothers provides the voice of a living jukebox who narrates the story.", "poster_path": "/7AlW9gkrGeA4EgCieh8PMOzApYL.jpg", "release_date": "1987-07-13", "title": "Rock Odyssey", "video": false, "vote_average": 6.0, "vote_count": 4, "popularity": 1.862}, {"adult": false, "backdrop_path": null, "genre_ids": [35], "id": 97638, "original_language": "en", "original_title": "Doggiewoggiez! Poochiewoochiez!", "overview": "Those krazed VHS-hunting pupz from Everything Is Terrible! (everyone\u2019s favorite found footage chop shoppe) are back with their third inner-eye-opening feature, containing a feat never before attempted in either human or canine history. EIT! asks but two simple questions, \u201cWhat if we make a movie composed ENTIRELY out of dog-related found footage?\u201d and \u2018'What if this magickal movie, made up of thousands of other dog movies, is also a remake of Alejandro Jodorowsky\u2019s 1973 masterpiece The Holy Mountain?\u201d Well, let\u2019s stop asking dumb rhetorical questions because this never-ending spiral of World-Pup winning, sunglasses-wearing, murder-solving, skateboarding pooches is real! No Bonez about it, this is it! Are you dog enough to go fetch it? ARFFFFFF!", "poster_path": "/waDrAhFwv3boKUuzck2ICtnRBrc.jpg", "release_date": "2012-01-27", "title": "Doggiewoggiez! Poochiewoochiez!", "video": false, "vote_average": 6.8, "vote_count": 6, "popularity": 3.013}, {"adult": false, "backdrop_path": "/x12yPsThJy5JK5Ou5TlEptztsSN.jpg", "genre_ids": [16, 28, 35, 14, 878], "id": 48488, "original_language": "en", "original_title": "Strange Invaders", "overview": "Roger and Doris are a childless couple who get more than they bargained for when a strange child appears at their door one day.", "poster_path": "/q84FZNMlAwQZ55FuJU79rHJXe4X.jpg", "release_date": "2002-01-01", "title": "Strange Invaders", "video": false, "vote_average": 6.0, "vote_count": 8, "popularity": 1.204}, {"adult": false, "backdrop_path": "/y4awfjWpvFc6YRhM73PvNrhcDZa.jpg", "genre_ids": [35], "id": 21941, "original_language": "en", "original_title": "Lee Evans: XL Tour Live 2005", "overview": "Comedy antics of Lee Evans on his live stand-up tour in Cardiff, Wales.", "poster_path": "/x0566DrQ1msFWMnjZnQOoQ5SMdR.jpg", "release_date": "2005-11-28", "title": "Lee Evans: XL Tour Live 2005", "video": false, "vote_average": 7.7, "vote_count": 9, "popularity": 2.543}, {"adult": false, "backdrop_path": null, "genre_ids": [16], "id": 38588, "original_language": "en", "original_title": "Alice in the Jungle", "overview": "Alice and Julius the cat are riding an elephant through the jungle. Julius falls and is nearly eaten by crocodiles but manages to escape nevertheless. Meanwhile, two elephant children are having fun at a watering hole and a monkey barber has his barber pole eaten by a hippo, who mistakes it for a candy cane. Julius tries to remedy the latter injustice by starching up a tiger's striped tail and knocking it off, using it as a replacement pole. Alice hunts a lion who proves to be too much for her to handle, but Julius bravely comes to the rescue.", "poster_path": "/pdvmqydltX72whfhjS2GIwrM5Tk.jpg", "release_date": "1925-01-01", "title": "Alice in the Jungle", "video": false, "vote_average": 4.5, "vote_count": 4, "popularity": 1.598}, {"id": 196034, "video": false, "vote_count": 4, "vote_average": 4.8, "title": "Every Man His Own Cigar Lighter", "release_date": "1904-02-13", "original_language": "fr", "original_title": "Un peu de feu s.v.p.", "genre_ids": [35], "backdrop_path": null, "adult": false, "overview": "Only 8 surviving seconds of a man getting great pleasure from smoking a cigar.", "poster_path": "/nwNNFsKB8cKnGeh221f31whBo8O.jpg", "popularity": 1.061}, {"adult": false, "backdrop_path": "/etAvt6mFWdThHKZRbAYriZYgbsW.jpg", "genre_ids": [35], "id": 97136, "original_language": "en", "original_title": "Demetri Martin: If I", "overview": "If I is a Perrier Comedy Award-winning comedy one-man show written and performed by Demetri Martin at the 2003 Edinburgh Festival Fringe.[12] It was also aired on British television as a special. The show is an autobiographical examination of Martin's life, as seen through various definitions of the word \"if.\" The title of the special comes from a lengthy palindromic poem that Martin wrote; the words \"if I\" are at the center of the poem.", "poster_path": "/cyIEZTYGuwSOcRLzmMZRLL05naS.jpg", "release_date": "2004-01-14", "title": "Demetri Martin: If I", "video": false, "vote_average": 7.4, "vote_count": 5, "popularity": 1.245}, {"id": 236194, "video": false, "vote_count": 3, "vote_average": 6.0, "title": "The Mice Will Play", "release_date": "1938-12-17", "original_language": "en", "original_title": "The Mice Will Play", "genre_ids": [16], "backdrop_path": null, "adult": false, "overview": "The mice are on the loose after hours in a doctor's office, playing with the various pieces of medical apparatus. Susie Mouse is caged for research until her lover Johnnie frees her. A mouse orchestra plays a swinging wedding song. But throughout, a cat is stalking...", "poster_path": "/lCvcP7F3yunHEo5npy9O2AXDZHy.jpg", "popularity": 1.309}, {"adult": false, "backdrop_path": "/lBijCyjHWWPdiosSnYbdDO0RIwI.jpg", "genre_ids": [16], "id": 35819, "original_language": "en", "original_title": "Alice's Egg Plant", "overview": "Julius, the boss of Alice's chicken farm, has to find a way to deliver 5000 eggs to Sinkem and Soakem when the hens go on strike.", "poster_path": "/5nIXakwEvl8UlX9AWFZvscxsBVa.jpg", "release_date": "1925-01-01", "title": "Alice's Egg Plant", "video": false, "vote_average": 4.8, "vote_count": 5, "popularity": 3.07}, {"adult": false, "backdrop_path": null, "genre_ids": [16, 99], "id": 51407, "original_language": "sv", "original_title": "Slavar", "overview": "Animated documentary about two Sudanese children who are abducted and used as slaves", "poster_path": "/fVJJ45xvR4lts3CHbCpoloySw2D.jpg", "release_date": "2008-01-01", "title": "Slaves", "video": false, "vote_average": 4.7, "vote_count": 3, "popularity": 0.945}, {"id": 180677, "video": false, "vote_count": 6, "vote_average": 4.4, "title": "The Misfortunes of an Explorer", "release_date": "1900-01-01", "original_language": "fr", "original_title": "Les Infortunes d'un explorateur ou les Momies r\u00e9calcitrantes", "genre_ids": [], "backdrop_path": null, "adult": false, "overview": "", "poster_path": "/dmH6LfC9c8KhWX7To2LUB5WQLxZ.jpg", "popularity": 0.844}, {"adult": false, "backdrop_path": null, "genre_ids": [16], "id": 40788, "original_language": "en", "original_title": "Alice's Mysterious Mystery", "overview": "A mouse and his boss pose as dogcatchers and grab a schoolhouse full of dogs; they use several other ruses to round up dogs for, as we discover, a sausage factory. Alice and Julius are on the trail soon after the first caper, but it takes them a while to catch up with the bad guys. They do, and Julius tricks the big boss into getting clobbered by the sausage guy, then turns the dogs loose on him.", "poster_path": "/XhLI1yYxJq29bX9JSqW9JChyFP.jpg", "release_date": "1926-01-01", "title": "Alice's Mysterious Mystery", "video": false, "vote_average": 4.5, "vote_count": 4, "popularity": 2.671}, {"adult": false, "backdrop_path": "/gp63yVeHz0qm4u107EJ6XA3pcfB.jpg", "genre_ids": [16], "id": 224447, "original_language": "en", "original_title": "Huset p\u00e5 Kampen", "overview": "A man buys a house on a hill. A rat was there first, and proves to be unusually difficult to remove; it seems to think all the man's attempts to kill it are actually gifts. It loves the taste of the poison, thinks the trap is a sculpture, and so forth.", "poster_path": "/x44r66x0KrAMtW6BMuRGgbh3w5R.jpg", "release_date": "1998-01-01", "title": "One Day a Man Bought a House", "video": false, "vote_average": 5.4, "vote_count": 5, "popularity": 1.3}, {"adult": false, "backdrop_path": "/wK0zOQewX3hXJJEVLrrmjIyjC2b.jpg", "genre_ids": [35], "id": 18413, "original_language": "en", "original_title": "The Blair Thumb", "overview": "A trio of eager and intrepid college student filmmakers venture into the woods to make a documentary about the legendary Blair Thumb. Naturally, they get hopelessly lost and find themselves in considerable jeopardy.", "poster_path": "/5TF1QoqnjukiQ7oIMNAbXPJORC3.jpg", "release_date": "2002-01-22", "title": "The Blair Thumb", "video": false, "vote_average": 4.9, "vote_count": 10, "popularity": 3.599}, {"adult": false, "backdrop_path": "/gwvCnAkiJpLEAcwuU9P2w7JlYrg.jpg", "genre_ids": [99, 80], "id": 32013, "original_language": "en", "original_title": "Hacking Democracy", "overview": "Documentary film investigating allegations of election fraud during the 2004 U.S. presidential election. Electronic voting machines count approximately 90% of America's votes in county, state and federal elections. The technology is also increasingly being used across the world, including in Canada, the United Kingdom, Europe and Latin America. The film uncovers incendiary evidence from the trash cans of Texas to the ballot boxes of Ohio, exposing secrecy, votes in the trash, hackable software and election officials rigging the presidential recount.Ultimately proving our votes can be stolen without a trace \"Hacking Democracy\" culminates in the famous 'Hursti Hack'; a duel between the Diebold voting machines and a computer hacker from Finland - with America's democracy at stake.", "poster_path": "/8JsyixMw0i6wVWKToBbRyKZXNJg.jpg", "release_date": "2006-11-02", "title": "Hacking Democracy", "video": false, "vote_average": 7.7, "vote_count": 15, "popularity": 3.389}, {"adult": false, "backdrop_path": "/7CbxPIOnX45voNuIWDjcaF8HFNp.jpg", "genre_ids": [35], "id": 144105, "original_language": "en", "original_title": "Frankie Boyle: The Last Days of Sodom", "overview": "A brand new live DVD from the brilliant comedian - coming in 2012. Recorded at his last ever tour.  Frankie Boyle has been pilloried, misrepresented and demonised. And for what? For Telling It Like It Is. Now he will attempt a final tour, to heal Britain's fools. To support its rioters. To offer the inchoate laughter of despair to a culture in freefall. These are The Last Days Of Sodom.", "poster_path": "/3W1YMIoEzeKJu4yxYhUK8rySqQV.jpg", "release_date": "2012-11-18", "title": "Frankie Boyle: The Last Days of Sodom", "video": false, "vote_average": 6.5, "vote_count": 12, "popularity": 2.545}, {"adult": false, "backdrop_path": "/vWavUg9WSEGpQ6VT90tOBNLyTeS.jpg", "genre_ids": [99], "id": 249721, "original_language": "en", "original_title": "Karama Has No Walls", "overview": "'Karama has no walls' is set amidst Yemen's 2011 uprising. The film illustrates the nature of the Yemeni revolution in stark contrast to the gross violations of human rights that took place on Friday, March 18th 2011. Juma'at El-Karama (Friday of Dignity) marks a turning point in the Yemeni revolution as the tragic events that took place on this day -when pro-government snipers shot dead 53 protestors - shook the nation and propelled hundreds of thousands more to flock to the square in solidarity with their fellow citizens. Through the lenses of two cameramen and the accounts of two fathers, the film retells the story of the people behind the statistics and news reports, encapsulating the tragic events of the day as they unfolded.", "poster_path": "/fTP7vMSdRiCBF89bgepVJbzJOpp.jpg", "release_date": "2012-03-01", "title": "Karama Has No Walls", "video": false, "vote_average": 6.5, "vote_count": 4, "popularity": 1.356}, {"adult": false, "backdrop_path": "/ikr9uzMoZCYXHBUzMNIRO2QTBmt.jpg", "genre_ids": [99], "id": 70157, "original_language": "en", "original_title": "Inside Rooms: 26 Bathrooms, London & Oxfordshire", "overview": "Greenaway's short documentary shows 26 bathrooms, each representing a letter of the alphabet.", "poster_path": "/xFbiZitWLO2udenQ8FwcPjto2VH.jpg", "release_date": "1985-01-01", "title": "Inside Rooms: 26 Bathrooms, London & Oxfordshire", "video": false, "vote_average": 6.0, "vote_count": 7, "popularity": 2.511}, {"adult": false, "backdrop_path": null, "genre_ids": [878, 35, 28], "id": 206920, "original_language": "fi", "original_title": "Star Wreck V: Lost Contact", "overview": "See how Pirk got stranded in the past! Star Wreck V: Lost Contact was the first film to use live actors instead of cartoons. Real sets would have cost too much, so we decided to try bluescreen, just for fun. Our expectations weren't high, but it worked. So the movie was shot against a cheap blue bed-sheet and the blue background was replaced with spaceship bridges.  The story was a parody of Star Trek: First Contact. The Korg send a ship back in time to 20th century Earth. The Kickstart, being the only functioning P-fleet ship around, has to follow.  The Korg plan to assassinate rockstar Jeffrey Cochbrane (Played by Rudi Airisto and a pair of sunglasses) and his band Dethdestro before their concert attracts the attention of Vulgars. This would stop humanity's first contact aliens and change the future. If that wasn't bad enough, all Jeff wants to do is play loud and drink too much, but now Pirk and his crew must force him to save the world...", "poster_path": "/1tiJcrQGvGi6kp2htOoEnQFSa78.jpg", "release_date": "1997-01-01", "title": "Star Wreck V: Lost Contact", "video": false, "vote_average": 4.7, "vote_count": 3, "popularity": 1.821}, {"adult": false, "backdrop_path": "/5opMLlynILcghRnUi72hdOeueQM.jpg", "genre_ids": [18], "id": 43097, "original_language": "en", "original_title": "Girls Town", "overview": "Chip is killed accidentally while trying to rape a blonde girl, who runs. Silver becomes the number one suspect even though she has an alibi, but due to previous brushes with the law she's sent to Girls Town, a home for young women in trouble with the law which is run by nuns. Silver is rebellious and causes trouble at the school, and her friend Sarafina totters near the brink of self-destruction because of an infatuation with a young singer. Meanwhile Chip's father hires a detective to find out the truth, and Chip's friend Fred gets Silver's sister in trouble at a drag race. Silver has a lot of problems all right.", "poster_path": "/rvifIBUYzhoIw4Q3bwk8JuuojLU.jpg", "release_date": "1959-10-05", "title": "Girls Town", "video": false, "vote_average": 3.8, "vote_count": 9, "popularity": 3.494}], "total_pages": 2, "total_results": 29}, "credits": {"cast": [{"cast_id": 3, "character": "Himself", "credit_id": "584480289251416a7400cfdd", "gender": 0, "id": 1718295, "name": "Jeff Anderson", "order": 1, "profile_path": null}], "crew": [{"credit_id": "52fe456c9251416c91031da3", "department": "Directing", "gender": 2, "id": 112588, "job": "Director", "name": "Kirby Dick", "profile_path": "/89dwzpAQaQE2xRfXmUNQr7xuGg1.jpg"}, {"credit_id": "5d90a6f2109cd0002944e84d", "department": "Production", "gender": 0, "id": 554890, "job": "Producer", "name": "Eddie Schmidt", "profile_path": null}]}}