{"adult": false, "backdrop_path": "/ApkVTgbvxlw3answGIzemtJAuAo.jpg", "belongs_to_collection": null, "budget": 1949120, "genres": [{"id": 99, "name": "Documentary"}], "homepage": "http://www.salutethemovie.com", "id": 34836, "imdb_id": "tt0874317", "original_language": "en", "original_title": "Salute", "overview": "The black power salute by Tommie Smith and John Carlos at the 1968 Mexico Olympics was an iconic moment in the US civil rights struggle. Far less known is the part in that episode in history played by Peter Norman, the white Australian on the podium who had run second \u2014 and the price paid afterward by all three athletes.", "popularity": 2.29, "poster_path": "/m7wp4PtEpoXWYGVRYqR0pfYpbZc.jpg", "production_companies": [{"id": 13508, "logo_path": null, "name": "Wingman Pictures", "origin_country": ""}, {"id": 13509, "logo_path": null, "name": "The Actors Cafe", "origin_country": ""}, {"id": 4692, "logo_path": null, "name": "Instinct Entertainment", "origin_country": ""}, {"id": 11840, "logo_path": "/8oyCRYf6ezxB5h8HJIPVG8JjzgL.png", "name": "Film Victoria", "origin_country": "AU"}, {"id": 1380, "logo_path": null, "name": "Australian Film Finance Corporation", "origin_country": "AU"}], "production_countries": [{"iso_3166_1": "AU", "name": "Australia"}, {"iso_3166_1": "US", "name": "United States of America"}], "release_date": "2008-07-17", "revenue": 0, "runtime": 120, "spoken_languages": [{"iso_639_1": "en", "name": "English"}], "status": "Released", "tagline": "The story behind the image", "title": "Salute", "video": false, "vote_average": 5.8, "vote_count": 4, "keywords": {"keywords": [{"id": 2070, "name": "olympic games"}, {"id": 5861, "name": "civil rights movement "}, {"id": 6075, "name": "sport"}, {"id": 41358, "name": "black power"}, {"id": 187901, "name": "track and field"}]}, "similar": {"page": 1, "results": [{"adult": false, "backdrop_path": "/qVjKZMB0IdOc2JlwiiGsuKTvTJs.jpg", "genre_ids": [18], "id": 22881, "original_language": "en", "original_title": "The Blind Side", "overview": "The story of Michael Oher, a homeless and traumatized boy who became an All American football player and first round NFL draft pick with the help of a caring woman and her family", "poster_path": "/wEGFSgPebLk6g1ngKsJ6a46PYLV.jpg", "release_date": "2009-11-20", "title": "The Blind Side", "video": false, "vote_average": 7.5, "vote_count": 3212, "popularity": 42.202}, {"adult": false, "backdrop_path": "/jK3EAFk3GdOaQfUDCOiTujzMpwH.jpg", "genre_ids": [18], "id": 389015, "original_language": "en", "original_title": "I, Tonya", "overview": "Competitive ice skater Tonya Harding rises amongst the ranks at the U. S. Figure Skating Championships, but her future in the sport is thrown into doubt when her ex-husband intervenes.", "poster_path": "/6gNXwSHxaksR1PjVZRqNapmkgj3.jpg", "release_date": "2017-12-08", "title": "I, Tonya", "video": false, "vote_average": 7.5, "vote_count": 3332, "popularity": 20.099}, {"id": 8923, "video": false, "vote_count": 1359, "vote_average": 7.2, "title": "Green Street Hooligans", "release_date": "2005-09-09", "original_language": "en", "original_title": "Green Street Hooligans", "genre_ids": [80, 18], "backdrop_path": "/oasVTD3UpTEjhTAVx9ZCy1k19Qv.jpg", "adult": false, "overview": "After being wrongfully expelled from Harvard University, American Matt Buckner flees to his sister's home in England. Once there, he is befriended by her charming and dangerous brother-in-law, Pete Dunham, and introduced to the underworld of British football hooliganism. Matt learns to stand his ground through a friendship that develops against the backdrop of this secret and often violent world. 'Green Street Hooligans' is a story of loyalty, trust and the sometimes brutal consequences of living close to the edge.", "poster_path": "/z3LC4kI8azbeuHRGgDdWo6VBCdX.jpg", "popularity": 20.194}, {"adult": false, "backdrop_path": "/n1Gh3MJAVvXmkgSDf3SOLlPCjag.jpg", "genre_ids": [35, 18, 10749], "id": 9390, "original_language": "en", "original_title": "Jerry Maguire", "overview": "Jerry Maguire used to be a typical sports agent: willing to do just about anything he could to get the biggest possible contracts for his clients, plus a nice commission for himself. Then, one day, he suddenly has second thoughts about what he's really doing. When he voices these doubts, he ends up losing his job and all of his clients, save Rod Tidwell, an egomaniacal football player.", "poster_path": "/99YTEdKOKDRClsscOpJfdkbaTrQ.jpg", "release_date": "1996-12-13", "title": "Jerry Maguire", "video": false, "vote_average": 6.9, "vote_count": 1796, "popularity": 20.431}, {"adult": false, "backdrop_path": "/3fcBsj9JMQQ27Wuk3LVrEwVZ2VT.jpg", "genre_ids": [28, 18], "id": 323677, "original_language": "en", "original_title": "Race", "overview": "Based on the story of Jesse Owens, the athlete whose quest to become the greatest track and field athlete in history thrusts him onto the world stage of the 1936 Olympics, where he faces off against Adolf Hitler's vision of Aryan supremacy.", "poster_path": "/szLfTQ2vLFQkNbP3dc0pnco1rje.jpg", "release_date": "2016-02-19", "title": "Race", "video": false, "vote_average": 7.3, "vote_count": 990, "popularity": 15.646}, {"adult": false, "backdrop_path": "/kBTdPNTAzagAY6UiwY957KCDGuu.jpg", "genre_ids": [16, 35, 10751], "id": 2300, "original_language": "en", "original_title": "Space Jam", "overview": "Swackhammer, an evil alien theme park owner, needs a new attraction at Moron Mountain. When his gang, the Nerdlucks, heads to Earth to kidnap Bugs Bunny and the Looney Tunes, Bugs challenges them to a basketball game to determine their fate. The aliens agree, but they steal the powers of NBA basketball players, including Larry Bird and Charles Barkley -- so Bugs gets some help from superstar Michael Jordan.", "poster_path": "/xI9AwhOWtsbFlS8tYD2PXa80p7u.jpg", "release_date": "1996-11-15", "title": "Space Jam", "video": false, "vote_average": 6.7, "vote_count": 3180, "popularity": 17.288}, {"adult": false, "backdrop_path": "/eD8PxfDsmWyUcj2LzQ9Ha2O7UvB.jpg", "genre_ids": [99], "id": 614423, "original_language": "en", "original_title": "Collingwood: From The Inside Out", "overview": "An  intimate look at Collingwood Football Club as it rebuilds itself and aims for glory over the course of the 2018 season.", "poster_path": "/dsJMvBJ7M2HvGkJdhW4nKNHEgDs.jpg", "release_date": "2019-08-15", "title": "Collingwood: From The Inside Out", "video": false, "vote_average": 1.0, "vote_count": 1, "popularity": 1.883}, {"id": 630633, "video": false, "vote_count": 0, "vote_average": 0.0, "title": "Varane : Destin de Champion", "release_date": "2019-09-23", "original_language": "fr", "original_title": "Varane : Destin de Champion", "genre_ids": [99], "backdrop_path": null, "adult": false, "overview": "", "poster_path": "/ecUI8DO8lfk5FUca0IF2SNgsgtn.jpg", "popularity": 1.548}, {"adult": false, "backdrop_path": "/20IgqkdFw5kuItqDCJtidSESP0t.jpg", "genre_ids": [27, 18], "id": 10066, "original_language": "en", "original_title": "House of Wax", "overview": "A group of unwitting teens are stranded near a strange wax museum and soon must fight to survive and keep from becoming the next exhibit.", "poster_path": "/uM1RebQywM5PPYsauayefpXGxVk.jpg", "release_date": "2005-04-30", "title": "House of Wax", "video": false, "vote_average": 5.7, "vote_count": 1532, "popularity": 16.398}, {"adult": false, "backdrop_path": "/mYKP6qcDUimVMAHQWLOuDHjO19S.jpg", "genre_ids": [35], "id": 445629, "original_language": "en", "original_title": "Fighting with My Family", "overview": "Born into a tight-knit wrestling family, Paige and her brother Zak are ecstatic when they get the once-in-a-lifetime opportunity to try out for the WWE. But when only Paige earns a spot in the competitive training program, she must leave her loved ones behind and face this new cutthroat world alone. Paige's journey pushes her to dig deep and ultimately prove to the world that what makes her different is the very thing that can make her a star.", "poster_path": "/cVhe15rJLRjolunSWLBN6xQLyGU.jpg", "release_date": "2019-02-14", "title": "Fighting with My Family", "video": false, "vote_average": 6.7, "vote_count": 643, "popularity": 18.498}, {"adult": false, "backdrop_path": "/qnWGw3n1R0OhPkoB1cYTTax5LMU.jpg", "genre_ids": [35, 10751, 14], "id": 23023, "original_language": "en", "original_title": "Tooth Fairy", "overview": "When minor-league hockey player Derek Thompson -- who has a penchant for knocking out his opponents' teeth every time he plays -- disillusions a fan, he is sentenced to a stint for one week as a bona fide, tutu-clad, real-life tooth fairy. Soon, Derek is inspired to rekindle his youthful dreams.", "poster_path": "/gNQA76kl251IuJVKMHfrRE12p7j.jpg", "release_date": "2010-01-14", "title": "Tooth Fairy", "video": false, "vote_average": 5.4, "vote_count": 1226, "popularity": 19.176}, {"id": 107, "video": false, "vote_count": 5247, "vote_average": 7.8, "title": "Snatch", "release_date": "2000-09-01", "original_language": "en", "original_title": "Snatch", "genre_ids": [80, 53], "backdrop_path": "/cNLZ7YGRikb4IsLblrzu86ndZPw.jpg", "adult": false, "overview": "The second film from British director Guy Ritchie. Snatch tells an obscure story similar to his first fast-paced crazy character-colliding filled film \u201cLock, Stock and Two Smoking Barrels.\u201d There are two overlapping stories here \u2013 one is the search for a stolen diamond, and the other about a boxing promoter who\u2019s having trouble with a psychotic gangster.", "poster_path": "/on9JlbGEccLsYkjeEph2Whm1DIp.jpg", "popularity": 25.36}, {"id": 307081, "video": false, "vote_count": 3703, "vote_average": 7.4, "title": "Southpaw", "release_date": "2015-03-24", "original_language": "en", "original_title": "Southpaw", "genre_ids": [28, 18], "backdrop_path": "/tTt1cdEEkKMJ1R4VBTe5vbE3bWO.jpg", "adult": false, "overview": "Billy \"The Great\" Hope, the reigning junior middleweight boxing champion, has an impressive career, a loving wife and daughter, and a lavish lifestyle. However, when tragedy strikes, Billy hits rock bottom, losing his family, his house and his manager. He soon finds an unlikely savior in Tick Willis, a former fighter who trains the city's toughest amateur boxers. With his future on the line, Hope fights to reclaim the trust of those he loves the most.", "poster_path": "/50d0XQQETSyg3bwBXhC7K33pKgc.jpg", "popularity": 28.235}, {"id": 44833, "video": false, "vote_count": 3512, "vote_average": 5.6, "title": "Battleship", "release_date": "2012-04-11", "original_language": "en", "original_title": "Battleship", "genre_ids": [28, 12, 878, 53], "backdrop_path": "/rLhO767vwqRfUBmJOqvEmt5myIF.jpg", "adult": false, "overview": "When mankind beams a radio signal into space, a reply comes from \u2018Planet G\u2019, in the form of several alien crafts that splash down in the waters off Hawaii. Lieutenant Alex Hopper is a weapons officer assigned to the USS John Paul Jones, part of an international naval coalition which becomes the world's last hope for survival as they engage the hostile alien force of unimaginable strength. While taking on the invaders, Hopper must also try to live up to the potential that his brother, and his fianc\u00e9e's father, Admiral Shane, expect of him.", "poster_path": "/7hN6WtMepoMZyeHZU2DM21cEj3z.jpg", "popularity": 24.873}, {"id": 273481, "video": false, "vote_count": 4912, "vote_average": 7.3, "title": "Sicario", "release_date": "2015-09-17", "original_language": "en", "original_title": "Sicario", "genre_ids": [28, 80, 53], "backdrop_path": "/zAHozevwbbsB2epEVpCkzqVccWW.jpg", "adult": false, "overview": "An idealistic FBI agent is enlisted by a government task force to aid in the escalating war against drugs at the border area between the U.S. and Mexico.", "poster_path": "/p2SdfGmQRaw8xhFbexlHL7srMM8.jpg", "popularity": 30.863}, {"id": 37136, "video": false, "vote_count": 1997, "vote_average": 7.2, "title": "The Naked Gun: From the Files of Police Squad!", "release_date": "1988-12-02", "original_language": "en", "original_title": "The Naked Gun: From the Files of Police Squad!", "genre_ids": [35, 80], "backdrop_path": "/vBvfE7oUpJggU1Cf4UXgeeXocsg.jpg", "adult": false, "overview": "When the incompetent Officer Frank Drebin seeks the ruthless killer of his partner, he stumbles upon an attempt to assassinate Queen Elizabeth.", "poster_path": "/gajZQkZjVXPuLJUMoEk1eVeZz61.jpg", "popularity": 16.388}, {"id": 348893, "video": false, "vote_count": 521, "vote_average": 6.2, "title": "Boyka: Undisputed IV", "release_date": "2016-08-01", "original_language": "en", "original_title": "Boyka: Undisputed IV", "genre_ids": [28, 80, 53], "backdrop_path": "/5dLLiR8IUT7T0r5HVcvRlItNWTn.jpg", "adult": false, "overview": "In the fourth installment of the fighting franchise, Boyka is shooting for the big leagues when an accidental death in the ring makes him question everything he stands for. When he finds out the wife of the man he accidentally killed is in trouble, Boyka offers to fight in a series of impossible battles to free her from a life of servitude", "poster_path": "/mWiqc87iTs1qujxm2Q0NRzGvWSN.jpg", "popularity": 28.623}, {"id": 651, "video": false, "vote_count": 478, "vote_average": 7.1, "title": "M*A*S*H", "release_date": "1970-01-24", "original_language": "en", "original_title": "M*A*S*H", "genre_ids": [35, 18, 10752], "backdrop_path": "/l5YH6TCYi2mgZwXbDjF71iA9UBP.jpg", "adult": false, "overview": "The staff of a Korean War field hospital use humor and high jinks to keep their sanity in the face of the horror of war.", "poster_path": "/cscyvJ4nDgbqewrttPXZ5EYOdwa.jpg", "popularity": 12.777}, {"id": 70006, "video": false, "vote_count": 288, "vote_average": 6.1, "title": "Never Back Down 2: The Beatdown", "release_date": "2011-09-13", "original_language": "en", "original_title": "Never Back Down 2: The Beatdown", "genre_ids": [28, 18], "backdrop_path": "/lSFqtjxMfAHa58TBDDBELKeq2DH.jpg", "adult": false, "overview": "Four fighters different backgrounds come together to train under an ex MMA rising star and then ultimately have to fight each other and the traitor in heir midst.", "poster_path": "/qeISu4rUk9l9sQTMs86fAoxSx8p.jpg", "popularity": 15.641}, {"id": 391757, "video": false, "vote_count": 185, "vote_average": 6.5, "title": "Never Back Down: No Surrender", "release_date": "2016-06-07", "original_language": "en", "original_title": "Never Back Down: No Surrender", "genre_ids": [28, 18], "backdrop_path": "/pzjnObK3uiHcKwiir9OPPWzbW8f.jpg", "adult": false, "overview": "Picking up after the events of Never Back Down 2, former MMA champion Case Walker is on the comeback trail to become champion once again.", "poster_path": "/dYNS4o4Q4DDLiKRAAvZ9KcrhHuy.jpg", "popularity": 15.446}], "total_pages": 183, "total_results": 3643}, "recommendations": {"page": 1, "results": [], "total_pages": 1, "total_results": 0}, "credits": {"cast": [{"cast_id": 1, "character": "Narrator", "credit_id": "52fe457f9251416c91034799", "gender": 2, "id": 75175, "name": "Christopher Kirby", "order": 0, "profile_path": "/hnNN6QHyMNi4BUR2r2JKjwq3jYM.jpg"}, {"cast_id": 2, "character": "Himself", "credit_id": "52fe457f9251416c9103479d", "gender": 0, "id": 1157630, "name": "Peter Norman", "order": 1, "profile_path": null}, {"cast_id": 3, "character": "Himself", "credit_id": "52fe457f9251416c910347a1", "gender": 0, "id": 1157631, "name": "Tommie Smith", "order": 2, "profile_path": null}, {"cast_id": 4, "character": "Himself", "credit_id": "52fe457f9251416c910347a5", "gender": 0, "id": 184421, "name": "John Wesley Carlos", "order": 3, "profile_path": null}, {"cast_id": 5, "character": "Himself", "credit_id": "52fe457f9251416c910347a9", "gender": 0, "id": 1157632, "name": "Payton Jordan", "order": 4, "profile_path": null}, {"cast_id": 6, "character": "Himself", "credit_id": "52fe457f9251416c910347ad", "gender": 0, "id": 1157633, "name": "Larry Questad", "order": 5, "profile_path": null}, {"cast_id": 7, "character": "Himself", "credit_id": "52fe457f9251416c910347b1", "gender": 2, "id": 1157634, "name": "Harry Edwards", "order": 6, "profile_path": "/hajKGbC5s6Lf5ic1TJuH1pVOMUh.jpg"}], "crew": [{"credit_id": "52fe457f9251416c910347f3", "department": "Sound", "gender": 2, "id": 37757, "job": "Original Music Composer", "name": "David Hirschfelder", "profile_path": null}, {"credit_id": "52fe457f9251416c910347cf", "department": "Production", "gender": 0, "id": 57366, "job": "Executive Producer", "name": "Thomas Augsberger", "profile_path": null}, {"credit_id": "52fe457f9251416c910347c9", "department": "Production", "gender": 2, "id": 79112, "job": "Producer", "name": "David Redman", "profile_path": null}, {"credit_id": "54c452fe9251412489006bf1", "department": "Production", "gender": 2, "id": 98350, "job": "Executive Producer", "name": "Dean Murphy", "profile_path": null}, {"credit_id": "52fe457f9251416c910347d5", "department": "Production", "gender": 0, "id": 98348, "job": "Executive Producer", "name": "Shana Levine", "profile_path": null}, {"credit_id": "52fe457f9251416c910347ff", "department": "Sound", "gender": 0, "id": 199905, "job": "Sound Designer", "name": "Michael Slater", "profile_path": null}, {"credit_id": "52fe457f9251416c910347e1", "department": "Crew", "gender": 0, "id": 209918, "job": "Cinematography", "name": "Martin Smith", "profile_path": null}, {"credit_id": "52fe457f9251416c91034805", "department": "Visual Effects", "gender": 0, "id": 571576, "job": "Visual Effects", "name": "Ralph Moser", "profile_path": null}, {"credit_id": "52fe457f9251416c910347e7", "department": "Editing", "gender": 0, "id": 571580, "job": "Editor", "name": "John Leonard", "profile_path": null}, {"credit_id": "5564a9859251414222002024", "department": "Editing", "gender": 1, "id": 957731, "job": "Editor", "name": "Jane Moran", "profile_path": null}, {"credit_id": "52fe457f9251416c910347b7", "department": "Directing", "gender": 0, "id": 1157635, "job": "Director", "name": "Matt Norman", "profile_path": "/ff5fFTWWuOl7IUJbeTJwfFjcBhp.jpg"}, {"credit_id": "52fe457f9251416c910347c3", "department": "Production", "gender": 0, "id": 1157635, "job": "Producer", "name": "Matt Norman", "profile_path": "/ff5fFTWWuOl7IUJbeTJwfFjcBhp.jpg"}, {"credit_id": "5d2d22aca294f042db33558c", "department": "Writing", "gender": 0, "id": 1157635, "job": "Writer", "name": "Matt Norman", "profile_path": "/ff5fFTWWuOl7IUJbeTJwfFjcBhp.jpg"}, {"credit_id": "52fe457f9251416c910347f9", "department": "Sound", "gender": 0, "id": 1157639, "job": "Sound Designer", "name": "Scott Findlay", "profile_path": null}]}}