{"adult": false, "backdrop_path": null, "belongs_to_collection": null, "budget": 0, "genres": [{"id": 12, "name": "Adventure"}, {"id": 18, "name": "Drama"}], "homepage": null, "id": 348434, "imdb_id": "tt0083247", "original_language": "it", "original_title": "L'ultimo harem", "overview": "Prince Almalarik is a royalty building an extensive harem of European beauties. When his latest acquisition named Sara convinces him to abandon polygamy, the other wives conspire to get rid of the unwanted competition.", "popularity": 1.699, "poster_path": "/ltOgTBxREq5MwprziiakuIcd2EV.jpg", "production_companies": [{"id": 16119, "logo_path": null, "name": "J.E. Films (Julian Esteban Films)", "origin_country": ""}, {"id": 57984, "logo_path": null, "name": "Amakar International Productions", "origin_country": ""}, {"id": 57985, "logo_path": null, "name": "Barbara Seelk Filmproduktion", "origin_country": ""}], "production_countries": [{"iso_3166_1": "DE", "name": "Germany"}, {"iso_3166_1": "IT", "name": "Italy"}, {"iso_3166_1": "ES", "name": "Spain"}], "release_date": "1981-08-12", "revenue": 0, "runtime": 90, "spoken_languages": [{"iso_639_1": "it", "name": "Italiano"}], "status": "Released", "tagline": "", "title": "Last Harem", "video": false, "vote_average": 0.0, "vote_count": 0, "keywords": {"keywords": [{"id": 3071, "name": "prince"}, {"id": 6751, "name": "polygamy"}, {"id": 9194, "name": "harem"}]}, "similar": {"page": 1, "results": [{"id": 150689, "video": false, "vote_count": 4970, "vote_average": 6.7, "title": "Cinderella", "release_date": "2015-03-12", "original_language": "en", "original_title": "Cinderella", "genre_ids": [18, 14, 10749, 10751], "backdrop_path": "/gkuyOdCeuKLdOlwQIUF44SHsYCq.jpg", "adult": false, "overview": "When her father unexpectedly passes away, young Ella finds herself at the mercy of her cruel stepmother and her daughters. Never one to give up hope, Ella's fortunes begin to change after meeting a dashing stranger in the woods.", "poster_path": "/2i0JH5WqYFqki7WDhUW56Sg0obh.jpg", "popularity": 50.557}, {"adult": false, "backdrop_path": "/zrGPZc07huy9ApZs7GCrWj05Cy8.jpg", "genre_ids": [12, 14, 10749, 10751], "id": 2270, "original_language": "en", "original_title": "Stardust", "overview": "In a countryside town bordering on a magical land, a young man makes a promise to his beloved that he'll retrieve a fallen star by venturing into the magical realm. His journey takes him into a world beyond his wildest dreams and reveals his true identity.", "poster_path": "/A9gXvPOnMu961E36x5p3RT4FQ5E.jpg", "release_date": "2007-08-09", "title": "Stardust", "video": false, "vote_average": 7.2, "vote_count": 2402, "popularity": 20.44}, {"id": 809, "video": false, "vote_count": 6985, "vote_average": 7.0, "title": "Shrek 2", "release_date": "2004-05-19", "original_language": "en", "original_title": "Shrek 2", "genre_ids": [12, 16, 35, 14, 10751], "backdrop_path": "/gdFAYLb5NR5HqcEKnPloOM6fX4B.jpg", "adult": false, "overview": "Shrek, Fiona and Donkey set off to Far, Far Away to meet Fiona's mother and father. But not everyone is happy. Shrek and the King find it hard to get along, and there's tension in the marriage. The fairy godmother discovers that Shrek has married Fiona instead of her Son Prince Charming and sets about destroying their marriage.", "poster_path": "/pSQvRqxwRa2IcDJHGY1d3TdKy2q.jpg", "popularity": 28.714}, {"id": 224141, "video": false, "vote_count": 3144, "vote_average": 5.7, "title": "Into the Woods", "release_date": "2014-12-24", "original_language": "en", "original_title": "Into the Woods", "genre_ids": [35, 14], "backdrop_path": "/lzJzB0QfkjpGCm9qUC4XpEIB6pm.jpg", "adult": false, "overview": "In a woods filled with magic and fairy tale characters, a baker and his wife set out to end the curse put on them by their neighbor, a spiteful witch.", "poster_path": "/5h91odPFNlBuJbRBj5N4MEBfXDE.jpg", "popularity": 29.368}, {"adult": false, "backdrop_path": "/wQraxOsaq0NwTO9rSwLo4Nc8hVG.jpg", "genre_ids": [10751, 14, 16, 10749], "id": 11224, "original_language": "en", "original_title": "Cinderella", "overview": "Cinderella has faith her dreams of a better life will come true. With help from her loyal mice friends and a wave of her Fairy Godmother's wand, Cinderella's rags are magically turned into a glorious gown and off she goes to the Royal Ball. But when the clock strikes midnight, the spell is broken, leaving a single glass slipper... the only key to the ultimate fairy-tale ending!", "poster_path": "/avz6S9HYWs4O8Oe4PenBFNX4uDi.jpg", "release_date": "1950-03-04", "title": "Cinderella", "video": false, "vote_average": 7.0, "vote_count": 4104, "popularity": 34.424}, {"adult": false, "backdrop_path": "/eMwWyxQMQQrlossNpZV38UliO95.jpg", "genre_ids": [12, 16, 35, 10751, 14], "id": 5393, "original_language": "en", "original_title": "Happily N'Ever After", "overview": "An alliance of evil-doers, led by Frieda, looks to take over Fairy Tale Land. But when Ella realizes her stepmother is out to ruin her storybook existence, she takes a dramatic turn and blossoms into the leader of the resistance effort.", "poster_path": "/pk80r0negE6P0zlBiuaeIESttXX.jpg", "release_date": "2006-09-14", "title": "Happily N'Ever After", "video": false, "vote_average": 4.8, "vote_count": 262, "popularity": 12.331}, {"adult": false, "backdrop_path": "/ikVhBmiTMYMybYnQO8S42txlizJ.jpg", "genre_ids": [18, 10749, 35], "id": 9454, "original_language": "en", "original_title": "EverAfter", "overview": "A unique 16th century woman, Danielle possesses a love of books, and can easily quote from Sir Thomas More\u2019s UTOPIA. An intriguing mix of tomboyish athleticism and physical beauty, she has more than enough charm to capture the heart of a prince ... after beaning him with an apple.", "poster_path": "/1ELrosU04wEbfmxK9wLBjdEECqm.jpg", "release_date": "1998-07-31", "title": "EverAfter", "video": false, "vote_average": 7.1, "vote_count": 788, "popularity": 12.399}, {"adult": false, "backdrop_path": "/3mhNnNmfCGrjyVEZhjWRVcjMOSi.jpg", "genre_ids": [14, 16, 10749, 10751], "id": 54113, "original_language": "en", "original_title": "The Swan Princess: Escape from Castle Mountain", "overview": "The first wedding anniversary of Princess Odette and Prince Derek is distracted by field fires set by Knuckles. His master Clavius, wants to conquer the world, and he needs to capture a giant orb to do that. Clavius kidnaps Queen Uberta and Odette with Derek have to save her.", "poster_path": "/oTEgvTpAIugS7OH6oIoVZkmV3C3.jpg", "release_date": "1997-01-01", "title": "The Swan Princess: Escape from Castle Mountain", "video": false, "vote_average": 6.0, "vote_count": 198, "popularity": 11.608}, {"adult": false, "backdrop_path": "/yDmyqO3xHTVxtyM0CuqobSX3Hjr.jpg", "genre_ids": [16, 10751, 14], "id": 10144, "original_language": "en", "original_title": "The Little Mermaid", "overview": "This colorful adventure tells the story of an impetuous mermaid princess named Ariel who falls in love with the very human Prince Eric and puts everything on the line for the chance to be with him. Memorable songs and characters -- including the villainous sea witch Ursula.", "poster_path": "/6aXMusULuKFAK0ZRUlv7RJ9zHTc.jpg", "release_date": "1989-11-17", "title": "The Little Mermaid", "video": false, "vote_average": 7.3, "vote_count": 4669, "popularity": 25.992}, {"id": 10882, "video": false, "vote_count": 3219, "vote_average": 6.9, "title": "Sleeping Beauty", "release_date": "1959-01-28", "original_language": "en", "original_title": "Sleeping Beauty", "genre_ids": [16, 14, 10749, 10751], "backdrop_path": "/oHZIobyIG0YzWntyPCTSJDOk9qB.jpg", "adult": false, "overview": "A beautiful princess born in a faraway kingdom is destined by a terrible curse to prick her finger on the spindle of a spinning wheel and fall into a deep sleep that can only be awakened by true love's first kiss. Determined to protect her, her parents ask three fairies to raise her in hiding. But the evil Maleficent is just as determined to seal the princess's fate.", "poster_path": "/j4YBuAe8D1jDSiitpq69og9x3Yl.jpg", "popularity": 29.356}, {"id": 22586, "video": false, "vote_count": 585, "vote_average": 6.6, "title": "The Swan Princess", "release_date": "1994-11-18", "original_language": "en", "original_title": "The Swan Princess", "genre_ids": [12, 16, 35, 14, 10751], "backdrop_path": "/hP9dsGy8FR7eeTqzpOpP3tl3wFD.jpg", "adult": false, "overview": "The beautiful princess Odette is transformed into a swan by an evil sorcerer's spell. Held captive at an enchanted lake, she befriends Jean-Bob the frog, Speed the turtle and Puffin the bird. Despite their struggle to keep the princess safe, these good-natured creatures can do nothing about the sorcerer's spell, which can only be broken by a vow of everlasting love.", "poster_path": "/f5YvIPrkJ9HCsNbgzWJJyxXVNhj.jpg", "popularity": 13.035}, {"id": 8703, "video": false, "vote_count": 178, "vote_average": 7.8, "title": "Three Wishes for Cinderella", "release_date": "1973-11-16", "original_language": "cs", "original_title": "T\u0159i o\u0159\u00ed\u0161ky pro Popelku", "genre_ids": [12, 18, 14, 10749, 10751], "backdrop_path": "/mB6K5DYMxIjVJAc6MM0zoG2pcBp.jpg", "adult": false, "overview": "The film stars Libuse Safrankova as the title character, a young woman who is put upon by her stepmother and stepsisters. The film employs a twist, though, when a handsome prince comes knocking. Cinderella does not simply fall into the prince's arms. In this version, he must actively pursue the young woman who is a skilled sharpshooter prone to wearing hunting outfits. Cinderella also has three wishes at her disposal, gained from three magic nuts.", "poster_path": "/rxsZrGh2sS2axwSN9T7SL1aznhH.jpg", "popularity": 13.19}, {"id": 808, "video": false, "vote_count": 9704, "vote_average": 7.6, "title": "Shrek", "release_date": "2001-05-16", "original_language": "en", "original_title": "Shrek", "genre_ids": [12, 16, 35, 14, 10751], "backdrop_path": "/2l5UHZBcp9cx1PwKLdisJ0gV9jB.jpg", "adult": false, "overview": "It ain't easy bein' green -- especially if you're a likable (albeit smelly) ogre named Shrek. On a mission to retrieve a gorgeous princess from the clutches of a fire-breathing dragon, Shrek teams up with an unlikely compatriot -- a wisecracking donkey.", "poster_path": "/140ewbWv8qHStD3mlBDvvGd0Zvu.jpg", "popularity": 29.933}, {"id": 14128, "video": false, "vote_count": 809, "vote_average": 5.9, "title": "Cinderella II: Dreams Come True", "release_date": "2002-02-23", "original_language": "en", "original_title": "Cinderella II: Dreams Come True", "genre_ids": [16, 14, 10749, 10751], "backdrop_path": "/4ErXZZgpXPxDcCLnnLXysK03ss9.jpg", "adult": false, "overview": "As a newly crowned princess, Cinderella quickly learns that life at the Palace - and her royal responsibilities - are more challenging than she had imagined. In three heartwarming tales, Cinderella calls on her animal friends and her Fairy Godmother to help as she brings her own grace and charm to her regal role and discovers that being true to yourself is the best way to make your dreams come true.", "poster_path": "/36nD4aDvoFMewiHBnIcGo3vVcd6.jpg", "popularity": 18.996}, {"id": 10196, "video": false, "vote_count": 2382, "vote_average": 4.6, "title": "The Last Airbender", "release_date": "2010-06-30", "original_language": "en", "original_title": "The Last Airbender", "genre_ids": [28, 12, 14, 10751], "backdrop_path": "/hzPK7B5iyQTAfG7X92uKpAwLGZC.jpg", "adult": false, "overview": "The story follows the adventures of Aang, a young successor to a long line of Avatars, who must put his childhood ways aside and stop the Fire Nation from enslaving the Water, Earth and Air nations.", "poster_path": "/zgwRTYWEEPivTwjB9S03HtmMcbM.jpg", "popularity": 17.876}, {"id": 810, "video": false, "vote_count": 5379, "vote_average": 6.2, "title": "Shrek the Third", "release_date": "2007-05-17", "original_language": "en", "original_title": "Shrek the Third", "genre_ids": [12, 16, 35, 14, 10751], "backdrop_path": "/7fT1IogBbxM6S7SOIGSe7BXLEMq.jpg", "adult": false, "overview": "The King of Far Far Away has died and Shrek and Fiona are to become King & Queen. However, Shrek wants to return to his cozy swamp and live in peace and quiet, so when he finds out there is another heir to the throne, they set off to bring him back to rule the kingdom.", "poster_path": "/lA17Mlz8hXVZsW5Y3WuUa8KPilQ.jpg", "popularity": 25.166}, {"id": 10372, "video": false, "vote_count": 105, "vote_average": 5.2, "title": "Ewoks: The Battle for Endor", "release_date": "1985-11-24", "original_language": "en", "original_title": "Ewoks: The Battle for Endor", "genre_ids": [12, 10751, 10770], "backdrop_path": "/muzbs6VImwFwWwD2wXJnFFtAO8j.jpg", "adult": false, "overview": "The army of the Marauders, led by by King Terak and the witch Charal attack the Ewoks village. The parents and the brother of Cindel all die in this attack. Cindel and the Ewok Wicket escape and in a forrest they meet Teek a naughty and very fast animal. Teek takes them to a house in which a old man, Noa, lives. Like Cindel he also crashed with his Starcruiser on Endor. Together they fight Terak and Charal.", "poster_path": "/nk5dDPed5IpAqC9G4gcADEP4VOn.jpg", "popularity": 16.339}, {"id": 2312, "video": false, "vote_count": 433, "vote_average": 4.5, "title": "In the Name of the King: A Dungeon Siege Tale", "release_date": "2007-11-29", "original_language": "en", "original_title": "In the Name of the King: A Dungeon Siege Tale", "genre_ids": [28, 12, 18, 14], "backdrop_path": "/u14b6vdFieOm9OXGa49c7n5gmQS.jpg", "adult": false, "overview": "A man named Farmer sets out to rescue his kidnapped wife and avenge the death of his son -- two acts committed by the Krugs, a race of animal-warriors who are controlled by the evil Gallian.", "poster_path": "/bbN1lmDk1PT0GsTFCy179sk5nIF.jpg", "popularity": 11.512}, {"id": 354279, "video": false, "vote_count": 86, "vote_average": 6.3, "title": "Charming", "release_date": "2018-04-20", "original_language": "en", "original_title": "Charming", "genre_ids": [16, 35, 10402, 10751], "backdrop_path": "/rTefIDfreT1kcjuld8K1wgI3ifp.jpg", "adult": false, "overview": "Three fairy tale princesses find themselves engaged to the same guy, Prince Charming.", "poster_path": "/xizxQjNw7gbstkU9YIi2NaZIXW3.jpg", "popularity": 15.747}, {"adult": false, "backdrop_path": "/ncERp0UvXuImUeJcf27kEANcf1r.jpg", "genre_ids": [35, 10751, 10749], "id": 9880, "original_language": "en", "original_title": "The Princess Diaries", "overview": "A socially awkward but very bright 15-year-old girl being raised by a single mom discovers that she is the princess of a small European country because of the recent death of her long-absent father, who, unknown to her, was the crown prince of Genovia. She must make a choice between continuing the life of a San Francisco teen or stepping up to the throne.", "poster_path": "/sxpvHk286sXLJWcFrBMNIsXbYsd.jpg", "release_date": "2001-08-03", "title": "The Princess Diaries", "video": false, "vote_average": 6.8, "vote_count": 2861, "popularity": 30.076}], "total_pages": 26, "total_results": 520}, "recommendations": {"page": 1, "results": [], "total_pages": 1, "total_results": 0}, "credits": {"cast": [{"cast_id": 0, "character": "Sara", "credit_id": "55a2b25c925141296b003a03", "gender": 1, "id": 10476, "name": "Corinne Cl\u00e9ry", "order": 0, "profile_path": "/oNkBqfWJ3oVxNU0DswS3iBXwXx7.jpg"}, {"cast_id": 1, "character": "Prince Almalarik", "credit_id": "55a2b26fc3a3681cde00380a", "gender": 2, "id": 10167, "name": "George Lazenby", "order": 1, "profile_path": "/rmrprW2rSKq49nPClGUfrJ2J0U4.jpg"}, {"cast_id": 2, "character": "Laura", "credit_id": "55a2b27cc3a3681ce3003ca7", "gender": 1, "id": 27275, "name": "Daniela Poggi", "order": 2, "profile_path": "/kZv7wVz7tlfTCyosJ7CTWKHPO4F.jpg"}, {"cast_id": 3, "character": "The Greek", "credit_id": "55a2b28cc3a3681ce7003b3f", "gender": 1, "id": 97630, "name": "Mar\u00eda Kosty", "order": 3, "profile_path": "/wfxhzKCcNmWWE0FPgY0TeTOOyeP.jpg"}, {"cast_id": 4, "character": "Teresa", "credit_id": "55a2b29e925141296b003a09", "gender": 1, "id": 598308, "name": "Ursula Buchfellner", "order": 4, "profile_path": "/8CFUDDM7DcgRNzLBWqPhYyPc5Bx.jpg"}, {"cast_id": 5, "character": "Aysha", "credit_id": "55a2b2afc3a3681cf5003b32", "gender": 1, "id": 46426, "name": "Mirta Miller", "order": 5, "profile_path": "/106eWlmNVkwrc0oCukvGJ8zQPXH.jpg"}, {"cast_id": 9, "character": "Bedouin Chief", "credit_id": "55a2b2e8c3a3681ce7003b45", "gender": 2, "id": 49895, "name": "Aldo Sambrell", "order": 6, "profile_path": "/doSGQEp3BDSCDmbX8hlaTOoqXST.jpg"}, {"cast_id": 6, "character": "", "credit_id": "55a2b2bc92514129800039e2", "gender": 1, "id": 106058, "name": "Adriana Vega", "order": 7, "profile_path": "/hIkaojnYM942WHTlP9TlAGvwrSf.jpg"}, {"cast_id": 7, "character": "", "credit_id": "55a2b2c4c3a3681ce3003caf", "gender": 0, "id": 1486605, "name": "Karin Fiedler", "order": 8, "profile_path": null}, {"cast_id": 21, "character": "", "credit_id": "55ee2ab1c3a3686f17005b1a", "gender": 0, "id": 1204433, "name": "Peter Lamarr", "order": 9, "profile_path": null}, {"cast_id": 22, "character": "", "credit_id": "55ee2ab192514106d600f5b9", "gender": 0, "id": 1113136, "name": "Serafino Profumo", "order": 10, "profile_path": null}, {"cast_id": 23, "character": "", "credit_id": "55ee2ab2c3a3682c6b015b39", "gender": 2, "id": 32681, "name": "Sergio Smacchi", "order": 11, "profile_path": "/3KaBl5AzLqLowPLrGOxRyOnJKeZ.jpg"}, {"cast_id": 24, "character": "", "credit_id": "55ee2ab29251413e2f0164c4", "gender": 0, "id": 1506715, "name": "Enrica Donniccelli", "order": 12, "profile_path": null}, {"cast_id": 25, "character": "", "credit_id": "55ee2ab29251412c320007f7", "gender": 0, "id": 1506716, "name": "Elisabetta Maggi", "order": 13, "profile_path": null}, {"cast_id": 26, "character": "", "credit_id": "55ee2ab3c3a3686f17005b1d", "gender": 0, "id": 1506717, "name": "Antonio Azzolini", "order": 14, "profile_path": null}, {"cast_id": 27, "character": "", "credit_id": "55ee2ab39251412e070006cc", "gender": 0, "id": 1506718, "name": "Angelo Pennoni", "order": 15, "profile_path": null}, {"cast_id": 29, "character": "(uncredited)", "credit_id": "55ee2ab39251413e410164c0", "gender": 2, "id": 14014, "name": "G\u00e9rard Tichy", "order": 17, "profile_path": "/dKTu5eIRVjLeUwCRrri8puxnFz3.jpg"}, {"cast_id": 30, "character": "", "credit_id": "5a47c6120e0a2648950004f4", "gender": 1, "id": 41074, "name": "Marina Hedman", "order": 18, "profile_path": "/rjdISbt4k5LllcaFXra7t0fYN6Q.jpg"}], "crew": [{"credit_id": "55a2b3d49251412974003b71", "department": "Sound", "gender": 2, "id": 29501, "job": "Music", "name": "Stelvio Cipriani", "profile_path": "/lMk2Iwbq2RcvCZd9UJw0QtT74VZ.jpg"}, {"credit_id": "55a2b3e9925141296e003c65", "department": "Camera", "gender": 0, "id": 33824, "job": "Director of Photography", "name": "Fernando Arribas", "profile_path": null}, {"credit_id": "55a2b3f9c3a3681cf5003b51", "department": "Editing", "gender": 0, "id": 50750, "job": "Editor", "name": "Gianfranco Amicucci", "profile_path": null}, {"credit_id": "55a2b328c3a3681ce3003cb5", "department": "Directing", "gender": 0, "id": 107276, "job": "Director", "name": "Sergio Garrone", "profile_path": null}, {"credit_id": "55a2b3679251412971003a27", "department": "Writing", "gender": 0, "id": 107276, "job": "Writer", "name": "Sergio Garrone", "profile_path": null}, {"credit_id": "55a2b342c3a3681cde003817", "department": "Writing", "gender": 2, "id": 975212, "job": "Novel", "name": "Alberto V\u00e1zquez Figueroa", "profile_path": null}, {"credit_id": "55a2b39a9251412971003a2a", "department": "Writing", "gender": 2, "id": 975212, "job": "Writer", "name": "Alberto V\u00e1zquez Figueroa", "profile_path": null}, {"credit_id": "55a2b3c4925141297d003cc9", "department": "Production", "gender": 0, "id": 1076187, "job": "Associate Producer", "name": "Willey Reynolds", "profile_path": null}, {"credit_id": "55a2b3afc3a3681ce3003cc4", "department": "Production", "gender": 0, "id": 1144956, "job": "Producer", "name": "Federico Aicardi", "profile_path": null}, {"credit_id": "55a2b350c3a3681ce3003cbb", "department": "Writing", "gender": 0, "id": 1144956, "job": "Writer", "name": "Federico Aicardi", "profile_path": null}, {"credit_id": "55a2b37d92514129800039e9", "department": "Writing", "gender": 0, "id": 1398351, "job": "Writer", "name": "Heinz Freitag", "profile_path": null}]}}