{"adult": false, "backdrop_path": "/hnKwwwz9Woag1B85VBLswjQH1is.jpg", "belongs_to_collection": null, "budget": 0, "genres": [{"id": 35, "name": "Comedy"}, {"id": 16, "name": "Animation"}], "homepage": "", "id": 349045, "imdb_id": "tt4840666", "original_language": "en", "original_title": "Looney Tunes: Rabbits Run", "overview": "Lola Bunny invents a perfume with the adverse effect of turning people invisible, sending her and cab driver Bugs Bunny on the run from the FBI, while another shady group seeks the formula.", "popularity": 6.732, "poster_path": "/7JekIelxRQtTaFbYqJSPr5Xw4KZ.jpg", "production_companies": [{"id": 2785, "logo_path": "/l5zW8jjmQOCx2dFmvnmbYmqoBmL.png", "name": "Warner Bros. Animation", "origin_country": "US"}], "production_countries": [{"iso_3166_1": "US", "name": "United States of America"}], "release_date": "2015-08-04", "revenue": 0, "runtime": 73, "spoken_languages": [{"iso_639_1": "en", "name": "English"}, {"iso_639_1": "it", "name": "Italiano"}], "status": "Released", "tagline": "", "title": "Looney Tunes: Rabbits Run", "video": false, "vote_average": 5.3, "vote_count": 16, "keywords": {"keywords": [{"id": 6513, "name": "cartoon"}]}, "similar": {"page": 1, "results": [{"id": 53210, "video": false, "vote_count": 103, "vote_average": 8.2, "title": "Duck Amuck", "release_date": "1953-02-28", "original_language": "en", "original_title": "Duck Amuck", "genre_ids": [16, 35], "backdrop_path": "/3hJQ1ps5fijMO5Y5BnxiVWtbbyA.jpg", "adult": false, "overview": "The short-tempered Daffy Duck must improvise madly as the backgrounds, his costumes, the soundtrack, even his physical form, shifts and changes at the whim of the animator.", "poster_path": "/gRZYLCncLa2mzE59qY38McDlFdN.jpg", "popularity": 9.387}, {"id": 53217, "video": false, "vote_count": 90, "vote_average": 7.5, "title": "What's Opera, Doc?", "release_date": "1957-07-06", "original_language": "en", "original_title": "What's Opera, Doc?", "genre_ids": [16, 35, 10402], "backdrop_path": "/rXuNYO4Mzqq37we9cgr9qpElsLb.jpg", "adult": false, "overview": "Bugs is in drag as the Valkyrie Brunhilde who sits on an overwieght horse. \"She\" is pursued by Elmer playing the demigod \"Siegfried\".", "poster_path": "/hPALHY93ddJEuHebvjoPgZrPxtH.jpg", "popularity": 6.623}, {"adult": false, "backdrop_path": "/bCZ18msRssQCdS0jfxbq9FqtVcm.jpg", "genre_ids": [16, 10751, 35], "id": 53220, "original_language": "en", "original_title": "Rabbit Fire", "overview": "Daffy Duck and Bugs argue back and forth whether it is duck season or rabbit season. The object of their arguments is hunter Elmer Fudd.", "poster_path": "/2sK0wjqW9XtBNIsK16691MDTBkh.jpg", "release_date": "1951-05-19", "title": "Rabbit Fire", "video": false, "vote_average": 7.4, "vote_count": 61, "popularity": 6.556}, {"adult": false, "backdrop_path": "/kBTdPNTAzagAY6UiwY957KCDGuu.jpg", "genre_ids": [16, 35, 10751], "id": 2300, "original_language": "en", "original_title": "Space Jam", "overview": "Swackhammer, an evil alien theme park owner, needs a new attraction at Moron Mountain. When his gang, the Nerdlucks, heads to Earth to kidnap Bugs Bunny and the Looney Tunes, Bugs challenges them to a basketball game to determine their fate. The aliens agree, but they steal the powers of NBA basketball players, including Larry Bird and Charles Barkley -- so Bugs gets some help from superstar Michael Jordan.", "poster_path": "/xI9AwhOWtsbFlS8tYD2PXa80p7u.jpg", "release_date": "1996-11-15", "title": "Space Jam", "video": false, "vote_average": 6.7, "vote_count": 3180, "popularity": 17.288}, {"adult": false, "backdrop_path": "/2icw1NAYK5DWqPMBQfp1YyOELWb.jpg", "genre_ids": [16, 10751, 35], "id": 52954, "original_language": "en", "original_title": "Rabbit Seasoning", "overview": "The cartoon finds a row of signs saying it's rabbit season (\"If you're looking for fun, you don't need a reason. All you need is a gun, it's Rabbit Season!\"). Bugs Bunny and Daffy Duck again are arguing over which of them is \u201cin season\u201d (it is really Duck Season, as Daffy says in the beginning), while a befuddled Elmer Fudd tries to figure out which animal is telling the truth. Between using sneaky plays-on-words, and dressing himself in women's clothing (including a Lana Turner-style sweater), Bugs manages to escape unscathed, while Daffy repeatedly has his beak blown off, upside-down, and sideways by Elmer.", "poster_path": "/aonMaH4FXfqsg9sFH99t8lbmg9l.jpg", "release_date": "1952-09-20", "title": "Rabbit Seasoning", "video": false, "vote_average": 7.3, "vote_count": 74, "popularity": 6.228}, {"adult": false, "backdrop_path": "/mbHXq2pO3FjN0TSsh2DwJjWAzAW.jpg", "genre_ids": [10402, 16, 35, 10751], "id": 34463, "original_language": "en", "original_title": "Three Little Pigs", "overview": "The two pigs building houses of hay and sticks scoff at their brother, building the brick house. But when the wolf comes around and blows their houses down (after trickery like dressing as a foundling sheep fails), they run to their brother's house. And throughout, they sing the classic song, \"Who's Afraid of the Big Bad Wolf?\".", "poster_path": "/aPmSY3y4A2xMSkF24tdIfDQNKJy.jpg", "release_date": "1933-05-27", "title": "Three Little Pigs", "video": false, "vote_average": 6.8, "vote_count": 179, "popularity": 10.829}, {"adult": false, "backdrop_path": "/hBiZTHJFrMasobPU1Rscwns2kkI.jpg", "genre_ids": [16], "id": 34933, "original_language": "en", "original_title": "Bully for Bugs", "overview": "Bugs Bunny once again making that \"wrong turn at Albuquerque\" burrows into a bullring, where a magnificent bull is making short work of a toreador. The bull bucks Bugs out of the arena, prompting the bunny to declare \"Of course you realize, this means war!\" The deft Bugs' arsenal comes plenty packed, as he uses anvils, well-placed face slaps and the bull's horns as a slingshot. The bull fights back, using his horns as a shotgun barrel. The bull's comeback is short-lived; just after Bugs makes out his will, he lures the bull out of the arena, just in time to set up a rube-like device that leads to the bull's defeat.", "poster_path": "/lqLENKX6DKPyubKrlwhwj0jqYeJ.jpg", "release_date": "1953-08-08", "title": "Bully for Bugs", "video": false, "vote_average": 7.1, "vote_count": 39, "popularity": 4.557}, {"id": 326359, "video": false, "vote_count": 1180, "vote_average": 6.8, "title": "Frozen Fever", "release_date": "2015-03-09", "original_language": "en", "original_title": "Frozen Fever", "genre_ids": [12, 16, 10751], "backdrop_path": "/ubioPGniCfDiASmYYpeJs5RRNaC.jpg", "adult": false, "overview": "On Anna's birthday, Elsa and Kristoff are determined to give her the best celebration ever, but Elsa's icy powers may put more than just the party at risk.", "poster_path": "/lKJiVPzsAO9IJ4LKWXZ8vkR2bg4.jpg", "popularity": 17.218}, {"adult": false, "backdrop_path": "/5OeY4U2rzePxWq2rkqMajUx2gz7.jpg", "genre_ids": [16, 10751, 12, 14, 10749], "id": 812, "original_language": "en", "original_title": "Aladdin", "overview": "Princess Jasmine grows tired of being forced to remain in the palace, so she sneaks out into the marketplace, in disguise, where she meets street-urchin Aladdin.  The couple falls in love, although Jasmine may only marry a prince.  After being thrown in jail, Aladdin becomes embroiled in a plot to find a mysterious lamp, with which the evil Jafar hopes to rule the land.", "poster_path": "/mjKozYRuHc9j7SmiXmbVmCiAM0A.jpg", "release_date": "1992-11-25", "title": "Aladdin", "video": false, "vote_average": 7.6, "vote_count": 7289, "popularity": 35.494}, {"id": 856, "video": false, "vote_count": 3249, "vote_average": 7.4, "title": "Who Framed Roger Rabbit", "release_date": "1988-06-21", "original_language": "en", "original_title": "Who Framed Roger Rabbit", "genre_ids": [16, 35, 80, 14, 10751], "backdrop_path": "/9podqGmd36AJHO13HQIQHQZRTJC.jpg", "adult": false, "overview": "'Toon star Roger is worried that his wife Jessica is playing pattycake with someone else, so the studio hires detective Eddie Valiant to snoop on her. But the stakes are quickly raised when Marvin Acme is found dead and Roger is the prime suspect.", "poster_path": "/lYfRc57Kx9VgLZ48iulu0HKnM15.jpg", "popularity": 20.755}, {"id": 14813, "video": false, "vote_count": 456, "vote_average": 7.6, "title": "Mickey's Christmas Carol", "release_date": "1983-10-19", "original_language": "en", "original_title": "Mickey's Christmas Carol", "genre_ids": [16, 10751], "backdrop_path": "/fDK3xeAcQfQ40ZUULgZshElkspa.jpg", "adult": false, "overview": "It is an adaptation of the Charles Dickens classic A Christmas Carol, featuring Scrooge McDuck as his namesake and inspiration Ebenezer Scrooge and Mickey Mouse as Bob Cratchit. This film was based on a 1972 audio musical entitled Disney's A Christmas Carol. It is a twenty-four minute animated short film produced by Walt Disney Productions as an accompaniment to a re-release of The Rescuers.", "poster_path": "/29iF1IiC3ZyJQ1kmTf4LD8p8oro.jpg", "popularity": 14.7}, {"id": 10258, "video": false, "vote_count": 148, "vote_average": 6.6, "title": "The Madagascar Penguins in a Christmas Caper", "release_date": "2005-09-23", "original_language": "en", "original_title": "The Madagascar Penguins in a Christmas Caper", "genre_ids": [16, 35, 10751], "backdrop_path": "/gdJ6j1hmt6dQgObWxDJAHUb58o6.jpg", "adult": false, "overview": "During the holiday season, when the animals of the Central Park Zoo are preparing for Christmas, Private, the youngest of the penguins notices that the Polar Bear is all alone. Assured that nobody should have to spend Christmas alone, Private goes into the city for some last-minute Christmas shopping. Along the way, he gets stuffed into a stocking", "poster_path": "/r8QtfGSjDaY6vICRVyYvZvTkjxc.jpg", "popularity": 13.032}, {"id": 150540, "video": false, "vote_count": 13957, "vote_average": 7.9, "title": "Inside Out", "release_date": "2015-06-09", "original_language": "en", "original_title": "Inside Out", "genre_ids": [16, 35, 18, 10751], "backdrop_path": "/szytSpLAyBh3ULei3x663mAv5ZT.jpg", "adult": false, "overview": "Growing up can be a bumpy road, and it's no exception for Riley, who is uprooted from her Midwest life when her father starts a new job in San Francisco. Riley's guiding emotions\u2014 Joy, Fear, Anger, Disgust and Sadness\u2014live in Headquarters, the control centre inside Riley's mind, where they help advise her through everyday life and tries to keep things positive, but the emotions conflict on how best to navigate a new city, house and school.", "poster_path": "/aAmfIX3TT40zUHGcCKrlOZRKC7u.jpg", "popularity": 57.362}, {"id": 460793, "video": false, "vote_count": 933, "vote_average": 6.2, "title": "Olaf's Frozen Adventure", "release_date": "2017-10-27", "original_language": "en", "original_title": "Olaf's Frozen Adventure", "genre_ids": [12, 16, 35, 14, 10402, 10751], "backdrop_path": "/9K4QqQZg4TVXcxBGDiVY4Aey3Rn.jpg", "adult": false, "overview": "Olaf is on a mission to harness the best holiday traditions for Anna, Elsa, and Kristoff.", "poster_path": "/As8WTtxXs9e3cBit3ztTf7zoRmm.jpg", "popularity": 21.98}, {"id": 481084, "video": false, "vote_count": 449, "vote_average": 6.1, "title": "The Addams Family", "release_date": "2019-10-10", "original_language": "en", "original_title": "The Addams Family", "genre_ids": [16, 35, 14, 10751], "backdrop_path": "/ur4NTeFGZmQ6Hz5uEkAMgPI3WRg.jpg", "adult": false, "overview": "The Addams family's lives begin to unravel when they face-off against a treacherous, greedy crafty reality-TV host while also preparing for their extended family to arrive for a major celebration.", "poster_path": "/q1epO0eO8DWu8Vo8tPfvVlzW48T.jpg", "popularity": 41.447}, {"adult": false, "backdrop_path": null, "genre_ids": [], "id": 616262, "original_language": "ar", "original_title": "All Come From Dust", "overview": "A loop of edgeless bend. You were its doom, he was its bloom. You were its tomb, he was its womb. You were its gloom, he was its loom. For Heaven and Hell, were words made of fume.", "poster_path": null, "release_date": "2019-08-13", "title": "All Come From Dust", "video": false, "vote_average": 5.0, "vote_count": 1, "popularity": 0.6}, {"id": 621733, "video": false, "vote_count": 0, "vote_average": 0.0, "title": "A Trip to the Seaside", "release_date": "2019-08-30", "original_language": "en", "original_title": "A Trip to the Seaside", "genre_ids": [99], "backdrop_path": null, "adult": false, "overview": "Experimental short film on the excitement and rush of a day trip", "poster_path": "/AuZVhpoJ4jm2LWDhoJKfxQfhDAi.jpg", "popularity": 1.324}, {"id": 321612, "video": false, "vote_count": 11799, "vote_average": 6.9, "title": "Beauty and the Beast", "release_date": "2017-03-16", "original_language": "en", "original_title": "Beauty and the Beast", "genre_ids": [14, 10749, 10751], "backdrop_path": "/6aUWe0GSl69wMTSWWexsorMIvwU.jpg", "adult": false, "overview": "A live-action adaptation of Disney's version of the classic tale of a cursed prince and a beautiful young woman who helps him break the spell.", "poster_path": "/tWqifoYuwLETmmasnGHO7xBjEtt.jpg", "popularity": 47.679}, {"id": 654980, "video": false, "vote_count": 0, "vote_average": 0.0, "title": "Former Cult Member Hears Music For The First Time", "release_date": "2020-01-23", "original_language": "en", "original_title": "Former Cult Member Hears Music For The First Time", "genre_ids": [], "backdrop_path": null, "adult": false, "overview": "After a woman escapes the captivity of her abusive family, a magazine invites her to a journalistic experiment: to hear music for the first time.", "poster_path": "/85K8ODZp51Cl5OAivRyjN1MKTdy.jpg", "popularity": 18.403}, {"adult": false, "backdrop_path": "/5wjmYlNOIqepQYtSp4EPto09Rwi.jpg", "genre_ids": [16, 35], "id": 134103, "original_language": "en", "original_title": "Hair-Raising Hare", "overview": "A sneaker-wearing, hairy monster chases Bugs through a castle belonging to an evil scientist.", "poster_path": "/vHSuTYqaLiDw6754xQnKTW2OGC9.jpg", "release_date": "1946-05-25", "title": "Hair-Raising Hare", "video": false, "vote_average": 7.0, "vote_count": 44, "popularity": 4.781}], "total_pages": 558, "total_results": 11144}, "recommendations": {"page": 1, "results": [{"adult": false, "backdrop_path": "/znU1PiU3Iho5SZWIeFhGMTUBWNO.jpg", "genre_ids": [10751, 16], "id": 422907, "original_language": "en", "original_title": "Baby Looney Tunes: Eggs-traordinary Adventure", "overview": "The Baby Looney Tunes characters go on a search for the true meaning of Easter.", "poster_path": "/zQoJoxpXDqwNwKTt11wwjAVthDY.jpg", "release_date": "2003-02-11", "title": "Baby Looney Tunes: Eggs-traordinary Adventure", "video": false, "vote_average": 6.6, "vote_count": 8, "popularity": 4.349}, {"id": 393456, "video": false, "vote_count": 9, "vote_average": 6.7, "title": "Looney Tunes: Stranger Than Fiction", "release_date": "2003-10-27", "original_language": "el", "original_title": "Looney Tunes: Stranger Than Fiction", "genre_ids": [12, 16, 35, 10751], "backdrop_path": null, "adult": false, "overview": "Collection of 19 new original Looney Tunes shorts made as webisodes with Daffy, Bugs, Porky, Sylvester, Twitty, Taz, Foghorn and others. Segments include Daffy's show about the supernatural and Duck Dodgers' take on Planet of the Apes.", "poster_path": "/812aew1HNbh9Kfi3GcOyIFbqmLO.jpg", "popularity": 1.571}], "total_pages": 1, "total_results": 2}, "credits": {"cast": [{"cast_id": 1, "character": "Bugs Bunny, Daffy Duck, Foghorn Leghorn, Pepe Le Pew", "credit_id": "55a8292ac3a3682ffc002258", "gender": 2, "id": 179896, "name": "Jeff Bergman", "order": 2, "profile_path": "/3FvOvLgYghma43cSSJBTlC95I8.jpg"}, {"cast_id": 2, "character": "Elmer Fudd", "credit_id": "55a8298292514125da001f1e", "gender": 2, "id": 23679, "name": "Billy West", "order": 3, "profile_path": "/9V9fsfmWjHEDbS8tB5EOdHkyMFg.jpg"}, {"cast_id": 5, "character": "Porky Pig", "credit_id": "55a92e2c9251411e06003869", "gender": 2, "id": 78317, "name": "Bob Bergen", "order": 4, "profile_path": "/nWFte3YPKGKEmj7n9embVttrxJ9.jpg"}, {"cast_id": 6, "character": "Speedy Gonzales", "credit_id": "55a92e4a92514172ef0019d9", "gender": 2, "id": 61110, "name": "Fred Armisen", "order": 5, "profile_path": "/nLMCRlt0MV2uu4KPbDPDNsPWfBG.jpg"}, {"cast_id": 7, "character": "Cecil the Turtle", "credit_id": "5be75776c3a368173a01b8a7", "gender": 2, "id": 161932, "name": "Jim Rash", "order": 6, "profile_path": "/cXat9HZ5ajQZsrAZ8xE4zIEVEcb.jpg"}, {"cast_id": 8, "character": "Lola Bunny", "credit_id": "5be757830e0a263bfc019d88", "gender": 1, "id": 1489852, "name": "Rachel Ramras", "order": 7, "profile_path": "/4BJkkzNRS577NfGUvGYW6jw7Oqm.jpg"}, {"cast_id": 9, "character": "Tosh Gopher / Pete Puma", "credit_id": "5be759230e0a263bf301a53d", "gender": 2, "id": 84495, "name": "Jess Harnell", "order": 8, "profile_path": "/zQ2zg7PL3ut4JhfXMKSRV4FMnxR.jpg"}, {"cast_id": 10, "character": "Yosemite Sam", "credit_id": "5be7593192514143f5018f57", "gender": 2, "id": 34521, "name": "Maurice LaMarche", "order": 9, "profile_path": "/zanuPXm0BYAsARbsrDMjLmct7Fq.jpg"}, {"cast_id": 11, "character": "Mac Gopher", "credit_id": "5be7594292514143f201a642", "gender": 2, "id": 43125, "name": "Rob Paulsen", "order": 10, "profile_path": "/hHgifZsqtTchMvpxGspoKGnqvmZ.jpg"}], "crew": [{"credit_id": "55a82cf3c3a3682d630002b3", "department": "Directing", "gender": 0, "id": 562307, "job": "Director", "name": "Jeff Siergey", "profile_path": null}, {"credit_id": "55a92addc3a3682ff6003a4b", "department": "Sound", "gender": 0, "id": 1464806, "job": "Music", "name": "Kevin Manthei", "profile_path": null}]}}