{"adult": false, "backdrop_path": "/gm4Tmlig67aAE0gvIa49RzoRegi.jpg", "belongs_to_collection": null, "budget": 0, "genres": [{"id": 12, "name": "Adventure"}, {"id": 28, "name": "Action"}, {"id": 53, "name": "Thriller"}], "homepage": null, "id": 34995, "imdb_id": "tt0340919", "original_language": "en", "original_title": "Puerto Vallarta Squeeze", "overview": "An American government hit man on the run makes a pact with two travelers to help him disappear in the Mexican jungle.", "popularity": 4.483, "poster_path": "/rJ3zgRdTU8BbAxWqd7JTUFyUQiQ.jpg", "production_companies": [{"id": 59398, "logo_path": null, "name": "Puerto Vallarta Squeeze Productions", "origin_country": ""}], "production_countries": [{"iso_3166_1": "US", "name": "United States of America"}, {"iso_3166_1": "MX", "name": "Mexico"}], "release_date": "2003-02-26", "revenue": 0, "runtime": 117, "spoken_languages": [], "status": "Released", "tagline": "", "title": "Puerto Vallarta Squeeze", "video": false, "vote_average": 4.4, "vote_count": 7, "keywords": {"keywords": [{"id": 534, "name": "mexico"}, {"id": 591, "name": "cia"}, {"id": 15127, "name": "killer"}]}, "similar": {"page": 1, "results": [{"id": 273481, "video": false, "vote_count": 4907, "vote_average": 7.3, "title": "Sicario", "release_date": "2015-09-17", "original_language": "en", "original_title": "Sicario", "genre_ids": [28, 80, 53], "backdrop_path": "/zAHozevwbbsB2epEVpCkzqVccWW.jpg", "adult": false, "overview": "An idealistic FBI agent is enlisted by a government task force to aid in the escalating war against drugs at the border area between the U.S. and Mexico.", "poster_path": "/p2SdfGmQRaw8xhFbexlHL7srMM8.jpg", "popularity": 29.022}, {"id": 254904, "video": false, "vote_count": 931, "vote_average": 6.1, "title": "The November Man", "release_date": "2014-08-27", "original_language": "en", "original_title": "The November Man", "genre_ids": [28, 80, 53], "backdrop_path": "/hSvpWAVXC781u5rOgI44799p2WL.jpg", "adult": false, "overview": "An ex- CIA operative is brought back in on a very personal mission and finds himself pitted against his former pupil in a deadly game involving high level CIA officials and the Russian president-elect.", "poster_path": "/lcg1bkriMVvc8m0jz5zk0yvzVTA.jpg", "popularity": 20.793}, {"id": 324668, "video": false, "vote_count": 3841, "vote_average": 6.2, "title": "Jason Bourne", "release_date": "2016-07-27", "original_language": "en", "original_title": "Jason Bourne", "genre_ids": [28, 53], "backdrop_path": "/dtFiuavnsnl0krJAeSmGAOFAhw2.jpg", "adult": false, "overview": "The most dangerous former operative of the CIA is drawn out of hiding to uncover hidden truths about his past.", "poster_path": "/lFSSLTlFozwpaGlO31OoUeirBgQ.jpg", "popularity": 21.184}, {"id": 228967, "video": false, "vote_count": 3855, "vote_average": 6.2, "title": "The Interview", "release_date": "2014-12-25", "original_language": "en", "original_title": "The Interview", "genre_ids": [28, 35], "backdrop_path": "/p5n7VTC6qmFIuBFjACWURYCAlKP.jpg", "adult": false, "overview": "Dave Skylark and his producer Aaron Rapaport run the celebrity tabloid show \"Skylark Tonight\". When they land an interview with a surprise fan, North Korean dictator Kim Jong-un, they are recruited by the CIA to turn their trip to Pyongyang into an assassination mission.", "poster_path": "/2uWb0aSm5cFmRCHP95OdA6hvTEs.jpg", "popularity": 16.829}, {"id": 245891, "video": false, "vote_count": 11528, "vote_average": 7.2, "title": "John Wick", "release_date": "2014-10-22", "original_language": "en", "original_title": "John Wick", "genre_ids": [28, 53], "backdrop_path": "/iJlGxN0p1suzloBGvvBu3QSSlhT.jpg", "adult": false, "overview": "Ex-hitman John Wick comes out of retirement to track down the gangsters that took everything from him.", "poster_path": "/5vHssUeVe25bMrof1HyaPyWgaP.jpg", "popularity": 71.02}, {"id": 238713, "video": false, "vote_count": 4195, "vote_average": 6.8, "title": "Spy", "release_date": "2015-05-06", "original_language": "en", "original_title": "Spy", "genre_ids": [28, 35, 80], "backdrop_path": "/x5F6AIyqCjRMwqmF8NR98kU4VzH.jpg", "adult": false, "overview": "A desk-bound CIA analyst volunteers to go undercover to infiltrate the world of a deadly arms dealer, and prevent diabolical global disaster.", "poster_path": "/gCBw0AQDhlo0bNetkjsSRWzrxpW.jpg", "popularity": 17.209}, {"id": 429351, "video": false, "vote_count": 1511, "vote_average": 5.8, "title": "12 Strong", "release_date": "2018-01-16", "original_language": "en", "original_title": "12 Strong", "genre_ids": [28, 18, 36, 10752], "backdrop_path": "/x5EUEv1N9g4BCX9GQXKvv3nqMVo.jpg", "adult": false, "overview": "A team of CIA agents and special forces head into Afghanistan in the aftermath of the September 11th attacks in an attempt to dismantle the Taliban.", "poster_path": "/j18021qCeRi3yUBtqd2UFj1c0RQ.jpg", "popularity": 20.439}, {"id": 956, "video": false, "vote_count": 3962, "vote_average": 6.6, "title": "Mission: Impossible III", "release_date": "2006-05-03", "original_language": "en", "original_title": "Mission: Impossible III", "genre_ids": [28, 12, 53], "backdrop_path": "/kOELgNnVt6EGCjtDXx85YUw6p8X.jpg", "adult": false, "overview": "Retired from active duty to train new IMF agents, Ethan Hunt is called back into action to confront sadistic arms dealer, Owen Davian. Hunt must try to protect his girlfriend while working with his new team to complete the mission.", "poster_path": "/qjy8ABAbWooV4jLG6UjzDHlv4RB.jpg", "popularity": 27.029}, {"id": 9792, "video": false, "vote_count": 1554, "vote_average": 6.3, "title": "The Hills Have Eyes", "release_date": "2006-03-10", "original_language": "en", "original_title": "The Hills Have Eyes", "genre_ids": [27, 53], "backdrop_path": "/7JmFtKtvgVD0zQ2xPQdUKtTXdeA.jpg", "adult": false, "overview": "Based on Wes Craven's 1977 suspenseful cult classic, The Hills Have Eyes is the story of a family road trip that goes terrifyingly awry when the travelers become stranded in a government atomic zone. Miles from nowhere, the Carter family soon realizes the seemingly uninhabited wasteland is actually the breeding ground of a blood-thirsty mutant family...and they are the prey.", "poster_path": "/hNuqY8h1oBGTnEQK75AH4IwuiPG.jpg", "popularity": 14.316}, {"adult": false, "backdrop_path": "/hb8brf5uYGt2t1qy33I5fHvmPkM.jpg", "genre_ids": [28], "id": 333669, "original_language": "en", "original_title": "Bastille Day", "overview": "Michael Mason is an American pickpocket living in Paris who finds himself hunted by the CIA when he steals a bag that contains more than just a wallet. Sean Briar, the field agent on the case, soon realises that Michael is just a pawn in a much bigger game and is also his best asset to uncover a large-scale conspiracy.", "poster_path": "/8QcOMU8vFSInSJ1kE7Naor7L2vM.jpg", "release_date": "2016-04-22", "title": "Bastille Day", "video": false, "vote_average": 6.1, "vote_count": 740, "popularity": 11.797}, {"id": 401981, "video": false, "vote_count": 3847, "vote_average": 6.5, "title": "Red Sparrow", "release_date": "2018-02-28", "original_language": "en", "original_title": "Red Sparrow", "genre_ids": [9648, 53], "backdrop_path": "/sGzuQYSTwJvLBc2PnuSVLHhuFeh.jpg", "adult": false, "overview": "Prima ballerina, Dominika Egorova faces a bleak and uncertain future after she suffers an injury that ends her career. She soon turns to Sparrow School, a secret intelligence service that trains exceptional young people to use their minds and bodies as weapons. Dominika emerges as the most dangerous Sparrow after completing the sadistic training process. As she comes to terms with her new abilities, she meets a CIA agent who tries to convince her that he is the only person she can trust.", "poster_path": "/vLCogyfQGxVLDC1gqUdNAIkc29L.jpg", "popularity": 28.222}, {"id": 373571, "video": false, "vote_count": 1966, "vote_average": 6.2, "title": "Godzilla: King of the Monsters", "release_date": "2019-05-29", "original_language": "en", "original_title": "Godzilla: King of the Monsters", "genre_ids": [28, 878], "backdrop_path": "/cNt14e43I2DDW6Xd9zFhrP8eOcA.jpg", "adult": false, "overview": "Follows the heroic efforts of the crypto-zoological agency Monarch as its members face off against a battery of god-sized monsters, including the mighty Godzilla, who collides with Mothra, Rodan, and his ultimate nemesis, the three-headed King Ghidorah. When these ancient super-species - thought to be mere myths - rise again, they all vie for supremacy, leaving humanity's very existence hanging in the balance.", "poster_path": "/fQ40gmFM4p03tXwMxQQKh2cCBW4.jpg", "popularity": 49.185}, {"id": 300671, "video": false, "vote_count": 1700, "vote_average": 7.1, "title": "13 Hours: The Secret Soldiers of Benghazi", "release_date": "2016-01-13", "original_language": "en", "original_title": "13 Hours: The Secret Soldiers of Benghazi", "genre_ids": [28, 18, 36, 53, 10752], "backdrop_path": "/hY8myWhjSOUeeiPskhOfwwgaCwc.jpg", "adult": false, "overview": "An American Ambassador is killed during an attack at a U.S. compound in Libya as a security team struggles to make sense out of the chaos.", "poster_path": "/4gpW4MkRI0BB17GHOJzXq0WamDP.jpg", "popularity": 21.078}, {"id": 400535, "video": false, "vote_count": 1615, "vote_average": 6.7, "title": "Sicario: Day of the Soldado", "release_date": "2018-06-27", "original_language": "en", "original_title": "Sicario: Day of the Soldado", "genre_ids": [28, 80, 18, 53], "backdrop_path": "/13VjjUeJ6mcDUB36XRu4YFpYNSm.jpg", "adult": false, "overview": "Agent Matt Graver teams up with operative Alejandro Gillick to prevent Mexican drug cartels from smuggling terrorists across the United States border.", "poster_path": "/msqWSQkU403cQKjQHnWLnugv7EY.jpg", "popularity": 29.236}, {"id": 39514, "video": false, "vote_count": 4480, "vote_average": 6.6, "title": "RED", "release_date": "2010-10-13", "original_language": "en", "original_title": "RED", "genre_ids": [28, 12, 35, 80, 53], "backdrop_path": "/1TFEtFxD1M9OvMGlGcSAR5Pg53I.jpg", "adult": false, "overview": "When his peaceful life is threatened by a high-tech assassin, former black-ops agent, Frank Moses reassembles his old team in a last ditch effort to survive and uncover his assailants.", "poster_path": "/q2mwTRKrq1etP9S4SZVDIJq0wI2.jpg", "popularity": 18.429}, {"id": 146216, "video": false, "vote_count": 2566, "vote_average": 6.5, "title": "RED 2", "release_date": "2013-07-18", "original_language": "en", "original_title": "RED 2", "genre_ids": [28, 35, 80, 53], "backdrop_path": "/iOkkgY4byK8MBoF3Mexybu22J1I.jpg", "adult": false, "overview": "Retired C.I.A. agent Frank Moses reunites his unlikely team of elite operatives for a global quest to track down a missing portable nuclear device.", "poster_path": "/dvWITvEzlq8IaUbxUuBVKvXqfo6.jpg", "popularity": 25.381}, {"adult": false, "backdrop_path": "/bvbyidkMaBls1LTaIWYY6UmYTaL.jpg", "genre_ids": [28, 878], "id": 336843, "original_language": "en", "original_title": "Maze Runner: The Death Cure", "overview": "Thomas leads his group of escaped Gladers on their final and most dangerous mission yet. To save their friends, they must break into the legendary Last City, a WCKD-controlled labyrinth that may turn out to be the deadliest maze of all. Anyone who makes it out alive will get answers to the questions the Gladers have been asking since they first arrived in the maze.", "poster_path": "/2zYfzA3TBwrMC8tfFbpiTLODde0.jpg", "release_date": "2018-01-10", "title": "Maze Runner: The Death Cure", "video": false, "vote_average": 7.0, "vote_count": 4393, "popularity": 24.242}, {"id": 390043, "video": false, "vote_count": 3453, "vote_average": 6.8, "title": "The Hitman's Bodyguard", "release_date": "2017-08-16", "original_language": "en", "original_title": "The Hitman's Bodyguard", "genre_ids": [28, 35], "backdrop_path": "/7KsqfXDECZMryX1Rv4RKsT7SIjQ.jpg", "adult": false, "overview": "The world top bodyguard gets a new client, a hit man who must testify at the International Court of Justice. They must put their differences aside and work together to make it to the trial on time.", "poster_path": "/5CGjlz2vyBhW5xHW4eNOZIdgzYq.jpg", "popularity": 28.459}, {"adult": false, "backdrop_path": "/6wBfey6EVR5qxYLB8pxoTVQYWkS.jpg", "genre_ids": [28, 80, 18, 53], "id": 1620, "original_language": "en", "original_title": "Hitman", "overview": "The best-selling videogame, Hitman, roars to life with both barrels blazing in this hardcore action-thriller starring Timothy Olyphant. A genetically engineered assassin with deadly aim, known only as \"Agent 47\" eliminates strategic targets for a top-secret organization. But when he's double-crossed, the hunter becomes the prey as 47 finds himself in a life-or-death game of international intrigue.", "poster_path": "/1U2FpMotSyaciATw5qfEsKdgpX4.jpg", "release_date": "2007-11-21", "title": "Hitman", "video": false, "vote_average": 5.9, "vote_count": 1866, "popularity": 17.671}, {"adult": false, "backdrop_path": "/3amJMLyjx0rDbwhnKNG8d6gzDSV.jpg", "genre_ids": [53, 18], "id": 296098, "original_language": "en", "original_title": "Bridge of Spies", "overview": "During the Cold War, the Soviet Union captures U.S. pilot Francis Gary Powers after shooting down his U-2 spy plane. Sentenced to 10 years in prison, Powers' only hope is New York lawyer James Donovan, recruited by a CIA operative to negotiate his release. Donovan boards a plane to Berlin, hoping to win the young man's freedom through a prisoner exchange. If all goes well, the Russians would get Rudolf Abel, the convicted spy who Donovan defended in court.", "poster_path": "/xPCNA8zJxyyFKTj47QpvkXHukzB.jpg", "release_date": "2015-10-15", "title": "Bridge of Spies", "video": false, "vote_average": 7.2, "vote_count": 4664, "popularity": 19.268}], "total_pages": 58, "total_results": 1159}, "recommendations": {"page": 1, "results": [{"adult": false, "backdrop_path": "/tWRquOHOmZqp0SOkUUVzVgVbhFn.jpg", "genre_ids": [10751], "id": 38802, "original_language": "en", "original_title": "For the Love of Benji", "overview": "Benji gets lost after a flight overseas and becomes a stray in Athens, Greece. He then tries everyday to reunite with his family while mysterious people pursue him, in a race to get a code which was secretly tattooed on his paw at the airport. But who are the bad guys and who are the agents that can be trusted? Will Benji and his kids and their nanny ever get to enjoy their vacation?", "poster_path": "/wxBPO6HuRjhlOITSmxWBa0TneeR.jpg", "release_date": "1977-06-10", "title": "For the Love of Benji", "video": false, "vote_average": 5.3, "vote_count": 19, "popularity": 3.41}], "total_pages": 1, "total_results": 1}, "credits": {"cast": [{"cast_id": 1, "character": "Clayton Price", "credit_id": "52fe45889251416c910359f3", "gender": 2, "id": 349, "name": "Scott Glenn", "order": 0, "profile_path": "/aKUJwCKhl4qCi7j7M7TRpqWLmmO.jpg"}, {"cast_id": 2, "character": "Walter McGrane", "credit_id": "52fe45889251416c910359f7", "gender": 2, "id": 1037, "name": "Harvey Keitel", "order": 1, "profile_path": "/f4fjeWB4TrT1gOOBGgFVe9otC0t.jpg"}, {"cast_id": 3, "character": "Danny Pastor", "credit_id": "52fe45889251416c910359fb", "gender": 2, "id": 62893, "name": "Craig Wasson", "order": 2, "profile_path": "/CFJk6sFA2iHwP0D6fXQQ0gYXLL.jpg"}, {"cast_id": 4, "character": "Maria de la Luz Santos", "credit_id": "52fe45889251416c910359ff", "gender": 1, "id": 18466, "name": "Giovanna Zacar\u00edas", "order": 3, "profile_path": "/dybEElN7ZkVsiyowe28XHrSfhlz.jpg"}, {"cast_id": 7, "character": "Neil Weatherford", "credit_id": "5c5246f692514154485d601e", "gender": 2, "id": 27773, "name": "Jonathan Brandis", "order": 4, "profile_path": "/dWKS1zkrHt1mtaTuAjQNr6nNnlb.jpg"}, {"cast_id": 8, "character": "Young Biker", "credit_id": "5c5247149251410e24633a4c", "gender": 2, "id": 1465158, "name": "Patrick David", "order": 5, "profile_path": null}, {"cast_id": 9, "character": "Surfer", "credit_id": "5c524739c3a36874b9860a4e", "gender": 0, "id": 2230790, "name": "Austin Miller", "order": 6, "profile_path": null}, {"cast_id": 10, "character": "Surfer", "credit_id": "5c52475792514151a95da672", "gender": 2, "id": 105191, "name": "Will Collyer", "order": 7, "profile_path": "/AiuAxh6IoFqLqHt2BNcYG4WzfH5.jpg"}, {"cast_id": 11, "character": "Surfer", "credit_id": "5c52476c0e0a2612ccd105ed", "gender": 0, "id": 1967471, "name": "David Brouwer", "order": 8, "profile_path": null}], "crew": [{"credit_id": "52fe45889251416c91035a0b", "department": "Writing", "gender": 0, "id": 10378, "job": "Writer", "name": "Robert James Waller", "profile_path": null}, {"credit_id": "5db2ce9c4b0c630017ea8030", "department": "Crew", "gender": 0, "id": 53897, "job": "Cinematography", "name": "Chuy Ch\u00e1vez", "profile_path": null}, {"credit_id": "52fe45889251416c91035a05", "department": "Directing", "gender": 2, "id": 41222, "job": "Director", "name": "Arthur Allan Seidelman", "profile_path": null}]}}