{"adult": false, "backdrop_path": null, "belongs_to_collection": null, "budget": 0, "genres": [{"id": 27, "name": "Horror"}, {"id": 18, "name": "Drama"}, {"id": 35, "name": "Comedy"}], "homepage": null, "id": 350083, "imdb_id": "tt3565472", "original_language": "en", "original_title": "The Nobodies", "overview": "In 1993, Alabama based amateur filmmaker Warren Werner shot his first feature film, Pumpkin, on VHS. With a budget of only $600, a cast of friends, family, and unknown talent, the movie premiered at the local civic center and generated an immediate backlash from the community. Rumors that Warren and his girlfriend Samantha Dixon engaged in Satanic rituals began to spread throughout town. In the months following the premiere, Warren and Samantha committed suicide. The following year, another group of filmmakers began shooting a documentary about the deaths of Warren and Samantha. The documentary project was never completed, and Pumpkin was never released. The Nobodies is Warren Werner's Pumpkin, in it's entirety, cut together with the remaining documentary footage of the director's life and death.", "popularity": 1.216, "poster_path": "/v9cIZVh2h8EvVN4Oa2vQ2gaw2pV.jpg", "production_companies": [], "production_countries": [{"iso_3166_1": "US", "name": "United States of America"}], "release_date": "2018-10-06", "revenue": 0, "runtime": 86, "spoken_languages": [{"iso_639_1": "en", "name": "English"}], "status": "Released", "tagline": "", "title": "The Nobodies", "video": false, "vote_average": 7.0, "vote_count": 2, "keywords": {"keywords": [{"id": 11800, "name": "mockumentary"}]}, "similar": {"page": 1, "results": [{"id": 50357, "video": false, "vote_count": 539, "vote_average": 5.0, "title": "Apollo 18", "release_date": "2011-07-20", "original_language": "en", "original_title": "Apollo 18", "genre_ids": [27, 878, 53], "backdrop_path": "/aHE8y4A4mlRCQbJ5oLbPkr5iznx.jpg", "adult": false, "overview": "Officially, Apollo 17 was the last manned mission to the moon. But a year later in 1973, three American astronauts were sent on a secret mission to the moon funded by the US Department of Defense. What you are about to see is the actual footage which the astronauts captured on that mission. While NASA denies it's authenticity, others say it's the real reason we've never gone back to the moon.", "poster_path": "/xmvkYqK28ds9JM4gyBJCSoYpm9T.jpg", "popularity": 13.079}, {"adult": false, "backdrop_path": null, "genre_ids": [53, 35], "id": 455130, "original_language": "en", "original_title": "Pizza Man", "overview": "A wannabe film director decides to create a documentary about his best friend's life as a pizza delivery man, but all ends up going wrong.", "poster_path": "/v2GcxOnmSexHhVXCwEt74wm5Xrg.jpg", "release_date": "2017-10-27", "title": "Pizza Man", "video": false, "vote_average": 0.0, "vote_count": 0, "popularity": 0.6}, {"adult": false, "backdrop_path": "/swXcukNqS52UffiBSrG0M1pm3t6.jpg", "genre_ids": [27, 18, 53], "id": 38358, "original_language": "en", "original_title": "The Last Exorcism", "overview": "After years of performing \u201cexorcisms\u201d and taking believers\u2019 money, Reverend Marcus travels to rural Louisiana with a film crew so he can dispel what he believes is the myth of demonic possession. The dynamic reverend is certain that this will be another routine \u201cexorcism\u201d on a disturbed religious fanatic but instead comes upon the blood-soaked farm of the Sweetzer family and a true evil he would have never thought imaginable.", "poster_path": "/iWPm2Xlc5arD0oRb18k6MurmqHD.jpg", "release_date": "2010-08-27", "title": "The Last Exorcism", "video": false, "vote_average": 5.5, "vote_count": 573, "popularity": 8.943}, {"adult": false, "backdrop_path": "/jTA2BLjQuX9OUZVs0EFtMvksTCy.jpg", "genre_ids": [27, 53], "id": 38410, "original_language": "en", "original_title": "The Poughkeepsie Tapes", "overview": "When hundreds of videotapes showing torture, murder and dismemberment are found in an abandoned house, they reveal a serial killer's decade-long reign of terror and become the most disturbing collection of evidence homicide detectives have ever seen.", "poster_path": "/8ppkhu3pO3fnXr05YeE7ryKloVd.jpg", "release_date": "2007-04-27", "title": "The Poughkeepsie Tapes", "video": false, "vote_average": 5.9, "vote_count": 154, "popularity": 7.128}, {"id": 153738, "video": false, "vote_count": 115, "vote_average": 5.7, "title": "Frankenstein's Army", "release_date": "2013-01-24", "original_language": "en", "original_title": "Frankenstein's Army", "genre_ids": [28, 27], "backdrop_path": "/nVt3ND2yyqhdTGRVzbnC74kQZui.jpg", "adult": false, "overview": "Toward the end of World War II, Russian soldiers pushing into eastern Germany stumble across a secret Nazi lab, one that has unearthed and begun experimenting with the journal of one Dr. Victor Frankenstein. The scientists have used the legendary Frankenstein's work to assemble an army of super-soldiers stitched together from the body parts of their fallen comrades -- a desperate Hitler's last ghastly ploy to escape defeat", "poster_path": "/AvTrBNQMwpl10I9eIbZ3GomuUC8.jpg", "popularity": 7.64}, {"adult": false, "backdrop_path": "/fNLVYtHuN3QsmG1B0F2xbFACwj7.jpg", "genre_ids": [27], "id": 134366, "original_language": "en", "original_title": "Grave Encounters 2", "overview": "Tortured by the ghosts of the demonized insane asylum that killed the crew of GRAVE ENCOUNTERS, film students fight to escape death as their own paranormal investigation goes terribly wrong in this horrifying sequel.", "poster_path": "/kzx8h6mDnFULOKHWbG9w5x58YU7.jpg", "release_date": "2012-10-12", "title": "Grave Encounters 2", "video": false, "vote_average": 5.4, "vote_count": 481, "popularity": 13.075}, {"adult": false, "backdrop_path": "/sLH1nd77Y6qjzXymhNOxsFBHWuF.jpg", "genre_ids": [35, 18], "id": 10608, "original_language": "en", "original_title": "Bob Roberts", "overview": "Mock documentary about an upstart candidate for the U.S. Senate written and directed by actor Tim Robbins. Bob Roberts is a folksinger with a difference: He offers tunes that protest welfare chiselers, liberal whining, and the like. As the filmmakers follow his campaign, Robbins gives needle-sharp insight into the way candidates manipulate the media.", "poster_path": "/gDJt4SGJQ0c2wCyDVghCRoRMxgo.jpg", "release_date": "1992-09-04", "title": "Bob Roberts", "video": false, "vote_average": 6.5, "vote_count": 81, "popularity": 6.73}, {"id": 46146, "video": false, "vote_count": 882, "vote_average": 6.7, "title": "Troll Hunter", "release_date": "2010-10-29", "original_language": "nb", "original_title": "Trolljegeren", "genre_ids": [14, 27], "backdrop_path": "/ruopuPKZZv7L5Wwgj9tt3Rm3gtG.jpg", "adult": false, "overview": "A group of students investigates a series of mysterious bear killings, but learns that there are much more dangerous things going on. They start to follow a mysterious hunter, learning that he is actually a troll hunter.", "poster_path": "/hee6nsDsmemyxpO26TZ7wiODnDO.jpg", "popularity": 10.534}, {"id": 76726, "video": false, "vote_count": 3331, "vote_average": 6.7, "title": "Chronicle", "release_date": "2012-02-01", "original_language": "en", "original_title": "Chronicle", "genre_ids": [18, 878, 53], "backdrop_path": "/f54d3tpzdRW02IDIIVRuwiY2N3K.jpg", "adult": false, "overview": "Three high school students make an incredible discovery, leading to their developing uncanny powers beyond their understanding. As they learn to control their abilities and use them to their advantage, their lives start to spin out of control, and their darker sides begin to take over.", "poster_path": "/kdyrdFIt29FUmLIKvedAc2j4rpo.jpg", "popularity": 16.937}, {"id": 298312, "video": false, "vote_count": 2924, "vote_average": 6.2, "title": "The Visit", "release_date": "2015-09-10", "original_language": "en", "original_title": "The Visit", "genre_ids": [27, 9648, 53], "backdrop_path": "/gbJlEeALVGo7kx8bC2q4EFWX1Xy.jpg", "adult": false, "overview": "The terrifying story of a brother and sister who are sent to their grandparents' remote Pennsylvania farm for a weeklong trip. Once the children discover that the elderly couple is involved in something deeply disturbing, they see their chances of getting back home are growing smaller every day.", "poster_path": "/32tNtTEQ1vIOLm1hEOSFkVwJT5D.jpg", "popularity": 24.632}, {"id": 23827, "video": false, "vote_count": 3072, "vote_average": 5.9, "title": "Paranormal Activity", "release_date": "2009-09-25", "original_language": "en", "original_title": "Paranormal Activity", "genre_ids": [27, 9648], "backdrop_path": "/sPaDUSuVQy1SL7ybnxilgWzLDAQ.jpg", "adult": false, "overview": "A young couple begins to film the strange activities occurring in their house nightly, and find that there's something lurking in the darkness.", "poster_path": "/ns7J1iMSDs5UkEVjMXLPiss7Lrt.jpg", "popularity": 16.504}, {"adult": false, "backdrop_path": "/hssIPFFMwOG2eDcQtfn39yzjXJ3.jpg", "genre_ids": [35, 10402], "id": 341012, "original_language": "en", "original_title": "Popstar: Never Stop Never Stopping", "overview": "When his new album fails to sell records, pop/rap superstar Conner4real goes into a major tailspin and watches his celebrity high life begin to collapse. He'll try anything to bounce back, anything except reuniting with his old rap group The Style Boyz.", "poster_path": "/m9k2MCvZJWkV5DfJY9fueeeqNxb.jpg", "release_date": "2016-06-03", "title": "Popstar: Never Stop Never Stopping", "video": false, "vote_average": 6.6, "vote_count": 756, "popularity": 14.929}, {"id": 8329, "video": false, "vote_count": 2246, "vote_average": 7.1, "title": "[REC]", "release_date": "2007-04-10", "original_language": "es", "original_title": "[REC]", "genre_ids": [27, 9648], "backdrop_path": "/qJjGPJSXtCMOvBLJwusTGkiboYZ.jpg", "adult": false, "overview": "A television reporter and cameraman follow emergency workers into a dark apartment building and are quickly locked inside with something terrifying.", "poster_path": "/hJx9gqUJgWXRkFpIbCcNYrkqAQX.jpg", "popularity": 15.123}, {"id": 13812, "video": false, "vote_count": 662, "vote_average": 5.7, "title": "Quarantine", "release_date": "2008-10-10", "original_language": "en", "original_title": "Quarantine", "genre_ids": [27, 878], "backdrop_path": "/mQXCYqGUPt4Ld6UX6uljM5azbGb.jpg", "adult": false, "overview": "A television reporter and her cameraman are trapped inside a building quarantined by the CDC after the outbreak of a mysterious virus which turns humans into bloodthirsty killers.", "poster_path": "/diJgLy6vSGbNYNW5jZ1YpX7PHJ4.jpg", "popularity": 14.424}, {"id": 11031, "video": false, "vote_count": 792, "vote_average": 7.6, "title": "This Is Spinal Tap", "release_date": "1984-05-04", "original_language": "en", "original_title": "This Is Spinal Tap", "genre_ids": [35, 10402], "backdrop_path": "/o21qmruJenPD9YunYFUxHnojKac.jpg", "adult": false, "overview": "\"This Is Spinal Tap\" shines a light on the self-contained universe of a metal band struggling to get back on the charts, including everything from its complicated history of ups and downs, gold albums, name changes and undersold concert dates, along with the full host of requisite groupies, promoters, hangers-on and historians, sessions, release events and those special behind-the-scenes moments that keep it all real.", "poster_path": "/2VDPeoPJ2bKdmfuJxxCktx1hr5g.jpg", "popularity": 14.483}, {"id": 256274, "video": false, "vote_count": 1452, "vote_average": 6.2, "title": "As Above, So Below", "release_date": "2014-08-14", "original_language": "en", "original_title": "As Above, So Below", "genre_ids": [27, 53], "backdrop_path": "/fXkTpGqBdznxDtwIusSTwDfG5qp.jpg", "adult": false, "overview": "When a team of explorers ventures into the catacombs that lie beneath the streets of Paris, they uncover the dark secret that lies within this city of the dead.", "poster_path": "/rXhroOVTfR4Dde7Vci2L3FVGAZh.jpg", "popularity": 15.584}, {"adult": false, "backdrop_path": "/4ATXApPvSNITStIfXB62OZ1NRtf.jpg", "genre_ids": [18, 53], "id": 26513, "original_language": "en", "original_title": "Punishment Park", "overview": "In this fictional documentary, U.S. prisons are at capacity, and President Nixon declares a state of emergency. All new prisoners, most of whom are connected to the antiwar movement, are now given the choice of jail time or spending three days in Punishment Park, where they will be hunted for sport by federal authorities. The prisoners invariably choose the latter option, but learn that, between the desert heat and the brutal police officers, their chances of survival are slim.", "poster_path": "/vPcRvFB0G1CIUMDRje6vdXmXpUn.jpg", "release_date": "1971-05-09", "title": "Punishment Park", "video": false, "vote_average": 7.6, "vote_count": 76, "popularity": 5.397}, {"id": 139038, "video": false, "vote_count": 966, "vote_average": 5.5, "title": "A Haunted House", "release_date": "2013-01-11", "original_language": "en", "original_title": "A Haunted House", "genre_ids": [35, 27], "backdrop_path": "/AbgdeWvmTv3UI2zknDWzKiuFwrU.jpg", "adult": false, "overview": "A spoof of all the \"found-footage/documentary style\" films released in recent years.", "poster_path": "/e2PehlDPj2WEeEuMVJZTOyTnZZZ.jpg", "popularity": 15.991}, {"adult": false, "backdrop_path": "/v6cvZfSAiUjvFVCCiaPNaZLA7gk.jpg", "genre_ids": [16, 35, 10751], "id": 9408, "original_language": "en", "original_title": "Surf's Up", "overview": "Cody is a surfing penguin from Shiverpool who dreams of making it big and being like his idol Big Z. On his journey, he discovers his talents are not all he thinks they are, and he must learn to accept that their is more to surfing than fame and fortune.", "poster_path": "/2Car4vWVDenBIMhfCjBvAHzameI.jpg", "release_date": "2007-06-08", "title": "Surf's Up", "video": false, "vote_average": 6.2, "vote_count": 1411, "popularity": 17.575}, {"id": 299245, "video": false, "vote_count": 650, "vote_average": 4.8, "title": "The Gallows", "release_date": "2015-07-10", "original_language": "en", "original_title": "The Gallows", "genre_ids": [27, 53], "backdrop_path": "/vt1eeVkxrpCWHeSFWl5GXGNghAJ.jpg", "adult": false, "overview": "20 years after a horrific accident during a small town school play, students at the school resurrect the failed show in a misguided attempt to honor the anniversary of the tragedy - but soon discover that some things are better left alone.", "poster_path": "/4oBk2DsYRO0VuloOX52ROmz2QhU.jpg", "popularity": 10.253}], "total_pages": 35, "total_results": 684}, "recommendations": {"page": 1, "results": [], "total_pages": 1, "total_results": 0}, "credits": {"cast": [{"cast_id": 0, "character": "Warren Werner", "credit_id": "57a8ce96c3a368234c008978", "gender": 0, "id": 1619662, "name": "Jay Burleson", "order": 1, "profile_path": null}, {"cast_id": 1, "character": "Johnny Knickerbocker", "credit_id": "57a8ceaa92514177500086dd", "gender": 2, "id": 98632, "name": "Lane Hughes", "order": 2, "profile_path": "/pfWAcOKgjNLp3bCriBZUPWDR2kT.jpg"}, {"cast_id": 2, "character": "Taboris DeWitt", "credit_id": "57a8cebac3a368365a00819d", "gender": 2, "id": 1663342, "name": "Bill Pacer", "order": 3, "profile_path": "/hY00PgFBO1a5BHw78bhJttq8Zph.jpg"}, {"cast_id": 7, "character": "Jake Horsee", "credit_id": "59793e42c3a36868310055db", "gender": 0, "id": 1858676, "name": "Bart Hyatt", "order": 4, "profile_path": null}, {"cast_id": 9, "character": "Detective Ace Bruno/Himself", "credit_id": "59793e7f92514107e3005b73", "gender": 0, "id": 1858678, "name": "Harold \"Henry\" Gilliland", "order": 6, "profile_path": null}, {"cast_id": 23, "character": "Dana DeWitt", "credit_id": "5ce5579d9251414a92bb1f3b", "gender": 0, "id": 98635, "name": "Hannah Hughes", "order": 7, "profile_path": "/6I2MhnI8QNFAygIAQHg0aWBHvSP.jpg"}, {"cast_id": 24, "character": "Jackie Lantern", "credit_id": "5ce557aa0e0a265256d33c1a", "gender": 0, "id": 2318784, "name": "Dick Tait", "order": 8, "profile_path": null}, {"cast_id": 25, "character": "", "credit_id": "5ce557b39251414902bb40d0", "gender": 0, "id": 1074187, "name": "Danny Vinson", "order": 9, "profile_path": "/fC22x309u5VqduxcExBZvjez8qR.jpg"}, {"cast_id": 26, "character": "", "credit_id": "5ce557bac3a36863a820dc5a", "gender": 1, "id": 1717236, "name": "Neva Howell", "order": 10, "profile_path": "/vNbRhSaDtuQ5AMhWa3s3R2Mihgs.jpg"}, {"cast_id": 27, "character": "Debbie Belue / Bobo the Clown / Herself", "credit_id": "5ce557cac3a368652b2130cc", "gender": 0, "id": 1719030, "name": "LaDonna Allison", "order": 11, "profile_path": null}, {"cast_id": 28, "character": "", "credit_id": "5ce557d2c3a3686a1c21116c", "gender": 0, "id": 2318786, "name": "Zach Harding", "order": 12, "profile_path": null}, {"cast_id": 29, "character": "News Reporter", "credit_id": "5ce557e70e0a265256d33c88", "gender": 0, "id": 2286232, "name": "Tom Hagale", "order": 13, "profile_path": null}, {"cast_id": 30, "character": "News Anchor", "credit_id": "5ce557f3c3a368536b1f0358", "gender": 2, "id": 2234736, "name": "Robert W. Hill", "order": 14, "profile_path": "/67yQ4LU0JUZMeINcR542nRssDOJ.jpg"}], "crew": [{"credit_id": "5ce557010e0a265779ccfe24", "department": "Sound", "gender": 2, "id": 98632, "job": "Original Music Composer", "name": "Lane Hughes", "profile_path": "/pfWAcOKgjNLp3bCriBZUPWDR2kT.jpg"}, {"credit_id": "5ce556db0e0a265256d33a83", "department": "Production", "gender": 2, "id": 98632, "job": "Executive Producer", "name": "Lane Hughes", "profile_path": "/pfWAcOKgjNLp3bCriBZUPWDR2kT.jpg"}, {"credit_id": "5ce556f60e0a262573cce3ec", "department": "Sound", "gender": 0, "id": 1373986, "job": "Original Music Composer", "name": "Rusty Apper", "profile_path": null}, {"credit_id": "5ce5570b9251414902bb3fdf", "department": "Sound", "gender": 0, "id": 1412889, "job": "Original Music Composer", "name": "Jasper Lee", "profile_path": null}, {"credit_id": "57a8cf0ec3a36826e9007e20", "department": "Directing", "gender": 0, "id": 1619662, "job": "Director", "name": "Jay Burleson", "profile_path": null}, {"credit_id": "57a8cf32c3a368234c008a02", "department": "Editing", "gender": 0, "id": 1619662, "job": "Editor", "name": "Jay Burleson", "profile_path": null}, {"credit_id": "5ce556cdc3a368536b1f012d", "department": "Production", "gender": 0, "id": 1619662, "job": "Executive Producer", "name": "Jay Burleson", "profile_path": null}, {"credit_id": "5ce5573f9251414aefbb1f08", "department": "Camera", "gender": 0, "id": 1619662, "job": "Camera Operator", "name": "Jay Burleson", "profile_path": null}, {"credit_id": "57a8cf18c3a368274b0077fc", "department": "Writing", "gender": 0, "id": 1619662, "job": "Writer", "name": "Jay Burleson", "profile_path": null}, {"credit_id": "57a8cf2ac3a36826170081e7", "department": "Crew", "gender": 0, "id": 1619662, "job": "Cinematography", "name": "Jay Burleson", "profile_path": null}, {"credit_id": "5ce556e9c3a3686494210df2", "department": "Production", "gender": 0, "id": 2318778, "job": "Executive Producer", "name": "Andrew Wasserburger", "profile_path": null}, {"credit_id": "5ce557280e0a265256d33b70", "department": "Crew", "gender": 0, "id": 2318780, "job": "Special Effects", "name": "Matthew Penn", "profile_path": null}, {"credit_id": "5ce557339251414923bb2b2f", "department": "Crew", "gender": 0, "id": 2318781, "job": "Special Effects", "name": "Kevin Tucker", "profile_path": null}, {"credit_id": "5ce55751c3a3686494210e44", "department": "Camera", "gender": 0, "id": 2318782, "job": "Camera Operator", "name": "Ryan Sims", "profile_path": null}]}}