{"adult": false, "backdrop_path": "/dIH94J7DYNM194VBOPxeQLI3CAI.jpg", "belongs_to_collection": null, "budget": 0, "genres": [{"id": 28, "name": "Action"}, {"id": 35, "name": "Comedy"}, {"id": 12, "name": "Adventure"}, {"id": 53, "name": "Thriller"}, {"id": 27, "name": "Horror"}], "homepage": "http://www.bachelorgamesmovie.com", "id": 351067, "imdb_id": "tt2190451", "original_language": "en", "original_title": "Bachelor Games", "overview": "Five British friends head to the Andes for a stag weekend. Of course, they\u2019re unprepared, get lost \u2013 and inevitably ignore all warnings about the sinister local legend of the \u2018The Hunter\u2019.", "popularity": 3.983, "poster_path": "/geVam6w0j5Jn7zkneJa3xyiZXOd.jpg", "production_companies": [{"id": 58996, "logo_path": null, "name": "Strike Films", "origin_country": ""}, {"id": 58997, "logo_path": null, "name": "Lex Filmed Entertainment", "origin_country": ""}], "production_countries": [{"iso_3166_1": "AR", "name": "Argentina"}, {"iso_3166_1": "GB", "name": "United Kingdom"}], "release_date": "2016-07-08", "revenue": 0, "runtime": 86, "spoken_languages": [{"iso_639_1": "en", "name": "English"}], "status": "Released", "tagline": "Best Man? Check. Groomsmen? Check. Serial Killer? Check.", "title": "Bachelor Games", "video": false, "vote_average": 4.7, "vote_count": 7, "keywords": {"keywords": [{"id": 5827, "name": "hiking"}, {"id": 8070, "name": "stag night"}, {"id": 9748, "name": "revenge"}, {"id": 10596, "name": "argentina"}, {"id": 11461, "name": "hangover"}]}, "similar": {"page": 1, "results": [{"adult": false, "backdrop_path": "/a24i4Qw6qFTtkFLQsncv8WPwevj.jpg", "genre_ids": [53, 28, 80], "id": 345887, "original_language": "en", "original_title": "The Equalizer 2", "overview": "Robert McCall, who serves an unflinching justice for the exploited and oppressed, embarks on a relentless, globe-trotting quest for vengeance when a long-time girl friend is murdered.", "poster_path": "/cQvc9N6JiMVKqol3wcYrGshsIdZ.jpg", "release_date": "2018-07-19", "title": "The Equalizer 2", "video": false, "vote_average": 6.5, "vote_count": 2483, "popularity": 21.271}, {"adult": false, "backdrop_path": "/pA64Ov7lDpwXBu33yq0KpmAOYJL.jpg", "genre_ids": [27, 53], "id": 357096, "original_language": "en", "original_title": "I Spit on Your Grave III: Vengeance is Mine", "overview": "Jennifer Hills is still tormented by the brutal sexual assault she endured years ago. She\u2019s changed identities and cities, reluctantly joining a support group where she begins to piece together a new life. But when her new friend\u2019s murderer goes free and the tales of serial rapists haunt her, Jennifer will hunt down the men responsible and do what the system won\u2019t \u2013 make them pay for their crimes in the most horrific ways imaginable. Only this time, no jury may be able to save her.", "poster_path": "/6SnOlgrUoC5jqmgcYIM5lde5zYq.jpg", "release_date": "2015-10-01", "title": "I Spit on Your Grave III: Vengeance is Mine", "video": false, "vote_average": 5.3, "vote_count": 437, "popularity": 20.815}, {"adult": false, "backdrop_path": "/2BLk25CMNl22IHqVJSAu3nkWoUj.jpg", "genre_ids": [28, 80, 53], "id": 26789, "original_language": "en", "original_title": "No Mercy", "overview": "An unconventional undercover Chicago cop and his partner are recruited to commit the murder of a New Orleans criminal kingpin.", "poster_path": "/iQozlPXgadwTvymHWH1mPWzM80a.jpg", "release_date": "1986-12-19", "title": "No Mercy", "video": false, "vote_average": 5.8, "vote_count": 71, "popularity": 9.238}, {"adult": false, "backdrop_path": "/zWGAnbxjjwY3xFGuOeR26LGbBlG.jpg", "genre_ids": [27, 53], "id": 238636, "original_language": "en", "original_title": "The Purge: Anarchy", "overview": "One night per year, the government sanctions a 12-hour period in which citizens can commit any crime they wish -- including murder -- without fear of punishment or imprisonment. Leo, a sergeant who lost his son, plans a vigilante mission of revenge during the mayhem. However, instead of a death-dealing avenger, he becomes the unexpected protector of four innocent strangers who desperately need his help if they are to survive the night.", "poster_path": "/l1DRl40x2OWUoPP42v8fjKdS1Z3.jpg", "release_date": "2014-07-17", "title": "The Purge: Anarchy", "video": false, "vote_average": 6.6, "vote_count": 4145, "popularity": 36.766}, {"id": 156022, "video": false, "vote_count": 5468, "vote_average": 7.2, "title": "The Equalizer", "release_date": "2014-09-24", "original_language": "en", "original_title": "The Equalizer", "genre_ids": [28, 80, 53], "backdrop_path": "/vbl4ZVqelrrzJ16fdDOq9siWbpi.jpg", "adult": false, "overview": "McCall believes he has put his mysterious past behind him and dedicated himself to beginning a new, quiet life. But when he meets Teri, a young girl under the control of ultra-violent Russian gangsters, he can\u2019t stand idly by \u2013 he has to help her. Armed with hidden skills that allow him to serve vengeance against anyone who would brutalize the helpless, McCall comes out of his self-imposed retirement and finds his desire for justice reawakened. If someone has a problem, if the odds are stacked against them, if they have nowhere else to turn, McCall will help. He is The Equalizer.", "poster_path": "/2eQfjqlvPAxd9aLDs8DvsKLnfed.jpg", "popularity": 39.578}, {"adult": false, "backdrop_path": "/19qAk3bQZ6ulspbwhPw1A0bNpii.jpg", "genre_ids": [80, 27, 53], "id": 73861, "original_language": "sr", "original_title": "Srpski film", "overview": "Milos, a retired porn star, leads a normal family life trying to make ends meet. Presented with the opportunity of a lifetime to financially support his family for the rest of their lives, Milos must participate in one last mysterious film. From then on, Milos is drawn into a maelstrom of unbelievable cruelty and mayhem.", "poster_path": "/iB3ynCghwG63MrViBC6YyPzUIAn.jpg", "release_date": "2010-06-16", "title": "A Serbian Film", "video": false, "vote_average": 5.5, "vote_count": 898, "popularity": 16.013}, {"id": 458594, "video": false, "vote_count": 983, "vote_average": 6.5, "title": "Peppermint", "release_date": "2018-09-06", "original_language": "en", "original_title": "Peppermint", "genre_ids": [28, 53], "backdrop_path": "/9krZX6T4EEs5eFpXgSi8jZkN48O.jpg", "adult": false, "overview": "A grieving mother transforms herself into a vigilante following the murders of her husband and daughter, eluding the authorities to deliver her own personal brand of justice.", "poster_path": "/jrzxS0vcbzIIay1sdYm0rgI2QfJ.jpg", "popularity": 18.265}, {"adult": false, "backdrop_path": "/kiWvoV78Cc3fUwkOHKzyBgVdrDD.jpg", "genre_ids": [37, 18, 12], "id": 281957, "original_language": "en", "original_title": "The Revenant", "overview": "In the 1820s, a frontiersman, Hugh Glass, sets out on a path of vengeance against those who left him for dead after a bear mauling.", "poster_path": "/oXUWEc5i3wYyFnL1Ycu8ppxxPvs.jpg", "release_date": "2015-12-25", "title": "The Revenant", "video": false, "vote_average": 7.5, "vote_count": 12127, "popularity": 24.135}, {"adult": false, "backdrop_path": "/ct2r3CqnA0KtMfib4AvfBU1W9M2.jpg", "genre_ids": [28, 80, 53], "id": 398175, "original_language": "en", "original_title": "Brawl in Cell Block 99", "overview": "After working as a drug courier and getting into a brutal shootout with police, a former boxer finds himself at the mercy of his enemies as they force him to instigate violent acts that turn the prison he resides in into a battleground.", "poster_path": "/lGgIQ10NJ3d0X0uFbbUN4pRrMFZ.jpg", "release_date": "2017-09-23", "title": "Brawl in Cell Block 99", "video": false, "vote_average": 6.8, "vote_count": 605, "popularity": 13.011}, {"adult": false, "backdrop_path": "/brZ6uY49Htby7zzLB40IXhfbwH2.jpg", "genre_ids": [28, 53], "id": 467938, "original_language": "fr", "original_title": "Revenge", "overview": "Jen's romantic getaway with her wealthy (married) boyfriend is disrupted when his friends arrive for an impromptu hunting trip. Tension mounts at the house until the situation culminates in an unexpected way.", "poster_path": "/lDjY67pqcIoQCe0kK91TVgL14om.jpg", "release_date": "2018-02-07", "title": "Revenge", "video": false, "vote_average": 6.3, "vote_count": 850, "popularity": 15.837}, {"id": 37645, "video": false, "vote_count": 575, "vote_average": 6.5, "title": "22 Bullets", "release_date": "2010-03-23", "original_language": "fr", "original_title": "L'Immortel", "genre_ids": [28, 80, 53], "backdrop_path": "/mU8zfCOTbahNGH0ZBTCuNdX16gj.jpg", "adult": false, "overview": "Charly Mattei\u0308 has turned his back on his life as an outlaw. For the last three years, he's led a peaceful life devoting himself to his wife and two children. Then, one winter morning, he's left for dead in the parking garage in Marseille's Old Port, with 22 bullets in his body. Against all the odds, he doesn't die...", "poster_path": "/wTYZjPq4YA2wC99MdHZTFQuxFpd.jpg", "popularity": 12.785}, {"adult": false, "backdrop_path": "/7Z9OmWJszjjvjh5N2Mv14uYmLoC.jpg", "genre_ids": [80, 53, 27, 18], "id": 18405, "original_language": "en", "original_title": "The Last House on the Left", "overview": "A group of teenage girls heading into the city hook up with a gang of drug-addled ne'er-do-wells and are brutally murdered. The killers find their way to the home of one of their victim's parents, where both father and mother exact a horrible revenge.", "poster_path": "/tpjP9MLDRq6aC1MTpFcJEOYOGtj.jpg", "release_date": "2009-03-13", "title": "The Last House on the Left", "video": false, "vote_average": 6.4, "vote_count": 901, "popularity": 17.245}, {"id": 25941, "video": false, "vote_count": 550, "vote_average": 6.8, "title": "Harry Brown", "release_date": "2009-11-11", "original_language": "en", "original_title": "Harry Brown", "genre_ids": [28, 80, 18, 53], "backdrop_path": "/szj3uqOGDu8Uwvwo0Si42BCxI04.jpg", "adult": false, "overview": "An elderly ex-serviceman and widower looks to avenge his best friend's murder by doling out his own form of justice.", "poster_path": "/68V1ClrCT7ik7UDiAkIDliRaAXf.jpg", "popularity": 10.372}, {"id": 14373, "video": false, "vote_count": 182, "vote_average": 6.1, "title": "Death Wish II", "release_date": "1982-02-20", "original_language": "en", "original_title": "Death Wish II", "genre_ids": [28, 80, 53], "backdrop_path": "/tunPGpLoGhECru6pxVEaQsn9Ffj.jpg", "adult": false, "overview": "Paul Kersey is again a vigilante trying to find five punks who murdered his housekeeper and daughter in Los Angeles.", "poster_path": "/2HCtaAqI7Jw9FzxRImG35gsNNZC.jpg", "popularity": 13.322}, {"id": 6312, "video": false, "vote_count": 767, "vote_average": 6.6, "title": "Brotherhood of the Wolf", "release_date": "2001-01-31", "original_language": "fr", "original_title": "Le Pacte des loups", "genre_ids": [28, 12, 36, 27], "backdrop_path": "/l0GhQUGBjNxCA1kdDWaTPgsgNxF.jpg", "adult": false, "overview": "In 18th century France, the Chevalier de Fronsac and his Native American friend Mani are sent by the King to the Gevaudan province to investigate the killings of hundreds by a mysterious beast.", "poster_path": "/4jDtKADOlvE2HyqKAFvzvYFwKdy.jpg", "popularity": 12.846}, {"id": 400090, "video": false, "vote_count": 106, "vote_average": 7.3, "title": "The Nightingale", "release_date": "2019-08-02", "original_language": "en", "original_title": "The Nightingale", "genre_ids": [12, 18, 53], "backdrop_path": "/bwsANtJNaA5xDmxPp6z2JqEtfCI.jpg", "adult": false, "overview": "In 1825, Claire, a 21-year-old Irish convict, chases a British soldier through the rugged Tasmanian wilderness, bent on revenge for a terrible act of violence he committed against her family. She enlists the services of an Aboriginal tracker who is also marked by trauma from his own violence-filled past.", "poster_path": "/hWA8QwSM1kJYMoTANEPoqrqBapg.jpg", "popularity": 14.654}, {"id": 395834, "video": false, "vote_count": 2755, "vote_average": 7.4, "title": "Wind River", "release_date": "2017-08-03", "original_language": "en", "original_title": "Wind River", "genre_ids": [80, 18, 9648, 53], "backdrop_path": "/6B8e784decj9vtKuNjbl9Fes2aZ.jpg", "adult": false, "overview": "An FBI agent teams with the town's veteran game tracker to investigate a murder that occurred on a Native American reservation.", "poster_path": "/pySivdR845Hom4u4T2WNkJxe6Ad.jpg", "popularity": 16.931}, {"id": 260346, "video": false, "vote_count": 3704, "vote_average": 6.2, "title": "Taken 3", "release_date": "2014-12-16", "original_language": "en", "original_title": "Taken 3", "genre_ids": [28, 53], "backdrop_path": "/cU6R5EgOEmiIVKommjnU89hsvcD.jpg", "adult": false, "overview": "Ex-government operative Bryan Mills finds his life is shattered when he's falsely accused of a murder that hits close to home. As he's pursued by a savvy police inspector, Mills employs his particular set of skills to track the real killer and exact his unique brand of justice.", "poster_path": "/ikDwR3i2bczqnRf1urJTy77YTFf.jpg", "popularity": 34.357}, {"adult": false, "backdrop_path": "/rSf0RYkPiMo9TyjHs2vI8rHlmfF.jpg", "genre_ids": [28, 18, 53], "id": 241554, "original_language": "en", "original_title": "Run All Night", "overview": "Brooklyn mobster and prolific hit man Jimmy Conlon has seen better days. Longtime best friend of a mob boss, Jimmy is haunted by the sins of his past\u2014as well as a dogged police detective who\u2019s been one step behind Jimmy for 30 years. But when Jimmy\u2019s estranged son becomes a target, Jimmy must make a choice between the crime family he chose and the real family he abandoned long ago. Now, with nowhere safe to turn, Jimmy has just one night to figure out exactly where his loyalties lie and to see if he can finally make things right.", "poster_path": "/aqNJrAxudMRNo8jg3HOUQqdl2xr.jpg", "release_date": "2015-03-11", "title": "Run All Night", "video": false, "vote_average": 6.4, "vote_count": 1821, "popularity": 23.621}, {"id": 245891, "video": false, "vote_count": 11535, "vote_average": 7.2, "title": "John Wick", "release_date": "2014-10-22", "original_language": "en", "original_title": "John Wick", "genre_ids": [28, 53], "backdrop_path": "/iJlGxN0p1suzloBGvvBu3QSSlhT.jpg", "adult": false, "overview": "Ex-hitman John Wick comes out of retirement to track down the gangsters that took everything from him.", "poster_path": "/5vHssUeVe25bMrof1HyaPyWgaP.jpg", "popularity": 63.785}], "total_pages": 327, "total_results": 6521}, "recommendations": {"page": 1, "results": [], "total_pages": 1, "total_results": 0}, "credits": {"cast": [{"cast_id": 3, "character": "Leon", "credit_id": "55b07d479251411e0b00d9cb", "gender": 2, "id": 84221, "name": "Charlie Bewley", "order": 1, "profile_path": "/3uiZaU1NwEPNmiAZT2vJM7EeXvb.jpg"}, {"cast_id": 4, "character": "Henry", "credit_id": "55b07d59c3a368648e00c360", "gender": 2, "id": 97505, "name": "Jack Gordon", "order": 2, "profile_path": "/zduhNE96VVFpAJX9Xa4xLbHxPlA.jpg"}, {"cast_id": 5, "character": "Terence", "credit_id": "55b07d66c3a3682ff400f8d8", "gender": 2, "id": 116265, "name": "Jack Doolan", "order": 3, "profile_path": "/d8z510pEuAkZv44sOd6F7PpZaRH.jpg"}, {"cast_id": 6, "character": "Max", "credit_id": "55b07d739251411e1400de69", "gender": 0, "id": 1459245, "name": "Obi Abili", "order": 4, "profile_path": "/s53vGPEyzaCZgKKrVNpynG6h9Iz.jpg"}, {"cast_id": 7, "character": "Roy", "credit_id": "55b07d859251411e1100dfd8", "gender": 2, "id": 1218392, "name": "Mike Noble", "order": 5, "profile_path": "/alhtKG6z39V4SKwvrKO7KktAwz3.jpg"}, {"cast_id": 8, "character": "", "credit_id": "55b07d9fc3a368648e00c36b", "gender": 0, "id": 1489621, "name": "Daniel El\u00edas", "order": 6, "profile_path": null}], "crew": [{"credit_id": "55b079ff9251411e1400de06", "department": "Directing", "gender": 0, "id": 1489615, "job": "Director", "name": "Edward McGown", "profile_path": null}, {"credit_id": "55b07a24c3a3687265007811", "department": "Writing", "gender": 2, "id": 1403768, "job": "Writer", "name": "Chris Hill", "profile_path": "/TsDjaoHnbltyGX5RSsMu1Xjbtc.jpg"}, {"credit_id": "55b07a41c3a368648e00c300", "department": "Writing", "gender": 0, "id": 99699, "job": "Writer", "name": "Michelle Samford", "profile_path": null}, {"credit_id": "55b07e9ac3a368648e00c390", "department": "Production", "gender": 2, "id": 81828, "job": "Casting", "name": "Manuel Puro", "profile_path": null}, {"credit_id": "55b07ebc9251411e0b00d9f2", "department": "Art", "gender": 0, "id": 1489622, "job": "Production Design", "name": "Sebastian Beretta", "profile_path": null}, {"credit_id": "55b07f0c92514125da00d9db", "department": "Art", "gender": 0, "id": 1489623, "job": "Art Direction", "name": "Juan Pedro Valle", "profile_path": null}, {"credit_id": "55b07f34c3a3682ff900cc6d", "department": "Costume & Make-Up", "gender": 0, "id": 1340718, "job": "Costume Design", "name": "Florence Chow", "profile_path": null}, {"credit_id": "55b07f599251411e0b00da08", "department": "Costume & Make-Up", "gender": 1, "id": 1489624, "job": "Makeup Department Head", "name": "Franca Gallo", "profile_path": null}, {"credit_id": "55b07f9e9251411e1100e019", "department": "Crew", "gender": 2, "id": 1489626, "job": "Special Effects", "name": "Franco Burattini", "profile_path": null}, {"credit_id": "55b07fc49251411e0600dab8", "department": "Crew", "gender": 1, "id": 1489624, "job": "Special Effects", "name": "Franca Gallo", "profile_path": null}, {"credit_id": "55b07ff5c3a3682d6300acd0", "department": "Crew", "gender": 0, "id": 1489631, "job": "Special Effects", "name": "Rodrigo Guerechit", "profile_path": null}, {"credit_id": "55b0803b92514125da00da17", "department": "Visual Effects", "gender": 0, "id": 141357, "job": "Visual Effects Supervisor", "name": "Mark Nelmes", "profile_path": null}, {"credit_id": "55b080859251411e0b00da35", "department": "Production", "gender": 0, "id": 131536, "job": "Executive Producer", "name": "Tracey Adam", "profile_path": null}, {"credit_id": "55b080a1c3a368300200d97b", "department": "Production", "gender": 0, "id": 1489632, "job": "Executive Producer", "name": "Sascha Hecks", "profile_path": null}, {"credit_id": "55b080cb9251411e1400dee1", "department": "Production", "gender": 0, "id": 1489633, "job": "Producer", "name": "Georgina Edwards", "profile_path": null}, {"credit_id": "58a209fd92514161da0002dc", "department": "Camera", "gender": 2, "id": 68145, "job": "Director of Photography", "name": "Lucio Bonelli", "profile_path": null}, {"credit_id": "58a20a0cc3a3681d480002f3", "department": "Sound", "gender": 2, "id": 558, "job": "Original Music Composer", "name": "David Julyan", "profile_path": null}]}}