{"adult": false, "backdrop_path": null, "belongs_to_collection": null, "budget": 0, "genres": [{"id": 53, "name": "Thriller"}, {"id": 80, "name": "Crime"}, {"id": 27, "name": "Horror"}], "homepage": null, "id": 351187, "imdb_id": "tt1461397", "original_language": "en", "original_title": "Knifepoint", "overview": "On Christmas Eve, two sisters sharing a Venice apartment discover their home is the final target of a brutal gang of criminals led by Jess and his sadistic sister Lorraine.", "popularity": 1.348, "poster_path": "/rRWxRFPGqF3jpHH09JSXv16rOSu.jpg", "production_companies": [{"id": 59032, "logo_path": null, "name": "Knifepoint", "origin_country": ""}], "production_countries": [{"iso_3166_1": "US", "name": "United States of America"}], "release_date": "2011-07-16", "revenue": 0, "runtime": 83, "spoken_languages": [{"iso_639_1": "en", "name": "English"}], "status": "Released", "tagline": "The human body contains six quarts of blood. Prepare to see every drop.", "title": "Knifepoint", "video": false, "vote_average": 6.5, "vote_count": 2, "keywords": {"keywords": [{"id": 14903, "name": "home invasion"}, {"id": 207317, "name": "christmas"}]}, "similar": {"page": 1, "results": [{"id": 11395, "video": false, "vote_count": 1133, "vote_average": 6.3, "title": "The Santa Clause", "release_date": "1994-11-10", "original_language": "en", "original_title": "The Santa Clause", "genre_ids": [35, 18, 14, 10751], "backdrop_path": "/rcQZmnhcb6P4mkgJAHnCYp3c1gp.jpg", "adult": false, "overview": "Scott Calvin is an ordinary man, who accidentally causes Santa Claus to fall from his roof on Christmas Eve and is knocked unconscious. When he and his young son finish Santa's trip and deliveries, they go to the North Pole, where Scott learns he must become the new Santa and convince those he loves that he is indeed, Father Christmas.", "poster_path": "/4LtaCHxAwfrXNhujGsNQpLbs8wr.jpg", "popularity": 14.808}, {"id": 772, "video": false, "vote_count": 5556, "vote_average": 6.5, "title": "Home Alone 2: Lost in New York", "release_date": "1992-11-19", "original_language": "en", "original_title": "Home Alone 2: Lost in New York", "genre_ids": [12, 35, 80, 10751], "backdrop_path": "/1uHTuwx5h9T3XzsXijMMKybDFvZ.jpg", "adult": false, "overview": "Instead of flying to Florida with his folks, Kevin ends up alone in New York, where he gets a hotel room with his dad's credit card\u2014despite problems from a clerk and meddling bellboy. But when Kevin runs into his old nemeses, the Wet Bandits, he's determined to foil their plans to rob a toy store on Christmas eve.", "poster_path": "/ezGcLFTvwR64I3Z7RqHnXRFet4r.jpg", "popularity": 28.414}, {"id": 287903, "video": false, "vote_count": 1172, "vote_average": 6.0, "title": "Krampus", "release_date": "2015-11-26", "original_language": "en", "original_title": "Krampus", "genre_ids": [35, 14, 27], "backdrop_path": "/5GsJuYZuG1bkuSI8FeWol5nvR9S.jpg", "adult": false, "overview": "A horror comedy based on the ancient legend about a pagan creature who punishes children on Christmas.", "poster_path": "/27SiV4EBHcTBMz4IKANjhX5iIoX.jpg", "popularity": 11.495}, {"adult": false, "backdrop_path": "/xZKE444VlbDzyJhLOybfunAmvFz.jpg", "genre_ids": [18, 35, 80], "id": 10147, "original_language": "en", "original_title": "Bad Santa", "overview": "A miserable conman and his partner pose as Santa and his Little Helper to rob department stores on Christmas Eve. But they run into problems when the conman befriends a troubled kid, and the security boss discovers the plot.", "poster_path": "/103KNOz11U4iojwW6F1rOKKZIDp.jpg", "release_date": "2003-11-26", "title": "Bad Santa", "video": false, "vote_average": 6.5, "vote_count": 1260, "popularity": 14.937}, {"id": 5375, "video": false, "vote_count": 486, "vote_average": 5.6, "title": "Fred Claus", "release_date": "2007-11-03", "original_language": "en", "original_title": "Fred Claus", "genre_ids": [28, 35, 18], "backdrop_path": "/r0jEOEzIJFdyaxVa7bsFocUuQ1t.jpg", "adult": false, "overview": "Fred Claus and Santa Claus have been estranged brothers for many years. Now Fred must reconcile his differences with his brother whom he believes overshadows him. When an efficiency expert assesses the workings at the North Pole and threatens to shut Santa down, Fred must help his brother to save Christmas.", "poster_path": "/vFniWmciRi4tAjAYGp2wrK0P8dJ.jpg", "popularity": 12.098}, {"adult": false, "backdrop_path": "/kJwJfSQht3QwpWka8JBnQ18IyDT.jpg", "genre_ids": [18, 16, 10751, 35], "id": 51052, "original_language": "en", "original_title": "Arthur Christmas", "overview": "Each Christmas, Santa and his vast army of highly trained elves produce gifts and distribute them around the world in one night. However, when one of 600 million children to receive a gift from Santa on Christmas Eve is missed, it is deemed \u2018acceptable\u2019 to all but one \u2013 Arthur. Arthur Claus is Santa\u2019s misfit son who executes an unauthorized rookie mission to get the last present half way around the globe before dawn on Christmas morning.", "poster_path": "/crjzhg2T1sPL9yE7bFHkYp0OfXG.jpg", "release_date": "2011-11-10", "title": "Arthur Christmas", "video": false, "vote_average": 6.7, "vote_count": 800, "popularity": 20.268}, {"adult": false, "backdrop_path": "/h6NQoXBxD0uaIrpuk9FFV89vITT.jpg", "genre_ids": [10402, 35, 10751, 14, 18], "id": 10437, "original_language": "en", "original_title": "The Muppet Christmas Carol", "overview": "A retelling of the classic Dickens tale of Ebenezer Scrooge, miser extraordinaire. He is held accountable for his dastardly ways during night-time visitations by the Ghosts of Christmas Past, Present, and future.", "poster_path": "/fe4nLJkDNXhyuMnrZ60MfoSpPes.jpg", "release_date": "1992-12-10", "title": "The Muppet Christmas Carol", "video": false, "vote_average": 7.4, "vote_count": 497, "popularity": 10.24}, {"id": 17979, "video": false, "vote_count": 2815, "vote_average": 6.8, "title": "A Christmas Carol", "release_date": "2009-11-04", "original_language": "en", "original_title": "A Christmas Carol", "genre_ids": [16, 10751], "backdrop_path": "/GtwSStViUdhKGf0d7tCkR7alKV.jpg", "adult": false, "overview": "Miser Ebenezer Scrooge is awakened on Christmas Eve by spirits who reveal to him his own miserable existence, what opportunities he wasted in his youth, his current cruelties, and the dire fate that awaits him if he does not change his ways. Scrooge is faced with his own story of growing bitterness and meanness, and must decide what his own future will hold: death or redemption.", "poster_path": "/jeOCcjUAcSYleVwhsaKEPT4CYwF.jpg", "popularity": 19.945}, {"id": 9647, "video": false, "vote_count": 786, "vote_average": 6.9, "title": "Scrooged", "release_date": "1988-11-22", "original_language": "en", "original_title": "Scrooged", "genre_ids": [35, 18, 14], "backdrop_path": "/6xezVJoUp0cZUBQeIDpW6lFuhcd.jpg", "adult": false, "overview": "In this modern take on Charles Dickens' \"A Christmas Carol,\" Frank Cross (Bill Murray) is a wildly successful television executive whose cold ambition and curmudgeonly nature has driven away the love of his life, Claire Phillips (Karen Allen). But after firing a staff member, Eliot Loudermilk (Bobcat Goldthwait), on Christmas Eve, Frank is visited by a series of ghosts who give him a chance to re-evaluate his actions and right the wrongs of his past.", "poster_path": "/uO0znfB2ZzTXA1IS7jkrjNbpkYK.jpg", "popularity": 17.767}, {"id": 8871, "video": false, "vote_count": 4088, "vote_average": 6.6, "title": "How the Grinch Stole Christmas", "release_date": "2000-11-17", "original_language": "en", "original_title": "How the Grinch Stole Christmas", "genre_ids": [35, 14, 10751], "backdrop_path": "/wWPJpoCGNq3cDYbFqPTWtvJSzqs.jpg", "adult": false, "overview": "Inside a snowflake exists the magical land of Whoville. In Whoville, live the Whos, an almost mutated sort of Munchkin-like people. All the Whos love Christmas, yet just outside of their beloved Whoville lives the Grinch. The Grinch is a nasty creature that hates Christmas, and plots to steal it away from the Whos, whom he equally abhors. Yet a small child, Cindy Lou Who, decides to try befriending the Grinch.", "poster_path": "/vQfgNHbcIWS2j3AAAzLOtPUGVmB.jpg", "popularity": 26.624}, {"id": 9479, "video": false, "vote_count": 5316, "vote_average": 7.8, "title": "The Nightmare Before Christmas", "release_date": "1993-10-09", "original_language": "en", "original_title": "The Nightmare Before Christmas", "genre_ids": [16, 14, 10751], "backdrop_path": "/16lk65YfrDFIr6evkWRjSeOOSws.jpg", "adult": false, "overview": "Tired of scaring humans every October 31 with the same old bag of tricks, Jack Skellington, the spindly king of Halloween Town, kidnaps Santa Claus and plans to deliver shrunken heads and other ghoulish gifts to children on Christmas morning. But as Christmas approaches, Jack's rag-doll girlfriend, Sally, tries to foil his misguided plans.", "poster_path": "/6oxkO1VgKCq74fNILKAg6t2dVEt.jpg", "popularity": 18.951}, {"adult": false, "backdrop_path": "/9SNO9BglZJgGTMOB5K4NVgecgX1.jpg", "genre_ids": [10751, 35], "id": 9279, "original_language": "en", "original_title": "Jingle All the Way", "overview": "Meet Howard Langston, a salesman for a mattress company is constantly busy at his job, and he also constantly disappoints his son, after he misses his son's karate exposition, his son tells Howard that he wants for Christmas is an action figure of his son's television hero, he tries hard to to make it up to him. Unfortunately for Howard, it is Christmas Eve, and every store is sold out of Turbo Man, now Howard must travel all over town and compete with everybody else to find a Turbo Man action figure.", "poster_path": "/aaVkNhUONnkSv5ijPjq7pEmmWyE.jpg", "release_date": "1996-11-15", "title": "Jingle All the Way", "video": false, "vote_average": 5.7, "vote_count": 1359, "popularity": 14.421}, {"id": 13673, "video": false, "vote_count": 519, "vote_average": 5.7, "title": "Christmas with the Kranks", "release_date": "2004-11-24", "original_language": "en", "original_title": "Christmas with the Kranks", "genre_ids": [35, 10751], "backdrop_path": "/cuH95R2FJ2gxZBj8lEUElxShy15.jpg", "adult": false, "overview": "Luther Krank is fed up with the commerciality of Christmas; he decides to skip the holiday and go on a vacation with his wife instead. But when his daughter decides at the last minute to come home, he must put together a holiday celebration.", "poster_path": "/6sH8XfDDfTVT8AKZ0UNhnFTsyzJ.jpg", "popularity": 14.167}, {"id": 455842, "video": false, "vote_count": 18, "vote_average": 5.7, "title": "Elliot: The Littlest Reindeer", "release_date": "2018-11-08", "original_language": "en", "original_title": "Elliot: The Littlest Reindeer", "genre_ids": [12, 16, 10751], "backdrop_path": "/2Djp1gHsUsbf2YpvyoihXecGXPi.jpg", "adult": false, "overview": "When Blitzen announces his retirement on December 21st, a miniature horse has 3 days to fulfill his lifelong dream of earning a spot on Santa's team at the North Pole try-outs.", "poster_path": "/sYq809WTep01HO5oJR9o9VbEDJv.jpg", "popularity": 5.728}, {"id": 13377, "video": false, "vote_count": 587, "vote_average": 7.4, "title": "How the Grinch Stole Christmas!", "release_date": "1966-12-18", "original_language": "en", "original_title": "How the Grinch Stole Christmas!", "genre_ids": [16, 35, 10751], "backdrop_path": "/3kuQVBTd4c5dfdj2BFJKWJ0ZWA6.jpg", "adult": false, "overview": "Bitter and hateful, the Grinch is irritated at the thought of a nearby village having a happy time celebrating Christmas. Disguised as Santa Claus, with his dog made to look like a reindeer, he decides to raid the village to steal all the Christmas things.", "poster_path": "/7ir0iRuPK9OEuH569cp0nF5CJce.jpg", "popularity": 11.735}, {"id": 9021, "video": false, "vote_count": 705, "vote_average": 5.7, "title": "The Santa Clause 2", "release_date": "2002-10-31", "original_language": "en", "original_title": "The Santa Clause 2", "genre_ids": [35, 14, 10751], "backdrop_path": "/tftsh2e2IDGW3601QYixa9fnHFm.jpg", "adult": false, "overview": "Better watch out! The big guy in red is coming to town once again. This time, Scott Calvin -- also known as Santa Claus -- finds out there's an obscure clause in his contract requiring him to take on a wife. He has to leave the North Pole to fulfill his obligations, or else he'll be forced to give up his Yuletide gig.", "poster_path": "/i7tbiDPIaa4VsQh1wWmbkY4zTRX.jpg", "popularity": 12.724}, {"id": 10719, "video": false, "vote_count": 2252, "vote_average": 6.6, "title": "Elf", "release_date": "2003-10-09", "original_language": "en", "original_title": "Elf", "genre_ids": [35, 14, 10751], "backdrop_path": "/jRzrQ7Thcjpetr0n8B6w980eZet.jpg", "adult": false, "overview": "When young Buddy falls into Santa's gift sack on Christmas Eve, he's transported back to the North Pole and raised as a toy-making elf by Santa's helpers. But as he grows into adulthood, he can't shake the nagging feeling that he doesn't belong. Buddy vows to visit Manhattan and find his real dad, a workaholic publisher.", "poster_path": "/9jChHqqcpe0zHNTqkNqWZkwkgil.jpg", "popularity": 14.355}, {"id": 11881, "video": false, "vote_count": 342, "vote_average": 7.4, "title": "Miracle on 34th Street", "release_date": "1947-06-11", "original_language": "en", "original_title": "Miracle on 34th Street", "genre_ids": [35, 18, 10751], "backdrop_path": "/i90947b0zLbH1P4qjAxqiQdRfiZ.jpg", "adult": false, "overview": "Kris Kringle, seemingly the embodiment of Santa Claus, is asked to portray the jolly old fellow at Macy's following his performance in the Thanksgiving Day parade. His portrayal is so complete that many begin to question if he truly is Santa Claus, while others question his sanity.", "poster_path": "/h8kkqroLwxvAHxWGIStEZaNd4wr.jpg", "popularity": 18.855}, {"id": 9714, "video": false, "vote_count": 1688, "vote_average": 5.2, "title": "Home Alone 3", "release_date": "1997-12-12", "original_language": "en", "original_title": "Home Alone 3", "genre_ids": [35, 10751], "backdrop_path": "/gt8Pe0H2kdm99yuHYDs8goKbTkn.jpg", "adult": false, "overview": "9-year-old Alex Pruitt is home alone with the chicken pox. Turns out, due to a mix-up among nefarious spies, Alex was given a toy car concealing a top-secret microchip. Now Alex must fend off the spies as they try break into his house to get it back.", "poster_path": "/z6ugEdjGuY4qcX1ymdV2CTVSvKN.jpg", "popularity": 20.25}, {"id": 527435, "video": false, "vote_count": 960, "vote_average": 7.1, "title": "The Christmas Chronicles", "release_date": "2018-11-22", "original_language": "en", "original_title": "The Christmas Chronicles", "genre_ids": [12, 35, 14, 10751], "backdrop_path": "/brENMyyhk13WLzKHBK20rBKx0u7.jpg", "adult": false, "overview": "Siblings Kate and Teddy try to prove Santa Claus is real, but when they accidentally cause his sleigh to crash, they have to save Christmas.", "poster_path": "/5Il2EMSF2KecrUKZPuen6BZmaCP.jpg", "popularity": 12.455}], "total_pages": 97, "total_results": 1923}, "recommendations": {"page": 1, "results": [], "total_pages": 1, "total_results": 0}, "credits": {"cast": [{"cast_id": 6, "character": "Lorraine", "credit_id": "55b13cca925141788b000aa9", "gender": 1, "id": 999445, "name": "Kym Jackson", "order": 0, "profile_path": "/mcqEkFJ4EmQJE58bZi1FswaX5ig.jpg"}, {"cast_id": 7, "character": "Michele", "credit_id": "55b13d969251411e1800e7f1", "gender": 0, "id": 1489818, "name": "Krista Braun", "order": 1, "profile_path": "/6cVv8pd1RQzEgO7Zo9rO1YdeW23.jpg"}, {"cast_id": 8, "character": "Abbie", "credit_id": "5a52ba5ac3a368751c0286b8", "gender": 1, "id": 557545, "name": "Katherine Randolph", "order": 2, "profile_path": "/gZrVRLrRl7VUyQBhiCLpmdQ5OjH.jpg"}, {"cast_id": 9, "character": "Rizzo", "credit_id": "5c2bcfa292514122b86d3b66", "gender": 2, "id": 41341, "name": "Andy Mackenzie", "order": 3, "profile_path": "/wXHhwn66sNDwboNgaf0tnG2L8h.jpg"}, {"cast_id": 5, "character": "Jess", "credit_id": "55b13ca3c3a368648e00d353", "gender": 0, "id": 1489817, "name": "Grant Reynolds", "order": 4, "profile_path": null}, {"cast_id": 10, "character": "Adam", "credit_id": "5c2bcfb692514122ac6d1e4e", "gender": 0, "id": 108532, "name": "Scott Elrod", "order": 5, "profile_path": "/vQDfUsMwMKvfuHrAKTIckC5Ihbx.jpg"}, {"cast_id": 11, "character": "Hot Carl", "credit_id": "5c2bcfc492514122a96d23d2", "gender": 2, "id": 24529, "name": "Chuck Borden", "order": 6, "profile_path": "/ethmbGjgOnT54QiILrN1z4C6Vpp.jpg"}, {"cast_id": 12, "character": "Emily", "credit_id": "5c2bcfd492514122a36d2072", "gender": 0, "id": 1228825, "name": "Lenora May", "order": 7, "profile_path": "/5mp2idYf19tvf1tbfiPTvFjcW06.jpg"}, {"cast_id": 13, "character": "Jimmy", "credit_id": "5c2bcfe10e0a2655e7399c85", "gender": 2, "id": 149441, "name": "Brian Gross", "order": 8, "profile_path": null}, {"cast_id": 14, "character": "Apep", "credit_id": "5c2bcff2c3a368291ca1a96a", "gender": 2, "id": 1429456, "name": "Jaye Razor", "order": 9, "profile_path": "/kur7ZJkpZNUMqtrEpphBhM5IoUP.jpg"}, {"cast_id": 15, "character": "Michael", "credit_id": "5c2bcffe0e0a2655f0398a08", "gender": 2, "id": 37011, "name": "Robert R. Shafer", "order": 10, "profile_path": "/x1KGcdk9uZR9EnRDys3RtXP7MNw.jpg"}, {"cast_id": 16, "character": "Rick", "credit_id": "5c2bd00c0e0a2655fa397385", "gender": 2, "id": 237855, "name": "Richard Tanne", "order": 11, "profile_path": "/vTmQJQVGUTXVkneGNqvOphsWxlk.jpg"}, {"cast_id": 17, "character": "Old Boy", "credit_id": "5c2bd01cc3a3682913a1b994", "gender": 2, "id": 99600, "name": "R.A. Mihailoff", "order": 12, "profile_path": "/8F1iz1pP9pltoIaSD1YiU884Kgk.jpg"}, {"cast_id": 18, "character": "Brownie", "credit_id": "5c2bd02c0e0a261eaf3801af", "gender": 0, "id": 2206136, "name": "Said Bakouch", "order": 13, "profile_path": null}], "crew": [{"credit_id": "55b1383a92514125da00e98b", "department": "Writing", "gender": 0, "id": 1489808, "job": "Writer", "name": "Jed Strahm", "profile_path": null}, {"credit_id": "55b13852925141788b000a6e", "department": "Directing", "gender": 0, "id": 1489808, "job": "Director", "name": "Jed Strahm", "profile_path": null}, {"credit_id": "55b139049251411e0600ea04", "department": "Camera", "gender": 2, "id": 62273, "job": "Director of Photography", "name": "James Lawrence Spencer", "profile_path": null}, {"credit_id": "55b139f892514173640009e8", "department": "Editing", "gender": 0, "id": 1489814, "job": "Editor", "name": "Terry Walters", "profile_path": null}, {"credit_id": "5c2bd0510e0a2655f4398091", "department": "Production", "gender": 0, "id": 1489808, "job": "Producer", "name": "Jed Strahm", "profile_path": null}, {"credit_id": "5c2bd05f92514122a96d24b0", "department": "Production", "gender": 0, "id": 2206137, "job": "Producer", "name": "David Penotti", "profile_path": null}, {"credit_id": "5c2bd07592514122b16d175a", "department": "Art", "gender": 0, "id": 1879511, "job": "Art Direction", "name": "Laurel Brock", "profile_path": null}, {"credit_id": "5c2bd08892514122ae6d07a0", "department": "Directing", "gender": 1, "id": 1296822, "job": "Script Supervisor", "name": "Aprill Winney", "profile_path": null}]}}