{"adult": false, "backdrop_path": "/kOo3GVyu5l7xW4zzTLanZNxs3ua.jpg", "belongs_to_collection": null, "budget": 0, "genres": [{"id": 18, "name": "Drama"}], "homepage": null, "id": 352156, "imdb_id": "tt4000936", "original_language": "en", "original_title": "Looking for Grace", "overview": "When rebellious 16-year-old Grace takes off, her exasperated mum and dad enlist the help of a close-to-retirement detective, and begin the long drive from Perth out to the West Australian wheatbelt to try to find her. On the journey, the two must confront the realities of their changing relationship to one another, and to their daughter\u2026", "popularity": 1.911, "poster_path": "/wYcj6jI0s87hZjRkOo37JFmgK7Y.jpg", "production_companies": [{"id": 7888, "logo_path": null, "name": "ScreenWest", "origin_country": ""}, {"id": 6727, "logo_path": null, "name": "Palace Films", "origin_country": ""}], "production_countries": [{"iso_3166_1": "AU", "name": "Australia"}], "release_date": "2016-01-26", "revenue": 0, "runtime": 100, "spoken_languages": [{"iso_639_1": "en", "name": "English"}], "status": "Released", "tagline": "Behind every smile there's a story", "title": "Looking for Grace", "video": false, "vote_average": 10.0, "vote_count": 2, "keywords": {"keywords": [{"id": 187056, "name": "woman director"}]}, "similar": {"page": 1, "results": [{"adult": false, "backdrop_path": "/cADbqsIoiDW7X3Myg9nz8eAuno5.jpg", "genre_ids": [18, 10749], "id": 10818, "original_language": "fr", "original_title": "Naissance des pieuvres", "overview": "Set during a sultry summer in a French suburb, Marie is desperate to join the local pool's synchronized swimming team, but is her interest solely for the sake of sport or for a chance to get close to Floriane, the bad girl of the team? Sciamma, and the two leads, capture the uncertainty of teenage sexuality with a sympathetic eye in this delicate drama of the angst of coming-of-age.", "poster_path": "/4jajELYrR4Xmv3CVoKnukRnALa2.jpg", "release_date": "2007-05-17", "title": "Water Lilies", "video": false, "vote_average": 6.1, "vote_count": 119, "popularity": 9.614}, {"adult": false, "backdrop_path": "/gZeJziVigmRqbkEZwKAtSqlLQ6s.jpg", "genre_ids": [18, 10749], "id": 370663, "original_language": "en", "original_title": "Below Her Mouth", "overview": "An unexpected affair quickly escalates into a heart-stopping reality for two women whose passionate connection changes their lives forever.", "poster_path": "/nTGbq37hYLuNy7YgMg0gVLma0NS.jpg", "release_date": "2016-09-10", "title": "Below Her Mouth", "video": false, "vote_average": 6.2, "vote_count": 456, "popularity": 18.664}, {"adult": false, "backdrop_path": "/dvQDRfv3qvfHNnVAR57ouVsuErf.jpg", "genre_ids": [10749, 18], "id": 28031, "original_language": "en", "original_title": "If These Walls Could Talk 2", "overview": "The stories of three lesbian couples -- who live in the same house at different periods of time -- who are at a crossroads in their lives. In 1961, Edith loses her lover, Abby, to a stroke. Linda and Amy struggle with feminist issues in 1972. And, in 2000, Kal and Fran try to have a baby with the help of sperm donor.", "poster_path": "/xs7ODbmYQXCDhvXNvz5tF17T59H.jpg", "release_date": "2000-03-05", "title": "If These Walls Could Talk 2", "video": false, "vote_average": 7.1, "vote_count": 55, "popularity": 8.86}, {"adult": false, "backdrop_path": "/knczzNAjBXzSYkeWxoT1u9VNmjR.jpg", "genre_ids": [10749, 18], "id": 258480, "original_language": "en", "original_title": "Carol", "overview": "In 1950s New York, a department-store clerk who dreams of a better life falls for an older, married woman.", "poster_path": "/AbKa7ANxmui0Jmhh7gV7OSELKIL.jpg", "release_date": "2015-11-20", "title": "Carol", "video": false, "vote_average": 7.4, "vote_count": 2184, "popularity": 13.539}, {"adult": false, "backdrop_path": "/fZ8oFcREAr6wgWcXISGql0xyxjB.jpg", "genre_ids": [35, 18], "id": 39781, "original_language": "en", "original_title": "The Kids Are All Right", "overview": "Two women, Nic and Jules, brought a son and daughter into the world through artificial insemination. When one of their children reaches age, both kids go behind their mothers' backs to meet with the donor. Life becomes so much more interesting when the father, two mothers and children start to become attached to each other.", "poster_path": "/fPDeK4MmoGfi2X0oWZev7LrbMqM.jpg", "release_date": "2010-07-09", "title": "The Kids Are All Right", "video": false, "vote_average": 6.6, "vote_count": 923, "popularity": 12.159}, {"adult": false, "backdrop_path": "/rf6G51j0SZL0tP57I8gnqHTRFEr.jpg", "genre_ids": [35, 18, 10749], "id": 273153, "original_language": "fr", "original_title": "La belle saison", "overview": "In 1971, Carole and Delphine meet and fall in love in Paris. When Carole follows Delphine back to her family farm in Limousin, the two find lesbianism and feminism are not as easy in the countryside.", "poster_path": "/evvAkNMO5VJiy5qIo1Hu7fUfvVI.jpg", "release_date": "2015-08-19", "title": "Summertime", "video": false, "vote_average": 6.6, "vote_count": 162, "popularity": 11.575}, {"adult": false, "backdrop_path": "/s12HEmmkJfI2mjltI61hGm5kubD.jpg", "genre_ids": [35, 18, 10749], "id": 20770, "original_language": "en", "original_title": "But I'm a Cheerleader", "overview": "Megan is an all-American girl. A cheerleader. She has a boyfriend. But Megan doesn't like kissing her boyfriend very much. And she's pretty touchy with her cheerleader friends. Her conservative parents worry that she must be a lesbian and send her off to \"sexual redirection\" school, where she must, with other lesbians and gays learn how to be straight.", "poster_path": "/eDGH7CHSdkrYcuUJV1e0WS9DlQL.jpg", "release_date": "1999-12-09", "title": "But I'm a Cheerleader", "video": false, "vote_average": 6.8, "vote_count": 246, "popularity": 9.011}, {"id": 9813, "video": false, "vote_count": 128, "vote_average": 6.1, "title": "The Quiet", "release_date": "2005-09-12", "original_language": "en", "original_title": "The Quiet", "genre_ids": [18, 53], "backdrop_path": "/6eyWAZA4CEidZW1xXnQ4vlYBXTP.jpg", "adult": false, "overview": "After her widowed father dies, deaf teenager Dot moves in with her godparents, Olivia and Paul Deer. The Deers' daughter, Nina, is openly hostile to Dot, but that does not prevent her from telling her secrets to her silent stepsister, including the fact that she wants to kill her lecherous father.", "poster_path": "/GEqIE9YlmygHVUfS64LW2cwAAM.jpg", "popularity": 14.844}, {"adult": false, "backdrop_path": "/tzqeuHWMFihFbiLGHdalPgAcSf6.jpg", "genre_ids": [18, 10749], "id": 18620, "original_language": "en", "original_title": "Go Fish", "overview": "Max is a trendy, pretty, young lesbian, who is having trouble finding love. A friend sets her up with Ely, whom Max likes, but Ely is frumpy, homely, and older. Nor do they have much in common. Can Max learn to look past the packaging?", "poster_path": "/qrEFYrwykaGsY8NULYuYLLI7zrM.jpg", "release_date": "1994-06-10", "title": "Go Fish", "video": false, "vote_average": 5.0, "vote_count": 11, "popularity": 3.676}, {"adult": false, "backdrop_path": "/6tern9vOEwwmkDYC1vRCuO64z0C.jpg", "genre_ids": [10749, 18], "id": 475888, "original_language": "en", "original_title": "Tell It to the Bees", "overview": "Dr. Jean Markham returns to the town she left as a teenager to take over her late father's medical practice. When a school-yard scuffle lands Charlie in her surgery, she invites him to visit the hives in her garden and tell his secrets to the bees, as she once did. The new friendship between the boy and the bee keeper brings his mother Lydia into Jean's world.", "poster_path": "/Rj6zpHhMU1zFW3v28U4PSRSRgP.jpg", "release_date": "2019-05-03", "title": "Tell It to the Bees", "video": false, "vote_average": 6.4, "vote_count": 53, "popularity": 13.175}, {"adult": false, "backdrop_path": "/baYbbMtKRDoDWYJeVWkbygAvAj8.jpg", "genre_ids": [18, 10749], "id": 31216, "original_language": "en", "original_title": "I Can't Think Straight", "overview": "I CAN'T THINK STRAIGHT is a 2007 romance movie about a London-based Jordanian of Palestinian descent, Tala, who is preparing for an elaborate wedding. A turn of events causes her to have an affair and subsequently fall in love with another woman, Leyla, a British Indian.", "poster_path": "/1kapga6rkM5wNuQBYw7sdE42CrA.jpg", "release_date": "2008-06-01", "title": "I Can't Think Straight", "video": false, "vote_average": 7.6, "vote_count": 109, "popularity": 7.815}, {"adult": false, "backdrop_path": "/lI5h8KaoeObu4NMTwzeRuUHzRwD.jpg", "genre_ids": [18, 9648, 53], "id": 401898, "original_language": "no", "original_title": "Thelma", "overview": "A college student starts to experience extreme seizures. She soon learns that the violent episodes are a symptom of inexplicable abilities.", "poster_path": "/yzSfG8TLAqw7nMQh2lxirQkQpgs.jpg", "release_date": "2017-09-15", "title": "Thelma", "video": false, "vote_average": 7.1, "vote_count": 418, "popularity": 13.105}, {"adult": false, "backdrop_path": "/tIFRPjIXQ3sYrmxbIeOu9K1JkUz.jpg", "genre_ids": [18, 10749], "id": 294, "original_language": "en", "original_title": "Desert Hearts", "overview": "The story of straight-edge literature professor Vivian who travels to Reno to get away from a relationship breakup when she falls in love with an attractive and unconventional girl named Cay.", "poster_path": "/b8JSmQSpYYJhctMtxNgqh0elENg.jpg", "release_date": "1985-10-01", "title": "Desert Hearts", "video": false, "vote_average": 7.3, "vote_count": 58, "popularity": 6.976}, {"id": 2255, "video": false, "vote_count": 772, "vote_average": 6.8, "title": "Chasing Amy", "release_date": "1997-04-04", "original_language": "en", "original_title": "Chasing Amy", "genre_ids": [35, 18, 10749], "backdrop_path": "/doKYVK61Vb8J1KUjlb9dNWkQNp6.jpg", "adult": false, "overview": "Holden and Banky are comic book artists. Everything is going good for them until they meet Alyssa, also a comic book artist. Holden falls for her, but his hopes are crushed when he finds out she's a lesbian.", "poster_path": "/4vFJileWrCGaBeobCmF0tXpQCUb.jpg", "popularity": 13.95}, {"adult": false, "backdrop_path": "/hD8DQM72Xacg1d3mFqS0eN8vKYw.jpg", "genre_ids": [18], "id": 8272, "original_language": "en", "original_title": "The Savages", "overview": "A sister and brother face the realities of familial responsibility as they begin to care for their ailing father.", "poster_path": "/nY54gSmTOmSXlQpWDB7DWp4u8a7.jpg", "release_date": "2007-01-19", "title": "The Savages", "video": false, "vote_average": 6.9, "vote_count": 192, "popularity": 9.466}, {"adult": false, "backdrop_path": "/g3LYarEY9LjB28Ct2trwFN72gqZ.jpg", "genre_ids": [35], "id": 437557, "original_language": "en", "original_title": "Blockers", "overview": "When three parents discover their daughters\u2019 pact to lose their virginity at prom, they launch a covert one-night operation to stop the teens from sealing the deal.", "poster_path": "/uvlUQXg0AlpGzKukO11K7QtW3Yu.jpg", "release_date": "2018-03-14", "title": "Blockers", "video": false, "vote_average": 6.2, "vote_count": 1155, "popularity": 17.886}, {"adult": false, "backdrop_path": "/zBB1mzmqnUuSrlTuf0SFFlI1EoJ.jpg", "genre_ids": [18], "id": 244772, "original_language": "en", "original_title": "The Skeleton Twins", "overview": "Estranged twins Maggie and Milo coincidentally cheat death on the same day, prompting them to reunite and confront the reasons their lives went so wrong. As the twins' reunion reinvigorates them, they realize the key to fixing their lives may just lie in repairing their relationship.", "poster_path": "/vvmv1R2jDXJeeeyYcGg0ypXc2XK.jpg", "release_date": "2014-09-12", "title": "The Skeleton Twins", "video": false, "vote_average": 6.7, "vote_count": 416, "popularity": 10.481}, {"adult": false, "backdrop_path": "/3YGy88nTV2e0wxZcKI1goiEN9oy.jpg", "genre_ids": [18, 10749], "id": 37636, "original_language": "en", "original_title": "High Art", "overview": "A young female intern at a small magazine company becomes involved with a drug-addicted lesbian photographer, both of whom seek to exploit each other for their respective careers, while slowly falling in love with each other.", "poster_path": "/qTg05RNJIvb9w4Z7XIcAZxuZmTn.jpg", "release_date": "1998-06-12", "title": "High Art", "video": false, "vote_average": 6.6, "vote_count": 61, "popularity": 7.422}, {"adult": false, "backdrop_path": "/caLMOD3ZJ3V7qjlxDXrzlJfBLgD.jpg", "genre_ids": [18, 10749], "id": 20, "original_language": "en", "original_title": "My Life Without Me", "overview": "A Pedro Almodovar production in which a fatally ill mother with only two months to live creates a list of things she wants to do before she dies with out telling her family of her illness.", "poster_path": "/vVj92VBFUBzjqzLvBiPVVlJDp78.jpg", "release_date": "2003-03-07", "title": "My Life Without Me", "video": false, "vote_average": 6.1, "vote_count": 220, "popularity": 10.382}, {"adult": false, "backdrop_path": "/useuHJQ5HOoEWkAvEjL1FW1sUfe.jpg", "genre_ids": [18], "id": 376867, "original_language": "en", "original_title": "Moonlight", "overview": "The tender, heartbreaking story of a young man\u2019s struggle to find himself, told across three defining chapters in his life as he experiences the ecstasy, pain, and beauty of falling in love, while grappling with his own sexuality.", "poster_path": "/qAwFbszz0kRyTuXmMeKQZCX3Q2O.jpg", "release_date": "2016-10-21", "title": "Moonlight", "video": false, "vote_average": 7.4, "vote_count": 4410, "popularity": 21.716}], "total_pages": 1446, "total_results": 28909}, "recommendations": {"page": 1, "results": [], "total_pages": 1, "total_results": 0}, "credits": {"cast": [{"cast_id": 1, "character": "Denise", "credit_id": "55b8d05f92514123e7001a8b", "gender": 1, "id": 8329, "name": "Radha Mitchell", "order": 0, "profile_path": "/kKbnljNC07nqiucGeouxhKESXUC.jpg"}, {"cast_id": 2, "character": "Dan", "credit_id": "55b8d06d92514123dd001da5", "gender": 2, "id": 12206, "name": "Richard Roxburgh", "order": 1, "profile_path": "/hN1bWQ0Qe0DrA33Ch6TLKuIWs0.jpg"}, {"cast_id": 5, "character": "Grace", "credit_id": "55b8d09c92514123d3001ab2", "gender": 1, "id": 1345495, "name": "Odessa Young", "order": 2, "profile_path": "/yBBRr0eiUc1opEFd5YcRLvLktK4.jpg"}, {"cast_id": 10, "character": "Tom Norris", "credit_id": "566391d5c3a3682bde005872", "gender": 2, "id": 1217083, "name": "Terry Norris", "order": 3, "profile_path": "/2dTY5i7fTuy6RzP4Oc4dPEseE8D.jpg"}, {"cast_id": 11, "character": "Nell Norris", "credit_id": "56639203c3a3682bd2005fd8", "gender": 1, "id": 77561, "name": "Julia Blake", "order": 4, "profile_path": "/dUGeDN3JbXsQM6DtM2uCIh1NJyv.jpg"}, {"cast_id": 12, "character": "Sappho", "credit_id": "56639217c3a3682bef006b63", "gender": 0, "id": 1545286, "name": "Kenya Pearson", "order": 5, "profile_path": null}, {"cast_id": 3, "character": "Bruce", "credit_id": "55b8d07cc3a3684af80019f9", "gender": 2, "id": 190856, "name": "Myles Pollard", "order": 6, "profile_path": "/2QpPExPYMqkMvjOTUbkNis1IlND.jpg"}, {"cast_id": 6, "character": "Sandra", "credit_id": "55b8d0a392514123dd001dac", "gender": 1, "id": 75741, "name": "Tasma Walton", "order": 7, "profile_path": "/3J1exiSUW97beAQCU6z92HNyv2b.jpg"}, {"cast_id": 13, "character": "Jamie", "credit_id": "5663924d9251412ac6005c8e", "gender": 2, "id": 1545288, "name": "Harry Richardson", "order": 8, "profile_path": "/eS5GuxYIw7GrYTYhancUPfb2wmT.jpg"}, {"cast_id": 14, "character": "Susie", "credit_id": "5663926a9251412d7b005e0f", "gender": 0, "id": 1186664, "name": "Amanda Woodhams", "order": 9, "profile_path": "/6iJaSmmLBnexhvkwzxSecGEWNmb.jpg"}, {"cast_id": 15, "character": "Rosemary", "credit_id": "5663928fc3a3682bd0005a73", "gender": 0, "id": 1545290, "name": "Shirley Van Sanden", "order": 10, "profile_path": null}, {"cast_id": 16, "character": "Anne", "credit_id": "566392af9251412acd005d63", "gender": 0, "id": 1545291, "name": "Gemma Willing", "order": 11, "profile_path": null}, {"cast_id": 17, "character": "Julie", "credit_id": "566392ef9251412acd005d8c", "gender": 0, "id": 1545292, "name": "Holly Jones", "order": 12, "profile_path": null}, {"cast_id": 18, "character": "Damien", "credit_id": "566392fd9251412ac4005e02", "gender": 0, "id": 1545293, "name": "Bailey Hester", "order": 13, "profile_path": null}, {"cast_id": 4, "character": "Policeman", "credit_id": "55b8d08792514123d5001b86", "gender": 0, "id": 1438817, "name": "Korum Ellis", "order": 14, "profile_path": "/ootaI2lytpc5ZE7wtp97WYo8Kgz.jpg"}, {"cast_id": 8, "character": "Policeman", "credit_id": "55b8d0c292514123db001b17", "gender": 0, "id": 1491529, "name": "Roland van Zwol", "order": 15, "profile_path": null}], "crew": [{"credit_id": "55b8d02992514123e7001a78", "department": "Directing", "gender": 0, "id": 552208, "job": "Director", "name": "Sue Brooks", "profile_path": "/lCA98qqk8B3iC1eH14Kb5vS5bZl.jpg"}, {"credit_id": "55b90e6dc3a3684ae900232f", "department": "Writing", "gender": 0, "id": 552208, "job": "Screenplay", "name": "Sue Brooks", "profile_path": "/lCA98qqk8B3iC1eH14Kb5vS5bZl.jpg"}, {"credit_id": "56639395c3a3682bd0005ad3", "department": "Production", "gender": 0, "id": 129517, "job": "Producer", "name": "Lizzette Atkins", "profile_path": null}, {"credit_id": "566393bcc3a3682be90063c0", "department": "Production", "gender": 0, "id": 1371425, "job": "Producer", "name": "Alison Tilson", "profile_path": null}, {"credit_id": "566393c79251412ad3005e87", "department": "Production", "gender": 0, "id": 75138, "job": "Executive Producer", "name": "Antonio Zeccola", "profile_path": null}, {"credit_id": "566393d3c3a3682bd8006654", "department": "Production", "gender": 0, "id": 1545294, "job": "Executive Producer", "name": "Benjamin Zeccola", "profile_path": null}, {"credit_id": "566393a1c3a3682bd0005ad7", "department": "Production", "gender": 0, "id": 75549, "job": "Producer", "name": "Sue Taylor", "profile_path": null}, {"credit_id": "566394059251412ad9006176", "department": "Costume & Make-Up", "gender": 0, "id": 1431572, "job": "Costume Design", "name": "Terri Lamera", "profile_path": null}, {"credit_id": "5af1cfdec3a36845ff000114", "department": "Camera", "gender": 1, "id": 1490248, "job": "Director of Photography", "name": "Katie Milwright", "profile_path": null}, {"credit_id": "5af1cfef925141712f000174", "department": "Sound", "gender": 1, "id": 1603558, "job": "Original Music Composer", "name": "Elizabeth Drake", "profile_path": null}, {"credit_id": "5af1d0eec3a3684614000307", "department": "Editing", "gender": 0, "id": 78967, "job": "Editor", "name": "Peter Carrodus", "profile_path": null}, {"credit_id": "5af1d0f70e0a2657ae0001a4", "department": "Production", "gender": 0, "id": 77573, "job": "Casting", "name": "Jane Norris", "profile_path": null}, {"credit_id": "5af1d0fec3a368460b000195", "department": "Art", "gender": 0, "id": 75555, "job": "Production Design", "name": "Clayton Jauncey", "profile_path": null}, {"credit_id": "5af1d10a0e0a2657b7000222", "department": "Art", "gender": 0, "id": 1654527, "job": "Art Direction", "name": "Monique Wajon", "profile_path": null}]}}