{"adult": false, "backdrop_path": "/kiAjhX6iLmo2g0o3QgbOIwBfffQ.jpg", "belongs_to_collection": null, "budget": 0, "genres": [{"id": 35, "name": "Comedy"}, {"id": 18, "name": "Drama"}], "homepage": null, "id": 35233, "imdb_id": "tt0111094", "original_language": "en", "original_title": "The Scout", "overview": "When his star recruit botches a Major League Baseball debut, humiliated talent scout, Al Percolo gets banished to rural Mexico, where he finds a potential gold mine in the arm of young phenom Steve Nebraska. Soon, the Bronx Bombers put a $55 million contract on the table\u2014provided a psychiatrist can affirm Nebraska's mental stability.", "popularity": 7.809, "poster_path": "/wH9ruOd7hthlX0D9mdXnuIp8sL3.jpg", "production_companies": [{"id": 28822, "logo_path": null, "name": "Santo Domingo Film & Music Video", "origin_country": ""}, {"id": 25, "logo_path": "/qZCc1lty5FzX30aOCVRBLzaVmcp.png", "name": "20th Century Fox", "origin_country": "US"}], "production_countries": [{"iso_3166_1": "US", "name": "United States of America"}], "release_date": "1994-09-30", "revenue": 0, "runtime": 101, "spoken_languages": [{"iso_639_1": "en", "name": "English"}], "status": "Released", "tagline": "He was praying for a miracle. What he got was Steve Nebraska.", "title": "The Scout", "video": false, "vote_average": 5.2, "vote_count": 58, "keywords": {"keywords": [{"id": 1480, "name": "baseball"}, {"id": 1484, "name": "pitcher"}, {"id": 6075, "name": "sport"}, {"id": 170652, "name": "father figure"}, {"id": 191043, "name": "mentally ill"}]}, "similar": {"page": 1, "results": [{"id": 245913, "video": false, "vote_count": 511, "vote_average": 7.3, "title": "Pel\u00e9: Birth of a Legend", "release_date": "2016-05-06", "original_language": "en", "original_title": "Pel\u00e9: Birth of a Legend", "genre_ids": [18, 36], "backdrop_path": "/mmKn7ECMiCUGFhIhoX2t9SYrTQn.jpg", "adult": false, "overview": "The life story of Brazilian football legend, Pele.", "poster_path": "/7AQFHlPohPiAYKTd1C35Q61z0eD.jpg", "popularity": 15.163}, {"adult": false, "backdrop_path": "/qVjKZMB0IdOc2JlwiiGsuKTvTJs.jpg", "genre_ids": [18], "id": 22881, "original_language": "en", "original_title": "The Blind Side", "overview": "The story of Michael Oher, a homeless and traumatized boy who became an All American football player and first round NFL draft pick with the help of a caring woman and her family", "poster_path": "/wEGFSgPebLk6g1ngKsJ6a46PYLV.jpg", "release_date": "2009-11-20", "title": "The Blind Side", "video": false, "vote_average": 7.5, "vote_count": 3212, "popularity": 30.144}, {"adult": false, "backdrop_path": "/jK3EAFk3GdOaQfUDCOiTujzMpwH.jpg", "genre_ids": [18], "id": 389015, "original_language": "en", "original_title": "I, Tonya", "overview": "Competitive ice skater Tonya Harding rises amongst the ranks at the U. S. Figure Skating Championships, but her future in the sport is thrown into doubt when her ex-husband intervenes.", "poster_path": "/6gNXwSHxaksR1PjVZRqNapmkgj3.jpg", "release_date": "2017-12-08", "title": "I, Tonya", "video": false, "vote_average": 7.5, "vote_count": 3327, "popularity": 19.513}, {"id": 8923, "video": false, "vote_count": 1358, "vote_average": 7.2, "title": "Green Street Hooligans", "release_date": "2005-09-09", "original_language": "en", "original_title": "Green Street Hooligans", "genre_ids": [80, 18], "backdrop_path": "/oasVTD3UpTEjhTAVx9ZCy1k19Qv.jpg", "adult": false, "overview": "After being wrongfully expelled from Harvard University, American Matt Buckner flees to his sister's home in England. Once there, he is befriended by her charming and dangerous brother-in-law, Pete Dunham, and introduced to the underworld of British football hooliganism. Matt learns to stand his ground through a friendship that develops against the backdrop of this secret and often violent world. 'Green Street Hooligans' is a story of loyalty, trust and the sometimes brutal consequences of living close to the edge.", "poster_path": "/z3LC4kI8azbeuHRGgDdWo6VBCdX.jpg", "popularity": 14.424}, {"adult": false, "backdrop_path": "/n1Gh3MJAVvXmkgSDf3SOLlPCjag.jpg", "genre_ids": [35, 18, 10749], "id": 9390, "original_language": "en", "original_title": "Jerry Maguire", "overview": "Jerry Maguire used to be a typical sports agent: willing to do just about anything he could to get the biggest possible contracts for his clients, plus a nice commission for himself. Then, one day, he suddenly has second thoughts about what he's really doing. When he voices these doubts, he ends up losing his job and all of his clients, save Rod Tidwell, an egomaniacal football player.", "poster_path": "/99YTEdKOKDRClsscOpJfdkbaTrQ.jpg", "release_date": "1996-12-13", "title": "Jerry Maguire", "video": false, "vote_average": 6.9, "vote_count": 1794, "popularity": 16.867}, {"adult": false, "backdrop_path": "/kBTdPNTAzagAY6UiwY957KCDGuu.jpg", "genre_ids": [16, 35, 10751], "id": 2300, "original_language": "en", "original_title": "Space Jam", "overview": "Swackhammer, an evil alien theme park owner, needs a new attraction at Moron Mountain. When his gang, the Nerdlucks, heads to Earth to kidnap Bugs Bunny and the Looney Tunes, Bugs challenges them to a basketball game to determine their fate. The aliens agree, but they steal the powers of NBA basketball players, including Larry Bird and Charles Barkley -- so Bugs gets some help from superstar Michael Jordan.", "poster_path": "/xI9AwhOWtsbFlS8tYD2PXa80p7u.jpg", "release_date": "1996-11-15", "title": "Space Jam", "video": false, "vote_average": 6.7, "vote_count": 3179, "popularity": 15.582}, {"adult": false, "backdrop_path": "/kmrSb8Gu0s6fGkm3zHJnHh25F4J.jpg", "genre_ids": [18, 10752], "id": 17360, "original_language": "en", "original_title": "Escape to Victory", "overview": "A group of POWs in a German prison camp during World War II play the German National Soccer Team in this powerful film depicting the role of prisoners during wartime.", "poster_path": "/tKFWYW9vDVKrBupSQydptyYVkXi.jpg", "release_date": "1981-06-17", "title": "Escape to Victory", "video": false, "vote_average": 6.8, "vote_count": 419, "popularity": 11.91}, {"adult": false, "backdrop_path": "/9lrM0o89ASyHmDgMLfCbU5qdsAm.jpg", "genre_ids": [35, 18], "id": 9291, "original_language": "en", "original_title": "The Longest Yard", "overview": "Pro quarter-back, Paul Crewe and former college champion and coach, Nate Scarboro are doing time in the same prison. Asked to put together a team of inmates to take on the guards, Crewe enlists the help of Scarboro to coach the inmates to victory in a football game 'fixed' to turn out quite another way.", "poster_path": "/ag6q9euZABqbHtbDhoRT9xEYltP.jpg", "release_date": "2005-05-27", "title": "The Longest Yard", "video": false, "vote_average": 6.4, "vote_count": 1764, "popularity": 17.65}, {"adult": false, "backdrop_path": "/zu3zLkJeRtGJq4I6D7ONMWmFOLh.jpg", "genre_ids": [28, 18], "id": 9766, "original_language": "en", "original_title": "Gridiron Gang", "overview": "Teenagers at a juvenile detention center, under the leadership of their counselor, gain self-esteem by playing football together.", "poster_path": "/8UlDsCPjAfg15L5Sgkcmy8rv1rg.jpg", "release_date": "2006-09-15", "title": "Gridiron Gang", "video": false, "vote_average": 6.7, "vote_count": 431, "popularity": 14.948}, {"id": 60308, "video": false, "vote_count": 2515, "vote_average": 7.2, "title": "Moneyball", "release_date": "2011-09-22", "original_language": "en", "original_title": "Moneyball", "genre_ids": [18], "backdrop_path": "/T9a9Q6Pin6Pra7dNMwWzAibxkk.jpg", "adult": false, "overview": "The story of Oakland Athletics general manager Billy Beane's successful attempt to put together a baseball team on a budget, by employing computer-generated analysis to draft his players.", "poster_path": "/3oAa8mJJ97CH9AeGEY6vjAxqcvZ.jpg", "popularity": 16.135}, {"adult": false, "backdrop_path": "/3fcBsj9JMQQ27Wuk3LVrEwVZ2VT.jpg", "genre_ids": [28, 18], "id": 323677, "original_language": "en", "original_title": "Race", "overview": "Based on the story of Jesse Owens, the athlete whose quest to become the greatest track and field athlete in history thrusts him onto the world stage of the 1936 Olympics, where he faces off against Adolf Hitler's vision of Aryan supremacy.", "poster_path": "/szLfTQ2vLFQkNbP3dc0pnco1rje.jpg", "release_date": "2016-02-19", "title": "Race", "video": false, "vote_average": 7.3, "vote_count": 989, "popularity": 11.176}, {"adult": false, "backdrop_path": "/20IgqkdFw5kuItqDCJtidSESP0t.jpg", "genre_ids": [27, 18], "id": 10066, "original_language": "en", "original_title": "House of Wax", "overview": "A group of unwitting teens are stranded near a strange wax museum and soon must fight to survive and keep from becoming the next exhibit.", "poster_path": "/uM1RebQywM5PPYsauayefpXGxVk.jpg", "release_date": "2005-04-30", "title": "House of Wax", "video": false, "vote_average": 5.7, "vote_count": 1531, "popularity": 21.972}, {"adult": false, "backdrop_path": "/mYKP6qcDUimVMAHQWLOuDHjO19S.jpg", "genre_ids": [35], "id": 445629, "original_language": "en", "original_title": "Fighting with My Family", "overview": "Born into a tight-knit wrestling family, Paige and her brother Zak are ecstatic when they get the once-in-a-lifetime opportunity to try out for the WWE. But when only Paige earns a spot in the competitive training program, she must leave her loved ones behind and face this new cutthroat world alone. Paige's journey pushes her to dig deep and ultimately prove to the world that what makes her different is the very thing that can make her a star.", "poster_path": "/cVhe15rJLRjolunSWLBN6xQLyGU.jpg", "release_date": "2019-02-14", "title": "Fighting with My Family", "video": false, "vote_average": 6.7, "vote_count": 642, "popularity": 23.641}, {"adult": false, "backdrop_path": "/w41zFKYTsq4wf5QnQJWMXuzWl2F.jpg", "genre_ids": [18, 28], "id": 96721, "original_language": "en", "original_title": "Rush", "overview": "A biographical drama centered on the rivalry between Formula 1 drivers James Hunt and Niki Lauda during the 1976 Formula One motor-racing season.", "poster_path": "/cjEepHZOZAwmK6nAj5jis6HV75E.jpg", "release_date": "2013-09-02", "title": "Rush", "video": false, "vote_average": 7.7, "vote_count": 4275, "popularity": 16.446}, {"id": 1375, "video": false, "vote_count": 1669, "vote_average": 5.6, "title": "Rocky V", "release_date": "1990-10-18", "original_language": "en", "original_title": "Rocky V", "genre_ids": [18], "backdrop_path": "/dr5pdEDOdCvelCQqP32UZubiSgE.jpg", "adult": false, "overview": "A lifetime of taking shots has ended Rocky\u2019s career, and a crooked accountant has left him broke. Inspired by the memory of his trainer, however, Rocky finds glory in training and takes on an up-and-coming boxer.", "poster_path": "/5P2RiuLt31mWyb6duww8qlAhs6G.jpg", "popularity": 16.084}, {"id": 70006, "video": false, "vote_count": 288, "vote_average": 6.1, "title": "Never Back Down 2: The Beatdown", "release_date": "2011-09-13", "original_language": "en", "original_title": "Never Back Down 2: The Beatdown", "genre_ids": [28, 18], "backdrop_path": "/lSFqtjxMfAHa58TBDDBELKeq2DH.jpg", "adult": false, "overview": "Four fighters different backgrounds come together to train under an ex MMA rising star and then ultimately have to fight each other and the traitor in heir midst.", "poster_path": "/qeISu4rUk9l9sQTMs86fAoxSx8p.jpg", "popularity": 20.91}, {"id": 391757, "video": false, "vote_count": 185, "vote_average": 6.5, "title": "Never Back Down: No Surrender", "release_date": "2016-06-07", "original_language": "en", "original_title": "Never Back Down: No Surrender", "genre_ids": [28, 18], "backdrop_path": "/pzjnObK3uiHcKwiir9OPPWzbW8f.jpg", "adult": false, "overview": "Picking up after the events of Never Back Down 2, former MMA champion Case Walker is on the comeback trail to become champion once again.", "poster_path": "/dYNS4o4Q4DDLiKRAAvZ9KcrhHuy.jpg", "popularity": 16.224}, {"id": 396371, "video": false, "vote_count": 1968, "vote_average": 7.1, "title": "Molly's Game", "release_date": "2017-12-25", "original_language": "en", "original_title": "Molly's Game", "genre_ids": [80, 18], "backdrop_path": "/rHcBZ6ZKCe4FalWHyvBGsyMsh0k.jpg", "adult": false, "overview": "Molly Bloom, a young skier and former Olympic hopeful becomes a successful entrepreneur (and a target of an FBI investigation) when she establishes a high-stakes, international poker game.", "poster_path": "/in43bQ7k0ttr666IPP94IlbQbTR.jpg", "popularity": 18.118}, {"id": 312221, "video": false, "vote_count": 4400, "vote_average": 7.4, "title": "Creed", "release_date": "2015-11-25", "original_language": "en", "original_title": "Creed", "genre_ids": [18], "backdrop_path": "/fs2yhdSCzMVlNECrN84WuCkgXov.jpg", "adult": false, "overview": "The former World Heavyweight Champion Rocky Balboa serves as a trainer and mentor to Adonis Johnson, the son of his late friend and former rival Apollo Creed.", "poster_path": "/hKzhV274pkZBSpXfCjUyzbyYKLl.jpg", "popularity": 17.551}, {"id": 307081, "video": false, "vote_count": 3699, "vote_average": 7.4, "title": "Southpaw", "release_date": "2015-03-24", "original_language": "en", "original_title": "Southpaw", "genre_ids": [28, 18], "backdrop_path": "/tTt1cdEEkKMJ1R4VBTe5vbE3bWO.jpg", "adult": false, "overview": "Billy \"The Great\" Hope, the reigning junior middleweight boxing champion, has an impressive career, a loving wife and daughter, and a lavish lifestyle. However, when tragedy strikes, Billy hits rock bottom, losing his family, his house and his manager. He soon finds an unlikely savior in Tick Willis, a former fighter who trains the city's toughest amateur boxers. With his future on the line, Hope fights to reclaim the trust of those he loves the most.", "poster_path": "/50d0XQQETSyg3bwBXhC7K33pKgc.jpg", "popularity": 24.057}], "total_pages": 178, "total_results": 3552}, "recommendations": {"page": 1, "results": [{"adult": false, "backdrop_path": null, "genre_ids": [], "id": 107934, "original_language": "en", "original_title": "Blue Ridge", "overview": "Paranoid and unpredictable, J.T. lives a solitary life of used tires and decaying trailers. Despite his situation, J.T. wins the love of Sara, an innocent young girl left alone in the world after losing the last of her family.", "poster_path": "/e9zLgHMDbXrzK0s9DlETkli72JU.jpg", "release_date": "2012-06-07", "title": "Blue Ridge", "video": false, "vote_average": 5.7, "vote_count": 6, "popularity": 1.773}, {"adult": false, "backdrop_path": null, "genre_ids": [10402, 35], "id": 399786, "original_language": "en", "original_title": "Browsers", "overview": "Set in contemporary Manhattan, it follows four young people as they start their first jobs at a news website.", "poster_path": "/acSXZvo8KeigZyCBZ0CJtzoFsDZ.jpg", "release_date": "2013-04-19", "title": "Browsers", "video": false, "vote_average": 6.6, "vote_count": 7, "popularity": 4.415}, {"id": 15669, "video": false, "vote_count": 19, "vote_average": 5.7, "title": "The Final Season", "release_date": "2007-10-12", "original_language": "en", "original_title": "The Final Season", "genre_ids": [18], "backdrop_path": "/vUa11Qz4fmOJRAQyBBeWsRCLAWF.jpg", "adult": false, "overview": "True story of Kent Stock, who in the early '90s gives up a job and ditches his wedding plans to take over as head coach as the Norway High School baseball team. Kent must win over his players and convince them and himself that he can fill their former coach's shoes and that they can go out winners. In the summer of 1991 Norway High's baseball tradition ended on a triumphant but sombre note.", "poster_path": "/ybJXbRlepM7D7bkHvwv8N4U51YZ.jpg", "popularity": 4.719}, {"adult": false, "backdrop_path": null, "genre_ids": [99], "id": 130002, "original_language": "en", "original_title": "Mark Twain", "overview": "Largely considered to be the greatest American author, Mark Twain is celebrated in this exhaustive documentary by filmmaker Ken Burns.", "poster_path": "/1YASpcw1BDPJPHyLHGkaRGLLNvl.jpg", "release_date": "2002-01-14", "title": "Mark Twain", "video": false, "vote_average": 6.6, "vote_count": 10, "popularity": 3.676}, {"adult": false, "backdrop_path": "/r49spCW5scR3ifM0SqYD5bDPT1m.jpg", "genre_ids": [35, 18], "id": 16297, "original_language": "en", "original_title": "With Honors", "overview": "Convinced he'll graduate with honors because of his thesis paper, a stuffy Harvard student finds his paper being held hostage by a homeless man, who might be the guy to school the young man in life.", "poster_path": "/b4fwH4wTvm47P14NSXxaOeQvINM.jpg", "release_date": "1994-04-29", "title": "With Honors", "video": false, "vote_average": 6.6, "vote_count": 96, "popularity": 12.288}, {"id": 31692, "video": false, "vote_count": 29, "vote_average": 5.9, "title": "The Public Eye", "release_date": "1992-01-01", "original_language": "en", "original_title": "The Public Eye", "genre_ids": [28, 12, 80, 18, 53], "backdrop_path": "/5preyccbw7KkB7X9VE0t05yJ05e.jpg", "adult": false, "overview": "A crime photographer gets involved in a conspiracy.", "poster_path": "/oiKWmtkGVOHR9Z49qZkkDkCeKyO.jpg", "popularity": 5.899}, {"id": 53287, "video": false, "vote_count": 48, "vote_average": 5.8, "title": "The Super", "release_date": "1991-10-04", "original_language": "en", "original_title": "The Super", "genre_ids": [35], "backdrop_path": "/x3QhmCjgo5aUl9wVxO6YEAOUTM4.jpg", "adult": false, "overview": "Joe Pesci stars as Louie Kritski, a heartless landlord who has been so negligent in keeping up his ghetto apartment that he is threatened with jail time. The judge gives him another option, which he accepts -- he must live in his rat-infested hell hole until he brings it up to liveable standards. The judge gives him 120 days, during which time Louie meets many of his tenants, including drug dealer Marlon (Ruben Blades). Over time, Louie grows more sympathetic with their problems and sees the results of his own greediness. Unfortunately, Louie's father, Big Lou Kritski (Vincent Gardenia), is the real owner of the property, and he resists his son's entreaties to spend money to clean up the place.", "poster_path": "/uJGeLycfDUZPQhBy1orsEh64Fxn.jpg", "popularity": 7.214}, {"adult": false, "backdrop_path": "/xXFHDStu5o25YONKJpwN8skewS1.jpg", "genre_ids": [12, 14, 35, 10749], "id": 47070, "original_language": "en", "original_title": "Brenda Starr", "overview": "Mike is a struggling artist who draws the 'Brenda Starr' strip for the papers. When Brenda comes to life in the strip and sees how unappreciated she is by Mike, she leaves the strip. To get her back, and keep his job, Mike draws himself into the strip. In her world, Brenda Starr is the Ace Reporter for the New York Flash. She is talented, fearless, smart and a very snappy dresser. The only competition she has is from the rival paper's top reporter Libby Lipscomb. Brenda heads to the Amazon jungle to find a scientist with a secret formula which will create cheap and powerful gas from ordinary water. (This movie was filmed in 1986 but release was delayed for several years.)", "poster_path": "/j3GXTuCwqXZSywIaRRtpEctoAg6.jpg", "release_date": "1989-05-15", "title": "Brenda Starr", "video": false, "vote_average": 5.4, "vote_count": 10, "popularity": 4.768}, {"adult": false, "backdrop_path": "/d4rieIxLyDzvQhztnC8jMEJ2B4o.jpg", "genre_ids": [35], "id": 31535, "original_language": "en", "original_title": "Chairman of the Board", "overview": "A surfer becomes the head of a major company.", "poster_path": "/p4ZkJG5iTrZYKNQKEM1PQYYsYTl.jpg", "release_date": "1998-03-13", "title": "Chairman of the Board", "video": false, "vote_average": 3.6, "vote_count": 29, "popularity": 5.847}, {"id": 50536, "video": false, "vote_count": 30, "vote_average": 5.8, "title": "Twenty Bucks", "release_date": "1993-10-21", "original_language": "en", "original_title": "Twenty Bucks", "genre_ids": [18], "backdrop_path": "/gYMvUaNcvQlxgbfin8F9dHZZF5r.jpg", "adult": false, "overview": "A story about the life of a twenty dollar bill as it weaves in and out of the various lives of several people.", "poster_path": "/pAZxoG13a8nGTQ5jrs7xzz0t59b.jpg", "popularity": 4.622}, {"id": 33545, "video": false, "vote_count": 23, "vote_average": 5.5, "title": "The Siege of Firebase Gloria", "release_date": "1989-01-27", "original_language": "en", "original_title": "The Siege of Firebase Gloria", "genre_ids": [28, 10752], "backdrop_path": "/3rJPgNzOGgCTWvcSRbrUZiebm2L.jpg", "adult": false, "overview": "A Marine patrol stops at Firebase Gloria at the start of the Tet Offensive during the Vietnam war. With the firebase attacked, the patrol remains to help defend it. The Marines barely hold off the VC (Viet Cong), but in the end, hold the base.", "poster_path": "/cAN1OLcfRt6ONQOLGGGEcAtC6tn.jpg", "popularity": 6.633}, {"adult": false, "backdrop_path": "/9odrhYU1CU2ZNrtSKcUJXh2g6wm.jpg", "genre_ids": [35, 10749], "id": 41862, "original_language": "en", "original_title": "Freshman Orientation", "overview": "A typical Midwestern 18 year-old freshman at a large state university eager to delve into the college party life, instead discovers that school is not the beer-driven, sexual fantasy of his imagination. Determined to do anything to obtain the girl of his dreams (a gorgeous but reluctant sorority girl), he decides to adopt a gay identity in order to insinuate himself in her life. This casual charade, however, quickly lands him in a morass of campus activism, gender warfare, fraternity hazes, sorority torture, \"coming out\" narratives, political martyrdom, and ultimately, a university-wide meltdown.", "poster_path": "/85Jj34KuJieIBobf010KXGNOvt3.jpg", "release_date": "2004-01-18", "title": "Freshman Orientation", "video": false, "vote_average": 5.9, "vote_count": 12, "popularity": 3.734}, {"adult": false, "backdrop_path": "/owMWpPXkZku86GlM6lmyzthzYrn.jpg", "genre_ids": [35], "id": 31643, "original_language": "en", "original_title": "Jimmy Hollywood", "overview": "Jimmy Alto is an actor wannabe who stumbles into the role of a lifetime. He becomes a vigilante crime-fighter, aided by his sidekick William, who has suffered a head wound and has problems with short-term memory. Jimmy's vigilante alter ego soon becomes a media wonder--but Jimmy remains a total unknown and his long-suffering girl friend Lorraine is getting fed up with the whole situation.", "poster_path": "/pMFMuAdQORx4GoGs6HuZyUepIkN.jpg", "release_date": "1994-03-30", "title": "Jimmy Hollywood", "video": false, "vote_average": 5.1, "vote_count": 24, "popularity": 5.654}, {"id": 128270, "video": false, "vote_count": 44, "vote_average": 5.9, "title": "Not Fade Away", "release_date": "2012-12-21", "original_language": "en", "original_title": "Not Fade Away", "genre_ids": [18], "backdrop_path": "/3EQKvy6NZ1m5rN8CYwt5yV6uPtB.jpg", "adult": false, "overview": "Set in suburban New Jersey in the 1960s, a group of friends form a rock band and try to make it big.", "poster_path": "/1DETAMdEj481K6JAzO8RB9Qzr7e.jpg", "popularity": 8.028}, {"adult": false, "backdrop_path": "/tYeEEfcHd9Fsiyicg5oFslQL4wz.jpg", "genre_ids": [35], "id": 26449, "original_language": "en", "original_title": "Sex and the Teenage Mind", "overview": "High school hottie Kellie Guthrie would never dream of giving nerdy classmate Virgil Heitmeyer a second look -- but after he takes the fall for Kellie when she's caught cheating, she's ready to reward him with an intimate thank-you.", "poster_path": "/NIScyXKYAPJ1mEpUvfxlnXDmyA.jpg", "release_date": "2002-01-01", "title": "Sex and the Teenage Mind", "video": false, "vote_average": 5.1, "vote_count": 7, "popularity": 3.809}, {"adult": false, "backdrop_path": null, "genre_ids": [28, 53], "id": 55712, "original_language": "en", "original_title": "Demolition University", "overview": "College students on a field trip encounter terrorists planning to poison the city's water supply.", "poster_path": "/hKHD6STi8mp8CQofpw2zJxowp8X.jpg", "release_date": "1997-10-27", "title": "Demolition University", "video": false, "vote_average": 4.4, "vote_count": 4, "popularity": 3.676}, {"id": 41324, "video": false, "vote_count": 11, "vote_average": 7.0, "title": "Fidel: The Untold Story", "release_date": "2001-08-02", "original_language": "en", "original_title": "Fidel: The Untold Story", "genre_ids": [99, 36], "backdrop_path": "/j9rx0h8M5QfTo8Htqztvw4GZwwe.jpg", "adult": false, "overview": "Documentary about Fidel Castro, covering 40 years of Cuban Revolution. Rare Fidel Castro footage: he appears swimming with a bodyguard, visiting his childhood home and school, playing with his friend Nelson Mandela, meeting kid Eli\u00e1n Gonzalez, and celebrating his birthday with the Buena Vista Social Club group.", "poster_path": "/ks0LQObxt6tfzctMDZakQuBMdyy.jpg", "popularity": 3.606}, {"id": 19118, "video": false, "vote_count": 39, "vote_average": 7.1, "title": "Let It Ride", "release_date": "1989-08-18", "original_language": "en", "original_title": "Let It Ride", "genre_ids": [35], "backdrop_path": "/iGQGXUoIXSzQ4lkygEQ04bUgW0g.jpg", "adult": false, "overview": "A gambler used to losing is having a very good day.", "poster_path": "/33L55pHncrUVQoq3ylX1jWPi5Z0.jpg", "popularity": 7.198}, {"adult": false, "backdrop_path": "/vPDPnHeCuDWYboL8B7K4i3zXBoN.jpg", "genre_ids": [35, 10749, 10751], "id": 27307, "original_language": "en", "original_title": "How I Got Into College", "overview": "The simple story of two young Michigan high school students, Jessica, Class President, Local Smart Girl, and object of Marlon's affections attempt to get into a small Pennsylvania college. Jessica fights off her parent's expectation of going to their alma mater of the University of Michigan, while Marlon fights his grades and SAT scores.", "poster_path": "/kWHeHMvPutVc01iLaUskWhm2bLm.jpg", "release_date": "1989-05-19", "title": "How I Got Into College", "video": false, "vote_average": 5.6, "vote_count": 18, "popularity": 5.651}, {"adult": false, "backdrop_path": "/6vlafA89UBgICLarDItNPQV3Lut.jpg", "genre_ids": [18], "id": 31605, "original_language": "en", "original_title": "The Last American Hero", "overview": "A backwoods bootlegger decides to put the driving skills he developed evading the law to good use. He becomes a race car driver, and eventually, one of the fastest drivers in history. Also known as\u00a0\"Hard Driver\".", "poster_path": "/1PEOlAC6KDaj0WxWPw87kan3Kmp.jpg", "release_date": "1973-01-01", "title": "The Last American Hero", "video": false, "vote_average": 5.6, "vote_count": 13, "popularity": 3.956}], "total_pages": 2, "total_results": 40}, "credits": {"cast": [{"cast_id": 1, "character": "Steve Nebraska", "credit_id": "52fe459c9251416c9103861b", "gender": 2, "id": 18269, "name": "Brendan Fraser", "order": 0, "profile_path": "/n8VOWXp94nhIEo5nS9o6bOpUHiN.jpg"}, {"cast_id": 2, "character": "Al Percolo", "credit_id": "52fe459c9251416c9103861f", "gender": 2, "id": 13, "name": "Albert Brooks", "order": 1, "profile_path": "/kahlMTdygrPJ28VYRhKPavYD9hs.jpg"}, {"cast_id": 3, "character": "Doctor H. Aaron", "credit_id": "52fe459c9251416c91038623", "gender": 1, "id": 1902, "name": "Dianne Wiest", "order": 2, "profile_path": "/sWm7Oar69rHGJzKgcP4iutwUmLb.jpg"}, {"cast_id": 4, "character": "Jennifer", "credit_id": "52fe459c9251416c91038627", "gender": 1, "id": 110434, "name": "Anne Twomey", "order": 3, "profile_path": "/moN4fyQfCGdPy1oG7GEBHTXUJOy.jpg"}, {"cast_id": 5, "character": "Ron Wilson", "credit_id": "52fe459c9251416c9103862b", "gender": 2, "id": 65019, "name": "Lane Smith", "order": 4, "profile_path": "/js7GonfBVNHLYhaB0Xjtnm93DpH.jpg"}, {"cast_id": 6, "character": "Tommy Lacy", "credit_id": "52fe459c9251416c9103862f", "gender": 2, "id": 4688, "name": "Michael Rapaport", "order": 5, "profile_path": "/i39bAISjAUWYlXZZA0wmjYWnZGf.jpg"}, {"cast_id": 7, "character": "McDermott", "credit_id": "52fe459c9251416c91038633", "gender": 2, "id": 8689, "name": "Barry Shabaka Henley", "order": 6, "profile_path": "/29JdJxKxHEMvbBS9DWeRMU9dwjj.jpg"}, {"cast_id": 8, "character": "Caruso", "credit_id": "52fe459c9251416c91038637", "gender": 2, "id": 31007, "name": "John Capodice", "order": 7, "profile_path": "/sQuJV9o2FSXr5UBo2MaiTLObXiY.jpg"}, {"cast_id": 12, "character": "Assistant Coach", "credit_id": "57df2e97c3a3681d4b00241f", "gender": 2, "id": 18999, "name": "J.K. Simmons", "order": 8, "profile_path": "/jPoNW5fugs5h8AbcE7H5OBm04Tm.jpg"}], "crew": [{"credit_id": "52fe459c9251416c9103863d", "department": "Directing", "gender": 2, "id": 12964, "job": "Director", "name": "Michael Ritchie", "profile_path": "/62566NoTLMRVLdoE07RG1B55zxy.jpg"}, {"credit_id": "52fe459c9251416c91038643", "department": "Writing", "gender": 0, "id": 1083423, "job": "Writer", "name": "Roger Angelini", "profile_path": null}, {"credit_id": "52fe459c9251416c91038649", "department": "Writing", "gender": 2, "id": 41550, "job": "Writer", "name": "Andrew Bergman", "profile_path": "/gTx35MhqW8MlGv7JlYnCJQClebi.jpg"}, {"credit_id": "58fd309fc3a36879f40232f8", "department": "Sound", "gender": 2, "id": 10494, "job": "Original Music Composer", "name": "Bill Conti", "profile_path": "/cR6H9EFVkeGP0TnoX9RPNBB6hSN.jpg"}, {"credit_id": "58fd30a5c3a3687a030241f3", "department": "Camera", "gender": 2, "id": 8862, "job": "Director of Photography", "name": "L\u00e1szl\u00f3 Kov\u00e1cs", "profile_path": "/qvsRxyAPJw9Kv8ubV2AKWLiUcz8.jpg"}]}}