{"adult": false, "backdrop_path": "/6nyuvMk0RJKu5oVLbxJ4RZqO4wY.jpg", "belongs_to_collection": null, "budget": 0, "genres": [{"id": 27, "name": "Horror"}, {"id": 9648, "name": "Mystery"}, {"id": 53, "name": "Thriller"}], "homepage": "http://www.rangitaranga.com/", "id": 354667, "imdb_id": "tt4432480", "original_language": "kn", "original_title": "RangiTaranga", "overview": "A 2015 Kannada mystery-thriller movie.", "popularity": 0.842, "poster_path": "/bEdyS9wChl4cYJ1Oi8w2jbbDBlG.jpg", "production_companies": [], "production_countries": [{"iso_3166_1": "IN", "name": "India"}], "release_date": "2015-07-03", "revenue": 0, "runtime": null, "spoken_languages": [{"iso_639_1": "kn", "name": "?????"}], "status": "Released", "tagline": "", "title": "RangiTaranga", "video": false, "vote_average": 8.7, "vote_count": 8, "keywords": {"keywords": [{"id": 18011, "name": "pregnant woman"}, {"id": 155251, "name": "novelist"}, {"id": 158639, "name": "missing parent"}]}, "similar": {"page": 1, "results": [{"adult": false, "backdrop_path": "/hm8Gux0946IfeJ1PZwztOo6lVHH.jpg", "genre_ids": [18, 36, 35], "id": 450322, "original_language": "en", "original_title": "The Man Who Invented Christmas", "overview": "In 1843, despite the fact that Dickens is a successful writer, the failure of his latest book puts his career at a crossroads, until the moment when, struggling with inspiration and confronting reality with his childhood memories, a new character is born in the depths of his troubled mind; an old, lonely, embittered man, so vivid, so human, that a whole world grows around him, a story so inspiring that changed the meaning of Christmas forever.", "poster_path": "/xYCuRgEKynGurSEooxDa9pQPF7n.jpg", "release_date": "2017-10-12", "title": "The Man Who Invented Christmas", "video": false, "vote_average": 6.7, "vote_count": 395, "popularity": 12.264}, {"adult": false, "backdrop_path": "/sqq5nDBcgTDrIJ3Hcqq8q4a1iut.jpg", "genre_ids": [35, 18, 14, 10749], "id": 1262, "original_language": "en", "original_title": "Stranger Than Fiction", "overview": "Harold Crick is a lonely IRS agent whose mundane existence is transformed when he hears a mysterious voice narrating his life.", "poster_path": "/AtjCCvfMq9kmjwjbVwTJ0mWG7zp.jpg", "release_date": "2006-09-09", "title": "Stranger Than Fiction", "video": false, "vote_average": 7.2, "vote_count": 1339, "popularity": 12.098}, {"adult": false, "backdrop_path": "/2lqsULuc6KXxaCc1mFaG4hQmbwF.jpg", "genre_ids": [18, 10751, 14, 10770], "id": 46169, "original_language": "en", "original_title": "Twitches Too", "overview": "Reunited witch twins Camryn and Alex adjust to their new life as supernatural beings while at the same time trying to maintain a normal existence in this sequel to the magical Disney Channel original movie Twitches. But they soon find themselves going head to head with the forces of darkness that threaten to destroy their world. Luckily, their birth mother, the powerful Miranda, is on hand to help out.", "poster_path": "/bueTS6wabNUi1FZYTeF9FvUM35M.jpg", "release_date": "2007-10-12", "title": "Twitches Too", "video": false, "vote_average": 6.2, "vote_count": 167, "popularity": 8.903}, {"id": 95610, "video": false, "vote_count": 2004, "vote_average": 6.4, "title": "Bridget Jones's Baby", "release_date": "2016-09-14", "original_language": "en", "original_title": "Bridget Jones's Baby", "genre_ids": [35, 10749], "backdrop_path": "/w9VNDcQet0TUoLRWHg8JbT4QjpW.jpg", "adult": false, "overview": "Breaking up with Mark Darcy leaves Bridget Jones over 40 and single again. Feeling that she has everything under control, Jones decides to focus on her career as a top news producer. Suddenly, her love life comes back from the dead when she meets a dashing and handsome American named Jack. Things couldn't be better, until Bridget discovers that she is pregnant. Now, the befuddled mom-to-be must figure out if the proud papa is Mark or Jack.", "poster_path": "/j8di6S3mUuFe5Yz8etRG8yG5EeE.jpg", "popularity": 14.026}, {"id": 447404, "video": false, "vote_count": 3057, "vote_average": 6.9, "title": "Pok\u00e9mon Detective Pikachu", "release_date": "2019-05-03", "original_language": "en", "original_title": "Pok\u00e9mon Detective Pikachu", "genre_ids": [28, 12, 14], "backdrop_path": "/nDP33LmQwNsnPv29GQazz59HjJI.jpg", "adult": false, "overview": "In a world where people collect pocket-size monsters (Pok\u00e9mon) to do battle, a boy comes across an intelligent monster who seeks to be a detective.", "poster_path": "/wgQ7APnFpf1TuviKHXeEe3KnsTV.jpg", "popularity": 33.991}, {"id": 446354, "video": false, "vote_count": 2839, "vote_average": 7.0, "title": "The Post", "release_date": "2017-12-22", "original_language": "en", "original_title": "The Post", "genre_ids": [18, 36], "backdrop_path": "/8sb4aBST28vN3rBz704XJczS0Ld.jpg", "adult": false, "overview": "A cover-up that spanned four U.S. Presidents pushed the country's first female newspaper publisher and a hard-driving editor to join an unprecedented battle between journalist and government. Inspired by true events.", "poster_path": "/h4XG3g6uMMPIBPjAoQhC2QIMdkl.jpg", "popularity": 19.347}, {"adult": false, "backdrop_path": "/8SQkkMqHqYPaJZsYmxmBp8mQY3M.jpg", "genre_ids": [18, 53], "id": 340666, "original_language": "en", "original_title": "Nocturnal Animals", "overview": "Susan Morrow receives a book manuscript from her ex-husband \u2013 a man she left 20 years earlier \u2013 asking for her opinion of his writing. As she reads, she is drawn into the fictional life of Tony Hastings, a mathematics professor whose family vacation turns violent.", "poster_path": "/6yf5tQgzbLj1HomN6vGqfBggpx9.jpg", "release_date": "2016-11-04", "title": "Nocturnal Animals", "video": false, "vote_average": 7.4, "vote_count": 4699, "popularity": 15.099}, {"id": 523139, "video": false, "vote_count": 751, "vote_average": 5.4, "title": "In the Tall Grass", "release_date": "2019-09-20", "original_language": "en", "original_title": "In the Tall Grass", "genre_ids": [18, 27, 53], "backdrop_path": "/qk8pKinGFWEDZ02NVKuUsBuWuGx.jpg", "adult": false, "overview": "After hearing a child screaming for help from the green depths of a vast field of tall grass, Becky, a pregnant woman, and Cal, her brother, park their car near a mysterious abandoned church and recklessly enter the field, discovering that they are not alone and because of some reason they are unable of escaping a completely inextricable vegetable labyrinth.", "poster_path": "/1RxhzwFkAUqMt215Brb06u8P8pn.jpg", "popularity": 16.594}, {"id": 566454, "video": false, "vote_count": 159, "vote_average": 6.5, "title": "The Mystery of Henri Pick", "release_date": "2019-03-06", "original_language": "fr", "original_title": "Le Myst\u00e8re Henri Pick", "genre_ids": [18], "backdrop_path": "/6ytu4enqLbAYhPMSWpfyAp7U5pq.jpg", "adult": false, "overview": "In a bizarre Breton library that collects rejected, never published manuscripts, a young editor discovers a novel that she considers a masterpiece. It was written by a certain Henri Pick, a cook who died two years earlier and who, according to his widow, had never read a book in his life or written anything but a shopping list... Did he have a secret life? When the book becomes a huge best-seller, Jean- Michel Rouche, a skeptical and stubborn literary critic, teams up with Jos\u00e9phine, Pick\u2019s daughter, to unravel the mystery.", "poster_path": "/anN8IURd68mqxYAFdA9O3mV4wCp.jpg", "popularity": 15.914}, {"id": 11285, "video": false, "vote_count": 173, "vote_average": 5.5, "title": "Cocoon: The Return", "release_date": "1988-09-13", "original_language": "en", "original_title": "Cocoon: The Return", "genre_ids": [35, 878], "backdrop_path": "/kBa9ecvBRD5M3IERehLDXRyETdK.jpg", "adult": false, "overview": "The reinvigorated elderly group that left Earth comes back to visit their relatives. Will they all decide to go back to the planet where no one grows old, or will they be tempted to remain on Earth?", "poster_path": "/AkPcfRIZ1ZynIB2nnOOOWzHPOT9.jpg", "popularity": 10.087}, {"id": 9326, "video": false, "vote_count": 938, "vote_average": 6.7, "title": "Romancing the Stone", "release_date": "1984-03-30", "original_language": "en", "original_title": "Romancing the Stone", "genre_ids": [28, 12, 35, 10749], "backdrop_path": "/5MNAokmkK4NPtYJCPmQ2fgErW9n.jpg", "adult": false, "overview": "Though she can spin wild tales of passionate romance, novelist Joan Wilder has no life of her own. Then one day adventure comes her way in the form of a mysterious package. It turns out that the parcel is the ransom she'll need to free her abducted sister, so Joan flies to South America to hand it over. But she gets on the wrong bus and winds up hopelessly stranded in the jungle.", "poster_path": "/3TqpkTYiltYsxYatdug6WDgdRKL.jpg", "popularity": 16.925}, {"id": 259954, "video": false, "vote_count": 205, "vote_average": 7.2, "title": "5 to 7", "release_date": "2014-04-19", "original_language": "en", "original_title": "5 to 7", "genre_ids": [35, 10749], "backdrop_path": "/omHzmZb6wfORZBzBhwU225tExQh.jpg", "adult": false, "overview": "A young writer begins an affair with an older woman from France whose open marriage to a diplomat dictates that they can meet only between the hours of 5 p.m. to 7 p.m.", "poster_path": "/vnR9n305GAqlA9VhE4VYIDCHVcZ.jpg", "popularity": 13.828}, {"id": 267192, "video": false, "vote_count": 434, "vote_average": 6.5, "title": "Genius", "release_date": "2016-06-10", "original_language": "en", "original_title": "Genius", "genre_ids": [18, 36], "backdrop_path": "/5eovlgVfijObBm4TtW1QSaj32q3.jpg", "adult": false, "overview": "New York in the 1920s. Max Perkins, a literary editor is the first to sign such subsequent literary greats as Ernest Hemingway and F. Scott Fitzgerald. When a sprawling, chaotic 1,000-page manuscript by an unknown writer falls into his hands, Perkins is convinced he has discovered a literary genius.", "poster_path": "/nwnmZkRkXpu11Zfku8DUSRu7JWs.jpg", "popularity": 12.057}, {"adult": false, "backdrop_path": "/oZwwwezJFlHmQGBRJDLmENXwOIt.jpg", "genre_ids": [9648, 27, 878], "id": 378018, "original_language": "en", "original_title": "The Void", "overview": "In the middle of a routine patrol, officer Daniel Carter happens upon a blood-soaked figure limping down a deserted stretch of road. He rushes the young man to a nearby rural hospital staffed by a skeleton crew, only to discover that patients and personnel are transforming into something inhuman. As the horror intensifies, Carter leads the other survivors on a hellish voyage into the subterranean depths of the hospital in a desperate bid to end the nightmare before it's too late.", "poster_path": "/c0WLRyT0AmUi41nVXBnqmJshIBn.jpg", "release_date": "2017-01-15", "title": "The Void", "video": false, "vote_average": 5.8, "vote_count": 573, "popularity": 12.44}, {"id": 2654, "video": false, "vote_count": 761, "vote_average": 7.2, "title": "In the Mouth of Madness", "release_date": "1994-06-18", "original_language": "en", "original_title": "In the Mouth of Madness", "genre_ids": [27, 9648, 53], "backdrop_path": "/sSaSuZ9A9MAKyEs3jdyFwEHgzvO.jpg", "adult": false, "overview": "With the disappearance of hack horror writer Sutter Cane, all Hell is breaking loose...literally! Author Cane, it seems, has a knack for description that really brings his evil creepy-crawlies to life. Insurance investigator John Trent is sent to investigate Cane's mysterious vanishing act and ends up in the sleepy little East Coast town of Hobb's End.", "poster_path": "/wsEjvQWgkooRDgmeM9CTRNkF8yX.jpg", "popularity": 11.911}, {"id": 340613, "video": false, "vote_count": 605, "vote_average": 7.2, "title": "The Wife", "release_date": "2018-08-02", "original_language": "en", "original_title": "The Wife", "genre_ids": [18], "backdrop_path": "/jvLrBlzdlJuDZtLunkCCd0eOXSm.jpg", "adult": false, "overview": "A wife questions her life choices as she travels to Stockholm with her husband, where he is slated to receive the Nobel Prize for Literature.", "poster_path": "/d4Qyuy0Ul549f6SOdUqGvIdYKD2.jpg", "popularity": 11.69}, {"adult": false, "backdrop_path": "/eJZCmIgZdFlq6XqL3qtFcJsG0P6.jpg", "genre_ids": [35, 10749, 14, 18], "id": 103332, "original_language": "en", "original_title": "Ruby Sparks", "overview": "Calvin is a young novelist who achieved phenomenal success early in his career but is now struggling with his writing \u2013 as well as his romantic life. Finally, he makes a breakthrough and creates a character named Ruby who inspires him. When Calvin finds Ruby, in the flesh, sitting on his couch about a week later, he is completely flabbergasted that his words have turned into a living, breathing person.", "poster_path": "/9BYlY8cqxunyl9GpZlDXu5WuXQ7.jpg", "release_date": "2012-07-25", "title": "Ruby Sparks", "video": false, "vote_average": 7.1, "vote_count": 1000, "popularity": 9.869}, {"id": 19794, "video": false, "vote_count": 255, "vote_average": 5.3, "title": "Labor Pains", "release_date": "2009-07-19", "original_language": "en", "original_title": "Labor Pains", "genre_ids": [35], "backdrop_path": "/dnteTsZ7EnuKbkRKCpnSOYI5ltN.jpg", "adult": false, "overview": "A young woman pretends to be pregnant in order to avoid being fired from her job. When that gets her a bunch of special treatment by everyone involved in her life, she tries to keep up the lie for nine months.", "poster_path": "/wbv9iqbjVrSYJ5PaPpVSrOGEosu.jpg", "popularity": 9.776}, {"adult": false, "backdrop_path": "/gz4ytKq2oHi040GEakUszYXmOrJ.jpg", "genre_ids": [28, 12, 35, 10749], "id": 10303, "original_language": "en", "original_title": "The Jewel of the Nile", "overview": "Joan Wilder is thrust back into a world of murder, chases, foreign intrigue... and love. This time out she's duped by a duplicitous Arab dignitary who brings her to the Middle East, ostensibly to write a book about his life. Of course he's up to no good, and Joan is just another pawn in his wicked game. But Jack Colton and his sidekick Ralph show up to help our intrepid heroine save the day.", "poster_path": "/iQXxVWuXmaEPhieETkThDgGGKCb.jpg", "release_date": "1985-12-04", "title": "The Jewel of the Nile", "video": false, "vote_average": 6.1, "vote_count": 575, "popularity": 13.816}, {"id": 348678, "video": false, "vote_count": 496, "vote_average": 7.5, "title": "A Man Called Ove", "release_date": "2015-12-25", "original_language": "sv", "original_title": "En man som heter Ove", "genre_ids": [35, 18], "backdrop_path": "/o3PDMTyyMOGFNtze7YsfdWeMKpm.jpg", "adult": false, "overview": "Despite grumpy 59 year-old Ove being deposed as president of his condominium association, but he keeps looking over the neighbourhood with an iron fist. When pregnant Parvaneh and her family move into the terraced house opposite Ove and she accidentally back into Ove\u2019s mailbox, it sets off a series of unexpected changes in his life.", "poster_path": "/9dwCRd569l2Q2nWTjBjUcVuwmoq.jpg", "popularity": 15.58}], "total_pages": 8, "total_results": 152}, "recommendations": {"page": 1, "results": [{"adult": false, "backdrop_path": null, "genre_ids": [53], "id": 347989, "original_language": "kn", "original_title": "Uppi 2", "overview": "Neenu leads a selfless life helping others in need without expecting anything in return. In the meantime, the police and an underworld don are on the lookout for him over a multi-crore property.", "poster_path": "/x2nyg3feFOJdEu2N3sWodmUMgrG.jpg", "release_date": "2015-08-14", "title": "Uppi 2", "video": false, "vote_average": 8.3, "vote_count": 4, "popularity": 0.99}, {"adult": false, "backdrop_path": "/hzYHNhfiYwmBHLuwfisGpZfULmT.jpg", "genre_ids": [28, 80], "id": 376074, "original_language": "kn", "original_title": "Porki", "overview": "A cop disguises as a gangster in order to capture a mafia leader.", "poster_path": "/8g3yR3yKG0qqpv5wt3xJ0jx1o4c.jpg", "release_date": "2010-01-28", "title": "Porki", "video": false, "vote_average": 5.7, "vote_count": 3, "popularity": 0.684}, {"adult": false, "backdrop_path": "/d7B5M0OjnvfgzzsIXBwVDrHWIYU.jpg", "genre_ids": [], "id": 306383, "original_language": "kn", "original_title": "Gajakessari", "overview": "Film starring Yash, Amoolya and Anant Nag", "poster_path": "/m62r3Lo4VC9GLWHQPQgJDvDID9n.jpg", "release_date": "2014-05-23", "title": "Gajakessari", "video": false, "vote_average": 3.7, "vote_count": 3, "popularity": 0.6}, {"adult": false, "backdrop_path": null, "genre_ids": [35, 18, 10749, 53], "id": 225904, "original_language": "kn", "original_title": "Drama", "overview": "The film starts in a village in Mandya where two youngsters Venkatesha and Sathish, who have failed their pre-degree courses seven times, create problems. Nandini, an ultra-modern girl comes to the village and attracts Venkatesha, who is prepared to do anything for pleasing the girl. Both Venkatesha and Sathish follow Nandini to Mysore, where she is pursuing studies. A strict principal of the college humiliates Nandini when she crosses the limits. Meanwhile, the principal gets murdered and a police officer suspects Venkatesha and Nandini to be behind this murder. There is a lot of confusion when it is revealed that Nandini is the daughter of a Dubai-based don, who is trying to kill a Mangalore-based don. What happens in the end is revealed in an interesting climax.", "poster_path": "/jQUfhbXUFHZxsTaQMXtEzU6kO8v.jpg", "release_date": "2012-11-01", "title": "Drama", "video": false, "vote_average": 7.3, "vote_count": 3, "popularity": 0.956}, {"adult": false, "backdrop_path": "/bx4mkd2qJsoIFkZS10Co4O5Hv18.jpg", "genre_ids": [], "id": 417878, "original_language": "kn", "original_title": "\u0cb0\u0ca8\u0ccd\u0ca8", "overview": "Bhargava, the heir apparent of a wealthy family in Switzerland, is on a mission to reunite his aunt and grandfather. Of course, this isn't easy since his aunt holds a lot of grudges and isn't willing to pardon him right away.", "poster_path": "/hKVPsAKOluswrbWufOz3YgPCNe7.jpg", "release_date": "2015-06-04", "title": "Ranna", "video": false, "vote_average": 6.7, "vote_count": 3, "popularity": 1.917}, {"adult": false, "backdrop_path": null, "genre_ids": [18, 28, 35], "id": 419557, "original_language": "kn", "original_title": "\u0cae\u0cbe\u0cb8\u0ccd\u0c9f\u0cb0\u0ccd \u0caa\u0cc0\u0cb8\u0ccd", "overview": "Masterpiece is a 2015 Indian Kannada action-thriller film written and directed by Manju Mandavya. It stars Yash and Shanvi Srivastava in the lead roles. The supporting cast features Suhasini Maniratnam, P. Ravi Shankar and Chikkanna. The film was released on 24 December 2015.", "poster_path": "/vJPdDYLoxkHhpQzv4G7JLDnC4pS.jpg", "release_date": "2015-12-24", "title": "Masterpiece", "video": false, "vote_average": 5.3, "vote_count": 3, "popularity": 0.794}, {"adult": false, "backdrop_path": null, "genre_ids": [], "id": 210763, "original_language": "en", "original_title": "A", "overview": "\"A\" is a 1998 Indian Kannada language blockbuster psychological love story film written and directed by Upendra. It starred Upendra and Chandni as the lead couple. It was about an unusual love story between a film director and an actress which was narrated through multiple flashbacks within flashbacks and reverse screenplay. The film dealt with various dark truths of film world like the casting couch. Due to the reverse screenplay, the audience were forced to watch it multiple times to understand the story. The movie generated a lot of attention, which began with its rather unusual name. Then there was the subject matter, which dealt with the love affair between a director and his heroine and the dreaded casting couch. The movie discovered human emotions through a different dimension and showed how emotions change with circumstances.", "poster_path": "/mXe6pAXLZP99R0vJL9FRk18QtPF.jpg", "release_date": "1998-02-12", "title": "A", "video": false, "vote_average": 8.4, "vote_count": 5, "popularity": 3.013}, {"adult": false, "backdrop_path": null, "genre_ids": [], "id": 339860, "original_language": "kn", "original_title": "Raktha Kanneeru", "overview": "A 2003 Kannada film.", "poster_path": "/gdIEMr5qUADVVrNH77A6rbWZgzK.jpg", "release_date": "2003-09-18", "title": "Raktha Kanneeru", "video": false, "vote_average": 8.3, "vote_count": 4, "popularity": 1.212}, {"adult": false, "backdrop_path": null, "genre_ids": [18, 35], "id": 225179, "original_language": "kn", "original_title": "Paramathma", "overview": "The story of Paramathma focus on the philosophy that those who are very close to heart leave us quickly. A section of the society believes this and longevity is cut short by destiny as villain.", "poster_path": "/m4yw6MtSDgJGFJY5NA8yeUz5Tx4.jpg", "release_date": "2011-10-05", "title": "Paramathma", "video": false, "vote_average": 6.1, "vote_count": 4, "popularity": 1.48}, {"adult": false, "backdrop_path": null, "genre_ids": [], "id": 331456, "original_language": "kn", "original_title": "Shhh!", "overview": "Shhh! is a 1993 Kannada horror movie by Upendra.", "poster_path": "/ds0UGSxA8Tl0RDsHk4S3zmlUwfh.jpg", "release_date": "1993-12-03", "title": "Shhh!", "video": false, "vote_average": 8.8, "vote_count": 4, "popularity": 0.6}, {"adult": false, "backdrop_path": "/xe5jGJyGJsELbbWt179AVhU8vZO.jpg", "genre_ids": [], "id": 414206, "original_language": "kn", "original_title": "Shivalinga", "overview": "Shivalinga is story weaved around a murder mystery. Who killed Rahim? Why was he killed? Is it murder of Suicide, CID Shivu (Shivrajkumar) investigates the murder mystery. But, what is Shivu's wife's involvement...", "poster_path": "/iFlF5HzHdLJpudDKEPMHZY6Pz2e.jpg", "release_date": "2016-03-04", "title": "Shivalinga", "video": false, "vote_average": 7.3, "vote_count": 4, "popularity": 1.091}, {"adult": false, "backdrop_path": null, "genre_ids": [], "id": 286110, "original_language": "kn", "original_title": "Upendra", "overview": "Psychological thriller.", "poster_path": "/1rGOTy1rCRFYsG6ZrsNYY8qPNf0.jpg", "release_date": "1999-01-01", "title": "Upendra", "video": false, "vote_average": 8.6, "vote_count": 6, "popularity": 0.763}, {"adult": false, "backdrop_path": null, "genre_ids": [], "id": 123196, "original_language": "en", "original_title": "Super (Symbol)", "overview": "Super (Kannada: \u0cb8\u0cc2\u0caa\u0cb0\u0ccd, Telugu: \u0c38\u0c42\u0c2a\u0c30\u0c4d) (originally known only by Vitarka Mudr\u0101 hand symbol) is a 2010 Indian multilingual film written and directed by Upendra.  This utopian film garnered extraordinary reception from critics and the general public for its revolutionary concept of a contrasting futuristic India set in the year 2030, and the contemporary image of India.  With the title of the film depicted only by a symbol, it features Upendra and Nayantara in lead roles and is produced by Rockline Venkatesh, while V. Harikrishna has scored the music. Raking in more than Rs 100 million through satellite television and audio rights even before release, it was declared a superhit in Kannada where it grossed a record Rs 25 million in first three days of the opening weekend. The film grossed over 50 crore (US$9.05 million) and has been declared one of the biggest blockbusters of Kannada cinema.", "poster_path": "/tqbZItjn3T40jxCGWOeeBUIWhvV.jpg", "release_date": "2010-12-03", "title": "Super (Symbol)", "video": false, "vote_average": 6.9, "vote_count": 5, "popularity": 2.996}, {"adult": false, "backdrop_path": "/wg0ytdd96mzdtfFrnL5TVf02hc2.jpg", "genre_ids": [18, 28], "id": 441862, "original_language": "kn", "original_title": "\u0cb9\u0cc6\u0cac\u0ccd\u0cac\u0cc1\u0cb2\u0cbf", "overview": "A fearless commando arrives home at the news of his brother's suicide until he starts to deeply investigate the reason behind his mysterious demise.", "poster_path": "/45oR5i1pqO7ImZM6SgpprHnCFBZ.jpg", "release_date": "2017-02-23", "title": "Hebbuli", "video": false, "vote_average": 6.0, "vote_count": 5, "popularity": 1.14}, {"adult": false, "backdrop_path": "/1XUAbTrGDZwF5jfJmgHkechJQjP.jpg", "genre_ids": [35, 10749], "id": 224598, "original_language": "kn", "original_title": "Simple Agi Ondh Love Story", "overview": "Kushal (Rakshit Shetty) is sent by his radio jockey sister Rachana to Kodagu to meet her boyfriend\u2019s sister in the hope that the two will take a liking to each other, leading to marriage, and thus paving the way for her own marriage. Kushal meets a bubbly girl Kushi (Shwetha Srivatsav) in the house he is sent to, but the rest of the family is out of town. The two share their past romantic liaisons before falling in love with each other. It turns out, though, that the girl is not who she pretends to be. The film takes a curious turn from here.", "poster_path": "/vsNrfe83BOjeyLaO3viEggXihry.jpg", "release_date": "2013-09-28", "title": "Simple Agi Ondh Love Story", "video": false, "vote_average": 8.0, "vote_count": 5, "popularity": 0.746}, {"adult": false, "backdrop_path": "/eKfCin98jT8SuM2vVT1s1N8uLGg.jpg", "genre_ids": [], "id": 289274, "original_language": "kn", "original_title": "Raja Huli", "overview": "Raja Huli (Kannada: \u0cb0\u0cbe\u0c9c\u0cbe \u0cb9\u0cc1\u0cb2\u0cbf) is a 2013 Indian Kannada-language comedy-drama film directed by Guru Deshpande and written by S. R. Prabhakaran. Produced by K. Manju's home production, the film is a remake of the Tamil film Sundarapandian (2012) which was produced and enacted by M. Sasikumar.[1] The film stars Yash and Meghana Raj in the lead roles. The soundtrack and score for the film is composed by Hamsalekha [2] The film, which made its theatrical release on 1 November 2013, co-inciding with the Kannada Rajyotsava festival", "poster_path": "/ayHYsDnyhFjsBjoPEUvyTb0NJn5.jpg", "release_date": "2013-11-01", "title": "Raja Huli", "video": false, "vote_average": 8.0, "vote_count": 3, "popularity": 1.057}, {"adult": false, "backdrop_path": null, "genre_ids": [14, 10749, 53], "id": 219343, "original_language": "kn", "original_title": "\u0cb2\u0cc2\u0cb8\u0cbf\u0caf\u0cbe", "overview": "A man suffering from insomnia is tricked into buying a drug, Lucia, that makes his desires come true in his dreams, blurring the line between fantasy and reality.", "poster_path": "/sawUfDwuSEcApvtucHmDZnfIQL0.jpg", "release_date": "2013-10-19", "title": "Lucia", "video": false, "vote_average": 7.0, "vote_count": 22, "popularity": 1.746}, {"adult": false, "backdrop_path": "/8pnPKgbsj40C97ptczPPjCjSXWx.jpg", "genre_ids": [10749, 18, 53], "id": 262476, "original_language": "kn", "original_title": "\u0c89\u0cb3\u0cbf\u0ca6\u0cb5\u0cb0\u0cc1 \u0c95\u0c82\u0ca1\u0c82\u0ca4\u0cc6", "overview": "Malpe, a small fishing town on the Arabian Coast. Located 6 kms to the west of the temple town, Udupi. Malpe's beaches are washed clean everyday by the sea. The waves ensure that nothing gets left behind on the sands. But then, the waves cannot reach everything. It is the time of the year when Udupi and its surroundings are decked up to celebrate Sri Krishna Janmaashtami. Men and children walk the streets dressed up as characters from mythology. Teams painted as tigers are seen dancing to drum beats all around the town. But violence seems to be brewing in Malpe this Krishna Janmaashtami.", "poster_path": "/b7Ee4DKKhNVYNV84rovdqcWXjgt.jpg", "release_date": "2014-03-28", "title": "As Seen by the Rest", "video": false, "vote_average": 7.5, "vote_count": 8, "popularity": 1.204}, {"adult": false, "backdrop_path": "/hgt5Op2vVJ0RjaT5FHjHkDs84cn.jpg", "genre_ids": [18, 10749], "id": 46418, "original_language": "hi", "original_title": "\u0930\u0939\u0928\u093e \u0939\u0948 \u0924\u0947\u0930\u0947 \u0926\u093f\u0932 \u092e\u0947\u0902", "overview": "Cupid's arrow and a lot more strike at Madhav Shastri's when he first has a glimpse of beautiful Reena Malhotra. Thereafter he meets her again and finds out that she the bethrothed of one Rajiv, and so he impersonates Rajiv and enters Reena's life. And they both fall in love...", "poster_path": "/fRWjtotRdR8OXrp6jHHL4OUWMqh.jpg", "release_date": "2001-10-19", "title": "Rehnaa Hai Terre Dil Mein", "video": false, "vote_average": 6.3, "vote_count": 14, "popularity": 3.524}, {"adult": false, "backdrop_path": "/A5HbQPa0SW0rflnUkFMY9zAXUym.jpg", "genre_ids": [80, 53], "id": 21982, "original_language": "hi", "original_title": "Aankhen", "overview": "After his hatred of dishonesty costs him his job, an embittered man goes over to the dark side and plots to rob the bank he once managed.", "poster_path": "/sv9tCwXzvTFSbA2OmH9nqQZCNQ7.jpg", "release_date": "2002-03-27", "title": "Aankhen", "video": false, "vote_average": 6.6, "vote_count": 32, "popularity": 3.464}], "total_pages": 2, "total_results": 25}, "credits": {"cast": [{"cast_id": 1, "character": "", "credit_id": "55cf0b85c3a3681bf0003d57", "gender": 0, "id": 1497111, "name": "Nirup Bhandari", "order": 1, "profile_path": "/poITrL3x0EzzjpYHOAAJE72MsD6.jpg"}, {"cast_id": 2, "character": "Sandhya Bhargav", "credit_id": "55cf0b8cc3a3681bff00460c", "gender": 1, "id": 1246552, "name": "Avantika Shetty", "order": 2, "profile_path": "/5NH9OgywZ7m7rSdxK28oRJM5bJo.jpg"}, {"cast_id": 3, "character": "", "credit_id": "55cf0b96c3a3681567004076", "gender": 1, "id": 1497112, "name": "Radhika Chetan", "order": 3, "profile_path": "/miVI8q3vjEkWpJcbWDhbHdZvv8k.jpg"}, {"cast_id": 4, "character": "", "credit_id": "55cf0bbac3a3681bff004613", "gender": 2, "id": 146148, "name": "Sai Kumar", "order": 4, "profile_path": "/8Ryo1vlNftkBdqzAv3HVBywjTts.jpg"}], "crew": [{"credit_id": "55cf0b1dc3a3681567004060", "department": "Directing", "gender": 0, "id": 1497110, "job": "Director", "name": "Anup Bhandari", "profile_path": null}]}}