{"adult": false, "backdrop_path": "/6RqGmIY1cuq0iKWe5TwTPB4mT5j.jpg", "belongs_to_collection": null, "budget": 0, "genres": [{"id": 18, "name": "Drama"}, {"id": 27, "name": "Horror"}, {"id": 53, "name": "Thriller"}], "homepage": null, "id": 355598, "imdb_id": "tt2554842", "original_language": "en", "original_title": "Girl in Woods", "overview": "After a tragic accident Grace is lost and alone in the Smoky Mountains. Grace's struggle for survival is made more complicated by her troubled past. Battling the demons in her mind may be the only way to come out alive.", "popularity": 3.039, "poster_path": "/ndywDYDBKnTJGuiznne2GZKuy3u.jpg", "production_companies": [{"id": 77710, "logo_path": null, "name": "Yield Entertainment", "origin_country": ""}, {"id": 61415, "logo_path": null, "name": "GIW", "origin_country": ""}], "production_countries": [{"iso_3166_1": "US", "name": "United States of America"}], "release_date": "2016-06-03", "revenue": 0, "runtime": 87, "spoken_languages": [{"iso_639_1": "en", "name": "English"}], "status": "Released", "tagline": "", "title": "Girl in Woods", "video": false, "vote_average": 4.4, "vote_count": 14, "keywords": {"keywords": [{"id": 1459, "name": "marriage proposal"}, {"id": 2754, "name": "trauma"}, {"id": 3623, "name": "cabin"}, {"id": 4280, "name": "mental breakdown"}, {"id": 5707, "name": "childhood trauma"}, {"id": 5774, "name": "forest"}, {"id": 6511, "name": "alone"}, {"id": 9826, "name": "murder"}, {"id": 9856, "name": "flashback"}, {"id": 10349, "name": "survival"}, {"id": 44451, "name": "lost"}, {"id": 156761, "name": "split personality"}]}, "similar": {"page": 1, "results": [{"adult": false, "backdrop_path": "/kiWvoV78Cc3fUwkOHKzyBgVdrDD.jpg", "genre_ids": [37, 18, 12], "id": 281957, "original_language": "en", "original_title": "The Revenant", "overview": "In the 1820s, a frontiersman, Hugh Glass, sets out on a path of vengeance against those who left him for dead after a bear mauling.", "poster_path": "/oXUWEc5i3wYyFnL1Ycu8ppxxPvs.jpg", "release_date": "2015-12-25", "title": "The Revenant", "video": false, "vote_average": 7.5, "vote_count": 12127, "popularity": 24.135}, {"id": 398181, "video": false, "vote_count": 1302, "vote_average": 6.6, "title": "You Were Never Really Here", "release_date": "2017-11-08", "original_language": "en", "original_title": "You Were Never Really Here", "genre_ids": [53], "backdrop_path": "/h4Lk8Cgfvlzz0hcnSJBTAOwNDia.jpg", "adult": false, "overview": "A traumatised veteran, unafraid of violence, tracks down missing girls for a living. When a job spins out of control, Joe's nightmares overtake him as a conspiracy is uncovered leading to what may be his death trip or his awakening.", "poster_path": "/ktPbjD6nYg5NxmeTt72Iqaw5GD0.jpg", "popularity": 16.619}, {"id": 13510, "video": false, "vote_count": 864, "vote_average": 6.8, "title": "Eden Lake", "release_date": "2008-09-12", "original_language": "en", "original_title": "Eden Lake", "genre_ids": [27, 53], "backdrop_path": "/iPocIUHB4gW3dfV6ve4KLvgWOHw.jpg", "adult": false, "overview": "Eden Lake is a relentlessly tense and immaculately paced horror-thriller about modern youth gone wild. When a young couple goes to a remote wooded lake for a romantic getaway, their quiet weekend is shattered by an aggressive group of local kids. Rowdiness quickly turns to rage as the teens terrorize the couple in unimaginable ways, and a weekend outing becomes a bloody battle for survival.", "poster_path": "/lvNbbYrN5tNuCjyHP7uKgZD5ZFL.jpg", "popularity": 13.34}, {"adult": false, "backdrop_path": "/zWGAnbxjjwY3xFGuOeR26LGbBlG.jpg", "genre_ids": [27, 53], "id": 238636, "original_language": "en", "original_title": "The Purge: Anarchy", "overview": "One night per year, the government sanctions a 12-hour period in which citizens can commit any crime they wish -- including murder -- without fear of punishment or imprisonment. Leo, a sergeant who lost his son, plans a vigilante mission of revenge during the mayhem. However, instead of a death-dealing avenger, he becomes the unexpected protector of four innocent strangers who desperately need his help if they are to survive the night.", "poster_path": "/l1DRl40x2OWUoPP42v8fjKdS1Z3.jpg", "release_date": "2014-07-17", "title": "The Purge: Anarchy", "video": false, "vote_average": 6.6, "vote_count": 4145, "popularity": 36.766}, {"id": 9373, "video": false, "vote_count": 1414, "vote_average": 6.1, "title": "The Texas Chainsaw Massacre", "release_date": "2003-05-21", "original_language": "en", "original_title": "The Texas Chainsaw Massacre", "genre_ids": [27], "backdrop_path": "/3rTsJ7tIC3LUSRr80PfeLbbCfBA.jpg", "adult": false, "overview": "After picking up a traumatized young hitchhiker, five friends find themselves stalked and hunted by a deformed chainsaw-wielding killer and his family of equally psychopathic killers.", "poster_path": "/gx7FCIOFGxqNyplF3t7qtmUv55g.jpg", "popularity": 19.117}, {"id": 223485, "video": false, "vote_count": 586, "vote_average": 6.6, "title": "Slow West", "release_date": "2015-04-16", "original_language": "en", "original_title": "Slow West", "genre_ids": [28, 18, 53, 37, 10749], "backdrop_path": "/9qF6lhj6X0ImH4iWGZs1uspXJI0.jpg", "adult": false, "overview": "In the Old West, a 17-year-old Scottish boy teams up with a mysterious gunman to find the woman with whom he is infatuated.", "poster_path": "/uZ9dBBn0GaEw0YIBvQd01Io3pho.jpg", "popularity": 10.467}, {"id": 458594, "video": false, "vote_count": 983, "vote_average": 6.5, "title": "Peppermint", "release_date": "2018-09-06", "original_language": "en", "original_title": "Peppermint", "genre_ids": [28, 53], "backdrop_path": "/9krZX6T4EEs5eFpXgSi8jZkN48O.jpg", "adult": false, "overview": "A grieving mother transforms herself into a vigilante following the murders of her husband and daughter, eluding the authorities to deliver her own personal brand of justice.", "poster_path": "/jrzxS0vcbzIIay1sdYm0rgI2QfJ.jpg", "popularity": 18.265}, {"adult": false, "backdrop_path": "/qr7R4pagFUcmz9ny6Gai9gjlSnn.jpg", "genre_ids": [27], "id": 4488, "original_language": "en", "original_title": "Friday the 13th", "overview": "Camp counselors are stalked and murdered by an unknown assailant while trying to reopen a summer camp that was the site of a child's drowning.", "poster_path": "/mGJlh8oMyTDhfudvs20kFpYz0Yc.jpg", "release_date": "1980-05-09", "title": "Friday the 13th", "video": false, "vote_average": 6.3, "vote_count": 1441, "popularity": 17.092}, {"id": 473149, "video": false, "vote_count": 195, "vote_average": 5.9, "title": "Traffik", "release_date": "2018-04-20", "original_language": "en", "original_title": "Traffik", "genre_ids": [27, 53], "backdrop_path": "/wbk9VvJ8lkUF0ElpfRm3dFIzMJf.jpg", "adult": false, "overview": "A couple off for a romantic weekend in the mountains are accosted by a biker gang. Alone in the mountains, Brea and John must defend themselves against the gang, who will stop at nothing to protect their secrets.", "poster_path": "/e2Z466e9402RFP6wxRMfXYYiJHA.jpg", "popularity": 31.63}, {"adult": false, "backdrop_path": "/a24i4Qw6qFTtkFLQsncv8WPwevj.jpg", "genre_ids": [53, 28, 80], "id": 345887, "original_language": "en", "original_title": "The Equalizer 2", "overview": "Robert McCall, who serves an unflinching justice for the exploited and oppressed, embarks on a relentless, globe-trotting quest for vengeance when a long-time girl friend is murdered.", "poster_path": "/cQvc9N6JiMVKqol3wcYrGshsIdZ.jpg", "release_date": "2018-07-19", "title": "The Equalizer 2", "video": false, "vote_average": 6.5, "vote_count": 2483, "popularity": 21.271}, {"id": 395834, "video": false, "vote_count": 2755, "vote_average": 7.4, "title": "Wind River", "release_date": "2017-08-03", "original_language": "en", "original_title": "Wind River", "genre_ids": [80, 18, 9648, 53], "backdrop_path": "/6B8e784decj9vtKuNjbl9Fes2aZ.jpg", "adult": false, "overview": "An FBI agent teams with the town's veteran game tracker to investigate a murder that occurred on a Native American reservation.", "poster_path": "/pySivdR845Hom4u4T2WNkJxe6Ad.jpg", "popularity": 16.931}, {"id": 433808, "video": false, "vote_count": 1307, "vote_average": 6.0, "title": "The Ritual", "release_date": "2017-10-11", "original_language": "en", "original_title": "The Ritual", "genre_ids": [27], "backdrop_path": "/vaArQHq1lHFNppoJlMlv30Gs2fQ.jpg", "adult": false, "overview": "A group of college friends reunite for a trip to the forest, but encounter a menacing presence in the woods that's stalking them.", "poster_path": "/9022CYEGqYETCeXN1oE3uwYJWub.jpg", "popularity": 16.285}, {"adult": false, "backdrop_path": "/ct2r3CqnA0KtMfib4AvfBU1W9M2.jpg", "genre_ids": [28, 80, 53], "id": 398175, "original_language": "en", "original_title": "Brawl in Cell Block 99", "overview": "After working as a drug courier and getting into a brutal shootout with police, a former boxer finds himself at the mercy of his enemies as they force him to instigate violent acts that turn the prison he resides in into a battleground.", "poster_path": "/lGgIQ10NJ3d0X0uFbbUN4pRrMFZ.jpg", "release_date": "2017-09-23", "title": "Brawl in Cell Block 99", "video": false, "vote_average": 6.8, "vote_count": 605, "popularity": 13.011}, {"adult": false, "backdrop_path": "/tG7ydFmDr2Y1kecUCM6foFxmJjP.jpg", "genre_ids": [27, 37, 35], "id": 10212, "original_language": "en", "original_title": "Ravenous", "overview": "Upon receiving reports of missing persons at Fort Spencer, a remote Army outpost on the Western frontier, Capt. John Boyd investigates. After arriving at his new post, Boyd and his regiment aid a wounded frontiersman who recounts a horrifying tale of a wagon train murdered by its supposed guide -- a vicious U.S. Army colonel gone rogue. Fearing the worst, the regiment heads out into the wilderness to verify the gruesome claims.", "poster_path": "/spwvStEA4CraTXPOcONrDzncXOZ.jpg", "release_date": "1999-03-16", "title": "Ravenous", "video": false, "vote_average": 6.8, "vote_count": 271, "popularity": 10.22}, {"id": 588, "video": false, "vote_count": 2408, "vote_average": 6.4, "title": "Silent Hill", "release_date": "2006-04-21", "original_language": "en", "original_title": "Silent Hill", "genre_ids": [27, 9648], "backdrop_path": "/6tfW4BjdgwuYSD7gaEMEEPoDcpH.jpg", "adult": false, "overview": "The eerie and deserted ghost town of Silent Hill draws a young mother desperate to find a cure for her only child's illness. Unable to accept the doctor's diagnosis that her daughter should be permanently institutionalized for psychiatric care, Rose flees with her child, heading for the abandoned town in search of answers \u2013 and ignoring the protests of her husband. It's soon clear this place is unlike anywhere she's ever been. It's smothered by fog, inhabited by a variety of strange beings and periodically overcome by a living 'darkness' that literally transforms everything it touches. As Rose searches for her little girl, she begins to learn the history of the strange town and realizes that her daughter is just a pawn in a larger game.", "poster_path": "/4Zz9cF8S4E7DITosNYh3spybYJb.jpg", "popularity": 20.72}, {"id": 37645, "video": false, "vote_count": 575, "vote_average": 6.5, "title": "22 Bullets", "release_date": "2010-03-23", "original_language": "fr", "original_title": "L'Immortel", "genre_ids": [28, 80, 53], "backdrop_path": "/mU8zfCOTbahNGH0ZBTCuNdX16gj.jpg", "adult": false, "overview": "Charly Mattei\u0308 has turned his back on his life as an outlaw. For the last three years, he's led a peaceful life devoting himself to his wife and two children. Then, one winter morning, he's left for dead in the parking garage in Marseille's Old Port, with 22 bullets in his body. Against all the odds, he doesn't die...", "poster_path": "/wTYZjPq4YA2wC99MdHZTFQuxFpd.jpg", "popularity": 12.785}, {"adult": false, "backdrop_path": "/a0UYovVNPVfWILYT7TzD10xBX3q.jpg", "genre_ids": [18, 53, 80, 9648], "id": 979, "original_language": "fr", "original_title": "Irr\u00e9versible", "overview": "Events over the course of one traumatic night in Paris unfold in reverse-chronological order as the beautiful Alex is brutally raped and beaten by a stranger in the underpass. Her boyfriend and ex-lover take matters into their own hands by hiring two criminals to help them find the rapist so that they can exact revenge. A simultaneously beautiful and terrible examination of the destructive nature of cause and effect, and how time destroys everything.", "poster_path": "/rxeDxo8FvZpLu6iplNpxdtAVnfu.jpg", "release_date": "2002-05-22", "title": "Irreversible", "video": false, "vote_average": 7.1, "vote_count": 1216, "popularity": 20.416}, {"id": 41505, "video": false, "vote_count": 392, "vote_average": 5.9, "title": "Shelter", "release_date": "2010-03-27", "original_language": "en", "original_title": "Shelter", "genre_ids": [27, 9648, 53], "backdrop_path": "/lNZn3CW6SrJRwwiWiZ4aU3hel7F.jpg", "adult": false, "overview": "A female forensic psychiatrist discovers that all of one of her patient's multiple personalities are murder victims. She will have to find out what's happening before her time is finished.", "poster_path": "/iFtUI5KB83bXTk23kB2ldoOQX8z.jpg", "popularity": 13.465}, {"id": 301846, "video": false, "vote_count": 238, "vote_average": 5.2, "title": "Howl", "release_date": "2015-10-01", "original_language": "en", "original_title": "Howl", "genre_ids": [27], "backdrop_path": "/f6zcd6ZVviZnCdjqdtZtWKTNDDM.jpg", "adult": false, "overview": "When passengers on a train are attacked by a creature, they must band together in order to survive until morning.", "poster_path": "/sGEOC8x0lXSlIV4hoIZjnOnze9e.jpg", "popularity": 11.373}, {"adult": false, "backdrop_path": "/8cVSUI36ORfCJ6d4TP71wIrdD7h.jpg", "genre_ids": [18, 27], "id": 133805, "original_language": "en", "original_title": "Carrie", "overview": "A reimagining of the classic horror tale about Carrie White, a shy girl outcast by her peers and sheltered by her deeply religious mother, who unleashes telekinetic terror on her small town after being pushed too far at her senior prom.", "poster_path": "/j0999NYddCGcishJlxluDRQIn6k.jpg", "release_date": "2013-10-16", "title": "Carrie", "video": false, "vote_average": 5.9, "vote_count": 2914, "popularity": 15.756}], "total_pages": 41, "total_results": 816}, "recommendations": {"page": 1, "results": [{"adult": false, "backdrop_path": null, "genre_ids": [28, 80, 53, 27], "id": 416119, "original_language": "en", "original_title": "Blood Trap", "overview": "Six criminals are tasked with kidnapping a young for ransom, but when they get locked inside her mansion, what they find is not what they expected.", "poster_path": "/1YxHo1vNWcGHHBarKsPxZAMm53Y.jpg", "release_date": "2016-09-20", "title": "Blood Trap", "video": false, "vote_average": 3.7, "vote_count": 11, "popularity": 3.376}, {"adult": false, "backdrop_path": "/d3SLVC3QHUuq6cVEjkPOLu46CYB.jpg", "genre_ids": [27], "id": 27417, "original_language": "en", "original_title": "The Roost", "overview": "Part of a \"special\" late-nite television program...Four friends on their way to a wedding find themselves marooned on a mysterious farm. Creatures of the night awaken and the undead rise, as a night of relentless horror...Begins!", "poster_path": "/ounpk1FoUejhejEOJkeowaUYhcH.jpg", "release_date": "2005-03-12", "title": "The Roost", "video": false, "vote_average": 4.8, "vote_count": 21, "popularity": 3.176}, {"adult": false, "backdrop_path": "/6Y7b8qKUvdIP1os3zarlReouHAY.jpg", "genre_ids": [27], "id": 38412, "original_language": "en", "original_title": "Slaughterhouse Rock", "overview": "A man visits Alcatraz prison after having dreams about all the people who died there. When he gets there, his brother is possessed by an evil cannibal demon. The ghost of a female heavy metal singer who was killed there tries to help the man fight the monster.", "poster_path": "/A1LQgiAvAyrnBDIDxmxA2NMUWYe.jpg", "release_date": "1988-05-21", "title": "Slaughterhouse Rock", "video": false, "vote_average": 3.9, "vote_count": 8, "popularity": 3.334}, {"adult": false, "backdrop_path": "/m8xIkaR1ci8Ho8TFJ7yJOzrOYz3.jpg", "genre_ids": [27], "id": 349849, "original_language": "en", "original_title": "Kruel", "overview": "'Kruel' - is a horror/thriller feature length movie about a psychotic killer who masquerades as an ice cream man in order to get closer to the objects of his affection.", "poster_path": "/uhGnY3vHJ8Ze6u11FUbQQSbmb6M.jpg", "release_date": "2015-07-20", "title": "Kruel", "video": false, "vote_average": 4.5, "vote_count": 8, "popularity": 2.659}, {"adult": false, "backdrop_path": "/ko0X0Z6F5I0oZsVKl3wQwXJ6A5u.jpg", "genre_ids": [28, 27, 53], "id": 32857, "original_language": "en", "original_title": "Surviving Evil", "overview": "A TV documentary crew arrive on a remote island in the Philippines to film a survival special. Their back-to-the-wild adventure proves to be more terrifying than they ever could have imagined", "poster_path": "/lALXUryxu0OlLnPf7qUWqkrUKSB.jpg", "release_date": "2009-07-10", "title": "Surviving Evil", "video": false, "vote_average": 4.1, "vote_count": 12, "popularity": 3.318}], "total_pages": 1, "total_results": 5}, "credits": {"cast": [{"cast_id": 1, "character": "Grace", "credit_id": "55d752169251416710002b4b", "gender": 1, "id": 103290, "name": "Juliet Reeves London", "order": 0, "profile_path": "/tsb8lr6O62bWZj7g8Pr5FUCniPn.jpg"}, {"cast_id": 0, "character": "Momma", "credit_id": "55d751d8c3a368436c002abb", "gender": 1, "id": 126502, "name": "Charisma Carpenter", "order": 1, "profile_path": "/brP3i7HvDDXrMJDosc4WjWqNdCC.jpg"}, {"cast_id": 2, "character": "Jim", "credit_id": "55d75230c3a368436c002ac5", "gender": 2, "id": 23646, "name": "Jeremy London", "order": 2, "profile_path": "/mPrdf7ypTQ4MBc9YcUgYlfopA0T.jpg"}, {"cast_id": 3, "character": "Grace's Dad", "credit_id": "55d7523ec3a36843680028a7", "gender": 0, "id": 98175, "name": "Lee Perkins", "order": 3, "profile_path": "/pk1bQ4jdKCaYDlZgkGTh7Fm3XA1.jpg"}, {"cast_id": 4, "character": "Grace's Granddaddy", "credit_id": "5751bbd69251416b5a00000d", "gender": 0, "id": 1009469, "name": "John Still", "order": 4, "profile_path": null}, {"cast_id": 5, "character": "Grace age 14", "credit_id": "5751bbe4c3a36853bb000013", "gender": 0, "id": 1630238, "name": "Lauren Bayleigh White", "order": 5, "profile_path": null}, {"cast_id": 6, "character": "Grace age 7", "credit_id": "5751bc11c3a36853b3000012", "gender": 0, "id": 1630239, "name": "Shaun Benson", "order": 6, "profile_path": null}, {"cast_id": 7, "character": "Woodsman", "credit_id": "5751bc2cc3a36853b800001c", "gender": 0, "id": 187178, "name": "Ross Williams", "order": 7, "profile_path": null}, {"cast_id": 8, "character": "Demon", "credit_id": "5751bc389251416b54000018", "gender": 0, "id": 1630240, "name": "Rezia Massey", "order": 8, "profile_path": null}], "crew": [{"credit_id": "5751bc51c3a36853ad00001e", "department": "Directing", "gender": 0, "id": 1374146, "job": "Director", "name": "Jeremy Benson", "profile_path": null}, {"credit_id": "5751bc579251416b54000020", "department": "Writing", "gender": 0, "id": 1374146, "job": "Writer", "name": "Jeremy Benson", "profile_path": null}, {"credit_id": "5751bc5e9251416b60000022", "department": "Production", "gender": 0, "id": 1374146, "job": "Executive Producer", "name": "Jeremy Benson", "profile_path": null}, {"credit_id": "5751bc6c9251416b60000025", "department": "Production", "gender": 0, "id": 1630241, "job": "Executive Producer", "name": "Dawn Clark", "profile_path": null}, {"credit_id": "5751bc7a9251416b56000024", "department": "Production", "gender": 0, "id": 1630242, "job": "Executive Producer", "name": "Whit Greenway", "profile_path": null}, {"credit_id": "5751bc8c9251416b5a000021", "department": "Production", "gender": 0, "id": 1630243, "job": "Executive Producer", "name": "K.C. Lim", "profile_path": null}, {"credit_id": "5751bc9a9251416b5d000025", "department": "Production", "gender": 0, "id": 206574, "job": "Producer", "name": "Mark Williams", "profile_path": null}, {"credit_id": "5751bcac9251416b5400002b", "department": "Sound", "gender": 0, "id": 1630244, "job": "Original Music Composer", "name": "Kevin Croxton", "profile_path": null}, {"credit_id": "5751bcb6c3a36853b800002c", "department": "Sound", "gender": 0, "id": 1630245, "job": "Original Music Composer", "name": "Brock Manchester", "profile_path": null}, {"credit_id": "5751bcc5c3a36853ad00002c", "department": "Camera", "gender": 0, "id": 1547743, "job": "Director of Photography", "name": "Ryan Parker", "profile_path": null}, {"credit_id": "5751bcd1c3a36853b8000033", "department": "Editing", "gender": 0, "id": 1428425, "job": "Editor", "name": "Brian D. Elkins", "profile_path": null}, {"credit_id": "5751bcdd9251416b63000035", "department": "Production", "gender": 1, "id": 71716, "job": "Casting", "name": "Jan Glaser", "profile_path": "/3ED0QiIK8z9Tl293Audzxl9ohCE.jpg"}, {"credit_id": "5751bce89251416b5a000030", "department": "Art", "gender": 0, "id": 1630246, "job": "Production Design", "name": "Albert Seiler", "profile_path": null}, {"credit_id": "5751bd129251416b5a000039", "department": "Crew", "gender": 0, "id": 1630247, "job": "Makeup Effects", "name": "Lin Workman", "profile_path": null}, {"credit_id": "5751bd1fc3a36853aa000030", "department": "Crew", "gender": 0, "id": 1630248, "job": "Makeup Effects", "name": "Joseph Mistretta", "profile_path": null}, {"credit_id": "5751bd2f9251416b54000048", "department": "Crew", "gender": 0, "id": 1630249, "job": "Makeup Effects", "name": "Tim Richards", "profile_path": null}, {"credit_id": "5751bd3d9251416b5a000042", "department": "Crew", "gender": 0, "id": 1630250, "job": "Makeup Effects", "name": "Patrick French", "profile_path": null}, {"credit_id": "5751bd4b9251416b6900002f", "department": "Crew", "gender": 0, "id": 1630251, "job": "Makeup Effects", "name": "Richard Bridges Jr.", "profile_path": null}, {"credit_id": "5751bd4dc3a36853c6000046", "department": "Crew", "gender": 0, "id": 1630252, "job": "Makeup Effects", "name": "Richard Bridges Jr.", "profile_path": null}]}}