{"adult": false, "backdrop_path": "/sPXb59qCQLsLpJdw4rtNzAw6cSx.jpg", "belongs_to_collection": null, "budget": 0, "genres": [{"id": 27, "name": "Horror"}], "homepage": null, "id": 3560, "imdb_id": "tt0131510", "original_language": "it", "original_title": "Un ombra nell'ombra", "overview": "Once a Satanist who surrendered her soul and body to the devil himself, Carlotta Rhodes begins to regret her tryst with Lucifer when her teenage daughter, Daria, starts showing the evil influence of dear old Dad. Convinced that she can stop the devil's power on earth, Carlotta calls upon an exorcist for help.", "popularity": 2.377, "poster_path": "/247iJHKK4CdyGeNtInbNXk5wr0P.jpg", "production_companies": [{"id": 1456, "logo_path": null, "name": "Aretusa Film", "origin_country": ""}, {"id": 1457, "logo_path": null, "name": "Tanit Film", "origin_country": ""}, {"id": 1458, "logo_path": null, "name": "Rassy Film", "origin_country": ""}], "production_countries": [{"iso_3166_1": "GB", "name": "United Kingdom"}, {"iso_3166_1": "IT", "name": "Italy"}], "release_date": "1979-10-29", "revenue": 0, "runtime": 106, "spoken_languages": [{"iso_639_1": "en", "name": "English"}, {"iso_639_1": "it", "name": "Italiano"}], "status": "Released", "tagline": "", "title": "Ring of Darkness", "video": false, "vote_average": 5.7, "vote_count": 5, "keywords": {"keywords": [{"id": 3099, "name": "satanism"}, {"id": 5545, "name": "satanist"}, {"id": 10093, "name": "priest"}, {"id": 14999, "name": "devil"}, {"id": 156174, "name": "occult"}, {"id": 161270, "name": "satanic ritual"}, {"id": 163055, "name": "satanic cult"}, {"id": 177201, "name": "evil child"}, {"id": 177872, "name": "occult ritual"}, {"id": 240315, "name": "mother daughter relationship"}]}, "similar": {"page": 1, "results": [{"id": 622, "video": false, "vote_count": 1606, "vote_average": 6.4, "title": "The Ninth Gate", "release_date": "1999-08-25", "original_language": "en", "original_title": "The Ninth Gate", "genre_ids": [27, 9648, 53], "backdrop_path": "/7ikpBrx2YZyVZxFS5YTZUZoyIJu.jpg", "adult": false, "overview": "An all-expenses-paid international search for a rare copy of the book, 'The Nine Gates of the Shadow Kingdom' brings an unscrupulous book dealer deep into a world of murder, double-dealing and satanic worship.", "poster_path": "/uamhDQBebdW3UQqOaVmma3yW8pm.jpg", "popularity": 21.277}, {"id": 9946, "video": false, "vote_count": 932, "vote_average": 5.7, "title": "End of Days", "release_date": "1999-11-24", "original_language": "en", "original_title": "End of Days", "genre_ids": [28, 14, 27, 9648], "backdrop_path": "/q5KcZBMc4Vs5SQelnSdY3ICm56M.jpg", "adult": false, "overview": "On 28 December 1999, the citizens of New York City are getting ready for the turn of the millennium. However, the Devil decides to crash the party by coming to the city, inhabiting a man's body, and searching for his chosen bride\u2014a 20-year-old woman named Christine York. The world will end, and the only hope lies within an atheist named Jericho Cane.", "poster_path": "/bEIjH6GroeWaBkn6o7MVpMNbuyw.jpg", "popularity": 15.853}, {"id": 39891, "video": false, "vote_count": 80, "vote_average": 6.8, "title": "The Devil Rides Out", "release_date": "1968-07-20", "original_language": "en", "original_title": "The Devil Rides Out", "genre_ids": [27], "backdrop_path": "/wFSkj7oFhXCZD7y02PFwlib8PRU.jpg", "adult": false, "overview": "The powers of good are pitted against the forces of evil as the Duc de Richelieu wrestles with the charming but deadly Satanist, Mocata, for the soul of his friend. Mocata has the knowledge and the power to summon the forces of darkness and, as the Duc de Richelieu and his friends remain within the protected pentacle, they are subjected to ever-increasing horror until thundering hooves herald the arrival of the Angel of Death. Known as\u00a0\"The Devil's Bride\"\u00a0in the United States.", "poster_path": "/dT3jnzs34q0iGDaXxyarrLhebtt.jpg", "popularity": 8.174}, {"id": 805, "video": false, "vote_count": 2034, "vote_average": 7.8, "title": "Rosemary's Baby", "release_date": "1968-06-12", "original_language": "en", "original_title": "Rosemary's Baby", "genre_ids": [18, 27, 9648], "backdrop_path": "/3THF7D3uPqhV6k7iKsr2EyjqVPK.jpg", "adult": false, "overview": "A young couple moves into an infamous New York apartment building to start a family. Things become frightening as Rosemary begins to suspect her unborn baby isn\u2019t safe around their strange neighbors.", "poster_path": "/kqA1pt9ovovArgJZi2Lu4Unf6He.jpg", "popularity": 16.436}, {"adult": false, "backdrop_path": "/yaF4JUgdNy3NKXVtptTkKawZtlB.jpg", "genre_ids": [18, 53, 27], "id": 48171, "original_language": "en", "original_title": "The Rite", "overview": "Seminary student Michael Kovak reluctantly attends exorcism school at the Vatican. While he\u2019s in Rome, Michael meets an unorthodox priest who introduces him to the darker side of his faith, uncovering the devil\u2019s reach even to one of the holiest places on Earth.", "poster_path": "/94jKSKAOfM3EU4bPsOPkVB9AOHT.jpg", "release_date": "2011-01-28", "title": "The Rite", "video": false, "vote_average": 6.0, "vote_count": 1112, "popularity": 11.214}, {"adult": false, "backdrop_path": "/nxVu1rlqOQcR3lNrdzYdwhXCGap.jpg", "genre_ids": [27, 9648], "id": 25983, "original_language": "en", "original_title": "The House of the Devil", "overview": "In the 1980s, college student Samantha Hughes takes a strange babysitting job that coincides with a full lunar eclipse. She slowly realizes her clients harbor a terrifying secret.", "poster_path": "/covH6buvTjzrjQLNNA23obaLPXl.jpg", "release_date": "2009-04-25", "title": "The House of the Devil", "video": false, "vote_average": 6.1, "vote_count": 369, "popularity": 7.142}, {"id": 184346, "video": false, "vote_count": 1219, "vote_average": 6.1, "title": "Deliver Us from Evil", "release_date": "2014-07-01", "original_language": "en", "original_title": "Deliver Us from Evil", "genre_ids": [80, 27, 53], "backdrop_path": "/h0jrxKeDXS6VKnUnJayXLTo6PDx.jpg", "adult": false, "overview": "When a frightening wave of violence sweeps through New York City, troubled cop Sarchie fails to find a rational explanation for the bizarre crimes. However, his eyes are opened to a frightening alternate reality when renegade Jesuit priest Mendoza convinces him that demonic possession may be to blame for the gruesome murders. Together, they wage a valiant supernatural struggle to rid the city of an otherworldly evil.", "poster_path": "/jgtStjg33PH3TwBrMKKhvNL5J1c.jpg", "popularity": 13.592}, {"id": 11026, "video": false, "vote_count": 383, "vote_average": 5.1, "title": "Exorcist: The Beginning", "release_date": "2004-08-20", "original_language": "en", "original_title": "Exorcist: The Beginning", "genre_ids": [27, 9648, 53], "backdrop_path": "/nJeQbUwTPnFdy9OKgOgERttp16v.jpg", "adult": false, "overview": "Having lived through traumatizing events during WWII, Father Lankester Merrin takes a sabbatical from the Church to conduct archaeological excavations in British-administered East Africa. Merrin unearths an ancient Byzantine church believed have been built and then immediately buried to keep down evil from the crypt below. The natives are convinced that uncovering the church has unleashed a demon, and begin to violently clash with the British military troops. As the village rapidly disintegrates into chaos and war, Merrin must face-off with the demon which has taken possession of somebody close to him.", "poster_path": "/6ZX7GVR6uTTNzYPMNeECXjytAPa.jpg", "popularity": 11.489}, {"id": 10657, "video": false, "vote_count": 250, "vote_average": 6.1, "title": "Needful Things", "release_date": "1993-08-27", "original_language": "en", "original_title": "Needful Things", "genre_ids": [18, 27], "backdrop_path": "/oK0KyFrf41IUJTxnhFq8WXHKQt.jpg", "adult": false, "overview": "A mysterious new shop opens in a small town which always seems to stock the deepest desires of each shopper, with a price far heavier than expected.", "poster_path": "/hrWPjBPBA4d1O4raq6TE7ugTTIn.jpg", "popularity": 10.182}, {"id": 8852, "video": false, "vote_count": 418, "vote_average": 6.8, "title": "Prince of Darkness", "release_date": "1987-10-23", "original_language": "en", "original_title": "Prince of Darkness", "genre_ids": [27], "backdrop_path": "/aX46k3Rd1t68L0KUwO1WaHlplP5.jpg", "adult": false, "overview": "A research team finds a mysterious cylinder in a deserted church. If opened, it could mean the end of the world.", "poster_path": "/eQiXxoRfAjxNHacu6TYegspzAuM.jpg", "popularity": 9.463}, {"id": 448194, "video": false, "vote_count": 106, "vote_average": 5.8, "title": "Pyewacket", "release_date": "2017-11-25", "original_language": "en", "original_title": "Pyewacket", "genre_ids": [18, 27, 53], "backdrop_path": "/yAlx2Ew98rsxyoFVKnPKtGNf3ys.jpg", "adult": false, "overview": "A frustrated, angry teenage girl awakens something in the woods when she naively performs an occult ritual to evoke a witch to kill her mother.", "poster_path": "/qJFbDjUNdVlcWtuqk2LiQ3Aq5hA.jpg", "popularity": 11.426}, {"adult": false, "backdrop_path": "/swXcukNqS52UffiBSrG0M1pm3t6.jpg", "genre_ids": [27, 18, 53], "id": 38358, "original_language": "en", "original_title": "The Last Exorcism", "overview": "After years of performing \u201cexorcisms\u201d and taking believers\u2019 money, Reverend Marcus travels to rural Louisiana with a film crew so he can dispel what he believes is the myth of demonic possession. The dynamic reverend is certain that this will be another routine \u201cexorcism\u201d on a disturbed religious fanatic but instead comes upon the blood-soaked farm of the Sweetzer family and a true evil he would have never thought imaginable.", "poster_path": "/iWPm2Xlc5arD0oRb18k6MurmqHD.jpg", "release_date": "2010-08-27", "title": "The Last Exorcism", "video": false, "vote_average": 5.5, "vote_count": 573, "popularity": 8.943}, {"adult": false, "backdrop_path": "/3UnvmI2efghXaIRDpQxEyX8gK3N.jpg", "genre_ids": [27, 53], "id": 26774, "original_language": "en", "original_title": "The Blood on Satan's Claw", "overview": "The accidental unearthing of Satan\u2019s earthly remains causes the children of 17th-century English village to slowly convert into a coven of devil worshipers.", "poster_path": "/sJREenbTnr3Th2FGXo93D1nHCoC.jpg", "release_date": "1971-01-01", "title": "The Blood on Satan's Claw", "video": false, "vote_average": 6.2, "vote_count": 54, "popularity": 7.263}, {"adult": false, "backdrop_path": "/6Lqg3mq2qSdAS806LryixLjnz8A.jpg", "genre_ids": [27], "id": 40158, "original_language": "en", "original_title": "The Mephisto Waltz", "overview": "A frustrated pianist himself, music journalist Myles Clarkson is thrilled to interview virtuoso Duncan Ely. Duncan, however, is terminally ill and not much interested in Myles until noticing that Myles' hands are ideally suited for piano. Suddenly, he can't get enough of his new friend, and Myles' wife, Paula, becomes suspicious of Duncan's intentions. Her suspicions grow when Duncan dies and Myles mysteriously becomes a virtuoso overnight.", "poster_path": "/iXWPDfMDIk6agPOt2RxU8RaJ8uK.jpg", "release_date": "1971-04-09", "title": "The Mephisto Waltz", "video": false, "vote_average": 6.6, "vote_count": 27, "popularity": 4.853}, {"adult": false, "backdrop_path": "/sABEfSEb3ZTu8eO0q20sixezbVY.jpg", "genre_ids": [27, 53, 14, 18], "id": 11586, "original_language": "en", "original_title": "Exorcist II: The Heretic", "overview": "Bizarre nightmares plague Regan MacNeil four years after her possession and exorcism. Has the demon returned? And if so, can the combined faith and knowledge of a Vatican investigator and a hypnotic research specialist free her from its grasp?", "poster_path": "/jIVYbxsp6y80wyfLlnKkRc9rI6Q.jpg", "release_date": "1977-06-17", "title": "Exorcist II: The Heretic", "video": false, "vote_average": 4.5, "vote_count": 296, "popularity": 10.908}, {"id": 25319, "video": false, "vote_count": 116, "vote_average": 6.7, "title": "The Masque of the Red Death", "release_date": "1964-06-24", "original_language": "en", "original_title": "The Masque of the Red Death", "genre_ids": [18, 27], "backdrop_path": "/7UYLhBSYMrRyj4JfMsTyuJoSnQy.jpg", "adult": false, "overview": "Satan-worshiper Prince Prospero invites the local nobility to his castle for protection against an oncoming plague, the Red Death. He orders his guests to attend a masked ball and, amidst an atmosphere of debauchery and depravity, notices the entry of a hooded stranger dressed all in red. Believing the figure to be his master, Satan, Prospero is horrified at the revelation of his true identity.", "poster_path": "/pPHVp6XVaSK5Hkbmf7HYdrts9kJ.jpg", "popularity": 8.469}, {"adult": false, "backdrop_path": "/y0MYRnqIEa85AInrzeYlWFCsmSG.jpg", "genre_ids": [27, 9648], "id": 25103, "original_language": "en", "original_title": "Night of the Demon", "overview": "American professor John Holden arrives in London for a conference on parapsychology only to discover that the colleague he was supposed to meet was killed in a freak accident the day before. It turns out that the deceased had been investigating a cult lead by Dr. Julian Karswell. Though a skeptic, Holden is suspicious of the devil-worshiping Karswell. Following a trail of mysterious manuscripts, Holden enters a world that makes him question his faith in science.", "poster_path": "/7VnwPylFw3prF7B62t5EpTeXWRj.jpg", "release_date": "1957-11-09", "title": "Night of the Demon", "video": false, "vote_average": 7.2, "vote_count": 99, "popularity": 9.302}, {"id": 43645, "video": false, "vote_count": 238, "vote_average": 6.7, "title": "The Little Devil", "release_date": "1988-07-01", "original_language": "it", "original_title": "Il piccolo diavolo", "genre_ids": [35, 14, 10749], "backdrop_path": "/dwH2E6ag2B4m4XxCyaljat3xXPO.jpg", "adult": false, "overview": "Father Maurice, a priest living in a residential college for priests in Rome, is called out one day to \"exorcise\" the devil from someone. The devil turns out to be in the form of a fun-loving man called Giuditta. What Father Maurice doesn't know is that this type of devil will turn his life around.", "poster_path": "/nQJKOJlb2IEqQki8GSRYVMbSyXM.jpg", "popularity": 8.319}, {"id": 438736, "video": false, "vote_count": 41, "vote_average": 5.1, "title": "The Heretics", "release_date": "2017-11-01", "original_language": "en", "original_title": "The Heretics", "genre_ids": [14, 27], "backdrop_path": "/qD83FwtXEsMjXOIa8NP9xI1Qjsd.jpg", "adult": false, "overview": "A young girl is abducted by a man, who claims that a cult is hunting her. His goal is to protect her until sunrise but while restrained, the young girl falls deathly ill. While her friends and family search for her, the source of her illness becomes more and more apparent. She\u2019s not sick\u2026she\u2019s changing.", "poster_path": "/37kE4oMeRbETfnsYfNh7WzmuyFc.jpg", "popularity": 5.71}, {"id": 20945, "video": false, "vote_count": 46, "vote_average": 6.5, "title": "The Seventh Victim", "release_date": "1943-08-21", "original_language": "en", "original_title": "The Seventh Victim", "genre_ids": [18, 27, 9648], "backdrop_path": "/4A08n3NwYXk2ZUv476d4Fv8tCxK.jpg", "adult": false, "overview": "A young woman searches for her missing sister who, unknown to her, has become involved with a group of Satan worshippers in Greenwich Village.", "poster_path": "/mkxYlMmrw2oUGjGHZI0jlm3nQ34.jpg", "popularity": 6.952}], "total_pages": 3, "total_results": 56}, "recommendations": {"page": 1, "results": [], "total_pages": 1, "total_results": 0}, "credits": {"cast": [{"cast_id": 14, "character": "Carlotta Rhodes", "credit_id": "52fe439cc3a36847f80619d5", "gender": 1, "id": 32913, "name": "Anne Heywood", "order": 0, "profile_path": "/GJhk8UeX477BDhscOh70A7PDdY.jpg"}, {"cast_id": 2, "character": "Elena Merrill", "credit_id": "52fe439cc3a36847f806199b", "gender": 1, "id": 24499, "name": "Valentina Cortese", "order": 1, "profile_path": "/3BCzLmnfaT87jyMVfzewVrq6hjg.jpg"}, {"cast_id": 3, "character": "The Exorcist", "credit_id": "52fe439cc3a36847f806199f", "gender": 2, "id": 29426, "name": "John Phillip Law", "order": 2, "profile_path": "/rlcXnlH9FnIh7IREesu9wy6atFr.jpg"}, {"cast_id": 4, "character": "Agatha", "credit_id": "52fe439cc3a36847f80619a3", "gender": 1, "id": 29395, "name": "Marisa Mell", "order": 3, "profile_path": "/7jAv43EMsd3qgRz1yy9wEOT45A.jpg"}, {"cast_id": 5, "character": "Raffaella", "credit_id": "52fe439cc3a36847f80619a7", "gender": 1, "id": 18847, "name": "Irene Papas", "order": 4, "profile_path": "/tJ0ErVqe8bmqz5vuU9iJLwiBGle.jpg"}, {"cast_id": 17, "character": "Daria Rhodes", "credit_id": "52fe439cc3a36847f80619e1", "gender": 0, "id": 32915, "name": "Lara Wendel", "order": 5, "profile_path": "/rmbHp41oHQ6E7Wro059Q6Wb56Ve.jpg"}, {"cast_id": 15, "character": "Paul", "credit_id": "52fe439cc3a36847f80619d9", "gender": 2, "id": 6637, "name": "Frank Finlay", "order": 6, "profile_path": "/fz3sIozTo0L1eCKlwHdoe92dcXk.jpg"}, {"cast_id": 16, "character": "Anna Merrill", "credit_id": "52fe439cc3a36847f80619dd", "gender": 1, "id": 32914, "name": "Paola Tedesco", "order": 7, "profile_path": "/QFMw1qLrkPM8JvQuznrEBuZyFA.jpg"}, {"cast_id": 18, "character": "Professor", "credit_id": "52fe439cc3a36847f80619e5", "gender": 2, "id": 2481, "name": "Ian Bannen", "order": 8, "profile_path": "/o1M55VhFgRimGz9cNjadt8fWlXE.jpg"}, {"cast_id": 19, "character": "Lucifer", "credit_id": "52fe439cc3a36847f80619e9", "gender": 0, "id": 32916, "name": "Ezio Miani", "order": 9, "profile_path": null}, {"cast_id": 20, "character": "Peter Rhodes", "credit_id": "52fe439cc3a36847f80619ed", "gender": 0, "id": 32917, "name": "West Buchanan", "order": 10, "profile_path": null}, {"cast_id": 21, "character": "-", "credit_id": "52fe439cc3a36847f80619f1", "gender": 1, "id": 102218, "name": "Carmen Russo", "order": 11, "profile_path": "/A6NePz1A4PFKuNoJ05ipCUE9E1w.jpg"}, {"cast_id": 22, "character": "Prostitute", "credit_id": "52fe439cc3a36847f80619f5", "gender": 1, "id": 41120, "name": "Marina Daunia", "order": 12, "profile_path": "/qCfJzvSu1FCjQWL8twm5GM5iMwO.jpg"}, {"cast_id": 29, "character": "Prostitute", "credit_id": "57fc0df4c3a3681b3f000b0b", "gender": 1, "id": 32918, "name": "Patrizia Webley", "order": 13, "profile_path": "/epI7ALtwPVVQhBhVNTJ6rVMKjiU.jpg"}, {"cast_id": 24, "character": "", "credit_id": "52fe439cc3a36847f80619fd", "gender": 1, "id": 102219, "name": "Sofia Dionisio", "order": 14, "profile_path": "/9Cq2pzviTOMME0CsbIUtkBR4p11.jpg"}, {"cast_id": 25, "character": "", "credit_id": "52fe439cc3a36847f8061a01", "gender": 1, "id": 100410, "name": "Sonia Viviani", "order": 15, "profile_path": "/9RKYA9bGY4TZ0jfUf4pch59PE7i.jpg"}, {"cast_id": 26, "character": "", "credit_id": "52fe439cc3a36847f8061a05", "gender": 1, "id": 43194, "name": "Dirce Funari", "order": 16, "profile_path": "/sR60eKls1Bpdq9hhYlIXwviAijX.jpg"}, {"cast_id": 27, "character": "", "credit_id": "52fe439cc3a36847f8061a09", "gender": 1, "id": 102220, "name": "Anny Papa", "order": 17, "profile_path": "/vmCF3PxT9DXmrGdXfGCZnAStix9.jpg"}, {"cast_id": 30, "character": "", "credit_id": "5ce81e1d925141479bbf810f", "gender": 0, "id": 1977749, "name": "Ofelia Meyer", "order": 18, "profile_path": null}, {"cast_id": 31, "character": "", "credit_id": "5ce81e24c3a3683bd824b871", "gender": 0, "id": 1730160, "name": "Anka Auling", "order": 19, "profile_path": null}, {"cast_id": 32, "character": "", "credit_id": "5ce81e2cc3a3685ad7211bf4", "gender": 0, "id": 2320436, "name": "Rossana Palazzolo", "order": 20, "profile_path": null}, {"cast_id": 33, "character": "", "credit_id": "5ce81e55c3a3683bd824b893", "gender": 0, "id": 2320437, "name": "Mark Jeremy Stross", "order": 21, "profile_path": null}, {"cast_id": 34, "character": "", "credit_id": "5ce81e5e9251417a3fb938ac", "gender": 0, "id": 1680414, "name": "Michel Barnes", "order": 22, "profile_path": null}], "crew": [{"credit_id": "52fe439cc3a36847f8061997", "department": "Directing", "gender": 0, "id": 32826, "job": "Director", "name": "Pier Carpi", "profile_path": null}, {"credit_id": "52fe439cc3a36847f80619ad", "department": "Writing", "gender": 0, "id": 32826, "job": "Screenplay", "name": "Pier Carpi", "profile_path": null}, {"credit_id": "52fe439cc3a36847f80619b3", "department": "Production", "gender": 0, "id": 32826, "job": "Producer", "name": "Pier Carpi", "profile_path": null}, {"credit_id": "52fe439cc3a36847f80619b9", "department": "Sound", "gender": 2, "id": 29501, "job": "Original Music Composer", "name": "Stelvio Cipriani", "profile_path": "/lMk2Iwbq2RcvCZd9UJw0QtT74VZ.jpg"}, {"credit_id": "52fe439cc3a36847f80619bf", "department": "Editing", "gender": 0, "id": 32909, "job": "Editor", "name": "Manlio Camastro", "profile_path": null}, {"credit_id": "52fe439cc3a36847f80619c5", "department": "Art", "gender": 0, "id": 16595, "job": "Set Designer", "name": "Pier Luigi Basile", "profile_path": null}, {"credit_id": "52fe439cc3a36847f80619cb", "department": "Costume & Make-Up", "gender": 0, "id": 32911, "job": "Costume Design", "name": "Michaela Gisotti", "profile_path": null}, {"credit_id": "52fe439cc3a36847f80619d1", "department": "Costume & Make-Up", "gender": 0, "id": 32912, "job": "Makeup Artist", "name": "Alfonso Gola", "profile_path": null}, {"credit_id": "52fe439cc3a36847f8061a0f", "department": "Camera", "gender": 0, "id": 1173400, "job": "Director of Photography", "name": "Guglielmo Mancori", "profile_path": null}]}}