{"adult": false, "backdrop_path": "/tT4t7Y0kEOqQRYtjEi52SVssuH.jpg", "belongs_to_collection": null, "budget": 0, "genres": [{"id": 18, "name": "Drama"}], "homepage": null, "id": 3565, "imdb_id": "tt0019509", "original_language": "en", "original_title": "Underground", "overview": "A working-class love story set in and around the London Underground of the 1920s. Two men - gentle Bill and brash Bert - meet and are attracted to the same woman on the same day at the same Underground station. But the lady chooses Bill, and Bert isn't the type to take rejection lightly...", "popularity": 2.049, "poster_path": "/8xtsTBjNfUKXJThJTgkuIh6bn50.jpg", "production_companies": [], "production_countries": [{"iso_3166_1": "GB", "name": "United Kingdom"}], "release_date": "1928-07-01", "revenue": 0, "runtime": 84, "spoken_languages": [{"iso_639_1": "en", "name": "English"}], "status": "Released", "tagline": "", "title": "Underground", "video": false, "vote_average": 6.6, "vote_count": 7, "keywords": {"keywords": [{"id": 1552, "name": "subway"}, {"id": 7033, "name": "london underground"}]}, "similar": {"page": 1, "results": [{"id": 8848, "video": false, "vote_count": 1213, "vote_average": 6.8, "title": "The Bank Job", "release_date": "2008-02-28", "original_language": "en", "original_title": "The Bank Job", "genre_ids": [80, 18, 53], "backdrop_path": "/h3aTGDGZly8ee9EHxIjIK7UaKf2.jpg", "adult": false, "overview": "Terry is a small-time car dealer trying to leave his shady past behind and start a family. Martine is a beautiful model from Terry's old neighbourhood who knows that Terry is no angel. When Martine proposes a foolproof plan to rob a bank, Terry recognises the danger but realises this may be the opportunity of a lifetime. As the resourceful band of thieves burrows its way into a safe-deposit vault at a Lloyds Bank, they quickly realise that, besides millions in riches, the boxes also contain secrets that implicate everyone from London's most notorious underworld gangsters to powerful government figures, and even the Royal Family. Although the heist makes headlines throughout Britain for several days, a government gag order eventually brings all reporting of the case to an immediate halt.", "poster_path": "/zS3mDKTGRTQtnfiIRPnjHZM9r0l.jpg", "popularity": 14.177}, {"id": 146015, "video": false, "vote_count": 598, "vote_average": 6.6, "title": "The Double", "release_date": "2014-04-04", "original_language": "en", "original_title": "The Double", "genre_ids": [18, 53], "backdrop_path": "/gSNqUnQSgYWxsFQ59xH077dW1Zx.jpg", "adult": false, "overview": "An awkward office drone becomes increasingly unhinged after a charismatic and confident look-alike takes a job at his workplace and seduces the woman he desires.", "poster_path": "/hN6bP9XWKHI8JhlZpk8ieF1lcyG.jpg", "popularity": 11.771}, {"id": 399404, "video": false, "vote_count": 3041, "vote_average": 7.3, "title": "Darkest Hour", "release_date": "2017-11-22", "original_language": "en", "original_title": "Darkest Hour", "genre_ids": [18, 36], "backdrop_path": "/zXwFJMwvQcJFitP9GcHZvHAHGe8.jpg", "adult": false, "overview": "A thrilling and inspiring true story begins on the eve of World War II as, within days of becoming Prime Minister of Great Britain, Winston Churchill must face one of his most turbulent and defining trials: exploring a negotiated peace treaty with Nazi Germany, or standing firm to fight for the ideals, liberty and freedom of a nation. As the unstoppable Nazi forces roll across Western Europe and the threat of invasion is imminent, and with an unprepared public, a skeptical King, and his own party plotting against him, Churchill must withstand his darkest hour, rally a nation, and attempt to change the course of world history.", "poster_path": "/z0K8uoNbrYKkbaP7wIeadJ4BmSL.jpg", "popularity": 21.82}, {"id": 535292, "video": false, "vote_count": 110, "vote_average": 6.5, "title": "21 Bridges", "release_date": "2019-10-24", "original_language": "en", "original_title": "21 Bridges", "genre_ids": [28, 80, 18, 53], "backdrop_path": "/blUCzzkFNWrur18J0BvIYBdbquv.jpg", "adult": false, "overview": "A disgraced NYPD detective after being thrust into a citywide manhunt for a cop killer, is given a shot at redemption.", "poster_path": "/bSN9SysoRBMwJKNkfOlQlCw2YQO.jpg", "popularity": 27.875}, {"id": 13515, "video": false, "vote_count": 1001, "vote_average": 6.1, "title": "Mirrors", "release_date": "2008-08-15", "original_language": "en", "original_title": "Mirrors", "genre_ids": [18, 27, 9648, 53], "backdrop_path": "/v2t6Zbg6X0LeklL3A5iQsz4p4sh.jpg", "adult": false, "overview": "An ex-cop and his family are the target of an evil force that is using mirrors as a gateway into their home.", "poster_path": "/h0Lf0PoLqvcDDpWhvCpiLGSREmp.jpg", "popularity": 21.873}, {"id": 104, "video": false, "vote_count": 1196, "vote_average": 7.3, "title": "Run Lola Run", "release_date": "1998-08-20", "original_language": "de", "original_title": "Lola rennt", "genre_ids": [28, 18, 53], "backdrop_path": "/on7RwevEYFO9Q3U1augjdIRU1ur.jpg", "adult": false, "overview": "Lola receives a phone call from her boyfriend Manni. He lost 100,000 DM in a subway train that belongs to a very bad guy. She has 20 minutes to raise this amount and meet Manni. Otherwise, he will rob a store to get the money. Three different alternatives may happen depending on some minor event along Lola's run.", "poster_path": "/3L8QhF5IkZOnEnBFdpj6GVkkp7d.jpg", "popularity": 18.804}, {"id": 10357, "video": false, "vote_count": 743, "vote_average": 5.6, "title": "Volcano", "release_date": "1997-04-25", "original_language": "en", "original_title": "Volcano", "genre_ids": [28, 18, 878, 53], "backdrop_path": "/5GnJKCuLIYLgfXuTt2LeWxlcetA.jpg", "adult": false, "overview": "An earthquake shatters a peaceful Los Angeles morning and opens a fissure deep into the earth, causing lava to start bubbling up. As a volcano begins forming in the La Brea Tar Pits, the director of the city's emergency management service, Mike Roark, working with geologist Amy Barnes, must then use every resource in the city to try and stop the volcano from consuming Los Angeles.", "poster_path": "/zFxrGOiOddg3iVfAhGrBsIzUp3M.jpg", "popularity": 14.376}, {"id": 277, "video": false, "vote_count": 4160, "vote_average": 6.7, "title": "Underworld", "release_date": "2003-09-19", "original_language": "en", "original_title": "Underworld", "genre_ids": [28, 14, 53], "backdrop_path": "/cPhRPAJWK8BuuJqqf6PztzvOlnZ.jpg", "adult": false, "overview": "Vampires and werewolves have waged a nocturnal war against each other for centuries. But all bets are off when a female vampire warrior named Selene, who's famous for her strength and werewolf-hunting prowess, becomes smitten with a peace-loving male werewolf, Michael, who wants to end the war.", "poster_path": "/rdkxl5iXdpVU188cL1LLG3sy6z4.jpg", "popularity": 22.311}, {"adult": false, "backdrop_path": "/aJCEQFFXNcfg5YneJzTG15qzxF7.jpg", "genre_ids": [28, 53], "id": 1572, "original_language": "en", "original_title": "Die Hard: With a Vengeance", "overview": "New York detective John McClane is back and kicking bad-guy butt in the third installment of this action-packed series, which finds him teaming with civilian Zeus Carver to prevent the loss of innocent lives. McClane thought he'd seen it all, until a genius named Simon engages McClane, his new \"partner\" -- and his beloved city -- in a deadly game that demands their concentration.", "poster_path": "/ivpXGcsPZglyYrN65THWSD7JM3q.jpg", "release_date": "1995-05-19", "title": "Die Hard: With a Vengeance", "video": false, "vote_average": 7.1, "vote_count": 3603, "popularity": 27.341}, {"id": 605, "video": false, "vote_count": 5698, "vote_average": 6.6, "title": "The Matrix Revolutions", "release_date": "2003-11-03", "original_language": "en", "original_title": "The Matrix Revolutions", "genre_ids": [28, 12, 878, 53], "backdrop_path": "/pdVHUsb2eEz9ALNTr6wfRJe5xVa.jpg", "adult": false, "overview": "The human city of Zion defends itself against the massive invasion of the machines as Neo fights to end the war at another front while also opposing the rogue Agent Smith.", "poster_path": "/sKogjhfs5q3azmpW7DFKKAeLEG8.jpg", "popularity": 22.724}, {"id": 11033, "video": false, "vote_count": 359, "vote_average": 6.8, "title": "Dressed to Kill", "release_date": "1980-07-25", "original_language": "en", "original_title": "Dressed to Kill", "genre_ids": [27, 9648, 53], "backdrop_path": "/mtGByKUtyLVWXl8OjWFOicLHsFo.jpg", "adult": false, "overview": "A mysterious, tall, blonde woman wearing sunglasses murders one of a psychiatrist's patients, and now she's after the prostitute who witnessed it.", "poster_path": "/b9RHUexTE6MT5x6iZ2Wmq56H1cJ.jpg", "popularity": 15.886}, {"id": 10843, "video": false, "vote_count": 589, "vote_average": 7.5, "title": "After Hours", "release_date": "1985-09-13", "original_language": "en", "original_title": "After Hours", "genre_ids": [35, 18, 53], "backdrop_path": "/kygOSBC0V0uRE6zmIaOO50rG9eg.jpg", "adult": false, "overview": "An ordinary word processor has the worst night of his life after he agrees to visit a girl in Soho whom he met that evening at a coffee shop.", "poster_path": "/s5XkBqUMwE0wQv9NY0XERs64cgs.jpg", "popularity": 10.446}, {"id": 9654, "video": false, "vote_count": 3400, "vote_average": 6.7, "title": "The Italian Job", "release_date": "2003-05-30", "original_language": "en", "original_title": "The Italian Job", "genre_ids": [28, 80], "backdrop_path": "/JyoJwSfcLvfLxCGHUQYlCxvU77.jpg", "adult": false, "overview": "Charlie Croker pulled off the crime of a lifetime. The one thing that he didn't plan on was being double-crossed. Along with a drop-dead gorgeous safecracker, Croker and his team take off to re-steal the loot and end up in a pulse-pounding, pedal-to-the-metal chase that careens up, down, above and below the streets of Los Angeles.", "poster_path": "/jNRCNX1uDiUf6mteFxOBn30wL8Q.jpg", "popularity": 21.009}, {"id": 331962, "video": false, "vote_count": 277, "vote_average": 4.7, "title": "Exposed", "release_date": "2016-01-22", "original_language": "en", "original_title": "Exposed", "genre_ids": [80, 18, 53], "backdrop_path": "/jSB5hVvIIuZ3ngn8ueiVQGrSI4T.jpg", "adult": false, "overview": "After witnessing a miracle, a young Latina woman experiences strange things as a police detective searches for the truth behind his partner's death.", "poster_path": "/nM26QosEfgjEegONCiNNrYMBTxD.jpg", "popularity": 13.681}, {"adult": false, "backdrop_path": "/61M78jSCrNrb2cAE583ZL5AzQ0V.jpg", "genre_ids": [12, 35], "id": 9671, "original_language": "en", "original_title": "Crocodile Dundee", "overview": "When a New York reporter plucks crocodile hunter Dundee from the Australian Outback for a visit to the Big Apple, it's a clash of cultures and a recipe for good-natured comedy as na\u00efve Dundee negotiates the concrete jungle. Dundee proves that his instincts are quite useful in the city and adeptly handles everything from wily muggers to high-society snoots without breaking a sweat.", "poster_path": "/uQyFHP0BBQcOVAbfpmiTnj5rKDm.jpg", "release_date": "1986-09-26", "title": "Crocodile Dundee", "video": false, "vote_average": 6.3, "vote_count": 1037, "popularity": 14.421}, {"adult": false, "backdrop_path": "/7kVU5OgqQDktRp482DBLa3UXT1g.jpg", "genre_ids": [35, 10749], "id": 2064, "original_language": "en", "original_title": "While You Were Sleeping", "overview": "A transit worker pulls commuter Peter off railway tracks after he's mugged, but\u2014while he's in a coma\u2014his family mistakenly thinks she's Peter's fianc\u00e9e, and she doesn't correct them. Things get more complicated when she falls for his brother, who's not quite sure that she's who she claims to be.", "poster_path": "/9StV7DX4ZtRZGJs9VcVEPvxIKL6.jpg", "release_date": "1995-04-21", "title": "While You Were Sleeping", "video": false, "vote_average": 6.8, "vote_count": 816, "popularity": 13.178}, {"id": 19457, "video": false, "vote_count": 204, "vote_average": 6.2, "title": "The Yards", "release_date": "2000-10-20", "original_language": "en", "original_title": "The Yards", "genre_ids": [80, 18, 53, 10749], "backdrop_path": "/7fttiHd5cBpp9Ftal8Cue0ArvOF.jpg", "adult": false, "overview": "In the rail yards of Queens, contractors repair and rebuild the city's subway cars. These contracts are lucrative, so graft and corruption are rife. When Leo Handler gets out of prison, he finds his aunt married to Frank Olchin, one of the big contractors; he's battling with a minority-owned firm for contracts.", "poster_path": "/AtwXtU8CDWvVADgOwRkOSRZFPWI.jpg", "popularity": 8.31}, {"id": 814, "video": false, "vote_count": 1136, "vote_average": 7.3, "title": "An American Werewolf in London", "release_date": "1981-08-21", "original_language": "en", "original_title": "An American Werewolf in London", "genre_ids": [35, 27], "backdrop_path": "/lFiEdW3zVjR2Wujxu3yZLpL2N8n.jpg", "adult": false, "overview": "Two American tourists in England are attacked by a werewolf that none of the locals will admit exists.", "poster_path": "/a8doVE7sXezmIeAFyXJcI3hPna5.jpg", "popularity": 13.433}, {"adult": false, "backdrop_path": "/dBavxNhbNZ8uJU9avHrqCCEKuii.jpg", "genre_ids": [28, 35, 80], "id": 11517, "original_language": "en", "original_title": "Money Train", "overview": "When a vengeful New York transit cop decides to steal a trainload of subway fares, his foster brother\u2014a fellow cop\u2014tries to protect him.", "poster_path": "/jWBDz6Mf9aQVBiUS76JQsEhvoJl.jpg", "release_date": "1995-11-21", "title": "Money Train", "video": false, "vote_average": 5.7, "vote_count": 406, "popularity": 13.844}, {"id": 10653, "video": false, "vote_count": 419, "vote_average": 7.1, "title": "The Seven Year Itch", "release_date": "1955-06-01", "original_language": "en", "original_title": "The Seven Year Itch", "genre_ids": [35, 10749], "backdrop_path": "/mX8Hfs2QfY3ZJwDsk4DxP4tL3OU.jpg", "adult": false, "overview": "With his family away for their annual summer holiday, Richard Sherman decides he has the opportunity to live a bachelor's life. The beautiful but ditzy blonde from the apartment above catches his eye and they soon start spending time together - maybe a little too much time!", "poster_path": "/4oLqx0QbjWFzWtkxRmDLGH47CUJ.jpg", "popularity": 12.007}], "total_pages": 5, "total_results": 89}, "recommendations": {"page": 1, "results": [{"adult": false, "backdrop_path": null, "genre_ids": [18, 10749], "id": 190149, "original_language": "it", "original_title": "'A Santanotte", "overview": "A feature film by Elvira Notari, Italy's earliest and most prolific female filmmaker.", "poster_path": "/qi6ww9Rs0XqHpG8ntyORxvulcVj.jpg", "release_date": "1922-12-24", "title": "'A Santanotte", "video": false, "vote_average": 3.7, "vote_count": 3, "popularity": 1.018}, {"id": 32683, "video": false, "vote_count": 5, "vote_average": 6.4, "title": "The Flapper", "release_date": "1920-05-10", "original_language": "en", "original_title": "The Flapper", "genre_ids": [35], "backdrop_path": "/gfpS3bIYztKHIc4GPAWHmZohOY7.jpg", "adult": false, "overview": "A Southern teen at a ritzy boarding school gets into mischief while acting the sophisticated grownup to impress a suave gentleman and match wits with a pair of jewel thieves.", "poster_path": "/z9WnuAeORp09lQz9Wp10SPbV2eO.jpg", "popularity": 1.479}, {"adult": false, "backdrop_path": null, "genre_ids": [35], "id": 127267, "original_language": "en", "original_title": "What the Butler Saw", "overview": "An Earl returns from a tropical island and discovers the daughter of the tribal King has stowed away in his luggage.", "poster_path": "/6Yn6rnBuUBVtEublpVxtZ6WB2Lg.jpg", "release_date": "1950-01-01", "title": "What the Butler Saw", "video": false, "vote_average": 5.0, "vote_count": 4, "popularity": 1.965}, {"adult": false, "backdrop_path": null, "genre_ids": [10749], "id": 289117, "original_language": "en", "original_title": "The Bohemian Girl", "overview": "A Polish officer posing as a gypsy loves a gypsy girl who is really the count's daughter.", "poster_path": "/kZY3HisA1s8JHzIYc7ISbm80knn.jpg", "release_date": "1922-07-27", "title": "The Bohemian Girl", "video": false, "vote_average": 6.7, "vote_count": 3, "popularity": 0.868}], "total_pages": 1, "total_results": 4}, "credits": {"cast": [{"cast_id": 6, "character": "Bill", "credit_id": "52fe439dc3a36847f8061cfb", "gender": 2, "id": 32923, "name": "Brian Aherne", "order": 0, "profile_path": "/jX8H9PYZTuzFqxEa76W0dEVzKWF.jpg"}, {"cast_id": 7, "character": "Nell", "credit_id": "52fe439dc3a36847f8061cff", "gender": 1, "id": 32924, "name": "Elissa Landi", "order": 1, "profile_path": "/4EH1Hwm61Iu5LnskyjkbdtYx0zm.jpg"}, {"cast_id": 8, "character": "Bert", "credit_id": "52fe439dc3a36847f8061d03", "gender": 2, "id": 32925, "name": "Cyril McLaglen", "order": 2, "profile_path": null}, {"cast_id": 9, "character": "Kate", "credit_id": "52fe439dc3a36847f8061d07", "gender": 0, "id": 32926, "name": "Norah Baring", "order": 3, "profile_path": "/b8V6QpFpOz6bqQ7LBC7f4q4TXNe.jpg"}], "crew": [{"credit_id": "52fe439cc3a36847f8061cdf", "department": "Directing", "gender": 2, "id": 32919, "job": "Director", "name": "Anthony Asquith", "profile_path": "/7HcBZ21Huhgwa4bEsxm8KPv5dZj.jpg"}, {"credit_id": "52fe439cc3a36847f8061ce5", "department": "Writing", "gender": 2, "id": 32919, "job": "Screenplay", "name": "Anthony Asquith", "profile_path": "/7HcBZ21Huhgwa4bEsxm8KPv5dZj.jpg"}, {"credit_id": "52fe439cc3a36847f8061ceb", "department": "Camera", "gender": 0, "id": 32920, "job": "Director of Photography", "name": "Stanley Rodwell", "profile_path": null}, {"credit_id": "52fe439cc3a36847f8061cf1", "department": "Art", "gender": 2, "id": 32921, "job": "Art Direction", "name": "Ian Campbell-Gray", "profile_path": null}, {"credit_id": "52fe439dc3a36847f8061cf7", "department": "Lighting", "gender": 2, "id": 32922, "job": "Lighting Technician", "name": "Karl Fischer", "profile_path": null}]}}