{"adult": false, "backdrop_path": "/3RlCYv72322FQ2q6DcjyCK1Xe9J.jpg", "belongs_to_collection": null, "budget": 750000, "genres": [{"id": 35, "name": "Comedy"}, {"id": 18, "name": "Drama"}], "homepage": "", "id": 35711, "imdb_id": "tt0072820", "original_language": "en", "original_title": "Cooley High", "overview": "In the mid-1960s, a group of high school friends who live on the Near North Side of Chicago enjoy life to the fullest...parties, hanging out, meeting new friends. Then life changes for two of the guys when they meet a pair of career criminals and get falsely arrested in connection with stealing a Cadillac. We follow their lives through the end of high school and the dramatic end to their school.", "popularity": 3.498, "poster_path": "/2PTp8eZtoIlmxWwMdJAzZNwXfDy.jpg", "production_companies": [{"id": 9266, "logo_path": null, "name": "American International Pictures", "origin_country": "US"}], "production_countries": [{"iso_3166_1": "US", "name": "United States of America"}], "release_date": "1975-06-25", "revenue": 13000000, "runtime": 107, "spoken_languages": [{"iso_639_1": "en", "name": "English"}], "status": "Released", "tagline": "Where the Student Body Was a Chick Named Veronica... The Senior Prom was a 'belly rub' and the Class of '64 ran a Permanent crap game in the Men's Room!", "title": "Cooley High", "video": false, "vote_average": 7.3, "vote_count": 28, "keywords": {"keywords": [{"id": 520, "name": "chicago, usa"}, {"id": 3300, "name": "cadillac"}, {"id": 6270, "name": "high school"}, {"id": 9713, "name": "friends"}, {"id": 10683, "name": "coming of age"}]}, "similar": {"page": 1, "results": [{"id": 449176, "video": false, "vote_count": 3691, "vote_average": 8.1, "title": "Love, Simon", "release_date": "2018-02-16", "original_language": "en", "original_title": "Love, Simon", "genre_ids": [35, 18, 10749], "backdrop_path": "/rqMEeajyzSF4PpJtdCB816Iz8Vr.jpg", "adult": false, "overview": "Everyone deserves a great love story. But for seventeen-year old Simon Spier it's a little more complicated: he's yet to tell his family or friends he's gay and he doesn't know the identity of the anonymous classmate he's fallen for online.", "poster_path": "/5YUYg5q7QfC4IoNwNUtiwdiYKPr.jpg", "popularity": 17.201}, {"adult": false, "backdrop_path": "/2oG0ggdMliMDjenw00eSwZFypUp.jpg", "genre_ids": [35, 18], "id": 376660, "original_language": "en", "original_title": "The Edge of Seventeen", "overview": "Two high school girls are best friends until one dates the other's older brother, who is totally his sister's nemesis.", "poster_path": "/gxK80WUwkQePpXpzRdpob0i7DD5.jpg", "release_date": "2016-11-18", "title": "The Edge of Seventeen", "video": false, "vote_average": 7.2, "vote_count": 2517, "popularity": 17.267}, {"id": 13342, "video": false, "vote_count": 639, "vote_average": 6.9, "title": "Fast Times at Ridgemont High", "release_date": "1982-08-13", "original_language": "en", "original_title": "Fast Times at Ridgemont High", "genre_ids": [35, 18], "backdrop_path": "/l23IoHAfjTdNMZLeDetr75H6sb7.jpg", "adult": false, "overview": "Follows a group of high school students growing up in southern California, based on the real-life adventures chronicled by Cameron Crowe. Stacy Hamilton and Mark Ratner are looking for a love interest, and are helped along by their older classmates, Linda Barrett and Mike Damone, respectively. The center of the film is held by Jeff Spicoli, a perpetually stoned surfer dude who faces off with the resolute Mr. Hand, who is convinced that everyone is on dope.", "poster_path": "/lvEenO2CikD4Zo3rFK1flAU99Pr.jpg", "popularity": 11.118}, {"adult": false, "backdrop_path": "/3GuYLuqn34guNrgUlZnXyLogD6u.jpg", "genre_ids": [35, 12, 10749], "id": 13523, "original_language": "en", "original_title": "Sex Drive", "overview": "A high school senior drives cross-country with his best friends to hook up with a babe he met online.", "poster_path": "/bwXrZy2xqsyDnno4z8AENEgVfsO.jpg", "release_date": "2008-10-16", "title": "Sex Drive", "video": false, "vote_average": 6.1, "vote_count": 646, "popularity": 12.037}, {"adult": false, "backdrop_path": "/zffzhr30v7nCHRcyfnVr8PmNLbM.jpg", "genre_ids": [10749, 35, 18], "id": 11355, "original_language": "en", "original_title": "Never Been Kissed", "overview": "Josie Geller, a baby-faced junior copywriter at the Chicago Sun-Times, must pose as a student at her former high school to research contemporary teenage culture. With the help of her brother, Rob, Josie infiltrates the inner circle of the most popular clique on campus. But she hits a major snag in her investigation -- not to mention her own failed love life -- when she falls for her dreamy English teacher, Sam Coulson.", "poster_path": "/1F9EAhEQxa0I5Pa5Z10hWIBFS3r.jpg", "release_date": "1999-04-09", "title": "Never Been Kissed", "video": false, "vote_average": 6.0, "vote_count": 855, "popularity": 15.613}, {"adult": false, "backdrop_path": "/gFYx0L17dZgmvsvSbwQ0PWtf3BO.jpg", "genre_ids": [35, 18, 10751, 10770], "id": 89185, "original_language": "en", "original_title": "Radio Rebel", "overview": "High school senior Tara is so painfully shy that she dreads speaking to anyone in the hallways or getting called on in class. But in the privacy of her bedroom with her iPod in hand, she rocks out -- doing mock broadcasts for Miami's hottest FM radio station, which happens to be owned by her stepfather. When a slot opens up at The SLAM, Tara surprises herself by blossoming behind the mike into confident, \"Radio Rebel\" -- and to everyone's shock, she's a hit!", "poster_path": "/xMDnQAGrjdy4k20n9CZGHKFm7XA.jpg", "release_date": "2012-02-17", "title": "Radio Rebel", "video": false, "vote_average": 6.2, "vote_count": 548, "popularity": 13.248}, {"id": 11887, "video": false, "vote_count": 2347, "vote_average": 6.5, "title": "High School Musical 3: Senior Year", "release_date": "2008-10-11", "original_language": "en", "original_title": "High School Musical 3: Senior Year", "genre_ids": [35, 18, 10402, 10749, 10751], "backdrop_path": "/daSGxGZL2nNjGZKkAF5ain3lmOx.jpg", "adult": false, "overview": "It's almost graduation day for high school seniors Troy, Gabriella, Sharpay, Chad, Ryan and Taylor \u2015 and the thought of heading off in separate directions after leaving East High has these Wildcats thinking they need to do something they'll remember forever. Together with the rest of the Wildcats, they stage a spring musical reflecting their hopes and fears about the future and their unforgettable experiences growing up together. But with graduation approaching and college plans in question, what will become of the dreams, romances, and friendships of East High's senior Wildcats?", "poster_path": "/ewZpH2QIfPQ0VIn9lPf7MHbLbl4.jpg", "popularity": 14.748}, {"id": 76726, "video": false, "vote_count": 3331, "vote_average": 6.7, "title": "Chronicle", "release_date": "2012-02-01", "original_language": "en", "original_title": "Chronicle", "genre_ids": [18, 878, 53], "backdrop_path": "/f54d3tpzdRW02IDIIVRuwiY2N3K.jpg", "adult": false, "overview": "Three high school students make an incredible discovery, leading to their developing uncanny powers beyond their understanding. As they learn to control their abilities and use them to their advantage, their lives start to spin out of control, and their darker sides begin to take over.", "poster_path": "/kdyrdFIt29FUmLIKvedAc2j4rpo.jpg", "popularity": 16.937}, {"id": 272693, "video": false, "vote_count": 3249, "vote_average": 6.8, "title": "The DUFF", "release_date": "2015-02-20", "original_language": "en", "original_title": "The DUFF", "genre_ids": [35, 10749], "backdrop_path": "/awGZf5T1hflis9Z2KvRMhp798xU.jpg", "adult": false, "overview": "Bianca's universe turns upside down when she learns that her high school refers to her as a \u2018DUFF' (Designated Ugly Fat Friend). Hoping to erase that label, she enlists the help of a charming jock and her favorite teacher. Together they'll face the school's mean girl and remind everyone that we are all someone's DUFF\u2026 and that's totally fine.", "poster_path": "/dBBgPTCN5Zze4POXWVVpwf3wkra.jpg", "popularity": 17.232}, {"id": 325189, "video": false, "vote_count": 338, "vote_average": 6.5, "title": "Teen Beach 2", "release_date": "2015-06-26", "original_language": "en", "original_title": "Teen Beach 2", "genre_ids": [35, 14, 10751, 10770], "backdrop_path": "/x3cQd5rruj6jySg7dIHuNXT8REX.jpg", "adult": false, "overview": "When characters from the movie musical \u201cWet Side Story\u201d get stuck in the real world, teens Brady and Mack must find a way to return them home.", "poster_path": "/4A5Ecrvs6P8Yipjn4Xl2WYgu7Gm.jpg", "popularity": 24.718}, {"adult": false, "backdrop_path": "/by0WtpJ5UNxOy6ytIfPPTasbRoB.jpg", "genre_ids": [28, 12, 35, 18, 10751, 10402, 10749], "id": 17130, "original_language": "en", "original_title": "Crossroads", "overview": "Three friends get together and bury a box making a pact to open it at midnight at their high school graduation. In the little town in Georgia that they live in, things soon change. One is little miss perfect, one is an engaged prom queen, and the other is a pregnant outcast. The night of graduation, they open the box and they strike up a conversation. All of a sudden, one brings up the topic of her going to Los Angeles for a record contract audition. They all decide to go together and they leave. With a little money, they set out on the road with a guy named Ben. When one of them tells the other a rumor that he might be a homicidal maniac they are all scared of him. When they reach LA, Lucy falls in love with Ben and against her father's wishes, she stays and she goes to the audition.", "poster_path": "/egIs4cWxn0iBErFKrQ7STckjj49.jpg", "release_date": "2002-02-15", "title": "Crossroads", "video": false, "vote_average": 5.0, "vote_count": 334, "popularity": 14.197}, {"adult": false, "backdrop_path": "/qFdqdBiqTsfXYvKDeCfxTucxQzU.jpg", "genre_ids": [18, 35, 10749], "id": 80271, "original_language": "en", "original_title": "LOL", "overview": "In a world connected by YouTube, iTunes, and Facebook, Lola and her friends navigate the peer pressures of high school romance and friendship while dodging their sometimes overbearing and confused parents. When Lola's mom, Anne, \"accidentally\" reads her teenage daughter's racy journal, she realizes just how wide their communication gap has grown.", "poster_path": "/vlG6iHT1RuT9xLj17SmNNUd8jJZ.jpg", "release_date": "2012-02-10", "title": "LOL", "video": false, "vote_average": 6.1, "vote_count": 1977, "popularity": 15.159}, {"adult": false, "backdrop_path": "/jrSo8OTeWZ0Ego7uOYS20syIZ5N.jpg", "genre_ids": [35, 18], "id": 308369, "original_language": "en", "original_title": "Me and Earl and the Dying Girl", "overview": "Greg is coasting through senior year of high school as anonymously as possible, avoiding social interactions like the plague while secretly making spirited, bizarre films with Earl, his only friend. But both his anonymity and friendship threaten to unravel when his mother forces him to befriend a classmate with leukemia.", "poster_path": "/4Zrvc5rddDSHD3JmfkzvAx82wuT.jpg", "release_date": "2015-06-12", "title": "Me and Earl and the Dying Girl", "video": false, "vote_average": 7.6, "vote_count": 1697, "popularity": 13.277}, {"adult": false, "backdrop_path": "/aE1gbq6nw8zyVqvEBXMVMCqZpCs.jpg", "genre_ids": [18], "id": 85350, "original_language": "en", "original_title": "Boyhood", "overview": "The film tells a story of a divorced couple trying to raise their young son. The story follows the boy for twelve years, from first grade at age 6 through 12th grade at age 17-18, and examines his relationship with his parents as he grows.", "poster_path": "/eKi4e5zXhQKs0De4xu5AAMvu376.jpg", "release_date": "2014-06-05", "title": "Boyhood", "video": false, "vote_average": 7.5, "vote_count": 3350, "popularity": 13.377}, {"id": 378064, "video": false, "vote_count": 1330, "vote_average": 8.3, "title": "A Silent Voice", "release_date": "2016-09-17", "original_language": "ja", "original_title": "\u8072\u306e\u5f62", "genre_ids": [16, 18, 10749], "backdrop_path": "/q5HZvtyqG8Vz39Ee9uTQbLeEml.jpg", "adult": false, "overview": "Shouya Ishida starts bullying the new girl in class, Shouko Nishimiya, because she is deaf. But as the teasing continues, the rest of the class starts to turn on Shouya for his lack of compassion. When they leave elementary school, Shouko and Shouya do not speak to each other again... until an older, wiser Shouya, tormented by his past behaviour, decides he must see Shouko once more. He wants to atone for his sins, but is it already too late...?", "poster_path": "/drlyoSKDOPnxzJFrRWGqzDsyJvR.jpg", "popularity": 17.997}, {"id": 70695, "video": false, "vote_count": 108, "vote_average": 6.4, "title": "Dirty Girl", "release_date": "2010-09-12", "original_language": "en", "original_title": "Dirty Girl", "genre_ids": [35, 18], "backdrop_path": "/lV2FP4wQvfq8FSuk41mYylUIxQ3.jpg", "adult": false, "overview": "When Danielle is banished to special education because of her misbehavior, she joins Clarke on a road trip to discover themselves.", "poster_path": "/9wyyNds6MYPV0Kkzf5oGHTm8VGg.jpg", "popularity": 7.896}, {"adult": false, "backdrop_path": "/nKHwNmUGe002ayPlfwG9CVTIXC2.jpg", "genre_ids": [18, 10749], "id": 10229, "original_language": "en", "original_title": "A Walk to Remember", "overview": "When the popular, restless Landon Carter is forced to participate in the school drama production he falls in love with Jamie Sullivan, the daughter of the town's minister. Jamie has a \"to-do\" list for her life and also a very big secret she must keep from Landon.", "poster_path": "/kso0otMalKy9qSEdrzYP7Bc3Rjg.jpg", "release_date": "2002-01-25", "title": "A Walk to Remember", "video": false, "vote_average": 7.6, "vote_count": 2402, "popularity": 18.873}, {"adult": false, "backdrop_path": "/8cVSUI36ORfCJ6d4TP71wIrdD7h.jpg", "genre_ids": [18, 27], "id": 133805, "original_language": "en", "original_title": "Carrie", "overview": "A reimagining of the classic horror tale about Carrie White, a shy girl outcast by her peers and sheltered by her deeply religious mother, who unleashes telekinetic terror on her small town after being pushed too far at her senior prom.", "poster_path": "/j0999NYddCGcishJlxluDRQIn6k.jpg", "release_date": "2013-10-16", "title": "Carrie", "video": false, "vote_average": 5.9, "vote_count": 2914, "popularity": 15.756}, {"adult": false, "backdrop_path": "/xxm6PQRbfcSFO4mds8una1bkYPh.jpg", "genre_ids": [35], "id": 8363, "original_language": "en", "original_title": "Superbad", "overview": "Two co-dependent high school seniors are forced to deal with separation anxiety after their plan to stage a booze-soaked party goes awry.", "poster_path": "/7RZWtDkf0mgrxvJNFj43YW2Ugi8.jpg", "release_date": "2007-08-17", "title": "Superbad", "video": false, "vote_average": 7.1, "vote_count": 3968, "popularity": 19.274}, {"adult": false, "backdrop_path": "/cN7dCe6ig4ZVbBbGqO5m4oZvink.jpg", "genre_ids": [35, 18], "id": 156700, "original_language": "en", "original_title": "The Kings of Summer", "overview": "Joe Toy, on the verge of adolescence, finds himself increasingly frustrated by his single father, Frank's attempts to manage his life. Declaring his freedom once and for all, he escapes to a clearing in the woods with his best friend, Patrick, and a strange kid named Biaggio. He announces that they are going to build a house there, free from responsibility and parents. Once their makeshift abode is finished, the three young men find themselves masters of their own destiny, alone in the woods.", "poster_path": "/4HGYmH5mYcBBTIMHhbOBdT1Antl.jpg", "release_date": "2013-01-19", "title": "The Kings of Summer", "video": false, "vote_average": 7.0, "vote_count": 727, "popularity": 13.252}], "total_pages": 183, "total_results": 3658}, "recommendations": {"page": 1, "results": [{"adult": false, "backdrop_path": "/hekPz4dppwcNItrEf2QXocFwnge.jpg", "genre_ids": [35, 36], "id": 70090, "original_language": "fr", "original_title": "Les perles de la couronne", "overview": "The story of the seven pearls of the English Crown, from Henry VIII to 1937; three of them missing.", "poster_path": "/gNVbuQcFHX1Kf77fVwiYsQ6phap.jpg", "release_date": "1937-05-12", "title": "The Pearls of the Crown", "video": false, "vote_average": 6.3, "vote_count": 7, "popularity": 2.424}, {"adult": false, "backdrop_path": "/l3Os2jWEx6O9FlgNbaA1SDpVM1f.jpg", "genre_ids": [18], "id": 33001, "original_language": "en", "original_title": "Other Men's Women", "overview": "Railroad fireman Bill White is a carefree ladies' man with an irresponsible streak. His buddy Jack Kulper, an engineer, is more solid and reliable. Bill comes to stay a while with Jack and his wife Lily. Bill and Lily fall in love, but not wishing to hurt Jack, Bill leaves without explanation. When Jack confronts Bill about his suspicions, the two fight and Jack is seriously injured. Bill is consumed with guilt and tries to make good, but Jack has his own ideas about that.", "poster_path": "/eGyS7rWX7QNzWaS2PN4ro9m5lLC.jpg", "release_date": "1931-01-17", "title": "Other Men's Women", "video": false, "vote_average": 6.3, "vote_count": 6, "popularity": 3.659}, {"adult": false, "backdrop_path": null, "genre_ids": [99], "id": 258130, "original_language": "pt", "original_title": "O Mestre de Apipucos", "overview": "Documentary about influential Brazilian sociologist Gilberto Freyre, made in his country house in Apipucos, Pernambuco (Northeast Brazil).", "poster_path": "/gEWin63pwWOyOgznakO1j2QVdK1.jpg", "release_date": "1959-01-01", "title": "The Master of Apipucos", "video": false, "vote_average": 6.7, "vote_count": 3, "popularity": 1.201}, {"adult": false, "backdrop_path": "/nntxHWQYDzydZS6IeqNDnS9znGq.jpg", "genre_ids": [35], "id": 178380, "original_language": "en", "original_title": "Strikes and Spares", "overview": "This short features professional bowler Andy Varipapa. He first shows the correct way to grip a bowling ball and the proper form for delivering the ball down the alley. He then performs several trick shots.", "poster_path": "/hXyx3FyaiEAQxgO4XaB8Bx4faAd.jpg", "release_date": "1934-10-20", "title": "Strikes and Spares", "video": false, "vote_average": 5.7, "vote_count": 6, "popularity": 2.042}, {"adult": false, "backdrop_path": "/cNDzFcjWwPuACp4YmOWDQUWomJ4.jpg", "genre_ids": [10749, 18, 35], "id": 37079, "original_language": "en", "original_title": "God's Little Acre", "overview": "In the 1950s, a poor Georgia cotton farmer and his sons search for the gold presumably buried on the farm by their grandfather but problems related to poverty, marital infidelity, unemployment and booze threaten to destroy their family.", "poster_path": "/3X0IKivOxtWFfwFKmp3SS5MAVzo.jpg", "release_date": "1958-09-23", "title": "God's Little Acre", "video": false, "vote_average": 6.2, "vote_count": 10, "popularity": 3.182}, {"id": 31868, "video": false, "vote_count": 14, "vote_average": 7.2, "title": "Intermezzo: A Love Story", "release_date": "1939-10-06", "original_language": "en", "original_title": "Intermezzo: A Love Story", "genre_ids": [18, 10749], "backdrop_path": "/mRF2iaY5nAvFKJOH14M1kmMH6Ii.jpg", "adult": false, "overview": "A concert violinist becomes charmed with his daughter's talented piano teacher. When he invites her to go on tour with him, they make beautiful music away from the concert hall as well. He soon leaves his wife so the two can go off together.", "poster_path": "/zROfCgIvpH3XOSU8dfc9CGlOXuk.jpg", "popularity": 6.156}, {"adult": false, "backdrop_path": "/2fZAt0IPK0RCUWrXYasT2w8IEq2.jpg", "genre_ids": [10749, 18], "id": 42096, "original_language": "pl", "original_title": "Rok spokojnego slonca", "overview": "Shortly after World War II an American soldier (Norman) and a Polish refugee (Emilia) fall in love. Eventually he will return to the U.S. and both expect that she will soon follow him with her mother. Emilia's mother is sick, but will recover with the right medicine. But the mother, and not Emilia, knows that there will only be one ticket...", "poster_path": "/cGuxfD9CEBGZbADkBEPLDdmjzp2.jpg", "release_date": "1984-09-09", "title": "A Year of the Quiet Sun", "video": false, "vote_average": 7.3, "vote_count": 11, "popularity": 2.621}, {"adult": false, "backdrop_path": "/S1woYJv1UZewcQYhn5wXV5fU98.jpg", "genre_ids": [35, 10751, 18], "id": 158800, "original_language": "en", "original_title": "A Majority of One", "overview": "A gentle love story about a Japanese businessman and widower, and a Brooklyn widow. But before a happy ending can ensue, they must learn again the lessons of tolerance, kindness and forgiveness.", "poster_path": "/6wXtf2UH3mqQCwviTkJ3p6QzqnH.jpg", "release_date": "1961-12-27", "title": "A Majority of One", "video": false, "vote_average": 5.9, "vote_count": 8, "popularity": 2.675}, {"adult": false, "backdrop_path": "/fGioD1AHRfknkgjLReBdpYOgCMn.jpg", "genre_ids": [18], "id": 87894, "original_language": "en", "original_title": "Mr. Wu", "overview": "A Chinese patriarch goes mad when his daughter falls for an Englishman.", "poster_path": "/nnTrqMKgHtGuCiGbs28Gu9mKL0g.jpg", "release_date": "1927-03-26", "title": "Mr. Wu", "video": false, "vote_average": 6.0, "vote_count": 8, "popularity": 3.636}, {"id": 75804, "video": false, "vote_count": 9, "vote_average": 6.3, "title": "The Toll of the Sea", "release_date": "1922-11-26", "original_language": "en", "original_title": "The Toll of the Sea", "genre_ids": [18, 14, 10751], "backdrop_path": "/bJJQ44KcnemptXXenQoKvelFa9y.jpg", "adult": false, "overview": "An American sailor marries then deserts the Chinese beauty who had saved his life.", "poster_path": "/ikQ7YoQ46AitwDsGTvIzoXaoMUL.jpg", "popularity": 3.003}, {"adult": false, "backdrop_path": null, "genre_ids": [99], "id": 169648, "original_language": "en", "original_title": "Stations of the Elevated", "overview": "Stations of the Elevated exposes viewers to an underground art scene- that is, one found exclusively on the sides of subways and train cars. A moving portrait of late-70's NYC, the film boasts a soundtrack by jazz legends Charles Mingus & Aretha Franklin.", "poster_path": "/2BkiQHUhcgHCvXmL1l9Lrj0T3s1.jpg", "release_date": "1981-10-01", "title": "Stations of the Elevated", "video": false, "vote_average": 8.2, "vote_count": 5, "popularity": 1.164}, {"adult": false, "backdrop_path": "/vqUFZZaOIilL5gBvXY8YL9ES6WT.jpg", "genre_ids": [99, 10752], "id": 87041, "original_language": "en", "original_title": "The Memory of Justice", "overview": "This exceptional, disturbing and thought-provoking documentary compares the atrocities committed by the Nazis as revealed during the Nuremberg trials to those committed by the French in Algeria and those done by the Americans in Vietnam. The four hour epic questions the right of any country to pass self-righteous moral judgements upon the actions of another country.", "poster_path": "/dFlC9K4buNbUJZRkuDipe5NcCBf.jpg", "release_date": "1976-10-04", "title": "The Memory of Justice", "video": false, "vote_average": 8.2, "vote_count": 5, "popularity": 2.187}, {"adult": false, "backdrop_path": "/uOXYSMW4jiQ6AoJQK86OXDphvE.jpg", "genre_ids": [18, 10749], "id": 129553, "original_language": "en", "original_title": "Song Without End", "overview": "The romantic story of Hungarian pianist Franz Liszt (Dirk Bogarde), whose scandalous love affair forced him to abandon his adoring audiences.", "poster_path": "/l84N7gICU6Wg40D05UpbI6OinVp.jpg", "release_date": "1960-08-11", "title": "Song Without End", "video": false, "vote_average": 4.9, "vote_count": 9, "popularity": 4.464}, {"adult": false, "backdrop_path": "/4Mq0qtQvWFsQQe5XRdf7ytezoGu.jpg", "genre_ids": [53], "id": 502800, "original_language": "en", "original_title": "Crisis Hotline", "overview": "A cynical counselor at a crisis hotline finds himself in a life or death situation when a young man calls and threatens to kill three people and then himself.", "poster_path": "/AkyTEsEwe2W8iPfxJD1TcJTHCDx.jpg", "release_date": "2019-06-11", "title": "Crisis Hotline", "video": false, "vote_average": 5.3, "vote_count": 3, "popularity": 4.492}, {"adult": false, "backdrop_path": "/iPRKgNK9Gls5djXpO4e94fQxPmh.jpg", "genre_ids": [], "id": 543889, "original_language": "en", "original_title": "An Audience of Chairs", "overview": "Maura Mackenzie (Carolina Bartczak) believes the world is hers to conquer. With her career as a concert pianist gaining momentum, it seems her beauty and talent will be strong enough to mask the demons that threaten to engulf her. But with an absent husband (Chris Jacot) and two young daughters at home, her precarious sanity begins to unravel until one summer day, burning with manic energy, she makes a terrible mistake \u2014 a mistake that will change her life forever. The consequences for Maura are catastrophic: her ambitious husband runs for his life, taking the children with him, leaving Maura to lapse into a full-scale breakdown. Life as she knew it is now over. With the help of her father, Ian (Peter MacNeill), Maura works to reclaim her life and waits for a miracle to bring her daughters home. But when the fates align, can the past be forgiven?", "poster_path": "/e5MPJTwEPDjdVwifFFO3nKaFVZH.jpg", "release_date": "2018-09-14", "title": "An Audience of Chairs", "video": false, "vote_average": 7.3, "vote_count": 4, "popularity": 3.31}, {"id": 83926, "video": false, "vote_count": 3, "vote_average": 7.0, "title": "Ninety Degrees in the Shade", "release_date": "1965-06-01", "original_language": "en", "original_title": "Ninety Degrees in the Shade", "genre_ids": [80, 18, 53], "backdrop_path": "/Abbs7FQ4oBe5rTmo496j5enG92B.jpg", "adult": false, "overview": "A woman attempts to cover up the thefts committed by the manager at the shop she works at.", "poster_path": "/GsW0wqXs40fgZV8MrGItKeRgWu.jpg", "popularity": 2.501}, {"adult": false, "backdrop_path": "/bUwwofZUjJ50WFYo2CisXgUadUt.jpg", "genre_ids": [35], "id": 537734, "original_language": "en", "original_title": "The Weekend", "overview": "An acerbic comedian becomes romantically entangled with her ex, his new girlfriend, and another guest during a weekend getaway.", "poster_path": "/6IJ9UcJjUjMW6UOvQ99MllDZhoN.jpg", "release_date": "2019-09-13", "title": "The Weekend", "video": false, "vote_average": 7.0, "vote_count": 4, "popularity": 4.251}, {"adult": false, "backdrop_path": "/vNeCUQ2q64essNMKu1Ob26B0M1S.jpg", "genre_ids": [], "id": 46148, "original_language": "en", "original_title": "The Red Menace", "overview": "A couple try to leave the Communist party after a murder by the group they were once loyal to.", "poster_path": "/a7mPps5f7VfVqyeeJ3W6CGyrkJq.jpg", "release_date": "1949-08-01", "title": "The Red Menace", "video": false, "vote_average": 4.1, "vote_count": 7, "popularity": 2.925}], "total_pages": 1, "total_results": 18}, "credits": {"cast": [{"cast_id": 1, "character": "Leroy \"Preach\" Jackson", "credit_id": "52fe45b19251416c9103b30d", "gender": 2, "id": 114674, "name": "Glynn Turman", "order": 0, "profile_path": "/yEW4JrFPyTTsoSeDQYwHxBihMuM.jpg"}, {"cast_id": 2, "character": "Richard \"Cochise\" Morris", "credit_id": "52fe45b19251416c9103b311", "gender": 2, "id": 36152, "name": "Lawrence Hilton-Jacobs", "order": 1, "profile_path": "/5D7ENOmLm4CVm0jeR0xAuURU37Y.jpg"}, {"cast_id": 3, "character": "Mr. Mason", "credit_id": "52fe45b19251416c9103b315", "gender": 2, "id": 83187, "name": "Garrett Morris", "order": 2, "profile_path": "/2Sd1njRdKzWEHNY2AqFZGTv1xtT.jpg"}, {"cast_id": 4, "character": "Brenda", "credit_id": "52fe45b19251416c9103b319", "gender": 1, "id": 114675, "name": "Cynthia Davis", "order": 3, "profile_path": null}, {"cast_id": 7, "character": "Pooter", "credit_id": "56a6861c92514129f5000551", "gender": 0, "id": 1568346, "name": "Corin Rogers", "order": 4, "profile_path": null}, {"cast_id": 8, "character": "Willie", "credit_id": "56a686289251412a0400055f", "gender": 0, "id": 1568347, "name": "Maurice Leon Havis", "order": 5, "profile_path": null}, {"cast_id": 9, "character": "Tyrone", "credit_id": "56a6863cc3a36819d500058b", "gender": 0, "id": 1568348, "name": "Joseph Carter Wilson", "order": 6, "profile_path": null}, {"cast_id": 10, "character": "Stone", "credit_id": "56a68649c3a36819d00005e9", "gender": 0, "id": 1568349, "name": "Sherman Smith", "order": 7, "profile_path": null}, {"cast_id": 11, "character": "Robert", "credit_id": "56a6867cc3a36819d5000599", "gender": 0, "id": 1568350, "name": "Norman Gibson", "order": 8, "profile_path": null}, {"cast_id": 12, "character": "Damon", "credit_id": "56a6869992514129fb000547", "gender": 0, "id": 1536828, "name": "Maurice Marshall", "order": 9, "profile_path": null}, {"cast_id": 13, "character": "Jimmy Lee", "credit_id": "56a686aa92514129fe000591", "gender": 2, "id": 51579, "name": "Steven Williams", "order": 10, "profile_path": "/okrQsLdE6hCGJ1M4p5nXPC3mJTW.jpg"}, {"cast_id": 14, "character": "Basketball Player in Gym Class", "credit_id": "56a686c592514129f10005e6", "gender": 2, "id": 68750, "name": "Robert Townsend", "order": 11, "profile_path": "/a1RUpqPQAKd2AkOGuMtw0KpyT4c.jpg"}], "crew": [{"credit_id": "52fe45b29251416c9103b31f", "department": "Directing", "gender": 2, "id": 77300, "job": "Director", "name": "Michael Schultz", "profile_path": "/ubDK1oZPTG1ygGldz3Lp5AMLHAE.jpg"}, {"credit_id": "52fe45b29251416c9103b325", "department": "Writing", "gender": 2, "id": 114676, "job": "Writer", "name": "Eric Monte", "profile_path": null}]}}