{"adult": false, "backdrop_path": null, "belongs_to_collection": null, "budget": 45, "genres": [{"id": 27, "name": "Horror"}, {"id": 80, "name": "Crime"}], "homepage": null, "id": 35733, "imdb_id": "tt0772152", "original_language": "en", "original_title": "Amateur Porn Star Killer", "overview": "The unofficial story of a killer who kidnaps and kills three girls is told through the tale of his last victim, 'Amateur Porn Star Killer' is about a girl he picks up on the street and convinces to go back to his hotel room. The girl is shy, unnerved, and yet unable to take herself out of a bad situation. The killer is a guy who seems at first nothing more than your standard, 18 year old pervert with a penchant for filming his sexual escapades. An unsettling darkness descends.", "popularity": 2.101, "poster_path": "/aIFYzrJs8y4Hw2UmZ2Iq0JQ7njr.jpg", "production_companies": [{"id": 5639, "logo_path": null, "name": "Alter Ego Cinema", "origin_country": ""}], "production_countries": [{"iso_3166_1": "US", "name": "United States of America"}], "release_date": "2006-06-30", "revenue": 0, "runtime": 71, "spoken_languages": [{"iso_639_1": "en", "name": "English"}], "status": "Released", "tagline": "But he looked like a really nice guy.", "title": "Amateur Porn Star Killer", "video": false, "vote_average": 4.1, "vote_count": 21, "keywords": {"keywords": [{"id": 190370, "name": "erotic movie"}]}, "similar": {"page": 1, "results": [{"adult": false, "backdrop_path": "/tk6QB32plylH41eo2Pbv4sIVljO.jpg", "genre_ids": [18], "id": 50270, "original_language": "it", "original_title": "Paprika", "overview": "A young country girl comes to town and works in a brothel in order to help her fiance get the money to start his own business. \"Paprika\" is the name given to her by the madam.", "poster_path": "/6QthFTJvUheocw3fcKklnsMcGib.jpg", "release_date": "1991-02-13", "title": "Paprika", "video": false, "vote_average": 5.9, "vote_count": 81, "popularity": 19.933}, {"adult": false, "backdrop_path": "/bYbnlh6VXFRtcSX82UMDsBDLB5j.jpg", "genre_ids": [18, 10749], "id": 28468, "original_language": "it", "original_title": "La chiave", "overview": "After twenty years of marriage, art professor Nino Rolfe attempts to break down his wife Teresa's conventional modesty. Noticing her affection for their daughter's fianc\u00e9, Nino instigates her sexual interest in him as well. This sets off a chain of unexpected events and emotional complications, as Nino and his unpredictable fascist daughter find that they both enjoy being jealous.", "poster_path": "/e6g2geNLgFzMbriH6EvSJZD78nx.jpg", "release_date": "1983-10-18", "title": "The Key", "video": false, "vote_average": 5.0, "vote_count": 128, "popularity": 15.363}, {"adult": false, "backdrop_path": "/xC9cG6Wy6QbH2hoAx11xPPD995R.jpg", "genre_ids": [18, 10749], "id": 86331, "original_language": "fr", "original_title": "Q", "overview": "In a social context deteriorated by a countrywide economic crisis, the life of several people will be turned upside down after they meet Cecile, a character who symbolizes desire.", "poster_path": "/9Jg9s4yTEndNmy1SSXRF9jdxY9D.jpg", "release_date": "2011-09-14", "title": "Desire", "video": false, "vote_average": 4.6, "vote_count": 204, "popularity": 25.756}, {"adult": false, "backdrop_path": "/98ahnrena4PwLth7HFYGLf9yssH.jpg", "genre_ids": [35, 18, 10749], "id": 22705, "original_language": "it", "original_title": "Tra(sgre)dire", "overview": "While scouting out apartments in London for her Venetian boyfriend, Carla rents an apartment that overlooks the Thames. There she meet the lesbian hyper-horny real estate agent Moira.", "poster_path": "/kZITrLEiTfzzJhtwtXhQUl3ImCQ.jpg", "release_date": "2000-01-28", "title": "Cheeky", "video": false, "vote_average": 5.7, "vote_count": 92, "popularity": 30.42}, {"id": 88, "video": false, "vote_count": 3464, "vote_average": 7.3, "title": "Dirty Dancing", "release_date": "1987-08-21", "original_language": "en", "original_title": "Dirty Dancing", "genre_ids": [18, 10402, 10749], "backdrop_path": "/ngDmpFRzNGr9XMtKchhBZjt4DLH.jpg", "adult": false, "overview": "Expecting the usual tedium that accompanies a summer in the Catskills with her family, 17-year-old Frances 'Baby' Houseman is surprised to find herself stepping into the shoes of a professional hoofer\u2014and unexpectedly falling in love.", "poster_path": "/jFoktPxTtabZfh9JeDy3F78g9w7.jpg", "popularity": 23.93}, {"adult": false, "backdrop_path": "/hm4vpIhBW75bTIDTurq2d4rLZy1.jpg", "genre_ids": [53, 18, 27], "id": 3511, "original_language": "en", "original_title": "The Broken", "overview": "The life of a successful radiologist spirals out of control when she sees the spitting image of herself driving down a London street. While attempting to uncover who the imposter could be, she stumbles into a terrifying mystery that her family and closest friends are somehow involved in, leaving her with no one to trust.", "poster_path": "/nGTUsccLUZhF9Bb5fjvL7KrogvC.jpg", "release_date": "2008-01-18", "title": "The Broken", "video": false, "vote_average": 5.5, "vote_count": 113, "popularity": 10.122}, {"id": 6217, "video": false, "vote_count": 204, "vote_average": 5.9, "title": "Cat People", "release_date": "1982-04-02", "original_language": "en", "original_title": "Cat People", "genre_ids": [14, 27, 53], "backdrop_path": "/zW8L1kjOVGYFjv05zZ9fKl001Uf.jpg", "adult": false, "overview": "After years of separation, Irina and her minister brother, Paul, reunite in New Orleans in this erotic tale of the supernatural. When zoologists capture a wild panther, Irina is drawn to the cat -- and the zoo curator is drawn to her. Soon, Irina's brother will have to reveal the family secret: that when sexually aroused, they turn into predatory jungle cats.", "poster_path": "/dievCAlW1E3DgkYhgQ6Xcvr0ltf.jpg", "popularity": 11.673}, {"id": 44214, "video": false, "vote_count": 9192, "vote_average": 7.6, "title": "Black Swan", "release_date": "2010-12-03", "original_language": "en", "original_title": "Black Swan", "genre_ids": [18, 27, 53], "backdrop_path": "/t8jFs6cOl1YVSfXXZivWtEb14tF.jpg", "adult": false, "overview": "A journey through the psyche of a young ballerina whose starring role as the duplicitous swan queen turns out to be a part for which she becomes frighteningly perfect.", "poster_path": "/dQ7uxvsVTspVIsqjfgQj8usJpwX.jpg", "popularity": 24.558}, {"id": 106646, "video": false, "vote_count": 13908, "vote_average": 8.0, "title": "The Wolf of Wall Street", "release_date": "2013-12-25", "original_language": "en", "original_title": "The Wolf of Wall Street", "genre_ids": [35, 80, 18], "backdrop_path": "/rP36Rx5RQh0rmH2ynEIaG8DxbV2.jpg", "adult": false, "overview": "A New York stockbroker refuses to cooperate in a large securities fraud case involving corruption on Wall Street, corporate banking world and mob infiltration. Based on Jordan Belfort's autobiography.", "poster_path": "/vK1o5rZGqxyovfIhZyMELhk03wO.jpg", "popularity": 35.327}, {"adult": false, "backdrop_path": "/3mEfawlJnuu4OmUlAOesrAMsWv6.jpg", "genre_ids": [53, 27], "id": 9540, "original_language": "en", "original_title": "Dead Ringers", "overview": "Elliot, a successful gynecologist, works at the same practice as his identical twin, Beverly. Elliot is attracted to many of his patients and has affairs with them. When he inevitably loses interest, he will give the woman over to Beverly, the meeker of the two, without the woman knowing the difference. Beverly falls hard for one of the patients, Claire, but when she inadvertently deceives him, he slips into a state of madness.", "poster_path": "/9ZGBwiWIvN9KmHaLeSS5it44G21.jpg", "release_date": "1988-09-23", "title": "Dead Ringers", "video": false, "vote_average": 7.2, "vote_count": 388, "popularity": 10.111}, {"adult": false, "backdrop_path": "/gPiurUCO9Aq5BoftzRjNlvbBrPg.jpg", "genre_ids": [18, 10749], "id": 24402, "original_language": "fr", "original_title": "Emmanuelle", "overview": "Emmanuelle, a svelte, naive young woman, is en route to Bangkok where she'll join her new husband. He works for the French Embassy and has a lovely home, several dedicated servants, and an expensive car at his disposal. Once Emmanuelle arrives, her husband and a few friends introduce her to a realm of sexual ecstasy she'd never imagined.", "poster_path": "/cSZ8MQIoec4w0liHP4x8FJH5BJK.jpg", "release_date": "1974-06-25", "title": "Emmanuelle", "video": false, "vote_average": 5.1, "vote_count": 135, "popularity": 24.885}, {"adult": false, "backdrop_path": "/qPCI9SZmHXmeG6OK367r9GvkuGl.jpg", "genre_ids": [35, 10749], "id": 41280, "original_language": "en", "original_title": "Private Lessons", "overview": "Phillip Filmore is a naive, 15-year-old, preoccupied with sex, who develops a crush on Nicole Mallow, the new 30-something, French housekeeper and sitter to look after him when Phillip's father is out of town for the summer on a \"business\" trip. But Mr. Filmore's unscrupulous chauffeur, Lester Lewis, takes advantage of Phillip's crush on Nicole to hire her to seduce the youth, then draws her into a plot to fake her own death in a blackmail scheme aimed to drain Phillip's trust fund.", "poster_path": "/azdrerXeyr2Aofr7p9osEWnz05g.jpg", "release_date": "1981-08-21", "title": "Private Lessons", "video": false, "vote_average": 5.8, "vote_count": 37, "popularity": 24.872}, {"adult": false, "backdrop_path": "/tvTyRu9eKfymkje8d9VoWJEoyUv.jpg", "genre_ids": [18], "id": 53932, "original_language": "es", "original_title": "Las edades de Lul\u00fa", "overview": "Fifteen-year-old Lulu has never known any affection from her family. But when she goes to a rock concert with Pablo, a friend of the family, he introduces Lulu to her first sexual experience. Years later, Pablo and Lulu have married; Pablo has created a sheltered, private world for Lulu, into which nothing intrudes. However, Lulu tires of her cloistered existence, and begins hanging out in shady bars, looking for vicarious thrills and danger.", "poster_path": "/5PK5MAN84o0ESgzeW9euozOLIEe.jpg", "release_date": "1990-12-13", "title": "The Ages of Lulu", "video": false, "vote_average": 5.7, "vote_count": 64, "popularity": 24.141}, {"id": 12531, "video": false, "vote_count": 91, "vote_average": 6.9, "title": "The Apartment", "release_date": "1996-07-27", "original_language": "fr", "original_title": "L'Appartement", "genre_ids": [18, 9648, 10749], "backdrop_path": "/64qyT8m4JQ6YODvXxtbHgKmXBX7.jpg", "adult": false, "overview": "A stylish suspense thriller that confounds the audience while presenting them with an extraordinary and elusive mystery. Max is a former playboy who has decided to settle down by marrying his current love, Muriel. However, during a business trip, Max catches a glimpse of the great lost love of his life, reviving his wanderlust and sending him off on a chase of the elusive Lisa, whom he had overheard suggesting to a friend that her lover, Daniel, had killed someone for her. Soon, Max is trying to unravel the mystery behind the suspicious death of Daniel's wife, which he hopes will lead him closer to Lisa.", "poster_path": "/1sqrQdQTn8jKLhUcPKfRVj639zA.jpg", "popularity": 19.17}, {"adult": false, "backdrop_path": "/a8xpxCnvqKyshdrDNFGs6oy4r8N.jpg", "genre_ids": [18, 10749], "id": 1278, "original_language": "en", "original_title": "The Dreamers", "overview": "A young American studying in Paris in 1968 strikes up a friendship with a French brother and sister. Set against the background of the '68 Paris student riots.", "poster_path": "/7ABcfmXQZeCXl5sNrDuLS1URMPN.jpg", "release_date": "2003-09-01", "title": "The Dreamers", "video": false, "vote_average": 7.2, "vote_count": 1671, "popularity": 15.849}, {"id": 2057, "video": false, "vote_count": 429, "vote_average": 5.9, "title": "Original Sin", "release_date": "2001-05-08", "original_language": "en", "original_title": "Original Sin", "genre_ids": [53], "backdrop_path": "/is3I5v8FwLiEWxaksfN8D4MLNGH.jpg", "adult": false, "overview": "A young man is plunged into a life of subterfuge, deceit and mistaken identity in pursuit of a femme fatale whose heart is never quite within his grasp", "poster_path": "/yGis1Mai4ivspEXdWtXLg0bZPkX.jpg", "popularity": 18.232}, {"adult": false, "backdrop_path": "/8FfD5WXHrJLx0r4expl9IIBMsOW.jpg", "genre_ids": [18, 9648], "id": 280960, "original_language": "pt", "original_title": "Catarina e os Outros", "overview": "Outside, the first sun rays break the dawn.  Sixteen years old Catarina can't fall asleep.  Inconsequently, in the big city adults are moved by desire...  Catarina found she is HIV positive. She wants to drag everyone else along.", "poster_path": "/swSEhrje6NDIqtxAqjBziCkXWU8.jpg", "release_date": "2011-03-01", "title": "Catarina and the others", "video": false, "vote_average": 4.5, "vote_count": 70, "popularity": 11.145}, {"id": 263472, "video": false, "vote_count": 1669, "vote_average": 5.0, "title": "Knock Knock", "release_date": "2015-06-26", "original_language": "en", "original_title": "Knock Knock", "genre_ids": [18, 53], "backdrop_path": "/gJduaRau3X2oE3xkmjs1FufT2GE.jpg", "adult": false, "overview": "When a devoted husband and father is left home alone for the weekend, two stranded young women unexpectedly knock on his door for help. What starts out as a kind gesture results in a dangerous seduction and a deadly game of cat and mouse.", "poster_path": "/eynMtjBB1fXsB5vsQylVmsDLmvw.jpg", "popularity": 19.205}, {"id": 2770, "video": false, "vote_count": 2941, "vote_average": 6.1, "title": "American Pie 2", "release_date": "2001-08-10", "original_language": "en", "original_title": "American Pie 2", "genre_ids": [35, 10749], "backdrop_path": "/1C1d3Tpesm8Vn3BRqsQZt0LfZcG.jpg", "adult": false, "overview": "The whole gang are back and as close as ever. They decide to get even closer by spending the summer together at a beach house. They decide to hold the biggest party ever to be seen, even if the preparation doesn't always go to plan. Especially when Stifler, Finch and Jim become more close to each other than they ever want to be and when Jim mistakes super glue for lubricant...", "poster_path": "/q4LNgUnRfltxzp3gf1MAGiK5LhV.jpg", "popularity": 20.359}, {"adult": false, "backdrop_path": "/gZeJziVigmRqbkEZwKAtSqlLQ6s.jpg", "genre_ids": [18, 10749], "id": 370663, "original_language": "en", "original_title": "Below Her Mouth", "overview": "An unexpected affair quickly escalates into a heart-stopping reality for two women whose passionate connection changes their lives forever.", "poster_path": "/nTGbq37hYLuNy7YgMg0gVLma0NS.jpg", "release_date": "2016-09-10", "title": "Below Her Mouth", "video": false, "vote_average": 6.2, "vote_count": 456, "popularity": 18.664}], "total_pages": 151, "total_results": 3013}, "recommendations": {"page": 1, "results": [{"adult": false, "backdrop_path": null, "genre_ids": [10770, 878], "id": 89858, "original_language": "en", "original_title": "The Lucifer Complex", "overview": "An intelligence agent discovers a Nazi plot to revive the Third Reich by using clones.", "poster_path": "/to7ITNU335NDwwLgPladGXMFP7u.jpg", "release_date": "1978-01-01", "title": "The Lucifer Complex", "video": false, "vote_average": 1.2, "vote_count": 5, "popularity": 2.657}, {"id": 38610, "video": false, "vote_count": 11, "vote_average": 5.1, "title": "Automatic", "release_date": "1995-04-08", "original_language": "en", "original_title": "Automatic", "genre_ids": [28, 27, 878, 53], "backdrop_path": "/iqOolh4tDioyCoH4CgKgMN1d3cR.jpg", "adult": false, "overview": "Robgen industries newest security system is \"The J Series Automatic\", an android model designed and programmed to protect humans from violent attacks. But one night, an Automatic named J269 discovers a Robgen executive trying to rape a female employee named Nora Rochester. While trying to stop the crime, he inadvertently kills the executive. At this point, J269 then calls Goddard Marx (his creator and a Robgen chairman) to inform him of the incident. Marx tells the android to stay there with Rochester until help arrives, but Marx is intent on sweeping the fiasco under the rug by sending mercenaries to eliminate both J269 and Rochester. Now the two are fugitives on the run from a para-military hit squad.", "poster_path": "/xZWETLWVQ4b9Xu2EruLxyBzXyoO.jpg", "popularity": 4.126}, {"adult": false, "backdrop_path": "/lnth0BxTRjfDxnzQWeedHvAzSbG.jpg", "genre_ids": [878, 27, 53], "id": 29799, "original_language": "fr", "original_title": "Project Shadowchaser III", "overview": "It has been 25 years since the ore spaceship Siberia was last heard from. Unfortunately, it is now on a collision course with the communications station Comstat 5 which is orbiting Mars. After one successful maneuver to avoid the Siberia, it rams Comstat 5 and the crew soon finds that the Siberia crew is dead and the reason that it has been missing for 25 years. But that reason is trying to destroy them all as it destroyed the Siberia crew.", "poster_path": "/c6Bx62x2jhNfsu1lcKMc5ysg48j.jpg", "release_date": "1995-01-01", "title": "Project Shadowchaser III", "video": false, "vote_average": 4.1, "vote_count": 6, "popularity": 2.133}, {"id": 58798, "video": false, "vote_count": 11, "vote_average": 4.0, "title": "Chiller", "release_date": "1985-05-22", "original_language": "en", "original_title": "Chiller", "genre_ids": [27, 878, 53, 10770], "backdrop_path": "/3RAdT9coh0qEGtYCcXW3iszTFGD.jpg", "adult": false, "overview": "A man who has been dead and cryogenically preserved for ten years is miraculously revived, but with chillingly unexpected results.", "poster_path": "/riffRwH4Z6xfyLZXZUzSud2f3DM.jpg", "popularity": 3.892}, {"adult": false, "backdrop_path": "/agHh8f8dClvfD4k9ovVbDboQyLv.jpg", "genre_ids": [878, 53], "id": 53060, "original_language": "en", "original_title": "Humanoids from the Deep", "overview": "In this remake to the original 1980 ecological horror movie, a secret government experiment turns nightmarish when genetically altered fish, bred as amphibious weapons, escape. Scientists believe them dead after a biohazardous chemical spill. Far from it, the creatures thrive as bloodthirtsy killers, threatening to annihilate a small coastal town by slaughtering the men and abducting the women for mating! Government scientists attempt to keep the creatures' origin a secret while trying to destroy them.", "poster_path": "/tcoR68lAJvWaVK2Ok1SI3cdzAsS.jpg", "release_date": "1996-09-14", "title": "Humanoids from the Deep", "video": false, "vote_average": 3.7, "vote_count": 9, "popularity": 4.843}, {"adult": false, "backdrop_path": "/3VdK0sP85TT2xi9Rog3nKBnjRdP.jpg", "genre_ids": [878], "id": 36258, "original_language": "fr", "original_title": "Project Shadowchaser IV", "overview": "After two archaeologists discover an ancient alien artifact in Africa, they must run for their lives from both the unstoppable guardian and protector that awakens as a result, and their greedy, madman employer, both of whom want the artifact.", "poster_path": "/gyAdToPfs1nE1lg7wGO7OWRIQE8.jpg", "release_date": "1996-01-01", "title": "Project Shadowchaser IV", "video": false, "vote_average": 3.3, "vote_count": 4, "popularity": 3.314}, {"adult": false, "backdrop_path": null, "genre_ids": [18, 27], "id": 28958, "original_language": "en", "original_title": "Head Case", "overview": "A pseudo-documentary edited from the home movies of serial killers Wayne &amp; Andrea Montgomery, presenting a look into their quiet, suburban lives...as well as the graphic &amp; disturbing details of their horrific crimes.", "poster_path": "/kroOFQNiZL1GPlvnUmmxBOnr6oL.jpg", "release_date": "2007-09-08", "title": "Head Case", "video": false, "vote_average": 3.9, "vote_count": 7, "popularity": 2.735}, {"adult": false, "backdrop_path": "/bLjJwNVJWThidMCLVoDTf2hrJlO.jpg", "genre_ids": [27, 35, 878], "id": 101054, "original_language": "en", "original_title": "Eat and Run", "overview": "A humanoid alien lands on earth, and soon discovers he likes to eat Italian. Italian people, that is. Incompetent detective McSorely is the only one with a clue about what's going on, and even his grasp of the situation isn't too firm. The rest of the police force thinks he's crazy, while the alien continues sampling the Italian cuisine of New York City.", "poster_path": "/7TISovbPDCB4N59Kfe14KMtdxJ3.jpg", "release_date": "1987-02-20", "title": "Eat and Run", "video": false, "vote_average": 5.7, "vote_count": 6, "popularity": 1.146}, {"adult": false, "backdrop_path": null, "genre_ids": [27], "id": 88065, "original_language": "en", "original_title": "The Werewolf of Washington", "overview": "After being unknowingly inflicted with the bite of a werewolf while on a visit to Europe, White House press secretary Jack Whittier (Dean Stockwell) begins to turn into a deadly beast by night, terrorizing Washington D.C. and presenting a very deadly threat to the President.", "poster_path": "/bjThIpSPjg99N58GQBpLkKdFEbE.jpg", "release_date": "1973-10-01", "title": "The Werewolf of Washington", "video": false, "vote_average": 3.0, "vote_count": 8, "popularity": 1.742}, {"id": 35731, "video": false, "vote_count": 10, "vote_average": 5.6, "title": "Amateur Porn Star Killer 2", "release_date": "2008-05-13", "original_language": "en", "original_title": "Amateur Porn Star Killer 2", "genre_ids": [80, 27], "backdrop_path": null, "adult": false, "overview": "Shane Ryan's sequel to the disturbing Amateur Porn Star Killer is a brutal calling card to all those who were enraged by its predecessor (and there were many). Ryan is a force to be reckoned with, and he's not letting up any time soon. The victim here isn't a young girl. This one doesn't just go quietly, either. She fights back. She knows she's in trouble, but she mistakenly thinks she can get away. In other movies, she would escape and somber music would play as the credits creep up the screen. The audience would leave the theatre satisfied that the bad guy got what he deserved. They would go home feeling safe. Ryan doesn't let anyone have such notions. He shows things as they really are. This is what a killer would film. This is how it would look, and if you didn't know any better, you'd swear it was real. (And you still can't be totally sure it's not.)", "poster_path": "/zpycBSiBFp5Uib6gWJpgEvfOgdn.jpg", "popularity": 0.743}, {"id": 35730, "video": false, "vote_count": 8, "vote_average": 5.3, "title": "Amateur Porn Star Killer 3: The Final Chapter", "release_date": "2009-01-13", "original_language": "en", "original_title": "Amateur Porn Star Killer 3: The Final Chapter", "genre_ids": [80, 27, 53], "backdrop_path": null, "adult": false, "overview": "An up-and-coming actress (Regan Reece) is picked up off the streets by a young serial killer, and a night that appears to begin with a good Samaritan's act quickly turns into a game of cat-and-mouse in a field.", "poster_path": "/41doiTgPLVeG1vOpIYxwiEr4JBI.jpg", "popularity": 1.54}, {"adult": false, "backdrop_path": null, "genre_ids": [27], "id": 129074, "original_language": "de", "original_title": "36 pasos", "overview": "", "poster_path": "/weLSasgit0xl0eUFSmlqPqrERaT.jpg", "release_date": "2006-10-21", "title": "36 Steps", "video": false, "vote_average": 5.5, "vote_count": 6, "popularity": 1.892}, {"adult": false, "backdrop_path": null, "genre_ids": [27], "id": 212494, "original_language": "en", "original_title": "Don't Go to the Reunion", "overview": "Scott Rantzen (Brady Simenson) is a horror movie loving misfit who is teased by the popular students in school. When a date with the very popular and very beautiful Erica Carpenter (Stephanie Leigh Rose) backfires, he feels as though his life is ruined. Ten years later, the gang reunite for their class reunion. Little do they know that someone is waiting for them and ready to see that they pay for what they did. Is Scott back for revenge and will the old gang survive to tell the tale? It'll be more gore for Class of 04.", "poster_path": "/dxav0XXgNUAPtLlT5E5YwerqdGk.jpg", "release_date": "2013-10-05", "title": "Don't Go to the Reunion", "video": false, "vote_average": 4.6, "vote_count": 8, "popularity": 1.391}, {"adult": false, "backdrop_path": null, "genre_ids": [27, 878, 53], "id": 204611, "original_language": "en", "original_title": "U.F.O. Abduction", "overview": "On a typical fall evening in 1983, a young man was videotaping his niece's 5th birthday party. As the night's strange occurrences took place, he kept his video camera running, recording the entire event.", "poster_path": "/67PsLwiDS2K9y1pCCti7e1XZkOR.jpg", "release_date": "1989-01-01", "title": "U.F.O. Abduction", "video": false, "vote_average": 5.7, "vote_count": 11, "popularity": 3.736}, {"id": 64252, "video": false, "vote_count": 15, "vote_average": 5.3, "title": "Fruits of Passion", "release_date": "1981-06-03", "original_language": "en", "original_title": "Les fruits de la passion", "genre_ids": [18], "backdrop_path": "/7BNwrj9L7zdM3CK0TGmTZbLSxn2.jpg", "adult": false, "overview": "A girl loves a rich and much older man and is willing to do everything he wants to show her love, but he is playing a sick game with her. As part of this game he sends her to a Chinese brothel. A poor young boy sees her and falls in love with her. To get the money needed to sleep with her, he joins \"the revolution\". Additionally the movie shows the fate of some of the other prostitutes.", "poster_path": "/jz2I4D05F07uJGWtfeywYrzaok0.jpg", "popularity": 9.091}], "total_pages": 1, "total_results": 15}, "credits": {"cast": [{"cast_id": 0, "character": "Malachi", "credit_id": "5840ad68925141733c0000c3", "gender": 2, "id": 144496, "name": "Shane Ryan", "order": 1, "profile_path": null}], "crew": [{"credit_id": "5994fde9c3a36856ff006fa8", "department": "Directing", "gender": 2, "id": 144496, "job": "Director", "name": "Shane Ryan", "profile_path": null}]}}