{"adult": false, "backdrop_path": "/oLXVSSvaghazH48eaXsca5FYgbM.jpg", "belongs_to_collection": null, "budget": 0, "genres": [{"id": 99, "name": "Documentary"}, {"id": 10402, "name": "Music"}], "homepage": null, "id": 35922, "imdb_id": "tt0068389", "original_language": "en", "original_title": "The Rolling Stones: Cocksucker Blues", "overview": "This fly-on-the-wall documentary follows the Rolling Stones on their 1972 North American Tour, their first return to the States since the tragedy at Altamont.", "popularity": 3.484, "poster_path": "/ohkYXuOmvMRg77ucUODcxeqAwCL.jpg", "production_companies": [], "production_countries": [{"iso_3166_1": "US", "name": "United States of America"}], "release_date": "1972-01-01", "revenue": 0, "runtime": 93, "spoken_languages": [], "status": "Released", "tagline": "", "title": "The Rolling Stones: Cocksucker Blues", "video": false, "vote_average": 6.1, "vote_count": 7, "keywords": {"keywords": [{"id": 5282, "name": "the rolling stones"}, {"id": 162066, "name": "rock concert"}]}, "similar": {"page": 1, "results": [{"id": 324807, "video": false, "vote_count": 427, "vote_average": 6.2, "title": "A Bigger Splash", "release_date": "2015-11-26", "original_language": "en", "original_title": "A Bigger Splash", "genre_ids": [80, 18, 9648, 53], "backdrop_path": "/nQ19ItLrQvLGDD3tcc6Cnt2TmDc.jpg", "adult": false, "overview": "An American couple, Paul and Marianne, spend their vacation in Italy and experiences trouble when the wife invites a former lover and his teenage daughter to visit, which leads to jealousy and dangerous sexual scenarios.", "poster_path": "/uMJhOiPpSuDFbJc5z6c8hD9h8CQ.jpg", "popularity": 9.258}, {"id": 3602, "video": false, "vote_count": 173, "vote_average": 4.1, "title": "I'll Always Know What You Did Last Summer", "release_date": "2006-06-24", "original_language": "en", "original_title": "I'll Always Know What You Did Last Summer", "genre_ids": [27], "backdrop_path": "/e1pufGS4ly5Wb02WfJnckD22Zfh.jpg", "adult": false, "overview": "Several teenagers in a small-town in Colorado concoct a July 4th prank based on a frightening legend that goes awry when their friend ends up accidentally killed; however, the teens agree to keep their involvement a secret from the authorities, who continue to search for the man who apparently killed their friend. A year later, with the July 4th celebration coming up again, the teenagers realize that they're being stalked by someone who clearly intends on keeping the horrible legend alive by killing them off.", "poster_path": "/hYMAHn28MCkgbTBQom3UmvzUYhN.jpg", "popularity": 8.731}, {"id": 132, "video": false, "vote_count": 71, "vote_average": 7.6, "title": "Gimme Shelter", "release_date": "1970-12-06", "original_language": "en", "original_title": "Gimme Shelter", "genre_ids": [99, 10402], "backdrop_path": "/k74ezjZNmap2FpkxuO85NnWmcn.jpg", "adult": false, "overview": "The landmark documentary about the tragically ill-fated Rolling Stones free concert at Altamont Speedway on December 6, 1969. Only four months earlier, Woodstock defined the Love Generation; now it lay in ruins on a desolate racetrack six miles outside of San Francisco.", "poster_path": "/9cQ6TLG89Yv2EMKuxgLRvgLq5nK.jpg", "popularity": 8.569}, {"id": 7944, "video": false, "vote_count": 87, "vote_average": 7.2, "title": "Shine a Light", "release_date": "2008-02-07", "original_language": "en", "original_title": "Shine a Light", "genre_ids": [99, 10402], "backdrop_path": "/iU606VnpDQGAythRD9fEOdUbRfZ.jpg", "adult": false, "overview": "Martin Scorsese and the Rolling Stones unite in \"Shine A Light,\" a look at The Rolling Stones.\" Scorsese filmed the Stones over a two-day period at the intimate Beacon Theater in New York City in fall 2006. Cinematographers capture the raw energy of the legendary band.", "poster_path": "/28Lbw8CG5jX4nRB7O3dBmbtpzr7.jpg", "popularity": 8.976}, {"id": 473334, "video": false, "vote_count": 25, "vote_average": 7.3, "title": "My Generation", "release_date": "2017-10-08", "original_language": "en", "original_title": "My Generation", "genre_ids": [99, 36, 10402], "backdrop_path": "/2vspUZpK3oMI6yv7SJ735Vp1G6q.jpg", "adult": false, "overview": "The vivid and inspiring story of British film icon Michael Caine's personal journey through 1960s swinging London.", "poster_path": "/zCkYEunEjNucd2ESUaOjWzXhAdE.jpg", "popularity": 4.312}, {"adult": false, "backdrop_path": "/okOMFcv3Qu3rz4kJJupirY0YqzP.jpg", "genre_ids": [99, 10402], "id": 321974, "original_language": "en", "original_title": "Janis: Little Girl Blue", "overview": "Musician Cat Power narrates this documentary on Janis Joplin's evolution into a star from letters that Joplin wrote over the years to her friends, family, and collaborators.", "poster_path": "/qosDLnAcHRAUjgmZIU0c1ktEhx2.jpg", "release_date": "2015-09-09", "title": "Janis: Little Girl Blue", "video": false, "vote_average": 7.4, "vote_count": 97, "popularity": 10.615}, {"adult": false, "backdrop_path": "/wKR5DFoqqXzNV9zOEZ78g5K1mgX.jpg", "genre_ids": [99], "id": 146249, "original_language": "es", "original_title": "No te va gustar - P\u00fablico", "overview": "", "poster_path": "/gpT4HyofRjBIGp0StP3rgl3miGN.jpg", "release_date": "2012-03-09", "title": "No te va gustar - P\u00fablico", "video": false, "vote_average": 7.0, "vote_count": 1, "popularity": 1.736}, {"adult": false, "backdrop_path": "/jLwME5t9KHmC9p19qWYGyj7cxa3.jpg", "genre_ids": [99], "id": 315556, "original_language": "es", "original_title": "No Te Va Gustar - Mvd 050305", "overview": "", "poster_path": "/hKi20dS4aAkoXKDbsUihS1kDiI2.jpg", "release_date": "2005-09-01", "title": "No Te Va Gustar - Mvd 050305", "video": false, "vote_average": 7.0, "vote_count": 1, "popularity": 0.6}, {"adult": false, "backdrop_path": "/nKsBNI4GnfEgjOobLPujhftWdtg.jpg", "genre_ids": [10402, 99], "id": 137366, "original_language": "en", "original_title": "Celebration Day", "overview": "On December 10, 2007, Led Zeppelin took the stage at London's O2 Arena to headline a tribute concert for dear friend and Atlantic Records founder Ahmet Ertegun. Founding members John Paul Jones, Jimmy Page and Robert Plant were joined by Jason Bonham, the son of their late drummer John Bonham, to perform 16 songs from their celebrated catalog.", "poster_path": "/tdBt54VYZEuD6rf3fESLyfzQVWP.jpg", "release_date": "2012-10-17", "title": "Celebration Day", "video": false, "vote_average": 8.1, "vote_count": 24, "popularity": 5.193}, {"adult": false, "backdrop_path": "/3P0DxmsgEOvp5L1ZNVrBn4gxEz.jpg", "genre_ids": [18, 35, 10749], "id": 45077, "original_language": "en", "original_title": "Every Day", "overview": "Ned (Liev Schreiber) is in the throes of a mid-life crisis. His work as a writer on an outrageous, semi-pornographic TV show is less than satisfying. His fifteen year old son has just told him he is gay and his eleven year old is afraid of, well pretty much everything. When his wife, Jeannie (Helen Hunt), moves her sick and embittered father (Brian Dennehy) from Detroit into their home in NY, it puts added stress on an already strained marriage. And when a sexy female co-worker (Carla Gugino) puts the moves on Ned, the temptation sends him spiraling. EVERY DAY is about one family's struggle to survive the unexpected curve-balls that are simply part of real life; aging and death; commitment and freedom; love and acceptance. It's an uncompromising look at an ordinary family making an extraordinary journey towards themselves and towards each other.", "poster_path": "/tSh9Bb8naVwBkMJnI0V62ToA6l7.jpg", "release_date": "2010-01-14", "title": "Every Day", "video": false, "vote_average": 5.5, "vote_count": 48, "popularity": 5.96}, {"adult": false, "backdrop_path": "/yTMP0mFDuhSRxg5jYG3Nq2ofr4.jpg", "genre_ids": [99], "id": 49255, "original_language": "en", "original_title": "Annie Leibovitz: Life Through a Lens", "overview": "An account of the professional and personal life of renowned American photographer Annie Leibovitz, from her early artistic endeavors to her international success as a photojournalist, war reporter, and pop culture chronicler.", "poster_path": "/hT7sATh60MsEHAWhiuR6seKQQFM.jpg", "release_date": "2007-05-19", "title": "Annie Leibovitz: Life Through a Lens", "video": false, "vote_average": 7.5, "vote_count": 13, "popularity": 4.149}, {"adult": false, "backdrop_path": "/wHs51sSjB0GnWWSw1g2MrUFgaKi.jpg", "genre_ids": [10402, 99], "id": 142773, "original_language": "en", "original_title": "Hungarian Rhapsody: Queen Live in Budapest", "overview": "On 27th July 1986, British stadium rock band Queen broke new ground by playing for the first time in Hungary, a country which was still under a communist dictatorship behind the Iron Curtain.", "poster_path": "/lHSXZmMSoGlx9HNM6RtFpx0U3Ke.jpg", "release_date": "2012-09-20", "title": "Hungarian Rhapsody: Queen Live in Budapest", "video": true, "vote_average": 8.2, "vote_count": 15, "popularity": 6.136}, {"id": 185354, "video": false, "vote_count": 13, "vote_average": 5.9, "title": "The War of the Worlds: Next Century", "release_date": "1981-11-01", "original_language": "pl", "original_title": "Wojna swiat\u00f3w - nastepne stulecie", "genre_ids": [878, 53, 10752], "backdrop_path": "/yYxsfNOOmTmWyDYdciuVorwiJU4.jpg", "adult": false, "overview": "Film opens on December 18, 1999, just a few days before the dawn of the new century. A local reporter, Iron Idem, announces that the Martians have landed. Shortly after that his program loses its independence: he is given the script telling the crowds how to welcome the invaders.", "poster_path": "/ftDaUDUH6IjkxoHvu39ysMfdy5Y.jpg", "popularity": 1.803}, {"adult": false, "backdrop_path": "/t0dum2M9gRlIcwtioDeVcEdGDYe.jpg", "genre_ids": [18], "id": 17741, "original_language": "en", "original_title": "Stoned", "overview": "A chronicle of the sordid life and suspicious death of Rolling Stones co-founder Brian Jones, who was found in the bottom of his swimming pool weeks after being let go from the band.", "poster_path": "/xffuc4V1ddYROx0BulutbPiNTTE.jpg", "release_date": "2005-11-18", "title": "Stoned", "video": false, "vote_average": 5.3, "vote_count": 25, "popularity": 5.885}, {"id": 34759, "video": false, "vote_count": 22, "vote_average": 7.6, "title": "Ziggy Stardust and the Spiders from Mars", "release_date": "1983-12-23", "original_language": "en", "original_title": "Ziggy Stardust and the Spiders from Mars", "genre_ids": [99, 10402], "backdrop_path": "/bmMEA6qDWUjsvyeddl2r0O324qN.jpg", "adult": false, "overview": "Hammersmith Odeon, London, July 3, 1973. British singer David Bowie performs his alter ego Ziggy Stardust for the very last time. A decadent show, a hallucinogenic collage of kitsch, pop irony and flamboyant excess: a musical symbiosis of feminine passion and masculine dominance that defines Bowie's art and the glam rock genre.", "poster_path": "/6C654k7dHv67rvIkOrJ1e9iWzRb.jpg", "popularity": 3.87}, {"id": 40636, "video": false, "vote_count": 5, "vote_average": 5.5, "title": "The Rolling Stones: Stones in Exile", "release_date": "2010-05-14", "original_language": "en", "original_title": "The Rolling Stones: Stones in Exile", "genre_ids": [99, 10402], "backdrop_path": "/5E3cavqOYKhLARyuz3Sg9dJwwyT.jpg", "adult": false, "overview": "In 1971, to get breathing room from tax and management problems, the Stones go to France. Jimmy Miller parks a recording truck next to Keith Richards and Anita Pallenberg's Blue Coast villa, and by June the band is in the basement a few days at a time. Upstairs, heroin, bourbon, and visitors are everywhere. The Stones, other musicians and crew, Pallenberg, and photographer Dominique Tarle, plus old clips and photos and contemporary footage, provide commentary on the album's haphazard construction. By September, the villa is empty; Richards and Jagger complete production in LA. \"Exile on Main Street\" is released to mediocre reviews that soon give way to lionization.", "poster_path": "/zuL4XR19IoDMxbmStHY1PrRo7jR.jpg", "popularity": 2.557}, {"id": 159151, "video": false, "vote_count": 32, "vote_average": 7.3, "title": "Muscle Shoals", "release_date": "2013-08-16", "original_language": "en", "original_title": "Muscle Shoals", "genre_ids": [99, 36, 10402], "backdrop_path": "/3MhZzstCrEIbSVdzKFF1nrQsZyE.jpg", "adult": false, "overview": "In a tiny Alabama town with the curious name of Muscle Shoals, something miraculous sprang from the mud of the Tennessee River. A group of unassuming, yet incredibly talented, locals came together and spawned some of the greatest music of all time: \u201cMustang Sally,\u201d \u201cI Never Loved a Man,\u201d \u201cWild Horses,\u201d and many more. During the most incendiary periods of racial hostility, white folks and black folks came together to create music that would last for generations and gave birth to the incomparable \u201cMuscle Shoals sound.\u201d", "poster_path": "/rWHRcJKvOQxJxpP61gV0Xar0Mvx.jpg", "popularity": 4.127}, {"adult": false, "backdrop_path": "/ekXwUuR7mBvCajtSx2930brzvmo.jpg", "genre_ids": [99], "id": 315548, "original_language": "es", "original_title": "El Verano Siguiente", "overview": "", "poster_path": "/hfswfswSsaKkRsyKgcZKqAzdJCL.jpg", "release_date": "2014-03-06", "title": "El Verano Siguiente", "video": false, "vote_average": 8.0, "vote_count": 1, "popularity": 0.6}, {"adult": false, "backdrop_path": "/aq1FspsAS3W29Xj3JFahziMfKMe.jpg", "genre_ids": [99, 10402], "id": 360341, "original_language": "en", "original_title": "Keith Richards: Under the Influence", "overview": "A portrait of Keith Richards that takes us on a journey to discover the genesis of his sound as a songwriter, guitarist and performer.", "poster_path": "/xMgAJNItvXt7JnqwFlw8K1gFASp.jpg", "release_date": "2015-09-18", "title": "Keith Richards: Under the Influence", "video": false, "vote_average": 6.7, "vote_count": 39, "popularity": 7.215}, {"adult": false, "backdrop_path": "/7Pe9HA8gzkOjVVHGLdaous7y2F2.jpg", "genre_ids": [99, 36, 10402], "id": 14770, "original_language": "en", "original_title": "Festival Express", "overview": "The filmed account of a large Canadian rock festival train tour.", "poster_path": "/426KPKOJ0WDHvsXI3D1AETkeViN.jpg", "release_date": "2003-09-19", "title": "Festival Express", "video": false, "vote_average": 6.7, "vote_count": 12, "popularity": 3.177}], "total_pages": 8, "total_results": 153}, "recommendations": {"page": 1, "results": [{"id": 46923, "video": false, "vote_count": 6, "vote_average": 7.6, "title": "Men Don't Cry", "release_date": "1968-01-01", "original_language": "et", "original_title": "Mehed ei nuta", "genre_ids": [35], "backdrop_path": "/AgOpTgFh29WA7WHePdLdWfTFkL2.jpg", "adult": false, "overview": "A group of sleepless nerds should be taken into sanitarium for hard-therapy. They are taken to a lonely island but no sanitarium is in sight. Suddenly turns out that the nurses have kidnapped the men and are about to give them the only useful medicine they need - fresh air and work. But the patients decide to disobey. There's only one solution - to escape. The film is absolute cult in Estonia.", "poster_path": "/33BZQaFm1Kw1HERAwppjZYY0Tiw.jpg", "popularity": 0.795}, {"adult": false, "backdrop_path": "/t2lswANTGwohbway4wzYOwAuAc8.jpg", "genre_ids": [35, 878], "id": 65455, "original_language": "en", "original_title": "Sins of the Fleshapoids", "overview": "The survivors of a nuclear war are taken care of by robots called \"fleshapoids.\" One day one of the fleshapoids runs wild, kills its \"mistress,\" and hides in the home of a human female, for whom it begins to develop feelings.", "poster_path": "/uphAU0uWAULZCVP2hUXdSfKbSt0.jpg", "release_date": "1965-01-04", "title": "Sins of the Fleshapoids", "video": false, "vote_average": 6.0, "vote_count": 7, "popularity": 2.438}, {"adult": false, "backdrop_path": "/3LOD5OynM0VkXQChwbmRMswmeyP.jpg", "genre_ids": [35, 18, 10749], "id": 54407, "original_language": "en", "original_title": "Bliss", "overview": "An advertising executive dies and goes to hell... except nothing changes. Well, his daughter is buying drugs with sexual favours from her brother, and the number of cancer-causing products is on the increase. But the notes he writes to himself to prove he hasn't gone insane are getting more disjointed, and he runs off with an ex-prostitute called Honey Barbera.", "poster_path": "/e2K9Ii2DGDMKKnrD5hLCP7kCtRB.jpg", "release_date": "1985-10-04", "title": "Bliss", "video": false, "vote_average": 6.6, "vote_count": 8, "popularity": 4.442}, {"adult": false, "backdrop_path": "/5tGcnPKtWLL9hcJvelpMeUyMs7r.jpg", "genre_ids": [35], "id": 265640, "original_language": "en", "original_title": "Nuts in May", "overview": "A middle-class couple go camping in Dorset, but peace and quiet elude them.", "poster_path": "/hEJpK2pRk65fGo3grlAyVxH1TcN.jpg", "release_date": "1976-01-13", "title": "Nuts in May", "video": false, "vote_average": 8.0, "vote_count": 12, "popularity": 2.237}, {"adult": false, "backdrop_path": "/5wCpuGgrEBjtPUCjHMNSGDfvekA.jpg", "genre_ids": [99, 10402], "id": 34380, "original_language": "en", "original_title": "Instrument: Ten Years with the Band Fugazi", "overview": "Shot from 1987 through 1998 on super 8, 16mm and video, Instrument is composed mainly of footage of concerts, interviews with the band members, practices, tours and time spent in the studio recording their 1995 album, Red Medicine. The film also includes portraits of fans as well as interviews with them at various Fugazi shows around the United States throughout the years.", "poster_path": "/6KM7aMY0LPPY5wBx3QMG2vNcf9K.jpg", "release_date": "1999-03-01", "title": "Instrument: Ten Years with the Band Fugazi", "video": false, "vote_average": 7.3, "vote_count": 11, "popularity": 3.034}], "total_pages": 1, "total_results": 5}, "credits": {"cast": [{"cast_id": 2, "character": "Himself", "credit_id": "52fe45c09251416c9103d18b", "gender": 2, "id": 1428, "name": "Mick Jagger", "order": 0, "profile_path": "/lnW255mXyX6K8agSNwhj8H06CoC.jpg"}, {"cast_id": 3, "character": "Himself", "credit_id": "52fe45c09251416c9103d18f", "gender": 2, "id": 1430, "name": "Keith Richards", "order": 1, "profile_path": "/t1oa5UsJMmrhNqCIks4jQnAYSQT.jpg"}, {"cast_id": 4, "character": "Himself", "credit_id": "52fe45c09251416c9103d193", "gender": 2, "id": 1429, "name": "Charlie Watts", "order": 2, "profile_path": "/opj3O4sJrNHPmhcg7vtCPi8aEE5.jpg"}, {"cast_id": 5, "character": "Himself", "credit_id": "52fe45c09251416c9103d197", "gender": 2, "id": 1431, "name": "Bill Wyman", "order": 3, "profile_path": "/bOQUJcnvq9VttgbDIsRwu7pMHqR.jpg"}, {"cast_id": 6, "character": "Himself", "credit_id": "52fe45c09251416c9103d19b", "gender": 2, "id": 1432, "name": "Mick Taylor", "order": 4, "profile_path": "/jGYZYqQFvtQIHn1L5xpEKKbXX5s.jpg"}, {"cast_id": 7, "character": "Himself", "credit_id": "52fe45c09251416c9103d19f", "gender": 2, "id": 1930, "name": "Truman Capote", "order": 5, "profile_path": "/rRrTzbxvYAFCq55UopYDnb2aZw4.jpg"}, {"cast_id": 8, "character": "Himself", "credit_id": "52fe45c09251416c9103d1a3", "gender": 2, "id": 10565, "name": "Dick Cavett", "order": 6, "profile_path": "/wxur4NDgWKAZsjrjpc75ZTzNqsO.jpg"}, {"cast_id": 9, "character": "Herself", "credit_id": "52fe45c09251416c9103d1a7", "gender": 1, "id": 80486, "name": "Bianca Jagger", "order": 7, "profile_path": "/qyakfKAJaQKHawsap4PJPjUbicl.jpg"}, {"cast_id": 10, "character": "Herself (as Princess Radziwill)", "credit_id": "52fe45c09251416c9103d1ab", "gender": 1, "id": 933711, "name": "Lee Radziwill", "order": 8, "profile_path": "/A71ZTlKYgQrqxREIo9E7JVDU9VS.jpg"}, {"cast_id": 11, "character": "Herself", "credit_id": "52fe45c09251416c9103d1af", "gender": 1, "id": 1459, "name": "Tina Turner", "order": 9, "profile_path": "/yhA10YPoQwGWtvd4TUm4X6tkv1x.jpg"}, {"cast_id": 12, "character": "Himself", "credit_id": "5d795676e8601700131d4ad1", "gender": 2, "id": 18626, "name": "Andy Warhol", "order": 10, "profile_path": "/iqfZjl7DzqCR28skok7oY6XuRUd.jpg"}, {"cast_id": 13, "character": "Hilmself", "credit_id": "5d795695069f0e11343303ff", "gender": 2, "id": 18746, "name": "Stevie Wonder", "order": 11, "profile_path": "/oQdCaZAWNld0JMSEKwZr7fdlbjW.jpg"}], "crew": [{"credit_id": "52fe45bf9251416c9103d187", "department": "Directing", "gender": 2, "id": 238714, "job": "Director", "name": "Robert Frank", "profile_path": "/4UhHEdJhdh3wBhe87ZmPGPahKnY.jpg"}]}}