{"adult": false, "backdrop_path": null, "belongs_to_collection": null, "budget": 0, "genres": [{"id": 18, "name": "Drama"}], "homepage": null, "id": 360210, "imdb_id": "tt0038071", "original_language": "en", "original_title": "Sensation Hunters", "overview": "A naive young girl, looking to escape from a bad family situation, falls in love with a man who turns out to be a cad, and leads her down the road to ruin.", "popularity": 1.013, "poster_path": "/u6cIUTSvoN23Tyu4GUw4UFq1tmi.jpg", "production_companies": [{"id": 4395, "logo_path": null, "name": "Monogram Pictures", "origin_country": ""}], "production_countries": [{"iso_3166_1": "US", "name": "United States of America"}], "release_date": "1945-10-12", "revenue": 0, "runtime": 62, "spoken_languages": [], "status": "Released", "tagline": "Reckless Girls Who Travel the Road of Broken Dreams!", "title": "Sensation Hunters", "video": false, "vote_average": 5.0, "vote_count": 1, "keywords": {"keywords": [{"id": 10712, "name": "night club"}]}, "similar": {"page": 1, "results": [{"id": 525554, "video": false, "vote_count": 120, "vote_average": 6.0, "title": "The Bouncer", "release_date": "2018-08-22", "original_language": "fr", "original_title": "Lukas", "genre_ids": [28, 18, 53], "backdrop_path": "/xDwQBiE7rxKq2TMUS6SRfQmCLY5.jpg", "adult": false, "overview": "A tough nightclub bouncer struggling to raise his 8-year-old daughter is forced to go undercover after an unfortunate event.", "poster_path": "/w7rFgyr7rujNYRex9oxzG26Zq6z.jpg", "popularity": 12.446}, {"id": 27586, "video": false, "vote_count": 489, "vote_average": 6.4, "title": "The Runaways", "release_date": "2010-03-19", "original_language": "en", "original_title": "The Runaways", "genre_ids": [18, 10402], "backdrop_path": "/ykgdO6R63On0qgbGVKHg3U8YgTm.jpg", "adult": false, "overview": "Joan Jett and Cherie Currie, two rebellious teenagers from Southern California, become the frontwomen for the Runaways -- the now-legendary group that paved the way for future generations of female rockers. Under the Svengali-like influence of impresario Kim Fowley, the band becomes a huge success.", "poster_path": "/rC8PTdRj1Ij4Baz3jWCCgCV6JeX.jpg", "popularity": 14.27}, {"id": 8356, "video": false, "vote_count": 202, "vote_average": 7.4, "title": "An Affair to Remember", "release_date": "1957-07-11", "original_language": "en", "original_title": "An Affair to Remember", "genre_ids": [18, 10749], "backdrop_path": "/klTRTXoRKr1NO0Hi6zP1izBTt7V.jpg", "adult": false, "overview": "Nickie Ferrante's return to New York to marry a rich heiress is well publicized as are his many antics and affairs. He meets a nightclub singer Terry McKay who is also on her way home to her longtime boyfriend. She sees him as just another playboy and he sees her as stand-offish but over several days they soon find they've fallen in love. Nickie has never really worked in his life so they agree that they will meet again in six months time atop the Empire State building. This will give them time to deal with their current relationships and for Nickie to see if he can actually earn a living. He returns to painting and is reasonably successful. On the agreed date, Nickie is waiting patiently for Terry who is racing to join him. Fate intervenes however, resulting in misunderstanding and heartbreak and only fate can save their relationship.", "poster_path": "/aqYS7b2kxcjDL0oDuosOBtrr6Vb.jpg", "popularity": 9.12}, {"id": 934, "video": false, "vote_count": 205, "vote_average": 7.9, "title": "Rififi", "release_date": "1955-04-13", "original_language": "fr", "original_title": "Du rififi chez les hommes", "genre_ids": [28, 80, 18], "backdrop_path": "/u1wxXBJpxifopSbVxCjgTVapEE1.jpg", "adult": false, "overview": "Out of prison after a five-year stretch, jewel thief Tony turns down a quick job his friend Jo offers him, until he discovers that his old girlfriend Mado has become the lover of local gangster Pierre Grutter during Tony's absence. Expanding a minor smash-and-grab into a full-scale jewel heist, Tony and his crew appear to get away clean, but their actions after the job is completed threaten the lives of everyone involved.", "poster_path": "/riZ2SXhTgllN6NWrPOJCtN4NrhG.jpg", "popularity": 10.037}, {"adult": false, "backdrop_path": "/pMXJbEEwungdnXfqCZZKke7esJi.jpg", "genre_ids": [18, 80, 9648, 53], "id": 18680, "original_language": "en", "original_title": "Fear City", "overview": "Strippers in Manhattan are being stalked and murdered by a psycho. A hard-nosed police detective and a conflicted ex-boxer-turned-private-eye, hired by the strip club owners, set out to find him before he strikes again.", "poster_path": "/4ACsGm4tibbvZav2ogHk03GXZPZ.jpg", "release_date": "1984-07-18", "title": "Fear City", "video": false, "vote_average": 6.1, "vote_count": 27, "popularity": 7.937}, {"id": 52587, "video": false, "vote_count": 140, "vote_average": 6.2, "title": "We Are the Night", "release_date": "2010-10-28", "original_language": "de", "original_title": "Wir sind die Nacht", "genre_ids": [18, 14, 27, 10749], "backdrop_path": "/tztQ8kb1QATrnYRcl3kUosQcgKL.jpg", "adult": false, "overview": "One night, 18 year old Lena is bitten by Louise, leader of a female vampire trio that are as deadly as they are beautiful. Her newfound vampiric lifestyle is a blessing and a curse at the same time. At first, she enjoys the limitless freedom, the luxury, the parties. But soon the murderous blood lust of her comrades in arms proves too much for her, and she falls dangerously in love with Tom, a young undercover cop. When she resolves to turn her back on the bloodsucking band of sisters, Louise fury knows no bounds. Lena will have to choose between immortal love and immortal life.", "poster_path": "/3rdg390l2AaoS0Y7jJ7G3MCLvjN.jpg", "popularity": 6.294}, {"id": 6075, "video": false, "vote_count": 1649, "vote_average": 7.8, "title": "Carlito's Way", "release_date": "1993-11-10", "original_language": "en", "original_title": "Carlito's Way", "genre_ids": [80, 53], "backdrop_path": "/24e8tT3xTqjvk95Lqx6BzE49RfQ.jpg", "adult": false, "overview": "A Puerto-Rican ex-con, just released from prison, pledges to stay away from drugs and violence despite the pressure around him, and lead a better life outside NYC.", "poster_path": "/tGPqPHuOCbyFxwllrYgKkPDu9xB.jpg", "popularity": 17.575}, {"adult": false, "backdrop_path": "/lh57j971CIzI3FruTbFeWpYHjej.jpg", "genre_ids": [35, 18], "id": 12229, "original_language": "en", "original_title": "The Acid House", "overview": "THE ACID HOUSE is a surreal triptych adapted by \"Trainspotting\" author Irvine Welsh from his acclaimed collection of short stories.\r Combining a vicious sense of humor with hard-talking drama, the film reaches into the hearts and minds of the chemical generation, casting a dark and unholy light into the hidden corners of the human psyche.\r Directed by Paul McGuigan, the film dramatises three stories from the book: 1- The Granton Star Cause, 2- A Soft Touch &amp; 3- The Acid House.", "poster_path": "/o0KvKCgxMFccx3SzDI3p2218921.jpg", "release_date": "1998-07-02", "title": "The Acid House", "video": false, "vote_average": 6.5, "vote_count": 68, "popularity": 7.259}, {"adult": false, "backdrop_path": null, "genre_ids": [28, 80, 18, 53], "id": 29231, "original_language": "en", "original_title": "The Immortals", "overview": "An elaborate heist unites 8 strangers in a simultaneous assault on targets all over the city- and explodes in a hailstorm of gunfire and high-speed chases in this powerful action-thriller.  Recruited by a Mafia nightclub owner (Eric Roberts), 4 teams launch a brutal cross-town attack to retrieve suitcases full of cash.  But as the violence escalates, the team members discover just who their real target has been all along - and the shocking truth they have in common.", "poster_path": "/vBiJCVYJZPhBZz3WPGdN6ENP6JO.jpg", "release_date": "1995-10-05", "title": "The Immortals", "video": false, "vote_average": 6.6, "vote_count": 11, "popularity": 5.217}, {"adult": false, "backdrop_path": "/cGeSWo7Fw2sF8PFNpgPfMlKHhIQ.jpg", "genre_ids": [18, 28, 53, 10749], "id": 30624, "original_language": "en", "original_title": "Road House", "overview": "A night club owner becomes infatuated with a torch singer and frames his best friend/manager for embezzlement when the chanteuse falls in love with him.", "poster_path": "/ygQ4GLPJKxYL56rpKdZac578Fv7.jpg", "release_date": "1948-09-22", "title": "Road House", "video": false, "vote_average": 7.0, "vote_count": 14, "popularity": 5.863}, {"id": 11797, "video": false, "vote_count": 595, "vote_average": 7.0, "title": "Fright Night", "release_date": "1985-08-02", "original_language": "en", "original_title": "Fright Night", "genre_ids": [27], "backdrop_path": "/v4wzMG8phQyPVlKTMUNt1i33GM5.jpg", "adult": false, "overview": "Nobody believes teenager Charley Brewster when he discovers that his suave new neighbor, Jerry Dandrige, is a vampire. So when the bloodsucker starts stalking Charley, he turns to has-been actor Peter Vincent, famed for portraying a ghoul hunter. Unfortunately for the would-be vampire slayers, Dandrige has set his sights on Charley's girlfriend.", "poster_path": "/jE0YbuFlmaZUWeVTyYNpzYXjIbn.jpg", "popularity": 12.298}, {"adult": false, "backdrop_path": "/yZ9PkjolGlNKoLGEOBJAho0fB4D.jpg", "genre_ids": [80, 18, 53], "id": 25551, "original_language": "en", "original_title": "The Sniper", "overview": "Eddie Miller struggles with his hatred of women, he's especially bothered by seeing women with their lovers. He starts a killing spree as a sniper by shooting women from far distances. In an attempt to get caught, he writes an anonymous letter to the police begging them to stop him.", "poster_path": "/upYwLa9rKoejM79p9DRXuLjYXN7.jpg", "release_date": "1952-05-09", "title": "The Sniper", "video": false, "vote_average": 6.8, "vote_count": 22, "popularity": 5.369}, {"id": 7091, "video": false, "vote_count": 152, "vote_average": 6.0, "title": "Vampire's Kiss", "release_date": "1988-09-17", "original_language": "en", "original_title": "Vampire's Kiss", "genre_ids": [35, 27], "backdrop_path": "/lMvMl0pxFqM2u6O7BmxZubTu93P.jpg", "adult": false, "overview": "A publishing executive is visited and bitten by a vampire and starts exhibiting erratic behavior. He pushes his secretary to extremes as he tries to come to terms with his affliction. The vampire continues to visit and drink his blood, and as his madness deepens, it begins to look as if some of the events he's experiencing may be hallucinations.", "poster_path": "/pThT3QMiBC7ge8xePxXr8uruoJK.jpg", "popularity": 10.643}, {"id": 4551, "video": false, "vote_count": 519, "vote_average": 5.5, "title": "Be Cool", "release_date": "2005-03-04", "original_language": "en", "original_title": "Be Cool", "genre_ids": [35, 80], "backdrop_path": "/eT84ElbmCj7SznhxznXLBkmE0uF.jpg", "adult": false, "overview": "Disenchanted with the movie industry, Chili Palmer tries the music industry, meeting and romancing a widow of a music executive along the way.", "poster_path": "/ekKCH7Zkb5ZTr1f1AczZY23FH.jpg", "popularity": 9.563}, {"adult": false, "backdrop_path": "/wns7wjuPwB3jhFRndIzAHZcnf0.jpg", "genre_ids": [10749, 18], "id": 376504, "original_language": "en", "original_title": "Steel", "overview": "Daniel, a successful TV journalist living life in the fast lane, has fallen into a deep depression. His seemingly perfect life suddenly collapses under him when panic attacks force him to deal with himself and his past.", "poster_path": "/vxJjgRqgiPzzdiA8ofNYN7vLPDG.jpg", "release_date": "2015-10-02", "title": "Steel", "video": false, "vote_average": 6.9, "vote_count": 13, "popularity": 4.578}, {"adult": false, "backdrop_path": "/ljJ1fdxOhLT8XyHxtX1j1jG5ic3.jpg", "genre_ids": [18], "id": 65213, "original_language": "en", "original_title": "Smart Girls Don't Talk", "overview": "A society woman gets involved with a gangster only to find he has hidden plans.", "poster_path": "/7BDNXnMAJPyegBZ6QBhe14pybAx.jpg", "release_date": "1948-10-09", "title": "Smart Girls Don't Talk", "video": false, "vote_average": 5.3, "vote_count": 6, "popularity": 3.49}, {"adult": false, "backdrop_path": "/tCqI3EtSxVxgddWeQtyaT1rRlYf.jpg", "genre_ids": [53], "id": 3767, "original_language": "en", "original_title": "Gilda", "overview": "A gambler discovers an old flame while in Argentina, but she's married to his new boss.", "poster_path": "/hz2gG5D3GHaaPZUSnRNjMC3Wl1r.jpg", "release_date": "1946-02-14", "title": "Gilda", "video": false, "vote_average": 7.7, "vote_count": 252, "popularity": 10.538}, {"adult": false, "backdrop_path": "/eGJmnPGCACrOGV6rl3i5pERHGkC.jpg", "genre_ids": [18, 10402], "id": 41762, "original_language": "en", "original_title": "Graffiti Bridge", "overview": "It's got that Purple Rain feeling through and though. And it's got The Kid, too! For the first time since Purple Rain, Prince is back as The Kid. And where he goes , there's music! With Thieves in the Temple, New Power Generation, Elephants and Flowers and more red-hot Prince tunes from the Platinum-selling Graffiti Bridge soundtrack. What time is it? Party time! Morris Day and the Time play Release It, Shake! and more. And you'll also see and hear George Clinton, Tevin Campbell, Robin Power, Mavis Staples and other hot performers, too. Graffiti Bridge is where the movie meets the music. Cross over on it now.", "poster_path": "/hrd9N20tLuqChSlyS83iEXeCVfk.jpg", "release_date": "1990-11-02", "title": "Graffiti Bridge", "video": false, "vote_average": 5.4, "vote_count": 18, "popularity": 4.195}, {"id": 26583, "video": false, "vote_count": 50, "vote_average": 5.2, "title": "The Keeper", "release_date": "2009-10-03", "original_language": "en", "original_title": "The Keeper", "genre_ids": [28, 53], "backdrop_path": "/amki7UxRbvkhLOfiUKWOxowkmtp.jpg", "adult": false, "overview": "Roland Sallinger is an LA cop who after nearly being killed by his greedy partner, and eventually being forced to retire for medical reasons, flees to San Antonio, Texas, after being asked to work as a bodyguard for the daughter of a wealthy businessman. The businessman had been a colleague of Sallinger years before, when they were both cops. When mobsters kidnap the businessman's daughter, he hunts them down to rescue her and protect her", "poster_path": "/woe5usR12spT0S9ucvNp2njOM6v.jpg", "popularity": 7.374}, {"adult": false, "backdrop_path": null, "genre_ids": [18], "id": 134669, "original_language": "sr", "original_title": "Normalni ljudi", "overview": "Film \"Normalni ljudi\" is based on the motives of various writings by Srdjan Valjarevic. Srdjan is an excellent writer so unpretentious and humble that it is a crime placing his ideas into this context. I do not wanna go into the reason why did he except to sign this film. Oleg NOvkovic's approach to it is wrong from the very beginning. Surreal is only his attempt to make a noir film ( by: ninjakrme)", "poster_path": "/bJ3CIWONrIlV9Elhu4I5Sx3xc4T.jpg", "release_date": "2001-02-22", "title": "Normal People", "video": false, "vote_average": 5.8, "vote_count": 2, "popularity": 0.84}], "total_pages": 4, "total_results": 70}, "recommendations": {"page": 1, "results": [], "total_pages": 1, "total_results": 0}, "credits": {"cast": [{"cast_id": 2, "character": "Julie Rogers", "credit_id": "55fa382bc3a3683126000cf4", "gender": 1, "id": 101959, "name": "Doris Merrick", "order": 1, "profile_path": "/zIBVtHbkDdZPTfVgjq8jyGPkEXZ.jpg"}, {"cast_id": 3, "character": "Danny Burke", "credit_id": "55fa3843c3a3683126000cf9", "gender": 2, "id": 34117, "name": "Robert Lowery", "order": 2, "profile_path": "/r65u9YC65MWPw0Ni5nYf651iyOU.jpg"}, {"cast_id": 4, "character": "Ray Lawson", "credit_id": "55fa3859c3a368313c000c5d", "gender": 2, "id": 8521, "name": "Eddie Quillan", "order": 3, "profile_path": "/p49Q3UZigqHlmrQYWa2RTNh6CGv.jpg"}, {"cast_id": 5, "character": "Irene", "credit_id": "55fa387292514132e4000bdd", "gender": 1, "id": 99751, "name": "Constance Worth", "order": 4, "profile_path": "/kU25crpocYP6mOWqQykJHKXZWZH.jpg"}, {"cast_id": 7, "character": "Helen", "credit_id": "55fa389fc3a3683132000c9a", "gender": 1, "id": 100577, "name": "Wanda McKay", "order": 6, "profile_path": "/NO5Yvc0knXiN441a7KYlr8aJQh.jpg"}, {"cast_id": 8, "character": "Lew Davis", "credit_id": "55fa38b9c3a3683138000ed1", "gender": 2, "id": 56924, "name": "Nestor Paiva", "order": 7, "profile_path": "/9QB3l3jN6npImyMvCHKWTMd7H8Y.jpg"}, {"cast_id": 9, "character": "Mark Rogers", "credit_id": "55fa38d092514132e1000c1a", "gender": 2, "id": 96722, "name": "Byron Foulger", "order": 8, "profile_path": "/iMr3cELQ3pNBcUfnrcH6FP9SIZO.jpg"}, {"cast_id": 10, "character": "Agent", "credit_id": "55fa4613c3a36831380010e8", "gender": 2, "id": 13357, "name": "Vince Barnett", "order": 9, "profile_path": "/vOvZ6SSFHNKRwxGwVbp7bA2vX2l.jpg"}, {"cast_id": 11, "character": "Edna Rogers", "credit_id": "55fa4613c3a3683129000d50", "gender": 1, "id": 102002, "name": "Minerva Urecal", "order": 10, "profile_path": "/gMG30MRyu03iSkUSEnL6BHVORQB.jpg"}, {"cast_id": 12, "character": "Katie Rogers", "credit_id": "55fa461392514132e7000def", "gender": 1, "id": 87826, "name": "Janet Shaw", "order": 11, "profile_path": "/crDWvsLUpmUFBVt9zZ0KVO7XTlJ.jpg"}, {"cast_id": 13, "character": "Dancing Ensemble", "credit_id": "55fa4614c3a3683136000f24", "gender": 0, "id": 1511039, "name": "The Rubenettes", "order": 12, "profile_path": null}, {"cast_id": 14, "character": "Johnson Brothers", "credit_id": "55fa461492514132ee000e1f", "gender": 0, "id": 1286516, "name": "Johnson Brothers", "order": 13, "profile_path": null}, {"cast_id": 15, "character": "Waiter (uncredited)", "credit_id": "55fa4614c3a368313c000e73", "gender": 2, "id": 30117, "name": "Bobby Barber", "order": 14, "profile_path": "/rmdroxjNqg7Okc5zrCdrOmjSNF5.jpg"}, {"cast_id": 16, "character": "Mae", "credit_id": "56c3be71c3a368720700030a", "gender": 1, "id": 33277, "name": "Isabel Jewell", "order": 15, "profile_path": "/a7DL3IbUiV2x8eiDCkijIi1m1qo.jpg"}], "crew": [{"credit_id": "55fa37b892514132e4000baf", "department": "Directing", "gender": 1, "id": 90375, "job": "Director", "name": "Christy Cabanne", "profile_path": "/jL6I4KDUe7jMN88eolpko73upyU.jpg"}, {"credit_id": "55fa37d792514132f4000c2d", "department": "Writing", "gender": 0, "id": 107675, "job": "Writer", "name": "Dennis J. Cooper", "profile_path": null}]}}