{"adult": false, "backdrop_path": "/mfNlrqoc8XgeBwsDRrnXQnUw0d3.jpg", "belongs_to_collection": null, "budget": 0, "genres": [{"id": 35, "name": "Comedy"}, {"id": 18, "name": "Drama"}, {"id": 53, "name": "Thriller"}], "homepage": "", "id": 36049, "imdb_id": "tt0023395", "original_language": "en", "original_title": "Rich and Strange", "overview": "An unexpected inheritance proves less than a boon to a young married couple.", "popularity": 4.789, "poster_path": "/5Gi7PAUjzNHfZ1TbnQuDfUqKycp.jpg", "production_companies": [{"id": 305, "logo_path": null, "name": "British International Pictures", "origin_country": "GB"}], "production_countries": [{"iso_3166_1": "GB", "name": "United Kingdom"}], "release_date": "1931-12-10", "revenue": 0, "runtime": 83, "spoken_languages": [{"iso_639_1": "en", "name": "English"}], "status": "Released", "tagline": "", "title": "Rich and Strange", "video": false, "vote_average": 5.7, "vote_count": 32, "keywords": {"keywords": [{"id": 10911, "name": "inheritance"}]}, "similar": {"page": 1, "results": [{"adult": false, "backdrop_path": "/bR7CUWzkUStWNchIyKJB1YfuBBf.jpg", "genre_ids": [35, 10749], "id": 247601, "original_language": "en", "original_title": "Next Time I Marry", "overview": "Heiress Nancy Crocker Fleming will only receive her inheritance if she marries a \"plain American.\" Her late father was afraid a foreign gigolo would steal her heart and money. So Nancy pays Tony Anthony, working on a WPA road project, to marry, then divorce her. When Nancy inadvertently drives off with Tony's dog, Tony seemingly kidnaps her to retrieve the pooch, which leads to a cross-country race between the two to reach Reno and the divorce court since neither one wants to be the second to file papers.", "poster_path": "/hR53LGnLpw6J1kZn6ris2qlXsOA.jpg", "release_date": "1938-12-09", "title": "Next Time I Marry", "video": false, "vote_average": 6.0, "vote_count": 2, "popularity": 2.276}, {"id": 514999, "video": false, "vote_count": 1780, "vote_average": 6.3, "title": "Murder Mystery", "release_date": "2019-05-25", "original_language": "en", "original_title": "Murder Mystery", "genre_ids": [28, 35, 80, 9648], "backdrop_path": "/qeFO3u2IqbAeIT1Xgo6POqYbCaQ.jpg", "adult": false, "overview": "After attending a gathering on a billionaire's yacht during a European vacation, a New York cop and his wife become prime suspects when he's murdered.", "poster_path": "/bSMSO9xupd4R4vwTPqigHn2quLN.jpg", "popularity": 21.778}, {"id": 2022, "video": false, "vote_count": 1312, "vote_average": 5.7, "title": "Mr. Deeds", "release_date": "2002-06-28", "original_language": "en", "original_title": "Mr. Deeds", "genre_ids": [35, 10749], "backdrop_path": "/bDPs32HRBalnN8HyYMH0xoG4VIW.jpg", "adult": false, "overview": "When Longfellow Deeds, a small-town pizzeria owner and poet, inherits $40 billion from his deceased uncle, he quickly begins rolling in a different kind of dough. Moving to the big city, Deeds finds himself besieged by opportunists all gunning for their piece of the pie. Babe, a television tabloid reporter, poses as an innocent small-town girl to do an expos\u00e9 on Deeds.", "poster_path": "/l3hmNjhxmqjXrvGNMMmeOmsyX3r.jpg", "popularity": 13.44}, {"id": 10112, "video": false, "vote_count": 3101, "vote_average": 7.3, "title": "The Aristocats", "release_date": "1970-12-23", "original_language": "en", "original_title": "The Aristocats", "genre_ids": [12, 16, 35, 10751], "backdrop_path": "/fojdVtSsZa7fXyJQ6w1Exw7GWum.jpg", "adult": false, "overview": "When Madame Adelaide Bonfamille leaves her fortune to Duchess and her children\u2014Bonfamille\u2019s beloved family of cats\u2014the butler plots to steal the money and kidnaps the legatees, leaving them out on a country road. All seems lost until the wily Thomas O\u2019Malley Cat and his jazz-playing alley cats come to the aristocats\u2019 rescue.", "poster_path": "/pXHpNfsZXX50vCb7Z39coEJCIka.jpg", "popularity": 21.99}, {"id": 4584, "video": false, "vote_count": 799, "vote_average": 7.4, "title": "Sense and Sensibility", "release_date": "1995-12-13", "original_language": "en", "original_title": "Sense and Sensibility", "genre_ids": [18, 10749], "backdrop_path": "/ocn3pLKJjYmXIP2331pUNC33f5M.jpg", "adult": false, "overview": "Rich Mr. Dashwood dies, leaving his second wife and her daughters poor by the rules of inheritance. Two daughters are the titular opposites.", "poster_path": "/1ryNXjmwdCTqLXxXCG9BGvZyMOH.jpg", "popularity": 13.301}, {"adult": false, "backdrop_path": null, "genre_ids": [35], "id": 289777, "original_language": "en", "original_title": "Where There's a Will", "overview": "A Cockney family inherit a ramshackle Devon farm. The rest of the family don't want to leave London but the father insists and off they go, to face the unknown.", "poster_path": "/vRTwWiMB357WfVnTnTgR76ENPpG.jpg", "release_date": "1955-03-01", "title": "Where There's a Will", "video": false, "vote_average": 6.3, "vote_count": 2, "popularity": 1.4}, {"adult": false, "backdrop_path": "/qQKSFhVDSkdCDpor8TY0DJKzZh.jpg", "genre_ids": [35], "id": 193435, "original_language": "en", "original_title": "High Society", "overview": "Sach receives news that he is the heir to the Terwilliger Debussy Jones fortune. Accompanied by his pal Slip, he arrives at the Jones mansion to review the legal papers needed for him to claim his new fortune. However, Sach and Slip discover that the rightful heir, the young Terwilliger III, is being cheated out his inheritance by the miscreant duo of Stuyvesant Jones and Clarissa. Sach and Slip, with the help of their fellow Bowery Boys, save the day and restore the heir\u2019s inheritance.", "poster_path": "/zwUonHd7UCg46vQzqR8um0jk9ue.jpg", "release_date": "1955-04-17", "title": "High Society", "video": false, "vote_average": 8.0, "vote_count": 1, "popularity": 1.77}, {"id": 6283, "video": false, "vote_count": 641, "vote_average": 6.3, "title": "MouseHunt", "release_date": "1997-12-19", "original_language": "en", "original_title": "MouseHunt", "genre_ids": [35, 10751], "backdrop_path": "/ukwGASVRcZZAZpn2MX71j1s6pyL.jpg", "adult": false, "overview": "Down-on-their luck brothers, Lars and Ernie Smuntz, aren't happy with the crumbling old mansion they inherit... until they discover the estate is worth millions. Before they can cash in, they have to rid the house of it's single, stubborn occupant: a tiny and tenacious mouse.", "poster_path": "/gQ3Nyb3UkRHyuiN96MNmKmREc6F.jpg", "popularity": 14.196}, {"adult": false, "backdrop_path": "/qpBoK7OBUEbNJFaLEnXw0HbaYKS.jpg", "genre_ids": [35], "id": 209244, "original_language": "en", "original_title": "Are You Here", "overview": "When Steve Dallas, a womanizing local weatherman, hears that his off-the-grid best friend Ben Baker has lost his estranged father, the two return to Ben's childhood home. Once there, they discover Ben has inherited the family fortune, and the ill-equipped duo must battle Ben's formidable sister and deal with his father's gorgeous 25-year old widow.", "poster_path": "/jxyeaavDoJbxKkq7peeL0YDBVQs.jpg", "release_date": "2013-09-07", "title": "Are You Here", "video": false, "vote_average": 5.3, "vote_count": 171, "popularity": 13.352}, {"adult": false, "backdrop_path": "/lJfOdg9ZbwplMukH3rN0doVNQhK.jpg", "genre_ids": [14, 35, 878], "id": 11597, "original_language": "en", "original_title": "Toys", "overview": "Leslie Zevo is a fun-loving inventor who must save his late father's toy factory from his evil uncle, Leland, a war-mongering general who rules the operation with an iron fist and builds weapons disguised as toys.", "poster_path": "/l0YBVvOvOxoOkggTZ70tNGvGQo4.jpg", "release_date": "1992-12-18", "title": "Toys", "video": false, "vote_average": 5.2, "vote_count": 310, "popularity": 8.672}, {"adult": false, "backdrop_path": "/bVZNGCXhQMPpCCDr6HaYjqMULck.jpg", "genre_ids": [27, 53], "id": 9378, "original_language": "en", "original_title": "Thir13en Ghosts", "overview": "Arthur and his two children, Kathy and Bobby, inherit his Uncle Cyrus's estate: a glass house that serves as a prison to 12 ghosts. When the family, accompanied by Bobby's Nanny and an attorney, enter the house they find themselves trapped inside an evil machine \"designed by the devil and powered by the dead\" to open the Eye of Hell. Aided by Dennis, a ghost hunter, and his rival Kalina, a ghost rights activist out to set the ghosts free, the group must do what they can to get out of the house alive.", "poster_path": "/s4KZw4vmXfZGbPLBJB7RpWsiUxk.jpg", "release_date": "2001-10-26", "title": "Thir13en Ghosts", "video": false, "vote_average": 5.7, "vote_count": 905, "popularity": 12.899}, {"id": 46738, "video": false, "vote_count": 1163, "vote_average": 8.1, "title": "Incendies", "release_date": "2010-09-04", "original_language": "fr", "original_title": "Incendies", "genre_ids": [18, 9648, 10752], "backdrop_path": "/b7BxW3C4cjVKOlKzFBoMUgyNt6A.jpg", "adult": false, "overview": "A mother's last wishes send twins Jeanne and Simon on a journey to Middle East in search of their tangled roots. Adapted from Wajdi Mouawad's acclaimed play, Incendies tells the powerful and moving tale of two young adults' voyage to the core of deep-rooted hatred, never-ending wars and enduring love.", "poster_path": "/sEUG3qjxwHjxkzuO7plrRHhOZUH.jpg", "popularity": 10.992}, {"adult": false, "backdrop_path": "/jFUIwL30NpIFau25394alOo75PI.jpg", "genre_ids": [53, 27], "id": 340601, "original_language": "en", "original_title": "Delirium", "overview": "A man recently released from a mental institute inherits a mansion after his parents die. After a series of disturbing events, he comes to believe it is haunted.", "poster_path": "/j2jIkjrASnjtwCmCNDwh9LDWvq9.jpg", "release_date": "2018-05-10", "title": "Delirium", "video": false, "vote_average": 5.5, "vote_count": 116, "popularity": 14.409}, {"id": 449755, "video": false, "vote_count": 555, "vote_average": 6.5, "title": "Christmas Inheritance", "release_date": "2017-12-15", "original_language": "en", "original_title": "Christmas Inheritance", "genre_ids": [10749], "backdrop_path": "/w1JmwP9Xpr8XzdaGLXZnkRSaWAo.jpg", "adult": false, "overview": "To inherit her father's company, socialite Ellen must first visit his small hometown, where she learns the value of hard work and helping others.", "poster_path": "/sqdbF40nBzS2IZVAGPxJT7loxoM.jpg", "popularity": 15.785}, {"adult": false, "backdrop_path": "/zgje3B9nJhoYBM7oAvMKzaw4CS2.jpg", "genre_ids": [35, 10749], "id": 2020, "original_language": "en", "original_title": "The Bachelor", "overview": "Jimmie is seeing his single friends get married one by one. He isn't too worried until his girlfriend Anne catches the bouquet at his friend Marco's wedding. Suddenly, his wild mustang days are numbered. He finally decides to propose to her, but he sticks his foot in his mouth and botches the proposal. Being insulted by the defeatist proposal, Anne leaves town on an assignment. After she's gone, he finds out that his recently-deceased grandfather's will stipulates that he gets nothing of a multi-million dollar fortune unless he's married by 6:05pm on his 30th birthday: tomorrow! Not being able to find Anne, Jimmie begins backtracking through his past girlfriends to find a wife.", "poster_path": "/oVF3m29gJRI59VVtBTLiTsWU5cp.jpg", "release_date": "1999-11-05", "title": "The Bachelor", "video": false, "vote_average": 4.9, "vote_count": 163, "popularity": 9.758}, {"id": 331392, "video": false, "vote_count": 103, "vote_average": 5.0, "title": "Eloise", "release_date": "2017-02-03", "original_language": "en", "original_title": "Eloise", "genre_ids": [27, 9648, 53], "backdrop_path": "/uR7qTaYmPbQrnLkbAJLjszuMwLo.jpg", "adult": false, "overview": "Four friends break into an abandoned insane asylum in search of a death certificate which will grant one of them a large inheritance. However, finding it soon becomes the least of their worries in a place haunted by dark memories.", "poster_path": "/mvjzPdvobEhLLqtmFNADEl1xPrF.jpg", "popularity": 10.298}, {"adult": false, "backdrop_path": "/uMarY1dlP7WmpFHdtX0zgfdNwUy.jpg", "genre_ids": [35], "id": 35185, "original_language": "en", "original_title": "The Smallest Show on Earth", "overview": "Jean and Bill are a married couple trying to scrape a living. Out of the blue they receive a telegram informing them Bill's long-lost uncle has died and left them his business\u2014a cinema in the town of Sloughborough. Unfortunately they can't sell it for the fortune they hoped as they discover it is falling down and almost worthless.", "poster_path": "/epQZGlatIZvtJPAsfLJ8jOxFBNg.jpg", "release_date": "1957-04-09", "title": "The Smallest Show on Earth", "video": false, "vote_average": 7.2, "vote_count": 12, "popularity": 5.213}, {"id": 388440, "video": false, "vote_count": 87, "vote_average": 4.2, "title": "The Curse of Sleeping Beauty", "release_date": "2016-05-05", "original_language": "en", "original_title": "The Curse of Sleeping Beauty", "genre_ids": [14, 27, 9648, 878, 53], "backdrop_path": "/4cxxnXQyTu4hHQpJsxU9FcT8vDy.jpg", "adult": false, "overview": "Thomas Kaiser inherits an ancestral mansion that has been in his family for generations \u2014 only to learn that he has also inherited an ancient curse stemming back to the Crusades. Forced into his new role as \u201cprotector\u201d \u2014 the guardian appointed to keep the evil demons in the house at bay \u2014 Thomas teams with an ambitious local realtor and paranormal cleric to unravel the mystery of the house, while struggling to awaken the beautiful Briar Rose, held captive in a terrifying netherworld seen previously in his dreams.", "poster_path": "/pc03N6C1TeNcKcvngrrsb9Q2FFO.jpg", "popularity": 10.164}, {"adult": false, "backdrop_path": "/zA1Tv2C2wXeDSWfn3S8XdElqDFG.jpg", "genre_ids": [35, 18], "id": 37265, "original_language": "it", "original_title": "Cos\u00ec fan tutte", "overview": "Diana is a Roman wife happily married to sympathetic Paolo but she is keen on playing benign games of seduction with other men while resisting the advances of chic lingerie shop owner Silvio. She narrates her adventures to Paolo in order to stimulate their otherwise monotonous sexual life. However, under the influence of her lesbian friend Antonietta and raunchy sister Nadia, Diana starts to move the ongoings further while Paolo is still prone to believing that events narrated by her are merely fantasies.", "poster_path": "/h5xsSUCkXCd0696K5A9hkmgaERE.jpg", "release_date": "1992-02-21", "title": "All Ladies Do It", "video": false, "vote_average": 4.2, "vote_count": 207, "popularity": 9.519}, {"id": 5991, "video": false, "vote_count": 123, "vote_average": 7.8, "title": "The Last Laugh", "release_date": "1924-12-23", "original_language": "de", "original_title": "Der letzte Mann", "genre_ids": [18], "backdrop_path": "/oxtR7DxzQcwu9wAb2mglLD0gobh.jpg", "adult": false, "overview": "An aging doorman, after being fired from his prestigious job at a luxurious Hotel is forced to face the scorn of his friends, neighbours and society.", "poster_path": "/r1BZyJbBGNCJ7kRRevLsGDlMZmQ.jpg", "popularity": 7.501}], "total_pages": 11, "total_results": 220}, "recommendations": {"page": 1, "results": [{"adult": false, "backdrop_path": "/pyne43WulZjidsKuNFmqUtZPo0U.jpg", "genre_ids": [18], "id": 52748, "original_language": "en", "original_title": "The Skin Game", "overview": "An old traditional family and a modern family battle over land in a small English village and almost destroy each other.", "poster_path": "/oIAqrTSB42jWNlbW8Q5SLYwhO4Z.jpg", "release_date": "1931-02-26", "title": "The Skin Game", "video": false, "vote_average": 5.1, "vote_count": 25, "popularity": 3.612}, {"id": 36055, "video": false, "vote_count": 26, "vote_average": 5.5, "title": "Easy Virtue", "release_date": "1928-03-05", "original_language": "en", "original_title": "Easy Virtue", "genre_ids": [18, 53], "backdrop_path": "/xV8MSLYxyjTX0L1jeCOhGMsDsmX.jpg", "adult": false, "overview": "Larita Filton is named as correspondent in a scandalous divorce case. She escapes to France to rebuild her life where she meets John Whittaker. They are later married, but John's well-to-do family finds out Larita's secret.", "poster_path": "/blrQSfCOBJAKxWptjRnVI3AYvH2.jpg", "popularity": 4.102}, {"id": 31930, "video": false, "vote_count": 42, "vote_average": 6.2, "title": "Murder!", "release_date": "1930-07-31", "original_language": "en", "original_title": "Murder!", "genre_ids": [80, 9648, 53], "backdrop_path": "/hDl7ONvoYyzClcKlGoQFrS0LWna.jpg", "adult": false, "overview": "When a woman is convicted of murder, one of the jurors selected to serve on the murder-trial jury believes the accused, an aspiring actress, is innocent of the crime and takes it upon himself to apprehend the real killer.", "poster_path": "/xnxsea6yRsLYaE69sPy69fjhDbi.jpg", "popularity": 4.0}, {"id": 15007, "video": false, "vote_count": 40, "vote_average": 5.7, "title": "Number Seventeen", "release_date": "1932-07-18", "original_language": "en", "original_title": "Number Seventeen", "genre_ids": [80, 9648, 53], "backdrop_path": "/5cFtPfrPfWSXvNM7GHisojqUz2l.jpg", "adult": false, "overview": "A gang of thieves gather at a safe house following a robbery, but a detective is on their trail.", "poster_path": "/iLCy8ca0xfZNwCU23nEWfLFVOA5.jpg", "popularity": 4.577}, {"adult": false, "backdrop_path": "/tH9ZSvUyzjKfCeobbB3qSBXg6s7.jpg", "genre_ids": [18], "id": 20213, "original_language": "en", "original_title": "The Manxman", "overview": "A fisherman and a rising lawyer who grew up as brothers fall in love with the same woman.", "poster_path": "/6cpyL7msoojckIUmGPXkj7PPWJe.jpg", "release_date": "1929-01-21", "title": "The Manxman", "video": false, "vote_average": 6.0, "vote_count": 23, "popularity": 4.569}, {"id": 2761, "video": false, "vote_count": 55, "vote_average": 6.4, "title": "Secret Agent", "release_date": "1936-05-31", "original_language": "en", "original_title": "Secret Agent", "genre_ids": [53], "backdrop_path": "/4mI1v46sBrbAjzQtl1HMLCxvdCe.jpg", "adult": false, "overview": "After three British agents are assigned to assassinate a mysterious German spy during World War I, two of them become ambivalent when their duty to the mission conflicts with their consciences.", "poster_path": "/i1LsfCAuZWZsI5S5ewvQ3RCrXOc.jpg", "popularity": 5.991}, {"id": 36054, "video": false, "vote_count": 27, "vote_average": 5.5, "title": "Champagne", "release_date": "1928-08-19", "original_language": "en", "original_title": "Champagne", "genre_ids": [35], "backdrop_path": "/vBBbKVyw66ITZT271qS9GnOwIhw.jpg", "adult": false, "overview": "Betty, rebellious daughter of a millionaire, decides to marry the pennyless Jean, against her father's will. She runs away to France and she starts living a life of luxury on the profits from her father's business. The rich man decides to put a stop to her behavior pretending his business crashed. Betty now has to find money by herself and she gets a job in a night club.", "poster_path": "/uQ4J0umdET3WHPHd6VsDpIoddnx.jpg", "popularity": 3.929}, {"id": 36056, "video": false, "vote_count": 36, "vote_average": 6.0, "title": "The Ring", "release_date": "1927-10-01", "original_language": "en", "original_title": "The Ring", "genre_ids": [18], "backdrop_path": "/3bB3bPZ4PfetntLLd5K1zu6DgJP.jpg", "adult": false, "overview": "Both Jack Sander and Bob Corby are boxers in love with Mabel. Jack and Mabel wed, but their marriage is flat. The young wife looks to Bob for comfort.", "poster_path": "/gQRoIfnyWbBtMjLqbDY0wPulBfX.jpg", "popularity": 5.445}, {"adult": false, "backdrop_path": "/rkgQ0Abo9x5dEvIHZLlZ8DxVD68.jpg", "genre_ids": [10402, 10749, 18], "id": 52907, "original_language": "en", "original_title": "Waltzes from Vienna", "overview": "The story of Johann Strauss the elder and younger.", "poster_path": "/jnXsVjBSfcgRxFOmxZpbwCe2Mrg.jpg", "release_date": "1934-03-15", "title": "Waltzes from Vienna", "video": false, "vote_average": 5.5, "vote_count": 15, "popularity": 2.616}, {"adult": false, "backdrop_path": "/wXk3CKiwdEvAPWzXh80fPLndGP1.jpg", "genre_ids": [18], "id": 47695, "original_language": "en", "original_title": "Juno and the Paycock", "overview": "During the Irish revolution, a family earns a big inheritance. They start leading a rich life forgetting what the most important values of are. At the end, they discover they will not receive that inheritance; the family is destroyed and penniless. They must sell their home and start living like vagabonds.", "poster_path": "/lGsScGu3pktbddUApGfLp0m6I9G.jpg", "release_date": "1930-06-29", "title": "Juno and the Paycock", "video": false, "vote_average": 5.0, "vote_count": 15, "popularity": 4.115}, {"adult": false, "backdrop_path": "/kQSyHdO0XxO7wqRAwnDv0qyqYaC.jpg", "genre_ids": [18, 36, 10749], "id": 148675, "original_language": "en", "original_title": "Suez", "overview": "Ferdinand de Lesseps, disappointed in love, is sent as a junior diplomat to the Isthmus of Suez, and realizes it's just the place for a canal.", "poster_path": "/cBMgf5cIBIYuHvCuOVQN7TXDECS.jpg", "release_date": "1938-10-28", "title": "Suez", "video": false, "vote_average": 4.2, "vote_count": 5, "popularity": 4.723}, {"adult": false, "backdrop_path": "/xUU9qPlz6KWYgFeoapKI3svq53O.jpg", "genre_ids": [37], "id": 121703, "original_language": "en", "original_title": "Cattle Queen of Montana", "overview": "Sierra Nevada Jones must fight a villainous rancher to regain the land that is rightfully hers.", "poster_path": "/fcfXgvbeO8WEHIFzQsu3Wa2Pb7t.jpg", "release_date": "1954-11-18", "title": "Cattle Queen of Montana", "video": false, "vote_average": 4.8, "vote_count": 8, "popularity": 3.569}, {"adult": false, "backdrop_path": "/juw9K7Cld2beLjngYgWEZZ9MJbS.jpg", "genre_ids": [80, 18, 9648, 53], "id": 45215, "original_language": "en", "original_title": "Swamp Water", "overview": "A hunter happens upon a fugitive and his daughter living in a Georgia swamp. He falls in love with the girl and persuades the fugitive to return to town.", "poster_path": "/dq0mA3QabWcxrCbzYmwzWAqRuJf.jpg", "release_date": "1941-11-16", "title": "Swamp Water", "video": false, "vote_average": 6.0, "vote_count": 19, "popularity": 4.582}, {"adult": false, "backdrop_path": "/2ZXdyt1zjxI9VACaJ34wjGgy1ES.jpg", "genre_ids": [35, 18], "id": 35832, "original_language": "en", "original_title": "The Farmer's Wife", "overview": "Successful middle-aged farmer Samuel Sweetland becomes widowed, then his daughter marries and leaves home. Deciding he wishes to remarry, Sweetland pursues some local women he considers prospects.", "poster_path": "/hs5z3ZeUc7VXmdhkliM1nGn6d5z.jpg", "release_date": "1928-03-02", "title": "The Farmer's Wife", "video": false, "vote_average": 5.9, "vote_count": 28, "popularity": 4.96}, {"adult": false, "backdrop_path": "/curcRhqCbb2rKF8XnpGRTe1DEbP.jpg", "genre_ids": [10752], "id": 48140, "original_language": "en", "original_title": "Bon Voyage", "overview": "A young Scottish RAF gunner is debriefed by French officials about his escape from NAZI occupied territory and they are particularly interested in one person who may or may not have been a German agent.", "poster_path": "/3TFHth4jy9c1oyjTTlQecFZnI2Q.jpg", "release_date": "1944-01-01", "title": "Bon Voyage", "video": false, "vote_average": 5.8, "vote_count": 32, "popularity": 3.871}, {"adult": false, "backdrop_path": "/9kW0GGOeqqkLjRXKGAj6Ft702sh.jpg", "genre_ids": [35], "id": 55773, "original_language": "en", "original_title": "Man on the Flying Trapeze", "overview": "Hard-working, henpecked Ambrose Ambrose Wolfinger takes off from work to go to a wrestling match with catastrophic consequences.", "poster_path": "/6grffxtyIcxRAHBEHhDPCqrZBL5.jpg", "release_date": "1935-08-03", "title": "Man on the Flying Trapeze", "video": false, "vote_average": 4.3, "vote_count": 3, "popularity": 2.071}, {"adult": false, "backdrop_path": "/yN3kbeN9TWkqSmWB0MU8OFtnlS.jpg", "genre_ids": [18, 36, 10749], "id": 30630, "original_language": "en", "original_title": "Conquest", "overview": "A polish countess becomes Napoleon Bonaparte's mistress at the urging of Polish leaders, who feel she might influence him to make Poland independent.", "poster_path": "/oC3sEbkPhBFFrmycOqWHBGqaQGN.jpg", "release_date": "1937-10-22", "title": "Conquest", "video": false, "vote_average": 6.8, "vote_count": 10, "popularity": 4.532}, {"adult": false, "backdrop_path": "/sswF1zsKgdzael5CHZCQAq7kvnK.jpg", "genre_ids": [35], "id": 43688, "original_language": "en", "original_title": "The Old Fashioned Way", "overview": "The Great McGonigle and his troupe of third-rate vaudevillians manage to stay one step ahead of the bill collectors and the sheriff.", "poster_path": "/5Q6KtjhCzQ7rjkoM8xQ1dc2Dq7M.jpg", "release_date": "1934-07-13", "title": "The Old Fashioned Way", "video": false, "vote_average": 9.0, "vote_count": 2, "popularity": 1.587}, {"adult": false, "backdrop_path": "/cQTVCCldyXEMpH40IckxYMpShqB.jpg", "genre_ids": [18, 35], "id": 75880, "original_language": "en", "original_title": "Belle of the Nineties", "overview": "Mae West, full of bosom and double entendre, wrote this lightweight saga of multiple loves which appears in a lavish (for 1934) production featuring songs backed by Duke Ellington.", "poster_path": "/2zWIRFn2cFB9FQU12OFB4pPTbp3.jpg", "release_date": "1934-09-21", "title": "Belle of the Nineties", "video": false, "vote_average": 6.8, "vote_count": 3, "popularity": 2.946}, {"adult": false, "backdrop_path": "/k5OARgb6M8BBGTgx47Osoud9J6Z.jpg", "genre_ids": [10752], "id": 48133, "original_language": "fr", "original_title": "Aventure Malgache", "overview": "The Moliere players are in their dressing room getting ready to go on set. One actor mentions to another that his face reminds him of an opportunist turncoat he once knew when he was in the Resistance in France. He relates the adventure that he had in the Resistance - running an illegal radio station and dodging the Nazis.", "poster_path": "/59aHxiBWsYGgIgsx66XLEuyWlV9.jpg", "release_date": "1944-01-01", "title": "Aventure Malgache", "video": false, "vote_average": 5.6, "vote_count": 24, "popularity": 3.41}], "total_pages": 2, "total_results": 40}, "credits": {"cast": [{"cast_id": 2, "character": "Fred Hill", "credit_id": "52fe45c99251416c9103e5cb", "gender": 2, "id": 114768, "name": "Henry Kendall", "order": 0, "profile_path": "/dT1X8mpKlB27hrLhafzdEoGmUYs.jpg"}, {"cast_id": 3, "character": "Emily Hill", "credit_id": "52fe45c99251416c9103e5cf", "gender": 1, "id": 115153, "name": "Joan Barry", "order": 1, "profile_path": "/ytLF5h5CPeWA9VcfP9RFwEXVgIl.jpg"}, {"cast_id": 8, "character": "Commander Gordon", "credit_id": "52fe45c99251416c9103e5eb", "gender": 2, "id": 27929, "name": "Percy Marmont", "order": 2, "profile_path": "/p3DIyvlxx6B0SVIxcDaPUPlEV0U.jpg"}, {"cast_id": 9, "character": "The Princess", "credit_id": "52fe45c99251416c9103e5ef", "gender": 1, "id": 222671, "name": "Betty Amann", "order": 3, "profile_path": "/ggAZUi7OV019dysiER3UTVxFk35.jpg"}, {"cast_id": 10, "character": "The Old Maid", "credit_id": "52fe45c99251416c9103e5f3", "gender": 1, "id": 40966, "name": "Elsie Randolph", "order": 4, "profile_path": "/8NQehJNb2hL1gVvwrgd1rA8XzzS.jpg"}, {"cast_id": 11, "character": "Colonel (uncredited)", "credit_id": "52fe45c99251416c9103e5f7", "gender": 0, "id": 554106, "name": "Aubrey Dexter", "order": 5, "profile_path": null}, {"cast_id": 12, "character": "Mrs. Porter (uncredited)", "credit_id": "52fe45c99251416c9103e5fb", "gender": 0, "id": 553486, "name": "Hannah Jones", "order": 6, "profile_path": null}], "crew": [{"credit_id": "52fe45c99251416c9103e5c7", "department": "Directing", "gender": 2, "id": 2636, "job": "Director", "name": "Alfred Hitchcock", "profile_path": "/rKYyX58azJv1SZNXQWOJyNyvB9F.jpg"}, {"credit_id": "52fe45c99251416c9103e5d5", "department": "Writing", "gender": 2, "id": 2636, "job": "Adaptation", "name": "Alfred Hitchcock", "profile_path": "/rKYyX58azJv1SZNXQWOJyNyvB9F.jpg"}, {"credit_id": "52fe45c99251416c9103e5db", "department": "Writing", "gender": 2, "id": 554105, "job": "Novel", "name": "Dale Collins", "profile_path": null}, {"credit_id": "52fe45c99251416c9103e5e1", "department": "Writing", "gender": 1, "id": 3681, "job": "Writer", "name": "Alma Reville", "profile_path": null}, {"credit_id": "52fe45c99251416c9103e5e7", "department": "Writing", "gender": 2, "id": 96377, "job": "Writer", "name": "Val Valentine", "profile_path": null}, {"credit_id": "52fe45c99251416c9103e601", "department": "Production", "gender": 2, "id": 7385, "job": "Producer", "name": "John Maxwell", "profile_path": null}, {"credit_id": "52fe45c99251416c9103e607", "department": "Sound", "gender": 0, "id": 553845, "job": "Original Music Composer", "name": "Adolph Hallis", "profile_path": null}, {"credit_id": "52fe45c99251416c9103e619", "department": "Editing", "gender": 0, "id": 554108, "job": "Editor", "name": "Winifred Cooper", "profile_path": null}, {"credit_id": "52fe45c99251416c9103e61f", "department": "Editing", "gender": 0, "id": 553480, "job": "Editor", "name": "Rene Marrison", "profile_path": null}, {"credit_id": "52fe45c99251416c9103e625", "department": "Art", "gender": 0, "id": 7388, "job": "Art Direction", "name": "C. Wilfred Arnold", "profile_path": null}, {"credit_id": "5319ce3092514177c20026db", "department": "Camera", "gender": 2, "id": 7386, "job": "Director of Photography", "name": "Jack E. Cox", "profile_path": null}, {"credit_id": "5319ce4092514177b7002791", "department": "Camera", "gender": 0, "id": 554107, "job": "Director of Photography", "name": "Charles Martin", "profile_path": null}]}}