{"adult": false, "backdrop_path": "/7Y9SS9Jq9jE7lqCoCx4HNXjKuGI.jpg", "belongs_to_collection": null, "budget": 0, "genres": [{"id": 18, "name": "Drama"}], "homepage": "https://www.facebook.com/El-acompa%C3%B1ante-Film-1641703029375754/timeline/", "id": 361076, "imdb_id": "tt5095010", "original_language": "es", "original_title": "El acompa\u00f1ante", "overview": "At the height of the 1980s AIDS epidemic, Cuban boxing champion Horacio's punishment for failing a drug test is to watch over the brash, combative Daniel, a patient in a sanatorium where HIV patients are compulsorily confined. The two collide as Daniel yearns for freedom while Horacio dreams of returning to the ring.", "popularity": 0.976, "poster_path": "/37vK9XqU2VuBFeVK0dX5437EhcQ.jpg", "production_companies": [], "production_countries": [{"iso_3166_1": "PA", "name": "Panama"}, {"iso_3166_1": "CU", "name": "Cuba"}], "release_date": "2016-03-11", "revenue": 0, "runtime": 104, "spoken_languages": [{"iso_639_1": "es", "name": "Espa\u00f1ol"}], "status": "Released", "tagline": "In the 80's, when fear spread faster than HIV, Cuba confined the epidemic behind a wall", "title": "The Companion", "video": false, "vote_average": 5.8, "vote_count": 2, "keywords": {"keywords": [{"id": 237, "name": "gay"}, {"id": 701, "name": "cuba"}, {"id": 740, "name": "aids"}]}, "similar": {"page": 1, "results": [{"id": 449176, "video": false, "vote_count": 3691, "vote_average": 8.1, "title": "Love, Simon", "release_date": "2018-02-16", "original_language": "en", "original_title": "Love, Simon", "genre_ids": [35, 18, 10749], "backdrop_path": "/rqMEeajyzSF4PpJtdCB816Iz8Vr.jpg", "adult": false, "overview": "Everyone deserves a great love story. But for seventeen-year old Simon Spier it's a little more complicated: he's yet to tell his family or friends he's gay and he doesn't know the identity of the anonymous classmate he's fallen for online.", "poster_path": "/5YUYg5q7QfC4IoNwNUtiwdiYKPr.jpg", "popularity": 17.201}, {"id": 21634, "video": false, "vote_count": 250, "vote_average": 7.9, "title": "Prayers for Bobby", "release_date": "2009-02-27", "original_language": "en", "original_title": "Prayers for Bobby", "genre_ids": [18, 36, 10770], "backdrop_path": "/pSjGsbqyKUzF8rHzL0vtVWV1pS6.jpg", "adult": false, "overview": "Bobby Griffith was his mother's favorite son, the perfect all-American boy growing up under deeply religious influences in Walnut Creek, California. Bobby was also gay. Struggling with a conflict no one knew of much less understood Bobby finally came out to his family.", "poster_path": "/d9TGJxEMkLTEF5lWAx1PLNDNpA0.jpg", "popularity": 9.034}, {"adult": false, "backdrop_path": "/qs4P8THxjbMZYc9QuZvzN95KzBM.jpg", "genre_ids": [18, 53, 9648], "id": 184352, "original_language": "fr", "original_title": "Tom \u00e0 la ferme", "overview": "A young man travels to an isolated farm for his lover's funeral where he's quickly drawn into a twisted, sexually charged game by his lover's aggressive brother.", "poster_path": "/wS4oYOHEKva9sMLOHSr7tW19SaQ.jpg", "release_date": "2013-09-02", "title": "Tom at the Farm", "video": false, "vote_average": 6.9, "vote_count": 408, "popularity": 7.884}, {"adult": false, "backdrop_path": "/qbrmEfBEcdrzHSAHgazJWmz3TSU.jpg", "genre_ids": [18], "id": 616229, "original_language": "en", "original_title": "The Male Gaze: The Heat of the Night", "overview": "When darkness falls, temperatures rise in these six stories about late night confessions, intimacy for sale, high speed hookups and full moon frissons. But when the sun comes up and reality reveals itself, will it have all been worth it?", "poster_path": "/e1gNLO829rkE73sBJ3aClZJHNXd.jpg", "release_date": "2019-07-15", "title": "The Male Gaze: The Heat of the Night", "video": false, "vote_average": 3.3, "vote_count": 3, "popularity": 7.834}, {"id": 424694, "video": false, "vote_count": 9728, "vote_average": 8.0, "title": "Bohemian Rhapsody", "release_date": "2018-10-24", "original_language": "en", "original_title": "Bohemian Rhapsody", "genre_ids": [18, 10402], "backdrop_path": "/93xA62uLd5CwMOAs37eQ7vPc1iV.jpg", "adult": false, "overview": "Singer Freddie Mercury, guitarist Brian May, drummer Roger Taylor and bass guitarist John Deacon take the music world by storm when they form the rock 'n' roll band Queen in 1970. Hit songs become instant classics. When Mercury's increasingly wild lifestyle starts to spiral out of control, Queen soon faces its greatest challenge yet \u2013 finding a way to keep the band together amid the success and excess.", "poster_path": "/lHu1wtNaczFPGFDTrjCSzeLPTKN.jpg", "popularity": 37.217}, {"adult": false, "backdrop_path": "/6VhtzImP1UvYkIAHS4L8yfmceOM.jpg", "genre_ids": [18], "id": 26280, "original_language": "fr", "original_title": "J'ai tu\u00e9 ma m\u00e8re", "overview": "Hubert, a brash 17-year-old, is confused and torn by a love-hate relationship with his mother that consumes him more and more each day. After distressing ordeals and tragic episodes, Hubert will find his mother on the banks of Saint Lawrence river, where he grew up, and where a murder will be committed: the murder of childhood.", "poster_path": "/cxb02CLALt9He1Dt0BIDKj9fdvM.jpg", "release_date": "2009-06-05", "title": "I Killed My Mother", "video": false, "vote_average": 7.7, "vote_count": 655, "popularity": 11.451}, {"adult": false, "backdrop_path": "/18gOtyF5oKm6VOZYGEPINliFOm7.jpg", "genre_ids": [18], "id": 502220, "original_language": "en", "original_title": "1985", "overview": "Having been gone for three years, closeted advertising executive Adrian returns to his Texas hometown and struggles to reveal his dire circumstances to his conservative family.", "poster_path": "/mV7QRq3nI238vxlbyXRYFQKfbyL.jpg", "release_date": "2018-10-26", "title": "1985", "video": false, "vote_average": 6.7, "vote_count": 12, "popularity": 3.794}, {"id": 9800, "video": false, "vote_count": 2301, "vote_average": 7.7, "title": "Philadelphia", "release_date": "1993-12-22", "original_language": "en", "original_title": "Philadelphia", "genre_ids": [18], "backdrop_path": "/eRlkgrUeaX8LsVMjqN9f6YYw9Dw.jpg", "adult": false, "overview": "Two competing lawyers join forces to sue a prestigious law firm for AIDS discrimination. As their unlikely friendship develops their courage overcomes the prejudice and corruption of their powerful adversaries.", "poster_path": "/nE9DLSKHDmfG7FvYvDW437n8txq.jpg", "popularity": 12.47}, {"adult": false, "backdrop_path": "/qWZSYN2tBoZdUY9NDdvSKQ6OH4u.jpg", "genre_ids": [18], "id": 377154, "original_language": "fr", "original_title": "Quand on a 17 Ans", "overview": "Set in the beautiful high Pyrenees in south-west France, Damien lives with his mother Marianne, a doctor, while his father, a pilot, is on a tour of duty abroad with the French military. At school, Damien is bullied by Thomas,  who lives in the farming community up in the mountains, nut learns to fight back. The boys find themselves living together when Marianne invites Thomas to come and stay with them while his mother is ill in hospital. Damien must learn to live with the boy who terrorised him.", "poster_path": "/ogfzBX1iNzgaCBTmRRf6c69L19k.jpg", "release_date": "2016-02-27", "title": "Being 17", "video": false, "vote_average": 6.9, "vote_count": 210, "popularity": 6.56}, {"id": 113833, "video": false, "vote_count": 608, "vote_average": 8.0, "title": "The Normal Heart", "release_date": "2014-05-25", "original_language": "en", "original_title": "The Normal Heart", "genre_ids": [18], "backdrop_path": "/i5r9aTDKo1y6paUX1PHsPhZstZk.jpg", "adult": false, "overview": "The story of the onset of the HIV-AIDS crisis in New York City in the early 1980s, taking an unflinching look at the nation's sexual politics as gay activists and their allies in the medical community fight to expose the truth about the burgeoning epidemic to a city and nation in denial.", "poster_path": "/fIf4nLpWHK8BsbH76fPgMbLSjuU.jpg", "popularity": 10.451}, {"adult": false, "backdrop_path": "/ztD8x6kFrhyPIrdbEqWkxwKEgzv.jpg", "genre_ids": [80, 18], "id": 383526, "original_language": "es", "original_title": "Nunca vas a estar solo", "overview": "Introverted Juan, manager of a mannequin factory, lives alone with his eighteen-year-old gay son, Pablo. Whilst Pablo blithely studies dance, Juan is hoping that, after twenty-five years at the firm, his boss will consider him for a partnership. When Pablo is badly wounded in a brutal homophobic attack which sees him hospitalised, his father realises just how far they have become estranged. A lack of witnesses and expensive medical bills force Juan to leave the quiet stability of his life for good and reposition himself in a world where there is discrimination. Time and again his efforts come to nought, until one night on the streets of Santiago he makes up his own rules in order to save his son.", "poster_path": "/lGReDf0NnrAbdXaU1SbFyKnJJH4.jpg", "release_date": "2016-02-13", "title": "You'll Never Be Alone", "video": false, "vote_average": 7.1, "vote_count": 17, "popularity": 2.412}, {"adult": false, "backdrop_path": "/4NJplkljN06NQLMLSUNmrIsBjBZ.jpg", "genre_ids": [35, 18], "id": 400547, "original_language": "en", "original_title": "Hurricane Bianca", "overview": "Hurricane Bianca is a revenge comedy about a New York teacher who moves to a small town in Texas, gets fired for being gay, and returns disguised in drag to get revenge on the people who were nasty to him.", "poster_path": "/w1QM09R1TqwHTb5UA8X8jR2yh4x.jpg", "release_date": "2016-06-03", "title": "Hurricane Bianca", "video": false, "vote_average": 6.2, "vote_count": 212, "popularity": 9.77}, {"adult": false, "backdrop_path": "/sZo96MCFy4yFaJFKIfj4hbyvTci.jpg", "genre_ids": [18, 10749], "id": 26371, "original_language": "en", "original_title": "Maurice", "overview": "After his lover rejects him, a young man trapped by the oppressiveness of Edwardian society tries to come to terms with and accept his sexuality.", "poster_path": "/4MI2y8XViPrDiKs1p0QC4bTeZzf.jpg", "release_date": "1987-08-21", "title": "Maurice", "video": false, "vote_average": 7.6, "vote_count": 161, "popularity": 11.282}, {"adult": false, "backdrop_path": "/r3DKR4VybkjYP2w4wYFIf2cEPc.jpg", "genre_ids": [10749, 18], "id": 322127, "original_language": "de", "original_title": "You & I", "overview": "Summer in Berlin. Jonas is planning a trip through the little known area of the Uckermark in preparation for a photography project. He invites his best friend, Phillip, to come along. When they pick up a hitchhiker named Boris, the friendship of the two starts to fray. Maybe three\u2019s a crowd after all? By the end of the summer, things between Jonas and Phillip won\u2019t ever be the same again.", "poster_path": "/59OmxhLZVh3ZXLAu6iaywYYx01S.jpg", "release_date": "2015-09-16", "title": "You & I", "video": false, "vote_average": 7.4, "vote_count": 22, "popularity": 5.241}, {"id": 10139, "video": false, "vote_count": 1269, "vote_average": 7.3, "title": "Milk", "release_date": "2008-11-05", "original_language": "en", "original_title": "Milk", "genre_ids": [18, 36], "backdrop_path": "/i8NcYenVqMzB95pVz8YOPIqmGj8.jpg", "adult": false, "overview": "The true story of Harvey Milk, the first openly gay man ever elected to public office. In San Francisco in the late 1970s, Harvey Milk becomes an activist for gay rights and inspires others to join him in his fight for equal rights that should be available to all Americans.", "poster_path": "/aTbhbnq9YnKJM6wGIiedfJaoV6m.jpg", "popularity": 13.064}, {"adult": false, "backdrop_path": "/useuHJQ5HOoEWkAvEjL1FW1sUfe.jpg", "genre_ids": [18], "id": 376867, "original_language": "en", "original_title": "Moonlight", "overview": "The tender, heartbreaking story of a young man\u2019s struggle to find himself, told across three defining chapters in his life as he experiences the ecstasy, pain, and beauty of falling in love, while grappling with his own sexuality.", "poster_path": "/qAwFbszz0kRyTuXmMeKQZCX3Q2O.jpg", "release_date": "2016-10-21", "title": "Moonlight", "video": false, "vote_average": 7.4, "vote_count": 4410, "popularity": 21.716}, {"adult": false, "backdrop_path": "/cLOekK7EmHB1beYUYEXIlcr6mpS.jpg", "genre_ids": [10752, 36, 28, 12, 18, 10749], "id": 1966, "original_language": "en", "original_title": "Alexander", "overview": "Alexander, the King of Macedonia, leads his legions against the giant Persian Empire. After defeating the Persians, he leads his army across the then known world, venturing farther than any westerner had ever gone, all the way to India.", "poster_path": "/cJrnmbsFm5cEt0pHZZ2a1ueH5aT.jpg", "release_date": "2004-11-21", "title": "Alexander", "video": false, "vote_average": 5.8, "vote_count": 1989, "popularity": 29.042}, {"adult": false, "backdrop_path": "/1Z53X8Rj7ebuIUHU0XqizkFMPOK.jpg", "genre_ids": [18, 10749], "id": 17483, "original_language": "en", "original_title": "Shelter", "overview": "Forced to give up his dreams of art school, Zach works dead-end jobs to support his sister and her son. Questioning his life, he paints, surfs and hangs out with his best friend, Gabe. When Gabe's older brother returns home for the summer, Zach suddenly finds himself drawn into a relationship he didn't expect.", "poster_path": "/auMRglisVmM01BRGAWCjv7AuUeE.jpg", "release_date": "2007-06-16", "title": "Shelter", "video": false, "vote_average": 7.7, "vote_count": 249, "popularity": 11.276}, {"adult": false, "backdrop_path": "/nEug8rlR13l1vkSUpeCkE5J3QrZ.jpg", "genre_ids": [18, 10749], "id": 4369, "original_language": "en", "original_title": "Juste une question d'amour", "overview": "After his gay cousin dies from hepatitis, young Laurent, who lives with his best friend Carole, falls in love with Cedric, a plant scientist. He's afraid to inform his conservative parents that he is gay.", "poster_path": "/c4dP2ZMjAGTquCS0kNkfN9q1wMv.jpg", "release_date": "2000-01-01", "title": "Just a Question of Love", "video": false, "vote_average": 7.7, "vote_count": 59, "popularity": 8.298}, {"id": 152532, "video": false, "vote_count": 5383, "vote_average": 7.9, "title": "Dallas Buyers Club", "release_date": "2013-11-17", "original_language": "en", "original_title": "Dallas Buyers Club", "genre_ids": [18, 36], "backdrop_path": "/3hGRV0xR11aUxCGAJ52F8MTxrno.jpg", "adult": false, "overview": "Loosely based on the true-life tale of Ron Woodroof, a drug-taking, women-loving, homophobic man who in 1986 was diagnosed with HIV/AIDS and given thirty days to live.", "poster_path": "/nxJFUxDRP9qQCiyD5sH24N5SCSu.jpg", "popularity": 15.89}], "total_pages": 181, "total_results": 3602}, "recommendations": {"page": 1, "results": [], "total_pages": 1, "total_results": 0}, "credits": {"cast": [{"cast_id": 1, "character": "Horacio Romero", "credit_id": "5798a09c92514141a3005d31", "gender": 0, "id": 1240266, "name": "Yotuel Romero", "order": 1, "profile_path": null}, {"cast_id": 2, "character": "Daniel (as Armando Miguel)", "credit_id": "5798a0aac3a36874e9003125", "gender": 0, "id": 1657337, "name": "Armando Miguel G\u00f3mez", "order": 2, "profile_path": null}, {"cast_id": 3, "character": "", "credit_id": "5798a0b69251414242005c5f", "gender": 0, "id": 1003158, "name": "Yailene Sierra", "order": 3, "profile_path": "/xe3tVE8QnbriATpSLL11cbSXQEC.jpg"}, {"cast_id": 8, "character": "Lisandra", "credit_id": "579f49c0c3a3683ba9000d83", "gender": 0, "id": 1471739, "name": "Camila Arteche", "order": 4, "profile_path": null}, {"cast_id": 9, "character": "La Madre", "credit_id": "579f49f1c3a3683c1c000d86", "gender": 0, "id": 1159026, "name": "Broselianda Hern\u00e1ndez", "order": 5, "profile_path": null}, {"cast_id": 10, "character": "Boris", "credit_id": "579f4a0ac3a3683c65000c00", "gender": 0, "id": 572446, "name": "Jazz Vil\u00e1", "order": 6, "profile_path": "/zbKovQVDDZeawcp5k4H1AgcRYKb.jpg"}], "crew": [{"credit_id": "579f496dc3a3683bd7000dda", "department": "Writing", "gender": 0, "id": 5624, "job": "Co-Writer", "name": "Pierre Edelman", "profile_path": null}, {"credit_id": "57db41aac3a3681a8e00077c", "department": "Editing", "gender": 0, "id": 40319, "job": "Editor", "name": "Jacques Comets", "profile_path": null}, {"credit_id": "579f497a9251410361003fc8", "department": "Writing", "gender": 2, "id": 454818, "job": "Co-Writer", "name": "Alejandro Brugu\u00e9s", "profile_path": "/4g66Lq8HyvUIAqQQvGY6QjSJBHb.jpg"}, {"credit_id": "5798a14bc3a368702e0061e6", "department": "Directing", "gender": 0, "id": 1338870, "job": "Director", "name": "Pavel Giroud", "profile_path": null}, {"credit_id": "579f4959c3a3683bd7000dd5", "department": "Writing", "gender": 0, "id": 1338870, "job": "Writer", "name": "Pavel Giroud", "profile_path": null}, {"credit_id": "57db41559251415c05000b76", "department": "Production", "gender": 0, "id": 1389414, "job": "Producer", "name": "Daniel D\u00edaz Ravelo", "profile_path": null}, {"credit_id": "57db418592514169050008eb", "department": "Production", "gender": 0, "id": 1679711, "job": "Executive Producer", "name": "Antonio Lopez", "profile_path": null}, {"credit_id": "57db418dc3a3681a0c000885", "department": "Production", "gender": 0, "id": 1679712, "job": "Executive Producer", "name": "Lia Rodriguez", "profile_path": null}, {"credit_id": "57db4195c3a3681a8e000771", "department": "Sound", "gender": 0, "id": 1679713, "job": "Original Music Composer", "name": "Ulises Hern\u00e1ndez", "profile_path": null}, {"credit_id": "57db419dc3a3681a1c00090d", "department": "Sound", "gender": 0, "id": 1679714, "job": "Original Music Composer", "name": "Sergio Valdes", "profile_path": null}, {"credit_id": "57db41a39251415c05000b90", "department": "Camera", "gender": 2, "id": 1679715, "job": "Director of Photography", "name": "Ernesto Calzado Yanes", "profile_path": null}, {"credit_id": "5e1627a91d01910013eff2e8", "department": "Art", "gender": 2, "id": 2181761, "job": "Art Direction", "name": "Onelio Larralde", "profile_path": null}]}}