{"adult": false, "backdrop_path": "/glmuWLhnL9H96M2vYdUDXhcpPHn.jpg", "belongs_to_collection": null, "budget": 0, "genres": [{"id": 18, "name": "Drama"}, {"id": 80, "name": "Crime"}, {"id": 10770, "name": "TV Movie"}], "homepage": "http://www.rocker-film.de/", "id": 36117, "imdb_id": "tt0318635", "original_language": "de", "original_title": "Rocker", "overview": "In Hamburg, West Germany, a rocker biker gang helps a kid avenge his brother who was murdered by a rival gang, a mortal enemy of rocker gangs.", "popularity": 2.372, "poster_path": "/u6YDFe0ix9hMtQeD4ASOXC15I21.jpg", "production_companies": [{"id": 28908, "logo_path": null, "name": "TV-Union", "origin_country": ""}, {"id": 4606, "logo_path": "/otZHbf1HmzLRQsZFSqJXkf8EHz7.png", "name": "ZDF", "origin_country": "DE"}], "production_countries": [{"iso_3166_1": "DE", "name": "Germany"}], "release_date": "1972-02-02", "revenue": 0, "runtime": 86, "spoken_languages": [{"iso_639_1": "de", "name": "Deutsch"}], "status": "Released", "tagline": "Get out of Hamburg, away from the leather.", "title": "Rocker", "video": false, "vote_average": 6.0, "vote_count": 10, "keywords": {"keywords": [{"id": 10726, "name": "gang"}, {"id": 14735, "name": "motorcycle"}, {"id": 18002, "name": "hard rock"}, {"id": 155215, "name": "leather"}]}, "similar": {"page": 1, "results": [{"adult": false, "backdrop_path": "/q9y3nnAAaQMjNHUYSlIypWeEo4F.jpg", "genre_ids": [18], "id": 9912, "original_language": "en", "original_title": "The World's Fastest Indian", "overview": "The life story of New Zealander Burt Munro, who spent years building a 1920 Indian motorcycle -- a bike which helped him set the land-speed world record at Utah's Bonneville Salt Flats in 1967.", "poster_path": "/h3xDXEEjppiyuRtMv6Cy5bcMTrG.jpg", "release_date": "2005-10-12", "title": "The World's Fastest Indian", "video": false, "vote_average": 7.5, "vote_count": 321, "popularity": 13.008}, {"adult": false, "backdrop_path": "/kSTvteM3ekuoeO7u7GJtZQkZuom.jpg", "genre_ids": [28, 53, 80], "id": 1948, "original_language": "en", "original_title": "Crank", "overview": "Professional assassin Chev Chelios learns his rival has injected him with a poison that will kill him if his heart rate drops.", "poster_path": "/6RnD3Zfh0tO0cD2vroWyH0F98Ej.jpg", "release_date": "2006-08-31", "title": "Crank", "video": false, "vote_average": 6.6, "vote_count": 2119, "popularity": 24.741}, {"id": 13809, "video": false, "vote_count": 1564, "vote_average": 6.9, "title": "RockNRolla", "release_date": "2008-09-04", "original_language": "en", "original_title": "RockNRolla", "genre_ids": [28, 80, 53], "backdrop_path": "/g6FLR1fSleLUmYxufJNMTYiVpA4.jpg", "adult": false, "overview": "When a Russian mobster sets up a real estate scam that generates millions of pounds, various members of London's criminal underworld pursue their share of the fortune. Various shady characters, including Mr One-Two, Stella the accountant, and Johnny Quid, a druggie rock-star, try to claim their slice.", "poster_path": "/9tnHUDuUDrNJxJ3raxpKIrnYXlH.jpg", "popularity": 14.474}, {"adult": false, "backdrop_path": "/7RRuRcGuWkZGuRyYugfXn0Fgrrr.jpg", "genre_ids": [28, 80, 18, 53], "id": 949, "original_language": "en", "original_title": "Heat", "overview": "Obsessive master thief, Neil McCauley leads a top-notch crew on various daring heists throughout Los Angeles while determined detective, Vincent Hanna pursues him without rest. Each man recognizes and respects the ability and the dedication of the other even though they are aware their cat-and-mouse game may end in violence.", "poster_path": "/6pmLVffM9jEYK7VqDJqPblMxfEY.jpg", "release_date": "1995-12-15", "title": "Heat", "video": false, "vote_average": 7.8, "vote_count": 3610, "popularity": 21.48}, {"id": 138832, "video": false, "vote_count": 5756, "vote_average": 6.8, "title": "We're the Millers", "release_date": "2013-08-07", "original_language": "en", "original_title": "We're the Millers", "genre_ids": [35, 80], "backdrop_path": "/hoSddFLIyr6FUylOwCxoahbvnXd.jpg", "adult": false, "overview": "A veteran pot dealer creates a fake family as part of his plan to move a huge shipment of weed into the U.S. from Mexico.", "poster_path": "/digXuLXmk88Ar23LYUQTLcz5npA.jpg", "popularity": 19.043}, {"id": 3131, "video": false, "vote_count": 3914, "vote_average": 7.3, "title": "Gangs of New York", "release_date": "2002-12-14", "original_language": "en", "original_title": "Gangs of New York", "genre_ids": [80, 18, 36], "backdrop_path": "/a2Aj5ksEo2HOUH3FbGyZCtaJM4C.jpg", "adult": false, "overview": "It's 1863. America was born in the streets. Amsterdam Vallon returns to the Five Points of America to seek vengeance against the psychotic gangland kingpin, Bill the Butcher, who murdered his father years earlier. With an eager pickpocket by his side and a whole new army, Vallon fights his way to seek vengeance on the Butcher and restore peace in the area.", "poster_path": "/lemqKtcCuAano5aqrzxYiKC8kkn.jpg", "popularity": 24.191}, {"adult": false, "backdrop_path": "/nb70B4EXuoegiQ0C5N1fNVHIaYc.jpg", "genre_ids": [12, 18, 36, 53, 10752], "id": 5925, "original_language": "en", "original_title": "The Great Escape", "overview": "The Nazis, exasperated at the number of escapes from their prison camps by a relatively small number of Allied prisoners, relocates them to a high-security 'escape-proof' camp to sit out the remainder of the war. Undaunted, the prisoners plan one of the most ambitious escape attempts of World War II. Based on a true story.", "poster_path": "/qhy4HgUqhEbwQ1ekKTv7yEB3b0e.jpg", "release_date": "1963-06-20", "title": "The Great Escape", "video": false, "vote_average": 8.0, "vote_count": 1358, "popularity": 17.61}, {"adult": false, "backdrop_path": "/7m6D3kQBrbMcqxwrSNEsvs1XuMS.jpg", "genre_ids": [35, 80], "id": 11895, "original_language": "en", "original_title": "Police Academy 6: City Under Siege", "overview": "Our favourite police men are called together to deal with a gang who rob banks and jewelers. Using their various talents as well as their extraordinary luck, the crooks stand no chance against our men and women wearing blue..", "poster_path": "/9mW8fM0PkXvSSmLODTb2OAYEQTY.jpg", "release_date": "1989-03-09", "title": "Police Academy 6: City Under Siege", "video": false, "vote_average": 4.9, "vote_count": 421, "popularity": 15.295}, {"adult": false, "backdrop_path": "/a24i4Qw6qFTtkFLQsncv8WPwevj.jpg", "genre_ids": [53, 28, 80], "id": 345887, "original_language": "en", "original_title": "The Equalizer 2", "overview": "Robert McCall, who serves an unflinching justice for the exploited and oppressed, embarks on a relentless, globe-trotting quest for vengeance when a long-time girl friend is murdered.", "poster_path": "/cQvc9N6JiMVKqol3wcYrGshsIdZ.jpg", "release_date": "2018-07-19", "title": "The Equalizer 2", "video": false, "vote_average": 6.5, "vote_count": 2482, "popularity": 24.261}, {"id": 339692, "video": false, "vote_count": 1163, "vote_average": 6.9, "title": "Shot Caller", "release_date": "2017-07-13", "original_language": "en", "original_title": "Shot Caller", "genre_ids": [80, 18, 53], "backdrop_path": "/hehboYLXB3m90x9ybiBsupwuifL.jpg", "adult": false, "overview": "A newly-released prison gangster is forced by the leaders of his gang to orchestrate a major crime with a brutal rival gang on the streets of Southern California.", "poster_path": "/qLmLz2wtyYvmW8Ult3l2ngOnW8v.jpg", "popularity": 25.016}, {"id": 500, "video": false, "vote_count": 8369, "vote_average": 8.2, "title": "Reservoir Dogs", "release_date": "1992-09-02", "original_language": "en", "original_title": "Reservoir Dogs", "genre_ids": [80, 53], "backdrop_path": "/fupyzBwFAn1PoeCXhp54bYVM2ER.jpg", "adult": false, "overview": "A botched robbery indicates a police informant, and the pressure mounts in the aftermath at a warehouse. Crime begets violence as the survivors -- veteran Mr. White, newcomer Mr. Orange, psychopathic parolee Mr. Blonde, bickering weasel Mr. Pink and Nice Guy Eddie -- unravel.", "poster_path": "/g7spS2Y4SZoQoC6Hn7zoqEqdYqR.jpg", "popularity": 27.836}, {"id": 2503, "video": false, "vote_count": 4834, "vote_average": 7.4, "title": "The Bourne Ultimatum", "release_date": "2007-08-03", "original_language": "en", "original_title": "The Bourne Ultimatum", "genre_ids": [28, 18, 9648, 53], "backdrop_path": "/6WpDOqkZFmhNJ0rwuLJiZVKlZi1.jpg", "adult": false, "overview": "Bourne is brought out of hiding once again by reporter Simon Ross who is trying to unveil Operation Blackbriar, an upgrade to Project Treadstone, in a series of newspaper columns. Information from the reporter stirs a new set of memories, and Bourne must finally uncover his dark past while dodging The Company's best efforts to eradicate him.", "poster_path": "/fHho6JYYY0nRcETWSoeI19iZsNF.jpg", "popularity": 17.539}, {"id": 581528, "video": false, "vote_count": 82, "vote_average": 7.2, "title": "The Gangster, the Cop, the Devil", "release_date": "2019-05-15", "original_language": "ko", "original_title": "\uc545\uc778\uc804", "genre_ids": [28, 80], "backdrop_path": "/mh1xax1OZd0g48bdhbvUCgPg6rp.jpg", "adult": false, "overview": "After barely surviving a violent attack by an elusive serial killer, crime boss Jang Dong-su finds himself forming an unlikely partnership with local detective Jung Tae-seok to catch the sadistic killer simply known as \"K\".", "poster_path": "/oHlM4abRm6BzrRcz9Nup1uidw9H.jpg", "popularity": 53.191}, {"id": 37094, "video": false, "vote_count": 1727, "vote_average": 7.3, "title": "Falling Down", "release_date": "1993-02-26", "original_language": "en", "original_title": "Falling Down", "genre_ids": [80, 18, 53], "backdrop_path": "/cS45swrlrTJijH1RblBLe8LlW2p.jpg", "adult": false, "overview": "On the day of his daughter's birthday, William \"D-Fens\" Foster is trying to get to the home of his estranged ex-wife to see his daughter. His car breaks down, so he leaves his car in a traffic jam in Los Angeles and decides to walk. He goes to a convenience store and tries to get some change for a phone call, but the Korean owner does not oblige, tipping Foster over the edge. The unstable Foster, so frustrated with the various flaws he sees in society, begins to psychotically and violently lash out against them.", "poster_path": "/s6dnkgQmcaZQiU1omVkyBcrVERR.jpg", "popularity": 17.248}, {"id": 13223, "video": false, "vote_count": 6462, "vote_average": 8.0, "title": "Gran Torino", "release_date": "2008-12-09", "original_language": "en", "original_title": "Gran Torino", "genre_ids": [18], "backdrop_path": "/w7oBCXL7gAwmYD7g0W17q8q1Ozc.jpg", "adult": false, "overview": "Widower Walt Kowalski is a grumpy, prejudiced, tough-minded, unhappy, old, Korean War veteran who can't get along with either his kids or his neighbours. His prize possession is a 1972 Gran Torino he keeps in mint condition. When his neighbour, Thao\u2014a young Hmong teenager under pressure from his gang member cousin\u2014tries to steal his Gran Torino, Walt sets out to reform the youth and takes steps to protect Thao and his family from the gangs that infest their neighborhood.", "poster_path": "/9ip2LgCyVMdovhJqY4mttTWfyo6.jpg", "popularity": 20.742}, {"adult": false, "backdrop_path": "/le2X3o9uopj1jMcMKFDKQ7MdBxb.jpg", "genre_ids": [28, 80, 9648], "id": 334521, "original_language": "en", "original_title": "Free Fire", "overview": "A crime drama set in 1970s Boston, about a gun sale which goes wrong.", "poster_path": "/cH7HT8MlNrRb1Tx3QD0Q3HC3pXN.jpg", "release_date": "2017-03-31", "title": "Free Fire", "video": false, "vote_average": 6.3, "vote_count": 609, "popularity": 14.779}, {"adult": false, "backdrop_path": "/iOGODt9Z92SHVEyuEQiN8wYidmQ.jpg", "genre_ids": [16, 878, 12, 14, 10402], "id": 11827, "original_language": "en", "original_title": "Heavy Metal", "overview": "A glowing orb terrorizes a young girl with a collection of stories of dark fantasy, eroticism and horror.", "poster_path": "/atUtWrDlLzT1yeVK2EoYtvbS963.jpg", "release_date": "1981-08-07", "title": "Heavy Metal", "video": false, "vote_average": 6.3, "vote_count": 316, "popularity": 16.995}, {"adult": false, "backdrop_path": "/ysLIi9nzMbUqi4dQh3tqblUb27o.jpg", "genre_ids": [878, 28, 27, 53, 12, 14], "id": 36648, "original_language": "en", "original_title": "Blade: Trinity", "overview": "For years, Blade has fought against the vampires in the cover of the night. But now, after falling into the crosshairs of the FBI, he is forced out into the daylight, where he is driven to join forces with a clan of human vampire hunters he never knew existed\u2014The Nightstalkers. Together with Abigail and Hannibal, two deftly trained Nightstalkers, Blade follows a trail of blood to the ancient creature that is also hunting him\u2014the original vampire, Dracula.", "poster_path": "/4WinsdHQBdh5aTt7Bd7T7dbUXbb.jpg", "release_date": "2004-12-08", "title": "Blade: Trinity", "video": false, "vote_average": 5.8, "vote_count": 2277, "popularity": 21.038}, {"id": 5176, "video": false, "vote_count": 2039, "vote_average": 7.1, "title": "3:10 to Yuma", "release_date": "2007-09-06", "original_language": "en", "original_title": "3:10 to Yuma", "genre_ids": [37], "backdrop_path": "/fOuig5rhqkrVVD1VsoL1jPz15hR.jpg", "adult": false, "overview": "In Arizona in the late 1800s, infamous outlaw Ben Wade and his vicious gang of thieves and murderers have plagued the Southern Railroad. When Wade is captured, Civil War veteran Dan Evans, struggling to survive on his drought-plagued ranch, volunteers to deliver him alive to the \"3:10 to Yuma\", a train that will take the killer to trial.", "poster_path": "/9Nwkh0eQmkymEOR0ovAALtjSIZW.jpg", "popularity": 22.151}, {"adult": false, "backdrop_path": "/lHZ5H1jd4zVJYr1wfLKBdXYtZ17.jpg", "genre_ids": [12, 28, 53], "id": 714, "original_language": "en", "original_title": "Tomorrow Never Dies", "overview": "A deranged media mogul is staging international incidents to pit the world\u2019s superpowers against each other. Now 007 must take on this evil mastermind in an adrenaline-charged battle to end his reign of terror and prevent global pandemonium.", "poster_path": "/k3eI9q7ISgpDEu2CMwR2s6inJVp.jpg", "release_date": "1997-12-11", "title": "Tomorrow Never Dies", "video": false, "vote_average": 6.2, "vote_count": 1726, "popularity": 32.472}], "total_pages": 57, "total_results": 1128}, "recommendations": {"page": 1, "results": [], "total_pages": 1, "total_results": 0}, "credits": {"cast": [{"cast_id": 1000, "character": "Mark", "credit_id": "52fe45cd9251416c9103ef63", "gender": 0, "id": 237090, "name": "Hans-J\u00fcrgen Modschiedler", "order": 0, "profile_path": null}, {"cast_id": 1001, "character": "Gerd", "credit_id": "52fe45cd9251416c9103ef67", "gender": 0, "id": 237091, "name": "Gerd Kruskopf", "order": 1, "profile_path": null}, {"cast_id": 1002, "character": "", "credit_id": "52fe45cd9251416c9103ef6b", "gender": 0, "id": 237092, "name": "Michael-Thomas Krannich", "order": 2, "profile_path": null}, {"cast_id": 1003, "character": "Uli", "credit_id": "52fe45cd9251416c9103ef6f", "gender": 0, "id": 237093, "name": "Paul Lys", "order": 3, "profile_path": null}, {"cast_id": 1004, "character": "", "credit_id": "52fe45cd9251416c9103ef73", "gender": 0, "id": 237094, "name": "Marianne Mim", "order": 4, "profile_path": null}, {"cast_id": 1005, "character": "", "credit_id": "52fe45cd9251416c9103ef77", "gender": 0, "id": 237095, "name": "Heidrun Rieckmann", "order": 5, "profile_path": null}, {"cast_id": 1006, "character": "", "credit_id": "52fe45cd9251416c9103ef7b", "gender": 0, "id": 237097, "name": "Dennis O. Heinrich", "order": 6, "profile_path": null}, {"cast_id": 1007, "character": "", "credit_id": "52fe45cd9251416c9103ef7f", "gender": 0, "id": 237099, "name": "Joe Ebel", "order": 7, "profile_path": null}, {"cast_id": 1008, "character": "", "credit_id": "52fe45cd9251416c9103ef83", "gender": 0, "id": 237100, "name": "Dieter Lennssen", "order": 8, "profile_path": null}, {"cast_id": 1009, "character": "", "credit_id": "52fe45cd9251416c9103ef87", "gender": 0, "id": 237101, "name": "Ole J\u00fcrgens", "order": 9, "profile_path": null}, {"cast_id": 1010, "character": "", "credit_id": "52fe45cd9251416c9103ef8b", "gender": 0, "id": 237102, "name": "Thomas Dunker", "order": 10, "profile_path": null}, {"cast_id": 1011, "character": "", "credit_id": "52fe45cd9251416c9103ef8f", "gender": 0, "id": 237103, "name": "Marianne Quast", "order": 11, "profile_path": null}, {"cast_id": 1012, "character": "", "credit_id": "52fe45cd9251416c9103ef93", "gender": 0, "id": 237104, "name": "Walter Zahn", "order": 12, "profile_path": null}, {"cast_id": 1013, "character": "", "credit_id": "52fe45cd9251416c9103ef97", "gender": 0, "id": 237105, "name": "Eva Pampuch", "order": 13, "profile_path": null}], "crew": [{"credit_id": "52fe45ce9251416c9103efcd", "department": "Crew", "gender": 2, "id": 14560, "job": "Second Unit", "name": "Martin M\u00fcller", "profile_path": null}, {"credit_id": "52fe45ce9251416c9103efa9", "department": "Production", "gender": 0, "id": 23555, "job": "Producer", "name": "Willi Segler", "profile_path": null}, {"credit_id": "52fe45cd9251416c9103ef9d", "department": "Directing", "gender": 2, "id": 49687, "job": "Director", "name": "Klaus Lemke", "profile_path": "/qgCGAQfZAzF6CQo93MwoI3fKWeO.jpg"}, {"credit_id": "52fe45ce9251416c9103efd3", "department": "Writing", "gender": 2, "id": 49687, "job": "Writer", "name": "Klaus Lemke", "profile_path": "/qgCGAQfZAzF6CQo93MwoI3fKWeO.jpg"}, {"credit_id": "52fe45cd9251416c9103efa3", "department": "Production", "gender": 0, "id": 237106, "job": "Producer", "name": "Hans Kaden", "profile_path": null}, {"credit_id": "52fe45ce9251416c9103efaf", "department": "Crew", "gender": 2, "id": 237107, "job": "Cinematography", "name": "Bernd Fiedler", "profile_path": null}, {"credit_id": "52fe45ce9251416c9103efb5", "department": "Crew", "gender": 0, "id": 237108, "job": "Cinematography", "name": "Anna Harnisch", "profile_path": null}, {"credit_id": "52fe45ce9251416c9103efbb", "department": "Editing", "gender": 1, "id": 237109, "job": "Editor", "name": "Jutta Brandstaedter", "profile_path": null}, {"credit_id": "52fe45ce9251416c9103efc1", "department": "Production", "gender": 0, "id": 237110, "job": "Unit Production Manager", "name": "Stefan Abendroth", "profile_path": null}, {"credit_id": "52fe45ce9251416c9103efc7", "department": "Production", "gender": 0, "id": 237112, "job": "Production Manager", "name": "Rudi Kaufmann", "profile_path": null}]}}