{"adult": false, "backdrop_path": "/tCiBfglls6kBWk05S5dCcogqtpg.jpg", "belongs_to_collection": null, "budget": 0, "genres": [{"id": 27, "name": "Horror"}, {"id": 53, "name": "Thriller"}], "homepage": null, "id": 362373, "imdb_id": "tt2109127", "original_language": "en", "original_title": "Eaters", "overview": "After their friend goes missing, five road-tripping friends must confront a violent biker gang, but after they narrowly escape, their nightmare goes from bad to spine-chilling.", "popularity": 4.764, "poster_path": "/aOIlanUclU8Qro9OvOfMxeku7KI.jpg", "production_companies": [], "production_countries": [], "release_date": "2015-10-06", "revenue": 0, "runtime": 90, "spoken_languages": [{"iso_639_1": "en", "name": "English"}], "status": "Released", "tagline": "Prepare to meet a new breed of killers", "title": "Eaters", "video": false, "vote_average": 2.9, "vote_count": 13, "keywords": {"keywords": [{"id": 1930, "name": "kidnapping"}, {"id": 6951, "name": "biker"}]}, "similar": {"page": 1, "results": [{"id": 473149, "video": false, "vote_count": 195, "vote_average": 5.9, "title": "Traffik", "release_date": "2018-04-20", "original_language": "en", "original_title": "Traffik", "genre_ids": [27, 53], "backdrop_path": "/wbk9VvJ8lkUF0ElpfRm3dFIzMJf.jpg", "adult": false, "overview": "A couple off for a romantic weekend in the mountains are accosted by a biker gang. Alone in the mountains, Brea and John must defend themselves against the gang, who will stop at nothing to protect their secrets.", "poster_path": "/e2Z466e9402RFP6wxRMfXYYiJHA.jpg", "popularity": 31.63}, {"adult": false, "backdrop_path": "/a24i4Qw6qFTtkFLQsncv8WPwevj.jpg", "genre_ids": [53, 28, 80], "id": 345887, "original_language": "en", "original_title": "The Equalizer 2", "overview": "Robert McCall, who serves an unflinching justice for the exploited and oppressed, embarks on a relentless, globe-trotting quest for vengeance when a long-time girl friend is murdered.", "poster_path": "/cQvc9N6JiMVKqol3wcYrGshsIdZ.jpg", "release_date": "2018-07-19", "title": "The Equalizer 2", "video": false, "vote_average": 6.5, "vote_count": 2483, "popularity": 21.271}, {"adult": false, "backdrop_path": "/eg049B1TJdWuKuyKowNmhZxNToc.jpg", "genre_ids": [28, 53], "id": 562, "original_language": "en", "original_title": "Die Hard", "overview": "NYPD cop John McClane's plan to reconcile with his estranged wife is thrown for a serious loop when, minutes after he arrives at her office, the entire building is overtaken by a group of terrorists. With little help from the LAPD, wisecracking McClane sets out to single-handedly rescue the hostages and bring the bad guys down.", "poster_path": "/fiXHtnQpQiGVkMtyYnEfQ6Gtfx8.jpg", "release_date": "1988-07-15", "title": "Die Hard", "video": false, "vote_average": 7.7, "vote_count": 6810, "popularity": 32.473}, {"adult": false, "backdrop_path": "/747dgDfL5d8esobk7h4odaOFhUq.jpg", "genre_ids": [80, 18, 53], "id": 275, "original_language": "en", "original_title": "Fargo", "overview": "Jerry, a small-town Minnesota car salesman is bursting at the seams with debt... but he's got a plan. He's going to hire two thugs to kidnap his wife in a scheme to collect a hefty ransom from his wealthy father-in-law. It's going to be a snap and nobody's going to get hurt... until people start dying. Enter Police Chief Marge, a coffee-drinking, parka-wearing - and extremely pregnant - investigator who'll stop at nothing to get her man. And if you think her small-time investigative skills will give the crooks a run for their ransom... you betcha!", "poster_path": "/pyEkyYgtyjOX1R9EYyUcgbK1sTn.jpg", "release_date": "1996-03-08", "title": "Fargo", "video": false, "vote_average": 7.9, "vote_count": 4327, "popularity": 30.674}, {"id": 8090, "video": false, "vote_count": 448, "vote_average": 6.1, "title": "Untraceable", "release_date": "2008-01-22", "original_language": "en", "original_title": "Untraceable", "genre_ids": [9648, 53], "backdrop_path": "/eXuIPt9I1xuaVddlgzEQRC2EMnJ.jpg", "adult": false, "overview": "Special Agent Jennifer Marsh (Diane Lane) works in an elite division of the FBI dedicated to fighting cybercrime. She thinks she has seen it all, until a particularly sadistic criminal arises on the Internet. This tech-savvy killer posts live feeds of his crimes on his website; the more hits the site gets, the faster the victim dies. Marsh and her team must find the elusive killer before time runs out.", "poster_path": "/ySUwDRDEn01lKIMPQorpFCMLWqE.jpg", "popularity": 14.431}, {"adult": false, "backdrop_path": "/rPfyX0pkmn8Ea4gh3DfsmzFUf05.jpg", "genre_ids": [18, 27, 80], "id": 74997, "original_language": "en", "original_title": "The Human Centipede 2 (Full Sequence)", "overview": "Inspired by the fictional Dr. Heiter, disturbed loner Martin dreams of creating a 12-person centipede and sets out to realize his sick fantasy.", "poster_path": "/kFtAdkCO0vXN2RWu2oMcR9GZ9Hi.jpg", "release_date": "2011-10-06", "title": "The Human Centipede 2 (Full Sequence)", "video": false, "vote_average": 4.5, "vote_count": 674, "popularity": 14.216}, {"adult": false, "backdrop_path": "/t3OZS8yMs0NL4YgWWc04eXHTn1X.jpg", "genre_ids": [28, 80, 53], "id": 984, "original_language": "en", "original_title": "Dirty Harry", "overview": "When a madman dubbed 'Scorpio' terrorizes San Francisco, hard-nosed cop, Harry Callahan \u2013 famous for his take-no-prisoners approach to law enforcement \u2013 is tasked with hunting down the psychopath. Harry eventually collars Scorpio in the process of rescuing a kidnap victim, only to see him walk on technicalities. Now, the maverick detective is determined to nail the maniac himself.", "poster_path": "/2TADKc4GMMPdMrLXj0xJVgTvZJM.jpg", "release_date": "1971-12-21", "title": "Dirty Harry", "video": false, "vote_average": 7.5, "vote_count": 1173, "popularity": 18.839}, {"id": 458594, "video": false, "vote_count": 983, "vote_average": 6.5, "title": "Peppermint", "release_date": "2018-09-06", "original_language": "en", "original_title": "Peppermint", "genre_ids": [28, 53], "backdrop_path": "/9krZX6T4EEs5eFpXgSi8jZkN48O.jpg", "adult": false, "overview": "A grieving mother transforms herself into a vigilante following the murders of her husband and daughter, eluding the authorities to deliver her own personal brand of justice.", "poster_path": "/jrzxS0vcbzIIay1sdYm0rgI2QfJ.jpg", "popularity": 18.265}, {"adult": false, "backdrop_path": "/ieJ5ImFoJILNULvnIpbulAln7Lr.jpg", "genre_ids": [12, 28, 53, 878], "id": 14869, "original_language": "en", "original_title": "G.I. Joe: The Rise of Cobra", "overview": "From the Egyptian desert to deep below the polar ice caps, the elite G.I. JOE team uses the latest in next-generation spy and military equipment to fight the corrupt arms dealer Destro and the growing threat of the mysterious Cobra organization to prevent them from plunging the world into chaos.", "poster_path": "/29eW5c5DaCFQejdt9V14RrA51yD.jpg", "release_date": "2009-08-04", "title": "G.I. Joe: The Rise of Cobra", "video": false, "vote_average": 5.7, "vote_count": 3082, "popularity": 22.639}, {"id": 9373, "video": false, "vote_count": 1414, "vote_average": 6.1, "title": "The Texas Chainsaw Massacre", "release_date": "2003-05-21", "original_language": "en", "original_title": "The Texas Chainsaw Massacre", "genre_ids": [27], "backdrop_path": "/3rTsJ7tIC3LUSRr80PfeLbbCfBA.jpg", "adult": false, "overview": "After picking up a traumatized young hitchhiker, five friends find themselves stalked and hunted by a deformed chainsaw-wielding killer and his family of equally psychopathic killers.", "poster_path": "/gx7FCIOFGxqNyplF3t7qtmUv55g.jpg", "popularity": 19.117}, {"adult": false, "backdrop_path": "/o4psXh7IVD6GFKvBSHjHLzjL2lV.jpg", "genre_ids": [27, 53], "id": 10781, "original_language": "en", "original_title": "The Texas Chainsaw Massacre: The Beginning", "overview": "Chrissie and her friends set out on a road trip for a final fling before one is shipped off to Vietnam. Along the way, bikers harass the foursome and cause an accident that throws Chrissie from the vehicle. The lawman who arrives on the scene kills one of the bikers and brings Chrissie's friends to the Hewitt homestead, where young Leatherface is learning the tools of terror.", "poster_path": "/9elCJIG1TOJ0wew3JVx5ZMkHq5w.jpg", "release_date": "2006-10-06", "title": "The Texas Chainsaw Massacre: The Beginning", "video": false, "vote_average": 6.0, "vote_count": 936, "popularity": 19.211}, {"adult": false, "backdrop_path": "/cLGKawjQ5tUJCuDyR0OnGYT4fyf.jpg", "genre_ids": [18, 53, 80], "id": 146233, "original_language": "en", "original_title": "Prisoners", "overview": "When Keller Dover's daughter and her friend go missing, he takes matters into his own hands as the police pursue multiple leads and the pressure mounts. But just how far will this desperate father go to protect his family?", "poster_path": "/yAhqW57pwMAsCgmZpM5zSIVQVTh.jpg", "release_date": "2013-09-18", "title": "Prisoners", "video": false, "vote_average": 8.0, "vote_count": 6410, "popularity": 24.427}, {"adult": false, "backdrop_path": "/yo3LesueMprtgjRiIRmjiIrFIKj.jpg", "genre_ids": [28, 53], "id": 1571, "original_language": "en", "original_title": "Live Free or Die Hard", "overview": "John McClane is back and badder than ever, and this time he's working for Homeland Security. He calls on the services of a young hacker in his bid to stop a ring of Internet terrorists intent on taking control of America's computer infrastructure.", "poster_path": "/pHWgbaXiQD2nmex7u8Xv6XmhaZS.jpg", "release_date": "2007-06-20", "title": "Live Free or Die Hard", "video": false, "vote_average": 6.5, "vote_count": 3588, "popularity": 24.743}, {"adult": false, "backdrop_path": "/lx9eC0e98ZrdU0y55LrydS8CMMp.jpg", "genre_ids": [28, 12, 80, 18, 9648, 53], "id": 9631, "original_language": "en", "original_title": "The Negotiator", "overview": "The police try to arrest expert hostage negotiator Danny Roman, who insists he's being framed for his partner's murder in what he believes is an elaborate conspiracy. Thinking there's evidence in the Internal Affairs offices that might clear him, he takes everyone in the office hostage and demands that another well-known negotiator be brought in to handle the situation and secretly investigate the conspiracy.", "poster_path": "/u4LQDr6QB5i7dz3sMuP8u3EOd3D.jpg", "release_date": "1998-07-29", "title": "The Negotiator", "video": false, "vote_average": 7.0, "vote_count": 1082, "popularity": 18.49}, {"adult": false, "backdrop_path": "/fmo48Lt8XtMWeHeXJzi5SbPCJud.jpg", "genre_ids": [18, 27, 80], "id": 1696, "original_language": "en", "original_title": "The Devil's Rejects", "overview": "The sequel to House of 1000 Corpses \u2013 the Firefly family are ambushed at their isolated home by Sheriff Wydell and a squad of armed men guns blazing \u2013 yet only Otis and his sister, Baby, manage to escape the barrage of bullets unharmed. Hiding out in a backwater motel, the wanted siblings wait to rendezvous with their errant father, Captain Spaulding, killing whoever happens to stand in their way.", "poster_path": "/fj4rrpUlBpFjPaJecpjID6yqacx.jpg", "release_date": "2005-07-22", "title": "The Devil's Rejects", "video": false, "vote_average": 6.7, "vote_count": 720, "popularity": 14.155}, {"adult": false, "backdrop_path": "/7ZyiMee2s7kARJ0IvJOIgTyvmdp.jpg", "genre_ids": [12, 28, 53, 878], "id": 9659, "original_language": "en", "original_title": "Mad Max", "overview": "In a postapocalyptic future, jaded cop Max Rockatansky (Mel Gibson) is ready to retire. But his world is shattered when a malicious gang murders his family as an act of retaliation, forcing a devastated Max to hit the open road seeking vengeance. As he travels the Australian outback's empty stretches of highway, he tours the bloodstained battlegrounds ruled by marauding bikers who feed on violence.", "poster_path": "/5LrI4GiCSrChgkdskVZiwv643Kg.jpg", "release_date": "1979-04-12", "title": "Mad Max", "video": false, "vote_average": 6.7, "vote_count": 2363, "popularity": 25.432}, {"adult": false, "backdrop_path": "/e86x1nXqfXRlqATuy60MmzFUFQr.jpg", "genre_ids": [18, 28, 53], "id": 2163, "original_language": "en", "original_title": "Breakdown", "overview": "When his SUV breaks down on a remote Southwestern road, Jeff Taylor lets his wife, Amy, hitch a ride with a trucker to get help. When she doesn't return, Jeff fixes his SUV and tracks down the trucker -- who tells the police he's never seen Amy. Johnathan Mostow's tense thriller then follows Jeff's desperate search for his wife, which eventually uncovers a small town's murderous secret.", "poster_path": "/uj5VmM4jrn3HHeuFfEH8XQizA2g.jpg", "release_date": "1997-05-02", "title": "Breakdown", "video": false, "vote_average": 6.7, "vote_count": 397, "popularity": 12.767}, {"id": 502416, "video": false, "vote_count": 737, "vote_average": 5.6, "title": "Ma", "release_date": "2019-05-29", "original_language": "en", "original_title": "Ma", "genre_ids": [27], "backdrop_path": "/mBOv5YrX5QGr5CusK0PKSHuxOt9.jpg", "adult": false, "overview": "Sue Ann is a loner who keeps to herself in her quiet Ohio town. One day, she is asked by Maggie, a new teenager in town, to buy some booze for her and her friends, and Sue Ann sees the chance to make some unsuspecting, if younger, friends of her own.", "poster_path": "/6n7ASmQ1wY2cxTubFFGlcvPpyk7.jpg", "popularity": 14.313}, {"id": 2320, "video": false, "vote_count": 457, "vote_average": 6.2, "title": "Executive Decision", "release_date": "1996-03-15", "original_language": "en", "original_title": "Executive Decision", "genre_ids": [28, 12, 18, 53], "backdrop_path": "/bjVntRO9QkAwm1HzTfH1nn1nOpn.jpg", "adult": false, "overview": "Terrorists hijack a 747 inbound to Washington D.C., demanding the the release of their imprisoned leader. Intelligence expert David Grant (Kurt Russell) suspects another reason and he is soon the reluctant member of a special assault team that is assigned to intercept the plane and hijackers.", "poster_path": "/wmgkFuEr8bHRAgs1HS5U46Rzo0I.jpg", "popularity": 11.941}, {"id": 9039, "video": false, "vote_count": 272, "vote_average": 6.1, "title": "Trapped", "release_date": "2002-09-20", "original_language": "en", "original_title": "Trapped", "genre_ids": [28, 80, 18, 53], "backdrop_path": "/uaX2ToWXk6K00rPSAaAajkKdQBU.jpg", "adult": false, "overview": "When their daughter is kidnapped by experienced nappers (Bacon and Love), the Jennings (Theron and Townsend) turn the tables on this seemingly foolproof plan.", "poster_path": "/rsQdv6J3SLqlaJofB4yyX1PqP9n.jpg", "popularity": 12.07}], "total_pages": 249, "total_results": 4962}, "recommendations": {"page": 1, "results": [{"adult": false, "backdrop_path": "/7L61gRlNnZMWc0F1IyMBBcGSyg0.jpg", "genre_ids": [27, 9648, 53], "id": 356482, "original_language": "en", "original_title": "Murder in the Dark", "overview": "When a group of young people camping in the ruins of a medieval Turkish town play a party game called 'Murder in the Dark', they soon discover that someone is taking the game too far...Produced in an experimental shooting style, this murder-mystery features a cast of actors who were not allowed to see the script. The actors' choices interactively changed the shape of the story. They had to use clues to solve the mystery laid out before them by the filmmakers.", "poster_path": "/6m7Q1JuMIhsZzB8DVyIsOXAeifK.jpg", "release_date": "2013-08-09", "title": "Murder in the Dark", "video": false, "vote_average": 4.9, "vote_count": 9, "popularity": 2.585}, {"adult": false, "backdrop_path": "/dWxkseQ8fN8cQVavpfkcEJSVPNW.jpg", "genre_ids": [27], "id": 166161, "original_language": "en", "original_title": "Jacob", "overview": "Lonely and disturbed Jacob Kell loved his little sister more than anything on earth. When tragedy strikes, Jacob retaliates the only way he knows how - and anyone who crosses his path will know there is no limit to his brutal vengeance.", "poster_path": "/nG1WdvRSc9JRT8OyraGBUgocOMN.jpg", "release_date": "2011-09-30", "title": "Jacob", "video": false, "vote_average": 4.0, "vote_count": 11, "popularity": 3.253}, {"adult": false, "backdrop_path": "/wq4QMSVmDy0SNnQaz83OuVmBgBe.jpg", "genre_ids": [27], "id": 49362, "original_language": "en", "original_title": "Madness", "overview": "Friends Jenna and Tarra are on their way to a cheerleading contest when they decide to stop at a gas station to help two guys, Oliver and Chad, who are experiencing some engine problems. What they don't know is that they are being watched by a group of deranged madman whose only intention is to hunt them down and kill them for pleasure. After being captured and locked up, survival is the only thing on the friends' minds, but just how far are they willing to go?", "poster_path": "/c9f4oUIntf9a5ek9ygSiWgvGEdU.jpg", "release_date": "2010-01-25", "title": "Madness", "video": false, "vote_average": 2.1, "vote_count": 5, "popularity": 1.644}, {"adult": false, "backdrop_path": "/oDBMjQPBSvD1eRKrd7O3xuqVLjd.jpg", "genre_ids": [9648, 53, 27], "id": 308017, "original_language": "en", "original_title": "Silent Retreat", "overview": "Six members of a media company go on a weekend business retreat at an isolated lodge in the woods. When one of the members goes missing, they discover that the lodge was formerly a private mental institution that had been shut down after allegations of devious misconduct. One by one, they fall victim to the dark secrets buried at the lodge.", "poster_path": "/uhmTH9v4NS75ld9IKe24RjyBBzM.jpg", "release_date": "2016-01-12", "title": "Silent Retreat", "video": false, "vote_average": 3.3, "vote_count": 15, "popularity": 4.746}, {"adult": false, "backdrop_path": "/cHiLrpbrmITxVEXkoNVd3GgBRqV.jpg", "genre_ids": [27, 28, 53], "id": 68212, "original_language": "en", "original_title": "The Terror Experiment", "overview": "When terrorist action releases a secret government virus in the Houston Federal building, the employees become aggressive and homicidal. Federal officials quarantine the building to wipe out the infected and control the story, but a small group of uninfected are fighting to get out.", "poster_path": "/6p0Yox5Om8vVKxg61AI4Ar55C47.jpg", "release_date": "2010-01-01", "title": "The Terror Experiment", "video": false, "vote_average": 4.2, "vote_count": 16, "popularity": 4.002}, {"adult": false, "backdrop_path": "/qnZySuSd1VmdIr2ZimoirU6phwC.jpg", "genre_ids": [53, 27, 878], "id": 259543, "original_language": "en", "original_title": "The 13th Unit", "overview": "Seven strangers find themselves trapped in an underground storage facility, struggling to survive while being hunted by a supernatural beast that resides inside the mysterious 13th unit.", "poster_path": "/64AiPNifFykKVzQvMlo76AuSjCD.jpg", "release_date": "2014-02-01", "title": "The 13th Unit", "video": false, "vote_average": 3.0, "vote_count": 12, "popularity": 3.318}, {"adult": false, "backdrop_path": "/a3tqo9s25EaBcldrKO4Co1uPJf0.jpg", "genre_ids": [27, 53], "id": 192023, "original_language": "en", "original_title": "The Invoking", "overview": "After inheriting a house from the family she never knew, Samantha Harris and three friends head to rural Sader Ridge to inspect the property. Soon after arriving, Sam begins to experience horrific visions of savage brutality and unspeakable evil. Plagued by the sinister forces closing in around her, Sam descends into a waking nightmare when the demons from her past refuse to stay buried any longer.", "poster_path": "/wkymIYPgFR7gQbAWGGCi8VuTcb3.jpg", "release_date": "2013-03-16", "title": "The Invoking", "video": false, "vote_average": 4.0, "vote_count": 17, "popularity": 2.973}, {"adult": false, "backdrop_path": "/6Y7b8qKUvdIP1os3zarlReouHAY.jpg", "genre_ids": [27], "id": 38412, "original_language": "en", "original_title": "Slaughterhouse Rock", "overview": "A man visits Alcatraz prison after having dreams about all the people who died there. When he gets there, his brother is possessed by an evil cannibal demon. The ghost of a female heavy metal singer who was killed there tries to help the man fight the monster.", "poster_path": "/A1LQgiAvAyrnBDIDxmxA2NMUWYe.jpg", "release_date": "1988-05-21", "title": "Slaughterhouse Rock", "video": false, "vote_average": 3.9, "vote_count": 8, "popularity": 3.334}, {"adult": false, "backdrop_path": "/m8xIkaR1ci8Ho8TFJ7yJOzrOYz3.jpg", "genre_ids": [27], "id": 349849, "original_language": "en", "original_title": "Kruel", "overview": "'Kruel' - is a horror/thriller feature length movie about a psychotic killer who masquerades as an ice cream man in order to get closer to the objects of his affection.", "poster_path": "/uhGnY3vHJ8Ze6u11FUbQQSbmb6M.jpg", "release_date": "2015-07-20", "title": "Kruel", "video": false, "vote_average": 4.5, "vote_count": 8, "popularity": 2.659}, {"adult": false, "backdrop_path": "/20M03qYalJ7AsrrfSrL3FbJxabT.jpg", "genre_ids": [27, 53], "id": 145198, "original_language": "en", "original_title": "Bigfoot County", "overview": "Siskiyou County, California has the most reported Bigfoot sightings in the world. In August of 2009, a documentary filmmaker went to investigate these alleged sightings.", "poster_path": "/aQyrn2xBHgCaC6ku9XOEI53814E.jpg", "release_date": "2012-12-11", "title": "Bigfoot County", "video": false, "vote_average": 2.9, "vote_count": 10, "popularity": 3.182}, {"adult": false, "backdrop_path": "/3EULdjn6R9TkhE3pTUBSmgcdWLi.jpg", "genre_ids": [27, 878, 10770], "id": 347849, "original_language": "en", "original_title": "Zombie Shark", "overview": "A perfect getaway weekend turns into a nightmare for four friends who find themselves fighting for their lives against an experimental shark. In order to survive they must fight sharks, zombies, and shark zombies.", "poster_path": "/4yvlzGuTw7GWGiiqjhUlAnmju41.jpg", "release_date": "2015-07-20", "title": "Zombie Shark", "video": false, "vote_average": 3.9, "vote_count": 22, "popularity": 5.136}, {"adult": false, "backdrop_path": "/j5tnHbSXHUI4tjVbVcZBoq0JCMB.jpg", "genre_ids": [53, 27], "id": 84558, "original_language": "en", "original_title": "Stormhouse", "overview": "The military have captured and imprisoned a supernatural entity. And now it wants to play.", "poster_path": "/jU6BM81jinCtazGfvjRvxYU8nKB.jpg", "release_date": "2011-06-15", "title": "Stormhouse", "video": false, "vote_average": 3.1, "vote_count": 12, "popularity": 3.217}, {"adult": false, "backdrop_path": "/1hoDFCU6HFWQqYpk3lYMAKwUYrT.jpg", "genre_ids": [27, 53], "id": 412111, "original_language": "en", "original_title": "The Emeryville Experiments", "overview": "When their car crashes, 4 college kids seek help in Emeryville - a dilapidated village. New comers discover that place was once a ground for clinical experiments gone awry and plot an escape. They find themselves hunted by crazies.", "poster_path": "/a0hMlCfFR9YMPua0YHbqWez9d67.jpg", "release_date": "2016-08-06", "title": "The Emeryville Experiments", "video": false, "vote_average": 3.6, "vote_count": 16, "popularity": 2.794}], "total_pages": 1, "total_results": 13}, "credits": {"cast": [{"cast_id": 2, "character": "Alice Woodward", "credit_id": "576405ff9251412477001506", "gender": 0, "id": 1077620, "name": "Marcelle Bowman", "order": 1, "profile_path": null}, {"cast_id": 3, "character": "Jude Harris (as Robert William Dean)", "credit_id": "5764064ac3a36809f900041d", "gender": 2, "id": 1466605, "name": "Robert Dean", "order": 2, "profile_path": "/ssjFH4Zv1PlcNegdKi5FqdJRLFx.jpg"}, {"cast_id": 4, "character": "Nolan Reynolds", "credit_id": "5764067b9251413414000444", "gender": 0, "id": 1637393, "name": "Tristan Parrish Moore", "order": 3, "profile_path": null}, {"cast_id": 5, "character": "Dillon Armstrong", "credit_id": "576406a7c3a36809f9000435", "gender": 0, "id": 1637394, "name": "Jonathan Haltiwanger", "order": 4, "profile_path": null}], "crew": [{"credit_id": "576405a2925141347d00045c", "department": "Directing", "gender": 0, "id": 1374237, "job": "Director", "name": "Johnny Tabor", "profile_path": null}, {"credit_id": "576405b592514133c5000436", "department": "Writing", "gender": 0, "id": 1374237, "job": "Writer", "name": "Johnny Tabor", "profile_path": null}]}}