{"adult": false, "backdrop_path": null, "belongs_to_collection": null, "budget": 0, "genres": [{"id": 18, "name": "Drama"}, {"id": 10749, "name": "Romance"}], "homepage": "http://www.survivingfamily.us", "id": 362609, "imdb_id": "tt1991191", "original_language": "en", "original_title": "Surviving Family", "overview": "Terry hasn't seen or spoken with her family in 2 years. When she shows up unannounced on her father's doorstep - with her fianc\u00e9 and a plan to get married in 5 days - she learns that she's not the only one with secrets.", "popularity": 2.042, "poster_path": "/AcoukqjGQLA3Q99Ks4G60RSPrkA.jpg", "production_companies": [{"id": 64809, "logo_path": null, "name": "Surviving Family Productions", "origin_country": ""}], "production_countries": [{"iso_3166_1": "US", "name": "United States of America"}], "release_date": "2014-08-15", "revenue": 0, "runtime": 87, "spoken_languages": [{"iso_639_1": "en", "name": "English"}], "status": "Released", "tagline": "You can't escape the family tree.", "title": "Surviving Family", "video": false, "vote_average": 5.1, "vote_count": 4, "keywords": {"keywords": [{"id": 236, "name": "suicide"}, {"id": 380, "name": "sibling relationship"}, {"id": 7464, "name": "alcoholism"}, {"id": 10041, "name": "dysfunctional family"}, {"id": 13027, "name": "wedding"}, {"id": 41329, "name": "mental illness"}, {"id": 189447, "name": "bipolar"}]}, "similar": {"page": 1, "results": [{"adult": false, "backdrop_path": "/ArT1HUDedndeJeT16pOrNiesorQ.jpg", "genre_ids": [80, 18, 9648], "id": 11929, "original_language": "en", "original_title": "Dolores Claiborne", "overview": "Dolores Claiborne was accused of killing her abusive husband twenty years ago, but the court's findings were inconclusive and she was allowed to walk free. Now she has been accused of killing her employer, Vera Donovan, and this time there is a witness who can place her at the scene of the crime. Things look bad for Dolores when her daughter Selena, a successful Manhattan magazine writer, returns to cover the story.", "poster_path": "/ewmVWV0TP8LTlYZ4OzCcguwC9d1.jpg", "release_date": "1995-03-24", "title": "Dolores Claiborne", "video": false, "vote_average": 7.2, "vote_count": 353, "popularity": 13.1}, {"adult": false, "backdrop_path": "/bJLJAtGjBj836UjJZNOwgrfe5Ps.jpg", "genre_ids": [80, 18], "id": 359940, "original_language": "en", "original_title": "Three Billboards Outside Ebbing, Missouri", "overview": "After seven months have passed without a culprit in her daughter's murder case, Mildred Hayes makes a bold move, painting three signs leading into her town with a controversial message directed at Bill Willoughby, the town's revered chief of police. When his second-in-command Officer Jason Dixon, an immature mother's boy with a penchant for violence, gets involved, the battle between Mildred and Ebbing's law enforcement is only exacerbated.", "poster_path": "/vgvw6w1CtcFkuXXn004S5wQsHRl.jpg", "release_date": "2017-11-10", "title": "Three Billboards Outside Ebbing, Missouri", "video": false, "vote_average": 8.2, "vote_count": 6122, "popularity": 26.303}, {"adult": false, "backdrop_path": "/6SzDcMSnED0PXvg6dfzkNvkeCwr.jpg", "genre_ids": [18, 35, 10749], "id": 82693, "original_language": "en", "original_title": "Silver Linings Playbook", "overview": "After spending eight months in a mental institution, a former teacher moves back in with his parents and tries to reconcile with his ex-wife.", "poster_path": "/ilrZAV2klTB0FLxLb01bOp5pzD9.jpg", "release_date": "2012-09-08", "title": "Silver Linings Playbook", "video": false, "vote_average": 7.1, "vote_count": 8270, "popularity": 22.316}, {"adult": false, "backdrop_path": "/zahnSOF0U2vsbKTWqSySoUXSUgi.jpg", "genre_ids": [53, 9648, 27, 18], "id": 345911, "original_language": "en", "original_title": "Lights Out", "overview": "When Rebecca left home, she thought she left her childhood fears behind. Growing up, she was never really sure of what was and wasn\u2019t real when the lights went out\u2026and now her little brother, Martin, is experiencing the same unexplained and terrifying events that had once tested her sanity and threatened her safety. A frightening entity with a mysterious attachment to their mother, Sophie, has reemerged.", "poster_path": "/sXqrTXcBf9TdIv5rfgeFNu9Iwu7.jpg", "release_date": "2016-07-21", "title": "Lights Out", "video": false, "vote_average": 6.3, "vote_count": 2468, "popularity": 15.54}, {"adult": false, "backdrop_path": "/hD8DQM72Xacg1d3mFqS0eN8vKYw.jpg", "genre_ids": [18], "id": 8272, "original_language": "en", "original_title": "The Savages", "overview": "A sister and brother face the realities of familial responsibility as they begin to care for their ailing father.", "poster_path": "/nY54gSmTOmSXlQpWDB7DWp4u8a7.jpg", "release_date": "2007-01-19", "title": "The Savages", "video": false, "vote_average": 6.9, "vote_count": 192, "popularity": 9.466}, {"id": 399366, "video": false, "vote_count": 602, "vote_average": 7.1, "title": "Marrowbone", "release_date": "2017-10-27", "original_language": "en", "original_title": "Marrowbone", "genre_ids": [18, 27, 9648, 53], "backdrop_path": "/5Dd6HYOSzodtsoVKUR7H6442XRm.jpg", "adult": false, "overview": "A young man and his three younger siblings are plagued by a sinister presence in the sprawling manor in which they live.", "poster_path": "/iX77zMSqUv2Qt7ToEnN2mmEudEf.jpg", "popularity": 13.45}, {"id": 9813, "video": false, "vote_count": 128, "vote_average": 6.1, "title": "The Quiet", "release_date": "2005-09-12", "original_language": "en", "original_title": "The Quiet", "genre_ids": [18, 53], "backdrop_path": "/6eyWAZA4CEidZW1xXnQ4vlYBXTP.jpg", "adult": false, "overview": "After her widowed father dies, deaf teenager Dot moves in with her godparents, Olivia and Paul Deer. The Deers' daughter, Nina, is openly hostile to Dot, but that does not prevent her from telling her secrets to her silent stepsister, including the fact that she wants to kill her lecherous father.", "poster_path": "/GEqIE9YlmygHVUfS64LW2cwAAM.jpg", "popularity": 14.844}, {"adult": false, "backdrop_path": "/kiWvoV78Cc3fUwkOHKzyBgVdrDD.jpg", "genre_ids": [37, 18, 12], "id": 281957, "original_language": "en", "original_title": "The Revenant", "overview": "In the 1820s, a frontiersman, Hugh Glass, sets out on a path of vengeance against those who left him for dead after a bear mauling.", "poster_path": "/oXUWEc5i3wYyFnL1Ycu8ppxxPvs.jpg", "release_date": "2015-12-25", "title": "The Revenant", "video": false, "vote_average": 7.5, "vote_count": 12127, "popularity": 24.135}, {"adult": false, "backdrop_path": "/qK77FcPjWwJDmJTwlZc8L31o8En.jpg", "genre_ids": [18, 878], "id": 62215, "original_language": "da", "original_title": "Melancholia", "overview": "Two sisters find their already strained relationship challenged as a mysterious new planet threatens to collide with Earth.", "poster_path": "/eCjATHunhgLl9ARKUFtmKguaWDJ.jpg", "release_date": "2011-05-26", "title": "Melancholia", "video": false, "vote_average": 7.2, "vote_count": 1841, "popularity": 19.144}, {"id": 8204, "video": false, "vote_count": 1537, "vote_average": 6.5, "title": "The Spiderwick Chronicles", "release_date": "2008-02-14", "original_language": "en", "original_title": "The Spiderwick Chronicles", "genre_ids": [12, 18, 14, 10751], "backdrop_path": "/2Uwv3eUDRJ9UcjN8AlSg4GDm6TN.jpg", "adult": false, "overview": "Upon moving into the run-down Spiderwick Estate with their mother, twin brothers Jared and Simon Grace, along with their sister Mallory, find themselves pulled into an alternate world full of faeries and other creatures.", "poster_path": "/nSLjsBDzwsIpQL534CNfAKidyAm.jpg", "popularity": 13.069}, {"id": 8346, "video": false, "vote_count": 1269, "vote_average": 6.4, "title": "My Big Fat Greek Wedding", "release_date": "2002-02-22", "original_language": "en", "original_title": "My Big Fat Greek Wedding", "genre_ids": [35, 18, 10749], "backdrop_path": "/miFwBsaWZER118kg0AAuHcy1YOa.jpg", "adult": false, "overview": "A young Greek woman falls in love with a non-Greek and struggles to get her family to accept him while she comes to terms with her heritage and cultural identity.", "poster_path": "/vqGs8K6MdMHVPMTgMhzKHBVgu0t.jpg", "popularity": 17.695}, {"id": 284276, "video": false, "vote_count": 615, "vote_average": 6.3, "title": "Cake", "release_date": "2014-09-07", "original_language": "en", "original_title": "Cake", "genre_ids": [18], "backdrop_path": "/iGRutrtJcsdk5y3xvVU8WewSowZ.jpg", "adult": false, "overview": "After having visions of a member of her support group who killed herself, a woman who also suffers with chronic pain seeks out the widower of the suicide.", "poster_path": "/wnX7WTcrwi30DyBusT1qJpQ8LzG.jpg", "popularity": 12.919}, {"adult": false, "backdrop_path": "/eB43LYncKDJS3p5xYSUN9dUrL2A.jpg", "genre_ids": [18], "id": 205587, "original_language": "en", "original_title": "The Judge", "overview": "A successful lawyer returns to his hometown for his mother's funeral only to discover that his estranged father, the town's judge, is suspected of murder.", "poster_path": "/v6s65U6qisvxWgO3cNnreaaaite.jpg", "release_date": "2014-10-08", "title": "The Judge", "video": false, "vote_average": 7.3, "vote_count": 2564, "popularity": 22.668}, {"adult": false, "backdrop_path": "/3uwyXMZN93PRkShUxvLrufwVAc2.jpg", "genre_ids": [80, 18, 27, 9648, 53], "id": 452507, "original_language": "en", "original_title": "1922", "overview": "A simple yet proud rancher conspires to murder his wife for financial gain, convincing his teenage son to participate.", "poster_path": "/q4FQOiSRhTLWulHl5Vpg37FMArH.jpg", "release_date": "2017-10-20", "title": "1922", "video": false, "vote_average": 5.9, "vote_count": 1491, "popularity": 14.757}, {"adult": false, "backdrop_path": "/8VyW7cJxsdnIfptbPjGCIX1StUe.jpg", "genre_ids": [10749, 18], "id": 1587, "original_language": "en", "original_title": "What's Eating Gilbert Grape", "overview": "Gilbert Grape is a small-town young man with a lot of responsibility. Chief among his concerns are his mother, who is so overweight that she can't leave the house, and his mentally impaired younger brother, Arnie, who has a knack for finding trouble. Settled into a job at a grocery store and an ongoing affair with local woman Betty Carver, Gilbert finally has his life shaken up by the free-spirited Becky.", "poster_path": "/jQLoOPwNxyILwDbdhn9DsfQz0Sg.jpg", "release_date": "1993-12-17", "title": "What's Eating Gilbert Grape", "video": false, "vote_average": 7.7, "vote_count": 2113, "popularity": 20.762}, {"id": 146015, "video": false, "vote_count": 598, "vote_average": 6.6, "title": "The Double", "release_date": "2014-04-04", "original_language": "en", "original_title": "The Double", "genre_ids": [18, 53], "backdrop_path": "/gSNqUnQSgYWxsFQ59xH077dW1Zx.jpg", "adult": false, "overview": "An awkward office drone becomes increasingly unhinged after a charismatic and confident look-alike takes a job at his workplace and seduces the woman he desires.", "poster_path": "/hN6bP9XWKHI8JhlZpk8ieF1lcyG.jpg", "popularity": 11.771}, {"adult": false, "backdrop_path": "/5CDIezS2xJtcSXPL24Z2dIeUOp0.jpg", "genre_ids": [35, 10749], "id": 8273, "original_language": "en", "original_title": "American Wedding", "overview": "With high school a distant memory, Jim and Michelle are getting married -- and in a hurry, since Jim's grandmother is sick and wants to see him walk down the aisle -- prompting Stifler to throw the ultimate bachelor party. And Jim's dad is reliable as ever, doling out advice no one wants to hear.", "poster_path": "/lcLuBjI3Hr12mGFKJvdMeZdf3AN.jpg", "release_date": "2003-08-01", "title": "American Wedding", "video": false, "vote_average": 6.1, "vote_count": 2482, "popularity": 20.084}, {"id": 475557, "video": false, "vote_count": 8109, "vote_average": 8.3, "title": "Joker", "release_date": "2019-10-02", "original_language": "en", "original_title": "Joker", "genre_ids": [80, 18, 53], "backdrop_path": "/n6bUvigpRFqSwmPp1m2YADdbRBc.jpg", "adult": false, "overview": "During the 1980s, a failed stand-up comedian is driven insane and turns to a life of crime and chaos in Gotham City while becoming an infamous psychopathic crime figure.", "poster_path": "/udDclJoHjfjb8Ekgsd4FDteOkCU.jpg", "popularity": 231.13}, {"adult": false, "backdrop_path": "/ojn7IYKmMt8HXRd6oLwY5pLGLVc.jpg", "genre_ids": [18, 10749], "id": 9587, "original_language": "en", "original_title": "Little Women", "overview": "With their father away as a chaplain in the Civil War, Jo, Meg, Beth and Amy grow up with their mother in somewhat reduced circumstances. They are a close family who inevitably have their squabbles and tragedies. But the bond holds even when, later, male friends start to become a part of the household.", "poster_path": "/tD9YDE8pjtSvvKUpkmooE6YDSm8.jpg", "release_date": "1994-12-21", "title": "Little Women", "video": false, "vote_average": 7.2, "vote_count": 574, "popularity": 18.707}, {"id": 35, "video": false, "vote_count": 5024, "vote_average": 6.9, "title": "The Simpsons Movie", "release_date": "2007-07-26", "original_language": "en", "original_title": "The Simpsons Movie", "genre_ids": [16, 35, 10751], "backdrop_path": "/tNpqx8PcFdgKgheUWmNqNF9RNGm.jpg", "adult": false, "overview": "After Homer accidentally pollutes the town's water supply, Springfield is encased in a gigantic dome by the EPA and the Simpsons are declared fugitives.", "poster_path": "/eCytnEriVur3rT47NWfkgPXD9qs.jpg", "popularity": 19.525}], "total_pages": 24, "total_results": 462}, "recommendations": {"page": 1, "results": [], "total_pages": 1, "total_results": 0}, "credits": {"cast": [{"cast_id": 2, "character": "Terry Malone", "credit_id": "5612266b925141478d00ad70", "gender": 1, "id": 173413, "name": "Sarah Wilson", "order": 1, "profile_path": "/vXU7N7tndleRnpA3la25Gd6DbYn.jpg"}, {"cast_id": 3, "character": "Alex D'Amico", "credit_id": "5612267692514106150075b2", "gender": 2, "id": 141034, "name": "Billy Magnussen", "order": 2, "profile_path": "/9iEugwAOkNLIzkwl2388OnCLHEw.jpg"}, {"cast_id": 4, "character": "Jean Malone Fulton", "credit_id": "56122681c3a3686814015825", "gender": 1, "id": 181341, "name": "Tara Westwood", "order": 3, "profile_path": "/3vHqczokyp8rKiBE3WjEhb5j2Cg.jpg"}, {"cast_id": 5, "character": "Jerry Malone", "credit_id": "561226909251416b560004be", "gender": 2, "id": 32029, "name": "Bill Sage", "order": 4, "profile_path": "/2uQv1NMnGrqqhBMKTm5RBCKh7UV.jpg"}, {"cast_id": 6, "character": "Hank Malone", "credit_id": "561226a1c3a368681001497e", "gender": 0, "id": 1505884, "name": "Johnny Hopkins", "order": 5, "profile_path": "/xlhVNqdh2EBU6r3uwAvqDyyCxx7.jpg"}, {"cast_id": 7, "character": "Bobby", "credit_id": "561226adc3a3686824012f60", "gender": 2, "id": 65928, "name": "J.D. Williams", "order": 6, "profile_path": "/qppspX4keDlQaLFQvhVOe1u9kj6.jpg"}, {"cast_id": 8, "character": "Mary Giaccone", "credit_id": "561226bc9251415e53007b78", "gender": 1, "id": 17184, "name": "Phyllis Somerville", "order": 7, "profile_path": "/motrffoZUrUpMbESD9wEvbgzjHU.jpg"}, {"cast_id": 9, "character": "Mayor Avenoso", "credit_id": "561226cdc3a36868170143a7", "gender": 2, "id": 47774, "name": "Vincent Pastore", "order": 8, "profile_path": "/4SlzY9TtgQKDVu2GIYu3M73MxeP.jpg"}, {"cast_id": 10, "character": "Lily Fulton", "credit_id": "561226e09251410d8000690a", "gender": 1, "id": 1477060, "name": "Katherine Hughes", "order": 9, "profile_path": "/dEq5XnIC0nTp3EPolwKOeJH0jXy.jpg"}, {"cast_id": 11, "character": "Christy", "credit_id": "561226ec92514106150075c4", "gender": 0, "id": 1518712, "name": "Lauren Augarten", "order": 10, "profile_path": null}, {"cast_id": 12, "character": "Stan", "credit_id": "561226f69251414feb00a74c", "gender": 2, "id": 1518713, "name": "Che Ayende", "order": 11, "profile_path": "/fT2Kw5yAhuIbmPsp6EtxQxBhTpQ.jpg"}, {"cast_id": 13, "character": "Frank", "credit_id": "56122701c3a368680b01456c", "gender": 0, "id": 1518714, "name": "Jim Barry", "order": 12, "profile_path": null}, {"cast_id": 14, "character": "Mrs. Giaccone", "credit_id": "5612270c92514106150075cf", "gender": 0, "id": 1518715, "name": "Olivia Baseman", "order": 13, "profile_path": null}, {"cast_id": 15, "character": "Jenny", "credit_id": "561227179251414feb00a754", "gender": 0, "id": 71822, "name": "Bettina Bilger", "order": 14, "profile_path": "/8pGJCn3CxJ00CHWXGreAsWZorFo.jpg"}, {"cast_id": 16, "character": "Young Terry Malone", "credit_id": "561227239251415e53007b87", "gender": 0, "id": 1518716, "name": "Carleigh Chirico", "order": 15, "profile_path": null}], "crew": [{"credit_id": "562d74cf9251412853009367", "department": "Camera", "gender": 2, "id": 928293, "job": "Director of Photography", "name": "Timothy Naylor", "profile_path": null}, {"credit_id": "5612263c9251416b560004b1", "department": "Directing", "gender": 0, "id": 1435081, "job": "Director", "name": "Laura Thies", "profile_path": null}, {"credit_id": "5612264bc3a368681f012e59", "department": "Writing", "gender": 0, "id": 1518711, "job": "Writer", "name": "Mara Lesemann", "profile_path": null}]}}