{"adult": false, "backdrop_path": "/s8E1TujOftq0xEL7bFqLBwtdE8J.jpg", "belongs_to_collection": {"id": 142182, "name": "Bananas!* Collection", "poster_path": null, "backdrop_path": "/meuM555M1LpDlq6viVsjGV2ywhE.jpg"}, "budget": 0, "genres": [{"id": 99, "name": "Documentary"}], "homepage": "http://www.bananasthemovie.com/", "id": 36325, "imdb_id": "tt1452291", "original_language": "en", "original_title": "Bananas!*", "overview": "Juan \u201cAccidentes\u201d Dominguez is on his biggest case ever. On behalf of twelve Nicaraguan banana workers he is tackling Dole Food in a ground-breaking legal battle for their use of a banned pesticide that was known by the company to cause sterility. Can he beat the giant, or will the corporation get away with it?", "popularity": 1.885, "poster_path": "/aOPuaBAkBtFWJJsIZMwr0IVJJIn.jpg", "production_companies": [{"id": 4211, "logo_path": null, "name": "Magic Hour Films ApS", "origin_country": ""}, {"id": 10735, "logo_path": null, "name": "WG Film", "origin_country": ""}], "production_countries": [{"iso_3166_1": "DK", "name": "Denmark"}, {"iso_3166_1": "SE", "name": "Sweden"}], "release_date": "2009-10-09", "revenue": 0, "runtime": 87, "spoken_languages": [{"iso_639_1": "en", "name": "English"}, {"iso_639_1": "es", "name": "Espa\u00f1ol"}], "status": "Released", "tagline": "", "title": "Bananas!*", "video": false, "vote_average": 5.9, "vote_count": 8, "keywords": {"keywords": [{"id": 18378, "name": "pesticide"}, {"id": 206570, "name": "banana plantation"}, {"id": 234221, "name": "david vs. goliath"}]}, "similar": {"page": 1, "results": [{"adult": false, "backdrop_path": "/soCg5ubbbpht2uazu19QtqThHxq.jpg", "genre_ids": [99], "id": 124075, "original_language": "en", "original_title": "More Than Honey", "overview": "With dazzling nature photography, Academy Award\u00ae\u2013nominated director Markus Imhoof (The Boat Is Full) takes a global examination of endangered honeybees \u2014 spanning California, Switzerland, China and Australia \u2014 more ambitious than any previous work on the topic.", "poster_path": "/5erg5okLSayOhMmJ62YIkds0yNE.jpg", "release_date": "2012-08-10", "title": "More Than Honey", "video": false, "vote_average": 7.3, "vote_count": 52, "popularity": 4.566}, {"adult": false, "backdrop_path": "/wz67gpCarkUn09rUyvEycxJFmi9.jpg", "genre_ids": [99], "id": 88865, "original_language": "en", "original_title": "Queen of the Sun", "overview": "In 1923, Rudolf Steiner, an Austrian scientist, philosopher &amp; social innovator, predicted that in 80 to 100 years honeybees would collapse. Now, beekeepers around the United States and around the world are reporting an incredible loss of honeybees, a phenomenon deemed \"Colony Collapse Disorder.\" This \"pandemic\" is indicated by bees disappearing in mass numbers from their hives with no clear single explanation. The queen is there, honey is there, but the bees are gone. For the first time, in an alarming inquiry into the insights behind Steiner's prediction QUEEN OF THE SUN: What Are the Bees Telling Us? investigates the long-term causes behind the dire global bee crisis through the eyes of biodynamic beekeepers, commercial beekeepers, scientists and philosophers.", "poster_path": "/kbU5qdWQnrmQv3barebg9p2qKJt.jpg", "release_date": "2010-04-01", "title": "Queen of the Sun", "video": false, "vote_average": 7.0, "vote_count": 6, "popularity": 3.029}, {"adult": false, "backdrop_path": "/9FeV0vtBphuHv8U6La4tEd2Qume.jpg", "genre_ids": [99], "id": 62323, "original_language": "en", "original_title": "Vanishing of the Bees", "overview": "This documentary takes a piercing investigative look at the economic, political and ecological implications of the worldwide disappearance of the honeybee. The film examines our current agricultural landscape and celebrates the ancient and sacred connection between man and the honeybee. The story highlights the positive changes that have resulted due to the tragic phenomenon known as \"Colony Collapse Disorder.\" To empower the audience, the documentary provides viewers with tangible solutions they can apply to their everyday lives. Vanishing of the Bees unfolds as a dramatic tale of science and mystery, illuminating this extraordinary crisis and its greater meaning about the relationship between humankind and Mother Earth. The bees have a message - but will we listen?", "poster_path": "/d19vTshdzXFJ3wHEy0FDO7U9g3X.jpg", "release_date": "2009-10-09", "title": "Vanishing of the Bees", "video": false, "vote_average": 7.1, "vote_count": 11, "popularity": 4.062}, {"id": 5559, "video": false, "vote_count": 2864, "vote_average": 5.9, "title": "Bee Movie", "release_date": "2007-10-28", "original_language": "en", "original_title": "Bee Movie", "genre_ids": [12, 16, 35, 10751], "backdrop_path": "/2lBpQZevIJdL4vPrZ7Nnm7mrVlm.jpg", "adult": false, "overview": "Barry B. Benson, a bee who has just graduated from college, is disillusioned at his lone career choice: making honey. On a special trip outside the hive, Barry's life is saved by Vanessa, a florist in New York City. As their relationship blossoms, he discovers humans actually eat honey, and subsequently decides to sue us.", "poster_path": "/QhbOzpYfBOwrRiuTu9otPk919R.jpg", "popularity": 19.912}, {"id": 1633, "video": false, "vote_count": 697, "vote_average": 7.7, "title": "Fried Green Tomatoes", "release_date": "1991-12-27", "original_language": "en", "original_title": "Fried Green Tomatoes", "genre_ids": [35, 18], "backdrop_path": "/z4Ausah3ytq9kX6ScjAE0jFkPdz.jpg", "adult": false, "overview": "Amidst her own personality crisis, southern housewife Evelyn Couch meets Ninny, an outgoing old woman who tells her the story of Idgie Threadgoode and Ruth Jamison, two young women who experienced hardships and love in Whistle Stop, Alabama in the 1920s.", "poster_path": "/g71l1vbJwyAAYk8zKCkIQQ58qcb.jpg", "popularity": 13.505}, {"id": 499088, "video": false, "vote_count": 23, "vote_average": 7.0, "title": "Maya the Bee: The Honey Games", "release_date": "2018-02-02", "original_language": "en", "original_title": "Maya the Bee: The Honey Games", "genre_ids": [12, 16, 35, 10751], "backdrop_path": "/2BcIBRpD2XoTvFCh4624AZ41Cpt.jpg", "adult": false, "overview": "When an overenthusiastic Maya accidentally embarrasses the Empress of Buzztropolis, she is forced to unite with a team of misfit bugs and compete in the Honey Games for a chance to save her hive.", "poster_path": "/aBfeHekIIjC4mFlark5MWJWDyZn.jpg", "popularity": 14.369}, {"id": 261103, "video": false, "vote_count": 61, "vote_average": 6.1, "title": "Maya the Bee Movie", "release_date": "2014-09-11", "original_language": "en", "original_title": "Maya the Bee Movie", "genre_ids": [16, 10751], "backdrop_path": "/gTHuNNqF3r2GLm34Ojd3ZXpq2IW.jpg", "adult": false, "overview": "Freshly hatched bee Maya is a little whirlwind and won't follow the rules of the hive. One of these rules is not to trust the hornets that live beyond the meadow. When the Royal Jelly is stolen, the hornets are suspected and Maya is thought to be their accomplice. No one believes that she is the innocent victim and no one will stand by her except for her good-natured and best friend Willy. After a long and eventful journey to the hornets hive Maya and Willy soon discover the true culprit and the two friends finally bond with the other residents of the opulent meadow.", "poster_path": "/pMQ88CvnQroSjxk4IhM7YNbcjTx.jpg", "popularity": 11.265}, {"id": 9708, "video": false, "vote_count": 755, "vote_average": 4.2, "title": "The Wicker Man", "release_date": "2006-09-01", "original_language": "en", "original_title": "The Wicker Man", "genre_ids": [18, 27, 9648, 53], "backdrop_path": "/1piVIXxS4K5JVmEIkl1b10Yg3R3.jpg", "adult": false, "overview": "A sheriff investigating the disappearance of a young girl from a small island discovers there's a larger mystery to solve among the island's secretive, neo-pagan community.", "poster_path": "/aeQ65vYvOCRmeO0uaVnjHOiDrXZ.jpg", "popularity": 16.018}, {"id": 54985, "video": false, "vote_count": 18, "vote_average": 6.9, "title": "Wings of Life", "release_date": "2011-03-16", "original_language": "en", "original_title": "Wings of Life", "genre_ids": [99], "backdrop_path": "/mwqv2xdHLW23JfCSKDj2eK5ZWzh.jpg", "adult": false, "overview": "A beautiful love story in danger. Our future depends on an amazing love story between the flowers and fauna consisting of bees, butterflies, birds and bats, which allow these species to reproduce. Delicate and graceful, the flowers are not content to be the ultimate symbol of beauty. On the contrary, their vibrant colors and their exotic flavors are so many wonders that attract pollinators and drunk with desire. All these animals are involved in a complex dance of seduction on which one third of our crops, a dance without which we could survive ... Pollen presents the unsung heroes of the global food chain. Their fantastic worlds are full of stories, drama and beauty. While a fragile and threatened, essential for the balance of the planet, it should now actively protect ...", "poster_path": "/8CJJv7DJCxglkXqkvzmgMb5TMwD.jpg", "popularity": 5.453}, {"id": 46878, "video": false, "vote_count": 83, "vote_average": 5.0, "title": "The Swarm", "release_date": "1978-07-14", "original_language": "en", "original_title": "The Swarm", "genre_ids": [27, 53], "backdrop_path": "/jHuYNN09mmuzC5CqgMf7xgwE6Nx.jpg", "adult": false, "overview": "Scientist Dr. Bradford Crane and army general Thalius Slater join forces to fight an almost invisible enemy threatening America; killer bees that have deadly venom and attack without reason. Disaster movie-master Irwin Allen's film contains spectacular special effects, including a train crash caused by the eponymous swarm.", "poster_path": "/4AsVSKw3cIPYilkxnPtPwv4Uhbr.jpg", "popularity": 8.636}, {"adult": false, "backdrop_path": "/gVqObIkuuaE7irQ4MC4CaCL7jlT.jpg", "genre_ids": [18], "id": 55306, "original_language": "en", "original_title": "Ulee's Gold", "overview": "An elderly beekeeper and Vietnam vet must rescue his daughter-in-law and protect his grandchildren from killers.", "poster_path": "/uGoXXAGHhjdDzHmt8PkYKfSwqu3.jpg", "release_date": "1997-06-13", "title": "Ulee's Gold", "video": false, "vote_average": 6.2, "vote_count": 33, "popularity": 3.822}, {"adult": false, "backdrop_path": "/hIOlalJesWd30rPmUQ6wZ5UpxUp.jpg", "genre_ids": [14, 16, 18, 35, 878], "id": 22561, "original_language": "it", "original_title": "Allegro non troppo", "overview": "The film is a parody of Disney's Fantasia, though possibly more of a challenge to Fantasia than parody status would imply. In the context of this film, \"Allegro non Troppo\" means Not So Fast!, an interjection meaning \"slow down\" or \"think before you act\" and refers to the film's pessimistic view of Western progress (as opposed to the optimism of Disney's original).", "poster_path": "/hiB3BxFjJFVJVZHLaYkwTF1F4WN.jpg", "release_date": "1976-03-12", "title": "Allegro non troppo", "video": false, "vote_average": 7.2, "vote_count": 40, "popularity": 7.053}, {"adult": false, "backdrop_path": "/lCE88IkoxaQ1vFehBAUHidYPquw.jpg", "genre_ids": [27, 53, 9648], "id": 47003, "original_language": "en", "original_title": "The Deadly Bees", "overview": "Trouble strikes when an exhausted pop singer, sent on a vacation to a farm, realizes that the farm's owner grows deadly bees.", "poster_path": "/ecGIP2ixcNSD4mJMcDRyUXb3Cbx.jpg", "release_date": "1966-12-23", "title": "The Deadly Bees", "video": false, "vote_average": 4.1, "vote_count": 16, "popularity": 5.136}, {"id": 47508, "video": false, "vote_count": 16, "vote_average": 5.3, "title": "The Wizard of Oz", "release_date": "1925-01-01", "original_language": "en", "original_title": "The Wizard of Oz", "genre_ids": [35, 14, 10751], "backdrop_path": "/gbnSIE0vW2cfwjzx5s28Crtm8KP.jpg", "adult": false, "overview": "A farm girl learns she is a princess and is swept away by a tornado to the land of Oz.", "poster_path": "/cPJRF8hC3tIqpRtffhgQ24YOO3g.jpg", "popularity": 3.398}, {"adult": false, "backdrop_path": "/xl2UhcMFSyZ2oMgsYxY8SiHP20o.jpg", "genre_ids": [99], "id": 381058, "original_language": "en", "original_title": "Silicon Cowboys", "overview": "Launched in 1982 by three friends in a Houston diner, Compaq Computer set out to build a portable PC to take on IBM, the world\u2019s most powerful tech company. Many had tried cloning the industry leader\u2019s code, only to be trounced by IBM and its high-priced lawyers. Explore the remarkable David vs. Goliath story, and eventual demise, of Compaq, an unlikely upstart who altered the future of computing and helped shape the world as we know it today.", "poster_path": "/i6PPXhhJotvSqX2GhIZiGHVdZ96.jpg", "release_date": "2016-09-16", "title": "Silicon Cowboys", "video": false, "vote_average": 6.8, "vote_count": 36, "popularity": 6.365}, {"adult": false, "backdrop_path": "/9bBaKcqxpk2kx7ujApW4hTN5oS3.jpg", "genre_ids": [27, 878, 53], "id": 27084, "original_language": "en", "original_title": "Invasion of the Bee Girls", "overview": "Neil Agar, a security agent with the State Department, is dispatched to Peckham, California to investigate the death of a bacteriologist working at government-sponsored Brandt Research. His investigation is soon complicated by a growing number of deaths, all men who died of congestive heart failure caused by sexual exhaustion.", "poster_path": "/dmL2JhlGeY5qI3nsEoEqJEyb1oi.jpg", "release_date": "1973-06-01", "title": "Invasion of the Bee Girls", "video": false, "vote_average": 4.2, "vote_count": 25, "popularity": 7.092}, {"adult": false, "backdrop_path": "/ecKinA3502kiiCiaheOo4lFk789.jpg", "genre_ids": [99, 878], "id": 54400, "original_language": "en", "original_title": "Wax, or: The Discovery of Television Among the Bees", "overview": "Computer programmer/beekeeper Jacob gets a \"television\" implanted in his brain by a race of telekinetic bees, which causes him to experience severe hallucinations. (Includes: Mesopotamian bees, souls living inside weapons, the land of the dead in the Moon, Cain, the Trinity site, the tower of Babel, and a planet TV transmitting the dead of the future inside the Garden of Eden Cave which are giant bees, a Supranormal Film Society trying to capture the dead on film in the 1920's, the letter X, missiles turning into flying saucers, a beekeeper who is murdered by his own bees, and the cities of the dead)", "poster_path": "/oI0gNLzPdd9uQEckt6NQlcgesKH.jpg", "release_date": "1991-10-21", "title": "Wax, or: The Discovery of Television Among the Bees", "video": false, "vote_average": 5.8, "vote_count": 4, "popularity": 1.152}, {"id": 202125, "video": false, "vote_count": 1, "vote_average": 7.5, "title": "Just a Gigolo", "release_date": "1931-06-06", "original_language": "en", "original_title": "Just a Gigolo", "genre_ids": [35, 10749], "backdrop_path": "/zbVEUGIQnNMOumZlvy18voV64ym.jpg", "adult": false, "overview": "A playboy pretends to be a paid escort in order to court--and test the moral character of--a young British socialite. Comedy.", "poster_path": "/wVOizaIUqgUuG1cafMtzU3I2Dvl.jpg", "popularity": 2.465}, {"adult": false, "backdrop_path": "/dajc89ON7M6fGqhO1wJiE7LCwUB.jpg", "genre_ids": [99], "id": 491591, "original_language": "en", "original_title": "The Lonely Battle of Thomas Reid", "overview": "The story of Irish farmer Thomas Reid who, for years, has been locked in a grueling battle with his neighbor - U.S. microchip manufacturer Intel who want to expand into Reid\u2019s land.", "poster_path": "/nXUIcQwqZWJVicExfGlYAxuAcn8.jpg", "release_date": "2017-11-18", "title": "The Lonely Battle of Thomas Reid", "video": false, "vote_average": 10.0, "vote_count": 2, "popularity": 1.172}, {"adult": false, "backdrop_path": "/yojnCryTsxEQLzMNtmNBImrGBkS.jpg", "genre_ids": [99], "id": 354202, "original_language": "fr", "original_title": "Disparition des abeilles, la fin d'un myst\u00e8re", "overview": "", "poster_path": "/dHm68FLqc2xUEJlG3yNfWShz4nH.jpg", "release_date": "2011-06-07", "title": "Disparition des abeilles, la fin d'un myst\u00e8re", "video": false, "vote_average": 0.0, "vote_count": 0, "popularity": 0.6}], "total_pages": 2, "total_results": 38}, "recommendations": {"page": 1, "results": [{"id": 141267, "video": false, "vote_count": 20, "vote_average": 6.9, "title": "Johan Falk: Kodnamn Lisa", "release_date": "2013-03-15", "original_language": "sv", "original_title": "Johan Falk: Kodnamn Lisa", "genre_ids": [28, 80, 53], "backdrop_path": "/bIrGE5XbwjxTu3lbxPERrroTpxB.jpg", "adult": false, "overview": "Five men break into Frank Wagner's apartment. Frank is able to escape and seeks out the help of Johan Falk. Has someone leaked that Frank is working with the police? Frank and John do not know who knows what and who they can trust.", "poster_path": "/moWsHkIwsnpFtoT1kORa9rWNyKh.jpg", "popularity": 4.542}, {"adult": false, "backdrop_path": "/oW4JOmRjJVwpOC4yjFO1xIkUfVV.jpg", "genre_ids": [18], "id": 202573, "original_language": "sv", "original_title": "\u00c5tertr\u00e4ffen", "overview": "A film between fiction and reality, highlighting questions about group dynamics and established hierarchies. A group of people meet for their high school reunion 20 years later. One of them talks about her being bullied and outcast and soon the former classmates fall back to the roles they used to have back in school. But this is just half of the film.", "poster_path": "/dvo522zWPWSarkyQR7fbLj3Xn8u.jpg", "release_date": "2013-11-15", "title": "The Reunion", "video": false, "vote_average": 6.8, "vote_count": 29, "popularity": 2.383}, {"adult": false, "backdrop_path": "/kEWDGiy9UWnoLEEEdDBJTsVUu4w.jpg", "genre_ids": [18], "id": 14357, "original_language": "sv", "original_title": "Ping-pongkingen", "overview": "Rille, an ostracized and bullied teenager, who only excels in the ping pong room, descends into a life-and-death struggle with his younger, more popular brother when the truth about their father surfaces during their spring break.", "poster_path": "/yIqBNytUDRqWFR5X5yx0SbzQmz8.jpg", "release_date": "2008-01-18", "title": "The King of Ping Pong", "video": false, "vote_average": 6.6, "vote_count": 10, "popularity": 2.334}, {"adult": false, "backdrop_path": "/45Br7BGdlv0xfQFwVWKwZTVmOvI.jpg", "genre_ids": [10752, 18], "id": 52885, "original_language": "hu", "original_title": "Csillagosok, Katon\u00e1k", "overview": "In 1919, Hungarian Communists aid the Bolsheviks' defeat of Czarists, the Whites. Near the Volga, a monastery and a field hospital are held by one side then the other.", "poster_path": "/uQ8ibpzogPsroMu9tg0UX0FqQPG.jpg", "release_date": "1967-11-03", "title": "The Red and the White", "video": false, "vote_average": 7.2, "vote_count": 31, "popularity": 5.365}], "total_pages": 1, "total_results": 4}, "credits": {"cast": [{"cast_id": 16, "character": "Himself", "credit_id": "52fe45de9251416c9104122d", "gender": 0, "id": 1096494, "name": "Byron Rosales Romero", "order": 0, "profile_path": null}, {"cast_id": 17, "character": "Himself", "credit_id": "52fe45de9251416c91041231", "gender": 0, "id": 1096495, "name": "Juan J. Dominguez", "order": 1, "profile_path": null}, {"cast_id": 18, "character": "Himself", "credit_id": "52fe45de9251416c91041235", "gender": 0, "id": 1096496, "name": "Duane Miller", "order": 2, "profile_path": null}, {"cast_id": 19, "character": "Himself", "credit_id": "52fe45de9251416c91041239", "gender": 0, "id": 1096497, "name": "Rick McKnight", "order": 3, "profile_path": null}, {"cast_id": 20, "character": "Himself", "credit_id": "52fe45de9251416c9104123d", "gender": 0, "id": 1096498, "name": "David Delorenzo", "order": 4, "profile_path": null}, {"cast_id": 21, "character": "Herself", "credit_id": "52fe45de9251416c91041241", "gender": 0, "id": 1096499, "name": "Mercedes Del Carmen Romero", "order": 5, "profile_path": null}], "crew": [{"credit_id": "52fe45dd9251416c910411e7", "department": "Directing", "gender": 0, "id": 115279, "job": "Director", "name": "Fredrik Gertten", "profile_path": "/6f6OFzX03M1V2xlnFOWjRQsBHt8.jpg"}, {"credit_id": "52fe45dd9251416c910411ed", "department": "Sound", "gender": 2, "id": 2863, "job": "Music", "name": "Nathan Larson", "profile_path": null}, {"credit_id": "52fe45dd9251416c910411f3", "department": "Production", "gender": 0, "id": 1096490, "job": "Producer", "name": "Lars Bildt", "profile_path": null}, {"credit_id": "52fe45dd9251416c910411f9", "department": "Production", "gender": 0, "id": 1096491, "job": "Producer", "name": "Jade Fox", "profile_path": null}, {"credit_id": "52fe45de9251416c910411ff", "department": "Production", "gender": 0, "id": 115279, "job": "Producer", "name": "Fredrik Gertten", "profile_path": "/6f6OFzX03M1V2xlnFOWjRQsBHt8.jpg"}, {"credit_id": "52fe45de9251416c91041205", "department": "Production", "gender": 0, "id": 1096492, "job": "Producer", "name": "Marta Clarissa Hernandez", "profile_path": null}, {"credit_id": "52fe45de9251416c9104120b", "department": "Production", "gender": 0, "id": 96169, "job": "Producer", "name": "Lise Lense-M\u00f8ller", "profile_path": null}, {"credit_id": "52fe45de9251416c91041211", "department": "Production", "gender": 0, "id": 69362, "job": "Producer", "name": "Bart Simpson", "profile_path": null}, {"credit_id": "52fe45de9251416c91041217", "department": "Production", "gender": 0, "id": 1096489, "job": "Producer", "name": "Margarete Jang\u00e5rd", "profile_path": null}, {"credit_id": "52fe45de9251416c9104121d", "department": "Crew", "gender": 0, "id": 1046692, "job": "Cinematography", "name": "Joseph Aguirre", "profile_path": null}, {"credit_id": "52fe45de9251416c91041223", "department": "Crew", "gender": 2, "id": 966798, "job": "Cinematography", "name": "Frank Pineda", "profile_path": null}, {"credit_id": "52fe45de9251416c91041229", "department": "Editing", "gender": 0, "id": 1096493, "job": "Editor", "name": "Jesper Osmund", "profile_path": null}]}}