{"adult": false, "backdrop_path": "/m8om9oL0fyk5YPkkK1ILFSTSGB8.jpg", "belongs_to_collection": null, "budget": 0, "genres": [{"id": 28, "name": "Action"}, {"id": 27, "name": "Horror"}], "homepage": null, "id": 364153, "imdb_id": "tt3397948", "original_language": "en", "original_title": "Zombie Ninjas vs Black Ops", "overview": "In the clandestine research tower of a ruthless Japanese security and arms company, Saisei Security, scientist MALI awakens employed mercenaries killed in combat, their death giving rise to a new, vicious breed of zombie... ZOMBIE NINJAS. Trapped amongst unsuspecting civilians, including former tactical operative DILLON (Adam T Perkins), the ZOMBIE NINJAS commanded by a ferocious leader (Soa 'The Hulk' Palelei) are unleashed in the inner city high-rise. They soon face off with the covert response mission deployed to fight back. This elite black ops team underestimates the brutality of their encounter, which ultimately tests their loyalty and friendship, resulting in a frightful assault between these two highly skilled lethal forces and DILLON thrust in the middle fighting for survival.", "popularity": 1.599, "poster_path": "/z9TvguHLqWuALBgCUZxgCnqRAk4.jpg", "production_companies": [], "production_countries": [{"iso_3166_1": "AU", "name": "Australia"}], "release_date": "2015-10-10", "revenue": 0, "runtime": 94, "spoken_languages": [{"iso_639_1": "en", "name": "English"}], "status": "Released", "tagline": "What doesn't kill you, will try and try again.", "title": "Zombie Ninjas vs Black Ops", "video": false, "vote_average": 2.5, "vote_count": 2, "keywords": {"keywords": [{"id": 12377, "name": "zombie"}]}, "similar": {"page": 1, "results": [{"id": 6479, "video": false, "vote_count": 9817, "vote_average": 7.1, "title": "I Am Legend", "release_date": "2007-12-14", "original_language": "en", "original_title": "I Am Legend", "genre_ids": [28, 18, 27, 878, 53], "backdrop_path": "/u6Qg7TH7Oh1IFWCQSRr4htFFt0A.jpg", "adult": false, "overview": "Robert Neville is a scientist who was unable to stop the spread of the terrible virus that was incurable and man-made. Immune, Neville is now the last human survivor in what is left of New York City and perhaps the world. For three years, Neville has faithfully sent out daily radio messages, desperate to find any other survivors who might be out there. But he is not alone.", "poster_path": "/9skUuHTFtsJznuFPwmB17ZZvq09.jpg", "popularity": 29.22}, {"id": 294254, "video": false, "vote_count": 6849, "vote_average": 6.6, "title": "Maze Runner: The Scorch Trials", "release_date": "2015-09-09", "original_language": "en", "original_title": "Maze Runner: The Scorch Trials", "genre_ids": [28, 878, 53], "backdrop_path": "/iapRFMGKvN9tsjqPlN7MIDTCezG.jpg", "adult": false, "overview": "Thomas and his fellow Gladers face their greatest challenge yet: searching for clues about the mysterious and powerful organization known as WCKD. Their journey takes them to the Scorch, a desolate landscape filled with unimaginable obstacles. Teaming up with resistance fighters, the Gladers take on WCKD\u2019s vastly superior forces and uncover its shocking plans for them all.", "poster_path": "/vlTPQANjLYTebzFJM1G4KeON0cb.jpg", "popularity": 28.283}, {"id": 10925, "video": false, "vote_count": 551, "vote_average": 7.3, "title": "The Return of the Living Dead", "release_date": "1985-04-25", "original_language": "en", "original_title": "The Return of the Living Dead", "genre_ids": [35, 27], "backdrop_path": "/jA34vdJCxOZUoi4khkfhq1pX3WG.jpg", "adult": false, "overview": "When a bumbling pair of employees at a medical supply warehouse accidentally release a deadly gas into the air, the vapors cause the dead to re-animate as they go on a rampage seeking their favorite food: brains!", "poster_path": "/1vydUitzC8W8W5oNevEArCltydJ.jpg", "popularity": 13.326}, {"id": 346651, "video": false, "vote_count": 156, "vote_average": 4.5, "title": "Pandemic", "release_date": "2016-02-26", "original_language": "en", "original_title": "Pandemic", "genre_ids": [28, 27, 878, 53], "backdrop_path": "/h7eRhbSdrIUf7X570vtwu0XDp89.jpg", "adult": false, "overview": "After a virus of epic proportions overwhelms the planet\u2014with more infected than uninfected\u2014humanity is losing its grip on survival and its only hope is finding a cure and keeping the infected contained. Lauren, a doctor, arrives in Los Angeles with her crack team to lead the hunt for uncontaminated civilian survivors, but nothing can prepare them for the blood-soaked mayhem they witness as they head into the Californian streets where everything is considered a trap.", "poster_path": "/kzmY5TD17UYwSajMziiKs72uZKx.jpg", "popularity": 8.999}, {"id": 8408, "video": false, "vote_count": 568, "vote_average": 7.0, "title": "Day of the Dead", "release_date": "1985-07-19", "original_language": "en", "original_title": "Day of the Dead", "genre_ids": [27, 878], "backdrop_path": "/pWaXoU1aqD2KpMVLt4E9ZmKQXIk.jpg", "adult": false, "overview": "Trapped in a missile silo, a small team of scientists, civilians and trigger-happy soldiers battle desperately to ensure the survival of the human race. However, the tension inside the base is reaching a breaking point, and the zombies are gathering outside.", "poster_path": "/yJ2emwXWwQc6VHW3fO4GZr0hXBt.jpg", "popularity": 9.762}, {"adult": false, "backdrop_path": "/eHaGbnX2kukzcYGOpNF3YLPmOG5.jpg", "genre_ids": [27, 35], "id": 16281, "original_language": "en", "original_title": "Creepshow", "overview": "Inspired by the E.C. comics of the 1950s, George A. Romero and Stephen King bring five tales of terror to the screen.", "poster_path": "/hgKeTL416BPzLZntcsD1k7mNFRN.jpg", "release_date": "1982-11-12", "title": "Creepshow", "video": false, "vote_average": 6.8, "vote_count": 458, "popularity": 13.179}, {"id": 923, "video": false, "vote_count": 1067, "vote_average": 7.5, "title": "Dawn of the Dead", "release_date": "1978-09-02", "original_language": "en", "original_title": "Dawn of the Dead", "genre_ids": [27], "backdrop_path": "/vCD9mRgSY4HuoSowm8JO4tm2mhj.jpg", "adult": false, "overview": "During an ever-growing epidemic of zombies that have risen from the dead, two Philadelphia SWAT team members, a traffic reporter, and his television-executive girlfriend seek refuge in a secluded shopping mall.", "poster_path": "/yK8BmYEvd0IPpDXL6zzlTA2geDf.jpg", "popularity": 11.925}, {"id": 133121, "video": false, "vote_count": 360, "vote_average": 6.5, "title": "Resident Evil: Damnation", "release_date": "2012-09-25", "original_language": "en", "original_title": "Biohazard: Damnation", "genre_ids": [16, 27], "backdrop_path": "/6pRNDb0yStxlwhavn2ZqYRVFOJ5.jpg", "adult": false, "overview": "U.S. federal agent Leon S. Kennedy sneaks into the \"East Slavic Republic\" to verify rumors that Bio-Organic Weapons (BOWs) are being used in the country's civil war, which the U.S. and Russia are making preparations to jointly intervene in. Right after his infiltration, the U.S. government orders him to leave immediately. Determined to uncover the truth, Leon ignores the order and enters the battlefield to end the chain of tragedies caused by the BOWs.", "poster_path": "/hj2xHc35cEscP7oj6DqCK6IbNIC.jpg", "popularity": 16.091}, {"id": 72190, "video": false, "vote_count": 9917, "vote_average": 6.7, "title": "World War Z", "release_date": "2013-06-20", "original_language": "en", "original_title": "World War Z", "genre_ids": [28, 18, 27, 878, 53], "backdrop_path": "/xMOQVYLeIKBXenJ9KMeasj7S64y.jpg", "adult": false, "overview": "Life for former United Nations investigator Gerry Lane and his family seems content. Suddenly, the world is plagued by a mysterious infection turning whole human populations into rampaging mindless zombies. After barely escaping the chaos, Lane is persuaded to go on a mission to investigate this disease. What follows is a perilous trek around the world where Lane must brave horrific dangers and long odds to find answers before human civilization falls.", "poster_path": "/Ha5t0J21eyiq6Az1EXzx0iwsGH.jpg", "popularity": 27.681}, {"adult": false, "backdrop_path": "/bvbyidkMaBls1LTaIWYY6UmYTaL.jpg", "genre_ids": [28, 878], "id": 336843, "original_language": "en", "original_title": "Maze Runner: The Death Cure", "overview": "Thomas leads his group of escaped Gladers on their final and most dangerous mission yet. To save their friends, they must break into the legendary Last City, a WCKD-controlled labyrinth that may turn out to be the deadliest maze of all. Anyone who makes it out alive will get answers to the questions the Gladers have been asking since they first arrived in the maze.", "poster_path": "/2zYfzA3TBwrMC8tfFbpiTLODde0.jpg", "release_date": "2018-01-10", "title": "Maze Runner: The Death Cure", "video": false, "vote_average": 7.0, "vote_count": 4396, "popularity": 25.259}, {"id": 747, "video": false, "vote_count": 5110, "vote_average": 7.5, "title": "Shaun of the Dead", "release_date": "2004-04-09", "original_language": "en", "original_title": "Shaun of the Dead", "genre_ids": [35, 27], "backdrop_path": "/50mMiR0R1QclaAODTutwXBrReLJ.jpg", "adult": false, "overview": "Shaun lives a supremely uneventful life, which revolves around his girlfriend, his mother, and, above all, his local pub. This gentle routine is threatened when the dead return to life and make strenuous attempts to snack on ordinary Londoners.", "poster_path": "/2evlcGnsfdFWLb7geNlIjIewc0Q.jpg", "popularity": 25.866}, {"id": 126889, "video": false, "vote_count": 5389, "vote_average": 5.9, "title": "Alien: Covenant", "release_date": "2017-05-09", "original_language": "en", "original_title": "Alien: Covenant", "genre_ids": [27, 878, 53], "backdrop_path": "/6jajFcaY2YsfGQstJ5HaqZNVseX.jpg", "adult": false, "overview": "Bound for a remote planet on the far side of the galaxy, the crew of the colony ship 'Covenant' discovers what is thought to be an uncharted paradise, but is actually a dark, dangerous world\u2014which has a sole inhabitant: the 'synthetic', David, survivor of the doomed Prometheus expedition.", "poster_path": "/zecMELPbU5YMQpC81Z8ImaaXuf9.jpg", "popularity": 36.026}, {"id": 338967, "video": false, "vote_count": 1169, "vote_average": 7.0, "title": "Zombieland: Double Tap", "release_date": "2019-10-09", "original_language": "en", "original_title": "Zombieland: Double Tap", "genre_ids": [28, 35, 27], "backdrop_path": "/3ghImmHdp4RnC3UkL6hpLayclnb.jpg", "adult": false, "overview": "Columbus, Tallahassee, Wichita, and Little Rock move to the American heartland as they face off against evolved zombies, fellow survivors, and the growing pains of the snarky makeshift family.", "poster_path": "/dtRbVsUb5O12WWO54SRpiMtHKC0.jpg", "popularity": 66.191}, {"adult": false, "backdrop_path": "/5RPXs9g0sZ9Woo4pNLxdXdge7tc.jpg", "genre_ids": [14, 27, 35], "id": 766, "original_language": "en", "original_title": "Army of Darkness", "overview": "A man is accidentally transported to 1300 A.D., where he must battle an army of the dead and retrieve the Necronomicon so he can return home.", "poster_path": "/2eZKDIwLNnySbwqQtAaUz0kYDIL.jpg", "release_date": "1992-10-09", "title": "Army of Darkness", "video": false, "vote_average": 7.3, "vote_count": 1664, "popularity": 18.122}, {"id": 19908, "video": false, "vote_count": 7598, "vote_average": 7.2, "title": "Zombieland", "release_date": "2009-10-07", "original_language": "en", "original_title": "Zombieland", "genre_ids": [35, 27], "backdrop_path": "/lLgLFzSZduH9kBxrk6BvoHc1gg0.jpg", "adult": false, "overview": "Columbus has made a habit of running from what scares him. Tallahassee doesn't have fears. If he did, he'd kick their ever-living ass. In a world overrun by zombies, these two are perfectly evolved survivors. But now, they're about to stare down the most terrifying prospect of all: each other.", "poster_path": "/vUzzDpVrab1BOG3ogxhRGfLN94d.jpg", "popularity": 27.301}, {"adult": false, "backdrop_path": "/nESF8Tw4BYnDy8PUDkF5SLIlzTJ.jpg", "genre_ids": [27, 53, 878], "id": 170, "original_language": "en", "original_title": "28 Days Later", "overview": "Twenty-eight days after a killer virus was accidentally unleashed from a British research facility, a small group of London survivors are caught in a desperate struggle to protect themselves from the infected. Carried by animals and humans, the virus turns those it infects into homicidal maniacs -- and it's absolutely impossible to contain.", "poster_path": "/xaYdxi1PBEAYvqknvAmMPK5Eff3.jpg", "release_date": "2002-10-31", "title": "28 Days Later", "video": false, "vote_average": 7.2, "vote_count": 3665, "popularity": 19.311}, {"adult": false, "backdrop_path": "/oeGQCv7bRZKaDOxLFC8oqVRCnOd.jpg", "genre_ids": [878, 35, 27], "id": 1694, "original_language": "en", "original_title": "Re-Animator", "overview": "A dedicated student at a medical college and his girlfriend become involved in bizarre experiments centering around the re-animation of dead tissue when an odd new student arrives on campus.", "poster_path": "/hJnP2O0uTuh8HsR094WLTi3sQwc.jpg", "release_date": "1985-10-18", "title": "Re-Animator", "video": false, "vote_average": 7.1, "vote_count": 558, "popularity": 14.126}, {"id": 485415, "video": false, "vote_count": 277, "vote_average": 4.1, "title": "Day of the Dead: Bloodline", "release_date": "2018-01-04", "original_language": "en", "original_title": "Day of the Dead: Bloodline", "genre_ids": [28, 27], "backdrop_path": "/1CKntz5l7oblq2RYligHHvY64sh.jpg", "adult": false, "overview": "In a world overrun by zombies, military personnel and survivalists live in an underground bunker while they seek a cure.", "poster_path": "/3jM4C1wJxHLWlF4tcSyyv6fnJPR.jpg", "popularity": 14.184}, {"adult": false, "backdrop_path": "/5CPIk2eE3Nk4UPwx5HCHKDdIiJs.jpg", "genre_ids": [35, 27, 878], "id": 11429, "original_language": "en", "original_title": "Beyond Re-Animator", "overview": "Once again tampering with mother nature to disastrous results, Dr. Herbert West continues his research while serving time in a maximum security prison for his previous exploits. West's limited prison-cell experiments are suddenly interrupted by the arrival of a new prison doctor and the brother of the girl who suffered from West's experiments 13 years earlier.", "poster_path": "/7K8odajc1QUaeOtD5XvlBiWzypQ.jpg", "release_date": "2003-04-04", "title": "Beyond Re-Animator", "video": false, "vote_average": 5.5, "vote_count": 124, "popularity": 10.121}, {"adult": false, "backdrop_path": "/pAD4FAkCERB3sDprJM4f5YaKL3v.jpg", "genre_ids": [27, 35], "id": 24935, "original_language": "en", "original_title": "Return of the Living Dead: Necropolis", "overview": "A group of teenagers who, in an attempt to rescue their friend from an evil corporation, end up releasing a horde of blood thirsty zombies.", "poster_path": "/wez633rPnd9x4xObQwRHmOOM5sE.jpg", "release_date": "2005-10-15", "title": "Return of the Living Dead: Necropolis", "video": false, "vote_average": 3.6, "vote_count": 56, "popularity": 7.853}], "total_pages": 76, "total_results": 1503}, "recommendations": {"page": 1, "results": [], "total_pages": 1, "total_results": 0}, "credits": {"cast": [{"cast_id": 0, "character": "Eddie", "credit_id": "56224d87c3a3680e1d00bc85", "gender": 0, "id": 1438817, "name": "Korum Ellis", "order": 1, "profile_path": "/ootaI2lytpc5ZE7wtp97WYo8Kgz.jpg"}, {"cast_id": 1, "character": "Dillion", "credit_id": "56224e0cc3a3686868005933", "gender": 0, "id": 1438836, "name": "Adam T Perkins", "order": 2, "profile_path": "/s6bafPBiefeM2LYN9nPPyBLXuAR.jpg"}], "crew": [{"credit_id": "5622526692514171d400b484", "department": "Directing", "gender": 0, "id": 1466391, "job": "Director", "name": "Rody Claude", "profile_path": null}]}}