{"adult": false, "backdrop_path": "/giw4IqjGwMEmATaQv3Zsn7BKjWO.jpg", "belongs_to_collection": null, "budget": 0, "genres": [{"id": 18, "name": "Drama"}, {"id": 10749, "name": "Romance"}], "homepage": null, "id": 36447, "imdb_id": "tt0115837", "original_language": "en", "original_title": "Carried Away", "overview": "Based on Jim Harrison's book, \"Farmer\". 47-year-old Joseph Svenden lives on the family farm with his dying mother and teaches at a two room schoolhouse with Rosealee, his lover and his best friend's widow. Joseph, who lacks a college degree, learns that he will lose his teaching job at the end of the year when the school district expands into his town. Meanwhile, he is seduced by 17-year-old Catherine, a new student in his class. His affair with Catherine and losing his teaching job forces Joseph to take a look at his previously dull life and to decide how he wants to live the rest of it.", "popularity": 3.981, "poster_path": "/5O8xOTiyROkAeuPLVV2dO0eo28R.jpg", "production_companies": [], "production_countries": [], "release_date": "1996-01-26", "revenue": 0, "runtime": 109, "spoken_languages": [{"iso_639_1": "en", "name": "English"}], "status": "Released", "tagline": "A story of first loves and last chances.", "title": "Carried Away", "video": false, "vote_average": 5.7, "vote_count": 7, "keywords": {"keywords": [{"id": 1328, "name": "secret"}, {"id": 2983, "name": "passion"}, {"id": 4129, "name": "widow"}, {"id": 4932, "name": "farm"}, {"id": 10508, "name": "teacher"}, {"id": 14534, "name": "relationship"}, {"id": 15319, "name": "attraction"}]}, "similar": {"page": 1, "results": [{"adult": false, "backdrop_path": "/Ao2bnJMmcFepMVw1BUay25tt7TM.jpg", "genre_ids": [18, 10749], "id": 1259, "original_language": "en", "original_title": "Notes on a Scandal", "overview": "A veteran high school teacher befriends a younger art teacher, who is having an affair with one of her 15-year-old students. However, her intentions with this new \"friend\" also go well beyond platonic friendship.", "poster_path": "/lXZa1mHZ8eD0VOpNaLfvM9tSpAj.jpg", "release_date": "2006-12-25", "title": "Notes on a Scandal", "video": false, "vote_average": 7.1, "vote_count": 463, "popularity": 10.007}, {"id": 1791, "video": false, "vote_count": 468, "vote_average": 7.4, "title": "The Piano Teacher", "release_date": "2001-07-21", "original_language": "fr", "original_title": "La Pianiste", "genre_ids": [18, 10749], "backdrop_path": "/mNXNFlZXeJYSqTGIiweEaMxGYfO.jpg", "adult": false, "overview": "Erika Kohut, a sexually repressed piano teacher living with her domineering mother, meets a young man who starts romantically pursuing her.", "poster_path": "/ln8Ip9Etw4jxzxSuXSTwFqsfsSY.jpg", "popularity": 18.684}, {"id": 17612, "video": false, "vote_count": 296, "vote_average": 7.0, "title": "Lost and Delirious", "release_date": "2001-01-21", "original_language": "en", "original_title": "Lost and Delirious", "genre_ids": [18, 10749], "backdrop_path": "/jvG6o8FobdmXr6bFr4v9MVOHWoX.jpg", "adult": false, "overview": "LOST AND DELIRIOUS is the story of three adolescent girls' first love, their discovery of sexual passion, and their search for identities. Set in a posh, private boarding school surrounded by luxuriant, green forest, LOST AND DELIRIOUS moves swiftly from academic routine, homesickness, and girlish silliness to the darker region of lover's intrigue.", "poster_path": "/3Cu95A09arsfTsOJfygVwhJe5qc.jpg", "popularity": 10.004}, {"adult": false, "backdrop_path": "/AqocxdL9luA7ALU0gGSHDzDy254.jpg", "genre_ids": [14, 16, 18, 878], "id": 14069, "original_language": "ja", "original_title": "\u6642\u3092\u304b\u3051\u308b\u5c11\u5973", "overview": "When 17-year-old Makoto Konno gains the ability to, quite literally, \"leap\" backwards through time, she immediately sets about improving her grades and preventing personal mishaps. However, she soon realises that changing the past isn't as simple as it seems, and eventually, will have to rely on her new powers to shape the future of herself and her friends.", "poster_path": "/7oNeWrsaiMGxCrvkWjQ56y6JN85.jpg", "release_date": "2006-07-15", "title": "The Girl Who Leapt Through Time", "video": false, "vote_average": 7.8, "vote_count": 1043, "popularity": 23.641}, {"adult": false, "backdrop_path": "/7DwSXdN28VA5wQYw49PKpxhR1Lq.jpg", "genre_ids": [18, 14], "id": 1024, "original_language": "en", "original_title": "Heavenly Creatures", "overview": "Wealthy and precocious teenager Juliet transfers from England to New Zealand with her family, and soon befriends the quiet, brooding Pauline through their shared love of fantasy and literature. When their parents begin to suspect that their increasingly intense and obsessive bond is becoming unhealthy, the girls hatch a dark plan for those who threaten to keep them apart.", "poster_path": "/5ek49TUeqStPmKwNdxrCSUAdXNe.jpg", "release_date": "1994-09-12", "title": "Heavenly Creatures", "video": false, "vote_average": 7.1, "vote_count": 519, "popularity": 11.798}, {"id": 38, "video": false, "vote_count": 8439, "vote_average": 8.1, "title": "Eternal Sunshine of the Spotless Mind", "release_date": "2004-03-19", "original_language": "en", "original_title": "Eternal Sunshine of the Spotless Mind", "genre_ids": [18, 878, 10749], "backdrop_path": "/1dXTsaFxHoF9cas08UjAqE8NqOW.jpg", "adult": false, "overview": "Joel Barish, heartbroken that his girlfriend underwent a procedure to erase him from her memory, decides to do the same. However, as he watches his memories of her fade away, he realises that he still loves her, and may be too late to correct his mistake.", "poster_path": "/7y3eYvTsGjxPYDtSnumCLIMDkrV.jpg", "popularity": 22.167}, {"id": 521, "video": false, "vote_count": 1257, "vote_average": 8.0, "title": "Dial M for Murder", "release_date": "1954-05-29", "original_language": "en", "original_title": "Dial M for Murder", "genre_ids": [80, 18, 9648, 53], "backdrop_path": "/jVMlfESb0TJ29w8CUDDofEprMmn.jpg", "adult": false, "overview": "An ex-tennis pro carries out a plot to have his wife murdered after discovering she is having an affair, and assumes she will soon leave him for the other man anyway. When things go wrong, he improvises a new plan\u2014to frame her for murder instead.", "poster_path": "/xrpK1PyckNWmRxU4kZURfaCyboS.jpg", "popularity": 34.566}, {"id": 484247, "video": false, "vote_count": 2294, "vote_average": 6.6, "title": "A Simple Favor", "release_date": "2018-08-29", "original_language": "en", "original_title": "A Simple Favor", "genre_ids": [35, 80, 18, 9648, 53], "backdrop_path": "/nb1s8r6MhDcPyMjx3sjw9rFsEP5.jpg", "adult": false, "overview": "Stephanie, a dedicated mother and popular vlogger, befriends Emily, a mysterious upper-class woman whose son Nicky attends the same school as Miles, Stephanie's son. When Emily asks her to pick Nicky up from school and then disappears, Stephanie undertakes an investigation that will dive deep into Emily's cloudy past.", "poster_path": "/aIYsjQM0piKc0ibPBCTWv3sqshj.jpg", "popularity": 19.481}, {"id": 400928, "video": false, "vote_count": 2317, "vote_average": 7.9, "title": "Gifted", "release_date": "2017-04-12", "original_language": "en", "original_title": "Gifted", "genre_ids": [35, 18, 10751], "backdrop_path": "/gYtXT7fJNBRZBbBulO11DoRveLT.jpg", "adult": false, "overview": "Frank, a single man raising his child prodigy niece Mary, is drawn into a custody battle with his mother.", "poster_path": "/9Ts7Vc4wLlpI9oox9mkVUE1tBHy.jpg", "popularity": 21.194}, {"adult": false, "backdrop_path": "/vMRSYEA8Tb5l5e5ZjIxNM2v1ZTi.jpg", "genre_ids": [18, 10749], "id": 9769, "original_language": "en", "original_title": "Lolita", "overview": "Urbane professor Humbert Humbert marries a New England widow to be near her nymphet daughter.", "poster_path": "/v7ZRAYz0WZrMQ1MH34cSFvC8drq.jpg", "release_date": "1997-09-27", "title": "Lolita", "video": false, "vote_average": 7.1, "vote_count": 702, "popularity": 16.831}, {"id": 1903, "video": false, "vote_count": 2234, "vote_average": 6.8, "title": "Vanilla Sky", "release_date": "2001-12-10", "original_language": "en", "original_title": "Vanilla Sky", "genre_ids": [18, 14, 878, 53, 10749], "backdrop_path": "/6XwX3HzKhlBUbTy2qZx0THQOu2T.jpg", "adult": false, "overview": "David Aames has it all: wealth, good looks and gorgeous women on his arm. But just as he begins falling for the warmhearted Sofia, his face is horribly disfigured in a car accident. That's just the beginning of his troubles as the lines between illusion and reality, between life and death, are blurred.", "poster_path": "/ujMy9P4VczTW9YSpAM31uqdOMpz.jpg", "popularity": 14.632}, {"id": 223, "video": false, "vote_count": 761, "vote_average": 7.9, "title": "Rebecca", "release_date": "1940-03-23", "original_language": "en", "original_title": "Rebecca", "genre_ids": [18, 9648], "backdrop_path": "/ao0OWpQPMy3lagLwksWyciO6Iaj.jpg", "adult": false, "overview": "Story of a young woman who marries a fascinating widower only to find out that she must live in the shadow of his former wife, Rebecca, who died mysteriously several years earlier. The young wife must come to grips with the terrible secret of her handsome, cold husband, Max De Winter. She must also deal with the jealous, obsessed Mrs. Danvers, the housekeeper, who will not accept her as the mistress of the house.", "poster_path": "/3Gla0nxHboX3nxQzaU4SoqOtTjh.jpg", "popularity": 12.129}, {"id": 233063, "video": false, "vote_count": 1165, "vote_average": 7.1, "title": "Suck Me Shakespeer", "release_date": "2013-11-07", "original_language": "de", "original_title": "Fack ju G\u00f6hte", "genre_ids": [35], "backdrop_path": "/AtCGEku6kLUFmZ6JWkvXphQBQXx.jpg", "adult": false, "overview": "A comedy that follows an ex-con who lands a position at a school that sits over the spot where money from one of his earlier robberies was stashed.", "poster_path": "/9GSGg4McYID6Ld0OMwimLr1Zx4J.jpg", "popularity": 16.945}, {"adult": false, "backdrop_path": "/rGWzox5V7dv6KE1gYlZAZ2sUvKJ.jpg", "genre_ids": [18, 10749], "id": 16642, "original_language": "en", "original_title": "Days of Heaven", "overview": "In 1910, a Chicago steel worker accidentally kills his supervisor and flees to the Texas panhandle with his girlfriend and little sister to work harvesting wheat in the fields of a stoic farmer. A love triangle, a swarm of locusts, a hellish fire\u2014Malick captures it all with dreamlike authenticity, creating at once a timeless American idyll and a gritty evocation of turn-of-the-century labor.", "poster_path": "/rjw7tQbiBnbIeufyEt02oVickDM.jpg", "release_date": "1978-09-13", "title": "Days of Heaven", "video": false, "vote_average": 7.6, "vote_count": 459, "popularity": 10.835}, {"id": 11704, "video": false, "vote_count": 444, "vote_average": 7.5, "title": "The Secret of NIMH", "release_date": "1982-06-17", "original_language": "en", "original_title": "The Secret of NIMH", "genre_ids": [12, 16, 14, 10751], "backdrop_path": "/m035FaNUv39xLfe8zuzUXt3bduk.jpg", "adult": false, "overview": "A widowed field mouse must move her family -- including an ailing son -- to escape a farmer's plow. Aided by a crow and a pack of superintelligent, escaped lab rats, the brave mother struggles to transplant her home to firmer ground.", "poster_path": "/8qjwSxtDacoDrzynJ6olndOOlmE.jpg", "popularity": 15.713}, {"adult": false, "backdrop_path": "/jLq0ol1f0ZKXni9R9GsPBcyPrNN.jpg", "genre_ids": [18], "id": 18148, "original_language": "ja", "original_title": "\u6771\u4eac\u7269\u8a9e", "overview": "The elderly Shukishi and his wife, Tomi, take the long journey from their small seaside village to visit their adult children in Tokyo. Their elder son, Koichi, a doctor, and their daughter, Shige, a hairdresser, don't have much time to spend with their aged parents, and so it falls to Noriko, the widow of their younger son who was killed in the war, to keep her in-laws company.", "poster_path": "/g2YbTYKpY7N2yDSk7BfXZ18I5QV.jpg", "release_date": "1953-11-03", "title": "Tokyo Story", "video": false, "vote_average": 8.4, "vote_count": 423, "popularity": 13.409}, {"adult": false, "backdrop_path": "/4AXlsl0azR9d9xjX9tDdfAeM8lt.jpg", "genre_ids": [80, 18, 9648, 10749], "id": 25376, "original_language": "es", "original_title": "El secreto de sus ojos", "overview": "A retired legal counselor writes a novel hoping to find closure for one of his past unresolved homicide cases and for his unreciprocated love with his superior - both of which still haunt him decades later.", "poster_path": "/z2mUzEqDi7DtA1E4mYzVjbzXnqE.jpg", "release_date": "2009-08-13", "title": "The Secret in Their Eyes", "video": false, "vote_average": 7.9, "vote_count": 1288, "popularity": 12.274}, {"id": 35052, "video": false, "vote_count": 204, "vote_average": 6.7, "title": "Cracks", "release_date": "2009-12-04", "original_language": "en", "original_title": "Cracks", "genre_ids": [18, 9648, 53], "backdrop_path": "/6rWMFj9HrlJWzsLOCZJyl3HR6VJ.jpg", "adult": false, "overview": "Jealousy flares after the headmistress of an elite boarding school for girls becomes obsessed with a new student.", "poster_path": "/2zpNd8qPT9HyQMUT1uVwyXhmMjM.jpg", "popularity": 9.227}, {"adult": false, "backdrop_path": "/Vi5V1mr0fCAXpLs0QBbKaeylWc.jpg", "genre_ids": [18], "id": 44754, "original_language": "en", "original_title": "Margaret", "overview": "A young woman witnesses a bus accident, and is caught up in the aftermath, where the question of whether or not it was intentional affects many people's lives.", "poster_path": "/reXVqyRmZ8NhL1iRrfiEwC7h5Mk.jpg", "release_date": "2011-09-30", "title": "Margaret", "video": false, "vote_average": 6.3, "vote_count": 147, "popularity": 11.449}, {"id": 52449, "video": false, "vote_count": 3175, "vote_average": 5.5, "title": "Bad Teacher", "release_date": "2011-05-16", "original_language": "en", "original_title": "Bad Teacher", "genre_ids": [35], "backdrop_path": "/vmgRzmRMPjhZ50Oai1DI0LLEZCo.jpg", "adult": false, "overview": "A lazy, incompetent middle school teacher who hates her job and her students is forced to return to her job to make enough money for a boob job after her rich fianc\u00e9 dumps her.", "poster_path": "/zpIY4qUSX91J9XpPgr0hFrk1eKr.jpg", "popularity": 14.579}], "total_pages": 16, "total_results": 312}, "recommendations": {"page": 1, "results": [], "total_pages": 1, "total_results": 0}, "credits": {"cast": [{"cast_id": 1, "character": "Joseph Svenden", "credit_id": "52fe45e99251416c91042b65", "gender": 2, "id": 2778, "name": "Dennis Hopper", "order": 0, "profile_path": "/56nj2DfMVU3F9qUagZWMePLbrKF.jpg"}, {"cast_id": 2, "character": "Rosealee Henson", "credit_id": "52fe45e99251416c91042b69", "gender": 1, "id": 27563, "name": "Amy Irving", "order": 1, "profile_path": "/7bKYl70P5UmpaoNnlvZD82FLdR.jpg"}, {"cast_id": 4, "character": "Catherine Wheeler", "credit_id": "52fe45e99251416c91042b73", "gender": 1, "id": 21412, "name": "Amy Locane", "order": 2, "profile_path": "/kzbLeGmII0LIiJ1efSwFr7D9zwh.jpg"}, {"cast_id": 5, "character": "Joseph's Mother", "credit_id": "52fe45e99251416c91042b77", "gender": 1, "id": 2750, "name": "Julie Harris", "order": 3, "profile_path": "/bs9yUHWYQ4H3wNz3mI6BqMJPxNb.jpg"}, {"cast_id": 6, "character": "Major Nathan Wheeler", "credit_id": "52fe45e99251416c91042b7b", "gender": 2, "id": 2048, "name": "Gary Busey", "order": 4, "profile_path": "/n66ycv61ZoqusHthcQde1g3JY6T.jpg"}, {"cast_id": 7, "character": "Doctor Evans", "credit_id": "52fe45e99251416c91042b7f", "gender": 2, "id": 11066, "name": "Hal Holbrook", "order": 5, "profile_path": "/snyV5pdXbLxyvf2jJhWFxzuvX0a.jpg"}, {"cast_id": 8, "character": "Robert Henson", "credit_id": "52fe45e99251416c91042b83", "gender": 2, "id": 15311, "name": "Christopher Pettiet", "order": 6, "profile_path": "/kuWh86hTY0tkMiTI0NNmnnoSjtj.jpg"}, {"cast_id": 9, "character": "Lily Henson", "credit_id": "52fe45e99251416c91042b87", "gender": 1, "id": 11793, "name": "Priscilla Pointer", "order": 7, "profile_path": "/rmT7Qje6YBG180d1hlY6zQpZmfv.jpg"}, {"cast_id": 10, "character": "Beverly", "credit_id": "52fe45e99251416c91042b8b", "gender": 1, "id": 2859, "name": "Gail Cronauer", "order": 8, "profile_path": "/wTLEWlXbkd17gImST3kApddu973.jpg"}, {"cast_id": 11, "character": "School Board Man", "credit_id": "52fe45e99251416c91042b8f", "gender": 2, "id": 177905, "name": "Joe Stevens", "order": 9, "profile_path": "/pCflBRau0xOGR17W1kzue7ySVqv.jpg"}, {"cast_id": 12, "character": "Charlotte", "credit_id": "52fe45e99251416c91042b93", "gender": 1, "id": 949252, "name": "Connie Cooper", "order": 10, "profile_path": "/8V4bjBkolhipo7ykxO2LyAPnntM.jpg"}, {"cast_id": 13, "character": "Marie", "credit_id": "52fe45e99251416c91042b97", "gender": 0, "id": 977465, "name": "Eleese Lester", "order": 11, "profile_path": null}, {"cast_id": 17, "character": "Frank", "credit_id": "564d1bc29251417c46007d65", "gender": 0, "id": 1538126, "name": "Doug Jackson", "order": 12, "profile_path": null}], "crew": [{"credit_id": "535580d10e0a263cde000078", "department": "Writing", "gender": 2, "id": 37426, "job": "Novel", "name": "Jim Harrison", "profile_path": "/oaVbLhowYB1iDgcmh4HTZ4CUhNm.jpg"}, {"credit_id": "52fe45e99251416c91042b6f", "department": "Directing", "gender": 2, "id": 69719, "job": "Director", "name": "Bruno Barreto", "profile_path": "/sFrrQ77hqzBWW40js1VevZyr3fE.jpg"}, {"credit_id": "5b7948c3c3a36860ea027864", "department": "Writing", "gender": 2, "id": 1736912, "job": "Writer", "name": "Ed Jones", "profile_path": null}]}}