{"adult": false, "backdrop_path": "/sqhxihPEA07xBTzOK8A61K9bLxl.jpg", "belongs_to_collection": null, "budget": 0, "genres": [{"id": 10402, "name": "Music"}, {"id": 99, "name": "Documentary"}], "homepage": "http://www.copyrightcriminals.com", "id": 36450, "imdb_id": "tt1503770", "original_language": "en", "original_title": "Copyright Criminals", "overview": "Copyright Criminals examines the creative and commercial value of musical sampling, including the related debates over artistic expression, copyright law, and (of course) money. This documentary traces the rise of hip-hop from the urban streets of New York to its current status as a multibillion-dollar industry. For more than thirty years, innovative hip-hop performers and producers have been re-using portions of previously recorded music in new, otherwise original compositions. When lawyers and record companies got involved, what was once referred to as a \u201cborrowed melody\u201d became a \u201ccopyright infringement.\u201d The film showcases many of hip-hop music\u2019s founding figures like Public Enemy, De La Soul, and Digital Underground\u2014while also featuring emerging hip-hop artists from record labels Definitive Jux, Rhymesayers, Ninja Tune, and more.", "popularity": 2.293, "poster_path": "/hjnbypy7NrxeAQWv2MMihKqiXL5.jpg", "production_companies": [{"id": 5910, "logo_path": null, "name": "Changeing Images", "origin_country": ""}], "production_countries": [{"iso_3166_1": "US", "name": "United States of America"}], "release_date": "2009-05-21", "revenue": 0, "runtime": 65, "spoken_languages": [{"iso_639_1": "en", "name": "English"}], "status": "Released", "tagline": "This is a Sampling Sport", "title": "Copyright Criminals", "video": false, "vote_average": 6.7, "vote_count": 6, "keywords": {"keywords": [{"id": 898, "name": "hip-hop"}, {"id": 6027, "name": "music"}, {"id": 10396, "name": "copyright"}]}, "similar": {"page": 1, "results": [{"id": 6575, "video": false, "vote_count": 364, "vote_average": 6.6, "title": "Walk Hard: The Dewey Cox Story", "release_date": "2007-12-21", "original_language": "en", "original_title": "Walk Hard: The Dewey Cox Story", "genre_ids": [35, 18, 10402], "backdrop_path": "/y7EElGAn1tFE0Npmls7uvg4HPVj.jpg", "adult": false, "overview": "Following a childhood tragedy, Dewey Cox follows a long and winding road to music stardom. Dewey perseveres through changing musical styles, an addiction to nearly every drug known and bouts of uncontrollable rage.", "poster_path": "/2sc7qoLTqZC0nB2k1crwuVoKP6H.jpg", "popularity": 15.669}, {"adult": false, "backdrop_path": "/q3eNcig4YFEsUTnmIYDA90FdndO.jpg", "genre_ids": [10402, 35, 28, 80], "id": 525, "original_language": "en", "original_title": "The Blues Brothers", "overview": "Jake Blues is just out of jail, and teams up with his brother, Elwood on a 'mission from God' to raise funds for the orphanage in which they grew up. The only thing they can do is do what they do best: play music. So they get their old band together, and set out on their way\u2014while getting in a bit of trouble here and there.", "poster_path": "/6hesUNBkpVRqBTBw2HlTg0h8b56.jpg", "release_date": "1980-06-17", "title": "The Blues Brothers", "video": false, "vote_average": 7.7, "vote_count": 2299, "popularity": 21.638}, {"adult": false, "backdrop_path": "/pQOs5bwFpaimeaK5PA2XXteU1Ly.jpg", "genre_ids": [10402, 99], "id": 20575, "original_language": "en", "original_title": "Queen: Live at Wembley Stadium", "overview": "One of the world's biggest bands return to the scene of their Live Aid (1985) triumph a year earlier to play all their greatest hits in front of a packed Wembley Stadium.", "poster_path": "/qztOmfZ8uLPN3MUNHJd8GaJST2V.jpg", "release_date": "1986-07-12", "title": "Live at Wembley Stadium", "video": false, "vote_average": 8.7, "vote_count": 49, "popularity": 8.207}, {"id": 786, "video": false, "vote_count": 1485, "vote_average": 7.5, "title": "Almost Famous", "release_date": "2000-09-15", "original_language": "en", "original_title": "Almost Famous", "genre_ids": [18, 10402], "backdrop_path": "/zfucY8mxcrNeopFneyvyERZQah1.jpg", "adult": false, "overview": "In 1973, 15-year-old William Miller's unabashed love of music and aspiration to become a rock journalist lands him an assignment from Rolling Stone magazine to interview and tour with the up-and-coming band Stillwater\u2014fronted by lead guitar Russell Hammond, and lead singer Jeff Bebe.", "poster_path": "/9pNo92j6zSEAUB8pNmcJTkpnkBF.jpg", "popularity": 17.801}, {"id": 5723, "video": false, "vote_count": 768, "vote_average": 7.5, "title": "Once", "release_date": "2007-03-23", "original_language": "en", "original_title": "Once", "genre_ids": [18, 10402, 10749], "backdrop_path": "/5e9rYIQzaSy3v6ntyFuA3N4QN6b.jpg", "adult": false, "overview": "A vacuum repairman moonlights as a street musician and hopes for his big break. One day a Czech immigrant, who earns a living selling flowers, approaches him with the news that she is also an aspiring singer-songwriter. The pair decide to collaborate, and the songs that they compose reflect the story of their blossoming love.", "poster_path": "/fEjwJfeDxgsRBlYgEWMgvrKQ6VB.jpg", "popularity": 11.17}, {"id": 277216, "video": false, "vote_count": 2190, "vote_average": 7.7, "title": "Straight Outta Compton", "release_date": "2015-08-13", "original_language": "en", "original_title": "Straight Outta Compton", "genre_ids": [18, 10402], "backdrop_path": "/fdDTA06o5e7MRXnTGAf4EygL2MJ.jpg", "adult": false, "overview": "In 1987, five young men, using brutally honest rhymes and hardcore beats, put their frustration and anger about life in the most dangerous place in America into the most powerful weapon they had: their music.  Taking us back to where it all began, Straight Outta Compton tells the true story of how these cultural rebels\u2014armed only with their lyrics, swagger, bravado and raw talent\u2014stood up to the authorities that meant to keep them down and formed the world\u2019s most dangerous group, N.W.A.  And as they spoke the truth that no one had before and exposed life in the hood, their voice ignited a social revolution that is still reverberating today.", "poster_path": "/X7S1RtotXOZNV7OlgCfh5VKZSB.jpg", "popularity": 19.816}, {"id": 198277, "video": false, "vote_count": 2275, "vote_average": 7.2, "title": "Begin Again", "release_date": "2013-09-07", "original_language": "en", "original_title": "Begin Again", "genre_ids": [35, 18, 10402, 10749], "backdrop_path": "/r36B5xC2KT9KuxPlTfQJHFwi2EA.jpg", "adult": false, "overview": "A long-lost music producer finds a singer-songwriter right about the moment he has given up all hope on life.", "poster_path": "/qx4HXHXt528hS4rwePZbZo20xqZ.jpg", "popularity": 13.171}, {"id": 13576, "video": false, "vote_count": 509, "vote_average": 6.9, "title": "This Is It", "release_date": "2009-10-28", "original_language": "en", "original_title": "This Is It", "genre_ids": [99, 10402], "backdrop_path": "/w7yzaQ7P2UBtSyMqMOx0zNxc3wB.jpg", "adult": false, "overview": "A compilation of interviews, rehearsals and backstage footage of Michael Jackson as he prepared for his series of sold-out shows in London.", "poster_path": "/4ZgT8FRJxxpG0mgOIPeCgjzAsBR.jpg", "popularity": 11.776}, {"adult": false, "backdrop_path": "/qOMWTdCoaiVtZMJL044D0ZRkpu1.jpg", "genre_ids": [10402], "id": 63973, "original_language": "en", "original_title": "AC/DC:  Live at River Plate", "overview": "AC/DC Live At River Plate, a definitive live concert film documenting AC/DC\u2019s massive Black Ice World Tour. Shot in December of 2009, AC/DC Live At River Plate marks AC/DC\u2019s triumphant return to Buenos Aires where nearly 200,000 fans, and 3 sold-out shows, welcomed the band back after a 13 year absence from Argentina. This stunning live footage of AC/DC underscores what Argentina\u2019s Pagina 12 newspaper reported by saying \u201cno one is on the same level when it comes to pure and clear Rock \u2018n Roll.\u201d Live At River Plate was shot with 32 cameras entirely in HD and features 19 songs as well as \u2018behind the scenes\u2019 footage of this massive production coming together among the excitement of anxious fans.", "poster_path": "/8KzHL6lmbtDPH6VZZjF6w65Inmg.jpg", "release_date": "2009-12-11", "title": "AC/DC:  Live at River Plate", "video": true, "vote_average": 6.9, "vote_count": 25, "popularity": 8.432}, {"id": 27, "video": false, "vote_count": 200, "vote_average": 5.0, "title": "9 Songs", "release_date": "2004-07-16", "original_language": "en", "original_title": "9 Songs", "genre_ids": [18, 10402, 10749], "backdrop_path": "/tie8vA3q3Q9BB5RlMlexRvv9xoh.jpg", "adult": false, "overview": "Matt, a young glaciologist, soars across the vast, silent, icebound immensities of the South Pole as he recalls his love affair with Lisa. They meet at a mobbed rock concert in a vast music hall - London's Brixton Academy. They are in bed at night's end. Together, over a period of several months, they pursue a mutual sexual passion whose inevitable stages unfold in counterpoint to nine live-concert songs.", "poster_path": "/91O7z0vo7MiNWd5xD2BoivwbQsb.jpg", "popularity": 17.371}, {"adult": false, "backdrop_path": "/pM1CnP0ZN2VxmrTAbBZOS3PNoNE.jpg", "genre_ids": [35, 10402], "id": 1584, "original_language": "en", "original_title": "School of Rock", "overview": "Fired from his band and hard up for cash, guitarist and vocalist Dewey Finn finagles his way into a job as a fifth-grade substitute teacher at a private school, where he secretly begins teaching his students the finer points of rock 'n' roll. The school's hard-nosed principal is rightly suspicious of Finn's activities. But Finn's roommate remains in the dark about what he's doing.", "poster_path": "/cREN222Yw78zvSQ9bg17Y9QZS0c.jpg", "release_date": "2003-10-03", "title": "School of Rock", "video": false, "vote_average": 7.0, "vote_count": 3292, "popularity": 23.266}, {"id": 10537, "video": false, "vote_count": 603, "vote_average": 6.9, "title": "The Doors", "release_date": "1991-03-01", "original_language": "en", "original_title": "The Doors", "genre_ids": [18, 10402], "backdrop_path": "/1rv5sW6Qs2YK2iOzIgwH3SJPIl1.jpg", "adult": false, "overview": "The story of the famous and influential 1960s rock band and its lead singer and composer, Jim Morrison.", "poster_path": "/9CkFrWAkg23YynYd2uJLyWznMZZ.jpg", "popularity": 14.573}, {"adult": false, "backdrop_path": "/9YwwUNJKUsJ4mOERvUK9ITP0Qou.jpg", "genre_ids": [18, 35, 10749], "id": 245, "original_language": "en", "original_title": "About a Boy", "overview": "Will Freeman is a hip Londoner who one day realizes that his friends are all involved with the responsibilities of married life and that leaves him alone in the cold. Passing himself off as a single father, he starts to meet a string of single mums, confident in his ability to leave them behind when they start to ask for a commitment. But Will's hope of a continued bachelorhood is interrupted when he meets 12-year old Marcus, in many ways his complete opposite.", "poster_path": "/1kz4Q2v7cxwNnTfkjrujzWAVCne.jpg", "release_date": "2002-04-26", "title": "About a Boy", "video": false, "vote_average": 6.6, "vote_count": 1385, "popularity": 12.962}, {"adult": false, "backdrop_path": "/jq4dyVYsCGQRTXKDLoqZwg4tbIr.jpg", "genre_ids": [18, 10402], "id": 65, "original_language": "en", "original_title": "8 Mile", "overview": "The setting is Detroit in 1995. The city is divided by 8 Mile, a road that splits the town in half along racial lines. A young white rapper, Jimmy \"B-Rabbit\" Smith Jr. summons strength within himself to cross over these arbitrary boundaries to fulfill his dream of success in hip hop. With his pal Future and the three one third in place, all he has to do is not choke.", "poster_path": "/dXzTrKwpbLpCqn8O70FUUhNbYQT.jpg", "release_date": "2002-11-08", "title": "8 Mile", "video": false, "vote_average": 7.0, "vote_count": 3870, "popularity": 18.577}, {"id": 20313, "video": true, "vote_count": 20, "vote_average": 8.7, "title": "Where the Light Is: John Mayer Live in Los Angeles", "release_date": "2008-07-01", "original_language": "en", "original_title": "Where the Light Is: John Mayer Live in Los Angeles", "genre_ids": [10402], "backdrop_path": "/3hRjAtEvLGdRpznktxZRnVmdilz.jpg", "adult": false, "overview": "Where The Light Is: John Mayer Live in Los Angeles captures the multi-Grammy\u00ae Award-winning, Platinum-selling singer/songwriter in the element where fans love him the most: live on stage. This special concert includes three sets: an acoustic performance, a rare set with John Mayer Trio (John Mayer, Steve Jordan and Pino Palladino), as well as a set featuring Mayer's full band.", "poster_path": "/laZt8OKutRXptSbwbMLWlWGoIPM.jpg", "popularity": 4.422}, {"adult": false, "backdrop_path": "/2aHM8lYzcaO4MfN7VNvo1QFU0ft.jpg", "genre_ids": [99, 10402], "id": 373558, "original_language": "en", "original_title": "Taylor Swift: The 1989 World Tour - Live", "overview": "Taylor delivers the concert event of the year. Filmed at Sydney's ANZ Stadium in front of 76,000 fans, The 1989 World Tour - Live captures the excitement and energy of the hottest pop star in the world. Filled with great music, an electrifying stage show, and superstar guest appearances, the concert film is only on Apple Music.", "poster_path": "/kzXe8kscKo83BwGvIofWg6SCR7n.jpg", "release_date": "2015-12-20", "title": "Taylor Swift: The 1989 World Tour - Live", "video": false, "vote_average": 8.3, "vote_count": 65, "popularity": 10.446}, {"adult": false, "backdrop_path": "/iOGODt9Z92SHVEyuEQiN8wYidmQ.jpg", "genre_ids": [16, 878, 12, 14, 10402], "id": 11827, "original_language": "en", "original_title": "Heavy Metal", "overview": "A glowing orb terrorizes a young girl with a collection of stories of dark fantasy, eroticism and horror.", "poster_path": "/atUtWrDlLzT1yeVK2EoYtvbS963.jpg", "release_date": "1981-08-07", "title": "Heavy Metal", "video": false, "vote_average": 6.3, "vote_count": 316, "popularity": 19.299}, {"id": 11887, "video": false, "vote_count": 2347, "vote_average": 6.5, "title": "High School Musical 3: Senior Year", "release_date": "2008-10-11", "original_language": "en", "original_title": "High School Musical 3: Senior Year", "genre_ids": [35, 18, 10402, 10749, 10751], "backdrop_path": "/daSGxGZL2nNjGZKkAF5ain3lmOx.jpg", "adult": false, "overview": "It's almost graduation day for high school seniors Troy, Gabriella, Sharpay, Chad, Ryan and Taylor \u2015 and the thought of heading off in separate directions after leaving East High has these Wildcats thinking they need to do something they'll remember forever. Together with the rest of the Wildcats, they stage a spring musical reflecting their hopes and fears about the future and their unforgettable experiences growing up together. But with graduation approaching and college plans in question, what will become of the dreams, romances, and friendships of East High's senior Wildcats?", "poster_path": "/ewZpH2QIfPQ0VIn9lPf7MHbLbl4.jpg", "popularity": 14.748}, {"adult": false, "backdrop_path": "/oT79THuFrcBzrhlf4fiCddwZBCQ.jpg", "genre_ids": [18, 10402, 10749], "id": 69, "original_language": "en", "original_title": "Walk the Line", "overview": "A chronicle of country music legend Johnny Cash's life, from his early days on an Arkansas cotton farm to his rise to fame with Sun Records in Memphis, where he recorded alongside Elvis Presley, Jerry Lee Lewis and Carl Perkins.", "poster_path": "/wdxL3Zyh3O5MIbmsSiZEevJAjtQ.jpg", "release_date": "2005-09-13", "title": "Walk the Line", "video": false, "vote_average": 7.5, "vote_count": 1545, "popularity": 15.437}, {"id": 332562, "video": false, "vote_count": 7182, "vote_average": 7.5, "title": "A Star Is Born", "release_date": "2018-10-03", "original_language": "en", "original_title": "A Star Is Born", "genre_ids": [18, 10402, 10749], "backdrop_path": "/mnDvPokXpvsdPcWSjNRPhiiLOKu.jpg", "adult": false, "overview": "Seasoned musician Jackson Maine discovers \u2014 and falls in love with \u2014 struggling artist Ally. She has just about given up on her dream to make it big as a singer \u2014 until Jack coaxes her into the spotlight. But even as Ally's career takes off, the personal side of their relationship is breaking down, as Jack fights an ongoing battle with his own internal demons.", "poster_path": "/wrFpXMNBRj2PBiN4Z5kix51XaIZ.jpg", "popularity": 37.528}], "total_pages": 233, "total_results": 4642}, "recommendations": {"page": 1, "results": [], "total_pages": 1, "total_results": 0}, "credits": {"cast": [{"cast_id": 4, "character": "Himself", "credit_id": "52fe45e99251416c91042be9", "gender": 0, "id": 130150, "name": "Aesop Rock", "order": 0, "profile_path": "/fA0SCmlzJJTB4yQepNK6UAP0dNl.jpg"}, {"cast_id": 5, "character": "Himself", "credit_id": "52fe45e99251416c91042bed", "gender": 2, "id": 130151, "name": "George Clinton", "order": 1, "profile_path": "/5ysD5lxCd1dEtfRXinHGr59fVfK.jpg"}, {"cast_id": 6, "character": "Himself", "credit_id": "52fe45e99251416c91042bf1", "gender": 2, "id": 61109, "name": "Chuck D", "order": 2, "profile_path": null}, {"cast_id": 7, "character": "Himself", "credit_id": "52fe45e99251416c91042bf5", "gender": 0, "id": 130152, "name": "El-P", "order": 3, "profile_path": "/zAAWEvvPiEehEslEhHkUe7AG3fa.jpg"}, {"cast_id": 8, "character": "Himself", "credit_id": "52fe45e99251416c91042bf9", "gender": 0, "id": 130153, "name": "Sage Francis", "order": 4, "profile_path": null}, {"cast_id": 9, "character": "Herself", "credit_id": "52fe45e99251416c91042bfd", "gender": 0, "id": 130154, "name": "Pam the Funsktress", "order": 5, "profile_path": null}, {"cast_id": 10, "character": "Himself", "credit_id": "52fe45e99251416c91042c01", "gender": 2, "id": 130155, "name": "Robert Garcia", "order": 6, "profile_path": null}, {"cast_id": 11, "character": "Herself", "credit_id": "52fe45e99251416c91042c05", "gender": 0, "id": 130156, "name": "Miho Hatori", "order": 7, "profile_path": null}, {"cast_id": 12, "character": "Himself", "credit_id": "52fe45e99251416c91042c09", "gender": 0, "id": 130157, "name": "Humpty Hump", "order": 8, "profile_path": null}, {"cast_id": 13, "character": "Himself", "credit_id": "52fe45ea9251416c91042c0d", "gender": 0, "id": 130158, "name": "Mix Master Mike", "order": 9, "profile_path": null}, {"cast_id": 14, "character": "Himself", "credit_id": "52fe45ea9251416c91042c11", "gender": 0, "id": 130159, "name": "Prefuse 73", "order": 10, "profile_path": null}, {"cast_id": 15, "character": "Himself", "credit_id": "52fe45ea9251416c91042c15", "gender": 0, "id": 130160, "name": "DJ Q-Bert", "order": 11, "profile_path": null}, {"cast_id": 16, "character": "Himself", "credit_id": "52fe45ea9251416c91042c19", "gender": 0, "id": 130161, "name": "Pete Rock", "order": 12, "profile_path": null}, {"cast_id": 17, "character": "Himself", "credit_id": "52fe45ea9251416c91042c1d", "gender": 0, "id": 130162, "name": "Hank Shocklee", "order": 13, "profile_path": null}, {"cast_id": 18, "character": "Himself", "credit_id": "52fe45ea9251416c91042c21", "gender": 0, "id": 130163, "name": "DJ Spooky", "order": 14, "profile_path": null}, {"cast_id": 19, "character": "Himself", "credit_id": "52fe45ea9251416c91042c25", "gender": 0, "id": 130164, "name": "Clyde Stubblefield", "order": 15, "profile_path": null}, {"cast_id": 20, "character": "Himself", "credit_id": "52fe45ea9251416c91042c29", "gender": 2, "id": 1985, "name": "Saul Williams", "order": 16, "profile_path": "/cV8sC60M089WHKvu7hQVxHhUfBl.jpg"}], "crew": [{"credit_id": "52fe45e99251416c91042bdf", "department": "Directing", "gender": 0, "id": 130147, "job": "Director", "name": "Benjamin Franzen", "profile_path": null}, {"credit_id": "52fe45e99251416c91042be5", "department": "Directing", "gender": 0, "id": 130148, "job": "Director", "name": "Kembrew McLeod", "profile_path": "/nm0yrRphZsE47lm8IPEkCHLLvkb.jpg"}, {"credit_id": "52fe45ea9251416c91042c2f", "department": "Production", "gender": 0, "id": 130147, "job": "Producer", "name": "Benjamin Franzen", "profile_path": null}, {"credit_id": "52fe45ea9251416c91042c35", "department": "Production", "gender": 0, "id": 130148, "job": "Producer", "name": "Kembrew McLeod", "profile_path": "/nm0yrRphZsE47lm8IPEkCHLLvkb.jpg"}, {"credit_id": "52fe45ea9251416c91042c3b", "department": "Crew", "gender": 0, "id": 130147, "job": "Cinematography", "name": "Benjamin Franzen", "profile_path": null}, {"credit_id": "52fe45ea9251416c91042c41", "department": "Crew", "gender": 0, "id": 130165, "job": "Cinematography", "name": "Ross Sebek", "profile_path": null}, {"credit_id": "52fe45ea9251416c91042c47", "department": "Editing", "gender": 0, "id": 130166, "job": "Editorial Production Assistant", "name": "Sarah Franzen", "profile_path": null}, {"credit_id": "52fe45ea9251416c91042c4d", "department": "Editing", "gender": 0, "id": 130167, "job": "Additional Editing", "name": "Video Rahim", "profile_path": null}, {"credit_id": "52fe45ea9251416c91042c53", "department": "Crew", "gender": 0, "id": 130168, "job": "Visual Effects Editor", "name": "Dave Willadsen", "profile_path": null}, {"credit_id": "52fe45ea9251416c91042c59", "department": "Sound", "gender": 0, "id": 130169, "job": "Music", "name": "Annie Lin", "profile_path": null}, {"credit_id": "52fe45ea9251416c91042c5f", "department": "Sound", "gender": 0, "id": 130171, "job": "Music", "name": "Brooke Wentz", "profile_path": null}, {"credit_id": "52fe45ea9251416c91042c65", "department": "Production", "gender": 0, "id": 130148, "job": "Executive Producer", "name": "Kembrew McLeod", "profile_path": "/nm0yrRphZsE47lm8IPEkCHLLvkb.jpg"}, {"credit_id": "52fe45ea9251416c91042c6b", "department": "Writing", "gender": 0, "id": 130148, "job": "Writer", "name": "Kembrew McLeod", "profile_path": "/nm0yrRphZsE47lm8IPEkCHLLvkb.jpg"}]}}