{"adult": false, "backdrop_path": null, "belongs_to_collection": null, "budget": 0, "genres": [{"id": 99, "name": "Documentary"}, {"id": 18, "name": "Drama"}], "homepage": null, "id": 364781, "imdb_id": "tt4640564", "original_language": "en", "original_title": "Meistras Ir Tatjana", "overview": "Lithuanian photographer, the legend of Soviet Sixties' generation Vitas Luckus tragically passed away in 1987. Yet the life and times of the talented rebel still impassion and lead us to a journey questioning why, at all times, we are wary of those who are really free.", "popularity": 3.362, "poster_path": "/cZAb1Tr8AHDjQ4L0e8hQChyoHEo.jpg", "production_companies": [{"id": 66008, "logo_path": null, "name": "Just a Moment", "origin_country": ""}], "production_countries": [{"iso_3166_1": "RU", "name": "Russia"}, {"iso_3166_1": "LT", "name": "Lithuania"}, {"iso_3166_1": "US", "name": "United States of America"}, {"iso_3166_1": "DE", "name": "Germany"}], "release_date": "2015-10-16", "revenue": 0, "runtime": 80, "spoken_languages": [{"iso_639_1": "en", "name": "English"}, {"iso_639_1": "lt", "name": "Lietuvi\u0173"}], "status": "Released", "tagline": "", "title": "Master and Tatyana", "video": false, "vote_average": 9.0, "vote_count": 2, "keywords": {"keywords": [{"id": 1003, "name": "photographer"}, {"id": 1228, "name": "1970s"}, {"id": 2111, "name": "soviet union"}, {"id": 5565, "name": "biography"}, {"id": 7360, "name": "lithuania"}, {"id": 187056, "name": "woman director"}]}, "similar": {"page": 1, "results": [{"id": 424694, "video": false, "vote_count": 9728, "vote_average": 8.0, "title": "Bohemian Rhapsody", "release_date": "2018-10-24", "original_language": "en", "original_title": "Bohemian Rhapsody", "genre_ids": [18, 10402], "backdrop_path": "/93xA62uLd5CwMOAs37eQ7vPc1iV.jpg", "adult": false, "overview": "Singer Freddie Mercury, guitarist Brian May, drummer Roger Taylor and bass guitarist John Deacon take the music world by storm when they form the rock 'n' roll band Queen in 1970. Hit songs become instant classics. When Mercury's increasingly wild lifestyle starts to spiral out of control, Queen soon faces its greatest challenge yet \u2013 finding a way to keep the band together amid the success and excess.", "poster_path": "/lHu1wtNaczFPGFDTrjCSzeLPTKN.jpg", "popularity": 37.217}, {"id": 504608, "video": false, "vote_count": 1666, "vote_average": 7.4, "title": "Rocketman", "release_date": "2019-05-22", "original_language": "en", "original_title": "Rocketman", "genre_ids": [18, 10402], "backdrop_path": "/sZZJ42GrWKxSOfcrpI2TSFQa0AQ.jpg", "adult": false, "overview": "The story of Elton John's life, from his years as a prodigy at the Royal Academy of Music through his influential and enduring musical partnership with Bernie Taupin.", "poster_path": "/f4FF18ia7yTvHf2izNrHqBmgH8U.jpg", "popularity": 27.709}, {"adult": false, "backdrop_path": "/rf6G51j0SZL0tP57I8gnqHTRFEr.jpg", "genre_ids": [35, 18, 10749], "id": 273153, "original_language": "fr", "original_title": "La belle saison", "overview": "In 1971, Carole and Delphine meet and fall in love in Paris. When Carole follows Delphine back to her family farm in Limousin, the two find lesbianism and feminism are not as easy in the countryside.", "poster_path": "/evvAkNMO5VJiy5qIo1Hu7fUfvVI.jpg", "release_date": "2015-08-19", "title": "Summertime", "video": false, "vote_average": 6.6, "vote_count": 162, "popularity": 11.575}, {"id": 10139, "video": false, "vote_count": 1269, "vote_average": 7.3, "title": "Milk", "release_date": "2008-11-05", "original_language": "en", "original_title": "Milk", "genre_ids": [18, 36], "backdrop_path": "/i8NcYenVqMzB95pVz8YOPIqmGj8.jpg", "adult": false, "overview": "The true story of Harvey Milk, the first openly gay man ever elected to public office. In San Francisco in the late 1970s, Harvey Milk becomes an activist for gay rights and inspires others to join him in his fight for equal rights that should be available to all Americans.", "poster_path": "/aTbhbnq9YnKJM6wGIiedfJaoV6m.jpg", "popularity": 13.064}, {"id": 401847, "video": false, "vote_count": 664, "vote_average": 6.8, "title": "Can You Ever Forgive Me?", "release_date": "2018-10-19", "original_language": "en", "original_title": "Can You Ever Forgive Me?", "genre_ids": [35, 80, 18], "backdrop_path": "/shIOFWkjTn2NRvq5r4Mn2xLdZeJ.jpg", "adult": false, "overview": "When a bestselling celebrity biographer is no longer able to get published because she has fallen out of step with current tastes, she turns her art form to deception.", "poster_path": "/hPuZR2bFoV0kuBrA98exWyvTf40.jpg", "popularity": 16.339}, {"adult": false, "backdrop_path": "/sw7mordbZxgITU877yTpZCud90M.jpg", "genre_ids": [18, 80], "id": 769, "original_language": "en", "original_title": "GoodFellas", "overview": "The true story of Henry Hill, a half-Irish, half-Sicilian Brooklyn kid who is adopted by neighbourhood gangsters at an early age and climbs the ranks of a Mafia family under the guidance of Jimmy Conway.", "poster_path": "/pwpGfTImTGifEGgLb3s6LRPd4I6.jpg", "release_date": "1990-09-12", "title": "GoodFellas", "video": false, "vote_average": 8.4, "vote_count": 6559, "popularity": 36.135}, {"id": 528888, "video": false, "vote_count": 353, "vote_average": 7.1, "title": "Dolemite Is My Name", "release_date": "2019-10-04", "original_language": "en", "original_title": "Dolemite Is My Name", "genre_ids": [35, 18, 36], "backdrop_path": "/8FuiFasbeFQj24Vqx6JqSCqj5lO.jpg", "adult": false, "overview": "The story of Rudy Ray Moore, who created the iconic big screen pimp character Dolemite in the 1970s.", "poster_path": "/uoAqJg7ZSmftnBGOkupU1ySZQU0.jpg", "popularity": 37.46}, {"id": 446354, "video": false, "vote_count": 2839, "vote_average": 7.0, "title": "The Post", "release_date": "2017-12-22", "original_language": "en", "original_title": "The Post", "genre_ids": [18, 36], "backdrop_path": "/8sb4aBST28vN3rBz704XJczS0Ld.jpg", "adult": false, "overview": "A cover-up that spanned four U.S. Presidents pushed the country's first female newspaper publisher and a hard-driving editor to join an unprecedented battle between journalist and government. Inspired by true events.", "poster_path": "/h4XG3g6uMMPIBPjAoQhC2QIMdkl.jpg", "popularity": 19.347}, {"id": 8665, "video": false, "vote_count": 501, "vote_average": 6.4, "title": "K-19: The Widowmaker", "release_date": "2002-07-19", "original_language": "en", "original_title": "K-19: The Widowmaker", "genre_ids": [18, 36, 9648, 53, 10752], "backdrop_path": "/tPhbQaiiFauAipdEuc9TQVgOmn6.jpg", "adult": false, "overview": "When Russia's first nuclear submarine malfunctions on its maiden voyage, the crew must race to save the ship and prevent a nuclear disaster.", "poster_path": "/sRLT9pkLnC9gjYnixxw99iLImzN.jpg", "popularity": 17.656}, {"id": 152532, "video": false, "vote_count": 5383, "vote_average": 7.9, "title": "Dallas Buyers Club", "release_date": "2013-11-17", "original_language": "en", "original_title": "Dallas Buyers Club", "genre_ids": [18, 36], "backdrop_path": "/3hGRV0xR11aUxCGAJ52F8MTxrno.jpg", "adult": false, "overview": "Loosely based on the true-life tale of Ron Woodroof, a drug-taking, women-loving, homophobic man who in 1986 was diagnosed with HIV/AIDS and given thirty days to live.", "poster_path": "/nxJFUxDRP9qQCiyD5sH24N5SCSu.jpg", "popularity": 15.89}, {"adult": false, "backdrop_path": "/dvQDRfv3qvfHNnVAR57ouVsuErf.jpg", "genre_ids": [10749, 18], "id": 28031, "original_language": "en", "original_title": "If These Walls Could Talk 2", "overview": "The stories of three lesbian couples -- who live in the same house at different periods of time -- who are at a crossroads in their lives. In 1961, Edith loses her lover, Abby, to a stroke. Linda and Amy struggle with feminist issues in 1972. And, in 2000, Kal and Fran try to have a baby with the help of sperm donor.", "poster_path": "/xs7ODbmYQXCDhvXNvz5tF17T59H.jpg", "release_date": "2000-03-05", "title": "If These Walls Could Talk 2", "video": false, "vote_average": 7.1, "vote_count": 55, "popularity": 8.86}, {"id": 339380, "video": false, "vote_count": 391, "vote_average": 7.4, "title": "On the Basis of Sex", "release_date": "2018-12-25", "original_language": "en", "original_title": "On the Basis of Sex", "genre_ids": [18, 36], "backdrop_path": "/qdQvuKZYZ5oJiEDkNgYSwMDP9Sj.jpg", "adult": false, "overview": "Young lawyer Ruth Bader Ginsburg teams with her husband Marty to bring a groundbreaking case before the U.S. Court of Appeals and overturn a century of sex discrimination.", "poster_path": "/izY9Le3QWtu7xkHq7bjJnuE5yGI.jpg", "popularity": 16.533}, {"id": 625, "video": false, "vote_count": 342, "vote_average": 7.6, "title": "The Killing Fields", "release_date": "1984-11-02", "original_language": "en", "original_title": "The Killing Fields", "genre_ids": [18, 36, 10752], "backdrop_path": "/kjEgZzhigOU6dZKGfw1oVOnmVId.jpg", "adult": false, "overview": "The Killing Fields tells the real-life story of a friendship between two journalists, an American and a Cambodian, during the bloody Khmer Rouge takeover of Cambodia in 1975, which led to the death of 2-3 million Cambodians during the next four years, until Pol Pot's regime was toppled by the intervening Vietnamese in 1979.", "poster_path": "/pzSdpgnjJi79UboweTlFDQmRq7M.jpg", "popularity": 11.082}, {"id": 369192, "video": false, "vote_count": 1153, "vote_average": 6.9, "title": "Battle of the Sexes", "release_date": "2017-09-05", "original_language": "en", "original_title": "Battle of the Sexes", "genre_ids": [35, 18, 36], "backdrop_path": "/wCHJuJwEfOrrykgDas8T4m79Bzs.jpg", "adult": false, "overview": "The true story of the 1973 tennis match between World number one Billie Jean King and ex-champ and serial hustler Bobby Riggs.", "poster_path": "/fWy0A3VojTCb0S2MKtEJjpquubF.jpg", "popularity": 7.932}, {"adult": false, "backdrop_path": "/cADbqsIoiDW7X3Myg9nz8eAuno5.jpg", "genre_ids": [18, 10749], "id": 10818, "original_language": "fr", "original_title": "Naissance des pieuvres", "overview": "Set during a sultry summer in a French suburb, Marie is desperate to join the local pool's synchronized swimming team, but is her interest solely for the sake of sport or for a chance to get close to Floriane, the bad girl of the team? Sciamma, and the two leads, capture the uncertainty of teenage sexuality with a sympathetic eye in this delicate drama of the angst of coming-of-age.", "poster_path": "/4jajELYrR4Xmv3CVoKnukRnALa2.jpg", "release_date": "2007-05-17", "title": "Water Lilies", "video": false, "vote_average": 6.1, "vote_count": 119, "popularity": 9.614}, {"adult": false, "backdrop_path": "/nU6DDTabbMkd3649WYtSiOdHCMC.jpg", "genre_ids": [18, 10749], "id": 332283, "original_language": "en", "original_title": "Mary Shelley", "overview": "The love affair between poet Percy Shelley and Mary Wollstonecraft Godwin resulted in the creation of an immortal novel, \u201cFrankenstein; or, The Modern Prometheus.\u201d", "poster_path": "/gKHJTsrfxJtfFNPQJn2hDNEMtFf.jpg", "release_date": "2018-04-22", "title": "Mary Shelley", "video": false, "vote_average": 7.1, "vote_count": 516, "popularity": 12.227}, {"adult": false, "backdrop_path": "/nriBinb7Y3Bm6LdbmOC0mFxSm8d.jpg", "genre_ids": [80, 18], "id": 226, "original_language": "en", "original_title": "Boys Don't Cry", "overview": "Female born, Teena Brandon adopts his male identity of Brandon Teena and attempts to find himself and love in Nebraska.", "poster_path": "/6bqIZTEuJnUrgnxcymciszvOz8J.jpg", "release_date": "1999-09-02", "title": "Boys Don't Cry", "video": false, "vote_average": 7.5, "vote_count": 718, "popularity": 10.072}, {"id": 317557, "video": false, "vote_count": 250, "vote_average": 7.1, "title": "Queen of Katwe", "release_date": "2016-09-23", "original_language": "en", "original_title": "Queen of Katwe", "genre_ids": [18], "backdrop_path": "/awZwLXuPAGZEARF3y18S3qWt5LH.jpg", "adult": false, "overview": "A young girl overcomes her disadvantaged upbringing in the slums of Uganda to become a Chess master.", "poster_path": "/8nIIoHuV1c8orDNCyTcHuDhoc4q.jpg", "popularity": 9.376}, {"adult": false, "backdrop_path": "/3YGy88nTV2e0wxZcKI1goiEN9oy.jpg", "genre_ids": [18, 10749], "id": 37636, "original_language": "en", "original_title": "High Art", "overview": "A young female intern at a small magazine company becomes involved with a drug-addicted lesbian photographer, both of whom seek to exploit each other for their respective careers, while slowly falling in love with each other.", "poster_path": "/qTg05RNJIvb9w4Z7XIcAZxuZmTn.jpg", "release_date": "1998-06-12", "title": "High Art", "video": false, "vote_average": 6.6, "vote_count": 61, "popularity": 7.422}, {"adult": false, "backdrop_path": "/urnGzQvP8fwWWGkn1k809KqIjbm.jpg", "genre_ids": [18], "id": 87093, "original_language": "en", "original_title": "Big Eyes", "overview": "The story of the awakening of painter, Margaret Keane, her phenomenal success in the 1950s, and the subsequent legal difficulties she had with her husband, who claimed credit for her works in the 1960s.", "poster_path": "/z2tqzprHojhgEGYKQepjU28oQg6.jpg", "release_date": "2014-12-24", "title": "Big Eyes", "video": false, "vote_average": 7.0, "vote_count": 2349, "popularity": 14.024}], "total_pages": 78, "total_results": 1549}, "recommendations": {"page": 1, "results": [], "total_pages": 1, "total_results": 0}, "credits": {"cast": [], "crew": [{"credit_id": "56276999c3a368277c0021e1", "department": "Editing", "gender": 2, "id": 927436, "job": "Editor", "name": "Danielius Kokanauskis", "profile_path": "/pw94GSlRoD9G7BJAfVragQAekpT.jpg"}, {"credit_id": "58ba2f6bc3a36866a5013607", "department": "Camera", "gender": 2, "id": 1297787, "job": "Director of Photography", "name": "Audrius Keme\u017eys", "profile_path": null}, {"credit_id": "562769ba92514137bd001e73", "department": "Sound", "gender": 0, "id": 1330861, "job": "Boom Operator", "name": "Alimantas Apanavicius", "profile_path": null}, {"credit_id": "562768ff92514137bb001e24", "department": "Directing", "gender": 1, "id": 1525199, "job": "Director", "name": "Giedr\u0117 \u017dickyt\u0117", "profile_path": "/eHkIeAiPKChEhzFlIkK5LqJFI0l.jpg"}, {"credit_id": "56642962c3a3682bde0077c5", "department": "Writing", "gender": 1, "id": 1525199, "job": "Writer", "name": "Giedr\u0117 \u017dickyt\u0117", "profile_path": "/eHkIeAiPKChEhzFlIkK5LqJFI0l.jpg"}, {"credit_id": "56276945c3a368277f00217a", "department": "Production", "gender": 1, "id": 1525201, "job": "Producer", "name": "Dagn\u0117 Vild\u017ei\u016bnait\u0117", "profile_path": "/qEjmzYNZErbxN04TK7GuDEWycYc.jpg"}, {"credit_id": "562769cd92514137cd001f41", "department": "Sound", "gender": 0, "id": 1525202, "job": "Sound Editor", "name": "Vytis Puronas", "profile_path": null}, {"credit_id": "58ba2f76c3a36866b70141a5", "department": "Sound", "gender": 2, "id": 1525203, "job": "Original Music Composer", "name": "Giedrius Puskunigis", "profile_path": "/nW53y9atoYCm2f3jildb0s1aLjm.jpg"}, {"credit_id": "58ba2f7f925141606f0143c3", "department": "Sound", "gender": 0, "id": 1525204, "job": "Original Music Composer", "name": "Jurga \u0160eduikyt\u0117", "profile_path": null}, {"credit_id": "56276a2492514137bd001e83", "department": "Crew", "gender": 0, "id": 1525205, "job": "Digital Effects Supervisor", "name": "Linas Dabri\u0161ka", "profile_path": null}, {"credit_id": "56276a4392514137c4001ea2", "department": "Visual Effects", "gender": 0, "id": 1525206, "job": "Visual Effects", "name": "Vytautas Kazlauskas", "profile_path": null}]}}