{"adult": false, "backdrop_path": "/clUbgUinqcgJ9g53ETtya90HbLt.jpg", "belongs_to_collection": null, "budget": 0, "genres": [{"id": 14, "name": "Fantasy"}, {"id": 878, "name": "Science Fiction"}, {"id": 35, "name": "Comedy"}], "homepage": null, "id": 365002, "imdb_id": "tt5153260", "original_language": "es", "original_title": "Kryptonita", "overview": "Movie adaptation of Leonardo Oyola's novel, which tells the story of the legendary DC comics superhero, Superman, if he, instead of falling in Smallville from Krypton, would have landed in the heart of Isidro Casanova, in La Matanza, deep in the west side of Buenos Aires.", "popularity": 1.5, "poster_path": "/w4tyZsYcK2XGl3319QLhFluDHTJ.jpg", "production_companies": [{"id": 29856, "logo_path": null, "name": "Crudo Films", "origin_country": "AR"}], "production_countries": [{"iso_3166_1": "AR", "name": "Argentina"}], "release_date": "2015-12-03", "revenue": 0, "runtime": 80, "spoken_languages": [{"iso_639_1": "gn", "name": ""}, {"iso_639_1": "es", "name": "Espa\u00f1ol"}], "status": "Released", "tagline": "The justice will get it", "title": "Kryptonita", "video": false, "vote_average": 4.1, "vote_count": 5, "keywords": {"keywords": [{"id": 183576, "name": "bizarre comedy"}, {"id": 196377, "name": "sci-fi comedy"}]}, "similar": {"page": 1, "results": [{"adult": false, "backdrop_path": "/dvvitNm9sld8n0hrsAuj5gyycEF.jpg", "genre_ids": [28, 878, 35], "id": 10179, "original_language": "en", "original_title": "The Ice Pirates", "overview": "The time is the distant future, where by far the most precious commodity in the galaxy is water. The last surviving water planet was somehow removed to the unreachable centre of the galaxy at the end of the galactic trade wars. The galaxy is ruled by an evil emperor (John Carradine) presiding over a trade oligarchy that controls all mining and sale of ice from asteroids and comets.", "poster_path": "/wDnPJkkBDLqnwZKkPZoWptgOz9U.jpg", "release_date": "1984-03-16", "title": "The Ice Pirates", "video": false, "vote_average": 5.7, "vote_count": 78, "popularity": 8.365}, {"id": 84172, "video": false, "vote_count": 26, "vote_average": 6.7, "title": "The Ambassador", "release_date": "2011-10-05", "original_language": "en", "original_title": "The Ambassador", "genre_ids": [99], "backdrop_path": "/isKgnoUVbinFsuyoSrTEaXSScMO.jpg", "adult": false, "overview": "This darkly comic, genre-bending piece of gonzo journalism from international provocateur Mads Br\u00fcgger (filmmaker of Sundance Grand Jury Prize winner Red Chapel) rips the corroded lid off the global scheme of political corruption and exploitation happening in one of the most dangerous places on the planet: the Central African Republic. Armed with a phalanx of hidden cameras, black-market diplomatic credentials and a bleeding-edge wit, Br\u00fcgger transforms himself into an outlandish caricature of a European-African consul. As he immerses himself in the life-threatening underworld of nefarious bureaucrats, Br\u00fcgger encounters blood diamond smuggling, bribery, and even murder -- while somehow managing to crack amazing razor-sharp barbs at every step along the way. From each absurdly terrifying/hilarious situation to the next, The Ambassador is a one-of-a-kind excursion from the man whom The Huffington Post has called \u201cthe most provocative filmmaker in the world.\u201d", "poster_path": "/cgxu7aVRwQ3e1IlrKQOQEi1jeMT.jpg", "popularity": 3.52}, {"id": 377007, "video": false, "vote_count": 3, "vote_average": 5.5, "title": "Impossible", "release_date": "2015-12-04", "original_language": "zh", "original_title": "\u4e0d\u53ef\u601d\u5f02", "genre_ids": [35, 14, 878], "backdrop_path": "/ytybVDcBWR1ikme9EFi467CJg64.jpg", "adult": false, "overview": "Memeda, an alien from outer space happens to meet a depressed man who just lost his daughter in a car accident. After many challenges and conflicts, the two become good partners in a hilarious adventure.", "poster_path": "/royv6PqUojsFNbQntIPrLu4qVhe.jpg", "popularity": 1.176}, {"adult": false, "backdrop_path": "/ghGgjW1xNCiMEBMJhZJ6PXZEwwy.jpg", "genre_ids": [12, 878, 28, 35, 14], "id": 571119, "original_language": "fr", "original_title": "Attaque d\u2019un autre monde", "overview": "September 1954. A wave of UFO sightings sweeps over France. In America, a propaganda of a Soviet invasion is spread around. In a Qu\u00e9bec countryside, Mr. Edmond, a bullfrog hunter, on the way to meet his friend, Ti-Paul, and his trusty dog, Bobby, are suddenly faced by a flying saucer from which emerges aliens. In a hazy forest, Lorette, the mayor's daughter, and her best friend, Yvonne, are stalked by strange glowing spheres. They are immersed in a temporal fall. The above scenario inspired by SF classics of the 50's was filmed in Stereoscopic 3D.", "poster_path": "/ghTgd8yODpCxEfcs1p2Ed4RwYQx.jpg", "release_date": "2019-06-08", "title": "Attack from another World", "video": false, "vote_average": 9.0, "vote_count": 1, "popularity": 1.069}, {"adult": false, "backdrop_path": "/5DOQQ8thUseOkYgIAbRcCWK6i9U.jpg", "genre_ids": [35, 878], "id": 517289, "original_language": "en", "original_title": "The Toxic Avenger: The Musical", "overview": "Based on Lloyd Kaufman\u2019s cult 1984 comedy film, The Toxic Avenger The Musical tells the story of the citizens of Tromaville who are crying out for a hero. Enter nerdy Melvin Ferd the Third, an aspiring earth scientist, determined to clean up the state\u2019s major toxic waste problem. When a corrupt Mayor and her government goons get wind of his plans, they vow to stop this heroic feat. Melvin is attacked and tossed into a vat of toxic waste... transforming him instantly into The Toxic Avenger, New Jersey\u2019s first superhero! Toxie is a 7-foot mutant freak with superhuman strength and a supersized heart to match. His aims are to save heavily polluted New Jersey, end global warming, win the heart of the prettiest (blindest) librarian in town - and get home in time for dinner!", "poster_path": "/orkWyM0GHSN1wfShZGS79ARXnPk.jpg", "release_date": "2018-04-07", "title": "The Toxic Avenger: The Musical", "video": false, "vote_average": 6.7, "vote_count": 3, "popularity": 4.477}, {"adult": false, "backdrop_path": "/3OqxfZ6BK5XldCcKDN8jOMlclyN.jpg", "genre_ids": [878, 35], "id": 531140, "original_language": "en", "original_title": "Stop/Eject/Rewind", "overview": "A highly stylized, science-fiction/dark comedy short that follows the events of an off-kilter young man who constructs a time machine to impress his female coworker, taking her to the future.", "poster_path": "/n3CmnU4DtugtvuuSzXeCRYZgY5D.jpg", "release_date": "2019-03-01", "title": "Stop/Eject/Rewind", "video": false, "vote_average": 0.0, "vote_count": 0, "popularity": 0.645}, {"adult": false, "backdrop_path": null, "genre_ids": [35, 878], "id": 314363, "original_language": "en", "original_title": "Star Warp'd", "overview": "A short comedy film that utilizes claymation to parody Star Trek, Star Wars, and Terminator, among other things.", "poster_path": "/3p8ueaLjAaUPUs9HEja6BqX4nzJ.jpg", "release_date": "1999-05-19", "title": "Star Warp'd", "video": false, "vote_average": 3.8, "vote_count": 5, "popularity": 0.75}, {"adult": false, "backdrop_path": null, "genre_ids": [27, 878, 35], "id": 342789, "original_language": "es", "original_title": "El ataque del pene mutante del espacio", "overview": "", "poster_path": "/vLcsWxUuSURef44AJlUWZpI4VDK.jpg", "release_date": "2007-01-01", "title": "Attack of the Mutant Dick from Outer Space", "video": false, "vote_average": 5.0, "vote_count": 1, "popularity": 2.182}, {"adult": false, "backdrop_path": null, "genre_ids": [35], "id": 204608, "original_language": "en", "original_title": "Operation Midnight Climax", "overview": "Will Nitch is on a mission to achieve a transendental tantric sexual experience: a sustained orgasm. He begins to assemble a Secret Society of Women: women are, afterall, pivotal to helping a man to reach the cosmic blue lights. Will wants all the women for himself, and with the help of all the women in his life and his friend Chip, he plans a midnight tantric sex party; during which he hopes to climax to the point of reaching the mythical blue lights.", "poster_path": "/fPpT6lUuD3IdVpNQheta9f90Uvy.jpg", "release_date": "2002-04-29", "title": "Operation Midnight Climax", "video": false, "vote_average": 0.0, "vote_count": 0, "popularity": 1.474}, {"adult": false, "backdrop_path": null, "genre_ids": [16, 878], "id": 342514, "original_language": "it", "original_title": "Dolcezza Extrema", "overview": "In an unspecified year in the future, the Captain Pixws and his space pirate crew are forced to deliver tanning showers to every corner of the universe. Dolcezza Extrema starship will live an extraordinary adventure.", "poster_path": "/onj8oHWOMUNAXKbDFBgsA0bVIhV.jpg", "release_date": "2015-05-01", "title": "Dolcezza Extrema", "video": false, "vote_average": 7.0, "vote_count": 1, "popularity": 0.6}, {"adult": false, "backdrop_path": null, "genre_ids": [35], "id": 322322, "original_language": "en", "original_title": "Mexico 2000", "overview": "It's the year 2000. Finally, Mexico has entered the 21st century. Now everything works as planned.", "poster_path": "/ap2bRQfrh69g9iDfFRtL8jPTnid.jpg", "release_date": "1983-02-03", "title": "Mexico 2000", "video": false, "vote_average": 5.0, "vote_count": 1, "popularity": 1.12}, {"adult": false, "backdrop_path": null, "genre_ids": [35, 878], "id": 493452, "original_language": "en", "original_title": "Sensei Tumbleweed", "overview": "Harold Just Always Wanted To Be The Best Kung Fu Fighting Sai Slicing Sword Slashing Karate Kicking Fist Flailing Judo Jumping Person He Could Be.Harold Just Has One Problem, He's Lazy. After His Brother Makes Him Go Look For A Job He Discovers Quickly That This Day Is Going To Be Like No Other. Aliens Have Just Invaded And His Brother Is Now Missing. It's Now Up To Harold To Become Sensei Tumbleweed And Not Just Save His Brother But The Planet", "poster_path": "/6xMQOXuAGiF1ofy5HVxmE1eZTdR.jpg", "release_date": "2016-10-23", "title": "Sensei Tumbleweed", "video": false, "vote_average": 0.0, "vote_count": 0, "popularity": 1.11}, {"adult": false, "backdrop_path": "/uwbQGggugrX2JSpur7yh935e6mr.jpg", "genre_ids": [878, 35, 27], "id": 179672, "original_language": "en", "original_title": "Atomic Brain Invasion", "overview": "Science-fiction B-movie spoof. A bunch of misfit high-schoolers must band together to stop an army of brain creatures from outer space that intend to kidnap Elvis Presley when he performs in a small New England town.", "poster_path": "/qzkobDaeue3S1qAlMjgfZ5MIHyU.jpg", "release_date": "2010-01-01", "title": "Atomic Brain Invasion", "video": false, "vote_average": 6.0, "vote_count": 1, "popularity": 0.6}, {"adult": false, "backdrop_path": "/gdLHJDuVlDcQI6NnFS5H2XqqPXn.jpg", "genre_ids": [35, 14, 9648, 878], "id": 453263, "original_language": "en", "original_title": "Write A Book About It", "overview": "Tipsy Canoe (Actually Huizenga) was once an innocent child of the 90's. But after a gory initiation by immortal gang leader Bop (Ryan Linkof), she has developed not only a twisted blood-lust, but a desperate addiction to fame and youth. She needs to be loved in order to live. And now, in the year 2205, after marauding the streets with her gang of Warlords for over 200 years, Tipsy must find new ways to be adored. Her life is a dizzying tale of excess and depravity. If she can persuade top Hollywoodite, RIsha (Elisha Drons), to write a book about it, will her sick desires be fulfilled?", "poster_path": "/AgvHBpnfPKaTZeLVPMzDfLn3eG.jpg", "release_date": "2010-04-13", "title": "Write A Book About It", "video": false, "vote_average": 9.0, "vote_count": 1, "popularity": 0.6}, {"adult": false, "backdrop_path": null, "genre_ids": [878, 35], "id": 612079, "original_language": "en", "original_title": "Mariana 627", "overview": "Mariana 627, a sci-fi short about Kurt, a lone technician aboard a remote monitoring outpost deep in space, who finally gets a chance to leave his station and make the long journey home. But before he can, he must first train an interfacing AI system named IZAK to run the facility in his absence.", "poster_path": "/ekmKbMW50xvTDQ9mXDyu52FRI9T.jpg", "release_date": "2018-07-27", "title": "Mariana 627", "video": false, "vote_average": 8.0, "vote_count": 2, "popularity": 0.6}, {"id": 496204, "video": false, "vote_count": 1, "vote_average": 5.0, "title": "Teleport Zovko", "release_date": "2013-04-18", "original_language": "hr", "original_title": "Teleport Zovko", "genre_ids": [35, 878], "backdrop_path": "/pFB7z0Z47DrRZq9yKpOCBUP7LM0.jpg", "adult": false, "overview": "After all this waiting it's finally here in Croatia - Zovko Teleport. Get anywhere in just four seconds.", "poster_path": "/z6EXGw2JISsP73g0JJnh2kdrDQ.jpg", "popularity": 0.706}, {"adult": false, "backdrop_path": "/ranGiQUOUshZSaNl0uHZdwYmHUW.jpg", "genre_ids": [35], "id": 592422, "original_language": "de", "original_title": "Doorks - Bad Hair Day", "overview": "Concierge Felix is looking forward to a quiet night-shift with his favorite co-worker and secret crush Tanja. Unfortunately she brings a cage to work that does not contain a cuddly pet and draws a group of very peculiar gentlemen into Felix lobby.", "poster_path": null, "release_date": "2013-08-16", "title": "Doorks - Bad Hair Day", "video": false, "vote_average": 10.0, "vote_count": 1, "popularity": 0.6}, {"adult": false, "backdrop_path": null, "genre_ids": [878, 35], "id": 457389, "original_language": "en", "original_title": "The Advent of Mebiar", "overview": "Canceled independent kaiju film in which Fritz (Nick Huber), Snark (Jacob Lyngle), and Bubbles (Griffin Strycharske) are thrown into a mysterious cryptozoological cult event and must stop the rising of an ancient, monstrous being.", "poster_path": "/ktlm5eFs33IqKfwXY317uXK5V7D.jpg", "release_date": "2018-01-17", "title": "The Advent of Mebiar", "video": false, "vote_average": 0.0, "vote_count": 0, "popularity": 0.6}, {"id": 664806, "video": false, "vote_count": 0, "vote_average": 0.0, "title": "Red Dwarf Special", "release_date": "2020-04-12", "original_language": "en", "original_title": "Red Dwarf Special", "genre_ids": [12, 35, 878], "backdrop_path": null, "adult": false, "overview": "The science-fiction sitcom Red Dwarf sees its feature length debut.", "poster_path": null, "popularity": 0.6}, {"adult": false, "backdrop_path": null, "genre_ids": [99], "id": 365919, "original_language": "es", "original_title": "El sistema Gorevisi\u00f3n: Cine z, micropol\u00edtica y rocanrol", "overview": "", "poster_path": "/91UDbtmQ3AJvThHEz1IyteCLyNA.jpg", "release_date": "", "title": "El sistema Gorevisi\u00f3n: Cine z, micropol\u00edtica y rocanrol", "video": false, "vote_average": 0.0, "vote_count": 0, "popularity": 0.6}], "total_pages": 2, "total_results": 21}, "recommendations": {"page": 1, "results": [], "total_pages": 1, "total_results": 0}, "credits": {"cast": [{"cast_id": 1, "character": "El Federico (Batman)", "credit_id": "5629dbcd9251412853001669", "gender": 2, "id": 93648, "name": "Pablo Rago", "order": 0, "profile_path": "/5uw6DtMWwGUapY8kcccLUZj7fL1.jpg"}, {"cast_id": 2, "character": "Corona (El Guas\u00f3n)", "credit_id": "5629dbdcc3a3681b540017bd", "gender": 2, "id": 1001045, "name": "Diego Capusotto", "order": 1, "profile_path": "/b6yLiKzLXZ9rg5ldnQPnvrueR58.jpg"}, {"cast_id": 3, "character": "Fais\u00e1n (Linterna Verde)", "credit_id": "5629dbe3c3a3681b590015f7", "gender": 1, "id": 1241384, "name": "Nicol\u00e1s V\u00e1zquez", "order": 2, "profile_path": "/oDEy7puPMcTn1WZX92zqBrxSNzO.jpg"}, {"cast_id": 10, "character": "Doctor Gonz\u00e1lez", "credit_id": "572fb9969251415cc100317f", "gender": 2, "id": 96479, "name": "Diego Vel\u00e1zquez", "order": 3, "profile_path": null}, {"cast_id": 4, "character": "Nafta Super (Superman)", "credit_id": "5629dbf0925141285300166f", "gender": 2, "id": 1165749, "name": "Juan Palomino", "order": 4, "profile_path": "/9xu9GDegieb3oXCQFjc9GUIH8Wo.jpg"}, {"cast_id": 7, "character": "Enfermera Nilda", "credit_id": "56a3f0b69251417202003dde", "gender": 0, "id": 1567481, "name": "Susana Varela", "order": 6, "profile_path": "/lIYMMCHx3mPMyg566LZoMjdL9St.jpg"}, {"cast_id": 8, "character": "Cu\u00f1atai G\u00fcir\u00e1 (Chica Halc\u00f3n)", "credit_id": "56a3f0cd9251417202003de4", "gender": 1, "id": 1410145, "name": "Sof\u00eda Palomino", "order": 7, "profile_path": "/3w4caR0IwmAs5F7DICZNqRCz7P5.jpg"}, {"cast_id": 11, "character": "Lady Di (La Mujer Maravilla/Diana Prince)", "credit_id": "5ceff62392514177f2b93e4e", "gender": 2, "id": 230220, "name": "Lautaro Delgado Tymruk", "order": 9, "profile_path": "/jPCuXd7jYHuFG7eFW0wMbTg6JcH.jpg"}, {"cast_id": 12, "character": "R\u00e1faga / Flash", "credit_id": "5d4cb3701065d300154bed4f", "gender": 2, "id": 929045, "name": "Diego Cremonesi", "order": 10, "profile_path": "/tHE6oQCkWXh4JULLUF7iD7pG5fb.jpg"}], "crew": [{"credit_id": "5629db86c3a3681b61001759", "department": "Directing", "gender": 2, "id": 1028438, "job": "Director", "name": "Nicanor Loreti", "profile_path": "/lXk6sOjNTghRzCyLFYhgxUrUxU0.jpg"}]}}