{"adult": false, "backdrop_path": null, "belongs_to_collection": null, "budget": 0, "genres": [{"id": 99, "name": "Documentary"}], "homepage": null, "id": 365340, "imdb_id": "tt4483262", "original_language": "de", "original_title": "Cinema: A Public Affair", "overview": "", "popularity": 0.6, "poster_path": "/8idzoBfHepL8xmVpm8NWO9sdNK2.jpg", "production_companies": [], "production_countries": [], "release_date": "2015-02-06", "revenue": 0, "runtime": null, "spoken_languages": [{"iso_639_1": "de", "name": "Deutsch"}, {"iso_639_1": "ru", "name": "P\u0443\u0441\u0441\u043a\u0438\u0439"}], "status": "Released", "tagline": "", "title": "Cinema: A Public Affair", "video": false, "vote_average": 0.0, "vote_count": 0, "keywords": {"keywords": [{"id": 1388, "name": "cinema"}]}, "similar": {"page": 1, "results": [{"adult": false, "backdrop_path": "/wTtIzcdccv4N5XQEwG2GZtT97nE.jpg", "genre_ids": [99], "id": 160, "original_language": "fr", "original_title": "L'arriv\u00e9e d'un train en gare de La Ciotat", "overview": "A group of people are standing along the platform of a railway station in La Ciotat, waiting for a train. One is seen coming, at some distance, and eventually stops at the platform. Doors of the railway-cars open and attendants help passengers off and on.  Popular legend has it that, when this film was shown, the first-night audience fled the caf\u00e9 in terror, fearing being run over by the \"approaching\" train. This legend has since been identified as promotional embellishment, though there is evidence to suggest that people were astounded at the capabilities of the Lumi\u00e8res' cin\u00e9matographe.", "poster_path": "/vfuk7jaMstvpFvZ02DBiBmMe3tL.jpg", "release_date": "1896-01-25", "title": "The Arrival of a Train at La Ciotat", "video": false, "vote_average": 7.0, "vote_count": 209, "popularity": 9.279}, {"adult": false, "backdrop_path": "/8pjSUKUdFmdwKQkFJXR3KxqSuuI.jpg", "genre_ids": [99], "id": 330127, "original_language": "en", "original_title": "Back in Time", "overview": "Cast, crew, and fans explore the \u201cBack to the Future\u201d time-travel trilogy's resonance throughout our culture 30 years after Marty McFly went back in time.", "poster_path": "/sI9CLYcD28w1LR1axUneIog8U0S.jpg", "release_date": "2015-10-20", "title": "Back in Time", "video": false, "vote_average": 6.5, "vote_count": 200, "popularity": 10.237}, {"adult": false, "backdrop_path": "/bhg1MGVy9gVVH6QlyUDRNxtHdpp.jpg", "genre_ids": [10402, 99], "id": 426410, "original_language": "en", "original_title": "Score: A Film Music Documentary", "overview": "Music is an integral part of most films, adding emotion and nuance while often remaining invisible to audiences. Matt Schrader shines a spotlight on the overlooked craft of film composing, gathering many of the art form\u2019s most influential practitioners, from Hans Zimmer and Danny Elfman to Quincy Jones and Randy Newman, to uncover their creative process. Tracing key developments in the evolution of music in film, and exploring some of cinema\u2019s most iconic soundtracks, 'Score' is an aural valentine for film lovers.", "poster_path": "/hlass0Pq1j6WD6JAucH3mXBoWo4.jpg", "release_date": "2017-03-16", "title": "Score: A Film Music Documentary", "video": false, "vote_average": 7.6, "vote_count": 51, "popularity": 10.45}, {"adult": false, "backdrop_path": "/tVi83ttAeyMJinYpy6xfgJSpzvP.jpg", "genre_ids": [18, 10749], "id": 11216, "original_language": "it", "original_title": "Nuovo Cinema Paradiso", "overview": "A filmmaker recalls his childhood, when he fell in love with the movies at his village's theater and formed a deep friendship with the theater's projectionist.", "poster_path": "/hYzCLju3W74nLhhRXfPkwDi1Tun.jpg", "release_date": "1988-11-17", "title": "Cinema Paradiso", "video": false, "vote_average": 8.4, "vote_count": 2031, "popularity": 17.915}, {"id": 16869, "video": false, "vote_count": 13525, "vote_average": 8.1, "title": "Inglourious Basterds", "release_date": "2009-08-18", "original_language": "en", "original_title": "Inglourious Basterds", "genre_ids": [28, 18, 53, 10752], "backdrop_path": "/50VD6QU0NX0aRB6ftKCVWun80bm.jpg", "adult": false, "overview": "In Nazi-occupied France during World War II, a group of Jewish-American soldiers known as \"The Basterds\" are chosen specifically to spread fear throughout the Third Reich by scalping and brutally killing Nazis. The Basterds, lead by Lt. Aldo Raine soon cross paths with a French-Jewish teenage girl who runs a movie theater in Paris which is targeted by the soldiers.", "poster_path": "/ai0LXkzVM3hMjDhvFdKMUemoBe.jpg", "popularity": 32.532}, {"id": 11322, "video": false, "vote_count": 2547, "vote_average": 6.6, "title": "Public Enemies", "release_date": "2009-07-01", "original_language": "en", "original_title": "Public Enemies", "genre_ids": [80, 18, 36], "backdrop_path": "/km9dZbnVEuFSCH8Qz4LEfw86vgX.jpg", "adult": false, "overview": "Depression-era bank robber John Dillinger's charm and audacity endear him to much of America's downtrodden public, but he's also a thorn in the side of J. Edgar Hoover and the fledgling FBI. Desperate to capture the elusive outlaw, Hoover makes Dillinger his first Public Enemy Number One and assigns his top agent, Melvin Purvis, the task of bringing him in dead or alive.", "poster_path": "/qisfF7ENdmGI8fpQJoCxIIU1QhH.jpg", "popularity": 21.319}, {"adult": false, "backdrop_path": "/aWLIsFyLSX81Z0ORQQpxMFm1zFw.jpg", "genre_ids": [35], "id": 188222, "original_language": "en", "original_title": "Entourage", "overview": "Movie star Vincent Chase, together with his boys, Eric, Turtle and Johnny, are back\u2026and back in business with super agent-turned-studio head Ari Gold. Some of their ambitions have changed, but the bond between them remains strong as they navigate the capricious and often cutthroat world of Hollywood.", "poster_path": "/eXFOwg43NeZAv4BgXTlmdp7pzRG.jpg", "release_date": "2015-06-03", "title": "Entourage", "video": false, "vote_average": 6.2, "vote_count": 669, "popularity": 18.152}, {"adult": false, "backdrop_path": "/fJQ5kjLx4UdK05MC323Vlzwr6S8.jpg", "genre_ids": [35, 18, 36], "id": 140823, "original_language": "en", "original_title": "Saving Mr. Banks", "overview": "Author P.L. Travers travels from London to Hollywood as Walt Disney Pictures adapts her novel Mary Poppins for the big screen.", "poster_path": "/mvs3reS18RP6IhjLwwLeVtkoeg0.jpg", "release_date": "2013-11-16", "title": "Saving Mr. Banks", "video": false, "vote_average": 7.4, "vote_count": 2230, "popularity": 11.476}, {"id": 371638, "video": false, "vote_count": 2190, "vote_average": 7.2, "title": "The Disaster Artist", "release_date": "2017-03-12", "original_language": "en", "original_title": "The Disaster Artist", "genre_ids": [35, 18], "backdrop_path": "/cCIWU5b4izIpLeGQnQNW7iTtIDN.jpg", "adult": false, "overview": "An aspiring actor in Hollywood meets an enigmatic stranger by the name of Tommy Wiseau, the meeting leads the actor down a path nobody could have predicted; creating the worst movie ever made.", "poster_path": "/jj84nF5vYRD0HUTowBKcrKk8hZP.jpg", "popularity": 21.696}, {"id": 9599, "video": false, "vote_count": 377, "vote_average": 6.4, "title": "The Blob", "release_date": "1988-08-05", "original_language": "en", "original_title": "The Blob", "genre_ids": [27, 878], "backdrop_path": "/vOsSAb5oTeH2ubpIMjMhKSZwTxe.jpg", "adult": false, "overview": "Remake of the 1958 horror sci-fi about a deadly blob which is the spawn of a secret government germ warfare project which consumes everyone in its path. Teenagers try in vain to warn the townsfolk, who refuse to take them seriously, while government agents try to cover up the evidence and confine the creature.", "poster_path": "/hUZXLtqL0In7F6IXEQHapkqXa0G.jpg", "popularity": 10.668}, {"id": 339751, "video": false, "vote_count": 110, "vote_average": 7.4, "title": "Hitchcock/Truffaut", "release_date": "2015-09-04", "original_language": "en", "original_title": "Hitchcock/Truffaut", "genre_ids": [99], "backdrop_path": "/oYNKh0FwArUfryI6GaKcbfWVPl4.jpg", "adult": false, "overview": "Filmmakers discuss the legacy of Alfred Hitchcock and the book \u201cHitchcock/Truffaut\u201d (\u201cLe cin\u00e9ma selon Hitchcock\u201d), written by Fran\u00e7ois Truffaut and published in 1966.", "poster_path": "/bJ6AcDLnagKDH6FTgMr5vZFS9lx.jpg", "popularity": 9.472}, {"id": 12684, "video": false, "vote_count": 131, "vote_average": 6.7, "title": "Sabotage", "release_date": "1936-12-02", "original_language": "en", "original_title": "Sabotage", "genre_ids": [9648, 53], "backdrop_path": "/iguLgc2RGYlMLg747T71IFyGfTU.jpg", "adult": false, "overview": "A Scotland Yard undercover detective is on the trail of a saboteur who is part of a plot to set off a bomb in London. But when the detective's cover is blown, the plot begins to unravel.", "poster_path": "/9DM9MPN6jtvIhqvadCFTPBQZwiW.jpg", "popularity": 9.754}, {"adult": false, "backdrop_path": "/2cQo6h9gQtkpJFP1cEWPpnSsZ7w.jpg", "genre_ids": [14, 35, 10749], "id": 10849, "original_language": "en", "original_title": "The Purple Rose of Cairo", "overview": "Cecilia is a waitress in New Jersey, living a dreary life during the Great Depression. Her only escape from her mundane reality is the movie theatre. After losing her job, Cecilia goes to see 'The Purple Rose of Cairo' in hopes of raising her spirits, where she watches dashing archaeologist Tom Baxter time and again.", "poster_path": "/nWMT2WBzPtrXdjPlb28PFSrBGd0.jpg", "release_date": "1985-03-01", "title": "The Purple Rose of Cairo", "video": false, "vote_average": 7.5, "vote_count": 509, "popularity": 9.516}, {"id": 290, "video": false, "vote_count": 885, "vote_average": 7.5, "title": "Barton Fink", "release_date": "1991-08-01", "original_language": "en", "original_title": "Barton Fink", "genre_ids": [35, 18], "backdrop_path": "/kptmPB0rwfLqf1yQPCWewCoyiiq.jpg", "adult": false, "overview": "A renowned New York playwright is enticed to California to write for the movies and discovers the hellish truth of Hollywood.", "poster_path": "/846d8FclibtOIoUW7PxpT0nCG4C.jpg", "popularity": 10.637}, {"adult": false, "backdrop_path": "/wwJEcAKY5drJj9o4EJKIOjLDZNF.jpg", "genre_ids": [35, 18], "id": 1675, "original_language": "fr", "original_title": "La Nuit am\u00e9ricaine", "overview": "A committed film director struggles to complete his movie while coping with a myriad of crises, personal and professional, among the cast and crew.", "poster_path": "/5GqtoMYV2XxYkn1Wzg8kib8JTkj.jpg", "release_date": "1973-05-24", "title": "Day for Night", "video": false, "vote_average": 7.9, "vote_count": 255, "popularity": 9.234}, {"adult": false, "backdrop_path": "/kQX0k2mVsiexLftIpiTVb5N6rZs.jpg", "genre_ids": [35, 18, 10749], "id": 339397, "original_language": "en", "original_title": "Caf\u00e9 Society", "overview": "The story of a young man who arrives in Hollywood during the 1930s hoping to work in the film industry, falls in love, and finds himself swept up in the vibrant caf\u00e9 society that defined the spirit of the age.", "poster_path": "/hRrF8R32WIldNEMLOhtNrz9OfAZ.jpg", "release_date": "2016-05-11", "title": "Caf\u00e9 Society", "video": false, "vote_average": 6.4, "vote_count": 1699, "popularity": 10.337}, {"id": 32499, "video": false, "vote_count": 111, "vote_average": 7.3, "title": "The Bad and the Beautiful", "release_date": "1952-12-25", "original_language": "en", "original_title": "The Bad and the Beautiful", "genre_ids": [18, 10749], "backdrop_path": "/rprutJu1nFDqnI5IjtO7heBdavW.jpg", "adult": false, "overview": "Told in flashback form, the film traces the rise and fall of a tough, ambitious Hollywood producer, Jonathan Shields, as seen through the eyes of various acquaintances, including a writer, James Lee Bartlow; a star, Georgia Lorrison; and a director, Fred Amiel. He is a hard-driving, ambitious man who ruthlessly uses everyone on the way to becoming one of Hollywood's top movie makers.", "poster_path": "/7ZuPYVkqTz5wcnG32mhYBgKSOKw.jpg", "popularity": 7.729}, {"adult": false, "backdrop_path": "/uMarY1dlP7WmpFHdtX0zgfdNwUy.jpg", "genre_ids": [35], "id": 35185, "original_language": "en", "original_title": "The Smallest Show on Earth", "overview": "Jean and Bill are a married couple trying to scrape a living. Out of the blue they receive a telegram informing them Bill's long-lost uncle has died and left them his business\u2014a cinema in the town of Sloughborough. Unfortunately they can't sell it for the fortune they hoped as they discover it is falling down and almost worthless.", "poster_path": "/epQZGlatIZvtJPAsfLJ8jOxFBNg.jpg", "release_date": "1957-04-09", "title": "The Smallest Show on Earth", "video": false, "vote_average": 7.2, "vote_count": 12, "popularity": 3.643}, {"id": 651724, "video": false, "vote_count": 26, "vote_average": 7.9, "title": "The Irishman: In Conversation", "release_date": "2019-11-27", "original_language": "en", "original_title": "The Irishman: In Conversation", "genre_ids": [99], "backdrop_path": "/nS92jjhnPF6EnSPbp6HdLXnZKGa.jpg", "adult": false, "overview": "Martin Scorsese, Robert De Niro, Joe Pesci, and Al Pacino in conversation about The Irishman.", "poster_path": "/fF704pR8xsNjI7dVi4M4rPUqxvU.jpg", "popularity": 4.847}, {"id": 92060, "video": false, "vote_count": 268, "vote_average": 8.1, "title": "Michael Jackson's Thriller", "release_date": "1983-11-14", "original_language": "en", "original_title": "Michael Jackson's Thriller", "genre_ids": [27, 10402], "backdrop_path": "/kEGls1NMhHUzL92meK9Cm53Qm2N.jpg", "adult": false, "overview": "A night at the movies turns into a nightmare when Michael and his date are attacked by a hoard of bloody-thirsty zombies.", "poster_path": "/puLSRxaG8MweynoRt8wZS8ZXZRM.jpg", "popularity": 8.542}], "total_pages": 12, "total_results": 229}, "recommendations": {"page": 1, "results": [], "total_pages": 1, "total_results": 0}, "credits": {"cast": [], "crew": [{"credit_id": "562d35aec3a3681b4b007eda", "department": "Directing", "gender": 0, "id": 570753, "job": "Director", "name": "Tatiana Brandrup", "profile_path": null}, {"credit_id": "562d35b6c3a3681b54008920", "department": "Writing", "gender": 0, "id": 570753, "job": "Writer", "name": "Tatiana Brandrup", "profile_path": null}]}}