{"adult": false, "backdrop_path": "/fGU8z1CyoJUCkpoQiW4gDOyWE14.jpg", "belongs_to_collection": null, "budget": 0, "genres": [{"id": 10770, "name": "TV Movie"}, {"id": 18, "name": "Drama"}, {"id": 10751, "name": "Family"}], "homepage": null, "id": 36602, "imdb_id": "tt0825347", "original_language": "en", "original_title": "The Wind in the Willows", "overview": "Matt Lucas as a marvellous Toad, Mark Gatiss as a spiky rat, Lee Ingleby as a nervous Mole, and Bob Hoskins as a grumpy old Badger make a classy cast within yet another version of Kenneth Grahame's classic book.", "popularity": 3.388, "poster_path": "/pn1qEuEg2nZUsWtwfGceYuqeK8u.jpg", "production_companies": [{"id": 3244, "logo_path": null, "name": "Media Pro Pictures", "origin_country": "RO"}, {"id": 2961, "logo_path": null, "name": "Box TV", "origin_country": ""}, {"id": 6438, "logo_path": "/hQVRii7CRnfG0rowSEc6ibt2Pke.png", "name": "Muse Entertainment", "origin_country": "CA"}], "production_countries": [{"iso_3166_1": "RO", "name": "Romania"}, {"iso_3166_1": "GB", "name": "United Kingdom"}, {"iso_3166_1": "CA", "name": "Canada"}], "release_date": "2006-12-18", "revenue": 0, "runtime": 99, "spoken_languages": [{"iso_639_1": "en", "name": "English"}], "status": "Released", "tagline": "", "title": "The Wind in the Willows", "video": false, "vote_average": 6.0, "vote_count": 2, "keywords": {"keywords": [{"id": 3905, "name": "owl"}, {"id": 15199, "name": "rabbit"}, {"id": 187056, "name": "woman director"}]}, "similar": {"page": 1, "results": [{"adult": false, "backdrop_path": "/gZeJziVigmRqbkEZwKAtSqlLQ6s.jpg", "genre_ids": [18, 10749], "id": 370663, "original_language": "en", "original_title": "Below Her Mouth", "overview": "An unexpected affair quickly escalates into a heart-stopping reality for two women whose passionate connection changes their lives forever.", "poster_path": "/nTGbq37hYLuNy7YgMg0gVLma0NS.jpg", "release_date": "2016-09-10", "title": "Below Her Mouth", "video": false, "vote_average": 6.2, "vote_count": 456, "popularity": 18.664}, {"adult": false, "backdrop_path": "/dvQDRfv3qvfHNnVAR57ouVsuErf.jpg", "genre_ids": [10749, 18], "id": 28031, "original_language": "en", "original_title": "If These Walls Could Talk 2", "overview": "The stories of three lesbian couples -- who live in the same house at different periods of time -- who are at a crossroads in their lives. In 1961, Edith loses her lover, Abby, to a stroke. Linda and Amy struggle with feminist issues in 1972. And, in 2000, Kal and Fran try to have a baby with the help of sperm donor.", "poster_path": "/xs7ODbmYQXCDhvXNvz5tF17T59H.jpg", "release_date": "2000-03-05", "title": "If These Walls Could Talk 2", "video": false, "vote_average": 7.1, "vote_count": 55, "popularity": 8.86}, {"adult": false, "backdrop_path": "/knczzNAjBXzSYkeWxoT1u9VNmjR.jpg", "genre_ids": [10749, 18], "id": 258480, "original_language": "en", "original_title": "Carol", "overview": "In 1950s New York, a department-store clerk who dreams of a better life falls for an older, married woman.", "poster_path": "/AbKa7ANxmui0Jmhh7gV7OSELKIL.jpg", "release_date": "2015-11-20", "title": "Carol", "video": false, "vote_average": 7.4, "vote_count": 2184, "popularity": 13.539}, {"adult": false, "backdrop_path": "/cADbqsIoiDW7X3Myg9nz8eAuno5.jpg", "genre_ids": [18, 10749], "id": 10818, "original_language": "fr", "original_title": "Naissance des pieuvres", "overview": "Set during a sultry summer in a French suburb, Marie is desperate to join the local pool's synchronized swimming team, but is her interest solely for the sake of sport or for a chance to get close to Floriane, the bad girl of the team? Sciamma, and the two leads, capture the uncertainty of teenage sexuality with a sympathetic eye in this delicate drama of the angst of coming-of-age.", "poster_path": "/4jajELYrR4Xmv3CVoKnukRnALa2.jpg", "release_date": "2007-05-17", "title": "Water Lilies", "video": false, "vote_average": 6.1, "vote_count": 119, "popularity": 9.614}, {"adult": false, "backdrop_path": "/fZ8oFcREAr6wgWcXISGql0xyxjB.jpg", "genre_ids": [35, 18], "id": 39781, "original_language": "en", "original_title": "The Kids Are All Right", "overview": "Two women, Nic and Jules, brought a son and daughter into the world through artificial insemination. When one of their children reaches age, both kids go behind their mothers' backs to meet with the donor. Life becomes so much more interesting when the father, two mothers and children start to become attached to each other.", "poster_path": "/fPDeK4MmoGfi2X0oWZev7LrbMqM.jpg", "release_date": "2010-07-09", "title": "The Kids Are All Right", "video": false, "vote_average": 6.6, "vote_count": 923, "popularity": 12.159}, {"adult": false, "backdrop_path": "/rf6G51j0SZL0tP57I8gnqHTRFEr.jpg", "genre_ids": [35, 18, 10749], "id": 273153, "original_language": "fr", "original_title": "La belle saison", "overview": "In 1971, Carole and Delphine meet and fall in love in Paris. When Carole follows Delphine back to her family farm in Limousin, the two find lesbianism and feminism are not as easy in the countryside.", "poster_path": "/evvAkNMO5VJiy5qIo1Hu7fUfvVI.jpg", "release_date": "2015-08-19", "title": "Summertime", "video": false, "vote_average": 6.6, "vote_count": 162, "popularity": 11.575}, {"id": 9813, "video": false, "vote_count": 128, "vote_average": 6.1, "title": "The Quiet", "release_date": "2005-09-12", "original_language": "en", "original_title": "The Quiet", "genre_ids": [18, 53], "backdrop_path": "/6eyWAZA4CEidZW1xXnQ4vlYBXTP.jpg", "adult": false, "overview": "After her widowed father dies, deaf teenager Dot moves in with her godparents, Olivia and Paul Deer. The Deers' daughter, Nina, is openly hostile to Dot, but that does not prevent her from telling her secrets to her silent stepsister, including the fact that she wants to kill her lecherous father.", "poster_path": "/GEqIE9YlmygHVUfS64LW2cwAAM.jpg", "popularity": 14.844}, {"adult": false, "backdrop_path": "/ph5fElfh4U7O3jwhFljxz2LDp1l.jpg", "genre_ids": [18, 36], "id": 375262, "original_language": "en", "original_title": "The Favourite", "overview": "England, early 18th century. The close relationship between Queen Anne and Sarah Churchill is threatened by the arrival of Sarah's cousin, Abigail Hill, resulting in a bitter rivalry between the two cousins to be the Queen's favourite.", "poster_path": "/cwBq0onfmeilU5xgqNNjJAMPfpw.jpg", "release_date": "2018-11-23", "title": "The Favourite", "video": false, "vote_average": 7.6, "vote_count": 2823, "popularity": 28.019}, {"adult": false, "backdrop_path": "/6tern9vOEwwmkDYC1vRCuO64z0C.jpg", "genre_ids": [10749, 18], "id": 475888, "original_language": "en", "original_title": "Tell It to the Bees", "overview": "Dr. Jean Markham returns to the town she left as a teenager to take over her late father's medical practice. When a school-yard scuffle lands Charlie in her surgery, she invites him to visit the hives in her garden and tell his secrets to the bees, as she once did. The new friendship between the boy and the bee keeper brings his mother Lydia into Jean's world.", "poster_path": "/Rj6zpHhMU1zFW3v28U4PSRSRgP.jpg", "release_date": "2019-05-03", "title": "Tell It to the Bees", "video": false, "vote_average": 6.4, "vote_count": 53, "popularity": 13.175}, {"adult": false, "backdrop_path": "/baYbbMtKRDoDWYJeVWkbygAvAj8.jpg", "genre_ids": [18, 10749], "id": 31216, "original_language": "en", "original_title": "I Can't Think Straight", "overview": "I CAN'T THINK STRAIGHT is a 2007 romance movie about a London-based Jordanian of Palestinian descent, Tala, who is preparing for an elaborate wedding. A turn of events causes her to have an affair and subsequently fall in love with another woman, Leyla, a British Indian.", "poster_path": "/1kapga6rkM5wNuQBYw7sdE42CrA.jpg", "release_date": "2008-06-01", "title": "I Can't Think Straight", "video": false, "vote_average": 7.6, "vote_count": 109, "popularity": 7.815}, {"adult": false, "backdrop_path": "/lI5h8KaoeObu4NMTwzeRuUHzRwD.jpg", "genre_ids": [18, 9648, 53], "id": 401898, "original_language": "no", "original_title": "Thelma", "overview": "A college student starts to experience extreme seizures. She soon learns that the violent episodes are a symptom of inexplicable abilities.", "poster_path": "/yzSfG8TLAqw7nMQh2lxirQkQpgs.jpg", "release_date": "2017-09-15", "title": "Thelma", "video": false, "vote_average": 7.1, "vote_count": 418, "popularity": 13.105}, {"adult": false, "backdrop_path": "/tIFRPjIXQ3sYrmxbIeOu9K1JkUz.jpg", "genre_ids": [18, 10749], "id": 294, "original_language": "en", "original_title": "Desert Hearts", "overview": "The story of straight-edge literature professor Vivian who travels to Reno to get away from a relationship breakup when she falls in love with an attractive and unconventional girl named Cay.", "poster_path": "/b8JSmQSpYYJhctMtxNgqh0elENg.jpg", "release_date": "1985-10-01", "title": "Desert Hearts", "video": false, "vote_average": 7.3, "vote_count": 58, "popularity": 6.976}, {"id": 15655, "video": false, "vote_count": 315, "vote_average": 6.4, "title": "The Tigger Movie", "release_date": "2000-02-11", "original_language": "en", "original_title": "The Tigger Movie", "genre_ids": [16, 35, 10751], "backdrop_path": "/60JMvMGuLHSlVjoUpi86UiB5Lmq.jpg", "adult": false, "overview": "Winnie the Pooh, Piglet, Owl, Kanga, Roo, and Rabbit are preparing a suitable winter home for Eeyore, the perennially dejected donkey, but Tigger's continual bouncing interrupts their efforts. Rabbit suggests that Tigger go find others of his kind to bounce with, but Tigger thinks \"the most wonderful thing about tiggers is\" he's \"the only one!\" Just in case though, the joyously jouncy feline sets out to see if he can find relatives.", "poster_path": "/lxuiGvLHIL1ZyePP7bn6FcKj0Mr.jpg", "popularity": 13.444}, {"adult": false, "backdrop_path": "/zBB1mzmqnUuSrlTuf0SFFlI1EoJ.jpg", "genre_ids": [18], "id": 244772, "original_language": "en", "original_title": "The Skeleton Twins", "overview": "Estranged twins Maggie and Milo coincidentally cheat death on the same day, prompting them to reunite and confront the reasons their lives went so wrong. As the twins' reunion reinvigorates them, they realize the key to fixing their lives may just lie in repairing their relationship.", "poster_path": "/vvmv1R2jDXJeeeyYcGg0ypXc2XK.jpg", "release_date": "2014-09-12", "title": "The Skeleton Twins", "video": false, "vote_average": 6.7, "vote_count": 416, "popularity": 10.481}, {"adult": false, "backdrop_path": "/3YGy88nTV2e0wxZcKI1goiEN9oy.jpg", "genre_ids": [18, 10749], "id": 37636, "original_language": "en", "original_title": "High Art", "overview": "A young female intern at a small magazine company becomes involved with a drug-addicted lesbian photographer, both of whom seek to exploit each other for their respective careers, while slowly falling in love with each other.", "poster_path": "/qTg05RNJIvb9w4Z7XIcAZxuZmTn.jpg", "release_date": "1998-06-12", "title": "High Art", "video": false, "vote_average": 6.6, "vote_count": 61, "popularity": 7.422}, {"adult": false, "backdrop_path": "/caLMOD3ZJ3V7qjlxDXrzlJfBLgD.jpg", "genre_ids": [18, 10749], "id": 20, "original_language": "en", "original_title": "My Life Without Me", "overview": "A Pedro Almodovar production in which a fatally ill mother with only two months to live creates a list of things she wants to do before she dies with out telling her family of her illness.", "poster_path": "/vVj92VBFUBzjqzLvBiPVVlJDp78.jpg", "release_date": "2003-03-07", "title": "My Life Without Me", "video": false, "vote_average": 6.1, "vote_count": 220, "popularity": 10.382}, {"id": 326359, "video": false, "vote_count": 1180, "vote_average": 6.8, "title": "Frozen Fever", "release_date": "2015-03-09", "original_language": "en", "original_title": "Frozen Fever", "genre_ids": [12, 16, 10751], "backdrop_path": "/ubioPGniCfDiASmYYpeJs5RRNaC.jpg", "adult": false, "overview": "On Anna's birthday, Elsa and Kristoff are determined to give her the best celebration ever, but Elsa's icy powers may put more than just the party at risk.", "poster_path": "/lKJiVPzsAO9IJ4LKWXZ8vkR2bg4.jpg", "popularity": 17.218}, {"id": 434714, "video": false, "vote_count": 32, "vote_average": 7.5, "title": "My Days of Mercy", "release_date": "2019-07-11", "original_language": "en", "original_title": "My Days of Mercy", "genre_ids": [18, 10749], "backdrop_path": "/7Lbzq33nMMIQtAfZAmSqG6ibLSg.jpg", "adult": false, "overview": "The daughter of a man on death row falls in love with a woman on the opposing side of her family's political cause.", "poster_path": "/adIPKAoKnKL9vCTkvfF4J9ZA7Ln.jpg", "popularity": 9.342}, {"adult": false, "backdrop_path": "/useuHJQ5HOoEWkAvEjL1FW1sUfe.jpg", "genre_ids": [18], "id": 376867, "original_language": "en", "original_title": "Moonlight", "overview": "The tender, heartbreaking story of a young man\u2019s struggle to find himself, told across three defining chapters in his life as he experiences the ecstasy, pain, and beauty of falling in love, while grappling with his own sexuality.", "poster_path": "/qAwFbszz0kRyTuXmMeKQZCX3Q2O.jpg", "release_date": "2016-10-21", "title": "Moonlight", "video": false, "vote_average": 7.4, "vote_count": 4410, "popularity": 21.716}, {"adult": false, "backdrop_path": "/k8H7ye6Sab7OrDJoo8Qp5WFGHGk.jpg", "genre_ids": [35, 10749, 18], "id": 244264, "original_language": "en", "original_title": "Laggies", "overview": "Overeducated and underemployed, 28 year old Megan is in the throes of a quarterlife crisis. Squarely into adulthood with no career prospects, no particular motivation to think about her future and no one to relate to, Megan is comfortable lagging a few steps behind - while her friends check off milestones and celebrate their new grown-up status. When her high-school sweetheart proposes, Megan panics and- given an unexpected opportunity to escape for a week - hides out in the home of her new friend, 16-year old Annika and Annika's world-weary single dad Craig.", "poster_path": "/dNcoXoRC7JHiqbe7k5Ufo6syiPP.jpg", "release_date": "2014-09-25", "title": "Laggies", "video": false, "vote_average": 6.1, "vote_count": 788, "popularity": 13.836}], "total_pages": 1324, "total_results": 26471}, "recommendations": {"page": 1, "results": [], "total_pages": 1, "total_results": 0}, "credits": {"cast": [{"cast_id": 1, "character": "Toad", "credit_id": "52fe45f89251416c91044a1d", "gender": 2, "id": 26209, "name": "Matt Lucas", "order": 0, "profile_path": "/jeDy8LONCjOapC551F1EKCurWan.jpg"}, {"cast_id": 3, "character": "Mole", "credit_id": "52fe45f89251416c91044a25", "gender": 2, "id": 229672, "name": "Lee Ingleby", "order": 2, "profile_path": "/x2OW4t8CerOMObV1opNZ2rmGto1.jpg"}, {"cast_id": 4, "character": "Badger", "credit_id": "52fe45f89251416c91044a29", "gender": 2, "id": 382, "name": "Bob Hoskins", "order": 3, "profile_path": "/mIgAC6q5HcHHxZUIiCOvE6mHLGs.jpg"}, {"cast_id": 5, "character": "Barge Lady", "credit_id": "52fe45f89251416c91044a2d", "gender": 1, "id": 11356, "name": "Imelda Staunton", "order": 4, "profile_path": "/mKlkh0AuYPD5HjmnlrW0uPm5QvJ.jpg"}, {"cast_id": 6, "character": "Engine Driver", "credit_id": "52fe45f89251416c91044a31", "gender": 2, "id": 20070, "name": "Jim Carter", "order": 5, "profile_path": "/ycS14B6YHA2k4IlEPNgh0eQOv7u.jpg"}, {"cast_id": 7, "character": "Gaoler's Daughter", "credit_id": "52fe45f89251416c91044a35", "gender": 1, "id": 29236, "name": "Anna Maxwell Martin", "order": 6, "profile_path": "/rh3beeSyUKv7yAiyqEH2RnSDhh0.jpg"}, {"cast_id": 8, "character": "Washerwoman", "credit_id": "52fe45f89251416c91044a39", "gender": 1, "id": 7005, "name": "Mary Walsh", "order": 7, "profile_path": "/aMvQu5iI4I5fFjYrDI2UzUTDEbk.jpg"}, {"cast_id": 9, "character": "Judge", "credit_id": "52fe45f89251416c91044a3d", "gender": 2, "id": 4776, "name": "Michael Murphy", "order": 8, "profile_path": "/ebbKhFgIHugUywSL5udMFNfRxvQ.jpg"}, {"cast_id": 10, "character": "Clerk", "credit_id": "52fe45f89251416c91044a41", "gender": 0, "id": 126042, "name": "Alex MacQueen", "order": 9, "profile_path": "/cUdOuIFnMn298rz6HrkAvVccRpi.jpg"}, {"cast_id": 11, "character": "Mr. Tweed", "credit_id": "52fe45f89251416c91044a45", "gender": 2, "id": 209884, "name": "Emil Ho\u0219tin\u0103", "order": 10, "profile_path": "/1BYs36uYPxAHdWemF6zjGCw0MDo.jpg"}, {"cast_id": 12, "character": "Mrs. Tweed", "credit_id": "52fe45f89251416c91044a49", "gender": 1, "id": 229673, "name": "Alexandra Pirici", "order": 11, "profile_path": "/dbcQiGTIsEkcMLBaykahl325sa1.jpg"}, {"cast_id": 13, "character": "Chief Weasel", "credit_id": "52fe45f89251416c91044a4d", "gender": 2, "id": 229674, "name": "Radu Andrei Micu", "order": 12, "profile_path": "/uWJ81y6UznCuvzlp7dtI7ztFEM1.jpg"}, {"cast_id": 14, "character": "Hedgehog", "credit_id": "52fe45f89251416c91044a51", "gender": 0, "id": 229675, "name": "Andrei Avrinte", "order": 13, "profile_path": null}, {"cast_id": 15, "character": "Hedgehog", "credit_id": "52fe45f89251416c91044a55", "gender": 0, "id": 229676, "name": "Christian Vlad", "order": 14, "profile_path": null}, {"cast_id": 16, "character": "Rat", "credit_id": "541b3ff2c3a368385c000ad6", "gender": 2, "id": 34546, "name": "Mark Gatiss", "order": 15, "profile_path": "/lNWpVEdZ3VndTu843Vqkk1h0Pze.jpg"}, {"cast_id": 18, "character": "Judge", "credit_id": "5a356278925141547b03f1fb", "gender": 2, "id": 44865, "name": "Tom Baker", "order": 16, "profile_path": "/2i9OprEx0Qz3QwLcx2mQe3g27c7.jpg"}], "crew": [{"credit_id": "5a3573a6925141547804051f", "department": "Writing", "gender": 2, "id": 470, "job": "Adaptation", "name": "Lee Hall", "profile_path": null}, {"credit_id": "5a3574f20e0a264cbe1c3989", "department": "Camera", "gender": 2, "id": 21222, "job": "Director of Photography", "name": "David Franco", "profile_path": "/xp82WfpjYNLFKB2wg4FQE99dPmZ.jpg"}, {"credit_id": "5a3576c90e0a264cca1c480c", "department": "Costume & Make-Up", "gender": 1, "id": 22081, "job": "Costume Design", "name": "Vin Burnham", "profile_path": null}, {"credit_id": "5a3576170e0a264cc81d729c", "department": "Art", "gender": 0, "id": 23489, "job": "Supervising Art Director", "name": "Bill Crutcher", "profile_path": null}, {"credit_id": "5a3576429251415478040874", "department": "Art", "gender": 0, "id": 23492, "job": "Art Direction", "name": "Vlad Vieru", "profile_path": null}, {"credit_id": "5a357752925141547b040985", "department": "Costume & Make-Up", "gender": 0, "id": 29458, "job": "Prosthetic Designer", "name": "Erik Gosselin", "profile_path": null}, {"credit_id": "57a8446e92514174a8003b10", "department": "Directing", "gender": 1, "id": 56891, "job": "Director", "name": "Rachel Talalay", "profile_path": "/cGgfRMtgDiE17ThIliBqksMDknS.jpg"}, {"credit_id": "5a35744b925141547b0404ed", "department": "Production", "gender": 2, "id": 58175, "job": "Producer", "name": "Michael Prupas", "profile_path": null}, {"credit_id": "5a3575f70e0a264cc81d7264", "department": "Art", "gender": 0, "id": 60409, "job": "Art Direction", "name": "Cristian Corvin", "profile_path": null}, {"credit_id": "5a357eec925141032c1cd011", "department": "Costume & Make-Up", "gender": 0, "id": 62878, "job": "Costume Supervisor", "name": "Ioana Albaiu", "profile_path": null}, {"credit_id": "5a3575a00e0a264cc41be65b", "department": "Production", "gender": 0, "id": 63600, "job": "Casting", "name": "Rachel Freck", "profile_path": null}, {"credit_id": "5a357b9cc3a36814a8043489", "department": "Sound", "gender": 0, "id": 75102, "job": "Foley Editor", "name": "Chris Treble", "profile_path": null}, {"credit_id": "5a357322c3a36814a80428ee", "department": "Writing", "gender": 2, "id": 138176, "job": "Writer", "name": "Kenneth Grahame", "profile_path": null}, {"credit_id": "5a3575cbc3a3680b9d1b2ff9", "department": "Art", "gender": 0, "id": 582928, "job": "Production Design", "name": "Jon Henson", "profile_path": null}, {"credit_id": "5a3578ea925141547203fff2", "department": "Directing", "gender": 0, "id": 587466, "job": "First Assistant Director", "name": "Virgil Nicolaescu", "profile_path": null}, {"credit_id": "5a357bf90e0a264cc81d7b2a", "department": "Visual Effects", "gender": 2, "id": 1052872, "job": "Special Effects Supervisor", "name": "Adrian Popescu", "profile_path": null}, {"credit_id": "5a3573f80e0a264ccd1cd0d7", "department": "Production", "gender": 0, "id": 1212189, "job": "Producer", "name": "Gub Neal", "profile_path": null}, {"credit_id": "5a357878925141547203ff58", "department": "Crew", "gender": 0, "id": 1233112, "job": "Post Production Supervisor", "name": "Layla Blackman", "profile_path": null}, {"credit_id": "5a357987925141547e03ffa6", "department": "Art", "gender": 0, "id": 1333943, "job": "Property Master", "name": "Cristian Baluta", "profile_path": null}, {"credit_id": "5a35795ec3a3680b8d1c7f1f", "department": "Production", "gender": 0, "id": 1334504, "job": "Production Coordinator", "name": "Dana Andreianu", "profile_path": null}, {"credit_id": "5a35780fc3a3680b9d1b32bf", "department": "Costume & Make-Up", "gender": 0, "id": 1342649, "job": "Key Makeup Artist", "name": "Felicity Wright", "profile_path": null}, {"credit_id": "5a358057c3a36814ae042cec", "department": "Directing", "gender": 1, "id": 1346957, "job": "Script Supervisor", "name": "Andra Barbuica", "profile_path": null}, {"credit_id": "5a357eb50e0a264cc81d7ef3", "department": "Camera", "gender": 2, "id": 1399565, "job": "Steadicam Operator", "name": "Bogdan Stanciu", "profile_path": null}, {"credit_id": "5a357d91c3a36814b9041a45", "department": "Camera", "gender": 2, "id": 1401196, "job": "Still Photographer", "name": "Cos Aelenei", "profile_path": null}, {"credit_id": "5a357ffdc3a3680b9d1b3c77", "department": "Production", "gender": 0, "id": 1402989, "job": "Location Manager", "name": "Mihai Mitrea", "profile_path": null}, {"credit_id": "5a3577ec92514103241c6371", "department": "Costume & Make-Up", "gender": 1, "id": 1405201, "job": "Makeup Artist", "name": "Edwina Vod\u0103", "profile_path": null}, {"credit_id": "5a357dda92514103241c6b0a", "department": "Lighting", "gender": 0, "id": 1407693, "job": "Gaffer", "name": "Florin Niculae", "profile_path": null}, {"credit_id": "5a357b750e0a264cc81d7a92", "department": "Sound", "gender": 0, "id": 1436224, "job": "Dialogue Editor", "name": "Jack Gillies", "profile_path": null}, {"credit_id": "5a357478925141547203f971", "department": "Sound", "gender": 0, "id": 1446171, "job": "Original Music Composer", "name": "Benoit Jutras", "profile_path": null}, {"credit_id": "5a357ac0925141547b040e1e", "department": "Sound", "gender": 2, "id": 1450947, "job": "Supervising Sound Editor", "name": "Paul Davies", "profile_path": null}, {"credit_id": "5a35756b0e0a264cc81d71b6", "department": "Editing", "gender": 0, "id": 1465402, "job": "Editor", "name": "Annie Kocur", "profile_path": null}, {"credit_id": "5a357f50c3a36814ae042b95", "department": "Costume & Make-Up", "gender": 0, "id": 1466663, "job": "Costume Supervisor", "name": "Heather Leat", "profile_path": null}, {"credit_id": "5a357d4b0e0a264cc11c3fc9", "department": "Crew", "gender": 0, "id": 1504366, "job": "Stunt Coordinator", "name": "Tom Delmar", "profile_path": null}, {"credit_id": "5a357e3fc3a3680b8d1c84ea", "department": "Camera", "gender": 0, "id": 1571045, "job": "First Assistant Camera", "name": "Dany Racine", "profile_path": null}, {"credit_id": "5a35769992514103241c615e", "department": "Art", "gender": 0, "id": 1615076, "job": "Set Decoration", "name": "Adrian Popa", "profile_path": null}, {"credit_id": "5a357dbac3a3680b8d1c8440", "department": "Camera", "gender": 0, "id": 1635038, "job": "Key Grip", "name": "Ian Bird", "profile_path": null}, {"credit_id": "5a357a3dc3a368148f03e09d", "department": "Sound", "gender": 0, "id": 1756874, "job": "Sound Effects Editor", "name": "Anna Bertmark", "profile_path": null}, {"credit_id": "5a3580e8c3a36814b9041e1d", "department": "Writing", "gender": 0, "id": 1762485, "job": "Script Editor", "name": "Julian Stevens", "profile_path": null}, {"credit_id": "5a3579b40e0a264cd01cac2b", "department": "Art", "gender": 0, "id": 1776304, "job": "Art Department Coordinator", "name": "Dana Boghean-Melconian", "profile_path": null}, {"credit_id": "5a357c5d925141547e040333", "department": "Visual Effects", "gender": 0, "id": 1855836, "job": "Visual Effects Supervisor", "name": "Robert Bock", "profile_path": null}, {"credit_id": "5a357665925141547503fcb2", "department": "Art", "gender": 0, "id": 1942377, "job": "Set Decoration", "name": "Adi Popa", "profile_path": null}, {"credit_id": "5a35778bc3a36814ae0421e8", "department": "Costume & Make-Up", "gender": 0, "id": 1942382, "job": "Hairstylist", "name": "Jenny Lita", "profile_path": null}, {"credit_id": "5a3577b8c3a3680b8d1c7d03", "department": "Costume & Make-Up", "gender": 0, "id": 1942384, "job": "Hair Designer", "name": "Penny Smith", "profile_path": null}, {"credit_id": "5a3577c60e0a264ccd1cd606", "department": "Costume & Make-Up", "gender": 0, "id": 1942384, "job": "Makeup Designer", "name": "Penny Smith", "profile_path": null}, {"credit_id": "5a35789a925141547e03fe99", "department": "Production", "gender": 0, "id": 1942386, "job": "Production Manager", "name": "Irina Chirita", "profile_path": null}, {"credit_id": "5a3578b2c3a36814a80430bf", "department": "Directing", "gender": 0, "id": 1942387, "job": "First Assistant Director", "name": "Tatjana Jakovleva", "profile_path": null}, {"credit_id": "5a357b530e0a264cbe1c41df", "department": "Sound", "gender": 0, "id": 1942391, "job": "Boom Operator", "name": "Anick Fleury", "profile_path": null}, {"credit_id": "5a357c16925141547e0402c4", "department": "Visual Effects", "gender": 0, "id": 1942393, "job": "Special Effects Supervisor", "name": "George Tudoran", "profile_path": null}, {"credit_id": "5a357cbec3a3680b9d1b388a", "department": "Visual Effects", "gender": 0, "id": 1942394, "job": "Visual Effects Supervisor", "name": "St\u00e9phane Landry", "profile_path": null}, {"credit_id": "5a357eccc3a3680b9d1b3b38", "department": "Camera", "gender": 0, "id": 1942400, "job": "Still Photographer", "name": "Philip Volkers", "profile_path": null}, {"credit_id": "5a357fb20e0a264cbc1d18e7", "department": "Editing", "gender": 0, "id": 1942402, "job": "Assistant Editor", "name": "Julie Foster", "profile_path": null}, {"credit_id": "5a358014c3a3680b8d1c8717", "department": "Sound", "gender": 0, "id": 1942403, "job": "Orchestrator", "name": "Justin Mariner", "profile_path": null}, {"credit_id": "5a3580b492514103361cce40", "department": "Production", "gender": 0, "id": 1942404, "job": "Production Coordinator", "name": "Kate Newbold", "profile_path": null}, {"credit_id": "5a3580cc9251415478041587", "department": "Production", "gender": 0, "id": 1942405, "job": "Production Coordinator", "name": "Clarissa Newman", "profile_path": null}]}}