{"adult": false, "backdrop_path": "/uw2xM3vxVUmaiaPniufhsFIxkfZ.jpg", "belongs_to_collection": null, "budget": 0, "genres": [{"id": 10402, "name": "Music"}, {"id": 27, "name": "Horror"}], "homepage": null, "id": 366005, "imdb_id": "tt5208584", "original_language": "en", "original_title": "Lullaby", "overview": "A young girl struggles to survive the apocalypse in her own, very special way.", "popularity": 0.664, "poster_path": "/915aa3MSkVoRL9Wib10spBg2s5t.jpg", "production_companies": [{"id": 66768, "logo_path": null, "name": "BlackBox TV", "origin_country": ""}], "production_countries": [{"iso_3166_1": "US", "name": "United States of America"}], "release_date": "2015-10-30", "revenue": 0, "runtime": 7, "spoken_languages": [{"iso_639_1": "en", "name": "English"}], "status": "Released", "tagline": "A Zombie Musical", "title": "Lullaby", "video": false, "vote_average": 0.0, "vote_count": 0, "keywords": {"keywords": [{"id": 380, "name": "sibling relationship"}, {"id": 4344, "name": "musical"}, {"id": 12377, "name": "zombie"}]}, "similar": {"page": 1, "results": [{"id": 19908, "video": false, "vote_count": 7598, "vote_average": 7.2, "title": "Zombieland", "release_date": "2009-10-07", "original_language": "en", "original_title": "Zombieland", "genre_ids": [35, 27], "backdrop_path": "/lLgLFzSZduH9kBxrk6BvoHc1gg0.jpg", "adult": false, "overview": "Columbus has made a habit of running from what scares him. Tallahassee doesn't have fears. If he did, he'd kick their ever-living ass. In a world overrun by zombies, these two are perfectly evolved survivors. But now, they're about to stare down the most terrifying prospect of all: each other.", "poster_path": "/vUzzDpVrab1BOG3ogxhRGfLN94d.jpg", "popularity": 27.301}, {"adult": false, "backdrop_path": "/7GR03LqwB7ePPPhaK5BAYNzt3Vm.jpg", "genre_ids": [27, 35, 14, 10402], "id": 461928, "original_language": "en", "original_title": "Anna and the Apocalypse", "overview": "A zombie apocalypse threatens the sleepy town of Little Haven \u2013 at Christmas \u2013 forcing Anna and her friends to fight, slash and sing their way to survival, facing the undead in a desperate race to reach their loved ones. But they soon discover that no one is safe in this new world, and with civilization falling apart around them, the only people they can truly rely on are each other.", "poster_path": "/36HmDXMzeLpTPEhjEbpzI3Kv4Vk.jpg", "release_date": "2018-11-30", "title": "Anna and the Apocalypse", "video": false, "vote_average": 6.2, "vote_count": 104, "popularity": 8.874}, {"id": 8408, "video": false, "vote_count": 568, "vote_average": 7.0, "title": "Day of the Dead", "release_date": "1985-07-19", "original_language": "en", "original_title": "Day of the Dead", "genre_ids": [27, 878], "backdrop_path": "/pWaXoU1aqD2KpMVLt4E9ZmKQXIk.jpg", "adult": false, "overview": "Trapped in a missile silo, a small team of scientists, civilians and trigger-happy soldiers battle desperately to ensure the survival of the human race. However, the tension inside the base is reaching a breaking point, and the zombies are gathering outside.", "poster_path": "/yJ2emwXWwQc6VHW3fO4GZr0hXBt.jpg", "popularity": 9.762}, {"adult": false, "backdrop_path": "/eHaGbnX2kukzcYGOpNF3YLPmOG5.jpg", "genre_ids": [27, 35], "id": 16281, "original_language": "en", "original_title": "Creepshow", "overview": "Inspired by the E.C. comics of the 1950s, George A. Romero and Stephen King bring five tales of terror to the screen.", "poster_path": "/hgKeTL416BPzLZntcsD1k7mNFRN.jpg", "release_date": "1982-11-12", "title": "Creepshow", "video": false, "vote_average": 6.8, "vote_count": 458, "popularity": 13.179}, {"adult": false, "backdrop_path": "/ppDnBvf0f7vCZHRLtDjazpYHdTF.jpg", "genre_ids": [35, 10402, 10749], "id": 13368, "original_language": "en", "original_title": "White Christmas", "overview": "Two talented song-and-dance men team up after the war to become one of the hottest acts in show business. In time they befriend and become romantically involved with the beautiful Haynes sisters who comprise a sister act.", "poster_path": "/A5kBQsHKbIptxJyELEpHQJROCRj.jpg", "release_date": "1954-10-14", "title": "White Christmas", "video": false, "vote_average": 7.4, "vote_count": 250, "popularity": 10.494}, {"id": 72190, "video": false, "vote_count": 9917, "vote_average": 6.7, "title": "World War Z", "release_date": "2013-06-20", "original_language": "en", "original_title": "World War Z", "genre_ids": [28, 18, 27, 878, 53], "backdrop_path": "/xMOQVYLeIKBXenJ9KMeasj7S64y.jpg", "adult": false, "overview": "Life for former United Nations investigator Gerry Lane and his family seems content. Suddenly, the world is plagued by a mysterious infection turning whole human populations into rampaging mindless zombies. After barely escaping the chaos, Lane is persuaded to go on a mission to investigate this disease. What follows is a perilous trek around the world where Lane must brave horrific dangers and long odds to find answers before human civilization falls.", "poster_path": "/Ha5t0J21eyiq6Az1EXzx0iwsGH.jpg", "popularity": 27.681}, {"id": 10439, "video": false, "vote_count": 1297, "vote_average": 6.8, "title": "Hocus Pocus", "release_date": "1993-07-16", "original_language": "en", "original_title": "Hocus Pocus", "genre_ids": [35, 14, 27, 10751], "backdrop_path": "/2gNbeYvgUJmANhBxVZ7eo4ojeun.jpg", "adult": false, "overview": "After 300 years of slumber, three sister witches are accidentally resurrected in Salem on Halloween night, and it is up to three kids and their newfound feline friend to put an end to the witches' reign of terror once and for all.", "poster_path": "/4boIuVTbEYv9pynSj99jK5EezfA.jpg", "popularity": 15.602}, {"id": 747, "video": false, "vote_count": 5110, "vote_average": 7.5, "title": "Shaun of the Dead", "release_date": "2004-04-09", "original_language": "en", "original_title": "Shaun of the Dead", "genre_ids": [35, 27], "backdrop_path": "/50mMiR0R1QclaAODTutwXBrReLJ.jpg", "adult": false, "overview": "Shaun lives a supremely uneventful life, which revolves around his girlfriend, his mother, and, above all, his local pub. This gentle routine is threatened when the dead return to life and make strenuous attempts to snack on ordinary Londoners.", "poster_path": "/2evlcGnsfdFWLb7geNlIjIewc0Q.jpg", "popularity": 25.866}, {"id": 872, "video": false, "vote_count": 1617, "vote_average": 8.2, "title": "Singin' in the Rain", "release_date": "1952-04-10", "original_language": "en", "original_title": "Singin' in the Rain", "genre_ids": [35, 10402, 10749], "backdrop_path": "/amW1YWQvcP8slDyDp1R652aVQZ7.jpg", "adult": false, "overview": "In 1927 Hollywood, a silent film production company and cast make a difficult transition to sound.", "poster_path": "/s39odBPtyutGBnEfBIpdm0fpRwv.jpg", "popularity": 17.295}, {"adult": false, "backdrop_path": "/5RPXs9g0sZ9Woo4pNLxdXdge7tc.jpg", "genre_ids": [14, 27, 35], "id": 766, "original_language": "en", "original_title": "Army of Darkness", "overview": "A man is accidentally transported to 1300 A.D., where he must battle an army of the dead and retrieve the Necronomicon so he can return home.", "poster_path": "/2eZKDIwLNnySbwqQtAaUz0kYDIL.jpg", "release_date": "1992-10-09", "title": "Army of Darkness", "video": false, "vote_average": 7.3, "vote_count": 1664, "popularity": 18.122}, {"id": 504608, "video": false, "vote_count": 1666, "vote_average": 7.4, "title": "Rocketman", "release_date": "2019-05-22", "original_language": "en", "original_title": "Rocketman", "genre_ids": [18, 10402], "backdrop_path": "/sZZJ42GrWKxSOfcrpI2TSFQa0AQ.jpg", "adult": false, "overview": "The story of Elton John's life, from his years as a prodigy at the Royal Academy of Music through his influential and enduring musical partnership with Bernie Taupin.", "poster_path": "/f4FF18ia7yTvHf2izNrHqBmgH8U.jpg", "popularity": 27.709}, {"id": 338967, "video": false, "vote_count": 1169, "vote_average": 7.0, "title": "Zombieland: Double Tap", "release_date": "2019-10-09", "original_language": "en", "original_title": "Zombieland: Double Tap", "genre_ids": [28, 35, 27], "backdrop_path": "/3ghImmHdp4RnC3UkL6hpLayclnb.jpg", "adult": false, "overview": "Columbus, Tallahassee, Wichita, and Little Rock move to the American heartland as they face off against evolved zombies, fellow survivors, and the growing pains of the snarky makeshift family.", "poster_path": "/dtRbVsUb5O12WWO54SRpiMtHKC0.jpg", "popularity": 66.191}, {"id": 485415, "video": false, "vote_count": 277, "vote_average": 4.1, "title": "Day of the Dead: Bloodline", "release_date": "2018-01-04", "original_language": "en", "original_title": "Day of the Dead: Bloodline", "genre_ids": [28, 27], "backdrop_path": "/1CKntz5l7oblq2RYligHHvY64sh.jpg", "adult": false, "overview": "In a world overrun by zombies, military personnel and survivalists live in an underground bunker while they seek a cure.", "poster_path": "/3jM4C1wJxHLWlF4tcSyyv6fnJPR.jpg", "popularity": 14.184}, {"adult": false, "backdrop_path": "/5CPIk2eE3Nk4UPwx5HCHKDdIiJs.jpg", "genre_ids": [35, 27, 878], "id": 11429, "original_language": "en", "original_title": "Beyond Re-Animator", "overview": "Once again tampering with mother nature to disastrous results, Dr. Herbert West continues his research while serving time in a maximum security prison for his previous exploits. West's limited prison-cell experiments are suddenly interrupted by the arrival of a new prison doctor and the brother of the girl who suffered from West's experiments 13 years earlier.", "poster_path": "/7K8odajc1QUaeOtD5XvlBiWzypQ.jpg", "release_date": "2003-04-04", "title": "Beyond Re-Animator", "video": false, "vote_average": 5.5, "vote_count": 124, "popularity": 10.121}, {"adult": false, "backdrop_path": "/pAD4FAkCERB3sDprJM4f5YaKL3v.jpg", "genre_ids": [27, 35], "id": 24935, "original_language": "en", "original_title": "Return of the Living Dead: Necropolis", "overview": "A group of teenagers who, in an attempt to rescue their friend from an evil corporation, end up releasing a horde of blood thirsty zombies.", "poster_path": "/wez633rPnd9x4xObQwRHmOOM5sE.jpg", "release_date": "2005-10-15", "title": "Return of the Living Dead: Necropolis", "video": false, "vote_average": 3.6, "vote_count": 56, "popularity": 7.853}, {"id": 18126, "video": false, "vote_count": 1217, "vote_average": 6.4, "title": "Hannah Montana: The Movie", "release_date": "2009-04-10", "original_language": "en", "original_title": "Hannah Montana: The Movie", "genre_ids": [35, 18, 10402, 10749, 10751], "backdrop_path": "/ezx3NkXNqf2KnJCP6Nfj1bfCFut.jpg", "adult": false, "overview": "As Hannah Montana's popularity begins to take over her life, Miley Stewart, on the urging from her father takes a trip to her hometown of Crowley Corners, Tennessee to get some perspective on what matters in life the most.", "poster_path": "/8pwbnmvshHj2yYPYlyJ8K8Yzecy.jpg", "popularity": 12.479}, {"id": 2005, "video": false, "vote_count": 1806, "vote_average": 6.7, "title": "Sister Act", "release_date": "1992-05-28", "original_language": "en", "original_title": "Sister Act", "genre_ids": [35, 10402], "backdrop_path": "/oaLqlJxt8TJSjsdfMpSkLexZ4l5.jpg", "adult": false, "overview": "A Reno singer witnesses a mob murder and the cops stash her in a nunnery to protect her from the mob's hitmen. The mother superior does not trust her, and takes steps to limit her influence on the other nuns. Eventually the singer rescues the failing choir and begins helping with community projects, which gets her an interview on TV\u2014and identification by the mob.", "poster_path": "/7wQxLtybiUbtC6tsJh9htFEmqq3.jpg", "popularity": 16.674}, {"id": 10925, "video": false, "vote_count": 551, "vote_average": 7.3, "title": "The Return of the Living Dead", "release_date": "1985-04-25", "original_language": "en", "original_title": "The Return of the Living Dead", "genre_ids": [35, 27], "backdrop_path": "/jA34vdJCxOZUoi4khkfhq1pX3WG.jpg", "adult": false, "overview": "When a bumbling pair of employees at a medical supply warehouse accidentally release a deadly gas into the air, the vapors cause the dead to re-animate as they go on a rampage seeking their favorite food: brains!", "poster_path": "/1vydUitzC8W8W5oNevEArCltydJ.jpg", "popularity": 13.326}, {"id": 10537, "video": false, "vote_count": 603, "vote_average": 6.9, "title": "The Doors", "release_date": "1991-03-01", "original_language": "en", "original_title": "The Doors", "genre_ids": [18, 10402], "backdrop_path": "/1rv5sW6Qs2YK2iOzIgwH3SJPIl1.jpg", "adult": false, "overview": "The story of the famous and influential 1960s rock band and its lead singer and composer, Jim Morrison.", "poster_path": "/9CkFrWAkg23YynYd2uJLyWznMZZ.jpg", "popularity": 14.573}, {"id": 1562, "video": false, "vote_count": 2400, "vote_average": 6.5, "title": "28 Weeks Later", "release_date": "2007-04-26", "original_language": "en", "original_title": "28 Weeks Later", "genre_ids": [27, 878, 53], "backdrop_path": "/q4GEKbi4ZO2lhZJg0Zr6kYNKQgm.jpg", "adult": false, "overview": "The inhabitants of the British Isles have lost their battle against the onslaught of disease, as the deadly rage virus has killed every citizen there. Six months later, a group of Americans dare to set foot on the isles, convinced the danger has come and gone. But it soon becomes all too clear that the scourge continues to live, waiting to pounce on its next victims.", "poster_path": "/bElOpwpp45BGMWrMBdZAy9j3Vx7.jpg", "popularity": 23.387}], "total_pages": 254, "total_results": 5080}, "recommendations": {"page": 1, "results": [], "total_pages": 1, "total_results": 0}, "credits": {"cast": [{"cast_id": 0, "character": "Sara", "credit_id": "5633c7a99251414ab7013b2b", "gender": 0, "id": 1172695, "name": "Mary Kate Wiles", "order": 1, "profile_path": "/laHb6RARgQVVwwJbopbiP2YscYh.jpg"}, {"cast_id": 1, "character": "Katherine", "credit_id": "5633c7ddc3a3681b4b014605", "gender": 0, "id": 1529409, "name": "Monica Joy Sherer", "order": 2, "profile_path": null}], "crew": [{"credit_id": "5633c811925141284c015ac3", "department": "Directing", "gender": 0, "id": 1245641, "job": "Director", "name": "Jarrett Sleeper", "profile_path": "/fJIC7oxZ3qtMTc1pfg9LrlB21Zv.jpg"}, {"credit_id": "5633c823c3a3681b61016212", "department": "Production", "gender": 0, "id": 1529410, "job": "Producer", "name": "Zeke Thomas", "profile_path": null}, {"credit_id": "5633c83192514129fe0081cb", "department": "Production", "gender": 0, "id": 1101714, "job": "Producer", "name": "Sara Lukasiewicz", "profile_path": null}, {"credit_id": "5633c83fc3a3681b5201566e", "department": "Writing", "gender": 0, "id": 1529410, "job": "Writer", "name": "Zeke Thomas", "profile_path": null}, {"credit_id": "5633c8489251416d52007bbd", "department": "Writing", "gender": 0, "id": 1101714, "job": "Writer", "name": "Sara Lukasiewicz", "profile_path": null}, {"credit_id": "5633c8519251413b46007f06", "department": "Writing", "gender": 0, "id": 1245641, "job": "Writer", "name": "Jarrett Sleeper", "profile_path": "/fJIC7oxZ3qtMTc1pfg9LrlB21Zv.jpg"}]}}