{"adult": false, "backdrop_path": null, "belongs_to_collection": null, "budget": 0, "genres": [{"id": 18, "name": "Drama"}, {"id": 10770, "name": "TV Movie"}], "homepage": null, "id": 366045, "imdb_id": "tt3661236", "original_language": "en", "original_title": "Reluctant Witness", "overview": "After giving up her mafia husband to the police, and starting a new life in witness protection, Erin thinks she's rid of Jimmy forever. However, a mysterious stranger has her worrying Jimmy is back.", "popularity": 2.01, "poster_path": "/eVcqzFKIRTTuUqehkr5huUcbflb.jpg", "production_companies": [{"id": 80713, "logo_path": "/lWi1k3GlhQmep8cCM3XfVi0PF6K.png", "name": "Daro Film Distribution", "origin_country": ""}, {"id": 66791, "logo_path": null, "name": "Reluctant Production", "origin_country": ""}], "production_countries": [{"iso_3166_1": "CA", "name": "Canada"}], "release_date": "2015-09-02", "revenue": 0, "runtime": 120, "spoken_languages": [{"iso_639_1": "en", "name": "English"}], "status": "Released", "tagline": "", "title": "Reluctant Witness", "video": false, "vote_average": 6.0, "vote_count": 2, "keywords": {"keywords": [{"id": 187056, "name": "woman director"}]}, "similar": {"page": 1, "results": [{"adult": false, "backdrop_path": "/cADbqsIoiDW7X3Myg9nz8eAuno5.jpg", "genre_ids": [18, 10749], "id": 10818, "original_language": "fr", "original_title": "Naissance des pieuvres", "overview": "Set during a sultry summer in a French suburb, Marie is desperate to join the local pool's synchronized swimming team, but is her interest solely for the sake of sport or for a chance to get close to Floriane, the bad girl of the team? Sciamma, and the two leads, capture the uncertainty of teenage sexuality with a sympathetic eye in this delicate drama of the angst of coming-of-age.", "poster_path": "/4jajELYrR4Xmv3CVoKnukRnALa2.jpg", "release_date": "2007-05-17", "title": "Water Lilies", "video": false, "vote_average": 6.1, "vote_count": 119, "popularity": 9.614}, {"adult": false, "backdrop_path": "/gZeJziVigmRqbkEZwKAtSqlLQ6s.jpg", "genre_ids": [18, 10749], "id": 370663, "original_language": "en", "original_title": "Below Her Mouth", "overview": "An unexpected affair quickly escalates into a heart-stopping reality for two women whose passionate connection changes their lives forever.", "poster_path": "/nTGbq37hYLuNy7YgMg0gVLma0NS.jpg", "release_date": "2016-09-10", "title": "Below Her Mouth", "video": false, "vote_average": 6.2, "vote_count": 456, "popularity": 18.664}, {"adult": false, "backdrop_path": "/dvQDRfv3qvfHNnVAR57ouVsuErf.jpg", "genre_ids": [10749, 18], "id": 28031, "original_language": "en", "original_title": "If These Walls Could Talk 2", "overview": "The stories of three lesbian couples -- who live in the same house at different periods of time -- who are at a crossroads in their lives. In 1961, Edith loses her lover, Abby, to a stroke. Linda and Amy struggle with feminist issues in 1972. And, in 2000, Kal and Fran try to have a baby with the help of sperm donor.", "poster_path": "/xs7ODbmYQXCDhvXNvz5tF17T59H.jpg", "release_date": "2000-03-05", "title": "If These Walls Could Talk 2", "video": false, "vote_average": 7.1, "vote_count": 55, "popularity": 8.86}, {"adult": false, "backdrop_path": "/knczzNAjBXzSYkeWxoT1u9VNmjR.jpg", "genre_ids": [10749, 18], "id": 258480, "original_language": "en", "original_title": "Carol", "overview": "In 1950s New York, a department-store clerk who dreams of a better life falls for an older, married woman.", "poster_path": "/AbKa7ANxmui0Jmhh7gV7OSELKIL.jpg", "release_date": "2015-11-20", "title": "Carol", "video": false, "vote_average": 7.4, "vote_count": 2184, "popularity": 13.539}, {"adult": false, "backdrop_path": "/fZ8oFcREAr6wgWcXISGql0xyxjB.jpg", "genre_ids": [35, 18], "id": 39781, "original_language": "en", "original_title": "The Kids Are All Right", "overview": "Two women, Nic and Jules, brought a son and daughter into the world through artificial insemination. When one of their children reaches age, both kids go behind their mothers' backs to meet with the donor. Life becomes so much more interesting when the father, two mothers and children start to become attached to each other.", "poster_path": "/fPDeK4MmoGfi2X0oWZev7LrbMqM.jpg", "release_date": "2010-07-09", "title": "The Kids Are All Right", "video": false, "vote_average": 6.6, "vote_count": 923, "popularity": 12.159}, {"adult": false, "backdrop_path": "/rf6G51j0SZL0tP57I8gnqHTRFEr.jpg", "genre_ids": [35, 18, 10749], "id": 273153, "original_language": "fr", "original_title": "La belle saison", "overview": "In 1971, Carole and Delphine meet and fall in love in Paris. When Carole follows Delphine back to her family farm in Limousin, the two find lesbianism and feminism are not as easy in the countryside.", "poster_path": "/evvAkNMO5VJiy5qIo1Hu7fUfvVI.jpg", "release_date": "2015-08-19", "title": "Summertime", "video": false, "vote_average": 6.6, "vote_count": 162, "popularity": 11.575}, {"adult": false, "backdrop_path": "/s12HEmmkJfI2mjltI61hGm5kubD.jpg", "genre_ids": [35, 18, 10749], "id": 20770, "original_language": "en", "original_title": "But I'm a Cheerleader", "overview": "Megan is an all-American girl. A cheerleader. She has a boyfriend. But Megan doesn't like kissing her boyfriend very much. And she's pretty touchy with her cheerleader friends. Her conservative parents worry that she must be a lesbian and send her off to \"sexual redirection\" school, where she must, with other lesbians and gays learn how to be straight.", "poster_path": "/eDGH7CHSdkrYcuUJV1e0WS9DlQL.jpg", "release_date": "1999-12-09", "title": "But I'm a Cheerleader", "video": false, "vote_average": 6.8, "vote_count": 246, "popularity": 9.011}, {"id": 9813, "video": false, "vote_count": 128, "vote_average": 6.1, "title": "The Quiet", "release_date": "2005-09-12", "original_language": "en", "original_title": "The Quiet", "genre_ids": [18, 53], "backdrop_path": "/6eyWAZA4CEidZW1xXnQ4vlYBXTP.jpg", "adult": false, "overview": "After her widowed father dies, deaf teenager Dot moves in with her godparents, Olivia and Paul Deer. The Deers' daughter, Nina, is openly hostile to Dot, but that does not prevent her from telling her secrets to her silent stepsister, including the fact that she wants to kill her lecherous father.", "poster_path": "/GEqIE9YlmygHVUfS64LW2cwAAM.jpg", "popularity": 14.844}, {"adult": false, "backdrop_path": "/tzqeuHWMFihFbiLGHdalPgAcSf6.jpg", "genre_ids": [18, 10749], "id": 18620, "original_language": "en", "original_title": "Go Fish", "overview": "Max is a trendy, pretty, young lesbian, who is having trouble finding love. A friend sets her up with Ely, whom Max likes, but Ely is frumpy, homely, and older. Nor do they have much in common. Can Max learn to look past the packaging?", "poster_path": "/qrEFYrwykaGsY8NULYuYLLI7zrM.jpg", "release_date": "1994-06-10", "title": "Go Fish", "video": false, "vote_average": 5.0, "vote_count": 11, "popularity": 3.676}, {"adult": false, "backdrop_path": "/6tern9vOEwwmkDYC1vRCuO64z0C.jpg", "genre_ids": [10749, 18], "id": 475888, "original_language": "en", "original_title": "Tell It to the Bees", "overview": "Dr. Jean Markham returns to the town she left as a teenager to take over her late father's medical practice. When a school-yard scuffle lands Charlie in her surgery, she invites him to visit the hives in her garden and tell his secrets to the bees, as she once did. The new friendship between the boy and the bee keeper brings his mother Lydia into Jean's world.", "poster_path": "/Rj6zpHhMU1zFW3v28U4PSRSRgP.jpg", "release_date": "2019-05-03", "title": "Tell It to the Bees", "video": false, "vote_average": 6.4, "vote_count": 53, "popularity": 13.175}, {"adult": false, "backdrop_path": "/baYbbMtKRDoDWYJeVWkbygAvAj8.jpg", "genre_ids": [18, 10749], "id": 31216, "original_language": "en", "original_title": "I Can't Think Straight", "overview": "I CAN'T THINK STRAIGHT is a 2007 romance movie about a London-based Jordanian of Palestinian descent, Tala, who is preparing for an elaborate wedding. A turn of events causes her to have an affair and subsequently fall in love with another woman, Leyla, a British Indian.", "poster_path": "/1kapga6rkM5wNuQBYw7sdE42CrA.jpg", "release_date": "2008-06-01", "title": "I Can't Think Straight", "video": false, "vote_average": 7.6, "vote_count": 109, "popularity": 7.815}, {"adult": false, "backdrop_path": "/lI5h8KaoeObu4NMTwzeRuUHzRwD.jpg", "genre_ids": [18, 9648, 53], "id": 401898, "original_language": "no", "original_title": "Thelma", "overview": "A college student starts to experience extreme seizures. She soon learns that the violent episodes are a symptom of inexplicable abilities.", "poster_path": "/yzSfG8TLAqw7nMQh2lxirQkQpgs.jpg", "release_date": "2017-09-15", "title": "Thelma", "video": false, "vote_average": 7.1, "vote_count": 418, "popularity": 13.105}, {"adult": false, "backdrop_path": "/tIFRPjIXQ3sYrmxbIeOu9K1JkUz.jpg", "genre_ids": [18, 10749], "id": 294, "original_language": "en", "original_title": "Desert Hearts", "overview": "The story of straight-edge literature professor Vivian who travels to Reno to get away from a relationship breakup when she falls in love with an attractive and unconventional girl named Cay.", "poster_path": "/b8JSmQSpYYJhctMtxNgqh0elENg.jpg", "release_date": "1985-10-01", "title": "Desert Hearts", "video": false, "vote_average": 7.3, "vote_count": 58, "popularity": 6.976}, {"id": 2255, "video": false, "vote_count": 772, "vote_average": 6.8, "title": "Chasing Amy", "release_date": "1997-04-04", "original_language": "en", "original_title": "Chasing Amy", "genre_ids": [35, 18, 10749], "backdrop_path": "/doKYVK61Vb8J1KUjlb9dNWkQNp6.jpg", "adult": false, "overview": "Holden and Banky are comic book artists. Everything is going good for them until they meet Alyssa, also a comic book artist. Holden falls for her, but his hopes are crushed when he finds out she's a lesbian.", "poster_path": "/4vFJileWrCGaBeobCmF0tXpQCUb.jpg", "popularity": 13.95}, {"adult": false, "backdrop_path": "/hD8DQM72Xacg1d3mFqS0eN8vKYw.jpg", "genre_ids": [18], "id": 8272, "original_language": "en", "original_title": "The Savages", "overview": "A sister and brother face the realities of familial responsibility as they begin to care for their ailing father.", "poster_path": "/nY54gSmTOmSXlQpWDB7DWp4u8a7.jpg", "release_date": "2007-01-19", "title": "The Savages", "video": false, "vote_average": 6.9, "vote_count": 192, "popularity": 9.466}, {"adult": false, "backdrop_path": "/g3LYarEY9LjB28Ct2trwFN72gqZ.jpg", "genre_ids": [35], "id": 437557, "original_language": "en", "original_title": "Blockers", "overview": "When three parents discover their daughters\u2019 pact to lose their virginity at prom, they launch a covert one-night operation to stop the teens from sealing the deal.", "poster_path": "/uvlUQXg0AlpGzKukO11K7QtW3Yu.jpg", "release_date": "2018-03-14", "title": "Blockers", "video": false, "vote_average": 6.2, "vote_count": 1155, "popularity": 17.886}, {"adult": false, "backdrop_path": "/zBB1mzmqnUuSrlTuf0SFFlI1EoJ.jpg", "genre_ids": [18], "id": 244772, "original_language": "en", "original_title": "The Skeleton Twins", "overview": "Estranged twins Maggie and Milo coincidentally cheat death on the same day, prompting them to reunite and confront the reasons their lives went so wrong. As the twins' reunion reinvigorates them, they realize the key to fixing their lives may just lie in repairing their relationship.", "poster_path": "/vvmv1R2jDXJeeeyYcGg0ypXc2XK.jpg", "release_date": "2014-09-12", "title": "The Skeleton Twins", "video": false, "vote_average": 6.7, "vote_count": 416, "popularity": 10.481}, {"adult": false, "backdrop_path": "/3YGy88nTV2e0wxZcKI1goiEN9oy.jpg", "genre_ids": [18, 10749], "id": 37636, "original_language": "en", "original_title": "High Art", "overview": "A young female intern at a small magazine company becomes involved with a drug-addicted lesbian photographer, both of whom seek to exploit each other for their respective careers, while slowly falling in love with each other.", "poster_path": "/qTg05RNJIvb9w4Z7XIcAZxuZmTn.jpg", "release_date": "1998-06-12", "title": "High Art", "video": false, "vote_average": 6.6, "vote_count": 61, "popularity": 7.422}, {"adult": false, "backdrop_path": "/caLMOD3ZJ3V7qjlxDXrzlJfBLgD.jpg", "genre_ids": [18, 10749], "id": 20, "original_language": "en", "original_title": "My Life Without Me", "overview": "A Pedro Almodovar production in which a fatally ill mother with only two months to live creates a list of things she wants to do before she dies with out telling her family of her illness.", "poster_path": "/vVj92VBFUBzjqzLvBiPVVlJDp78.jpg", "release_date": "2003-03-07", "title": "My Life Without Me", "video": false, "vote_average": 6.1, "vote_count": 220, "popularity": 10.382}, {"id": 434714, "video": false, "vote_count": 32, "vote_average": 7.5, "title": "My Days of Mercy", "release_date": "2019-07-11", "original_language": "en", "original_title": "My Days of Mercy", "genre_ids": [18, 10749], "backdrop_path": "/7Lbzq33nMMIQtAfZAmSqG6ibLSg.jpg", "adult": false, "overview": "The daughter of a man on death row falls in love with a woman on the opposing side of her family's political cause.", "poster_path": "/adIPKAoKnKL9vCTkvfF4J9ZA7Ln.jpg", "popularity": 9.342}], "total_pages": 1446, "total_results": 28909}, "recommendations": {"page": 1, "results": [], "total_pages": 1, "total_results": 0}, "credits": {"cast": [{"cast_id": 0, "character": "Erin Villenueve", "credit_id": "563431dc9251414ab701476a", "gender": 1, "id": 18658, "name": "Mia Kirshner", "order": 1, "profile_path": "/n8XXrUi2PEdY6MiEaTQD0fgavsW.jpg"}, {"cast_id": 1, "character": "Warren Cooper", "credit_id": "563431f79251414ab701476d", "gender": 2, "id": 26069, "name": "Paul McGillion", "order": 2, "profile_path": "/n6S66CIpNqThe6eugr94WZBbI6u.jpg"}, {"cast_id": 2, "character": "Becky", "credit_id": "563432129251413b46008af7", "gender": 1, "id": 1463652, "name": "Madeleine Arthur", "order": 3, "profile_path": "/64sP5bqPD1hBZ0eCf6XPHFAynZa.jpg"}, {"cast_id": 3, "character": "Jimmy Collins", "credit_id": "5634322ec3a3681b61016fbc", "gender": 2, "id": 58374, "name": "James Kirk", "order": 4, "profile_path": "/bDzPdaj5sWVyj7ROv1M0h9UEpu1.jpg"}, {"cast_id": 4, "character": "Levon Villenueve", "credit_id": "56343249c3a3681b4d0186ff", "gender": 2, "id": 7039, "name": "Bruce Ramsay", "order": 5, "profile_path": "/o1x3V0eLGQW5B78etUuTIxvcvrH.jpg"}, {"cast_id": 5, "character": "Agent Troy Rolands", "credit_id": "56343264c3a3681b5201633b", "gender": 2, "id": 12055, "name": "John Cassini", "order": 6, "profile_path": "/izBERhT4aN3PHwfeW1MNdytO800.jpg"}, {"cast_id": 9, "character": "Officer Marina Delgado", "credit_id": "593a38e59251411ef8008629", "gender": 1, "id": 74361, "name": "Venus Terzo", "order": 7, "profile_path": "/9f6xIHqI2L1G9meu51OQ2x8pqnB.jpg"}, {"cast_id": 10, "character": "Katrin Villenueve", "credit_id": "593a39b09251411f1b008498", "gender": 1, "id": 1475081, "name": "Jenn MacLean-Angus", "order": 8, "profile_path": "/shodaUibRq4SCfJS0OFMa7nLCzI.jpg"}, {"cast_id": 11, "character": "Dr. Warner", "credit_id": "593a3a61c3a3682312007fd1", "gender": 1, "id": 62716, "name": "B.J. Harrison", "order": 9, "profile_path": "/wKQzk78i0nCdSASDFwma0z1tZsv.jpg"}, {"cast_id": 12, "character": "Joe Richmond", "credit_id": "593a3abcc3a3682344007930", "gender": 2, "id": 25009, "name": "Raul Inglis", "order": 10, "profile_path": "/94nUyD6YfgoAYbe1yauEQ6TMv4E.jpg"}, {"cast_id": 13, "character": "Young Becky", "credit_id": "593a3b14c3a368235b0083e6", "gender": 0, "id": 1830741, "name": "Peighton Brown", "order": 11, "profile_path": null}, {"cast_id": 14, "character": "Housekeeper", "credit_id": "593a3b5ec3a36823710086a0", "gender": 1, "id": 1368533, "name": "Yvette Dudley-Neuman", "order": 12, "profile_path": "/tKqbHuVL3LoJIR2BrwHeL6U1bct.jpg"}], "crew": [{"credit_id": "593a3c179251411eff008cca", "department": "Production", "gender": 2, "id": 63778, "job": "Producer", "name": "Kirk Shaw", "profile_path": null}, {"credit_id": "593a4311c3a3682305009013", "department": "Crew", "gender": 2, "id": 84228, "job": "Stunt Coordinator", "name": "Hugo Steele", "profile_path": null}, {"credit_id": "593a4626c3a3682371008e48", "department": "Crew", "gender": 0, "id": 90410, "job": "Armorer", "name": "Jon Funk", "profile_path": null}, {"credit_id": "593a3dddc3a368235b008610", "department": "Production", "gender": 1, "id": 551521, "job": "Casting", "name": "Shana Landsburg", "profile_path": null}, {"credit_id": "593a3d3d9251411eff008d9b", "department": "Editing", "gender": 2, "id": 563696, "job": "Editor", "name": "Mark Shearer", "profile_path": null}, {"credit_id": "593a3c639251411eff008cf5", "department": "Sound", "gender": 0, "id": 1105186, "job": "Original Music Composer", "name": "Paul Michael Thomas", "profile_path": null}, {"credit_id": "568129f0c3a3684be3010bb0", "department": "Directing", "gender": 1, "id": 1224778, "job": "Director", "name": "Monika Mitchell", "profile_path": null}, {"credit_id": "593a3fb09251411eff008f87", "department": "Costume & Make-Up", "gender": 1, "id": 1305455, "job": "Costume Design", "name": "Claudia Da Ponte", "profile_path": null}, {"credit_id": "593a425f9251411eff009177", "department": "Visual Effects", "gender": 1, "id": 1323787, "job": "Visual Effects Supervisor", "name": "Helen Tzoutis", "profile_path": null}, {"credit_id": "593a3eb39251411ef3008ce5", "department": "Art", "gender": 0, "id": 1328753, "job": "Production Design", "name": "Jacqueline Miller", "profile_path": null}, {"credit_id": "56343295c3a3681b5c01688c", "department": "Writing", "gender": 0, "id": 1382417, "job": "Writer", "name": "Roslyn Muir", "profile_path": null}, {"credit_id": "593a44b2c3a3682371008d41", "department": "Camera", "gender": 0, "id": 1400407, "job": "Still Photographer", "name": "Chris Helcermanas-Benge", "profile_path": null}, {"credit_id": "593a45aa9251411eed009135", "department": "Directing", "gender": 0, "id": 1411729, "job": "Script Supervisor", "name": "Suze Dunbar", "profile_path": null}, {"credit_id": "593a3d929251411f1b008739", "department": "Production", "gender": 1, "id": 1462300, "job": "Casting", "name": "Kara Eide", "profile_path": null}, {"credit_id": "593a3e3a9251411ef8008a18", "department": "Production", "gender": 0, "id": 1496825, "job": "Casting", "name": "Kris Woznesensky", "profile_path": null}, {"credit_id": "593a3cfe9251411f04008c2e", "department": "Editing", "gender": 1, "id": 1506787, "job": "Editor", "name": "Mauri Bernstein", "profile_path": "/8E3ReyTv6nt0PoaWoF1iOBvybJX.jpg"}, {"credit_id": "593a3fed9251411f250089f5", "department": "Costume & Make-Up", "gender": 0, "id": 1514185, "job": "Key Makeup Artist", "name": "Kathy Howatt", "profile_path": null}, {"credit_id": "593a3f5ec3a3682344007c2d", "department": "Art", "gender": 0, "id": 1514574, "job": "Set Decoration", "name": "Harry Brar", "profile_path": null}, {"credit_id": "593a4028c3a36823120083d3", "department": "Costume & Make-Up", "gender": 0, "id": 1515096, "job": "Key Hair Stylist", "name": "Deja Marie Iannone", "profile_path": null}, {"credit_id": "593a4173c3a3682305008ee6", "department": "Sound", "gender": 0, "id": 1519461, "job": "Sound Effects Editor", "name": "Craig George", "profile_path": null}, {"credit_id": "593a3cb89251411eff008d30", "department": "Camera", "gender": 0, "id": 1590696, "job": "Director of Photography", "name": "Lindsay George", "profile_path": null}, {"credit_id": "593a3f1ec3a36822d200866f", "department": "Art", "gender": 0, "id": 1830742, "job": "Art Direction", "name": "Kayla Mackey", "profile_path": null}, {"credit_id": "593a4062c3a3682312008408", "department": "Directing", "gender": 2, "id": 1830744, "job": "First Assistant Director", "name": "Ken Shane", "profile_path": null}, {"credit_id": "593a40f29251411ee9008e71", "department": "Art", "gender": 0, "id": 1830745, "job": "Property Master", "name": "Clint Novak", "profile_path": null}, {"credit_id": "593a4355c3a36822d2008939", "department": "Camera", "gender": 0, "id": 1830746, "job": "Camera Operator", "name": "Greg Coletti", "profile_path": null}, {"credit_id": "593a445bc3a36822d20089fa", "department": "Camera", "gender": 2, "id": 1830747, "job": "Camera Operator", "name": "Christopher C. Fisher", "profile_path": null}, {"credit_id": "593a447a9251411ef3009123", "department": "Camera", "gender": 2, "id": 1830747, "job": "Steadicam Operator", "name": "Christopher C. Fisher", "profile_path": null}, {"credit_id": "593a450d9251411ee9009160", "department": "Costume & Make-Up", "gender": 0, "id": 1830750, "job": "Costume Supervisor", "name": "Nicolle Hanbury", "profile_path": null}, {"credit_id": "593a45e9c3a3682305009281", "department": "Production", "gender": 0, "id": 1830752, "job": "Production Coordinator", "name": "Amanda Verhagen", "profile_path": null}]}}