{"adult": false, "backdrop_path": null, "belongs_to_collection": null, "budget": 0, "genres": [{"id": 35, "name": "Comedy"}, {"id": 27, "name": "Horror"}], "homepage": null, "id": 368663, "imdb_id": "tt1598169", "original_language": "en", "original_title": "Krackoon", "overview": "An innocent raccoon becomes a distorted bloodthirsty creature after an unfortunate cocaine ingestion incident.", "popularity": 0.6, "poster_path": null, "production_companies": [{"id": 67893, "logo_path": "/5cSbDB9i9IdZuzzqmjxkycn4sRz.png", "name": "Amuck Duck", "origin_country": "US"}], "production_countries": [{"iso_3166_1": "US", "name": "United States of America"}], "release_date": "2010-11-14", "revenue": 0, "runtime": 65, "spoken_languages": [], "status": "Released", "tagline": "", "title": "Krackoon", "video": false, "vote_average": 0.0, "vote_count": 0, "keywords": {"keywords": [{"id": 3149, "name": "gangster"}, {"id": 11338, "name": "wild animal"}, {"id": 173861, "name": "deformed"}, {"id": 186718, "name": "corrupt official"}]}, "similar": {"page": 1, "results": [{"adult": false, "backdrop_path": "/g1BfxcnplYEveGqS1ttfhdRBgbR.jpg", "genre_ids": [35, 53, 80], "id": 8012, "original_language": "en", "original_title": "Get Shorty", "overview": "Chili Palmer is a Miami mobster who gets sent by his boss, the psychopathic \"Bones\" Barboni, to collect a bad debt from Harry Zimm, a Hollywood producer who specializes in cheesy horror films. When Chili meets Harry's leading lady, the romantic sparks fly. After pitching his own life story as a movie idea, Chili learns that being a mobster and being a Hollywood producer really aren't all that different.", "poster_path": "/vWtDUUgQAsVyvRW4mE75LBgVm2e.jpg", "release_date": "1995-10-20", "title": "Get Shorty", "video": false, "vote_average": 6.5, "vote_count": 543, "popularity": 12.726}, {"id": 2069, "video": false, "vote_count": 1024, "vote_average": 6.4, "title": "The Whole Nine Yards", "release_date": "2000-02-18", "original_language": "en", "original_title": "The Whole Nine Yards", "genre_ids": [35, 80], "backdrop_path": "/vFvI2DPGV4TjYnsvkJtePas7wgz.jpg", "adult": false, "overview": "After a mobster agrees to cooperate with an FBI investigation in order to stay out of prison, he's relocated by the authorities to a life of suburban anonymity as part of a witness protection program. It's not long before a couple of his new neighbours figure out his true identity and come knocking to see if he'd be up for one more hit\u2014suburban style.", "poster_path": "/rnXnZrKipVb8v4mS2Oo6Ga2O0fg.jpg", "popularity": 22.041}, {"id": 156022, "video": false, "vote_count": 5468, "vote_average": 7.2, "title": "The Equalizer", "release_date": "2014-09-24", "original_language": "en", "original_title": "The Equalizer", "genre_ids": [28, 80, 53], "backdrop_path": "/vbl4ZVqelrrzJ16fdDOq9siWbpi.jpg", "adult": false, "overview": "McCall believes he has put his mysterious past behind him and dedicated himself to beginning a new, quiet life. But when he meets Teri, a young girl under the control of ultra-violent Russian gangsters, he can\u2019t stand idly by \u2013 he has to help her. Armed with hidden skills that allow him to serve vengeance against anyone who would brutalize the helpless, McCall comes out of his self-imposed retirement and finds his desire for justice reawakened. If someone has a problem, if the odds are stacked against them, if they have nowhere else to turn, McCall will help. He is The Equalizer.", "poster_path": "/2eQfjqlvPAxd9aLDs8DvsKLnfed.jpg", "popularity": 39.578}, {"id": 154400, "video": false, "vote_count": 1342, "vote_average": 6.7, "title": "The Drop", "release_date": "2014-09-12", "original_language": "en", "original_title": "The Drop", "genre_ids": [80, 18], "backdrop_path": "/lI7TD9Z9TsASnc3GxkLbBBpXCac.jpg", "adult": false, "overview": "Bob Saginowski finds himself at the center of a robbery gone awry and entwined in an investigation that digs deep into the neighborhood's past where friends, families, and foes all work together to make a living - no matter the cost.", "poster_path": "/lj8AMCjWx0jU93XajzUEOUUNKZF.jpg", "popularity": 24.66}, {"adult": false, "backdrop_path": "/sw7mordbZxgITU877yTpZCud90M.jpg", "genre_ids": [18, 80], "id": 769, "original_language": "en", "original_title": "GoodFellas", "overview": "The true story of Henry Hill, a half-Irish, half-Sicilian Brooklyn kid who is adopted by neighbourhood gangsters at an early age and climbs the ranks of a Mafia family under the guidance of Jimmy Conway.", "poster_path": "/pwpGfTImTGifEGgLb3s6LRPd4I6.jpg", "release_date": "1990-09-12", "title": "GoodFellas", "video": false, "vote_average": 8.4, "vote_count": 6559, "popularity": 36.135}, {"id": 9470, "video": false, "vote_count": 1392, "vote_average": 7.3, "title": "Kung Fu Hustle", "release_date": "2004-02-10", "original_language": "cn", "original_title": "\u529f\u592b", "genre_ids": [28, 35, 80, 14], "backdrop_path": "/qpJWj6MI6VLRt9bGbJVZtmFvqWw.jpg", "adult": false, "overview": "Set in Canton, China in the 1940s, the story revolves in a town ruled by the Axe Gang, Sing who desperately wants to become a member. He stumbles into a slum ruled by eccentric landlords who turns out to be the greatest kung-fu masters in disguise. Sing's actions eventually cause the Axe Gang and the slumlords to engage in an explosive kung-fu battle. Only one side will win and only one hero will emerge as the greatest kung-fu master of all.", "poster_path": "/dZsfDrNLGWgsIUQL1vGhl8tbnqY.jpg", "popularity": 17.654}, {"adult": false, "backdrop_path": "/v761yOHKO3p6Yr7LDCjud6tUL5G.jpg", "genre_ids": [28, 80, 53], "id": 10651, "original_language": "en", "original_title": "The Dead Pool", "overview": "Dirty Harry Callahan returns for his final film adventure. Together with his partner Al Quan, he must investigate the systematic murder of actors and musicians. By the time Harry learns that the murders are a part of a sick game to predict the deaths of celebrities before they happen, it may be too late...", "poster_path": "/9ZUSqox9lIxN4xaYBac2QXMFcZj.jpg", "release_date": "1988-07-12", "title": "The Dead Pool", "video": false, "vote_average": 6.4, "vote_count": 389, "popularity": 10.626}, {"adult": false, "backdrop_path": "/8nvayG5l0urcjvvpszoECDqLWzD.jpg", "genre_ids": [18, 53, 80, 9648], "id": 186, "original_language": "en", "original_title": "Lucky Number Slevin", "overview": "Slevin is mistakenly put in the middle of a personal war between the city\u2019s biggest criminal bosses. Under constant watch, Slevin must try not to get killed by an infamous assassin and come up with an idea of how to get out of his current dilemma. A film with many twists and turns.", "poster_path": "/jtKq0EtothAzWlnRBBWGCA8uFuu.jpg", "release_date": "2006-02-24", "title": "Lucky Number Slevin", "video": false, "vote_average": 7.5, "vote_count": 2480, "popularity": 14.28}, {"adult": false, "backdrop_path": "/rSf0RYkPiMo9TyjHs2vI8rHlmfF.jpg", "genre_ids": [28, 18, 53], "id": 241554, "original_language": "en", "original_title": "Run All Night", "overview": "Brooklyn mobster and prolific hit man Jimmy Conlon has seen better days. Longtime best friend of a mob boss, Jimmy is haunted by the sins of his past\u2014as well as a dogged police detective who\u2019s been one step behind Jimmy for 30 years. But when Jimmy\u2019s estranged son becomes a target, Jimmy must make a choice between the crime family he chose and the real family he abandoned long ago. Now, with nowhere safe to turn, Jimmy has just one night to figure out exactly where his loyalties lie and to see if he can finally make things right.", "poster_path": "/aqNJrAxudMRNo8jg3HOUQqdl2xr.jpg", "release_date": "2015-03-11", "title": "Run All Night", "video": false, "vote_average": 6.4, "vote_count": 1821, "popularity": 23.621}, {"id": 311, "video": false, "vote_count": 2595, "vote_average": 8.4, "title": "Once Upon a Time in America", "release_date": "1984-05-23", "original_language": "en", "original_title": "Once Upon a Time in America", "genre_ids": [80, 18], "backdrop_path": "/vnT6HzjLSDrAweHn9xWykb8Ii6T.jpg", "adult": false, "overview": "A former Prohibition-era Jewish gangster returns to the Lower East Side of Manhattan over thirty years later, where he once again must confront the ghosts and regrets of his old life.", "poster_path": "/x733R4ISI0RbKeHhVkXdTMFmTFr.jpg", "popularity": 22.233}, {"id": 245891, "video": false, "vote_count": 11535, "vote_average": 7.2, "title": "John Wick", "release_date": "2014-10-22", "original_language": "en", "original_title": "John Wick", "genre_ids": [28, 53], "backdrop_path": "/iJlGxN0p1suzloBGvvBu3QSSlhT.jpg", "adult": false, "overview": "Ex-hitman John Wick comes out of retirement to track down the gangsters that took everything from him.", "poster_path": "/5vHssUeVe25bMrof1HyaPyWgaP.jpg", "popularity": 63.785}, {"adult": false, "backdrop_path": "/2f8fkWSWOVcTlWforoVpsuaCiwI.jpg", "genre_ids": [53, 28], "id": 449985, "original_language": "en", "original_title": "Triple Threat", "overview": "A crime syndicate places a hit on a billionaire's daughter, making her the target of an elite assassin squad. A small band of down-and-out mercenaries protects her, fighting tooth and nail to stop the assassins from reaching their target.", "poster_path": "/cSpM3QxmoSLp4O1WAMQpUDcaB7R.jpg", "release_date": "2019-03-19", "title": "Triple Threat", "video": false, "vote_average": 5.5, "vote_count": 146, "popularity": 14.986}, {"adult": false, "backdrop_path": "/51fjuzYoJKvGW43j32nBpWW6Tm1.jpg", "genre_ids": [28, 80, 18, 53], "id": 111, "original_language": "en", "original_title": "Scarface", "overview": "After getting a green card in exchange for assassinating a Cuban government official, Tony Montana stakes a claim on the drug trade in Miami. Viciously murdering anyone who stands in his way, Tony eventually becomes the biggest drug lord in the state, controlling nearly all the cocaine that comes through Miami. But increased pressure from the police, wars with Colombian drug cartels and his own drug-fueled paranoia serve to fuel the flames of his eventual downfall.", "poster_path": "/zr2p353wrd6j3wjLgDT4TcaestB.jpg", "release_date": "1983-12-08", "title": "Scarface", "video": false, "vote_average": 8.1, "vote_count": 6147, "popularity": 29.172}, {"adult": false, "backdrop_path": "/6xKCYgH16UuwEGAyroLU6p8HLIn.jpg", "genre_ids": [18, 80], "id": 238, "original_language": "en", "original_title": "The Godfather", "overview": "Spanning the years 1945 to 1955, a chronicle of the fictional Italian-American Corleone crime family. When organized crime family patriarch, Vito Corleone barely survives an attempt on his life, his youngest son, Michael steps in to take care of the would-be killers, launching a campaign of bloody revenge.", "poster_path": "/rPdtLWNsZmAtoZl9PK7S2wE3qiS.jpg", "release_date": "1972-03-14", "title": "The Godfather", "video": false, "vote_average": 8.6, "vote_count": 11276, "popularity": 47.035}, {"id": 1422, "video": false, "vote_count": 8816, "vote_average": 8.1, "title": "The Departed", "release_date": "2006-10-05", "original_language": "en", "original_title": "The Departed", "genre_ids": [80, 18, 53], "backdrop_path": "/8Od5zV7Q7zNOX0y9tyNgpTmoiGA.jpg", "adult": false, "overview": "To take down South Boston's Irish Mafia, the police send in one of their own to infiltrate the underworld, not realizing the syndicate has done likewise. While an undercover cop curries favor with the mob kingpin, a career criminal rises through the police ranks. But both sides soon discover there's a mole among them.", "poster_path": "/tGLO9zw5ZtCeyyEWgbYGgsFxC6i.jpg", "popularity": 25.529}, {"id": 398978, "video": false, "vote_count": 2192, "vote_average": 7.8, "title": "The Irishman", "release_date": "2019-11-01", "original_language": "en", "original_title": "The Irishman", "genre_ids": [80, 18, 36], "backdrop_path": "/iLLDiO4dbUfFEnRug8DuvFEl1NB.jpg", "adult": false, "overview": "Pennsylvania, 1956. Frank Sheeran, a war veteran of Irish origin who works as a truck driver, accidentally meets mobster Russell Bufalino. Once Frank becomes his trusted man, Bufalino sends him to Chicago with the task of helping Jimmy Hoffa, a powerful union leader related to organized crime, with whom Frank will maintain a close friendship for nearly twenty years.", "poster_path": "/mbm8k3GFhXS0ROd9AD1gqYbIFbM.jpg", "popularity": 71.608}, {"id": 64689, "video": false, "vote_count": 1221, "vote_average": 6.0, "title": "Killing Them Softly", "release_date": "2012-07-30", "original_language": "en", "original_title": "Killing Them Softly", "genre_ids": [80, 53], "backdrop_path": "/jikIWGfMFq8YxYziXVFyqBI7e3o.jpg", "adult": false, "overview": "Jackie Cogan is an enforcer hired to restore order after three dumb guys rob a Mob protected card game, causing the local criminal economy to collapse.", "poster_path": "/b0BcZFItcgVdwJo0m2TgRDoOeu6.jpg", "popularity": 14.479}, {"id": 339103, "video": false, "vote_count": 327, "vote_average": 5.3, "title": "Gotti", "release_date": "2018-06-14", "original_language": "en", "original_title": "Gotti", "genre_ids": [80, 18, 36, 53], "backdrop_path": "/yp6JNRU4PQEeWAVbTKG2E8pYGiP.jpg", "adult": false, "overview": "John Gotti rises to the top of the New York underworld to become the boss of the Gambino crime family. His life takes a tumultuous turn as he faces tragedy, multiple trials and a prison sentence.", "poster_path": "/cUCX6B0FGTsHC5D8L2CF0gJrQCm.jpg", "popularity": 13.921}, {"adult": false, "backdrop_path": "/dBXAUuh4lJSsZTjOswIa5q3xFBi.jpg", "genre_ids": [80, 28, 35, 18], "id": 25074, "original_language": "cn", "original_title": "\u5947\u8e5f", "overview": "A country boy becomes the head of a gang through the purchase of some lucky roses from an old lady. He and a singer at the gang's nightclub try to do a good deed for the old lady when her daughter comes to visit.", "poster_path": "/7249iDDj0Vpi5TGTIojO76eMl9E.jpg", "release_date": "1989-06-15", "title": "Miracles", "video": false, "vote_average": 6.9, "vote_count": 63, "popularity": 10.958}, {"adult": false, "backdrop_path": "/fop31RWFi9sVL0xK5hAJGh7Fwkz.jpg", "genre_ids": [18, 80], "id": 261023, "original_language": "en", "original_title": "Black Mass", "overview": "The true story of Whitey Bulger, the brother of a state senator and the most infamous violent criminal in the history of South Boston, who became an FBI informant to take down a Mafia family invading his turf.", "poster_path": "/nSbpuyd2UySuW7kaoXzYUfes1Bl.jpg", "release_date": "2015-09-04", "title": "Black Mass", "video": false, "vote_average": 6.4, "vote_count": 2192, "popularity": 16.347}], "total_pages": 78, "total_results": 1559}, "recommendations": {"page": 1, "results": [], "total_pages": 1, "total_results": 0}, "credits": {"cast": [{"cast_id": 2, "character": "Peter Rabbit", "credit_id": "5647ea94c3a3682611005726", "gender": 0, "id": 1536281, "name": "Sal Amore", "order": 1, "profile_path": null}], "crew": [{"credit_id": "5647ea35c3a3682608005900", "department": "Directing", "gender": 0, "id": 1536280, "job": "Director", "name": "Jerry Landi", "profile_path": null}, {"credit_id": "5647ea439251413ae1005570", "department": "Writing", "gender": 0, "id": 1536280, "job": "Writer", "name": "Jerry Landi", "profile_path": null}, {"credit_id": "5b591fcb0e0a2611f900285b", "department": "Production", "gender": 2, "id": 2092428, "job": "Producer", "name": "Anthony DeBellis", "profile_path": null}, {"credit_id": "5b59204bc3a36801ec002f9e", "department": "Camera", "gender": 2, "id": 2092428, "job": "Director of Photography", "name": "Anthony DeBellis", "profile_path": null}]}}