{"adult": false, "backdrop_path": "/anlnwNJmxwknF87iZExnh0hjFme.jpg", "belongs_to_collection": {"id": 190135, "name": "Love Hina Collection", "poster_path": "/U80lKUQt80eQPwOpKoHKcNHbpj.jpg", "backdrop_path": "/4JAfHEwcc2FlOmACQ7Xc9OPv5fV.jpg"}, "budget": 0, "genres": [{"id": 16, "name": "Animation"}, {"id": 35, "name": "Comedy"}, {"id": 10749, "name": "Romance"}], "homepage": "http://www.tv-tokyo.co.jp/anime/lovehina/", "id": 37047, "imdb_id": "tt0414243", "original_language": "ja", "original_title": "\u30e9\u30d6\u3072\u306a \u30af\u30ea\u30b9\u30de\u30b9\u30b9\u30da\u30b7\u30e3\u30eb \uff5e\u30b5\u30a4\u30ec\u30f3\u30c8\u30fb\u30a4\u30f4\uff5e", "overview": "As another round of preliminary tests approach for Keitaro, so does Christmas. And as the first Christmas of the millennium, there is a rumor that if one confesses his love on this special eve it will come true. Keitaro has decided what he needs to do on this Christmas eve. But being a re-taker, can he afford taking attention away from the tests on the same day?", "popularity": 1.462, "poster_path": "/1xudZEUwvatjItfEdQK0VXVOIh8.jpg", "production_companies": [{"id": 3034, "logo_path": "/kGRavMqgyx4p2X4C96bjRCj50oI.png", "name": "TV Tokyo", "origin_country": "JP"}, {"id": 5937, "logo_path": "/yelUQVWP72Nw5DirciMc9dqdk60.png", "name": "XEBEC", "origin_country": "JP"}], "production_countries": [{"iso_3166_1": "JP", "name": "Japan"}], "release_date": "2000-12-24", "revenue": 0, "runtime": 46, "spoken_languages": [{"iso_639_1": "ja", "name": "\u65e5\u672c\u8a9e"}], "status": "Released", "tagline": "If you make a wish on Christmas Eve, will it come true?", "title": "Love Hina Christmas Special: Silent Eve", "video": false, "vote_average": 6.0, "vote_count": 8, "keywords": {"keywords": [{"id": 65, "name": "holiday"}, {"id": 9799, "name": "romantic comedy"}, {"id": 9840, "name": "romance"}, {"id": 207317, "name": "christmas"}]}, "similar": {"page": 1, "results": [{"adult": false, "backdrop_path": "/7ApilgVwA0rjhl92GFTzW0FLGBG.jpg", "genre_ids": [10749, 10770], "id": 427045, "original_language": "en", "original_title": "A December Bride", "overview": "Aspiring interior designer Layla is dreading the Christmastime wedding of her cousin who\u2019s marrying Layla\u2019s ex-fianc\u00e9. Although Seth is the one responsible for introducing the bride and groom, she begrudgingly accepts his offer to be her date as she\u2019s out of options. Seth gets carried away at the reception and announces they\u2019re engaged, forcing a mortified Layla to keep up the pretense.", "poster_path": "/o1jAel6EasQkLPUj0TcDOJB2btE.jpg", "release_date": "2016-11-20", "title": "A December Bride", "video": false, "vote_average": 6.5, "vote_count": 66, "popularity": 8.437}, {"id": 9479, "video": false, "vote_count": 5315, "vote_average": 7.8, "title": "The Nightmare Before Christmas", "release_date": "1993-10-09", "original_language": "en", "original_title": "The Nightmare Before Christmas", "genre_ids": [16, 14, 10751], "backdrop_path": "/16lk65YfrDFIr6evkWRjSeOOSws.jpg", "adult": false, "overview": "Tired of scaring humans every October 31 with the same old bag of tricks, Jack Skellington, the spindly king of Halloween Town, kidnaps Santa Claus and plans to deliver shrunken heads and other ghoulish gifts to children on Christmas morning. But as Christmas approaches, Jack's rag-doll girlfriend, Sally, tries to foil his misguided plans.", "poster_path": "/6oxkO1VgKCq74fNILKAg6t2dVEt.jpg", "popularity": 20.34}, {"id": 10719, "video": false, "vote_count": 2250, "vote_average": 6.6, "title": "Elf", "release_date": "2003-10-09", "original_language": "en", "original_title": "Elf", "genre_ids": [35, 14, 10751], "backdrop_path": "/jRzrQ7Thcjpetr0n8B6w980eZet.jpg", "adult": false, "overview": "When young Buddy falls into Santa's gift sack on Christmas Eve, he's transported back to the North Pole and raised as a toy-making elf by Santa's helpers. But as he grows into adulthood, he can't shake the nagging feeling that he doesn't belong. Buddy vows to visit Manhattan and find his real dad, a workaholic publisher.", "poster_path": "/9jChHqqcpe0zHNTqkNqWZkwkgil.jpg", "popularity": 14.689}, {"id": 1581, "video": false, "vote_count": 2897, "vote_average": 7.0, "title": "The Holiday", "release_date": "2006-12-08", "original_language": "en", "original_title": "The Holiday", "genre_ids": [35, 10749], "backdrop_path": "/9TP7FGdo9ppnuXX3DbB9RtzYKkh.jpg", "adult": false, "overview": "Two women, one from the United States and one from the United Kingdom, swap homes at Christmastime after bad breakups with their boyfriends. Each woman finds romance with a local man but realizes that the imminent return home may end the relationship.", "poster_path": "/ixNtpuq8OVp4IckgzkSJIflFDkw.jpg", "popularity": 21.914}, {"id": 9647, "video": false, "vote_count": 785, "vote_average": 6.9, "title": "Scrooged", "release_date": "1988-11-22", "original_language": "en", "original_title": "Scrooged", "genre_ids": [35, 18, 14], "backdrop_path": "/6xezVJoUp0cZUBQeIDpW6lFuhcd.jpg", "adult": false, "overview": "In this modern take on Charles Dickens' \"A Christmas Carol,\" Frank Cross (Bill Murray) is a wildly successful television executive whose cold ambition and curmudgeonly nature has driven away the love of his life, Claire Phillips (Karen Allen). But after firing a staff member, Eliot Loudermilk (Bobcat Goldthwait), on Christmas Eve, Frank is visited by a series of ghosts who give him a chance to re-evaluate his actions and right the wrongs of his past.", "poster_path": "/uO0znfB2ZzTXA1IS7jkrjNbpkYK.jpg", "popularity": 13.78}, {"id": 11395, "video": false, "vote_count": 1132, "vote_average": 6.3, "title": "The Santa Clause", "release_date": "1994-11-10", "original_language": "en", "original_title": "The Santa Clause", "genre_ids": [35, 18, 14, 10751], "backdrop_path": "/rcQZmnhcb6P4mkgJAHnCYp3c1gp.jpg", "adult": false, "overview": "Scott Calvin is an ordinary man, who accidentally causes Santa Claus to fall from his roof on Christmas Eve and is knocked unconscious. When he and his young son finish Santa's trip and deliveries, they go to the North Pole, where Scott learns he must become the new Santa and convince those he loves that he is indeed, Father Christmas.", "poster_path": "/4LtaCHxAwfrXNhujGsNQpLbs8wr.jpg", "popularity": 15.719}, {"adult": false, "backdrop_path": "/kJwJfSQht3QwpWka8JBnQ18IyDT.jpg", "genre_ids": [18, 16, 10751, 35], "id": 51052, "original_language": "en", "original_title": "Arthur Christmas", "overview": "Each Christmas, Santa and his vast army of highly trained elves produce gifts and distribute them around the world in one night. However, when one of 600 million children to receive a gift from Santa on Christmas Eve is missed, it is deemed \u2018acceptable\u2019 to all but one \u2013 Arthur. Arthur Claus is Santa\u2019s misfit son who executes an unauthorized rookie mission to get the last present half way around the globe before dawn on Christmas morning.", "poster_path": "/crjzhg2T1sPL9yE7bFHkYp0OfXG.jpg", "release_date": "2011-11-10", "title": "Arthur Christmas", "video": false, "vote_average": 6.7, "vote_count": 800, "popularity": 18.417}, {"id": 5375, "video": false, "vote_count": 486, "vote_average": 5.6, "title": "Fred Claus", "release_date": "2007-11-03", "original_language": "en", "original_title": "Fred Claus", "genre_ids": [28, 35, 18], "backdrop_path": "/r0jEOEzIJFdyaxVa7bsFocUuQ1t.jpg", "adult": false, "overview": "Fred Claus and Santa Claus have been estranged brothers for many years. Now Fred must reconcile his differences with his brother whom he believes overshadows him. When an efficiency expert assesses the workings at the North Pole and threatens to shut Santa down, Fred must help his brother to save Christmas.", "poster_path": "/vFniWmciRi4tAjAYGp2wrK0P8dJ.jpg", "popularity": 12.299}, {"id": 11881, "video": false, "vote_count": 341, "vote_average": 7.4, "title": "Miracle on 34th Street", "release_date": "1947-06-11", "original_language": "en", "original_title": "Miracle on 34th Street", "genre_ids": [35, 18, 10751], "backdrop_path": "/i90947b0zLbH1P4qjAxqiQdRfiZ.jpg", "adult": false, "overview": "Kris Kringle, seemingly the embodiment of Santa Claus, is asked to portray the jolly old fellow at Macy's following his performance in the Thanksgiving Day parade. His portrayal is so complete that many begin to question if he truly is Santa Claus, while others question his sanity.", "poster_path": "/h8kkqroLwxvAHxWGIStEZaNd4wr.jpg", "popularity": 16.027}, {"id": 8871, "video": false, "vote_count": 4084, "vote_average": 6.6, "title": "How the Grinch Stole Christmas", "release_date": "2000-11-17", "original_language": "en", "original_title": "How the Grinch Stole Christmas", "genre_ids": [35, 14, 10751], "backdrop_path": "/wWPJpoCGNq3cDYbFqPTWtvJSzqs.jpg", "adult": false, "overview": "Inside a snowflake exists the magical land of Whoville. In Whoville, live the Whos, an almost mutated sort of Munchkin-like people. All the Whos love Christmas, yet just outside of their beloved Whoville lives the Grinch. The Grinch is a nasty creature that hates Christmas, and plots to steal it away from the Whos, whom he equally abhors. Yet a small child, Cindy Lou Who, decides to try befriending the Grinch.", "poster_path": "/vQfgNHbcIWS2j3AAAzLOtPUGVmB.jpg", "popularity": 27.152}, {"adult": false, "backdrop_path": "/9SNO9BglZJgGTMOB5K4NVgecgX1.jpg", "genre_ids": [10751, 35], "id": 9279, "original_language": "en", "original_title": "Jingle All the Way", "overview": "Meet Howard Langston, a salesman for a mattress company is constantly busy at his job, and he also constantly disappoints his son, after he misses his son's karate exposition, his son tells Howard that he wants for Christmas is an action figure of his son's television hero, he tries hard to to make it up to him. Unfortunately for Howard, it is Christmas Eve, and every store is sold out of Turbo Man, now Howard must travel all over town and compete with everybody else to find a Turbo Man action figure.", "poster_path": "/aaVkNhUONnkSv5ijPjq7pEmmWyE.jpg", "release_date": "1996-11-15", "title": "Jingle All the Way", "video": false, "vote_average": 5.7, "vote_count": 1358, "popularity": 14.799}, {"id": 455842, "video": false, "vote_count": 18, "vote_average": 5.7, "title": "Elliot: The Littlest Reindeer", "release_date": "2018-11-08", "original_language": "en", "original_title": "Elliot: The Littlest Reindeer", "genre_ids": [12, 16, 10751], "backdrop_path": "/2Djp1gHsUsbf2YpvyoihXecGXPi.jpg", "adult": false, "overview": "When Blitzen announces his retirement on December 21st, a miniature horse has 3 days to fulfill his lifelong dream of earning a spot on Santa's team at the North Pole try-outs.", "poster_path": "/sYq809WTep01HO5oJR9o9VbEDJv.jpg", "popularity": 9.317}, {"id": 13377, "video": false, "vote_count": 587, "vote_average": 7.4, "title": "How the Grinch Stole Christmas!", "release_date": "1966-12-18", "original_language": "en", "original_title": "How the Grinch Stole Christmas!", "genre_ids": [16, 35, 10751], "backdrop_path": "/3kuQVBTd4c5dfdj2BFJKWJ0ZWA6.jpg", "adult": false, "overview": "Bitter and hateful, the Grinch is irritated at the thought of a nearby village having a happy time celebrating Christmas. Disguised as Santa Claus, with his dog made to look like a reindeer, he decides to raid the village to steal all the Christmas things.", "poster_path": "/7ir0iRuPK9OEuH569cp0nF5CJce.jpg", "popularity": 13.225}, {"id": 9021, "video": false, "vote_count": 705, "vote_average": 5.7, "title": "The Santa Clause 2", "release_date": "2002-10-31", "original_language": "en", "original_title": "The Santa Clause 2", "genre_ids": [35, 14, 10751], "backdrop_path": "/tftsh2e2IDGW3601QYixa9fnHFm.jpg", "adult": false, "overview": "Better watch out! The big guy in red is coming to town once again. This time, Scott Calvin -- also known as Santa Claus -- finds out there's an obscure clause in his contract requiring him to take on a wife. He has to leave the North Pole to fulfill his obligations, or else he'll be forced to give up his Yuletide gig.", "poster_path": "/i7tbiDPIaa4VsQh1wWmbkY4zTRX.jpg", "popularity": 13.15}, {"id": 10510, "video": false, "vote_count": 539, "vote_average": 6.6, "title": "Miracle on 34th Street", "release_date": "1994-11-18", "original_language": "en", "original_title": "Miracle on 34th Street", "genre_ids": [18, 14, 10751], "backdrop_path": "/m7M8nvdSt13ZmvVUuYc3lN7nLVI.jpg", "adult": false, "overview": "Six-year-old Susan Walker has doubts about childhood's most enduring miracle\u2014Santa Claus. Her mother told her the secret about Santa a long time ago, but, after meeting a special department store Santa who's convinced he's the real thing, Susan is given the most precious gift of all\u2014something to believe in.", "poster_path": "/iuI31j8DM4TOxJTZeumG0S4npPU.jpg", "popularity": 13.673}, {"id": 52345, "video": false, "vote_count": 221, "vote_average": 7.8, "title": "Lisbela and the Prisoner", "release_date": "2003-08-22", "original_language": "pt", "original_title": "Lisbela e o Prisioneiro", "genre_ids": [35, 10749], "backdrop_path": "/4KDlC0cZvR5LtszqjFhZcMzdiUD.jpg", "adult": false, "overview": "Lisbela is a young woman who loves going to the movies. Lel\u00e9u is a con man, going from town to town selling all sort of things and performing as master of ceremonies for some cheesy numbers, such as the woman who gets transformed into a gorilla. He gets involved with Linaura, a sexy and beautiful woman who happens to be the wife of the most frightening hitman of the place. The hitman finds out his wife's affair and goes after Lel\u00e9u, who has to leave in a hurry. In another town, he meets and falls instantly in love with Lisbela, who is engaged to Douglas, a hillbilly who tries hard to pass for a cosmopolitan Rio de Janeiro dweller.", "poster_path": "/9nlaRxQeYaMrVVANMppagFohCRP.jpg", "popularity": 1.389}, {"id": 927, "video": false, "vote_count": 3738, "vote_average": 7.1, "title": "Gremlins", "release_date": "1984-06-07", "original_language": "en", "original_title": "Gremlins", "genre_ids": [35, 14, 27], "backdrop_path": "/xZ5SUO6YtIcSwRuKZhNLBfCJzpv.jpg", "adult": false, "overview": "When Billy Peltzer is given a strange but adorable pet named Gizmo for Christmas, he inadvertently breaks the three important rules of caring for a Mogwai, and unleashes a horde of mischievous gremlins on a small town.", "poster_path": "/atBZUwRpx60ZpzcM9yOB4E8nuY.jpg", "popularity": 22.601}, {"id": 25741, "video": false, "vote_count": 88, "vote_average": 5.6, "title": "The Flight Before Christmas", "release_date": "2008-09-22", "original_language": "en", "original_title": "Niko: Lent\u00e4j\u00e4n poika", "genre_ids": [12, 16, 18, 14, 10751], "backdrop_path": "/kEgr8FGXavizdpsZ4LwWpmkDy3L.jpg", "adult": false, "overview": "A young reindeer who suffers from vertigo learns to overcome his fear, takes flying lessons from a clumsy flying squirrel and heads to the North pole to save a troubled Santa and his fleet of flying reindeer.", "poster_path": "/7r4Z2bDmjvTY4hHbhCQqqALS3hl.jpg", "popularity": 12.16}, {"id": 9745, "video": false, "vote_count": 644, "vote_average": 5.9, "title": "Jack Frost", "release_date": "1998-12-10", "original_language": "en", "original_title": "Jack Frost", "genre_ids": [35, 18, 14, 10751], "backdrop_path": "/15FdBioriLIBiJqG3MFBlNGgHzp.jpg", "adult": false, "overview": "A father, who can't keep his promises, dies in a car accident. One year later, he returns as a snowman, who has the final chance to put things right with his son before he is gone forever.", "poster_path": "/cPmO5VZhqN4ocrgxjGaFmLeMREv.jpg", "popularity": 13.932}, {"id": 772, "video": false, "vote_count": 5551, "vote_average": 6.5, "title": "Home Alone 2: Lost in New York", "release_date": "1992-11-19", "original_language": "en", "original_title": "Home Alone 2: Lost in New York", "genre_ids": [12, 35, 80, 10751], "backdrop_path": "/1uHTuwx5h9T3XzsXijMMKybDFvZ.jpg", "adult": false, "overview": "Instead of flying to Florida with his folks, Kevin ends up alone in New York, where he gets a hotel room with his dad's credit card\u2014despite problems from a clerk and meddling bellboy. But when Kevin runs into his old nemeses, the Wet Bandits, he's determined to foil their plans to rob a toy store on Christmas eve.", "poster_path": "/ezGcLFTvwR64I3Z7RqHnXRFet4r.jpg", "popularity": 28.428}], "total_pages": 43, "total_results": 841}, "recommendations": {"page": 1, "results": [{"adult": false, "backdrop_path": "/u82XriM1Snzn4tuOldf5qoUk2kO.jpg", "genre_ids": [35, 10749, 16, 10402], "id": 44685, "original_language": "ja", "original_title": "\u30e9\u30d6\u3072\u306a \u6625\u30b9\u30da\u30b7\u30e3\u30eb \uff5e\u30ad\u30df\u30b5\u30af\u30e9\u30c1\u30eb\u30ca\u30ab\u30ec!!\uff5e", "overview": "The tests have come, and Keitaro can only hope to succeed. However, in the final stretch, he fails miserably and daydreams through the test. Assuming that he has failed, he runs away, so the rest of the cast hunts him down on a remote desert island to bring him back.", "poster_path": "/pO535dqMmvatuqbgvpOIA1bQw3R.jpg", "release_date": "2001-03-31", "title": "Love Hina Spring Special - I Wish Your Dream", "video": true, "vote_average": 5.8, "vote_count": 5, "popularity": 3.146}], "total_pages": 1, "total_results": 1}, "credits": {"cast": [{"cast_id": 3, "character": "Naru Narusegawa", "credit_id": "52fe46249251416c9104aa15", "gender": 1, "id": 202806, "name": "Yui Horie", "order": 0, "profile_path": "/vXIj7glNq7gdN148FNBXikQqEPy.jpg"}, {"cast_id": 13, "character": "Keitaro Urashima", "credit_id": "5768b693c3a3680e52000be2", "gender": 2, "id": 65427, "name": "Yuji Ueda", "order": 1, "profile_path": "/b7gFUNNUPGyrfuvBf8AW4DaziYX.jpg"}, {"cast_id": 5, "character": "Mitsune Konno", "credit_id": "52fe46249251416c9104aa1d", "gender": 1, "id": 216449, "name": "Junko Noda", "order": 2, "profile_path": "/hipH3j9ck3ByDa78LGwgmt8CggD.jpg"}, {"cast_id": 6, "character": "Shinobu Maehara", "credit_id": "52fe46249251416c9104aa21", "gender": 1, "id": 1147713, "name": "Masayo Kurata", "order": 3, "profile_path": "/xgb0SUCYJpgQuje0cFqgPTqjpqv.jpg"}, {"cast_id": 7, "character": "Haruka Urashima", "credit_id": "52fe46249251416c9104aa25", "gender": 1, "id": 40325, "name": "Megumi Hayashibara", "order": 4, "profile_path": "/btCUFtJEE7RefoguctvvfQjxIcd.jpg"}, {"cast_id": 8, "character": "Kaolla Su", "credit_id": "52fe46249251416c9104aa29", "gender": 1, "id": 1147714, "name": "Reiko Takagi", "order": 5, "profile_path": null}, {"cast_id": 9, "character": "Mutsumi Otohime", "credit_id": "52fe46249251416c9104aa2d", "gender": 1, "id": 112205, "name": "Satsuki Yukino", "order": 6, "profile_path": "/vJ9LTwdLYx2ujmnT1cZ38kqdXIe.jpg"}, {"cast_id": 10, "character": "Sarah MacDougal", "credit_id": "52fe46249251416c9104aa31", "gender": 1, "id": 126485, "name": "Yumiko Kobayashi", "order": 7, "profile_path": "/stCUPgQ5meT964VbHKBw8JKttln.jpg"}, {"cast_id": 11, "character": "Motoko Aoyama", "credit_id": "52fe46249251416c9104aa35", "gender": 1, "id": 148449, "name": "Yuu Asakawa", "order": 8, "profile_path": "/2n7pYsUrUq4qg4VtQemndzIpOlb.jpg"}, {"cast_id": 12, "character": "Himself", "credit_id": "52fe46249251416c9104aa39", "gender": 0, "id": 116752, "name": "Ken Akamatsu", "order": 9, "profile_path": null}], "crew": [{"credit_id": "5aaceeb592514116b100e33a", "department": "Writing", "gender": 2, "id": 68988, "job": "Writer", "name": "Sho Aikawa", "profile_path": "/yej2gv1vWNLxI23LnpgBL9kMozU.jpg"}, {"credit_id": "52fe46249251416c9104aa11", "department": "Directing", "gender": 0, "id": 116750, "job": "Director", "name": "Yoshiaki Iwasaki", "profile_path": null}, {"credit_id": "5aaceec7c3a36846c300ded1", "department": "Sound", "gender": 0, "id": 1147755, "job": "Music", "name": "Koichi Korenaga", "profile_path": null}, {"credit_id": "5b0b51759251411c4f00cdd0", "department": "Sound", "gender": 2, "id": 1608523, "job": "Sound Director", "name": "Hideyuki Tanaka", "profile_path": null}]}}