{"adult": false, "backdrop_path": null, "belongs_to_collection": null, "budget": 2, "genres": [{"id": 18, "name": "Drama"}], "homepage": null, "id": 37145, "imdb_id": "tt1899143", "original_language": "en", "original_title": "The Catholics", "overview": "In the near future, the Catholic church has joined with other western religions in an ecumenical movement that has washed out much of the original message of the religion. A group of Irish monks  led by Trevor Howard have begun saying the mass again in Latin and have begun to have an international following. A priest (Martin Sheen) is sent from Rome to bring them to task and they must confront what is truly essential in their worship and what is not.", "popularity": 1.332, "poster_path": "/kHDODa4XXYEiOuElTlPzOznASmp.jpg", "production_companies": [{"id": 105122, "logo_path": null, "name": "Sidney Glazier Productions", "origin_country": ""}, {"id": 24791, "logo_path": null, "name": "Harlech Television (HTV)", "origin_country": ""}], "production_countries": [{"iso_3166_1": "IE", "name": "Ireland"}, {"iso_3166_1": "GB", "name": "United Kingdom"}, {"iso_3166_1": "US", "name": "United States of America"}], "release_date": "1973-11-29", "revenue": 2, "runtime": 78, "spoken_languages": [{"iso_639_1": "en", "name": "English"}, {"iso_639_1": "la", "name": "Latin"}], "status": "Released", "tagline": "", "title": "The Catholics", "video": false, "vote_average": 6.0, "vote_count": 3, "keywords": {"keywords": [{"id": 11001, "name": "religion"}, {"id": 14985, "name": "ireland"}, {"id": 202203, "name": "modernisation"}, {"id": 220024, "name": "roman catholic church"}]}, "similar": {"page": 1, "results": [{"adult": false, "backdrop_path": "/eWelH0cHonTsdP6ImrgilpbqdTK.jpg", "genre_ids": [18, 36], "id": 335778, "original_language": "en", "original_title": "Risen", "overview": "Clavius, a powerful Roman military tribune, and his aide, Lucius, are tasked with solving the mystery of what happened to Jesus in the weeks following the crucifixion, in order to disprove the rumors of a risen Messiah and prevent an uprising in Jerusalem.", "poster_path": "/uGZ1easTLqkNfDNHRLm5kvkfRw7.jpg", "release_date": "2016-02-18", "title": "Risen", "video": false, "vote_average": 5.9, "vote_count": 452, "popularity": 13.954}, {"id": 615, "video": false, "vote_count": 1934, "vote_average": 7.1, "title": "The Passion of the Christ", "release_date": "2004-02-25", "original_language": "en", "original_title": "The Passion of the Christ", "genre_ids": [18], "backdrop_path": "/clVnEHURb8Ot3twaLmf7N1lNym1.jpg", "adult": false, "overview": "A graphic portrayal of the last twelve hours of Jesus of Nazareth's life.", "poster_path": "/oFuLM1EaKhi1WNWiTjQ1HKIZ1Eg.jpg", "popularity": 21.645}, {"id": 9946, "video": false, "vote_count": 932, "vote_average": 5.7, "title": "End of Days", "release_date": "1999-11-24", "original_language": "en", "original_title": "End of Days", "genre_ids": [28, 14, 27, 9648], "backdrop_path": "/q5KcZBMc4Vs5SQelnSdY3ICm56M.jpg", "adult": false, "overview": "On 28 December 1999, the citizens of New York City are getting ready for the turn of the millennium. However, the Devil decides to crash the party by coming to the city, inhabiting a man's body, and searching for his chosen bride\u2014a 20-year-old woman named Christine York. The world will end, and the only hope lies within an atheist named Jericho Cane.", "poster_path": "/bEIjH6GroeWaBkn6o7MVpMNbuyw.jpg", "popularity": 15.853}, {"adult": false, "backdrop_path": "/dAK3Sql45m1xyMzCm5LDa4Bmucx.jpg", "genre_ids": [878, 18], "id": 13363, "original_language": "en", "original_title": "The Man from Earth", "overview": "An impromptu goodbye party for Professor John Oldman becomes a mysterious interrogation after the retiring scholar reveals to his colleagues he never ages and has walked the earth for 14,000 years.", "poster_path": "/zYP2lBJ5GRV1HaIi4USqRl3phe.jpg", "release_date": "2007-06-10", "title": "The Man from Earth", "video": false, "vote_average": 7.7, "vote_count": 1237, "popularity": 15.764}, {"id": 324786, "video": false, "vote_count": 7336, "vote_average": 8.1, "title": "Hacksaw Ridge", "release_date": "2016-10-07", "original_language": "en", "original_title": "Hacksaw Ridge", "genre_ids": [18, 36, 10752], "backdrop_path": "/zBK4QZONMQXhcgaJv1YYTdCW7q9.jpg", "adult": false, "overview": "WWII American Army Medic Desmond T. Doss, who served during the Battle of Okinawa, refuses to kill people and becomes the first Conscientious Objector in American history to receive the Congressional Medal of Honor.", "poster_path": "/bndiUFfJxNd2fYx8XO610L9a07m.jpg", "popularity": 23.616}, {"id": 2331, "video": false, "vote_count": 16, "vote_average": 5.9, "title": "Jesus", "release_date": "1999-12-25", "original_language": "en", "original_title": "Jesus", "genre_ids": [18, 36], "backdrop_path": "/4wQLjg2gehczRA081fjrlKny4uV.jpg", "adult": false, "overview": "The film is notable for presenting a more human Jesus, compared to more solemn portrayals in earlier films; here Jesus laughs and cries like anyone else. Among other things, he weeps at Joseph\u2019s funeral, throws stones in Lake Galilee when meeting Simon Peter and James son of Zebedee for the first time, dances at the wedding at Cana, and starts a water-splashing fight with his disciples as well. Satan is portrayed as a man in modern dress (and as a woman in red). During his temptation of Jesus, he shows him the Earth from the vantage point of space. Satan also shows Jesus images of wars and destruction carried out in his name. The film adds an apocryphal Roman historian named \u201cLivio\u201d who watches and comments as events unfold; he is presumably named after Livy.", "poster_path": "/jkyll5jAzT6UT8gFp40e0iWzdYA.jpg", "popularity": 5.909}, {"adult": false, "backdrop_path": "/sO6AnUEirDnaxjy8dxaqYEKDxGi.jpg", "genre_ids": [18, 36], "id": 6844, "original_language": "en", "original_title": "The Ten Commandments", "overview": "Escaping death, a Hebrew infant is raised in a royal household to become a prince. Upon discovery of his true heritage, Moses embarks on a personal quest to reclaim his destiny as the leader and liberator of the Hebrew people.", "poster_path": "/loLrO3SfhHkN3o3fTHdx1vf9ZYf.jpg", "release_date": "1956-10-05", "title": "The Ten Commandments", "video": false, "vote_average": 7.6, "vote_count": 659, "popularity": 17.954}, {"id": 16366, "video": false, "vote_count": 496, "vote_average": 6.4, "title": "Joseph: King of Dreams", "release_date": "2000-11-07", "original_language": "en", "original_title": "Joseph: King of Dreams", "genre_ids": [16, 10402, 10751], "backdrop_path": "/p5WF1vmFwTrdNlx6Z7mt5ksnG7W.jpg", "adult": false, "overview": "In this animated retelling of the story from the Bible's Book of Genesis, Joseph's gift of dream interpretation and his brilliantly colored coat inspires jealousy in his brothers.", "poster_path": "/dsL5nngGY8qTmXxtAamMUYVQDY3.jpg", "popularity": 18.451}, {"id": 310, "video": false, "vote_count": 6935, "vote_average": 6.6, "title": "Bruce Almighty", "release_date": "2003-05-23", "original_language": "en", "original_title": "Bruce Almighty", "genre_ids": [35, 14], "backdrop_path": "/bhEudqWbWsiEBdnl0kCIwFp5Hay.jpg", "adult": false, "overview": "Bruce Nolan toils as a 'human interest' television reporter in Buffalo, N.Y., but despite his high ratings and the love of his beautiful girlfriend, Bruce remains unfulfilled. At the end of the worst day in his life, he angrily ridicules God\u2014and the Almighty responds, endowing Bruce with all of His divine powers.", "poster_path": "/lgYKHifMMLT8OxYObMKa8b4STsr.jpg", "popularity": 33.956}, {"id": 5876, "video": false, "vote_count": 2784, "vote_average": 6.8, "title": "The Mist", "release_date": "2007-11-21", "original_language": "en", "original_title": "The Mist", "genre_ids": [27, 878, 53], "backdrop_path": "/slQnhKRIPkA2Cm5x6VvrOPXt4Qu.jpg", "adult": false, "overview": "After a violent storm, a dense cloud of mist envelops a small Maine town, trapping artist David Drayton and his five-year-old son in a local grocery store with other people. They soon discover that the mist conceals deadly horrors that threaten their lives, and worse, their sanity.", "poster_path": "/uYVheUBf8ITaocUP4Og9GXxOMIH.jpg", "popularity": 15.94}, {"adult": false, "backdrop_path": "/g8G91vbvyUqnyFSlVruwiaZsUrn.jpg", "genre_ids": [18], "id": 458737, "original_language": "en", "original_title": "First Reformed", "overview": "A pastor of a small church in upstate New York starts to spiral out of control after a soul-shaking encounter with an unstable environmental activist and his pregnant wife.", "poster_path": "/p2UylV0hPefEuWPFMo1r56vu2nb.jpg", "release_date": "2018-05-18", "title": "First Reformed", "video": false, "vote_average": 7.0, "vote_count": 577, "popularity": 11.445}, {"id": 235260, "video": false, "vote_count": 137, "vote_average": 6.4, "title": "Son of God", "release_date": "2014-02-28", "original_language": "en", "original_title": "Son of God", "genre_ids": [18], "backdrop_path": "/fabLQCBndX9Zfd3mX0RS1OjyqEX.jpg", "adult": false, "overview": "The life story of Jesus is told from his humble birth through his teachings, crucifixion and ultimate resurrection.", "poster_path": "/xyFaNh1IGdHEJbuLdba6a7GxLzP.jpg", "popularity": 11.437}, {"id": 87827, "video": false, "vote_count": 9358, "vote_average": 7.3, "title": "Life of Pi", "release_date": "2012-11-20", "original_language": "en", "original_title": "Life of Pi", "genre_ids": [28, 12, 18], "backdrop_path": "/tk159LPfy69zSHw4dabehfAaJXi.jpg", "adult": false, "overview": "The story of an Indian boy named Pi, a zookeeper's son who finds himself in the company of a hyena, zebra, orangutan, and a Bengal tiger after a shipwreck sets them adrift in the Pacific Ocean.", "poster_path": "/sLYdcz7easaS7CmJGwQcVVYZqiF.jpg", "popularity": 20.637}, {"id": 10545, "video": false, "vote_count": 3018, "vote_average": 7.0, "title": "The Hunchback of Notre Dame", "release_date": "1996-06-21", "original_language": "en", "original_title": "The Hunchback of Notre Dame", "genre_ids": [16, 18, 10751], "backdrop_path": "/oslaee3VX9kJAjVezbjZKlEJDzn.jpg", "adult": false, "overview": "When Quasimodo defies the evil Frollo and ventures out to the Festival of Fools, the cruel crowd jeers him. Rescued by fellow outcast the gypsy Esmeralda, Quasi soon finds himself battling to save the people and the city he loves.", "poster_path": "/r7V92gY3AMO6li17MmGTixAnFcv.jpg", "popularity": 28.041}, {"id": 686, "video": false, "vote_count": 2422, "vote_average": 7.3, "title": "Contact", "release_date": "1997-07-11", "original_language": "en", "original_title": "Contact", "genre_ids": [18, 9648, 878], "backdrop_path": "/dBK75oCKuHVuJ9rSUnusIFbhocH.jpg", "adult": false, "overview": "Contact is a science fiction film about an encounter with alien intelligence. Based on the novel by Carl Sagan the film starred Jodie Foster as the one chosen scientist who must make some difficult decisions between her beliefs, the truth, and reality.", "poster_path": "/bCpMIywuNZeWt3i5UMLEIc0VSwM.jpg", "popularity": 21.581}, {"adult": false, "backdrop_path": "/kormVYncbZMrToXaOV58o74LNIz.jpg", "genre_ids": [18, 53, 878, 9648], "id": 2675, "original_language": "en", "original_title": "Signs", "overview": "A family living on a farm finds mysterious crop circles in their fields which suggests something more frightening to come.", "poster_path": "/bY9lCUVUajpkKWlfjWF1mtXaSUp.jpg", "release_date": "2002-08-02", "title": "Signs", "video": false, "vote_average": 6.6, "vote_count": 3222, "popularity": 16.898}, {"id": 167073, "video": false, "vote_count": 2097, "vote_average": 7.3, "title": "Brooklyn", "release_date": "2015-10-20", "original_language": "en", "original_title": "Brooklyn", "genre_ids": [18, 10749], "backdrop_path": "/7fXKVIM8UQBvQ9aQOzFqThlq7eN.jpg", "adult": false, "overview": "In 1950s Ireland and New York, young Eilis Lacey has to choose between two men and two countries.", "poster_path": "/dRpkyrSDrEMFRZDeFJG4EupqUfR.jpg", "popularity": 12.966}, {"id": 9693, "video": false, "vote_count": 4056, "vote_average": 7.6, "title": "Children of Men", "release_date": "2006-09-22", "original_language": "en", "original_title": "Children of Men", "genre_ids": [28, 18, 878, 53], "backdrop_path": "/c5jNuPA19oGiEmbh8iFeAi6aHMI.jpg", "adult": false, "overview": "In 2027, in a chaotic world in which humans can no longer procreate, a former activist agrees to help transport a miraculously pregnant woman to a sanctuary at sea, where her child's birth may help scientists save the future of humankind.", "poster_path": "/gZ6i32Da76EUxta06GL2BxpC4Cn.jpg", "popularity": 18.249}, {"id": 458104, "video": false, "vote_count": 0, "vote_average": 0.0, "title": "Hold On", "release_date": "2019-12-06", "original_language": "en", "original_title": "Hold On", "genre_ids": [18], "backdrop_path": null, "adult": false, "overview": "Fighting to save her brother from a life of addiction on Los Angeles' Skid Row, an overlooked singing prodigy embarks on an unlikely journey with the son of a famed music manager.", "poster_path": "/7mxhUUoNkcA5eQdCTwHnWldriSl.jpg", "popularity": 2.616}, {"id": 223485, "video": false, "vote_count": 586, "vote_average": 6.6, "title": "Slow West", "release_date": "2015-04-16", "original_language": "en", "original_title": "Slow West", "genre_ids": [28, 18, 53, 37, 10749], "backdrop_path": "/9qF6lhj6X0ImH4iWGZs1uspXJI0.jpg", "adult": false, "overview": "In the Old West, a 17-year-old Scottish boy teams up with a mysterious gunman to find the woman with whom he is infatuated.", "poster_path": "/uZ9dBBn0GaEw0YIBvQd01Io3pho.jpg", "popularity": 10.467}], "total_pages": 62, "total_results": 1221}, "recommendations": {"page": 1, "results": [], "total_pages": 1, "total_results": 0}, "credits": {"cast": [{"cast_id": 2, "character": "The Abbot", "credit_id": "52fe462d9251416c9104bcc7", "gender": 2, "id": 12726, "name": "Trevor Howard", "order": 0, "profile_path": "/drj1FPryhAimWCiufEnMLzUxpBQ.jpg"}, {"cast_id": 1, "character": "Father Kinsella", "credit_id": "52fe462d9251416c9104bcc3", "gender": 2, "id": 8349, "name": "Martin Sheen", "order": 1, "profile_path": "/ve77Q75moQhoB6cxdMfigfrHeTA.jpg"}, {"cast_id": 8, "character": "Father General", "credit_id": "5b0f3e259251415ee9001180", "gender": 2, "id": 3268, "name": "Raf Vallone", "order": 2, "profile_path": "/kmXprY5YSYc5ubCVzDjGTK0lntq.jpg"}, {"cast_id": 6, "character": "Father Manus", "credit_id": "5b0f3df40e0a263089000d80", "gender": 2, "id": 4973, "name": "Cyril Cusack", "order": 3, "profile_path": "/5d6OeKNqpRSMhwXd1FHV9KeX4WS.jpg"}, {"cast_id": 7, "character": "Father Matthew", "credit_id": "5b0f3e0cc3a36862150011b4", "gender": 2, "id": 53815, "name": "Andrew Keir", "order": 4, "profile_path": "/gqxY1NokQGEQtT2O5Rwud44FqO2.jpg"}, {"cast_id": 9, "character": "Father Walter", "credit_id": "5b0f3e3c0e0a263092000f30", "gender": 0, "id": 2279, "name": "Godfrey Quigley", "order": 5, "profile_path": "/7cFpBD1ZlFvHCXBC56cFDXZ3m54.jpg"}, {"cast_id": 3, "character": "Brother Kevin", "credit_id": "52fe462d9251416c9104bccb", "gender": 2, "id": 5658, "name": "Michael Gambon", "order": 6, "profile_path": "/rcjsXZ6PUKlBbrFNv8itMWLzgXx.jpg"}, {"cast_id": 13, "character": "Brother Donald", "credit_id": "5c5abd310e0a261de1638e56", "gender": 2, "id": 5020, "name": "Leon Vitali", "order": 7, "profile_path": "/xwBhO23H91n91SFvyJTOEf9YpdT.jpg"}, {"cast_id": 14, "character": "Brother Pius", "credit_id": "5c5abd4c0e0a264d6f62ba0d", "gender": 0, "id": 2236086, "name": "Seamus Healy", "order": 8, "profile_path": null}, {"cast_id": 15, "character": "Brother Paul", "credit_id": "5c5abdbd0e0a261de56384d9", "gender": 2, "id": 1779297, "name": "John Kelly", "order": 9, "profile_path": "/cE6XmLWtpBMARYzCBipPWd1ZDrz.jpg"}, {"cast_id": 16, "character": "Brother Martin", "credit_id": "5c5abddb9251413374b7f5b9", "gender": 0, "id": 82559, "name": "John Franklyn", "order": 10, "profile_path": null}, {"cast_id": 17, "character": "Brother Sean", "credit_id": "5c5abe070e0a261deb637ff0", "gender": 0, "id": 2236088, "name": "Patrick Long", "order": 11, "profile_path": null}, {"cast_id": 18, "character": "Brother Malachy", "credit_id": "5c5abe1c0e0a2624f762e4b7", "gender": 0, "id": 2236089, "name": "Cecil Sheridan", "order": 12, "profile_path": null}, {"cast_id": 19, "character": "Brother Terrence", "credit_id": "5c5abe390e0a261de3639513", "gender": 0, "id": 1480350, "name": "Tom Jordan", "order": 13, "profile_path": null}, {"cast_id": 20, "character": "Brother Daniel", "credit_id": "5c5abe4a9251413376b7de61", "gender": 0, "id": 2236091, "name": "Liam Burk", "order": 14, "profile_path": null}, {"cast_id": 21, "character": "Brother Alphonsus", "credit_id": "5c5abe67c3a3683cdb87678f", "gender": 0, "id": 2213947, "name": "Richard Oliver", "order": 15, "profile_path": null}, {"cast_id": 22, "character": "Father Colum", "credit_id": "5c5abe8c925141337cb7d9e3", "gender": 0, "id": 2236092, "name": "Frank Howard", "order": 16, "profile_path": null}, {"cast_id": 23, "character": "Brother John", "credit_id": "5c5abea69251413389b7e5cc", "gender": 0, "id": 2021715, "name": "Gilbert McIntyre", "order": 17, "profile_path": null}, {"cast_id": 24, "character": "Brother Benedict", "credit_id": "5c5abebc9251413389b7e5e8", "gender": 0, "id": 1550500, "name": "John Pine", "order": 18, "profile_path": null}, {"cast_id": 25, "character": "Brother Michael", "credit_id": "5c5abed1c3a3683a46869f8f", "gender": 0, "id": 2236093, "name": "Conor Evans", "order": 19, "profile_path": null}, {"cast_id": 26, "character": "Dirty Monk", "credit_id": "5c5abee3c3a3684c238695d8", "gender": 0, "id": 1218892, "name": "Derry Power", "order": 20, "profile_path": null}, {"cast_id": 27, "character": "Boatman", "credit_id": "5c5abef6c3a3683a46869fbe", "gender": 0, "id": 1236747, "name": "Joe Pilkington", "order": 21, "profile_path": null}, {"cast_id": 28, "character": "Publican", "credit_id": "5c5abf05925141337fb7f60c", "gender": 0, "id": 1835487, "name": "Geoffrey Golden", "order": 22, "profile_path": null}], "crew": [{"credit_id": "5b0f3ed30e0a26307c000e7f", "department": "Production", "gender": 2, "id": 8246, "job": "Producer", "name": "Barry Levinson", "profile_path": "/AvPOBBODhSCtUJAqxeq2s0nYnTw.jpg"}, {"credit_id": "57cf76de92514134a3004a3e", "department": "Editing", "gender": 1, "id": 6346, "job": "Editor", "name": "Anne V. Coates", "profile_path": "/l6q2h2n7oZzgUjmRAYiw8w86f97.jpg"}, {"credit_id": "5c5abf820e0a261de16390e7", "department": "Sound", "gender": 2, "id": 24717, "job": "Music", "name": "Carl Davis", "profile_path": null}, {"credit_id": "5b0f3ebdc3a368622a0012d8", "department": "Production", "gender": 0, "id": 69571, "job": "Executive Producer", "name": "Sidney Glazier", "profile_path": null}, {"credit_id": "52fe462d9251416c9104bcd1", "department": "Directing", "gender": 2, "id": 70055, "job": "Director", "name": "Jack Gold", "profile_path": "/oCrmaENYfBArdtQK7aQrGDINeoo.jpg"}, {"credit_id": "5b0f3e8a0e0a263089000e0a", "department": "Writing", "gender": 0, "id": 1212452, "job": "Writer", "name": "Brian Moore", "profile_path": null}]}}