{"adult": false, "backdrop_path": null, "belongs_to_collection": null, "budget": 0, "genres": [{"id": 10751, "name": "Family"}, {"id": 18, "name": "Drama"}, {"id": 80, "name": "Crime"}], "homepage": "http://www.sourehcinema.com/Title/FullCast_Crew.aspx?Id=139305080005", "id": 373302, "imdb_id": "tt4532888", "original_language": "en", "original_title": "Man Diego Maradona Hastam", "overview": "After a rock is thrown through a window, two families become intertwined in a dispute after an incident following an unsuccessful marriage. The couple in question try to hash out what actually went wrong, as the surrounding family members point fingers at one another. Tension builds as all of their other problems seem to bubble to the surface at the same time.", "popularity": 0.869, "poster_path": "/88CRFHxmXGZaXimWcvjG8Fv2b1n.jpg", "production_companies": [], "production_countries": [{"iso_3166_1": "IR", "name": "Iran"}], "release_date": "2015-04-29", "revenue": 100000, "runtime": 85, "spoken_languages": [{"iso_639_1": "fa", "name": "\u0641\u0627\u0631\u0633\u06cc"}], "status": "Released", "tagline": "", "title": "I am Diego Maradona", "video": false, "vote_average": 0.0, "vote_count": 0, "keywords": {"keywords": [{"id": 4662, "name": "illusion"}, {"id": 33500, "name": "story in story"}, {"id": 47020, "name": "storytelling"}]}, "similar": {"page": 1, "results": [{"id": 68728, "video": false, "vote_count": 5072, "vote_average": 5.8, "title": "Oz the Great and Powerful", "release_date": "2013-03-07", "original_language": "en", "original_title": "Oz the Great and Powerful", "genre_ids": [12, 14, 10751], "backdrop_path": "/4cCQkOv4GfQoTtDzHl54KS3S39N.jpg", "adult": false, "overview": "Oscar Diggs, a small-time circus illusionist and con-artist, is whisked from Kansas to the Land of Oz where the inhabitants assume he's the great wizard of prophecy, there to save Oz from the clutches of evil.", "poster_path": "/7qzLIcYR7ev7iXngY8NKHBZHwwT.jpg", "popularity": 15.187}, {"id": 313297, "video": false, "vote_count": 2277, "vote_average": 7.7, "title": "Kubo and the Two Strings", "release_date": "2016-08-18", "original_language": "en", "original_title": "Kubo and the Two Strings", "genre_ids": [12, 16, 10751], "backdrop_path": "/aF4TrSc1IbNNtsWdwixMQNku3Dv.jpg", "adult": false, "overview": "Kubo mesmerizes the people in his village with his magical gift for spinning wild tales with origami. When he accidentally summons an evil spirit seeking vengeance, Kubo is forced to go on a quest to solve the mystery of his fallen samurai father and his mystical weaponry, as well as discover his own magical powers.", "poster_path": "/3Kr9CIIMcXTPlm6cdZ9y3QTe4Y7.jpg", "popularity": 33.362}, {"id": 1124, "video": false, "vote_count": 9197, "vote_average": 8.2, "title": "The Prestige", "release_date": "2006-10-19", "original_language": "en", "original_title": "The Prestige", "genre_ids": [18, 9648, 53], "backdrop_path": "/dsj7lnVsOGq4BfkCWAqIRs4kojk.jpg", "adult": false, "overview": "A mysterious story of two magicians whose intense rivalry leads them on a life-long battle for supremacy -- full of obsession, deceit and jealousy with dangerous and deadly consequences.", "poster_path": "/5MXyQfz8xUP3dIFPTubhTsbFY6N.jpg", "popularity": 28.606}, {"id": 1903, "video": false, "vote_count": 2237, "vote_average": 6.8, "title": "Vanilla Sky", "release_date": "2001-12-10", "original_language": "en", "original_title": "Vanilla Sky", "genre_ids": [18, 14, 878, 53, 10749], "backdrop_path": "/6XwX3HzKhlBUbTy2qZx0THQOu2T.jpg", "adult": false, "overview": "David Aames has it all: wealth, good looks and gorgeous women on his arm. But just as he begins falling for the warmhearted Sofia, his face is horribly disfigured in a car accident. That's just the beginning of his troubles as the lines between illusion and reality, between life and death, are blurred.", "poster_path": "/ujMy9P4VczTW9YSpAM31uqdOMpz.jpg", "popularity": 16.046}, {"id": 291805, "video": false, "vote_count": 7380, "vote_average": 6.8, "title": "Now You See Me 2", "release_date": "2016-06-02", "original_language": "en", "original_title": "Now You See Me 2", "genre_ids": [28, 35, 53], "backdrop_path": "/zrAO2OOa6s6dQMQ7zsUbDyIBrAP.jpg", "adult": false, "overview": "One year after outwitting the FBI and winning the public\u2019s adulation with their mind-bending spectacles, the Four Horsemen resurface only to find themselves face to face with a new enemy who enlists them to pull off their most dangerous heist yet.", "poster_path": "/hU0E130tsGdsYa4K9lc3Xrn5Wyt.jpg", "popularity": 18.558}, {"id": 429617, "video": false, "vote_count": 5765, "vote_average": 7.6, "title": "Spider-Man: Far from Home", "release_date": "2019-06-28", "original_language": "en", "original_title": "Spider-Man: Far from Home", "genre_ids": [28, 12, 878], "backdrop_path": "/5myQbDzw3l8K9yofUXRJ4UTVgam.jpg", "adult": false, "overview": "Peter Parker and his friends go on a summer trip to Europe. However, they will hardly be able to rest - Peter will have to agree to help Nick Fury uncover the mystery of creatures that cause natural disasters and destruction throughout the continent.", "poster_path": "/4q2NNj4S5dG2RLF9CpXsej7yXl.jpg", "popularity": 76.057}, {"id": 256591, "video": false, "vote_count": 4628, "vote_average": 6.8, "title": "Focus", "release_date": "2015-02-25", "original_language": "en", "original_title": "Focus", "genre_ids": [35, 80, 18, 10749], "backdrop_path": "/bd8RdP2OduLBGkUMdc8PZPjdtbI.jpg", "adult": false, "overview": "Nicky, an accomplished con artist, gets romantically involved with his disciple Jess but later ends their relationship. Years later, she returns as a femme fatale to spoil his plans.", "poster_path": "/9IElGiLkxPLUWZ3avy31bNSG3Tq.jpg", "popularity": 30.245}, {"id": 11596, "video": false, "vote_count": 684, "vote_average": 6.4, "title": "New Nightmare", "release_date": "1994-10-13", "original_language": "en", "original_title": "New Nightmare", "genre_ids": [14, 27, 9648, 53], "backdrop_path": "/bFdZFVHMn6stFWr4c08OTJDZHcG.jpg", "adult": false, "overview": "In this meta horror film, a demonic entity uses the fictional character of Freddy Krueger to enter the real world and torment \"Elm Street\" heroine Heather Langenkamp and her family.", "poster_path": "/oLEZibnraixTE68rTaYv4FEmvYd.jpg", "popularity": 14.971}, {"id": 1052, "video": false, "vote_count": 582, "vote_average": 7.5, "title": "Blow-Up", "release_date": "1966-12-18", "original_language": "en", "original_title": "Blow-Up", "genre_ids": [18, 9648, 53], "backdrop_path": "/x9yNydPTkNiDycjh1fOFqS3hr66.jpg", "adult": false, "overview": "A successful mod photographer in London whose world is bounded by fashion, pop music, marijuana, and easy sex, feels his life is boring and despairing. But in the course of a single day he accidentally captures on film the commission of a murder. The fact that he has photographed a murder does not occur to him until he studies and then blows up his negatives, uncovering details, blowing up smaller and smaller elements, and finally putting the puzzle together.", "poster_path": "/n9TON33PJvKRvbh74yS0x2CFSUH.jpg", "popularity": 11.199}, {"adult": false, "backdrop_path": "/kEMB6Zadl0sfueUN5r2qRplG6uJ.jpg", "genre_ids": [53], "id": 296523, "original_language": "en", "original_title": "Man Down", "overview": "A haunted Afghanistan war veteran attempts to come to terms with his past while searching for his family in a post-apocalyptic America.", "poster_path": "/xX13pMLcnSun6CqbOpKcVmkr335.jpg", "release_date": "2016-12-02", "title": "Man Down", "video": false, "vote_average": 6.2, "vote_count": 147, "popularity": 7.62}, {"id": 35052, "video": false, "vote_count": 204, "vote_average": 6.7, "title": "Cracks", "release_date": "2009-12-04", "original_language": "en", "original_title": "Cracks", "genre_ids": [18, 9648, 53], "backdrop_path": "/6rWMFj9HrlJWzsLOCZJyl3HR6VJ.jpg", "adult": false, "overview": "Jealousy flares after the headmistress of an elite boarding school for girls becomes obsessed with a new student.", "poster_path": "/2zpNd8qPT9HyQMUT1uVwyXhmMjM.jpg", "popularity": 9.137}, {"adult": false, "backdrop_path": "/wDDsybn7FmtBLM0s5TJY0xlQ9dz.jpg", "genre_ids": [12, 18], "id": 37232, "original_language": "en", "original_title": "Travellers and Magicians", "overview": "A young government official, named Dondup, who is smitten with America (he even has a denim gho) dreams of escaping there while stuck in a beautiful but isolated village. He hopes to connect in the U.S. with a visa out of the country. He misses the one bus out of town to Thimphu, however, and is forced to hitchhike and walk along the Lateral Road to the west, accompanied by an apple seller, a Buddhist monk with his ornate, dragon-headed dramyin, a drunk, a widowed rice paper maker, and his beautiful daughter, Sonam.", "poster_path": "/4yev0a0Opkjv2NbyjHXpTDTd2Lb.jpg", "release_date": "2003-09-09", "title": "Travellers and Magicians", "video": false, "vote_average": 6.9, "vote_count": 15, "popularity": 3.428}, {"id": 14784, "video": false, "vote_count": 727, "vote_average": 7.7, "title": "The Fall", "release_date": "2008-01-03", "original_language": "en", "original_title": "The Fall", "genre_ids": [12, 18, 14], "backdrop_path": "/ubddkoDKa4dTayX1GHLf9nDKH4I.jpg", "adult": false, "overview": "In a hospital on the outskirts of 1920s Los Angeles, an injured stuntman begins to tell a fellow patient, a little girl with a broken arm, a fantastic story about 5 mythical heroes. Thanks to his fractured state of mind and her vivid imagination, the line between fiction and reality starts to blur as the tale advances.", "poster_path": "/gUex3Twn97Jp8F27Op1r7OnMTFt.jpg", "popularity": 9.297}, {"adult": false, "backdrop_path": "/l12fY9m8FxtRUAlB837cGN6Uu5j.jpg", "genre_ids": [35, 28], "id": 252168, "original_language": "cn", "original_title": "\u8ced\u57ce\u98a8\u96f2", "overview": "The world renowned \u201cInvincible Hand\u201d Ken could identify not only mahjong tiles, but also cards with his fingers which had made him a legend. Upon his retirement as the Chief Security Consultant in Las Vegas, Ken returned to his hometown Macau, where he met his old friend Benz, and Benz\u2019s son Cool and nephew Karl. Both Cool and Karl wanted to follow Ken. Ken claimed that if Cool could successfully cheat him once or win over him, he would then accept Cool as his prot\u00e9g\u00e9. Cool\u2019s step brother Lionel, an undercover agent, had disguised his identity in an international gambling mafia which had planned to form an alliance with mafias in illegal gambling from all over the world to control the result of soccer matches. Lionel had recorded the entire conference, with the criminal evidence kept in an imitated eye. The eye was coincidentally given to Rainbow, Ken\u2019s only daughter, which put her in danger. The retired Ken was forced to use his \u201cMagic Hand\u201d once again to uncover the evil plan\u2026", "poster_path": "/26AJkFe51ctVBLJrF2135OzzfGx.jpg", "release_date": "2014-01-30", "title": "From Vegas to Macau", "video": false, "vote_average": 4.9, "vote_count": 25, "popularity": 5.043}, {"id": 14064, "video": false, "vote_count": 30, "vote_average": 7.1, "title": "Ten Canoes", "release_date": "2006-06-29", "original_language": "en", "original_title": "Ten Canoes", "genre_ids": [12, 35, 18], "backdrop_path": "/a6EdKjafiVBQXCHgwjEU8H6Ces4.jpg", "adult": false, "overview": "A story within a story within a story. In Australia's Northern Territory, an Aboriginal narrator tells a story about his ancestors on a goose hunt. A youngster on the hunt is being tempted to adultery with his elder brother's wife, so an elder tells him a story from the mythical past about how evil can slip in and cause havoc unless prevented by virtue according to customary tribal law.", "poster_path": "/eIYjI4dZzdajybjkj2EYIAOK8w8.jpg", "popularity": 3.882}, {"id": 339274, "video": false, "vote_count": 70, "vote_average": 6.6, "title": "Tamasha", "release_date": "2015-11-27", "original_language": "hi", "original_title": "\u0924\u092e\u093e\u0936\u093e", "genre_ids": [35, 18, 10749], "backdrop_path": "/toO8oe8ekxBikiAiSfypoNMLViD.jpg", "adult": false, "overview": "Ved and Tara meet accidentally meet in Corsica, France and decide to spend the next 7 days together with secretly revealing their true identity or without any promise to meet later, ever. Tara eventually falls in love with Ved and goes to find Ved after 4 years, and helps him to find his true story where he belongs.", "poster_path": "/8Ktf15qGVFYQ6CdBtBgCDM96UMC.jpg", "popularity": 5.803}, {"adult": false, "backdrop_path": "/rm2ORmm64TEA5wHisHgwsKsD9Hm.jpg", "genre_ids": [35], "id": 89899, "original_language": "fr", "original_title": "Les infid\u00e8les", "overview": "Eight short films explore the subject of male infidelity. Serial cheaters, Fred and Greg, spend a night on the town doing what they do best, and with absolutely no regrets. The duo play various characters in assorted extracurricular situations, ranging from sexist to the darker sides of carnal desires.", "poster_path": "/hT5A8SjbA8MDCQXR4Upw5ga31Aw.jpg", "release_date": "2012-02-29", "title": "The Players", "video": false, "vote_average": 4.7, "vote_count": 440, "popularity": 7.765}, {"id": 43003, "video": false, "vote_count": 157, "vote_average": 7.5, "title": "F for Fake", "release_date": "1975-03-12", "original_language": "fr", "original_title": "V\u00e9rit\u00e9s et Mensonges", "genre_ids": [99], "backdrop_path": "/uHEFPDTQ0CEq9Qlm62IFY5ukZfA.jpg", "adult": false, "overview": "Documents the lives of infamous fakers Elmyr de Hory and Clifford Irving. De Hory, who later committed suicide to avoid more prison time, made his name by selling forged works of art by painters like Picasso and Matisse. Irving was infamous for writing a fake autobiography of Howard Hughes. Welles moves between documentary and fiction as he examines the fundamental elements of fraud and the people who commit fraud at the expense of others.", "poster_path": "/9Kh39gLE5XErkPmn5nZrPJXNabb.jpg", "popularity": 7.713}, {"adult": false, "backdrop_path": "/71BzkJ1YIsjdULxkZajfbBlThUg.jpg", "genre_ids": [27, 53, 9648], "id": 28363, "original_language": "en", "original_title": "The Mad Magician", "overview": "Don Gallico is an inventor of stage magic effects who aspires to become a star in his own right. Just before his first performance his act is shut down by capricious manager Ross Ormond who wants Gallico's brilliant buzz saw effect for the act of The Great Rinaldi, an established star. With this defeat, and the humiliation of having already lost his wife Claire to Ormond, Gallico decides it is time to take matters into his own hands.", "poster_path": "/2RQrQkbtn1TszJLWQTNW0HlQzHt.jpg", "release_date": "1954-05-19", "title": "The Mad Magician", "video": false, "vote_average": 7.0, "vote_count": 19, "popularity": 4.606}, {"id": 23506, "video": false, "vote_count": 44, "vote_average": 5.0, "title": "The Wizard of Gore", "release_date": "1970-10-23", "original_language": "en", "original_title": "The Wizard of Gore", "genre_ids": [27], "backdrop_path": "/mc0AliG8xI0JMg4sOPeLeQSIyLN.jpg", "adult": false, "overview": "A TV talk-show hostess and her boyfriend investigate a shady magician whom has the ability to hypnotize and control the thoughts of people in order to stage gory on-stage illusions using his powers of mind bending.", "poster_path": "/iwxy0zDWuESfjsba0llIhmREpDb.jpg", "popularity": 5.218}], "total_pages": 4, "total_results": 64}, "recommendations": {"page": 1, "results": [], "total_pages": 1, "total_results": 0}, "credits": {"cast": [{"cast_id": 0, "character": "", "credit_id": "56758c1792514179dd002e62", "gender": 0, "id": 1530758, "name": "Saeed Aghakhani", "order": 1, "profile_path": "/A1FNmZPE8CKcNHIfIwm5W5wv4vD.jpg"}, {"cast_id": 1, "character": "", "credit_id": "56758c2d92514179d7002e99", "gender": 0, "id": 1345985, "name": "Golab Adineh", "order": 2, "profile_path": "/caNUkahyCCNMXdue09cpChs4j1N.jpg"}, {"cast_id": 2, "character": "", "credit_id": "56758c38c3a3681683002f81", "gender": 1, "id": 213373, "name": "Vishka Asayesh", "order": 3, "profile_path": "/vbE6d9qFDUVz0sudjjE0wgICxNt.jpg"}, {"cast_id": 3, "character": "", "credit_id": "56758c99c3a3681683002f89", "gender": 2, "id": 1115021, "name": "Babak Hamidian", "order": 4, "profile_path": "/tXjVMWOMjVnbrBMmQ5obcPCMysp.jpg"}, {"cast_id": 5, "character": "", "credit_id": "56758d1192514179e1002f94", "gender": 2, "id": 1308245, "name": "Hooman Seyedi", "order": 6, "profile_path": "/a4y7OSngdpsqQKhUKFVrwUrS6rQ.jpg"}, {"cast_id": 6, "character": "", "credit_id": "56758d24c3a368167a00309e", "gender": 2, "id": 1265705, "name": "Saber Abar", "order": 7, "profile_path": "/yVdLKOQoNKQIGi8EfF7qlGYH0tV.jpg"}, {"cast_id": 12, "character": "", "credit_id": "5c4ca775c3a368478c90aa09", "gender": 0, "id": 1446498, "name": "Jamshid Hashempour", "order": 8, "profile_path": "/tKSsipx3ozIQQwrOIuZE563VAsy.jpg"}, {"cast_id": 13, "character": "", "credit_id": "5c4ca782c3a3684777904412", "gender": 0, "id": 1674846, "name": "Sara Bahrami", "order": 9, "profile_path": "/kLmgPzp6yu4svZuUSf6oxgJbz7e.jpg"}, {"cast_id": 14, "character": "", "credit_id": "5c4ca7959251410e0a5a86cd", "gender": 0, "id": 1694502, "name": "Pantea Panahiha", "order": 10, "profile_path": null}, {"cast_id": 15, "character": "", "credit_id": "5c4ca82d9251410e1b5ab0f6", "gender": 0, "id": 1694503, "name": "Mahsa Alafar", "order": 11, "profile_path": null}], "crew": [{"credit_id": "56758d53c3a368167c003148", "department": "Directing", "gender": 0, "id": 1289938, "job": "Director", "name": "Bahram Tavakoli", "profile_path": null}, {"credit_id": "56758d7ec3a368167a0030aa", "department": "Editing", "gender": 0, "id": 545098, "job": "Editor", "name": "Bahram Dehghani", "profile_path": null}, {"credit_id": "56758dcc92514179d2003167", "department": "Crew", "gender": 0, "id": 1551172, "job": "Sound Recordist", "name": "Mahmood Samak Bashi", "profile_path": null}, {"credit_id": "56758dee92514179d200316c", "department": "Crew", "gender": 0, "id": 1427234, "job": "Sound Recordist", "name": "Reza Tehrani", "profile_path": null}, {"credit_id": "56758e3c92514179e1002fad", "department": "Camera", "gender": 0, "id": 1551173, "job": "Camera Supervisor", "name": "Homan Behmanesh", "profile_path": null}]}}