{"adult": false, "backdrop_path": "/kJ0UHnXwJN1nzJ7Tc7qUa6I82vM.jpg", "belongs_to_collection": null, "budget": 0, "genres": [{"id": 28, "name": "Action"}, {"id": 37, "name": "Western"}], "homepage": "", "id": 37348, "imdb_id": "tt0329390", "original_language": "en", "original_title": "Monte Walsh", "overview": "Monte Walsh and Chet Rollins are long-time cowhands, working whatever ranch work comes their way, but \"nothing they can't do from a horse.\" Their lives are divided between months on the range and the occasional trip into town. Monte has a long-term relationship with prostitute Martine Bernard, while Chet has fallen under the spell of the widow who owns the hardware store. Camaraderie and competition with the other cowboys fill their days, until one of the hands, Shorty Austin, loses his job and gets involved in rustling and killing. Then Monte and Chet find that their lives on the range are inexorably redirected.", "popularity": 4.544, "poster_path": "/q9ccnCy0zvV0nPxSBbqYfpmA2TY.jpg", "production_companies": [{"id": 3025, "logo_path": null, "name": "Brandman Productions", "origin_country": ""}, {"id": 12014, "logo_path": null, "name": "TWS Productions II", "origin_country": ""}, {"id": 678, "logo_path": "/hCImnJW7NK5c5HoEsCFtsleAaKw.png", "name": "Turner Network Television", "origin_country": "US"}], "production_countries": [{"iso_3166_1": "US", "name": "United States of America"}], "release_date": "2003-01-17", "revenue": 0, "runtime": 117, "spoken_languages": [{"iso_639_1": "en", "name": "English"}], "status": "Released", "tagline": "", "title": "Monte Walsh", "video": false, "vote_average": 5.8, "vote_count": 13, "keywords": {"keywords": [{"id": 818, "name": "based on novel or book"}, {"id": 1582, "name": "saloon"}, {"id": 2752, "name": "ranch"}]}, "similar": {"page": 1, "results": [{"adult": false, "backdrop_path": "/kiWvoV78Cc3fUwkOHKzyBgVdrDD.jpg", "genre_ids": [37, 18, 12], "id": 281957, "original_language": "en", "original_title": "The Revenant", "overview": "In the 1820s, a frontiersman, Hugh Glass, sets out on a path of vengeance against those who left him for dead after a bear mauling.", "poster_path": "/oXUWEc5i3wYyFnL1Ycu8ppxxPvs.jpg", "release_date": "2015-12-25", "title": "The Revenant", "video": false, "vote_average": 7.5, "vote_count": 12122, "popularity": 30.491}, {"adult": false, "backdrop_path": "/sRJjliXA7ZqHCr7HCK0ZB83xxjr.jpg", "genre_ids": [12, 28, 878], "id": 101299, "original_language": "en", "original_title": "The Hunger Games: Catching Fire", "overview": "Katniss Everdeen has returned home safe after winning the 74th Annual Hunger Games along with fellow tribute Peeta Mellark. Winning means that they must turn around and leave their family and close friends, embarking on a \"Victor's Tour\" of the districts. Along the way Katniss senses that a rebellion is simmering, but the Capitol is still very much in control as President Snow prepares the 75th Annual Hunger Games (The Quarter Quell) - a competition that could change Panem forever.", "poster_path": "/Hn0KgefVEp0GkdTexS6gfKTMfi.jpg", "release_date": "2013-11-15", "title": "The Hunger Games: Catching Fire", "video": false, "vote_average": 7.4, "vote_count": 12024, "popularity": 30.047}, {"adult": false, "backdrop_path": "/bvbyidkMaBls1LTaIWYY6UmYTaL.jpg", "genre_ids": [28, 878], "id": 336843, "original_language": "en", "original_title": "Maze Runner: The Death Cure", "overview": "Thomas leads his group of escaped Gladers on their final and most dangerous mission yet. To save their friends, they must break into the legendary Last City, a WCKD-controlled labyrinth that may turn out to be the deadliest maze of all. Anyone who makes it out alive will get answers to the questions the Gladers have been asking since they first arrived in the maze.", "poster_path": "/2zYfzA3TBwrMC8tfFbpiTLODde0.jpg", "release_date": "2018-01-10", "title": "Maze Runner: The Death Cure", "video": false, "vote_average": 7.0, "vote_count": 4393, "popularity": 24.242}, {"adult": false, "backdrop_path": "/fewP7EsMEnfqqcx4qYHKSKebwkF.jpg", "genre_ids": [28, 18, 36], "id": 2669, "original_language": "en", "original_title": "The Bounty", "overview": "The familiar story of Lieutenant Bligh, whose cruelty leads to a mutiny on his ship. This version follows both the efforts of Fletcher Christian to get his men beyond the reach of British retribution, and the epic voyage of Lieutenant Bligh to get his loyalists safely to East Timor in a tiny lifeboat.", "poster_path": "/hXFXIc6F4NXI5emWCKcUwqEPjIZ.jpg", "release_date": "1984-05-04", "title": "The Bounty", "video": false, "vote_average": 6.7, "vote_count": 246, "popularity": 11.928}, {"adult": false, "backdrop_path": "/3uwyXMZN93PRkShUxvLrufwVAc2.jpg", "genre_ids": [80, 18, 27, 9648, 53], "id": 452507, "original_language": "en", "original_title": "1922", "overview": "A simple yet proud rancher conspires to murder his wife for financial gain, convincing his teenage son to participate.", "poster_path": "/q4FQOiSRhTLWulHl5Vpg37FMArH.jpg", "release_date": "2017-10-20", "title": "1922", "video": false, "vote_average": 5.9, "vote_count": 1489, "popularity": 10.541}, {"adult": false, "backdrop_path": "/GRyynLqafMrLFMHqvfGdUweavA.jpg", "genre_ids": [27, 18, 14], "id": 628, "original_language": "en", "original_title": "Interview with the Vampire", "overview": "A vampire relates his epic life story of love, betrayal, loneliness, and dark hunger to an over-curious reporter.", "poster_path": "/hldXwwViSfHJS0kIJr07KBGmHJI.jpg", "release_date": "1994-11-11", "title": "Interview with the Vampire", "video": false, "vote_average": 7.3, "vote_count": 3229, "popularity": 20.093}, {"adult": false, "backdrop_path": "/sw7mordbZxgITU877yTpZCud90M.jpg", "genre_ids": [18, 80], "id": 769, "original_language": "en", "original_title": "GoodFellas", "overview": "The true story of Henry Hill, a half-Irish, half-Sicilian Brooklyn kid who is adopted by neighbourhood gangsters at an early age and climbs the ranks of a Mafia family under the guidance of Jimmy Conway.", "poster_path": "/pwpGfTImTGifEGgLb3s6LRPd4I6.jpg", "release_date": "1990-09-12", "title": "GoodFellas", "video": false, "vote_average": 8.4, "vote_count": 6553, "popularity": 33.23}, {"id": 205775, "video": false, "vote_count": 2361, "vote_average": 6.6, "title": "In the Heart of the Sea", "release_date": "2015-11-20", "original_language": "en", "original_title": "In the Heart of the Sea", "genre_ids": [28, 12, 18, 36, 53], "backdrop_path": "/aZoZ0NglXgiBMToem9HhTAYYamw.jpg", "adult": false, "overview": "In the winter of 1820, the New England whaling ship Essex is assaulted by something no one could believe\u2014a whale of mammoth size and will, and an almost human sense of vengeance.", "poster_path": "/zVmWh0Zfg4UhbvdGI8LQrn1lQZJ.jpg", "popularity": 19.825}, {"id": 75780, "video": false, "vote_count": 4450, "vote_average": 6.4, "title": "Jack Reacher", "release_date": "2012-12-20", "original_language": "en", "original_title": "Jack Reacher", "genre_ids": [28, 80, 18, 53], "backdrop_path": "/ezXodpP429qK0Av89pVNlaXWJkQ.jpg", "adult": false, "overview": "When a gunman takes five lives with six shots, all evidence points to the suspect in custody. On interrogation, the suspect offers up a single note: \"Get Jack Reacher!\" So begins an extraordinary chase for the truth, pitting Jack Reacher against an unexpected enemy, with a skill for violence and a secret to keep.", "poster_path": "/mt0ELw83HIRgaKaDzhsDcIi0RnW.jpg", "popularity": 19.929}, {"id": 123553, "video": false, "vote_count": 3198, "vote_average": 6.3, "title": "The Mortal Instruments: City of Bones", "release_date": "2013-08-21", "original_language": "en", "original_title": "The Mortal Instruments: City of Bones", "genre_ids": [28, 12, 18, 14, 9648, 10749], "backdrop_path": "/xIisiN3GxiOMpYQOYarzWlgpDNT.jpg", "adult": false, "overview": "In New York City, Clary Fray, a seemingly ordinary teenager, learns that she is descended from a line of Shadowhunters \u2014 half-angel warriors who protect humanity from evil forces. After her mother disappears, Clary joins forces with a group of Shadowhunters and enters Downworld, an alternate realm filled with demons, vampires, and a host of other creatures. Clary and her companions must find and protect an ancient cup that holds the key to her mother's future.", "poster_path": "/xOBuyMuqc5lDNfxz6ipFjrxd38X.jpg", "popularity": 23.503}, {"adult": false, "backdrop_path": "/g6WT9zxATzTy9NVu2xwbxDAxvjd.jpg", "genre_ids": [28, 12, 878], "id": 157350, "original_language": "en", "original_title": "Divergent", "overview": "In a world divided into factions based on personality types, Tris learns that she's been classified as Divergent and won't fit in. When she discovers a plot to destroy Divergents, Tris and the mysterious Four must find out what makes Divergents dangerous before it's too late.", "poster_path": "/yTtx2ciqk4XdN1oKhMMDy3f5ue3.jpg", "release_date": "2014-03-14", "title": "Divergent", "video": false, "vote_average": 6.9, "vote_count": 8979, "popularity": 25.41}, {"id": 198663, "video": false, "vote_count": 11444, "vote_average": 7.1, "title": "The Maze Runner", "release_date": "2014-09-10", "original_language": "en", "original_title": "The Maze Runner", "genre_ids": [28, 9648, 878, 53], "backdrop_path": "/lkOZcsXcOLZYeJ2YxJd3vSldvU4.jpg", "adult": false, "overview": "Set in a post-apocalyptic world, young Thomas is deposited in a community of boys after his memory is erased, soon learning they're all trapped in a maze that will require him to join forces with fellow \u201crunners\u201d for a shot at escape.", "poster_path": "/coss7RgL0NH6g4fC2s5atvf3dFO.jpg", "popularity": 51.629}, {"id": 262500, "video": false, "vote_count": 7268, "vote_average": 6.3, "title": "Insurgent", "release_date": "2015-03-18", "original_language": "en", "original_title": "Insurgent", "genre_ids": [28, 12, 878, 53], "backdrop_path": "/xOKGkKwfK79xjmBd1EiIbPpc71k.jpg", "adult": false, "overview": "Beatrice Prior must confront her inner demons and continue her fight against a powerful alliance which threatens to tear her society apart.", "poster_path": "/6w1VjTPTjTaA5oNvsAg0y4H6bou.jpg", "popularity": 37.333}, {"id": 294254, "video": false, "vote_count": 6847, "vote_average": 6.6, "title": "Maze Runner: The Scorch Trials", "release_date": "2015-09-09", "original_language": "en", "original_title": "Maze Runner: The Scorch Trials", "genre_ids": [28, 878, 53], "backdrop_path": "/iapRFMGKvN9tsjqPlN7MIDTCezG.jpg", "adult": false, "overview": "Thomas and his fellow Gladers face their greatest challenge yet: searching for clues about the mysterious and powerful organization known as WCKD. Their journey takes them to the Scorch, a desolate landscape filled with unimaginable obstacles. Teaming up with resistance fighters, the Gladers take on WCKD\u2019s vastly superior forces and uncover its shocking plans for them all.", "poster_path": "/vlTPQANjLYTebzFJM1G4KeON0cb.jpg", "popularity": 24.153}, {"id": 300671, "video": false, "vote_count": 1700, "vote_average": 7.1, "title": "13 Hours: The Secret Soldiers of Benghazi", "release_date": "2016-01-13", "original_language": "en", "original_title": "13 Hours: The Secret Soldiers of Benghazi", "genre_ids": [28, 18, 36, 53, 10752], "backdrop_path": "/hY8myWhjSOUeeiPskhOfwwgaCwc.jpg", "adult": false, "overview": "An American Ambassador is killed during an attack at a U.S. compound in Libya as a security team struggles to make sense out of the chaos.", "poster_path": "/4gpW4MkRI0BB17GHOJzXq0WamDP.jpg", "popularity": 21.078}, {"adult": false, "backdrop_path": "/9IfO3W1MUzDdpBqY1Ru6dzdJJld.jpg", "genre_ids": [18, 36, 10752, 28], "id": 2024, "original_language": "en", "original_title": "The Patriot", "overview": "After proving himself on the field of battle in the French and Indian War, Benjamin Martin wants nothing more to do with such things, preferring the simple life of a farmer. But when his son Gabriel enlists in the army to defend their new nation, America, against the British, Benjamin reluctantly returns to his old life to protect his son.", "poster_path": "/tgXOraQmKatqrVs2KMgnNn6QpO.jpg", "release_date": "2000-06-28", "title": "The Patriot", "video": false, "vote_average": 7.1, "vote_count": 2185, "popularity": 21.897}, {"id": 49529, "video": false, "vote_count": 3605, "vote_average": 6.1, "title": "John Carter", "release_date": "2012-03-07", "original_language": "en", "original_title": "John Carter", "genre_ids": [28, 12, 878], "backdrop_path": "/2eDepJWMMBHmZ7pt9MSqzGQeoDc.jpg", "adult": false, "overview": "John Carter is a war-weary, former military captain who's inexplicably transported to the mysterious and exotic planet of Barsoom (Mars) and reluctantly becomes embroiled in an epic conflict. It's a world on the brink of collapse, and Carter rediscovers his humanity when he realizes the survival of Barsoom and its people rests in his hands.", "poster_path": "/4QDBNt9PmxqUH4Ab2R5xKWqzXiQ.jpg", "popularity": 23.766}, {"id": 146, "video": false, "vote_count": 1770, "vote_average": 7.3, "title": "Crouching Tiger, Hidden Dragon", "release_date": "2000-07-06", "original_language": "zh", "original_title": "\u5367\u864e\u85cf\u9f99", "genre_ids": [28, 12, 18, 10749], "backdrop_path": "/dKenGLffFC9HwuxG4Sq7fJRkiFb.jpg", "adult": false, "overview": "Two warriors in pursuit of a stolen sword and a notorious fugitive are led to an impetuous, physically-skilled, teenage nobleman's daughter, who is at a crossroads in her life.", "poster_path": "/3yYPhffQRuy45HlNabFxNLyP9mg.jpg", "popularity": 17.675}, {"id": 429351, "video": false, "vote_count": 1511, "vote_average": 5.8, "title": "12 Strong", "release_date": "2018-01-16", "original_language": "en", "original_title": "12 Strong", "genre_ids": [28, 18, 36, 10752], "backdrop_path": "/x5EUEv1N9g4BCX9GQXKvv3nqMVo.jpg", "adult": false, "overview": "A team of CIA agents and special forces head into Afghanistan in the aftermath of the September 11th attacks in an attempt to dismantle the Taliban.", "poster_path": "/j18021qCeRi3yUBtqd2UFj1c0RQ.jpg", "popularity": 20.439}, {"id": 131634, "video": false, "vote_count": 8187, "vote_average": 6.9, "title": "The Hunger Games: Mockingjay - Part 2", "release_date": "2015-11-18", "original_language": "en", "original_title": "The Hunger Games: Mockingjay - Part 2", "genre_ids": [28, 12, 878], "backdrop_path": "/qjn3fzCAHGfl0CzeUlFbjrsmu4c.jpg", "adult": false, "overview": "With the nation of Panem in a full scale war, Katniss confronts President Snow in the final showdown. Teamed with a group of her closest friends \u2013 including Gale, Finnick, and Peeta \u2013 Katniss goes off on a mission with the unit from District 13 as they risk their lives to stage an assassination attempt on President Snow who has become increasingly obsessed with destroying her. The mortal traps, enemies, and moral choices that await Katniss will challenge her more than any arena she faced in The Hunger Games.", "poster_path": "/w93GAiq860UjmgR6tU9h2T24vaV.jpg", "popularity": 30.493}], "total_pages": 410, "total_results": 8188}, "recommendations": {"page": 1, "results": [{"adult": false, "backdrop_path": "/jX8nstxSkyAFMLHxtRJ5vUlF70j.jpg", "genre_ids": [18], "id": 43438, "original_language": "en", "original_title": "The Rocking Horse Winner", "overview": "A strange and ultimately tragic tale of a young boy who learns how to pick winners at the racetrack by riding his rocking horse to aid his parents out of their endless round of debts.", "poster_path": "/bWwCkP374FFd6Sx9ZI1Srybyb8c.jpg", "release_date": "1949-11-30", "title": "The Rocking Horse Winner", "video": false, "vote_average": 6.1, "vote_count": 8, "popularity": 3.075}, {"id": 35381, "video": false, "vote_count": 13, "vote_average": 6.3, "title": "Crossfire Trail", "release_date": "2001-01-21", "original_language": "en", "original_title": "Crossfire Trail", "genre_ids": [28, 18, 53, 37, 10749, 10770], "backdrop_path": "/vgDZiKJns6F6NdCWTFxCiusATm7.jpg", "adult": false, "overview": "Rafe Covington is as good as his word, and he's determined to keep his promise to a dying man that he'll look after the man's widow and Wyoming ranch. But the widow doubts the integrity of drifter Covington. And an unscrupulous land grabber and his gunmen are sizing up the ranch the way a spider eyes a fly.", "poster_path": "/nWFOBdMabfDUF5Qk8wEPNy9hpAR.jpg", "popularity": 6.73}], "total_pages": 1, "total_results": 2}, "credits": {"cast": [{"cast_id": 4, "character": "Monte Walsh", "credit_id": "52fe46419251416c9104e76d", "gender": 2, "id": 15112, "name": "Tom Selleck", "order": 0, "profile_path": "/jCnmP0qYpCwWdVlZM4j9VNugmTj.jpg"}, {"cast_id": 5, "character": "'Countess' Martine", "credit_id": "52fe46419251416c9104e771", "gender": 1, "id": 6588, "name": "Isabella Rossellini", "order": 1, "profile_path": "/wY9gXByrcpvvErqg2gMdLsFnaeb.jpg"}, {"cast_id": 6, "character": "Chester 'Chet' Rollins", "credit_id": "52fe46419251416c9104e775", "gender": 2, "id": 30613, "name": "Keith Carradine", "order": 2, "profile_path": "/b2GbGSrgb6twTdjfvUK4y0WrIjx.jpg"}, {"cast_id": 7, "character": "Frank 'Shorty' Austin", "credit_id": "52fe46419251416c9104e779", "gender": 2, "id": 117484, "name": "George Eads", "order": 3, "profile_path": "/fBvMhnzAJTdqRVXlrOCL9sXJLbo.jpg"}, {"cast_id": 8, "character": "Sunfish Perkins", "credit_id": "52fe46419251416c9104e77d", "gender": 2, "id": 62036, "name": "Robert Carradine", "order": 4, "profile_path": "/bHC0DdCEJ3frEWADFnTnftSmdgF.jpg"}, {"cast_id": 9, "character": "Bob the Storekeeper", "credit_id": "52fe46419251416c9104e781", "gender": 2, "id": 12852, "name": "Barry Corbin", "order": 5, "profile_path": "/38AilHla20EFhEYAqoz6EzfsrQf.jpg"}, {"cast_id": 25, "character": "Fighting Joe Hooker / Albert Miller", "credit_id": "52fe46419251416c9104e7d9", "gender": 2, "id": 16433, "name": "James Gammon", "order": 6, "profile_path": "/4oTidbjDQ8XU3LHot249SMlVLn4.jpg"}, {"cast_id": 26, "character": "Hat Henderson", "credit_id": "52fe46419251416c9104e7dd", "gender": 2, "id": 16937, "name": "Rex Linn", "order": 7, "profile_path": "/2ze2PNirf4vle9sWRkSxHgv1iH0.jpg"}, {"cast_id": 27, "character": "Robert Slocum", "credit_id": "52fe46419251416c9104e7e1", "gender": 2, "id": 8265, "name": "John Michael Higgins", "order": 8, "profile_path": "/91ANQZVoG0Xg2vVnqIhouHiNc4J.jpg"}, {"cast_id": 28, "character": "Skimpy Eagens", "credit_id": "52fe46419251416c9104e7e5", "gender": 2, "id": 590, "name": "William Sanderson", "order": 9, "profile_path": "/vR2EnhcPUqkIeXmHf10Sokeuw1J.jpg"}, {"cast_id": 29, "character": "Colonel Wilson", "credit_id": "52fe46419251416c9104e7e9", "gender": 2, "id": 12900, "name": "Wallace Shawn", "order": 10, "profile_path": "/oGE6JqPP2xH4tNORKNqxbNPYi7u.jpg"}, {"cast_id": 30, "character": "Wallace 'Dally' Johnson", "credit_id": "52fe46419251416c9104e7ed", "gender": 2, "id": 63941, "name": "Marshall R. Teague", "order": 11, "profile_path": "/qRDCvSWg76O071pggoGeru30SGk.jpg"}, {"cast_id": 31, "character": "Henry Louis 'Sugar' Wyman", "credit_id": "52fe46419251416c9104e7f1", "gender": 2, "id": 65730, "name": "Rick Ravanello", "order": 12, "profile_path": "/tQqdbPyol2awlcZhlouaYqtO6YB.jpg"}, {"cast_id": 32, "character": "Sairy Brennan", "credit_id": "52fe46419251416c9104e7f5", "gender": 1, "id": 106765, "name": "Joanna Miles", "order": 13, "profile_path": "/pLxo4VRibbJWjWkjuudGQPYWPSX.jpg"}, {"cast_id": 33, "character": "Mrs. Mary Wilder", "credit_id": "52fe46419251416c9104e7f9", "gender": 1, "id": 44203, "name": "Lori Hallier", "order": 14, "profile_path": "/e6CmRRFMm6QwVOaH8W5XbB9BriP.jpg"}, {"cast_id": 34, "character": "Cal Brennan", "credit_id": "52fe46419251416c9104e7fd", "gender": 2, "id": 21416, "name": "William Devane", "order": 15, "profile_path": "/7MGLsJXn3URkYeZzqzAcgpYXFum.jpg"}], "crew": [{"credit_id": "52fe46419251416c9104e7d5", "department": "Production", "gender": 1, "id": 546, "job": "Casting", "name": "Jeanne McCarthy", "profile_path": null}, {"credit_id": "52fe46419251416c9104e7c3", "department": "Editing", "gender": 2, "id": 10393, "job": "Editor", "name": "Alan Baumgarten", "profile_path": null}, {"credit_id": "52fe46419251416c9104e7c9", "department": "Production", "gender": 1, "id": 14377, "job": "Casting", "name": "Juel Bestrop", "profile_path": null}, {"credit_id": "52fe46419251416c9104e78d", "department": "Writing", "gender": 0, "id": 14941, "job": "Teleplay", "name": "David Zelag Goodman", "profile_path": null}, {"credit_id": "52fe46419251416c9104e7ab", "department": "Production", "gender": 2, "id": 15112, "job": "Executive Producer", "name": "Tom Selleck", "profile_path": "/jCnmP0qYpCwWdVlZM4j9VNugmTj.jpg"}, {"credit_id": "52fe46419251416c9104e75d", "department": "Directing", "gender": 2, "id": 18254, "job": "Director", "name": "Simon Wincer", "profile_path": "/wikOUmNuvWJHcOU8EHjFHXUhafQ.jpg"}, {"credit_id": "52fe46419251416c9104e793", "department": "Writing", "gender": 0, "id": 21600, "job": "Teleplay", "name": "Lukas Heller", "profile_path": null}, {"credit_id": "52fe46419251416c9104e787", "department": "Writing", "gender": 2, "id": 19451, "job": "Teleplay", "name": "Robert B. Parker", "profile_path": null}, {"credit_id": "52fe46419251416c9104e7bd", "department": "Camera", "gender": 2, "id": 28240, "job": "Director of Photography", "name": "David Eggby", "profile_path": "/6NUKQYAcB5ql7xXoXVeHG4Jk0O8.jpg"}, {"credit_id": "52fe46419251416c9104e763", "department": "Writing", "gender": 2, "id": 30506, "job": "Novel", "name": "Jack Schaefer", "profile_path": null}, {"credit_id": "52fe46419251416c9104e7cf", "department": "Production", "gender": 0, "id": 61108, "job": "Casting", "name": "Blythe Cappello", "profile_path": null}, {"credit_id": "52fe46419251416c9104e7b7", "department": "Sound", "gender": 2, "id": 62358, "job": "Original Music Composer", "name": "Eric Colvin", "profile_path": "/l5d9FysPN1Pd0DBIg89ia5bqRnr.jpg"}, {"credit_id": "52fe46419251416c9104e7b1", "department": "Production", "gender": 2, "id": 76018, "job": "Executive Producer", "name": "Bobby Roberts", "profile_path": null}, {"credit_id": "52fe46419251416c9104e7a5", "department": "Production", "gender": 2, "id": 117483, "job": "Executive Producer", "name": "Michael Brandman", "profile_path": null}, {"credit_id": "52fe46419251416c9104e769", "department": "Writing", "gender": 2, "id": 117483, "job": "Teleplay", "name": "Michael Brandman", "profile_path": null}, {"credit_id": "52fe46419251416c9104e803", "department": "Art", "gender": 2, "id": 543201, "job": "Production Design", "name": "Rick Roberts", "profile_path": null}, {"credit_id": "52fe46419251416c9104e799", "department": "Production", "gender": 2, "id": 948526, "job": "Producer", "name": "Steven J. Brandman", "profile_path": null}, {"credit_id": "52fe46419251416c9104e79f", "department": "Production", "gender": 0, "id": 1125546, "job": "Producer", "name": "John Albanis", "profile_path": null}, {"credit_id": "5bb66aa9c3a368150c017e4a", "department": "Sound", "gender": 2, "id": 2141653, "job": "Music Editor", "name": "James Burt", "profile_path": null}]}}