{"adult": false, "backdrop_path": "/dFvTG9kh580Bbznw1zaWqXO4qGX.jpg", "belongs_to_collection": null, "budget": 0, "genres": [{"id": 18, "name": "Drama"}, {"id": 10751, "name": "Family"}], "homepage": null, "id": 37373, "imdb_id": "tt0050549", "original_language": "en", "original_title": "Island in the Sun", "overview": "Set on a fictitious island in the Carribean during colonial British rule. It focuses on the life of a young charismatic and handsome black male with political aspirations. He finds himself confused on returning home when his romantic liaison with a white female tends to conflict with his political views. As rumor has it an interracial screen kiss caused quite a commotion in the U.S. when the film was released. The plot is further strengthened by a look at the lives of a white ex-pat family also living on the island. The family has to deal with problems of infidelity, racism and murder.", "popularity": 3.812, "poster_path": "/mf5NbSDEUjuAVoYpcXZghz7YaCF.jpg", "production_companies": [{"id": 13630, "logo_path": null, "name": "Darryl F. Zanuck Productions", "origin_country": ""}, {"id": 25, "logo_path": "/qZCc1lty5FzX30aOCVRBLzaVmcp.png", "name": "20th Century Fox", "origin_country": "US"}], "production_countries": [{"iso_3166_1": "US", "name": "United States of America"}], "release_date": "1957-06-12", "revenue": 0, "runtime": 119, "spoken_languages": [{"iso_639_1": "en", "name": "English"}], "status": "Released", "tagline": "The place is the West Indies \u2026 the sun hides many things.", "title": "Island in the Sun", "video": false, "vote_average": 5.8, "vote_count": 4, "keywords": {"keywords": [{"id": 818, "name": "based on novel or book"}, {"id": 10131, "name": "interracial relationship"}, {"id": 167861, "name": "caribbean sea"}, {"id": 241927, "name": "race relations"}]}, "similar": {"page": 1, "results": [{"adult": false, "backdrop_path": "/kiWvoV78Cc3fUwkOHKzyBgVdrDD.jpg", "genre_ids": [37, 18, 12], "id": 281957, "original_language": "en", "original_title": "The Revenant", "overview": "In the 1820s, a frontiersman, Hugh Glass, sets out on a path of vengeance against those who left him for dead after a bear mauling.", "poster_path": "/oXUWEc5i3wYyFnL1Ycu8ppxxPvs.jpg", "release_date": "2015-12-25", "title": "The Revenant", "video": false, "vote_average": 7.5, "vote_count": 12122, "popularity": 30.491}, {"adult": false, "backdrop_path": "/GRyynLqafMrLFMHqvfGdUweavA.jpg", "genre_ids": [27, 18, 14], "id": 628, "original_language": "en", "original_title": "Interview with the Vampire", "overview": "A vampire relates his epic life story of love, betrayal, loneliness, and dark hunger to an over-curious reporter.", "poster_path": "/hldXwwViSfHJS0kIJr07KBGmHJI.jpg", "release_date": "1994-11-11", "title": "Interview with the Vampire", "video": false, "vote_average": 7.3, "vote_count": 3229, "popularity": 20.093}, {"adult": false, "backdrop_path": "/sw7mordbZxgITU877yTpZCud90M.jpg", "genre_ids": [18, 80], "id": 769, "original_language": "en", "original_title": "GoodFellas", "overview": "The true story of Henry Hill, a half-Irish, half-Sicilian Brooklyn kid who is adopted by neighbourhood gangsters at an early age and climbs the ranks of a Mafia family under the guidance of Jimmy Conway.", "poster_path": "/pwpGfTImTGifEGgLb3s6LRPd4I6.jpg", "release_date": "1990-09-12", "title": "GoodFellas", "video": false, "vote_average": 8.4, "vote_count": 6553, "popularity": 33.23}, {"adult": false, "backdrop_path": "/fewP7EsMEnfqqcx4qYHKSKebwkF.jpg", "genre_ids": [28, 18, 36], "id": 2669, "original_language": "en", "original_title": "The Bounty", "overview": "The familiar story of Lieutenant Bligh, whose cruelty leads to a mutiny on his ship. This version follows both the efforts of Fletcher Christian to get his men beyond the reach of British retribution, and the epic voyage of Lieutenant Bligh to get his loyalists safely to East Timor in a tiny lifeboat.", "poster_path": "/hXFXIc6F4NXI5emWCKcUwqEPjIZ.jpg", "release_date": "1984-05-04", "title": "The Bounty", "video": false, "vote_average": 6.7, "vote_count": 246, "popularity": 11.928}, {"adult": false, "backdrop_path": "/jArl1j9sL2mYjRW23EaZKWAr2E8.jpg", "genre_ids": [18, 36], "id": 399121, "original_language": "fr", "original_title": "J\u2019accuse", "overview": "In 1894, French Captain Alfred Dreyfus is wrongfully convicted of treason and sentenced to life imprisonment at Devil's Island.", "poster_path": "/xMCJhioKlEBoWAJM9aCBKR8J3BT.jpg", "release_date": "2019-09-30", "title": "An Officer and a Spy", "video": false, "vote_average": 7.4, "vote_count": 275, "popularity": 12.138}, {"adult": false, "backdrop_path": "/sRJjliXA7ZqHCr7HCK0ZB83xxjr.jpg", "genre_ids": [12, 28, 878], "id": 101299, "original_language": "en", "original_title": "The Hunger Games: Catching Fire", "overview": "Katniss Everdeen has returned home safe after winning the 74th Annual Hunger Games along with fellow tribute Peeta Mellark. Winning means that they must turn around and leave their family and close friends, embarking on a \"Victor's Tour\" of the districts. Along the way Katniss senses that a rebellion is simmering, but the Capitol is still very much in control as President Snow prepares the 75th Annual Hunger Games (The Quarter Quell) - a competition that could change Panem forever.", "poster_path": "/Hn0KgefVEp0GkdTexS6gfKTMfi.jpg", "release_date": "2013-11-15", "title": "The Hunger Games: Catching Fire", "video": false, "vote_average": 7.4, "vote_count": 12024, "popularity": 30.047}, {"adult": false, "backdrop_path": "/bvbyidkMaBls1LTaIWYY6UmYTaL.jpg", "genre_ids": [28, 878], "id": 336843, "original_language": "en", "original_title": "Maze Runner: The Death Cure", "overview": "Thomas leads his group of escaped Gladers on their final and most dangerous mission yet. To save their friends, they must break into the legendary Last City, a WCKD-controlled labyrinth that may turn out to be the deadliest maze of all. Anyone who makes it out alive will get answers to the questions the Gladers have been asking since they first arrived in the maze.", "poster_path": "/2zYfzA3TBwrMC8tfFbpiTLODde0.jpg", "release_date": "2018-01-10", "title": "Maze Runner: The Death Cure", "video": false, "vote_average": 7.0, "vote_count": 4393, "popularity": 24.242}, {"adult": false, "backdrop_path": "/dLAPTvBwEdP4h7a14isNc0HwmOj.jpg", "genre_ids": [18, 10749], "id": 250734, "original_language": "en", "original_title": "Far from the Madding Crowd", "overview": "Based on the literary classic by Thomas Hardy. Bathsheba Everdene, attracts three very different suitors: Gabriel Oak, a sheep farmer, captivated by her fetching willfulness; Frank Troy, a handsome and reckless Sergeant; and William Boldwood, a prosperous and mature bachelor. This timeless story of Bathsheba's choices and passions explores the nature of relationships and love \u2013 as well as the human ability to overcome hardships through resilience and perseverance.", "poster_path": "/6v1DEaO2TZzrqcaGohUf1K7BXkU.jpg", "release_date": "2015-04-23", "title": "Far from the Madding Crowd", "video": false, "vote_average": 7.0, "vote_count": 643, "popularity": 14.468}, {"id": 2454, "video": false, "vote_count": 3951, "vote_average": 6.5, "title": "The Chronicles of Narnia: Prince Caspian", "release_date": "2008-05-15", "original_language": "en", "original_title": "The Chronicles of Narnia: Prince Caspian", "genre_ids": [12, 14, 10751], "backdrop_path": "/eiET76GO3xECOic1rL8VcTLuy3L.jpg", "adult": false, "overview": "One year after their incredible adventures in the Lion, the Witch and the Wardrobe, Peter, Edmund, Lucy and Susan Pevensie return to Narnia to aid a young prince whose life has been threatened by the evil King Miraz. Now, with the help of a colorful cast of new characters, including Trufflehunter the badger and Nikabrik the dwarf, the Pevensie clan embarks on an incredible quest to ensure that Narnia is returned to its rightful heir.", "poster_path": "/kSSyzqw9C4wUggicG4D81XmptR1.jpg", "popularity": 20.084}, {"id": 205775, "video": false, "vote_count": 2361, "vote_average": 6.6, "title": "In the Heart of the Sea", "release_date": "2015-11-20", "original_language": "en", "original_title": "In the Heart of the Sea", "genre_ids": [28, 12, 18, 36, 53], "backdrop_path": "/aZoZ0NglXgiBMToem9HhTAYYamw.jpg", "adult": false, "overview": "In the winter of 1820, the New England whaling ship Essex is assaulted by something no one could believe\u2014a whale of mammoth size and will, and an almost human sense of vengeance.", "poster_path": "/zVmWh0Zfg4UhbvdGI8LQrn1lQZJ.jpg", "popularity": 19.825}, {"id": 75780, "video": false, "vote_count": 4450, "vote_average": 6.4, "title": "Jack Reacher", "release_date": "2012-12-20", "original_language": "en", "original_title": "Jack Reacher", "genre_ids": [28, 80, 18, 53], "backdrop_path": "/ezXodpP429qK0Av89pVNlaXWJkQ.jpg", "adult": false, "overview": "When a gunman takes five lives with six shots, all evidence points to the suspect in custody. On interrogation, the suspect offers up a single note: \"Get Jack Reacher!\" So begins an extraordinary chase for the truth, pitting Jack Reacher against an unexpected enemy, with a skill for violence and a secret to keep.", "poster_path": "/mt0ELw83HIRgaKaDzhsDcIi0RnW.jpg", "popularity": 19.929}, {"id": 76285, "video": false, "vote_count": 3421, "vote_average": 5.9, "title": "Percy Jackson: Sea of Monsters", "release_date": "2013-08-07", "original_language": "en", "original_title": "Percy Jackson: Sea of Monsters", "genre_ids": [12, 14, 10751], "backdrop_path": "/3NK02PLJSs01SY1hsXUAcqbG3WP.jpg", "adult": false, "overview": "In their quest to confront the ultimate evil, Percy and his friends battle swarms of mythical creatures to find the mythical Golden Fleece and to stop an ancient evil from rising.", "poster_path": "/k1bhUW7XM5X0yD3iewAEvloFBEo.jpg", "popularity": 23.749}, {"id": 457799, "video": false, "vote_count": 1569, "vote_average": 7.0, "title": "Extremely Wicked, Shockingly Evil and Vile", "release_date": "2019-05-02", "original_language": "en", "original_title": "Extremely Wicked, Shockingly Evil and Vile", "genre_ids": [80, 18, 53], "backdrop_path": "/uRoA67sM5vvCI4cplxhl67BTPly.jpg", "adult": false, "overview": "A chronicle of the crimes of Ted Bundy, from the perspective of his longtime girlfriend, Elizabeth Kloepfer, who refused to believe the truth about him for years.", "poster_path": "/zSuJ3r5zr5T26tTxyygHhgkUAIM.jpg", "popularity": 20.961}, {"adult": false, "backdrop_path": "/ncERp0UvXuImUeJcf27kEANcf1r.jpg", "genre_ids": [35, 10751, 10749], "id": 9880, "original_language": "en", "original_title": "The Princess Diaries", "overview": "A socially awkward but very bright 15-year-old girl being raised by a single mom discovers that she is the princess of a small European country because of the recent death of her long-absent father, who, unknown to her, was the crown prince of Genovia. She must make a choice between continuing the life of a San Francisco teen or stepping up to the throne.", "poster_path": "/sxpvHk286sXLJWcFrBMNIsXbYsd.jpg", "release_date": "2001-08-03", "title": "The Princess Diaries", "video": false, "vote_average": 6.8, "vote_count": 2861, "popularity": 32.167}, {"id": 169917, "video": false, "vote_count": 1811, "vote_average": 6.3, "title": "A Walk Among the Tombstones", "release_date": "2014-09-18", "original_language": "en", "original_title": "A Walk Among the Tombstones", "genre_ids": [80, 18, 9648, 53], "backdrop_path": "/e56QsaJy1weAUukiK2ZmIGVUALF.jpg", "adult": false, "overview": "Private investigator Matthew Scudder is hired by a drug kingpin to find out who kidnapped and murdered his wife.", "poster_path": "/xxe77USOk2tPnq7G4cL42gf1OxQ.jpg", "popularity": 26.185}, {"id": 123553, "video": false, "vote_count": 3198, "vote_average": 6.3, "title": "The Mortal Instruments: City of Bones", "release_date": "2013-08-21", "original_language": "en", "original_title": "The Mortal Instruments: City of Bones", "genre_ids": [28, 12, 18, 14, 9648, 10749], "backdrop_path": "/xIisiN3GxiOMpYQOYarzWlgpDNT.jpg", "adult": false, "overview": "In New York City, Clary Fray, a seemingly ordinary teenager, learns that she is descended from a line of Shadowhunters \u2014 half-angel warriors who protect humanity from evil forces. After her mother disappears, Clary joins forces with a group of Shadowhunters and enters Downworld, an alternate realm filled with demons, vampires, and a host of other creatures. Clary and her companions must find and protect an ancient cup that holds the key to her mother's future.", "poster_path": "/xOBuyMuqc5lDNfxz6ipFjrxd38X.jpg", "popularity": 23.503}, {"id": 84892, "video": false, "vote_count": 6548, "vote_average": 7.7, "title": "The Perks of Being a Wallflower", "release_date": "2012-09-20", "original_language": "en", "original_title": "The Perks of Being a Wallflower", "genre_ids": [18], "backdrop_path": "/uhLcaTPeBpUNgYhZXhDWkj7gMkp.jpg", "adult": false, "overview": "15-year-old freshman Charlie is a wallflower, always watching life from the sidelines, until two charismatic senior students become his mentors. Free-spirited Sam and her stepbrother Patrick help Charlie discover the joys of friendship, first love, music and more, while a teacher sparks Charlie's dreams of becoming a writer.", "poster_path": "/cyNQLnHnXZcTUDXVVSEYmquOTOI.jpg", "popularity": 19.873}, {"adult": false, "backdrop_path": "/nEdBHjvRkKwEPD1Ps5A3rRiiLVN.jpg", "genre_ids": [14, 18, 10749], "id": 8966, "original_language": "en", "original_title": "Twilight", "overview": "When Bella Swan moves to a small town in the Pacific Northwest to live with her father, she meets the reclusive Edward Cullen, a mysterious classmate who reveals himself to be a 108-year-old vampire. Despite Edward's repeated cautions, Bella can't help but fall in love with him, a fatal move that endangers her own life when a coven of bloodsuckers try to challenge the Cullen clan.", "poster_path": "/lcMp3AONdNhjYE9MmTtMMTOiRDP.jpg", "release_date": "2008-11-20", "title": "Twilight", "video": false, "vote_average": 6.0, "vote_count": 8146, "popularity": 31.98}, {"id": 369972, "video": false, "vote_count": 2999, "vote_average": 7.1, "title": "First Man", "release_date": "2018-10-11", "original_language": "en", "original_title": "First Man", "genre_ids": [18, 36], "backdrop_path": "/jrudoaXcoLyHRPdolyOGemXgPEs.jpg", "adult": false, "overview": "A look at the life of the astronaut, Neil Armstrong, and the legendary space mission that led him to become the first man to walk on the Moon on July 20, 1969.", "poster_path": "/i91mfvFcPPlaegcbOyjGgiWfZzh.jpg", "popularity": 33.506}, {"id": 470044, "video": false, "vote_count": 909, "vote_average": 8.3, "title": "The Hate U Give", "release_date": "2018-10-19", "original_language": "en", "original_title": "The Hate U Give", "genre_ids": [80, 18], "backdrop_path": "/5AijK8OxcTzuT8z6aEcc3kO96eG.jpg", "adult": false, "overview": "Raised in a poverty-stricken slum, a 16-year-old girl named Starr now attends a suburban prep school. After she witnesses a police officer shoot her unarmed best friend, she's torn between her two very different worlds as she tries to speak her truth.", "poster_path": "/2icwBom0t5nmOuZI9FVXF3gkMK0.jpg", "popularity": 42.192}], "total_pages": 402, "total_results": 8026}, "recommendations": {"page": 1, "results": [], "total_pages": 1, "total_results": 0}, "credits": {"cast": [{"cast_id": 4, "character": "Maxwell Fleury", "credit_id": "52fe46439251416c9104eab1", "gender": 2, "id": 2091, "name": "James Mason", "order": 0, "profile_path": "/b0ebmboBdaYvk8fn2CFCQl4TaW9.jpg"}, {"cast_id": 5, "character": "Mavis Norman", "credit_id": "52fe46439251416c9104eab5", "gender": 1, "id": 3360, "name": "Joan Fontaine", "order": 1, "profile_path": "/8C0nIt3pQCMj999lFLhsSnyE2ZY.jpg"}, {"cast_id": 6, "character": "Margot Seaton", "credit_id": "52fe46439251416c9104eab9", "gender": 1, "id": 20155, "name": "Dorothy Dandridge", "order": 2, "profile_path": "/vIARchY1pN5mfwTaTscBIF55vO.jpg"}, {"cast_id": 7, "character": "Jocelyn Fleury", "credit_id": "52fe46439251416c9104eabd", "gender": 1, "id": 13637, "name": "Joan Collins", "order": 3, "profile_path": "/8KKTDl6jaM6RTWuRpuuXOvMsvG.jpg"}, {"cast_id": 8, "character": "Hilary Carson", "credit_id": "52fe46439251416c9104eac1", "gender": 2, "id": 12282, "name": "Michael Rennie", "order": 4, "profile_path": "/ebIHXyh1wx0HJqSpNEnGhYdmTvd.jpg"}, {"cast_id": 9, "character": "David Boyeur", "credit_id": "52fe46439251416c9104eac5", "gender": 2, "id": 33162, "name": "Harry Belafonte", "order": 5, "profile_path": "/fSSsExSbBbkr6ZV5uwTMZqZyDwh.jpg"}, {"cast_id": 10, "character": "Mrs. Fleury", "credit_id": "52fe46439251416c9104eac9", "gender": 1, "id": 117499, "name": "Diana Wynyard", "order": 6, "profile_path": "/uQ4THYBzt0unHJRgVicXX1svygP.jpg"}, {"cast_id": 11, "character": "Colonel Whittingham", "credit_id": "52fe46439251416c9104eacd", "gender": 2, "id": 5182, "name": "John Williams", "order": 7, "profile_path": "/esXPldHaXSEz8dQmahcGz4VWJ8R.jpg"}, {"cast_id": 12, "character": "Euan Templeton", "credit_id": "52fe46439251416c9104ead1", "gender": 2, "id": 10020, "name": "Stephen Boyd", "order": 8, "profile_path": "/nZKyN3wtSqbPDXCDsQTXaLfORhP.jpg"}, {"cast_id": 13, "character": "Sylvia Fleury", "credit_id": "52fe46439251416c9104ead5", "gender": 1, "id": 70564, "name": "Patricia Owens", "order": 9, "profile_path": "/nsCjG8tobJl0Giq0gL1PxRH6xUb.jpg"}], "crew": [{"credit_id": "52fe46439251416c9104eaa1", "department": "Directing", "gender": 2, "id": 14875, "job": "Director", "name": "Robert Rossen", "profile_path": "/c4rH9ujftvzMEihIGwZBkKntbJI.jpg"}, {"credit_id": "52fe46439251416c9104eaa7", "department": "Writing", "gender": 2, "id": 87668, "job": "Writer", "name": "Alfred Hayes", "profile_path": null}, {"credit_id": "52fe46439251416c9104eaad", "department": "Writing", "gender": 0, "id": 117497, "job": "Novel", "name": "Alec Waugh", "profile_path": null}, {"credit_id": "545f45b8c3a3680b5800023e", "department": "Production", "gender": 2, "id": 8502, "job": "Producer", "name": "Darryl F. Zanuck", "profile_path": "/zItDFAPN2NgwXAPCjtGNQwVJoej.jpg"}, {"credit_id": "545f45cfc3a36841d3002233", "department": "Sound", "gender": 2, "id": 12241, "job": "Music", "name": "Malcolm Arnold", "profile_path": null}, {"credit_id": "545f45fbc3a36841d300223a", "department": "Editing", "gender": 2, "id": 133869, "job": "Editor", "name": "Reginald Beck", "profile_path": null}, {"credit_id": "545f460fc3a3686cbb003c52", "department": "Art", "gender": 0, "id": 1118257, "job": "Art Direction", "name": "John DeCuir", "profile_path": null}, {"credit_id": "545f46250e0a261fb3008d36", "department": "Costume & Make-Up", "gender": 1, "id": 14007, "job": "Costume Design", "name": "Phyllis Dalton", "profile_path": null}, {"credit_id": "545f463dc3a3686e4900198b", "department": "Costume & Make-Up", "gender": 2, "id": 10082, "job": "Costume Design", "name": "David Ffolkes", "profile_path": null}, {"credit_id": "554b26a092514146920016f3", "department": "Camera", "gender": 2, "id": 10079, "job": "Director of Photography", "name": "Freddie Young", "profile_path": "/zRQlkuze95cvNOm3MFqxEocvzwg.jpg"}, {"credit_id": "56f16385c3a368060d0021bb", "department": "Camera", "gender": 2, "id": 108817, "job": "Camera Operator", "name": "Robert Walker", "profile_path": null}, {"credit_id": "56f16399c3a3680af100304c", "department": "Directing", "gender": 1, "id": 1594323, "job": "Script Supervisor", "name": "Maggie Unsworth", "profile_path": null}, {"credit_id": "56f163db925141184a0033e3", "department": "Sound", "gender": 0, "id": 1594324, "job": "Sound", "name": "Michael Hickey", "profile_path": null}, {"credit_id": "56f163efc3a3687189003a1d", "department": "Sound", "gender": 2, "id": 1176171, "job": "Sound", "name": "J.B. Smith", "profile_path": null}, {"credit_id": "56f16413c3a368717f0033d1", "department": "Sound", "gender": 2, "id": 1590916, "job": "Sound", "name": "Gerry Turner", "profile_path": null}, {"credit_id": "5b6208480e0a267ef401c1f2", "department": "Costume & Make-Up", "gender": 2, "id": 1994281, "job": "Makeup Artist", "name": "David Aylott", "profile_path": null}]}}