{"adult": false, "backdrop_path": "/6Js3hlL2R57R0ooFsFeeuj7JYU7.jpg", "belongs_to_collection": null, "budget": 0, "genres": [{"id": 16, "name": "Animation"}, {"id": 10751, "name": "Family"}, {"id": 12, "name": "Adventure"}, {"id": 35, "name": "Comedy"}], "homepage": "http://www.of3d.com/en/content/details36_281.html", "id": 375107, "imdb_id": "tt4940416", "original_language": "en", "original_title": "Duck Duck Goose", "overview": "After he\u2019s grounded by an injury, a high-flying bachelor is saddled with two wide-eyed orphans as they come face-to-face with the dangers and beauty of the outside world.", "popularity": 16.514, "poster_path": "/7ScoWYzToUIbaedwnKJPdjCWXM0.jpg", "production_companies": [{"id": 71194, "logo_path": null, "name": "Original Force Animation", "origin_country": ""}], "production_countries": [{"iso_3166_1": "CN", "name": "China"}], "release_date": "2018-03-09", "revenue": 0, "runtime": 82, "spoken_languages": [{"iso_639_1": "zh", "name": "\u666e\u901a\u8bdd"}, {"iso_639_1": "en", "name": "English"}], "status": "Released", "tagline": "Family can be a wild ride", "title": "Duck Duck Goose", "video": false, "vote_average": 6.2, "vote_count": 85, "keywords": {"keywords": [{"id": 1339, "name": "duck"}, {"id": 1729, "name": "migration"}, {"id": 15169, "name": "goose"}]}, "similar": {"page": 1, "results": [{"id": 9598, "video": false, "vote_count": 1736, "vote_average": 6.1, "title": "Babe", "release_date": "1995-07-18", "original_language": "en", "original_title": "Babe", "genre_ids": [35, 18, 14, 10751], "backdrop_path": "/67jzzA7YqDTR5qIUhAH32cvkf53.jpg", "adult": false, "overview": "Babe is a little pig who doesn't quite know his place in the world. With a bunch of odd friends, like Ferdinand the duck who thinks he is a rooster and Fly the dog he calls mom, Babe realizes that he has the makings to become the greatest sheep pig of all time, and Farmer Hogget knows it. With the help of the sheep dogs Babe learns that a pig can be anything that he wants to be.", "poster_path": "/k42J5jYjvw1DEGBQP63VYYvteY7.jpg", "popularity": 12.588}, {"adult": false, "backdrop_path": "/fkxHaPJaB35wnoUC7glF16W3lWH.jpg", "genre_ids": [16, 12, 10751], "id": 21032, "original_language": "en", "original_title": "Balto", "overview": "An outcast half-wolf risks his life to prevent a deadly epidemic from ravaging Nome, Alaska.", "poster_path": "/gV5PCAVCPNxlOLFM1bKk50EqLXO.jpg", "release_date": "1995-12-22", "title": "Balto", "video": false, "vote_average": 7.3, "vote_count": 1190, "popularity": 18.002}, {"adult": false, "backdrop_path": "/djrr3n1XTnVNf6F3ZqvTtYWXgjm.jpg", "genre_ids": [12, 14, 10751], "id": 11571, "original_language": "en", "original_title": "Journey to the Center of the Earth", "overview": "An Edinburgh professor and assorted colleagues follow an explorer's trail down an extinct Icelandic volcano to the earth's center.", "poster_path": "/4rSP91Gonskgq29AuJ1Xn3RIQAK.jpg", "release_date": "1959-12-14", "title": "Journey to the Center of the Earth", "video": false, "vote_average": 6.9, "vote_count": 202, "popularity": 10.344}, {"id": 10715, "video": false, "vote_count": 751, "vote_average": 6.0, "title": "Looney Tunes: Back in Action", "release_date": "2003-11-14", "original_language": "en", "original_title": "Looney Tunes: Back in Action", "genre_ids": [16, 35, 10751], "backdrop_path": "/3yc2at1aIrK0ri7Z8vvfS9o9vgK.jpg", "adult": false, "overview": "Fed up with all the attention going to Bugs Bunny, Daffy Duck quits Hollywood, teams up with recently-fired stuntman Damien Drake Jr. and embarks on a round-the-world adventure, along with Bugs and The VP of Warner Bros. Their mission? Find Damien's father, and the missing blue diamond... and stay one step ahead of The Acme Corp., who wants the diamond for their own purposes.", "poster_path": "/ownVrxw7OYOo8vwk2g4q74Oe8Wa.jpg", "popularity": 12.642}, {"id": 11076, "video": false, "vote_count": 226, "vote_average": 6.7, "title": "Fly Away Home", "release_date": "1996-09-13", "original_language": "en", "original_title": "Fly Away Home", "genre_ids": [28, 12, 18, 10751], "backdrop_path": "/zJiKgxIeikZPr0nM6qNgDL2gzjr.jpg", "adult": false, "overview": "Amy is only 13 years old when her mother is killed. She goes to Canada to live with her father, an eccentric inventor whom she barely knows. Amy is miserable in her new life... until she discovers a nest of goose eggs that were abandoned when a local forest is torn down. The eggs hatch and Amy becomes \"Mama Goose\". When Winter comes, Amy, and her dad must find a way to lead the birds South...", "poster_path": "/azFDIXe7TgEgte7gHL8PkvXW0GC.jpg", "popularity": 9.457}, {"id": 25842, "video": false, "vote_count": 66, "vote_average": 7.2, "title": "A Christmas Carol", "release_date": "1938-12-16", "original_language": "en", "original_title": "A Christmas Carol", "genre_ids": [18, 14, 10751], "backdrop_path": "/7TY4Knu4EVcIVgpkStOeI99diGT.jpg", "adult": false, "overview": "Classic Charles Dickens holiday tale of Ebenezer Scrooge, the miser's miser who has a huge change of heart after spirits whisk him into the past, present, and future.", "poster_path": "/rJoFwqMaYyS3bmWXQGJh5qa7KMW.jpg", "popularity": 7.595}, {"adult": false, "backdrop_path": "/gdkjHuMPwsdE3mw5dchAeRI1Wl2.jpg", "genre_ids": [35, 14, 878], "id": 10658, "original_language": "en", "original_title": "Howard the Duck", "overview": "A scientific experiment unknowingly brings extraterrestrial life forms to the Earth through a laser beam. First is the cigar smoking drake Howard from the duck's planet. A few kids try to keep him from the greedy scientists and help him back to his planet. But then a much less friendly being arrives through the beam...", "poster_path": "/f2pj3SSj1GdFSrS5bUojT56umL6.jpg", "release_date": "1986-08-01", "title": "Howard the Duck", "video": false, "vote_average": 5.2, "vote_count": 508, "popularity": 9.857}, {"adult": false, "backdrop_path": "/A9FCmb5Qz2HTfsNzXaASsl5GIjf.jpg", "genre_ids": [35], "id": 13667, "original_language": "en", "original_title": "Better Off Dead...", "overview": "Lane Meyer is obsessed with his girlfriend Beth and is crushed when she falls for the new captain of the ski team, Roy. After several failed suicide attempts, narrow escapes from the relentless paper boy, and nearly unbearable dinners at home with his crazy family, Lane finds a new love in French exchange student Monique Junot. Meanwhile, he must beat Roy on the slopes to regain his honor.", "poster_path": "/urpEd0gVcDa6Enl6T2HO9BxjeKI.jpg", "release_date": "1985-10-11", "title": "Better Off Dead...", "video": false, "vote_average": 6.8, "vote_count": 263, "popularity": 10.115}, {"id": 453191, "video": false, "vote_count": 104, "vote_average": 7.4, "title": "The Big Bad Fox and Other Tales", "release_date": "2017-06-21", "original_language": "fr", "original_title": "Le Grand M\u00e9chant Renard et autres contes...", "genre_ids": [16, 35, 10751], "backdrop_path": "/noIJkMbEyTtV80iY5siHggd8Ioi.jpg", "adult": false, "overview": "The misadventures of a young clumsy Fox and a feisty little red Hen.  The Fox, both a little stupid and na\u00efve, tries daily to devour the little Hen, without success. Tired of the repeated humiliation, the Fox is persuaded to steal the Hen\u2019s eggs to raise and then eat. This plan seems perfect, until the moment the chicks hatch\u2026", "poster_path": "/3Nib5a3p2O7yPFSTTNwChp0cnsh.jpg", "popularity": 6.668}, {"id": 43258, "video": false, "vote_count": 47, "vote_average": 6.5, "title": "Friendly Persuasion", "release_date": "1956-11-25", "original_language": "en", "original_title": "Friendly Persuasion", "genre_ids": [18, 37, 10752], "backdrop_path": "/9zAKwMjYSOMgnnsbC5s9tQfSsJl.jpg", "adult": false, "overview": "The story of a family of Quakers in Indiana in 1862. Their religious sect is strongly opposed to violence and war. It's not easy for them to meet the rules of their religion in everyday life but when Southern troops pass the area they are in real trouble. Should they fight, despite their peaceful attitude?", "poster_path": "/foIelpKMhKmKHZg7JtnRjZZcF7i.jpg", "popularity": 6.009}, {"id": 80607, "video": false, "vote_count": 46, "vote_average": 6.4, "title": "Daffy Duck's Movie: Fantastic Island", "release_date": "1983-08-05", "original_language": "en", "original_title": "Daffy Duck's Movie: Fantastic Island", "genre_ids": [16], "backdrop_path": "/Zw58auxBY3coGpOSy0nItQWHpT.jpg", "adult": false, "overview": "Daffy Duck and Speedy Gonzales find a treasure map that leads them to a wishing well, which for a penny will grant any wish (through old cartoon footage). Daffy sets up a resort around the well and various Looney Tunes characters have their dreams come true. Meanwhile, Yosemite Sam and the Tasmanian Devil hunt for the varmints who stole their treasure map!", "poster_path": "/yPN53XgYcP8aZeqacO7b31PI8u2.jpg", "popularity": 8.057}, {"adult": false, "backdrop_path": "/3IPMmhPHOqIi3lUCgcjfFvTjLjz.jpg", "genre_ids": [99], "id": 377151, "original_language": "it", "original_title": "Fuocoammare", "overview": "Capturing life on the Italian island of Lampedusa, a frontline in the European migrant crisis.", "poster_path": "/tEjyJiLb7Q7c4H2ibi77E6sgdBg.jpg", "release_date": "2016-02-18", "title": "Fire at Sea", "video": false, "vote_average": 6.7, "vote_count": 152, "popularity": 5.116}, {"id": 55461, "video": false, "vote_count": 33, "vote_average": 7.2, "title": "Donald's Snow Fight", "release_date": "1942-04-10", "original_language": "en", "original_title": "Donald's Snow Fight", "genre_ids": [16], "backdrop_path": null, "adult": false, "overview": "It's snowed, and Donald Duck is going sledding. Meanwhile, his nephews have built a snowman at the bottom of the hill. Donald aims his sled at their snowman and demolishes it, so the boys get even by including a boulder in the bottom of their next snowman. This means war, so they retreat to opposing snow forts for battle.", "poster_path": "/r5TUs76PbO68b6qmHgWjw4Nsz39.jpg", "popularity": 3.798}, {"id": 664374, "video": false, "vote_count": 0, "vote_average": 0.0, "title": "Vac\u00edo", "release_date": "2020-01-24", "original_language": "zh", "original_title": "Vac\u00edo", "genre_ids": [18], "backdrop_path": "/k3vLQD2vo6vlFxATKy9Yc3eanMv.jpg", "adult": false, "overview": "LEI and WONG clandestinely arrive to Ecuador, on their way to the port city of Guayaquil. From here LEI plans to continue her journey to New York, but CHANG, a bipolar mobster will decide her fate. WONG unwillingly gets entangled in the web of corruption that operates the encroachment of Chinese immigrants. His only objective is to bring his twelve-year-old son from China.", "poster_path": "/zst9CPxo5g94CX6rhZ2XTpNRVRh.jpg", "popularity": 5.379}, {"id": 67709, "video": false, "vote_count": 9, "vote_average": 6.3, "title": "Up a Tree", "release_date": "1955-09-23", "original_language": "en", "original_title": "Up a Tree", "genre_ids": [16, 35, 10751], "backdrop_path": "/zmFyrAzvuBUoDiohlPBzNpcj9Vt.jpg", "adult": false, "overview": "Donald's playing lumberjack, but the targeted tree just happens to be the home of Chip 'n Dale. They give Donald plenty of trouble cutting down the tree, but eventually he succeeds. The wily chipmunks, though, manage to get their revenge on the homewrecker.", "poster_path": "/oQCoil3WiVFcLPd9U5WbERq35Sd.jpg", "popularity": 2.342}, {"id": 174326, "video": false, "vote_count": 32, "vote_average": 6.3, "title": "A Birder's Guide to Everything", "release_date": "2013-04-21", "original_language": "en", "original_title": "A Birder's Guide to Everything", "genre_ids": [35], "backdrop_path": "/dfxIUZ3WpdoI9dvQZG3XZ1PGwxL.jpg", "adult": false, "overview": "David Portnoy, a 15-year-old birding fanatic, thinks that he's made the discovery of a lifetime. So, on the eve of his father's remarriage, he escapes on an epic road trip with his best friends to solidify their place in birding history.", "poster_path": "/o30xzZyqVvTTv4qsDkHUdyJFd4Y.jpg", "popularity": 4.037}, {"adult": false, "backdrop_path": "/jUCDtYmQgIpySFQ4d1VZdMDwREI.jpg", "genre_ids": [28, 12, 10749], "id": 439601, "original_language": "ml", "original_title": "CIA: Comrade In America", "overview": "A young Aji Mathew is a communist who goes the whole nine yards for the ideologies he believes in. When the girl he loves leaves to the US out of the blue and her parents fix her wedding, Aji is left with just a fortnight to reach the country albeit with no passport or visa. How far he is willing to go for love forms the plot.", "poster_path": "/nDV9N6PIEJV8C0SryUBSXcyiw8l.jpg", "release_date": "2017-05-05", "title": "CIA: Comrade In America", "video": false, "vote_average": 6.1, "vote_count": 18, "popularity": 1.658}, {"adult": false, "backdrop_path": "/1P7ItLVPpC9I8yWDYUPgjTodwMZ.jpg", "genre_ids": [28], "id": 501606, "original_language": "ml", "original_title": "\u0d30\u0d23\u0d02", "overview": "The story of the Indian immigrant community in Detroit, where a garage mechanic gets unwillingly involved in the criminal world as a getaway driver.", "poster_path": "/ur5E92M679Cy6UOt95J0FDM5ev9.jpg", "release_date": "2018-09-06", "title": "Ranam", "video": false, "vote_average": 5.4, "vote_count": 11, "popularity": 1.614}, {"adult": false, "backdrop_path": "/o4UmcZNMFjT9tRmmMnWM2oNyj43.jpg", "genre_ids": [16, 10751], "id": 31518, "original_language": "en", "original_title": "Peter and the Wolf", "overview": "Disney's animated adaptation of Prokofiev's masterpiece, in which every character is represented musically by a different instrument. Young Peter decides to go hunting for the wolf that's been prowling around the village. Along the way, he is joined by his friends the bird, the duck and the cat. All the fun comes to end, however, when the wolf makes an appearance. Will Peter and his friends live to tell of their adventures?", "poster_path": "/uyan7woiZm0PHIR0sDkYvBor0ED.jpg", "release_date": "1946-08-15", "title": "Peter and the Wolf", "video": false, "vote_average": 6.9, "vote_count": 57, "popularity": 5.913}, {"adult": false, "backdrop_path": "/jyyHxgtB0pjY0T20NiKopufKsKd.jpg", "genre_ids": [16, 35], "id": 34728, "original_language": "en", "original_title": "Queer Duck: The Movie", "overview": "Queer Duck: The Movie is the relentlessly funny, feature-length extension of the animated series Queer Duck, created by frequent The Simpsons scripter Mike Reiss. Sexually scandalous yet sweet, the movie is a cascade of pop-culture stereotypes of gays in America, punctuated by rapid-fire references (as with The Simpsons) to, well, just about everything: classic movies, game shows, Gilbert and Sullivan, Paul Lynde. Hey, there's even a storyline: Queer Duck (voiced by Jim J. Bullock) and his partner of 18 months (\"That's a lifetime in gay years\"), Harvey Fierstein sound-alike Stephen Arlo \"Openly\" Gator (Kevin Michael Richardson), hit a relationship crisis when the fey fowl is wooed by a brassy Broadway broad. Queer Duck wonders if he'd be happier being straight. While Gator the waiter spills his problems to a compassionate Conan O'Brien (thanks for the cameo)...", "poster_path": "/d3FA15jedbsFDrSsxRly0Z575C1.jpg", "release_date": "2006-07-18", "title": "Queer Duck: The Movie", "video": false, "vote_average": 4.7, "vote_count": 9, "popularity": 3.403}], "total_pages": 6, "total_results": 111}, "recommendations": {"page": 1, "results": [{"id": 221029, "video": false, "vote_count": 8, "vote_average": 6.0, "title": "Thomas & Friends: King of the Railway", "release_date": "2013-09-17", "original_language": "en", "original_title": "Thomas & Friends: King of the Railway", "genre_ids": [16, 10751], "backdrop_path": "/404aWMPVGLmrc20fle9PWRZtweR.jpg", "adult": false, "overview": "Thomas discovers mysteries of the past and must help a new friend, save a ruined castle and may even find some treasure when Sir Robert Norramby comes to the Island of Sodor.", "poster_path": "/t5RnwW7NxrQ4QTFmN4gZoY91O0h.jpg", "popularity": 4.673}, {"adult": false, "backdrop_path": "/pnqOA6DPcmH6dCILKL62OS2Syzu.jpg", "genre_ids": [35, 10751], "id": 388374, "original_language": "en", "original_title": "Rescue Dogs", "overview": "Tracy and his rescue dog Charger have to foil the plans of an Evil Businessman who wants to knock over their beach restaurant in order to build his golf course. With help from his brother, Tracy tries to meet the bills, manage the kitchen (where Charger helps cook!) and still find time to fall in love with the beautiful dancer, Bridgette. Through a comedy of errors and mishaps, the humans find they themselves can be rescued by their very own rescue animals.", "poster_path": "/1jy6wc3K8bnltGUejxUUqg3cqAK.jpg", "release_date": "2016-04-01", "title": "Rescue Dogs", "video": false, "vote_average": 6.7, "vote_count": 4, "popularity": 2.575}, {"id": 73829, "video": false, "vote_count": 9, "vote_average": 6.2, "title": "Thomas & Friends: Day of the Diesels", "release_date": "2011-09-06", "original_language": "en", "original_title": "Thomas & Friends: Day of the Diesels", "genre_ids": [16, 10751], "backdrop_path": "/aN7TWK9hRdODfzELP0m5aRyOo3A.jpg", "adult": false, "overview": "The Steamies and the Diesels face off in this action-packed movie adventure! There is a fire on Sodor and two new fire fighting engines - Flynn and Belle - arrive to help Thomas and Percy save the day! When Thomas starts spending all of his time with Sodors newest heroes, Percy is drawn to the Dieselworks, where he is made to feel special by the master of mischief himself Diesel 10! But Percy does not know that he is part of Diesel 10s master plan to take over the steamworks. The Steam Team rallies for sure-fire excitement in this all-new movie from Thomas &amp; Friends!", "poster_path": "/lpo43AVtkAjmQilk1pCWHCJQw5w.jpg", "popularity": 6.92}, {"adult": false, "backdrop_path": "/aPb1xCG2leRKwaEyeBaSD6RNdQV.jpg", "genre_ids": [16, 10751, 12], "id": 490694, "original_language": "fr", "original_title": "Nelly et Simon : Mission Y\u00e9ti", "overview": "Quebec, 1956. The impulsive and headstrong Nelly Maloye, a novice private eye, joins the methodical and pragmatic Simon Picard, a research scientist in a dubious quest to prove the existence of the elusive Yeti. The brave-hearted heroes come face-to-face with countless dangers during their trek through the heart of the Himalayas.", "poster_path": "/do1jfxL8liNVOfpsfrFZhAHjRTL.jpg", "release_date": "2017-10-05", "title": "Mission Kathmandu: The Adventures of Nelly & Simon", "video": false, "vote_average": 5.7, "vote_count": 13, "popularity": 6.111}], "total_pages": 1, "total_results": 4}, "credits": {"cast": [{"cast_id": 3, "character": "Peng (voice)", "credit_id": "568484f99251412e52017f24", "gender": 2, "id": 84407, "name": "Jim Gaffigan", "order": 0, "profile_path": "/qWgrDUSX77Ay6XMX9lpI3cXiXKY.jpg"}, {"cast_id": 0, "character": "Chi (voice)", "credit_id": "568484dac3a3684be9018b8d", "gender": 1, "id": 505710, "name": "Zendaya", "order": 1, "profile_path": "/r3A7ev7QkjOGocVn3kQrJ0eOouk.jpg"}, {"cast_id": 8, "character": "Chao (voice)", "credit_id": "56b9cbfec3a3681e64001fd2", "gender": 2, "id": 1287802, "name": "Lance Lim", "order": 2, "profile_path": "/wghLjtAfNmP4mOyhZRQiaFZcxkB.jpg"}, {"cast_id": 1, "character": "Banzou (voice)", "credit_id": "568484ecc3a368227b00ef66", "gender": 2, "id": 61965, "name": "Greg Proops", "order": 3, "profile_path": "/6kzCvX6bxXYq1fxueHtmplctQ03.jpg"}, {"cast_id": 12, "character": "Jinjing (voice)", "credit_id": "5ae6d771c3a368134c00d722", "gender": 1, "id": 1214835, "name": "Natasha Leggero", "order": 4, "profile_path": "/wLpSAiXYonOKj39qoodrJWUHkBd.jpg"}, {"cast_id": 16, "character": "Frazier (voice)", "credit_id": "5ae6d772c3a36813670074bc", "gender": 2, "id": 11275, "name": "Stephen Fry", "order": 5, "profile_path": "/uaRoTAS2D15vdlpHm122UEUg5ck.jpg"}, {"cast_id": 17, "character": "Giles (voice)", "credit_id": "5ae6d7729251410d3d007ba7", "gender": 2, "id": 24264, "name": "Craig Ferguson", "order": 6, "profile_path": "/2ZIvieSjzfA4c8YHxs3jgHJPBta.jpg"}, {"cast_id": 15, "character": "Larry (voice)", "credit_id": "5ae6d7720e0a26105a008e08", "gender": 2, "id": 1895, "name": "Carl Reiner", "order": 7, "profile_path": "/AtDqJQkl7dH2m19kPio3cosfbes.jpg"}, {"cast_id": 18, "character": "Edna (voice)", "credit_id": "5ae6d773c3a36813670074be", "gender": 1, "id": 722, "name": "Jennifer Grey", "order": 8, "profile_path": "/dY8mECHnrLvr4UQr61Ym78cakoA.jpg"}, {"cast_id": 14, "character": "Carl (voice)", "credit_id": "5ae6d7720e0a26106c00862f", "gender": 2, "id": 223879, "name": "Reggie Watts", "order": 9, "profile_path": "/4498ocedmBNnMIKtnMUGO8yIesx.jpg"}, {"cast_id": 13, "character": "Bing (voice)", "credit_id": "5ae6d771c3a368134e00d47f", "gender": 2, "id": 5727, "name": "Diedrich Bader", "order": 10, "profile_path": "/ek6c21ennQEMXCJwTvKnPkGn60C.jpg"}, {"cast_id": 11, "character": "Stanley (voice)", "credit_id": "5ad409e70e0a2628c800bbe4", "gender": 2, "id": 1539, "name": "Rick Overton", "order": 11, "profile_path": "/584g2eLl6ZmZ71ikvGw5tyqEv1p.jpg"}, {"cast_id": 10, "character": "\u5175\u53d4", "credit_id": "5ad4098c0e0a2628c500ba50", "gender": 0, "id": 1490572, "name": "Tong Zirong", "order": 12, "profile_path": null}, {"cast_id": 19, "character": "(voice)", "credit_id": "5ae6d7730e0a26105400888c", "gender": 1, "id": 2032819, "name": "Meilee Condron", "order": 13, "profile_path": "/2drgDDRjuUhI4ZuVnY7TvFsJpGZ.jpg"}, {"cast_id": 20, "character": "Chef (voice)", "credit_id": "5ae6d773c3a368134e00d484", "gender": 0, "id": 1319343, "name": "Jack Huang", "order": 14, "profile_path": "/2aHfqUcKCoJ3dWZepwok1dYBL9z.jpg"}, {"cast_id": 21, "character": "Frog (voice)", "credit_id": "5ae6d7749251410d02008cc3", "gender": 2, "id": 1442239, "name": "William M. Steinberg", "order": 15, "profile_path": null}], "crew": [{"credit_id": "5684855a92514169d0005364", "department": "Writing", "gender": 2, "id": 58421, "job": "Screenplay", "name": "Christopher Jenkins", "profile_path": null}, {"credit_id": "56848536c3a36860e90193c7", "department": "Directing", "gender": 2, "id": 58421, "job": "Director", "name": "Christopher Jenkins", "profile_path": null}, {"credit_id": "568485499251412e52017f3a", "department": "Writing", "gender": 0, "id": 426664, "job": "Screenplay", "name": "Rob Muir", "profile_path": null}]}}