{"adult": false, "backdrop_path": "/9BjpFwSFiyVK1fsQyaG5Efu0sB8.jpg", "belongs_to_collection": null, "budget": 0, "genres": [{"id": 27, "name": "Horror"}, {"id": 53, "name": "Thriller"}], "homepage": null, "id": 37576, "imdb_id": "tt0289424", "original_language": "ko", "original_title": "\ub9c1", "overview": "Sun-ju is a reporter who uncovers a series of inexplicable deaths that occurred simultaneously. Her investigation leads her to a resort, where she finds a videotape filled with mysterious images. After viewing it, a message appears on the screen that she has just been cursed, and that in order to save herself she must - end of tape. Somebody has erased the rest, leaving her horrified and uncertain of her next move.", "popularity": 2.204, "poster_path": "/gHpENTQtWJun7wLXYkwpJtjKuyL.jpg", "production_companies": [{"id": 5255, "logo_path": null, "name": "AFDF", "origin_country": ""}], "production_countries": [{"iso_3166_1": "KR", "name": "South Korea"}], "release_date": "1999-06-12", "revenue": 0, "runtime": 110, "spoken_languages": [{"iso_639_1": "ko", "name": "\ud55c\uad6d\uc5b4/\uc870\uc120\ub9d0"}], "status": "Released", "tagline": "", "title": "The Ring Virus", "video": false, "vote_average": 4.9, "vote_count": 11, "keywords": {"keywords": [{"id": 9714, "name": "remake"}]}, "similar": {"page": 1, "results": [{"adult": false, "backdrop_path": "/7RRuRcGuWkZGuRyYugfXn0Fgrrr.jpg", "genre_ids": [28, 80, 18, 53], "id": 949, "original_language": "en", "original_title": "Heat", "overview": "Obsessive master thief, Neil McCauley leads a top-notch crew on various daring heists throughout Los Angeles while determined detective, Vincent Hanna pursues him without rest. Each man recognizes and respects the ability and the dedication of the other even though they are aware their cat-and-mouse game may end in violence.", "poster_path": "/6pmLVffM9jEYK7VqDJqPblMxfEY.jpg", "release_date": "1995-12-15", "title": "Heat", "video": false, "vote_average": 7.8, "vote_count": 3615, "popularity": 21.973}, {"adult": false, "backdrop_path": "/khzRw7ZDE3NIrYpe0RYyB864FPT.jpg", "genre_ids": [80, 28, 53], "id": 189, "original_language": "en", "original_title": "Sin City: A Dame to Kill For", "overview": "Some of Sin City's most hard-boiled citizens cross paths with a few of its more reviled inhabitants.", "poster_path": "/k80qKrJ0qQ6ocVo5N932stNSg6j.jpg", "release_date": "2014-08-20", "title": "Sin City: A Dame to Kill For", "video": false, "vote_average": 6.3, "vote_count": 2422, "popularity": 25.256}, {"adult": false, "backdrop_path": "/4UIjazRJV5Q2D7gYg9NS1BGiFdU.jpg", "genre_ids": [80, 18, 53, 9648], "id": 1073, "original_language": "en", "original_title": "Arlington Road", "overview": "Threats from sinister foreign nationals aren't the only thing to fear. Bedraggled college professor Michael Faraday has been vexed (and increasingly paranoid) since his wife's accidental death in a botched FBI operation. But all that takes a backseat when a seemingly all-American couple set up house next door.", "poster_path": "/jMwDRI4qu5FrSAzf7BfNveuRVf9.jpg", "release_date": "1999-03-19", "title": "Arlington Road", "video": false, "vote_average": 7.1, "vote_count": 521, "popularity": 13.099}, {"adult": false, "backdrop_path": "/3TCPWrxQkfon82xPNtmpweOSVJc.jpg", "genre_ids": [18, 80, 9648, 10749, 53], "id": 12150, "original_language": "en", "original_title": "Sea of Love", "overview": "Seen-it-all New York detective Frank Keller is unsettled - he has done twenty years on the force and could retire, and he hasn't come to terms with his wife leaving him for a colleague. Joining up with an officer from another part of town to investigate a series of murders linked by the lonely hearts columns he finds he is getting seriously and possibly dangerously involved with Helen, one of the main suspects.", "poster_path": "/7DkkTHIX3hUqvsRv5sDmJAkCfKK.jpg", "release_date": "1989-09-15", "title": "Sea of Love", "video": false, "vote_average": 6.7, "vote_count": 290, "popularity": 10.636}, {"id": 1847, "video": false, "vote_count": 259, "vote_average": 7.4, "title": "The Long Goodbye", "release_date": "1973-03-07", "original_language": "en", "original_title": "The Long Goodbye", "genre_ids": [80, 18, 9648, 53], "backdrop_path": "/brm75bRffmi2SlsUmsHUxUVI1Hg.jpg", "adult": false, "overview": "Detective Philip Marlowe tries to help a friend who is accused of murdering his wife.", "poster_path": "/oBhUK54yBJ0aH6u9zCzSV5iV7OP.jpg", "popularity": 9.602}, {"adult": false, "backdrop_path": "/feZlULeOhSRLz23ZXUeDX3Dl2dS.jpg", "genre_ids": [80, 53, 9648], "id": 17494, "original_language": "en", "original_title": "Unlawful Entry", "overview": "After a break-in at their house, a couple gets help from one of the cops that answered their call. He helps them install the security system, and begins dropping by on short notice and unofficial patrol, and spends a lot of time discussing the couple's problems with the wife. The husband begins wondering if they're getting too much help.", "poster_path": "/sKUk1ca6gHaIopi8VqE8GoxJq6J.jpg", "release_date": "1992-06-26", "title": "Unlawful Entry", "video": false, "vote_average": 6.1, "vote_count": 121, "popularity": 10.241}, {"adult": false, "backdrop_path": "/20IgqkdFw5kuItqDCJtidSESP0t.jpg", "genre_ids": [27, 18], "id": 10066, "original_language": "en", "original_title": "House of Wax", "overview": "A group of unwitting teens are stranded near a strange wax museum and soon must fight to survive and keep from becoming the next exhibit.", "poster_path": "/uM1RebQywM5PPYsauayefpXGxVk.jpg", "release_date": "2005-04-30", "title": "House of Wax", "video": false, "vote_average": 5.7, "vote_count": 1532, "popularity": 16.398}, {"adult": false, "backdrop_path": "/o4psXh7IVD6GFKvBSHjHLzjL2lV.jpg", "genre_ids": [27, 53], "id": 10781, "original_language": "en", "original_title": "The Texas Chainsaw Massacre: The Beginning", "overview": "Chrissie and her friends set out on a road trip for a final fling before one is shipped off to Vietnam. Along the way, bikers harass the foursome and cause an accident that throws Chrissie from the vehicle. The lawman who arrives on the scene kills one of the bikers and brings Chrissie's friends to the Hewitt homestead, where young Leatherface is learning the tools of terror.", "poster_path": "/9elCJIG1TOJ0wew3JVx5ZMkHq5w.jpg", "release_date": "2006-10-06", "title": "The Texas Chainsaw Massacre: The Beginning", "video": false, "vote_average": 6.0, "vote_count": 936, "popularity": 19.211}, {"id": 180, "video": false, "vote_count": 5106, "vote_average": 7.3, "title": "Minority Report", "release_date": "2002-06-20", "original_language": "en", "original_title": "Minority Report", "genre_ids": [28, 9648, 878, 53], "backdrop_path": "/6HbOqP1GUElNLdX8Bx2uP542CIP.jpg", "adult": false, "overview": "John Anderton is a top 'Precrime' cop in the late-21st century, when technology can predict crimes before they're committed. But Anderton becomes the quarry when another investigator targets him for a murder charge.", "poster_path": "/dS5AHLt4DhZpisxryIxKJU6Urxb.jpg", "popularity": 21.222}, {"id": 521, "video": false, "vote_count": 1257, "vote_average": 8.0, "title": "Dial M for Murder", "release_date": "1954-05-29", "original_language": "en", "original_title": "Dial M for Murder", "genre_ids": [80, 18, 9648, 53], "backdrop_path": "/jVMlfESb0TJ29w8CUDDofEprMmn.jpg", "adult": false, "overview": "An ex-tennis pro carries out a plot to have his wife murdered after discovering she is having an affair, and assumes she will soon leave him for the other man anyway. When things go wrong, he improvises a new plan\u2014to frame her for murder instead.", "poster_path": "/xrpK1PyckNWmRxU4kZURfaCyboS.jpg", "popularity": 28.336}, {"id": 458723, "video": false, "vote_count": 3227, "vote_average": 7.0, "title": "Us", "release_date": "2019-03-14", "original_language": "en", "original_title": "Us", "genre_ids": [27, 9648, 53], "backdrop_path": "/18qxSxzAUs7UjZ3dKCkxAOv0yb1.jpg", "adult": false, "overview": "Husband and wife Gabe and Adelaide Wilson take their kids to their beach house expecting to unplug and unwind with friends. But as night descends, their serenity turns to tension and chaos when some shocking visitors arrive uninvited.", "poster_path": "/ux2dU1jQ2ACIMShzB3yP93Udpzc.jpg", "popularity": 32.148}, {"adult": false, "backdrop_path": "/j7qWyikT1eKNezNKxqPkkC8lKz8.jpg", "genre_ids": [53], "id": 72784, "original_language": "en", "original_title": "The Loft", "overview": "For five men, the opportunity to share a penthouse in the city -- in which to carry on extramarital affairs -- is a dream come true, until the dead body of an unknown woman turns up. Realizing that her killer must be one of their group, the men are gripped by paranoia as each one suspects another. Friendships are tested, loyalties are questioned, and marriages crumble while fear and suspicion run rampant.", "poster_path": "/9hE6vesQoSREyvJha9z0g5OryHH.jpg", "release_date": "2014-10-14", "title": "The Loft", "video": false, "vote_average": 6.4, "vote_count": 837, "popularity": 19.836}, {"id": 1018, "video": false, "vote_count": 3312, "vote_average": 7.8, "title": "Mulholland Drive", "release_date": "2001-09-08", "original_language": "en", "original_title": "Mulholland Drive", "genre_ids": [18, 9648, 53], "backdrop_path": "/91KNvuQXrWq5vehtQpciCOiOyJe.jpg", "adult": false, "overview": "Blonde Betty Elms has only just arrived in Hollywood to become a movie star when she meets an enigmatic brunette with amnesia. Meanwhile, as the two set off to solve the second woman's identity, filmmaker Adam Kesher runs into ominous trouble while casting his latest project.", "poster_path": "/tVxGt7uffLVhIIcwuldXOMpFBPX.jpg", "popularity": 22.494}, {"id": 59967, "video": false, "vote_count": 7205, "vote_average": 6.8, "title": "Looper", "release_date": "2012-09-26", "original_language": "en", "original_title": "Looper", "genre_ids": [28, 878, 53], "backdrop_path": "/vuHG8VlYnvw4gUKtS7GY5kZol69.jpg", "adult": false, "overview": "In the futuristic action thriller Looper, time travel will be invented but it will be illegal and only available on the black market. When the mob wants to get rid of someone, they will send their target 30 years into the past where a looper, a hired gun, like Joe is waiting to mop up. Joe is getting rich and life is good until the day the mob decides to close the loop, sending back Joe's future self for assassination.", "poster_path": "/sNjL6SqErDBE8OUZlrDLkexfsCj.jpg", "popularity": 24.08}, {"id": 1580, "video": false, "vote_count": 1268, "vote_average": 8.0, "title": "Rope", "release_date": "1948-08-26", "original_language": "en", "original_title": "Rope", "genre_ids": [80, 53], "backdrop_path": "/2RWBzG3DYGYmgbsazg3Fls0X02l.jpg", "adult": false, "overview": "Two men attempt to prove they committed the perfect crime by hosting a dinner party after strangling their former classmate to death.", "poster_path": "/tJlmMbaleBT8IwuidgI0ZvlLbWA.jpg", "popularity": 16.196}, {"adult": false, "backdrop_path": "/lx9eC0e98ZrdU0y55LrydS8CMMp.jpg", "genre_ids": [28, 12, 80, 18, 9648, 53], "id": 9631, "original_language": "en", "original_title": "The Negotiator", "overview": "The police try to arrest expert hostage negotiator Danny Roman, who insists he's being framed for his partner's murder in what he believes is an elaborate conspiracy. Thinking there's evidence in the Internal Affairs offices that might clear him, he takes everyone in the office hostage and demands that another well-known negotiator be brought in to handle the situation and secretly investigate the conspiracy.", "poster_path": "/u4LQDr6QB5i7dz3sMuP8u3EOd3D.jpg", "release_date": "1998-07-29", "title": "The Negotiator", "video": false, "vote_average": 7.0, "vote_count": 1082, "popularity": 18.49}, {"id": 1645, "video": false, "vote_count": 1050, "vote_average": 7.2, "title": "A Time to Kill", "release_date": "1996-07-24", "original_language": "en", "original_title": "A Time to Kill", "genre_ids": [80, 18, 53], "backdrop_path": "/b1cfBhhorGYNPbMVT6C9cHwxRr8.jpg", "adult": false, "overview": "A young lawyer defends a black man accused of murdering two men who raped his 10-year-old daughter, sparking a rebirth of the KKK.", "poster_path": "/1q2kU8NMGO446b0QAvVdY2v778x.jpg", "popularity": 16.279}, {"adult": false, "backdrop_path": "/2zh06EWekQWzlxa4jpFKRuXEtgf.jpg", "genre_ids": [80, 18, 28, 53], "id": 9411, "original_language": "en", "original_title": "Fallen", "overview": "Homicide detective John Hobbes witnesses the execution of serial killer Edgar Reese. Soon after the execution the killings start again, and they are very similar to Reese's style.", "poster_path": "/v66GrbKcl1babq8BebUff0MI3m4.jpg", "release_date": "1998-01-16", "title": "Fallen", "video": false, "vote_average": 6.8, "vote_count": 674, "popularity": 15.448}, {"adult": false, "backdrop_path": "/sDSwD63e0qfNE1YvH8aczFoSGTt.jpg", "genre_ids": [80, 18, 53], "id": 11826, "original_language": "en", "original_title": "Sexy Beast", "overview": "The idyllic life of retired safecracker Gal is put at risk when a psychotic gangster from his past arrives at his villa in southern Spain, intent on bringing him out of retirement for one last job.", "poster_path": "/rpo9njGpJVLPqRrdM6R7wIqiQ7K.jpg", "release_date": "2001-01-12", "title": "Sexy Beast", "video": false, "vote_average": 7.0, "vote_count": 391, "popularity": 9.281}, {"adult": false, "backdrop_path": "/tR1RXbnkSvZq0sgx0Gyh3GmgYoB.jpg", "genre_ids": [80, 18, 53], "id": 21734, "original_language": "en", "original_title": "Shadow of a Doubt", "overview": "A bored teen living in Santa Rosa, California, Charlotte \"Charlie\" Newton, is frustrated because nothing seems to be happening in her life and that of her family. Then, she receives wonderful news: her uncle (for whom she was named), Charlie Oakley, is arriving for a visit. But Uncle Charlie may not be the man he seems to be.", "poster_path": "/ptyWagbWE8jSGyV2tGEzAdVbRCj.jpg", "release_date": "1943-01-15", "title": "Shadow of a Doubt", "video": false, "vote_average": 7.7, "vote_count": 448, "popularity": 12.942}], "total_pages": 291, "total_results": 5805}, "recommendations": {"page": 1, "results": [{"adult": false, "backdrop_path": "/5TdReeO0c4WeKxOZDSFJmJFurWi.jpg", "genre_ids": [27], "id": 58405, "original_language": "ja", "original_title": "\u5973\u512a\u970a", "overview": "On the set of a dark war time drama at an old movie studio, a young director, Toshio Murai (Yanagi), is trying to complete his debut film. The two starring actresses, Hitomi Kurokawa and Saori Murakami, play sisters in his film. Murai has a crush on Hitomi (Shiroshima), the seasoned leading actress, and keeps a photo of her by his bed. The younger and less experienced actress, Saori (Ishibashi), is annoying and likes to have recess on the set. The production of the movie is consistently interrupted by strange occurrences and the cast and crew begin to get spooked.", "poster_path": "/5MvrCILApLzAL8m2eEI7geD4hxq.jpg", "release_date": "1996-01-01", "title": "Don't Look Up", "video": false, "vote_average": 7.0, "vote_count": 5, "popularity": 1.481}, {"adult": false, "backdrop_path": "/b0WGB60HiGWvQRlDb418DD2sR8h.jpg", "genre_ids": [53, 27], "id": 122267, "original_language": "ko", "original_title": "\uc6d4\ud558\uc758 \uacf5\ub3d9\ubb18\uc9c0", "overview": "The kisaeng Wol-ha marries Kim Han-su, but soon dies because of a false accusation made up by her husbands mother and her servant. Now the ghost of Wol-ha wants revenge!", "poster_path": "/4XRAheVumZezo2abVWXBEtn20cL.jpg", "release_date": "1967-01-01", "title": "The Public Cemetery Under the Moon", "video": false, "vote_average": 5.3, "vote_count": 3, "popularity": 1.362}, {"adult": false, "backdrop_path": null, "genre_ids": [80, 27, 9648], "id": 78452, "original_language": "ko", "original_title": "\ud574\ubcc0\uc73c\ub85c \uac00\ub2e4", "overview": "A group of Internet chatters decides to spend the summer together at a beach, renting an apartment and trying to know each other for real (or maybe they just want to have sex). Apparently a guy named \"Sandmanz\" committed suicide when he was ousted from the chatroom, and the group has split opinions on the matter. Some think he was just a psycho with no life, and he had it coming. Some others, like Yoo-na (the one who got closer to him), think that someone spread lies to force him to quit. Suddenly, the group is decimated by a mysterious figure who keeps e-mailing everyone that his/her fate will not be unlike Sandmanz's. The search for the killer begins, while people die right and left. (lovehkfilm.com)", "poster_path": "/61xXVFeNjeTWnTUwLUJWZ92z1jB.jpg", "release_date": "2000-08-12", "title": "Bloody Beach", "video": false, "vote_average": 4.0, "vote_count": 3, "popularity": 2.629}, {"adult": false, "backdrop_path": "/uiyLAA32D65sBKMysUD83Ay5ZDi.jpg", "genre_ids": [53, 27], "id": 267399, "original_language": "ko", "original_title": "\uc62c\uac00\ubbf8", "overview": "Newlywed, Su-jin, believes that nothing will interfere with her happiness or come between herself and her husband, Dong-woo. That is, until she meets her mother-in-law. Dong-woo is devoted to his mother and now that they are all living together, it isn't long before Su-jin notices something unnatural about the amount of affection between the two. When confronted, Dong-woo promises his new wife that she will be his priority. However, he must spend a lot of time away from home because of his job granting the mother-in-law sufficient time to plot how to eliminate her rival.", "poster_path": "/dGtpK9JApEJ8YqFz3AR0DpONdxe.jpg", "release_date": "1997-11-01", "title": "The Hole", "video": false, "vote_average": 6.0, "vote_count": 3, "popularity": 1.773}, {"adult": false, "backdrop_path": "/gcgNAITX6yDNrFDoPj7VTzoXV8H.jpg", "genre_ids": [27], "id": 52410, "original_language": "en", "original_title": "\u30b3\u30ef\u30a4\u5973", "overview": "Unholy Women (Kowai onna), is a composite of three unrelated half-hour horror movies. A compilation of 3 separate short horror films (Rattle Rattle, Hagane, The Inheritance) written and directed by Keita Amemiya, Takuji Suzuki, and Keisuke Toyoshima respectively.  The first segment, \u201cRattle Rattle\u201d, tells the story of a young woman who is pursued by an evil other-worldly being. The second movie, \u201cSteel\u201d, concerns a young man who agrees to take the sister of his boss out on a blind date, drawing him into a world more frightening than he ever dreamed possible. The third and final episode, \u201cThe Inheritance\u201d, is a supernatural tale of a woman and her young son, scarred by abuse and psychological trauma.", "poster_path": "/tUxAscnjHaOht0hhA1TR9sKUoPg.jpg", "release_date": "2006-11-25", "title": "Unholy Women", "video": false, "vote_average": 6.3, "vote_count": 13, "popularity": 3.01}, {"adult": false, "backdrop_path": null, "genre_ids": [10770, 27], "id": 395018, "original_language": "ja", "original_title": "Gakk\u00f4 no kaidan G", "overview": "A made-for-TV anthology horror film composed of four stories, two of which serving as prequels to the Ju-on series.", "poster_path": "/4ih9affNLr5WTtyLITKqql7aAJO.jpg", "release_date": "1998-09-27", "title": "School Ghost Story G", "video": false, "vote_average": 7.3, "vote_count": 6, "popularity": 1.389}, {"adult": false, "backdrop_path": "/ll4RM3raPDg8hFAYnqgYePDx3XD.jpg", "genre_ids": [27, 53], "id": 68477, "original_language": "ja", "original_title": "Saimin", "overview": "Three apparently unrelated suicides occur on the same day in Tokyo. One involves a young athlete, one a groom at his wedding reception, and the third an elderly man celebrating his wife's birthday. A middle aged detective investigating one of the cases begins to suspect a connection between the three when he discovers that each person mentioned a \"green monkey\" before they died. With the help of a young psychiatrist he formulates the theory that hypnosis is somehow involved. In the mean time other bizarre \"suicides\" are reported and the mystery intensifies. Who will be next? What is the truth? Can more deaths be prevented?", "poster_path": "/gac5Ctq5guaiPr49qlC9nK6Q2FN.jpg", "release_date": "1999-06-05", "title": "Hypnosis", "video": false, "vote_average": 6.2, "vote_count": 11, "popularity": 1.835}, {"adult": false, "backdrop_path": "/7cB8R7s1V7oXUniKxn20sshm6hZ.jpg", "genre_ids": [14, 27, 10749], "id": 54111, "original_language": "ko", "original_title": "\uc5ec\uace0\uad34\ub2f4 \ub450\ubc88\uc9f8 \uc774\uc57c\uae30", "overview": "In this second installment of the Whispering Corridors series, a young girl finds a strange diary, capable of arousing hallucinations, kept by two of her senior fellow-students who seem to have an unusually close bond.", "poster_path": "/zpszvqERMuVL7iUCnKGn9Trwnxr.jpg", "release_date": "1999-12-24", "title": "Memento Mori", "video": false, "vote_average": 6.1, "vote_count": 53, "popularity": 4.593}, {"adult": false, "backdrop_path": "/5QCLU5cP8V0jcE9N1Vwc4xkaDHH.jpg", "genre_ids": [27, 9648], "id": 56781, "original_language": "ko", "original_title": "\ubd88\uc2e0\uc9c0\uc625", "overview": "When 13-year-old So-Jin disappears, her elder sister Hee-Jin returns to the apartment of their religious-maniac mother. Tae-Hwan, a cop, who reluctantly has to take the case seriously is confronted with more and more suicides that are difficult to explain rationally. And why does the skeptical Hee-Jin, who keeps having gruesome encounters with suicides, have to keep coughing?", "poster_path": "/gk0zS49loK31szoldAJ4y2tOZ7P.jpg", "release_date": "2009-08-12", "title": "Possessed", "video": false, "vote_average": 5.9, "vote_count": 17, "popularity": 2.482}], "total_pages": 1, "total_results": 9}, "credits": {"cast": [{"cast_id": 7, "character": "Sun-ju", "credit_id": "52fe46589251416c91051657", "gender": 1, "id": 69289, "name": "Shin Eun-kyung", "order": 0, "profile_path": "/gZZcDDQfHeBmZrNALIpH29dWXU7.jpg"}, {"cast_id": 15, "character": "Choi Yeol", "credit_id": "52fe46589251416c9105166f", "gender": 2, "id": 96484, "name": "Jung Jin-young", "order": 1, "profile_path": "/hPkYgW17l39kIEbC8fO9ojFuqFo.jpg"}, {"cast_id": 10, "character": "Eun-suh", "credit_id": "52fe46589251416c9105165b", "gender": 1, "id": 21688, "name": "Bae Doo-na", "order": 2, "profile_path": "/owMv65TuU4thBBJCpv3uWr1bWfc.jpg"}, {"cast_id": 12, "character": "Reporter Kim", "credit_id": "52fe46589251416c91051663", "gender": 2, "id": 63441, "name": "Kim Chang-wan", "order": 4, "profile_path": null}, {"cast_id": 17, "character": "Old man Park", "credit_id": "5bd583ed925141039602789b", "gender": 2, "id": 552069, "name": "Yoon Joo-sang", "order": 5, "profile_path": "/qu7bSz7N5Rt0ZWIgnquT4cyO3BJ.jpg"}, {"cast_id": 18, "character": "Oh Kyung-Pil", "credit_id": "5bd583fbc3a36820ec02ecae", "gender": 2, "id": 1243879, "name": "Kim Jin-man", "order": 6, "profile_path": null}, {"cast_id": 19, "character": "Sang-Mi's mother", "credit_id": "5bd5840c0e0a2622cc029331", "gender": 1, "id": 118656, "name": "Kwon Nam-hee", "order": 7, "profile_path": null}], "crew": [{"credit_id": "5bd584470e0a2622dd02b327", "department": "Writing", "gender": 0, "id": 27786, "job": "Novel", "name": "K\u00f4ji Suzuki", "profile_path": null}, {"credit_id": "52fe46589251416c9105164d", "department": "Editing", "gender": 0, "id": 118061, "job": "Editor", "name": "Mauricio Dortona", "profile_path": null}, {"credit_id": "52fe46589251416c91051635", "department": "Production", "gender": 0, "id": 118061, "job": "Producer", "name": "Mauricio Dortona", "profile_path": null}, {"credit_id": "52fe46589251416c91051641", "department": "Crew", "gender": 0, "id": 118061, "job": "Cinematography", "name": "Mauricio Dortona", "profile_path": null}, {"credit_id": "52fe46589251416c9105163b", "department": "Sound", "gender": 2, "id": 118062, "job": "Original Music Composer", "name": "Won Il", "profile_path": "/265dHx7DqzI13O1UExBccsR8Hco.jpg"}, {"credit_id": "52fe46589251416c91051647", "department": "Crew", "gender": 0, "id": 118063, "job": "Cinematography", "name": "Chul-hyun Hwang", "profile_path": null}, {"credit_id": "55b7511bc3a3682282001dea", "department": "Directing", "gender": 0, "id": 235333, "job": "Director", "name": "Kim Dong-bin", "profile_path": null}, {"credit_id": "5bd5842d925141039b027ad8", "department": "Writing", "gender": 0, "id": 235333, "job": "Writer", "name": "Kim Dong-bin", "profile_path": null}]}}