{"adult": false, "backdrop_path": null, "belongs_to_collection": null, "budget": 0, "genres": [{"id": 18, "name": "Drama"}], "homepage": null, "id": 37602, "imdb_id": "tt0301245", "original_language": "nl", "original_title": "Oesters van Nam Kee", "overview": "Young Dutch dropout, Berry, falls in love with slightly older nightclub dancer and ex-nude model Thera and gives up his social live with his dodgy comrades and fine family to make a three-stop 'world tour' together. Suddenly Thera ODs terribly, leaving Berry alone with his obsessive but unanswered love which drives him crazy.", "popularity": 1.376, "poster_path": "/67KQ3FNHsjlwuTLFAdfTM81HqIM.jpg", "production_companies": [], "production_countries": [{"iso_3166_1": "NL", "name": "Netherlands"}], "release_date": "2002-09-05", "revenue": 0, "runtime": 104, "spoken_languages": [{"iso_639_1": "nl", "name": "Nederlands"}], "status": "Released", "tagline": "", "title": "Oysters at Nam Kee's", "video": false, "vote_average": 5.1, "vote_count": 7, "keywords": {"keywords": [{"id": 190370, "name": "erotic movie"}]}, "similar": {"page": 1, "results": [{"adult": false, "backdrop_path": "/tk6QB32plylH41eo2Pbv4sIVljO.jpg", "genre_ids": [18], "id": 50270, "original_language": "it", "original_title": "Paprika", "overview": "A young country girl comes to town and works in a brothel in order to help her fiance get the money to start his own business. \"Paprika\" is the name given to her by the madam.", "poster_path": "/6QthFTJvUheocw3fcKklnsMcGib.jpg", "release_date": "1991-02-13", "title": "Paprika", "video": false, "vote_average": 5.9, "vote_count": 81, "popularity": 19.933}, {"adult": false, "backdrop_path": "/gPiurUCO9Aq5BoftzRjNlvbBrPg.jpg", "genre_ids": [18, 10749], "id": 24402, "original_language": "fr", "original_title": "Emmanuelle", "overview": "Emmanuelle, a svelte, naive young woman, is en route to Bangkok where she'll join her new husband. He works for the French Embassy and has a lovely home, several dedicated servants, and an expensive car at his disposal. Once Emmanuelle arrives, her husband and a few friends introduce her to a realm of sexual ecstasy she'd never imagined.", "poster_path": "/cSZ8MQIoec4w0liHP4x8FJH5BJK.jpg", "release_date": "1974-06-25", "title": "Emmanuelle", "video": false, "vote_average": 5.1, "vote_count": 135, "popularity": 24.885}, {"adult": false, "backdrop_path": "/bYbnlh6VXFRtcSX82UMDsBDLB5j.jpg", "genre_ids": [18, 10749], "id": 28468, "original_language": "it", "original_title": "La chiave", "overview": "After twenty years of marriage, art professor Nino Rolfe attempts to break down his wife Teresa's conventional modesty. Noticing her affection for their daughter's fianc\u00e9, Nino instigates her sexual interest in him as well. This sets off a chain of unexpected events and emotional complications, as Nino and his unpredictable fascist daughter find that they both enjoy being jealous.", "poster_path": "/e6g2geNLgFzMbriH6EvSJZD78nx.jpg", "release_date": "1983-10-18", "title": "The Key", "video": false, "vote_average": 5.0, "vote_count": 128, "popularity": 15.363}, {"adult": false, "backdrop_path": "/xC9cG6Wy6QbH2hoAx11xPPD995R.jpg", "genre_ids": [18, 10749], "id": 86331, "original_language": "fr", "original_title": "Q", "overview": "In a social context deteriorated by a countrywide economic crisis, the life of several people will be turned upside down after they meet Cecile, a character who symbolizes desire.", "poster_path": "/9Jg9s4yTEndNmy1SSXRF9jdxY9D.jpg", "release_date": "2011-09-14", "title": "Desire", "video": false, "vote_average": 4.6, "vote_count": 204, "popularity": 25.756}, {"adult": false, "backdrop_path": "/98ahnrena4PwLth7HFYGLf9yssH.jpg", "genre_ids": [35, 18, 10749], "id": 22705, "original_language": "it", "original_title": "Tra(sgre)dire", "overview": "While scouting out apartments in London for her Venetian boyfriend, Carla rents an apartment that overlooks the Thames. There she meet the lesbian hyper-horny real estate agent Moira.", "poster_path": "/kZITrLEiTfzzJhtwtXhQUl3ImCQ.jpg", "release_date": "2000-01-28", "title": "Cheeky", "video": false, "vote_average": 5.7, "vote_count": 92, "popularity": 30.42}, {"id": 88, "video": false, "vote_count": 3464, "vote_average": 7.3, "title": "Dirty Dancing", "release_date": "1987-08-21", "original_language": "en", "original_title": "Dirty Dancing", "genre_ids": [18, 10402, 10749], "backdrop_path": "/ngDmpFRzNGr9XMtKchhBZjt4DLH.jpg", "adult": false, "overview": "Expecting the usual tedium that accompanies a summer in the Catskills with her family, 17-year-old Frances 'Baby' Houseman is surprised to find herself stepping into the shoes of a professional hoofer\u2014and unexpectedly falling in love.", "poster_path": "/jFoktPxTtabZfh9JeDy3F78g9w7.jpg", "popularity": 23.93}, {"adult": false, "backdrop_path": "/rXBB8F6XpHAwci2dihBCcixIHrK.jpg", "genre_ids": [18, 10749], "id": 341174, "original_language": "en", "original_title": "Fifty Shades Darker", "overview": "When a wounded Christian Grey tries to entice a cautious Ana Steele back into his life, she demands a new arrangement before she will give him another chance. As the two begin to build trust and find stability, shadowy figures from Christian\u2019s past start to circle the couple, determined to destroy their hopes for a future together.", "poster_path": "/wnVHDbGz7RvDAHFAsVVT88FxhrP.jpg", "release_date": "2017-02-08", "title": "Fifty Shades Darker", "video": false, "vote_average": 6.2, "vote_count": 4800, "popularity": 16.061}, {"adult": false, "backdrop_path": "/tvTyRu9eKfymkje8d9VoWJEoyUv.jpg", "genre_ids": [18], "id": 53932, "original_language": "es", "original_title": "Las edades de Lul\u00fa", "overview": "Fifteen-year-old Lulu has never known any affection from her family. But when she goes to a rock concert with Pablo, a friend of the family, he introduces Lulu to her first sexual experience. Years later, Pablo and Lulu have married; Pablo has created a sheltered, private world for Lulu, into which nothing intrudes. However, Lulu tires of her cloistered existence, and begins hanging out in shady bars, looking for vicarious thrills and danger.", "poster_path": "/5PK5MAN84o0ESgzeW9euozOLIEe.jpg", "release_date": "1990-12-13", "title": "The Ages of Lulu", "video": false, "vote_average": 5.7, "vote_count": 64, "popularity": 24.141}, {"id": 12531, "video": false, "vote_count": 91, "vote_average": 6.9, "title": "The Apartment", "release_date": "1996-07-27", "original_language": "fr", "original_title": "L'Appartement", "genre_ids": [18, 9648, 10749], "backdrop_path": "/64qyT8m4JQ6YODvXxtbHgKmXBX7.jpg", "adult": false, "overview": "A stylish suspense thriller that confounds the audience while presenting them with an extraordinary and elusive mystery. Max is a former playboy who has decided to settle down by marrying his current love, Muriel. However, during a business trip, Max catches a glimpse of the great lost love of his life, reviving his wanderlust and sending him off on a chase of the elusive Lisa, whom he had overheard suggesting to a friend that her lover, Daniel, had killed someone for her. Soon, Max is trying to unravel the mystery behind the suspicious death of Daniel's wife, which he hopes will lead him closer to Lisa.", "poster_path": "/1sqrQdQTn8jKLhUcPKfRVj639zA.jpg", "popularity": 19.17}, {"adult": false, "backdrop_path": "/a8xpxCnvqKyshdrDNFGs6oy4r8N.jpg", "genre_ids": [18, 10749], "id": 1278, "original_language": "en", "original_title": "The Dreamers", "overview": "A young American studying in Paris in 1968 strikes up a friendship with a French brother and sister. Set against the background of the '68 Paris student riots.", "poster_path": "/7ABcfmXQZeCXl5sNrDuLS1URMPN.jpg", "release_date": "2003-09-01", "title": "The Dreamers", "video": false, "vote_average": 7.2, "vote_count": 1671, "popularity": 15.849}, {"adult": false, "backdrop_path": "/8FfD5WXHrJLx0r4expl9IIBMsOW.jpg", "genre_ids": [18, 9648], "id": 280960, "original_language": "pt", "original_title": "Catarina e os Outros", "overview": "Outside, the first sun rays break the dawn.  Sixteen years old Catarina can't fall asleep.  Inconsequently, in the big city adults are moved by desire...  Catarina found she is HIV positive. She wants to drag everyone else along.", "poster_path": "/swSEhrje6NDIqtxAqjBziCkXWU8.jpg", "release_date": "2011-03-01", "title": "Catarina and the others", "video": false, "vote_average": 4.5, "vote_count": 70, "popularity": 11.145}, {"id": 263472, "video": false, "vote_count": 1669, "vote_average": 5.0, "title": "Knock Knock", "release_date": "2015-06-26", "original_language": "en", "original_title": "Knock Knock", "genre_ids": [18, 53], "backdrop_path": "/gJduaRau3X2oE3xkmjs1FufT2GE.jpg", "adult": false, "overview": "When a devoted husband and father is left home alone for the weekend, two stranded young women unexpectedly knock on his door for help. What starts out as a kind gesture results in a dangerous seduction and a deadly game of cat and mouse.", "poster_path": "/eynMtjBB1fXsB5vsQylVmsDLmvw.jpg", "popularity": 19.205}, {"adult": false, "backdrop_path": "/hm4vpIhBW75bTIDTurq2d4rLZy1.jpg", "genre_ids": [53, 18, 27], "id": 3511, "original_language": "en", "original_title": "The Broken", "overview": "The life of a successful radiologist spirals out of control when she sees the spitting image of herself driving down a London street. While attempting to uncover who the imposter could be, she stumbles into a terrifying mystery that her family and closest friends are somehow involved in, leaving her with no one to trust.", "poster_path": "/nGTUsccLUZhF9Bb5fjvL7KrogvC.jpg", "release_date": "2008-01-18", "title": "The Broken", "video": false, "vote_average": 5.5, "vote_count": 113, "popularity": 10.122}, {"id": 44214, "video": false, "vote_count": 9192, "vote_average": 7.6, "title": "Black Swan", "release_date": "2010-12-03", "original_language": "en", "original_title": "Black Swan", "genre_ids": [18, 27, 53], "backdrop_path": "/t8jFs6cOl1YVSfXXZivWtEb14tF.jpg", "adult": false, "overview": "A journey through the psyche of a young ballerina whose starring role as the duplicitous swan queen turns out to be a part for which she becomes frighteningly perfect.", "poster_path": "/dQ7uxvsVTspVIsqjfgQj8usJpwX.jpg", "popularity": 24.558}, {"id": 106646, "video": false, "vote_count": 13908, "vote_average": 8.0, "title": "The Wolf of Wall Street", "release_date": "2013-12-25", "original_language": "en", "original_title": "The Wolf of Wall Street", "genre_ids": [35, 80, 18], "backdrop_path": "/rP36Rx5RQh0rmH2ynEIaG8DxbV2.jpg", "adult": false, "overview": "A New York stockbroker refuses to cooperate in a large securities fraud case involving corruption on Wall Street, corporate banking world and mob infiltration. Based on Jordan Belfort's autobiography.", "poster_path": "/vK1o5rZGqxyovfIhZyMELhk03wO.jpg", "popularity": 35.327}, {"adult": false, "backdrop_path": "/gZeJziVigmRqbkEZwKAtSqlLQ6s.jpg", "genre_ids": [18, 10749], "id": 370663, "original_language": "en", "original_title": "Below Her Mouth", "overview": "An unexpected affair quickly escalates into a heart-stopping reality for two women whose passionate connection changes their lives forever.", "poster_path": "/nTGbq37hYLuNy7YgMg0gVLma0NS.jpg", "release_date": "2016-09-10", "title": "Below Her Mouth", "video": false, "vote_average": 6.2, "vote_count": 456, "popularity": 18.664}, {"adult": false, "backdrop_path": "/4QBI1pdjr2hH1fgC8NqwZZnWNso.jpg", "genre_ids": [10749, 35, 18], "id": 138697, "original_language": "en", "original_title": "Don Jon", "overview": "A New Jersey guy dedicated to his family, friends, and church, develops unrealistic expectations from watching porn and works to find happiness and intimacy with his potential true love.", "poster_path": "/xD93OhEhMPN0v5VXt21D6rx7HGg.jpg", "release_date": "2013-07-26", "title": "Don Jon", "video": false, "vote_average": 5.9, "vote_count": 2910, "popularity": 20.524}, {"adult": false, "backdrop_path": "/uC54rlRdLMZ46fnrz5SoVYleNyv.jpg", "genre_ids": [18], "id": 4995, "original_language": "en", "original_title": "Boogie Nights", "overview": "Set in 1977, back when sex was safe, pleasure was a business and business was booming, idealistic porn producer Jack Horner aspires to elevate his craft to an art form. Horner discovers Eddie Adams, a hot young talent working as a busboy in a nightclub, and welcomes him into the extended family of movie-makers, misfits and hangers-on that are always around. Adams' rise from nobody to a celebrity adult entertainer is meteoric, and soon the whole world seems to know his porn alter ego, \"Dirk Diggler\". Now, when disco and drugs are in vogue, fashion is in flux and the party never seems to stop, Adams' dreams of turning sex into stardom are about to collide with cold, hard reality.", "poster_path": "/gTq6MPt7SeMiJ2miHeMoNEZTz4p.jpg", "release_date": "1997-10-07", "title": "Boogie Nights", "video": false, "vote_average": 7.6, "vote_count": 1660, "popularity": 21.563}, {"id": 258216, "video": false, "vote_count": 1925, "vote_average": 6.9, "title": "Nymphomaniac: Vol. I", "release_date": "2013-12-25", "original_language": "en", "original_title": "Nymphomaniac: Vol. I", "genre_ids": [18], "backdrop_path": "/t9MElpSTsqNBttwntdevOgQuJDe.jpg", "adult": false, "overview": "A man named Seligman finds a fainted wounded woman in an alley and he brings her home. She tells him that her name is Joe and that she is nymphomaniac. Joe tells her life and sexual experiences with hundreds of men since she was a young teenager while Seligman tells about his hobbies, such as fly fishing, reading about Fibonacci numbers or listening to organ music.", "poster_path": "/49HMMZPVJcnUwe2QmVzBfxyLAY2.jpg", "popularity": 24.712}, {"id": 249397, "video": false, "vote_count": 1667, "vote_average": 6.7, "title": "Nymphomaniac: Vol. II", "release_date": "2013-12-25", "original_language": "en", "original_title": "Nymphomaniac: Vol. II", "genre_ids": [18, 9648], "backdrop_path": "/chloasXdurCYMk0Oa11665jFCQl.jpg", "adult": false, "overview": "The continuation of Joe's sexually dictated life delves into the darker aspects of her adult life and what led to her being in Seligman's care.", "poster_path": "/2FBFiDhx3tGe8PG4A5iuCbeIJ4s.jpg", "popularity": 19.876}], "total_pages": 151, "total_results": 3013}, "recommendations": {"page": 1, "results": [{"adult": false, "backdrop_path": "/8pUv9F83HX4aSSmjqHHV4UMlHcQ.jpg", "genre_ids": [18], "id": 15514, "original_language": "nl", "original_title": "Ik ook van jou", "overview": "While camping in France, Eric and Eddy fall in with two women. Eric talks to Silke, a Ugandan studying medicine in Holland. She tells him about her life and asks about the book he's writing: it's the story of his love affair with Reza. He tells her the story and we see it in flashbacks: Reza explodes into his boring life, she's unpredictable and their relationship becomes intense.", "poster_path": "/rrOORfxHLmONvyZc8V1vw5G0Fs4.jpg", "release_date": "2001-02-15", "title": "I Love You Too", "video": false, "vote_average": 5.5, "vote_count": 9, "popularity": 2.645}, {"id": 478588, "video": false, "vote_count": 4, "vote_average": 6.0, "title": "Alles voor elkaar", "release_date": "2017-10-12", "original_language": "nl", "original_title": "Alles voor elkaar", "genre_ids": [35, 10749], "backdrop_path": "/npbyTfddDfKtt4ZGBYicCY14iJ0.jpg", "adult": false, "overview": "", "poster_path": "/h6pomW5rMXM4lYofSvMpygC5Gpz.jpg", "popularity": 1.016}, {"adult": false, "backdrop_path": "/ugPCdx7qAHUZSjk0uICHRmenCaD.jpg", "genre_ids": [18, 10751, 35], "id": 35738, "original_language": "nl", "original_title": "Knetter", "overview": "Bonnie, a nine-year-old single child, is part of a family of three living in the Netherlands. They have a love of elephants, passed on by Bonnie's grandfather's grandfather who worked on a game reserve in Africa, and Bonnie feels that she instinctively does things like an elephant as a result. Her single mother, Lis, is bi-polar and at times spends days on end without even getting out of bed. Then there are other times when she will manically do wild acts, such as impromptu dancing in public. As a result, Bonnie's sturdy and stable grandmother must hold the family together by doing all the cooking, etc. After her grandmother is killed by a car, Bonnie becomes the most responsible family member and struggles with preparing meals and getting her reluctant mother to take her medication. She also must dodge Jorien, a social worker who is attempting to place her in a foster home.", "poster_path": "/v2Em45T1k1lCfAUxPxyoJcU6TpS.jpg", "release_date": "2005-01-01", "title": "Bonkers", "video": false, "vote_average": 7.7, "vote_count": 3, "popularity": 1.731}, {"adult": false, "backdrop_path": "/tpzMKawgk6iFkFhSbkwotEhAYSy.jpg", "genre_ids": [35, 18], "id": 76784, "original_language": "en", "original_title": "All Stars 2: Old Stars", "overview": "In All Stars 2 Old Stars, the unexpected wedding of one of the boys means they treat themselves to an \u2018old-fashioned training camp\u2019 in the form of a long weekend in Barcelona. The match between Barcelona and Real Madrid is meant to be the high point of the trip. But of course not everything goes according to plan for the Swift Boys.", "poster_path": "/6NKuAQmfbt81jVrsVYgXKmwrhFQ.jpg", "release_date": "2011-10-10", "title": "All Stars 2: Old Stars", "video": false, "vote_average": 6.4, "vote_count": 13, "popularity": 2.204}, {"adult": false, "backdrop_path": "/tCNtEY3nExmIRWYLBEh9lGHaW9e.jpg", "genre_ids": [35, 18], "id": 217775, "original_language": "en", "original_title": "Chez Nous", "overview": "Chez Nous is a feel good comedy and the name of a cafe in the heart of Amsterdam that is on the brink of being closed.", "poster_path": "/9A28DXRMYMVfNkUc6Iof9Gov12K.jpg", "release_date": "2013-10-02", "title": "Chez Nous", "video": false, "vote_average": 6.2, "vote_count": 6, "popularity": 2.964}, {"adult": false, "backdrop_path": "/pazbPYCGiFQkkQb5TfjZj3z2cfx.jpg", "genre_ids": [18], "id": 36350, "original_language": "nl", "original_title": "Interview", "overview": "A middle-aged journalist interviews the real-life Dutch star Katja Schuurman, in her own loft. Pierre, the journalist is annoyed at being given such a fluffy assignment, as he is normally a political correspondent. Initially he has no questions for Katja, but soon they are coaxing their darkest secrets out of each other.", "poster_path": "/6wQHYXC9o1NXWCAFFRIIGm6jTE.jpg", "release_date": "2003-05-28", "title": "Interview", "video": false, "vote_average": 6.7, "vote_count": 12, "popularity": 1.348}, {"adult": false, "backdrop_path": "/iUTaag86qox4lyObDRlQJZwgxap.jpg", "genre_ids": [35], "id": 31956, "original_language": "nl", "original_title": "Liever verliefd", "overview": "As her last lover Dirk breaks with her to his wedding to give a new chance, Anna has had it. For her no more men. Never. That same day she meets Rob. And a few hours later Sander. Both men fall in love with Anna, and she also falls for them. Together they form the perfect man Rob for jobs at home and good sex and Sander for the romance and ....", "poster_path": "/7t7vgvr3qvFROJmWUFFJlKUyCM7.jpg", "release_date": "2003-03-13", "title": "Rather Love", "video": false, "vote_average": 5.7, "vote_count": 9, "popularity": 1.565}, {"id": 24199, "video": false, "vote_count": 11, "vote_average": 5.3, "title": "Ellis in Glamourland", "release_date": "2004-09-24", "original_language": "nl", "original_title": "Ellis in Glamourland", "genre_ids": [35, 18], "backdrop_path": "/h5GDHuJYEB5Tzv47n4mueDln6SC.jpg", "adult": false, "overview": "", "poster_path": "/4dNioILx2ndKPxeI31sglSDfA81.jpg", "popularity": 2.377}, {"adult": false, "backdrop_path": "/vEoEBhcrokIFJ0Mz3u4loMVaS8l.jpg", "genre_ids": [35, 10749], "id": 42972, "original_language": "en", "original_title": "Volle Maan", "overview": "A bunch of graduates go out sailing to visit a secret Full Moon Party. Hans Nijboer also tries to get his brother Ties back home to work in the familie business. Ties has other plans, he wants to become a singer.", "poster_path": "/1Iu7549pC6wjkoZ74YWj7weDiOM.jpg", "release_date": "2002-10-10", "title": "Full Moon Party", "video": false, "vote_average": 5.4, "vote_count": 8, "popularity": 3.028}, {"adult": false, "backdrop_path": "/8PPlB1KSw9OvGq728OYiuQcZmyi.jpg", "genre_ids": [18, 35], "id": 2764, "original_language": "nl", "original_title": "All Stars", "overview": "Leading up to their 500th match, the late twenty-something members of a Dutch amateur soccer team have their intimate bond put to the test as they each find themselves facing increasing responsibilities off the pitch.", "poster_path": "/baS0d6udcJ6NUrNPp870dqs8Ivg.jpg", "release_date": "1997-05-01", "title": "All Stars", "video": false, "vote_average": 7.2, "vote_count": 12, "popularity": 1.956}, {"adult": false, "backdrop_path": "/nHBI76eabTlBKnKg4fU9JCiFoT2.jpg", "genre_ids": [53], "id": 276699, "original_language": "nl", "original_title": "Bloedlink", "overview": "Ex-cons Victor and Rico have masterminded a foolproof plan to abduct millonaires\u2019 daughter Laura Temming. When she is kidnapped and placed in a remote and soundproofed room, gradually the power relations shift. Exactly who is the perpetrator and who is the real victim?", "poster_path": "/up7mNyJMwQs4RL1NHIQMB82j92S.jpg", "release_date": "2014-09-24", "title": "Reckless", "video": false, "vote_average": 6.1, "vote_count": 10, "popularity": 2.699}, {"adult": false, "backdrop_path": "/crYOYykCBatGU1I9S4X3qSGKh87.jpg", "genre_ids": [80, 18, 10749], "id": 13904, "original_language": "nl", "original_title": "Zomerhitte", "overview": "Photographer Bob loses his girlfriend. A year later he meets Kathleen. Is she in love? Or does she use him for her dark dealings with the mafia?", "poster_path": "/fXKRLXHFIEBzP8nMExb8fiVBF0Y.jpg", "release_date": "2008-03-20", "title": "Summer Heat", "video": false, "vote_average": 5.9, "vote_count": 8, "popularity": 1.962}, {"adult": false, "backdrop_path": "/oFcGXsvME53c9QjacYGUZ5UdsxI.jpg", "genre_ids": [10749], "id": 378378, "original_language": "nl", "original_title": "Brasserie Valentijn", "overview": "Thirty-something Valentine runs a renowned restaurant and her stylish dining room is fully booked for Valentine's Day. Chef cook Angelo prepares the food and the tables are romantically covered. The guests enter, hoping for love on their menus. Valentine has everything under control, she thinks. But how could she expect that Frank, her old flame from 12 years ago would suddenly reappear on this day of love...", "poster_path": "/fMUOVtQJ6NI8kcAK6RTeNvbHgfz.jpg", "release_date": "2016-01-28", "title": "Brasserie Valentine", "video": false, "vote_average": 5.6, "vote_count": 10, "popularity": 1.552}, {"adult": false, "backdrop_path": "/lhHkm2GIO3myicZj9awIO59HgUg.jpg", "genre_ids": [35, 10751], "id": 120961, "original_language": "nl", "original_title": "Brammetje Baas", "overview": "Fidgety Bram (seven years old) thinks a lot about the world around him. He is very much looking forward to enter the first grade. But then he ends up in the class of the strict teacher Mr. Fish. The straightfoward Mr. Fish doesn\u2019t care about the inside world of the constantly moving around and unconcentrated little boy and does whatever it takes to make Bram do things the \u2018right\u2019 way. Bram\u2019s parents struggle with the question of how much they should expect their son to adapt without becoming completely miserable.", "poster_path": "/wCeVloK2q6dwkBCTWAFS0hzWsb2.jpg", "release_date": "2012-06-25", "title": "Fidgety Bram", "video": false, "vote_average": 7.4, "vote_count": 8, "popularity": 2.348}], "total_pages": 1, "total_results": 14}, "credits": {"cast": [{"cast_id": 2, "character": "Thera", "credit_id": "52fe465a9251416c91051b99", "gender": 1, "id": 118125, "name": "Katja Schuurman", "order": 0, "profile_path": "/praHCHNJh2xHPTaUW2uvOUBV5Km.jpg"}, {"cast_id": 4, "character": "Berry", "credit_id": "52fe465a9251416c91051b9d", "gender": 2, "id": 102353, "name": "Egbert Jan Weeber", "order": 2, "profile_path": "/ledFFKpPQZLFJSJabPGEP9fB3nZ.jpg"}, {"cast_id": 5, "character": "Berry", "credit_id": "52fe465a9251416c91051ba1", "gender": 0, "id": 1112245, "name": "Willem Voogd", "order": 3, "profile_path": "/g1qL2UH61fwFy4ca5W1KJNSd8MM.jpg"}], "crew": [{"credit_id": "52fe465a9251416c91051b95", "department": "Directing", "gender": 0, "id": 118123, "job": "Director", "name": "Pollo de Pimentel", "profile_path": null}]}}