{"adult": false, "backdrop_path": "/tpXD2c6SM4qSFzBkGoUS3BNrkDi.jpg", "belongs_to_collection": null, "budget": 0, "genres": [{"id": 18, "name": "Drama"}], "homepage": null, "id": 37630, "imdb_id": "tt1348318", "original_language": "cs", "original_title": "Protektor", "overview": "A Czech journalist joins a Prague radio station what broadcasts Nazi propaganda in order to protect his Jewish wife. However, as the Nazi rule over Czechoslovakia calls for more and more collaboration, his relationship with his wife spirals downward.", "popularity": 1.87, "poster_path": "/7z38u8cKh0a68j7mC4tJi3dEnqN.jpg", "production_companies": [{"id": 6107, "logo_path": null, "name": "HBO \u010cesk\u00e1 republika", "origin_country": "CZ"}, {"id": 6108, "logo_path": null, "name": "Media Plus", "origin_country": ""}, {"id": 4595, "logo_path": null, "name": "Negativ", "origin_country": "CZ"}], "production_countries": [{"iso_3166_1": "CZ", "name": "Czech Republic"}], "release_date": "2009-09-22", "revenue": 0, "runtime": 98, "spoken_languages": [{"iso_639_1": "cs", "name": "\u010cesk\u00fd"}], "status": "Released", "tagline": "", "title": "The Protector", "video": false, "vote_average": 5.1, "vote_count": 5, "keywords": {"keywords": [{"id": 2135, "name": "radio"}, {"id": 2606, "name": "jew / jewish"}, {"id": 2652, "name": "nazi"}, {"id": 2903, "name": "propaganda"}]}, "similar": {"page": 1, "results": [{"id": 424, "video": false, "vote_count": 8985, "vote_average": 8.6, "title": "Schindler's List", "release_date": "1993-11-30", "original_language": "en", "original_title": "Schindler's List", "genre_ids": [18, 36, 10752], "backdrop_path": "/cTNYRUTXkBgPH3wP3kmPUB5U6dA.jpg", "adult": false, "overview": "The true story of how businessman Oskar Schindler saved over a thousand Jewish lives from the Nazis while they worked as slaves in his factory during World War II.", "poster_path": "/yPisjyLweCl1tbgwgtzBCNCBle.jpg", "popularity": 31.046}, {"id": 16869, "video": false, "vote_count": 13519, "vote_average": 8.1, "title": "Inglourious Basterds", "release_date": "2009-08-18", "original_language": "en", "original_title": "Inglourious Basterds", "genre_ids": [28, 18, 53, 10752], "backdrop_path": "/50VD6QU0NX0aRB6ftKCVWun80bm.jpg", "adult": false, "overview": "In Nazi-occupied France during World War II, a group of Jewish-American soldiers known as \"The Basterds\" are chosen specifically to spread fear throughout the Third Reich by scalping and brutally killing Nazis. The Basterds, lead by Lt. Aldo Raine soon cross paths with a French-Jewish teenage girl who runs a movie theater in Paris which is targeted by the soldiers.", "poster_path": "/ai0LXkzVM3hMjDhvFdKMUemoBe.jpg", "popularity": 41.526}, {"id": 637, "video": false, "vote_count": 8080, "vote_average": 8.5, "title": "Life Is Beautiful", "release_date": "1997-12-20", "original_language": "it", "original_title": "La vita \u00e8 bella", "genre_ids": [35, 18], "backdrop_path": "/bORe0eI72D874TMawOOFvqWS6Xe.jpg", "adult": false, "overview": "A touching story of an Italian book seller of Jewish ancestry who lives in his own little fairy tale. His creative and happy life would come to an abrupt halt when his entire family is deported to a concentration camp during World War II. While locked up he tries to convince his son that the whole thing is just a game.", "poster_path": "/f7DImXDebOs148U4uPjI61iDvaK.jpg", "popularity": 33.768}, {"adult": false, "backdrop_path": "/7QDnuj2T6CCY5wOSnKfYH7cIb6M.jpg", "genre_ids": [18, 35, 10752], "id": 8056, "original_language": "fr", "original_title": "Train de vie", "overview": "In 1941, the inhabitants of a small Jewish village in Central Europe organize a fake deportation train so that they can escape the Nazis and flee to Palestine.", "poster_path": "/anUwgyVrC7kUwN5OliazbC5qBfr.jpg", "release_date": "1998-09-16", "title": "Train of Life", "video": false, "vote_average": 7.5, "vote_count": 150, "popularity": 7.757}, {"id": 821, "video": false, "vote_count": 348, "vote_average": 8.1, "title": "Judgment at Nuremberg", "release_date": "1961-12-01", "original_language": "en", "original_title": "Judgment at Nuremberg", "genre_ids": [18, 36], "backdrop_path": "/g8yVrnJ72eOt1Xw4uyYBIsBBE2g.jpg", "adult": false, "overview": "In 1947, four German judges who served on the bench during the Nazi regime face a military tribunal to answer charges of crimes against humanity. Chief Justice Haywood hears evidence and testimony not only from lead defendant Ernst Janning and his defense attorney Hans Rolfe, but also from the widow of a Nazi general, an idealistic U.S. Army captain and reluctant witness Irene Wallner.", "poster_path": "/iu7VMhBma5S94M3wh0fR8cmwgUf.jpg", "popularity": 11.763}, {"id": 289222, "video": false, "vote_count": 835, "vote_average": 7.4, "title": "The Zookeeper's Wife", "release_date": "2017-03-31", "original_language": "en", "original_title": "The Zookeeper's Wife", "genre_ids": [18, 36], "backdrop_path": "/rE6W3KHdIuTdgRDLOOOMR3gfGgc.jpg", "adult": false, "overview": "The account of keepers of the Warsaw Zoo, Jan and Antonina Zabinski, who helped save hundreds of people and animals during the Nazi invasion.", "poster_path": "/50KGpMiIvSkF4WHOgp0gM6r6sMU.jpg", "popularity": 14.144}, {"adult": false, "backdrop_path": "/qtD2lFLG5T7L8flbKSEIoSqcslI.jpg", "genre_ids": [18, 10752], "id": 7862, "original_language": "de", "original_title": "Die F\u00e4lscher", "overview": "The story Jewish counterfeiter, Salomon Sorowitsch, coerced into assisting the Nazi operation of the Sachsenhausen concentration camp during World War II.", "poster_path": "/bRQddrgVemZtFdnrPy9AxTpkhpj.jpg", "release_date": "2007-02-09", "title": "The Counterfeiters", "video": false, "vote_average": 7.4, "vote_count": 261, "popularity": 8.902}, {"id": 914, "video": false, "vote_count": 1696, "vote_average": 8.4, "title": "The Great Dictator", "release_date": "1940-10-15", "original_language": "en", "original_title": "The Great Dictator", "genre_ids": [35], "backdrop_path": "/qkpsvso2neEr7v6YnyMoZtm6R9F.jpg", "adult": false, "overview": "Dictator Adenoid Hynkel tries to expand his empire while a poor Jewish barber tries to avoid persecution from Hynkel's regime.", "poster_path": "/hK2KsU0lNiYRqIrYJcC3x63dPnH.jpg", "popularity": 17.646}, {"adult": false, "backdrop_path": "/pKawqrtCBMmxarft7o1LbEynys7.jpg", "genre_ids": [10752, 18, 28], "id": 228150, "original_language": "en", "original_title": "Fury", "overview": "In the last months of World War II, as the Allies make their final push in the European theatre, a battle-hardened U.S. Army sergeant named 'Wardaddy' commands a Sherman tank called 'Fury' and its five-man crew on a deadly mission behind enemy lines. Outnumbered and outgunned, Wardaddy and his men face overwhelming odds in their heroic attempts to strike at the heart of Nazi Germany.", "poster_path": "/fa4PxEPRKWRyjzYje1jM4m30qzd.jpg", "release_date": "2014-10-15", "title": "Fury", "video": false, "vote_average": 7.4, "vote_count": 7301, "popularity": 56.882}, {"id": 423, "video": false, "vote_count": 4648, "vote_average": 8.3, "title": "The Pianist", "release_date": "2002-09-17", "original_language": "en", "original_title": "The Pianist", "genre_ids": [18, 10752], "backdrop_path": "/xUR95VFV1UTyzS1C8Lj06hi2n2M.jpg", "adult": false, "overview": "The true story of pianist W\u0142adys\u0142aw Szpilman's experiences in Warsaw during the Nazi occupation. When the Jews of the city find themselves forced into a ghetto, Szpilman finds work playing in a caf\u00e9; and when his family is deported in 1942, he stays behind, works for a while as a laborer, and eventually goes into hiding in the ruins of the war-torn city.", "poster_path": "/hfMeo073RxKKjZZV4gSGema1yog.jpg", "popularity": 26.63}, {"adult": false, "backdrop_path": "/jLnm1qrsZd2FiC016nOjsgiHsQ2.jpg", "genre_ids": [18, 36], "id": 9045, "original_language": "fr", "original_title": "Amen.", "overview": "Kurt Gerstein\u2014a member of the Institute for Hygiene of the Waffen-SS\u2014is horrified by what he sees in the death camps. he is then shocked to learn that the process he used to purify water for his troops by using Zyklon-B, is now used to kill people in gas chambers.", "poster_path": "/3uaiPsJgagOVWzRsDlH3TKdVHrw.jpg", "release_date": "2002-02-13", "title": "Amen.", "video": false, "vote_average": 7.0, "vote_count": 166, "popularity": 8.873}, {"id": 14574, "video": false, "vote_count": 3970, "vote_average": 7.8, "title": "The Boy in the Striped Pyjamas", "release_date": "2008-05-07", "original_language": "en", "original_title": "The Boy in the Striped Pyjamas", "genre_ids": [18, 10752], "backdrop_path": "/tFyhGkJgV6M5zZAjS8SBVqOjzH4.jpg", "adult": false, "overview": "When his family moves from their home in Berlin to a strange new house in Poland, young Bruno befriends Shmuel, a boy who lives on the other side of the fence where everyone seems to be wearing striped pajamas. Unaware of Shmuel's fate as a Jewish prisoner or the role his own Nazi father plays in his imprisonment, Bruno embarks on a dangerous journey inside the camp's walls.", "poster_path": "/f40R9to84FGF7T5bp3KGB84Lklb.jpg", "popularity": 23.522}, {"id": 2576, "video": false, "vote_count": 158, "vote_average": 7.2, "title": "The Diary of Anne Frank", "release_date": "1959-03-18", "original_language": "en", "original_title": "The Diary of Anne Frank", "genre_ids": [18, 36], "backdrop_path": "/x7yCQSWXSczdHUMKEMk5qyoUazO.jpg", "adult": false, "overview": "The true, harrowing story of a young Jewish girl who, with her family and their friends, is forced into hiding in an attic in Nazi-occupied Amsterdam.", "poster_path": "/i7kUdUAF9eTxQG7GdR6lKUK96En.jpg", "popularity": 12.484}, {"adult": false, "backdrop_path": "/yGBa4cj6GBu4426Phj2voxfz1nz.jpg", "genre_ids": [18], "id": 203833, "original_language": "en", "original_title": "The Book Thief", "overview": "While subjected to the horrors of WWII Germany, young Liesel finds solace by stealing books and sharing them with others. Under the stairs in her home, a Jewish refuge is being sheltered by her adoptive parents.", "poster_path": "/rUJbwJkJNjwEcFYzEktOrgm5YUd.jpg", "release_date": "2013-11-08", "title": "The Book Thief", "video": false, "vote_average": 7.5, "vote_count": 3017, "popularity": 17.725}, {"id": 1771, "video": false, "vote_count": 14031, "vote_average": 6.9, "title": "Captain America: The First Avenger", "release_date": "2011-07-22", "original_language": "en", "original_title": "Captain America: The First Avenger", "genre_ids": [28, 12, 878], "backdrop_path": "/pmZtj1FKvQqISS6iQbkiLg5TAsr.jpg", "adult": false, "overview": "During World War II, Steve Rogers is a sickly man from Brooklyn who's transformed into super-soldier Captain America to aid in the war effort. Rogers must stop the Red Skull \u2013 Adolf Hitler's ruthless head of weaponry, and the leader of an organization that intends to use a mysterious device of untold powers for world domination.", "poster_path": "/vSNxAJTlD0r02V9sPYpOjqDZXUK.jpg", "popularity": 22.016}, {"id": 613, "video": false, "vote_count": 1991, "vote_average": 7.8, "title": "Downfall", "release_date": "2004-09-08", "original_language": "de", "original_title": "Der Untergang", "genre_ids": [18, 36, 10752], "backdrop_path": "/d3AmCJXvsP818di5KcCj4fNi36.jpg", "adult": false, "overview": "In April of 1945, Germany stands at the brink of defeat with the Russian Army closing in from the east and the Allied Expeditionary Force attacking from the west. In Berlin, capital of the Third Reich, Adolf Hitler proclaims that Germany will still achieve victory and orders his generals and advisers to fight to the last man. When the end finally does come, and Hitler lies dead by his own hand, what is left of his military must find a way to end the killing that is the Battle of Berlin, and lay down their arms in surrender.", "poster_path": "/2QmpblYvUThzBQ4ArdT1Kp43DZi.jpg", "popularity": 13.838}, {"adult": false, "backdrop_path": "/1RKpaOeY60gCNbkW2xGBrXYkZUg.jpg", "genre_ids": [18, 36, 10752], "id": 25237, "original_language": "ru", "original_title": "\u0418\u0434\u0438 \u0438 \u0441\u043c\u043e\u0442\u0440\u0438", "overview": "The invasion of a village in Byelorussia by German forces sends young Florya into the forest to join the weary Resistance fighters, against his family's wishes. There he meets a girl, Glasha, who accompanies him back to his village. On returning home, Florya finds his family and fellow peasants massacred. His continued survival amidst the brutal debris of war becomes increasingly nightmarish, a battle between despair and hope.", "poster_path": "/8MYIwgpXnc5x98dmidmJFD68MY6.jpg", "release_date": "1985-07-01", "title": "Come and See", "video": false, "vote_average": 8.3, "vote_count": 396, "popularity": 12.854}, {"id": 369885, "video": false, "vote_count": 3048, "vote_average": 6.7, "title": "Allied", "release_date": "2016-11-17", "original_language": "en", "original_title": "Allied", "genre_ids": [28, 18, 53, 10749, 10752], "backdrop_path": "/tC0tVH5KQhCwMlddnyA3iWOSuBA.jpg", "adult": false, "overview": "In 1942, an intelligence officer in North Africa encounters a female French Resistance fighter on a deadly mission behind enemy lines. When they reunite in London, their relationship is tested by the pressures of war.", "poster_path": "/nzXzLFTnd0Zb3ExfhOxlQgizgSu.jpg", "popularity": 32.359}, {"id": 11046, "video": false, "vote_count": 433, "vote_average": 7.6, "title": "Where Eagles Dare", "release_date": "1968-12-04", "original_language": "en", "original_title": "Where Eagles Dare", "genre_ids": [28, 12, 18, 36, 10752], "backdrop_path": "/aAFq5jVHV6RZpLcRXATskNBuEbM.jpg", "adult": false, "overview": "World War II is raging, and an American general has been captured and is being held hostage in the Schloss Adler, a Bavarian castle that's nearly impossible to breach. It's up to a group of skilled Allied soldiers to liberate the general before it's too late.", "poster_path": "/991u0tSWGTVXCYkgC6ftaGE4bkQ.jpg", "popularity": 16.468}, {"adult": false, "backdrop_path": "/nb70B4EXuoegiQ0C5N1fNVHIaYc.jpg", "genre_ids": [12, 18, 36, 53, 10752], "id": 5925, "original_language": "en", "original_title": "The Great Escape", "overview": "The Nazis, exasperated at the number of escapes from their prison camps by a relatively small number of Allied prisoners, relocates them to a high-security 'escape-proof' camp to sit out the remainder of the war. Undaunted, the prisoners plan one of the most ambitious escape attempts of World War II. Based on a true story.", "poster_path": "/qhy4HgUqhEbwQ1ekKTv7yEB3b0e.jpg", "release_date": "1963-06-20", "title": "The Great Escape", "video": false, "vote_average": 8.0, "vote_count": 1358, "popularity": 17.61}], "total_pages": 120, "total_results": 2398}, "recommendations": {"page": 1, "results": [], "total_pages": 1, "total_results": 0}, "credits": {"cast": [{"cast_id": 8, "character": "Hana Vrbatov\u00e1", "credit_id": "52fe465d9251416c91052099", "gender": 1, "id": 136806, "name": "Jana Plodkov\u00e1", "order": 0, "profile_path": "/v26Lc2EDBww3pcx9zzCeXnkRvND.jpg"}, {"cast_id": 9, "character": "Emil Vrbata", "credit_id": "52fe465d9251416c9105209d", "gender": 2, "id": 111218, "name": "Marek Daniel", "order": 1, "profile_path": "/bfjBlV0XK93VzljOBcnAkNtwww3.jpg"}, {"cast_id": 10, "character": "V\u011bra", "credit_id": "52fe465d9251416c910520a1", "gender": 1, "id": 136807, "name": "Kl\u00e1ra Mel\u00ed\u0161kov\u00e1", "order": 2, "profile_path": "/dl1MhTzXVW4gNqmjQvjgZAKO6Cl.jpg"}, {"cast_id": 11, "character": "Krista", "credit_id": "52fe465d9251416c910520a5", "gender": 1, "id": 136809, "name": "Sandra Nov\u00e1kov\u00e1", "order": 3, "profile_path": "/3R1nrIkkp72DFTpljtFYHRiAf1Y.jpg"}, {"cast_id": 12, "character": "Colleague", "credit_id": "52fe465d9251416c910520a9", "gender": 2, "id": 136811, "name": "Jan Buda\u0159", "order": 4, "profile_path": "/sDRmOQrq28vkIdaIMOz3BR1FOLC.jpg"}, {"cast_id": 13, "character": "Franta", "credit_id": "52fe465d9251416c910520ad", "gender": 2, "id": 136812, "name": "Martin My\u0161i\u010dka", "order": 5, "profile_path": "/tNeVQI76QeYj8TtXmchUxyU7BLY.jpg"}, {"cast_id": 14, "character": "Petr", "credit_id": "52fe465d9251416c910520b1", "gender": 2, "id": 136814, "name": "Tom\u00e1\u0161 M\u011bch\u00e1\u010dek", "order": 6, "profile_path": null}], "crew": [{"credit_id": "52fe465d9251416c91052083", "department": "Directing", "gender": 0, "id": 136802, "job": "Director", "name": "Marek Najbrt", "profile_path": "/s8IcdUEoHIT93HF2AMdCDyYnfMJ.jpg"}, {"credit_id": "52fe465d9251416c91052089", "department": "Writing", "gender": 0, "id": 136803, "job": "Screenplay", "name": "Marek Najbrt", "profile_path": null}, {"credit_id": "52fe465d9251416c9105208f", "department": "Writing", "gender": 2, "id": 136804, "job": "Screenplay", "name": "Benjamin Tu\u010dek", "profile_path": "/lN9pwfmB39DxMQrYRhx52XBCC1X.jpg"}, {"credit_id": "52fe465d9251416c91052095", "department": "Writing", "gender": 2, "id": 136805, "job": "Screenplay", "name": "Robert Geisler", "profile_path": null}, {"credit_id": "55313586c3a368221d00014b", "department": "Directing", "gender": 0, "id": 1455486, "job": "Assistant Director", "name": "Jakub Dvorak", "profile_path": null}]}}