{"adult": false, "backdrop_path": null, "belongs_to_collection": null, "budget": 0, "genres": [{"id": 99, "name": "Documentary"}, {"id": 36, "name": "History"}], "homepage": "http://www.espn.com/30for30/film?page=fantasticlies", "id": 377210, "imdb_id": "tt5432446", "original_language": "en", "original_title": "Fantastic Lies", "overview": "One night in Durham, North Carolina, a rape accusation set fire to the reputations of three college athletes and their elite university. As the Duke lacrosse players grappled with their transition from model student to the criminally accused, several wars were launched on different fronts.", "popularity": 3.844, "poster_path": "/9br8lZDL9BYwQ3pihH8978SYi3M.jpg", "production_companies": [{"id": 18595, "logo_path": "/2K8ko5VX6K2JTLmyctDpvH7Sgk9.png", "name": "ESPN Films", "origin_country": "US"}, {"id": 15285, "logo_path": "/rt5C9eCSrz7K1ReFRfTfddpe9K3.png", "name": "Lightbox Entertainment", "origin_country": "GB"}], "production_countries": [{"iso_3166_1": "US", "name": "United States of America"}], "release_date": "2016-03-13", "revenue": 0, "runtime": 103, "spoken_languages": [{"iso_639_1": "en", "name": "English"}], "status": "Released", "tagline": "", "title": "Fantastic Lies", "video": false, "vote_average": 7.3, "vote_count": 8, "keywords": {"keywords": [{"id": 570, "name": "rape"}, {"id": 3012, "name": "court case"}, {"id": 5922, "name": "north carolina"}, {"id": 6078, "name": "politics"}, {"id": 6593, "name": "stripper"}, {"id": 10825, "name": "lacrosse"}, {"id": 12425, "name": "racism"}, {"id": 14783, "name": "false accusations"}, {"id": 18112, "name": "durham north carolina"}, {"id": 33518, "name": "district attorney"}, {"id": 33722, "name": "true crime"}, {"id": 161166, "name": "misogyny"}, {"id": 187056, "name": "woman director"}, {"id": 190178, "name": "sex worker"}, {"id": 190327, "name": "sexual assault"}, {"id": 211140, "name": "college sports"}, {"id": 220721, "name": "university town"}]}, "similar": {"page": 1, "results": [{"id": 9813, "video": false, "vote_count": 128, "vote_average": 6.1, "title": "The Quiet", "release_date": "2005-09-12", "original_language": "en", "original_title": "The Quiet", "genre_ids": [18, 53], "backdrop_path": "/6eyWAZA4CEidZW1xXnQ4vlYBXTP.jpg", "adult": false, "overview": "After her widowed father dies, deaf teenager Dot moves in with her godparents, Olivia and Paul Deer. The Deers' daughter, Nina, is openly hostile to Dot, but that does not prevent her from telling her secrets to her silent stepsister, including the fact that she wants to kill her lecherous father.", "poster_path": "/GEqIE9YlmygHVUfS64LW2cwAAM.jpg", "popularity": 14.844}, {"adult": false, "backdrop_path": "/3WgaU6OjTlvjOhbq5C0UmKYQGoW.jpg", "genre_ids": [18, 10749], "id": 26338, "original_language": "fr", "original_title": "Romance", "overview": "Although deeply in love with her boyfriend - and indeed sleeping in the same bed with him - a schoolteacher cannot handle the almost complete lack of intimacy he will allow. Increasingly frustrated, she gradually finds her sexual appetites leading her into ever more risky situations, including a developing one with the headmaster.", "poster_path": "/lcDSXXnZok1qyv4TQ14iZ8g8OHf.jpg", "release_date": "1999-04-13", "title": "Romance", "video": false, "vote_average": 5.3, "vote_count": 101, "popularity": 18.89}, {"adult": false, "backdrop_path": "/bJLJAtGjBj836UjJZNOwgrfe5Ps.jpg", "genre_ids": [80, 18], "id": 359940, "original_language": "en", "original_title": "Three Billboards Outside Ebbing, Missouri", "overview": "After seven months have passed without a culprit in her daughter's murder case, Mildred Hayes makes a bold move, painting three signs leading into her town with a controversial message directed at Bill Willoughby, the town's revered chief of police. When his second-in-command Officer Jason Dixon, an immature mother's boy with a penchant for violence, gets involved, the battle between Mildred and Ebbing's law enforcement is only exacerbated.", "poster_path": "/vgvw6w1CtcFkuXXn004S5wQsHRl.jpg", "release_date": "2017-11-10", "title": "Three Billboards Outside Ebbing, Missouri", "video": false, "vote_average": 8.2, "vote_count": 6122, "popularity": 26.303}, {"id": 617, "video": false, "vote_count": 856, "vote_average": 6.3, "title": "Wild Things", "release_date": "1998-03-20", "original_language": "en", "original_title": "Wild Things", "genre_ids": [18, 9648, 53], "backdrop_path": "/wvMSGevzwrJAmK3xXYvse9goQgV.jpg", "adult": false, "overview": "When teen-socialite Kelly Van Ryan and troubled bad girl Suzie Toller accuse guidance counselor Sam Lombardo of rape, he's suspended by the school, rejected by the town, and fighting to get his life back. One cop suspects conspiracy, but nothing is what it seems...", "poster_path": "/dI9iYo1cL81yzJkBVyNGipjSvy0.jpg", "popularity": 15.963}, {"id": 548, "video": false, "vote_count": 991, "vote_average": 8.2, "title": "Rashomon", "release_date": "1950-08-25", "original_language": "ja", "original_title": "\u7f85\u751f\u9580", "genre_ids": [80, 18, 9648], "backdrop_path": "/eGWc9KHURMRghR1bEj25hZNztNX.jpg", "adult": false, "overview": "Brimming with action while incisively examining the nature of truth, \"Rashomon\" is perhaps the finest film ever to investigate the philosophy of justice. Through an ingenious use of camera and flashbacks, Kurosawa reveals the complexities of human nature as four people recount different versions of the story of a man's murder and the rape of his wife.", "poster_path": "/mwWJuktWk8z5OY4og0z48Jg4u3n.jpg", "popularity": 15.839}, {"id": 10047, "video": false, "vote_count": 791, "vote_average": 6.3, "title": "The Messenger: The Story of Joan of Arc", "release_date": "1999-10-27", "original_language": "en", "original_title": "Joan of Arc", "genre_ids": [28, 12, 18, 36, 10752], "backdrop_path": "/xh0UGiLqfM1OfRBvmQ5AVF4h0dj.jpg", "adult": false, "overview": "In 1429 a teenage girl from a remote French village stood before her King with a message she claimed came from God; that she would defeat the world's greatest army and liberate her country from its political and religious turmoil. Following her mission to reclaim god's diminished kingdom - through her amazing victories until her violent and untimely death.", "poster_path": "/3XCzDTqh4X5YHxwys0IOpDyi7ly.jpg", "popularity": 12.753}, {"adult": false, "backdrop_path": "/nriBinb7Y3Bm6LdbmOC0mFxSm8d.jpg", "genre_ids": [80, 18], "id": 226, "original_language": "en", "original_title": "Boys Don't Cry", "overview": "Female born, Teena Brandon adopts his male identity of Brandon Teena and attempts to find himself and love in Nebraska.", "poster_path": "/6bqIZTEuJnUrgnxcymciszvOz8J.jpg", "release_date": "1999-09-02", "title": "Boys Don't Cry", "video": false, "vote_average": 7.5, "vote_count": 718, "popularity": 10.072}, {"id": 93, "video": false, "vote_count": 414, "vote_average": 7.9, "title": "Anatomy of a Murder", "release_date": "1959-07-01", "original_language": "en", "original_title": "Anatomy of a Murder", "genre_ids": [80, 18, 9648, 53], "backdrop_path": "/aFfbSVwzXH5tCi5MQN0idkoFbk0.jpg", "adult": false, "overview": "The film pits a humble small-town lawyer against a hard-headed big city prosecutor. Emotions flare as a jealous army lieutenant pleads innocent to murdering the rapist of his seductive, beautiful wife.", "poster_path": "/rZ9QOB1ZqTjg9j0ftfur4AndoDa.jpg", "popularity": 14.413}, {"adult": false, "backdrop_path": "/pBgGl3GfVxs84T7ZniUAz5FMMNx.jpg", "genre_ids": [35, 10751, 12, 14, 10749], "id": 11451, "original_language": "en", "original_title": "Herbie Fully Loaded", "overview": "Maggie Peyton, the new owner of Number 53 - the free-wheelin' Volkswagen bug with a mind of its own - puts the car through its paces on the road to becoming a NASCAR competitor.", "poster_path": "/7lTfTZ8CDfXw09eAv3OOvsbCVgs.jpg", "release_date": "2005-06-22", "title": "Herbie Fully Loaded", "video": false, "vote_average": 5.3, "vote_count": 1347, "popularity": 14.041}, {"id": 71688, "video": false, "vote_count": 1019, "vote_average": 6.4, "title": "The Iron Lady", "release_date": "2011-12-30", "original_language": "en", "original_title": "The Iron Lady", "genre_ids": [18, 36], "backdrop_path": "/dfM5XwQcw36HAnKhowEh5776MJl.jpg", "adult": false, "overview": "A look at the life of Margaret Thatcher, the former Prime Minister of the United Kingdom, with a focus on the price she paid for power.", "poster_path": "/e67tal4u66eFz8yGnJGTO5FYRxY.jpg", "popularity": 10.839}, {"adult": false, "backdrop_path": "/cADbqsIoiDW7X3Myg9nz8eAuno5.jpg", "genre_ids": [18, 10749], "id": 10818, "original_language": "fr", "original_title": "Naissance des pieuvres", "overview": "Set during a sultry summer in a French suburb, Marie is desperate to join the local pool's synchronized swimming team, but is her interest solely for the sake of sport or for a chance to get close to Floriane, the bad girl of the team? Sciamma, and the two leads, capture the uncertainty of teenage sexuality with a sympathetic eye in this delicate drama of the angst of coming-of-age.", "poster_path": "/4jajELYrR4Xmv3CVoKnukRnALa2.jpg", "release_date": "2007-05-17", "title": "Water Lilies", "video": false, "vote_average": 6.1, "vote_count": 119, "popularity": 9.614}, {"adult": false, "backdrop_path": "/fZ8oFcREAr6wgWcXISGql0xyxjB.jpg", "genre_ids": [35, 18], "id": 39781, "original_language": "en", "original_title": "The Kids Are All Right", "overview": "Two women, Nic and Jules, brought a son and daughter into the world through artificial insemination. When one of their children reaches age, both kids go behind their mothers' backs to meet with the donor. Life becomes so much more interesting when the father, two mothers and children start to become attached to each other.", "poster_path": "/fPDeK4MmoGfi2X0oWZev7LrbMqM.jpg", "release_date": "2010-07-09", "title": "The Kids Are All Right", "video": false, "vote_average": 6.6, "vote_count": 923, "popularity": 12.159}, {"id": 400090, "video": false, "vote_count": 106, "vote_average": 7.3, "title": "The Nightingale", "release_date": "2019-08-02", "original_language": "en", "original_title": "The Nightingale", "genre_ids": [12, 18, 53], "backdrop_path": "/bwsANtJNaA5xDmxPp6z2JqEtfCI.jpg", "adult": false, "overview": "In 1825, Claire, a 21-year-old Irish convict, chases a British soldier through the rugged Tasmanian wilderness, bent on revenge for a terrible act of violence he committed against her family. She enlists the services of an Aboriginal tracker who is also marked by trauma from his own violence-filled past.", "poster_path": "/hWA8QwSM1kJYMoTANEPoqrqBapg.jpg", "popularity": 14.654}, {"id": 687, "video": false, "vote_count": 729, "vote_average": 7.4, "title": "Dead Man Walking", "release_date": "1995-12-29", "original_language": "en", "original_title": "Dead Man Walking", "genre_ids": [18], "backdrop_path": "/f6WMgACY6VQnGpz9L4eQ3hkfcJE.jpg", "adult": false, "overview": "A justice drama based on a true story about a man on death row who in his last days forms a strong relationship with a nun who teaches him forgiveness and gives him spirituality as she accompanies him to his execution.", "poster_path": "/jAuo0Buh8wSOrAnUoiwrJIuOs0q.jpg", "popularity": 10.74}, {"adult": false, "backdrop_path": "/24JDK9dRRRzkBjHBsKQIGs7sBkj.jpg", "genre_ids": [53, 18], "id": 303858, "original_language": "en", "original_title": "Money Monster", "overview": "Financial TV host Lee Gates and his producer Patty are put in an extreme situation when an irate investor takes over their studio.", "poster_path": "/p7KDmC2beuKCCMO49L767OgwLQr.jpg", "release_date": "2016-05-12", "title": "Money Monster", "video": false, "vote_average": 6.4, "vote_count": 2031, "popularity": 11.472}, {"adult": false, "backdrop_path": "/scRw6gAoO3CfgQnZjHCh2ZgU4Z1.jpg", "genre_ids": [80, 18, 878, 53], "id": 281, "original_language": "en", "original_title": "Strange Days", "overview": "Set in the year 1999 during the last days of the old millennium, the movie tells the story of Lenny Nero, an ex-cop who now deals with data-discs containing recorded memories and emotions. One day he receives a disc which contains the memories of a murderer killing a prostitute. Lenny investigates and is pulled deeper and deeper in a whirl of blackmail, murder and rape. Will he survive and solve the case?", "poster_path": "/rXvy5hG9OeVmgnv9w4IhQxhqEKD.jpg", "release_date": "1995-10-13", "title": "Strange Days", "video": false, "vote_average": 7.0, "vote_count": 663, "popularity": 17.431}, {"adult": false, "backdrop_path": "/fooJUOfkI6H9k7xqzASZpFya93p.jpg", "genre_ids": [53, 18], "id": 9264, "original_language": "en", "original_title": "Poison Ivy", "overview": "A seductive teen befriends an introverted high school student and schemes her way into the lives of her wealthy family.", "poster_path": "/pul5ZbW6Ok1yxseq0TY1keiMWmg.jpg", "release_date": "1992-05-08", "title": "Poison Ivy", "video": false, "vote_average": 5.4, "vote_count": 175, "popularity": 15.147}, {"id": 504, "video": false, "vote_count": 1127, "vote_average": 7.2, "title": "Monster", "release_date": "2003-12-24", "original_language": "en", "original_title": "Monster", "genre_ids": [80, 18], "backdrop_path": "/pexMctImHaIj8haojBDP5RxhM9X.jpg", "adult": false, "overview": "An emotionally scarred highway drifter shoots a sadistic trick who rapes her, and ultimately becomes America's first female serial killer.", "poster_path": "/aevmNtJCNG4ZlfEeEGZ79frMUes.jpg", "popularity": 14.393}, {"id": 376228, "video": false, "vote_count": 117, "vote_average": 7.3, "title": "Audrie & Daisy", "release_date": "2016-09-23", "original_language": "en", "original_title": "Audrie & Daisy", "genre_ids": [99], "backdrop_path": "/j2UEid7z8oy7EfJFO1rjJbW062F.jpg", "adult": false, "overview": "A documentary film about three cases of rape, that includes the stories of two American high school students, Audrie Pott and Daisy Coleman. At the time of the sexual assaults, Pott was 15 and Coleman was 14 years old. After the assaults, the victims and their families were subjected to abuse and cyberbullying.", "poster_path": "/bhfBPVRSgTlnbjapjwd4ootxJ7Z.jpg", "popularity": 8.467}, {"adult": false, "backdrop_path": "/rf6G51j0SZL0tP57I8gnqHTRFEr.jpg", "genre_ids": [35, 18, 10749], "id": 273153, "original_language": "fr", "original_title": "La belle saison", "overview": "In 1971, Carole and Delphine meet and fall in love in Paris. When Carole follows Delphine back to her family farm in Limousin, the two find lesbianism and feminism are not as easy in the countryside.", "poster_path": "/evvAkNMO5VJiy5qIo1Hu7fUfvVI.jpg", "release_date": "2015-08-19", "title": "Summertime", "video": false, "vote_average": 6.6, "vote_count": 162, "popularity": 11.575}], "total_pages": 13, "total_results": 247}, "recommendations": {"page": 1, "results": [{"adult": false, "backdrop_path": null, "genre_ids": [99], "id": 261813, "original_language": "en", "original_title": "Slaying the Badger", "overview": "Before Lance Armstrong, there was Greg LeMond, who is now the first and only American to win the Tour de France. In this engrossing documentary, LeMond looks back at the pivotal 1986 Tour, and his increasingly vicious rivalry with friend, teammate, and mentor Bernard Hinault. The reigning Tour champion and brutal competitor known as \u201cThe Badger,\u201d Hinault \u2018promised\u2019 to help LeMond to his first victory, in return for LeMond supporting him in the previous year. But in a sport that purports to reward teamwork, it\u2019s really every man for himself.", "poster_path": "/qkQ1h7W1h0V9ydcXXQ5ob1kGiR2.jpg", "release_date": "2014-07-22", "title": "Slaying the Badger", "video": false, "vote_average": 7.8, "vote_count": 4, "popularity": 1.263}, {"adult": false, "backdrop_path": null, "genre_ids": [99], "id": 259679, "original_language": "en", "original_title": "Requiem For The Big East", "overview": "Documentary about the Big East.  30 for 30 Present: Requiem For The Big East chronicles the meteoric ascension of the Big East conference, and how in less than a decade, it became the most successful college basketball league in America.", "poster_path": "/iMuDP5eKZQ0yG1fgFkkxxsMPP3J.jpg", "release_date": "2014-03-16", "title": "Requiem For The Big East", "video": false, "vote_average": 7.0, "vote_count": 4, "popularity": 1.364}, {"adult": false, "backdrop_path": null, "genre_ids": [99], "id": 251425, "original_language": "en", "original_title": "The Price of Gold", "overview": "The world couldn't keep its eyes off two athletes at the 1994 Winter Games in Lillehammer - Nancy Kerrigan, the elegant brunette from the Northeast, and Tonya Harding, the feisty blonde engulfed in scandal. Just weeks before the Olympics on Jan. 6, 1994 at the U.S. Figure Skating Championships, Kerrigan was stunningly clubbed on the right knee by an unknown assailant and left wailing, \"Why, why, why?\" As the bizarre \"why\" mystery unraveled, it was revealed that Harding's ex-husband, Jeff Gillooly, had plotted the attack with his misfit friends to literally eliminate Kerrigan from the competition. Now two decades later, THE PRICE OF GOLD takes a fresh look through Harding's turbulent career and life at the spectacle that elevated the popularity of professional figure skating and has Harding still facing questions over what she knew and when she knew it.", "poster_path": "/sYbc74tb2r9JWXCOszqsjzHlFih.jpg", "release_date": "2014-01-16", "title": "The Price of Gold", "video": false, "vote_average": 6.9, "vote_count": 7, "popularity": 1.778}, {"adult": false, "backdrop_path": null, "genre_ids": [99], "id": 372632, "original_language": "en", "original_title": "The '85 Bears", "overview": "30 years after the 1985 Chicago Bears ran roughshod over the rest of the NFL en route to winning the only Super Bowl title in franchise history, they remain one of the most legendary teams in league history.  From their dominating defense to their swaggering offense and their firebrand of a head coach, the Bears of that vintage team were a force to be reckoned with, and it\u2019s easy to see why their legacy has remained strong. Big personalities like Mike Ditka and Jim McMahon, combined with the ferocious attitudes of players like Mike Singletary and Steve McMichael made for a volatile mix that ended up carrying the Bears to a 15-1 record and to an emphatic victory in Super Bowl XX.", "poster_path": "/tzKGpcsxmUGjysn7oZsc8dutHVG.jpg", "release_date": "2016-02-04", "title": "The '85 Bears", "video": false, "vote_average": 7.6, "vote_count": 8, "popularity": 3.179}, {"adult": false, "backdrop_path": "/sH1Pzqh6LvPPiyw8o1tYAjrcnbs.jpg", "genre_ids": [99], "id": 265330, "original_language": "en", "original_title": "Bad Boys", "overview": "Documentary about the Detroit Pistons.", "poster_path": "/3LdEtd3IMJtw4zitgWZpIc60UFX.jpg", "release_date": "2014-04-17", "title": "Bad Boys", "video": false, "vote_average": 8.2, "vote_count": 11, "popularity": 2.954}], "total_pages": 1, "total_results": 5}, "credits": {"cast": [{"cast_id": 1, "character": "Himself", "credit_id": "5a9208a60e0a265f7a000884", "gender": 2, "id": 1315440, "name": "Don Yaeger", "order": 1, "profile_path": null}, {"cast_id": 2, "character": "Himself (archive footage)", "credit_id": "5a920e9bc3a36824f901489b", "gender": 2, "id": 89289, "name": "Jesse Jackson", "order": 2, "profile_path": "/yhhswMRSS5yd2gSWTnbPD67ON5C.jpg"}, {"cast_id": 3, "character": "Himself", "credit_id": "5a921c01c3a368250201511f", "gender": 2, "id": 1984741, "name": "KC Johnson", "order": 3, "profile_path": null}], "crew": [{"credit_id": "569501a0c3a3680ea80024e1", "department": "Directing", "gender": 0, "id": 938835, "job": "Director", "name": "Marina Zenovich", "profile_path": "/e8yM9qyIVkTTq10gDGdkclK67xF.jpg"}]}}