{"adult": false, "backdrop_path": "/ul5mWG1nxH0NycvlcHVGspRCzKI.jpg", "belongs_to_collection": null, "budget": 0, "genres": [{"id": 35, "name": "Comedy"}, {"id": 18, "name": "Drama"}], "homepage": null, "id": 377565, "imdb_id": "tt4669210", "original_language": "el", "original_title": "\u039d\u03bf\u03c4\u03b9\u03ac\u03c2", "overview": "It is a movie following the coming-of-age for a boy; the story begins in the mid-60s, continues all through the 70s, and finishes in 1981. He is a creative young man facing the troubles of the first pangs of love and we observe the way he tries to handle them within his social surroundings, his family, and environment.", "popularity": 1.385, "poster_path": "/kNWnqV4Gu5LccckHcIygfRaSZw7.jpg", "production_companies": [{"id": 72127, "logo_path": null, "name": "Onion Films", "origin_country": ""}], "production_countries": [{"iso_3166_1": "GR", "name": "Greece"}], "release_date": "2016-01-14", "revenue": 0, "runtime": 99, "spoken_languages": [{"iso_639_1": "el", "name": "\u03b5\u03bb\u03bb\u03b7\u03bd\u03b9\u03ba\u03ac"}], "status": "Released", "tagline": "", "title": "Notias", "video": false, "vote_average": 6.6, "vote_count": 11, "keywords": {"keywords": [{"id": 5609, "name": "nostalgia"}, {"id": 6078, "name": "politics"}]}, "similar": {"page": 1, "results": [{"id": 10139, "video": false, "vote_count": 1269, "vote_average": 7.3, "title": "Milk", "release_date": "2008-11-05", "original_language": "en", "original_title": "Milk", "genre_ids": [18, 36], "backdrop_path": "/i8NcYenVqMzB95pVz8YOPIqmGj8.jpg", "adult": false, "overview": "The true story of Harvey Milk, the first openly gay man ever elected to public office. In San Francisco in the late 1970s, Harvey Milk becomes an activist for gay rights and inspires others to join him in his fight for equal rights that should be available to all Americans.", "poster_path": "/aTbhbnq9YnKJM6wGIiedfJaoV6m.jpg", "popularity": 13.064}, {"id": 476764, "video": false, "vote_count": 173, "vote_average": 6.0, "title": "The Front Runner", "release_date": "2018-11-06", "original_language": "en", "original_title": "The Front Runner", "genre_ids": [18, 36], "backdrop_path": "/kQVo5ECXrTcoMtj8hWbdiqpfPms.jpg", "adult": false, "overview": "Gary Hart, former Senator of Colorado, becomes the front-runner for the Democratic presidential nomination in 1987. Hart's intelligence, charisma and idealism makes him popular with young voters, leaving him with a seemingly clear path to the White House. All that comes crashing down when allegations of an extramarital affair surface in the media, forcing the candidate to address a scandal that threatens to derail his campaign and personal life.", "poster_path": "/7iMNvhINYaYwsF1jC5VaDeQ1V70.jpg", "popularity": 12.182}, {"id": 9452, "video": false, "vote_count": 118, "vote_average": 6.3, "title": "Bulworth", "release_date": "1998-05-15", "original_language": "en", "original_title": "Bulworth", "genre_ids": [35, 18], "backdrop_path": "/q27wTUSESbZHj165YwiifPrwjtb.jpg", "adult": false, "overview": "A suicidally disillusioned liberal politician puts a contract out on himself and takes the opportunity to be bluntly honest with his voters by affecting the rhythms and speech of hip-hop music and culture.", "poster_path": "/rSK3YaMNCahCnxF2B6MksA7E3uv.jpg", "popularity": 10.009}, {"id": 592739, "video": false, "vote_count": 51, "vote_average": 5.5, "title": "Cetto C'\u00e8", "release_date": "2019-11-21", "original_language": "it", "original_title": "Cetto c'\u00e8, senzadubbiamente", "genre_ids": [35], "backdrop_path": "/bzo9brPKm8lJgL2vqYmbvs1AFyd.jpg", "adult": false, "overview": "Third movie about the character of Cetto La Qualunque (Antonio Albanese)", "poster_path": "/5n5uCJQzFUMdBu3WkHhGBg2dhts.jpg", "popularity": 4.021}, {"adult": false, "backdrop_path": "/39iGTAyo60mk3KcMay2yYcLsUyP.jpg", "genre_ids": [53], "id": 11644, "original_language": "en", "original_title": "Blow Out", "overview": "Jack Terry is a master sound recordist who works on grade-B horror movies. Late one evening, he is recording sounds for use in his movies when he hears something unexpected through his sound equipment and records it. Curiosity gets the better of him when the media become involved, and he begins to unravel the pieces of a nefarious conspiracy. As he struggles to survive against his shadowy enemies and expose the truth, he does not know whom he can trust.", "poster_path": "/vt5d1gGPgkAKoKp127WPHjSJF3P.jpg", "release_date": "1981-07-24", "title": "Blow Out", "video": false, "vote_average": 7.4, "vote_count": 579, "popularity": 12.416}, {"id": 401469, "video": false, "vote_count": 1261, "vote_average": 6.5, "title": "Widows", "release_date": "2018-11-06", "original_language": "en", "original_title": "Widows", "genre_ids": [80, 53], "backdrop_path": "/tkri1hMrb1FhWfb2bWpprsvq9Sd.jpg", "adult": false, "overview": "A police shootout leaves four thieves dead during an explosive armed robbery attempt in Chicago. Their widows have nothing in common except a debt left behind by their spouses' criminal activities. Hoping to forge a future on their own terms, they join forces to pull off a heist.", "poster_path": "/d31SGJSaX29ba5ZUbZcesGoDE7I.jpg", "popularity": 16.285}, {"id": 376290, "video": false, "vote_count": 1038, "vote_average": 7.5, "title": "Miss Sloane", "release_date": "2016-11-25", "original_language": "en", "original_title": "Miss Sloane", "genre_ids": [18, 53], "backdrop_path": "/64xHK6gmw3ZwIpjeSWZ7W686J5l.jpg", "adult": false, "overview": "An ambitious lobbyist faces off against the powerful gun lobby in an attempt to pass gun control legislation.", "poster_path": "/lPgISoC37G3E2QEVtSuJ15oYlI.jpg", "popularity": 15.942}, {"id": 459992, "video": false, "vote_count": 883, "vote_average": 6.6, "title": "Long Shot", "release_date": "2019-05-02", "original_language": "en", "original_title": "Long Shot", "genre_ids": [35, 10749], "backdrop_path": "/88r25ghJzVYKq0vaOApqEOZsQlD.jpg", "adult": false, "overview": "Fred Flarsky is a gifted and free-spirited journalist who has a knack for getting into trouble. Charlotte Field is one of the most influential women in the world -- a smart, sophisticated and accomplished politician. When Fred unexpectedly runs into Charlotte, he soon realizes that she was his former baby sitter and childhood crush. When Charlotte decides to make a run for the presidency, she impulsively hires Fred as her speechwriter -- much to the dismay of her trusted advisers.", "poster_path": "/m2ttWZ8rMRwIMT7zA48Jo6mTkDS.jpg", "popularity": 37.774}, {"id": 850, "video": false, "vote_count": 677, "vote_average": 7.4, "title": "A Christmas Story", "release_date": "1983-11-18", "original_language": "en", "original_title": "A Christmas Story", "genre_ids": [35, 10751], "backdrop_path": "/wok0YepwQfBAPsrttFq0W6HXT2g.jpg", "adult": false, "overview": "The comic mishaps and adventures of a young boy named Ralph, trying to convince his parents, teachers, and Santa that a Red Ryder B.B. gun really is the perfect Christmas gift for the 1940s.", "poster_path": "/u348XMdz7g2Eu54yntt1qshUixk.jpg", "popularity": 9.472}, {"adult": false, "backdrop_path": "/plnmzCMPAb3suBAUJ4Yi2NC1APA.jpg", "genre_ids": [35], "id": 35056, "original_language": "en", "original_title": "Date Night", "overview": "Phil and Claire Foster fear that their mild-mannered relationship may be falling into a stale rut. During their weekly date night, their dinner reservation leads to their being mistaken for a couple of thieves\u2014and now a number of unsavoury characters want Phil and Claire killed.", "poster_path": "/fzzPht9KId6Ollow30jYtABhDY3.jpg", "release_date": "2010-04-08", "title": "Date Night", "video": false, "vote_average": 6.0, "vote_count": 1888, "popularity": 14.813}, {"id": 59436, "video": false, "vote_count": 4450, "vote_average": 7.5, "title": "Midnight in Paris", "release_date": "2011-05-11", "original_language": "en", "original_title": "Midnight in Paris", "genre_ids": [35, 14, 10749], "backdrop_path": "/7sIDEHnw51k7Him2fEtA70I1OBw.jpg", "adult": false, "overview": "A romantic comedy about a family traveling to the French capital for business. The party includes a young engaged couple forced to confront the illusion that a life different from their own is better.", "poster_path": "/xxSopLYATHXSepXcEaBh9Gazv6p.jpg", "popularity": 18.329}, {"id": 891, "video": false, "vote_count": 889, "vote_average": 7.8, "title": "All the President's Men", "release_date": "1976-04-04", "original_language": "en", "original_title": "All the President's Men", "genre_ids": [18, 36, 9648, 53], "backdrop_path": "/rqM0Uq57NNOpEx7BBk7FqBfGqzc.jpg", "adult": false, "overview": "In the run-up to the 1972 elections, Washington Post reporter Bob Woodward covers what seems to be a minor break-in at the Democratic Party National Headquarters. He is surprised to find top lawyers already on the defense case, and the discovery of names and addresses of Republican fund organizers on the accused further arouses his suspicions. After the editor of the Post runs with the story and assigns Woodward and Carl Bernstein to it, they find the trail leading higher and higher in the Republican Party\u2014and eventually into the White House itself.", "poster_path": "/jvXiGgWyBYDfQb44spH9JPTOmAZ.jpg", "popularity": 28.872}, {"adult": false, "backdrop_path": "/bWoNwo04ZfZoEvEF8gliyB1EAyS.jpg", "genre_ids": [35, 18], "id": 586, "original_language": "en", "original_title": "Wag the Dog", "overview": "During the final weeks of a presidential race, the President is accused of sexual misconduct. To distract the public until the election, the President's adviser hires a Hollywood producer to help him stage a fake war.", "poster_path": "/cGatilylRyJiCoOu5T5sAB17HKR.jpg", "release_date": "1997-12-25", "title": "Wag the Dog", "video": false, "vote_average": 6.9, "vote_count": 490, "popularity": 13.041}, {"id": 517909, "video": false, "vote_count": 429, "vote_average": 6.1, "title": "The Laundromat", "release_date": "2019-09-05", "original_language": "en", "original_title": "The Laundromat", "genre_ids": [35, 80, 18], "backdrop_path": "/ld3bBHoKINhXHjABn5yEJVSBOpF.jpg", "adult": false, "overview": "When her idyllic vacation takes an unthinkable turn, Ellen Martin begins investigating a fake insurance policy, only to find herself down a rabbit hole of questionable dealings that can be linked to a Panama City law firm and its vested interest in helping the world's wealthiest citizens amass larger fortunes.", "poster_path": "/hwNMJgbiUUvPCxsnADjbV9ysM5j.jpg", "popularity": 13.093}, {"id": 446354, "video": false, "vote_count": 2839, "vote_average": 7.0, "title": "The Post", "release_date": "2017-12-22", "original_language": "en", "original_title": "The Post", "genre_ids": [18, 36], "backdrop_path": "/8sb4aBST28vN3rBz704XJczS0Ld.jpg", "adult": false, "overview": "A cover-up that spanned four U.S. Presidents pushed the country's first female newspaper publisher and a hard-driving editor to join an unprecedented battle between journalist and government. Inspired by true events.", "poster_path": "/h4XG3g6uMMPIBPjAoQhC2QIMdkl.jpg", "popularity": 19.347}, {"id": 1985, "video": false, "vote_count": 788, "vote_average": 7.1, "title": "The Constant Gardener", "release_date": "2005-08-31", "original_language": "en", "original_title": "The Constant Gardener", "genre_ids": [18, 9648, 53], "backdrop_path": "/cQRFjaXsEfCTtd2h18xZv49REqP.jpg", "adult": false, "overview": "Justin Quayle is a low-level British diplomat who has always gone about his work very quietly, not causing any problems. But after his radical wife Tessa is killed he becomes determined to find out why, thrusting himself into the middle of a very dangerous conspiracy.", "poster_path": "/r7QOXMcuIqZUeIVXVc4BCZrd9ni.jpg", "popularity": 13.382}, {"id": 51876, "video": false, "vote_count": 6911, "vote_average": 7.2, "title": "Limitless", "release_date": "2011-03-08", "original_language": "en", "original_title": "Limitless", "genre_ids": [9648, 878, 53], "backdrop_path": "/9ISArgiVBdNLASKmvflRDMOYYMj.jpg", "adult": false, "overview": "A paranoia-fueled action thriller about an unsuccessful writer whose life is transformed by a top-secret \"smart drug\" that allows him to use 100% of his brain and become a perfect version of himself. His enhanced abilities soon attract shadowy forces that threaten his new life in this darkly comic and provocative film.", "poster_path": "/bQfOFEeXxi51ijQrbQY9qvMtYhZ.jpg", "popularity": 22.32}, {"adult": false, "backdrop_path": "/nlwzLx5WVZPZDwXvexGGfaktts7.jpg", "genre_ids": [878, 53, 10749], "id": 38050, "original_language": "en", "original_title": "The Adjustment Bureau", "overview": "A man glimpses the future Fate has planned for him \u2013 and chooses to fight for his own destiny. Battling the powerful Adjustment Bureau across, under and through the streets of New York, he risks his destined greatness to be with the only woman he's ever loved.", "poster_path": "/g87PqGH9Oo3d3Tbczcfk7ZMAIEk.jpg", "release_date": "2011-03-03", "title": "The Adjustment Bureau", "video": false, "vote_average": 6.7, "vote_count": 2861, "popularity": 15.293}, {"id": 665, "video": false, "vote_count": 1332, "vote_average": 7.7, "title": "Ben-Hur", "release_date": "1959-12-26", "original_language": "en", "original_title": "Ben-Hur", "genre_ids": [12, 36], "backdrop_path": "/uOQPSUGG3ZHiDg9ecN8irQNZ4T1.jpg", "adult": false, "overview": "Judah Ben-Hur, a Palestinian Jew, is battling the Roman empire at the time of Christ. His actions send him and his family into slavery, but an inspirational encounter with Jesus changes everything. He finally meets his rival in a justly famous chariot race and rescues his suffering family.", "poster_path": "/m4WQ1dBIrEIHZNCoAjdpxwSKWyH.jpg", "popularity": 19.591}, {"id": 333339, "video": false, "vote_count": 8278, "vote_average": 7.6, "title": "Ready Player One", "release_date": "2018-03-28", "original_language": "en", "original_title": "Ready Player One", "genre_ids": [12, 878], "backdrop_path": "/q7fXcrDPJcf6t3rzutaNwTzuKP1.jpg", "adult": false, "overview": "When the creator of a popular video game system dies, a virtual contest is created to compete for his fortune.", "poster_path": "/pU1ULUq8D3iRxl1fdX2lZIzdHuI.jpg", "popularity": 33.77}], "total_pages": 65, "total_results": 1294}, "recommendations": {"page": 1, "results": [{"id": 376903, "video": false, "vote_count": 3, "vote_average": 6.5, "title": "Apo pou pane gia ti havouza", "release_date": "1978-01-01", "original_language": "el", "original_title": "\u0391\u03c0\u03cc \u03c0\u03bf\u03cd \u03c0\u03ac\u03bd\u03b5 \u03b3\u03b9\u03b1 \u03c4\u03b7 \u03c7\u03b1\u03b2\u03bf\u03cd\u03b6\u03b1", "genre_ids": [35, 18], "backdrop_path": "/j7q1uEthve9jCaL6CNLvM54Bzoc.jpg", "adult": false, "overview": "A tanker driver, works hard to study his sister. He believes that this will restore her and then he could finally marry. His efforts are becoming futile as it is confronted with a corrupt bourgeois regime and the political situation.", "poster_path": "/eL8TwetppJIIJkutuoouVfdK6Vq.jpg", "popularity": 0.7}], "total_pages": 1, "total_results": 1}, "credits": {"cast": [{"cast_id": 2, "character": "Stavros", "credit_id": "5698d89fc3a3687603002503", "gender": 0, "id": 1563620, "name": "Giannis Niaros", "order": 1, "profile_path": null}, {"cast_id": 3, "character": "", "credit_id": "5698d8b8925141254600249d", "gender": 0, "id": 1206241, "name": "Themis Panou", "order": 2, "profile_path": null}, {"cast_id": 4, "character": "", "credit_id": "5698d8c7925141253400296e", "gender": 0, "id": 1094734, "name": "Maria Kallimani", "order": 3, "profile_path": null}, {"cast_id": 8, "character": "", "credit_id": "5698e258c3a368760b002a03", "gender": 2, "id": 980219, "name": "Argyris Xafis", "order": 4, "profile_path": null}, {"cast_id": 9, "character": "", "credit_id": "5698e26c9251412534002a80", "gender": 2, "id": 481026, "name": "Errikos Litsis", "order": 5, "profile_path": "/qHdT679ptPDgAidmqGoykgK1Km2.jpg"}, {"cast_id": 10, "character": "", "credit_id": "5698e27e92514125360029ae", "gender": 0, "id": 1117998, "name": "Zozo Sapountzaki", "order": 6, "profile_path": null}, {"cast_id": 13, "character": "", "credit_id": "59661ef4925141225110648c", "gender": 1, "id": 1511460, "name": "Chara Mata Giannatou", "order": 7, "profile_path": "/fyw06FnUIJv2hdibJEIJpzgkU8i.jpg"}], "crew": [{"credit_id": "5698d875c3a36875fc002664", "department": "Directing", "gender": 0, "id": 72516, "job": "Director", "name": "Tassos Boulmetis", "profile_path": null}, {"credit_id": "5698d881925141254600248f", "department": "Writing", "gender": 0, "id": 72516, "job": "Writer", "name": "Tassos Boulmetis", "profile_path": null}, {"credit_id": "5698e201c3a36875fe002d78", "department": "Editing", "gender": 2, "id": 72525, "job": "Editor", "name": "Yorgos Mavropsaridis", "profile_path": "/evuXXDECpbMMH05nSouClqCI7pV.jpg"}, {"credit_id": "5698e21cc3a368760000271b", "department": "Costume & Make-Up", "gender": 0, "id": 1563637, "job": "Costume Design", "name": "Eva Nathena", "profile_path": null}, {"credit_id": "583dc45fc3a36835a70121af", "department": "Camera", "gender": 2, "id": 1262851, "job": "Director of Photography", "name": "Simos Sarketzis", "profile_path": null}, {"credit_id": "583dc46bc3a36835a50134f2", "department": "Sound", "gender": 0, "id": 72523, "job": "Original Music Composer", "name": "Evanthia Reboutsika", "profile_path": null}]}}