{"adult": false, "backdrop_path": "/34TFrH5EpFCGpyQTtbQRSNFfRRb.jpg", "belongs_to_collection": null, "budget": 0, "genres": [{"id": 27, "name": "Horror"}], "homepage": null, "id": 378310, "imdb_id": "tt1829744", "original_language": "en", "original_title": "Tales of Poe", "overview": "Based on the classic works of Edgar Allan Poe, directors Bart Mastronardi &amp; Alan Rowe Kelly have assembled an award-winning cast and crew for the highly anticipated film TALES OF POE. A unique new spin on three of Poe's popular stories (The Tell Tale Heart, The Cask of Amontillado &amp; Dreams), Mastronardi &amp; Kelly weave together a compelling &amp; suspenseful anthology that will captivate Poe enthusiasts &amp; horror fans alike!", "popularity": 2.303, "poster_path": "/Am08KjuOJ7SNKjWJVVYatWpDgad.jpg", "production_companies": [{"id": 81497, "logo_path": null, "name": "Southpaw Pictures", "origin_country": ""}, {"id": 81498, "logo_path": null, "name": "Mastropieces", "origin_country": ""}], "production_countries": [{"iso_3166_1": "US", "name": "United States of America"}], "release_date": "2014-01-01", "revenue": 0, "runtime": 120, "spoken_languages": [{"iso_639_1": "en", "name": "English"}], "status": "Released", "tagline": "Based on the stories of Edgar Allan Poe.", "title": "Tales of Poe", "video": false, "vote_average": 5.0, "vote_count": 3, "keywords": {"keywords": [{"id": 9706, "name": "anthology"}, {"id": 155317, "name": "edgar allan poe"}]}, "similar": {"page": 1, "results": [{"id": 601643, "video": false, "vote_count": 14, "vote_average": 4.4, "title": "Ghost Stories", "release_date": "2019-12-31", "original_language": "hi", "original_title": "Ghost Stories", "genre_ids": [27], "backdrop_path": "/3wUbvsWZK5rScJXukgM6jfAVqLT.jpg", "adult": false, "overview": "An anthology of four short horror tales.", "poster_path": "/3eKwuzlUWdpbEE5BoRYTsgBN552.jpg", "popularity": 9.369}, {"id": 20701, "video": false, "vote_count": 168, "vote_average": 6.1, "title": "Tales from the Darkside: The Movie", "release_date": "1990-05-03", "original_language": "en", "original_title": "Tales from the Darkside: The Movie", "genre_ids": [35, 14, 27, 53], "backdrop_path": "/op6AFGbt8a6bpesJKtV0XP8Yywn.jpg", "adult": false, "overview": "The first segment features an animated mummy stalking selected student victims; the second tale tells the story of a \"cat from hell\" who cannot be killed and leaves a trail of victims behind it; the third story is about a man who witnesses a bizarre killing and promises never to tell what he saw and the \"in-between\" bit is the story of a woman preparing to cook her newspaper boy for supper.", "poster_path": "/7IDTVLpSYGNYqLE2QnixboLOU32.jpg", "popularity": 9.206}, {"adult": false, "backdrop_path": "/90kmxuSwU28dVy1ghVSHI4x1wb8.jpg", "genre_ids": [35, 18, 37], "id": 537996, "original_language": "en", "original_title": "The Ballad of Buster Scruggs", "overview": "Vignettes weaving together the stories of six individuals in the old West at the end of the Civil War. Following the tales of a sharp-shooting songster, a wannabe bank robber, two weary traveling performers, a lone gold prospector, a woman traveling the West to an uncertain future, and a motley crew of strangers undertaking a carriage ride.", "poster_path": "/voxl654m7p36y8FLu8oQD7dfwwK.jpg", "release_date": "2018-11-09", "title": "The Ballad of Buster Scruggs", "video": false, "vote_average": 7.2, "vote_count": 2074, "popularity": 13.969}, {"id": 30959, "video": false, "vote_count": 135, "vote_average": 7.8, "title": "Kwaidan", "release_date": "1964-12-29", "original_language": "ja", "original_title": "\u602a\u8ac7", "genre_ids": [18, 14, 27], "backdrop_path": "/mcZaFw5NXr8i5Mx33xMv80NOSif.jpg", "adult": false, "overview": "Taking its title from an archaic Japanese word meaning \"ghost story,\" this anthology adapts four folk tales. A penniless samurai marries for money with tragic results. A man stranded in a blizzard is saved by Yuki the Snow Maiden, but his rescue comes at a cost. Blind musician Hoichi is forced to perform for an audience of ghosts. An author relates the story of a samurai who sees another warrior's reflection in his teacup.", "poster_path": "/f6C9B1YssqKZjykS6K12ZNsEDRk.jpg", "popularity": 11.22}, {"adult": false, "backdrop_path": "/cJg0tjpHPaXcKZvon1fJyM0pXG5.jpg", "genre_ids": [14, 53, 27, 878], "id": 354251, "original_language": "en", "original_title": "Southbound", "overview": "The film contains five stories set on desolate stretches of a desert highway. Two men on the run from their past, a band on its way to a gig, a man struggling to get home, a brother in search of his long-lost sister and a family on vacation are forced to confront their worst fears and darkest secrets in these interwoven tales.", "poster_path": "/u4jDG1ANfVoCs7GChgafqkve3v8.jpg", "release_date": "2015-09-17", "title": "Southbound", "video": false, "vote_average": 5.9, "vote_count": 305, "popularity": 9.462}, {"id": 14128, "video": false, "vote_count": 809, "vote_average": 5.9, "title": "Cinderella II: Dreams Come True", "release_date": "2002-02-23", "original_language": "en", "original_title": "Cinderella II: Dreams Come True", "genre_ids": [16, 14, 10749, 10751], "backdrop_path": "/4ErXZZgpXPxDcCLnnLXysK03ss9.jpg", "adult": false, "overview": "As a newly crowned princess, Cinderella quickly learns that life at the Palace - and her royal responsibilities - are more challenging than she had imagined. In three heartwarming tales, Cinderella calls on her animal friends and her Fairy Godmother to help as she brings her own grace and charm to her regal role and discovers that being true to yourself is the best way to make your dreams come true.", "poster_path": "/36nD4aDvoFMewiHBnIcGo3vVcd6.jpg", "popularity": 18.996}, {"id": 480100, "video": false, "vote_count": 51, "vote_average": 5.6, "title": "Nightmare Cinema", "release_date": "2019-06-21", "original_language": "en", "original_title": "Nightmare Cinema", "genre_ids": [27], "backdrop_path": "/7BvAnYcgDWeAEyOpmTfzUYuh9uz.jpg", "adult": false, "overview": "A series of down-on-their-luck individuals enter the decrepit and spine-chilling Rialto theater, only to have their deepest and darkest fears brought to life on the silver screen by The Projectionist \u2013 a mysterious, ghostly figure who holds the nightmarish futures of all who attend his screenings.", "poster_path": "/ftdhL4zamDnjSD4TML1ES79DueX.jpg", "popularity": 6.555}, {"adult": false, "backdrop_path": "/eHaGbnX2kukzcYGOpNF3YLPmOG5.jpg", "genre_ids": [27, 35], "id": 16281, "original_language": "en", "original_title": "Creepshow", "overview": "Inspired by the E.C. comics of the 1950s, George A. Romero and Stephen King bring five tales of terror to the screen.", "poster_path": "/hgKeTL416BPzLZntcsD1k7mNFRN.jpg", "release_date": "1982-11-12", "title": "Creepshow", "video": false, "vote_average": 6.8, "vote_count": 458, "popularity": 13.179}, {"adult": false, "backdrop_path": "/tvuV5h6Bz4SL0G7MTv4VcujUrr0.jpg", "genre_ids": [27, 16, 9648], "id": 329020, "original_language": "en", "original_title": "Extraordinary Tales", "overview": "Five tales by Edgar Allan Poe come to life thanks to a pictorical style animation, five tales that exude madness, pestilence, murder and torture.", "poster_path": "/9acjcYCC5vRbzIwlhKZJBVNjMg9.jpg", "release_date": "2015-06-25", "title": "Extraordinary Tales", "video": false, "vote_average": 6.2, "vote_count": 53, "popularity": 6.559}, {"id": 87818, "video": false, "vote_count": 1465, "vote_average": 4.5, "title": "Movie 43", "release_date": "2013-01-01", "original_language": "en", "original_title": "Movie 43", "genre_ids": [35], "backdrop_path": "/eGWVsZhgEyNpQ327udKz5iCLHcF.jpg", "adult": false, "overview": "A series of interconnected short films follows a washed-up producer as he pitches insane story lines featuring some of the biggest stars in Hollywood.", "poster_path": "/dv2rQ4mbFYkPTopmiOdv60DtHht.jpg", "popularity": 23.274}, {"id": 5, "video": false, "vote_count": 1410, "vote_average": 6.0, "title": "Four Rooms", "release_date": "1995-12-09", "original_language": "en", "original_title": "Four Rooms", "genre_ids": [35, 80], "backdrop_path": "/3EqYpbGCE9S5GddU2K4cYzP5UmI.jpg", "adult": false, "overview": "It's Ted the Bellhop's first night on the job...and the hotel's very unusual guests are about to place him in some outrageous predicaments. It seems that this evening's room service is serving up one unbelievable happening after another.", "poster_path": "/eQs5hh9rxrk1m4xHsIz1w11Ngqb.jpg", "popularity": 20.339}, {"id": 23202, "video": false, "vote_count": 773, "vote_average": 6.6, "title": "Trick 'r Treat", "release_date": "2007-12-07", "original_language": "en", "original_title": "Trick 'r Treat", "genre_ids": [35, 27, 53], "backdrop_path": "/oFxeGxRjlwzf0qct3g1HGBujGqH.jpg", "adult": false, "overview": "Four interwoven stories that occur on Halloween: an everyday high school principal has a secret life as a serial killer; a college virgin might have just met the one guy for her; a group of teenagers pull a mean prank; a bitter old recluse receives an uninvited guest.", "poster_path": "/w0nmol4g7n6MFfhfphV7GzHHYjB.jpg", "popularity": 17.558}, {"id": 84348, "video": false, "vote_count": 676, "vote_average": 5.9, "title": "V/H/S", "release_date": "2012-07-28", "original_language": "en", "original_title": "V/H/S", "genre_ids": [27, 53], "backdrop_path": "/xAC9kXLxUHpdCkISgYcLzYrxIQR.jpg", "adult": false, "overview": "When a group of misfits is hired by an unknown third party to burglarize a desolate house and acquire a rare VHS tape, they discover more found footage than they bargained for.", "poster_path": "/yo49x6Jhr1ecCjy1ByFqwAbtARJ.jpg", "popularity": 11.271}, {"adult": false, "backdrop_path": "/7vyzEMfcEpBChEyK7cP6XW6B7hi.jpg", "genre_ids": [18, 27], "id": 429417, "original_language": "en", "original_title": "Ghost Stories", "overview": "Professor Phillip Goodman devotes his life to exposing phony psychics and fraudulent supernatural shenanigans. His skepticism soon gets put to the test when he receives news of three chilling and inexplicable cases -- disturbing visions in an abandoned asylum, a car accident deep in the woods and the spirit of an unborn child. Even scarier -- each of the macabre stories seems to have a sinister connection to the professor's own life.", "poster_path": "/7a0sai9k5jr7YJRP5S3YIDErMVY.jpg", "release_date": "2018-01-20", "title": "Ghost Stories", "video": false, "vote_average": 6.6, "vote_count": 663, "popularity": 10.789}, {"adult": false, "backdrop_path": "/cEOva5ciTQxJCQgcXb6vpAx1BcP.jpg", "genre_ids": [27, 35], "id": 16288, "original_language": "en", "original_title": "Creepshow 2", "overview": "EC Comics-inspired weirdness returns with three tales. In the first, a wooden statue of a Native American comes to life...to exact vengeance on the murderer of his elderly owners. In the second, four teens are stranded on a raft on a lake with a blob that is hungry. And in the third, a hit and run woman is terrorized by the hitchhiker she accidentally killed...or did she really kill him?", "poster_path": "/qxJWtBb89RaSRgLuz1d6ZuFTfVG.jpg", "release_date": "1987-05-01", "title": "Creepshow 2", "video": false, "vote_average": 6.1, "vote_count": 256, "popularity": 17.041}, {"id": 87436, "video": false, "vote_count": 285, "vote_average": 4.9, "title": "The ABCs of Death", "release_date": "2013-06-28", "original_language": "en", "original_title": "The ABCs of Death", "genre_ids": [27], "backdrop_path": "/ni9zaNf9pjpodVFkZio26wfM5wN.jpg", "adult": false, "overview": "An ambitious anthology film featuring segments directed by over two dozen of the world's leading talents in contemporary genre film. Inspired by children's educational ABC books, the film comprises 26 individual chapters, each helmed by a different director assigned a letter of the alphabet. The directors were then given free reign in choosing a word to create a story involving death.", "poster_path": "/9rAaRHk7GkYCxjOlBnJLC0kXrSy.jpg", "popularity": 10.315}, {"id": 42994, "video": false, "vote_count": 123, "vote_average": 7.4, "title": "Memories", "release_date": "1995-12-23", "original_language": "ja", "original_title": "MEMORIES", "genre_ids": [16, 14, 878], "backdrop_path": "/c0qe4ttxxqy83L11TpH7JiW9edz.jpg", "adult": false, "overview": "In this anime anthology, a salvage ship crew happens upon a haunted vessel in \"Magnetic Rose\"; a cold tablet turns a lab worker into a biological weapon in \"Stink Bomb\"; and an urban populace carries on an endless war with an unseen foe in \"Cannon Fodder.\"", "poster_path": "/mR8vQQOuti0auIcLTQruK2bBVXv.jpg", "popularity": 11.332}, {"id": 597785, "video": false, "vote_count": 1, "vote_average": 5.0, "title": "Deathcember", "release_date": "2019-10-25", "original_language": "en", "original_title": "Deathcember", "genre_ids": [27], "backdrop_path": null, "adult": false, "overview": "A collection of 24 films that take a look at the dark side of the festive season. 24 international directors with the most diverse ideas and styles; linked by short animated segments that deal with the Advent calendar itself.", "poster_path": "/kdnvs040VtRIXoeoc2cUz89DI6O.jpg", "popularity": 2.356}, {"id": 70436, "video": false, "vote_count": 772, "vote_average": 6.3, "title": "The Raven", "release_date": "2012-03-09", "original_language": "en", "original_title": "The Raven", "genre_ids": [80, 9648, 53], "backdrop_path": "/1wDBepgueWItYrDtIbfldKFabEd.jpg", "adult": false, "overview": "A fictionalized account of the last days of Edgar Allan Poe's life, in which the poet is in pursuit of a serial killer whose murders mirror those in the writer's stories.", "poster_path": "/hvWiERBXBa8RDYNdNzCbdVbUWFH.jpg", "popularity": 12.345}, {"id": 10552, "video": false, "vote_count": 246, "vote_average": 6.0, "title": "Cat's Eye", "release_date": "1985-04-12", "original_language": "en", "original_title": "Cat's Eye", "genre_ids": [35, 27, 53], "backdrop_path": "/mVWufY70kchQ0LSsE2uLg93aEXj.jpg", "adult": false, "overview": "Three short stories by shock-meister Stephen King are linked by a stray cat that roams from one tale to the next in this creepy triptych that begins as Dick (James Woods) tries to quit smoking by any means necessary. Next, we meet Johnny, an adulterous man who's forced by his lover's husband onto a building's hazardous ledge. Finally, Amanda is threatened by an evil gnome who throws suspicion on the family cat.", "poster_path": "/A65sQJbEAAV4wC9QQc0Mn4ZaMZV.jpg", "popularity": 10.862}], "total_pages": 28, "total_results": 547}, "recommendations": {"page": 1, "results": [], "total_pages": 1, "total_results": 0}, "credits": {"cast": [{"cast_id": 1, "character": "Angel of Dreams", "credit_id": "57de56fe9251413d6800361e", "gender": 1, "id": 86923, "name": "Caroline Williams", "order": 1, "profile_path": "/iOwBSdPQ1adtucfm3eyLjmlCVbt.jpg"}, {"cast_id": 2, "character": "The Narrator", "credit_id": "57de570e9251413d6800362a", "gender": 1, "id": 35579, "name": "Debbie Rochon", "order": 2, "profile_path": "/zmDitMQpsERiGCvhbjKAbsVXLWR.jpg"}, {"cast_id": 3, "character": "Queen of Dreams / Private Nurse", "credit_id": "57de5720c3a3681308003942", "gender": 1, "id": 37470, "name": "Adrienne King", "order": 3, "profile_path": "/xCS2BI8ulvypH1cNVtMGwwr50zt.jpg"}, {"cast_id": 5, "character": "Mother of Dreams / Poetic Narrator", "credit_id": "57de57379251417031005795", "gender": 1, "id": 58710, "name": "Amy Steel", "order": 5, "profile_path": "/mO8bYH4O6LnYW9wOTWm9CKzGToU.jpg"}, {"cast_id": 6, "character": "Fortunato Montresor", "credit_id": "57de5822c3a368124e003702", "gender": 0, "id": 1047315, "name": "Randy Jones", "order": 6, "profile_path": "/5OKVcuatZUX5Oo3vJIbnXYQwcbt.jpg"}, {"cast_id": 7, "character": "Nurse Malliard", "credit_id": "57de583b9251417031005817", "gender": 0, "id": 1270525, "name": "Desiree Gould", "order": 7, "profile_path": null}, {"cast_id": 8, "character": "Evelyn Dyck / Woman in Black", "credit_id": "57de5851c3a36808ec003f0e", "gender": 1, "id": 563092, "name": "Lesleh Donaldson", "order": 8, "profile_path": "/baMr8FzSL5VfAi5yTlgNY8jHJuA.jpg"}, {"cast_id": 9, "character": "Miss Lamarr / Gogo Montresor", "credit_id": "57de5863c3a36813080039ce", "gender": 0, "id": 98997, "name": "Alan Rowe Kelly", "order": 9, "profile_path": null}, {"cast_id": 10, "character": "Gravedigger", "credit_id": "57de5873c3a368124e003727", "gender": 0, "id": 98206, "name": "Joe Zaso", "order": 10, "profile_path": "/lArYf4x0kEhBhjhAmHfnkdFzJnq.jpg"}], "crew": [{"credit_id": "57de56ec9251416f200059c6", "department": "Directing", "gender": 0, "id": 1656838, "job": "Director", "name": "Bart Mastronardi", "profile_path": null}]}}