{"adult": false, "backdrop_path": "/nNVlyRoWzK438oE6j2JYUz236j2.jpg", "belongs_to_collection": null, "budget": 0, "genres": [{"id": 12, "name": "Adventure"}, {"id": 10751, "name": "Family"}, {"id": 36, "name": "History"}], "homepage": "http://www.stormdefilm.nl/", "id": 378423, "imdb_id": "tt3568804", "original_language": "nl", "original_title": "Storm: Letters van vuur", "overview": "The film is set in 1521 Antwerp, in a Europe ravaged by religious wars, and during the early years of the Reformation. It tells the story of the twelve year old, Falko Voeten \u2013 a printer\u2019s son. When Falko\u2019s father, Klaas Voeten, a printer of forbidden literature, is caught by the Inquisition for printing a letter written by Maarten Luther; Falko is unwittingly propelled into helping his father and into searching for the letter. Threatened by the Inquisition but aided by Marieke, a Catholic orphan girl from the underground sewers, Falko is faced with a race against time if he is to save his father from being executed for heresy.", "popularity": 5.495, "poster_path": "/rqfnk0DRzDHc9TZSv3Z1lTmVFIA.jpg", "production_companies": [{"id": 730, "logo_path": null, "name": "Flying Moon Filmproduktion GmbH", "origin_country": ""}, {"id": 6938, "logo_path": null, "name": "Iris Productions", "origin_country": "LU"}, {"id": 22294, "logo_path": "/tjY8BZ9QGJ86CDnIvSMifayMzHV.png", "name": "NTR", "origin_country": "NL"}, {"id": 54850, "logo_path": "/kcZniXFtwC4vE3YqK7TRrovzxVA.png", "name": "Bulletproof Cupid", "origin_country": "BE"}, {"id": 106931, "logo_path": "/rvRBysZRgdmij3QlPH3yhVwwuhs.png", "name": "Phanta Basta!", "origin_country": "NL"}], "production_countries": [{"iso_3166_1": "BE", "name": "Belgium"}, {"iso_3166_1": "DE", "name": "Germany"}, {"iso_3166_1": "LU", "name": "Luxembourg"}, {"iso_3166_1": "NL", "name": "Netherlands"}], "release_date": "2017-01-19", "revenue": 0, "runtime": 105, "spoken_languages": [{"iso_639_1": "nl", "name": "Nederlands"}], "status": "Released", "tagline": "", "title": "Storm - Letter of Fire", "video": false, "vote_average": 6.4, "vote_count": 12, "keywords": {"keywords": [{"id": 344, "name": "inquisition"}, {"id": 2930, "name": "freedom of speech"}, {"id": 7272, "name": "freedom of the press"}, {"id": 14765, "name": "church"}, {"id": 189138, "name": "reformation"}, {"id": 208244, "name": "16th century"}, {"id": 240256, "name": "em busca da carta proibida"}]}, "similar": {"page": 1, "results": [{"id": 4518, "video": false, "vote_count": 785, "vote_average": 7.2, "title": "Elizabeth", "release_date": "1998-09-13", "original_language": "en", "original_title": "Elizabeth", "genre_ids": [18, 36], "backdrop_path": "/cCzvJ95pEB1I5cUX7Zjfl606noN.jpg", "adult": false, "overview": "The story of the ascension to the throne and the early reign of Queen Elizabeth the First, the endless attempts by her council to marry her off, the Catholic hatred of her and her romance with Lord Robert Dudley.", "poster_path": "/y4ynYOy205LorkOIN6hs6DgJ1xa.jpg", "popularity": 9.782}, {"id": 457136, "video": false, "vote_count": 889, "vote_average": 6.6, "title": "Mary Queen of Scots", "release_date": "2018-12-07", "original_language": "en", "original_title": "Mary Queen of Scots", "genre_ids": [18, 36], "backdrop_path": "/iv5N169nQIzrS0pZ8MBEiemTtVt.jpg", "adult": false, "overview": "In 1561, Mary Stuart, widow of the King of France, returns to Scotland, reclaims her rightful throne and menaces the future of Queen Elizabeth I as ruler of England, because she has a legitimate claim to the English throne. Betrayals, rebellions, conspiracies and their own life choices imperil both Queens. They experience the bitter cost of power, until their tragic fate is finally fulfilled.", "poster_path": "/b5RMzLAyq5QW6GtN9sIeAEMLlBI.jpg", "popularity": 17.881}, {"adult": false, "backdrop_path": "/sX3cVBlvzsfpARLk6t1EZgVQD5m.jpg", "genre_ids": [18, 36, 10749], "id": 4517, "original_language": "en", "original_title": "Elizabeth: The Golden Age", "overview": "When Queen Elizabeth's reign is threatened by ruthless familial betrayal and Spain's invading army, she and her shrewd adviser must act to safeguard to the lives of her people.", "poster_path": "/8ruvP0vObJUPPraCPjJ2b6iFiUN.jpg", "release_date": "2007-09-09", "title": "Elizabeth: The Golden Age", "video": false, "vote_average": 6.7, "vote_count": 709, "popularity": 13.745}, {"id": 9946, "video": false, "vote_count": 932, "vote_average": 5.7, "title": "End of Days", "release_date": "1999-11-24", "original_language": "en", "original_title": "End of Days", "genre_ids": [28, 14, 27, 9648], "backdrop_path": "/q5KcZBMc4Vs5SQelnSdY3ICm56M.jpg", "adult": false, "overview": "On 28 December 1999, the citizens of New York City are getting ready for the turn of the millennium. However, the Devil decides to crash the party by coming to the city, inhabiting a man's body, and searching for his chosen bride\u2014a 20-year-old woman named Christine York. The world will end, and the only hope lies within an atheist named Jericho Cane.", "poster_path": "/bEIjH6GroeWaBkn6o7MVpMNbuyw.jpg", "popularity": 15.853}, {"id": 9945, "video": false, "vote_count": 533, "vote_average": 6.1, "title": "Vampires", "release_date": "1998-10-30", "original_language": "en", "original_title": "Vampires", "genre_ids": [28, 18, 14, 27, 53, 37], "backdrop_path": "/rFCx9xDNgywf1A5hsBbic0C0ihd.jpg", "adult": false, "overview": "The church enlists a team of vampire-hunters to hunt down and destroy a group of vampires searching for an ancient relic that will allow them to exist in sunlight.", "poster_path": "/qHGawU64MeGvtU86s6V0MA7MqFV.jpg", "popularity": 9.529}, {"id": 1934, "video": false, "vote_count": 1910, "vote_average": 6.9, "title": "Shakespeare in Love", "release_date": "1998-12-11", "original_language": "en", "original_title": "Shakespeare in Love", "genre_ids": [35, 36, 10749], "backdrop_path": "/qvhpBNfb53wLnEbVnmC5GNGFRHO.jpg", "adult": false, "overview": "Young Shakespeare is forced to stage his latest comedy, \"Romeo and Ethel, the Pirate's Daughter,\" before it's even written. When a lovely noblewoman auditions for a role, they fall into forbidden love -- and his play finds a new life (and title). As their relationship progresses, Shakespeare's comedy soon transforms into tragedy.", "poster_path": "/sAN5jedynbs3pa3ww0UXQ1k0lRF.jpg", "popularity": 13.21}, {"adult": false, "backdrop_path": "/g8G91vbvyUqnyFSlVruwiaZsUrn.jpg", "genre_ids": [18], "id": 458737, "original_language": "en", "original_title": "First Reformed", "overview": "A pastor of a small church in upstate New York starts to spiral out of control after a soul-shaking encounter with an unstable environmental activist and his pregnant wife.", "poster_path": "/p2UylV0hPefEuWPFMo1r56vu2nb.jpg", "release_date": "2018-05-18", "title": "First Reformed", "video": false, "vote_average": 7.0, "vote_count": 577, "popularity": 11.445}, {"adult": false, "backdrop_path": "/yaF4JUgdNy3NKXVtptTkKawZtlB.jpg", "genre_ids": [18, 53, 27], "id": 48171, "original_language": "en", "original_title": "The Rite", "overview": "Seminary student Michael Kovak reluctantly attends exorcism school at the Vatican. While he\u2019s in Rome, Michael meets an unorthodox priest who introduces him to the darker side of his faith, uncovering the devil\u2019s reach even to one of the holiest places on Earth.", "poster_path": "/94jKSKAOfM3EU4bPsOPkVB9AOHT.jpg", "release_date": "2011-01-28", "title": "The Rite", "video": false, "vote_average": 6.0, "vote_count": 1112, "popularity": 11.214}, {"id": 12700, "video": false, "vote_count": 136, "vote_average": 5.1, "title": "Dominion: Prequel to the Exorcist", "release_date": "2005-05-20", "original_language": "en", "original_title": "Dominion: Prequel to the Exorcist", "genre_ids": [27, 53], "backdrop_path": "/t9nWzNIVohUYp1qEJo2ECYq5MoF.jpg", "adult": false, "overview": "Haunted by terrible acts the Nazis forced him to participate in, the disenchanted Father Lankester Merrin focuses his energies on helping with an archaeological dig in the northern part of Kenya. There, the crew uncovers a church that predates Christian missions into the area, but the discovery also causes strange events to start occurring -- including physical changes to a young, disabled boy, whom Merrin grows to suspect has been possessed by a demon.", "poster_path": "/3jIQOCB8ghrxvfWzSjzNv41LR9P.jpg", "popularity": 9.204}, {"id": 2959, "video": false, "vote_count": 567, "vote_average": 5.6, "title": "License to Wed", "release_date": "2007-07-04", "original_language": "en", "original_title": "License to Wed", "genre_ids": [35], "backdrop_path": "/tdWTbuP08jRS08XuNkBBCgKNR1B.jpg", "adult": false, "overview": "Newly engaged, Ben and Sadie can't wait to start their life together and live happily ever after. However Sadie's family church's Reverend Frank won't bless their union until they pass his patented, \"foolproof\" marriage prep course consisting of outrageous classes, outlandish homework assignments and some outright invasion of privacy.", "poster_path": "/9I8NiY5cfFmwgI8Y5NKQqsuDawS.jpg", "popularity": 11.173}, {"id": 8852, "video": false, "vote_count": 418, "vote_average": 6.8, "title": "Prince of Darkness", "release_date": "1987-10-23", "original_language": "en", "original_title": "Prince of Darkness", "genre_ids": [27], "backdrop_path": "/aX46k3Rd1t68L0KUwO1WaHlplP5.jpg", "adult": false, "overview": "A research team finds a mysterious cylinder in a deserted church. If opened, it could mean the end of the world.", "poster_path": "/eQiXxoRfAjxNHacu6TYegspzAuM.jpg", "popularity": 9.463}, {"adult": false, "backdrop_path": "/mrB9FWjNgIm21zXckWleZxG7fys.jpg", "genre_ids": [18, 10749], "id": 145, "original_language": "da", "original_title": "Breaking the Waves", "overview": "In a small and conservative Scottish village, a woman's paralytic husband convinces her to have extramarital intercourse so she can tell him about it and give him a reason for living.", "poster_path": "/cmDrzXJa9TIs57pD8QfuvIQvak5.jpg", "release_date": "1996-05-13", "title": "Breaking the Waves", "video": false, "vote_average": 7.4, "vote_count": 498, "popularity": 12.088}, {"id": 8583, "video": false, "vote_count": 105, "vote_average": 7.1, "title": "Dangerous Beauty", "release_date": "1998-02-20", "original_language": "en", "original_title": "Dangerous Beauty", "genre_ids": [18, 10749], "backdrop_path": "/52bqRYbzzV32SnYcxmJUILbbv6L.jpg", "adult": false, "overview": "Veronica is brilliant, gifted and beautiful, but the handsome aristocrat she loves, Marco Venier, cannot marry her because she is penniless and of questionable family. So Veronica's mother, Paola, teaches her to become a courtesan, one of the exotic companions favored by the richest and most powerful Venetian men. Veronica courageously uses her charms to change destiny -- and to give herself a chance at true love.", "poster_path": "/vSGDmTsjaD2yZrS73nUJ4ikPqjQ.jpg", "popularity": 9.725}, {"id": 46067, "video": false, "vote_count": 23, "vote_average": 6.8, "title": "Mary, Queen of Scots", "release_date": "1971-12-22", "original_language": "en", "original_title": "Mary, Queen of Scots", "genre_ids": [18, 36], "backdrop_path": "/o4tyt3rnbu7Zz71IaNCS16xTA2b.jpg", "adult": false, "overview": "Mary Stuart, who was named Queen of Scotland when she was only six days old, is the last Roman Catholic ruler of Scotland. She is imprisoned at the age of 23 by her cousin Elizabeth Tudor, the English Queen and her arch adversary. Nineteen years later the life of Mary is to be ended on the scaffold and with her execution the last threat to Elizabeth's throne has been removed. The two Queens with their contrasting personalities make a dramatic counterpoint to history.", "poster_path": "/uAZd7X1Vav7k6NkT6NJuTZEPcn5.jpg", "popularity": 7.242}, {"id": 31767, "video": false, "vote_count": 160, "vote_average": 7.6, "title": "The Devils", "release_date": "1971-07-01", "original_language": "en", "original_title": "The Devils", "genre_ids": [18, 36], "backdrop_path": "/dmf3bLc9XI90yagC5800FvfXbj.jpg", "adult": false, "overview": "A dramatised historical account of the rise and fall of Urbain Grandier, a 17th-century Roman Catholic priest accused of  witchcraft following alleged demonic possessions of sexually repressed nuns.", "poster_path": "/7EWcEBzGYJusF01Jvw2C1EG6GG4.jpg", "popularity": 8.369}, {"id": 26201, "video": false, "vote_count": 54, "vote_average": 7.4, "title": "The Sea Hawk", "release_date": "1940-07-01", "original_language": "en", "original_title": "The Sea Hawk", "genre_ids": [28, 12, 36, 10749], "backdrop_path": "/ohE8sllS0q8qZDHyHu7pHLItyJM.jpg", "adult": false, "overview": "Dashing pirate Geoffrey Thorpe plunders Spanish ships for Queen Elizabeth I and falls in love with Dona Maria, a beautiful Spanish royal he captures.", "poster_path": "/R6wDetIU25scL0WTNmfWjSRF3.jpg", "popularity": 8.026}, {"id": 30159, "video": false, "vote_count": 170, "vote_average": 7.2, "title": "I Confess", "release_date": "1953-02-12", "original_language": "en", "original_title": "I Confess", "genre_ids": [80, 18], "backdrop_path": "/saNV6a5qZrHUb3SGFOD9jyaJaOB.jpg", "adult": false, "overview": "Unable, due to the seal of the confessional, to be forthcoming with information that would serve to clear himself during a murder investigation, a priest becomes the prime suspect.", "poster_path": "/c6p42IXpKE3fgXMIgxO4zqUWiGs.jpg", "popularity": 9.108}, {"id": 9300, "video": false, "vote_count": 124, "vote_average": 7.0, "title": "Orlando", "release_date": "1993-06-09", "original_language": "en", "original_title": "Orlando", "genre_ids": [18, 14, 10749], "backdrop_path": "/czqyC5ptyRT82oxZBGT0MjpYytG.jpg", "adult": false, "overview": "The story begins in the Elizabethan era , shortly before the death of Queen Elizabeth I . On her deathbed, the Queen promises an androgynous young nobleman named Orlando a large tract of land and a castle built on it, along with a generous monetary gift. But Elizabeth will bequeath it to him only if he assents to an unusual command: Do not fade. Do not wither. Do not grow old...", "poster_path": "/i9AblMFyywwS1JGR8Pd6yrV6uMI.jpg", "popularity": 8.61}, {"adult": false, "backdrop_path": "/rGhytAAiAMi7zFEmdgMYiidWwbm.jpg", "genre_ids": [18, 10749, 36], "id": 16902, "original_language": "en", "original_title": "The Private Lives of Elizabeth and Essex", "overview": "This period drama frames the tumultuous affair between Queen Elizabeth I and the man who would be King of England.", "poster_path": "/sfvcupJ5E2JD1gY4FiBom8Hy58L.jpg", "release_date": "1939-11-11", "title": "The Private Lives of Elizabeth and Essex", "video": false, "vote_average": 6.3, "vote_count": 35, "popularity": 3.863}, {"id": 32430, "video": false, "vote_count": 67, "vote_average": 7.1, "title": "The Bells of St. Mary's", "release_date": "1945-12-27", "original_language": "en", "original_title": "The Bells of St. Mary's", "genre_ids": [18, 10751], "backdrop_path": "/v5UW9OP2vjPJAY5UcHUdI3OgPNg.jpg", "adult": false, "overview": "Father O'Malley, the unconventional priest from 'Going My Way', continues his work for the Catholic Church. This time he is sent to St. Mary's, a run-down parochial school on the verge of condemnation. He and Sister Benedict work together in an attempt to save the school, though their differing methods often lead to good-natured disagreements.", "poster_path": "/nnLTga9ebqfQmevjuVOeTn6edxy.jpg", "popularity": 6.846}], "total_pages": 3, "total_results": 59}, "recommendations": {"page": 1, "results": [], "total_pages": 1, "total_results": 0}, "credits": {"cast": [{"cast_id": 6, "character": "Storm Voeten", "credit_id": "56ba2b30c3a3687caf0000f4", "gender": 2, "id": 1574945, "name": "Davy Gomez", "order": 0, "profile_path": "/zWDwy05pbRmRX4A6N7SB6588RQU.jpg"}, {"cast_id": 0, "character": "Klaas Voeten", "credit_id": "569f881e9251413849002109", "gender": 2, "id": 31387, "name": "Yorick van Wageningen", "order": 1, "profile_path": "/hVOJMPCINUI7GfRX2qRBrw6M8JW.jpg"}, {"cast_id": 3, "character": "Cecilia", "credit_id": "56ba2a9c92514171930000d5", "gender": 1, "id": 78302, "name": "Angela Schijf", "order": 2, "profile_path": "/lMN3BRz2EPLUlYLhdbchlovHSVd.jpg"}, {"cast_id": 7, "character": "Marieke", "credit_id": "58a380bac3a3683f190016e2", "gender": 0, "id": 1368701, "name": "Juna de Leeuw", "order": 3, "profile_path": "/fwiStK2ZR3xbjAdek6pCYZpmc4t.jpg"}, {"cast_id": 8, "character": "Van der Hulst", "credit_id": "58a380bfc3a3683f590016fc", "gender": 2, "id": 88808, "name": "Peter van den Begin", "order": 4, "profile_path": "/hCIo7yVFtCLX0ld2FUZtdSbCkqu.jpg"}, {"cast_id": 4, "character": "Poet", "credit_id": "56ba2b0992514171840000d9", "gender": 2, "id": 570351, "name": "Maarten Heijmans", "order": 5, "profile_path": "/ksNwbVRBgdGLnycTNXRFmBKxGNM.jpg"}, {"cast_id": 5, "character": "Monk", "credit_id": "56ba2b14c3a3687ca6000112", "gender": 2, "id": 102353, "name": "Egbert Jan Weeber", "order": 6, "profile_path": "/ledFFKpPQZLFJSJabPGEP9fB3nZ.jpg"}, {"cast_id": 9, "character": "Schout", "credit_id": "58a3815ec3a3683f7f001915", "gender": 0, "id": 236904, "name": "Tibo Vandenborre", "order": 7, "profile_path": "/6EF4qmIp3w6H14jQx4IatT9I2T7.jpg"}, {"cast_id": 10, "character": "Hermann", "credit_id": "58a38166c3a3683f36001701", "gender": 2, "id": 235807, "name": "Luc Feit", "order": 8, "profile_path": "/xX4aNXMclPxPlC8k2hmjM7zauLs.jpg"}, {"cast_id": 34, "character": "Claar", "credit_id": "597543a392514157f7020d90", "gender": 1, "id": 51485, "name": "Laura Verlinden", "order": 9, "profile_path": "/oXJQIBhZD42vINxaPoPsh8Hcui7.jpg"}, {"cast_id": 35, "character": "Baker", "credit_id": "597543f8c3a3685d7f020013", "gender": 2, "id": 228327, "name": "Loek Peters", "order": 10, "profile_path": "/xwq85p23vhDrs0wJH7ld1DqJSol.jpg"}, {"cast_id": 36, "character": "Priest", "credit_id": "5975447a92514147a3001603", "gender": 2, "id": 211080, "name": "Tom Jansen", "order": 11, "profile_path": "/5qQo8NH3OQE90cHDlWUPQ197D6D.jpg"}, {"cast_id": 38, "character": "Bailiff", "credit_id": "59754aedc3a3685d7f0207da", "gender": 0, "id": 1793927, "name": "Sid Van Oerle", "order": 12, "profile_path": "/5fMJGMKeMVNcayU6ZUWAGbiMXPY.jpg"}, {"cast_id": 37, "character": "Bailiff guard", "credit_id": "59754a4092514157f70214e1", "gender": 0, "id": 1714178, "name": "Nick Golterman", "order": 13, "profile_path": "/pkKxhg2R7Vag0vZWGsQwJxaE1UT.jpg"}, {"cast_id": 39, "character": "Bailiff guard", "credit_id": "59754b5fc3a368221c000fdc", "gender": 0, "id": 1102352, "name": "Robert-Paul Jansen", "order": 14, "profile_path": "/oFtzs9rdiXWDm2B1jWYO4CC7FYT.jpg"}, {"cast_id": 41, "character": "Ballif Guard", "credit_id": "59754f92c3a368221c001470", "gender": 0, "id": 1856891, "name": "Kevin Kok", "order": 15, "profile_path": "/oktA7PfHg4ZS6arxQ2PP9PlNTZq.jpg"}, {"cast_id": 40, "character": "Gerlinde", "credit_id": "59754de892514157dd001466", "gender": 0, "id": 1717339, "name": "Golda de Leon", "order": 16, "profile_path": "/aIRcyCaKUZTtWUZkCReWsaw6RPD.jpg"}, {"cast_id": 42, "character": "Luther", "credit_id": "597550b492514106e2017dad", "gender": 0, "id": 1389926, "name": "Gabriel Boisante", "order": 17, "profile_path": "/f0yKZxeDhejgHTUApQEfVhwahkK.jpg"}, {"cast_id": 43, "character": "Gillis", "credit_id": "5975520bc3a368221c001723", "gender": 2, "id": 78802, "name": "Fred Goessens", "order": 18, "profile_path": "/cD1ChPMqIrRG6QgkdIdov77f6Af.jpg"}, {"cast_id": 44, "character": "Indulgence salesman", "credit_id": "5975522592514157f7021d56", "gender": 0, "id": 28213, "name": "Huug van Tienhoven", "order": 19, "profile_path": "/36qz6dFFc4DJxCQK9Vgj7UsjywQ.jpg"}, {"cast_id": 45, "character": "Duco", "credit_id": "59755260c3a3685d7f020fcc", "gender": 0, "id": 1856899, "name": "Sem van Butselaar", "order": 20, "profile_path": "/xTVX3JjeCTwUXp2smxYbOOsybNu.jpg"}, {"cast_id": 46, "character": "Herr Schmidt", "credit_id": "597552a7c3a3680cb70026d0", "gender": 0, "id": 38461, "name": "Germain Wagner", "order": 21, "profile_path": "/sXLeNFEgkvUpLoXJnWfqMHuq1Wp.jpg"}], "crew": [{"credit_id": "569f8829c3a36858cb008ea3", "department": "Directing", "gender": 0, "id": 1111685, "job": "Director", "name": "Dennis Bots", "profile_path": "/5Fum7rwj2xQSsxuVX6XjUw20Cl8.jpg"}, {"credit_id": "569f88ed9251412ec700236a", "department": "Writing", "gender": 0, "id": 87905, "job": "Screenplay", "name": "Karen van Holst Pellekaan", "profile_path": "/lalEy1w2JFiz5CpxTi3qmCrPZgb.jpg"}, {"credit_id": "58a3817e925141777900174d", "department": "Production", "gender": 2, "id": 43640, "job": "Casting", "name": "Janusz Gosschalk", "profile_path": "/bsUn6RicAwLw4OsHw8OsSI2s4uj.jpg"}, {"credit_id": "58a3818bc3a3683f1900175f", "department": "Production", "gender": 0, "id": 1261648, "job": "Casting", "name": "Leonie Luttik", "profile_path": null}, {"credit_id": "58a38194c3a3683f84001a34", "department": "Production", "gender": 0, "id": 968348, "job": "Casting", "name": "Elske Falkena", "profile_path": null}, {"credit_id": "58a381b09251417765001842", "department": "Sound", "gender": 2, "id": 1609209, "job": "Sound Mixer", "name": "Carlo Thoss", "profile_path": null}, {"credit_id": "58a381bfc3a3683f19001777", "department": "Costume & Make-Up", "gender": 0, "id": 1018988, "job": "Costume Design", "name": "Uli Simon", "profile_path": null}, {"credit_id": "58a381e39251417765001864", "department": "Costume & Make-Up", "gender": 0, "id": 19992, "job": "Makeup Artist", "name": "Katja Reinert-Alexis", "profile_path": null}, {"credit_id": "58a381edc3a3683f6e001743", "department": "Costume & Make-Up", "gender": 0, "id": 19992, "job": "Hairstylist", "name": "Katja Reinert-Alexis", "profile_path": null}, {"credit_id": "58a3820b92514177530019c6", "department": "Visual Effects", "gender": 0, "id": 1757980, "job": "Visual Effects Supervisor", "name": "Albert van Vuure", "profile_path": null}, {"credit_id": "58a3821bc3a3683f6e001759", "department": "Visual Effects", "gender": 0, "id": 1757981, "job": "Visual Effects Supervisor", "name": "Pepijn Schroeijers", "profile_path": null}, {"credit_id": "58a3822c92514177960018c5", "department": "Sound", "gender": 2, "id": 958778, "job": "Original Music Composer", "name": "Andr\u00e9 Dziezuk", "profile_path": null}, {"credit_id": "58a3823bc3a3683eff0016f6", "department": "Sound", "gender": 0, "id": 1263797, "job": "Sound Designer", "name": "Herman Pie\u00ebte", "profile_path": null}, {"credit_id": "58a3824992514177530019ed", "department": "Editing", "gender": 0, "id": 1070811, "job": "Editor", "name": "Peter Alderliesten", "profile_path": null}, {"credit_id": "58a38269925141774f0018c5", "department": "Editing", "gender": 0, "id": 1757982, "job": "Editor", "name": "Bj\u00f6rn Mentink", "profile_path": null}, {"credit_id": "58a38275c3a3683f36001791", "department": "Art", "gender": 2, "id": 1047474, "job": "Production Design", "name": "Kurt Loyens", "profile_path": null}, {"credit_id": "58a38282c3a3683f4c0017e0", "department": "Camera", "gender": 0, "id": 1152400, "job": "Director of Photography", "name": "Rolf Dekens", "profile_path": "/69xPLMUOlq39pH3gQCXj2sIg4vr.jpg"}, {"credit_id": "58a3829992514177650018ba", "department": "Production", "gender": 0, "id": 1757983, "job": "Line Producer", "name": "Michiel Bartels", "profile_path": null}, {"credit_id": "58a382a1925141774f0018e3", "department": "Production", "gender": 0, "id": 1311366, "job": "Associate Producer", "name": "David Claikens", "profile_path": null}, {"credit_id": "58a382af9251417796001910", "department": "Production", "gender": 0, "id": 1311367, "job": "Associate Producer", "name": "Alex Verbaere", "profile_path": null}, {"credit_id": "58a382be92514177570018a6", "department": "Production", "gender": 0, "id": 1018991, "job": "Co-Producer", "name": "Nicolas Steil", "profile_path": null}, {"credit_id": "58a38305c3a3683eff001772", "department": "Production", "gender": 0, "id": 1757984, "job": "Co-Producer", "name": "Katleen Goossens", "profile_path": null}, {"credit_id": "58a3830e92514177570018d9", "department": "Production", "gender": 0, "id": 1198816, "job": "Co-Producer", "name": "Marina Blok", "profile_path": null}, {"credit_id": "58a38329c3a3683f19001834", "department": "Production", "gender": 0, "id": 1757985, "job": "Producer", "name": "Harro van Staverden", "profile_path": null}, {"credit_id": "58a383369251417796001964", "department": "Production", "gender": 0, "id": 1262521, "job": "Producer", "name": "Petra Goedings", "profile_path": null}, {"credit_id": "5975531b92514157dd001a2a", "department": "Crew", "gender": 0, "id": 45760, "job": "Stunt Coordinator", "name": "Marco Maas", "profile_path": "/yZoY961oijY9dMqdumRPJ4NsjLV.jpg"}, {"credit_id": "5975534792514106a801950c", "department": "Crew", "gender": 2, "id": 1856900, "job": "Stunts", "name": "Pascal Madura", "profile_path": null}, {"credit_id": "5975535a92514157dd001a76", "department": "Crew", "gender": 0, "id": 1856901, "job": "Stunts", "name": "Marco Sleeswijk", "profile_path": null}, {"credit_id": "5975536bc3a3685ded021aff", "department": "Crew", "gender": 0, "id": 1263801, "job": "Stunts", "name": "Ron Sleeswijk", "profile_path": null}]}}