{"adult": false, "backdrop_path": "/ch7oRWUAGFUwqiWAOzmlK3OBHcX.jpg", "belongs_to_collection": null, "budget": 0, "genres": [{"id": 99, "name": "Documentary"}], "homepage": "http://www.savagefilm.be/documentary/EMPIRE-OF-DUST", "id": 378944, "imdb_id": "tt2148945", "original_language": "ab", "original_title": "Empire of Dust", "overview": "Lao Yang is head of logistics of the group. He is responsible for the equipment, building materials and food (mainly chickens) to arrive in the isolated Chinese prefab camp. The Congolese government was supposed to deliver these things but so far the team hasn't received anything. With Eddy (a Congolese man who speaks Mandarin fluently) as an intermediate, Lao Yang is forced to leave the camp and deal with local Congolese entrepreneurs, because without the construction materials the road works will cease. What follows is an endless, harsh, but absurdly funny roller coaster of negotiations and misunderstandings, as Lao Yang learns about the Congolese way of making deals.", "popularity": 1.017, "poster_path": "/k08D2CrRkc0vvW6NPJ4dN9XoG13.jpg", "production_companies": [{"id": 7115, "logo_path": "/o2EG4i2JfK1o3EaXuaBKXo1PDlz.png", "name": "Savage Film", "origin_country": "BE"}], "production_countries": [{"iso_3166_1": "CG", "name": "Congo"}, {"iso_3166_1": "BE", "name": "Belgium"}], "release_date": "2011-10-18", "revenue": 0, "runtime": 77, "spoken_languages": [{"iso_639_1": "fr", "name": "Fran\u00e7ais"}, {"iso_639_1": "zh", "name": "\u666e\u901a\u8bdd"}, {"iso_639_1": "sw", "name": "Kiswahili"}], "status": "Released", "tagline": "Two men representing two different cultures clash in the dust of the former Belgian colony, the Democratic Republic of Congo.", "title": "Empire of Dust", "video": false, "vote_average": 7.0, "vote_count": 3, "keywords": {"keywords": [{"id": 1690, "name": "belgium"}, {"id": 2521, "name": "congo"}, {"id": 12337, "name": "colonisation"}, {"id": 185718, "name": "cultural conflict"}]}, "similar": {"page": 1, "results": [{"id": 525554, "video": false, "vote_count": 120, "vote_average": 6.0, "title": "The Bouncer", "release_date": "2018-08-22", "original_language": "fr", "original_title": "Lukas", "genre_ids": [28, 18, 53], "backdrop_path": "/xDwQBiE7rxKq2TMUS6SRfQmCLY5.jpg", "adult": false, "overview": "A tough nightclub bouncer struggling to raise his 8-year-old daughter is forced to go undercover after an unfortunate event.", "poster_path": "/w7rFgyr7rujNYRex9oxzG26Zq6z.jpg", "popularity": 12.446}, {"id": 11416, "video": false, "vote_count": 688, "vote_average": 7.4, "title": "The Mission", "release_date": "1986-09-29", "original_language": "en", "original_title": "The Mission", "genre_ids": [28, 12, 18, 36], "backdrop_path": "/22GLW4Qgs7NycHLjsp8whRCuky4.jpg", "adult": false, "overview": "When a Spanish Jesuit goes into the South American wilderness to build a mission in the hope of converting the Indians of the region, a slave hunter is converted and joins his mission. When Spain sells the colony to Portugal, they are forced to defend all they have built against the Portugese aggressors.", "poster_path": "/oTU13XXz4WHisDWKX3X6dFWEjC0.jpg", "popularity": 11.33}, {"id": 530385, "video": false, "vote_count": 1424, "vote_average": 7.1, "title": "Midsommar", "release_date": "2019-07-03", "original_language": "en", "original_title": "Midsommar", "genre_ids": [18, 27, 9648], "backdrop_path": "/g6GtOfXtzDpY73ef7wludoorTti.jpg", "adult": false, "overview": "Several friends travel to Sweden to study as anthropologists a summer festival that is held every ninety years in the remote hometown of one of them. What begins as a dream vacation in a place where the sun never sets, gradually turns into a dark nightmare as the mysterious inhabitants invite them to participate in their disturbing festive activities.", "poster_path": "/7LEI8ulZzO5gy9Ww2NVCrKmHeDZ.jpg", "popularity": 35.33}, {"adult": false, "backdrop_path": "/9YAVIwBcBrLXeukg2dgMGfYB1uu.jpg", "genre_ids": [12, 16, 10751, 10749], "id": 10530, "original_language": "en", "original_title": "Pocahontas", "overview": "Pocahontas, daughter of a Native American tribe chief, falls in love with an English soldier as colonists invade 17th century Virginia.", "poster_path": "/kZ1ft0QZ4e3zDUPMBftEkwI9ftd.jpg", "release_date": "1995-06-14", "title": "Pocahontas", "video": false, "vote_average": 6.9, "vote_count": 3587, "popularity": 26.574}, {"id": 818, "video": false, "vote_count": 1920, "vote_average": 5.9, "title": "Austin Powers in Goldmember", "release_date": "2002-07-26", "original_language": "en", "original_title": "Austin Powers in Goldmember", "genre_ids": [35, 80, 878], "backdrop_path": "/mzZraP6PV34eVjB8giKbKIMXVeW.jpg", "adult": false, "overview": "The world's most shagadelic spy continues his fight against Dr. Evil. This time, the diabolical doctor and his clone, Mini-Me, team up with a new foe -- '70s kingpin Goldmember. While pursuing the team of villains to stop them from world domination, Austin gets help from his dad and an old girlfriend.", "poster_path": "/tFR7dTbX5BsmoUwKHfa2cWoZbwK.jpg", "popularity": 23.167}, {"id": 11897, "video": false, "vote_count": 192, "vote_average": 7.2, "title": "How the West Was Won", "release_date": "1962-11-01", "original_language": "en", "original_title": "How the West Was Won", "genre_ids": [37], "backdrop_path": "/rTLd4dIgEeM7QzifI2IYwDiFoo5.jpg", "adult": false, "overview": "The epic tale of the development of the American West from the 1830s through the Civil War to the end of the century, as seen through the eyes of one pioneer family.", "poster_path": "/ixbhzvECnuqCBYnF9J1mfVfLCPF.jpg", "popularity": 16.811}, {"id": 72976, "video": false, "vote_count": 2459, "vote_average": 6.8, "title": "Lincoln", "release_date": "2012-11-09", "original_language": "en", "original_title": "Lincoln", "genre_ids": [18, 36], "backdrop_path": "/9vZzjmaXIYotKGnCfQyWBD7PAIO.jpg", "adult": false, "overview": "The revealing story of the 16th US President's tumultuous final months in office. In a nation divided by war and the strong winds of change, Lincoln pursues a course of action designed to end the war, unite the country and abolish slavery. With the moral courage and fierce determination to succeed, his choices during this critical moment will change the fate of generations to come.", "poster_path": "/gkkiDu9srCCbCMxGKwNwKCxK7KF.jpg", "popularity": 16.983}, {"id": 8424, "video": false, "vote_count": 1194, "vote_average": 7.3, "title": "Love Me If You Dare", "release_date": "2003-09-17", "original_language": "fr", "original_title": "Jeux d'enfants", "genre_ids": [35, 18, 10749], "backdrop_path": "/92DQbJfioe7Jxlh8HZy0M303ndk.jpg", "adult": false, "overview": "As adults, best friends Julien and Sophie continue the odd game they started as children -- a fearless competition to outdo one another with daring and outrageous stunts. While they often act out to relieve one another's pain, their game might be a way to avoid the fact that they are truly meant for one another.", "poster_path": "/u2TAmZds7SzHUA8RSlF08cMVMwE.jpg", "popularity": 12.901}, {"adult": false, "backdrop_path": "/74G2n8hyooZfORLjh6oGtFjGBPk.jpg", "genre_ids": [28, 12], "id": 10329, "original_language": "en", "original_title": "Congo", "overview": "Eight people embark on an expedition into the Congo, a mysterious expanse of unexplored Africa where human greed and the laws of nature have gone berserk. When the thrill-seekers -- some with ulterior motives -- stumble across a race of killer apes.", "poster_path": "/wjeQaiAApgzdipkNXhQnBrqjBY9.jpg", "release_date": "1995-06-09", "title": "Congo", "video": false, "vote_average": 5.3, "vote_count": 422, "popularity": 12.788}, {"id": 334517, "video": false, "vote_count": 422, "vote_average": 7.2, "title": "The Siege of Jadotville", "release_date": "2016-09-19", "original_language": "en", "original_title": "The Siege of Jadotville", "genre_ids": [18, 53, 10752], "backdrop_path": "/lwIVCU2LozEIVaGRZs4CMTdk4wc.jpg", "adult": false, "overview": "Irish Commandant Pat Quinlan leads a stand off with troops against French and Belgian Mercenaries in the Congo during in the early 1960s.", "poster_path": "/9r21jawIp226dlQ8dLzwSBrRDNY.jpg", "popularity": 13.341}, {"adult": false, "backdrop_path": "/95Sw8Bi4b47taDe9cxDw8ooN6uE.jpg", "genre_ids": [12, 10749], "id": 488, "original_language": "en", "original_title": "The African Queen", "overview": "At the start of the first World War, in the middle of Africa\u2019s nowhere, a gin soaked riverboat captain is persuaded by a strong-willed missionary to go down river and face-off a German warship.", "poster_path": "/vMpIeFuDQPuKsZCLF1iEOafhFaD.jpg", "release_date": "1951-12-03", "title": "The African Queen", "video": false, "vote_average": 7.4, "vote_count": 449, "popularity": 11.096}, {"id": 1247, "video": false, "vote_count": 597, "vote_average": 6.4, "title": "The Good Shepherd", "release_date": "2006-12-11", "original_language": "en", "original_title": "The Good Shepherd", "genre_ids": [18, 36, 53], "backdrop_path": "/3qvtPTzdeV5cJFBpJO56KFAkF4d.jpg", "adult": false, "overview": "Edward Wilson, the only witness to his father's suicide and member of the Skull and Bones Society while a student at Yale, is a morally upright young man who values honor and discretion, qualities that help him to be recruited for a career in the newly founded OSS. His dedication to his work does not come without a price though, leading him to sacrifice his ideals and eventually his family.", "poster_path": "/s2RYkRXrjUIyOlmzym37kpLTKRz.jpg", "popularity": 14.206}, {"id": 10618, "video": false, "vote_count": 113, "vote_average": 7.3, "title": "Once Upon a Time in China II", "release_date": "1992-08-15", "original_language": "cn", "original_title": "\u9ec3\u98db\u9d3b\u4e4b\u4e8c \u7537\u5152\u7576\u81ea\u5f37", "genre_ids": [28, 35], "backdrop_path": "/7B72qecQtVAG1b2kvLhVqNGHqzy.jpg", "adult": false, "overview": "In the sequel to the Tsui Hark classic, Wong Fei-Hung faces The White Lotus society, a fanatical cult seeking to drive the Europeans out of China through violence, even attacking Chinese who follow Western ways. Wong must also defend Dr. Sun Yat Sen, a revolutionary, from the military.", "poster_path": "/4V3hasCQLYtzVRJDGKDoYLUTYQd.jpg", "popularity": 14.992}, {"id": 10617, "video": false, "vote_count": 185, "vote_average": 7.3, "title": "Once Upon a Time in China", "release_date": "1991-08-15", "original_language": "cn", "original_title": "\u9ec3\u98db\u9d3b", "genre_ids": [28, 18], "backdrop_path": "/dxv03yc1LuLJimaMJqJwpaeXVXE.jpg", "adult": false, "overview": "Set in late 19th century Canton this martial arts film depicts the stance taken by the legendary martial arts hero Wong Fei-Hung (1847-1924) against foreign forces' (English, French and American) plundering of China.", "poster_path": "/6oBrdOS9E1WNPaRKcRDxx7F2df1.jpg", "popularity": 11.138}, {"id": 10620, "video": false, "vote_count": 38, "vote_average": 5.9, "title": "Once Upon a Time in China and America", "release_date": "1997-02-01", "original_language": "cn", "original_title": "\u9ec3\u98db\u9d3b\u4e4b\u897f\u57df\u96c4\u7345", "genre_ids": [28, 37], "backdrop_path": "/hbM6yHd51ZqJP9pRV96W7Sus4xE.jpg", "adult": false, "overview": "So goes to the U.S. to open a martial arts school. Around this time, many Chinese people were sold off to U.S. railroad companies, and were brutally treated by the Americans under the harsh working conditions. Thus, the American workers' hatred towards the Chinese immigrants is high. As a result, So gets into trouble with the Americans and the mob, and calls Master Wong for help.", "poster_path": "/fNOpZTtYbk0Kx26m141PeJu53wM.jpg", "popularity": 7.813}, {"id": 10130, "video": false, "vote_count": 291, "vote_average": 6.9, "title": "Gorillas in the Mist", "release_date": "1988-09-23", "original_language": "en", "original_title": "Gorillas in the Mist", "genre_ids": [18, 36], "backdrop_path": "/2yOk5xZXYoPZQ1klBZqpZODzBlZ.jpg", "adult": false, "overview": "The story of Dian Fossey, a scientist who came to Africa to study the vanishing mountain gorillas, and later fought to protect them.", "poster_path": "/fvGe6nGdg5wgfhv8WPOAoNXLFul.jpg", "popularity": 13.288}, {"adult": false, "backdrop_path": "/2DskWkmWxSxM3KErhdnyViG4b6Z.jpg", "genre_ids": [18], "id": 27029, "original_language": "en", "original_title": "The Nun's Story", "overview": "Gabrielle Van Der Mal gave up everything to become a nun. But her faith and her vows are forever being tested: first in the missionary Congo hospital where she assists the brilliant and handsome Dr. Fortunati and then at the mother house in France when World War II has broken out and the nuns are forbidden by the order to take sides.", "poster_path": "/i0qzJwBnIl86yji9QmqQxFPkIBk.jpg", "release_date": "1959-06-18", "title": "The Nun's Story", "video": false, "vote_average": 7.3, "vote_count": 78, "popularity": 8.053}, {"id": 354282, "video": false, "vote_count": 254, "vote_average": 5.2, "title": "The Osiris Child", "release_date": "2016-02-17", "original_language": "en", "original_title": "The Osiris Child", "genre_ids": [878], "backdrop_path": "/5HlTix2YQw24NCGZ7D83VJeRkLh.jpg", "adult": false, "overview": "Set in the future in a time of interplanetary colonization, an unlikely pair race against an impending global crisis and are confronted by the monsters that live inside us all.", "poster_path": "/3sx69bH2n2tgvknvq2VROJ6lEXS.jpg", "popularity": 11.474}, {"adult": false, "backdrop_path": "/1NGFwLyUo6YYLYD6jUaiWXgxh6n.jpg", "genre_ids": [53], "id": 455957, "original_language": "en", "original_title": "Domino", "overview": "Seeking justice for his partner\u2019s murder by an ISIS member, a Copenhagen police officer finds himself caught in a cat and mouse game with a duplicitous CIA agent who is using the killer as a pawn to trap other ISIS members.", "poster_path": "/4ExrDZRhhmZkveXMjUzywc6266q.jpg", "release_date": "2019-05-31", "title": "Domino", "video": false, "vote_average": 4.6, "vote_count": 75, "popularity": 10.098}, {"id": 10619, "video": false, "vote_count": 85, "vote_average": 6.7, "title": "Once Upon a Time in China III", "release_date": "1993-01-01", "original_language": "cn", "original_title": "\u9ec3\u98db\u9d3b\u4e4b\u4e09 \u7345\u738b\u722d\u9738", "genre_ids": [28], "backdrop_path": "/3wd0Bv8qnYMXrqzB4vXwj3QwdLv.jpg", "adult": false, "overview": "Master Wong and his disciples enroll in the 'Dancing Lion Competition' to stop an assassination plot and to battle an arrogant, deceitful opponent.", "poster_path": "/sZN1A2BxWLxCGvm4XlFZzIwq3YC.jpg", "popularity": 8.083}], "total_pages": 7, "total_results": 126}, "recommendations": {"page": 1, "results": [], "total_pages": 1, "total_results": 0}, "credits": {"cast": [{"cast_id": 12, "character": "", "credit_id": "5992dd309251417bf600e93f", "gender": 0, "id": 1870040, "name": "Lao Yang", "order": 1, "profile_path": null}], "crew": [{"credit_id": "56a391d4c3a368389e002ecd", "department": "Directing", "gender": 0, "id": 1567372, "job": "Director", "name": "Bram Van Paesschen", "profile_path": null}, {"credit_id": "56a3933792514154f000128c", "department": "Production", "gender": 2, "id": 1033140, "job": "Producer", "name": "Bart Van Langendonck", "profile_path": null}, {"credit_id": "56a39346c3a368388b003270", "department": "Crew", "gender": 0, "id": 1152057, "job": "Cinematography", "name": "Emmanuel Gras", "profile_path": "/pebmNa5LNWEeFJjLHRE2akuj7hY.jpg"}, {"credit_id": "56a39396c3a3683890003650", "department": "Production", "gender": 0, "id": 1567374, "job": "Line Producer", "name": "Tatjana Kozar", "profile_path": null}, {"credit_id": "56a393a292514172020030c2", "department": "Production", "gender": 0, "id": 1567375, "job": "Line Producer", "name": "Xavier Rombaut", "profile_path": null}, {"credit_id": "56a393b79251410c08000d4b", "department": "Sound", "gender": 0, "id": 1567376, "job": "Sound", "name": "Yves de Mey", "profile_path": null}, {"credit_id": "56a393c492514154f000129c", "department": "Sound", "gender": 0, "id": 1567377, "job": "Sound", "name": "Pieter Deweirdt", "profile_path": null}, {"credit_id": "56a393fe925141720b002fdd", "department": "Sound", "gender": 2, "id": 1567378, "job": "Sound", "name": "Jeroen Van Der Stock", "profile_path": null}, {"credit_id": "56a3981b9251411e15001d52", "department": "Editing", "gender": 0, "id": 1567372, "job": "Editor", "name": "Bram Van Paesschen", "profile_path": null}, {"credit_id": "56a39353c3a36838a3002ba3", "department": "Editing", "gender": 0, "id": 1120546, "job": "Editor", "name": "Dieter Diependaele", "profile_path": null}]}}