{"adult": false, "backdrop_path": "/lWlxbVKSgVUvUbrOTSIhWu4R4xt.jpg", "belongs_to_collection": null, "budget": 0, "genres": [{"id": 16, "name": "Animation"}, {"id": 878, "name": "Science Fiction"}], "homepage": "http://www.cencoroll.com/", "id": 37928, "imdb_id": "tt1520841", "original_language": "ja", "original_title": "\u30bb\u30f3\u30b3\u30ed\u30fc\u30eb", "overview": "A giant monster sends a town's citizens into a panic, except for a girl named Yuki and her schoolmate Tetsu. Tetsu happens to have his own strange creature named Cenco as a pet. Another boy named Shuu controls the monster threatening the town, and the stage is set for a battle.", "popularity": 6.752, "poster_path": "/sZkfDgkUcK9zZ7WtWQOESNn6ILK.jpg", "production_companies": [{"id": 2883, "logo_path": "/faCTt5pKVrfcO9GmO3myu6OulAe.png", "name": "Aniplex", "origin_country": "JP"}, {"id": 5667, "logo_path": null, "name": "Anime Innovation Tokyo", "origin_country": ""}], "production_countries": [{"iso_3166_1": "JP", "name": "Japan"}], "release_date": "2009-08-22", "revenue": 0, "runtime": 27, "spoken_languages": [{"iso_639_1": "ja", "name": "\u65e5\u672c\u8a9e"}], "status": "Released", "tagline": "", "title": "Cencoroll", "video": false, "vote_average": 6.1, "vote_count": 24, "keywords": {"keywords": [{"id": 233, "name": "japan"}, {"id": 9951, "name": "alien"}, {"id": 33637, "name": "super power"}, {"id": 179430, "name": "aftercreditsstinger"}, {"id": 206988, "name": "contemporary"}, {"id": 210024, "name": "anime"}, {"id": 214549, "name": "short"}]}, "similar": {"page": 1, "results": [{"id": 8392, "video": false, "vote_count": 3716, "vote_average": 8.1, "title": "My Neighbor Totoro", "release_date": "1988-04-16", "original_language": "ja", "original_title": "\u3068\u306a\u308a\u306e\u30c8\u30c8\u30ed", "genre_ids": [16, 14, 10751], "backdrop_path": "/hoIqf9YjZM0oQOrFXp8DcucJ3Jg.jpg", "adult": false, "overview": "Two sisters move to the country with their father in order to be closer to their hospitalized mother, and discover the surrounding trees are inhabited by Totoros, magical spirits of the forest. When the youngest runs away from home, the older sister seeks help from the spirits to find her.", "poster_path": "/rtGDOeG9LzoerkDGZF9dnVeLppL.jpg", "popularity": 47.36}, {"id": 4977, "video": false, "vote_count": 997, "vote_average": 7.8, "title": "Paprika", "release_date": "2006-10-01", "original_language": "ja", "original_title": "\u30d1\u30d7\u30ea\u30ab", "genre_ids": [16, 18, 9648, 878, 53], "backdrop_path": "/jViKJYWcILHeN0KH1Wub0Go59TZ.jpg", "adult": false, "overview": "When a machine that allows therapists to enter their patient's dreams is stolen, all hell breaks loose. Only a young female therapist can stop it: Paprika.", "poster_path": "/bLUUr474Go1DfeN1HLjE3rnZXBq.jpg", "popularity": 16.88}, {"adult": false, "backdrop_path": "/anDdOJw25lqoXfyNQ0v9gHyPn3Q.jpg", "genre_ids": [16, 53], "id": 10494, "original_language": "ja", "original_title": "\u30d1\u30fc\u30d5\u30a7\u30af\u30c8\u30d6\u30eb\u30fc", "overview": "A retired pop singer turned actress' sense of reality is shaken when she is stalked by an obsessed fan and seemingly a ghost of her past.", "poster_path": "/sxBzVuwqIABKIbdij7lOrRvDb15.jpg", "release_date": "1997-07-25", "title": "Perfect Blue", "video": false, "vote_average": 8.2, "vote_count": 815, "popularity": 18.266}, {"id": 505262, "video": false, "vote_count": 240, "vote_average": 7.9, "title": "My Hero Academia: Two Heroes", "release_date": "2018-08-03", "original_language": "ja", "original_title": "\u50d5\u306e\u30d2\u30fc\u30ed\u30fc\u30a2\u30ab\u30c7\u30df\u30a2 THE MOVIE \uff5e2\u4eba\u306e\u82f1\u96c4\uff5e", "genre_ids": [28, 12, 16, 35, 14], "backdrop_path": "/uicia399gyMGE1smatJ41M0CtFx.jpg", "adult": false, "overview": "All Might and Deku accept an invitation to go abroad to a floating and mobile manmade city, called 'I Island', where they research quirks as well as hero supplemental items at the special 'I Expo' convention that is currently being held on the island. During that time, suddenly, despite an iron wall of security surrounding the island, the system is breached by a villain, and the only ones able to stop him are the students of Class 1-A.", "poster_path": "/hC4nTxdhXqFWzgqynGvvXVMiMNp.jpg", "popularity": 11.526}, {"id": 44912, "video": false, "vote_count": 4724, "vote_average": 5.1, "title": "Green Lantern", "release_date": "2011-06-16", "original_language": "en", "original_title": "Green Lantern", "genre_ids": [28, 12, 878, 53], "backdrop_path": "/gulyiqtyuzFRJCnvNwD6Z786kQi.jpg", "adult": false, "overview": "For centuries, a small but powerful force of warriors called the Green Lantern Corps has sworn to keep intergalactic order. Each Green Lantern wears a ring that grants him superpowers. But when a new enemy called Parallax threatens to destroy the balance of power in the Universe, their fate and the fate of Earth lie in the hands of the first human ever recruited.", "poster_path": "/zUSEYp9G7Hk9GZIfbPoOiSHvwHV.jpg", "popularity": 21.125}, {"adult": false, "backdrop_path": "/cMrvn4Hl0A0NAL61BpDWQIsMsiN.jpg", "genre_ids": [16], "id": 149870, "original_language": "ja", "original_title": "\u98a8\u7acb\u3061\u306c", "overview": "A lifelong love of flight inspires Japanese aviation engineer Jiro Horikoshi, whose storied career includes the creation of the A-6M World War II fighter plane.", "poster_path": "/3OTcCyf7QbGdVxsS8GLtaSsTZtP.jpg", "release_date": "2013-07-20", "title": "The Wind Rises", "video": false, "vote_average": 7.8, "vote_count": 1427, "popularity": 23.476}, {"id": 326359, "video": false, "vote_count": 1179, "vote_average": 6.8, "title": "Frozen Fever", "release_date": "2015-03-09", "original_language": "en", "original_title": "Frozen Fever", "genre_ids": [12, 16, 10751], "backdrop_path": "/ubioPGniCfDiASmYYpeJs5RRNaC.jpg", "adult": false, "overview": "On Anna's birthday, Elsa and Kristoff are determined to give her the best celebration ever, but Elsa's icy powers may put more than just the party at risk.", "poster_path": "/lKJiVPzsAO9IJ4LKWXZ8vkR2bg4.jpg", "popularity": 17.061}, {"id": 9016, "video": false, "vote_count": 2230, "vote_average": 7.4, "title": "Treasure Planet", "release_date": "2002-11-26", "original_language": "en", "original_title": "Treasure Planet", "genre_ids": [12, 16, 14, 878, 10751], "backdrop_path": "/3HVvtFm9NvOfn1u3yfeEugh2ZWj.jpg", "adult": false, "overview": "When space galleon cabin boy Jim Hawkins discovers a map to an intergalactic \"loot of a thousand worlds,\" a cyborg cook named John Silver teaches him to battle supernovas and space storms. But, soon, Jim realizes Silver is a pirate intent on mutiny!", "poster_path": "/gFfZVblQoExIVK4PVCJ9xZZJJKy.jpg", "popularity": 25.816}, {"id": 150540, "video": false, "vote_count": 13953, "vote_average": 7.9, "title": "Inside Out", "release_date": "2015-06-09", "original_language": "en", "original_title": "Inside Out", "genre_ids": [16, 35, 18, 10751], "backdrop_path": "/szytSpLAyBh3ULei3x663mAv5ZT.jpg", "adult": false, "overview": "Growing up can be a bumpy road, and it's no exception for Riley, who is uprooted from her Midwest life when her father starts a new job in San Francisco. Riley's guiding emotions\u2014 Joy, Fear, Anger, Disgust and Sadness\u2014live in Headquarters, the control centre inside Riley's mind, where they help advise her through everyday life and tries to keep things positive, but the emotions conflict on how best to navigate a new city, house and school.", "poster_path": "/aAmfIX3TT40zUHGcCKrlOZRKC7u.jpg", "popularity": 47.351}, {"adult": false, "backdrop_path": "/5OeY4U2rzePxWq2rkqMajUx2gz7.jpg", "genre_ids": [16, 10751, 12, 14, 10749], "id": 812, "original_language": "en", "original_title": "Aladdin", "overview": "Princess Jasmine grows tired of being forced to remain in the palace, so she sneaks out into the marketplace, in disguise, where she meets street-urchin Aladdin.  The couple falls in love, although Jasmine may only marry a prince.  After being thrown in jail, Aladdin becomes embroiled in a plot to find a mysterious lamp, with which the evil Jafar hopes to rule the land.", "poster_path": "/mjKozYRuHc9j7SmiXmbVmCiAM0A.jpg", "release_date": "1992-11-25", "title": "Aladdin", "video": false, "vote_average": 7.6, "vote_count": 7288, "popularity": 46.629}, {"id": 260513, "video": false, "vote_count": 7531, "vote_average": 7.5, "title": "Incredibles 2", "release_date": "2018-06-14", "original_language": "en", "original_title": "Incredibles 2", "genre_ids": [28, 12, 16, 10751], "backdrop_path": "/mabuNsGJgRuCTuGqjFkWe1xdu19.jpg", "adult": false, "overview": "Elastigirl springs into action to save the day, while Mr. Incredible faces his greatest challenge yet \u2013 taking care of the problems of his three children.", "poster_path": "/9lFKBtaVIhP7E2Pk0IY1CwTKTMZ.jpg", "popularity": 48.341}, {"id": 372058, "video": false, "vote_count": 4877, "vote_average": 8.5, "title": "Your Name.", "release_date": "2016-08-26", "original_language": "ja", "original_title": "\u541b\u306e\u540d\u306f\u3002", "genre_ids": [16, 18, 10749], "backdrop_path": "/7OMAfDJikBxItZBIug0NJig5DHD.jpg", "adult": false, "overview": "High schoolers Mitsuha and Taki are complete strangers living separate lives. But one night, they suddenly switch places. Mitsuha wakes up in Taki\u2019s body, and he in hers. This bizarre occurrence continues to happen randomly, and the two must adjust their lives around each other.", "poster_path": "/xq1Ugd62d23K2knRUx6xxuALTZB.jpg", "popularity": 40.041}, {"id": 390634, "video": false, "vote_count": 75, "vote_average": 5.7, "title": "Fate/Stay Night: Heaven's Feel II. Lost Butterfly", "release_date": "2019-01-12", "original_language": "ja", "original_title": "\u5287\u5834\u7248 Fate\uff0fstay night [Heaven's Feel] II. lost butterfly", "genre_ids": [28, 16, 18, 14], "backdrop_path": "/8WlEeHKf0BIydR1kWnOVHSSWugi.jpg", "adult": false, "overview": "Theatrical-release adaptation of the visual novel \"Fate/stay night\", following the third and final route. (Part 2 of a trilogy.)", "poster_path": "/4tS0iyKQBDFqVpVcH21MSJwXZdq.jpg", "popularity": 23.985}, {"id": 46529, "video": false, "vote_count": 3065, "vote_average": 6.1, "title": "I Am Number Four", "release_date": "2011-02-18", "original_language": "en", "original_title": "I Am Number Four", "genre_ids": [28, 12, 878, 53], "backdrop_path": "/b6rXH9f1UMP01qtyN5LiBX4ubIU.jpg", "adult": false, "overview": "A teenage fugitive with an incredible secret races to stay one step ahead of the mysterious forces seeking destroy him in this sci-fi action thriller. With three dead and one on the run, the race to find the elusive Number Four begins. Outwardly normal teen John Smith never gets too comfortable in the same identity, and along with his guardian, Henri, he is constantly moving from town to town. With each passing day, John gains a stronger grasp on his extraordinary new powers, and his bond to the beings that share his fantastic fate grows stronger.", "poster_path": "/36E6t6YgzT4mwgqNt5XbcV4MRNU.jpg", "popularity": 17.137}, {"id": 51739, "video": false, "vote_count": 1376, "vote_average": 7.5, "title": "The Secret World of Arrietty", "release_date": "2010-07-16", "original_language": "ja", "original_title": "\u501f\u308a\u3050\u3089\u3057\u306e\u30a2\u30ea\u30a8\u30c3\u30c6\u30a3", "genre_ids": [16, 14, 10751], "backdrop_path": "/kPpQu0kgyCusHPG3Q3h1c4EWfpS.jpg", "adult": false, "overview": "14-year-old Arrietty and the rest of the Clock family live in peaceful anonymity as they make their own home from items \"borrowed\" from the house's human inhabitants. However, life changes for the Clocks when a human boy discovers Arrietty.", "poster_path": "/A4w9oSNQUwtkaucy3K7LbSngKrk.jpg", "popularity": 25.161}, {"adult": false, "backdrop_path": "/rMsr8JcgVRlP4orRCa8DDkxaoSS.jpg", "genre_ids": [12, 10751, 14, 878, 53, 28], "id": 13836, "original_language": "en", "original_title": "Race to Witch Mountain", "overview": "A taxi driver gets more than he bargained for when he picks up two teen runaways. Not only does the pair possess supernatural powers, but they're also trying desperately to escape people who have made them their targets.", "poster_path": "/jKGmK0nWoPNnHypfWgL7ZI7fN5Q.jpg", "release_date": "2009-03-12", "title": "Race to Witch Mountain", "video": false, "vote_average": 5.6, "vote_count": 980, "popularity": 15.326}, {"id": 621733, "video": false, "vote_count": 0, "vote_average": 0.0, "title": "A Trip to the Seaside", "release_date": "2019-08-30", "original_language": "en", "original_title": "A Trip to the Seaside", "genre_ids": [99], "backdrop_path": null, "adult": false, "overview": "Experimental short film on the excitement and rush of a day trip", "poster_path": "/AuZVhpoJ4jm2LWDhoJKfxQfhDAi.jpg", "popularity": 1.324}, {"id": 650755, "video": false, "vote_count": 0, "vote_average": 0.0, "title": "Atordoado, Eu Permane\u00e7o Atento", "release_date": "2020-01-15", "original_language": "pt", "original_title": "Atordoado, Eu Permane\u00e7o Atento", "genre_ids": [99], "backdrop_path": null, "adult": false, "overview": "", "poster_path": "/exbM8qk6f6T44olJXcM8ix1sunL.jpg", "popularity": 7.153}, {"id": 7450, "video": false, "vote_count": 566, "vote_average": 6.5, "title": "Titan A.E.", "release_date": "2000-06-16", "original_language": "en", "original_title": "Titan A.E.", "genre_ids": [28, 12, 16, 878, 10751], "backdrop_path": "/zwiewsWq3YIiF7EQwJk34jb8koO.jpg", "adult": false, "overview": "A young man finds out that he holds the key to restoring hope and ensuring survival for the human race, while an alien species called the Drej are bent on mankind's destruction.", "poster_path": "/huI8CYyxY0BhzJSLn6XAP4nWAv.jpg", "popularity": 16.4}, {"id": 86828, "video": false, "vote_count": 771, "vote_average": 5.7, "title": "Absolutely Anything", "release_date": "2015-06-26", "original_language": "en", "original_title": "Absolutely Anything", "genre_ids": [35, 878], "backdrop_path": "/AeNDkeDcVAHKzbpgmvHK3mwSgRe.jpg", "adult": false, "overview": "Eccentric aliens give a man the power to do anything he wants to determine if Earth is worth saving.", "poster_path": "/b7iz6pDrtbyA5xmjmy957muVN1I.jpg", "popularity": 12.899}], "total_pages": 90, "total_results": 1781}, "recommendations": {"page": 1, "results": [{"id": 267370, "video": false, "vote_count": 5, "vote_average": 4.5, "title": "The Exit Room", "release_date": "2013-04-20", "original_language": "en", "original_title": "The Exit Room", "genre_ids": [18, 878, 53, 10752], "backdrop_path": null, "adult": false, "overview": "Imprisoned journalist Joseph Michaels faces a government execution during a future American Revolution.", "poster_path": "/coUFIb5KSThqhJMruofCThJzhUx.jpg", "popularity": 2.355}, {"adult": false, "backdrop_path": null, "genre_ids": [878], "id": 231720, "original_language": "en", "original_title": "LUNAR", "overview": "Set in Los Angeles City, 2057, an outlaw is captured and sentenced to a lifetime of imprisonment on the LUNAR penitentiaries. To reunite with his family, he must become the first convict to escape the corrupt system and return to Earth.", "poster_path": "/eofp9i3I63akyAjpEoTB7Fv7yH0.jpg", "release_date": "2013-10-31", "title": "LUNAR", "video": false, "vote_average": 4.0, "vote_count": 6, "popularity": 1.946}, {"adult": false, "backdrop_path": null, "genre_ids": [53, 27], "id": 68874, "original_language": "en", "original_title": "Mother", "overview": "Weisser is a young college bound man whose future is threatened when his mother interferes with his love life and a pending scholarship. He also discovers that his mother's best friend wishes to get closer to him, even if it means murder.", "poster_path": "/rTdTjue1LvFP5I0zPQLcSDfCLSQ.jpg", "release_date": "1995-01-01", "title": "Mother", "video": false, "vote_average": 5.9, "vote_count": 4, "popularity": 2.031}, {"adult": false, "backdrop_path": "/nsCc8dXzgGxZHxdIxv90ZPN2l1m.jpg", "genre_ids": [878, 16], "id": 239908, "original_language": "en", "original_title": "Fragile Machine", "overview": "Fragile Machine is an underground cg film about science, religion, and man's role in a new nature of which he has partial authorship. Through a unique combination of animation and music which some have likened to an 'electronic operetta' it tells the story of the first girl to be built in a factory instead of born from a womb.", "poster_path": "/ba5m1Cqv8tqb5C9gDqNQeeKNRvl.jpg", "release_date": "2005-03-05", "title": "Fragile Machine", "video": false, "vote_average": 3.9, "vote_count": 4, "popularity": 1.96}, {"adult": false, "backdrop_path": "/fTIYrhNF7G3RIwxhhDqG9wd3twY.jpg", "genre_ids": [99], "id": 64973, "original_language": "en", "original_title": "Peace, Propaganda & the Promised Land", "overview": "This video shows how the foreign policy interests of American political elites-working in combination with Israeli public relations stratgies-influence US news reporting about the Middle East conflict. Combining American and British TV news clips with observations of analysts, journalists and political activists, Peace, Propaganda &amp; the Promised Land provides a brief historical overview, a striking media comparison, and an examination of factors that have distorted U.S. media coverage and, in turn, American public opinion.", "poster_path": "/uLOBetBfaJ6zZSAnbQt13a2sGyr.jpg", "release_date": "2005-01-28", "title": "Peace, Propaganda & the Promised Land", "video": false, "vote_average": 6.3, "vote_count": 6, "popularity": 1.021}, {"adult": false, "backdrop_path": "/2TwTXRtFT2tjl8hsLcUbdjbZc1W.jpg", "genre_ids": [18, 878, 10749], "id": 20032, "original_language": "en", "original_title": "Robot Stories", "overview": "Four stories including: \"My Robot Baby,\" in which a couple must care for a robot baby before adopting a human child; \"The Robot Fixer,\" in which a mother tries to connect with her dying son; \"Machine Love,\" in which an office worker android learns that he, too, needs love; and \"Clay,\" in which an old sculptor must choose between natural death and digital immortality.", "poster_path": "/njXvh0BmcAcNEs8VLvGpU8RRUxx.jpg", "release_date": "2003-01-01", "title": "Robot Stories", "video": false, "vote_average": 4.4, "vote_count": 9, "popularity": 2.229}, {"adult": false, "backdrop_path": "/fq3kPDpYQsS4tLMln72MGUqWsxu.jpg", "genre_ids": [16, 28, 53], "id": 55892, "original_language": "ja", "original_title": "MEZZO FORTE", "overview": "The target of hitgirl Mikura is a wealthy baseball team owner, but he turns out to be a powerful underworld boss. Mikura and her team are beset by countless heavily armed bodyguards and the boss' vicious daughter.", "poster_path": "/3cIbMjZIUfs147XfVIzRLwJOG2B.jpg", "release_date": "2000-05-25", "title": "Mezzo Forte", "video": false, "vote_average": 6.7, "vote_count": 14, "popularity": 10.259}, {"adult": false, "backdrop_path": "/603qQ1bC2U5fk0NCjQY0WNh3CLN.jpg", "genre_ids": [28, 16, 878, 53], "id": 80089, "original_language": "ja", "original_title": "\u30d1\u30e9\u30b5\u30a4\u30c8\u30c9\u30fc\u30eb\u30ba", "overview": "Beauty is only skin deep, but when you can\u2019t see beneath the skin, how can you know what you\u2019re really dealing with? In a world where perfect androids called Boomers have infiltrated every aspect of society, it\u2019s the job of Branch to maintain peace between the people and the plastic. Unfortunately, not all boomers are created perfect, and when boomers go bad, people die. The thin blue line that separates man from machine is about to meet its most horrifying test in Parasite Dolls.", "poster_path": "/bCDVdpjhqbfMsSg0TlNeGMdg2el.jpg", "release_date": "2003-05-22", "title": "Parasite Dolls", "video": false, "vote_average": 5.3, "vote_count": 10, "popularity": 3.659}, {"adult": false, "backdrop_path": null, "genre_ids": [16, 18, 36], "id": 74799, "original_language": "ja", "original_title": "\u4eba\u9593\u5931\u683c \u30c7\u30a3\u30ec\u30af\u30bf\u30fc\u30ba\u30ab\u30c3\u30c8\u7248", "overview": "A theatrical film version of Madhouse's Aoi Bungaku Series anime. The film will re-edit the four episodes based on Osamu Dazai's No Longer Human (Ningen Shikkaku) novel, which have character designs inspired by manga artist and novel illustrator Takeshi Obata. This \"director's cut\" will include new \"navigation\" footage which is being created specifically for the film with narrator Masato Sakai.", "poster_path": "/vLYBHNMLPVHwIemk4D0heXLtjsr.jpg", "release_date": "2009-12-12", "title": "Ningen Shikkaku: Director's Cut-ban", "video": false, "vote_average": 6.5, "vote_count": 15, "popularity": 1.492}, {"adult": false, "backdrop_path": "/wb07aaqNzE4y0rChLoZPQcHPLF6.jpg", "genre_ids": [16, 18, 36, 27], "id": 181656, "original_language": "ja", "original_title": "\u30a2\u30b7\u30e5\u30e9", "overview": "Abandoned in the barren wasteland of Kyoto, a savage, enraged orphan does whatever it takes to survive in the wild. When he crosses paths with civilization, he must learn to tame the beast within.", "poster_path": "/9UICmCJMBU2VLGDrhFm1tcbOCSe.jpg", "release_date": "2012-09-29", "title": "Asura", "video": false, "vote_average": 6.9, "vote_count": 27, "popularity": 6.443}, {"adult": false, "backdrop_path": "/wkVgV2IQedmY631S08KCZHxkVER.jpg", "genre_ids": [878, 16], "id": 358632, "original_language": "ja", "original_title": "\u53f0\u98a8\u306e\u30ce\u30eb\u30c0", "overview": "As an unexpected typhoon bears down on a small tropical island, a group of students trapped at school find themselves forced to put aside their personal issues and work together. Not only to save themselves, but possibly the lives of everyone on the planet!", "poster_path": "/djMuBJMfASMIBLKcHnpxtBFEgs2.jpg", "release_date": "2015-06-05", "title": "Typhoon Noruda", "video": false, "vote_average": 5.9, "vote_count": 14, "popularity": 4.166}, {"adult": false, "backdrop_path": "/srcaBcAZVBEZqsFa9DlNTXWMHzj.jpg", "genre_ids": [28, 16, 14, 35], "id": 347413, "original_language": "ja", "original_title": "\u30ea\u30c8\u30eb\u30a6\u30a3\u30c3\u30c1\u30a2\u30ab\u30c7\u30df\u30a2 \u9b54\u6cd5\u4ed5\u639b\u3051\u306e\u30d1\u30ec\u30fc\u30c9", "overview": "In Enchanted Parade, Akko, Lotte and Sucy, having gotten in trouble yet again, are forced to team up with three other troublemakers; Amanda O'Neill, Constance Braunschweig Albrechtsburger and Jasmineka Antonenko, and must make an annual witch parade a success or else face expulsion.", "poster_path": "/mEspupnR3VqTrY72pUVzinnBMx.jpg", "release_date": "2015-07-03", "title": "Little Witch Academia: The Enchanted Parade", "video": false, "vote_average": 7.5, "vote_count": 57, "popularity": 7.274}, {"id": 33322, "video": false, "vote_count": 26, "vote_average": 6.7, "title": "Armitage III: Poly Matrix", "release_date": "1996-06-25", "original_language": "ja", "original_title": "\u30a2\u30df\u30c6\u30fc\u30b8\u30fb\u30b6\u30fb\u30b5\u30fc\u30c9 POLY-MATRIX", "genre_ids": [16, 878, 53], "backdrop_path": "/zY8YvEUXwvsQFcQmzqyVQA5wq5j.jpg", "adult": false, "overview": "Ross Sylibus is assigned to a police unit on a Martian colony, to find that women are being murdered by a psychotic named D'anclaude. He is assigned a very unorthodox partner named Naomi Armitage, who seems to have links to the victims. To stir things up more, every victim is found to be an illegally made third-generation android.", "poster_path": "/7sUCRdjGe7VggDCGIHywfguYdAK.jpg", "popularity": 3.311}, {"id": 39544, "video": false, "vote_count": 21, "vote_average": 6.7, "title": "Oblivion Island: Haruka and the Magic Mirror", "release_date": "2009-08-22", "original_language": "ja", "original_title": "\u30db\u30c3\u30bf\u30e9\u30b1\u306e\u5cf6 \u9065\u3068\u9b54\u6cd5\u306e\u93e1", "genre_ids": [12, 16], "backdrop_path": "/bCjAYGRKg1BS10qFIqICnupPYzX.jpg", "adult": false, "overview": "Your favourite teddy bear. That model kit that took so long to complete. The picture book you used to read over and over again. The shining stone you found that day in the park. Where do all your childhood's treasures go when you grow up? In this story, we meet fantastic creatures that gather all these little objects that fall into oblivion as they are forgotten by their owners when they step into adulthood. These creatures sneak into our world from a different dimension, and unseen by humans, they take all the ditched and forgotten \"treasures\" into their world. Here, they use their booty to build their own city, a fairy tale-like place called... Oblivion Island!", "poster_path": "/l1KdeXZ2SPmS8Zb3fR9mbfNlLYf.jpg", "popularity": 6.344}, {"adult": false, "backdrop_path": "/iip3sXk5yVw3tFfp6TtsuoKrBKK.jpg", "genre_ids": [16, 878], "id": 20043, "original_language": "ja", "original_title": "\u738b\u7acb\u5b87\u5b99\u8ecd \u30aa\u30cd\u30a2\u30df\u30b9\u306e\u7ffc", "overview": "On a future Earth, war between the Kingdom of Honneamise and its rival, The Republic, is inevitable. As evolving technology creates new ways to wage war, a small group seeks to propel mankind into space in their world\u2019s first spaceflight program. For astronaut candidate Shirotsugh Lhadatt, it\u2019s a personal odyssey as he grows from an aimless young man into a leader willing to put everything on the line in order to move the human race forward and away from the brink of Armageddon.", "poster_path": "/h5naABij9ghj6CLcpBYBkxMGYGX.jpg", "release_date": "1987-03-14", "title": "Royal Space Force - The Wings Of Honneamise", "video": false, "vote_average": 7.1, "vote_count": 53, "popularity": 10.78}, {"id": 61591, "video": false, "vote_count": 26, "vote_average": 6.6, "title": "Welcome to the Space Show", "release_date": "2010-02-18", "original_language": "ja", "original_title": "\u5b87\u5b99\u30b7\u30e7\u30fc\u3078\u3088\u3046\u3053\u305d", "genre_ids": [16, 878], "backdrop_path": "/cjMbuFo8fQx0BFYpV2PPRXN2qOt.jpg", "adult": false, "overview": "Five children save the life of a dog-like alien while at a self-run summer camp. He attempts to reward them by taking them to an alien colony on the Moon. Events take a turn for the worse when his report on that attack that injured him causes passage from the Moon to the Earth to be banned, and children are stranded in space. The children need to find a way back home before camp ends and their parents discover that they are missing. They also have to avoid the poachers that injured their alien friend, and now seem to be stalking them all.", "poster_path": "/c70Yyg2g5Ll4sW4A4ono60f3gaJ.jpg", "popularity": 5.997}, {"adult": false, "backdrop_path": "/dnEaAIcmJcz7lLXnSaNE8pxNqDU.jpg", "genre_ids": [18, 10749], "id": 64015, "original_language": "cn", "original_title": "\u79cb\u5929\u7684\u7ae5\u8a71", "overview": "A story about a New York Chinatown cab driver who falls for college student.", "poster_path": "/n9ZK3By3OSJCPE7DCEMb7UGMaWI.jpg", "release_date": "1987-07-16", "title": "An Autumn's Tale", "video": false, "vote_average": 7.3, "vote_count": 15, "popularity": 2.764}, {"id": 36865, "video": false, "vote_count": 106, "vote_average": 8.0, "title": "The Disappearance of Haruhi Suzumiya", "release_date": "2010-02-05", "original_language": "ja", "original_title": "\u6dbc\u5bae\u30cf\u30eb\u30d2\u306e\u6d88\u5931", "genre_ids": [16, 35, 18, 9648, 878, 10749], "backdrop_path": "/sPS2xnyUW3rkqKTtyei1fU2SN7t.jpg", "adult": false, "overview": "It is mid-december, and SOS Brigade chief Haruhi Suzumiya announces that the Brigade is going to hold a Christmas party in their clubroom, with Japanese hotpot for dinner. The brigade members Kyon, Yuki Nagato, Mikuru Asahina and Itsuki Koizumi start preparing everything for the party, such as costumes and decorations. But a couple of days later, Kyon arrives at school only to find that Haruhi is missing. Not only that, but Mikuru claims she has never known Kyon before, Koizumi is also missing, and Yuki has become the sole member of the literature club. The SOS Brigade seems to have never existed, nor has Haruhi Suzumiya. No one in the school has ever heard about her\u2026 except for Kyon.", "poster_path": "/xEM8vbo4EFiVHoLMzTY0Om3XeDu.jpg", "popularity": 12.313}], "total_pages": 1, "total_results": 18}, "credits": {"cast": [{"cast_id": 5, "character": "Yuki (voice)", "credit_id": "52fe467f9251416c91056511", "gender": 1, "id": 119143, "name": "Kana Hanazawa", "order": 0, "profile_path": "/ltGMeYsNJnx89wi9JVv1WDH72R3.jpg"}, {"cast_id": 8, "character": "Tetsu (voice)", "credit_id": "52fe467f9251416c9105651d", "gender": 2, "id": 119145, "name": "Shimono Hiro", "order": 1, "profile_path": "/bUwSPgWiUmStKYD7Jl8GXnuOn3H.jpg"}, {"cast_id": 6, "character": "Shuu (voice)", "credit_id": "52fe467f9251416c91056515", "gender": 2, "id": 114299, "name": "Ryohei Kimura", "order": 2, "profile_path": "/ghw7P67LKTNIsc6g6hAixsRSIWR.jpg"}, {"cast_id": 7, "character": "Kei (voice)", "credit_id": "52fe467f9251416c91056519", "gender": 1, "id": 119144, "name": "Satomi Moriya", "order": 3, "profile_path": "/5CK43SWVnrZV7jogzQPfshPlFVg.jpg"}], "crew": [{"credit_id": "52fe467f9251416c91056501", "department": "Directing", "gender": 2, "id": 119137, "job": "Director", "name": "Atsuya Uki", "profile_path": null}, {"credit_id": "595678d79251412b3106d13e", "department": "Visual Effects", "gender": 2, "id": 119137, "job": "Animation", "name": "Atsuya Uki", "profile_path": null}, {"credit_id": "52fe467f9251416c91056507", "department": "Writing", "gender": 2, "id": 119137, "job": "Writer", "name": "Atsuya Uki", "profile_path": null}, {"credit_id": "595678d192514168bf03a8c2", "department": "Visual Effects", "gender": 2, "id": 119137, "job": "Character Designer", "name": "Atsuya Uki", "profile_path": null}]}}