{"adult": false, "backdrop_path": "/eghmsUNuhFrN7kihEVVhCiZhrjU.jpg", "belongs_to_collection": null, "budget": 0, "genres": [{"id": 18, "name": "Drama"}, {"id": 878, "name": "Science Fiction"}], "homepage": null, "id": 380254, "imdb_id": "tt4788944", "original_language": "ko", "original_title": "\ub85c\ubd07, \uc18c\ub9ac", "overview": "While desperately searching for his missing daughter, Hae-kwan comes across an AI satellite robot that remembers sounds from all over the world. Rejuvenated by the robot's abilities, Hae-kwan begins to track down his daughter's voice. As they continue their journey, they form an unforgettable bond.", "popularity": 1.186, "poster_path": "/pWPosBiPde1ykbY3vP1beOJsN4G.jpg", "production_companies": [{"id": 7819, "logo_path": "/ghFZAt4edln0M7BzDExyYMzUGX1.png", "name": "Lotte Entertainment", "origin_country": "KR"}, {"id": 11431, "logo_path": null, "name": "DCG Plus", "origin_country": "KR"}], "production_countries": [{"iso_3166_1": "KR", "name": "South Korea"}], "release_date": "2016-01-27", "revenue": 0, "runtime": 117, "spoken_languages": [{"iso_639_1": "ko", "name": "\ud55c\uad6d\uc5b4/\uc870\uc120\ub9d0"}], "status": "Released", "tagline": "I think this robot will find my daughter...", "title": "SORI: Voice from the Heart", "video": false, "vote_average": 8.1, "vote_count": 7, "keywords": {"keywords": [{"id": 310, "name": "artificial intelligence"}, {"id": 11112, "name": "search"}, {"id": 14544, "name": "robot"}, {"id": 167043, "name": "road movie"}, {"id": 197430, "name": "missing daughter"}, {"id": 202647, "name": "humanity"}]}, "similar": {"page": 1, "results": [{"id": 87101, "video": false, "vote_count": 5757, "vote_average": 5.9, "title": "Terminator Genisys", "release_date": "2015-06-23", "original_language": "en", "original_title": "Terminator Genisys", "genre_ids": [28, 12, 878, 53], "backdrop_path": "/3DmxSJ08m9wwbxwbwHzA4dunGNO.jpg", "adult": false, "overview": "The year is 2029. John Connor, leader of the resistance continues the war against the machines. At the Los Angeles offensive, John's fears of the unknown future begin to emerge when TECOM spies reveal a new plot by SkyNet that will attack him from both fronts; past and future, and will ultimately change warfare forever.", "poster_path": "/5JU9ytZJyR3zmClGmVm9q4Geqbd.jpg", "popularity": 60.439}, {"id": 198184, "video": false, "vote_count": 5351, "vote_average": 6.7, "title": "Chappie", "release_date": "2015-03-04", "original_language": "en", "original_title": "Chappie", "genre_ids": [28, 80, 878], "backdrop_path": "/y5lG7TBpeOMG0jxAaTK0ghZSzBJ.jpg", "adult": false, "overview": "Every child comes into the world full of promise, and none more so than Chappie: he is gifted, special, a prodigy. Like any child, Chappie will come under the influence of his surroundings\u2014some good, some bad\u2014and he will rely on his heart and soul to find his way in the world and become his own man. But there's one thing that makes Chappie different from any one else: he is a robot.", "poster_path": "/saF3HtAduvrP9ytXDxSnQJP3oqx.jpg", "popularity": 30.696}, {"id": 157336, "video": false, "vote_count": 20609, "vote_average": 8.3, "title": "Interstellar", "release_date": "2014-11-05", "original_language": "en", "original_title": "Interstellar", "genre_ids": [12, 18, 878], "backdrop_path": "/xu9zaAevzQ5nnrsXN6JcahLnG4i.jpg", "adult": false, "overview": "Interstellar chronicles the adventures of a group of explorers who make use of a newly discovered wormhole to surpass the limitations on human space travel and conquer the vast distances involved in an interstellar voyage.", "poster_path": "/nBNZadXqJSdt05SHLqgT0HuC5Gm.jpg", "popularity": 53.312}, {"id": 644, "video": false, "vote_count": 3855, "vote_average": 7.0, "title": "A.I. Artificial Intelligence", "release_date": "2001-06-29", "original_language": "en", "original_title": "A.I. Artificial Intelligence", "genre_ids": [12, 18, 878], "backdrop_path": "/idVdfyi51JtG7N5DPW6qeSankyV.jpg", "adult": false, "overview": "David, a robotic boy\u2014the first of his kind programmed to love\u2014is adopted as a test case by a Cybertronics employee and his wife. Though he gradually becomes their child, a series of unexpected circumstances make this life impossible for David. Without final acceptance by humans or machines, David embarks on a journey to discover where he truly belongs, uncovering a world in which the line between robot and machine is both vast and profoundly thin.", "poster_path": "/wnUAcUrMRGPPZUDroLeZhSjLkuu.jpg", "popularity": 25.295}, {"adult": false, "backdrop_path": "/3N0XNfknTOpGwYadltyDSszCZmZ.jpg", "genre_ids": [28, 878], "id": 2048, "original_language": "en", "original_title": "I, Robot", "overview": "In 2035, where robots are common-place and abide by the three laws of robotics, a techno-phobic cop investigates an apparent suicide. Suspecting that a robot may be responsible for the death, his investigation leads him to believe that humanity may be in danger.", "poster_path": "/2mkFzf168xJrV6Leqq0bjqOlJCK.jpg", "release_date": "2004-07-15", "title": "I, Robot", "video": false, "vote_average": 6.9, "vote_count": 7608, "popularity": 41.593}, {"id": 605, "video": false, "vote_count": 5698, "vote_average": 6.6, "title": "The Matrix Revolutions", "release_date": "2003-11-03", "original_language": "en", "original_title": "The Matrix Revolutions", "genre_ids": [28, 12, 878, 53], "backdrop_path": "/pdVHUsb2eEz9ALNTr6wfRJe5xVa.jpg", "adult": false, "overview": "The human city of Zion defends itself against the massive invasion of the machines as Neo fights to end the war at another front while also opposing the rogue Agent Smith.", "poster_path": "/sKogjhfs5q3azmpW7DFKKAeLEG8.jpg", "popularity": 22.724}, {"id": 262543, "video": false, "vote_count": 1019, "vote_average": 5.7, "title": "Automata", "release_date": "2014-10-09", "original_language": "en", "original_title": "Aut\u00f3mata", "genre_ids": [878, 53], "backdrop_path": "/281QVUuSYKBgtdxmr5iAM7YDUZw.jpg", "adult": false, "overview": "Jacq Vaucan, an insurance agent of ROC robotics corporation, routinely investigates the case of manipulating a robot. What he discovers will have profound consequences for the future of humanity.", "poster_path": "/wwo81W8PxHREEprnrJRww471hWm.jpg", "popularity": 24.409}, {"id": 377264, "video": false, "vote_count": 916, "vote_average": 5.7, "title": "Morgan", "release_date": "2016-09-01", "original_language": "en", "original_title": "Morgan", "genre_ids": [27, 878, 53], "backdrop_path": "/jRRpMTpCsiq100A0lQWGQf1jrdE.jpg", "adult": false, "overview": "A corporate risk-management consultant must determine whether or not to terminate an artificial being's life that was made in a laboratory environment.", "poster_path": "/oY5YBkruSCh36kRTzB4W2Li70fj.jpg", "popularity": 11.478}, {"adult": false, "backdrop_path": "/cTPS3ib89O4HSOtZDa3YXvaas5F.jpg", "genre_ids": [53, 878, 28, 12], "id": 307663, "original_language": "en", "original_title": "Vice", "overview": "Julian Michaels has designed the ultimate resort: VICE, where anything goes and the customers can play out their wildest fantasies with artificial inhabitants who look, think and feel like humans. When an artificial becomes self-aware and escapes, she finds herself caught in the crossfire between Julian's mercenaries and a cop who is hell-bent on shutting down Vice, and stopping the violence once and for all.", "poster_path": "/gwiY5RJFYSjsoSwoeeo6AbGYjpb.jpg", "release_date": "2015-01-16", "title": "Vice", "video": false, "vote_average": 4.3, "vote_count": 344, "popularity": 16.357}, {"id": 534, "video": false, "vote_count": 4114, "vote_average": 6.0, "title": "Terminator Salvation", "release_date": "2009-05-20", "original_language": "en", "original_title": "Terminator Salvation", "genre_ids": [28, 878, 53], "backdrop_path": "/mglXOOyXISvuIdLgvhU9oXn1Mi7.jpg", "adult": false, "overview": "All grown up in post-apocalyptic 2018, John Connor must lead the resistance of humans against the increasingly dominating militaristic robots. But when Marcus Wright appears, his existence confuses the mission as Connor tries to determine whether Wright has come from the future or the past -- and whether he's friend or foe.", "poster_path": "/gw6JhlekZgtKUFlDTezq3j5JEPK.jpg", "popularity": 34.306}, {"id": 274855, "video": false, "vote_count": 2498, "vote_average": 5.8, "title": "Geostorm", "release_date": "2017-10-13", "original_language": "en", "original_title": "Geostorm", "genre_ids": [28, 878, 53], "backdrop_path": "/79X8JkGxzc1tJMi0KxUSaPLooVg.jpg", "adult": false, "overview": "After an unprecedented series of natural disasters threatened the planet, the world's leaders came together to create an intricate network of satellites to control the global climate and keep everyone safe. But now, something has gone wrong: the system built to protect Earth is attacking it, and it becomes a race against the clock to uncover the real threat before a worldwide geostorm wipes out everything and everyone along with it.", "poster_path": "/nrsx0jEaBgXq4PWo7SooSnYJTv.jpg", "popularity": 22.466}, {"id": 500664, "video": false, "vote_count": 1709, "vote_average": 7.3, "title": "Upgrade", "release_date": "2018-06-01", "original_language": "en", "original_title": "Upgrade", "genre_ids": [28, 27, 878, 53], "backdrop_path": "/qUAGip3XiaVN668WXF2iyukWgUu.jpg", "adult": false, "overview": "A brutal mugging leaves Grey Trace paralyzed in the hospital and his beloved wife dead. A billionaire inventor soon offers Trace a cure \u2014 an artificial intelligence implant called STEM that will enhance his body. Now able to walk, Grey finds that he also has superhuman strength and agility \u2014 skills he uses to seek revenge against the thugs who destroyed his life.", "poster_path": "/8fDtXi6gVw8WUMWGT9XFz7YwkuE.jpg", "popularity": 32.518}, {"id": 78, "video": false, "vote_count": 8365, "vote_average": 7.9, "title": "Blade Runner", "release_date": "1982-06-25", "original_language": "en", "original_title": "Blade Runner", "genre_ids": [18, 878, 53], "backdrop_path": "/eIi3klFf7mp3oL5EEF4mLIDs26r.jpg", "adult": false, "overview": "In the smog-choked dystopian Los Angeles of 2019, blade runner Rick Deckard is called out of retirement to terminate a quartet of replicants who have escaped to Earth seeking their creator for a way to extend their short life spans.", "poster_path": "/vfzE3pjE5G7G7kcZWrA3fnbZo7V.jpg", "popularity": 33.322}, {"id": 19, "video": false, "vote_count": 1340, "vote_average": 8.2, "title": "Metropolis", "release_date": "1927-01-10", "original_language": "de", "original_title": "Metropolis", "genre_ids": [18, 878], "backdrop_path": "/gmH0N0bdlYGN1EUr8U2cMQYyg78.jpg", "adult": false, "overview": "In a futuristic city sharply divided between the working class and the city planners, the son of the city's mastermind falls in love with a working class prophet who predicts the coming of a savior to mediate their differences.", "poster_path": "/qriaeUUwdmlgethK3aSAx68mG05.jpg", "popularity": 20.587}, {"id": 505914, "video": false, "vote_count": 76, "vote_average": 4.4, "title": "A.I. Rising", "release_date": "2018-02-25", "original_language": "en", "original_title": "A.I. Rising", "genre_ids": [18, 878, 10749], "backdrop_path": "/ddQ11EC7tiXJVNNHjGCMMQgJYNz.jpg", "adult": false, "overview": "On a lonely mission to Alpha Centauri, Milutin is teamed up with Nimani 1345, a female cyborg designed to fulfill his every need. At first thrilled to be able to control her, Sebastian grows tired of having his desires fulfilled so easily. Longing for human intimacy, Sebastian alters Nimani's programmed responses, but in doing so he risks the mission's security \u2014 and his own life.", "poster_path": "/aXosp6MFBxYi4m6ZmE4u1auReHc.jpg", "popularity": 19.05}, {"id": 264660, "video": false, "vote_count": 8708, "vote_average": 7.6, "title": "Ex Machina", "release_date": "2015-01-21", "original_language": "en", "original_title": "Ex Machina", "genre_ids": [18, 878], "backdrop_path": "/9X3cDZb4GYGQeOnZHLwMcCFz2Ro.jpg", "adult": false, "overview": "Caleb, a 26 year old coder at the world's largest internet company, wins a competition to spend a week at a private mountain retreat belonging to Nathan, the reclusive CEO of the company. But when Caleb arrives at the remote location he finds that he will have to participate in a strange and fascinating experiment in which he must interact with the world's first true artificial intelligence, housed in the body of a beautiful robot girl.", "poster_path": "/btbRB7BrD887j5NrvjxceRDmaot.jpg", "popularity": 30.787}, {"id": 152601, "video": false, "vote_count": 8850, "vote_average": 7.9, "title": "Her", "release_date": "2013-12-18", "original_language": "en", "original_title": "Her", "genre_ids": [18, 878, 10749], "backdrop_path": "/4f4tWe6uhwtuKMygfIAytR2W0pj.jpg", "adult": false, "overview": "In the not so distant future, Theodore, a lonely writer purchases a newly developed operating system designed to meet the user's every needs. To Theodore's surprise, a romantic relationship develops between him and his operating system. This unconventional love story blends science fiction and romance in a sweet tale that explores the nature of love and the ways that technology isolates and connects us all.", "poster_path": "/fsoTLnUXEUTNuVCBxAJMY0HPPd.jpg", "popularity": 28.123}, {"id": 296, "video": false, "vote_count": 3977, "vote_average": 6.0, "title": "Terminator 3: Rise of the Machines", "release_date": "2003-07-02", "original_language": "en", "original_title": "Terminator 3: Rise of the Machines", "genre_ids": [28, 878, 53], "backdrop_path": "/8ZuMyOjFpwq1tNU9MAFN836Wb1b.jpg", "adult": false, "overview": "It's been 10 years since John Connor saved Earth from Judgment Day, and he's now living under the radar, steering clear of using anything Skynet can trace. That is, until he encounters T-X, a robotic assassin ordered to finish what T-1000 started. Good thing Connor's former nemesis, the Terminator, is back to aid the now-adult Connor \u2026 just like he promised.", "poster_path": "/lz4xYdF1n09lyiCfZWtWT44SZiG.jpg", "popularity": 36.283}, {"id": 9323, "video": false, "vote_count": 1641, "vote_average": 7.9, "title": "Ghost in the Shell", "release_date": "1995-11-18", "original_language": "ja", "original_title": "GHOST IN THE SHELL", "genre_ids": [28, 16, 878], "backdrop_path": "/m1LUdsYnFThcrbvRzlpbsFioEQT.jpg", "adult": false, "overview": "In the year 2029, the barriers of our world have been broken down by the net and by cybernetics, but this brings new vulnerability to humans in the form of brain-hacking. When a highly-wanted hacker known as 'The Puppetmaster' begins involving them in politics, Section 9, a group of cybernetically enhanced cops, are called in to investigate and stop the Puppetmaster.", "poster_path": "/9gC88zYUBARRSThcG93MvW14sqx.jpg", "popularity": 21.491}, {"id": 7453, "video": false, "vote_count": 2556, "vote_average": 6.7, "title": "The Hitchhiker's Guide to the Galaxy", "release_date": "2005-04-28", "original_language": "en", "original_title": "The Hitchhiker's Guide to the Galaxy", "genre_ids": [12, 35, 878, 10751], "backdrop_path": "/kMf3ewax3ZeiSESaPQxBAReQzDD.jpg", "adult": false, "overview": "Mere seconds before the Earth is to be demolished by an alien construction crew, Arthur Dent is swept off the planet by his friend Ford Prefect, a researcher penning a new edition of \"The Hitchhiker's Guide to the Galaxy.\"", "poster_path": "/fOb4cJMhnZ11BoHNUii3Vcfo3XU.jpg", "popularity": 23.951}], "total_pages": 6, "total_results": 110}, "recommendations": {"page": 1, "results": [], "total_pages": 1, "total_results": 0}, "credits": {"cast": [{"cast_id": 12, "character": "Hae-Gwan", "credit_id": "56c1b7c59251410d67001956", "gender": 2, "id": 141548, "name": "Lee Sung-min", "order": 0, "profile_path": "/3THm2oYIktQ4sqIvhHeRjYLaWXn.jpg"}, {"cast_id": 2, "character": "Jin-ho", "credit_id": "56ad3de1c3a3681c5400702a", "gender": 2, "id": 1046863, "name": "Lee Hee-joon", "order": 1, "profile_path": "/k4Z2jBbYJAFT0Js3HbBvVpuvxLS.jpg"}, {"cast_id": 3, "character": "Ji-yeon", "credit_id": "56ad3e25c3a3681c340067cc", "gender": 1, "id": 1364528, "name": "Lee Ha-nee", "order": 2, "profile_path": "/iEL3MFO6NaRf86V8vgtJqjBf4o4.jpg"}, {"cast_id": 5, "character": "Goo-cheol", "credit_id": "56ad3e59c3a3681c31006eef", "gender": 2, "id": 1278160, "name": "Kim Won-hae", "order": 3, "profile_path": "/hIbPVi75bl9iZSFV5BIq7h9yXmk.jpg"}, {"cast_id": 4, "character": "Yoo-joo", "credit_id": "56ad3e3ac3a3681c470072dc", "gender": 1, "id": 1466233, "name": "Chae Soo-bin", "order": 4, "profile_path": "/bf38XUHvsgz1IVwtHX6N8HLDMa.jpg"}, {"cast_id": 13, "character": "Sori (voice)", "credit_id": "56c1b84d92514105da002541", "gender": 1, "id": 93995, "name": "Shim Eun-kyung", "order": 5, "profile_path": "/mgw8hDuB8mdn8tBKvUxKucMF6qY.jpg"}, {"cast_id": 8, "character": "Underground Singer", "credit_id": "56ad3ea2c3a3681c31006ef8", "gender": 2, "id": 1530733, "name": "Ryu Jun-yeol", "order": 6, "profile_path": "/5CYYuEiAocVRRhmrvUrithsCpil.jpg"}, {"cast_id": 9, "character": "President Go", "credit_id": "56ad3ead9251417e1a006ae9", "gender": 2, "id": 20264, "name": "Jeon Kuk-hwan", "order": 7, "profile_path": "/hIDrEv3wmmYF9zddva0MfxIzaSW.jpg"}, {"cast_id": 10, "character": "Hyeon-soo", "credit_id": "56ad3ecfc3a3681c470072f2", "gender": 2, "id": 1547209, "name": "Kwak Si-yang", "order": 8, "profile_path": "/kZ3iwBsnhUdWBFeROyPJ3cMOaDL.jpg"}, {"cast_id": 16, "character": "Hyun-sook", "credit_id": "58032ec19251413e8b003c2b", "gender": 1, "id": 150126, "name": "Jeon Hye-jin", "order": 9, "profile_path": "/unvE7tjS1Y4W61xx8PuHMOSEBKO.jpg"}, {"cast_id": 17, "character": "Yoo Seong-jin", "credit_id": "585e52fc92514115c400bf9d", "gender": 1, "id": 139498, "name": "Rie Young-zin", "order": 10, "profile_path": "/nXAJ3I64HQystMLCDz4T3J1pRT2.jpg"}, {"cast_id": 19, "character": "Jang Geun-yeong", "credit_id": "585e535192514115c700baca", "gender": 1, "id": 1673307, "name": "Kang Jin-ah", "order": 11, "profile_path": "/gWZBpDmnIBhlaZf2xrsUnDyxTLR.jpg"}, {"cast_id": 18, "character": "NIS agent", "credit_id": "585e533392514115c700bab2", "gender": 2, "id": 1334538, "name": "Nam Yeon-woo", "order": 12, "profile_path": "/jnBChYCW51BIhd9k2jUdMnm3dmc.jpg"}, {"cast_id": 6, "character": "NIS agent", "credit_id": "56ad3e6bc3a3681c3f007b3d", "gender": 0, "id": 1570361, "name": "Lee Seung-joon-III", "order": 13, "profile_path": null}], "crew": [{"credit_id": "5c60e67d0e0a267de6954acc", "department": "Editing", "gender": 1, "id": 79570, "job": "Editor", "name": "Nam Na-young", "profile_path": null}, {"credit_id": "5703bb4a925141738800110c", "department": "Directing", "gender": 2, "id": 84783, "job": "Director", "name": "Lee Ho-jae", "profile_path": "/vzNpqFP3iKmje1QOY26DDh4XCrE.jpg"}, {"credit_id": "5cd696530e0a262defcb9bd3", "department": "Costume & Make-Up", "gender": 0, "id": 1294392, "job": "Costume Design", "name": "Kim Jeong-won", "profile_path": null}, {"credit_id": "5dfb6de426dac100175b5dcc", "department": "Production", "gender": 0, "id": 1295399, "job": "Executive Producer", "name": "Kim Seong-hwan", "profile_path": null}, {"credit_id": "5cfa720fc3a368663f1e3c2e", "department": "Sound", "gender": 0, "id": 1296361, "job": "Original Music Composer", "name": "Mok Young-jin", "profile_path": null}, {"credit_id": "5c6e5accc3a36843c6ed92cb", "department": "Production", "gender": 0, "id": 1447784, "job": "Producer", "name": "Shin Hye-yeon", "profile_path": null}, {"credit_id": "56ce2545925141216c0000b1", "department": "Writing", "gender": 0, "id": 1582356, "job": "Screenplay", "name": "Lee Soyoung", "profile_path": null}, {"credit_id": "5cce9f66c3a3683697d8fd79", "department": "Production", "gender": 2, "id": 1621108, "job": "Executive Producer", "name": "Cha Won-chun", "profile_path": "/9qpvdE3kziKYsT9ZWf03CQya8yc.jpg"}, {"credit_id": "5c6f4bd30e0a262397d38559", "department": "Writing", "gender": 1, "id": 2187769, "job": "Adaptation", "name": "Lee Ji-min", "profile_path": null}, {"credit_id": "5c4ad51fc3a368477a8d28ce", "department": "Sound", "gender": 1, "id": 2225941, "job": "Sound Designer", "name": "Gang Hye-yeong", "profile_path": null}, {"credit_id": "5c60e9f80e0a266dac94e611", "department": "Art", "gender": 0, "id": 2239713, "job": "Production Design", "name": "Lee Jong-gun", "profile_path": null}, {"credit_id": "5c6e5ac00e0a261e06a3c9b6", "department": "Production", "gender": 0, "id": 2246924, "job": "Producer", "name": "Park Hyun-tae", "profile_path": null}, {"credit_id": "5caf0e670e0a2626cac230ff", "department": "Camera", "gender": 2, "id": 2286108, "job": "Director of Photography", "name": "Ju Sung-lim", "profile_path": null}, {"credit_id": "5cce5644c3a36836c1df556c", "department": "Production", "gender": 0, "id": 2305036, "job": "Producer", "name": "Yoon Ick-jun", "profile_path": null}, {"credit_id": "5ce0fa4f9251412cf0baee65", "department": "Costume & Make-Up", "gender": 0, "id": 2316171, "job": "Makeup & Hair", "name": "Heo Jeong-im", "profile_path": null}]}}