{"adult": false, "backdrop_path": "/txFfFlMtBwsA3nX8PjlVGKpSJVS.jpg", "belongs_to_collection": null, "budget": 0, "genres": [{"id": 18, "name": "Drama"}], "homepage": null, "id": 38049, "imdb_id": "tt0443072", "original_language": "fr", "original_title": "Entre ses mains", "overview": "In Lille, Claire Gauthier is an ordinary married woman with a young daughter that works in an insurance company analyzing losses of insured properties. When the single veterinary Laurent Kessler claims damage in his basement caused by a flooding due to water leakage, Claire resolves the situation favorably for him. The weird Laurent visits Claire in her office successively, inviting her for drinks and lunch, and they get close to each other. Meanwhile, a serial killer is terrorizing Lille, killing women with a scalpel. Claire feels a great attraction for Laurent, who has an unusual behavior in her apartment. When Claire sees a scalpel in the pocket of Laurent's jacket, she fears him, but still loves him.", "popularity": 2.055, "poster_path": "/w1XhaWQBGVoZdRdi7LShHc11NFV.jpg", "production_companies": [], "production_countries": [{"iso_3166_1": "FR", "name": "France"}], "release_date": "2005-01-01", "revenue": 0, "runtime": 90, "spoken_languages": [{"iso_639_1": "fr", "name": "Fran\u00e7ais"}], "status": "Released", "tagline": "", "title": "In His Hands", "video": false, "vote_average": 5.9, "vote_count": 15, "keywords": {"keywords": [{"id": 187056, "name": "woman director"}]}, "similar": {"page": 1, "results": [{"adult": false, "backdrop_path": "/cADbqsIoiDW7X3Myg9nz8eAuno5.jpg", "genre_ids": [18, 10749], "id": 10818, "original_language": "fr", "original_title": "Naissance des pieuvres", "overview": "Set during a sultry summer in a French suburb, Marie is desperate to join the local pool's synchronized swimming team, but is her interest solely for the sake of sport or for a chance to get close to Floriane, the bad girl of the team? Sciamma, and the two leads, capture the uncertainty of teenage sexuality with a sympathetic eye in this delicate drama of the angst of coming-of-age.", "poster_path": "/4jajELYrR4Xmv3CVoKnukRnALa2.jpg", "release_date": "2007-05-17", "title": "Water Lilies", "video": false, "vote_average": 6.1, "vote_count": 119, "popularity": 10.744}, {"adult": false, "backdrop_path": "/gZeJziVigmRqbkEZwKAtSqlLQ6s.jpg", "genre_ids": [18, 10749], "id": 370663, "original_language": "en", "original_title": "Below Her Mouth", "overview": "An unexpected affair quickly escalates into a heart-stopping reality for two women whose passionate connection changes their lives forever.", "poster_path": "/nTGbq37hYLuNy7YgMg0gVLma0NS.jpg", "release_date": "2016-09-10", "title": "Below Her Mouth", "video": false, "vote_average": 6.2, "vote_count": 456, "popularity": 22.676}, {"adult": false, "backdrop_path": "/dvQDRfv3qvfHNnVAR57ouVsuErf.jpg", "genre_ids": [10749, 18], "id": 28031, "original_language": "en", "original_title": "If These Walls Could Talk 2", "overview": "The stories of three lesbian couples -- who live in the same house at different periods of time -- who are at a crossroads in their lives. In 1961, Edith loses her lover, Abby, to a stroke. Linda and Amy struggle with feminist issues in 1972. And, in 2000, Kal and Fran try to have a baby with the help of sperm donor.", "poster_path": "/xs7ODbmYQXCDhvXNvz5tF17T59H.jpg", "release_date": "2000-03-05", "title": "If These Walls Could Talk 2", "video": false, "vote_average": 7.1, "vote_count": 55, "popularity": 8.062}, {"adult": false, "backdrop_path": "/knczzNAjBXzSYkeWxoT1u9VNmjR.jpg", "genre_ids": [10749, 18], "id": 258480, "original_language": "en", "original_title": "Carol", "overview": "In 1950s New York, a department-store clerk who dreams of a better life falls for an older, married woman.", "poster_path": "/AbKa7ANxmui0Jmhh7gV7OSELKIL.jpg", "release_date": "2015-11-20", "title": "Carol", "video": false, "vote_average": 7.4, "vote_count": 2182, "popularity": 14.185}, {"adult": false, "backdrop_path": "/fZ8oFcREAr6wgWcXISGql0xyxjB.jpg", "genre_ids": [35, 18], "id": 39781, "original_language": "en", "original_title": "The Kids Are All Right", "overview": "Two women, Nic and Jules, brought a son and daughter into the world through artificial insemination. When one of their children reaches age, both kids go behind their mothers' backs to meet with the donor. Life becomes so much more interesting when the father, two mothers and children start to become attached to each other.", "poster_path": "/fPDeK4MmoGfi2X0oWZev7LrbMqM.jpg", "release_date": "2010-07-09", "title": "The Kids Are All Right", "video": false, "vote_average": 6.6, "vote_count": 923, "popularity": 12.703}, {"adult": false, "backdrop_path": "/rf6G51j0SZL0tP57I8gnqHTRFEr.jpg", "genre_ids": [35, 18, 10749], "id": 273153, "original_language": "fr", "original_title": "La belle saison", "overview": "In 1971, Carole and Delphine meet and fall in love in Paris. When Carole follows Delphine back to her family farm in Limousin, the two find lesbianism and feminism are not as easy in the countryside.", "poster_path": "/evvAkNMO5VJiy5qIo1Hu7fUfvVI.jpg", "release_date": "2015-08-19", "title": "Summertime", "video": false, "vote_average": 6.6, "vote_count": 162, "popularity": 15.434}, {"adult": false, "backdrop_path": "/s12HEmmkJfI2mjltI61hGm5kubD.jpg", "genre_ids": [35, 18, 10749], "id": 20770, "original_language": "en", "original_title": "But I'm a Cheerleader", "overview": "Megan is an all-American girl. A cheerleader. She has a boyfriend. But Megan doesn't like kissing her boyfriend very much. And she's pretty touchy with her cheerleader friends. Her conservative parents worry that she must be a lesbian and send her off to \"sexual redirection\" school, where she must, with other lesbians and gays learn how to be straight.", "poster_path": "/eDGH7CHSdkrYcuUJV1e0WS9DlQL.jpg", "release_date": "1999-12-09", "title": "But I'm a Cheerleader", "video": false, "vote_average": 6.8, "vote_count": 246, "popularity": 10.067}, {"id": 9813, "video": false, "vote_count": 128, "vote_average": 6.1, "title": "The Quiet", "release_date": "2005-09-12", "original_language": "en", "original_title": "The Quiet", "genre_ids": [18, 53], "backdrop_path": "/6eyWAZA4CEidZW1xXnQ4vlYBXTP.jpg", "adult": false, "overview": "After her widowed father dies, deaf teenager Dot moves in with her godparents, Olivia and Paul Deer. The Deers' daughter, Nina, is openly hostile to Dot, but that does not prevent her from telling her secrets to her silent stepsister, including the fact that she wants to kill her lecherous father.", "poster_path": "/GEqIE9YlmygHVUfS64LW2cwAAM.jpg", "popularity": 13.948}, {"adult": false, "backdrop_path": "/tzqeuHWMFihFbiLGHdalPgAcSf6.jpg", "genre_ids": [18, 10749], "id": 18620, "original_language": "en", "original_title": "Go Fish", "overview": "Max is a trendy, pretty, young lesbian, who is having trouble finding love. A friend sets her up with Ely, whom Max likes, but Ely is frumpy, homely, and older. Nor do they have much in common. Can Max learn to look past the packaging?", "poster_path": "/qrEFYrwykaGsY8NULYuYLLI7zrM.jpg", "release_date": "1994-06-10", "title": "Go Fish", "video": false, "vote_average": 5.0, "vote_count": 11, "popularity": 2.626}, {"adult": false, "backdrop_path": "/6tern9vOEwwmkDYC1vRCuO64z0C.jpg", "genre_ids": [10749, 18], "id": 475888, "original_language": "en", "original_title": "Tell It to the Bees", "overview": "Dr. Jean Markham returns to the town she left as a teenager to take over her late father's medical practice. When a school-yard scuffle lands Charlie in her surgery, she invites him to visit the hives in her garden and tell his secrets to the bees, as she once did. The new friendship between the boy and the bee keeper brings his mother Lydia into Jean's world.", "poster_path": "/Rj6zpHhMU1zFW3v28U4PSRSRgP.jpg", "release_date": "2019-05-03", "title": "Tell It to the Bees", "video": false, "vote_average": 6.4, "vote_count": 53, "popularity": 15.113}, {"adult": false, "backdrop_path": "/baYbbMtKRDoDWYJeVWkbygAvAj8.jpg", "genre_ids": [18, 10749], "id": 31216, "original_language": "en", "original_title": "I Can't Think Straight", "overview": "I CAN'T THINK STRAIGHT is a 2007 romance movie about a London-based Jordanian of Palestinian descent, Tala, who is preparing for an elaborate wedding. A turn of events causes her to have an affair and subsequently fall in love with another woman, Leyla, a British Indian.", "poster_path": "/1kapga6rkM5wNuQBYw7sdE42CrA.jpg", "release_date": "2008-06-01", "title": "I Can't Think Straight", "video": false, "vote_average": 7.6, "vote_count": 109, "popularity": 8.749}, {"adult": false, "backdrop_path": "/lI5h8KaoeObu4NMTwzeRuUHzRwD.jpg", "genre_ids": [18, 9648, 53], "id": 401898, "original_language": "no", "original_title": "Thelma", "overview": "A college student starts to experience extreme seizures. She soon learns that the violent episodes are a symptom of inexplicable abilities.", "poster_path": "/yzSfG8TLAqw7nMQh2lxirQkQpgs.jpg", "release_date": "2017-09-15", "title": "Thelma", "video": false, "vote_average": 7.1, "vote_count": 418, "popularity": 12.235}, {"adult": false, "backdrop_path": "/tIFRPjIXQ3sYrmxbIeOu9K1JkUz.jpg", "genre_ids": [18, 10749], "id": 294, "original_language": "en", "original_title": "Desert Hearts", "overview": "The story of straight-edge literature professor Vivian who travels to Reno to get away from a relationship breakup when she falls in love with an attractive and unconventional girl named Cay.", "poster_path": "/b8JSmQSpYYJhctMtxNgqh0elENg.jpg", "release_date": "1985-10-01", "title": "Desert Hearts", "video": false, "vote_average": 7.3, "vote_count": 58, "popularity": 8.237}, {"id": 2255, "video": false, "vote_count": 772, "vote_average": 6.8, "title": "Chasing Amy", "release_date": "1997-04-04", "original_language": "en", "original_title": "Chasing Amy", "genre_ids": [35, 18, 10749], "backdrop_path": "/doKYVK61Vb8J1KUjlb9dNWkQNp6.jpg", "adult": false, "overview": "Holden and Banky are comic book artists. Everything is going good for them until they meet Alyssa, also a comic book artist. Holden falls for her, but his hopes are crushed when he finds out she's a lesbian.", "poster_path": "/4vFJileWrCGaBeobCmF0tXpQCUb.jpg", "popularity": 11.325}, {"adult": false, "backdrop_path": "/hD8DQM72Xacg1d3mFqS0eN8vKYw.jpg", "genre_ids": [18], "id": 8272, "original_language": "en", "original_title": "The Savages", "overview": "A sister and brother face the realities of familial responsibility as they begin to care for their ailing father.", "poster_path": "/nY54gSmTOmSXlQpWDB7DWp4u8a7.jpg", "release_date": "2007-01-19", "title": "The Savages", "video": false, "vote_average": 6.9, "vote_count": 192, "popularity": 13.094}, {"adult": false, "backdrop_path": "/g3LYarEY9LjB28Ct2trwFN72gqZ.jpg", "genre_ids": [35], "id": 437557, "original_language": "en", "original_title": "Blockers", "overview": "When three parents discover their daughters\u2019 pact to lose their virginity at prom, they launch a covert one-night operation to stop the teens from sealing the deal.", "poster_path": "/uvlUQXg0AlpGzKukO11K7QtW3Yu.jpg", "release_date": "2018-03-14", "title": "Blockers", "video": false, "vote_average": 6.2, "vote_count": 1153, "popularity": 18.075}, {"adult": false, "backdrop_path": "/zBB1mzmqnUuSrlTuf0SFFlI1EoJ.jpg", "genre_ids": [18], "id": 244772, "original_language": "en", "original_title": "The Skeleton Twins", "overview": "Estranged twins Maggie and Milo coincidentally cheat death on the same day, prompting them to reunite and confront the reasons their lives went so wrong. As the twins' reunion reinvigorates them, they realize the key to fixing their lives may just lie in repairing their relationship.", "poster_path": "/vvmv1R2jDXJeeeyYcGg0ypXc2XK.jpg", "release_date": "2014-09-12", "title": "The Skeleton Twins", "video": false, "vote_average": 6.7, "vote_count": 416, "popularity": 9.821}, {"adult": false, "backdrop_path": "/3YGy88nTV2e0wxZcKI1goiEN9oy.jpg", "genre_ids": [18, 10749], "id": 37636, "original_language": "en", "original_title": "High Art", "overview": "A young female intern at a small magazine company becomes involved with a drug-addicted lesbian photographer, both of whom seek to exploit each other for their respective careers, while slowly falling in love with each other.", "poster_path": "/qTg05RNJIvb9w4Z7XIcAZxuZmTn.jpg", "release_date": "1998-06-12", "title": "High Art", "video": false, "vote_average": 6.6, "vote_count": 61, "popularity": 7.27}, {"adult": false, "backdrop_path": "/caLMOD3ZJ3V7qjlxDXrzlJfBLgD.jpg", "genre_ids": [18, 10749], "id": 20, "original_language": "en", "original_title": "My Life Without Me", "overview": "A Pedro Almodovar production in which a fatally ill mother with only two months to live creates a list of things she wants to do before she dies with out telling her family of her illness.", "poster_path": "/vVj92VBFUBzjqzLvBiPVVlJDp78.jpg", "release_date": "2003-03-07", "title": "My Life Without Me", "video": false, "vote_average": 6.1, "vote_count": 220, "popularity": 9.208}, {"adult": false, "backdrop_path": "/useuHJQ5HOoEWkAvEjL1FW1sUfe.jpg", "genre_ids": [18], "id": 376867, "original_language": "en", "original_title": "Moonlight", "overview": "The tender, heartbreaking story of a young man\u2019s struggle to find himself, told across three defining chapters in his life as he experiences the ecstasy, pain, and beauty of falling in love, while grappling with his own sexuality.", "poster_path": "/qAwFbszz0kRyTuXmMeKQZCX3Q2O.jpg", "release_date": "2016-10-21", "title": "Moonlight", "video": false, "vote_average": 7.4, "vote_count": 4406, "popularity": 27.348}], "total_pages": 1446, "total_results": 28907}, "recommendations": {"page": 1, "results": [{"adult": false, "backdrop_path": "/wIlt2AtTMe0tz1jXzTtPCRlc37B.jpg", "genre_ids": [18, 35], "id": 457498, "original_language": "fr", "original_title": "Les bottes", "overview": "", "poster_path": "/r9slxGrhSYmll2qkXigCXLPJJMh.jpg", "release_date": "2004-05-12", "title": "Les bottes", "video": false, "vote_average": 6.7, "vote_count": 3, "popularity": 2.464}, {"adult": false, "backdrop_path": "/dU25iubTKLA1vfXJ7twYJBehISK.jpg", "genre_ids": [10749, 18], "id": 281591, "original_language": "fr", "original_title": "Le sens de l'humour", "overview": "\u00c9lise lives with her 10-year-old son L\u00e9o, whose father is deceased. She has a chaotic relationship with Paul her lover. They go from happy moments to intense feuds. \u00c9lise introduces him to L\u00e9o and in time, they get to know and appreciate each other.", "poster_path": "/bYjzz7L1St5WEmESdt9czaLT1Rj.jpg", "release_date": "2014-02-26", "title": "Le sens de l'humour", "video": false, "vote_average": 6.2, "vote_count": 7, "popularity": 1.487}, {"adult": false, "backdrop_path": "/ay59vzS8bIgaVzS4C1Mxms51P1o.jpg", "genre_ids": [18], "id": 79202, "original_language": "fr", "original_title": "Ne fais pas \u00e7a", "overview": "", "poster_path": "/iXIi0tmYQYtjExSTm8fo1IjmvMs.jpg", "release_date": "2004-03-24", "title": "Don't Do That!", "video": false, "vote_average": 2.7, "vote_count": 3, "popularity": 2.925}, {"adult": false, "backdrop_path": "/h9GVMx3z1mNHtGutRR7WFRWdil2.jpg", "genre_ids": [18, 53], "id": 104726, "original_language": "fr", "original_title": "Les amiti\u00e9s mal\u00e9fiques", "overview": "A group of college students are duped by a charming pathological liar.", "poster_path": "/yFRBwVRrLqycPQhcaJl5qbC1gZU.jpg", "release_date": "2006-09-27", "title": "Poison Friends", "video": false, "vote_average": 6.4, "vote_count": 5, "popularity": 1.972}, {"adult": false, "backdrop_path": "/yCMW0JlvW53vLC7I3QyEMxR0MZf.jpg", "genre_ids": [18, 10749], "id": 33918, "original_language": "en", "original_title": "Les regrets", "overview": "After the death of his mother, fortysomething introvert Mathieu enters into a second relationship with his high-school girlfriend, Maya.", "poster_path": "/539in8p4jNsCcbx3K6HkiRsRBfV.jpg", "release_date": "2009-09-02", "title": "Regrets", "video": false, "vote_average": 5.6, "vote_count": 10, "popularity": 2.862}, {"adult": false, "backdrop_path": "/87o2pR6Kgqb8VjHvwDuqhTVQPe4.jpg", "genre_ids": [80, 18, 53], "id": 428226, "original_language": "fr", "original_title": "Fleur de tonnerre", "overview": "In 1800, Brittany is on its knees, overwhelmed by the regime in place and by the omnipotent clergy. It founders in an economic slump without end in sight and, in the middle of all this, a young, suffering girl pushes back as best she can. She is known as the \"Poisoning Angel,\" an isolated child, mistreated by life and rocked by morbid thoughts. She will become one of the world's most notorious serial killers and will sow death, perhaps merely to be looked at and loved.", "poster_path": "/jjUgu9aLaKlJOu2JRkJi3i0D61B.jpg", "release_date": "2017-01-18", "title": "The Poisoning Angel", "video": false, "vote_average": 4.0, "vote_count": 12, "popularity": 1.785}, {"adult": false, "backdrop_path": "/x4QX40e9KMMlIcdV0Q9pp4A7ynY.jpg", "genre_ids": [18], "id": 384586, "original_language": "fr", "original_title": "Vendeur", "overview": "Serge is a winner, he sells kitchen furniture like hot cakes. His son, G\u00e9rald, who has just lost his restaurant, applies for a job in his dad's firm. It's Gerald's wish but it's Serge's reality and you do not become a top salesman overnight.", "poster_path": "/6cQZ0JqUffri3AiTORVYs2jEohE.jpg", "release_date": "2016-05-04", "title": "Vendeur", "video": false, "vote_average": 6.1, "vote_count": 11, "popularity": 1.327}, {"id": 53980, "video": false, "vote_count": 11, "vote_average": 4.7, "title": "Together Is Too Much", "release_date": "2010-02-07", "original_language": "en", "original_title": "Ensemble c'est trop", "genre_ids": [35, 10751], "backdrop_path": "/JYlsnkjVgTBERCvy65O51T4o7n.jpg", "adult": false, "overview": "Imagine, if you will, a somewhat contented married woman finding out her husband's infidelity during the celebration of a birthday party. That is what happens to Marie-France, when her husband, Henri, pulls out panties from his pocket to be used as a handkerchief. Marie-France becomes furious, storming out of the house. His son, Sebastian and his wife, Clementine, a struggling couple, decide to take Marie-France to their tiny apartment, something they feel it is a temporary arrangement. Little did they know what they were getting into...", "poster_path": "/5KGahdjWTqcgUf1n4RVnjltnkr9.jpg", "popularity": 1.983}, {"adult": false, "backdrop_path": "/9Oc7HM91JFaquoXS3AsC6coVJTH.jpg", "genre_ids": [18], "id": 104234, "original_language": "fr", "original_title": "Wesh Wesh, qu'est-ce qui se passe ?", "overview": "Kamel, a young man from the french ghetto, near Paris, is coming back to France. He was arrested for dealing drugs, he spent five years in jail and was banned from France for two years. He tries, with his family's support, to find a job and live a normal life. But nothing's normal in the ghetto.", "poster_path": "/lYzqLjOdFqkq4Uwf6wljRlMN4cS.jpg", "release_date": "2001-11-01", "title": "Wesh Wesh, qu'est-ce qui se passe ?", "video": false, "vote_average": 6.4, "vote_count": 5, "popularity": 1.985}, {"adult": false, "backdrop_path": "/7oxvaQJnLNR8u7xTTLUdSvbpM65.jpg", "genre_ids": [53, 18], "id": 42427, "original_language": "fr", "original_title": "Fair Play", "overview": "A company, where manipulation and harassment is a problem between colleagues, decides to organize a canyoning trip for its employees. The building tensions between co-workers might actually explode during this trip.", "poster_path": "/fSzdRMnjibs4dKaWQ4b5njBgMhJ.jpg", "release_date": "2006-09-06", "title": "Fair Play", "video": false, "vote_average": 5.3, "vote_count": 12, "popularity": 2.482}, {"adult": false, "backdrop_path": "/yVCIDDnBUUcJw4CjOlY5tPG7dmN.jpg", "genre_ids": [18], "id": 33404, "original_language": "fr", "original_title": "Rien de personnel", "overview": "The Muller company organizes a reception to mark the launch of a new product. During the evening, we discover that this is actually a coaching exercise for company executives. Gradually, rumours about the upcoming acquisition of the company start to emerge and everyone finds themselves trying to save their place.", "poster_path": "/8w0YUlhkkmwltfMxt3boxIhaKLr.jpg", "release_date": "2009-09-16", "title": "The Ordinary People", "video": false, "vote_average": 5.1, "vote_count": 9, "popularity": 2.651}, {"adult": false, "backdrop_path": "/hyDjyENoXb7TzxF7XO7IylLvka2.jpg", "genre_ids": [28, 35, 80], "id": 71056, "original_language": "fr", "original_title": "Laisse aller... c'est une valse", "overview": "", "poster_path": "/4BqfOOpVol6q7heEsApewt2HPcF.jpg", "release_date": "1971-04-07", "title": "Laisse aller... c'est une valse", "video": false, "vote_average": 6.4, "vote_count": 15, "popularity": 3.366}, {"adult": false, "backdrop_path": "/jBOtJqiPeVTPFbIoDtDcwa0tY6U.jpg", "genre_ids": [35, 18], "id": 170832, "original_language": "fr", "original_title": "Un Monde sans femmes", "overview": "A little sea resort on the Picardie coast, the last week of august. When handing over the keys to a rented apartment, Sylvain makes the acquaintance of two beautiful women. This is a fabulous occasion for him to escape his routine, single life in which women are a rarity, even if only for a few days. Quickly Sylvain's new friends can't do without him. Unfortunately, things get complicated when feelings and flirty Gilles, the local lady's man, get mixed up in it all.", "poster_path": "/3hvmVOoPFDYTFkDtJvgmxNT0QMW.jpg", "release_date": "2011-04-06", "title": "A World Without Women", "video": false, "vote_average": 7.6, "vote_count": 8, "popularity": 2.457}, {"adult": false, "backdrop_path": "/z2v6ntayEOXyaz8hiTsFwwS096F.jpg", "genre_ids": [35], "id": 79213, "original_language": "fr", "original_title": "Le d\u00e9mon de midi", "overview": "", "poster_path": "/4O97LwxDUUWughh6DzwI3q03gpW.jpg", "release_date": "2005-06-22", "title": "The Demon Stirs", "video": false, "vote_average": 3.2, "vote_count": 5, "popularity": 1.873}, {"adult": false, "backdrop_path": "/zFff3M0eFH9INTkUczm8eeY5OOd.jpg", "genre_ids": [18, 35], "id": 157380, "original_language": "en", "original_title": "May in the Summer", "overview": "A bride-to-be is forced to reevaluate her life when she reunites with her family in Jordan and finds herself confronted with the aftermath of her parents\u2019 divorce.", "poster_path": "/5sYGf5YXdhce3k5joegVNq2QPGR.jpg", "release_date": "2014-05-07", "title": "May in the Summer", "video": false, "vote_average": 6.1, "vote_count": 16, "popularity": 4.071}, {"adult": false, "backdrop_path": "/1fWNY6i5z14XkeFbPJAqxrSPZac.jpg", "genre_ids": [35, 18], "id": 59957, "original_language": "fr", "original_title": "M\u00e8res et filles", "overview": "In the 1950s, Louise left her husband when their children were still little. She was never heard from again. Her daughter Martine stayed in the small seaside town, where she became a doctor. Martine's daughter, Audrey, a thirty-year-old independent woman, returns to visit her parents. By chance, she finds a notebook that belonged to her grandmother, a diary that may at last explain her departure. Will it reveal the things left unsaid, that have altered the relationships within the heart of the family ever since? In it, will Audrey find answers to the questions that she is asking herself about her own future?", "poster_path": "/5jnWDKRq63Fe7J2W6ym3pKeGbgN.jpg", "release_date": "2009-10-07", "title": "Hidden Diary", "video": false, "vote_average": 6.4, "vote_count": 15, "popularity": 3.174}, {"id": 12425, "video": false, "vote_count": 9, "vote_average": 5.3, "title": "The Other One", "release_date": "2009-02-04", "original_language": "fr", "original_title": "L\u2019Autre", "genre_ids": [18], "backdrop_path": "/qJDestNssnFOPcsJ2TUsBsTdrOn.jpg", "adult": false, "overview": "Anne-Marie has a peaceful break-up with her boyfriend Alex, whom she doesn't love anymore. However, upon learning that another woman has come into his life, she becomes insanely jealous...", "poster_path": "/pxKPRr2xZpLiMRURJchzunNnNlm.jpg", "popularity": 2.09}, {"id": 70928, "video": false, "vote_count": 15, "vote_average": 7.0, "title": "The Silent One", "release_date": "1973-02-10", "original_language": "fr", "original_title": "Le silencieux", "genre_ids": [18, 53], "backdrop_path": "/8nhk4k2Ldab5jMItrqaBvItRFO7.jpg", "adult": false, "overview": "Who is Anton Haliakov, who has just been abducted by the M.I.5 in London? A Soviet scientist apparently. But sixteen years before the man had another identity, Cl\u00e9ment Tib\u00e8re, and another nationality, French. So what led him to become Russian and to change identity? And why are the British secret services interested in him?", "poster_path": "/jd21Svf35HWw9MzmEo5LCo1CQvJ.jpg", "popularity": 3.648}, {"adult": false, "backdrop_path": "/49k38ESLKr9baQAX6hZmTiTGddL.jpg", "genre_ids": [18], "id": 60045, "original_language": "fr", "original_title": "Qu'un seul tienne et les autres suivront", "overview": "An elderly woman wants to meet her son\u2019s murderer. A sixteen-year-old girl who has crossed paths with a young hoodlum needs an adult to accompany her to the prison visiting room. A young medical supplies delivery man is offered a deal to take the place of a gangster inmate so that the latter may escape. Two women, one man, three destinies that come together in the visiting room of a prison\u2026", "poster_path": "/8WanSDnTgMDDg3biLNQqUifNkYa.jpg", "release_date": "2009-12-09", "title": "Silent Voice", "video": false, "vote_average": 6.8, "vote_count": 12, "popularity": 1.757}, {"adult": false, "backdrop_path": "/tYaWUC3tVU01DqE8ZMATzGoLtY5.jpg", "genre_ids": [35, 18], "id": 31208, "original_language": "fr", "original_title": "Non Ma Fille, Tu N'iras Pas Danser", "overview": "Ever since she broke up with Nigel, Lena soldiers on through life as best she can with her two kids. She valiantly overcomes the obstacles put in her way. But she has yet to confront the worst of them: Her unstoppable family has decided, by any means necessary, to make her happy.", "poster_path": "/fG0KSmDxcU6ynnaWt3qrK1WXXVM.jpg", "release_date": "2009-09-02", "title": "Making Plans for Lena", "video": false, "vote_average": 5.5, "vote_count": 19, "popularity": 2.3}], "total_pages": 2, "total_results": 40}, "credits": {"cast": [{"cast_id": 11, "character": "Laurent Kessler", "credit_id": "52fe468e9251416c91058267", "gender": 2, "id": 47820, "name": "Beno\u00eet Poelvoorde", "order": 0, "profile_path": "/1rt37BkFjSYF7imtvJ5t30bqsNM.jpg"}, {"cast_id": 2, "character": "Claire Gauthier", "credit_id": "52fe468e9251416c91058247", "gender": 1, "id": 4166, "name": "Isabelle Carr\u00e9", "order": 1, "profile_path": "/p97h6F6o9iSxGDuf86WLHs2A8sv.jpg"}, {"cast_id": 4, "character": "Fabrice", "credit_id": "52fe468e9251416c9105824b", "gender": 2, "id": 17499, "name": "Jonathan Zacca\u00ef", "order": 2, "profile_path": "/5cOPOBY1DWBVq0h6oQY7MzLyB5m.jpg"}, {"cast_id": 5, "character": "Val\u00e9rie", "credit_id": "52fe468e9251416c9105824f", "gender": 1, "id": 19937, "name": "Val\u00e9rie Donzelli", "order": 3, "profile_path": "/ufXuBQAGyHM0waKt6ru4jlHiJng.jpg"}, {"cast_id": 6, "character": "Pauline", "credit_id": "52fe468e9251416c91058253", "gender": 0, "id": 147019, "name": "Agathe Louvieaux", "order": 4, "profile_path": null}, {"cast_id": 7, "character": "Le directeur", "credit_id": "52fe468e9251416c91058257", "gender": 2, "id": 32948, "name": "Bernard Bloch", "order": 5, "profile_path": "/jaHWM6MTjNTiJ6lfiNKPpjkrGuN.jpg"}, {"cast_id": 8, "character": "la m\u00e8re de Laurent", "credit_id": "52fe468e9251416c9105825b", "gender": 1, "id": 147020, "name": "V\u00e9ronique Nordey", "order": 6, "profile_path": "/eUJ1ucHTJkld1rL7HGyAqKLt4tL.jpg"}, {"cast_id": 9, "character": "le p\u00e8re de Claire", "credit_id": "52fe468e9251416c9105825f", "gender": 2, "id": 28683, "name": "Michel Dubois", "order": 7, "profile_path": "/4yzzF3bue6bW9TPsOfupfYLC6AP.jpg"}, {"cast_id": 10, "character": "la m\u00e8re de Claire", "credit_id": "52fe468e9251416c91058263", "gender": 0, "id": 115272, "name": "Martine Chevallier", "order": 8, "profile_path": "/o8XLRCBMvXJm9OowW8EXvh1ntjb.jpg"}], "crew": [{"credit_id": "52fe468e9251416c91058243", "department": "Directing", "gender": 1, "id": 48583, "job": "Director", "name": "Anne Fontaine", "profile_path": "/wtl2OPo3IydskWY3cMXInBba1w.jpg"}]}}