{"adult": false, "backdrop_path": "/wZsvZKbxtFuhqAy0Lbqv21SUktY.jpg", "belongs_to_collection": null, "budget": 0, "genres": [{"id": 99, "name": "Documentary"}], "homepage": null, "id": 381021, "imdb_id": "tt4875456", "original_language": "en", "original_title": "Best and Most Beautiful Things", "overview": "Off a dirt road in rural Maine, a precocious 20-year-old woman named Michelle Smith lives with her mother Julie. Michelle is quirky and charming, legally blind and diagnosed on the autism spectrum, with big dreams and varied passions. Searching for connection, Michelle explores love and empowerment outside the limits of \u201cnormal\u201d through a provocative fringe community. Will she take the leap to experience the wide world for herself? Michelle\u2019s joyful story of self-discovery celebrates outcasts everywhere.", "popularity": 1.932, "poster_path": "/SCWCVOnYSc7pQ7R3Huo2krW0o2.jpg", "production_companies": [], "production_countries": [], "release_date": "2016-12-02", "revenue": 0, "runtime": 90, "spoken_languages": [], "status": "Released", "tagline": "Not your average outcast.", "title": "Best and Most Beautiful Things", "video": false, "vote_average": 6.0, "vote_count": 3, "keywords": {"keywords": [{"id": 1646, "name": "autism"}, {"id": 9927, "name": "maine"}]}, "similar": {"page": 1, "results": [{"adult": false, "backdrop_path": "/pQvqotL0tjP6kuNoxq7eAPXicrk.jpg", "genre_ids": [28, 80, 18, 53], "id": 8838, "original_language": "en", "original_title": "Mercury Rising", "overview": "Renegade FBI agent Art Jeffries protects a nine-year-old autistic boy who has cracked the government's new \"unbreakable\" code.", "poster_path": "/2vEQLyrH0uKgjvLzYmYc9coNrgI.jpg", "release_date": "1998-04-03", "title": "Mercury Rising", "video": false, "vote_average": 6.2, "vote_count": 751, "popularity": 14.863}, {"id": 380, "video": false, "vote_count": 3521, "vote_average": 7.7, "title": "Rain Man", "release_date": "1988-12-11", "original_language": "en", "original_title": "Rain Man", "genre_ids": [18], "backdrop_path": "/eZ4Aj1O6E95Mk5O9oKKdvfnSWzf.jpg", "adult": false, "overview": "Selfish yuppie Charlie Babbitt's father left a fortune to his savant brother Raymond and a pittance to Charlie; they travel cross-country.", "poster_path": "/vllKYkA7eYi2UMM9yWQ1JegefBh.jpg", "popularity": 13.289}, {"id": 64685, "video": false, "vote_count": 1342, "vote_average": 7.0, "title": "Extremely Loud & Incredibly Close", "release_date": "2011-12-24", "original_language": "en", "original_title": "Extremely Loud & Incredibly Close", "genre_ids": [18], "backdrop_path": "/cSaXqhEIAXK6sVKMoGvxuhEYDe4.jpg", "adult": false, "overview": "A year after his father's death, Oskar, a troubled young boy, discovers a mysterious key he believes was left for him by his father and embarks on a scavenger hunt to find the matching lock.", "poster_path": "/EEf53z7xAUZzUHA5KVHVVLwgnQ.jpg", "popularity": 13.19}, {"id": 302946, "video": false, "vote_count": 3655, "vote_average": 7.0, "title": "The Accountant", "release_date": "2016-10-13", "original_language": "en", "original_title": "The Accountant", "genre_ids": [80, 18, 53], "backdrop_path": "/oNGkVYl9KhqoG90DSfKPWhOadrE.jpg", "adult": false, "overview": "As a math savant uncooks the books for a new client, the Treasury Department closes in on his activities and the body count starts to rise.", "poster_path": "/afhAUuWVB7k7PjJUd4lwO3rzhSq.jpg", "popularity": 17.21}, {"id": 157433, "video": false, "vote_count": 1620, "vote_average": 5.8, "title": "Pet Sematary", "release_date": "2019-04-04", "original_language": "en", "original_title": "Pet Sematary", "genre_ids": [27, 53], "backdrop_path": "/dpJq6trUDOutSPSLrFdROPmzaVn.jpg", "adult": false, "overview": "Dr. Louis Creed and his wife, Rachel, move from Boston to Ludlow, in rural Maine, with their two young children. Hidden in the woods near the new family home, Ellie, their eldest daughter, discovers a mysterious cemetery where the pets of community members are buried.", "poster_path": "/7SPhr7Qj39vbnfF9O2qHRYaKHAL.jpg", "popularity": 29.687}, {"id": 346364, "video": false, "vote_count": 12548, "vote_average": 7.2, "title": "It", "release_date": "2017-09-06", "original_language": "en", "original_title": "It", "genre_ids": [27], "backdrop_path": "/tcheoA2nPATCm2vvXw2hVQoaEFD.jpg", "adult": false, "overview": "In a small town in Maine, seven children known as The Losers Club come face to face with life problems, bullies and a monster that takes the shape of a clown called Pennywise.", "poster_path": "/9E2y5Q7WlCVNEhP5GiVTjhEhx1o.jpg", "popularity": 27.289}, {"id": 474350, "video": false, "vote_count": 2898, "vote_average": 6.8, "title": "It Chapter Two", "release_date": "2019-09-04", "original_language": "en", "original_title": "It Chapter Two", "genre_ids": [18, 14, 27], "backdrop_path": "/8moTOzunF7p40oR5XhlDvJckOSW.jpg", "adult": false, "overview": "27 years after overcoming the malevolent supernatural entity Pennywise, the former members of the Losers' Club, who have grown up and moved away from Derry, are brought back together by a devastating phone call.", "poster_path": "/zfE0R94v1E8cuKAerbskfD3VfUt.jpg", "popularity": 69.966}, {"adult": false, "backdrop_path": "/4Hsk6Rh2kpUTmlnsjxMiXWiPBSb.jpg", "genre_ids": [35, 18], "id": 400579, "original_language": "en", "original_title": "Tully", "overview": "Marlo, a mother of three, including a newborn, is gifted a night nanny by her brother. Hesitant at first, she quickly forms a bond with the thoughtful, surprising, and sometimes challenging nanny named Tully.", "poster_path": "/wDI4YXBXolMYi15Qx2kClvdSERM.jpg", "release_date": "2018-05-04", "title": "Tully", "video": false, "vote_average": 6.9, "vote_count": 766, "popularity": 15.626}, {"adult": false, "backdrop_path": "/np7OqT3CPlm5FF0wMKIKAFqIfFn.jpg", "genre_ids": [35, 18], "id": 338768, "original_language": "en", "original_title": "Please Stand By", "overview": "A young autistic woman runs away from her caregiver in order to boldly go and deliver her 500-page Star Trek script to a writing competition in Hollywood. On an adventure full of laughter and tears, Wendy follows the guiding spirit of Mr. Spock on her journey into the unknown.", "poster_path": "/yKhrjxmbdCjdxROc7lJhmfZ9trx.jpg", "release_date": "2018-01-26", "title": "Please Stand By", "video": false, "vote_average": 6.8, "vote_count": 222, "popularity": 8.739}, {"id": 22051, "video": false, "vote_count": 256, "vote_average": 6.8, "title": "Adam", "release_date": "2009-07-07", "original_language": "en", "original_title": "Adam", "genre_ids": [18, 10749], "backdrop_path": "/s6QYPPOeHbFZ3BwF9c8jxMkvzli.jpg", "adult": false, "overview": "Adam, a lonely man with Asperger's Syndrome, develops a relationship with his upstairs neighbor, Beth.", "poster_path": "/BAxxFF4bO7okLBnrtWM7vE2zzs.jpg", "popularity": 7.625}, {"id": 26466, "video": false, "vote_count": 1225, "vote_average": 6.8, "title": "Triangle", "release_date": "2009-10-16", "original_language": "en", "original_title": "Triangle", "genre_ids": [27], "backdrop_path": "/cL1R5nz7BUVU3d2shLDTaDcU0Ga.jpg", "adult": false, "overview": "When Jess sets sail on a yacht with a group of friends, she cannot shake the feeling that there is something wrong. Her suspicions are realised when the yacht hits a storm and the group is forced to board a passing ocean liner to get to safety, a ship Jess is convinced she\u2019s been on before.", "poster_path": "/hjC00Wus7IoCywVTHt68W8QxcyW.jpg", "popularity": 17.447}, {"adult": false, "backdrop_path": "/nBBxroYG0DR9mddC7R5NB0XAvA6.jpg", "genre_ids": [53, 878, 9648], "id": 431, "original_language": "en", "original_title": "Cube", "overview": "A group of strangers find themselves trapped in a maze-like prison. It soon becomes clear that each of them possesses the peculiar skills necessary to escape, if they don't wind up dead first.", "poster_path": "/u50r6chJGO2iqxVAvtQ07obiCkB.jpg", "release_date": "1997-09-09", "title": "Cube", "video": false, "vote_average": 6.9, "vote_count": 2523, "popularity": 16.642}, {"id": 653758, "video": false, "vote_count": 0, "vote_average": 0.0, "title": "The Reason I Jump", "release_date": "2020-01-23", "original_language": "en", "original_title": "The Reason I Jump", "genre_ids": [99], "backdrop_path": null, "adult": false, "overview": "This immersive film explores the experiences of nonspeaking autistic people around the world.", "poster_path": "/6ilV6OwaR3MO4MyylLkh8IU73bs.jpg", "popularity": 15.539}, {"id": 512418, "video": false, "vote_count": 136, "vote_average": 7.0, "title": "Mr. Know-It-All", "release_date": "2018-05-09", "original_language": "fr", "original_title": "Monsieur Je-sais-tout", "genre_ids": [35], "backdrop_path": "/6BGro7K8SuWAghqGlzxVqHOeCAK.jpg", "adult": false, "overview": "A football coach afraid of commitment has to take care of his nephew with Asperger's Syndrome.", "poster_path": "/dyRrOuQa2JpfKvyu1F1NjaF0CaT.jpg", "popularity": 6.827}, {"adult": false, "backdrop_path": "/9q5X0G5zUxLZNwGKT49ZpB0AqNC.jpg", "genre_ids": [27, 35, 28, 878, 53], "id": 9825, "original_language": "en", "original_title": "Lake Placid", "overview": "When a man is eaten alive by an unknown creature, the local Game Warden teams up with a paleontologist from New York to find the beast. Add to the mix an eccentric philanthropist with a penchant for \"Crocs\", and here we go! This quiet, remote lake is suddenly the focus of an intense search for a crocodile with a taste for live animals...and people!", "poster_path": "/6lE0EahK7xDOYWRH6On5uKPnwQZ.jpg", "release_date": "1999-07-15", "title": "Lake Placid", "video": false, "vote_average": 5.6, "vote_count": 511, "popularity": 14.163}, {"id": 11114, "video": false, "vote_count": 396, "vote_average": 6.3, "title": "Pete's Dragon", "release_date": "1977-11-03", "original_language": "en", "original_title": "Pete's Dragon", "genre_ids": [16, 35, 14, 10751], "backdrop_path": "/qSSvOqCYJPte40rR61owSCtcXtd.jpg", "adult": false, "overview": "Pete, a young orphan, runs away to a Maine fishing town with his best friend a lovable, sometimes invisible dragon named Elliott! When they are taken in by a kind lighthouse keeper, Nora, and her father, Elliott's prank playing lands them in big trouble. Then, when crooked salesmen try to capture Elliott for their own gain, Pete must attempt a daring rescue.", "poster_path": "/3cJf6kG5x0Qvk0YSXBREpdpTO6Q.jpg", "popularity": 11.218}, {"adult": false, "backdrop_path": "/ArT1HUDedndeJeT16pOrNiesorQ.jpg", "genre_ids": [80, 18, 9648], "id": 11929, "original_language": "en", "original_title": "Dolores Claiborne", "overview": "Dolores Claiborne was accused of killing her abusive husband twenty years ago, but the court's findings were inconclusive and she was allowed to walk free. Now she has been accused of killing her employer, Vera Donovan, and this time there is a witness who can place her at the scene of the crime. Things look bad for Dolores when her daughter Selena, a successful Manhattan magazine writer, returns to cover the story.", "poster_path": "/ewmVWV0TP8LTlYZ4OzCcguwC9d1.jpg", "release_date": "1995-03-24", "title": "Dolores Claiborne", "video": false, "vote_average": 7.2, "vote_count": 353, "popularity": 13.1}, {"adult": false, "backdrop_path": "/kWa4iUaC7SU2DHDlknlVvw5x9nP.jpg", "genre_ids": [18, 53], "id": 1999, "original_language": "en", "original_title": "In the Bedroom", "overview": "Summertime on the coast of Maine, \"In the Bedroom\" centers on the inner dynamics of a family in transition. Matt Fowler is a doctor practicing in his native Maine and is married to New York born Ruth Fowler, a music teacher. His son is involved in a love affair with a local single mother. As the beauty of Maine's brief and fleeting summer comes to an end, these characters find themselves in the midst of unimaginable tragedy.", "poster_path": "/3UzsHGayLvoInQrgIKd4u2y9BeA.jpg", "release_date": "2001-11-23", "title": "In the Bedroom", "video": false, "vote_average": 6.8, "vote_count": 167, "popularity": 12.202}, {"id": 4104, "video": false, "vote_count": 439, "vote_average": 7.1, "title": "Benny & Joon", "release_date": "1993-04-16", "original_language": "en", "original_title": "Benny & Joon", "genre_ids": [35, 18, 10749], "backdrop_path": "/7T292Wv3ikieYAlqIHfhdxGk3S.jpg", "adult": false, "overview": "A mentally ill young woman finds her love in an eccentric man who models himself after Buster Keaton.", "poster_path": "/2a7amuuML6xvBn6XWV1sPG1Cmd5.jpg", "popularity": 7.783}, {"id": 10349, "video": false, "vote_count": 175, "vote_average": 5.9, "title": "The Dark Half", "release_date": "1993-04-23", "original_language": "en", "original_title": "The Dark Half", "genre_ids": [27, 9648], "backdrop_path": "/xW6U2KXOo7hB1tRAmV01960SIYF.jpg", "adult": false, "overview": "Thad Beaumont is the author of a highly successful series of violent pulp thrillers written under the pseudonym of \u2018George Stark\u2019, but when he decides to \u2018kill-off\u2019 his alter-ego in a mock ceremony, it precipitates a string of sadistic murders matching those in his pulp novels, which are soon discovered to be the work of Stark himself. Looking like a maniacal version of his counterpart, Stark is not so willing to quit the writing game \u2013 even if it means coming after Thad's wife and their baby.", "poster_path": "/x9ROx7QrJkMK7vet6uhsgrM4Y8Z.jpg", "popularity": 12.777}], "total_pages": 9, "total_results": 161}, "recommendations": {"page": 1, "results": [{"adult": false, "backdrop_path": null, "genre_ids": [], "id": 393495, "original_language": "as", "original_title": "\u0995\u09a5\u09be\u09a8\u09a6\u09c0", "overview": "Four folk tales from Assam re-imagined as a narrative about four mothers, each facing demons of her own.", "poster_path": "/ctqYGdPfANFnEAjVaehn0iwZVWW.jpg", "release_date": "2016-04-27", "title": "Kothanodi", "video": false, "vote_average": 8.0, "vote_count": 3, "popularity": 1.812}, {"adult": false, "backdrop_path": "/jxtzrRp2fAvimOpO3ntUjnwTKs0.jpg", "genre_ids": [99, 36], "id": 428140, "original_language": "en", "original_title": "Hannah: Buddhism's Untold Journey", "overview": "'Hannah' tells the story of Buddhist pioneer Hannah Nydahl and her life bringing Tibetan Buddhism to the West. From her idealistic roots in 1960's Copenhagen to the hippie trail in Nepal, Hannah and her husband Ole became two of the first Western students of His Holiness the 16th Karmapa - the first consciously reincarnated lama of Tibet in 1110. Hannah went on to become an assistant and translator for some of the most powerful Tibetan lamas and a bridge between Buddhism in the East and the West.", "poster_path": "/syAXhEh5ZJfqsxlLVrDAZVK3YuV.jpg", "release_date": "2016-11-14", "title": "Hannah: Buddhism's Untold Journey", "video": false, "vote_average": 8.0, "vote_count": 3, "popularity": 1.354}, {"adult": false, "backdrop_path": null, "genre_ids": [18], "id": 188532, "original_language": "he", "original_title": "Me'al Ha-giva", "overview": "Shaul (Uri Pepper), the film\u2019s protagonist, a solitary divorced man, tries to overcome his difficult emotional state. He goes to see his father Shimon (Moni Moshonov) in Haifa and confronts him, blaming his father for all his current woes. Shimon and his partner Betty (Michaela Eshet), try to help Shaul with alternative methods, using stones with magical attributes and therapeutic oils. With their help, Shaul becomes much more optimistic\u2026", "poster_path": "/7vn3wzljiNJ1UZPUP5fis1OU2IK.jpg", "release_date": "2013-12-04", "title": "A Strange Course Of Events", "video": false, "vote_average": 5.7, "vote_count": 3, "popularity": 1.96}, {"adult": false, "backdrop_path": null, "genre_ids": [99], "id": 362383, "original_language": "en", "original_title": "The Messenger", "overview": "Songbirds are disappearing at an alarming rate. The Messenger is a visually thrilling ode to the beauty and importance of the imperiled songbird, and what it means to all of us on both a global and human level if we lose them.", "poster_path": "/vxQTkOg2OYS0SqYasvF7inMWgdH.jpg", "release_date": "2015-12-04", "title": "The Messenger", "video": false, "vote_average": 7.7, "vote_count": 3, "popularity": 1.283}, {"adult": false, "backdrop_path": null, "genre_ids": [35, 18], "id": 380683, "original_language": "en", "original_title": "Mad", "overview": "A matriarch past the point of a nervous breakdown, her two daughters that don't give a damn, and the heat-seeking missiles of resentment they toss at each other.", "poster_path": "/hvBmgQ1nQaWP77OanLIaMnHB6I4.jpg", "release_date": "2016-01-22", "title": "Mad", "video": false, "vote_average": 8.0, "vote_count": 3, "popularity": 2.627}, {"adult": false, "backdrop_path": "/2WC6NpnQnE9JyF6gcsCbTWeWzLe.jpg", "genre_ids": [99], "id": 270648, "original_language": "en", "original_title": "Kumu Hina", "overview": "A transgender Native Hawaiian teacher inspires a young girl to fulfill her destiny of leading the school's male hula troupe, even as she struggles to find love and a committed relationship in her own life.", "poster_path": "/aMoAYO3fW8QQmnC8Guik9xdYZ4M.jpg", "release_date": "2014-06-22", "title": "Kumu Hina", "video": false, "vote_average": 8.0, "vote_count": 3, "popularity": 3.943}, {"adult": false, "backdrop_path": null, "genre_ids": [99], "id": 83373, "original_language": "en", "original_title": "Barbershop Punk", "overview": "Is \"The Man\" controlling the vertical, the horizontal and the channel you'll be on? In a privatized American Internet, is big business \"Big Brother\" or does the free market protect and serve the needs of the average citizen with its invisible hand? With the simple act of swapping files, barbershop quartet baritone Robb Topolski finds himself at ground zero of a landmark case whose outcome will affect the rights of every American citizen. Following one man's personal quest to defend what he believes to be his inalienable rights, BARBERSHOP PUNK examines the critical issues surrounding the future of the American Internet and what it takes to challenge the status quo. Contemplating the future of the American Internet and the inalienable rights under review.", "poster_path": "/zifEsD9xwenNy1SuhQHpfKHudk0.jpg", "release_date": "2011-11-11", "title": "Barbershop Punk", "video": false, "vote_average": 6.3, "vote_count": 3, "popularity": 1.813}, {"adult": false, "backdrop_path": "/hTrIvPUjixlMzKIKAF7IOYNqwFf.jpg", "genre_ids": [], "id": 317945, "original_language": "en", "original_title": "Estar o no estar", "overview": "Augusto is a 40 year old who fall in love with a younger russian girl that lives at Veracruz, Mexico.", "poster_path": "/6DXdJgoRRsgogxHSF1IFFbyEdJR.jpg", "release_date": "2015-03-09", "title": "Estar o no estar", "video": false, "vote_average": 6.0, "vote_count": 3, "popularity": 2.874}, {"adult": false, "backdrop_path": null, "genre_ids": [99], "id": 314672, "original_language": "en", "original_title": "Placebo", "overview": "All India Institute of Medical Sciences (AIIMS) is one of the toughest med schools in the world (with an acceptance rate of less than 0.1%). After a student gets involved in a violent accident on campus, a film maker goes undercover at AIIMS to investigate the rising incidents of violence amongst the best minds of the nation. Four med students agree to be filmed for a year as part of this observational experiment. Through their personal journeys within these celebrated hallways of excellence- we enter a ruthless world of ambition and competition, where only the toughest can survive. Those who pass through must battle monsters- both within and without.", "poster_path": "/7lPMIPZTzKNzq6papjXQvUCNFBs.jpg", "release_date": "2014-11-19", "title": "Placebo", "video": false, "vote_average": 8.0, "vote_count": 3, "popularity": 2.379}, {"adult": false, "backdrop_path": null, "genre_ids": [99], "id": 329066, "original_language": "ar", "original_title": "Those Who Feel the Fire Burning", "overview": "As a group of refugees tries to enter Europe illegally by boat, a storm suddenly appears and all hell breaks loose when an old man falls overboard. His perception shifts into another dimension: a dark, hallucinatory place. Driven by a mysterious power and desperately in search of his loved ones, his soul passes by the everyday reality of many castaway refugees at the border of the alleged paradise, Europe. The old man's spirit observes people on the street being chased away like dogs, follows an illegal worker and a drug-addicted mother and slips inside crowded refugee shelters. Wandering through this limbo, the old man questions the meaning of his existence.", "poster_path": "/cg6wNjKhuKMk5ZmMsPNReoivfxZ.jpg", "release_date": "2014-11-22", "title": "Those Who Feel the Fire Burning", "video": false, "vote_average": 4.1, "vote_count": 4, "popularity": 0.941}, {"adult": false, "backdrop_path": null, "genre_ids": [], "id": 423197, "original_language": "ta", "original_title": "Revelations", "overview": "Human relationships", "poster_path": "/z7gfCDFPDhLwPgOcgoyzSCt13XT.jpg", "release_date": "2016-10-22", "title": "Revelations", "video": false, "vote_average": 8.0, "vote_count": 3, "popularity": 1.259}, {"adult": false, "backdrop_path": null, "genre_ids": [99], "id": 360032, "original_language": "en", "original_title": "The State of Marriage", "overview": "The untold story of how legal pioneer Mary Bonauto partnered with small town Vermont lawyers Beth Robinson and Susan Murray in a 2-decade long struggle that built the foundation for the entire marriage equality movement. Despite fierce opposition, Vermont became the first state to grant same sex couples legal recognition through a groundbreaking 1999 State Supreme Court decision, and the first to legalize marriage equality by legislative vote in 2009. HRC's Marty Rouse said, \"They really changed the course of American history.\" Featuring Freedom to Marry founder Evan Wolfson, civil rights legend Rep. John Lewis, and Tony-winning playwright Terrence McNally.", "poster_path": "/whyHVE6sFfWqhOYgChJHxFN4Ndh.jpg", "release_date": "2015-06-12", "title": "The State of Marriage", "video": false, "vote_average": 7.5, "vote_count": 4, "popularity": 1.029}, {"adult": false, "backdrop_path": null, "genre_ids": [12, 18, 35], "id": 410214, "original_language": "hi", "original_title": "M Cream", "overview": "A motley crew of university students set out on a journey in pursuit of a mythical form of hash, confronting a series of encounters that begin to unravel the myriad realities of rebellion.", "poster_path": "/uC0g0qnXhDrOuYIwzHwEXguSg9Q.jpg", "release_date": "2016-07-22", "title": "M Cream", "video": false, "vote_average": 6.5, "vote_count": 4, "popularity": 1.13}, {"adult": false, "backdrop_path": null, "genre_ids": [18], "id": 121207, "original_language": "pl", "original_title": "Z daleka widok jest pi\u0119kny", "overview": "Unfolding in a secluded Polish village 'Z daleka widok jest piekny' (It looks pretty from a distance) is a love story between a scrapper and a young woman. Seen through the monotony of everyday life the film depicts the hardships of a rural community in present-day Poland. The bucolic landscape becomes the seemingly idyllic backdrop from which a sudden disappearance disrupts their once quiet community.", "poster_path": "/hKUbphqMdWJZ75Hn39WqoPeTNMb.jpg", "release_date": "2012-02-10", "title": "It Looks Pretty from a Distance", "video": false, "vote_average": 5.2, "vote_count": 5, "popularity": 0.84}, {"adult": false, "backdrop_path": null, "genre_ids": [99], "id": 362512, "original_language": "en", "original_title": "An American in Madras", "overview": "Director Karan Bali's insight into a largely unknown slice of Tamil film history. American citizen Ellis R Dungan travelled to India in the 1930s. He intended to stay for six months, but he ended up living in Madras for 15 years, where he directed many key films of the era. This documentary explores Dungan's life and the profound impact he had upon the fledgling Tamil film industry.", "poster_path": "/16F1WF5t6pwjThUUZSzkAajHYBT.jpg", "release_date": "2013-12-01", "title": "An American in Madras", "video": false, "vote_average": 7.3, "vote_count": 4, "popularity": 0.814}, {"adult": false, "backdrop_path": "/4FgtcGp15dQiUqglIPfBvoe2W2g.jpg", "genre_ids": [], "id": 329160, "original_language": "tr", "original_title": "\u00c7ekmeceler", "overview": "Deniz ends up in hospital and has to face the ghosts of past. She manages to discover herself and the hidden secrets in her family drawers.", "poster_path": "/9bOD5u2bCVa7LaTtJxuUJwQUoGN.jpg", "release_date": "2015-03-06", "title": "Drawers", "video": false, "vote_average": 6.2, "vote_count": 5, "popularity": 1.543}, {"id": 407897, "video": false, "vote_count": 4, "vote_average": 7.5, "title": "Vintage Tomorrows", "release_date": "2016-07-19", "original_language": "en", "original_title": "Vintage Tomorrows", "genre_ids": [99], "backdrop_path": null, "adult": false, "overview": "Vintage tomorrows examines the steampunk movement's explosive growth, origins, and cultural significance. It explores the fundamental question: what can we learn about tomorrow from steampunk's playful visions of yesteryear?", "poster_path": "/3ybRnT4twF57bt3Y3D0w2qVVxnU.jpg", "popularity": 3.085}], "total_pages": 1, "total_results": 17}, "credits": {"cast": [], "crew": [{"credit_id": "56b26d31c3a36845ba000c4c", "department": "Directing", "gender": 0, "id": 1572126, "job": "Director", "name": "Garrett Zevgetis", "profile_path": null}]}}