{"adult": false, "backdrop_path": "/lB73FWGkkeFRysQMZQlLNfvbPKu.jpg", "belongs_to_collection": null, "budget": 0, "genres": [{"id": 99, "name": "Documentary"}], "homepage": null, "id": 381024, "imdb_id": "tt5119260", "original_language": "en", "original_title": "Orange Sunshine", "overview": "The never-before-told story of the Brotherhood of Eternal Love \u2013 a spiritual group of surfers and hippies in Southern California that became the largest suppliers of psychedelic drugs in the world during the 1960s and early 1970s. Bonded by their dreams to fight social injustice and spread peace, this unlikely band of free-spirited idealists quickly transformed into a drug-smuggling empire and at the same time inadvertently invented the modern illegal drug trade. At the head of the Brotherhood, and the heart of this story, is the anti-capitalistic husband and wife team, who made it their mission to change the world through LSD.", "popularity": 6.349, "poster_path": "/pElD520j1jgANaPUIm6qkR4ThEY.jpg", "production_companies": [], "production_countries": [{"iso_3166_1": "US", "name": "United States of America"}], "release_date": "2016-03-14", "revenue": 0, "runtime": 105, "spoken_languages": [], "status": "Released", "tagline": "The true story of friends, family & one hundred million hits of acid", "title": "Orange Sunshine", "video": false, "vote_average": 7.8, "vote_count": 8, "keywords": {"keywords": [{"id": 5498, "name": "lsd"}]}, "similar": {"page": 1, "results": [{"id": 1878, "video": false, "vote_count": 2625, "vote_average": 7.2, "title": "Fear and Loathing in Las Vegas", "release_date": "1998-05-22", "original_language": "en", "original_title": "Fear and Loathing in Las Vegas", "genre_ids": [12, 35, 18], "backdrop_path": "/vtEKE4OFsnuIh37oo1arOMM2ELv.jpg", "adult": false, "overview": "Raoul Duke and his attorney Dr. Gonzo drive a red convertible across the Mojave desert to Las Vegas with a suitcase full of drugs to cover a motorcycle race. As their consumption of drugs increases at an alarming rate, the stoned duo trash their hotel room and fear legal repercussions. Duke begins to drive back to L.A., but after an odd run-in with a cop, he returns to Sin City and continues his wild drug binge.", "poster_path": "/u9ffgobMADj6GCafeImbov566j9.jpg", "popularity": 22.582}, {"adult": false, "backdrop_path": "/77ElMccPnTMPouRxSdbJ4nEjf69.jpg", "genre_ids": [35, 80], "id": 115, "original_language": "en", "original_title": "The Big Lebowski", "overview": "Jeffrey \"The Dude\" Lebowski, a Los Angeles slacker who only wants to bowl and drink White Russians, is mistaken for another Jeffrey Lebowski, a wheelchair-bound millionaire, and finds himself dragged into a strange series of events involving nihilists, adult film producers, ferrets, errant toes, and large sums of money.", "poster_path": "/qiE3ovg9TPylHReZjizQ40LsKZV.jpg", "release_date": "1998-03-06", "title": "The Big Lebowski", "video": false, "vote_average": 7.9, "vote_count": 6432, "popularity": 23.538}, {"id": 126889, "video": false, "vote_count": 5389, "vote_average": 5.9, "title": "Alien: Covenant", "release_date": "2017-05-09", "original_language": "en", "original_title": "Alien: Covenant", "genre_ids": [27, 878, 53], "backdrop_path": "/6jajFcaY2YsfGQstJ5HaqZNVseX.jpg", "adult": false, "overview": "Bound for a remote planet on the far side of the galaxy, the crew of the colony ship 'Covenant' discovers what is thought to be an uncharted paradise, but is actually a dark, dangerous world\u2014which has a sole inhabitant: the 'synthetic', David, survivor of the doomed Prometheus expedition.", "poster_path": "/zecMELPbU5YMQpC81Z8ImaaXuf9.jpg", "popularity": 36.026}, {"id": 507076, "video": false, "vote_count": 632, "vote_average": 7.1, "title": "Climax", "release_date": "2018-09-19", "original_language": "fr", "original_title": "Climax", "genre_ids": [18, 27, 10402], "backdrop_path": "/v0sblc9A8eaE8EqDQ5Y6fELj4oB.jpg", "adult": false, "overview": "Young dancers gather in a remote and empty school building to rehearse on a cold and wintry night. The all-night celebration soon turns into a hallucinatory nightmare when they learn that their sangria is laced with LSD.", "poster_path": "/zQDqgzSdTGSDu4rDcQTq7TAttmy.jpg", "popularity": 17.873}, {"id": 10537, "video": false, "vote_count": 603, "vote_average": 6.9, "title": "The Doors", "release_date": "1991-03-01", "original_language": "en", "original_title": "The Doors", "genre_ids": [18, 10402], "backdrop_path": "/1rv5sW6Qs2YK2iOzIgwH3SJPIl1.jpg", "adult": false, "overview": "The story of the famous and influential 1960s rock band and its lead singer and composer, Jim Morrison.", "poster_path": "/9CkFrWAkg23YynYd2uJLyWznMZZ.jpg", "popularity": 14.573}, {"adult": false, "backdrop_path": "/6TSzmESfh0LVOBnDcktcRMI6Wnk.jpg", "genre_ids": [28, 12, 53, 18], "id": 9619, "original_language": "en", "original_title": "Dante's Peak", "overview": "Volcanologist Harry Dalton comes to the sleepy town of Dante's Peak to investigate the recent rumblings of the dormant volcano the burg is named for. Before long, his worst fears are realized when a massive eruption hits, and immediately, Harry, the mayor and the townspeople find themselves fighting for their lives amid a catastrophic nightmare.", "poster_path": "/6wBlgo0xqja56OMfQoxsdLmcR76.jpg", "release_date": "1997-02-07", "title": "Dante's Peak", "video": false, "vote_average": 5.9, "vote_count": 897, "popularity": 23.4}, {"id": 624, "video": false, "vote_count": 1029, "vote_average": 7.1, "title": "Easy Rider", "release_date": "1969-05-07", "original_language": "en", "original_title": "Easy Rider", "genre_ids": [12, 18], "backdrop_path": "/78dHjJKxKZ8JbCm3lEMjDRulLp.jpg", "adult": false, "overview": "A cross-country trip to sell drugs puts two hippie bikers on a collision course with small-town prejudices.", "poster_path": "/hwghunUy1zd1LSgM0kom2We2082.jpg", "popularity": 22.812}, {"adult": false, "backdrop_path": "/9YHXNQ8BD9edBk1Lp2Z23h98KRI.jpg", "genre_ids": [99], "id": 103195, "original_language": "de", "original_title": "The Substance: Albert Hofmann's LSD", "overview": "By coincidence rather than by design, the Swiss chemist Albert Hofmann makes a sensational discovery in the spring of 1943. He realizes that he is dealing with a powerful molecule that will have an impact that reaches far beyond the scientific world. THE SUBSTANCE is an investigation into our troubled relationship with LSD, told from its beginnings to today.", "poster_path": "/jpXGGmLfY5q8t8c5nkqZjuHNtQ1.jpg", "release_date": "2011-11-17", "title": "The Substance: Albert Hofmann's LSD", "video": false, "vote_average": 6.9, "vote_count": 11, "popularity": 1.972}, {"id": 2196, "video": false, "vote_count": 971, "vote_average": 6.8, "title": "Death at a Funeral", "release_date": "2007-08-17", "original_language": "en", "original_title": "Death at a Funeral", "genre_ids": [35, 18], "backdrop_path": "/ffXvlcmRhl0F9gyNdvTpFFa4ybt.jpg", "adult": false, "overview": "A myriad of outrageous calamities befall an eccentric English clan with more than a few skeletons in its closets, when its patriarch dies an unexpected death. Soon, every complication imaginable\u2014including the wrong corpse in the coffin, the accidental consumption of hallucinogenic drugs and the disclosure of the deceased's closeted homosexuality\u2014befall the grief-stricken mourners.", "poster_path": "/zV4kwbDckeTMoIsbSt1lsTIZ2in.jpg", "popularity": 10.029}, {"id": 429200, "video": false, "vote_count": 1003, "vote_average": 7.1, "title": "Good Time", "release_date": "2017-08-11", "original_language": "en", "original_title": "Good Time", "genre_ids": [80, 18, 53], "backdrop_path": "/nrrdw7hS8VOxz4Kqh0EtJpbIgu0.jpg", "adult": false, "overview": "After a botched bank robbery lands his younger brother in prison, Connie Nikas embarks on a twisted odyssey through New York City's underworld to get his brother Nick out of jail.", "poster_path": "/s6DJXJU3HzX24Ij3VWg5MfVGHrI.jpg", "popularity": 19.218}, {"adult": false, "backdrop_path": "/u9jfHbpA2XKEIPpDPpPTL9s3DwE.jpg", "genre_ids": [99], "id": 340857, "original_language": "it", "original_title": "Acid - Delirio dei sensi", "overview": "Film showing the effects of drug taking: hallucinations, etc.", "poster_path": "/ygUbPxYuDSHvm7tzvcC9zdjFqk4.jpg", "release_date": "1968-02-02", "title": "Acid Delirium of the Senses", "video": false, "vote_average": 0.0, "vote_count": 0, "popularity": 2.133}, {"adult": false, "backdrop_path": "/oOoGHPKUGzehRXpIwPsJTBxzcdU.jpg", "genre_ids": [99], "id": 228813, "original_language": "en", "original_title": "Neurons to Nirvana", "overview": "Through interviews with leading psychologists and scientists, Neurons to Nirvana explores the history of four powerful psychedelic substances (LSD, Psilocybin, MDMA and Ayahuasca) and their previously established medicinal potential. Strictly focusing on the science and medicinal properties of these drugs, Neurons to Nirvana looks into why our society has created such a social and political bias against even allowing research to continue the exploration of any possible positive effects they can present in treating some of today's most challenging afflictions.", "poster_path": "/iWz85pWapNFcs1jr0d0iZYzjCqT.jpg", "release_date": "2013-10-19", "title": "Neurons to Nirvana", "video": false, "vote_average": 7.9, "vote_count": 7, "popularity": 2.517}, {"id": 2074, "video": false, "vote_count": 124, "vote_average": 6.2, "title": "Flirting with Disaster", "release_date": "1996-03-22", "original_language": "en", "original_title": "Flirting with Disaster", "genre_ids": [35], "backdrop_path": "/zsWJLoAIoOYiuTsQgiDbmLgcHRq.jpg", "adult": false, "overview": "Adopted as a child, new father Mel Colpin decides he cannot name his son until he knows his birth parents, and determines to make a cross-country quest to find them. Accompanied by his wife, Nancy, and an inept yet gorgeous adoption agent, Tina, he departs on an epic road trip that quickly devolves into a farce of mistaken identities, wrong turns, and overzealous and love-struck ATF agents.", "poster_path": "/pxxYa68L05ZR4vMwc6yB8KqXslo.jpg", "popularity": 10.214}, {"adult": false, "backdrop_path": "/lh57j971CIzI3FruTbFeWpYHjej.jpg", "genre_ids": [35, 18], "id": 12229, "original_language": "en", "original_title": "The Acid House", "overview": "THE ACID HOUSE is a surreal triptych adapted by \"Trainspotting\" author Irvine Welsh from his acclaimed collection of short stories.\r Combining a vicious sense of humor with hard-talking drama, the film reaches into the hearts and minds of the chemical generation, casting a dark and unholy light into the hidden corners of the human psyche.\r Directed by Paul McGuigan, the film dramatises three stories from the book: 1- The Granton Star Cause, 2- A Soft Touch &amp; 3- The Acid House.", "poster_path": "/o0KvKCgxMFccx3SzDI3p2218921.jpg", "release_date": "1998-07-02", "title": "The Acid House", "video": false, "vote_average": 6.5, "vote_count": 68, "popularity": 7.259}, {"adult": false, "backdrop_path": "/lhVEKSSycvDNKPRYbQiZKu5lbfY.jpg", "genre_ids": [27, 53], "id": 207769, "original_language": "en", "original_title": "Banshee Chapter", "overview": "On the trail of a missing friend who had been experimenting with mind-altering drugs, a young journalist - aided by a rogue counter-culture writer, The Silence of The Lambs -- finds herself drawn into the dangerous world of top-secret government chemical research and the mystery of a disturbing radio signal of unknown origin. A fast-paced thriller blending fact and fiction, Banshee Chapter is based on real documents, actual test subject testimony, and uncovered secrets about covert programs run by the CIA.", "poster_path": "/pqtrPpoJMAdthG5B0a3l8coq5tR.jpg", "release_date": "2013-08-26", "title": "Banshee Chapter", "video": false, "vote_average": 5.6, "vote_count": 150, "popularity": 7.318}, {"adult": false, "backdrop_path": null, "genre_ids": [99], "id": 127813, "original_language": "en", "original_title": "Case Study: LSD", "overview": "A young girl relates what happened during her first LSD trip, when \u2013 among other things \u2013 her food began talking to her.", "poster_path": "/AbeOlN6VMK4Jei69lOhXWEJN4nK.jpg", "release_date": "1969-12-31", "title": "Case Study: LSD", "video": false, "vote_average": 4.9, "vote_count": 8, "popularity": 2.386}, {"id": 19204, "video": false, "vote_count": 252, "vote_average": 6.9, "title": "The Beyond", "release_date": "1981-04-22", "original_language": "it", "original_title": "...E tu vivrai nel terrore! L'aldil\u00e0", "genre_ids": [27], "backdrop_path": "/uZOjbcEpQMFsEQauTIrN95hn6gG.jpg", "adult": false, "overview": "When New Yorker Liza Merril inherits an old hotel in Louisiana and invests her savings to reopen the place, she doesn't realize that the hotel houses the body of a dead painter murdered decades earlier, nor that it's about to become a gateway to Hell.", "poster_path": "/pMYz6BWdJ90lDqpHlKKi4BtxHDd.jpg", "popularity": 8.909}, {"adult": false, "backdrop_path": "/lQyiSRppiPrtz7DF3odzubvxAGm.jpg", "genre_ids": [18], "id": 20263, "original_language": "en", "original_title": "An American Affair", "overview": "In the early 1960s, teenager Adam Stafford (Cameron Bright) becomes obsessed with his new neighbor, Catherine Caswell (Gretchen Mol), a divorc\u00e9e and free spirit. Stafford spies on Caswell as she meets with strange men, and, despite the warnings of his conservative parents, he begins working for her as a gardener. Amid rumors of her affair with President Kennedy, the two become close, but political intrigue surrounding her acquaintances soon infringes on their friendship.", "poster_path": "/foRA823cEDugTzaMT8MX7pDQkIX.jpg", "release_date": "2008-11-27", "title": "An American Affair", "video": false, "vote_average": 6.4, "vote_count": 15, "popularity": 6.925}, {"id": 12719, "video": false, "vote_count": 43, "vote_average": 6.7, "title": "Flashback", "release_date": "1990-02-02", "original_language": "en", "original_title": "Flashback", "genre_ids": [28, 35, 80], "backdrop_path": "/z90MjgV4BWBENjYGSzLJ613kwHl.jpg", "adult": false, "overview": "A hippie radical, Huey Walker has been a fugitive for decades, accused of a crime that he may not have committed. Finally apprehended, Walker is escorted to trial by uptight 20-something FBI agent John Buckner. While the two seem to be polar opposites, it turns out that Buckner may have more in common with Walker than is initially apparent, a point that is driven home when the pair faces off against a sinister small-town sheriff.", "poster_path": "/z90NcGoIwy3MPOAqELVtntAFuDN.jpg", "popularity": 4.924}, {"adult": false, "backdrop_path": null, "genre_ids": [99], "id": 86678, "original_language": "en", "original_title": "Hofmann's Potion: The Pioneers of LSD", "overview": "Long before Timothy Leary urged a generation to \"tune in, turn on and drop out,\" lysergic acid diethylamide, or LSD, was being used by researchers trying to understand the human mind. This documentary is a fascinating look at the story of \"acid\" before it hit the streets.  Featuring interviews with many LSD pioneers, Hofmann's Potion is much more than a simple chronicle of the drug's early days. With thoughtful interviews, beautiful music and stunning cinematography, it is an invitation to look at LSD, and our world, with a more open, compassionate mind.", "poster_path": "/jm4KzxMkGlixBXFcxmiOXVh11D3.jpg", "release_date": "2002-09-01", "title": "Hofmann's Potion: The Pioneers of LSD", "video": false, "vote_average": 5.0, "vote_count": 4, "popularity": 1.499}], "total_pages": 5, "total_results": 86}, "recommendations": {"page": 1, "results": [{"adult": false, "backdrop_path": "/dfYVkoLwzu74IOj5Fci2y72QsQz.jpg", "genre_ids": [99], "id": 271707, "original_language": "en", "original_title": "Das gro\u00dfe Museum", "overview": "This feature documentary portrays one of the most important museums in the world,  the Kunsthistorisches Museum Wien. It presents a unique look behind the scenes of  this fascinating institution and encounters a number of charismatic protagonists and  their working fields unfolding the museum\u2019s special world \u2013 as an art institution as  well a vehicle for state representation.", "poster_path": "/hwln6hcZJ1nI6WB8ZxHomx6GIGD.jpg", "release_date": "2014-04-26", "title": "The Great Museum", "video": false, "vote_average": 6.5, "vote_count": 7, "popularity": 1.788}, {"adult": false, "backdrop_path": "/Xw9MEZPV1hWcqYKL2DOsaAQpew.jpg", "genre_ids": [99], "id": 173488, "original_language": "en", "original_title": "Spark: A Burning Man Story", "overview": "Each year, 60,000 people from around the globe gather in a dusty windswept Nevada desert to build a temporary city, collaborating on large-scale art and partying for a week before burning a giant effigy in a ritual frenzy. Spark takes a peek behind the curtain with Burning Man organizers and participants, revealing a year of unprecedented challenges and growth.", "poster_path": "/oWEqfWS79oPK9a3RFO9dCUnvEWZ.jpg", "release_date": "2013-08-16", "title": "Spark: A Burning Man Story", "video": false, "vote_average": 6.3, "vote_count": 5, "popularity": 3.461}, {"adult": false, "backdrop_path": "/cxADpvVKn3ttdbdrf5szEsOgxhP.jpg", "genre_ids": [99], "id": 402436, "original_language": "en", "original_title": "Miso Hungry", "overview": "Imagine eating nothing but traditional, authentic Japanese cooking for 12 weeks. What sort of health benefits would this kind of diet have on one's body? In a dieting experiment similar to Supersize Me, but towards improving health, award-winning actor and comedian Craig Anderson does just this. Through a series of entertaining and educational scenarios filled with culinary secrets and cultural chaos, Craig investigates how the traditional Japanese diet, along with their active lifestyles, results in the Japanese population being the healthiest and longest living people on the planet. Miso Hungry is a light-hearted documentary about one man's journey to find a simple, painless path towards a healthier life.", "poster_path": "/vUgdDlJjGY28YQAwA0jQguRW9fb.jpg", "release_date": "2016-06-14", "title": "Miso Hungry", "video": false, "vote_average": 7.0, "vote_count": 7, "popularity": 1.959}, {"adult": false, "backdrop_path": "/82iyqZ30o6ff96kSSRn0YFeqmSZ.jpg", "genre_ids": [99], "id": 396126, "original_language": "en", "original_title": "Sustainable", "overview": "This film weaves together expert analysis of America's food and farming system with a powerful narrative of one extraordinary farmer who is determined to create a sustainable future for his community.", "poster_path": "/h6ZhcjWgafI5MFLK5GK69cUDKLZ.jpg", "release_date": "2016-05-22", "title": "Sustainable", "video": false, "vote_average": 7.0, "vote_count": 16, "popularity": 4.27}, {"adult": false, "backdrop_path": "/1NgaEIv3ucwTpe0oVsr6rR427go.jpg", "genre_ids": [18, 10402], "id": 110550, "original_language": "en", "original_title": "I Used to Be Darker", "overview": "When Taryn, a Northern Irish runaway, finds herself in trouble in Ocean City, MD, she seeks refuge with her aunt and uncle in Baltimore. But Kim and Bill have problems of their own: they\u2019re trying to handle the end of their marriage gracefully for the sake of their daughter Abby, just home from her first year of college. A story of family revelations, people finding each other and letting each other go, looking for love where they\u2019ve found it before and, when that doesn\u2019t work, figuring out where they might find it next.", "poster_path": "/3nuGtSlgOZpibwKy1df8h8yb5sY.jpg", "release_date": "2013-10-04", "title": "I Used to Be Darker", "video": false, "vote_average": 6.1, "vote_count": 17, "popularity": 4.853}], "total_pages": 1, "total_results": 5}, "credits": {"cast": [{"cast_id": 1, "character": "Drug Smuggler", "credit_id": "56b26ee69251410338000c93", "gender": 2, "id": 1572137, "name": "Michael Delgado", "order": 1, "profile_path": "/biAj5hY3q8i1dbu5UW9i66HS9aF.jpg"}, {"cast_id": 2, "character": "Neal Purcell", "credit_id": "56b26ef19251410345000c6d", "gender": 0, "id": 1432300, "name": "Taylor Bottles", "order": 2, "profile_path": null}, {"cast_id": 3, "character": "Michael Randall", "credit_id": "56b26efec3a36845b7000c9a", "gender": 0, "id": 1572138, "name": "Gunner Greyson", "order": 3, "profile_path": null}], "crew": [{"credit_id": "56b26ed29251410338000c8e", "department": "Directing", "gender": 0, "id": 1572136, "job": "Director", "name": "William A. Kirkley", "profile_path": null}]}}