{"adult": false, "backdrop_path": "/gIDkOrQQ48n9I3nHpwVX4T7mk57.jpg", "belongs_to_collection": null, "budget": 0, "genres": [{"id": 18, "name": "Drama"}, {"id": 10752, "name": "War"}, {"id": 878, "name": "Science Fiction"}], "homepage": "", "id": 38154, "imdb_id": "tt0406941", "original_language": "ja", "original_title": "\u30ed\u30fc\u30ec\u30e9\u30a4", "overview": "A drama set during World War II where a submarine carrying a secret weapon attempts to stop a planned third atomic bombing of Japan. Based on Harutoshi Fukui's novel Shuusen no Lorelei.", "popularity": 3.543, "poster_path": "/5R77hCWUF36A9cUfxsnPni6ew5P.jpg", "production_companies": [{"id": 7550, "logo_path": null, "name": "Protean Image Group", "origin_country": ""}], "production_countries": [{"iso_3166_1": "JP", "name": "Japan"}], "release_date": "2005-03-05", "revenue": 0, "runtime": 128, "spoken_languages": [{"iso_639_1": "en", "name": "English"}, {"iso_639_1": "ja", "name": "\u65e5\u672c\u8a9e"}], "status": "Released", "tagline": "", "title": "Lorelei: The Witch of the Pacific Ocean", "video": false, "vote_average": 4.8, "vote_count": 6, "keywords": {"keywords": [{"id": 339, "name": "submarine"}, {"id": 12026, "name": "alternate history"}, {"id": 232864, "name": "secret weapon"}]}, "similar": {"page": 1, "results": [{"adult": false, "backdrop_path": "/fYr0fqT9NImOuaN1QgnDHgGh4Ci.jpg", "genre_ids": [16, 10751, 12, 878], "id": 10865, "original_language": "en", "original_title": "Atlantis: The Lost Empire", "overview": "The world's most highly qualified crew of archaeologists and explorers is led by historian Milo Thatch as they board the incredible 1,000-foot submarine Ulysses and head deep into the mysteries of the sea. The underwater expedition takes an unexpected turn when the team's mission must switch from exploring Atlantis to protecting it.", "poster_path": "/jEMF8s7k4XsTnldISqtD0IuGrnS.jpg", "release_date": "2001-06-02", "title": "Atlantis: The Lost Empire", "video": false, "vote_average": 6.9, "vote_count": 2846, "popularity": 24.805}, {"id": 173, "video": false, "vote_count": 368, "vote_average": 7.0, "title": "20,000 Leagues Under the Sea", "release_date": "1954-05-13", "original_language": "en", "original_title": "20,000 Leagues Under the Sea", "genre_ids": [12, 878], "backdrop_path": "/y2PFn5oP0jWt5Kk0EwFcWenqawp.jpg", "adult": false, "overview": "A ship sent to investigate a wave of mysterious sinkings encounters the advanced submarine, the Nautilus, commanded by Captain Nemo.", "poster_path": "/yhoL2CxBp9IwMhHrCj6FIb2lrYR.jpg", "popularity": 15.509}, {"id": 2756, "video": false, "vote_count": 1513, "vote_average": 7.3, "title": "The Abyss", "release_date": "1989-08-09", "original_language": "en", "original_title": "The Abyss", "genre_ids": [28, 12, 878, 53], "backdrop_path": "/uvjzesOBQqlR2x7tEAcuWsPdjW8.jpg", "adult": false, "overview": "A civilian oil rig crew is recruited to conduct a search and rescue effort when a nuclear submarine mysteriously sinks. One diver soon finds himself on a spectacular odyssey 25,000 feet below the ocean's surface where he confronts a mysterious force that has the power to change the world or destroy it.", "poster_path": "/kRP5dGXDhKt7bDpXX4YBa4dRwlL.jpg", "popularity": 17.186}, {"adult": false, "backdrop_path": "/mc0PbKrrFRCUEpI09reR3ihHrIo.jpg", "genre_ids": [18, 36, 10752], "id": 387, "original_language": "de", "original_title": "Das Boot", "overview": "A German submarine hunts allied ships during the Second World War, but it soon becomes the hunted. The crew tries to survive below the surface, while stretching both the boat and themselves to their limits.", "poster_path": "/kI1rptTkqDWj6SBRsYwguBvPViT.jpg", "release_date": "1981-09-16", "title": "Das Boot", "video": false, "vote_average": 8.1, "vote_count": 1084, "popularity": 20.12}, {"adult": false, "backdrop_path": "/2GXQriEd9Rp4TdbESq5dk7lapNh.jpg", "genre_ids": [12, 53, 18], "id": 246080, "original_language": "en", "original_title": "Black Sea", "overview": "A rogue submarine captain pulls together a misfit crew to go after a sunken treasure rumored to be lost in the depths of the Black Sea. As greed and desperation take control on-board their claustrophobic vessel, the increasing uncertainty of the mission causes the men to turn on each other to fight for their own survival.", "poster_path": "/ghac5aKzS0tsmBhXXAWURcEEVk0.jpg", "release_date": "2014-12-05", "title": "Black Sea", "video": false, "vote_average": 6.3, "vote_count": 676, "popularity": 7.781}, {"id": 165, "video": false, "vote_count": 7689, "vote_average": 7.7, "title": "Back to the Future Part II", "release_date": "1989-11-22", "original_language": "en", "original_title": "Back to the Future Part II", "genre_ids": [12, 35, 878, 10751], "backdrop_path": "/snLFUFzWUZCdYkAbhZlaGJxiY3I.jpg", "adult": false, "overview": "Marty and Doc are at it again in this wacky sequel to the 1985 blockbuster as the time-traveling duo head to 2015 to nip some McFly family woes in the bud. But things go awry thanks to bully Biff Tannen and a pesky sports almanac. In a last-ditch attempt to set things straight, Marty finds himself bound for 1955 and face to face with his teenage parents -- again.", "poster_path": "/k5dzvCQkXU2CAhLtlj9BHE7xmyK.jpg", "popularity": 18.286}, {"id": 818, "video": false, "vote_count": 1920, "vote_average": 5.9, "title": "Austin Powers in Goldmember", "release_date": "2002-07-26", "original_language": "en", "original_title": "Austin Powers in Goldmember", "genre_ids": [35, 80, 878], "backdrop_path": "/mzZraP6PV34eVjB8giKbKIMXVeW.jpg", "adult": false, "overview": "The world's most shagadelic spy continues his fight against Dr. Evil. This time, the diabolical doctor and his clone, Mini-Me, team up with a new foe -- '70s kingpin Goldmember. While pursuing the team of villains to stop them from world domination, Austin gets help from his dad and an old girlfriend.", "poster_path": "/tFR7dTbX5BsmoUwKHfa2cWoZbwK.jpg", "popularity": 23.167}, {"id": 443791, "video": false, "vote_count": 120, "vote_average": 5.8, "title": "Underwater", "release_date": "2020-01-08", "original_language": "en", "original_title": "Underwater", "genre_ids": [27, 878, 53], "backdrop_path": "/fYPiQewg7ogbzro2XcCTACSB2KC.jpg", "adult": false, "overview": "After an earthquake destroys their underwater station, six researchers must navigate two miles along the dangerous, unknown depths of the ocean floor to make it to safety in a race against time.", "poster_path": "/jlHL2BH176JApGiLnNQLQgdjMFd.jpg", "popularity": 74.521}, {"id": 401200, "video": false, "vote_count": 200, "vote_average": 6.6, "title": "Kursk", "release_date": "2018-11-07", "original_language": "en", "original_title": "Kursk", "genre_ids": [28, 18, 36, 53], "backdrop_path": "/apjcuU7u2MsSVmJCMaIIQwnlvNl.jpg", "adult": false, "overview": "Barents Sea, August 12th, 2000. During a Russian naval exercise, and after suffering a serious accident, the K-141 Kursk submarine sinks with 118 crew members on board. While the few sailors who are still alive barely manage to survive, their families push for accurate information and a British officer struggles to obtain from the Russian government a permit to attempt a rescue before it is late. But general incompetence are against all their efforts.", "poster_path": "/1Y09MkMJ8CESSPW4fcbDm9s5cAS.jpg", "popularity": 20.089}, {"adult": false, "backdrop_path": "/yosGyMJ2CkavMSGx6PhcZO6kCAV.jpg", "genre_ids": [878], "id": 17654, "original_language": "en", "original_title": "District 9", "overview": "Thirty years ago, aliens arrive on Earth. Not to conquer or give aid, but to find refuge from their dying planet. Separated from humans in a South African area called District 9, the aliens are managed by Multi-National United, which is unconcerned with the aliens' welfare but will do anything to master their advanced technology. When a company field agent contracts a mysterious virus that begins to alter his DNA, there is only one place he can hide: District 9.", "poster_path": "/axFmCRNQsW6Bto8XuJKo08MPPV5.jpg", "release_date": "2009-08-05", "title": "District 9", "video": false, "vote_average": 7.3, "vote_count": 5940, "popularity": 17.44}, {"id": 8665, "video": false, "vote_count": 501, "vote_average": 6.4, "title": "K-19: The Widowmaker", "release_date": "2002-07-19", "original_language": "en", "original_title": "K-19: The Widowmaker", "genre_ids": [18, 36, 9648, 53, 10752], "backdrop_path": "/tPhbQaiiFauAipdEuc9TQVgOmn6.jpg", "adult": false, "overview": "When Russia's first nuclear submarine malfunctions on its maiden voyage, the crew must race to save the ship and prevent a nuclear disaster.", "poster_path": "/sRLT9pkLnC9gjYnixxw99iLImzN.jpg", "popularity": 17.656}, {"adult": false, "backdrop_path": "/pc7a2qrIkIxzqWGqcexd3mHzIxy.jpg", "genre_ids": [28, 53, 12], "id": 56292, "original_language": "en", "original_title": "Mission: Impossible - Ghost Protocol", "overview": "Ethan Hunt and his team are racing against time to track down a dangerous terrorist named Hendricks, who has gained access to Russian nuclear launch codes and is planning a strike on the United States. An attempt to stop him ends in an explosion causing severe destruction to the Kremlin and the IMF to be implicated in the bombing, forcing the President to disavow them. No longer being aided by the government, Ethan and his team chase Hendricks around the globe, although they might still be too late to stop a disaster.", "poster_path": "/s58mMsgIVOFfoXPtwPWJ3hDYpXf.jpg", "release_date": "2011-12-07", "title": "Mission: Impossible - Ghost Protocol", "video": false, "vote_average": 7.0, "vote_count": 6591, "popularity": 29.242}, {"id": 399402, "video": false, "vote_count": 892, "vote_average": 6.4, "title": "Hunter Killer", "release_date": "2018-10-19", "original_language": "en", "original_title": "Hunter Killer", "genre_ids": [28, 53], "backdrop_path": "/gCIB3DdK00DyfwosVGf7pnFFdK3.jpg", "adult": false, "overview": "Captain Glass of the USS Arkansas discovers that a coup d'\u00e9tat is taking place in Russia, so he and his crew join an elite group working on the ground to prevent a war.", "poster_path": "/a0j18XNVhP4RcW3wXwsqT0kVoQm.jpg", "popularity": 30.283}, {"id": 337339, "video": false, "vote_count": 6807, "vote_average": 6.9, "title": "The Fate of the Furious", "release_date": "2017-04-12", "original_language": "en", "original_title": "The Fate of the Furious", "genre_ids": [28, 80, 53], "backdrop_path": "/jzdnhRhG0dsuYorwvSqPqqnM1cV.jpg", "adult": false, "overview": "When a mysterious woman seduces Dom into the world of crime and a betrayal of those closest to him, the crew face trials that will test them as never before.", "poster_path": "/dImWM7GJqryWJO9LHa3XQ8DD5NH.jpg", "popularity": 27.507}, {"adult": false, "backdrop_path": "/pDuD96Fz0ZZXf9buEvRu1UQsmFT.jpg", "genre_ids": [12, 16, 10751], "id": 105864, "original_language": "en", "original_title": "The Good Dinosaur", "overview": "An epic journey into the world of dinosaurs where an Apatosaurus named Arlo makes an unlikely human friend.", "poster_path": "/2ZckiMTfSkCep2JTtZbr73tnQbN.jpg", "release_date": "2015-11-14", "title": "The Good Dinosaur", "video": false, "vote_average": 6.7, "vote_count": 3443, "popularity": 20.847}, {"id": 1669, "video": false, "vote_count": 1714, "vote_average": 7.4, "title": "The Hunt for Red October", "release_date": "1990-03-02", "original_language": "en", "original_title": "The Hunt for Red October", "genre_ids": [28, 12, 53], "backdrop_path": "/pXBGI43RCsbxNQNEPnkXC6GQMx3.jpg", "adult": false, "overview": "A new, technologically-superior Soviet sub, the Red October, is heading for the U.S. coast under the command of Captain Marko Ramius. The American government thinks Ramius is planning to attack. A lone CIA analyst has a different idea: he thinks Ramius is planning to defect, but he has only a few hours to find him and prove it \u2014 because the entire Russian naval and air commands are trying to find him, too.", "poster_path": "/bqvlKYlWq2uibsuVzKTWseeccd2.jpg", "popularity": 17.525}, {"id": 49953, "video": false, "vote_count": 365, "vote_average": 5.8, "title": "A Turtle's Tale: Sammy's Adventures", "release_date": "2010-08-03", "original_language": "en", "original_title": "A Turtle's Tale: Sammy's Adventures", "genre_ids": [16, 10751], "backdrop_path": "/qT6LwRSlc3GPdiWkqz0J32fjG7O.jpg", "adult": false, "overview": "A sea turtle who was hatched in 1959 spends the next 50 years traveling the world while it is being changed by global warming. Born on a Baja, California beach in 1959, new hatchling Sammy must do what his fellow newborn sea turtles are doing: race across the beach to the ocean before they are captured by a seagull or crab. Thus begins Sammy's incredible fifty-year ocean journey. Along the way he meets his best friend, a fellow turtle named Ray, and overcomes obstacles both natural and man-made while trying to fulfill his dream of travelling around the world. Throughout his voyage, Sammy never forgets about Shelly - the turtle he saved on his first day and loves passionately from afar. Based on the actual trajectory of a sea turtle's life, the film illustrates the dangers humans pose to the species' survival. The film combines entertainment with an important environmental message.", "poster_path": "/yywGlSbbcw1WeikWqVY2yxiMsTL.jpg", "popularity": 17.487}, {"id": 12, "video": false, "vote_count": 12756, "vote_average": 7.8, "title": "Finding Nemo", "release_date": "2003-05-30", "original_language": "en", "original_title": "Finding Nemo", "genre_ids": [16, 10751], "backdrop_path": "/2Vv4suw1ja7RpnR6FaXAOihI68g.jpg", "adult": false, "overview": "Nemo, an adventurous young clownfish, is unexpectedly taken from his Great Barrier Reef home to a dentist's office aquarium. It's up to his worrisome father Marlin and a friendly but forgetful fish Dory to bring Nemo home -- meeting vegetarian sharks, surfer dude turtles, hypnotic jellyfish, hungry seagulls, and more along the way.", "poster_path": "/syPWyeeqzTQIxjIUaIFI7d0TyEY.jpg", "popularity": 41.069}, {"id": 480105, "video": false, "vote_count": 375, "vote_average": 4.9, "title": "47 Meters Down: Uncaged", "release_date": "2019-08-15", "original_language": "en", "original_title": "47 Meters Down: Uncaged", "genre_ids": [12, 27, 53], "backdrop_path": "/3uG3aOhEzFCjcQulsJQiAzLSrw8.jpg", "adult": false, "overview": "Four teenage girls go on a diving adventure to explore a submerged Mayan city. Once inside, their rush of excitement turns into a jolt of terror as they discover the sunken ruins are a hunting ground for deadly great white sharks. With their air supply steadily dwindling, the friends must navigate the underwater labyrinth of claustrophobic caves and eerie tunnels in search of a way out of their watery hell.", "poster_path": "/g4z7mDmJmx23vsVg6XNWcnXb6gc.jpg", "popularity": 51.02}, {"id": 699, "video": false, "vote_count": 908, "vote_average": 6.5, "title": "For Your Eyes Only", "release_date": "1981-06-23", "original_language": "en", "original_title": "For Your Eyes Only", "genre_ids": [28, 12, 53], "backdrop_path": "/hg8ecg8LrR8ChvZh4aMETNUraGA.jpg", "adult": false, "overview": "A British spy ship has sunk and on board was a hi-tech encryption device. James Bond is sent to find the device that holds British launching instructions before the enemy Soviets get to it first.", "poster_path": "/vpZZZ2eq8z4I6PSeGxR2UWNciGG.jpg", "popularity": 18.605}], "total_pages": 12, "total_results": 225}, "recommendations": {"page": 1, "results": [], "total_pages": 1, "total_results": 0}, "credits": {"cast": [{"cast_id": 11, "character": "Masami Shin'ichi", "credit_id": "52fe469a9251416c91059b29", "gender": 2, "id": 18056, "name": "Koji Yakusho", "order": 0, "profile_path": "/335KyAEeShSkGQ53TMRYkIjbO0c.jpg"}, {"cast_id": 12, "character": "Yukito Origasa", "credit_id": "52fe469a9251416c91059b2d", "gender": 2, "id": 80108, "name": "Satoshi Tsumabuki", "order": 1, "profile_path": "/tUCHPVRBfNRpc3yNT23I15g4Dx2.jpg"}, {"cast_id": 19, "character": "Paula Atsuko Ebner", "credit_id": "52fe469a9251416c91059b45", "gender": 1, "id": 97563, "name": "Yuu Kashii", "order": 2, "profile_path": "/iwAQLMCAietL77gSuQbnEt4abNe.jpg"}, {"cast_id": 15, "character": "Asakura Ryokitsu", "credit_id": "52fe469a9251416c91059b35", "gender": 2, "id": 58596, "name": "Shinichi Tsutsumi", "order": 3, "profile_path": "/fmyk4NPuSgdOTgkMzhEfsCok1dz.jpg"}, {"cast_id": 23, "character": "Kizaki Toshiro", "credit_id": "54c26fe59251412446003ba7", "gender": 2, "id": 234645, "name": "Toshir\u014d Yanagiba", "order": 4, "profile_path": "/6ZkaxROVVltkgIT7UPAordfVCr9.jpg"}, {"cast_id": 16, "character": "Narumi Takasu", "credit_id": "52fe469a9251416c91059b39", "gender": 0, "id": 553890, "name": "Ken Ishiguro", "order": 5, "profile_path": "/F9PwtE6JCxkhcjrGX97m5D6tp2.jpg"}, {"cast_id": 17, "character": "Lt. Eric Minott", "credit_id": "52fe469a9251416c91059b3d", "gender": 0, "id": 174235, "name": "Colter Allison", "order": 6, "profile_path": null}, {"cast_id": 18, "character": "Lt. Dodet", "credit_id": "52fe469a9251416c91059b41", "gender": 2, "id": 61515, "name": "David Austin", "order": 7, "profile_path": "/ukmx7ylzysXxzo1vwiujhHadxnn.jpg"}, {"cast_id": 22, "character": "", "credit_id": "54a1e4bb925141190d002234", "gender": 0, "id": 1248335, "name": "Takaya Kamikawa", "order": 8, "profile_path": "/mibOikwrP2AFNIKGUdS7uq5Yfd7.jpg"}, {"cast_id": 24, "character": "", "credit_id": "552e86cdc3a368618e008727", "gender": 0, "id": 96473, "name": "Shugo Oshinari", "order": 9, "profile_path": "/8zms5e9AOTvkhClPaKsINnWc0xR.jpg"}, {"cast_id": 25, "character": "", "credit_id": "552e86d9c3a3683f0d002459", "gender": 2, "id": 2541, "name": "Jun Kunimura", "order": 10, "profile_path": "/zMf3lIodQvte4VDnCBnuG9ZEx72.jpg"}, {"cast_id": 26, "character": "", "credit_id": "552e87099251410965000370", "gender": 2, "id": 554573, "name": "Isao Hashizume", "order": 11, "profile_path": "/feeDRBuNzFzWfpgcHgUy79ZCYI2.jpg"}, {"cast_id": 27, "character": "", "credit_id": "552e871192514138380023cc", "gender": 2, "id": 93892, "name": "Masat\u014d Ibu", "order": 12, "profile_path": "/oVy1sMt7DVttkG5Gpxcv6ullVU9.jpg"}, {"cast_id": 28, "character": "", "credit_id": "552e871a92514103ce0074d8", "gender": 2, "id": 544088, "name": "Takehiko Ono", "order": 13, "profile_path": "/4M4qU0Lydx56MwrmxSkOztwOf8H.jpg"}, {"cast_id": 29, "character": "", "credit_id": "552e8724c3a368618e00872d", "gender": 2, "id": 121797, "name": "Ryuta Sato", "order": 14, "profile_path": "/3ksWC53ryoLmNHsVCAVG7utuwME.jpg"}, {"cast_id": 30, "character": "", "credit_id": "552e872ac3a36804cd00105d", "gender": 2, "id": 120434, "name": "Pierre Taki", "order": 15, "profile_path": "/n6LKguACBEWMM2FNCqTQVEM7Lpx.jpg"}, {"cast_id": 31, "character": "", "credit_id": "552e8731c3a3686be20030c6", "gender": 2, "id": 58665, "name": "Shingo Tsurumi", "order": 16, "profile_path": "/564J9omYeVURMOWnxR6iv3WQ5dR.jpg"}, {"cast_id": 32, "character": "", "credit_id": "552e874d9251410965000372", "gender": 0, "id": 930413, "name": "Sawako Agawa", "order": 17, "profile_path": null}, {"cast_id": 33, "character": "", "credit_id": "552e876cc3a3683f0d002462", "gender": 0, "id": 1405922, "name": "Makoto Awane", "order": 18, "profile_path": null}, {"cast_id": 34, "character": "", "credit_id": "552e877e9251413f9c000ed6", "gender": 0, "id": 135202, "name": "Hajime Inoue", "order": 19, "profile_path": "/gUKThkLx4CjNTtUzN6Jf3OEBmZ4.jpg"}, {"cast_id": 35, "character": "", "credit_id": "552e87889251413f9c000ed8", "gender": 2, "id": 1403509, "name": "Yuji Yoshimasu", "order": 20, "profile_path": "/voUGP9Msx6A1m8HAznRIx7KRcF7.jpg"}, {"cast_id": 36, "character": "", "credit_id": "552e87949251413f9c000edb", "gender": 0, "id": 142676, "name": "Hiroshi \u00d4k\u00f4chi", "order": 21, "profile_path": null}, {"cast_id": 37, "character": "", "credit_id": "552e879bc3a36804cd001066", "gender": 0, "id": 551502, "name": "Masahiro Noguchi", "order": 22, "profile_path": null}, {"cast_id": 38, "character": "", "credit_id": "57e7e92b925141390b01209b", "gender": 2, "id": 1684104, "name": "KREVA", "order": 23, "profile_path": "/ax6zWbHiDxJDJN7ddhcoEcQOscF.jpg"}], "crew": [{"credit_id": "5c62e04dc3a36825e7d57e34", "department": "Camera", "gender": 0, "id": 43658, "job": "Director of Photography", "name": "Akira Sako", "profile_path": "/phgXAOn0cYev0mpKnoTAJybOjJC.jpg"}, {"credit_id": "52fe469a9251416c91059afb", "department": "Directing", "gender": 2, "id": 80752, "job": "Director", "name": "Shinji Higuchi", "profile_path": "/9FNkAnJyZibz2E1I6Jn6rgQVqkb.jpg"}, {"credit_id": "52fe469a9251416c91059b13", "department": "Costume & Make-Up", "gender": 2, "id": 118406, "job": "Makeup Department Head", "name": "Isao Tsuge", "profile_path": null}, {"credit_id": "52fe469a9251416c91059b51", "department": "Writing", "gender": 0, "id": 552193, "job": "Screenplay", "name": "Satoshi Suzuki", "profile_path": null}, {"credit_id": "52fe469a9251416c91059b01", "department": "Directing", "gender": 0, "id": 562940, "job": "Director", "name": "Cellin Gluck", "profile_path": null}, {"credit_id": "52fe469a9251416c91059b4b", "department": "Writing", "gender": 0, "id": 562941, "job": "Novel", "name": "Harutoshi Fukui", "profile_path": null}, {"credit_id": "52fe469a9251416c91059b07", "department": "Production", "gender": 0, "id": 562942, "job": "Line Producer", "name": "Karin Beck", "profile_path": null}, {"credit_id": "52fe469a9251416c91059b19", "department": "Visual Effects", "gender": 0, "id": 562944, "job": "Visual Effects Producer", "name": "Tetsuo Ohya", "profile_path": null}, {"credit_id": "52fe469a9251416c91059b1f", "department": "Camera", "gender": 0, "id": 562945, "job": "Still Photographer", "name": "Shane Sato", "profile_path": null}, {"credit_id": "5c62e05fc3a3684f9ed829a1", "department": "Camera", "gender": 0, "id": 562946, "job": "Director of Photography", "name": "Garry Waller", "profile_path": null}, {"credit_id": "580bcf84c3a36823df0057d8", "department": "Sound", "gender": 2, "id": 1537405, "job": "Original Music Composer", "name": "Naoki Satou", "profile_path": "/9NsrRpi86rVCZS0wMhxDJ5Mnj0A.jpg"}]}}