{"adult": false, "backdrop_path": "/byM7bfvmMw3BK9aBAZTi9nfX3G6.jpg", "belongs_to_collection": null, "budget": 0, "genres": [{"id": 28, "name": "Action"}], "homepage": "https://www.youtube.com/playlist?list=PLpwyzkZha0Z6qbceVlKbD0B6SrYaWpZVG", "id": 382088, "imdb_id": "tt5354588", "original_language": "en", "original_title": "The Division: Agent Origins", "overview": "Inspired by the groundbreaking video game and created in collaboration with innovative YouTube powerhouses CorridorDigital, RocketJump, and Devin Supertramp, Ubisoft proudly presents Tom Clancy\u2019s The Division: Agent Origins. This thrilling live action video series follows the lives of four agents of The Division as they\u2019re activated and leap headfirst into the fight to save New York City.", "popularity": 4.402, "poster_path": "/sToEISPGWqlqJqPbJ3OQSDOfieJ.jpg", "production_companies": [{"id": 73088, "logo_path": null, "name": "Ubisoft Entertainment", "origin_country": ""}, {"id": 14351, "logo_path": null, "name": "Corridor Digital", "origin_country": ""}], "production_countries": [{"iso_3166_1": "US", "name": "United States of America"}], "release_date": "2016-01-19", "revenue": 0, "runtime": 31, "spoken_languages": [{"iso_639_1": "en", "name": "English"}], "status": "Released", "tagline": "Every agent has a story", "title": "The Division: Agent Origins", "video": false, "vote_average": 6.2, "vote_count": 38, "keywords": {"keywords": [{"id": 18249, "name": "game"}, {"id": 214549, "name": "short"}]}, "similar": {"page": 1, "results": [{"id": 621733, "video": false, "vote_count": 0, "vote_average": 0.0, "title": "A Trip to the Seaside", "release_date": "2019-08-30", "original_language": "en", "original_title": "A Trip to the Seaside", "genre_ids": [99], "backdrop_path": null, "adult": false, "overview": "Experimental short film on the excitement and rush of a day trip", "poster_path": "/AuZVhpoJ4jm2LWDhoJKfxQfhDAi.jpg", "popularity": 1.324}, {"id": 14813, "video": false, "vote_count": 456, "vote_average": 7.6, "title": "Mickey's Christmas Carol", "release_date": "1983-10-19", "original_language": "en", "original_title": "Mickey's Christmas Carol", "genre_ids": [16, 10751], "backdrop_path": "/fDK3xeAcQfQ40ZUULgZshElkspa.jpg", "adult": false, "overview": "It is an adaptation of the Charles Dickens classic A Christmas Carol, featuring Scrooge McDuck as his namesake and inspiration Ebenezer Scrooge and Mickey Mouse as Bob Cratchit. This film was based on a 1972 audio musical entitled Disney's A Christmas Carol. It is a twenty-four minute animated short film produced by Walt Disney Productions as an accompaniment to a re-release of The Rescuers.", "poster_path": "/29iF1IiC3ZyJQ1kmTf4LD8p8oro.jpg", "popularity": 14.7}, {"adult": false, "backdrop_path": "/4brEMzPazQE3hv3mogj6k1a29RP.jpg", "genre_ids": [10749, 14, 16], "id": 3933, "original_language": "en", "original_title": "Corpse Bride", "overview": "Set in a 19th-century european village, this stop-motion animation feature follows the story of Victor, a young man whisked away to the underworld and wed to a mysterious corpse bride, while his real bride Victoria waits bereft in the land of the living.", "poster_path": "/o9GbcdP7rOg2m1NyUnUR3ZwNcTE.jpg", "release_date": "2005-09-12", "title": "Corpse Bride", "video": false, "vote_average": 7.4, "vote_count": 4928, "popularity": 23.702}, {"id": 326359, "video": false, "vote_count": 1180, "vote_average": 6.8, "title": "Frozen Fever", "release_date": "2015-03-09", "original_language": "en", "original_title": "Frozen Fever", "genre_ids": [12, 16, 10751], "backdrop_path": "/ubioPGniCfDiASmYYpeJs5RRNaC.jpg", "adult": false, "overview": "On Anna's birthday, Elsa and Kristoff are determined to give her the best celebration ever, but Elsa's icy powers may put more than just the party at risk.", "poster_path": "/lKJiVPzsAO9IJ4LKWXZ8vkR2bg4.jpg", "popularity": 17.218}, {"id": 150540, "video": false, "vote_count": 13957, "vote_average": 7.9, "title": "Inside Out", "release_date": "2015-06-09", "original_language": "en", "original_title": "Inside Out", "genre_ids": [16, 35, 18, 10751], "backdrop_path": "/szytSpLAyBh3ULei3x663mAv5ZT.jpg", "adult": false, "overview": "Growing up can be a bumpy road, and it's no exception for Riley, who is uprooted from her Midwest life when her father starts a new job in San Francisco. Riley's guiding emotions\u2014 Joy, Fear, Anger, Disgust and Sadness\u2014live in Headquarters, the control centre inside Riley's mind, where they help advise her through everyday life and tries to keep things positive, but the emotions conflict on how best to navigate a new city, house and school.", "poster_path": "/aAmfIX3TT40zUHGcCKrlOZRKC7u.jpg", "popularity": 57.362}, {"adult": false, "backdrop_path": "/5OeY4U2rzePxWq2rkqMajUx2gz7.jpg", "genre_ids": [16, 10751, 12, 14, 10749], "id": 812, "original_language": "en", "original_title": "Aladdin", "overview": "Princess Jasmine grows tired of being forced to remain in the palace, so she sneaks out into the marketplace, in disguise, where she meets street-urchin Aladdin.  The couple falls in love, although Jasmine may only marry a prince.  After being thrown in jail, Aladdin becomes embroiled in a plot to find a mysterious lamp, with which the evil Jafar hopes to rule the land.", "poster_path": "/mjKozYRuHc9j7SmiXmbVmCiAM0A.jpg", "release_date": "1992-11-25", "title": "Aladdin", "video": false, "vote_average": 7.6, "vote_count": 7289, "popularity": 35.494}, {"id": 9479, "video": false, "vote_count": 5316, "vote_average": 7.8, "title": "The Nightmare Before Christmas", "release_date": "1993-10-09", "original_language": "en", "original_title": "The Nightmare Before Christmas", "genre_ids": [16, 14, 10751], "backdrop_path": "/16lk65YfrDFIr6evkWRjSeOOSws.jpg", "adult": false, "overview": "Tired of scaring humans every October 31 with the same old bag of tricks, Jack Skellington, the spindly king of Halloween Town, kidnaps Santa Claus and plans to deliver shrunken heads and other ghoulish gifts to children on Christmas morning. But as Christmas approaches, Jack's rag-doll girlfriend, Sally, tries to foil his misguided plans.", "poster_path": "/6oxkO1VgKCq74fNILKAg6t2dVEt.jpg", "popularity": 18.951}, {"id": 650755, "video": false, "vote_count": 0, "vote_average": 0.0, "title": "Atordoado, Eu Permane\u00e7o Atento", "release_date": "2020-01-15", "original_language": "pt", "original_title": "Atordoado, Eu Permane\u00e7o Atento", "genre_ids": [99], "backdrop_path": null, "adult": false, "overview": "", "poster_path": "/exbM8qk6f6T44olJXcM8ix1sunL.jpg", "popularity": 5.092}, {"id": 62177, "video": false, "vote_count": 8933, "vote_average": 6.9, "title": "Brave", "release_date": "2012-06-21", "original_language": "en", "original_title": "Brave", "genre_ids": [28, 12, 16, 35, 14, 10751], "backdrop_path": "/sfRCA9g3CunpnZO3QurHSIRcsUq.jpg", "adult": false, "overview": "Brave is set in the mystical Scottish Highlands, where M\u00e9rida is the princess of a kingdom ruled by King Fergus and Queen Elinor. An unruly daughter and an accomplished archer, M\u00e9rida one day defies a sacred custom of the land and inadvertently brings turmoil to the kingdom. In an attempt to set things right, M\u00e9rida seeks out an eccentric old Wise Woman and is granted an ill-fated wish. Also figuring into M\u00e9rida\u2019s quest \u2014 and serving as comic relief \u2014 are the kingdom\u2019s three lords: the enormous Lord MacGuffin, the surly Lord Macintosh, and the disagreeable Lord Dingwall.", "poster_path": "/qhABv2d4NZLhsOOA4iBFM4rfuJC.jpg", "popularity": 40.077}, {"id": 353486, "video": false, "vote_count": 8369, "vote_average": 6.7, "title": "Jumanji: Welcome to the Jungle", "release_date": "2017-12-09", "original_language": "en", "original_title": "Jumanji: Welcome to the Jungle", "genre_ids": [28, 12, 35, 14], "backdrop_path": "/rz3TAyd5kmiJmozp3GUbYeB5Kep.jpg", "adult": false, "overview": "The tables are turned as four teenagers are sucked into Jumanji's world - pitted against rhinos, black mambas and an endless variety of jungle traps and puzzles. To survive, they'll play as characters from the game.", "poster_path": "/22hqf97LadMvkd4zDi3Bq25xSqD.jpg", "popularity": 32.707}, {"id": 10555, "video": false, "vote_count": 4064, "vote_average": 6.0, "title": "Shark Tale", "release_date": "2004-09-20", "original_language": "en", "original_title": "Shark Tale", "genre_ids": [28, 16, 35, 10751], "backdrop_path": "/v3RnhCEMu9MVxA5aHWPgVzFGdSG.jpg", "adult": false, "overview": "Oscar is a small fish whose big aspirations often get him into trouble. Meanwhile, Lenny is a great white shark with a surprising secret that no sea creature would guess: He's a vegetarian. When a lie turns Oscar into an improbable hero and Lenny becomes an outcast, the two form an unlikely friendship.", "poster_path": "/r08DpyPyhXcJTfNZAICNGMzcQ8l.jpg", "popularity": 28.177}, {"id": 260513, "video": false, "vote_count": 7538, "vote_average": 7.5, "title": "Incredibles 2", "release_date": "2018-06-14", "original_language": "en", "original_title": "Incredibles 2", "genre_ids": [28, 12, 16, 10751], "backdrop_path": "/mabuNsGJgRuCTuGqjFkWe1xdu19.jpg", "adult": false, "overview": "Elastigirl springs into action to save the day, while Mr. Incredible faces his greatest challenge yet \u2013 taking care of the problems of his three children.", "poster_path": "/9lFKBtaVIhP7E2Pk0IY1CwTKTMZ.jpg", "popularity": 44.731}, {"adult": false, "backdrop_path": "/twGxeStlGooWV3gP6ZIcSNuQ6jf.jpg", "genre_ids": [12, 16, 10751, 14], "id": 81684, "original_language": "en", "original_title": "The Gruffalo's Child", "overview": "A follow up to the 2009 animated feature and adapted from the childrens' book by Julia Donaldson and Alex Scheffler.  The Gruffalo's child explores the deep dark wood in search of the big bad mouse and meets the Snake, Owl and Fox in the process.  She eventually finds the mouse, who manages to outwit her like the Gruffalo before!", "poster_path": "/qaGH2AoaLvoGXURQtNzj1nw6oZd.jpg", "release_date": "2011-12-25", "title": "The Gruffalo's Child", "video": false, "vote_average": 6.9, "vote_count": 73, "popularity": 9.51}, {"adult": false, "backdrop_path": null, "genre_ids": [], "id": 616262, "original_language": "ar", "original_title": "All Come From Dust", "overview": "A loop of edgeless bend. You were its doom, he was its bloom. You were its tomb, he was its womb. You were its gloom, he was its loom. For Heaven and Hell, were words made of fume.", "poster_path": null, "release_date": "2019-08-13", "title": "All Come From Dust", "video": false, "vote_average": 5.0, "vote_count": 1, "popularity": 0.6}, {"adult": false, "backdrop_path": "/qFLDF62VbWyyxkwco9lwZqkGoMB.jpg", "genre_ids": [16, 10751], "id": 10895, "original_language": "en", "original_title": "Pinocchio", "overview": "Lonely toymaker Geppetto has his wishes answered when the Blue Fairy arrives to bring his wooden puppet Pinocchio to life. Before becoming a real boy, however, Pinocchio must prove he's worthy as he sets off on an adventure with his whistling sidekick and conscience, Jiminy Cricket.", "poster_path": "/gN1dQBHi4557cFduIu9njOr6knW.jpg", "release_date": "1940-02-23", "title": "Pinocchio", "video": false, "vote_average": 7.0, "vote_count": 3431, "popularity": 25.831}, {"id": 313297, "video": false, "vote_count": 2277, "vote_average": 7.7, "title": "Kubo and the Two Strings", "release_date": "2016-08-18", "original_language": "en", "original_title": "Kubo and the Two Strings", "genre_ids": [12, 16, 10751], "backdrop_path": "/aF4TrSc1IbNNtsWdwixMQNku3Dv.jpg", "adult": false, "overview": "Kubo mesmerizes the people in his village with his magical gift for spinning wild tales with origami. When he accidentally summons an evil spirit seeking vengeance, Kubo is forced to go on a quest to solve the mystery of his fallen samurai father and his mystical weaponry, as well as discover his own magical powers.", "poster_path": "/3Kr9CIIMcXTPlm6cdZ9y3QTe4Y7.jpg", "popularity": 33.362}, {"id": 533, "video": false, "vote_count": 1440, "vote_average": 6.9, "title": "Wallace & Gromit: The Curse of the Were-Rabbit", "release_date": "2005-09-04", "original_language": "en", "original_title": "Wallace & Gromit: The Curse of the Were-Rabbit", "genre_ids": [12, 16, 35, 10751], "backdrop_path": "/v45E1vDhPp2hc1dEZx5KZuRsSxX.jpg", "adult": false, "overview": "Cheese-loving eccentric Wallace and his cunning canine pal, Gromit, investigate a mystery in Nick Park's animated adventure, in which the lovable inventor and his intrepid pup run a business ridding the town of garden pests. Using only humane methods that turn their home into a halfway house for evicted vermin, the pair stumble upon a mystery involving a voracious vegetarian monster that threatens to ruin the annual veggie-growing contest.", "poster_path": "/tLryx0x9TDV5rifA9W8yUvDZFHB.jpg", "popularity": 21.23}, {"id": 856, "video": false, "vote_count": 3249, "vote_average": 7.4, "title": "Who Framed Roger Rabbit", "release_date": "1988-06-21", "original_language": "en", "original_title": "Who Framed Roger Rabbit", "genre_ids": [16, 35, 80, 14, 10751], "backdrop_path": "/9podqGmd36AJHO13HQIQHQZRTJC.jpg", "adult": false, "overview": "'Toon star Roger is worried that his wife Jessica is playing pattycake with someone else, so the studio hires detective Eddie Valiant to snoop on her. But the stakes are quickly raised when Marvin Acme is found dead and Roger is the prime suspect.", "poster_path": "/lYfRc57Kx9VgLZ48iulu0HKnM15.jpg", "popularity": 20.755}, {"id": 14836, "video": false, "vote_count": 3514, "vote_average": 7.6, "title": "Coraline", "release_date": "2009-02-05", "original_language": "en", "original_title": "Coraline", "genre_ids": [16, 10751], "backdrop_path": "/obBsMjC9dkDeoYsLxHURikW87UZ.jpg", "adult": false, "overview": "When Coraline moves to an old house, she feels bored and neglected by her parents. She finds a hidden door with a bricked up passage. During the night, she crosses the passage and finds a parallel world where everybody has buttons instead of eyes, with caring parents and all her dreams coming true. When the Other Mother invites Coraline to stay in her world forever, the girl refuses and finds that the alternate reality where she is trapped is only a trick to lure her.", "poster_path": "/ybOmHUVVXcwBQErjw7tmeE97fpO.jpg", "popularity": 25.26}, {"adult": false, "backdrop_path": "/yDmyqO3xHTVxtyM0CuqobSX3Hjr.jpg", "genre_ids": [16, 10751, 14], "id": 10144, "original_language": "en", "original_title": "The Little Mermaid", "overview": "This colorful adventure tells the story of an impetuous mermaid princess named Ariel who falls in love with the very human Prince Eric and puts everything on the line for the chance to be with him. Memorable songs and characters -- including the villainous sea witch Ursula.", "poster_path": "/6aXMusULuKFAK0ZRUlv7RJ9zHTc.jpg", "release_date": "1989-11-17", "title": "The Little Mermaid", "video": false, "vote_average": 7.3, "vote_count": 4669, "popularity": 25.992}], "total_pages": 915, "total_results": 18293}, "recommendations": {"page": 1, "results": [{"id": 99345, "video": false, "vote_count": 5, "vote_average": 5.2, "title": "The Gallant Hours", "release_date": "1960-06-13", "original_language": "en", "original_title": "The Gallant Hours", "genre_ids": [18, 10752], "backdrop_path": "/3hB7Op6fQMwlwmKzfBFzuKkCIuz.jpg", "adult": false, "overview": "A semi-documentary dramatization of five weeks in the life of Vice Admiral William F. \"Bull\" Halsey, Jr., from his assignment to command the U.S. naval operations in the South Pacific to the Allied victory at Guadalcanal.", "poster_path": "/oAm0bgwj2zdAgFKYTWxZcLC8UbY.jpg", "popularity": 3.847}, {"id": 52369, "video": false, "vote_count": 30, "vote_average": 3.9, "title": "The Pack", "release_date": "2010-09-29", "original_language": "fr", "original_title": "La Meute", "genre_ids": [27], "backdrop_path": "/17XhfKec0BzFTziwwA2fxhLtNwm.jpg", "adult": false, "overview": "In the middle of a snowy no man's land, Charlotte picks up Max, a hitchhiker; they stop in a truck-stop restaurant, and when Max doesn't come back from the bathroom, Charlotte starts looking for him in vain. She decides to return during the night but gets kidnapped by the bartender, La Spack, who turns out to be Max's mother and needs to feed her kids, 'The pack', a bunch of blood lusting ghouls. Charlotte now faces a terrifying reality: these ghouls are already dead... and hungry. Alone and in the middle of nowhere, she quickly realizes... she's next on the menu!", "poster_path": "/8BePeUipVlBjoNWFyCMfMzGyBJy.jpg", "popularity": 2.447}], "total_pages": 1, "total_results": 2}, "credits": {"cast": [{"cast_id": 2, "character": "John", "credit_id": "56bbb483c3a36860d90007d2", "gender": 0, "id": 1575483, "name": "Matt Lynch", "order": 1, "profile_path": null}, {"cast_id": 3, "character": "Everett", "credit_id": "56bbb4b3c3a36860e40007a1", "gender": 0, "id": 238352, "name": "Sasha Andreev ", "order": 2, "profile_path": null}, {"cast_id": 4, "character": "Mia", "credit_id": "56bbb4cbc3a36860ce0007f9", "gender": 0, "id": 1575484, "name": "Amanda Day", "order": 3, "profile_path": null}, {"cast_id": 5, "character": "Daryl", "credit_id": "56bbb500c3a36860e1000731", "gender": 0, "id": 1204056, "name": "Danny August Mason", "order": 4, "profile_path": null}, {"cast_id": 6, "character": "Swizz", "credit_id": "56bbb52ac3a36860ec00078e", "gender": 0, "id": 1575485, "name": "Chad Zwadlo", "order": 5, "profile_path": null}], "crew": [{"credit_id": "56bbade192514144e4000682", "department": "Directing", "gender": 0, "id": 1075520, "job": "Director", "name": "Adrian Picardi", "profile_path": null}, {"credit_id": "56bbae5092514144d1000732", "department": "Directing", "gender": 0, "id": 1575479, "job": "Director", "name": "Devin Graham", "profile_path": null}, {"credit_id": "56bbb64f92514144db0007de", "department": "Production", "gender": 2, "id": 1172115, "job": "Producer", "name": "Jake Watson", "profile_path": null}]}}