{"adult": false, "backdrop_path": "/edQ1KeQ5DWjreId97EZK9GD8ImA.jpg", "belongs_to_collection": null, "budget": 0, "genres": [{"id": 878, "name": "Science Fiction"}, {"id": 12, "name": "Adventure"}], "homepage": null, "id": 38221, "imdb_id": "tt0065776", "original_language": "ja", "original_title": "\u30b2\u30be\u30e9\u30fb\u30ac\u30cb\u30e1\u30fb\u30ab\u30e1\u30fc\u30d0 \u6c7a\u6226!\u5357\u6d77\u306e\u5927\u602a\u7363", "overview": "When a space probe crash-lands on a far-flung Pacific atoll, the craft's alien stowaways decide to take over their new world one creature at a time. Soon, the parasitic life forms latch onto three indigenous critters -- a squid, a crab and a snapping turtle -- and transform them into colossal mutant monsters.", "popularity": 4.01, "poster_path": "/bXHa7O9fRZEf5BcoOjgFivcoZZC.jpg", "production_companies": [{"id": 882, "logo_path": "/fRSWWjquvzcHjACbtF53utZFIll.png", "name": "Toho Company, Ltd.", "origin_country": "JP"}], "production_countries": [{"iso_3166_1": "JP", "name": "Japan"}], "release_date": "1970-08-01", "revenue": 0, "runtime": 84, "spoken_languages": [{"iso_639_1": "ja", "name": "\u65e5\u672c\u8a9e"}], "status": "Released", "tagline": "Hideous creatures from outer space advance to invade the earth!", "title": "Space Amoeba", "video": false, "vote_average": 5.7, "vote_count": 10, "keywords": {"keywords": [{"id": 1299, "name": "monster"}, {"id": 1612, "name": "spacecraft"}, {"id": 2041, "name": "island"}, {"id": 11100, "name": "giant monster"}, {"id": 157524, "name": "tropical island"}, {"id": 161791, "name": "kaiju"}, {"id": 172136, "name": "space monster"}, {"id": 219972, "name": "giant  squid"}, {"id": 223089, "name": "giant crab"}, {"id": 223605, "name": "giant monsters"}, {"id": 225796, "name": "giant turtle"}]}, "similar": {"page": 1, "results": [{"adult": false, "backdrop_path": "/6kVVfNT0auG6fU5SFQ1zbayNWUC.jpg", "genre_ids": [28, 53, 878], "id": 7191, "original_language": "en", "original_title": "Cloverfield", "overview": "Five young New Yorkers throw their friend a going-away party the night that a monster the size of a skyscraper descends upon the city. Told from the point of view of their video camera, the film is a document of their attempt to survive the most surreal, horrifying event of their lives.", "poster_path": "/qIegUGJqyMMCRjkKV1s7A9MqdJ8.jpg", "release_date": "2008-01-15", "title": "Cloverfield", "video": false, "vote_average": 6.5, "vote_count": 4423, "popularity": 14.46}, {"adult": false, "backdrop_path": "/5Hj5fPpmXbREYk8f1n7JFguSHHE.jpg", "genre_ids": [28, 14, 878], "id": 15766, "original_language": "ja", "original_title": "\u4e09\u5927\u602a\u7363\u3000\u5730\u7403\u6700\u5927\u306e\u6c7a\u6226", "overview": "The Princess Mas Selina Salno is seemingly assassinated as a mysterious meteorite lands in Kurobe Valley. When a scientific expedition examines the meteorite, they discover the rock is growing, producing heat and has a strong magnetic pull. Soon a prophetess, with a striking resemblance to the princess, warns of great calamity in the return of Godzilla, Rodan, and the arrival of King Ghidorah.", "poster_path": "/oW4QkHaFmkKHambxeatAqCLXkw8.jpg", "release_date": "1964-12-20", "title": "Ghidorah, the Three-Headed Monster", "video": false, "vote_average": 6.4, "vote_count": 72, "popularity": 9.269}, {"id": 293167, "video": false, "vote_count": 6632, "vote_average": 6.4, "title": "Kong: Skull Island", "release_date": "2017-03-08", "original_language": "en", "original_title": "Kong: Skull Island", "genre_ids": [28, 12, 14], "backdrop_path": "/sRg0J1uvz3Yfp6WnHcL33dY4g5w.jpg", "adult": false, "overview": "Explore the mysterious and dangerous home of the king of the apes as a team of explorers ventures deep inside the treacherous, primordial island.", "poster_path": "/r2517Vz9EhDhj88qwbDVj8DCRZN.jpg", "popularity": 31.968}, {"id": 124905, "video": false, "vote_count": 5562, "vote_average": 6.1, "title": "Godzilla", "release_date": "2014-05-14", "original_language": "en", "original_title": "Godzilla", "genre_ids": [28, 18, 878], "backdrop_path": "/2WKcxQbTVkLUgoS5kPnHlecbj02.jpg", "adult": false, "overview": "Ford Brody, a Navy bomb expert, has just reunited with his family in San Francisco when he is forced to go to Japan to help his estranged father, Joe. Soon, both men are swept up in an escalating crisis when an ancient alpha predator arises from the sea to combat malevolent adversaries that threaten the survival of humanity. The creatures leave colossal destruction in their wake, as they make their way toward their final battleground: San Francisco.", "poster_path": "/szVwkB4H5yyOJBVuQ432b9boO0N.jpg", "popularity": 18.835}, {"id": 315011, "video": false, "vote_count": 400, "vote_average": 6.7, "title": "Shin Godzilla", "release_date": "2016-07-29", "original_language": "ja", "original_title": "\u30b7\u30f3\u30fb\u30b4\u30b8\u30e9", "genre_ids": [28, 27, 878], "backdrop_path": "/9nyToPG5mhfm4KiPGChu35jH9QZ.jpg", "adult": false, "overview": "When a massive, gilled monster emerges from the deep and tears through the city, the government scrambles to save its citizens.  A rag-tag team of volunteers cuts through a web of red tape to uncover the monster's weakness and its mysterious ties to a foreign superpower.  But time is not on their side - the greatest catastrophe to ever befall the world is about to evolve right before their very eyes.", "poster_path": "/8YWirGQidtZeSEmhqvQM5FrI6N1.jpg", "popularity": 14.527}, {"adult": false, "backdrop_path": "/vWMMbg6HHUqNa9gflRfEeEcZwMJ.jpg", "genre_ids": [12, 878, 28], "id": 26947, "original_language": "ja", "original_title": "\u30ac\u30e1\u30e9\u5bfe\u5927\u60aa\u7363\u30ae\u30ed\u30f3", "overview": "Aliens kidnap two children and take them to another planet for the purpose of getting knowledge from their brains, but Gamera follows and tries to rescue them.", "poster_path": "/3za9IrLJvvVdjWgGMKmN4bbryK.jpg", "release_date": "1969-03-21", "title": "Gamera vs. Guiron", "video": false, "vote_average": 4.4, "vote_count": 26, "popularity": 5.772}, {"adult": false, "backdrop_path": "/jAfDrjH0tIqzsJpwmY6yTfP0Big.jpg", "genre_ids": [10749, 878, 28, 12], "id": 19545, "original_language": "ja", "original_title": "\u602a\u7363\u5927\u6226\u4e89", "overview": "Mysterious aliens known as Xiliens arrive from Planet X and ask Earth's people to help them save their world from \"Monster Zero\".  In exchange for borrowing Godzilla and Rodan, the Xiliens offer a cure for  cancer. Sent on the expedition are astronauts Glenn and Fuji who discover Monster Zero is none other than King Ghidorah.", "poster_path": "/nNX5PVGZj40vVCQHkn2kpnoq5mJ.jpg", "release_date": "1965-12-19", "title": "Invasion of Astro-Monster", "video": false, "vote_average": 6.4, "vote_count": 55, "popularity": 9.128}, {"adult": false, "backdrop_path": "/y5qDjStKZ6y4IHQDhJGMlfZwH92.jpg", "genre_ids": [18, 14, 878], "id": 339967, "original_language": "en", "original_title": "Colossal", "overview": "A woman discovers that severe catastrophic events are somehow connected to the mental breakdown from which she's suffering.", "poster_path": "/4VOyofBd1pexblxtDZYtYIk7NI4.jpg", "release_date": "2016-06-30", "title": "Colossal", "video": false, "vote_average": 6.1, "vote_count": 1144, "popularity": 11.602}, {"id": 3980, "video": false, "vote_count": 424, "vote_average": 6.1, "title": "Critters", "release_date": "1986-04-11", "original_language": "en", "original_title": "Critters", "genre_ids": [28, 35, 27, 878, 53], "backdrop_path": "/dqUw5SO18T8qFs8A0NVq85M5Of3.jpg", "adult": false, "overview": "A massive ball of furry creatures from another world eat their way through a small mid-western town followed by intergalactic bounty hunters opposed only by militant townspeople.", "poster_path": "/zLL6nX13AfigvvNQ9GyNXhKVrmg.jpg", "popularity": 16.268}, {"adult": false, "backdrop_path": "/iLvqbCanH1liQ5VERCyCR31GkkL.jpg", "genre_ids": [35, 27, 878], "id": 15762, "original_language": "en", "original_title": "Night of the Creeps", "overview": "In 1959, an alien experiment crashes to earth and infects a fraternity member. They freeze the body, but in the modern day, two geeks pledging a fraternity accidentally thaw the corpse, which proceeds to infect the campus with parasites that transform their hosts into killer zombies.", "poster_path": "/A3s2tQGNb6mhlr1hPZeE5F8IUwp.jpg", "release_date": "1986-08-21", "title": "Night of the Creeps", "video": false, "vote_average": 6.6, "vote_count": 219, "popularity": 10.886}, {"id": 602, "video": false, "vote_count": 6001, "vote_average": 6.8, "title": "Independence Day", "release_date": "1996-06-25", "original_language": "en", "original_title": "Independence Day", "genre_ids": [28, 12, 878], "backdrop_path": "/4E2xKGrU2qcqUE2S3Nl27hwZdqy.jpg", "adult": false, "overview": "On July 2, a giant alien mothership enters orbit around Earth and deploys several dozen saucer-shaped 'destroyer' spacecraft that quickly lay waste to major cities around the planet. On July 3, the United States conducts a coordinated counterattack that fails. On July 4, a plan is devised to gain access to the interior of the alien mothership in space, in order to plant a nuclear missile.", "poster_path": "/bqLlWZJdhrS0knfEJRkquW7L8z2.jpg", "popularity": 21.566}, {"id": 49849, "video": false, "vote_count": 3359, "vote_average": 5.5, "title": "Cowboys & Aliens", "release_date": "2011-07-29", "original_language": "en", "original_title": "Cowboys & Aliens", "genre_ids": [28, 878, 53, 37], "backdrop_path": "/gTDwoJBCu7scwYQoykIlLNpkCes.jpg", "adult": false, "overview": "A stranger stumbles into the desert town of Absolution with no memory of his past and a futuristic shackle around his wrist. With the help of mysterious beauty Ella and the iron-fisted Colonel Dolarhyde, he finds himself leading an unlikely posse of cowboys, outlaws, and Apache warriors against a common enemy from beyond this world in an epic showdown for survival.", "poster_path": "/9uZsGCP4rvOHVGCpMpYq5gNCuNI.jpg", "popularity": 18.7}, {"id": 54138, "video": false, "vote_count": 6596, "vote_average": 7.3, "title": "Star Trek Into Darkness", "release_date": "2013-05-05", "original_language": "en", "original_title": "Star Trek Into Darkness", "genre_ids": [28, 12, 878], "backdrop_path": "/ns0IojuqJe24AHTxe8RVcWJUCDM.jpg", "adult": false, "overview": "When the crew of the Enterprise is called back home, they find an unstoppable force of terror from within their own organization has detonated the fleet and everything it stands for, leaving our world in a state of crisis.  With a personal score to settle, Captain Kirk leads a manhunt to a war-zone world to capture a one man weapon of mass destruction. As our heroes are propelled into an epic chess game of life and death, love will be challenged, friendships will be torn apart, and sacrifices must be made for the only family Kirk has left: his crew.", "poster_path": "/41mhrXASAW3sdn7LBWF49uCX0xi.jpg", "popularity": 20.798}, {"id": 373571, "video": false, "vote_count": 1966, "vote_average": 6.2, "title": "Godzilla: King of the Monsters", "release_date": "2019-05-29", "original_language": "en", "original_title": "Godzilla: King of the Monsters", "genre_ids": [28, 878], "backdrop_path": "/cNt14e43I2DDW6Xd9zFhrP8eOcA.jpg", "adult": false, "overview": "Follows the heroic efforts of the crypto-zoological agency Monarch as its members face off against a battery of god-sized monsters, including the mighty Godzilla, who collides with Mothra, Rodan, and his ultimate nemesis, the three-headed King Ghidorah. When these ancient super-species - thought to be mere myths - rise again, they all vie for supremacy, leaving humanity's very existence hanging in the balance.", "poster_path": "/fQ40gmFM4p03tXwMxQQKh2cCBW4.jpg", "popularity": 49.185}, {"id": 135397, "video": false, "vote_count": 14919, "vote_average": 6.6, "title": "Jurassic World", "release_date": "2015-06-06", "original_language": "en", "original_title": "Jurassic World", "genre_ids": [28, 12, 878, 53], "backdrop_path": "/t5KONotASgVKq4N19RyhIthWOPG.jpg", "adult": false, "overview": "Twenty-two years after the events of Jurassic Park, Isla Nublar now features a fully functioning dinosaur theme park, Jurassic World, as originally envisioned by John Hammond.", "poster_path": "/jjBgi2r5cRt36xF6iNUEhzscEcb.jpg", "popularity": 28.861}, {"id": 427641, "video": false, "vote_count": 3660, "vote_average": 6.2, "title": "Rampage", "release_date": "2018-04-12", "original_language": "en", "original_title": "Rampage", "genre_ids": [28, 12, 14, 878], "backdrop_path": "/wrqUiMXttHE4UBFMhLHlN601MZh.jpg", "adult": false, "overview": "Primatologist Davis Okoye shares an unshakable bond with George, the extraordinarily intelligent, silverback gorilla who has been in his care since birth.  But a rogue genetic experiment gone awry mutates this gentle ape into a raging creature of enormous size.  To make matters worse, it\u2019s soon discovered there are other similarly altered animals.  As these newly created alpha predators tear across North America, destroying everything in their path, Okoye teams with a discredited genetic engineer to secure an antidote, fighting his way through an ever-changing battlefield, not only to halt a global catastrophe but to save the fearsome creature that was once his friend.", "poster_path": "/3gIO6mCd4Q4PF1tuwcyI3sjFrtI.jpg", "popularity": 29.79}, {"id": 268896, "video": false, "vote_count": 2611, "vote_average": 5.9, "title": "Pacific Rim: Uprising", "release_date": "2018-03-21", "original_language": "en", "original_title": "Pacific Rim: Uprising", "genre_ids": [28, 12, 14, 878], "backdrop_path": "/6pT73ACl5N1VekdK3wQI8PLfz1E.jpg", "adult": false, "overview": "It has been ten years since The Battle of the Breach and the oceans are still, but restless. Vindicated by the victory at the Breach, the Jaeger program has evolved into the most powerful global defense force in human history. The PPDC now calls upon the best and brightest to rise up and become the next generation of heroes when the Kaiju threat returns.", "poster_path": "/v5HlmJK9bdeHxN2QhaFP1ivjX3U.jpg", "popularity": 28.5}, {"id": 8077, "video": false, "vote_count": 3110, "vote_average": 6.3, "title": "Alien\u00b3", "release_date": "1992-05-22", "original_language": "en", "original_title": "Alien\u00b3", "genre_ids": [28, 27, 878], "backdrop_path": "/nDPuIjpJyGDOnNEby5ZgkRBxymS.jpg", "adult": false, "overview": "After escaping with Newt and Hicks from the alien planet, Ripley crash lands on Fiorina 161, a prison planet and host to a correctional facility. Unfortunately, although Newt and Hicks do not survive the crash, a more unwelcome visitor does. The prison does not allow weapons of any kind, and with aid being a long time away, the prisoners must simply survive in any way they can.", "poster_path": "/p7mUd9GpmCYV5qhkKGmiEerFK3i.jpg", "popularity": 26.484}, {"id": 126889, "video": false, "vote_count": 5385, "vote_average": 5.9, "title": "Alien: Covenant", "release_date": "2017-05-09", "original_language": "en", "original_title": "Alien: Covenant", "genre_ids": [27, 878, 53], "backdrop_path": "/6jajFcaY2YsfGQstJ5HaqZNVseX.jpg", "adult": false, "overview": "Bound for a remote planet on the far side of the galaxy, the crew of the colony ship 'Covenant' discovers what is thought to be an uncharted paradise, but is actually a dark, dangerous world\u2014which has a sole inhabitant: the 'synthetic', David, survivor of the doomed Prometheus expedition.", "poster_path": "/zecMELPbU5YMQpC81Z8ImaaXuf9.jpg", "popularity": 33.391}, {"id": 329865, "video": false, "vote_count": 11409, "vote_average": 7.5, "title": "Arrival", "release_date": "2016-11-10", "original_language": "en", "original_title": "Arrival", "genre_ids": [18, 9648, 878], "backdrop_path": "/yIZ1xendyqKvY3FGeeUYUd5X9Mm.jpg", "adult": false, "overview": "Taking place after alien crafts land around the world, an expert linguist is recruited by the military to determine whether they come in peace or are a threat.", "poster_path": "/xGgg2UI20qtEh7mura3RRwP8d3I.jpg", "popularity": 36.625}], "total_pages": 15, "total_results": 283}, "recommendations": {"page": 1, "results": [{"adult": false, "backdrop_path": "/4bvsDHOqfiGkHrIpjSNq2xY8UGZ.jpg", "genre_ids": [27, 878], "id": 43113, "original_language": "ja", "original_title": "\u7f8e\u5973\u3068\u6db2\u4f53\u4eba\u9593", "overview": "Nuclear tests create a radioactive man who can turn people into slime.", "poster_path": "/ydlHP2n9m7YvqaxwTGo7B8T1Juu.jpg", "release_date": "1958-06-24", "title": "The H-Man", "video": false, "vote_average": 6.2, "vote_count": 9, "popularity": 2.213}, {"adult": false, "backdrop_path": "/oyxhWTkkG5ZTAQWnqFemsXff4XY.jpg", "genre_ids": [28, 878], "id": 166660, "original_language": "en", "original_title": "Jurassic Attack", "overview": "While returning from a military expedition a helicopter crash lands a commando unit in a dense, remote tropical jungle \u2013 a lost world populated by dinosaurs. Now they must find a way out of this isolated valley before becoming prey for prehistoric predators.", "poster_path": "/38fYDRFOP6TD9xw6slBwq5GT3Id.jpg", "release_date": "2012-02-22", "title": "Jurassic Attack", "video": false, "vote_average": 3.8, "vote_count": 25, "popularity": 5.98}, {"adult": false, "backdrop_path": "/c6wUDRTkvznF90AOthQCthdhJbw.jpg", "genre_ids": [12, 14, 878], "id": 55663, "original_language": "en", "original_title": "Dinosaurus!", "overview": "After undersea explosions near a Caribbean island, prehistoric creatures are unleashed on the unsuspecting population.", "poster_path": "/74X36BjL7sX2a1r6VL0w60S3YiX.jpg", "release_date": "1960-08-10", "title": "Dinosaurus!", "video": false, "vote_average": 4.8, "vote_count": 15, "popularity": 3.74}, {"id": 2097, "video": false, "vote_count": 13, "vote_average": 4.0, "title": "Gappa, the Triphibian Monster", "release_date": "1967-04-22", "original_language": "ja", "original_title": "\u5927\u5de8\u7363\u30ac\u30c3\u30d1", "genre_ids": [27, 878], "backdrop_path": "/icckdOvSy9tOLzbtZYF862ajVtd.jpg", "adult": false, "overview": "An expedition in the South Pacific lands on a tropical island where the natives worship the mysterious deity Gappa. An earthquake opens up an underground cavern and a baby reptile is discovered inside. The natives warn the foreigners to leave the hatching alone, but they don't listen and take it back to a zoo in Japan. Soon after, moma and papa Gappa start smashing Tokyo looking for their kidnapped child.", "poster_path": "/vr2hK8kAMWlymSrOGYin4qhQLAP.jpg", "popularity": 3.28}], "total_pages": 1, "total_results": 4}, "credits": {"cast": [{"cast_id": 2, "character": "Taro Kudo", "credit_id": "52fe46a09251416c9105a6b3", "gender": 2, "id": 30469, "name": "Akira Kubo", "order": 0, "profile_path": "/twe3lU2nP2sVphNgpQ1JySEpdGr.jpg"}, {"cast_id": 5, "character": "Saki, native girl", "credit_id": "52fe46a09251416c9105a6c1", "gender": 0, "id": 30471, "name": "Yukiko Kobayashi", "order": 1, "profile_path": "/sWiVN7tj7lEXl9v4M3nwliGqKLL.jpg"}, {"cast_id": 4, "character": "Ayako Hoshino", "credit_id": "52fe46a09251416c9105a6bd", "gender": 0, "id": 1117079, "name": "Atsuko Takahashi", "order": 2, "profile_path": null}, {"cast_id": 7, "character": "Dr. Kyoichi Mida", "credit_id": "52fe46a09251416c9105a6c9", "gender": 2, "id": 17540, "name": "Yoshio Tsuchiya", "order": 3, "profile_path": "/mU0dJP8dZxSucRTung1mZmL2TDh.jpg"}, {"cast_id": 14, "character": "Chieftain Ombo", "credit_id": "52fe46a09251416c9105a6e5", "gender": 2, "id": 121193, "name": "Tetsu Nakamura", "order": 4, "profile_path": null}, {"cast_id": 11, "character": "The Editor", "credit_id": "52fe46a09251416c9105a6d9", "gender": 0, "id": 108026, "name": "Sachio Sakai", "order": 5, "profile_path": "/5b6g3ZHfSXxfNgInvwz44lUv43I.jpg"}, {"cast_id": 6, "character": "Makoto Obata", "credit_id": "52fe46a09251416c9105a6c5", "gender": 2, "id": 18613, "name": "Kenji Sahara", "order": 6, "profile_path": "/oyG8bPanKNUvmncAOEwikUV18kf.jpg"}, {"cast_id": 8, "character": "Promotion Division Manager", "credit_id": "52fe46a09251416c9105a6cd", "gender": 2, "id": 144797, "name": "Y\u00fb Fujiki", "order": 7, "profile_path": "/eEM2qR278vyQHTOUkIeYvMX3GNC.jpg"}, {"cast_id": 9, "character": "Rico, the guide", "credit_id": "52fe46a09251416c9105a6d1", "gender": 0, "id": 1117080, "name": "Noritake Saito", "order": 8, "profile_path": null}, {"cast_id": 12, "character": "Yokoyama, an agent", "credit_id": "52fe46a09251416c9105a6dd", "gender": 0, "id": 30474, "name": "Ch\u00f4tar\u00f4 T\u00f4gin", "order": 9, "profile_path": "/t6rhfy9hVKl9jx8PNrfY1pKGCV5.jpg"}, {"cast_id": 13, "character": "Sakura", "credit_id": "52fe46a09251416c9105a6e1", "gender": 0, "id": 235720, "name": "Wataru \u00d4mae", "order": 10, "profile_path": "/7fvtaP6157lROlkBTwEgdarAB1R.jpg"}, {"cast_id": 15, "character": "Islander", "credit_id": "52fe46a09251416c9105a6e9", "gender": 0, "id": 235718, "name": "Yukihiko Gond\u00f4", "order": 11, "profile_path": null}, {"cast_id": 16, "character": "Islander", "credit_id": "52fe46a09251416c9105a6ed", "gender": 0, "id": 1117087, "name": "Shigeo Kat\u00f4", "order": 12, "profile_path": null}, {"cast_id": 17, "character": "Islander", "credit_id": "52fe46a09251416c9105a6f1", "gender": 0, "id": 552182, "name": "Rinsaku Ogata", "order": 13, "profile_path": null}, {"cast_id": 10, "character": "Stewardess", "credit_id": "52fe46a09251416c9105a6d5", "gender": 0, "id": 1117081, "name": "Y\u00fbko Sugihara", "order": 14, "profile_path": null}, {"cast_id": 18, "character": "Gezora/Ganimes", "credit_id": "55aafc219251411e06006471", "gender": 2, "id": 235722, "name": "Haruo Nakajima", "order": 15, "profile_path": "/yZYuoFGAMjRIAen3ThTk2Hi0LvI.jpg"}, {"cast_id": 19, "character": "Kamoebas", "credit_id": "55aafc359251411e1800615e", "gender": 0, "id": 1488353, "name": "Haruyoshi Nakamura", "order": 16, "profile_path": null}], "crew": [{"credit_id": "52fe46a09251416c9105a6af", "department": "Directing", "gender": 2, "id": 18598, "job": "Director", "name": "Ishir\u014d Honda", "profile_path": "/yKHespaSfCUcbV8S32fWh9xMTyV.jpg"}, {"credit_id": "5c13ad650e0a2603883b9aa4", "department": "Production", "gender": 2, "id": 18604, "job": "Executive Producer", "name": "Tomoyuki Tanaka", "profile_path": "/fceS19GAexPnmtVQJHG9VxaVHGZ.jpg"}, {"credit_id": "5c13ad84c3a36866c035ba0d", "department": "Camera", "gender": 0, "id": 30465, "job": "Director of Photography", "name": "Taiichi Kankura", "profile_path": null}, {"credit_id": "5c13adb50e0a2603753b99ae", "department": "Art", "gender": 0, "id": 30467, "job": "Production Design", "name": "Takeo Kita", "profile_path": null}, {"credit_id": "5c13adc9c3a36866d835c313", "department": "Directing", "gender": 0, "id": 30468, "job": "Assistant Director", "name": "Seiji Tani", "profile_path": null}, {"credit_id": "5c13ad730e0a26037c3b9b0a", "department": "Sound", "gender": 2, "id": 425396, "job": "Original Music Composer", "name": "Akira Ifukube", "profile_path": "/euxhNIeWxuvnFqr90qlN1VwZTKC.jpg"}, {"credit_id": "5c13ad370e0a2603823b99f4", "department": "Writing", "gender": 2, "id": 1044263, "job": "Screenplay", "name": "Ei Ogawa", "profile_path": null}, {"credit_id": "5c13ad9592514132c909c33a", "department": "Editing", "gender": 0, "id": 1358326, "job": "Editor", "name": "Masahisa Himi", "profile_path": null}, {"credit_id": "5c13ad510e0a2603823b99fc", "department": "Production", "gender": 0, "id": 1482069, "job": "Executive Producer", "name": "Fumio Tanaka", "profile_path": null}]}}