{"adult": false, "backdrop_path": "/ybNJdVnavN8xsbUpBF9RTpxNnFQ.jpg", "belongs_to_collection": null, "budget": 0, "genres": [{"id": 18, "name": "Drama"}, {"id": 14, "name": "Fantasy"}, {"id": 10749, "name": "Romance"}], "homepage": null, "id": 382498, "imdb_id": "tt3044650", "original_language": "de", "original_title": "Das kalte Herz", "overview": "Peter and Lisbeth are two young but unfortunate lovers living in a rigid rural community in the Black Forest. She comes from a wealthy family of glassblowers; he is a poor coal worker on the lower end of society. To become rich and respected, Peter makes a pact with a devil named Dutch Michael, who rips out his heart and replaces it with a stone. Robbed of all warmth and feeling, Peter becomes a cold-hearted go-getter who rapidly achieves his goals. Ruthlessly he strives for money and power.", "popularity": 3.49, "poster_path": "/WVQSVmXGtY3tJukP67zz9tgBgl.jpg", "production_companies": [{"id": 264, "logo_path": "/fA90qwUKgPhMONqtwY60GaHRyrW.png", "name": "Studio Babelsberg", "origin_country": "DE"}, {"id": 8265, "logo_path": null, "name": "Schmidtz Katze Filmkollektiv", "origin_country": "DE"}], "production_countries": [{"iso_3166_1": "DE", "name": "Germany"}], "release_date": "2016-10-20", "revenue": 0, "runtime": 119, "spoken_languages": [{"iso_639_1": "de", "name": "Deutsch"}], "status": "Released", "tagline": "", "title": "Heart of Stone", "video": false, "vote_average": 6.0, "vote_count": 14, "keywords": {"keywords": [{"id": 3205, "name": "fairy tale"}]}, "similar": {"page": 1, "results": [{"id": 224141, "video": false, "vote_count": 3144, "vote_average": 5.7, "title": "Into the Woods", "release_date": "2014-12-24", "original_language": "en", "original_title": "Into the Woods", "genre_ids": [35, 14], "backdrop_path": "/lzJzB0QfkjpGCm9qUC4XpEIB6pm.jpg", "adult": false, "overview": "In a woods filled with magic and fairy tale characters, a baker and his wife set out to end the curse put on them by their neighbor, a spiteful witch.", "poster_path": "/5h91odPFNlBuJbRBj5N4MEBfXDE.jpg", "popularity": 29.368}, {"id": 10882, "video": false, "vote_count": 3219, "vote_average": 6.9, "title": "Sleeping Beauty", "release_date": "1959-01-28", "original_language": "en", "original_title": "Sleeping Beauty", "genre_ids": [16, 14, 10749, 10751], "backdrop_path": "/oHZIobyIG0YzWntyPCTSJDOk9qB.jpg", "adult": false, "overview": "A beautiful princess born in a faraway kingdom is destined by a terrible curse to prick her finger on the spindle of a spinning wheel and fall into a deep sleep that can only be awakened by true love's first kiss. Determined to protect her, her parents ask three fairies to raise her in hiding. But the evil Maleficent is just as determined to seal the princess's fate.", "poster_path": "/j4YBuAe8D1jDSiitpq69og9x3Yl.jpg", "popularity": 29.356}, {"adult": false, "backdrop_path": "/eMwWyxQMQQrlossNpZV38UliO95.jpg", "genre_ids": [12, 16, 35, 10751, 14], "id": 5393, "original_language": "en", "original_title": "Happily N'Ever After", "overview": "An alliance of evil-doers, led by Frieda, looks to take over Fairy Tale Land. But when Ella realizes her stepmother is out to ruin her storybook existence, she takes a dramatic turn and blossoms into the leader of the resistance effort.", "poster_path": "/pk80r0negE6P0zlBiuaeIESttXX.jpg", "release_date": "2006-09-14", "title": "Happily N'Ever After", "video": false, "vote_average": 4.8, "vote_count": 262, "popularity": 12.331}, {"adult": false, "backdrop_path": "/wQraxOsaq0NwTO9rSwLo4Nc8hVG.jpg", "genre_ids": [10751, 14, 16, 10749], "id": 11224, "original_language": "en", "original_title": "Cinderella", "overview": "Cinderella has faith her dreams of a better life will come true. With help from her loyal mice friends and a wave of her Fairy Godmother's wand, Cinderella's rags are magically turned into a glorious gown and off she goes to the Royal Ball. But when the clock strikes midnight, the spell is broken, leaving a single glass slipper... the only key to the ultimate fairy-tale ending!", "poster_path": "/avz6S9HYWs4O8Oe4PenBFNX4uDi.jpg", "release_date": "1950-03-04", "title": "Cinderella", "video": false, "vote_average": 7.0, "vote_count": 4104, "popularity": 34.424}, {"id": 150689, "video": false, "vote_count": 4970, "vote_average": 6.7, "title": "Cinderella", "release_date": "2015-03-12", "original_language": "en", "original_title": "Cinderella", "genre_ids": [18, 14, 10749, 10751], "backdrop_path": "/gkuyOdCeuKLdOlwQIUF44SHsYCq.jpg", "adult": false, "overview": "When her father unexpectedly passes away, young Ella finds herself at the mercy of her cruel stepmother and her daughters. Never one to give up hope, Ella's fortunes begin to change after meeting a dashing stranger in the woods.", "poster_path": "/2i0JH5WqYFqki7WDhUW56Sg0obh.jpg", "popularity": 50.557}, {"id": 1417, "video": false, "vote_count": 6621, "vote_average": 7.7, "title": "Pan's Labyrinth", "release_date": "2006-08-25", "original_language": "es", "original_title": "El laberinto del fauno", "genre_ids": [18, 14, 10752], "backdrop_path": "/4XP5kp70Pw01qpD6Gr0PQwy43Mr.jpg", "adult": false, "overview": "Living with her tyrannical stepfather in a new home with her pregnant mother, 10-year-old Ofelia feels alone until she explores a decaying labyrinth guarded by a mysterious faun who claims to know her destiny. If she wishes to return to her real father, Ofelia must complete three terrifying tasks.", "poster_path": "/t0TDsqbCTgSi0AL7k4baZrOYYhi.jpg", "popularity": 22.977}, {"id": 8703, "video": false, "vote_count": 178, "vote_average": 7.8, "title": "Three Wishes for Cinderella", "release_date": "1973-11-16", "original_language": "cs", "original_title": "T\u0159i o\u0159\u00ed\u0161ky pro Popelku", "genre_ids": [12, 18, 14, 10749, 10751], "backdrop_path": "/mB6K5DYMxIjVJAc6MM0zoG2pcBp.jpg", "adult": false, "overview": "The film stars Libuse Safrankova as the title character, a young woman who is put upon by her stepmother and stepsisters. The film employs a twist, though, when a handsome prince comes knocking. Cinderella does not simply fall into the prince's arms. In this version, he must actively pursue the young woman who is a skilled sharpshooter prone to wearing hunting outfits. Cinderella also has three wishes at her disposal, gained from three magic nuts.", "poster_path": "/rxsZrGh2sS2axwSN9T7SL1aznhH.jpg", "popularity": 13.19}, {"id": 809, "video": false, "vote_count": 6985, "vote_average": 7.0, "title": "Shrek 2", "release_date": "2004-05-19", "original_language": "en", "original_title": "Shrek 2", "genre_ids": [12, 16, 35, 14, 10751], "backdrop_path": "/gdFAYLb5NR5HqcEKnPloOM6fX4B.jpg", "adult": false, "overview": "Shrek, Fiona and Donkey set off to Far, Far Away to meet Fiona's mother and father. But not everyone is happy. Shrek and the King find it hard to get along, and there's tension in the marriage. The fairy godmother discovers that Shrek has married Fiona instead of her Son Prince Charming and sets about destroying their marriage.", "poster_path": "/pSQvRqxwRa2IcDJHGY1d3TdKy2q.jpg", "popularity": 28.714}, {"id": 808, "video": false, "vote_count": 9704, "vote_average": 7.6, "title": "Shrek", "release_date": "2001-05-16", "original_language": "en", "original_title": "Shrek", "genre_ids": [12, 16, 35, 14, 10751], "backdrop_path": "/2l5UHZBcp9cx1PwKLdisJ0gV9jB.jpg", "adult": false, "overview": "It ain't easy bein' green -- especially if you're a likable (albeit smelly) ogre named Shrek. On a mission to retrieve a gorgeous princess from the clutches of a fire-breathing dragon, Shrek teams up with an unlikely compatriot -- a wisecracking donkey.", "poster_path": "/140ewbWv8qHStD3mlBDvvGd0Zvu.jpg", "popularity": 29.933}, {"adult": false, "backdrop_path": "/c66otZnSdri67kR7ps92kRX849o.jpg", "genre_ids": [14, 16, 10751], "id": 408, "original_language": "en", "original_title": "Snow White and the Seven Dwarfs", "overview": "A beautiful girl, Snow White, takes refuge in the forest in the house of seven dwarfs to hide from her stepmother, the wicked Queen. The Queen is jealous because she wants to be known as \"the fairest in the land,\" and Snow White's beauty surpasses her own.", "poster_path": "/mnZi4RJXDTkXzcnXyzGu1fFfRJJ.jpg", "release_date": "1937-12-20", "title": "Snow White and the Seven Dwarfs", "video": false, "vote_average": 7.0, "vote_count": 4661, "popularity": 29.171}, {"adult": false, "backdrop_path": "/i5qm0Zw4GiN9sWK5yAVQMtK44w5.jpg", "genre_ids": [12, 14, 18], "id": 58595, "original_language": "en", "original_title": "Snow White and the Huntsman", "overview": "After the Evil Queen marries the King, she performs a violent coup in which the King is murdered and his daughter, Snow White, is taken captive. Almost a decade later, a grown Snow White is still in the clutches of the Queen. In order to obtain immortality, The Evil Queen needs the heart of Snow White. After Snow escapes the castle, the Queen sends the Huntsman to find her in the Dark Forest.", "poster_path": "/40iabcM7KQLJzmO8yGm8AvUbxZR.jpg", "release_date": "2012-05-30", "title": "Snow White and the Huntsman", "video": false, "vote_average": 5.9, "vote_count": 5684, "popularity": 22.189}, {"id": 14128, "video": false, "vote_count": 809, "vote_average": 5.9, "title": "Cinderella II: Dreams Come True", "release_date": "2002-02-23", "original_language": "en", "original_title": "Cinderella II: Dreams Come True", "genre_ids": [16, 14, 10749, 10751], "backdrop_path": "/4ErXZZgpXPxDcCLnnLXysK03ss9.jpg", "adult": false, "overview": "As a newly crowned princess, Cinderella quickly learns that life at the Palace - and her royal responsibilities - are more challenging than she had imagined. In three heartwarming tales, Cinderella calls on her animal friends and her Fairy Godmother to help as she brings her own grace and charm to her regal role and discovers that being true to yourself is the best way to make your dreams come true.", "poster_path": "/36nD4aDvoFMewiHBnIcGo3vVcd6.jpg", "popularity": 18.996}, {"id": 16119, "video": false, "vote_count": 684, "vote_average": 6.3, "title": "Cinderella III: A Twist in Time", "release_date": "2007-02-06", "original_language": "en", "original_title": "Cinderella III: A Twist in Time", "genre_ids": [16, 14, 10749, 10751], "backdrop_path": "/8IresDDceExrC67l7MxDOcITJTm.jpg", "adult": false, "overview": "When Lady Tremaine steals the Fairy Godmother's wand and changes history, it's up to Cinderella to restore the timeline and reclaim her prince.", "poster_path": "/98PHWv6TTpjxvs6EHKJVyrjuuus.jpg", "popularity": 15.995}, {"adult": false, "backdrop_path": "/ikVhBmiTMYMybYnQO8S42txlizJ.jpg", "genre_ids": [18, 10749, 35], "id": 9454, "original_language": "en", "original_title": "EverAfter", "overview": "A unique 16th century woman, Danielle possesses a love of books, and can easily quote from Sir Thomas More\u2019s UTOPIA. An intriguing mix of tomboyish athleticism and physical beauty, she has more than enough charm to capture the heart of a prince ... after beaning him with an apple.", "poster_path": "/1ELrosU04wEbfmxK9wLBjdEECqm.jpg", "release_date": "1998-07-31", "title": "EverAfter", "video": false, "vote_average": 7.1, "vote_count": 788, "popularity": 12.399}, {"id": 323660, "video": false, "vote_count": 59, "vote_average": 3.9, "title": "Avengers Grimm", "release_date": "2015-03-17", "original_language": "en", "original_title": "Avengers Grimm", "genre_ids": [28, 14], "backdrop_path": "/2tklhhTTGKXZLKdP6VasBbas8Nn.jpg", "adult": false, "overview": "When Rumpelstiltskin destroys the Magic Mirror and escapes to the modern world, the four princesses of \"Once Upon a Time\"-Cinderella, Sleeping Beauty, Snow White, and Rapunzel-are sucked through the portal too. Well-trained and endowed with magical powers, the four women must fight Rumpelstiltskin and his army of thralls before he enslaves everyone on Earth.", "poster_path": "/egTkpBSKbqBK66nr4G1cORgZT75.jpg", "popularity": 6.344}, {"id": 14442, "video": false, "vote_count": 1101, "vote_average": 6.2, "title": "Ella Enchanted", "release_date": "2004-04-09", "original_language": "en", "original_title": "Ella Enchanted", "genre_ids": [35, 14, 10751], "backdrop_path": "/6LuSrsnMPhF2fNSKFKtEhVxm5Eb.jpg", "adult": false, "overview": "Ella lives in a magical world in which each child, at the moment of their birth, is given a virtuous \"gift\" from a fairy godmother. Ella's so-called gift, however, is obedience. This birthright proves itself to be quite the curse once Ella finds herself in the hands of several unscrupulous characters whom she quite literally cannot disobey. Determined to gain control of her life and decisions, Ella sets off on a journey to find her fairy godmother who she hopes will lift the curse. The path, however, isn't easy -- Ella must outwit a slew of unpleasant obstacles including ogres, giants, wicked stepsisters, elves and Prince Charmont's evil uncle, who wants to take over the crown and rule the kingdom.", "poster_path": "/5xURlqmsrbMZJiTQmu3TOEIfHFT.jpg", "popularity": 13.753}, {"id": 354279, "video": false, "vote_count": 86, "vote_average": 6.3, "title": "Charming", "release_date": "2018-04-20", "original_language": "en", "original_title": "Charming", "genre_ids": [16, 35, 10402, 10751], "backdrop_path": "/rTefIDfreT1kcjuld8K1wgI3ifp.jpg", "adult": false, "overview": "Three fairy tale princesses find themselves engaged to the same guy, Prince Charming.", "poster_path": "/xizxQjNw7gbstkU9YIi2NaZIXW3.jpg", "popularity": 15.747}, {"id": 38757, "video": false, "vote_count": 7117, "vote_average": 7.5, "title": "Tangled", "release_date": "2010-11-24", "original_language": "en", "original_title": "Tangled", "genre_ids": [16, 10751], "backdrop_path": "/uFg02Gt69UM6Ouam4slMdD0s029.jpg", "adult": false, "overview": "When the kingdom's most wanted-and most charming-bandit Flynn Rider hides out in a mysterious tower, he's taken hostage by Rapunzel, a beautiful and feisty tower-bound teen with 70 feet of magical, golden hair. Flynn's curious captor, who's looking for her ticket out of the tower where she's been locked away for years, strikes a deal with the handsome thief and the unlikely duo sets off on an action-packed escapade, complete with a super-cop horse, an over-protective chameleon and a gruff gang of pub thugs.", "poster_path": "/re6AOJbhBk9FIK3knwU6rYlbPDx.jpg", "popularity": 30.508}, {"id": 407655, "video": false, "vote_count": 421, "vote_average": 6.8, "title": "A Cinderella Story: If the Shoe Fits", "release_date": "2016-08-02", "original_language": "en", "original_title": "A Cinderella Story: If the Shoe Fits", "genre_ids": [35, 14, 10402, 10751], "backdrop_path": "/svYzELCLW0NGVEuvNraA4W7Hmm9.jpg", "adult": false, "overview": "A contemporary musical version of the classic Cinderella story in which the servant step daughter hope to compete in a musical competition for a famous pop star.", "poster_path": "/prZSNnK5dkYcflsbdOsVVvqasZ5.jpg", "popularity": 19.825}, {"adult": false, "backdrop_path": "/3mhNnNmfCGrjyVEZhjWRVcjMOSi.jpg", "genre_ids": [14, 16, 10749, 10751], "id": 54113, "original_language": "en", "original_title": "The Swan Princess: Escape from Castle Mountain", "overview": "The first wedding anniversary of Princess Odette and Prince Derek is distracted by field fires set by Knuckles. His master Clavius, wants to conquer the world, and he needs to capture a giant orb to do that. Clavius kidnaps Queen Uberta and Odette with Derek have to save her.", "poster_path": "/oTEgvTpAIugS7OH6oIoVZkmV3C3.jpg", "release_date": "1997-01-01", "title": "The Swan Princess: Escape from Castle Mountain", "video": false, "vote_average": 6.0, "vote_count": 198, "popularity": 11.608}], "total_pages": 44, "total_results": 877}, "recommendations": {"page": 1, "results": [{"adult": false, "backdrop_path": "/6gN4F59TDZ0SJ0GIOWe3YhgvQKn.jpg", "genre_ids": [35], "id": 346238, "original_language": "de", "original_title": "M\u00e4nnertag", "overview": "", "poster_path": "/yel8RWxvj8shdSxD1fmsemkWn83.jpg", "release_date": "2016-01-01", "title": "M\u00e4nnertag", "video": false, "vote_average": 4.4, "vote_count": 10, "popularity": 2.992}, {"adult": false, "backdrop_path": "/3g3CW5ccO0UPwur26U5vqYUOuUe.jpg", "genre_ids": [10770, 35, 10749], "id": 369627, "original_language": "de", "original_title": "Einmal Hallig und zur\u00fcck", "overview": "", "poster_path": "/pM6p4cANQwGUcGVGQjlfONPPkAJ.jpg", "release_date": "2015-11-27", "title": "Einmal Hallig und zur\u00fcck", "video": false, "vote_average": 5.4, "vote_count": 8, "popularity": 2.906}, {"adult": false, "backdrop_path": "/87HbHjLdZ7T2U7HagDz2mvyNb5g.jpg", "genre_ids": [35], "id": 393575, "original_language": "de", "original_title": "Bullyparade - Der Film", "overview": "A multi-episode movie based on the skit TV show \"bullyparade\".", "poster_path": "/1GZlNkzBKXKCBXwHmfpy3boi562.jpg", "release_date": "2017-08-17", "title": "Bullyparade: The Movie", "video": false, "vote_average": 5.3, "vote_count": 109, "popularity": 6.293}, {"adult": false, "backdrop_path": "/p2VNJk2y0JLbLKeX4LOVwxzNMXs.jpg", "genre_ids": [35, 80, 53], "id": 277967, "original_language": "de", "original_title": "Das ewige Leben", "overview": "Brenner returns to Graz, the city where he grew up. When confronted with his old friends, his former girlfriend and the major sin he committed when he was young, murders and a fateful gunshot to the head result. After Brenner comes out of a coma, he begins to search for the person who tried to kill him - however, everybody claims that he himself is responsible. In the beginning Brenner was at the end of his rope, but he could face a new beginning in the end.", "poster_path": "/7kgty6YzHVfJApGMP8fHPSp3pY0.jpg", "release_date": "2015-03-05", "title": "Life Eternal", "video": false, "vote_average": 7.1, "vote_count": 42, "popularity": 3.67}], "total_pages": 1, "total_results": 4}, "credits": {"cast": [{"cast_id": 5, "character": "Peter Munk", "credit_id": "56beff90c3a36817fd0071c4", "gender": 2, "id": 49767, "name": "Frederick Lau", "order": 1, "profile_path": "/pVxIeHlFhwFcJqMDClw85HyAwTg.jpg"}, {"cast_id": 6, "character": "Lisbeth", "credit_id": "56beff999251411d2700272f", "gender": 1, "id": 50293, "name": "Henriette Confurius", "order": 2, "profile_path": "/beyWWVC6NbohAmC0aroVCAGEcCP.jpg"}, {"cast_id": 7, "character": "Glasm\u00e4nnchen", "credit_id": "56beffa2c3a368180a0080b3", "gender": 2, "id": 24440, "name": "Milan Peschel", "order": 3, "profile_path": "/ejUTO7OHlpVQox8AVsyHLqgm8IQ.jpg"}, {"cast_id": 8, "character": "Holl\u00e4nder-Michel", "credit_id": "56beffacc3a36817fd0071cb", "gender": 2, "id": 677, "name": "Moritz Bleibtreu", "order": 4, "profile_path": "/1b6TCGecTnKDw3HW5bQzHSeIsW1.jpg"}, {"cast_id": 9, "character": "L\u00f6bl", "credit_id": "56beffb5c3a36817f4007a70", "gender": 2, "id": 6268, "name": "Sebastian Blomberg", "order": 5, "profile_path": "/cmWWEr76Yavj6I1mxZvONbiDnal.jpg"}, {"cast_id": 10, "character": "Bastian", "credit_id": "56beffbe9251411d2700273a", "gender": 2, "id": 1327315, "name": "David Sch\u00fctter", "order": 6, "profile_path": "/eCyL55l0fb9tccOQfdCGCd7XKAf.jpg"}, {"cast_id": 11, "character": "Jakob Munk", "credit_id": "56beffc7c3a3681802007fac", "gender": 2, "id": 1846, "name": "Andr\u00e9 Hennicke", "order": 7, "profile_path": "/7cjb7ckyLpEFO7uD9mR5g0Yahwv.jpg"}, {"cast_id": 12, "character": "Barbara Munk", "credit_id": "56beffd1925141734d00763d", "gender": 1, "id": 24439, "name": "Jule B\u00f6we", "order": 8, "profile_path": "/a3u5r6hnDiFESbxL7s3jWROuf9m.jpg"}, {"cast_id": 13, "character": "Ezechiel", "credit_id": "56beffe1c3a36817f2007654", "gender": 2, "id": 35425, "name": "Roeland Wiesnekker", "order": 9, "profile_path": "/xGPQeyj4CEt2TLWiC6LoCAtuE1y.jpg"}, {"cast_id": 14, "character": "Schui-Franz", "credit_id": "58e52740c3a36872af02c046", "gender": 2, "id": 1087, "name": "Lars Rudolph", "order": 10, "profile_path": "/qiWu2gphSg64igYl3Nx0hEIOQF3.jpg"}, {"cast_id": 15, "character": "Kronenwirtin", "credit_id": "58e5305392514127f60303b4", "gender": 1, "id": 571188, "name": "Hildegard Schroedter", "order": 11, "profile_path": "/3QjCc6pdJRe5xYoa1duA7Eaop1M.jpg"}, {"cast_id": 16, "character": "Ahna", "credit_id": "58e5311592514127f603043f", "gender": 1, "id": 46312, "name": "Eva-Maria Kurz", "order": 12, "profile_path": "/2thaISJshF3uR6hW9o8SRK1GKgK.jpg"}, {"cast_id": 17, "character": "Extra", "credit_id": "58e5319392514179de0234b3", "gender": 2, "id": 1729545, "name": "Tobias Lauterberg", "order": 13, "profile_path": "/3U6QXOUc8ufYB23sCPNYJffjCMA.jpg"}, {"cast_id": 18, "character": "Holzf\u00e4ller", "credit_id": "58e5320e92514127f60304f0", "gender": 0, "id": 1790406, "name": "Frank Jendrzytza", "order": 14, "profile_path": "/aYfkPHN2G9aRBi6L6xEFdGida5C.jpg"}], "crew": [{"credit_id": "58e53348925141281902ebfe", "department": "Production", "gender": 1, "id": 3944, "job": "Casting", "name": "Suse Marquardt", "profile_path": null}, {"credit_id": "58e533939251412835030201", "department": "Production", "gender": 2, "id": 10903, "job": "Producer", "name": "Henning Molfenter", "profile_path": null}, {"credit_id": "58e5344fc3a36872af02c84c", "department": "Production", "gender": 2, "id": 10905, "job": "Producer", "name": "Charlie Woebcken", "profile_path": null}, {"credit_id": "58e5330892514179de0235bb", "department": "Sound", "gender": 2, "id": 19916, "job": "Music", "name": "Oliver Biehler", "profile_path": null}, {"credit_id": "56beff1292514170aa001342", "department": "Writing", "gender": 0, "id": 48659, "job": "Screenplay", "name": "Andreas Marschall", "profile_path": null}, {"credit_id": "58e534d7c3a368730202d667", "department": "Writing", "gender": 2, "id": 51414, "job": "Novel", "name": "Wilhelm Hauff", "profile_path": "/2eMpI4ADAOFc9bySXZeXZpcPg5B.jpg"}, {"credit_id": "58e53366c3a3684a79021f51", "department": "Costume & Make-Up", "gender": 0, "id": 55289, "job": "Costume Design", "name": "Juliane Maier", "profile_path": null}, {"credit_id": "56befefec3a36817ef0077b8", "department": "Writing", "gender": 0, "id": 64396, "job": "Screenplay", "name": "Steffen Reuter", "profile_path": null}, {"credit_id": "58e533a69251412835030212", "department": "Production", "gender": 0, "id": 64396, "job": "Producer", "name": "Steffen Reuter", "profile_path": null}, {"credit_id": "58e5333d92514127f003126d", "department": "Crew", "gender": 0, "id": 68340, "job": "Cinematography", "name": "Pascal Schmit", "profile_path": null}, {"credit_id": "56beff239251417359007654", "department": "Writing", "gender": 2, "id": 113502, "job": "Screenplay", "name": "Johannes Naber", "profile_path": null}, {"credit_id": "56befedd9251414601001baa", "department": "Directing", "gender": 2, "id": 113502, "job": "Director", "name": "Johannes Naber", "profile_path": null}, {"credit_id": "58e5338192514127ec032533", "department": "Production", "gender": 2, "id": 1089142, "job": "Producer", "name": "Christoph Fisser", "profile_path": "/7URHtynBXlFSJph8a3ZxqPmrL2k.jpg"}, {"credit_id": "56befef2c3a368180a008089", "department": "Writing", "gender": 0, "id": 1576695, "job": "Screenplay", "name": "Christian Zipperle", "profile_path": null}]}}