{"adult": false, "backdrop_path": "/mo1u5unmHQzW6h0YVwR4Xkz1FqW.jpg", "belongs_to_collection": null, "budget": 0, "genres": [{"id": 99, "name": "Documentary"}], "homepage": null, "id": 384673, "imdb_id": "tt5525310", "original_language": "en", "original_title": "National Bird", "overview": "Sonia Kennebeck takes on the controversial tactic of drone warfare, and demands accountability through the personal accounts\u2014recollections, traumas, and responses\u2014of three American military veterans whose lives have been shaken by the roles they played in this controversial method of attack.", "popularity": 4.189, "poster_path": "/ijHbFXgfDwJBhmjFplsfQkZpWiW.jpg", "production_companies": [{"id": 73782, "logo_path": null, "name": "Ten Forward Films", "origin_country": ""}], "production_countries": [{"iso_3166_1": "US", "name": "United States of America"}], "release_date": "2016-10-14", "revenue": 0, "runtime": 92, "spoken_languages": [{"iso_639_1": "en", "name": "English"}], "status": "Released", "tagline": "", "title": "National Bird", "video": false, "vote_average": 7.0, "vote_count": 15, "keywords": {"keywords": [{"id": 187056, "name": "woman director"}]}, "similar": {"page": 1, "results": [{"adult": false, "backdrop_path": "/cADbqsIoiDW7X3Myg9nz8eAuno5.jpg", "genre_ids": [18, 10749], "id": 10818, "original_language": "fr", "original_title": "Naissance des pieuvres", "overview": "Set during a sultry summer in a French suburb, Marie is desperate to join the local pool's synchronized swimming team, but is her interest solely for the sake of sport or for a chance to get close to Floriane, the bad girl of the team? Sciamma, and the two leads, capture the uncertainty of teenage sexuality with a sympathetic eye in this delicate drama of the angst of coming-of-age.", "poster_path": "/4jajELYrR4Xmv3CVoKnukRnALa2.jpg", "release_date": "2007-05-17", "title": "Water Lilies", "video": false, "vote_average": 6.1, "vote_count": 119, "popularity": 9.614}, {"adult": false, "backdrop_path": "/gZeJziVigmRqbkEZwKAtSqlLQ6s.jpg", "genre_ids": [18, 10749], "id": 370663, "original_language": "en", "original_title": "Below Her Mouth", "overview": "An unexpected affair quickly escalates into a heart-stopping reality for two women whose passionate connection changes their lives forever.", "poster_path": "/nTGbq37hYLuNy7YgMg0gVLma0NS.jpg", "release_date": "2016-09-10", "title": "Below Her Mouth", "video": false, "vote_average": 6.2, "vote_count": 456, "popularity": 18.664}, {"adult": false, "backdrop_path": "/knczzNAjBXzSYkeWxoT1u9VNmjR.jpg", "genre_ids": [10749, 18], "id": 258480, "original_language": "en", "original_title": "Carol", "overview": "In 1950s New York, a department-store clerk who dreams of a better life falls for an older, married woman.", "poster_path": "/AbKa7ANxmui0Jmhh7gV7OSELKIL.jpg", "release_date": "2015-11-20", "title": "Carol", "video": false, "vote_average": 7.4, "vote_count": 2184, "popularity": 13.539}, {"id": 9813, "video": false, "vote_count": 128, "vote_average": 6.1, "title": "The Quiet", "release_date": "2005-09-12", "original_language": "en", "original_title": "The Quiet", "genre_ids": [18, 53], "backdrop_path": "/6eyWAZA4CEidZW1xXnQ4vlYBXTP.jpg", "adult": false, "overview": "After her widowed father dies, deaf teenager Dot moves in with her godparents, Olivia and Paul Deer. The Deers' daughter, Nina, is openly hostile to Dot, but that does not prevent her from telling her secrets to her silent stepsister, including the fact that she wants to kill her lecherous father.", "poster_path": "/GEqIE9YlmygHVUfS64LW2cwAAM.jpg", "popularity": 14.844}, {"adult": false, "backdrop_path": "/g3LYarEY9LjB28Ct2trwFN72gqZ.jpg", "genre_ids": [35], "id": 437557, "original_language": "en", "original_title": "Blockers", "overview": "When three parents discover their daughters\u2019 pact to lose their virginity at prom, they launch a covert one-night operation to stop the teens from sealing the deal.", "poster_path": "/uvlUQXg0AlpGzKukO11K7QtW3Yu.jpg", "release_date": "2018-03-14", "title": "Blockers", "video": false, "vote_average": 6.2, "vote_count": 1155, "popularity": 17.886}, {"adult": false, "backdrop_path": "/fZ8oFcREAr6wgWcXISGql0xyxjB.jpg", "genre_ids": [35, 18], "id": 39781, "original_language": "en", "original_title": "The Kids Are All Right", "overview": "Two women, Nic and Jules, brought a son and daughter into the world through artificial insemination. When one of their children reaches age, both kids go behind their mothers' backs to meet with the donor. Life becomes so much more interesting when the father, two mothers and children start to become attached to each other.", "poster_path": "/fPDeK4MmoGfi2X0oWZev7LrbMqM.jpg", "release_date": "2010-07-09", "title": "The Kids Are All Right", "video": false, "vote_average": 6.6, "vote_count": 923, "popularity": 12.159}, {"adult": false, "backdrop_path": "/6tern9vOEwwmkDYC1vRCuO64z0C.jpg", "genre_ids": [10749, 18], "id": 475888, "original_language": "en", "original_title": "Tell It to the Bees", "overview": "Dr. Jean Markham returns to the town she left as a teenager to take over her late father's medical practice. When a school-yard scuffle lands Charlie in her surgery, she invites him to visit the hives in her garden and tell his secrets to the bees, as she once did. The new friendship between the boy and the bee keeper brings his mother Lydia into Jean's world.", "poster_path": "/Rj6zpHhMU1zFW3v28U4PSRSRgP.jpg", "release_date": "2019-05-03", "title": "Tell It to the Bees", "video": false, "vote_average": 6.4, "vote_count": 53, "popularity": 13.175}, {"adult": false, "backdrop_path": "/xOGEw8iywxcFMolV6SF6YdTdJTb.jpg", "genre_ids": [10402, 10749], "id": 52371, "original_language": "nl", "original_title": "LelleBelle", "overview": "19-year old Belle practices playing the violin diligently, but is unable to impart her music with a sensitive undertone. Her life changes when she discovers that sexual desire stimulates passion in her music.", "poster_path": "/nJVPgIq3icZMQ26p5uWIFdUZJfL.jpg", "release_date": "2010-10-08", "title": "LelleBelle", "video": false, "vote_average": 4.7, "vote_count": 41, "popularity": 13.747}, {"adult": false, "backdrop_path": "/dvQDRfv3qvfHNnVAR57ouVsuErf.jpg", "genre_ids": [10749, 18], "id": 28031, "original_language": "en", "original_title": "If These Walls Could Talk 2", "overview": "The stories of three lesbian couples -- who live in the same house at different periods of time -- who are at a crossroads in their lives. In 1961, Edith loses her lover, Abby, to a stroke. Linda and Amy struggle with feminist issues in 1972. And, in 2000, Kal and Fran try to have a baby with the help of sperm donor.", "poster_path": "/xs7ODbmYQXCDhvXNvz5tF17T59H.jpg", "release_date": "2000-03-05", "title": "If These Walls Could Talk 2", "video": false, "vote_average": 7.1, "vote_count": 55, "popularity": 8.86}, {"adult": false, "backdrop_path": "/rf6G51j0SZL0tP57I8gnqHTRFEr.jpg", "genre_ids": [35, 18, 10749], "id": 273153, "original_language": "fr", "original_title": "La belle saison", "overview": "In 1971, Carole and Delphine meet and fall in love in Paris. When Carole follows Delphine back to her family farm in Limousin, the two find lesbianism and feminism are not as easy in the countryside.", "poster_path": "/evvAkNMO5VJiy5qIo1Hu7fUfvVI.jpg", "release_date": "2015-08-19", "title": "Summertime", "video": false, "vote_average": 6.6, "vote_count": 162, "popularity": 11.575}, {"id": 616584, "video": false, "vote_count": 92, "vote_average": 7.5, "title": "K-12", "release_date": "2019-09-05", "original_language": "en", "original_title": "K-12", "genre_ids": [14, 27, 10402], "backdrop_path": "/fSlfaF0Ydfr2SK6hOYHvDsb7a9Z.jpg", "adult": false, "overview": "Cry Baby, a strong and sensitive girl, is sent off to a disturbing sleepaway school that\u2019s hidden underneath a grandiose fa\u00e7ade. Luckily, she has a sweet and unapologetic best friend who sticks up for her when she gets bullied by the other students whose brains are under control by the Principal and his wicked staff. With the help of the magical friends they meet along the way, as well as an Angelic Spirit Guide, they are able to gain the strength they need to fight off the school\u2019s belligerent patriarchal conditioning.", "poster_path": "/nVi0yBBPj5Z96JgGWVIg94kv7bR.jpg", "popularity": 15.107}, {"adult": false, "backdrop_path": "/caLMOD3ZJ3V7qjlxDXrzlJfBLgD.jpg", "genre_ids": [18, 10749], "id": 20, "original_language": "en", "original_title": "My Life Without Me", "overview": "A Pedro Almodovar production in which a fatally ill mother with only two months to live creates a list of things she wants to do before she dies with out telling her family of her illness.", "poster_path": "/vVj92VBFUBzjqzLvBiPVVlJDp78.jpg", "release_date": "2003-03-07", "title": "My Life Without Me", "video": false, "vote_average": 6.1, "vote_count": 220, "popularity": 10.382}, {"id": 326359, "video": false, "vote_count": 1180, "vote_average": 6.8, "title": "Frozen Fever", "release_date": "2015-03-09", "original_language": "en", "original_title": "Frozen Fever", "genre_ids": [12, 16, 10751], "backdrop_path": "/ubioPGniCfDiASmYYpeJs5RRNaC.jpg", "adult": false, "overview": "On Anna's birthday, Elsa and Kristoff are determined to give her the best celebration ever, but Elsa's icy powers may put more than just the party at risk.", "poster_path": "/lKJiVPzsAO9IJ4LKWXZ8vkR2bg4.jpg", "popularity": 17.218}, {"id": 434714, "video": false, "vote_count": 32, "vote_average": 7.5, "title": "My Days of Mercy", "release_date": "2019-07-11", "original_language": "en", "original_title": "My Days of Mercy", "genre_ids": [18, 10749], "backdrop_path": "/7Lbzq33nMMIQtAfZAmSqG6ibLSg.jpg", "adult": false, "overview": "The daughter of a man on death row falls in love with a woman on the opposing side of her family's political cause.", "poster_path": "/adIPKAoKnKL9vCTkvfF4J9ZA7Ln.jpg", "popularity": 9.342}, {"adult": false, "backdrop_path": "/useuHJQ5HOoEWkAvEjL1FW1sUfe.jpg", "genre_ids": [18], "id": 376867, "original_language": "en", "original_title": "Moonlight", "overview": "The tender, heartbreaking story of a young man\u2019s struggle to find himself, told across three defining chapters in his life as he experiences the ecstasy, pain, and beauty of falling in love, while grappling with his own sexuality.", "poster_path": "/qAwFbszz0kRyTuXmMeKQZCX3Q2O.jpg", "release_date": "2016-10-21", "title": "Moonlight", "video": false, "vote_average": 7.4, "vote_count": 4410, "popularity": 21.716}, {"adult": false, "backdrop_path": "/ph5fElfh4U7O3jwhFljxz2LDp1l.jpg", "genre_ids": [18, 36], "id": 375262, "original_language": "en", "original_title": "The Favourite", "overview": "England, early 18th century. The close relationship between Queen Anne and Sarah Churchill is threatened by the arrival of Sarah's cousin, Abigail Hill, resulting in a bitter rivalry between the two cousins to be the Queen's favourite.", "poster_path": "/cwBq0onfmeilU5xgqNNjJAMPfpw.jpg", "release_date": "2018-11-23", "title": "The Favourite", "video": false, "vote_average": 7.6, "vote_count": 2823, "popularity": 28.019}, {"id": 297762, "video": false, "vote_count": 13722, "vote_average": 7.3, "title": "Wonder Woman", "release_date": "2017-05-30", "original_language": "en", "original_title": "Wonder Woman", "genre_ids": [28, 12, 14], "backdrop_path": "/6iUNJZymJBMXXriQyFZfLAKnjO6.jpg", "adult": false, "overview": "An Amazon princess comes to the world of Man in the grips of the First World War to confront the forces of evil and bring an end to human conflict.", "poster_path": "/gfJGlDaHuWimErCr5Ql0I8x9QSy.jpg", "popularity": 44.687}, {"adult": false, "backdrop_path": "/k8H7ye6Sab7OrDJoo8Qp5WFGHGk.jpg", "genre_ids": [35, 10749, 18], "id": 244264, "original_language": "en", "original_title": "Laggies", "overview": "Overeducated and underemployed, 28 year old Megan is in the throes of a quarterlife crisis. Squarely into adulthood with no career prospects, no particular motivation to think about her future and no one to relate to, Megan is comfortable lagging a few steps behind - while her friends check off milestones and celebrate their new grown-up status. When her high-school sweetheart proposes, Megan panics and- given an unexpected opportunity to escape for a week - hides out in the home of her new friend, 16-year old Annika and Annika's world-weary single dad Craig.", "poster_path": "/dNcoXoRC7JHiqbe7k5Ufo6syiPP.jpg", "release_date": "2014-09-25", "title": "Laggies", "video": false, "vote_average": 6.1, "vote_count": 788, "popularity": 13.836}, {"adult": false, "backdrop_path": "/npClMhFGn4XUkwu6coq5oKAEu6L.jpg", "genre_ids": [35, 10749, 18], "id": 634, "original_language": "en", "original_title": "Bridget Jones's Diary", "overview": "A chaotic Bridget Jones meets a snobbish lawyer, and he soon enters her world of imperfections.", "poster_path": "/ym6kjFFZg6boC0QHBVw6hqJLbxv.jpg", "release_date": "2001-04-13", "title": "Bridget Jones's Diary", "video": false, "vote_average": 6.7, "vote_count": 3080, "popularity": 19.453}, {"adult": false, "backdrop_path": "/txtRue33MaXv5HQpTiHPOmOcDxE.jpg", "genre_ids": [35, 10749], "id": 11631, "original_language": "en", "original_title": "Mamma Mia!", "overview": "An independent, single mother who owns a small hotel on a Greek island is about to marry off the spirited young daughter she's raised alone. But, the daughter has secretly invited three of her mother's ex-lovers in the hopes of finding her biological father.", "poster_path": "/gOm2iMMbC6EonrFzmSQ8xvCa4Ei.jpg", "release_date": "2008-07-02", "title": "Mamma Mia!", "video": false, "vote_average": 6.9, "vote_count": 4124, "popularity": 16.301}], "total_pages": 1446, "total_results": 28909}, "recommendations": {"page": 1, "results": [{"adult": false, "backdrop_path": null, "genre_ids": [99], "id": 454349, "original_language": "en", "original_title": "Blurred Lines: Inside the Art World", "overview": "As one art scene insider proclaims, the contemporary art world can be summed up as \u201crich people trying to prove how rich they are,\u201d but is that all there is to this billion dollar industry? Well-researched and expertly constructed, Barry Avrich\u2019s eye-opening documentary peels back the layers of the art world economy- from production to circulation, and delineates every integral player in the game of art-making, including curators, gallerists, collectors, donors, auction houses, and \u2026 artists. In the process, he unpacks the complex and surprising ecosystem that supports the art world superstars and million-dollar deals that make front-page news. Featuring extraordinary access to industry players and candid statements from prominent artists like Damien Hirst, Julian Schnabel, Taryn Simon, and Marina Abramovic, Blurred Lines collides the two narratives of the art world as both above and beholden to market forces.", "poster_path": "/91ESE0jyUdq4aABfr4z1lXqSzxz.jpg", "release_date": "2017-04-23", "title": "Blurred Lines: Inside the Art World", "video": false, "vote_average": 6.2, "vote_count": 5, "popularity": 2.282}, {"id": 265312, "video": false, "vote_count": 10, "vote_average": 4.8, "title": "El Americano: The Movie", "release_date": "2016-01-29", "original_language": "en", "original_title": "El Americano: The Movie", "genre_ids": [16, 10751], "backdrop_path": "/cr1717qEKnErtt6XKx1bPO2BUq6.jpg", "adult": false, "overview": "Cuco, a mexican parrot, goes on an adventure from Mexico to Hollywood in order to get help from El Americano, a famous superhero from TV, against an evil band of birds trying to take control of his family\u2019s beloved circus.", "poster_path": "/vbG5SYyJLleFG6BcejQcyYttftE.jpg", "popularity": 6.783}, {"id": 383200, "video": false, "vote_count": 7, "vote_average": 7.4, "title": "Bitcoin Heist", "release_date": "2016-02-05", "original_language": "vi", "original_title": "Si\u00eau Tr\u1ed9m", "genre_ids": [28], "backdrop_path": "/2zUEzEMG33xjbonkFz6mYqOO14Z.jpg", "adult": false, "overview": "To catch Interpol's most-wanted hacker, special Agent Dada must assemble a team of criminals with  various special skillsets.", "poster_path": "/graz8HWThxaS88OkU5VEooR1FB7.jpg", "popularity": 3.391}, {"adult": false, "backdrop_path": "/arBPd63sRZwU9tm90ybxcQ88wwQ.jpg", "genre_ids": [], "id": 170989, "original_language": "mr", "original_title": "\u0917\u093e\u092d\u094d\u0930\u0940\u091a\u093e \u092a\u093e\u090a\u0938", "overview": "There's more at stake than just failed crops when a drought strikes a rural community in this comedy-drama from India.", "poster_path": "/u0u7HACGl3XBQL8dqFEkUfjh7eV.jpg", "release_date": "2009-07-16", "title": "The Damned Rain", "video": false, "vote_average": 7.0, "vote_count": 3, "popularity": 1.432}, {"id": 257064, "video": false, "vote_count": 4, "vote_average": 8.0, "title": "Arnez J: Racially Motivated", "release_date": "2013-01-30", "original_language": "en", "original_title": "Arnez J: Racially Motivated", "genre_ids": [35], "backdrop_path": "/59ikH5y49wQvzOOsWAjYcn13cSr.jpg", "adult": false, "overview": "Live-wire comedian Arnez J. totes his talent for impressions to the stage of Boston's Wilbur Theater for this one-hour comedy special that pokes fun -- lots of fun -- at racial stereotypes.", "poster_path": "/oyRPzd8iiBnzJtUECZlAwnR2D28.jpg", "popularity": 3.832}, {"adult": false, "backdrop_path": "/q6L3ZvYQqSDoYHyCucSgked7wbj.jpg", "genre_ids": [99], "id": 381275, "original_language": "en", "original_title": "Eva Hesse", "overview": "German American artist Eva Hesse (1936 \u2013 1970) created her innovative art in latex and fiberglass in the whirling aesthetic vortex of 1960s New York. Her flowing forms were in part a reaction to the rigid structures of then-popular minimalism, a male-dominated movement. Hesse\u2019s complicated personal life encompassed not only a chaotic 1930s Germany, but also illness and the immigrant culture of New York in the 1940s. One of the twentieth century\u2019s most intriguing artists, she finally receives her due in this film, an emotionally gripping journey with a gifted woman of great courage.", "poster_path": "/veuIYTtajv1IJgr3tKUGUGkniOI.jpg", "release_date": "2016-04-27", "title": "Eva Hesse", "video": false, "vote_average": 6.8, "vote_count": 5, "popularity": 2.912}, {"adult": false, "backdrop_path": null, "genre_ids": [99], "id": 418685, "original_language": "en", "original_title": "Behind 'The Cove'", "overview": "Negative media coverage on the never-ending whaling issue prompted first-time documentary filmmaker Keiko Yagi to find out more about the topic. With no budget, limited experience in filmmaking, no fluency in English, but armed with a video camera and a strong desire to find out about the truth of the matter on whaling, Yagi started her research.", "poster_path": "/87E2m5jzhqMJqTS9rZjFgYjEkf.jpg", "release_date": "2015-12-01", "title": "Behind 'The Cove'", "video": false, "vote_average": 4.5, "vote_count": 4, "popularity": 1.625}, {"id": 470616, "video": false, "vote_count": 5, "vote_average": 6.6, "title": "Lynne Koplitz: Hormonal Beast", "release_date": "2017-08-22", "original_language": "en", "original_title": "Lynne Koplitz: Hormonal Beast", "genre_ids": [35], "backdrop_path": "/qZKNvSc39KpTyXushgFKPGyrFVn.jpg", "adult": false, "overview": "Unabashed comedian Lynne Koplitz offers a woman's take on being crazy, the benefits of childlessness and the three things all men really want.", "poster_path": "/gwyEY6IjVxvp4B6wQMOm2NuPgpT.jpg", "popularity": 4.283}, {"adult": false, "backdrop_path": null, "genre_ids": [99], "id": 481737, "original_language": "es", "original_title": "El Crazy Che", "overview": "'Bill Gaede: El Crazy Che' is a documentary about the most amazing case of industrial espionage: the incredible story of an argentine engineer born in Lan\u00fas, programmer, and cold war spy who worked at AMD and Intel. While at AMD, he provided the Cuban Government with technical information from the semiconductor industry which the Cubans passed on to the Soviet bloc, primarily to the Soviet Union and East Germany.", "poster_path": "/17VeB4N3c0I74qWfop6FU8Es7t3.jpg", "release_date": "2015-04-17", "title": "El Crazy Che", "video": false, "vote_average": 6.4, "vote_count": 5, "popularity": 1.1}, {"adult": false, "backdrop_path": null, "genre_ids": [99], "id": 141760, "original_language": "he", "original_title": "Sfurim", "overview": "An estimated 400,000 people were tattooed with serial numbers at Auschwitz, of whom only a few thousand survive today. This intimate and visually rapturous documentary details the current lives of some of these survivors, their memories of the camps, and their relationships with the numbers. Numbered is an emotionally affecting portrait of memory and history, and their enduring presence in individual lives.", "poster_path": "/9u4AFluIBpYmSDlYYzLMuY7ErQY.jpg", "release_date": "2012-10-14", "title": "Numbered", "video": false, "vote_average": 8.2, "vote_count": 5, "popularity": 0.962}, {"adult": false, "backdrop_path": "/oqM044BYMQcFntIaNbthi0VEUyl.jpg", "genre_ids": [99], "id": 411701, "original_language": "en", "original_title": "Generation Startup", "overview": "Generation Startup takes us to the front lines of entrepreneurship in America, capturing the struggles and triumphs of six recent college graduates who put everything on the line to build startups in Detroit. Shot over 17 months, it's an honest, in-the-trenches look at what it takes to launch a startup. Directed by Academy Award winner Cynthia Wade and award-winning filmmaker Cheryl Miller Houser, the film celebrates risk-taking, urban revitalization, and diversity while delivering a vital call-to-action-with entrepreneurship at a record low, the country's economic future is at stake.", "poster_path": "/65k3RKA0RDjk5TLtp5YgMI9bHW9.jpg", "release_date": "2016-09-23", "title": "Generation Startup", "video": false, "vote_average": 7.4, "vote_count": 5, "popularity": 4.352}, {"adult": false, "backdrop_path": "/91wEWlcqK8ESVU4ArdFk5o1GM5E.jpg", "genre_ids": [99], "id": 343880, "original_language": "en", "original_title": "A Murder in the Park", "overview": "Documentary filmmakers assert that Anthony Porter - a former death-row inmate who was spared the death penalty thanks to the efforts of a college journalism program - was actually guilty, and an innocent man was sent to prison.", "poster_path": "/g0wME5TyTTdvUXtp2Qsp4kF7XCC.jpg", "release_date": "2015-06-26", "title": "A Murder in the Park", "video": false, "vote_average": 7.4, "vote_count": 10, "popularity": 4.311}, {"adult": false, "backdrop_path": null, "genre_ids": [18, 35], "id": 433018, "original_language": "en", "original_title": "Frat Star", "overview": "\"Frat Star\" explores the alluring, superficial, manipulative, and dark world of Ivy League fraternity culture. An insecure, poor, and broken-hearted Nick enters freshman year with no interest in fraternities. This all changes when his old money roommate Billy convinces him to pledge.", "poster_path": "/snUZhnYfF7VUacZrq0WBWezJDlf.jpg", "release_date": "2017-01-03", "title": "Frat Star", "video": false, "vote_average": 4.6, "vote_count": 10, "popularity": 3.266}, {"adult": false, "backdrop_path": "/w3NcWASmxFzcwgqmEGQamOR2G4o.jpg", "genre_ids": [18], "id": 376088, "original_language": "en", "original_title": "A Woman, a Part", "overview": "An exhausted, workaholic actress, Anna Baskin, 44, abruptly extricates herself from a successful but mind-numbing TV role, returning to her past life in New York to reinvent herself.", "poster_path": "/23O4nJPSfqav0ybDwkBjPApfM8O.jpg", "release_date": "2017-03-22", "title": "A Woman, a Part", "video": false, "vote_average": 6.6, "vote_count": 7, "popularity": 2.533}, {"adult": false, "backdrop_path": "/mduZ8Hsdzc3UB4gwuMtIuhBBRp8.jpg", "genre_ids": [80, 18, 53], "id": 288710, "original_language": "en", "original_title": "The Frontier", "overview": "A desperate young woman, on the run from the law, takes a job at a remote desert motel. She quickly discovers the motel's patrons are rendezvousing after a large robbery. With nothing to lose, and all to gain, she hatches a plan to steal their loot.", "poster_path": "/lbGVaOxbt2N7frqYD4cGVDHnGmQ.jpg", "release_date": "2016-11-08", "title": "The Frontier", "video": false, "vote_average": 5.8, "vote_count": 12, "popularity": 3.794}, {"adult": false, "backdrop_path": "/sB9g0756dSWYiBu47fh9dvKjOup.jpg", "genre_ids": [35], "id": 421833, "original_language": "en", "original_title": "Brave New Jersey", "overview": "A comedy that tells the story of a small New Jersey town on the night of Orson Welles' famed 1938 War of the Worlds radio broadcast, which led millions of listeners to believe the U.S. was being invaded by Martians.", "poster_path": "/rCDTWX51Xk4yUJOpOd6niIUdptG.jpg", "release_date": "2017-08-04", "title": "Brave New Jersey", "video": false, "vote_average": 4.9, "vote_count": 7, "popularity": 3.99}, {"id": 371743, "video": false, "vote_count": 12, "vote_average": 6.8, "title": "Sophie and the Rising Sun", "release_date": "2016-01-27", "original_language": "en", "original_title": "Sophie and the Rising Sun", "genre_ids": [18], "backdrop_path": "/3HacfGG2Y4aBIyMz9sIMTSkCj9z.jpg", "adult": false, "overview": "In a small Southern town in the autumn of 1941, Sophie\u2019s lonely life is transformed when an Asian man arrives under mysterious circumstances. Their love affair becomes the lightning rod for long-buried conflicts that erupt in bigotry and violence with the outbreak of World War ll.", "poster_path": "/csvqNng0vpRdEgE06aLuq44i3G9.jpg", "popularity": 3.969}, {"adult": false, "backdrop_path": "/jTQwxIGnRdrfkMdfW3C6ffAvU2w.jpg", "genre_ids": [99, 10402], "id": 242093, "original_language": "en", "original_title": "Under the Electric Sky", "overview": "This 3-D film chronicles the love, community, and life of festival-goers during Electric Daisy Carnival Las Vegas, the largest music festival in the U.S. Behind-the-scenes footage and exclusive interviews with Insomniac's Pasquale Rotella reveal the magic that makes this three-night, 345,000-person event a global phenomenon.", "poster_path": "/e6QXfsujsf8t85hZZNjPndLVzdb.jpg", "release_date": "2014-05-29", "title": "Under the Electric Sky", "video": false, "vote_average": 6.7, "vote_count": 10, "popularity": 2.857}, {"adult": false, "backdrop_path": "/fwNfZ27Yf2zNcj6tTSptGGmJQ9d.jpg", "genre_ids": [99], "id": 358269, "original_language": "en", "original_title": "Hiroshima: The Aftermath", "overview": "Brand new documentary marking the 70th anniversary of the Hiroshima and Nagasaki bombings which ended WWII and began the nuclear age. Features interviews with survivors from both sides.", "poster_path": "/1gnitw7pHPTWleK00Ik2Evx4GFe.jpg", "release_date": "2015-06-06", "title": "Hiroshima: The Aftermath", "video": false, "vote_average": 7.5, "vote_count": 4, "popularity": 3.337}, {"adult": false, "backdrop_path": "/bOr6lbKIEDUwEwDI1RTBkTLQ731.jpg", "genre_ids": [99], "id": 392734, "original_language": "en", "original_title": "Jeremiah Tower: The Last Magnificent", "overview": "The life of Jeremiah Tower, one of the most controversial, outrageous, and influential figures in the history of American gastronomy.", "poster_path": "/nzJMoWDH9lWT23mYpduK7tEUBxs.jpg", "release_date": "2016-07-29", "title": "Jeremiah Tower: The Last Magnificent", "video": false, "vote_average": 6.5, "vote_count": 4, "popularity": 4.559}], "total_pages": 2, "total_results": 40}, "credits": {"cast": [{"cast_id": 3, "character": "Jesselyn Radack", "credit_id": "56d4ca29c3a3682cef003ee1", "gender": 0, "id": 1305356, "name": "Jesselyn Radack", "order": 1, "profile_path": null}], "crew": [{"credit_id": "56d05160c3a3681e36005b0a", "department": "Directing", "gender": 0, "id": 1567335, "job": "Director", "name": "Sonia Kennebeck", "profile_path": null}, {"credit_id": "56d4cb79c3a3681e5001425a", "department": "Production", "gender": 0, "id": 1567335, "job": "Producer", "name": "Sonia Kennebeck", "profile_path": null}, {"credit_id": "56d4cb8e92514111eb0003c8", "department": "Production", "gender": 0, "id": 1584648, "job": "Producer", "name": "Ines Hofmann Kanna", "profile_path": null}, {"credit_id": "56d4cbcc92514111eb0003d5", "department": "Sound", "gender": 2, "id": 50866, "job": "Sound Designer", "name": "Sebastian Tesch", "profile_path": null}, {"credit_id": "56d4cbf89251411884000e01", "department": "Sound", "gender": 2, "id": 15463, "job": "Sound", "name": "Ansgar Frerich", "profile_path": null}, {"credit_id": "571010629251410832000de1", "department": "Production", "gender": 2, "id": 2303, "job": "Executive Producer", "name": "Wim Wenders", "profile_path": "/AbqrYglSgaMfetQAeqdHaqiPSof.jpg"}, {"credit_id": "5710107dc3a36853700041e9", "department": "Production", "gender": 2, "id": 18533, "job": "Executive Producer", "name": "Errol Morris", "profile_path": "/x72lW3qu7RovWvtJRJNuDVeU8Hz.jpg"}, {"credit_id": "571010939251412dd4000a66", "department": "Camera", "gender": 0, "id": 1584646, "job": "Director of Photography", "name": "Torsten Lapp", "profile_path": null}, {"credit_id": "571010d3c3a36853700041f6", "department": "Sound", "gender": 0, "id": 1567337, "job": "Original Music Composer", "name": "Insa Rudolph", "profile_path": null}, {"credit_id": "571011f1c3a3685378003fc7", "department": "Editing", "gender": 0, "id": 1414385, "job": "Editor", "name": "Maxine Goedicke", "profile_path": null}]}}