{"adult": false, "backdrop_path": "/hLa5e8k8BLFG4onam5PnfodKZp3.jpg", "belongs_to_collection": null, "budget": 0, "genres": [{"id": 10749, "name": "Romance"}, {"id": 18, "name": "Drama"}], "homepage": null, "id": 38621, "imdb_id": "tt0119125", "original_language": "en", "original_title": "Firelight", "overview": "Firelight is a period romance/drama film written and directed by William Nicholson. It was Nicholson's first, and to date only, film as director.", "popularity": 4.693, "poster_path": "/rImcUgAq1l7W3Ye21zmW9jdujEw.jpg", "production_companies": [{"id": 8116, "logo_path": null, "name": "Wind Dancer Productions", "origin_country": ""}, {"id": 915, "logo_path": "/4neXXpjSJDZPBGBnfWtqysB5htV.png", "name": "Hollywood Pictures", "origin_country": "US"}], "production_countries": [{"iso_3166_1": "GB", "name": "United Kingdom"}, {"iso_3166_1": "US", "name": "United States of America"}], "release_date": "1997-09-14", "revenue": 0, "runtime": 103, "spoken_languages": [{"iso_639_1": "en", "name": "English"}, {"iso_639_1": "fr", "name": "Fran\u00e7ais"}], "status": "Released", "tagline": "Passion has no limits", "title": "Firelight", "video": false, "vote_average": 6.8, "vote_count": 27, "keywords": {"keywords": [{"id": 392, "name": "england"}, {"id": 155881, "name": "estate"}, {"id": 165468, "name": "governess"}, {"id": 207928, "name": "19th century"}]}, "similar": {"page": 1, "results": [{"adult": false, "backdrop_path": "/hm8Gux0946IfeJ1PZwztOo6lVHH.jpg", "genre_ids": [18, 36, 35], "id": 450322, "original_language": "en", "original_title": "The Man Who Invented Christmas", "overview": "In 1843, despite the fact that Dickens is a successful writer, the failure of his latest book puts his career at a crossroads, until the moment when, struggling with inspiration and confronting reality with his childhood memories, a new character is born in the depths of his troubled mind; an old, lonely, embittered man, so vivid, so human, that a whole world grows around him, a story so inspiring that changed the meaning of Christmas forever.", "poster_path": "/xYCuRgEKynGurSEooxDa9pQPF7n.jpg", "release_date": "2017-10-12", "title": "The Man Who Invented Christmas", "video": false, "vote_average": 6.7, "vote_count": 395, "popularity": 13.295}, {"adult": false, "backdrop_path": "/dLAPTvBwEdP4h7a14isNc0HwmOj.jpg", "genre_ids": [18, 10749], "id": 250734, "original_language": "en", "original_title": "Far from the Madding Crowd", "overview": "Based on the literary classic by Thomas Hardy. Bathsheba Everdene, attracts three very different suitors: Gabriel Oak, a sheep farmer, captivated by her fetching willfulness; Frank Troy, a handsome and reckless Sergeant; and William Boldwood, a prosperous and mature bachelor. This timeless story of Bathsheba's choices and passions explores the nature of relationships and love \u2013 as well as the human ability to overcome hardships through resilience and perseverance.", "poster_path": "/6v1DEaO2TZzrqcaGohUf1K7BXkU.jpg", "release_date": "2015-04-23", "title": "Far from the Madding Crowd", "video": false, "vote_average": 7.0, "vote_count": 643, "popularity": 14.468}, {"id": 656968, "video": false, "vote_count": 23, "vote_average": 7.0, "title": "A Christmas Carol", "release_date": "2019-12-19", "original_language": "en", "original_title": "A Christmas Carol", "genre_ids": [18, 14], "backdrop_path": "/ubLsCmv36zUUt2zxhFSowYFe5uF.jpg", "adult": false, "overview": "London, 1843. Ebenezer Scrooge, a bitter old man, despises the Christmas holiday. Over the course of Christmas Eve night he is visited by three ghosts to show him his past, present and future.", "poster_path": "/tKW48tnZKaHLBIxxgoAf9BIpyRv.jpg", "popularity": 10.458}, {"id": 8619, "video": false, "vote_count": 1674, "vote_average": 7.1, "title": "Master and Commander: The Far Side of the World", "release_date": "2003-11-14", "original_language": "en", "original_title": "Master and Commander: The Far Side of the World", "genre_ids": [12, 18, 10752], "backdrop_path": "/uuPbSNgk2dfhMH8l4cKSQUBBk6k.jpg", "adult": false, "overview": "After an abrupt and violent encounter with a French warship inflicts severe damage upon his ship, a captain of the British Royal Navy begins a chase over two oceans to capture or destroy the enemy, though he must weigh his commitment to duty and ferocious pursuit of glory against the safety of his devoted crew, including the ship's thoughtful surgeon, his best friend.", "poster_path": "/s1cVTQEZYn4nSjZLnFbzLP0j8y2.jpg", "popularity": 33.538}, {"adult": false, "backdrop_path": "/2F8cwDiU43qYYmRVCyv2Lx5E36C.jpg", "genre_ids": [14, 18], "id": 13188, "original_language": "en", "original_title": "Scrooge", "overview": "Ebenezer Scrooge (Alastair Sim) malcontentedly shuffles through life as a cruel miserly businessman until one fateful Christmas Eve when he is visited by three spirits, sent show him how his unhappy childhood and maladaptive adult behavior over has let him a selfish, lonely, bitter old man.  Released in the USA as \"A Christmas Carol\".", "poster_path": "/vIgQuTnJljMIwzdM94D3rnIgzlx.jpg", "release_date": "1951-11-28", "title": "Scrooge", "video": false, "vote_average": 7.5, "vote_count": 139, "popularity": 12.013}, {"adult": false, "backdrop_path": "/lfD3hi4AVk05sTngDvybbuLVzqR.jpg", "genre_ids": [18, 10751, 10402], "id": 17917, "original_language": "en", "original_title": "Oliver!", "overview": "Musical adaptation of Charles Dickens' Oliver Twist, a classic tale of an orphan who runs away from the workhouse and joins up with a group of boys headed by the Artful Dodger and trained to be pickpockets by master thief Fagin.", "poster_path": "/9cB4dNSCnSRMULYGYWHM5MQNtEf.jpg", "release_date": "1968-09-26", "title": "Oliver!", "video": false, "vote_average": 7.0, "vote_count": 207, "popularity": 18.244}, {"id": 12178, "video": false, "vote_count": 189, "vote_average": 6.7, "title": "Miss Pettigrew Lives for a Day", "release_date": "2008-03-07", "original_language": "en", "original_title": "Miss Pettigrew Lives for a Day", "genre_ids": [35, 18, 10749], "backdrop_path": "/tMr1z2BBrx8UhXHNjgPOdz3PHJs.jpg", "adult": false, "overview": "London, England, on the eve of World War II. Guinevere Pettigrew, a strict governess who is unable to keep a job, is fired again. Lost in the hostile city, a series of fortunate circumstances lead her to meet Delysia LaFosse, a glamorous and dazzling American jazz singer whose life is a chaos ruled by indecision, a continuous battle between love and fame.", "poster_path": "/nKjllMuQ1WtpDYMBodMWVDOb0fv.jpg", "popularity": 8.711}, {"adult": false, "backdrop_path": "/EVaEyQvzu13g6FPnzb4IlbbrGM.jpg", "genre_ids": [53, 12, 14, 878, 10749], "id": 2134, "original_language": "en", "original_title": "The Time Machine", "overview": "A Victorian Englishman travels to the far future and finds that humanity has divided into two hostile species.", "poster_path": "/cjmluKjmaqLfZmwMEwjki6tvLnS.jpg", "release_date": "1960-05-25", "title": "The Time Machine", "video": false, "vote_average": 7.4, "vote_count": 399, "popularity": 13.907}, {"id": 410117, "video": false, "vote_count": 321, "vote_average": 6.6, "title": "Lady Macbeth", "release_date": "2016-12-12", "original_language": "en", "original_title": "Lady Macbeth", "genre_ids": [18], "backdrop_path": "/wztoDoglCOuiEfzl1FS6mglBioF.jpg", "adult": false, "overview": "Rural England, 1865. Katherine, suffocated by her loveless marriage to a bitter man and restrained by his father's tyranny, unleashes an irresistible force within her, so powerful that she will stop at nothing to get what she wants.", "poster_path": "/xWTJbhTwSTJmhLlX5xAOxPhdnXc.jpg", "popularity": 14.129}, {"id": 657, "video": false, "vote_count": 1493, "vote_average": 7.1, "title": "From Russia with Love", "release_date": "1963-10-11", "original_language": "en", "original_title": "From Russia with Love", "genre_ids": [28, 12, 53], "backdrop_path": "/vemDErY5wkg2Yg5eTQ7ciPRuyqt.jpg", "adult": false, "overview": "Agent 007 is back in the second installment of the James Bond series, this time battling a secret crime organization known as SPECTRE. Russians Rosa Klebb and Kronsteen are out to snatch a decoding device known as the Lektor, using the ravishing Tatiana to lure Bond into helping them. Bond willingly travels to meet Tatiana in Istanbul, where he must rely on his wits to escape with his life in a series of deadly encounters with the enemy", "poster_path": "/fvIG285JwenrV1K6kVASi1TECJ0.jpg", "popularity": 34.436}, {"adult": false, "backdrop_path": "/913sS08HhcTQTwz7X567iR6DLHn.jpg", "genre_ids": [12, 28, 53], "id": 682, "original_language": "en", "original_title": "The Man with the Golden Gun", "overview": "A golden bullet has 007 engraved on it as it smashes into the secret service headquarters. The bullet came from the professional killer Scaramanga who has yet to miss a target and James Bond begins a mission to try and stop him.", "poster_path": "/7VSVgxAvA7IdTf8T6Oon1eaReeJ.jpg", "release_date": "1974-12-01", "title": "The Man with the Golden Gun", "video": false, "vote_average": 6.5, "vote_count": 996, "popularity": 22.701}, {"adult": false, "backdrop_path": "/9QcYwm5af4JaUSOyuysVEYOyEXn.jpg", "genre_ids": [12, 28, 53], "id": 646, "original_language": "en", "original_title": "Dr. No", "overview": "In the film that launched the James Bond saga, Agent 007 battles mysterious Dr. No, a scientific genius bent on destroying the U.S. space program. As the countdown to disaster begins, Bond must go to Jamaica, where he encounters beautiful Honey Ryder, to confront a megalomaniacal villain in his massive island headquarters.", "poster_path": "/gRdfLVVf6FheOw6mw6wOsKhZG1l.jpg", "release_date": "1962-10-04", "title": "Dr. No", "video": false, "vote_average": 7.0, "vote_count": 1837, "popularity": 45.268}, {"id": 667, "video": false, "vote_count": 1032, "vote_average": 6.6, "title": "You Only Live Twice", "release_date": "1967-06-12", "original_language": "en", "original_title": "You Only Live Twice", "genre_ids": [28, 12, 53], "backdrop_path": "/jahBdYTAGMJaEove9l9hzYpDKJD.jpg", "adult": false, "overview": "A mysterious spacecraft captures Russian and American space capsules and brings the two superpowers to the brink of war. James Bond investigates the case in Japan and comes face to face with his archenemy Blofeld.", "poster_path": "/7dnsJZniZK1Hbc9mOFDYa5W0dHi.jpg", "popularity": 31.193}, {"adult": false, "backdrop_path": "/A0enTetqBfL3UqLPyg0MONLQDXN.jpg", "genre_ids": [16, 10751, 12, 9648], "id": 9994, "original_language": "en", "original_title": "The Great Mouse Detective", "overview": "When the diabolical Professor Ratigan kidnaps London's master toymaker, the brilliant master of disguise Basil of Baker Street and his trusted sidekick Dawson try to elude the ultimate trap and foil the perfect crime.", "poster_path": "/9uDr7vfjCFr39KGCcqrk44Cg7fQ.jpg", "release_date": "1986-07-02", "title": "The Great Mouse Detective", "video": false, "vote_average": 7.1, "vote_count": 894, "popularity": 20.412}, {"id": 267935, "video": false, "vote_count": 2109, "vote_average": 6.2, "title": "The BFG", "release_date": "2016-06-01", "original_language": "en", "original_title": "The BFG", "genre_ids": [12, 14, 10751], "backdrop_path": "/eYT9XQBo1eC4DwPYqhCol0dFFc2.jpg", "adult": false, "overview": "The BFG is no ordinary bone-crunching giant. He is far too nice and jumbly. It's lucky for Sophie that he is. Had she been carried off in the middle of the night by the Bloodbottler, or any of the other giants\u2014rather than the BFG\u2014she would have soon become breakfast. When Sophie hears that the giants are flush-bunking off to England to swollomp a few nice little chiddlers, she decides she must stop them once and for all. And the BFG is going to help her!", "poster_path": "/xMvzfhXZdfeLBZZUIQRB4vw1EtA.jpg", "popularity": 24.966}, {"adult": false, "backdrop_path": "/1N4CeQyy3kh1pqmTGvMU090sCvh.jpg", "genre_ids": [12, 28, 53], "id": 253, "original_language": "en", "original_title": "Live and Let Die", "overview": "James Bond must investigate a mysterious murder case of a British agent in New Orleans. Soon he finds himself up against a gangster boss named Mr. Big.", "poster_path": "/p34OScaro2KdISrT4EMfeh1aS0E.jpg", "release_date": "1973-07-05", "title": "Live and Let Die", "video": false, "vote_average": 6.5, "vote_count": 991, "popularity": 21.51}, {"id": 668, "video": false, "vote_count": 896, "vote_average": 6.5, "title": "On Her Majesty's Secret Service", "release_date": "1969-12-12", "original_language": "en", "original_title": "On Her Majesty's Secret Service", "genre_ids": [28, 12, 53], "backdrop_path": "/o71ywQSmQ1hNPSLKJuCMyDTrL7K.jpg", "adult": false, "overview": "James Bond tracks his archnemesis, Ernst Blofeld, to a mountaintop retreat where he is training an army of beautiful, lethal women. Along the way, Bond falls for Italian contessa Tracy Draco, and marries her in order to get closer to Blofeld.", "poster_path": "/7mcqT56ES5U3wg26vQQuEnOaFSj.jpg", "popularity": 23.392}, {"adult": false, "backdrop_path": "/kiWvoV78Cc3fUwkOHKzyBgVdrDD.jpg", "genre_ids": [37, 18, 12], "id": 281957, "original_language": "en", "original_title": "The Revenant", "overview": "In the 1820s, a frontiersman, Hugh Glass, sets out on a path of vengeance against those who left him for dead after a bear mauling.", "poster_path": "/oXUWEc5i3wYyFnL1Ycu8ppxxPvs.jpg", "release_date": "2015-12-25", "title": "The Revenant", "video": false, "vote_average": 7.5, "vote_count": 12122, "popularity": 30.491}, {"id": 627, "video": false, "vote_count": 6003, "vote_average": 8.0, "title": "Trainspotting", "release_date": "1996-02-23", "original_language": "en", "original_title": "Trainspotting", "genre_ids": [80, 18], "backdrop_path": "/Aw0z8bUhGljT0ots6udf1MTLEMi.jpg", "adult": false, "overview": "Mark Renton, deeply immersed in the Edinburgh drug scene, tries to clean up and get out, despite the allure of the drugs and influence of friends.", "poster_path": "/p1O3eFsdb0GEIYu87xlwV7P4jM1.jpg", "popularity": 38.614}, {"id": 411728, "video": false, "vote_count": 342, "vote_average": 7.2, "title": "The Professor and the Madman", "release_date": "2019-03-07", "original_language": "en", "original_title": "The Professor and the Madman", "genre_ids": [18, 36, 9648, 53], "backdrop_path": "/zhNfM1CSQqJtIqelwlK9iKtSd9P.jpg", "adult": false, "overview": "Professor James Murray begins work compiling words for the first edition of the Oxford English Dictionary in the mid 19th century, and receives over 10,000 entries from a patient at Broadmoor Criminal Lunatic Asylum, Dr. William Minor.", "poster_path": "/gtGCDLhfjW96qVarwctnuTpGOtD.jpg", "popularity": 14.972}], "total_pages": 223, "total_results": 4443}, "recommendations": {"page": 1, "results": [{"adult": false, "backdrop_path": "/tVQRe6sCsjFJKszYHdMrb4tflQr.jpg", "genre_ids": [18], "id": 51548, "original_language": "es", "original_title": "La mirada invisible", "overview": "Writer/director Diego Lerman teams with screenwriter Maria Meira to adapt Mart\u00edn Kohan's allegorical novel about Mar\u00eda Teresa (Julieta Zylberberg), a teaching assistant at a private Buenos Aires school who begins obsessively spying on her students in the early 1980s, as the public rises up against the military dictatorship.", "poster_path": "/vNZllbsnaJPeLTggJIvCpRoa36m.jpg", "release_date": "2010-08-19", "title": "The Invisible Eye", "video": false, "vote_average": 6.2, "vote_count": 7, "popularity": 1.258}, {"adult": false, "backdrop_path": "/ygE6FbYAE4RE61Bdrhg6xDr2mZQ.jpg", "genre_ids": [18], "id": 72987, "original_language": "it", "original_title": "A Soldier's Daughter Never Cries", "overview": "This fictionalized story, based on the family life of writer James Jones, is an emotional slice-of-life story. Jones is portrayed here portrayed as Bill Willis, a former war hero turned author who combats alcoholism and is starting to experience health problems. Living in France with his wife, daughter, and an adopted son, the family travels an unconventional road which casts them as outsiders to others. Preaching a sexual freedom, his daughter's sexual discovery begins at an early age and betrays her when the family moves to Hanover in America. Her overt sexuality clashes with the values of her teenage American peers and gives her a problematic reputation. Meanwhile, her brooding brother copes with his own interior pain regarding his past, only comfortable communicating within the domestic space.", "poster_path": "/k3DmaY20ynkRTE17Oe1dR8pZWaR.jpg", "release_date": "1998-09-18", "title": "A Soldier's Daughter Never Cries", "video": false, "vote_average": 6.9, "vote_count": 11, "popularity": 2.913}, {"adult": false, "backdrop_path": null, "genre_ids": [18], "id": 124843, "original_language": "en", "original_title": "Ripe", "overview": "When their abusive parents are killed in a car crash, twin sisters Rosie and Violet vow to run away to Kentucky in search of a better life. While on the road, the girls meet up with Pete, a drifter working as a grounds keeper on a derelict army base, who takes them in. While Violet falls for him, Rosie becomes increasingly angry and hostile, and the sisters' childhood bond is eventually destroyed forever.", "poster_path": "/mzjRWVmEIpMLEBhDgDuKXPuHBjE.jpg", "release_date": "1996-09-10", "title": "Ripe", "video": false, "vote_average": 4.6, "vote_count": 9, "popularity": 3.696}, {"adult": false, "backdrop_path": null, "genre_ids": [18, 35], "id": 190780, "original_language": "en", "original_title": "Twenty-one", "overview": "Katie is a free spirited independently minded 21-year-old. The film follows her as she reflects on the men in her life. Along the way we meet her drug addict boyfriend Bobby, her lover Jack, close friend Baldy, and her father.", "poster_path": "/63kpla7ON9Fa4Y4FzRUpQq1nivv.jpg", "release_date": "1991-10-04", "title": "Twenty-one", "video": false, "vote_average": 5.3, "vote_count": 4, "popularity": 3.514}, {"adult": false, "backdrop_path": "/6dEjY2tcHoSJAK8jUGWWHBFZQyp.jpg", "genre_ids": [28, 12], "id": 20789, "original_language": "en", "original_title": "The Flyboys", "overview": "Two boys from a small town find their courage tested when they accidentally stow away aboard an airplane owned by the mob...", "poster_path": "/y7gzQVmBoDoZWYzu7LxLdG3G31q.jpg", "release_date": "2008-08-15", "title": "The Flyboys", "video": false, "vote_average": 6.5, "vote_count": 24, "popularity": 8.617}, {"id": 26271, "video": false, "vote_count": 19, "vote_average": 4.5, "title": "Live Nude Girls", "release_date": "1995-12-08", "original_language": "en", "original_title": "Live Nude Girls", "genre_ids": [35], "backdrop_path": "/8mjc5c2ob1xDiKCJsBr9rgYl69y.jpg", "adult": false, "overview": "A group of old friends at a Hens Night discuss their issues, uncertainties, fears and fantasies.", "poster_path": "/Akk7MMkH2g95e6LghQBNrDzKiAy.jpg", "popularity": 8.403}, {"adult": false, "backdrop_path": "/j5YinJb5iBbjiZ9iGJseuv3deei.jpg", "genre_ids": [18], "id": 14349, "original_language": "en", "original_title": "Sleepwalking", "overview": "When her boyfriend is arrested for marijuana possession, Joleen Reedy and her 11-year-old daughter, Tara, take refuge with Joleen's aimless brother, James. Joleen soon runs off with a truck driver, and James is unable to meet his responsibilities. After Child Protective Services takes possession of Tara, James abducts her from a foster home, and the two travel from California to Utah, where his abusive father lives.", "poster_path": "/rXtMyKFaE0j3H3BwILurDaBrU1E.jpg", "release_date": "2008-03-14", "title": "Sleepwalking", "video": false, "vote_average": 6.3, "vote_count": 37, "popularity": 5.208}, {"adult": false, "backdrop_path": "/e5nPq44Spqgs3fCBOZijlW2OmT0.jpg", "genre_ids": [18, 53, 10749], "id": 61294, "original_language": "ru", "original_title": "You and I", "overview": "Two teenage girls, Janie who is American and Lana who is Russian, fall in love after meeting at a t.A.T.u concert and are swept into a dangerous world of obsession, drug abuse and murder.", "poster_path": "/eNXpG83JaDLyaQZUozOiKQIU6Wm.jpg", "release_date": "2011-01-31", "title": "You and I", "video": false, "vote_average": 4.8, "vote_count": 26, "popularity": 4.15}], "total_pages": 1, "total_results": 8}, "credits": {"cast": [{"cast_id": 3, "character": "Elisabeth Laurier", "credit_id": "52fe46ca9251416c9105fd0b", "gender": 1, "id": 1957, "name": "Sophie Marceau", "order": 0, "profile_path": "/5pJ16f9QxzZMzcr9CpSnr6dTwGG.jpg"}, {"cast_id": 4, "character": "Charles Godwin", "credit_id": "52fe46ca9251416c9105fd0f", "gender": 2, "id": 8435, "name": "Stephen Dillane", "order": 1, "profile_path": "/4LOq4XUIsUTO1VdwqL1BWZIMRL3.jpg"}, {"cast_id": 5, "character": "Louisa Godwin", "credit_id": "52fe46ca9251416c9105fd13", "gender": 1, "id": 137602, "name": "Dominique Belcourt", "order": 2, "profile_path": null}, {"cast_id": 6, "character": "John Taylor", "credit_id": "52fe46ca9251416c9105fd17", "gender": 2, "id": 51805, "name": "Kevin Anderson", "order": 3, "profile_path": "/roCItER7LbrJJvAV1Fku3jG9g8k.jpg"}, {"cast_id": 7, "character": "Lord Clare", "credit_id": "591361bbc3a36864c6059bbc", "gender": 2, "id": 14324, "name": "Joss Ackland", "order": 4, "profile_path": "/l7XyBslyU5slMUuO9zTjCRZKXex.jpg"}, {"cast_id": 9, "character": "Constance", "credit_id": "5d584a90ba48020018a7c9f4", "gender": 1, "id": 65890, "name": "Lia Williams", "order": 5, "profile_path": "/wcyJr3hBkh1FxbmyX4EDWTfgxYL.jpg"}, {"cast_id": 10, "character": "Molly Holland", "credit_id": "5d584a9d4bc38b08ac251ed6", "gender": 0, "id": 208668, "name": "Sally Dexter", "order": 6, "profile_path": "/iS5igs80JDb9QXH4aL9uHwXEDEm.jpg"}, {"cast_id": 11, "character": "Ellen", "credit_id": "5d584ab11684f70018ca08f8", "gender": 1, "id": 1239068, "name": "Emma Amos", "order": 7, "profile_path": "/c1MrhdwIwKaYE86Dd9OeGSwAmoN.jpg"}, {"cast_id": 12, "character": "Mrs. Jago", "credit_id": "5d584ace1684f71b64c9f5f7", "gender": 1, "id": 1233838, "name": "Maggie McCarthy", "order": 8, "profile_path": "/n1zXalKbjq9qKfsr3L30auvmk0z.jpg"}, {"cast_id": 13, "character": "Sussman", "credit_id": "5d584adde8131d6f6f89dc6a", "gender": 2, "id": 659, "name": "Wolf Kahler", "order": 9, "profile_path": "/uqHI2PLeGFxdjlw0qIk1D17NjWb.jpg"}, {"cast_id": 14, "character": "Amy Godwin", "credit_id": "5d584aef1684f728e5c9dfa4", "gender": 0, "id": 1220530, "name": "Annabel Giles", "order": 10, "profile_path": null}, {"cast_id": 15, "character": "Robert Ames", "credit_id": "5d584b5bba48020018a7ca63", "gender": 0, "id": 1220530, "name": "Annabel Giles", "order": 11, "profile_path": null}, {"cast_id": 16, "character": "Hannah", "credit_id": "5d584b821684f71b64c9f752", "gender": 0, "id": 1220352, "name": "Valerie Minifie", "order": 12, "profile_path": null}, {"cast_id": 17, "character": "Mrs. Maidment", "credit_id": "5d584b8ee8131d34388957c3", "gender": 1, "id": 208206, "name": "Diana Payan", "order": 13, "profile_path": "/8whSjxgBDiOmHerHw6idBlQUDxw.jpg"}, {"cast_id": 18, "character": "Carlo", "credit_id": "5d584b96ba48020015a7cae1", "gender": 0, "id": 1348558, "name": "John Hodgkinson", "order": 14, "profile_path": null}, {"cast_id": 19, "character": "Dodds", "credit_id": "5d584ba21684f70017ca0e51", "gender": 0, "id": 1765719, "name": "Anthony Dutton", "order": 15, "profile_path": null}, {"cast_id": 20, "character": "Dr. Geddes", "credit_id": "5d584bb34bc38b1d842416cb", "gender": 2, "id": 109201, "name": "Hugh Walters", "order": 16, "profile_path": null}, {"cast_id": 21, "character": "Rector", "credit_id": "5d584bceba48020017a7cc9f", "gender": 0, "id": 1214087, "name": "Peter Needham", "order": 17, "profile_path": null}, {"cast_id": 22, "character": "Mrs. Hurst", "credit_id": "5d584bdb1684f75356c9f5ac", "gender": 0, "id": 1922523, "name": "Melissa Knatchbull", "order": 18, "profile_path": null}], "crew": [{"credit_id": "52fe46ca9251416c9105fd01", "department": "Directing", "gender": 2, "id": 933, "job": "Director", "name": "William Nicholson", "profile_path": "/kfAuyOIK4vBpwCRg7kVrV6cOX3f.jpg"}, {"credit_id": "52fe46ca9251416c9105fd07", "department": "Writing", "gender": 2, "id": 933, "job": "Screenplay", "name": "William Nicholson", "profile_path": "/kfAuyOIK4vBpwCRg7kVrV6cOX3f.jpg"}, {"credit_id": "5c4c6b590e0a263ccdd3326d", "department": "Art", "gender": 0, "id": 2217117, "job": "Property Master", "name": "Mickey Lennon", "profile_path": null}, {"credit_id": "5d584c0aba48020018a7cb0b", "department": "Production", "gender": 1, "id": 33437, "job": "Co-Executive Producer", "name": "Susan Cartsonis", "profile_path": null}, {"credit_id": "5d584c154bc38b611b262f43", "department": "Production", "gender": 2, "id": 65329, "job": "Producer", "name": "Brian Eastman", "profile_path": null}, {"credit_id": "5d584c29e8131d3438895849", "department": "Production", "gender": 2, "id": 34482, "job": "Executive Producer", "name": "Carmen Finestra", "profile_path": null}, {"credit_id": "5d584c37e8131d3438895855", "department": "Production", "gender": 0, "id": 2389427, "job": "Executive Producer", "name": "Rick Leed", "profile_path": null}, {"credit_id": "5d584c494bc38b1d84241736", "department": "Production", "gender": 2, "id": 34483, "job": "Executive Producer", "name": "David McFadzean", "profile_path": null}, {"credit_id": "5d584c69ba48020015a7cb1f", "department": "Production", "gender": 0, "id": 1314342, "job": "Executive Producer", "name": "Ted Morley", "profile_path": null}, {"credit_id": "5d584c911684f728e5c9e0c5", "department": "Production", "gender": 2, "id": 34481, "job": "Executive Producer", "name": "Matt Williams", "profile_path": null}, {"credit_id": "5d584ca0ba48020016a7cf41", "department": "Sound", "gender": 2, "id": 16929, "job": "Original Music Composer", "name": "Christopher Gunning", "profile_path": null}, {"credit_id": "5d584cb8ba48020014a7cbf0", "department": "Camera", "gender": 0, "id": 2389433, "job": "Director of Photography", "name": "Nic Morris", "profile_path": null}, {"credit_id": "5d584cc1ba48020017a7cd4c", "department": "Editing", "gender": 0, "id": 1318836, "job": "Editor", "name": "Chris Wimble", "profile_path": null}, {"credit_id": "5d584cd9ba48020015a7cb4b", "department": "Production", "gender": 0, "id": 2389435, "job": "Casting", "name": "John Hubbard", "profile_path": null}, {"credit_id": "5d584ce74bc38b1d8424177d", "department": "Production", "gender": 1, "id": 7786, "job": "Casting", "name": "Ros Hubbard", "profile_path": null}, {"credit_id": "5d584d1de8131d4a118b666b", "department": "Art", "gender": 0, "id": 2389439, "job": "Production Design", "name": "Rob Harris", "profile_path": null}, {"credit_id": "5d584d27e8131d6f6f89ddb7", "department": "Art", "gender": 2, "id": 16733, "job": "Art Direction", "name": "Peter Wenham", "profile_path": null}, {"credit_id": "5d584d43ba48020016a7cf96", "department": "Art", "gender": 0, "id": 2389441, "job": "Set Decoration", "name": "Caroline Smith", "profile_path": null}, {"credit_id": "5d584d4eba48020017a7cd7d", "department": "Costume & Make-Up", "gender": 0, "id": 14144, "job": "Costume Design", "name": "Andrea Galer", "profile_path": null}]}}