{"adult": false, "backdrop_path": "/1u0eCifYlWmC7xGnzJfUAevdtV7.jpg", "belongs_to_collection": null, "budget": 0, "genres": [{"id": 37, "name": "Western"}], "homepage": "", "id": 38670, "imdb_id": "tt0064300", "original_language": "it", "original_title": "Un esercito di cinque uomini", "overview": "Set during the Mexican Revolution, a man known only as \"The Dutchman\" has a plan, and brings in four of his old acquaintences, including an old army buddy and a silent Japanese swordsman, to help him out by promising a $1000 reward if it succeeds. The plan turns out to be a fool's mission: rob a train carrying $500,000 in gold that's guarded by dozens of heavily armed soldiers and passes through a steady stream of military checkpoints. Naturally, his friends agree to go along with the scheme", "popularity": 4.642, "poster_path": "/y0R9JZem9sRQVEQqNPl0cEslbck.jpg", "production_companies": [{"id": 10509, "logo_path": null, "name": "Tiger Film", "origin_country": ""}, {"id": 21, "logo_path": "/mjofSXiHpG5t6KYmU4l4FrUhT7m.png", "name": "Metro-Goldwyn-Mayer", "origin_country": "US"}], "production_countries": [{"iso_3166_1": "IT", "name": "Italy"}], "release_date": "1969-10-16", "revenue": 0, "runtime": 105, "spoken_languages": [{"iso_639_1": "it", "name": "Italiano"}], "status": "Released", "tagline": "", "title": "The Five Man Army", "video": false, "vote_average": 6.9, "vote_count": 18, "keywords": {"keywords": [{"id": 779, "name": "martial arts"}, {"id": 780, "name": "kung fu"}, {"id": 2940, "name": "mexican revolution"}, {"id": 4268, "name": "fort"}, {"id": 10950, "name": "shootout"}, {"id": 11221, "name": "blood"}, {"id": 12371, "name": "gunfight"}, {"id": 14643, "name": "battle"}, {"id": 156212, "name": "spaghetti western"}]}, "similar": {"page": 1, "results": [{"adult": false, "backdrop_path": "/wNm3hNJuOk117wEwuESKO8eCEAk.jpg", "genre_ids": [28], "id": 9461, "original_language": "en", "original_title": "Enter the Dragon", "overview": "A martial artist agrees to spy on a reclusive crime lord using his invitation to a tournament there as cover.", "poster_path": "/6C006cxfwjWYkBW4fM3xCMyr7Yg.jpg", "release_date": "1973-08-17", "title": "Enter the Dragon", "video": false, "vote_average": 7.4, "vote_count": 911, "popularity": 24.483}, {"adult": false, "backdrop_path": "/5cU4aQsBVCAnDarJHGYmi6RRRGC.jpg", "genre_ids": [12, 37], "id": 576, "original_language": "en", "original_title": "The Wild Bunch", "overview": "Aging outlaw, Pike Bishop prepares to retire after one final robbery. Joined by his gang, Dutch Engstrom and brothers Lyle and Tector Gorch, Bishop discovers the heist is a setup orchestrated in part by a former partner, Deke Thornton. As the remaining gang takes refuge in Mexican territory, Thornton trails them\u2014resulting in fierce gunfights with plenty of casualties.", "poster_path": "/zZhp7p8qvfVrSLKpOFHcKjpEj8f.jpg", "release_date": "1969-06-17", "title": "The Wild Bunch", "video": false, "vote_average": 7.7, "vote_count": 556, "popularity": 16.732}, {"adult": false, "backdrop_path": "/xGC2fY5KFmtuXnsuQwYQKFOLZFy.jpg", "genre_ids": [37], "id": 429, "original_language": "it", "original_title": "Il buono, il brutto, il cattivo", "overview": "While the Civil War rages between the Union and the Confederacy, three men \u2013 a quiet loner, a ruthless hit man and a Mexican bandit \u2013 comb the American Southwest in search of a strongbox containing $200,000 in stolen gold.", "poster_path": "/wfPHdfofBD5PN96dV96a51B3Ja2.jpg", "release_date": "1966-12-23", "title": "The Good, the Bad and the Ugly", "video": false, "vote_average": 8.4, "vote_count": 4579, "popularity": 36.175}, {"id": 288, "video": false, "vote_count": 708, "vote_average": 7.7, "title": "High Noon", "release_date": "1952-03-27", "original_language": "en", "original_title": "High Noon", "genre_ids": [37], "backdrop_path": "/6AH0BpiEaLz3NMTaBhqgHdA4YJ6.jpg", "adult": false, "overview": "Will Kane, the sheriff of a small town in New Mexico, learns a notorious outlaw he put in jail has been freed, and will be arriving on the noon train. Knowing the outlaw and his gang are coming to kill him, Kane is determined to stand his ground, so he gathers a posse from among the local townspeople.", "poster_path": "/nUSLv12qQWhHB60PqXDBRP1wmJa.jpg", "popularity": 12.393}, {"id": 9470, "video": false, "vote_count": 1391, "vote_average": 7.3, "title": "Kung Fu Hustle", "release_date": "2004-02-10", "original_language": "cn", "original_title": "\u529f\u592b", "genre_ids": [28, 35, 80, 14], "backdrop_path": "/qpJWj6MI6VLRt9bGbJVZtmFvqWw.jpg", "adult": false, "overview": "Set in Canton, China in the 1940s, the story revolves in a town ruled by the Axe Gang, Sing who desperately wants to become a member. He stumbles into a slum ruled by eccentric landlords who turns out to be the greatest kung-fu masters in disguise. Sing's actions eventually cause the Axe Gang and the slumlords to engage in an explosive kung-fu battle. Only one side will win and only one hero will emerge as the greatest kung-fu master of all.", "poster_path": "/dZsfDrNLGWgsIUQL1vGhl8tbnqY.jpg", "popularity": 24.679}, {"adult": false, "backdrop_path": "/9DlrsXH9LOgPeuF6Hljmx8GQNlM.jpg", "genre_ids": [18, 28], "id": 7549, "original_language": "zh", "original_title": "\u970d\u5143\u7532", "overview": "Huo Yuan Jia became the most famous martial arts fighter in all of China at the turn of the 20th Century. Huo faced personal tragedy but ultimately fought his way out of darkness, defining the true spirit of martial arts and also inspiring his nation. The son of a great fighter who didn't wish for his child to follow in his footsteps, Huo resolves to teach himself how to fight - and win.", "poster_path": "/nPku02hVAFPsAd1pJr81OkdBidw.jpg", "release_date": "2006-01-26", "title": "Fearless", "video": false, "vote_average": 7.4, "vote_count": 648, "popularity": 15.969}, {"id": 485811, "video": false, "vote_count": 52, "vote_average": 4.4, "title": "Redcon-1", "release_date": "2018-09-07", "original_language": "en", "original_title": "Redcon-1", "genre_ids": [28, 27], "backdrop_path": "/palbhPOSYf2g1p18vWd91dDhZLM.jpg", "adult": false, "overview": "After a zombie apocalypse spreads from a London prison, the UK is brought to its knees. The spread of the virus is temporarily contained but, without a cure, it\u2019s only a matter of time before it breaks its boundaries and the biggest problem of all\u2026 any zombies with combat skills are now enhanced. With the South East of England quarantined from the rest of the world using fortified borders, intelligence finds that the scientist responsible for the outbreak is alive and well in London. With his recovery being the only hope of a cure, a squad of eight Special Forces soldiers is sent on a suicide mission to the city, now ruled by the undead, with a single task: get him out alive within 72 hours by any means necessary. What emerges is an unlikely pairing on a course to save humanity against ever-rising odds.", "poster_path": "/vVPrWngVJ2cfYAncBedQty69Dlf.jpg", "popularity": 8.926}, {"id": 391757, "video": false, "vote_count": 185, "vote_average": 6.5, "title": "Never Back Down: No Surrender", "release_date": "2016-06-07", "original_language": "en", "original_title": "Never Back Down: No Surrender", "genre_ids": [28, 18], "backdrop_path": "/pzjnObK3uiHcKwiir9OPPWzbW8f.jpg", "adult": false, "overview": "Picking up after the events of Never Back Down 2, former MMA champion Case Walker is on the comeback trail to become champion once again.", "poster_path": "/dYNS4o4Q4DDLiKRAAvZ9KcrhHuy.jpg", "popularity": 16.224}, {"id": 140300, "video": false, "vote_count": 3210, "vote_average": 6.7, "title": "Kung Fu Panda 3", "release_date": "2016-01-23", "original_language": "en", "original_title": "Kung Fu Panda 3", "genre_ids": [28, 12, 16, 35, 10751], "backdrop_path": "/eHWmEUP4fa7h1Fe7TXfTL7ncDl8.jpg", "adult": false, "overview": "Continuing his \"legendary adventures of awesomeness\", Po must face two hugely epic, but different threats: one supernatural and the other a little closer to his home.", "poster_path": "/MZFPacfKzgisnPoJIPEFZUXBBT.jpg", "popularity": 29.466}, {"id": 24, "video": false, "vote_count": 10671, "vote_average": 7.9, "title": "Kill Bill: Vol. 1", "release_date": "2003-10-10", "original_language": "en", "original_title": "Kill Bill: Vol. 1", "genre_ids": [28, 80], "backdrop_path": "/kkS8PKa8c134vXsj2fQkNqOaCXU.jpg", "adult": false, "overview": "An assassin is shot by her ruthless employer, Bill, and other members of their assassination circle \u2013 but she lives to plot her vengeance.", "poster_path": "/v7TaX8kXMXs5yFFGR41guUDNcnB.jpg", "popularity": 37.008}, {"adult": false, "backdrop_path": "/2p5rA1NRoyyAFfzdHl1Ab1RN3qr.jpg", "genre_ids": [80, 28, 878], "id": 9739, "original_language": "en", "original_title": "Demolition Man", "overview": "Simon Phoenix, a violent criminal cryogenically frozen in 1996, escapes during a parole hearing in 2032 in the utopia of San Angeles. Police are incapable of dealing with his violent ways and turn to his captor, who had also been cryogenically frozen after being wrongfully accused of killing 30 innocent people while apprehending Phoenix.", "poster_path": "/k0PN3Ho12cGGIVJW7SCS7apLYaP.jpg", "release_date": "1993-10-08", "title": "Demolition Man", "video": false, "vote_average": 6.5, "vote_count": 1913, "popularity": 17.018}, {"id": 196, "video": false, "vote_count": 6110, "vote_average": 7.4, "title": "Back to the Future Part III", "release_date": "1990-05-25", "original_language": "en", "original_title": "Back to the Future Part III", "genre_ids": [12, 35, 878], "backdrop_path": "/pP2a4MBQbIeZMbErBWMjxTT5Npb.jpg", "adult": false, "overview": "The final installment of the Back to the Future trilogy finds Marty digging the trusty DeLorean out of a mineshaft and looking for Doc in the Wild West of 1885. But when their time machine breaks down, the travelers are stranded in a land of spurs. More problems arise when Doc falls for pretty schoolteacher Clara Clayton, and Marty tangles with Buford Tannen.", "poster_path": "/6DmgPTZYaug7QNDjOhUDWyjOQDl.jpg", "popularity": 17.191}, {"id": 9502, "video": false, "vote_count": 6768, "vote_average": 7.1, "title": "Kung Fu Panda", "release_date": "2008-06-04", "original_language": "en", "original_title": "Kung Fu Panda", "genre_ids": [12, 16, 35, 10751], "backdrop_path": "/pmLEmMLYCreFAxfdCt5uO1wDgSi.jpg", "adult": false, "overview": "When the Valley of Peace is threatened, lazy Po the panda discovers his destiny as the \"chosen one\" and trains to become a kung fu hero, but transforming the unsleek slacker into a brave warrior won't be easy. It's up to Master Shifu and the Furious Five -- Tigress, Crane, Mantis, Viper and Monkey -- to give it a try.", "poster_path": "/mk3UyyaLyXhgIhmLji25OUPXvGR.jpg", "popularity": 25.208}, {"id": 146, "video": false, "vote_count": 1770, "vote_average": 7.3, "title": "Crouching Tiger, Hidden Dragon", "release_date": "2000-07-06", "original_language": "zh", "original_title": "\u5367\u864e\u85cf\u9f99", "genre_ids": [28, 12, 18, 10749], "backdrop_path": "/dKenGLffFC9HwuxG4Sq7fJRkiFb.jpg", "adult": false, "overview": "Two warriors in pursuit of a stolen sword and a notorious fugitive are led to an impetuous, physically-skilled, teenage nobleman's daughter, who is at a crossroads in her life.", "poster_path": "/3yYPhffQRuy45HlNabFxNLyP9mg.jpg", "popularity": 17.675}, {"adult": false, "backdrop_path": "/uQqQvmptJLPTcWDrZXn22p7j7s3.jpg", "genre_ids": [28, 80, 18, 53], "id": 395990, "original_language": "en", "original_title": "Death Wish", "overview": "A mild-mannered father is transformed into a killing machine after his family is torn apart by a violent act.", "poster_path": "/g0eEEZAqMf98ULQnoiORuazjOpn.jpg", "release_date": "2018-03-02", "title": "Death Wish", "video": false, "vote_average": 5.9, "vote_count": 1402, "popularity": 22.854}, {"id": 8961, "video": false, "vote_count": 2964, "vote_average": 6.5, "title": "Bad Boys II", "release_date": "2003-07-18", "original_language": "en", "original_title": "Bad Boys II", "genre_ids": [28, 12, 35, 80, 53], "backdrop_path": "/5xQVApmdUbBlCi1QzS8NwbCF0Ne.jpg", "adult": false, "overview": "Out-of-control, trash-talking buddy cops Marcus Burnett and Mike Lowrey of the Miami Narcotics Task Force reunite, and bullets fly, cars crash and laughs explode as they pursue a whacked-out drug lord from the streets of Miami to the barrios of Cuba. But the real fireworks result when Marcus discovers that playboy Mike is secretly romancing Marcus\u2019 sexy sister.", "poster_path": "/680X9apSqmAcebLg8evnnUeQNeI.jpg", "popularity": 43.143}, {"adult": false, "backdrop_path": "/3hYidDKVg4rsrkHQsbOKeqt6qkj.jpg", "genre_ids": [35, 28], "id": 19274, "original_language": "cn", "original_title": "\u7b11\u62f3\u602a\u62db", "overview": "Jackie Chan is a youngster, living in a remote vllage with his grandfather who teaches him Kong-Fu (naturally). He keeps getting into fights, even though his grandfather warns him not to show their Kong-Fu to others. Jackie, though, is tempted by some thugs he beat up to act as the master of a Kong-Fu school. This school's name apparently spreads far, as an old enemy of Jackie's grandfather (who t", "poster_path": "/ic5iTcB0HOfNCjQRV10SJ5oA4El.jpg", "release_date": "1979-02-17", "title": "Fearless Hyena", "video": false, "vote_average": 6.6, "vote_count": 59, "popularity": 18.746}, {"id": 605, "video": false, "vote_count": 5694, "vote_average": 6.6, "title": "The Matrix Revolutions", "release_date": "2003-11-03", "original_language": "en", "original_title": "The Matrix Revolutions", "genre_ids": [28, 12, 878, 53], "backdrop_path": "/pdVHUsb2eEz9ALNTr6wfRJe5xVa.jpg", "adult": false, "overview": "The human city of Zion defends itself against the massive invasion of the machines as Neo fights to end the war at another front while also opposing the rogue Agent Smith.", "poster_path": "/sKogjhfs5q3azmpW7DFKKAeLEG8.jpg", "popularity": 26.149}, {"id": 604, "video": false, "vote_count": 6338, "vote_average": 6.9, "title": "The Matrix Reloaded", "release_date": "2003-05-15", "original_language": "en", "original_title": "The Matrix Reloaded", "genre_ids": [28, 12, 878, 53], "backdrop_path": "/Fp3piEuHXxKnPBO5R0Wj4wjZHg.jpg", "adult": false, "overview": "Six months after the events depicted in The Matrix, Neo has proved to be a good omen for the free humans, as more and more humans are being freed from the matrix and brought to Zion, the one and only stronghold of the Resistance.  Neo himself has discovered his superpowers including super speed, ability to see the codes of the things inside the matrix and a certain degree of pre-cognition. But a nasty piece of news hits the human resistance: 250,000 machine sentinels are digging to Zion and would reach them in 72 hours. As Zion prepares for the ultimate war, Neo, Morpheus and Trinity are advised by the Oracle to find the Keymaker who would help them reach the Source.  Meanwhile Neo's recurrent dreams depicting Trinity's death have got him worried and as if it was not enough, Agent Smith has somehow escaped deletion, has become more powerful than before and has fixed Neo as his next target.", "poster_path": "/ezIurBz2fdUc68d98Fp9dRf5ihv.jpg", "popularity": 32.554}, {"adult": false, "backdrop_path": "/tBWZkKMcrWdrpkOAA84FBlzE2XK.jpg", "genre_ids": [12, 28, 53], "id": 9053, "original_language": "en", "original_title": "DOA: Dead or Alive", "overview": "Four beautiful rivals at an invitation-only martial-arts tournament join forces against a sinister threat. Princess Kasumi is an aristocratic warrior trained by martial-arts masters. Tina Armstrong is a wrestling superstar. Helena Douglas is an athlete with a tragic past. Christie Allen earns her keep as a thief and an assassin-for-hire.", "poster_path": "/lZ6vZka2M0jtH1khYWa8j73E275.jpg", "release_date": "2006-09-07", "title": "DOA: Dead or Alive", "video": false, "vote_average": 4.9, "vote_count": 414, "popularity": 16.537}], "total_pages": 21, "total_results": 406}, "recommendations": {"page": 1, "results": [], "total_pages": 1, "total_results": 0}, "credits": {"cast": [{"cast_id": 6, "character": "Dutchman", "credit_id": "52fe46cf9251416c91060707", "gender": 2, "id": 9111, "name": "Peter Graves", "order": 0, "profile_path": "/95Zd5Vow7dSaJm7Oa7rM0ZthrwO.jpg"}, {"cast_id": 7, "character": "Capt. Nicolas Augustus", "credit_id": "52fe46cf9251416c9106070b", "gender": 2, "id": 13259, "name": "James Daly", "order": 1, "profile_path": "/teh0iQXccF0zQgj1glAb2QQHKo6.jpg"}, {"cast_id": 1, "character": "Mesito", "credit_id": "52fe46cf9251416c910606eb", "gender": 2, "id": 18841, "name": "Bud Spencer", "order": 2, "profile_path": "/1wHb3JrTWUwu4N215ri2j0ovwq4.jpg"}, {"cast_id": 8, "character": "Luis Dominguez", "credit_id": "52fe46cf9251416c9106070f", "gender": 2, "id": 5476, "name": "Nino Castelnuovo", "order": 3, "profile_path": "/snBgTgj1yr1hAXAwVrIl5HByyRY.jpg"}, {"cast_id": 9, "character": "Samurai", "credit_id": "52fe46cf9251416c91060713", "gender": 2, "id": 10071, "name": "Tetsur\u014d Tamba", "order": 4, "profile_path": "/ihugQ2afio03fcKSGXdkcQKTVmt.jpg"}, {"cast_id": 10, "character": "Manuel Esteban", "credit_id": "55f024c4c3a3687d3b01655d", "gender": 2, "id": 32677, "name": "Claudio Gora", "order": 5, "profile_path": "/2r37PWTzP8B8S2wipDYOKfH1n7J.jpg"}, {"cast_id": 11, "character": "Maria", "credit_id": "55f024d3c3a3682c6201ec92", "gender": 1, "id": 44976, "name": "Daniela Giordano", "order": 6, "profile_path": "/2LnZSFGuAhljAsXEh9yvOklK0Vm.jpg"}, {"cast_id": 12, "character": "Perla the Mexican girl", "credit_id": "55f02564c3a3686f1700cfe4", "gender": 0, "id": 1333124, "name": "Annabella Andreoli", "order": 7, "profile_path": null}, {"cast_id": 13, "character": "Capt. Gutierrez", "credit_id": "55f0257cc3a3682c6401b3ef", "gender": 2, "id": 24689, "name": "Carlo Alighiero", "order": 8, "profile_path": null}, {"cast_id": 14, "character": "One of Gutierrez' Officers", "credit_id": "55f0258fc3a36871bf008c93", "gender": 2, "id": 22479, "name": "Giacomo Rossi-Stuart", "order": 9, "profile_path": "/ip09pYVnsFSIv9RxlCduztPHc32.jpg"}], "crew": [{"credit_id": "55f025e6c3a3682c6401b401", "department": "Sound", "gender": 2, "id": 1259, "job": "Original Music Composer", "name": "Ennio Morricone", "profile_path": "/tlntfyflyEHgJTFjqIgg8P8UIx9.jpg"}, {"credit_id": "52fe46cf9251416c91060703", "department": "Writing", "gender": 2, "id": 4955, "job": "Screenplay", "name": "Dario Argento", "profile_path": "/nx5qLi7mcGzBuRVmFFW2x12c6wq.jpg"}, {"credit_id": "52fe46cf9251416c910606f1", "department": "Directing", "gender": 2, "id": 9108, "job": "Director", "name": "Don Taylor", "profile_path": "/tFQYFlFtOwK5ueiXiuQyWVXG9SJ.jpg"}, {"credit_id": "55f02621c3a3686f1700d006", "department": "Costume & Make-Up", "gender": 0, "id": 26712, "job": "Costume Design", "name": "Enzo Bulgarelli", "profile_path": null}, {"credit_id": "55f02608c3a3682c6401b408", "department": "Art", "gender": 0, "id": 26712, "job": "Art Direction", "name": "Enzo Bulgarelli", "profile_path": null}, {"credit_id": "55f025fd9251413e4501d825", "department": "Editing", "gender": 2, "id": 32310, "job": "Editor", "name": "Sergio Montanari", "profile_path": null}, {"credit_id": "55f025f2c3a3682c6201ecbd", "department": "Camera", "gender": 2, "id": 56033, "job": "Director of Photography", "name": "Enzo Barboni", "profile_path": null}, {"credit_id": "52fe46cf9251416c910606f7", "department": "Directing", "gender": 2, "id": 56721, "job": "Director", "name": "Italo Zingarelli", "profile_path": null}, {"credit_id": "55f025b3c3a36871bf008c9d", "department": "Production", "gender": 2, "id": 56721, "job": "Producer", "name": "Italo Zingarelli", "profile_path": null}, {"credit_id": "55f0263e9251412c320078d6", "department": "Production", "gender": 0, "id": 101573, "job": "Production Manager", "name": "Franco Palaggi", "profile_path": null}, {"credit_id": "55f02615c3a36871bf008cb3", "department": "Art", "gender": 0, "id": 138638, "job": "Set Decoration", "name": "Ennio Michettoni", "profile_path": null}, {"credit_id": "52fe46cf9251416c910606fd", "department": "Writing", "gender": 0, "id": 176070, "job": "Screenplay", "name": "Marc Richards", "profile_path": null}, {"credit_id": "55f0262d9251413e4501d82b", "department": "Costume & Make-Up", "gender": 0, "id": 1441040, "job": "Costume Design", "name": "Luciano Sagoni", "profile_path": null}]}}