{"adult": false, "backdrop_path": "/qrd405cjXceDtJEU2qdQgX3SDWC.jpg", "belongs_to_collection": null, "budget": 0, "genres": [{"id": 18, "name": "Drama"}], "homepage": null, "id": 38729, "imdb_id": "tt0069958", "original_language": "en", "original_title": "A Delicate Balance", "overview": "The film spans three days in the life of Agnes and Tobias, an upper middle class couple who share their comfortable suburban Connecticut home with her acerbic alcoholic sister Claire. It is matriarch Agnes who helps the quartet maintain a delicate balance in their lives, held together by habit, shared memories, and considerable consumption of dry martinis.", "popularity": 3.107, "poster_path": "/qGUzZ8DQAW4Je7W0xmRuLbzNYTg.jpg", "production_companies": [{"id": 20151, "logo_path": null, "name": "The American Film Theatre", "origin_country": ""}], "production_countries": [{"iso_3166_1": "US", "name": "United States of America"}], "release_date": "1973-11-12", "revenue": 0, "runtime": 133, "spoken_languages": [{"iso_639_1": "en", "name": "English"}], "status": "Released", "tagline": "", "title": "A Delicate Balance", "video": false, "vote_average": 6.5, "vote_count": 4, "keywords": {"keywords": [{"id": 10041, "name": "dysfunctional family"}, {"id": 18060, "name": "divorced woman"}, {"id": 164044, "name": "alcoholic drink"}, {"id": 221189, "name": "suburban"}]}, "similar": {"page": 1, "results": [{"adult": false, "backdrop_path": "/8ybSuxeEkFoMKMY9lkzzC4tBaI6.jpg", "genre_ids": [18], "id": 334541, "original_language": "en", "original_title": "Manchester by the Sea", "overview": "After his older brother passes away, Lee Chandler is forced to return home to care for his 16-year-old nephew. There he is compelled to deal with a tragic past that separated him from his family and the community where he was born and raised.", "poster_path": "/e8daDzP0vFOnGyKmve95Yv0D0io.jpg", "release_date": "2016-11-18", "title": "Manchester by the Sea", "video": false, "vote_average": 7.5, "vote_count": 3528, "popularity": 15.119}, {"adult": false, "backdrop_path": "/8VyW7cJxsdnIfptbPjGCIX1StUe.jpg", "genre_ids": [10749, 18], "id": 1587, "original_language": "en", "original_title": "What's Eating Gilbert Grape", "overview": "Gilbert Grape is a small-town young man with a lot of responsibility. Chief among his concerns are his mother, who is so overweight that she can't leave the house, and his mentally impaired younger brother, Arnie, who has a knack for finding trouble. Settled into a job at a grocery store and an ongoing affair with local woman Betty Carver, Gilbert finally has his life shaken up by the free-spirited Becky.", "poster_path": "/jQLoOPwNxyILwDbdhn9DsfQz0Sg.jpg", "release_date": "1993-12-17", "title": "What's Eating Gilbert Grape", "video": false, "vote_average": 7.7, "vote_count": 2110, "popularity": 22.745}, {"adult": false, "backdrop_path": "/eB43LYncKDJS3p5xYSUN9dUrL2A.jpg", "genre_ids": [18], "id": 205587, "original_language": "en", "original_title": "The Judge", "overview": "A successful lawyer returns to his hometown for his mother's funeral only to discover that his estranged father, the town's judge, is suspected of murder.", "poster_path": "/v6s65U6qisvxWgO3cNnreaaaite.jpg", "release_date": "2014-10-08", "title": "The Judge", "video": false, "vote_average": 7.3, "vote_count": 2562, "popularity": 16.888}, {"id": 493922, "video": false, "vote_count": 3300, "vote_average": 7.1, "title": "Hereditary", "release_date": "2018-06-07", "original_language": "en", "original_title": "Hereditary", "genre_ids": [27, 9648, 53], "backdrop_path": "/4DUoPZOHdPuROP4nyEIsPaMIiQl.jpg", "adult": false, "overview": "When Ellen, the matriarch of the Graham family, passes away, her daughter\u2019s family begins to unravel cryptic and increasingly terrifying secrets about their ancestry.", "poster_path": "/lHV8HHlhwNup2VbpiACtlKzaGIQ.jpg", "popularity": 26.313}, {"id": 296099, "video": false, "vote_count": 2160, "vote_average": 6.2, "title": "Vacation", "release_date": "2015-07-28", "original_language": "en", "original_title": "Vacation", "genre_ids": [35], "backdrop_path": "/lWhTsYsTRMDDBg3KIUMzVb8gs2l.jpg", "adult": false, "overview": "Hoping to bring his family closer together and to recreate his childhood vacation for his own kids, a grown up Rusty Griswold takes his wife and their two sons on a cross-country road trip to the coolest theme park in America, Walley World. Needless to say, things don't go quite as planned.", "poster_path": "/q9kL9WW0Uu4AcfTi5iCLcYzBgnm.jpg", "popularity": 17.232}, {"id": 35, "video": false, "vote_count": 5022, "vote_average": 6.9, "title": "The Simpsons Movie", "release_date": "2007-07-26", "original_language": "en", "original_title": "The Simpsons Movie", "genre_ids": [16, 35, 10751], "backdrop_path": "/tNpqx8PcFdgKgheUWmNqNF9RNGm.jpg", "adult": false, "overview": "After Homer accidentally pollutes the town's water supply, Springfield is encased in a gigantic dome by the EPA and the Simpsons are declared fugitives.", "poster_path": "/eCytnEriVur3rT47NWfkgPXD9qs.jpg", "popularity": 19.148}, {"id": 396398, "video": false, "vote_count": 584, "vote_average": 6.4, "title": "The Meyerowitz Stories (New and Selected)", "release_date": "2017-10-13", "original_language": "en", "original_title": "The Meyerowitz Stories (New and Selected)", "genre_ids": [35, 18], "backdrop_path": "/hwBqtQy8uuQ3g9gzuFoBgn0xHk4.jpg", "adult": false, "overview": "An estranged family gathers together in New York for an event celebrating the artistic work of their father.", "poster_path": "/c9teDTgwxgnb7wnZjZo4oNcF80R.jpg", "popularity": 16.927}, {"id": 336000, "video": false, "vote_count": 406, "vote_average": 7.1, "title": "The Glass Castle", "release_date": "2017-08-10", "original_language": "en", "original_title": "The Glass Castle", "genre_ids": [18], "backdrop_path": "/mIaR9Wno6FhBLCqoICe09PUFnYu.jpg", "adult": false, "overview": "A young girl is raised in a dysfunctional family constantly on the run from the FBI. Living in poverty, she comes of age guided by her drunkard, ingenious father who distracts her with magical stories to keep her mind off the family's dire state, and her selfish, nonconformist mother who has no intention of raising a family, along with her younger brother and sister, and her other older sister. Together, they fend for each other as they mature in an unorthodox journey that is their family life.", "poster_path": "/d5fLQ9ZMa1jZ2mODCv5lOWJDugX.jpg", "popularity": 11.015}, {"adult": false, "backdrop_path": "/aoy8HmDvoGPwWiGnQKFErg7FVYB.jpg", "genre_ids": [35, 18], "id": 9428, "original_language": "en", "original_title": "The Royal Tenenbaums", "overview": "Royal Tenenbaum and his wife Etheline had three children and then they separated. All three children are extraordinary --- all geniuses. Virtually all memory of the brilliance of the young Tenenbaums was subsequently erased by two decades of betrayal, failure, and disaster. Most of this was generally considered to be their father's fault. \"The Royal Tenenbaums\" is the story of the family's sudden, unexpected reunion one recent winter.", "poster_path": "/5xw30y0pSaMtTcuZW5VaQPiR8qb.jpg", "release_date": "2001-10-12", "title": "The Royal Tenenbaums", "video": false, "vote_average": 7.5, "vote_count": 2539, "popularity": 23.302}, {"adult": false, "backdrop_path": "/vtKVgUD52fYT3ic1mh0lkRVbUIG.jpg", "genre_ids": [18, 35], "id": 432087, "original_language": "fr", "original_title": "Ce qui nous lie", "overview": "Jean left his hometown ten years ago. When his father falls ill, he comes back and reunites with his sister Juliette and his brother J\u00e9r\u00e9mie. As seasons go by around their vineyard, they'll have to trust each other again.", "poster_path": "/bN6yo1JRiH3B8Gb0NBaAf3w6BQt.jpg", "release_date": "2017-06-14", "title": "Back to Burgundy", "video": false, "vote_average": 7.0, "vote_count": 244, "popularity": 6.279}, {"id": 46705, "video": false, "vote_count": 1862, "vote_average": 6.9, "title": "Blue Valentine", "release_date": "2010-12-16", "original_language": "en", "original_title": "Blue Valentine", "genre_ids": [18, 10749], "backdrop_path": "/4FLZTeVWrp14vm5wMlSJzEghDrd.jpg", "adult": false, "overview": "Dean and Cindy live a quiet life in a modest neighborhood. They appear to have the world at their feet at the outset of the relationship. However, his lack of ambition and her retreat into self-absorption cause potentially irreversible cracks in their marriage.", "poster_path": "/r8l15gDSQMupjKXEyXkOMkRpcsn.jpg", "popularity": 10.985}, {"adult": false, "backdrop_path": "/7Z9OmWJszjjvjh5N2Mv14uYmLoC.jpg", "genre_ids": [80, 53, 27, 18], "id": 18405, "original_language": "en", "original_title": "The Last House on the Left", "overview": "A group of teenage girls heading into the city hook up with a gang of drug-addled ne'er-do-wells and are brutally murdered. The killers find their way to the home of one of their victim's parents, where both father and mother exact a horrible revenge.", "poster_path": "/tpjP9MLDRq6aC1MTpFcJEOYOGtj.jpg", "release_date": "2009-03-13", "title": "The Last House on the Left", "video": false, "vote_average": 6.4, "vote_count": 901, "popularity": 13.947}, {"adult": false, "backdrop_path": "/ArT1HUDedndeJeT16pOrNiesorQ.jpg", "genre_ids": [80, 18, 9648], "id": 11929, "original_language": "en", "original_title": "Dolores Claiborne", "overview": "Dolores Claiborne was accused of killing her abusive husband twenty years ago, but the court's findings were inconclusive and she was allowed to walk free. Now she has been accused of killing her employer, Vera Donovan, and this time there is a witness who can place her at the scene of the crime. Things look bad for Dolores when her daughter Selena, a successful Manhattan magazine writer, returns to cover the story.", "poster_path": "/ewmVWV0TP8LTlYZ4OzCcguwC9d1.jpg", "release_date": "1995-03-24", "title": "Dolores Claiborne", "video": false, "vote_average": 7.2, "vote_count": 353, "popularity": 12.992}, {"adult": false, "backdrop_path": "/r9KKD6PRQKmZNr0SSAaDWGVHKDO.jpg", "genre_ids": [35, 18, 10751], "id": 1552, "original_language": "en", "original_title": "Parenthood", "overview": "The story of the Buckman family and friends, attempting to bring up their children. They suffer/enjoy all the events that occur: estranged relatives, the 'black sheep' of the family, the eccentrics, the skeletons in the closet, and the rebellious teenagers.", "poster_path": "/e51tNNQBJpJi9xkyuj0QFhyBcz7.jpg", "release_date": "1989-07-31", "title": "Parenthood", "video": false, "vote_average": 6.7, "vote_count": 315, "popularity": 18.849}, {"id": 399057, "video": false, "vote_count": 1809, "vote_average": 6.9, "title": "The Killing of a Sacred Deer", "release_date": "2017-10-20", "original_language": "en", "original_title": "The Killing of a Sacred Deer", "genre_ids": [18, 9648, 53], "backdrop_path": "/vG8n4NYXrNGnjhswkr2EhRxKI2q.jpg", "adult": false, "overview": "Dr. Steven Murphy is a renowned cardiovascular surgeon who presides over a spotless household with his wife and two children. Lurking at the margins of his idyllic suburban existence is Martin, a fatherless teen who insinuates himself into the doctor's life in gradually unsettling ways.", "poster_path": "/e4DGlsc9g0h5AyoyvvAuIRnofN7.jpg", "popularity": 13.65}, {"id": 239678, "video": false, "vote_count": 757, "vote_average": 6.6, "title": "This Is Where I Leave You", "release_date": "2014-09-10", "original_language": "en", "original_title": "This Is Where I Leave You", "genre_ids": [35, 18], "backdrop_path": "/rff4O6BcvD7pwd7mZJ1fTA6KMQ5.jpg", "adult": false, "overview": "When their father passes away, four grown, world-weary siblings return to their childhood home and are requested -- with an admonition -- to stay there together for a week, along with their free-speaking mother and a collection of spouses, exes and might-have-beens. As the brothers and sisters re-examine their shared history and the status of each tattered relationship among those who know and love them best, they reconnect in hysterically funny and emotionally significant ways.", "poster_path": "/jMLRs4Vw2g7QzOQLiq3Rlh6qUar.jpg", "popularity": 9.5}, {"id": 38810, "video": false, "vote_count": 894, "vote_average": 7.2, "title": "Dogtooth", "release_date": "2009-06-01", "original_language": "el", "original_title": "\u039a\u03c5\u03bd\u03cc\u03b4\u03bf\u03bd\u03c4\u03b1\u03c2", "genre_ids": [18], "backdrop_path": "/75En8zwoGss8ajxVWl1ncaHcOiV.jpg", "adult": false, "overview": "Three teenagers are confined to an isolated country estate that could very well be on another planet. The trio spend their days listening to endless homemade tapes that teach them a whole new vocabulary. Any word that comes from beyond their family abode is instantly assigned a new meaning. Hence 'the sea' refers to a large armchair and 'zombies' are little yellow flowers. Having invented a brother whom they claim to have ostracized for his disobedience, the uber-controlling parents terrorize their offspring into submission.", "poster_path": "/8hQbM6n2wnB5U1T0mHFIGwTtSeI.jpg", "popularity": 18.598}, {"id": 437586, "video": false, "vote_count": 515, "vote_average": 7.4, "title": "Mid90s", "release_date": "2018-10-19", "original_language": "en", "original_title": "Mid90s", "genre_ids": [35, 18], "backdrop_path": "/AniELE0qB56s91edib9Hn0ufwqh.jpg", "adult": false, "overview": "Stevie is a sweet 13-year-old about to explode. His mom is loving and attentive, but a little too forthcoming about her romantic life. His big brother is a taciturn and violent bully. So Stevie searches his working-class Los Angeles suburb for somewhere to belong. He finds it at the Motor Avenue skate shop.", "poster_path": "/3HkP9ale8G43vqOF3F6wt5h86RN.jpg", "popularity": 13.293}, {"id": 1444, "video": false, "vote_count": 113, "vote_average": 6.7, "title": "Junebug", "release_date": "2005-08-03", "original_language": "en", "original_title": "Junebug", "genre_ids": [35, 18], "backdrop_path": "/6dY5XxW2GZmdcQXF3d8ahq42zGm.jpg", "adult": false, "overview": "On the way to meet with an independent artist in the South, newlywed art dealer Madeleine is convinced by her husband, George, that they should stop to meet his family in North Carolina. Madeleine's affluent lifestyle clashes with the family, but she befriends George's wide-eyed and pregnant sister-in-law, Ashley, who is nearing her due date. Through the family, Madeleine gains greater insight into George's character.", "poster_path": "/asC6UOPrR6OlNMiyXbeXWu08SOG.jpg", "popularity": 10.825}, {"adult": false, "backdrop_path": "/gTpXwPqv9yUAQpGuAtpYx1JhHe3.jpg", "genre_ids": [35, 18], "id": 152737, "original_language": "en", "original_title": "August: Osage County", "overview": "A look at the lives of the strong-willed women of the Weston family, whose paths have diverged until a family crisis brings them back to the Midwest house they grew up in, and to the dysfunctional woman who raised them.", "poster_path": "/hkG0j7bfSBGB6NpPtYwW7zH0fU5.jpg", "release_date": "2013-12-26", "title": "August: Osage County", "video": false, "vote_average": 6.9, "vote_count": 918, "popularity": 18.505}], "total_pages": 12, "total_results": 231}, "recommendations": {"page": 1, "results": [{"adult": false, "backdrop_path": "/28XSsc6CBEWRIPk2E6f3b5lXFZY.jpg", "genre_ids": [35, 18], "id": 118915, "original_language": "en", "original_title": "Such Good Friends", "overview": "Julie Messinger is an intense woman who hides her wild emotions and desires under her conventional facade. Her husband Richard checks into the hospital for a simple mole removal that goes seriously wrong.", "poster_path": "/82G5zdgqz6sW1eBGxqU86jLe2uh.jpg", "release_date": "1971-12-16", "title": "Such Good Friends", "video": false, "vote_average": 6.3, "vote_count": 4, "popularity": 3.808}, {"id": 115332, "video": false, "vote_count": 10, "vote_average": 6.3, "title": "Cross Creek", "release_date": "1983-09-21", "original_language": "en", "original_title": "Cross Creek", "genre_ids": [18, 10749], "backdrop_path": "/qtVV711WKxoimMySRfzZIIkbHyN.jpg", "adult": false, "overview": "The portrait of a woman who, at the edge of survival, found a world of meaning.", "poster_path": "/pkUI7E2psl4JvWPDV7TMndi2XeK.jpg", "popularity": 4.373}, {"id": 46797, "video": false, "vote_count": 12, "vote_average": 5.9, "title": "Tom & Viv", "release_date": "1994-04-15", "original_language": "en", "original_title": "Tom & Viv", "genre_ids": [18, 10749], "backdrop_path": "/gRc9VSxXCpqAmYpePlEiP8X6aZa.jpg", "adult": false, "overview": "The story of the marriage of the poet TS Eliot to socialite Vivienne Haigh-Wood, which had to cope with her gynaeological and emotional problems and his growing fame.", "poster_path": "/vLh2r5QyIooLhmYNYEaSZ4Jxsav.jpg", "popularity": 4.54}, {"id": 107774, "video": false, "vote_count": 8, "vote_average": 6.1, "title": "Pete 'n' Tillie", "release_date": "1972-12-17", "original_language": "en", "original_title": "Pete 'n' Tillie", "genre_ids": [35, 18, 10749], "backdrop_path": "/2dJyusaMWzFoEodHgGThQpypoxp.jpg", "adult": false, "overview": "A fun-loving bachelor woos and weds a secretary, but the bonds of this marriage aren't strong enough to stop his philandering from continuing.", "poster_path": "/k2tEUd65hV4RyCq6QZhNNbvhQmE.jpg", "popularity": 2.864}, {"adult": false, "backdrop_path": "/Am5HIZEZpFTvNxuIeYIaWXL6SL0.jpg", "genre_ids": [18], "id": 66488, "original_language": "en", "original_title": "That Cold Day in the Park", "overview": "Frances Austen, whose well-appointed apartment overlooks a park in Vancouver, one cold day, observes a rain-soaked young man on a park bench whom she assumes is homeless. Hoping to repress her loneliness, Frances invites \u2018the boy\u2019 inside her home to get warm and ends up encouraging him to stay. The young man accepts her every hospitality\u2014food, clothes, profuse conversation, and a room of his own. Little does she realize that her guest is not the person he appears to be. Nor, for that matter, is Frances the woman that she appears to be.", "poster_path": "/69hSN6FIwSNDZJqHElJejJ2EnI2.jpg", "release_date": "1969-06-08", "title": "That Cold Day in the Park", "video": false, "vote_average": 7.0, "vote_count": 11, "popularity": 2.593}, {"adult": false, "backdrop_path": "/l0MjWHOA5HJMXG4PfmUBZusuSib.jpg", "genre_ids": [18], "id": 55819, "original_language": "en", "original_title": "Daniel", "overview": "The fictionalized story of Daniel, the son of Paul and Rochelle Isaacson, who were executed as Soviet spies in the 1950s. As a graduate student in New York in the 1960s, Daniel is involved in the antiwar protest movement and contrasts his experiences to the memory of his parents and his belief that they were wrongfully convicted.", "poster_path": "/5wr27gUyfi0sDdiTPa1jg48MvmK.jpg", "release_date": "1983-08-26", "title": "Daniel", "video": false, "vote_average": 7.3, "vote_count": 12, "popularity": 3.702}, {"adult": false, "backdrop_path": "/czx5wMOnwSq8SYKg93cSL1NIkVd.jpg", "genre_ids": [18, 10749], "id": 42257, "original_language": "en", "original_title": "Hester Street", "overview": "Steven Keats plays a Russian emigre who prides himself on the way he's molded himself into a real Yankee in the USA, though the world he lives in, New York's Lower East Side in the late 19th century, is almost exclusively populated by other Jewish immigrants. When his wife (Carol Kane) finally arrives in the New World, however, she has a lot of assimilating to do. This causes the tension which drives the movie along, though it maintains a fairly light atmosphere most of the time.", "poster_path": "/52Y0yBsv1H3Pts3DOHeBDTOnJ0.jpg", "release_date": "1975-10-19", "title": "Hester Street", "video": false, "vote_average": 7.1, "vote_count": 9, "popularity": 3.6}, {"adult": false, "backdrop_path": "/ql5aDToGUMy8sbfZXw5gqYsFUtR.jpg", "genre_ids": [18], "id": 40509, "original_language": "es", "original_title": "Wrestling Ernest Hemingway", "overview": "Frank, a retired Irish seaman, and Walter, a retired Cuban barber, are two lonely old men trapped in the emptiness of their own lives. When they meet in a park Frank is able to start a conversation after several attempts. They begin to spend time together and become friends. But because of their different characters they often quarrel with each other and finally seperate after Frank misbehaves to Walter's friend Elaine.", "poster_path": "/aMWkpitaM33HgDv25RzeMy9ZNFQ.jpg", "release_date": "1993-12-17", "title": "Wrestling Ernest Hemingway", "video": false, "vote_average": 6.7, "vote_count": 15, "popularity": 5.505}, {"adult": false, "backdrop_path": "/94EOzEsORXCOwKDRqZ6btOHKCPN.jpg", "genre_ids": [18, 35], "id": 288691, "original_language": "en", "original_title": "Last Weekend", "overview": "When an affluent matriarch gathers her dysfunctional family for a holiday at their Northern California lake house, her carefully constructed weekend begins to come apart at the seams, leading her to question her own role in the family.", "poster_path": "/nnYcM5b95fg1LqlOeR9xHA9D6d0.jpg", "release_date": "2014-08-29", "title": "Last Weekend", "video": false, "vote_average": 4.6, "vote_count": 10, "popularity": 2.584}, {"id": 42213, "video": false, "vote_count": 13, "vote_average": 6.3, "title": "The Big Fix", "release_date": "1978-01-01", "original_language": "en", "original_title": "The Big Fix", "genre_ids": [35, 9648, 53], "backdrop_path": "/oBH4APeadsR6kqVgQWA8O42FONe.jpg", "adult": false, "overview": "Richard Dreyfuss is Moses Wine, a private detective hired to by his former college girlfriend, Susan Anspach, to investigate a political smear campaign. Moses sets out to find out who is responsible, with deadly results, in this comedy-thriller.", "poster_path": "/s8YlT0bRlwqjMOhTtaIkiPVzGX.jpg", "popularity": 4.406}, {"id": 41007, "video": false, "vote_count": 12, "vote_average": 6.7, "title": "A Month by the Lake", "release_date": "1995-09-11", "original_language": "en", "original_title": "A Month by the Lake", "genre_ids": [35, 18, 10749], "backdrop_path": "/qmc34QcgAuuBjV1LpxO32ZNQ1to.jpg", "adult": false, "overview": "For 16 years Miss Bentley has been spending April at an elegant hillside villa on Lake Como. This year, 1937, her London society artist father has recently died and the only other English-speaking guests are brash Americans. Then Major Wilshaw arrives. He suggests they meet for cocktails and Miss Bentley stands him up -- not even thinking about it -- as she helps the new nanny of an Italian family settle in. Miss Beaumont, a tall, young American who has dropped out of finishing school in Switzerland, is bored and finds some amusement in flirting with the major, whose libido is awakened for the first time since before the great war. And Miss Bentley now finds more about the major to admire than his ears.", "poster_path": "/cgoiGvNffe4tZC33x6RIQQiKIp9.jpg", "popularity": 2.828}], "total_pages": 1, "total_results": 11}, "credits": {"cast": [{"cast_id": 3, "character": "Agnes", "credit_id": "52fe46d79251416c91061871", "gender": 1, "id": 6598, "name": "Katharine Hepburn", "order": 0, "profile_path": "/hzBSOe6bburyMeeCqD9kR9tRfdD.jpg"}, {"cast_id": 4, "character": "Tobias", "credit_id": "52fe46d79251416c91061875", "gender": 2, "id": 13324, "name": "Paul Scofield", "order": 1, "profile_path": "/gt4YFHyhE29CfpiZxknPy0aAGx.jpg"}, {"cast_id": 5, "character": "Julia", "credit_id": "52fe46d79251416c91061879", "gender": 1, "id": 855, "name": "Lee Remick", "order": 2, "profile_path": "/pfFQpcDDMLiwPa90GfEJWpMF1gS.jpg"}, {"cast_id": 6, "character": "Claire", "credit_id": "52fe46d79251416c9106187d", "gender": 1, "id": 39709, "name": "Kate Reid", "order": 3, "profile_path": "/55CPSQJHHlGcIJAhszViJD5PkkF.jpg"}, {"cast_id": 7, "character": "Harry", "credit_id": "52fe46d79251416c91061881", "gender": 2, "id": 7664, "name": "Joseph Cotten", "order": 4, "profile_path": "/sVtC9bc28Tsv9Dtk70jLE26fexd.jpg"}, {"cast_id": 8, "character": "Edna", "credit_id": "52fe46d79251416c91061885", "gender": 1, "id": 78934, "name": "Betsy Blair", "order": 5, "profile_path": "/AnZgyUOO7mVF9gfxNFg3ZGyuihf.jpg"}], "crew": [{"credit_id": "5baae1b7925141510c012c98", "department": "Writing", "gender": 2, "id": 18366, "job": "Writer", "name": "Edward Albee", "profile_path": null}, {"credit_id": "59e691a09251413bd1001784", "department": "Crew", "gender": 2, "id": 10639, "job": "Cinematography", "name": "David Watkin", "profile_path": "/49ysHuguXUJMCxP1pNQNByKV90I.jpg"}, {"credit_id": "5d62e16b6dea3a49259366ff", "department": "Costume & Make-Up", "gender": 2, "id": 10199, "job": "Makeup Artist", "name": "Peter Robb-King", "profile_path": null}, {"credit_id": "5baae1f992514150eb01212b", "department": "Sound", "gender": 2, "id": 24680, "job": "Sound Re-Recording Mixer", "name": "Gerry Humphreys", "profile_path": null}, {"credit_id": "5baae2040e0a2664e2014189", "department": "Sound", "gender": 2, "id": 24681, "job": "Sound Recordist", "name": "Simon Kaye", "profile_path": null}, {"credit_id": "5baae1d3c3a3683aaa01371b", "department": "Editing", "gender": 2, "id": 29538, "job": "Editor", "name": "John Victor-Smith", "profile_path": null}, {"credit_id": "52fe46d79251416c91061867", "department": "Directing", "gender": 2, "id": 32765, "job": "Director", "name": "Tony Richardson", "profile_path": "/m3t3S4847wWEgQRmPZvKe5NTLzZ.jpg"}, {"credit_id": "5baae1df0e0a2664d0013e70", "department": "Art", "gender": 0, "id": 40152, "job": "Art Direction", "name": "David Brockhurst", "profile_path": null}, {"credit_id": "5d62e14839a45d41dbc072bd", "department": "Production", "gender": 0, "id": 47465, "job": "Executive Producer", "name": "Neil Hartley", "profile_path": null}, {"credit_id": "5baae1ebc3a3683a9701416a", "department": "Costume & Make-Up", "gender": 1, "id": 120929, "job": "Costume Design", "name": "Margaret Furse", "profile_path": null}, {"credit_id": "59e691bbc3a36813520014f7", "department": "Production", "gender": 0, "id": 1665776, "job": "Producer", "name": "Ely A. Landau", "profile_path": null}]}}