{"adult": false, "backdrop_path": "/nSXo5FOhiu5qqpgEflVDt3hh34l.jpg", "belongs_to_collection": null, "budget": 0, "genres": [{"id": 10751, "name": "Family"}, {"id": 37, "name": "Western"}], "homepage": null, "id": 38727, "imdb_id": "tt0031995", "original_language": "en", "original_title": "Susannah of the Mounties", "overview": "This classic family drama stars Shirley Temple as young orphan Susannah Sheldon, the sole survivor of a brutal Indian attack who's befriended by Canadian Mountie Angus Montague (Randolph Scott) and his girlfriend, Vicky (Margaret Lockwood). The couple takes Susannah under their wing and soon learn that having a precocious child around can come in handy; when the Indians return, the girl uses her charm to broker peace.Shirley is the orphaned survivor of an Indian attack in the Canadian West. A Mountie and his girlfriend take her in...", "popularity": 2.807, "poster_path": "/76Xm0DmVlTEFg2Mq1Fr5ah87jwi.jpg", "production_companies": [{"id": 25, "logo_path": "/qZCc1lty5FzX30aOCVRBLzaVmcp.png", "name": "20th Century Fox", "origin_country": "US"}], "production_countries": [{"iso_3166_1": "US", "name": "United States of America"}], "release_date": "1939-06-13", "revenue": 0, "runtime": 78, "spoken_languages": [{"iso_639_1": "en", "name": "English"}], "status": "Released", "tagline": "Flaming arrows! Cracking rifles!", "title": "Susannah of the Mounties", "video": false, "vote_average": 6.2, "vote_count": 9, "keywords": {"keywords": [{"id": 10322, "name": "native american"}, {"id": 13014, "name": "orphan"}, {"id": 14643, "name": "battle"}, {"id": 15101, "name": "based on children's book"}, {"id": 190760, "name": "mountie"}, {"id": 207928, "name": "19th century"}]}, "similar": {"page": 1, "results": [{"adult": false, "backdrop_path": "/kiWvoV78Cc3fUwkOHKzyBgVdrDD.jpg", "genre_ids": [37, 18, 12], "id": 281957, "original_language": "en", "original_title": "The Revenant", "overview": "In the 1820s, a frontiersman, Hugh Glass, sets out on a path of vengeance against those who left him for dead after a bear mauling.", "poster_path": "/oXUWEc5i3wYyFnL1Ycu8ppxxPvs.jpg", "release_date": "2015-12-25", "title": "The Revenant", "video": false, "vote_average": 7.5, "vote_count": 12122, "popularity": 30.491}, {"id": 411, "video": false, "vote_count": 6420, "vote_average": 7.0, "title": "The Chronicles of Narnia: The Lion, the Witch and the Wardrobe", "release_date": "2005-12-07", "original_language": "en", "original_title": "The Chronicles of Narnia: The Lion, the Witch and the Wardrobe", "genre_ids": [12, 14, 10751], "backdrop_path": "/fOeoL1Oa5D9VKTKMGeLmUhA7qK5.jpg", "adult": false, "overview": "Siblings Lucy, Edmund, Susan and Peter step through a magical wardrobe and find the land of Narnia. There, the they discover a charming, once peaceful kingdom that has been plunged into eternal winter by the evil White Witch, Jadis. Aided by the wise and magnificent lion, Aslan, the children lead Narnia into a spectacular, climactic battle to be free of the Witch's glacial powers forever.", "poster_path": "/l8RKDgjl9co0IgFZblxhtIOi5Uj.jpg", "popularity": 36.008}, {"id": 12146, "video": false, "vote_count": 309, "vote_average": 6.3, "title": "The Missing", "release_date": "2003-11-26", "original_language": "en", "original_title": "The Missing", "genre_ids": [12, 53, 37], "backdrop_path": "/6YveStq0npJFRE8LqMb5jDhzr0t.jpg", "adult": false, "overview": "When rancher and single mother of two Maggie Gilkeson sees her teenage daughter, Lily, kidnapped by Apache rebels, she reluctantly accepts the help of her estranged father, Samuel, in tracking down the kidnappers. Along the way, the two must learn to reconcile the past and work together if they are going to have any hope of getting Lily back before she is taken over the border and forced to become a prostitute.", "poster_path": "/eAXh7In47DugzaN4VPI1T84USB6.jpg", "popularity": 12.962}, {"adult": false, "backdrop_path": "/lfD3hi4AVk05sTngDvybbuLVzqR.jpg", "genre_ids": [18, 10751, 10402], "id": 17917, "original_language": "en", "original_title": "Oliver!", "overview": "Musical adaptation of Charles Dickens' Oliver Twist, a classic tale of an orphan who runs away from the workhouse and joins up with a group of boys headed by the Artful Dodger and trained to be pickpockets by master thief Fagin.", "poster_path": "/9cB4dNSCnSRMULYGYWHM5MQNtEf.jpg", "release_date": "1968-09-26", "title": "Oliver!", "video": false, "vote_average": 7.0, "vote_count": 207, "popularity": 18.244}, {"adult": false, "backdrop_path": "/tWP2LoaMRjX3Y4dDOSwE2prN423.jpg", "genre_ids": [12, 37, 35, 18], "id": 11040, "original_language": "en", "original_title": "Little Big Man", "overview": "Jack Crabb, looking back from extreme old age, tells of his life being raised by Indians and fighting with General Custer.", "poster_path": "/uy6bUIwyrAxQ2Liba3HExsUIpZm.jpg", "release_date": "1970-12-14", "title": "Little Big Man", "video": false, "vote_average": 7.7, "vote_count": 271, "popularity": 12.777}, {"adult": false, "backdrop_path": "/ifnRFDSlMdLFs9Xjem6WewM68GD.jpg", "genre_ids": [12, 18, 37], "id": 581, "original_language": "en", "original_title": "Dances with Wolves", "overview": "Wounded Civil War soldier, John Dunbar tries to commit suicide\u2014and becomes a hero instead. As a reward, he's assigned to his dream post, a remote junction on the Western frontier, and soon makes unlikely friends with the local Sioux tribe.", "poster_path": "/uzMI1WbliKbXbjvdiDKnwb2ndsG.jpg", "release_date": "1990-11-09", "title": "Dances with Wolves", "video": false, "vote_average": 7.8, "vote_count": 2246, "popularity": 21.755}, {"adult": false, "backdrop_path": "/dLAPTvBwEdP4h7a14isNc0HwmOj.jpg", "genre_ids": [18, 10749], "id": 250734, "original_language": "en", "original_title": "Far from the Madding Crowd", "overview": "Based on the literary classic by Thomas Hardy. Bathsheba Everdene, attracts three very different suitors: Gabriel Oak, a sheep farmer, captivated by her fetching willfulness; Frank Troy, a handsome and reckless Sergeant; and William Boldwood, a prosperous and mature bachelor. This timeless story of Bathsheba's choices and passions explores the nature of relationships and love \u2013 as well as the human ability to overcome hardships through resilience and perseverance.", "poster_path": "/6v1DEaO2TZzrqcaGohUf1K7BXkU.jpg", "release_date": "2015-04-23", "title": "Far from the Madding Crowd", "video": false, "vote_average": 7.0, "vote_count": 643, "popularity": 14.468}, {"id": 8619, "video": false, "vote_count": 1674, "vote_average": 7.1, "title": "Master and Commander: The Far Side of the World", "release_date": "2003-11-14", "original_language": "en", "original_title": "Master and Commander: The Far Side of the World", "genre_ids": [12, 18, 10752], "backdrop_path": "/uuPbSNgk2dfhMH8l4cKSQUBBk6k.jpg", "adult": false, "overview": "After an abrupt and violent encounter with a French warship inflicts severe damage upon his ship, a captain of the British Royal Navy begins a chase over two oceans to capture or destroy the enemy, though he must weigh his commitment to duty and ferocious pursuit of glory against the safety of his devoted crew, including the ship's thoughtful surgeon, his best friend.", "poster_path": "/s1cVTQEZYn4nSjZLnFbzLP0j8y2.jpg", "popularity": 33.538}, {"adult": false, "backdrop_path": "/hm8Gux0946IfeJ1PZwztOo6lVHH.jpg", "genre_ids": [18, 36, 35], "id": 450322, "original_language": "en", "original_title": "The Man Who Invented Christmas", "overview": "In 1843, despite the fact that Dickens is a successful writer, the failure of his latest book puts his career at a crossroads, until the moment when, struggling with inspiration and confronting reality with his childhood memories, a new character is born in the depths of his troubled mind; an old, lonely, embittered man, so vivid, so human, that a whole world grows around him, a story so inspiring that changed the meaning of Christmas forever.", "poster_path": "/xYCuRgEKynGurSEooxDa9pQPF7n.jpg", "release_date": "2017-10-12", "title": "The Man Who Invented Christmas", "video": false, "vote_average": 6.7, "vote_count": 395, "popularity": 13.295}, {"id": 2454, "video": false, "vote_count": 3951, "vote_average": 6.5, "title": "The Chronicles of Narnia: Prince Caspian", "release_date": "2008-05-15", "original_language": "en", "original_title": "The Chronicles of Narnia: Prince Caspian", "genre_ids": [12, 14, 10751], "backdrop_path": "/eiET76GO3xECOic1rL8VcTLuy3L.jpg", "adult": false, "overview": "One year after their incredible adventures in the Lion, the Witch and the Wardrobe, Peter, Edmund, Lucy and Susan Pevensie return to Narnia to aid a young prince whose life has been threatened by the evil King Miraz. Now, with the help of a colorful cast of new characters, including Trufflehunter the badger and Nikabrik the dwarf, the Pevensie clan embarks on an incredible quest to ensure that Narnia is returned to its rightful heir.", "poster_path": "/kSSyzqw9C4wUggicG4D81XmptR1.jpg", "popularity": 20.084}, {"id": 10545, "video": false, "vote_count": 3017, "vote_average": 7.0, "title": "The Hunchback of Notre Dame", "release_date": "1996-06-21", "original_language": "en", "original_title": "The Hunchback of Notre Dame", "genre_ids": [16, 18, 10751], "backdrop_path": "/oslaee3VX9kJAjVezbjZKlEJDzn.jpg", "adult": false, "overview": "When Quasimodo defies the evil Frollo and ventures out to the Festival of Fools, the cruel crowd jeers him. Rescued by fellow outcast the gypsy Esmeralda, Quasi soon finds himself battling to save the people and the city he loves.", "poster_path": "/r7V92gY3AMO6li17MmGTixAnFcv.jpg", "popularity": 34.935}, {"id": 252, "video": false, "vote_count": 1835, "vote_average": 7.5, "title": "Willy Wonka & the Chocolate Factory", "release_date": "1971-06-29", "original_language": "en", "original_title": "Willy Wonka & the Chocolate Factory", "genre_ids": [35, 14, 10751], "backdrop_path": "/nyqiCFF3pjcdwG2KmOwvM6CCLKA.jpg", "adult": false, "overview": "Eccentric candy man Willy Wonka prompts a worldwide frenzy when he announces that golden tickets hidden inside five of his delicious candy bars will admit their lucky holders into his top-secret confectionary. But does Wonka have an agenda hidden amid a world of Oompa Loompas and chocolate rivers?", "poster_path": "/b94qXd1FcIwgzv0NYMUe2bjrzJR.jpg", "popularity": 18.34}, {"adult": false, "backdrop_path": "/mAXgaPxxUQg6U446yz8KPRYSUT.jpg", "genre_ids": [12, 18, 10751], "id": 44826, "original_language": "en", "original_title": "Hugo", "overview": "Orphaned and alone except for an uncle, Hugo Cabret lives in the walls of a train station in 1930s Paris. Hugo's job is to oil and maintain the station's clocks, but to him, his more important task is to protect a broken automaton and notebook left to him by his late father. Accompanied by the goddaughter of an embittered toy merchant, Hugo embarks on a quest to solve the mystery of the automaton and find a place he can call home.", "poster_path": "/rSmmVKeW3nsP86V2S6R7ePs4CFw.jpg", "release_date": "2011-11-22", "title": "Hugo", "video": false, "vote_average": 7.1, "vote_count": 4577, "popularity": 19.298}, {"id": 17979, "video": false, "vote_count": 2814, "vote_average": 6.8, "title": "A Christmas Carol", "release_date": "2009-11-04", "original_language": "en", "original_title": "A Christmas Carol", "genre_ids": [16, 10751], "backdrop_path": "/GtwSStViUdhKGf0d7tCkR7alKV.jpg", "adult": false, "overview": "Miser Ebenezer Scrooge is awakened on Christmas Eve by spirits who reveal to him his own miserable existence, what opportunities he wasted in his youth, his current cruelties, and the dire fate that awaits him if he does not change his ways. Scrooge is faced with his own story of growing bitterness and meanness, and must decide what his own future will hold: death or redemption.", "poster_path": "/jeOCcjUAcSYleVwhsaKEPT4CYwF.jpg", "popularity": 18.282}, {"id": 278927, "video": false, "vote_count": 5704, "vote_average": 6.8, "title": "The Jungle Book", "release_date": "2016-04-07", "original_language": "en", "original_title": "The Jungle Book", "genre_ids": [12, 18, 14, 10751], "backdrop_path": "/eIOTsGg9FCVrBc4r2nXaV61JF4F.jpg", "adult": false, "overview": "A man-cub named Mowgli fostered by wolves. After a threat from the tiger Shere Khan, Mowgli is forced to flee the jungle, by which he embarks on a journey of self discovery with the help of the panther, Bagheera and the free-spirited bear, Baloo.", "poster_path": "/vOipe2myi26UDwP978hsYOrnUWC.jpg", "popularity": 40.457}, {"id": 346648, "video": false, "vote_count": 1053, "vote_average": 7.5, "title": "Paddington 2", "release_date": "2017-11-09", "original_language": "en", "original_title": "Paddington 2", "genre_ids": [12, 35, 10751], "backdrop_path": "/mxIrSooBPUoPBukIRFBxjYudQoT.jpg", "adult": false, "overview": "Paddington, now happily settled with the Browns, picks up a series of odd jobs to buy the perfect present for his Aunt Lucy, but it is stolen.", "poster_path": "/zuXMvSQq9F7H29qzuUm0qyUqw6m.jpg", "popularity": 18.948}, {"adult": false, "backdrop_path": "/iGAQZPnHLeXTaxZdKVUjLegWDom.jpg", "genre_ids": [35, 37], "id": 440161, "original_language": "en", "original_title": "The Sisters Brothers", "overview": "Oregon, 1851. Hermann Kermit Warm, a chemist and aspiring gold prospector, keeps a profitable secret that the Commodore wants to know, so he sends the Sisters brothers, two notorious assassins, to capture him on his way to California.", "poster_path": "/7Tl2nZ6uvmxwK14Skbf9VFHEHpX.jpg", "release_date": "2018-09-19", "title": "The Sisters Brothers", "video": false, "vote_average": 6.9, "vote_count": 894, "popularity": 15.148}, {"id": 413518, "video": false, "vote_count": 267, "vote_average": 7.1, "title": "Pinocchio", "release_date": "2019-12-19", "original_language": "it", "original_title": "Pinocchio", "genre_ids": [14, 10751], "backdrop_path": "/mQo71VE4h0ea5BV4SShtvi6z5Yr.jpg", "adult": false, "overview": "Live-action adaptation of the classic story of a wooden puppet named Pinocchio who comes to life.", "poster_path": "/sxNgJIGT0z9DZgEaD29HFOQZcAG.jpg", "popularity": 16.425}, {"id": 267935, "video": false, "vote_count": 2109, "vote_average": 6.2, "title": "The BFG", "release_date": "2016-06-01", "original_language": "en", "original_title": "The BFG", "genre_ids": [12, 14, 10751], "backdrop_path": "/eYT9XQBo1eC4DwPYqhCol0dFFc2.jpg", "adult": false, "overview": "The BFG is no ordinary bone-crunching giant. He is far too nice and jumbly. It's lucky for Sophie that he is. Had she been carried off in the middle of the night by the Bloodbottler, or any of the other giants\u2014rather than the BFG\u2014she would have soon become breakfast. When Sophie hears that the giants are flush-bunking off to England to swollomp a few nice little chiddlers, she decides she must stop them once and for all. And the BFG is going to help her!", "poster_path": "/xMvzfhXZdfeLBZZUIQRB4vw1EtA.jpg", "popularity": 24.966}, {"adult": false, "backdrop_path": "/A0enTetqBfL3UqLPyg0MONLQDXN.jpg", "genre_ids": [16, 10751, 12, 9648], "id": 9994, "original_language": "en", "original_title": "The Great Mouse Detective", "overview": "When the diabolical Professor Ratigan kidnaps London's master toymaker, the brilliant master of disguise Basil of Baker Street and his trusted sidekick Dawson try to elude the ultimate trap and foil the perfect crime.", "poster_path": "/9uDr7vfjCFr39KGCcqrk44Cg7fQ.jpg", "release_date": "1986-07-02", "title": "The Great Mouse Detective", "video": false, "vote_average": 7.1, "vote_count": 894, "popularity": 20.412}], "total_pages": 15, "total_results": 283}, "recommendations": {"page": 1, "results": [{"id": 29887, "video": false, "vote_count": 14, "vote_average": 6.5, "title": "Bright Eyes", "release_date": "1934-12-28", "original_language": "en", "original_title": "Bright Eyes", "genre_ids": [18, 10402, 10751], "backdrop_path": "/aYhALsIVWyhO6YBYjazwtubMEiU.jpg", "adult": false, "overview": "An orphaned girl is taken in by a snobbish family at the insistence of their rich, crotchety uncle, even as her devoted aviator godfather fights for custody.", "poster_path": "/oRzV8HVCJ5EZbnOf5Yn5Ty3aUBD.jpg", "popularity": 4.677}, {"adult": false, "backdrop_path": "/c94Z8YMLTOj1pS6QT9tYhReRGm8.jpg", "genre_ids": [18, 10751, 10402], "id": 38716, "original_language": "en", "original_title": "Rebecca of Sunnybrook Farm", "overview": "Rebecca's Uncle Harry leaves her with Aunt Miranda who forbids her to associate with show people. But neighbor Anthony Kent is a talent scout who secretly set it up for her to broadcast.", "poster_path": "/ok3E5jL0wlXRPxFhMZuNauWLOoj.jpg", "release_date": "1938-03-18", "title": "Rebecca of Sunnybrook Farm", "video": false, "vote_average": 6.6, "vote_count": 13, "popularity": 4.463}, {"adult": false, "backdrop_path": "/h9Y7fqyR8EgDis21kXS3LnuhUFo.jpg", "genre_ids": [18, 10751], "id": 31621, "original_language": "en", "original_title": "Baby, Take a Bow", "overview": "Eddie Ellison is an ex-con who spent time in Sing-Sing prison. Kay marries him as soon as he serves his time. Five years later, Eddie and his ex-convict buddy Larry, have both gone straight, and Eddie and Kay have a beautiful little girl named Shirley. However, Welch has kept a close eye on them for years. He believes in \"once a criminal, always a criminal.\" Then, when Eddie's employer's wife's pearls go missing, it comes out that Eddie and Larry both spent time in prison, and they're fired. Welch suspects that Eddie and Larry have something to do with the theft of the pearls. Will Welch prove that Eddie and Larry had something to do with the theft, or will the truth prevail?", "poster_path": "/e5l9pDPZedJIbb1JxCjX9m7nbfg.jpg", "release_date": "1934-06-30", "title": "Baby, Take a Bow", "video": false, "vote_average": 5.8, "vote_count": 12, "popularity": 3.071}], "total_pages": 1, "total_results": 3}, "credits": {"cast": [{"cast_id": 1, "character": "Susannah 'Sue' Sheldon", "credit_id": "52fe46d79251416c9106179d", "gender": 1, "id": 95624, "name": "Shirley Temple", "order": 0, "profile_path": "/btP9pnJQT1qZGG9hDBOIIrdamCI.jpg"}, {"cast_id": 2, "character": "Inspector Angus 'Monty' Montague", "credit_id": "52fe46d79251416c910617a1", "gender": 2, "id": 1009, "name": "Randolph Scott", "order": 1, "profile_path": "/qM2DNQ7kI9oZqAYfhzgKaGURCnm.jpg"}, {"cast_id": 3, "character": "Vicky Standing", "credit_id": "52fe46d79251416c910617a5", "gender": 1, "id": 14298, "name": "Margaret Lockwood", "order": 2, "profile_path": "/91N940cyvdPV4clTmCREX0kKBZk.jpg"}, {"cast_id": 18, "character": "Pat O'Hannegan", "credit_id": "5440e99dc3a3686078001438", "gender": 2, "id": 9091, "name": "J. Farrell MacDonald", "order": 3, "profile_path": "/jOVuvlM8q1DN0ZJ53tR1goIEaHv.jpg"}, {"cast_id": 4, "character": "Little Chief", "credit_id": "52fe46d79251416c910617a9", "gender": 0, "id": 235632, "name": "Martin Good Rider", "order": 4, "profile_path": "/mHSEW7eFlSjljuj5zijflxXO81t.jpg"}, {"cast_id": 19, "character": "Chief Big Eagle", "credit_id": "5440e9b7c3a368055c001feb", "gender": 2, "id": 14032, "name": "Maurice Moscovitch", "order": 5, "profile_path": "/3VQTkMxXBkokwfXjopZZ2cCVgng.jpg"}, {"cast_id": 20, "character": "Supt. Andrew Standing", "credit_id": "5440e9d30e0a2628fb0013c4", "gender": 2, "id": 18586, "name": "Moroni Olsen", "order": 6, "profile_path": "/20iaFC3qnVA9t77SFYnjVuJas1P.jpg"}, {"cast_id": 21, "character": "Wolf Pelt", "credit_id": "5440e9ee0e0a26293b0014c4", "gender": 2, "id": 15666, "name": "Victor Jory", "order": 7, "profile_path": "/4phylVED6xN2gFYeUQnywahstGG.jpg"}, {"cast_id": 22, "character": "Harlan Chambers", "credit_id": "5440ea270e0a26291a0013d2", "gender": 2, "id": 82488, "name": "Lester Matthews", "order": 8, "profile_path": "/tCUjqHsBSFO4g7NnbdWlX1tTy7g.jpg"}, {"cast_id": 23, "character": "Randall", "credit_id": "5440ea46c3a368053f001dd9", "gender": 2, "id": 30136, "name": "Leyland Hodgson", "order": 9, "profile_path": "/5UT6Zuarm1luaIsAVcNkFESi301.jpg"}, {"cast_id": 24, "character": "Chief (uncredited)", "credit_id": "5440ea640e0a26291a0013d8", "gender": 0, "id": 113710, "name": "Chief John Big Tree", "order": 10, "profile_path": "/9FivOSc1vdVMyGvia3eAFiEyLBO.jpg"}, {"cast_id": 26, "character": "Doctor", "credit_id": "555999b1c3a368777400b050", "gender": 2, "id": 121095, "name": "Herbert Evans", "order": 11, "profile_path": "/tL2j1O5smA8WOdHgvrG2b1ifhdb.jpg"}, {"cast_id": 27, "character": "Williams", "credit_id": "555999ba9251410b39002fdc", "gender": 2, "id": 588933, "name": "Jack Luden", "order": 12, "profile_path": "/yDQReBNeeTY3g25AbsrNGs7ZMvF.jpg"}, {"cast_id": 28, "character": "Sergeant MacGregor", "credit_id": "555999c59251412ff9009336", "gender": 2, "id": 131612, "name": "Charles Irwin", "order": 13, "profile_path": null}, {"cast_id": 29, "character": "Corporal Piggott", "credit_id": "555999cfc3a368776c00a0ba", "gender": 2, "id": 100589, "name": "John Sutton", "order": 14, "profile_path": "/sTEet1qqS8onrjtARXpIOamh9DG.jpg"}, {"cast_id": 30, "character": "Indian", "credit_id": "555999dfc3a3682f61001522", "gender": 0, "id": 1468457, "name": "Eddie Big Beaver", "order": 15, "profile_path": null}, {"cast_id": 31, "character": "Indian", "credit_id": "555999eb9251415ab2000b63", "gender": 0, "id": 1468458, "name": "John Little Blaze", "order": 16, "profile_path": null}, {"cast_id": 32, "character": "Indian", "credit_id": "555999f39251411e5b00a79e", "gender": 0, "id": 1468459, "name": "Charles Iron Breast", "order": 17, "profile_path": null}, {"cast_id": 33, "character": "Workman", "credit_id": "555999fec3a368777400b061", "gender": 2, "id": 1091312, "name": "Russ Clark", "order": 18, "profile_path": null}, {"cast_id": 34, "character": "Indian", "credit_id": "55599a09c3a368778200bd95", "gender": 0, "id": 1468460, "name": "Chief Victor Coward", "order": 19, "profile_path": null}, {"cast_id": 35, "character": "Inspector Churchill", "credit_id": "55599a15c3a368778200bd9c", "gender": 0, "id": 1468461, "name": "Larry Dods", "order": 20, "profile_path": null}, {"cast_id": 36, "character": "Indian", "credit_id": "55599a209251417852001394", "gender": 0, "id": 1468462, "name": "Tom Spotted Eagle", "order": 21, "profile_path": null}, {"cast_id": 37, "character": "Hostler", "credit_id": "55599a2a9251417852001398", "gender": 2, "id": 1000083, "name": "Herbert Heywood", "order": 22, "profile_path": "/zOtPjz1ygK96zqFtj7uKMUnlhle.jpg"}, {"cast_id": 38, "character": "Indian", "credit_id": "55599a359251410b39002ff4", "gender": 0, "id": 1468463, "name": "Yellow Kidney", "order": 23, "profile_path": null}, {"cast_id": 39, "character": "Indian", "credit_id": "55599a3ec3a368778200bda7", "gender": 0, "id": 1468464, "name": "Juniper Old Person", "order": 24, "profile_path": null}, {"cast_id": 40, "character": "Indian", "credit_id": "55599a47c3a368777400b070", "gender": 0, "id": 1468465, "name": "Albert Mad Plume", "order": 25, "profile_path": null}, {"cast_id": 41, "character": "Indian", "credit_id": "55599a4f9251411e5b00a7ad", "gender": 0, "id": 1468466, "name": "Dan Bull Plume", "order": 26, "profile_path": null}, {"cast_id": 42, "character": "Indian", "credit_id": "55599a589251412de8002029", "gender": 0, "id": 1468467, "name": "Night Shoots", "order": 27, "profile_path": null}, {"cast_id": 43, "character": "Indian", "credit_id": "55599a639251410b39002fff", "gender": 2, "id": 1157735, "name": "Chief Thunderbird", "order": 28, "profile_path": null}, {"cast_id": 44, "character": "Indian", "credit_id": "55599a6bc3a368778200bdb1", "gender": 0, "id": 1172439, "name": "Turtle", "order": 29, "profile_path": null}, {"cast_id": 45, "character": "Indian", "credit_id": "57727c669251414702001ec8", "gender": 0, "id": 120342, "name": "Billy Wilkerson", "order": 30, "profile_path": "/tH9ViTxGR3cTpo4NfVYc5gVUHt1.jpg"}], "crew": [{"credit_id": "5440e8ccc3a368606a001394", "department": "Production", "gender": 2, "id": 8502, "job": "Executive Producer", "name": "Darryl F. Zanuck", "profile_path": "/zItDFAPN2NgwXAPCjtGNQwVJoej.jpg"}, {"credit_id": "5440e9080e0a260262001f93", "department": "Art", "gender": 2, "id": 8506, "job": "Art Direction", "name": "Richard Day", "profile_path": "/vzJieFC4Dk7VnKUMIXguf0jNbbf.jpg"}, {"credit_id": "5440e92f0e0a26293b0014b7", "department": "Art", "gender": 2, "id": 8508, "job": "Set Decoration", "name": "Thomas Little", "profile_path": null}, {"credit_id": "5440e944c3a368606a00139f", "department": "Costume & Make-Up", "gender": 1, "id": 8509, "job": "Costume Design", "name": "Gwen Wakeling", "profile_path": "/wxQbgiv7sv2ra6JUQUPkSByGZrG.jpg"}, {"credit_id": "554df8dfc3a3685e4c007767", "department": "Camera", "gender": 2, "id": 14648, "job": "Director of Photography", "name": "Arthur C. Miller", "profile_path": "/dD0qk54eZOkwZfD6O0W1g22YAJy.jpg"}, {"credit_id": "52fe46d79251416c910617b5", "department": "Writing", "gender": 2, "id": 29347, "job": "Screenplay", "name": "Robert Ellis", "profile_path": "/g2yuBzKRWpoiEKShpSZQh1UdXe4.jpg"}, {"credit_id": "5440e8930e0a26291a0013a9", "department": "Writing", "gender": 0, "id": 95637, "job": "Story", "name": "Walter Ferris", "profile_path": null}, {"credit_id": "52fe46d79251416c910617af", "department": "Directing", "gender": 2, "id": 108987, "job": "Director", "name": "William A. Seiter", "profile_path": "/7D6HgXoJdOrlIVyW8cf2EIkVpJZ.jpg"}, {"credit_id": "52fe46d79251416c910617bb", "department": "Writing", "gender": 0, "id": 120464, "job": "Screenplay", "name": "Helen Logan", "profile_path": null}, {"credit_id": "5440e91d0e0a26297600141e", "department": "Art", "gender": 2, "id": 120467, "job": "Art Direction", "name": "Albert Hogsett", "profile_path": null}, {"credit_id": "5440e8f60e0a260262001f91", "department": "Editing", "gender": 0, "id": 231003, "job": "Editor", "name": "Robert Bischoff", "profile_path": null}, {"credit_id": "5440e87f0e0a2628fb0013a1", "department": "Writing", "gender": 0, "id": 1374801, "job": "Story", "name": "Fidel LaBarba", "profile_path": null}, {"credit_id": "5440e8af0e0a26293e0013d3", "department": "Writing", "gender": 0, "id": 1374802, "job": "Novel", "name": "Muriel Dennison", "profile_path": null}]}}