{"adult": false, "backdrop_path": "/tDyLGfKYn77hZ6APjQgzgXBVA7t.jpg", "belongs_to_collection": null, "budget": 0, "genres": [{"id": 35, "name": "Comedy"}, {"id": 80, "name": "Crime"}, {"id": 18, "name": "Drama"}, {"id": 10402, "name": "Music"}], "homepage": "http://www.thedukes-movie.com/", "id": 38743, "imdb_id": "tt0470737", "original_language": "en", "original_title": "The Dukes", "overview": "The Dukes,a Doo Wop group, were on top of the world at 17, now are struggling for survival in 2008. Their manager is desperately trying to get them work but is met with failure at every turn. Finally pushed to the extreme , they pull a heist only a fool would attempt, which leaves them even more desperate. When all seems lost, they find themselves.", "popularity": 1.805, "poster_path": "/ezlYA77EWYQhb2xj5PWf3BBr2Rl.jpg", "production_companies": [], "production_countries": [{"iso_3166_1": "US", "name": "United States of America"}], "release_date": "2007-04-23", "revenue": 0, "runtime": 96, "spoken_languages": [{"iso_639_1": "en", "name": "English"}], "status": "Released", "tagline": "The music was then , the time is now", "title": "The Dukes", "video": false, "vote_average": 4.0, "vote_count": 2, "keywords": {"keywords": [{"id": 10183, "name": "independent film"}]}, "similar": {"page": 1, "results": [{"adult": false, "backdrop_path": "/kQyeXce1ozYryHichnEserMAByN.jpg", "genre_ids": [28, 80, 18, 53], "id": 11564, "original_language": "en", "original_title": "Class of 1984", "overview": "Andy is a new teacher at a inner city high school that is like nothing he has ever seen before. There is metal detectors at the front door and everything is basically run by a tough kid named Peter Stegman. Soon, Andy and Stegman become enemies and Stegman will stop at nothing to protect his turf and drug dealing business.", "poster_path": "/whDnqSYg4yYgVzbVhLSjzC5piUR.jpg", "release_date": "1982-08-20", "title": "Class of 1984", "video": false, "vote_average": 6.2, "vote_count": 121, "popularity": 9.407}, {"id": 4638, "video": false, "vote_count": 4426, "vote_average": 7.5, "title": "Hot Fuzz", "release_date": "2007-02-14", "original_language": "en", "original_title": "Hot Fuzz", "genre_ids": [28, 35, 80], "backdrop_path": "/zuskekrfW3gj9ttXNVhfdHe5n22.jpg", "adult": false, "overview": "As a former London constable, Nicholas Angel finds it difficult to adapt to his new assignment in the sleepy British village of Sandford. Not only does he miss the excitement of the big city, but he also has a well-meaning oaf for a partner. However, when a series of grisly accidents rocks Sandford, Angel smells something rotten in the idyllic village.", "poster_path": "/5Jx6s6VXnunh8wCLgR0YgjwSgjh.jpg", "popularity": 25.234}, {"adult": false, "backdrop_path": "/7RRuRcGuWkZGuRyYugfXn0Fgrrr.jpg", "genre_ids": [28, 80, 18, 53], "id": 949, "original_language": "en", "original_title": "Heat", "overview": "Obsessive master thief, Neil McCauley leads a top-notch crew on various daring heists throughout Los Angeles while determined detective, Vincent Hanna pursues him without rest. Each man recognizes and respects the ability and the dedication of the other even though they are aware their cat-and-mouse game may end in violence.", "poster_path": "/6pmLVffM9jEYK7VqDJqPblMxfEY.jpg", "release_date": "1995-12-15", "title": "Heat", "video": false, "vote_average": 7.8, "vote_count": 3610, "popularity": 21.48}, {"adult": false, "backdrop_path": "/2Tawvc0JMmR9nBXD3nhBThTQP2X.jpg", "genre_ids": [53, 18, 80, 27], "id": 1359, "original_language": "en", "original_title": "American Psycho", "overview": "A wealthy New York investment banking executive hides his alternate psychopathic ego from his co-workers and friends as he escalates deeper into his illogical, gratuitous fantasies.", "poster_path": "/qXsylPM4Lr5397R3eHrfqHhTUNc.jpg", "release_date": "2000-04-13", "title": "American Psycho", "video": false, "vote_average": 7.4, "vote_count": 4911, "popularity": 20.069}, {"id": 101, "video": false, "vote_count": 8645, "vote_average": 8.3, "title": "L\u00e9on: The Professional", "release_date": "1994-09-14", "original_language": "en", "original_title": "L\u00e9on: The Professional", "genre_ids": [28, 80, 18], "backdrop_path": "/dXQ7HILRK1Tg33RT64JwbQI7Osh.jpg", "adult": false, "overview": "L\u00e9on, the top hit man in New York, has earned a rep as an effective \"cleaner\". But when his next-door neighbors are wiped out by a loose-cannon DEA agent, he becomes the unwilling custodian of 12-year-old Mathilda. Before long, Mathilda's thoughts turn to revenge, and she considers following in L\u00e9on's footsteps.", "poster_path": "/gE8S02QUOhVnAmYu4tcrBlMTujz.jpg", "popularity": 42.005}, {"adult": false, "backdrop_path": "/s12HEmmkJfI2mjltI61hGm5kubD.jpg", "genre_ids": [35, 18, 10749], "id": 20770, "original_language": "en", "original_title": "But I'm a Cheerleader", "overview": "Megan is an all-American girl. A cheerleader. She has a boyfriend. But Megan doesn't like kissing her boyfriend very much. And she's pretty touchy with her cheerleader friends. Her conservative parents worry that she must be a lesbian and send her off to \"sexual redirection\" school, where she must, with other lesbians and gays learn how to be straight.", "poster_path": "/eDGH7CHSdkrYcuUJV1e0WS9DlQL.jpg", "release_date": "1999-12-09", "title": "But I'm a Cheerleader", "video": false, "vote_average": 6.8, "vote_count": 246, "popularity": 10.067}, {"id": 298312, "video": false, "vote_count": 2921, "vote_average": 6.2, "title": "The Visit", "release_date": "2015-09-10", "original_language": "en", "original_title": "The Visit", "genre_ids": [27, 9648, 53], "backdrop_path": "/gbJlEeALVGo7kx8bC2q4EFWX1Xy.jpg", "adult": false, "overview": "The terrifying story of a brother and sister who are sent to their grandparents' remote Pennsylvania farm for a weeklong trip. Once the children discover that the elderly couple is involved in something deeply disturbing, they see their chances of getting back home are growing smaller every day.", "poster_path": "/32tNtTEQ1vIOLm1hEOSFkVwJT5D.jpg", "popularity": 20.148}, {"adult": false, "backdrop_path": "/9e5e7dJTMxQeF7zNx0CiJmxXE1I.jpg", "genre_ids": [27, 878, 53], "id": 11309, "original_language": "en", "original_title": "Hardware", "overview": "Mark 13 is a government-built killing machine programmed with artificial intelligence, able to repair and recharge itself from any energy source. Through a series of coincidences, the cyborg's head ends up in the home of a sculptress as a bizarre Christmas present from her boyfriend. Once inside its new home, the cyborg promptly reconstructs the rest of its body using a variety of household utensils and proceeds to go on a murderous rampage.", "poster_path": "/nsFm5xniViTVr1oVUpKmgvlAOEA.jpg", "release_date": "1990-09-14", "title": "Hardware", "video": false, "vote_average": 5.7, "vote_count": 145, "popularity": 11.259}, {"id": 83542, "video": false, "vote_count": 4860, "vote_average": 6.8, "title": "Cloud Atlas", "release_date": "2012-10-26", "original_language": "en", "original_title": "Cloud Atlas", "genre_ids": [18, 878], "backdrop_path": "/2ZA03KiD4jePTNBTJjGGFTNQPMA.jpg", "adult": false, "overview": "A set of six nested stories spanning time between the 19th century and a distant post-apocalyptic future. Cloud Atlas explores how the actions and consequences of individual lives impact one another throughout the past, the present and the future. Action, mystery and romance weave through the story as one soul is shaped from a killer into a hero and a single act of kindness ripples across centuries to inspire a revolution in the distant future.  Based on the award winning novel by David Mitchell. Directed by Tom Tykwer and the Wachowskis.", "poster_path": "/8VNiyIp67ZxhpNgdrwACW0jgvP2.jpg", "popularity": 16.718}, {"adult": false, "backdrop_path": "/lcB6jRNms95ySvVTCaH8pdFJq4j.jpg", "genre_ids": [80, 18, 53], "id": 22323, "original_language": "en", "original_title": "The Boys Next Door", "overview": "Roy and Bo leave their small town the weekend after graduation for a short road trip to LA. Soon, they find themselves lashing out and leaving a trial of bodies behind them. The violence escalates throughout.", "poster_path": "/pnLU9z0fLIzIRa35ULIvlQAAwho.jpg", "release_date": "1985-10-01", "title": "The Boys Next Door", "video": false, "vote_average": 6.3, "vote_count": 28, "popularity": 5.945}, {"id": 23398, "video": false, "vote_count": 1714, "vote_average": 5.5, "title": "Alvin and the Chipmunks: The Squeakquel", "release_date": "2009-12-21", "original_language": "en", "original_title": "Alvin and the Chipmunks: The Squeakquel", "genre_ids": [16, 35, 14, 10402, 10751], "backdrop_path": "/ukeQ5NshIaedd0s7qXED5aqPpZ5.jpg", "adult": false, "overview": "Pop sensations Alvin, Simon and Theodore end up in the care of Dave Seville's twenty-something nephew Toby. The boys must put aside music super stardom to return to school, and are tasked with saving the school's music program by winning the $25,000 prize in a battle of the bands. But the Chipmunks unexpectedly meet their match in three singing chipmunks known as The Chipettes - Brittany, Eleanor and Jeanette. Romantic and musical sparks are ignited when the Chipmunks and Chipettes square off.", "poster_path": "/8mdPqOga5fty15nXmaNcK1fsNMa.jpg", "popularity": 21.646}, {"adult": false, "backdrop_path": "/8nvayG5l0urcjvvpszoECDqLWzD.jpg", "genre_ids": [18, 53, 80, 9648], "id": 186, "original_language": "en", "original_title": "Lucky Number Slevin", "overview": "Slevin is mistakenly put in the middle of a personal war between the city\u2019s biggest criminal bosses. Under constant watch, Slevin must try not to get killed by an infamous assassin and come up with an idea of how to get out of his current dilemma. A film with many twists and turns.", "poster_path": "/jtKq0EtothAzWlnRBBWGCA8uFuu.jpg", "release_date": "2006-02-24", "title": "Lucky Number Slevin", "video": false, "vote_average": 7.5, "vote_count": 2480, "popularity": 17.523}, {"id": 521, "video": false, "vote_count": 1257, "vote_average": 8.0, "title": "Dial M for Murder", "release_date": "1954-05-29", "original_language": "en", "original_title": "Dial M for Murder", "genre_ids": [80, 18, 9648, 53], "backdrop_path": "/jVMlfESb0TJ29w8CUDDofEprMmn.jpg", "adult": false, "overview": "An ex-tennis pro carries out a plot to have his wife murdered after discovering she is having an affair, and assumes she will soon leave him for the other man anyway. When things go wrong, he improvises a new plan\u2014to frame her for murder instead.", "poster_path": "/xrpK1PyckNWmRxU4kZURfaCyboS.jpg", "popularity": 34.566}, {"id": 75780, "video": false, "vote_count": 4450, "vote_average": 6.4, "title": "Jack Reacher", "release_date": "2012-12-20", "original_language": "en", "original_title": "Jack Reacher", "genre_ids": [28, 80, 18, 53], "backdrop_path": "/ezXodpP429qK0Av89pVNlaXWJkQ.jpg", "adult": false, "overview": "When a gunman takes five lives with six shots, all evidence points to the suspect in custody. On interrogation, the suspect offers up a single note: \"Get Jack Reacher!\" So begins an extraordinary chase for the truth, pitting Jack Reacher against an unexpected enemy, with a skill for violence and a secret to keep.", "poster_path": "/mt0ELw83HIRgaKaDzhsDcIi0RnW.jpg", "popularity": 19.929}, {"adult": false, "backdrop_path": "/jQR6de9dwOjvx91wC4tqpTlMqCD.jpg", "genre_ids": [53, 80, 18], "id": 109421, "original_language": "en", "original_title": "Side Effects", "overview": "A woman turns to prescription medication as a way of handling her anxiety concerning her husband's upcoming release from prison.", "poster_path": "/ttD69Yhh2BV1WVqr27NRbF8ubOW.jpg", "release_date": "2013-02-07", "title": "Side Effects", "video": false, "vote_average": 6.5, "vote_count": 2035, "popularity": 11.74}, {"id": 311, "video": false, "vote_count": 2593, "vote_average": 8.4, "title": "Once Upon a Time in America", "release_date": "1984-05-23", "original_language": "en", "original_title": "Once Upon a Time in America", "genre_ids": [80, 18], "backdrop_path": "/vnT6HzjLSDrAweHn9xWykb8Ii6T.jpg", "adult": false, "overview": "A former Prohibition-era Jewish gangster returns to the Lower East Side of Manhattan over thirty years later, where he once again must confront the ghosts and regrets of his old life.", "poster_path": "/x733R4ISI0RbKeHhVkXdTMFmTFr.jpg", "popularity": 23.555}, {"id": 9837, "video": false, "vote_count": 2194, "vote_average": 7.1, "title": "The Prince of Egypt", "release_date": "1998-12-15", "original_language": "en", "original_title": "The Prince of Egypt", "genre_ids": [12, 16, 35, 18, 10402, 10751], "backdrop_path": "/1yB6o6L5DLteeraLhz5Q0buBm6i.jpg", "adult": false, "overview": "This is the extraordinary tale of two brothers named Moses and Ramses, one born of royal blood, and one an orphan with a secret past. Growing up the best of friends, they share a strong bond of free-spirited youth and good-natured rivalry. But the truth will ultimately set them at odds, as one becomes the ruler of the most powerful empire on earth, and the other the chosen leader of his people! Their final confrontation will forever change their lives and the world.", "poster_path": "/wD34ls2faCrj8YvFViEaPfBtBEe.jpg", "popularity": 22.416}, {"id": 1949, "video": false, "vote_count": 5158, "vote_average": 7.5, "title": "Zodiac", "release_date": "2007-03-02", "original_language": "en", "original_title": "Zodiac", "genre_ids": [80, 18, 9648, 53], "backdrop_path": "/jP2htGBHE7vKq4MLeC75UeC0sZH.jpg", "adult": false, "overview": "The true story of the investigation of the \"Zodiac Killer\", a serial killer who terrified the San Francisco Bay Area, taunting police with his ciphers and letters. The case becomes an obsession for three men as their lives and careers are built and destroyed by the endless trail of clues.", "poster_path": "/bgLyOROfFQI3FqYL7jQbiaV8lkN.jpg", "popularity": 21.354}, {"id": 9762, "video": false, "vote_count": 2460, "vote_average": 6.8, "title": "Step Up", "release_date": "2006-08-11", "original_language": "en", "original_title": "Step Up", "genre_ids": [80, 18, 10402, 10749], "backdrop_path": "/sKD3PfyP1u4tcoVQkpiAZqnx4H8.jpg", "adult": false, "overview": "Everyone deserves a chance to follow their dreams, but some people only get one shot. Tyler Gage is a rebel from the wrong side of Baltimore's tracks and the only thing that stands between him and an unfulfilled life are his dreams of one day making it out of there. Nora is a privileged ballet dancer attending Baltimore's ultra-elite Maryland School of the Arts", "poster_path": "/gyLww7ZlcwuzqvIwM1osR9Ioqtm.jpg", "popularity": 20.427}, {"id": 1878, "video": false, "vote_count": 2623, "vote_average": 7.2, "title": "Fear and Loathing in Las Vegas", "release_date": "1998-05-22", "original_language": "en", "original_title": "Fear and Loathing in Las Vegas", "genre_ids": [12, 35, 18], "backdrop_path": "/vtEKE4OFsnuIh37oo1arOMM2ELv.jpg", "adult": false, "overview": "Raoul Duke and his attorney Dr. Gonzo drive a red convertible across the Mojave desert to Las Vegas with a suitcase full of drugs to cover a motorcycle race. As their consumption of drugs increases at an alarming rate, the stoned duo trash their hotel room and fear legal repercussions. Duke begins to drive back to L.A., but after an odd run-in with a cop, he returns to Sin City and continues his wild drug binge.", "poster_path": "/u9ffgobMADj6GCafeImbov566j9.jpg", "popularity": 24.539}], "total_pages": 1097, "total_results": 21925}, "recommendations": {"page": 1, "results": [], "total_pages": 1, "total_results": 0}, "credits": {"cast": [{"cast_id": 6, "character": "Danny DePasquale", "credit_id": "52fe46d99251416c91061bf9", "gender": 2, "id": 2055, "name": "Robert Davi", "order": 0, "profile_path": "/eJoUfpgI5TDUqc4vgq3dPaqlMku.jpg"}, {"cast_id": 7, "character": "George Zucco", "credit_id": "52fe46d99251416c91061bfd", "gender": 2, "id": 9046, "name": "Chazz Palminteri", "order": 1, "profile_path": "/57fiwGZBohA7qytoXOUJtSNVksT.jpg"}, {"cast_id": 8, "character": "Murph Sinitsky", "credit_id": "52fe46d99251416c91061c01", "gender": 2, "id": 2368, "name": "Elya Baskin", "order": 2, "profile_path": "/tM5oF8bl5p1LfgXCkDAh8JYOLiU.jpg"}, {"cast_id": 9, "character": "Katherine", "credit_id": "52fe46d99251416c91061c05", "gender": 1, "id": 55269, "name": "Eloise DeJoria", "order": 3, "profile_path": "/7aExA8zxIaGJmltoEc82yPEmegr.jpg"}, {"cast_id": 10, "character": "Phil", "credit_id": "52fe46d99251416c91061c09", "gender": 2, "id": 121142, "name": "Patrick Cupo", "order": 4, "profile_path": null}, {"cast_id": 11, "character": "Lou Fiola", "credit_id": "52fe46d99251416c91061c0d", "gender": 2, "id": 39012, "name": "Peter Bogdanovich", "order": 5, "profile_path": "/m3aMMYzzEbqKEwGOyEPq7Rt1gAj.jpg"}, {"cast_id": 12, "character": "Armond Kaputo", "credit_id": "52fe46d99251416c91061c11", "gender": 2, "id": 121143, "name": "Frank D'Amico", "order": 6, "profile_path": null}, {"cast_id": 13, "character": "Diane", "credit_id": "52fe46d99251416c91061c15", "gender": 1, "id": 404, "name": "Melora Hardin", "order": 7, "profile_path": "/uecs9JKOqgYj3PrSGECaFzc3E2r.jpg"}, {"cast_id": 14, "character": "Aunt Vee", "credit_id": "52fe46d99251416c91061c19", "gender": 1, "id": 6199, "name": "Miriam Margolyes", "order": 8, "profile_path": "/6TJwVMMoGzAfvb0G0s8gNBrlAST.jpg"}, {"cast_id": 15, "character": "Toulio", "credit_id": "52fe46d99251416c91061c1d", "gender": 2, "id": 36058, "name": "Bruce Weitz", "order": 9, "profile_path": "/bjjsmRHT6hF7mBc7Ibb2DjByq1e.jpg"}, {"cast_id": 16, "character": "Giovanni Zorro", "credit_id": "52fe46d99251416c91061c21", "gender": 2, "id": 121144, "name": "Joseph Campanella", "order": 10, "profile_path": "/sthLTNKGRrlSsHoxybBP2AHr0Z.jpg"}, {"cast_id": 17, "character": "Brion", "credit_id": "52fe46d99251416c91061c25", "gender": 2, "id": 61259, "name": "Dominic Scott Kay", "order": 11, "profile_path": "/hH2RPSXqJU9h8YJlnMLWh9q7Vsk.jpg"}, {"cast_id": 18, "character": "Stephanie", "credit_id": "52fe46d99251416c91061c29", "gender": 1, "id": 55422, "name": "Elaine Hendrix", "order": 12, "profile_path": "/ajnxlCCO0IYQeaL2KOJwjFWkFG0.jpg"}, {"cast_id": 19, "character": "Ray Simone", "credit_id": "52fe46d99251416c91061c2d", "gender": 0, "id": 121145, "name": "Alphonse Mouzon", "order": 13, "profile_path": null}], "crew": [{"credit_id": "52fe46d99251416c91061bdd", "department": "Directing", "gender": 2, "id": 2055, "job": "Director", "name": "Robert Davi", "profile_path": "/eJoUfpgI5TDUqc4vgq3dPaqlMku.jpg"}, {"credit_id": "52fe46d99251416c91061be3", "department": "Writing", "gender": 2, "id": 2055, "job": "Writer", "name": "Robert Davi", "profile_path": "/eJoUfpgI5TDUqc4vgq3dPaqlMku.jpg"}, {"credit_id": "52fe46d99251416c91061be9", "department": "Writing", "gender": 2, "id": 121139, "job": "Writer", "name": "James Andronica", "profile_path": null}, {"credit_id": "52fe46d99251416c91061bef", "department": "Production", "gender": 2, "id": 121140, "job": "Producer", "name": "Christopher J. Corabi", "profile_path": null}, {"credit_id": "52fe46d99251416c91061bf5", "department": "Production", "gender": 2, "id": 121141, "job": "Producer", "name": "Jim Cypherd", "profile_path": null}]}}