{"adult": false, "backdrop_path": "/AjlgHDmHizHiM4e28hU6eRDcyXz.jpg", "belongs_to_collection": null, "budget": 0, "genres": [{"id": 18, "name": "Drama"}, {"id": 36, "name": "History"}], "homepage": "", "id": 38768, "imdb_id": "tt0061802", "original_language": "de", "original_title": "Ich war neunzehn", "overview": "April 1945: Gregor Hecker, 19 years of age, reaches the outskirts of Berlin as part of the Red Army's scouting team. Having fled Germany with his family when he was eight, he is confronted with the dilemma of having to fight men from the very country he was born in. Through dealing with challenging situations (e.g. he is appointed commander of Bernau, talks to many disillusioned Germans, and is once and again attacked by scattered groups of German soldiers), he grows more confident that not all hope is lost for post-war Germany.", "popularity": 1.809, "poster_path": "/iMcVOSi0KhascBzYGGvGpQYkihr.jpg", "production_companies": [{"id": 602, "logo_path": "/pVsXRFbYVDe5BhsATCAh1rt5F0k.png", "name": "DEFA", "origin_country": "DE"}], "production_countries": [{"iso_3166_1": "DE", "name": "Germany"}], "release_date": "1968-02-01", "revenue": 0, "runtime": 115, "spoken_languages": [{"iso_639_1": "de", "name": "Deutsch"}], "status": "Released", "tagline": "", "title": "I Was Nineteen", "video": false, "vote_average": 7.3, "vote_count": 6, "keywords": {"keywords": [{"id": 156026, "name": "east germany"}]}, "similar": {"page": 1, "results": [{"adult": false, "backdrop_path": "/mv0QPfuEgelDInFKoijLhsDxm2x.jpg", "genre_ids": [18, 53], "id": 582, "original_language": "de", "original_title": "Das Leben der Anderen", "overview": "A tragic love story set in East Berlin with the backdrop of an undercover Stasi controlled culture. Stasi captain Wieler is ordered to follow author Dreyman and plunges deeper and deeper into his life until he reaches the threshold of doubting the system.", "poster_path": "/bzzDAg3fkztvfQB08VBprhs9tVE.jpg", "release_date": "2006-03-15", "title": "The Lives of Others", "video": false, "vote_average": 8.1, "vote_count": 1935, "popularity": 15.018}, {"id": 483983, "video": false, "vote_count": 138, "vote_average": 7.8, "title": "Balloon", "release_date": "2018-09-27", "original_language": "de", "original_title": "Ballon", "genre_ids": [18, 36, 53], "backdrop_path": "/fSszS0Rk1n9UqvxshlERmYy9nnq.jpg", "adult": false, "overview": "Two families attempt a daredevil plan to escape the GDR with a homemade hot air balloon, but it crashes just before the border. The Stasi finds traces of this attempt to escape and immediately starts investigations, while the two families are forced to build a new escape balloon. With each passing day the Stasi is closer on their heels \u2013 a nerve-wracking race against time begins.", "poster_path": "/nRs8A0zp0jU211j8Zay3ApIzlpx.jpg", "popularity": 11.493}, {"adult": false, "backdrop_path": "/gf7nOuPROPkkI2aEXjjcNRfh8y0.jpg", "genre_ids": [18, 53], "id": 3577, "original_language": "de", "original_title": "Der Tunnel", "overview": "Inspired by true events, Olympic swimmer Harry Melchior defects from East Germany in the 1960s and hatches a daring plot to help his sister and others flee East Berlin through a 145-yard underground tunnel.", "poster_path": "/vy1IlGLlwXVZR7kuZ4rF1dKScT1.jpg", "release_date": "2001-01-21", "title": "The Tunnel", "video": false, "vote_average": 7.1, "vote_count": 52, "popularity": 4.972}, {"id": 227306, "video": false, "vote_count": 2439, "vote_average": 7.4, "title": "Unbroken", "release_date": "2014-12-25", "original_language": "en", "original_title": "Unbroken", "genre_ids": [18, 10752], "backdrop_path": "/eSbKT3v3RKFRGeOmxJbZhIvrevR.jpg", "adult": false, "overview": "A chronicle of the life of Louis Zamperini, an Olympic runner who was taken prisoner by Japanese forces during World War II.", "poster_path": "/1un8i8UtCjSCnY3OfdxtB5kDRvF.jpg", "popularity": 18.995}, {"adult": false, "backdrop_path": "/e1svWjxTXMOmdgkVLSPHSfWv90R.jpg", "genre_ids": [28, 18, 53], "id": 2502, "original_language": "en", "original_title": "The Bourne Supremacy", "overview": "When a CIA operation to purchase classified Russian documents is blown by a rival agent, who then shows up in the sleepy seaside village where Bourne and Marie have been living. The pair run for their lives and Bourne, who promised retaliation should anyone from his former life attempt contact, is forced to once again take up his life as a trained assassin to survive.", "poster_path": "/jXwZgmqOtsqsXuB9oGhocOAegCM.jpg", "release_date": "2004-07-23", "title": "The Bourne Supremacy", "video": false, "vote_average": 7.3, "vote_count": 4750, "popularity": 17.814}, {"id": 361292, "video": false, "vote_count": 1096, "vote_average": 6.9, "title": "Suspiria", "release_date": "2018-10-11", "original_language": "en", "original_title": "Suspiria", "genre_ids": [14, 27], "backdrop_path": "/AmO8I38bkHwKhgxPNrd6djBQyPU.jpg", "adult": false, "overview": "A darkness swirls at the center of a world-renowned dance company, one that will engulf the troupe's artistic director, an ambitious young dancer and a grieving psychotherapist. Some will succumb to the nightmare, others will finally wake up.", "poster_path": "/qntguRoupnAASFdld8kTDe68fEn.jpg", "popularity": 16.617}, {"id": 341013, "video": false, "vote_count": 4063, "vote_average": 6.3, "title": "Atomic Blonde", "release_date": "2017-07-26", "original_language": "en", "original_title": "Atomic Blonde", "genre_ids": [28, 9648, 53], "backdrop_path": "/g3hni0i9iAQ13jDGOFWavJFlojc.jpg", "adult": false, "overview": "An undercover MI6 agent is sent to Berlin during the Cold War to investigate the murder of a fellow agent and recover a missing list of double agents.", "poster_path": "/kV9R5h0Yct1kR8Hf8sJ1nX0Vz4x.jpg", "popularity": 28.364}, {"id": 454992, "video": false, "vote_count": 1255, "vote_average": 6.4, "title": "The Spy Who Dumped Me", "release_date": "2018-08-02", "original_language": "en", "original_title": "The Spy Who Dumped Me", "genre_ids": [28, 35], "backdrop_path": "/3Ptt97kQLuJS37zwA4lkJAkr02m.jpg", "adult": false, "overview": "Audrey and Morgan, two thirty-year-old best friends in Los Angeles, are thrust unexpectedly into an international conspiracy when Audrey\u2019s ex-boyfriend shows up at their apartment with a team of deadly assassins on his trail.", "poster_path": "/tpPERI5i6yjT73jYWyZ9iWltQ9L.jpg", "popularity": 23.25}, {"id": 700, "video": false, "vote_count": 993, "vote_average": 6.3, "title": "Octopussy", "release_date": "1983-06-05", "original_language": "en", "original_title": "Octopussy", "genre_ids": [28, 12, 53], "backdrop_path": "/nOp4RM4AYlW8Ux0XHBTqXbPlSgY.jpg", "adult": false, "overview": "James Bond is sent to investigate after a fellow \u201c00\u201d agent is found dead with a priceless Faberg\u00e9 egg. James Bond follows the mystery and uncovers a smuggling scandal and a Russian General who wants to provoke a new World War.", "poster_path": "/s1GeJcwTclopbed1Bo2hjunSika.jpg", "popularity": 17.602}, {"id": 956, "video": false, "vote_count": 3963, "vote_average": 6.6, "title": "Mission: Impossible III", "release_date": "2006-05-03", "original_language": "en", "original_title": "Mission: Impossible III", "genre_ids": [28, 12, 53], "backdrop_path": "/kOELgNnVt6EGCjtDXx85YUw6p8X.jpg", "adult": false, "overview": "Retired from active duty to train new IMF agents, Ethan Hunt is called back into action to confront sadistic arms dealer, Owen Davian. Hunt must try to protect his girlfriend while working with his new team to complete the mission.", "poster_path": "/qjy8ABAbWooV4jLG6UjzDHlv4RB.jpg", "popularity": 27.756}, {"id": 104, "video": false, "vote_count": 1196, "vote_average": 7.3, "title": "Run Lola Run", "release_date": "1998-08-20", "original_language": "de", "original_title": "Lola rennt", "genre_ids": [28, 18, 53], "backdrop_path": "/on7RwevEYFO9Q3U1augjdIRU1ur.jpg", "adult": false, "overview": "Lola receives a phone call from her boyfriend Manni. He lost 100,000 DM in a subway train that belongs to a very bad guy. She has 20 minutes to raise this amount and meet Manni. Otherwise, he will rob a store to get the money. Three different alternatives may happen depending on some minor event along Lola's run.", "poster_path": "/3L8QhF5IkZOnEnBFdpj6GVkkp7d.jpg", "popularity": 18.804}, {"adult": false, "backdrop_path": "/ihrwADHDVr0gj6FPbHDv8DZJn2I.jpg", "genre_ids": [35, 18], "id": 338, "original_language": "de", "original_title": "Good bye, Lenin!", "overview": "An affectionate and refreshing East/West-Germany comedy about a boy who\u2019s mother was in a coma while the Berlin wall fell and when she wakes up he must try to keep her from learning what happen (since she was an avid communist supporter) to avoid shocking her which could lead to another heart attack.", "poster_path": "/2YTTkqdiuQea07s1nMPGQTR58tt.jpg", "release_date": "2003-02-09", "title": "Good bye, Lenin!", "video": false, "vote_average": 7.5, "vote_count": 1228, "popularity": 12.068}, {"adult": false, "backdrop_path": "/j7hS3yybvvAd9V217IkZSOjkOvY.jpg", "genre_ids": [18, 28, 53, 80], "id": 832, "original_language": "de", "original_title": "M - Eine Stadt sucht einen M\u00f6rder", "overview": "In this classic German thriller, Hans Beckert, a serial killer who preys on children, becomes the focus of a massive Berlin police manhunt. Beckert's heinous crimes are so repellant and disruptive to city life that he is even targeted by others in the seedy underworld network. With both cops and criminals in pursuit, the murderer soon realizes that people are on his trail, sending him into a tense, panicked attempt to escape justice.", "poster_path": "/AqE126KXLcT3wwmeM3HtlKqyGze.jpg", "release_date": "1931-05-11", "title": "M", "video": false, "vote_average": 8.1, "vote_count": 999, "popularity": 13.997}, {"id": 2253, "video": false, "vote_count": 2151, "vote_average": 6.8, "title": "Valkyrie", "release_date": "2008-12-25", "original_language": "en", "original_title": "Valkyrie", "genre_ids": [18, 36, 53, 10752], "backdrop_path": "/ptNcTh2bewqzcV2qVpjDgsh6pTs.jpg", "adult": false, "overview": "Wounded in Africa during World War II, Nazi Col. Claus von Stauffenberg returns to his native Germany and joins the Resistance in a daring plan to create a shadow government and assassinate Adolf Hitler. When events unfold so that he becomes a central player, he finds himself tasked with both leading the coup and personally killing the F\u00fchrer.", "poster_path": "/54GgkO63zZyJJb5Fk2CKvNIoUvr.jpg", "popularity": 23.051}, {"id": 440298, "video": false, "vote_count": 712, "vote_average": 7.6, "title": "Cold War", "release_date": "2018-06-08", "original_language": "pl", "original_title": "Zimna wojna", "genre_ids": [18, 10402, 10749], "backdrop_path": "/n7vcKtvScHPJREEaLIuRk41mMot.jpg", "adult": false, "overview": "A man and a woman meet in the ruins of post-war Poland. With vastly different backgrounds and temperaments, they are fatally mismatched and yet drawn to each other.", "poster_path": "/6rbS8oPIgUMhQgIX8oGVTtlNgLR.jpg", "popularity": 12.591}, {"id": 9352, "video": false, "vote_count": 1362, "vote_average": 6.5, "title": "EuroTrip", "release_date": "2004-02-20", "original_language": "en", "original_title": "EuroTrip", "genre_ids": [35], "backdrop_path": "/9pR6mkJrWYCrewjWV1HgaXwL7pB.jpg", "adult": false, "overview": "When Scott learns that his longtime cyber-buddy from Berlin is a gorgeous young woman, he and his friends embark on a trip across Europe.", "poster_path": "/pes2HCVX60MNZZdUrKtgVNlv1ig.jpg", "popularity": 23.429}, {"id": 1247, "video": false, "vote_count": 597, "vote_average": 6.4, "title": "The Good Shepherd", "release_date": "2006-12-11", "original_language": "en", "original_title": "The Good Shepherd", "genre_ids": [18, 36, 53], "backdrop_path": "/3qvtPTzdeV5cJFBpJO56KFAkF4d.jpg", "adult": false, "overview": "Edward Wilson, the only witness to his father's suicide and member of the Skull and Bones Society while a student at Yale, is a morally upright young man who values honor and discretion, qualities that help him to be recruited for a career in the newly founded OSS. His dedication to his work does not come without a price though, leading him to sacrifice his ideals and eventually his family.", "poster_path": "/s2RYkRXrjUIyOlmzym37kpLTKRz.jpg", "popularity": 14.206}, {"id": 144, "video": false, "vote_count": 557, "vote_average": 7.9, "title": "Wings of Desire", "release_date": "1987-05-17", "original_language": "de", "original_title": "Der Himmel \u00fcber Berlin", "genre_ids": [18, 14, 10749], "backdrop_path": "/vh2VRlGjFbyXNmEdsiG60Q0JYoV.jpg", "adult": false, "overview": "Two angels, Damiel and Cassiel, glide through the streets of Berlin, observing the bustling population, providing invisible rays of hope to the distressed but never interacting with them. When Damiel falls in love with lonely trapeze artist Marion, the angel longs to experience life in the physical world, and finds -- with some words of wisdom from actor Peter Falk -- that it might be possible for him to take human form.", "poster_path": "/3zDaZ59lYvdCMYHi2ufUu7VmjkP.jpg", "popularity": 18.559}, {"adult": false, "backdrop_path": "/sfeED2I0oaFoktTz5ehDdmBBM1E.jpg", "genre_ids": [18, 10749, 10402], "id": 10784, "original_language": "en", "original_title": "Cabaret", "overview": "Inside the Kit Kat Club of 1931 Berlin, starry-eyed singer Sally Bowles and an impish emcee sound the clarion call to decadent fun, while outside a certain political party grows into a brutal force.", "poster_path": "/8xzpXL8WoxceLkrYZiaiUHwiknl.jpg", "release_date": "1972-02-13", "title": "Cabaret", "video": false, "vote_average": 7.5, "vote_count": 461, "popularity": 16.091}, {"id": 613, "video": false, "vote_count": 1992, "vote_average": 7.8, "title": "Downfall", "release_date": "2004-09-08", "original_language": "de", "original_title": "Der Untergang", "genre_ids": [18, 36, 10752], "backdrop_path": "/d3AmCJXvsP818di5KcCj4fNi36.jpg", "adult": false, "overview": "In April of 1945, Germany stands at the brink of defeat with the Russian Army closing in from the east and the Allied Expeditionary Force attacking from the west. In Berlin, capital of the Third Reich, Adolf Hitler proclaims that Germany will still achieve victory and orders his generals and advisers to fight to the last man. When the end finally does come, and Hitler lies dead by his own hand, what is left of his military must find a way to end the killing that is the Battle of Berlin, and lay down their arms in surrender.", "poster_path": "/2QmpblYvUThzBQ4ArdT1Kp43DZi.jpg", "popularity": 13.146}], "total_pages": 21, "total_results": 413}, "recommendations": {"page": 1, "results": [], "total_pages": 1, "total_results": 0}, "credits": {"cast": [{"cast_id": 1, "character": "Gregor Hecker", "credit_id": "54006dc1c3a36843660015f1", "gender": 2, "id": 22856, "name": "Jaecki Schwarz", "order": 0, "profile_path": "/p06smDqMhJ7ykgGa3yeyI8q2PT7.jpg"}, {"cast_id": 11, "character": "Wadim", "credit_id": "56eabafdc3a36815df00229a", "gender": 2, "id": 1082610, "name": "Vasiliy Livanov", "order": 1, "profile_path": "/eo4MRCTUcvq0IWfab64d7jw0V8H.jpg"}, {"cast_id": 3, "character": "Etappenmajor Behring", "credit_id": "54006decc3a3684369001548", "gender": 2, "id": 6270, "name": "Rolf Hoppe", "order": 2, "profile_path": "/eUtMIOmAArtFiJ9kS8GpkqL6Tv1.jpg"}, {"cast_id": 12, "character": "Sowjetisches M\u00e4dchen", "credit_id": "56eabb0fc3a36815df00229e", "gender": 1, "id": 22831, "name": "Galina Polskikh", "order": 3, "profile_path": "/rYufmQYfAey7JUxjau0Rlmthdw7.jpg"}, {"cast_id": 6, "character": "Oberleutnant Schenk, Adjutant", "credit_id": "54006e3bc3a3684366001606", "gender": 2, "id": 23523, "name": "J\u00fcrgen Hentsch", "order": 4, "profile_path": "/hPjeRDIryV9U95SwkxKMy8Q9yiK.jpg"}, {"cast_id": 7, "character": "SS-Sturmbannf\u00fchrer", "credit_id": "54006e4dc3a368068c00150c", "gender": 2, "id": 1040812, "name": "Kurt B\u00f6we", "order": 5, "profile_path": "/yD40heKZMxDXq89MRjmqFBnB09h.jpg"}, {"cast_id": 8, "character": "2. befreiter H\u00e4ftling", "credit_id": "54006e61c3a368436c001575", "gender": 2, "id": 688, "name": "Hermann Beyer", "order": 6, "profile_path": "/3Oi8qy7Zo4fjIypktVhtliDj19P.jpg"}, {"cast_id": 13, "character": "Sowjetisches General", "credit_id": "56eabb25c3a36815dd001f58", "gender": 2, "id": 39794, "name": "Mikhail Gluzskiy", "order": 7, "profile_path": "/gDXkgxuoPtFWd09FO7bWj7KOp84.jpg"}, {"cast_id": 2, "character": "deutsches M\u00e4dchen", "credit_id": "54006dd7c3a368436c00156b", "gender": 0, "id": 22944, "name": "Jenny Gr\u00f6llmann", "order": 8, "profile_path": "/c3HElIapLL9SolYw5PGs6JrYGGb.jpg"}, {"cast_id": 4, "character": "Landschaftsarchitekt", "credit_id": "54006e01c3a36843660015fc", "gender": 2, "id": 28764, "name": "Wolfgang Greese", "order": 9, "profile_path": "/1SP1MGUFZv6uMlEvpDgL3PAQ8Kr.jpg"}, {"cast_id": 5, "character": "Oberst Lewerenz", "credit_id": "54006e20c3a3684372001570", "gender": 2, "id": 77433, "name": "Johannes Wieke", "order": 10, "profile_path": "/6dFLKQdamP9aCjNvLNInpiqTWI.jpg"}, {"cast_id": 16, "character": "Feldwebel", "credit_id": "5a5379e7925141132e0331c4", "gender": 2, "id": 32624, "name": "Fritz Mohr", "order": 11, "profile_path": null}, {"cast_id": 17, "character": "", "credit_id": "5c41e4d49251416e2db25f67", "gender": 2, "id": 2220593, "name": "Otto Lang", "order": 12, "profile_path": null}, {"cast_id": 18, "character": "", "credit_id": "5d1cd0f7283ed9001018c420", "gender": 2, "id": 1615059, "name": "Aleksey Eybozhenko", "order": 13, "profile_path": "/mAldefDdUS5FaKduosrKfbQqYmp.jpg"}, {"cast_id": 19, "character": "", "credit_id": "5d1cd119a135337871055707", "gender": 2, "id": 1499352, "name": "Anatoliy Solovyov", "order": 14, "profile_path": "/9pBIIKAWlwaAAQNHnA6pTudr9sc.jpg"}, {"cast_id": 20, "character": "", "credit_id": "5d1cd14694d8a8293b3c11a6", "gender": 2, "id": 13738, "name": "Klaus Manchen", "order": 15, "profile_path": "/blvbknYVYZdtbS5C29bKJ2P9XfZ.jpg"}, {"cast_id": 21, "character": "", "credit_id": "5d1cd151a13533001106fd93", "gender": 2, "id": 74168, "name": "Walter Bechstein", "order": 16, "profile_path": null}, {"cast_id": 22, "character": "", "credit_id": "5d1cd17894d8a831163c0d58", "gender": 2, "id": 932939, "name": "Afanasi Kochetkov", "order": 17, "profile_path": "/disBQq2BLk7SJiX5pQ8qwZSLBKV.jpg"}, {"cast_id": 23, "character": "", "credit_id": "5d1cd19a283ed9000e18d436", "gender": 2, "id": 22379, "name": "Dieter Mann", "order": 18, "profile_path": "/91u0S4QkeDTRTKw23WJekpuoyHd.jpg"}, {"cast_id": 24, "character": "", "credit_id": "5d1cd1a2a13533000f06f4dd", "gender": 2, "id": 582456, "name": "Wolfgang Winkler", "order": 19, "profile_path": "/9po93v8fokO9TK6J4aV2emwsQ5d.jpg"}, {"cast_id": 25, "character": "", "credit_id": "5d1cd1b0a13533000f06f4f8", "gender": 0, "id": 36711, "name": "Martin Trettau", "order": 20, "profile_path": "/eEYIYY0gGLrZh2OwZEMPjV7Zqqi.jpg"}], "crew": [{"credit_id": "56eab878c3a36815f500221c", "department": "Writing", "gender": 2, "id": 5509, "job": "Writer", "name": "Wolfgang Kohlhaase", "profile_path": "/a5CeNixQHgqtB1sBbNhNm7gyb0x.jpg"}, {"credit_id": "54006d74c3a36843630015a0", "department": "Directing", "gender": 2, "id": 19865, "job": "Director", "name": "Konrad Wolf", "profile_path": null}, {"credit_id": "56eab8809251416caa0015d4", "department": "Writing", "gender": 2, "id": 19865, "job": "Writer", "name": "Konrad Wolf", "profile_path": null}, {"credit_id": "58a1f82c925141452e0001b6", "department": "Editing", "gender": 0, "id": 22746, "job": "Editor", "name": "Evelyn Carow", "profile_path": "/pp3pAoIwluvToMuKjwj8s8kfQqY.jpg"}, {"credit_id": "58a1f81e92514145280001b0", "department": "Crew", "gender": 0, "id": 22798, "job": "Cinematography", "name": "Werner Bergmann", "profile_path": null}]}}