{"adult": false, "backdrop_path": "/qvH4YZDwbuiKp5qJIgfPCCa1ScF.jpg", "belongs_to_collection": null, "budget": 0, "genres": [{"id": 10751, "name": "Family"}, {"id": 16, "name": "Animation"}, {"id": 35, "name": "Comedy"}], "homepage": null, "id": 387892, "imdb_id": "tt2097333", "original_language": "en", "original_title": "Get Squirrely", "overview": "After breaking out of a rehabilitation zoo, Frankie, a squirrel with all the angles, returns to his forest. He learns from his dim-witted best friend, Cody, a porcupine and street-con, that while he was in lock-up, the entire forest was picked clean by The A.C.O.R.N.S. Institute (Alternative Cosmetic Oils for Regenerative Natural Skin-care). No acorn was left behind. With winter just around the corner, it's a potentially devastating blow to all forest critters. So, Frankie has no choice but to bust into the brand new, state-of-the-art, rodent-proof A.C.O.R.N.S. Processing Plant and take back all of the acorns! Though a seemingly impossible heist, success would not only save the lives of his forest friends, but it would also give Frankie a chance to win back the love of his life, Lola, a local \"show squirrel.\" Sadly, Lola has been burnt by too many of Frankie's false promises in the past.", "popularity": 5.564, "poster_path": "/uGwFLc57MR0BFPBIQDITtVUP0MR.jpg", "production_companies": [{"id": 74298, "logo_path": null, "name": "Awesometown Entertainment", "origin_country": ""}, {"id": 614, "logo_path": null, "name": "Vanguard Films", "origin_country": ""}], "production_countries": [], "release_date": "2015-03-01", "revenue": 0, "runtime": 85, "spoken_languages": [{"iso_639_1": "en", "name": "English"}], "status": "Released", "tagline": "May Contain Nuts!", "title": "Get Squirrely", "video": false, "vote_average": 5.4, "vote_count": 9, "keywords": {"keywords": [{"id": 990, "name": "squirrel"}, {"id": 10051, "name": "heist"}, {"id": 223532, "name": "nut"}]}, "similar": {"page": 1, "results": [{"adult": false, "backdrop_path": "/45P198sJ0UpcMTVfLaw981orUdf.jpg", "genre_ids": [35, 80], "id": 623, "original_language": "en", "original_title": "A Fish Called Wanda", "overview": "A diamond advocate is attempting to steal a collection of diamonds, yet troubles arise when he realizes that he is not the only one after the diamonds.", "poster_path": "/hkSGFNVfEEUXFCxRZDITFHVhUlu.jpg", "release_date": "1988-07-15", "title": "A Fish Called Wanda", "video": false, "vote_average": 7.2, "vote_count": 1114, "popularity": 12.125}, {"id": 59108, "video": false, "vote_count": 1783, "vote_average": 6.0, "title": "Tower Heist", "release_date": "2011-11-02", "original_language": "en", "original_title": "Tower Heist", "genre_ids": [28, 35], "backdrop_path": "/18f11LguqJG2PhiNOUABDbTSJMT.jpg", "adult": false, "overview": "A luxury condo manager leads a staff of workers to seek payback on the Wall Street swindler who defrauded them. With only days until the billionaire gets away with the perfect crime, the unlikely crew of amateur thieves enlists the help of petty crook Slide to steal the $20 million they\u2019re sure is hidden in the penthouse.", "poster_path": "/ze2trl2NHuLOLimimvBkjJID3yG.jpg", "popularity": 15.644}, {"adult": false, "backdrop_path": "/7RRuRcGuWkZGuRyYugfXn0Fgrrr.jpg", "genre_ids": [28, 80, 18, 53], "id": 949, "original_language": "en", "original_title": "Heat", "overview": "Obsessive master thief, Neil McCauley leads a top-notch crew on various daring heists throughout Los Angeles while determined detective, Vincent Hanna pursues him without rest. Each man recognizes and respects the ability and the dedication of the other even though they are aware their cat-and-mouse game may end in violence.", "poster_path": "/6pmLVffM9jEYK7VqDJqPblMxfEY.jpg", "release_date": "1995-12-15", "title": "Heat", "video": false, "vote_average": 7.8, "vote_count": 3615, "popularity": 21.973}, {"id": 339403, "video": false, "vote_count": 9215, "vote_average": 7.4, "title": "Baby Driver", "release_date": "2017-06-28", "original_language": "en", "original_title": "Baby Driver", "genre_ids": [28, 80], "backdrop_path": "/goCvLSUFz0p7k8R10Hv4CVh3EQv.jpg", "adult": false, "overview": "After being coerced into working for a crime boss, a young getaway driver finds himself taking part in a heist doomed to fail.", "poster_path": "/dN9LbVNNZFITwfaRjl4tmwGWkRg.jpg", "popularity": 34.697}, {"id": 449443, "video": false, "vote_count": 1469, "vote_average": 6.6, "title": "Den of Thieves", "release_date": "2018-01-18", "original_language": "en", "original_title": "Den of Thieves", "genre_ids": [28, 80, 53], "backdrop_path": "/s3FDBLH4qc1IcjexB05Qvbn3wxO.jpg", "adult": false, "overview": "A gritty crime saga which follows the lives of an elite unit of the LA County Sheriff\u2019s Dept. and the state\u2019s most successful bank robbery crew as the outlaws plan a seemingly impossible heist on the Federal Reserve Bank.", "poster_path": "/AfybH6GbGFw1F9bcETe2yu25mIE.jpg", "popularity": 28.396}, {"adult": false, "backdrop_path": "/sDSwD63e0qfNE1YvH8aczFoSGTt.jpg", "genre_ids": [80, 18, 53], "id": 11826, "original_language": "en", "original_title": "Sexy Beast", "overview": "The idyllic life of retired safecracker Gal is put at risk when a psychotic gangster from his past arrives at his villa in southern Spain, intent on bringing him out of retirement for one last job.", "poster_path": "/rpo9njGpJVLPqRrdM6R7wIqiQ7K.jpg", "release_date": "2001-01-12", "title": "Sexy Beast", "video": false, "vote_average": 7.0, "vote_count": 391, "popularity": 9.281}, {"adult": false, "backdrop_path": "/nrMPI8EQiW5YRImnW2AvanusDXu.jpg", "genre_ids": [28, 80, 35, 53], "id": 10536, "original_language": "en", "original_title": "The Italian Job", "overview": "Charlie's got a 'job' to do. Having just left prison he finds one his of friends has attempted a high risk job in Torino, Italy, right under the nose of the mafia. Charlie's friend doesn't get very far, so Charlie takes over the 'job'. Using three Mini Coopers, a couple of Jaguars and a bus, he hopes to bring Torino to a standstill, steal a fortune in gold and escape in the chaos.", "poster_path": "/e2wySTMcFqUYuKwZJkael6mBLco.jpg", "release_date": "1969-06-02", "title": "The Italian Job", "video": false, "vote_average": 7.0, "vote_count": 357, "popularity": 11.474}, {"adult": false, "backdrop_path": "/tHuWYBNfsVOc99PBmQtEBryG2Hd.jpg", "genre_ids": [35, 10751, 878, 18], "id": 11966, "original_language": "en", "original_title": "Short Circuit 2", "overview": "Robot Johnny Five comes to the city and gets manipulated by criminals who want him for their own purposes.", "poster_path": "/18yjQQMK6mtB3L3os1kmT7MwXdf.jpg", "release_date": "1988-07-06", "title": "Short Circuit 2", "video": false, "vote_average": 5.9, "vote_count": 303, "popularity": 12.097}, {"id": 9654, "video": false, "vote_count": 3400, "vote_average": 6.7, "title": "The Italian Job", "release_date": "2003-05-30", "original_language": "en", "original_title": "The Italian Job", "genre_ids": [28, 80], "backdrop_path": "/JyoJwSfcLvfLxCGHUQYlCxvU77.jpg", "adult": false, "overview": "Charlie Croker pulled off the crime of a lifetime. The one thing that he didn't plan on was being double-crossed. Along with a drop-dead gorgeous safecracker, Croker and his team take off to re-steal the loot and end up in a pulse-pounding, pedal-to-the-metal chase that careens up, down, above and below the streets of Los Angeles.", "poster_path": "/jNRCNX1uDiUf6mteFxOBn30wL8Q.jpg", "popularity": 21.009}, {"id": 193893, "video": false, "vote_count": 1816, "vote_average": 6.3, "title": "Let's Be Cops", "release_date": "2014-08-13", "original_language": "en", "original_title": "Let's Be Cops", "genre_ids": [35], "backdrop_path": "/43GrPpAeBUOvOCZ8L1A3MLuDnkc.jpg", "adult": false, "overview": "It's the ultimate buddy cop movie except for one thing: they're not cops.  When two struggling pals dress as police officers for a costume party, they become neighborhood sensations.  But when these newly-minted \u201cheroes\u201d get tangled in a real life web of mobsters and dirty detectives, they must put their fake badges on the line.", "poster_path": "/ayYibwWAA9NxJPaD9GSybPShtvL.jpg", "popularity": 21.654}, {"id": 7518, "video": false, "vote_count": 2671, "vote_average": 6.4, "title": "Over the Hedge", "release_date": "2006-05-17", "original_language": "en", "original_title": "Over the Hedge", "genre_ids": [16, 35, 10751], "backdrop_path": "/vZSJZZ178D40pwzRXkKqQKjLU7X.jpg", "adult": false, "overview": "A scheming raccoon fools a mismatched family of forest creatures into helping him repay a debt of food, by invading the new suburban sprawl that popped up while they were hibernating \u2013 and learns a lesson about family himself.", "poster_path": "/fGvoD6n6blbFprgbl3BJ2U8YHSF.jpg", "popularity": 27.309}, {"id": 9471, "video": false, "vote_count": 1858, "vote_average": 5.4, "title": "Charlie's Angels: Full Throttle", "release_date": "2003-06-27", "original_language": "en", "original_title": "Charlie's Angels: Full Throttle", "genre_ids": [28, 12, 35], "backdrop_path": "/aAGfDzwn3rzJVaa7sfcJ987URzl.jpg", "adult": false, "overview": "The Angels are charged with finding a pair of missing rings that are encoded with the personal information of members of the Witness Protection Program. As informants are killed, the ladies target a rogue agent who might be responsible.", "poster_path": "/n4cdJ0Wqxb7C0HmZbcaC4eYnkIf.jpg", "popularity": 29.281}, {"id": 425, "video": false, "vote_count": 8280, "vote_average": 7.3, "title": "Ice Age", "release_date": "2002-03-10", "original_language": "en", "original_title": "Ice Age", "genre_ids": [12, 16, 35, 10751], "backdrop_path": "/oDqbewoFuIEWA7UWurole6MzDGn.jpg", "adult": false, "overview": "With the impending ice age almost upon them, a mismatched trio of prehistoric critters \u2013 Manny the woolly mammoth, Diego the saber-toothed tiger and Sid the giant sloth \u2013 find an orphaned infant and decide to return it to its human parents. Along the way, the unlikely allies become friends but, when enemies attack, their quest takes on far nobler aims.", "poster_path": "/zpaQwR0YViPd83bx1e559QyZ35i.jpg", "popularity": 32.8}, {"id": 402900, "video": false, "vote_count": 4440, "vote_average": 6.9, "title": "Ocean's Eight", "release_date": "2018-06-07", "original_language": "en", "original_title": "Ocean's Eight", "genre_ids": [28, 35, 80, 53], "backdrop_path": "/4PZuqUVwvxPCEMV8LYSAJLuxvcq.jpg", "adult": false, "overview": "Debbie Ocean, a criminal mastermind, gathers a crew of female thieves to pull off the heist of the century at New York's annual Met Gala.", "poster_path": "/MvYpKlpFukTivnlBhizGbkAe3v.jpg", "popularity": 24.305}, {"adult": false, "backdrop_path": "/xT9awVPuIh8yWx1b2ODTpngY30M.jpg", "genre_ids": [28, 35, 80, 9648, 10751], "id": 12096, "original_language": "en", "original_title": "The Pink Panther", "overview": "When the coach of the France soccer team is killed by a poisoned dart in the stadium in the end of a game, and his expensive and huge ring with the diamond Pink Panther disappears, the ambitious Chief Inspector Dreyfus assigns the worst police inspector Jacques Clouseau to the case.", "poster_path": "/eNzbcO8Mps96Zycg6DSFn9b1aO1.jpg", "release_date": "2006-02-10", "title": "The Pink Panther", "video": false, "vote_average": 5.8, "vote_count": 1122, "popularity": 18.013}, {"id": 291805, "video": false, "vote_count": 7380, "vote_average": 6.8, "title": "Now You See Me 2", "release_date": "2016-06-02", "original_language": "en", "original_title": "Now You See Me 2", "genre_ids": [28, 35, 53], "backdrop_path": "/zrAO2OOa6s6dQMQ7zsUbDyIBrAP.jpg", "adult": false, "overview": "One year after outwitting the FBI and winning the public\u2019s adulation with their mind-bending spectacles, the Four Horsemen resurface only to find themselves face to face with a new enemy who enlists them to pull off their most dangerous heist yet.", "poster_path": "/hU0E130tsGdsYa4K9lc3Xrn5Wyt.jpg", "popularity": 18.558}, {"id": 12448, "video": false, "vote_count": 455, "vote_average": 5.3, "title": "The Hunchback of Notre Dame II", "release_date": "2002-02-05", "original_language": "en", "original_title": "The Hunchback of Notre Dame II", "genre_ids": [16, 10751], "backdrop_path": "/akciH4vlTbFtbzpL2R7zCEwmwZJ.jpg", "adult": false, "overview": "Now that Frollo is gone, Quasimodo rings the bell with the help of his new friend and Esmeralda's and Phoebus' little son, Zephyr. But when Quasi stops by a traveling circus owned by evil magician Sarousch, he falls for Madellaine, Sarouch's assistant.", "poster_path": "/xgKY2n9uJ9iP7zSOBWt75FNvHnP.jpg", "popularity": 18.816}, {"id": 399170, "video": false, "vote_count": 1915, "vote_average": 6.7, "title": "Logan Lucky", "release_date": "2017-08-17", "original_language": "en", "original_title": "Logan Lucky", "genre_ids": [28, 35, 80, 18], "backdrop_path": "/m1g7FDwVp1C9o0JZ4THDmLRCjDl.jpg", "adult": false, "overview": "Trying to reverse a family curse, brothers Jimmy and Clyde Logan set out to execute an elaborate robbery during the legendary Coca-Cola 600 race at the Charlotte Motor Speedway.", "poster_path": "/mQrhrBaaHvRfBQq0Px3HtVbH9iE.jpg", "popularity": 27.28}, {"id": 259316, "video": false, "vote_count": 13202, "vote_average": 7.4, "title": "Fantastic Beasts and Where to Find Them", "release_date": "2016-11-16", "original_language": "en", "original_title": "Fantastic Beasts and Where to Find Them", "genre_ids": [12, 14, 10751], "backdrop_path": "/7GrpqAs0oDcFcwFwyygnUI7BrZA.jpg", "adult": false, "overview": "In 1926, Newt Scamander arrives at the Magical Congress of the United States of America with a magically expanded briefcase, which houses a number of dangerous creatures and their habitats. When the creatures escape from the briefcase, it sends the American wizarding authorities after Newt, and threatens to strain even further the state of magical and non-magical relations.", "poster_path": "/1M91Bt3oGspda75H9eLqYZkJzgO.jpg", "popularity": 41.774}, {"id": 9277, "video": false, "vote_count": 1262, "vote_average": 8.1, "title": "The Sting", "release_date": "1973-12-25", "original_language": "en", "original_title": "The Sting", "genre_ids": [35, 80, 18], "backdrop_path": "/qdTTCAt35taHlFeeKZwBXLuJ5z7.jpg", "adult": false, "overview": "Set in the 1930s this intricate caper deals with an ambitious small-time crook and a veteran con man who seek revenge on a vicious crime lord who murdered one of their gang.", "poster_path": "/mQaM8fDQdFWwCTFp0TZG8fChlZ5.jpg", "popularity": 17.896}], "total_pages": 38, "total_results": 747}, "recommendations": {"page": 1, "results": [{"id": 385722, "video": false, "vote_count": 14, "vote_average": 6.5, "title": "Bling", "release_date": "2016-08-10", "original_language": "en", "original_title": "Bling", "genre_ids": [10751], "backdrop_path": "/dj86Hem8K2hO9g4DEkUh8qnr5Nh.jpg", "adult": false, "overview": "Lowly theme park mechanic Sam dreams about his childhood sweetheart Sue. With the mistaken belief that only a bling ring can win the girl of his dreams, Sam plans the most perfect night to propose to his one true love. But when super villain Oscar shows up with his own evil ring that could destroy the city, Sam\u2019s plans are thrown into utter disarray. Mistaking each other\u2019s rings for their own, Sam teams up with his robot super heroes to track down his engagement ring and save the city\u2026 learning that it\u2019s not about the size of the bling, but the size of your heart.", "poster_path": "/4nVzGn8ezRPlSx3u6SYAWcQUYxg.jpg", "popularity": 5.104}], "total_pages": 1, "total_results": 1}, "credits": {"cast": [{"cast_id": 0, "character": "Lola (voice)", "credit_id": "56e88dbe9251417bc90005ce", "gender": 1, "id": 191228, "name": "Victoria Justice", "order": 1, "profile_path": "/uKG1l8Mk4FSLYml1ZRRXK6WJvfi.jpg"}, {"cast_id": 1, "character": "Fly Boy / Liam (voice)", "credit_id": "56e88df2c3a3682d6c000632", "gender": 2, "id": 5723, "name": "John Leguizamo", "order": 2, "profile_path": "/rbq24AzthnwRXUYcVfUnP5bKN50.jpg"}, {"cast_id": 2, "character": "Cody (voice)", "credit_id": "56e88e17c3a3682d6f0005ce", "gender": 2, "id": 62831, "name": "Will Forte", "order": 3, "profile_path": "/kphnirb7YggSVEhGI47kACxaIJQ.jpg"}, {"cast_id": 3, "character": "Mr. Bellwood (voice)", "credit_id": "56e88e599251417bc0000605", "gender": 2, "id": 8930, "name": "John Cleese", "order": 4, "profile_path": "/kg63gNYQtGPi2fSNIvCnVAclCbi.jpg"}, {"cast_id": 6, "character": "Frankie (voice)", "credit_id": "56e89f5e9251417bc0000856", "gender": 2, "id": 185805, "name": "Jason Jones", "order": 5, "profile_path": "/aIoCw6vo8AGMdsQRAI5g2t0yJT3.jpg"}, {"cast_id": 7, "character": "Edsy / Bear (voice)", "credit_id": "56e89f90c3a3682d63000855", "gender": 2, "id": 12077, "name": "Jim Cummings", "order": 6, "profile_path": "/7eAYLEIm2nWLsRDyhGDzeMMiNmq.jpg"}, {"cast_id": 8, "character": "Raitch (voice)", "credit_id": "56e8a0069251417bb7000864", "gender": 1, "id": 1218277, "name": "Samantha Bee", "order": 7, "profile_path": "/vamycSzxXCAFi6lXGERYUpmcPrk.jpg"}], "crew": [{"credit_id": "56e88e8dc3a3682d5f00062d", "department": "Directing", "gender": 0, "id": 1496385, "job": "Director", "name": "Ross Venokur", "profile_path": null}, {"credit_id": "56e88eab9251417bc90005ea", "department": "Writing", "gender": 0, "id": 1591547, "job": "Writer", "name": "Lenore Venokur", "profile_path": null}]}}