{"adult": false, "backdrop_path": "/rubBAliXY8zNoNqynk8LQXWGLOk.jpg", "belongs_to_collection": null, "budget": 0, "genres": [{"id": 28, "name": "Action"}, {"id": 18, "name": "Drama"}], "homepage": null, "id": 387957, "imdb_id": "tt0066920", "original_language": "en", "original_title": "Clay Pigeon", "overview": "An ex-soldier is recruited by the FBI to go undercover in L.A. and find other ex-soldiers who are part of a drug-dealing gang.", "popularity": 1.262, "poster_path": "/agesNP2FMdZX0CdA73MQf3c4TGi.jpg", "production_companies": [{"id": 21, "logo_path": "/mjofSXiHpG5t6KYmU4l4FrUhT7m.png", "name": "Metro-Goldwyn-Mayer", "origin_country": "US"}], "production_countries": [{"iso_3166_1": "US", "name": "United States of America"}], "release_date": "1971-08-01", "revenue": 0, "runtime": 93, "spoken_languages": [{"iso_639_1": "en", "name": "English"}], "status": "Released", "tagline": "Joe Ryan had but one life to give for his country. The CIA asked for it twice.", "title": "Clay Pigeon", "video": false, "vote_average": 2.0, "vote_count": 2, "keywords": {"keywords": [{"id": 1812, "name": "fbi"}, {"id": 11488, "name": "pot smoking"}, {"id": 162380, "name": "ex soldier"}]}, "similar": {"page": 1, "results": [{"id": 1089, "video": false, "vote_count": 1819, "vote_average": 7.1, "title": "Point Break", "release_date": "1991-07-12", "original_language": "en", "original_title": "Point Break", "genre_ids": [28, 80, 53], "backdrop_path": "/b6lTtyq6o4k10CEMnblFBPiaH6t.jpg", "adult": false, "overview": "In Los Angeles, a gang of bank robbers call themselves The Ex-Presidents commit their crimes while wearing masks of Reagan, Carter, Nixon and Johnson. The F.B.I. believes that the members of the gang could be surfers and send young agent Johnny Utah undercover at the beach to mix with the surfers and gather information.", "poster_path": "/eGSfqknufcsXmM2Rb59H9SiNd4T.jpg", "popularity": 18.44}, {"adult": false, "backdrop_path": "/siLeWQthKbUef4PKhR57BbReGnC.jpg", "genre_ids": [28, 80, 878, 53], "id": 754, "original_language": "en", "original_title": "Face/Off", "overview": "An antiterrorism agent goes under the knife to acquire the likeness of a terrorist and gather details about a bombing plot. When the terrorist escapes custody, he undergoes surgery to look like the agent so he can get close to the agent's family.", "poster_path": "/q1i8QHiHZ1cukG5iOxai8pydmoa.jpg", "release_date": "1997-06-27", "title": "Face/Off", "video": false, "vote_average": 6.9, "vote_count": 2963, "popularity": 22.412}, {"id": 156022, "video": false, "vote_count": 5468, "vote_average": 7.2, "title": "The Equalizer", "release_date": "2014-09-24", "original_language": "en", "original_title": "The Equalizer", "genre_ids": [28, 80, 53], "backdrop_path": "/vbl4ZVqelrrzJ16fdDOq9siWbpi.jpg", "adult": false, "overview": "McCall believes he has put his mysterious past behind him and dedicated himself to beginning a new, quiet life. But when he meets Teri, a young girl under the control of ultra-violent Russian gangsters, he can\u2019t stand idly by \u2013 he has to help her. Armed with hidden skills that allow him to serve vengeance against anyone who would brutalize the helpless, McCall comes out of his self-imposed retirement and finds his desire for justice reawakened. If someone has a problem, if the odds are stacked against them, if they have nowhere else to turn, McCall will help. He is The Equalizer.", "poster_path": "/2eQfjqlvPAxd9aLDs8DvsKLnfed.jpg", "popularity": 39.578}, {"adult": false, "backdrop_path": "/nEq5HZzkXR4a70uVYAdptJKl3t5.jpg", "genre_ids": [28, 80, 53], "id": 2099, "original_language": "en", "original_title": "Raw Deal", "overview": "Mark Kaminsky is kicked out of the FBI for his rough treatment of a suspect. He winds up as the sheriff of a small town in North Carolina. FBI Chief Harry Shannon, whose son has been killed by a mobster named Patrovina, enlists Kaminsky in a personal vendetta with a promise of reinstatement into the FBI if Patrovina is taken down. To accomplish this, he must go undercover and join Patrovina's gang.", "poster_path": "/39WxQ19kjZqIpdoDV7e5aRuQryj.jpg", "release_date": "1986-06-06", "title": "Raw Deal", "video": false, "vote_average": 5.6, "vote_count": 347, "popularity": 13.755}, {"id": 303, "video": false, "vote_count": 759, "vote_average": 7.9, "title": "Notorious", "release_date": "1946-08-15", "original_language": "en", "original_title": "Notorious", "genre_ids": [18, 53, 10749], "backdrop_path": "/b8WFk5jSQNju3SGptSOREo51qmE.jpg", "adult": false, "overview": "In order to help bring Nazis to justice, U.S. government agent T.R. Devlin recruits Alicia Huberman, the American daughter of a convicted German war criminal, as a spy. As they begin to fall for one another, Alicia is instructed to win the affections of Alexander Sebastian, a Nazi hiding out in Brazil. When Sebastian becomes serious about his relationship with Alicia, the stakes get higher, and Devlin must watch her slip further undercover.", "poster_path": "/vcdSvOr5NcY6alt0kBqDQlFC3Nk.jpg", "popularity": 12.953}, {"adult": false, "backdrop_path": "/nYgZ3V4rmjwitlK1w2wcXcXoEqo.jpg", "genre_ids": [18, 53, 80, 36], "id": 4169, "original_language": "en", "original_title": "Breach", "overview": "Eric O'Neill, a computer specialist who wants to be made an agent is assigned to clerk for Robert Hanssen, a senior agent with 25 years in the FBI, and to write down everything Hanssen does. O'Neill's told it's an investigation of Hanssen's sexual habits, however Hanssen is really suspected of spying for the Soviet Union and Russia for years and being responsible for the deaths of agents working for the United States.", "poster_path": "/gtpXnIrNjHPfCovjxcTZA0Dt3zh.jpg", "release_date": "2007-02-12", "title": "Breach", "video": false, "vote_average": 6.6, "vote_count": 298, "popularity": 14.889}, {"id": 12153, "video": false, "vote_count": 1813, "vote_average": 6.7, "title": "White Chicks", "release_date": "2004-06-23", "original_language": "en", "original_title": "White Chicks", "genre_ids": [35], "backdrop_path": "/PBVS0bdj3ryEWSPMzUZXgeBOJv.jpg", "adult": false, "overview": "Two FBI agent brothers, Marcus and Kevin Copeland, accidentally foil a drug bust. As punishment, they are forced to escort a pair of socialites to the Hamptons, where they're going to be used as bait for a kidnapper. But when the girls realize the FBI's plan, they refuse to go. Left without options, Marcus and Kevin decide to pose as the sisters, transforming themselves from African-American men into a pair of blonde, white women.", "poster_path": "/hT4PEPFW3dQG7N5LZe5b2qYHCU0.jpg", "popularity": 20.489}, {"id": 257088, "video": false, "vote_count": 1380, "vote_average": 5.7, "title": "Point Break", "release_date": "2015-12-03", "original_language": "en", "original_title": "Point Break", "genre_ids": [28, 80, 53], "backdrop_path": "/x2JJGVftWfx2JGyqW6pqP3JrkO0.jpg", "adult": false, "overview": "A young undercover FBI agent infiltrates a gang of thieves who share a common interest in extreme sports. A remake of the 1991 film, \"Point Break\".", "poster_path": "/4zfbf70df2ySChbsIEjhAC9oXJ1.jpg", "popularity": 11.661}, {"adult": false, "backdrop_path": "/8nvayG5l0urcjvvpszoECDqLWzD.jpg", "genre_ids": [18, 53, 80, 9648], "id": 186, "original_language": "en", "original_title": "Lucky Number Slevin", "overview": "Slevin is mistakenly put in the middle of a personal war between the city\u2019s biggest criminal bosses. Under constant watch, Slevin must try not to get killed by an infamous assassin and come up with an idea of how to get out of his current dilemma. A film with many twists and turns.", "poster_path": "/jtKq0EtothAzWlnRBBWGCA8uFuu.jpg", "release_date": "2006-02-24", "title": "Lucky Number Slevin", "video": false, "vote_average": 7.5, "vote_count": 2480, "popularity": 14.28}, {"id": 1701, "video": false, "vote_count": 2370, "vote_average": 6.7, "title": "Con Air", "release_date": "1997-06-01", "original_language": "en", "original_title": "Con Air", "genre_ids": [28, 80, 53], "backdrop_path": "/aX2mwtawBe2TD1csPBYvm03sx3a.jpg", "adult": false, "overview": "When the government puts all its rotten criminal eggs in one airborne basket, it's asking for trouble. Before you can say, \"Pass the barf bag,\" the crooks control the plane, led by creepy Cyrus \"The Virus\" Grissom. Watching his every move is the just-released Cameron Poe, who'd rather reunite with his family.", "poster_path": "/yhaOQ7xXw0PLHLvg1w0M9zlPdg6.jpg", "popularity": 27.211}, {"id": 341013, "video": false, "vote_count": 4063, "vote_average": 6.3, "title": "Atomic Blonde", "release_date": "2017-07-26", "original_language": "en", "original_title": "Atomic Blonde", "genre_ids": [28, 9648, 53], "backdrop_path": "/g3hni0i9iAQ13jDGOFWavJFlojc.jpg", "adult": false, "overview": "An undercover MI6 agent is sent to Berlin during the Cold War to investigate the murder of a fellow agent and recover a missing list of double agents.", "poster_path": "/kV9R5h0Yct1kR8Hf8sJ1nX0Vz4x.jpg", "popularity": 28.364}, {"id": 396371, "video": false, "vote_count": 1970, "vote_average": 7.1, "title": "Molly's Game", "release_date": "2017-12-25", "original_language": "en", "original_title": "Molly's Game", "genre_ids": [80, 18], "backdrop_path": "/rHcBZ6ZKCe4FalWHyvBGsyMsh0k.jpg", "adult": false, "overview": "Molly Bloom, a young skier and former Olympic hopeful becomes a successful entrepreneur (and a target of an FBI investigation) when she establishes a high-stakes, international poker game.", "poster_path": "/in43bQ7k0ttr666IPP94IlbQbTR.jpg", "popularity": 18.141}, {"adult": false, "backdrop_path": "/ysLIi9nzMbUqi4dQh3tqblUb27o.jpg", "genre_ids": [878, 28, 27, 53, 12, 14], "id": 36648, "original_language": "en", "original_title": "Blade: Trinity", "overview": "For years, Blade has fought against the vampires in the cover of the night. But now, after falling into the crosshairs of the FBI, he is forced out into the daylight, where he is driven to join forces with a clan of human vampire hunters he never knew existed\u2014The Nightstalkers. Together with Abigail and Hannibal, two deftly trained Nightstalkers, Blade follows a trail of blood to the ancient creature that is also hunting him\u2014the original vampire, Dracula.", "poster_path": "/4WinsdHQBdh5aTt7Bd7T7dbUXbb.jpg", "release_date": "2004-12-08", "title": "Blade: Trinity", "video": false, "vote_average": 5.8, "vote_count": 2278, "popularity": 19.358}, {"id": 238713, "video": false, "vote_count": 4197, "vote_average": 6.8, "title": "Spy", "release_date": "2015-05-06", "original_language": "en", "original_title": "Spy", "genre_ids": [28, 35, 80], "backdrop_path": "/x5F6AIyqCjRMwqmF8NR98kU4VzH.jpg", "adult": false, "overview": "A desk-bound CIA analyst volunteers to go undercover to infiltrate the world of a deadly arms dealer, and prevent diabolical global disaster.", "poster_path": "/gCBw0AQDhlo0bNetkjsSRWzrxpW.jpg", "popularity": 21.09}, {"adult": false, "backdrop_path": "/8Tv9KJApHcwJzn6wR9LcW3r5a5w.jpg", "genre_ids": [28, 12, 53], "id": 9802, "original_language": "en", "original_title": "The Rock", "overview": "FBI chemical warfare expert Stanley Goodspeed is sent on an urgent mission with a former British spy, John Patrick Mason, to stop Gen. Francis X. Hummel from launching chemical weapons on Alcatraz Island into San Francisco. Gen. Hummel demands $100 million in war reparations to be paid to the families of slain servicemen who died on covert operations. After their SEAL team is wiped out, Stanley and John deal with the soldiers on their own.", "poster_path": "/pAVaLJQBRM4JlZEGXvezwbxOd15.jpg", "release_date": "1996-06-06", "title": "The Rock", "video": false, "vote_average": 7.0, "vote_count": 2570, "popularity": 19.474}, {"id": 168672, "video": false, "vote_count": 4861, "vote_average": 6.8, "title": "American Hustle", "release_date": "2013-12-12", "original_language": "en", "original_title": "American Hustle", "genre_ids": [80, 18], "backdrop_path": "/dpGGeiTPDzqrcbK7h8if2YHHBXN.jpg", "adult": false, "overview": "A conman and his seductive partner are forced to work for a wild FBI agent, who pushes them into a world of Jersey power-brokers and the Mafia.", "poster_path": "/mhB7C62lSMpGO2HYNaW6d7W3TVH.jpg", "popularity": 17.259}, {"adult": false, "backdrop_path": "/uCjCNaxLyLkcwBq4aOHOeiKKwPE.jpg", "genre_ids": [35, 10749, 80, 18, 9648], "id": 171274, "original_language": "en", "original_title": "Inherent Vice", "overview": "In Los Angeles at the turn of the 1970s, drug-fueled detective Larry \"Doc\" Sportello investigates the disappearance of an ex-girlfriend.", "poster_path": "/2fCg6FORkgRLpFIKlUg4gULIn1u.jpg", "release_date": "2014-12-25", "title": "Inherent Vice", "video": false, "vote_average": 6.6, "vote_count": 1536, "popularity": 20.663}, {"id": 500682, "video": false, "vote_count": 884, "vote_average": 6.7, "title": "The Highwaymen", "release_date": "2019-03-15", "original_language": "en", "original_title": "The Highwaymen", "genre_ids": [80, 18, 53], "backdrop_path": "/de2WEhXwV8CwsRAzboJz4qTCJI6.jpg", "adult": false, "overview": "In 1934, Frank Hamer and Manny Gault, two former Texas Rangers, are commissioned to put an end to the wave of vicious crimes perpetrated by Bonnie Parker and Clyde Barrow, a notorious duo of infamous robbers and cold-blooded killers who nevertheless are worshiped by the public.", "poster_path": "/4bRYg4l12yDuJvAfqvUOPnBrxno.jpg", "popularity": 23.225}, {"adult": false, "backdrop_path": "/aJCEQFFXNcfg5YneJzTG15qzxF7.jpg", "genre_ids": [28, 53], "id": 1572, "original_language": "en", "original_title": "Die Hard: With a Vengeance", "overview": "New York detective John McClane is back and kicking bad-guy butt in the third installment of this action-packed series, which finds him teaming with civilian Zeus Carver to prevent the loss of innocent lives. McClane thought he'd seen it all, until a genius named Simon engages McClane, his new \"partner\" -- and his beloved city -- in a deadly game that demands their concentration.", "poster_path": "/ivpXGcsPZglyYrN65THWSD7JM3q.jpg", "release_date": "1995-05-19", "title": "Die Hard: With a Vengeance", "video": false, "vote_average": 7.1, "vote_count": 3603, "popularity": 27.341}, {"id": 136795, "video": false, "vote_count": 2641, "vote_average": 6.6, "title": "The Heat", "release_date": "2013-06-27", "original_language": "en", "original_title": "The Heat", "genre_ids": [28, 35, 80], "backdrop_path": "/2wKw8M6g7wj0RNz9zAeqU9s1BKl.jpg", "adult": false, "overview": "Uptight and straight-laced, FBI Special Agent Sarah Ashburn is a methodical investigator with a reputation for excellence--and hyper-arrogance. Shannon Mullins, one of Boston P.D.'s \"finest,\" is foul-mouthed and has a very short fuse, and uses her gut instinct and street smarts to catch the most elusive criminals. Neither has ever had a partner, or a friend for that matter. When these two wildly incompatible law officers join forces to bring down a ruthless drug lord, they become the last thing anyone expected: Buddies.", "poster_path": "/tM3hDt8JcU8Y8i6vzTcbnocM2bx.jpg", "popularity": 21.633}], "total_pages": 24, "total_results": 461}, "recommendations": {"page": 1, "results": [], "total_pages": 1, "total_results": 0}, "credits": {"cast": [{"cast_id": 0, "character": "Joe Ryan", "credit_id": "56e92c95c3a3682d69002dfb", "gender": 2, "id": 223349, "name": "Tom Stern", "order": 1, "profile_path": null}, {"cast_id": 1, "character": "Redford", "credit_id": "56e92ca692514101ee0019c2", "gender": 2, "id": 10169, "name": "Telly Savalas", "order": 2, "profile_path": "/pN5jiLdHKzDXn8GZHPnJHwdax1H.jpg"}, {"cast_id": 2, "character": "Neilson", "credit_id": "56e92cb29251417bb9002da4", "gender": 2, "id": 14060, "name": "Robert Vaughn", "order": 3, "profile_path": "/tqnTA5PsxCvqZRFEyEyXAcEPQx4.jpg"}, {"cast_id": 3, "character": "Police Captain", "credit_id": "56e92cbcc3a3682d6c0030ea", "gender": 2, "id": 3142, "name": "John Marley", "order": 4, "profile_path": "/8XhyUzSWIhcHQSBURSCjydRe2Fx.jpg"}, {"cast_id": 4, "character": "Freedom Lovelace", "credit_id": "56e92cc9c3a3682d6c0030ef", "gender": 2, "id": 16523, "name": "Burgess Meredith", "order": 5, "profile_path": "/pTMJmozZqCY0VY7UiMDlM3upuZu.jpg"}, {"cast_id": 5, "character": "Simon", "credit_id": "56e92cd2925141763600030c", "gender": 2, "id": 95224, "name": "Ivan Dixon", "order": 6, "profile_path": "/6qMKPPqYDXDAztBaQS3WoZM0CqX.jpg"}, {"cast_id": 6, "character": "Clinic Doctor", "credit_id": "56e92ce1c3a3682d72002ed4", "gender": 2, "id": 9596, "name": "Jeff Corey", "order": 7, "profile_path": "/qchQWDmKLhr6QRDIsUFyjezXXT.jpg"}, {"cast_id": 7, "character": "Angeline", "credit_id": "56e92cfe9251417bcc002cf2", "gender": 0, "id": 1591664, "name": "Marilyn Akin", "order": 8, "profile_path": null}, {"cast_id": 8, "character": "Saddle", "credit_id": "56e92d089251417bcc002cf7", "gender": 1, "id": 125128, "name": "Marlene Clark", "order": 9, "profile_path": "/elejthRjX9rX7fYPTIFqxzvqYQ0.jpg"}, {"cast_id": 9, "character": "Tracy", "credit_id": "56e92d12c3a3682d5d0031e9", "gender": 0, "id": 1077253, "name": "Belinda Palmer", "order": 10, "profile_path": null}, {"cast_id": 11, "character": "Government Agent", "credit_id": "56e92d29c3a3682d5d0031f0", "gender": 2, "id": 4353, "name": "Peter Lawford", "order": 12, "profile_path": "/93YIqKGUxyPSN3MNh2a7oXQZ1OC.jpg"}, {"cast_id": 20, "character": "Jason", "credit_id": "58abfedfc3a3684a0a0117a0", "gender": 2, "id": 88905, "name": "Mario Alcalde", "order": 13, "profile_path": null}], "crew": [{"credit_id": "56e92d4492514154d70024a2", "department": "Directing", "gender": 0, "id": 197209, "job": "Director", "name": "Lane Slate", "profile_path": null}, {"credit_id": "56e92d53c3a3682d69002e1d", "department": "Directing", "gender": 2, "id": 223349, "job": "Director", "name": "Tom Stern", "profile_path": null}, {"credit_id": "57365add92514113bd000e74", "department": "Writing", "gender": 2, "id": 344781, "job": "Screenplay", "name": "Jack Gross Jr.", "profile_path": null}, {"credit_id": "57365ae4c3a3687e24000ded", "department": "Writing", "gender": 2, "id": 344781, "job": "Story", "name": "Jack Gross Jr.", "profile_path": null}, {"credit_id": "57365af0c3a36823b40001cc", "department": "Writing", "gender": 0, "id": 1235182, "job": "Screenplay", "name": "Buddy Ruskin", "profile_path": null}, {"credit_id": "57365af9c3a3687e2f000ff6", "department": "Writing", "gender": 0, "id": 1235182, "job": "Story", "name": "Buddy Ruskin", "profile_path": null}, {"credit_id": "57365ac3c3a3680ac0000fc4", "department": "Writing", "gender": 0, "id": 1619542, "job": "Screenplay", "name": "Ronald Buck", "profile_path": null}]}}