{"adult": false, "backdrop_path": "/exYHtuvMivjgWiXp7doLia16ptW.jpg", "belongs_to_collection": null, "budget": 700000, "genres": [{"id": 35, "name": "Comedy"}, {"id": 18, "name": "Drama"}, {"id": 10751, "name": "Family"}, {"id": 14, "name": "Fantasy"}, {"id": 10749, "name": "Romance"}, {"id": 878, "name": "Science Fiction"}], "homepage": "http://www.mamaboythemovie.com/", "id": 388256, "imdb_id": "tt4818168", "original_language": "en", "original_title": "Mamaboy", "overview": "A high school student must hide the fact that he has become pregnant from his family, friends and the school faculty!", "popularity": 5.824, "poster_path": "/ocsSTZEAbNuz68yqsfbOFlas9N4.jpg", "production_companies": [{"id": 90139, "logo_path": null, "name": "My Hero Productions", "origin_country": ""}], "production_countries": [{"iso_3166_1": "US", "name": "United States of America"}], "release_date": "2017-05-23", "revenue": 0, "runtime": 124, "spoken_languages": [{"iso_639_1": "en", "name": "English"}], "status": "Released", "tagline": "High school just got weirder.", "title": "Mamaboy", "video": false, "vote_average": 4.0, "vote_count": 3, "keywords": {"keywords": [{"id": 6270, "name": "high school"}, {"id": 12105, "name": "student"}, {"id": 235586, "name": "pregnant boy"}]}, "similar": {"page": 1, "results": [{"id": 272693, "video": false, "vote_count": 3249, "vote_average": 6.8, "title": "The DUFF", "release_date": "2015-02-20", "original_language": "en", "original_title": "The DUFF", "genre_ids": [35, 10749], "backdrop_path": "/awGZf5T1hflis9Z2KvRMhp798xU.jpg", "adult": false, "overview": "Bianca's universe turns upside down when she learns that her high school refers to her as a \u2018DUFF' (Designated Ugly Fat Friend). Hoping to erase that label, she enlists the help of a charming jock and her favorite teacher. Together they'll face the school's mean girl and remind everyone that we are all someone's DUFF\u2026 and that's totally fine.", "poster_path": "/dBBgPTCN5Zze4POXWVVpwf3wkra.jpg", "popularity": 17.232}, {"id": 13342, "video": false, "vote_count": 639, "vote_average": 6.9, "title": "Fast Times at Ridgemont High", "release_date": "1982-08-13", "original_language": "en", "original_title": "Fast Times at Ridgemont High", "genre_ids": [35, 18], "backdrop_path": "/l23IoHAfjTdNMZLeDetr75H6sb7.jpg", "adult": false, "overview": "Follows a group of high school students growing up in southern California, based on the real-life adventures chronicled by Cameron Crowe. Stacy Hamilton and Mark Ratner are looking for a love interest, and are helped along by their older classmates, Linda Barrett and Mike Damone, respectively. The center of the film is held by Jeff Spicoli, a perpetually stoned surfer dude who faces off with the resolute Mr. Hand, who is convinced that everyone is on dope.", "poster_path": "/lvEenO2CikD4Zo3rFK1flAU99Pr.jpg", "popularity": 11.118}, {"adult": false, "backdrop_path": "/gFYx0L17dZgmvsvSbwQ0PWtf3BO.jpg", "genre_ids": [35, 18, 10751, 10770], "id": 89185, "original_language": "en", "original_title": "Radio Rebel", "overview": "High school senior Tara is so painfully shy that she dreads speaking to anyone in the hallways or getting called on in class. But in the privacy of her bedroom with her iPod in hand, she rocks out -- doing mock broadcasts for Miami's hottest FM radio station, which happens to be owned by her stepfather. When a slot opens up at The SLAM, Tara surprises herself by blossoming behind the mike into confident, \"Radio Rebel\" -- and to everyone's shock, she's a hit!", "poster_path": "/xMDnQAGrjdy4k20n9CZGHKFm7XA.jpg", "release_date": "2012-02-17", "title": "Radio Rebel", "video": false, "vote_average": 6.2, "vote_count": 548, "popularity": 13.248}, {"adult": false, "backdrop_path": "/ncERp0UvXuImUeJcf27kEANcf1r.jpg", "genre_ids": [35, 10751, 10749], "id": 9880, "original_language": "en", "original_title": "The Princess Diaries", "overview": "A socially awkward but very bright 15-year-old girl being raised by a single mom discovers that she is the princess of a small European country because of the recent death of her long-absent father, who, unknown to her, was the crown prince of Genovia. She must make a choice between continuing the life of a San Francisco teen or stepping up to the throne.", "poster_path": "/sxpvHk286sXLJWcFrBMNIsXbYsd.jpg", "release_date": "2001-08-03", "title": "The Princess Diaries", "video": false, "vote_average": 6.8, "vote_count": 2861, "popularity": 30.076}, {"id": 449176, "video": false, "vote_count": 3691, "vote_average": 8.1, "title": "Love, Simon", "release_date": "2018-02-16", "original_language": "en", "original_title": "Love, Simon", "genre_ids": [35, 18, 10749], "backdrop_path": "/rqMEeajyzSF4PpJtdCB816Iz8Vr.jpg", "adult": false, "overview": "Everyone deserves a great love story. But for seventeen-year old Simon Spier it's a little more complicated: he's yet to tell his family or friends he's gay and he doesn't know the identity of the anonymous classmate he's fallen for online.", "poster_path": "/5YUYg5q7QfC4IoNwNUtiwdiYKPr.jpg", "popularity": 17.201}, {"id": 325189, "video": false, "vote_count": 338, "vote_average": 6.5, "title": "Teen Beach 2", "release_date": "2015-06-26", "original_language": "en", "original_title": "Teen Beach 2", "genre_ids": [35, 14, 10751, 10770], "backdrop_path": "/x3cQd5rruj6jySg7dIHuNXT8REX.jpg", "adult": false, "overview": "When characters from the movie musical \u201cWet Side Story\u201d get stuck in the real world, teens Brady and Mack must find a way to return them home.", "poster_path": "/4A5Ecrvs6P8Yipjn4Xl2WYgu7Gm.jpg", "popularity": 24.718}, {"adult": false, "backdrop_path": "/bxPw6s61bG5Of19lp1E00n0dDWW.jpg", "genre_ids": [35, 18, 10751, 10402, 10770], "id": 10947, "original_language": "en", "original_title": "High School Musical", "overview": "Troy, the popular captain of the basketball team, and Gabriella, the brainy and beautiful member of the academic club, break all the rules of East High society when they secretly audition for the leads in the school's musical. As they reach for the stars and follow their dreams, everyone learns about acceptance, teamwork, and being yourself.", "poster_path": "/xMRBlTMMKDRJuK4IhwG5idrGHaS.jpg", "release_date": "2006-01-20", "title": "High School Musical", "video": false, "vote_average": 6.5, "vote_count": 2983, "popularity": 14.165}, {"id": 37725, "video": false, "vote_count": 648, "vote_average": 6.5, "title": "It's a Boy Girl Thing", "release_date": "2006-12-26", "original_language": "en", "original_title": "It's a Boy Girl Thing", "genre_ids": [35, 14, 10749], "backdrop_path": "/vcUu3EOu5oz5hCGmJ94DFlIqhPY.jpg", "adult": false, "overview": "A visit to a natural history museum proves catastrophic for two high school rivals, an overachiever and a jock, when an ancient Aztec statue casts a spell that causes them to switch bodies and see exactly what it's like to walk in the other's shoes.", "poster_path": "/lFZQlr68VRzrroXtTnNy9qbUNK6.jpg", "popularity": 15.155}, {"id": 70695, "video": false, "vote_count": 108, "vote_average": 6.4, "title": "Dirty Girl", "release_date": "2010-09-12", "original_language": "en", "original_title": "Dirty Girl", "genre_ids": [35, 18], "backdrop_path": "/lV2FP4wQvfq8FSuk41mYylUIxQ3.jpg", "adult": false, "overview": "When Danielle is banished to special education because of her misbehavior, she joins Clarke on a road trip to discover themselves.", "poster_path": "/9wyyNds6MYPV0Kkzf5oGHTm8VGg.jpg", "popularity": 7.896}, {"adult": false, "backdrop_path": "/nt2e2QL5Nktok8udDar6627f1Ws.jpg", "genre_ids": [35], "id": 10625, "original_language": "en", "original_title": "Mean Girls", "overview": "Cady Heron is a hit with The Plastics, the A-list girl clique at her new school, until she makes the mistake of falling for Aaron Samuels, the ex-boyfriend of alpha Plastic Regina George.", "poster_path": "/lDlGPZS0UJYKxVlpyff3BMyPc2H.jpg", "release_date": "2004-04-30", "title": "Mean Girls", "video": false, "vote_average": 7.1, "vote_count": 5330, "popularity": 21.063}, {"adult": false, "backdrop_path": "/xuHuW4XhghQpVJSIna7JBb60bva.jpg", "genre_ids": [27, 878], "id": 9276, "original_language": "en", "original_title": "The Faculty", "overview": "When some very creepy things start happening around school, the kids at Herrington High make a chilling discovery that confirms their worst suspicions: their teachers really are from another planet!", "poster_path": "/7mqWOJK9G9jstckhKVxBCC3g8HX.jpg", "release_date": "1998-12-25", "title": "The Faculty", "video": false, "vote_average": 6.3, "vote_count": 992, "popularity": 13.589}, {"adult": false, "backdrop_path": "/zffzhr30v7nCHRcyfnVr8PmNLbM.jpg", "genre_ids": [10749, 35, 18], "id": 11355, "original_language": "en", "original_title": "Never Been Kissed", "overview": "Josie Geller, a baby-faced junior copywriter at the Chicago Sun-Times, must pose as a student at her former high school to research contemporary teenage culture. With the help of her brother, Rob, Josie infiltrates the inner circle of the most popular clique on campus. But she hits a major snag in her investigation -- not to mention her own failed love life -- when she falls for her dreamy English teacher, Sam Coulson.", "poster_path": "/1F9EAhEQxa0I5Pa5Z10hWIBFS3r.jpg", "release_date": "1999-04-09", "title": "Never Been Kissed", "video": false, "vote_average": 6.0, "vote_count": 855, "popularity": 15.613}, {"adult": false, "backdrop_path": "/g3LYarEY9LjB28Ct2trwFN72gqZ.jpg", "genre_ids": [35], "id": 437557, "original_language": "en", "original_title": "Blockers", "overview": "When three parents discover their daughters\u2019 pact to lose their virginity at prom, they launch a covert one-night operation to stop the teens from sealing the deal.", "poster_path": "/uvlUQXg0AlpGzKukO11K7QtW3Yu.jpg", "release_date": "2018-03-14", "title": "Blockers", "video": false, "vote_average": 6.2, "vote_count": 1155, "popularity": 17.886}, {"id": 13374, "video": false, "vote_count": 562, "vote_average": 6.1, "title": "Ice Princess", "release_date": "2005-03-17", "original_language": "en", "original_title": "Ice Princess", "genre_ids": [35, 18, 10751], "backdrop_path": "/3WFDNZOtA7eqO4QDkvWx9sJXwv4.jpg", "adult": false, "overview": "With the help of her coach, her parents, and the boy who drives the Zamboni machine, nothing can stop Casey from realizing her dream to be a champion figure skater.", "poster_path": "/b8ec4CS0rMx4w0HJQZmTdJ4yhWq.jpg", "popularity": 24.625}, {"adult": false, "backdrop_path": "/vvRlCks4HEZktmAhDIqghyamKiY.jpg", "genre_ids": [35, 18, 9648, 53], "id": 121875, "original_language": "fr", "original_title": "Dans la maison", "overview": "A sixteen-year-old boy insinuates himself into the house of a fellow student from his literature class and writes about it in essays for his French teacher. Faced with this gifted and unusual pupil, the teacher rediscovers his enthusiasm for his work, but the boy\u2019s intrusion will unleash a series of uncontrollable events.", "poster_path": "/4qAnWMNKUadx10jlCrkRAAuT4bN.jpg", "release_date": "2012-09-26", "title": "In the House", "video": false, "vote_average": 7.4, "vote_count": 456, "popularity": 10.737}, {"id": 15144, "video": false, "vote_count": 1221, "vote_average": 6.8, "title": "Sixteen Candles", "release_date": "1984-05-04", "original_language": "en", "original_title": "Sixteen Candles", "genre_ids": [35, 10749], "backdrop_path": "/xCIgY4mUmO4tbDVlntym9PdZ9H8.jpg", "adult": false, "overview": "A teenage girl deals with her parents forgetting her birthday and a crush on her high school's heartthrob.", "poster_path": "/rzTrRQg5ek47Yl0Vfenc69r9gOd.jpg", "popularity": 29.228}, {"id": 11887, "video": false, "vote_count": 2347, "vote_average": 6.5, "title": "High School Musical 3: Senior Year", "release_date": "2008-10-11", "original_language": "en", "original_title": "High School Musical 3: Senior Year", "genre_ids": [35, 18, 10402, 10749, 10751], "backdrop_path": "/daSGxGZL2nNjGZKkAF5ain3lmOx.jpg", "adult": false, "overview": "It's almost graduation day for high school seniors Troy, Gabriella, Sharpay, Chad, Ryan and Taylor \u2015 and the thought of heading off in separate directions after leaving East High has these Wildcats thinking they need to do something they'll remember forever. Together with the rest of the Wildcats, they stage a spring musical reflecting their hopes and fears about the future and their unforgettable experiences growing up together. But with graduation approaching and college plans in question, what will become of the dreams, romances, and friendships of East High's senior Wildcats?", "poster_path": "/ewZpH2QIfPQ0VIn9lPf7MHbLbl4.jpg", "popularity": 14.748}, {"id": 76726, "video": false, "vote_count": 3331, "vote_average": 6.7, "title": "Chronicle", "release_date": "2012-02-01", "original_language": "en", "original_title": "Chronicle", "genre_ids": [18, 878, 53], "backdrop_path": "/f54d3tpzdRW02IDIIVRuwiY2N3K.jpg", "adult": false, "overview": "Three high school students make an incredible discovery, leading to their developing uncanny powers beyond their understanding. As they learn to control their abilities and use them to their advantage, their lives start to spin out of control, and their darker sides begin to take over.", "poster_path": "/kdyrdFIt29FUmLIKvedAc2j4rpo.jpg", "popularity": 16.937}, {"id": 2105, "video": false, "vote_count": 4791, "vote_average": 6.5, "title": "American Pie", "release_date": "1999-07-09", "original_language": "en", "original_title": "American Pie", "genre_ids": [35, 10749], "backdrop_path": "/udTWgfwAzUxdztoyKSReoSrjBU7.jpg", "adult": false, "overview": "At a high-school party, four friends find that losing their collective virginity isn't as easy as they had thought. But they still believe that they need to do so before college. To motivate themselves, they enter a pact to all \"score.\" by their senior prom.", "poster_path": "/k40WFAXMRekWEqsjURO3jiWob67.jpg", "popularity": 24.961}, {"id": 315635, "video": false, "vote_count": 13257, "vote_average": 7.4, "title": "Spider-Man: Homecoming", "release_date": "2017-07-05", "original_language": "en", "original_title": "Spider-Man: Homecoming", "genre_ids": [28, 12, 18, 878], "backdrop_path": "/vc8bCGjdVp0UbMNLzHnHSLRbBWQ.jpg", "adult": false, "overview": "Following the events of Captain America: Civil War, Peter Parker, with the help of his mentor Tony Stark, tries to balance his life as an ordinary high school student in Queens, New York City, with fighting crime as his superhero alter ego Spider-Man as a new threat, the Vulture, emerges.", "poster_path": "/c24sv2weTHPsmDa7jEMN0m2P3RT.jpg", "popularity": 43.075}], "total_pages": 120, "total_results": 2389}, "recommendations": {"page": 1, "results": [], "total_pages": 1, "total_results": 0}, "credits": {"cast": [{"cast_id": 2, "character": "Kelly Hankins", "credit_id": "592542359251413ba000c196", "gender": 2, "id": 1394423, "name": "Sean O'Donnell", "order": 1, "profile_path": "/jWcqPktWmDu52GIsttY6KwK40kj.jpg"}, {"cast_id": 3, "character": "Lisa Weld", "credit_id": "59254260c3a36877ee00cf60", "gender": 1, "id": 1059598, "name": "Alexandria DeBerry", "order": 2, "profile_path": "/toiGKotclcjvSPA6biSh1KnEG8y.jpg"}, {"cast_id": 4, "character": "Coach Dombrowski", "credit_id": "592542829251413b5000c755", "gender": 2, "id": 2048, "name": "Gary Busey", "order": 3, "profile_path": "/n66ycv61ZoqusHthcQde1g3JY6T.jpg"}, {"cast_id": 5, "character": "Reverend Weld", "credit_id": "592542a5c3a36877ee00cf97", "gender": 2, "id": 537, "name": "Stephen Tobolowsky", "order": 4, "profile_path": "/fUodC7wMUZLAXnm4ONCxF5haCtC.jpg"}, {"cast_id": 6, "character": "Ditto", "credit_id": "592542c39251413b5400c568", "gender": 2, "id": 1251160, "name": "Michael Eric Reid", "order": 5, "profile_path": "/9jGbYBCv8TRMP7GuXKvzsdVwkRj.jpg"}, {"cast_id": 7, "character": "Milton", "credit_id": "592542fcc3a368782d00c2dd", "gender": 2, "id": 1251975, "name": "Dylan Riley Snyder", "order": 6, "profile_path": "/ffw363xaOCjGZP5oaOu3NkLJZGl.jpg"}, {"cast_id": 8, "character": "Principal Miller", "credit_id": "59254353c3a36877bc00dce6", "gender": 0, "id": 1457057, "name": "Eric Wheeler", "order": 7, "profile_path": null}], "crew": [{"credit_id": "5aa48deb0e0a26075d019b57", "department": "Production", "gender": 2, "id": 1394423, "job": "Associate Producer", "name": "Sean O'Donnell", "profile_path": "/jWcqPktWmDu52GIsttY6KwK40kj.jpg"}, {"credit_id": "5911e5699251414edb0464fa", "department": "Directing", "gender": 0, "id": 1813423, "job": "Director", "name": "Aaron Leong", "profile_path": null}, {"credit_id": "5911e5769251414e920461cf", "department": "Writing", "gender": 0, "id": 1813424, "job": "Writer", "name": "Rick Kuebler", "profile_path": null}]}}