{"adult": false, "backdrop_path": "/vupgs5jzdt0Tc8yd18GkROTWJQ8.jpg", "belongs_to_collection": null, "budget": 0, "genres": [{"id": 18, "name": "Drama"}], "homepage": null, "id": 388481, "imdb_id": "tt0037268", "original_language": "en", "original_title": "She's a Soldier Too", "overview": "Wartime workers deal with homefront dramatics.", "popularity": 0.6, "poster_path": "/66qltsQMZAoqyO4LHdieV6ZViVC.jpg", "production_companies": [{"id": 5, "logo_path": "/71BqEFAF4V3qjjMPCpLuyJFB9A.png", "name": "Columbia Pictures", "origin_country": "US"}], "production_countries": [{"iso_3166_1": "US", "name": "United States of America"}], "release_date": "1944-06-29", "revenue": 0, "runtime": 67, "spoken_languages": [{"iso_639_1": "en", "name": "English"}], "status": "Released", "tagline": "Sock Drama of the gals who wear the pants these days", "title": "She's a Soldier Too", "video": false, "vote_average": 0.0, "vote_count": 0, "keywords": {"keywords": [{"id": 11159, "name": "wartime"}]}, "similar": {"page": 1, "results": [{"id": 120467, "video": false, "vote_count": 8930, "vote_average": 8.0, "title": "The Grand Budapest Hotel", "release_date": "2014-02-26", "original_language": "en", "original_title": "The Grand Budapest Hotel", "genre_ids": [35, 18], "backdrop_path": "/5FPUoQtnNC0C0YZ7sUeTLq6eZqa.jpg", "adult": false, "overview": "The Grand Budapest Hotel tells of a legendary concierge at a famous European hotel between the wars and his friendship with a young employee who becomes his trusted prot\u00e9g\u00e9. The story involves the theft and recovery of a priceless Renaissance painting, the battle for an enormous family fortune and the slow and then sudden upheavals that transformed Europe during the first half of the 20th century.", "poster_path": "/nX5XotM9yprCKarRH4fzOq1VM1J.jpg", "popularity": 24.31}, {"adult": false, "backdrop_path": "/nfm6JCKUaM6dT0mATmShLY6cpmc.jpg", "genre_ids": [18, 10752], "id": 600, "original_language": "en", "original_title": "Full Metal Jacket", "overview": "A pragmatic U.S. Marine observes the dehumanizing effects the U.S.-Vietnam War has on his fellow recruits from their brutal boot camp training to the bloody street fighting in Hue.", "poster_path": "/29veIwD38rVL2qY74emXQw4y25H.jpg", "release_date": "1987-06-26", "title": "Full Metal Jacket", "video": false, "vote_average": 8.1, "vote_count": 5897, "popularity": 25.207}, {"id": 534, "video": false, "vote_count": 4114, "vote_average": 6.0, "title": "Terminator Salvation", "release_date": "2009-05-20", "original_language": "en", "original_title": "Terminator Salvation", "genre_ids": [28, 878, 53], "backdrop_path": "/mglXOOyXISvuIdLgvhU9oXn1Mi7.jpg", "adult": false, "overview": "All grown up in post-apocalyptic 2018, John Connor must lead the resistance of humans against the increasingly dominating militaristic robots. But when Marcus Wright appears, his existence confuses the mission as Connor tries to determine whether Wright has come from the future or the past -- and whether he's friend or foe.", "poster_path": "/gw6JhlekZgtKUFlDTezq3j5JEPK.jpg", "popularity": 34.306}, {"adult": false, "backdrop_path": "/sRJjliXA7ZqHCr7HCK0ZB83xxjr.jpg", "genre_ids": [12, 28, 878], "id": 101299, "original_language": "en", "original_title": "The Hunger Games: Catching Fire", "overview": "Katniss Everdeen has returned home safe after winning the 74th Annual Hunger Games along with fellow tribute Peeta Mellark. Winning means that they must turn around and leave their family and close friends, embarking on a \"Victor's Tour\" of the districts. Along the way Katniss senses that a rebellion is simmering, but the Capitol is still very much in control as President Snow prepares the 75th Annual Hunger Games (The Quarter Quell) - a competition that could change Panem forever.", "poster_path": "/Hn0KgefVEp0GkdTexS6gfKTMfi.jpg", "release_date": "2013-11-15", "title": "The Hunger Games: Catching Fire", "video": false, "vote_average": 7.4, "vote_count": 12031, "popularity": 22.164}, {"id": 21735, "video": false, "vote_count": 39, "vote_average": 7.0, "title": "49th Parallel", "release_date": "1941-11-24", "original_language": "en", "original_title": "49th Parallel", "genre_ids": [12, 18, 53, 10752], "backdrop_path": "/nvuaUT8kDUyjsRUcNemwuJjTVWD.jpg", "adult": false, "overview": "In the early days of World War II, a German U-boat is sunk in Canada's Hudson Bay. Hoping to evade capture, a small band of German soldiers led by commanding officer Lieutenant Hirth attempts to cross the border into the United States, which has not yet entered the war and is officially neutral. Along the way, the German soldiers encounter brave men such as a French-Canadian fur trapper, Johnnie, a leader of a Hutterite farming community, Peter, an author, Philip and a soldier, Andy Brock.", "poster_path": "/vRGmsxmi0d4IEYfaltG9YM1EPLt.jpg", "popularity": 4.725}, {"id": 21385, "video": false, "vote_count": 455, "vote_average": 6.4, "title": "Mickey, Donald, Goofy: The Three Musketeers", "release_date": "2004-08-04", "original_language": "en", "original_title": "Mickey, Donald, Goofy: The Three Musketeers", "genre_ids": [12, 16, 35, 10751], "backdrop_path": "/8WodHELOg5guFPMIQf0M88IQhNE.jpg", "adult": false, "overview": "In Disney's take on the Alexander Dumas tale, Mickey Mouse, Donald Duck and Goofy want nothing more than to perform brave deeds on behalf of their queen (Minnie Mouse), but they're stymied by the head Musketeer, Pete. Pete secretly wants to get rid of the queen, so he appoints Mickey and his bumbling friends as guardians to Minnie, thinking such a maneuver will ensure his scheme's success. The score features songs based on familiar classical melodies.", "poster_path": "/uDvv54as7hLH7aWHwPyIVvoNb9K.jpg", "popularity": 27.432}, {"adult": false, "backdrop_path": "/mv0QPfuEgelDInFKoijLhsDxm2x.jpg", "genre_ids": [18, 53], "id": 582, "original_language": "de", "original_title": "Das Leben der Anderen", "overview": "A tragic love story set in East Berlin with the backdrop of an undercover Stasi controlled culture. Stasi captain Wieler is ordered to follow author Dreyman and plunges deeper and deeper into his life until he reaches the threshold of doubting the system.", "poster_path": "/bzzDAg3fkztvfQB08VBprhs9tVE.jpg", "release_date": "2006-03-15", "title": "The Lives of Others", "video": false, "vote_average": 8.1, "vote_count": 1935, "popularity": 15.018}, {"adult": false, "backdrop_path": "/d29YY7ISmsEEjxIMXyjFWAfXLLY.jpg", "genre_ids": [16], "id": 64658, "original_language": "en", "original_title": "Donald's Decision", "overview": "Donald Duck buys Canadian war bonds in World War II.", "poster_path": "/aA37N5EkwJOfgb4dG7BTxS96OJj.jpg", "release_date": "1942-01-11", "title": "Donald's Decision", "video": false, "vote_average": 4.8, "vote_count": 7, "popularity": 2.35}, {"id": 566222, "video": false, "vote_count": 186, "vote_average": 7.0, "title": "The Great Hack", "release_date": "2019-01-26", "original_language": "en", "original_title": "The Great Hack", "genre_ids": [99], "backdrop_path": "/mGyMkoip5CpfcfNNQFIiuoIQkKb.jpg", "adult": false, "overview": "Data\u2014arguably the world\u2019s most valuable asset\u2014is being weaponized to wage cultural and political wars. The dark world of data exploitation is uncovered through the unpredictable, personal journeys of players on different sides of the explosive Cambridge Analytica/Facebook data story.", "poster_path": "/uIrGgUzasEUA7v8uChRhUUFzLwE.jpg", "popularity": 16.949}, {"id": 914, "video": false, "vote_count": 1696, "vote_average": 8.4, "title": "The Great Dictator", "release_date": "1940-10-15", "original_language": "en", "original_title": "The Great Dictator", "genre_ids": [35], "backdrop_path": "/qkpsvso2neEr7v6YnyMoZtm6R9F.jpg", "adult": false, "overview": "Dictator Adenoid Hynkel tries to expand his empire while a poor Jewish barber tries to avoid persecution from Hynkel's regime.", "poster_path": "/hK2KsU0lNiYRqIrYJcC3x63dPnH.jpg", "popularity": 20.398}, {"id": 71688, "video": false, "vote_count": 1019, "vote_average": 6.4, "title": "The Iron Lady", "release_date": "2011-12-30", "original_language": "en", "original_title": "The Iron Lady", "genre_ids": [18, 36], "backdrop_path": "/dfM5XwQcw36HAnKhowEh5776MJl.jpg", "adult": false, "overview": "A look at the life of Margaret Thatcher, the former Prime Minister of the United Kingdom, with a focus on the price she paid for power.", "poster_path": "/e67tal4u66eFz8yGnJGTO5FYRxY.jpg", "popularity": 10.839}, {"adult": false, "backdrop_path": "/qEYK2XJTiKAeLD64hspR2u7rOzj.jpg", "genre_ids": [16, 18], "id": 44480, "original_language": "en", "original_title": "Education for Death", "overview": "A propaganda film during World War II about a boy who grows up to become a Nazi soldier.", "poster_path": "/9wHrpTe9h1Ocu5fmypKUNgdo4yU.jpg", "release_date": "1943-01-15", "title": "Education for Death", "video": false, "vote_average": 7.0, "vote_count": 39, "popularity": 4.274}, {"adult": false, "backdrop_path": "/gksXmzJQoUtrOR7zIHxDwQLPC4L.jpg", "genre_ids": [16], "id": 33600, "original_language": "en", "original_title": "Der Fuehrer's Face", "overview": "A marching band of Germans, Italians, and Japanese march through the streets of swastika-motif Nutziland, serenading \"Der Fuehrer's Face.\" Donald Duck, not living in the region by choice, struggles to make do with disgusting Nazi food rations and then with his day of toil at a Nazi artillery factory. After a nervous breakdown, Donald awakens to find that his experience was in fact a nightmare.", "poster_path": "/1FtTkJX9piZKdntOk4wTw8VY4dR.jpg", "release_date": "1943-01-01", "title": "Der Fuehrer's Face", "video": false, "vote_average": 6.8, "vote_count": 61, "popularity": 6.006}, {"adult": false, "backdrop_path": "/jkpTcreM7YOUF4RaDTgTAy9aMJZ.jpg", "genre_ids": [99], "id": 13020, "original_language": "en", "original_title": "Enron: The Smartest Guys in the Room", "overview": "A documentary about the Enron corporation, its faulty and corrupt business practices, and how they led to its fall.", "poster_path": "/d1oHF7nFAxC6X5ZNRn1SCSTJYDW.jpg", "release_date": "2005-04-22", "title": "Enron: The Smartest Guys in the Room", "video": false, "vote_average": 7.2, "vote_count": 147, "popularity": 11.797}, {"id": 4515, "video": false, "vote_count": 416, "vote_average": 6.1, "title": "Lions for Lambs", "release_date": "2007-10-22", "original_language": "en", "original_title": "Lions for Lambs", "genre_ids": [28, 12, 18, 36], "backdrop_path": "/wEjX9ZSTJ2VYjDOkbFccZKJPqYK.jpg", "adult": false, "overview": "Three stories told simultaneously in ninety minutes of real time: a Republican Senator who's a presidential hopeful gives an hour-long interview to a skeptical television reporter, detailing a strategy for victory in Afghanistan; two special forces ambushed on an Afghani ridge await rescue as Taliban forces close in; a poli-sci professor at a California college invites a student to re-engage.", "poster_path": "/iLuo4swOCHF2a8BlaxXZGdqETUs.jpg", "popularity": 10.756}, {"adult": false, "backdrop_path": "/hPByrqJXCXIViFheXQh48wtI7T6.jpg", "genre_ids": [16, 12, 14, 10751], "id": 31135, "original_language": "en", "original_title": "Mickey Mouse: Mickey and the Beanstalk", "overview": "Based on the timeless adventures of \"Jack and the Beanstalk,\" Mickey, Donald and Goofy climb a fantastic beanstalk up into the sky to a place where everything is huge -- the food, the castle and the fearsome giant named Willy who guards a beautiful golden harp! Will Mickey and his friends outwit the giant and make it safely back home?", "poster_path": "/kk1Xg1f1lv6loekjlKinpKJlGOu.jpg", "release_date": "1947-09-27", "title": "Mickey Mouse: Mickey and the Beanstalk", "video": false, "vote_average": 6.7, "vote_count": 166, "popularity": 13.649}, {"adult": false, "backdrop_path": "/42n0vD8ygHkA1IDPlG9TpHLLmZF.jpg", "genre_ids": [18, 10752], "id": 24167, "original_language": "it", "original_title": "La ciociara", "overview": "Widowed shopkeeper Cesira and her 13-year-old daughter Rosetta flee from the allied bombs in Rome during the second World War; they travel to the remote village where Cesira was born. During their journey and in the village and onward, the mother does everything she can to protect Rosetta. Meanwhile, a sensitive young intellectual, Michele, falls in love with Cesira.", "poster_path": "/zJDOKY7IWmcQvYRKUd71Fz6lV3g.jpg", "release_date": "1960-12-23", "title": "Two Women", "video": false, "vote_average": 8.0, "vote_count": 206, "popularity": 11.717}, {"adult": false, "backdrop_path": "/ruxkJgBDZgAANNjj3VWY8l4kwcu.jpg", "genre_ids": [16], "id": 64702, "original_language": "en", "original_title": "The Old Army Game", "overview": "The old shell game gets a new face as Donald stays off-base past \"Taps\" and has to try to sneak back in with out alerting Pete.", "poster_path": "/s5SUgP5FeIfDVn0eruG5m44YeTp.jpg", "release_date": "1943-11-05", "title": "The Old Army Game", "video": false, "vote_average": 5.0, "vote_count": 10, "popularity": 3.237}, {"adult": false, "backdrop_path": "/s0S55yAZgkt5Jo6pR5zIyW1Vfls.jpg", "genre_ids": [18, 9648], "id": 37903, "original_language": "de", "original_title": "Das weisse Band", "overview": "Strange events happen in a small village in the north of Germany during the years just before World War I, which seem to be ritual punishment. The abused and suppressed children of the villagers seem to be at the heart of this mystery.", "poster_path": "/gcEY6iTlh8cj9uSlIoKMyBzRvsW.jpg", "release_date": "2009-10-06", "title": "The White Ribbon", "video": false, "vote_average": 7.5, "vote_count": 508, "popularity": 11.54}, {"id": 64595, "video": false, "vote_count": 6, "vote_average": 4.7, "title": "All Together", "release_date": "1942-01-13", "original_language": "en", "original_title": "All Together", "genre_ids": [16], "backdrop_path": "/oDKv9SJaWPL8ubaq3ChIbGBY7JE.jpg", "adult": false, "overview": "The entire Disney menagerie appears in a parade urging the purchase of war bonds.", "poster_path": "/kLboK8Z5ctQj268rdu0T1qCX0Y4.jpg", "popularity": 2.932}], "total_pages": 18, "total_results": 359}, "recommendations": {"page": 1, "results": [], "total_pages": 1, "total_results": 0}, "credits": {"cast": [{"cast_id": 3, "character": "Agatha Kittredge", "credit_id": "56ed6204c3a36822590062fb", "gender": 1, "id": 17755, "name": "Beulah Bondi", "order": 1, "profile_path": "/dduvRQRhbwdlbS12nljnHTkChIR.jpg"}, {"cast_id": 4, "character": "Tessie Legruda", "credit_id": "56ed6211c3a3682256006f19", "gender": 1, "id": 13026, "name": "Nina Foch", "order": 2, "profile_path": "/jd5qWtnZdEvfwuo57CpJVzazYc0.jpg"}, {"cast_id": 5, "character": "Dr. Bill White", "credit_id": "56ed621f92514143fc006856", "gender": 2, "id": 81187, "name": "Jess Barker", "order": 3, "profile_path": "/sWOQDETEYTm0VpgHZO1tLlrnK0f.jpg"}, {"cast_id": 6, "character": "Jonathan Kittredge", "credit_id": "56ed622a925141323d002600", "gender": 2, "id": 94929, "name": "Percy Kilbride", "order": 4, "profile_path": "/ukzOsoMO4b5WS1pxYrtq0u5KJoz.jpg"}, {"cast_id": 7, "character": "Charles Jones", "credit_id": "56ed6237925141323d002602", "gender": 2, "id": 2177, "name": "Lloyd Bridges", "order": 5, "profile_path": "/qez0xZiQGt3f530vAGcoYAWd7FM.jpg"}, {"cast_id": 8, "character": "Julia Kittredge", "credit_id": "56ed624692514119580029e7", "gender": 1, "id": 108434, "name": "Ida Moore", "order": 6, "profile_path": "/oxEUALYcu7DdrOez0eAcT9TBsDt.jpg"}, {"cast_id": 18, "character": "Mickey", "credit_id": "570f24c0c3a368503c000405", "gender": 0, "id": 1605514, "name": "Mickey Wagner", "order": 7, "profile_path": null}, {"cast_id": 19, "character": "'Red' Burns (uncredited)", "credit_id": "570f24c9c3a3685385001f8d", "gender": 1, "id": 14796, "name": "Jeanne Bates", "order": 8, "profile_path": "/lHrwjoC9K970j1uet252Ti3LBaD.jpg"}, {"cast_id": 20, "character": "Miss Dooley (uncredited)", "credit_id": "570f24d2925141016f000f05", "gender": 0, "id": 103922, "name": "Gladys Blake", "order": 9, "profile_path": "/axxdr9cN1sd0h9Y8UyxeK4iftwB.jpg"}, {"cast_id": 21, "character": "Tizzy (uncredited)", "credit_id": "570f24d992514102af001b00", "gender": 0, "id": 1307220, "name": "Nancy Brinckman", "order": 10, "profile_path": null}, {"cast_id": 22, "character": "Mary Fleming (uncredited)", "credit_id": "570f24ee92514143da0003ab", "gender": 1, "id": 14576, "name": "Jeff Donnell", "order": 11, "profile_path": "/1Pr6zHKOXsDENgn2JpowY8BdsjY.jpg"}, {"cast_id": 23, "character": "Kay (uncredited)", "credit_id": "570f24f792514102b9001da2", "gender": 0, "id": 1605515, "name": "Kaye Dowd", "order": 12, "profile_path": null}, {"cast_id": 24, "character": "Mr. Spengler (uncredited)", "credit_id": "570f25009251414fbc0001b9", "gender": 2, "id": 34508, "name": "Edward Earle", "order": 13, "profile_path": "/gbliCBMFl5Jge8CMzTsUhrr0Hdf.jpg"}, {"cast_id": 25, "character": "Mr. Long (uncredited)", "credit_id": "570f2509c3a3685378001dc8", "gender": 2, "id": 121244, "name": "Harrison Greene", "order": 14, "profile_path": null}, {"cast_id": 26, "character": "Bette (uncredited)", "credit_id": "570f2511c3a3685378001dcd", "gender": 0, "id": 1605516, "name": "Bette Herron", "order": 15, "profile_path": null}, {"cast_id": 27, "character": "'Butch' Sprague (uncredited)", "credit_id": "570f251bc3a3685370001e98", "gender": 0, "id": 34368, "name": "Marilyn Johnson", "order": 16, "profile_path": null}, {"cast_id": 28, "character": "Lucklow (uncredited)", "credit_id": "570f252ac3a368538b001ee4", "gender": 0, "id": 129680, "name": "Erik Rolf", "order": 17, "profile_path": "/4iVrORBF3YiqlxtU8oPxrZ1iFRd.jpg"}, {"cast_id": 29, "character": "Policeman (uncredited)", "credit_id": "570f25339251414fbc0001bf", "gender": 2, "id": 96724, "name": "John Tyrrell", "order": 18, "profile_path": "/Aflx6fxdSuLPu8H6hM171lvJ1Qo.jpg"}, {"cast_id": 30, "character": "Maggie (uncredited)", "credit_id": "570f253bc3a368538b001ee9", "gender": 1, "id": 1221753, "name": "Ruth Warren", "order": 19, "profile_path": "/fkcLuyjfNmbhtHbVBhit76Ul7D4.jpg"}, {"cast_id": 31, "character": "Mr. Callum (uncredited)", "credit_id": "570f255e9251414fbc0001c4", "gender": 2, "id": 1132357, "name": "Larry Williams", "order": 20, "profile_path": null}, {"cast_id": 32, "character": "'Silver' Rankin (uncredited)", "credit_id": "570f2567c3a3685373001cf1", "gender": 1, "id": 7632, "name": "Shelley Winters", "order": 21, "profile_path": "/zVg966M0RVK5kycHZUEDc51QULV.jpg"}], "crew": [{"credit_id": "56ed61e59251415e62006c1c", "department": "Directing", "gender": 2, "id": 12011, "job": "Director", "name": "William Castle", "profile_path": "/6vUhJ5Nb5YlX4WsztDkSCePM61I.jpg"}, {"credit_id": "56ed61edc3a36822650068b5", "department": "Writing", "gender": 0, "id": 167917, "job": "Writer", "name": "Melvin Levy", "profile_path": null}, {"credit_id": "56ed61f792514119580029df", "department": "Writing", "gender": 2, "id": 69320, "job": "Story", "name": "Harold Jacob Smith", "profile_path": null}, {"credit_id": "570f244d9251414fbc000191", "department": "Production", "gender": 2, "id": 96725, "job": "Producer", "name": "Wallace MacDonald", "profile_path": "/arKR5gyowGRHzyP8cV7sZTqXWp1.jpg"}, {"credit_id": "570f2454c3a36860a8000197", "department": "Sound", "gender": 0, "id": 29621, "job": "Original Music Composer", "name": "Mario Castelnuovo-Tedesco", "profile_path": null}, {"credit_id": "570f245cc3a3685370001e65", "department": "Camera", "gender": 2, "id": 96726, "job": "Director of Photography", "name": "Benjamin H. Kline", "profile_path": null}, {"credit_id": "570f246692514102b9001d83", "department": "Editing", "gender": 2, "id": 8484, "job": "Editor", "name": "Aaron Stell", "profile_path": null}, {"credit_id": "570f246dc3a368538b001ec3", "department": "Art", "gender": 2, "id": 31969, "job": "Art Direction", "name": "Lionel Banks", "profile_path": null}, {"credit_id": "570f2480c3a3685385001f72", "department": "Art", "gender": 0, "id": 34429, "job": "Art Direction", "name": "George Brooks", "profile_path": null}, {"credit_id": "570f248a92514102af001ae6", "department": "Art", "gender": 0, "id": 34440, "job": "Set Decoration", "name": "Louis Diage", "profile_path": null}, {"credit_id": "570f2492c3a3685385001f79", "department": "Directing", "gender": 0, "id": 34506, "job": "Assistant Director", "name": "Milton Feldman", "profile_path": null}, {"credit_id": "570f249c9251414fbc0001a0", "department": "Sound", "gender": 2, "id": 1530891, "job": "Sound", "name": "Philip Faulkner Jr.", "profile_path": null}]}}