{"adult": false, "backdrop_path": null, "belongs_to_collection": null, "budget": 0, "genres": [{"id": 18, "name": "Drama"}, {"id": 10751, "name": "Family"}, {"id": 10752, "name": "War"}], "homepage": "http://www.underthebloodredsun.com/", "id": 388751, "imdb_id": "tt3278950", "original_language": "en", "original_title": "Under the Blood-Red Sun", "overview": "December 7, 1941 - TOMIKAZU \u201cTOMI\u201d NAKAJI (Kyler Ki Sakamoto) and his best friend BILLY DAVIS (Kalama Epstein) are playing baseball in a field near their homes in Hawaii when Japan launches a surprise attack on the US at Pearl Harbor.  As Tomi looks up at the sky and recognizes the Blood-Red Sun emblem on the fighter planes, he knows that his life has changed forever.  Based on actual events, Under the Blood-Red Sun is an unforgettable story of friendship, courage and survival.", "popularity": 1.424, "poster_path": "/abH6UycESx8GahMzfpqAElUgtKK.jpg", "production_companies": [{"id": 74474, "logo_path": null, "name": "Red Sun Productions", "origin_country": ""}], "production_countries": [], "release_date": "2014-09-14", "revenue": 0, "runtime": 99, "spoken_languages": [], "status": "Released", "tagline": "From the book by Graham Salisbury", "title": "Under the Blood-Red Sun", "video": false, "vote_average": 7.2, "vote_count": 3, "keywords": {"keywords": [{"id": 818, "name": "based on novel or book"}, {"id": 1668, "name": "hawaii"}, {"id": 1956, "name": "world war ii"}, {"id": 3365, "name": "pearl harbor"}, {"id": 181089, "name": "japanese american"}, {"id": 195140, "name": "japanese american internment"}]}, "similar": {"page": 1, "results": [{"id": 11426, "video": false, "vote_count": 286, "vote_average": 7.4, "title": "From Here to Eternity", "release_date": "1953-08-28", "original_language": "en", "original_title": "From Here to Eternity", "genre_ids": [18, 10749, 10752], "backdrop_path": "/9LkxpkVwf7eGGKrBlZ4DqywwDEl.jpg", "adult": false, "overview": "In 1941 Hawaii, a private is cruelly punished for not boxing on his unit's team, while his captain's wife and second in command are falling in love.", "poster_path": "/fQXKrHgjHB5SQTRAKxUQa42yVJV.jpg", "popularity": 11.214}, {"adult": false, "backdrop_path": "/pKawqrtCBMmxarft7o1LbEynys7.jpg", "genre_ids": [10752, 18, 28], "id": 228150, "original_language": "en", "original_title": "Fury", "overview": "In the last months of World War II, as the Allies make their final push in the European theatre, a battle-hardened U.S. Army sergeant named 'Wardaddy' commands a Sherman tank called 'Fury' and its five-man crew on a deadly mission behind enemy lines. Outnumbered and outgunned, Wardaddy and his men face overwhelming odds in their heroic attempts to strike at the heart of Nazi Germany.", "poster_path": "/fa4PxEPRKWRyjzYje1jM4m30qzd.jpg", "release_date": "2014-10-15", "title": "Fury", "video": false, "vote_average": 7.4, "vote_count": 7302, "popularity": 53.985}, {"adult": false, "backdrop_path": "/4uZZC82s0MDg6Om9AkQGDt4z0Xd.jpg", "genre_ids": [12, 18, 28, 53, 10752], "id": 11372, "original_language": "en", "original_title": "The Eagle Has Landed", "overview": "When the Nazi high command learns in late 1943 that Winston Churchill will be spending time at a country estate in Norfolk, it hatches an audacious scheme to kidnap the prime minister and spirit him to Germany for enforced negotiations with Hitler.", "poster_path": "/o22XW3pFNhUy9jPzBTLipKhUg5t.jpg", "release_date": "1976-12-24", "title": "The Eagle Has Landed", "video": false, "vote_average": 6.5, "vote_count": 149, "popularity": 15.382}, {"id": 613, "video": false, "vote_count": 1992, "vote_average": 7.8, "title": "Downfall", "release_date": "2004-09-08", "original_language": "de", "original_title": "Der Untergang", "genre_ids": [18, 36, 10752], "backdrop_path": "/d3AmCJXvsP818di5KcCj4fNi36.jpg", "adult": false, "overview": "In April of 1945, Germany stands at the brink of defeat with the Russian Army closing in from the east and the Allied Expeditionary Force attacking from the west. In Berlin, capital of the Third Reich, Adolf Hitler proclaims that Germany will still achieve victory and orders his generals and advisers to fight to the last man. When the end finally does come, and Hitler lies dead by his own hand, what is left of his military must find a way to end the killing that is the Battle of Berlin, and lay down their arms in surrender.", "poster_path": "/2QmpblYvUThzBQ4ArdT1Kp43DZi.jpg", "popularity": 13.146}, {"id": 369885, "video": false, "vote_count": 3048, "vote_average": 6.7, "title": "Allied", "release_date": "2016-11-17", "original_language": "en", "original_title": "Allied", "genre_ids": [28, 18, 53, 10749, 10752], "backdrop_path": "/tC0tVH5KQhCwMlddnyA3iWOSuBA.jpg", "adult": false, "overview": "In 1942, an intelligence officer in North Africa encounters a female French Resistance fighter on a deadly mission behind enemy lines. When they reunite in London, their relationship is tested by the pressures of war.", "poster_path": "/nzXzLFTnd0Zb3ExfhOxlQgizgSu.jpg", "popularity": 29.818}, {"id": 11046, "video": false, "vote_count": 434, "vote_average": 7.6, "title": "Where Eagles Dare", "release_date": "1968-12-04", "original_language": "en", "original_title": "Where Eagles Dare", "genre_ids": [28, 12, 18, 36, 10752], "backdrop_path": "/aAFq5jVHV6RZpLcRXATskNBuEbM.jpg", "adult": false, "overview": "World War II is raging, and an American general has been captured and is being held hostage in the Schloss Adler, a Bavarian castle that's nearly impossible to breach. It's up to a group of skilled Allied soldiers to liberate the general before it's too late.", "poster_path": "/991u0tSWGTVXCYkgC6ftaGE4bkQ.jpg", "popularity": 15.171}, {"id": 438799, "video": false, "vote_count": 1395, "vote_average": 6.6, "title": "Overlord", "release_date": "2018-11-01", "original_language": "en", "original_title": "Overlord", "genre_ids": [27, 878, 10752], "backdrop_path": "/sHNC8hjAu4ZKXYhG3cp8ghRZ02B.jpg", "adult": false, "overview": "France, June 1944. On the eve of D-Day, some American paratroopers fall behind enemy lines after their aircraft crashes while on a mission to destroy a radio tower in a small village near the beaches of Normandy. After reaching their target, the surviving paratroopers realise that, in addition to fighting the Nazi troops that patrol the village, they also must fight against something else.", "poster_path": "/l76Rgp32z2UxjULApxGXAPpYdAP.jpg", "popularity": 21.552}, {"adult": false, "backdrop_path": "/nb70B4EXuoegiQ0C5N1fNVHIaYc.jpg", "genre_ids": [12, 18, 36, 53, 10752], "id": 5925, "original_language": "en", "original_title": "The Great Escape", "overview": "The Nazis, exasperated at the number of escapes from their prison camps by a relatively small number of Allied prisoners, relocates them to a high-security 'escape-proof' camp to sit out the remainder of the war. Undaunted, the prisoners plan one of the most ambitious escape attempts of World War II. Based on a true story.", "poster_path": "/qhy4HgUqhEbwQ1ekKTv7yEB3b0e.jpg", "release_date": "1963-06-20", "title": "The Great Escape", "video": false, "vote_average": 8.0, "vote_count": 1359, "popularity": 19.093}, {"id": 424, "video": false, "vote_count": 8988, "vote_average": 8.6, "title": "Schindler's List", "release_date": "1993-11-30", "original_language": "en", "original_title": "Schindler's List", "genre_ids": [18, 36, 10752], "backdrop_path": "/cTNYRUTXkBgPH3wP3kmPUB5U6dA.jpg", "adult": false, "overview": "The true story of how businessman Oskar Schindler saved over a thousand Jewish lives from the Nazis while they worked as slaves in his factory during World War II.", "poster_path": "/yPisjyLweCl1tbgwgtzBCNCBle.jpg", "popularity": 25.457}, {"id": 676, "video": false, "vote_count": 3795, "vote_average": 6.8, "title": "Pearl Harbor", "release_date": "2001-05-21", "original_language": "en", "original_title": "Pearl Harbor", "genre_ids": [18, 36, 10749, 10752], "backdrop_path": "/cDctk61tUeQz4LX7tTFPknI28ea.jpg", "adult": false, "overview": "The lifelong friendship between Rafe McCawley and Danny Walker is put to the ultimate test when the two ace fighter pilots become entangled in a love triangle with beautiful Naval nurse Evelyn Johnson. But the rivalry between the friends-turned-foes is immediately put on hold when they find themselves at the center of Japan's devastating attack on Pearl Harbor on Dec. 7, 1941.", "poster_path": "/gzjMpcyV1RksWonaA87DZ8wQTH0.jpg", "popularity": 26.975}, {"id": 515001, "video": false, "vote_count": 576, "vote_average": 8.1, "title": "Jojo Rabbit", "release_date": "2019-10-18", "original_language": "en", "original_title": "Jojo Rabbit", "genre_ids": [35, 18, 10752], "backdrop_path": "/agoBZfL1q5G79SD0npArSlJn8BH.jpg", "adult": false, "overview": "A World War II satire that follows a lonely German boy whose world view is turned upside down when he discovers his single mother is hiding a young Jewish girl in their attic. Aided only by his idiotic imaginary friend, Adolf Hitler, Jojo must confront his blind nationalism.", "poster_path": "/7GsM4mtM0worCtIVeiQt28HieeN.jpg", "popularity": 81.75}, {"id": 339259, "video": false, "vote_count": 353, "vote_average": 6.4, "title": "The Man with the Iron Heart", "release_date": "2017-05-25", "original_language": "en", "original_title": "The Man with the Iron Heart", "genre_ids": [28, 36, 53, 10752], "backdrop_path": "/ypyz71O2YtI5rdJ7Y3s03SwwORQ.jpg", "adult": false, "overview": "With the Third Reich is at his peak in 1942, the Czech resistance in London plans the most ambitious military operation of WWII \u2013  Anthropoid. Two young recruits are sent to Prague to assassinate the most ruthless Nazi leader \u2013 Reinhardt Heydrich \u2013 head of the SS, the Gestapo and the architect of the Final Solution.", "poster_path": "/ZVQfCY2DgCjrm8w2saXvT8Ao3B.jpg", "popularity": 10.498}, {"adult": false, "backdrop_path": "/sn0HQZthLpYamYb8VSPbEAWT4kF.jpg", "genre_ids": [18, 36, 10752], "id": 8741, "original_language": "en", "original_title": "The Thin Red Line", "overview": "Based on the graphic novel by James Jones, The Thin Red Line tells the story of a group of men, an Army Rifle company called C-for-Charlie, who change, suffer, and ultimately make essential discoveries about themselves during the fierce World War II battle of Guadalcanal. It follows their journey, from the surprise of an unopposed landing, through the bloody and exhausting battles that follow, to the ultimate departure of those who survived. A powerful frontline cast - including Sean Penn, Nick Nolte, Woody Harrelson and George Clooney - explodes into action in this hauntingly realistic view of military and moral chaos in the Pacific during World War II.", "poster_path": "/g4ApW90svay7veAPgxU8OsNMEOB.jpg", "release_date": "1998-12-25", "title": "The Thin Red Line", "video": false, "vote_average": 7.4, "vote_count": 1577, "popularity": 19.345}, {"id": 1654, "video": false, "vote_count": 574, "vote_average": 7.7, "title": "The Dirty Dozen", "release_date": "1967-06-15", "original_language": "en", "original_title": "The Dirty Dozen", "genre_ids": [28, 12, 10752], "backdrop_path": "/ccegwWa7I2vxxaoXrGB8Wl1g5nl.jpg", "adult": false, "overview": "12 American military prisoners in World War II are ordered to infiltrate a well-guarded enemy ch\u00e2teau and kill the Nazi officers vacationing there. The soldiers, most of whom are facing death sentences for a variety of violent crimes, agree to the mission and the possible commuting of their sentences.", "poster_path": "/2PKazVY2F2GhRfQyErq8QWiq0Au.jpg", "popularity": 16.266}, {"adult": false, "backdrop_path": "/yGBa4cj6GBu4426Phj2voxfz1nz.jpg", "genre_ids": [18], "id": 203833, "original_language": "en", "original_title": "The Book Thief", "overview": "While subjected to the horrors of WWII Germany, young Liesel finds solace by stealing books and sharing them with others. Under the stairs in her home, a Jewish refuge is being sheltered by her adoptive parents.", "poster_path": "/rUJbwJkJNjwEcFYzEktOrgm5YUd.jpg", "release_date": "2013-11-08", "title": "The Book Thief", "video": false, "vote_average": 7.5, "vote_count": 3017, "popularity": 16.166}, {"adult": false, "backdrop_path": "/plINQ1WJvnhjlxS5GUGCGKqZrMz.jpg", "genre_ids": [36, 99, 10752], "id": 803, "original_language": "fr", "original_title": "Nuit et brouillard", "overview": "Filmmaker Alain Resnais documents the atrocities behind the walls of Hitler's concentration camps.", "poster_path": "/xJc21xCemQirc1rHOJ8QLpUj1jA.jpg", "release_date": "1960-10-20", "title": "Night and Fog", "video": false, "vote_average": 8.3, "vote_count": 209, "popularity": 10.011}, {"adult": false, "backdrop_path": "/grhkv9OEJtLamZBDcshrmvBqVwc.jpg", "genre_ids": [28, 36, 10752], "id": 13922, "original_language": "en", "original_title": "The Great Raid", "overview": "As World War II rages, the elite Sixth Ranger Battalion is given a mission of heroic proportions: push 30 miles behind enemy lines and liberate over 500 American prisoners of war.", "poster_path": "/o4ZdK0xbx6qKxSYQzo90w3PbdPU.jpg", "release_date": "2005-08-12", "title": "The Great Raid", "video": false, "vote_average": 6.7, "vote_count": 159, "popularity": 10.428}, {"id": 1771, "video": false, "vote_count": 14038, "vote_average": 6.9, "title": "Captain America: The First Avenger", "release_date": "2011-07-22", "original_language": "en", "original_title": "Captain America: The First Avenger", "genre_ids": [28, 12, 878], "backdrop_path": "/pmZtj1FKvQqISS6iQbkiLg5TAsr.jpg", "adult": false, "overview": "During World War II, Steve Rogers is a sickly man from Brooklyn who's transformed into super-soldier Captain America to aid in the war effort. Rogers must stop the Red Skull \u2013 Adolf Hitler's ruthless head of weaponry, and the leader of an organization that intends to use a mysterious device of untold powers for world domination.", "poster_path": "/vSNxAJTlD0r02V9sPYpOjqDZXUK.jpg", "popularity": 20.824}, {"adult": false, "backdrop_path": "/dLAPTvBwEdP4h7a14isNc0HwmOj.jpg", "genre_ids": [18, 10749], "id": 250734, "original_language": "en", "original_title": "Far from the Madding Crowd", "overview": "Based on the literary classic by Thomas Hardy. Bathsheba Everdene, attracts three very different suitors: Gabriel Oak, a sheep farmer, captivated by her fetching willfulness; Frank Troy, a handsome and reckless Sergeant; and William Boldwood, a prosperous and mature bachelor. This timeless story of Bathsheba's choices and passions explores the nature of relationships and love \u2013 as well as the human ability to overcome hardships through resilience and perseverance.", "poster_path": "/6v1DEaO2TZzrqcaGohUf1K7BXkU.jpg", "release_date": "2015-04-23", "title": "Far from the Madding Crowd", "video": false, "vote_average": 7.0, "vote_count": 643, "popularity": 13.429}, {"id": 2454, "video": false, "vote_count": 3954, "vote_average": 6.5, "title": "The Chronicles of Narnia: Prince Caspian", "release_date": "2008-05-15", "original_language": "en", "original_title": "The Chronicles of Narnia: Prince Caspian", "genre_ids": [12, 14, 10751], "backdrop_path": "/eiET76GO3xECOic1rL8VcTLuy3L.jpg", "adult": false, "overview": "One year after their incredible adventures in the Lion, the Witch and the Wardrobe, Peter, Edmund, Lucy and Susan Pevensie return to Narnia to aid a young prince whose life has been threatened by the evil King Miraz. Now, with the help of a colorful cast of new characters, including Trufflehunter the badger and Nikabrik the dwarf, the Pevensie clan embarks on an incredible quest to ensure that Narnia is returned to its rightful heir.", "poster_path": "/kSSyzqw9C4wUggicG4D81XmptR1.jpg", "popularity": 23.366}], "total_pages": 36, "total_results": 707}, "recommendations": {"page": 1, "results": [], "total_pages": 1, "total_results": 0}, "credits": {"cast": [{"cast_id": 3, "character": "Tomikazu 'Tomi' Nakaji", "credit_id": "56ef2ba5c3a368225900b0e9", "gender": 2, "id": 1593525, "name": "Kyler Ki Sakamoto", "order": 1, "profile_path": "/kzUDZLr7NJu5jS1ZMN5C9M4Mi9M.jpg"}, {"cast_id": 4, "character": "Billy Davis", "credit_id": "56ef2bc59251415e6200c4ab", "gender": 2, "id": 1590304, "name": "Kalama Epstein", "order": 2, "profile_path": "/yNtieCnNrpF9Eh6Qo9Ur0vPfMjR.jpg"}, {"cast_id": 5, "character": "Grampa", "credit_id": "56ef2be9c3a368226500bf8e", "gender": 2, "id": 1180939, "name": "Dann Seki", "order": 3, "profile_path": "/sWe8HDoigw0jVXDXVElUWrEtyBT.jpg"}, {"cast_id": 6, "character": "Mama Nakaji", "credit_id": "56ef2c039251415d06002278", "gender": 1, "id": 1593526, "name": "Autumn Ogawa", "order": 4, "profile_path": "/jPDTQCE0I4xVs1HdXiqGHnK8ggE.jpg"}, {"cast_id": 7, "character": "Charlie", "credit_id": "56ef2c20c3a368225300ca03", "gender": 0, "id": 1593527, "name": "Wil Kahele", "order": 5, "profile_path": "/r5jZ1mLAmUN0b2FijOjdcSvkdwB.jpg"}, {"cast_id": 8, "character": "Papa Nakaji", "credit_id": "56ef2c3d9251415e6200c4c0", "gender": 2, "id": 45329, "name": "Chris Tashima", "order": 6, "profile_path": "/dQ27oWtFm5IFiHS6M0g4gG24itt.jpg"}, {"cast_id": 14, "character": "Keet Wilson", "credit_id": "56ef8029c3a368225900c325", "gender": 0, "id": 1593615, "name": "Bryce Moore", "order": 7, "profile_path": "/BTHSleJl2K2tH6h2LulJoTxMNt.jpg"}, {"cast_id": 15, "character": "Kimi Nakaji", "credit_id": "56ef80459251415e6200d954", "gender": 0, "id": 1593616, "name": "Mina Kohara", "order": 8, "profile_path": "/aLOBytLLxJBcyWIefBwR4opOXnm.jpg"}, {"cast_id": 16, "character": "Jake Davis", "credit_id": "56ef8060c3a368224e00da97", "gender": 0, "id": 1593617, "name": "Benen Weir", "order": 9, "profile_path": "/8AhY6Ti3OPmNvcshiLwcjGghRkD.jpg"}, {"cast_id": 17, "character": "Rico", "credit_id": "56ef8077c3a368224e00daa2", "gender": 0, "id": 1593618, "name": "Aidan James", "order": 10, "profile_path": "/rU4HERXkFrjwDRGoH4SSrRUvEDk.jpg"}, {"cast_id": 18, "character": "Mose", "credit_id": "56ef80a8c3a368225100e37a", "gender": 0, "id": 1593619, "name": "Marco Lopez", "order": 11, "profile_path": "/jn0nl80xhFjVuZL15OEljIBtnud.jpg"}, {"cast_id": 19, "character": "FBI Agent", "credit_id": "56ef80d9c3a368226e00e15e", "gender": 0, "id": 1274876, "name": "Howard Bishop", "order": 12, "profile_path": "/vYm07iWOGH1pNmbIDi3FilzCz7C.jpg"}, {"cast_id": 20, "character": "Sanji", "credit_id": "56ef80f5c3a368225900c355", "gender": 0, "id": 1593620, "name": "Shiro Kawai", "order": 13, "profile_path": "/sjKOvEI8bA3QMPxwVIC6ph8HtPC.jpg"}, {"cast_id": 21, "character": "Mr. Wilson", "credit_id": "56ef8116c3a368225300df15", "gender": 0, "id": 571963, "name": "Tom Holowach", "order": 14, "profile_path": "/wmdOTVlICZZPeoZM8jM7WqPQuOS.jpg"}, {"cast_id": 22, "character": "Mrs. Wilson", "credit_id": "56ef8138c3a368226e00e175", "gender": 1, "id": 61328, "name": "Lisa Barnes", "order": 15, "profile_path": "/welQG3D4IeSOZMyK3G6VFS3SiEs.jpg"}, {"cast_id": 23, "character": "HPD Officer", "credit_id": "56ef81569251415ddc001563", "gender": 0, "id": 1593622, "name": "Wayne Cordeiro", "order": 16, "profile_path": "/4QUd7Bhl3sfmYbA05Hsyo4Pu1cn.jpg"}, {"cast_id": 24, "character": "Camp Internee", "credit_id": "56ef817f92514108e2001fdb", "gender": 0, "id": 1593623, "name": "Gregory Suenaga", "order": 17, "profile_path": "/f76vZHdRpd6HWmopAnu79rpnC9j.jpg"}, {"cast_id": 25, "character": "Reiko", "credit_id": "56ef819892514108e2001fe3", "gender": 0, "id": 1593624, "name": "Ming Kay Miyamoto", "order": 18, "profile_path": null}, {"cast_id": 26, "character": "Gabriel", "credit_id": "56ef81b592514108e2001fee", "gender": 0, "id": 1593625, "name": "Gabriel Garigin", "order": 19, "profile_path": null}], "crew": [{"credit_id": "56ef2ab1c3a368225600c6d9", "department": "Directing", "gender": 0, "id": 1593516, "job": "Director", "name": "Tim Savage", "profile_path": "/zFBl0zG1zmFOjN7Nkd9K1IC4Ohq.jpg"}, {"credit_id": "56ef2b019251412b33004fae", "department": "Production", "gender": 1, "id": 1593518, "job": "Producer", "name": "Dana Satler Hankins", "profile_path": "/7i3V34n3Se3HbP7Zc0gRbye7cj7.jpg"}, {"credit_id": "56ef2b31c3a368225100cd92", "department": "Writing", "gender": 0, "id": 1593521, "job": "Screenplay", "name": "Graham Salisbury", "profile_path": "/oPx4yZjUVlt2JiRFkVhOdXZh89f.jpg"}, {"credit_id": "56ef7f359251414dba00b487", "department": "Production", "gender": 0, "id": 1593611, "job": "Associate Producer", "name": "Mardi Savage", "profile_path": "/wiNPTn9VN6T62ahlamFzkZYkhii.jpg"}, {"credit_id": "56ef7f6dc3a368226500d310", "department": "Sound", "gender": 0, "id": 1593613, "job": "Music", "name": "Chris Sanders", "profile_path": "/a5VPXtMy5QZlLy2MHIZylIf8oA1.jpg"}, {"credit_id": "56ef7f8cc3a368225300dec6", "department": "Camera", "gender": 0, "id": 1593614, "job": "Director of Photography", "name": "Shawn Hiatt", "profile_path": "/eROGAIFfQW8t0fo9ow7ICwMQUl7.jpg"}, {"credit_id": "56ef7fb392514152ab000112", "department": "Editing", "gender": 0, "id": 1173256, "job": "Editor", "name": "Robert Bates", "profile_path": "/c4Cu3UZxXwix5dJv592L2kGmIOo.jpg"}, {"credit_id": "56ef7fd6c3a368226000e02d", "department": "Production", "gender": 0, "id": 1355605, "job": "Casting", "name": "Katie Doyle", "profile_path": "/quEEShWQuJA4oVgAY1CA9Rksrn5.jpg"}]}}