{"adult": false, "backdrop_path": "/c3knJX6oIeO1tn1xlBt3IEQQj80.jpg", "belongs_to_collection": null, "budget": 0, "genres": [{"id": 878, "name": "Science Fiction"}], "homepage": null, "id": 38946, "imdb_id": "tt0053232", "original_language": "en", "original_title": "Terror in the Midnight Sun", "overview": "After a herd of reindeer are mysteriously found dead following a meteor crash in a remote part of Lapland in northern Sweden, soldiers and a geologist are called out to investigate.", "popularity": 5.852, "poster_path": "/nethjIsVEbB1xR4zZhkBjIV6NZG.jpg", "production_companies": [{"id": 5741, "logo_path": null, "name": "Fortunafilm", "origin_country": ""}, {"id": 5742, "logo_path": null, "name": "Gustaf Unger Films", "origin_country": ""}], "production_countries": [{"iso_3166_1": "US", "name": "United States of America"}, {"iso_3166_1": "SE", "name": "Sweden"}], "release_date": "1959-08-19", "revenue": 0, "runtime": 73, "spoken_languages": [{"iso_639_1": "en", "name": "English"}, {"iso_639_1": "sv", "name": "svenska"}], "status": "Released", "tagline": "", "title": "Terror in the Midnight Sun", "video": false, "vote_average": 3.6, "vote_count": 12, "keywords": {"keywords": [{"id": 2806, "name": "lapland"}]}, "similar": {"page": 1, "results": [{"id": 460048, "video": false, "vote_count": 57, "vote_average": 7.2, "title": "Heavy Trip", "release_date": "2018-03-09", "original_language": "fi", "original_title": "Hevi reissu", "genre_ids": [35, 10402], "backdrop_path": "/bFHBFsuWlJdeFlNFcGYiAwQQ11W.jpg", "adult": false, "overview": "Turo is stuck in a small village and the best thing in his life is being the lead vocalist for the amateur metal band Impaled Rektum. He and his bandmates have practiced for 12 years without playing a single gig. The guys get a surprise visitor from Norway -- the promoter for a huge heavy metal music festival -- and decide it's now or never. They steal a van, a corpse, and even a new drummer to make their dreams a reality.", "poster_path": "/iemwek3NFkcsEqTXGHg8xsjXzAk.jpg", "popularity": 7.966}, {"adult": false, "backdrop_path": "/1jcwDtYfcjR5QdbY6iUxYBpXn8I.jpg", "genre_ids": [28, 53, 12], "id": 50456, "original_language": "en", "original_title": "Hanna", "overview": "A 16-year-old girl raised by her father to be the perfect assassin is dispatched on a mission across Europe. Tracked by a ruthless operatives, she faces startling revelations about her existence and questions about her humanity.", "poster_path": "/2Jr4Rl4Hjiahgh09bjeH8tFhgKp.jpg", "release_date": "2011-04-07", "title": "Hanna", "video": false, "vote_average": 6.6, "vote_count": 2099, "popularity": 14.318}, {"id": 5375, "video": false, "vote_count": 486, "vote_average": 5.6, "title": "Fred Claus", "release_date": "2007-11-03", "original_language": "en", "original_title": "Fred Claus", "genre_ids": [28, 35, 18], "backdrop_path": "/r0jEOEzIJFdyaxVa7bsFocUuQ1t.jpg", "adult": false, "overview": "Fred Claus and Santa Claus have been estranged brothers for many years. Now Fred must reconcile his differences with his brother whom he believes overshadows him. When an efficiency expert assesses the workings at the North Pole and threatens to shut Santa down, Fred must help his brother to save Christmas.", "poster_path": "/vFniWmciRi4tAjAYGp2wrK0P8dJ.jpg", "popularity": 12.098}, {"adult": false, "backdrop_path": "/kJwJfSQht3QwpWka8JBnQ18IyDT.jpg", "genre_ids": [18, 16, 10751, 35], "id": 51052, "original_language": "en", "original_title": "Arthur Christmas", "overview": "Each Christmas, Santa and his vast army of highly trained elves produce gifts and distribute them around the world in one night. However, when one of 600 million children to receive a gift from Santa on Christmas Eve is missed, it is deemed \u2018acceptable\u2019 to all but one \u2013 Arthur. Arthur Claus is Santa\u2019s misfit son who executes an unauthorized rookie mission to get the last present half way around the globe before dawn on Christmas morning.", "poster_path": "/crjzhg2T1sPL9yE7bFHkYp0OfXG.jpg", "release_date": "2011-11-10", "title": "Arthur Christmas", "video": false, "vote_average": 6.7, "vote_count": 800, "popularity": 20.268}, {"id": 326359, "video": false, "vote_count": 1180, "vote_average": 6.8, "title": "Frozen Fever", "release_date": "2015-03-09", "original_language": "en", "original_title": "Frozen Fever", "genre_ids": [12, 16, 10751], "backdrop_path": "/ubioPGniCfDiASmYYpeJs5RRNaC.jpg", "adult": false, "overview": "On Anna's birthday, Elsa and Kristoff are determined to give her the best celebration ever, but Elsa's icy powers may put more than just the party at risk.", "poster_path": "/lKJiVPzsAO9IJ4LKWXZ8vkR2bg4.jpg", "popularity": 17.218}, {"id": 109445, "video": false, "vote_count": 10976, "vote_average": 7.3, "title": "Frozen", "release_date": "2013-11-27", "original_language": "en", "original_title": "Frozen", "genre_ids": [12, 16, 10751], "backdrop_path": "/cN9Nbwh66TRcj2gBE8cSEZulsx3.jpg", "adult": false, "overview": "Young princess Anna of Arendelle dreams about finding true love at her sister Elsa\u2019s coronation. Fate takes her on a dangerous journey in an attempt to end the eternal winter that has fallen over the kingdom. She's accompanied by ice delivery man Kristoff, his reindeer Sven, and snowman Olaf. On an adventure where she will find out what friendship, courage, family, and true love really means.", "poster_path": "/eFnGmj63QPUpK7QUWSOUhypIQOT.jpg", "popularity": 59.088}, {"adult": false, "backdrop_path": "/zd3p7GKopxH4rIjGoDQ1ugalUtx.jpg", "genre_ids": [16, 10751, 10770], "id": 13382, "original_language": "en", "original_title": "Rudolph the Red-Nosed Reindeer", "overview": "Sam the snowman tells us the story of a young red-nosed reindeer who, after being ousted from the reindeer games because of his glowing nose, teams up with Hermey, an elf who wants to be a dentist, and Yukon Cornelius, the prospector. They run into the Abominable Snowman and find a whole island of misfit toys. Rudoph vows to see if he can get Santa to help the toys, and he goes back to the North Pole on Christmas Eve. But Santa's sleigh is fogged in. But when Santa looks over Rudolph, he gets a very bright idea...", "poster_path": "/r0vtyGOwTLZg4pgtbjlMGke7Qo1.jpg", "release_date": "1964-12-06", "title": "Rudolph the Red-Nosed Reindeer", "video": false, "vote_average": 7.4, "vote_count": 276, "popularity": 11.992}, {"id": 455842, "video": false, "vote_count": 18, "vote_average": 5.7, "title": "Elliot: The Littlest Reindeer", "release_date": "2018-11-08", "original_language": "en", "original_title": "Elliot: The Littlest Reindeer", "genre_ids": [12, 16, 10751], "backdrop_path": "/2Djp1gHsUsbf2YpvyoihXecGXPi.jpg", "adult": false, "overview": "When Blitzen announces his retirement on December 21st, a miniature horse has 3 days to fulfill his lifelong dream of earning a spot on Santa's team at the North Pole try-outs.", "poster_path": "/sYq809WTep01HO5oJR9o9VbEDJv.jpg", "popularity": 5.728}, {"adult": false, "backdrop_path": "/blHx3LrXsIfefFggOk4gjwdX73i.jpg", "genre_ids": [18, 80, 14], "id": 517839, "original_language": "sv", "original_title": "Gr\u00e4ns", "overview": "When a border guard with a sixth sense for identifying smugglers encounters the first person she cannot prove is guilty, she is forced to confront terrifying revelations about herself and humankind.", "poster_path": "/8KzOTRlKjdAKQTemV41hq86ldFS.jpg", "release_date": "2018-09-27", "title": "Border", "video": false, "vote_average": 6.7, "vote_count": 327, "popularity": 13.24}, {"id": 48395, "video": false, "vote_count": 264, "vote_average": 6.4, "title": "Rare Exports: A Christmas Tale", "release_date": "2010-12-03", "original_language": "fi", "original_title": "Rare Exports", "genre_ids": [14], "backdrop_path": "/fDYF8Mt5JeZPzIhlZedA6LWuJFc.jpg", "adult": false, "overview": "It's the eve of Christmas in northern Finland and an archaeological dig has just unearthed the real Santa Claus. But this particular Santa isn't the one you want coming to town. When all the local children begin mysteriously disappearing, young Pietari and his father Rauno, a reindeer hunter by trade, capture the mythological being and attempt to sell Santa to the misguided leader of the multinational corporation sponsoring the dig. Santa's elves, however, will stop at nothing to free their fearless leader from captivity.", "poster_path": "/jzaweEESl54ejxo3EE5uNL8lgTn.jpg", "popularity": 15.972}, {"adult": false, "backdrop_path": "/epmzVTsBT8etWp9NeHJnGGoTw08.jpg", "genre_ids": [99], "id": 352208, "original_language": "en", "original_title": "Where to Invade Next", "overview": "To understand firsthand what the United States of America can learn from other nations, Michael Moore playfully \u201cinvades\u201d some to see what they have to offer.", "poster_path": "/fu3yXLoYtMxbv3NLquCDVLNK35p.jpg", "release_date": "2015-12-23", "title": "Where to Invade Next", "video": false, "vote_average": 7.4, "vote_count": 276, "popularity": 10.628}, {"id": 238302, "video": false, "vote_count": 60, "vote_average": 5.1, "title": "Saving Santa", "release_date": "2013-11-05", "original_language": "en", "original_title": "Saving Santa", "genre_ids": [16, 35, 10751], "backdrop_path": "/daZN4XfgtcC2tJA36HIfc9MQRAH.jpg", "adult": false, "overview": "A lowly stable elf finds that he is the only one who can stop an invasion of the North Pole by using the secret of Santa's Sleigh, a TimeGlobe, to travel back in time to Save Santa - twice.", "poster_path": "/wIr5gosI2cgjqyHN6nIJZdwgz58.jpg", "popularity": 8.025}, {"adult": false, "backdrop_path": "/oDMo5f07SrzeaSvZTf4DFahYLSI.jpg", "genre_ids": [18, 36, 10749, 35], "id": 554, "original_language": "ru", "original_title": "\u041a\u0443\u043a\u0443\u0448\u043a\u0430", "overview": "September of 1944, a few days before Finland went out of the Second World War. A chained to a rock Finnish sniper-kamikadze Veikko managed to set himself free. Ivan, a captain of the Soviet Army, arrested by the Front Secret Police 'Smersh', has a narrow escape. They are soldiers of the two enemy armies. A Lapp woman Anni gives a shelter to both of them at her farm. For Anni they are not enemies, but just men.", "poster_path": "/A2S4Ut2mDmedw7JQHxfCsnxCprV.jpg", "release_date": "2002-01-01", "title": "The Cuckoo", "video": false, "vote_average": 7.4, "vote_count": 40, "popularity": 5.079}, {"id": 339, "video": false, "vote_count": 395, "vote_average": 7.6, "title": "Night on Earth", "release_date": "1991-12-12", "original_language": "en", "original_title": "Night on Earth", "genre_ids": [35, 18], "backdrop_path": "/hLMx2lfGDrjHTPadn5vAfZjwIar.jpg", "adult": false, "overview": "An anthology of 5 different cab drivers in 5 American and European cities and their remarkable fares on the same eventful night.", "poster_path": "/aREHjLD3kwQFcL1ncNOx8ggDGxA.jpg", "popularity": 12.829}, {"adult": false, "backdrop_path": "/rMAGfqQBpX1ooCFNubYO1bw70UI.jpg", "genre_ids": [28, 12, 53], "id": 230179, "original_language": "en", "original_title": "Big Game", "overview": "Air Force One is shot down by terrorists, leaving the President of the United States stranded in the wilderness. 13-year old Oskari is also in that wilderness, on a hunting mission to prove his maturity to his kinsfolk by tracking down a deer, but instead discovers the President in an escape pod. With the terrorists closing in to capture their prize, the unlikely duo team up to escape their hunters.", "poster_path": "/uSeDj6wb67WyBuwwAw9Nhh76quA.jpg", "release_date": "2014-09-05", "title": "Big Game", "video": false, "vote_average": 5.4, "vote_count": 716, "popularity": 9.205}, {"id": 643533, "video": false, "vote_count": 2, "vote_average": 4.8, "title": "Super Monsters Save Christmas", "release_date": "2019-11-26", "original_language": "en", "original_title": "Super Monsters Save Christmas", "genre_ids": [16, 10751], "backdrop_path": "/5u49G8wjzJ3CswHy9Zy968E03so.jpg", "adult": false, "overview": "On Christmas Eve, the Super Monsters get together to make decorations, but end up having to find Santa's missing reindeer in order to save their holiday.", "poster_path": "/d96SFX22o3dIuZ0qzOLNJ7ErfGP.jpg", "popularity": 6.176}, {"id": 11475, "video": false, "vote_count": 63, "vote_average": 7.0, "title": "Leningrad Cowboys Go America", "release_date": "1989-03-24", "original_language": "en", "original_title": "Leningrad Cowboys Go America", "genre_ids": [35, 10402], "backdrop_path": "/n8XDhpPLlggJbsCvZWpHXncYjGE.jpg", "adult": false, "overview": "The Leningrad Cowboys, a group of Russian musicians, and their manager, travel to America seeking fame and fortune. As they cross the country, trying to get to a wedding in Mexico, they are followed by the village idiot, who wishes to join the band.", "poster_path": "/6lJj3w5ebOkrsNx6sJXyNuWDJIB.jpg", "popularity": 7.022}, {"id": 13664, "video": false, "vote_count": 58, "vote_average": 6.1, "title": "Annabelle's Wish", "release_date": "1997-10-21", "original_language": "en", "original_title": "Annabelle's Wish", "genre_ids": [16, 10402, 10751], "backdrop_path": "/gvdqynllKxtsFAwcjRzwM2Y0MdF.jpg", "adult": false, "overview": "A lovable calf named Annabelle born on Christmas Eve has a very special wish... to fly like one of Santa's reindeer. Based on the farm legend that Santa gives voices to the animals for one day each year, this tender tale of friendship and compassion begins when Annabelle makes friends with Billy, a young boy who cannot talk, and a friendly bunch of barnyard animals. Together they contend with Billy's mean aunt and the bullies in the neighborhood. Annabelle shows everyone the true meaning of Christmas by making one very special wish come true.", "poster_path": "/yuwl1H6qCdgOJVxuonYlBQviC5S.jpg", "popularity": 7.39}, {"adult": false, "backdrop_path": "/1dV66zrIGu7w79CDqDspE0fVcRF.jpg", "genre_ids": [12], "id": 2172, "original_language": "se", "original_title": "Ofelas", "overview": "Around the year 1000 AD warlike people, the so-called \"tjuder\", roam in northern Scandinavia. As they brutally kill a family in a remote area, including the parents and their little daughter, the family's teenage son, Aigin, observes the slaughter. He manages to flee from these killers and reaches a camp with other Lapps whose inhabitants are worried if he has been able to hide his track. Afraid of the murderous people, they decide to flee to the coast. The boy stays alone to avenge his family's murder. Unfortunately, they get him before he can do anything and force him to lead them to the other Lapps. He guides them but has a plan to destroy the barbarous people before reaching the camp.", "poster_path": "/hkzWL3bXX3V4dX3Fv1hq7kNfUsO.jpg", "release_date": "1987-09-01", "title": "Pathfinder", "video": false, "vote_average": 7.3, "vote_count": 38, "popularity": 4.874}, {"adult": false, "backdrop_path": "/zmAF3GAv8B1mp606SJlKzWAbjLd.jpg", "genre_ids": [35, 10751, 14], "id": 50332, "original_language": "en", "original_title": "Snow", "overview": "Nick Snowden is reluctantly taking over the family business and with only three days before the big night, one of Nick's younger reindeer is stolen from the North Pole and taken to a zoo.", "poster_path": "/xLJhBJrjXg5z0G9D3kGd3RG76kG.jpg", "release_date": "2004-12-13", "title": "Snow", "video": false, "vote_average": 7.5, "vote_count": 14, "popularity": 5.053}], "total_pages": 7, "total_results": 123}, "recommendations": {"page": 1, "results": [{"adult": false, "backdrop_path": "/e7qAhGvMBlPDhl8H4aHjeU4rJVr.jpg", "genre_ids": [18, 27, 12], "id": 22749, "original_language": "en", "original_title": "Bloodlust!", "overview": "Two couples (Robert Reed, June Kenney, Joan Lora, and Eugene Persson) are on a boating trip when they come across an uncharted island. The four investigate and find themselves in the clutches of Dr. Albert Balleau (Wilton Graff), whose hobby is hunting both animals and humans\u2026 The group tries to escape only to be thwarted by Dr. Balleau and his henchmen.", "poster_path": "/2s2Wo0MbuLIuHTWj60CoNehOsz0.jpg", "release_date": "1961-09-13", "title": "Bloodlust!", "video": false, "vote_average": 3.7, "vote_count": 13, "popularity": 3.271}, {"adult": false, "backdrop_path": null, "genre_ids": [27, 878], "id": 83409, "original_language": "en", "original_title": "Feeders", "overview": "Two friends on a road trip pass through a town where aliens are landing and feeding upon the some of the civilians.", "poster_path": "/r2d0ka2w4DlBkWn3mewHntAHHAW.jpg", "release_date": "1996-05-27", "title": "Feeders", "video": false, "vote_average": 3.7, "vote_count": 10, "popularity": 2.576}, {"adult": false, "backdrop_path": "/hbQQG1nshQerHfHAz13JPB9WBLE.jpg", "genre_ids": [27, 878], "id": 63087, "original_language": "en", "original_title": "The Slime People", "overview": "After Los Angeles is invaded by an army of subterranean monsters a small group of people must fight for survival in the deserted metropolis.", "poster_path": "/eGOER3SRKLSfZz53PPKo4SHtRui.jpg", "release_date": "1963-03-29", "title": "The Slime People", "video": false, "vote_average": 2.8, "vote_count": 14, "popularity": 3.41}, {"adult": false, "backdrop_path": "/fWyKfE8QMnjScb0c2Dqf4kTAg2D.jpg", "genre_ids": [27, 878], "id": 42793, "original_language": "en", "original_title": "The Flesh Eaters", "overview": "An alcoholic actress, her personal assistant, and their pilot are downed on a secluded isle by bad weather, where a renegade Nazi scientist is using ocean life to develop a solvent for human flesh. The tiny flesh-eating sea critters that result certainly give our heroes a run for their money - and lives.", "poster_path": "/6ZHEUzoeX7IuQRNtoIKZZ163Qxf.jpg", "release_date": "1964-03-18", "title": "The Flesh Eaters", "video": false, "vote_average": 5.8, "vote_count": 16, "popularity": 3.229}, {"adult": false, "backdrop_path": null, "genre_ids": [99, 10751], "id": 81581, "original_language": "en", "original_title": "Make Believe", "overview": "A coming of age journey set in the quirky subculture of magic, this film follows six of the world\u2019s best young magicians as they battle for the title of Teen World Champion.", "poster_path": "/xXMDes5r1k3IROvCFB1n4r7y9Ay.jpg", "release_date": "2011-05-13", "title": "Make Believe", "video": false, "vote_average": 6.0, "vote_count": 5, "popularity": 1.342}, {"adult": false, "backdrop_path": "/9boqQktyNaw7t0xw1571K8MyjPr.jpg", "genre_ids": [27, 53], "id": 156365, "original_language": "en", "original_title": "The Phantom", "overview": "A group of people are stalked by a masked killer in an old mansion.", "poster_path": "/9GDGBAB9yUDEkqen4dad4tbpicj.jpg", "release_date": "1931-11-01", "title": "The Phantom", "video": false, "vote_average": 2.8, "vote_count": 5, "popularity": 1.322}, {"adult": false, "backdrop_path": "/qNgIICc9JuWT5WwqDQYe3vQ0Xvs.jpg", "genre_ids": [99, 36], "id": 60383, "original_language": "en", "original_title": "Stupidity", "overview": "An exploration into the nature of stupidity in Western society and its history of our perception of it.", "poster_path": "/vJCEusIiA926nfDhmqSYi1Xj7QP.jpg", "release_date": "2003-01-01", "title": "Stupidity", "video": false, "vote_average": 5.2, "vote_count": 10, "popularity": 3.811}, {"adult": false, "backdrop_path": "/gRfkxwoLi9nZIQzf5naqeGVKINp.jpg", "genre_ids": [99], "id": 41763, "original_language": "en", "original_title": "Flying Saucers Over Hollywood: The 'Plan 9' Companion", "overview": "A documentary detailing the making of the cult favorite movie \"Plan 9 From Outer Space,\" and interviews with cast members and prominent filmmakers about the film and its creator, Edward D. Wood Jr.", "poster_path": "/7Oclb3oeGgOXYCDDHzeTvc7SoNI.jpg", "release_date": "1992-01-01", "title": "Flying Saucers Over Hollywood: The 'Plan 9' Companion", "video": false, "vote_average": 6.5, "vote_count": 6, "popularity": 3.33}, {"adult": false, "backdrop_path": null, "genre_ids": [27, 35], "id": 322502, "original_language": "en", "original_title": "Frankenstein's Great Aunt Tillie", "overview": "The descendants of Baron Frankenstein return to the family castle to search for the family fortune that is supposed to be hidden there.", "poster_path": "/f9f4lxfs3kC8Xlam9joXrOi6HF9.jpg", "release_date": "1984-01-01", "title": "Frankenstein's Great Aunt Tillie", "video": false, "vote_average": 1.1, "vote_count": 4, "popularity": 1.176}, {"adult": false, "backdrop_path": "/92qZvQlpySJTJoRT45gz8RWXHGW.jpg", "genre_ids": [99], "id": 158212, "original_language": "en", "original_title": "Please Kill Mr. Kinski", "overview": "In 1986, director David Schmoeller worked with notoriously eccentric and tantrum-prone actor Klaus Kinski on horror triller Crawlspace. Now, Schmoeller talks about this shoot and how it almost ended with crew lynching the actor.", "poster_path": "/6FF0sOocQXbSUcchIBQA408ZdFR.jpg", "release_date": "1999-01-01", "title": "Please Kill Mr. Kinski", "video": false, "vote_average": 6.6, "vote_count": 9, "popularity": 1.785}, {"id": 37579, "video": false, "vote_count": 7, "vote_average": 1.4, "title": "The Revenge of Dr. X", "release_date": "1970-01-01", "original_language": "en", "original_title": "Akuma no niwa", "genre_ids": [27, 878], "backdrop_path": "/coJiqVSDUNVBiFtHLOnrCExS3TR.jpg", "adult": false, "overview": "A mad scientist creates man eating creatures from carnivorous plants.", "poster_path": "/sLMbmNJMCo5aL7ApNYSqxflEIAh.jpg", "popularity": 3.682}, {"id": 45674, "video": false, "vote_count": 9, "vote_average": 3.7, "title": "Frankenstein's Daughter", "release_date": "1958-12-15", "original_language": "en", "original_title": "Frankenstein's Daughter", "genre_ids": [27, 878], "backdrop_path": "/Ae61twf9zDVxXPOgB5kyPbawzZ5.jpg", "adult": false, "overview": "Dr. Frankenstein's insane grandson attempts to create horrible monsters in modern day L.A.", "poster_path": "/yPCJ7CnbcyKfnjILtSD3o9ZycMf.jpg", "popularity": 2.995}, {"adult": false, "backdrop_path": "/4fqWDadLNpqqNNrHxr2M7T5RA5y.jpg", "genre_ids": [878], "id": 26270, "original_language": "en", "original_title": "Project Moon Base", "overview": "In the future (1970) the US sends a mission to the moon to investigate the building of a moon base.", "poster_path": "/mLgqIcZ6tMdb4NSBskwwZahQiJ1.jpg", "release_date": "1953-09-04", "title": "Project Moon Base", "video": false, "vote_average": 2.5, "vote_count": 10, "popularity": 3.139}, {"adult": false, "backdrop_path": "/ifP7glII0aoLOQPnogyfPQnfhni.jpg", "genre_ids": [27, 53], "id": 41024, "original_language": "en", "original_title": "Condemned to Live", "overview": "After a series of murders, a man finds out that his mother was bitten by a vampire bat during her pregnancy, and he believes that he may be the vampire committing the murders.", "poster_path": "/dG0cs4vqWxYnHmnaSCPpeWSxFOh.jpg", "release_date": "1935-09-15", "title": "Condemned to Live", "video": false, "vote_average": 5.1, "vote_count": 5, "popularity": 1.827}, {"id": 43353, "video": false, "vote_count": 30, "vote_average": 3.4, "title": "Robot Monster", "release_date": "1953-06-25", "original_language": "en", "original_title": "Robot Monster", "genre_ids": [27, 878], "backdrop_path": "/yQbmpQ73SDRFGin6IpouEq2yN5A.jpg", "adult": false, "overview": "Ro-Man, an alien robot who greatly resembles a gorilla in a diving helmet, is sent to earth to destroy all human life. Ro-Man falls in love with one of the last six remaining humans, and struggles to understand how his programming can instruct him to kill her while his heart demands that he can't.", "poster_path": "/lpB3nTnTkKfYF2PkTDVdGt1JCDl.jpg", "popularity": 4.247}, {"id": 86571, "video": false, "vote_count": 11, "vote_average": 1.3, "title": "Curse of Bigfoot", "release_date": "1978-01-01", "original_language": "en", "original_title": "Curse of Bigfoot", "genre_ids": [27, 10770], "backdrop_path": "/yj3klMjPy6O4Z4Yv6Up6iTWEmyp.jpg", "adult": false, "overview": "A group of high school students on an archaeological dig discover a centuries old mummified body in a sealed cave. Removing the mummy, it soon comes back to life, revealing itself to be an inhuman beast that terrorizes a small California town.", "poster_path": "/mfOTugZaF2z9gbYdSdY1zE0o4Aq.jpg", "popularity": 1.701}], "total_pages": 1, "total_results": 16}, "credits": {"cast": [{"cast_id": 4, "character": "Diane Wilson", "credit_id": "52fe46ed9251416c91064541", "gender": 1, "id": 131491, "name": "Barbara Wilson", "order": 0, "profile_path": null}, {"cast_id": 5, "character": "Erik Engstr\u00f6m", "credit_id": "52fe46ed9251416c91064545", "gender": 0, "id": 131492, "name": "Sten Gester", "order": 1, "profile_path": null}, {"cast_id": 6, "character": "Dr. Frederick Wilson", "credit_id": "52fe46ed9251416c91064549", "gender": 2, "id": 31260, "name": "Robert Burton", "order": 2, "profile_path": "/kmmkntCe9ovlOdda68mCrFSNZ75.jpg"}, {"cast_id": 7, "character": "Col. Robert Bottiger", "credit_id": "52fe46ed9251416c9106454d", "gender": 2, "id": 131493, "name": "Bengt Blomgren", "order": 3, "profile_path": "/oYtOVaLpdEa99CyLGCsYCCERQBv.jpg"}, {"cast_id": 8, "character": "Dr. Henrik", "credit_id": "52fe46ed9251416c91064551", "gender": 0, "id": 34769, "name": "\u00c5ke Gr\u00f6nberg", "order": 4, "profile_path": "/pKDPloPZ9oGzxBEWvZC9w4HYdWT.jpg"}, {"cast_id": 9, "character": "Dr. Walter Ullman", "credit_id": "52fe46ed9251416c91064555", "gender": 0, "id": 34774, "name": "G\u00f6sta Pr\u00fczelius", "order": 5, "profile_path": "/dpJcqbCRE0JX5nmVkyfMVsv6vP5.jpg"}, {"cast_id": 10, "character": "Narrator", "credit_id": "52fe46ed9251416c91064559", "gender": 2, "id": 8516, "name": "John Carradine", "order": 6, "profile_path": "/cUlQO0vGGFoF3VZjzok8U276exY.jpg"}, {"cast_id": 11, "character": "The Monster", "credit_id": "52fe46ed9251416c9106455d", "gender": 0, "id": 131494, "name": "Lars \u00c5hr\u00e9n", "order": 7, "profile_path": null}, {"cast_id": 12, "character": "Singer", "credit_id": "5bdae4fa925141540200c124", "gender": 1, "id": 1188144, "name": "Brita Borg", "order": 8, "profile_path": "/ArOVlSkAxlFZcmDhyPgH3LmiJ6v.jpg"}], "crew": [{"credit_id": "52fe46ec9251416c91064531", "department": "Directing", "gender": 2, "id": 12345, "job": "Director", "name": "Virgil W. Vogel", "profile_path": null}, {"credit_id": "52fe46ed9251416c91064537", "department": "Writing", "gender": 0, "id": 103460, "job": "Story", "name": "Arthur C. Pierce", "profile_path": null}, {"credit_id": "52fe46ed9251416c9106453d", "department": "Writing", "gender": 0, "id": 103460, "job": "Screenplay", "name": "Arthur C. Pierce", "profile_path": null}]}}