{"adult": false, "backdrop_path": "/no5ff2iMCXJ4MclAhts2xetgoxM.jpg", "belongs_to_collection": null, "budget": 0, "genres": [{"id": 35, "name": "Comedy"}, {"id": 10749, "name": "Romance"}], "homepage": null, "id": 39001, "imdb_id": "tt0112444", "original_language": "en", "original_title": "My Teacher's Wife", "overview": "Todd Boomer is a college student aspiring to get into University. His chances are looking poor when his maths teacher, fails him in every maths test. Help arrives in the guise of the gorgeous Vicki, a mathematical genius who decides to tutor Todd. As the relationship develops,Todd finds himself in an affair with Vicki unknowing of her marriage to his math teacher.", "popularity": 12.991, "poster_path": "/6Cmu2C5iAbEriMBxP6rtDNRqnQh.jpg", "production_companies": [{"id": 4063, "logo_path": null, "name": "Trimark Pictures", "origin_country": ""}, {"id": 11343, "logo_path": null, "name": "Fried Films", "origin_country": ""}, {"id": 11308, "logo_path": null, "name": "Savoy Pictures", "origin_country": ""}], "production_countries": [{"iso_3166_1": "US", "name": "United States of America"}], "release_date": "1999-11-10", "revenue": 0, "runtime": 89, "spoken_languages": [{"iso_639_1": "en", "name": "English"}], "status": "Released", "tagline": "Todd Boomer is embracing his homework like never before!", "title": "My Teacher's Wife", "video": false, "vote_average": 5.4, "vote_count": 17, "keywords": {"keywords": [{"id": 10508, "name": "teacher"}, {"id": 12105, "name": "student"}, {"id": 14518, "name": "math teacher"}, {"id": 18015, "name": "tutor"}, {"id": 33910, "name": "high school student"}]}, "similar": {"page": 1, "results": [{"adult": false, "backdrop_path": "/wu4tawMznxUvqP21lUH6RKrv3LQ.jpg", "genre_ids": [35], "id": 37735, "original_language": "en", "original_title": "Easy A", "overview": "Olive, an average high school student, sees her below-the-radar existence turn around overnight once she decides to use the school's gossip grapevine to advance her social standing. Now her classmates are turning against her and the school board is becoming concerned, including her favorite teacher and the distracted guidance counselor. With the support of her hilariously idiosyncratic parents and a little help from a long-time crush, Olive attempts to take on her notorious new identity and crush the rumor mill once and for all.", "poster_path": "/1pgPO3OfSm2inpODMqg2RNmLW90.jpg", "release_date": "2010-09-16", "title": "Easy A", "video": false, "vote_average": 6.8, "vote_count": 4634, "popularity": 18.761}, {"id": 27098, "video": false, "vote_count": 49, "vote_average": 6.3, "title": "All Things Fair", "release_date": "1995-03-08", "original_language": "sv", "original_title": "Lust och f\u00e4gring stor", "genre_ids": [18, 10749, 10752], "backdrop_path": "/l1ulbjfMODxJyW4L2EfO7BzqydO.jpg", "adult": false, "overview": "This film is set in 1943 when the whole of Europe was embroiled in WWII. It deals with attraction of a 15 year old boy Stig to his teacher Viola. The whole movie revolves around the sexual encounters between Stig and Viola and how he eventually grows out of it.", "poster_path": "/uJD0PvYGAa1IoZBsX4E6GQ4K2In.jpg", "popularity": 16.819}, {"id": 52449, "video": false, "vote_count": 3175, "vote_average": 5.5, "title": "Bad Teacher", "release_date": "2011-05-16", "original_language": "en", "original_title": "Bad Teacher", "genre_ids": [35], "backdrop_path": "/vmgRzmRMPjhZ50Oai1DI0LLEZCo.jpg", "adult": false, "overview": "A lazy, incompetent middle school teacher who hates her job and her students is forced to return to her job to make enough money for a boob job after her rich fianc\u00e9 dumps her.", "poster_path": "/zpIY4qUSX91J9XpPgr0hFrk1eKr.jpg", "popularity": 15.441}, {"adult": false, "backdrop_path": "/vvRlCks4HEZktmAhDIqghyamKiY.jpg", "genre_ids": [35, 18, 9648, 53], "id": 121875, "original_language": "fr", "original_title": "Dans la maison", "overview": "A sixteen-year-old boy insinuates himself into the house of a fellow student from his literature class and writes about it in essays for his French teacher. Faced with this gifted and unusual pupil, the teacher rediscovers his enthusiasm for his work, but the boy\u2019s intrusion will unleash a series of uncontrollable events.", "poster_path": "/4qAnWMNKUadx10jlCrkRAAuT4bN.jpg", "release_date": "2012-09-26", "title": "In the House", "video": false, "vote_average": 7.4, "vote_count": 456, "popularity": 10.737}, {"adult": false, "backdrop_path": "/uDCZppEnWorFzO70sGW6zZfh4FH.jpg", "genre_ids": [35, 18], "id": 8618, "original_language": "en", "original_title": "The History Boys", "overview": "The story of an unruly class of bright, funny history students at a Yorkshire grammar school in pursuit of an undergraduate place at Oxford or Cambridge. Bounced between their maverick English master, a young and shrewd teacher hired to up their test scores, a grossly out-numbered history teacher, and a headmaster obsessed with results, the boys attempt to pass.", "poster_path": "/AZvkyBkqSUTyJgePwDHL3R5snj.jpg", "release_date": "2006-10-02", "title": "The History Boys", "video": false, "vote_average": 6.8, "vote_count": 113, "popularity": 8.736}, {"id": 11887, "video": false, "vote_count": 2347, "vote_average": 6.5, "title": "High School Musical 3: Senior Year", "release_date": "2008-10-11", "original_language": "en", "original_title": "High School Musical 3: Senior Year", "genre_ids": [35, 18, 10402, 10749, 10751], "backdrop_path": "/daSGxGZL2nNjGZKkAF5ain3lmOx.jpg", "adult": false, "overview": "It's almost graduation day for high school seniors Troy, Gabriella, Sharpay, Chad, Ryan and Taylor \u2015 and the thought of heading off in separate directions after leaving East High has these Wildcats thinking they need to do something they'll remember forever. Together with the rest of the Wildcats, they stage a spring musical reflecting their hopes and fears about the future and their unforgettable experiences growing up together. But with graduation approaching and college plans in question, what will become of the dreams, romances, and friendships of East High's senior Wildcats?", "poster_path": "/ewZpH2QIfPQ0VIn9lPf7MHbLbl4.jpg", "popularity": 14.748}, {"id": 233063, "video": false, "vote_count": 1165, "vote_average": 7.1, "title": "Suck Me Shakespeer", "release_date": "2013-11-07", "original_language": "de", "original_title": "Fack ju G\u00f6hte", "genre_ids": [35], "backdrop_path": "/AtCGEku6kLUFmZ6JWkvXphQBQXx.jpg", "adult": false, "overview": "A comedy that follows an ex-con who lands a position at a school that sits over the spot where money from one of his earlier robberies was stashed.", "poster_path": "/9GSGg4McYID6Ld0OMwimLr1Zx4J.jpg", "popularity": 16.945}, {"id": 400928, "video": false, "vote_count": 2317, "vote_average": 7.9, "title": "Gifted", "release_date": "2017-04-12", "original_language": "en", "original_title": "Gifted", "genre_ids": [35, 18, 10751], "backdrop_path": "/gYtXT7fJNBRZBbBulO11DoRveLT.jpg", "adult": false, "overview": "Frank, a single man raising his child prodigy niece Mary, is drawn into a custody battle with his mother.", "poster_path": "/9Ts7Vc4wLlpI9oox9mkVUE1tBHy.jpg", "popularity": 21.194}, {"id": 505600, "video": false, "vote_count": 835, "vote_average": 7.2, "title": "Booksmart", "release_date": "2019-05-24", "original_language": "en", "original_title": "Booksmart", "genre_ids": [35], "backdrop_path": "/wcAqndL2MkIjPrCrYeuE794weNE.jpg", "adult": false, "overview": "Two academic teenage superstars realize, on the eve of their high school graduation, that they should have worked less and played more. Determined to never fall short of their peers, the girls set out on a mission to cram four years of fun into one night.", "poster_path": "/micaVOa1UZsdzs4fKGA67ZMGOzc.jpg", "popularity": 21.49}, {"id": 272693, "video": false, "vote_count": 3247, "vote_average": 6.8, "title": "The DUFF", "release_date": "2015-02-20", "original_language": "en", "original_title": "The DUFF", "genre_ids": [35, 10749], "backdrop_path": "/awGZf5T1hflis9Z2KvRMhp798xU.jpg", "adult": false, "overview": "Bianca's universe turns upside down when she learns that her high school refers to her as a \u2018DUFF' (Designated Ugly Fat Friend). Hoping to erase that label, she enlists the help of a charming jock and her favorite teacher. Together they'll face the school's mean girl and remind everyone that we are all someone's DUFF\u2026 and that's totally fine.", "poster_path": "/dBBgPTCN5Zze4POXWVVpwf3wkra.jpg", "popularity": 14.151}, {"id": 13505, "video": false, "vote_count": 270, "vote_average": 5.7, "title": "The Perfect Score", "release_date": "2004-01-30", "original_language": "en", "original_title": "The Perfect Score", "genre_ids": [35, 80], "backdrop_path": "/ubYDrGokEJfx9vYso0b7lQAmn5A.jpg", "adult": false, "overview": "Six high school seniors decide to break into the Princeton Testing Center so they can steal the answers to their upcoming SAT tests and all get perfect scores.", "poster_path": "/1y14WqlW9UsCCiKVZEDro3VKK3j.jpg", "popularity": 9.725}, {"adult": false, "backdrop_path": "/4NJplkljN06NQLMLSUNmrIsBjBZ.jpg", "genre_ids": [35, 18], "id": 400547, "original_language": "en", "original_title": "Hurricane Bianca", "overview": "Hurricane Bianca is a revenge comedy about a New York teacher who moves to a small town in Texas, gets fired for being gay, and returns disguised in drag to get revenge on the people who were nasty to him.", "poster_path": "/w1QM09R1TqwHTb5UA8X8jR2yh4x.jpg", "release_date": "2016-06-03", "title": "Hurricane Bianca", "video": false, "vote_average": 6.2, "vote_count": 212, "popularity": 10.051}, {"adult": false, "backdrop_path": "/liphMCz8XZo74SOuGQIRdWJTsyg.jpg", "genre_ids": [35], "id": 32113, "original_language": "en", "original_title": "Carry On Teacher", "overview": "Prepare for Six of the Best as the Carry On team cause chaos in the school yard. When a well-loved headmaster decides to retire, his scheming pupils have other ideas. The cunning boys unleash a campaign of practical jokes, armed with gin, itching power and bombs! No one is safe from the classroom havoc in this Carry On starring all the regulars including the immortal Kenneth Williams, Charl", "poster_path": "/sB7TuieJrkplttoiGSr2BHvdEtN.jpg", "release_date": "1959-08-25", "title": "Carry On Teacher", "video": false, "vote_average": 6.7, "vote_count": 21, "popularity": 2.151}, {"adult": false, "backdrop_path": "/AqocxdL9luA7ALU0gGSHDzDy254.jpg", "genre_ids": [14, 16, 18, 878], "id": 14069, "original_language": "ja", "original_title": "\u6642\u3092\u304b\u3051\u308b\u5c11\u5973", "overview": "When 17-year-old Makoto Konno gains the ability to, quite literally, \"leap\" backwards through time, she immediately sets about improving her grades and preventing personal mishaps. However, she soon realises that changing the past isn't as simple as it seems, and eventually, will have to rely on her new powers to shape the future of herself and her friends.", "poster_path": "/7oNeWrsaiMGxCrvkWjQ56y6JN85.jpg", "release_date": "2006-07-15", "title": "The Girl Who Leapt Through Time", "video": false, "vote_average": 7.8, "vote_count": 1043, "popularity": 22.298}, {"id": 70695, "video": false, "vote_count": 108, "vote_average": 6.4, "title": "Dirty Girl", "release_date": "2010-09-12", "original_language": "en", "original_title": "Dirty Girl", "genre_ids": [35, 18], "backdrop_path": "/lV2FP4wQvfq8FSuk41mYylUIxQ3.jpg", "adult": false, "overview": "When Danielle is banished to special education because of her misbehavior, she joins Clarke on a road trip to discover themselves.", "poster_path": "/9wyyNds6MYPV0Kkzf5oGHTm8VGg.jpg", "popularity": 7.896}, {"id": 13342, "video": false, "vote_count": 639, "vote_average": 6.9, "title": "Fast Times at Ridgemont High", "release_date": "1982-08-13", "original_language": "en", "original_title": "Fast Times at Ridgemont High", "genre_ids": [35, 18], "backdrop_path": "/l23IoHAfjTdNMZLeDetr75H6sb7.jpg", "adult": false, "overview": "Follows a group of high school students growing up in southern California, based on the real-life adventures chronicled by Cameron Crowe. Stacy Hamilton and Mark Ratner are looking for a love interest, and are helped along by their older classmates, Linda Barrett and Mike Damone, respectively. The center of the film is held by Jeff Spicoli, a perpetually stoned surfer dude who faces off with the resolute Mr. Hand, who is convinced that everyone is on dope.", "poster_path": "/lvEenO2CikD4Zo3rFK1flAU99Pr.jpg", "popularity": 11.118}, {"adult": false, "backdrop_path": "/xuHuW4XhghQpVJSIna7JBb60bva.jpg", "genre_ids": [27, 878], "id": 9276, "original_language": "en", "original_title": "The Faculty", "overview": "When some very creepy things start happening around school, the kids at Herrington High make a chilling discovery that confirms their worst suspicions: their teachers really are from another planet!", "poster_path": "/7mqWOJK9G9jstckhKVxBCC3g8HX.jpg", "release_date": "1998-12-25", "title": "The Faculty", "video": false, "vote_average": 6.3, "vote_count": 992, "popularity": 13.589}, {"id": 1791, "video": false, "vote_count": 468, "vote_average": 7.4, "title": "The Piano Teacher", "release_date": "2001-07-21", "original_language": "fr", "original_title": "La Pianiste", "genre_ids": [18, 10749], "backdrop_path": "/mNXNFlZXeJYSqTGIiweEaMxGYfO.jpg", "adult": false, "overview": "Erika Kohut, a sexually repressed piano teacher living with her domineering mother, meets a young man who starts romantically pursuing her.", "poster_path": "/ln8Ip9Etw4jxzxSuXSTwFqsfsSY.jpg", "popularity": 11.804}, {"id": 437670, "video": false, "vote_count": 206, "vote_average": 6.1, "title": "Suck Me Shakespeer 3", "release_date": "2017-10-26", "original_language": "de", "original_title": "Fack ju G\u00f6hte 3", "genre_ids": [35], "backdrop_path": "/bJQQTAMnFlpcL1mBJlx4R41b1Y.jpg", "adult": false, "overview": "This is the politically incorrect third and final part of the now famously successful trilogy, where Mr. M\u00fcller and his problem kids Chantal, Danger and Co. once again take up arms against their sworn enemy, the German education system.", "poster_path": "/ywCWnSOndFqq9nhE563hm15YQe0.jpg", "popularity": 16.302}, {"adult": false, "backdrop_path": "/zwJFfKQdfiptK2GY6N8GkZFrAxJ.jpg", "genre_ids": [27, 53], "id": 7340, "original_language": "en", "original_title": "Carrie", "overview": "Carrie White, a shy and troubled teenage girl who is tormented by her high school peers and her fanatically religious mother, begins to use her powers of telekinesis to exact revenge upon them.", "poster_path": "/n9JxLthRHwTWwu5OjFHVplkVSUg.jpg", "release_date": "1976-11-03", "title": "Carrie", "video": false, "vote_average": 7.2, "vote_count": 2026, "popularity": 14.332}], "total_pages": 13, "total_results": 259}, "recommendations": {"page": 1, "results": [{"adult": false, "backdrop_path": "/vmd3KYobZiHnkbKIiJRdHumQr8d.jpg", "genre_ids": [53, 9648], "id": 20695, "original_language": "en", "original_title": "Blessed", "overview": "Heather Graham and James Purefoy play a couple who desperately want to have a baby. Unfortunately, she has been diagnosed as infertile, and the couple can't afford the medical treatments that might allow her to conceive. Good fortune appears to be smiling on the couple when they are given an opportunity to receive free treatments at a mysterious fertility clinic.", "poster_path": "/iUcqTNeriSfEYHkokmuer2G41lQ.jpg", "release_date": "2004-05-16", "title": "Blessed", "video": false, "vote_average": 4.9, "vote_count": 18, "popularity": 4.827}, {"id": 32284, "video": false, "vote_count": 18, "vote_average": 6.0, "title": "Dream for an Insomniac", "release_date": "1996-04-18", "original_language": "en", "original_title": "Dream for an Insomniac", "genre_ids": [35, 18, 10749], "backdrop_path": "/pDvVWPCQ6pqPVhD99XXxBuM14q.jpg", "adult": false, "overview": "A girl with insomnia who works in a coffee house has impossibly high standards for her love and fears she will never meet a worthy man. Then in walks a new employee and they click - until she discovers he has a girlfriend. Undaunted, she moves to L.A. with a friend sure that he will dump the girlfriend and follow her. She puts all her faith in fate and hopes for the best.", "poster_path": "/Ak6Rz4dULyXPjPRKSl0z5xA8xJR.jpg", "popularity": 4.486}, {"adult": false, "backdrop_path": null, "genre_ids": [10770, 18, 53], "id": 359187, "original_language": "en", "original_title": "A Teacher's Obsession", "overview": "A high-school English teacher becomes dangerously obsessed with a star athlete who needs academic help.", "poster_path": "/8aYMJZ0Rws8O1mKzp1OZpkqUBfE.jpg", "release_date": "2015-09-06", "title": "A Teacher's Obsession", "video": false, "vote_average": 3.4, "vote_count": 8, "popularity": 4.443}, {"adult": false, "backdrop_path": "/kUB5sZmwh2OLtH9IBHiZbQFfSPv.jpg", "genre_ids": [80, 18], "id": 14290, "original_language": "en", "original_title": "Better Luck Tomorrow", "overview": "A group of over-achieving Asian-American high school seniors enjoy a power trip when they dip into extra-curricular criminal activities.", "poster_path": "/alJULQQnuiYXjgVmj2EYgwXOcIn.jpg", "release_date": "2002-01-12", "title": "Better Luck Tomorrow", "video": false, "vote_average": 6.7, "vote_count": 39, "popularity": 5.725}], "total_pages": 1, "total_results": 4}, "credits": {"cast": [{"cast_id": 1, "character": "Todd Boomer", "credit_id": "52fe46f19251416c91064e15", "gender": 2, "id": 52474, "name": "Jason London", "order": 0, "profile_path": "/bFkC2ZRcurTQzbjBuuMljFCKfEv.jpg"}, {"cast_id": 2, "character": "Vicky Mueller", "credit_id": "52fe46f19251416c91064e19", "gender": 1, "id": 13445, "name": "Tia Carrere", "order": 1, "profile_path": "/dtGgb3UFrhSifzpIWuTlE98z0F0.jpg"}, {"cast_id": 3, "character": "Kirsten Beck", "credit_id": "52fe46f19251416c91064e1d", "gender": 1, "id": 42377, "name": "Alexondra Lee", "order": 2, "profile_path": "/6GdI7gTt8p3wFVK29nwP64Gbaqw.jpg"}, {"cast_id": 5, "character": "Paul Faber", "credit_id": "52fe46f19251416c91064e27", "gender": 2, "id": 6212, "name": "Zak Orth", "order": 3, "profile_path": "/rKupoahQ3pgeVVXS8EWd1WSnKEO.jpg"}, {"cast_id": 6, "character": "Elaine Boomer", "credit_id": "52fe46f19251416c91064e2b", "gender": 1, "id": 19469, "name": "Leslie Lyles", "order": 4, "profile_path": "/uUsBo2oIA6QDY7LKqs6wEzZKU7C.jpg"}, {"cast_id": 7, "character": "Jack Boomer", "credit_id": "52fe46f19251416c91064e2f", "gender": 2, "id": 4175, "name": "Jeffrey Tambor", "order": 5, "profile_path": "/csB350am07xyRL5Ik1BWuSY12tH.jpg"}, {"cast_id": 8, "character": "Roy Mueller", "credit_id": "52fe46f19251416c91064e33", "gender": 2, "id": 4443, "name": "Christopher McDonald", "order": 6, "profile_path": "/gK1XhbfD9Xd8s3VXRPpgDCluyZp.jpg"}, {"cast_id": 9, "character": "Kim O'Brien", "credit_id": "52fe46f19251416c91064e37", "gender": 1, "id": 73403, "name": "Joanna Canton", "order": 7, "profile_path": "/gInYKC1HfTat2r2fXYlf2S12U1X.jpg"}], "crew": [{"credit_id": "5558a71ac3a368777200923a", "department": "Production", "gender": 1, "id": 2952, "job": "Casting", "name": "Avy Kaufman", "profile_path": "/yQPGktsmkKkhkOQAUlmYlxHJOiJ.jpg"}, {"credit_id": "5558a7309251412de8000073", "department": "Art", "gender": 0, "id": 6480, "job": "Production Design", "name": "Eve Cauley", "profile_path": null}, {"credit_id": "5558a75ac3a368777e008824", "department": "Art", "gender": 1, "id": 21162, "job": "Set Decoration", "name": "Marthe Pineau", "profile_path": null}, {"credit_id": "5558a70992514133f4002075", "department": "Editing", "gender": 2, "id": 27569, "job": "Editor", "name": "Norman Hollyn", "profile_path": null}, {"credit_id": "5da1e675e860170014ad33d1", "department": "Production", "gender": 2, "id": 51689, "job": "Executive Producer", "name": "Stan Wlodkowski", "profile_path": null}, {"credit_id": "5558a6ac92514129b7002355", "department": "Production", "gender": 2, "id": 54797, "job": "Producer", "name": "Robert N. Fried", "profile_path": null}, {"credit_id": "5558a77292514129b7002361", "department": "Costume & Make-Up", "gender": 1, "id": 72108, "job": "Costume Design", "name": "Laura Goldsmith", "profile_path": null}, {"credit_id": "547f6662c3a3683d940001e6", "department": "Writing", "gender": 2, "id": 160077, "job": "Screenplay", "name": "Seth Greenland", "profile_path": null}, {"credit_id": "52fe46f19251416c91064e23", "department": "Directing", "gender": 2, "id": 198148, "job": "Director", "name": "Bruce Leddy", "profile_path": null}, {"credit_id": "5558a6f09251411e5b008880", "department": "Camera", "gender": 0, "id": 1304697, "job": "Director of Photography", "name": "Zolt\u00e1n David", "profile_path": null}, {"credit_id": "5558a7a3c3a368776c008312", "department": "Directing", "gender": 0, "id": 1416673, "job": "Script Supervisor", "name": "Rebecca Long", "profile_path": null}, {"credit_id": "5558a6c8c3a3687779008006", "department": "Production", "gender": 0, "id": 1437639, "job": "Producer", "name": "Richard J. Zinman", "profile_path": null}, {"credit_id": "5558a6df92514133f400206c", "department": "Sound", "gender": 0, "id": 1468126, "job": "Music", "name": "Kevin Gilbert", "profile_path": null}, {"credit_id": "5558a7449251412de8000077", "department": "Art", "gender": 0, "id": 1468127, "job": "Art Direction", "name": "Natalie Wilson", "profile_path": null}, {"credit_id": "5558a7bdc3a36877820099cd", "department": "Crew", "gender": 1, "id": 1468128, "job": "Unit Publicist", "name": "Skye Dent", "profile_path": null}, {"credit_id": "5da1e6b3b84f940015996657", "department": "Costume & Make-Up", "gender": 0, "id": 1484966, "job": "Key Hair Stylist", "name": "Anne Morgan", "profile_path": null}, {"credit_id": "5da1e6a7e860170014ad3458", "department": "Costume & Make-Up", "gender": 0, "id": 1521518, "job": "Key Makeup Artist", "name": "Kathryn Bihr", "profile_path": null}]}}