{"adult": false, "backdrop_path": null, "belongs_to_collection": null, "budget": 0, "genres": [{"id": 80, "name": "Crime"}, {"id": 53, "name": "Thriller"}], "homepage": "http://www.lateshift-movie.com", "id": 391632, "imdb_id": "tt4796254", "original_language": "en", "original_title": "Late Shift", "overview": "Matt, a smart student, has to prove his innocence after being forced to take part in a bold heist at a famous London auction house. The consequences take him on a journey across London to escape the twisted web he finds himself caught in, discover the truth and gain his retribution. How will the audience decide to act when everything is turning against him?", "popularity": 2.775, "poster_path": "/b5KZjuYslHXGTL8qbCv0vhZy2jA.jpg", "production_companies": [], "production_countries": [{"iso_3166_1": "CH", "name": "Switzerland"}, {"iso_3166_1": "GB", "name": "United Kingdom"}], "release_date": "2016-03-10", "revenue": 0, "runtime": 90, "spoken_languages": [{"iso_639_1": "cn", "name": "\u5e7f\u5dde\u8bdd / \u5ee3\u5dde\u8a71"}, {"iso_639_1": "en", "name": "English"}], "status": "Released", "tagline": "Your decisions are you", "title": "Late Shift", "video": false, "vote_average": 7.2, "vote_count": 9, "keywords": {"keywords": [{"id": 10051, "name": "heist"}, {"id": 169498, "name": "car theft"}, {"id": 222385, "name": "interactive"}, {"id": 224324, "name": "choose your own adventure"}]}, "similar": {"page": 1, "results": [{"adult": false, "backdrop_path": "/7RRuRcGuWkZGuRyYugfXn0Fgrrr.jpg", "genre_ids": [28, 80, 18, 53], "id": 949, "original_language": "en", "original_title": "Heat", "overview": "Obsessive master thief, Neil McCauley leads a top-notch crew on various daring heists throughout Los Angeles while determined detective, Vincent Hanna pursues him without rest. Each man recognizes and respects the ability and the dedication of the other even though they are aware their cat-and-mouse game may end in violence.", "poster_path": "/6pmLVffM9jEYK7VqDJqPblMxfEY.jpg", "release_date": "1995-12-15", "title": "Heat", "video": false, "vote_average": 7.8, "vote_count": 3615, "popularity": 21.973}, {"id": 339403, "video": false, "vote_count": 9215, "vote_average": 7.4, "title": "Baby Driver", "release_date": "2017-06-28", "original_language": "en", "original_title": "Baby Driver", "genre_ids": [28, 80], "backdrop_path": "/goCvLSUFz0p7k8R10Hv4CVh3EQv.jpg", "adult": false, "overview": "After being coerced into working for a crime boss, a young getaway driver finds himself taking part in a heist doomed to fail.", "poster_path": "/dN9LbVNNZFITwfaRjl4tmwGWkRg.jpg", "popularity": 34.697}, {"id": 449443, "video": false, "vote_count": 1469, "vote_average": 6.6, "title": "Den of Thieves", "release_date": "2018-01-18", "original_language": "en", "original_title": "Den of Thieves", "genre_ids": [28, 80, 53], "backdrop_path": "/s3FDBLH4qc1IcjexB05Qvbn3wxO.jpg", "adult": false, "overview": "A gritty crime saga which follows the lives of an elite unit of the LA County Sheriff\u2019s Dept. and the state\u2019s most successful bank robbery crew as the outlaws plan a seemingly impossible heist on the Federal Reserve Bank.", "poster_path": "/AfybH6GbGFw1F9bcETe2yu25mIE.jpg", "popularity": 28.396}, {"id": 22907, "video": false, "vote_count": 686, "vote_average": 6.2, "title": "Takers", "release_date": "2010-08-26", "original_language": "en", "original_title": "Takers", "genre_ids": [28, 80, 18, 53], "backdrop_path": "/n6FokmbxhCWH0ad7i1lJzAbrZqK.jpg", "adult": false, "overview": "A seasoned team of bank robbers, including Gordon Jennings (Idris Elba), John Rahway (Paul Walker), A.J. (Hayden Christensen), and brothers Jake (Michael Ealy) and Jesse Attica (Chris Brown) successfully complete their latest heist and lead a life of luxury while planning their next job. When Ghost (Tip T.I. Harris), a former member of their team, is released from prison he convinces the group to strike an armored car carrying $20 million. As the \"Takers\" carefully plot out their strategy and draw nearer to exacting the grand heist, a reckless police officer (Matt Dillon) inches closer to apprehending the criminals.", "poster_path": "/zwepORN3ONa5qSLzmcZSPlpQxce.jpg", "popularity": 19.497}, {"id": 388, "video": false, "vote_count": 3231, "vote_average": 7.4, "title": "Inside Man", "release_date": "2006-03-23", "original_language": "en", "original_title": "Inside Man", "genre_ids": [80, 18, 53], "backdrop_path": "/6sLQFh6VFxU8nIkVaYg2yyJ6FL.jpg", "adult": false, "overview": "When an armed, masked gang enter a Manhattan bank, lock the doors and take hostages, the detective assigned to effect their release enters negotiations preoccupied with corruption charges he is facing.", "poster_path": "/z6wYRuvk1lf60R4SmWETfdUvGsm.jpg", "popularity": 23.439}, {"adult": false, "backdrop_path": "/sDSwD63e0qfNE1YvH8aczFoSGTt.jpg", "genre_ids": [80, 18, 53], "id": 11826, "original_language": "en", "original_title": "Sexy Beast", "overview": "The idyllic life of retired safecracker Gal is put at risk when a psychotic gangster from his past arrives at his villa in southern Spain, intent on bringing him out of retirement for one last job.", "poster_path": "/rpo9njGpJVLPqRrdM6R7wIqiQ7K.jpg", "release_date": "2001-01-12", "title": "Sexy Beast", "video": false, "vote_average": 7.0, "vote_count": 391, "popularity": 9.281}, {"id": 429203, "video": false, "vote_count": 717, "vote_average": 6.3, "title": "The Old Man & the Gun", "release_date": "2018-09-27", "original_language": "en", "original_title": "The Old Man & the Gun", "genre_ids": [35, 80, 18], "backdrop_path": "/6X2YjjYcs8XyZRDmJAHNDlls7L4.jpg", "adult": false, "overview": "The true story of Forrest Tucker, from his audacious escape from San Quentin at the age of 70 to an unprecedented string of heists that confounded authorities and enchanted the public. Wrapped up in the pursuit are a detective, who becomes captivated with Forrest\u2019s commitment to his craft, and a woman, who loves him in spite of his chosen profession.", "poster_path": "/a4BfxRK8dBgbQqbRxPs8kmLd8LG.jpg", "popularity": 11.766}, {"id": 9654, "video": false, "vote_count": 3400, "vote_average": 6.7, "title": "The Italian Job", "release_date": "2003-05-30", "original_language": "en", "original_title": "The Italian Job", "genre_ids": [28, 80], "backdrop_path": "/JyoJwSfcLvfLxCGHUQYlCxvU77.jpg", "adult": false, "overview": "Charlie Croker pulled off the crime of a lifetime. The one thing that he didn't plan on was being double-crossed. Along with a drop-dead gorgeous safecracker, Croker and his team take off to re-steal the loot and end up in a pulse-pounding, pedal-to-the-metal chase that careens up, down, above and below the streets of Los Angeles.", "poster_path": "/jNRCNX1uDiUf6mteFxOBn30wL8Q.jpg", "popularity": 21.009}, {"id": 10623, "video": false, "vote_count": 440, "vote_average": 5.8, "title": "Cradle 2 the Grave", "release_date": "2003-02-28", "original_language": "en", "original_title": "Cradle 2 the Grave", "genre_ids": [28, 80, 18], "backdrop_path": "/1SWYvFhQvAEI3CkbxQOg3VTqjlp.jpg", "adult": false, "overview": "Gang leader Tony pulls off a major diamond heist with his crew, but cop-turned-criminal Ling knows who has the loot and responds by kidnapping Tony's daughter and holding her for ransom. Unfortunately, Tony's lost the diamonds as well. As he frantically searches for his daughter and the jewels, Tony pairs with a high-kicking government agent who once worked with Ling and seeks revenge on him.", "poster_path": "/v8iPcn54TNsSPabD9ZYQVQUWbXk.jpg", "popularity": 13.551}, {"id": 154400, "video": false, "vote_count": 1342, "vote_average": 6.7, "title": "The Drop", "release_date": "2014-09-12", "original_language": "en", "original_title": "The Drop", "genre_ids": [80, 18], "backdrop_path": "/lI7TD9Z9TsASnc3GxkLbBBpXCac.jpg", "adult": false, "overview": "Bob Saginowski finds himself at the center of a robbery gone awry and entwined in an investigation that digs deep into the neighborhood's past where friends, families, and foes all work together to make a living - no matter the cost.", "poster_path": "/lj8AMCjWx0jU93XajzUEOUUNKZF.jpg", "popularity": 24.66}, {"id": 49849, "video": false, "vote_count": 3363, "vote_average": 5.5, "title": "Cowboys & Aliens", "release_date": "2011-07-29", "original_language": "en", "original_title": "Cowboys & Aliens", "genre_ids": [28, 878, 53, 37], "backdrop_path": "/gTDwoJBCu7scwYQoykIlLNpkCes.jpg", "adult": false, "overview": "A stranger stumbles into the desert town of Absolution with no memory of his past and a futuristic shackle around his wrist. With the help of mysterious beauty Ella and the iron-fisted Colonel Dolarhyde, he finds himself leading an unlikely posse of cowboys, outlaws, and Apache warriors against a common enemy from beyond this world in an epic showdown for survival.", "poster_path": "/9uZsGCP4rvOHVGCpMpYq5gNCuNI.jpg", "popularity": 21.609}, {"id": 9679, "video": false, "vote_count": 2590, "vote_average": 6.3, "title": "Gone in Sixty Seconds", "release_date": "2000-06-09", "original_language": "en", "original_title": "Gone in Sixty Seconds", "genre_ids": [28, 80, 53], "backdrop_path": "/uqd4cqpp6gbs6zG6izBUaCorgjv.jpg", "adult": false, "overview": "Upon learning that he has to come out of retirement to steal 50 cars in one night to save his brother Kip's life, former car thief Randall \"Memphis\" Raines enlists help from a few \"boost happy\" pals to accomplish a seemingly impossible feat. From countless car chases to relentless cops, the high-octane excitement builds as Randall swerves around more than a few roadblocks to keep Kip alive.", "poster_path": "/77TxKvRiX0c5JR6l4fxcN19prOy.jpg", "popularity": 20.394}, {"adult": false, "backdrop_path": "/crRdazoirgBIB50ScJns8KMsZNM.jpg", "genre_ids": [80, 28, 53], "id": 438674, "original_language": "en", "original_title": "Dragged Across Concrete", "overview": "Two policemen, one an old-timer, the other his volatile younger partner, find themselves suspended when a video of their strong-arm tactics becomes the media's cause du jour. Low on cash and with no other options, these two embittered soldiers descend into the criminal underworld to gain their just due, but instead find far more than they wanted awaiting them in the shadows.", "poster_path": "/fVG4a27ImyPS4vvNMjCtan3QhDl.jpg", "release_date": "2019-02-21", "title": "Dragged Across Concrete", "video": false, "vote_average": 6.6, "vote_count": 252, "popularity": 14.091}, {"id": 353070, "video": false, "vote_count": 1507, "vote_average": 6.6, "title": "Going in Style", "release_date": "2017-04-06", "original_language": "en", "original_title": "Going in Style", "genre_ids": [35, 80], "backdrop_path": "/y6tKHt7iwcYwqckk3iOZV0vWKRM.jpg", "adult": false, "overview": "Desperate to pay the bills and come through for their loved ones, three lifelong pals risk it all by embarking on a daring bid to knock off the very bank that absconded with their money.", "poster_path": "/4nfWsdsJfO5srRZgxiWC9xHub0W.jpg", "popularity": 10.914}, {"id": 298, "video": false, "vote_count": 3875, "vote_average": 6.7, "title": "Ocean's Thirteen", "release_date": "2007-06-06", "original_language": "en", "original_title": "Ocean's Thirteen", "genre_ids": [80, 53], "backdrop_path": "/7ytb78OyijteFpFKKoZsYSvPw2u.jpg", "adult": false, "overview": "Danny Ocean's team of criminals are back and composing a plan more personal than ever. When ruthless casino owner Willy Bank doublecrosses Reuben Tishkoff, causing a heart attack, Danny Ocean vows that he and his team will do anything to bring down Willy Bank along with everything he's got. Even if it means asking for help from an enemy.", "poster_path": "/uDUebdX0SFqpjBrdC4ANxub3zjy.jpg", "popularity": 17.375}, {"id": 755, "video": false, "vote_count": 3408, "vote_average": 7.0, "title": "From Dusk Till Dawn", "release_date": "1996-01-19", "original_language": "en", "original_title": "From Dusk Till Dawn", "genre_ids": [28, 80, 27, 53], "backdrop_path": "/3kPTAFgx2BftDOexBe41k8kqSRD.jpg", "adult": false, "overview": "Seth Gecko and his younger brother Richard are on the run after a bloody bank robbery in Texas. They escape across the border into Mexico and will be home-free the next morning, when they pay off the local kingpin. They just have to survive 'from dusk till dawn' at the rendezvous point, which turns out to be a Hell of a strip joint.", "poster_path": "/ce0d4kM5KxT4x1Oq8JkSuNYevri.jpg", "popularity": 21.139}, {"adult": false, "backdrop_path": "/aJCEQFFXNcfg5YneJzTG15qzxF7.jpg", "genre_ids": [28, 53], "id": 1572, "original_language": "en", "original_title": "Die Hard: With a Vengeance", "overview": "New York detective John McClane is back and kicking bad-guy butt in the third installment of this action-packed series, which finds him teaming with civilian Zeus Carver to prevent the loss of innocent lives. McClane thought he'd seen it all, until a genius named Simon engages McClane, his new \"partner\" -- and his beloved city -- in a deadly game that demands their concentration.", "poster_path": "/ivpXGcsPZglyYrN65THWSD7JM3q.jpg", "release_date": "1995-05-19", "title": "Die Hard: With a Vengeance", "video": false, "vote_average": 7.1, "vote_count": 3603, "popularity": 27.341}, {"id": 508138, "video": false, "vote_count": 36, "vote_average": 6.2, "title": "Burn", "release_date": "2019-08-23", "original_language": "en", "original_title": "Burn", "genre_ids": [53], "backdrop_path": "/nbnOJ6zuIA9ZnmcIep4fmckBd0x.jpg", "adult": false, "overview": "Lonely, unstable gas station attendant Melinda is tired of being overshadowed by her more confident, outgoing co-worker Sheila. When the gas station is held up at gunpoint by Billy, a desperate man in need of quick cash, Melinda finds an opportunity to make a connection with the robber, regardless of who gets hurt.", "poster_path": "/ifSMo5x7SDXpettRt8TWY9EOquM.jpg", "popularity": 10.372}, {"id": 23168, "video": false, "vote_count": 2676, "vote_average": 7.2, "title": "The Town", "release_date": "2010-09-15", "original_language": "en", "original_title": "The Town", "genre_ids": [80, 18, 53], "backdrop_path": "/asMylckPVBXViRqxjDTzik0TpOh.jpg", "adult": false, "overview": "Doug MacRay is a longtime thief, who, smarter than the rest of his crew, is looking for his chance to exit the game. When a bank job leads to the group kidnapping an attractive branch manager, he takes on the role of monitoring her \u2013 but their burgeoning relationship threatens to unveil the identities of Doug and his crew to the FBI Agent who is on their case.", "poster_path": "/zX4fKmDXKGt4hlzhAJirdlRKFgO.jpg", "popularity": 22.874}, {"adult": false, "backdrop_path": "/uQqQvmptJLPTcWDrZXn22p7j7s3.jpg", "genre_ids": [28, 80, 18, 53], "id": 395990, "original_language": "en", "original_title": "Death Wish", "overview": "A mild-mannered father is transformed into a killing machine after his family is torn apart by a violent act.", "poster_path": "/g0eEEZAqMf98ULQnoiORuazjOpn.jpg", "release_date": "2018-03-02", "title": "Death Wish", "video": false, "vote_average": 5.9, "vote_count": 1402, "popularity": 18.853}], "total_pages": 47, "total_results": 929}, "recommendations": {"page": 1, "results": [], "total_pages": 1, "total_results": 0}, "credits": {"cast": [{"cast_id": 0, "character": "Matt", "credit_id": "570516c0c3a3685a7f001e4a", "gender": 0, "id": 137937, "name": "Joe Sowerbutts", "order": 1, "profile_path": "/diMGMOoVB1w6GFNlinraS5dKBwi.jpg"}, {"cast_id": 1, "character": "May-Ling", "credit_id": "570516d6c3a3681f0c001532", "gender": 1, "id": 1168128, "name": "Haruka Abe", "order": 2, "profile_path": "/vCrIvFxUfjRkIaRt5eT8uchVkWp.jpg"}, {"cast_id": 3, "character": "Samuel Parr", "credit_id": "5705173b92514147670014c0", "gender": 2, "id": 120833, "name": "Richard Durden", "order": 3, "profile_path": "/jtsGAARS6sNDfHPGl4xrJdtSEb3.jpg"}, {"cast_id": 4, "character": "S\u00e9bastien Leclercq", "credit_id": "570517569251417da4001f51", "gender": 2, "id": 223477, "name": "Joel Basman", "order": 4, "profile_path": "/iPXHVtgnRJsu9on8ZGD83PFPxIE.jpg"}, {"cast_id": 5, "character": "S\u00e9bastien", "credit_id": "57051762c3a3680af0001734", "gender": 2, "id": 223477, "name": "Joel Basman", "order": 5, "profile_path": "/iPXHVtgnRJsu9on8ZGD83PFPxIE.jpg"}, {"cast_id": 6, "character": "Elodie", "credit_id": "5705177a9251410694001bf0", "gender": 1, "id": 1504795, "name": "Lily Travers", "order": 6, "profile_path": "/ksRWb1ImQKKImcMGBpTnCh3O1Ux.jpg"}], "crew": [{"credit_id": "57051877c3a3683ef8001e91", "department": "Writing", "gender": 2, "id": 112689, "job": "Writer", "name": "Michael Robert Johnson", "profile_path": null}, {"credit_id": "570518c89251417d9e001eda", "department": "Editing", "gender": 0, "id": 1400386, "job": "Editor", "name": "Jann Anderegg", "profile_path": null}, {"credit_id": "57051947c3a3681f3a0017d5", "department": "Crew", "gender": 0, "id": 1551194, "job": "Cinematography", "name": "Alfie Biddle", "profile_path": null}, {"credit_id": "570518ea9251417d9e001ee1", "department": "Art", "gender": 0, "id": 1575346, "job": "Production Design", "name": "Charlotte Pearson", "profile_path": null}, {"credit_id": "5705171092514172de001130", "department": "Production", "gender": 0, "id": 1601827, "job": "Producer", "name": "Baptiste Planche", "profile_path": null}, {"credit_id": "570517b192514146b8001507", "department": "Production", "gender": 0, "id": 1601828, "job": "Producer", "name": "Kurban Kassam", "profile_path": null}, {"credit_id": "570517d6c3a3683ef8001e7c", "department": "Directing", "gender": 0, "id": 1601829, "job": "Director", "name": "Tobias Weber", "profile_path": null}, {"credit_id": "5705188392514147670014e1", "department": "Writing", "gender": 0, "id": 1601829, "job": "Writer", "name": "Tobias Weber", "profile_path": null}, {"credit_id": "570518a69251417d9e001ed3", "department": "Sound", "gender": 0, "id": 1601832, "job": "Music", "name": "Cyril Boehler", "profile_path": null}, {"credit_id": "5705190fc3a368017c0016dc", "department": "Costume & Make-Up", "gender": 0, "id": 1601834, "job": "Costume Design", "name": "Giulia Scrimieri", "profile_path": null}]}}