{"adult": false, "backdrop_path": "/AnY6qCODxXB81Sn56QvxS6EwwZA.jpg", "belongs_to_collection": null, "budget": 0, "genres": [{"id": 18, "name": "Drama"}, {"id": 36, "name": "History"}], "homepage": "", "id": 39177, "imdb_id": "tt0123385", "original_language": "fr", "original_title": "Artemisia", "overview": "Artemisia Gentileschi (1593-1653) was one of the first well-known female painters. The movie tells the story of her youth, when she was guided and protected by her father, the painter Orazio Gentileschi. Her professional curiosity about the male anatomy, forbidden for her eyes, led her to the knowledge of sexual pleasure. But she was also well known because in 1612 she had to appear in a courtroom because her teacher, Agostino Tassi, was suspected of raping her. She tried to protect him, but was put in the thumb screws...", "popularity": 4.619, "poster_path": "/bLsCjaBJ1NdviPB2kSkfNKP1mif.jpg", "production_companies": [{"id": 591, "logo_path": "/q5I5RDwMEiqoNmfaJgd2LraEOJY.png", "name": "France 3 Cin\u00e9ma", "origin_country": "FR"}], "production_countries": [{"iso_3166_1": "FR", "name": "France"}], "release_date": "1997-09-10", "revenue": 0, "runtime": 98, "spoken_languages": [{"iso_639_1": "fr", "name": "Fran\u00e7ais"}], "status": "Released", "tagline": "Her passion for her art changed the face of history.", "title": "Artemisia", "video": false, "vote_average": 6.0, "vote_count": 21, "keywords": {"keywords": [{"id": 437, "name": "painter"}, {"id": 187056, "name": "woman director"}, {"id": 190370, "name": "erotic movie"}]}, "similar": {"page": 1, "results": [{"adult": false, "backdrop_path": "/dvQDRfv3qvfHNnVAR57ouVsuErf.jpg", "genre_ids": [10749, 18], "id": 28031, "original_language": "en", "original_title": "If These Walls Could Talk 2", "overview": "The stories of three lesbian couples -- who live in the same house at different periods of time -- who are at a crossroads in their lives. In 1961, Edith loses her lover, Abby, to a stroke. Linda and Amy struggle with feminist issues in 1972. And, in 2000, Kal and Fran try to have a baby with the help of sperm donor.", "poster_path": "/xs7ODbmYQXCDhvXNvz5tF17T59H.jpg", "release_date": "2000-03-05", "title": "If These Walls Could Talk 2", "video": false, "vote_average": 7.1, "vote_count": 55, "popularity": 8.062}, {"adult": false, "backdrop_path": "/gZeJziVigmRqbkEZwKAtSqlLQ6s.jpg", "genre_ids": [18, 10749], "id": 370663, "original_language": "en", "original_title": "Below Her Mouth", "overview": "An unexpected affair quickly escalates into a heart-stopping reality for two women whose passionate connection changes their lives forever.", "poster_path": "/nTGbq37hYLuNy7YgMg0gVLma0NS.jpg", "release_date": "2016-09-10", "title": "Below Her Mouth", "video": false, "vote_average": 6.2, "vote_count": 456, "popularity": 22.676}, {"adult": false, "backdrop_path": "/knczzNAjBXzSYkeWxoT1u9VNmjR.jpg", "genre_ids": [10749, 18], "id": 258480, "original_language": "en", "original_title": "Carol", "overview": "In 1950s New York, a department-store clerk who dreams of a better life falls for an older, married woman.", "poster_path": "/AbKa7ANxmui0Jmhh7gV7OSELKIL.jpg", "release_date": "2015-11-20", "title": "Carol", "video": false, "vote_average": 7.4, "vote_count": 2182, "popularity": 14.185}, {"adult": false, "backdrop_path": "/3YGy88nTV2e0wxZcKI1goiEN9oy.jpg", "genre_ids": [18, 10749], "id": 37636, "original_language": "en", "original_title": "High Art", "overview": "A young female intern at a small magazine company becomes involved with a drug-addicted lesbian photographer, both of whom seek to exploit each other for their respective careers, while slowly falling in love with each other.", "poster_path": "/qTg05RNJIvb9w4Z7XIcAZxuZmTn.jpg", "release_date": "1998-06-12", "title": "High Art", "video": false, "vote_average": 6.6, "vote_count": 61, "popularity": 7.27}, {"adult": false, "backdrop_path": "/cADbqsIoiDW7X3Myg9nz8eAuno5.jpg", "genre_ids": [18, 10749], "id": 10818, "original_language": "fr", "original_title": "Naissance des pieuvres", "overview": "Set during a sultry summer in a French suburb, Marie is desperate to join the local pool's synchronized swimming team, but is her interest solely for the sake of sport or for a chance to get close to Floriane, the bad girl of the team? Sciamma, and the two leads, capture the uncertainty of teenage sexuality with a sympathetic eye in this delicate drama of the angst of coming-of-age.", "poster_path": "/4jajELYrR4Xmv3CVoKnukRnALa2.jpg", "release_date": "2007-05-17", "title": "Water Lilies", "video": false, "vote_average": 6.1, "vote_count": 119, "popularity": 10.744}, {"adult": false, "backdrop_path": "/fZ8oFcREAr6wgWcXISGql0xyxjB.jpg", "genre_ids": [35, 18], "id": 39781, "original_language": "en", "original_title": "The Kids Are All Right", "overview": "Two women, Nic and Jules, brought a son and daughter into the world through artificial insemination. When one of their children reaches age, both kids go behind their mothers' backs to meet with the donor. Life becomes so much more interesting when the father, two mothers and children start to become attached to each other.", "poster_path": "/fPDeK4MmoGfi2X0oWZev7LrbMqM.jpg", "release_date": "2010-07-09", "title": "The Kids Are All Right", "video": false, "vote_average": 6.6, "vote_count": 923, "popularity": 12.703}, {"adult": false, "backdrop_path": "/rf6G51j0SZL0tP57I8gnqHTRFEr.jpg", "genre_ids": [35, 18, 10749], "id": 273153, "original_language": "fr", "original_title": "La belle saison", "overview": "In 1971, Carole and Delphine meet and fall in love in Paris. When Carole follows Delphine back to her family farm in Limousin, the two find lesbianism and feminism are not as easy in the countryside.", "poster_path": "/evvAkNMO5VJiy5qIo1Hu7fUfvVI.jpg", "release_date": "2015-08-19", "title": "Summertime", "video": false, "vote_average": 6.6, "vote_count": 162, "popularity": 15.434}, {"adult": false, "backdrop_path": "/6tern9vOEwwmkDYC1vRCuO64z0C.jpg", "genre_ids": [10749, 18], "id": 475888, "original_language": "en", "original_title": "Tell It to the Bees", "overview": "Dr. Jean Markham returns to the town she left as a teenager to take over her late father's medical practice. When a school-yard scuffle lands Charlie in her surgery, she invites him to visit the hives in her garden and tell his secrets to the bees, as she once did. The new friendship between the boy and the bee keeper brings his mother Lydia into Jean's world.", "poster_path": "/Rj6zpHhMU1zFW3v28U4PSRSRgP.jpg", "release_date": "2019-05-03", "title": "Tell It to the Bees", "video": false, "vote_average": 6.4, "vote_count": 53, "popularity": 15.113}, {"adult": false, "backdrop_path": "/baYbbMtKRDoDWYJeVWkbygAvAj8.jpg", "genre_ids": [18, 10749], "id": 31216, "original_language": "en", "original_title": "I Can't Think Straight", "overview": "I CAN'T THINK STRAIGHT is a 2007 romance movie about a London-based Jordanian of Palestinian descent, Tala, who is preparing for an elaborate wedding. A turn of events causes her to have an affair and subsequently fall in love with another woman, Leyla, a British Indian.", "poster_path": "/1kapga6rkM5wNuQBYw7sdE42CrA.jpg", "release_date": "2008-06-01", "title": "I Can't Think Straight", "video": false, "vote_average": 7.6, "vote_count": 109, "popularity": 8.749}, {"adult": false, "backdrop_path": "/xOGEw8iywxcFMolV6SF6YdTdJTb.jpg", "genre_ids": [10402, 10749], "id": 52371, "original_language": "nl", "original_title": "LelleBelle", "overview": "19-year old Belle practices playing the violin diligently, but is unable to impart her music with a sensitive undertone. Her life changes when she discovers that sexual desire stimulates passion in her music.", "poster_path": "/nJVPgIq3icZMQ26p5uWIFdUZJfL.jpg", "release_date": "2010-10-08", "title": "LelleBelle", "video": false, "vote_average": 4.7, "vote_count": 41, "popularity": 13.931}, {"adult": false, "backdrop_path": "/tk6QB32plylH41eo2Pbv4sIVljO.jpg", "genre_ids": [18], "id": 50270, "original_language": "it", "original_title": "Paprika", "overview": "A young country girl comes to town and works in a brothel in order to help her fiance get the money to start his own business. \"Paprika\" is the name given to her by the madam.", "poster_path": "/6QthFTJvUheocw3fcKklnsMcGib.jpg", "release_date": "1991-02-13", "title": "Paprika", "video": false, "vote_average": 5.9, "vote_count": 81, "popularity": 20.02}, {"adult": false, "backdrop_path": "/lI5h8KaoeObu4NMTwzeRuUHzRwD.jpg", "genre_ids": [18, 9648, 53], "id": 401898, "original_language": "no", "original_title": "Thelma", "overview": "A college student starts to experience extreme seizures. She soon learns that the violent episodes are a symptom of inexplicable abilities.", "poster_path": "/yzSfG8TLAqw7nMQh2lxirQkQpgs.jpg", "release_date": "2017-09-15", "title": "Thelma", "video": false, "vote_average": 7.1, "vote_count": 418, "popularity": 12.235}, {"adult": false, "backdrop_path": "/tIFRPjIXQ3sYrmxbIeOu9K1JkUz.jpg", "genre_ids": [18, 10749], "id": 294, "original_language": "en", "original_title": "Desert Hearts", "overview": "The story of straight-edge literature professor Vivian who travels to Reno to get away from a relationship breakup when she falls in love with an attractive and unconventional girl named Cay.", "poster_path": "/b8JSmQSpYYJhctMtxNgqh0elENg.jpg", "release_date": "1985-10-01", "title": "Desert Hearts", "video": false, "vote_average": 7.3, "vote_count": 58, "popularity": 8.237}, {"adult": false, "backdrop_path": "/nriBinb7Y3Bm6LdbmOC0mFxSm8d.jpg", "genre_ids": [80, 18], "id": 226, "original_language": "en", "original_title": "Boys Don't Cry", "overview": "Female born, Teena Brandon adopts his male identity of Brandon Teena and attempts to find himself and love in Nebraska.", "poster_path": "/6bqIZTEuJnUrgnxcymciszvOz8J.jpg", "release_date": "1999-09-02", "title": "Boys Don't Cry", "video": false, "vote_average": 7.5, "vote_count": 718, "popularity": 12.137}, {"adult": false, "backdrop_path": "/bYbnlh6VXFRtcSX82UMDsBDLB5j.jpg", "genre_ids": [18, 10749], "id": 28468, "original_language": "it", "original_title": "La chiave", "overview": "After twenty years of marriage, art professor Nino Rolfe attempts to break down his wife Teresa's conventional modesty. Noticing her affection for their daughter's fianc\u00e9, Nino instigates her sexual interest in him as well. This sets off a chain of unexpected events and emotional complications, as Nino and his unpredictable fascist daughter find that they both enjoy being jealous.", "poster_path": "/e6g2geNLgFzMbriH6EvSJZD78nx.jpg", "release_date": "1983-10-18", "title": "The Key", "video": false, "vote_average": 5.0, "vote_count": 128, "popularity": 19.088}, {"id": 9813, "video": false, "vote_count": 128, "vote_average": 6.1, "title": "The Quiet", "release_date": "2005-09-12", "original_language": "en", "original_title": "The Quiet", "genre_ids": [18, 53], "backdrop_path": "/6eyWAZA4CEidZW1xXnQ4vlYBXTP.jpg", "adult": false, "overview": "After her widowed father dies, deaf teenager Dot moves in with her godparents, Olivia and Paul Deer. The Deers' daughter, Nina, is openly hostile to Dot, but that does not prevent her from telling her secrets to her silent stepsister, including the fact that she wants to kill her lecherous father.", "poster_path": "/GEqIE9YlmygHVUfS64LW2cwAAM.jpg", "popularity": 13.948}, {"adult": false, "backdrop_path": "/xC9cG6Wy6QbH2hoAx11xPPD995R.jpg", "genre_ids": [18, 10749], "id": 86331, "original_language": "fr", "original_title": "Q", "overview": "In a social context deteriorated by a countrywide economic crisis, the life of several people will be turned upside down after they meet Cecile, a character who symbolizes desire.", "poster_path": "/9Jg9s4yTEndNmy1SSXRF9jdxY9D.jpg", "release_date": "2011-09-14", "title": "Desire", "video": false, "vote_average": 4.7, "vote_count": 204, "popularity": 30.344}, {"adult": false, "backdrop_path": "/98ahnrena4PwLth7HFYGLf9yssH.jpg", "genre_ids": [35, 18, 10749], "id": 22705, "original_language": "it", "original_title": "Tra(sgre)dire", "overview": "While scouting out apartments in London for her Venetian boyfriend, Carla rents an apartment that overlooks the Thames. There she meet the lesbian hyper-horny real estate agent Moira.", "poster_path": "/kZITrLEiTfzzJhtwtXhQUl3ImCQ.jpg", "release_date": "2000-01-28", "title": "Cheeky", "video": false, "vote_average": 5.7, "vote_count": 92, "popularity": 32.727}, {"adult": false, "backdrop_path": "/uC54rlRdLMZ46fnrz5SoVYleNyv.jpg", "genre_ids": [18], "id": 4995, "original_language": "en", "original_title": "Boogie Nights", "overview": "Set in 1977, back when sex was safe, pleasure was a business and business was booming, idealistic porn producer Jack Horner aspires to elevate his craft to an art form. Horner discovers Eddie Adams, a hot young talent working as a busboy in a nightclub, and welcomes him into the extended family of movie-makers, misfits and hangers-on that are always around. Adams' rise from nobody to a celebrity adult entertainer is meteoric, and soon the whole world seems to know his porn alter ego, \"Dirk Diggler\". Now, when disco and drugs are in vogue, fashion is in flux and the party never seems to stop, Adams' dreams of turning sex into stardom are about to collide with cold, hard reality.", "poster_path": "/gTq6MPt7SeMiJ2miHeMoNEZTz4p.jpg", "release_date": "1997-10-07", "title": "Boogie Nights", "video": false, "vote_average": 7.6, "vote_count": 1659, "popularity": 21.748}, {"id": 249397, "video": false, "vote_count": 1666, "vote_average": 6.7, "title": "Nymphomaniac: Vol. II", "release_date": "2013-12-25", "original_language": "en", "original_title": "Nymphomaniac: Vol. II", "genre_ids": [18, 9648], "backdrop_path": "/chloasXdurCYMk0Oa11665jFCQl.jpg", "adult": false, "overview": "The continuation of Joe's sexually dictated life delves into the darker aspects of her adult life and what led to her being in Seligman's care.", "poster_path": "/2FBFiDhx3tGe8PG4A5iuCbeIJ4s.jpg", "popularity": 19.796}], "total_pages": 1396, "total_results": 27914}, "recommendations": {"page": 1, "results": [{"adult": false, "backdrop_path": null, "genre_ids": [28, 18, 53], "id": 47260, "original_language": "en", "original_title": "Caught", "overview": "A middle-aged couple has a drifter enter their lives. The fish-store owners find that the mysterious young man awakens the couple in ways they didn't expect. Things get tense when the drifter begins an affair with the woman of the house.", "poster_path": "/1UXbJIszOEalpFY0BKkRn1cRv66.jpg", "release_date": "1996-01-24", "title": "Caught", "video": false, "vote_average": 6.2, "vote_count": 8, "popularity": 6.849}, {"adult": false, "backdrop_path": null, "genre_ids": [18], "id": 107285, "original_language": "en", "original_title": "Anna", "overview": "Czech refugee Krystyna travels to New York in search of her actress idol and fellow expatriate, Anna. After her own arrival in the Big Apple, Anna finds that celebrity often doesn't travel well, and she must go through a battery of humiliating auditions to try and get work in her adopted land. But when Krystyna and Anna finally meet, they provide a support structure for each other.", "poster_path": "/6CJaiXo2DlX8mEVSwO7PsKpksqQ.jpg", "release_date": "1987-11-28", "title": "Anna", "video": false, "vote_average": 6.0, "vote_count": 6, "popularity": 2.955}, {"id": 63945, "video": false, "vote_count": 13, "vote_average": 5.8, "title": "Bliss", "release_date": "1997-04-14", "original_language": "en", "original_title": "Bliss", "genre_ids": [18, 10749], "backdrop_path": "/5LKtRtDcPxx7Pp7309E8v7w4uDF.jpg", "adult": false, "overview": "Joseph and Maria are married for six months and Maria still has never had an orgasm with her husband. They begin to visit mysterious doctor Baltazar who teaches them how to reach ecstasy in sex.", "poster_path": "/jNlOtRzKZaA2pprSNyeVntP1eSJ.jpg", "popularity": 4.669}, {"adult": false, "backdrop_path": "/j5JsQZneK45KXIcdwmpRRPFQP3H.jpg", "genre_ids": [27, 18, 10749, 53], "id": 80047, "original_language": "es", "original_title": "Remando al viento", "overview": "In the summer of 1816, Percy Shelley, his mistress Mary, and her stepsister Claire visit Lord Byron at Lake Geneva. Byron challenges each to write a horror story, and Mary begins her novel, Frankenstein. She imagines the monster becoming real, and for the next six years, as tragedy befalls those around her, she believes the personification of her imagination is the cause. Against this backdrop, Claire has Byron's baby then is estranged from him and barred from her daughter. Byron and Percy continue their friendship, the one self-centered and decadent, the other wildly idealistic. The Shelleys take up residence near Pisa.", "poster_path": "/t1FqqT8fP1LTGBUNd95Y2nmESQl.jpg", "release_date": "1988-01-01", "title": "Rowing with the Wind", "video": false, "vote_average": 4.5, "vote_count": 6, "popularity": 2.464}], "total_pages": 1, "total_results": 4}, "credits": {"cast": [{"cast_id": 3, "character": "Orazio Gentileschi", "credit_id": "52fe47009251416c91066f49", "gender": 2, "id": 12270, "name": "Michel Serrault", "order": 0, "profile_path": "/pm3TvMrWMwU7TvVfiR7zPBAFwEp.jpg"}, {"cast_id": 2, "character": "Artemisia Gentileschi", "credit_id": "52fe47009251416c91066f45", "gender": 1, "id": 21965, "name": "Valentina Cervi", "order": 1, "profile_path": "/6esZeabxIXAlvX7AnXQSbmbTdkN.jpg"}, {"cast_id": 27, "character": "Agostino Tassi", "credit_id": "53e1dd430e0a262b8f000614", "gender": 2, "id": 48791, "name": "Miki Manojlovi\u0107", "order": 2, "profile_path": "/mIQ7f8wQ18AAGkrR7qMIsurosDM.jpg"}, {"cast_id": 5, "character": "Cosimo Quorli", "credit_id": "52fe47009251416c91066f51", "gender": 2, "id": 72246, "name": "Luca Zingaretti", "order": 3, "profile_path": "/yHvitzNxavhVt6uK0Vf4ktZDAhh.jpg"}, {"cast_id": 6, "character": "Costanza", "credit_id": "52fe47009251416c91066f55", "gender": 1, "id": 19117, "name": "Emmanuelle Devos", "order": 4, "profile_path": "/4dmA6XhsqPAfcpIR5NXxwHSlhB4.jpg"}, {"cast_id": 7, "character": "Roberto", "credit_id": "52fe47009251416c91066f59", "gender": 2, "id": 9005, "name": "Fr\u00e9d\u00e9ric Pierrot", "order": 5, "profile_path": null}, {"cast_id": 8, "character": "il giudice", "credit_id": "52fe47009251416c91066f5d", "gender": 2, "id": 18814, "name": "Maurice Garrel", "order": 6, "profile_path": "/2DOx3uJiR7guXOeEkC2Dhge1ETu.jpg"}, {"cast_id": 9, "character": "Tuzia", "credit_id": "52fe47009251416c91066f61", "gender": 1, "id": 20081, "name": "Brigitte Catillon", "order": 7, "profile_path": "/kT5Rw1UjJqaRC63mQlCkRonwVFV.jpg"}, {"cast_id": 10, "character": "Fulvio", "credit_id": "52fe47009251416c91066f65", "gender": 0, "id": 72592, "name": "Yann Tr\u00e9gou\u00ebt", "order": 8, "profile_path": "/xag61GRROGkeRZhrfCzQmjg9zl5.jpg"}, {"cast_id": 30, "character": "l'avvocato", "credit_id": "579e2378c3a3683cfd00102d", "gender": 2, "id": 40304, "name": "Jacques Nolot", "order": 9, "profile_path": "/xnbNdfSWDKBaYH1WJxSNkMd5m3B.jpg"}, {"cast_id": 12, "character": "Marisa", "credit_id": "52fe47009251416c91066f6d", "gender": 1, "id": 223880, "name": "Silvia De Santis", "order": 10, "profile_path": "/yJvSdSWFF49Msdzx91E1E5Syozi.jpg"}, {"cast_id": 13, "character": "Nicolo", "credit_id": "52fe47009251416c91066f71", "gender": 0, "id": 35104, "name": "Renato Carpentieri", "order": 11, "profile_path": "/f6X1UbR80sslqmcjfkZ7tVm0BXk.jpg"}, {"cast_id": 14, "character": "sorella di Tassi", "credit_id": "52fe47009251416c91066f75", "gender": 1, "id": 19363, "name": "Dominique Reymond", "order": 12, "profile_path": "/eoSpSmQwVCvFZnXEfvS2DujskiW.jpg"}, {"cast_id": 28, "character": "Moglie del ricco mercante", "credit_id": "56c6f3679251411fdd0017d9", "gender": 1, "id": 36513, "name": "Liliane Rov\u00e8re", "order": 13, "profile_path": "/rJAyCp6bgQqmSHjYJka5gFwGXgE.jpg"}, {"cast_id": 16, "character": "The Duke", "credit_id": "52fe47009251416c91066f7d", "gender": 0, "id": 145766, "name": "Alain Ollivier", "order": 14, "profile_path": null}, {"cast_id": 31, "character": "Direttore dell'Accademia", "credit_id": "59fc4fc492514113bb028466", "gender": 0, "id": 34994, "name": "Patrick Lancelot", "order": 15, "profile_path": null}, {"cast_id": 32, "character": "Studente dell'Accademia", "credit_id": "59fc4fdfc3a3681abb0287e3", "gender": 0, "id": 24616, "name": "Rinaldo Rocco", "order": 16, "profile_path": "/2tDbrajMov5drWE9zaFlh3YjjNS.jpg"}, {"cast_id": 33, "character": "Studente dell'Accademia", "credit_id": "59fc4fed92514113bb02849d", "gender": 0, "id": 538995, "name": "Enrico Salimbeni", "order": 17, "profile_path": "/pMLS45EQ5eaYSPtpDJWhJisZsyx.jpg"}, {"cast_id": 34, "character": "Madre Superiora", "credit_id": "59fc500692514113bb0284c5", "gender": 0, "id": 1658793, "name": "Catherine Zago", "order": 18, "profile_path": null}, {"cast_id": 35, "character": "Assistente di Orazio", "credit_id": "59fc5014c3a3681acd028a14", "gender": 2, "id": 1375648, "name": "Lorenzo Lavia", "order": 19, "profile_path": "/dw94Rlev3la6TTI6MhVXJXUdaWC.jpg"}, {"cast_id": 36, "character": "Assistente di Tassi", "credit_id": "59fc5026c3a3681abb028823", "gender": 2, "id": 20667, "name": "Sami Bouajila", "order": 20, "profile_path": "/yhO2glkC0jqzPAWjJePHdMByRP3.jpg"}, {"cast_id": 37, "character": "Assistente di Tassi", "credit_id": "59fc503bc3a3681a1b02a7aa", "gender": 0, "id": 1916689, "name": "Edoardo Ruiz", "order": 21, "profile_path": null}, {"cast_id": 38, "character": "Assistente di Tassi", "credit_id": "59fc504792514113bf028459", "gender": 0, "id": 1916690, "name": "Aaron De Luca", "order": 22, "profile_path": null}, {"cast_id": 39, "character": "", "credit_id": "59fc5056c3a3681aa502b6f9", "gender": 2, "id": 92094, "name": "Paolo De Vita", "order": 23, "profile_path": "/9zRU7Ey6KOwXfJnlxVnMeMCdY27.jpg"}, {"cast_id": 40, "character": "Duke's Servant", "credit_id": "5d9558f9ea4263002294074b", "gender": 0, "id": 1132234, "name": "Guido Roncalli", "order": 24, "profile_path": "/vEodkU57t78MCr0HSCmmkF60a6V.jpg"}], "crew": [{"credit_id": "5732197a92514101ef000018", "department": "Camera", "gender": 2, "id": 21655, "job": "Director of Photography", "name": "Beno\u00eet Delhomme", "profile_path": "/qa2h6tyIG4iIc700VN7acYnhU4v.jpg"}, {"credit_id": "52fe47009251416c91066f9b", "department": "Production", "gender": 0, "id": 49739, "job": "Producer", "name": "Patrice Haddad", "profile_path": null}, {"credit_id": "52fe47009251416c91066fad", "department": "Editing", "gender": 2, "id": 50026, "job": "Editor", "name": "Guy Lecorne", "profile_path": null}, {"credit_id": "52fe47009251416c91066f89", "department": "Writing", "gender": 0, "id": 78725, "job": "Screenplay", "name": "Agn\u00e8s Merlet", "profile_path": null}, {"credit_id": "52fe47009251416c91066f41", "department": "Directing", "gender": 0, "id": 78725, "job": "Director", "name": "Agn\u00e8s Merlet", "profile_path": null}, {"credit_id": "52fe47009251416c91066f8f", "department": "Writing", "gender": 0, "id": 78725, "job": "Story", "name": "Agn\u00e8s Merlet", "profile_path": null}, {"credit_id": "52fe47009251416c91066fa1", "department": "Sound", "gender": 0, "id": 565140, "job": "Music", "name": "Krishna Levy", "profile_path": null}, {"credit_id": "52fe47009251416c91066f83", "department": "Writing", "gender": 2, "id": 942862, "job": "Writer", "name": "Patrick Amos", "profile_path": null}, {"credit_id": "52fe47009251416c91066fb3", "department": "Editing", "gender": 0, "id": 1144793, "job": "Editor", "name": "Daniele Sordoni", "profile_path": null}, {"credit_id": "52fe47009251416c91066f95", "department": "Writing", "gender": 1, "id": 1277973, "job": "Screenplay", "name": "Christine Miller", "profile_path": null}, {"credit_id": "52fe47009251416c91066fb9", "department": "Writing", "gender": 1, "id": 1277973, "job": "Story", "name": "Christine Miller", "profile_path": null}]}}