{"adult": false, "backdrop_path": "/45SU52Bo3hMAsnHAMftcKdQcDnp.jpg", "belongs_to_collection": null, "budget": 0, "genres": [{"id": 10770, "name": "TV Movie"}, {"id": 53, "name": "Thriller"}], "homepage": "http://www.mylifetime.com/movies/the-cheerleader-murders", "id": 392418, "imdb_id": "tt4896904", "original_language": "en", "original_title": "The Cheerleader Murders", "overview": "A high school student whose father and sister were recently murdered begins her own investigation after two of her fellow cheerleaders are kidnapped. She sets out on a rescue mission, but the killer may already be hot on her trail.", "popularity": 4.219, "poster_path": "/8mh2UqVyivOHlWVH4w8p4soa1Ix.jpg", "production_companies": [{"id": 6679, "logo_path": null, "name": "MarVista Entertainment", "origin_country": "US"}], "production_countries": [{"iso_3166_1": "US", "name": "United States of America"}], "release_date": "2016-04-09", "revenue": 0, "runtime": 84, "spoken_languages": [{"iso_639_1": "en", "name": "English"}], "status": "Released", "tagline": "", "title": "The Cheerleader Murders", "video": false, "vote_average": 6.1, "vote_count": 7, "keywords": {"keywords": [{"id": 2920, "name": "cheerleader"}]}, "similar": {"page": 1, "results": [{"adult": false, "backdrop_path": "/63OmgMeYb2T7azonwtY1T0UpRGc.jpg", "genre_ids": [35], "id": 1588, "original_language": "en", "original_title": "Bring It On", "overview": "The Toro cheerleading squad from Rancho Carne High School in San Diego has got spirit, spunk, sass and a killer routine that's sure to land them the national championship trophy for the sixth year in a row. But for newly-elected team captain, the Toros' road to total cheer glory takes a shady turn when she discovers that their perfectly-choreographed routines were in fact stolen.", "poster_path": "/yg0O6eGgrumDZ1bht3pqMjNaWon.jpg", "release_date": "2000-08-25", "title": "Bring It On", "video": false, "vote_average": 6.0, "vote_count": 1020, "popularity": 10.167}, {"id": 16723, "video": false, "vote_count": 125, "vote_average": 6.0, "title": "Sugar & Spice", "release_date": "2001-01-24", "original_language": "en", "original_title": "Sugar & Spice", "genre_ids": [35, 80], "backdrop_path": "/r59FMo7NKvifFqwWV0eAxLiue2v.jpg", "adult": false, "overview": "When Jack and Diane find themselves in an unexpected adult situation, the A-Squad comes to their rescue. In order to help their friend Diane, the A-Squad goes where no cheerleader has gone before: taking on a little after-school project known as bank robbery. But the A-Squad does things their way -- with sugar and spice -- forever changing their friendship, their future and the nation's notion of teen spirit.", "poster_path": "/hXa5ArW1Llu4SOqPWRQ7dzCDyOH.jpg", "popularity": 11.371}, {"id": 483980, "video": false, "vote_count": 192, "vote_average": 7.3, "title": "Z-O-M-B-I-E-S", "release_date": "2018-02-16", "original_language": "en", "original_title": "Z-O-M-B-I-E-S", "genre_ids": [35, 14, 10402, 10749, 10770], "backdrop_path": "/ArccbTKFk8fMp5JnHuxoW8xU0iJ.jpg", "adult": false, "overview": "Two star-crossed freshmen \u2013 a zombie, Zed and a cheerleader, Addison \u2013 each outsiders in their unique ways, befriend each other and work together to show their high school and the Seabrook community what they can achieve when they embrace their differences.", "poster_path": "/6S9O5U7Ietqh6zTtZhGbhbA3Pze.jpg", "popularity": 12.225}, {"id": 9472, "video": false, "vote_count": 2070, "vote_average": 6.2, "title": "DodgeBall: A True Underdog Story", "release_date": "2004-06-18", "original_language": "en", "original_title": "DodgeBall: A True Underdog Story", "genre_ids": [35], "backdrop_path": "/yM4k71Y6bEuVl7EX46OJ2fvyFHV.jpg", "adult": false, "overview": "When megalomaniacal White Goodman, the owner of a trendy, high-end fitness center, makes a move to take over the struggling local gym run by happy-go-lucky Pete La Fleur, there's only one way for La Fleur to fight back: dodgeball. Aided by a dodgeball guru and Goodman's attorney, La Fleur and his rag-tag team of underdogs launch a knock-down, drag-out battle in which the winner takes all.", "poster_path": "/c7biFO9cEl5hOSvZRMuuJohH5f3.jpg", "popularity": 21.78}, {"adult": false, "backdrop_path": "/kYTJ7DTFr48ZqXw2cey7siRLcH7.jpg", "genre_ids": [35, 18], "id": 15022, "original_language": "en", "original_title": "Dirty Deeds", "overview": "An American Pie-like teen comedy in which a high school senior tries to become the first student in years to complete the Dirty Deeds, an outrageous series of challenges that must be completed by the Homecoming banquet at 9 a.m.", "poster_path": "/hpkibyAmTk4yBtsCpABO8HwyWo3.jpg", "release_date": "2005-08-26", "title": "Dirty Deeds", "video": false, "vote_average": 5.6, "vote_count": 61, "popularity": 7.025}, {"id": 325189, "video": false, "vote_count": 338, "vote_average": 6.5, "title": "Teen Beach 2", "release_date": "2015-06-26", "original_language": "en", "original_title": "Teen Beach 2", "genre_ids": [35, 14, 10751, 10770], "backdrop_path": "/x3cQd5rruj6jySg7dIHuNXT8REX.jpg", "adult": false, "overview": "When characters from the movie musical \u201cWet Side Story\u201d get stuck in the real world, teens Brady and Mack must find a way to return them home.", "poster_path": "/4A5Ecrvs6P8Yipjn4Xl2WYgu7Gm.jpg", "popularity": 24.718}, {"adult": false, "backdrop_path": "/bxPw6s61bG5Of19lp1E00n0dDWW.jpg", "genre_ids": [35, 18, 10751, 10402, 10770], "id": 10947, "original_language": "en", "original_title": "High School Musical", "overview": "Troy, the popular captain of the basketball team, and Gabriella, the brainy and beautiful member of the academic club, break all the rules of East High society when they secretly audition for the leads in the school's musical. As they reach for the stars and follow their dreams, everyone learns about acceptance, teamwork, and being yourself.", "poster_path": "/xMRBlTMMKDRJuK4IhwG5idrGHaS.jpg", "release_date": "2006-01-20", "title": "High School Musical", "video": false, "vote_average": 6.5, "vote_count": 2983, "popularity": 14.165}, {"id": 617, "video": false, "vote_count": 856, "vote_average": 6.3, "title": "Wild Things", "release_date": "1998-03-20", "original_language": "en", "original_title": "Wild Things", "genre_ids": [18, 9648, 53], "backdrop_path": "/wvMSGevzwrJAmK3xXYvse9goQgV.jpg", "adult": false, "overview": "When teen-socialite Kelly Van Ryan and troubled bad girl Suzie Toller accuse guidance counselor Sam Lombardo of rape, he's suspended by the school, rejected by the town, and fighting to get his life back. One cop suspects conspiracy, but nothing is what it seems...", "poster_path": "/dI9iYo1cL81yzJkBVyNGipjSvy0.jpg", "popularity": 15.963}, {"id": 448095, "video": false, "vote_count": 308, "vote_average": 6.8, "title": "I Still See You", "release_date": "2018-09-27", "original_language": "en", "original_title": "I Still See You", "genre_ids": [14, 53], "backdrop_path": "/7rqpB7coXaNvTVMWb5vL8qU0pBp.jpg", "adult": false, "overview": "A spellbinding and romantic supernatural thriller. Ten years after an apocalyptic event left the world haunted by ghosts, Roni receives a threatening message from beyond the grave. Joining forces with a mysterious classmate, Kirk, Roni descends into a shadow world that blurs the bounds of the living and the dead-and begins a desperate race against time to stop a cunning killer.", "poster_path": "/9fqzZs922V8OmwgO11Eqclof2mQ.jpg", "popularity": 16.612}, {"adult": false, "backdrop_path": "/sEx5TxWlWynwZrqqXdPKbKJXQHl.jpg", "genre_ids": [28, 35, 27], "id": 10206, "original_language": "en", "original_title": "Buffy the Vampire Slayer", "overview": "Blonde, bouncy Buffy is your typical high school cheerleader: her goal is to \"marry Christian Slater and die,\" and nothing gets in her way when it's time to shop! But all that changes when a strange man informs her she's been chosen by fate to kill vampires.  With the help of a romantic rebel, Buffy is soon spending school nights protecting L.A. from Lothos the Vampire King, his sidekick, Lefty, and their determined gang of bloodsuckers. It's everything you'd expect from a teen queen in the Valley.", "poster_path": "/r0feHChsxNVMpqwT6Wk9GIJxs2n.jpg", "release_date": "1992-07-24", "title": "Buffy the Vampire Slayer", "video": false, "vote_average": 5.5, "vote_count": 406, "popularity": 10.321}, {"id": 15037, "video": false, "vote_count": 245, "vote_average": 6.2, "title": "Can't Hardly Wait", "release_date": "1998-06-12", "original_language": "en", "original_title": "Can't Hardly Wait", "genre_ids": [35, 18, 10749], "backdrop_path": "/4SBMpt49oW0GV5Jnqev7nUmUFZV.jpg", "adult": false, "overview": "It's graduation day at Huntington Hills High, and you know what that means - time to party. And not just any party, either. This one will be a night to remember, as the nerds become studs, the jocks are humiliated, and freshman crushes blossom into grown-up romance.", "poster_path": "/4lNoWkbuqJFZC19geEpnEbGBxNU.jpg", "popularity": 15.311}, {"id": 18172, "video": false, "vote_count": 125, "vote_average": 5.8, "title": "All the Right Moves", "release_date": "1983-10-21", "original_language": "en", "original_title": "All the Right Moves", "genre_ids": [18, 10749], "backdrop_path": "/gqkwTIfUIIJKi8LRoZt4uJbuAYO.jpg", "adult": false, "overview": "Sensitive study of a headstrong high school football star who dreams of getting out of his small Western Pennsylvania steel town with a football scholarship. His equally ambitious coach aims at a college position, resulting in a clash which could crush the player's dreams", "poster_path": "/kSrtxWweaqce1zuzF2rw7uYFwRB.jpg", "popularity": 7.267}, {"adult": false, "backdrop_path": "/20IgqkdFw5kuItqDCJtidSESP0t.jpg", "genre_ids": [27, 18], "id": 10066, "original_language": "en", "original_title": "House of Wax", "overview": "A group of unwitting teens are stranded near a strange wax museum and soon must fight to survive and keep from becoming the next exhibit.", "poster_path": "/uM1RebQywM5PPYsauayefpXGxVk.jpg", "release_date": "2005-04-30", "title": "House of Wax", "video": false, "vote_average": 5.7, "vote_count": 1532, "popularity": 16.398}, {"id": 248574, "video": false, "vote_count": 645, "vote_average": 5.7, "title": "Barely Lethal", "release_date": "2015-04-30", "original_language": "en", "original_title": "Barely Lethal", "genre_ids": [28, 12, 35], "backdrop_path": "/scoMZVgdqBM7vqZaEbhQXJd7jOL.jpg", "adult": false, "overview": "A 16-year-old international assassin yearning for a \"normal\" adolescence fakes her own death and enrolls as a senior in a suburban high school. She quickly learns that being popular can be more painful than getting water-boarded.", "poster_path": "/nJm0vGJVyELlQEzHRq22vi2JHbW.jpg", "popularity": 18.241}, {"adult": false, "backdrop_path": "/qVjKZMB0IdOc2JlwiiGsuKTvTJs.jpg", "genre_ids": [18], "id": 22881, "original_language": "en", "original_title": "The Blind Side", "overview": "The story of Michael Oher, a homeless and traumatized boy who became an All American football player and first round NFL draft pick with the help of a caring woman and her family", "poster_path": "/wEGFSgPebLk6g1ngKsJ6a46PYLV.jpg", "release_date": "2009-11-20", "title": "The Blind Side", "video": false, "vote_average": 7.5, "vote_count": 3212, "popularity": 42.202}, {"id": 11887, "video": false, "vote_count": 2347, "vote_average": 6.5, "title": "High School Musical 3: Senior Year", "release_date": "2008-10-11", "original_language": "en", "original_title": "High School Musical 3: Senior Year", "genre_ids": [35, 18, 10402, 10749, 10751], "backdrop_path": "/daSGxGZL2nNjGZKkAF5ain3lmOx.jpg", "adult": false, "overview": "It's almost graduation day for high school seniors Troy, Gabriella, Sharpay, Chad, Ryan and Taylor \u2015 and the thought of heading off in separate directions after leaving East High has these Wildcats thinking they need to do something they'll remember forever. Together with the rest of the Wildcats, they stage a spring musical reflecting their hopes and fears about the future and their unforgettable experiences growing up together. But with graduation approaching and college plans in question, what will become of the dreams, romances, and friendships of East High's senior Wildcats?", "poster_path": "/ewZpH2QIfPQ0VIn9lPf7MHbLbl4.jpg", "popularity": 14.748}, {"id": 14, "video": false, "vote_count": 7295, "vote_average": 8.0, "title": "American Beauty", "release_date": "1999-09-15", "original_language": "en", "original_title": "American Beauty", "genre_ids": [18], "backdrop_path": "/z5J18ByLeOZ68iORfMXmxeFuwyL.jpg", "adult": false, "overview": "Lester Burnham, a depressed suburban father in a mid-life crisis, decides to turn his hectic life around after developing an infatuation with his daughter's attractive friend.", "poster_path": "/or1MP8BZIAjqWYxPdPX724ydKar.jpg", "popularity": 28.789}, {"id": 466282, "video": false, "vote_count": 5270, "vote_average": 7.9, "title": "To All the Boys I've Loved Before", "release_date": "2018-08-16", "original_language": "en", "original_title": "To All the Boys I've Loved Before", "genre_ids": [35, 10749], "backdrop_path": "/uZTtVdOEIwPA6vwVRI3217DoPM.jpg", "adult": false, "overview": "Lara Jean's love life goes from imaginary to out of control when her secret letters to every boy she's ever fallen for are mysteriously mailed out.", "poster_path": "/hKHZhUbIyUAjcSrqJThFGYIR6kI.jpg", "popularity": 35.427}, {"id": 15144, "video": false, "vote_count": 1221, "vote_average": 6.8, "title": "Sixteen Candles", "release_date": "1984-05-04", "original_language": "en", "original_title": "Sixteen Candles", "genre_ids": [35, 10749], "backdrop_path": "/xCIgY4mUmO4tbDVlntym9PdZ9H8.jpg", "adult": false, "overview": "A teenage girl deals with her parents forgetting her birthday and a crush on her high school's heartthrob.", "poster_path": "/rzTrRQg5ek47Yl0Vfenc69r9gOd.jpg", "popularity": 29.228}, {"id": 10014, "video": false, "vote_count": 874, "vote_average": 5.8, "title": "A Nightmare on Elm Street Part 2: Freddy's Revenge", "release_date": "1985-10-31", "original_language": "en", "original_title": "A Nightmare on Elm Street Part 2: Freddy's Revenge", "genre_ids": [27], "backdrop_path": "/tJTrNDt1242xe4zlatlZfDMvWjg.jpg", "adult": false, "overview": "A new family moves into the house on Elm Street, and before long, the kids are again having nightmares about deceased child murderer Freddy Krueger. This time, Freddy attempts to possess a teenage boy to cause havoc in the real world, and can only be overcome if the boy's sweetheart can master her fear.", "poster_path": "/seEMZxo6bhHWbWPNcBQfsMAk39F.jpg", "popularity": 16.661}], "total_pages": 47, "total_results": 925}, "recommendations": {"page": 1, "results": [], "total_pages": 1, "total_results": 0}, "credits": {"cast": [{"cast_id": 2, "character": "Dee", "credit_id": "570c1a48c3a36815b9000030", "gender": 1, "id": 1435947, "name": "Amanda Leighton", "order": 1, "profile_path": "/h5d07tlCEt7PYSDYYXpzfpwb62M.jpg"}, {"cast_id": 3, "character": "Ellie", "credit_id": "570c1a599251412bfc000024", "gender": 1, "id": 112473, "name": "Samantha Boscarino", "order": 2, "profile_path": "/jwuKwTNtuMGxSa9N5yh4TxfnoJC.jpg"}, {"cast_id": 4, "character": "Morgan", "credit_id": "570c1a6dc3a36815c6000030", "gender": 1, "id": 1184205, "name": "Hannah Kasulka", "order": 3, "profile_path": "/kLC3D5kPs697cUiYLZ12Jv47d2F.jpg"}, {"cast_id": 5, "character": "Nicholas", "credit_id": "570c1a7a9251412bf300002f", "gender": 0, "id": 1336393, "name": "Austin Lyon", "order": 4, "profile_path": "/qOfBLPPlUPCG4Q9l0Zg3s7Dvobf.jpg"}, {"cast_id": 6, "character": "Teen Mourner", "credit_id": "5776ac2a9251410394001ab2", "gender": 0, "id": 1643934, "name": "Irene Chiang", "order": 5, "profile_path": null}, {"cast_id": 7, "character": "Ben", "credit_id": "5776ac3c92514102e0001b61", "gender": 0, "id": 1446868, "name": "Devin Crittenden", "order": 6, "profile_path": "/w3y9fScg2WCpMU3Q5tL2Xe7PIgn.jpg"}, {"cast_id": 8, "character": "Agent Ramon Martinez", "credit_id": "5776ac57c3a3686af6001f09", "gender": 2, "id": 1411632, "name": "David DeSantos", "order": 7, "profile_path": "/9kItlGAGOPDtKEha5KrmUJ9fNDO.jpg"}, {"cast_id": 9, "character": "Hank", "credit_id": "5776ac6dc3a3687c0600196f", "gender": 2, "id": 1015836, "name": "Eric Etebari", "order": 8, "profile_path": "/60JfByfxidkx9YUI01y76njwAoB.jpg"}, {"cast_id": 10, "character": "Chief Patterson", "credit_id": "5776ac8192514103880018ac", "gender": 2, "id": 11915, "name": "Nigel Gibbs", "order": 9, "profile_path": "/6AE4p72zOtpR9Q385eiwrPwGPaj.jpg"}, {"cast_id": 11, "character": "Prom Queen", "credit_id": "5776ac8ec3a36855a4000730", "gender": 1, "id": 1643935, "name": "Nancy Degnan", "order": 10, "profile_path": "/nCc9gUaPPqKtDO4HFSKMPfP6qmg.jpg"}, {"cast_id": 12, "character": "Teen Mourner", "credit_id": "5776aca5c3a3685c20002298", "gender": 0, "id": 1535402, "name": "Saige Donaldson", "order": 11, "profile_path": null}, {"cast_id": 13, "character": "Mrs. Fuller", "credit_id": "5776acb8c3a3685c200022a3", "gender": 1, "id": 30369, "name": "Michelle Joyner", "order": 12, "profile_path": "/qDKVjwLBHzPY5OY5mwQG25nUIMI.jpg"}, {"cast_id": 14, "character": "Mrs. Taylor", "credit_id": "5776acf3c3a368434f000a04", "gender": 0, "id": 1311680, "name": "Annie Monroe", "order": 13, "profile_path": "/5gqsbz6c7bS4YO71SuaL2ixno1e.jpg"}, {"cast_id": 15, "character": "Keith", "credit_id": "5776ad0ac3a36855a4000786", "gender": 2, "id": 1225592, "name": "Jim Pirri", "order": 14, "profile_path": "/xFLEwCYwC90HN9JswdhjHXXXhbF.jpg"}, {"cast_id": 16, "character": "Jane", "credit_id": "5776ad20925141035b001884", "gender": 1, "id": 83536, "name": "Tessie Santiago", "order": 15, "profile_path": "/rlXGlb4UeVynRutjs0DCNfftet3.jpg"}, {"cast_id": 17, "character": "Don", "credit_id": "5776ad32925141035b001897", "gender": 2, "id": 74293, "name": "David Rees Snell", "order": 16, "profile_path": "/v54QB3DP4ciAOuXPAiMFHYw6a4U.jpg"}, {"cast_id": 18, "character": "Coach Reeves", "credit_id": "5776ad519251415dc8000002", "gender": 2, "id": 989878, "name": "Henderson Wade", "order": 17, "profile_path": "/s3tNV5uSmykWz0EQHgJCYNtie7c.jpg"}, {"cast_id": 20, "character": "Stacy", "credit_id": "5776ad7892514174d2001ff0", "gender": 1, "id": 1456334, "name": "Chelsea Zhang", "order": 19, "profile_path": "/vIXZwRDV9AsQ2KSpBPnIU2baRu0.jpg"}, {"cast_id": 21, "character": "Liz", "credit_id": "5ad854fd9251413cc400e16e", "gender": 1, "id": 156925, "name": "Sydney Walsh", "order": 20, "profile_path": "/vHYKW1QgoL0wGP6YktK7jZnq0t.jpg"}], "crew": [{"credit_id": "570c19ea9251412be9000023", "department": "Directing", "gender": 2, "id": 44683, "job": "Director", "name": "David Jackson", "profile_path": null}, {"credit_id": "570c1a03c3a36815ca000022", "department": "Writing", "gender": 0, "id": 1604451, "job": "Writer", "name": "Matt Young", "profile_path": null}]}}