{"adult": false, "backdrop_path": "/w4aBHQVPraDa8p4kU2jyvjtY1K5.jpg", "belongs_to_collection": {"id": 425344, "name": "Liberation Collection", "poster_path": "/d5S1swlcKQXwJlUhtnm0jM32Ykd.jpg", "backdrop_path": "/pKdrunlz31ryq0teZlUkEKMPQPy.jpg"}, "budget": 0, "genres": [{"id": 10752, "name": "War"}], "homepage": null, "id": 392615, "imdb_id": "tt5300244", "original_language": "ru", "original_title": "\u041e\u0441\u0432\u043e\u0431\u043e\u0436\u0434\u0435\u043d\u0438\u0435 2: \u041f\u0440\u043e\u0440\u044b\u0432", "overview": "A grandiose military film epic, which does not know analogues in world cinema: the history of the Great Patriotic War from the Battle of the Kursk Bulge to the installation of the Banner of Victory over the Reichstag - \"Liberation\".", "popularity": 1.94, "poster_path": "/dKtmdJQb50YbfUiZHzG6Y4adZy3.jpg", "production_companies": [{"id": 1216, "logo_path": null, "name": "Dino de Laurentiis Cinematografica", "origin_country": "IT"}, {"id": 5940, "logo_path": null, "name": "Avala Film", "origin_country": "RS"}, {"id": 94423, "logo_path": null, "name": "Zesp\u00f3l Filmowy \"Start\"", "origin_country": ""}, {"id": 344, "logo_path": "/xenuUvcunUNpbaDOYGhWZERaym7.png", "name": "Mosfilm", "origin_country": "RU"}, {"id": 602, "logo_path": "/pVsXRFbYVDe5BhsATCAh1rt5F0k.png", "name": "DEFA", "origin_country": "DE"}], "production_countries": [{"iso_3166_1": "XG", "name": "East Germany"}, {"iso_3166_1": "IT", "name": "Italy"}, {"iso_3166_1": "PL", "name": "Poland"}, {"iso_3166_1": "RU", "name": "Russia"}, {"iso_3166_1": "RS", "name": "Serbia"}, {"iso_3166_1": "SU", "name": "Soviet Union"}], "release_date": "1970-05-08", "revenue": 0, "runtime": 87, "spoken_languages": [{"iso_639_1": "ru", "name": "P\u0443\u0441\u0441\u043a\u0438\u0439"}], "status": "Released", "tagline": "", "title": "Liberation: The Break Through", "video": false, "vote_average": 7.0, "vote_count": 1, "keywords": {"keywords": [{"id": 1956, "name": "world war ii"}]}, "similar": {"page": 1, "results": [{"adult": false, "backdrop_path": "/qtD2lFLG5T7L8flbKSEIoSqcslI.jpg", "genre_ids": [18, 10752], "id": 7862, "original_language": "de", "original_title": "Die F\u00e4lscher", "overview": "The story Jewish counterfeiter, Salomon Sorowitsch, coerced into assisting the Nazi operation of the Sachsenhausen concentration camp during World War II.", "poster_path": "/bRQddrgVemZtFdnrPy9AxTpkhpj.jpg", "release_date": "2007-02-09", "title": "The Counterfeiters", "video": false, "vote_average": 7.4, "vote_count": 261, "popularity": 12.463}, {"adult": false, "backdrop_path": "/pKawqrtCBMmxarft7o1LbEynys7.jpg", "genre_ids": [10752, 18, 28], "id": 228150, "original_language": "en", "original_title": "Fury", "overview": "In the last months of World War II, as the Allies make their final push in the European theatre, a battle-hardened U.S. Army sergeant named 'Wardaddy' commands a Sherman tank called 'Fury' and its five-man crew on a deadly mission behind enemy lines. Outnumbered and outgunned, Wardaddy and his men face overwhelming odds in their heroic attempts to strike at the heart of Nazi Germany.", "poster_path": "/fa4PxEPRKWRyjzYje1jM4m30qzd.jpg", "release_date": "2014-10-15", "title": "Fury", "video": false, "vote_average": 7.4, "vote_count": 7302, "popularity": 53.985}, {"id": 424, "video": false, "vote_count": 8988, "vote_average": 8.6, "title": "Schindler's List", "release_date": "1993-11-30", "original_language": "en", "original_title": "Schindler's List", "genre_ids": [18, 36, 10752], "backdrop_path": "/cTNYRUTXkBgPH3wP3kmPUB5U6dA.jpg", "adult": false, "overview": "The true story of how businessman Oskar Schindler saved over a thousand Jewish lives from the Nazis while they worked as slaves in his factory during World War II.", "poster_path": "/yPisjyLweCl1tbgwgtzBCNCBle.jpg", "popularity": 25.457}, {"id": 293982, "video": false, "vote_count": 119, "vote_average": 6.9, "title": "Warsaw 44", "release_date": "2014-07-30", "original_language": "pl", "original_title": "Miasto 44", "genre_ids": [18, 36, 10749, 10752], "backdrop_path": "/wv4kNz9aJPO200vndn5Paczh12K.jpg", "adult": false, "overview": "City of Warsaw, Poland, August 1, 1944. Citizens have experienced inhuman acts of terror and violence during five long years of Nazi occupation. As the Soviet Army relentlessly approaches, the youngest and bravest among them rise up as one and face tyranny fighting street by street, but the price to pay will be high and hard the way to freedom.", "poster_path": "/k9WOOkVur2Gwo93wuiKzJDm2mUK.jpg", "popularity": 7.451}, {"id": 369885, "video": false, "vote_count": 3048, "vote_average": 6.7, "title": "Allied", "release_date": "2016-11-17", "original_language": "en", "original_title": "Allied", "genre_ids": [28, 18, 53, 10749, 10752], "backdrop_path": "/tC0tVH5KQhCwMlddnyA3iWOSuBA.jpg", "adult": false, "overview": "In 1942, an intelligence officer in North Africa encounters a female French Resistance fighter on a deadly mission behind enemy lines. When they reunite in London, their relationship is tested by the pressures of war.", "poster_path": "/nzXzLFTnd0Zb3ExfhOxlQgizgSu.jpg", "popularity": 29.818}, {"id": 11046, "video": false, "vote_count": 434, "vote_average": 7.6, "title": "Where Eagles Dare", "release_date": "1968-12-04", "original_language": "en", "original_title": "Where Eagles Dare", "genre_ids": [28, 12, 18, 36, 10752], "backdrop_path": "/aAFq5jVHV6RZpLcRXATskNBuEbM.jpg", "adult": false, "overview": "World War II is raging, and an American general has been captured and is being held hostage in the Schloss Adler, a Bavarian castle that's nearly impossible to breach. It's up to a group of skilled Allied soldiers to liberate the general before it's too late.", "poster_path": "/991u0tSWGTVXCYkgC6ftaGE4bkQ.jpg", "popularity": 15.171}, {"id": 438799, "video": false, "vote_count": 1395, "vote_average": 6.6, "title": "Overlord", "release_date": "2018-11-01", "original_language": "en", "original_title": "Overlord", "genre_ids": [27, 878, 10752], "backdrop_path": "/sHNC8hjAu4ZKXYhG3cp8ghRZ02B.jpg", "adult": false, "overview": "France, June 1944. On the eve of D-Day, some American paratroopers fall behind enemy lines after their aircraft crashes while on a mission to destroy a radio tower in a small village near the beaches of Normandy. After reaching their target, the surviving paratroopers realise that, in addition to fighting the Nazi troops that patrol the village, they also must fight against something else.", "poster_path": "/l76Rgp32z2UxjULApxGXAPpYdAP.jpg", "popularity": 21.552}, {"id": 11422, "video": false, "vote_count": 133, "vote_average": 6.5, "title": "Midway", "release_date": "1976-06-18", "original_language": "en", "original_title": "Midway", "genre_ids": [28, 18, 36, 10752], "backdrop_path": "/6jeTEV03QLsjkEomKM6XhjoVJch.jpg", "adult": false, "overview": "This war drama depicts the U.S. and Japanese forces in the naval Battle of Midway, which became a turning point for Americans during World War II.", "poster_path": "/dCUVG2po7DsBvnxfe7WGcJsUn9T.jpg", "popularity": 15.349}, {"id": 522162, "video": false, "vote_count": 208, "vote_average": 6.7, "title": "Midway", "release_date": "2019-11-06", "original_language": "en", "original_title": "Midway", "genre_ids": [28, 18, 36, 10752], "backdrop_path": "/xjP88DFPCQ81mbZHXFscyYtGskT.jpg", "adult": false, "overview": "MIDWAY centers on the Battle of Midway, a clash between the American fleet and the Imperial Japanese Navy which marked a pivotal turning point in the Pacific Theater during WWII. The film, based on the real-life events of this heroic feat, tells the story of the leaders and soldiers who used their instincts, fortitude and bravery to overcome the odds.", "poster_path": "/hj8pyoNnynGeJTAbl7jcLZO8Uhx.jpg", "popularity": 61.116}, {"id": 423, "video": false, "vote_count": 4650, "vote_average": 8.3, "title": "The Pianist", "release_date": "2002-09-17", "original_language": "en", "original_title": "The Pianist", "genre_ids": [18, 10752], "backdrop_path": "/xUR95VFV1UTyzS1C8Lj06hi2n2M.jpg", "adult": false, "overview": "The true story of pianist W\u0142adys\u0142aw Szpilman's experiences in Warsaw during the Nazi occupation. When the Jews of the city find themselves forced into a ghetto, Szpilman finds work playing in a caf\u00e9; and when his family is deported in 1942, he stays behind, works for a while as a laborer, and eventually goes into hiding in the ruins of the war-torn city.", "poster_path": "/hfMeo073RxKKjZZV4gSGema1yog.jpg", "popularity": 25.546}, {"adult": false, "backdrop_path": "/sn0HQZthLpYamYb8VSPbEAWT4kF.jpg", "genre_ids": [18, 36, 10752], "id": 8741, "original_language": "en", "original_title": "The Thin Red Line", "overview": "Based on the graphic novel by James Jones, The Thin Red Line tells the story of a group of men, an Army Rifle company called C-for-Charlie, who change, suffer, and ultimately make essential discoveries about themselves during the fierce World War II battle of Guadalcanal. It follows their journey, from the surprise of an unopposed landing, through the bloody and exhausting battles that follow, to the ultimate departure of those who survived. A powerful frontline cast - including Sean Penn, Nick Nolte, Woody Harrelson and George Clooney - explodes into action in this hauntingly realistic view of military and moral chaos in the Pacific during World War II.", "poster_path": "/g4ApW90svay7veAPgxU8OsNMEOB.jpg", "release_date": "1998-12-25", "title": "The Thin Red Line", "video": false, "vote_average": 7.4, "vote_count": 1577, "popularity": 19.345}, {"id": 14574, "video": false, "vote_count": 3974, "vote_average": 7.8, "title": "The Boy in the Striped Pyjamas", "release_date": "2008-05-07", "original_language": "en", "original_title": "The Boy in the Striped Pyjamas", "genre_ids": [18, 10752], "backdrop_path": "/tFyhGkJgV6M5zZAjS8SBVqOjzH4.jpg", "adult": false, "overview": "When his family moves from their home in Berlin to a strange new house in Poland, young Bruno befriends Shmuel, a boy who lives on the other side of the fence where everyone seems to be wearing striped pajamas. Unaware of Shmuel's fate as a Jewish prisoner or the role his own Nazi father plays in his imprisonment, Bruno embarks on a dangerous journey inside the camp's walls.", "poster_path": "/f40R9to84FGF7T5bp3KGB84Lklb.jpg", "popularity": 19.131}, {"adult": false, "backdrop_path": "/hNn5koyqFmAXqOE8SzJBuhUmEZo.jpg", "genre_ids": [35, 10752], "id": 8290, "original_language": "fr", "original_title": "La Grande Vadrouille", "overview": "During World War II, two French civilians and a downed British Bomber Crew set out from Paris to cross the demarcation line between Nazi-occupied Northern France and the South. From there they will be able to escape to England. First, they must avoid German troops - and the consequences of their own blunders.", "poster_path": "/nMh6M8kraLZ7Uu4e8u7Vyb2qwg0.jpg", "release_date": "1966-12-07", "title": "Don't Look Now: We're Being Shot At", "video": false, "vote_average": 7.9, "vote_count": 691, "popularity": 18.855}, {"adult": false, "backdrop_path": "/iMiKWZFILSbzwFWdp30mS1HciT7.jpg", "genre_ids": [28, 18, 10752], "id": 1251, "original_language": "en", "original_title": "Letters from Iwo Jima", "overview": "The story of the battle of Iwo Jima between the United States and Imperial Japan during World War II, as told from the perspective of the Japanese who fought it.", "poster_path": "/nWJJqOryTQOmVXvKUkLcEETUHgT.jpg", "release_date": "2006-12-19", "title": "Letters from Iwo Jima", "video": false, "vote_average": 7.5, "vote_count": 1075, "popularity": 15.861}, {"adult": false, "backdrop_path": "/7QDnuj2T6CCY5wOSnKfYH7cIb6M.jpg", "genre_ids": [18, 35, 10752], "id": 8056, "original_language": "fr", "original_title": "Train de vie", "overview": "In 1941, the inhabitants of a small Jewish village in Central Europe organize a fake deportation train so that they can escape the Nazis and flee to Palestine.", "poster_path": "/anUwgyVrC7kUwN5OliazbC5qBfr.jpg", "release_date": "1998-09-16", "title": "Train of Life", "video": false, "vote_average": 7.5, "vote_count": 150, "popularity": 7.165}, {"adult": false, "backdrop_path": "/4uZZC82s0MDg6Om9AkQGDt4z0Xd.jpg", "genre_ids": [12, 18, 28, 53, 10752], "id": 11372, "original_language": "en", "original_title": "The Eagle Has Landed", "overview": "When the Nazi high command learns in late 1943 that Winston Churchill will be spending time at a country estate in Norfolk, it hatches an audacious scheme to kidnap the prime minister and spirit him to Germany for enforced negotiations with Hitler.", "poster_path": "/o22XW3pFNhUy9jPzBTLipKhUg5t.jpg", "release_date": "1976-12-24", "title": "The Eagle Has Landed", "video": false, "vote_average": 6.5, "vote_count": 149, "popularity": 15.382}, {"adult": false, "backdrop_path": "/plINQ1WJvnhjlxS5GUGCGKqZrMz.jpg", "genre_ids": [36, 99, 10752], "id": 803, "original_language": "fr", "original_title": "Nuit et brouillard", "overview": "Filmmaker Alain Resnais documents the atrocities behind the walls of Hitler's concentration camps.", "poster_path": "/xJc21xCemQirc1rHOJ8QLpUj1jA.jpg", "release_date": "1960-10-20", "title": "Night and Fog", "video": false, "vote_average": 8.3, "vote_count": 209, "popularity": 10.011}, {"id": 1771, "video": false, "vote_count": 14038, "vote_average": 6.9, "title": "Captain America: The First Avenger", "release_date": "2011-07-22", "original_language": "en", "original_title": "Captain America: The First Avenger", "genre_ids": [28, 12, 878], "backdrop_path": "/pmZtj1FKvQqISS6iQbkiLg5TAsr.jpg", "adult": false, "overview": "During World War II, Steve Rogers is a sickly man from Brooklyn who's transformed into super-soldier Captain America to aid in the war effort. Rogers must stop the Red Skull \u2013 Adolf Hitler's ruthless head of weaponry, and the leader of an organization that intends to use a mysterious device of untold powers for world domination.", "poster_path": "/vSNxAJTlD0r02V9sPYpOjqDZXUK.jpg", "popularity": 20.824}, {"id": 637, "video": false, "vote_count": 8083, "vote_average": 8.5, "title": "Life Is Beautiful", "release_date": "1997-12-20", "original_language": "it", "original_title": "La vita \u00e8 bella", "genre_ids": [35, 18], "backdrop_path": "/bORe0eI72D874TMawOOFvqWS6Xe.jpg", "adult": false, "overview": "A touching story of an Italian book seller of Jewish ancestry who lives in his own little fairy tale. His creative and happy life would come to an abrupt halt when his entire family is deported to a concentration camp during World War II. While locked up he tries to convince his son that the whole thing is just a game.", "poster_path": "/f7DImXDebOs148U4uPjI61iDvaK.jpg", "popularity": 23.166}, {"id": 489176, "video": false, "vote_count": 7, "vote_average": 4.9, "title": "The Birdcatcher", "release_date": "2017-03-29", "original_language": "en", "original_title": "The Birdcatcher", "genre_ids": [18, 36, 53, 10752], "backdrop_path": "/Wb6y1b2uOTUDhaBmrP7eqtuSjK.jpg", "adult": false, "overview": "Norway, 1942, during World War II. After being separated from her family, Esther, a young Jewish girl from Trondheim, arrives at an isolated farm where she must assume a new identity in order to survive the Nazi persecution\u2026", "poster_path": "/l9dmHphfmhmIZ4h8zRvhnSvuq0A.jpg", "popularity": 12.176}], "total_pages": 109, "total_results": 2179}, "recommendations": {"page": 1, "results": [], "total_pages": 1, "total_results": 0}, "credits": {"cast": [{"cast_id": 5, "character": "Hitler", "credit_id": "570df40e92514124e6001746", "gender": 0, "id": 22750, "name": "Fritz Diez", "order": 3, "profile_path": "/tLFZnRQNV5k6EnIIhXJthsWxVN2.jpg"}, {"cast_id": 6, "character": "Tsvetaev", "credit_id": "5998e568925141260101a8ce", "gender": 0, "id": 29842, "name": "Nikolay Olyalin", "order": 4, "profile_path": "/6mtZFpkaqKL55bYPJg45wBJ9hLi.jpg"}, {"cast_id": 7, "character": "Zoya", "credit_id": "5998e56e92514153c8010268", "gender": 1, "id": 236854, "name": "Larisa Golubkina", "order": 5, "profile_path": "/fYW7DxQsWH9deP6fTAM4JUc0lHV.jpg"}, {"cast_id": 9, "character": "", "credit_id": "5998e58a92514153c801029d", "gender": 0, "id": 84251, "name": "Ivo Garrani", "order": 7, "profile_path": "/qpDEJjGAeUExV3LbyW2Vjsu2N8r.jpg"}, {"cast_id": 10, "character": "", "credit_id": "5998e592c3a36821c8019dfe", "gender": 2, "id": 86709, "name": "Vladimir Samoylov", "order": 8, "profile_path": "/1ULGKZvPQUPq7pCyUQGxB0on4Fe.jpg"}, {"cast_id": 11, "character": "", "credit_id": "5998e59bc3a368226801aa35", "gender": 0, "id": 28769, "name": "Vsevolod Sanayev", "order": 9, "profile_path": "/o7aBxxmbd1EjTce2XM6122H5XRd.jpg"}, {"cast_id": 14, "character": "", "credit_id": "5998f10b9251413ff60056bb", "gender": 2, "id": 1072410, "name": "Boris Zajdenberg", "order": 12, "profile_path": "/iX6N8ndQFewKjiFhfVByIdsgQeA.jpg"}, {"cast_id": 17, "character": "Gen. Zhukov", "credit_id": "5b57ac1d9251416dde039472", "gender": 2, "id": 70548, "name": "Mikhail Ulyanov", "order": 13, "profile_path": "/xibUJScWW7bYpcdKGyI7EplsBcR.jpg"}, {"cast_id": 26, "character": "Stalin", "credit_id": "5c70d7c2c3a3685a4911b2fc", "gender": 0, "id": 2091635, "name": "Bukhuti Zakariadze", "order": 14, "profile_path": "/h216nH9jEJF3feM6wbavpISvDZB.jpg"}, {"cast_id": 27, "character": "Gen. Konev", "credit_id": "5c70d7cbc3a3685a4411cdbd", "gender": 2, "id": 562603, "name": "Vasiliy Shukshin", "order": 15, "profile_path": "/3Sx1VGqu9lhvA02UUf18O2jmUKu.jpg"}, {"cast_id": 28, "character": "Gen. Panov", "credit_id": "5c70d7d50e0a262c0c79e117", "gender": 2, "id": 86894, "name": "Nikolai Rybnikov", "order": 16, "profile_path": "/uKcvVwd4mLQL5dSm25FF5WE3YxG.jpg"}, {"cast_id": 29, "character": "Gen. Antonov", "credit_id": "5c70d7df9251415ee8afa288", "gender": 2, "id": 240487, "name": "Vladislav Strzhelchik", "order": 17, "profile_path": "/2a2LyAyOtaKj4XtXmKZtTPvO3MA.jpg"}, {"cast_id": 30, "character": "Gen. Vasilevsky", "credit_id": "5c70d7ea9251415eecafb45d", "gender": 0, "id": 1090532, "name": "Evgeni Burenkov", "order": 18, "profile_path": "/6XJxK4s9qQEy1kyExJu0erX6Zks.jpg"}, {"cast_id": 31, "character": "Gen. Shatilov", "credit_id": "5c70d7f6c3a3685a3211c439", "gender": 2, "id": 39793, "name": "Anatoli Romashin", "order": 19, "profile_path": "/v5nBE5S2p8VtbOOTIlTy2xcDXLO.jpg"}, {"cast_id": 32, "character": "Gen. Telegin", "credit_id": "5c70d8000e0a262c1f79ec24", "gender": 2, "id": 240544, "name": "Pyotr Shcherbakov", "order": 20, "profile_path": "/x97tg2IGfpcrXdVls9pJrQoPU5U.jpg"}, {"cast_id": 33, "character": "Gen. Chuykov", "credit_id": "5c70d80b0e0a262c1179e5a8", "gender": 2, "id": 271129, "name": "Ivan Pereverzev", "order": 21, "profile_path": "/kBuWIGp6uS0WdHbtxIHpSd4RUmx.jpg"}, {"cast_id": 34, "character": "Gen. Rokossovsky", "credit_id": "5c70d815c3a3685a3c11c488", "gender": 0, "id": 549137, "name": "Vladlen Davydov", "order": 22, "profile_path": "/vdbZaSlOebeaiduiCH5rSAbXe70.jpg"}, {"cast_id": 35, "character": "Gen. Vatutin", "credit_id": "5c70d820c3a3685a3c11c48c", "gender": 0, "id": 2069633, "name": "Sergei Kharchenko", "order": 23, "profile_path": null}, {"cast_id": 36, "character": "Gen. Rybalko", "credit_id": "5c70d82e9251415ef5af9c72", "gender": 0, "id": 1398616, "name": "Dmitri Franko", "order": 24, "profile_path": "/r6ifeLwYIJpUfZxtfj5dzHejLpf.jpg"}, {"cast_id": 38, "character": "Gen. Moskalenko", "credit_id": "5c70d8500e0a262c1f79ecdf", "gender": 2, "id": 2002932, "name": "Nikolay Rushkovskiy", "order": 26, "profile_path": "/hwLNO6T2FLHD60h038lFNoyAErt.jpg"}, {"cast_id": 39, "character": "Helena", "credit_id": "5c70d8619251415ee6afa3b5", "gender": 1, "id": 22590, "name": "Barbara Brylska", "order": 27, "profile_path": "/nwQ3Gnhex8nn5wrjTtNlwtYM5IZ.jpg"}, {"cast_id": 40, "character": "Sgt.", "credit_id": "5c70d869c3a3685a3211c498", "gender": 0, "id": 86753, "name": "Georgi Burkov", "order": 28, "profile_path": "/3CaHlqtV3lqMBK65csYdMrpFwmk.jpg"}, {"cast_id": 41, "character": "Yartsev", "credit_id": "5c70d8749251415eecafb4fb", "gender": 0, "id": 549554, "name": "Mikhail Nozhkin", "order": 29, "profile_path": "/zrApOE1Dyp8LYqSXCFjASOjLVyA.jpg"}, {"cast_id": 42, "character": "Genrik", "credit_id": "5c70d87ec3a3685a3e11d8ee", "gender": 2, "id": 7107, "name": "Daniel Olbrychski", "order": 30, "profile_path": "/nfqJ8xiVNyBQQhnYRkwJzl3iS7s.jpg"}, {"cast_id": 43, "character": "General Andrei Vlasov", "credit_id": "5c70d8910e0a262c0979e24d", "gender": 0, "id": 1892087, "name": "Yuri Pomerantsev", "order": 31, "profile_path": null}], "crew": [{"credit_id": "5c70d75d0e0a262c0f79f445", "department": "Production", "gender": 2, "id": 5398, "job": "Producer", "name": "Dino De Laurentiis", "profile_path": "/l5skcaSr7QLDMOpAahznDjUW9Ec.jpg"}, {"credit_id": "570df38ec3a3680a3b0018cc", "department": "Camera", "gender": 2, "id": 994595, "job": "Director of Photography", "name": "Igor Slabnevich", "profile_path": "/6NwXkdcEQ8AQD6MUBvB15zAN37g.jpg"}, {"credit_id": "5998f473c3a36821c801b3fc", "department": "Directing", "gender": 2, "id": 1024850, "job": "Director", "name": "Yuri Ozerov", "profile_path": "/nPVYoy208QJGlJevRrs28frOn4m.jpg"}, {"credit_id": "5998f476c3a3686d670041f2", "department": "Writing", "gender": 2, "id": 1024850, "job": "Writer", "name": "Yuri Ozerov", "profile_path": "/nPVYoy208QJGlJevRrs28frOn4m.jpg"}, {"credit_id": "5c70d73b0e0a262c0679ebe0", "department": "Writing", "gender": 2, "id": 1131830, "job": "Writer", "name": "Yuri Bondarev", "profile_path": "/jFqpVLPMcGmt7O2kpb73xoWnIiN.jpg"}, {"credit_id": "5c70d743c3a3685a4911b25a", "department": "Writing", "gender": 2, "id": 1265510, "job": "Writer", "name": "Oskar Kurganov", "profile_path": null}, {"credit_id": "5c70d767c3a3685a4011c253", "department": "Sound", "gender": 2, "id": 1284454, "job": "Music", "name": "Yuriy Levitin", "profile_path": "/9zFMXh9MXPsBO6meXtZMXHbCKg3.jpg"}, {"credit_id": "5c70d7810e0a262c1179e4a5", "department": "Art", "gender": 0, "id": 1931850, "job": "Production Design", "name": "Aleksandr Myagkov", "profile_path": null}, {"credit_id": "5c70d7500e0a262c1879ee0f", "department": "Production", "gender": 0, "id": 2091637, "job": "Producer", "name": "Lidija Kanarejkina", "profile_path": null}, {"credit_id": "5c70d76fc3a3685a4011c259", "department": "Editing", "gender": 0, "id": 2091638, "job": "Editor", "name": "Ekaterina Karpova", "profile_path": null}, {"credit_id": "5c70d78ac3a3685a3e11d7d1", "department": "Costume & Make-Up", "gender": 0, "id": 2091639, "job": "Costume Design", "name": "Dilyara Ozerova", "profile_path": null}]}}