{"adult": false, "backdrop_path": "/58L6lqMItOj1qUu1Q1Jp8xrjvhu.jpg", "belongs_to_collection": null, "budget": 0, "genres": [{"id": 9648, "name": "Mystery"}, {"id": 99, "name": "Documentary"}, {"id": 18, "name": "Drama"}, {"id": 36, "name": "History"}], "homepage": "http://godknowswhereiam.com/", "id": 392955, "imdb_id": "tt5073020", "original_language": "en", "original_title": "God Knows Where I Am", "overview": "Well-educated, New Hampshire mother, Linda Bishop, was determined to stay free of the mental health system after her early release from a 3 year commitment to New Hampshire State Hospital. Instead, she became a prisoner of her own mind, a fate which she documents in one of the most evocative and chilling accounts of mental illness and of our systemic failure to protect those suffering from it.", "popularity": 3.836, "poster_path": "/1y8zsKju1I0hfUg7xQEBYIpx1xI.jpg", "production_companies": [{"id": 8733, "logo_path": null, "name": "Wider Film Projects", "origin_country": ""}], "production_countries": [{"iso_3166_1": "US", "name": "United States of America"}], "release_date": "2016-04-07", "revenue": 0, "runtime": 97, "spoken_languages": [{"iso_639_1": "en", "name": "English"}], "status": "Released", "tagline": "", "title": "God Knows Where I Am", "video": false, "vote_average": 7.0, "vote_count": 14, "keywords": {"keywords": [{"id": 5565, "name": "biography"}, {"id": 9672, "name": "based on a true story"}, {"id": 159315, "name": "mental health"}]}, "similar": {"page": 1, "results": [{"id": 1955, "video": false, "vote_count": 1711, "vote_average": 8.1, "title": "The Elephant Man", "release_date": "1980-10-02", "original_language": "en", "original_title": "The Elephant Man", "genre_ids": [18, 36], "backdrop_path": "/rR479zn26lJp4vNxXKjfBVCHLAW.jpg", "adult": false, "overview": "A Victorian surgeon rescues a heavily disfigured man being mistreated by his \"owner\" as a side-show freak. Behind his monstrous fa\u00e7ade, there is revealed a person of great intelligence and sensitivity. Based on the true story of Joseph Merrick (called John Merrick in the film), a severely deformed man in 19th century London.", "poster_path": "/lDXJUmLQsViSKLbil2luD91l2kE.jpg", "popularity": 12.883}, {"id": 363676, "video": false, "vote_count": 4336, "vote_average": 7.1, "title": "Sully", "release_date": "2016-09-07", "original_language": "en", "original_title": "Sully", "genre_ids": [18, 36], "backdrop_path": "/vC9H1ZVdXi1KjH4aPfGB54mvDNh.jpg", "adult": false, "overview": "On 15 January 2009, the world witnessed the 'Miracle on the Hudson' when Captain 'Sully' Sullenberger glided his disabled plane onto the frigid waters of the Hudson River, saving the lives of all 155 aboard. However, even as Sully was being heralded by the public and the media for his unprecedented feat of aviation skill, an investigation was unfolding that threatened to destroy his reputation and career.", "poster_path": "/h6O5OE3ueRVdCc7V7cwTiQocI7D.jpg", "popularity": 20.325}, {"id": 369192, "video": false, "vote_count": 1153, "vote_average": 6.9, "title": "Battle of the Sexes", "release_date": "2017-09-05", "original_language": "en", "original_title": "Battle of the Sexes", "genre_ids": [35, 18, 36], "backdrop_path": "/wCHJuJwEfOrrykgDas8T4m79Bzs.jpg", "adult": false, "overview": "The true story of the 1973 tennis match between World number one Billie Jean King and ex-champ and serial hustler Bobby Riggs.", "poster_path": "/fWy0A3VojTCb0S2MKtEJjpquubF.jpg", "popularity": 7.932}, {"adult": false, "backdrop_path": "/mYKP6qcDUimVMAHQWLOuDHjO19S.jpg", "genre_ids": [35], "id": 445629, "original_language": "en", "original_title": "Fighting with My Family", "overview": "Born into a tight-knit wrestling family, Paige and her brother Zak are ecstatic when they get the once-in-a-lifetime opportunity to try out for the WWE. But when only Paige earns a spot in the competitive training program, she must leave her loved ones behind and face this new cutthroat world alone. Paige's journey pushes her to dig deep and ultimately prove to the world that what makes her different is the very thing that can make her a star.", "poster_path": "/cVhe15rJLRjolunSWLBN6xQLyGU.jpg", "release_date": "2019-02-14", "title": "Fighting with My Family", "video": false, "vote_average": 6.7, "vote_count": 643, "popularity": 18.498}, {"adult": false, "backdrop_path": "/jK3EAFk3GdOaQfUDCOiTujzMpwH.jpg", "genre_ids": [18], "id": 389015, "original_language": "en", "original_title": "I, Tonya", "overview": "Competitive ice skater Tonya Harding rises amongst the ranks at the U. S. Figure Skating Championships, but her future in the sport is thrown into doubt when her ex-husband intervenes.", "poster_path": "/6gNXwSHxaksR1PjVZRqNapmkgj3.jpg", "release_date": "2017-12-08", "title": "I, Tonya", "video": false, "vote_average": 7.5, "vote_count": 3332, "popularity": 20.099}, {"id": 487558, "video": false, "vote_count": 4020, "vote_average": 7.6, "title": "BlacKkKlansman", "release_date": "2018-07-30", "original_language": "en", "original_title": "BlacKkKlansman", "genre_ids": [80], "backdrop_path": "/wKRrldOtg6HVeGqGLls6iT9XO7I.jpg", "adult": false, "overview": "Colorado Springs, late 1970s. Ron Stallworth, an African American police officer, and Flip Zimmerman, his Jewish colleague, run an undercover operation to infiltrate the Ku Klux Klan.", "poster_path": "/8jxqAvSDoneSKRczaK8v9X5gqBp.jpg", "popularity": 25.597}, {"adult": false, "backdrop_path": "/43fnzmOMO5zOUFH3EzyuwSh87IS.jpg", "genre_ids": [18], "id": 45317, "original_language": "en", "original_title": "The Fighter", "overview": "The Fighter, is a drama about boxer \"Irish\" Micky Ward's unlikely road to the world light welterweight title. His Rocky-like rise was shepherded by half-brother Dicky, a boxer-turned-trainer who rebounded in life after nearly being KO'd by drugs and crime.", "poster_path": "/ytGIpdxYyvXwch5QILfquSTMA9f.jpg", "release_date": "2010-12-17", "title": "The Fighter", "video": false, "vote_average": 7.3, "vote_count": 2572, "popularity": 19.636}, {"id": 266856, "video": false, "vote_count": 6976, "vote_average": 7.9, "title": "The Theory of Everything", "release_date": "2014-11-26", "original_language": "en", "original_title": "The Theory of Everything", "genre_ids": [18, 10749], "backdrop_path": "/geAe08WmchATnZF461WffQBqJk1.jpg", "adult": false, "overview": "The Theory of Everything is the extraordinary story of one of the world\u2019s greatest living minds, the renowned astrophysicist Stephen Hawking, who falls deeply in love with fellow Cambridge student Jane Wilde.", "poster_path": "/4jspr8hLLuju59bCnMiefzRW4p0.jpg", "popularity": 22.686}, {"adult": false, "backdrop_path": "/nU6DDTabbMkd3649WYtSiOdHCMC.jpg", "genre_ids": [18, 10749], "id": 332283, "original_language": "en", "original_title": "Mary Shelley", "overview": "The love affair between poet Percy Shelley and Mary Wollstonecraft Godwin resulted in the creation of an immortal novel, \u201cFrankenstein; or, The Modern Prometheus.\u201d", "poster_path": "/gKHJTsrfxJtfFNPQJn2hDNEMtFf.jpg", "release_date": "2018-04-22", "title": "Mary Shelley", "video": false, "vote_average": 7.1, "vote_count": 516, "popularity": 12.227}, {"id": 205775, "video": false, "vote_count": 2362, "vote_average": 6.6, "title": "In the Heart of the Sea", "release_date": "2015-11-20", "original_language": "en", "original_title": "In the Heart of the Sea", "genre_ids": [28, 12, 18, 36, 53], "backdrop_path": "/aZoZ0NglXgiBMToem9HhTAYYamw.jpg", "adult": false, "overview": "In the winter of 1820, the New England whaling ship Essex is assaulted by something no one could believe\u2014a whale of mammoth size and will, and an almost human sense of vengeance.", "poster_path": "/zVmWh0Zfg4UhbvdGI8LQrn1lQZJ.jpg", "popularity": 18.435}, {"id": 369972, "video": false, "vote_count": 3001, "vote_average": 7.1, "title": "First Man", "release_date": "2018-10-11", "original_language": "en", "original_title": "First Man", "genre_ids": [18, 36], "backdrop_path": "/jrudoaXcoLyHRPdolyOGemXgPEs.jpg", "adult": false, "overview": "A look at the life of the astronaut, Neil Armstrong, and the legendary space mission that led him to become the first man to walk on the Moon on July 20, 1969.", "poster_path": "/i91mfvFcPPlaegcbOyjGgiWfZzh.jpg", "popularity": 27.464}, {"id": 411728, "video": false, "vote_count": 342, "vote_average": 7.2, "title": "The Professor and the Madman", "release_date": "2019-03-07", "original_language": "en", "original_title": "The Professor and the Madman", "genre_ids": [18, 36, 9648, 53], "backdrop_path": "/zhNfM1CSQqJtIqelwlK9iKtSd9P.jpg", "adult": false, "overview": "Professor James Murray begins work compiling words for the first edition of the Oxford English Dictionary in the mid 19th century, and receives over 10,000 entries from a patient at Broadmoor Criminal Lunatic Asylum, Dr. William Minor.", "poster_path": "/gtGCDLhfjW96qVarwctnuTpGOtD.jpg", "popularity": 13.302}, {"id": 300671, "video": false, "vote_count": 1700, "vote_average": 7.1, "title": "13 Hours: The Secret Soldiers of Benghazi", "release_date": "2016-01-13", "original_language": "en", "original_title": "13 Hours: The Secret Soldiers of Benghazi", "genre_ids": [28, 18, 36, 53, 10752], "backdrop_path": "/hY8myWhjSOUeeiPskhOfwwgaCwc.jpg", "adult": false, "overview": "An American Ambassador is killed during an attack at a U.S. compound in Libya as a security team struggles to make sense out of the chaos.", "poster_path": "/4gpW4MkRI0BB17GHOJzXq0WamDP.jpg", "popularity": 20.173}, {"id": 424, "video": false, "vote_count": 8988, "vote_average": 8.6, "title": "Schindler's List", "release_date": "1993-11-30", "original_language": "en", "original_title": "Schindler's List", "genre_ids": [18, 36, 10752], "backdrop_path": "/cTNYRUTXkBgPH3wP3kmPUB5U6dA.jpg", "adult": false, "overview": "The true story of how businessman Oskar Schindler saved over a thousand Jewish lives from the Nazis while they worked as slaves in his factory during World War II.", "poster_path": "/yPisjyLweCl1tbgwgtzBCNCBle.jpg", "popularity": 25.457}, {"adult": false, "backdrop_path": "/fJQ5kjLx4UdK05MC323Vlzwr6S8.jpg", "genre_ids": [35, 18, 36], "id": 140823, "original_language": "en", "original_title": "Saving Mr. Banks", "overview": "Author P.L. Travers travels from London to Hollywood as Walt Disney Pictures adapts her novel Mary Poppins for the big screen.", "poster_path": "/mvs3reS18RP6IhjLwwLeVtkoeg0.jpg", "release_date": "2013-11-16", "title": "Saving Mr. Banks", "video": false, "vote_average": 7.4, "vote_count": 2230, "popularity": 11.476}, {"adult": false, "backdrop_path": "/3BY2I6iLunYRkkl8Hb3hZl8O9MQ.jpg", "genre_ids": [18, 36], "id": 76203, "original_language": "en", "original_title": "12 Years a Slave", "overview": "In the pre-Civil War United States, Solomon Northup, a free black man from upstate New York, is abducted and sold into slavery. Facing cruelty as well as unexpected kindnesses Solomon struggles not only to stay alive, but to retain his dignity. In the twelfth year of his unforgettable odyssey, Solomon\u2019s chance meeting with a Canadian abolitionist will forever alter his life.", "poster_path": "/kb3X943WMIJYVg4SOAyK0pmWL5D.jpg", "release_date": "2013-10-18", "title": "12 Years a Slave", "video": false, "vote_average": 7.9, "vote_count": 7315, "popularity": 21.97}, {"adult": false, "backdrop_path": "/msOjpu9wigi6n1Xa51MeLcBue88.jpg", "genre_ids": [18, 36, 10752, 10749], "id": 468224, "original_language": "en", "original_title": "Tolkien", "overview": "England, early 20th century. The future writer and philologist John Ronald Reuel Tolkien (1892-1973) and three of his schoolmates create a strong bond between them as they share the same passion for literature and art, a true fellowship that strengthens as they grow up, but the outbreak of World War I threatens to shatter it.", "poster_path": "/A7eYO3t7oZQdfJj5KlJBI7GhT9H.jpg", "release_date": "2019-05-03", "title": "Tolkien", "video": false, "vote_average": 6.8, "vote_count": 453, "popularity": 15.582}, {"id": 399404, "video": false, "vote_count": 3041, "vote_average": 7.3, "title": "Darkest Hour", "release_date": "2017-11-22", "original_language": "en", "original_title": "Darkest Hour", "genre_ids": [18, 36], "backdrop_path": "/zXwFJMwvQcJFitP9GcHZvHAHGe8.jpg", "adult": false, "overview": "A thrilling and inspiring true story begins on the eve of World War II as, within days of becoming Prime Minister of Great Britain, Winston Churchill must face one of his most turbulent and defining trials: exploring a negotiated peace treaty with Nazi Germany, or standing firm to fight for the ideals, liberty and freedom of a nation. As the unstoppable Nazi forces roll across Western Europe and the threat of invasion is imminent, and with an unprepared public, a skeptical King, and his own party plotting against him, Churchill must withstand his darkest hour, rally a nation, and attempt to change the course of world history.", "poster_path": "/z0K8uoNbrYKkbaP7wIeadJ4BmSL.jpg", "popularity": 21.82}, {"id": 324786, "video": false, "vote_count": 7336, "vote_average": 8.1, "title": "Hacksaw Ridge", "release_date": "2016-10-07", "original_language": "en", "original_title": "Hacksaw Ridge", "genre_ids": [18, 36, 10752], "backdrop_path": "/zBK4QZONMQXhcgaJv1YYTdCW7q9.jpg", "adult": false, "overview": "WWII American Army Medic Desmond T. Doss, who served during the Battle of Okinawa, refuses to kill people and becomes the first Conscientious Objector in American history to receive the Congressional Medal of Honor.", "poster_path": "/bndiUFfJxNd2fYx8XO610L9a07m.jpg", "popularity": 23.616}, {"id": 528888, "video": false, "vote_count": 353, "vote_average": 7.1, "title": "Dolemite Is My Name", "release_date": "2019-10-04", "original_language": "en", "original_title": "Dolemite Is My Name", "genre_ids": [35, 18, 36], "backdrop_path": "/8FuiFasbeFQj24Vqx6JqSCqj5lO.jpg", "adult": false, "overview": "The story of Rudy Ray Moore, who created the iconic big screen pimp character Dolemite in the 1970s.", "poster_path": "/uoAqJg7ZSmftnBGOkupU1ySZQU0.jpg", "popularity": 37.46}], "total_pages": 386, "total_results": 7708}, "recommendations": {"page": 1, "results": [{"adult": false, "backdrop_path": "/bV1rUYnrChvg9Zn7Frk6MhkcLAa.jpg", "genre_ids": [99, 16], "id": 520369, "original_language": "en", "original_title": "It's a Hard Truth Ain't It", "overview": "\"It\u2019s a Hard Truth Ain\u2019t It\" is a companion piece to \"O.G.\", a narrative drama also directed by Madeleine Sackler. It is co-directed by thirteen men incarcerated at the Pendleton Correctional Facility in Pendleton, Indiana. Given unprecedented access to a maximum security prison, filmmaker Madeleine Sackler worked with a group of inmates to tell their own stories, giving rise to this collaborative, intimate documentary project.", "poster_path": "/xXQyL5UclGb0iXpjShs2uhm7Bc1.jpg", "release_date": "2018-04-25", "title": "It's a Hard Truth Ain't It", "video": false, "vote_average": 7.4, "vote_count": 7, "popularity": 3.507}, {"adult": false, "backdrop_path": "/iy4fl19phcxnPlTH5cn6z9CZbaK.jpg", "genre_ids": [99], "id": 473399, "original_language": "en", "original_title": "Arthur Miller: Writer", "overview": "One of the greatest playwrights of the 20th century, Arthur Miller created such celebrated works as Death of a Salesman and The Crucible, which continue to move audiences around the world today. He also made headlines for being targeted by the House Un-American Activities Committee at the height of the McCarthy Era and entering into a tumultuous marriage with Hollywood icon Marilyn Monroe.\r Told from the unique perspective of his daughter, filmmaker Rebecca Miller, Arthur Miller: Writer is an illuminating portrait that combines interviews spanning decades and a wealth of personal archival material, and provides new insights into Miller\u2019s life as an artist and exploring his character in all its complexity.", "poster_path": "/sXY2zdJ4pRv1rvXWAhYlP4H4FfT.jpg", "release_date": "2017-12-08", "title": "Arthur Miller: Writer", "video": false, "vote_average": 7.6, "vote_count": 8, "popularity": 1.96}, {"adult": false, "backdrop_path": "/ho6e9gv7zAMeDq1xXvKgqXRHcje.jpg", "genre_ids": [99], "id": 511014, "original_language": "en", "original_title": "United Skates", "overview": "When America's last standing roller rinks are threatened with closure, a community of thousands battle in a racially charged environment to save an underground subculture.", "poster_path": "/bChxuC8FfiaiXlrmxo5XQErABvg.jpg", "release_date": "2018-04-19", "title": "United Skates", "video": false, "vote_average": 7.8, "vote_count": 9, "popularity": 3.918}, {"adult": false, "backdrop_path": "/gFmHAVwDJ2JgW5cSWRRFi92eVBS.jpg", "genre_ids": [99], "id": 410794, "original_language": "en", "original_title": "Rats", "overview": "Based on Robert Sullivan\u2019s bestselling book, Morgan Spurlock and his team travel around the world to bring viewers face to face with rats while delving into humans\u2019 complicated relationship with the creepy creatures.", "poster_path": "/pnNU8XWBjqUMEVk6r9J9VCY9RXl.jpg", "release_date": "2016-09-23", "title": "Rats", "video": false, "vote_average": 6.1, "vote_count": 36, "popularity": 4.382}, {"id": 509904, "video": false, "vote_count": 22, "vote_average": 7.1, "title": "Roll Red Roll", "release_date": "2019-03-22", "original_language": "en", "original_title": "Roll Red Roll", "genre_ids": [99], "backdrop_path": "/uDR8SzmElPEBNeCDzolg6M8KAkb.jpg", "adult": false, "overview": "At a 2012 pre-season high-school football party in Steubenville, Ohio, a young woman was raped by members of the beloved high school football team. The aftermath exposed an entire culture of complicity\u2014and Roll Red Roll maps out the roles that peer pressure, denial, sports machismo, and social media each played in the tragedy.", "poster_path": "/3ZW55n8xCLNdzFstezMHPvU7zDX.jpg", "popularity": 5.731}], "total_pages": 1, "total_results": 5}, "credits": {"cast": [{"cast_id": 0, "character": "Linda Bishop (voice)", "credit_id": "573ab172c3a36806b400223a", "gender": 1, "id": 26456, "name": "Lori Singer", "order": 1, "profile_path": "/kADRzPA17cw8JuQcCnFtBURMb8O.jpg"}, {"cast_id": 23, "character": "Himself - Professor of Psychiatry", "credit_id": "58d256bd9251411a9f01d74e", "gender": 0, "id": 1781662, "name": "Paul Appelbaum", "order": 2, "profile_path": null}, {"cast_id": 24, "character": "Herself - Linda's Sister", "credit_id": "58d256dcc3a36838c901d001", "gender": 0, "id": 1781663, "name": "Joan Bishop", "order": 3, "profile_path": null}, {"cast_id": 25, "character": "Himself - Prospective Home Buyer", "credit_id": "58d256f79251411ae801d4b0", "gender": 0, "id": 1781664, "name": "Kevin Carbone", "order": 4, "profile_path": null}, {"cast_id": 26, "character": "Himself - Assistant Deputy Medical Examiner", "credit_id": "58d257109251411adc01d9eb", "gender": 0, "id": 1781665, "name": "Wayne DiGeronimo", "order": 5, "profile_path": null}, {"cast_id": 27, "character": "Himself - New Hampshire Supreme Court", "credit_id": "58d2572dc3a368390801a23b", "gender": 0, "id": 1781666, "name": "James E. Duggan", "order": 6, "profile_path": null}, {"cast_id": 28, "character": "Herself - Chief Medical Examiner", "credit_id": "58d25745c3a36838af01cb1d", "gender": 0, "id": 1781667, "name": "Jennie Duval", "order": 7, "profile_path": null}, {"cast_id": 29, "character": "Herself - Home Owner", "credit_id": "58d25764c3a36838df01adf8", "gender": 0, "id": 1781668, "name": "Lora Goss", "order": 8, "profile_path": null}, {"cast_id": 30, "character": "Herself - Occupational Therapist", "credit_id": "58d2577ec3a36838df01ae19", "gender": 0, "id": 1781669, "name": "Judith E. Kolada", "order": 9, "profile_path": null}], "crew": [{"credit_id": "573ab197c3a36806b400223f", "department": "Directing", "gender": 0, "id": 1621333, "job": "Director", "name": "Jedd Wider", "profile_path": null}, {"credit_id": "573ab1ae9251417ad5001c62", "department": "Directing", "gender": 0, "id": 1621334, "job": "Director", "name": "Todd Wider", "profile_path": null}, {"credit_id": "58d2546fc3a36838df01ab71", "department": "Production", "gender": 0, "id": 1621333, "job": "Producer", "name": "Jedd Wider", "profile_path": null}, {"credit_id": "58d254879251411ab501d3e7", "department": "Production", "gender": 0, "id": 1621334, "job": "Producer", "name": "Todd Wider", "profile_path": null}, {"credit_id": "58d2549b9251411a9f01d568", "department": "Sound", "gender": 2, "id": 4865, "job": "Music", "name": "Paul Cantelon", "profile_path": null}, {"credit_id": "58d254acc3a36838f101a58a", "department": "Sound", "gender": 0, "id": 41533, "job": "Music", "name": "Ivor Guest", "profile_path": null}, {"credit_id": "58d254d59251411a9f01d595", "department": "Production", "gender": 0, "id": 1781651, "job": "Producer", "name": "Robert Logan", "profile_path": null}, {"credit_id": "58d254f3c3a36838df01abe9", "department": "Camera", "gender": 0, "id": 1403526, "job": "Director of Photography", "name": "Gerardo Puglia", "profile_path": null}, {"credit_id": "58d255089251411a9f01d5c0", "department": "Editing", "gender": 1, "id": 937912, "job": "Editor", "name": "Keiko Deguchi", "profile_path": null}, {"credit_id": "58d25520c3a36838e901aeaf", "department": "Art", "gender": 0, "id": 1781652, "job": "Property Master", "name": "Sarah Jennings", "profile_path": null}, {"credit_id": "58d255659251411af401d284", "department": "Sound", "gender": 2, "id": 1077642, "job": "Sound Re-Recording Mixer", "name": "Tom Paul", "profile_path": null}, {"credit_id": "58d255829251411a9f01d62f", "department": "Sound", "gender": 0, "id": 1641162, "job": "Sound Re-Recording Mixer", "name": "Eliott Taylor", "profile_path": null}, {"credit_id": "58d255a8c3a36838f101a64a", "department": "Visual Effects", "gender": 0, "id": 1781653, "job": "Visual Effects Designer", "name": "Jade Milan", "profile_path": null}, {"credit_id": "58d255be9251411a9f01d664", "department": "Visual Effects", "gender": 0, "id": 1781654, "job": "Visual Effects Designer", "name": "Chris Monaco", "profile_path": null}, {"credit_id": "58d255d6c3a36838f901c333", "department": "Visual Effects", "gender": 0, "id": 1781655, "job": "Visual Effects Producer", "name": "Lisa Starace", "profile_path": null}, {"credit_id": "58d255eac3a36838d5018b8c", "department": "Lighting", "gender": 0, "id": 1781656, "job": "Gaffer", "name": "Rob Mabin", "profile_path": null}, {"credit_id": "58d256019251411ad801ca54", "department": "Lighting", "gender": 0, "id": 1781657, "job": "Gaffer", "name": "Bob Schils", "profile_path": null}, {"credit_id": "58d2561fc3a36838f101a6ac", "department": "Camera", "gender": 0, "id": 1781658, "job": "Camera Technician", "name": "Matt Hamm", "profile_path": null}, {"credit_id": "58d2563c9251411a9f01d6c5", "department": "Camera", "gender": 0, "id": 1781659, "job": "Key Grip", "name": "Brian Raby", "profile_path": null}, {"credit_id": "58d256689251411adc01d94a", "department": "Editing", "gender": 0, "id": 1781660, "job": "Digital Intermediate", "name": "Andrew McKay", "profile_path": null}, {"credit_id": "58d2567ec3a36838f101a6f2", "department": "Editing", "gender": 0, "id": 1781661, "job": "Digital Intermediate", "name": "Matthew Schneider", "profile_path": null}, {"credit_id": "5c17b3d992514132b40c5bf7", "department": "Sound", "gender": 2, "id": 1547520, "job": "Dialogue Editor", "name": "Bill Orrico", "profile_path": null}]}}