{"adult": false, "backdrop_path": "/6OYPobqx7eiAM8PaguyQoFaRGcC.jpg", "belongs_to_collection": null, "budget": 0, "genres": [{"id": 18, "name": "Drama"}, {"id": 10749, "name": "Romance"}], "homepage": "http://www.hannahfree.com/", "id": 39334, "imdb_id": "tt1315214", "original_language": "en", "original_title": "Hannah Free", "overview": "A film about a lifelong love affair between an independent spirit and the woman she calls home.", "popularity": 1.577, "poster_path": "/zTfyE9n1SyNdIgwHTIprVZH4wDt.jpg", "production_companies": [], "production_countries": [{"iso_3166_1": "US", "name": "United States of America"}], "release_date": "2009-12-11", "revenue": 0, "runtime": 86, "spoken_languages": [{"iso_639_1": "en", "name": "English"}], "status": "Released", "tagline": "A story about living and loving and letting go.", "title": "Hannah Free", "video": false, "vote_average": 6.0, "vote_count": 2, "keywords": {"keywords": [{"id": 4995, "name": "aging"}, {"id": 9833, "name": "lesbian relationship"}, {"id": 187056, "name": "woman director"}]}, "similar": {"page": 1, "results": [{"adult": false, "backdrop_path": "/rf6G51j0SZL0tP57I8gnqHTRFEr.jpg", "genre_ids": [35, 18, 10749], "id": 273153, "original_language": "fr", "original_title": "La belle saison", "overview": "In 1971, Carole and Delphine meet and fall in love in Paris. When Carole follows Delphine back to her family farm in Limousin, the two find lesbianism and feminism are not as easy in the countryside.", "poster_path": "/evvAkNMO5VJiy5qIo1Hu7fUfvVI.jpg", "release_date": "2015-08-19", "title": "Summertime", "video": false, "vote_average": 6.6, "vote_count": 162, "popularity": 15.434}, {"adult": false, "backdrop_path": "/s12HEmmkJfI2mjltI61hGm5kubD.jpg", "genre_ids": [35, 18, 10749], "id": 20770, "original_language": "en", "original_title": "But I'm a Cheerleader", "overview": "Megan is an all-American girl. A cheerleader. She has a boyfriend. But Megan doesn't like kissing her boyfriend very much. And she's pretty touchy with her cheerleader friends. Her conservative parents worry that she must be a lesbian and send her off to \"sexual redirection\" school, where she must, with other lesbians and gays learn how to be straight.", "poster_path": "/eDGH7CHSdkrYcuUJV1e0WS9DlQL.jpg", "release_date": "1999-12-09", "title": "But I'm a Cheerleader", "video": false, "vote_average": 6.8, "vote_count": 246, "popularity": 10.067}, {"adult": false, "backdrop_path": "/baYbbMtKRDoDWYJeVWkbygAvAj8.jpg", "genre_ids": [18, 10749], "id": 31216, "original_language": "en", "original_title": "I Can't Think Straight", "overview": "I CAN'T THINK STRAIGHT is a 2007 romance movie about a London-based Jordanian of Palestinian descent, Tala, who is preparing for an elaborate wedding. A turn of events causes her to have an affair and subsequently fall in love with another woman, Leyla, a British Indian.", "poster_path": "/1kapga6rkM5wNuQBYw7sdE42CrA.jpg", "release_date": "2008-06-01", "title": "I Can't Think Straight", "video": false, "vote_average": 7.6, "vote_count": 109, "popularity": 8.749}, {"adult": false, "backdrop_path": "/gZeJziVigmRqbkEZwKAtSqlLQ6s.jpg", "genre_ids": [18, 10749], "id": 370663, "original_language": "en", "original_title": "Below Her Mouth", "overview": "An unexpected affair quickly escalates into a heart-stopping reality for two women whose passionate connection changes their lives forever.", "poster_path": "/nTGbq37hYLuNy7YgMg0gVLma0NS.jpg", "release_date": "2016-09-10", "title": "Below Her Mouth", "video": false, "vote_average": 6.2, "vote_count": 456, "popularity": 22.676}, {"adult": false, "backdrop_path": "/dvQDRfv3qvfHNnVAR57ouVsuErf.jpg", "genre_ids": [10749, 18], "id": 28031, "original_language": "en", "original_title": "If These Walls Could Talk 2", "overview": "The stories of three lesbian couples -- who live in the same house at different periods of time -- who are at a crossroads in their lives. In 1961, Edith loses her lover, Abby, to a stroke. Linda and Amy struggle with feminist issues in 1972. And, in 2000, Kal and Fran try to have a baby with the help of sperm donor.", "poster_path": "/xs7ODbmYQXCDhvXNvz5tF17T59H.jpg", "release_date": "2000-03-05", "title": "If These Walls Could Talk 2", "video": false, "vote_average": 7.1, "vote_count": 55, "popularity": 8.062}, {"adult": false, "backdrop_path": "/cADbqsIoiDW7X3Myg9nz8eAuno5.jpg", "genre_ids": [18, 10749], "id": 10818, "original_language": "fr", "original_title": "Naissance des pieuvres", "overview": "Set during a sultry summer in a French suburb, Marie is desperate to join the local pool's synchronized swimming team, but is her interest solely for the sake of sport or for a chance to get close to Floriane, the bad girl of the team? Sciamma, and the two leads, capture the uncertainty of teenage sexuality with a sympathetic eye in this delicate drama of the angst of coming-of-age.", "poster_path": "/4jajELYrR4Xmv3CVoKnukRnALa2.jpg", "release_date": "2007-05-17", "title": "Water Lilies", "video": false, "vote_average": 6.1, "vote_count": 119, "popularity": 10.744}, {"adult": false, "backdrop_path": "/fZ8oFcREAr6wgWcXISGql0xyxjB.jpg", "genre_ids": [35, 18], "id": 39781, "original_language": "en", "original_title": "The Kids Are All Right", "overview": "Two women, Nic and Jules, brought a son and daughter into the world through artificial insemination. When one of their children reaches age, both kids go behind their mothers' backs to meet with the donor. Life becomes so much more interesting when the father, two mothers and children start to become attached to each other.", "poster_path": "/fPDeK4MmoGfi2X0oWZev7LrbMqM.jpg", "release_date": "2010-07-09", "title": "The Kids Are All Right", "video": false, "vote_average": 6.6, "vote_count": 923, "popularity": 12.703}, {"adult": false, "backdrop_path": "/l6UDyPqHXxRECt8NyrBYJkdBptu.jpg", "genre_ids": [35, 18, 10749], "id": 29371, "original_language": "en", "original_title": "The Incredibly True Adventure of Two Girls in Love", "overview": "An adventurous love story between two young women of different social and economic backgrounds who find themselves going through all the typical struggles of a new romance.", "poster_path": "/1FNBqreF7qn5qoOwhPvxfuqVXmc.jpg", "release_date": "1995-06-16", "title": "The Incredibly True Adventure of Two Girls in Love", "video": false, "vote_average": 6.2, "vote_count": 31, "popularity": 7.37}, {"id": 434714, "video": false, "vote_count": 32, "vote_average": 7.5, "title": "My Days of Mercy", "release_date": "2019-07-11", "original_language": "en", "original_title": "My Days of Mercy", "genre_ids": [18, 10749], "backdrop_path": "/7Lbzq33nMMIQtAfZAmSqG6ibLSg.jpg", "adult": false, "overview": "The daughter of a man on death row falls in love with a woman on the opposing side of her family's political cause.", "poster_path": "/adIPKAoKnKL9vCTkvfF4J9ZA7Ln.jpg", "popularity": 6.928}, {"adult": false, "backdrop_path": "/tzqeuHWMFihFbiLGHdalPgAcSf6.jpg", "genre_ids": [18, 10749], "id": 18620, "original_language": "en", "original_title": "Go Fish", "overview": "Max is a trendy, pretty, young lesbian, who is having trouble finding love. A friend sets her up with Ely, whom Max likes, but Ely is frumpy, homely, and older. Nor do they have much in common. Can Max learn to look past the packaging?", "poster_path": "/qrEFYrwykaGsY8NULYuYLLI7zrM.jpg", "release_date": "1994-06-10", "title": "Go Fish", "video": false, "vote_average": 5.0, "vote_count": 11, "popularity": 2.626}, {"adult": false, "backdrop_path": "/6tern9vOEwwmkDYC1vRCuO64z0C.jpg", "genre_ids": [10749, 18], "id": 475888, "original_language": "en", "original_title": "Tell It to the Bees", "overview": "Dr. Jean Markham returns to the town she left as a teenager to take over her late father's medical practice. When a school-yard scuffle lands Charlie in her surgery, she invites him to visit the hives in her garden and tell his secrets to the bees, as she once did. The new friendship between the boy and the bee keeper brings his mother Lydia into Jean's world.", "poster_path": "/Rj6zpHhMU1zFW3v28U4PSRSRgP.jpg", "release_date": "2019-05-03", "title": "Tell It to the Bees", "video": false, "vote_average": 6.4, "vote_count": 53, "popularity": 15.113}, {"adult": false, "backdrop_path": "/xOGEw8iywxcFMolV6SF6YdTdJTb.jpg", "genre_ids": [10402, 10749], "id": 52371, "original_language": "nl", "original_title": "LelleBelle", "overview": "19-year old Belle practices playing the violin diligently, but is unable to impart her music with a sensitive undertone. Her life changes when she discovers that sexual desire stimulates passion in her music.", "poster_path": "/nJVPgIq3icZMQ26p5uWIFdUZJfL.jpg", "release_date": "2010-10-08", "title": "LelleBelle", "video": false, "vote_average": 4.7, "vote_count": 41, "popularity": 13.931}, {"adult": false, "backdrop_path": "/knczzNAjBXzSYkeWxoT1u9VNmjR.jpg", "genre_ids": [10749, 18], "id": 258480, "original_language": "en", "original_title": "Carol", "overview": "In 1950s New York, a department-store clerk who dreams of a better life falls for an older, married woman.", "poster_path": "/AbKa7ANxmui0Jmhh7gV7OSELKIL.jpg", "release_date": "2015-11-20", "title": "Carol", "video": false, "vote_average": 7.4, "vote_count": 2182, "popularity": 14.185}, {"adult": false, "backdrop_path": "/lN5nUJ8YOh2sUQpkcmH2t29ql4c.jpg", "genre_ids": [18], "id": 56774, "original_language": "en", "original_title": "Chutney Popcorn", "overview": "Reena is a young Indian American lesbian who lives and works in New York. Her sister Sarita, who is happily married, discovers that she is infertile. Reena offers to be a surrogate mother for her sister's baby, hoping to improve her relationship with their mother, who disapproves of Reena's sexual orientation. Reena has second thoughts when her girlfriend Lisa feels left out.", "poster_path": "/xJ6ZfrEMcg4swtsTl5gg6dFtw0D.jpg", "release_date": "2001-01-11", "title": "Chutney Popcorn", "video": false, "vote_average": 5.2, "vote_count": 7, "popularity": 2.524}, {"adult": false, "backdrop_path": "/lI5h8KaoeObu4NMTwzeRuUHzRwD.jpg", "genre_ids": [18, 9648, 53], "id": 401898, "original_language": "no", "original_title": "Thelma", "overview": "A college student starts to experience extreme seizures. She soon learns that the violent episodes are a symptom of inexplicable abilities.", "poster_path": "/yzSfG8TLAqw7nMQh2lxirQkQpgs.jpg", "release_date": "2017-09-15", "title": "Thelma", "video": false, "vote_average": 7.1, "vote_count": 418, "popularity": 12.235}, {"adult": false, "backdrop_path": "/tIFRPjIXQ3sYrmxbIeOu9K1JkUz.jpg", "genre_ids": [18, 10749], "id": 294, "original_language": "en", "original_title": "Desert Hearts", "overview": "The story of straight-edge literature professor Vivian who travels to Reno to get away from a relationship breakup when she falls in love with an attractive and unconventional girl named Cay.", "poster_path": "/b8JSmQSpYYJhctMtxNgqh0elENg.jpg", "release_date": "1985-10-01", "title": "Desert Hearts", "video": false, "vote_average": 7.3, "vote_count": 58, "popularity": 8.237}, {"id": 520172, "video": false, "vote_count": 0, "vote_average": 0.0, "title": "Happiest Season", "release_date": "2020-11-20", "original_language": "en", "original_title": "Happiest Season", "genre_ids": [35, 10749], "backdrop_path": null, "adult": false, "overview": "A young woman's plans to propose to her girlfriend while at her family's annual holiday party are upended when she discovers her partner hasn't yet come out to her conservative parents.", "poster_path": null, "popularity": 6.436}, {"adult": false, "backdrop_path": "/uTT0yYYgD5S4cDpNOJxuvCITAeC.jpg", "genre_ids": [18, 10749], "id": 419743, "original_language": "en", "original_title": "Disobedience", "overview": "A woman learns about the death of her Orthodox Jewish father, a rabbi. She returns home and has romantic feelings rekindled for her best childhood friend, who is now married to her cousin.", "poster_path": "/skPT4ffWhlmmDOMNEdxOiP6Emfz.jpg", "release_date": "2017-09-10", "title": "Disobedience", "video": false, "vote_average": 6.9, "vote_count": 490, "popularity": 18.397}, {"id": 2255, "video": false, "vote_count": 772, "vote_average": 6.8, "title": "Chasing Amy", "release_date": "1997-04-04", "original_language": "en", "original_title": "Chasing Amy", "genre_ids": [35, 18, 10749], "backdrop_path": "/doKYVK61Vb8J1KUjlb9dNWkQNp6.jpg", "adult": false, "overview": "Holden and Banky are comic book artists. Everything is going good for them until they meet Alyssa, also a comic book artist. Holden falls for her, but his hopes are crushed when he finds out she's a lesbian.", "poster_path": "/4vFJileWrCGaBeobCmF0tXpQCUb.jpg", "popularity": 11.325}, {"id": 107257, "video": false, "vote_count": 62, "vote_average": 6.2, "title": "A Perfect Ending", "release_date": "2012-06-01", "original_language": "en", "original_title": "A Perfect Ending", "genre_ids": [18, 10749], "backdrop_path": "/3d3XKhi3GBAJdvBPToYrRKQK8JO.jpg", "adult": false, "overview": "This intimate drama follows Rebecca, a woman who has kept her sexuality a secret from her friends but chooses to reveal it to a stranger. While Rebecca's revelations may not yield the results she expects, a perfect ending is still in reach.", "poster_path": "/aMqHT2mRqP23e3czeIpysXBGHX5.jpg", "popularity": 12.773}], "total_pages": 1401, "total_results": 28009}, "recommendations": {"page": 1, "results": [], "total_pages": 1, "total_results": 0}, "credits": {"cast": [{"cast_id": 3, "character": "Adult Hannah", "credit_id": "52fe470f9251416c91068caf", "gender": 1, "id": 122675, "name": "Kelli Strickland", "order": 0, "profile_path": null}, {"cast_id": 4, "character": "Adult Rachel", "credit_id": "52fe470f9251416c91068cb3", "gender": 1, "id": 122676, "name": "Ann Hagemann", "order": 1, "profile_path": null}, {"cast_id": 6, "character": "Older Rachel", "credit_id": "52fe470f9251416c91068cb7", "gender": 1, "id": 122678, "name": "Maureen Gallagher", "order": 2, "profile_path": "/8FD5bmjIAuv7PTBrdJlQXZ9pxD7.jpg"}, {"cast_id": 7, "character": "Marge", "credit_id": "52fe470f9251416c91068cbb", "gender": 1, "id": 122679, "name": "Taylor Miller", "order": 3, "profile_path": null}, {"cast_id": 8, "character": "Greta", "credit_id": "52fe470f9251416c91068cbf", "gender": 2, "id": 122680, "name": "Jax Jackson", "order": 4, "profile_path": "/6SMV6UmH3lCBnddCcCdRWGEwUGX.jpg"}, {"cast_id": 9, "character": "Child Hannah", "credit_id": "52fe470f9251416c91068cc3", "gender": 0, "id": 122681, "name": "Casey Tutton", "order": 5, "profile_path": "/wCFpjn45iE35dKjSejR8zjuQgrG.jpg"}, {"cast_id": 10, "character": "Older Hannah", "credit_id": "52fe470f9251416c91068cc7", "gender": 1, "id": 73177, "name": "Sharon Gless", "order": 6, "profile_path": "/ul7dTg6MxIU72inhxXiMWEJH8MP.jpg"}], "crew": [{"credit_id": "52fe470f9251416c91068ca5", "department": "Directing", "gender": 1, "id": 122673, "job": "Director", "name": "Wendy Jo Carlton", "profile_path": null}, {"credit_id": "52fe470f9251416c91068cab", "department": "Writing", "gender": 1, "id": 122674, "job": "Writer", "name": "Claudia Allen", "profile_path": null}]}}