{"adult": false, "backdrop_path": "/ibovSkO4JgVz9sR4SITRJ5fP7X.jpg", "belongs_to_collection": null, "budget": 0, "genres": [{"id": 18, "name": "Drama"}], "homepage": "http://thecongressmanmovie.com/", "id": 393603, "imdb_id": "tt3485800", "original_language": "en", "original_title": "The Congressman", "overview": "Maine Congressman Charlie Winship has had a bad day. After being caught on video failing to stand and recite the pledge of allegiance, he knocks out another House member, confronts his angry ex-wife, and faces denunciation by the media for attacking one of the most cherished patriotic symbols in America. As his life spirals out of control, Charlie embarks on a journey to a remote island in the Atlantic whose eccentric inhabitants are in the middle of a shooting war over their fishing grounds. Treat Williams stars as The Congressman in this humorous and moving film that raises the important question of what it means to be an American.", "popularity": 3.908, "poster_path": "/qbT1gDFQn15YXtpR0FNgQJzPFNu.jpg", "production_companies": [], "production_countries": [{"iso_3166_1": "US", "name": "United States of America"}], "release_date": "2016-04-09", "revenue": 0, "runtime": 98, "spoken_languages": [{"iso_639_1": "en", "name": "English"}], "status": "Released", "tagline": "", "title": "The Congressman", "video": false, "vote_average": 5.6, "vote_count": 5, "keywords": {"keywords": [{"id": 6083, "name": "politician"}]}, "similar": {"page": 1, "results": [{"id": 476764, "video": false, "vote_count": 173, "vote_average": 6.0, "title": "The Front Runner", "release_date": "2018-11-06", "original_language": "en", "original_title": "The Front Runner", "genre_ids": [18, 36], "backdrop_path": "/kQVo5ECXrTcoMtj8hWbdiqpfPms.jpg", "adult": false, "overview": "Gary Hart, former Senator of Colorado, becomes the front-runner for the Democratic presidential nomination in 1987. Hart's intelligence, charisma and idealism makes him popular with young voters, leaving him with a seemingly clear path to the White House. All that comes crashing down when allegations of an extramarital affair surface in the media, forcing the candidate to address a scandal that threatens to derail his campaign and personal life.", "poster_path": "/7iMNvhINYaYwsF1jC5VaDeQ1V70.jpg", "popularity": 12.182}, {"adult": false, "backdrop_path": "/8K8EwDzFA5fRZdAfldBnVktE7O3.jpg", "genre_ids": [18, 53], "id": 5125, "original_language": "en", "original_title": "Rendition", "overview": "When an Egyptian terrorism suspect \"disappears\" on a flight from Africa to Washington DC, his American wife and a CIA analyst find themselves caught up in a struggle to secure his release from a secret detention facility somewhere outside the US.", "poster_path": "/5vsEosyU3c5pCkjygaFnhilkng4.jpg", "release_date": "2007-09-07", "title": "Rendition", "video": false, "vote_average": 6.4, "vote_count": 372, "popularity": 11.805}, {"adult": false, "backdrop_path": "/A9NDglBlTxLyKbTiKmgfh5MCrHj.jpg", "genre_ids": [18], "id": 17185, "original_language": "en", "original_title": "Advise & Consent", "overview": "A Senate investigation into the President's newly-nominated Secretary of State gives light to a secret from the past, which may not only ruin the candidate, but the President's character as well.", "poster_path": "/4fW4lM5iVVInFnV27OdXeSLUWFH.jpg", "release_date": "1962-06-06", "title": "Advise & Consent", "video": false, "vote_average": 7.4, "vote_count": 40, "popularity": 5.73}, {"adult": false, "backdrop_path": "/yCA6qzbMzoGOC7Rqk80H9r4ah9F.jpg", "genre_ids": [36, 18], "id": 460868, "original_language": "hi", "original_title": "The Accidental Prime Minister", "overview": "Based on the memoir by Indian policy analyst Sanjaya Baru, The Accidental Prime Minister explores Manmohan Singh's tenure as the Prime Minister of India, and the kind of control he had over his cabinet and the country.", "poster_path": "/ec6UmcBD4z76ZzlbZJWpHyr75yd.jpg", "release_date": "2019-01-11", "title": "The Accidental Prime Minister", "video": false, "vote_average": 5.3, "vote_count": 9, "popularity": 2.588}, {"id": 376290, "video": false, "vote_count": 1038, "vote_average": 7.5, "title": "Miss Sloane", "release_date": "2016-11-25", "original_language": "en", "original_title": "Miss Sloane", "genre_ids": [18, 53], "backdrop_path": "/64xHK6gmw3ZwIpjeSWZ7W686J5l.jpg", "adult": false, "overview": "An ambitious lobbyist faces off against the powerful gun lobby in an attempt to pass gun control legislation.", "poster_path": "/lPgISoC37G3E2QEVtSuJ15oYlI.jpg", "popularity": 15.942}, {"id": 3083, "video": false, "vote_count": 516, "vote_average": 8.0, "title": "Mr. Smith Goes to Washington", "release_date": "1939-10-19", "original_language": "en", "original_title": "Mr. Smith Goes to Washington", "genre_ids": [35, 18], "backdrop_path": "/dwy7iMMePSfSNXvahTQPmygot1g.jpg", "adult": false, "overview": "Naive and idealistic Jefferson Smith, leader of the Boy Rangers, is appointed to the United States Senate by the puppet governor of his state. He soon discovers, upon going to Washington, many shortcomings of the political process as his earnest goal of a national boys' camp leads to a conflict with the state political boss.", "poster_path": "/5Z7WhbH9yinIcvEDtUUbbMUQHRY.jpg", "popularity": 10.07}, {"adult": false, "backdrop_path": "/shyV7mvHa9bDojeMfb2tZDlGJjF.jpg", "genre_ids": [18], "id": 10741, "original_language": "en", "original_title": "Bobby", "overview": "In 1968 the lives of a retired doorman, hotel manager, lounge singer, busboy, beautician and others intersect in the wake of Robert F. Kennedy's assassination at the Ambassador Hotel in Los Angeles.", "poster_path": "/a38CTs2mJ2uDHHH6mUJmuGH8RVI.jpg", "release_date": "2006-09-05", "title": "Bobby", "video": false, "vote_average": 6.6, "vote_count": 216, "popularity": 8.868}, {"id": 10139, "video": false, "vote_count": 1269, "vote_average": 7.3, "title": "Milk", "release_date": "2008-11-05", "original_language": "en", "original_title": "Milk", "genre_ids": [18, 36], "backdrop_path": "/i8NcYenVqMzB95pVz8YOPIqmGj8.jpg", "adult": false, "overview": "The true story of Harvey Milk, the first openly gay man ever elected to public office. In San Francisco in the late 1970s, Harvey Milk becomes an activist for gay rights and inspires others to join him in his fight for equal rights that should be available to all Americans.", "poster_path": "/aTbhbnq9YnKJM6wGIiedfJaoV6m.jpg", "popularity": 13.064}, {"id": 9388, "video": false, "vote_count": 1252, "vote_average": 7.2, "title": "Thank You for Smoking", "release_date": "2005-03-17", "original_language": "en", "original_title": "Thank You for Smoking", "genre_ids": [35, 18], "backdrop_path": "/D1VqMoYT4K2aFcywu3kGnycD6n.jpg", "adult": false, "overview": "Nick Naylor is a charismatic spin-doctor for Big Tobacco who'll fight to protect America's right to smoke -- even if it kills him -- while still remaining a role model for his 12-year old son. When he incurs the wrath of a senator bent on snuffing out cigarettes, Nick's powers of \"filtering the truth\" will be put to the test.", "poster_path": "/v8PKsbAGIvAhKbbRUjdQ3jgFD2S.jpg", "popularity": 14.661}, {"adult": false, "backdrop_path": "/nlwzLx5WVZPZDwXvexGGfaktts7.jpg", "genre_ids": [878, 53, 10749], "id": 38050, "original_language": "en", "original_title": "The Adjustment Bureau", "overview": "A man glimpses the future Fate has planned for him \u2013 and chooses to fight for his own destiny. Battling the powerful Adjustment Bureau across, under and through the streets of New York, he risks his destined greatness to be with the only woman he's ever loved.", "poster_path": "/g87PqGH9Oo3d3Tbczcfk7ZMAIEk.jpg", "release_date": "2011-03-03", "title": "The Adjustment Bureau", "video": false, "vote_average": 6.7, "vote_count": 2861, "popularity": 15.293}, {"id": 401469, "video": false, "vote_count": 1261, "vote_average": 6.5, "title": "Widows", "release_date": "2018-11-06", "original_language": "en", "original_title": "Widows", "genre_ids": [80, 53], "backdrop_path": "/tkri1hMrb1FhWfb2bWpprsvq9Sd.jpg", "adult": false, "overview": "A police shootout leaves four thieves dead during an explosive armed robbery attempt in Chicago. Their widows have nothing in common except a debt left behind by their spouses' criminal activities. Hoping to forge a future on their own terms, they join forces to pull off a heist.", "poster_path": "/d31SGJSaX29ba5ZUbZcesGoDE7I.jpg", "popularity": 16.285}, {"id": 25430, "video": false, "vote_count": 96, "vote_average": 7.1, "title": "All the King's Men", "release_date": "1949-11-08", "original_language": "en", "original_title": "All the King's Men", "genre_ids": [18], "backdrop_path": "/lVjZnM9JuRYC1PUnJUBVEksmoLc.jpg", "adult": false, "overview": "All The King's Men is the story of the rise of politician Willie Stark from a rural county seat to the governor's mansion.", "poster_path": "/flvbh5w7AyIVvtp8trkzyG2j5k4.jpg", "popularity": 11.913}, {"id": 17365, "video": false, "vote_count": 114, "vote_average": 6.9, "title": "The Parallax View", "release_date": "1974-06-14", "original_language": "en", "original_title": "The Parallax View", "genre_ids": [80, 18, 53], "backdrop_path": "/xGq9O8Y6SSydFdWL8CytJhSB2l5.jpg", "adult": false, "overview": "An ambitious reporter, investigating a senator's assassination, realizes witnesses to the shooting are systematically dying and discovers a multi-million dollar corporation which serves as a front for the recruitment of political assassins.", "poster_path": "/6jIZ8PUGQ0wnACtQok2dzpFJVlm.jpg", "popularity": 9.531}, {"adult": false, "backdrop_path": "/eiSRZDOA0d5gKEISvknhQGgwHpk.jpg", "genre_ids": [9648, 18, 10749], "id": 37722, "original_language": "en", "original_title": "Waking the Dead", "overview": "A congressional candidate questions his sanity after seeing the love of his life, presumed dead, suddenly emerge.", "poster_path": "/knPjLo050qU82PPuGpDMhT6VICV.jpg", "release_date": "2000-03-24", "title": "Waking the Dead", "video": false, "vote_average": 6.8, "vote_count": 42, "popularity": 4.591}, {"id": 7485, "video": false, "vote_count": 2598, "vote_average": 7.0, "title": "Shooter", "release_date": "2007-03-22", "original_language": "en", "original_title": "Shooter", "genre_ids": [28, 80, 18, 9648, 53], "backdrop_path": "/3riR9Xpugbn1yvBBXGINbLeUigY.jpg", "adult": false, "overview": "A marksman living in exile is coaxed back into action after learning of a plot to kill the president. Ultimately double-crossed and framed for the attempt, he goes on the run to track the real killer and find out who exactly set him up, and why??", "poster_path": "/wCZv0lNx58sfuLT698RYYJVEeTr.jpg", "popularity": 27.042}, {"id": 891, "video": false, "vote_count": 889, "vote_average": 7.8, "title": "All the President's Men", "release_date": "1976-04-04", "original_language": "en", "original_title": "All the President's Men", "genre_ids": [18, 36, 9648, 53], "backdrop_path": "/rqM0Uq57NNOpEx7BBk7FqBfGqzc.jpg", "adult": false, "overview": "In the run-up to the 1972 elections, Washington Post reporter Bob Woodward covers what seems to be a minor break-in at the Democratic Party National Headquarters. He is surprised to find top lawyers already on the defense case, and the discovery of names and addresses of Republican fund organizers on the accused further arouses his suspicions. After the editor of the Post runs with the story and assigns Woodward and Carl Bernstein to it, they find the trail leading higher and higher in the Republican Party\u2014and eventually into the White House itself.", "poster_path": "/jvXiGgWyBYDfQb44spH9JPTOmAZ.jpg", "popularity": 28.872}, {"id": 517909, "video": false, "vote_count": 429, "vote_average": 6.1, "title": "The Laundromat", "release_date": "2019-09-05", "original_language": "en", "original_title": "The Laundromat", "genre_ids": [35, 80, 18], "backdrop_path": "/ld3bBHoKINhXHjABn5yEJVSBOpF.jpg", "adult": false, "overview": "When her idyllic vacation takes an unthinkable turn, Ellen Martin begins investigating a fake insurance policy, only to find herself down a rabbit hole of questionable dealings that can be linked to a Panama City law firm and its vested interest in helping the world's wealthiest citizens amass larger fortunes.", "poster_path": "/hwNMJgbiUUvPCxsnADjbV9ysM5j.jpg", "popularity": 13.093}, {"id": 446354, "video": false, "vote_count": 2839, "vote_average": 7.0, "title": "The Post", "release_date": "2017-12-22", "original_language": "en", "original_title": "The Post", "genre_ids": [18, 36], "backdrop_path": "/8sb4aBST28vN3rBz704XJczS0Ld.jpg", "adult": false, "overview": "A cover-up that spanned four U.S. Presidents pushed the country's first female newspaper publisher and a hard-driving editor to join an unprecedented battle between journalist and government. Inspired by true events.", "poster_path": "/h4XG3g6uMMPIBPjAoQhC2QIMdkl.jpg", "popularity": 19.347}, {"id": 1985, "video": false, "vote_count": 788, "vote_average": 7.1, "title": "The Constant Gardener", "release_date": "2005-08-31", "original_language": "en", "original_title": "The Constant Gardener", "genre_ids": [18, 9648, 53], "backdrop_path": "/cQRFjaXsEfCTtd2h18xZv49REqP.jpg", "adult": false, "overview": "Justin Quayle is a low-level British diplomat who has always gone about his work very quietly, not causing any problems. But after his radical wife Tessa is killed he becomes determined to find out why, thrusting himself into the middle of a very dangerous conspiracy.", "poster_path": "/r7QOXMcuIqZUeIVXVc4BCZrd9ni.jpg", "popularity": 13.382}, {"id": 12201, "video": false, "vote_count": 882, "vote_average": 6.3, "title": "Edge of Darkness", "release_date": "2010-01-28", "original_language": "en", "original_title": "Edge of Darkness", "genre_ids": [80, 18, 9648, 53], "backdrop_path": "/ksxr95M6fh2f2zgIlgGDDyfgOhC.jpg", "adult": false, "overview": "As a seasoned homicide detective, Thomas Craven has seen the bleakest side of humanity. But nothing prepares him for the toughest investigation of his life: the search for his only daughter Emma's killer. Now, he is on a personal mission to uncover the disturbing secrets surrounding her murder, including corporate corruption, government collusion and Emma's own mysterious life.", "poster_path": "/pvHjp1vEFmp5FquSCPQ2O95tIZJ.jpg", "popularity": 11.857}], "total_pages": 51, "total_results": 1010}, "recommendations": {"page": 1, "results": [], "total_pages": 1, "total_results": 0}, "credits": {"cast": [{"cast_id": 0, "character": "Charlie Winship", "credit_id": "57166704c3a368673d00f86e", "gender": 2, "id": 4515, "name": "Treat Williams", "order": 0, "profile_path": "/1P7n6yuzuWniXdPF03DrCExxYao.jpg"}, {"cast_id": 6, "character": "Rae Blanchard", "credit_id": "5ac25b7fc3a3682d3501fddb", "gender": 1, "id": 126713, "name": "Elizabeth Marvel", "order": 1, "profile_path": "/3jaEuHmPwmoSpDeZHAgBhum6ZrS.jpg"}, {"cast_id": 7, "character": "Jared Barnes", "credit_id": "5ac25b9892514126c301dcd1", "gender": 2, "id": 57136, "name": "Ryan Merriman", "order": 2, "profile_path": "/sdo2IMtBRjiIJOLpmBrebAJaF89.jpg"}, {"cast_id": 1, "character": "Casey Winship", "credit_id": "5716672b92514146c8004abc", "gender": 1, "id": 18261, "name": "Jayne Atkinson", "order": 3, "profile_path": "/Ae4wkn9x4JABoFWlNtdABYv2uol.jpg"}, {"cast_id": 2, "character": "Sherm Hawkins", "credit_id": "5716674c9251413d300000de", "gender": 2, "id": 3041, "name": "Marshall Bell", "order": 4, "profile_path": "/ep5dxNTkjdhXIJeoFZJczTunoB0.jpg"}, {"cast_id": 8, "character": "Ben", "credit_id": "5ac25bca0e0a260c0101e1d4", "gender": 2, "id": 96032, "name": "Chris Conroy", "order": 5, "profile_path": "/2EFBCEKccaLJAwguisMm1XJGJte.jpg"}, {"cast_id": 9, "character": "Laird Devereaux", "credit_id": "5ac25be2c3a3682d1a01e615", "gender": 2, "id": 3267, "name": "George Hamilton", "order": 6, "profile_path": "/za0jt4pZEjHf3kzUecbIC6hpX7I.jpg"}, {"cast_id": 10, "character": "Harlan Lantier", "credit_id": "5ac25bfcc3a368443f05f673", "gender": 2, "id": 6839, "name": "Fritz Weaver", "order": 7, "profile_path": "/bUEX09s2t9vMN3Z5IHchpfxpijU.jpg"}, {"cast_id": 11, "character": "Matty Pierce", "credit_id": "5ac25c1b0e0a260c1401f9b0", "gender": 0, "id": 2013704, "name": "Kim Blacklock", "order": 8, "profile_path": null}, {"cast_id": 12, "character": "Bernie Gimpel", "credit_id": "5ac25c35925141601505c629", "gender": 2, "id": 33489, "name": "Josh Mostel", "order": 9, "profile_path": "/jVG0WNJrTDEwETCDfoz0KxZ4vTd.jpg"}, {"cast_id": 13, "character": "Holly Dean", "credit_id": "5ac25c4cc3a3682d660239ec", "gender": 0, "id": 2013707, "name": "Cindy Lentol", "order": 10, "profile_path": null}, {"cast_id": 14, "character": "Abigail Ross", "credit_id": "5ac25c649251412720020285", "gender": 0, "id": 570284, "name": "Miriam A. Hyman", "order": 11, "profile_path": "/5lXYGiuYqLG74bIyZYBZeflR02P.jpg"}, {"cast_id": 15, "character": "Deidre Macavoy", "credit_id": "5ac25c7e0e0a260c4a022690", "gender": 0, "id": 1732325, "name": "Alison Wachtler", "order": 12, "profile_path": null}, {"cast_id": 16, "character": "Washington Lobbyist", "credit_id": "5ac25c95925141601805cb3b", "gender": 2, "id": 1168858, "name": "Alexander Cook", "order": 13, "profile_path": "/8nWRyKqew5FN4uSJsZ8iA6GezJH.jpg"}, {"cast_id": 17, "character": "Gym Congressman", "credit_id": "5ac25cac0e0a260c4a0226bf", "gender": 0, "id": 2013713, "name": "Bradley J. Van Dussen", "order": 14, "profile_path": null}, {"cast_id": 18, "character": "Martha, a constituent", "credit_id": "5ac25cd00e0a260c1401fa75", "gender": 1, "id": 1805299, "name": "Debra Lord Cooke", "order": 15, "profile_path": "/AoTXOcwvG0h0yo5MW2zPiqaiTyD.jpg"}], "crew": [{"credit_id": "5716676dc3a368673d00f87b", "department": "Directing", "gender": 2, "id": 105338, "job": "Director", "name": "Jared Martin", "profile_path": "/om2ubA98tWLzDf3kFXpdkogv6k.jpg"}, {"credit_id": "5ac25d17c3a3682db501f926", "department": "Production", "gender": 0, "id": 1099920, "job": "Producer", "name": "Johanna Giebelhaus", "profile_path": null}, {"credit_id": "57166779c3a368667801209b", "department": "Directing", "gender": 0, "id": 1607982, "job": "Director", "name": "Robert Mrazek", "profile_path": null}, {"credit_id": "5ac25b5892514126c101e07f", "department": "Writing", "gender": 0, "id": 1607982, "job": "Writer", "name": "Robert Mrazek", "profile_path": null}, {"credit_id": "5ac25cfdc3a3682d66023aa8", "department": "Production", "gender": 0, "id": 2013717, "job": "Associate Producer", "name": "Grover Connell", "profile_path": null}]}}