{"adult": false, "backdrop_path": "/2IGrqSv4PeWzpl4nqNnqVELS3un.jpg", "belongs_to_collection": null, "budget": 0, "genres": [{"id": 80, "name": "Crime"}, {"id": 53, "name": "Thriller"}], "homepage": null, "id": 394374, "imdb_id": "tt5133308", "original_language": "es", "original_title": "Al Final del T\u00fanel", "overview": "A paraplegic computer engineer that moves in a wheelchair and works in his basement starts hearing noises and voices of bank-robbers.", "popularity": 7.939, "poster_path": "/z6qrI5irqqDS7Pt1WjNVe6vbYHG.jpg", "production_companies": [{"id": 5623, "logo_path": null, "name": "Haddock Films", "origin_country": "AR"}, {"id": 10824, "logo_path": null, "name": "Telef\u00e9 International", "origin_country": ""}, {"id": 84812, "logo_path": null, "name": "\u00c1rbol Contenidos", "origin_country": ""}, {"id": 7680, "logo_path": "/uGcInOaHyvFZ337T5OeQKKVjSCJ.png", "name": "Tornasol Films", "origin_country": "ES"}, {"id": 981, "logo_path": "/pkrdO9ykplO4Zc8edikoSX5APUN.png", "name": "Televisi\u00f3n Espa\u00f1ola", "origin_country": "ES"}], "production_countries": [{"iso_3166_1": "ES", "name": "Spain"}, {"iso_3166_1": "AR", "name": "Argentina"}], "release_date": "2016-04-21", "revenue": 0, "runtime": 120, "spoken_languages": [{"iso_639_1": "es", "name": "Espa\u00f1ol"}], "status": "Released", "tagline": "Risk everything.", "title": "At the End of the Tunnel", "video": false, "vote_average": 6.9, "vote_count": 173, "keywords": {"keywords": [{"id": 2217, "name": "rain"}, {"id": 2564, "name": "wheelchair"}, {"id": 6104, "name": "computer"}, {"id": 6593, "name": "stripper"}, {"id": 15363, "name": "bank robbery"}, {"id": 189102, "name": "tunnel"}]}, "similar": {"page": 1, "results": [{"id": 540901, "video": false, "vote_count": 923, "vote_average": 6.3, "title": "Hustlers", "release_date": "2019-09-12", "original_language": "en", "original_title": "Hustlers", "genre_ids": [35, 80, 18], "backdrop_path": "/59ZWXmn2i5MQYUhQOBtOE7jWZGn.jpg", "adult": false, "overview": "A crew of savvy former strip club employees band together to turn the tables on their Wall Street clients.", "poster_path": "/zBhv8rsLOfpFW2M5b6wW78Uoojs.jpg", "popularity": 45.583}, {"adult": false, "backdrop_path": "/aog6vKNxw5USOGP4whH9V1YTR5K.jpg", "genre_ids": [80, 53, 28], "id": 201088, "original_language": "en", "original_title": "Blackhat", "overview": "A man is released from prison to help American and Chinese authorities pursue a mysterious cyber criminal. The dangerous search leads them from Chicago to Hong Kong.", "poster_path": "/sW3VEsulmxMlOmQwm0h7H7lZROi.jpg", "release_date": "2015-01-13", "title": "Blackhat", "video": false, "vote_average": 5.3, "vote_count": 1243, "popularity": 19.392}, {"id": 755, "video": false, "vote_count": 3408, "vote_average": 7.0, "title": "From Dusk Till Dawn", "release_date": "1996-01-19", "original_language": "en", "original_title": "From Dusk Till Dawn", "genre_ids": [28, 80, 27, 53], "backdrop_path": "/3kPTAFgx2BftDOexBe41k8kqSRD.jpg", "adult": false, "overview": "Seth Gecko and his younger brother Richard are on the run after a bloody bank robbery in Texas. They escape across the border into Mexico and will be home-free the next morning, when they pay off the local kingpin. They just have to survive 'from dusk till dawn' at the rendezvous point, which turns out to be a Hell of a strip joint.", "poster_path": "/ce0d4kM5KxT4x1Oq8JkSuNYevri.jpg", "popularity": 21.139}, {"id": 449443, "video": false, "vote_count": 1469, "vote_average": 6.6, "title": "Den of Thieves", "release_date": "2018-01-18", "original_language": "en", "original_title": "Den of Thieves", "genre_ids": [28, 80, 53], "backdrop_path": "/s3FDBLH4qc1IcjexB05Qvbn3wxO.jpg", "adult": false, "overview": "A gritty crime saga which follows the lives of an elite unit of the LA County Sheriff\u2019s Dept. and the state\u2019s most successful bank robbery crew as the outlaws plan a seemingly impossible heist on the Federal Reserve Bank.", "poster_path": "/AfybH6GbGFw1F9bcETe2yu25mIE.jpg", "popularity": 28.396}, {"id": 97, "video": false, "vote_count": 1217, "vote_average": 6.6, "title": "Tron", "release_date": "1982-07-09", "original_language": "en", "original_title": "Tron", "genre_ids": [28, 12, 878], "backdrop_path": "/owAF2FmDO0UnniCbMpCjN8VcFgA.jpg", "adult": false, "overview": "As Kevin Flynn searches for proof that he invented a hit video game, he is 'digitalized' by a laser and finds himself inside 'The Grid', where programs suffer under the tyrannical rule of the Master Control Program (MCP). With the help of a security program called 'TRON\", Flynn seeks to free The Grid from the MCP.", "poster_path": "/cTF8lpXvAwT1SLH9kVFZZl0AO0D.jpg", "popularity": 25.823}, {"id": 10428, "video": false, "vote_count": 690, "vote_average": 6.3, "title": "Hackers", "release_date": "1995-09-14", "original_language": "en", "original_title": "Hackers", "genre_ids": [28, 80, 18, 53], "backdrop_path": "/pxxJtHZB6peCwC1H5cbq25VXJ8b.jpg", "adult": false, "overview": "Along with his new friends, a teenager who was arrested by the US Secret Service and banned from using a computer for writing a computer virus discovers a plot by a nefarious hacker, but they must use their computer skills to find the evidence while being pursued by the Secret Service and the evil computer genius behind the virus.", "poster_path": "/hNjxJbejPHSmKVidHQ9ZHaC0Z7r.jpg", "popularity": 14.405}, {"id": 182560, "video": false, "vote_count": 818, "vote_average": 5.9, "title": "Dark Places", "release_date": "2015-03-31", "original_language": "en", "original_title": "Dark Places", "genre_ids": [53], "backdrop_path": "/t87erbro1ez2rlKTCZ1CQgX5k9C.jpg", "adult": false, "overview": "A woman who survived the brutal killing of her family as a child is forced to confront the events of that day.", "poster_path": "/1z7Bxnxi1lgO0ksc6peI4UssEPf.jpg", "popularity": 10.206}, {"id": 146198, "video": false, "vote_count": 1322, "vote_average": 5.8, "title": "Triple 9", "release_date": "2016-02-19", "original_language": "en", "original_title": "Triple 9", "genre_ids": [28, 9648, 53], "backdrop_path": "/paT9Ovofjj30JvsDRyhFfjgUEfn.jpg", "adult": false, "overview": "A gang of criminals and corrupt cops plan the murder of a police officer in order to pull off their biggest heist yet across town.", "poster_path": "/36zbHT728v00HbbUBmrsOMu7Hde.jpg", "popularity": 15.265}, {"id": 284427, "video": false, "vote_count": 750, "vote_average": 7.7, "title": "Who Am I", "release_date": "2014-09-25", "original_language": "de", "original_title": "Who Am I - Kein System ist sicher", "genre_ids": [53], "backdrop_path": "/iTc8GzE4I4v9NLtEQ7ZaUvIj272.jpg", "adult": false, "overview": "Benjamin, a young German computer whiz, is invited to join a subversive hacker group that wants to be noticed on the world's stage.", "poster_path": "/nMHCJiVFjUmQWC116Ze96u5IhfX.jpg", "popularity": 13.079}, {"id": 9705, "video": false, "vote_count": 1619, "vote_average": 6.2, "title": "Swordfish", "release_date": "2001-06-07", "original_language": "en", "original_title": "Swordfish", "genre_ids": [28, 80, 53], "backdrop_path": "/9iUG3L5pJjfIJBaaCOl1ucdAM4e.jpg", "adult": false, "overview": "Rogue agent Gabriel Shear is determined to get his mitts on $9 billion stashed in a secret Drug Enforcement Administration account. He wants the cash to fight terrorism, but lacks the computer skills necessary to hack into the government mainframe. Enter Stanley Jobson, a n'er-do-well encryption expert who can log into anything.", "poster_path": "/uJdI3eau8BHgTsrUbAeccnKn0ez.jpg", "popularity": 18.744}, {"adult": false, "backdrop_path": "/AkwLeC0Q8GIkYJ6ZI0tc0118AY6.jpg", "genre_ids": [53, 878], "id": 860, "original_language": "en", "original_title": "WarGames", "overview": "High School student David Lightman (Matthew Broderick) has a talent for hacking. But while trying to hack into a computer system to play unreleased video games, he unwittingly taps into the Defense Department's war computer and initiates a confrontation of global proportions! Together with his girlfriend (Ally Sheedy) and a wizardly computer genius (John Wood), David must race against time to outwit his opponent...and prevent a nuclear Armageddon.", "poster_path": "/rQocmooj7bFKS2vZfzWBB5O12eR.jpg", "release_date": "1983-06-03", "title": "WarGames", "video": false, "vote_average": 7.1, "vote_count": 945, "popularity": 14.853}, {"id": 28874, "video": false, "vote_count": 510, "vote_average": 7.6, "title": "Summer Wars", "release_date": "2009-08-01", "original_language": "ja", "original_title": "\u30b5\u30de\u30fc\u30a6\u30a9\u30fc\u30ba", "genre_ids": [16], "backdrop_path": "/7rT6AYzflkQtGZKwWL8AXouDj5G.jpg", "adult": false, "overview": "Kenji is your typical teenage misfit. He\u2019s good at math, bad with girls, and spends most of his time out hanging out in the all-powerful online community known as OZ. His second life is the only life he has \u2013 until the girl of his dreams, Natsuki, hijacks him for a starring role as a fake fianc\u00e9 at her family reunion. Things only get stranger from there. A late-night email containing a cryptic mathematic riddle leads to the unleashing of a rogue AI intent on using the virtual world of OZ to destroy the real world. As Armageddon looms on the horizon, Kenji and his new \u201cfamily\u201d set aside their differences and band together to save the worlds they inhabit in this \"near-perfect blend of social satire and science fiction.\"", "poster_path": "/hoVm9Rndcs7FbVqr6s22kEyUMJ8.jpg", "popularity": 14.865}, {"adult": false, "backdrop_path": "/cKXClElZ72rYHxm64lAFVdjiNAi.jpg", "genre_ids": [28, 80, 18], "id": 9989, "original_language": "en", "original_title": "Antitrust", "overview": "A computer programmer's dream job at a hot Portland-based firm turns nightmarish when he discovers his boss has a secret and ruthless means of dispatching anti-trust problems.", "poster_path": "/4y7FxPArttW23NjgTNl8bwX3RQQ.jpg", "release_date": "2001-01-12", "title": "Antitrust", "video": false, "vote_average": 6.1, "vote_count": 279, "popularity": 11.328}, {"adult": false, "backdrop_path": "/gFqsAmzPrVhkNpxnuVkDVJ4ykuL.jpg", "genre_ids": [28, 12, 35, 80, 18, 53], "id": 9005, "original_language": "en", "original_title": "The Ice Harvest", "overview": "A shady lawyer attempts a Christmas Eve crime, hoping to swindle the local mob out of some money. But his partner, a strip club owner, might have different plans for the cash.", "poster_path": "/4bfSePHdku1tKKpreByQ2g0aSHb.jpg", "release_date": "2005-11-23", "title": "The Ice Harvest", "video": false, "vote_average": 6.1, "vote_count": 148, "popularity": 10.037}, {"id": 241258, "video": false, "vote_count": 352, "vote_average": 5.3, "title": "Incarnate", "release_date": "2016-12-01", "original_language": "en", "original_title": "Incarnate", "genre_ids": [27, 53], "backdrop_path": "/21dr2suNsOCCfeodUYNggoZiRI7.jpg", "adult": false, "overview": "An exorcist comes up against an evil from his past when he uses his skills to enter the mind of a nine year old boy.", "poster_path": "/pSsa9MeiRbfcKx05oDc5yOEYEtb.jpg", "popularity": 12.424}, {"id": 1557, "video": false, "vote_count": 83, "vote_average": 7.2, "title": "23", "release_date": "1998-07-02", "original_language": "de", "original_title": "23", "genre_ids": [18, 53], "backdrop_path": "/h6dfMRb2izpCfY72eOZWSH1Unt1.jpg", "adult": false, "overview": "The movie's plot is based on the true story of a group of young computer hackers from Hannover, Germany. In the late 1980s the orphaned Karl Koch invests his heritage in a flat and a home computer. At first he dials up to bulletin boards to discuss conspiracy theories inspired by his favorite novel, R.A. Wilson's \"Illuminatus\", but soon he and his friend David start breaking into government and military computers. Pepe, one of Karl's rather criminal acquaintances senses that there is money in computer cracking - he travels to east Berlin and tries to contact the KGB.", "poster_path": "/iKO6A0yqmoS8Gk0dQo8d9zIYLhV.jpg", "popularity": 5.474}, {"id": 21454, "video": false, "vote_count": 58, "vote_average": 7.0, "title": "Kiss of Death", "release_date": "1947-08-27", "original_language": "en", "original_title": "Kiss of Death", "genre_ids": [80, 18, 53], "backdrop_path": "/iY6vauknJMCYbHl73lCvrdUHY3V.jpg", "adult": false, "overview": "An ex-con trying to go straight must face a crazed criminal out for revenge.", "poster_path": "/hJr9qgQtdXwjZdB1J40Lt7rFMTI.jpg", "popularity": 7.792}, {"adult": false, "backdrop_path": "/pMXJbEEwungdnXfqCZZKke7esJi.jpg", "genre_ids": [18, 80, 9648, 53], "id": 18680, "original_language": "en", "original_title": "Fear City", "overview": "Strippers in Manhattan are being stalked and murdered by a psycho. A hard-nosed police detective and a conflicted ex-boxer-turned-private-eye, hired by the strip club owners, set out to find him before he strikes again.", "poster_path": "/4ACsGm4tibbvZav2ogHk03GXZPZ.jpg", "release_date": "1984-07-18", "title": "Fear City", "video": false, "vote_average": 6.1, "vote_count": 27, "popularity": 7.937}, {"id": 11525, "video": false, "vote_count": 74, "vote_average": 2.9, "title": "Lawnmower Man 2: Beyond Cyberspace", "release_date": "1996-01-12", "original_language": "en", "original_title": "Lawnmower Man 2: Beyond Cyberspace", "genre_ids": [878], "backdrop_path": "/rCZfdhDuJJTwdUMpuaRiCm9jS0k.jpg", "adult": false, "overview": "Jobe is resuscitated by Jonathan Walker. He wants Jobe to create a special computer chip that would connect all the computers in the world into one network, which Walker would control and use. But what Walker doesn't realize is a group of teenage hackers are on to him and out to stop his plan.", "poster_path": "/nsKDpcdC62krEPlCKKjLSHuMwwu.jpg", "popularity": 6.424}, {"adult": false, "backdrop_path": "/wDLvru60WDE0TDloj3flfxIn5sc.jpg", "genre_ids": [35, 18], "id": 510460, "original_language": "fr", "original_title": "L'amour est une f\u00eate", "overview": "Two cops infiltrate the porn scene in the early 80's.", "poster_path": "/eMmQfzLqqwoQlCyo7BZ1C3GmB8L.jpg", "release_date": "2018-09-19", "title": "Paris Pigalle", "video": false, "vote_average": 5.4, "vote_count": 47, "popularity": 8.14}], "total_pages": 3, "total_results": 58}, "recommendations": {"page": 1, "results": [{"id": 351145, "video": false, "vote_count": 249, "vote_average": 6.8, "title": "Retribution", "release_date": "2015-09-21", "original_language": "es", "original_title": "El desconocido", "genre_ids": [18, 53], "backdrop_path": "/wwWEB8baH38LL4i9RDFgfgWKAOw.jpg", "adult": false, "overview": "While Carlos, a banking executive, takes his two kids to school in his car, he gets a phone call telling him that there is a bomb under the seats and he must to gather a large amount of money; otherwise, his car will blow up.", "poster_path": "/s8L5mN9USLpuSM9Pl7c5UC9unYj.jpg", "popularity": 9.135}, {"adult": false, "backdrop_path": "/2QHSgosZO9uFS4LbdoKckwl32IU.jpg", "genre_ids": [80, 53], "id": 351809, "original_language": "es", "original_title": "Cien a\u00f1os de perd\u00f3n", "overview": "Valencia, Spain. On a rainy morning, six armed men in disguise assault a bank. But what seemed like an easy heist, quickly goes wrong with nothing unfolding as planned, and mistrust quickly builds between the two leaders of the gang.", "poster_path": "/elEaCDGOymaTePaM7oL41WaT0aC.jpg", "release_date": "2016-03-03", "title": "To Steal from a Thief", "video": false, "vote_average": 6.1, "vote_count": 211, "popularity": 8.897}, {"id": 111083, "video": false, "vote_count": 609, "vote_average": 7.6, "title": "The Body", "release_date": "2012-10-04", "original_language": "es", "original_title": "El cuerpo", "genre_ids": [9648, 53], "backdrop_path": "/4Yk873qQvAPt3oiVl7J1DOSJ0az.jpg", "adult": false, "overview": "A woman\u2019s body disappears mysteriously from the morgue without a trace. Police inspector Jaime Pe\u00f1a investigates the strange occurrence with the help of \u00c1lex Ulloa, the widower of the missing woman.", "poster_path": "/sOZzfmlHF9uwm5V4Zf14lm4ptiO.jpg", "popularity": 8.248}, {"adult": false, "backdrop_path": null, "genre_ids": [80, 27], "id": 349193, "original_language": "fr", "original_title": "Cruel", "overview": "Pierre Tardieu, a day laborer, lives with his sick father. Reminiscing about his childhood with his mother on the beach, he can't free himself from her. Murdering someone becomes the only way of realizing his existence. One day, he meets a pianist called Laure in a bookstore and falls in love with her.", "poster_path": "/AutOt6NTM084ruLLQI1aTH3DYSO.jpg", "release_date": "2017-02-01", "title": "Cruel", "video": false, "vote_average": 5.6, "vote_count": 9, "popularity": 1.4}, {"adult": false, "backdrop_path": "/k5TcN7NmkErskcXCgo8ludbCQF0.jpg", "genre_ids": [9648, 53, 80], "id": 167963, "original_language": "es", "original_title": "Tesis sobre un homicidio", "overview": "Roberto is a specialist in Criminal Law whose life is thrown into chaos when he becomes convinced that Gonzalo, one of his best students, has committed a brutal murder right in front of the Faculty of Law. Determined to uncover the truth he begins a personal investigation that will soon become an obsession.", "poster_path": "/mUp6JUYOlGdMrUGyf2A6vqHp812.jpg", "release_date": "2013-01-17", "title": "Thesis on a Homicide", "video": false, "vote_average": 6.3, "vote_count": 95, "popularity": 7.141}, {"adult": false, "backdrop_path": "/kZ8qv9fG97zuW5YDusrbJFFs0ob.jpg", "genre_ids": [35, 18], "id": 456574, "original_language": "ar", "original_title": "\u0645\u062d\u0628\u0633", "overview": "Therese, the mayor's wife in a Lebanese village, joyfully prepares for an overnight visit of her daughter's suitor and his parents. She excitedly shares the happy news of the engagement with pictures of her beloved brother who was killed by a Syrian bomb 20 years ago and is still bizarrely present in every corner of her house. Only when the long-awaited guests are at her doorstep, she discovers they are Syrian; this engagement will only happen over Therese's dead body!", "poster_path": "/y7eSpTyRyufT7rWMGmSZyrX6rU0.jpg", "release_date": "2017-03-01", "title": "Solitaire", "video": false, "vote_average": 7.4, "vote_count": 5, "popularity": 0.859}, {"id": 473328, "video": false, "vote_count": 12, "vote_average": 7.5, "title": "Wrath of Silence", "release_date": "2017-10-13", "original_language": "zh", "original_title": "\u66b4\u88c2\u65e0\u58f0", "genre_ids": [80, 9648, 53], "backdrop_path": "/eP6Mv2rHnlIHivQQYQ5BbdwpuJC.jpg", "adult": false, "overview": "In the 21st Century, a small town in Northern China. There are rich mineral resources in endless mountains. The owners make great fortune and step into the higher class. They change everything with money, but bring disasters to mountain farmers. They are unconscious of darks and dangers until a shepherd boy disappears one day...", "poster_path": "/ldZWRUdfFkXkCYNzHJgTdVMurf2.jpg", "popularity": 3.108}, {"adult": false, "backdrop_path": "/tYqGSudxazGfIzMl0lFLra4bjfG.jpg", "genre_ids": [28, 18, 10749], "id": 75004, "original_language": "ko", "original_title": "\ud48d\uc0b0\uac1c", "overview": "Poongsan has the unenviable - and death-defying - job of delivering messages across the North and South Korean border to separated families. When South Korean government agents ask him to smuggle in In-ok, the lover of a high-ranking North Korean defector, into the South, the damsel and rescuer fall in love instead.", "poster_path": "/ph8kuXsZzLmcyb0NpvtqYrSE0Zj.jpg", "release_date": "2011-06-23", "title": "Poongsan", "video": false, "vote_average": 6.7, "vote_count": 14, "popularity": 1.991}, {"id": 106908, "video": false, "vote_count": 11, "vote_average": 6.1, "title": "Red Lion", "release_date": "1969-10-10", "original_language": "ja", "original_title": "\u8d64\u6bdb", "genre_ids": [28, 35], "backdrop_path": "/iKrlO5H81JUAM1hLSs8BKenyei.jpg", "adult": false, "overview": "Impersonating an Imperial Army officer by wearing a \"red lion's mane\", a poor servant returns to his village after 10 years of absence to end the village's suffering caused by corrupt officials and businessmen. Written by Alex Ebora", "poster_path": "/tWy6v08vIsfQK0J2H2qq6tVWCG.jpg", "popularity": 3.178}, {"adult": false, "backdrop_path": "/8MXSFryhwsBsqt6W2xP25bHa4bZ.jpg", "genre_ids": [35], "id": 166733, "original_language": "el", "original_title": "\u03a4\u03c3\u03af\u03bf\u03c5", "overview": "Athens, mid-August. Tsiou, addicted to substances, while trying to get his dose, mixes a number of people to his search through his sister and her mobster husband. A chain of meetings follows where the pressure passes from one to another.", "poster_path": "/jDi5mMIpOZkpPjQeQrUNpbIKcAH.jpg", "release_date": "2005-10-04", "title": "Tsiou", "video": false, "vote_average": 6.6, "vote_count": 8, "popularity": 1.086}, {"adult": false, "backdrop_path": "/rYYIYpFWnz1Q3QqIDEW3FF7Utst.jpg", "genre_ids": [18, 28, 53], "id": 57019, "original_language": "es", "original_title": "Sin retorno", "overview": "A thriller centered on a man who is accused of a crime he didn't commit.", "poster_path": "/7Ij9xLUvPCXkKKZqgrBYMHx1OAp.jpg", "release_date": "2010-09-29", "title": "No Return", "video": false, "vote_average": 6.2, "vote_count": 9, "popularity": 1.728}, {"adult": false, "backdrop_path": "/gadQKhIHJplzg967YQcpKd0UkOA.jpg", "genre_ids": [10749, 53], "id": 393158, "original_language": "es", "original_title": "Acantilado", "overview": "A mass suicide involving members of a cult takes place in the Canary Islands. Gabriel's younger sister, Cordelia, who he hasn't seen for years, was one of the cult followers. Gabriel decides to travel there and find out what happened.", "poster_path": "/v7A0Jcj59LpeecONpeekQQOlwVA.jpg", "release_date": "2016-06-03", "title": "The Cliff", "video": false, "vote_average": 5.7, "vote_count": 14, "popularity": 3.217}, {"id": 437031, "video": false, "vote_count": 60, "vote_average": 6.5, "title": "Rescue Under Fire", "release_date": "2017-03-10", "original_language": "es", "original_title": "Zona hostil", "genre_ids": [10752], "backdrop_path": "/3LRmQyFiBA2PmvZW6soB96oO9R9.jpg", "adult": false, "overview": "The crew of a medical helicopter suffers an accident when helping a joint force of USA and United Nations troops under Spanish command division in Afghanistan. The Spanish army has only one night to organize the rescue of the crew and injured, but what seems routine turns into hell once they receive the order to rescue the helicopter as well. Things only get worse when during the night a huge a concentration of Talibans begin surround them.", "poster_path": "/pIi99YX0L6YzTHDzt8r7oLG01Ky.jpg", "popularity": 5.09}, {"adult": false, "backdrop_path": "/o56PbKHEIzrNk9qkdofgZUEKfSa.jpg", "genre_ids": [18, 53], "id": 391617, "original_language": "es", "original_title": "Capit\u00e1n K\u00f3blic", "overview": "Tom\u00e1s K\u00f3blic, a former pilot and captain of the Argentinian Navy, disobeys an order and becomes a fugitive in order to survive. He chooses to hide in a small town in the south of the country, where his presence will catch the attention of the unscrupulous and violent local marshal.", "poster_path": "/o2J0BVxC2Zv6EDQRjBGRzxWtNAs.jpg", "release_date": "2016-04-14", "title": "K\u00f3blic", "video": false, "vote_average": 6.2, "vote_count": 34, "popularity": 3.63}, {"adult": false, "backdrop_path": "/64uQ9idmXpKpssmppA5XolfCQ4N.jpg", "genre_ids": [80, 18, 53], "id": 13653, "original_language": "es", "original_title": "El Aura", "overview": "In neo-noir fashion El Aura narrates in the first person the hallucinating voyage of Espinoza, a quiet, cynical taxidermist, who suffers epilepsy attacks, and is obsessed with committing the perfect crime.", "poster_path": "/1ijdC7UMR2lYaQ6a1SnF5ZfZ9Q0.jpg", "release_date": "2005-09-15", "title": "The Aura", "video": false, "vote_average": 7.1, "vote_count": 88, "popularity": 5.413}, {"id": 371459, "video": false, "vote_count": 11, "vote_average": 6.9, "title": "A Good Wife", "release_date": "2017-01-19", "original_language": "sr", "original_title": "Dobra \u017eena", "genre_ids": [18], "backdrop_path": "/rmYabPGBouH6AdlzQZB7d9DIx0d.jpg", "adult": false, "overview": "When 50-year-old Milena finds out about the terrible past of her seemingly ideal husband, while simultaneously learning of her own cancer diagnosis, she begins an awakening from the suburban paradise she has been living in.", "poster_path": "/waiO6TCyMIiTFtmp1tE0eTjEjpi.jpg", "popularity": 1.869}, {"adult": false, "backdrop_path": "/i5sCOLXOXLhcJAWCrkhm0W6deF3.jpg", "genre_ids": [18], "id": 110393, "original_language": "en", "original_title": "Elefante blanco", "overview": "The \"Villa Virgin\", a shantytown in the slums of Buenos Aires. Julian and Nicolas, two priests and long-standing friends, work tirelessly to help the local people. Julian uses his political connections to oversee the construction of a hospital. Nicolas joins him following the failure of a project he was leading in the jungle, after paramilitary forces assassinated members of the community. Deeply troubled, he finds a little comfort in Luciana, a young, attractive, atheist social worker. As Nicolas' faith weakens, tension and violence between the slum drug dealing cartels grow. And when work on the hospital is halted by ministerial decree, the fuse is lit...", "poster_path": "/jR23RdlMY8sYP3oWSmCz5DaZ2ok.jpg", "release_date": "2012-05-16", "title": "White Elephant", "video": false, "vote_average": 6.6, "vote_count": 55, "popularity": 0.6}, {"id": 264273, "video": false, "vote_count": 27, "vote_average": 6.9, "title": "Broken", "release_date": "2014-04-10", "original_language": "ko", "original_title": "\ubc29\ud669\ud558\ub294 \uce7c\ub0a0", "genre_ids": [28, 18, 53], "backdrop_path": "/5gUzGebvpb9qneaw2wWh0ueWIYN.jpg", "adult": false, "overview": "A man becomes a fugitive from the police after he kills one of the men who raped and murdered his daughter.", "poster_path": "/fuVlb2bEeTJhwwWBWe2JmX0gCX4.jpg", "popularity": 5.394}, {"adult": false, "backdrop_path": "/ty4sKPdck5kCG95QpExMjdmaNLA.jpg", "genre_ids": [18], "id": 309028, "original_language": "ja", "original_title": "\u6df1\u591c\u98df\u5802", "overview": "Every night, Master (Kaoru Kobayashi) is busy with customers at the restaurant he runs. He has a worried face, looking at the funerary urn which someone left at his restaurant. His customers also talk about the funerary urn.", "poster_path": "/8rohjcs3efZBcx8Sgn6Q6UzSLmA.jpg", "release_date": "2014-11-01", "title": "Midnight Diner", "video": false, "vote_average": 7.7, "vote_count": 19, "popularity": 3.741}, {"adult": false, "backdrop_path": "/mQ2Fxi4j3mcgezWgMks39r9N4Rg.jpg", "genre_ids": [53], "id": 411638, "original_language": "es", "original_title": "Tarde para la ira", "overview": "The tentative romance between a gentle Madrid labourer and a working single mother becomes a struggle for survival when the woman\u2019s violent boyfriend returns from prison, in the gritty, suspenseful debut feature from Spanish actor Rau\u0301l Are\u0301valo.", "poster_path": "/t2eyq20mFve0M0h3ocQWgdG6iB.jpg", "release_date": "2016-09-09", "title": "The Fury of a Patient Man", "video": false, "vote_average": 6.7, "vote_count": 255, "popularity": 8.568}], "total_pages": 2, "total_results": 24}, "credits": {"cast": [{"cast_id": 0, "character": "Joaqu\u00edn", "credit_id": "571d8ffd92514121a000826b", "gender": 2, "id": 19803, "name": "Leonardo Sbaraglia", "order": 0, "profile_path": "/nMaQ61zgfYFTmHVdw5KhdnFNj86.jpg"}, {"cast_id": 1, "character": "Galereto", "credit_id": "571d901cc3a36836f80014bd", "gender": 2, "id": 87016, "name": "Pablo Echarri", "order": 1, "profile_path": "/uFF8TKTY2d5lTWu53IkI7e97L2V.jpg"}, {"cast_id": 2, "character": "Berta", "credit_id": "571d9056c3a3685d26001b75", "gender": 1, "id": 224731, "name": "Clara Lago", "order": 2, "profile_path": "/toRvWE6jRsJhl4At2MrspKapjnq.jpg"}, {"cast_id": 7, "character": "Guttman", "credit_id": "5722c7759251413bc40006ec", "gender": 2, "id": 17094, "name": "Federico Luppi", "order": 3, "profile_path": "/lNMqvLiykP9VIM6bCYf8jLuglVM.jpg"}, {"cast_id": 3, "character": "Zurdo", "credit_id": "5722c60392514156e0000169", "gender": 0, "id": 93649, "name": "Javier Godino", "order": 4, "profile_path": "/2NRb8XVxWPpd7fe5d1UxD6nhQQi.jpg"}, {"cast_id": 9, "character": "Betty", "credit_id": "58766cd7c3a3680617000657", "gender": 0, "id": 1737065, "name": "Uma Salduende", "order": 5, "profile_path": null}], "crew": [{"credit_id": "5722c647c3a3682d1e001202", "department": "Directing", "gender": 0, "id": 992771, "job": "Director", "name": "Rodrigo Grande", "profile_path": "/tvivAqX2rHOkTuPG0uTaViSHk9w.jpg"}, {"credit_id": "5722c657c3a368646c00039f", "department": "Writing", "gender": 0, "id": 992771, "job": "Writer", "name": "Rodrigo Grande", "profile_path": "/tvivAqX2rHOkTuPG0uTaViSHk9w.jpg"}, {"credit_id": "5722c66f92514176da000d65", "department": "Camera", "gender": 2, "id": 414697, "job": "Director of Photography", "name": "F\u00e9lix Monti", "profile_path": null}, {"credit_id": "5722c79792514176da000da6", "department": "Art", "gender": 1, "id": 454038, "job": "Art Direction", "name": "Mariela R\u00edpodas", "profile_path": null}, {"credit_id": "5ae4dc019251416ac300d32f", "department": "Production", "gender": 1, "id": 2022322, "job": "Producer", "name": "Jimena Blanco", "profile_path": null}]}}