{"adult": false, "backdrop_path": "/ecGKvv4Zm0lun94HPVOnnOWQRU8.jpg", "belongs_to_collection": null, "budget": 430000, "genres": [{"id": 99, "name": "Documentary"}], "homepage": "http://www.brexitthemovie.com/", "id": 397403, "imdb_id": "tt5724616", "original_language": "en", "original_title": "Brexit: The Movie", "overview": "A feature-length documentary to show why Britain should vote to LEAVE the EU - and would thrive outside of it.  Brexit: The Movie spells out the danger of staying part of the EU. Is it safe to give a remote government beyond our control the power to make laws? Is it safe to tie ourselves to countries which are close to financial ruin, drifting towards scary political extremism, and suffering long-term, self-inflicted economic decline?", "popularity": 2.84, "poster_path": "/31gnW5UCXKZO4sby1Gh6uI9mnHX.jpg", "production_companies": [{"id": 20588, "logo_path": null, "name": "Wag TV", "origin_country": ""}], "production_countries": [{"iso_3166_1": "GB", "name": "United Kingdom"}], "release_date": "2016-05-11", "revenue": 0, "runtime": 71, "spoken_languages": [{"iso_639_1": "en", "name": "English"}], "status": "Released", "tagline": "Exposing the EU racket & making the case for a prosperous, independent Britain.", "title": "Brexit: The Movie", "video": false, "vote_average": 6.6, "vote_count": 5, "keywords": {"keywords": [{"id": 1295, "name": "europe"}, {"id": 195769, "name": "european union"}, {"id": 225615, "name": "brexit"}]}, "similar": {"page": 1, "results": [{"adult": false, "backdrop_path": null, "genre_ids": [99], "id": 490773, "original_language": "en", "original_title": "Europe at Sea", "overview": "Exclusive access to chief diplomat of the EU Federica Mogherini as Europe faces a crumbling world order.", "poster_path": "/38QQFYrHKqZAUwGNmmShRvNYJzy.jpg", "release_date": "2017-11-28", "title": "Europe at Sea", "video": false, "vote_average": 0.0, "vote_count": 0, "popularity": 2.024}, {"id": 566222, "video": false, "vote_count": 186, "vote_average": 7.0, "title": "The Great Hack", "release_date": "2019-01-26", "original_language": "en", "original_title": "The Great Hack", "genre_ids": [99], "backdrop_path": "/mGyMkoip5CpfcfNNQFIiuoIQkKb.jpg", "adult": false, "overview": "Data\u2014arguably the world\u2019s most valuable asset\u2014is being weaponized to wage cultural and political wars. The dark world of data exploitation is uncovered through the unpredictable, personal journeys of players on different sides of the explosive Cambridge Analytica/Facebook data story.", "poster_path": "/uIrGgUzasEUA7v8uChRhUUFzLwE.jpg", "popularity": 16.949}, {"adult": false, "backdrop_path": "/pKawqrtCBMmxarft7o1LbEynys7.jpg", "genre_ids": [10752, 18, 28], "id": 228150, "original_language": "en", "original_title": "Fury", "overview": "In the last months of World War II, as the Allies make their final push in the European theatre, a battle-hardened U.S. Army sergeant named 'Wardaddy' commands a Sherman tank called 'Fury' and its five-man crew on a deadly mission behind enemy lines. Outnumbered and outgunned, Wardaddy and his men face overwhelming odds in their heroic attempts to strike at the heart of Nazi Germany.", "poster_path": "/fa4PxEPRKWRyjzYje1jM4m30qzd.jpg", "release_date": "2014-10-15", "title": "Fury", "video": false, "vote_average": 7.4, "vote_count": 7302, "popularity": 53.985}, {"id": 341013, "video": false, "vote_count": 4063, "vote_average": 6.3, "title": "Atomic Blonde", "release_date": "2017-07-26", "original_language": "en", "original_title": "Atomic Blonde", "genre_ids": [28, 9648, 53], "backdrop_path": "/g3hni0i9iAQ13jDGOFWavJFlojc.jpg", "adult": false, "overview": "An undercover MI6 agent is sent to Berlin during the Cold War to investigate the murder of a fellow agent and recover a missing list of double agents.", "poster_path": "/kV9R5h0Yct1kR8Hf8sJ1nX0Vz4x.jpg", "popularity": 28.364}, {"id": 343668, "video": false, "vote_count": 6163, "vote_average": 6.9, "title": "Kingsman: The Golden Circle", "release_date": "2017-09-20", "original_language": "en", "original_title": "Kingsman: The Golden Circle", "genre_ids": [28, 12, 35], "backdrop_path": "/uExPmkOHJySrbJyJDJylHDqaT58.jpg", "adult": false, "overview": "When an attack on the Kingsman headquarters takes place and a new villain rises, Eggsy and Merlin are forced to work together with the American agency known as the Statesman to save the world.", "poster_path": "/34xBL6BXNYFqtHO9zhcgoakS4aP.jpg", "popularity": 33.963}, {"id": 177677, "video": false, "vote_count": 5677, "vote_average": 7.1, "title": "Mission: Impossible - Rogue Nation", "release_date": "2015-07-23", "original_language": "en", "original_title": "Mission: Impossible - Rogue Nation", "genre_ids": [28, 12], "backdrop_path": "/8XeLfNQrDmFQmPTqxapfWUnKiLf.jpg", "adult": false, "overview": "Ethan and team take on their most impossible mission yet\u2014eradicating 'The Syndicate', an International and highly-skilled rogue organisation committed to destroying the IMF.", "poster_path": "/z2sJd1OvAGZLxgjBdSnQoLCfn3M.jpg", "popularity": 29.233}, {"adult": false, "backdrop_path": "/2J283YNxKhxAqHeVegUJ5mzLfGb.jpg", "genre_ids": [80, 18, 9648], "id": 392044, "original_language": "en", "original_title": "Murder on the Orient Express", "overview": "Genius Belgian detective Hercule Poirot investigates the murder of an American tycoon aboard the Orient Express train.", "poster_path": "/iBlfxlw8qwtUS0R8YjIU7JtM6LM.jpg", "release_date": "2017-11-03", "title": "Murder on the Orient Express", "video": false, "vote_average": 6.7, "vote_count": 6050, "popularity": 27.701}, {"id": 146216, "video": false, "vote_count": 2566, "vote_average": 6.5, "title": "RED 2", "release_date": "2013-07-18", "original_language": "en", "original_title": "RED 2", "genre_ids": [28, 35, 80, 53], "backdrop_path": "/iOkkgY4byK8MBoF3Mexybu22J1I.jpg", "adult": false, "overview": "Retired C.I.A. agent Frank Moses reunites his unlikely team of elite operatives for a global quest to track down a missing portable nuclear device.", "poster_path": "/dvWITvEzlq8IaUbxUuBVKvXqfo6.jpg", "popularity": 23.213}, {"adult": false, "backdrop_path": "/6xKCYgH16UuwEGAyroLU6p8HLIn.jpg", "genre_ids": [18, 80], "id": 238, "original_language": "en", "original_title": "The Godfather", "overview": "Spanning the years 1945 to 1955, a chronicle of the fictional Italian-American Corleone crime family. When organized crime family patriarch, Vito Corleone barely survives an attempt on his life, his youngest son, Michael steps in to take care of the would-be killers, launching a campaign of bloody revenge.", "poster_path": "/rPdtLWNsZmAtoZl9PK7S2wE3qiS.jpg", "release_date": "1972-03-14", "title": "The Godfather", "video": false, "vote_average": 8.6, "vote_count": 11276, "popularity": 47.035}, {"id": 207932, "video": false, "vote_count": 4175, "vote_average": 5.9, "title": "Inferno", "release_date": "2016-10-13", "original_language": "en", "original_title": "Inferno", "genre_ids": [18, 9648, 53], "backdrop_path": "/ulzy4NDp7SzVkpUSDR67vawFCCT.jpg", "adult": false, "overview": "After waking up in a hospital with amnesia, professor Robert Langdon and a doctor must race against time to foil a deadly global plot.", "poster_path": "/oFOG2yIRcluKfTtYbzz71Vj9bgz.jpg", "popularity": 19.051}, {"id": 2503, "video": false, "vote_count": 4835, "vote_average": 7.4, "title": "The Bourne Ultimatum", "release_date": "2007-08-03", "original_language": "en", "original_title": "The Bourne Ultimatum", "genre_ids": [28, 18, 9648, 53], "backdrop_path": "/6WpDOqkZFmhNJ0rwuLJiZVKlZi1.jpg", "adult": false, "overview": "Bourne is brought out of hiding once again by reporter Simon Ross who is trying to unveil Operation Blackbriar, an upgrade to Project Treadstone, in a series of newspaper columns. Information from the reporter stirs a new set of memories, and Bourne must finally uncover his dark past while dodging The Company's best efforts to eradicate him.", "poster_path": "/fHho6JYYY0nRcETWSoeI19iZsNF.jpg", "popularity": 16.034}, {"id": 429617, "video": false, "vote_count": 5765, "vote_average": 7.6, "title": "Spider-Man: Far from Home", "release_date": "2019-06-28", "original_language": "en", "original_title": "Spider-Man: Far from Home", "genre_ids": [28, 12, 878], "backdrop_path": "/5myQbDzw3l8K9yofUXRJ4UTVgam.jpg", "adult": false, "overview": "Peter Parker and his friends go on a summer trip to Europe. However, they will hardly be able to rest - Peter will have to agree to help Nick Fury uncover the mystery of creatures that cause natural disasters and destruction throughout the continent.", "poster_path": "/4q2NNj4S5dG2RLF9CpXsej7yXl.jpg", "popularity": 76.057}, {"id": 374720, "video": false, "vote_count": 10120, "vote_average": 7.4, "title": "Dunkirk", "release_date": "2017-07-19", "original_language": "en", "original_title": "Dunkirk", "genre_ids": [28, 18, 10752], "backdrop_path": "/fudEG1VUWuOqleXv6NwCExK0VLy.jpg", "adult": false, "overview": "The story of the miraculous evacuation of Allied soldiers from Belgium, Britain, Canada and France, who were cut off and surrounded by the German army from the beaches and harbour of Dunkirk between May 26th and June 4th 1940 during World War II.", "poster_path": "/bOXBV303Fgkzn2K4FeKDc0O31q4.jpg", "popularity": 28.538}, {"id": 364689, "video": false, "vote_count": 1607, "vote_average": 7.1, "title": "Ferdinand", "release_date": "2017-12-09", "original_language": "en", "original_title": "Ferdinand", "genre_ids": [12, 16, 35, 10751], "backdrop_path": "/sTOhZruocNubL0HxjvdouwCEL9I.jpg", "adult": false, "overview": "Ferdinand, a little bull, prefers sitting quietly under a cork tree just smelling the flowers versus jumping around, snorting, and butting heads with other bulls. As Ferdinand grows big and strong, his temperament remains mellow, but one day five men come to choose the \"biggest, fastest, roughest bull\" for the bullfights in Madrid and Ferdinand is mistakenly chosen.  Based on the classic 1936 children's book by Munro Leaf.", "poster_path": "/rMm94JsRfcOPiPVsTRcBiiVBOhz.jpg", "popularity": 19.608}, {"adult": false, "backdrop_path": "/o4lpqMqDQGx4RVorWzcHnSaDeRo.jpg", "genre_ids": [27], "id": 1690, "original_language": "en", "original_title": "Hostel", "overview": "Three backpackers head to a Slovakian city that promises to meet their hedonistic expectations, with no idea of the hell that awaits them.", "poster_path": "/zF3pEs1CUbjPgioxDH4h2MEHsWl.jpg", "release_date": "2006-01-06", "title": "Hostel", "video": false, "vote_average": 5.8, "vote_count": 2026, "popularity": 16.556}, {"adult": false, "backdrop_path": "/eGxubizUGFOTHlywjizEmHSjoSO.jpg", "genre_ids": [36, 10770, 18], "id": 536176, "original_language": "en", "original_title": "Brexit: The Uncivil War", "overview": "Political strategist Dominic Cummings leads a popular but controversial campaign to convince British voters to leave the European Union from 2015 up until the present day.", "poster_path": "/fKfYKQQMNARXOgyf5ieVeGWlNQU.jpg", "release_date": "2019-01-19", "title": "Brexit: The Uncivil War", "video": false, "vote_average": 6.6, "vote_count": 116, "popularity": 11.97}, {"adult": false, "backdrop_path": "/wG34hjck71zUbWH8qtAA5WkJddl.jpg", "genre_ids": [12, 35, 10751, 14, 10749], "id": 2897, "original_language": "en", "original_title": "Around the World in Eighty Days", "overview": "Based on the famous book by Jules Verne the movie follows Phileas Fogg on his journey around the world. Which has to be completed within 80 days, a very short period for those days.", "poster_path": "/2vLu9eVefJ6WK3OJnlLQQE4lSw5.jpg", "release_date": "1956-10-17", "title": "Around the World in Eighty Days", "video": false, "vote_average": 6.6, "vote_count": 222, "popularity": 14.862}, {"adult": false, "backdrop_path": "/epmzVTsBT8etWp9NeHJnGGoTw08.jpg", "genre_ids": [99], "id": 352208, "original_language": "en", "original_title": "Where to Invade Next", "overview": "To understand firsthand what the United States of America can learn from other nations, Michael Moore playfully \u201cinvades\u201d some to see what they have to offer.", "poster_path": "/fu3yXLoYtMxbv3NLquCDVLNK35p.jpg", "release_date": "2015-12-23", "title": "Where to Invade Next", "video": false, "vote_average": 7.4, "vote_count": 276, "popularity": 10.628}, {"id": 239573, "video": false, "vote_count": 523, "vote_average": 5.2, "title": "Unfinished Business", "release_date": "2015-03-05", "original_language": "en", "original_title": "Unfinished Business", "genre_ids": [35], "backdrop_path": "/x7vbvgCGpDVHVJC0S8hQacsQazS.jpg", "adult": false, "overview": "A hard-working small business owner and his two associates travel to Europe to close the most important deal of their lives.  But what began as a routine business trip goes off the rails in every imaginable \u2013 and unimaginable \u2013 way, including unplanned stops at a massive sex fetish event and a global economic summit.", "poster_path": "/syjAbeqw3pNwEmRQHlRGHZUG9kF.jpg", "popularity": 9.894}, {"id": 11453, "video": false, "vote_count": 473, "vote_average": 4.7, "title": "Deuce Bigalow: European Gigolo", "release_date": "2005-08-12", "original_language": "en", "original_title": "Deuce Bigalow: European Gigolo", "genre_ids": [35], "backdrop_path": "/9r6hn0oASpT89WDjsJ4U10Bh0Dn.jpg", "adult": false, "overview": "Deuce Bigalow goes to Amsterdam after a little accident including two irritating kids and a bunch of aggressive dolphins. There he meets up with his old friend T.J. Hicks. But a mysterious killer starts killing some of Amsterdam's finest gigolos and T.J. is mistaken for the extremely gay murderer. Deuce must enter the gigolo industry again to find the real murderer and clear T.J.'s name.", "poster_path": "/1P8fWex0NzgtPE4cgIUDHrVSARM.jpg", "popularity": 11.4}], "total_pages": 7, "total_results": 132}, "recommendations": {"page": 1, "results": [], "total_pages": 1, "total_results": 0}, "credits": {"cast": [{"cast_id": 0, "character": "Himself", "credit_id": "57364350c3a3687e2f000d8c", "gender": 0, "id": 29881, "name": "Martin Durkin", "order": 1, "profile_path": null}, {"cast_id": 3, "character": "Himself", "credit_id": "594803e5925141400d042f51", "gender": 2, "id": 1835924, "name": "James Delingpole", "order": 2, "profile_path": "/bhuYZFhqSbkh9miWkrwi0E5f87z.jpg"}, {"cast_id": 4, "character": "Himself", "credit_id": "5948041bc3a36816c5043ba3", "gender": 2, "id": 1835925, "name": "Simon Heffer", "order": 3, "profile_path": null}, {"cast_id": 5, "character": "Himself", "credit_id": "594804e7c3a368111502f18f", "gender": 2, "id": 1835929, "name": "Mark Littlewood", "order": 4, "profile_path": "/3na3kLOZXc9hxFTpaHhAenGiXyF.jpg"}, {"cast_id": 6, "character": "Himself", "credit_id": "594805159251417e4c0223c0", "gender": 2, "id": 1835930, "name": "Matt Ridley", "order": 5, "profile_path": null}, {"cast_id": 7, "character": "Himself", "credit_id": "5948056a925141400d0430b7", "gender": 2, "id": 1225297, "name": "Kelvin MacKenzie", "order": 6, "profile_path": "/r1k9FIonCHmgSXcDtNmofvTpikH.jpg"}, {"cast_id": 8, "character": "Herself", "credit_id": "59480580c3a368261901f59b", "gender": 1, "id": 1835931, "name": "Kate Hoey", "order": 7, "profile_path": "/yiuCmlDI8Sorxmbjujfg3wi0Gbm.jpg"}, {"cast_id": 9, "character": "Himself", "credit_id": "594805fac3a368171b03eaef", "gender": 2, "id": 1835935, "name": "David Davis", "order": 8, "profile_path": "/AuvQuQTSMcpK2gvaxQfyoBYa9m3.jpg"}, {"cast_id": 10, "character": "Herself", "credit_id": "5948063cc3a36816c5043dad", "gender": 1, "id": 1835936, "name": "Janet Daley", "order": 9, "profile_path": null}, {"cast_id": 11, "character": "Himself", "credit_id": "594806889251413fc2040bb3", "gender": 2, "id": 1835937, "name": "James Bartholomew", "order": 10, "profile_path": null}, {"cast_id": 12, "character": "Herself", "credit_id": "594806b39251413fbb0421e4", "gender": 1, "id": 1835938, "name": "Claire Fox", "order": 11, "profile_path": null}, {"cast_id": 13, "character": "Himself", "credit_id": "594806c59251413fbb0421f8", "gender": 2, "id": 1442411, "name": "Nigel Farage", "order": 12, "profile_path": "/7bu0wsTseRXMh9xetMfogNaE1h9.jpg"}, {"cast_id": 14, "character": "Himself", "credit_id": "5948070f9251417e4c0225d6", "gender": 2, "id": 1835939, "name": "Peter Lilley", "order": 13, "profile_path": null}, {"cast_id": 15, "character": "Herself", "credit_id": "5948076cc3a36816e4041f2e", "gender": 1, "id": 1835940, "name": "Melanie Phillips", "order": 14, "profile_path": "/g58bQ1EhKB1z0dz8nSsddPYHrFg.jpg"}, {"cast_id": 16, "character": "Himself", "credit_id": "594807d1c3a36816c5043f19", "gender": 2, "id": 1835941, "name": "Daniel Hannan", "order": 15, "profile_path": "/rpXvqh1LhlosKcsTRogLSiHBIIh.jpg"}, {"cast_id": 20, "character": "Himself", "credit_id": "5948084bc3a368170f045178", "gender": 0, "id": 1835947, "name": "Eamonn Butler", "order": 19, "profile_path": null}, {"cast_id": 21, "character": "Himself", "credit_id": "59480911c3a368265f022e77", "gender": 2, "id": 1835956, "name": "John Ellis", "order": 20, "profile_path": null}, {"cast_id": 22, "character": "Himself", "credit_id": "59480ae0c3a36816f6044cff", "gender": 2, "id": 1225330, "name": "Michael Howard", "order": 21, "profile_path": "/zfLqx8OEtfZ92wmaNK7GFcVVAtf.jpg"}, {"cast_id": 23, "character": "Himself", "credit_id": "59480afe9251417e4c022960", "gender": 2, "id": 1835958, "name": "Steve Davies", "order": 22, "profile_path": null}, {"cast_id": 24, "character": "Himself", "credit_id": "59480d77c3a36816f6044f3c", "gender": 2, "id": 1835966, "name": "John Mills", "order": 23, "profile_path": "/kIl9cS3DNBgHa3nFlDfw84KrUwL.jpg"}, {"cast_id": 25, "character": "Herself", "credit_id": "59480e469251417e4c022c02", "gender": 1, "id": 1835972, "name": "Ruth Lea", "order": 24, "profile_path": "/x6Ah2wLxCgKXPT0qjS0uSuQ3ijU.jpg"}, {"cast_id": 26, "character": "Himself", "credit_id": "59480f339251413fdd042dab", "gender": 0, "id": 1835984, "name": "Gerald Mason", "order": 25, "profile_path": null}, {"cast_id": 27, "character": "Himself", "credit_id": "59480feac3a368170f045847", "gender": 2, "id": 1835996, "name": "Steve Baker", "order": 26, "profile_path": null}, {"cast_id": 28, "character": "Himself", "credit_id": "5948107cc3a36816e4042672", "gender": 2, "id": 1836002, "name": "Douglas Carswell", "order": 27, "profile_path": "/cqavXh0HqnQ9H5iiwbRwQinxr1g.jpg"}, {"cast_id": 29, "character": "Himself", "credit_id": "59481098c3a368111502fbb9", "gender": 2, "id": 1836004, "name": "John Redwood", "order": 28, "profile_path": "/cSiMd55K4Gz08x14BOi0eLnK2W5.jpg"}, {"cast_id": 30, "character": "", "credit_id": "594811969251413fbb042a55", "gender": 0, "id": 1836013, "name": "JHA Thompson", "order": 29, "profile_path": null}, {"cast_id": 31, "character": "", "credit_id": "594811e2c3a368265f0235e7", "gender": 0, "id": 1836014, "name": "Beat Kappeler", "order": 30, "profile_path": null}, {"cast_id": 32, "character": "Himself", "credit_id": "594812779251413ff4043b54", "gender": 2, "id": 1836015, "name": "Roger K\u00f6ppel", "order": 31, "profile_path": null}, {"cast_id": 33, "character": "Himself", "credit_id": "5948129b9251413ff4043b73", "gender": 2, "id": 1836016, "name": "Allister Heath", "order": 32, "profile_path": null}, {"cast_id": 34, "character": "Himself", "credit_id": "594813449251413fbb042bd2", "gender": 2, "id": 1836017, "name": "Patrick Minford", "order": 33, "profile_path": null}, {"cast_id": 35, "character": "Himself", "credit_id": "5948137e9251413fc204162e", "gender": 2, "id": 1836018, "name": "Nigel Lawson", "order": 34, "profile_path": "/pyEbrm2yNFEHGMKQvHTQQ1e6zuj.jpg"}], "crew": [{"credit_id": "575000dc9251413337000fa1", "department": "Directing", "gender": 0, "id": 29881, "job": "Director", "name": "Martin Durkin", "profile_path": null}, {"credit_id": "575000e1c3a36840c6000315", "department": "Writing", "gender": 0, "id": 29881, "job": "Writer", "name": "Martin Durkin", "profile_path": null}]}}