{"adult": false, "backdrop_path": "/1G1GKTyC7lKy25PXJfZ8SLs7Hsa.jpg", "belongs_to_collection": null, "budget": 0, "genres": [{"id": 28, "name": "Action"}, {"id": 12, "name": "Adventure"}, {"id": 35, "name": "Comedy"}], "homepage": null, "id": 39751, "imdb_id": "tt0367602", "original_language": "zh", "original_title": "\u9189\u99ac\u9a2e", "overview": "China, the early 1930's: martial arts master Wen Biao discovers that his brother has been using their security company for illegal activities. A confrontation between the brothers leaves Web Biao missing and presumed dead.", "popularity": 3.625, "poster_path": "/bYzOMdPckWSUgjNrqgAvoUEBduj.jpg", "production_companies": [{"id": 51095, "logo_path": null, "name": "Super Power Film Production Co., Ltd.", "origin_country": ""}, {"id": 5798, "logo_path": "/tmuI9BGXgpWLmokhlxpnG3IGNQB.png", "name": "Shaw Brothers", "origin_country": "HK"}, {"id": 2270, "logo_path": null, "name": "China Film Group Corporation", "origin_country": ""}], "production_countries": [{"iso_3166_1": "HK", "name": "Hong Kong"}], "release_date": "2003-05-19", "revenue": 0, "runtime": 97, "spoken_languages": [{"iso_639_1": "cn", "name": "\u5e7f\u5dde\u8bdd / \u5ee3\u5dde\u8a71"}, {"iso_639_1": "zh", "name": "\u666e\u901a\u8bdd"}, {"iso_639_1": "en", "name": "English"}, {"iso_639_1": "es", "name": "Espa\u00f1ol"}], "status": "Released", "tagline": "Few can master it. None can survive it.", "title": "Drunken Monkey", "video": false, "vote_average": 6.0, "vote_count": 5, "keywords": {"keywords": [{"id": 779, "name": "martial arts"}, {"id": 780, "name": "kung fu"}, {"id": 1632, "name": "opium"}, {"id": 18432, "name": "female martial artist"}, {"id": 190992, "name": "drunken master"}]}, "similar": {"page": 1, "results": [{"id": 140300, "video": false, "vote_count": 3210, "vote_average": 6.7, "title": "Kung Fu Panda 3", "release_date": "2016-01-23", "original_language": "en", "original_title": "Kung Fu Panda 3", "genre_ids": [28, 12, 16, 35, 10751], "backdrop_path": "/eHWmEUP4fa7h1Fe7TXfTL7ncDl8.jpg", "adult": false, "overview": "Continuing his \"legendary adventures of awesomeness\", Po must face two hugely epic, but different threats: one supernatural and the other a little closer to his home.", "poster_path": "/MZFPacfKzgisnPoJIPEFZUXBBT.jpg", "popularity": 30.681}, {"id": 146, "video": false, "vote_count": 1771, "vote_average": 7.3, "title": "Crouching Tiger, Hidden Dragon", "release_date": "2000-07-06", "original_language": "zh", "original_title": "\u5367\u864e\u85cf\u9f99", "genre_ids": [28, 12, 18, 10749], "backdrop_path": "/dKenGLffFC9HwuxG4Sq7fJRkiFb.jpg", "adult": false, "overview": "Two warriors in pursuit of a stolen sword and a notorious fugitive are led to an impetuous, physically-skilled, teenage nobleman's daughter, who is at a crossroads in her life.", "poster_path": "/3yYPhffQRuy45HlNabFxNLyP9mg.jpg", "popularity": 20.102}, {"adult": false, "backdrop_path": "/wNm3hNJuOk117wEwuESKO8eCEAk.jpg", "genre_ids": [28], "id": 9461, "original_language": "en", "original_title": "Enter the Dragon", "overview": "A martial artist agrees to spy on a reclusive crime lord using his invitation to a tournament there as cover.", "poster_path": "/6C006cxfwjWYkBW4fM3xCMyr7Yg.jpg", "release_date": "1973-08-17", "title": "Enter the Dragon", "video": false, "vote_average": 7.4, "vote_count": 911, "popularity": 21.422}, {"adult": false, "backdrop_path": "/tBWZkKMcrWdrpkOAA84FBlzE2XK.jpg", "genre_ids": [12, 28, 53], "id": 9053, "original_language": "en", "original_title": "DOA: Dead or Alive", "overview": "Four beautiful rivals at an invitation-only martial-arts tournament join forces against a sinister threat. Princess Kasumi is an aristocratic warrior trained by martial-arts masters. Tina Armstrong is a wrestling superstar. Helena Douglas is an athlete with a tragic past. Christie Allen earns her keep as a thief and an assassin-for-hire.", "poster_path": "/lZ6vZka2M0jtH1khYWa8j73E275.jpg", "release_date": "2006-09-07", "title": "DOA: Dead or Alive", "video": false, "vote_average": 4.9, "vote_count": 415, "popularity": 15.433}, {"id": 11841, "video": false, "vote_count": 157, "vote_average": 7.6, "title": "The 36th Chamber of Shaolin", "release_date": "1978-02-02", "original_language": "cn", "original_title": "\u5c11\u6797\u4e09\u5341\u516d\u623f", "genre_ids": [28, 12], "backdrop_path": "/5YXoGdYF1pGv7NHypZWIVMvYl0O.jpg", "adult": false, "overview": "The anti-Ching patriots, under the guidance of Ho Kuang-han, have secretly set up their base in Canton, disguised as school masters. During a brutal Manchu attack, Lui manages to escape, and devotes himself to learning the martial arts in order to seek revenge.", "poster_path": "/hv29eb8g7iCDr0WgAcDdwZinuoY.jpg", "popularity": 13.558}, {"adult": false, "backdrop_path": "/qQToUhCbcDl0DgSIDmxMaLBHjdz.jpg", "genre_ids": [28], "id": 20811, "original_language": "cn", "original_title": "\u9ec3\u98db\u9d3b'92\u4e4b\u9f8d\u884c\u5929\u4e0b", "overview": "Uncle Tak is famous for using Chinese herbal medicines to cure diseases. A martial arts expert, he also teaches the young how to defend themselves. One of his students, Johnny, dreams of monopolizing the teaching of kung fu throughout the United States. To accomplish this, he tries to kill Uncle Tak. Chuck, Uncle Tak's best student from Hong Kong, comes to Los Angeles to find his master. Chuck is willing to let Johnny have his way, and tries to take Uncle Tak back to Hong Kong. But Johnny and his men will not leave Chuck alone. Chuck, on his way back to Hong Kong, returns for the showdown.", "poster_path": "/ctz65ZpisdfRTMWCdQYSEQexzn7.jpg", "release_date": "1992-05-29", "title": "The Master", "video": false, "vote_average": 6.0, "vote_count": 40, "popularity": 10.291}, {"id": 10618, "video": false, "vote_count": 113, "vote_average": 7.3, "title": "Once Upon a Time in China II", "release_date": "1992-08-15", "original_language": "cn", "original_title": "\u9ec3\u98db\u9d3b\u4e4b\u4e8c \u7537\u5152\u7576\u81ea\u5f37", "genre_ids": [28, 35], "backdrop_path": "/7B72qecQtVAG1b2kvLhVqNGHqzy.jpg", "adult": false, "overview": "In the sequel to the Tsui Hark classic, Wong Fei-Hung faces The White Lotus society, a fanatical cult seeking to drive the Europeans out of China through violence, even attacking Chinese who follow Western ways. Wong must also defend Dr. Sun Yat Sen, a revolutionary, from the military.", "poster_path": "/4V3hasCQLYtzVRJDGKDoYLUTYQd.jpg", "popularity": 14.992}, {"adult": false, "backdrop_path": "/fy1C5tM9L39i7JF0iw6DIycOO1j.jpg", "genre_ids": [18, 28, 53], "id": 11713, "original_language": "zh", "original_title": "\u7cbe\u6b66\u9580", "overview": "Chen Zhen returns to the international compound of China only to learn of his beloved teacher's death. This is compounded by the continual racist harassment by the Japanese population in the area. Unlike his friends, he confronts it head on with his mastery of martial arts while investigating his teacher's murder.", "poster_path": "/ld1kAfLJTgpZVm3jwT58bTxmXl7.jpg", "release_date": "1972-03-22", "title": "Fist of Fury", "video": false, "vote_average": 7.4, "vote_count": 406, "popularity": 16.304}, {"id": 9470, "video": false, "vote_count": 1392, "vote_average": 7.3, "title": "Kung Fu Hustle", "release_date": "2004-02-10", "original_language": "cn", "original_title": "\u529f\u592b", "genre_ids": [28, 35, 80, 14], "backdrop_path": "/qpJWj6MI6VLRt9bGbJVZtmFvqWw.jpg", "adult": false, "overview": "Set in Canton, China in the 1940s, the story revolves in a town ruled by the Axe Gang, Sing who desperately wants to become a member. He stumbles into a slum ruled by eccentric landlords who turns out to be the greatest kung-fu masters in disguise. Sing's actions eventually cause the Axe Gang and the slumlords to engage in an explosive kung-fu battle. Only one side will win and only one hero will emerge as the greatest kung-fu master of all.", "poster_path": "/dZsfDrNLGWgsIUQL1vGhl8tbnqY.jpg", "popularity": 17.654}, {"adult": false, "backdrop_path": "/9DlrsXH9LOgPeuF6Hljmx8GQNlM.jpg", "genre_ids": [18, 28], "id": 7549, "original_language": "zh", "original_title": "\u970d\u5143\u7532", "overview": "Huo Yuan Jia became the most famous martial arts fighter in all of China at the turn of the 20th Century. Huo faced personal tragedy but ultimately fought his way out of darkness, defining the true spirit of martial arts and also inspiring his nation. The son of a great fighter who didn't wish for his child to follow in his footsteps, Huo resolves to teach himself how to fight - and win.", "poster_path": "/nPku02hVAFPsAd1pJr81OkdBidw.jpg", "release_date": "2006-01-26", "title": "Fearless", "video": false, "vote_average": 7.4, "vote_count": 648, "popularity": 12.897}, {"id": 9502, "video": false, "vote_count": 6771, "vote_average": 7.1, "title": "Kung Fu Panda", "release_date": "2008-06-04", "original_language": "en", "original_title": "Kung Fu Panda", "genre_ids": [12, 16, 35, 10751], "backdrop_path": "/pmLEmMLYCreFAxfdCt5uO1wDgSi.jpg", "adult": false, "overview": "When the Valley of Peace is threatened, lazy Po the panda discovers his destiny as the \"chosen one\" and trains to become a kung fu hero, but transforming the unsleek slacker into a brave warrior won't be easy. It's up to Master Shifu and the Furious Five -- Tigress, Crane, Mantis, Viper and Monkey -- to give it a try.", "poster_path": "/mk3UyyaLyXhgIhmLji25OUPXvGR.jpg", "popularity": 23.634}, {"id": 24, "video": false, "vote_count": 10676, "vote_average": 7.9, "title": "Kill Bill: Vol. 1", "release_date": "2003-10-10", "original_language": "en", "original_title": "Kill Bill: Vol. 1", "genre_ids": [28, 80], "backdrop_path": "/kkS8PKa8c134vXsj2fQkNqOaCXU.jpg", "adult": false, "overview": "An assassin is shot by her ruthless employer, Bill, and other members of their assassination circle \u2013 but she lives to plot her vengeance.", "poster_path": "/v7TaX8kXMXs5yFFGR41guUDNcnB.jpg", "popularity": 35.853}, {"adult": false, "backdrop_path": "/913sS08HhcTQTwz7X567iR6DLHn.jpg", "genre_ids": [12, 28, 53], "id": 682, "original_language": "en", "original_title": "The Man with the Golden Gun", "overview": "A golden bullet has 007 engraved on it as it smashes into the secret service headquarters. The bullet came from the professional killer Scaramanga who has yet to miss a target and James Bond begins a mission to try and stop him.", "poster_path": "/7VSVgxAvA7IdTf8T6Oon1eaReeJ.jpg", "release_date": "1974-12-01", "title": "The Man with the Golden Gun", "video": false, "vote_average": 6.5, "vote_count": 996, "popularity": 17.905}, {"adult": false, "backdrop_path": "/xC9DRxpKgqJKDYLa9mkNa74eX4q.jpg", "genre_ids": [18, 12, 28, 36], "id": 79, "original_language": "zh", "original_title": "\u82f1\u96c4", "overview": "One man defeated three assassins who sought to murder the most powerful warlord in pre-unified China.", "poster_path": "/xkJnow23eDxwQXB0iIWAWkBF47y.jpg", "release_date": "2002-07-22", "title": "Hero", "video": false, "vote_average": 7.5, "vote_count": 1210, "popularity": 23.249}, {"id": 604, "video": false, "vote_count": 6344, "vote_average": 6.9, "title": "The Matrix Reloaded", "release_date": "2003-05-15", "original_language": "en", "original_title": "The Matrix Reloaded", "genre_ids": [28, 12, 878, 53], "backdrop_path": "/Fp3piEuHXxKnPBO5R0Wj4wjZHg.jpg", "adult": false, "overview": "Six months after the events depicted in The Matrix, Neo has proved to be a good omen for the free humans, as more and more humans are being freed from the matrix and brought to Zion, the one and only stronghold of the Resistance.  Neo himself has discovered his superpowers including super speed, ability to see the codes of the things inside the matrix and a certain degree of pre-cognition. But a nasty piece of news hits the human resistance: 250,000 machine sentinels are digging to Zion and would reach them in 72 hours. As Zion prepares for the ultimate war, Neo, Morpheus and Trinity are advised by the Oracle to find the Keymaker who would help them reach the Source.  Meanwhile Neo's recurrent dreams depicting Trinity's death have got him worried and as if it was not enough, Agent Smith has somehow escaped deletion, has become more powerful than before and has fixed Neo as his next target.", "poster_path": "/ezIurBz2fdUc68d98Fp9dRf5ihv.jpg", "popularity": 26.284}, {"id": 605, "video": false, "vote_count": 5698, "vote_average": 6.6, "title": "The Matrix Revolutions", "release_date": "2003-11-03", "original_language": "en", "original_title": "The Matrix Revolutions", "genre_ids": [28, 12, 878, 53], "backdrop_path": "/pdVHUsb2eEz9ALNTr6wfRJe5xVa.jpg", "adult": false, "overview": "The human city of Zion defends itself against the massive invasion of the machines as Neo fights to end the war at another front while also opposing the rogue Agent Smith.", "poster_path": "/sKogjhfs5q3azmpW7DFKKAeLEG8.jpg", "popularity": 22.724}, {"adult": false, "backdrop_path": "/3hYidDKVg4rsrkHQsbOKeqt6qkj.jpg", "genre_ids": [35, 28], "id": 19274, "original_language": "cn", "original_title": "\u7b11\u62f3\u602a\u62db", "overview": "Jackie Chan is a youngster, living in a remote vllage with his grandfather who teaches him Kong-Fu (naturally). He keeps getting into fights, even though his grandfather warns him not to show their Kong-Fu to others. Jackie, though, is tempted by some thugs he beat up to act as the master of a Kong-Fu school. This school's name apparently spreads far, as an old enemy of Jackie's grandfather (who t", "poster_path": "/ic5iTcB0HOfNCjQRV10SJ5oA4El.jpg", "release_date": "1979-02-17", "title": "Fearless Hyena", "video": false, "vote_average": 6.6, "vote_count": 59, "popularity": 12.832}, {"id": 10620, "video": false, "vote_count": 38, "vote_average": 5.9, "title": "Once Upon a Time in China and America", "release_date": "1997-02-01", "original_language": "cn", "original_title": "\u9ec3\u98db\u9d3b\u4e4b\u897f\u57df\u96c4\u7345", "genre_ids": [28, 37], "backdrop_path": "/hbM6yHd51ZqJP9pRV96W7Sus4xE.jpg", "adult": false, "overview": "So goes to the U.S. to open a martial arts school. Around this time, many Chinese people were sold off to U.S. railroad companies, and were brutally treated by the Americans under the harsh working conditions. Thus, the American workers' hatred towards the Chinese immigrants is high. As a result, So gets into trouble with the Americans and the mob, and calls Master Wong for help.", "poster_path": "/fNOpZTtYbk0Kx26m141PeJu53wM.jpg", "popularity": 7.813}, {"id": 44865, "video": false, "vote_count": 426, "vote_average": 6.5, "title": "The Grandmaster", "release_date": "2013-01-10", "original_language": "zh", "original_title": "\u4e00\u4ee3\u5b97\u5e2b", "genre_ids": [28, 18, 36], "backdrop_path": "/k3ATJ7zmlCw45x6OH4WutlXqTvy.jpg", "adult": false, "overview": "Ip Man's peaceful life in Foshan changes after Gong Yutian seeks an heir for his family in Southern China. Ip Man then meets Gong Er who challenges him for the sake of regaining her family's honor. After the Second Sino-Japanese War, Ip Man moves to Hong Kong and struggles to provide for his family. In the mean time, Gong Er chooses the path of vengeance after her father was killed by Ma San.", "poster_path": "/8OIEVvoTmbGotdygjXzSNX8ribV.jpg", "popularity": 10.32}, {"adult": false, "backdrop_path": "/ic450gLSYFUGb5Gxv39YXOqOGOP.jpg", "genre_ids": [28, 80, 53], "id": 11134, "original_language": "cn", "original_title": "\u8b66\u5bdf\u6545\u4e8b III\uff1a\u8d85\u7d1a\u8b66\u5bdf", "overview": "A Hong Kong detective teams up with his female Red Chinese counterpart to stop a Chinese drug czar.", "poster_path": "/sw94gRwWJf1O4uMFHmDyZNXJeIj.jpg", "release_date": "1992-07-04", "title": "Police Story 3: Super Cop", "video": false, "vote_average": 6.7, "vote_count": 210, "popularity": 11.796}], "total_pages": 82, "total_results": 1639}, "recommendations": {"page": 1, "results": [{"id": 64311, "video": false, "vote_count": 6, "vote_average": 5.9, "title": "King Eagle", "release_date": "1971-01-01", "original_language": "zh", "original_title": "Ying Wang", "genre_ids": [28], "backdrop_path": "/sM3ycfjcBg6jwuy9DRXWTQLwX3C.jpg", "adult": false, "overview": "Reclusive hero Jin Fei, (Ti Lung) known as the King Eagle, inadvertently gets involved in the internal conflicts of the Tien Yi Tong sociaty, after he falls in love their 7th chief, Yuk Lin (Li Ching)", "poster_path": "/2NF5sqFS0vym5zZX2sqV7UDRStz.jpg", "popularity": 1.193}, {"id": 73749, "video": false, "vote_count": 9, "vote_average": 6.3, "title": "The Brave Archer", "release_date": "1977-07-30", "original_language": "zh", "original_title": "\u5c04\u9d70\u82f1\u96c4\u50b3", "genre_ids": [28, 18], "backdrop_path": "/mLvoKrVRcecvgC6rMGbiq0iq4gV.jpg", "adult": false, "overview": "Guo Jing and Yang Kang are the sons of two rebels. The rebels are killed by imperial soldiers and the boys are rescued by six pugilists later. The pugilists agree to separate the two boys, tutor them separately in martial arts, and let them meet again when they have grown up, to determine whose abilities are better. Guo becomes the student of the \"Seven Freaks of Jiangnan\" while Yang Kang becomes the foster son of a Jurchen prince inadvertently.", "poster_path": "/lJjQKm3qZI7sXwa1AlrWG4x9Bp0.jpg", "popularity": 2.207}, {"id": 107828, "video": false, "vote_count": 5, "vote_average": 6.2, "title": "The Dragon Missile", "release_date": "1976-04-24", "original_language": "zh", "original_title": "\u98db\u9f8d\u65ac", "genre_ids": [28], "backdrop_path": "/6hkMoBsd7z3ZOKZQxtm4O8kajFT.jpg", "adult": false, "overview": "Lo Lieh stars as Sima Jun, a killer working for a corrupt lord whose orders are followed without question or hesitation. When the lord (Ku Feng) suffers from a life-threatening boil on his back, he is told by the Imperial doctor that an herb called \"Longevity Rattan\" offers the only cure and is grown in a remote village by an herbalist named Tan. Lo is sent on a mission to get the herb and bring it back before it's too late (seven days). A jealous aide saddles Lo with six other fighters to accompany him, i.e. steal the herb when they get the chance and race back to the capital so the aide will get the credit. Lo doesn't trust the six and none of them trust each other. At one point, one of the six nearly botches the whole mission.", "poster_path": "/p1V0kLnnRs0RIWL4REWkZQC8fQj.jpg", "popularity": 3.059}, {"adult": false, "backdrop_path": "/5NJbkdVBO6k2ZyPDIKNGjILikTz.jpg", "genre_ids": [28, 12], "id": 44963, "original_language": "ja", "original_title": "\u5fcd\u8005\u6b66\u82b8\u5e16 \u767e\u5730\u4e09\u592a\u592b", "overview": "In the middle of the 16th century, Hideyoshi, a power hungry warlord sets out to destroy the Momochi clan. He sends his war commander in search of the clan's hidden gold only to find that two daggers are the key to the hiding place of the treasured gold. Spanning decades, the quest for the missing daggers takes Shiranui through war and ancient tradition.", "poster_path": "/nZMgytyPPCI9fcVjnfKDcc3S6rK.jpg", "release_date": "1980-11-15", "title": "Shogun's Ninja", "video": false, "vote_average": 6.0, "vote_count": 7, "popularity": 5.257}, {"adult": false, "backdrop_path": "/wu24RTZ9I04EtVlBOoPmIsuLwww.jpg", "genre_ids": [28, 12, 35], "id": 206446, "original_language": "en", "original_title": "Ma fung gwai kuen", "overview": "Hui Ying-hung, legendary director Chang Cheh's discovery, and the protege of equally legendary director Liu Chia-liang co-stars with Liu's nephew, Liu Chia-yung in this fast-paced, action packed comedy of kung-fu characters. Liu Chia-yung is saved from drug smugglers by Hui Ying-hung, whose godfather is a drunken master and whose leprous godmother is mistress of the fairly off-putting Leprosy Boxing style.", "poster_path": "/c7jqTaIqc29LiLTPrc2Q028U9Pp.jpg", "release_date": "1979-09-14", "title": "The Tigress of Shaolin", "video": false, "vote_average": 5.2, "vote_count": 5, "popularity": 2.768}, {"adult": false, "backdrop_path": "/riCXa8IbXQwpQ1nU70oeTkU6nmy.jpg", "genre_ids": [28, 14], "id": 20188, "original_language": "cn", "original_title": "\u5982\u4f86\u795e\u638c", "overview": "When Long Jian-fei is tossed from a cliff by the new sweetheart of his meanspirited ex-girlfriend, the friendly Dameng dragon-dog saves the hapless man's life, and brings him to Flame Cloud Devil, the blind master of the Buddha's Palm technique.", "poster_path": "/fL7GBFiDLKLmsgR919VbUpdOgBS.jpg", "release_date": "1982-08-20", "title": "Buddha's Palm", "video": false, "vote_average": 6.9, "vote_count": 8, "popularity": 5.109}, {"id": 179631, "video": false, "vote_count": 5, "vote_average": 6.2, "title": "Return of the Sentimental Swordsman", "release_date": "1981-01-31", "original_language": "zh", "original_title": "\u9b54\u528d\u4fe0\u60c5", "genre_ids": [28], "backdrop_path": "/9LKfJKbZilBzCT7cbo7obY0OF3e.jpg", "adult": false, "overview": "Li Xunhuan comes back to his home after three years of wandering. He had decided to have a normal life, but a group of skilled martial arts fighters and leaders are bent on killing him, so they can be ranked top by Bai Xiaosheng in his renowned list of the best warriors in the martial arts world. Li Xunhuan battles them as he searches for his estranged friend A'fei, who is now married and living in seclusion. Li asks A'fei to join forces and fight against a new threat that wants to rule the world: the Money Clan.", "poster_path": "/zb5govg6Z9EtoOHYKi6RTa8arCi.jpg", "popularity": 1.981}, {"adult": false, "backdrop_path": "/rCAYkWzStOf8gcI9qMwCLNNnEWm.jpg", "genre_ids": [28, 12], "id": 138845, "original_language": "zh", "original_title": "\u8001\u9df9\u7684\u528d", "overview": "A rampaging swordsman slices and dices his way across China on a bloody mission to cut down every warrior in his way, and claim the blade of the legendary Supreme Swordsman in this Shaw Brothers classic starring Derek Yee and Jason Pai Piao, and directed by Keith Li Baak Ling. But when the son of a slain sword maker emerges as an unexpected challenger, the ruthless killer realizes that he may have finally met his match.", "poster_path": "/oeaRW1AKLhUPEinVgXS0FuLB14E.jpg", "release_date": "1984-10-10", "title": "The Supreme Swordsman", "video": false, "vote_average": 6.6, "vote_count": 5, "popularity": 1.986}, {"id": 67023, "video": false, "vote_count": 5, "vote_average": 4.9, "title": "World of the Drunken Master", "release_date": "1979-01-01", "original_language": "cn", "original_title": "\u9152\u4ed9\u5341\u516b\u8dcc", "genre_ids": [28, 35], "backdrop_path": "/zNwYdaX5m8xnM8MaIS37XhP2XJv.jpg", "adult": false, "overview": "Chan Hui Lau stars in this vintage martial arts film as Chang, the owner of a winery and master of Drunken Boxing, a deadly kung fu technique that, as the name implies, requires its practitioner to be drunk. His relatively peaceful life is interrupted when he catches two boys (Li Yi Min and Jack Long) stealing grapes from his vineyards and puts them to work for him. Over time, he teaches them the art of Drunken Boxing. When the two boys get into a fight with some local toughs, they provoke the wrath of Yeh Hu (Lung Fei), Chang's enemy.", "poster_path": "/3r5wWDN1bQ0PZnV8YPpbivWR7JV.jpg", "popularity": 2.455}, {"adult": false, "backdrop_path": "/jjqmr0AjX0Ow2epgm4RVu5PGIqF.jpg", "genre_ids": [28, 18], "id": 73751, "original_language": "zh", "original_title": "\u5c04\u9d70\u82f1\u96c4\u50b3\u7e8c\u96c6", "overview": "Huang Rong is taken hostage by Ouyang Feng, who attempts to use her to seize the Nine Yin Manual from Guo Jing. Guo and Hong Qigong rescue Huang Rong and Guo gives Ouyang an \"edited\" version of the manual, that will eventually cause Ouyang to become insane after he practises the skills in the manual wrongly. Ouyang, Hong and Guo get into a fight, in which Ouyang Ke is injured, and Guo and Hong use the opportunity to escape. However, Hong Qigong is also wounded and he gives Huang Rong his Dog Beating Staff, effectively handing over his leadership of the Beggars' Sect to her. Ouyang Feng and Ouyang Ke pursue Guo Jing and Huang Rong to a deserted town for revenge. Guo and Huang take shelter in an abandoned tavern inhabited by a only a retarded girl called Shagu.", "poster_path": "/ntiYNynB17AvTf5AcV73Z8yMdCG.jpg", "release_date": "1978-05-13", "title": "The Brave Archer 2", "video": false, "vote_average": 6.1, "vote_count": 4, "popularity": 2.416}, {"adult": false, "backdrop_path": "/5X4F4Vo5o1iBhB92XGYKlWYX3I9.jpg", "genre_ids": [28, 12], "id": 164439, "original_language": "zh", "original_title": "\u6c5f\u6e56\u6f22\u5b50", "overview": "Millionaire Chu Te-Sa (Chiang) invests his considerable wealth into the rebel movement who are intent on usurping the ruling Mongol powers. His goals are impeded by a lack of support though and the supposed allies he has made in the town are merely eager to get their hands on his money. During an attack where these craven 'comrades' flee, Chu befriends three con-artists who relish the chance to show off their fighting skills. The trio subsequently agree to help Chu in his quest to end Mongol rule and hatch a plan to destroy a major munitions dump", "poster_path": "/Ia7YHwUJwhBF4ZYnv6Au2rFSJ0.jpg", "release_date": "1977-05-27", "title": "Magnificent Wanderers", "video": false, "vote_average": 5.9, "vote_count": 4, "popularity": 2.803}], "total_pages": 1, "total_results": 11}, "credits": {"cast": [{"cast_id": 12, "character": "Great Uncle", "credit_id": "52fe472e9251416c9106ca57", "gender": 2, "id": 78871, "name": "Wu Jing", "order": 0, "profile_path": "/terFS9M2F8Gc46K4i057JRUK45N.jpg"}, {"cast_id": 3, "character": "Chan Kai Yip", "credit_id": "52fe472e9251416c9106ca27", "gender": 0, "id": 123280, "name": "Wing-Kin Lau", "order": 1, "profile_path": null}, {"cast_id": 4, "character": "Siu-Ma", "credit_id": "52fe472e9251416c9106ca2b", "gender": 0, "id": 123281, "name": "Shannon Yao", "order": 2, "profile_path": null}, {"cast_id": 5, "character": "Master Man Bil", "credit_id": "52fe472e9251416c9106ca2f", "gender": 2, "id": 26775, "name": "Liu Chia-Liang", "order": 3, "profile_path": "/1cKWtvMp0onUAn4OfuclM1693gn.jpg"}, {"cast_id": 13, "character": "Yu Hoi Yeung", "credit_id": "5788807a9251410fbb003aaf", "gender": 2, "id": 936373, "name": "Chi Kuan-Chun", "order": 4, "profile_path": "/9xs1pSbqJMBpeyEqByUuDM7noab.jpg"}, {"cast_id": 14, "character": "Detective Hung Yat Fu", "credit_id": "57888096925141221e001254", "gender": 2, "id": 240171, "name": "Gordon Liu Chia-Hui", "order": 5, "profile_path": "/yTI36A27P9YdFbzrCwjpmEpDGbR.jpg"}], "crew": [{"credit_id": "52fe472e9251416c9106ca23", "department": "Directing", "gender": 2, "id": 26775, "job": "Director", "name": "Liu Chia-Liang", "profile_path": "/1cKWtvMp0onUAn4OfuclM1693gn.jpg"}, {"credit_id": "52fe472e9251416c9106ca3b", "department": "Sound", "gender": 2, "id": 63578, "job": "Music", "name": "Tommy Wai", "profile_path": null}, {"credit_id": "52fe472e9251416c9106ca47", "department": "Editing", "gender": 0, "id": 68030, "job": "Editor", "name": "Hai Kit-Wai", "profile_path": null}, {"credit_id": "52fe472e9251416c9106ca35", "department": "Production", "gender": 1, "id": 70676, "job": "Producer", "name": "Mona Fong", "profile_path": null}, {"credit_id": "52fe472e9251416c9106ca53", "department": "Writing", "gender": 0, "id": 123275, "job": "Writer", "name": "Keith Li", "profile_path": null}, {"credit_id": "5a0e81b892514138e40094ef", "department": "Camera", "gender": 0, "id": 123282, "job": "Director of Photography", "name": "Wong Bo-Man", "profile_path": null}, {"credit_id": "52fe472e9251416c9106ca4d", "department": "Art", "gender": 2, "id": 123283, "job": "Art Direction", "name": "Angelo Castilho", "profile_path": null}]}}