{"adult": false, "backdrop_path": "/mgBApJm3wzgp17pKVb9hqn8JpBu.jpg", "belongs_to_collection": null, "budget": 0, "genres": [{"id": 18, "name": "Drama"}, {"id": 53, "name": "Thriller"}], "homepage": null, "id": 399256, "imdb_id": "tt3613314", "original_language": "en", "original_title": "The Ghoul", "overview": "A homicide detective goes undercover as a patient to investigate a psychotherapist he believes is linked to a strange double murder. As his therapy sessions continue the line between fantasy and reality begins to blur.", "popularity": 3.168, "poster_path": "/1qbonhVXGKTEH6JenZRqc1XNz1D.jpg", "production_companies": [{"id": 94277, "logo_path": null, "name": "Ghoul Film", "origin_country": ""}], "production_countries": [{"iso_3166_1": "GB", "name": "United Kingdom"}], "release_date": "2017-08-04", "revenue": 0, "runtime": 81, "spoken_languages": [{"iso_639_1": "en", "name": "English"}], "status": "Released", "tagline": "I know its name", "title": "The Ghoul", "video": false, "vote_average": 6.1, "vote_count": 23, "keywords": {"keywords": [{"id": 162846, "name": "ghost"}]}, "similar": {"page": 1, "results": [{"adult": false, "backdrop_path": "/zZAJke7HMmQfc52L1AzvQkmMR3e.jpg", "genre_ids": [53, 27, 18], "id": 288158, "original_language": "en", "original_title": "The Woman in Black 2: Angel of Death", "overview": "40 years after the first haunting at Eel Marsh House, a group of children evacuated from WWII London arrive, awakening the house's darkest inhabitant.", "poster_path": "/kzWRtyMtazWA22LJXA64KKZ3slY.jpg", "release_date": "2014-12-30", "title": "The Woman in Black 2: Angel of Death", "video": false, "vote_average": 5.1, "vote_count": 681, "popularity": 9.114}, {"adult": false, "backdrop_path": "/2F8cwDiU43qYYmRVCyv2Lx5E36C.jpg", "genre_ids": [14, 18], "id": 13188, "original_language": "en", "original_title": "Scrooge", "overview": "Ebenezer Scrooge (Alastair Sim) malcontentedly shuffles through life as a cruel miserly businessman until one fateful Christmas Eve when he is visited by three spirits, sent show him how his unhappy childhood and maladaptive adult behavior over has let him a selfish, lonely, bitter old man.  Released in the USA as \"A Christmas Carol\".", "poster_path": "/vIgQuTnJljMIwzdM94D3rnIgzlx.jpg", "release_date": "1951-11-28", "title": "Scrooge", "video": false, "vote_average": 7.5, "vote_count": 139, "popularity": 10.803}, {"adult": false, "backdrop_path": "/59baGxEztxeXW1oFjs8EBgXxTXk.jpg", "genre_ids": [27, 53], "id": 91586, "original_language": "en", "original_title": "Insidious: Chapter 2", "overview": "The haunted Lambert family seeks to uncover the mysterious childhood secret that has left them dangerously connected to the spirit world.", "poster_path": "/vmWgw1Lsc6bHThA6S2k8fPsROaI.jpg", "release_date": "2013-09-12", "title": "Insidious: Chapter 2", "video": false, "vote_average": 6.6, "vote_count": 2515, "popularity": 21.591}, {"id": 10014, "video": false, "vote_count": 874, "vote_average": 5.8, "title": "A Nightmare on Elm Street Part 2: Freddy's Revenge", "release_date": "1985-10-31", "original_language": "en", "original_title": "A Nightmare on Elm Street Part 2: Freddy's Revenge", "genre_ids": [27], "backdrop_path": "/tJTrNDt1242xe4zlatlZfDMvWjg.jpg", "adult": false, "overview": "A new family moves into the house on Elm Street, and before long, the kids are again having nightmares about deceased child murderer Freddy Krueger. This time, Freddy attempts to possess a teenage boy to cause havoc in the real world, and can only be overcome if the boy's sweetheart can master her fear.", "poster_path": "/seEMZxo6bhHWbWPNcBQfsMAk39F.jpg", "popularity": 16.661}, {"id": 4011, "video": false, "vote_count": 3507, "vote_average": 7.3, "title": "Beetlejuice", "release_date": "1988-02-29", "original_language": "en", "original_title": "Beetlejuice", "genre_ids": [35, 14], "backdrop_path": "/upAwc1kPQJU1ZWeMgEWV8Lp6CWb.jpg", "adult": false, "overview": "Thanks to an untimely demise via drowning, a young couple end up as poltergeists in their New England farmhouse, where they fail to meet the challenge of scaring away the insufferable new owners, who want to make drastic changes. In desperation, the undead newlyweds turn to an expert frightmeister, but he's got a diabolical agenda of his own.", "poster_path": "/gWnW7vxm8yr01TVLQhL4aI02orp.jpg", "popularity": 34.958}, {"id": 620, "video": false, "vote_count": 5187, "vote_average": 7.4, "title": "Ghostbusters", "release_date": "1984-06-08", "original_language": "en", "original_title": "Ghostbusters", "genre_ids": [35, 14], "backdrop_path": "/qmDy6Rdom8d8UFj9GeAAtVIjTRT.jpg", "adult": false, "overview": "After losing their academic posts at a prestigious university, a team of parapsychologists goes into business as proton-pack-toting \"ghostbusters\" who exterminate ghouls, hobgoblins and supernatural pests of all stripes. An ad campaign pays off when a knockout cellist hires the squad to purge her swanky digs of demons that appear to be living in her refrigerator.", "poster_path": "/3FS3oBdorgczgfCkFi2u8ZTFfpS.jpg", "popularity": 24.995}, {"adult": false, "backdrop_path": "/kQOLgJGvFjQ7EwGfaPkW9dlGFXJ.jpg", "genre_ids": [27, 9648], "id": 565, "original_language": "en", "original_title": "The Ring", "overview": "It sounded like just another urban legend: A videotape filled with nightmarish images, leading to a phone call foretelling the viewer's death in exactly seven days. As a newspaper reporter, Rachel Keller was naturally skeptical of the story, until four teenagers all met with mysterious deaths exactly one week after watching just such a tape. Allowing her investigative curiosity to get the better of her, Rachel tracks down the video... and watches it. Now she has just seven days to unravel the mystery of the Ring.", "poster_path": "/zHJFdhqEXZJxG653oZvOM3PmNON.jpg", "release_date": "2002-10-18", "title": "The Ring", "video": false, "vote_average": 6.6, "vote_count": 3616, "popularity": 12.821}, {"adult": false, "backdrop_path": "/97vocRyj35cdKwCpK4ZEfb7oFZm.jpg", "genre_ids": [27, 53], "id": 77949, "original_language": "en", "original_title": "The Awakening", "overview": "1921 England is overwhelmed by the loss and grief of World War I. Hoax exposer Florence Cathcart (Hall) visits a boarding school to explain sightings of a child ghost.", "poster_path": "/1iIB1eR9pFxoOdAp4FhPCYwQ1TA.jpg", "release_date": "2011-08-17", "title": "The Awakening", "video": false, "vote_average": 6.4, "vote_count": 868, "popularity": 15.354}, {"adult": false, "backdrop_path": "/qWNFwjDJOMDOnx5JRQSA6xqiTQP.jpg", "genre_ids": [27, 53], "id": 335796, "original_language": "en", "original_title": "Ouija: Origin of Evil", "overview": "In 1965 Los Angeles, a widowed mother and her two daughters add a new stunt to bolster their s\u00e9ance scam business and unwittingly invite authentic evil into their home. When the youngest daughter is overtaken by the merciless spirit, this small family confronts unthinkable fears to save her and send her possessor back to the other side.", "poster_path": "/pzhGcMGuOxxnq9ePtQPY80Wp0BG.jpg", "release_date": "2016-10-20", "title": "Ouija: Origin of Evil", "video": false, "vote_average": 6.0, "vote_count": 1566, "popularity": 15.879}, {"adult": false, "backdrop_path": "/46q5jQbgEOUXsxheIx1KM4hlGO8.jpg", "genre_ids": [27, 53], "id": 79694, "original_language": "en", "original_title": "The Apparition", "overview": "Plagued by frightening occurrences in their home, Kelly and Ben learn that a university's parapsychology experiment produced an entity that is now haunting them. The malevolent spirit feeds on fear and torments the couple no matter where they run. Desperate, Kelly and Ben turn to a paranormal researcher, but even with his aid, it may already be too late to save themselves from the terrifying presence.", "poster_path": "/qEHx7H3Gvt1zYM1AyitTA8c2XOH.jpg", "release_date": "2012-08-23", "title": "The Apparition", "video": false, "vote_average": 4.3, "vote_count": 249, "popularity": 9.062}, {"id": 416234, "video": false, "vote_count": 1007, "vote_average": 5.8, "title": "Winchester", "release_date": "2018-02-02", "original_language": "en", "original_title": "Winchester", "genre_ids": [14, 27, 9648, 53], "backdrop_path": "/d4wnMDSrQonB9iArMzd90WqaoJ4.jpg", "adult": false, "overview": "San Jose, California, 1906. Isolated in her labyrinthine mansion, eccentric firearm heiress Sarah Winchester believes that she is being haunted by the souls of those killed by the guns manufactured by her company.", "poster_path": "/tHDtskokZeO9B3JBdR1dSH0uqad.jpg", "popularity": 13.27}, {"id": 493922, "video": false, "vote_count": 3302, "vote_average": 7.1, "title": "Hereditary", "release_date": "2018-06-07", "original_language": "en", "original_title": "Hereditary", "genre_ids": [27, 9648, 53], "backdrop_path": "/4DUoPZOHdPuROP4nyEIsPaMIiQl.jpg", "adult": false, "overview": "When Ellen, the matriarch of the Graham family, passes away, her daughter\u2019s family begins to unravel cryptic and increasingly terrifying secrets about their ancestry.", "poster_path": "/lHV8HHlhwNup2VbpiACtlKzaGIQ.jpg", "popularity": 26.426}, {"id": 9647, "video": false, "vote_count": 786, "vote_average": 6.9, "title": "Scrooged", "release_date": "1988-11-22", "original_language": "en", "original_title": "Scrooged", "genre_ids": [35, 18, 14], "backdrop_path": "/6xezVJoUp0cZUBQeIDpW6lFuhcd.jpg", "adult": false, "overview": "In this modern take on Charles Dickens' \"A Christmas Carol,\" Frank Cross (Bill Murray) is a wildly successful television executive whose cold ambition and curmudgeonly nature has driven away the love of his life, Claire Phillips (Karen Allen). But after firing a staff member, Eliot Loudermilk (Bobcat Goldthwait), on Christmas Eve, Frank is visited by a series of ghosts who give him a chance to re-evaluate his actions and right the wrongs of his past.", "poster_path": "/uO0znfB2ZzTXA1IS7jkrjNbpkYK.jpg", "popularity": 17.767}, {"adult": false, "backdrop_path": "/3uwyXMZN93PRkShUxvLrufwVAc2.jpg", "genre_ids": [80, 18, 27, 9648, 53], "id": 452507, "original_language": "en", "original_title": "1922", "overview": "A simple yet proud rancher conspires to murder his wife for financial gain, convincing his teenage son to participate.", "poster_path": "/q4FQOiSRhTLWulHl5Vpg37FMArH.jpg", "release_date": "2017-10-20", "title": "1922", "video": false, "vote_average": 5.9, "vote_count": 1491, "popularity": 14.757}, {"adult": false, "backdrop_path": "/slpgZisYNapLoN9FWXqDOC1ExbU.jpg", "genre_ids": [27, 9648, 53], "id": 259693, "original_language": "en", "original_title": "The Conjuring 2", "overview": "Lorraine and Ed Warren travel to north London to help a single mother raising four children alone in a house plagued by malicious spirits.", "poster_path": "/7GUzvvrb6hbOWl8l8YkaS4fgTDT.jpg", "release_date": "2016-05-13", "title": "The Conjuring 2", "video": false, "vote_average": 7.2, "vote_count": 4651, "popularity": 26.258}, {"id": 138843, "video": false, "vote_count": 6584, "vote_average": 7.5, "title": "The Conjuring", "release_date": "2013-03-20", "original_language": "en", "original_title": "The Conjuring", "genre_ids": [27, 53], "backdrop_path": "/3TqhNm9C8GWLwkpG3gA7v0jBBb6.jpg", "adult": false, "overview": "Paranormal investigators Ed and Lorraine Warren work to help a family terrorized by a dark presence in their farmhouse. Forced to confront a powerful entity, the Warrens find themselves caught in the most terrifying case of their lives.", "poster_path": "/ejrD1lkCIQX26TO8k4gePsFpcyX.jpg", "popularity": 21.753}, {"id": 448095, "video": false, "vote_count": 308, "vote_average": 6.8, "title": "I Still See You", "release_date": "2018-09-27", "original_language": "en", "original_title": "I Still See You", "genre_ids": [14, 53], "backdrop_path": "/7rqpB7coXaNvTVMWb5vL8qU0pBp.jpg", "adult": false, "overview": "A spellbinding and romantic supernatural thriller. Ten years after an apocalyptic event left the world haunted by ghosts, Roni receives a threatening message from beyond the grave. Joining forces with a mysterious classmate, Kirk, Roni descends into a shadow world that blurs the bounds of the living and the dead-and begins a desperate race against time to stop a cunning killer.", "poster_path": "/9fqzZs922V8OmwgO11Eqclof2mQ.jpg", "popularity": 16.612}, {"adult": false, "backdrop_path": "/hgn5SrO9lRh6yRkoubBH9x1NqHm.jpg", "genre_ids": [27, 53], "id": 416160, "original_language": "en", "original_title": "The Vault", "overview": "Two estranged sisters are forced to rob a bank in order to save their brother. But this is no ordinary bank.", "poster_path": "/ycK6nMAEjViBT4b3scuKpNRnilB.jpg", "release_date": "2017-09-01", "title": "The Vault", "video": false, "vote_average": 4.8, "vote_count": 221, "popularity": 13.994}, {"id": 2655, "video": false, "vote_count": 1018, "vote_average": 6.4, "title": "What Lies Beneath", "release_date": "2000-07-21", "original_language": "en", "original_title": "What Lies Beneath", "genre_ids": [18, 27, 9648, 53], "backdrop_path": "/h3A6QXt8t35YQrSvbF9hOkKeeB9.jpg", "adult": false, "overview": "When Claire Spencer starts hearing ghostly voices and seeing spooky images, she wonders if an otherworldly spirit is trying to contact her. All the while, her husband tries to reassure her by telling her it's all in her head. But as Claire investigates, she discovers that the man she loves might know more than he's letting on.", "poster_path": "/A1mrfm8LEv7L28q50ld8QI5z9Iu.jpg", "popularity": 15.628}, {"id": 17979, "video": false, "vote_count": 2815, "vote_average": 6.8, "title": "A Christmas Carol", "release_date": "2009-11-04", "original_language": "en", "original_title": "A Christmas Carol", "genre_ids": [16, 10751], "backdrop_path": "/GtwSStViUdhKGf0d7tCkR7alKV.jpg", "adult": false, "overview": "Miser Ebenezer Scrooge is awakened on Christmas Eve by spirits who reveal to him his own miserable existence, what opportunities he wasted in his youth, his current cruelties, and the dire fate that awaits him if he does not change his ways. Scrooge is faced with his own story of growing bitterness and meanness, and must decide what his own future will hold: death or redemption.", "poster_path": "/jeOCcjUAcSYleVwhsaKEPT4CYwF.jpg", "popularity": 19.945}], "total_pages": 90, "total_results": 1784}, "recommendations": {"page": 1, "results": [{"id": 433051, "video": false, "vote_count": 12, "vote_average": 7.3, "title": "Cries from Syria", "release_date": "2017-01-22", "original_language": "en", "original_title": "Cries from Syria", "genre_ids": [99], "backdrop_path": "/6XNweR07KivNLK1ZODDL0tn1nCT.jpg", "adult": false, "overview": "An attempt to re-contextualize the European migrant crisis and ongoing hostilities in Syria, through eyewitness and participant testimony. Children and parents recount the revolution, civil war, air strikes, atrocities and ongoing humanitarian aid crises, in a portrait of recent history and the consequences of violence.", "poster_path": "/eNfvQKttsz9Gw1veOi05FxeHQRL.jpg", "popularity": 5.63}], "total_pages": 1, "total_results": 1}, "credits": {"cast": [{"cast_id": 1, "character": "Chris", "credit_id": "57461b8f9251414e0b000018", "gender": 2, "id": 1473776, "name": "Tom Meeten", "order": 0, "profile_path": "/2mIH4SHZL2uPUgz7LCZ5ErCEI1G.jpg"}, {"cast_id": 0, "character": "Kathleen", "credit_id": "57461b789251414e00000014", "gender": 1, "id": 182327, "name": "Alice Lowe", "order": 1, "profile_path": "/kpBWGfjNfGZ6aAStg7n6upGj9g3.jpg"}, {"cast_id": 2, "character": "Tommy Parnell", "credit_id": "57461ba19251414e06000021", "gender": 2, "id": 71281, "name": "Paul Kaye", "order": 2, "profile_path": "/lKPoRmfY8cfkd4qdUr2AJwy9tsB.jpg"}, {"cast_id": 23, "character": "Coulson", "credit_id": "59d882c79251412505020dec", "gender": 0, "id": 429541, "name": "Rufus Jones", "order": 3, "profile_path": "/lqlmRVh7j6pbiu0pRZXkaoveIGJ.jpg"}, {"cast_id": 5, "character": "Jim", "credit_id": "580f3f95c3a3687b880092d9", "gender": 0, "id": 588550, "name": "Daniel Renton Skinner", "order": 5, "profile_path": "/l0mPCuSZgzVou6PDshsz5q4zxZz.jpg"}, {"cast_id": 6, "character": "Fisher", "credit_id": "580f3fa1c3a3687b3b0096c8", "gender": 1, "id": 174745, "name": "Niamh Cusack", "order": 6, "profile_path": "/3JoNqI0XRZ9y6aliqLSGK2hwnuv.jpg"}, {"cast_id": 7, "character": "Morland", "credit_id": "580f3faa9251416c14009ad4", "gender": 2, "id": 62970, "name": "Geoffrey McGivern", "order": 7, "profile_path": "/mf897koc8DDwLsbM4qMX9FMBcYn.jpg"}, {"cast_id": 8, "character": "Gav", "credit_id": "580f3fb3925141680f009c48", "gender": 0, "id": 1496267, "name": "Waen Shepherd", "order": 8, "profile_path": null}, {"cast_id": 9, "character": "Maria", "credit_id": "580f3fbcc3a3687b3e0093a9", "gender": 0, "id": 1605904, "name": "Rachel Stubbings", "order": 9, "profile_path": "/4niPhleDb2SwEJCy1gBkmQP3NV8.jpg"}, {"cast_id": 10, "character": "Drez", "credit_id": "580f3fc39251416c7d009556", "gender": 0, "id": 1699363, "name": "James Eyres", "order": 10, "profile_path": null}], "crew": [{"credit_id": "580f401b9251416623009f05", "department": "Production", "gender": 2, "id": 137467, "job": "Executive Producer", "name": "Ben Wheatley", "profile_path": "/dhwp8mvrDxqDjgf2a7HcW5PrPVo.jpg"}, {"credit_id": "57461beac3a368769700000f", "department": "Directing", "gender": 2, "id": 482444, "job": "Director", "name": "Gareth Tunley", "profile_path": "/wRv4oH6LMcg0PZcRQrpkgFbNKyX.jpg"}, {"credit_id": "580f3fe1c3a3687b88009329", "department": "Production", "gender": 2, "id": 482444, "job": "Producer", "name": "Gareth Tunley", "profile_path": "/wRv4oH6LMcg0PZcRQrpkgFbNKyX.jpg"}, {"credit_id": "580f3fd3c3a3687b3b0096ee", "department": "Writing", "gender": 2, "id": 482444, "job": "Writer", "name": "Gareth Tunley", "profile_path": "/wRv4oH6LMcg0PZcRQrpkgFbNKyX.jpg"}, {"credit_id": "580f3ffd9251416c14009b19", "department": "Production", "gender": 0, "id": 1381073, "job": "Executive Producer", "name": "Dhiraj Mahey", "profile_path": null}, {"credit_id": "59a3eb2bc3a36847c505b768", "department": "Art", "gender": 0, "id": 1470154, "job": "Production Design", "name": "Matthew Clark", "profile_path": null}, {"credit_id": "580f400c9251416c14009b27", "department": "Production", "gender": 2, "id": 1473776, "job": "Producer", "name": "Tom Meeten", "profile_path": "/2mIH4SHZL2uPUgz7LCZ5ErCEI1G.jpg"}, {"credit_id": "59a3ead29251414cc8010011", "department": "Sound", "gender": 0, "id": 1496267, "job": "Music", "name": "Waen Shepherd", "profile_path": null}, {"credit_id": "59a3eb5cc3a3686a7900918e", "department": "Camera", "gender": 0, "id": 1521909, "job": "Additional Photography", "name": "Nick Gillespie", "profile_path": null}, {"credit_id": "580f3ff0c3a3687b3e0093db", "department": "Production", "gender": 0, "id": 1699367, "job": "Producer", "name": "Jack Healy Guttmann", "profile_path": null}, {"credit_id": "59a3eb8cc3a368227b0104b9", "department": "Sound", "gender": 0, "id": 1710686, "job": "Boom Operator", "name": "Freddie Halliwell", "profile_path": null}, {"credit_id": "59a3eaefc3a36847c505b702", "department": "Camera", "gender": 0, "id": 1777593, "job": "Director of Photography", "name": "Benjamin Pritchard", "profile_path": null}, {"credit_id": "59a3ebc3925141775b055964", "department": "Sound", "gender": 0, "id": 1878288, "job": "Sound Re-Recording Mixer", "name": "Chris Whiteside", "profile_path": null}, {"credit_id": "5a0180ddc3a36807c5015a05", "department": "Costume & Make-Up", "gender": 0, "id": 1919075, "job": "Costume Design", "name": "Hesther King", "profile_path": null}, {"credit_id": "5a01816e925141572e015c59", "department": "Directing", "gender": 0, "id": 1919084, "job": "First Assistant Director", "name": "Adam Jenkins", "profile_path": null}, {"credit_id": "5a0181909251415708016637", "department": "Directing", "gender": 0, "id": 1919092, "job": "First Assistant Director", "name": "Harriet Macdonald", "profile_path": null}]}}