{"adult": false, "backdrop_path": "/16eLX46MyubMKeG7KU7ZXB0KVSl.jpg", "belongs_to_collection": null, "budget": 0, "genres": [{"id": 27, "name": "Horror"}, {"id": 53, "name": "Thriller"}], "homepage": null, "id": 40043, "imdb_id": "tt0188527", "original_language": "en", "original_title": "Island of Death", "overview": "A British couple on a break on a small Greek Island, spreading terror beyond anything the Islanders could have ever imagined. Only stopping every once in a while to shag anything that moves, be it a man, woman or an animal. But will they go unpunished, or the inspector from London will be able to put an end to their killing spree?", "popularity": 5.925, "poster_path": "/bGbNE6okgh0nNkRxLvlPkjgafoZ.jpg", "production_companies": [{"id": 12889, "logo_path": null, "name": "Omega Pictures", "origin_country": ""}], "production_countries": [{"iso_3166_1": "GR", "name": "Greece"}], "release_date": "1976-04-26", "revenue": 0, "runtime": 108, "spoken_languages": [{"iso_639_1": "en", "name": "English"}], "status": "Released", "tagline": "The lucky ones simply got their brains blown out.", "title": "Island of Death", "video": false, "vote_average": 4.7, "vote_count": 47, "keywords": {"keywords": [{"id": 627, "name": "killing"}, {"id": 2041, "name": "island"}, {"id": 4426, "name": "sadism"}, {"id": 8011, "name": "greek"}, {"id": 41381, "name": "rapist"}, {"id": 174363, "name": "greek island"}, {"id": 189921, "name": "video nasty"}, {"id": 190014, "name": "taboo sex"}, {"id": 190015, "name": "kinky sex"}]}, "similar": {"page": 1, "results": [{"adult": false, "backdrop_path": "/rPfyX0pkmn8Ea4gh3DfsmzFUf05.jpg", "genre_ids": [18, 27, 80], "id": 74997, "original_language": "en", "original_title": "The Human Centipede 2 (Full Sequence)", "overview": "Inspired by the fictional Dr. Heiter, disturbed loner Martin dreams of creating a 12-person centipede and sets out to realize his sick fantasy.", "poster_path": "/kFtAdkCO0vXN2RWu2oMcR9GZ9Hi.jpg", "release_date": "2011-10-06", "title": "The Human Centipede 2 (Full Sequence)", "video": false, "vote_average": 4.5, "vote_count": 674, "popularity": 14.216}, {"adult": false, "backdrop_path": "/o4psXh7IVD6GFKvBSHjHLzjL2lV.jpg", "genre_ids": [27, 53], "id": 10781, "original_language": "en", "original_title": "The Texas Chainsaw Massacre: The Beginning", "overview": "Chrissie and her friends set out on a road trip for a final fling before one is shipped off to Vietnam. Along the way, bikers harass the foursome and cause an accident that throws Chrissie from the vehicle. The lawman who arrives on the scene kills one of the bikers and brings Chrissie's friends to the Hewitt homestead, where young Leatherface is learning the tools of terror.", "poster_path": "/9elCJIG1TOJ0wew3JVx5ZMkHq5w.jpg", "release_date": "2006-10-06", "title": "The Texas Chainsaw Massacre: The Beginning", "video": false, "vote_average": 6.0, "vote_count": 936, "popularity": 19.211}, {"adult": false, "backdrop_path": "/fmo48Lt8XtMWeHeXJzi5SbPCJud.jpg", "genre_ids": [18, 27, 80], "id": 1696, "original_language": "en", "original_title": "The Devil's Rejects", "overview": "The sequel to House of 1000 Corpses \u2013 the Firefly family are ambushed at their isolated home by Sheriff Wydell and a squad of armed men guns blazing \u2013 yet only Otis and his sister, Baby, manage to escape the barrage of bullets unharmed. Hiding out in a backwater motel, the wanted siblings wait to rendezvous with their errant father, Captain Spaulding, killing whoever happens to stand in their way.", "poster_path": "/fj4rrpUlBpFjPaJecpjID6yqacx.jpg", "release_date": "2005-07-22", "title": "The Devil's Rejects", "video": false, "vote_average": 6.7, "vote_count": 720, "popularity": 14.155}, {"id": 5336, "video": false, "vote_count": 791, "vote_average": 6.4, "title": "Sal\u00f2, or the 120 Days of Sodom", "release_date": "1975-11-22", "original_language": "it", "original_title": "Sal\u00f2 o le 120 giornate di Sodoma", "genre_ids": [18, 27, 10752], "backdrop_path": "/wWvHu8AQlyc2D5VEEmlrDj4SuQy.jpg", "adult": false, "overview": "Four corrupted fascist libertines round up 9 teenage boys and girls and subject them to 120 days of sadistic physical, mental and sexual torture.", "poster_path": "/xnaDdiRfZlJaTf6JRc4in40eaeI.jpg", "popularity": 19.141}, {"id": 588, "video": false, "vote_count": 2408, "vote_average": 6.4, "title": "Silent Hill", "release_date": "2006-04-21", "original_language": "en", "original_title": "Silent Hill", "genre_ids": [27, 9648], "backdrop_path": "/6tfW4BjdgwuYSD7gaEMEEPoDcpH.jpg", "adult": false, "overview": "The eerie and deserted ghost town of Silent Hill draws a young mother desperate to find a cure for her only child's illness. Unable to accept the doctor's diagnosis that her daughter should be permanently institutionalized for psychiatric care, Rose flees with her child, heading for the abandoned town in search of answers \u2013 and ignoring the protests of her husband. It's soon clear this place is unlike anywhere she's ever been. It's smothered by fog, inhabited by a variety of strange beings and periodically overcome by a living 'darkness' that literally transforms everything it touches. As Rose searches for her little girl, she begins to learn the history of the strange town and realizes that her daughter is just a pawn in a larger game.", "poster_path": "/4Zz9cF8S4E7DITosNYh3spybYJb.jpg", "popularity": 20.72}, {"id": 8090, "video": false, "vote_count": 448, "vote_average": 6.1, "title": "Untraceable", "release_date": "2008-01-22", "original_language": "en", "original_title": "Untraceable", "genre_ids": [9648, 53], "backdrop_path": "/eXuIPt9I1xuaVddlgzEQRC2EMnJ.jpg", "adult": false, "overview": "Special Agent Jennifer Marsh (Diane Lane) works in an elite division of the FBI dedicated to fighting cybercrime. She thinks she has seen it all, until a particularly sadistic criminal arises on the Internet. This tech-savvy killer posts live feeds of his crimes on his website; the more hits the site gets, the faster the victim dies. Marsh and her team must find the elusive killer before time runs out.", "poster_path": "/ySUwDRDEn01lKIMPQorpFCMLWqE.jpg", "popularity": 14.431}, {"id": 398173, "video": false, "vote_count": 1087, "vote_average": 7.2, "title": "The House That Jack Built", "release_date": "2018-10-04", "original_language": "en", "original_title": "The House That Jack Built", "genre_ids": [80, 18, 27, 53], "backdrop_path": "/ff6ujDT1Qt2H4lzWhLtK71W8Om6.jpg", "adult": false, "overview": "Failed architect, engineer and vicious murderer Jack narrates the details of some of his most elaborately orchestrated crimes, each of them a towering piece of art that defines his life's work as a serial killer for twelve years.", "poster_path": "/rHR3Z5QWzODnoI2GeYtEIHiz1R8.jpg", "popularity": 13.063}, {"adult": false, "backdrop_path": "/nmZrtjeP3j7lTDKlNv4ayhq6AYR.jpg", "genre_ids": [27], "id": 8689, "original_language": "it", "original_title": "Cannibal Holocaust", "overview": "A New York University professor returns from a rescue mission to the Amazon rainforest with the footage shot by a lost team of documentarians who were making a film about the area's local cannibal tribes.", "poster_path": "/r0VmAFHWAqlaraVg0krIEhDCPWH.jpg", "release_date": "1980-02-07", "title": "Cannibal Holocaust", "video": false, "vote_average": 6.1, "vote_count": 703, "popularity": 14.527}, {"adult": false, "backdrop_path": "/7NEcjrnHgGk0VBAB7qqqAqqZbxh.jpg", "genre_ids": [12, 27], "id": 8691, "original_language": "en", "original_title": "Cannibal Ferox", "overview": "Three friends out to disprove cannibalism meet two men on the run who tortured and enslaved a cannibal tribe to find emeralds, and now the tribe is out for revenge.", "poster_path": "/3yU2sIYCdaEvnTj8KH0nHzO2ptF.jpg", "release_date": "1981-04-24", "title": "Cannibal Ferox", "video": false, "vote_average": 5.5, "vote_count": 113, "popularity": 9.849}, {"id": 71670, "video": false, "vote_count": 567, "vote_average": 5.0, "title": "Hostel: Part III", "release_date": "2011-12-27", "original_language": "en", "original_title": "Hostel: Part III", "genre_ids": [27], "backdrop_path": "/hXqJ8p5LWU3a6hGQQ0yczKCy4IQ.jpg", "adult": false, "overview": "Set in Las Vegas, the film centers on a man who attends his best friend's bachelor party, unaware of an insidious agenda that plays into hunting humans.", "poster_path": "/yElnsRDzujnHDHli5UuAgrCVQsT.jpg", "popularity": 12.586}, {"id": 2652, "video": false, "vote_count": 1535, "vote_average": 6.8, "title": "Hard Candy", "release_date": "2005-01-14", "original_language": "en", "original_title": "Hard Candy", "genre_ids": [18, 53], "backdrop_path": "/pQUxfw0ZVb5AK9PYyTzjYaEIs3m.jpg", "adult": false, "overview": "Hayley\u2019s a smart, charming teenage girl. Jeff\u2019s a handsome, smooth fashion photographer. An Internet chat, a coffee shop meet-up, an impromptu fashion shoot back at Jeff\u2019s place. Jeff thinks it\u2019s his lucky night. He\u2019s in for a surprise.", "poster_path": "/1xInhmQVOOVS7xFT5DthpIwUTDI.jpg", "popularity": 15.766}, {"id": 13492, "video": false, "vote_count": 364, "vote_average": 6.0, "title": "Frontier(s)", "release_date": "2007-07-01", "original_language": "fr", "original_title": "Fronti\u00e8re(s)", "genre_ids": [28, 18, 27, 53], "backdrop_path": "/797NHoM5WWad5h0gw8ipVFM6YRs.jpg", "adult": false, "overview": "A gang of young thieves flee Paris during the violent aftermath of a political election, only to hole up at an Inn run by neo-Nazis.", "poster_path": "/lX5XyaUQ4yXRY1knq5N8IKj6Ua4.jpg", "popularity": 8.739}, {"adult": false, "backdrop_path": "/jTA2BLjQuX9OUZVs0EFtMvksTCy.jpg", "genre_ids": [27, 53], "id": 38410, "original_language": "en", "original_title": "The Poughkeepsie Tapes", "overview": "When hundreds of videotapes showing torture, murder and dismemberment are found in an abandoned house, they reveal a serial killer's decade-long reign of terror and become the most disturbing collection of evidence homicide detectives have ever seen.", "poster_path": "/8ppkhu3pO3fnXr05YeE7ryKloVd.jpg", "release_date": "2007-04-27", "title": "The Poughkeepsie Tapes", "video": false, "vote_average": 5.9, "vote_count": 154, "popularity": 7.128}, {"adult": false, "backdrop_path": "/yRB9VLee9NqImm9F7xOvkw0rsjI.jpg", "genre_ids": [18, 27, 53, 9648], "id": 362057, "original_language": "en", "original_title": "Martyrs", "overview": "A woman and her childhood friend seek out revenge on those who victimized and abused them.", "poster_path": "/vc2mFaWrPdeYcDUiOTZRFuAffwb.jpg", "release_date": "2016-01-22", "title": "Martyrs", "video": false, "vote_average": 4.9, "vote_count": 133, "popularity": 9.145}, {"id": 38251, "video": false, "vote_count": 492, "vote_average": 7.7, "title": "Mediterraneo", "release_date": "1991-01-31", "original_language": "it", "original_title": "Mediterraneo", "genre_ids": [35, 10749, 10752], "backdrop_path": "/rVnw6V6NselkJfYt90beU1yXesy.jpg", "adult": false, "overview": "Greek Sea, World War II. An Italian ship leaves a handful of soldiers in a little island; their mission is to spot enemy ships and to hold the island in case of attack. The village of the island seems abandoned and there isn't a single enemy in sight, so the soldiers begin to relax a little. Things change when their ship is hit and destroyed by the enemy, and the soldiers find themselves abandoned there.", "poster_path": "/zn2nfy87gqCt4uZ7m3Azs16EFRX.jpg", "popularity": 8.151}, {"adult": false, "backdrop_path": "/vrQUd5yjD86aGyc2AFPBKnHpJ7g.jpg", "genre_ids": [18, 27], "id": 65599, "original_language": "en", "original_title": "The Woman", "overview": "A lawyer puts his family in jeopardy when he captures the last member of a violent clan and tries to forcibly tame her.", "poster_path": "/uLH2rtHFJatxbXtUZfBhP8pJmGu.jpg", "release_date": "2011-10-14", "title": "The Woman", "video": false, "vote_average": 6.1, "vote_count": 258, "popularity": 11.122}, {"id": 16780, "video": false, "vote_count": 235, "vote_average": 3.8, "title": "Texas Chainsaw Massacre: The Next Generation", "release_date": "1994-01-01", "original_language": "en", "original_title": "Texas Chainsaw Massacre: The Next Generation", "genre_ids": [35, 27, 53], "backdrop_path": "/1Unx2N8AhIBinp2QaLe2t27Nnix.jpg", "adult": false, "overview": "Everyone's favorite chainsaw-wielding psychopath, Leatherface, is back for more prom-night gore, and this time he's joined by his bloodthirsty family. Four stranded yet carefree teens are taken in by a backwoods family, clueless of their host family's grisly habits. The terrified youths, including sweet Jenny, try to escape from Leatherface and his crazed clan, including the bionic Vilmer.", "poster_path": "/6ECWpYiwEdWi2OTSbyzLV281YJ.jpg", "popularity": 11.411}, {"adult": false, "backdrop_path": "/5FQPDRBRykkyxGCYMHgOm3NXKXe.jpg", "genre_ids": [12, 18], "id": 13888, "original_language": "en", "original_title": "Return to the Blue Lagoon", "overview": "In this sequel to the 1980 classic, two children are stranded on a beautiful island in the South Pacific. With no adults to guide them, the two make a simple life together and eventually become tanned teenagers in love.", "poster_path": "/jhUTLuPgc3Qcvr5xtji8oiWSfYy.jpg", "release_date": "1991-08-02", "title": "Return to the Blue Lagoon", "video": false, "vote_average": 5.6, "vote_count": 394, "popularity": 22.485}, {"adult": false, "backdrop_path": "/za3o8oqLgDIDjlCQQlsBOXVM9Tw.jpg", "genre_ids": [10751, 10749], "id": 27902, "original_language": "en", "original_title": "Love Wrecked", "overview": "On a Caribbean cruise, Jenny (Bynes) is marooned on a beach with her rock and roll idol. Deliriously in love with the idea of time alone with him, she manages to hide the fact that they're a stone's throw away from their resort.", "poster_path": "/phwnFBjFbpU81wh0dRXJlupHhe4.jpg", "release_date": "2005-11-01", "title": "Love Wrecked", "video": false, "vote_average": 5.1, "vote_count": 328, "popularity": 10.751}, {"id": 31767, "video": false, "vote_count": 160, "vote_average": 7.6, "title": "The Devils", "release_date": "1971-07-01", "original_language": "en", "original_title": "The Devils", "genre_ids": [18, 36], "backdrop_path": "/dmf3bLc9XI90yagC5800FvfXbj.jpg", "adult": false, "overview": "A dramatised historical account of the rise and fall of Urbain Grandier, a 17th-century Roman Catholic priest accused of  witchcraft following alleged demonic possessions of sexually repressed nuns.", "poster_path": "/7EWcEBzGYJusF01Jvw2C1EG6GG4.jpg", "popularity": 8.369}], "total_pages": 4, "total_results": 72}, "recommendations": {"page": 1, "results": [{"adult": false, "backdrop_path": "/hp0gnNBrRaqQcwlZXTYtWSlgsaJ.jpg", "genre_ids": [27, 878], "id": 39899, "original_language": "en", "original_title": "Turkey Shoot", "overview": "In the near future, after an unspecified holocaust, survivors are herded into prison camps. There, they are hunted for sport by the leaders of the camp. Paul, one of the newest prisoners, is determined not to go down as quietly as the others.", "poster_path": "/7dp6jaQJ26UUt7Ts0SW2ClvWHy4.jpg", "release_date": "1982-03-25", "title": "Turkey Shoot", "video": false, "vote_average": 5.7, "vote_count": 48, "popularity": 5.096}, {"id": 39342, "video": false, "vote_count": 19, "vote_average": 6.1, "title": "Fight for Your Life", "release_date": "1977-10-03", "original_language": "en", "original_title": "Fight for Your Life", "genre_ids": [80, 18, 53], "backdrop_path": "/bBDyMixUi3TcWFtcR8fcoAhFqM6.jpg", "adult": false, "overview": "A minister dispenses justice on three convicts who take his family hostage.", "poster_path": "/5LKQkKgkgip8PB8Is4doO94GI2L.jpg", "popularity": 5.086}, {"adult": false, "backdrop_path": "/lFVchjatYGDhRTZP84Fwtu5JwUG.jpg", "genre_ids": [12, 878, 27], "id": 39916, "original_language": "en", "original_title": "Contamination", "overview": "A former astronaut helps a government agent and a police detective track the source of mysterious alien pod spores, filled with lethal flesh-dissolving acid, to a South American coffee plantation controlled by alien pod clones.", "poster_path": "/g1BEFX8ZsDms6qifJDchmaCx7Ej.jpg", "release_date": "1980-08-02", "title": "Contamination", "video": false, "vote_average": 5.0, "vote_count": 54, "popularity": 6.97}, {"id": 11226, "video": false, "vote_count": 30, "vote_average": 5.6, "title": "Strip Nude for Your Killer", "release_date": "1975-08-24", "original_language": "it", "original_title": "Nude per l'assassino", "genre_ids": [27, 53], "backdrop_path": "/pzRzqaWPCBYSnnTYGZ0xrqYrrHm.jpg", "adult": false, "overview": "When a fashion model dies during an abortion, a series of murders begins, starting with her doctor. The next victims are connected to the modeling agency where she worked, Albatross, run by a hard edged and jealous bi-sexual, Gisella, married to a Farouk-like dissolute. One suspect is Carlo, a playboy photographer who has a hot temper and refuses to share information with the police. He becomes the lover of Magda, another photographer at the agency, who's probably in danger. The murderer wears a black motorcycle outfit and helmet. Will anyone discover the murderer's identity before the entire agency dies?", "poster_path": "/g5dWZfiNy4yxJ0ezKOAhovqGtUB.jpg", "popularity": 3.694}, {"adult": false, "backdrop_path": "/oN9Um0WUqBc29fb5dnWVB7VysHx.jpg", "genre_ids": [18, 27], "id": 54109, "original_language": "en", "original_title": "The Witch Who Came from the Sea", "overview": "Anger stemming from being abused as a child drives an alcoholic's daughter to kill as an adult.", "poster_path": "/gQojSDeqGoGuUJ0CrLVHZBKijQP.jpg", "release_date": "1976-02-06", "title": "The Witch Who Came from the Sea", "video": false, "vote_average": 6.1, "vote_count": 25, "popularity": 4.861}, {"adult": false, "backdrop_path": "/ktUfhuiaxijjk3OCgT2RepGdoQB.jpg", "genre_ids": [27], "id": 40451, "original_language": "en", "original_title": "The Mutilator", "overview": "As a child, Ed was cleaning his father\u2019s hunting rifles (a surprise birthday treat for the old man) when one of them went off, hitting and killing his mother. On seeing the bloodshed, his father flew into a murderous rage\u2014Ed just barely escaped with his life. Now in his teens, he returns home; he doesn\u2019t expect to find his father, still there, waiting for a chance to settle the score .\u00a0.\u00a0.", "poster_path": "/WdTypYAKttmUPWMQ4uLzRS6Hye.jpg", "release_date": "1985-01-04", "title": "The Mutilator", "video": false, "vote_average": 5.4, "vote_count": 40, "popularity": 4.992}, {"adult": false, "backdrop_path": "/nru6T2o9ZcsmNbFA5F1fKqPfKfw.jpg", "genre_ids": [27], "id": 39868, "original_language": "en", "original_title": "Evilspeak", "overview": "Bullied by classmates, a pudgy military-school student fights back by computer with the devil.", "poster_path": "/5VC6z7UU9nW1ONx7QUtwxDntpuo.jpg", "release_date": "1981-08-22", "title": "Evilspeak", "video": false, "vote_average": 5.1, "vote_count": 37, "popularity": 8.686}, {"id": 22455, "video": false, "vote_count": 50, "vote_average": 5.3, "title": "Body Melt", "release_date": "1994-10-28", "original_language": "en", "original_title": "Body Melt", "genre_ids": [35, 27, 878], "backdrop_path": "/dnp6JWfKZEsRNHATPXARgvDcF0k.jpg", "adult": false, "overview": "Residents of peaceful Pebbles Court, Homesville, are being used unknowingly as test experiments for a new 'Body Drug' that causes rapid body decomposition (melting skin etc.) and painful death.", "poster_path": "/ilbcDaGTI10g1d44PdteYg5LHoz.jpg", "popularity": 4.298}, {"id": 57901, "video": false, "vote_count": 32, "vote_average": 5.4, "title": "The Last Horror Film", "release_date": "1982-10-09", "original_language": "en", "original_title": "The Last Horror Film", "genre_ids": [35, 27], "backdrop_path": "/nK0PbzrByeEggsiYEqw7HtAl9Zr.jpg", "adult": false, "overview": "A New York taxi driver stalks a beautiful actress attending the Cannes Film Festival, which coincides with a series of violent killings of the lady's friends.", "poster_path": "/jwqzxn7nwQGKwlp31azHzO9xqcM.jpg", "popularity": 4.557}, {"id": 24919, "video": false, "vote_count": 69, "vote_average": 5.4, "title": "Burial Ground", "release_date": "1981-01-23", "original_language": "it", "original_title": "Le notti del terrore", "genre_ids": [27], "backdrop_path": "/3tdDTzR5IsPBRbdyPHziwslsl7I.jpg", "adult": false, "overview": "Professor Ayres discovers a secret in an ancient stone and when he opens a crypt, he revives zombies that kill him. He had invited three couples to visit him in his manor to reveal his discovery. However, they never get around to meeting the professor. Out of the blue, the zombies attack them and they seek shelter in the mansion.", "poster_path": "/cV86W9mgTuDvwWgKRrnWp8t1LJ7.jpg", "popularity": 7.726}, {"id": 68146, "video": false, "vote_count": 29, "vote_average": 5.7, "title": "Man from Deep River", "release_date": "1972-08-07", "original_language": "it", "original_title": "Il paese del sesso selvaggio", "genre_ids": [12, 27], "backdrop_path": "/4Ok6pn4m1dvISNY7VkYBKLd0cH3.jpg", "adult": false, "overview": "A photographer in the rain forest is captured by wild natives, and after months of living with them, he marries the chief's daughter and helps protect the village from a vicious cannibal tribe.", "poster_path": "/vN53XM8O9fYrn8bAaUjLX6SEmSq.jpg", "popularity": 5.904}, {"id": 40220, "video": false, "vote_count": 51, "vote_average": 4.4, "title": "The Boogey Man", "release_date": "1980-11-07", "original_language": "en", "original_title": "The Boogey Man", "genre_ids": [27], "backdrop_path": "/dWMqSc02DfJScsFDB9ZYQQjQUxb.jpg", "adult": false, "overview": "A young girl witnesses her brother murder a man through a reflection in a mirror. Twenty years later the mirror is shattered, freeing his evil spirit, which seeks revenge for his death.", "poster_path": "/vdcWInvROaO9UvUdYgP0z3ZmslN.jpg", "popularity": 6.577}, {"adult": false, "backdrop_path": "/zNu4DtWuV1oG4xY63Ur59aTG9BN.jpg", "genre_ids": [27, 53], "id": 63590, "original_language": "en", "original_title": "Hospital Massacre", "overview": "While receiving a routine check-up, a beautiful woman is stalked by a maniac out to avenge a childhood Valentine's Day humiliation.", "poster_path": "/2KwgaF8xs2awaVFfYEK3MpJYMYZ.jpg", "release_date": "1981-10-16", "title": "Hospital Massacre", "video": false, "vote_average": 5.4, "vote_count": 28, "popularity": 5.949}, {"id": 28656, "video": false, "vote_count": 35, "vote_average": 4.9, "title": "Ilsa, the Mad Butcher", "release_date": "1977-01-21", "original_language": "de", "original_title": "Greta - Haus ohne M\u00e4nner", "genre_ids": [28, 53, 10752], "backdrop_path": "/bH2OBNaeS33pHPRVBnoQeqbhYhC.jpg", "adult": false, "overview": "Ilsa, now a vicious warden, runs a mental-hospital for young women.", "poster_path": "/oyl8kadUITSkQd9ssuDn1Nvv7sM.jpg", "popularity": 9.309}, {"id": 47340, "video": false, "vote_count": 45, "vote_average": 5.9, "title": "Dead End Drive-In", "release_date": "1986-08-13", "original_language": "en", "original_title": "Dead End Drive-In", "genre_ids": [18, 27, 878], "backdrop_path": "/tVBXhMYiv6JwrSNKvnASvVi91v9.jpg", "adult": false, "overview": "In the near future, drive-in theatres are turned into concentration camps for the undesirable and unemployed. The prisoners don't really care to escape because they are fed and they have a place to live which is, in most cases, probably better than the outside. Crabs and his girlfriend Carmen are put into the camp and all Crabs wants to do is escape.", "poster_path": "/oFOocn7EXcdu2e2jmyXMNUMvOHX.jpg", "popularity": 4.557}, {"id": 27630, "video": false, "vote_count": 6, "vote_average": 4.0, "title": "The Black Room", "release_date": "1982-12-09", "original_language": "en", "original_title": "The Black Room", "genre_ids": [27, 53], "backdrop_path": null, "adult": false, "overview": "A room gets put up for rent following the mysterious murder of its previous tenant. When an apartment-hunting man sees the deal the brother and sister landlords are offering, he immediately puts down the first month's rent and starts spending his days there, even though he has a home to spend his nights at with his wife. When he comes home, he tells his wife about the fantasies he has of having sex with various women each day in his new apartment. His wife goes along with it for a while, but when she discovers that her husband's stories are much more than just fantasies, she starts to do some investigating.", "poster_path": "/qUI1j4ptx079N64cAU1WjrJTZno.jpg", "popularity": 3.896}, {"adult": false, "backdrop_path": "/uaeTTATDSyVGpWbiogCFsfKS9Ee.jpg", "genre_ids": [27], "id": 84372, "original_language": "fr", "original_title": "Terreur cannibale", "overview": "After botching a kidnapping, two criminals hide with their victim in a friends house in the jungle. After one of them rapes the friend's wife, they're left to be eaten by a nearby cannibal tribe.", "poster_path": "/1EP2htfupfHTVDfj7ovL6W5tek4.jpg", "release_date": "1980-10-21", "title": "Cannibal Terror", "video": false, "vote_average": 2.7, "vote_count": 11, "popularity": 2.489}, {"adult": false, "backdrop_path": "/sTRcWLRs8EtZeV7sMeK647XCbvF.jpg", "genre_ids": [27, 28, 53], "id": 109213, "original_language": "en", "original_title": "The Zero Boys", "overview": "A group of friends travel to a wilderness area to play a survival game. Soon they unexpectedly find themselves in a real-life survival situation.", "poster_path": "/31GxwHBfb5sup9os3XdoirVjO6p.jpg", "release_date": "1986-01-01", "title": "The Zero Boys", "video": false, "vote_average": 5.1, "vote_count": 15, "popularity": 3.167}, {"adult": false, "backdrop_path": "/6RuDyw05aHHWVQg7KH7TUVjTfHS.jpg", "genre_ids": [53, 27, 10752], "id": 20850, "original_language": "en", "original_title": "Ilsa: She Wolf of the SS", "overview": "Ilsa is a warden at a Nazi death camp that conducts experiments on prisoners. Ilsa's goal is to prove that woman can withstand more pain and suffering than men and should be allowed to fight on the front lines", "poster_path": "/aXK4fYcznrklsYrvASyujMNpN8F.jpg", "release_date": "1975-10-01", "title": "Ilsa: She Wolf of the SS", "video": false, "vote_average": 5.1, "vote_count": 85, "popularity": 18.436}, {"adult": false, "backdrop_path": "/sP1d39946QhP3lkoJZ7qUJOb9fa.jpg", "genre_ids": [12, 27, 53], "id": 30877, "original_language": "it", "original_title": "Inferno in diretta", "overview": "A reporter and her cameraman connect a surviving Jonestown leader and a TV exec's missing son to a drug war where jungle installations are being massacred by an army of natives and a skilled white assassin.", "poster_path": "/uskRcGmNIQrMw3xnuObqeeDOxsh.jpg", "release_date": "1985-08-08", "title": "Cut and Run", "video": false, "vote_average": 5.9, "vote_count": 28, "popularity": 5.11}], "total_pages": 2, "total_results": 40}, "credits": {"cast": [{"cast_id": 3, "character": "Christopher / Bob Belling", "credit_id": "52fe457cc3a36847f80ca3f9", "gender": 0, "id": 161461, "name": "Robert Behling", "order": 0, "profile_path": "/78OiI2w4WHwjMGyB9avtCBVBcpx.jpg"}, {"cast_id": 4, "character": "Celia / Jane Ryall", "credit_id": "52fe457cc3a36847f80ca3fd", "gender": 0, "id": 1144063, "name": "Jane Lyle", "order": 1, "profile_path": "/wHdeMV0JpiDr6Ahu3JvWJPPgHhb.jpg"}, {"cast_id": 5, "character": "Patricia", "credit_id": "52fe457cc3a36847f80ca401", "gender": 1, "id": 1073040, "name": "Jessica Dublin", "order": 2, "profile_path": "/iFosZL3i9LyyfGbhamzINEiK6xF.jpg"}, {"cast_id": 6, "character": "Foster", "credit_id": "52fe457cc3a36847f80ca405", "gender": 0, "id": 1144064, "name": "Gerard Gonalons", "order": 3, "profile_path": null}, {"cast_id": 7, "character": "Leslie / Janice McConnel", "credit_id": "52fe457cc3a36847f80ca409", "gender": 0, "id": 1144065, "name": "Jannice McConnell", "order": 4, "profile_path": null}], "crew": [{"credit_id": "52fe457cc3a36847f80ca3ef", "department": "Directing", "gender": 0, "id": 107301, "job": "Director", "name": "Nico Mastorakis", "profile_path": "/fJLOsqnogR6aHAKu9GcptISLMd1.jpg"}, {"credit_id": "52fe457cc3a36847f80ca3f5", "department": "Writing", "gender": 0, "id": 107301, "job": "Writer", "name": "Nico Mastorakis", "profile_path": "/fJLOsqnogR6aHAKu9GcptISLMd1.jpg"}, {"credit_id": "55a0741d925141296b000555", "department": "Production", "gender": 0, "id": 107301, "job": "Producer", "name": "Nico Mastorakis", "profile_path": "/fJLOsqnogR6aHAKu9GcptISLMd1.jpg"}, {"credit_id": "55a07428c3a3681cec000509", "department": "Sound", "gender": 0, "id": 1486073, "job": "Original Music Composer", "name": "Nikos Lavranos", "profile_path": null}, {"credit_id": "55a07433c3a3681cf500056f", "department": "Camera", "gender": 2, "id": 1130765, "job": "Director of Photography", "name": "Nikos Gardelis", "profile_path": null}, {"credit_id": "55a07440c3a3681cf5000572", "department": "Editing", "gender": 0, "id": 1439006, "job": "Editor", "name": "Vasilis Syropoulos", "profile_path": null}, {"credit_id": "55a0744cc3a3681cde00055a", "department": "Art", "gender": 0, "id": 1486074, "job": "Art Direction", "name": "Katherine Zeiss", "profile_path": null}]}}