{"adult": true, "backdrop_path": "/euUpFEKZODLz7DP667xit8FyJju.jpg", "belongs_to_collection": null, "budget": 0, "genres": [{"id": 27, "name": "Horror"}], "homepage": null, "id": 40162, "imdb_id": "tt0235686", "original_language": "it", "original_title": "Porno Holocaust", "overview": "A group of castaways wash ashore on a deserted island in this Italian sex/gore movie. They are unaware that a sex-crazed radioactive monster is also on the island. He attacks and rapes several of the women, who die horrible deaths because his sperm is radioactive. The survivors must find a way to either escape the island or kill the monster.", "popularity": 4.966, "poster_path": "/jTxoKTv0Yiw5OcVzN55S3u1yfvJ.jpg", "production_companies": [{"id": 5052, "logo_path": null, "name": "Kristal Film", "origin_country": ""}], "production_countries": [{"iso_3166_1": "IT", "name": "Italy"}], "release_date": "1981-02-09", "revenue": 0, "runtime": 113, "spoken_languages": [{"iso_639_1": "it", "name": "Italiano"}], "status": "Released", "tagline": "", "title": "Porno Holocaust", "video": false, "vote_average": 3.7, "vote_count": 21, "keywords": {"keywords": [{"id": 10183, "name": "independent film"}, {"id": 190370, "name": "erotic movie"}]}, "similar": {"page": 1, "results": [{"adult": false, "backdrop_path": "/tk6QB32plylH41eo2Pbv4sIVljO.jpg", "genre_ids": [18], "id": 50270, "original_language": "it", "original_title": "Paprika", "overview": "A young country girl comes to town and works in a brothel in order to help her fiance get the money to start his own business. \"Paprika\" is the name given to her by the madam.", "poster_path": "/6QthFTJvUheocw3fcKklnsMcGib.jpg", "release_date": "1991-02-13", "title": "Paprika", "video": false, "vote_average": 5.9, "vote_count": 81, "popularity": 19.933}, {"adult": false, "backdrop_path": "/bYbnlh6VXFRtcSX82UMDsBDLB5j.jpg", "genre_ids": [18, 10749], "id": 28468, "original_language": "it", "original_title": "La chiave", "overview": "After twenty years of marriage, art professor Nino Rolfe attempts to break down his wife Teresa's conventional modesty. Noticing her affection for their daughter's fianc\u00e9, Nino instigates her sexual interest in him as well. This sets off a chain of unexpected events and emotional complications, as Nino and his unpredictable fascist daughter find that they both enjoy being jealous.", "poster_path": "/e6g2geNLgFzMbriH6EvSJZD78nx.jpg", "release_date": "1983-10-18", "title": "The Key", "video": false, "vote_average": 5.0, "vote_count": 128, "popularity": 15.363}, {"adult": false, "backdrop_path": "/rPfyX0pkmn8Ea4gh3DfsmzFUf05.jpg", "genre_ids": [18, 27, 80], "id": 74997, "original_language": "en", "original_title": "The Human Centipede 2 (Full Sequence)", "overview": "Inspired by the fictional Dr. Heiter, disturbed loner Martin dreams of creating a 12-person centipede and sets out to realize his sick fantasy.", "poster_path": "/kFtAdkCO0vXN2RWu2oMcR9GZ9Hi.jpg", "release_date": "2011-10-06", "title": "The Human Centipede 2 (Full Sequence)", "video": false, "vote_average": 4.5, "vote_count": 674, "popularity": 14.216}, {"adult": false, "backdrop_path": "/hm4vpIhBW75bTIDTurq2d4rLZy1.jpg", "genre_ids": [53, 18, 27], "id": 3511, "original_language": "en", "original_title": "The Broken", "overview": "The life of a successful radiologist spirals out of control when she sees the spitting image of herself driving down a London street. While attempting to uncover who the imposter could be, she stumbles into a terrifying mystery that her family and closest friends are somehow involved in, leaving her with no one to trust.", "poster_path": "/nGTUsccLUZhF9Bb5fjvL7KrogvC.jpg", "release_date": "2008-01-18", "title": "The Broken", "video": false, "vote_average": 5.5, "vote_count": 113, "popularity": 10.122}, {"id": 298312, "video": false, "vote_count": 2924, "vote_average": 6.2, "title": "The Visit", "release_date": "2015-09-10", "original_language": "en", "original_title": "The Visit", "genre_ids": [27, 9648, 53], "backdrop_path": "/gbJlEeALVGo7kx8bC2q4EFWX1Xy.jpg", "adult": false, "overview": "The terrifying story of a brother and sister who are sent to their grandparents' remote Pennsylvania farm for a weeklong trip. Once the children discover that the elderly couple is involved in something deeply disturbing, they see their chances of getting back home are growing smaller every day.", "poster_path": "/32tNtTEQ1vIOLm1hEOSFkVwJT5D.jpg", "popularity": 24.632}, {"adult": false, "backdrop_path": "/3mEfawlJnuu4OmUlAOesrAMsWv6.jpg", "genre_ids": [53, 27], "id": 9540, "original_language": "en", "original_title": "Dead Ringers", "overview": "Elliot, a successful gynecologist, works at the same practice as his identical twin, Beverly. Elliot is attracted to many of his patients and has affairs with them. When he inevitably loses interest, he will give the woman over to Beverly, the meeker of the two, without the woman knowing the difference. Beverly falls hard for one of the patients, Claire, but when she inadvertently deceives him, he slips into a state of madness.", "poster_path": "/9ZGBwiWIvN9KmHaLeSS5it44G21.jpg", "release_date": "1988-09-23", "title": "Dead Ringers", "video": false, "vote_average": 7.2, "vote_count": 388, "popularity": 10.111}, {"adult": false, "backdrop_path": "/r2b4rCQlaQ9eyhZhVukW8EnRW0c.jpg", "genre_ids": [35], "id": 55580, "original_language": "it", "original_title": "Fermo posta Tinto Brass", "overview": "This film is a series of letters, photos and video cassettes which women often send in to certain newspapers. By visualizing their story-telling (the name given by the psychologists to their fantasies) the film portrays the confessions, the secret longings, the adventures, recollections, dreams, desires and fantasies of these women. It is an open secret that most women dream of forbidden affairs, secret lovers and hasty encounters but when it comes down to it they lack the courage to pursue their dreams.", "poster_path": "/zC4QqXYwdOPS3LT9J0YPN3bcDxz.jpg", "release_date": "1995-08-30", "title": "P.O. Box Tinto Brass", "video": false, "vote_average": 5.2, "vote_count": 34, "popularity": 11.931}, {"id": 18392, "video": false, "vote_count": 56, "vote_average": 4.8, "title": "Embrace of the Vampire", "release_date": "1995-05-30", "original_language": "en", "original_title": "Embrace of the Vampire", "genre_ids": [14, 27], "backdrop_path": "/hTTLuS0U6MWK1OuoXrtahc6rYNa.jpg", "adult": false, "overview": "An 18-year-old college freshman is seduced by a handsome vampire lover who introduces her to a dark world of carnal desires.", "poster_path": "/uOxKpn3aY4N6JQy49pKdoIz5STE.jpg", "popularity": 12.886}, {"adult": false, "backdrop_path": "/m83O9TqAiZo3F2YgxMpuA5kxGZP.jpg", "genre_ids": [35, 10749], "id": 50124, "original_language": "it", "original_title": "Monella", "overview": "The story takes place in northern Italy in the 1950's. Lola and Masetto are about to get married. Masetto wants to keep Lola as a virgin until they are married. But Lola is impatient to remain in chastity until the wedding night. She wants to be sure that Masetto is a good lover, before she commits herself into marriage. She does everything to trick Masetto into breaking the moral tradition.", "poster_path": "/2mlv1R8MlhlGw4dZ0tXy0K6u7ew.jpg", "release_date": "1998-01-21", "title": "Frivolous Lola", "video": false, "vote_average": 4.3, "vote_count": 85, "popularity": 10.199}, {"id": 301365, "video": false, "vote_count": 2292, "vote_average": 6.5, "title": "The Neon Demon", "release_date": "2016-06-08", "original_language": "en", "original_title": "The Neon Demon", "genre_ids": [27, 9648, 53], "backdrop_path": "/wwFP2C8zVRHWhtG9HRGhFImIcHm.jpg", "adult": false, "overview": "When aspiring model Jesse moves to Los Angeles, her youth and vitality are devoured by a group of beauty-obsessed women who will take any means necessary to get what she has.", "poster_path": "/pksGBk7yJqSuQ2F47S9eoqbtjWt.jpg", "popularity": 14.949}, {"adult": false, "backdrop_path": "/xC9cG6Wy6QbH2hoAx11xPPD995R.jpg", "genre_ids": [18, 10749], "id": 86331, "original_language": "fr", "original_title": "Q", "overview": "In a social context deteriorated by a countrywide economic crisis, the life of several people will be turned upside down after they meet Cecile, a character who symbolizes desire.", "poster_path": "/9Jg9s4yTEndNmy1SSXRF9jdxY9D.jpg", "release_date": "2011-09-14", "title": "Desire", "video": false, "vote_average": 4.6, "vote_count": 204, "popularity": 25.756}, {"adult": false, "backdrop_path": "/98ahnrena4PwLth7HFYGLf9yssH.jpg", "genre_ids": [35, 18, 10749], "id": 22705, "original_language": "it", "original_title": "Tra(sgre)dire", "overview": "While scouting out apartments in London for her Venetian boyfriend, Carla rents an apartment that overlooks the Thames. There she meet the lesbian hyper-horny real estate agent Moira.", "poster_path": "/kZITrLEiTfzzJhtwtXhQUl3ImCQ.jpg", "release_date": "2000-01-28", "title": "Cheeky", "video": false, "vote_average": 5.7, "vote_count": 92, "popularity": 30.42}, {"adult": false, "backdrop_path": "/fwreQBx5CD55c1DpH117cS8915P.jpg", "genre_ids": [18, 53], "id": 867, "original_language": "en", "original_title": "Sliver", "overview": "A woman moves into an apartment in Manhattan and learns that the previous tenant's life ended mysteriously after they fell from the balcony.", "poster_path": "/av21Dfu31DQPtp5jkorMMS58rQC.jpg", "release_date": "1993-05-21", "title": "Sliver", "video": false, "vote_average": 5.3, "vote_count": 288, "popularity": 19.094}, {"id": 249397, "video": false, "vote_count": 1667, "vote_average": 6.7, "title": "Nymphomaniac: Vol. II", "release_date": "2013-12-25", "original_language": "en", "original_title": "Nymphomaniac: Vol. II", "genre_ids": [18, 9648], "backdrop_path": "/chloasXdurCYMk0Oa11665jFCQl.jpg", "adult": false, "overview": "The continuation of Joe's sexually dictated life delves into the darker aspects of her adult life and what led to her being in Seligman's care.", "poster_path": "/2FBFiDhx3tGe8PG4A5iuCbeIJ4s.jpg", "popularity": 19.876}, {"adult": false, "backdrop_path": "/gZeJziVigmRqbkEZwKAtSqlLQ6s.jpg", "genre_ids": [18, 10749], "id": 370663, "original_language": "en", "original_title": "Below Her Mouth", "overview": "An unexpected affair quickly escalates into a heart-stopping reality for two women whose passionate connection changes their lives forever.", "poster_path": "/nTGbq37hYLuNy7YgMg0gVLma0NS.jpg", "release_date": "2016-09-10", "title": "Below Her Mouth", "video": false, "vote_average": 6.2, "vote_count": 456, "popularity": 18.664}, {"adult": false, "backdrop_path": "/9e5e7dJTMxQeF7zNx0CiJmxXE1I.jpg", "genre_ids": [27, 878, 53], "id": 11309, "original_language": "en", "original_title": "Hardware", "overview": "Mark 13 is a government-built killing machine programmed with artificial intelligence, able to repair and recharge itself from any energy source. Through a series of coincidences, the cyborg's head ends up in the home of a sculptress as a bizarre Christmas present from her boyfriend. Once inside its new home, the cyborg promptly reconstructs the rest of its body using a variety of household utensils and proceeds to go on a murderous rampage.", "poster_path": "/nsFm5xniViTVr1oVUpKmgvlAOEA.jpg", "release_date": "1990-09-14", "title": "Hardware", "video": false, "vote_average": 5.7, "vote_count": 145, "popularity": 10.189}, {"adult": false, "backdrop_path": "/xOGEw8iywxcFMolV6SF6YdTdJTb.jpg", "genre_ids": [10402, 10749], "id": 52371, "original_language": "nl", "original_title": "LelleBelle", "overview": "19-year old Belle practices playing the violin diligently, but is unable to impart her music with a sensitive undertone. Her life changes when she discovers that sexual desire stimulates passion in her music.", "poster_path": "/nJVPgIq3icZMQ26p5uWIFdUZJfL.jpg", "release_date": "2010-10-08", "title": "LelleBelle", "video": false, "vote_average": 4.7, "vote_count": 41, "popularity": 13.747}, {"adult": false, "backdrop_path": "/20IgqkdFw5kuItqDCJtidSESP0t.jpg", "genre_ids": [27, 18], "id": 10066, "original_language": "en", "original_title": "House of Wax", "overview": "A group of unwitting teens are stranded near a strange wax museum and soon must fight to survive and keep from becoming the next exhibit.", "poster_path": "/uM1RebQywM5PPYsauayefpXGxVk.jpg", "release_date": "2005-04-30", "title": "House of Wax", "video": false, "vote_average": 5.7, "vote_count": 1532, "popularity": 16.398}, {"adult": false, "backdrop_path": "/8DkJrxEyRN8gTseEhajybpC5smK.jpg", "genre_ids": [27], "id": 10585, "original_language": "en", "original_title": "Child's Play", "overview": "A single mother gives her son a beloved doll for his birthday, only to discover that it is possessed by the soul of a serial killer.", "poster_path": "/dSX9i2buibfyKFRpK2kOe6rtl5R.jpg", "release_date": "1988-11-08", "title": "Child's Play", "video": false, "vote_average": 6.5, "vote_count": 1416, "popularity": 20.547}, {"adult": false, "backdrop_path": "/zfs9QuKkZL6ZCluGvjo5Pk49aMv.jpg", "genre_ids": [27, 9648, 53], "id": 16938, "original_language": "en", "original_title": "Black Christmas", "overview": "A sorority house is terrorized by a stranger who makes frightening phone calls and then murders the sorority sisters during Christmas break.", "poster_path": "/qqO98sdPgptFgCua3Z4uZDuPcmP.jpg", "release_date": "1974-10-11", "title": "Black Christmas", "video": false, "vote_average": 6.9, "vote_count": 307, "popularity": 10.097}], "total_pages": 468, "total_results": 9358}, "recommendations": {"page": 1, "results": [{"id": 181601, "video": false, "vote_count": 3, "vote_average": 4.7, "title": "Mondo Weirdo", "release_date": "1990-01-01", "original_language": "de", "original_title": "Jungfrau am Abgrund", "genre_ids": [18, 14, 27, 9648], "backdrop_path": null, "adult": false, "overview": "Young girl becomes Alice in dreamland. Wild dreams and nightmares about vampirism, death, obsessions and other bizarre things.", "poster_path": "/nuZN55FQk4JwVnIOaoUDGrtKrO3.jpg", "popularity": 0.6}, {"id": 40111, "video": false, "vote_count": 5, "vote_average": 2.1, "title": "La Blue Girl: Revenge of the Shikima Realm", "release_date": "1995-02-24", "original_language": "ja", "original_title": "\u6deb\u7363\u5b66\u5712 \u8272\u9b54\u754c\u306e\u9006\u8972", "genre_ids": [28, 27], "backdrop_path": "/zvW2XchhUW0IMPMp5GQ1aQ0W5kS.jpg", "adult": false, "overview": "Three complete stories of Ninja Sexcraft! The live action version of the anime hit. Miko has been training all her life for the inevitable day when the sex-starved Shikima Demons would invade to subjugate the women of Earth with their lascivious tentacles. Now the barriers are breaking down and the people of Earth are in peril. The demons won't stop until they have insinuated themselves into every orifice available. Will the Shikima demons make slaves of all of Miko's friends? How can Miko possibly defend against the wrath of an entire dimension?", "poster_path": "/waItYlfl4l8kbWLwrQM6uoaBI0S.jpg", "popularity": 3.682}, {"adult": false, "backdrop_path": null, "genre_ids": [53], "id": 118397, "original_language": "en", "original_title": "Identical", "overview": "Identical twins are born, one is good and one is evil. They need each-other to exist, but they deeply resent the others existence. They both fall in love with the same woman. A love triangle forms which leads to murder.", "poster_path": "/grdKkKH1uuv3kiGHI8JKoo1u5ZM.jpg", "release_date": "2011-12-01", "title": "Identical", "video": false, "vote_average": 4.3, "vote_count": 4, "popularity": 1.934}, {"adult": false, "backdrop_path": "/fF6OUd4Jt5gSEdOs8emSDVNBVNx.jpg", "genre_ids": [27], "id": 57236, "original_language": "en", "original_title": "Left for Dead", "overview": "Five frat boys are stalked by a machete wielding maniac, after they are involved in a horrifying Devil's Night accident.", "poster_path": "/pIHEKdBcyO9u2xE4uPmsQKjm8F6.jpg", "release_date": "2007-11-06", "title": "Left for Dead", "video": false, "vote_average": 5.6, "vote_count": 6, "popularity": 3.41}, {"adult": false, "backdrop_path": null, "genre_ids": [27], "id": 138688, "original_language": "en", "original_title": "Celluloid Bloodbath", "overview": "DEFINITION: 'Celluloid' - Motion picture film, cinema film. 'Bloodbath' - Savage, indiscriminate killing, a massacre. CELLULOID BLOODBATH: MORE PREVUES FROM HELL - the long-awaited sequel to 1987's horror cult classic, MAD RON'S PREVUES FROM HELL. An awesome collection of 61 over-the-top horror movie prevues, from the golden Grindhouse age, spanning the 1960's through the 1980's! Also features commentary from film makers, actors, critics and fans, that make this a true, incredibly entertaining, one-of-a-kind movie-going experience!", "poster_path": "/kGNe3UCnRUeHNVvgQy0cUhmxDDl.jpg", "release_date": "2012-10-09", "title": "Celluloid Bloodbath", "video": false, "vote_average": 5.1, "vote_count": 5, "popularity": 2.195}, {"adult": false, "backdrop_path": "/5F5PgAcT1hxYn3krHss9WtRzEY5.jpg", "genre_ids": [80], "id": 59412, "original_language": "en", "original_title": "Terry", "overview": "In the summer of 2009, Charlie Ruez made a documentary. 6 months later the footage was seized for evidence by the Metropolitan Police Department. In 2010, the footage was released.", "poster_path": "/7LfnjVphavJu2IqdP1DltlfITSC.jpg", "release_date": "2011-03-10", "title": "Terry", "video": false, "vote_average": 4.4, "vote_count": 7, "popularity": 3.07}], "total_pages": 1, "total_results": 9}, "credits": {"cast": [{"cast_id": 3, "character": "Simone", "credit_id": "52fe4583c3a36847f80cbae1", "gender": 1, "id": 43194, "name": "Dirce Funari", "order": 0, "profile_path": "/sR60eKls1Bpdq9hhYlIXwviAijX.jpg"}, {"cast_id": 4, "character": "Contessa", "credit_id": "52fe4583c3a36847f80cbae5", "gender": 1, "id": 100436, "name": "Annj Goren", "order": 1, "profile_path": "/e2uVya8aov4JH1BGAoKxJfDdpAr.jpg"}, {"cast_id": 5, "character": "Captain O'Day (as Mark Shanon)", "credit_id": "52fe4583c3a36847f80cbae9", "gender": 2, "id": 43193, "name": "Mark Shannon", "order": 2, "profile_path": "/jpDUHI9IGnXk5Ho4YehaeJZQ7H1.jpg"}, {"cast_id": 8, "character": "Dr. Lemoir", "credit_id": "57fb5b6fc3a3683a3500759d", "gender": 2, "id": 33807, "name": "George Eastman", "order": 3, "profile_path": "/aE8C5uGqystShl13VcrZSjcraJ5.jpg"}, {"cast_id": 9, "character": "Annie (uncredited)", "credit_id": "57fb5b7b92514144a00074dd", "gender": 1, "id": 100437, "name": "Lucia Ramirez", "order": 4, "profile_path": "/kNFqBN4rmCppgFMWqyQIT4o55uU.jpg"}, {"cast_id": 11, "character": "Reporter (uncredited)", "credit_id": "5ce66cf29251414a92bcbc0c", "gender": 2, "id": 31775, "name": "Joe D'Amato", "order": 5, "profile_path": "/mYyejhm6tqa290duWvLgX7L48No.jpg"}], "crew": [{"credit_id": "52fe4583c3a36847f80cbadd", "department": "Directing", "gender": 2, "id": 31775, "job": "Director", "name": "Joe D'Amato", "profile_path": "/mYyejhm6tqa290duWvLgX7L48No.jpg"}, {"credit_id": "56fc0e44c3a36808d3002f04", "department": "Sound", "gender": 2, "id": 53189, "job": "Original Music Composer", "name": "Nico Fidenco", "profile_path": null}, {"credit_id": "5c63245e9251412fbffd2465", "department": "Writing", "gender": 2, "id": 31775, "job": "Writer", "name": "Joe D'Amato", "profile_path": "/mYyejhm6tqa290duWvLgX7L48No.jpg"}, {"credit_id": "5ce66d090e0a265256d5075b", "department": "Editing", "gender": 0, "id": 101099, "job": "Editor", "name": "Ornella Micheli", "profile_path": null}, {"credit_id": "5ce66d160e0a26381cd11808", "department": "Art", "gender": 0, "id": 1893587, "job": "Art Direction", "name": "Ennio Michettoni", "profile_path": null}, {"credit_id": "5ce66d219251417824b8c65c", "department": "Costume & Make-Up", "gender": 0, "id": 1893587, "job": "Costume Design", "name": "Ennio Michettoni", "profile_path": null}, {"credit_id": "5ce66d2d0e0a26522aceb968", "department": "Costume & Make-Up", "gender": 0, "id": 1710192, "job": "Makeup Artist", "name": "Massimo Camiletti", "profile_path": null}, {"credit_id": "5ce66d3cc3a368536b20e78c", "department": "Directing", "gender": 0, "id": 100423, "job": "Assistant Director", "name": "Donatella Donati", "profile_path": null}, {"credit_id": "5ce66d46925141479bbcfaa0", "department": "Sound", "gender": 0, "id": 2319445, "job": "Sound", "name": "Silvio Gaia", "profile_path": null}, {"credit_id": "5ce66d52925141479bbcfaa7", "department": "Production", "gender": 0, "id": 1710194, "job": "Production Manager", "name": "Massimo Alberini", "profile_path": null}, {"credit_id": "5ce66d5e0e0a26426acc73a5", "department": "Production", "gender": 0, "id": 1710195, "job": "Production Supervisor", "name": "Giovanni Perrucci", "profile_path": null}, {"credit_id": "5ce66d6a92514159e9b8d5ec", "department": "Camera", "gender": 0, "id": 1632423, "job": "Camera Operator", "name": "Enrico Biribicchi", "profile_path": null}, {"credit_id": "5ce66d760e0a26522aceb98e", "department": "Camera", "gender": 0, "id": 1711654, "job": "Assistant Camera", "name": "Enzo Frattari", "profile_path": null}, {"credit_id": "5ce66d820e0a263aedca4c53", "department": "Editing", "gender": 0, "id": 1719823, "job": "Assistant Editor", "name": "Gioia Donati", "profile_path": null}, {"credit_id": "5ce66d939251415450b8d50b", "department": "Editing", "gender": 2, "id": 2176691, "job": "Assistant Editor", "name": "Bruno Micheli", "profile_path": null}, {"credit_id": "5ce66da50e0a26426acc73c9", "department": "Directing", "gender": 0, "id": 2319454, "job": "Script Supervisor", "name": "Caterina Mangiavalori", "profile_path": null}]}}