{"adult": false, "backdrop_path": "/wsXpFNFOPH7ceipUO1VK3pKkgkE.jpg", "belongs_to_collection": null, "budget": 0, "genres": [{"id": 18, "name": "Drama"}, {"id": 35, "name": "Comedy"}], "homepage": null, "id": 405670, "imdb_id": "tt5133392", "original_language": "ru", "original_title": "\u0417\u043e\u043e\u043b\u043e\u0433\u0438\u044f", "overview": "Natasha is a lonely, middle-aged admin employee at the zoo who still lives at home with her mother. One day her life is turned upside down when she discovers she has grown a tail\u2026", "popularity": 2.859, "poster_path": "/3RuFcjiabI701XCAl9Tzp2tZ2XA.jpg", "production_companies": [{"id": 16906, "logo_path": null, "name": "Arizona Films", "origin_country": "FR"}, {"id": 20490, "logo_path": null, "name": "New People Film Company", "origin_country": ""}, {"id": 79197, "logo_path": null, "name": "MovieBrats Pictures", "origin_country": ""}], "production_countries": [{"iso_3166_1": "FR", "name": "France"}, {"iso_3166_1": "DE", "name": "Germany"}, {"iso_3166_1": "RU", "name": "Russia"}], "release_date": "2016-11-24", "revenue": 0, "runtime": 87, "spoken_languages": [{"iso_639_1": "ru", "name": "P\u0443\u0441\u0441\u043a\u0438\u0439"}], "status": "Released", "tagline": "It's Never Too Late To Grow A Tail", "title": "Zoology", "video": false, "vote_average": 6.4, "vote_count": 14, "keywords": {"keywords": [{"id": 2172, "name": "zoo"}, {"id": 156597, "name": "magic realism"}]}, "similar": {"page": 1, "results": [{"id": 10527, "video": false, "vote_count": 4220, "vote_average": 6.4, "title": "Madagascar: Escape 2 Africa", "release_date": "2008-10-30", "original_language": "en", "original_title": "Madagascar: Escape 2 Africa", "genre_ids": [16, 35, 10751], "backdrop_path": "/anxiz37Z9FPKeuCsJcxViSWmPxg.jpg", "adult": false, "overview": "Alex, Marty, and other zoo animals find a way to escape from Madagascar when the penguins reassemble a wrecked airplane. The precariously repaired craft stays airborne just long enough to make it to the African continent. There the New Yorkers encounter members of their own species for the first time. Africa proves to be a wild place, but Alex and company wonder if it is better than their Central Park home.", "poster_path": "/9mohxwknsHcwFBSAAhoQXwFV5zn.jpg", "popularity": 23.58}, {"id": 87827, "video": false, "vote_count": 9358, "vote_average": 7.3, "title": "Life of Pi", "release_date": "2012-11-20", "original_language": "en", "original_title": "Life of Pi", "genre_ids": [28, 12, 18], "backdrop_path": "/tk159LPfy69zSHw4dabehfAaJXi.jpg", "adult": false, "overview": "The story of an Indian boy named Pi, a zookeeper's son who finds himself in the company of a hyena, zebra, orangutan, and a Bengal tiger after a shipwreck sets them adrift in the Pacific Ocean.", "poster_path": "/sLYdcz7easaS7CmJGwQcVVYZqiF.jpg", "popularity": 20.637}, {"id": 58224, "video": false, "vote_count": 1758, "vote_average": 5.8, "title": "Mr. Popper's Penguins", "release_date": "2011-06-17", "original_language": "en", "original_title": "Mr. Popper's Penguins", "genre_ids": [35, 10751], "backdrop_path": "/kJTtIU4sBfgGa6GqPkpFh3K07qM.jpg", "adult": false, "overview": "Jim Carrey stars as Tom Popper, a successful businessman who\u2019s clueless when it comes to the really important things in life...until he inherits six \u201cadorable\u201d penguins, each with its own unique personality. Soon Tom\u2019s rambunctious roommates turn his swank New York apartment into a snowy winter wonderland \u2014 and the rest of his world upside-down.", "poster_path": "/qKkyePjlG9yilHpS89ZOc3N2Cd1.jpg", "popularity": 12.593}, {"id": 953, "video": false, "vote_count": 6886, "vote_average": 6.8, "title": "Madagascar", "release_date": "2005-05-25", "original_language": "en", "original_title": "Madagascar", "genre_ids": [16, 10751], "backdrop_path": "/wUetiqu2EFhHW94yTP0pWABfyUG.jpg", "adult": false, "overview": "Alex the lion is the king of the urban jungle, the main attraction at New York\u2019s Central Park Zoo. He and his best friends\u2014Marty the zebra, Melman the giraffe and Gloria the hippo\u2014have spent their whole lives in blissful captivity before an admiring public and with regular meals provided for them. Not content to leave well enough alone, Marty lets his curiosity get the better of him and makes his escape\u2014with the help of some prodigious penguins\u2014to explore the world.", "poster_path": "/2YiESGB68BGQSAFvfJxBi774sc4.jpg", "popularity": 30.679}, {"id": 10258, "video": false, "vote_count": 148, "vote_average": 6.6, "title": "The Madagascar Penguins in a Christmas Caper", "release_date": "2005-09-23", "original_language": "en", "original_title": "The Madagascar Penguins in a Christmas Caper", "genre_ids": [16, 35, 10751], "backdrop_path": "/gdJ6j1hmt6dQgObWxDJAHUb58o6.jpg", "adult": false, "overview": "During the holiday season, when the animals of the Central Park Zoo are preparing for Christmas, Private, the youngest of the penguins notices that the Polar Bear is all alone. Assured that nobody should have to spend Christmas alone, Private goes into the city for some last-minute Christmas shopping. Along the way, he gets stuffed into a stocking", "poster_path": "/r8QtfGSjDaY6vICRVyYvZvTkjxc.jpg", "popularity": 13.032}, {"id": 38317, "video": false, "vote_count": 1005, "vote_average": 5.4, "title": "Zookeeper", "release_date": "2011-07-06", "original_language": "en", "original_title": "Zookeeper", "genre_ids": [35, 10749, 10751], "backdrop_path": "/2au5IQO5AuQwSGmn0eIOTLZ0Nop.jpg", "adult": false, "overview": "Kindhearted Griffin Keyes is one of the best-loved caretakers at the Franklin Park Zoo, but since he is more comfortable with the animals than with females of his own species, his love life is lacking. When Griffin decides that the only way to get a girlfriend is to find a more-glamorous career, the animals panic. To keep him from leaving, they reveal their secret ability to talk and offer to teach him the rules of courtship, animal-style.", "poster_path": "/qVsaDvFLnGSH6WdTgatzc2nXt7e.jpg", "popularity": 16.383}, {"id": 9836, "video": false, "vote_count": 3141, "vote_average": 6.0, "title": "Happy Feet", "release_date": "2006-11-16", "original_language": "en", "original_title": "Happy Feet", "genre_ids": [16, 35, 10751], "backdrop_path": "/xgLMY1VCwM8SJq6HB3ZMpYL6mic.jpg", "adult": false, "overview": "Into the world of the Emperor Penguins, who find their soul mates through song, a penguin is born who cannot sing. But he can tap dance something fierce!", "poster_path": "/8RLEzftZK87S2usLsQoYtyNYzoV.jpg", "popularity": 17.384}, {"id": 9904, "video": false, "vote_count": 562, "vote_average": 5.3, "title": "The Wild", "release_date": "2006-03-06", "original_language": "en", "original_title": "The Wild", "genre_ids": [16, 10751], "backdrop_path": "/z8bCwHtKypfDoqChf41pKWR41Xb.jpg", "adult": false, "overview": "An adolescent lion is accidentally shipped from the New York Zoo to Africa. Now running free, his zoo pals must put aside their differences to help bring him back.", "poster_path": "/uxTtgh4tpSWVulXLCDqKU10cWXo.jpg", "popularity": 16.611}, {"adult": false, "backdrop_path": "/fTBhQtwxqi7skX5hQ6fvjl8H1H6.jpg", "genre_ids": [16, 35, 10751], "id": 161143, "original_language": "en", "original_title": "Madly Madagascar", "overview": "Your favorite Madagascar pals are back in an all-new adventure! Alex's favorite holiday, Valentine's Day, brings hilarious surprises and excitement for the entire gang. Melman plans a big surprise for Gloria, Marty tries to impress a new friend and everyone wants to get their hands on King Julien's love potion. You'll fall in LOVE with Madly Madagascar!", "poster_path": "/2BryHTAzdSPi7KR9B9UnkDLCkm8.jpg", "release_date": "2013-01-29", "title": "Madly Madagascar", "video": false, "vote_average": 6.0, "vote_count": 82, "popularity": 9.363}, {"id": 433, "video": false, "vote_count": 2994, "vote_average": 7.6, "title": "Mary Poppins", "release_date": "1964-08-27", "original_language": "en", "original_title": "Mary Poppins", "genre_ids": [35, 14, 10751], "backdrop_path": "/7DbgR36Sct5gcyEAzoM8bqiTYUV.jpg", "adult": false, "overview": "A magical nanny employs music and adventure to help two neglected children become closer to their father.", "poster_path": "/ei8hhYCMfURfPOXKBnyl61be2iV.jpg", "popularity": 20.325}, {"id": 8587, "video": false, "vote_count": 11494, "vote_average": 8.3, "title": "The Lion King", "release_date": "1994-05-07", "original_language": "en", "original_title": "The Lion King", "genre_ids": [16, 18, 10751], "backdrop_path": "/2wW1hyNxpU36aNtNSHVhIOJccde.jpg", "adult": false, "overview": "A young lion prince is cast out of his pride by his cruel uncle, who claims he killed his father. While the uncle rules with an iron paw, the prince grows up beyond the Savannah, living by a philosophy: No worries for the rest of your days. But when his past comes to haunt him, the young prince must decide his fate: Will he remain an outcast or face his demons and become what he needs to be?", "poster_path": "/sKCr78MXSLixwmZ8DyJLrpMsd15.jpg", "popularity": 38.326}, {"id": 269149, "video": false, "vote_count": 10912, "vote_average": 7.7, "title": "Zootopia", "release_date": "2016-02-11", "original_language": "en", "original_title": "Zootopia", "genre_ids": [12, 16, 35, 10751], "backdrop_path": "/mhdeE1yShHTaDbJVdWyTlzFvNkr.jpg", "adult": false, "overview": "Determined to prove herself, Officer Judy Hopps, the first bunny on Zootopia's police force, jumps at the chance to crack her first case - even if it means partnering with scam-artist fox Nick Wilde to solve the mystery.", "poster_path": "/sM33SANp9z6rXW8Itn7NnG1GOEs.jpg", "popularity": 51.293}, {"adult": false, "backdrop_path": "/fBYnaVOcc2Ghfkv473z0xdBRQ0m.jpg", "genre_ids": [10751, 16, 12, 35], "id": 270946, "original_language": "en", "original_title": "Penguins of Madagascar", "overview": "Skipper, Kowalski, Rico and Private join forces with undercover organization The North Wind to stop the villainous Dr. Octavius Brine from destroying the world as we know it.", "poster_path": "/pRer59eyY4rjkLPeKXKo7fPxCHH.jpg", "release_date": "2014-11-22", "title": "Penguins of Madagascar", "video": false, "vote_average": 6.4, "vote_count": 2485, "popularity": 27.36}, {"adult": false, "backdrop_path": "/4T2EpBzG4VyqDijObJFjWse8RaH.jpg", "genre_ids": [12, 35, 10751, 10749], "id": 10603, "original_language": "en", "original_title": "George of the Jungle", "overview": "After Baby George survives a plane crash in the jungle, he is rescued and then adopted by a wise ape. Years later, grown-up George saves a US noble woman, Ursula Stanhope while she is on a safari\u2014and takes her to the jungle to live with him. While Ursula's lover continues his search for Ursula and the one who took her, George slowly learns the rules of human relationships.", "poster_path": "/wTvuMi6YlO6bVe2Ax5mEL1dbVYv.jpg", "release_date": "1997-07-15", "title": "George of the Jungle", "video": false, "vote_average": 5.4, "vote_count": 1151, "popularity": 14.358}, {"id": 61791, "video": false, "vote_count": 7882, "vote_average": 7.2, "title": "Rise of the Planet of the Apes", "release_date": "2011-08-03", "original_language": "en", "original_title": "Rise of the Planet of the Apes", "genre_ids": [28, 18, 878, 53], "backdrop_path": "/oxrovtv9Yo9snk4WLM0bK0SCRES.jpg", "adult": false, "overview": "Scientist Will Rodman is determined to find a cure for Alzheimer's, the disease which has slowly consumed his father. Will feels certain he is close to a breakthrough and tests his latest serum on apes, noticing dramatic increases in intelligence and brain activity in the primate subjects \u2013 especially Caesar, his pet chimpanzee.", "poster_path": "/j87XPCcAnJUnjQ0gvZoWS6XQpfh.jpg", "popularity": 22.253}, {"id": 575718, "video": false, "vote_count": 0, "vote_average": 0.0, "title": "Secret Zoo", "release_date": "2020-01-15", "original_language": "ko", "original_title": "\ud574\uce58\uc9c0\uc54a\uc544", "genre_ids": [35], "backdrop_path": "/hc8Y3Xz9YS3DQxVem61qrhkHxtn.jpg", "adult": false, "overview": "A lawyer is given the mission of revitalising a bankrupt zoo that has no animals. When he and a group of zookeepers come up with the idea to dress like animals and his fake polar bear goes viral, the zoo becomes a hit, before his law firm\u2019s real intentions are revealed.", "poster_path": "/2yBRl13BrHXhK7KpMTMZ9YfSvRW.jpg", "popularity": 7.468}, {"id": 497, "video": false, "vote_count": 9319, "vote_average": 8.5, "title": "The Green Mile", "release_date": "1999-12-10", "original_language": "en", "original_title": "The Green Mile", "genre_ids": [80, 18, 14], "backdrop_path": "/Rlt20sEbOQKPVjia7lUilFm49W.jpg", "adult": false, "overview": "A supernatural tale set on death row in a Southern prison, where gentle giant John Coffey possesses the mysterious power to heal people's ailments. When the cell block's head guard, Paul Edgecomb, recognizes Coffey's miraculous gift, he tries desperately to help stave off the condemned man's execution.", "poster_path": "/sOHqdY1RnSn6kcfAHKu28jvTebE.jpg", "popularity": 35.4}, {"id": 11430, "video": false, "vote_count": 1850, "vote_average": 6.5, "title": "The Lion King 1\u00bd", "release_date": "2004-02-06", "original_language": "en", "original_title": "The Lion King 1\u00bd", "genre_ids": [16, 35, 10751], "backdrop_path": "/ycw3fFPYFDMTvSV0240WHQL8Vik.jpg", "adult": false, "overview": "Timon the meerkat and Pumbaa the warthog are best pals and the unsung heroes of the African savanna. This prequel to the smash Disney animated adventure takes you back -- way back -- before Simba's adventure began. You'll find out all about Timon and Pumbaa and tag along as they search for the perfect home and attempt to raise a rambunctious lion cub.", "poster_path": "/vDfaIoXTaQLUD5HVAv2hLIFKAcq.jpg", "popularity": 24.449}, {"id": 2454, "video": false, "vote_count": 3954, "vote_average": 6.5, "title": "The Chronicles of Narnia: Prince Caspian", "release_date": "2008-05-15", "original_language": "en", "original_title": "The Chronicles of Narnia: Prince Caspian", "genre_ids": [12, 14, 10751], "backdrop_path": "/eiET76GO3xECOic1rL8VcTLuy3L.jpg", "adult": false, "overview": "One year after their incredible adventures in the Lion, the Witch and the Wardrobe, Peter, Edmund, Lucy and Susan Pevensie return to Narnia to aid a young prince whose life has been threatened by the evil King Miraz. Now, with the help of a colorful cast of new characters, including Trufflehunter the badger and Nikabrik the dwarf, the Pevensie clan embarks on an incredible quest to ensure that Narnia is returned to its rightful heir.", "poster_path": "/kSSyzqw9C4wUggicG4D81XmptR1.jpg", "popularity": 23.366}, {"id": 411, "video": false, "vote_count": 6421, "vote_average": 7.0, "title": "The Chronicles of Narnia: The Lion, the Witch and the Wardrobe", "release_date": "2005-12-07", "original_language": "en", "original_title": "The Chronicles of Narnia: The Lion, the Witch and the Wardrobe", "genre_ids": [12, 14, 10751], "backdrop_path": "/fOeoL1Oa5D9VKTKMGeLmUhA7qK5.jpg", "adult": false, "overview": "Siblings Lucy, Edmund, Susan and Peter step through a magical wardrobe and find the land of Narnia. There, the they discover a charming, once peaceful kingdom that has been plunged into eternal winter by the evil White Witch, Jadis. Aided by the wise and magnificent lion, Aslan, the children lead Narnia into a spectacular, climactic battle to be free of the Witch's glacial powers forever.", "poster_path": "/l8RKDgjl9co0IgFZblxhtIOi5Uj.jpg", "popularity": 33.103}], "total_pages": 13, "total_results": 243}, "recommendations": {"page": 1, "results": [{"adult": false, "backdrop_path": "/4fotg8XUPiKvK3yTOypjAH6iIdu.jpg", "genre_ids": [18], "id": 471878, "original_language": "es", "original_title": "Los versos del olvido", "overview": "When the elderly caretaker of a remote morgue discovers the body of a young woman killed during a protest, he embarks on a magical odyssey to give her a proper burial before the militia returns.", "poster_path": "/huh0JhP2JzXoaF1mdQTIZcCI7Y1.jpg", "release_date": "2018-08-01", "title": "Oblivion Verses", "video": false, "vote_average": 7.0, "vote_count": 4, "popularity": 0.6}, {"adult": false, "backdrop_path": null, "genre_ids": [], "id": 163863, "original_language": "en", "original_title": "Walkower", "overview": "Walkover, the autobiographical second feature by Polish enfant terrible Jerzy Skolimowski echoes the French nouvelle vague  in its extraordinarily stylized tale of a prizefighter who ducks a fight to romance a beautiful blonde.", "poster_path": "/4XD1LpKwW9zXTenCcDsWYV9Tvwj.jpg", "release_date": "1965-06-04", "title": "Walkover", "video": false, "vote_average": 6.4, "vote_count": 9, "popularity": 1.572}, {"id": 408539, "video": false, "vote_count": 21, "vote_average": 8.0, "title": "Paradise", "release_date": "2016-09-01", "original_language": "ru", "original_title": "\u0420\u0430\u0439", "genre_ids": [18], "backdrop_path": "/nzyH5neQxcFVAiTdjfTPSpF7LGD.jpg", "adult": false, "overview": "The historical drama set during the Second World War centres on three people whose paths cross: a Russian aristocratic emigrant and member of the French resistance, a French collaborator and a high-ranking German SS officer.", "poster_path": "/lSOAIq9PKkmpSSVmXemgQkCPRb0.jpg", "popularity": 2.051}, {"id": 47454, "video": false, "vote_count": 6, "vote_average": 5.8, "title": "Presentation, or Charlotte and Her Steak", "release_date": "1960-01-01", "original_language": "fr", "original_title": "Pr\u00e9sentation ou Charlotte et son steak", "genre_ids": [], "backdrop_path": null, "adult": false, "overview": "Two young people, Walter and Charlotte, are walking through a small village in Switzerland a snowy winter day. Walter introduces Charlotte to Clara, hoping to make Charlotte jealous. After saying good-bye to Clara, Walter accompanies Charlotte into her house, although she doesn't want him to. Charlotte is hungry and cooks a steak. She asks Walter if he wants a piece of it. He says no, but she gives him a small piece anyway. He wants a kiss, and she says no. She starts to compare herself with Clara, who Walter agrees is more beautiful. In spite of this, Walter says he likes Charlotte much more, but she thinks he is lying. She notices that he is cold and shivering. She hugs him, he kisses her, and she starts kissing him. After leaving the house he accompanies her to the train.", "poster_path": "/96jT4Rr5J5N4q1ucPVHLdhVzXVW.jpg", "popularity": 1.315}, {"adult": false, "backdrop_path": "/wIkNcyUyvXpXPfQ734k79zCtk1.jpg", "genre_ids": [10749, 18, 36], "id": 297789, "original_language": "ru", "original_title": "\u0410\u043d\u0433\u0435\u043b\u044b \u0440\u0435\u0432\u043e\u043b\u044e\u0446\u0438\u0438", "overview": "Five friends \u2013 a poet, an actor, a painter, an architect and a primitivist film director \u2013 are five red avant-garde artists who try to find the embodiment of their hopes and dreams in the young Soviet state. The Revolution is boiling up like a bottle with apple cider: winged service dogs and heart-shaped potatoes, dead Semashko, the People\u2019s Commissar for Health, and cheerful angels, love for the Tsar and love for the young secretary Annushka, executions and pregnancies \u2013 everything is interlaced and inseparable!", "poster_path": "/mKcsJwRQnXsh7mKYu7UTrQ2QTWM.jpg", "release_date": "2014-11-05", "title": "Angels of Revolution", "video": false, "vote_average": 6.5, "vote_count": 8, "popularity": 1.4}], "total_pages": 1, "total_results": 5}, "credits": {"cast": [{"cast_id": 2, "character": "Natasha", "credit_id": "57820366925141196e00670a", "gender": 1, "id": 1647914, "name": "Natalya Pavlenkova", "order": 1, "profile_path": "/22awNe29lar1crRPKNHNJzydI6C.jpg"}, {"cast_id": 3, "character": "Peter", "credit_id": "5782042592514150a200010d", "gender": 2, "id": 1647916, "name": "Dmitry Groshev", "order": 2, "profile_path": null}, {"cast_id": 4, "character": "Mother", "credit_id": "57820447925141196e00675b", "gender": 1, "id": 1647917, "name": "Irina Chipizhenko", "order": 3, "profile_path": null}, {"cast_id": 5, "character": "Katya", "credit_id": "57820472c3a36843bf007590", "gender": 0, "id": 1137287, "name": "Masha Tokareva", "order": 4, "profile_path": "/zk9Pl8mNPRO2ScLJtHiZdbf4KKY.jpg"}, {"cast_id": 21, "character": "Stylist", "credit_id": "596cd301c3a3682a50000197", "gender": 2, "id": 1487287, "name": "Alexandr Gorchilin", "order": 5, "profile_path": "/qNSdFKBBeI9gKy2MXN9sEv4ZlTA.jpg"}, {"cast_id": 23, "character": "Sveta", "credit_id": "5acd4f7a0e0a267f9a016317", "gender": 1, "id": 2020700, "name": "Anna Astashkina", "order": 6, "profile_path": "/jSjtHiN6saalUdzoxM2eawCe8Rj.jpg"}, {"cast_id": 25, "character": "Katya", "credit_id": "5def73b60257640014574900", "gender": 1, "id": 1952332, "name": "Irina Demidkina", "order": 7, "profile_path": "/hauQJ1COade5gbOGcEQvHYqBLW2.jpg"}], "crew": [{"credit_id": "596cd1cb9251410893000058", "department": "Production", "gender": 2, "id": 118675, "job": "Producer", "name": "Guillaume de Seille", "profile_path": null}, {"credit_id": "5ae6dfa9c3a3681345007b8e", "department": "Production", "gender": 1, "id": 1151245, "job": "Producer", "name": "Ulyana Savelyeva", "profile_path": null}, {"credit_id": "596cd20ac3a3682a6c000069", "department": "Production", "gender": 0, "id": 1206977, "job": "Co-Producer", "name": "Alec Schulmann", "profile_path": null}, {"credit_id": "578202e5c3a3681f50001bc6", "department": "Writing", "gender": 2, "id": 1349251, "job": "Screenplay", "name": "Ivan I. Tverdovsky", "profile_path": "/awjwRrNheRA6HRM6u8uHRagSwT.jpg"}, {"credit_id": "578202ce92514150a2000075", "department": "Directing", "gender": 2, "id": 1349251, "job": "Director", "name": "Ivan I. Tverdovsky", "profile_path": "/awjwRrNheRA6HRM6u8uHRagSwT.jpg"}, {"credit_id": "596cd1d392514108ad000054", "department": "Production", "gender": 0, "id": 1553205, "job": "Co-Producer", "name": "Esther Friedrich", "profile_path": null}, {"credit_id": "596cd1a692514108a0000036", "department": "Camera", "gender": 2, "id": 1853229, "job": "Director of Photography", "name": "Alexandr Mikeladze", "profile_path": "/3OyeBJlHHaECSAHJnqsQ2VYoPjR.jpg"}, {"credit_id": "596cd1aec3a3682a5c000020", "department": "Production", "gender": 0, "id": 1853230, "job": "Casting", "name": "Natalia Domeretskaya", "profile_path": null}, {"credit_id": "596cd1b5c3a36829a600002d", "department": "Art", "gender": 0, "id": 1853231, "job": "Production Design", "name": "Luba Ivanova", "profile_path": null}, {"credit_id": "596cd1bc92514108c4000045", "department": "Art", "gender": 0, "id": 1853233, "job": "Set Decoration", "name": "Akyl Ergishov", "profile_path": null}, {"credit_id": "596cd1c29251410897000052", "department": "Costume & Make-Up", "gender": 1, "id": 1853234, "job": "Costume Design", "name": "Anna Chistova", "profile_path": "/sD8dDAAMBLGFg9c5Lw5acBvkSX5.jpg"}, {"credit_id": "596cd1dcc3a3682a50000063", "department": "Production", "gender": 0, "id": 1853237, "job": "Producer", "name": "Maria Lavnikovich", "profile_path": null}, {"credit_id": "596cd1e4c3a3682a6c000044", "department": "Production", "gender": 1, "id": 1853238, "job": "Producer", "name": "Natalya Mokritskaya", "profile_path": "/vAqG0u00fVuPJdmIW2DKpO38B4k.jpg"}, {"credit_id": "596cd1ecc3a36829da000064", "department": "Production", "gender": 1, "id": 1853239, "job": "Producer", "name": "Mila Rozanova", "profile_path": "/2fWWCwE6MtiGG2StiGa5kyuDKb4.jpg"}, {"credit_id": "596cd1f592514108ad00007a", "department": "Production", "gender": 0, "id": 1853241, "job": "Line Producer", "name": "Ilya Samsonov", "profile_path": null}, {"credit_id": "596cd213c3a36829a60000a1", "department": "Production", "gender": 0, "id": 1853243, "job": "Producer", "name": "B\u00e9n\u00e9dicte Thomas", "profile_path": null}, {"credit_id": "596cd21a92514108d00000a1", "department": "Production", "gender": 0, "id": 1853244, "job": "Co-Producer", "name": "Alexander Weimer", "profile_path": null}, {"credit_id": "5acd1d45c3a3687e0e02f6bb", "department": "Lighting", "gender": 2, "id": 2020588, "job": "Gaffer", "name": "Maxim Chirkov", "profile_path": "/xrOmgRLBIb6u5OZuKiSkqs4lOtX.jpg"}]}}