{"adult": false, "backdrop_path": "/nDu7UjvMdvXbNljKGKXl3TOEB2a.jpg", "belongs_to_collection": null, "budget": 0, "genres": [{"id": 18, "name": "Drama"}, {"id": 53, "name": "Thriller"}], "homepage": null, "id": 40624, "imdb_id": "tt0247427", "original_language": "en", "original_title": "In the Shadows", "overview": "When a stunt man dies in Miami, his uncle, a New York mob boss, sends a hit man to tail the stunt coordinator, whom the boss wants dead. The hit man, Eric O'Bryne, gets close to his mark's daughter, and through her he asks her dad to teach him to do stunts. While waiting for the word to kill this mentor, Eric discovers the joy of stunt work and of being part of a family. Meanwhile, several people are looking for the dead man's briefcase of money and a cloth bag of illegal drugs that he stole from an undercover FBI agent now desperate to get the borrowed drugs back to the bureau. The stunt coordinator says that 'we dance in the shadows of death.' Can Eric step out into the sun?", "popularity": 4.104, "poster_path": "/l1QmD3WB4KGB5kWSg2c6WxPV6Xj.jpg", "production_companies": [{"id": 16791, "logo_path": null, "name": "Newman/Tooley Films", "origin_country": ""}, {"id": 934, "logo_path": null, "name": "Cutting Edge Entertainment", "origin_country": ""}], "production_countries": [{"iso_3166_1": "US", "name": "United States of America"}], "release_date": "2001-06-24", "revenue": 0, "runtime": 105, "spoken_languages": [{"iso_639_1": "en", "name": "English"}], "status": "Released", "tagline": "Hitman. Stuntman. Dead man.", "title": "In the Shadows", "video": false, "vote_average": 5.7, "vote_count": 6, "keywords": {"keywords": [{"id": 2708, "name": "hitman"}, {"id": 5956, "name": "stuntman"}]}, "similar": {"page": 1, "results": [{"id": 4816, "video": false, "vote_count": 604, "vote_average": 7.3, "title": "Ghost Dog: The Way of the Samurai", "release_date": "1999-06-02", "original_language": "en", "original_title": "Ghost Dog: The Way of the Samurai", "genre_ids": [80, 18], "backdrop_path": "/hCmImSZ0OyIGxnCrL3LMA3dEZpm.jpg", "adult": false, "overview": "An African-American Mafia hit man who models himself after the samurai of old finds himself targeted for death by the mob.", "poster_path": "/vkmrlVxvcQ6NPWlXBS9mqQ7goVv.jpg", "popularity": 11.44}, {"id": 13184, "video": false, "vote_count": 598, "vote_average": 5.1, "title": "Bangkok Dangerous", "release_date": "2008-08-21", "original_language": "en", "original_title": "Bangkok Dangerous", "genre_ids": [28, 80, 53], "backdrop_path": "/lBVtKWWXH46r7oMLdfT3quioaVb.jpg", "adult": false, "overview": "When carrying out a hit, assassin Joe (Cage) always makes use of the knowledge of the local population. On arriving in Bangkok, Joe meets street kid Kong and he becomes his primary aide. But when Kong is nearly killed, he asks Joe to train him up in the deadly arts and unwittingly becomes a target of a band of killers.", "poster_path": "/eyHn8A0lze1pbCNxv0UsATBOmyv.jpg", "popularity": 10.559}, {"id": 9873, "video": false, "vote_count": 166, "vote_average": 6.4, "title": "F/X", "release_date": "1986-02-07", "original_language": "en", "original_title": "F/X", "genre_ids": [28, 80, 53], "backdrop_path": "/t0u76RL3YlcfnWdRWgRudROqEkg.jpg", "adult": false, "overview": "A movies special effects man is hired by a government agency to help stage the assassination of a well known gangster. When the agency double cross him, he uses his special effects to trap the gangster and the corrupt agents.", "poster_path": "/6VAiIPBnIRPWXi70sxsHDn9rXA8.jpg", "popularity": 8.513}, {"id": 19403, "video": false, "vote_count": 117, "vote_average": 7.0, "title": "The Mechanic", "release_date": "1972-10-06", "original_language": "en", "original_title": "The Mechanic", "genre_ids": [28, 80, 53], "backdrop_path": "/lWEHUyJgL9LrSUoUipm3nbdEbMd.jpg", "adult": false, "overview": "Arthur Bishop is a veteran hit man who, owing to his penchant for making his targets' deaths seem like accidents, thinks himself an artist. It's made him very rich, but as he hits middle age, he's so depressed and lonely that he takes on one of his victim's sons, Steve McKenna, as his apprentice. Arthur puts him through a rigorous training period and brings him on several hits. As Steven improves, Arthur worries that he'll discover who killed his father.", "poster_path": "/hizE0MwFJOBlfLSFqFNKv7cSxkT.jpg", "popularity": 10.889}, {"adult": false, "backdrop_path": "/kSTvteM3ekuoeO7u7GJtZQkZuom.jpg", "genre_ids": [28, 53, 80], "id": 1948, "original_language": "en", "original_title": "Crank", "overview": "Professional assassin Chev Chelios learns his rival has injected him with a poison that will kill him if his heart rate drops.", "poster_path": "/6RnD3Zfh0tO0cD2vroWyH0F98Ej.jpg", "release_date": "2006-08-31", "title": "Crank", "video": false, "vote_average": 6.6, "vote_count": 2121, "popularity": 21.613}, {"adult": false, "backdrop_path": "/fLMv873bBAvrCtzeAbRVjb4Mi9Y.jpg", "genre_ids": [28, 53, 80], "id": 27582, "original_language": "en", "original_title": "The Mechanic", "overview": "Arthur Bishop is a 'mechanic' - an elite assassin with a strict code and unique talent for cleanly eliminating targets. It's a job that requires professional perfection and total detachment, and Bishop is the best in the business. But when he is ordered to take out his mentor and close friend Harry, Bishop is anything but detached.", "poster_path": "/eScKoGnjaUvGD2OkK3DImyzfVkt.jpg", "release_date": "2011-01-13", "title": "The Mechanic", "video": false, "vote_average": 6.3, "vote_count": 1857, "popularity": 23.44}, {"adult": false, "backdrop_path": "/2f8fkWSWOVcTlWforoVpsuaCiwI.jpg", "genre_ids": [53, 28], "id": 449985, "original_language": "en", "original_title": "Triple Threat", "overview": "A crime syndicate places a hit on a billionaire's daughter, making her the target of an elite assassin squad. A small band of down-and-out mercenaries protects her, fighting tooth and nail to stop the assassins from reaching their target.", "poster_path": "/cSpM3QxmoSLp4O1WAMQpUDcaB7R.jpg", "release_date": "2019-03-19", "title": "Triple Threat", "video": false, "vote_average": 5.5, "vote_count": 146, "popularity": 17.856}, {"id": 266396, "video": false, "vote_count": 629, "vote_average": 5.7, "title": "The Gunman", "release_date": "2015-02-16", "original_language": "en", "original_title": "The Gunman", "genre_ids": [28, 80, 18], "backdrop_path": "/jVU1bRNcXCfX9LC8pj9Hp9McN7x.jpg", "adult": false, "overview": "Eight years after fleeing the Congo following his assassination of that country's minister of mining, former assassin Jim Terrier is back, suffering from PTSD and digging wells to atone for his violent past. After an attempt is made on his life, Terrier flies to London to find out who wants him dead -- and why. Terrier's search leads him to a reunion with Annie, a woman he once loved, who is now married to an oily businessman with dealings in Africa.", "poster_path": "/lnUozDnDANTsDYEdsNsHC6b8IiS.jpg", "popularity": 12.497}, {"adult": false, "backdrop_path": "/6wBfey6EVR5qxYLB8pxoTVQYWkS.jpg", "genre_ids": [28, 80, 18, 53], "id": 1620, "original_language": "en", "original_title": "Hitman", "overview": "The best-selling videogame, Hitman, roars to life with both barrels blazing in this hardcore action-thriller starring Timothy Olyphant. A genetically engineered assassin with deadly aim, known only as \"Agent 47\" eliminates strategic targets for a top-secret organization. But when he's double-crossed, the hunter becomes the prey as 47 finds himself in a life-or-death game of international intrigue.", "poster_path": "/1U2FpMotSyaciATw5qfEsKdgpX4.jpg", "release_date": "2007-11-21", "title": "Hitman", "video": false, "vote_average": 5.9, "vote_count": 1868, "popularity": 16.204}, {"id": 156022, "video": false, "vote_count": 5466, "vote_average": 7.2, "title": "The Equalizer", "release_date": "2014-09-24", "original_language": "en", "original_title": "The Equalizer", "genre_ids": [28, 80, 53], "backdrop_path": "/vbl4ZVqelrrzJ16fdDOq9siWbpi.jpg", "adult": false, "overview": "McCall believes he has put his mysterious past behind him and dedicated himself to beginning a new, quiet life. But when he meets Teri, a young girl under the control of ultra-violent Russian gangsters, he can\u2019t stand idly by \u2013 he has to help her. Armed with hidden skills that allow him to serve vengeance against anyone who would brutalize the helpless, McCall comes out of his self-imposed retirement and finds his desire for justice reawakened. If someone has a problem, if the odds are stacked against them, if they have nowhere else to turn, McCall will help. He is The Equalizer.", "poster_path": "/2eQfjqlvPAxd9aLDs8DvsKLnfed.jpg", "popularity": 38.079}, {"adult": false, "backdrop_path": "/913sS08HhcTQTwz7X567iR6DLHn.jpg", "genre_ids": [12, 28, 53], "id": 682, "original_language": "en", "original_title": "The Man with the Golden Gun", "overview": "A golden bullet has 007 engraved on it as it smashes into the secret service headquarters. The bullet came from the professional killer Scaramanga who has yet to miss a target and James Bond begins a mission to try and stop him.", "poster_path": "/7VSVgxAvA7IdTf8T6Oon1eaReeJ.jpg", "release_date": "1974-12-01", "title": "The Man with the Golden Gun", "video": false, "vote_average": 6.5, "vote_count": 996, "popularity": 17.905}, {"adult": false, "backdrop_path": "/lnxiNlbStoBT4CDMqPAdprS5pwN.jpg", "genre_ids": [28, 53], "id": 1991, "original_language": "en", "original_title": "Death Proof", "overview": "Austin's hottest DJ, Jungle Julia, sets out into the night to unwind with her two friends Shanna and Arlene. Covertly tracking their moves is Stuntman Mike, a scarred rebel leering from behind the wheel of his muscle car, revving just feet away.", "poster_path": "/nyQBcpxqS4im2akQlWG9Y1oeM2V.jpg", "release_date": "2007-05-21", "title": "Death Proof", "video": false, "vote_average": 6.8, "vote_count": 2821, "popularity": 17.718}, {"id": 2501, "video": false, "vote_count": 5867, "vote_average": 7.4, "title": "The Bourne Identity", "release_date": "2002-06-14", "original_language": "en", "original_title": "The Bourne Identity", "genre_ids": [28, 18, 9648, 53], "backdrop_path": "/2Fr1vqBiDn8xRJM9elcplzHctTN.jpg", "adult": false, "overview": "Wounded to the brink of death and suffering from amnesia, Jason Bourne is rescued at sea by a fisherman. With nothing to go on but a Swiss bank account number, he starts to reconstruct his life, but finds that many people he encounters want him dead. However, Bourne realizes that he has the combat and mental skills of a world-class spy\u2014but who does he work for?", "poster_path": "/bXQIL36VQdzJ69lcjQR1WQzJqQR.jpg", "popularity": 20.935}, {"id": 1538, "video": false, "vote_count": 2891, "vote_average": 7.2, "title": "Collateral", "release_date": "2004-08-04", "original_language": "en", "original_title": "Collateral", "genre_ids": [80, 18, 53], "backdrop_path": "/hFcXrnmciPfIg8ZcXb1V7BeguF.jpg", "adult": false, "overview": "Cab driver Max picks up a man who offers him $600 to drive him around. But the promise of easy money sours when Max realizes his fare is an assassin.", "poster_path": "/fmkv2eRuYCTq7A5jzMBNgoNe1vA.jpg", "popularity": 22.701}, {"id": 8909, "video": false, "vote_count": 4589, "vote_average": 6.4, "title": "Wanted", "release_date": "2008-06-19", "original_language": "en", "original_title": "Wanted", "genre_ids": [28, 80, 53], "backdrop_path": "/nUqFvwyLwZwT6Y3phbRNliTimZ5.jpg", "adult": false, "overview": "Doormat Wesley Gibson discovers that his recently murdered father \u2013 who Wesley never knew \u2013 belonged to a secret guild of assassins. After a leather-clad sexpot drafts Wesley into the society, he hones his innate killing skills and turns avenger.", "poster_path": "/mUrkppyahzk6koYFekxeu0tmcPd.jpg", "popularity": 19.187}, {"id": 101, "video": false, "vote_count": 8647, "vote_average": 8.3, "title": "L\u00e9on: The Professional", "release_date": "1994-09-14", "original_language": "en", "original_title": "L\u00e9on: The Professional", "genre_ids": [28, 80, 18], "backdrop_path": "/dXQ7HILRK1Tg33RT64JwbQI7Osh.jpg", "adult": false, "overview": "L\u00e9on, the top hit man in New York, has earned a rep as an effective \"cleaner\". But when his next-door neighbors are wiped out by a loose-cannon DEA agent, he becomes the unwilling custodian of 12-year-old Mathilda. Before long, Mathilda's thoughts turn to revenge, and she considers following in L\u00e9on's footsteps.", "poster_path": "/gE8S02QUOhVnAmYu4tcrBlMTujz.jpg", "popularity": 41.351}, {"id": 787, "video": false, "vote_count": 6331, "vote_average": 6.6, "title": "Mr. & Mrs. Smith", "release_date": "2005-06-07", "original_language": "en", "original_title": "Mr. & Mrs. Smith", "genre_ids": [28, 35, 18, 53], "backdrop_path": "/fAwYX0Fha35CaYYUJ06VTN3bEeh.jpg", "adult": false, "overview": "After five (or six) years of vanilla-wedded bliss, ordinary suburbanites John and Jane Smith are stuck in a huge rut. Unbeknownst to each other, they are both coolly lethal, highly-paid assassins working for rival organisations. When they discover they're each other's next target, their secret lives collide in a spicy, explosive mix of wicked comedy, pent-up passion, nonstop action and high-tech weaponry.", "poster_path": "/dqs5BmwSULtB28Kls3IB6khTQwp.jpg", "popularity": 36.487}, {"id": 483906, "video": false, "vote_count": 1077, "vote_average": 6.3, "title": "Polar", "release_date": "2019-01-25", "original_language": "en", "original_title": "Polar", "genre_ids": [28, 80, 18], "backdrop_path": "/u8CP7EeWbYMlIVqEoKAt6OYsEe1.jpg", "adult": false, "overview": "When a retiring assassin realizes that he is the target of a hit, he winds up back in the game going head to head with a gang of younger, ruthless killers.", "poster_path": "/qOBEpKVLl8Q9CZScbOcRRVISezV.jpg", "popularity": 14.316}, {"adult": false, "backdrop_path": "/v761yOHKO3p6Yr7LDCjud6tUL5G.jpg", "genre_ids": [28, 80, 53], "id": 10651, "original_language": "en", "original_title": "The Dead Pool", "overview": "Dirty Harry Callahan returns for his final film adventure. Together with his partner Al Quan, he must investigate the systematic murder of actors and musicians. By the time Harry learns that the murders are a part of a sick game to predict the deaths of celebrities before they happen, it may be too late...", "poster_path": "/9ZUSqox9lIxN4xaYBac2QXMFcZj.jpg", "release_date": "1988-07-12", "title": "The Dead Pool", "video": false, "vote_average": 6.4, "vote_count": 389, "popularity": 10.626}, {"id": 390043, "video": false, "vote_count": 3453, "vote_average": 6.8, "title": "The Hitman's Bodyguard", "release_date": "2017-08-16", "original_language": "en", "original_title": "The Hitman's Bodyguard", "genre_ids": [28, 35], "backdrop_path": "/7KsqfXDECZMryX1Rv4RKsT7SIjQ.jpg", "adult": false, "overview": "The world top bodyguard gets a new client, a hit man who must testify at the International Court of Justice. They must put their differences aside and work together to make it to the trial on time.", "poster_path": "/5CGjlz2vyBhW5xHW4eNOZIdgzYq.jpg", "popularity": 28.459}], "total_pages": 48, "total_results": 944}, "recommendations": {"page": 1, "results": [{"adult": false, "backdrop_path": "/ibCdoeIq6kyOCbiyHSAo4rNj7Q2.jpg", "genre_ids": [35], "id": 94356, "original_language": "en", "original_title": "We the Party", "overview": "In Los Angeles, five high-school friends deal with romance, money, prom, college, sex, bullies, Facebook, fitting in, standing out, and finding themselves.", "poster_path": "/mkqa5zpG4KVbOb4kVPscVnIOJbo.jpg", "release_date": "2012-04-06", "title": "We the Party", "video": false, "vote_average": 3.2, "vote_count": 5, "popularity": 3.391}, {"id": 368620, "video": false, "vote_count": 14, "vote_average": 6.3, "title": "My Friend Rockefeller", "release_date": "2015-07-04", "original_language": "en", "original_title": "My Friend Rockefeller", "genre_ids": [80, 99, 9648], "backdrop_path": "/ohOWg2VTepvcubWHjm0frwapX8f.jpg", "adult": false, "overview": "Christian Karl Gerhartsreiter lived a life of deception and crime before settling on his ultimate scam - impersonating a Rockefeller. How was Gerhartsreiter able to dupe so many people from so many walks of life? A story that begins in a Bavarian village, continues in the most exclusive clubs on the American East Coast, - and ends in a Los Angeles court.", "poster_path": "/5su427rQorhEZvzpU8njaucdL9h.jpg", "popularity": 5.007}, {"adult": false, "backdrop_path": "/AggLeQBr0IQPBnXIYbK2EsiDHrP.jpg", "genre_ids": [35], "id": 40818, "original_language": "en", "original_title": "Pretty Bird", "overview": "A comic tale of three would-be entrepreneurs who set out to invent a rocket belt. The clash of their mismatched personalities soon dissolves the business into a morass of recriminations and retaliations, kidnapping, and murder in this parable of American dreams and delusions.", "poster_path": "/tFPwhvFvLeJ3b4bsvxsYiYNjniC.jpg", "release_date": "2008-08-08", "title": "Pretty Bird", "video": false, "vote_average": 5.0, "vote_count": 11, "popularity": 5.04}, {"id": 13632, "video": false, "vote_count": 24, "vote_average": 5.7, "title": "MacGyver: Trail to Doomsday", "release_date": "1994-11-24", "original_language": "en", "original_title": "MacGyver: Trail to Doomsday", "genre_ids": [28, 12, 10770], "backdrop_path": "/9myHmRXEl5FQmet4TjWSz4055TM.jpg", "adult": false, "overview": "A close friend of MacGyver is murdered. In searching for a reason for this assassination MacGyver discovers a secret nuclear weapons plant right in the center of Britain.", "poster_path": "/3uSzCU0CtigQI0W2EcovoVcKAuJ.jpg", "popularity": 6.153}, {"id": 10104, "video": false, "vote_count": 34, "vote_average": 3.7, "title": "Dorm Daze 2", "release_date": "2006-12-14", "original_language": "en", "original_title": "Dorm Daze 2", "genre_ids": [35], "backdrop_path": "/l95eJSURTuuNBhbzElOc6fAjtEB.jpg", "adult": false, "overview": "Sequel to Dorm Daze has most of the original group of college students on a cruise ship in the Pacific, putting on a school play which takes a turn involving the theft of a priceless diamond.", "poster_path": "/6H4osjA6mFDBPMRKHkuoDrF4sXm.jpg", "popularity": 10.386}, {"adult": false, "backdrop_path": "/7vbE1AXtGmhOIpOdgWzEa2AoedO.jpg", "genre_ids": [18], "id": 53229, "original_language": "en", "original_title": "Requiem for a Heavyweight", "overview": "Mountain Rivera is at the end of his boxing career after a knockout by Cassius Clay in the seventh round. His left eye is one punch from permanent trauma, his ears turned to cauliflower, his speech slurred from \"being hit a million times,\" and he slings punches anytime he hears a bell, but his trainer and 'cutman' Army, and Miss Miller, a manipulative social worker, support his illusion that he could be a movie usher, a camp counselor, or a romantic partner for Miller.", "poster_path": "/aMREsMuUaNgXPH5Z0ZAlgJHIk2v.jpg", "release_date": "1962-10-16", "title": "Requiem for a Heavyweight", "video": false, "vote_average": 7.1, "vote_count": 26, "popularity": 5.897}], "total_pages": 1, "total_results": 6}, "credits": {"cast": [{"cast_id": 1, "character": "Eric", "credit_id": "52fe459ac3a36847f80d068b", "gender": 2, "id": 8654, "name": "Matthew Modine", "order": 0, "profile_path": "/tEQG1Us5IuoKYtufZe6waWtxfeg.jpg"}, {"cast_id": 2, "character": "Lance Huston", "credit_id": "52fe459ac3a36847f80d068f", "gender": 2, "id": 3085, "name": "James Caan", "order": 1, "profile_path": "/bGyOCCOIgcIyKjOGLoXoyp0XWHf.jpg"}, {"cast_id": 3, "character": "Clarissa Huston", "credit_id": "52fe459ac3a36847f80d0693", "gender": 1, "id": 16484, "name": "Joey Lauren Adams", "order": 2, "profile_path": "/hQqqcyUvLQwnqBYCdpGZIfKOpmO.jpg"}, {"cast_id": 6, "character": "Draven", "credit_id": "5489c194c3a3686f4a001afa", "gender": 2, "id": 9777, "name": "Cuba Gooding Jr.", "order": 3, "profile_path": "/yu8Q3ImFu3RJne585jjgeQO2Boo.jpg"}, {"cast_id": 7, "character": "Jimmy Pierazzi", "credit_id": "5489c1a5c3a3686f55001bad", "gender": 2, "id": 17917, "name": "Lillo Brancato", "order": 4, "profile_path": "/zdSXmg2uNARHmA75YvUUJwwLGGK.jpg"}], "crew": [{"credit_id": "52fe459ac3a36847f80d0699", "department": "Directing", "gender": 2, "id": 76422, "job": "Director", "name": "Ric Roman Waugh", "profile_path": "/cu0MJd4exIgSLgaE0uwMDTFQcpA.jpg"}, {"credit_id": "5489c16ec3a3686f47001ca4", "department": "Writing", "gender": 2, "id": 76422, "job": "Writer", "name": "Ric Roman Waugh", "profile_path": "/cu0MJd4exIgSLgaE0uwMDTFQcpA.jpg"}]}}