{"adult": false, "backdrop_path": "/kFDt6KEZUJYB0t2dtnBRCdTqT87.jpg", "belongs_to_collection": null, "budget": 0, "genres": [{"id": 99, "name": "Documentary"}], "homepage": "", "id": 406431, "imdb_id": "tt3993350", "original_language": "en", "original_title": "The Hurt Business", "overview": "From the producers of 'Bowling for Columbine', 'Fahrenheit 9/11' and 'Generation Iron' comes 'The Hurt Business' which examines the rise of mixed martial arts fighting through the eyes of today's top stars.", "popularity": 5.683, "poster_path": "/8SvgxyvXUZJBXJih2XVIlffc3O7.jpg", "production_companies": [{"id": 79289, "logo_path": null, "name": "Generation Iron Fitness Network", "origin_country": ""}, {"id": 63590, "logo_path": null, "name": "The Vladar Company", "origin_country": ""}], "production_countries": [{"iso_3166_1": "US", "name": "United States of America"}], "release_date": "2016-01-01", "revenue": 0, "runtime": 107, "spoken_languages": [{"iso_639_1": "en", "name": "English"}], "status": "Released", "tagline": "", "title": "The Hurt Business", "video": false, "vote_average": 6.1, "vote_count": 24, "keywords": {"keywords": [{"id": 6075, "name": "sport"}]}, "similar": {"page": 1, "results": [{"adult": false, "backdrop_path": "/qVjKZMB0IdOc2JlwiiGsuKTvTJs.jpg", "genre_ids": [18], "id": 22881, "original_language": "en", "original_title": "The Blind Side", "overview": "The story of Michael Oher, a homeless and traumatized boy who became an All American football player and first round NFL draft pick with the help of a caring woman and her family", "poster_path": "/wEGFSgPebLk6g1ngKsJ6a46PYLV.jpg", "release_date": "2009-11-20", "title": "The Blind Side", "video": false, "vote_average": 7.5, "vote_count": 3212, "popularity": 42.202}, {"adult": false, "backdrop_path": "/jK3EAFk3GdOaQfUDCOiTujzMpwH.jpg", "genre_ids": [18], "id": 389015, "original_language": "en", "original_title": "I, Tonya", "overview": "Competitive ice skater Tonya Harding rises amongst the ranks at the U. S. Figure Skating Championships, but her future in the sport is thrown into doubt when her ex-husband intervenes.", "poster_path": "/6gNXwSHxaksR1PjVZRqNapmkgj3.jpg", "release_date": "2017-12-08", "title": "I, Tonya", "video": false, "vote_average": 7.5, "vote_count": 3332, "popularity": 20.099}, {"id": 8923, "video": false, "vote_count": 1359, "vote_average": 7.2, "title": "Green Street Hooligans", "release_date": "2005-09-09", "original_language": "en", "original_title": "Green Street Hooligans", "genre_ids": [80, 18], "backdrop_path": "/oasVTD3UpTEjhTAVx9ZCy1k19Qv.jpg", "adult": false, "overview": "After being wrongfully expelled from Harvard University, American Matt Buckner flees to his sister's home in England. Once there, he is befriended by her charming and dangerous brother-in-law, Pete Dunham, and introduced to the underworld of British football hooliganism. Matt learns to stand his ground through a friendship that develops against the backdrop of this secret and often violent world. 'Green Street Hooligans' is a story of loyalty, trust and the sometimes brutal consequences of living close to the edge.", "poster_path": "/z3LC4kI8azbeuHRGgDdWo6VBCdX.jpg", "popularity": 20.194}, {"adult": false, "backdrop_path": "/n1Gh3MJAVvXmkgSDf3SOLlPCjag.jpg", "genre_ids": [35, 18, 10749], "id": 9390, "original_language": "en", "original_title": "Jerry Maguire", "overview": "Jerry Maguire used to be a typical sports agent: willing to do just about anything he could to get the biggest possible contracts for his clients, plus a nice commission for himself. Then, one day, he suddenly has second thoughts about what he's really doing. When he voices these doubts, he ends up losing his job and all of his clients, save Rod Tidwell, an egomaniacal football player.", "poster_path": "/99YTEdKOKDRClsscOpJfdkbaTrQ.jpg", "release_date": "1996-12-13", "title": "Jerry Maguire", "video": false, "vote_average": 6.9, "vote_count": 1796, "popularity": 20.431}, {"adult": false, "backdrop_path": "/kBTdPNTAzagAY6UiwY957KCDGuu.jpg", "genre_ids": [16, 35, 10751], "id": 2300, "original_language": "en", "original_title": "Space Jam", "overview": "Swackhammer, an evil alien theme park owner, needs a new attraction at Moron Mountain. When his gang, the Nerdlucks, heads to Earth to kidnap Bugs Bunny and the Looney Tunes, Bugs challenges them to a basketball game to determine their fate. The aliens agree, but they steal the powers of NBA basketball players, including Larry Bird and Charles Barkley -- so Bugs gets some help from superstar Michael Jordan.", "poster_path": "/xI9AwhOWtsbFlS8tYD2PXa80p7u.jpg", "release_date": "1996-11-15", "title": "Space Jam", "video": false, "vote_average": 6.7, "vote_count": 3180, "popularity": 17.288}, {"adult": false, "backdrop_path": "/eD8PxfDsmWyUcj2LzQ9Ha2O7UvB.jpg", "genre_ids": [99], "id": 614423, "original_language": "en", "original_title": "Collingwood: From The Inside Out", "overview": "An  intimate look at Collingwood Football Club as it rebuilds itself and aims for glory over the course of the 2018 season.", "poster_path": "/dsJMvBJ7M2HvGkJdhW4nKNHEgDs.jpg", "release_date": "2019-08-15", "title": "Collingwood: From The Inside Out", "video": false, "vote_average": 1.0, "vote_count": 1, "popularity": 1.883}, {"id": 630633, "video": false, "vote_count": 0, "vote_average": 0.0, "title": "Varane : Destin de Champion", "release_date": "2019-09-23", "original_language": "fr", "original_title": "Varane : Destin de Champion", "genre_ids": [99], "backdrop_path": null, "adult": false, "overview": "", "poster_path": "/ecUI8DO8lfk5FUca0IF2SNgsgtn.jpg", "popularity": 1.548}, {"adult": false, "backdrop_path": "/20IgqkdFw5kuItqDCJtidSESP0t.jpg", "genre_ids": [27, 18], "id": 10066, "original_language": "en", "original_title": "House of Wax", "overview": "A group of unwitting teens are stranded near a strange wax museum and soon must fight to survive and keep from becoming the next exhibit.", "poster_path": "/uM1RebQywM5PPYsauayefpXGxVk.jpg", "release_date": "2005-04-30", "title": "House of Wax", "video": false, "vote_average": 5.7, "vote_count": 1532, "popularity": 16.398}, {"adult": false, "backdrop_path": "/mYKP6qcDUimVMAHQWLOuDHjO19S.jpg", "genre_ids": [35], "id": 445629, "original_language": "en", "original_title": "Fighting with My Family", "overview": "Born into a tight-knit wrestling family, Paige and her brother Zak are ecstatic when they get the once-in-a-lifetime opportunity to try out for the WWE. But when only Paige earns a spot in the competitive training program, she must leave her loved ones behind and face this new cutthroat world alone. Paige's journey pushes her to dig deep and ultimately prove to the world that what makes her different is the very thing that can make her a star.", "poster_path": "/cVhe15rJLRjolunSWLBN6xQLyGU.jpg", "release_date": "2019-02-14", "title": "Fighting with My Family", "video": false, "vote_average": 6.7, "vote_count": 643, "popularity": 18.498}, {"adult": false, "backdrop_path": "/qnWGw3n1R0OhPkoB1cYTTax5LMU.jpg", "genre_ids": [35, 10751, 14], "id": 23023, "original_language": "en", "original_title": "Tooth Fairy", "overview": "When minor-league hockey player Derek Thompson -- who has a penchant for knocking out his opponents' teeth every time he plays -- disillusions a fan, he is sentenced to a stint for one week as a bona fide, tutu-clad, real-life tooth fairy. Soon, Derek is inspired to rekindle his youthful dreams.", "poster_path": "/gNQA76kl251IuJVKMHfrRE12p7j.jpg", "release_date": "2010-01-14", "title": "Tooth Fairy", "video": false, "vote_average": 5.4, "vote_count": 1226, "popularity": 19.176}, {"adult": false, "backdrop_path": "/w41zFKYTsq4wf5QnQJWMXuzWl2F.jpg", "genre_ids": [18, 28], "id": 96721, "original_language": "en", "original_title": "Rush", "overview": "A biographical drama centered on the rivalry between Formula 1 drivers James Hunt and Niki Lauda during the 1976 Formula One motor-racing season.", "poster_path": "/cjEepHZOZAwmK6nAj5jis6HV75E.jpg", "release_date": "2013-09-02", "title": "Rush", "video": false, "vote_average": 7.7, "vote_count": 4276, "popularity": 17.673}, {"id": 1375, "video": false, "vote_count": 1670, "vote_average": 5.6, "title": "Rocky V", "release_date": "1990-10-18", "original_language": "en", "original_title": "Rocky V", "genre_ids": [18], "backdrop_path": "/dr5pdEDOdCvelCQqP32UZubiSgE.jpg", "adult": false, "overview": "A lifetime of taking shots has ended Rocky\u2019s career, and a crooked accountant has left him broke. Inspired by the memory of his trainer, however, Rocky finds glory in training and takes on an up-and-coming boxer.", "poster_path": "/5P2RiuLt31mWyb6duww8qlAhs6G.jpg", "popularity": 22.518}, {"id": 70006, "video": false, "vote_count": 288, "vote_average": 6.1, "title": "Never Back Down 2: The Beatdown", "release_date": "2011-09-13", "original_language": "en", "original_title": "Never Back Down 2: The Beatdown", "genre_ids": [28, 18], "backdrop_path": "/lSFqtjxMfAHa58TBDDBELKeq2DH.jpg", "adult": false, "overview": "Four fighters different backgrounds come together to train under an ex MMA rising star and then ultimately have to fight each other and the traitor in heir midst.", "poster_path": "/qeISu4rUk9l9sQTMs86fAoxSx8p.jpg", "popularity": 15.641}, {"id": 391757, "video": false, "vote_count": 185, "vote_average": 6.5, "title": "Never Back Down: No Surrender", "release_date": "2016-06-07", "original_language": "en", "original_title": "Never Back Down: No Surrender", "genre_ids": [28, 18], "backdrop_path": "/pzjnObK3uiHcKwiir9OPPWzbW8f.jpg", "adult": false, "overview": "Picking up after the events of Never Back Down 2, former MMA champion Case Walker is on the comeback trail to become champion once again.", "poster_path": "/dYNS4o4Q4DDLiKRAAvZ9KcrhHuy.jpg", "popularity": 15.446}, {"id": 396371, "video": false, "vote_count": 1970, "vote_average": 7.1, "title": "Molly's Game", "release_date": "2017-12-25", "original_language": "en", "original_title": "Molly's Game", "genre_ids": [80, 18], "backdrop_path": "/rHcBZ6ZKCe4FalWHyvBGsyMsh0k.jpg", "adult": false, "overview": "Molly Bloom, a young skier and former Olympic hopeful becomes a successful entrepreneur (and a target of an FBI investigation) when she establishes a high-stakes, international poker game.", "poster_path": "/in43bQ7k0ttr666IPP94IlbQbTR.jpg", "popularity": 18.141}, {"id": 107, "video": false, "vote_count": 5247, "vote_average": 7.8, "title": "Snatch", "release_date": "2000-09-01", "original_language": "en", "original_title": "Snatch", "genre_ids": [80, 53], "backdrop_path": "/cNLZ7YGRikb4IsLblrzu86ndZPw.jpg", "adult": false, "overview": "The second film from British director Guy Ritchie. Snatch tells an obscure story similar to his first fast-paced crazy character-colliding filled film \u201cLock, Stock and Two Smoking Barrels.\u201d There are two overlapping stories here \u2013 one is the search for a stolen diamond, and the other about a boxing promoter who\u2019s having trouble with a psychotic gangster.", "poster_path": "/on9JlbGEccLsYkjeEph2Whm1DIp.jpg", "popularity": 25.36}, {"id": 312221, "video": false, "vote_count": 4401, "vote_average": 7.4, "title": "Creed", "release_date": "2015-11-25", "original_language": "en", "original_title": "Creed", "genre_ids": [18], "backdrop_path": "/fs2yhdSCzMVlNECrN84WuCkgXov.jpg", "adult": false, "overview": "The former World Heavyweight Champion Rocky Balboa serves as a trainer and mentor to Adonis Johnson, the son of his late friend and former rival Apollo Creed.", "poster_path": "/hKzhV274pkZBSpXfCjUyzbyYKLl.jpg", "popularity": 17.844}, {"id": 307081, "video": false, "vote_count": 3703, "vote_average": 7.4, "title": "Southpaw", "release_date": "2015-03-24", "original_language": "en", "original_title": "Southpaw", "genre_ids": [28, 18], "backdrop_path": "/tTt1cdEEkKMJ1R4VBTe5vbE3bWO.jpg", "adult": false, "overview": "Billy \"The Great\" Hope, the reigning junior middleweight boxing champion, has an impressive career, a loving wife and daughter, and a lavish lifestyle. However, when tragedy strikes, Billy hits rock bottom, losing his family, his house and his manager. He soon finds an unlikely savior in Tick Willis, a former fighter who trains the city's toughest amateur boxers. With his future on the line, Hope fights to reclaim the trust of those he loves the most.", "poster_path": "/50d0XQQETSyg3bwBXhC7K33pKgc.jpg", "popularity": 28.235}, {"id": 651, "video": false, "vote_count": 478, "vote_average": 7.1, "title": "M*A*S*H", "release_date": "1970-01-24", "original_language": "en", "original_title": "M*A*S*H", "genre_ids": [35, 18, 10752], "backdrop_path": "/l5YH6TCYi2mgZwXbDjF71iA9UBP.jpg", "adult": false, "overview": "The staff of a Korean War field hospital use humor and high jinks to keep their sanity in the face of the horror of war.", "poster_path": "/cscyvJ4nDgbqewrttPXZ5EYOdwa.jpg", "popularity": 12.777}, {"adult": false, "backdrop_path": "/nb70B4EXuoegiQ0C5N1fNVHIaYc.jpg", "genre_ids": [12, 18, 36, 53, 10752], "id": 5925, "original_language": "en", "original_title": "The Great Escape", "overview": "The Nazis, exasperated at the number of escapes from their prison camps by a relatively small number of Allied prisoners, relocates them to a high-security 'escape-proof' camp to sit out the remainder of the war. Undaunted, the prisoners plan one of the most ambitious escape attempts of World War II. Based on a true story.", "poster_path": "/qhy4HgUqhEbwQ1ekKTv7yEB3b0e.jpg", "release_date": "1963-06-20", "title": "The Great Escape", "video": false, "vote_average": 8.0, "vote_count": 1359, "popularity": 19.093}], "total_pages": 182, "total_results": 3632}, "recommendations": {"page": 1, "results": [{"adult": false, "backdrop_path": "/f5Pm5Et4ekpYxb7OcqZhNm46INN.jpg", "genre_ids": [99], "id": 416122, "original_language": "en", "original_title": "At All Costs", "overview": "At All Costs is a documentary set in the world of elite youth grassroots basketball that explores how the AAU system has professionalized youth basketball in America. We follow highly recruited 'blue chip' prospects, their families, and their teams as they navigate the shaky terrain of the AAU circuit in pursuit of their dreams.", "poster_path": "/y9P6vjazoiBX6pRQO0TczLhDaGk.jpg", "release_date": "2016-09-30", "title": "At All Costs", "video": false, "vote_average": 7.0, "vote_count": 7, "popularity": 1.656}, {"adult": false, "backdrop_path": "/7SsA6Ac1Fx7IswJ3cKMm7n0naoT.jpg", "genre_ids": [99], "id": 444526, "original_language": "en", "original_title": "Rock and a Hard Place", "overview": "A look at the Miami-Dade County Corrections and Rehabilitation Boot Camp Program, which allows young inmates undergo a strict six-week course in order to learn from their past mistakes and make a better future for themselves.", "poster_path": "/xM40r6PbzaumRyJyuxrtSvwtfAF.jpg", "release_date": "2017-03-27", "title": "Rock and a Hard Place", "video": false, "vote_average": 6.7, "vote_count": 15, "popularity": 4.297}, {"adult": false, "backdrop_path": null, "genre_ids": [], "id": 247097, "original_language": "en", "original_title": "Adjust Your Color: The Truth of Petey Greene", "overview": "Actor Don Cheadle narrates the story of America's first shock-jock, Washington D.C. radio personality Ralph \"Petey\" Greene.", "poster_path": "/2PPzvcEbFQRgeq7xUaAkMA1vMeW.jpg", "release_date": "2008-01-01", "title": "Adjust Your Color: The Truth of Petey Greene", "video": false, "vote_average": 8.0, "vote_count": 3, "popularity": 1.041}, {"adult": false, "backdrop_path": "/sSAUbHOKIfqP37pCdwugvtos5Mn.jpg", "genre_ids": [99], "id": 93103, "original_language": "en", "original_title": "The Last Gladiators", "overview": "Exploring the rough and tumble world of hockey, Academy Award winner Alex Gibney (\"Taxi to the Dark Side\") looks at the world of the NHL enforcers and specifically the career of Chris \"Knuckles\" Nilan who helped the Montreal Canadiens win the Stanley Cup.", "poster_path": "/lDBJVhU2JKEwfin2qV62YVmDu46.jpg", "release_date": "2012-04-22", "title": "The Last Gladiators", "video": false, "vote_average": 6.4, "vote_count": 16, "popularity": 3.411}, {"id": 257026, "video": false, "vote_count": 9, "vote_average": 7.9, "title": "The Irish Pub", "release_date": "2013-10-04", "original_language": "en", "original_title": "The Irish Pub", "genre_ids": [99], "backdrop_path": "/21qnnhyqHsBhYjdUdByYhIQ20ml.jpg", "adult": false, "overview": "The tradition of the Irish pub. Speaking to pub owners all over Ireland, Alex Fegan gets into the heart of what makes \"the Irish pub\" the institution that it is.", "poster_path": "/sLIFeYNDpNvKpBNYQFqGX8YzV1Y.jpg", "popularity": 1.794}, {"adult": false, "backdrop_path": "/wppydAARkGTkerU55O5BpmkkGKb.jpg", "genre_ids": [], "id": 452667, "original_language": "en", "original_title": "Feel Rich: Health Is the New Wealth", "overview": "FEEL RICH: HEALTH IS THE NEW WEALTH documents the nascent self-love revolution emerging in urban communities. Narrated by Quincy Jones III, the film features interviews with iconic artists, producers, urban farmers and meditators who have made dramatic changes in their lives by opening themselves up to new ideas about what it means to be rich. Our audience will embark on a journey led by Common, The Game, Crystal Wall, Paul Wall, Fat Joe, Russell Simmons, Stic.Man, Afya Ibomu, Jermaine Dupri, Slim Thug, Styles P and the legendary Quincy Jones that provides unique context to the global health crisis in urban communities by offering a backstage pass into the hearts and minds of the hip hop elite.", "poster_path": "/3oMbtvGC8nchInL2Mu7cHOj2ZV3.jpg", "release_date": "2017-05-23", "title": "Feel Rich: Health Is the New Wealth", "video": false, "vote_average": 6.3, "vote_count": 6, "popularity": 1.781}, {"id": 174688, "video": false, "vote_count": 11, "vote_average": 7.1, "title": "The Trials of Muhammad Ali", "release_date": "2013-08-23", "original_language": "en", "original_title": "The Trials of Muhammad Ali", "genre_ids": [99], "backdrop_path": "/1k1HBLVct1GpBx388zSPVs0Rc60.jpg", "adult": false, "overview": "Brash boxer Cassius Clay burst into the American consciousness in the early 1960s, just ahead of the Civil Rights movement. His transformation into the spiritually enlightened heavyweight champion Muhammad Ali is legendary, but this religious awakening also led to a bitter legal battle with the U.S. government after he refused to serve in the Vietnam War. This film reveals the perfect storm of race, religion and politics that shaped one of the most recognizable figures in sports history.", "poster_path": "/jXfedOxmyUq5Z8Zb1oZLVZiouIu.jpg", "popularity": 3.882}], "total_pages": 1, "total_results": 7}, "credits": {"cast": [{"cast_id": 0, "character": "Narrator (voice)", "credit_id": "578883ab9251410fbb003bbd", "gender": 2, "id": 1269, "name": "Kevin Costner", "order": 1, "profile_path": "/ePo87kGyyY8JZ3z7Zm7Z2GYdmJ8.jpg"}, {"cast_id": 1, "character": "Himself", "credit_id": "5788846fc3a3683329003a03", "gender": 2, "id": 89402, "name": "Bas Rutten", "order": 2, "profile_path": "/zP3CzVPJiGmkGSxiMYQeXmpV6lM.jpg"}, {"cast_id": 2, "character": "Himself", "credit_id": "5788847c925141221e0013e7", "gender": 2, "id": 74750, "name": "Georges St-Pierre", "order": 3, "profile_path": "/cLKmwSAzbHv8b4dRdlCca3WOPMw.jpg"}, {"cast_id": 3, "character": "Himself", "credit_id": "57888487c3a36873880013db", "gender": 2, "id": 78892, "name": "Chuck Liddell", "order": 4, "profile_path": "/b25J1y0cgHcemktz3bgtRlOUZMp.jpg"}, {"cast_id": 4, "character": "Himself", "credit_id": "5788849a9251410fbb003c38", "gender": 0, "id": 83522, "name": "Tito Ortiz", "order": 5, "profile_path": "/vjH5OVaRaJkVN7yK3vNUabufqDb.jpg"}, {"cast_id": 5, "character": "Himself", "credit_id": "578884a9c3a36873c30012a7", "gender": 0, "id": 83498, "name": "Kenny Florian", "order": 6, "profile_path": "/uqKVdPo8WEIbdNEfBOVehLu48UL.jpg"}, {"cast_id": 6, "character": "Himself", "credit_id": "578885bec3a36873050011c6", "gender": 2, "id": 78510, "name": "Urijah Faber", "order": 7, "profile_path": "/aoFhcJIFwMuXYCSAsZGRNiJXMtz.jpg"}, {"cast_id": 7, "character": "Himself", "credit_id": "578885cec3a3687406001466", "gender": 0, "id": 1451393, "name": "Bruce Buffer", "order": 8, "profile_path": "/wbZmXOeM9GSWnVNjbQLf1vWjlqC.jpg"}, {"cast_id": 8, "character": "Himself", "credit_id": "578885da92514138d0003312", "gender": 2, "id": 81978, "name": "Ken Shamrock", "order": 9, "profile_path": "/lGEZ2nqK4VFN9KFKlwEsnEgbC8C.jpg"}, {"cast_id": 9, "character": "Himself", "credit_id": "578885edc3a3687406001472", "gender": 2, "id": 113521, "name": "Jon Jones", "order": 10, "profile_path": "/gsbdegs4UX6RjuAxP2gRmDztuVj.jpg"}, {"cast_id": 10, "character": "Himself", "credit_id": "578885fbc3a3683919005e70", "gender": 2, "id": 78809, "name": "Rashad Evans", "order": 11, "profile_path": "/fx00k6N013HaHVvLuhJCK6eyCcw.jpg"}, {"cast_id": 11, "character": "Himself", "credit_id": "5788861f925141221e0014a2", "gender": 0, "id": 1138377, "name": "'Big' John McCarthy", "order": 12, "profile_path": null}, {"cast_id": 12, "character": "Himself", "credit_id": "5788862ac3a3683919005e83", "gender": 0, "id": 1650622, "name": "Mike Guymon", "order": 13, "profile_path": null}], "crew": [{"credit_id": "57888727c3a36839300053a0", "department": "Production", "gender": 2, "id": 46430, "job": "Executive Producer", "name": "Jim Czarnecki", "profile_path": null}, {"credit_id": "57888642c3a3683919005e94", "department": "Directing", "gender": 2, "id": 131791, "job": "Director", "name": "Vlad Yudin", "profile_path": null}, {"credit_id": "578887459251410fbb003d42", "department": "Production", "gender": 2, "id": 131791, "job": "Producer", "name": "Vlad Yudin", "profile_path": null}, {"credit_id": "578889edc3a36832e400428f", "department": "Production", "gender": 2, "id": 461363, "job": "Researcher", "name": "Daniel Gold", "profile_path": null}, {"credit_id": "578889499251412212001427", "department": "Crew", "gender": 0, "id": 1124626, "job": "Second Unit Cinematographer", "name": "Hilarion Banks", "profile_path": null}, {"credit_id": "57888986c3a3683329003c26", "department": "Camera", "gender": 0, "id": 1509178, "job": "Camera Operator", "name": "Marco Vitale", "profile_path": null}, {"credit_id": "57888774c3a3683919005f2f", "department": "Editing", "gender": 0, "id": 1511480, "job": "Editor", "name": "Matthew Adams", "profile_path": null}, {"credit_id": "5788888b92514131bd0055db", "department": "Production", "gender": 0, "id": 1511482, "job": "Production Manager", "name": "Patrick Solomon", "profile_path": null}, {"credit_id": "5788889cc3a368738800157c", "department": "Crew", "gender": 0, "id": 1511482, "job": "Second Unit", "name": "Patrick Solomon", "profile_path": null}, {"credit_id": "57888739c3a3683329003b22", "department": "Production", "gender": 0, "id": 1511483, "job": "Producer", "name": "Edwin Mejia", "profile_path": null}, {"credit_id": "57c58fe8c3a36815bf003450", "department": "Camera", "gender": 0, "id": 1650623, "job": "Director of Photography", "name": "Eliana \u00c1lvarez Mart\u00ednez", "profile_path": null}, {"credit_id": "5788877ec3a368730500128a", "department": "Production", "gender": 0, "id": 1650624, "job": "Casting", "name": "Ilan Katz", "profile_path": null}, {"credit_id": "578887a19251412246001311", "department": "Production", "gender": 0, "id": 1650624, "job": "Production Manager", "name": "Ilan Katz", "profile_path": null}, {"credit_id": "57888790c3a3683919005f42", "department": "Crew", "gender": 0, "id": 1650625, "job": "Post Production Supervisor", "name": "Jason Hofherr", "profile_path": null}, {"credit_id": "578889b792514121e0001399", "department": "Editing", "gender": 0, "id": 1650625, "job": "Additional Editing", "name": "Jason Hofherr", "profile_path": null}, {"credit_id": "57888912c3a3683930005450", "department": "Sound", "gender": 0, "id": 1650631, "job": "Sound Mixer", "name": "Nikola Chapelle", "profile_path": null}, {"credit_id": "57888923c3a36832e400421e", "department": "Sound", "gender": 0, "id": 1650631, "job": "Supervising Sound Editor", "name": "Nikola Chapelle", "profile_path": null}, {"credit_id": "57888935c3a3683919006054", "department": "Sound", "gender": 0, "id": 1650632, "job": "Sound Mixer", "name": "Emmanuel Germond", "profile_path": null}, {"credit_id": "57c590c6c3a36815bd0031c2", "department": "Camera", "gender": 0, "id": 1650633, "job": "Additional Photography", "name": "Vlad Horodinca", "profile_path": null}, {"credit_id": "5788897a92514138d000349b", "department": "Camera", "gender": 0, "id": 1650634, "job": "Camera Operator", "name": "Kristin Mendez", "profile_path": null}, {"credit_id": "57c590a7c3a36815c30030a6", "department": "Crew", "gender": 2, "id": 1650636, "job": "Set Production Assistant", "name": "Brandon Scott Jensen", "profile_path": null}]}}