{"adult": false, "backdrop_path": "/wfQUc1ap63k28PbDVi6OeaLaIRg.jpg", "belongs_to_collection": null, "budget": 0, "genres": [{"id": 35, "name": "Comedy"}], "homepage": null, "id": 40721, "imdb_id": "tt0064606", "original_language": "en", "original_title": "The Love God?", "overview": "Abner Peacock's (Knotts) beloved bird-watcher's magazine, \"The Peacock,\" is in financial crisis. Desperate to stay afloat, Abner takes on new partners who have an agenda of the own: to publish a sexy gentleman's magazine. Before he can stop them, the first issue sells over 40 million copies, and Abner becomes the unwilling spokesman for First Amendment rights. Swept up in adulation, the unwitting playboy quickly begins settling into the swinging bachelor lifestyle in this quirky comedy featuring the loveable actor at his best.", "popularity": 5.37, "poster_path": "/iyUm0c7HTuldPV5lIJ2YxgM4NJC.jpg", "production_companies": [{"id": 33, "logo_path": "/8lvHyhjr8oUKOOy2dKXoALWKdp0.png", "name": "Universal Pictures", "origin_country": "US"}], "production_countries": [{"iso_3166_1": "US", "name": "United States of America"}], "release_date": "1969-08-01", "revenue": 0, "runtime": 101, "spoken_languages": [{"iso_639_1": "en", "name": "English"}], "status": "Released", "tagline": "So many women... Not enough man.", "title": "The Love God?", "video": false, "vote_average": 7.2, "vote_count": 9, "keywords": {"keywords": [{"id": 4620, "name": "magazine"}, {"id": 9639, "name": "playboy"}, {"id": 18007, "name": "birdwatching"}]}, "similar": {"page": 1, "results": [{"adult": false, "backdrop_path": "/mrvlpJFAzKwZZkLm9VD7Rh2VECi.jpg", "genre_ids": [12, 35, 18, 14], "id": 116745, "original_language": "en", "original_title": "The Secret Life of Walter Mitty", "overview": "A timid magazine photo manager who lives life vicariously through daydreams embarks on a true-life adventure when a negative goes missing.", "poster_path": "/b0nIj7dr2bcLAn3erYhql7f6aUm.jpg", "release_date": "2013-12-18", "title": "The Secret Life of Walter Mitty", "video": false, "vote_average": 7.1, "vote_count": 5240, "popularity": 21.799}, {"id": 9738, "video": false, "vote_count": 6166, "vote_average": 5.7, "title": "Fantastic Four", "release_date": "2005-06-29", "original_language": "en", "original_title": "Fantastic Four", "genre_ids": [28, 12, 14, 878], "backdrop_path": "/6RaH2Znu7dUQq7c8surf7hRp44f.jpg", "adult": false, "overview": "During a space voyage, four scientists are altered by cosmic rays: Reed Richards gains the ability to stretch his body; Sue Storm can become invisible; Johnny Storm controls fire; and Ben Grimm is turned into a super-strong \u2026 thing. Together, these \"Fantastic Four\" must now thwart the evil plans of Dr. Doom and save the world from certain destruction.", "poster_path": "/sYNOCHiWA9UDUHlPvRWztSo5hZV.jpg", "popularity": 24.557}, {"id": 40805, "video": false, "vote_count": 2083, "vote_average": 5.5, "title": "The Green Hornet", "release_date": "2011-01-12", "original_language": "en", "original_title": "The Green Hornet", "genre_ids": [28, 35, 80], "backdrop_path": "/obqNqj4tBoUkWzufsMLmDABFLEL.jpg", "adult": false, "overview": "Britt Reid (Seth Rogen), the heir to the largest newspaper fortune in Los Angeles, is a spoiled playboy who has been, thus far, happy to lead an aimless life. After his father (Tom Wilkinson) dies, Britt meets Kato (Jay Chou), a resourceful company employee. Realizing that they have the talent and resources to make something of their lives, Britt and Kato join forces as costumed crime-fighters to bring down the city's most-powerful criminal, Chudnofsky (Christoph Waltz).", "poster_path": "/hZvTFnyqiTiQDO1FRsQvwhFNg3G.jpg", "popularity": 16.463}, {"adult": false, "backdrop_path": "/d2pbvJkNAunv2NI7RYU1ejqZN7Z.jpg", "genre_ids": [10749, 35], "id": 12620, "original_language": "en", "original_title": "The House Bunny", "overview": "Shelley is living a carefree life until a rival gets her tossed out of the Playboy Mansion. With nowhere to go, fate delivers her to the sorority girls from Zeta Alpha Zeta. Unless they can sign a new pledge class, the seven socially clueless women will lose their house to the scheming girls of Phi Iota Mu. In order to accomplish their goal, they need Shelley to teach them the ways of makeup and men; at the same time, Shelley needs some of what the Zetas have - a sense of individuality. The combination leads all the girls to learn how to stop pretending and start being themselves.", "poster_path": "/r4QlWdvduWGJdiGlYiwIsDC1kPu.jpg", "release_date": "2008-08-22", "title": "The House Bunny", "video": false, "vote_average": 5.6, "vote_count": 1226, "popularity": 16.043}, {"id": 10720, "video": false, "vote_count": 409, "vote_average": 6.1, "title": "Down with Love", "release_date": "2003-05-08", "original_language": "en", "original_title": "Down with Love", "genre_ids": [35, 10749], "backdrop_path": "/tvEiY3ThhXeGH8F2UmUJEAgL6Ey.jpg", "adult": false, "overview": "In 1962 New York City, love blossoms between a playboy journalist and a feminist advice author.", "poster_path": "/x045RokNPRTxi4KOFiLVGAKtWkb.jpg", "popularity": 13.893}, {"id": 9599, "video": false, "vote_count": 377, "vote_average": 6.4, "title": "The Blob", "release_date": "1988-08-05", "original_language": "en", "original_title": "The Blob", "genre_ids": [27, 878], "backdrop_path": "/vOsSAb5oTeH2ubpIMjMhKSZwTxe.jpg", "adult": false, "overview": "Remake of the 1958 horror sci-fi about a deadly blob which is the spawn of a secret government germ warfare project which consumes everyone in its path. Teenagers try in vain to warn the townsfolk, who refuse to take them seriously, while government agents try to cover up the evidence and confine the creature.", "poster_path": "/hUZXLtqL0In7F6IXEQHapkqXa0G.jpg", "popularity": 14.452}, {"id": 73937, "video": false, "vote_count": 442, "vote_average": 5.8, "title": "The Big Year", "release_date": "2011-10-13", "original_language": "en", "original_title": "The Big Year", "genre_ids": [35], "backdrop_path": "/mP8q3nQIWPsj3NEQs8PKssvwPSk.jpg", "adult": false, "overview": "Three fanatical bird-watchers spend an entire year competing to spot the highest number of species as El Nino sends an extraordinary variety of rare breeds flying up into the U.S., but they quickly discover that there are more important things than coming out on top of the competition", "poster_path": "/kBnR6jbFRnbSQTqLEcDpKd7FxK5.jpg", "popularity": 9.189}, {"id": 13092, "video": false, "vote_count": 445, "vote_average": 6.1, "title": "How to Lose Friends & Alienate People", "release_date": "2008-10-02", "original_language": "en", "original_title": "How to Lose Friends & Alienate People", "genre_ids": [35, 18, 10749], "backdrop_path": "/rQ7qMylqniree8x0F38ldaF3uGF.jpg", "adult": false, "overview": "A British writer struggles to fit in at a high-profile magazine in New York.", "poster_path": "/gIqp469K4w7158Zg0VqNdfo3qDk.jpg", "popularity": 14.138}, {"id": 6620, "video": false, "vote_count": 646, "vote_average": 7.6, "title": "Sabrina", "release_date": "1954-09-28", "original_language": "en", "original_title": "Sabrina", "genre_ids": [35, 18, 10749], "backdrop_path": "/nd7qPxPBVgqlixRXgjIHiOafNBf.jpg", "adult": false, "overview": "Linus and David Larrabee are the two sons of a very wealthy family. Linus is all work -- busily running the family corporate empire, he has no time for a wife and family. David is all play -- technically he is employed by the family business, but never shows up for work, spends all his time entertaining, and has been married and divorced three times. Meanwhile, Sabrina Fairchild is the young, shy, and awkward daughter of the household chauffeur, who has been infatuated with David all her life, but David hardly notices her -- \"doesn't even know I exist\" -- until she goes away to Paris for two years, and returns an elegant, sophisticated, beautiful woman. Suddenly, she finds that she has captured David's attention, but just as she does so, she finds herself falling in love with Linus, and she finds that Linus is also falling in love with her.", "poster_path": "/8vvgKw3DbEPNlJAdHe7xXzhb2gN.jpg", "popularity": 12.396}, {"id": 13320, "video": false, "vote_count": 356, "vote_average": 7.1, "title": "Funny Face", "release_date": "1957-02-13", "original_language": "en", "original_title": "Funny Face", "genre_ids": [35, 10402, 10749], "backdrop_path": "/z75LQagZPdIaS1qf6iwmtfAljTR.jpg", "adult": false, "overview": "A shy Greenwich Village book clerk is discovered by a fashion photographer and whisked off to Paris where she becomes a reluctant model.", "poster_path": "/1CW8Wn2itBQ7wACBQHpOyIbPpmD.jpg", "popularity": 13.698}, {"id": 15598, "video": false, "vote_count": 106, "vote_average": 6.6, "title": "Alfie", "release_date": "1966-03-29", "original_language": "en", "original_title": "Alfie", "genre_ids": [35, 18, 10749], "backdrop_path": "/gAGHThIUR14STHsyqV8eeOcFUor.jpg", "adult": false, "overview": "The film tells the story of a young man who leads a promiscuous lifestyle until several life reversals make him rethink his purposes and goals in life.", "poster_path": "/79m6E06eSRNxeEJpcYKb6BvntSE.jpg", "popularity": 9.78}, {"adult": false, "backdrop_path": "/rpJ3N3NuIHrk7Z6xSu4k1dkyT8H.jpg", "genre_ids": [35, 10749], "id": 63492, "original_language": "en", "original_title": "What's Your Number?", "overview": "Ally Darling (Anna Faris) is realizing she's a little lost in life. Her latest romance has just fizzled out, and she's just been fired from her marketing job. Then she reads an eye-opening magazine article that warns that 96 percent of women who've been with 20 or more lovers are unlikely to find a husband. Determined to turn her life around and prove the article wrong, Ally embarks on a mission to find the perfect mate from among her numerous ex-boyfriends.", "poster_path": "/yugpF7km9nEE5GLpSWMSkGKHGNd.jpg", "release_date": "2011-09-30", "title": "What's Your Number?", "video": false, "vote_average": 6.4, "vote_count": 1400, "popularity": 10.079}, {"id": 45658, "video": false, "vote_count": 329, "vote_average": 6.1, "title": "Everything Must Go", "release_date": "2011-05-13", "original_language": "en", "original_title": "Everything Must Go", "genre_ids": [35, 18, 10749], "backdrop_path": "/azqdlJvqTk0z1SiWNVsFsNZX7ma.jpg", "adult": false, "overview": "When an alcoholic relapses, causing him to lose his wife and his job, he holds a yard sale on his front lawn in an attempt to start over. A new neighbor might be the key to his return to form.", "poster_path": "/8gUWukFYhc8mYtLB1uiXpUjUxBD.jpg", "popularity": 9.988}, {"adult": false, "backdrop_path": "/rlMqMR75CPt2resscxshpau0vKL.jpg", "genre_ids": [35, 18, 10749], "id": 18299, "original_language": "en", "original_title": "Love in the Afternoon", "overview": "Lovestruck conservatory student Ariane pretends to be just as much a cosmopolitan lover as the worldly mature Frank Flannagan hoping that l\u2019amour will take hold.", "poster_path": "/szqbwEUt3TVWKLrQBiZiwR98Zi5.jpg", "release_date": "1957-06-30", "title": "Love in the Afternoon", "video": false, "vote_average": 7.2, "vote_count": 127, "popularity": 10.444}, {"id": 17281, "video": false, "vote_count": 146, "vote_average": 6.4, "title": "Gigi", "release_date": "1958-04-15", "original_language": "en", "original_title": "Gigi", "genre_ids": [35, 10402, 10749], "backdrop_path": "/52UZWu9S0wL2HYZmvoi5DcOOYiB.jpg", "adult": false, "overview": "A home, a motorcar, servants, the latest fashions: the most eligible and most finicky bachelor in Paris offers them all to Gigi. But she, who's gone from girlish gawkishness to cultured glamour before our eyes, yearns for that wonderful something money can't buy.", "poster_path": "/1TEeqGYW08HJoZOcEEWKTq7lGe8.jpg", "popularity": 9.931}, {"adult": false, "backdrop_path": "/gXDOdcEPi2FxCOTA1hwZTmF0Hv7.jpg", "genre_ids": [35], "id": 8849, "original_language": "en", "original_title": "Alfie", "overview": "In Manhattan, the British limousine driver Alfie is surrounded by beautiful women, having one night stands with all of them and without any sort of commitment. His best friends are his colleague Marlon and his girl-friend Lonette. Alfie has a brief affair with Lonette, and the consequences of his act forces Alfie to reflect over his lifestyle.", "poster_path": "/dvKvkoc2d06cOSheq5hQ7G4FJJX.jpg", "release_date": "2004-10-22", "title": "Alfie", "video": false, "vote_average": 5.7, "vote_count": 496, "popularity": 12.01}, {"id": 351964, "video": false, "vote_count": 233, "vote_average": 6.0, "title": "The Escort", "release_date": "2016-06-15", "original_language": "en", "original_title": "The Escort", "genre_ids": [35, 18, 10749], "backdrop_path": "/yi2yzQE3HAm5B1JjesDHeYep750.jpg", "adult": false, "overview": "Desperate for a good story, a sex-addicted journalist throws himself into the world of high-class escorts when he starts following a Stanford-educated prostitute.", "poster_path": "/o6lUrVp77mBSb5qA8FdBheeqUjG.jpg", "popularity": 11.855}, {"id": 300153, "video": false, "vote_count": 223, "vote_average": 6.1, "title": "Life", "release_date": "2015-07-24", "original_language": "en", "original_title": "Life", "genre_ids": [18], "backdrop_path": "/l4pEQdGFg6U8buCG9rS52tU8sTF.jpg", "adult": false, "overview": "In 1955, young photographer Dennis Stock develops a close bond with actor James Dean while shooting pictures of the rising Hollywood star.", "poster_path": "/7nsOhiu4LdncxCxP1lOlgpm3ke5.jpg", "popularity": 8.433}, {"adult": false, "backdrop_path": "/mlUgQSSGV6Ba0Fiid0YZiqiaFmv.jpg", "genre_ids": [35, 10749], "id": 19556, "original_language": "en", "original_title": "Miss March", "overview": "A young man awakens from a four-year coma to hear that his once virginal high-school sweetheart has since become a centerfold in one of the world's most famous men's magazines. He and his sex-crazed best friend decide to take a cross-country road trip in order to crash a party at the magazine's legendary mansion headquarters and win back the girl.", "poster_path": "/i3381ozTbiPgcO6qfs3I6KIdEg4.jpg", "release_date": "2009-03-13", "title": "Miss March", "video": false, "vote_average": 5.3, "vote_count": 180, "popularity": 13.521}, {"id": 53021, "video": false, "vote_count": 78, "vote_average": 7.2, "title": "Kiss Me, Stupid", "release_date": "1964-12-22", "original_language": "en", "original_title": "Kiss Me, Stupid", "genre_ids": [35, 10749], "backdrop_path": "/cPQijLSIXcNXVCf4XsU6hSDqsfq.jpg", "adult": false, "overview": "While traveling home from Vegas, an amorous lounge singer named Dino gets conned by a local mechanic/songwriter into staying in town for the night. The mechanic's songwriting partner, Orville, offers Dino his home for overnight lodging and enlists a local waitress/call girl to pose as his wife in order to placate Dino's urges.", "poster_path": "/sbMILWDfzwQI8ZBIn42zGNU4xqg.jpg", "popularity": 8.41}], "total_pages": 7, "total_results": 131}, "recommendations": {"page": 1, "results": [{"adult": false, "backdrop_path": "/mLvZVxMFlNMPaHM6Z4mqi0lkPUn.jpg", "genre_ids": [35], "id": 42243, "original_language": "en", "original_title": "The Bingo Long Traveling All-Stars & Motor Kings", "overview": "Tired of the slave-like treatment of his team's owner, charismatic star Negro League pitcher Bingo Long takes to the road with his band of barnstormers through the small towns of the Midwest in the 1930's.", "poster_path": "/7kvjllELG8AGLifc433GhLzShj0.jpg", "release_date": "1976-07-16", "title": "The Bingo Long Traveling All-Stars & Motor Kings", "video": false, "vote_average": 6.2, "vote_count": 12, "popularity": 4.196}, {"adult": false, "backdrop_path": "/r6qtFuO6hYIUK9iYktKsyqI0BFp.jpg", "genre_ids": [], "id": 68951, "original_language": "en", "original_title": "The Shakedown", "overview": "Augie comes out of prison and finds his old vice racket has been taken over by the sinister Harry H Corbett (Gollar). So he dreams up a new scam", "poster_path": "/q5ojuPb9zTE6k3HTfe1uci7KGAX.jpg", "release_date": "1960-01-01", "title": "The Shakedown", "video": false, "vote_average": 6.0, "vote_count": 3, "popularity": 2.755}], "total_pages": 1, "total_results": 2}, "credits": {"cast": [{"cast_id": 2, "character": "Abner Audubon Peacock IV", "credit_id": "52fe45a0c3a36847f80d1855", "gender": 2, "id": 27726, "name": "Don Knotts", "order": 0, "profile_path": "/qMqpOuJj69ozHCViUZSiFvgggva.jpg"}, {"cast_id": 4, "character": "Lisa LaMonica", "credit_id": "52fe45a0c3a36847f80d185f", "gender": 1, "id": 12309, "name": "Anne Francis", "order": 1, "profile_path": "/f6JaUHF5ByqIqc0EpCJpqkKVGgg.jpg"}, {"cast_id": 5, "character": "Osborn Tremaine", "credit_id": "52fe45a0c3a36847f80d1863", "gender": 2, "id": 8254, "name": "Edmond O'Brien", "order": 2, "profile_path": "/6qHu8P9ZEJ8zm7TCCvZmyrBx83T.jpg"}, {"cast_id": 6, "character": "Evelyn Tremaine", "credit_id": "52fe45a0c3a36847f80d1867", "gender": 0, "id": 131566, "name": "Maureen Arthur", "order": 3, "profile_path": "/e2LIwIpFlBlL13hoFOHxgLhUpuc.jpg"}, {"cast_id": 8, "character": "Darrell Evans Hughes", "credit_id": "5ac74363c3a36834d4025063", "gender": 2, "id": 14732, "name": "James Gregory", "order": 4, "profile_path": "/xOpEhGx9Qupfdfo3KUaA0DHxbko.jpg"}, {"cast_id": 9, "character": "Rose Ellen Wilkerson", "credit_id": "5ac743b60e0a26496b0266aa", "gender": 0, "id": 1213219, "name": "Maggie Peterson", "order": 5, "profile_path": null}, {"cast_id": 10, "character": "Miss Love", "credit_id": "5ac743c4c3a36834ce021a1b", "gender": 1, "id": 85846, "name": "Jesslyn Fax", "order": 6, "profile_path": "/k2YtSWCxe1rDHtARNW2K4Z3ZBOH.jpg"}, {"cast_id": 11, "character": "Carter Fenton", "credit_id": "5ac743d50e0a26496b0266c9", "gender": 2, "id": 84559, "name": "Jacques Aubuchon", "order": 7, "profile_path": "/7vKeCp5xh4F9Kc6gc4AIpT7QvUL.jpg"}, {"cast_id": 12, "character": "Miss Pickering", "credit_id": "5ac743e5c3a36834d40250fa", "gender": 1, "id": 97257, "name": "Marjorie Bennett", "order": 8, "profile_path": "/cyY0ltPueaqENXEBnd0KWE5VHRd.jpg"}, {"cast_id": 13, "character": "Amos Peacock", "credit_id": "5ac743f592514162a4021e40", "gender": 2, "id": 151517, "name": "Jim Boles", "order": 9, "profile_path": null}, {"cast_id": 14, "character": "Miss Keezy", "credit_id": "5ac744030e0a26496e0245bb", "gender": 1, "id": 85833, "name": "Ruth McDevitt", "order": 10, "profile_path": "/4mPxaegx2KjdUbMS17Z7uRxuara.jpg"}, {"cast_id": 15, "character": "Joe Merkel", "credit_id": "5ac7441bc3a36834de021710", "gender": 2, "id": 162033, "name": "Roy Stuart", "order": 11, "profile_path": null}, {"cast_id": 16, "character": "Atty. General Frederick Snow", "credit_id": "5ac7442fc3a36834d0022932", "gender": 2, "id": 85836, "name": "Herb Voland", "order": 12, "profile_path": null}, {"cast_id": 17, "character": "Rev. Wilkerson", "credit_id": "5ac74442c3a36834e8025acc", "gender": 2, "id": 9866, "name": "James Westerfield", "order": 13, "profile_path": "/s8Ian9N1Y5VVvB8C8OchOoQzRwk.jpg"}, {"cast_id": 18, "character": "Shrader", "credit_id": "5ac74454c3a36834e8025ae2", "gender": 2, "id": 34973, "name": "Bob Hastings", "order": 14, "profile_path": "/lk4qgDtuM5XqDbXLBQTyfpC6qiY.jpg"}, {"cast_id": 19, "character": "Rich", "credit_id": "5ac744670e0a264974023d80", "gender": 2, "id": 157303, "name": "Larry McCormick", "order": 15, "profile_path": "/12mmY3wVA0v7wlifrYhTXQho7l9.jpg"}, {"cast_id": 20, "character": "Rayfield", "credit_id": "5ac744740e0a264971022b36", "gender": 0, "id": 1104977, "name": "Robert P. Lieb", "order": 16, "profile_path": "/b8YDddtjitgqGzGyYRZz4S6uME2.jpg"}, {"cast_id": 21, "character": "Judge Jeremiah Claypool", "credit_id": "5ac7448692514162ab023433", "gender": 2, "id": 83149, "name": "Willis Bouchey", "order": 17, "profile_path": "/g0senkqHarzlxMl0MT68bTNdMpy.jpg"}, {"cast_id": 22, "character": "Lester Timkin", "credit_id": "5ac744950e0a26496b0267c9", "gender": 2, "id": 153537, "name": "Herbie Faye", "order": 18, "profile_path": "/mZ6cKi9WjwdD3KpY7n5gQQ3iwTq.jpg"}, {"cast_id": 23, "character": "Petey", "credit_id": "5ac744a5c3a36834ce021baf", "gender": 2, "id": 4099, "name": "Johnny Seven", "order": 19, "profile_path": "/y0id6fVT5ydy4TzGDmAc9MdVRTZ.jpg"}, {"cast_id": 24, "character": "Big Joe", "credit_id": "5ac744b6c3a36834e2024ec1", "gender": 2, "id": 1214019, "name": "Joseph V. Perry", "order": 20, "profile_path": "/lVz29eAxU8BXYdHFSCe8E7nXqZD.jpg"}, {"cast_id": 25, "character": "Hotchkiss", "credit_id": "5ac744c2c3a36834d402522b", "gender": 2, "id": 164791, "name": "Jim Begg", "order": 21, "profile_path": null}, {"cast_id": 26, "character": "Erica Lane", "credit_id": "5ac744dbc3a36834ce021be2", "gender": 0, "id": 1213023, "name": "Carla Borelli", "order": 22, "profile_path": null}, {"cast_id": 27, "character": "J. Charles Twilight", "credit_id": "5ac745190e0a264971022be5", "gender": 2, "id": 1049305, "name": "B.S. Pully", "order": 23, "profile_path": "/kpVvlRC0eU1IiSSpFbckNsDgI7k.jpg"}, {"cast_id": 28, "character": "Club Patron (uncredited)", "credit_id": "5ac7456f92514162a801fe53", "gender": 2, "id": 1421073, "name": "Leon Alton", "order": 24, "profile_path": "/nAijK3a88g91iEtPSwgh1SCuA46.jpg"}, {"cast_id": 29, "character": "Minor Role (uncredited)", "credit_id": "5ac74580c3a36834d40252e1", "gender": 1, "id": 70834, "name": "Barbara Bosson", "order": 25, "profile_path": "/wQpFNiZZeCgtOpadeqmEW8lkFjL.jpg"}, {"cast_id": 30, "character": "Reporter (uncredited)", "credit_id": "5ac74593c3a36834e8025c4a", "gender": 2, "id": 120822, "name": "Frank Coghlan Jr.", "order": 26, "profile_path": "/3oXHUQDk3rpvWnJpWfWNDD5hesl.jpg"}, {"cast_id": 31, "character": "Barber (uncredited)", "credit_id": "5ac745a7c3a36834e2024fbf", "gender": 2, "id": 1174160, "name": "Frank Evans", "order": 27, "profile_path": null}, {"cast_id": 32, "character": "Jose - Jungle Guide (uncredited)", "credit_id": "5ac745cc0e0a26496702571e", "gender": 0, "id": 4305, "name": "Pedro Gonzalez Gonzalez", "order": 28, "profile_path": "/3TL3Kz9jzmtJ3Zz3ARC999hBgqt.jpg"}, {"cast_id": 33, "character": "Church Member (uncredited)", "credit_id": "5ac745dec3a36834d4025344", "gender": 0, "id": 1468520, "name": "James Gonzalez", "order": 29, "profile_path": null}, {"cast_id": 34, "character": "Minister (uncredited)", "credit_id": "5ac745efc3a36834d7026a30", "gender": 2, "id": 116565, "name": "Pitt Herbert", "order": 30, "profile_path": null}, {"cast_id": 35, "character": "Onlooker (uncredited)", "credit_id": "5ac746000e0a264967025785", "gender": 2, "id": 120795, "name": "George Holmes", "order": 31, "profile_path": "/jtEnWqIz81rRzxQTJVlTL4Nyhy4.jpg"}, {"cast_id": 36, "character": "Craig Frazier (uncredited)", "credit_id": "5ac746190e0a264971022cfb", "gender": 2, "id": 33230, "name": "John Hubbard", "order": 32, "profile_path": "/1wLeZETqU950FkJfYYSAy7AXynz.jpg"}, {"cast_id": 37, "character": "Church Member (uncredited)", "credit_id": "5ac74633c3a36834db022b6c", "gender": 2, "id": 1471682, "name": "Michael Jeffers", "order": 33, "profile_path": null}, {"cast_id": 38, "character": "Church Member (uncredited)", "credit_id": "5ac74648c3a36834d0022b69", "gender": 2, "id": 1130451, "name": "Kenner G. Kemp", "order": 34, "profile_path": "/mz41FbZ3IlzpcLBI0IxjS3Jr1lB.jpg"}, {"cast_id": 39, "character": "Family Member (uncredited)", "credit_id": "5ac746590e0a26497a024ba1", "gender": 1, "id": 92584, "name": "Elizabeth Kerr", "order": 35, "profile_path": "/kmjC4noBosgxhT1SYlFMPhNCDBB.jpg"}, {"cast_id": 40, "character": "Singer with The Blossoms (uncredited)", "credit_id": "5ac7466f0e0a264967025805", "gender": 1, "id": 14313, "name": "Darlene Love", "order": 36, "profile_path": "/bVfVgYhCi9P9QiL67T0eYb4tRAc.jpg"}, {"cast_id": 41, "character": "Reporter (uncredited)", "credit_id": "5ac746970e0a264971022db4", "gender": 2, "id": 1878356, "name": "James McHale", "order": 37, "profile_path": null}, {"cast_id": 42, "character": "Bird Caller (uncredited)", "credit_id": "5ac746a9c3a36834db022bf1", "gender": 2, "id": 44676, "name": "Dal McKennon", "order": 38, "profile_path": "/uL8UjbVwrKXGpMJ22nITyTSbHjU.jpg"}, {"cast_id": 43, "character": "Courtroom Spectator (uncredited)", "credit_id": "5ac746bc0e0a26496e0248f2", "gender": 2, "id": 161766, "name": "Ron Nyman", "order": 39, "profile_path": "/qCIaVZvadmNAA8dpSP7HvBoIzZe.jpg"}, {"cast_id": 44, "character": "Minor Role (uncredited)", "credit_id": "5ac746df92514162a202321e", "gender": 1, "id": 120797, "name": "Rita Quigley", "order": 40, "profile_path": "/2YxLAqI9eQss7rRgvWKsmENuDz6.jpg"}, {"cast_id": 45, "character": "Courtroom Spectator (uncredited)", "credit_id": "5ac746f192514162a801ffe4", "gender": 0, "id": 1581066, "name": "Jean Ransome", "order": 41, "profile_path": null}, {"cast_id": 46, "character": "Courtroom Spectator (uncredited)", "credit_id": "5ac747200e0a26496e024950", "gender": 1, "id": 1191818, "name": "Leoda Richards", "order": 42, "profile_path": "/l7DPTWCEIZFesnkg0c97M8GFSg0.jpg"}, {"cast_id": 47, "character": "Barber (uncredited)", "credit_id": "5ac7472fc3a36834d40254d7", "gender": 0, "id": 29364, "name": "Billy Sands", "order": 43, "profile_path": "/84td1kDXRVYhNqISra0ereyPHQy.jpg"}, {"cast_id": 48, "character": "Model (uncredited)", "credit_id": "5ac7473c0e0a26497a024d04", "gender": 1, "id": 165176, "name": "Diane Sayer", "order": 44, "profile_path": "/27wDQNyHF2xt09hkFgzDy4uQqrn.jpg"}, {"cast_id": 49, "character": "Boy Scout (uncredited)", "credit_id": "5ac7476d0e0a26496b026ad1", "gender": 2, "id": 124651, "name": "Christopher Shea", "order": 45, "profile_path": null}, {"cast_id": 50, "character": "Minor Role (uncredited)", "credit_id": "5ac7478092514162ab023794", "gender": 1, "id": 44800, "name": "Bunny Summers", "order": 46, "profile_path": "/dWZSpXT7nXMtjImxy6edFof48LG.jpg"}], "crew": [{"credit_id": "5ac7485092514162b70214b1", "department": "Costume & Make-Up", "gender": 1, "id": 3456, "job": "Costume Design", "name": "Helen Colvig", "profile_path": null}, {"credit_id": "5ac7482b0e0a26496b026ba7", "department": "Art", "gender": 2, "id": 8867, "job": "Set Decoration", "name": "Marvin March", "profile_path": null}, {"credit_id": "5ac7480a0e0a26496b026b89", "department": "Art", "gender": 2, "id": 12346, "job": "Art Direction", "name": "Alexander Golitzen", "profile_path": null}, {"credit_id": "5ac7486ec3a36834e802604f", "department": "Costume & Make-Up", "gender": 2, "id": 14495, "job": "Makeup Artist", "name": "Larry Germain", "profile_path": null}, {"credit_id": "5ac748810e0a26497a024e8d", "department": "Costume & Make-Up", "gender": 0, "id": 14498, "job": "Makeup Supervisor", "name": "Bud Westmore", "profile_path": null}, {"credit_id": "5ac747bdc3a36834de021b37", "department": "Production", "gender": 0, "id": 29364, "job": "Associate Producer", "name": "Billy Sands", "profile_path": "/84td1kDXRVYhNqISra0ereyPHQy.jpg"}, {"credit_id": "5ac747cac3a36834d0022d1d", "department": "Sound", "gender": 2, "id": 31052, "job": "Music", "name": "Vic Mizzy", "profile_path": null}, {"credit_id": "5ac747e192514162b4023c27", "department": "Crew", "gender": 0, "id": 115544, "job": "Cinematography", "name": "William Margulies", "profile_path": null}, {"credit_id": "5ac747af0e0a2649740240ea", "department": "Production", "gender": 2, "id": 116406, "job": "Producer", "name": "Edward Montagne", "profile_path": null}, {"credit_id": "5ac747f00e0a2649650254c5", "department": "Editing", "gender": 0, "id": 123629, "job": "Editor", "name": "Sam E. Waxman", "profile_path": null}, {"credit_id": "52fe45a0c3a36847f80d186d", "department": "Writing", "gender": 2, "id": 131565, "job": "Screenplay", "name": "Nat Hiken", "profile_path": null}, {"credit_id": "52fe45a0c3a36847f80d185b", "department": "Directing", "gender": 2, "id": 131565, "job": "Director", "name": "Nat Hiken", "profile_path": null}, {"credit_id": "5ac748420e0a26496e024ab4", "department": "Art", "gender": 2, "id": 1010740, "job": "Set Decoration", "name": "John McCarthy Jr.", "profile_path": null}, {"credit_id": "5ac7481992514162ae0235f2", "department": "Art", "gender": 0, "id": 1335591, "job": "Art Direction", "name": "George Patrick", "profile_path": null}]}}