{"adult": false, "backdrop_path": "/vTSgjWDLiwEQIdHsYN4bc9babYO.jpg", "belongs_to_collection": null, "budget": 0, "genres": [{"id": 99, "name": "Documentary"}], "homepage": null, "id": 407691, "imdb_id": "tt5652594", "original_language": "fr", "original_title": "Voyage \u00e0 travers le cin\u00e9ma fran\u00e7ais", "overview": "Filmmaker Bertrand Tavernier examines the great directors, actors, writers, composers and cinematographers of French cinema, including Jean Renoir, Jean-Luc Godard, Jean-Pierre Melville, Edmond T. Gr\u00e9ville and Guy Gilles.", "popularity": 1.983, "poster_path": "/9uYSsdcu8NT4WTIPyAnNUKCefKP.jpg", "production_companies": [{"id": 16772, "logo_path": null, "name": "Little Bear", "origin_country": ""}, {"id": 9, "logo_path": "/nda3dTUYdDrJ6rZqBpYvY865aDv.png", "name": "Gaumont", "origin_country": "FR"}, {"id": 7981, "logo_path": "/6Yv1gIAuGkHS5Vis4UjnqHhCPWV.png", "name": "Path\u00e9!", "origin_country": "FR"}], "production_countries": [{"iso_3166_1": "FR", "name": "France"}], "release_date": "2016-10-12", "revenue": 0, "runtime": 190, "spoken_languages": [{"iso_639_1": "fr", "name": "Fran\u00e7ais"}], "status": "Released", "tagline": "", "title": "My Journey Through French Cinema", "video": false, "vote_average": 7.2, "vote_count": 13, "keywords": {"keywords": [{"id": 1388, "name": "cinema"}]}, "similar": {"page": 1, "results": [{"adult": false, "backdrop_path": "/wTtIzcdccv4N5XQEwG2GZtT97nE.jpg", "genre_ids": [99], "id": 160, "original_language": "fr", "original_title": "L'arriv\u00e9e d'un train en gare de La Ciotat", "overview": "A group of people are standing along the platform of a railway station in La Ciotat, waiting for a train. One is seen coming, at some distance, and eventually stops at the platform. Doors of the railway-cars open and attendants help passengers off and on.  Popular legend has it that, when this film was shown, the first-night audience fled the caf\u00e9 in terror, fearing being run over by the \"approaching\" train. This legend has since been identified as promotional embellishment, though there is evidence to suggest that people were astounded at the capabilities of the Lumi\u00e8res' cin\u00e9matographe.", "poster_path": "/vfuk7jaMstvpFvZ02DBiBmMe3tL.jpg", "release_date": "1896-01-25", "title": "The Arrival of a Train at La Ciotat", "video": false, "vote_average": 7.0, "vote_count": 209, "popularity": 9.279}, {"adult": false, "backdrop_path": "/8pjSUKUdFmdwKQkFJXR3KxqSuuI.jpg", "genre_ids": [99], "id": 330127, "original_language": "en", "original_title": "Back in Time", "overview": "Cast, crew, and fans explore the \u201cBack to the Future\u201d time-travel trilogy's resonance throughout our culture 30 years after Marty McFly went back in time.", "poster_path": "/sI9CLYcD28w1LR1axUneIog8U0S.jpg", "release_date": "2015-10-20", "title": "Back in Time", "video": false, "vote_average": 6.5, "vote_count": 200, "popularity": 10.237}, {"adult": false, "backdrop_path": "/bhg1MGVy9gVVH6QlyUDRNxtHdpp.jpg", "genre_ids": [10402, 99], "id": 426410, "original_language": "en", "original_title": "Score: A Film Music Documentary", "overview": "Music is an integral part of most films, adding emotion and nuance while often remaining invisible to audiences. Matt Schrader shines a spotlight on the overlooked craft of film composing, gathering many of the art form\u2019s most influential practitioners, from Hans Zimmer and Danny Elfman to Quincy Jones and Randy Newman, to uncover their creative process. Tracing key developments in the evolution of music in film, and exploring some of cinema\u2019s most iconic soundtracks, 'Score' is an aural valentine for film lovers.", "poster_path": "/hlass0Pq1j6WD6JAucH3mXBoWo4.jpg", "release_date": "2017-03-16", "title": "Score: A Film Music Documentary", "video": false, "vote_average": 7.6, "vote_count": 51, "popularity": 10.45}, {"id": 16869, "video": false, "vote_count": 13525, "vote_average": 8.1, "title": "Inglourious Basterds", "release_date": "2009-08-18", "original_language": "en", "original_title": "Inglourious Basterds", "genre_ids": [28, 18, 53, 10752], "backdrop_path": "/50VD6QU0NX0aRB6ftKCVWun80bm.jpg", "adult": false, "overview": "In Nazi-occupied France during World War II, a group of Jewish-American soldiers known as \"The Basterds\" are chosen specifically to spread fear throughout the Third Reich by scalping and brutally killing Nazis. The Basterds, lead by Lt. Aldo Raine soon cross paths with a French-Jewish teenage girl who runs a movie theater in Paris which is targeted by the soldiers.", "poster_path": "/ai0LXkzVM3hMjDhvFdKMUemoBe.jpg", "popularity": 32.532}, {"adult": false, "backdrop_path": "/tVi83ttAeyMJinYpy6xfgJSpzvP.jpg", "genre_ids": [18, 10749], "id": 11216, "original_language": "it", "original_title": "Nuovo Cinema Paradiso", "overview": "A filmmaker recalls his childhood, when he fell in love with the movies at his village's theater and formed a deep friendship with the theater's projectionist.", "poster_path": "/hYzCLju3W74nLhhRXfPkwDi1Tun.jpg", "release_date": "1988-11-17", "title": "Cinema Paradiso", "video": false, "vote_average": 8.4, "vote_count": 2031, "popularity": 17.915}, {"adult": false, "backdrop_path": "/fJQ5kjLx4UdK05MC323Vlzwr6S8.jpg", "genre_ids": [35, 18, 36], "id": 140823, "original_language": "en", "original_title": "Saving Mr. Banks", "overview": "Author P.L. Travers travels from London to Hollywood as Walt Disney Pictures adapts her novel Mary Poppins for the big screen.", "poster_path": "/mvs3reS18RP6IhjLwwLeVtkoeg0.jpg", "release_date": "2013-11-16", "title": "Saving Mr. Banks", "video": false, "vote_average": 7.4, "vote_count": 2230, "popularity": 11.476}, {"adult": false, "backdrop_path": "/aWLIsFyLSX81Z0ORQQpxMFm1zFw.jpg", "genre_ids": [35], "id": 188222, "original_language": "en", "original_title": "Entourage", "overview": "Movie star Vincent Chase, together with his boys, Eric, Turtle and Johnny, are back\u2026and back in business with super agent-turned-studio head Ari Gold. Some of their ambitions have changed, but the bond between them remains strong as they navigate the capricious and often cutthroat world of Hollywood.", "poster_path": "/eXFOwg43NeZAv4BgXTlmdp7pzRG.jpg", "release_date": "2015-06-03", "title": "Entourage", "video": false, "vote_average": 6.2, "vote_count": 669, "popularity": 18.152}, {"id": 11322, "video": false, "vote_count": 2547, "vote_average": 6.6, "title": "Public Enemies", "release_date": "2009-07-01", "original_language": "en", "original_title": "Public Enemies", "genre_ids": [80, 18, 36], "backdrop_path": "/km9dZbnVEuFSCH8Qz4LEfw86vgX.jpg", "adult": false, "overview": "Depression-era bank robber John Dillinger's charm and audacity endear him to much of America's downtrodden public, but he's also a thorn in the side of J. Edgar Hoover and the fledgling FBI. Desperate to capture the elusive outlaw, Hoover makes Dillinger his first Public Enemy Number One and assigns his top agent, Melvin Purvis, the task of bringing him in dead or alive.", "poster_path": "/qisfF7ENdmGI8fpQJoCxIIU1QhH.jpg", "popularity": 21.319}, {"id": 371638, "video": false, "vote_count": 2190, "vote_average": 7.2, "title": "The Disaster Artist", "release_date": "2017-03-12", "original_language": "en", "original_title": "The Disaster Artist", "genre_ids": [35, 18], "backdrop_path": "/cCIWU5b4izIpLeGQnQNW7iTtIDN.jpg", "adult": false, "overview": "An aspiring actor in Hollywood meets an enigmatic stranger by the name of Tommy Wiseau, the meeting leads the actor down a path nobody could have predicted; creating the worst movie ever made.", "poster_path": "/jj84nF5vYRD0HUTowBKcrKk8hZP.jpg", "popularity": 21.696}, {"id": 9599, "video": false, "vote_count": 377, "vote_average": 6.4, "title": "The Blob", "release_date": "1988-08-05", "original_language": "en", "original_title": "The Blob", "genre_ids": [27, 878], "backdrop_path": "/vOsSAb5oTeH2ubpIMjMhKSZwTxe.jpg", "adult": false, "overview": "Remake of the 1958 horror sci-fi about a deadly blob which is the spawn of a secret government germ warfare project which consumes everyone in its path. Teenagers try in vain to warn the townsfolk, who refuse to take them seriously, while government agents try to cover up the evidence and confine the creature.", "poster_path": "/hUZXLtqL0In7F6IXEQHapkqXa0G.jpg", "popularity": 10.668}, {"id": 339751, "video": false, "vote_count": 110, "vote_average": 7.4, "title": "Hitchcock/Truffaut", "release_date": "2015-09-04", "original_language": "en", "original_title": "Hitchcock/Truffaut", "genre_ids": [99], "backdrop_path": "/oYNKh0FwArUfryI6GaKcbfWVPl4.jpg", "adult": false, "overview": "Filmmakers discuss the legacy of Alfred Hitchcock and the book \u201cHitchcock/Truffaut\u201d (\u201cLe cin\u00e9ma selon Hitchcock\u201d), written by Fran\u00e7ois Truffaut and published in 1966.", "poster_path": "/bJ6AcDLnagKDH6FTgMr5vZFS9lx.jpg", "popularity": 9.472}, {"id": 12684, "video": false, "vote_count": 131, "vote_average": 6.7, "title": "Sabotage", "release_date": "1936-12-02", "original_language": "en", "original_title": "Sabotage", "genre_ids": [9648, 53], "backdrop_path": "/iguLgc2RGYlMLg747T71IFyGfTU.jpg", "adult": false, "overview": "A Scotland Yard undercover detective is on the trail of a saboteur who is part of a plot to set off a bomb in London. But when the detective's cover is blown, the plot begins to unravel.", "poster_path": "/9DM9MPN6jtvIhqvadCFTPBQZwiW.jpg", "popularity": 9.754}, {"adult": false, "backdrop_path": "/2cQo6h9gQtkpJFP1cEWPpnSsZ7w.jpg", "genre_ids": [14, 35, 10749], "id": 10849, "original_language": "en", "original_title": "The Purple Rose of Cairo", "overview": "Cecilia is a waitress in New Jersey, living a dreary life during the Great Depression. Her only escape from her mundane reality is the movie theatre. After losing her job, Cecilia goes to see 'The Purple Rose of Cairo' in hopes of raising her spirits, where she watches dashing archaeologist Tom Baxter time and again.", "poster_path": "/nWMT2WBzPtrXdjPlb28PFSrBGd0.jpg", "release_date": "1985-03-01", "title": "The Purple Rose of Cairo", "video": false, "vote_average": 7.5, "vote_count": 509, "popularity": 9.516}, {"id": 290, "video": false, "vote_count": 885, "vote_average": 7.5, "title": "Barton Fink", "release_date": "1991-08-01", "original_language": "en", "original_title": "Barton Fink", "genre_ids": [35, 18], "backdrop_path": "/kptmPB0rwfLqf1yQPCWewCoyiiq.jpg", "adult": false, "overview": "A renowned New York playwright is enticed to California to write for the movies and discovers the hellish truth of Hollywood.", "poster_path": "/846d8FclibtOIoUW7PxpT0nCG4C.jpg", "popularity": 10.637}, {"adult": false, "backdrop_path": "/wwJEcAKY5drJj9o4EJKIOjLDZNF.jpg", "genre_ids": [35, 18], "id": 1675, "original_language": "fr", "original_title": "La Nuit am\u00e9ricaine", "overview": "A committed film director struggles to complete his movie while coping with a myriad of crises, personal and professional, among the cast and crew.", "poster_path": "/5GqtoMYV2XxYkn1Wzg8kib8JTkj.jpg", "release_date": "1973-05-24", "title": "Day for Night", "video": false, "vote_average": 7.9, "vote_count": 255, "popularity": 9.234}, {"adult": false, "backdrop_path": "/kQX0k2mVsiexLftIpiTVb5N6rZs.jpg", "genre_ids": [35, 18, 10749], "id": 339397, "original_language": "en", "original_title": "Caf\u00e9 Society", "overview": "The story of a young man who arrives in Hollywood during the 1930s hoping to work in the film industry, falls in love, and finds himself swept up in the vibrant caf\u00e9 society that defined the spirit of the age.", "poster_path": "/hRrF8R32WIldNEMLOhtNrz9OfAZ.jpg", "release_date": "2016-05-11", "title": "Caf\u00e9 Society", "video": false, "vote_average": 6.4, "vote_count": 1699, "popularity": 10.337}, {"id": 32499, "video": false, "vote_count": 111, "vote_average": 7.3, "title": "The Bad and the Beautiful", "release_date": "1952-12-25", "original_language": "en", "original_title": "The Bad and the Beautiful", "genre_ids": [18, 10749], "backdrop_path": "/rprutJu1nFDqnI5IjtO7heBdavW.jpg", "adult": false, "overview": "Told in flashback form, the film traces the rise and fall of a tough, ambitious Hollywood producer, Jonathan Shields, as seen through the eyes of various acquaintances, including a writer, James Lee Bartlow; a star, Georgia Lorrison; and a director, Fred Amiel. He is a hard-driving, ambitious man who ruthlessly uses everyone on the way to becoming one of Hollywood's top movie makers.", "poster_path": "/7ZuPYVkqTz5wcnG32mhYBgKSOKw.jpg", "popularity": 7.729}, {"adult": false, "backdrop_path": "/uMarY1dlP7WmpFHdtX0zgfdNwUy.jpg", "genre_ids": [35], "id": 35185, "original_language": "en", "original_title": "The Smallest Show on Earth", "overview": "Jean and Bill are a married couple trying to scrape a living. Out of the blue they receive a telegram informing them Bill's long-lost uncle has died and left them his business\u2014a cinema in the town of Sloughborough. Unfortunately they can't sell it for the fortune they hoped as they discover it is falling down and almost worthless.", "poster_path": "/epQZGlatIZvtJPAsfLJ8jOxFBNg.jpg", "release_date": "1957-04-09", "title": "The Smallest Show on Earth", "video": false, "vote_average": 7.2, "vote_count": 12, "popularity": 3.643}, {"id": 651724, "video": false, "vote_count": 26, "vote_average": 7.9, "title": "The Irishman: In Conversation", "release_date": "2019-11-27", "original_language": "en", "original_title": "The Irishman: In Conversation", "genre_ids": [99], "backdrop_path": "/nS92jjhnPF6EnSPbp6HdLXnZKGa.jpg", "adult": false, "overview": "Martin Scorsese, Robert De Niro, Joe Pesci, and Al Pacino in conversation about The Irishman.", "poster_path": "/fF704pR8xsNjI7dVi4M4rPUqxvU.jpg", "popularity": 4.847}, {"id": 92060, "video": false, "vote_count": 268, "vote_average": 8.1, "title": "Michael Jackson's Thriller", "release_date": "1983-11-14", "original_language": "en", "original_title": "Michael Jackson's Thriller", "genre_ids": [27, 10402], "backdrop_path": "/kEGls1NMhHUzL92meK9Cm53Qm2N.jpg", "adult": false, "overview": "A night at the movies turns into a nightmare when Michael and his date are attacked by a hoard of bloody-thirsty zombies.", "poster_path": "/puLSRxaG8MweynoRt8wZS8ZXZRM.jpg", "popularity": 8.542}], "total_pages": 12, "total_results": 229}, "recommendations": {"page": 1, "results": [{"adult": false, "backdrop_path": null, "genre_ids": [99], "id": 47455, "original_language": "fr", "original_title": "Une \u00e9tudiante d'aujourd'hui", "overview": "Eric Rohmer directs this short documentary that narrates the presence of women in French universities as of the time of its release -- 1966. During the film's short run, the narrator continues to point out that during the advent of World War II, only 21,000 women attended college and made only a 30 % of the student body, a number that by the 1964-1965 school year had passed the 120,000 mark. Instead of opting to live according to what was expected of them, now they were joining the work force, trading in aprons for lab jackets and becoming professionals even after getting married.", "poster_path": "/ees049qrKIQSGQvXNHOWu47zd4F.jpg", "release_date": "1966-01-01", "title": "A Modern Coed", "video": false, "vote_average": 5.3, "vote_count": 4, "popularity": 0.802}, {"adult": false, "backdrop_path": null, "genre_ids": [16, 99], "id": 425805, "original_language": "en", "original_title": "Old Man", "overview": "For more then 20 years Charles Manson has refused to communicate to the outside world. Until now. These are actual never before heard phone conversations between Canadian best selling author Marlin Marynick and Charles Manson.", "poster_path": "/6ynpxWCmDCa5Wxzr7ZZ22Gyf34h.jpg", "release_date": "2012-03-12", "title": "Old Man", "video": false, "vote_average": 7.8, "vote_count": 4, "popularity": 0.6}, {"id": 83451, "video": false, "vote_count": 3, "vote_average": 7.3, "title": "Poto and Cabengo", "release_date": "1980-03-25", "original_language": "en", "original_title": "Poto and Cabengo", "genre_ids": [99], "backdrop_path": "/p5YW4iS9ujecp31CvGNMv8717C0.jpg", "adult": false, "overview": "Documentary by Jean-Pierre Gorin about twin girls who spontaneously developed their own unique language as children.", "poster_path": "/7BhwciHku7sgdok7A7Zh5hVQFK2.jpg", "popularity": 2.039}, {"adult": false, "backdrop_path": "/s0G7bi8JWLPxPNTkjO7QwPaARzW.jpg", "genre_ids": [14, 10751, 10402], "id": 47509, "original_language": "en", "original_title": "Tales of Beatrix Potter", "overview": "The Royal Ballet Company brings Squirrel Nutkin, Tom Thumb, Hunca Munca, Jemima Puddle-Duck, Jeremy Fisher, Pigling Bland, and Pigwig to the screen doing pirouettes and pas de deux in this filmed ballet production directed by Reginald Mills. The film more properly belongs, however, to choreographer Frederick Ashmore, composer John Lanchbery, and costume designer Rostislav Douboujinsky. This literal adaptation concerns the shy Beatrix Potter and how, when all of the toy animals in her room come to life, she emerges from her shell and begins to enjoy life. Sequences include a rowdy dance with Tom Thumb and Hunca Munca destroying a collection of plaster food, a midnight pas de deux between Pigling Bland and Pigwig, and a corps de ballet of dancing mice.", "poster_path": "/1sL2W2rWocPJaM139eYI8pspH89.jpg", "release_date": "1971-03-01", "title": "Tales of Beatrix Potter", "video": false, "vote_average": 5.3, "vote_count": 8, "popularity": 2.559}, {"adult": false, "backdrop_path": "/xANyxN0dyqKiyq7FAE3HsSV0W0Z.jpg", "genre_ids": [35], "id": 44409, "original_language": "en", "original_title": "Number, Please?", "overview": "While at an amusement park, trying vainly to forget the girl he has lost, a young man sees the girl with her new boyfriend. When her dog gets loose in the park, both suitors have to help her catch it. Then, the girl's uncle, a balloonist, gives her a pass for two in his balloon, provided that her mother approves. She then offers to take along the first of her admirers who is able to get her mother's consent.", "poster_path": "/dvnifLyYcvhFuWhWgXdXOQGzJuw.jpg", "release_date": "1920-12-26", "title": "Number, Please?", "video": false, "vote_average": 6.3, "vote_count": 13, "popularity": 2.717}, {"adult": false, "backdrop_path": "/3HcetfkmLFSQulnUyCwbRYrWrHy.jpg", "genre_ids": [28, 35, 9648, 53], "id": 31610, "original_language": "en", "original_title": "Trixie", "overview": "Emily Watson stars as Trixie, an eccentric woman who aspires to quit her job as a security guard and become a private detective. However, comedy intervenes and the mess begins...", "poster_path": "/nExW3iAa1K8tp0pRGZQmHnQrf9k.jpg", "release_date": "2000-06-28", "title": "Trixie", "video": false, "vote_average": 5.4, "vote_count": 7, "popularity": 4.184}, {"adult": false, "backdrop_path": null, "genre_ids": [10752, 18], "id": 199737, "original_language": "en", "original_title": "Aquel no era yo", "overview": "Being a soldier is not difficult: either get used or be killed. The hardest thing is to live with your memories and be yourself again after doing what you did.", "poster_path": "/3C30FYSU82nQy0Gq5omHdaoZKXV.jpg", "release_date": "2012-04-24", "title": "That Wasn't Me", "video": false, "vote_average": 5.8, "vote_count": 11, "popularity": 3.028}, {"id": 63702, "video": false, "vote_count": 3, "vote_average": 6.3, "title": "Liliom", "release_date": "1934-05-15", "original_language": "fr", "original_title": "Liliom", "genre_ids": [18, 14], "backdrop_path": null, "adult": false, "overview": "Two women love the same man in a world of few prospects. In Budapest, Liliom is a \"public figure,\" a rascal who's a carousel barker, loved by the experienced merry-go-round owner and by a young, innocent maid. The maid, Julie, loses her job after going out with Liliom; he's fired by his jealous employer for going out with Julie. The two lovers move in with Julie's aunt; unemployment emasculates him and a local weasel tempts him with crime. Julie, now wan, is true to Liliom even in his bad temper. Meanwhile, a stolid widower, a carpenter, wants to marry Julie. Is there any future on this earth for Julie and Liliom, whose love is passionate rather than ideal?", "poster_path": "/uG4CdzihTQcyV1w5MYytr3biw2C.jpg", "popularity": 2.197}, {"adult": false, "backdrop_path": "/pcki6gkm8mQr6qHuor4C3BoqBZM.jpg", "genre_ids": [18, 28], "id": 92399, "original_language": "en", "original_title": "The Story of Dr. Wassell", "overview": "As the Japanese sweep through the East Indies during World War II, Dr. Wassell is determined to escape from Java with some crewmen of the cruiser Marblehead. Based on a true story of how Dr. Wassell saved a dozen or so wounded sailors who were left behind when able bodied men were evacuated to Australia.", "poster_path": "/kfiP51TJ5V5pSq0HY8bTrAogVF2.jpg", "release_date": "1944-07-04", "title": "The Story of Dr. Wassell", "video": false, "vote_average": 6.1, "vote_count": 7, "popularity": 2.48}, {"id": 200942, "video": false, "vote_count": 17, "vote_average": 6.6, "title": "The Voorman Problem", "release_date": "2013-04-25", "original_language": "en", "original_title": "The Voorman Problem", "genre_ids": [35, 18], "backdrop_path": "/uauNJEf1spL8Rcy15iLaNRoHmN8.jpg", "adult": false, "overview": "Doctor Williams is called in to examine the enigmatic Mr Voorman, a prisoner with a peculiar affliction: he believes he is a god. The Doctor must decide on the sanity of Mr Voorman - is he a faker or a lunatic? Diagnose him insane and they can ship him off to the asylum. But before making a decision, the Doctor has several questions in relation to Voorman's claims: why would a god choose to be straitjacketed in a prison, is there a way he can validate his boast and what has any of this got to do with Belgium?", "poster_path": "/aDeK5qdFNVGYgEZJiT6gMOmV7jl.jpg", "popularity": 2.298}, {"adult": false, "backdrop_path": "/ug5BdBYFUyjCvSIKP54lXOnJsFw.jpg", "genre_ids": [10402, 18], "id": 72856, "original_language": "en", "original_title": "Hallelujah", "overview": "A black laborer turns preacher after accidentally killing a man.", "poster_path": "/eVFaCwo95VcAS8wzwuR1wIQ6LBr.jpg", "release_date": "1929-08-20", "title": "Hallelujah", "video": false, "vote_average": 6.2, "vote_count": 14, "popularity": 3.844}, {"id": 8071, "video": false, "vote_count": 22, "vote_average": 6.3, "title": "Tout Va Bien", "release_date": "1972-04-28", "original_language": "fr", "original_title": "Tout va bien", "genre_ids": [18], "backdrop_path": "/uRElXqD7Dv4KypsnS1OReQS7iFO.jpg", "adult": false, "overview": "A strike at a French sausage factory contributes to the estrangement of a married filmmaker and his reporter wife.", "poster_path": "/o13al7oguvpSDeBId5OjtZmpNAy.jpg", "popularity": 2.745}, {"adult": false, "backdrop_path": "/xUU9qPlz6KWYgFeoapKI3svq53O.jpg", "genre_ids": [37], "id": 121703, "original_language": "en", "original_title": "Cattle Queen of Montana", "overview": "Sierra Nevada Jones must fight a villainous rancher to regain the land that is rightfully hers.", "poster_path": "/fcfXgvbeO8WEHIFzQsu3Wa2Pb7t.jpg", "release_date": "1954-11-18", "title": "Cattle Queen of Montana", "video": false, "vote_average": 4.8, "vote_count": 8, "popularity": 3.526}, {"adult": false, "backdrop_path": "/uUqNbSA0NxOQuy2BBCeT8JBl16N.jpg", "genre_ids": [10752, 18, 10749], "id": 42226, "original_language": "de", "original_title": "Der Fangschuss", "overview": "A countess loves her brother's Prussian-officer friend in the 1919 Baltic area.", "poster_path": "/aXQrL5wvL0DEmJz1ttEiJtiHixt.jpg", "release_date": "1976-10-21", "title": "Coup de Gr\u00e2ce", "video": false, "vote_average": 6.8, "vote_count": 11, "popularity": 2.855}, {"adult": false, "backdrop_path": "/xZc1xg5lDPLSbDwBSYMlYlIAwRv.jpg", "genre_ids": [18, 35], "id": 63978, "original_language": "fr", "original_title": "La vie est un roman", "overview": "In this whimsical fable, Resnais deftly interweaves three story lines: the creation of an early-20th-century utopia; romantic high jinks at a school conference; and a fantasy sparked by F/X pioneer Georges M\u00e9li\u00e8s.", "poster_path": "/ttYgyJHKFYWaY8UYoRjo9TTkX39.jpg", "release_date": "1983-04-20", "title": "Life Is a Bed of Roses", "video": false, "vote_average": 6.3, "vote_count": 8, "popularity": 3.362}], "total_pages": 1, "total_results": 15}, "credits": {"cast": [{"cast_id": 2, "character": "", "credit_id": "57f4d0fc9251412ee600094d", "gender": 2, "id": 20556, "name": "Bertrand Tavernier", "order": 1, "profile_path": "/e0TVSBL8cTiw2Uc5CE5uiPi6GrL.jpg"}, {"cast_id": 4, "character": "", "credit_id": "5d19477a30aa310018c5d637", "gender": 2, "id": 1665042, "name": "Thierry Fr\u00e9maux", "order": 3, "profile_path": "/5R5ox7eRy17PcQYXpzRJsvH2Ay5.jpg"}, {"cast_id": 8, "character": "Narrator (voice)", "credit_id": "5d19491c12197e0018294ee5", "gender": 2, "id": 55805, "name": "Andr\u00e9 Marcon", "order": 4, "profile_path": "/lklnuedmWysMiaK3o2pfSDVKqCm.jpg"}], "crew": [{"credit_id": "57935789c3a3687c7300a481", "department": "Directing", "gender": 2, "id": 20556, "job": "Director", "name": "Bertrand Tavernier", "profile_path": "/e0TVSBL8cTiw2Uc5CE5uiPi6GrL.jpg"}, {"credit_id": "57935792c3a368401200e289", "department": "Writing", "gender": 2, "id": 20556, "job": "Writer", "name": "Bertrand Tavernier", "profile_path": "/e0TVSBL8cTiw2Uc5CE5uiPi6GrL.jpg"}, {"credit_id": "5d19488a134d580015227d8a", "department": "Production", "gender": 2, "id": 20557, "job": "Producer", "name": "Fr\u00e9d\u00e9ric Bourboulon", "profile_path": null}, {"credit_id": "5d1948b28a84d25b6eccdfe8", "department": "Sound", "gender": 2, "id": 35073, "job": "Original Music Composer", "name": "Bruno Coulais", "profile_path": null}, {"credit_id": "5d1948c312197e001e2950ea", "department": "Sound", "gender": 2, "id": 35073, "job": "Orchestrator", "name": "Bruno Coulais", "profile_path": null}, {"credit_id": "5d19495130aa310018c5da37", "department": "Editing", "gender": 2, "id": 50026, "job": "Editor", "name": "Guy Lecorne", "profile_path": null}, {"credit_id": "5d194a748a84d25b6ecce49b", "department": "Camera", "gender": 0, "id": 54287, "job": "Director of Photography", "name": "J\u00e9r\u00f4me Alm\u00e9ras", "profile_path": null}, {"credit_id": "5d194a808a84d25b6ecce4a3", "department": "Crew", "gender": 0, "id": 1176753, "job": "Cinematography", "name": "Simon Beaufils", "profile_path": null}, {"credit_id": "5d19498b30aa310018c5dab2", "department": "Editing", "gender": 0, "id": 1605090, "job": "Editor", "name": "Marie Deroudille", "profile_path": null}, {"credit_id": "5d194b0b12197e001e295564", "department": "Sound", "gender": 2, "id": 1712000, "job": "Sound Assistant", "name": "Olivier D\u00f4 H\u00f9u", "profile_path": null}, {"credit_id": "5d194af38a84d2001ecd09ef", "department": "Sound", "gender": 0, "id": 1811601, "job": "Sound", "name": "Fanny Weinzaepflen", "profile_path": null}, {"credit_id": "5d1949f58a84d2001bccf134", "department": "Production", "gender": 0, "id": 1851989, "job": "Researcher", "name": "Emmanuelle Sterpin", "profile_path": null}, {"credit_id": "5d1949d430aa31001ec5eb8c", "department": "Directing", "gender": 0, "id": 1851989, "job": "First Assistant Director", "name": "Emmanuelle Sterpin", "profile_path": null}, {"credit_id": "5d194969134d58001b227fcc", "department": "Editing", "gender": 0, "id": 2094530, "job": "Assistant Editor", "name": "Juliette Alexandre", "profile_path": null}, {"credit_id": "5d194abb30aa31001ec5ecc2", "department": "Crew", "gender": 0, "id": 2167768, "job": "Cinematography", "name": "Julien Pamart", "profile_path": null}, {"credit_id": "5d19497e8a84d2001bccf042", "department": "Editing", "gender": 0, "id": 2351814, "job": "Assistant Editor", "name": "Mathilde Forissier", "profile_path": null}, {"credit_id": "5d19499d134d580015227eda", "department": "Editing", "gender": 0, "id": 2351816, "job": "Assistant Editor", "name": "Emmanuel Jego", "profile_path": null}, {"credit_id": "5d1949b28a84d20021cd046f", "department": "Editing", "gender": 0, "id": 2351817, "job": "Assistant Editor", "name": "Maxence Loubeyre", "profile_path": null}, {"credit_id": "5d194a26134d5800212286bb", "department": "Art", "gender": 0, "id": 2351818, "job": "Title Designer", "name": "Fran\u00e7ois Goderniaux", "profile_path": null}, {"credit_id": "5d194aad134d580018227983", "department": "Crew", "gender": 0, "id": 2351820, "job": "Cinematography", "name": "Camille Cl\u00e9ment", "profile_path": null}, {"credit_id": "5d194ad030aa310018c5dcab", "department": "Crew", "gender": 0, "id": 2351822, "job": "Cinematography", "name": "Garance Garnier", "profile_path": null}]}}