{"adult": false, "backdrop_path": "/6Nr74VWJHx39lJJ1HD9hcWHd0RL.jpg", "belongs_to_collection": null, "budget": 0, "genres": [{"id": 18, "name": "Drama"}], "homepage": "", "id": 408293, "imdb_id": "tt5937296", "original_language": "bg", "original_title": "Slava", "overview": "When Tsanko Petrov, a railroad worker, finds millions of lev on the train tracks, he decides to turn the entire amount over to the police. Grateful, the state rewards him with a new wristwatch\u2026 which soon stops working. Meanwhile, Julia Staikova, the head of PR for the Ministry of Transport, loses his old watch. Here starts Petrov\u2019s desperate struggle to get back not only his old watch, but his dignity.", "popularity": 3.779, "poster_path": "/pA9BzH0y6PvW1zJ9ceiizRbprQU.jpg", "production_companies": [{"id": 51099, "logo_path": null, "name": "Abraxas Film", "origin_country": ""}], "production_countries": [{"iso_3166_1": "BG", "name": "Bulgaria"}], "release_date": "2017-03-02", "revenue": 0, "runtime": 101, "spoken_languages": [{"iso_639_1": "bg", "name": "\u0431\u044a\u043b\u0433\u0430\u0440\u0441\u043a\u0438 \u0435\u0437\u0438\u043a"}], "status": "Released", "tagline": "", "title": "Glory", "video": false, "vote_average": 7.1, "vote_count": 27, "keywords": {"keywords": [{"id": 187056, "name": "woman director"}]}, "similar": {"page": 1, "results": [{"adult": false, "backdrop_path": "/cADbqsIoiDW7X3Myg9nz8eAuno5.jpg", "genre_ids": [18, 10749], "id": 10818, "original_language": "fr", "original_title": "Naissance des pieuvres", "overview": "Set during a sultry summer in a French suburb, Marie is desperate to join the local pool's synchronized swimming team, but is her interest solely for the sake of sport or for a chance to get close to Floriane, the bad girl of the team? Sciamma, and the two leads, capture the uncertainty of teenage sexuality with a sympathetic eye in this delicate drama of the angst of coming-of-age.", "poster_path": "/4jajELYrR4Xmv3CVoKnukRnALa2.jpg", "release_date": "2007-05-17", "title": "Water Lilies", "video": false, "vote_average": 6.1, "vote_count": 119, "popularity": 9.614}, {"adult": false, "backdrop_path": "/gZeJziVigmRqbkEZwKAtSqlLQ6s.jpg", "genre_ids": [18, 10749], "id": 370663, "original_language": "en", "original_title": "Below Her Mouth", "overview": "An unexpected affair quickly escalates into a heart-stopping reality for two women whose passionate connection changes their lives forever.", "poster_path": "/nTGbq37hYLuNy7YgMg0gVLma0NS.jpg", "release_date": "2016-09-10", "title": "Below Her Mouth", "video": false, "vote_average": 6.2, "vote_count": 456, "popularity": 18.664}, {"adult": false, "backdrop_path": "/dvQDRfv3qvfHNnVAR57ouVsuErf.jpg", "genre_ids": [10749, 18], "id": 28031, "original_language": "en", "original_title": "If These Walls Could Talk 2", "overview": "The stories of three lesbian couples -- who live in the same house at different periods of time -- who are at a crossroads in their lives. In 1961, Edith loses her lover, Abby, to a stroke. Linda and Amy struggle with feminist issues in 1972. And, in 2000, Kal and Fran try to have a baby with the help of sperm donor.", "poster_path": "/xs7ODbmYQXCDhvXNvz5tF17T59H.jpg", "release_date": "2000-03-05", "title": "If These Walls Could Talk 2", "video": false, "vote_average": 7.1, "vote_count": 55, "popularity": 8.86}, {"adult": false, "backdrop_path": "/knczzNAjBXzSYkeWxoT1u9VNmjR.jpg", "genre_ids": [10749, 18], "id": 258480, "original_language": "en", "original_title": "Carol", "overview": "In 1950s New York, a department-store clerk who dreams of a better life falls for an older, married woman.", "poster_path": "/AbKa7ANxmui0Jmhh7gV7OSELKIL.jpg", "release_date": "2015-11-20", "title": "Carol", "video": false, "vote_average": 7.4, "vote_count": 2184, "popularity": 13.539}, {"adult": false, "backdrop_path": "/fZ8oFcREAr6wgWcXISGql0xyxjB.jpg", "genre_ids": [35, 18], "id": 39781, "original_language": "en", "original_title": "The Kids Are All Right", "overview": "Two women, Nic and Jules, brought a son and daughter into the world through artificial insemination. When one of their children reaches age, both kids go behind their mothers' backs to meet with the donor. Life becomes so much more interesting when the father, two mothers and children start to become attached to each other.", "poster_path": "/fPDeK4MmoGfi2X0oWZev7LrbMqM.jpg", "release_date": "2010-07-09", "title": "The Kids Are All Right", "video": false, "vote_average": 6.6, "vote_count": 923, "popularity": 12.159}, {"adult": false, "backdrop_path": "/rf6G51j0SZL0tP57I8gnqHTRFEr.jpg", "genre_ids": [35, 18, 10749], "id": 273153, "original_language": "fr", "original_title": "La belle saison", "overview": "In 1971, Carole and Delphine meet and fall in love in Paris. When Carole follows Delphine back to her family farm in Limousin, the two find lesbianism and feminism are not as easy in the countryside.", "poster_path": "/evvAkNMO5VJiy5qIo1Hu7fUfvVI.jpg", "release_date": "2015-08-19", "title": "Summertime", "video": false, "vote_average": 6.6, "vote_count": 162, "popularity": 11.575}, {"adult": false, "backdrop_path": "/s12HEmmkJfI2mjltI61hGm5kubD.jpg", "genre_ids": [35, 18, 10749], "id": 20770, "original_language": "en", "original_title": "But I'm a Cheerleader", "overview": "Megan is an all-American girl. A cheerleader. She has a boyfriend. But Megan doesn't like kissing her boyfriend very much. And she's pretty touchy with her cheerleader friends. Her conservative parents worry that she must be a lesbian and send her off to \"sexual redirection\" school, where she must, with other lesbians and gays learn how to be straight.", "poster_path": "/eDGH7CHSdkrYcuUJV1e0WS9DlQL.jpg", "release_date": "1999-12-09", "title": "But I'm a Cheerleader", "video": false, "vote_average": 6.8, "vote_count": 246, "popularity": 9.011}, {"id": 9813, "video": false, "vote_count": 128, "vote_average": 6.1, "title": "The Quiet", "release_date": "2005-09-12", "original_language": "en", "original_title": "The Quiet", "genre_ids": [18, 53], "backdrop_path": "/6eyWAZA4CEidZW1xXnQ4vlYBXTP.jpg", "adult": false, "overview": "After her widowed father dies, deaf teenager Dot moves in with her godparents, Olivia and Paul Deer. The Deers' daughter, Nina, is openly hostile to Dot, but that does not prevent her from telling her secrets to her silent stepsister, including the fact that she wants to kill her lecherous father.", "poster_path": "/GEqIE9YlmygHVUfS64LW2cwAAM.jpg", "popularity": 14.844}, {"adult": false, "backdrop_path": "/tzqeuHWMFihFbiLGHdalPgAcSf6.jpg", "genre_ids": [18, 10749], "id": 18620, "original_language": "en", "original_title": "Go Fish", "overview": "Max is a trendy, pretty, young lesbian, who is having trouble finding love. A friend sets her up with Ely, whom Max likes, but Ely is frumpy, homely, and older. Nor do they have much in common. Can Max learn to look past the packaging?", "poster_path": "/qrEFYrwykaGsY8NULYuYLLI7zrM.jpg", "release_date": "1994-06-10", "title": "Go Fish", "video": false, "vote_average": 5.0, "vote_count": 11, "popularity": 3.676}, {"adult": false, "backdrop_path": "/6tern9vOEwwmkDYC1vRCuO64z0C.jpg", "genre_ids": [10749, 18], "id": 475888, "original_language": "en", "original_title": "Tell It to the Bees", "overview": "Dr. Jean Markham returns to the town she left as a teenager to take over her late father's medical practice. When a school-yard scuffle lands Charlie in her surgery, she invites him to visit the hives in her garden and tell his secrets to the bees, as she once did. The new friendship between the boy and the bee keeper brings his mother Lydia into Jean's world.", "poster_path": "/Rj6zpHhMU1zFW3v28U4PSRSRgP.jpg", "release_date": "2019-05-03", "title": "Tell It to the Bees", "video": false, "vote_average": 6.4, "vote_count": 53, "popularity": 13.175}, {"adult": false, "backdrop_path": "/baYbbMtKRDoDWYJeVWkbygAvAj8.jpg", "genre_ids": [18, 10749], "id": 31216, "original_language": "en", "original_title": "I Can't Think Straight", "overview": "I CAN'T THINK STRAIGHT is a 2007 romance movie about a London-based Jordanian of Palestinian descent, Tala, who is preparing for an elaborate wedding. A turn of events causes her to have an affair and subsequently fall in love with another woman, Leyla, a British Indian.", "poster_path": "/1kapga6rkM5wNuQBYw7sdE42CrA.jpg", "release_date": "2008-06-01", "title": "I Can't Think Straight", "video": false, "vote_average": 7.6, "vote_count": 109, "popularity": 7.815}, {"adult": false, "backdrop_path": "/lI5h8KaoeObu4NMTwzeRuUHzRwD.jpg", "genre_ids": [18, 9648, 53], "id": 401898, "original_language": "no", "original_title": "Thelma", "overview": "A college student starts to experience extreme seizures. She soon learns that the violent episodes are a symptom of inexplicable abilities.", "poster_path": "/yzSfG8TLAqw7nMQh2lxirQkQpgs.jpg", "release_date": "2017-09-15", "title": "Thelma", "video": false, "vote_average": 7.1, "vote_count": 418, "popularity": 13.105}, {"adult": false, "backdrop_path": "/tIFRPjIXQ3sYrmxbIeOu9K1JkUz.jpg", "genre_ids": [18, 10749], "id": 294, "original_language": "en", "original_title": "Desert Hearts", "overview": "The story of straight-edge literature professor Vivian who travels to Reno to get away from a relationship breakup when she falls in love with an attractive and unconventional girl named Cay.", "poster_path": "/b8JSmQSpYYJhctMtxNgqh0elENg.jpg", "release_date": "1985-10-01", "title": "Desert Hearts", "video": false, "vote_average": 7.3, "vote_count": 58, "popularity": 6.976}, {"id": 2255, "video": false, "vote_count": 772, "vote_average": 6.8, "title": "Chasing Amy", "release_date": "1997-04-04", "original_language": "en", "original_title": "Chasing Amy", "genre_ids": [35, 18, 10749], "backdrop_path": "/doKYVK61Vb8J1KUjlb9dNWkQNp6.jpg", "adult": false, "overview": "Holden and Banky are comic book artists. Everything is going good for them until they meet Alyssa, also a comic book artist. Holden falls for her, but his hopes are crushed when he finds out she's a lesbian.", "poster_path": "/4vFJileWrCGaBeobCmF0tXpQCUb.jpg", "popularity": 13.95}, {"adult": false, "backdrop_path": "/hD8DQM72Xacg1d3mFqS0eN8vKYw.jpg", "genre_ids": [18], "id": 8272, "original_language": "en", "original_title": "The Savages", "overview": "A sister and brother face the realities of familial responsibility as they begin to care for their ailing father.", "poster_path": "/nY54gSmTOmSXlQpWDB7DWp4u8a7.jpg", "release_date": "2007-01-19", "title": "The Savages", "video": false, "vote_average": 6.9, "vote_count": 192, "popularity": 9.466}, {"adult": false, "backdrop_path": "/g3LYarEY9LjB28Ct2trwFN72gqZ.jpg", "genre_ids": [35], "id": 437557, "original_language": "en", "original_title": "Blockers", "overview": "When three parents discover their daughters\u2019 pact to lose their virginity at prom, they launch a covert one-night operation to stop the teens from sealing the deal.", "poster_path": "/uvlUQXg0AlpGzKukO11K7QtW3Yu.jpg", "release_date": "2018-03-14", "title": "Blockers", "video": false, "vote_average": 6.2, "vote_count": 1155, "popularity": 17.886}, {"adult": false, "backdrop_path": "/zBB1mzmqnUuSrlTuf0SFFlI1EoJ.jpg", "genre_ids": [18], "id": 244772, "original_language": "en", "original_title": "The Skeleton Twins", "overview": "Estranged twins Maggie and Milo coincidentally cheat death on the same day, prompting them to reunite and confront the reasons their lives went so wrong. As the twins' reunion reinvigorates them, they realize the key to fixing their lives may just lie in repairing their relationship.", "poster_path": "/vvmv1R2jDXJeeeyYcGg0ypXc2XK.jpg", "release_date": "2014-09-12", "title": "The Skeleton Twins", "video": false, "vote_average": 6.7, "vote_count": 416, "popularity": 10.481}, {"adult": false, "backdrop_path": "/3YGy88nTV2e0wxZcKI1goiEN9oy.jpg", "genre_ids": [18, 10749], "id": 37636, "original_language": "en", "original_title": "High Art", "overview": "A young female intern at a small magazine company becomes involved with a drug-addicted lesbian photographer, both of whom seek to exploit each other for their respective careers, while slowly falling in love with each other.", "poster_path": "/qTg05RNJIvb9w4Z7XIcAZxuZmTn.jpg", "release_date": "1998-06-12", "title": "High Art", "video": false, "vote_average": 6.6, "vote_count": 61, "popularity": 7.422}, {"adult": false, "backdrop_path": "/caLMOD3ZJ3V7qjlxDXrzlJfBLgD.jpg", "genre_ids": [18, 10749], "id": 20, "original_language": "en", "original_title": "My Life Without Me", "overview": "A Pedro Almodovar production in which a fatally ill mother with only two months to live creates a list of things she wants to do before she dies with out telling her family of her illness.", "poster_path": "/vVj92VBFUBzjqzLvBiPVVlJDp78.jpg", "release_date": "2003-03-07", "title": "My Life Without Me", "video": false, "vote_average": 6.1, "vote_count": 220, "popularity": 10.382}, {"id": 434714, "video": false, "vote_count": 32, "vote_average": 7.5, "title": "My Days of Mercy", "release_date": "2019-07-11", "original_language": "en", "original_title": "My Days of Mercy", "genre_ids": [18, 10749], "backdrop_path": "/7Lbzq33nMMIQtAfZAmSqG6ibLSg.jpg", "adult": false, "overview": "The daughter of a man on death row falls in love with a woman on the opposing side of her family's political cause.", "poster_path": "/adIPKAoKnKL9vCTkvfF4J9ZA7Ln.jpg", "popularity": 9.342}], "total_pages": 1446, "total_results": 28911}, "recommendations": {"page": 1, "results": [{"adult": false, "backdrop_path": "/a3nPfLELrGEPy3mP8Py5HMwiUZF.jpg", "genre_ids": [18], "id": 436345, "original_language": "de", "original_title": "Helle N\u00e4chte", "overview": "A father tries to rekindle his relationship with his son after years of absence and lack of communication. He takes him on a car ride across northern Norway, hoping it is not too late.", "poster_path": "/hV94VjNHijpMcsNzxMdC1HCyZaE.jpg", "release_date": "2017-02-13", "title": "Bright Nights", "video": false, "vote_average": 5.3, "vote_count": 7, "popularity": 1.036}, {"adult": false, "backdrop_path": "/14QUNfTACUC58Rd0nkIuwFPGQ6F.jpg", "genre_ids": [18], "id": 12221, "original_language": "pt", "original_title": "Odete", "overview": "After breaking up with her boyfriend, a woman named Odete (Ana Cristina De Oliveira) descends into madness and claims to be pregnant with the child of Rui's (Nuno Gil) late lover, Pedro (Jo\u00e3o Carreira). As grief-stricken Rui mourns Pedro's death, Odete tries to transform herself into Pedro.", "poster_path": "/fBIiFIDeIN9U5cQHqXQa4z3FLCv.jpg", "release_date": "2005-05-18", "title": "Two Drifters", "video": false, "vote_average": 6.5, "vote_count": 12, "popularity": 2.226}, {"adult": false, "backdrop_path": "/ev9PJs9ukknFUZfhLPmRdj5rmVa.jpg", "genre_ids": [18], "id": 408265, "original_language": "th", "original_title": "\u0e14\u0e32\u0e27\u0e04\u0e30\u0e19\u0e2d\u0e07", "overview": "A film director and her muse who was a student activist in the 1970s, a waitress who keeps changing jobs, an actor and an actress, all live loosely connected to each other by almost invisible threads. The narrative sheds its skin several times to reveal layer upon layer of the complexities that make up the characters\u2019 lives.", "poster_path": "/5uEQ8WFo3sNAfX4hjDsN27F3un2.jpg", "release_date": "2016-12-08", "title": "By the Time It Gets Dark", "video": false, "vote_average": 5.0, "vote_count": 5, "popularity": 1.365}, {"id": 287497, "video": false, "vote_count": 26, "vote_average": 6.9, "title": "The Lesson", "release_date": "2014-09-04", "original_language": "bg", "original_title": "\u0423\u0440\u043e\u043a", "genre_ids": [18], "backdrop_path": "/58SsttieYTAfa485Xod23oU3gyJ.jpg", "adult": false, "overview": "An honest, hard-working schoolteacher in a small Bulgarian town is driven to desperate measures to avoid financial ruin.", "poster_path": "/nItjt1TlQINLuMukGJiQ6U6AUUl.jpg", "popularity": 2.389}, {"id": 377274, "video": false, "vote_count": 36, "vote_average": 6.6, "title": "The Ornithologist", "release_date": "2016-10-05", "original_language": "pt", "original_title": "O Ornit\u00f3logo", "genre_ids": [12, 18], "backdrop_path": "/6qvsndUb8Ry6nsKXlzzBRXQuAfO.jpg", "adult": false, "overview": "Stranded along a sublime river fjord in northern Portugal, an ornithologist is subjected to a series of brutal and erotic Stations-of-the-Cross-style tests.", "poster_path": "/xS7akhtD1fwDzLseiTkDKOEwXHr.jpg", "popularity": 3.74}, {"adult": false, "backdrop_path": "/lHqOCMpFBC2MOC5uTd0EXZS8irl.jpg", "genre_ids": [18], "id": 133470, "original_language": "tl", "original_title": "Florentina Hubaldo, CTE", "overview": "In a rural area, a father forces his daughter into prostitution. Somewhere else, two men embark on a quest for a buried treasure.", "poster_path": "/7vGaKcHaymJ3kv7jY3Ew5jJTbiZ.jpg", "release_date": "2012-04-30", "title": "Florentina Hubaldo, CTE", "video": false, "vote_average": 7.7, "vote_count": 6, "popularity": 1.145}, {"adult": false, "backdrop_path": "/1j40G21Ph3QSHMTsfCoJx785FpV.jpg", "genre_ids": [18], "id": 88534, "original_language": "bg", "original_title": "Av\u00e9", "overview": "While hitchhiking from Sofia to Ruse, Kamen meets Av\u00e9, a 17-year-old runaway girl. With each ride they hitch, Av\u00e9 invents new identities for them, and her compulsive lies get Kamen deeper and deeper into trouble. Reluctantly drawn into this adventure, Kamen begins to fall in love with the fleeting Av\u00e9.", "poster_path": "/inqFK2EQ7MSmOKKBzGqEE5WCXjR.jpg", "release_date": "2012-03-09", "title": "Av\u00e9", "video": false, "vote_average": 7.6, "vote_count": 10, "popularity": 2.43}, {"adult": false, "backdrop_path": null, "genre_ids": [18], "id": 205864, "original_language": "el", "original_title": "\u0397 \u0391\u03b9\u03ce\u03bd\u03b9\u03b1 \u0395\u03c0\u03b9\u03c3\u03c4\u03c1\u03bf\u03c6\u03ae \u03a4\u03bf\u03c5 \u0391\u03bd\u03c4\u03ce\u03bd\u03b7 \u03a0\u03b1\u03c1\u03b1\u03c3\u03ba\u03b5\u03c5\u03ac", "overview": "Antonis arrives at a hotel resort by the sea. It is wintertime, the hotel is closed and Antonis drifts around alone. He has a lot of time to kill. Until television announces the disappearance of the famous TV host Antonis Paraskevas\u2026", "poster_path": "/iuhf6gGgNnCPzLtR1KW5lYl9PJm.jpg", "release_date": "2013-07-07", "title": "The Eternal Return of Antonis Paraskevas", "video": false, "vote_average": 6.4, "vote_count": 5, "popularity": 1.4}, {"adult": false, "backdrop_path": null, "genre_ids": [18], "id": 295111, "original_language": "en", "original_title": "Chrieg", "overview": "Fifteen-year-old Matteo is attractive, albeit somewhat girlish and frail. The whole world is against him. He has no friends and his parents seem to live in a different universe. The pressure increases as his awkward attempts to win his father\u2019s respect fail. One night two men carry him off: his parents send him to a remote alp, where he is forced to spend the summer working hard on a family farm. When Matteo arrives on the alp, a surprise awaits him.", "poster_path": "/orJfyf5EgqsAvse2TAuxjxtIOKC.jpg", "release_date": "2014-09-21", "title": "War", "video": false, "vote_average": 5.0, "vote_count": 7, "popularity": 2.051}, {"id": 377148, "video": false, "vote_count": 9, "vote_average": 7.0, "title": "Letters from War", "release_date": "2016-09-01", "original_language": "pt", "original_title": "Cartas da Guerra", "genre_ids": [18, 10752], "backdrop_path": "/edIIPcHBA5JtP1ynZ17jvaJzS3t.jpg", "adult": false, "overview": "In 1971, Ant\u00f3nio Lobo Antunes' life is brutally interrupted when he is drafted into the Portuguese Army to serve as a doctor in one of the worst zones of the Colonial War \u2013 the East of Angola. Away from everything dear he writes letters to his wife while he is immersed in an increasingly violent setting. While he moves between several military posts he falls in love for Africa and matures politically. At his side, an entire generation struggles and despairs for the return home. In the uncertainty of war events, only the letters can make him survive.", "poster_path": "/fGhFKGlnqTQuddTSl8dVw1WCfLw.jpg", "popularity": 1.772}], "total_pages": 1, "total_results": 10}, "credits": {"cast": [{"cast_id": 7, "character": "Tzanko Petrov", "credit_id": "57983497c3a368708b002084", "gender": 0, "id": 1268453, "name": "Stefan Denolyubov", "order": 1, "profile_path": null}, {"cast_id": 8, "character": "Julia Staykova", "credit_id": "579834a2c3a368708b00208c", "gender": 0, "id": 1363428, "name": "Margita Gosheva", "order": 2, "profile_path": "/AiWYDKsqZhXl6NltdvX3KilMXv0.jpg"}, {"cast_id": 10, "character": "Ani", "credit_id": "5a1f10b0925141033007cb39", "gender": 0, "id": 1932145, "name": "Ana Bratoeva", "order": 3, "profile_path": null}, {"cast_id": 11, "character": "Misho", "credit_id": "5a1f10c40e0a264cc407ca87", "gender": 0, "id": 1932146, "name": "Stanislav Ganchev", "order": 4, "profile_path": null}, {"cast_id": 12, "character": "Galya", "credit_id": "5a1f10d10e0a264cc407ca9c", "gender": 0, "id": 1932147, "name": "Mira Iskarova", "order": 5, "profile_path": null}], "crew": [{"credit_id": "579833ca9251412f5d001efd", "department": "Directing", "gender": 0, "id": 1268452, "job": "Director", "name": "Petar Valchanov", "profile_path": null}, {"credit_id": "579833ddc3a368710f001b7c", "department": "Directing", "gender": 0, "id": 1268451, "job": "Director", "name": "Kristina Grozeva", "profile_path": null}, {"credit_id": "579833f992514133e3001e3a", "department": "Writing", "gender": 0, "id": 1268451, "job": "Screenplay", "name": "Kristina Grozeva", "profile_path": null}, {"credit_id": "5798340c925141422d0015a5", "department": "Writing", "gender": 0, "id": 1268452, "job": "Screenplay", "name": "Petar Valchanov", "profile_path": null}, {"credit_id": "5798344092514141d1001619", "department": "Writing", "gender": 0, "id": 1657235, "job": "Screenplay", "name": "Decho Taralezhkov", "profile_path": null}, {"credit_id": "579834689251412f3700202b", "department": "Editing", "gender": 0, "id": 1268452, "job": "Editor", "name": "Petar Valchanov", "profile_path": null}, {"credit_id": "59480fa79251413ff40438fa", "department": "Camera", "gender": 0, "id": 1283533, "job": "Director of Photography", "name": "Krum Rodriguez", "profile_path": null}]}}