{"adult": false, "backdrop_path": "/nNynfSV3oVneHnliMVbs0I5P1tZ.jpg", "belongs_to_collection": null, "budget": 1850000, "genres": [{"id": 35, "name": "Comedy"}], "homepage": null, "id": 408487, "imdb_id": "tt4476106", "original_language": "fi", "original_title": "Fingerpori", "overview": "Live action comedy about a fictional town and it's uncommon people, based on a comic strip 'Fingerpori', by Pertti Jarla.", "popularity": 2.925, "poster_path": "/vMxrbSkM2d5Sw6xMmqFj06eq1jS.jpg", "production_companies": [{"id": 6339, "logo_path": "/ufP8NkiJ9ScGLIKz7J25xKtmVvX.png", "name": "Solar Films", "origin_country": "FI"}], "production_countries": [{"iso_3166_1": "FI", "name": "Finland"}], "release_date": "2019-10-18", "revenue": 0, "runtime": null, "spoken_languages": [{"iso_639_1": "fi", "name": "suomi"}], "status": "Released", "tagline": "", "title": "Fingerpori", "video": false, "vote_average": 4.0, "vote_count": 2, "keywords": {"keywords": [{"id": 9717, "name": "based on comic"}]}, "similar": {"page": 1, "results": [{"id": 383498, "video": false, "vote_count": 10248, "vote_average": 7.5, "title": "Deadpool 2", "release_date": "2018-05-10", "original_language": "en", "original_title": "Deadpool 2", "genre_ids": [28, 12, 35], "backdrop_path": "/3P52oz9HPQWxcwHOwxtyrVV1LKi.jpg", "adult": false, "overview": "Wisecracking mercenary Deadpool battles the evil and powerful Cable and other bad guys to save a boy's life.", "poster_path": "/to0spRl1CMDvyUbOnbb4fTk3VAd.jpg", "popularity": 37.076}, {"id": 246655, "video": false, "vote_count": 8994, "vote_average": 6.5, "title": "X-Men: Apocalypse", "release_date": "2016-05-18", "original_language": "en", "original_title": "X-Men: Apocalypse", "genre_ids": [28, 12, 14, 878], "backdrop_path": "/oQWWth5AOtbWG9o8SCAviGcADed.jpg", "adult": false, "overview": "After the re-emergence of the world's first mutant, world-destroyer Apocalypse, the X-Men must unite to defeat his extinction level plan.", "poster_path": "/zSouWWrySXshPCT4t3UKCQGayyo.jpg", "popularity": 28.213}, {"adult": false, "backdrop_path": "/cjRUhKyt2Jo3V1KNzc5tpPNfccG.jpg", "genre_ids": [878, 28, 12], "id": 320288, "original_language": "en", "original_title": "Dark Phoenix", "overview": "The X-Men face their most formidable and powerful foe when one of their own, Jean Grey, starts to spiral out of control. During a rescue mission in outer space, Jean is nearly killed when she's hit by a mysterious cosmic force. Once she returns home, this force not only makes her infinitely more powerful, but far more unstable. The X-Men must now band together to save her soul and battle aliens that want to use Grey's new abilities to rule the galaxy.", "poster_path": "/cCTJPelKGLhALq3r51A9uMonxKj.jpg", "release_date": "2019-06-05", "title": "Dark Phoenix", "video": false, "vote_average": 6.0, "vote_count": 2757, "popularity": 46.331}, {"id": 284053, "video": false, "vote_count": 12880, "vote_average": 7.5, "title": "Thor: Ragnarok", "release_date": "2017-10-25", "original_language": "en", "original_title": "Thor: Ragnarok", "genre_ids": [28, 12, 35, 14], "backdrop_path": "/kaIfm5ryEOwYg8mLbq8HkPuM1Fo.jpg", "adult": false, "overview": "Thor is imprisoned on the other side of the universe and finds himself in a race against time to get back to Asgard to stop Ragnarok, the destruction of his home-world and the end of Asgardian civilization, at the hands of an all-powerful new threat, the ruthless Hela.", "poster_path": "/rzRwTcFvttcN1ZpX2xv4j3tSdJu.jpg", "popularity": 56.548}, {"id": 283995, "video": false, "vote_count": 13889, "vote_average": 7.6, "title": "Guardians of the Galaxy Vol. 2", "release_date": "2017-04-19", "original_language": "en", "original_title": "Guardians of the Galaxy Vol. 2", "genre_ids": [28, 12, 35, 878], "backdrop_path": "/aJn9XeesqsrSLKcHfHP4u5985hn.jpg", "adult": false, "overview": "The Guardians must fight to keep their newfound family together as they unravel the mysteries of Peter Quill's true parentage.", "poster_path": "/y4MBh0EjBlMuOzv9axM4qJlmhzz.jpg", "popularity": 39.367}, {"id": 363088, "video": false, "vote_count": 7534, "vote_average": 7.0, "title": "Ant-Man and the Wasp", "release_date": "2018-07-04", "original_language": "en", "original_title": "Ant-Man and the Wasp", "genre_ids": [28, 12, 35, 878], "backdrop_path": "/6P3c80EOm7BodndGBUAJHHsHKrp.jpg", "adult": false, "overview": "Just when his time under house arrest is about to end, Scott Lang once again puts his freedom at risk to help Hope van Dyne and Dr. Hank Pym dive into the quantum realm and try to accomplish, against time and any chance of success, a very dangerous rescue mission.", "poster_path": "/eivQmS3wqzqnQWILHLc4FsEfcXP.jpg", "popularity": 39.974}, {"adult": false, "backdrop_path": "/pkqkxX7tkN0QLBtOYzugtBqyu0C.jpg", "genre_ids": [35, 878, 28, 12], "id": 9531, "original_language": "en", "original_title": "Superman III", "overview": "Aiming to defeat the Man of Steel, wealthy executive Ross Webster hires bumbling but brilliant Gus Gorman to develop synthetic kryptonite, which yields some unexpected psychological effects in the third installment of the 1980s Superman franchise. Between rekindling romance with his high school sweetheart and saving himself, Superman must contend with a powerful supercomputer.", "poster_path": "/pDjfBk3YkdvRK2VERvoHaXJdNxF.jpg", "release_date": "1983-06-17", "title": "Superman III", "video": false, "vote_average": 5.4, "vote_count": 938, "popularity": 14.943}, {"id": 166424, "video": false, "vote_count": 4097, "vote_average": 4.4, "title": "Fantastic Four", "release_date": "2015-08-05", "original_language": "en", "original_title": "Fantastic Four", "genre_ids": [28, 12, 878], "backdrop_path": "/3Kgu3ys6W6UZWWFty7rlTWgST63.jpg", "adult": false, "overview": "Four young outsiders teleport to a dangerous universe, which alters their physical form in shocking ways. Their lives irrevocably upended, the team must learn to harness their daunting new abilities and work together to save Earth from a former friend turned enemy.", "poster_path": "/g23cs30dCMiG4ldaoVNP1ucjs6.jpg", "popularity": 23.552}, {"id": 263115, "video": false, "vote_count": 13404, "vote_average": 7.8, "title": "Logan", "release_date": "2017-02-28", "original_language": "en", "original_title": "Logan", "genre_ids": [28, 18, 878], "backdrop_path": "/yEv8c6i79vk06sZDC3Z9D8HQLVV.jpg", "adult": false, "overview": "In the near future, a weary Logan cares for an ailing Professor X in a hideout on the Mexican border. But Logan's attempts to hide from the world and his legacy are upended when a young mutant arrives, pursued by dark forces.", "poster_path": "/fnbjcRDYn6YviCcePDnGdyAkYsB.jpg", "popularity": 39.141}, {"id": 271110, "video": false, "vote_count": 15271, "vote_average": 7.4, "title": "Captain America: Civil War", "release_date": "2016-04-27", "original_language": "en", "original_title": "Captain America: Civil War", "genre_ids": [28, 12, 878], "backdrop_path": "/m5O3SZvQ6EgD5XXXLPIP1wLppeW.jpg", "adult": false, "overview": "Following the events of Age of Ultron, the collective governments of the world pass an act designed to regulate all superhuman activity. This polarizes opinion amongst the Avengers, causing two factions to side with Iron Man or Captain America, which causes an epic battle between former allies.", "poster_path": "/kSBXou5Ac7vEqKd97wotJumyJvU.jpg", "popularity": 41.347}, {"id": 9738, "video": false, "vote_count": 6168, "vote_average": 5.7, "title": "Fantastic Four", "release_date": "2005-06-29", "original_language": "en", "original_title": "Fantastic Four", "genre_ids": [28, 12, 14, 878], "backdrop_path": "/6RaH2Znu7dUQq7c8surf7hRp44f.jpg", "adult": false, "overview": "During a space voyage, four scientists are altered by cosmic rays: Reed Richards gains the ability to stretch his body; Sue Storm can become invisible; Johnny Storm controls fire; and Ben Grimm is turned into a super-strong \u2026 thing. Together, these \"Fantastic Four\" must now thwart the evil plans of Dr. Doom and save the world from certain destruction.", "poster_path": "/sYNOCHiWA9UDUHlPvRWztSo5hZV.jpg", "popularity": 23.086}, {"id": 10138, "video": false, "vote_count": 13577, "vote_average": 6.8, "title": "Iron Man 2", "release_date": "2010-04-28", "original_language": "en", "original_title": "Iron Man 2", "genre_ids": [28, 12, 878], "backdrop_path": "/jxdSxqAFrdioKgXwgTs5Qfbazjq.jpg", "adult": false, "overview": "With the world now aware of his dual life as the armored superhero Iron Man, billionaire inventor Tony Stark faces pressure from the government, the press and the public to share his technology with the military. Unwilling to let go of his invention, Stark, with Pepper Potts and James 'Rhodey' Rhodes at his side, must forge new alliances \u2013 and confront powerful enemies.", "poster_path": "/1LoT5WsN4Lc1aR7A18ciSA1LoMy.jpg", "popularity": 27.508}, {"id": 1771, "video": false, "vote_count": 14038, "vote_average": 6.9, "title": "Captain America: The First Avenger", "release_date": "2011-07-22", "original_language": "en", "original_title": "Captain America: The First Avenger", "genre_ids": [28, 12, 878], "backdrop_path": "/pmZtj1FKvQqISS6iQbkiLg5TAsr.jpg", "adult": false, "overview": "During World War II, Steve Rogers is a sickly man from Brooklyn who's transformed into super-soldier Captain America to aid in the war effort. Rogers must stop the Red Skull \u2013 Adolf Hitler's ruthless head of weaponry, and the leader of an organization that intends to use a mysterious device of untold powers for world domination.", "poster_path": "/vSNxAJTlD0r02V9sPYpOjqDZXUK.jpg", "popularity": 20.824}, {"id": 68721, "video": false, "vote_count": 15348, "vote_average": 6.9, "title": "Iron Man 3", "release_date": "2013-04-18", "original_language": "en", "original_title": "Iron Man 3", "genre_ids": [28, 12, 878], "backdrop_path": "/n9X2DKItL3V0yq1q1jrk8z5UAki.jpg", "adult": false, "overview": "When Tony Stark's world is torn apart by a formidable terrorist called the Mandarin, he starts an odyssey of rebuilding and retribution.", "poster_path": "/7XiGqZE8meUv7L4720L0tIDd7gO.jpg", "popularity": 25.727}, {"id": 10195, "video": false, "vote_count": 13991, "vote_average": 6.7, "title": "Thor", "release_date": "2011-04-21", "original_language": "en", "original_title": "Thor", "genre_ids": [28, 12, 14], "backdrop_path": "/LvmmDZxkTDqp0DX7mUo621ahdX.jpg", "adult": false, "overview": "Against his father Odin's will, The Mighty Thor - a powerful but arrogant warrior god - recklessly reignites an ancient war. Thor is cast down to Earth and forced to live among humans as punishment. Once here, Thor learns what it takes to be a true hero when the most dangerous villain of his world sends the darkest forces of Asgard to invade Earth.", "poster_path": "/9zDwvsISU8bR15R2yN3kh1lfqve.jpg", "popularity": 33.381}, {"adult": false, "backdrop_path": "/ZQixhAZx6fH1VNafFXsqa1B8QI.jpg", "genre_ids": [28, 878, 12], "id": 1726, "original_language": "en", "original_title": "Iron Man", "overview": "After being held captive in an Afghan cave, billionaire engineer Tony Stark creates a unique weaponized suit of armor to fight evil.", "poster_path": "/78lPtwv72eTNqFW9COBYI0dWDJa.jpg", "release_date": "2008-04-30", "title": "Iron Man", "video": false, "vote_average": 7.6, "vote_count": 17248, "popularity": 39.852}, {"adult": false, "backdrop_path": "/o5T8rZxoWSBMYwjsUFUqTt6uMQB.jpg", "genre_ids": [28, 12, 14, 878], "id": 141052, "original_language": "en", "original_title": "Justice League", "overview": "Fuelled by his restored faith in humanity and inspired by Superman's selfless act, Bruce Wayne and Diana Prince assemble a team of metahumans consisting of Barry Allen, Arthur Curry and Victor Stone to face the catastrophic threat of Steppenwolf and the Parademons who are on the hunt for three Mother Boxes on Earth.", "poster_path": "/eifGNCSDuxJeS1loAXil5bIGgvC.jpg", "release_date": "2017-11-15", "title": "Justice League", "video": false, "vote_average": 6.2, "vote_count": 8353, "popularity": 37.398}, {"id": 99861, "video": false, "vote_count": 14870, "vote_average": 7.3, "title": "Avengers: Age of Ultron", "release_date": "2015-04-22", "original_language": "en", "original_title": "Avengers: Age of Ultron", "genre_ids": [28, 12, 878], "backdrop_path": "/rFtsE7Lhlc2jRWF7SRAU0fvrveQ.jpg", "adult": false, "overview": "When Tony Stark tries to jumpstart a dormant peacekeeping program, things go awry and Earth\u2019s Mightiest Heroes are put to the ultimate test as the fate of the planet hangs in the balance. As the villainous Ultron emerges, it is up to The Avengers to stop him from enacting his terrible plans, and soon uneasy alliances and unexpected action pave the way for an epic and unique global adventure.", "poster_path": "/t90Y3G8UGQp0f0DrP60wRu9gfrH.jpg", "popularity": 38.75}, {"id": 100402, "video": false, "vote_count": 12142, "vote_average": 7.7, "title": "Captain America: The Winter Soldier", "release_date": "2014-03-20", "original_language": "en", "original_title": "Captain America: The Winter Soldier", "genre_ids": [28, 12, 878], "backdrop_path": "/4qfXT9BtxeFuamR4F49m2mpKQI1.jpg", "adult": false, "overview": "After the cataclysmic events in New York with The Avengers, Steve Rogers, aka Captain America is living quietly in Washington, D.C. and trying to adjust to the modern world. But when a S.H.I.E.L.D. colleague comes under attack, Steve becomes embroiled in a web of intrigue that threatens to put the world at risk. Joining forces with the Black Widow, Captain America struggles to expose the ever-widening conspiracy while fighting off professional assassins sent to silence him at every turn. When the full scope of the villainous plot is revealed, Captain America and the Black Widow enlist the help of a new ally, the Falcon. However, they soon find themselves up against an unexpected and formidable enemy\u2014the Winter Soldier.", "poster_path": "/5TQ6YDmymBpnF005OyoB7ohZps9.jpg", "popularity": 20.643}, {"id": 299537, "video": false, "vote_count": 8124, "vote_average": 7.0, "title": "Captain Marvel", "release_date": "2019-03-06", "original_language": "en", "original_title": "Captain Marvel", "genre_ids": [28, 12, 878], "backdrop_path": "/w2PMyoyLU22YvrGK3smVM9fW1jj.jpg", "adult": false, "overview": "The story follows Carol Danvers as she becomes one of the universe\u2019s most powerful heroes when Earth is caught in the middle of a galactic war between two alien races. Set in the 1990s, Captain Marvel is an all-new adventure from a previously unseen period in the history of the Marvel Cinematic Universe.", "poster_path": "/AtsgWhDnHTq68L0lLsUrCnM7TjG.jpg", "popularity": 45.261}], "total_pages": 51, "total_results": 1020}, "recommendations": {"page": 1, "results": [], "total_pages": 1, "total_results": 0}, "credits": {"cast": [{"cast_id": 9, "character": "Homelius", "credit_id": "5addd1f8c3a368521c00ced8", "gender": 2, "id": 122402, "name": "Kari V\u00e4\u00e4n\u00e4nen", "order": 1, "profile_path": "/c1c5RKleFTAYurog000UUVsRnK8.jpg"}, {"cast_id": 10, "character": "Rivo-Riitta", "credit_id": "5addd20c0e0a26143c037ae3", "gender": 0, "id": 1608261, "name": "Jenni Kokander", "order": 2, "profile_path": null}, {"cast_id": 11, "character": "Heimo Vesa", "credit_id": "5addd2180e0a26437100bd0d", "gender": 2, "id": 1132167, "name": "Santtu Karvonen", "order": 3, "profile_path": "/tuZJm8MwDXkRKzZIpyf7agPat8K.jpg"}, {"cast_id": 12, "character": "Krapula-P\u00e4ivi", "credit_id": "5addd228c3a368522b00c8cc", "gender": 1, "id": 1047928, "name": "Pirjo Lonka", "order": 4, "profile_path": "/2B2yGgZ8fYYk8qF31xzkXDDnvQK.jpg"}, {"cast_id": 13, "character": "Allan Kurma", "credit_id": "5addd2359251410ac7032ff8", "gender": 2, "id": 1040511, "name": "Aku Hirviniemi", "order": 5, "profile_path": "/tUGT6SySb5xCFnc98TKgY9fZ7Ff.jpg"}], "crew": [{"credit_id": "5addd285c3a368525800cb01", "department": "Production", "gender": 0, "id": 5981, "job": "Executive Producer", "name": "Markus Selin", "profile_path": "/mauLJMwzQdehzsnClkyvzMLQjoY.jpg"}, {"credit_id": "5addd29a9251410ac7033056", "department": "Production", "gender": 0, "id": 5988, "job": "Executive Producer", "name": "Jukka Helle", "profile_path": null}, {"credit_id": "5aaa5ada925141056a00b196", "department": "Writing", "gender": 2, "id": 108474, "job": "Screenplay", "name": "Mikko Kouki", "profile_path": "/dwmRRfnB4tSl9x1cnpxOX2s5RQ7.jpg"}, {"credit_id": "579a0ccbc3a3682d4f004374", "department": "Directing", "gender": 2, "id": 108474, "job": "Director", "name": "Mikko Kouki", "profile_path": "/dwmRRfnB4tSl9x1cnpxOX2s5RQ7.jpg"}, {"credit_id": "579a0c699251413f1500426f", "department": "Writing", "gender": 0, "id": 1657889, "job": "Comic Book", "name": "Pertti Jarla", "profile_path": null}, {"credit_id": "5addd26a0e0a2608b000e6c8", "department": "Production", "gender": 0, "id": 1676482, "job": "Producer", "name": "Nina Laurio", "profile_path": null}, {"credit_id": "5aaa5ae5925141057000b252", "department": "Writing", "gender": 0, "id": 1932214, "job": "Screenplay", "name": "Petja L\u00e4hde", "profile_path": null}]}}