{"adult": false, "backdrop_path": "/gSQbADpRSuRDdW849frwZ8Ls9SP.jpg", "belongs_to_collection": null, "budget": 0, "genres": [{"id": 35, "name": "Comedy"}], "homepage": "", "id": 408546, "imdb_id": "tt5943936", "original_language": "en", "original_title": "David Cross: Making America Great Again", "overview": "With nothing off-limits, David Cross is unapologetic, insightful, and biting in his Netflix original stand-up comedy special, MAKING AMERICA GREAT AGAIN. Filmed live at The Paramount Theatre in Austin, TX, Cross takes aim the current political landscape.", "popularity": 5.026, "poster_path": "/56PQtVg4SGhttbMBPHJobCWQEXJ.jpg", "production_companies": [], "production_countries": [{"iso_3166_1": "US", "name": "United States of America"}], "release_date": "2016-08-06", "revenue": 0, "runtime": 74, "spoken_languages": [{"iso_639_1": "en", "name": "English"}], "status": "Released", "tagline": "", "title": "David Cross: Making America Great Again", "video": false, "vote_average": 6.5, "vote_count": 26, "keywords": {"keywords": [{"id": 9716, "name": "stand-up comedy"}]}, "similar": {"page": 1, "results": [{"id": 444705, "video": false, "vote_count": 131, "vote_average": 7.9, "title": "Dave Chappelle: The Age of Spin", "release_date": "2017-03-21", "original_language": "en", "original_title": "Dave Chappelle: The Age of Spin", "genre_ids": [35], "backdrop_path": "/xlwFzTxkqoBm3dLkfPSZU0rWS9L.jpg", "adult": false, "overview": "Comedy icon Dave Chappelle makes his triumphant return to the screen with a pair of blistering, fresh stand-up specials. Filmed at The Palladium in Los Angeles, California, in March 2016.", "poster_path": "/lFGP9COk4X3sBqrkUpbQ78GdnZm.jpg", "popularity": 10.751}, {"adult": false, "backdrop_path": "/wggEfOyXd356KAKyYeiWXGr7mYs.jpg", "genre_ids": [35], "id": 35595, "original_language": "en", "original_title": "Dave Chappelle: HBO Comedy Half-Hour", "overview": "Dave gets his own HBO special, filmed in San Francisco", "poster_path": "/AuQLSJRADu0ZnftllkSYpjRwn4U.jpg", "release_date": "1998-01-09", "title": "Dave Chappelle: HBO Comedy Half-Hour", "video": false, "vote_average": 6.8, "vote_count": 21, "popularity": 2.876}, {"id": 52345, "video": false, "vote_count": 221, "vote_average": 7.8, "title": "Lisbela and the Prisoner", "release_date": "2003-08-22", "original_language": "pt", "original_title": "Lisbela e o Prisioneiro", "genre_ids": [35, 10749], "backdrop_path": "/4KDlC0cZvR5LtszqjFhZcMzdiUD.jpg", "adult": false, "overview": "Lisbela is a young woman who loves going to the movies. Lel\u00e9u is a con man, going from town to town selling all sort of things and performing as master of ceremonies for some cheesy numbers, such as the woman who gets transformed into a gorilla. He gets involved with Linaura, a sexy and beautiful woman who happens to be the wife of the most frightening hitman of the place. The hitman finds out his wife's affair and goes after Lel\u00e9u, who has to leave in a hurry. In another town, he meets and falls instantly in love with Lisbela, who is engaged to Douglas, a hillbilly who tries hard to pass for a cosmopolitan Rio de Janeiro dweller.", "poster_path": "/9nlaRxQeYaMrVVANMppagFohCRP.jpg", "popularity": 1.042}, {"adult": false, "backdrop_path": null, "genre_ids": [35], "id": 637573, "original_language": "en", "original_title": "Daniel Sloss: X", "overview": "A new comedy special performed by Daniel Sloss.", "poster_path": "/b3DxLUvcp5hRXtTa4pv2wRAuY4P.jpg", "release_date": "2019-11-02", "title": "Daniel Sloss: X", "video": false, "vote_average": 10.0, "vote_count": 1, "popularity": 2.906}, {"id": 11072, "video": false, "vote_count": 1036, "vote_average": 7.3, "title": "Blazing Saddles", "release_date": "1974-02-07", "original_language": "en", "original_title": "Blazing Saddles", "genre_ids": [35, 37], "backdrop_path": "/tCitxLKMzCxexGlSg4g4IDVC3RM.jpg", "adult": false, "overview": "A town\u2014where everyone seems to be named Johnson\u2014stands in the way of the railroad. In order to grab their land, robber baron Hedley Lemar sends his henchmen to make life in the town unbearable. After the sheriff is killed, the town demands a new sheriff from the Governor, so Hedley convinces him to send the town the first black sheriff in the west.", "poster_path": "/yccgwPNVaqtgS1d0U5jjM6Mnza8.jpg", "popularity": 16.616}, {"id": 49013, "video": false, "vote_count": 4530, "vote_average": 5.9, "title": "Cars 2", "release_date": "2011-06-11", "original_language": "en", "original_title": "Cars 2", "genre_ids": [12, 16, 35, 10751], "backdrop_path": "/jEcmZhtJkZQc6ta2vzBd9CU7GIx.jpg", "adult": false, "overview": "Star race car Lightning McQueen and his pal Mater head overseas to compete in the World Grand Prix race. But the road to the championship becomes rocky as Mater gets caught up in an intriguing adventure of his own: international espionage.", "poster_path": "/AblhtULOVtrkSnFxRPQ8gBemxw9.jpg", "popularity": 25.278}, {"adult": false, "backdrop_path": "/fBYnaVOcc2Ghfkv473z0xdBRQ0m.jpg", "genre_ids": [10751, 16, 12, 35], "id": 270946, "original_language": "en", "original_title": "Penguins of Madagascar", "overview": "Skipper, Kowalski, Rico and Private join forces with undercover organization The North Wind to stop the villainous Dr. Octavius Brine from destroying the world as we know it.", "poster_path": "/pRer59eyY4rjkLPeKXKo7fPxCHH.jpg", "release_date": "2014-11-22", "title": "Penguins of Madagascar", "video": false, "vote_average": 6.4, "vote_count": 2485, "popularity": 27.36}, {"id": 9647, "video": false, "vote_count": 786, "vote_average": 6.9, "title": "Scrooged", "release_date": "1988-11-22", "original_language": "en", "original_title": "Scrooged", "genre_ids": [35, 18, 14], "backdrop_path": "/6xezVJoUp0cZUBQeIDpW6lFuhcd.jpg", "adult": false, "overview": "In this modern take on Charles Dickens' \"A Christmas Carol,\" Frank Cross (Bill Murray) is a wildly successful television executive whose cold ambition and curmudgeonly nature has driven away the love of his life, Claire Phillips (Karen Allen). But after firing a staff member, Eliot Loudermilk (Bobcat Goldthwait), on Christmas Eve, Frank is visited by a series of ghosts who give him a chance to re-evaluate his actions and right the wrongs of his past.", "poster_path": "/uO0znfB2ZzTXA1IS7jkrjNbpkYK.jpg", "popularity": 17.767}, {"adult": false, "backdrop_path": "/c42tFwWNHc8jJ49Zb0yqSAqr5TM.jpg", "genre_ids": [12, 35, 10751, 14, 16], "id": 228165, "original_language": "en", "original_title": "The SpongeBob Movie: Sponge Out of Water", "overview": "Burger Beard is a pirate who is in search of the final page of a magical book that makes any evil plan he writes in it come true, which happens to be the Krabby Patty secret formula. When the entire city of Bikini Bottom is put in danger, SpongeBob, Patrick, Mr. Krabs, Squidward, Sandy, and Plankton need to go on a quest that takes them to the surface. In order to get back the recipe and save their city, the gang must retrieve the book and transform themselves into superheroes.", "poster_path": "/9wChSuUoQDiBKUnGTcYMkzRha60.jpg", "release_date": "2015-01-28", "title": "The SpongeBob Movie: Sponge Out of Water", "video": false, "vote_average": 5.8, "vote_count": 1273, "popularity": 28.626}, {"id": 703, "video": false, "vote_count": 2272, "vote_average": 7.8, "title": "Annie Hall", "release_date": "1977-04-19", "original_language": "en", "original_title": "Annie Hall", "genre_ids": [35, 18, 10749], "backdrop_path": "/8iNt5LGxpX9XeNWJgjx17xfTT7u.jpg", "adult": false, "overview": "New York comedian Alvy Singer falls in love with the ditsy Annie Hall.", "poster_path": "/bK9bLXwxWuXX5mbq75PZqjvAtfG.jpg", "popularity": 14.556}, {"id": 528888, "video": false, "vote_count": 353, "vote_average": 7.1, "title": "Dolemite Is My Name", "release_date": "2019-10-04", "original_language": "en", "original_title": "Dolemite Is My Name", "genre_ids": [35, 18, 36], "backdrop_path": "/8FuiFasbeFQj24Vqx6JqSCqj5lO.jpg", "adult": false, "overview": "The story of Rudy Ray Moore, who created the iconic big screen pimp character Dolemite in the 1970s.", "poster_path": "/uoAqJg7ZSmftnBGOkupU1ySZQU0.jpg", "popularity": 37.46}, {"adult": false, "backdrop_path": "/oKUzgU9BWw218fT8SFGPrhRwcbf.jpg", "genre_ids": [35, 99], "id": 32930, "original_language": "en", "original_title": "Bill Maher... But I'm Not Wrong", "overview": "In front of a live audience at the Raleigh Memorial Auditorium at the Progress Energy Center for the Performing Arts in Raleigh, North Carolina, the Emmy-nominated host of Real Time with Bill Maher performs an all-new hour of stand-up comedy.  Among the topics Bill discusses in his ninth HBO solo special are: Whether the \"Great Recession\" is really over; the fake patriotism of the right wing; what goes on in the mind of a terrorist; why Obama needs a posse instead of the secret service; the drug war; Michael Jackson; getting out of Iraq and Afghanistan; racism; the Teabagger movement; religion; the health-care fight; why Gov. Mark Sanford will come out looking good, and how silly it is to ask \"Why do men cheat?\"; and why comedy most definitely didn't die when George Bush left office.", "poster_path": "/dAPT89WS1Lx81tfqHQMNqxlQKJx.jpg", "release_date": "2010-02-18", "title": "Bill Maher... But I'm Not Wrong", "video": false, "vote_average": 6.7, "vote_count": 17, "popularity": 4.291}, {"id": 394741, "video": false, "vote_count": 498, "vote_average": 7.0, "title": "Stan & Ollie", "release_date": "2018-12-28", "original_language": "en", "original_title": "Stan & Ollie", "genre_ids": [35, 18], "backdrop_path": "/bH7ax3A4Pxlh5ddG4d3HNDMlhK4.jpg", "adult": false, "overview": "With their golden era long behind them, comedy duo Stan Laurel and Oliver Hardy embark on a variety hall tour of Britain and Ireland. Despite the pressures of a hectic schedule, and with the support of their wives Lucille and Ida \u2013 a formidable double act in their own right \u2013 the pair's love of performing, as well as for each other, endures as they secure their place in the hearts of their adoring public", "poster_path": "/8qDBDXA8Od8gc4IQMnoXUKyj8Pf.jpg", "popularity": 14.809}, {"adult": false, "backdrop_path": "/bQW1TnxHlmkWof0vsALj4HBkoxj.jpg", "genre_ids": [18, 10749], "id": 51828, "original_language": "en", "original_title": "One Day", "overview": "A romantic comedy centered on Dexter and Emma, who first meet during their graduation in 1988 and proceed to keep in touch regularly. The film follows what they do on July 15 annually, usually doing something together.", "poster_path": "/xzOz17yC3K6SZWtWylXimcHUqpD.jpg", "release_date": "2011-03-02", "title": "One Day", "video": false, "vote_average": 7.2, "vote_count": 2343, "popularity": 16.744}, {"adult": false, "backdrop_path": "/7ApilgVwA0rjhl92GFTzW0FLGBG.jpg", "genre_ids": [10749, 10770], "id": 427045, "original_language": "en", "original_title": "A December Bride", "overview": "Aspiring interior designer Layla is dreading the Christmastime wedding of her cousin who\u2019s marrying Layla\u2019s ex-fianc\u00e9. Although Seth is the one responsible for introducing the bride and groom, she begrudgingly accepts his offer to be her date as she\u2019s out of options. Seth gets carried away at the reception and announces they\u2019re engaged, forcing a mortified Layla to keep up the pretense.", "poster_path": "/o1jAel6EasQkLPUj0TcDOJB2btE.jpg", "release_date": "2016-11-20", "title": "A December Bride", "video": false, "vote_average": 6.5, "vote_count": 66, "popularity": 9.01}, {"adult": false, "backdrop_path": "/5OeY4U2rzePxWq2rkqMajUx2gz7.jpg", "genre_ids": [16, 10751, 12, 14, 10749], "id": 812, "original_language": "en", "original_title": "Aladdin", "overview": "Princess Jasmine grows tired of being forced to remain in the palace, so she sneaks out into the marketplace, in disguise, where she meets street-urchin Aladdin.  The couple falls in love, although Jasmine may only marry a prince.  After being thrown in jail, Aladdin becomes embroiled in a plot to find a mysterious lamp, with which the evil Jafar hopes to rule the land.", "poster_path": "/mjKozYRuHc9j7SmiXmbVmCiAM0A.jpg", "release_date": "1992-11-25", "title": "Aladdin", "video": false, "vote_average": 7.6, "vote_count": 7289, "popularity": 35.494}, {"id": 23483, "video": false, "vote_count": 8165, "vote_average": 7.1, "title": "Kick-Ass", "release_date": "2010-03-22", "original_language": "en", "original_title": "Kick-Ass", "genre_ids": [28, 80], "backdrop_path": "/ngPkB9K8ZpIjv8HpIC8ExqAfG6H.jpg", "adult": false, "overview": "Dave Lizewski is an unnoticed high school student and comic book fan who one day decides to become a super-hero, even though he has no powers, training or meaningful reason to do so.", "poster_path": "/gtfggr5n3ED1neoTqVYmsVCoSS.jpg", "popularity": 24.282}, {"id": 67308, "video": false, "vote_count": 44, "vote_average": 4.8, "title": "3-D Sex and Zen: Extreme Ecstasy", "release_date": "2011-04-14", "original_language": "cn", "original_title": "3D\u8089\u84b2\u5718\u4e4b\u6975\u6a02\u5bf6\u9451", "genre_ids": [12, 18, 10749], "backdrop_path": "/xHsqBcDy5VvV4MuI974HuIoRRQc.jpg", "adult": false, "overview": "Loosely based on a 17th century erotic Chinese story named The Carnal Prayer Mat, the story follows a young scholar named Yangsheng who gets married to the beautiful daughter of a local merchant. When their sex life proves unsatisfactory, Yangsheng leaves home and journeys to the Pavilion of Ultimate Bliss.", "poster_path": "/dEb0Kb0xmUuHmO1Dk4WKHuaw5Cw.jpg", "popularity": 27.871}, {"id": 475557, "video": false, "vote_count": 8109, "vote_average": 8.3, "title": "Joker", "release_date": "2019-10-02", "original_language": "en", "original_title": "Joker", "genre_ids": [80, 18, 53], "backdrop_path": "/n6bUvigpRFqSwmPp1m2YADdbRBc.jpg", "adult": false, "overview": "During the 1980s, a failed stand-up comedian is driven insane and turns to a life of crime and chaos in Gotham City while becoming an infamous psychopathic crime figure.", "poster_path": "/udDclJoHjfjb8Ekgsd4FDteOkCU.jpg", "popularity": 231.13}, {"id": 16290, "video": false, "vote_count": 736, "vote_average": 6.3, "title": "Jackass 3D", "release_date": "2010-10-15", "original_language": "en", "original_title": "Jackass 3D", "genre_ids": [28, 35, 99], "backdrop_path": "/9g907Zc9ezEF28TGyDcnMEpyzxz.jpg", "adult": false, "overview": "Jackass 3D is a 3-D film and the third movie of the Jackass series. It follows the same premise as the first two movies, as well as the TV series. It is a compilation of various pranks, stunts and skits. Before the movie begins, a brief introduction is made by Beavis and Butt-head explaining the 3D technology behind the movie. The intro features the cast lining up and then being attacked by various objects in slow-motion. The movie marks the 10th anniversary of the franchise, started in 2000.", "poster_path": "/5j9VFEVjYn0FtqZGqDcmMPYSVoY.jpg", "popularity": 18.349}], "total_pages": 137, "total_results": 2736}, "recommendations": {"page": 1, "results": [{"adult": false, "backdrop_path": "/2HlphiMaFAVGuObByddZzwPr748.jpg", "genre_ids": [35], "id": 366692, "original_language": "en", "original_title": "Margaret Cho: PsyCHO", "overview": "Three-time Grammy and Emmy nominated comedian Margaret Cho performs in front of a live audience in this provocative and hilarious comedy special event, tackling off-limits issues from Boko Haram to female empowerment with her razor sharp insight and wit.", "poster_path": "/cTE5cZQmnI8JCmI9Nopp3ZZ7HJ2.jpg", "release_date": "2015-09-25", "title": "Margaret Cho: PsyCHO", "video": false, "vote_average": 6.3, "vote_count": 10, "popularity": 3.334}, {"adult": false, "backdrop_path": "/fAvC6C6x6Z8ZdQA4KXkrLxDmoQ8.jpg", "genre_ids": [35], "id": 392891, "original_language": "en", "original_title": "Patton Oswalt: Talking for Clapping", "overview": "Patton Oswalt delivers a fresh hour plus of stand-up, covering everything from misery to defeat to hopelessness. It's his most upbeat special to date.", "poster_path": "/egYF3ze0DdeFSqpA5wbSGUQdEj2.jpg", "release_date": "2016-04-22", "title": "Patton Oswalt: Talking for Clapping", "video": false, "vote_average": 6.7, "vote_count": 35, "popularity": 3.355}, {"adult": false, "backdrop_path": "/1qF9Dxx0vBarEAoXtlsAKB8zBWR.jpg", "genre_ids": [35], "id": 425003, "original_language": "en", "original_title": "Colin Quinn: The New York Story", "overview": "The \"SNL\" veteran performs his off-Broadway show about the history of New York and the people who shape its personality.", "poster_path": "/140oOTuz1UIdSlJ2yOkMgOmF0xl.jpg", "release_date": "2016-11-18", "title": "Colin Quinn: The New York Story", "video": false, "vote_average": 6.1, "vote_count": 10, "popularity": 2.886}, {"adult": false, "backdrop_path": "/9O2Pwz33hG3YZ4XsKK5vkpwdeU8.jpg", "genre_ids": [35], "id": 429126, "original_language": "en", "original_title": "Reggie Watts: Spatial", "overview": "The comic innovator delivers a surreal set blending experimental songs, jokes about grits, guns and drugs, and other improvised comedy adventures.", "poster_path": "/iutPEZ2YzWu576JvBOOaiwGFMi1.jpg", "release_date": "2016-12-06", "title": "Reggie Watts: Spatial", "video": false, "vote_average": 6.0, "vote_count": 12, "popularity": 2.439}, {"adult": false, "backdrop_path": null, "genre_ids": [35], "id": 416290, "original_language": "en", "original_title": "Cedric the Entertainer: Live from the Ville", "overview": "Donning his signature suit and fedora, the dapper comic offers a unique spin on getting old, the presidential election and \"Honky Tonk Badonkadonk.\"", "poster_path": "/z6ch0e7xuoae0JLLtJoVLyDcIKs.jpg", "release_date": "2016-09-16", "title": "Cedric the Entertainer: Live from the Ville", "video": false, "vote_average": 5.8, "vote_count": 12, "popularity": 2.965}, {"id": 378137, "video": false, "vote_count": 36, "vote_average": 6.4, "title": "Hannibal Buress: Comedy Camisado", "release_date": "2016-02-05", "original_language": "en", "original_title": "Hannibal Buress: Comedy Camisado", "genre_ids": [35], "backdrop_path": "/ct5MVqyiYZn9TEE7l2VUr4F5935.jpg", "adult": false, "overview": "He's a kamikaze gambler. A one-arm cuddler. And if his fly is down, so be it. A night of sly riffs and slow burns.", "poster_path": "/oPSom5l7110UaMmLc1gmGbXCY7W.jpg", "popularity": 4.66}, {"adult": false, "backdrop_path": "/nuu5M3tfTdngW5t9mGJOtIU0eRL.jpg", "genre_ids": [], "id": 354544, "original_language": "en", "original_title": "Demetri Martin: Live (At The Time)", "overview": "Demetri Martin brings his off-kilter take on acoustic guitar, hairless cats, color schemes, and the word \"nope\" to Washington in his original special.", "poster_path": "/zDIQD5gAgCTOWkhGZevn9S6Sk7h.jpg", "release_date": "2015-08-14", "title": "Demetri Martin: Live (At The Time)", "video": false, "vote_average": 7.3, "vote_count": 34, "popularity": 7.509}, {"adult": false, "backdrop_path": "/qJ0MU3Ln21q7KqcM5UUeL9KjjMv.jpg", "genre_ids": [], "id": 391899, "original_language": "en", "original_title": "Hannibal Buress: Hannibal Takes Edinburgh", "overview": "Hannibal Buress braves Scotland's epic Fringe festival in Edinburgh, performing dozens of wry stand-up sets and testing new material on the locals.", "poster_path": "/bHuSJ2QKg2WnKS8t4JgR1Nd8yny.jpg", "release_date": "2016-04-08", "title": "Hannibal Buress: Hannibal Takes Edinburgh", "video": false, "vote_average": 5.8, "vote_count": 13, "popularity": 3.321}, {"adult": false, "backdrop_path": "/imm2uhsJN22GsZawK1pIjBE7WWA.jpg", "genre_ids": [35], "id": 24439, "original_language": "en", "original_title": "Joe Rogan: Live", "overview": "Regardless of Joe Rogan's success on television with the Ultimate Fighting Championship or hosting Fear Factor or co-starring in NewsRadio, his true love is stand-up comedy. With more than 15 years as a touring comedian, Rogan has honed an opinionated comedic style that challenges the status quo. From his unorthodox ideas for peace in the Middle East to debunking the myth of Noah's Ark and appreciating the vastness of space - all of the energy of a live Joe Rogan performance is captured on Joe Rogan: Live!", "poster_path": "/35Y6mg8AS4pVnYHj4AmvlMYWAb0.jpg", "release_date": "2006-09-19", "title": "Joe Rogan: Live", "video": false, "vote_average": 6.4, "vote_count": 15, "popularity": 2.695}, {"adult": false, "backdrop_path": "/1TnaT1RYaIjOwU5M0wRAJ1y9TEA.jpg", "genre_ids": [35], "id": 376482, "original_language": "en", "original_title": "Tom Segura: Mostly Stories", "overview": "The bearded, bawdy, and comically bitter Tom Segura gets real about body piercings, the \"Area 51\" of men's bodies, and the lie he told Mike Tyson.", "poster_path": "/wELcQAA77XLqYL09wZH5FAMkmnU.jpg", "release_date": "2016-01-08", "title": "Tom Segura: Mostly Stories", "video": false, "vote_average": 7.5, "vote_count": 34, "popularity": 3.873}, {"adult": false, "backdrop_path": "/iW0BnKdQRKN7ZAWGQCiuSiN1vbP.jpg", "genre_ids": [35], "id": 403173, "original_language": "en", "original_title": "Pete Johansson: You Might Also Enjoy Pete Johansson", "overview": "In Amsterdam, stand-up comedian Pete Johansson unleashes his fierce observational wit on a host of subjects, from bears and bees to sex and marriage.", "poster_path": "/oH0mHcq4gLcRcZHB798j7O0gDKS.jpg", "release_date": "2016-06-15", "title": "Pete Johansson: You Might Also Enjoy Pete Johansson", "video": false, "vote_average": 5.8, "vote_count": 5, "popularity": 1.943}, {"adult": false, "backdrop_path": "/c9HFU6XUyaRZ4VJ0xMM4bEfXR6R.jpg", "genre_ids": [99], "id": 337944, "original_language": "en", "original_title": "Southern Rites", "overview": "Southern Rites visits Montgomery County, Ga., one year after the town merged its racially segregated proms, and during a historic election campaign that may lead to its first African-American sheriff. Acclaimed photographer Gillian Laub, whose photos first brought the area unwanted notoriety, documents the repercussions when a white town resident is charged with the murder of a young black man. The case divides locals along well-worn racial lines, and the ensuing plea bargain and sentencing uncover complex truths and produce emotional revelations.", "poster_path": "/xplfeQRFqI3SBLMDxt4CPtopy8u.jpg", "release_date": "2015-05-18", "title": "Southern Rites", "video": false, "vote_average": 5.8, "vote_count": 5, "popularity": 2.916}, {"adult": false, "backdrop_path": "/5mvB0czpsp4saUYlzfs62t6cnOS.jpg", "genre_ids": [35], "id": 396109, "original_language": "en", "original_title": "Gary Gulman: It's About Time", "overview": "Netflix presents standup and two-time Last Comic Standing finalist Gary Gulman. Titled It\u2019s About Time, the tour marks Gulman\u2019s 20th year in comedy and stops at the Bowery Ballroom in New York.", "poster_path": "/cCrBOXkFVV8aVyF73cMDpRnhJiu.jpg", "release_date": "2016-05-01", "title": "Gary Gulman: It's About Time", "video": false, "vote_average": 6.7, "vote_count": 7, "popularity": 3.356}, {"adult": false, "backdrop_path": "/dQh5e1LyNeniGpZXCg0NuV7zGw1.jpg", "genre_ids": [35], "id": 134469, "original_language": "en", "original_title": "Demetri Martin: Standup Comedian", "overview": "Demetri Martin entertains the New York City audience with a terrific set that brings the hysterical wonders of his smart, quick witted imagination to life.", "poster_path": "/uMTdTXIDZGWEHy8B0oykzkGkUyp.jpg", "release_date": "2012-10-02", "title": "Demetri Martin: Standup Comedian", "video": false, "vote_average": 7.1, "vote_count": 6, "popularity": 2.39}, {"adult": false, "backdrop_path": "/yg3Fe31wrX10NkB8OB5zX6VEuIh.jpg", "genre_ids": [35], "id": 13591, "original_language": "en", "original_title": "Eddie Izzard: Unrepeatable", "overview": "Recorded one night at the Albert Theatre in March 1994, when Eddie Izzard was playing a limited seven week sold-out run of his celebrated stand-up show.", "poster_path": "/j3LrXX91Bt4zn6TV9X5HjIgPk7s.jpg", "release_date": "1994-10-03", "title": "Eddie Izzard: Unrepeatable", "video": false, "vote_average": 7.5, "vote_count": 19, "popularity": 4.003}, {"adult": false, "backdrop_path": null, "genre_ids": [35], "id": 354818, "original_language": "en", "original_title": "Colin Quinn: Unconstitutional", "overview": "Colin Quinn returns to the stage in UNCONSTITUTIONAL where he tackles 226 years of American Constitutional calamities in 70 Minutes.", "poster_path": "/oriNQCVXSkZrR6hz7Pyf58ZrXpV.jpg", "release_date": "2015-08-16", "title": "Colin Quinn: Unconstitutional", "video": false, "vote_average": 6.6, "vote_count": 7, "popularity": 2.578}, {"id": 432959, "video": false, "vote_count": 46, "vote_average": 7.2, "title": "Jim Gaffigan: Cinco", "release_date": "2017-01-10", "original_language": "en", "original_title": "Jim Gaffigan: Cinco", "genre_ids": [35], "backdrop_path": "/AfKs5Tzuvk4rGtsM16aPcdPYesL.jpg", "adult": false, "overview": "America's king of clean comedy delivers wickedly funny jokes in his fifth hour-long special.", "poster_path": "/mfGQ4j5f6AN9HwI0DPXlv5V3gvS.jpg", "popularity": 4.32}, {"adult": false, "backdrop_path": "/iqxugYPt6ogHgX7YsiWGrGV6TxL.jpg", "genre_ids": [35], "id": 263111, "original_language": "en", "original_title": "Jim Gaffigan: Obsessed", "overview": "Jim Gaffigan bursts back on the scene with this eagerly anticipated fourth comedy special. Dubbed the \"King of Clean Comedy\" by The Wall Street Journal, Jim's obsession with all things food comes to fruition on Obsessed as he tackles a cornucopia of new food topics from fruit to seafood to donuts. Get ready for 70 minutes of non-stop laughs at Jim's twisted-yet-enlightened observations on the seemingly mundane topics that have made him a fixture in the comedy world for audiences of all ages.", "poster_path": "/sn4W4ecr8AwGsccEJNrGmPdT06Y.jpg", "release_date": "2014-04-27", "title": "Jim Gaffigan: Obsessed", "video": false, "vote_average": 7.4, "vote_count": 39, "popularity": 4.781}, {"adult": false, "backdrop_path": "/kW6RhAat32EScHGKS3HIUxvSZvI.jpg", "genre_ids": [35], "id": 423122, "original_language": "en", "original_title": "Dana Carvey: Straight White Male, 60", "overview": "Emmy-winning comedian Dana Carvey blends pitch-perfect tales on big personalities with so-true-it-hurts stories from his life as a dad of millennials.", "poster_path": "/fL0q2Po8uD75wcU2mu8MPN4pjge.jpg", "release_date": "2016-11-04", "title": "Dana Carvey: Straight White Male, 60", "video": false, "vote_average": 6.6, "vote_count": 34, "popularity": 3.983}, {"adult": false, "backdrop_path": "/xo9owekkJw3R9E8hUnP0Wt1gnGJ.jpg", "genre_ids": [35], "id": 456193, "original_language": "en", "original_title": "Norm Macdonald: Hitler's Dog, Gossip & Trickery", "overview": "In this new stand-up special, Norm Macdonald delivers sly, deadpan observations from an older -- and perhaps even wiser -- point of view.", "poster_path": "/mgkqgiNWaNC4BkUi9MXnGzJ6unV.jpg", "release_date": "2017-05-09", "title": "Norm Macdonald: Hitler's Dog, Gossip & Trickery", "video": false, "vote_average": 7.3, "vote_count": 32, "popularity": 4.614}], "total_pages": 2, "total_results": 40}, "credits": {"cast": [{"cast_id": 0, "character": "Himself", "credit_id": "579a7747c3a3687e5f000e48", "gender": 2, "id": 212, "name": "David Cross", "order": 1, "profile_path": "/bQemK8gYHSbxBtYb7FtHstAgLgA.jpg"}], "crew": [{"credit_id": "57c0adf1c3a3684b230000ef", "department": "Production", "gender": 2, "id": 212, "job": "Executive Producer", "name": "David Cross", "profile_path": "/bQemK8gYHSbxBtYb7FtHstAgLgA.jpg"}, {"credit_id": "57a816a89251417750002929", "department": "Writing", "gender": 2, "id": 212, "job": "Writer", "name": "David Cross", "profile_path": "/bQemK8gYHSbxBtYb7FtHstAgLgA.jpg"}, {"credit_id": "57c0ae13c3a3684bbf0000b3", "department": "Production", "gender": 0, "id": 143322, "job": "Executive Producer", "name": "Frank Garritano", "profile_path": null}, {"credit_id": "57a8169ec3a368254e002a5d", "department": "Directing", "gender": 0, "id": 1160274, "job": "Director", "name": "Alex Coletti", "profile_path": null}, {"credit_id": "57c0ae0192514149eb004025", "department": "Production", "gender": 0, "id": 1160274, "job": "Executive Producer", "name": "Alex Coletti", "profile_path": null}, {"credit_id": "57c0ae49c3a3684b6e00015c", "department": "Production", "gender": 2, "id": 1168389, "job": "Executive Producer", "name": "Mike Berkowitz", "profile_path": null}, {"credit_id": "57c0ae229251411212008606", "department": "Production", "gender": 1, "id": 1373056, "job": "Executive Producer", "name": "Lisa Nishimura", "profile_path": null}, {"credit_id": "57c0ae5dc3a36820f8007f38", "department": "Editing", "gender": 0, "id": 1407765, "job": "Editor", "name": "Derek Ambrosi", "profile_path": null}, {"credit_id": "57c0ae399251416ff0000189", "department": "Production", "gender": 0, "id": 1670620, "job": "Executive Producer", "name": "Robbie Praw", "profile_path": null}]}}