{"adult": false, "backdrop_path": null, "belongs_to_collection": null, "budget": 0, "genres": [{"id": 18, "name": "Drama"}], "homepage": null, "id": 41125, "imdb_id": "tt0084893", "original_language": "en", "original_title": "We of the Never Never", "overview": "Based on the well-loved Australian classic by Mrs. Aeneas Gunn, this is the remarkable true story of Jeannie Gunn, a woman who fought to overcome sexual and racial prejudice amid the harsh beauties of the outback. Leaving her Melbourne existence for a new life on her husband's isolated ranch, Jeannie's feisty, good-natured attitude soon wins over the misogynistic stockmen, but she faces a much tougher challenge in trying to change their racist attitudes towards the indigenous aboriginal population.", "popularity": 1.567, "poster_path": "/dywJwauC7Uu0AHLhIzk1TI1Vm9t.jpg", "production_companies": [{"id": 61727, "logo_path": null, "name": "Adam Packer Film Productions", "origin_country": ""}, {"id": 61728, "logo_path": null, "name": "Film Corporation of Western Australia", "origin_country": ""}], "production_countries": [{"iso_3166_1": "AU", "name": "Australia"}], "release_date": "1982-11-04", "revenue": 0, "runtime": 134, "spoken_languages": [{"iso_639_1": "en", "name": "English"}], "status": "Released", "tagline": "The story of the love and courage of a remarkable woman", "title": "We of the Never Never", "video": false, "vote_average": 6.3, "vote_count": 3, "keywords": {"keywords": [{"id": 10183, "name": "independent film"}, {"id": 193760, "name": "australian outback"}]}, "similar": {"page": 1, "results": [{"adult": false, "backdrop_path": "/kQyeXce1ozYryHichnEserMAByN.jpg", "genre_ids": [28, 80, 18, 53], "id": 11564, "original_language": "en", "original_title": "Class of 1984", "overview": "Andy is a new teacher at a inner city high school that is like nothing he has ever seen before. There is metal detectors at the front door and everything is basically run by a tough kid named Peter Stegman. Soon, Andy and Stegman become enemies and Stegman will stop at nothing to protect his turf and drug dealing business.", "poster_path": "/whDnqSYg4yYgVzbVhLSjzC5piUR.jpg", "release_date": "1982-08-20", "title": "Class of 1984", "video": false, "vote_average": 6.2, "vote_count": 121, "popularity": 11.911}, {"adult": false, "backdrop_path": "/7RRuRcGuWkZGuRyYugfXn0Fgrrr.jpg", "genre_ids": [28, 80, 18, 53], "id": 949, "original_language": "en", "original_title": "Heat", "overview": "Obsessive master thief, Neil McCauley leads a top-notch crew on various daring heists throughout Los Angeles while determined detective, Vincent Hanna pursues him without rest. Each man recognizes and respects the ability and the dedication of the other even though they are aware their cat-and-mouse game may end in violence.", "poster_path": "/6pmLVffM9jEYK7VqDJqPblMxfEY.jpg", "release_date": "1995-12-15", "title": "Heat", "video": false, "vote_average": 7.8, "vote_count": 3615, "popularity": 21.973}, {"id": 101, "video": false, "vote_count": 8647, "vote_average": 8.3, "title": "L\u00e9on: The Professional", "release_date": "1994-09-14", "original_language": "en", "original_title": "L\u00e9on: The Professional", "genre_ids": [28, 80, 18], "backdrop_path": "/dXQ7HILRK1Tg33RT64JwbQI7Osh.jpg", "adult": false, "overview": "L\u00e9on, the top hit man in New York, has earned a rep as an effective \"cleaner\". But when his next-door neighbors are wiped out by a loose-cannon DEA agent, he becomes the unwilling custodian of 12-year-old Mathilda. Before long, Mathilda's thoughts turn to revenge, and she considers following in L\u00e9on's footsteps.", "poster_path": "/gE8S02QUOhVnAmYu4tcrBlMTujz.jpg", "popularity": 41.351}, {"id": 4638, "video": false, "vote_count": 4429, "vote_average": 7.5, "title": "Hot Fuzz", "release_date": "2007-02-14", "original_language": "en", "original_title": "Hot Fuzz", "genre_ids": [28, 35, 80], "backdrop_path": "/zuskekrfW3gj9ttXNVhfdHe5n22.jpg", "adult": false, "overview": "As a former London constable, Nicholas Angel finds it difficult to adapt to his new assignment in the sleepy British village of Sandford. Not only does he miss the excitement of the big city, but he also has a well-meaning oaf for a partner. However, when a series of grisly accidents rocks Sandford, Angel smells something rotten in the idyllic village.", "poster_path": "/5Jx6s6VXnunh8wCLgR0YgjwSgjh.jpg", "popularity": 22.387}, {"id": 298312, "video": false, "vote_count": 2924, "vote_average": 6.2, "title": "The Visit", "release_date": "2015-09-10", "original_language": "en", "original_title": "The Visit", "genre_ids": [27, 9648, 53], "backdrop_path": "/gbJlEeALVGo7kx8bC2q4EFWX1Xy.jpg", "adult": false, "overview": "The terrifying story of a brother and sister who are sent to their grandparents' remote Pennsylvania farm for a weeklong trip. Once the children discover that the elderly couple is involved in something deeply disturbing, they see their chances of getting back home are growing smaller every day.", "poster_path": "/32tNtTEQ1vIOLm1hEOSFkVwJT5D.jpg", "popularity": 24.632}, {"adult": false, "backdrop_path": "/9e5e7dJTMxQeF7zNx0CiJmxXE1I.jpg", "genre_ids": [27, 878, 53], "id": 11309, "original_language": "en", "original_title": "Hardware", "overview": "Mark 13 is a government-built killing machine programmed with artificial intelligence, able to repair and recharge itself from any energy source. Through a series of coincidences, the cyborg's head ends up in the home of a sculptress as a bizarre Christmas present from her boyfriend. Once inside its new home, the cyborg promptly reconstructs the rest of its body using a variety of household utensils and proceeds to go on a murderous rampage.", "poster_path": "/nsFm5xniViTVr1oVUpKmgvlAOEA.jpg", "release_date": "1990-09-14", "title": "Hardware", "video": false, "vote_average": 5.7, "vote_count": 145, "popularity": 10.189}, {"id": 185, "video": false, "vote_count": 7610, "vote_average": 8.2, "title": "A Clockwork Orange", "release_date": "1971-12-18", "original_language": "en", "original_title": "A Clockwork Orange", "genre_ids": [18, 878], "backdrop_path": "/unMc1jEyqCnzba976GviSFKGagt.jpg", "adult": false, "overview": "In a near-future Britain, young Alexander DeLarge and his pals get their kicks beating and raping anyone they please. When not destroying the lives of others, Alex swoons to the music of Beethoven. The state, eager to crack down on juvenile crime, gives an incarcerated Alex the option to undergo an invasive procedure that'll rob him of all personal agency. In a time when conscience is a commodity, can Alex change his tune?", "poster_path": "/4sHeTAp65WrSSuc05nRBKddhBxO.jpg", "popularity": 21.362}, {"adult": false, "backdrop_path": "/20IgqkdFw5kuItqDCJtidSESP0t.jpg", "genre_ids": [27, 18], "id": 10066, "original_language": "en", "original_title": "House of Wax", "overview": "A group of unwitting teens are stranded near a strange wax museum and soon must fight to survive and keep from becoming the next exhibit.", "poster_path": "/uM1RebQywM5PPYsauayefpXGxVk.jpg", "release_date": "2005-04-30", "title": "House of Wax", "video": false, "vote_average": 5.7, "vote_count": 1532, "popularity": 16.398}, {"adult": false, "backdrop_path": "/8nvayG5l0urcjvvpszoECDqLWzD.jpg", "genre_ids": [18, 53, 80, 9648], "id": 186, "original_language": "en", "original_title": "Lucky Number Slevin", "overview": "Slevin is mistakenly put in the middle of a personal war between the city\u2019s biggest criminal bosses. Under constant watch, Slevin must try not to get killed by an infamous assassin and come up with an idea of how to get out of his current dilemma. A film with many twists and turns.", "poster_path": "/jtKq0EtothAzWlnRBBWGCA8uFuu.jpg", "release_date": "2006-02-24", "title": "Lucky Number Slevin", "video": false, "vote_average": 7.5, "vote_count": 2480, "popularity": 14.28}, {"id": 521, "video": false, "vote_count": 1257, "vote_average": 8.0, "title": "Dial M for Murder", "release_date": "1954-05-29", "original_language": "en", "original_title": "Dial M for Murder", "genre_ids": [80, 18, 9648, 53], "backdrop_path": "/jVMlfESb0TJ29w8CUDDofEprMmn.jpg", "adult": false, "overview": "An ex-tennis pro carries out a plot to have his wife murdered after discovering she is having an affair, and assumes she will soon leave him for the other man anyway. When things go wrong, he improvises a new plan\u2014to frame her for murder instead.", "poster_path": "/xrpK1PyckNWmRxU4kZURfaCyboS.jpg", "popularity": 28.336}, {"id": 75780, "video": false, "vote_count": 4451, "vote_average": 6.4, "title": "Jack Reacher", "release_date": "2012-12-20", "original_language": "en", "original_title": "Jack Reacher", "genre_ids": [28, 80, 18, 53], "backdrop_path": "/ezXodpP429qK0Av89pVNlaXWJkQ.jpg", "adult": false, "overview": "When a gunman takes five lives with six shots, all evidence points to the suspect in custody. On interrogation, the suspect offers up a single note: \"Get Jack Reacher!\" So begins an extraordinary chase for the truth, pitting Jack Reacher against an unexpected enemy, with a skill for violence and a secret to keep.", "poster_path": "/mt0ELw83HIRgaKaDzhsDcIi0RnW.jpg", "popularity": 15.945}, {"id": 205596, "video": false, "vote_count": 11347, "vote_average": 8.1, "title": "The Imitation Game", "release_date": "2014-11-14", "original_language": "en", "original_title": "The Imitation Game", "genre_ids": [18, 36, 53, 10752], "backdrop_path": "/qcb6z1HpokTOKdjqDTsnjJk0Xvg.jpg", "adult": false, "overview": "Based on the real life story of legendary cryptanalyst Alan Turing, the film portrays the nail-biting race against time by Turing and his brilliant team of code-breakers at Britain's top-secret Government Code and Cypher School at Bletchley Park, during the darkest days of World War II.", "poster_path": "/noUp0XOqIcmgefRnRZa1nhtRvWO.jpg", "popularity": 40.487}, {"adult": false, "backdrop_path": "/kiWvoV78Cc3fUwkOHKzyBgVdrDD.jpg", "genre_ids": [37, 18, 12], "id": 281957, "original_language": "en", "original_title": "The Revenant", "overview": "In the 1820s, a frontiersman, Hugh Glass, sets out on a path of vengeance against those who left him for dead after a bear mauling.", "poster_path": "/oXUWEc5i3wYyFnL1Ycu8ppxxPvs.jpg", "release_date": "2015-12-25", "title": "The Revenant", "video": false, "vote_average": 7.5, "vote_count": 12127, "popularity": 24.135}, {"adult": false, "backdrop_path": "/hm4vpIhBW75bTIDTurq2d4rLZy1.jpg", "genre_ids": [53, 18, 27], "id": 3511, "original_language": "en", "original_title": "The Broken", "overview": "The life of a successful radiologist spirals out of control when she sees the spitting image of herself driving down a London street. While attempting to uncover who the imposter could be, she stumbles into a terrifying mystery that her family and closest friends are somehow involved in, leaving her with no one to trust.", "poster_path": "/nGTUsccLUZhF9Bb5fjvL7KrogvC.jpg", "release_date": "2008-01-18", "title": "The Broken", "video": false, "vote_average": 5.5, "vote_count": 113, "popularity": 10.122}, {"adult": false, "backdrop_path": "/qbrmEfBEcdrzHSAHgazJWmz3TSU.jpg", "genre_ids": [18], "id": 616229, "original_language": "en", "original_title": "The Male Gaze: The Heat of the Night", "overview": "When darkness falls, temperatures rise in these six stories about late night confessions, intimacy for sale, high speed hookups and full moon frissons. But when the sun comes up and reality reveals itself, will it have all been worth it?", "poster_path": "/e1gNLO829rkE73sBJ3aClZJHNXd.jpg", "release_date": "2019-07-15", "title": "The Male Gaze: The Heat of the Night", "video": false, "vote_average": 3.3, "vote_count": 3, "popularity": 7.834}, {"id": 311, "video": false, "vote_count": 2595, "vote_average": 8.4, "title": "Once Upon a Time in America", "release_date": "1984-05-23", "original_language": "en", "original_title": "Once Upon a Time in America", "genre_ids": [80, 18], "backdrop_path": "/vnT6HzjLSDrAweHn9xWykb8Ii6T.jpg", "adult": false, "overview": "A former Prohibition-era Jewish gangster returns to the Lower East Side of Manhattan over thirty years later, where he once again must confront the ghosts and regrets of his old life.", "poster_path": "/x733R4ISI0RbKeHhVkXdTMFmTFr.jpg", "popularity": 22.233}, {"adult": false, "backdrop_path": "/4BMel8xxSed1pCkPSGc9R3jsUtC.jpg", "genre_ids": [18, 10749], "id": 142, "original_language": "en", "original_title": "Brokeback Mountain", "overview": "Two modern-day cowboys meet on a shepherding job in the summer of '63, the two share a raw and powerful summer together that turns into a lifelong relationship conflicting with the lives they are supposed to live.", "poster_path": "/z2DqVxj17aW6xpimRlCLfhKSfUm.jpg", "release_date": "2005-09-10", "title": "Brokeback Mountain", "video": false, "vote_average": 7.8, "vote_count": 3790, "popularity": 20.344}, {"adult": false, "backdrop_path": "/eHhtUoazdml8CMvzWtpunIyqrZS.jpg", "genre_ids": [18, 53, 10749], "id": 884, "original_language": "en", "original_title": "Crash", "overview": "After getting into a serious car accident, a TV director discovers an underground sub-culture of scarred, omnisexual car-crash victims who use car accidents and the raw sexual energy they produce to try to rejuvenate his sex life with his wife.", "poster_path": "/4PDLGJsS5uVBQlYjLMZ7t85dU0P.jpg", "release_date": "1996-07-17", "title": "Crash", "video": false, "vote_average": 6.5, "vote_count": 438, "popularity": 14.59}, {"adult": false, "backdrop_path": "/jQR6de9dwOjvx91wC4tqpTlMqCD.jpg", "genre_ids": [53, 80, 18], "id": 109421, "original_language": "en", "original_title": "Side Effects", "overview": "A woman turns to prescription medication as a way of handling her anxiety concerning her husband's upcoming release from prison.", "poster_path": "/ttD69Yhh2BV1WVqr27NRbF8ubOW.jpg", "release_date": "2013-02-07", "title": "Side Effects", "video": false, "vote_average": 6.5, "vote_count": 2035, "popularity": 12.767}, {"adult": false, "backdrop_path": "/rSf0RYkPiMo9TyjHs2vI8rHlmfF.jpg", "genre_ids": [28, 18, 53], "id": 241554, "original_language": "en", "original_title": "Run All Night", "overview": "Brooklyn mobster and prolific hit man Jimmy Conlon has seen better days. Longtime best friend of a mob boss, Jimmy is haunted by the sins of his past\u2014as well as a dogged police detective who\u2019s been one step behind Jimmy for 30 years. But when Jimmy\u2019s estranged son becomes a target, Jimmy must make a choice between the crime family he chose and the real family he abandoned long ago. Now, with nowhere safe to turn, Jimmy has just one night to figure out exactly where his loyalties lie and to see if he can finally make things right.", "poster_path": "/aqNJrAxudMRNo8jg3HOUQqdl2xr.jpg", "release_date": "2015-03-11", "title": "Run All Night", "video": false, "vote_average": 6.4, "vote_count": 1821, "popularity": 23.621}], "total_pages": 438, "total_results": 8747}, "recommendations": {"page": 1, "results": [], "total_pages": 1, "total_results": 0}, "credits": {"cast": [{"cast_id": 2, "character": "Jeannie", "credit_id": "52fe45b6c3a36847f80d6489", "gender": 1, "id": 53548, "name": "Angela Punch McGregor", "order": 0, "profile_path": "/o3yW7km4EiZ2PBXsZ2t9PvTcjg.jpg"}, {"cast_id": 3, "character": "Aeneas Gunn", "credit_id": "52fe45b6c3a36847f80d648d", "gender": 2, "id": 108924, "name": "Arthur Dignam", "order": 1, "profile_path": "/8F1QOWLogoPLWwNSt2nCO8o1ujP.jpg"}, {"cast_id": 4, "character": "Mac", "credit_id": "52fe45b6c3a36847f80d6491", "gender": 2, "id": 76188, "name": "Tony Barry", "order": 2, "profile_path": "/xB8MdSKONkljYTrmlHVa3dpG3dc.jpg"}, {"cast_id": 5, "character": "Jackeroo", "credit_id": "52fe45b6c3a36847f80d6495", "gender": 2, "id": 125533, "name": "Tom E. Lewis", "order": 3, "profile_path": null}, {"cast_id": 6, "character": "Jack", "credit_id": "52fe45b6c3a36847f80d6499", "gender": 2, "id": 28099, "name": "Lewis Fitz-Gerald", "order": 4, "profile_path": "/AaMzFJdzQkcJ2iyoZ6OZ62ZtoxX.jpg"}, {"cast_id": 7, "character": "Dan", "credit_id": "52fe45b6c3a36847f80d649d", "gender": 0, "id": 125534, "name": "Martin Vaughan", "order": 5, "profile_path": null}, {"cast_id": 8, "character": "Dandy", "credit_id": "52fe45b6c3a36847f80d64a1", "gender": 2, "id": 45210, "name": "John Jarratt", "order": 6, "profile_path": "/yRUY3lMYP5NTkxc54Wrj8NgXxAu.jpg"}, {"cast_id": 9, "character": "Landlord", "credit_id": "52fe45b6c3a36847f80d64a5", "gender": 0, "id": 125535, "name": "Tex Morton", "order": 7, "profile_path": null}, {"cast_id": 10, "character": "Goggle Eye", "credit_id": "52fe45b6c3a36847f80d64a9", "gender": 0, "id": 125536, "name": "Donald Blitner", "order": 8, "profile_path": null}, {"cast_id": 11, "character": "Sam Lee", "credit_id": "52fe45b6c3a36847f80d64ad", "gender": 0, "id": 125537, "name": "Kim Chiu Kok", "order": 9, "profile_path": null}, {"cast_id": 12, "character": "Rosie", "credit_id": "52fe45b6c3a36847f80d64b1", "gender": 0, "id": 125538, "name": "Mawuyul Yanthalawuy", "order": 10, "profile_path": null}, {"cast_id": 13, "character": "Cheon", "credit_id": "52fe45b6c3a36847f80d64b5", "gender": 0, "id": 125539, "name": "Cecil Parkee", "order": 11, "profile_path": null}, {"cast_id": 14, "character": "Neaves", "credit_id": "52fe45b6c3a36847f80d64b9", "gender": 0, "id": 125540, "name": "Brian Granrott", "order": 12, "profile_path": null}], "crew": [{"credit_id": "52fe45b6c3a36847f80d6485", "department": "Directing", "gender": 0, "id": 125532, "job": "Director", "name": "Igor Auzins", "profile_path": null}, {"credit_id": "5408cb13c3a36812c300037a", "department": "Writing", "gender": 0, "id": 1360667, "job": "Screenplay", "name": "Peter Schreck", "profile_path": null}, {"credit_id": "5408cb20c3a36812bf000312", "department": "Writing", "gender": 0, "id": 1360668, "job": "Novel", "name": "Mrs. Aeneas Gunn", "profile_path": null}]}}