{"adult": false, "backdrop_path": "/ocIw3RoIAZusHpr4yr54TZvo38Q.jpg", "belongs_to_collection": null, "budget": 0, "genres": [{"id": 18, "name": "Drama"}], "homepage": "http://tosavealifemovie.com/", "id": 41144, "imdb_id": "tt1270286", "original_language": "en", "original_title": "To Save A Life", "overview": "Jake Taylor has everything. He has a beautiful girl, he's the champion in basketball and beer pong, and everyone loves him. Then, an old childhood friend, whom Jake used to be friends with, commits suicide. Jake begins to think. He wonders what he could've done to save his friend's life. A youth minister tells him that Jake needs God. So Jake becomes a Christian. However, things begin to spin out of control. His dad is cheating on his mom, his girlfriend is pregnant, and his former friends ridicule and mock him. During all this, Jake is going to realize just what it means to be a Christian and how, to save a life.", "popularity": 4.741, "poster_path": "/qg9WrLmY29vvu57tL6A8yy0JaIV.jpg", "production_companies": [], "production_countries": [{"iso_3166_1": "US", "name": "United States of America"}], "release_date": "2009-11-05", "revenue": 0, "runtime": 120, "spoken_languages": [{"iso_639_1": "en", "name": "English"}], "status": "Released", "tagline": "Some people are just dying to be heard.", "title": "To Save A Life", "video": false, "vote_average": 6.5, "vote_count": 36, "keywords": {"keywords": [{"id": 10183, "name": "independent film"}]}, "similar": {"page": 1, "results": [{"adult": false, "backdrop_path": "/kQyeXce1ozYryHichnEserMAByN.jpg", "genre_ids": [28, 80, 18, 53], "id": 11564, "original_language": "en", "original_title": "Class of 1984", "overview": "Andy is a new teacher at a inner city high school that is like nothing he has ever seen before. There is metal detectors at the front door and everything is basically run by a tough kid named Peter Stegman. Soon, Andy and Stegman become enemies and Stegman will stop at nothing to protect his turf and drug dealing business.", "poster_path": "/whDnqSYg4yYgVzbVhLSjzC5piUR.jpg", "release_date": "1982-08-20", "title": "Class of 1984", "video": false, "vote_average": 6.2, "vote_count": 121, "popularity": 11.911}, {"id": 310, "video": false, "vote_count": 6935, "vote_average": 6.6, "title": "Bruce Almighty", "release_date": "2003-05-23", "original_language": "en", "original_title": "Bruce Almighty", "genre_ids": [35, 14], "backdrop_path": "/bhEudqWbWsiEBdnl0kCIwFp5Hay.jpg", "adult": false, "overview": "Bruce Nolan toils as a 'human interest' television reporter in Buffalo, N.Y., but despite his high ratings and the love of his beautiful girlfriend, Bruce remains unfulfilled. At the end of the worst day in his life, he angrily ridicules God\u2014and the Almighty responds, endowing Bruce with all of His divine powers.", "poster_path": "/lgYKHifMMLT8OxYObMKa8b4STsr.jpg", "popularity": 33.956}, {"id": 16366, "video": false, "vote_count": 496, "vote_average": 6.4, "title": "Joseph: King of Dreams", "release_date": "2000-11-07", "original_language": "en", "original_title": "Joseph: King of Dreams", "genre_ids": [16, 10402, 10751], "backdrop_path": "/p5WF1vmFwTrdNlx6Z7mt5ksnG7W.jpg", "adult": false, "overview": "In this animated retelling of the story from the Bible's Book of Genesis, Joseph's gift of dream interpretation and his brilliantly colored coat inspires jealousy in his brothers.", "poster_path": "/dsL5nngGY8qTmXxtAamMUYVQDY3.jpg", "popularity": 18.451}, {"id": 298312, "video": false, "vote_count": 2924, "vote_average": 6.2, "title": "The Visit", "release_date": "2015-09-10", "original_language": "en", "original_title": "The Visit", "genre_ids": [27, 9648, 53], "backdrop_path": "/gbJlEeALVGo7kx8bC2q4EFWX1Xy.jpg", "adult": false, "overview": "The terrifying story of a brother and sister who are sent to their grandparents' remote Pennsylvania farm for a weeklong trip. Once the children discover that the elderly couple is involved in something deeply disturbing, they see their chances of getting back home are growing smaller every day.", "poster_path": "/32tNtTEQ1vIOLm1hEOSFkVwJT5D.jpg", "popularity": 24.632}, {"id": 9946, "video": false, "vote_count": 932, "vote_average": 5.7, "title": "End of Days", "release_date": "1999-11-24", "original_language": "en", "original_title": "End of Days", "genre_ids": [28, 14, 27, 9648], "backdrop_path": "/q5KcZBMc4Vs5SQelnSdY3ICm56M.jpg", "adult": false, "overview": "On 28 December 1999, the citizens of New York City are getting ready for the turn of the millennium. However, the Devil decides to crash the party by coming to the city, inhabiting a man's body, and searching for his chosen bride\u2014a 20-year-old woman named Christine York. The world will end, and the only hope lies within an atheist named Jericho Cane.", "poster_path": "/bEIjH6GroeWaBkn6o7MVpMNbuyw.jpg", "popularity": 15.853}, {"adult": false, "backdrop_path": "/g8G91vbvyUqnyFSlVruwiaZsUrn.jpg", "genre_ids": [18], "id": 458737, "original_language": "en", "original_title": "First Reformed", "overview": "A pastor of a small church in upstate New York starts to spiral out of control after a soul-shaking encounter with an unstable environmental activist and his pregnant wife.", "poster_path": "/p2UylV0hPefEuWPFMo1r56vu2nb.jpg", "release_date": "2018-05-18", "title": "First Reformed", "video": false, "vote_average": 7.0, "vote_count": 577, "popularity": 11.445}, {"id": 87827, "video": false, "vote_count": 9358, "vote_average": 7.3, "title": "Life of Pi", "release_date": "2012-11-20", "original_language": "en", "original_title": "Life of Pi", "genre_ids": [28, 12, 18], "backdrop_path": "/tk159LPfy69zSHw4dabehfAaJXi.jpg", "adult": false, "overview": "The story of an Indian boy named Pi, a zookeeper's son who finds himself in the company of a hyena, zebra, orangutan, and a Bengal tiger after a shipwreck sets them adrift in the Pacific Ocean.", "poster_path": "/sLYdcz7easaS7CmJGwQcVVYZqiF.jpg", "popularity": 20.637}, {"adult": false, "backdrop_path": "/20IgqkdFw5kuItqDCJtidSESP0t.jpg", "genre_ids": [27, 18], "id": 10066, "original_language": "en", "original_title": "House of Wax", "overview": "A group of unwitting teens are stranded near a strange wax museum and soon must fight to survive and keep from becoming the next exhibit.", "poster_path": "/uM1RebQywM5PPYsauayefpXGxVk.jpg", "release_date": "2005-04-30", "title": "House of Wax", "video": false, "vote_average": 5.7, "vote_count": 1532, "popularity": 16.398}, {"adult": false, "backdrop_path": "/8nvayG5l0urcjvvpszoECDqLWzD.jpg", "genre_ids": [18, 53, 80, 9648], "id": 186, "original_language": "en", "original_title": "Lucky Number Slevin", "overview": "Slevin is mistakenly put in the middle of a personal war between the city\u2019s biggest criminal bosses. Under constant watch, Slevin must try not to get killed by an infamous assassin and come up with an idea of how to get out of his current dilemma. A film with many twists and turns.", "poster_path": "/jtKq0EtothAzWlnRBBWGCA8uFuu.jpg", "release_date": "2006-02-24", "title": "Lucky Number Slevin", "video": false, "vote_average": 7.5, "vote_count": 2480, "popularity": 14.28}, {"id": 521, "video": false, "vote_count": 1257, "vote_average": 8.0, "title": "Dial M for Murder", "release_date": "1954-05-29", "original_language": "en", "original_title": "Dial M for Murder", "genre_ids": [80, 18, 9648, 53], "backdrop_path": "/jVMlfESb0TJ29w8CUDDofEprMmn.jpg", "adult": false, "overview": "An ex-tennis pro carries out a plot to have his wife murdered after discovering she is having an affair, and assumes she will soon leave him for the other man anyway. When things go wrong, he improvises a new plan\u2014to frame her for murder instead.", "poster_path": "/xrpK1PyckNWmRxU4kZURfaCyboS.jpg", "popularity": 28.336}, {"id": 205596, "video": false, "vote_count": 11347, "vote_average": 8.1, "title": "The Imitation Game", "release_date": "2014-11-14", "original_language": "en", "original_title": "The Imitation Game", "genre_ids": [18, 36, 53, 10752], "backdrop_path": "/qcb6z1HpokTOKdjqDTsnjJk0Xvg.jpg", "adult": false, "overview": "Based on the real life story of legendary cryptanalyst Alan Turing, the film portrays the nail-biting race against time by Turing and his brilliant team of code-breakers at Britain's top-secret Government Code and Cypher School at Bletchley Park, during the darkest days of World War II.", "poster_path": "/noUp0XOqIcmgefRnRZa1nhtRvWO.jpg", "popularity": 40.487}, {"id": 75780, "video": false, "vote_count": 4451, "vote_average": 6.4, "title": "Jack Reacher", "release_date": "2012-12-20", "original_language": "en", "original_title": "Jack Reacher", "genre_ids": [28, 80, 18, 53], "backdrop_path": "/ezXodpP429qK0Av89pVNlaXWJkQ.jpg", "adult": false, "overview": "When a gunman takes five lives with six shots, all evidence points to the suspect in custody. On interrogation, the suspect offers up a single note: \"Get Jack Reacher!\" So begins an extraordinary chase for the truth, pitting Jack Reacher against an unexpected enemy, with a skill for violence and a secret to keep.", "poster_path": "/mt0ELw83HIRgaKaDzhsDcIi0RnW.jpg", "popularity": 15.945}, {"adult": false, "backdrop_path": "/kormVYncbZMrToXaOV58o74LNIz.jpg", "genre_ids": [18, 53, 878, 9648], "id": 2675, "original_language": "en", "original_title": "Signs", "overview": "A family living on a farm finds mysterious crop circles in their fields which suggests something more frightening to come.", "poster_path": "/bY9lCUVUajpkKWlfjWF1mtXaSUp.jpg", "release_date": "2002-08-02", "title": "Signs", "video": false, "vote_average": 6.6, "vote_count": 3222, "popularity": 16.898}, {"adult": false, "backdrop_path": "/kiWvoV78Cc3fUwkOHKzyBgVdrDD.jpg", "genre_ids": [37, 18, 12], "id": 281957, "original_language": "en", "original_title": "The Revenant", "overview": "In the 1820s, a frontiersman, Hugh Glass, sets out on a path of vengeance against those who left him for dead after a bear mauling.", "poster_path": "/oXUWEc5i3wYyFnL1Ycu8ppxxPvs.jpg", "release_date": "2015-12-25", "title": "The Revenant", "video": false, "vote_average": 7.5, "vote_count": 12127, "popularity": 24.135}, {"adult": false, "backdrop_path": "/4BMel8xxSed1pCkPSGc9R3jsUtC.jpg", "genre_ids": [18, 10749], "id": 142, "original_language": "en", "original_title": "Brokeback Mountain", "overview": "Two modern-day cowboys meet on a shepherding job in the summer of '63, the two share a raw and powerful summer together that turns into a lifelong relationship conflicting with the lives they are supposed to live.", "poster_path": "/z2DqVxj17aW6xpimRlCLfhKSfUm.jpg", "release_date": "2005-09-10", "title": "Brokeback Mountain", "video": false, "vote_average": 7.8, "vote_count": 3790, "popularity": 20.344}, {"adult": false, "backdrop_path": "/jQR6de9dwOjvx91wC4tqpTlMqCD.jpg", "genre_ids": [53, 80, 18], "id": 109421, "original_language": "en", "original_title": "Side Effects", "overview": "A woman turns to prescription medication as a way of handling her anxiety concerning her husband's upcoming release from prison.", "poster_path": "/ttD69Yhh2BV1WVqr27NRbF8ubOW.jpg", "release_date": "2013-02-07", "title": "Side Effects", "video": false, "vote_average": 6.5, "vote_count": 2035, "popularity": 12.767}, {"adult": false, "backdrop_path": "/hm4vpIhBW75bTIDTurq2d4rLZy1.jpg", "genre_ids": [53, 18, 27], "id": 3511, "original_language": "en", "original_title": "The Broken", "overview": "The life of a successful radiologist spirals out of control when she sees the spitting image of herself driving down a London street. While attempting to uncover who the imposter could be, she stumbles into a terrifying mystery that her family and closest friends are somehow involved in, leaving her with no one to trust.", "poster_path": "/nGTUsccLUZhF9Bb5fjvL7KrogvC.jpg", "release_date": "2008-01-18", "title": "The Broken", "video": false, "vote_average": 5.5, "vote_count": 113, "popularity": 10.122}, {"adult": false, "backdrop_path": "/qbrmEfBEcdrzHSAHgazJWmz3TSU.jpg", "genre_ids": [18], "id": 616229, "original_language": "en", "original_title": "The Male Gaze: The Heat of the Night", "overview": "When darkness falls, temperatures rise in these six stories about late night confessions, intimacy for sale, high speed hookups and full moon frissons. But when the sun comes up and reality reveals itself, will it have all been worth it?", "poster_path": "/e1gNLO829rkE73sBJ3aClZJHNXd.jpg", "release_date": "2019-07-15", "title": "The Male Gaze: The Heat of the Night", "video": false, "vote_average": 3.3, "vote_count": 3, "popularity": 7.834}, {"id": 311, "video": false, "vote_count": 2595, "vote_average": 8.4, "title": "Once Upon a Time in America", "release_date": "1984-05-23", "original_language": "en", "original_title": "Once Upon a Time in America", "genre_ids": [80, 18], "backdrop_path": "/vnT6HzjLSDrAweHn9xWykb8Ii6T.jpg", "adult": false, "overview": "A former Prohibition-era Jewish gangster returns to the Lower East Side of Manhattan over thirty years later, where he once again must confront the ghosts and regrets of his old life.", "poster_path": "/x733R4ISI0RbKeHhVkXdTMFmTFr.jpg", "popularity": 22.233}, {"adult": false, "backdrop_path": "/7RRuRcGuWkZGuRyYugfXn0Fgrrr.jpg", "genre_ids": [28, 80, 18, 53], "id": 949, "original_language": "en", "original_title": "Heat", "overview": "Obsessive master thief, Neil McCauley leads a top-notch crew on various daring heists throughout Los Angeles while determined detective, Vincent Hanna pursues him without rest. Each man recognizes and respects the ability and the dedication of the other even though they are aware their cat-and-mouse game may end in violence.", "poster_path": "/6pmLVffM9jEYK7VqDJqPblMxfEY.jpg", "release_date": "1995-12-15", "title": "Heat", "video": false, "vote_average": 7.8, "vote_count": 3615, "popularity": 21.973}], "total_pages": 443, "total_results": 8841}, "recommendations": {"page": 1, "results": [{"adult": false, "backdrop_path": "/lqpqnUH7e4PKOB5N3f47kcCfbPu.jpg", "genre_ids": [53, 80, 9648], "id": 118953, "original_language": "en", "original_title": "The Mystery of the 13th Guest", "overview": "Murders result from an uncle's wish to eliminate beneficiaries to a will.", "poster_path": "/6KKLgZ9CJHHYklneuwYZpWcvR2D.jpg", "release_date": "1943-11-05", "title": "The Mystery of the 13th Guest", "video": false, "vote_average": 4.8, "vote_count": 4, "popularity": 2.603}, {"adult": false, "backdrop_path": "/wI5sNQ3lpLDkio0cTbrYr5tRQVj.jpg", "genre_ids": [35, 18], "id": 42457, "original_language": "en", "original_title": "A Doll's House", "overview": "Nora Helmer has years earlier committed a forgery in order to save the life of her authoritarian husband Torvald. Now she is being blackmailed lives in fear of her husband's finding out and of the shame such a revelation would bring to his career. But when the truth comes out, Nora is shocked to learn where she really stands in her husband's esteem.", "poster_path": "/4DRUTKERjhDaRjVxVBAxFW4Ah6q.jpg", "release_date": "1973-04-10", "title": "A Doll's House", "video": false, "vote_average": 5.2, "vote_count": 11, "popularity": 3.423}, {"adult": false, "backdrop_path": "/iB0KzGknluuA0IF6cl3Ny1lB1ar.jpg", "genre_ids": [35, 18], "id": 328448, "original_language": "en", "original_title": "Dial a Prayer", "overview": "A troubled young woman working at a prayer call center makes a difference in other people's lives, forcing her to reconcile with her troubled past with the faith she brings out in others.", "poster_path": "/8DRUH1pk0VbQ2eWeNuoNq2Lm3Ie.jpg", "release_date": "2015-01-01", "title": "Dial a Prayer", "video": false, "vote_average": 5.4, "vote_count": 23, "popularity": 4.378}, {"id": 241432, "video": false, "vote_count": 13, "vote_average": 4.7, "title": "Days and Nights", "release_date": "2014-09-26", "original_language": "en", "original_title": "Days and Nights", "genre_ids": [35, 18], "backdrop_path": "/67vPGIKCk7CE5fc5MOfmwd2Nc3l.jpg", "adult": false, "overview": "Reckless desire wreaks havoc over Memorial Day weekend as a family confronts the volatile and fragile nature of love. A modern retelling of Anton Chekhov's \"The Seagull\", set in rural New England.", "poster_path": "/A8wcpBxptvhCmCIZvBwUlDxrcmP.jpg", "popularity": 5.549}, {"adult": false, "backdrop_path": "/hIQc6tmZ3pUvprTEddWc4c9dhKN.jpg", "genre_ids": [18], "id": 85962, "original_language": "en", "original_title": "The Student Nurses", "overview": "Follows the lives of a group of young nurses in Los Angeles, including a nurse who joins a band of revolutionaries, and one who finds herself succumbing to drugs.", "poster_path": "/5wX4VoBXtQdyI3vsdURwhPiEPor.jpg", "release_date": "1970-12-02", "title": "The Student Nurses", "video": false, "vote_average": 5.2, "vote_count": 7, "popularity": 2.548}, {"adult": false, "backdrop_path": "/7pmje5YozacHk094x4AQM7CrTa4.jpg", "genre_ids": [18, 14, 9648, 10749], "id": 60799, "original_language": "fr", "original_title": "Les Portes de la nuit", "overview": "Paris, during the winter after its Liberation: Jean Diego meets up with his friend Raymond Lecuyer again. A tramp predicts Jean will meet the most beautiful girl in the world, and that same evening Jean meets Malou. But he soon discovers that her brother Guy was the one that gave his friend Raymond away to the Gestapo...", "poster_path": "/aXrN21Ook9kJfB74rLwKkwKenRe.jpg", "release_date": "1946-12-03", "title": "Gates of the Night", "video": false, "vote_average": 6.7, "vote_count": 13, "popularity": 3.106}, {"adult": false, "backdrop_path": "/4lk8qws6n3nC3RsJqxzqVK3pjzm.jpg", "genre_ids": [18, 10749], "id": 31048, "original_language": "en", "original_title": "Sweet Land", "overview": "Set in 1920, Inge travels from Germany to rural Minnesota in order to meet the man destined to be her husband.", "poster_path": "/1FhZEbYpWxkT6ppdxm6uXSIuzMc.jpg", "release_date": "2005-10-21", "title": "Sweet Land", "video": false, "vote_average": 6.3, "vote_count": 23, "popularity": 4.707}, {"adult": false, "backdrop_path": "/79zYoTJnu0BawalH98GfY3ybxog.jpg", "genre_ids": [35], "id": 2754, "original_language": "nl", "original_title": "Abel", "overview": "An extremely weird comedy about the life of 31- year-old Abel, who has never left home. After failing with doctors and psychiatrists, Abel's father Victor brings home Christine, a friend, in an attempt to teach Abel basic social skills. After that trouble starts and Abel is thrown out into the street.", "poster_path": "/sPFbXoTXolVS1HeUwprnT06toLh.jpg", "release_date": "1986-02-27", "title": "Abel", "video": false, "vote_average": 7.0, "vote_count": 16, "popularity": 1.564}, {"id": 184374, "video": false, "vote_count": 16, "vote_average": 5.9, "title": "Cinco de Mayo: La Batalla", "release_date": "2013-05-03", "original_language": "es", "original_title": "Cinco de Mayo: La Batalla", "genre_ids": [18, 36, 10752], "backdrop_path": "/mkpdEq7XvlczsZOZTvzrR2VyMlM.jpg", "adult": false, "overview": "On May 5th, 1862, a few thousand Mexican soldiers put their lives on the line against the world's largest and most powerful army in one legendary battle for freedom and for Mexico.", "poster_path": "/J9PCNtJR6OaS7u0uUg7GPvxcuB.jpg", "popularity": 0.6}, {"adult": false, "backdrop_path": "/pJnPmTjLByotQVX2SCV1OTDlTnA.jpg", "genre_ids": [28, 37], "id": 84900, "original_language": "en", "original_title": "Texas Cyclone", "overview": "When Texas Grant rides into town people think the supposedly dead Jim Rawlins has returned. After a confrontation with Utah Becker, Grant learns Jim's wife, Helen, is about to lose her ranch to Becker, so he decides to stay and pose as Rawlins in an effort to help her.", "poster_path": "/10V8HhTszBFzAn3yuCLDDVKdDDI.jpg", "release_date": "1932-02-24", "title": "Texas Cyclone", "video": false, "vote_average": 4.7, "vote_count": 6, "popularity": 3.308}, {"adult": false, "backdrop_path": "/uEJujlvafDT3ypmmYvgeZnpxcCO.jpg", "genre_ids": [18, 53, 80], "id": 72002, "original_language": "en", "original_title": "The Last Mile", "overview": "Jail house tensions mount as a killer's execution approaches.", "poster_path": "/rQ1z7JVnD80sL9oVnGa0oD0VJnu.jpg", "release_date": "1959-02-18", "title": "The Last Mile", "video": false, "vote_average": 5.7, "vote_count": 7, "popularity": 3.897}, {"adult": false, "backdrop_path": "/8jXdcDFbBcnOdSsqHF5ePpihKYK.jpg", "genre_ids": [18, 53], "id": 58194, "original_language": "en", "original_title": "White Irish Drinkers", "overview": "A coming of age story set in 1975 working-class Brooklyn, in which two teenage brothers living with their abusive father and their well-meaning but ineffective mother are caught up in a life of petty crime. Older brother Danny concocts a daring scheme to steal enough money for the two to escape, timed around the chaos of an upcoming Rolling Stones concert. The sensitive younger brother, Brian, ultimately has a choice: remain loyal to the brother with whom he shares a powerful love-hate bond, or use his hidden talent as an artist as his own ticket out of their dead-end existence.", "poster_path": "/1J16LtpL9inmGUZsnmKJswO5VEB.jpg", "release_date": "2011-03-25", "title": "White Irish Drinkers", "video": false, "vote_average": 6.2, "vote_count": 16, "popularity": 2.389}, {"adult": false, "backdrop_path": "/9FDWdXw1XH61bjr2ISUxx3N6UX1.jpg", "genre_ids": [18], "id": 35123, "original_language": "en", "original_title": "The Verdict", "overview": "After an innocent man is executed in a case he was responsible for, a Scotland Yard superintendent finds himself investigating the murder of his key witness.", "poster_path": "/gYhSKdDKUR6WVnWlya9FoOIAboE.jpg", "release_date": "1946-11-23", "title": "The Verdict", "video": false, "vote_average": 6.7, "vote_count": 17, "popularity": 4.508}, {"id": 42746, "video": false, "vote_count": 20, "vote_average": 5.9, "title": "Little Sister", "release_date": "1995-12-01", "original_language": "nl", "original_title": "Zusje", "genre_ids": [18, 9648], "backdrop_path": "/c15KYM4bnpNrOhtTZjuhpnnNQ9h.jpg", "adult": false, "overview": "After several years without contact, Martijn visits his sister Daantje, who just started to live on her own in Amsterdam. He tells her he is going to make a documentary from her life, and enters her home life with a video camera.", "poster_path": "/nfieSjmRZOfmwihLrTjHBgZlBDq.jpg", "popularity": 6.136}, {"adult": false, "backdrop_path": null, "genre_ids": [53, 16, 14], "id": 290969, "original_language": "en", "original_title": "El ladr\u00f3n de caras", "overview": "A mysterious young woman has been horribly attacked by a strange creature that steals faces. Detective Paul F. Gimbal decides to protect her and starts a dark investigation to overcome the dangerous thief who wants to destroy everything.", "poster_path": "/lqClh8RRQeh2HZ3rGHbsaharFs6.jpg", "release_date": "2013-10-01", "title": "The Face Robber", "video": false, "vote_average": 6.0, "vote_count": 6, "popularity": 1.487}, {"adult": false, "backdrop_path": "/4AleC2e1QiJCEVLg4eTabU204Zj.jpg", "genre_ids": [18, 53], "id": 253256, "original_language": "en", "original_title": "The Heart Machine", "overview": "A man begins to suspect that his long-distance girlfriend, whom he met online but has never met in person, has been living in the same city the whole time and sets out to find her.", "poster_path": "/Aay15LtGwU0oz2ReXnMpGzAo7iu.jpg", "release_date": "2014-10-24", "title": "The Heart Machine", "video": false, "vote_average": 5.4, "vote_count": 11, "popularity": 2.796}, {"id": 28311, "video": false, "vote_count": 11, "vote_average": 5.4, "title": "Picture Claire", "release_date": "2001-09-10", "original_language": "en", "original_title": "Picture Claire", "genre_ids": [53], "backdrop_path": "/4kYrWAX6RamhFw7veDBROGFYb6t.jpg", "adult": false, "overview": "After her Montreal apartment burns down and her possessions are reduced to ash, Claire Beaucage heads to her boyfriend's place in Toronto, only to find that he's missing. Then the police mistake her for Lily Warden, a sinister woman who killed a local gangster and happens to live in the same building as Claire's boyfriend. The police pursue a bewildered Claire while a gang of criminals chases after Lily.", "poster_path": "/we3FqtzBkadE19VOkHySvUTu0OU.jpg", "popularity": 6.045}, {"adult": false, "backdrop_path": "/oly8l39QDgAd25azeHTeaPGn79P.jpg", "genre_ids": [18], "id": 94608, "original_language": "en", "original_title": "The Happy Ending", "overview": "The triumphs and failures of middle age as seen through the eyes of runaway American housewife Mary Wilson, a woman who believes that ultimate reality exists above and beyond the routine procedures of conscious, uninspired, everyday life. She feels cheated by an older generation that taught her to settle for nothing less than storybook finales, people who are disillusioned and restless and don't know why, people for whom life holds no easy answers.", "poster_path": "/9kATt9l7UimdbLQldEx7BxaM6GH.jpg", "release_date": "1969-12-21", "title": "The Happy Ending", "video": false, "vote_average": 6.5, "vote_count": 11, "popularity": 2.643}, {"adult": false, "backdrop_path": "/w3DTvIFDZ2dozgeflisUhLEQpms.jpg", "genre_ids": [16], "id": 50769, "original_language": "en", "original_title": "M\u00eame les pigeons vont au paradis", "overview": "On a moonlit fall night, a priest races to the home of Mr. Moulin running a motorcycle off the road and arriving just in time to catch the old man as he falls from a chair on which he stacked books in order to reach a bottle of cognac. Mr. Moulin is a miser with a sock full of money that the priest would like to appropriate by selling the old man a space capsule that will take him to paradise. After a test drive and some negotiation, the deal may be struck, but then, there's a knock at the door.", "poster_path": "/9ceujNJPJUyytu1u86y0ba5FmXi.jpg", "release_date": "2007-01-27", "title": "Even Pigeons Go to Heaven", "video": false, "vote_average": 5.5, "vote_count": 14, "popularity": 2.844}], "total_pages": 1, "total_results": 19}, "credits": {"cast": [{"cast_id": 1, "character": "Jake Taylor", "credit_id": "52fe45b7c3a36847f80d66eb", "gender": 2, "id": 84841, "name": "Randy Wayne", "order": 0, "profile_path": "/p0SENcEiSxd3uy31ekcFF4xXvJP.jpg"}, {"cast_id": 3, "character": "Amy Briggs", "credit_id": "52fe45b7c3a36847f80d66f5", "gender": 1, "id": 96029, "name": "Deja Kreutzberg", "order": 1, "profile_path": "/k5ONbO4rRsWJ8scwhJZGzhQ5ktu.jpg"}, {"cast_id": 4, "character": "Chris Vaughn", "credit_id": "52fe45b7c3a36847f80d66f9", "gender": 0, "id": 227886, "name": "Joshua Weigel", "order": 2, "profile_path": "/1dPEAOJc3YXU6QdOgri5rb89o5I.jpg"}, {"cast_id": 5, "character": "Doug Moore", "credit_id": "5729116692514172d800040c", "gender": 2, "id": 60905, "name": "Steven Crowder", "order": 3, "profile_path": "/gkoE2P6WrQB0QW3Zt8iKhY4Uksb.jpg"}, {"cast_id": 6, "character": "Andrea Stevens", "credit_id": "5729127d92514105c90002e7", "gender": 1, "id": 1385322, "name": "Kim Hidalgo", "order": 4, "profile_path": "/25HVcEB6Z2qTWirfqZmuC9o2vRy.jpg"}, {"cast_id": 7, "character": "Mark Rivers", "credit_id": "5729131e92514105c90002f6", "gender": 2, "id": 133669, "name": "D. David Morin", "order": 5, "profile_path": "/7ez0qvOr5ehl37Cz1RIWwSHw3K4.jpg"}, {"cast_id": 8, "character": "Jonny Garcia", "credit_id": "5729153b92514172cb0004bc", "gender": 2, "id": 1054837, "name": "Sean Michael Afable", "order": 6, "profile_path": "/o6P11tVuDtdl0zeBICI0dcsQ2ou.jpg"}, {"cast_id": 9, "character": "Kelsi", "credit_id": "572915c7c3a36815a400057a", "gender": 1, "id": 1614882, "name": "Trinity Scott Brown", "order": 7, "profile_path": "/dK3vuVcsoef5xs8HfazkaMzehON.jpg"}], "crew": [{"credit_id": "52fe45b7c3a36847f80d66f1", "department": "Directing", "gender": 2, "id": 125637, "job": "Director", "name": "Brian Baugh", "profile_path": null}]}}