{"adult": false, "backdrop_path": "/ooFzJc4vff7nVnvj2XwnAwCfCbf.jpg", "belongs_to_collection": null, "budget": 0, "genres": [{"id": 18, "name": "Drama"}], "homepage": null, "id": 41164, "imdb_id": "tt0103036", "original_language": "en", "original_title": "Talent for the Game", "overview": "Major League Baseball scout must find promising young player to save his job and his team.", "popularity": 2.986, "poster_path": "/nKgkHF69NFaV17Lbt8onPVen3sY.jpg", "production_companies": [{"id": 4, "logo_path": "/fycMZt242LVjagMByZOLUGbCvv3.png", "name": "Paramount", "origin_country": "US"}], "production_countries": [{"iso_3166_1": "US", "name": "United States of America"}], "release_date": "1991-04-26", "revenue": 0, "runtime": 91, "spoken_languages": [{"iso_639_1": "en", "name": "English"}], "status": "Released", "tagline": "Some men are born with a gift, and some are born to discover it.", "title": "Talent for the Game", "video": false, "vote_average": 6.0, "vote_count": 1, "keywords": {"keywords": [{"id": 1480, "name": "baseball"}, {"id": 6075, "name": "sport"}]}, "similar": {"page": 1, "results": [{"id": 245913, "video": false, "vote_count": 511, "vote_average": 7.3, "title": "Pel\u00e9: Birth of a Legend", "release_date": "2016-05-06", "original_language": "en", "original_title": "Pel\u00e9: Birth of a Legend", "genre_ids": [18, 36], "backdrop_path": "/mmKn7ECMiCUGFhIhoX2t9SYrTQn.jpg", "adult": false, "overview": "The life story of Brazilian football legend, Pele.", "poster_path": "/7AQFHlPohPiAYKTd1C35Q61z0eD.jpg", "popularity": 15.163}, {"adult": false, "backdrop_path": "/qVjKZMB0IdOc2JlwiiGsuKTvTJs.jpg", "genre_ids": [18], "id": 22881, "original_language": "en", "original_title": "The Blind Side", "overview": "The story of Michael Oher, a homeless and traumatized boy who became an All American football player and first round NFL draft pick with the help of a caring woman and her family", "poster_path": "/wEGFSgPebLk6g1ngKsJ6a46PYLV.jpg", "release_date": "2009-11-20", "title": "The Blind Side", "video": false, "vote_average": 7.5, "vote_count": 3212, "popularity": 30.144}, {"adult": false, "backdrop_path": "/jK3EAFk3GdOaQfUDCOiTujzMpwH.jpg", "genre_ids": [18], "id": 389015, "original_language": "en", "original_title": "I, Tonya", "overview": "Competitive ice skater Tonya Harding rises amongst the ranks at the U. S. Figure Skating Championships, but her future in the sport is thrown into doubt when her ex-husband intervenes.", "poster_path": "/6gNXwSHxaksR1PjVZRqNapmkgj3.jpg", "release_date": "2017-12-08", "title": "I, Tonya", "video": false, "vote_average": 7.5, "vote_count": 3327, "popularity": 19.513}, {"id": 8923, "video": false, "vote_count": 1358, "vote_average": 7.2, "title": "Green Street Hooligans", "release_date": "2005-09-09", "original_language": "en", "original_title": "Green Street Hooligans", "genre_ids": [80, 18], "backdrop_path": "/oasVTD3UpTEjhTAVx9ZCy1k19Qv.jpg", "adult": false, "overview": "After being wrongfully expelled from Harvard University, American Matt Buckner flees to his sister's home in England. Once there, he is befriended by her charming and dangerous brother-in-law, Pete Dunham, and introduced to the underworld of British football hooliganism. Matt learns to stand his ground through a friendship that develops against the backdrop of this secret and often violent world. 'Green Street Hooligans' is a story of loyalty, trust and the sometimes brutal consequences of living close to the edge.", "poster_path": "/z3LC4kI8azbeuHRGgDdWo6VBCdX.jpg", "popularity": 14.424}, {"adult": false, "backdrop_path": "/n1Gh3MJAVvXmkgSDf3SOLlPCjag.jpg", "genre_ids": [35, 18, 10749], "id": 9390, "original_language": "en", "original_title": "Jerry Maguire", "overview": "Jerry Maguire used to be a typical sports agent: willing to do just about anything he could to get the biggest possible contracts for his clients, plus a nice commission for himself. Then, one day, he suddenly has second thoughts about what he's really doing. When he voices these doubts, he ends up losing his job and all of his clients, save Rod Tidwell, an egomaniacal football player.", "poster_path": "/99YTEdKOKDRClsscOpJfdkbaTrQ.jpg", "release_date": "1996-12-13", "title": "Jerry Maguire", "video": false, "vote_average": 6.9, "vote_count": 1794, "popularity": 16.867}, {"adult": false, "backdrop_path": "/kmrSb8Gu0s6fGkm3zHJnHh25F4J.jpg", "genre_ids": [18, 10752], "id": 17360, "original_language": "en", "original_title": "Escape to Victory", "overview": "A group of POWs in a German prison camp during World War II play the German National Soccer Team in this powerful film depicting the role of prisoners during wartime.", "poster_path": "/tKFWYW9vDVKrBupSQydptyYVkXi.jpg", "release_date": "1981-06-17", "title": "Escape to Victory", "video": false, "vote_average": 6.8, "vote_count": 419, "popularity": 11.91}, {"adult": false, "backdrop_path": "/9lrM0o89ASyHmDgMLfCbU5qdsAm.jpg", "genre_ids": [35, 18], "id": 9291, "original_language": "en", "original_title": "The Longest Yard", "overview": "Pro quarter-back, Paul Crewe and former college champion and coach, Nate Scarboro are doing time in the same prison. Asked to put together a team of inmates to take on the guards, Crewe enlists the help of Scarboro to coach the inmates to victory in a football game 'fixed' to turn out quite another way.", "poster_path": "/ag6q9euZABqbHtbDhoRT9xEYltP.jpg", "release_date": "2005-05-27", "title": "The Longest Yard", "video": false, "vote_average": 6.4, "vote_count": 1764, "popularity": 17.65}, {"adult": false, "backdrop_path": "/kBTdPNTAzagAY6UiwY957KCDGuu.jpg", "genre_ids": [16, 35, 10751], "id": 2300, "original_language": "en", "original_title": "Space Jam", "overview": "Swackhammer, an evil alien theme park owner, needs a new attraction at Moron Mountain. When his gang, the Nerdlucks, heads to Earth to kidnap Bugs Bunny and the Looney Tunes, Bugs challenges them to a basketball game to determine their fate. The aliens agree, but they steal the powers of NBA basketball players, including Larry Bird and Charles Barkley -- so Bugs gets some help from superstar Michael Jordan.", "poster_path": "/xI9AwhOWtsbFlS8tYD2PXa80p7u.jpg", "release_date": "1996-11-15", "title": "Space Jam", "video": false, "vote_average": 6.7, "vote_count": 3179, "popularity": 15.582}, {"adult": false, "backdrop_path": "/zu3zLkJeRtGJq4I6D7ONMWmFOLh.jpg", "genre_ids": [28, 18], "id": 9766, "original_language": "en", "original_title": "Gridiron Gang", "overview": "Teenagers at a juvenile detention center, under the leadership of their counselor, gain self-esteem by playing football together.", "poster_path": "/8UlDsCPjAfg15L5Sgkcmy8rv1rg.jpg", "release_date": "2006-09-15", "title": "Gridiron Gang", "video": false, "vote_average": 6.7, "vote_count": 431, "popularity": 14.948}, {"id": 60308, "video": false, "vote_count": 2515, "vote_average": 7.2, "title": "Moneyball", "release_date": "2011-09-22", "original_language": "en", "original_title": "Moneyball", "genre_ids": [18], "backdrop_path": "/T9a9Q6Pin6Pra7dNMwWzAibxkk.jpg", "adult": false, "overview": "The story of Oakland Athletics general manager Billy Beane's successful attempt to put together a baseball team on a budget, by employing computer-generated analysis to draft his players.", "poster_path": "/3oAa8mJJ97CH9AeGEY6vjAxqcvZ.jpg", "popularity": 16.135}, {"adult": false, "backdrop_path": "/3fcBsj9JMQQ27Wuk3LVrEwVZ2VT.jpg", "genre_ids": [28, 18], "id": 323677, "original_language": "en", "original_title": "Race", "overview": "Based on the story of Jesse Owens, the athlete whose quest to become the greatest track and field athlete in history thrusts him onto the world stage of the 1936 Olympics, where he faces off against Adolf Hitler's vision of Aryan supremacy.", "poster_path": "/szLfTQ2vLFQkNbP3dc0pnco1rje.jpg", "release_date": "2016-02-19", "title": "Race", "video": false, "vote_average": 7.3, "vote_count": 989, "popularity": 11.176}, {"adult": false, "backdrop_path": "/20IgqkdFw5kuItqDCJtidSESP0t.jpg", "genre_ids": [27, 18], "id": 10066, "original_language": "en", "original_title": "House of Wax", "overview": "A group of unwitting teens are stranded near a strange wax museum and soon must fight to survive and keep from becoming the next exhibit.", "poster_path": "/uM1RebQywM5PPYsauayefpXGxVk.jpg", "release_date": "2005-04-30", "title": "House of Wax", "video": false, "vote_average": 5.7, "vote_count": 1531, "popularity": 21.972}, {"id": 307081, "video": false, "vote_count": 3699, "vote_average": 7.4, "title": "Southpaw", "release_date": "2015-03-24", "original_language": "en", "original_title": "Southpaw", "genre_ids": [28, 18], "backdrop_path": "/tTt1cdEEkKMJ1R4VBTe5vbE3bWO.jpg", "adult": false, "overview": "Billy \"The Great\" Hope, the reigning junior middleweight boxing champion, has an impressive career, a loving wife and daughter, and a lavish lifestyle. However, when tragedy strikes, Billy hits rock bottom, losing his family, his house and his manager. He soon finds an unlikely savior in Tick Willis, a former fighter who trains the city's toughest amateur boxers. With his future on the line, Hope fights to reclaim the trust of those he loves the most.", "poster_path": "/50d0XQQETSyg3bwBXhC7K33pKgc.jpg", "popularity": 24.057}, {"id": 651, "video": false, "vote_count": 478, "vote_average": 7.1, "title": "M*A*S*H", "release_date": "1970-01-24", "original_language": "en", "original_title": "M*A*S*H", "genre_ids": [35, 18, 10752], "backdrop_path": "/l5YH6TCYi2mgZwXbDjF71iA9UBP.jpg", "adult": false, "overview": "The staff of a Korean War field hospital use humor and high jinks to keep their sanity in the face of the horror of war.", "poster_path": "/cscyvJ4nDgbqewrttPXZ5EYOdwa.jpg", "popularity": 11.845}, {"id": 70006, "video": false, "vote_count": 288, "vote_average": 6.1, "title": "Never Back Down 2: The Beatdown", "release_date": "2011-09-13", "original_language": "en", "original_title": "Never Back Down 2: The Beatdown", "genre_ids": [28, 18], "backdrop_path": "/lSFqtjxMfAHa58TBDDBELKeq2DH.jpg", "adult": false, "overview": "Four fighters different backgrounds come together to train under an ex MMA rising star and then ultimately have to fight each other and the traitor in heir midst.", "poster_path": "/qeISu4rUk9l9sQTMs86fAoxSx8p.jpg", "popularity": 20.91}, {"id": 391757, "video": false, "vote_count": 185, "vote_average": 6.5, "title": "Never Back Down: No Surrender", "release_date": "2016-06-07", "original_language": "en", "original_title": "Never Back Down: No Surrender", "genre_ids": [28, 18], "backdrop_path": "/pzjnObK3uiHcKwiir9OPPWzbW8f.jpg", "adult": false, "overview": "Picking up after the events of Never Back Down 2, former MMA champion Case Walker is on the comeback trail to become champion once again.", "poster_path": "/dYNS4o4Q4DDLiKRAAvZ9KcrhHuy.jpg", "popularity": 16.224}, {"adult": false, "backdrop_path": "/w41zFKYTsq4wf5QnQJWMXuzWl2F.jpg", "genre_ids": [18, 28], "id": 96721, "original_language": "en", "original_title": "Rush", "overview": "A biographical drama centered on the rivalry between Formula 1 drivers James Hunt and Niki Lauda during the 1976 Formula One motor-racing season.", "poster_path": "/cjEepHZOZAwmK6nAj5jis6HV75E.jpg", "release_date": "2013-09-02", "title": "Rush", "video": false, "vote_average": 7.7, "vote_count": 4275, "popularity": 16.446}, {"id": 1375, "video": false, "vote_count": 1669, "vote_average": 5.6, "title": "Rocky V", "release_date": "1990-10-18", "original_language": "en", "original_title": "Rocky V", "genre_ids": [18], "backdrop_path": "/dr5pdEDOdCvelCQqP32UZubiSgE.jpg", "adult": false, "overview": "A lifetime of taking shots has ended Rocky\u2019s career, and a crooked accountant has left him broke. Inspired by the memory of his trainer, however, Rocky finds glory in training and takes on an up-and-coming boxer.", "poster_path": "/5P2RiuLt31mWyb6duww8qlAhs6G.jpg", "popularity": 16.084}, {"id": 396371, "video": false, "vote_count": 1968, "vote_average": 7.1, "title": "Molly's Game", "release_date": "2017-12-25", "original_language": "en", "original_title": "Molly's Game", "genre_ids": [80, 18], "backdrop_path": "/rHcBZ6ZKCe4FalWHyvBGsyMsh0k.jpg", "adult": false, "overview": "Molly Bloom, a young skier and former Olympic hopeful becomes a successful entrepreneur (and a target of an FBI investigation) when she establishes a high-stakes, international poker game.", "poster_path": "/in43bQ7k0ttr666IPP94IlbQbTR.jpg", "popularity": 18.118}, {"id": 312221, "video": false, "vote_count": 4400, "vote_average": 7.4, "title": "Creed", "release_date": "2015-11-25", "original_language": "en", "original_title": "Creed", "genre_ids": [18], "backdrop_path": "/fs2yhdSCzMVlNECrN84WuCkgXov.jpg", "adult": false, "overview": "The former World Heavyweight Champion Rocky Balboa serves as a trainer and mentor to Adonis Johnson, the son of his late friend and former rival Apollo Creed.", "poster_path": "/hKzhV274pkZBSpXfCjUyzbyYKLl.jpg", "popularity": 17.551}], "total_pages": 178, "total_results": 3553}, "recommendations": {"page": 1, "results": [], "total_pages": 1, "total_results": 0}, "credits": {"cast": [{"cast_id": 1, "character": "Vergil Sweet", "credit_id": "52fe45b8c3a36847f80d6c4b", "gender": 2, "id": 587, "name": "Edward James Olmos", "order": 0, "profile_path": "/i7zKqsFqL5L1HPmAMeSA1xZzlD5.jpg"}, {"cast_id": 2, "character": "Bobbie", "credit_id": "52fe45b8c3a36847f80d6c4f", "gender": 1, "id": 11478, "name": "Lorraine Bracco", "order": 1, "profile_path": "/8khTSZIrHEMbBiH6HSAOzOnnbmB.jpg"}, {"cast_id": 4, "character": "Angels Coach", "credit_id": "52fe45b8c3a36847f80d6c59", "gender": 0, "id": 1056193, "name": "John E. Coleman", "order": 2, "profile_path": "/3iIRBnpGrfL1YQYQIYUDtWHPW5V.jpg"}, {"cast_id": 5, "character": "Sammy Bodeen", "credit_id": "52fe45b8c3a36847f80d6c5d", "gender": 2, "id": 1056194, "name": "Jeff Corbett", "order": 3, "profile_path": "/kUZI0B1pArzomF2Pc5tSXgFKSTP.jpg"}, {"cast_id": 6, "character": "Tim Weaver", "credit_id": "52fe45b9c3a36847f80d6c61", "gender": 2, "id": 2977, "name": "Jamey Sheridan", "order": 4, "profile_path": "/jpyh4Wd6AZ1oBCsbIxB72otXtcy.jpg"}, {"cast_id": 7, "character": "Gil Lawrence", "credit_id": "52fe45b9c3a36847f80d6c65", "gender": 2, "id": 11067, "name": "Terry Kinney", "order": 5, "profile_path": "/hv6CObyItPeEg5eJzzTb4L1j6DP.jpg"}, {"cast_id": 8, "character": "Paul", "credit_id": "5af094a3925141764a01408b", "gender": 2, "id": 167490, "name": "Thomas Ryan", "order": 6, "profile_path": "/2AmpEY8a42HlCRxnCKWwdsA8stY.jpg"}, {"cast_id": 9, "character": "Fred", "credit_id": "5af094b192514176770118d8", "gender": 2, "id": 44042, "name": "Felton Perry", "order": 7, "profile_path": "/ax2YtmbicXvsjayLtK5VUxQh8fC.jpg"}, {"cast_id": 10, "character": "Rev. Bodeen", "credit_id": "5af094c1c3a368142400ca74", "gender": 2, "id": 19453, "name": "Tom Bower", "order": 8, "profile_path": "/jINoIyKUhX01jflM68nZaJZlWMW.jpg"}, {"cast_id": 11, "character": "Rachel Bodeen", "credit_id": "5af094e2c3a368141500dbc6", "gender": 1, "id": 20217, "name": "Janet Carroll", "order": 9, "profile_path": "/gLMj4DaNVF37eP5FHLWwdWXGUnD.jpg"}], "crew": [{"credit_id": "5af095800e0a261d720123b4", "department": "Writing", "gender": 2, "id": 912, "job": "Writer", "name": "Larry Ferguson", "profile_path": "/gxsly0SbgYLPB1Y3XOz12jAEmza.jpg"}, {"credit_id": "5c98e7929251416b0cf47588", "department": "Costume & Make-Up", "gender": 1, "id": 6881, "job": "Costume Designer", "name": "Erica Edell Phillips", "profile_path": null}, {"credit_id": "5c98e7380e0a264cc3c3336b", "department": "Production", "gender": 2, "id": 14535, "job": "Producer", "name": "Martin Elfand", "profile_path": null}, {"credit_id": "5dae2aaeae36680011d59101", "department": "Camera", "gender": 2, "id": 47855, "job": "Director of Photography", "name": "Curtis Clark", "profile_path": null}, {"credit_id": "5af0956a925141766f012428", "department": "Writing", "gender": 2, "id": 71342, "job": "Writer", "name": "David Himmelstein", "profile_path": null}, {"credit_id": "52fe45b8c3a36847f80d6c55", "department": "Directing", "gender": 2, "id": 86293, "job": "Director", "name": "Robert M. Young", "profile_path": "/iekSJ1eb9o0zvJqPwgEdx1ZfRsE.jpg"}, {"credit_id": "5af09574925141768f011b2a", "department": "Writing", "gender": 2, "id": 232235, "job": "Writer", "name": "Thomas Michael Donnelly", "profile_path": null}, {"credit_id": "5c98e77f0e0a264cc3c333ce", "department": "Art", "gender": 0, "id": 1526031, "job": "Production Design", "name": "Jeffrey Howard", "profile_path": null}]}}