{"adult": false, "backdrop_path": "/u6Ia5ZnD2oGevdlRkRLPleFTTkw.jpg", "belongs_to_collection": null, "budget": 0, "genres": [{"id": 35, "name": "Comedy"}], "homepage": "", "id": 41347, "imdb_id": "tt0024961", "original_language": "en", "original_title": "The Cat's-Paw", "overview": "Naive Ezekial Cobb, brought up by his missionary father in China returns to America to seek a wife. Corrupt politicians enlist him to run for mayor as a dummy candidate with no chance of winning. Their plan backfires as he wins and embarks upon a reform crusade.", "popularity": 2.282, "poster_path": "/fK6VEu97YBAIidt7TzS1v8smXR5.jpg", "production_companies": [{"id": 4111, "logo_path": null, "name": "The Harold Lloyd Corporation", "origin_country": ""}], "production_countries": [{"iso_3166_1": "US", "name": "United States of America"}], "release_date": "1934-08-07", "revenue": 0, "runtime": 102, "spoken_languages": [{"iso_639_1": "en", "name": "English"}], "status": "Released", "tagline": "Everything new but these [eyeglasses]", "title": "The Cat's-Paw", "video": false, "vote_average": 6.4, "vote_count": 7, "keywords": {"keywords": [{"id": 6083, "name": "politician"}]}, "similar": {"page": 1, "results": [{"id": 3083, "video": false, "vote_count": 515, "vote_average": 8.0, "title": "Mr. Smith Goes to Washington", "release_date": "1939-10-19", "original_language": "en", "original_title": "Mr. Smith Goes to Washington", "genre_ids": [35, 18], "backdrop_path": "/dwy7iMMePSfSNXvahTQPmygot1g.jpg", "adult": false, "overview": "Naive and idealistic Jefferson Smith, leader of the Boy Rangers, is appointed to the United States Senate by the puppet governor of his state. He soon discovers, upon going to Washington, many shortcomings of the political process as his earnest goal of a national boys' camp leads to a conflict with the state political boss.", "poster_path": "/5Z7WhbH9yinIcvEDtUUbbMUQHRY.jpg", "popularity": 12.462}, {"id": 476764, "video": false, "vote_count": 173, "vote_average": 6.0, "title": "The Front Runner", "release_date": "2018-11-06", "original_language": "en", "original_title": "The Front Runner", "genre_ids": [18, 36], "backdrop_path": "/kQVo5ECXrTcoMtj8hWbdiqpfPms.jpg", "adult": false, "overview": "Gary Hart, former Senator of Colorado, becomes the front-runner for the Democratic presidential nomination in 1987. Hart's intelligence, charisma and idealism makes him popular with young voters, leaving him with a seemingly clear path to the White House. All that comes crashing down when allegations of an extramarital affair surface in the media, forcing the candidate to address a scandal that threatens to derail his campaign and personal life.", "poster_path": "/7iMNvhINYaYwsF1jC5VaDeQ1V70.jpg", "popularity": 15.949}, {"id": 9388, "video": false, "vote_count": 1252, "vote_average": 7.2, "title": "Thank You for Smoking", "release_date": "2005-03-17", "original_language": "en", "original_title": "Thank You for Smoking", "genre_ids": [35, 18], "backdrop_path": "/D1VqMoYT4K2aFcywu3kGnycD6n.jpg", "adult": false, "overview": "Nick Naylor is a charismatic spin-doctor for Big Tobacco who'll fight to protect America's right to smoke -- even if it kills him -- while still remaining a role model for his 12-year old son. When he incurs the wrath of a senator bent on snuffing out cigarettes, Nick's powers of \"filtering the truth\" will be put to the test.", "poster_path": "/v8PKsbAGIvAhKbbRUjdQ3jgFD2S.jpg", "popularity": 10.472}, {"adult": false, "backdrop_path": "/8K8EwDzFA5fRZdAfldBnVktE7O3.jpg", "genre_ids": [18, 53], "id": 5125, "original_language": "en", "original_title": "Rendition", "overview": "When an Egyptian terrorism suspect \"disappears\" on a flight from Africa to Washington DC, his American wife and a CIA analyst find themselves caught up in a struggle to secure his release from a secret detention facility somewhere outside the US.", "poster_path": "/5vsEosyU3c5pCkjygaFnhilkng4.jpg", "release_date": "2007-09-07", "title": "Rendition", "video": false, "vote_average": 6.4, "vote_count": 372, "popularity": 8.432}, {"id": 376290, "video": false, "vote_count": 1036, "vote_average": 7.5, "title": "Miss Sloane", "release_date": "2016-11-25", "original_language": "en", "original_title": "Miss Sloane", "genre_ids": [18, 53], "backdrop_path": "/64xHK6gmw3ZwIpjeSWZ7W686J5l.jpg", "adult": false, "overview": "An ambitious lobbyist faces off against the powerful gun lobby in an attempt to pass gun control legislation.", "poster_path": "/lPgISoC37G3E2QEVtSuJ15oYlI.jpg", "popularity": 21.855}, {"adult": false, "backdrop_path": "/nlwzLx5WVZPZDwXvexGGfaktts7.jpg", "genre_ids": [878, 53, 10749], "id": 38050, "original_language": "en", "original_title": "The Adjustment Bureau", "overview": "A man glimpses the future Fate has planned for him \u2013 and chooses to fight for his own destiny. Battling the powerful Adjustment Bureau across, under and through the streets of New York, he risks his destined greatness to be with the only woman he's ever loved.", "poster_path": "/g87PqGH9Oo3d3Tbczcfk7ZMAIEk.jpg", "release_date": "2011-03-03", "title": "The Adjustment Bureau", "video": false, "vote_average": 6.7, "vote_count": 2859, "popularity": 12.928}, {"id": 401469, "video": false, "vote_count": 1260, "vote_average": 6.5, "title": "Widows", "release_date": "2018-11-06", "original_language": "en", "original_title": "Widows", "genre_ids": [80, 53], "backdrop_path": "/tkri1hMrb1FhWfb2bWpprsvq9Sd.jpg", "adult": false, "overview": "A police shootout leaves four thieves dead during an explosive armed robbery attempt in Chicago. Their widows have nothing in common except a debt left behind by their spouses' criminal activities. Hoping to forge a future on their own terms, they join forces to pull off a heist.", "poster_path": "/d31SGJSaX29ba5ZUbZcesGoDE7I.jpg", "popularity": 23.635}, {"adult": false, "backdrop_path": "/A9NDglBlTxLyKbTiKmgfh5MCrHj.jpg", "genre_ids": [18], "id": 17185, "original_language": "en", "original_title": "Advise & Consent", "overview": "A Senate investigation into the President's newly-nominated Secretary of State gives light to a secret from the past, which may not only ruin the candidate, but the President's character as well.", "poster_path": "/4fW4lM5iVVInFnV27OdXeSLUWFH.jpg", "release_date": "1962-06-06", "title": "Advise & Consent", "video": false, "vote_average": 7.4, "vote_count": 40, "popularity": 6.857}, {"id": 77953, "video": false, "vote_count": 1084, "vote_average": 5.8, "title": "The Campaign", "release_date": "2012-08-09", "original_language": "en", "original_title": "The Campaign", "genre_ids": [35], "backdrop_path": "/8mKomlkHvO753Wc9w2Q25ffc4UC.jpg", "adult": false, "overview": "Two rival politicians compete to win an election to represent their small North Carolina congressional district in the United States House of Representatives.", "poster_path": "/6uH8BOWN60mu2Vd5z4jCaVWb2ix.jpg", "popularity": 9.938}, {"adult": false, "backdrop_path": "/hU7YAbnf49QLnvxs30aCgGgSb9T.jpg", "genre_ids": [35], "id": 11000, "original_language": "en", "original_title": "The Birdcage", "overview": "A gay cabaret owner and his drag queen companion agree to put up a false straight front so that their son can introduce them to his fianc\u00e9's conservative moralistic parents.", "poster_path": "/wRTkvqRTB05gcGInsnGqVgLkb3t.jpg", "release_date": "1996-03-08", "title": "The Birdcage", "video": false, "vote_average": 7.0, "vote_count": 597, "popularity": 14.808}, {"id": 57353, "video": false, "vote_count": 66, "vote_average": 5.9, "title": "Cat Run", "release_date": "2011-04-01", "original_language": "en", "original_title": "Cat Run", "genre_ids": [28, 35, 53], "backdrop_path": "/zDtD5gL4JKS6lga9tip7MxpnPIQ.jpg", "adult": false, "overview": "When a sexy, high-end escort holds the key evidence to a scandalous government cover-up, two bumbling young detectives become her unlikely protectors from a ruthless assassin hired to silence her.", "poster_path": "/lt82eKlcuL6XzuFPygvfV1WSYh3.jpg", "popularity": 7.53}, {"id": 459992, "video": false, "vote_count": 881, "vote_average": 6.6, "title": "Long Shot", "release_date": "2019-05-02", "original_language": "en", "original_title": "Long Shot", "genre_ids": [35, 10749], "backdrop_path": "/88r25ghJzVYKq0vaOApqEOZsQlD.jpg", "adult": false, "overview": "Fred Flarsky is a gifted and free-spirited journalist who has a knack for getting into trouble. Charlotte Field is one of the most influential women in the world -- a smart, sophisticated and accomplished politician. When Fred unexpectedly runs into Charlotte, he soon realizes that she was his former baby sitter and childhood crush. When Charlotte decides to make a run for the presidency, she impulsively hires Fred as her speechwriter -- much to the dismay of her trusted advisers.", "poster_path": "/m2ttWZ8rMRwIMT7zA48Jo6mTkDS.jpg", "popularity": 36.039}, {"adult": false, "backdrop_path": "/plnmzCMPAb3suBAUJ4Yi2NC1APA.jpg", "genre_ids": [35], "id": 35056, "original_language": "en", "original_title": "Date Night", "overview": "Phil and Claire Foster fear that their mild-mannered relationship may be falling into a stale rut. During their weekly date night, their dinner reservation leads to their being mistaken for a couple of thieves\u2014and now a number of unsavoury characters want Phil and Claire killed.", "poster_path": "/fzzPht9KId6Ollow30jYtABhDY3.jpg", "release_date": "2010-04-08", "title": "Date Night", "video": false, "vote_average": 6.0, "vote_count": 1887, "popularity": 14.063}, {"id": 517909, "video": false, "vote_count": 428, "vote_average": 6.0, "title": "The Laundromat", "release_date": "2019-09-05", "original_language": "en", "original_title": "The Laundromat", "genre_ids": [35, 80, 18], "backdrop_path": "/ld3bBHoKINhXHjABn5yEJVSBOpF.jpg", "adult": false, "overview": "When her idyllic vacation takes an unthinkable turn, Ellen Martin begins investigating a fake insurance policy, only to find herself down a rabbit hole of questionable dealings that can be linked to a Panama City law firm and its vested interest in helping the world's wealthiest citizens amass larger fortunes.", "poster_path": "/hwNMJgbiUUvPCxsnADjbV9ysM5j.jpg", "popularity": 13.746}, {"adult": false, "backdrop_path": "/vXT5Gw09k99o9XXqqxBPz9NKgsa.jpg", "genre_ids": [35, 12], "id": 9285, "original_language": "en", "original_title": "Road Trip", "overview": "Four friends take off on an 1800 mile road trip to retrieve an illicit tape mistakenly mailed to a girl friend.", "poster_path": "/DCoZVnHVvtKTYwfM00dfVRbfUQ.jpg", "release_date": "2000-05-19", "title": "Road Trip", "video": false, "vote_average": 6.0, "vote_count": 1017, "popularity": 15.814}, {"id": 592739, "video": false, "vote_count": 51, "vote_average": 5.5, "title": "Cetto C'\u00e8", "release_date": "2019-11-21", "original_language": "it", "original_title": "Cetto c'\u00e8, senzadubbiamente", "genre_ids": [35], "backdrop_path": "/bzo9brPKm8lJgL2vqYmbvs1AFyd.jpg", "adult": false, "overview": "Third movie about the character of Cetto La Qualunque (Antonio Albanese)", "poster_path": "/5n5uCJQzFUMdBu3WkHhGBg2dhts.jpg", "popularity": 4.621}, {"adult": false, "backdrop_path": "/39iGTAyo60mk3KcMay2yYcLsUyP.jpg", "genre_ids": [53], "id": 11644, "original_language": "en", "original_title": "Blow Out", "overview": "Jack Terry is a master sound recordist who works on grade-B horror movies. Late one evening, he is recording sounds for use in his movies when he hears something unexpected through his sound equipment and records it. Curiosity gets the better of him when the media become involved, and he begins to unravel the pieces of a nefarious conspiracy. As he struggles to survive against his shadowy enemies and expose the truth, he does not know whom he can trust.", "poster_path": "/vt5d1gGPgkAKoKp127WPHjSJF3P.jpg", "release_date": "1981-07-24", "title": "Blow Out", "video": false, "vote_average": 7.4, "vote_count": 577, "popularity": 13.776}, {"id": 51876, "video": false, "vote_count": 6908, "vote_average": 7.2, "title": "Limitless", "release_date": "2011-03-08", "original_language": "en", "original_title": "Limitless", "genre_ids": [9648, 878, 53], "backdrop_path": "/9ISArgiVBdNLASKmvflRDMOYYMj.jpg", "adult": false, "overview": "A paranoia-fueled action thriller about an unsuccessful writer whose life is transformed by a top-secret \"smart drug\" that allows him to use 100% of his brain and become a perfect version of himself. His enhanced abilities soon attract shadowy forces that threaten his new life in this darkly comic and provocative film.", "poster_path": "/bQfOFEeXxi51ijQrbQY9qvMtYhZ.jpg", "popularity": 22.106}, {"id": 665, "video": false, "vote_count": 1331, "vote_average": 7.7, "title": "Ben-Hur", "release_date": "1959-12-26", "original_language": "en", "original_title": "Ben-Hur", "genre_ids": [12, 36], "backdrop_path": "/uOQPSUGG3ZHiDg9ecN8irQNZ4T1.jpg", "adult": false, "overview": "Judah Ben-Hur, a Palestinian Jew, is battling the Roman empire at the time of Christ. His actions send him and his family into slavery, but an inspirational encounter with Jesus changes everything. He finally meets his rival in a justly famous chariot race and rescues his suffering family.", "poster_path": "/m4WQ1dBIrEIHZNCoAjdpxwSKWyH.jpg", "popularity": 19.599}, {"id": 7485, "video": false, "vote_count": 2596, "vote_average": 7.0, "title": "Shooter", "release_date": "2007-03-22", "original_language": "en", "original_title": "Shooter", "genre_ids": [28, 80, 18, 9648, 53], "backdrop_path": "/3riR9Xpugbn1yvBBXGINbLeUigY.jpg", "adult": false, "overview": "A marksman living in exile is coaxed back into action after learning of a plot to kill the president. Ultimately double-crossed and framed for the attempt, he goes on the run to track the real killer and find out who exactly set him up, and why??", "poster_path": "/wCZv0lNx58sfuLT698RYYJVEeTr.jpg", "popularity": 29.267}], "total_pages": 51, "total_results": 1010}, "recommendations": {"page": 1, "results": [{"id": 42363, "video": false, "vote_count": 8, "vote_average": 6.8, "title": "Feet First", "release_date": "1930-11-08", "original_language": "en", "original_title": "Feet First", "genre_ids": [35], "backdrop_path": "/t0dKYjfNXrNM9rMI5dousDPDGiE.jpg", "adult": false, "overview": "Ambitious shoe salesman, Harold, unknowingly meets the boss' daughter and tells her he is a leather tycoon. The rest of the film he spends hiding his true circumstances, in the store and later on a ship. Trying to deliver a letter, he later finds himself dangling high above the street on a building's scaffolding.", "poster_path": "/bHTIlKVmU6q0oEwSqJlItrFkht7.jpg", "popularity": 3.775}, {"adult": false, "backdrop_path": null, "genre_ids": [18], "id": 104216, "original_language": "en", "original_title": "Sarah and Son", "overview": "A ne'er-do-well husband, after years of abusing his wife, disappears with their son, and winds up selling him to a wealthy family. Years later, the wife--now a world-famous opera singer--finally has enough time and money to begin a search for him.", "poster_path": "/yrBdEMQe49Z6vaCmufWWpLl4bzR.jpg", "release_date": "1930-03-14", "title": "Sarah and Son", "video": false, "vote_average": 5.0, "vote_count": 2, "popularity": 2.558}, {"adult": false, "backdrop_path": "/9kW0GGOeqqkLjRXKGAj6Ft702sh.jpg", "genre_ids": [35], "id": 55773, "original_language": "en", "original_title": "Man on the Flying Trapeze", "overview": "Hard-working, henpecked Ambrose Ambrose Wolfinger takes off from work to go to a wrestling match with catastrophic consequences.", "poster_path": "/6grffxtyIcxRAHBEHhDPCqrZBL5.jpg", "release_date": "1935-08-03", "title": "Man on the Flying Trapeze", "video": false, "vote_average": 4.3, "vote_count": 3, "popularity": 2.071}, {"adult": false, "backdrop_path": "/8cn5yFyClNxamPKXghrWrXGZUD0.jpg", "genre_ids": [35], "id": 53518, "original_language": "en", "original_title": "Now or Never", "overview": "A young man, unaccustomed to children, must accompany a young girl on a train trip.", "poster_path": "/k21Y1UNZXq1KFwr5s7GplcgiaMF.jpg", "release_date": "1921-03-27", "title": "Now or Never", "video": false, "vote_average": 6.1, "vote_count": 10, "popularity": 1.872}, {"adult": false, "backdrop_path": "/gFXJp6BFbLvxpVMD91HDCd6kmsL.jpg", "genre_ids": [35], "id": 53528, "original_language": "en", "original_title": "Welcome Danger", "overview": "A gentle botany student has to toughen up to replace his father as chief of police.", "poster_path": "/hzDIm9R2De7BFvDA4dMriD8VMel.jpg", "release_date": "1929-10-12", "title": "Welcome Danger", "video": false, "vote_average": 5.3, "vote_count": 9, "popularity": 2.968}, {"adult": false, "backdrop_path": "/i05pWEhRdANVqlZ3zPZuYLJL21n.jpg", "genre_ids": [35], "id": 53525, "original_language": "en", "original_title": "Among Those Present", "overview": "An ambitious coat-room checker impersonates an English nobleman.", "poster_path": "/5ypmgLkaWGv282fQIIXFkTcfuav.jpg", "release_date": "1921-05-29", "title": "Among Those Present", "video": false, "vote_average": 5.5, "vote_count": 11, "popularity": 3.233}, {"adult": false, "backdrop_path": "/tx1aZQDc0IRDKUybXo1cTQUPOll.jpg", "genre_ids": [35, 10749], "id": 53522, "original_language": "en", "original_title": "Movie Crazy", "overview": "After a mix-up with application photograph, an aspiring actor is invited to a test screening and goes off to Hollywood.", "poster_path": "/2uKvvKPsnOBp9rs2b2v7FZz6tms.jpg", "release_date": "1932-09-23", "title": "Movie Crazy", "video": false, "vote_average": 6.2, "vote_count": 9, "popularity": 2.855}, {"adult": false, "backdrop_path": "/dt7OPFmUCOMXyvcCXGXF3ieGNCi.jpg", "genre_ids": [35], "id": 41349, "original_language": "en", "original_title": "The Milky Way", "overview": "Timid milkman, Burleigh Sullivan, somehow knocks out a boxing champ in a brawl. The fighter's manager decides to build up the milkman's reputation in a series of fixed fights and then have the champ beat him to regain his title.", "poster_path": "/noiZMcfO5j3Vaypj9R5mlAKz8qG.jpg", "release_date": "1936-02-07", "title": "The Milky Way", "video": false, "vote_average": 6.1, "vote_count": 9, "popularity": 4.243}, {"adult": false, "backdrop_path": "/bCbhs1T62dKG80R1p4rSkLOrNES.jpg", "genre_ids": [80], "id": 6296, "original_language": "fr", "original_title": "L'assassinat du P\u00e8re No\u00ebl", "overview": "A village in the French Alps is rocked by a series of crimes, including the theft of a sacred ring and the murder of a man dressed as P\u00e8re No\u00ebl (Father Christmas).", "poster_path": "/smb55WANRg9psGO6H14R7TO33TV.jpg", "release_date": "1941-10-16", "title": "Who Killed Santa Claus?", "video": false, "vote_average": 7.0, "vote_count": 7, "popularity": 2.72}, {"adult": false, "backdrop_path": null, "genre_ids": [], "id": 204677, "original_language": "en", "original_title": "Muscle Tussle", "overview": "Daffy Duck takes his girl to a beach, where a muscle-bound duck attracts the attentions of Daffy's fickle chick. She leaves Daffy and walks off with the hunky duck. A salesman sells Daffy a bogus strength-building tonic, and Daffy takes some, thinking it has made him into a virile power-house! He challenges the muscular duck to a series of contests involving bar-bending, chain-chewing, and weight-lifting.", "poster_path": "/bkUnRK1D2ssex9Ty7VIFT01hCqo.jpg", "release_date": "1953-04-18", "title": "Muscle Tussle", "video": false, "vote_average": 6.4, "vote_count": 5, "popularity": 1.061}, {"adult": false, "backdrop_path": "/6Cj3KNs8wFT9F7cdqKjejpWM04i.jpg", "genre_ids": [35], "id": 48815, "original_language": "en", "original_title": "Double Whoopee", "overview": "Stan and Ollie wreak havoc at an upper class hotel in their jobs as footman (Hardy) and doorman (Laurel). They partially undress blonde bombshell Jean Harlow (in a brief appearance) and repeatedly escort a stuffy nobleman into an empty elevator shaft.", "poster_path": "/1lXfytUhRTy3aw8CqvGmDP4P1rz.jpg", "release_date": "1929-05-18", "title": "Double Whoopee", "video": false, "vote_average": 6.4, "vote_count": 8, "popularity": 2.636}, {"adult": false, "backdrop_path": "/4GoY5XtIpALn66D2akKUDfYAdtf.jpg", "genre_ids": [35], "id": 53526, "original_language": "en", "original_title": "I Do", "overview": "Comic adventures of newlyweds and children.", "poster_path": "/488qsxof6zfm7PzgGMMgDnQjvUi.jpg", "release_date": "1921-09-11", "title": "I Do", "video": false, "vote_average": 5.4, "vote_count": 10, "popularity": 1.68}, {"adult": false, "backdrop_path": "/fKRTCoV5YIn0zOEOovLIeOSFwXs.jpg", "genre_ids": [35, 37], "id": 40575, "original_language": "en", "original_title": "An Eastern Westerner", "overview": "A young man in New York has exasperated his father because of his constant carousing and irresponsibility, so his father sends him to his uncle's ranch in the west. The young man arrives in the town of Piute Pass, which is being terrorized by Tiger Lip Tompkins and his gang, the Masked Angels. The Easterner befriends a young woman whose father is being held captive by Tompkins, and he decides to help her.", "poster_path": "/qYfmanawivgoEqwyD8zSPBiFtaz.jpg", "release_date": "1920-05-02", "title": "An Eastern Westerner", "video": false, "vote_average": 7.1, "vote_count": 17, "popularity": 3.063}, {"adult": false, "backdrop_path": "/eOy1ckYL66RifuQE44n1DiCwsWz.jpg", "genre_ids": [35], "id": 53523, "original_language": "en", "original_title": "Get Out and Get Under", "overview": "The comic adventures of a new car owner.", "poster_path": "/3lnIIBukcf7LWTorRiAGSX3Kwkt.jpg", "release_date": "1920-09-26", "title": "Get Out and Get Under", "video": false, "vote_average": 6.2, "vote_count": 7, "popularity": 1.198}, {"id": 42366, "video": false, "vote_count": 12, "vote_average": 7.3, "title": "Dr. Jack", "release_date": "1922-11-26", "original_language": "en", "original_title": "Dr. Jack", "genre_ids": [35], "backdrop_path": "/6HMPuZ3cmoU5KTM0Ltzq3qemOOj.jpg", "adult": false, "overview": "Country doctor Jack Jackson is called in to treat the Sick-Little-Well-Girl, who has been making Dr. Saulsbourg and his sanitarium very rich after years of unsuccessful treatment.", "poster_path": "/iceUdp75bmXynPkrwT1iGAdzlxP.jpg", "popularity": 2.971}], "total_pages": 1, "total_results": 15}, "credits": {"cast": [{"cast_id": 8, "character": "Ezekiel Cobb", "credit_id": "52fe45c3c3a36847f80d91ef", "gender": 2, "id": 88953, "name": "Harold Lloyd", "order": 0, "profile_path": "/aE1pPjEoYOVeG9BtqoYkKePzgCd.jpg"}, {"cast_id": 2, "character": "Petunia Pratt / Cobb", "credit_id": "52fe45c3c3a36847f80d91d1", "gender": 1, "id": 13963, "name": "Una Merkel", "order": 1, "profile_path": "/hBDjQyU2xJ9vELw0H63igS7ugSD.jpg"}, {"cast_id": 3, "character": "Jake Mayo", "credit_id": "52fe45c3c3a36847f80d91d5", "gender": 2, "id": 30276, "name": "George Barbier", "order": 2, "profile_path": "/tu988TdkoHrhR61HPPQPdUP8QYp.jpg"}, {"cast_id": 4, "character": "Strozzi", "credit_id": "52fe45c3c3a36847f80d91d9", "gender": 2, "id": 32430, "name": "Nat Pendleton", "order": 3, "profile_path": "/dOtnUOR6bKMkIkPANf4C6JQnXXt.jpg"}, {"cast_id": 9, "character": "Dolores Doce", "credit_id": "52fe45c3c3a36847f80d91f3", "gender": 1, "id": 148397, "name": "Grace Bradley", "order": 4, "profile_path": "/wHpWbDt9tua4oqCfC7iBYiQSihx.jpg"}, {"cast_id": 10, "character": "Mayor Ed Morgan", "credit_id": "52fe45c3c3a36847f80d91f7", "gender": 2, "id": 34348, "name": "Alan Dinehart", "order": 5, "profile_path": "/zItSFkXyFGu1MInFuLaKNvhooNr.jpg"}, {"cast_id": 11, "character": "Silk Hot McGee", "credit_id": "52fe45c3c3a36847f80d91fb", "gender": 2, "id": 30215, "name": "Grant Mitchell", "order": 6, "profile_path": "/cDZpWgH0qOF4L5nmZJzGIHE5xo3.jpg"}, {"cast_id": 12, "character": "Gangster (uncredited)", "credit_id": "59460853c3a368171b01cb53", "gender": 2, "id": 97999, "name": "John George", "order": 7, "profile_path": "/gEhNTzAQ2EoZzpAQWMYQuOVkSpF.jpg"}], "crew": [{"credit_id": "52fe45c3c3a36847f80d91df", "department": "Directing", "gender": 2, "id": 143561, "job": "Director", "name": "Sam Taylor", "profile_path": "/pY9U3YTrPTZY68YF75nszT9WX7G.jpg"}, {"credit_id": "52fe45c3c3a36847f80d91e5", "department": "Writing", "gender": 0, "id": 143565, "job": "Story", "name": "Clarence Budington Kelland", "profile_path": null}, {"credit_id": "52fe45c3c3a36847f80d91eb", "department": "Writing", "gender": 2, "id": 143561, "job": "Writer", "name": "Sam Taylor", "profile_path": "/pY9U3YTrPTZY68YF75nszT9WX7G.jpg"}, {"credit_id": "5c26186a9251413ed415a2e7", "department": "Lighting", "gender": 2, "id": 2203283, "job": "Gaffer", "name": "Bill McLellan", "profile_path": null}]}}