{"adult": false, "backdrop_path": "/kTDOQwwdtZeasLIadAmqYSP4DlC.jpg", "belongs_to_collection": null, "budget": 0, "genres": [{"id": 35, "name": "Comedy"}, {"id": 18, "name": "Drama"}], "homepage": null, "id": 413727, "imdb_id": "tt5997928", "original_language": "hi", "original_title": "Hotel Salvation", "overview": "An ominous dream convinces 77-year-old Dayanand Kumar that his end could be near. He takes the news to his son Rajiv, knowing he wants to breathe his last in the holy city of Varanasi and end the cycle of rebirth, by attaining salvation. Being the dutiful son he is, Rajiv is left with no choice but to drop everything and make the journey with his stubborn father. Daya and Rajiv check into Mukti Bhawan (Hotel Salvation) in Varanasi, a guesthouse devoted to people who want to die there. But as the days go by, Rajiv struggles to juggle his responsibilities back home, while Daya starts to bloom in the hotel. Rajiv gives his father a shot at salvation but as family bonds are tested, he finds himself torn, and not knowing what he must do to keep his life together.", "popularity": 2.485, "poster_path": "/4KU7HqRPbl4ZTELz2uRDQYCLSOq.jpg", "production_companies": [{"id": 80972, "logo_path": "/ipfaSh5RVpRhdTgPtKyXJ9J0eJr.png", "name": "Red Carpet Moving Pictures", "origin_country": "IN"}], "production_countries": [{"iso_3166_1": "IN", "name": "India"}], "release_date": "2016-09-02", "revenue": 0, "runtime": 103, "spoken_languages": [{"iso_639_1": "hi", "name": "\u0939\u093f\u0928\u094d\u0926\u0940"}], "status": "Released", "tagline": "", "title": "Hotel Salvation", "video": false, "vote_average": 7.3, "vote_count": 12, "keywords": {"keywords": [{"id": 5153, "name": "son"}, {"id": 5905, "name": "father"}]}, "similar": {"page": 1, "results": [{"id": 8545, "video": false, "vote_count": 110, "vote_average": 6.6, "title": "Little Voice", "release_date": "1998-11-05", "original_language": "en", "original_title": "Little Voice", "genre_ids": [35, 18], "backdrop_path": "/2linGvYj4sBP5ys4Vzj9NlyaOAC.jpg", "adult": false, "overview": "After the death of her father, Little Voice or LV becomes a virtual recluse, never going out and hardly ever saying a word. She just sits in her bedroom listening to her father's collection of old records of Shirley Bassey, Marilyn Monroe and various other famous female singers. But at night time, LV sings, imitating these great singers with surprising accuracy. One night she is overheard by one of her mother's boyfriends, who happens to be a talent agent. He manages to convince her that her talent is special and arranges for her to perform at the local night club, but several problems arise.", "poster_path": "/cqdQtg7SAmAfJwoy79GCfc3SuKU.jpg", "popularity": 7.634}, {"adult": false, "backdrop_path": "/mAaSPfGA4ixiKSXYydNpbwZswi6.jpg", "genre_ids": [35], "id": 9427, "original_language": "en", "original_title": "The Full Monty", "overview": "Sheffield, England. Gaz, a jobless steelworker in need of quick cash persuades his mates to bare it all in a one-night-only strip show.", "poster_path": "/xkMiZv2FPrhIAtxvEcN1jAbkHRY.jpg", "release_date": "1997-08-13", "title": "The Full Monty", "video": false, "vote_average": 7.0, "vote_count": 891, "popularity": 10.763}, {"adult": false, "backdrop_path": "/bRGtZsVj2Qq8r5CCsNYmQUPF4z4.jpg", "genre_ids": [80, 18, 878, 53], "id": 10559, "original_language": "en", "original_title": "Frequency", "overview": "When a rare phenomenon gives police officer John Sullivan the chance to speak to his father, 30 years in the past, he takes the opportunity to prevent his dad's tragic death.  After his actions inadvertently give rise to a series of brutal murders he and his father must find a way to fix the consequences of altering time.", "poster_path": "/n0QAAZmIaPPIShVkk8eiKwfGV9.jpg", "release_date": "2000-04-28", "title": "Frequency", "video": false, "vote_average": 7.1, "vote_count": 897, "popularity": 14.026}, {"id": 49519, "video": false, "vote_count": 4248, "vote_average": 6.8, "title": "The Croods", "release_date": "2013-03-20", "original_language": "en", "original_title": "The Croods", "genre_ids": [28, 12, 16, 35, 14, 10751], "backdrop_path": "/vg2hf8eAZhULxtQRS87CbrH2WMQ.jpg", "adult": false, "overview": "The Croods is a prehistoric comedy adventure that follows the world's first family as they embark on a journey of a lifetime when the cave that has always shielded them from danger is destroyed. Traveling across a spectacular landscape, the Croods discover an incredible new world filled with fantastic creatures -- and their outlook is changed forever.", "poster_path": "/eHi3Nbgh6Cs2KiIyEMF4Ig4CdjX.jpg", "popularity": 29.513}, {"adult": false, "backdrop_path": "/1RTiQXeHoEMXkZNWaB8W5uaEZ2.jpg", "genre_ids": [18], "id": 205220, "original_language": "en", "original_title": "Philomena", "overview": "A woman searches for her adult son, who was taken away from her decades ago when she was forced to live in a convent.", "poster_path": "/6BTXHupSPkrwsoz4Br6qwwSVmhj.jpg", "release_date": "2013-11-01", "title": "Philomena", "video": false, "vote_average": 7.4, "vote_count": 1043, "popularity": 12.553}, {"id": 10779, "video": false, "vote_count": 773, "vote_average": 6.8, "title": "The Frighteners", "release_date": "1996-07-18", "original_language": "en", "original_title": "The Frighteners", "genre_ids": [35, 27], "backdrop_path": "/naGsxof4OVpWQJn1qd9sTwUvYPI.jpg", "adult": false, "overview": "Once an architect, Frank Bannister now passes himself off as an exorcist of evil spirits. To bolster his facade, he claims his \"special\" gift is the result of a car accident that killed his wife. But what he does not count on is more people dying in the small town where he lives. As he tries to piece together the supernatural mystery of these killings, he falls in love with the wife of one of the victims and deals with a crazy FBI agent.", "poster_path": "/cS3QPtMsE1jsEWUww5WsPE275Jb.jpg", "popularity": 12.799}, {"adult": false, "backdrop_path": "/hD8DQM72Xacg1d3mFqS0eN8vKYw.jpg", "genre_ids": [18], "id": 8272, "original_language": "en", "original_title": "The Savages", "overview": "A sister and brother face the realities of familial responsibility as they begin to care for their ailing father.", "poster_path": "/nY54gSmTOmSXlQpWDB7DWp4u8a7.jpg", "release_date": "2007-01-19", "title": "The Savages", "video": false, "vote_average": 6.9, "vote_count": 192, "popularity": 9.466}, {"id": 11816, "video": false, "vote_count": 215, "vote_average": 7.4, "title": "On Golden Pond", "release_date": "1981-12-01", "original_language": "en", "original_title": "On Golden Pond", "genre_ids": [18], "backdrop_path": "/j5cE2YUjyzEeRgWHuO2ccDL5Wps.jpg", "adult": false, "overview": "For Norman and Ethel Thayer, this summer on golden pond is filled with conflict and resolution. When their daughter Chelsea arrives, the family is forced to renew the bonds of love and overcome the generational friction that has existed for years. Norman must find his way through his anger and fear of growing old, while Chelsea struggles to rebuild their relationship. Ethel's consistent support of her \"Knight in shining armor\" is inspirational in its simplicity. This is a movie to ponder and always keep in your heart.", "poster_path": "/h88NQA1slcXmdmUKBjyymAEV8sS.jpg", "popularity": 9.427}, {"id": 116711, "video": false, "vote_count": 1799, "vote_average": 6.4, "title": "Epic", "release_date": "2013-05-15", "original_language": "en", "original_title": "Epic", "genre_ids": [12, 16, 14, 10751], "backdrop_path": "/v6w2o3ji8aVLph6zNgR5yDGQfmS.jpg", "adult": false, "overview": "A teenager finds herself transported to a deep forest setting where a battle between the forces of good and the forces of evil is taking place. She bands together with a rag-tag group characters in order to save their world\u2014and ours.", "poster_path": "/dUeXOJCpfWmZd9KaPkq2122J1ji.jpg", "popularity": 23.365}, {"id": 12429, "video": false, "vote_count": 1956, "vote_average": 7.7, "title": "Ponyo", "release_date": "2008-07-19", "original_language": "ja", "original_title": "\u5d16\u306e\u4e0a\u306e\u30dd\u30cb\u30e7", "genre_ids": [16, 10751], "backdrop_path": "/4gxJjq0Vg1mqkboYB9f92CTIsRu.jpg", "adult": false, "overview": "The son of a sailor, 5-year old Sosuke lives a quiet life on an oceanside cliff with his mother Lisa. One fateful day, he finds a beautiful goldfish trapped in a bottle on the beach and upon rescuing her, names her Ponyo. But she is no ordinary goldfish. The daughter of a masterful wizard and a sea goddess, Ponyo uses her father's magic to transform herself into a young girl and quickly falls in love with Sosuke, but the use of such powerful sorcery causes a dangerous imbalance in the world. As the moon steadily draws nearer to the earth and Ponyo's father sends the ocean's mighty waves to find his daughter, the two children embark on an adventure of a lifetime to save the world and fulfill Ponyo's dreams of becoming human.", "poster_path": "/3s0mpSpLkI7cIhqWGrGbsiyvlsH.jpg", "popularity": 44.142}, {"id": 10999, "video": false, "vote_count": 1439, "vote_average": 6.5, "title": "Commando", "release_date": "1985-10-03", "original_language": "en", "original_title": "Commando", "genre_ids": [28, 12, 53], "backdrop_path": "/p8MHS8hyMmrZafKDMzIdESJb1rI.jpg", "adult": false, "overview": "John Matrix, the former leader of a special commando strike force that always got the toughest jobs done, is forced back into action when his young daughter is kidnapped. To find her, Matrix has to fight his way through an array of punks, killers, one of his former commandos, and a fully equipped private army. With the help of a feisty stewardess and an old friend, Matrix has only a few hours to overcome his greatest challenge: finding his daughter before she's killed.", "poster_path": "/ypfLBI0xT9yyn38BFaRtp0Ny3uw.jpg", "popularity": 20.759}, {"id": 340103, "video": false, "vote_count": 276, "vote_average": 5.3, "title": "The Monster", "release_date": "2016-11-11", "original_language": "en", "original_title": "The Monster", "genre_ids": [18, 27], "backdrop_path": "/ioYtzheqeyVvZE2P1Xw2gFvet4D.jpg", "adult": false, "overview": "A mother and her 10-year old daughter are trapped in a forest. There is something in this forest. Something unlike anything they have heard before. Something that lurks in the darkness and it\u2019s coming after them.", "poster_path": "/zHH3awAbm1ir8cvSThcqUMnCmRG.jpg", "popularity": 8.912}, {"id": 5718, "video": false, "vote_count": 187, "vote_average": 6.6, "title": "King of California", "release_date": "2007-01-24", "original_language": "en", "original_title": "King of California", "genre_ids": [35, 18], "backdrop_path": "/j4384dFkFqgpJe8POee4w84s5Ks.jpg", "adult": false, "overview": "Charlie gets released from an insane asylum and moves in with Miranda, the young daughter he left behind. Charlie believes that there is treasure hidden beneath the local Costco, so he puts together a plan to unearth the loot. By convincing Miranda to quit her job at McDonald's and instead work at the wholesale store, he is able to obtain a key. Although Miranda is skeptical, she helps her father with his irrational quest.", "poster_path": "/zLoa3oJ83zo9g3mV9LNCHbqO7jH.jpg", "popularity": 9.573}, {"adult": false, "backdrop_path": "/kRoNmqktn8bHKAVwNP79bNeRI0d.jpg", "genre_ids": [35, 18], "id": 6963, "original_language": "en", "original_title": "The Weather Man", "overview": "A Chicago weather man, separated from his wife and children, debates whether professional and personal success are mutually exclusive.", "poster_path": "/g36DKoIbvdhSpngVel9U8rAO3el.jpg", "release_date": "2005-10-20", "title": "The Weather Man", "video": false, "vote_average": 6.1, "vote_count": 536, "popularity": 15.065}, {"adult": false, "backdrop_path": "/caLMOD3ZJ3V7qjlxDXrzlJfBLgD.jpg", "genre_ids": [18, 10749], "id": 20, "original_language": "en", "original_title": "My Life Without Me", "overview": "A Pedro Almodovar production in which a fatally ill mother with only two months to live creates a list of things she wants to do before she dies with out telling her family of her illness.", "poster_path": "/vVj92VBFUBzjqzLvBiPVVlJDp78.jpg", "release_date": "2003-03-07", "title": "My Life Without Me", "video": false, "vote_average": 6.1, "vote_count": 220, "popularity": 10.382}, {"id": 9813, "video": false, "vote_count": 128, "vote_average": 6.1, "title": "The Quiet", "release_date": "2005-09-12", "original_language": "en", "original_title": "The Quiet", "genre_ids": [18, 53], "backdrop_path": "/6eyWAZA4CEidZW1xXnQ4vlYBXTP.jpg", "adult": false, "overview": "After her widowed father dies, deaf teenager Dot moves in with her godparents, Olivia and Paul Deer. The Deers' daughter, Nina, is openly hostile to Dot, but that does not prevent her from telling her secrets to her silent stepsister, including the fact that she wants to kill her lecherous father.", "poster_path": "/GEqIE9YlmygHVUfS64LW2cwAAM.jpg", "popularity": 14.844}, {"id": 879, "video": false, "vote_count": 3284, "vote_average": 6.9, "title": "Hook", "release_date": "1991-12-11", "original_language": "en", "original_title": "Hook", "genre_ids": [12, 35, 14, 10751], "backdrop_path": "/rAb7vx2UauhHUmrYhZVoQxXuz37.jpg", "adult": false, "overview": "The boy who wasn't supposed grow up\u2014Peter Pan\u2014does just that, becoming a soulless corporate lawyer whose workaholism could cost him his wife and kids. During his trip to see Granny Wendy in London, the vengeful Capt. Hook kidnaps Peter's kids and forces Peter to return to Neverland.", "poster_path": "/6plGuz8L3fvkuENB0G2ZpBz6kej.jpg", "popularity": 18.327}, {"adult": false, "backdrop_path": "/9IfO3W1MUzDdpBqY1Ru6dzdJJld.jpg", "genre_ids": [18, 36, 10752, 28], "id": 2024, "original_language": "en", "original_title": "The Patriot", "overview": "After proving himself on the field of battle in the French and Indian War, Benjamin Martin wants nothing more to do with such things, preferring the simple life of a farmer. But when his son Gabriel enlists in the army to defend their new nation, America, against the British, Benjamin reluctantly returns to his old life to protect his son.", "poster_path": "/tgXOraQmKatqrVs2KMgnNn6QpO.jpg", "release_date": "2000-06-28", "title": "The Patriot", "video": false, "vote_average": 7.1, "vote_count": 2186, "popularity": 22.486}, {"adult": false, "backdrop_path": "/4BMel8xxSed1pCkPSGc9R3jsUtC.jpg", "genre_ids": [18, 10749], "id": 142, "original_language": "en", "original_title": "Brokeback Mountain", "overview": "Two modern-day cowboys meet on a shepherding job in the summer of '63, the two share a raw and powerful summer together that turns into a lifelong relationship conflicting with the lives they are supposed to live.", "poster_path": "/z2DqVxj17aW6xpimRlCLfhKSfUm.jpg", "release_date": "2005-09-10", "title": "Brokeback Mountain", "video": false, "vote_average": 7.8, "vote_count": 3790, "popularity": 20.344}, {"id": 11811, "video": false, "vote_count": 284, "vote_average": 5.2, "title": "Leprechaun", "release_date": "1993-01-08", "original_language": "en", "original_title": "Leprechaun", "genre_ids": [35, 27, 53], "backdrop_path": "/32Oy8gCg6gBGMMkZvdAq4xjZ0Qj.jpg", "adult": false, "overview": "A horrific Leprechaun goes on a rampage after his precious bag of gold coins is stolen. He uses all of his magical destructive powers to trick, terrorize and kill anyone who is unlucky enough to hinder his relentless search. In a frantic attempt to survive the wrath of the Leprechaun, Tori and her friends scramble to find the only weapon known to kill this Irish monster...a four-leaf clover.", "poster_path": "/2dsUS77eZIjWduahxqYtp3U0zS2.jpg", "popularity": 10.432}], "total_pages": 39, "total_results": 771}, "recommendations": {"page": 1, "results": [{"adult": false, "backdrop_path": "/dkber1uiddJvHqn6BGe84URUaSa.jpg", "genre_ids": [18], "id": 297736, "original_language": "en", "original_title": "Radiator", "overview": "A moving, blackly comic drama about the strains in coping with ageing parents.", "poster_path": "/tYIe2ICvE8imiXTaE9biWV568aG.jpg", "release_date": "2014-10-15", "title": "Radiator", "video": false, "vote_average": 8.1, "vote_count": 4, "popularity": 1.783}, {"adult": false, "backdrop_path": "/odLJ0I76IQ0NBlYi7LU8cOY6e2p.jpg", "genre_ids": [99], "id": 453277, "original_language": "fr", "original_title": "Nothingwood", "overview": "About a hundred kilometers away from Kabul, Salim Shaheen, the most popular and prolific actor-director-producer in Afghanistan, comes to show some of his 110 films and to shoot the 111th in the process.", "poster_path": "/hSHjoeF9zL3l5jHSvqZqf7pYLLM.jpg", "release_date": "2017-06-14", "title": "The Prince of Nothingwood", "video": false, "vote_average": 7.3, "vote_count": 6, "popularity": 1.013}, {"adult": false, "backdrop_path": "/2INknWb2CXouRXzy5qTJOWNJmmP.jpg", "genre_ids": [28, 37], "id": 22408, "original_language": "en", "original_title": "Rage at Dawn", "overview": "In this film's version of the story, four of the Reno Brothers are corrupt robbers and killers while a fifth, Clint (Denver Pyle) is a respected Indiana farmer. A sister, Laura (Mala Powers), who has inherited the family home, serves the outlaw brothers as a housekeeper and cook. One brother is killed when they go after a bank, the men of the town appear to have been waiting for them\u2026", "poster_path": "/8VpAxnZzphGhHE9QqcndM6OA55m.jpg", "release_date": "1955-03-26", "title": "Rage at Dawn", "video": false, "vote_average": 6.8, "vote_count": 8, "popularity": 3.655}, {"adult": false, "backdrop_path": "/kPuucVXlAeFTf3bkkX0n25ia2mp.jpg", "genre_ids": [18], "id": 404245, "original_language": "en", "original_title": "Starfish", "overview": "Based on the real story of Tom and Nicola Ray from Rutland. Their perfect life is totally ruined in a single moment after Tom had developed sepsis. While her husband was in coma, Nicola gave birth to their second child on the other side of the same hospital. Within a matter of days, sepsis would rob Tom of both his arms and legs, and left his face severely disfigured. As an ordinary man, Tom never put himself at risk \u2014 he just woke up two months later in a nightmare, a face-off quadruple amputee... This incredible story of survival shows what can be overcome when love is unconditional.", "poster_path": "/ysjAdklkfNlQ7t6CCf3QwgU5oU6.jpg", "release_date": "2016-10-28", "title": "Starfish", "video": false, "vote_average": 7.0, "vote_count": 8, "popularity": 4.443}, {"id": 450005, "video": false, "vote_count": 7, "vote_average": 7.1, "title": "City of Joy", "release_date": "2016-11-11", "original_language": "en", "original_title": "City of Joy", "genre_ids": [99], "backdrop_path": "/ylUBY5u08TUt4mSYNW30Sw9wK8D.jpg", "adult": false, "overview": "The Democratic Republic of Congo has endured 20 years of devastating violence. Rape has been used as a weapon of war to destroy community and access precious minerals. Congo is often referred to as \u201cthe worst place in the world to be a woman.\u201d \"City of Joy\" tells a different story of the region. The film focuses on Jane, a student at a center where women who have suffered unimaginable abuse join together to become leaders. We also meet the founders of the center: a devout Congolese Doctor, a Congolese activist, and a radical N.Y. playwright. The film weaves between joy and pain as these individuals band together to demand hope in a place so often deemed hopeless.", "poster_path": "/tm6KdGFHViTOU4qSEVwYaA9gtm2.jpg", "popularity": 2.389}, {"id": 470006, "video": false, "vote_count": 10, "vote_average": 6.1, "title": "The Student", "release_date": "2017-03-20", "original_language": "en", "original_title": "The Student", "genre_ids": [53], "backdrop_path": "/rzZv6uItMspMjAtjKcLudwhm3hO.jpg", "adult": false, "overview": "After leading a jury to wrongly sentence a man, Abigail enters her new teaching job at the law school with a newfound commitment to ethics. When she takes over her new class, it includes Vincent, an intensely ambitious student who will do anything for an A. When Abigail fails him for academic dishonesty, Vincent threatens that he will stop at nothing to get what he wants. As Vincent's devious plot begins to unravel, she must take her life into her own hands, or Vincent will take it himself.", "poster_path": "/cbVvsFJac0XeMpOREzEcgOA5YW3.jpg", "popularity": 3.335}, {"id": 28881, "video": false, "vote_count": 15, "vote_average": 6.7, "title": "Wind", "release_date": "1992-09-11", "original_language": "en", "original_title": "Wind", "genre_ids": [28], "backdrop_path": "/21EHOGCqN6KVKK47IxLi7aPVFRd.jpg", "adult": false, "overview": "In 1983, yacht sailor Will Parker leads an American crew financed by millionaire Morgan Weld to defeat during the America's Cup race against an Australian crew. Determined to get the prize back, Will convinces Morgan to finance an experimental boat designed by his ex-girlfriend Kate's new beau, Joe Heisler. When the boat is completed, the Americans head to Australia to reclaim the cup.", "poster_path": "/463mUkRLvk5QEEsN1AmfsRsTrQt.jpg", "popularity": 6.327}, {"id": 405924, "video": false, "vote_count": 12, "vote_average": 7.3, "title": "Janatha Garage", "release_date": "2016-09-01", "original_language": "te", "original_title": "\u0c1c\u0c28\u0c24\u0c3e \u0c17\u0c4d\u0c2f\u0c3e\u0c30\u0c47\u0c1c\u0c4d", "genre_ids": [28, 18], "backdrop_path": "/hup1MpyXuemlaHPslMzVhrex3mZ.jpg", "adult": false, "overview": "Anand is an environmental activist who lives in Mumbai. A chance exchange programme takes him to Hyderabad and here, a chance encounter with Satyam results in him taking over the Janatha Garage from the latter.", "poster_path": "/1RiIzc08FG6kBr0E4LpUwSmtwcE.jpg", "popularity": 1.646}, {"id": 339900, "video": false, "vote_count": 10, "vote_average": 6.3, "title": "Adventures of Omanakuttan", "release_date": "2017-05-19", "original_language": "ml", "original_title": "\u0d05\u0d21\u0d4d\u0d35\u0d1e\u0d4d\u0d1a\u0d47\u0d7c\u0d38\u0d4d \u0d13\u0d2b\u0d4d \u0d13\u0d2e\u0d28\u0d15\u0d4d\u0d15\u0d41\u0d1f\u0d4d\u0d1f\u0d7b", "genre_ids": [35, 53], "backdrop_path": "/tOrZ61B7I5gKJr8pUdJYTtI36Ii.jpg", "adult": false, "overview": "Omanakuttan is an introverted salesman who is down on confidence and luck. Spurred on by his colleague he decides to change himself and tries to act like a flirt. He meets Pallavi a free spirited girl, but as luck would have it he wakes up with memory loss and struggles to figure out who he really is. Both of them join in on an adventure to figure out the real Omanakuttan.", "poster_path": "/qBaJrmyCcwW5TuAj53tZEwmspF1.jpg", "popularity": 1.29}, {"adult": false, "backdrop_path": "/uSD3TZXSRHdkr4GOFh5TWPsn9xt.jpg", "genre_ids": [28, 18], "id": 527511, "original_language": "hi", "original_title": "Bhavesh Joshi Superhero", "overview": "A young man who stands for the right discovers that he's destined to do bigger things, which will transform him from a common man into a Superhero.", "poster_path": "/pAipCZYUuaKLImZHcvnyrOH5hDT.jpg", "release_date": "2018-06-01", "title": "Bhavesh Joshi Superhero", "video": false, "vote_average": 8.3, "vote_count": 12, "popularity": 2.798}, {"adult": false, "backdrop_path": "/dGs093SLXufyr8zbDFoNMqUB12v.jpg", "genre_ids": [35, 18], "id": 460844, "original_language": "hi", "original_title": "\u0924\u0941\u092e\u094d\u0939\u093e\u0930\u0940 \u0938\u0941\u0932\u0941", "overview": "A happy-go-lucky Mumbai suburban housewife Sulochana, fondly known as Sulu, lands the role of a night RJ, resulting in drastic changes to her routine life.", "poster_path": "/jzj55F023h1jR2xmUjsZUqegZm6.jpg", "release_date": "2017-11-17", "title": "Tumhari Sulu", "video": false, "vote_average": 6.6, "vote_count": 28, "popularity": 2.497}], "total_pages": 1, "total_results": 11}, "credits": {"cast": [{"cast_id": 0, "character": "", "credit_id": "57c93f74c3a3685bf800617a", "gender": 2, "id": 227849, "name": "Adil Hussain", "order": 1, "profile_path": "/mO1ZI8daGvlVT9ResomjTHiafyA.jpg"}, {"cast_id": 1, "character": "", "credit_id": "57c93f7dc3a3685bf100586b", "gender": 0, "id": 1312086, "name": "Lalit Behl", "order": 2, "profile_path": null}, {"cast_id": 2, "character": "", "credit_id": "57c93f85c3a3685bf100586e", "gender": 1, "id": 1432496, "name": "Geetanjali Kulkarni", "order": 3, "profile_path": null}, {"cast_id": 3, "character": "", "credit_id": "57c93f90c3a36834180047f1", "gender": 0, "id": 1466222, "name": "Palomi Ghosh", "order": 4, "profile_path": "/miC524uzx5NNssQhA1YrVyDjFnb.jpg"}, {"cast_id": 4, "character": "", "credit_id": "57c93f9ac3a3685bf100587d", "gender": 0, "id": 1673338, "name": "Navnindra Behl", "order": 5, "profile_path": null}, {"cast_id": 5, "character": "", "credit_id": "57c93fa392514125f2000146", "gender": 0, "id": 1673339, "name": "Anil K Rastogi", "order": 6, "profile_path": null}, {"cast_id": 7, "character": "Music Composer", "credit_id": "58e4efa8c3a368732602c037", "gender": 0, "id": 1790242, "name": "Tajdar Junaid", "order": 7, "profile_path": null}], "crew": [{"credit_id": "591d5b28c3a368723d01cb1f", "department": "Editing", "gender": 0, "id": 1186366, "job": "Editor", "name": "Manas Mittal", "profile_path": null}, {"credit_id": "57c93fba92514125ef0001bb", "department": "Directing", "gender": 2, "id": 1284965, "job": "Director", "name": "Shubhashish Bhutiani", "profile_path": "/9Hu6rlgzA6CNekTzHou0yFOoPPN.jpg"}, {"credit_id": "5bf751819251415cc80d6475", "department": "Writing", "gender": 2, "id": 1284965, "job": "Writer", "name": "Shubhashish Bhutiani", "profile_path": "/9Hu6rlgzA6CNekTzHou0yFOoPPN.jpg"}, {"credit_id": "591d5b1bc3a368799b01acd5", "department": "Crew", "gender": 0, "id": 1284968, "job": "Cinematography", "name": "Michael McSweeney", "profile_path": null}, {"credit_id": "591d5afc9251414ab101b0ce", "department": "Production", "gender": 0, "id": 1819030, "job": "Producer", "name": "Sanjay Bhutiani", "profile_path": null}, {"credit_id": "591d5b08925141485e01d278", "department": "Production", "gender": 0, "id": 1819031, "job": "Producer", "name": "Sajida Sharma", "profile_path": null}, {"credit_id": "591d5b11c3a368723d01cb00", "department": "Crew", "gender": 0, "id": 1819032, "job": "Cinematography", "name": "David Huwiler", "profile_path": null}, {"credit_id": "5bf751910e0a264f6e07b154", "department": "Writing", "gender": 0, "id": 2180864, "job": "Writer", "name": "Asad Hussain", "profile_path": null}]}}