{"adult": false, "backdrop_path": "/vjsN8mnMBhAampsLFWG4ytoyZle.jpg", "belongs_to_collection": null, "budget": 0, "genres": [{"id": 80, "name": "Crime"}, {"id": 9648, "name": "Mystery"}, {"id": 53, "name": "Thriller"}], "homepage": null, "id": 415441, "imdb_id": "tt0210794", "original_language": "en", "original_title": "The Lady in Question", "overview": "In 1938, Jewish-rights activist Emma Sachs is targeted by the Nazis. When she dies, foul play is suspected. But was it the Nazis, or was it someone else? Det. Tony Rossini investigates, along with Larry \"Cash\" Carter, a theatre director connected to Mrs. Sachs and her family.", "popularity": 2.053, "poster_path": "/pbUfNBdvUtA0OAfxouhUWReWEkx.jpg", "production_companies": [{"id": 81279, "logo_path": null, "name": "The Stan Margolies Company", "origin_country": ""}, {"id": 4077, "logo_path": null, "name": "Crystal Sky Worldwide", "origin_country": ""}, {"id": 20353, "logo_path": null, "name": "Granada Entertainment", "origin_country": ""}], "production_countries": [{"iso_3166_1": "US", "name": "United States of America"}], "release_date": "1999-12-12", "revenue": 0, "runtime": 94, "spoken_languages": [{"iso_639_1": "en", "name": "English"}], "status": "Released", "tagline": "", "title": "The Lady in Question", "video": false, "vote_average": 0.0, "vote_count": 0, "keywords": {"keywords": [{"id": 74, "name": "germany"}, {"id": 2652, "name": "nazi"}, {"id": 3879, "name": "suspect"}, {"id": 9826, "name": "murder"}, {"id": 187056, "name": "woman director"}]}, "similar": {"page": 1, "results": [{"adult": false, "backdrop_path": "/pA64Ov7lDpwXBu33yq0KpmAOYJL.jpg", "genre_ids": [27, 53], "id": 357096, "original_language": "en", "original_title": "I Spit on Your Grave III: Vengeance is Mine", "overview": "Jennifer Hills is still tormented by the brutal sexual assault she endured years ago. She\u2019s changed identities and cities, reluctantly joining a support group where she begins to piece together a new life. But when her new friend\u2019s murderer goes free and the tales of serial rapists haunt her, Jennifer will hunt down the men responsible and do what the system won\u2019t \u2013 make them pay for their crimes in the most horrific ways imaginable. Only this time, no jury may be able to save her.", "poster_path": "/6SnOlgrUoC5jqmgcYIM5lde5zYq.jpg", "release_date": "2015-10-01", "title": "I Spit on Your Grave III: Vengeance is Mine", "video": false, "vote_average": 5.3, "vote_count": 437, "popularity": 20.815}, {"adult": false, "backdrop_path": "/iZOgAvUt6q356da1sfYz1UalNO.jpg", "genre_ids": [80, 18, 10749, 53], "id": 3134, "original_language": "fr", "original_title": "Baise-moi", "overview": "Manu has lived a difficult life. Abused and violently raped, she sets off to find herself only to meet Nadine, a prostitute who has encountered one too many injustices in the world. Angry at the world, they embark on a twisted, rage-filled road trip. They choose to have sex when they please and kill when they need. Leaving a trail of mischief and dead bodies in their wake. Generating a media blitz and manhunt, soon everyone is out to capture the young fugitives.", "poster_path": "/sLvsIgWMH9bV1IZnZOzY5dXKUHe.jpg", "release_date": "2000-06-28", "title": "Baise-moi", "video": false, "vote_average": 4.3, "vote_count": 173, "popularity": 14.535}, {"adult": false, "backdrop_path": "/a24i4Qw6qFTtkFLQsncv8WPwevj.jpg", "genre_ids": [53, 28, 80], "id": 345887, "original_language": "en", "original_title": "The Equalizer 2", "overview": "Robert McCall, who serves an unflinching justice for the exploited and oppressed, embarks on a relentless, globe-trotting quest for vengeance when a long-time girl friend is murdered.", "poster_path": "/cQvc9N6JiMVKqol3wcYrGshsIdZ.jpg", "release_date": "2018-07-19", "title": "The Equalizer 2", "video": false, "vote_average": 6.5, "vote_count": 2483, "popularity": 21.271}, {"adult": false, "backdrop_path": "/nriBinb7Y3Bm6LdbmOC0mFxSm8d.jpg", "genre_ids": [80, 18], "id": 226, "original_language": "en", "original_title": "Boys Don't Cry", "overview": "Female born, Teena Brandon adopts his male identity of Brandon Teena and attempts to find himself and love in Nebraska.", "poster_path": "/6bqIZTEuJnUrgnxcymciszvOz8J.jpg", "release_date": "1999-09-02", "title": "Boys Don't Cry", "video": false, "vote_average": 7.5, "vote_count": 718, "popularity": 10.072}, {"id": 400090, "video": false, "vote_count": 106, "vote_average": 7.3, "title": "The Nightingale", "release_date": "2019-08-02", "original_language": "en", "original_title": "The Nightingale", "genre_ids": [12, 18, 53], "backdrop_path": "/bwsANtJNaA5xDmxPp6z2JqEtfCI.jpg", "adult": false, "overview": "In 1825, Claire, a 21-year-old Irish convict, chases a British soldier through the rugged Tasmanian wilderness, bent on revenge for a terrible act of violence he committed against her family. She enlists the services of an Aboriginal tracker who is also marked by trauma from his own violence-filled past.", "poster_path": "/hWA8QwSM1kJYMoTANEPoqrqBapg.jpg", "popularity": 14.654}, {"adult": false, "backdrop_path": "/scRw6gAoO3CfgQnZjHCh2ZgU4Z1.jpg", "genre_ids": [80, 18, 878, 53], "id": 281, "original_language": "en", "original_title": "Strange Days", "overview": "Set in the year 1999 during the last days of the old millennium, the movie tells the story of Lenny Nero, an ex-cop who now deals with data-discs containing recorded memories and emotions. One day he receives a disc which contains the memories of a murderer killing a prostitute. Lenny investigates and is pulled deeper and deeper in a whirl of blackmail, murder and rape. Will he survive and solve the case?", "poster_path": "/rXvy5hG9OeVmgnv9w4IhQxhqEKD.jpg", "release_date": "1995-10-13", "title": "Strange Days", "video": false, "vote_average": 7.0, "vote_count": 663, "popularity": 17.431}, {"id": 504, "video": false, "vote_count": 1127, "vote_average": 7.2, "title": "Monster", "release_date": "2003-12-24", "original_language": "en", "original_title": "Monster", "genre_ids": [80, 18], "backdrop_path": "/pexMctImHaIj8haojBDP5RxhM9X.jpg", "adult": false, "overview": "An emotionally scarred highway drifter shoots a sadistic trick who rapes her, and ultimately becomes America's first female serial killer.", "poster_path": "/aevmNtJCNG4ZlfEeEGZ79frMUes.jpg", "popularity": 14.393}, {"adult": false, "backdrop_path": "/3naOwcmYNZfd80kC1OXmembjc8j.jpg", "genre_ids": [53, 28, 18], "id": 445954, "original_language": "en", "original_title": "Acts of Vengeance", "overview": "A fast-talking lawyer transforms his body and takes a vow of silence, not to be broken until he finds out who killed his wife and daughter and has his revenge.", "poster_path": "/r5o6vWPYOQs6bv91gQ8kQs2zQYl.jpg", "release_date": "2017-10-27", "title": "Acts of Vengeance", "video": false, "vote_average": 5.7, "vote_count": 234, "popularity": 15.211}, {"adult": false, "backdrop_path": "/t3OZS8yMs0NL4YgWWc04eXHTn1X.jpg", "genre_ids": [28, 80, 53], "id": 984, "original_language": "en", "original_title": "Dirty Harry", "overview": "When a madman dubbed 'Scorpio' terrorizes San Francisco, hard-nosed cop, Harry Callahan \u2013 famous for his take-no-prisoners approach to law enforcement \u2013 is tasked with hunting down the psychopath. Harry eventually collars Scorpio in the process of rescuing a kidnap victim, only to see him walk on technicalities. Now, the maverick detective is determined to nail the maniac himself.", "poster_path": "/2TADKc4GMMPdMrLXj0xJVgTvZJM.jpg", "release_date": "1971-12-21", "title": "Dirty Harry", "video": false, "vote_average": 7.5, "vote_count": 1173, "popularity": 18.839}, {"adult": false, "backdrop_path": "/arcpWGGnUkGkakOwZo7xfPsaz7h.jpg", "genre_ids": [9648, 53], "id": 2832, "original_language": "en", "original_title": "Identity", "overview": "Complete strangers stranded at a remote desert motel during a raging storm soon find themselves the target of a deranged murderer. As their numbers thin out, the travelers begin to turn on each other, as each tries to figure out who the killer is.", "poster_path": "/xSNSp2wmCUwFavxdkMF417hBc39.jpg", "release_date": "2003-04-25", "title": "Identity", "video": false, "vote_average": 7.2, "vote_count": 2091, "popularity": 19.629}, {"adult": false, "backdrop_path": "/zWGAnbxjjwY3xFGuOeR26LGbBlG.jpg", "genre_ids": [27, 53], "id": 238636, "original_language": "en", "original_title": "The Purge: Anarchy", "overview": "One night per year, the government sanctions a 12-hour period in which citizens can commit any crime they wish -- including murder -- without fear of punishment or imprisonment. Leo, a sergeant who lost his son, plans a vigilante mission of revenge during the mayhem. However, instead of a death-dealing avenger, he becomes the unexpected protector of four innocent strangers who desperately need his help if they are to survive the night.", "poster_path": "/l1DRl40x2OWUoPP42v8fjKdS1Z3.jpg", "release_date": "2014-07-17", "title": "The Purge: Anarchy", "video": false, "vote_average": 6.6, "vote_count": 4145, "popularity": 36.766}, {"adult": false, "backdrop_path": "/o4psXh7IVD6GFKvBSHjHLzjL2lV.jpg", "genre_ids": [27, 53], "id": 10781, "original_language": "en", "original_title": "The Texas Chainsaw Massacre: The Beginning", "overview": "Chrissie and her friends set out on a road trip for a final fling before one is shipped off to Vietnam. Along the way, bikers harass the foursome and cause an accident that throws Chrissie from the vehicle. The lawman who arrives on the scene kills one of the bikers and brings Chrissie's friends to the Hewitt homestead, where young Leatherface is learning the tools of terror.", "poster_path": "/9elCJIG1TOJ0wew3JVx5ZMkHq5w.jpg", "release_date": "2006-10-06", "title": "The Texas Chainsaw Massacre: The Beginning", "video": false, "vote_average": 6.0, "vote_count": 936, "popularity": 19.211}, {"adult": false, "backdrop_path": "/19qAk3bQZ6ulspbwhPw1A0bNpii.jpg", "genre_ids": [80, 27, 53], "id": 73861, "original_language": "sr", "original_title": "Srpski film", "overview": "Milos, a retired porn star, leads a normal family life trying to make ends meet. Presented with the opportunity of a lifetime to financially support his family for the rest of their lives, Milos must participate in one last mysterious film. From then on, Milos is drawn into a maelstrom of unbelievable cruelty and mayhem.", "poster_path": "/iB3ynCghwG63MrViBC6YyPzUIAn.jpg", "release_date": "2010-06-16", "title": "A Serbian Film", "video": false, "vote_average": 5.5, "vote_count": 898, "popularity": 16.013}, {"id": 65754, "video": false, "vote_count": 4330, "vote_average": 7.3, "title": "The Girl with the Dragon Tattoo", "release_date": "2011-12-14", "original_language": "en", "original_title": "The Girl with the Dragon Tattoo", "genre_ids": [80, 18, 9648, 53], "backdrop_path": "/1fk2xS5hRkblBuag5JXZkmE8pg6.jpg", "adult": false, "overview": "This English-language adaptation of the Swedish novel by Stieg Larsson follows a disgraced journalist, Mikael Blomkvist, as he investigates the disappearance of a weary patriarch's niece from 40 years ago. He is aided by the pierced, tattooed, punk computer hacker named Lisbeth Salander. As they work together in the investigation, Blomkvist and Salander uncover immense corruption beyond anything they have ever imagined.", "poster_path": "/voxRWFTtagLiqnJQs9tWQLB0MN.jpg", "popularity": 27.09}, {"id": 395834, "video": false, "vote_count": 2755, "vote_average": 7.4, "title": "Wind River", "release_date": "2017-08-03", "original_language": "en", "original_title": "Wind River", "genre_ids": [80, 18, 9648, 53], "backdrop_path": "/6B8e784decj9vtKuNjbl9Fes2aZ.jpg", "adult": false, "overview": "An FBI agent teams with the town's veteran game tracker to investigate a murder that occurred on a Native American reservation.", "poster_path": "/pySivdR845Hom4u4T2WNkJxe6Ad.jpg", "popularity": 16.931}, {"adult": false, "backdrop_path": "/61jXRAqQihmnIfViTChwkGHMXsT.jpg", "genre_ids": [27, 9648, 53], "id": 12619, "original_language": "en", "original_title": "Cherry Falls", "overview": "Cherry Falls is a quiet little town - until the night that a serial killer begins preying on its youth. After a third teen is found slain, the killer's modus operandi emerges: the victims were all virgins. Sheriff Marken is concerned for the safety of the teens in general and in particular his own daughter Jody, who is still a virgin...", "poster_path": "/9bw9yVBFyv3nMeVDR7gjzELAATh.jpg", "release_date": "2000-08-25", "title": "Cherry Falls", "video": false, "vote_average": 5.0, "vote_count": 133, "popularity": 9.535}, {"adult": false, "backdrop_path": "/kiWvoV78Cc3fUwkOHKzyBgVdrDD.jpg", "genre_ids": [37, 18, 12], "id": 281957, "original_language": "en", "original_title": "The Revenant", "overview": "In the 1820s, a frontiersman, Hugh Glass, sets out on a path of vengeance against those who left him for dead after a bear mauling.", "poster_path": "/oXUWEc5i3wYyFnL1Ycu8ppxxPvs.jpg", "release_date": "2015-12-25", "title": "The Revenant", "video": false, "vote_average": 7.5, "vote_count": 12127, "popularity": 24.135}, {"id": 28355, "video": false, "vote_count": 1285, "vote_average": 6.2, "title": "Case 39", "release_date": "2009-08-13", "original_language": "en", "original_title": "Case 39", "genre_ids": [27, 9648, 53], "backdrop_path": "/luTLwjU4WpQR2zBxJAKdK1D7C8T.jpg", "adult": false, "overview": "In her many years as a social worker, Emily Jenkins believes she has seen it all, until she meets 10-year-old Lilith and the girl's cruel parents. Emily's worst fears are confirmed when the parents try to harm the child, and so Emily assumes custody of Lilith while she looks for a foster family. However, Emily soon finds that dark forces surround the seemingly innocent girl, and the more she tries to protect Lilith, the more horrors she encounters.", "poster_path": "/xSyj4F1UVtAXhqSGpNCZRaBsKAJ.jpg", "popularity": 14.324}, {"id": 4771, "video": false, "vote_count": 2134, "vote_average": 7.3, "title": "Gone Baby Gone", "release_date": "2007-09-18", "original_language": "en", "original_title": "Gone Baby Gone", "genre_ids": [80, 18, 9648], "backdrop_path": "/sogh5NXPbKFajjYKBlfIBfCWgbq.jpg", "adult": false, "overview": "When 4 year old Amanda McCready disappears from her home and the police make little headway in solving the case, the girl's aunt, Beatrice McCready hires two private detectives, Patrick Kenzie and Angie Gennaro. The detectives freely admit that they have little experience with this type of case, but the family wants them for two reasons - they're not cops and they know the tough neighborhood in which they all live. As the case progresses, Kenzie and Gennaro face drug dealers, gangs and pedophiles. When they are about to solve the case, they are faced with a moral dilemma that tears them apart.", "poster_path": "/dXXMPxGiRegd7NNCtE5uchAKRAG.jpg", "popularity": 16.498}, {"adult": false, "backdrop_path": "/ct2r3CqnA0KtMfib4AvfBU1W9M2.jpg", "genre_ids": [28, 80, 53], "id": 398175, "original_language": "en", "original_title": "Brawl in Cell Block 99", "overview": "After working as a drug courier and getting into a brutal shootout with police, a former boxer finds himself at the mercy of his enemies as they force him to instigate violent acts that turn the prison he resides in into a battleground.", "poster_path": "/lGgIQ10NJ3d0X0uFbbUN4pRrMFZ.jpg", "release_date": "2017-09-23", "title": "Brawl in Cell Block 99", "video": false, "vote_average": 6.8, "vote_count": 605, "popularity": 13.011}], "total_pages": 1069, "total_results": 21380}, "recommendations": {"page": 1, "results": [], "total_pages": 1, "total_results": 0}, "credits": {"cast": [{"cast_id": 0, "character": "Larry 'Cash' Carter", "credit_id": "57d5cf339251416f590012b1", "gender": 2, "id": 3460, "name": "Gene Wilder", "order": 1, "profile_path": "/ft5xCaueLZafWk42K1aAs1v6xoQ.jpg"}, {"cast_id": 1, "character": "Det. Tony Rossini", "credit_id": "57d5cf3dc3a3684f40001371", "gender": 2, "id": 5170, "name": "Mike Starr", "order": 2, "profile_path": "/qzoXxFJlhcos4kAPJmqMpdw0Tin.jpg"}, {"cast_id": 2, "character": "Mimi Barnes", "credit_id": "57d5cf49c3a3684f2d001231", "gender": 1, "id": 1956, "name": "Cherry Jones", "order": 3, "profile_path": "/vhJQCBWah9L84HefqvJt8fyf7y7.jpg"}, {"cast_id": 3, "character": "Rachel Singer", "credit_id": "57d5cf52c3a3684f37001311", "gender": 1, "id": 23378, "name": "Barbara Sukowa", "order": 4, "profile_path": "/mGKhBMI9P2teTXC1v9HgS3WtL73.jpg"}, {"cast_id": 4, "character": "Paul Kessler", "credit_id": "57d5cf5cc3a3684f37001317", "gender": 2, "id": 21179, "name": "John Benjamin Hickey", "order": 5, "profile_path": "/4srJbpblPshcmQPI5auoAR8c1bi.jpg"}, {"cast_id": 5, "character": "Klaus Gruber", "credit_id": "57d5cf709251416f50001206", "gender": 2, "id": 171652, "name": "Michael Cumpsty", "order": 6, "profile_path": "/gwldSJBtljCxKVc0tTBPm60uCYS.jpg"}, {"cast_id": 6, "character": "Rudy Bernheim", "credit_id": "57d5cf79c3a3684f34001177", "gender": 2, "id": 101165, "name": "Daniel Sauli", "order": 7, "profile_path": "/bl3dSCbXTdnKwQpvT3jEKcYUUmh.jpg"}, {"cast_id": 7, "character": "Dorie Bernheim", "credit_id": "57d5cf839251416f52001259", "gender": 0, "id": 1225943, "name": "Kerry McPherson", "order": 8, "profile_path": null}, {"cast_id": 8, "character": "Gertie Moser", "credit_id": "57d5cf91c3a3684f37001333", "gender": 1, "id": 1239586, "name": "Dixie Seatle", "order": 9, "profile_path": null}, {"cast_id": 9, "character": "Emma Sachs", "credit_id": "57d5cf9cc3a3684f37001336", "gender": 1, "id": 29545, "name": "Claire Bloom", "order": 10, "profile_path": "/4x0Cfh1g8apqOPio8AJx9oUV9mK.jpg"}], "crew": [{"credit_id": "57d5cfbfc3a3684f34001194", "department": "Writing", "gender": 2, "id": 3460, "job": "Writer", "name": "Gene Wilder", "profile_path": "/ft5xCaueLZafWk42K1aAs1v6xoQ.jpg"}, {"credit_id": "57d5cfb8c3a3684f37001344", "department": "Directing", "gender": 1, "id": 146150, "job": "Director", "name": "Joyce Chopra", "profile_path": "/grMXQuW4BxM0IRdoid4mjVLuWwp.jpg"}, {"credit_id": "57d5cfc7c3a3684f2b0011bb", "department": "Writing", "gender": 0, "id": 1677861, "job": "Writer", "name": "Gilbert Pearlman", "profile_path": null}]}}