{"adult": false, "backdrop_path": "/h82Ahc1gZ8DrKqr4QVYXkhigqXm.jpg", "belongs_to_collection": {"id": 321647, "name": "Friends Collection", "poster_path": "/ug80PKTs3dewVQYx6juRB2Ny30Y.jpg", "backdrop_path": "/dOCDY3XMNjtLmzpRHAE0vLbr73I.jpg"}, "budget": 0, "genres": [{"id": 10749, "name": "Romance"}, {"id": 18, "name": "Drama"}], "homepage": null, "id": 4155, "imdb_id": "tt0071978", "original_language": "en", "original_title": "Paul and Michelle", "overview": "Taking place approximately three years after the events in Friends, Paul and Michelle follows the family of Paul Harrison and Michelle Latour-Harrison after they have been reunited. Paul has to cope with the difficulties he faces balancing work, college, and trying to maintain their family as well as a new love interest for Michelle.", "popularity": 2.79, "poster_path": "/qOZjhZNzZBBCIP3XvwsachOYVbN.jpg", "production_companies": [{"id": 4, "logo_path": "/fycMZt242LVjagMByZOLUGbCvv3.png", "name": "Paramount", "origin_country": "US"}, {"id": 1575, "logo_path": null, "name": "Lewis Gilbert Productions", "origin_country": ""}], "production_countries": [{"iso_3166_1": "GB", "name": "United Kingdom"}], "release_date": "1974-03-15", "revenue": 0, "runtime": 90, "spoken_languages": [{"iso_639_1": "en", "name": "English"}], "status": "Released", "tagline": "Their love story was so unique it inspired two motion pictures. \"Friends\", in 1971. And now \"Paul and Michelle.\"", "title": "Paul and Michelle", "video": false, "vote_average": 5.3, "vote_count": 2, "keywords": {"keywords": [{"id": 90, "name": "paris, france"}, {"id": 392, "name": "england"}, {"id": 745, "name": "nun"}, {"id": 1009, "name": "baby"}, {"id": 3687, "name": "graduation"}, {"id": 6149, "name": "police"}, {"id": 11112, "name": "search"}]}, "similar": {"page": 1, "results": [{"id": 75780, "video": false, "vote_count": 4451, "vote_average": 6.4, "title": "Jack Reacher", "release_date": "2012-12-20", "original_language": "en", "original_title": "Jack Reacher", "genre_ids": [28, 80, 18, 53], "backdrop_path": "/ezXodpP429qK0Av89pVNlaXWJkQ.jpg", "adult": false, "overview": "When a gunman takes five lives with six shots, all evidence points to the suspect in custody. On interrogation, the suspect offers up a single note: \"Get Jack Reacher!\" So begins an extraordinary chase for the truth, pitting Jack Reacher against an unexpected enemy, with a skill for violence and a secret to keep.", "poster_path": "/mt0ELw83HIRgaKaDzhsDcIi0RnW.jpg", "popularity": 15.945}, {"adult": false, "backdrop_path": "/uUYCUbgI5VxsUflTMI4Y9L2Y6vb.jpg", "genre_ids": [80, 18, 53], "id": 11423, "original_language": "ko", "original_title": "\uc0b4\uc778\uc758 \ucd94\uc5b5", "overview": "1986 Gyunggi Province. The body of a young woman is found brutally raped and murdered. Two months later, a series of rapes and murders commences under similar circumstances. And in a country that had never known such crimes, the dark whispers about a serial murderer grow louder. A special task force is set up in the area, with two local detectives Park Doo-Man and Jo Young-Goo joined by a detective from Seoul who requested to be assigned to the case.", "poster_path": "/gawnVe9cFowdoDLo9Pok12NTw39.jpg", "release_date": "2003-05-02", "title": "Memories of Murder", "video": false, "vote_average": 8.1, "vote_count": 1093, "popularity": 13.452}, {"adult": false, "backdrop_path": "/4AXlsl0azR9d9xjX9tDdfAeM8lt.jpg", "genre_ids": [80, 18, 9648, 10749], "id": 25376, "original_language": "es", "original_title": "El secreto de sus ojos", "overview": "A retired legal counselor writes a novel hoping to find closure for one of his past unresolved homicide cases and for his unreciprocated love with his superior - both of which still haunt him decades later.", "poster_path": "/z2mUzEqDi7DtA1E4mYzVjbzXnqE.jpg", "release_date": "2009-08-13", "title": "The Secret in Their Eyes", "video": false, "vote_average": 7.9, "vote_count": 1288, "popularity": 11.544}, {"adult": false, "backdrop_path": "/6Xk2RR6h4dq1JHorzL9WIsh8aJA.jpg", "genre_ids": [18, 9648, 53, 80], "id": 10990, "original_language": "en", "original_title": "Mulholland Falls", "overview": "In 1950s Los Angeles, a special crime squad of the LAPD investigates the murder of a young woman.", "poster_path": "/hZRbWIPqVlp1fslaAmC2WOWNjBU.jpg", "release_date": "1996-04-26", "title": "Mulholland Falls", "video": false, "vote_average": 6.1, "vote_count": 130, "popularity": 13.139}, {"id": 193893, "video": false, "vote_count": 1816, "vote_average": 6.3, "title": "Let's Be Cops", "release_date": "2014-08-13", "original_language": "en", "original_title": "Let's Be Cops", "genre_ids": [35], "backdrop_path": "/43GrPpAeBUOvOCZ8L1A3MLuDnkc.jpg", "adult": false, "overview": "It's the ultimate buddy cop movie except for one thing: they're not cops.  When two struggling pals dress as police officers for a costume party, they become neighborhood sensations.  But when these newly-minted \u201cheroes\u201d get tangled in a real life web of mobsters and dirty detectives, they must put their fake badges on the line.", "poster_path": "/ayYibwWAA9NxJPaD9GSybPShtvL.jpg", "popularity": 21.654}, {"adult": false, "backdrop_path": "/hm4vpIhBW75bTIDTurq2d4rLZy1.jpg", "genre_ids": [53, 18, 27], "id": 3511, "original_language": "en", "original_title": "The Broken", "overview": "The life of a successful radiologist spirals out of control when she sees the spitting image of herself driving down a London street. While attempting to uncover who the imposter could be, she stumbles into a terrifying mystery that her family and closest friends are somehow involved in, leaving her with no one to trust.", "poster_path": "/nGTUsccLUZhF9Bb5fjvL7KrogvC.jpg", "release_date": "2008-01-18", "title": "The Broken", "video": false, "vote_average": 5.5, "vote_count": 113, "popularity": 10.122}, {"id": 1949, "video": false, "vote_count": 5165, "vote_average": 7.5, "title": "Zodiac", "release_date": "2007-03-02", "original_language": "en", "original_title": "Zodiac", "genre_ids": [80, 18, 9648, 53], "backdrop_path": "/jP2htGBHE7vKq4MLeC75UeC0sZH.jpg", "adult": false, "overview": "The true story of the investigation of the \"Zodiac Killer\", a serial killer who terrified the San Francisco Bay Area, taunting police with his ciphers and letters. The case becomes an obsession for three men as their lives and careers are built and destroyed by the endless trail of clues.", "poster_path": "/bgLyOROfFQI3FqYL7jQbiaV8lkN.jpg", "popularity": 24.455}, {"adult": false, "backdrop_path": "/2J283YNxKhxAqHeVegUJ5mzLfGb.jpg", "genre_ids": [80, 18, 9648], "id": 392044, "original_language": "en", "original_title": "Murder on the Orient Express", "overview": "Genius Belgian detective Hercule Poirot investigates the murder of an American tycoon aboard the Orient Express train.", "poster_path": "/iBlfxlw8qwtUS0R8YjIU7JtM6LM.jpg", "release_date": "2017-11-03", "title": "Murder on the Orient Express", "video": false, "vote_average": 6.7, "vote_count": 6050, "popularity": 27.701}, {"adult": false, "backdrop_path": "/bRGtZsVj2Qq8r5CCsNYmQUPF4z4.jpg", "genre_ids": [80, 18, 878, 53], "id": 10559, "original_language": "en", "original_title": "Frequency", "overview": "When a rare phenomenon gives police officer John Sullivan the chance to speak to his father, 30 years in the past, he takes the opportunity to prevent his dad's tragic death.  After his actions inadvertently give rise to a series of brutal murders he and his father must find a way to fix the consequences of altering time.", "poster_path": "/n0QAAZmIaPPIShVkk8eiKwfGV9.jpg", "release_date": "2000-04-28", "title": "Frequency", "video": false, "vote_average": 7.1, "vote_count": 897, "popularity": 14.026}, {"id": 1427, "video": false, "vote_count": 2511, "vote_average": 7.2, "title": "Perfume: The Story of a Murderer", "release_date": "2006-09-13", "original_language": "en", "original_title": "Perfume: The Story of a Murderer", "genre_ids": [80, 18, 14], "backdrop_path": "/3i8bJa5yvLZW2k4sg2Cd1Yy0a1x.jpg", "adult": false, "overview": "Jean-Baptiste Grenouille, born in the stench of 18th century Paris, develops a superior olfactory sense, which he uses to create the world's finest perfumes. However, his work takes a dark turn as he tries to preserve scents in the search for the ultimate perfume.", "poster_path": "/zC9JHS6NlkJKPYFxOOqBl7fQCjT.jpg", "popularity": 20.263}, {"id": 395834, "video": false, "vote_count": 2755, "vote_average": 7.4, "title": "Wind River", "release_date": "2017-08-03", "original_language": "en", "original_title": "Wind River", "genre_ids": [80, 18, 9648, 53], "backdrop_path": "/6B8e784decj9vtKuNjbl9Fes2aZ.jpg", "adult": false, "overview": "An FBI agent teams with the town's veteran game tracker to investigate a murder that occurred on a Native American reservation.", "poster_path": "/pySivdR845Hom4u4T2WNkJxe6Ad.jpg", "popularity": 16.931}, {"adult": false, "backdrop_path": "/lx9eC0e98ZrdU0y55LrydS8CMMp.jpg", "genre_ids": [28, 12, 80, 18, 9648, 53], "id": 9631, "original_language": "en", "original_title": "The Negotiator", "overview": "The police try to arrest expert hostage negotiator Danny Roman, who insists he's being framed for his partner's murder in what he believes is an elaborate conspiracy. Thinking there's evidence in the Internal Affairs offices that might clear him, he takes everyone in the office hostage and demands that another well-known negotiator be brought in to handle the situation and secretly investigate the conspiracy.", "poster_path": "/u4LQDr6QB5i7dz3sMuP8u3EOd3D.jpg", "release_date": "1998-07-29", "title": "The Negotiator", "video": false, "vote_average": 7.0, "vote_count": 1082, "popularity": 18.49}, {"adult": false, "backdrop_path": "/5UhVmv70qTfy7YSf8r87kNXWxjK.jpg", "genre_ids": [18, 53, 9648], "id": 638, "original_language": "en", "original_title": "Lost Highway", "overview": "A tormented jazz musician finds himself lost in an enigmatic story involving murder, surveillance, gangsters, doppelgangers, and an impossible transformation inside a prison cell.", "poster_path": "/z6yhgEzGUJaBBgAxoyggRzwLnVM.jpg", "release_date": "1997-01-15", "title": "Lost Highway", "video": false, "vote_average": 7.6, "vote_count": 1279, "popularity": 17.633}, {"id": 354979, "video": false, "vote_count": 172, "vote_average": 5.1, "title": "Dog Eat Dog", "release_date": "2016-11-04", "original_language": "en", "original_title": "Dog Eat Dog", "genre_ids": [80, 18, 53], "backdrop_path": "/e24rFaIHbsXmD3CpQBjBE9uEceh.jpg", "adult": false, "overview": "Carved from a lifetime of experience that runs the gamut from incarceration to liberation, Dog Eat Dog is the story of three men who are all out of prison and now have the task of adapting themselves to civilian life.", "poster_path": "/mI3u5OpbDrHSVryIA3E0WYSdvi8.jpg", "popularity": 10.669}, {"adult": false, "backdrop_path": "/t4DO37tO3mhMX4DCdnI1EPsRi26.jpg", "genre_ids": [80, 18, 9648], "id": 3580, "original_language": "en", "original_title": "Changeling", "overview": "Christine Collins is overjoyed when her kidnapped son is brought back home. But when Christine suspects that the boy returned to her isn't her child, the police captain has her committed to an asylum.", "poster_path": "/qtte2n6ygA1zVG5kLrjUGui28TJ.jpg", "release_date": "2008-01-30", "title": "Changeling", "video": false, "vote_average": 7.5, "vote_count": 2322, "popularity": 19.918}, {"adult": false, "backdrop_path": "/pyopmpNMW3mTBz0ZqInyGYDEgb6.jpg", "genre_ids": [18, 53], "id": 11062, "original_language": "en", "original_title": "City Hall", "overview": "The accidental shooting of a boy in New York leads to an investigation by the Deputy Mayor, and unexpectedly far-reaching consequences.", "poster_path": "/ttdjD9NpxXsTJidPT3o1Gk0oTkG.jpg", "release_date": "1996-02-16", "title": "City Hall", "video": false, "vote_average": 6.1, "vote_count": 123, "popularity": 8.487}, {"adult": false, "backdrop_path": "/747dgDfL5d8esobk7h4odaOFhUq.jpg", "genre_ids": [80, 18, 53], "id": 275, "original_language": "en", "original_title": "Fargo", "overview": "Jerry, a small-town Minnesota car salesman is bursting at the seams with debt... but he's got a plan. He's going to hire two thugs to kidnap his wife in a scheme to collect a hefty ransom from his wealthy father-in-law. It's going to be a snap and nobody's going to get hurt... until people start dying. Enter Police Chief Marge, a coffee-drinking, parka-wearing - and extremely pregnant - investigator who'll stop at nothing to get her man. And if you think her small-time investigative skills will give the crooks a run for their ransom... you betcha!", "poster_path": "/pyEkyYgtyjOX1R9EYyUcgbK1sTn.jpg", "release_date": "1996-03-08", "title": "Fargo", "video": false, "vote_average": 7.9, "vote_count": 4327, "popularity": 30.674}, {"id": 1632, "video": false, "vote_count": 770, "vote_average": 7.6, "title": "Mississippi Burning", "release_date": "1988-12-08", "original_language": "en", "original_title": "Mississippi Burning", "genre_ids": [80, 18, 53], "backdrop_path": "/4ypwob4uxh0q1osOFq2Wh7zdopT.jpg", "adult": false, "overview": "Two FBI agents investigating the murder of civil rights workers during the 60s seek to breach the conspiracy of silence in a small Southern town where segregation divides black and white. The younger agent trained in FBI school runs up against the small town ways of his partner, a former sheriff.", "poster_path": "/uSukdUQwx0l4rRuMXNqugR1tu4n.jpg", "popularity": 16.862}, {"id": 4771, "video": false, "vote_count": 2134, "vote_average": 7.3, "title": "Gone Baby Gone", "release_date": "2007-09-18", "original_language": "en", "original_title": "Gone Baby Gone", "genre_ids": [80, 18, 9648], "backdrop_path": "/sogh5NXPbKFajjYKBlfIBfCWgbq.jpg", "adult": false, "overview": "When 4 year old Amanda McCready disappears from her home and the police make little headway in solving the case, the girl's aunt, Beatrice McCready hires two private detectives, Patrick Kenzie and Angie Gennaro. The detectives freely admit that they have little experience with this type of case, but the family wants them for two reasons - they're not cops and they know the tough neighborhood in which they all live. As the case progresses, Kenzie and Gennaro face drug dealers, gangs and pedophiles. When they are about to solve the case, they are faced with a moral dilemma that tears them apart.", "poster_path": "/dXXMPxGiRegd7NNCtE5uchAKRAG.jpg", "popularity": 16.498}, {"id": 500919, "video": false, "vote_count": 203, "vote_average": 5.1, "title": "211", "release_date": "2018-06-01", "original_language": "en", "original_title": "211", "genre_ids": [28, 80, 18], "backdrop_path": "/7eTWQb475pM9H3NEOiUzGYASEx0.jpg", "adult": false, "overview": "Inspired by one of the longest and bloodiest real-life events in police history, Officer Mike Chandler and a young civilian passenger find themselves under-prepared and outgunned when fate puts them squarely in the crosshairs of a daring bank heist in progress by a fearless team of highly-trained and heavily-armed men.", "poster_path": "/81RColr4rau6DZ7z9eMsksokcfk.jpg", "popularity": 10.755}], "total_pages": 23, "total_results": 450}, "recommendations": {"page": 1, "results": [], "total_pages": 1, "total_results": 0}, "credits": {"cast": [{"cast_id": 2, "character": "Michelle Latour", "credit_id": "52fe43afc3a36847f8067abf", "gender": 1, "id": 24941, "name": "Anic\u00e9e Alvina", "order": 0, "profile_path": "/6btkjvWY0XzKTb5vfYHk48adsch.jpg"}, {"cast_id": 3, "character": "Paul Harrison", "credit_id": "52fe43afc3a36847f8067ac3", "gender": 2, "id": 35063, "name": "Sean Bury", "order": 1, "profile_path": "/sXkpFaZR0gV6lc01okI8IZXacaw.jpg"}, {"cast_id": 4, "character": "Garry", "credit_id": "52fe43afc3a36847f8067ac7", "gender": 2, "id": 245, "name": "Keir Dullea", "order": 2, "profile_path": "/dL9i0nCk2fCgInZNaYVjGck2IBp.jpg"}, {"cast_id": 5, "character": "Daniel", "credit_id": "52fe43afc3a36847f8067acb", "gender": 0, "id": 24798, "name": "Georges Beller", "order": 3, "profile_path": "/xCiHLGpdvzE3ZfQyi2KPtMXDx90.jpg"}, {"cast_id": 6, "character": "Joanna", "credit_id": "52fe43afc3a36847f8067acf", "gender": 1, "id": 16926, "name": "Catherine All\u00e9gret", "order": 4, "profile_path": "/kb6186eWhiozkAmF3O2UziwY0G9.jpg"}, {"cast_id": 7, "character": "Sir Robert", "credit_id": "52fe43afc3a36847f8067ad3", "gender": 2, "id": 35064, "name": "Ronald Lewis", "order": 5, "profile_path": "/f8nSCXE7M5bKU39tNnApBf460dC.jpg"}, {"cast_id": 8, "character": "Sir Henry", "credit_id": "52fe43afc3a36847f8067ad7", "gender": 2, "id": 9111, "name": "Peter Graves", "order": 6, "profile_path": "/95Zd5Vow7dSaJm7Oa7rM0ZthrwO.jpg"}], "crew": [{"credit_id": "52fe43afc3a36847f8067add", "department": "Writing", "gender": 2, "id": 10076, "job": "Screenplay", "name": "Lewis Gilbert", "profile_path": "/e3uN45oGDEf1LaZiVqy4nbqt9RE.jpg"}, {"credit_id": "52fe43afc3a36847f8067abb", "department": "Directing", "gender": 2, "id": 10076, "job": "Director", "name": "Lewis Gilbert", "profile_path": "/e3uN45oGDEf1LaZiVqy4nbqt9RE.jpg"}, {"credit_id": "52fe43afc3a36847f8067aef", "department": "Production", "gender": 2, "id": 10076, "job": "Producer", "name": "Lewis Gilbert", "profile_path": "/e3uN45oGDEf1LaZiVqy4nbqt9RE.jpg"}, {"credit_id": "52fe43afc3a36847f8067afb", "department": "Camera", "gender": 2, "id": 10469, "job": "Director of Photography", "name": "Claude Renoir", "profile_path": "/41xD6gvddFwSUvVBGO5mvU6AOaU.jpg"}, {"credit_id": "52fe43afc3a36847f8067b07", "department": "Art", "gender": 2, "id": 9358, "job": "Production Design", "name": "Pierre Guffroy", "profile_path": null}, {"credit_id": "52fe43afc3a36847f8067ae3", "department": "Writing", "gender": 2, "id": 35835, "job": "Screenplay", "name": "Vernon Harris", "profile_path": null}, {"credit_id": "52fe43afc3a36847f8067ae9", "department": "Writing", "gender": 0, "id": 35837, "job": "Screenplay", "name": "Angela Huth", "profile_path": null}, {"credit_id": "52fe43afc3a36847f8067af5", "department": "Sound", "gender": 2, "id": 35838, "job": "Original Music Composer", "name": "Michel Colombier", "profile_path": null}, {"credit_id": "52fe43afc3a36847f8067b01", "department": "Editing", "gender": 0, "id": 35839, "job": "Editor", "name": "Thelma Connell", "profile_path": null}]}}