{"adult": false, "backdrop_path": "/erPpYbdCCdyeiO7kTbqFt2r58XV.jpg", "belongs_to_collection": null, "budget": 0, "genres": [{"id": 35, "name": "Comedy"}, {"id": 10749, "name": "Romance"}], "homepage": null, "id": 41709, "imdb_id": "tt0285682", "original_language": "en", "original_title": "Alchemy", "overview": "Can an university computer scientist (Cavanagh) make a woman fall in love with his interactive computer before she succumbs to a well-known professor?", "popularity": 3.583, "poster_path": "/d7QTGUrM517ULOFypbMsC3ARIfD.jpg", "production_companies": [{"id": 22498, "logo_path": null, "name": "Black Sand Pictures", "origin_country": "US"}], "production_countries": [{"iso_3166_1": "US", "name": "United States of America"}], "release_date": "2005-04-25", "revenue": 0, "runtime": 86, "spoken_languages": [{"iso_639_1": "en", "name": "English"}], "status": "Released", "tagline": "love doesn't always compute", "title": "Alchemy", "video": false, "vote_average": 5.3, "vote_count": 6, "keywords": {"keywords": [{"id": 6104, "name": "computer"}, {"id": 9823, "name": "rivalry"}, {"id": 13160, "name": "university"}]}, "similar": {"page": 1, "results": [{"id": 18885, "video": false, "vote_count": 136, "vote_average": 5.1, "title": "3 Ninjas Kick Back", "release_date": "1994-05-06", "original_language": "en", "original_title": "3 Ninjas Kick Back", "genre_ids": [28, 12, 35, 10751], "backdrop_path": "/pqXJs6YfUrRWbZegaHom4CZmKwz.jpg", "adult": false, "overview": "During a championship baseball match, the three brothers hear that their grandfather in Japan is in trouble, and head out to help him, conceding the match. When they arrive in Japan, they must use all their powers to defend him against his ancient enemy, who has returned to exact revenge.", "poster_path": "/paFMTv9IuZJaVkPZZvwtS5Ta5D9.jpg", "popularity": 12.902}, {"id": 40508, "video": false, "vote_count": 95, "vote_average": 4.9, "title": "3 Ninjas Knuckle Up", "release_date": "1995-04-07", "original_language": "en", "original_title": "3 Ninjas Knuckle Up", "genre_ids": [28, 12, 35, 10751], "backdrop_path": "/elgoI9xk6gEyqLgT7iyTwmYgLUF.jpg", "adult": false, "overview": "Rocky, Colt and TumTum must battle an evil wealthy toxic waste dumper in order to save a local Indian tribe and their friend Joe. The 3 Ninjas must help find Joe's father and find a secret disk that contains evidence that could stop the toxic landfill that is destroying the Indian community. However the town is owned by the rich man and he controls the police and even the mayor. They must fight a motorcycle gang and renegade cowboys in this non-stop ninja adventure.", "poster_path": "/bd9if2VRAxBrXxkhT28hXMiusY1.jpg", "popularity": 13.792}, {"id": 16314, "video": false, "vote_count": 231, "vote_average": 5.7, "title": "3 Ninjas", "release_date": "1992-08-07", "original_language": "en", "original_title": "3 Ninjas", "genre_ids": [28, 12, 35, 10751], "backdrop_path": "/yZjbReSRgTGf5IZPmwpecPgm1Z1.jpg", "adult": false, "overview": "Each year, three brothers Samuel, Jeffrey and Michael Douglas visits their Japanese grandfather, Mori Shintaro whom the boys affectionately refer to as Grandpa, for the summer. Mori is a highly skilled in the fields of Martial arts and Ninjutsu, and for years he has trained the boys in his techniques. After an organized crime ring proves to be too much for the FBI, it's time for the 3 brother NINJAS! To use their martial arts skills, they team up to battle the crime ring and outwit some very persistent kidnappers!", "poster_path": "/kJjhmLG9eJWVZrKimZ6kCrQ0urF.jpg", "popularity": 13.515}, {"id": 36647, "video": false, "vote_count": 3460, "vote_average": 6.6, "title": "Blade", "release_date": "1998-08-21", "original_language": "en", "original_title": "Blade", "genre_ids": [28, 27], "backdrop_path": "/dGnDGHD5vmaRow4BzAiuJaGwIz3.jpg", "adult": false, "overview": "When Blade's mother was bitten by a vampire during pregnancy, she did not know that she gave her son a special gift while dying\u2014all the good vampire attributes in combination with the best human skills. Blade and his mentor battle an evil vampire rebel who plans to take over the outdated vampire council, capture Blade and resurrect a voracious blood god.", "poster_path": "/hEXJCBVZYWT8qBMwGJoSsvtnVhr.jpg", "popularity": 30.575}, {"adult": false, "backdrop_path": "/fhSjIu7kuuSGGiAO8z4zbC7yEYC.jpg", "genre_ids": [28, 35, 10751], "id": 32302, "original_language": "en", "original_title": "3 Ninjas: High Noon at Mega Mountain", "overview": "Three young boys, Rocky, Colt and Tum Tum together with their neighbor girl, computer whiz Amanda are visiting Mega Mountain amusement park when it is invaded by an army of ninjas led by evil Medusa, who wants to take over the park and hold the owners for ransom. Kids and retired TV star Dave Dragon, who made his farewell appearance at the park at the time the ninjas appeared, have to break Medusa's vicious plans.", "poster_path": "/597f6xhmKEbisghJYMzbyzC8FBB.jpg", "release_date": "1998-04-10", "title": "3 Ninjas: High Noon at Mega Mountain", "video": false, "vote_average": 4.5, "vote_count": 94, "popularity": 11.086}, {"id": 97, "video": false, "vote_count": 1217, "vote_average": 6.6, "title": "Tron", "release_date": "1982-07-09", "original_language": "en", "original_title": "Tron", "genre_ids": [28, 12, 878], "backdrop_path": "/owAF2FmDO0UnniCbMpCjN8VcFgA.jpg", "adult": false, "overview": "As Kevin Flynn searches for proof that he invented a hit video game, he is 'digitalized' by a laser and finds himself inside 'The Grid', where programs suffer under the tyrannical rule of the Master Control Program (MCP). With the help of a security program called 'TRON\", Flynn seeks to free The Grid from the MCP.", "poster_path": "/cTF8lpXvAwT1SLH9kVFZZl0AO0D.jpg", "popularity": 25.823}, {"id": 5176, "video": false, "vote_count": 2040, "vote_average": 7.1, "title": "3:10 to Yuma", "release_date": "2007-09-06", "original_language": "en", "original_title": "3:10 to Yuma", "genre_ids": [37], "backdrop_path": "/fOuig5rhqkrVVD1VsoL1jPz15hR.jpg", "adult": false, "overview": "In Arizona in the late 1800s, infamous outlaw Ben Wade and his vicious gang of thieves and murderers have plagued the Southern Railroad. When Wade is captured, Civil War veteran Dan Evans, struggling to survive on his drought-plagued ranch, volunteers to deliver him alive to the \"3:10 to Yuma\", a train that will take the killer to trial.", "poster_path": "/9Nwkh0eQmkymEOR0ovAALtjSIZW.jpg", "popularity": 21.226}, {"adult": false, "backdrop_path": "/aog6vKNxw5USOGP4whH9V1YTR5K.jpg", "genre_ids": [80, 53, 28], "id": 201088, "original_language": "en", "original_title": "Blackhat", "overview": "A man is released from prison to help American and Chinese authorities pursue a mysterious cyber criminal. The dangerous search leads them from Chicago to Hong Kong.", "poster_path": "/sW3VEsulmxMlOmQwm0h7H7lZROi.jpg", "release_date": "2015-01-13", "title": "Blackhat", "video": false, "vote_average": 5.3, "vote_count": 1243, "popularity": 19.392}, {"adult": false, "backdrop_path": "/f7pTesNnPjOVAq7QqhgnSHaK9Cc.jpg", "genre_ids": [35, 10749], "id": 10521, "original_language": "en", "original_title": "Bride Wars", "overview": "Two best friends become rivals when their respective weddings are accidentally booked for the same day.", "poster_path": "/y5O46J9i98MkcExaPIeZaRImF4C.jpg", "release_date": "2009-01-09", "title": "Bride Wars", "video": false, "vote_average": 6.1, "vote_count": 1901, "popularity": 15.977}, {"id": 8835, "video": false, "vote_count": 2036, "vote_average": 6.4, "title": "Legally Blonde", "release_date": "2001-07-13", "original_language": "en", "original_title": "Legally Blonde", "genre_ids": [35], "backdrop_path": "/rusiQnUaorH0Z71hYMsrR8Ortrf.jpg", "adult": false, "overview": "Elle Woods has it all. She's the president of her sorority, a Hawaiian Tropic girl, Miss June in her campus calendar, and, above all, a natural blonde. She dates the cutest fraternity boy on campus and wants nothing more than to be Mrs. Warner Huntington III. But, there's just one thing stopping Warner from popping the question: Elle is too blonde.", "poster_path": "/1gAnkZNAd3HqgWL7aqSOQFwt7D1.jpg", "popularity": 16.783}, {"id": 105, "video": false, "vote_count": 12168, "vote_average": 8.2, "title": "Back to the Future", "release_date": "1985-07-03", "original_language": "en", "original_title": "Back to the Future", "genre_ids": [12, 35, 878, 10751], "backdrop_path": "/x4N74cycZvKu5k3KDERJay4ajR3.jpg", "adult": false, "overview": "Eighties teenager Marty McFly is accidentally sent back in time to 1955, inadvertently disrupting his parents' first meeting and attracting his mother's romantic interest. Marty must repair the damage to history by rekindling his parents' romance and - with the help of his eccentric inventor friend Doc Brown - return to 1985.", "poster_path": "/pTpxQB1N0waaSc3OSn0e9oc8kx9.jpg", "popularity": 29.77}, {"id": 152601, "video": false, "vote_count": 8850, "vote_average": 7.9, "title": "Her", "release_date": "2013-12-18", "original_language": "en", "original_title": "Her", "genre_ids": [18, 878, 10749], "backdrop_path": "/4f4tWe6uhwtuKMygfIAytR2W0pj.jpg", "adult": false, "overview": "In the not so distant future, Theodore, a lonely writer purchases a newly developed operating system designed to meet the user's every needs. To Theodore's surprise, a romantic relationship develops between him and his operating system. This unconventional love story blends science fiction and romance in a sweet tale that explores the nature of love and the ways that technology isolates and connects us all.", "poster_path": "/fsoTLnUXEUTNuVCBxAJMY0HPPd.jpg", "popularity": 28.123}, {"id": 585, "video": false, "vote_count": 11852, "vote_average": 7.8, "title": "Monsters, Inc.", "release_date": "2001-11-01", "original_language": "en", "original_title": "Monsters, Inc.", "genre_ids": [16, 35, 10751], "backdrop_path": "/eKBUYeSgGVvztO2MZxD5YMcz6kv.jpg", "adult": false, "overview": "James Sullivan and Mike Wazowski are monsters, they earn their living scaring children and are the best in the business... even though they're more afraid of the children than they are of them. When a child accidentally enters their world, James and Mike suddenly find that kids are not to be afraid of and they uncover a conspiracy that could threaten all children across the world.", "poster_path": "/93Y9BGx8blzmZOPSoivkFfaifqU.jpg", "popularity": 36.435}, {"adult": false, "backdrop_path": "/aWLIsFyLSX81Z0ORQQpxMFm1zFw.jpg", "genre_ids": [35], "id": 188222, "original_language": "en", "original_title": "Entourage", "overview": "Movie star Vincent Chase, together with his boys, Eric, Turtle and Johnny, are back\u2026and back in business with super agent-turned-studio head Ari Gold. Some of their ambitions have changed, but the bond between them remains strong as they navigate the capricious and often cutthroat world of Hollywood.", "poster_path": "/eXFOwg43NeZAv4BgXTlmdp7pzRG.jpg", "release_date": "2015-06-03", "title": "Entourage", "video": false, "vote_average": 6.2, "vote_count": 669, "popularity": 18.152}, {"adult": false, "backdrop_path": "/ePqwTIoJeKJwShMABMst5duBcw9.jpg", "genre_ids": [35, 10402, 10749], "id": 114150, "original_language": "en", "original_title": "Pitch Perfect", "overview": "College student Beca knows she does not want to be part of a clique, but that's exactly where she finds herself after arriving at her new school. Thrust in among mean gals, nice gals and just plain weird gals, Beca finds that the only thing they have in common is how well they sing together. She takes the women of the group out of their comfort zone of traditional arrangements and into a world of amazing harmonic combinations in a fight to the top of college music competitions.", "poster_path": "/cLUMPdwCV0Dxd3P1ZkCXe7bVImI.jpg", "release_date": "2012-09-28", "title": "Pitch Perfect", "video": false, "vote_average": 7.3, "vote_count": 4622, "popularity": 16.878}, {"adult": false, "backdrop_path": "/w4w8CTEe4isWO2TzDSQ3MV3br9l.jpg", "genre_ids": [14, 35, 10751], "id": 8839, "original_language": "en", "original_title": "Casper", "overview": "Furious that her late father only willed her his gloomy-looking mansion rather than his millions, Carrigan Crittenden is ready to burn the place to the ground when she discovers a map to a treasure hidden in the house. But when she enters the rickety mansion to seek her claim, she is frightened away by a wicked wave of ghosts. Determined to get her hands on this hidden fortune, she hires afterlife therapist Dr. James Harvey to exorcise the ghosts from the mansion. Harvey and his daughter Kat move in, and soon Kat meets Casper, the ghost of a young boy who's \"the friendliest ghost you know.\" But not so friendly are Casper's uncles--Stretch, Fatso and Stinkie--who are determined to drive all \"fleshies\" away.", "poster_path": "/1WeumvndgPE3hopKQqXbCKO26oH.jpg", "release_date": "1995-05-26", "title": "Casper", "video": false, "vote_average": 6.2, "vote_count": 2788, "popularity": 25.596}, {"id": 20352, "video": false, "vote_count": 10785, "vote_average": 7.2, "title": "Despicable Me", "release_date": "2010-07-08", "original_language": "en", "original_title": "Despicable Me", "genre_ids": [16, 35, 10751], "backdrop_path": "/yo1ef57MEPkEE4BDZKTZGH9uDcX.jpg", "adult": false, "overview": "Villainous Gru lives up to his reputation as a despicable, deplorable and downright unlikable guy when he hatches a plan to steal the moon from the sky. But he has a tough time staying on task after three orphans land in his care.", "poster_path": "/4zHJhBSY4kNZXfhTlmy2TzXD51M.jpg", "popularity": 35.41}, {"id": 621, "video": false, "vote_count": 4342, "vote_average": 7.4, "title": "Grease", "release_date": "1978-07-07", "original_language": "en", "original_title": "Grease", "genre_ids": [10749], "backdrop_path": "/93wqWj6izOulKuONZ7rG7WxEjEe.jpg", "adult": false, "overview": "Australian good girl Sandy and greaser Danny fell in love over the summer. But when they unexpectedly discover they're now in the same high school, will they be able to rekindle their romance despite their eccentric friends?", "poster_path": "/iMHdFTrCYhue74sBnXkdO39AJ3R.jpg", "popularity": 32.862}, {"id": 153518, "video": false, "vote_count": 2103, "vote_average": 6.0, "title": "The Angry Birds Movie", "release_date": "2016-05-11", "original_language": "en", "original_title": "The Angry Birds Movie", "genre_ids": [12, 16, 35], "backdrop_path": "/k15COpeexV5Ad0tuLjBW2jQFoOz.jpg", "adult": false, "overview": "An island populated entirely by happy, flightless birds or almost entirely. In this paradise, Red, a bird with a temper problem, speedy Chuck, and the volatile Bomb have always been outsiders. But when the island is visited by mysterious green piggies, it\u2019s up to these unlikely outcasts to figure out what the pigs are up to.", "poster_path": "/76KMEI1ZNU9HEZ4pmHTwgwa0u6d.jpg", "popularity": 25.627}, {"adult": false, "backdrop_path": "/dji4Fm0gCDVb9DQQMRvAI8YNnTz.jpg", "genre_ids": [16, 35, 10751], "id": 862, "original_language": "en", "original_title": "Toy Story", "overview": "Led by Woody, Andy's toys live happily in his room until Andy's birthday brings Buzz Lightyear onto the scene. Afraid of losing his place in Andy's heart, Woody plots against Buzz. But when circumstances separate Buzz and Woody from their owner, the duo eventually learns to put aside their differences.", "poster_path": "/rhIRbceoE9lR4veEXuwCC2wARtG.jpg", "release_date": "1995-10-30", "title": "Toy Story", "video": false, "vote_average": 7.9, "vote_count": 11534, "popularity": 27.319}], "total_pages": 44, "total_results": 879}, "recommendations": {"page": 1, "results": [{"id": 18176, "video": false, "vote_count": 170, "vote_average": 6.0, "title": "Assassination of a High School President", "release_date": "2008-01-17", "original_language": "en", "original_title": "Assassination of a High School President", "genre_ids": [35, 80], "backdrop_path": "/anYIKUyuzHI1bVeRL9wkBxeSlhF.jpg", "adult": false, "overview": "After the theft of copies of SAT exams from a principal's office, teenage reporter Bobby Funke sets out to unmask the thief. Bobby prints an article fingering Class President Paul Moore as the thief, shredding the youth's reputation. But as Bobby gets to know Paul's girlfriend, Francesca, he comes to realize he was wrong about Paul, so he sets out to unmask the true culprit.", "poster_path": "/9e1SZqHtyNsJzkrxOgmq8GyEjCN.jpg", "popularity": 8.055}], "total_pages": 1, "total_results": 1}, "credits": {"cast": [{"cast_id": 2, "character": "Mal Downey", "credit_id": "52fe45d9c3a36847f80de017", "gender": 2, "id": 59216, "name": "Tom Cavanagh", "order": 0, "profile_path": "/pBHRGDi313R4v88WM93LOCIBPwN.jpg"}, {"cast_id": 3, "character": "Samantha Rose", "credit_id": "52fe45d9c3a36847f80de01b", "gender": 1, "id": 49001, "name": "Sarah Chalke", "order": 1, "profile_path": "/ycwiu89cpjqCtSNC5FjbJggjj5R.jpg"}, {"cast_id": 4, "character": "Dr. Troy Rollins", "credit_id": "52fe45d9c3a36847f80de01f", "gender": 2, "id": 214517, "name": "James Barbour", "order": 2, "profile_path": "/2X76O7kQApI1thMTrm24YE023kn.jpg"}, {"cast_id": 5, "character": "Jerry (voice)", "credit_id": "52fe45d9c3a36847f80de023", "gender": 2, "id": 22224, "name": "Michael Ian Black", "order": 3, "profile_path": "/aE2Bx6ABC8GWEDkCxzC8sFA7jni.jpg"}, {"cast_id": 6, "character": "Jane", "credit_id": "52fe45d9c3a36847f80de027", "gender": 1, "id": 167604, "name": "Nadia Dajani", "order": 4, "profile_path": "/eJXK3PCHFMBfyHgSyT0pA9qCKwO.jpg"}, {"cast_id": 7, "character": "KJ", "credit_id": "52fe45d9c3a36847f80de02b", "gender": 1, "id": 7796, "name": "Illeana Douglas", "order": 5, "profile_path": "/iwioN2tbwp8DrM8SkRds8Bx1L9N.jpg"}, {"cast_id": 8, "character": "Iris", "credit_id": "52fe45d9c3a36847f80de02f", "gender": 1, "id": 10607, "name": "Celeste Holm", "order": 6, "profile_path": "/3TWctkWuPrtiwjqkfSDjDFcMcx.jpg"}, {"cast_id": 10, "character": "Martin", "credit_id": "5809a490c3a3681b1f004e4f", "gender": 2, "id": 130253, "name": "Logan Marshall-Green", "order": 7, "profile_path": "/sYFUCO6RxYFbwfAbHf9wgCC2AQl.jpg"}], "crew": [{"credit_id": "52fe45d9c3a36847f80de013", "department": "Directing", "gender": 2, "id": 232019, "job": "Director", "name": "Evan Oppenheimer", "profile_path": "/1xowBWYECgcg0doIooTuyH954YL.jpg"}, {"credit_id": "557bc1d7c3a3686334000e1e", "department": "Writing", "gender": 2, "id": 232019, "job": "Writer", "name": "Evan Oppenheimer", "profile_path": "/1xowBWYECgcg0doIooTuyH954YL.jpg"}]}}