{"adult": false, "backdrop_path": "/ofKUEVyDNJZDdSqieYzrjhdq6vN.jpg", "belongs_to_collection": null, "budget": 2000000, "genres": [{"id": 80, "name": "Crime"}, {"id": 9648, "name": "Mystery"}, {"id": 53, "name": "Thriller"}], "homepage": null, "id": 41726, "imdb_id": "tt0403933", "original_language": "en", "original_title": "Chasing Ghosts", "overview": "A serial killer targeting the city's mobsters taunts police with clues and photos left behind at the crime scenes. A veteran cop takes on a rookie partner hoping to crack one last case before retiring. As the web of deception and lies unravels, the truth slowly begins to reveal itself.", "popularity": 6.044, "poster_path": "/peTj3RGMvR07F8Ccphf4KlmTco5.jpg", "production_companies": [], "production_countries": [{"iso_3166_1": "US", "name": "United States of America"}], "release_date": "2005-05-11", "revenue": 1102000, "runtime": 119, "spoken_languages": [{"iso_639_1": "en", "name": "English"}, {"iso_639_1": "es", "name": "Espa\u00f1ol"}], "status": "Released", "tagline": "How do you chase a serial killer you can't see?", "title": "Chasing Ghosts", "video": false, "vote_average": 4.4, "vote_count": 7, "keywords": {"keywords": [{"id": 1284, "name": "identity"}, {"id": 1849, "name": "homicide"}, {"id": 10714, "name": "serial killer"}, {"id": 159434, "name": "one last job"}, {"id": 207268, "name": "neo-noir"}]}, "similar": {"page": 1, "results": [{"adult": false, "backdrop_path": "/t3OZS8yMs0NL4YgWWc04eXHTn1X.jpg", "genre_ids": [28, 80, 53], "id": 984, "original_language": "en", "original_title": "Dirty Harry", "overview": "When a madman dubbed 'Scorpio' terrorizes San Francisco, hard-nosed cop, Harry Callahan \u2013 famous for his take-no-prisoners approach to law enforcement \u2013 is tasked with hunting down the psychopath. Harry eventually collars Scorpio in the process of rescuing a kidnap victim, only to see him walk on technicalities. Now, the maverick detective is determined to nail the maniac himself.", "poster_path": "/2TADKc4GMMPdMrLXj0xJVgTvZJM.jpg", "release_date": "1971-12-21", "title": "Dirty Harry", "video": false, "vote_average": 7.5, "vote_count": 1173, "popularity": 18.839}, {"adult": false, "backdrop_path": "/7QjoyyGdBV32x1sEh64dAnNjwg2.jpg", "genre_ids": [53, 35, 27], "id": 12521, "original_language": "en", "original_title": "Shocker", "overview": "After being sent to the electric chair, a serial killer uses electricity to come back from the dead and carry out his vengeance on the football player who turned him in to the police.", "poster_path": "/xEDmOhNGCKlWlS3mCiqLCVzBXVA.jpg", "release_date": "1989-10-27", "title": "Shocker", "video": false, "vote_average": 5.5, "vote_count": 176, "popularity": 10.495}, {"adult": false, "backdrop_path": "/arcpWGGnUkGkakOwZo7xfPsaz7h.jpg", "genre_ids": [9648, 53], "id": 2832, "original_language": "en", "original_title": "Identity", "overview": "Complete strangers stranded at a remote desert motel during a raging storm soon find themselves the target of a deranged murderer. As their numbers thin out, the travelers begin to turn on each other, as each tries to figure out who the killer is.", "poster_path": "/xSNSp2wmCUwFavxdkMF417hBc39.jpg", "release_date": "2003-04-25", "title": "Identity", "video": false, "vote_average": 7.2, "vote_count": 2091, "popularity": 19.629}, {"adult": false, "backdrop_path": "/o4psXh7IVD6GFKvBSHjHLzjL2lV.jpg", "genre_ids": [27, 53], "id": 10781, "original_language": "en", "original_title": "The Texas Chainsaw Massacre: The Beginning", "overview": "Chrissie and her friends set out on a road trip for a final fling before one is shipped off to Vietnam. Along the way, bikers harass the foursome and cause an accident that throws Chrissie from the vehicle. The lawman who arrives on the scene kills one of the bikers and brings Chrissie's friends to the Hewitt homestead, where young Leatherface is learning the tools of terror.", "poster_path": "/9elCJIG1TOJ0wew3JVx5ZMkHq5w.jpg", "release_date": "2006-10-06", "title": "The Texas Chainsaw Massacre: The Beginning", "video": false, "vote_average": 6.0, "vote_count": 936, "popularity": 19.211}, {"adult": false, "backdrop_path": "/fmo48Lt8XtMWeHeXJzi5SbPCJud.jpg", "genre_ids": [18, 27, 80], "id": 1696, "original_language": "en", "original_title": "The Devil's Rejects", "overview": "The sequel to House of 1000 Corpses \u2013 the Firefly family are ambushed at their isolated home by Sheriff Wydell and a squad of armed men guns blazing \u2013 yet only Otis and his sister, Baby, manage to escape the barrage of bullets unharmed. Hiding out in a backwater motel, the wanted siblings wait to rendezvous with their errant father, Captain Spaulding, killing whoever happens to stand in their way.", "poster_path": "/fj4rrpUlBpFjPaJecpjID6yqacx.jpg", "release_date": "2005-07-22", "title": "The Devil's Rejects", "video": false, "vote_average": 6.7, "vote_count": 720, "popularity": 14.155}, {"adult": false, "backdrop_path": "/3TCPWrxQkfon82xPNtmpweOSVJc.jpg", "genre_ids": [18, 80, 9648, 10749, 53], "id": 12150, "original_language": "en", "original_title": "Sea of Love", "overview": "Seen-it-all New York detective Frank Keller is unsettled - he has done twenty years on the force and could retire, and he hasn't come to terms with his wife leaving him for a colleague. Joining up with an officer from another part of town to investigate a series of murders linked by the lonely hearts columns he finds he is getting seriously and possibly dangerously involved with Helen, one of the main suspects.", "poster_path": "/7DkkTHIX3hUqvsRv5sDmJAkCfKK.jpg", "release_date": "1989-09-15", "title": "Sea of Love", "video": false, "vote_average": 6.7, "vote_count": 290, "popularity": 10.636}, {"id": 320, "video": false, "vote_count": 2531, "vote_average": 6.9, "title": "Insomnia", "release_date": "2002-05-24", "original_language": "en", "original_title": "Insomnia", "genre_ids": [80, 9648, 53], "backdrop_path": "/p8UHSddGu2frGk0nCkuPjDemjka.jpg", "adult": false, "overview": "Two Los Angeles homicide detectives are dispatched to a northern town where the sun doesn't set to investigate the methodical murder of a local teen.", "poster_path": "/zb0D3vfjcPFvuyHp1mFPOIcYJWH.jpg", "popularity": 20.234}, {"adult": false, "backdrop_path": "/2zh06EWekQWzlxa4jpFKRuXEtgf.jpg", "genre_ids": [80, 18, 28, 53], "id": 9411, "original_language": "en", "original_title": "Fallen", "overview": "Homicide detective John Hobbes witnesses the execution of serial killer Edgar Reese. Soon after the execution the killings start again, and they are very similar to Reese's style.", "poster_path": "/v66GrbKcl1babq8BebUff0MI3m4.jpg", "release_date": "1998-01-16", "title": "Fallen", "video": false, "vote_average": 6.8, "vote_count": 674, "popularity": 15.448}, {"adult": false, "backdrop_path": "/7RRuRcGuWkZGuRyYugfXn0Fgrrr.jpg", "genre_ids": [28, 80, 18, 53], "id": 949, "original_language": "en", "original_title": "Heat", "overview": "Obsessive master thief, Neil McCauley leads a top-notch crew on various daring heists throughout Los Angeles while determined detective, Vincent Hanna pursues him without rest. Each man recognizes and respects the ability and the dedication of the other even though they are aware their cat-and-mouse game may end in violence.", "poster_path": "/6pmLVffM9jEYK7VqDJqPblMxfEY.jpg", "release_date": "1995-12-15", "title": "Heat", "video": false, "vote_average": 7.8, "vote_count": 3615, "popularity": 21.973}, {"adult": false, "backdrop_path": "/4L1MSZo8dQ20x4AhBDKfDs1cOjs.jpg", "genre_ids": [27, 53], "id": 9728, "original_language": "en", "original_title": "Friday the 13th Part III", "overview": "An idyllic summer turns into a nightmare of unspeakable terror for yet another group of naive counselors. Ignoring Camp Crystal Lake's bloody legacy, one by one they fall victim to the maniacal Jason who stalks them at every turn.", "poster_path": "/5wg2NZyIhcMbIBAahBODXHyJ54S.jpg", "release_date": "1982-08-13", "title": "Friday the 13th Part III", "video": false, "vote_average": 5.8, "vote_count": 634, "popularity": 15.501}, {"id": 402, "video": false, "vote_count": 1776, "vote_average": 6.7, "title": "Basic Instinct", "release_date": "1992-03-20", "original_language": "en", "original_title": "Basic Instinct", "genre_ids": [9648, 53], "backdrop_path": "/bKdxJMqvr4wltzAQaieA6CTkaa9.jpg", "adult": false, "overview": "A police detective is in charge of the investigation of a brutal murder, in which a beautiful and seductive woman could be involved.", "poster_path": "/p1DHOfLFZmM567ePKfFNMV4mY92.jpg", "popularity": 23.513}, {"id": 807, "video": false, "vote_count": 11937, "vote_average": 8.3, "title": "Se7en", "release_date": "1995-09-22", "original_language": "en", "original_title": "Se7en", "genre_ids": [80, 9648, 53], "backdrop_path": "/A0WKbRIojF9DUWG4XLCmg5JK6I5.jpg", "adult": false, "overview": "Two homicide detectives are on a desperate hunt for a serial killer whose crimes are based on the \"seven deadly sins\" in this dark and haunting film that takes viewers from the tortured remains of one victim to the next. The seasoned Det. Sommerset researches each sin in an effort to get inside the killer's mind, while his novice partner, Mills, scoffs at his efforts to unravel the case.", "poster_path": "/8zw8IL4zEPjkh8Aysdcd0FwGMb0.jpg", "popularity": 34.018}, {"adult": false, "backdrop_path": "/khzRw7ZDE3NIrYpe0RYyB864FPT.jpg", "genre_ids": [80, 28, 53], "id": 189, "original_language": "en", "original_title": "Sin City: A Dame to Kill For", "overview": "Some of Sin City's most hard-boiled citizens cross paths with a few of its more reviled inhabitants.", "poster_path": "/k80qKrJ0qQ6ocVo5N932stNSg6j.jpg", "release_date": "2014-08-20", "title": "Sin City: A Dame to Kill For", "video": false, "vote_average": 6.3, "vote_count": 2422, "popularity": 25.256}, {"adult": false, "backdrop_path": "/sDSwD63e0qfNE1YvH8aczFoSGTt.jpg", "genre_ids": [80, 18, 53], "id": 11826, "original_language": "en", "original_title": "Sexy Beast", "overview": "The idyllic life of retired safecracker Gal is put at risk when a psychotic gangster from his past arrives at his villa in southern Spain, intent on bringing him out of retirement for one last job.", "poster_path": "/rpo9njGpJVLPqRrdM6R7wIqiQ7K.jpg", "release_date": "2001-01-12", "title": "Sexy Beast", "video": false, "vote_average": 7.0, "vote_count": 391, "popularity": 9.281}, {"id": 11974, "video": false, "vote_count": 611, "vote_average": 6.8, "title": "The 'Burbs", "release_date": "1989-02-17", "original_language": "en", "original_title": "The 'Burbs", "genre_ids": [35, 27, 53], "backdrop_path": "/yCOTJnV7I0UcusTycv5bGEDQ5ll.jpg", "adult": false, "overview": "When secretive new neighbors move in next door, suburbanite Ray Peterson and his friends let their paranoia get the best of them as they start to suspect the newcomers of evildoings and commence an investigation. But it's hardly how Ray, who much prefers drinking beer, reading his newspaper and watching a ball game on the tube expected to spend his vacation.", "poster_path": "/zPEECSo5ZOBr9oEmBLSVXcqndTO.jpg", "popularity": 13.086}, {"adult": false, "backdrop_path": "/coLGEhak0KhPpMYABmZdDnZbnSv.jpg", "genre_ids": [53, 27, 9648], "id": 39874, "original_language": "en", "original_title": "My Bloody Valentine", "overview": "Twenty years ago in the sleepy mining town of Valentine Bluffs, a fatal mining disaster occurred on Valentine's Day while some of the crew was decorating for a party. The sole survivor of the accident killed the remaining crewmembers and warned the town not to celebrate Valentine's Day again. When a group of teenagers decides to defy that order, a murderous maniac in mining gear begins dispatching townsfolk in bloody and creative ways.", "poster_path": "/kl3mewFceFtYIavvGts2atzB0e0.jpg", "release_date": "1981-02-11", "title": "My Bloody Valentine", "video": false, "vote_average": 6.3, "vote_count": 162, "popularity": 11.496}, {"adult": false, "backdrop_path": "/qqdVRlVCvVWdmSBYrEHwQuC3GBd.jpg", "genre_ids": [27, 53], "id": 371608, "original_language": "en", "original_title": "The Strangers: Prey at Night", "overview": "A family\u2019s road trip takes a dangerous turn when they arrive at a secluded mobile home park to stay with some relatives and find it mysteriously deserted. Under the cover of darkness, three masked psychopaths pay them a visit to test the family\u2019s every limit as they struggle to survive.", "poster_path": "/vdxLpPsZkPZdFrREp7eSeSzcimj.jpg", "release_date": "2018-03-07", "title": "The Strangers: Prey at Night", "video": false, "vote_average": 5.4, "vote_count": 758, "popularity": 16.815}, {"id": 4771, "video": false, "vote_count": 2134, "vote_average": 7.3, "title": "Gone Baby Gone", "release_date": "2007-09-18", "original_language": "en", "original_title": "Gone Baby Gone", "genre_ids": [80, 18, 9648], "backdrop_path": "/sogh5NXPbKFajjYKBlfIBfCWgbq.jpg", "adult": false, "overview": "When 4 year old Amanda McCready disappears from her home and the police make little headway in solving the case, the girl's aunt, Beatrice McCready hires two private detectives, Patrick Kenzie and Angie Gennaro. The detectives freely admit that they have little experience with this type of case, but the family wants them for two reasons - they're not cops and they know the tough neighborhood in which they all live. As the case progresses, Kenzie and Gennaro face drug dealers, gangs and pedophiles. When they are about to solve the case, they are faced with a moral dilemma that tears them apart.", "poster_path": "/dXXMPxGiRegd7NNCtE5uchAKRAG.jpg", "popularity": 16.498}, {"adult": false, "backdrop_path": "/shNOTvaMz7C05LxBOWpakfJVWHc.jpg", "genre_ids": [27, 53], "id": 10987, "original_language": "en", "original_title": "Halloween: The Curse of Michael Myers", "overview": "Six years ago, Michael Myers terrorized the town of Haddonfield, Illinois. He and his niece, Jamie Lloyd, have disappeared. Jamie was kidnapped by a bunch of evil druids who protect Michael Myers. And now, six years later, Jamie has escaped after giving birth to Michael's child. She runs to Haddonfield to get Dr. Loomis to help her again.", "poster_path": "/8Tw5IttoEATGD2FHhcG9bDzqwbi.jpg", "release_date": "1995-09-29", "title": "Halloween: The Curse of Michael Myers", "video": false, "vote_average": 5.0, "vote_count": 471, "popularity": 14.084}, {"id": 29161, "video": false, "vote_count": 345, "vote_average": 6.7, "title": "Phenomena", "release_date": "1985-01-25", "original_language": "en", "original_title": "Phenomena", "genre_ids": [27, 53], "backdrop_path": "/vBeLbIunf5MTrD58IoRaFtjzDji.jpg", "adult": false, "overview": "A young girl, with an amazing ability to communicate with insects, is transferred to an exclusive Swiss boarding school, where her unusual capability might help solve a string of murders.", "poster_path": "/7yFfxxfTqhesHj26yR1LgSARx9P.jpg", "popularity": 13.208}], "total_pages": 275, "total_results": 5491}, "recommendations": {"page": 1, "results": [{"adult": false, "backdrop_path": "/5FZZf3RzCXtXZ70TYmbQYs9QKrR.jpg", "genre_ids": [27, 28, 53, 80], "id": 40015, "original_language": "en", "original_title": "Cold & Dark", "overview": "When Detective Mortimer Shade is somehow killed in a freezer, a parasite called a grail possesses his body, revives him, but he needs blood to stay alive. His partner John Dark accepts the new situation and together they become vigilantes, judging and killing the bad guys, with Shade sucking their blood with his claw. However, Dark notes that Shade is losing the rest of his humanity and becoming a monster, being aware and afraid of the danger Shade represents to mankind and trying to stop him.", "poster_path": "/rtDlIb0I1Uwd7vHiHcI26k6UfIu.jpg", "release_date": "2005-03-31", "title": "Cold & Dark", "video": false, "vote_average": 3.8, "vote_count": 12, "popularity": 3.791}], "total_pages": 1, "total_results": 1}, "credits": {"cast": [{"cast_id": 4, "character": "Kevin Harrison", "credit_id": "52fe45d9c3a36847f80de0ff", "gender": 2, "id": 147, "name": "Michael Madsen", "order": 0, "profile_path": "/azCognW0p1hl2bJFH31ZNtcTJ3R.jpg"}, {"cast_id": 14, "character": "Cole Davies / Keris Alfiri", "credit_id": "5876a556c3a3682d33001b46", "gender": 2, "id": 77109, "name": "Corey Large", "order": 1, "profile_path": "/a5fUescZlSJ8xbMdSk2BQ7a1onU.jpg"}, {"cast_id": 12, "character": "Taylor Spencer", "credit_id": "52fe45d9c3a36847f80de11b", "gender": 1, "id": 27855, "name": "Shannyn Sossamon", "order": 2, "profile_path": "/nJUFCRm7Y0YVR3GQ8GSZUzDavH1.jpg"}, {"cast_id": 7, "character": "Richard Valbruno", "credit_id": "52fe45d9c3a36847f80de107", "gender": 2, "id": 7470, "name": "Meat Loaf", "order": 3, "profile_path": "/pwNyXgegO1nlZ8uWT847JM8EjGj.jpg"}, {"cast_id": 8, "character": "Marcos Alfiri", "credit_id": "52fe45d9c3a36847f80de10b", "gender": 2, "id": 2048, "name": "Gary Busey", "order": 4, "profile_path": "/n66ycv61ZoqusHthcQde1g3JY6T.jpg"}, {"cast_id": 9, "character": "Marshall", "credit_id": "52fe45d9c3a36847f80de10f", "gender": 2, "id": 9996, "name": "Sean Whalen", "order": 5, "profile_path": "/lyuTKNHGCZueuIu7iBt6COzqIBj.jpg"}, {"cast_id": 10, "character": "John Turbino", "credit_id": "52fe45d9c3a36847f80de113", "gender": 2, "id": 58058, "name": "Lochlyn Munro", "order": 6, "profile_path": "/caBPICexFi48JIvsEdwJGjQrTmY.jpg"}, {"cast_id": 11, "character": "Tom Shields", "credit_id": "52fe45d9c3a36847f80de117", "gender": 2, "id": 55270, "name": "Tom Wright", "order": 7, "profile_path": "/3Jmwf493R4e9cis5689Nn0DLgqt.jpg"}, {"cast_id": 15, "character": "Mark Spencer", "credit_id": "59ebaee4c3a36814c30010c0", "gender": 2, "id": 12132, "name": "Michael Rooker", "order": 8, "profile_path": "/mfzHrd5dwCjel4WliEsrKkftgxt.jpg"}, {"cast_id": 16, "character": "Carlos Santiago", "credit_id": "59ebaeee925141562c01768f", "gender": 2, "id": 11160, "name": "Danny Trejo", "order": 9, "profile_path": "/7b8cDfrmeheQbgryfCm7MeJOxxM.jpg"}, {"cast_id": 17, "character": "Dmitri Parramatti", "credit_id": "59ebaef992514108e7001838", "gender": 2, "id": 1582, "name": "James Duval", "order": 10, "profile_path": "/psa8zYiaIeyUWH2cnZG0w11G3dW.jpg"}, {"cast_id": 18, "character": "Neil", "credit_id": "59ebaf04c3a3681564000ec2", "gender": 2, "id": 32286, "name": "Patrick Kilpatrick", "order": 11, "profile_path": "/wEu61ecaSkCN1mD4vXf5WlrUKTV.jpg"}, {"cast_id": 19, "character": "Frank Anderson", "credit_id": "59ebaf0f9251411fe400096c", "gender": 2, "id": 6576, "name": "Mark Rolston", "order": 12, "profile_path": "/hcrNRIptYMRXgkJ9k76BlQu6DQp.jpg"}, {"cast_id": 20, "character": "Anthony Parramatti", "credit_id": "59ebaf1dc3a3681564000ee0", "gender": 2, "id": 62715, "name": "Robert Miano", "order": 13, "profile_path": "/sszrBivDN2Ry0I3vWY5k8CjxYdB.jpg"}, {"cast_id": 13, "character": "Detective Cole Davies", "credit_id": "55c581c9c3a3682f1c000d50", "gender": 2, "id": 47296, "name": "Jeffrey Dean Morgan", "order": 14, "profile_path": "/V3zDGR4rvED9fG7ODv1ph1Q4z4.jpg"}, {"cast_id": 21, "character": "Patricia King", "credit_id": "59ebaf3892514110ad001679", "gender": 1, "id": 104646, "name": "Barbara Niven", "order": 15, "profile_path": "/czYKU93GloMGXal0KGmtHLOKEV1.jpg"}], "crew": [{"credit_id": "52fe45d9c3a36847f80de0ef", "department": "Directing", "gender": 0, "id": 65213, "job": "Director", "name": "Kyle Dean Jackson", "profile_path": null}, {"credit_id": "52fe45d9c3a36847f80de0fb", "department": "Writing", "gender": 2, "id": 77107, "job": "Writer", "name": "Alan Pao", "profile_path": null}, {"credit_id": "52fe45d9c3a36847f80de0f5", "department": "Writing", "gender": 2, "id": 77109, "job": "Story", "name": "Corey Large", "profile_path": "/a5fUescZlSJ8xbMdSk2BQ7a1onU.jpg"}]}}