{"adult": false, "backdrop_path": "/4QZnAr5Np666pfN8n11p2zVoTqV.jpg", "belongs_to_collection": null, "budget": 0, "genres": [{"id": 18, "name": "Drama"}, {"id": 10749, "name": "Romance"}], "homepage": null, "id": 41801, "imdb_id": "tt0116293", "original_language": "en", "original_title": "Female Perversions", "overview": "An ambitious female attorney wallows in excess and meaningless sex with both male and female partners, while dealing with her personal life problems including helping her kleptomaniac sister.", "popularity": 7.565, "poster_path": "/1BpcbWgw6sX1oTb4M0qgGUPljwg.jpg", "production_companies": [{"id": 2051, "logo_path": null, "name": "Kinowelt Filmproduktion", "origin_country": ""}, {"id": 60710, "logo_path": null, "name": "Mindy Affrime", "origin_country": ""}, {"id": 986, "logo_path": null, "name": "Degeto Film", "origin_country": ""}], "production_countries": [{"iso_3166_1": "DE", "name": "Germany"}, {"iso_3166_1": "US", "name": "United States of America"}], "release_date": "1996-11-21", "revenue": 0, "runtime": 119, "spoken_languages": [{"iso_639_1": "en", "name": "English"}], "status": "Released", "tagline": "Dare to let yourself go where you've never been before.", "title": "Female Perversions", "video": false, "vote_average": 6.0, "vote_count": 19, "keywords": {"keywords": [{"id": 934, "name": "judge"}, {"id": 5779, "name": "daydream"}, {"id": 5923, "name": "sister"}, {"id": 6399, "name": "rope"}, {"id": 15320, "name": "insecurity"}, {"id": 33841, "name": "incest"}, {"id": 41380, "name": "crucifix"}, {"id": 156651, "name": "lipstick"}, {"id": 156770, "name": "tightrope"}, {"id": 156771, "name": "cutter"}, {"id": 156772, "name": "peony"}, {"id": 156773, "name": "mastercard"}, {"id": 187056, "name": "woman director"}]}, "similar": {"page": 1, "results": [{"adult": false, "backdrop_path": "/gZeJziVigmRqbkEZwKAtSqlLQ6s.jpg", "genre_ids": [18, 10749], "id": 370663, "original_language": "en", "original_title": "Below Her Mouth", "overview": "An unexpected affair quickly escalates into a heart-stopping reality for two women whose passionate connection changes their lives forever.", "poster_path": "/nTGbq37hYLuNy7YgMg0gVLma0NS.jpg", "release_date": "2016-09-10", "title": "Below Her Mouth", "video": false, "vote_average": 6.2, "vote_count": 456, "popularity": 22.676}, {"adult": false, "backdrop_path": "/dvQDRfv3qvfHNnVAR57ouVsuErf.jpg", "genre_ids": [10749, 18], "id": 28031, "original_language": "en", "original_title": "If These Walls Could Talk 2", "overview": "The stories of three lesbian couples -- who live in the same house at different periods of time -- who are at a crossroads in their lives. In 1961, Edith loses her lover, Abby, to a stroke. Linda and Amy struggle with feminist issues in 1972. And, in 2000, Kal and Fran try to have a baby with the help of sperm donor.", "poster_path": "/xs7ODbmYQXCDhvXNvz5tF17T59H.jpg", "release_date": "2000-03-05", "title": "If These Walls Could Talk 2", "video": false, "vote_average": 7.1, "vote_count": 55, "popularity": 8.062}, {"adult": false, "backdrop_path": "/cADbqsIoiDW7X3Myg9nz8eAuno5.jpg", "genre_ids": [18, 10749], "id": 10818, "original_language": "fr", "original_title": "Naissance des pieuvres", "overview": "Set during a sultry summer in a French suburb, Marie is desperate to join the local pool's synchronized swimming team, but is her interest solely for the sake of sport or for a chance to get close to Floriane, the bad girl of the team? Sciamma, and the two leads, capture the uncertainty of teenage sexuality with a sympathetic eye in this delicate drama of the angst of coming-of-age.", "poster_path": "/4jajELYrR4Xmv3CVoKnukRnALa2.jpg", "release_date": "2007-05-17", "title": "Water Lilies", "video": false, "vote_average": 6.1, "vote_count": 119, "popularity": 10.744}, {"adult": false, "backdrop_path": "/fZ8oFcREAr6wgWcXISGql0xyxjB.jpg", "genre_ids": [35, 18], "id": 39781, "original_language": "en", "original_title": "The Kids Are All Right", "overview": "Two women, Nic and Jules, brought a son and daughter into the world through artificial insemination. When one of their children reaches age, both kids go behind their mothers' backs to meet with the donor. Life becomes so much more interesting when the father, two mothers and children start to become attached to each other.", "poster_path": "/fPDeK4MmoGfi2X0oWZev7LrbMqM.jpg", "release_date": "2010-07-09", "title": "The Kids Are All Right", "video": false, "vote_average": 6.6, "vote_count": 923, "popularity": 12.703}, {"adult": false, "backdrop_path": "/rf6G51j0SZL0tP57I8gnqHTRFEr.jpg", "genre_ids": [35, 18, 10749], "id": 273153, "original_language": "fr", "original_title": "La belle saison", "overview": "In 1971, Carole and Delphine meet and fall in love in Paris. When Carole follows Delphine back to her family farm in Limousin, the two find lesbianism and feminism are not as easy in the countryside.", "poster_path": "/evvAkNMO5VJiy5qIo1Hu7fUfvVI.jpg", "release_date": "2015-08-19", "title": "Summertime", "video": false, "vote_average": 6.6, "vote_count": 162, "popularity": 15.434}, {"id": 9813, "video": false, "vote_count": 128, "vote_average": 6.1, "title": "The Quiet", "release_date": "2005-09-12", "original_language": "en", "original_title": "The Quiet", "genre_ids": [18, 53], "backdrop_path": "/6eyWAZA4CEidZW1xXnQ4vlYBXTP.jpg", "adult": false, "overview": "After her widowed father dies, deaf teenager Dot moves in with her godparents, Olivia and Paul Deer. The Deers' daughter, Nina, is openly hostile to Dot, but that does not prevent her from telling her secrets to her silent stepsister, including the fact that she wants to kill her lecherous father.", "poster_path": "/GEqIE9YlmygHVUfS64LW2cwAAM.jpg", "popularity": 13.948}, {"adult": false, "backdrop_path": "/6tern9vOEwwmkDYC1vRCuO64z0C.jpg", "genre_ids": [10749, 18], "id": 475888, "original_language": "en", "original_title": "Tell It to the Bees", "overview": "Dr. Jean Markham returns to the town she left as a teenager to take over her late father's medical practice. When a school-yard scuffle lands Charlie in her surgery, she invites him to visit the hives in her garden and tell his secrets to the bees, as she once did. The new friendship between the boy and the bee keeper brings his mother Lydia into Jean's world.", "poster_path": "/Rj6zpHhMU1zFW3v28U4PSRSRgP.jpg", "release_date": "2019-05-03", "title": "Tell It to the Bees", "video": false, "vote_average": 6.4, "vote_count": 53, "popularity": 15.113}, {"adult": false, "backdrop_path": "/xOGEw8iywxcFMolV6SF6YdTdJTb.jpg", "genre_ids": [10402, 10749], "id": 52371, "original_language": "nl", "original_title": "LelleBelle", "overview": "19-year old Belle practices playing the violin diligently, but is unable to impart her music with a sensitive undertone. Her life changes when she discovers that sexual desire stimulates passion in her music.", "poster_path": "/nJVPgIq3icZMQ26p5uWIFdUZJfL.jpg", "release_date": "2010-10-08", "title": "LelleBelle", "video": false, "vote_average": 4.7, "vote_count": 41, "popularity": 13.931}, {"adult": false, "backdrop_path": "/knczzNAjBXzSYkeWxoT1u9VNmjR.jpg", "genre_ids": [10749, 18], "id": 258480, "original_language": "en", "original_title": "Carol", "overview": "In 1950s New York, a department-store clerk who dreams of a better life falls for an older, married woman.", "poster_path": "/AbKa7ANxmui0Jmhh7gV7OSELKIL.jpg", "release_date": "2015-11-20", "title": "Carol", "video": false, "vote_average": 7.4, "vote_count": 2182, "popularity": 14.185}, {"adult": false, "backdrop_path": "/baYbbMtKRDoDWYJeVWkbygAvAj8.jpg", "genre_ids": [18, 10749], "id": 31216, "original_language": "en", "original_title": "I Can't Think Straight", "overview": "I CAN'T THINK STRAIGHT is a 2007 romance movie about a London-based Jordanian of Palestinian descent, Tala, who is preparing for an elaborate wedding. A turn of events causes her to have an affair and subsequently fall in love with another woman, Leyla, a British Indian.", "poster_path": "/1kapga6rkM5wNuQBYw7sdE42CrA.jpg", "release_date": "2008-06-01", "title": "I Can't Think Straight", "video": false, "vote_average": 7.6, "vote_count": 109, "popularity": 8.749}, {"adult": false, "backdrop_path": "/lI5h8KaoeObu4NMTwzeRuUHzRwD.jpg", "genre_ids": [18, 9648, 53], "id": 401898, "original_language": "no", "original_title": "Thelma", "overview": "A college student starts to experience extreme seizures. She soon learns that the violent episodes are a symptom of inexplicable abilities.", "poster_path": "/yzSfG8TLAqw7nMQh2lxirQkQpgs.jpg", "release_date": "2017-09-15", "title": "Thelma", "video": false, "vote_average": 7.1, "vote_count": 418, "popularity": 12.235}, {"adult": false, "backdrop_path": "/tIFRPjIXQ3sYrmxbIeOu9K1JkUz.jpg", "genre_ids": [18, 10749], "id": 294, "original_language": "en", "original_title": "Desert Hearts", "overview": "The story of straight-edge literature professor Vivian who travels to Reno to get away from a relationship breakup when she falls in love with an attractive and unconventional girl named Cay.", "poster_path": "/b8JSmQSpYYJhctMtxNgqh0elENg.jpg", "release_date": "1985-10-01", "title": "Desert Hearts", "video": false, "vote_average": 7.3, "vote_count": 58, "popularity": 8.237}, {"id": 520172, "video": false, "vote_count": 0, "vote_average": 0.0, "title": "Happiest Season", "release_date": "2020-11-20", "original_language": "en", "original_title": "Happiest Season", "genre_ids": [35, 10749], "backdrop_path": null, "adult": false, "overview": "A young woman's plans to propose to her girlfriend while at her family's annual holiday party are upended when she discovers her partner hasn't yet come out to her conservative parents.", "poster_path": null, "popularity": 6.436}, {"adult": false, "backdrop_path": "/3YGy88nTV2e0wxZcKI1goiEN9oy.jpg", "genre_ids": [18, 10749], "id": 37636, "original_language": "en", "original_title": "High Art", "overview": "A young female intern at a small magazine company becomes involved with a drug-addicted lesbian photographer, both of whom seek to exploit each other for their respective careers, while slowly falling in love with each other.", "poster_path": "/qTg05RNJIvb9w4Z7XIcAZxuZmTn.jpg", "release_date": "1998-06-12", "title": "High Art", "video": false, "vote_average": 6.6, "vote_count": 61, "popularity": 7.27}, {"id": 434714, "video": false, "vote_count": 32, "vote_average": 7.5, "title": "My Days of Mercy", "release_date": "2019-07-11", "original_language": "en", "original_title": "My Days of Mercy", "genre_ids": [18, 10749], "backdrop_path": "/7Lbzq33nMMIQtAfZAmSqG6ibLSg.jpg", "adult": false, "overview": "The daughter of a man on death row falls in love with a woman on the opposing side of her family's political cause.", "poster_path": "/adIPKAoKnKL9vCTkvfF4J9ZA7Ln.jpg", "popularity": 6.928}, {"adult": false, "backdrop_path": "/ph5fElfh4U7O3jwhFljxz2LDp1l.jpg", "genre_ids": [18, 36], "id": 375262, "original_language": "en", "original_title": "The Favourite", "overview": "England, early 18th century. The close relationship between Queen Anne and Sarah Churchill is threatened by the arrival of Sarah's cousin, Abigail Hill, resulting in a bitter rivalry between the two cousins to be the Queen's favourite.", "poster_path": "/cwBq0onfmeilU5xgqNNjJAMPfpw.jpg", "release_date": "2018-11-23", "title": "The Favourite", "video": false, "vote_average": 7.6, "vote_count": 2823, "popularity": 26.511}, {"adult": false, "backdrop_path": "/t3Oea7KbSpOvuqddMnlFtZ4WHn.jpg", "genre_ids": [18, 53, 36], "id": 314365, "original_language": "en", "original_title": "Spotlight", "overview": "In 2001, editor Marty Baron of The Boston Globe assigns a team of journalists to investigate allegations against John Geoghan, an unfrocked priest accused of molesting more than 80 boys. Led by editor Walter \"Robby\" Robinson, reporters Michael Rezendes, Matt Carroll and Sacha Pfeiffer interview victims and try to unseal sensitive documents. The reporters make it their mission to provide proof of a cover-up of sexual abuse within the Roman Catholic Church.", "poster_path": "/ngKxbvsn9Si5TYVJfi1EGAGwThU.jpg", "release_date": "2015-11-06", "title": "Spotlight", "video": false, "vote_average": 7.8, "vote_count": 5408, "popularity": 22.049}, {"adult": false, "backdrop_path": "/ojn7IYKmMt8HXRd6oLwY5pLGLVc.jpg", "genre_ids": [18, 10749], "id": 9587, "original_language": "en", "original_title": "Little Women", "overview": "With their father away as a chaplain in the Civil War, Jo, Meg, Beth and Amy grow up with their mother in somewhat reduced circumstances. They are a close family who inevitably have their squabbles and tragedies. But the bond holds even when, later, male friends start to become a part of the household.", "poster_path": "/tD9YDE8pjtSvvKUpkmooE6YDSm8.jpg", "release_date": "1994-12-21", "title": "Little Women", "video": false, "vote_average": 7.2, "vote_count": 574, "popularity": 24.712}, {"id": 507076, "video": false, "vote_count": 629, "vote_average": 7.1, "title": "Climax", "release_date": "2018-09-19", "original_language": "fr", "original_title": "Climax", "genre_ids": [18, 27, 10402], "backdrop_path": "/v0sblc9A8eaE8EqDQ5Y6fELj4oB.jpg", "adult": false, "overview": "Young dancers gather in a remote and empty school building to rehearse on a cold and wintry night. The all-night celebration soon turns into a hallucinatory nightmare when they learn that their sangria is laced with LSD.", "poster_path": "/zQDqgzSdTGSDu4rDcQTq7TAttmy.jpg", "popularity": 15.582}, {"adult": false, "backdrop_path": "/uJTwAnWnbHZSUTCuouAbNaCHXEU.jpg", "genre_ids": [35, 10749], "id": 19316, "original_language": "en", "original_title": "Saving Face", "overview": "A Chinese-American lesbian and her traditionalist mother are reluctant to go public with secret loves that clash against cultural expectations.", "poster_path": "/7upctoAqpN7OkTUsIqD3EApv8fx.jpg", "release_date": "2004-09-12", "title": "Saving Face", "video": false, "vote_average": 7.2, "vote_count": 72, "popularity": 9.958}], "total_pages": 62, "total_results": 1240}, "recommendations": {"page": 1, "results": [{"adult": false, "backdrop_path": null, "genre_ids": [9648, 35, 14, 878], "id": 291964, "original_language": "en", "original_title": "Pandemonium", "overview": "Azaria Chamberlain was not killed by a dingo but saved and raised by said dingos. She is raised in an incestuous dingo environment and travels back to Sydney transformed as the second coming... a new messiah for a new age.", "poster_path": "/kmd5ZPqpQQJ5FT9pr0M5pVWz5Ga.jpg", "release_date": "1987-09-11", "title": "Pandemonium", "video": false, "vote_average": 4.5, "vote_count": 4, "popularity": 2.989}, {"adult": false, "backdrop_path": "/8jYA3KpCGqnxrj2a7TbFlT9pBQa.jpg", "genre_ids": [18], "id": 47570, "original_language": "en", "original_title": "Maid in Sweden", "overview": "Maid in Sweden tells the story of Inga, a 16-year-old Swedish girl who leaves her rural home to spend a weekend in the Swedish capital. An innocent with no experience, but with prodigious physical attributes, she has a series of romantic adventures as she throws off the frustrations of her small-town environment.", "poster_path": "/c6pbcBXxvyg2qHI8QzuI4CKevAh.jpg", "release_date": "1971-11-03", "title": "Maid in Sweden", "video": false, "vote_average": 4.2, "vote_count": 9, "popularity": 5.125}, {"adult": false, "backdrop_path": null, "genre_ids": [53, 80], "id": 70922, "original_language": "fr", "original_title": "Des diamants pour l'enfer", "overview": "A small-time hood brings the attention of the law with an insurance scam and diamond theft, but things become even more interesting when his moll murders him and is slammed behind bars where she faces all manner of electric shock treatments to various parts of her anatomy", "poster_path": "/hMnKDYmRmOdWh6EPvz7rMwJLYqI.jpg", "release_date": "1975-01-01", "title": "Women Behind Bars", "video": false, "vote_average": 4.6, "vote_count": 7, "popularity": 2.029}, {"adult": false, "backdrop_path": "/gla0r6j3fknA9VvkHf7RXKEgppc.jpg", "genre_ids": [35], "id": 96138, "original_language": "en", "original_title": "Tobacco Roody", "overview": "A southerner comforting his buxom stepdaughter, his young wife seducing a sheriff and getting sexually blackmailed by a banker, their sleeping daughters approached by drunk farmers. Just another standard day in a hillbilly farm.", "poster_path": "/92DafC3Apt7GvZRm7g8Kyf5WFTn.jpg", "release_date": "1970-10-02", "title": "Tobacco Roody", "video": false, "vote_average": 4.1, "vote_count": 5, "popularity": 3.905}, {"adult": false, "backdrop_path": "/1pKcOdhrqz3KEdR2OumDGJEhs5H.jpg", "genre_ids": [18], "id": 38096, "original_language": "en", "original_title": "Last Summer", "overview": "During summer vacation on Fire Island, three young people--a girl and two guys--become so close that they form a sort-of threesome. When an uncool girl tries to infiltrate the trio's newly found relationship, they construct an elaborate plot that has violent results.", "poster_path": "/epzOFzSz1HjjFBOuP1fqoFUaqwj.jpg", "release_date": "1969-06-10", "title": "Last Summer", "video": false, "vote_average": 6.5, "vote_count": 12, "popularity": 7.41}, {"adult": false, "backdrop_path": "/qKkTSfie0dQVBigyezMD90kQxfQ.jpg", "genre_ids": [10770, 18, 36], "id": 41127, "original_language": "en", "original_title": "Norma Jean & Marilyn", "overview": "This film follows Norma Jean from her simple, ambitious youth to her sex star pinnacle and back down. She moves from lover to lover in order to further her career. She finds fame but never happiness, only knowing seduction but not love.", "poster_path": "/2JrVAx0ZfY6ueScGxZZMqjaATzv.jpg", "release_date": "1996-05-18", "title": "Norma Jean & Marilyn", "video": false, "vote_average": 5.7, "vote_count": 11, "popularity": 5.543}, {"adult": false, "backdrop_path": "/wK7o6Sf5ZDiOxPsf6MU2Q2WhjjO.jpg", "genre_ids": [18], "id": 18514, "original_language": "ko", "original_title": "\ub450\ubc88\uc9f8 \uc0ac\ub791", "overview": "When an American woman begins a dangerous relationship with an attractive immigrant worker, in order to save her marriage, she finds her true self.", "poster_path": "/x5SXEQhfVOm3VsFCEVtZVVlEve9.jpg", "release_date": "2007-01-18", "title": "Never Forever", "video": false, "vote_average": 5.6, "vote_count": 9, "popularity": 3.986}, {"id": 193902, "video": false, "vote_count": 5, "vote_average": 5.7, "title": "The Massacre", "release_date": "1912-02-25", "original_language": "en", "original_title": "The Massacre", "genre_ids": [28, 10752], "backdrop_path": null, "adult": false, "overview": "The story of the massacre of an Indian village, and the ensuing retaliation.", "poster_path": "/rXAjWPp3WKhjHg8tyBjP1z5VfOE.jpg", "popularity": 2.702}, {"id": 271197, "video": false, "vote_count": 3, "vote_average": 5.0, "title": "Samoa, Queen of the Jungle", "release_date": "1968-03-08", "original_language": "it", "original_title": "Samoa, regina della giungla", "genre_ids": [28, 12], "backdrop_path": "/lhe12PStSREACDZWa5cRPYvGU5r.jpg", "adult": false, "overview": "The adventurer Clint (Roger Browne) travels across Borneo with a bunch of rogues and geologists on the search for a diamond mine. In the middle of the jungle, they meet a beautiful woman called Samoa (Edwige Fenech). Hardly a surprise that Clint falls in love with Samoa, but trouble with the natives begins when the diamonds are found because diamonds are holy stones to them.", "poster_path": "/oSdjx9tszThqqIjQeSvHGu5huk8.jpg", "popularity": 2.904}, {"id": 28311, "video": false, "vote_count": 11, "vote_average": 5.4, "title": "Picture Claire", "release_date": "2001-09-10", "original_language": "en", "original_title": "Picture Claire", "genre_ids": [53], "backdrop_path": "/4kYrWAX6RamhFw7veDBROGFYb6t.jpg", "adult": false, "overview": "After her Montreal apartment burns down and her possessions are reduced to ash, Claire Beaucage heads to her boyfriend's place in Toronto, only to find that he's missing. Then the police mistake her for Lily Warden, a sinister woman who killed a local gangster and happens to live in the same building as Claire's boyfriend. The police pursue a bewildered Claire while a gang of criminals chases after Lily.", "poster_path": "/we3FqtzBkadE19VOkHySvUTu0OU.jpg", "popularity": 4.757}, {"adult": false, "backdrop_path": "/3YTCTF8VMnNykiCZRYd0QICakJN.jpg", "genre_ids": [35, 18, 10749], "id": 50043, "original_language": "en", "original_title": "Cousin Bette", "overview": "Cousin Bette is a poor and lonely seamstress, who, after the death of her prominent and wealthy sister, tries to ingratiate herself into lives of her brother-in-law, Baron Hulot, and her niece, Hortense Hulot. Failing to do so, she instead finds solace and company in a handsome young sculptor she saves from starvation. But the aspiring artist soon finds love in the arms of another woman, Hortense, leaving Bette a bitter spinster. Bette plots to take revenge on the family who turned her away and stole her only love. With the help of famed courtesan Jenny Cadine she slowly destroys the lives of those who have scorned her. Written by CherylC894@aol.com", "poster_path": "/rkuPUrB4PM6Ob9IvniEpNDO5hvJ.jpg", "release_date": "1998-06-12", "title": "Cousin Bette", "video": false, "vote_average": 5.8, "vote_count": 20, "popularity": 3.755}, {"id": 123067, "video": false, "vote_count": 4, "vote_average": 6.0, "title": "Two Friends", "release_date": "1986-01-01", "original_language": "en", "original_title": "Two Friends", "genre_ids": [18], "backdrop_path": null, "adult": false, "overview": "The story of the end of a friendship between two teenage girls, told backwards over the course of nine months.", "poster_path": "/5aWJn4WISrsvVxyxgAmjLgoTWba.jpg", "popularity": 0.741}, {"adult": false, "backdrop_path": null, "genre_ids": [18, 35], "id": 190780, "original_language": "en", "original_title": "Twenty-one", "overview": "Katie is a free spirited independently minded 21-year-old. The film follows her as she reflects on the men in her life. Along the way we meet her drug addict boyfriend Bobby, her lover Jack, close friend Baldy, and her father.", "poster_path": "/63kpla7ON9Fa4Y4FzRUpQq1nivv.jpg", "release_date": "1991-10-04", "title": "Twenty-one", "video": false, "vote_average": 5.3, "vote_count": 4, "popularity": 3.514}, {"id": 5247, "video": false, "vote_count": 10, "vote_average": 5.9, "title": "Mercy", "release_date": "2000-02-11", "original_language": "en", "original_title": "Mercy", "genre_ids": [18, 9648, 53], "backdrop_path": "/2Ri4WM3fuG5ROpD8GYncQwRfmSx.jpg", "adult": false, "overview": "Detective Catherine Palmer is on the trail of an elusive serial killer. During her investigation she meets Vickie Kittrie, who belongs to an exclusive club of women who engage in secret sessions of bondage and S&M. Matters become even more complicated when Palmer finds herself attracted to Kittrie, leading to a brief lesbian encounter. Palmer soon learns that each victim belonged to this club of prominent, sexually experimental women. In order to catch the killer, Catherine must trust Vickie to guide her through the dangerous and illicit underground.", "poster_path": "/rTgEO5EpxztlMfdiXqghh7G2UxW.jpg", "popularity": 4.765}, {"adult": false, "backdrop_path": null, "genre_ids": [18, 53], "id": 3402, "original_language": "es", "original_title": "Marta", "overview": "A wealthy landowner haunted by the spectre of his dead mother has a fling with a beautiful fugitive who bears a striking resemblance to his missing wife, who may have been murdered.", "poster_path": "/pxvlEgtiKl2usfQzd7pc8aorMCN.jpg", "release_date": "1971-04-10", "title": "Marta", "video": false, "vote_average": 6.7, "vote_count": 5, "popularity": 2.862}, {"adult": false, "backdrop_path": "/idhxvE2U9oWa4NpEP1QRo5zcora.jpg", "genre_ids": [35, 18, 10402, 10749], "id": 333, "original_language": "en", "original_title": "Bollywood/Hollywood", "overview": "Rahul Seth is a dashing young millionaire who believes he is \"western\" enough to rebel against his mother and grandmother. They are not too keen about his Caucasian girlfriend Kimberly who, to make matters worse, is a pop star. Before you can say \"karmic intervention,\" Kimberly dies in a freak accident and Rahul is devastated. Instead of allowing him to mourn in peace, Rahul's mother sees the opportunity she's been waiting for. She threatens to call off his sister's wedding unless he finds himself a \"nice Indian girl.\" Rahul enlists the services of Sue, a fiercely independent escort whom he believes to be Hispanic, and therefore not \"married\" to the conventions taught to young Indian women. With a wink in her eye, Sue accepts the deal to pose as his Indian bride-to-be. She needs the money and having never been a fan of the typical Indian male, she feels her heart is safe. The charade begins....", "poster_path": "/n8J2PfCcgErDWSMhjdmJBBmQIDY.jpg", "release_date": "2002-01-01", "title": "Bollywood/Hollywood", "video": false, "vote_average": 5.7, "vote_count": 13, "popularity": 5.159}, {"adult": false, "backdrop_path": "/hmmibZNCgYqHYKLOvcCMSza3WVT.jpg", "genre_ids": [18, 53, 10749], "id": 33135, "original_language": "en", "original_title": "Fun", "overview": "Bonnie and Hillary are two young lost souls who meet one day and discover that they get along. They talk about their lives and run around and and keep getting really excited. Their day escalates into an eruption of violence and rage that can only be understood by the two girls.", "poster_path": "/qqZIu0bt2MAGgt21FOuMmgOZ4R2.jpg", "release_date": "1994-01-01", "title": "Fun", "video": false, "vote_average": 5.4, "vote_count": 11, "popularity": 4.06}, {"adult": false, "backdrop_path": null, "genre_ids": [18], "id": 124843, "original_language": "en", "original_title": "Ripe", "overview": "When their abusive parents are killed in a car crash, twin sisters Rosie and Violet vow to run away to Kentucky in search of a better life. While on the road, the girls meet up with Pete, a drifter working as a grounds keeper on a derelict army base, who takes them in. While Violet falls for him, Rosie becomes increasingly angry and hostile, and the sisters' childhood bond is eventually destroyed forever.", "poster_path": "/mzjRWVmEIpMLEBhDgDuKXPuHBjE.jpg", "release_date": "1996-09-10", "title": "Ripe", "video": false, "vote_average": 4.6, "vote_count": 9, "popularity": 3.696}, {"id": 49822, "video": false, "vote_count": 6, "vote_average": 7.4, "title": "The Heart of Justice", "release_date": "1992-10-14", "original_language": "en", "original_title": "The Heart of Justice", "genre_ids": [80, 18, 9648, 53], "backdrop_path": "/3W7Ni4s34A5r8A8LmGetc3NAdNM.jpg", "adult": false, "overview": "David Leader investigates a seemingly senseless murder, and in the course of it is drawn into the labyrinth of a sinisterly unique wealthy family...", "poster_path": "/9MaYEgfFitZBgFkaahyfG274R4F.jpg", "popularity": 3.485}, {"adult": false, "backdrop_path": null, "genre_ids": [18], "id": 80294, "original_language": "en", "original_title": "Suspicious River", "overview": "A young married woman (Parker) sells her body, not just for money, to guests at the motel where she works as a receptionist.", "poster_path": "/bhMq80ANl686zyHehY2nRH9F55o.jpg", "release_date": "2000-09-09", "title": "Suspicious River", "video": false, "vote_average": 6.2, "vote_count": 6, "popularity": 3.451}], "total_pages": 2, "total_results": 25}, "credits": {"cast": [{"cast_id": 3, "character": "Evelyn Stephens", "credit_id": "52fe45dec3a36847f80df07d", "gender": 1, "id": 3063, "name": "Tilda Swinton", "order": 0, "profile_path": "/kfI8XXVYoicM5YyT0EmzEuM4ua5.jpg"}, {"cast_id": 5, "character": "Madelyn Stephens", "credit_id": "52fe45dec3a36847f80df085", "gender": 1, "id": 23882, "name": "Amy Madigan", "order": 1, "profile_path": "/pNdNJPKRdl3veCRH8fZv3H76ywJ.jpg"}, {"cast_id": 12, "character": "Renee", "credit_id": "52fe45dec3a36847f80df095", "gender": 1, "id": 135162, "name": "Karen Sillas", "order": 2, "profile_path": "/kjvCblLqywvFknAxmQgHAtKabPx.jpg"}, {"cast_id": 10, "character": "Annunciata", "credit_id": "52fe45dec3a36847f80df08d", "gender": 1, "id": 3713, "name": "Frances Fisher", "order": 3, "profile_path": "/248IbuAi6RQG5l94a4hClUswbA5.jpg"}, {"cast_id": 2, "character": "John", "credit_id": "52fe45dec3a36847f80df079", "gender": 2, "id": 6574, "name": "Clancy Brown", "order": 4, "profile_path": "/pwiG1ljLoqfcmFH2zFp5NP2ML4B.jpg"}, {"cast_id": 4, "character": "Mrs. Stephens", "credit_id": "52fe45dec3a36847f80df081", "gender": 1, "id": 127171, "name": "Marcia Cross", "order": 5, "profile_path": "/5y6Xybye8h2CqP1TUVJZdp5ZrMN.jpg"}, {"cast_id": 9, "character": "Jake Rock", "credit_id": "52fe45dec3a36847f80df089", "gender": 2, "id": 4942, "name": "John Diehl", "order": 7, "profile_path": "/hDUvgqpIv753skoeRGjVw6gYp7A.jpg"}, {"cast_id": 11, "character": "Langley Flynn", "credit_id": "52fe45dec3a36847f80df091", "gender": 1, "id": 82406, "name": "Paulina Porizkova", "order": 8, "profile_path": "/4qdxeeAIHkNXNeBQQTHHydApoCI.jpg"}, {"cast_id": 14, "character": "Emma", "credit_id": "52fe45dec3a36847f80df09f", "gender": 1, "id": 27260, "name": "Laila Robins", "order": 9, "profile_path": "/3QChgzUKpoqcK1WD5mLb5eBpMju.jpg"}], "crew": [{"credit_id": "52fe45dec3a36847f80df09b", "department": "Directing", "gender": 1, "id": 135163, "job": "Director", "name": "Susan Streitfeld", "profile_path": null}, {"credit_id": "53969cd70e0a266dbb008724", "department": "Writing", "gender": 1, "id": 135163, "job": "Writer", "name": "Susan Streitfeld", "profile_path": null}, {"credit_id": "53969cca0e0a266dc20083f5", "department": "Writing", "gender": 1, "id": 417131, "job": "Writer", "name": "Julie H\u00e9bert", "profile_path": "/62gPyUKkQRMxJPvEVGPfUV7AR35.jpg"}, {"credit_id": "53969ce70e0a266dca008549", "department": "Writing", "gender": 0, "id": 1329278, "job": "Novel", "name": "Louise J. Kaplan", "profile_path": null}]}}