{"adult": false, "backdrop_path": "/8L1Z9ledIiw30u6zLajWiRC5OOx.jpg", "belongs_to_collection": null, "budget": 0, "genres": [{"id": 18, "name": "Drama"}, {"id": 10749, "name": "Romance"}], "homepage": null, "id": 41802, "imdb_id": "tt0102450", "original_language": "en", "original_title": "The Miracle", "overview": "The two teenagers Jimmy and Rose spend their vacation at the small Irish sea-resort Bray. Out of boredom they observe other people and imagine wild stories about them. One day they observe the blonde Renee, and Jimmy is immediately fascinated by her and even follows her home. She, too, seems to like him, but for a mysterious reason keeps him at a distance.", "popularity": 6.069, "poster_path": "/vzv25hJ20tgRC0VEXCtpGBX1hDT.jpg", "production_companies": [{"id": 35535, "logo_path": null, "name": "Cineplex Odeon Films", "origin_country": "CA"}, {"id": 12745, "logo_path": null, "name": "British Screen Productions", "origin_country": "GB"}, {"id": 181, "logo_path": "/zhQ77XOviCBuXd74IurqqjgLNe0.png", "name": "Channel Four Films", "origin_country": "GB"}], "production_countries": [{"iso_3166_1": "IE", "name": "Ireland"}, {"iso_3166_1": "GB", "name": "United Kingdom"}], "release_date": "1991-01-01", "revenue": 0, "runtime": 97, "spoken_languages": [{"iso_639_1": "en", "name": "English"}], "status": "Released", "tagline": "", "title": "The Miracle", "video": false, "vote_average": 6.2, "vote_count": 9, "keywords": {"keywords": [{"id": 6054, "name": "friendship"}, {"id": 33479, "name": "single father"}, {"id": 207763, "name": "abandoned by mother"}]}, "similar": {"page": 1, "results": [{"id": 61979, "video": false, "vote_count": 1061, "vote_average": 7.4, "title": "Three Steps Above Heaven", "release_date": "2010-12-03", "original_language": "es", "original_title": "Tres metros sobre el cielo", "genre_ids": [18, 10749], "backdrop_path": "/tBIUBCP6x5rOSyvytX2oVSp1gQ9.jpg", "adult": false, "overview": "Story of two young people who belong to different worlds. It is the chronicle of a love improbable, almost impossible but inevitable dragging in a frantic journey they discover the first great love. Babi (Maria Valverde) is a girl from upper-middle class that is educated in goodness and innocence . Hache (Mario Casas) is a rebellious boy, impulsive, unconscious, has a appetite for risk and danger embodied in endless fights and illegal motorbike races, the limit of common sense", "poster_path": "/57D3h8wb3LMURTyG0dv2VtHfvCM.jpg", "popularity": 22.361}, {"id": 449176, "video": false, "vote_count": 3690, "vote_average": 8.1, "title": "Love, Simon", "release_date": "2018-02-16", "original_language": "en", "original_title": "Love, Simon", "genre_ids": [35, 18, 10749], "backdrop_path": "/rqMEeajyzSF4PpJtdCB816Iz8Vr.jpg", "adult": false, "overview": "Everyone deserves a great love story. But for seventeen-year old Simon Spier it's a little more complicated: he's yet to tell his family or friends he's gay and he doesn't know the identity of the anonymous classmate he's fallen for online.", "poster_path": "/5YUYg5q7QfC4IoNwNUtiwdiYKPr.jpg", "popularity": 24.849}, {"adult": false, "backdrop_path": "/7B3I7S9a4bLonbYw6XVcoDzW8RT.jpg", "genre_ids": [18, 10749], "id": 109689, "original_language": "es", "original_title": "Tengo ganas de ti", "overview": "Sequel to \"Three Steps Above Heaven\". The sexy Gin is the new love of Hache, but this can not forget his former girlfriend, so the love triangle is inevitable.", "poster_path": "/z13I3sWzOoKBDAEpJ7iK9bSznQn.jpg", "release_date": "2012-06-22", "title": "I Want You", "video": false, "vote_average": 6.7, "vote_count": 692, "popularity": 15.177}, {"id": 50544, "video": false, "vote_count": 5176, "vote_average": 6.6, "title": "Friends with Benefits", "release_date": "2011-07-21", "original_language": "en", "original_title": "Friends with Benefits", "genre_ids": [35, 10749], "backdrop_path": "/liq5ljqURqLiBUgMkNiR388ZuSH.jpg", "adult": false, "overview": "Dylan and Jamie think it's going to be easy to add the simple act of sex to their friendship, despite what Hollywood romantic comedies would have them believe. They soon discover however that getting physical really does always lead to complications.", "poster_path": "/nKhhDFCdzxeJ3GUunQ570LDpUkz.jpg", "popularity": 19.228}, {"adult": false, "backdrop_path": "/2oG0ggdMliMDjenw00eSwZFypUp.jpg", "genre_ids": [35, 18], "id": 376660, "original_language": "en", "original_title": "The Edge of Seventeen", "overview": "Two high school girls are best friends until one dates the other's older brother, who is totally his sister's nemesis.", "poster_path": "/gxK80WUwkQePpXpzRdpob0i7DD5.jpg", "release_date": "2016-11-18", "title": "The Edge of Seventeen", "video": false, "vote_average": 7.2, "vote_count": 2515, "popularity": 12.687}, {"adult": false, "backdrop_path": "/w2KDvs7D0E6yDGESrAeJ0tzimSA.jpg", "genre_ids": [35, 18], "id": 44564, "original_language": "en", "original_title": "The Dilemma", "overview": "Longtime friends Ronny and Nick are partners in an auto-design firm. They are hard at work on a presentation for a dream project that would really launch their company. Then Ronny spots Nick's wife out with another man, and in the process of investigating the possible affair, he learns that Nick has a few secrets of his own. As the presentation nears, Ronny agonizes over what might happen if the truth gets out.", "poster_path": "/wMwKQBOrlz3KN3QLIFj65hyJw9B.jpg", "release_date": "2011-01-13", "title": "The Dilemma", "video": false, "vote_average": 5.4, "vote_count": 540, "popularity": 12.409}, {"id": 77338, "video": false, "vote_count": 10876, "vote_average": 8.2, "title": "The Intouchables", "release_date": "2011-11-02", "original_language": "fr", "original_title": "Intouchables", "genre_ids": [35, 18], "backdrop_path": "/ihWaJZCUIon2dXcosjQG2JHJAPN.jpg", "adult": false, "overview": "A true story of two men who should never have met \u2013 a quadriplegic aristocrat who was injured in a paragliding accident and a young man from the projects.", "poster_path": "/4mFsNQwbD0F237Tx7gAPotd0nbJ.jpg", "popularity": 23.919}, {"adult": false, "backdrop_path": "/74Jh5SIWnKDwtusPfDP51EeCFHt.jpg", "genre_ids": [35, 10749], "id": 9576, "original_language": "en", "original_title": "Tootsie", "overview": "When struggling, out of work actor Michael Dorsey secretly adopts a female alter ego - Dorothy Michaels - in order to land a part in a daytime drama, he unwittingly becomes a feminist icon and ends up in a romantic pickle.", "poster_path": "/ngyCzZwb9y5sMUCig5JQT4Y33Q.jpg", "release_date": "1982-12-16", "title": "Tootsie", "video": false, "vote_average": 7.2, "vote_count": 915, "popularity": 9.882}, {"id": 76726, "video": false, "vote_count": 3330, "vote_average": 6.7, "title": "Chronicle", "release_date": "2012-02-01", "original_language": "en", "original_title": "Chronicle", "genre_ids": [18, 878, 53], "backdrop_path": "/f54d3tpzdRW02IDIIVRuwiY2N3K.jpg", "adult": false, "overview": "Three high school students make an incredible discovery, leading to their developing uncanny powers beyond their understanding. As they learn to control their abilities and use them to their advantage, their lives start to spin out of control, and their darker sides begin to take over.", "poster_path": "/kdyrdFIt29FUmLIKvedAc2j4rpo.jpg", "popularity": 14.213}, {"id": 23168, "video": false, "vote_count": 2676, "vote_average": 7.2, "title": "The Town", "release_date": "2010-09-15", "original_language": "en", "original_title": "The Town", "genre_ids": [80, 18, 53], "backdrop_path": "/asMylckPVBXViRqxjDTzik0TpOh.jpg", "adult": false, "overview": "Doug MacRay is a longtime thief, who, smarter than the rest of his crew, is looking for his chance to exit the game. When a bank job leads to the group kidnapping an attractive branch manager, he takes on the role of monitoring her \u2013 but their burgeoning relationship threatens to unveil the identities of Doug and his crew to the FBI Agent who is on their case.", "poster_path": "/zX4fKmDXKGt4hlzhAJirdlRKFgO.jpg", "popularity": 22.874}, {"id": 68718, "video": false, "vote_count": 17247, "vote_average": 8.1, "title": "Django Unchained", "release_date": "2012-12-25", "original_language": "en", "original_title": "Django Unchained", "genre_ids": [18, 37], "backdrop_path": "/qUcmEqnzIwlwZxSyTf3WliSfAjJ.jpg", "adult": false, "overview": "With the help of a German bounty hunter, a freed slave sets out to rescue his wife from a brutal Mississippi plantation owner.", "poster_path": "/eCt596Z4zkqxW5AHz1HEhGm1eif.jpg", "popularity": 47.791}, {"adult": false, "backdrop_path": "/k8H7ye6Sab7OrDJoo8Qp5WFGHGk.jpg", "genre_ids": [35, 10749, 18], "id": 244264, "original_language": "en", "original_title": "Laggies", "overview": "Overeducated and underemployed, 28 year old Megan is in the throes of a quarterlife crisis. Squarely into adulthood with no career prospects, no particular motivation to think about her future and no one to relate to, Megan is comfortable lagging a few steps behind - while her friends check off milestones and celebrate their new grown-up status. When her high-school sweetheart proposes, Megan panics and- given an unexpected opportunity to escape for a week - hides out in the home of her new friend, 16-year old Annika and Annika's world-weary single dad Craig.", "poster_path": "/dNcoXoRC7JHiqbe7k5Ufo6syiPP.jpg", "release_date": "2014-09-25", "title": "Laggies", "video": false, "vote_average": 6.1, "vote_count": 787, "popularity": 9.883}, {"id": 40807, "video": false, "vote_count": 2336, "vote_average": 7.1, "title": "50/50", "release_date": "2011-09-30", "original_language": "en", "original_title": "50/50", "genre_ids": [35, 18], "backdrop_path": "/kGac26bIqfwm8eqbP1RjKP70brE.jpg", "adult": false, "overview": "Inspired by a true story, a comedy centered on a 27-year-old guy who learns of his cancer diagnosis, and his subsequent struggle to beat the disease.", "poster_path": "/uDKmnFHqE3rQ9r6ErQsOZWuzXN8.jpg", "popularity": 19.878}, {"id": 19913, "video": false, "vote_count": 6208, "vote_average": 7.2, "title": "(500) Days of Summer", "release_date": "2009-07-17", "original_language": "en", "original_title": "(500) Days of Summer", "genre_ids": [35, 18, 10749], "backdrop_path": "/yYw9cVdRJ4zzwxM2cTDXfT6JI6E.jpg", "adult": false, "overview": "Tom, greeting-card writer and hopeless romantic, is caught completely off-guard when his girlfriend, Summer, suddenly dumps him. He reflects on their 500 days together to try to figure out where their love affair went sour, and in doing so, Tom rediscovers his true passions in life.", "poster_path": "/5SjtNPD1bb182vzQccvEUpXHFjN.jpg", "popularity": 20.487}, {"adult": false, "backdrop_path": "/8ndqvvwDVe9oDUQF1Jt6NCjAn7z.jpg", "genre_ids": [10749, 18], "id": 398818, "original_language": "en", "original_title": "Call Me by Your Name", "overview": "In 1980s Italy, a relationship begins between seventeen-year-old teenage Elio and the older adult man hired as his father's research assistant.", "poster_path": "/tcNniniS4rfqrLH0oORikJfnIwY.jpg", "release_date": "2017-09-01", "title": "Call Me by Your Name", "video": false, "vote_average": 8.3, "vote_count": 5875, "popularity": 30.709}, {"id": 391713, "video": false, "vote_count": 4441, "vote_average": 7.3, "title": "Lady Bird", "release_date": "2017-09-08", "original_language": "en", "original_title": "Lady Bird", "genre_ids": [35, 18], "backdrop_path": "/ocsCa41WtMqlsEnmewedmxpuCpF.jpg", "adult": false, "overview": "A California high school student plans to escape from her family and small town by going to college in New York, much to the disapproval of wildly loving, deeply opinionated and strong-willed mother.", "poster_path": "/iySFtKLrWvVzXzlFj7x1zalxi5G.jpg", "popularity": 23.697}, {"adult": false, "backdrop_path": "/msOjpu9wigi6n1Xa51MeLcBue88.jpg", "genre_ids": [18, 36, 10752, 10749], "id": 468224, "original_language": "en", "original_title": "Tolkien", "overview": "England, early 20th century. The future writer and philologist John Ronald Reuel Tolkien (1892-1973) and three of his schoolmates create a strong bond between them as they share the same passion for literature and art, a true fellowship that strengthens as they grow up, but the outbreak of World War I threatens to shatter it.", "poster_path": "/A7eYO3t7oZQdfJj5KlJBI7GhT9H.jpg", "release_date": "2019-05-03", "title": "Tolkien", "video": false, "vote_average": 6.8, "vote_count": 450, "popularity": 13.09}, {"id": 13, "video": false, "vote_count": 16610, "vote_average": 8.4, "title": "Forrest Gump", "release_date": "1994-07-06", "original_language": "en", "original_title": "Forrest Gump", "genre_ids": [35, 18, 10749], "backdrop_path": "/wMgbnUVS9wbRGAdki8fqxKU1O0N.jpg", "adult": false, "overview": "A man with a low IQ has accomplished great things in his life and been present during significant historic events\u2014in each case, far exceeding what anyone imagined he could do. But despite all he has achieved, his one true love eludes him.", "poster_path": "/yE5d3BUhE8hCnkMUJOo1QDoOGNz.jpg", "popularity": 41.886}, {"id": 28178, "video": false, "vote_count": 3997, "vote_average": 8.0, "title": "Hachi: A Dog's Tale", "release_date": "2009-06-13", "original_language": "en", "original_title": "Hachi: A Dog's Tale", "genre_ids": [18, 10751], "backdrop_path": "/m87xptCZD6J15HcioOOX4kfEdeD.jpg", "adult": false, "overview": "A drama based on the true story of a college professor's bond with the abandoned dog he takes into his home.", "poster_path": "/3MpVmIg6CgOCUrZ2TZ2P0yitCbM.jpg", "popularity": 38.97}, {"id": 3170, "video": false, "vote_count": 3378, "vote_average": 7.0, "title": "Bambi", "release_date": "1942-08-14", "original_language": "en", "original_title": "Bambi", "genre_ids": [16, 18, 10751], "backdrop_path": "/zM2Rdsh4kiTEXPkkO9lWBzZpwAH.jpg", "adult": false, "overview": "Bambi's tale unfolds from season to season as the young prince of the forest learns about life, love, and friends.", "poster_path": "/wV9e2y4myJ4KMFsyFfWYcUOawyK.jpg", "popularity": 25.454}], "total_pages": 203, "total_results": 4058}, "recommendations": {"page": 1, "results": [], "total_pages": 1, "total_results": 0}, "credits": {"cast": [{"cast_id": 5, "character": "Renee Baker", "credit_id": "52fe45dec3a36847f80df0db", "gender": 1, "id": 821, "name": "Beverly D'Angelo", "order": 0, "profile_path": "/8fYQIA8dAaA4GOTxOFSKIvTqzi.jpg"}, {"cast_id": 4, "character": "Sam", "credit_id": "52fe45dec3a36847f80df0d7", "gender": 2, "id": 87435, "name": "Donal McCann", "order": 1, "profile_path": "/xGjV73QUTFPvNwWSv6R1dNqsMt.jpg"}, {"cast_id": 3, "character": "Jimmy", "credit_id": "52fe45dec3a36847f80df0d3", "gender": 2, "id": 939646, "name": "Niall Byrne", "order": 2, "profile_path": "/vesViweZ7my0uJl6qcDZ74KCBUC.jpg"}, {"cast_id": 2, "character": "Rose", "credit_id": "52fe45dec3a36847f80df0cf", "gender": 1, "id": 68284, "name": "Lorraine Pilkington", "order": 3, "profile_path": "/mBENFYa1pMZa55uZXV37RefE8Wy.jpg"}, {"cast_id": 6, "character": "Mr. Beausang", "credit_id": "52fe45dec3a36847f80df0df", "gender": 2, "id": 199908, "name": "J.G. Devlin", "order": 4, "profile_path": "/yKE7DZc8nCRi9mCHvhg1w0rMbQe.jpg"}, {"cast_id": 7, "character": "Miss Strange", "credit_id": "52fe45dec3a36847f80df0e3", "gender": 0, "id": 150229, "name": "Cathleen Delany", "order": 5, "profile_path": null}, {"cast_id": 8, "character": "Tommy", "credit_id": "52fe45dec3a36847f80df0e7", "gender": 2, "id": 107729, "name": "Tom Hickey", "order": 6, "profile_path": "/wmgEm09lbMS8ULcscHD7e9WJYhk.jpg"}, {"cast_id": 9, "character": "Rose's Father", "credit_id": "52fe45dec3a36847f80df0eb", "gender": 0, "id": 33388, "name": "Shane Connaughton", "order": 7, "profile_path": null}, {"cast_id": 10, "character": "Jonner", "credit_id": "52fe45dec3a36847f80df0ef", "gender": 0, "id": 1647, "name": "Mikkel Gaup", "order": 8, "profile_path": "/gt8qQquilEofMCM4qBQ4fGt8suM.jpg"}, {"cast_id": 11, "character": "Muscular Lady", "credit_id": "52fe45dec3a36847f80df0f3", "gender": 0, "id": 1140112, "name": "Sylvia Teron", "order": 9, "profile_path": null}, {"cast_id": 12, "character": "Ballroom Stager", "credit_id": "52fe45dec3a36847f80df0f7", "gender": 0, "id": 89394, "name": "Anita Reeves", "order": 10, "profile_path": null}, {"cast_id": 13, "character": "Wardrobe Mistress", "credit_id": "52fe45dec3a36847f80df0fb", "gender": 1, "id": 17026, "name": "Ruth McCabe", "order": 11, "profile_path": "/yiA0GlVcMQ30hmgkfEaCCBMTGtM.jpg"}, {"cast_id": 14, "character": "Barman", "credit_id": "52fe45dec3a36847f80df0ff", "gender": 0, "id": 549342, "name": "Jer O'Leary", "order": 12, "profile_path": "/6xoDf7ZkXYNp6ib4ekCGdgKML85.jpg"}, {"cast_id": 15, "character": "Trumpet, Sam's Band", "credit_id": "52fe45dec3a36847f80df103", "gender": 0, "id": 1140113, "name": "Earl Gill", "order": 13, "profile_path": null}, {"cast_id": 16, "character": "Saxophone, Sam's Band", "credit_id": "52fe45dec3a36847f80df107", "gender": 0, "id": 1140114, "name": "Johnny Devlin", "order": 14, "profile_path": null}], "crew": [{"credit_id": "52fe45dec3a36847f80df113", "department": "Costume & Make-Up", "gender": 1, "id": 9027, "job": "Costume Design", "name": "Sandy Powell", "profile_path": "/6J0JwsWmFv3vKEguRTV71aK5J.jpg"}, {"credit_id": "52fe45dec3a36847f80df0cb", "department": "Directing", "gender": 2, "id": 17016, "job": "Director", "name": "Neil Jordan", "profile_path": "/uZ7CvCLTKb9qxjU4VsTNeyMRucd.jpg"}, {"credit_id": "52fe45dec3a36847f80df10d", "department": "Writing", "gender": 2, "id": 17016, "job": "Writer", "name": "Neil Jordan", "profile_path": "/uZ7CvCLTKb9qxjU4VsTNeyMRucd.jpg"}]}}