{"adult": false, "backdrop_path": "/730eUqBKDGjgMTukQrf4zKO0txB.jpg", "belongs_to_collection": null, "budget": 0, "genres": [{"id": 80, "name": "Crime"}, {"id": 18, "name": "Drama"}], "homepage": "http://hitsujinoki-movie.com/", "id": 418109, "imdb_id": "tt6087562", "original_language": "ja", "original_title": "\u7f8a\u306e\u6728", "overview": "Based on a manga written by Tatsuhiko Yamagami, the story is set in a former seaport town Uobuka, where 6 former criminals were sent to live there by the government, with the intention of re-socialising them. Aside from the few who know about the project, the general townsfolk has no idea of the former convicts' identities. Tsukisue is the pleasant and efficient municipal official put in charge of the programme. As he slowly learns about their past, a body is discovered.", "popularity": 2.911, "poster_path": "/9AGEsJGR6ywe1pDkDEpf6WlfQTt.jpg", "production_companies": [{"id": 18835, "logo_path": null, "name": "Geek Sight", "origin_country": ""}, {"id": 3033, "logo_path": null, "name": "Asmik Ace", "origin_country": "JP"}], "production_countries": [{"iso_3166_1": "JP", "name": "Japan"}], "release_date": "2018-02-03", "revenue": 0, "runtime": 126, "spoken_languages": [{"iso_639_1": "ja", "name": "\u65e5\u672c\u8a9e"}], "status": "Released", "tagline": "", "title": "The Scythian Lamb", "video": false, "vote_average": 6.7, "vote_count": 4, "keywords": {"keywords": [{"id": 1415, "name": "small town"}, {"id": 6840, "name": "criminal past"}, {"id": 156121, "name": "ex-con"}, {"id": 160213, "name": "festival"}]}, "similar": {"page": 1, "results": [{"adult": false, "backdrop_path": "/eB43LYncKDJS3p5xYSUN9dUrL2A.jpg", "genre_ids": [18], "id": 205587, "original_language": "en", "original_title": "The Judge", "overview": "A successful lawyer returns to his hometown for his mother's funeral only to discover that his estranged father, the town's judge, is suspected of murder.", "poster_path": "/v6s65U6qisvxWgO3cNnreaaaite.jpg", "release_date": "2014-10-08", "title": "The Judge", "video": false, "vote_average": 7.3, "vote_count": 2564, "popularity": 22.668}, {"id": 473149, "video": false, "vote_count": 195, "vote_average": 5.9, "title": "Traffik", "release_date": "2018-04-20", "original_language": "en", "original_title": "Traffik", "genre_ids": [27, 53], "backdrop_path": "/wbk9VvJ8lkUF0ElpfRm3dFIzMJf.jpg", "adult": false, "overview": "A couple off for a romantic weekend in the mountains are accosted by a biker gang. Alone in the mountains, Brea and John must defend themselves against the gang, who will stop at nothing to protect their secrets.", "poster_path": "/e2Z466e9402RFP6wxRMfXYYiJHA.jpg", "popularity": 31.63}, {"id": 76640, "video": false, "vote_count": 1826, "vote_average": 5.9, "title": "The Last Stand", "release_date": "2013-01-12", "original_language": "en", "original_title": "The Last Stand", "genre_ids": [28, 80, 53], "backdrop_path": "/p4Xazn7f63Sqwslw8va7IqDQBki.jpg", "adult": false, "overview": "Ray Owens is sheriff of the quiet US border town of Sommerton Junction after leaving the LAPD following a bungled operation. Following his escape from the FBI, a notorious drug baron, his gang, and a hostage are heading toward Sommerton Junction where the police are preparing to make a last stand to intercept them before they cross the border. Owens is reluctant to become involved but ultimately joins in with the law enforcement efforts", "poster_path": "/eOfpuaNcCcitHi3HOik7XFavRP4.jpg", "popularity": 19.38}, {"id": 129670, "video": false, "vote_count": 1069, "vote_average": 7.5, "title": "Nebraska", "release_date": "2013-09-21", "original_language": "en", "original_title": "Nebraska", "genre_ids": [12, 18], "backdrop_path": "/pjVhL1UZ33jBWPBd8HxOpfhAiA7.jpg", "adult": false, "overview": "An aging, booze-addled father takes a trip from Montana to Nebraska with his estranged son in order to claim what he believes to be a million-dollar sweepstakes prize.", "poster_path": "/zyG3vYWK7SwWT4bvrWeFef0J7fp.jpg", "popularity": 8.623}, {"id": 59, "video": false, "vote_count": 1693, "vote_average": 7.1, "title": "A History of Violence", "release_date": "2005-09-23", "original_language": "en", "original_title": "A History of Violence", "genre_ids": [80, 18, 53], "backdrop_path": "/8rbvmhGmUqEjLmo2mDycTazEaAc.jpg", "adult": false, "overview": "An average family is thrust into the spotlight after the father commits a seemingly self-defense murder at his diner.", "poster_path": "/mz1qCHXxTUJm2AqOdW3IIpwYdo3.jpg", "popularity": 21.711}, {"id": 10545, "video": false, "vote_count": 3018, "vote_average": 7.0, "title": "The Hunchback of Notre Dame", "release_date": "1996-06-21", "original_language": "en", "original_title": "The Hunchback of Notre Dame", "genre_ids": [16, 18, 10751], "backdrop_path": "/oslaee3VX9kJAjVezbjZKlEJDzn.jpg", "adult": false, "overview": "When Quasimodo defies the evil Frollo and ventures out to the Festival of Fools, the cruel crowd jeers him. Rescued by fellow outcast the gypsy Esmeralda, Quasi soon finds himself battling to save the people and the city he loves.", "poster_path": "/r7V92gY3AMO6li17MmGTixAnFcv.jpg", "popularity": 28.041}, {"id": 154400, "video": false, "vote_count": 1342, "vote_average": 6.7, "title": "The Drop", "release_date": "2014-09-12", "original_language": "en", "original_title": "The Drop", "genre_ids": [80, 18], "backdrop_path": "/lI7TD9Z9TsASnc3GxkLbBBpXCac.jpg", "adult": false, "overview": "Bob Saginowski finds himself at the center of a robbery gone awry and entwined in an investigation that digs deep into the neighborhood's past where friends, families, and foes all work together to make a living - no matter the cost.", "poster_path": "/lj8AMCjWx0jU93XajzUEOUUNKZF.jpg", "popularity": 24.66}, {"adult": false, "backdrop_path": "/7RRuRcGuWkZGuRyYugfXn0Fgrrr.jpg", "genre_ids": [28, 80, 18, 53], "id": 949, "original_language": "en", "original_title": "Heat", "overview": "Obsessive master thief, Neil McCauley leads a top-notch crew on various daring heists throughout Los Angeles while determined detective, Vincent Hanna pursues him without rest. Each man recognizes and respects the ability and the dedication of the other even though they are aware their cat-and-mouse game may end in violence.", "poster_path": "/6pmLVffM9jEYK7VqDJqPblMxfEY.jpg", "release_date": "1995-12-15", "title": "Heat", "video": false, "vote_average": 7.8, "vote_count": 3615, "popularity": 21.973}, {"id": 484247, "video": false, "vote_count": 2297, "vote_average": 6.6, "title": "A Simple Favor", "release_date": "2018-08-29", "original_language": "en", "original_title": "A Simple Favor", "genre_ids": [35, 80, 18, 9648, 53], "backdrop_path": "/nb1s8r6MhDcPyMjx3sjw9rFsEP5.jpg", "adult": false, "overview": "Stephanie, a dedicated mother and popular vlogger, befriends Emily, a mysterious upper-class woman whose son Nicky attends the same school as Miles, Stephanie's son. When Emily asks her to pick Nicky up from school and then disappears, Stephanie undertakes an investigation that will dive deep into Emily's cloudy past.", "poster_path": "/aIYsjQM0piKc0ibPBCTWv3sqshj.jpg", "popularity": 20.756}, {"adult": false, "backdrop_path": "/crRdazoirgBIB50ScJns8KMsZNM.jpg", "genre_ids": [80, 28, 53], "id": 438674, "original_language": "en", "original_title": "Dragged Across Concrete", "overview": "Two policemen, one an old-timer, the other his volatile younger partner, find themselves suspended when a video of their strong-arm tactics becomes the media's cause du jour. Low on cash and with no other options, these two embittered soldiers descend into the criminal underworld to gain their just due, but instead find far more than they wanted awaiting them in the shadows.", "poster_path": "/fVG4a27ImyPS4vvNMjCtan3QhDl.jpg", "release_date": "2019-02-21", "title": "Dragged Across Concrete", "video": false, "vote_average": 6.6, "vote_count": 252, "popularity": 14.091}, {"adult": false, "backdrop_path": "/xATZyEpnZ0Z0iO9z5K8RZsraGKI.jpg", "genre_ids": [878, 18], "id": 840, "original_language": "en", "original_title": "Close Encounters of the Third Kind", "overview": "After an encounter with UFOs, a line worker feels undeniably drawn to an isolated area in the wilderness where something spectacular is about to happen.", "poster_path": "/3Av8ZPiMrxFq9XiOjZl0tkoq9Oo.jpg", "release_date": "1977-11-16", "title": "Close Encounters of the Third Kind", "video": false, "vote_average": 7.4, "vote_count": 2289, "popularity": 38.059}, {"id": 1585, "video": false, "vote_count": 2261, "vote_average": 8.2, "title": "It's a Wonderful Life", "release_date": "1946-12-20", "original_language": "en", "original_title": "It's a Wonderful Life", "genre_ids": [18, 14, 10751], "backdrop_path": "/nMomMy1sD3SN2QsKop3zBXCJfDJ.jpg", "adult": false, "overview": "A holiday favourite for generations...  George Bailey has spent his entire life giving to the people of Bedford Falls.  All that prevents rich skinflint Mr. Potter from taking over the entire town is George's modest building and loan company.  But on Christmas Eve the business's $8,000 is lost and George's troubles begin.", "poster_path": "/bSqt9rhDZx1Q7UZ86dBPKdNomp2.jpg", "popularity": 30.622}, {"id": 755, "video": false, "vote_count": 3408, "vote_average": 7.0, "title": "From Dusk Till Dawn", "release_date": "1996-01-19", "original_language": "en", "original_title": "From Dusk Till Dawn", "genre_ids": [28, 80, 27, 53], "backdrop_path": "/3kPTAFgx2BftDOexBe41k8kqSRD.jpg", "adult": false, "overview": "Seth Gecko and his younger brother Richard are on the run after a bloody bank robbery in Texas. They escape across the border into Mexico and will be home-free the next morning, when they pay off the local kingpin. They just have to survive 'from dusk till dawn' at the rendezvous point, which turns out to be a Hell of a strip joint.", "poster_path": "/ce0d4kM5KxT4x1Oq8JkSuNYevri.jpg", "popularity": 21.139}, {"id": 475, "video": false, "vote_count": 791, "vote_average": 7.6, "title": "Bonnie and Clyde", "release_date": "1967-07-18", "original_language": "en", "original_title": "Bonnie and Clyde", "genre_ids": [80, 18], "backdrop_path": "/lQPMBJ1rm9Qk0cHd1C1lAbJcXJj.jpg", "adult": false, "overview": "In the 1930s, bored waitress Bonnie Parker falls in love with an ex-con named Clyde Barrow and together they start a violent crime spree through the country, stealing cars and robbing banks.", "poster_path": "/3tX1FJiXnk515NtRuF18PFC4CVy.jpg", "popularity": 18.072}, {"adult": false, "backdrop_path": "/bJLJAtGjBj836UjJZNOwgrfe5Ps.jpg", "genre_ids": [80, 18], "id": 359940, "original_language": "en", "original_title": "Three Billboards Outside Ebbing, Missouri", "overview": "After seven months have passed without a culprit in her daughter's murder case, Mildred Hayes makes a bold move, painting three signs leading into her town with a controversial message directed at Bill Willoughby, the town's revered chief of police. When his second-in-command Officer Jason Dixon, an immature mother's boy with a penchant for violence, gets involved, the battle between Mildred and Ebbing's law enforcement is only exacerbated.", "poster_path": "/vgvw6w1CtcFkuXXn004S5wQsHRl.jpg", "release_date": "2017-11-10", "title": "Three Billboards Outside Ebbing, Missouri", "video": false, "vote_average": 8.2, "vote_count": 6122, "popularity": 26.303}, {"id": 1427, "video": false, "vote_count": 2511, "vote_average": 7.2, "title": "Perfume: The Story of a Murderer", "release_date": "2006-09-13", "original_language": "en", "original_title": "Perfume: The Story of a Murderer", "genre_ids": [80, 18, 14], "backdrop_path": "/3i8bJa5yvLZW2k4sg2Cd1Yy0a1x.jpg", "adult": false, "overview": "Jean-Baptiste Grenouille, born in the stench of 18th century Paris, develops a superior olfactory sense, which he uses to create the world's finest perfumes. However, his work takes a dark turn as he tries to preserve scents in the search for the ultimate perfume.", "poster_path": "/zC9JHS6NlkJKPYFxOOqBl7fQCjT.jpg", "popularity": 20.263}, {"id": 634904, "video": false, "vote_count": 2, "vote_average": 3.5, "title": "Inherit the Viper", "release_date": "2020-01-10", "original_language": "en", "original_title": "Inherit the Viper", "genre_ids": [80, 18, 53], "backdrop_path": "/qgntyi1M022iSsNEuzjENljJnWl.jpg", "adult": false, "overview": "Since the death of their father, the Riley siblings have kept their heads above water by illegally dealing in painkillers. Josie is managing the business with an iron fist, when her brother, War veteran Kip, is concerned that the risky business is increasingly turning them into outsiders in their small community. While Kip wants to keep his younger brother out of their illegal endeavors, his younger brother is already making plans of his own.", "poster_path": "/7uARxGtWsYSZBHNhsJtsFIYLNzv.jpg", "popularity": 21.223}, {"adult": false, "backdrop_path": "/fmo48Lt8XtMWeHeXJzi5SbPCJud.jpg", "genre_ids": [18, 27, 80], "id": 1696, "original_language": "en", "original_title": "The Devil's Rejects", "overview": "The sequel to House of 1000 Corpses \u2013 the Firefly family are ambushed at their isolated home by Sheriff Wydell and a squad of armed men guns blazing \u2013 yet only Otis and his sister, Baby, manage to escape the barrage of bullets unharmed. Hiding out in a backwater motel, the wanted siblings wait to rendezvous with their errant father, Captain Spaulding, killing whoever happens to stand in their way.", "poster_path": "/fj4rrpUlBpFjPaJecpjID6yqacx.jpg", "release_date": "2005-07-22", "title": "The Devil's Rejects", "video": false, "vote_average": 6.7, "vote_count": 720, "popularity": 14.155}, {"id": 6977, "video": false, "vote_count": 6625, "vote_average": 7.9, "title": "No Country for Old Men", "release_date": "2007-11-08", "original_language": "en", "original_title": "No Country for Old Men", "genre_ids": [80, 18, 53], "backdrop_path": "/7hx7ANh11TbbvHLDXUuywYkg5rK.jpg", "adult": false, "overview": "Llewelyn Moss stumbles upon dead bodies, $2 million and a hoard of heroin in a Texas desert, but methodical killer Anton Chigurh comes looking for it, with local sheriff Ed Tom Bell hot on his trail. The roles of prey and predator blur as the violent pursuit of money and justice collide.", "poster_path": "/nBaqryObPuxmuAndWUjDE5rriTd.jpg", "popularity": 26.075}, {"adult": false, "backdrop_path": "/4aWNF3HT0ryJNLWTxtxBuMFrd3O.jpg", "genre_ids": [28, 53, 18], "id": 309886, "original_language": "en", "original_title": "Blood Father", "overview": "An ex-con reunites with his estranged wayward 16-year old daughter to protect her from drug dealers who are trying to kill her.", "poster_path": "/cKDGrVItQTdDn6LqcICz91AOxs3.jpg", "release_date": "2016-08-11", "title": "Blood Father", "video": false, "vote_average": 6.1, "vote_count": 905, "popularity": 12.786}], "total_pages": 54, "total_results": 1073}, "recommendations": {"page": 1, "results": [], "total_pages": 1, "total_results": 0}, "credits": {"cast": [{"cast_id": 1, "character": "Hajime Tsukisue", "credit_id": "57e90091c3a3682ba00017e2", "gender": 2, "id": 125950, "name": "Ryo Nishikido", "order": 1, "profile_path": "/4Y7chk6dePOlwVe2xIzuqqf2c6A.jpg"}, {"cast_id": 2, "character": "Aya", "credit_id": "57e9009e92514168ae00171d", "gender": 1, "id": 1255308, "name": "Fumino Kimura", "order": 2, "profile_path": "/mwqHWaMqq7qzWi7k9WOVJepDloG.jpg"}, {"cast_id": 3, "character": "Masashi Sugiyama", "credit_id": "57e900afc3a368475d0121ee", "gender": 2, "id": 2542, "name": "Kazuki Kitamura", "order": 3, "profile_path": "/p8Z8rkMo8IdrKCogudLbMe35jkW.jpg"}, {"cast_id": 4, "character": "Rieko \u014cta", "credit_id": "57e900c1c3a3682ba0001802", "gender": 1, "id": 1251327, "name": "Yuka", "order": 4, "profile_path": "/3lUh4iF3aBGgYep9PwVRWiETbwB.jpg"}, {"cast_id": 5, "character": "Ichir\u014d Miyakoshi", "credit_id": "57e900cec3a3687c5c0063a9", "gender": 2, "id": 72932, "name": "Ryuhei Matsuda", "order": 5, "profile_path": "/h5LaFzOmcIufsD0i0nv12AG00Mo.jpg"}, {"cast_id": 6, "character": "Katsumi \u014cno", "credit_id": "57e900dd92514168ae001743", "gender": 2, "id": 136191, "name": "Min Tanaka", "order": 6, "profile_path": "/ppKKjWpEJxaCGqoRdpZV3oxKmmc.jpg"}, {"cast_id": 7, "character": "Hiroki Fukumoto", "credit_id": "57e900ea92514168ae00174a", "gender": 0, "id": 1305065, "name": "Shingo Mizusawa", "order": 7, "profile_path": "/w0NrSb8CP6w8kBVVTNG4THlhiVm.jpg"}, {"cast_id": 8, "character": "Kiyomi Kurimoto", "credit_id": "57e900f7c3a3682ba000181b", "gender": 1, "id": 130654, "name": "Mikako Ichikawa", "order": 8, "profile_path": "/nXZJD2ykCzvzb8jGuXiYSLqJVuj.jpg"}, {"cast_id": 14, "character": "Drummer", "credit_id": "59f0a1f9c3a3680665016e74", "gender": 2, "id": 1502395, "name": "Satoru Matsuo", "order": 9, "profile_path": "/tgGVTt9Uned44dsCEXNZB37NGTw.jpg"}], "crew": [{"credit_id": "59c4b62fc3a36814030259b0", "department": "Crew", "gender": 0, "id": 124125, "job": "Cinematography", "name": "Akiko Ashizawa", "profile_path": "/3ZwMjXu8W5TZIPA8A9R9P02ExH9.jpg"}, {"credit_id": "59c4b63b9251415b24024e1a", "department": "Art", "gender": 0, "id": 958008, "job": "Art Direction", "name": "Norifumi Ataka", "profile_path": null}, {"credit_id": "57e90061925141395b01a52b", "department": "Directing", "gender": 2, "id": 1115707, "job": "Director", "name": "Daihachi Yoshida", "profile_path": "/bvlbgVakaR2uTRy5qYr6LwM8DvF.jpg"}, {"credit_id": "59c4b61fc3a368146101f486", "department": "Writing", "gender": 0, "id": 1735410, "job": "Screenplay", "name": "Masahito Kagawa", "profile_path": null}, {"credit_id": "59cf527b9251412f370162e5", "department": "Writing", "gender": 0, "id": 1735410, "job": "Writer", "name": "Masahito Kagawa", "profile_path": null}, {"credit_id": "59c4b67ec3a368141e02179c", "department": "Production", "gender": 0, "id": 1892871, "job": "Producer", "name": "Yoko Ide", "profile_path": null}]}}