{"adult": false, "backdrop_path": "/p527glv946onyIfw6b1HjpF0FOg.jpg", "belongs_to_collection": null, "budget": 0, "genres": [{"id": 35, "name": "Comedy"}, {"id": 18, "name": "Drama"}, {"id": 10749, "name": "Romance"}], "homepage": null, "id": 42224, "imdb_id": "tt0076400", "original_language": "it", "original_title": "Mogliamante", "overview": "Since her husband pronounced her frigid on her wedding night, Antonia DeAngelis has been an invalid. When he disappears, she believes him dead: she leaves her bed and takes over his business, traveling to see clients. She discovers her husband's passions, his political writing, mistresses, and his indifference to the peasants on her family's land. She improves their lot, begins an affair with a young foreign doctor, and publishes her husband's writings. All this time, he's hiding from a murder charge in a house across the square. Amazed, he watches her become his sexual and social equal. After the police drop the murder charge, will he disappear, end his life, or rejoin her on new terms?", "popularity": 3.563, "poster_path": "/bwB86PbsSdZgDdo53jPdbE42BZa.jpg", "production_companies": [{"id": 12111, "logo_path": null, "name": "Vides Cinematografica", "origin_country": ""}], "production_countries": [{"iso_3166_1": "IT", "name": "Italy"}], "release_date": "1977-10-27", "revenue": 0, "runtime": 106, "spoken_languages": [{"iso_639_1": "it", "name": "Italiano"}], "status": "Released", "tagline": "", "title": "Wifemistress", "video": false, "vote_average": 5.4, "vote_count": 4, "keywords": {"keywords": [{"id": 1157, "name": "husband wife relationship"}, {"id": 11869, "name": "mistress"}, {"id": 18028, "name": "hiding"}, {"id": 162804, "name": "sexual awakening"}]}, "similar": {"page": 1, "results": [{"adult": false, "backdrop_path": "/fAA0S3rM3o5Sp8TIdS0MvWOGsCQ.jpg", "genre_ids": [18, 10749], "id": 843, "original_language": "cn", "original_title": "\u82b1\u6a23\u5e74\u83ef", "overview": "Taking place in Hong Kong of 1962, a melancholy story about the love between a woman and a man who live in the same building and one day find out that their husband and wife had an affair with each other.", "poster_path": "/unOW3SxFxBdd7LMWjmRONdHWKPb.jpg", "release_date": "2000-05-22", "title": "In the Mood for Love", "video": false, "vote_average": 8.1, "vote_count": 963, "popularity": 21.272}, {"adult": false, "backdrop_path": "/eHhtUoazdml8CMvzWtpunIyqrZS.jpg", "genre_ids": [18, 53, 10749], "id": 884, "original_language": "en", "original_title": "Crash", "overview": "After getting into a serious car accident, a TV director discovers an underground sub-culture of scarred, omnisexual car-crash victims who use car accidents and the raw sexual energy they produce to try to rejuvenate his sex life with his wife.", "poster_path": "/4PDLGJsS5uVBQlYjLMZ7t85dU0P.jpg", "release_date": "1996-07-17", "title": "Crash", "video": false, "vote_average": 6.5, "vote_count": 438, "popularity": 14.59}, {"adult": false, "backdrop_path": "/ecREZ3vYCqethftSDWK4we0X498.jpg", "genre_ids": [35, 18, 10749], "id": 4507, "original_language": "es", "original_title": "Jam\u00f3n, jam\u00f3n", "overview": "Jose Luis is an executive at his parents underwear factory where his girlfriend Sylvia works on the shop floor. When Sylvia becomes pregnant, Jose Luis promises her that he will marry her, most likely against the wishes of his parents. Jose Luis' mother is determined to break her son's engagement to a girl from a lower-class family, and hires Raul, a potential underwear model and would-be bullfighter to seduce Sylvia.", "poster_path": "/v5Fq01ZtYnA2Grxdd3g8CuGZARg.jpg", "release_date": "1992-09-03", "title": "Jamon Jamon", "video": false, "vote_average": 6.1, "vote_count": 143, "popularity": 13.381}, {"adult": false, "backdrop_path": "/vVK04ayDtN2186jgkCtFjvw8IlN.jpg", "genre_ids": [18, 10749], "id": 4148, "original_language": "en", "original_title": "Revolutionary Road", "overview": "A young couple living in a Connecticut suburb during the mid-1950s struggle to come to terms with their personal problems while trying to raise their two children. Based on a novel by Richard Yates.", "poster_path": "/bnOK1lmdlqdy2HX6IgKx9TQD7Ax.jpg", "release_date": "2008-12-19", "title": "Revolutionary Road", "video": false, "vote_average": 6.9, "vote_count": 2092, "popularity": 19.466}, {"adult": false, "backdrop_path": "/bYbnlh6VXFRtcSX82UMDsBDLB5j.jpg", "genre_ids": [18, 10749], "id": 28468, "original_language": "it", "original_title": "La chiave", "overview": "After twenty years of marriage, art professor Nino Rolfe attempts to break down his wife Teresa's conventional modesty. Noticing her affection for their daughter's fianc\u00e9, Nino instigates her sexual interest in him as well. This sets off a chain of unexpected events and emotional complications, as Nino and his unpredictable fascist daughter find that they both enjoy being jealous.", "poster_path": "/e6g2geNLgFzMbriH6EvSJZD78nx.jpg", "release_date": "1983-10-18", "title": "The Key", "video": false, "vote_average": 5.0, "vote_count": 128, "popularity": 15.363}, {"adult": false, "backdrop_path": "/zA1Tv2C2wXeDSWfn3S8XdElqDFG.jpg", "genre_ids": [35, 18], "id": 37265, "original_language": "it", "original_title": "Cos\u00ec fan tutte", "overview": "Diana is a Roman wife happily married to sympathetic Paolo but she is keen on playing benign games of seduction with other men while resisting the advances of chic lingerie shop owner Silvio. She narrates her adventures to Paolo in order to stimulate their otherwise monotonous sexual life. However, under the influence of her lesbian friend Antonietta and raunchy sister Nadia, Diana starts to move the ongoings further while Paolo is still prone to believing that events narrated by her are merely fantasies.", "poster_path": "/h5xsSUCkXCd0696K5A9hkmgaERE.jpg", "release_date": "1992-02-21", "title": "All Ladies Do It", "video": false, "vote_average": 4.2, "vote_count": 207, "popularity": 9.964}, {"id": 340613, "video": false, "vote_count": 605, "vote_average": 7.2, "title": "The Wife", "release_date": "2018-08-02", "original_language": "en", "original_title": "The Wife", "genre_ids": [18], "backdrop_path": "/jvLrBlzdlJuDZtLunkCCd0eOXSm.jpg", "adult": false, "overview": "A wife questions her life choices as she travels to Stockholm with her husband, where he is slated to receive the Nobel Prize for Literature.", "poster_path": "/d4Qyuy0Ul549f6SOdUqGvIdYKD2.jpg", "popularity": 11.69}, {"adult": false, "backdrop_path": "/4TnGcUsyd6ixuLWHaaEG5BGkAIp.jpg", "genre_ids": [18, 10749], "id": 688, "original_language": "en", "original_title": "The Bridges of Madison County", "overview": "Photographer Robert Kincaid wanders into the life of housewife Francesca Johnson for four days in the 1960s.", "poster_path": "/8TfLAfIh5Qxp2J4ZjOafHYhWtDb.jpg", "release_date": "1995-05-28", "title": "The Bridges of Madison County", "video": false, "vote_average": 7.6, "vote_count": 913, "popularity": 13.303}, {"id": 263472, "video": false, "vote_count": 1669, "vote_average": 5.0, "title": "Knock Knock", "release_date": "2015-06-26", "original_language": "en", "original_title": "Knock Knock", "genre_ids": [18, 53], "backdrop_path": "/gJduaRau3X2oE3xkmjs1FufT2GE.jpg", "adult": false, "overview": "When a devoted husband and father is left home alone for the weekend, two stranded young women unexpectedly knock on his door for help. What starts out as a kind gesture results in a dangerous seduction and a deadly game of cat and mouse.", "poster_path": "/eynMtjBB1fXsB5vsQylVmsDLmvw.jpg", "popularity": 19.205}, {"id": 14, "video": false, "vote_count": 7295, "vote_average": 8.0, "title": "American Beauty", "release_date": "1999-09-15", "original_language": "en", "original_title": "American Beauty", "genre_ids": [18], "backdrop_path": "/z5J18ByLeOZ68iORfMXmxeFuwyL.jpg", "adult": false, "overview": "Lester Burnham, a depressed suburban father in a mid-life crisis, decides to turn his hectic life around after developing an infatuation with his daughter's attractive friend.", "poster_path": "/or1MP8BZIAjqWYxPdPX724ydKar.jpg", "popularity": 28.789}, {"id": 9753, "video": false, "vote_count": 86, "vote_average": 4.4, "title": "Survival Island", "release_date": "2006-05-05", "original_language": "en", "original_title": "Three", "genre_ids": [12, 18, 27, 9648, 53], "backdrop_path": "/56Yi1X3Kn8Oo1l9avoVYycGgaKi.jpg", "adult": false, "overview": "After a yachting accident, a millionaire and his wife are shipwrecked on a desert island along with their former deckhand, Manuel.", "poster_path": "/dg5gHoU11VYT0vAv5Uon6SHeoDr.jpg", "popularity": 22.163}, {"adult": false, "backdrop_path": "/ywxDMuhqt705eeJiEQaLQrWEyhC.jpg", "genre_ids": [18, 27, 53], "id": 10998, "original_language": "en", "original_title": "Fatal Attraction", "overview": "A married man's one night stand comes back to haunt him when that lover begins to stalk him and his family.", "poster_path": "/qHditPFIFCbXJKGLTPzvIagg6XD.jpg", "release_date": "1987-09-11", "title": "Fatal Attraction", "video": false, "vote_average": 6.8, "vote_count": 693, "popularity": 15.165}, {"adult": false, "backdrop_path": "/Ao2bnJMmcFepMVw1BUay25tt7TM.jpg", "genre_ids": [18, 10749], "id": 1259, "original_language": "en", "original_title": "Notes on a Scandal", "overview": "A veteran high school teacher befriends a younger art teacher, who is having an affair with one of her 15-year-old students. However, her intentions with this new \"friend\" also go well beyond platonic friendship.", "poster_path": "/lXZa1mHZ8eD0VOpNaLfvM9tSpAj.jpg", "release_date": "2006-12-25", "title": "Notes on a Scandal", "video": false, "vote_average": 7.1, "vote_count": 463, "popularity": 12.753}, {"adult": false, "backdrop_path": "/cdccKL6nLs21Ak27BWpryPrxqie.jpg", "genre_ids": [14, 18], "id": 422, "original_language": "it", "original_title": "8\u00bd", "overview": "Guido Anselmi, a film director, finds himself creatively barren at the peak of his career. Urged by his doctors to rest, Anselmi heads for a luxurious resort, but a sorry group gathers\u2014his producer, staff, actors, wife, mistress, and relatives\u2014each one begging him to get on with the show. In retreat from their dependency, he fantasizes about past women and dreams of his childhood.", "poster_path": "/5pQlc8dp5dXzWg1yM70DZrsDpOl.jpg", "release_date": "1963-02-14", "title": "8\u00bd", "video": false, "vote_average": 8.2, "vote_count": 1028, "popularity": 20.33}, {"adult": false, "backdrop_path": "/84kMxZoaw958LrBNqSQqxFJEDXI.jpg", "genre_ids": [18, 10749], "id": 27066, "original_language": "it", "original_title": "L'uomo che guarda", "overview": "At a college in Rome, a professor, nicknamed \"Dodo\" is in a deep depression. His stunningly beautiful wife has just left him for another man. Dodo wants her back very badly and has erotic daydreams about her. A beautiful young student in his class asks him for a ride home and seduces the lucky man, but still he wonders about his wife and her lover.", "poster_path": "/ndMErDbUC7lSiKoWeUfzdMs3OpV.jpg", "release_date": "1994-01-27", "title": "The Voyeur", "video": false, "vote_average": 4.4, "vote_count": 82, "popularity": 11.247}, {"adult": false, "backdrop_path": "/tMxCVvecIGr2mxpFt6XISKQTghD.jpg", "genre_ids": [18, 10749, 53], "id": 36630, "original_language": "en", "original_title": "Zandalee", "overview": "Bored with her marriage to burnt out poet turned corporate executive Thierry, Zandalee falls prey to an old friend of her husband, the manipulative and egotistical Johhny and becomes enmeshed in a sensual, passionate and destructive affair.", "poster_path": "/2htCUPJ6IsosO44lbN5XLfjDDhR.jpg", "release_date": "1991-05-09", "title": "Zandalee", "video": false, "vote_average": 4.2, "vote_count": 36, "popularity": 9.206}, {"adult": false, "backdrop_path": "/pHWPhvJDuIU97O0zJKdDlGr6tFV.jpg", "genre_ids": [18, 10749], "id": 283227, "original_language": "en", "original_title": "A Little Chaos", "overview": "A landscape gardener is hired by famous architect Le N\u00f4tre to construct the grand gardens at the palace of Versailles. As the two work on the palace, they find themselves drawn to each other and are thrown into rivalries within the court of King Louis XIV.", "poster_path": "/8Q8q0oBI99tfw3x5ozoKEtHKvO0.jpg", "release_date": "2015-03-26", "title": "A Little Chaos", "video": false, "vote_average": 6.3, "vote_count": 439, "popularity": 9.378}, {"id": 193610, "video": false, "vote_count": 2466, "vote_average": 6.3, "title": "The Other Woman", "release_date": "2014-04-16", "original_language": "en", "original_title": "The Other Woman", "genre_ids": [35, 10749], "backdrop_path": "/vWiwrW8OArlBcdEK4RzhPCIYi4r.jpg", "adult": false, "overview": "After discovering her boyfriend is married, Carly soon meets the wife he's been cheating on. And when yet another affair is discovered, all three women team up to plot mutual revenge on the three-timing SOB.", "poster_path": "/fu7K3rPwJcScizlXbxWAR7ZoUxt.jpg", "popularity": 16.146}, {"id": 2539, "video": false, "vote_count": 741, "vote_average": 5.9, "title": "Spanglish", "release_date": "2004-12-17", "original_language": "en", "original_title": "Spanglish", "genre_ids": [35], "backdrop_path": "/awcak1m6yW8393FkyeRdiiwRC7W.jpg", "adult": false, "overview": "Mexican immigrant and single mother Flor Moreno finds housekeeping work with Deborah and John Clasky, a well-off couple with two children of their own. When Flor admits she can't handle the schedule because of her daughter, Cristina, Deborah decides they should move into the Clasky home. Cultures clash and tensions run high as Flor and the Claskys struggle to share space while raising their children on their own, and very different, terms.", "poster_path": "/eXsj4d6kP5z1n9Pkk7rosX2TF9w.jpg", "popularity": 11.403}, {"id": 1440, "video": false, "vote_count": 459, "vote_average": 7.3, "title": "Little Children", "release_date": "2006-10-06", "original_language": "en", "original_title": "Little Children", "genre_ids": [35, 18, 10749], "backdrop_path": "/5RYylTj1WAO0kVoaY0o3wDfZSpg.jpg", "adult": false, "overview": "The lives of two lovelorn spouses from separate marriages, a registered sex offender, and a disgraced ex-police officer intersect as they struggle to resist their vulnerabilities and temptations.", "poster_path": "/225OXhGllrBJ6FWaYyiosxDU1us.jpg", "popularity": 12.499}], "total_pages": 81, "total_results": 1604}, "recommendations": {"page": 1, "results": [], "total_pages": 1, "total_results": 0}, "credits": {"cast": [{"cast_id": 1, "character": "Luigi De Angelis", "credit_id": "52fe45f5c3a36847f80e4619", "gender": 2, "id": 5676, "name": "Marcello Mastroianni", "order": 0, "profile_path": "/mZCdZhu5UfS8As8gSoyxYAsXVNl.jpg"}, {"cast_id": 2, "character": "Antonia De Angelis", "credit_id": "52fe45f5c3a36847f80e461d", "gender": 1, "id": 35956, "name": "Laura Antonelli", "order": 1, "profile_path": "/qLMwVP18mZtgS1JqKbdmVNugDOZ.jpg"}, {"cast_id": 3, "character": "Count Brandini", "credit_id": "52fe45f5c3a36847f80e4621", "gender": 2, "id": 102101, "name": "William Berger", "order": 2, "profile_path": "/ccCCzw4PTrLaePyuCL1jor9REM3.jpg"}, {"cast_id": 4, "character": "Dr. Dario Favella", "credit_id": "52fe45f5c3a36847f80e4625", "gender": 2, "id": 107223, "name": "Leonard Mann", "order": 3, "profile_path": "/aGkCdXeg89768W85of0Sj18y9Md.jpg"}, {"cast_id": 5, "character": "Vincenzo", "credit_id": "52fe45f5c3a36847f80e4629", "gender": 2, "id": 3281, "name": "Gastone Moschin", "order": 4, "profile_path": "/dlzOimu2std73cyi7S2RVb84XQg.jpg"}, {"cast_id": 6, "character": "Dr. Paola Pagano", "credit_id": "52fe45f5c3a36847f80e462d", "gender": 1, "id": 50744, "name": "Olga Karlatos", "order": 5, "profile_path": "/cdsJAabO7RlSzzQzTYv49n245qG.jpg"}, {"cast_id": 7, "character": "Enrico, Clara's fianc\u00e9", "credit_id": "52fe45f5c3a36847f80e4631", "gender": 0, "id": 544575, "name": "Stefano Patrizi", "order": 6, "profile_path": "/dlYdYWxHeS2u2NWAKhJPtJy8BCn.jpg"}, {"cast_id": 8, "character": "Lawyer", "credit_id": "52fe45f5c3a36847f80e4635", "gender": 2, "id": 27432, "name": "Luigi Diberti", "order": 7, "profile_path": "/cNcIyygeUnmLxyeuiGH8yuO7eoz.jpg"}, {"cast_id": 9, "character": "Priest", "credit_id": "52fe45f5c3a36847f80e4639", "gender": 2, "id": 122022, "name": "Enzo Robutti", "order": 8, "profile_path": "/e5YOH2MwKCXml0S1p3jaryge85o.jpg"}, {"cast_id": 22, "character": "Landlady", "credit_id": "57f1eaecc3a3680d02003821", "gender": 1, "id": 1074067, "name": "H\u00e9l\u00e8ne Chanel", "order": 9, "profile_path": "/bNHCbuqISIyNvw1ZAsYKbZrt1Ai.jpg"}, {"cast_id": 23, "character": "Hotel Concierge", "credit_id": "57f1eaf79251414645003b6c", "gender": 2, "id": 101549, "name": "Paul M\u00fcller", "order": 10, "profile_path": "/v3tZduw1pzCx6eeoYO6eWkwB0cu.jpg"}, {"cast_id": 24, "character": "Clara", "credit_id": "57f1eb019251414645003b76", "gender": 1, "id": 101576, "name": "Annie Belle", "order": 11, "profile_path": "/vmLEPb1WZ1eIbGcjDnMaWFt1lJL.jpg"}], "crew": [{"credit_id": "52fe45f5c3a36847f80e4651", "department": "Production", "gender": 0, "id": 2378, "job": "Producer", "name": "Franco Cristaldi", "profile_path": null}, {"credit_id": "52fe45f5c3a36847f80e465d", "department": "Editing", "gender": 2, "id": 4670, "job": "Editor", "name": "Nino Baragli", "profile_path": null}, {"credit_id": "57465fe59251415e69000ce5", "department": "Camera", "gender": 2, "id": 26267, "job": "Director of Photography", "name": "Ennio Guarnieri", "profile_path": null}, {"credit_id": "52fe45f5c3a36847f80e4663", "department": "Art", "gender": 2, "id": 32382, "job": "Production Design", "name": "Mario Garbuglia", "profile_path": null}, {"credit_id": "52fe45f5c3a36847f80e463f", "department": "Directing", "gender": 2, "id": 98784, "job": "Director", "name": "Marco Vicario", "profile_path": null}, {"credit_id": "55805a78c3a3684e02000228", "department": "Writing", "gender": 2, "id": 98784, "job": "Writer", "name": "Marco Vicario", "profile_path": null}, {"credit_id": "55805a82c3a36858b40001b2", "department": "Writing", "gender": 2, "id": 138209, "job": "Writer", "name": "Rodolfo Sonego", "profile_path": "/hujwuZR0zVAaU5svd0bfSYHqRuA.jpg"}, {"credit_id": "52fe45f5c3a36847f80e4657", "department": "Production", "gender": 0, "id": 230669, "job": "Executive Producer", "name": "Alberto Pugliese", "profile_path": null}, {"credit_id": "52fe45f5c3a36847f80e466f", "department": "Costume & Make-Up", "gender": 0, "id": 238476, "job": "Costume Design", "name": "Luca Sabatelli", "profile_path": null}]}}