{"adult": false, "backdrop_path": null, "belongs_to_collection": null, "budget": 0, "genres": [{"id": 18, "name": "Drama"}, {"id": 35, "name": "Comedy"}], "homepage": null, "id": 42483, "imdb_id": "tt0068835", "original_language": "en", "original_title": "Last of the Red Hot Lovers", "overview": "A middle aged restaurateur begins to feel the desire to roam and realizes that one day each week, his mother's apartment will be empty all afternoon. He makes several attempts at seduction, only to learn that it is much more complicated and difficult than he could have imagined.", "popularity": 1.952, "poster_path": "/s2gpb0b7zRVG9hY3fiEkWKxzxKi.jpg", "production_companies": [{"id": 4, "logo_path": "/fycMZt242LVjagMByZOLUGbCvv3.png", "name": "Paramount", "origin_country": "US"}], "production_countries": [{"iso_3166_1": "US", "name": "United States of America"}], "release_date": "1972-01-01", "revenue": 0, "runtime": 98, "spoken_languages": [{"iso_639_1": "en", "name": "English"}], "status": "Released", "tagline": "Barney wanted women in the worst way... and thats the way he got them!", "title": "Last of the Red Hot Lovers", "video": false, "vote_average": 5.9, "vote_count": 5, "keywords": {"keywords": [{"id": 596, "name": "adultery"}, {"id": 1599, "name": "midlife crisis"}, {"id": 10181, "name": "based on play or musical"}, {"id": 13043, "name": "dating"}]}, "similar": {"page": 1, "results": [{"adult": false, "backdrop_path": "/84kMxZoaw958LrBNqSQqxFJEDXI.jpg", "genre_ids": [18, 10749], "id": 27066, "original_language": "it", "original_title": "L'uomo che guarda", "overview": "At a college in Rome, a professor, nicknamed \"Dodo\" is in a deep depression. His stunningly beautiful wife has just left him for another man. Dodo wants her back very badly and has erotic daydreams about her. A beautiful young student in his class asks him for a ride home and seduces the lucky man, but still he wonders about his wife and her lover.", "poster_path": "/ndMErDbUC7lSiKoWeUfzdMs3OpV.jpg", "release_date": "1994-01-27", "title": "The Voyeur", "video": false, "vote_average": 4.4, "vote_count": 82, "popularity": 15.246}, {"adult": false, "backdrop_path": "/ecREZ3vYCqethftSDWK4we0X498.jpg", "genre_ids": [35, 18, 10749], "id": 4507, "original_language": "es", "original_title": "Jam\u00f3n, jam\u00f3n", "overview": "Jose Luis is an executive at his parents underwear factory where his girlfriend Sylvia works on the shop floor. When Sylvia becomes pregnant, Jose Luis promises her that he will marry her, most likely against the wishes of his parents. Jose Luis' mother is determined to break her son's engagement to a girl from a lower-class family, and hires Raul, a potential underwear model and would-be bullfighter to seduce Sylvia.", "poster_path": "/v5Fq01ZtYnA2Grxdd3g8CuGZARg.jpg", "release_date": "1992-09-03", "title": "Jamon Jamon", "video": false, "vote_average": 6.1, "vote_count": 143, "popularity": 14.21}, {"adult": false, "backdrop_path": "/pHWPhvJDuIU97O0zJKdDlGr6tFV.jpg", "genre_ids": [18, 10749], "id": 283227, "original_language": "en", "original_title": "A Little Chaos", "overview": "A landscape gardener is hired by famous architect Le N\u00f4tre to construct the grand gardens at the palace of Versailles. As the two work on the palace, they find themselves drawn to each other and are thrown into rivalries within the court of King Louis XIV.", "poster_path": "/8Q8q0oBI99tfw3x5ozoKEtHKvO0.jpg", "release_date": "2015-03-26", "title": "A Little Chaos", "video": false, "vote_average": 6.3, "vote_count": 439, "popularity": 10.791}, {"adult": false, "backdrop_path": "/bYbnlh6VXFRtcSX82UMDsBDLB5j.jpg", "genre_ids": [18, 10749], "id": 28468, "original_language": "it", "original_title": "La chiave", "overview": "After twenty years of marriage, art professor Nino Rolfe attempts to break down his wife Teresa's conventional modesty. Noticing her affection for their daughter's fianc\u00e9, Nino instigates her sexual interest in him as well. This sets off a chain of unexpected events and emotional complications, as Nino and his unpredictable fascist daughter find that they both enjoy being jealous.", "poster_path": "/e6g2geNLgFzMbriH6EvSJZD78nx.jpg", "release_date": "1983-10-18", "title": "The Key", "video": false, "vote_average": 5.0, "vote_count": 128, "popularity": 19.088}, {"adult": false, "backdrop_path": "/zA1Tv2C2wXeDSWfn3S8XdElqDFG.jpg", "genre_ids": [35, 18], "id": 37265, "original_language": "it", "original_title": "Cos\u00ec fan tutte", "overview": "Diana is a Roman wife happily married to sympathetic Paolo but she is keen on playing benign games of seduction with other men while resisting the advances of chic lingerie shop owner Silvio. She narrates her adventures to Paolo in order to stimulate their otherwise monotonous sexual life. However, under the influence of her lesbian friend Antonietta and raunchy sister Nadia, Diana starts to move the ongoings further while Paolo is still prone to believing that events narrated by her are merely fantasies.", "poster_path": "/h5xsSUCkXCd0696K5A9hkmgaERE.jpg", "release_date": "1992-02-21", "title": "All Ladies Do It", "video": false, "vote_average": 4.2, "vote_count": 207, "popularity": 9.519}, {"adult": false, "backdrop_path": "/Ao2bnJMmcFepMVw1BUay25tt7TM.jpg", "genre_ids": [18, 10749], "id": 1259, "original_language": "en", "original_title": "Notes on a Scandal", "overview": "A veteran high school teacher befriends a younger art teacher, who is having an affair with one of her 15-year-old students. However, her intentions with this new \"friend\" also go well beyond platonic friendship.", "poster_path": "/lXZa1mHZ8eD0VOpNaLfvM9tSpAj.jpg", "release_date": "2006-12-25", "title": "Notes on a Scandal", "video": false, "vote_average": 7.1, "vote_count": 463, "popularity": 10.007}, {"id": 263472, "video": false, "vote_count": 1668, "vote_average": 5.0, "title": "Knock Knock", "release_date": "2015-06-26", "original_language": "en", "original_title": "Knock Knock", "genre_ids": [18, 53], "backdrop_path": "/gJduaRau3X2oE3xkmjs1FufT2GE.jpg", "adult": false, "overview": "When a devoted husband and father is left home alone for the weekend, two stranded young women unexpectedly knock on his door for help. What starts out as a kind gesture results in a dangerous seduction and a deadly game of cat and mouse.", "poster_path": "/eynMtjBB1fXsB5vsQylVmsDLmvw.jpg", "popularity": 21.643}, {"id": 14, "video": false, "vote_count": 7289, "vote_average": 8.0, "title": "American Beauty", "release_date": "1999-09-15", "original_language": "en", "original_title": "American Beauty", "genre_ids": [18], "backdrop_path": "/z5J18ByLeOZ68iORfMXmxeFuwyL.jpg", "adult": false, "overview": "Lester Burnham, a depressed suburban father in a mid-life crisis, decides to turn his hectic life around after developing an infatuation with his daughter's attractive friend.", "poster_path": "/or1MP8BZIAjqWYxPdPX724ydKar.jpg", "popularity": 34.256}, {"adult": false, "backdrop_path": "/zPUzsnEFPkEhhcQJpwLK29pgTgW.jpg", "genre_ids": [10402, 35, 10749], "id": 9716, "original_language": "en", "original_title": "Everyone Says I Love You", "overview": "A New York girl sets her father up with a beautiful woman in a shaky marriage while her half sister gets engaged.", "poster_path": "/eCw5qDE5Jw1B9Cuzs8DJD4uwaZV.jpg", "release_date": "1996-12-06", "title": "Everyone Says I Love You", "video": false, "vote_average": 6.5, "vote_count": 323, "popularity": 10.718}, {"id": 35685, "video": false, "vote_count": 30, "vote_average": 5.3, "title": "Lady Chatterley's Lover", "release_date": "1981-06-29", "original_language": "en", "original_title": "Lady Chatterley's Lover", "genre_ids": [18, 10749], "backdrop_path": "/xVJ9VCXvRIwWWjt1x0GvMV0bV3e.jpg", "adult": false, "overview": "A film adaptation of D.H. Lawrence's novel. After a crippling injury leaves her husband impotent, Lady Chatterly is torn between her love for her husband and her physical desires. With her husband's consent, she seeks out other means of fulfilling her needs.", "poster_path": "/kUfYxFkRotm3frocEf0A25rXawV.jpg", "popularity": 9.572}, {"adult": false, "backdrop_path": "/fODNcRUif6WCYpPCJeL3q3zo7lc.jpg", "genre_ids": [18, 53, 10749], "id": 4823, "original_language": "en", "original_title": "Final Analysis", "overview": "Barr is a psychiatrist who falls in love with the sister of one of his clients. She's beautiful and married to a gangster. She hates her husband but is unable to escape from him.", "poster_path": "/e8fXQhLhgSbPd9zKNQPiAS8O8qW.jpg", "release_date": "1992-02-07", "title": "Final Analysis", "video": false, "vote_average": 5.6, "vote_count": 123, "popularity": 11.421}, {"id": 9962, "video": false, "vote_count": 314, "vote_average": 6.0, "title": "The Good Girl", "release_date": "2002-01-12", "original_language": "en", "original_title": "The Good Girl", "genre_ids": [35, 18, 10749], "backdrop_path": "/gY2qB8EFgiCZTQSgcWoZov3w7eH.jpg", "adult": false, "overview": "A discount store clerk strikes up an affair with a stock boy who considers himself the incarnation of Holden Caulfield.", "poster_path": "/21AacCArwM5hQ8fYPRA0WKZviiN.jpg", "popularity": 9.196}, {"adult": false, "backdrop_path": "/nnAu82OrkswP23jpO8loFCDcOGR.jpg", "genre_ids": [18, 10749], "id": 38867, "original_language": "en", "original_title": "Delta of Venus", "overview": "A struggling American writer and a fellow American expatriate begin a sordid affair among the chaos and discord of 1940 Paris, France on the brink of World War II.", "poster_path": "/tV3GHas7BjqjNB6ta4SvL4TS6fv.jpg", "release_date": "1995-06-09", "title": "Delta of Venus", "video": false, "vote_average": 3.6, "vote_count": 12, "popularity": 9.243}, {"adult": false, "backdrop_path": "/vVK04ayDtN2186jgkCtFjvw8IlN.jpg", "genre_ids": [18, 10749], "id": 4148, "original_language": "en", "original_title": "Revolutionary Road", "overview": "A young couple living in a Connecticut suburb during the mid-1950s struggle to come to terms with their personal problems while trying to raise their two children. Based on a novel by Richard Yates.", "poster_path": "/bnOK1lmdlqdy2HX6IgKx9TQD7Ax.jpg", "release_date": "2008-12-19", "title": "Revolutionary Road", "video": false, "vote_average": 6.9, "vote_count": 2090, "popularity": 20.754}, {"adult": false, "backdrop_path": "/ojsY0XyCSsJvm0n7YTwumQcvBqT.jpg", "genre_ids": [9648, 53], "id": 1586, "original_language": "en", "original_title": "Secret Window", "overview": "Mort Rainey, a writer just emerging from a painful divorce with his ex-wife, is stalked at his remote lake house by a psychotic stranger and would-be scribe who claims Rainey swiped his best story idea. But as Rainey endeavors to prove his innocence, he begins to question his own sanity.", "poster_path": "/f5t7Df50xjniLlE80ty2dYsZBqI.jpg", "release_date": "2004-03-12", "title": "Secret Window", "video": false, "vote_average": 6.5, "vote_count": 2124, "popularity": 16.571}, {"id": 20024, "video": false, "vote_count": 116, "vote_average": 6.7, "title": "The End of the Affair", "release_date": "1999-12-03", "original_language": "en", "original_title": "The End of the Affair", "genre_ids": [18], "backdrop_path": "/sUPWjskNXip394SxoknaBuyLuUL.jpg", "adult": false, "overview": "On a rainy London night in 1946, novelist Maurice Bendrix has a chance meeting with Henry Miles, husband of his ex-mistress Sarah, who abruptly ended their affair two years before. Bendrix's obsession with Sarah is rekindled; he succumbs to his own jealousy and arranges to have her followed.", "poster_path": "/a0FPMCXTtQSMsTtq7JvQQXHPNPi.jpg", "popularity": 14.493}, {"id": 12531, "video": false, "vote_count": 91, "vote_average": 6.9, "title": "The Apartment", "release_date": "1996-07-27", "original_language": "fr", "original_title": "L'Appartement", "genre_ids": [18, 9648, 10749], "backdrop_path": "/64qyT8m4JQ6YODvXxtbHgKmXBX7.jpg", "adult": false, "overview": "A stylish suspense thriller that confounds the audience while presenting them with an extraordinary and elusive mystery. Max is a former playboy who has decided to settle down by marrying his current love, Muriel. However, during a business trip, Max catches a glimpse of the great lost love of his life, reviving his wanderlust and sending him off on a chase of the elusive Lisa, whom he had overheard suggesting to a friend that her lover, Daniel, had killed someone for her. Soon, Max is trying to unravel the mystery behind the suspicious death of Daniel's wife, which he hopes will lead him closer to Lisa.", "poster_path": "/1sqrQdQTn8jKLhUcPKfRVj639zA.jpg", "popularity": 21.259}, {"adult": false, "backdrop_path": "/fAA0S3rM3o5Sp8TIdS0MvWOGsCQ.jpg", "genre_ids": [18, 10749], "id": 843, "original_language": "cn", "original_title": "\u82b1\u6a23\u5e74\u83ef", "overview": "Taking place in Hong Kong of 1962, a melancholy story about the love between a woman and a man who live in the same building and one day find out that their husband and wife had an affair with each other.", "poster_path": "/unOW3SxFxBdd7LMWjmRONdHWKPb.jpg", "release_date": "2000-05-22", "title": "In the Mood for Love", "video": false, "vote_average": 8.1, "vote_count": 962, "popularity": 15.474}, {"id": 521, "video": false, "vote_count": 1257, "vote_average": 8.0, "title": "Dial M for Murder", "release_date": "1954-05-29", "original_language": "en", "original_title": "Dial M for Murder", "genre_ids": [80, 18, 9648, 53], "backdrop_path": "/jVMlfESb0TJ29w8CUDDofEprMmn.jpg", "adult": false, "overview": "An ex-tennis pro carries out a plot to have his wife murdered after discovering she is having an affair, and assumes she will soon leave him for the other man anyway. When things go wrong, he improvises a new plan\u2014to frame her for murder instead.", "poster_path": "/xrpK1PyckNWmRxU4kZURfaCyboS.jpg", "popularity": 34.566}, {"adult": false, "backdrop_path": "/98ahnrena4PwLth7HFYGLf9yssH.jpg", "genre_ids": [35, 18, 10749], "id": 22705, "original_language": "it", "original_title": "Tra(sgre)dire", "overview": "While scouting out apartments in London for her Venetian boyfriend, Carla rents an apartment that overlooks the Thames. There she meet the lesbian hyper-horny real estate agent Moira.", "poster_path": "/kZITrLEiTfzzJhtwtXhQUl3ImCQ.jpg", "release_date": "2000-01-28", "title": "Cheeky", "video": false, "vote_average": 5.7, "vote_count": 92, "popularity": 32.727}], "total_pages": 167, "total_results": 3326}, "recommendations": {"page": 1, "results": [{"id": 64267, "video": false, "vote_count": 6, "vote_average": 5.7, "title": "Return of the 18 Bronzemen", "release_date": "1976-08-14", "original_language": "zh", "original_title": "\u96cd\u6b63\u5927\u7834\u5341\u516b\u9285\u4eba", "genre_ids": [28, 12, 10752], "backdrop_path": "/qrylaFImafsOGpL5HHSODpXqJvN.jpg", "adult": false, "overview": "Despite the national resistance, the Manchurians have taken over China, but the Ching Emperor fears that the Shaolin Temple disciples would overthrow the dynasty. So he disguises himself as a disciple, in order to become a kung fu master and control the Shaolin monks. But according to custom, he must pass the test of the legendary 18 Bronzemen before he can leave the Temple.", "poster_path": "/zzqaEJ5J65YI3ghO8wDqisErrMX.jpg", "popularity": 3.563}, {"adult": false, "backdrop_path": null, "genre_ids": [53], "id": 147037, "original_language": "en", "original_title": "Terror Among Us", "overview": "A police sergeant and a parole officer endeavor to stop a rapist-on-parole before he can follow through his threats on five women whom testifed against him years earlier.", "poster_path": "/sxaiCstcpzdAfeVONel3T52oTFL.jpg", "release_date": "1981-01-12", "title": "Terror Among Us", "video": false, "vote_average": 6.3, "vote_count": 3, "popularity": 2.691}, {"adult": false, "backdrop_path": null, "genre_ids": [12, 28, 80], "id": 93569, "original_language": "zh", "original_title": "Qian mian mo nu", "overview": "Hong Kong remake of the French film Fantomas", "poster_path": "/9gzpFuEbbqJfK3Y41lZmOeC8ceV.jpg", "release_date": "1969-04-10", "title": "Temptress of a Thousand Faces", "video": false, "vote_average": 5.4, "vote_count": 6, "popularity": 2.092}, {"id": 119532, "video": false, "vote_count": 4, "vote_average": 6.3, "title": "Law and Disorder", "release_date": "1974-10-09", "original_language": "en", "original_title": "Law and Disorder", "genre_ids": [35, 80], "backdrop_path": null, "adult": false, "overview": "In crime ridden New York of the seventies two cops has had enough. They decide to take justice into their own hands. Things turn exciting and humorous. No hoodlum goes safe.", "poster_path": "/xR1w8709Uv7KMNCDENH1luS7B0e.jpg", "popularity": 3.0}, {"id": 90517, "video": false, "vote_count": 4, "vote_average": 6.4, "title": "The Traveling Executioner", "release_date": "1970-01-01", "original_language": "en", "original_title": "The Traveling Executioner", "genre_ids": [35, 18, 37], "backdrop_path": "/cXDlRjmtBbECutikcH4rq6REt2W.jpg", "adult": false, "overview": "Jonas Candide performs his job as state executioner in early 20th century Mississippi like a combination preacher and carnival barker, persuading condemned men to accept their deaths before electrocuting them on his electric chair. After he's assigned his first woman to execute, however, Jonas' sense of purpose is shaken.", "poster_path": "/8b6dYeE8YJihu6iusVkEVIBpnm1.jpg", "popularity": 3.802}, {"adult": false, "backdrop_path": "/pNUjE4IKabY0AnuJMgfwQrpkNHV.jpg", "genre_ids": [27, 14], "id": 30559, "original_language": "fr", "original_title": "La Nuit de la mort", "overview": "When she takes up her new post at an eerie convalescent home deep in the French countryside, nurse Martine (Isabelle Goguey) soon discovers that several missing co-workers may have fallen prey to an unspeakable evil rumored to roam the hallways at night. But as Martine looks deeper into the mystery, she suspects the home's aged residents know more about the menace than they let on.", "poster_path": "/t8sbhgWBIUq62vKPNOAhFMzOxLs.jpg", "release_date": "1980-10-22", "title": "Night of Death!", "video": false, "vote_average": 6.0, "vote_count": 11, "popularity": 1.905}, {"adult": false, "backdrop_path": "/iuTYovusdWfsqVEygejAhbYCxqe.jpg", "genre_ids": [35, 80, 18, 27, 53], "id": 105398, "original_language": "it", "original_title": "Passi di morte perduti nel buio", "overview": "An Italian reporter is travelling on the Instabul-Athens train. A woman is murdered with the reporter's letter-opener so that makes him the main suspect. With the help of his Swedish girlfriend he starts investigating in order to prove his innocence.", "poster_path": "/p2oRlZkutb5iuKKPwn5JrAG8AVb.jpg", "release_date": "1977-02-17", "title": "Death Steps in the Dark", "video": false, "vote_average": 5.4, "vote_count": 9, "popularity": 2.54}, {"adult": false, "backdrop_path": "/MDJYrKn0rSdUAcUwsZZnc6PVYI.jpg", "genre_ids": [80, 53], "id": 64630, "original_language": "it", "original_title": "Un posto ideale per uccidere", "overview": "Two young sexually free hippies, Dick and Ingrid,  finance their travels by selling naked snaps of Ingrid until their plan is brought to an abrupt end by the Police. Forced on the run the two seek refuge at a seemingly empty isolated large villa. As it turns out the house is inhabited by the middle-aged Barbara who invites them in for some potential three-way hanky-panky that soon locks them into something far more twisted and chilling!", "poster_path": "/zwDteWrNlRvcgxfyHil0cTj4RkQ.jpg", "release_date": "1971-08-18", "title": "Oasis of Fear", "video": false, "vote_average": 5.5, "vote_count": 10, "popularity": 2.017}, {"adult": false, "backdrop_path": "/vvFQnKqLBpRfJdfLZIzfACeZPzz.jpg", "genre_ids": [9648], "id": 28064, "original_language": "it", "original_title": "Nude... si muore", "overview": "The corpses are piling up at St. Hilda\u2019s School for Girls, leaving top cop Michael Rennie (The Day the Earth Stood Still) with more than the usual suspects. Is the killer playboy riding instructor Mark Damon (House of Usher)? Peeping tom Luciano Pigozzi (Baron Blood)? Or how about hulking swim teacher Giovanni Di Benedetto (The Bird With The Crystal Plumage), whose wetsuit and dive mask make the perfect ensemble for slaughter?", "poster_path": "/s08qM4E2xhmsOOokZidLrpWlrOA.jpg", "release_date": "1968-02-20", "title": "Naked You Die", "video": false, "vote_average": 6.0, "vote_count": 10, "popularity": 2.408}, {"adult": false, "backdrop_path": "/jLXUnFOnJ9ewmOZ7GV2esQn9hNy.jpg", "genre_ids": [9648, 53], "id": 64076, "original_language": "en", "original_title": "Weird Woman", "overview": "While on a South Seas trip, a professor falls in love with marries an exotic native woman. What he doesn't know is that she was raised by superstitious natives who believe her to be some kind of supernatural being.", "poster_path": "/wZTlYYAGyD3fclsrnEwJQRQz9HC.jpg", "release_date": "1944-03-02", "title": "Weird Woman", "video": false, "vote_average": 6.5, "vote_count": 13, "popularity": 3.081}], "total_pages": 1, "total_results": 10}, "credits": {"cast": [{"cast_id": 2, "character": "Barney Cashman", "credit_id": "52fe4605c3a36847f80e7be9", "gender": 2, "id": 1903, "name": "Alan Arkin", "order": 0, "profile_path": "/gcrKO2z0YVUXBXVeB9V8PndG0IJ.jpg"}, {"cast_id": 3, "character": "Elaine", "credit_id": "52fe4605c3a36847f80e7bed", "gender": 1, "id": 9805, "name": "Sally Kellerman", "order": 1, "profile_path": "/5MeWRlE2F8S6tGiPx3hZHdDGVml.jpg"}, {"cast_id": 4, "character": "Bobbi Michele", "credit_id": "52fe4605c3a36847f80e7bf1", "gender": 1, "id": 33644, "name": "Paula Prentiss", "order": 2, "profile_path": "/mIraH5dR5teHIQVIYK22HIX3pwP.jpg"}, {"cast_id": 5, "character": "Jeanette", "credit_id": "52fe4605c3a36847f80e7bf5", "gender": 1, "id": 56105, "name": "Ren\u00e9e Taylor", "order": 3, "profile_path": "/3WYu7Je7lT47KtayiavBL5kAQLA.jpg"}, {"cast_id": 9, "character": "Cashier", "credit_id": "547b80219251412d70000888", "gender": 1, "id": 1391912, "name": "Bella Bruck", "order": 4, "profile_path": null}, {"cast_id": 13, "character": "Charlotte", "credit_id": "58618b8e92514115be03406c", "gender": 0, "id": 1408862, "name": "Sandy Balson", "order": 5, "profile_path": null}, {"cast_id": 14, "character": "Mel", "credit_id": "58618bd3c3a3681a7d031802", "gender": 0, "id": 1728276, "name": "Frank Loverde", "order": 6, "profile_path": null}, {"cast_id": 15, "character": "Bert", "credit_id": "58618bfc92514115c4036787", "gender": 0, "id": 1728277, "name": "Bert Conroy", "order": 7, "profile_path": null}, {"cast_id": 16, "character": "Jesse", "credit_id": "58618c2692514115c40367d9", "gender": 0, "id": 1604476, "name": "Charles Woolf", "order": 8, "profile_path": null}, {"cast_id": 17, "character": "Mickey", "credit_id": "58618ce492514115c003489b", "gender": 0, "id": 1728278, "name": "Ben Freedman", "order": 9, "profile_path": null}, {"cast_id": 18, "character": "Waiter #1", "credit_id": "58618dfac3a3681a7d031a2d", "gender": 0, "id": 1090128, "name": "Buddy Lewis", "order": 10, "profile_path": "/2jvqkIT14W0K1ZjxCEqZRuDgRaQ.jpg"}, {"cast_id": 19, "character": "Waiter #2", "credit_id": "58618e2592514115ca0356a8", "gender": 0, "id": 1188453, "name": "Paul 'Mousie' Garner", "order": 11, "profile_path": null}, {"cast_id": 20, "character": "Man with Boxes", "credit_id": "58618e50c3a3681a7d031a83", "gender": 0, "id": 1726179, "name": "Bernie Styles", "order": 12, "profile_path": null}, {"cast_id": 21, "character": "Truckman's Helper", "credit_id": "58618e78c3a3681a7d031aa4", "gender": 0, "id": 1728280, "name": "John Battiste", "order": 13, "profile_path": null}, {"cast_id": 22, "character": "Man #1 Coffee Shop", "credit_id": "58618e9dc3a3681a6b03494b", "gender": 2, "id": 14545, "name": "Sully Boyar", "order": 14, "profile_path": "/joJktsmK4VLCw5ZnUMR64V9hZyG.jpg"}, {"cast_id": 23, "character": "Man #2 Coffee Shop", "credit_id": "58618eb892514115c703597c", "gender": 2, "id": 157507, "name": "J.J. Barry", "order": 15, "profile_path": null}, {"cast_id": 24, "character": "Girl in Car", "credit_id": "58618f17c3a3681a72038c4b", "gender": 1, "id": 162263, "name": "Lois Hamilton", "order": 16, "profile_path": "/45t6O5WMTztDidkHs0TxMZkTcaB.jpg"}, {"cast_id": 25, "character": "Man #3 Coffee Shop", "credit_id": "58618f80c3a3681a7d031bad", "gender": 2, "id": 1638190, "name": "Paul Larson", "order": 17, "profile_path": null}, {"cast_id": 26, "character": "Lady in Coffee Shop", "credit_id": "58618f9392514115be034476", "gender": 0, "id": 1728284, "name": "Ruth Jaroslow", "order": 18, "profile_path": null}, {"cast_id": 27, "character": "Cabbie", "credit_id": "58618fa792514115cf034317", "gender": 0, "id": 1728285, "name": "Oliver Steindecker", "order": 19, "profile_path": null}, {"cast_id": 28, "character": "Parking Lot Attendant", "credit_id": "58618fc3c3a3681a6803a264", "gender": 0, "id": 159885, "name": "Leonard Parker", "order": 20, "profile_path": null}, {"cast_id": 29, "character": "Girl on Corner", "credit_id": "58618fe592514115cf034349", "gender": 0, "id": 1728286, "name": "Liesha Gullisson", "order": 21, "profile_path": null}, {"cast_id": 30, "character": "Elevator Girl", "credit_id": "5861900492514115be0344e6", "gender": 1, "id": 97855, "name": "Gina Smika Hunter", "order": 22, "profile_path": "/e4qzFXUNZDVVpZ6Ym5UlDBDpgfC.jpg"}], "crew": [{"credit_id": "52fe4605c3a36847f80e7be5", "department": "Directing", "gender": 2, "id": 69300, "job": "Director", "name": "Gene Saks", "profile_path": "/svPlh0Jj0yvKJA2Tvqsogci0M85.jpg"}, {"credit_id": "52fe4605c3a36847f80e7bfb", "department": "Writing", "gender": 2, "id": 584535, "job": "Screenplay", "name": "Neil Simon", "profile_path": "/qZ5iSAEcV7hCVYIOrOD4CI2J5Wi.jpg"}, {"credit_id": "547b7f38c3a3685af0000863", "department": "Sound", "gender": 2, "id": 16891, "job": "Music", "name": "Neal Hefti", "profile_path": null}, {"credit_id": "547b7f78c3a3685af000086e", "department": "Editing", "gender": 0, "id": 31066, "job": "Editor", "name": "Maury Winetrobe", "profile_path": null}, {"credit_id": "58618a2a92514115cf033dd9", "department": "Production", "gender": 2, "id": 3428, "job": "Producer", "name": "Howard W. Koch", "profile_path": "/ocnNi4vGIENHuQFzv2ecoLjP9pB.jpg"}, {"credit_id": "58618ac092514115c0034645", "department": "Production", "gender": 0, "id": 1726179, "job": "Casting", "name": "Bernie Styles", "profile_path": null}, {"credit_id": "58618a58c3a3681a620363f6", "department": "Camera", "gender": 2, "id": 14536, "job": "Director of Photography", "name": "Victor J. Kemper", "profile_path": null}]}}