{"adult": false, "backdrop_path": "/rVgW81YtIyMZFoRBwv4vOxaOMnA.jpg", "belongs_to_collection": {"id": 361007, "name": "Calcutta Trilogy", "poster_path": null, "backdrop_path": null}, "budget": 0, "genres": [{"id": 18, "name": "Drama"}, {"id": 10749, "name": "Romance"}], "homepage": null, "id": 42498, "imdb_id": "tt0066237", "original_language": "bn", "original_title": "\u09aa\u09cd\u09b0\u09a4\u09bf \u09a6\u09cd\u09ac\u09a8\u09cd\u09a6\u09cd\u09ac\u09c0", "overview": "Siddhartha Chowdhury, a brilliant medical student, is forced to leave his studies after his father's sudden demise. He is forced to navigate the high unemployment rate and the communist socio-political climate of 1960s Calcutta in search of a job.", "popularity": 1.22, "poster_path": "/8HTGI7Os1ONsgPJw7CGvnceF8YO.jpg", "production_companies": [{"id": 5582, "logo_path": null, "name": "Priya Films", "origin_country": ""}], "production_countries": [{"iso_3166_1": "IN", "name": "India"}], "release_date": "1970-10-27", "revenue": 0, "runtime": 110, "spoken_languages": [{"iso_639_1": "bn", "name": "\u09ac\u09be\u0982\u09b2\u09be"}], "status": "Released", "tagline": "", "title": "The Adversary", "video": false, "vote_average": 8.0, "vote_count": 10, "keywords": {"keywords": [{"id": 3489, "name": "job interview"}, {"id": 5440, "name": "adversary"}, {"id": 33485, "name": "calcutta"}, {"id": 156052, "name": "unemployment"}, {"id": 187675, "name": "medical student"}]}, "similar": {"page": 1, "results": [{"adult": false, "backdrop_path": "/mAaSPfGA4ixiKSXYydNpbwZswi6.jpg", "genre_ids": [35], "id": 9427, "original_language": "en", "original_title": "The Full Monty", "overview": "Sheffield, England. Gaz, a jobless steelworker in need of quick cash persuades his mates to bare it all in a one-night-only strip show.", "poster_path": "/xkMiZv2FPrhIAtxvEcN1jAbkHRY.jpg", "release_date": "1997-08-13", "title": "The Full Monty", "video": false, "vote_average": 7.0, "vote_count": 891, "popularity": 10.763}, {"adult": false, "backdrop_path": "/adGGzfXNmu0iLgiPAW9Ghd138f7.jpg", "genre_ids": [35, 18, 10749], "id": 350, "original_language": "en", "original_title": "The Devil Wears Prada", "overview": "Andy moves to New York to work in the fashion industry. Her boss is extremely demanding, cruel and won't let her succeed if she doesn't fit into the high class elegant look of their magazine.", "poster_path": "/8unCRm0LeiO0fM6skWAZy3ZfXR1.jpg", "release_date": "2006-06-30", "title": "The Devil Wears Prada", "video": false, "vote_average": 7.3, "vote_count": 7278, "popularity": 38.017}, {"id": 242582, "video": false, "vote_count": 6508, "vote_average": 7.7, "title": "Nightcrawler", "release_date": "2014-10-23", "original_language": "en", "original_title": "Nightcrawler", "genre_ids": [80, 18, 53], "backdrop_path": "/gktL2rfE7d1xrwPSSTohxLOjLSs.jpg", "adult": false, "overview": "When Lou Bloom, desperate for work, muscles into the world of L.A. crime journalism, he blurs the line between observer and participant to become the star of his own story. Aiding him in his effort is Nina, a TV-news veteran.", "poster_path": "/8oPY6ULFOTbAEskySNhgsUIN4fW.jpg", "popularity": 30.383}, {"adult": false, "backdrop_path": "/6wBfey6EVR5qxYLB8pxoTVQYWkS.jpg", "genre_ids": [28, 80, 18, 53], "id": 1620, "original_language": "en", "original_title": "Hitman", "overview": "The best-selling videogame, Hitman, roars to life with both barrels blazing in this hardcore action-thriller starring Timothy Olyphant. A genetically engineered assassin with deadly aim, known only as \"Agent 47\" eliminates strategic targets for a top-secret organization. But when he's double-crossed, the hunter becomes the prey as 47 finds himself in a life-or-death game of international intrigue.", "poster_path": "/1U2FpMotSyaciATw5qfEsKdgpX4.jpg", "release_date": "2007-11-21", "title": "Hitman", "video": false, "vote_average": 5.9, "vote_count": 1868, "popularity": 16.204}, {"id": 703, "video": false, "vote_count": 2272, "vote_average": 7.8, "title": "Annie Hall", "release_date": "1977-04-19", "original_language": "en", "original_title": "Annie Hall", "genre_ids": [35, 18, 10749], "backdrop_path": "/8iNt5LGxpX9XeNWJgjx17xfTT7u.jpg", "adult": false, "overview": "New York comedian Alvy Singer falls in love with the ditsy Annie Hall.", "poster_path": "/bK9bLXwxWuXX5mbq75PZqjvAtfG.jpg", "popularity": 14.556}, {"id": 1018, "video": false, "vote_count": 3312, "vote_average": 7.8, "title": "Mulholland Drive", "release_date": "2001-09-08", "original_language": "en", "original_title": "Mulholland Drive", "genre_ids": [18, 9648, 53], "backdrop_path": "/91KNvuQXrWq5vehtQpciCOiOyJe.jpg", "adult": false, "overview": "Blonde Betty Elms has only just arrived in Hollywood to become a movie star when she meets an enigmatic brunette with amnesia. Meanwhile, as the two set off to solve the second woman's identity, filmmaker Adam Kesher runs into ominous trouble while casting his latest project.", "poster_path": "/tVxGt7uffLVhIIcwuldXOMpFBPX.jpg", "popularity": 22.494}, {"adult": false, "backdrop_path": "/t52ImvH020yOvoEhH6sRzC6XoCj.jpg", "genre_ids": [18], "id": 406, "original_language": "fr", "original_title": "La Haine", "overview": "Aimlessly whiling away their days in the concrete environs of their dead-end suburbia, Vinz, Hubert, and Said - a Jew, African, and an Arab - give human faces to France's immigrant populations, their bristling resentment at their social marginalization slowly simmering until it reaches a climactic boiling point.", "poster_path": "/jTzBED0leGPwWDqNewye11qzJgd.jpg", "release_date": "1995-05-31", "title": "La Haine", "video": false, "vote_average": 8.0, "vote_count": 1734, "popularity": 16.874}, {"id": 400710, "video": false, "vote_count": 1437, "vote_average": 5.7, "title": "Flatliners", "release_date": "2017-09-28", "original_language": "en", "original_title": "Flatliners", "genre_ids": [18, 878], "backdrop_path": "/uyIYcarxZuUD1m77SRcrUcp47vN.jpg", "adult": false, "overview": "Five medical students, hoping to gain insight into the mystery of what lies beyond the confines of life, embark on a daring and dangerous experiment. By stopping their hearts for short periods of time, each triggers a near-death experience. As the investigation becomes more and more perilous, they are forced to confront the sins of their pasts, as well as contend with the paranormal consequences of trespassing to the other side.", "poster_path": "/e9NHATN0TJW6ZZPLLWFsKdilVl1.jpg", "popularity": 18.664}, {"id": 20009, "video": false, "vote_count": 105, "vote_average": 5.3, "title": "Slackers", "release_date": "2002-02-01", "original_language": "en", "original_title": "Slackers", "genre_ids": [35, 10749], "backdrop_path": "/gyVqxiFzKlPlbtVsJSZROz0fdj0.jpg", "adult": false, "overview": "Dave, Sam and Jeff are about to graduate from Holden University with honors in lying, cheating and scheming. The three roommates have proudly scammed their way through the last four years of college and now, during final exams, these big-men-on-campus are about to be busted by the most unlikely dude in school. Self-dubbed Cool Ethan, an ambitious nerd with a bad crush, enters their lives one day and everything begins to unravel.", "poster_path": "/9W6tiYZZTB45ZyWpoceBSc4Ln9y.jpg", "popularity": 11.45}, {"id": 9902, "video": false, "vote_count": 1298, "vote_average": 6.2, "title": "Wrong Turn", "release_date": "2003-05-30", "original_language": "en", "original_title": "Wrong Turn", "genre_ids": [27, 53], "backdrop_path": "/creyffSSB77AsPHclQlVc2Iu2BR.jpg", "adult": false, "overview": "Chris crashes into a carload of other young people, and the group of stranded motorists is soon lost in the woods of West Virginia, where they're hunted by three cannibalistic mountain men who are grossly disfigured by generations of inbreeding.", "poster_path": "/kyn0ZC8tvLWuKN85mhlG1lwB1WQ.jpg", "popularity": 25.918}, {"adult": false, "backdrop_path": "/7m6D3kQBrbMcqxwrSNEsvs1XuMS.jpg", "genre_ids": [35, 80], "id": 11895, "original_language": "en", "original_title": "Police Academy 6: City Under Siege", "overview": "Our favourite police men are called together to deal with a gang who rob banks and jewelers. Using their various talents as well as their extraordinary luck, the crooks stand no chance against our men and women wearing blue..", "poster_path": "/9mW8fM0PkXvSSmLODTb2OAYEQTY.jpg", "release_date": "1989-03-09", "title": "Police Academy 6: City Under Siege", "video": false, "vote_average": 4.9, "vote_count": 421, "popularity": 13.794}, {"adult": false, "backdrop_path": "/oeGQCv7bRZKaDOxLFC8oqVRCnOd.jpg", "genre_ids": [878, 35, 27], "id": 1694, "original_language": "en", "original_title": "Re-Animator", "overview": "A dedicated student at a medical college and his girlfriend become involved in bizarre experiments centering around the re-animation of dead tissue when an odd new student arrives on campus.", "poster_path": "/hJnP2O0uTuh8HsR094WLTi3sQwc.jpg", "release_date": "1985-10-18", "title": "Re-Animator", "video": false, "vote_average": 7.1, "vote_count": 558, "popularity": 14.126}, {"id": 1551, "video": false, "vote_count": 839, "vote_average": 6.4, "title": "Flatliners", "release_date": "1990-08-10", "original_language": "en", "original_title": "Flatliners", "genre_ids": [18, 27, 878, 53], "backdrop_path": "/pXzuGjVkfTNfLBEpYJWrS4AluRY.jpg", "adult": false, "overview": "Five medical students want to find out if there is life after death. They plan to stop one of their hearts for a few seconds, thus simulating death, and then bring the person back to life. A science fiction thriller from the early 1990's with a star studded cast.", "poster_path": "/3CoUzgCU8kR2UCXovrvfNAjvWkI.jpg", "popularity": 18.492}, {"id": 169881, "video": false, "vote_count": 645, "vote_average": 7.3, "title": "The Physician", "release_date": "2013-12-25", "original_language": "en", "original_title": "The Physician", "genre_ids": [12, 18, 36], "backdrop_path": "/jbTbTZhmZsKVWxk0436ymadWQBd.jpg", "adult": false, "overview": "England, 1021. Rob Cole, a boy born in a miserable mining town, swears to become a physician and vanquish disease and death. His harsh path of many years, a quest for knowledge besieged by countless challenges and sacrifices, leads him to the remote Isfahan, in Persia, where he meets Ibn Sina, the greatest healer of his time.", "poster_path": "/zOnuvmY4vuabnkEZwQAXvErIaTE.jpg", "popularity": 19.251}, {"id": 11164, "video": false, "vote_count": 280, "vote_average": 5.9, "title": "D2: The Mighty Ducks", "release_date": "1994-03-25", "original_language": "en", "original_title": "D2: The Mighty Ducks", "genre_ids": [28, 35, 18, 10751], "backdrop_path": "/s7RrWXNfQDU6nO9XriBnL3kZD4g.jpg", "adult": false, "overview": "After Gordon Bombay's hockey comeback is cut short he is named coach of Team USA Hockey for the Junior Goodwill Games. Bombay reunites the Mighty Ducks and introduces a few new players, however, he finds himself distracted by his newfound fame and must regather if the Ducks are to defeat tournament favourites Iceland.", "poster_path": "/ZITicpWKxy2d3JnpWMypbUn91e.jpg", "popularity": 12.343}, {"id": 5156, "video": false, "vote_count": 1096, "vote_average": 8.2, "title": "Bicycle Thieves", "release_date": "1948-11-24", "original_language": "it", "original_title": "Ladri di biciclette", "genre_ids": [18], "backdrop_path": "/vyz8ZJpATpxWCvYe5caZyzdn9Zq.jpg", "adult": false, "overview": "Antonio, an unemployed man in the depressed post-WWII economy of Italy, at last finds a good job hanging up posters, the only requirement for which is that he must have his own bicycle. When Antonio\u2019s bicycle is stolen, he and his son are forced to walk the streets of Rome in search of it, or else face ruin.", "poster_path": "/7ZiSTZN5FWsphVmlwFVFfn5EOl.jpg", "popularity": 14.119}, {"id": 155084, "video": false, "vote_count": 628, "vote_average": 6.3, "title": "13 Sins", "release_date": "2014-04-18", "original_language": "en", "original_title": "13 Sins", "genre_ids": [27, 53], "backdrop_path": "/6yLVPFisDzMuF1cgmQ61e07pWaM.jpg", "adult": false, "overview": "Drowning in debt as he's about to get married, a bright but meek salesman receives a mysterious phone call informing him that he's on a hidden-camera game show where he must execute 13 tasks to receive a multi-million dollar cash prize.", "poster_path": "/uYPy89cVgvE1ic0bN39YJrumxwo.jpg", "popularity": 12.444}, {"id": 456086, "video": false, "vote_count": 73, "vote_average": 6.3, "title": "Support the Girls", "release_date": "2018-08-24", "original_language": "en", "original_title": "Support the Girls", "genre_ids": [35, 18], "backdrop_path": "/wMiJPxdZ4avOtqijP62T6yR1wqo.jpg", "adult": false, "overview": "Lisa Conroy is general manager at a highway-side 'sports bar with curves', Double Whammies. She nurtures and protects her employees fiercely - but over the course of one trying day, her optimism is battered from every direction... Double Whammies sells a big, weird American fantasy, but what happens when reality pokes a bunch of holes in it?", "poster_path": "/hXfwrs8g3pY4mmaO5WDAowWLqBg.jpg", "popularity": 8.481}, {"id": 7873, "video": false, "vote_count": 347, "vote_average": 6.4, "title": "Harsh Times", "release_date": "2005-09-11", "original_language": "en", "original_title": "Harsh Times", "genre_ids": [28, 80, 18, 53], "backdrop_path": "/ooWqV1Tm9LbAbEAzTqhonI7StGO.jpg", "adult": false, "overview": "Jim Davis is an ex-Army Ranger who finds himself slipping back into his old life of petty crime after a job offer from the LAPD evaporates. His best friend is pressured by his girlfriend Sylvia to find a job, but Jim is more interested in hanging out and making cash from small heists, while trying to get a law enforcement job so he can marry his Mexican girlfriend.", "poster_path": "/bULoDSFMxJ0OnyrORPwT9844B9v.jpg", "popularity": 11.636}, {"id": 218778, "video": false, "vote_count": 891, "vote_average": 6.2, "title": "Alexander and the Terrible, Horrible, No Good, Very Bad Day", "release_date": "2014-10-08", "original_language": "en", "original_title": "Alexander and the Terrible, Horrible, No Good, Very Bad Day", "genre_ids": [35, 10751], "backdrop_path": "/z5e275a7iDNCQNx0NelsX5LYmDU.jpg", "adult": false, "overview": "Alexander's day begins with gum stuck in his hair, followed by more calamities. Though he finds little sympathy from his family and begins to wonder if bad things only happen to him, his mom, dad, brother, and sister all find themselves living through their own terrible, horrible, no good, very bad day.", "poster_path": "/f29NQJaWyzXldOGT7F5CDKbwAH9.jpg", "popularity": 8.593}], "total_pages": 11, "total_results": 219}, "recommendations": {"page": 1, "results": [{"adult": false, "backdrop_path": "/44eGZwd4aFaXb37Cc7qQWyn4LXr.jpg", "genre_ids": [18], "id": 45940, "original_language": "bn", "original_title": "\u09b8\u09c0\u09ae\u09be\u09ac\u09a6\u09cd\u09a7", "overview": "The chronicles of Chatterjee, an ambitious and self-made young man, as he rises his way up the corporate ladder.", "poster_path": "/kqVizHeL1cLHQJ1hldrmgTb7BNL.jpg", "release_date": "1971-09-24", "title": "Company Limited", "video": false, "vote_average": 7.2, "vote_count": 6, "popularity": 1.057}, {"adult": false, "backdrop_path": "/excsfesquXDX0V7P5FeGG9edbbo.jpg", "genre_ids": [9648], "id": 164990, "original_language": "bn", "original_title": "\u09b8\u09cb\u09a8\u09be\u09b0 \u0995\u09c7\u09b2\u09cd\u09b2\u09be", "overview": "A young boy becomes a target for crooks, after he claims to remember his past life and mentions precious jewels in a golden fortress.", "poster_path": "/8OP0YahUZTyJV6OuSm17QgCWcKp.jpg", "release_date": "1974-12-27", "title": "The Golden Fortress", "video": false, "vote_average": 8.2, "vote_count": 12, "popularity": 2.176}, {"adult": false, "backdrop_path": null, "genre_ids": [18, 10749], "id": 115888, "original_language": "bn", "original_title": "Antaheen", "overview": "Abhik Chowdhury is an IPS officer with a heart -- honest, upright, yet laid-back. Having lost faith in the real relationships that he sees around him, Abhik seeks solace in the virtual world. While navigating through this virtual world, Abhik develops an online relationship with a young woman, Brinda, without knowing anything about her. Brinda is a young, dynamic television journalist. For both Abhik and Brinda, who do not know each other's real names or whereabouts, this online communication soon becomes an increasingly intense relationship, more real than virtual. Ironically the virtual lovers, Abhik and Brinda have an acrimonious first meeting in the real world - at the launch of a controversial mega project of a big-time real estate entrepreneur, V.K. Mehra. Unaware that she knows Abhik so well on the Internet, Brinda, gets into a bitter exchange of words with him. Before leaving in a huff...", "poster_path": "/pWhXXEvDzwXdL4PyYH4jR03LIcV.jpg", "release_date": "2009-01-01", "title": "Antaheen", "video": false, "vote_average": 4.8, "vote_count": 5, "popularity": 1.96}, {"adult": false, "backdrop_path": "/k2985gSbHlV4DqWokzjOB8wsUt8.jpg", "genre_ids": [18], "id": 41781, "original_language": "bn", "original_title": "\u0986\u0997\u09a8\u09cd\u09a4\u09c1\u0995", "overview": "A well-off Indian family is paid an unexpected, and rather unwanted, visit by a man claiming to be the woman's long lost uncle. The initial suspicion with which they greet the man slowly dissolves as he regales them with stories of his travels, tales that are at odds with their conventional middle class perspective on the world.", "poster_path": "/uNYlRzs8PBGCvJO5O9NO3Hx7L3x.jpg", "release_date": "1991-05-07", "title": "The Stranger", "video": false, "vote_average": 7.3, "vote_count": 11, "popularity": 1.412}, {"id": 60567, "video": false, "vote_count": 29, "vote_average": 7.7, "title": "The Big City", "release_date": "1963-09-27", "original_language": "bn", "original_title": "\u09ae\u09b9\u09be\u09a8\u0997\u09b0", "genre_ids": [18], "backdrop_path": "/fCS8HRLzIroNRPaJwGgGbpxcSUH.jpg", "adult": false, "overview": "Life at home changes when a housewife from a middle-class, conservative family in Calcutta gets a job as a salesperson.", "poster_path": "/252BSDHvm1c8b6kzc85RwrSTIuA.jpg", "popularity": 3.065}, {"id": 178535, "video": false, "vote_count": 8, "vote_average": 6.9, "title": "The Dupes", "release_date": "1973-07-01", "original_language": "ar", "original_title": "\u0627\u0644\u0645\u062e\u062f\u0648\u0639\u0648\u0646", "genre_ids": [18], "backdrop_path": null, "adult": false, "overview": "Set in Iraq (but shot in Syria), this is the story of three men who try to leave their impoverished and hopeless lives to get work in Kuwait. They hire a water-truck driver to transport them illegally across the border in the tank of his truck.", "poster_path": "/A7D1QTGYTfv3nP3otIMZB5RkdUd.jpg", "popularity": 2.003}, {"adult": false, "backdrop_path": "/wxAPuoe26oKJCveqKlRw9t8LRTP.jpg", "genre_ids": [18], "id": 94798, "original_language": "bn", "original_title": "\u0985\u09ad\u09bf\u09af\u09be\u09a8", "overview": "The story revolves around a taxi driver, Narsingh, who attempts to reinvent his life by visiting his native place, but instead gets embroiled in a local Marwari businessman's smuggling and human trafficking business.", "poster_path": "/dqsx54wzgjzWPzh4kRxUMzSj0fV.jpg", "release_date": "1962-09-27", "title": "Abhijan", "video": false, "vote_average": 8.1, "vote_count": 7, "popularity": 1.931}, {"adult": false, "backdrop_path": "/55hrsQbqKh6yYTKthEQRBSBbW15.jpg", "genre_ids": [18], "id": 112999, "original_language": "bn", "original_title": "\u09a8\u09be\u09af\u09bc\u0995", "overview": "A matinee idol is going by train to collect an acting award. On the train, he is confronted by a journalist who somewhat unwillingly starts to take his interview. Arindam, won over by Aditi's naivete, starts to disclose his past, his fears and his secrets.", "poster_path": "/fXWxCRJwmw3NQYRpQHvwsrzaqfU.jpg", "release_date": "1966-05-06", "title": "The Hero", "video": false, "vote_average": 8.1, "vote_count": 16, "popularity": 1.861}], "total_pages": 1, "total_results": 8}, "credits": {"cast": [{"cast_id": 1, "character": "Siddhartha Chaudhuri", "credit_id": "573447439251417515001048", "gender": 2, "id": 85593, "name": "Dhritiman Chatterjee", "order": 0, "profile_path": "/ylm90zTEY2BQmmncEAa0rSQYzqP.jpg"}, {"cast_id": 2, "character": "Sutapa", "credit_id": "593c79cf925141058f01439a", "gender": 0, "id": 1661238, "name": "Krishna Bose", "order": 1, "profile_path": null}, {"cast_id": 3, "character": "Sarojini", "credit_id": "593c79e2c3a3680f670142a5", "gender": 0, "id": 1339776, "name": "Indira Devi", "order": 2, "profile_path": null}, {"cast_id": 12, "character": "Shiben", "credit_id": "593ce98392514105e2019db7", "gender": 2, "id": 1348893, "name": "Kalyan Chatterjee", "order": 3, "profile_path": null}, {"cast_id": 13, "character": "Keya (as Jayshree Roy)", "credit_id": "593d4eb0c3a3680f6701f8df", "gender": 1, "id": 997713, "name": "Jayasree Kabir", "order": 4, "profile_path": "/qGn53Cj9NpyGfqncFkFJNcsjTMT.jpg"}, {"cast_id": 14, "character": "Tunu", "credit_id": "593d511192514105b701e9d9", "gender": 2, "id": 1831986, "name": "Debraj Ray", "order": 6, "profile_path": null}, {"cast_id": 7, "character": "Sanyal", "credit_id": "593c7a6ec3a3680f590133f2", "gender": 0, "id": 1614835, "name": "Soven Lahiri", "order": 7, "profile_path": null}, {"cast_id": 8, "character": "Keya's father", "credit_id": "593c7a7e92514105e20137ec", "gender": 0, "id": 1831748, "name": "Pisu Majumdar", "order": 8, "profile_path": null}], "crew": [{"credit_id": "593c956592514105b7014919", "department": "Writing", "gender": 2, "id": 12160, "job": "Screenplay", "name": "Satyajit Ray", "profile_path": "/RBPvSgsEGXTAvndqU8s8R8PJFN.jpg"}, {"credit_id": "5314406c9251411013006e6c", "department": "Directing", "gender": 2, "id": 12160, "job": "Director", "name": "Satyajit Ray", "profile_path": "/RBPvSgsEGXTAvndqU8s8R8PJFN.jpg"}, {"credit_id": "593c953b92514105e20148ef", "department": "Writing", "gender": 0, "id": 1081081, "job": "Novel", "name": "Sunil Gangopadhyay", "profile_path": null}]}}