{"adult": false, "backdrop_path": "/bFFk67VLYjPf8jET9pXyanXSxxg.jpg", "belongs_to_collection": null, "budget": 0, "genres": [{"id": 28, "name": "Action"}, {"id": 37, "name": "Western"}], "homepage": null, "id": 42544, "imdb_id": "tt0071784", "original_language": "es", "original_title": "El k\u00e1rate, el Colt y el impostor", "overview": "During a hold-up in the Wild West, Dakota kills a rich old Chinese man, Wang. Later, he is captured, sentenced, and is about to be hanged - and he never profitted from Wang's death, has he buried him with the photographs of his four widows, and a few worthless papers. Meanwhile, Ho comes to America in search of his uncle's fortune, and must get Dakota free, as he his the only man who can lead him to Wang's tomb. They open the tomb, retaking the pictures of Wang's widows. It happens he reads the papers and knows that Wang had one quarter of a map tattooed in each of his women's buttocks. Now, the difficult part will really start... Treasure hunt.", "popularity": 2.327, "poster_path": "/AiRpR0LYpmEHQb8nhHcLJ7HfYre.jpg", "production_companies": [{"id": 11648, "logo_path": null, "name": "Champion Films", "origin_country": ""}, {"id": 10000, "logo_path": null, "name": "Compagnia Cinematografica Champion", "origin_country": ""}, {"id": 3302, "logo_path": null, "name": "Harbor Productions", "origin_country": ""}, {"id": 1125, "logo_path": null, "name": "Midega Film", "origin_country": ""}, {"id": 5798, "logo_path": "/tmuI9BGXgpWLmokhlxpnG3IGNQB.png", "name": "Shaw Brothers", "origin_country": "HK"}], "production_countries": [{"iso_3166_1": "HK", "name": "Hong Kong"}, {"iso_3166_1": "IT", "name": "Italy"}, {"iso_3166_1": "ES", "name": "Spain"}], "release_date": "1974-01-01", "revenue": 0, "runtime": 107, "spoken_languages": [{"iso_639_1": "en", "name": "English"}, {"iso_639_1": "it", "name": "Italiano"}, {"iso_639_1": "es", "name": "Espa\u00f1ol"}], "status": "Released", "tagline": "The fastest gun in the West joins with the most brutal hands in the East!", "title": "The Stranger and the Gunfighter", "video": false, "vote_average": 5.2, "vote_count": 7, "keywords": {"keywords": [{"id": 779, "name": "martial arts"}, {"id": 171808, "name": "older man younger man relationship"}]}, "similar": {"page": 1, "results": [{"adult": false, "backdrop_path": "/tBWZkKMcrWdrpkOAA84FBlzE2XK.jpg", "genre_ids": [12, 28, 53], "id": 9053, "original_language": "en", "original_title": "DOA: Dead or Alive", "overview": "Four beautiful rivals at an invitation-only martial-arts tournament join forces against a sinister threat. Princess Kasumi is an aristocratic warrior trained by martial-arts masters. Tina Armstrong is a wrestling superstar. Helena Douglas is an athlete with a tragic past. Christie Allen earns her keep as a thief and an assassin-for-hire.", "poster_path": "/lZ6vZka2M0jtH1khYWa8j73E275.jpg", "release_date": "2006-09-07", "title": "DOA: Dead or Alive", "video": false, "vote_average": 4.9, "vote_count": 415, "popularity": 15.433}, {"id": 140300, "video": false, "vote_count": 3210, "vote_average": 6.7, "title": "Kung Fu Panda 3", "release_date": "2016-01-23", "original_language": "en", "original_title": "Kung Fu Panda 3", "genre_ids": [28, 12, 16, 35, 10751], "backdrop_path": "/eHWmEUP4fa7h1Fe7TXfTL7ncDl8.jpg", "adult": false, "overview": "Continuing his \"legendary adventures of awesomeness\", Po must face two hugely epic, but different threats: one supernatural and the other a little closer to his home.", "poster_path": "/MZFPacfKzgisnPoJIPEFZUXBBT.jpg", "popularity": 30.681}, {"id": 146, "video": false, "vote_count": 1771, "vote_average": 7.3, "title": "Crouching Tiger, Hidden Dragon", "release_date": "2000-07-06", "original_language": "zh", "original_title": "\u5367\u864e\u85cf\u9f99", "genre_ids": [28, 12, 18, 10749], "backdrop_path": "/dKenGLffFC9HwuxG4Sq7fJRkiFb.jpg", "adult": false, "overview": "Two warriors in pursuit of a stolen sword and a notorious fugitive are led to an impetuous, physically-skilled, teenage nobleman's daughter, who is at a crossroads in her life.", "poster_path": "/3yYPhffQRuy45HlNabFxNLyP9mg.jpg", "popularity": 20.102}, {"adult": false, "backdrop_path": "/wNm3hNJuOk117wEwuESKO8eCEAk.jpg", "genre_ids": [28], "id": 9461, "original_language": "en", "original_title": "Enter the Dragon", "overview": "A martial artist agrees to spy on a reclusive crime lord using his invitation to a tournament there as cover.", "poster_path": "/6C006cxfwjWYkBW4fM3xCMyr7Yg.jpg", "release_date": "1973-08-17", "title": "Enter the Dragon", "video": false, "vote_average": 7.4, "vote_count": 911, "popularity": 21.422}, {"id": 11841, "video": false, "vote_count": 157, "vote_average": 7.6, "title": "The 36th Chamber of Shaolin", "release_date": "1978-02-02", "original_language": "cn", "original_title": "\u5c11\u6797\u4e09\u5341\u516d\u623f", "genre_ids": [28, 12], "backdrop_path": "/5YXoGdYF1pGv7NHypZWIVMvYl0O.jpg", "adult": false, "overview": "The anti-Ching patriots, under the guidance of Ho Kuang-han, have secretly set up their base in Canton, disguised as school masters. During a brutal Manchu attack, Lui manages to escape, and devotes himself to learning the martial arts in order to seek revenge.", "poster_path": "/hv29eb8g7iCDr0WgAcDdwZinuoY.jpg", "popularity": 13.558}, {"id": 9470, "video": false, "vote_count": 1392, "vote_average": 7.3, "title": "Kung Fu Hustle", "release_date": "2004-02-10", "original_language": "cn", "original_title": "\u529f\u592b", "genre_ids": [28, 35, 80, 14], "backdrop_path": "/qpJWj6MI6VLRt9bGbJVZtmFvqWw.jpg", "adult": false, "overview": "Set in Canton, China in the 1940s, the story revolves in a town ruled by the Axe Gang, Sing who desperately wants to become a member. He stumbles into a slum ruled by eccentric landlords who turns out to be the greatest kung-fu masters in disguise. Sing's actions eventually cause the Axe Gang and the slumlords to engage in an explosive kung-fu battle. Only one side will win and only one hero will emerge as the greatest kung-fu master of all.", "poster_path": "/dZsfDrNLGWgsIUQL1vGhl8tbnqY.jpg", "popularity": 17.654}, {"adult": false, "backdrop_path": "/9DlrsXH9LOgPeuF6Hljmx8GQNlM.jpg", "genre_ids": [18, 28], "id": 7549, "original_language": "zh", "original_title": "\u970d\u5143\u7532", "overview": "Huo Yuan Jia became the most famous martial arts fighter in all of China at the turn of the 20th Century. Huo faced personal tragedy but ultimately fought his way out of darkness, defining the true spirit of martial arts and also inspiring his nation. The son of a great fighter who didn't wish for his child to follow in his footsteps, Huo resolves to teach himself how to fight - and win.", "poster_path": "/nPku02hVAFPsAd1pJr81OkdBidw.jpg", "release_date": "2006-01-26", "title": "Fearless", "video": false, "vote_average": 7.4, "vote_count": 648, "popularity": 12.897}, {"id": 1498, "video": false, "vote_count": 919, "vote_average": 6.6, "title": "Teenage Mutant Ninja Turtles", "release_date": "1990-03-30", "original_language": "en", "original_title": "Teenage Mutant Ninja Turtles", "genre_ids": [28, 12, 35, 878, 10751], "backdrop_path": "/PxZWmNlfpuU8A26ZrYzpLaOX9S.jpg", "adult": false, "overview": "A quartet of mutated humanoid turtles clash with an uprising criminal gang of ninjas", "poster_path": "/cok0SSxmD7fYeZj6l9XOr2mb0YL.jpg", "popularity": 16.055}, {"id": 9312, "video": false, "vote_count": 1039, "vote_average": 5.7, "title": "Mortal Kombat", "release_date": "1995-08-18", "original_language": "en", "original_title": "Mortal Kombat", "genre_ids": [28, 14], "backdrop_path": "/mOIvM0pQA7J9I0Caai0zTPxnE3f.jpg", "adult": false, "overview": "For nine generations an evil sorcerer has been victorious in hand-to-hand battle against his mortal enemies. If he wins a tenth Mortal Kombat tournament, desolation and evil will reign over the multiverse forever. To save Earth, three warriors must overcome seemingly insurmountable odds, their own inner demons, and superhuman foes in this action/adventure movie based on one of the most popular video games of all time.", "poster_path": "/aQarGLCGr9ueYuwh9EXz3DfeEd9.jpg", "popularity": 17.982}, {"adult": false, "backdrop_path": "/913sS08HhcTQTwz7X567iR6DLHn.jpg", "genre_ids": [12, 28, 53], "id": 682, "original_language": "en", "original_title": "The Man with the Golden Gun", "overview": "A golden bullet has 007 engraved on it as it smashes into the secret service headquarters. The bullet came from the professional killer Scaramanga who has yet to miss a target and James Bond begins a mission to try and stop him.", "poster_path": "/7VSVgxAvA7IdTf8T6Oon1eaReeJ.jpg", "release_date": "1974-12-01", "title": "The Man with the Golden Gun", "video": false, "vote_average": 6.5, "vote_count": 996, "popularity": 17.905}, {"id": 24, "video": false, "vote_count": 10676, "vote_average": 7.9, "title": "Kill Bill: Vol. 1", "release_date": "2003-10-10", "original_language": "en", "original_title": "Kill Bill: Vol. 1", "genre_ids": [28, 80], "backdrop_path": "/kkS8PKa8c134vXsj2fQkNqOaCXU.jpg", "adult": false, "overview": "An assassin is shot by her ruthless employer, Bill, and other members of their assassination circle \u2013 but she lives to plot her vengeance.", "poster_path": "/v7TaX8kXMXs5yFFGR41guUDNcnB.jpg", "popularity": 35.853}, {"id": 98566, "video": false, "vote_count": 4596, "vote_average": 5.8, "title": "Teenage Mutant Ninja Turtles", "release_date": "2014-08-07", "original_language": "en", "original_title": "Teenage Mutant Ninja Turtles", "genre_ids": [28, 12, 35, 14, 878], "backdrop_path": "/OqCXGt5nl1cHPeotxCDvXLLe6p.jpg", "adult": false, "overview": "The city needs heroes. Darkness has settled over New York City as Shredder and his evil Foot Clan have an iron grip on everything from the police to the politicians. The future is grim until four unlikely outcast brothers rise from the sewers and discover their destiny as Teenage Mutant Ninja Turtles. The Turtles must work with fearless reporter April and her wise-cracking cameraman Vern Fenwick to save the city and unravel Shredder's diabolical plan.", "poster_path": "/oDL2ryJ0sV2bmjgshVgJb3qzvwp.jpg", "popularity": 33.698}, {"id": 272, "video": false, "vote_count": 13437, "vote_average": 7.6, "title": "Batman Begins", "release_date": "2005-06-10", "original_language": "en", "original_title": "Batman Begins", "genre_ids": [28, 80, 18], "backdrop_path": "/9myrRcegWGGp24mpVfkD4zhUfhi.jpg", "adult": false, "overview": "Driven by tragedy, billionaire Bruce Wayne dedicates his life to uncovering and defeating the corruption that plagues his home, Gotham City.  Unable to work within the system, he instead creates a new identity, a symbol of fear for the criminal underworld - The Batman.", "poster_path": "/dr6x4GyyegBWtinPBzipY02J2lV.jpg", "popularity": 54.458}, {"adult": false, "backdrop_path": "/xC9DRxpKgqJKDYLa9mkNa74eX4q.jpg", "genre_ids": [18, 12, 28, 36], "id": 79, "original_language": "zh", "original_title": "\u82f1\u96c4", "overview": "One man defeated three assassins who sought to murder the most powerful warlord in pre-unified China.", "poster_path": "/xkJnow23eDxwQXB0iIWAWkBF47y.jpg", "release_date": "2002-07-22", "title": "Hero", "video": false, "vote_average": 7.5, "vote_count": 1210, "popularity": 23.249}, {"adult": false, "backdrop_path": "/3hYidDKVg4rsrkHQsbOKeqt6qkj.jpg", "genre_ids": [35, 28], "id": 19274, "original_language": "cn", "original_title": "\u7b11\u62f3\u602a\u62db", "overview": "Jackie Chan is a youngster, living in a remote vllage with his grandfather who teaches him Kong-Fu (naturally). He keeps getting into fights, even though his grandfather warns him not to show their Kong-Fu to others. Jackie, though, is tempted by some thugs he beat up to act as the master of a Kong-Fu school. This school's name apparently spreads far, as an old enemy of Jackie's grandfather (who t", "poster_path": "/ic5iTcB0HOfNCjQRV10SJ5oA4El.jpg", "release_date": "1979-02-17", "title": "Fearless Hyena", "video": false, "vote_average": 6.6, "vote_count": 59, "popularity": 12.832}, {"id": 605, "video": false, "vote_count": 5698, "vote_average": 6.6, "title": "The Matrix Revolutions", "release_date": "2003-11-03", "original_language": "en", "original_title": "The Matrix Revolutions", "genre_ids": [28, 12, 878, 53], "backdrop_path": "/pdVHUsb2eEz9ALNTr6wfRJe5xVa.jpg", "adult": false, "overview": "The human city of Zion defends itself against the massive invasion of the machines as Neo fights to end the war at another front while also opposing the rogue Agent Smith.", "poster_path": "/sKogjhfs5q3azmpW7DFKKAeLEG8.jpg", "popularity": 22.724}, {"id": 604, "video": false, "vote_count": 6344, "vote_average": 6.9, "title": "The Matrix Reloaded", "release_date": "2003-05-15", "original_language": "en", "original_title": "The Matrix Reloaded", "genre_ids": [28, 12, 878, 53], "backdrop_path": "/Fp3piEuHXxKnPBO5R0Wj4wjZHg.jpg", "adult": false, "overview": "Six months after the events depicted in The Matrix, Neo has proved to be a good omen for the free humans, as more and more humans are being freed from the matrix and brought to Zion, the one and only stronghold of the Resistance.  Neo himself has discovered his superpowers including super speed, ability to see the codes of the things inside the matrix and a certain degree of pre-cognition. But a nasty piece of news hits the human resistance: 250,000 machine sentinels are digging to Zion and would reach them in 72 hours. As Zion prepares for the ultimate war, Neo, Morpheus and Trinity are advised by the Oracle to find the Keymaker who would help them reach the Source.  Meanwhile Neo's recurrent dreams depicting Trinity's death have got him worried and as if it was not enough, Agent Smith has somehow escaped deletion, has become more powerful than before and has fixed Neo as his next target.", "poster_path": "/ezIurBz2fdUc68d98Fp9dRf5ihv.jpg", "popularity": 26.284}, {"id": 9502, "video": false, "vote_count": 6771, "vote_average": 7.1, "title": "Kung Fu Panda", "release_date": "2008-06-04", "original_language": "en", "original_title": "Kung Fu Panda", "genre_ids": [12, 16, 35, 10751], "backdrop_path": "/pmLEmMLYCreFAxfdCt5uO1wDgSi.jpg", "adult": false, "overview": "When the Valley of Peace is threatened, lazy Po the panda discovers his destiny as the \"chosen one\" and trains to become a kung fu hero, but transforming the unsleek slacker into a brave warrior won't be easy. It's up to Master Shifu and the Furious Five -- Tigress, Crane, Mantis, Viper and Monkey -- to give it a try.", "poster_path": "/mk3UyyaLyXhgIhmLji25OUPXvGR.jpg", "popularity": 23.634}, {"adult": false, "backdrop_path": "/ic450gLSYFUGb5Gxv39YXOqOGOP.jpg", "genre_ids": [28, 80, 53], "id": 11134, "original_language": "cn", "original_title": "\u8b66\u5bdf\u6545\u4e8b III\uff1a\u8d85\u7d1a\u8b66\u5bdf", "overview": "A Hong Kong detective teams up with his female Red Chinese counterpart to stop a Chinese drug czar.", "poster_path": "/sw94gRwWJf1O4uMFHmDyZNXJeIj.jpg", "release_date": "1992-07-04", "title": "Police Story 3: Super Cop", "video": false, "vote_average": 6.7, "vote_count": 210, "popularity": 11.796}, {"id": 55292, "video": false, "vote_count": 176, "vote_average": 6.6, "title": "Shaolin", "release_date": "2011-01-20", "original_language": "cn", "original_title": "\u65b0\u5c11\u6797\u5bfa", "genre_ids": [28, 18], "backdrop_path": "/dmrIPxd5w69nJ5ZhHTQmH8QDGH2.jpg", "adult": false, "overview": "China is plunged into strife as feuding warlords try to expand their power by warring over neighboring lands. Fuelled by his success on the battlefield, young and arrogant Hao Jie sneers at Shaolin's masters when he beats one of them in a duel. But the pride comes before a fall. When his own family is wiped out by a rival warlord, Hao is forced to take refuge with the monks. As the civil unrest spreads and the people suffer, Hao and the Shaolin masters are forced to take a fiery stand against the evil warlords. They launch a daring plan or rescue and escape.", "poster_path": "/rcX06YbBYiiaBh4bjMS3fau0nuk.jpg", "popularity": 11.309}], "total_pages": 88, "total_results": 1743}, "recommendations": {"page": 1, "results": [], "total_pages": 1, "total_results": 0}, "credits": {"cast": [{"cast_id": 2, "character": "Dakota", "credit_id": "52fe4609c3a36847f80e88e7", "gender": 2, "id": 4078, "name": "Lee Van Cleef", "order": 0, "profile_path": "/oEEsdGCBjpyJyVZlx1X8PKvHe7S.jpg"}, {"cast_id": 18, "character": "Ho Chiang", "credit_id": "52fe4609c3a36847f80e8929", "gender": 2, "id": 70673, "name": "Lo Lieh", "order": 1, "profile_path": "/cUZZlI9m1JnxmCvOWDtDu5hqO3p.jpg"}, {"cast_id": 13, "character": "Russian Mistress / Twin Sister", "credit_id": "52fe4609c3a36847f80e8915", "gender": 1, "id": 31347, "name": "Patty Shepard", "order": 2, "profile_path": "/wTlk1BxbpuA47BCDIXiBDBKVF4d.jpg"}, {"cast_id": 14, "character": "Italian Mistress", "credit_id": "52fe4609c3a36847f80e8919", "gender": 1, "id": 24493, "name": "Femi Benussi", "order": 3, "profile_path": "/i8r9ePuoQX1KM3hs1WRHWhNwEZx.jpg"}, {"cast_id": 15, "character": "Chinese Mistress", "credit_id": "52fe4609c3a36847f80e891d", "gender": 0, "id": 103618, "name": "Karen Yeh", "order": 4, "profile_path": null}, {"cast_id": 16, "character": "American Mistress", "credit_id": "52fe4609c3a36847f80e8921", "gender": 1, "id": 97929, "name": "Erika Blanc", "order": 5, "profile_path": "/nldvnedtlNJkGXOnemya0LqJkqM.jpg"}, {"cast_id": 17, "character": "Yancey Hobbitt", "credit_id": "52fe4609c3a36847f80e8925", "gender": 2, "id": 89774, "name": "Juli\u00e1n Ugarte", "order": 6, "profile_path": null}, {"cast_id": 21, "character": "Sheriff", "credit_id": "54860ccfc3a3680b36003bd3", "gender": 2, "id": 31748, "name": "Barta Barri", "order": 7, "profile_path": null}, {"cast_id": 22, "character": "Lord Barclay", "credit_id": "59c04f52c3a36804b100497d", "gender": 2, "id": 31695, "name": "George Rigaud", "order": 8, "profile_path": "/uQi3Vz5Z9oed6fkoszFJbqWi8Tf.jpg"}, {"cast_id": 23, "character": "Chief Constable", "credit_id": "59da38dbc3a368622703f8f2", "gender": 2, "id": 1042681, "name": "Chan Shen", "order": 9, "profile_path": null}, {"cast_id": 24, "character": "Wang's father", "credit_id": "59da50b9c3a368620004599b", "gender": 2, "id": 544921, "name": "Cheng Miu", "order": 10, "profile_path": "/pJkI8tmkKoYVascjRHEw9Xi5RAz.jpg"}, {"cast_id": 25, "character": "Li Hua", "credit_id": "59da50c8c3a36861ec044198", "gender": 1, "id": 1180977, "name": "Karen Yip Leng-Chi", "order": 11, "profile_path": null}, {"cast_id": 26, "character": "Wang's sister", "credit_id": "59da50d9925141251f045b5f", "gender": 1, "id": 240181, "name": "Chen Ping", "order": 12, "profile_path": "/dVYtdIGYsaUF65lJzS8uUiNl4Sd.jpg"}, {"cast_id": 27, "character": "Abbot", "credit_id": "59da537a92514124c9044ee0", "gender": 2, "id": 1078833, "name": "Kong Yeung", "order": 13, "profile_path": null}], "crew": [{"credit_id": "52fe4609c3a36847f80e88f3", "department": "Writing", "gender": 0, "id": 5561, "job": "Screenplay", "name": "Antonio Margheriti", "profile_path": "/mQE61ZpPTZqQFJ4wHy1WA0Iz8Te.jpg"}, {"credit_id": "52fe4609c3a36847f80e8935", "department": "Directing", "gender": 0, "id": 5561, "job": "Director", "name": "Antonio Margheriti", "profile_path": "/mQE61ZpPTZqQFJ4wHy1WA0Iz8Te.jpg"}, {"credit_id": "52fe4609c3a36847f80e890b", "department": "Editing", "gender": 0, "id": 14270, "job": "Editor", "name": "Giorgio Serrallonga", "profile_path": null}, {"credit_id": "52fe4609c3a36847f80e88f9", "department": "Production", "gender": 2, "id": 21918, "job": "Producer", "name": "Run Run Shaw", "profile_path": "/e3azWtlmEQrQtJ5HxbRte935aFq.jpg"}, {"credit_id": "52fe4609c3a36847f80e8905", "department": "Sound", "gender": 2, "id": 29389, "job": "Original Music Composer", "name": "Carlo Savina", "profile_path": null}, {"credit_id": "52fe4609c3a36847f80e8911", "department": "Art", "gender": 0, "id": 37582, "job": "Production Design", "name": "Luis Arg\u00fcello", "profile_path": null}, {"credit_id": "52fe4609c3a36847f80e892f", "department": "Camera", "gender": 2, "id": 98746, "job": "Director of Photography", "name": "Alejandro Ulloa", "profile_path": "/eYql5busY596riSvRCt2zgs3KYI.jpg"}, {"credit_id": "52fe4609c3a36847f80e88ff", "department": "Production", "gender": 0, "id": 1120609, "job": "Producer", "name": "Gustave M. Berne", "profile_path": null}, {"credit_id": "52fe4609c3a36847f80e88ed", "department": "Writing", "gender": 0, "id": 1121988, "job": "Writer", "name": "Barth Jules Sussman", "profile_path": null}]}}