{"adult": false, "backdrop_path": "/vZ3mrwEHdwctcuZsWtGiTRLVSMM.jpg", "belongs_to_collection": null, "budget": 0, "genres": [{"id": 10749, "name": "Romance"}, {"id": 18, "name": "Drama"}], "homepage": null, "id": 426228, "imdb_id": "tt5974044", "original_language": "en", "original_title": "After Louie", "overview": "After Louie explores the contradictions of modern gay life and history through Sam, a man desperate to understand how he and his community got to where they are today", "popularity": 1.695, "poster_path": "/2MBJUVjZ8w8c6GPW0E1BmI52wx2.jpg", "production_companies": [], "production_countries": [], "release_date": "2017-03-17", "revenue": 0, "runtime": 104, "spoken_languages": [], "status": "Released", "tagline": "", "title": "After Louie", "video": false, "vote_average": 5.0, "vote_count": 1, "keywords": {"keywords": [{"id": 237, "name": "gay"}, {"id": 10199, "name": "gay interest"}, {"id": 14534, "name": "relationship"}, {"id": 158718, "name": "lgbt"}]}, "similar": {"page": 1, "results": [{"id": 449176, "video": false, "vote_count": 3691, "vote_average": 8.1, "title": "Love, Simon", "release_date": "2018-02-16", "original_language": "en", "original_title": "Love, Simon", "genre_ids": [35, 18, 10749], "backdrop_path": "/rqMEeajyzSF4PpJtdCB816Iz8Vr.jpg", "adult": false, "overview": "Everyone deserves a great love story. But for seventeen-year old Simon Spier it's a little more complicated: he's yet to tell his family or friends he's gay and he doesn't know the identity of the anonymous classmate he's fallen for online.", "poster_path": "/5YUYg5q7QfC4IoNwNUtiwdiYKPr.jpg", "popularity": 17.201}, {"adult": false, "backdrop_path": "/6VhtzImP1UvYkIAHS4L8yfmceOM.jpg", "genre_ids": [18], "id": 26280, "original_language": "fr", "original_title": "J'ai tu\u00e9 ma m\u00e8re", "overview": "Hubert, a brash 17-year-old, is confused and torn by a love-hate relationship with his mother that consumes him more and more each day. After distressing ordeals and tragic episodes, Hubert will find his mother on the banks of Saint Lawrence river, where he grew up, and where a murder will be committed: the murder of childhood.", "poster_path": "/cxb02CLALt9He1Dt0BIDKj9fdvM.jpg", "release_date": "2009-06-05", "title": "I Killed My Mother", "video": false, "vote_average": 7.7, "vote_count": 655, "popularity": 11.451}, {"id": 21634, "video": false, "vote_count": 250, "vote_average": 7.9, "title": "Prayers for Bobby", "release_date": "2009-02-27", "original_language": "en", "original_title": "Prayers for Bobby", "genre_ids": [18, 36, 10770], "backdrop_path": "/pSjGsbqyKUzF8rHzL0vtVWV1pS6.jpg", "adult": false, "overview": "Bobby Griffith was his mother's favorite son, the perfect all-American boy growing up under deeply religious influences in Walnut Creek, California. Bobby was also gay. Struggling with a conflict no one knew of much less understood Bobby finally came out to his family.", "poster_path": "/d9TGJxEMkLTEF5lWAx1PLNDNpA0.jpg", "popularity": 9.034}, {"adult": false, "backdrop_path": "/qs4P8THxjbMZYc9QuZvzN95KzBM.jpg", "genre_ids": [18, 53, 9648], "id": 184352, "original_language": "fr", "original_title": "Tom \u00e0 la ferme", "overview": "A young man travels to an isolated farm for his lover's funeral where he's quickly drawn into a twisted, sexually charged game by his lover's aggressive brother.", "poster_path": "/wS4oYOHEKva9sMLOHSr7tW19SaQ.jpg", "release_date": "2013-09-02", "title": "Tom at the Farm", "video": false, "vote_average": 6.9, "vote_count": 408, "popularity": 7.884}, {"adult": false, "backdrop_path": "/qWZSYN2tBoZdUY9NDdvSKQ6OH4u.jpg", "genre_ids": [18], "id": 377154, "original_language": "fr", "original_title": "Quand on a 17 Ans", "overview": "Set in the beautiful high Pyrenees in south-west France, Damien lives with his mother Marianne, a doctor, while his father, a pilot, is on a tour of duty abroad with the French military. At school, Damien is bullied by Thomas,  who lives in the farming community up in the mountains, nut learns to fight back. The boys find themselves living together when Marianne invites Thomas to come and stay with them while his mother is ill in hospital. Damien must learn to live with the boy who terrorised him.", "poster_path": "/ogfzBX1iNzgaCBTmRRf6c69L19k.jpg", "release_date": "2016-02-27", "title": "Being 17", "video": false, "vote_average": 6.9, "vote_count": 210, "popularity": 6.56}, {"adult": false, "backdrop_path": "/qbrmEfBEcdrzHSAHgazJWmz3TSU.jpg", "genre_ids": [18], "id": 616229, "original_language": "en", "original_title": "The Male Gaze: The Heat of the Night", "overview": "When darkness falls, temperatures rise in these six stories about late night confessions, intimacy for sale, high speed hookups and full moon frissons. But when the sun comes up and reality reveals itself, will it have all been worth it?", "poster_path": "/e1gNLO829rkE73sBJ3aClZJHNXd.jpg", "release_date": "2019-07-15", "title": "The Male Gaze: The Heat of the Night", "video": false, "vote_average": 3.3, "vote_count": 3, "popularity": 7.834}, {"adult": false, "backdrop_path": "/ztD8x6kFrhyPIrdbEqWkxwKEgzv.jpg", "genre_ids": [80, 18], "id": 383526, "original_language": "es", "original_title": "Nunca vas a estar solo", "overview": "Introverted Juan, manager of a mannequin factory, lives alone with his eighteen-year-old gay son, Pablo. Whilst Pablo blithely studies dance, Juan is hoping that, after twenty-five years at the firm, his boss will consider him for a partnership. When Pablo is badly wounded in a brutal homophobic attack which sees him hospitalised, his father realises just how far they have become estranged. A lack of witnesses and expensive medical bills force Juan to leave the quiet stability of his life for good and reposition himself in a world where there is discrimination. Time and again his efforts come to nought, until one night on the streets of Santiago he makes up his own rules in order to save his son.", "poster_path": "/lGReDf0NnrAbdXaU1SbFyKnJJH4.jpg", "release_date": "2016-02-13", "title": "You'll Never Be Alone", "video": false, "vote_average": 7.1, "vote_count": 17, "popularity": 2.412}, {"adult": false, "backdrop_path": "/4NJplkljN06NQLMLSUNmrIsBjBZ.jpg", "genre_ids": [35, 18], "id": 400547, "original_language": "en", "original_title": "Hurricane Bianca", "overview": "Hurricane Bianca is a revenge comedy about a New York teacher who moves to a small town in Texas, gets fired for being gay, and returns disguised in drag to get revenge on the people who were nasty to him.", "poster_path": "/w1QM09R1TqwHTb5UA8X8jR2yh4x.jpg", "release_date": "2016-06-03", "title": "Hurricane Bianca", "video": false, "vote_average": 6.2, "vote_count": 212, "popularity": 9.77}, {"adult": false, "backdrop_path": "/1Z53X8Rj7ebuIUHU0XqizkFMPOK.jpg", "genre_ids": [18, 10749], "id": 17483, "original_language": "en", "original_title": "Shelter", "overview": "Forced to give up his dreams of art school, Zach works dead-end jobs to support his sister and her son. Questioning his life, he paints, surfs and hangs out with his best friend, Gabe. When Gabe's older brother returns home for the summer, Zach suddenly finds himself drawn into a relationship he didn't expect.", "poster_path": "/auMRglisVmM01BRGAWCjv7AuUeE.jpg", "release_date": "2007-06-16", "title": "Shelter", "video": false, "vote_average": 7.7, "vote_count": 249, "popularity": 11.276}, {"adult": false, "backdrop_path": "/3Z0GbJ3NKBEbotdHxsllRBKRMmj.jpg", "genre_ids": [18], "id": 472451, "original_language": "en", "original_title": "Boy Erased", "overview": "Jared, the son of a Baptist pastor in a small American town, is outed to his parents at age 19. Jared is faced with an ultimatum: attend a gay conversion therapy program \u2013 or be permanently exiled and shunned by his family, friends, and faith.", "poster_path": "/oZbhTdi0ZQY7iiSQ0L7h3ya6NDF.jpg", "release_date": "2018-09-24", "title": "Boy Erased", "video": false, "vote_average": 7.2, "vote_count": 653, "popularity": 14.358}, {"adult": false, "backdrop_path": "/da8Kj1bgPvL8Tf1PgkA70UwmYzh.jpg", "genre_ids": [35, 18, 10749], "id": 10938, "original_language": "en", "original_title": "Beautiful Thing", "overview": "Set during a long, hot summer on the Thamesmead Estate in Southeast London, three teenagers edge towards adulthood.", "poster_path": "/8z1ZkZoznIGLyx4xHEaQNZqG63D.jpg", "release_date": "1996-06-21", "title": "Beautiful Thing", "video": false, "vote_average": 7.5, "vote_count": 154, "popularity": 9.835}, {"adult": false, "backdrop_path": "/8uwHvRutx9y79ZBIowg7VDVx9Dy.jpg", "genre_ids": [18, 10749], "id": 222918, "original_language": "en", "original_title": "The Wilding", "overview": "When juvenile inmate Malcolm is offered a chance at parole, he is torn between his chance for freedom and protecting the one he loves.", "poster_path": "/5vbTbtgm0dH5MHwVQBaWo47gG6Q.jpg", "release_date": "2012-02-13", "title": "The Wilding", "video": false, "vote_average": 6.8, "vote_count": 4, "popularity": 4.083}, {"adult": false, "backdrop_path": "/4CCNdDQVUT3c8gBs5r6nC0VOkP9.jpg", "genre_ids": [10749, 99], "id": 126331, "original_language": "fr", "original_title": "Les Invisibles", "overview": "Several elderly homosexual men and women speak frankly about their pioneering lives, their fearless decision to live openly in France at a time when society rejected them.", "poster_path": "/8xzojCU2WdrckkrCVjS6fo4KIFy.jpg", "release_date": "2012-11-28", "title": "Les Invisibles", "video": false, "vote_average": 7.0, "vote_count": 19, "popularity": 3.035}, {"adult": false, "backdrop_path": "/zCC5Han27o5AxhdNJ86b5YhLhIS.jpg", "genre_ids": [18, 10749], "id": 26933, "original_language": "fr", "original_title": "Les roseaux sauvages", "overview": "As the Algerian War draws to a close, a teenager with a girlfriend starts feeling homosexual urges for two of his classmates: a country boy, and a French-Algerian intellectual.", "poster_path": "/vPPsAieu9KEVZcI06xKHl9zztUO.jpg", "release_date": "1994-06-01", "title": "Wild Reeds", "video": false, "vote_average": 7.5, "vote_count": 46, "popularity": 5.558}, {"adult": false, "backdrop_path": "/sZo96MCFy4yFaJFKIfj4hbyvTci.jpg", "genre_ids": [18, 10749], "id": 26371, "original_language": "en", "original_title": "Maurice", "overview": "After his lover rejects him, a young man trapped by the oppressiveness of Edwardian society tries to come to terms with and accept his sexuality.", "poster_path": "/4MI2y8XViPrDiKs1p0QC4bTeZzf.jpg", "release_date": "1987-08-21", "title": "Maurice", "video": false, "vote_average": 7.6, "vote_count": 161, "popularity": 11.282}, {"adult": false, "backdrop_path": "/r3DKR4VybkjYP2w4wYFIf2cEPc.jpg", "genre_ids": [10749, 18], "id": 322127, "original_language": "de", "original_title": "You & I", "overview": "Summer in Berlin. Jonas is planning a trip through the little known area of the Uckermark in preparation for a photography project. He invites his best friend, Phillip, to come along. When they pick up a hitchhiker named Boris, the friendship of the two starts to fray. Maybe three\u2019s a crowd after all? By the end of the summer, things between Jonas and Phillip won\u2019t ever be the same again.", "poster_path": "/59OmxhLZVh3ZXLAu6iaywYYx01S.jpg", "release_date": "2015-09-16", "title": "You & I", "video": false, "vote_average": 7.4, "vote_count": 22, "popularity": 5.241}, {"id": 10139, "video": false, "vote_count": 1269, "vote_average": 7.3, "title": "Milk", "release_date": "2008-11-05", "original_language": "en", "original_title": "Milk", "genre_ids": [18, 36], "backdrop_path": "/i8NcYenVqMzB95pVz8YOPIqmGj8.jpg", "adult": false, "overview": "The true story of Harvey Milk, the first openly gay man ever elected to public office. In San Francisco in the late 1970s, Harvey Milk becomes an activist for gay rights and inspires others to join him in his fight for equal rights that should be available to all Americans.", "poster_path": "/aTbhbnq9YnKJM6wGIiedfJaoV6m.jpg", "popularity": 13.064}, {"adult": false, "backdrop_path": "/useuHJQ5HOoEWkAvEjL1FW1sUfe.jpg", "genre_ids": [18], "id": 376867, "original_language": "en", "original_title": "Moonlight", "overview": "The tender, heartbreaking story of a young man\u2019s struggle to find himself, told across three defining chapters in his life as he experiences the ecstasy, pain, and beauty of falling in love, while grappling with his own sexuality.", "poster_path": "/qAwFbszz0kRyTuXmMeKQZCX3Q2O.jpg", "release_date": "2016-10-21", "title": "Moonlight", "video": false, "vote_average": 7.4, "vote_count": 4410, "popularity": 21.716}, {"id": 84892, "video": false, "vote_count": 6553, "vote_average": 7.7, "title": "The Perks of Being a Wallflower", "release_date": "2012-09-20", "original_language": "en", "original_title": "The Perks of Being a Wallflower", "genre_ids": [18], "backdrop_path": "/uhLcaTPeBpUNgYhZXhDWkj7gMkp.jpg", "adult": false, "overview": "15-year-old freshman Charlie is a wallflower, always watching life from the sidelines, until two charismatic senior students become his mentors. Free-spirited Sam and her stepbrother Patrick help Charlie discover the joys of friendship, first love, music and more, while a teacher sparks Charlie's dreams of becoming a writer.", "poster_path": "/cyNQLnHnXZcTUDXVVSEYmquOTOI.jpg", "popularity": 19.486}, {"id": 424694, "video": false, "vote_count": 9728, "vote_average": 8.0, "title": "Bohemian Rhapsody", "release_date": "2018-10-24", "original_language": "en", "original_title": "Bohemian Rhapsody", "genre_ids": [18, 10402], "backdrop_path": "/93xA62uLd5CwMOAs37eQ7vPc1iV.jpg", "adult": false, "overview": "Singer Freddie Mercury, guitarist Brian May, drummer Roger Taylor and bass guitarist John Deacon take the music world by storm when they form the rock 'n' roll band Queen in 1970. Hit songs become instant classics. When Mercury's increasingly wild lifestyle starts to spiral out of control, Queen soon faces its greatest challenge yet \u2013 finding a way to keep the band together amid the success and excess.", "poster_path": "/lHu1wtNaczFPGFDTrjCSzeLPTKN.jpg", "popularity": 37.217}], "total_pages": 193, "total_results": 3843}, "recommendations": {"page": 1, "results": [], "total_pages": 1, "total_results": 0}, "credits": {"cast": [{"cast_id": 1, "character": "Sam Cooper", "credit_id": "582bfecac3a36872bb004bb3", "gender": 2, "id": 10697, "name": "Alan Cumming", "order": 0, "profile_path": "/5U7rmz20snvKB099P30IJu2nmRb.jpg"}, {"cast_id": 2, "character": "Braeden DeVries", "credit_id": "582bfed192514111c0004864", "gender": 2, "id": 205854, "name": "Zachary Booth", "order": 1, "profile_path": "/z9KGlfEvDy0GN72F7VtZIh7gMAI.jpg"}, {"cast_id": 3, "character": "Maggie", "credit_id": "582bfed9c3a36872c9004481", "gender": 1, "id": 20275, "name": "Sarita Choudhury", "order": 2, "profile_path": "/2YNa0h5lCq5lMYyGFLJmSe09ZeW.jpg"}, {"cast_id": 10, "character": "Jai the Chanteuse", "credit_id": "5ca6bc9d0e0a267a7b330458", "gender": 0, "id": 1402372, "name": "Joey Arias", "order": 3, "profile_path": null}, {"cast_id": 11, "character": "Rhona", "credit_id": "5ca6bcb6925141258ede9e6c", "gender": 2, "id": 36563, "name": "Justin Vivian Bond", "order": 4, "profile_path": "/fEhgs6Bu8Wj91fUJ36b01rT0nBz.jpg"}, {"cast_id": 4, "character": "Jeffrey", "credit_id": "582bfee3c3a36872c0004b40", "gender": 2, "id": 15031, "name": "Patrick Breen", "order": 5, "profile_path": "/oGK78qN4cezMlG7VBvZ0QYh1Ui0.jpg"}, {"cast_id": 5, "character": "Mateo", "credit_id": "582bfeeac3a36872c600487b", "gender": 2, "id": 54453, "name": "Wilson Cruz", "order": 6, "profile_path": "/lVvWWl3C01L8p7DimH4BERiTiN5.jpg"}, {"cast_id": 12, "character": "William Wilson", "credit_id": "5ca6bda40e0a261f4633191c", "gender": 0, "id": 1176208, "name": "David Drake", "order": 7, "profile_path": "/oC8XaUr5DrZq5DvDPPQokpRAyOd.jpg"}, {"cast_id": 13, "character": "Lukas", "credit_id": "5ca6bdb50e0a261f3e331766", "gender": 0, "id": 1850316, "name": "Anthony Johnston", "order": 8, "profile_path": null}, {"cast_id": 14, "character": "Julian", "credit_id": "5ca6bdccc3a3683b2caa970d", "gender": 2, "id": 3199, "name": "Everett Quinton", "order": 9, "profile_path": null}], "crew": [{"credit_id": "582bfebdc3a36872c600486b", "department": "Directing", "gender": 0, "id": 1709424, "job": "Director", "name": "Vincent Gagliostro", "profile_path": null}, {"credit_id": "596716749251410b8613d3a1", "department": "Writing", "gender": 0, "id": 1850316, "job": "Writer", "name": "Anthony Johnston", "profile_path": null}, {"credit_id": "596716a2c3a368293b146117", "department": "Production", "gender": 0, "id": 1850317, "job": "Producer", "name": "Lauren Belfer", "profile_path": null}, {"credit_id": "596716d0c3a368293b146160", "department": "Production", "gender": 0, "id": 1850318, "job": "Producer", "name": "Bryce Renninger", "profile_path": null}, {"credit_id": "5ca6c1d30e0a261f46331ef7", "department": "Costume & Make-Up", "gender": 1, "id": 10577, "job": "Costume Consultant", "name": "Patricia Field", "profile_path": "/3CWJ9kUpd68AYGeL5mDMQoanIAR.jpg"}, {"credit_id": "5ca6c5e40e0a267a7b330e2f", "department": "Costume & Make-Up", "gender": 0, "id": 1331178, "job": "Costume Design", "name": "Hannah Kittell", "profile_path": null}]}}