{"adult": false, "backdrop_path": "/thqSXLhoImuipVIVRwbO9qlk1Gp.jpg", "belongs_to_collection": null, "budget": 0, "genres": [{"id": 18, "name": "Drama"}], "homepage": null, "id": 426734, "imdb_id": "tt6312872", "original_language": "zh", "original_title": "\u6e05\u6c34\u91cc\u7684\u5200\u5b50", "overview": "A man is struggling to keep his beloved bull from being used as sacrifice for his dead wife's funeral rites.", "popularity": 0.6, "poster_path": "/86L7ob9a0L6o1Lkob1LOPsHws8t.jpg", "production_companies": [{"id": 83534, "logo_path": null, "name": "Time Culture Communication", "origin_country": ""}, {"id": 83535, "logo_path": null, "name": "Beijing Ocean", "origin_country": ""}], "production_countries": [{"iso_3166_1": "CN", "name": "China"}], "release_date": "2018-04-04", "revenue": 0, "runtime": 93, "spoken_languages": [{"iso_639_1": "zh", "name": "\u666e\u901a\u8bdd"}], "status": "Released", "tagline": "", "title": "Knife in the Clear Water", "video": false, "vote_average": 8.0, "vote_count": 7, "keywords": {"keywords": [{"id": 11004, "name": "rural setting"}, {"id": 230659, "name": "muslim china"}, {"id": 230660, "name": "funeral ceremony"}]}, "similar": {"page": 1, "results": [{"adult": false, "backdrop_path": "/kormVYncbZMrToXaOV58o74LNIz.jpg", "genre_ids": [18, 53, 878, 9648], "id": 2675, "original_language": "en", "original_title": "Signs", "overview": "A family living on a farm finds mysterious crop circles in their fields which suggests something more frightening to come.", "poster_path": "/bY9lCUVUajpkKWlfjWF1mtXaSUp.jpg", "release_date": "2002-08-02", "title": "Signs", "video": false, "vote_average": 6.6, "vote_count": 3222, "popularity": 16.898}, {"id": 4584, "video": false, "vote_count": 799, "vote_average": 7.4, "title": "Sense and Sensibility", "release_date": "1995-12-13", "original_language": "en", "original_title": "Sense and Sensibility", "genre_ids": [18, 10749], "backdrop_path": "/ocn3pLKJjYmXIP2331pUNC33f5M.jpg", "adult": false, "overview": "Rich Mr. Dashwood dies, leaving his second wife and her daughters poor by the rules of inheritance. Two daughters are the titular opposites.", "poster_path": "/1ryNXjmwdCTqLXxXCG9BGvZyMOH.jpg", "popularity": 15.496}, {"id": 994, "video": false, "vote_count": 444, "vote_average": 7.2, "title": "Straw Dogs", "release_date": "1971-12-23", "original_language": "en", "original_title": "Straw Dogs", "genre_ids": [80, 18, 53], "backdrop_path": "/yL7uVOyvwZeP2U0zKIE3WQqoilA.jpg", "adult": false, "overview": "David Sumner, a mild-mannered academic from the United States, marries Amy, an Englishwoman. In order to escape a hectic stateside lifestyle, David and his wife relocate to the small town in rural Cornwall where Amy was raised. There, David is ostracized by the brutish men of the village, including Amy's old flame, Charlie. Eventually the taunts escalate, and two of the locals rape Amy. This sexual assault awakes a shockingly violent side of David.", "poster_path": "/yigkfHE1OhkxPPrjrV78Y9ibGEk.jpg", "popularity": 15.307}, {"id": 9609, "video": false, "vote_count": 331, "vote_average": 7.3, "title": "Of Mice and Men", "release_date": "1992-09-16", "original_language": "en", "original_title": "Of Mice and Men", "genre_ids": [18], "backdrop_path": "/9RiKIEIPaR8L1AWuaAxNR6S04mx.jpg", "adult": false, "overview": "Two drifters, one a gentle but slow giant, try to make money working the fields during the Depression so they can fulfill their dreams.", "poster_path": "/jBRcO6XrNZdWpQOVzkVpN7eJO4Q.jpg", "popularity": 11.997}, {"adult": false, "backdrop_path": "/dLAPTvBwEdP4h7a14isNc0HwmOj.jpg", "genre_ids": [18, 10749], "id": 250734, "original_language": "en", "original_title": "Far from the Madding Crowd", "overview": "Based on the literary classic by Thomas Hardy. Bathsheba Everdene, attracts three very different suitors: Gabriel Oak, a sheep farmer, captivated by her fetching willfulness; Frank Troy, a handsome and reckless Sergeant; and William Boldwood, a prosperous and mature bachelor. This timeless story of Bathsheba's choices and passions explores the nature of relationships and love \u2013 as well as the human ability to overcome hardships through resilience and perseverance.", "poster_path": "/6v1DEaO2TZzrqcaGohUf1K7BXkU.jpg", "release_date": "2015-04-23", "title": "Far from the Madding Crowd", "video": false, "vote_average": 7.0, "vote_count": 643, "popularity": 13.429}, {"id": 9598, "video": false, "vote_count": 1736, "vote_average": 6.1, "title": "Babe", "release_date": "1995-07-18", "original_language": "en", "original_title": "Babe", "genre_ids": [35, 18, 14, 10751], "backdrop_path": "/67jzzA7YqDTR5qIUhAH32cvkf53.jpg", "adult": false, "overview": "Babe is a little pig who doesn't quite know his place in the world. With a bunch of odd friends, like Ferdinand the duck who thinks he is a rooster and Fly the dog he calls mom, Babe realizes that he has the makings to become the greatest sheep pig of all time, and Farmer Hogget knows it. With the help of the sheep dogs Babe learns that a pig can be anything that he wants to be.", "poster_path": "/k42J5jYjvw1DEGBQP63VYYvteY7.jpg", "popularity": 12.588}, {"adult": false, "backdrop_path": "/cLGKawjQ5tUJCuDyR0OnGYT4fyf.jpg", "genre_ids": [18, 53, 80], "id": 146233, "original_language": "en", "original_title": "Prisoners", "overview": "When Keller Dover's daughter and her friend go missing, he takes matters into his own hands as the police pursue multiple leads and the pressure mounts. But just how far will this desperate father go to protect his family?", "poster_path": "/yAhqW57pwMAsCgmZpM5zSIVQVTh.jpg", "release_date": "2013-09-18", "title": "Prisoners", "video": false, "vote_average": 8.0, "vote_count": 6410, "popularity": 24.427}, {"adult": false, "backdrop_path": "/ecREZ3vYCqethftSDWK4we0X498.jpg", "genre_ids": [35, 18, 10749], "id": 4507, "original_language": "es", "original_title": "Jam\u00f3n, jam\u00f3n", "overview": "Jose Luis is an executive at his parents underwear factory where his girlfriend Sylvia works on the shop floor. When Sylvia becomes pregnant, Jose Luis promises her that he will marry her, most likely against the wishes of his parents. Jose Luis' mother is determined to break her son's engagement to a girl from a lower-class family, and hires Raul, a potential underwear model and would-be bullfighter to seduce Sylvia.", "poster_path": "/v5Fq01ZtYnA2Grxdd3g8CuGZARg.jpg", "release_date": "1992-09-03", "title": "Jamon Jamon", "video": false, "vote_average": 6.1, "vote_count": 143, "popularity": 13.381}, {"id": 13515, "video": false, "vote_count": 1001, "vote_average": 6.1, "title": "Mirrors", "release_date": "2008-08-15", "original_language": "en", "original_title": "Mirrors", "genre_ids": [18, 27, 9648, 53], "backdrop_path": "/v2t6Zbg6X0LeklL3A5iQsz4p4sh.jpg", "adult": false, "overview": "An ex-cop and his family are the target of an evil force that is using mirrors as a gateway into their home.", "poster_path": "/h0Lf0PoLqvcDDpWhvCpiLGSREmp.jpg", "popularity": 21.873}, {"id": 110420, "video": false, "vote_count": 1195, "vote_average": 8.2, "title": "Wolf Children", "release_date": "2012-07-21", "original_language": "ja", "original_title": "\u304a\u304a\u304b\u307f\u3053\u3069\u3082\u306e\u96e8\u3068\u96ea", "genre_ids": [16, 18, 14, 10751], "backdrop_path": "/1Y66fi0srOb0ijAOg069DXriD3S.jpg", "adult": false, "overview": "After her werewolf lover unexpectedly dies in an accident, a woman must find a way to raise the son and daughter that she had with him. However, their inheritance of their father's traits prove to be a challenge for her.", "poster_path": "/rDMxjCYEVnvLC4nsBpB6wjL0LDy.jpg", "popularity": 18.057}, {"id": 4638, "video": false, "vote_count": 4429, "vote_average": 7.5, "title": "Hot Fuzz", "release_date": "2007-02-14", "original_language": "en", "original_title": "Hot Fuzz", "genre_ids": [28, 35, 80], "backdrop_path": "/zuskekrfW3gj9ttXNVhfdHe5n22.jpg", "adult": false, "overview": "As a former London constable, Nicholas Angel finds it difficult to adapt to his new assignment in the sleepy British village of Sandford. Not only does he miss the excitement of the big city, but he also has a well-meaning oaf for a partner. However, when a series of grisly accidents rocks Sandford, Angel smells something rotten in the idyllic village.", "poster_path": "/5Jx6s6VXnunh8wCLgR0YgjwSgjh.jpg", "popularity": 22.387}, {"id": 920, "video": false, "vote_count": 8603, "vote_average": 6.7, "title": "Cars", "release_date": "2006-06-08", "original_language": "en", "original_title": "Cars", "genre_ids": [12, 16, 35, 10751], "backdrop_path": "/a1MlbLBk5Sy6YvMbSuKfwGlDVlb.jpg", "adult": false, "overview": "Lightning McQueen, a hotshot rookie race car driven to succeed, discovers that life is about the journey, not the finish line, when he finds himself unexpectedly detoured in the sleepy Route 66 town of Radiator Springs. On route across the country to the big Piston Cup Championship in California to compete against two seasoned pros, McQueen gets to know the town's offbeat characters.", "poster_path": "/jpfkzbIXgKZqCZAkEkFH2VYF63s.jpg", "popularity": 58.103}, {"adult": false, "backdrop_path": "/dJLXWSB6EzxkVLJ4skzXw28DSEj.jpg", "genre_ids": [16, 35, 10751], "id": 9907, "original_language": "en", "original_title": "Barnyard", "overview": "When the farmer's away, all the animals play, and sing, and dance. Eventually, though, someone has to step in and run things, a responsibility that ends up going to Otis, a carefree cow.", "poster_path": "/qlSCUmrflADYlCMbkviJjfujhTH.jpg", "release_date": "2006-08-04", "title": "Barnyard", "video": false, "vote_average": 5.6, "vote_count": 540, "popularity": 20.144}, {"id": 531309, "video": false, "vote_count": 1165, "vote_average": 5.8, "title": "Brightburn", "release_date": "2019-05-09", "original_language": "en", "original_title": "Brightburn", "genre_ids": [27, 878, 53], "backdrop_path": "/j3w3lT3ABvJsVE3byNOMCYmnGMB.jpg", "adult": false, "overview": "What if a child from another world crash-landed on Earth, but instead of becoming a hero to mankind, he proved to be something far more sinister?", "poster_path": "/sJWwkYc9ajwnPRSkqj8Aue5JbKz.jpg", "popularity": 29.783}, {"id": 13700, "video": false, "vote_count": 1154, "vote_average": 5.9, "title": "Home on the Range", "release_date": "2004-04-02", "original_language": "en", "original_title": "Home on the Range", "genre_ids": [16, 10751], "backdrop_path": "/p0COosJqlLSk7Sd9nJvePzY8mx5.jpg", "adult": false, "overview": "When a greedy outlaw schemes to take possession of the \"Patch Of Heaven\" dairy farm, three determined cows, a karate-kicking stallion and a colorful corral of critters join forces to save their home. The stakes are sky-high as this unlikely animal alliance risk their hides and match wits with a mysterious band of bad guys.", "poster_path": "/t44wIRRjQzFw7s56axvYslxpw3h.jpg", "popularity": 17.946}, {"id": 8392, "video": false, "vote_count": 3717, "vote_average": 8.1, "title": "My Neighbor Totoro", "release_date": "1988-04-16", "original_language": "ja", "original_title": "\u3068\u306a\u308a\u306e\u30c8\u30c8\u30ed", "genre_ids": [16, 14, 10751], "backdrop_path": "/hoIqf9YjZM0oQOrFXp8DcucJ3Jg.jpg", "adult": false, "overview": "Two sisters move to the country with their father in order to be closer to their hospitalized mother, and discover the surrounding trees are inhabited by Totoros, magical spirits of the forest. When the youngest runs away from home, the older sister seeks help from the spirits to find her.", "poster_path": "/rtGDOeG9LzoerkDGZF9dnVeLppL.jpg", "popularity": 42.754}, {"id": 128, "video": false, "vote_count": 4190, "vote_average": 8.4, "title": "Princess Mononoke", "release_date": "1997-07-12", "original_language": "ja", "original_title": "\u3082\u306e\u306e\u3051\u59eb", "genre_ids": [12, 16, 14], "backdrop_path": "/aZZCMHAoQcCXaAgbDkSD6JcFL9f.jpg", "adult": false, "overview": "Ashitaka, a prince of the disappearing Emishi people, is cursed by a demonized boar god and must journey to the west to find a cure. Along the way, he encounters San, a young human woman fighting to protect the forest, and Lady Eboshi, who is trying to destroy it. Ashitaka must find a way to bring balance to this conflict.", "poster_path": "/mNqZOtJIQfFQPjo3hmYLIn8Qqhf.jpg", "popularity": 32.056}, {"adult": false, "backdrop_path": "/xiBsA8Qj5KhO4cUKz6RHDtKpBGs.jpg", "genre_ids": [28, 12, 53, 10752], "id": 1368, "original_language": "en", "original_title": "First Blood", "overview": "When former Green Beret John Rambo is harassed by local law enforcement and arrested for vagrancy, the Vietnam vet snaps, runs for the hills and rat-a-tat-tats his way into the action-movie hall of fame. Hounded by a relentless sheriff, Rambo employs heavy-handed guerilla tactics to shake the cops off his tail.", "poster_path": "/wOsPbJixVc80iilfcByLKPAKz6G.jpg", "release_date": "1982-10-22", "title": "First Blood", "video": false, "vote_average": 7.4, "vote_count": 3235, "popularity": 29.852}, {"id": 298312, "video": false, "vote_count": 2924, "vote_average": 6.2, "title": "The Visit", "release_date": "2015-09-10", "original_language": "en", "original_title": "The Visit", "genre_ids": [27, 9648, 53], "backdrop_path": "/gbJlEeALVGo7kx8bC2q4EFWX1Xy.jpg", "adult": false, "overview": "The terrifying story of a brother and sister who are sent to their grandparents' remote Pennsylvania farm for a weeklong trip. Once the children discover that the elderly couple is involved in something deeply disturbing, they see their chances of getting back home are growing smaller every day.", "poster_path": "/32tNtTEQ1vIOLm1hEOSFkVwJT5D.jpg", "popularity": 24.632}, {"id": 548473, "video": false, "vote_count": 11, "vote_average": 5.2, "title": "Color Out of Space", "release_date": "2019-09-20", "original_language": "en", "original_title": "Color Out of Space", "genre_ids": [27, 878], "backdrop_path": "/iyn2JQsftaqhQlXYaCCvn8udM5i.jpg", "adult": false, "overview": "A story of cosmic terror about The Gardners, a family who moves to a remote farmstead in rural New England to escape the hustle of the 21st century. They are busy adapting to their new life when a meteorite crashes into their front yard. The mysterious aerolite seems to melt into the earth, infecting both the land and the properties of space-time with a strange, otherworldly color. To their horror, the Gardner family discover that this alien force is gradually mutating every life form that it touches...including them.", "poster_path": "/vkwgzCBBiY3C1XEy0WakYfMOvnG.jpg", "popularity": 43.621}], "total_pages": 30, "total_results": 584}, "recommendations": {"page": 1, "results": [], "total_pages": 1, "total_results": 0}, "credits": {"cast": [{"cast_id": 0, "character": "Ma Zishan", "credit_id": "583029d2c3a3685ba800c6a8", "gender": 0, "id": 1710902, "name": "Yang Shengcang", "order": 1, "profile_path": null}], "crew": [{"credit_id": "58302a3d92514162c900cf01", "department": "Directing", "gender": 0, "id": 1710905, "job": "Director", "name": "Wang Xuebo", "profile_path": null}, {"credit_id": "58302a5c92514162c600d2bb", "department": "Writing", "gender": 0, "id": 1710906, "job": "Writer", "name": "Shi Shuqing", "profile_path": null}, {"credit_id": "58302a7292514162d200cb9c", "department": "Writing", "gender": 0, "id": 1710907, "job": "Writer", "name": "Ma Jinlian", "profile_path": null}, {"credit_id": "58302a8dc3a3685b9300c544", "department": "Writing", "gender": 0, "id": 1710908, "job": "Writer", "name": "Ma Yue", "profile_path": null}, {"credit_id": "58302aa592514162c900cf83", "department": "Writing", "gender": 0, "id": 1710905, "job": "Writer", "name": "Wang Xuebo", "profile_path": null}]}}