{"adult": false, "backdrop_path": "/gnjZ2KLVsAuuhU52UHulwWSiwhF.jpg", "belongs_to_collection": {"id": 470776, "name": "Mushishi Collection", "poster_path": "/w6QER8iAsvXgSLUNZa5giFzSBRn.jpg", "backdrop_path": "/5457BAb7bFa9xLrjphruXgNuIEp.jpg"}, "budget": 0, "genres": [{"id": 12, "name": "Adventure"}, {"id": 14, "name": "Fantasy"}, {"id": 16, "name": "Animation"}], "homepage": "http://www.mushishi-anime.com/", "id": 427094, "imdb_id": "tt3539986", "original_language": "ja", "original_title": "\u87f2\u5e2b \u7279\u5225\u7bc7\u300c\u65e5\u8755\u3080\u7ff3\u300d", "overview": "A powerful mushi appears during an eclipse, drawing other mushi to form a huge shadow that blocks the sun over a small village. Looking for clues about the mushi, Ginko meets a child who is afflicted by a strange disease that manifests itself when she is exposed to sunlight, and it does not take long for him to find out that both facts are related.", "popularity": 2.061, "poster_path": "/5xamkJttJXRvliizSduR2Nj1Ek2.jpg", "production_companies": [{"id": 2883, "logo_path": "/faCTt5pKVrfcO9GmO3myu6OulAe.png", "name": "Aniplex", "origin_country": "JP"}], "production_countries": [{"iso_3166_1": "JP", "name": "Japan"}], "release_date": "2014-01-14", "revenue": 0, "runtime": 45, "spoken_languages": [{"iso_639_1": "ja", "name": "\u65e5\u672c\u8a9e"}], "status": "Released", "tagline": "", "title": "Mushishi: The Shadow That Devours the Sun", "video": false, "vote_average": 8.7, "vote_count": 13, "keywords": {"keywords": [{"id": 6152, "name": "supernatural"}, {"id": 9914, "name": "slice of life"}, {"id": 210024, "name": "anime"}, {"id": 230720, "name": "ginko"}, {"id": 230721, "name": "mushi"}, {"id": 230722, "name": "mushishi"}, {"id": 249183, "name": "jidaigeki"}]}, "similar": {"page": 1, "results": [{"id": 44251, "video": false, "vote_count": 303, "vote_average": 6.5, "title": "Dragon Ball Z: Broly \u2013 Second Coming", "release_date": "1994-03-12", "original_language": "en", "original_title": "\u30c9\u30e9\u30b4\u30f3\u30dc\u30fc\u30eb\uff3a \u5371\u967a\u306a\u3075\u305f\u308a\uff01\u8d85\u6226\u58eb\u306f\u306d\u3080\u308c\u306a\u3044", "genre_ids": [28, 16, 878], "backdrop_path": "/d0A7xd5Qnm6CCH25HXKHmcBDmmm.jpg", "adult": false, "overview": "A Saiyan Space pod crash-lands on Earth out of which a wounded Saiyan crawls: Broly, the Legendary Super Saiyan. The wounded Broly shouts out in frustration and turns into normal form. The place soon freezes, trapping him in it and he falls into a coma.", "poster_path": "/4CkArpSqySpBQH95Oqr94ktU6rU.jpg", "popularity": 22.313}, {"id": 39108, "video": false, "vote_count": 309, "vote_average": 6.9, "title": "Dragon Ball Z: Wrath of the Dragon", "release_date": "1995-07-15", "original_language": "ja", "original_title": "\u30c9\u30e9\u30b4\u30f3\u30dc\u30fc\u30ebZ \u9f8d\u62f3\u7206\u767a!!\u609f\u7a7a\u304c\u3084\u3089\u306d\u3070\u8ab0\u304c\u3084\u308b", "genre_ids": [28, 16, 14, 878], "backdrop_path": "/fIToeduP96OhbYcg8gHX3P84Hhb.jpg", "adult": false, "overview": "The Z Warriors discover an unopenable music box and are told to open it with the Dragon Balls. The contents turn out to be a warrior named Tapion who had sealed himself inside along with a monster called Hildegarn. Goku must now perfect a new technique to defeat the evil monster.", "poster_path": "/gd3argrGcs6mEHYPmnVHrP11sCG.jpg", "popularity": 17.031}, {"id": 34433, "video": false, "vote_count": 406, "vote_average": 7.2, "title": "Dragon Ball Z: Broly \u2013 The Legendary Super Saiyan", "release_date": "1993-03-06", "original_language": "ja", "original_title": "\u30c9\u30e9\u30b4\u30f3\u30dc\u30fc\u30eb\uff3a \u71c3\u3048\u5c3d\u304d\u308d!!\u71b1\u6226\u30fb\u70c8\u6226\u30fb\u8d85\u6fc0\u6226", "genre_ids": [12, 16, 878, 10751], "backdrop_path": "/7BD19WUy1ERCTeCOuXEg8TKQwzH.jpg", "adult": false, "overview": "As Goku investigates the destruction of the Southern Galaxy, Vegeta is taken to be King of the New Planet Vegeta, and to destroy the Legendary Super Saiyan, Broly.", "poster_path": "/6iO8TJCyLI4BiPYOvdwzPV2bhoV.jpg", "popularity": 24.986}, {"id": 28609, "video": false, "vote_count": 252, "vote_average": 6.4, "title": "Dragon Ball Z: Dead Zone", "release_date": "1989-07-15", "original_language": "ja", "original_title": "\u30c9\u30e9\u30b4\u30f3\u30dc\u30fc\u30eb\uff3a \u30aa\u30e9\u306e\u609f\u98ef\u3092\u304b\u3048\u305b\u30c3!!", "genre_ids": [28, 16], "backdrop_path": "/ygDJnLg2YSTx7sqyXlsMFMmr246.jpg", "adult": false, "overview": "Gohan has been kidnapped! To make matters worse, the evil Garlic Jr. is gathering the Dragonballs to wish for immortality. Only then will Garlic Jr. be able to take over the Earth in order to gain revenge for the death of his father. Goku rushes to save Gohan, but arrives at the fortress just as Garlic Jr. summons the Eternal Dragon! Krillin and Piccolo try to help Goku, but their combined powers.", "poster_path": "/ywtyEDTM2YO7qod7USNNwhrAfvA.jpg", "popularity": 15.028}, {"id": 39105, "video": false, "vote_count": 238, "vote_average": 6.7, "title": "Dragon Ball Z: Bojack Unbound", "release_date": "1993-07-10", "original_language": "ja", "original_title": "\u30c9\u30e9\u30b4\u30f3\u30dc\u30fc\u30ebZ \u9280\u6cb3\u30ae\u30ea\u30ae\u30ea!! \u3076\u3063\u3061\u304e\u308a\u306e\u51c4\u3044\u5974", "genre_ids": [28, 16, 878], "backdrop_path": "/f1gMqxVBYUvxwKly3zL6unAUCYI.jpg", "adult": false, "overview": "Mr. Money is holding another World Martial Arts Tournament and Mr. Satan invites everyone in the world to join in. Little does he know that Bojack, an ancient villain who has escaped his prison, is competing. Since Goku is currently dead, it is up to Gohan, Vegeta, and Trunks to defeat Bojack and his henchman.", "poster_path": "/iihTK9Af8G1ZzBjkIIAV4qQMkzF.jpg", "popularity": 22.721}, {"adult": false, "backdrop_path": "/bnpC1NVyWT61Tsw4gLBLa5wiHIN.jpg", "genre_ids": [28, 16], "id": 39103, "original_language": "ja", "original_title": "\u30c9\u30e9\u30b4\u30f3\u30dc\u30fc\u30ebZ \u6fc0\u7a81!!100\u5104\u30d1\u30ef\u30fc\u306e\u6226\u58eb\u305f\u3061", "overview": "Cooler has resurrected himself as a robot and is enslaving the people of New Namek. Goku and the gang must help.", "poster_path": "/zJn14ySh0NTZCOIReQZiWE1fkje.jpg", "release_date": "1992-03-07", "title": "Dragon Ball Z: The Return of Cooler", "video": false, "vote_average": 6.6, "vote_count": 265, "popularity": 15.544}, {"adult": false, "backdrop_path": "/tr4UmvWNoJ6V5X8vRr0cnKKuJHL.jpg", "genre_ids": [28, 16], "id": 39107, "original_language": "ja", "original_title": "\u30c9\u30e9\u30b4\u30f3\u30dc\u30fc\u30ebZ \u5fa9\u6d3b\u306e\u30d5\u30e5\u30fc\u30b8\u30e7\u30f3!! \u609f\u7a7a\u3068\u30d9\u30b8\u30fc\u30bf", "overview": "Not paying attention to his job, a young demon allows the evil cleansing machine to overflow and explode, turning the young demon into the infamous monster Janemba. Goku and Vegeta make solo attempts to defeat the monster, but realize their only option is fusion.", "poster_path": "/7AHvaEAeQfkfJ4OqcBePxa2ao09.jpg", "release_date": "1995-03-04", "title": "Dragon Ball Z: Fusion Reborn", "video": false, "vote_average": 7.3, "vote_count": 349, "popularity": 15.056}, {"id": 39101, "video": false, "vote_count": 251, "vote_average": 6.4, "title": "Dragon Ball Z: The Tree of Might", "release_date": "1990-06-07", "original_language": "ja", "original_title": "\u30c9\u30e9\u30b4\u30f3\u30dc\u30fc\u30ebZ \u5730\u7403\u307e\u308b\u3054\u3068\u8d85\u6c7a\u6226", "genre_ids": [28, 16, 878], "backdrop_path": "/7VkJkobbwnHFwMO6oETgpfINOLI.jpg", "adult": false, "overview": "The Saiyan named Turles has come to Earth in order to plant a tree that will both destroy the planet and give him infinite strength. Son Goku and the Z Warriors cannot let this happen and duke it out with the invaders for the sake of the planet.", "poster_path": "/fDX4Dp8IKvjBAaEb5MOJrGkxWX0.jpg", "popularity": 13.911}, {"id": 39106, "video": false, "vote_count": 257, "vote_average": 5.7, "title": "Dragon Ball Z: Bio-Broly", "release_date": "1994-07-09", "original_language": "ja", "original_title": "\u30c9\u30e9\u30b4\u30f3\u30dc\u30fc\u30eb\uff3a \u8d85\u6226\u58eb\u6483\u7834!!\u52dd\u306e\u306f\u30aa\u30ec\u3060", "genre_ids": [28, 16, 878], "backdrop_path": "/qhzlAPk65ArrZgE5VJ9IVRkPQwA.jpg", "adult": false, "overview": "Jaga Bada, Mr. Satan's old sparring partner, has invited Satan to his personal island to hold a grudge match. Trunks and Goten decide to come for the adventure and Android #18 is following Satan for the money he owes her. Little do they know that Jaga Bada's scientist have found a way to resurrect Broly, the legendary Super Saiyan.", "poster_path": "/zndqKR7TTDVWMgD0CSqARVugXoP.jpg", "popularity": 13.389}, {"id": 39102, "video": false, "vote_count": 235, "vote_average": 6.1, "title": "Dragon Ball Z: Lord Slug", "release_date": "1991-03-19", "original_language": "ja", "original_title": "\u30c9\u30e9\u30b4\u30f3\u30dc\u30fc\u30eb\u30bc\u30c3\u30c8 \u8d85\u30b9\u30fc\u30d1\u30fc\u30b5\u30a4\u30e4\u4eba\u3058\u3093\u3060\u5b6b\u305d\u3093\u609f\u3054\u7a7a\u304f\u3046", "genre_ids": [28, 12, 16], "backdrop_path": "/oKoIReYCW7HuhNetXIC7ZdZhTcN.jpg", "adult": false, "overview": "A Super Namekian named Slug comes to invade Earth. But the Z Warriors do their best to stop Slug and his gang.", "poster_path": "/vO44QmFFjLzckUxNfzjBPuKHm2N.jpg", "popularity": 17.577}, {"adult": false, "backdrop_path": "/hueqzPuLGq2FAMBxFgEF9ymtqrZ.jpg", "genre_ids": [28, 16, 12], "id": 24752, "original_language": "ja", "original_title": "Doragon b\u00f4ru Z 5: Tobikkiri no saiky\u00f4 tai saiky\u00f4", "overview": "After defeating Frieza, Goku returns to Earth and goes on a camping trip with Gohan and Krillin. Everything is normal until Cooler - Frieza's brother - sends three henchmen after Goku. A long fight ensues between our heroes and Cooler, in which he transforms into the fourth stage of his evolution and has the edge in the fight... until Goku transforms into a Super Saiyan.", "poster_path": "/ywZWtNVTO7rGSFvOAPWpdmZlO6k.jpg", "release_date": "1991-07-20", "title": "Dragon Ball Z: Cooler's Revenge", "video": false, "vote_average": 6.7, "vote_count": 278, "popularity": 14.228}, {"adult": false, "backdrop_path": "/AqocxdL9luA7ALU0gGSHDzDy254.jpg", "genre_ids": [14, 16, 18, 878], "id": 14069, "original_language": "ja", "original_title": "\u6642\u3092\u304b\u3051\u308b\u5c11\u5973", "overview": "When 17-year-old Makoto Konno gains the ability to, quite literally, \"leap\" backwards through time, she immediately sets about improving her grades and preventing personal mishaps. However, she soon realises that changing the past isn't as simple as it seems, and eventually, will have to rely on her new powers to shape the future of herself and her friends.", "poster_path": "/7oNeWrsaiMGxCrvkWjQ56y6JN85.jpg", "release_date": "2006-07-15", "title": "The Girl Who Leapt Through Time", "video": false, "vote_average": 7.8, "vote_count": 1043, "popularity": 22.298}, {"id": 81, "video": false, "vote_count": 1618, "vote_average": 7.9, "title": "Nausica\u00e4 of the Valley of the Wind", "release_date": "1984-03-11", "original_language": "ja", "original_title": "\u98a8\u306e\u8c37\u306e\u30ca\u30a6\u30b7\u30ab", "genre_ids": [12, 16, 14], "backdrop_path": "/qKIldRZ3jy3uGWdrNIt3P7QA5J3.jpg", "adult": false, "overview": "After a global war, the seaside kingdom known as the Valley of the Wind remains one of the last strongholds on Earth untouched by a poisonous jungle and the powerful insects that guard it. Led by the courageous Princess Nausica\u00e4, the people of the Valley engage in an epic struggle to restore the bond between humanity and Earth.", "poster_path": "/hnYowHwLq0iUWriAHtiiCWsI2dP.jpg", "popularity": 31.577}, {"id": 9323, "video": false, "vote_count": 1641, "vote_average": 7.9, "title": "Ghost in the Shell", "release_date": "1995-11-18", "original_language": "ja", "original_title": "GHOST IN THE SHELL", "genre_ids": [28, 16, 878], "backdrop_path": "/m1LUdsYnFThcrbvRzlpbsFioEQT.jpg", "adult": false, "overview": "In the year 2029, the barriers of our world have been broken down by the net and by cybernetics, but this brings new vulnerability to humans in the form of brain-hacking. When a highly-wanted hacker known as 'The Puppetmaster' begins involving them in politics, Section 9, a group of cybernetically enhanced cops, are called in to investigate and stop the Puppetmaster.", "poster_path": "/9gC88zYUBARRSThcG93MvW14sqx.jpg", "popularity": 21.491}, {"id": 372058, "video": false, "vote_count": 4878, "vote_average": 8.5, "title": "Your Name.", "release_date": "2016-08-26", "original_language": "ja", "original_title": "\u541b\u306e\u540d\u306f\u3002", "genre_ids": [16, 18, 10749], "backdrop_path": "/7OMAfDJikBxItZBIug0NJig5DHD.jpg", "adult": false, "overview": "High schoolers Mitsuha and Taki are complete strangers living separate lives. But one night, they suddenly switch places. Mitsuha wakes up in Taki\u2019s body, and he in hers. This bizarre occurrence continues to happen randomly, and the two must adjust their lives around each other.", "poster_path": "/xq1Ugd62d23K2knRUx6xxuALTZB.jpg", "popularity": 40.419}, {"id": 390634, "video": false, "vote_count": 75, "vote_average": 5.7, "title": "Fate/Stay Night: Heaven's Feel II. Lost Butterfly", "release_date": "2019-01-12", "original_language": "ja", "original_title": "\u5287\u5834\u7248 Fate\uff0fstay night [Heaven's Feel] II. lost butterfly", "genre_ids": [28, 16, 18, 14], "backdrop_path": "/8WlEeHKf0BIydR1kWnOVHSSWugi.jpg", "adult": false, "overview": "Theatrical-release adaptation of the visual novel \"Fate/stay night\", following the third and final route. (Part 2 of a trilogy.)", "poster_path": "/4tS0iyKQBDFqVpVcH21MSJwXZdq.jpg", "popularity": 22.645}, {"adult": false, "backdrop_path": "/uHvgDdURWUQwQ0y1wb3I9Q0dHfV.jpg", "genre_ids": [28, 16], "id": 39100, "original_language": "ja", "original_title": "\u30c9\u30e9\u30b4\u30f3\u30dc\u30fc\u30ebZ \u3053\u306e\u4e16\u3067\u4e00\u756a\u5f37\u3044\u30e4\u30c4", "overview": "The evil Dr. Kochin uses the dragon balls to resurrect his mentor, Dr. Wheelo, in an effort to take over the world. Dr. Wheelo, his body having been destroyed by the avalanche that killed him fifty years before, desires the body of the strongest fighter in the world as his new vessel. Believing Roshi to be the world's strongest warrior, Dr. Kochin abducts Bulma and forces Roshi to surrender himself to save her. When Goku hears of their abduction, he goes to their rescue.", "poster_path": "/5elbm3iLgGQ6nA5vqUmi9vIojbF.jpg", "release_date": "1990-03-10", "title": "Dragon Ball Z: The World's Strongest", "video": false, "vote_average": 6.2, "vote_count": 226, "popularity": 11.79}, {"adult": false, "backdrop_path": "/AfyuI3glMCBDFmNPj9PY6DwbgGp.jpg", "genre_ids": [18, 878, 16], "id": 18491, "original_language": "ja", "original_title": "\u65b0\u4e16\u7d00\u30a8\u30f4\u30a1\u30f3\u30b2\u30ea\u30aa\u30f3\u5287\u5834\u7248 THE END OF EVANGELION", "overview": "The second of two theatrically released follow-ups to the Neon Genesis Evangelion series. Comprising of two alternate episodes which were first intended to take the place of episodes 25 and 26, this finale answers many of the questions surrounding the series, while also opening up some new possibilities.", "poster_path": "/5JYzfyKBwReaQ41WFhqXgOZnPWV.jpg", "release_date": "1997-07-19", "title": "Neon Genesis Evangelion: The End of Evangelion", "video": false, "vote_average": 8.4, "vote_count": 462, "popularity": 16.261}, {"id": 39104, "video": false, "vote_count": 228, "vote_average": 6.6, "title": "Dragon Ball Z: Super Android 13!", "release_date": "1992-07-11", "original_language": "ja", "original_title": "\u30c9\u30e9\u30b4\u30f3\u30dc\u30fc\u30eb\uff3a \u6975\u9650\u30d0\u30c8\u30eb\uff01\u4e09\u5927\u8d85\u30b5\u30a4\u30e4\u4eba", "genre_ids": [28, 16, 878], "backdrop_path": "/uTd9eyJllmIbbIRbyzIXpzCMsdq.jpg", "adult": false, "overview": "Dr. Gero's Androids #13, #14, and #15 are awakened by the laboratory computers and immediately head to the mall where Goku is shopping. After Goku, Trunks, and Vegeta defeat #14 and #15, #13 absorbs their inner computers and becomes a super being greater than the original three separately were. Now it is up to Goku to stop him.", "poster_path": "/uVJqC187rKxQ1sJsWlKjNfAzeTk.jpg", "popularity": 16.432}, {"id": 378064, "video": false, "vote_count": 1330, "vote_average": 8.3, "title": "A Silent Voice", "release_date": "2016-09-17", "original_language": "ja", "original_title": "\u8072\u306e\u5f62", "genre_ids": [16, 18, 10749], "backdrop_path": "/q5HZvtyqG8Vz39Ee9uTQbLeEml.jpg", "adult": false, "overview": "Shouya Ishida starts bullying the new girl in class, Shouko Nishimiya, because she is deaf. But as the teasing continues, the rest of the class starts to turn on Shouya for his lack of compassion. When they leave elementary school, Shouko and Shouya do not speak to each other again... until an older, wiser Shouya, tormented by his past behaviour, decides he must see Shouko once more. He wants to atone for his sins, but is it already too late...?", "poster_path": "/drlyoSKDOPnxzJFrRWGqzDsyJvR.jpg", "popularity": 17.997}], "total_pages": 17, "total_results": 333}, "recommendations": {"page": 1, "results": [{"adult": false, "backdrop_path": "/h63MeHRXu98kQXvBNpHEqL9LzCw.jpg", "genre_ids": [14, 12, 9648, 16], "id": 312966, "original_language": "ja", "original_title": "\u87f2\u5e2b \u7d9a\u7ae0\u300c\u9234\u306e\u96eb\u300d", "overview": "Ginko stumbles upon a young girl in a mountain with branches and leaves growing out of her body. He later realises that she is the lord of that mountain but finds it strange that a human like her was chosen as the lord. He meets her older brother who has continued to search for her ever since she disappeared while accompanying him on a stormy day. The story is about that girl, Kaya, and how she is torn between continuing her duty as a mushi lord and returning back to her loving human family.", "poster_path": "/jVYqJSwnRrQAcpxJKcApIiXM0WQ.jpg", "release_date": "2015-05-16", "title": "Mushishi: The Next Chapter - Drops of Bells", "video": false, "vote_average": 8.6, "vote_count": 17, "popularity": 4.346}, {"id": 418916, "video": false, "vote_count": 10, "vote_average": 6.2, "title": "Beruseruku", "release_date": "2017-02-18", "original_language": "ja", "original_title": "Beruseruku", "genre_ids": [16], "backdrop_path": "/hZJ4wFKbVREHVdVovW0THQGGaQs.jpg", "adult": false, "overview": "", "poster_path": "/1V8hbOh5Rbc7T2izctnbsLu4ODX.jpg", "popularity": 1.532}, {"adult": false, "backdrop_path": "/AunkNkQH1La8kzp3MZGc03QMKNB.jpg", "genre_ids": [10770, 53, 16, 80, 18, 14], "id": 68555, "original_language": "ja", "original_title": "DEATH NOTE \u30ea\u30e9\u30a4\u30c82 L\u3092\u7d99\u3050\u8005", "overview": "After the events of the first movie Yagami Light faces two new adversaries as he is trying to create a perfect world without crime or criminals. This movie continues the first tv special and is a summary of the last 12 episodes of the tv anime", "poster_path": "/qDhbGqjZ7yFwa7FMIzuiQTQMfEQ.jpg", "release_date": "2009-10-07", "title": "Death Note Relight 2: L's Successors", "video": false, "vote_average": 7.1, "vote_count": 36, "popularity": 3.834}, {"id": 185526, "video": false, "vote_count": 16, "vote_average": 6.0, "title": "Code Geass: Akito the Exiled 1: The Wyvern Arrives", "release_date": "2012-07-12", "original_language": "ja", "original_title": "\u30b3\u30fc\u30c9\u30ae\u30a2\u30b9 \u4ea1\u56fd\u306e\u30a2\u30ad\u30c8 \u7b2c1\u7ae0\u300c\u7ffc\u7adc\u306f\u821e\u3044\u964d\u308a\u305f\u300d", "genre_ids": [28, 16, 878], "backdrop_path": "/72Pgfgg9zKI2MjY57AObWeeZS0V.jpg", "adult": false, "overview": "The side story takes place in 2017 a.t.b., between the rise of the \u201cBlack Knights\u201d organization and the return of the supposedly \"dead\" Zero. The setting is in Europe, where the European Union (E.U.) allied nations are being invaded by the overwhelming forces of the Holy Britannian Empire. On the verge of defeat, the E.U. army forms a special unit known as \u201cW-0\u2033, of which a young pilot named Akito Hyuga is a member. Leila Malkal , a former Britannian Aristocrat comes to the E.U.'s aid, commanding the \u201cWyvern\u201d Knightmare corps comprised of Japanese teenagers. They recklessly plunge into a battlefield, where the survival rate is extremely low, at about 5% only. They fight for their freedom and for a \"home\" to which they can return.", "poster_path": "/ifXVi6kU00HlFuVJNjtCrfxyhGg.jpg", "popularity": 5.356}, {"id": 212161, "video": false, "vote_count": 17, "vote_average": 5.7, "title": "Code Geass: Akito the Exiled 2: The Wyvern Divided", "release_date": "2013-09-14", "original_language": "ja", "original_title": "\u30b3\u30fc\u30c9\u30ae\u30a2\u30b9 \u4ea1\u56fd\u306e\u30a2\u30ad\u30c8 \u7b2c2\u7ae0\u300c\u5f15\u304d\u88c2\u304b\u308c\u3057\u7ffc\u7adc\u300d", "genre_ids": [28, 16], "backdrop_path": "/cO5EOqiuhklv0t9UECzPG33UbP9.jpg", "adult": false, "overview": "The war between Euro Britannia and the European Union  continues. New orders are given to the W-0 Unit. To land in the middle of the enemy territory as a diversion.  The pilots of the W-0 Unit consist only of the commanding officer, Leila, the only surviving Japanese from their last battle, Akito, and the three that escaped from the Eleven ghettos and lived in the underworld, Ryou, Yukiya, and Ayano. With everyone holding their respective expectations, the operation moves forward.  On the other side in Euro Britannia, Shin, who made his benefactor commit suicide with the mysterious power of \u201cGeass\u201d, is appointed the leader of the Knights of St. Michael. As Shin steadily advances for the sake of his own ambition, he and his subordinates in the Ashura squad are given orders to deploy.  The one that lives in order to fight, and the one that fights in order to live.", "poster_path": "/oyklF3LHto3jdwrVmQaze5Q3EDM.jpg", "popularity": 4.542}, {"adult": false, "backdrop_path": "/iK4pOwS1L7q7OWI1SuQErOsRZUA.jpg", "genre_ids": [27, 53, 9648], "id": 129743, "original_language": "ja", "original_title": "\u30a2\u30ca\u30b6\u30fc", "overview": "After a chain of deaths at a junior high school, new transfer student Koichi Sakakibara turns to a mysterious girl who holds the key to the dark mystery.", "poster_path": "/ctHyKFAwCBDopnXnMORWfHzJQTH.jpg", "release_date": "2012-08-04", "title": "Another", "video": false, "vote_average": 6.3, "vote_count": 22, "popularity": 3.576}, {"id": 51482, "video": false, "vote_count": 77, "vote_average": 7.8, "title": "Death Note Relight 1: Visions of a God", "release_date": "2007-08-31", "original_language": "ja", "original_title": "Death Note: \u30c7\u30b9\u30ce\u30fc\u30c8", "genre_ids": [16, 80, 18, 14, 53, 10770], "backdrop_path": "/wsE1ScIiFdKl9RLuaI8pTn4rjxR.jpg", "adult": false, "overview": "Yagami Light is an ace student with great prospects, who's bored out of his mind. One day he finds the \"Death Note\": a notebook from the realm of the Death Gods, with the power to kill people in any way he desires. With the Death Note in hand, Light decides to create his perfect world, without crime or criminals. However, when criminals start dropping dead one by one, the authorites send the legendary detective L to track down the killer, and a battle of wits, deception and logic ensues...this was aired on Japanese tv shortly after the death note anime was completed, this special basically re-cuts the first 26 episodes of the series into a two hour movie with some new scenes and dialogue added and the story is seen from ryuk's viewpoint.", "poster_path": "/2cF6EOgr3kNTD6C7FLQS1MnibpJ.jpg", "popularity": 10.826}, {"id": 186919, "video": false, "vote_count": 52, "vote_average": 7.2, "title": "Death Billiards", "release_date": "2013-03-01", "original_language": "ja", "original_title": "\u30c7\u30b9\u30fb\u30d3\u30ea\u30e4\u30fc\u30c9", "genre_ids": [16, 18, 9648], "backdrop_path": "/1QcjsQhliKeUvgPmiOb70KqeF01.jpg", "adult": false, "overview": "Death Billiards is one of the four anime works that each received 38 million yen (about US$480,000) from the \"2012 Young Animator Training Project.\" Just like in 2010 and 2011, the animation labor group received 214.5 million yen (US$2.65 million) from the Japanese government's Agency for Cultural Affairs, and it distributed most of those funds to studios who train young animators on-the-job.  An old and a young man find themselves in a mysterious bar where they have to play a game of billiard. The bet: their lives.", "poster_path": "/g184xEZWxXSBtHkwZkJxYBp00Hn.jpg", "popularity": 3.687}], "total_pages": 1, "total_results": 8}, "credits": {"cast": [{"cast_id": 23, "character": "Ginko (voice)", "credit_id": "5bf63834c3a368637505d93e", "gender": 2, "id": 1249718, "name": "Yuto Nakano", "order": 0, "profile_path": "/9DsqegVi0fNayfaSNpKwrCkkvls.jpg"}, {"cast_id": 0, "character": "Tanyuu (voice)", "credit_id": "58341fe99251416d57001fd9", "gender": 0, "id": 68918, "name": "Ai Kobayashi", "order": 1, "profile_path": "/90iLbU0MZ4gQ9ddi8Sf0wMSPoTE.jpg"}, {"cast_id": 17, "character": "Narrator (voice)", "credit_id": "586ff4389251412af30011a0", "gender": 1, "id": 76396, "name": "Mika Doi", "order": 2, "profile_path": "/hcYnk5hKsPXZxJMLv62fr4HBsIW.jpg"}, {"cast_id": 19, "character": "Adashino (voice)", "credit_id": "5ae46f82c3a3686dff0059e5", "gender": 2, "id": 65427, "name": "Yuji Ueda", "order": 3, "profile_path": "/b7gFUNNUPGyrfuvBf8AW4DaziYX.jpg"}, {"cast_id": 3, "character": "Hinata (voice)", "credit_id": "583420b1c3a3682ea1001e34", "gender": 0, "id": 1712469, "name": "Rio Sasaki", "order": 4, "profile_path": null}, {"cast_id": 4, "character": "Hiyori (voice)", "credit_id": "583435899251416a3100356a", "gender": 1, "id": 1712518, "name": "Yuna Watanabe", "order": 5, "profile_path": null}, {"cast_id": 7, "character": "Hiyori's father / Hinata's father (voice)", "credit_id": "583436439251416d22003205", "gender": 0, "id": 1712521, "name": "Shirou Arai", "order": 6, "profile_path": null}, {"cast_id": 9, "character": "Old woman (voice)", "credit_id": "583436e3c3a3682f9d00340a", "gender": 0, "id": 1712523, "name": "Mariko Shimura", "order": 7, "profile_path": null}, {"cast_id": 25, "character": "Girl (voice)", "credit_id": "5e0f52cf663b8700137f3cac", "gender": 0, "id": 1647369, "name": "Rina Endou", "order": 8, "profile_path": "/23SIShLkrOGaofGan6aYHMDXOoI.jpg"}, {"cast_id": 20, "character": "Tama (voice)", "credit_id": "5af52e40c3a3682a840025d6", "gender": 1, "id": 615, "name": "Hisako Kyouda", "order": 10, "profile_path": "/fv3D3Q5j5U1D9ddoKrjoLwm4KxL.jpg"}, {"cast_id": 24, "character": "Tanyuu Karibusa (voice)", "credit_id": "5c370336925141531624fce2", "gender": 0, "id": 9724, "name": "Miyuu Tsuzuhara", "order": 11, "profile_path": null}], "crew": [{"credit_id": "58343935c3a3682f9d003702", "department": "Art", "gender": 0, "id": 552042, "job": "Production Design", "name": "Yoshihiko Umakoshi", "profile_path": null}, {"credit_id": "5a0632dcc3a36878770027af", "department": "Sound", "gender": 2, "id": 1123380, "job": "Music", "name": "Toshio Masuda", "profile_path": "/yMNed4jByLWpYZM8UjxDt2vKAYO.jpg"}, {"credit_id": "5bc34b950e0a266e5704a639", "department": "Directing", "gender": 2, "id": 1336147, "job": "Director", "name": "Hiroshi Nagahama", "profile_path": null}, {"credit_id": "5bc34b8ac3a3682d60049fb7", "department": "Writing", "gender": 2, "id": 1336147, "job": "Storyboard", "name": "Hiroshi Nagahama", "profile_path": null}, {"credit_id": "583438ee9251416d22003520", "department": "Crew", "gender": 0, "id": 1712532, "job": "Creator", "name": "Yuki Urushibara", "profile_path": null}]}}