{"adult": false, "backdrop_path": "/zqb5CfArk5FLXAQQrmQptgg9wb9.jpg", "belongs_to_collection": null, "budget": 0, "genres": [{"id": 28, "name": "Action"}, {"id": 12, "name": "Adventure"}, {"id": 18, "name": "Drama"}, {"id": 37, "name": "Western"}], "homepage": null, "id": 42706, "imdb_id": "tt0109835", "original_language": "en", "original_title": "Frank & Jesse", "overview": "At the end of the Civil War, Frank and Jesse James and other former guerillas who rode with Quantrill and Bill Anderson take the oath of allegiance to the Union. Feeling oppressed by Chicago railroad investors, the James and Younger brothers, Bob and Charlie Ford, Clell Miller and Arch Clements take to robbing banks, trains and coaches, with Pinkerton sworn to bringing them to justice.", "popularity": 4.461, "poster_path": "/dGwKgrMhOGXJBEkcgluwCsO2FJL.jpg", "production_companies": [{"id": 4063, "logo_path": null, "name": "Trimark Pictures", "origin_country": ""}], "production_countries": [{"iso_3166_1": "US", "name": "United States of America"}], "release_date": "1995-04-22", "revenue": 0, "runtime": 105, "spoken_languages": [{"iso_639_1": "en", "name": "English"}, {"iso_639_1": "it", "name": "Italiano"}], "status": "Released", "tagline": "The civil war made them outlaws. The people made them heroes", "title": "Frank & Jesse", "video": false, "vote_average": 5.6, "vote_count": 11, "keywords": {"keywords": [{"id": 9503, "name": "outlaw"}, {"id": 9910, "name": "jesse james"}]}, "similar": {"page": 1, "results": [{"id": 13496, "video": false, "vote_count": 116, "vote_average": 6.0, "title": "American Outlaws", "release_date": "2001-08-17", "original_language": "en", "original_title": "American Outlaws", "genre_ids": [28, 37], "backdrop_path": "/3AK7QCIA9j2u5ux6zjF1eDfd1Mt.jpg", "adult": false, "overview": "When a Midwest town learns that a corrupt railroad baron has captured the deeds to their homesteads without their knowledge, a group of young ranchers join forces to take back what is rightfully theirs. They will become the object of the biggest manhunt in the history of the Old West and, as their fame grows, so will the legend of their leader, a young outlaw by the name of Jessie James.", "poster_path": "/cijrhkluznw3T6ZAh2wDP5EUtOs.jpg", "popularity": 9.976}, {"id": 11967, "video": false, "vote_count": 471, "vote_average": 6.7, "title": "Young Guns", "release_date": "1988-08-12", "original_language": "en", "original_title": "Young Guns", "genre_ids": [28, 12, 80, 18, 37], "backdrop_path": "/llVClV0i94ELiR9dO47fJkPwbq6.jpg", "adult": false, "overview": "A group of young gunmen, led by Billy the Kid, become deputies to avenge the murder of the rancher who became their benefactor. But when Billy takes their authority too far, they become the hunted.", "poster_path": "/wkGbwWHIM23BkmMBm7GQHaCZan8.jpg", "popularity": 13.707}, {"id": 14168, "video": false, "vote_count": 156, "vote_average": 7.2, "title": "3:10 to Yuma", "release_date": "1957-08-07", "original_language": "en", "original_title": "3:10 to Yuma", "genre_ids": [18, 37], "backdrop_path": "/FcOQrN9GBRxuDpOZ2nXO3XXkCp.jpg", "adult": false, "overview": "Dave Evans, a small time farmer, is hired to escort Ben Wade, a dangerous outlaw, to Yuma. As Evans and Wade wait for the 3:10 train to Yuma, Wade's gang is racing to free him.", "poster_path": "/nyyemW49MCCvxIvX1PslAgKnZmd.jpg", "popularity": 10.33}, {"id": 49849, "video": false, "vote_count": 3359, "vote_average": 5.5, "title": "Cowboys & Aliens", "release_date": "2011-07-29", "original_language": "en", "original_title": "Cowboys & Aliens", "genre_ids": [28, 878, 53, 37], "backdrop_path": "/gTDwoJBCu7scwYQoykIlLNpkCes.jpg", "adult": false, "overview": "A stranger stumbles into the desert town of Absolution with no memory of his past and a futuristic shackle around his wrist. With the help of mysterious beauty Ella and the iron-fisted Colonel Dolarhyde, he finds himself leading an unlikely posse of cowboys, outlaws, and Apache warriors against a common enemy from beyond this world in an epic showdown for survival.", "poster_path": "/9uZsGCP4rvOHVGCpMpYq5gNCuNI.jpg", "popularity": 18.7}, {"id": 223485, "video": false, "vote_count": 586, "vote_average": 6.6, "title": "Slow West", "release_date": "2015-04-16", "original_language": "en", "original_title": "Slow West", "genre_ids": [28, 18, 53, 37, 10749], "backdrop_path": "/9qF6lhj6X0ImH4iWGZs1uspXJI0.jpg", "adult": false, "overview": "In the Old West, a 17-year-old Scottish boy teams up with a mysterious gunman to find the woman with whom he is infatuated.", "poster_path": "/uZ9dBBn0GaEw0YIBvQd01Io3pho.jpg", "popularity": 8.055}, {"adult": false, "backdrop_path": "/fX6o5DCdGVEEZ1OT1IourOUkQMb.jpg", "genre_ids": [16, 35, 10751, 37, 12], "id": 44896, "original_language": "en", "original_title": "Rango", "overview": "When Rango, a lost family pet, accidentally winds up in the gritty, gun-slinging town of Dirt, the less-than-courageous lizard suddenly finds he stands out. Welcomed as the last hope the town has been waiting for, new Sheriff Rango is forced to play his new role to the hilt.", "poster_path": "/afxRbCwwKjrWgGJtsVNs1BW1Dk5.jpg", "release_date": "2011-03-02", "title": "Rango", "video": false, "vote_average": 6.6, "vote_count": 3767, "popularity": 18.996}, {"id": 9086, "video": false, "vote_count": 279, "vote_average": 6.5, "title": "Young Guns II", "release_date": "1990-08-01", "original_language": "en", "original_title": "Young Guns II", "genre_ids": [12, 37], "backdrop_path": "/lWq7vZn4XKg2E7nLxgzo7hDK35g.jpg", "adult": false, "overview": "Three of the original five \"young guns\" \u2014 Billy the Kid (Emilio Estevez), Jose Chavez y Chavez (Lou Diamond Phillips), and Doc Scurlock (Kiefer Sutherland) \u2014 return in Young Guns, Part 2, which is the story of Billy the Kid and his race to safety in Old Mexico while being trailed by a group of government agents led by Pat Garrett.", "poster_path": "/nJ14tdF1nXEJjJp5A7mSxo2dNHn.jpg", "popularity": 10.374}, {"adult": false, "backdrop_path": "/xGC2fY5KFmtuXnsuQwYQKFOLZFy.jpg", "genre_ids": [37], "id": 429, "original_language": "it", "original_title": "Il buono, il brutto, il cattivo", "overview": "While the Civil War rages between the Union and the Confederacy, three men \u2013 a quiet loner, a ruthless hit man and a Mexican bandit \u2013 comb the American Southwest in search of a strongbox containing $200,000 in stolen gold.", "poster_path": "/wfPHdfofBD5PN96dV96a51B3Ja2.jpg", "release_date": "1966-12-23", "title": "The Good, the Bad and the Ugly", "video": false, "vote_average": 8.4, "vote_count": 4579, "popularity": 36.175}, {"id": 196, "video": false, "vote_count": 6110, "vote_average": 7.4, "title": "Back to the Future Part III", "release_date": "1990-05-25", "original_language": "en", "original_title": "Back to the Future Part III", "genre_ids": [12, 35, 878], "backdrop_path": "/pP2a4MBQbIeZMbErBWMjxTT5Npb.jpg", "adult": false, "overview": "The final installment of the Back to the Future trilogy finds Marty digging the trusty DeLorean out of a mineshaft and looking for Doc in the Wild West of 1885. But when their time machine breaks down, the travelers are stranded in a land of spurs. More problems arise when Doc falls for pretty schoolteacher Clara Clayton, and Marty tangles with Buford Tannen.", "poster_path": "/6DmgPTZYaug7QNDjOhUDWyjOQDl.jpg", "popularity": 17.191}, {"id": 492565, "video": false, "vote_count": 90, "vote_average": 6.0, "title": "The Kid", "release_date": "2019-03-08", "original_language": "en", "original_title": "The Kid", "genre_ids": [18, 37], "backdrop_path": "/qogeijTQKJB3XtopMolADVQcnBG.jpg", "adult": false, "overview": "New Mexico Territory, 1880. Rio Cutler and his older sister Sara must abandon their home after an unfortunate event happens. In their desperate flee to Santa Fe, they cross paths with the infamous outlaw Billy the Kid and his gang, who are ruthlessly pursued by a posse led by Sheriff Pat Garret.", "poster_path": "/8zWFMU70cFbKZ45QWQnsfxV1RPz.jpg", "popularity": 10.665}, {"adult": false, "backdrop_path": "/uQqQvmptJLPTcWDrZXn22p7j7s3.jpg", "genre_ids": [28, 80, 18, 53], "id": 395990, "original_language": "en", "original_title": "Death Wish", "overview": "A mild-mannered father is transformed into a killing machine after his family is torn apart by a violent act.", "poster_path": "/g0eEEZAqMf98ULQnoiORuazjOpn.jpg", "release_date": "2018-03-02", "title": "Death Wish", "video": false, "vote_average": 5.9, "vote_count": 1402, "popularity": 22.854}, {"id": 68718, "video": false, "vote_count": 17247, "vote_average": 8.1, "title": "Django Unchained", "release_date": "2012-12-25", "original_language": "en", "original_title": "Django Unchained", "genre_ids": [18, 37], "backdrop_path": "/qUcmEqnzIwlwZxSyTf3WliSfAjJ.jpg", "adult": false, "overview": "With the help of a German bounty hunter, a freed slave sets out to rescue his wife from a brutal Mississippi plantation owner.", "poster_path": "/eCt596Z4zkqxW5AHz1HEhGm1eif.jpg", "popularity": 47.791}, {"id": 400535, "video": false, "vote_count": 1615, "vote_average": 6.7, "title": "Sicario: Day of the Soldado", "release_date": "2018-06-27", "original_language": "en", "original_title": "Sicario: Day of the Soldado", "genre_ids": [28, 80, 18, 53], "backdrop_path": "/13VjjUeJ6mcDUB36XRu4YFpYNSm.jpg", "adult": false, "overview": "Agent Matt Graver teams up with operative Alejandro Gillick to prevent Mexican drug cartels from smuggling terrorists across the United States border.", "poster_path": "/msqWSQkU403cQKjQHnWLnugv7EY.jpg", "popularity": 29.236}, {"id": 375588, "video": false, "vote_count": 1640, "vote_average": 5.8, "title": "Robin Hood", "release_date": "2018-11-21", "original_language": "en", "original_title": "Robin Hood", "genre_ids": [28, 12, 53], "backdrop_path": "/axjFiijtxdfK3CD9dMwrdgLwblD.jpg", "adult": false, "overview": "A war-hardened Crusader and his Moorish commander mount an audacious revolt against the corrupt English crown.", "poster_path": "/AiRfixFcfTkNbn2A73qVJPlpkUo.jpg", "popularity": 26.122}, {"id": 18, "video": false, "vote_count": 6834, "vote_average": 7.5, "title": "The Fifth Element", "release_date": "1997-05-02", "original_language": "en", "original_title": "The Fifth Element", "genre_ids": [28, 12, 14, 878, 53], "backdrop_path": "/qlGoGQSVMzIjGbpvXzZUOH1FjNu.jpg", "adult": false, "overview": "In 2257, a taxi driver is unintentionally given the task of saving a young girl who is part of the key that will ensure the survival of humanity.", "poster_path": "/zaFa1NRZEnFgRTv5OVXkNIZO78O.jpg", "popularity": 40.969}, {"adult": false, "backdrop_path": "/5cU4aQsBVCAnDarJHGYmi6RRRGC.jpg", "genre_ids": [12, 37], "id": 576, "original_language": "en", "original_title": "The Wild Bunch", "overview": "Aging outlaw, Pike Bishop prepares to retire after one final robbery. Joined by his gang, Dutch Engstrom and brothers Lyle and Tector Gorch, Bishop discovers the heist is a setup orchestrated in part by a former partner, Deke Thornton. As the remaining gang takes refuge in Mexican territory, Thornton trails them\u2014resulting in fierce gunfights with plenty of casualties.", "poster_path": "/zZhp7p8qvfVrSLKpOFHcKjpEj8f.jpg", "release_date": "1969-06-17", "title": "The Wild Bunch", "video": false, "vote_average": 7.7, "vote_count": 556, "popularity": 16.732}, {"id": 2503, "video": false, "vote_count": 4834, "vote_average": 7.4, "title": "The Bourne Ultimatum", "release_date": "2007-08-03", "original_language": "en", "original_title": "The Bourne Ultimatum", "genre_ids": [28, 18, 9648, 53], "backdrop_path": "/6WpDOqkZFmhNJ0rwuLJiZVKlZi1.jpg", "adult": false, "overview": "Bourne is brought out of hiding once again by reporter Simon Ross who is trying to unveil Operation Blackbriar, an upgrade to Project Treadstone, in a series of newspaper columns. Information from the reporter stirs a new set of memories, and Bourne must finally uncover his dark past while dodging The Company's best efforts to eradicate him.", "poster_path": "/fHho6JYYY0nRcETWSoeI19iZsNF.jpg", "popularity": 17.539}, {"id": 2501, "video": false, "vote_count": 5865, "vote_average": 7.4, "title": "The Bourne Identity", "release_date": "2002-06-14", "original_language": "en", "original_title": "The Bourne Identity", "genre_ids": [28, 18, 9648, 53], "backdrop_path": "/2Fr1vqBiDn8xRJM9elcplzHctTN.jpg", "adult": false, "overview": "Wounded to the brink of death and suffering from amnesia, Jason Bourne is rescued at sea by a fisherman. With nothing to go on but a Swiss bank account number, he starts to reconstruct his life, but finds that many people he encounters want him dead. However, Bourne realizes that he has the combat and mental skills of a world-class spy\u2014but who does he work for?", "poster_path": "/bXQIL36VQdzJ69lcjQR1WQzJqQR.jpg", "popularity": 25.563}, {"adult": false, "backdrop_path": "/e1svWjxTXMOmdgkVLSPHSfWv90R.jpg", "genre_ids": [28, 18, 53], "id": 2502, "original_language": "en", "original_title": "The Bourne Supremacy", "overview": "When a CIA operation to purchase classified Russian documents is blown by a rival agent, who then shows up in the sleepy seaside village where Bourne and Marie have been living. The pair run for their lives and Bourne, who promised retaliation should anyone from his former life attempt contact, is forced to once again take up his life as a trained assassin to survive.", "poster_path": "/jXwZgmqOtsqsXuB9oGhocOAegCM.jpg", "release_date": "2004-07-23", "title": "The Bourne Supremacy", "video": false, "vote_average": 7.3, "vote_count": 4749, "popularity": 18.41}, {"adult": false, "backdrop_path": "/xiBsA8Qj5KhO4cUKz6RHDtKpBGs.jpg", "genre_ids": [28, 12, 53, 10752], "id": 1368, "original_language": "en", "original_title": "First Blood", "overview": "When former Green Beret John Rambo is harassed by local law enforcement and arrested for vagrancy, the Vietnam vet snaps, runs for the hills and rat-a-tat-tats his way into the action-movie hall of fame. Hounded by a relentless sheriff, Rambo employs heavy-handed guerilla tactics to shake the cops off his tail.", "poster_path": "/wOsPbJixVc80iilfcByLKPAKz6G.jpg", "release_date": "1982-10-22", "title": "First Blood", "video": false, "vote_average": 7.4, "vote_count": 3235, "popularity": 30.68}], "total_pages": 47, "total_results": 924}, "recommendations": {"page": 1, "results": [], "total_pages": 1, "total_results": 0}, "credits": {"cast": [{"cast_id": 1, "character": "Jesse James", "credit_id": "52fe4613c3a36847f80eb619", "gender": 2, "id": 2879, "name": "Rob Lowe", "order": 0, "profile_path": "/yt6vMZVBXGCJL0xRE4jFa4SjzcQ.jpg"}, {"cast_id": 2, "character": "Frank James", "credit_id": "52fe4613c3a36847f80eb61d", "gender": 2, "id": 2053, "name": "Bill Paxton", "order": 1, "profile_path": "/53Ln1wTC0OCLzBF4HNlwhMXYgOU.jpg"}, {"cast_id": 3, "character": "Cole Younger", "credit_id": "52fe4614c3a36847f80eb621", "gender": 2, "id": 55725, "name": "Randy Travis", "order": 2, "profile_path": "/fxTlJ3kRNG1vURYeHAHjpOjHzbv.jpg"}, {"cast_id": 4, "character": "Allan Pinkerton", "credit_id": "52fe4614c3a36847f80eb625", "gender": 2, "id": 7676, "name": "William Atherton", "order": 3, "profile_path": "/ulUP6CRnC3F6XmD3NH0AMJpVmln.jpg"}, {"cast_id": 5, "character": "Bob Younger", "credit_id": "52fe4614c3a36847f80eb629", "gender": 2, "id": 5010, "name": "Todd Field", "order": 4, "profile_path": "/34lDArSwBjHFXIfYnLQZWKTTab3.jpg"}, {"cast_id": 8, "character": "Young Captain", "credit_id": "52fe4614c3a36847f80eb62d", "gender": 2, "id": 128579, "name": "Robert Moniot", "order": 5, "profile_path": "/2MkjxAyxFKU0HEJFrAb6qEdOhTL.jpg"}, {"cast_id": 12, "character": "Sheriff Baylor", "credit_id": "52fe4614c3a36847f80eb63b", "gender": 2, "id": 9567, "name": "Cole S. McKay", "order": 6, "profile_path": null}, {"cast_id": 14, "character": "Annie", "credit_id": "549fed19c3a3682f1e00a41f", "gender": 1, "id": 58866, "name": "Dana Wheeler-Nicholson", "order": 7, "profile_path": "/aAILOh8IYu6dgKI59CJqZBTUoHT.jpg"}, {"cast_id": 15, "character": "Zee", "credit_id": "549fed28c3a36855420073d3", "gender": 1, "id": 3208, "name": "Maria Pitillo", "order": 8, "profile_path": "/bP5Ezapqj4qJezaEdiBrIpzrUuX.jpg"}, {"cast_id": 16, "character": "Lone Rider", "credit_id": "549fed39925141236b001530", "gender": 2, "id": 8962, "name": "Luke Askew", "order": 9, "profile_path": "/nlV0bfadoMjbz7vxmLl5zALc86H.jpg"}, {"cast_id": 17, "character": "Zack Murphy", "credit_id": "549fed49c3a3682f2300a7fd", "gender": 2, "id": 54789, "name": "Sean Patrick Flanery", "order": 10, "profile_path": "/aHQtxIjMEDWdXqvFJplx0Kcwdn6.jpg"}, {"cast_id": 18, "character": "Charlie Ford", "credit_id": "549fed5d9251411d53004b3a", "gender": 1, "id": 19578, "name": "Alexis Arquette", "order": 11, "profile_path": "/jNRBwGKXOZFWLI2ceff1sMUdxcE.jpg"}, {"cast_id": 19, "character": "Clell Miller", "credit_id": "549fed7ec3a36855420073dd", "gender": 2, "id": 95638, "name": "John Pyper-Ferguson", "order": 12, "profile_path": "/AiRGZDq2JZvmYyfLNMDt3FBAEhV.jpg"}, {"cast_id": 20, "character": "Arch Clements (as Nick Sadler)", "credit_id": "549feda2925141313200a2ad", "gender": 2, "id": 50402, "name": "Nicholas Sadler", "order": 13, "profile_path": "/97hL5ECPZONeQtVBYEgj4osqfgx.jpg"}, {"cast_id": 10, "character": "(uncredited)", "credit_id": "52fe4614c3a36847f80eb631", "gender": 2, "id": 15234, "name": "David Arquette", "order": 14, "profile_path": "/p5l4pnL9xhbHiKSipcdsCekoD52.jpg"}], "crew": [{"credit_id": "52fe4614c3a36847f80eb637", "department": "Directing", "gender": 0, "id": 95135, "job": "Director", "name": "Robert Boris", "profile_path": "/icZyhLJ1orFuOlFFO9alUYDJ1Ew.jpg"}, {"credit_id": "549fecfbc3a3682f2300a7f6", "department": "Writing", "gender": 0, "id": 95135, "job": "Writer", "name": "Robert Boris", "profile_path": "/icZyhLJ1orFuOlFFO9alUYDJ1Ew.jpg"}]}}