{"adult": false, "backdrop_path": "/rKR6SDWPgA52doqz1ZiGwFgd95s.jpg", "belongs_to_collection": null, "budget": 0, "genres": [{"id": 35, "name": "Comedy"}], "homepage": "https://shaftesbury.ca/sadies-last-days-on-earth/", "id": 427673, "imdb_id": "tt5777802", "original_language": "en", "original_title": "Sadie's Last Days on Earth", "overview": "Everything in high school is like the world ending and Sadie Mitchell's crippling fear of the coming apocalypse is the heightened version of that.", "popularity": 2.426, "poster_path": "/nja5YDPrTY6MkO8lPjXBybvE5r3.jpg", "production_companies": [], "production_countries": [], "release_date": "2016-12-09", "revenue": 0, "runtime": 90, "spoken_languages": [], "status": "Released", "tagline": "", "title": "Sadie's Last Days on Earth", "video": false, "vote_average": 5.4, "vote_count": 8, "keywords": {"keywords": [{"id": 704, "name": "adolescence"}, {"id": 6270, "name": "high school"}, {"id": 12332, "name": "apocalypse"}, {"id": 155722, "name": "teen comedy"}, {"id": 208212, "name": "survivalism"}, {"id": 208513, "name": "anxiety"}]}, "similar": {"page": 1, "results": [{"id": 272693, "video": false, "vote_count": 3249, "vote_average": 6.8, "title": "The DUFF", "release_date": "2015-02-20", "original_language": "en", "original_title": "The DUFF", "genre_ids": [35, 10749], "backdrop_path": "/awGZf5T1hflis9Z2KvRMhp798xU.jpg", "adult": false, "overview": "Bianca's universe turns upside down when she learns that her high school refers to her as a \u2018DUFF' (Designated Ugly Fat Friend). Hoping to erase that label, she enlists the help of a charming jock and her favorite teacher. Together they'll face the school's mean girl and remind everyone that we are all someone's DUFF\u2026 and that's totally fine.", "poster_path": "/dBBgPTCN5Zze4POXWVVpwf3wkra.jpg", "popularity": 17.232}, {"adult": false, "backdrop_path": "/nt2e2QL5Nktok8udDar6627f1Ws.jpg", "genre_ids": [35], "id": 10625, "original_language": "en", "original_title": "Mean Girls", "overview": "Cady Heron is a hit with The Plastics, the A-list girl clique at her new school, until she makes the mistake of falling for Aaron Samuels, the ex-boyfriend of alpha Plastic Regina George.", "poster_path": "/lDlGPZS0UJYKxVlpyff3BMyPc2H.jpg", "release_date": "2004-04-30", "title": "Mean Girls", "video": false, "vote_average": 7.1, "vote_count": 5330, "popularity": 21.063}, {"adult": false, "backdrop_path": "/gFYx0L17dZgmvsvSbwQ0PWtf3BO.jpg", "genre_ids": [35, 18, 10751, 10770], "id": 89185, "original_language": "en", "original_title": "Radio Rebel", "overview": "High school senior Tara is so painfully shy that she dreads speaking to anyone in the hallways or getting called on in class. But in the privacy of her bedroom with her iPod in hand, she rocks out -- doing mock broadcasts for Miami's hottest FM radio station, which happens to be owned by her stepfather. When a slot opens up at The SLAM, Tara surprises herself by blossoming behind the mike into confident, \"Radio Rebel\" -- and to everyone's shock, she's a hit!", "poster_path": "/xMDnQAGrjdy4k20n9CZGHKFm7XA.jpg", "release_date": "2012-02-17", "title": "Radio Rebel", "video": false, "vote_average": 6.2, "vote_count": 548, "popularity": 13.248}, {"adult": false, "backdrop_path": "/ncERp0UvXuImUeJcf27kEANcf1r.jpg", "genre_ids": [35, 10751, 10749], "id": 9880, "original_language": "en", "original_title": "The Princess Diaries", "overview": "A socially awkward but very bright 15-year-old girl being raised by a single mom discovers that she is the princess of a small European country because of the recent death of her long-absent father, who, unknown to her, was the crown prince of Genovia. She must make a choice between continuing the life of a San Francisco teen or stepping up to the throne.", "poster_path": "/sxpvHk286sXLJWcFrBMNIsXbYsd.jpg", "release_date": "2001-08-03", "title": "The Princess Diaries", "video": false, "vote_average": 6.8, "vote_count": 2861, "popularity": 30.076}, {"id": 449176, "video": false, "vote_count": 3691, "vote_average": 8.1, "title": "Love, Simon", "release_date": "2018-02-16", "original_language": "en", "original_title": "Love, Simon", "genre_ids": [35, 18, 10749], "backdrop_path": "/rqMEeajyzSF4PpJtdCB816Iz8Vr.jpg", "adult": false, "overview": "Everyone deserves a great love story. But for seventeen-year old Simon Spier it's a little more complicated: he's yet to tell his family or friends he's gay and he doesn't know the identity of the anonymous classmate he's fallen for online.", "poster_path": "/5YUYg5q7QfC4IoNwNUtiwdiYKPr.jpg", "popularity": 17.201}, {"id": 325189, "video": false, "vote_count": 338, "vote_average": 6.5, "title": "Teen Beach 2", "release_date": "2015-06-26", "original_language": "en", "original_title": "Teen Beach 2", "genre_ids": [35, 14, 10751, 10770], "backdrop_path": "/x3cQd5rruj6jySg7dIHuNXT8REX.jpg", "adult": false, "overview": "When characters from the movie musical \u201cWet Side Story\u201d get stuck in the real world, teens Brady and Mack must find a way to return them home.", "poster_path": "/4A5Ecrvs6P8Yipjn4Xl2WYgu7Gm.jpg", "popularity": 24.718}, {"adult": false, "backdrop_path": "/g3LYarEY9LjB28Ct2trwFN72gqZ.jpg", "genre_ids": [35], "id": 437557, "original_language": "en", "original_title": "Blockers", "overview": "When three parents discover their daughters\u2019 pact to lose their virginity at prom, they launch a covert one-night operation to stop the teens from sealing the deal.", "poster_path": "/uvlUQXg0AlpGzKukO11K7QtW3Yu.jpg", "release_date": "2018-03-14", "title": "Blockers", "video": false, "vote_average": 6.2, "vote_count": 1155, "popularity": 17.886}, {"id": 37725, "video": false, "vote_count": 648, "vote_average": 6.5, "title": "It's a Boy Girl Thing", "release_date": "2006-12-26", "original_language": "en", "original_title": "It's a Boy Girl Thing", "genre_ids": [35, 14, 10749], "backdrop_path": "/vcUu3EOu5oz5hCGmJ94DFlIqhPY.jpg", "adult": false, "overview": "A visit to a natural history museum proves catastrophic for two high school rivals, an overachiever and a jock, when an ancient Aztec statue casts a spell that causes them to switch bodies and see exactly what it's like to walk in the other's shoes.", "poster_path": "/lFZQlr68VRzrroXtTnNy9qbUNK6.jpg", "popularity": 15.155}, {"adult": false, "backdrop_path": "/wu4tawMznxUvqP21lUH6RKrv3LQ.jpg", "genre_ids": [35], "id": 37735, "original_language": "en", "original_title": "Easy A", "overview": "Olive, an average high school student, sees her below-the-radar existence turn around overnight once she decides to use the school's gossip grapevine to advance her social standing. Now her classmates are turning against her and the school board is becoming concerned, including her favorite teacher and the distracted guidance counselor. With the support of her hilariously idiosyncratic parents and a little help from a long-time crush, Olive attempts to take on her notorious new identity and crush the rumor mill once and for all.", "poster_path": "/1pgPO3OfSm2inpODMqg2RNmLW90.jpg", "release_date": "2010-09-16", "title": "Easy A", "video": false, "vote_average": 6.8, "vote_count": 4634, "popularity": 18.761}, {"id": 13342, "video": false, "vote_count": 639, "vote_average": 6.9, "title": "Fast Times at Ridgemont High", "release_date": "1982-08-13", "original_language": "en", "original_title": "Fast Times at Ridgemont High", "genre_ids": [35, 18], "backdrop_path": "/l23IoHAfjTdNMZLeDetr75H6sb7.jpg", "adult": false, "overview": "Follows a group of high school students growing up in southern California, based on the real-life adventures chronicled by Cameron Crowe. Stacy Hamilton and Mark Ratner are looking for a love interest, and are helped along by their older classmates, Linda Barrett and Mike Damone, respectively. The center of the film is held by Jeff Spicoli, a perpetually stoned surfer dude who faces off with the resolute Mr. Hand, who is convinced that everyone is on dope.", "poster_path": "/lvEenO2CikD4Zo3rFK1flAU99Pr.jpg", "popularity": 11.118}, {"adult": false, "backdrop_path": "/bckE9yCy3bxpzkz0CfJ8c0optya.jpg", "genre_ids": [35, 10749], "id": 24548, "original_language": "en", "original_title": "Just One of the Guys", "overview": "When Terry Griffith loses her high school's writing competition, she's convinced that it's because she's a girl. So Terry decides to change high schools and pose as a boy to prove her point. Her brother, Buddy, helps her pass as a guy so well that she is soon making friends with the boys at school, including the attractive Rick, who becomes her new best friend. But her gender-swapping makes things difficult when she falls in love with him.", "poster_path": "/7ffvsRv8ueYYK0H3zocmNRPd8yN.jpg", "release_date": "1985-04-26", "title": "Just One of the Guys", "video": false, "vote_average": 6.4, "vote_count": 128, "popularity": 8.792}, {"adult": false, "backdrop_path": "/zffzhr30v7nCHRcyfnVr8PmNLbM.jpg", "genre_ids": [10749, 35, 18], "id": 11355, "original_language": "en", "original_title": "Never Been Kissed", "overview": "Josie Geller, a baby-faced junior copywriter at the Chicago Sun-Times, must pose as a student at her former high school to research contemporary teenage culture. With the help of her brother, Rob, Josie infiltrates the inner circle of the most popular clique on campus. But she hits a major snag in her investigation -- not to mention her own failed love life -- when she falls for her dreamy English teacher, Sam Coulson.", "poster_path": "/1F9EAhEQxa0I5Pa5Z10hWIBFS3r.jpg", "release_date": "1999-04-09", "title": "Never Been Kissed", "video": false, "vote_average": 6.0, "vote_count": 855, "popularity": 15.613}, {"adult": false, "backdrop_path": "/iFLAEKnLQZNeYztE7Vy5NbL4Tw1.jpg", "genre_ids": [35], "id": 57214, "original_language": "en", "original_title": "Project X", "overview": "Three high school seniors throw a party to make a name for themselves. As the night progresses, things spiral out of control as word of the party spreads.", "poster_path": "/cWXkRLmzKfYutvWeJXaednoGKdF.jpg", "release_date": "2012-03-01", "title": "Project X", "video": false, "vote_average": 6.4, "vote_count": 3260, "popularity": 13.407}, {"id": 248574, "video": false, "vote_count": 645, "vote_average": 5.7, "title": "Barely Lethal", "release_date": "2015-04-30", "original_language": "en", "original_title": "Barely Lethal", "genre_ids": [28, 12, 35], "backdrop_path": "/scoMZVgdqBM7vqZaEbhQXJd7jOL.jpg", "adult": false, "overview": "A 16-year-old international assassin yearning for a \"normal\" adolescence fakes her own death and enrolls as a senior in a suburban high school. She quickly learns that being popular can be more painful than getting water-boarded.", "poster_path": "/nJm0vGJVyELlQEzHRq22vi2JHbW.jpg", "popularity": 18.241}, {"id": 15144, "video": false, "vote_count": 1221, "vote_average": 6.8, "title": "Sixteen Candles", "release_date": "1984-05-04", "original_language": "en", "original_title": "Sixteen Candles", "genre_ids": [35, 10749], "backdrop_path": "/xCIgY4mUmO4tbDVlntym9PdZ9H8.jpg", "adult": false, "overview": "A teenage girl deals with her parents forgetting her birthday and a crush on her high school's heartthrob.", "poster_path": "/rzTrRQg5ek47Yl0Vfenc69r9gOd.jpg", "popularity": 29.228}, {"adult": false, "backdrop_path": "/5x0VEeFCnWzRBwU23KycKQRqEhN.jpg", "genre_ids": [10402, 35], "id": 15157, "original_language": "en", "original_title": "Another Cinderella Story", "overview": "A guy who danced with what could be the girl of his dreams at a costume ball only has one hint at her identity: the Zune she left behind as she rushed home in order to make her curfew. And with a once-in-a-lifetime opportunity in front of him, he sets out to find his masked beauty.", "poster_path": "/fLdCKCfHT8A6bnWybBsQFjC4fCo.jpg", "release_date": "2008-09-16", "title": "Another Cinderella Story", "video": false, "vote_average": 6.6, "vote_count": 1120, "popularity": 16.339}, {"id": 11887, "video": false, "vote_count": 2347, "vote_average": 6.5, "title": "High School Musical 3: Senior Year", "release_date": "2008-10-11", "original_language": "en", "original_title": "High School Musical 3: Senior Year", "genre_ids": [35, 18, 10402, 10749, 10751], "backdrop_path": "/daSGxGZL2nNjGZKkAF5ain3lmOx.jpg", "adult": false, "overview": "It's almost graduation day for high school seniors Troy, Gabriella, Sharpay, Chad, Ryan and Taylor \u2015 and the thought of heading off in separate directions after leaving East High has these Wildcats thinking they need to do something they'll remember forever. Together with the rest of the Wildcats, they stage a spring musical reflecting their hopes and fears about the future and their unforgettable experiences growing up together. But with graduation approaching and college plans in question, what will become of the dreams, romances, and friendships of East High's senior Wildcats?", "poster_path": "/ewZpH2QIfPQ0VIn9lPf7MHbLbl4.jpg", "popularity": 14.748}, {"id": 2105, "video": false, "vote_count": 4791, "vote_average": 6.5, "title": "American Pie", "release_date": "1999-07-09", "original_language": "en", "original_title": "American Pie", "genre_ids": [35, 10749], "backdrop_path": "/udTWgfwAzUxdztoyKSReoSrjBU7.jpg", "adult": false, "overview": "At a high-school party, four friends find that losing their collective virginity isn't as easy as they had thought. But they still believe that they need to do so before college. To motivate themselves, they enter a pact to all \"score.\" by their senior prom.", "poster_path": "/k40WFAXMRekWEqsjURO3jiWob67.jpg", "popularity": 24.961}, {"adult": false, "backdrop_path": "/bxPw6s61bG5Of19lp1E00n0dDWW.jpg", "genre_ids": [35, 18, 10751, 10402, 10770], "id": 10947, "original_language": "en", "original_title": "High School Musical", "overview": "Troy, the popular captain of the basketball team, and Gabriella, the brainy and beautiful member of the academic club, break all the rules of East High society when they secretly audition for the leads in the school's musical. As they reach for the stars and follow their dreams, everyone learns about acceptance, teamwork, and being yourself.", "poster_path": "/xMRBlTMMKDRJuK4IhwG5idrGHaS.jpg", "release_date": "2006-01-20", "title": "High School Musical", "video": false, "vote_average": 6.5, "vote_count": 2983, "popularity": 14.165}, {"adult": false, "backdrop_path": "/tUSXZ37j0XpNtmOb5uwqogdcq7E.jpg", "genre_ids": [35, 18], "id": 2108, "original_language": "en", "original_title": "The Breakfast Club", "overview": "Five disparate high school students meet in Saturday detention, and discover they have a lot more in common than they thought.", "poster_path": "/4ZejrrCpfoypR5lHoT3pq6yVldW.jpg", "release_date": "1985-02-15", "title": "The Breakfast Club", "video": false, "vote_average": 7.8, "vote_count": 4906, "popularity": 22.032}], "total_pages": 12, "total_results": 239}, "recommendations": {"page": 1, "results": [{"id": 360007, "video": false, "vote_count": 38, "vote_average": 6.0, "title": "Patchwork", "release_date": "2015-10-15", "original_language": "en", "original_title": "Patchwork", "genre_ids": [35, 27], "backdrop_path": "/v0jz0Lln6G7HyKnBL4qvmIki3Yr.jpg", "adult": false, "overview": "A delightfully dark, Frankenstein-themed horror comedy about a re-animated corpse, made from the stitched together body parts of three murdered young women, that decides to go on a bloody quest to find their killer and avenge their deaths!", "poster_path": "/gvNbcTmjkJ4Ai4DSyM8X6r1Ft9H.jpg", "popularity": 7.195}, {"adult": false, "backdrop_path": null, "genre_ids": [878, 28, 12, 35, 53, 27], "id": 392050, "original_language": "en", "original_title": "Big Bad", "overview": "A respectful nod to classic kids-in-peril adventure films that finds a group of reluctant kids stranded overnight in an abandoned jail. Their chaperon is missing, their cellphone service is non existent, and their patience with each other is running thin. Oh, and a big, hairy creature is trying to eat them. Hey... it's tough being a kid in a monster movie.", "poster_path": "/4pnjzl4Dy2BG3te11ybMLROb5yA.jpg", "release_date": "2016-04-08", "title": "Big Bad", "video": false, "vote_average": 3.8, "vote_count": 10, "popularity": 2.478}, {"adult": false, "backdrop_path": null, "genre_ids": [53, 27, 9648], "id": 360726, "original_language": "en", "original_title": "The Before Time", "overview": "When two rival crews head into the desert to shoot a reality show based on a buried Navajo treasure, they discover that truth is not only stranger than fiction, it's more dangerous. Something wants them from digging deeper and from escaping the desert alive.", "poster_path": "/bjqmsdVVkkSQBDuFjJVJ1HXOrMs.jpg", "release_date": "2014-01-01", "title": "The Before Time", "video": false, "vote_average": 3.1, "vote_count": 6, "popularity": 3.431}, {"adult": false, "backdrop_path": "/hkxV5cJOjmRA2sMbjYDnWGBTr9n.jpg", "genre_ids": [53, 27], "id": 430250, "original_language": "en", "original_title": "City of Dead Men", "overview": "An American traveling in South America ends up living with a group of misfits at an abandoned hospital with a troubling past.", "poster_path": "/5BfFEBssQuOQvS7W8tGdQIxgDzb.jpg", "release_date": "2014-11-15", "title": "City of Dead Men", "video": false, "vote_average": 4.8, "vote_count": 17, "popularity": 3.015}, {"adult": false, "backdrop_path": "/xWn5mPpOq2VwYghmreO7fGn3wJR.jpg", "genre_ids": [27, 878, 53], "id": 334894, "original_language": "en", "original_title": "Nightmare Code", "overview": "After a programmer working on a top secret surveillance program snaps in a murderous rage, a notorious code wizard with problems of his own moves into the startup offices to figure out what went wrong and deliver the final product. But the deeper he delves into the code, the more the code takes on a malevolent life of its own.", "poster_path": "/faY6eJBPwOIgo2cPHUCVBh2nF7Q.jpg", "release_date": "2014-01-01", "title": "Nightmare Code", "video": false, "vote_average": 4.8, "vote_count": 9, "popularity": 2.742}, {"adult": false, "backdrop_path": "/c9RqAcYj8Duv1gE7ktVbATEY1U1.jpg", "genre_ids": [27, 53], "id": 68964, "original_language": "en", "original_title": "Hide and Go Shriek", "overview": "A group of teenagers spends the night in a furniture store for a graduation party. A psycho killer starts to hunt them down and kill them off.", "poster_path": "/evCn6DOKJ0GDOfYjGB0YjRg9sma.jpg", "release_date": "1988-11-01", "title": "Hide and Go Shriek", "video": false, "vote_average": 5.1, "vote_count": 19, "popularity": 4.934}, {"adult": false, "backdrop_path": "/mhYpcwafQ1X1xVClRjZnGceJj6N.jpg", "genre_ids": [35, 27], "id": 120771, "original_language": "en", "original_title": "Bloody Bloody Bible Camp", "overview": "In 1977 a group of young, horny, out of control Christians are spending a fun filled weekend at the mountain lakeside Happy Day Bible Camp. One by one these youthful sinners pay a BLOODY penance for their misdeeds. Flash forward 7 years, when another youth group of Bible toters return, lead by \"Father Richard Cummings\" (Reggie Bannister), \"Sister Mary Chopper,\" (Tim Sullivan) goes bloody murder after the camp - emphasis on CAMP - with stand out performances by folks like Gigi Bannister, Jessica Sonneborn, Troy Guthrie, Deborah Venegas, Jay Fields, and Jeff Dylan Graham. In the end, Bannister and Troup must face down the a transvestite serial killing nun in a fight to the death, and call upon the higher graces of the infamous Ron Jeremy as \"Jesus\" guide them through! A hilarious campy equal opportunity offensive film that will have you DIE laughing!", "poster_path": "/1ZMXYFLSrqp4EIrREPYqq953FV1.jpg", "release_date": "2012-05-25", "title": "Bloody Bloody Bible Camp", "video": false, "vote_average": 4.7, "vote_count": 20, "popularity": 4.916}, {"adult": false, "backdrop_path": "/alYXuvR55YK5gIzvOJM7jdxJKEn.jpg", "genre_ids": [53, 27], "id": 293901, "original_language": "en", "original_title": "Apparitional", "overview": "A group of ghost hunters must up their game to compete in the competitive world of paranormal TV shows, leading them to a truly haunted prison with a grisly past that proves to be more than they bargained for.", "poster_path": "/11L9QAqQaZuqQgeM25nfSLT5wDN.jpg", "release_date": "2014-07-01", "title": "Haunting of Cellblock 11", "video": false, "vote_average": 4.1, "vote_count": 21, "popularity": 3.559}, {"adult": false, "backdrop_path": "/l5AD1J9g9GwMMfWO2TIfrWMyfG8.jpg", "genre_ids": [35, 27], "id": 27207, "original_language": "en", "original_title": "Bloodsucking Pharaohs in Pittsburgh", "overview": "Two cops and a detective's daughter go after a chainsaw killer.", "poster_path": "/2Hp0DHqObkKOuRweeTlJr7i9xaY.jpg", "release_date": "1991-05-02", "title": "Bloodsucking Pharaohs in Pittsburgh", "video": false, "vote_average": 5.8, "vote_count": 11, "popularity": 4.535}, {"adult": false, "backdrop_path": "/wIX00iHaokVE6jOnXoaTxeUCXHD.jpg", "genre_ids": [27, 9648, 10749], "id": 72756, "original_language": "en", "original_title": "Meridian", "overview": "Catherine Bomarzini  returns to the family castle in Italy after her father's death and gets caught in the web of a mysterious love triangle: a man who is at times repulsive, at others enchanting; and a creature of the night whose gentle eyes and touch reveal his infinitive love and devotion. With the help of Martha, her faithful childhood nanny, and the ghost of a slain young girl, Catherine discovers the medieval curse that threatens their lives and only she can dispel.", "poster_path": "/yqRNl7a7pxxQMecciq3lZBmhroI.jpg", "release_date": "1990-11-10", "title": "Meridian", "video": false, "vote_average": 5.0, "vote_count": 15, "popularity": 5.504}, {"adult": false, "backdrop_path": "/nSuoJAGJf4eBgB6oqAMZAElAYK5.jpg", "genre_ids": [53, 27], "id": 384594, "original_language": "en", "original_title": "Blood Hunters", "overview": "An elevated genre horror film about a single mother who wakes up in a medical facility to find that everyone is dead and she's nine months pregnant.  As she struggles to escape she discovers the facility's secret, they've tampered with the boundaries of death and brought people back to life, but those who've returned, have not returned alone.", "poster_path": "/axgFPcZrYGai6xZSB2KlwmBK4hg.jpg", "release_date": "2016-10-01", "title": "Blood Hunters", "video": false, "vote_average": 5.1, "vote_count": 14, "popularity": 5.296}], "total_pages": 1, "total_results": 11}, "credits": {"cast": [{"cast_id": 0, "character": "Sadie MItchell", "credit_id": "5838796d925141423600107e", "gender": 1, "id": 1442430, "name": "Morgan Taylor Campbell", "order": 1, "profile_path": "/9PtWxI0boV9niybrKsaVP0aGdG8.jpg"}, {"cast_id": 1, "character": "Jack Diaz", "credit_id": "583879d2c3a368494a001210", "gender": 2, "id": 934136, "name": "Ricardo Hoyos", "order": 2, "profile_path": "/ja4ktQZgFKUlDrOsiA9nHeXUCCh.jpg"}, {"cast_id": 2, "character": "Teddy", "credit_id": "583879f99251414233001187", "gender": 2, "id": 1228341, "name": "Munro Chambers", "order": 3, "profile_path": "/cB0AVgPX0XyMVW51Ae4jE0i4vGR.jpg"}, {"cast_id": 3, "character": "Connie", "credit_id": "58387a14c3a368493c001143", "gender": 1, "id": 112326, "name": "Paula Brancati", "order": 4, "profile_path": "/nFcmrNtxD3dwzQ1JsNkm80YYUq4.jpg"}, {"cast_id": 4, "character": "Rodger Mitchell", "credit_id": "58387a2bc3a368494a001241", "gender": 2, "id": 78412, "name": "Peter Keleghan", "order": 5, "profile_path": "/aCoDxLVRcVo8kGp9WYl7kBPYUqM.jpg"}, {"cast_id": 5, "character": "Grace Mitchell", "credit_id": "58387a3d925141423300119d", "gender": 1, "id": 175756, "name": "Helene Joy", "order": 6, "profile_path": "/23Qzyov88pRq8BRGTOcIVc7BeQa.jpg"}, {"cast_id": 6, "character": "Gord", "credit_id": "58387a5b925141423c0011f9", "gender": 2, "id": 1240288, "name": "George Stroumboulopoulos", "order": 7, "profile_path": "/zwCIp3ChluTIx7ZTQ1nQOcOP21e.jpg"}, {"cast_id": 7, "character": "Frazzled Mom", "credit_id": "58387a72c3a368492e0011b0", "gender": 1, "id": 1147823, "name": "Marie Dame", "order": 8, "profile_path": "/h7eUdqzQZbtnl7oMdz6PYJq8OYv.jpg"}, {"cast_id": 11, "character": "Bouncer", "credit_id": "599ea9d3c3a3685a5800ccbc", "gender": 2, "id": 1796797, "name": "Michael Brown", "order": 9, "profile_path": "/fZR9dD0J2a6IOuDgCixZ82BCdGT.jpg"}, {"cast_id": 12, "character": "Calvin / Radio newscaster (voice)", "credit_id": "5a0851219251414c190170fb", "gender": 2, "id": 168751, "name": "Michael Seater", "order": 10, "profile_path": "/eo1PthY0fPCbgcFQmrGOYaTCJ27.jpg"}], "crew": [{"credit_id": "58387adf92514142490012b0", "department": "Directing", "gender": 2, "id": 168751, "job": "Director", "name": "Michael Seater", "profile_path": "/eo1PthY0fPCbgcFQmrGOYaTCJ27.jpg"}, {"credit_id": "58387aeac3a36849380013aa", "department": "Writing", "gender": 2, "id": 168751, "job": "Writer", "name": "Michael Seater", "profile_path": "/eo1PthY0fPCbgcFQmrGOYaTCJ27.jpg"}, {"credit_id": "58387af692514142390011a6", "department": "Writing", "gender": 1, "id": 88620, "job": "Writer", "name": "Lauren Collins", "profile_path": "/1Oty8QYUszvmOKA0B2hWMk4oIda.jpg"}]}}