{"adult": false, "backdrop_path": "/iWppYQrCJuie7dTf3OgMzu4Nlus.jpg", "belongs_to_collection": null, "budget": 0, "genres": [{"id": 53, "name": "Thriller"}], "homepage": null, "id": 42786, "imdb_id": "tt0058267", "original_language": "en", "original_title": "Kitten with a Whip", "overview": "Jody, a juvenile delinquent, escapes from reform school by stabbing a matron and attempting to burn down the building and then takes refuge in a house owned by an ambitious politician David Patton. Despite the hellcat's ample charms, the would-be officeholder wants nothing to do with her and tries to drive her away. She responds by shortly returning to his house accompanied by a gang of delinquent pals and taking him hostage. A sudden act of violence causes more trouble, leading Jody and her gang to hijack David and force him to drive a getaway car to Mexico.", "popularity": 2.761, "poster_path": "/pvAw9UXq5e4dtFAJMCKDboOVlR1.jpg", "production_companies": [{"id": 33, "logo_path": "/8lvHyhjr8oUKOOy2dKXoALWKdp0.png", "name": "Universal Pictures", "origin_country": "US"}], "production_countries": [{"iso_3166_1": "US", "name": "United States of America"}], "release_date": "1964-11-04", "revenue": 0, "runtime": 82, "spoken_languages": [{"iso_639_1": "en", "name": "English"}], "status": "Released", "tagline": "She's a real smoky kitten", "title": "Kitten with a Whip", "video": false, "vote_average": 5.7, "vote_count": 9, "keywords": {"keywords": [{"id": 14857, "name": "juvenile delinquent"}]}, "similar": {"page": 1, "results": [{"id": 819, "video": false, "vote_count": 1591, "vote_average": 7.5, "title": "Sleepers", "release_date": "1996-10-18", "original_language": "en", "original_title": "Sleepers", "genre_ids": [80, 18, 53], "backdrop_path": "/vvdo7wDPJZHfstNMKprqRIM8l3B.jpg", "adult": false, "overview": "Two gangsters seek revenge on the state jail worker who during their stay at a youth prison sexually abused them. A sensational court hearing takes place to charge him for the crimes.", "poster_path": "/cDqEv4Fw4JZh2zCfecqw3z09L8z.jpg", "popularity": 16.212}, {"id": 10128, "video": false, "vote_count": 156, "vote_average": 6.1, "title": "Alien Nation", "release_date": "1988-10-07", "original_language": "en", "original_title": "Alien Nation", "genre_ids": [80, 878, 53], "backdrop_path": "/qS5vJMNGl98pYQvi5m913IiwqqH.jpg", "adult": false, "overview": "A few years from now, Earth will have the first contact with an alien civilisation. These aliens, known as Newcomers, slowly begin to be integrated into human society after years of quarantine.", "poster_path": "/cWkLFMYh6n8BjeUZEkMn0hpQyTz.jpg", "popularity": 8.874}, {"adult": false, "backdrop_path": "/yNr67sSGYQpjxrUs3o3ZOUSdP6i.jpg", "genre_ids": [35, 10402, 10749], "id": 9768, "original_language": "en", "original_title": "Cry-Baby", "overview": "A prim and proper schoolgirl goes against her grandmother's wishes when she dates a motorcycle-riding juvenile delinquent.", "poster_path": "/wuvick59KjsA6LCM7KWLO4fmwXj.jpg", "release_date": "1990-04-05", "title": "Cry-Baby", "video": false, "vote_average": 6.4, "vote_count": 825, "popularity": 16.735}, {"id": 227, "video": false, "vote_count": 633, "vote_average": 7.3, "title": "The Outsiders", "release_date": "1983-03-25", "original_language": "en", "original_title": "The Outsiders", "genre_ids": [80, 18], "backdrop_path": "/7dwKuN6djEOUhDKHCTCahUbFupZ.jpg", "adult": false, "overview": "When two poor greasers, Johnny, and Ponyboy are assaulted by a vicious gang, the socs, and Johnny kills one of the attackers, tension begins to mount between the two rival gangs, setting off a turbulent chain of events.", "poster_path": "/t0dy2Q1j9hlQ8kkt0TzGImYNt2C.jpg", "popularity": 12.998}, {"id": 13696, "video": false, "vote_count": 140, "vote_average": 7.7, "title": "Angels with Dirty Faces", "release_date": "1938-11-26", "original_language": "en", "original_title": "Angels with Dirty Faces", "genre_ids": [28, 80, 18], "backdrop_path": "/iMoAa1KpHw5HSxm6gCRF70ILBSb.jpg", "adult": false, "overview": "In New York, the boys Rocky Sullivan and Jerry Connelly are best friends and small time thieves. After a robbery, Rocky is arrested and sent to a reformatory school, where he begins his criminal career. Jerry escapes and later becomes a priest. After three years in prison, Rocky is released and demands the return of $100,000 deposited with his Solicitor - prior to his jail term.", "poster_path": "/fTo9qeUDLd75MNe7MxDlIgFR7pf.jpg", "popularity": 8.521}, {"id": 15300, "video": false, "vote_count": 124, "vote_average": 6.6, "title": "Newsies", "release_date": "1992-04-10", "original_language": "en", "original_title": "Newsies", "genre_ids": [18, 10402, 10751], "backdrop_path": "/uwu2a0pr41OqMxSRjAV71bnAZ3O.jpg", "adult": false, "overview": "A week in the life of the exploited, child newspaper sellers in turn-of-the-century New York. When their publisher, Joseph Pulitzer, tries to squeeze a little more profit out of their labours, they organize a strike, only to be confronted with the Pulitzer's hard-ball tactics.", "poster_path": "/x71hXgtXbCIHsOK0VQkoIrBGjlt.jpg", "popularity": 11.065}, {"adult": false, "backdrop_path": "/kQyeXce1ozYryHichnEserMAByN.jpg", "genre_ids": [28, 80, 18, 53], "id": 11564, "original_language": "en", "original_title": "Class of 1984", "overview": "Andy is a new teacher at a inner city high school that is like nothing he has ever seen before. There is metal detectors at the front door and everything is basically run by a tough kid named Peter Stegman. Soon, Andy and Stegman become enemies and Stegman will stop at nothing to protect his turf and drug dealing business.", "poster_path": "/whDnqSYg4yYgVzbVhLSjzC5piUR.jpg", "release_date": "1982-08-20", "title": "Class of 1984", "video": false, "vote_average": 6.2, "vote_count": 121, "popularity": 11.911}, {"id": 15357, "video": false, "vote_count": 624, "vote_average": 6.1, "title": "District 13: Ultimatum", "release_date": "2009-02-18", "original_language": "fr", "original_title": "Banlieue 13 - Ultimatum", "genre_ids": [28, 80, 53], "backdrop_path": "/3nphN1LJY0G4ciujvoY5xLEtJB.jpg", "adult": false, "overview": "Damien and Leito return to District 13 on a mission to bring peace to the troubled sector that is controlled by five different gang bosses, before the city\u2019s secret services take drastic measures to solve the problem.", "poster_path": "/9dONlMfokUH5dfsjZJgpDl1KB12.jpg", "popularity": 11.235}, {"adult": false, "backdrop_path": "/b4VAgPHGL33OA5QNZCYi0jU5Nma.jpg", "genre_ids": [80, 18], "id": 800, "original_language": "es", "original_title": "Los olvidados", "overview": "A group of juvenile delinquents lives a criminal, violent life in the festering slums of Mexico City, among them the young Pedro, whose morality is gradually corrupted and destroyed by the others.", "poster_path": "/bBNcxVVVMCZaBOFnnZ5P0VoYpSv.jpg", "release_date": "1950-12-09", "title": "The Young and the Damned", "video": false, "vote_average": 8.2, "vote_count": 165, "popularity": 10.241}, {"adult": false, "backdrop_path": "/jDyLuULFelcdJRSyYPMmZqlY83f.jpg", "genre_ids": [28], "id": 10126, "original_language": "en", "original_title": "Colors", "overview": "A confident young cop is shown the ropes by a veteran partner in the dangerous gang-controlled barrios of Los Angeles, where the gang culture is enforced by the colors the members wear.", "poster_path": "/aK8kTpbsdY10GCimRt1dIaUq0e8.jpg", "release_date": "1988-04-15", "title": "Colors", "video": false, "vote_average": 6.5, "vote_count": 196, "popularity": 12.468}, {"adult": false, "backdrop_path": "/nIkXyyiw7SFj4nOS4q0EC63sD08.jpg", "genre_ids": [28, 80, 18, 53], "id": 12633, "original_language": "en", "original_title": "The Star Chamber", "overview": "Steve Hardin, a young judge, must grapple with his conscience as vicious criminals in his court are going free as a result of slick lawyers finding obscure loopholes in the law. Hardin feels utterly powerless until he discovers The Star Chamber, a small group of powerful men bent on their own kind of vigilante justice. Meeting behind closed doors in the utmost secrecy, they decree their own punishment for the guilty who have slipped through the system without paying for their crimes.", "poster_path": "/3bbzqQHjcfgT2f2RSkdiXzzHSRK.jpg", "release_date": "1983-08-05", "title": "The Star Chamber", "video": false, "vote_average": 6.1, "vote_count": 64, "popularity": 8.129}, {"adult": false, "backdrop_path": "/aSNagpdVCD9UFI1PWrH8jOLnRN1.jpg", "genre_ids": [878, 53], "id": 23535, "original_language": "en", "original_title": "Class of 1999", "overview": "The time is in the future and the youth gang violence is so high that the areas around some schools have become \"free-fire zones\", into which not even the police will venture. When Miles Langford, the head of Kennedy High School, decides to take his school back from the gangs, robotics specialist Dr. Robert Forrest provides \"tactical education units\". These are amazingly human-like androids that have been programmed to teach and are supplied with devastatingly effective solutions to discipline problems. So when he violent, out-of-control students of Kennedy High report for class tomorrow, they're going to get a real education... in staying alive!", "poster_path": "/5HkKJhPODjCjVOoGcvHvo7tRgNU.jpg", "release_date": "1990-04-01", "title": "Class of 1999", "video": false, "vote_average": 6.2, "vote_count": 104, "popularity": 8.771}, {"id": 114051, "video": false, "vote_count": 12, "vote_average": 6.5, "title": "Candy Razors", "release_date": "1980-10-06", "original_language": "es", "original_title": "Navajeros", "genre_ids": [80, 18], "backdrop_path": "/5HgAc2rA3BuS4ppO2mWctsJLe2l.jpg", "adult": false, "overview": "Jose Manuel Gomez Perales, \"El Jaro\", lives alone in Madrid, with no other company than his band and his \"girlfriends.\" One day he meets Mercedes, a prostitute of Mexican origin. Mercedes falls for him and offers him her home to take him apart from his life of crime.", "poster_path": "/dkmgJgkQ3ojaSpnlFUwND1JJ3Fx.jpg", "popularity": 1.763}, {"adult": false, "backdrop_path": "/aXJOanEzMdzqKqNsLmjyE2A9Lvy.jpg", "genre_ids": [80, 18, 53], "id": 3472, "original_language": "en", "original_title": "Dirty Pretty Things", "overview": "An urban hotel in London is a gathering and flash point for legal and illegal immigrants attempting to cobble together their lives in a new country. The immigrants include Senay, a Turkish woman, and a Nigerian doctor named Okwe who is working as a night porter at the hotel. The pair discover the hotel is a front for all sorts of clandestine activities. Their only wish is to avoid possible deportation. Okwe becomes more entangled in the goings on when he is called to fix a toilet in one of the rooms. He discovers the plumbing has been clogged by a human heart.", "poster_path": "/ikIhoun7gzrnR00qc8H6TyH6sW9.jpg", "release_date": "2002-09-05", "title": "Dirty Pretty Things", "video": false, "vote_average": 7.0, "vote_count": 227, "popularity": 7.326}, {"adult": false, "backdrop_path": "/dHXXKBJDCJumzU1S1Pinasf4EUt.jpg", "genre_ids": [80, 18], "id": 41585, "original_language": "it", "original_title": "Mery per sempre", "overview": "A teacher discovers his calling. Marco relocates to Palermo from Milan and takes a job teaching in a reform school while he waits for a high school position. He tries to understand and motivate his handful of students, reading them colloquial poetry, encouraging them to stand up for their rights, finding out about their histories. Natale, in for murder, enamoured of the Mafia, the King Rat within the group; Mery, a drag queen, arrested for assault when defending himself, in love with Mario and, in daylight, rejected by all; Pietro, illiterate, muscular, believing his destiny is set; the callow Claudio, vulnerable, learning to harden himself. What can Mario learn and do in such a short time?", "poster_path": "/nuAfSpGEUI84TpMKXN3Zqpbo5iE.jpg", "release_date": "1989-05-03", "title": "Mary Forever", "video": false, "vote_average": 7.4, "vote_count": 91, "popularity": 5.608}, {"adult": false, "backdrop_path": "/fQPZ4trYK3wxPMSv9JmpKqgzsma.jpg", "genre_ids": [18, 28, 80], "id": 9516, "original_language": "en", "original_title": "Menace II Society", "overview": "Sobering and incisive, this cautionary drama centers on a street tough 18-year-old facing a moral quandary while trying to turn his life around.", "poster_path": "/s1uQMgbK2tfaYltK6uDXU1xoYWA.jpg", "release_date": "1993-05-26", "title": "Menace II Society", "video": false, "vote_average": 7.4, "vote_count": 326, "popularity": 12.852}, {"id": 12634, "video": false, "vote_count": 137, "vote_average": 5.0, "title": "The Big Bounce", "release_date": "2004-01-30", "original_language": "en", "original_title": "The Big Bounce", "genre_ids": [35, 80], "backdrop_path": "/up2xW80u5iyDEYdSPhj4gxFFkcU.jpg", "adult": false, "overview": "A small-time con artist and a Hawaiian real estate developer's mischievous, enterprising mistress team up for a potential $200,000 score.", "poster_path": "/yTKph1RyCpJg0tWTuZuI0zLa9dD.jpg", "popularity": 10.346}, {"adult": false, "backdrop_path": "/w2rzpV83FNHxFut4JgvxSmwXDXn.jpg", "genre_ids": [35, 80], "id": 14267, "original_language": "en", "original_title": "Female Trouble", "overview": "The life and times of Dawn Davenport, showing her progression from bratty schoolgirl to crazed mass murderer - all of which stems from her parents' refusal to buy her cha-cha heels for Christmas.", "poster_path": "/a3IQIDnDSLQcwp8EB9w3ZDxRGgP.jpg", "release_date": "1974-10-04", "title": "Female Trouble", "video": false, "vote_average": 7.3, "vote_count": 76, "popularity": 8.96}, {"id": 209276, "video": false, "vote_count": 578, "vote_average": 7.1, "title": "Starred Up", "release_date": "2013-09-09", "original_language": "en", "original_title": "Starred Up", "genre_ids": [18], "backdrop_path": "/pCPOaPO9aANGJ5D9JmVthxaDl4E.jpg", "adult": false, "overview": "19-year-old Eric, arrogant and ultra-violent, is prematurely transferred to the same adult prison facility as his estranged father. As his explosive temper quickly finds him enemies in both prison authorities and fellow inmates \u2014 and his already volatile relationship with his father is pushed past breaking point \u2014 Eric is approached by a volunteer psychotherapist, who runs an anger management group for prisoners. Torn between gang politics, prison corruption, and a glimmer of something better, Eric finds himself in a fight for his own life, unsure if his own father is there to protect him or join in punishing him.", "poster_path": "/cP5vXTItgkNahGEsaIHudbdIDRG.jpg", "popularity": 8.869}, {"id": 13950, "video": false, "vote_count": 85, "vote_average": 6.1, "title": "All About the Benjamins", "release_date": "2002-03-08", "original_language": "en", "original_title": "All About the Benjamins", "genre_ids": [28, 12, 35], "backdrop_path": "/7ck9A59iqZhO7GfdEYaJjpzXscG.jpg", "adult": false, "overview": "Bucum Jackson (Cube) is a bounty hunter with a lot of attitude and no interest in taking on a partner. Working at Martinez Bail Bonds, Jackson has unorthodox methods of tracking down low-life criminals, but they work, and one day he hopes to become his own boss and open up his own private investigation firm. Reggie Wright (Epps) is a slippery con artist who is avoiding the law, and Jackson. During a cat and mouse chase, the two stumble on a multi-million dollar diamond heist. Hiding from Jackson, Wright finds himself in the thieves' getaway van and ends up having to escape from them after they discover their booty is fake, much to the displeasure of their ruthless boss (Flanagan). When Wright meets up with his girlfriend (Mendes), he discovers that his recently purchased lottery ticket is the sole winner of $60 million. Unfortunately, his wallet, which held the ticket, was left in the thieves' van, so he persuades Jackson to help him get it back.", "poster_path": "/MnD3ueM3Kh6mxTT9oqw9fhxSzd.jpg", "popularity": 10.538}], "total_pages": 9, "total_results": 171}, "recommendations": {"page": 1, "results": [{"adult": false, "backdrop_path": "/idrtI0G4aRL40cwI4wmSAsQ07KU.jpg", "genre_ids": [12, 14], "id": 85369, "original_language": "it", "original_title": "Ercole l'invincibile", "overview": "Hercules battles to save the population from a giant dragon.", "poster_path": "/p0Ot937W1Om3pG5spKWutpYMepO.jpg", "release_date": "1964-03-19", "title": "Son of Hercules in the Land of Darkness", "video": false, "vote_average": 2.6, "vote_count": 5, "popularity": 2.979}, {"adult": false, "backdrop_path": null, "genre_ids": [80, 18], "id": 186584, "original_language": "en", "original_title": "Code Name: Diamond Head", "overview": "A failed Quinn Martin pilot for a series starring a Hawaii-based government counter intelligence agency run by the indomitable Aunt Mary. In this, his only adventure, Diamond Head has to prevent the evil Tree from stealing a deadly nerve toxin gas and selling it to foreign powers. To help Diamond Head is the Dragon Lady and Zulu.", "poster_path": "/uI7kHzmdGQl5YNTFEYlrhOD4MUM.jpg", "release_date": "1977-05-03", "title": "Code Name: Diamond Head", "video": false, "vote_average": 2.3, "vote_count": 8, "popularity": 2.327}, {"adult": false, "backdrop_path": null, "genre_ids": [28, 12, 10749], "id": 198558, "original_language": "it", "original_title": "Maciste contro i cacciatori di teste", "overview": "Maciste and his people flee their volcano-ravaged island. They end up caught in between two warring tribes.", "poster_path": "/wmCTjQhll7H5tyuA0aJbD0YcZCJ.jpg", "release_date": "1963-01-10", "title": "Colossus and the Headhunters", "video": false, "vote_average": 1.4, "vote_count": 8, "popularity": 1.595}, {"adult": false, "backdrop_path": "/zoImokSj3gplIW8jmE9Ieolm5eZ.jpg", "genre_ids": [28, 53], "id": 59228, "original_language": "en", "original_title": "Little Cigars", "overview": "A gangster's former mistress hooks up with a troupe of circus midgets who, as a sideline, rob banks and casinos.", "poster_path": "/z8q8ZnHowqjvZ23WQnwjy2rz2QZ.jpg", "release_date": "1973-06-22", "title": "Little Cigars", "video": false, "vote_average": 5.8, "vote_count": 5, "popularity": 2.465}, {"adult": false, "backdrop_path": "/pWAD2nlicvWSm4yjW9U047Ppb2A.jpg", "genre_ids": [28, 9648, 53], "id": 72114, "original_language": "en", "original_title": "The Groundstar Conspiracy", "overview": "A break-in and sabotage attempt occurs at a top secret research institute and the culprit is cornered and captured. The problem is that he's been badly injured and claims to have lost his memory entirely. A cat-and-mouse game ensues between investigator Tuxan, the mystery intruder Welles and the people who sent him on the mission.", "poster_path": "/7yAKHkLd2LuOssQ8WvFU9oML1UC.jpg", "release_date": "1972-06-12", "title": "The Groundstar Conspiracy", "video": false, "vote_average": 6.1, "vote_count": 7, "popularity": 1.619}, {"id": 40145, "video": false, "vote_count": 19, "vote_average": 5.7, "title": "Murder-Rock: Dancing Death", "release_date": "1984-01-01", "original_language": "it", "original_title": "Murderock - Uccide a passo di danza", "genre_ids": [27, 53], "backdrop_path": "/zeRsDiHuyvZc4T2ehFgJ1D1jeXy.jpg", "adult": false, "overview": "The world of dance can be brutal.  The rehearsals are grueling.  The competition is fierce.  At the Arts for Living Centre in New York City, the best of the best are dying for a part in a major production.  But only a select few will be chosen.  The selection process seems to be at the hands of mysterious killer who pierces women's bare breasts with a hatpin, puncturing their hearts.  Ambition and jealousy appear to be the motive, which makes everybody a suspect!", "poster_path": "/sbq6Ur9ASf0KhLTtKMAOndclHbv.jpg", "popularity": 3.638}, {"adult": false, "backdrop_path": "/fZGYJ6nYWEtgiAwpISrN8BAiaGS.jpg", "genre_ids": [28, 35, 80, 18], "id": 45186, "original_language": "en", "original_title": "Big Bad Mama", "overview": "Mama and daughters get forced by circumstances into bootlegging and bank robbing, and travel across the country trailed by the law.", "poster_path": "/3GLjZjmyAVpCVRb2q0tuiRUsGpA.jpg", "release_date": "1974-09-19", "title": "Big Bad Mama", "video": false, "vote_average": 6.4, "vote_count": 17, "popularity": 5.357}, {"adult": false, "backdrop_path": "/cmJf5W3mz7vVzLpFkxCuP0IBrJv.jpg", "genre_ids": [28, 12, 10751, 14], "id": 46997, "original_language": "ru", "original_title": "Sadko", "overview": "Sadko is based on an opera by Nikolai Rimsky-Korsakov, which was based on a Russian epic tale of the same name.  In the old Russian city of Novgorod, the merchants are feasting in a gorgeous palace and Sadko is bragging that he can bring to their land a sweet-voiced bird of happiness. They laugh at him, but he is offered help by the Ocean King's daughter, who is mesmerized by Sadko's singing and is in love with him. The hero is destined to visit many lands in his search of the bird.  First shown in the USA in 1953 with English subtitles, the film was re-released in the United States in 1962 in an English-dubbed and modified, but remarkably unedited,  form by Roger Corman's Filmgroup under the title The Magic Voyage of Sinbad.", "poster_path": "/20wv48sHdHM0YUvNiKvIPq84CoE.jpg", "release_date": "1953-01-05", "title": "The Magic Voyage of Sinbad", "video": false, "vote_average": 4.9, "vote_count": 14, "popularity": 4.017}, {"id": 31043, "video": false, "vote_count": 9, "vote_average": 6.0, "title": "Mike's Murder", "release_date": "1984-03-09", "original_language": "en", "original_title": "Mike's Murder", "genre_ids": [18, 9648, 53], "backdrop_path": "/lw31N59AlJfAI3S9Nd8MchfSdDx.jpg", "adult": false, "overview": "Betty has a crush on her tennis instructor Mike. He promises to call her for a date, but never does \u2013 she doesn\u2019t know he sells drugs on the side. After botching a deal on someone else\u2019s turf, Mike has to disappear for a while. He contacts Betty \u2013 then he\u2019s killed before they can meet. Betty tries to find out what happened, leading her straight into a hornet's nest of vice.", "poster_path": "/yP1HylWLrgfMs0d6Vdcs9hEHazy.jpg", "popularity": 3.852}, {"adult": false, "backdrop_path": "/tCIK9kzopLWuWP0imNAwPUGgyI2.jpg", "genre_ids": [28, 12, 35], "id": 26181, "original_language": "en", "original_title": "Some Girls Do", "overview": "A series of unexplainable accidents befall the people and companies responsible for developing the world's first supersonic airliner. A British agent is sent to investigate and with the help of another agent uncovers a plot masterminded by Carl Petersen who stands to gain eight million pounds if the aircraft is not ready by a certain date.", "poster_path": "/mPrzx8xvF05jn42ueLxKpZSjW96.jpg", "release_date": "1969-01-23", "title": "Some Girls Do", "video": false, "vote_average": 7.1, "vote_count": 5, "popularity": 3.61}, {"adult": false, "backdrop_path": "/bqlmFXk8g5lUFAiUCkbu1R3SVGS.jpg", "genre_ids": [18, 28, 80], "id": 90590, "original_language": "en", "original_title": "Policewomen", "overview": "A lady cop infiltrates an all-female criminal gang.", "poster_path": "/6OpJazXvzxlvKWy8jd9LI9kJZ3F.jpg", "release_date": "1974-02-09", "title": "Policewomen", "video": false, "vote_average": 6.1, "vote_count": 4, "popularity": 3.064}, {"id": 186585, "video": false, "vote_count": 7, "vote_average": 1.9, "title": "Last of the Wild Horses", "release_date": "1948-12-27", "original_language": "en", "original_title": "Last of the Wild Horses", "genre_ids": [37], "backdrop_path": "/mmgUkveGNQdjLduPzD6MYMv41J5.jpg", "adult": false, "overview": "A cowboy must clear himself of a murder he did not commit.", "poster_path": "/srUG6q0s44Ug28N2DYqxAPLWlcS.jpg", "popularity": 3.432}, {"id": 162042, "video": false, "vote_count": 11, "vote_average": 2.3, "title": "Riding with Death", "release_date": "1976-01-01", "original_language": "en", "original_title": "Riding with Death", "genre_ids": [28, 878, 53, 10770], "backdrop_path": null, "adult": false, "overview": "Dimwitted, meaty guy foils criminals by turning invisible.", "poster_path": "/AeIrTwVdTNA6Y4kYQ9QMA1Goahe.jpg", "popularity": 2.556}, {"id": 39889, "video": false, "vote_count": 17, "vote_average": 6.6, "title": "The Candy Snatchers", "release_date": "1973-06-01", "original_language": "en", "original_title": "The Candy Snatchers", "genre_ids": [80, 18, 53], "backdrop_path": "/wscBs1ytePjFSRsmULo2F7FkgFa.jpg", "adult": false, "overview": "An abused autistic boy is the sole witness to the kidnapping of a teenage heiress.", "poster_path": "/5fkVeonY3IDt4juvFpUjAY3m3qd.jpg", "popularity": 4.313}, {"id": 27625, "video": false, "vote_count": 20, "vote_average": 4.6, "title": "It Conquered the World", "release_date": "1956-07-14", "original_language": "en", "original_title": "It Conquered the World", "genre_ids": [27, 878, 53], "backdrop_path": "/uyvuz1wjHiv1xchdJBB1Ujh6202.jpg", "adult": false, "overview": "An alien from Venus tries to take over the world with the help of a disillusioned human scientist.", "poster_path": "/2V56EhYR3VsiXnnEMdWWPMsWO68.jpg", "popularity": 4.772}, {"adult": false, "backdrop_path": null, "genre_ids": [53, 28, 12], "id": 31123, "original_language": "en", "original_title": "Red Zone Cuba", "overview": "Gritty neo-noir art film about escaped convict Griffin and his friends, who ran all the way to hell... with a penny, and a broken cigarette.", "poster_path": "/w1K5qJXMjkbU5i3SdNGxsYfTjGb.jpg", "release_date": "1966-11-01", "title": "Red Zone Cuba", "video": false, "vote_average": 1.5, "vote_count": 15, "popularity": 2.845}], "total_pages": 1, "total_results": 16}, "credits": {"cast": [{"cast_id": 1, "character": "Jody Dvorak", "credit_id": "52fe4619c3a36847f80eca9b", "gender": 1, "id": 13567, "name": "Ann-Margret", "order": 0, "profile_path": "/pr9e0R11px4BvNOvGQuGl0pN5B3.jpg"}, {"cast_id": 2, "character": "David Stratton", "credit_id": "52fe4619c3a36847f80eca9f", "gender": 2, "id": 24367, "name": "John Forsythe", "order": 1, "profile_path": "/fgtEcuM7CyFN79IN9hXpwkAzCGs.jpg"}, {"cast_id": 3, "character": "Ron", "credit_id": "52fe4619c3a36847f80ecaa3", "gender": 2, "id": 94127, "name": "Peter Brown", "order": 2, "profile_path": "/A6q5Ozd59mgHZgOzytVhWx4gZdL.jpg"}, {"cast_id": 13, "character": "Vera", "credit_id": "53d91df6c3a3681ed00001e4", "gender": 1, "id": 40208, "name": "Patricia Barry", "order": 3, "profile_path": "/wxw6Ml6onth4WEy5PgmP1MxDoQW.jpg"}, {"cast_id": 5, "character": "Grant", "credit_id": "52fe4619c3a36847f80ecaab", "gender": 2, "id": 12312, "name": "Richard Anderson", "order": 4, "profile_path": "/Uau1zsZZgWV9Ld1Yi5X2FnDfJe.jpg"}, {"cast_id": 6, "character": "Buck Vogel (as James Ward)", "credit_id": "52fe4619c3a36847f80ecaaf", "gender": 2, "id": 39057, "name": "Skip Ward", "order": 5, "profile_path": "/f8w1oL2LzJJC2If07c4yFYMy2H5.jpg"}, {"cast_id": 7, "character": "Midge", "credit_id": "52fe4619c3a36847f80ecab3", "gender": 1, "id": 165176, "name": "Diane Sayer", "order": 6, "profile_path": "/27wDQNyHF2xt09hkFgzDy4uQqrn.jpg"}, {"cast_id": 8, "character": "Mavis Varden", "credit_id": "52fe4619c3a36847f80ecab7", "gender": 1, "id": 2772, "name": "Ann Doran", "order": 7, "profile_path": "/liEnlp1myN4WL6MmJKsOfsGjd73.jpg"}, {"cast_id": 9, "character": "Phillip Varden", "credit_id": "52fe4619c3a36847f80ecabb", "gender": 2, "id": 151895, "name": "Patrick Whyte", "order": 8, "profile_path": null}, {"cast_id": 10, "character": "Virginia Stratton", "credit_id": "52fe4619c3a36847f80ecabf", "gender": 1, "id": 80600, "name": "Audrey Dalton", "order": 9, "profile_path": "/2JXtoU1FClln2OpOzld9wBb13Y7.jpg"}], "crew": [{"credit_id": "5ac98fd892514162b704ad43", "department": "Camera", "gender": 2, "id": 14431, "job": "Director of Photography", "name": "Joseph F. Biroc", "profile_path": null}, {"credit_id": "5ac98fe40e0a264974051249", "department": "Editing", "gender": 2, "id": 29636, "job": "Editor", "name": "Russell F. Schoengarth", "profile_path": null}, {"credit_id": "5ac98fcc0e0a26497405123b", "department": "Production", "gender": 2, "id": 67349, "job": "Producer", "name": "Harry Keller", "profile_path": null}, {"credit_id": "549ee1729251411d53002c49", "department": "Writing", "gender": 0, "id": 117779, "job": "Novel", "name": "H. William Miller", "profile_path": null}, {"credit_id": "52fe4619c3a36847f80ecac5", "department": "Directing", "gender": 2, "id": 151853, "job": "Director", "name": "Douglas Heyes", "profile_path": null}, {"credit_id": "52fe4619c3a36847f80ecacb", "department": "Writing", "gender": 2, "id": 151853, "job": "Writer", "name": "Douglas Heyes", "profile_path": null}, {"credit_id": "5c9a263392514165c1f6269c", "department": "Costume & Make-Up", "gender": 1, "id": 2242301, "job": "Wardrobe Designer", "name": "Viola Thompson", "profile_path": null}, {"credit_id": "5c73e1bf9251415eecb653f5", "department": "Costume & Make-Up", "gender": 1, "id": 2242317, "job": "Makeup Artist", "name": "Dorothy Parkinson", "profile_path": null}, {"credit_id": "5ca357d50e0a2605a18e6117", "department": "Camera", "gender": 2, "id": 2278977, "job": "Camera Operator", "name": "Andrew J. McIntyre", "profile_path": null}, {"credit_id": "5d0097550e0a26333acd165b", "department": "Sound", "gender": 2, "id": 2335309, "job": "Sound", "name": "John Muchmore", "profile_path": null}, {"credit_id": "5d3701f460c51d0014823d7d", "department": "Camera", "gender": 2, "id": 2363102, "job": "Assistant Camera", "name": "Arthur Gerstle", "profile_path": null}]}}