{"adult": false, "backdrop_path": null, "belongs_to_collection": null, "budget": 0, "genres": [{"id": 35, "name": "Comedy"}], "homepage": null, "id": 428522, "imdb_id": "tt0125829", "original_language": "it", "original_title": "Lettomania", "overview": "", "popularity": 1.006, "poster_path": "/hoRtLuHLiraW1tUaiO2Jkq8L5dj.jpg", "production_companies": [{"id": 83974, "logo_path": null, "name": "R.R. International Film", "origin_country": ""}], "production_countries": [{"iso_3166_1": "IT", "name": "Italy"}], "release_date": "1976-01-01", "revenue": 0, "runtime": 88, "spoken_languages": [{"iso_639_1": "it", "name": "Italiano"}], "status": "Released", "tagline": "", "title": "Bed Crazy", "video": false, "vote_average": 4.0, "vote_count": 1, "keywords": {"keywords": [{"id": 572, "name": "sex"}]}, "similar": {"page": 1, "results": [{"adult": false, "backdrop_path": "/98ahnrena4PwLth7HFYGLf9yssH.jpg", "genre_ids": [35, 18, 10749], "id": 22705, "original_language": "it", "original_title": "Tra(sgre)dire", "overview": "While scouting out apartments in London for her Venetian boyfriend, Carla rents an apartment that overlooks the Thames. There she meet the lesbian hyper-horny real estate agent Moira.", "poster_path": "/kZITrLEiTfzzJhtwtXhQUl3ImCQ.jpg", "release_date": "2000-01-28", "title": "Cheeky", "video": false, "vote_average": 5.7, "vote_count": 92, "popularity": 30.42}, {"adult": false, "backdrop_path": "/bYbnlh6VXFRtcSX82UMDsBDLB5j.jpg", "genre_ids": [18, 10749], "id": 28468, "original_language": "it", "original_title": "La chiave", "overview": "After twenty years of marriage, art professor Nino Rolfe attempts to break down his wife Teresa's conventional modesty. Noticing her affection for their daughter's fianc\u00e9, Nino instigates her sexual interest in him as well. This sets off a chain of unexpected events and emotional complications, as Nino and his unpredictable fascist daughter find that they both enjoy being jealous.", "poster_path": "/e6g2geNLgFzMbriH6EvSJZD78nx.jpg", "release_date": "1983-10-18", "title": "The Key", "video": false, "vote_average": 5.0, "vote_count": 128, "popularity": 15.363}, {"adult": false, "backdrop_path": "/nv6Ur5vvcPrlqUlWJt3qPclNWCH.jpg", "genre_ids": [35], "id": 10246, "original_language": "en", "original_title": "Porky's", "overview": "Set in 1954, a group of Florida high schoolers seek out to lose their virginity which leads them to seek revenge on a sleazy nightclub owner and his redneck sheriff brother for harassing them.", "poster_path": "/yfwbpCll3RBxJmixrZvpc2NaqQY.jpg", "release_date": "1981-11-13", "title": "Porky's", "video": false, "vote_average": 6.2, "vote_count": 344, "popularity": 9.495}, {"adult": false, "backdrop_path": "/w2UHBWTJux7bWSi44mMS21tPhGT.jpg", "genre_ids": [35, 18, 10749], "id": 9499, "original_language": "en", "original_title": "Le Divorce", "overview": "While visiting her sister in Paris, a young woman finds romance and learns her brother-in-law is a philanderer.", "poster_path": "/kknXCFaww99tXIu8hY1kXwu0fep.jpg", "release_date": "2003-08-08", "title": "Le Divorce", "video": false, "vote_average": 5.0, "vote_count": 80, "popularity": 12.786}, {"adult": false, "backdrop_path": "/tvTyRu9eKfymkje8d9VoWJEoyUv.jpg", "genre_ids": [18], "id": 53932, "original_language": "es", "original_title": "Las edades de Lul\u00fa", "overview": "Fifteen-year-old Lulu has never known any affection from her family. But when she goes to a rock concert with Pablo, a friend of the family, he introduces Lulu to her first sexual experience. Years later, Pablo and Lulu have married; Pablo has created a sheltered, private world for Lulu, into which nothing intrudes. However, Lulu tires of her cloistered existence, and begins hanging out in shady bars, looking for vicarious thrills and danger.", "poster_path": "/5PK5MAN84o0ESgzeW9euozOLIEe.jpg", "release_date": "1990-12-13", "title": "The Ages of Lulu", "video": false, "vote_average": 5.7, "vote_count": 64, "popularity": 24.141}, {"id": 12531, "video": false, "vote_count": 91, "vote_average": 6.9, "title": "The Apartment", "release_date": "1996-07-27", "original_language": "fr", "original_title": "L'Appartement", "genre_ids": [18, 9648, 10749], "backdrop_path": "/64qyT8m4JQ6YODvXxtbHgKmXBX7.jpg", "adult": false, "overview": "A stylish suspense thriller that confounds the audience while presenting them with an extraordinary and elusive mystery. Max is a former playboy who has decided to settle down by marrying his current love, Muriel. However, during a business trip, Max catches a glimpse of the great lost love of his life, reviving his wanderlust and sending him off on a chase of the elusive Lisa, whom he had overheard suggesting to a friend that her lover, Daniel, had killed someone for her. Soon, Max is trying to unravel the mystery behind the suspicious death of Daniel's wife, which he hopes will lead him closer to Lisa.", "poster_path": "/1sqrQdQTn8jKLhUcPKfRVj639zA.jpg", "popularity": 19.17}, {"adult": false, "backdrop_path": "/xC9cG6Wy6QbH2hoAx11xPPD995R.jpg", "genre_ids": [18, 10749], "id": 86331, "original_language": "fr", "original_title": "Q", "overview": "In a social context deteriorated by a countrywide economic crisis, the life of several people will be turned upside down after they meet Cecile, a character who symbolizes desire.", "poster_path": "/9Jg9s4yTEndNmy1SSXRF9jdxY9D.jpg", "release_date": "2011-09-14", "title": "Desire", "video": false, "vote_average": 4.6, "vote_count": 204, "popularity": 25.756}, {"id": 10995, "video": false, "vote_count": 255, "vote_average": 6.6, "title": "The Lover", "release_date": "1992-02-22", "original_language": "fr", "original_title": "L'Amant", "genre_ids": [18, 10749], "backdrop_path": "/zRAgf1F0rRp0Tys8AnMWGBFJRZv.jpg", "adult": false, "overview": "A poor French teenage girl engages in an illicit affair with a wealthy Chinese heir in 1920s Saigon. For the first time in her young life she has control, and she wields it deftly over her besotted lover throughout a series of clandestine meetings and torrid encounters.", "poster_path": "/iey1UA4hav2cn60qGi1zgKxpPBl.jpg", "popularity": 13.161}, {"adult": false, "backdrop_path": "/qPCI9SZmHXmeG6OK367r9GvkuGl.jpg", "genre_ids": [35, 10749], "id": 41280, "original_language": "en", "original_title": "Private Lessons", "overview": "Phillip Filmore is a naive, 15-year-old, preoccupied with sex, who develops a crush on Nicole Mallow, the new 30-something, French housekeeper and sitter to look after him when Phillip's father is out of town for the summer on a \"business\" trip. But Mr. Filmore's unscrupulous chauffeur, Lester Lewis, takes advantage of Phillip's crush on Nicole to hire her to seduce the youth, then draws her into a plot to fake her own death in a blackmail scheme aimed to drain Phillip's trust fund.", "poster_path": "/azdrerXeyr2Aofr7p9osEWnz05g.jpg", "release_date": "1981-08-21", "title": "Private Lessons", "video": false, "vote_average": 5.8, "vote_count": 37, "popularity": 24.872}, {"id": 2770, "video": false, "vote_count": 2941, "vote_average": 6.1, "title": "American Pie 2", "release_date": "2001-08-10", "original_language": "en", "original_title": "American Pie 2", "genre_ids": [35, 10749], "backdrop_path": "/1C1d3Tpesm8Vn3BRqsQZt0LfZcG.jpg", "adult": false, "overview": "The whole gang are back and as close as ever. They decide to get even closer by spending the summer together at a beach house. They decide to hold the biggest party ever to be seen, even if the preparation doesn't always go to plan. Especially when Stifler, Finch and Jim become more close to each other than they ever want to be and when Jim mistakes super glue for lubricant...", "poster_path": "/q4LNgUnRfltxzp3gf1MAGiK5LhV.jpg", "popularity": 20.359}, {"adult": false, "backdrop_path": "/avhG8fITuG78IkKPk28CcBBHPOp.jpg", "genre_ids": [35, 18], "id": 112160, "original_language": "fr", "original_title": "Chroniques sexuelles d'une famille d'aujourd'hui", "overview": "Three generations of a French family open up about their sexual experiences and desires after young Romain is caught masturbating in his biology class.", "poster_path": "/pU2nD3Llaz3Taq5FAaQUg00uJYD.jpg", "release_date": "2012-05-09", "title": "Sexual Chronicles of a French Family", "video": false, "vote_average": 4.4, "vote_count": 169, "popularity": 26.875}, {"adult": false, "backdrop_path": "/s7dcAllZEVSrVIVMUVAUmwAxFmn.jpg", "genre_ids": [35], "id": 4247, "original_language": "en", "original_title": "Scary Movie", "overview": "Following on the heels of popular teen-scream horror movies, with uproarious comedy and biting satire. Marlon and Shawn Wayans, Shannon Elizabeth and Carmen Electra pitch in to skewer some of Hollywood's biggest blockbusters, including Scream, I Know What You Did Last Summer, The Matrix, American Pie and The Blair Witch Project.", "poster_path": "/bvVmVFBVQLytK1H4TJTFdnhvf4T.jpg", "release_date": "2000-07-07", "title": "Scary Movie", "video": false, "vote_average": 6.2, "vote_count": 3801, "popularity": 22.055}, {"adult": false, "backdrop_path": "/ecREZ3vYCqethftSDWK4we0X498.jpg", "genre_ids": [35, 18, 10749], "id": 4507, "original_language": "es", "original_title": "Jam\u00f3n, jam\u00f3n", "overview": "Jose Luis is an executive at his parents underwear factory where his girlfriend Sylvia works on the shop floor. When Sylvia becomes pregnant, Jose Luis promises her that he will marry her, most likely against the wishes of his parents. Jose Luis' mother is determined to break her son's engagement to a girl from a lower-class family, and hires Raul, a potential underwear model and would-be bullfighter to seduce Sylvia.", "poster_path": "/v5Fq01ZtYnA2Grxdd3g8CuGZARg.jpg", "release_date": "1992-09-03", "title": "Jamon Jamon", "video": false, "vote_average": 6.1, "vote_count": 143, "popularity": 13.381}, {"adult": false, "backdrop_path": "/m83O9TqAiZo3F2YgxMpuA5kxGZP.jpg", "genre_ids": [35, 10749], "id": 50124, "original_language": "it", "original_title": "Monella", "overview": "The story takes place in northern Italy in the 1950's. Lola and Masetto are about to get married. Masetto wants to keep Lola as a virgin until they are married. But Lola is impatient to remain in chastity until the wedding night. She wants to be sure that Masetto is a good lover, before she commits herself into marriage. She does everything to trick Masetto into breaking the moral tradition.", "poster_path": "/2mlv1R8MlhlGw4dZ0tXy0K6u7ew.jpg", "release_date": "1998-01-21", "title": "Frivolous Lola", "video": false, "vote_average": 4.3, "vote_count": 85, "popularity": 10.199}, {"adult": false, "backdrop_path": "/xOGEw8iywxcFMolV6SF6YdTdJTb.jpg", "genre_ids": [10402, 10749], "id": 52371, "original_language": "nl", "original_title": "LelleBelle", "overview": "19-year old Belle practices playing the violin diligently, but is unable to impart her music with a sensitive undertone. Her life changes when she discovers that sexual desire stimulates passion in her music.", "poster_path": "/nJVPgIq3icZMQ26p5uWIFdUZJfL.jpg", "release_date": "2010-10-08", "title": "LelleBelle", "video": false, "vote_average": 4.7, "vote_count": 41, "popularity": 13.747}, {"adult": false, "backdrop_path": "/vXT5Gw09k99o9XXqqxBPz9NKgsa.jpg", "genre_ids": [35, 12], "id": 9285, "original_language": "en", "original_title": "Road Trip", "overview": "Four friends take off on an 1800 mile road trip to retrieve an illicit tape mistakenly mailed to a girl friend.", "poster_path": "/DCoZVnHVvtKTYwfM00dfVRbfUQ.jpg", "release_date": "2000-05-19", "title": "Road Trip", "video": false, "vote_average": 6.0, "vote_count": 1018, "popularity": 20.323}, {"adult": false, "backdrop_path": "/a8xpxCnvqKyshdrDNFGs6oy4r8N.jpg", "genre_ids": [18, 10749], "id": 1278, "original_language": "en", "original_title": "The Dreamers", "overview": "A young American studying in Paris in 1968 strikes up a friendship with a French brother and sister. Set against the background of the '68 Paris student riots.", "poster_path": "/7ABcfmXQZeCXl5sNrDuLS1URMPN.jpg", "release_date": "2003-09-01", "title": "The Dreamers", "video": false, "vote_average": 7.2, "vote_count": 1671, "popularity": 15.849}, {"id": 263472, "video": false, "vote_count": 1669, "vote_average": 5.0, "title": "Knock Knock", "release_date": "2015-06-26", "original_language": "en", "original_title": "Knock Knock", "genre_ids": [18, 53], "backdrop_path": "/gJduaRau3X2oE3xkmjs1FufT2GE.jpg", "adult": false, "overview": "When a devoted husband and father is left home alone for the weekend, two stranded young women unexpectedly knock on his door for help. What starts out as a kind gesture results in a dangerous seduction and a deadly game of cat and mouse.", "poster_path": "/eynMtjBB1fXsB5vsQylVmsDLmvw.jpg", "popularity": 19.205}, {"adult": false, "backdrop_path": "/uC54rlRdLMZ46fnrz5SoVYleNyv.jpg", "genre_ids": [18], "id": 4995, "original_language": "en", "original_title": "Boogie Nights", "overview": "Set in 1977, back when sex was safe, pleasure was a business and business was booming, idealistic porn producer Jack Horner aspires to elevate his craft to an art form. Horner discovers Eddie Adams, a hot young talent working as a busboy in a nightclub, and welcomes him into the extended family of movie-makers, misfits and hangers-on that are always around. Adams' rise from nobody to a celebrity adult entertainer is meteoric, and soon the whole world seems to know his porn alter ego, \"Dirk Diggler\". Now, when disco and drugs are in vogue, fashion is in flux and the party never seems to stop, Adams' dreams of turning sex into stardom are about to collide with cold, hard reality.", "poster_path": "/gTq6MPt7SeMiJ2miHeMoNEZTz4p.jpg", "release_date": "1997-10-07", "title": "Boogie Nights", "video": false, "vote_average": 7.6, "vote_count": 1660, "popularity": 21.563}, {"id": 290098, "video": false, "vote_count": 1506, "vote_average": 8.3, "title": "The Handmaiden", "release_date": "2016-06-01", "original_language": "ko", "original_title": "\uc544\uac00\uc528", "genre_ids": [18, 53, 10749], "backdrop_path": "/keQhqxE9i7wNQIM3W5B0iLnjaHW.jpg", "adult": false, "overview": "1930s Korea, in the period of Japanese occupation, a young woman is hired as a handmaiden to a Japanese heiress who lives a secluded life on a large countryside estate with her domineering uncle. But, the maid has a secret: she is a pickpocket recruited by a swindler posing as a Japanese count to help him seduce the heiress to elope with him, rob her of her fortune, and lock her up in a madhouse. The plan seems to proceed according to plan until the women discover some unexpected emotions.", "poster_path": "/cw1BvSDk4wyHHpVStj4t82pAvq7.jpg", "popularity": 20.604}], "total_pages": 181, "total_results": 3607}, "recommendations": {"page": 1, "results": [], "total_pages": 1, "total_results": 0}, "credits": {"cast": [{"cast_id": 0, "character": "Dora", "credit_id": "584018a5c3a36862df00a0ec", "gender": 1, "id": 1174380, "name": "Carmen Villani", "order": 1, "profile_path": "/1X4jK4PM2VDpRzx0Cd7ikb6DILI.jpg"}, {"cast_id": 1, "character": "Max", "credit_id": "584018b2c3a36862eb00af1a", "gender": 2, "id": 46096, "name": "Harry Reems", "order": 2, "profile_path": "/7bSq7C340vcHiVBRpIPjooMx04e.jpg"}, {"cast_id": 2, "character": "Giulio", "credit_id": "584018bec3a36862eb00af2b", "gender": 0, "id": 32678, "name": "Alberto Squillante", "order": 3, "profile_path": "/cuf9oDiQRhKsm4mk4YsGOAANyKH.jpg"}, {"cast_id": 3, "character": "Leone", "credit_id": "584018c89251417f74009b39", "gender": 0, "id": 1398940, "name": "Armando Celso", "order": 4, "profile_path": "/6Jv3ZObFRUr0lEesxOsjtOlzfO2.jpg"}, {"cast_id": 4, "character": "Hermann Tiller", "credit_id": "584018d59251417f89009985", "gender": 2, "id": 543681, "name": "Pietro Tordi", "order": 5, "profile_path": "/63UffElgIOX8gGJZZ48PV8yXNiC.jpg"}, {"cast_id": 5, "character": "", "credit_id": "584018dc9251417f76009ca2", "gender": 0, "id": 1716682, "name": "Marisella Biancheri", "order": 6, "profile_path": null}, {"cast_id": 6, "character": "", "credit_id": "584018e49251417f83009aff", "gender": 0, "id": 1604224, "name": "Alberto Carrera", "order": 7, "profile_path": null}, {"cast_id": 7, "character": "", "credit_id": "584018ec9251417f79009ce5", "gender": 0, "id": 1716683, "name": "Rosanna Callegari", "order": 8, "profile_path": null}, {"cast_id": 8, "character": "", "credit_id": "584018f4c3a36862d90094f6", "gender": 0, "id": 1716684, "name": "Carlo Faita", "order": 9, "profile_path": null}, {"cast_id": 9, "character": "", "credit_id": "584018fc9251417f890099a1", "gender": 2, "id": 239654, "name": "Enzo Fisichella", "order": 10, "profile_path": "/cFMrLF4DyV5Nza5l0F2h7zFvNmH.jpg"}, {"cast_id": 10, "character": "", "credit_id": "58401904c3a36862e10098ab", "gender": 0, "id": 1716685, "name": "Anna Tibiletto", "order": 11, "profile_path": null}, {"cast_id": 11, "character": "", "credit_id": "5840190dc3a36862e10098bc", "gender": 0, "id": 1716686, "name": "Alvaro Caccianiga", "order": 12, "profile_path": null}, {"cast_id": 12, "character": "", "credit_id": "58401915c3a36862d9009514", "gender": 0, "id": 1716687, "name": "Franco Pesante", "order": 13, "profile_path": null}, {"cast_id": 13, "character": "", "credit_id": "5840191cc3a36862e40099b4", "gender": 0, "id": 1691649, "name": "Massimo Buscemi", "order": 14, "profile_path": "/eapkAJl5OIuMbkXh3q8YSWTr8ce.jpg"}, {"cast_id": 14, "character": "", "credit_id": "58401923c3a36862d9009520", "gender": 0, "id": 1106011, "name": "Flavio Bonacci", "order": 15, "profile_path": "/5Rgq27MHFzt7n4BuWHJqg9D5mDu.jpg"}, {"cast_id": 15, "character": "", "credit_id": "58401937c3a36862d50091f6", "gender": 0, "id": 1716689, "name": "Alba Titti Minoia", "order": 16, "profile_path": null}, {"cast_id": 16, "character": "", "credit_id": "5840193f9251417f74009b88", "gender": 0, "id": 1604225, "name": "Annibale Papetti", "order": 17, "profile_path": null}, {"cast_id": 17, "character": "", "credit_id": "58401946c3a36862d3009934", "gender": 0, "id": 938453, "name": "Daniela Morelli", "order": 18, "profile_path": null}, {"cast_id": 18, "character": "", "credit_id": "5840194ec3a36862eb00afaa", "gender": 0, "id": 1716690, "name": "Gino Mazzotta", "order": 19, "profile_path": null}, {"cast_id": 19, "character": "", "credit_id": "58401956c3a36862e10098ef", "gender": 0, "id": 1716691, "name": "Domenico Boffelli", "order": 20, "profile_path": null}, {"cast_id": 20, "character": "(as Enzo De Toma)", "credit_id": "584019639251417f890099eb", "gender": 0, "id": 1205204, "name": "Vincenzo De Toma", "order": 21, "profile_path": "/yPIQRBbfR2yur2pwS3psuePrnog.jpg"}], "crew": [{"credit_id": "58401a869251417f79009e0a", "department": "Production", "gender": 0, "id": 1716701, "job": "Unit Manager", "name": "Alberto Rigo", "profile_path": null}, {"credit_id": "58401a9ec3a36862db009406", "department": "Sound", "gender": 0, "id": 1716703, "job": "Sound", "name": "Domenico Pasquadibisceglie", "profile_path": null}, {"credit_id": "584019f9c3a36862df00a1ec", "department": "Directing", "gender": 0, "id": 1205206, "job": "Director", "name": "Vincenzo Rigo", "profile_path": null}, {"credit_id": "58401a02c3a36862eb00b020", "department": "Writing", "gender": 0, "id": 1205206, "job": "Writer", "name": "Vincenzo Rigo", "profile_path": null}, {"credit_id": "58401a0dc3a36862db009396", "department": "Writing", "gender": 0, "id": 1716694, "job": "Story", "name": "Livio Musso", "profile_path": null}, {"credit_id": "58401a189251417f89009a6b", "department": "Sound", "gender": 0, "id": 21540, "job": "Music", "name": "Franco Campanino", "profile_path": null}, {"credit_id": "58401a249251417f79009dcc", "department": "Crew", "gender": 0, "id": 1082659, "job": "Cinematography", "name": "Gino Santini", "profile_path": null}, {"credit_id": "58401a2e9251417f74009c49", "department": "Editing", "gender": 0, "id": 42040, "job": "Editor", "name": "Giancarlo Venarucci", "profile_path": null}, {"credit_id": "58401a379251417f76009db5", "department": "Art", "gender": 0, "id": 1307019, "job": "Art Direction", "name": "Franco Gambarana", "profile_path": null}, {"credit_id": "58401a43c3a36862e10099a6", "department": "Costume & Make-Up", "gender": 0, "id": 1716696, "job": "Costume Design", "name": "Loriana Saligeri", "profile_path": null}, {"credit_id": "58401a4ec3a36862db0093ba", "department": "Costume & Make-Up", "gender": 0, "id": 1716697, "job": "Makeup Artist", "name": "Giuliani De Carli", "profile_path": null}, {"credit_id": "58401a58c3a36862d900961f", "department": "Costume & Make-Up", "gender": 0, "id": 1716698, "job": "Hairstylist", "name": "Romana Piolanti", "profile_path": null}, {"credit_id": "58401a649251417f76009dd5", "department": "Production", "gender": 0, "id": 70236, "job": "Production Manager", "name": "Alessandro Calosci", "profile_path": null}, {"credit_id": "58401a6f9251417f80009db5", "department": "Production", "gender": 0, "id": 1716699, "job": "Production Manager", "name": "Michelangelo Ciafr\u00e9", "profile_path": null}, {"credit_id": "58401a7ac3a36862d9009639", "department": "Production", "gender": 0, "id": 1716700, "job": "Production Supervisor", "name": "Giuseppe Gerola", "profile_path": null}, {"credit_id": "58401a919251417f76009ded", "department": "Directing", "gender": 0, "id": 1716702, "job": "Assistant Director", "name": "Augusto Compagnoni", "profile_path": null}, {"credit_id": "58401aa99251417f7d009e0c", "department": "Sound", "gender": 0, "id": 1589494, "job": "Boom Operator", "name": "Giuseppina Sagliano", "profile_path": null}, {"credit_id": "58401ab3c3a36862d50092ff", "department": "Camera", "gender": 0, "id": 1716704, "job": "Camera Operator", "name": "Dario Semeraro", "profile_path": null}, {"credit_id": "58401abec3a36862e4009aea", "department": "Editing", "gender": 0, "id": 1716705, "job": "Assistant Editor", "name": "Vincenzo Di Santo", "profile_path": null}, {"credit_id": "58401acac3a36862d3009a53", "department": "Directing", "gender": 0, "id": 1716706, "job": "Script Supervisor", "name": "Bruna Malaguti", "profile_path": null}]}}