{"adult": false, "backdrop_path": "/umxYd0gm0dIWs0bwq4QZs2gsuLe.jpg", "belongs_to_collection": null, "budget": 0, "genres": [{"id": 35, "name": "Comedy"}, {"id": 10749, "name": "Romance"}], "homepage": null, "id": 42988, "imdb_id": "tt0057681", "original_language": "en", "original_title": "The Wheeler Dealers", "overview": "Henry J. Tyroone leaves Texas, where his oil wells are drying up, and arrives in New York with a lot of oil money to play with in the stock market.  He meets stock analyst Molly Thatcher, who tries to ignore the lavish attention he spends on her but ...", "popularity": 3.809, "poster_path": "/mKQVrAV2hbdhcJUTq4nyFfIXxJO.jpg", "production_companies": [{"id": 1138, "logo_path": null, "name": "Filmways Pictures", "origin_country": ""}], "production_countries": [{"iso_3166_1": "US", "name": "United States of America"}], "release_date": "1963-01-01", "revenue": 0, "runtime": 107, "spoken_languages": [{"iso_639_1": "en", "name": "English"}, {"iso_639_1": "fr", "name": "Fran\u00e7ais"}, {"iso_639_1": "it", "name": "Italiano"}], "status": "Released", "tagline": "He really wasn't out to make $1,000,000. He already had that!", "title": "The Wheeler Dealers", "video": false, "vote_average": 6.4, "vote_count": 9, "keywords": {"keywords": [{"id": 6127, "name": "securities, stocks and bonds "}, {"id": 9840, "name": "romance"}, {"id": 12541, "name": "misunderstanding"}, {"id": 249260, "name": "flim-flam"}]}, "similar": {"page": 1, "results": [{"id": 52345, "video": false, "vote_count": 221, "vote_average": 7.8, "title": "Lisbela and the Prisoner", "release_date": "2003-08-22", "original_language": "pt", "original_title": "Lisbela e o Prisioneiro", "genre_ids": [35, 10749], "backdrop_path": "/4KDlC0cZvR5LtszqjFhZcMzdiUD.jpg", "adult": false, "overview": "Lisbela is a young woman who loves going to the movies. Lel\u00e9u is a con man, going from town to town selling all sort of things and performing as master of ceremonies for some cheesy numbers, such as the woman who gets transformed into a gorilla. He gets involved with Linaura, a sexy and beautiful woman who happens to be the wife of the most frightening hitman of the place. The hitman finds out his wife's affair and goes after Lel\u00e9u, who has to leave in a hurry. In another town, he meets and falls instantly in love with Lisbela, who is engaged to Douglas, a hillbilly who tries hard to pass for a cosmopolitan Rio de Janeiro dweller.", "poster_path": "/9nlaRxQeYaMrVVANMppagFohCRP.jpg", "popularity": 1.389}, {"id": 76492, "video": false, "vote_count": 5544, "vote_average": 6.9, "title": "Hotel Transylvania", "release_date": "2012-09-20", "original_language": "en", "original_title": "Hotel Transylvania", "genre_ids": [16, 35, 14, 10751], "backdrop_path": "/sETTal2HPPkUC3lWc27HL1AFu9C.jpg", "adult": false, "overview": "Welcome to Hotel Transylvania, Dracula's lavish five-stake resort, where monsters and their families can live it up and no humans are allowed. One special weekend, Dracula has invited all his best friends to celebrate his beloved daughter Mavis's 118th birthday. For Dracula catering to all of these legendary monsters is no problem but the party really starts when one ordinary guy stumbles into the hotel and changes everything!", "poster_path": "/9qugesYpAWHUpdrw2w8URSGkAPt.jpg", "popularity": 25.375}, {"adult": false, "backdrop_path": "/5OeY4U2rzePxWq2rkqMajUx2gz7.jpg", "genre_ids": [16, 10751, 12, 14, 10749], "id": 812, "original_language": "en", "original_title": "Aladdin", "overview": "Princess Jasmine grows tired of being forced to remain in the palace, so she sneaks out into the marketplace, in disguise, where she meets street-urchin Aladdin.  The couple falls in love, although Jasmine may only marry a prince.  After being thrown in jail, Aladdin becomes embroiled in a plot to find a mysterious lamp, with which the evil Jafar hopes to rule the land.", "poster_path": "/mjKozYRuHc9j7SmiXmbVmCiAM0A.jpg", "release_date": "1992-11-25", "title": "Aladdin", "video": false, "vote_average": 7.6, "vote_count": 7288, "popularity": 46.629}, {"id": 9051, "video": false, "vote_count": 115, "vote_average": 5.6, "title": "10", "release_date": "1979-10-04", "original_language": "en", "original_title": "10", "genre_ids": [35, 10749], "backdrop_path": "/f0KcQlWKQfgJxIV365TFaFyXUVT.jpg", "adult": false, "overview": "A Hollywood songwriter goes through a mid-life crisis and becomes infatuated with a sexy blonde newlywed.", "poster_path": "/7GGpt49Q2c98zVz514mHlRjCpGy.jpg", "popularity": 10.949}, {"adult": false, "backdrop_path": "/yl0siKWmGjnBcuCEacKyW0vHsWq.jpg", "genre_ids": [10749, 18], "id": 409387, "original_language": "ko", "original_title": "\uc815\uc0ac : \uacb0\ud63c \ub9d0\uace0 \uc5f0\uc560", "overview": "\"Getting married is crazy! I only want to be in relationships!\" The life story of a woman who doesn't want to settle for one man. Her mom nags at her to get married, her superior grills her to bring results and her boyfriend turns out to be married. Soo-kyeong comforts herself with some spicy food. One lonely birthday, she ends up having sex with the chef of the spicy food restaurant. They fit well mentally and physically so they get closer but Soo-kyeong rejects the chef's marriage proposal. The chef gets married with someone else and asks her, \"I got married with someone else like you said. Now will you have a relationship with me?\"", "poster_path": "/4hiv07Quj8A7J8onCIAjNCy62Er.jpg", "release_date": "2016-04-19", "title": "Sex: A Relationship and Not Marriage", "video": false, "vote_average": 7.7, "vote_count": 3, "popularity": 15.508}, {"id": 12531, "video": false, "vote_count": 91, "vote_average": 6.9, "title": "The Apartment", "release_date": "1996-07-27", "original_language": "fr", "original_title": "L'Appartement", "genre_ids": [18, 9648, 10749], "backdrop_path": "/64qyT8m4JQ6YODvXxtbHgKmXBX7.jpg", "adult": false, "overview": "A stylish suspense thriller that confounds the audience while presenting them with an extraordinary and elusive mystery. Max is a former playboy who has decided to settle down by marrying his current love, Muriel. However, during a business trip, Max catches a glimpse of the great lost love of his life, reviving his wanderlust and sending him off on a chase of the elusive Lisa, whom he had overheard suggesting to a friend that her lover, Daniel, had killed someone for her. Soon, Max is trying to unravel the mystery behind the suspicious death of Daniel's wife, which he hopes will lead him closer to Lisa.", "poster_path": "/1sqrQdQTn8jKLhUcPKfRVj639zA.jpg", "popularity": 21.259}, {"id": 50620, "video": false, "vote_count": 5626, "vote_average": 6.3, "title": "The Twilight Saga: Breaking Dawn - Part 2", "release_date": "2012-11-13", "original_language": "en", "original_title": "The Twilight Saga: Breaking Dawn - Part 2", "genre_ids": [12, 18, 14, 10749], "backdrop_path": "/xDWphxQqBfZJVlTrg6C0GQBSeUc.jpg", "adult": false, "overview": "After the birth of Renesmee, the Cullens gather other vampire clans in order to protect the child from a false allegation that puts the family in front of the Volturi.", "poster_path": "/kJQPygYB8aNEevZZHRifyYrAdU9.jpg", "popularity": 21.13}, {"id": 38, "video": false, "vote_count": 8439, "vote_average": 8.1, "title": "Eternal Sunshine of the Spotless Mind", "release_date": "2004-03-19", "original_language": "en", "original_title": "Eternal Sunshine of the Spotless Mind", "genre_ids": [18, 878, 10749], "backdrop_path": "/1dXTsaFxHoF9cas08UjAqE8NqOW.jpg", "adult": false, "overview": "Joel Barish, heartbroken that his girlfriend underwent a procedure to erase him from her memory, decides to do the same. However, as he watches his memories of her fade away, he realises that he still loves her, and may be too late to correct his mistake.", "poster_path": "/7y3eYvTsGjxPYDtSnumCLIMDkrV.jpg", "popularity": 22.167}, {"id": 27022, "video": false, "vote_count": 3218, "vote_average": 6.0, "title": "The Sorcerer's Apprentice", "release_date": "2010-07-13", "original_language": "en", "original_title": "The Sorcerer's Apprentice", "genre_ids": [28, 12, 35, 18, 14], "backdrop_path": "/v0o9M1us65w1kDQp8Q6KnB5a11s.jpg", "adult": false, "overview": "Balthazar Blake is a master sorcerer in modern-day Manhattan trying to defend the city from his arch-nemesis, Maxim Horvath. Balthazar can't do it alone, so he recruits Dave Stutler, a seemingly average guy who demonstrates hidden potential, as his reluctant prot\u00e9g\u00e9. The sorcerer gives his unwilling accomplice a crash course in the art and science of magic, and together, these unlikely partners work to stop the forces of darkness.", "poster_path": "/ZNSrRpdJ6FjMy4Iu6JpRTJ5Q87.jpg", "popularity": 20.949}, {"id": 537915, "video": false, "vote_count": 2376, "vote_average": 6.0, "title": "After", "release_date": "2019-04-11", "original_language": "en", "original_title": "After", "genre_ids": [18, 10749], "backdrop_path": "/997ToEZvF2Obp9zNZbY5ELVnmrW.jpg", "adult": false, "overview": "Tessa Young is a dedicated student, dutiful daughter and loyal girlfriend to her high school sweetheart. Entering her first semester of college, Tessa's guarded world opens up when she meets Hardin Scott, a mysterious and brooding rebel who makes her question all she thought she knew about herself -- and what she wants out of life.", "poster_path": "/u3B2YKUjWABcxXZ6Nm9h10hLUbh.jpg", "popularity": 28.116}, {"adult": false, "backdrop_path": "/74Jh5SIWnKDwtusPfDP51EeCFHt.jpg", "genre_ids": [35, 10749], "id": 9576, "original_language": "en", "original_title": "Tootsie", "overview": "When struggling, out of work actor Michael Dorsey secretly adopts a female alter ego - Dorothy Michaels - in order to land a part in a daytime drama, he unwittingly becomes a feminist icon and ends up in a romantic pickle.", "poster_path": "/ngyCzZwb9y5sMUCig5JQT4Y33Q.jpg", "release_date": "1982-12-16", "title": "Tootsie", "video": false, "vote_average": 7.2, "vote_count": 915, "popularity": 10.882}, {"id": 293863, "video": false, "vote_count": 4193, "vote_average": 7.4, "title": "The Age of Adaline", "release_date": "2015-04-16", "original_language": "en", "original_title": "The Age of Adaline", "genre_ids": [18, 14, 10749], "backdrop_path": "/dgOosqHUPTrs9hDijYTnBNHYYib.jpg", "adult": false, "overview": "After 29-year-old Adaline recovers from a nearly lethal accident, she inexplicably stops growing older. As the years stretch on and on, Adaline keeps her secret to herself  until she meets a man who changes her life.", "poster_path": "/gEDGROZ4NQDlRjUPPSSyIf0hKvD.jpg", "popularity": 14.551}, {"adult": false, "backdrop_path": "/bQW1TnxHlmkWof0vsALj4HBkoxj.jpg", "genre_ids": [18, 10749], "id": 51828, "original_language": "en", "original_title": "One Day", "overview": "A romantic comedy centered on Dexter and Emma, who first meet during their graduation in 1988 and proceed to keep in touch regularly. The film follows what they do on July 15 annually, usually doing something together.", "poster_path": "/xzOz17yC3K6SZWtWylXimcHUqpD.jpg", "release_date": "2011-03-02", "title": "One Day", "video": false, "vote_average": 7.2, "vote_count": 2342, "popularity": 15.269}, {"adult": false, "backdrop_path": "/xC9cG6Wy6QbH2hoAx11xPPD995R.jpg", "genre_ids": [18, 10749], "id": 86331, "original_language": "fr", "original_title": "Q", "overview": "In a social context deteriorated by a countrywide economic crisis, the life of several people will be turned upside down after they meet Cecile, a character who symbolizes desire.", "poster_path": "/9Jg9s4yTEndNmy1SSXRF9jdxY9D.jpg", "release_date": "2011-09-14", "title": "Desire", "video": false, "vote_average": 4.7, "vote_count": 204, "popularity": 30.344}, {"id": 49013, "video": false, "vote_count": 4527, "vote_average": 5.9, "title": "Cars 2", "release_date": "2011-06-11", "original_language": "en", "original_title": "Cars 2", "genre_ids": [12, 16, 35, 10751], "backdrop_path": "/jEcmZhtJkZQc6ta2vzBd9CU7GIx.jpg", "adult": false, "overview": "Star race car Lightning McQueen and his pal Mater head overseas to compete in the World Grand Prix race. But the road to the championship becomes rocky as Mater gets caught up in an intriguing adventure of his own: international espionage.", "poster_path": "/AblhtULOVtrkSnFxRPQ8gBemxw9.jpg", "popularity": 27.827}, {"id": 369885, "video": false, "vote_count": 3048, "vote_average": 6.7, "title": "Allied", "release_date": "2016-11-17", "original_language": "en", "original_title": "Allied", "genre_ids": [28, 18, 53, 10749, 10752], "backdrop_path": "/tC0tVH5KQhCwMlddnyA3iWOSuBA.jpg", "adult": false, "overview": "In 1942, an intelligence officer in North Africa encounters a female French Resistance fighter on a deadly mission behind enemy lines. When they reunite in London, their relationship is tested by the pressures of war.", "poster_path": "/nzXzLFTnd0Zb3ExfhOxlQgizgSu.jpg", "popularity": 32.359}, {"adult": false, "backdrop_path": "/fBYnaVOcc2Ghfkv473z0xdBRQ0m.jpg", "genre_ids": [10751, 16, 12, 35], "id": 270946, "original_language": "en", "original_title": "Penguins of Madagascar", "overview": "Skipper, Kowalski, Rico and Private join forces with undercover organization The North Wind to stop the villainous Dr. Octavius Brine from destroying the world as we know it.", "poster_path": "/pRer59eyY4rjkLPeKXKo7fPxCHH.jpg", "release_date": "2014-11-22", "title": "Penguins of Madagascar", "video": false, "vote_average": 6.4, "vote_count": 2485, "popularity": 30.234}, {"id": 10719, "video": false, "vote_count": 2250, "vote_average": 6.6, "title": "Elf", "release_date": "2003-10-09", "original_language": "en", "original_title": "Elf", "genre_ids": [35, 14, 10751], "backdrop_path": "/jRzrQ7Thcjpetr0n8B6w980eZet.jpg", "adult": false, "overview": "When young Buddy falls into Santa's gift sack on Christmas Eve, he's transported back to the North Pole and raised as a toy-making elf by Santa's helpers. But as he grows into adulthood, he can't shake the nagging feeling that he doesn't belong. Buddy vows to visit Manhattan and find his real dad, a workaholic publisher.", "poster_path": "/9jChHqqcpe0zHNTqkNqWZkwkgil.jpg", "popularity": 14.689}, {"id": 295151, "video": false, "vote_count": 539, "vote_average": 6.2, "title": "Let It Snow", "release_date": "2019-11-08", "original_language": "en", "original_title": "Let It Snow", "genre_ids": [35, 10749], "backdrop_path": "/4oSRQ03nJjl8sZAPgIXgi51XZva.jpg", "adult": false, "overview": "When a huge blizzard (that doesn't show signs of stopping) hits, Gracetown is completely snowed in. But even though it's cold outside, things are heating up inside, proving that Christmas is magical when it comes to love.", "poster_path": "/rEVu3E1OhMPJeCAn9a6QLyVhZDj.jpg", "popularity": 16.57}, {"id": 9647, "video": false, "vote_count": 785, "vote_average": 6.9, "title": "Scrooged", "release_date": "1988-11-22", "original_language": "en", "original_title": "Scrooged", "genre_ids": [35, 18, 14], "backdrop_path": "/6xezVJoUp0cZUBQeIDpW6lFuhcd.jpg", "adult": false, "overview": "In this modern take on Charles Dickens' \"A Christmas Carol,\" Frank Cross (Bill Murray) is a wildly successful television executive whose cold ambition and curmudgeonly nature has driven away the love of his life, Claire Phillips (Karen Allen). But after firing a staff member, Eliot Loudermilk (Bobcat Goldthwait), on Christmas Eve, Frank is visited by a series of ghosts who give him a chance to re-evaluate his actions and right the wrongs of his past.", "poster_path": "/uO0znfB2ZzTXA1IS7jkrjNbpkYK.jpg", "popularity": 13.78}], "total_pages": 233, "total_results": 4658}, "recommendations": {"page": 1, "results": [{"id": 42213, "video": false, "vote_count": 13, "vote_average": 6.3, "title": "The Big Fix", "release_date": "1978-01-01", "original_language": "en", "original_title": "The Big Fix", "genre_ids": [35, 9648, 53], "backdrop_path": "/oBH4APeadsR6kqVgQWA8O42FONe.jpg", "adult": false, "overview": "Richard Dreyfuss is Moses Wine, a private detective hired to by his former college girlfriend, Susan Anspach, to investigate a political smear campaign. Moses sets out to find out who is responsible, with deadly results, in this comedy-thriller.", "poster_path": "/s8YlT0bRlwqjMOhTtaIkiPVzGX.jpg", "popularity": 4.406}], "total_pages": 1, "total_results": 1}, "credits": {"cast": [{"cast_id": 2, "character": "Henry Tyroon", "credit_id": "52fe4625c3a36847f80ef309", "gender": 2, "id": 16896, "name": "James Garner", "order": 0, "profile_path": "/ek70DefEq6LZZX3JyUjJ125q63f.jpg"}, {"cast_id": 3, "character": "Molly Thatcher", "credit_id": "52fe4625c3a36847f80ef30d", "gender": 1, "id": 855, "name": "Lee Remick", "order": 1, "profile_path": "/pfFQpcDDMLiwPa90GfEJWpMF1gS.jpg"}, {"cast_id": 8, "character": "Bullard Bear", "credit_id": "52fe4625c3a36847f80ef325", "gender": 2, "id": 2771, "name": "Jim Backus", "order": 2, "profile_path": "/iBZLbwdnnT9pFnBIlBZPfT6n06b.jpg"}, {"cast_id": 21, "character": "Eloise Cott", "credit_id": "5bf88ee19251415cd10f8bcd", "gender": 1, "id": 41252, "name": "Pat Crowley", "order": 3, "profile_path": "/pRprQOewycXRfNXTJOQ4RrMejD5.jpg"}, {"cast_id": 6, "character": "Ray Jay Fox", "credit_id": "52fe4625c3a36847f80ef31d", "gender": 0, "id": 57329, "name": "Phil Harris", "order": 4, "profile_path": "/cNfUGziMuqXlrw5i3w1VqugwIt5.jpg"}, {"cast_id": 7, "character": "Jay Ray Spinelby", "credit_id": "52fe4625c3a36847f80ef321", "gender": 2, "id": 14001, "name": "Chill Wills", "order": 5, "profile_path": "/AuPtl5YaRlHzGYPdCZHIKqdFyJG.jpg"}, {"cast_id": 25, "character": "J. R. Martin", "credit_id": "5bf88f630e0a26432006a125", "gender": 2, "id": 54683, "name": "Charles Watts", "order": 6, "profile_path": "/9EMeWDGTonMmXLbwV5nkqtTR2Od.jpg"}, {"cast_id": 22, "character": "Leonard", "credit_id": "5bf88ef2c3a36818a50ffba4", "gender": 2, "id": 11168, "name": "Elliott Reid", "order": 7, "profile_path": "/nRRsBDG0uxNmuDO4V2FigeTXS3j.jpg"}, {"cast_id": 19, "character": "Stanislas", "credit_id": "5bf88eb80e0a26265c10d1af", "gender": 2, "id": 170543, "name": "Louis Nye", "order": 8, "profile_path": "/b6C7WJRYQWNFrloqMzES6ANrDzk.jpg"}, {"cast_id": 27, "character": "Feinberg, Taxi Driver", "credit_id": "5bf88fb10e0a26432006a1a7", "gender": 2, "id": 7347, "name": "Robert Strauss", "order": 9, "profile_path": "/4fqnmvafx9qmn3R45iwKpAtei2k.jpg"}, {"cast_id": 20, "character": "Hector Vanson", "credit_id": "5bf88ed19251415cd10f8bb7", "gender": 2, "id": 41230, "name": "John Astin", "order": 10, "profile_path": "/2b0Iv7mg0kTnyH4ZU0ajk2e0wYL.jpg"}, {"cast_id": 23, "character": "Buddy Zack", "credit_id": "5bf88f089251412f3509045b", "gender": 0, "id": 78618, "name": "Pat Harrington, Jr.", "order": 11, "profile_path": "/7msCGb1WjnZbe8osrkgqtL2VcZw.jpg"}, {"cast_id": 24, "character": "Buster Yarrow", "credit_id": "5bf88f25c3a36818a3114e22", "gender": 0, "id": 94848, "name": "Joey Forman", "order": 12, "profile_path": "/6ykeSg3ec5jnuaA0imuSSS4fosf.jpg"}, {"cast_id": 26, "character": "Mr. Wilson", "credit_id": "5bf88f7f9251415cc40f0f4b", "gender": 2, "id": 19786, "name": "Howard McNear", "order": 13, "profile_path": "/pqe7uwiUrPXruIuYefjO5MOtEFI.jpg"}, {"cast_id": 28, "character": "Achilles Dimitros", "credit_id": "5bf88fd4c3a36813980000b4", "gender": 2, "id": 3142, "name": "John Marley", "order": 14, "profile_path": "/8XhyUzSWIhcHQSBURSCjydRe2Fx.jpg"}, {"cast_id": 29, "character": "Judge", "credit_id": "5bf88fe0c3a368138f000087", "gender": 2, "id": 29579, "name": "Charles Lane", "order": 15, "profile_path": "/wu5fTupk5atyJlCsHhXPGcdf8Mg.jpg"}, {"cast_id": 35, "character": "Whitby", "credit_id": "5bf890a492514104c4000155", "gender": 2, "id": 123892, "name": "Alan Sues", "order": 16, "profile_path": "/nrtPleW8ljQIgjAju56IKQboeIM.jpg"}, {"cast_id": 30, "character": "Art Critic", "credit_id": "5bf88ff692514104da000041", "gender": 1, "id": 67289, "name": "Eleanor Audley", "order": 17, "profile_path": "/eTU6naXyRKll0dLWxN8fp2Iiqdy.jpg"}, {"cast_id": 31, "character": "Defense Attorney", "credit_id": "5bf89026c3a368139b0001a8", "gender": 2, "id": 1751, "name": "James Doohan", "order": 18, "profile_path": "/um8EusLMoUzId8mbfhIXx0J3M82.jpg"}, {"cast_id": 32, "character": "Fawning Art Fan", "credit_id": "5bf8904792514104c10000c3", "gender": 2, "id": 80257, "name": "Bernie Kopell", "order": 19, "profile_path": "/zm3BHtRchrlA41j1WaTqvb3K8rW.jpg"}, {"cast_id": 33, "character": "Subpoena Server", "credit_id": "5bf8906e0e0a263abe00007d", "gender": 2, "id": 95296, "name": "Billy Halop", "order": 20, "profile_path": "/xKlK8MJkQ4q7J4B37eo4eB0TDaW.jpg"}, {"cast_id": 34, "character": "Businessman", "credit_id": "5bf89082c3a368139f000184", "gender": 2, "id": 105810, "name": "Selmer Jackson", "order": 21, "profile_path": "/tXnCgrzw6da4jKKzsHMGrHZwC3M.jpg"}], "crew": [{"credit_id": "52fe4625c3a36847f80ef305", "department": "Directing", "gender": 2, "id": 133259, "job": "Director", "name": "Arthur Hiller", "profile_path": "/irrSj7cAn2ByM7hhu2emkMdFOai.jpg"}, {"credit_id": "52fe4625c3a36847f80ef313", "department": "Writing", "gender": 2, "id": 1168877, "job": "Writer", "name": "George J.W. Goodman", "profile_path": null}, {"credit_id": "52fe4625c3a36847f80ef319", "department": "Writing", "gender": 0, "id": 94817, "job": "Writer", "name": "Ira Wallach", "profile_path": null}, {"credit_id": "58f936bac3a36839230015f5", "department": "Writing", "gender": 2, "id": 1168877, "job": "Novel", "name": "George J.W. Goodman", "profile_path": null}, {"credit_id": "58f936c5925141225700182f", "department": "Production", "gender": 2, "id": 8406, "job": "Associate Producer", "name": "John Calley", "profile_path": "/8k5ZIUIRuH2TCJziry6ZPtvsZpO.jpg"}, {"credit_id": "58f936fec3a368397d00170f", "department": "Production", "gender": 2, "id": 2993, "job": "Producer", "name": "Martin Ransohoff", "profile_path": "/aUuTpCb0uXGpBV2ceKmFijqKdAg.jpg"}, {"credit_id": "58f93705c3a36839490018b8", "department": "Sound", "gender": 2, "id": 21011, "job": "Original Music Composer", "name": "Frank De Vol", "profile_path": "/iq9iOOAzb1I0lhEGV1ll5Qhfa37.jpg"}, {"credit_id": "58f9370b9251412234001996", "department": "Camera", "gender": 2, "id": 3148, "job": "Director of Photography", "name": "Charles Lang", "profile_path": "/1k74XckQqxOwdPYvhvhEdZ9jl4l.jpg"}, {"credit_id": "58f93715c3a36839b6001ae0", "department": "Editing", "gender": 2, "id": 30509, "job": "Editor", "name": "Tom McAdoo", "profile_path": null}, {"credit_id": "58f9371b9251412257001885", "department": "Art", "gender": 2, "id": 10604, "job": "Art Direction", "name": "George W. Davis", "profile_path": null}, {"credit_id": "58f9372292514122240017b5", "department": "Art", "gender": 2, "id": 12280, "job": "Art Direction", "name": "Addison Hehr", "profile_path": null}, {"credit_id": "58f9372892514122240017be", "department": "Art", "gender": 2, "id": 21873, "job": "Set Decoration", "name": "F. Keogh Gleason", "profile_path": null}, {"credit_id": "58f9372e92514122300017ff", "department": "Art", "gender": 2, "id": 3648, "job": "Set Decoration", "name": "Henry Grace", "profile_path": null}]}}