{"adult": false, "backdrop_path": "/5Lp6wLGXIcDIu63T79k5rkKZm0x.jpg", "belongs_to_collection": null, "budget": 0, "genres": [{"id": 18, "name": "Drama"}], "homepage": null, "id": 43001, "imdb_id": "tt0055910", "original_language": "fr", "original_title": "Cyb\u00e8le ou les dimanches de ville d'Avray", "overview": "The tragic story of a young orphan girl who is befriended by an innocent but emotionally disabled veteran of the French Indochina War.", "popularity": 3.235, "poster_path": "/S20qFHJVJiWtvB1dMvL23HVxzR.jpg", "production_companies": [{"id": 7808, "logo_path": null, "name": "Fid\u00e8s", "origin_country": ""}, {"id": 101713, "logo_path": null, "name": "Les Films Trocadero", "origin_country": ""}, {"id": 2325, "logo_path": null, "name": "Orsay Films", "origin_country": ""}], "production_countries": [{"iso_3166_1": "AT", "name": "Austria"}, {"iso_3166_1": "FR", "name": "France"}], "release_date": "1962-11-12", "revenue": 0, "runtime": 110, "spoken_languages": [{"iso_639_1": "fr", "name": "Fran\u00e7ais"}], "status": "Released", "tagline": "", "title": "Sundays and Cybele", "video": false, "vote_average": 7.7, "vote_count": 24, "keywords": {"keywords": [{"id": 10614, "name": "tragedy"}, {"id": 13014, "name": "orphan"}, {"id": 159909, "name": "veteran"}]}, "similar": {"page": 1, "results": [{"adult": false, "backdrop_path": "/zDXBA5yaxfPCnRT2y4if5w9rxLX.jpg", "genre_ids": [18, 10751, 14], "id": 11236, "original_language": "en", "original_title": "The Secret Garden", "overview": "A young British girl born and reared in India loses her neglectful parents in an earthquake. She is returned to England to live at her uncle's castle. Her uncle is very distant due to the loss of his wife ten years before. Neglected once again, she begins exploring the estate and discovers a garden that has been locked and neglected. Aided by one of the servants' boys, she begins restoring the garden, and eventually discovers some other secrets of the manor.", "poster_path": "/u0viU22u7ABDESyoPMcvM2jr4hJ.jpg", "release_date": "1993-08-13", "title": "The Secret Garden", "video": false, "vote_average": 7.2, "vote_count": 482, "popularity": 13.3}, {"id": 20352, "video": false, "vote_count": 10780, "vote_average": 7.2, "title": "Despicable Me", "release_date": "2010-07-08", "original_language": "en", "original_title": "Despicable Me", "genre_ids": [16, 35, 10751], "backdrop_path": "/yo1ef57MEPkEE4BDZKTZGH9uDcX.jpg", "adult": false, "overview": "Villainous Gru lives up to his reputation as a despicable, deplorable and downright unlikable guy when he hatches a plan to steal the moon from the sky. But he has a tough time staying on task after three orphans land in his care.", "poster_path": "/4zHJhBSY4kNZXfhTlmy2TzXD51M.jpg", "popularity": 33.374}, {"adult": false, "backdrop_path": "/58jka0QR1BuybS4Q3k3xaNT77He.jpg", "genre_ids": [18, 10751, 14], "id": 19101, "original_language": "en", "original_title": "A Little Princess", "overview": "When her father enlists to fight for the British in WWI, young Sara Crewe goes to New York to attend the same boarding school her late mother attended. She soon clashes with the severe headmistress, Miss Minchin, who attempts to stifle Sara's creativity and sense of self- worth.", "poster_path": "/a7LslH4Ofdvi1oam9Bbhb2UyMR2.jpg", "release_date": "1995-05-10", "title": "A Little Princess", "video": false, "vote_average": 7.5, "vote_count": 477, "popularity": 13.202}, {"id": 267935, "video": false, "vote_count": 2109, "vote_average": 6.2, "title": "The BFG", "release_date": "2016-06-01", "original_language": "en", "original_title": "The BFG", "genre_ids": [12, 14, 10751], "backdrop_path": "/eYT9XQBo1eC4DwPYqhCol0dFFc2.jpg", "adult": false, "overview": "The BFG is no ordinary bone-crunching giant. He is far too nice and jumbly. It's lucky for Sophie that he is. Had she been carried off in the middle of the night by the Bloodbottler, or any of the other giants\u2014rather than the BFG\u2014she would have soon become breakfast. When Sophie hears that the giants are flush-bunking off to England to swollomp a few nice little chiddlers, she decides she must stop them once and for all. And the BFG is going to help her!", "poster_path": "/xMvzfhXZdfeLBZZUIQRB4vw1EtA.jpg", "popularity": 24.966}, {"id": 10545, "video": false, "vote_count": 3017, "vote_average": 7.0, "title": "The Hunchback of Notre Dame", "release_date": "1996-06-21", "original_language": "en", "original_title": "The Hunchback of Notre Dame", "genre_ids": [16, 18, 10751], "backdrop_path": "/oslaee3VX9kJAjVezbjZKlEJDzn.jpg", "adult": false, "overview": "When Quasimodo defies the evil Frollo and ventures out to the Festival of Fools, the cruel crowd jeers him. Rescued by fellow outcast the gypsy Esmeralda, Quasi soon finds himself battling to save the people and the city he loves.", "poster_path": "/r7V92gY3AMO6li17MmGTixAnFcv.jpg", "popularity": 34.935}, {"id": 4552, "video": false, "vote_count": 496, "vote_average": 7.1, "title": "A Tale of Two Sisters", "release_date": "2003-06-13", "original_language": "ko", "original_title": "\uc7a5\ud654, \ud64d\ub828", "genre_ids": [18, 27, 9648], "backdrop_path": "/6iTvLcCrokveCoVynUobXm8n3uw.jpg", "adult": false, "overview": "A recently released patient from a mental institution returns home with her sister, only to face disturbing events between her stepmother and the ghosts haunting their house- all of which are connected to a dark past in the family's history.", "poster_path": "/8fmnXoIw3e3J7YSr8bzcPica4Dk.jpg", "popularity": 21.191}, {"id": 70, "video": false, "vote_count": 5412, "vote_average": 7.9, "title": "Million Dollar Baby", "release_date": "2004-12-15", "original_language": "en", "original_title": "Million Dollar Baby", "genre_ids": [18], "backdrop_path": "/7nGW4MhYQ7sJfp482XkrgqPYQ2S.jpg", "adult": false, "overview": "Despondent over a painful estrangement from his daughter, trainer Frankie Dunn isn't prepared for boxer Maggie Fitzgerald to enter his life. But Maggie's determined to go pro and to convince Dunn and his cohort to help her.", "poster_path": "/h4VZKi2Jt4VoBYJmtC4c3bO8KqM.jpg", "popularity": 22.587}, {"adult": false, "backdrop_path": "/mAXgaPxxUQg6U446yz8KPRYSUT.jpg", "genre_ids": [12, 18, 10751], "id": 44826, "original_language": "en", "original_title": "Hugo", "overview": "Orphaned and alone except for an uncle, Hugo Cabret lives in the walls of a train station in 1930s Paris. Hugo's job is to oil and maintain the station's clocks, but to him, his more important task is to protect a broken automaton and notebook left to him by his late father. Accompanied by the goddaughter of an embittered toy merchant, Hugo embarks on a quest to solve the mystery of the automaton and find a place he can call home.", "poster_path": "/rSmmVKeW3nsP86V2S6R7ePs4CFw.jpg", "release_date": "2011-11-22", "title": "Hugo", "video": false, "vote_average": 7.1, "vote_count": 4577, "popularity": 19.298}, {"id": 307081, "video": false, "vote_count": 3699, "vote_average": 7.4, "title": "Southpaw", "release_date": "2015-03-24", "original_language": "en", "original_title": "Southpaw", "genre_ids": [28, 18], "backdrop_path": "/tTt1cdEEkKMJ1R4VBTe5vbE3bWO.jpg", "adult": false, "overview": "Billy \"The Great\" Hope, the reigning junior middleweight boxing champion, has an impressive career, a loving wife and daughter, and a lavish lifestyle. However, when tragedy strikes, Billy hits rock bottom, losing his family, his house and his manager. He soon finds an unlikely savior in Tick Willis, a former fighter who trains the city's toughest amateur boxers. With his future on the line, Hope fights to reclaim the trust of those he loves the most.", "poster_path": "/50d0XQQETSyg3bwBXhC7K33pKgc.jpg", "popularity": 24.057}, {"adult": false, "backdrop_path": "/aIv7WnkxMWsswEpaeRuNbC32D9d.jpg", "genre_ids": [18, 10749], "id": 12405, "original_language": "en", "original_title": "Slumdog Millionaire", "overview": "Jamal Malik is an impoverished Indian teen who becomes a contestant on the Hindi version of \u2018Who Wants to Be a Millionaire?\u2019 but, after he wins, he is suspected of cheating.", "poster_path": "/ojgf8iJpS4VX6jJfWGLpuEx0wm.jpg", "release_date": "2008-05-12", "title": "Slumdog Millionaire", "video": false, "vote_average": 7.7, "vote_count": 6594, "popularity": 28.547}, {"adult": false, "backdrop_path": "/nb70B4EXuoegiQ0C5N1fNVHIaYc.jpg", "genre_ids": [12, 18, 36, 53, 10752], "id": 5925, "original_language": "en", "original_title": "The Great Escape", "overview": "The Nazis, exasperated at the number of escapes from their prison camps by a relatively small number of Allied prisoners, relocates them to a high-security 'escape-proof' camp to sit out the remainder of the war. Undaunted, the prisoners plan one of the most ambitious escape attempts of World War II. Based on a true story.", "poster_path": "/qhy4HgUqhEbwQ1ekKTv7yEB3b0e.jpg", "release_date": "1963-06-20", "title": "The Great Escape", "video": false, "vote_average": 8.0, "vote_count": 1358, "popularity": 17.61}, {"id": 249397, "video": false, "vote_count": 1666, "vote_average": 6.7, "title": "Nymphomaniac: Vol. II", "release_date": "2013-12-25", "original_language": "en", "original_title": "Nymphomaniac: Vol. II", "genre_ids": [18, 9648], "backdrop_path": "/chloasXdurCYMk0Oa11665jFCQl.jpg", "adult": false, "overview": "The continuation of Joe's sexually dictated life delves into the darker aspects of her adult life and what led to her being in Seligman's care.", "poster_path": "/2FBFiDhx3tGe8PG4A5iuCbeIJ4s.jpg", "popularity": 19.796}, {"id": 278927, "video": false, "vote_count": 5704, "vote_average": 6.8, "title": "The Jungle Book", "release_date": "2016-04-07", "original_language": "en", "original_title": "The Jungle Book", "genre_ids": [12, 18, 14, 10751], "backdrop_path": "/eIOTsGg9FCVrBc4r2nXaV61JF4F.jpg", "adult": false, "overview": "A man-cub named Mowgli fostered by wolves. After a threat from the tiger Shere Khan, Mowgli is forced to flee the jungle, by which he embarks on a journey of self discovery with the help of the panther, Bagheera and the free-spirited bear, Baloo.", "poster_path": "/vOipe2myi26UDwP978hsYOrnUWC.jpg", "popularity": 40.457}, {"id": 283366, "video": false, "vote_count": 6762, "vote_average": 6.7, "title": "Miss Peregrine's Home for Peculiar Children", "release_date": "2016-09-28", "original_language": "en", "original_title": "Miss Peregrine's Home for Peculiar Children", "genre_ids": [12, 18, 14, 10751], "backdrop_path": "/iiWLJMRaEjaBf4WFmKAktn0IfbF.jpg", "adult": false, "overview": "A teenager finds himself transported to an island where he must help protect a group of orphans with special powers from creatures intent on destroying them.", "poster_path": "/AvekzUdI8HZnImdQulmTTmAZXrC.jpg", "popularity": 32.94}, {"id": 11881, "video": false, "vote_count": 341, "vote_average": 7.4, "title": "Miracle on 34th Street", "release_date": "1947-06-11", "original_language": "en", "original_title": "Miracle on 34th Street", "genre_ids": [35, 18, 10751], "backdrop_path": "/i90947b0zLbH1P4qjAxqiQdRfiZ.jpg", "adult": false, "overview": "Kris Kringle, seemingly the embodiment of Santa Claus, is asked to portray the jolly old fellow at Macy's following his performance in the Thanksgiving Day parade. His portrayal is so complete that many begin to question if he truly is Santa Claus, while others question his sanity.", "poster_path": "/h8kkqroLwxvAHxWGIStEZaNd4wr.jpg", "popularity": 16.027}, {"id": 505192, "video": false, "vote_count": 763, "vote_average": 8.0, "title": "Shoplifters", "release_date": "2018-06-02", "original_language": "ja", "original_title": "\u4e07\u5f15\u304d\u5bb6\u65cf", "genre_ids": [80, 18], "backdrop_path": "/xOpQ4jIQJ0HSUhVDixZA9yWqVBP.jpg", "adult": false, "overview": "After one of their shoplifting sessions, Osamu and his son come across a little girl in the freezing cold. At first reluctant to shelter the girl, Osamu\u2019s wife agrees to take care of her after learning of the hardships she faces. Although the family is poor, barely making enough money to survive through petty crime, they seem to live happily together until an unforeseen incident reveals hidden secrets, testing the bonds that unite them.", "poster_path": "/4nfRUOv3LX5zLn98WS1WqVBk9E9.jpg", "popularity": 18.39}, {"id": 399055, "video": false, "vote_count": 8032, "vote_average": 7.2, "title": "The Shape of Water", "release_date": "2017-12-01", "original_language": "en", "original_title": "The Shape of Water", "genre_ids": [18, 14, 10749], "backdrop_path": "/rgyhSn3mINvkuy9iswZK0VLqQO3.jpg", "adult": false, "overview": "An other-worldly story, set against the backdrop of Cold War era America circa 1962, where a mute janitor working at a lab falls in love with an amphibious man being held captive there and devises a plan to help him escape.", "poster_path": "/k4FwHlMhuRR5BISY2Gm2QZHlH5Q.jpg", "popularity": 27.281}, {"id": 508763, "video": false, "vote_count": 383, "vote_average": 6.7, "title": "A Dog's Way Home", "release_date": "2019-01-10", "original_language": "en", "original_title": "A Dog's Way Home", "genre_ids": [12, 18, 10751], "backdrop_path": "/w7MsyOpP003FYhsiTgVHa3rNsrz.jpg", "adult": false, "overview": "A Dog\u2019s Way Home chronicles the heartwarming adventure of Bella, a dog who embarks on an epic 400-mile journey home after she is separated from her beloved human.", "poster_path": "/pZn87R7gtmMCGGO8KeaAfZDhXLg.jpg", "popularity": 16.541}, {"id": 150689, "video": false, "vote_count": 4967, "vote_average": 6.7, "title": "Cinderella", "release_date": "2015-03-12", "original_language": "en", "original_title": "Cinderella", "genre_ids": [18, 14, 10749, 10751], "backdrop_path": "/gkuyOdCeuKLdOlwQIUF44SHsYCq.jpg", "adult": false, "overview": "When her father unexpectedly passes away, young Ella finds herself at the mercy of her cruel stepmother and her daughters. Never one to give up hope, Ella's fortunes begin to change after meeting a dashing stranger in the woods.", "poster_path": "/2i0JH5WqYFqki7WDhUW56Sg0obh.jpg", "popularity": 46.69}, {"id": 37135, "video": false, "vote_count": 4091, "vote_average": 7.4, "title": "Tarzan", "release_date": "1999-06-18", "original_language": "en", "original_title": "Tarzan", "genre_ids": [12, 16, 18, 10751], "backdrop_path": "/hCpRqibOM0ouOiqL0HMqZOF8bYe.jpg", "adult": false, "overview": "Tarzan was a small orphan who was raised by an ape named Kala since he was a child. He believed that this was his family, but on an expedition Jane Porter is rescued by Tarzan. He then finds out that he's human. Now Tarzan must make the decision as to which family he should belong to...", "poster_path": "/y6k0qn4tcDfbnrjJ2BUnoZYmMBk.jpg", "popularity": 21.81}], "total_pages": 35, "total_results": 684}, "recommendations": {"page": 1, "results": [{"adult": false, "backdrop_path": null, "genre_ids": [], "id": 190085, "original_language": "de", "original_title": "Zweigroschenzauber", "overview": "Two Penny Magic (Zweigroschenzauber) starting off with a little magic trick. It then presents an array of images from swimmers, bicyclers, murderers, airplanes in flight, boxers, lovers, runners, becoming in the end a collection of images in a magazine.", "poster_path": "/rL5kwQRIeAi4s3jnQNxXslhzRxl.jpg", "release_date": "1929-10-11", "title": "Two Pence Magic", "video": false, "vote_average": 5.8, "vote_count": 13, "popularity": 1.601}, {"adult": false, "backdrop_path": null, "genre_ids": [], "id": 154612, "original_language": "en", "original_title": "The Birth of Magellan: Cadenza I", "overview": "Hollis Frampton alludes to origins and creation as he cuts between a garden featuring a bride and groom and an 1902 film entitled \"A Little Piece of String.\"", "poster_path": "/hrg5cK5zh4b0tVkEfPTEfDq4Ds2.jpg", "release_date": "1977-12-31", "title": "The Birth of Magellan: Cadenza I", "video": false, "vote_average": 3.7, "vote_count": 9, "popularity": 2.008}, {"adult": false, "backdrop_path": null, "genre_ids": [99, 35], "id": 49176, "original_language": "en", "original_title": "O Dreamland", "overview": "Lindsay Anderson's early documentary film of a British amusement park, the irony of its manufactured fun on full display.", "poster_path": "/s76JNaWjxF5w2Rd3V3E8N6Jn6Je.jpg", "release_date": "1953-01-01", "title": "O Dreamland", "video": false, "vote_average": 6.3, "vote_count": 11, "popularity": 2.228}, {"adult": false, "backdrop_path": null, "genre_ids": [], "id": 147491, "original_language": "en", "original_title": "The Great Society", "overview": "A parade of popular consumer items cut to \"The Battle Hymn of the Republic\". A great example of Pop Art in film.", "poster_path": "/uKrqDPi5gZUR4Yvygz2TlU5nu9D.jpg", "release_date": "1967-12-31", "title": "The Great Society", "video": false, "vote_average": 5.3, "vote_count": 10, "popularity": 1.3}, {"adult": false, "backdrop_path": null, "genre_ids": [99], "id": 154410, "original_language": "en", "original_title": "Scotch Hop", "overview": "A fast-paced rhythmic impression of dancers, musicians and sportsmen at a highlands event.", "poster_path": "/wVA7zq3eXV7r7nSvJHBP5iX1mgw.jpg", "release_date": "1953-12-31", "title": "Scotch Hop", "video": false, "vote_average": 6.3, "vote_count": 9, "popularity": 2.053}, {"adult": false, "backdrop_path": null, "genre_ids": [], "id": 212101, "original_language": "en", "original_title": "The Midnight Party", "overview": "Part of The Children's Trilogy. Filmed in 1938, effects added by Larry Jordan ca. 1965-68.", "poster_path": "/sz2i6K6pNfVJy0D5Yz46PTWxaa.jpg", "release_date": "1938-12-31", "title": "The Midnight Party", "video": false, "vote_average": 5.3, "vote_count": 10, "popularity": 1.463}, {"adult": false, "backdrop_path": null, "genre_ids": [16], "id": 175455, "original_language": "de", "original_title": "Der Sieger", "overview": "An animated commercial for tire company Excelsior Reifen.", "poster_path": "/hu6dKP9gQHmmQXOD3XeUkwQYfcH.jpg", "release_date": "1921-03-08", "title": "Der Sieger", "video": false, "vote_average": 6.0, "vote_count": 12, "popularity": 1.4}, {"id": 146987, "video": false, "vote_count": 12, "vote_average": 6.3, "title": "By Night with Torch and Spear", "release_date": "1942-12-31", "original_language": "en", "original_title": "By Night with Torch and Spear", "genre_ids": [], "backdrop_path": null, "adult": false, "overview": "Smoke, sparks and steam dance together in Cornell's found-footage collage. Backwards title cards (or an alien language, if you like) punctuate this mishmash of the industrial and the ancient.", "poster_path": null, "popularity": 1.313}, {"adult": false, "backdrop_path": "/i6uFyFB34qILujc2tIybUJb8zGO.jpg", "genre_ids": [16], "id": 115036, "original_language": "en", "original_title": "The Bead Game", "overview": "To a percussive soundtrack, a succession of more complex animals forms and is consumed by their successors (all formed from beads). Finally, We reach man, who develops ever more sophisticated forms of war.", "poster_path": "/vsKzTzqXvgRspuJmUiS0NciU8NI.jpg", "release_date": "1977-12-31", "title": "The Bead Game", "video": false, "vote_average": 7.2, "vote_count": 15, "popularity": 2.562}, {"adult": false, "backdrop_path": null, "genre_ids": [], "id": 162551, "original_language": "en", "original_title": "Komposition in Blau", "overview": "An abstract film in which every motion of coloured shapes is in strict synchronization with music", "poster_path": "/dG8p1oW9UMeOF7oHu7FDqYsjSXH.jpg", "release_date": "1935-06-28", "title": "Composition in Blue", "video": false, "vote_average": 7.1, "vote_count": 14, "popularity": 2.216}, {"adult": false, "backdrop_path": null, "genre_ids": [], "id": 209705, "original_language": "en", "original_title": "Death in the Forenoon", "overview": "Footage of a bullfight, shot by Hill in 1934, hand-painted by the artist three decades later.", "poster_path": "/q9YBa0chjrdy37JxMKbI2SdcUWG.jpg", "release_date": "1966-08-02", "title": "Death in the Forenoon", "video": false, "vote_average": 4.9, "vote_count": 8, "popularity": 1.161}, {"adult": false, "backdrop_path": null, "genre_ids": [], "id": 146200, "original_language": "en", "original_title": "Smoking", "overview": "Shot at 2,000 frames per second, this short shows a man exhaling smoke in incredibly slow motion.", "poster_path": "/1VtHEYBLdWyy6feDIVahmSFYJ2p.jpg", "release_date": "1966-03-09", "title": "Smoking", "video": false, "vote_average": 5.0, "vote_count": 10, "popularity": 2.617}, {"adult": false, "backdrop_path": null, "genre_ids": [16], "id": 256651, "original_language": "en", "original_title": "Fugue", "overview": "A work of visual art that borrows from music the principles of the fugue, with the sudden flight of a man to his hotel room as its main theme. Where he dreams.", "poster_path": "/xUmnxj6AGUvl4jT1z3iJmPHHmEW.jpg", "release_date": "1998-01-01", "title": "Fugue", "video": false, "vote_average": 6.0, "vote_count": 13, "popularity": 1.546}, {"adult": false, "backdrop_path": null, "genre_ids": [], "id": 48277, "original_language": "en", "original_title": "Closed Mondays", "overview": "A man visiting a museum sees the works of art come to life.", "poster_path": "/rfPcTFY6eBW6zuRZH9aAELQU0IZ.jpg", "release_date": "1974-10-01", "title": "Closed Mondays", "video": false, "vote_average": 6.3, "vote_count": 13, "popularity": 4.02}, {"adult": false, "backdrop_path": "/rixHpQvfDs9ewYAKyDs9uBV9Qfp.jpg", "genre_ids": [99], "id": 37239, "original_language": "es", "original_title": "Antonio Gaud\u00ed", "overview": "Catalan architect Antonio Gaud\u00ed (1852 - 1926) designed some of the world s most astonishing buildings, interiors, and parks; Japanese director Hiroshi Teshigahara constructed some of the most aesthetically audacious films of the second half of the twentieth century. Here, their artistry melds in a unique, enthralling cinematic experience. Less a documentary than a visual poem, Teshigahara's Antonio Gaud\u00ed takes viewers on a tour of Gaud\u00ed s truly spectacular architecture, including his massive still-unfinished masterpiece, the Sagrada Familia cathedral, in Barcelona. With camerawork as bold and sensual as the curves on his subject s organic surfaces, Teshigahara immortalizes Gaud\u00ed on film.", "poster_path": "/hP6DD4YHVHAYPf8lLeboLTp4RHE.jpg", "release_date": "1984-07-09", "title": "Antonio Gaud\u00ed", "video": false, "vote_average": 7.8, "vote_count": 12, "popularity": 3.264}, {"adult": false, "backdrop_path": "/h91GYizBxeoYAkFrYRgXpFmS60D.jpg", "genre_ids": [], "id": 125602, "original_language": "en", "original_title": "Visual Training", "overview": "A man and his female helper lather a blindfolded woman's naked body with various foodstuffs.", "poster_path": "/qZyQd2bTHgpzv1fJklXtp3nKRSY.jpg", "release_date": "1969-12-31", "title": "Visual Training", "video": false, "vote_average": 6.2, "vote_count": 18, "popularity": 3.238}, {"adult": false, "backdrop_path": null, "genre_ids": [16, 35], "id": 154815, "original_language": "hr", "original_title": "Bez naslova", "overview": "A political satire in which an animated man with a drum is waiting for his cue.", "poster_path": "/bFx8Joy5Qe2sstJRKOYweInhd21.jpg", "release_date": "1964-12-31", "title": "Without Title", "video": false, "vote_average": 5.2, "vote_count": 9, "popularity": 1.168}, {"adult": false, "backdrop_path": null, "genre_ids": [99], "id": 147494, "original_language": "en", "original_title": "Circular Panorama of Electric Tower", "overview": "A most interesting picture at the Pan-American Exposition. The picture was taken from the north side of the Electric Tower. It presents the most perfect and diversified views of the Transportation Building, Mexican Plaza, the Stadium and the north side of the Electric Tower. (Edison Catalog, 1902)", "poster_path": "/nQh9oH1VE2Xfml72ZuFMgSGzV4G.jpg", "release_date": "1901-08-31", "title": "Circular Panorama of Electric Tower", "video": false, "vote_average": 5.3, "vote_count": 12, "popularity": 2.709}, {"adult": false, "backdrop_path": null, "genre_ids": [16], "id": 247295, "original_language": "en", "original_title": "Color Sequence", "overview": "One of Grant's most interesting and important films is Color Sequence (1943) which consists only of pure solid-colour frames that fade, mutate and flicker. He made the film as a research into colour rhythms and perceptual phenomena, and although it now appears not only visually exciting but also as a precedent for the work of younger film-makers like Paul Sharits, Grant himself found the film to be too disquieting when it was first screened (cf. the Film Exercises), and it received little further play until the 70s.", "poster_path": "/xv7EqgaUph7k8qQ1IwUre5Dho0L.jpg", "release_date": "1943-01-01", "title": "Color Sequence", "video": false, "vote_average": 4.4, "vote_count": 8, "popularity": 1.451}, {"adult": false, "backdrop_path": "/qBU8cWLIr7RARCzZo0wW8On3gq2.jpg", "genre_ids": [18, 53], "id": 35918, "original_language": "en", "original_title": "Crime Against Joe", "overview": "Down-and-out artist Joe Manning (John Bromfield) wakes up from a night of drunken revelry in a jail cell, where he's being held on suspicion for the murder of a nightclub singer.", "poster_path": "/gbKeBEtOHSaD3sFgTU299wpHEr2.jpg", "release_date": "1956-03-21", "title": "Crime Against Joe", "video": false, "vote_average": 5.3, "vote_count": 6, "popularity": 4.301}], "total_pages": 2, "total_results": 40}, "credits": {"cast": [{"cast_id": 4, "character": "Pierre", "credit_id": "52fe4626c3a36847f80ef6d7", "gender": 2, "id": 37777, "name": "Hardy Kr\u00fcger", "order": 0, "profile_path": "/mCAYIY4DDIaYnCEoGdRL7t1sw4Z.jpg"}, {"cast_id": 5, "character": "Madeleine", "credit_id": "52fe4626c3a36847f80ef6db", "gender": 1, "id": 112198, "name": "Nicole Courcel", "order": 1, "profile_path": "/5NzUBr9jvQAlXk0BGoYnR05YtF9.jpg"}, {"cast_id": 6, "character": "Fran\u00e7oise/Cyb\u00e8le", "credit_id": "52fe4626c3a36847f80ef6df", "gender": 0, "id": 999598, "name": "Patricia Gozzi", "order": 2, "profile_path": "/fqY77jdZdTdtikSvQkpoTRhP1x2.jpg"}, {"cast_id": 7, "character": "Carlos", "credit_id": "52fe4626c3a36847f80ef6e3", "gender": 2, "id": 34679, "name": "Daniel Ivernel", "order": 3, "profile_path": "/gV9EOScpFWR70T254EEX6U3PH5s.jpg"}, {"cast_id": 8, "character": "Bernard", "credit_id": "5a9c7f9fc3a3680bb9035866", "gender": 2, "id": 17482, "name": "Andr\u00e9 Oumansky", "order": 4, "profile_path": "/jQy01hPlz7Y5uYDmqhkEWfRjHka.jpg"}, {"cast_id": 9, "character": "Fran\u00e7oise II", "credit_id": "5a9c7fa70e0a2605f2039326", "gender": 0, "id": 28606, "name": "Anne-Marie Coffinet", "order": 5, "profile_path": "/k0e7tIrz8G9da8w56xgUV7b7l25.jpg"}, {"cast_id": 10, "character": "Le facteur", "credit_id": "5a9c7fb29251412896037b5b", "gender": 2, "id": 1304793, "name": "Ren\u00e9 Clermont", "order": 6, "profile_path": "/ibySpuURSPTCdlXLBCJ7wN05Vy6.jpg"}, {"cast_id": 11, "character": "La voyante", "credit_id": "5a9c7fbe0e0a26061103d476", "gender": 1, "id": 38890, "name": "Malka Ribowska", "order": 7, "profile_path": "/l4A2KYe8rz9bERsvjcQeaeRGLy0.jpg"}, {"cast_id": 12, "character": "Fiacre", "credit_id": "5a9c7fcc0e0a2605d503b90b", "gender": 0, "id": 589404, "name": "Michel de R\u00e9", "order": 8, "profile_path": null}, {"cast_id": 13, "character": "Lulu", "credit_id": "5a9c7fd60e0a2605f2039341", "gender": 1, "id": 185247, "name": "France Anglade", "order": 9, "profile_path": "/qbfJGIsIzQEop5tu519F4260HOK.jpg"}, {"cast_id": 14, "character": "L'\u00e9picier", "credit_id": "5a9c7feb0e0a2605e403f6a5", "gender": 2, "id": 41716, "name": "Paul Bonifas", "order": 10, "profile_path": "/1nwh4DDwzHVqu8h46XzeX5hGgYW.jpg"}, {"cast_id": 15, "character": "Le cavalier", "credit_id": "5a9c7ff892514127ea03870c", "gender": 2, "id": 605481, "name": "Serge Bourguignon", "order": 11, "profile_path": "/kIwE4BckTg5JCWu7o85bABKW9rG.jpg"}, {"cast_id": 16, "character": "L'employ\u00e9 de gare", "credit_id": "5a9c80030e0a26064903c3ca", "gender": 2, "id": 927652, "name": "Alain Bouvette", "order": 12, "profile_path": "/l6liVL1AdJqEexVOSdqt2tgUqI6.jpg"}, {"cast_id": 17, "character": "L'\u00e9pici\u00e8re", "credit_id": "5a9c8012925141284203627f", "gender": 1, "id": 1990767, "name": "Ren\u00e9e Duchateau", "order": 13, "profile_path": null}, {"cast_id": 18, "character": "", "credit_id": "5a9c801992514128cc0384d8", "gender": 1, "id": 572398, "name": "Florence Blot", "order": 14, "profile_path": "/6Wo9QHdoLRyeSh5JC9FpaerqDOk.jpg"}], "crew": [{"credit_id": "52fe4626c3a36847f80ef6d3", "department": "Writing", "gender": 0, "id": 491282, "job": "Writer", "name": "Antoine Tudal", "profile_path": null}, {"credit_id": "52fe4626c3a36847f80ef6c7", "department": "Directing", "gender": 2, "id": 605481, "job": "Director", "name": "Serge Bourguignon", "profile_path": "/kIwE4BckTg5JCWu7o85bABKW9rG.jpg"}, {"credit_id": "52fe4626c3a36847f80ef6cd", "department": "Writing", "gender": 2, "id": 605481, "job": "Writer", "name": "Serge Bourguignon", "profile_path": "/kIwE4BckTg5JCWu7o85bABKW9rG.jpg"}]}}