{"adult": false, "backdrop_path": "/mrxBBAnOOrHbllP2ygMa9SAmazj.jpg", "belongs_to_collection": null, "budget": 0, "genres": [{"id": 10752, "name": "War"}, {"id": 53, "name": "Thriller"}, {"id": 18, "name": "Drama"}], "homepage": null, "id": 43013, "imdb_id": "tt0055871", "original_language": "en", "original_title": "The Counterfeit Traitor", "overview": "Blacklisted in modern day WW2, a Swedish oil trader opts to assist British Allies, by means of infiltrating and surveying Nazi Germany.", "popularity": 4.374, "poster_path": "/9SjfXBFd3oRInPVRT2YQYizHDF0.jpg", "production_companies": [{"id": 5015, "logo_path": null, "name": "Perlsea Company", "origin_country": ""}, {"id": 4, "logo_path": "/fycMZt242LVjagMByZOLUGbCvv3.png", "name": "Paramount", "origin_country": "US"}], "production_countries": [{"iso_3166_1": "US", "name": "United States of America"}], "release_date": "1962-04-17", "revenue": 0, "runtime": 140, "spoken_languages": [{"iso_639_1": "da", "name": "Dansk"}, {"iso_639_1": "de", "name": "Deutsch"}, {"iso_639_1": "en", "name": "English"}], "status": "Released", "tagline": "", "title": "The Counterfeit Traitor", "video": false, "vote_average": 6.7, "vote_count": 14, "keywords": {"keywords": [{"id": 470, "name": "spy"}, {"id": 1192, "name": "sweden"}, {"id": 1956, "name": "world war ii"}]}, "similar": {"page": 1, "results": [{"adult": false, "backdrop_path": "/qtD2lFLG5T7L8flbKSEIoSqcslI.jpg", "genre_ids": [18, 10752], "id": 7862, "original_language": "de", "original_title": "Die F\u00e4lscher", "overview": "The story Jewish counterfeiter, Salomon Sorowitsch, coerced into assisting the Nazi operation of the Sachsenhausen concentration camp during World War II.", "poster_path": "/bRQddrgVemZtFdnrPy9AxTpkhpj.jpg", "release_date": "2007-02-09", "title": "The Counterfeiters", "video": false, "vote_average": 7.4, "vote_count": 261, "popularity": 8.902}, {"adult": false, "backdrop_path": "/pKawqrtCBMmxarft7o1LbEynys7.jpg", "genre_ids": [10752, 18, 28], "id": 228150, "original_language": "en", "original_title": "Fury", "overview": "In the last months of World War II, as the Allies make their final push in the European theatre, a battle-hardened U.S. Army sergeant named 'Wardaddy' commands a Sherman tank called 'Fury' and its five-man crew on a deadly mission behind enemy lines. Outnumbered and outgunned, Wardaddy and his men face overwhelming odds in their heroic attempts to strike at the heart of Nazi Germany.", "poster_path": "/fa4PxEPRKWRyjzYje1jM4m30qzd.jpg", "release_date": "2014-10-15", "title": "Fury", "video": false, "vote_average": 7.4, "vote_count": 7301, "popularity": 56.882}, {"id": 369885, "video": false, "vote_count": 3048, "vote_average": 6.7, "title": "Allied", "release_date": "2016-11-17", "original_language": "en", "original_title": "Allied", "genre_ids": [28, 18, 53, 10749, 10752], "backdrop_path": "/tC0tVH5KQhCwMlddnyA3iWOSuBA.jpg", "adult": false, "overview": "In 1942, an intelligence officer in North Africa encounters a female French Resistance fighter on a deadly mission behind enemy lines. When they reunite in London, their relationship is tested by the pressures of war.", "poster_path": "/nzXzLFTnd0Zb3ExfhOxlQgizgSu.jpg", "popularity": 32.359}, {"id": 424, "video": false, "vote_count": 8985, "vote_average": 8.6, "title": "Schindler's List", "release_date": "1993-11-30", "original_language": "en", "original_title": "Schindler's List", "genre_ids": [18, 36, 10752], "backdrop_path": "/cTNYRUTXkBgPH3wP3kmPUB5U6dA.jpg", "adult": false, "overview": "The true story of how businessman Oskar Schindler saved over a thousand Jewish lives from the Nazis while they worked as slaves in his factory during World War II.", "poster_path": "/yPisjyLweCl1tbgwgtzBCNCBle.jpg", "popularity": 31.046}, {"id": 293982, "video": false, "vote_count": 119, "vote_average": 6.9, "title": "Warsaw 44", "release_date": "2014-07-30", "original_language": "pl", "original_title": "Miasto 44", "genre_ids": [18, 36, 10749, 10752], "backdrop_path": "/wv4kNz9aJPO200vndn5Paczh12K.jpg", "adult": false, "overview": "City of Warsaw, Poland, August 1, 1944. Citizens have experienced inhuman acts of terror and violence during five long years of Nazi occupation. As the Soviet Army relentlessly approaches, the youngest and bravest among them rise up as one and face tyranny fighting street by street, but the price to pay will be high and hard the way to freedom.", "poster_path": "/k9WOOkVur2Gwo93wuiKzJDm2mUK.jpg", "popularity": 7.952}, {"id": 11046, "video": false, "vote_count": 433, "vote_average": 7.6, "title": "Where Eagles Dare", "release_date": "1968-12-04", "original_language": "en", "original_title": "Where Eagles Dare", "genre_ids": [28, 12, 18, 36, 10752], "backdrop_path": "/aAFq5jVHV6RZpLcRXATskNBuEbM.jpg", "adult": false, "overview": "World War II is raging, and an American general has been captured and is being held hostage in the Schloss Adler, a Bavarian castle that's nearly impossible to breach. It's up to a group of skilled Allied soldiers to liberate the general before it's too late.", "poster_path": "/991u0tSWGTVXCYkgC6ftaGE4bkQ.jpg", "popularity": 16.468}, {"id": 438799, "video": false, "vote_count": 1393, "vote_average": 6.6, "title": "Overlord", "release_date": "2018-11-01", "original_language": "en", "original_title": "Overlord", "genre_ids": [27, 878, 10752], "backdrop_path": "/sHNC8hjAu4ZKXYhG3cp8ghRZ02B.jpg", "adult": false, "overview": "France, June 1944. On the eve of D-Day, some American paratroopers fall behind enemy lines after their aircraft crashes while on a mission to destroy a radio tower in a small village near the beaches of Normandy. After reaching their target, the surviving paratroopers realise that, in addition to fighting the Nazi troops that patrol the village, they also must fight against something else.", "poster_path": "/l76Rgp32z2UxjULApxGXAPpYdAP.jpg", "popularity": 21.089}, {"id": 637, "video": false, "vote_count": 8080, "vote_average": 8.5, "title": "Life Is Beautiful", "release_date": "1997-12-20", "original_language": "it", "original_title": "La vita \u00e8 bella", "genre_ids": [35, 18], "backdrop_path": "/bORe0eI72D874TMawOOFvqWS6Xe.jpg", "adult": false, "overview": "A touching story of an Italian book seller of Jewish ancestry who lives in his own little fairy tale. His creative and happy life would come to an abrupt halt when his entire family is deported to a concentration camp during World War II. While locked up he tries to convince his son that the whole thing is just a game.", "poster_path": "/f7DImXDebOs148U4uPjI61iDvaK.jpg", "popularity": 33.768}, {"id": 423, "video": false, "vote_count": 4648, "vote_average": 8.3, "title": "The Pianist", "release_date": "2002-09-17", "original_language": "en", "original_title": "The Pianist", "genre_ids": [18, 10752], "backdrop_path": "/xUR95VFV1UTyzS1C8Lj06hi2n2M.jpg", "adult": false, "overview": "The true story of pianist W\u0142adys\u0142aw Szpilman's experiences in Warsaw during the Nazi occupation. When the Jews of the city find themselves forced into a ghetto, Szpilman finds work playing in a caf\u00e9; and when his family is deported in 1942, he stays behind, works for a while as a laborer, and eventually goes into hiding in the ruins of the war-torn city.", "poster_path": "/hfMeo073RxKKjZZV4gSGema1yog.jpg", "popularity": 26.63}, {"id": 289, "video": false, "vote_count": 2863, "vote_average": 8.1, "title": "Casablanca", "release_date": "1942-01-23", "original_language": "en", "original_title": "Casablanca", "genre_ids": [18, 10749], "backdrop_path": "/5tE7iKSpBrc4z6LqF5kHutMm6KQ.jpg", "adult": false, "overview": "In Casablanca, Morocco in December 1941, a cynical American expatriate meets a former lover, with unforeseen complications.", "poster_path": "/wOBKAoUJZb5qTsWv5XXvVV2vUzz.jpg", "popularity": 20.435}, {"adult": false, "backdrop_path": "/ljZOlqLtMa6gnTHcYn9y9lP0bK3.jpg", "genre_ids": [53, 36, 18], "id": 528949, "original_language": "es", "original_title": "El fot\u00f3grafo de Mauthausen", "overview": "Spanish photographer Francesc Boix, imprisoned in the Mauthausen-Gusen concentration camp, works in the SS Photographic Service. Between 1943 and 1945, he hides, with the help of other prisoners, thousands of negatives, with the purpose of showing the freed world the atrocities committed by the Nazis, exhaustively documented. He will be a key witness during the Nuremberg Trials.", "poster_path": "/1GzwDodNHSQM7Wu8VIbvTmYXJQB.jpg", "release_date": "2018-10-26", "title": "The Photographer of Mauthausen", "video": false, "vote_average": 7.0, "vote_count": 262, "popularity": 12.706}, {"adult": false, "backdrop_path": "/jLnm1qrsZd2FiC016nOjsgiHsQ2.jpg", "genre_ids": [18, 36], "id": 9045, "original_language": "fr", "original_title": "Amen.", "overview": "Kurt Gerstein\u2014a member of the Institute for Hygiene of the Waffen-SS\u2014is horrified by what he sees in the death camps. he is then shocked to learn that the process he used to purify water for his troops by using Zyklon-B, is now used to kill people in gas chambers.", "poster_path": "/3uaiPsJgagOVWzRsDlH3TKdVHrw.jpg", "release_date": "2002-02-13", "title": "Amen.", "video": false, "vote_average": 7.0, "vote_count": 166, "popularity": 8.873}, {"id": 14574, "video": false, "vote_count": 3970, "vote_average": 7.8, "title": "The Boy in the Striped Pyjamas", "release_date": "2008-05-07", "original_language": "en", "original_title": "The Boy in the Striped Pyjamas", "genre_ids": [18, 10752], "backdrop_path": "/tFyhGkJgV6M5zZAjS8SBVqOjzH4.jpg", "adult": false, "overview": "When his family moves from their home in Berlin to a strange new house in Poland, young Bruno befriends Shmuel, a boy who lives on the other side of the fence where everyone seems to be wearing striped pajamas. Unaware of Shmuel's fate as a Jewish prisoner or the role his own Nazi father plays in his imprisonment, Bruno embarks on a dangerous journey inside the camp's walls.", "poster_path": "/f40R9to84FGF7T5bp3KGB84Lklb.jpg", "popularity": 23.522}, {"adult": false, "backdrop_path": "/hNn5koyqFmAXqOE8SzJBuhUmEZo.jpg", "genre_ids": [35, 10752], "id": 8290, "original_language": "fr", "original_title": "La Grande Vadrouille", "overview": "During World War II, two French civilians and a downed British Bomber Crew set out from Paris to cross the demarcation line between Nazi-occupied Northern France and the South. From there they will be able to escape to England. First, they must avoid German troops - and the consequences of their own blunders.", "poster_path": "/nMh6M8kraLZ7Uu4e8u7Vyb2qwg0.jpg", "release_date": "1966-12-07", "title": "Don't Look Now: We're Being Shot At", "video": false, "vote_average": 7.9, "vote_count": 691, "popularity": 19.026}, {"id": 2576, "video": false, "vote_count": 158, "vote_average": 7.2, "title": "The Diary of Anne Frank", "release_date": "1959-03-18", "original_language": "en", "original_title": "The Diary of Anne Frank", "genre_ids": [18, 36], "backdrop_path": "/x7yCQSWXSczdHUMKEMk5qyoUazO.jpg", "adult": false, "overview": "The true, harrowing story of a young Jewish girl who, with her family and their friends, is forced into hiding in an attic in Nazi-occupied Amsterdam.", "poster_path": "/i7kUdUAF9eTxQG7GdR6lKUK96En.jpg", "popularity": 12.484}, {"adult": false, "backdrop_path": "/7QDnuj2T6CCY5wOSnKfYH7cIb6M.jpg", "genre_ids": [18, 35, 10752], "id": 8056, "original_language": "fr", "original_title": "Train de vie", "overview": "In 1941, the inhabitants of a small Jewish village in Central Europe organize a fake deportation train so that they can escape the Nazis and flee to Palestine.", "poster_path": "/anUwgyVrC7kUwN5OliazbC5qBfr.jpg", "release_date": "1998-09-16", "title": "Train of Life", "video": false, "vote_average": 7.5, "vote_count": 150, "popularity": 7.757}, {"id": 821, "video": false, "vote_count": 348, "vote_average": 8.1, "title": "Judgment at Nuremberg", "release_date": "1961-12-01", "original_language": "en", "original_title": "Judgment at Nuremberg", "genre_ids": [18, 36], "backdrop_path": "/g8yVrnJ72eOt1Xw4uyYBIsBBE2g.jpg", "adult": false, "overview": "In 1947, four German judges who served on the bench during the Nazi regime face a military tribunal to answer charges of crimes against humanity. Chief Justice Haywood hears evidence and testimony not only from lead defendant Ernst Janning and his defense attorney Hans Rolfe, but also from the widow of a Nazi general, an idealistic U.S. Army captain and reluctant witness Irene Wallner.", "poster_path": "/iu7VMhBma5S94M3wh0fR8cmwgUf.jpg", "popularity": 11.763}, {"id": 289222, "video": false, "vote_count": 835, "vote_average": 7.4, "title": "The Zookeeper's Wife", "release_date": "2017-03-31", "original_language": "en", "original_title": "The Zookeeper's Wife", "genre_ids": [18, 36], "backdrop_path": "/rE6W3KHdIuTdgRDLOOOMR3gfGgc.jpg", "adult": false, "overview": "The account of keepers of the Warsaw Zoo, Jan and Antonina Zabinski, who helped save hundreds of people and animals during the Nazi invasion.", "poster_path": "/50KGpMiIvSkF4WHOgp0gM6r6sMU.jpg", "popularity": 14.144}, {"adult": false, "backdrop_path": "/4uZZC82s0MDg6Om9AkQGDt4z0Xd.jpg", "genre_ids": [12, 18, 28, 53, 10752], "id": 11372, "original_language": "en", "original_title": "The Eagle Has Landed", "overview": "When the Nazi high command learns in late 1943 that Winston Churchill will be spending time at a country estate in Norfolk, it hatches an audacious scheme to kidnap the prime minister and spirit him to Germany for enforced negotiations with Hitler.", "poster_path": "/o22XW3pFNhUy9jPzBTLipKhUg5t.jpg", "release_date": "1976-12-24", "title": "The Eagle Has Landed", "video": false, "vote_average": 6.5, "vote_count": 149, "popularity": 17.548}, {"adult": false, "backdrop_path": "/sAJYgPSU1YTFyEfPUX34BKhIjBI.jpg", "genre_ids": [18, 10749], "id": 15764, "original_language": "en", "original_title": "Sophie's Choice", "overview": "Stingo, a young writer, moves to Brooklyn in 1947 to begin work on his first novel. As he becomes friendly with Sophie and her lover Nathan, he learns that she is a Holocaust survivor. Flashbacks reveal her harrowing story, from pre-war prosperity to Auschwitz. In the present, Sophie and Nathan's relationship increasingly unravels as Stingo grows closer to Sophie and Nathan's fragile mental state becomes ever more apparent.", "poster_path": "/6zayvLCWvF8ImK5UqwRUbETcpVU.jpg", "release_date": "1982-12-08", "title": "Sophie's Choice", "video": false, "vote_average": 7.5, "vote_count": 421, "popularity": 12.951}], "total_pages": 142, "total_results": 2830}, "recommendations": {"page": 1, "results": [{"id": 93892, "video": false, "vote_count": 2, "vote_average": 6.5, "title": "The Hoodlum Priest", "release_date": "1961-03-26", "original_language": "en", "original_title": "The Hoodlum Priest", "genre_ids": [18], "backdrop_path": "/cZ7zP0lrkf0PVDF4nm60AXop6G.jpg", "adult": false, "overview": "Based on the life of Fr. Charles Clark, a minister to street gangs.", "poster_path": "/vrdM4qpCncjzDSfW3yw5O2TCGjh.jpg", "popularity": 3.124}, {"adult": false, "backdrop_path": "/65nxk8uXggSb1z4VRd0ahFJBj4M.jpg", "genre_ids": [35, 18, 10749], "id": 43750, "original_language": "en", "original_title": "Under the Yum-Yum Tree", "overview": "A love-struck landlord tries to convince a pretty tanant to dump her fianc\u00e9 and give him a chance.", "poster_path": "/30i8q9VI5gSmj7sWqGgKb3VG8iB.jpg", "release_date": "1963-10-23", "title": "Under the Yum-Yum Tree", "video": false, "vote_average": 7.1, "vote_count": 8, "popularity": 3.913}, {"adult": false, "backdrop_path": "/yLlxvMhiYLCPzyu28lVce2nDiD3.jpg", "genre_ids": [18], "id": 68443, "original_language": "en", "original_title": "The Glass Menagerie", "overview": "An aging Southern Belle makes life horrible for her ambitious son and crippled daughter because of her dreams of what life should be.", "poster_path": "/5K55lT0j1sFToruFomUJHGkPhcm.jpg", "release_date": "1950-09-28", "title": "The Glass Menagerie", "video": false, "vote_average": 5.6, "vote_count": 5, "popularity": 3.1}, {"adult": false, "backdrop_path": "/64m98UeseDqaTsPIqYqAF2S1iQ6.jpg", "genre_ids": [18, 35, 10749, 10751], "id": 42986, "original_language": "en", "original_title": "The Courtship of Eddie's Father", "overview": "The film that started the classic TV series. Although he's only seven, Eddie's got it all figured out. He wants his father, a widower, to get remarried - to the girl next door. Unfortunately, she's not one of the women that his dad's been dating. Sweet family comedy.", "poster_path": "/3hMWatFVhmUuvTR1cXhPfu8g9sM.jpg", "release_date": "1963-03-27", "title": "The Courtship of Eddie's Father", "video": false, "vote_average": 6.6, "vote_count": 9, "popularity": 3.586}, {"adult": false, "backdrop_path": "/eEuArlHfQHEBsiplq99k5dv9EA7.jpg", "genre_ids": [18, 12], "id": 43691, "original_language": "en", "original_title": "The Count of Monte Cristo", "overview": "After greedy men have Edmound Dantes unjustly imprisoned for 20 years for innocently delivering a letter entrusted to him, he escapes to revenge himself on them.", "poster_path": "/oq4x1Bobtuc5890Xw7Te9dLW47H.jpg", "release_date": "1934-09-06", "title": "The Count of Monte Cristo", "video": false, "vote_average": 6.4, "vote_count": 18, "popularity": 5.13}, {"adult": false, "backdrop_path": "/tRKiCwSCLmGWizPzL3dc1AlYPkB.jpg", "genre_ids": [18], "id": 113237, "original_language": "en", "original_title": "Lost Boundaries", "overview": "A doctor (Mel Ferrer), his wife (Beatrice Pearson) and their children pass as white in a New England town.", "poster_path": "/8uxk2sP01yDJBfwNs985NG6FtQY.jpg", "release_date": "1949-07-02", "title": "Lost Boundaries", "video": false, "vote_average": 7.1, "vote_count": 5, "popularity": 3.975}, {"adult": false, "backdrop_path": "/vwJyTMBFvM7H5AnO13WBlWPrWH5.jpg", "genre_ids": [9648, 10749, 53], "id": 54946, "original_language": "en", "original_title": "They Met in the Dark", "overview": "A Royal navy Commander is tricked by a pretty girl who is working for the Nazis. She tricks him into revealing some military secrets and he is court martial. He vows to track her and her accomplices down.", "poster_path": "/zXMt8L2iHn1YLiYDyBdCH9PFwW3.jpg", "release_date": "1943-01-01", "title": "They Met in the Dark", "video": false, "vote_average": 6.3, "vote_count": 4, "popularity": 2.869}, {"adult": false, "backdrop_path": "/ls86J2L2WoLevdxYhO8SSkdbTfe.jpg", "genre_ids": [35], "id": 52470, "original_language": "en", "original_title": "My Man Godfrey", "overview": "The eccentric Bullock household again need a new butler. Daughter Irene encounters bedraggled Godfrey Godfrey at the docks and, fancying him and noticing his obviously good manners, gets him the job. He proves a great success, but keeps his past to himself. When an old flame turns up Irene's sister Cordelia starts making waves.", "poster_path": "/1USQaKWKbnZsk2cgWzaQdc2Bu6T.jpg", "release_date": "1957-10-11", "title": "My Man Godfrey", "video": false, "vote_average": 6.8, "vote_count": 6, "popularity": 2.892}, {"adult": false, "backdrop_path": "/7e73kFjy566D8l2aDEKHqJ6EjMH.jpg", "genre_ids": [18, 80], "id": 171906, "original_language": "en", "original_title": "Portrait of Alison", "overview": "An actress (Terry Moore) and an artist (Robert Beatty) are linked by his brother (William Sylvester) to deadly smugglers sought by Scotland Yard.", "poster_path": "/wOuNO892SZMLiu8NYL9FNwSoVbU.jpg", "release_date": "1955-11-29", "title": "Portrait of Alison", "video": false, "vote_average": 6.2, "vote_count": 5, "popularity": 3.569}, {"adult": false, "backdrop_path": "/pGLS5pUzL2bsBbf6cyyesyOSsNc.jpg", "genre_ids": [10749], "id": 85926, "original_language": "en", "original_title": "Strangers When We Meet", "overview": "A suburban architect loves his wife but is bored with his marriage and with his work, so he takes up with the neglected, married beauty who lives down the street.", "poster_path": "/z5FSK0lCGczgYdCHirEUuo6YM2L.jpg", "release_date": "1960-06-29", "title": "Strangers When We Meet", "video": false, "vote_average": 6.8, "vote_count": 10, "popularity": 3.671}, {"adult": false, "backdrop_path": null, "genre_ids": [10752], "id": 224766, "original_language": "en", "original_title": "The Volunteer", "overview": "World War II propaganda film.", "poster_path": "/aXq5yX9j2tQhYXwe0V0ywNKXtZB.jpg", "release_date": "1944-01-10", "title": "The Volunteer", "video": false, "vote_average": 4.8, "vote_count": 4, "popularity": 3.55}, {"adult": false, "backdrop_path": "/jX8nstxSkyAFMLHxtRJ5vUlF70j.jpg", "genre_ids": [18], "id": 43438, "original_language": "en", "original_title": "The Rocking Horse Winner", "overview": "A strange and ultimately tragic tale of a young boy who learns how to pick winners at the racetrack by riding his rocking horse to aid his parents out of their endless round of debts.", "poster_path": "/bWwCkP374FFd6Sx9ZI1Srybyb8c.jpg", "release_date": "1949-11-30", "title": "The Rocking Horse Winner", "video": false, "vote_average": 6.1, "vote_count": 8, "popularity": 3.075}, {"id": 144326, "video": false, "vote_count": 6, "vote_average": 5.4, "title": "Satan Never Sleeps", "release_date": "1962-03-23", "original_language": "en", "original_title": "Satan Never Sleeps", "genre_ids": [18], "backdrop_path": "/kV4rioSqlCfUUR4Q6jpYDuHOE8J.jpg", "adult": false, "overview": "A priest (William Holden) arrives at a mission-post in China accompanied by a young native girl who has joined him along the way. His job is to relieve the existing priest (Clifton Webb), who is now too old and weak to continue with the upkeep of the church. However, Communist soldiers arrive at the mission and seize it as a command post. Their leader rapes the native girl and impregnates her, only later to realise that Communism is no good for him. In the end, the foursome flee to the border, but are pursued by Communist forces along the way.", "poster_path": "/2Ijlu5CSuiBdVlmCJw55cl6gXWQ.jpg", "popularity": 3.008}, {"adult": false, "backdrop_path": "/udRT0r6d4i3XSkKNJHCkGcW43Ei.jpg", "genre_ids": [28, 10752, 18], "id": 43510, "original_language": "en", "original_title": "Guadalcanal Diary", "overview": "Concentrating on the personal lives of those involved, a war correspondent takes us through the preparations, landing and initial campaign on Guadalcanal during WWII.", "poster_path": "/cS4EBa0bUQpIHKISLp1mPNPZtbN.jpg", "release_date": "1943-01-01", "title": "Guadalcanal Diary", "video": false, "vote_average": 6.3, "vote_count": 7, "popularity": 5.007}, {"id": 96828, "video": false, "vote_count": 5, "vote_average": 6.3, "title": "A Touch of Larceny", "release_date": "1960-02-04", "original_language": "en", "original_title": "A Touch of Larceny", "genre_ids": [35], "backdrop_path": "/5Nl4WrJn6ADVY1Rgzf3pyfkXn0X.jpg", "adult": false, "overview": "After falling in love with an American woman, Virginia Killain, who is engaged to another man, British Naval Commander Max Easton, hatches a plan that will get him enough money to support Virginia in the lifestyle she is accustomed to. Easton's plan is to disappear for a time making it seem that he has defected to the Soviets taking important Naval secrets from his job at the Admiralty and to return and sue the newspapers for slander. Not everything goes as planned for Commander Easton.", "poster_path": "/wGWDST6lv6vNrlhoHuT5Xqn8uh9.jpg", "popularity": 3.055}, {"id": 24152, "video": false, "vote_count": 20, "vote_average": 5.7, "title": "The Magic Christian", "release_date": "1969-12-12", "original_language": "en", "original_title": "The Magic Christian", "genre_ids": [35], "backdrop_path": "/h8FUb7NY3MWtuQtDy3jKOJRu4Wr.jpg", "adult": false, "overview": "Sir Guy Grand, the richest man in the world, adopts a homeless boy, Youngman. Together, they set out to prove that anyone--and anything--can be bought with money.", "poster_path": "/iOUlJDRL7dZynvPqkp1ilMKnnE9.jpg", "popularity": 5.362}, {"adult": false, "backdrop_path": "/shkgaVKFJtnu0ghZuqvqf5e1sWN.jpg", "genre_ids": [80, 35, 12], "id": 62143, "original_language": "en", "original_title": "The Wrong Box", "overview": "In Victorian England, a fortune now depends on which of two brothers outlives the other\u2014or can be made to have seemed to do so.", "poster_path": "/Am51FLIN9oIiAe6PNGMQEXUzPej.jpg", "release_date": "1966-06-19", "title": "The Wrong Box", "video": false, "vote_average": 6.2, "vote_count": 23, "popularity": 4.719}], "total_pages": 1, "total_results": 17}, "credits": {"cast": [{"cast_id": 6, "character": "Eric Erickson", "credit_id": "52fe4627c3a36847f80efa03", "gender": 2, "id": 8252, "name": "William Holden", "order": 0, "profile_path": "/6sa5f8p1KBhYxJDEmCLxn7QLcBe.jpg"}, {"cast_id": 7, "character": "Frau Marianne M\u00f6llendorf", "credit_id": "52fe4627c3a36847f80efa07", "gender": 1, "id": 27932, "name": "Lilli Palmer", "order": 1, "profile_path": "/9nEJhELLIkkdlhYwnhGuLYnihbE.jpg"}, {"cast_id": 8, "character": "Collins", "credit_id": "52fe4627c3a36847f80efa0b", "gender": 2, "id": 10021, "name": "Hugh Griffith", "order": 2, "profile_path": "/qIFbwovMcEd9dMGCRB0x2RRr3m7.jpg"}, {"cast_id": 9, "character": "Otto Holtz", "credit_id": "52fe4627c3a36847f80efa0f", "gender": 2, "id": 36837, "name": "Carl Raddatz", "order": 3, "profile_path": "/kqmZ01s7Am2P30ABssH07fTY7jE.jpg"}, {"cast_id": 10, "character": "Baron Gerhard von Oldenburg", "credit_id": "52fe4627c3a36847f80efa13", "gender": 2, "id": 30934, "name": "Ernst Schr\u00f6der", "order": 4, "profile_path": null}, {"cast_id": 11, "character": "Wilhelm Kortner", "credit_id": "52fe4627c3a36847f80efa17", "gender": 2, "id": 35670, "name": "Charles Regnier", "order": 5, "profile_path": "/hyLkiEZG6jGzhaDUm9v2RiiqGHr.jpg"}, {"cast_id": 12, "character": "Hulda Windler", "credit_id": "52fe4627c3a36847f80efa1b", "gender": 1, "id": 22633, "name": "Ingrid van Bergen", "order": 6, "profile_path": "/q09aacmm7s0A5KwfYWkaNddTlNK.jpg"}, {"cast_id": 13, "character": "Hans Holtz", "credit_id": "52fe4627c3a36847f80efa1f", "gender": 0, "id": 142301, "name": "Helo Gutschwager", "order": 7, "profile_path": null}, {"cast_id": 14, "character": "Colonel Nordoff", "credit_id": "52fe4627c3a36847f80efa23", "gender": 2, "id": 14121, "name": "Wolfgang Preiss", "order": 8, "profile_path": "/vZotpPKrfDhjeU2CwxPlNnRCXCY.jpg"}, {"cast_id": 15, "character": "Bruno Ulrich", "credit_id": "52fe4627c3a36847f80efa27", "gender": 2, "id": 36839, "name": "Werner Peters", "order": 9, "profile_path": "/e9tRpO7cIKjftJ0bsKG8c6hcQkS.jpg"}, {"cast_id": 16, "character": "Klara Holtz", "credit_id": "52fe4627c3a36847f80efa2b", "gender": 0, "id": 142302, "name": "Erica Beer", "order": 10, "profile_path": "/xvrjbdKIXD09t9bxdRjB4bbVaZM.jpg"}, {"cast_id": 17, "character": "Gestapo agent at funeral", "credit_id": "52fe4627c3a36847f80efa2f", "gender": 2, "id": 87457, "name": "Stefan Schnabel", "order": 11, "profile_path": "/JBoPajYNk0fo2HyW1SMgNCWO0U.jpg"}, {"cast_id": 18, "character": "Kindler", "credit_id": "52fe4627c3a36847f80efa33", "gender": 2, "id": 14277, "name": "Klaus Kinski", "order": 12, "profile_path": "/mpDEwzQ6rtz8jgyGBCcGwbqfKx4.jpg"}, {"cast_id": 19, "character": "Dr. Jacob Karp", "credit_id": "52fe4627c3a36847f80efa37", "gender": 0, "id": 142303, "name": "Jochen Blume", "order": 13, "profile_path": null}, {"cast_id": 20, "character": "Nazi Gunboat Officer", "credit_id": "52fe4627c3a36847f80efa3b", "gender": 2, "id": 3756, "name": "Erik Schumann", "order": 14, "profile_path": "/yL4RmREnxzZIYKujj5g5E3zFoVb.jpg"}, {"cast_id": 21, "character": "Lieutenant Nagler", "credit_id": "52fe4627c3a36847f80efa3f", "gender": 0, "id": 142304, "name": "Dirk Hansen", "order": 15, "profile_path": null}, {"cast_id": 23, "character": "Priest", "credit_id": "59f8b4339251414c230004e0", "gender": 2, "id": 3617, "name": "G\u00fcnter Meisner", "order": 16, "profile_path": "/ratLVv6yrmsyViUECpBGWKaY78r.jpg"}], "crew": [{"credit_id": "52fe4627c3a36847f80ef9e7", "department": "Directing", "gender": 2, "id": 24939, "job": "Director", "name": "George Seaton", "profile_path": "/x6G1rB1GYeGKarRKU5epFyVi3aQ.jpg"}, {"credit_id": "52fe4627c3a36847f80ef9f3", "department": "Writing", "gender": 2, "id": 3103, "job": "Story", "name": "Charles Grenzbach", "profile_path": null}, {"credit_id": "52fe4627c3a36847f80ef9f9", "department": "Writing", "gender": 2, "id": 24939, "job": "Writer", "name": "George Seaton", "profile_path": "/x6G1rB1GYeGKarRKU5epFyVi3aQ.jpg"}, {"credit_id": "52fe4627c3a36847f80ef9ff", "department": "Sound", "gender": 2, "id": 8503, "job": "Original Music Composer", "name": "Alfred Newman", "profile_path": "/498k6KmplSJPvWzAecS7eUnaBNg.jpg"}, {"credit_id": "53d32b6cc3a3686b91000af7", "department": "Writing", "gender": 0, "id": 1346403, "job": "Novel", "name": "Alexander Klein", "profile_path": null}, {"credit_id": "5b6d73c80e0a267eeb1585f8", "department": "Camera", "gender": 0, "id": 32293, "job": "Director of Photography", "name": "Jean Bourgoin", "profile_path": null}, {"credit_id": "5b6d73d60e0a267ef8150c26", "department": "Editing", "gender": 1, "id": 68645, "job": "Editor", "name": "Alma Macrorie", "profile_path": null}, {"credit_id": "5b6d7404c3a368189d138933", "department": "Production", "gender": 2, "id": 26024, "job": "Producer", "name": "William Perlberg", "profile_path": null}]}}