{"adult": false, "backdrop_path": "/jPPgl3glO8yQVQnyKLRo5dRoWpz.jpg", "belongs_to_collection": null, "budget": 0, "genres": [{"id": 18, "name": "Drama"}, {"id": 10751, "name": "Family"}], "homepage": null, "id": 430421, "imdb_id": "tt5579982", "original_language": "en", "original_title": "Apple of My Eye", "overview": "A young girl struggles after a traumatic horse riding accident causes her to lose her eyesight. CHARLES, the head trainer of Southeastern Guide Dogs, trains Apple, a miniature horse, to be her companion and surrogate eyes.", "popularity": 3.619, "poster_path": "/uE1D5fBFQhlfTrIZrtFuNaL93Bj.jpg", "production_companies": [{"id": 87283, "logo_path": null, "name": "Expression Entertainment", "origin_country": ""}, {"id": 65606, "logo_path": null, "name": "Sweet Tomato Films", "origin_country": ""}, {"id": 44394, "logo_path": null, "name": "Character Brigade", "origin_country": ""}], "production_countries": [{"iso_3166_1": "US", "name": "United States of America"}], "release_date": "2017-01-10", "revenue": 0, "runtime": 85, "spoken_languages": [{"iso_639_1": "en", "name": "English"}], "status": "Released", "tagline": "", "title": "Apple of My Eye", "video": false, "vote_average": 6.9, "vote_count": 8, "keywords": {"keywords": [{"id": 2673, "name": "horse"}, {"id": 12660, "name": "blind"}, {"id": 15162, "name": "dog"}, {"id": 160127, "name": "guide dog"}, {"id": 164092, "name": "blindness"}, {"id": 174870, "name": "braille"}, {"id": 207317, "name": "christmas"}, {"id": 210118, "name": "miniature horse"}]}, "similar": {"page": 1, "results": [{"id": 13377, "video": false, "vote_count": 587, "vote_average": 7.4, "title": "How the Grinch Stole Christmas!", "release_date": "1966-12-18", "original_language": "en", "original_title": "How the Grinch Stole Christmas!", "genre_ids": [16, 35, 10751], "backdrop_path": "/3kuQVBTd4c5dfdj2BFJKWJ0ZWA6.jpg", "adult": false, "overview": "Bitter and hateful, the Grinch is irritated at the thought of a nearby village having a happy time celebrating Christmas. Disguised as Santa Claus, with his dog made to look like a reindeer, he decides to raid the village to steal all the Christmas things.", "poster_path": "/7ir0iRuPK9OEuH569cp0nF5CJce.jpg", "popularity": 11.735}, {"id": 11395, "video": false, "vote_count": 1133, "vote_average": 6.3, "title": "The Santa Clause", "release_date": "1994-11-10", "original_language": "en", "original_title": "The Santa Clause", "genre_ids": [35, 18, 14, 10751], "backdrop_path": "/rcQZmnhcb6P4mkgJAHnCYp3c1gp.jpg", "adult": false, "overview": "Scott Calvin is an ordinary man, who accidentally causes Santa Claus to fall from his roof on Christmas Eve and is knocked unconscious. When he and his young son finish Santa's trip and deliveries, they go to the North Pole, where Scott learns he must become the new Santa and convince those he loves that he is indeed, Father Christmas.", "poster_path": "/4LtaCHxAwfrXNhujGsNQpLbs8wr.jpg", "popularity": 14.808}, {"id": 9479, "video": false, "vote_count": 5316, "vote_average": 7.8, "title": "The Nightmare Before Christmas", "release_date": "1993-10-09", "original_language": "en", "original_title": "The Nightmare Before Christmas", "genre_ids": [16, 14, 10751], "backdrop_path": "/16lk65YfrDFIr6evkWRjSeOOSws.jpg", "adult": false, "overview": "Tired of scaring humans every October 31 with the same old bag of tricks, Jack Skellington, the spindly king of Halloween Town, kidnaps Santa Claus and plans to deliver shrunken heads and other ghoulish gifts to children on Christmas morning. But as Christmas approaches, Jack's rag-doll girlfriend, Sally, tries to foil his misguided plans.", "poster_path": "/6oxkO1VgKCq74fNILKAg6t2dVEt.jpg", "popularity": 18.951}, {"id": 455842, "video": false, "vote_count": 18, "vote_average": 5.7, "title": "Elliot: The Littlest Reindeer", "release_date": "2018-11-08", "original_language": "en", "original_title": "Elliot: The Littlest Reindeer", "genre_ids": [12, 16, 10751], "backdrop_path": "/2Djp1gHsUsbf2YpvyoihXecGXPi.jpg", "adult": false, "overview": "When Blitzen announces his retirement on December 21st, a miniature horse has 3 days to fulfill his lifelong dream of earning a spot on Santa's team at the North Pole try-outs.", "poster_path": "/sYq809WTep01HO5oJR9o9VbEDJv.jpg", "popularity": 5.728}, {"id": 8871, "video": false, "vote_count": 4088, "vote_average": 6.6, "title": "How the Grinch Stole Christmas", "release_date": "2000-11-17", "original_language": "en", "original_title": "How the Grinch Stole Christmas", "genre_ids": [35, 14, 10751], "backdrop_path": "/wWPJpoCGNq3cDYbFqPTWtvJSzqs.jpg", "adult": false, "overview": "Inside a snowflake exists the magical land of Whoville. In Whoville, live the Whos, an almost mutated sort of Munchkin-like people. All the Whos love Christmas, yet just outside of their beloved Whoville lives the Grinch. The Grinch is a nasty creature that hates Christmas, and plots to steal it away from the Whos, whom he equally abhors. Yet a small child, Cindy Lou Who, decides to try befriending the Grinch.", "poster_path": "/vQfgNHbcIWS2j3AAAzLOtPUGVmB.jpg", "popularity": 26.624}, {"id": 5375, "video": false, "vote_count": 486, "vote_average": 5.6, "title": "Fred Claus", "release_date": "2007-11-03", "original_language": "en", "original_title": "Fred Claus", "genre_ids": [28, 35, 18], "backdrop_path": "/r0jEOEzIJFdyaxVa7bsFocUuQ1t.jpg", "adult": false, "overview": "Fred Claus and Santa Claus have been estranged brothers for many years. Now Fred must reconcile his differences with his brother whom he believes overshadows him. When an efficiency expert assesses the workings at the North Pole and threatens to shut Santa down, Fred must help his brother to save Christmas.", "poster_path": "/vFniWmciRi4tAjAYGp2wrK0P8dJ.jpg", "popularity": 12.098}, {"id": 11881, "video": false, "vote_count": 342, "vote_average": 7.4, "title": "Miracle on 34th Street", "release_date": "1947-06-11", "original_language": "en", "original_title": "Miracle on 34th Street", "genre_ids": [35, 18, 10751], "backdrop_path": "/i90947b0zLbH1P4qjAxqiQdRfiZ.jpg", "adult": false, "overview": "Kris Kringle, seemingly the embodiment of Santa Claus, is asked to portray the jolly old fellow at Macy's following his performance in the Thanksgiving Day parade. His portrayal is so complete that many begin to question if he truly is Santa Claus, while others question his sanity.", "poster_path": "/h8kkqroLwxvAHxWGIStEZaNd4wr.jpg", "popularity": 18.855}, {"adult": false, "backdrop_path": "/kJwJfSQht3QwpWka8JBnQ18IyDT.jpg", "genre_ids": [18, 16, 10751, 35], "id": 51052, "original_language": "en", "original_title": "Arthur Christmas", "overview": "Each Christmas, Santa and his vast army of highly trained elves produce gifts and distribute them around the world in one night. However, when one of 600 million children to receive a gift from Santa on Christmas Eve is missed, it is deemed \u2018acceptable\u2019 to all but one \u2013 Arthur. Arthur Claus is Santa\u2019s misfit son who executes an unauthorized rookie mission to get the last present half way around the globe before dawn on Christmas morning.", "poster_path": "/crjzhg2T1sPL9yE7bFHkYp0OfXG.jpg", "release_date": "2011-11-10", "title": "Arthur Christmas", "video": false, "vote_average": 6.7, "vote_count": 800, "popularity": 20.268}, {"id": 10510, "video": false, "vote_count": 539, "vote_average": 6.6, "title": "Miracle on 34th Street", "release_date": "1994-11-18", "original_language": "en", "original_title": "Miracle on 34th Street", "genre_ids": [18, 14, 10751], "backdrop_path": "/m7M8nvdSt13ZmvVUuYc3lN7nLVI.jpg", "adult": false, "overview": "Six-year-old Susan Walker has doubts about childhood's most enduring miracle\u2014Santa Claus. Her mother told her the secret about Santa a long time ago, but, after meeting a special department store Santa who's convinced he's the real thing, Susan is given the most precious gift of all\u2014something to believe in.", "poster_path": "/iuI31j8DM4TOxJTZeumG0S4npPU.jpg", "popularity": 13.801}, {"adult": false, "backdrop_path": "/9SNO9BglZJgGTMOB5K4NVgecgX1.jpg", "genre_ids": [10751, 35], "id": 9279, "original_language": "en", "original_title": "Jingle All the Way", "overview": "Meet Howard Langston, a salesman for a mattress company is constantly busy at his job, and he also constantly disappoints his son, after he misses his son's karate exposition, his son tells Howard that he wants for Christmas is an action figure of his son's television hero, he tries hard to to make it up to him. Unfortunately for Howard, it is Christmas Eve, and every store is sold out of Turbo Man, now Howard must travel all over town and compete with everybody else to find a Turbo Man action figure.", "poster_path": "/aaVkNhUONnkSv5ijPjq7pEmmWyE.jpg", "release_date": "1996-11-15", "title": "Jingle All the Way", "video": false, "vote_average": 5.7, "vote_count": 1359, "popularity": 14.421}, {"id": 13673, "video": false, "vote_count": 519, "vote_average": 5.7, "title": "Christmas with the Kranks", "release_date": "2004-11-24", "original_language": "en", "original_title": "Christmas with the Kranks", "genre_ids": [35, 10751], "backdrop_path": "/cuH95R2FJ2gxZBj8lEUElxShy15.jpg", "adult": false, "overview": "Luther Krank is fed up with the commerciality of Christmas; he decides to skip the holiday and go on a vacation with his wife instead. But when his daughter decides at the last minute to come home, he must put together a holiday celebration.", "poster_path": "/6sH8XfDDfTVT8AKZ0UNhnFTsyzJ.jpg", "popularity": 14.167}, {"id": 9021, "video": false, "vote_count": 705, "vote_average": 5.7, "title": "The Santa Clause 2", "release_date": "2002-10-31", "original_language": "en", "original_title": "The Santa Clause 2", "genre_ids": [35, 14, 10751], "backdrop_path": "/tftsh2e2IDGW3601QYixa9fnHFm.jpg", "adult": false, "overview": "Better watch out! The big guy in red is coming to town once again. This time, Scott Calvin -- also known as Santa Claus -- finds out there's an obscure clause in his contract requiring him to take on a wife. He has to leave the North Pole to fulfill his obligations, or else he'll be forced to give up his Yuletide gig.", "poster_path": "/i7tbiDPIaa4VsQh1wWmbkY4zTRX.jpg", "popularity": 12.724}, {"adult": false, "backdrop_path": "/reQewz6KndV7Js2mfLfaaX8Rj0T.jpg", "genre_ids": [28, 14], "id": 364, "original_language": "en", "original_title": "Batman Returns", "overview": "Having defeated the Joker, Batman now faces the Penguin\u2014a warped and deformed individual who is intent on being accepted into Gotham society, with the help of Max Schreck, a crooked businessman, whom he coerces into helping him run for the position of Mayor of Gotham, while they both attempt to frame Batman in a different light. Batman must attempt to clear his name, all while also deciding just what must be done with the mysterious Catwoman slinking about.", "poster_path": "/jKBjeXM7iBBV9UkUcOXx3m7FSHY.jpg", "release_date": "1992-06-19", "title": "Batman Returns", "video": false, "vote_average": 6.8, "vote_count": 3615, "popularity": 26.315}, {"id": 287903, "video": false, "vote_count": 1172, "vote_average": 6.0, "title": "Krampus", "release_date": "2015-11-26", "original_language": "en", "original_title": "Krampus", "genre_ids": [35, 14, 27], "backdrop_path": "/5GsJuYZuG1bkuSI8FeWol5nvR9S.jpg", "adult": false, "overview": "A horror comedy based on the ancient legend about a pagan creature who punishes children on Christmas.", "poster_path": "/27SiV4EBHcTBMz4IKANjhX5iIoX.jpg", "popularity": 11.495}, {"id": 9745, "video": false, "vote_count": 644, "vote_average": 5.9, "title": "Jack Frost", "release_date": "1998-12-10", "original_language": "en", "original_title": "Jack Frost", "genre_ids": [35, 18, 14, 10751], "backdrop_path": "/15FdBioriLIBiJqG3MFBlNGgHzp.jpg", "adult": false, "overview": "A father, who can't keep his promises, dies in a car accident. One year later, he returns as a snowman, who has the final chance to put things right with his son before he is gone forever.", "poster_path": "/cPmO5VZhqN4ocrgxjGaFmLeMREv.jpg", "popularity": 14.091}, {"id": 772, "video": false, "vote_count": 5556, "vote_average": 6.5, "title": "Home Alone 2: Lost in New York", "release_date": "1992-11-19", "original_language": "en", "original_title": "Home Alone 2: Lost in New York", "genre_ids": [12, 35, 80, 10751], "backdrop_path": "/1uHTuwx5h9T3XzsXijMMKybDFvZ.jpg", "adult": false, "overview": "Instead of flying to Florida with his folks, Kevin ends up alone in New York, where he gets a hotel room with his dad's credit card\u2014despite problems from a clerk and meddling bellboy. But when Kevin runs into his old nemeses, the Wet Bandits, he's determined to foil their plans to rob a toy store on Christmas eve.", "poster_path": "/ezGcLFTvwR64I3Z7RqHnXRFet4r.jpg", "popularity": 28.414}, {"id": 850, "video": false, "vote_count": 677, "vote_average": 7.4, "title": "A Christmas Story", "release_date": "1983-11-18", "original_language": "en", "original_title": "A Christmas Story", "genre_ids": [35, 10751], "backdrop_path": "/wok0YepwQfBAPsrttFq0W6HXT2g.jpg", "adult": false, "overview": "The comic mishaps and adventures of a young boy named Ralph, trying to convince his parents, teachers, and Santa that a Red Ryder B.B. gun really is the perfect Christmas gift for the 1940s.", "poster_path": "/u348XMdz7g2Eu54yntt1qshUixk.jpg", "popularity": 9.472}, {"id": 10719, "video": false, "vote_count": 2252, "vote_average": 6.6, "title": "Elf", "release_date": "2003-10-09", "original_language": "en", "original_title": "Elf", "genre_ids": [35, 14, 10751], "backdrop_path": "/jRzrQ7Thcjpetr0n8B6w980eZet.jpg", "adult": false, "overview": "When young Buddy falls into Santa's gift sack on Christmas Eve, he's transported back to the North Pole and raised as a toy-making elf by Santa's helpers. But as he grows into adulthood, he can't shake the nagging feeling that he doesn't belong. Buddy vows to visit Manhattan and find his real dad, a workaholic publisher.", "poster_path": "/9jChHqqcpe0zHNTqkNqWZkwkgil.jpg", "popularity": 14.355}, {"id": 9647, "video": false, "vote_count": 786, "vote_average": 6.9, "title": "Scrooged", "release_date": "1988-11-22", "original_language": "en", "original_title": "Scrooged", "genre_ids": [35, 18, 14], "backdrop_path": "/6xezVJoUp0cZUBQeIDpW6lFuhcd.jpg", "adult": false, "overview": "In this modern take on Charles Dickens' \"A Christmas Carol,\" Frank Cross (Bill Murray) is a wildly successful television executive whose cold ambition and curmudgeonly nature has driven away the love of his life, Claire Phillips (Karen Allen). But after firing a staff member, Eliot Loudermilk (Bobcat Goldthwait), on Christmas Eve, Frank is visited by a series of ghosts who give him a chance to re-evaluate his actions and right the wrongs of his past.", "poster_path": "/uO0znfB2ZzTXA1IS7jkrjNbpkYK.jpg", "popularity": 17.767}, {"id": 527435, "video": false, "vote_count": 960, "vote_average": 7.1, "title": "The Christmas Chronicles", "release_date": "2018-11-22", "original_language": "en", "original_title": "The Christmas Chronicles", "genre_ids": [12, 35, 14, 10751], "backdrop_path": "/brENMyyhk13WLzKHBK20rBKx0u7.jpg", "adult": false, "overview": "Siblings Kate and Teddy try to prove Santa Claus is real, but when they accidentally cause his sleigh to crash, they have to save Christmas.", "poster_path": "/5Il2EMSF2KecrUKZPuen6BZmaCP.jpg", "popularity": 12.455}], "total_pages": 25, "total_results": 488}, "recommendations": {"page": 1, "results": [{"adult": false, "backdrop_path": "/o82UzdKBs4EW2vk90Hdly6aU9uP.jpg", "genre_ids": [10751, 10749], "id": 85887, "original_language": "en", "original_title": "A Taste of Romance", "overview": "Uptight French chef, Sara Westbrook, gets fired up when her upscale caf\u00e9, Chez Varenne, is suddenly overshadowed by a new restaurant moving in next door run by a group of rowdy firemen. Led by handsome former fire fighter Gill Callahan and his friend Danny, The Five Alarm Grill is soon a big success while Sara and Patsy, her pastry chef, struggle to bring in customers.  Sara suddenly softens when she meets Gill's ten-year-old daughter Hannah. Ignoring the obvious tension between her dad and Sara, Hannah is soon playing matchmaker. Can Gill and Sara's burgeoning romance survive the temptation to compete with each other, or will the heat of competition drive them apart?", "poster_path": "/n1irBtPuFrRR4HpO9mre2j2lfYQ.jpg", "release_date": "2012-01-14", "title": "A Taste of Romance", "video": false, "vote_average": 6.3, "vote_count": 24, "popularity": 4.869}], "total_pages": 1, "total_results": 1}, "credits": {"cast": [{"cast_id": 1, "character": "Caroline Andrews", "credit_id": "585407a39251411a46030de2", "gender": 1, "id": 20189, "name": "Amy Smart", "order": 0, "profile_path": "/yTWkJVYq1wtn2NrnPIwXshTWqby.jpg"}, {"cast_id": 6, "character": "Sebastian", "credit_id": "58540a849251416fa103036e", "gender": 2, "id": 1277364, "name": "Jack Griffo", "order": 1, "profile_path": "/j7trzRGKcNqhnFwrw65thR1e3qU.jpg"}, {"cast_id": 3, "character": "Kai", "credit_id": "585407df9251411a46030e1c", "gender": 1, "id": 113926, "name": "AJ Michalka", "order": 2, "profile_path": "/yD83OMnRgdP3ydozt158IYAB3o0.jpg"}, {"cast_id": 4, "character": "Jason Andrews", "credit_id": "585409eac3a368258f0284af", "gender": 2, "id": 934219, "name": "Liam McIntyre", "order": 3, "profile_path": "/63TYSVIX456YNsui1Paufw5kM11.jpg"}, {"cast_id": 2, "character": "Charlie", "credit_id": "585407cec3a3682fb8038811", "gender": 2, "id": 16475, "name": "Burt Reynolds", "order": 4, "profile_path": "/iUtun8jreKIbP4ukmpHswg3DYKj.jpg"}, {"cast_id": 10, "character": "Bailey Andrews", "credit_id": "58540ab9c3a368315002d37d", "gender": 1, "id": 1723521, "name": "Avery Arendes", "order": 5, "profile_path": "/geF7y23vBpP3ZUuohz9zAFhpsZ1.jpg"}, {"cast_id": 9, "character": "Ari", "credit_id": "58540aad92514146c901f53a", "gender": 1, "id": 1448492, "name": "Castille Landon", "order": 6, "profile_path": "/6SxneyZ3BQ6kmD7ytUjZClpwnB8.jpg"}, {"cast_id": 8, "character": "Jenny", "credit_id": "58540aa39251416f10031805", "gender": 0, "id": 1199824, "name": "Lindsay Lamb", "order": 7, "profile_path": null}, {"cast_id": 7, "character": "Dr. Grant", "credit_id": "58540a8f925141724d0065c3", "gender": 2, "id": 971388, "name": "Nick Bateman", "order": 8, "profile_path": "/nrJQgbV4Ib64wyLg2B7Qb1QVUMC.jpg"}, {"cast_id": 5, "character": "Dr.  Copeland", "credit_id": "58540a389251411a46031023", "gender": 2, "id": 987035, "name": "Charlie Barnett", "order": 9, "profile_path": "/u6ghquvE6yEmJyc3AE8MN5W25nf.jpg"}, {"cast_id": 11, "character": "Sarabeth", "credit_id": "58540ae4c3a36827a502d3d0", "gender": 0, "id": 1723522, "name": "Maddi Jane", "order": 10, "profile_path": null}, {"cast_id": 29, "character": "Sidewalk Girl #1", "credit_id": "58b96584c3a368664d00a476", "gender": 0, "id": 1769020, "name": "Kaitlyn Kelly", "order": 12, "profile_path": null}, {"cast_id": 30, "character": "Sidewalk Girl #2", "credit_id": "58b96595c3a3686630009a15", "gender": 0, "id": 1769021, "name": "Lyla Cullimore", "order": 13, "profile_path": null}], "crew": [{"credit_id": "58b964be925141606b00aa6a", "department": "Production", "gender": 2, "id": 58507, "job": "Co-Producer", "name": "Samm Levine", "profile_path": "/A01BJNs0QUP2SlNj48WRwB3bSWE.jpg"}, {"credit_id": "58b96441925141606f00a5b1", "department": "Sound", "gender": 0, "id": 62994, "job": "Original Music Composer", "name": "George Kallis", "profile_path": null}, {"credit_id": "58b963b1c3a36866af009d13", "department": "Production", "gender": 2, "id": 107444, "job": "Executive Producer", "name": "Tommy Kelly", "profile_path": "/3DE568FveB2gzbiCwUrGSey9MKY.jpg"}, {"credit_id": "5b4a628c0e0a26453e015eab", "department": "Camera", "gender": 2, "id": 900406, "job": "Director of Photography", "name": "Adrian Peng Correia", "profile_path": null}, {"credit_id": "58b965d7925141607300a2e8", "department": "Art", "gender": 0, "id": 1199824, "job": "Production Design", "name": "Lindsay Lamb", "profile_path": null}, {"credit_id": "58b9650ac3a368664d00a429", "department": "Production", "gender": 0, "id": 1199824, "job": "Associate Producer", "name": "Lindsay Lamb", "profile_path": null}, {"credit_id": "58b964acc3a36866a5009d8d", "department": "Production", "gender": 0, "id": 1210084, "job": "Co-Producer", "name": "Brian Jalbert", "profile_path": null}, {"credit_id": "58b96400925141608400a614", "department": "Production", "gender": 0, "id": 1309863, "job": "Producer", "name": "Joseph Restaino", "profile_path": null}, {"credit_id": "58b963cac3a368668f008d9e", "department": "Production", "gender": 0, "id": 1410055, "job": "Executive Producer", "name": "Burton Ritchie", "profile_path": null}, {"credit_id": "58540789c3a3682f5802ed9f", "department": "Directing", "gender": 1, "id": 1448492, "job": "Director", "name": "Castille Landon", "profile_path": "/6SxneyZ3BQ6kmD7ytUjZClpwnB8.jpg"}, {"credit_id": "58b96414925141609b009faa", "department": "Writing", "gender": 1, "id": 1448492, "job": "Writer", "name": "Castille Landon", "profile_path": "/6SxneyZ3BQ6kmD7ytUjZClpwnB8.jpg"}, {"credit_id": "58b963da925141606f00a57b", "department": "Production", "gender": 0, "id": 1645310, "job": "Executive Producer", "name": "Tyler W. Konney", "profile_path": null}, {"credit_id": "58b963f2c3a368666b0095c4", "department": "Production", "gender": 1, "id": 1682997, "job": "Producer", "name": "Dori A. Rath", "profile_path": null}, {"credit_id": "58b963a6925141606b00a9cb", "department": "Production", "gender": 0, "id": 1769008, "job": "Executive Producer", "name": "Neil Harrington", "profile_path": null}, {"credit_id": "58b9645fc3a36866a5009d6d", "department": "Editing", "gender": 0, "id": 1769012, "job": "Editor", "name": "Lindsay D. Mofford", "profile_path": null}, {"credit_id": "58b964d5c3a36866300099a4", "department": "Production", "gender": 0, "id": 1769015, "job": "Line Producer", "name": "Elayne Schneiderman Schmidt", "profile_path": null}, {"credit_id": "58b964df925141607300a256", "department": "Production", "gender": 0, "id": 1769016, "job": "Associate Producer", "name": "Boris Isaac", "profile_path": null}, {"credit_id": "58b96500925141609b00a03d", "department": "Production", "gender": 0, "id": 1769018, "job": "Associate Producer", "name": "Chris Goodman", "profile_path": null}]}}