{"adult": false, "backdrop_path": "/zVagHesKJPhbWUp9IUDc9rikBpd.jpg", "belongs_to_collection": null, "budget": 0, "genres": [{"id": 18, "name": "Drama"}, {"id": 99, "name": "Documentary"}, {"id": 10770, "name": "TV Movie"}], "homepage": null, "id": 430786, "imdb_id": "tt0450358", "original_language": "en", "original_title": "Behind the Camera: The Unauthorized Story of 'Diff'rent Strokes'", "overview": "As NBC's hit sitcom \"Diff'rent Strokes\" proves a long-running hit for a network desperately in need of one, its young stars: Gary Coleman, Todd Bridges, and Dana Plato face all sorts of trouble off-camera. Gary battles with his parents over the management of his salary, Todd runs into trouble with the law countless times, and Dana's career after the show meets with despair and tragedy.", "popularity": 1.865, "poster_path": "/6zsiVpyE7aQ8Mw2A3XdpYAvzGNx.jpg", "production_companies": [{"id": 4062, "logo_path": null, "name": "Once Upon a Time Films", "origin_country": ""}, {"id": 12467, "logo_path": null, "name": "Nomadic Pictures", "origin_country": "CA"}], "production_countries": [{"iso_3166_1": "US", "name": "United States of America"}], "release_date": "2006-09-04", "revenue": 0, "runtime": 88, "spoken_languages": [{"iso_639_1": "en", "name": "English"}], "status": "Released", "tagline": "", "title": "Behind the Camera: The Unauthorized Story of 'Diff'rent Strokes'", "video": false, "vote_average": 6.0, "vote_count": 1, "keywords": {"keywords": [{"id": 9817, "name": "behind the scenes"}]}, "similar": {"page": 1, "results": [{"adult": false, "backdrop_path": "/mAXgaPxxUQg6U446yz8KPRYSUT.jpg", "genre_ids": [12, 18, 10751], "id": 44826, "original_language": "en", "original_title": "Hugo", "overview": "Orphaned and alone except for an uncle, Hugo Cabret lives in the walls of a train station in 1930s Paris. Hugo's job is to oil and maintain the station's clocks, but to him, his more important task is to protect a broken automaton and notebook left to him by his late father. Accompanied by the goddaughter of an embittered toy merchant, Hugo embarks on a quest to solve the mystery of the automaton and find a place he can call home.", "poster_path": "/rSmmVKeW3nsP86V2S6R7ePs4CFw.jpg", "release_date": "2011-11-22", "title": "Hugo", "video": false, "vote_average": 7.1, "vote_count": 4578, "popularity": 20.1}, {"adult": false, "backdrop_path": "/xbUtrOQ6YLa5PFTN27LE9NNy8Gz.jpg", "genre_ids": [99], "id": 458080, "original_language": "en", "original_title": "Filmworker", "overview": "The story of Leon Vitali, who surrendered his promising acting career to become Stanley Kubrick's devoted right-hand man.", "poster_path": "/qmZDdrb0nwrV6UMNQQWQh60t7pq.jpg", "release_date": "2018-05-11", "title": "Filmworker", "video": false, "vote_average": 7.3, "vote_count": 29, "popularity": 5.326}, {"adult": false, "backdrop_path": "/pgqMuy1J2ektdMBDjD06NM3wCmi.jpg", "genre_ids": [99, 36], "id": 631308, "original_language": "en", "original_title": "Image Makers: The Adventures of America\u2019s Pioneer Cinematographers", "overview": "Daniel Raim's documentary following the history of America's first cinematographers.", "poster_path": "/5Ct4FM96C70osZoyJvxvI8cupDh.jpg", "release_date": "2019-11-06", "title": "Image Makers: The Adventures of America\u2019s Pioneer Cinematographers", "video": false, "vote_average": 7.7, "vote_count": 3, "popularity": 3.799}, {"id": 14, "video": false, "vote_count": 7295, "vote_average": 8.0, "title": "American Beauty", "release_date": "1999-09-15", "original_language": "en", "original_title": "American Beauty", "genre_ids": [18], "backdrop_path": "/z5J18ByLeOZ68iORfMXmxeFuwyL.jpg", "adult": false, "overview": "Lester Burnham, a depressed suburban father in a mid-life crisis, decides to turn his hectic life around after developing an infatuation with his daughter's attractive friend.", "poster_path": "/or1MP8BZIAjqWYxPdPX724ydKar.jpg", "popularity": 28.789}, {"adult": false, "backdrop_path": "/uC54rlRdLMZ46fnrz5SoVYleNyv.jpg", "genre_ids": [18], "id": 4995, "original_language": "en", "original_title": "Boogie Nights", "overview": "Set in 1977, back when sex was safe, pleasure was a business and business was booming, idealistic porn producer Jack Horner aspires to elevate his craft to an art form. Horner discovers Eddie Adams, a hot young talent working as a busboy in a nightclub, and welcomes him into the extended family of movie-makers, misfits and hangers-on that are always around. Adams' rise from nobody to a celebrity adult entertainer is meteoric, and soon the whole world seems to know his porn alter ego, \"Dirk Diggler\". Now, when disco and drugs are in vogue, fashion is in flux and the party never seems to stop, Adams' dreams of turning sex into stardom are about to collide with cold, hard reality.", "poster_path": "/gTq6MPt7SeMiJ2miHeMoNEZTz4p.jpg", "release_date": "1997-10-07", "title": "Boogie Nights", "video": false, "vote_average": 7.6, "vote_count": 1660, "popularity": 21.563}, {"adult": false, "backdrop_path": "/tr6OExnBfjLADi9OyZoW308mPAp.jpg", "genre_ids": [18, 35, 10749], "id": 74643, "original_language": "en", "original_title": "The Artist", "overview": "Hollywood, 1927: As silent movie star George Valentin wonders if the arrival of talking pictures will cause him to fade into oblivion, he sparks with Peppy Miller, a young dancer set for a big break.", "poster_path": "/i0mpvMIIjyubXsVKug9vX0lYpnd.jpg", "release_date": "2011-06-26", "title": "The Artist", "video": false, "vote_average": 7.4, "vote_count": 1977, "popularity": 10.661}, {"adult": false, "backdrop_path": "/r8pjTYuz3fDOFAhHNrhrsrh9lNa.jpg", "genre_ids": [18], "id": 294016, "original_language": "en", "original_title": "Trumbo", "overview": "The career of screenwriter Dalton Trumbo is halted by a witch hunt in the late 1940s when he defies the anti-communist HUAC committee and is blacklisted.", "poster_path": "/zShoKppVxFtRP8pIVeVQ4j2DEkz.jpg", "release_date": "2015-10-27", "title": "Trumbo", "video": false, "vote_average": 7.2, "vote_count": 971, "popularity": 11.721}, {"adult": false, "backdrop_path": "/tVi83ttAeyMJinYpy6xfgJSpzvP.jpg", "genre_ids": [18, 10749], "id": 11216, "original_language": "it", "original_title": "Nuovo Cinema Paradiso", "overview": "A filmmaker recalls his childhood, when he fell in love with the movies at his village's theater and formed a deep friendship with the theater's projectionist.", "poster_path": "/hYzCLju3W74nLhhRXfPkwDi1Tun.jpg", "release_date": "1988-11-17", "title": "Cinema Paradiso", "video": false, "vote_average": 8.4, "vote_count": 2031, "popularity": 17.915}, {"id": 19913, "video": false, "vote_count": 6208, "vote_average": 7.2, "title": "(500) Days of Summer", "release_date": "2009-07-17", "original_language": "en", "original_title": "(500) Days of Summer", "genre_ids": [35, 18, 10749], "backdrop_path": "/yYw9cVdRJ4zzwxM2cTDXfT6JI6E.jpg", "adult": false, "overview": "Tom, greeting-card writer and hopeless romantic, is caught completely off-guard when his girlfriend, Summer, suddenly dumps him. He reflects on their 500 days together to try to figure out where their love affair went sour, and in doing so, Tom rediscovers his true passions in life.", "poster_path": "/5SjtNPD1bb182vzQccvEUpXHFjN.jpg", "popularity": 20.487}, {"id": 466272, "video": false, "vote_count": 4110, "vote_average": 7.5, "title": "Once Upon a Time\u2026 in Hollywood", "release_date": "2019-07-25", "original_language": "en", "original_title": "Once Upon a Time\u2026 in Hollywood", "genre_ids": [35, 18, 53], "backdrop_path": "/yB2hTgz9CTVYjlMWPSl3LPx5nWj.jpg", "adult": false, "overview": "Los Angeles, 1969. TV star Rick Dalton, a struggling actor specializing in westerns, and stuntman Cliff Booth, his best friend, try to survive in a constantly changing movie industry. Dalton is the neighbor of the young and promising actress and model Sharon Tate, who has just married the prestigious Polish director Roman Polanski\u2026", "poster_path": "/8j58iEBw9pOXFD2L0nt0ZXeHviB.jpg", "popularity": 95.043}, {"id": 519010, "video": false, "vote_count": 617, "vote_average": 7.6, "title": "Pain and Glory", "release_date": "2019-03-22", "original_language": "es", "original_title": "Dolor y gloria", "genre_ids": [18], "backdrop_path": "/yCwcSCzcVKdI5Y9tA2T1s5Fr7jY.jpg", "adult": false, "overview": "Salvador Mallo, a filmmaker in the twilight of his career, remembers his life: his mother, his lovers, the actors he worked with. The sixties in a small village in Valencia, the eighties in Madrid, the present, when he feels an immeasurable emptiness, facing his mortality, the incapability of continuing filming, the impossibility of separating creation from his own life. The need of narrating his past can be his salvation.", "poster_path": "/rXv4tqt0UZsqyjCD3Kxjcs6OnHT.jpg", "popularity": 30.638}, {"id": 528888, "video": false, "vote_count": 353, "vote_average": 7.1, "title": "Dolemite Is My Name", "release_date": "2019-10-04", "original_language": "en", "original_title": "Dolemite Is My Name", "genre_ids": [35, 18, 36], "backdrop_path": "/8FuiFasbeFQj24Vqx6JqSCqj5lO.jpg", "adult": false, "overview": "The story of Rudy Ray Moore, who created the iconic big screen pimp character Dolemite in the 1970s.", "poster_path": "/uoAqJg7ZSmftnBGOkupU1ySZQU0.jpg", "popularity": 37.46}, {"id": 653567, "video": false, "vote_count": 0, "vote_average": 0.0, "title": "Miss Americana", "release_date": "2020-01-23", "original_language": "en", "original_title": "Miss Americana", "genre_ids": [99], "backdrop_path": "/x2P9usnTYSd1pTKDIW83cXhKYUo.jpg", "adult": false, "overview": "A raw and emotionally revealing look at one of the most iconic artists of our time during a transformational period in her life as she learns to embrace her role not only as a songwriter and performer, but as a woman harnessing the full power of her voice.", "poster_path": "/fmHMmBl3VftWdLTy8E1mvWCgLe7.jpg", "popularity": 19.526}, {"id": 4539, "video": false, "vote_count": 149, "vote_average": 8.0, "title": "Hearts of Darkness: A Filmmaker's Apocalypse", "release_date": "1991-09-06", "original_language": "en", "original_title": "Hearts of Darkness: A Filmmaker's Apocalypse", "genre_ids": [99], "backdrop_path": "/mQ6GJtc5xZpNQpVhAfoeZZbrzJO.jpg", "adult": false, "overview": "A chronicle of the production problems \u2014 including bad weather, actors' health, war near the filming locations, and more \u2014 which plagued the filming of Apocalypse Now, increasing costs and nearly destroying the life and career of Francis Ford Coppola.", "poster_path": "/iQLXcATpUxrRdEzxoDqzCgYllnT.jpg", "popularity": 8.496}, {"id": 9008, "video": false, "vote_count": 953, "vote_average": 7.4, "title": "The Insider", "release_date": "1999-10-28", "original_language": "en", "original_title": "The Insider", "genre_ids": [18, 53], "backdrop_path": "/7oq51chQ7MW7RVKqhL4ivxhrwGf.jpg", "adult": false, "overview": "Tells the true story of a 60 Minutes television series expos\u00e9 of the tobacco industry, as seen through the eyes of a real tobacco executive, Jeffrey Wigand.", "poster_path": "/sYQsmMl4oG56NtFaNkDxuJhhODa.jpg", "popularity": 16.427}, {"id": 94901, "video": false, "vote_count": 154, "vote_average": 4.6, "title": "About Cherry", "release_date": "2012-02-14", "original_language": "en", "original_title": "About Cherry", "genre_ids": [18], "backdrop_path": "/nOxOaJT7BkmSAdIBMK4BESI2zde.jpg", "adult": false, "overview": "A drama centered on a troubled young woman who moves to San Francisco, where she gets involved in pornography and aligns herself with a cocaine-addicted lawyer.", "poster_path": "/8m4cU75IzvsQQ7QovMm3k0VCkoJ.jpg", "popularity": 10.458}, {"adult": false, "backdrop_path": "/1SjsVcGO2T2cCrhlhXi8gxQl7jx.jpg", "genre_ids": [16, 28, 35, 878], "id": 474395, "original_language": "en", "original_title": "Teen Titans Go! To the Movies", "overview": "All the major DC superheroes are starring in their own films, all but the Teen Titans, so Robin is determined to remedy this situation by getting over his role as a sidekick and becoming a movie star. Thus, with a few madcap ideas and an inspirational song in their hearts, the Teen Titans head to Hollywood to fulfill their dreams.", "poster_path": "/mFHihhE9hlvJEk2f1AqdLRaYHd6.jpg", "release_date": "2018-07-27", "title": "Teen Titans Go! To the Movies", "video": false, "vote_average": 7.0, "vote_count": 415, "popularity": 18.084}, {"id": 7446, "video": false, "vote_count": 3479, "vote_average": 6.5, "title": "Tropic Thunder", "release_date": "2008-08-09", "original_language": "en", "original_title": "Tropic Thunder", "genre_ids": [28, 12, 35, 10752], "backdrop_path": "/pr8sj9FozsiT45TMtkwFRWONNII.jpg", "adult": false, "overview": "Vietnam veteran 'Four Leaf' Tayback's memoir, Tropic Thunder, is being made into a film, but Director Damien Cockburn can\u2019t control the cast of prima donnas. Behind schedule and over budget, Cockburn is ordered by a studio executive to get filming back on track, or risk its cancellation. On Tayback's advice, Cockburn drops the actors into the middle of the jungle to film the remaining scenes but, unbeknownst to the actors and production, the group have been dropped in the middle of the Golden Triangle, the home of heroin-producing gangs.", "poster_path": "/ue9QdvhpcNPvKQyLY5a5Pd0tagS.jpg", "popularity": 28.425}, {"id": 856, "video": false, "vote_count": 3249, "vote_average": 7.4, "title": "Who Framed Roger Rabbit", "release_date": "1988-06-21", "original_language": "en", "original_title": "Who Framed Roger Rabbit", "genre_ids": [16, 35, 80, 14, 10751], "backdrop_path": "/9podqGmd36AJHO13HQIQHQZRTJC.jpg", "adult": false, "overview": "'Toon star Roger is worried that his wife Jessica is playing pattycake with someone else, so the studio hires detective Eddie Valiant to snoop on her. But the stakes are quickly raised when Marvin Acme is found dead and Roger is the prime suspect.", "poster_path": "/lYfRc57Kx9VgLZ48iulu0HKnM15.jpg", "popularity": 20.755}, {"id": 1581, "video": false, "vote_count": 2900, "vote_average": 7.0, "title": "The Holiday", "release_date": "2006-12-08", "original_language": "en", "original_title": "The Holiday", "genre_ids": [35, 10749], "backdrop_path": "/9TP7FGdo9ppnuXX3DbB9RtzYKkh.jpg", "adult": false, "overview": "Two women, one from the United States and one from the United Kingdom, swap homes at Christmastime after bad breakups with their boyfriends. Each woman finds romance with a local man but realizes that the imminent return home may end the relationship.", "poster_path": "/ixNtpuq8OVp4IckgzkSJIflFDkw.jpg", "popularity": 18.889}], "total_pages": 77, "total_results": 1540}, "recommendations": {"page": 1, "results": [], "total_pages": 1, "total_results": 0}, "credits": {"cast": [{"cast_id": 0, "character": "Willie Coleman", "credit_id": "585703fc92514146c9040ae6", "gender": 2, "id": 4943, "name": "Bruce A. Young", "order": 1, "profile_path": "/ty2NwUAAwnn356eTAu7RuSsQlhT.jpg"}, {"cast_id": 1, "character": "Sue Coleman", "credit_id": "58570404c3a3682fb805fb25", "gender": 1, "id": 80348, "name": "Lorena Gale", "order": 2, "profile_path": null}, {"cast_id": 2, "character": "Gary Coleman", "credit_id": "5857040d9251416f630564ae", "gender": 2, "id": 75633, "name": "Bobb'e J. Thompson", "order": 3, "profile_path": "/otRWlY9G3cUlQN3fAN4uuRfBAS6.jpg"}, {"cast_id": 3, "character": "Gary Coleman - 13-29 years", "credit_id": "585704169251416f630564b4", "gender": 2, "id": 55426, "name": "Robert Bailey Jr.", "order": 4, "profile_path": "/z2FbepmcNkWn12Tuv76kLavQRyS.jpg"}, {"cast_id": 4, "character": "Betty Bridges", "credit_id": "5857041d92514175ad046445", "gender": 1, "id": 167225, "name": "Verda Bridges", "order": 5, "profile_path": "/b3XrA22Y7LrE2t3X5prywRMj1oF.jpg"}, {"cast_id": 5, "character": "Gary Coleman - 30-31 years", "credit_id": "5857042692514146c9040b05", "gender": 0, "id": 1519556, "name": "Alon Williams", "order": 6, "profile_path": null}, {"cast_id": 6, "character": "Kline", "credit_id": "5857042e92514146c9040b09", "gender": 2, "id": 116047, "name": "Jason Schombing", "order": 7, "profile_path": "/8UrFXrkSyszfZzZwUKIBErDHYHG.jpg"}, {"cast_id": 7, "character": "Conrad Bain", "credit_id": "585704359251416f10053f95", "gender": 2, "id": 173006, "name": "John Innes", "order": 8, "profile_path": "/vBrmUbb6VThY0cUxB9ixvG5Lj4e.jpg"}, {"cast_id": 8, "character": "Kay Plato", "credit_id": "5857043d9251411a4605374e", "gender": 1, "id": 51800, "name": "Teryl Rothery", "order": 9, "profile_path": "/16rUSnTH56cKatjd6kjEYEfU4cA.jpg"}, {"cast_id": 9, "character": "Howard Leeds", "credit_id": "58570448c3a3682dfe0539ea", "gender": 2, "id": 21091, "name": "Jerry Wasserman", "order": 10, "profile_path": "/wNIZZXmI0LMnf2231auSExQz7FT.jpg"}, {"cast_id": 10, "character": "Dion Mial", "credit_id": "58570453c3a3682fb805fb46", "gender": 2, "id": 1196455, "name": "Rainbow Francks", "order": 11, "profile_path": "/aP2HMM7bMrt0HHJlRYrPfFJJTmA.jpg"}, {"cast_id": 11, "character": "Dana Plato - 17 to 34 years", "credit_id": "5857045dc3a368315004c759", "gender": 1, "id": 62866, "name": "Brittney Irvin", "order": 12, "profile_path": "/mgM6EMxHLlliratzLQC6dJOKTnd.jpg"}, {"cast_id": 12, "character": "Vic Perillo", "credit_id": "5857046892514175ad046475", "gender": 2, "id": 1218926, "name": "Colin Cunningham", "order": 13, "profile_path": "/3EW9uprWwgzJy2jIcN0QFzKbVFX.jpg"}, {"cast_id": 13, "character": "Todd Bridges - 17 to 37 years", "credit_id": "585704729251416fa1052a59", "gender": 2, "id": 77799, "name": "Shedrack Anderson III", "order": 14, "profile_path": "/pzl64BAiUu6kyHh32dcIv9oip2r.jpg"}, {"cast_id": 14, "character": "Himself", "credit_id": "5857047b92514146c9040b37", "gender": 2, "id": 75341, "name": "Gary Coleman", "order": 15, "profile_path": "/7aafhJ1cun8wSvz5nYroLf6zziI.jpg"}, {"cast_id": 15, "character": "Himself", "credit_id": "58570483c3a3682f5804fa58", "gender": 2, "id": 75340, "name": "Todd Bridges", "order": 16, "profile_path": "/706FZ1kwFTEP1G6cTyk7ANPwfiu.jpg"}, {"cast_id": 16, "character": "Fred Silverman", "credit_id": "5857048cc3a3682fb805fb68", "gender": 2, "id": 3712, "name": "Saul Rubinek", "order": 17, "profile_path": "/1gsXmCmJIegqK0U8dwLz005UM0.jpg"}, {"cast_id": 17, "character": "Al Burton", "credit_id": "5857049b92514146c9040b47", "gender": 2, "id": 12978, "name": "Peter Outerbridge", "order": 18, "profile_path": "/a3OpOcxpBWi30MsgFTYLsWFwFoV.jpg"}, {"cast_id": 18, "character": "Brandon Stoddard", "credit_id": "585704a6c3a3682f5804fa78", "gender": 2, "id": 77210, "name": "Matthew Bennett", "order": 19, "profile_path": "/32bw21SoRJNddrhWPOZ149irOgi.jpg"}, {"cast_id": 19, "character": "Todd Bridges - 13 to 17 years", "credit_id": "585704e4c3a36806a70445b1", "gender": 0, "id": 1724442, "name": "Brennan Gademans", "order": 20, "profile_path": null}, {"cast_id": 20, "character": "Gerren Keith", "credit_id": "585704f0c3a36827a504c889", "gender": 2, "id": 106953, "name": "Biski Gugushe", "order": 21, "profile_path": "/1o9GtYofQ44ufDnSksyF5Va0kko.jpg"}, {"cast_id": 21, "character": "Herbert Kenwith", "credit_id": "5857050e92514146c9040b7d", "gender": 2, "id": 27110, "name": "Malcolm Stewart", "order": 22, "profile_path": "/8BsKvYKYkjvNxsBqs0ZRKhwdpXE.jpg"}], "crew": [{"credit_id": "5857051d9251416fad050d55", "department": "Directing", "gender": 2, "id": 64815, "job": "Director", "name": "Robert Iscove", "profile_path": "/lLwUcEJ4OpT1Ocssv1fevkA0VQd.jpg"}, {"credit_id": "5857052f92514175ad0464d0", "department": "Writing", "gender": 2, "id": 139757, "job": "Writer", "name": "Gregory K. Pincus", "profile_path": null}]}}