{"adult": false, "backdrop_path": "/eGUPjPMrgc2V2S4jtEWP3ktAHvj.jpg", "belongs_to_collection": null, "budget": 0, "genres": [{"id": 18, "name": "Drama"}], "homepage": null, "id": 43108, "imdb_id": "tt0052840", "original_language": "en", "original_title": "The Gene Krupa Story", "overview": "The story of legendary jazz drummer, Gene Krupa. Since his youth, all Gene ever wanted to do is play the drums and make music. This is something his parents would not approve of- they want him to be a priest. When Gene's father dies he promises to enter the priesthood. He soon realizes that he doesn't belong there and leaves to join his friend, Eddie's band. Ethel, Eddie's girlfriend, convinces Gene to go to New York and make it big. The 3 of them head to New York. Here Ethel and Gene soon fall in love and Gene makes a name for himself. Gene starts to live in the fast lane, with drugs, alcohol, women and parties. Ethel, unhappy with Gene's lifestyle, leaves him. Gene soon \"hits rock bottom\" where he has to face reality and choose where to take his life.", "popularity": 1.509, "poster_path": "/qTNpdPQFxCBhGCwQwuEdpQcIOCk.jpg", "production_companies": [{"id": 5, "logo_path": "/71BqEFAF4V3qjjMPCpLuyJFB9A.png", "name": "Columbia Pictures", "origin_country": "US"}], "production_countries": [{"iso_3166_1": "US", "name": "United States of America"}], "release_date": "1959-01-01", "revenue": 0, "runtime": 101, "spoken_languages": [{"iso_639_1": "en", "name": "English"}], "status": "Released", "tagline": "He hammered out the savage tempo of the jazz era!", "title": "The Gene Krupa Story", "video": false, "vote_average": 8.0, "vote_count": 1, "keywords": {"keywords": [{"id": 1416, "name": "jazz"}, {"id": 5565, "name": "biography"}, {"id": 156823, "name": "drummer"}]}, "similar": {"page": 1, "results": [{"adult": false, "backdrop_path": "/nU6DDTabbMkd3649WYtSiOdHCMC.jpg", "genre_ids": [18, 10749], "id": 332283, "original_language": "en", "original_title": "Mary Shelley", "overview": "The love affair between poet Percy Shelley and Mary Wollstonecraft Godwin resulted in the creation of an immortal novel, \u201cFrankenstein; or, The Modern Prometheus.\u201d", "poster_path": "/gKHJTsrfxJtfFNPQJn2hDNEMtFf.jpg", "release_date": "2018-04-22", "title": "Mary Shelley", "video": false, "vote_average": 7.1, "vote_count": 516, "popularity": 11.335}, {"id": 1955, "video": false, "vote_count": 1711, "vote_average": 8.1, "title": "The Elephant Man", "release_date": "1980-10-02", "original_language": "en", "original_title": "The Elephant Man", "genre_ids": [18, 36], "backdrop_path": "/rR479zn26lJp4vNxXKjfBVCHLAW.jpg", "adult": false, "overview": "A Victorian surgeon rescues a heavily disfigured man being mistreated by his \"owner\" as a side-show freak. Behind his monstrous fa\u00e7ade, there is revealed a person of great intelligence and sensitivity. Based on the true story of Joseph Merrick (called John Merrick in the film), a severely deformed man in 19th century London.", "poster_path": "/lDXJUmLQsViSKLbil2luD91l2kE.jpg", "popularity": 14.222}, {"adult": false, "backdrop_path": "/urnGzQvP8fwWWGkn1k809KqIjbm.jpg", "genre_ids": [18], "id": 87093, "original_language": "en", "original_title": "Big Eyes", "overview": "The story of the awakening of painter, Margaret Keane, her phenomenal success in the 1950s, and the subsequent legal difficulties she had with her husband, who claimed credit for her works in the 1960s.", "poster_path": "/z2tqzprHojhgEGYKQepjU28oQg6.jpg", "release_date": "2014-12-24", "title": "Big Eyes", "video": false, "vote_average": 7.0, "vote_count": 2348, "popularity": 12.107}, {"id": 5915, "video": false, "vote_count": 6281, "vote_average": 7.8, "title": "Into the Wild", "release_date": "2007-09-11", "original_language": "en", "original_title": "Into the Wild", "genre_ids": [12, 18], "backdrop_path": "/9yJehIjvR7ULOLxeDJoth4kDDNe.jpg", "adult": false, "overview": "After graduating from Emory University in 1992, top student and athlete Christopher McCandless abandons his possessions, gives his entire $24,000 savings account to charity, and hitchhikes to Alaska to live in the wilderness.", "poster_path": "/lHyYgaocXR6KcJLxVmxZDj115hH.jpg", "popularity": 16.336}, {"id": 205775, "video": false, "vote_count": 2361, "vote_average": 6.6, "title": "In the Heart of the Sea", "release_date": "2015-11-20", "original_language": "en", "original_title": "In the Heart of the Sea", "genre_ids": [28, 12, 18, 36, 53], "backdrop_path": "/aZoZ0NglXgiBMToem9HhTAYYamw.jpg", "adult": false, "overview": "In the winter of 1820, the New England whaling ship Essex is assaulted by something no one could believe\u2014a whale of mammoth size and will, and an almost human sense of vengeance.", "poster_path": "/zVmWh0Zfg4UhbvdGI8LQrn1lQZJ.jpg", "popularity": 19.825}, {"id": 457799, "video": false, "vote_count": 1569, "vote_average": 7.0, "title": "Extremely Wicked, Shockingly Evil and Vile", "release_date": "2019-05-02", "original_language": "en", "original_title": "Extremely Wicked, Shockingly Evil and Vile", "genre_ids": [80, 18, 53], "backdrop_path": "/uRoA67sM5vvCI4cplxhl67BTPly.jpg", "adult": false, "overview": "A chronicle of the crimes of Ted Bundy, from the perspective of his longtime girlfriend, Elizabeth Kloepfer, who refused to believe the truth about him for years.", "poster_path": "/zSuJ3r5zr5T26tTxyygHhgkUAIM.jpg", "popularity": 20.961}, {"adult": false, "backdrop_path": "/kiWvoV78Cc3fUwkOHKzyBgVdrDD.jpg", "genre_ids": [37, 18, 12], "id": 281957, "original_language": "en", "original_title": "The Revenant", "overview": "In the 1820s, a frontiersman, Hugh Glass, sets out on a path of vengeance against those who left him for dead after a bear mauling.", "poster_path": "/oXUWEc5i3wYyFnL1Ycu8ppxxPvs.jpg", "release_date": "2015-12-25", "title": "The Revenant", "video": false, "vote_average": 7.5, "vote_count": 12122, "popularity": 30.491}, {"id": 396371, "video": false, "vote_count": 1968, "vote_average": 7.1, "title": "Molly's Game", "release_date": "2017-12-25", "original_language": "en", "original_title": "Molly's Game", "genre_ids": [80, 18], "backdrop_path": "/rHcBZ6ZKCe4FalWHyvBGsyMsh0k.jpg", "adult": false, "overview": "Molly Bloom, a young skier and former Olympic hopeful becomes a successful entrepreneur (and a target of an FBI investigation) when she establishes a high-stakes, international poker game.", "poster_path": "/in43bQ7k0ttr666IPP94IlbQbTR.jpg", "popularity": 18.118}, {"id": 313369, "video": false, "vote_count": 11057, "vote_average": 7.9, "title": "La La Land", "release_date": "2016-11-29", "original_language": "en", "original_title": "La La Land", "genre_ids": [35, 18, 10402, 10749], "backdrop_path": "/fp6X6yhgcxzxCpmM0EVC6V9B8XB.jpg", "adult": false, "overview": "Mia, an aspiring actress, serves lattes to movie stars in between auditions and Sebastian, a jazz musician, scrapes by playing cocktail party gigs in dingy bars, but as success mounts they are faced with decisions that begin to fray the fragile fabric of their love affair, and the dreams they worked so hard to maintain in each other threaten to rip them apart.", "poster_path": "/ylXCdC106IKiarftHkcacasaAcb.jpg", "popularity": 30.693}, {"id": 369972, "video": false, "vote_count": 2999, "vote_average": 7.1, "title": "First Man", "release_date": "2018-10-11", "original_language": "en", "original_title": "First Man", "genre_ids": [18, 36], "backdrop_path": "/jrudoaXcoLyHRPdolyOGemXgPEs.jpg", "adult": false, "overview": "A look at the life of the astronaut, Neil Armstrong, and the legendary space mission that led him to become the first man to walk on the Moon on July 20, 1969.", "poster_path": "/i91mfvFcPPlaegcbOyjGgiWfZzh.jpg", "popularity": 33.506}, {"adult": false, "backdrop_path": "/jK3EAFk3GdOaQfUDCOiTujzMpwH.jpg", "genre_ids": [18], "id": 389015, "original_language": "en", "original_title": "I, Tonya", "overview": "Competitive ice skater Tonya Harding rises amongst the ranks at the U. S. Figure Skating Championships, but her future in the sport is thrown into doubt when her ex-husband intervenes.", "poster_path": "/6gNXwSHxaksR1PjVZRqNapmkgj3.jpg", "release_date": "2017-12-08", "title": "I, Tonya", "video": false, "vote_average": 7.5, "vote_count": 3327, "popularity": 19.513}, {"id": 318846, "video": false, "vote_count": 5226, "vote_average": 7.3, "title": "The Big Short", "release_date": "2015-12-11", "original_language": "en", "original_title": "The Big Short", "genre_ids": [35, 18], "backdrop_path": "/6UyMLbe0lAPqfZLtVllAwBNFIis.jpg", "adult": false, "overview": "The men who made millions from a global economic meltdown.", "poster_path": "/p11Ftd4VposrAzthkhF53ifYZRl.jpg", "popularity": 21.111}, {"id": 411728, "video": false, "vote_count": 342, "vote_average": 7.2, "title": "The Professor and the Madman", "release_date": "2019-03-07", "original_language": "en", "original_title": "The Professor and the Madman", "genre_ids": [18, 36, 9648, 53], "backdrop_path": "/zhNfM1CSQqJtIqelwlK9iKtSd9P.jpg", "adult": false, "overview": "Professor James Murray begins work compiling words for the first edition of the Oxford English Dictionary in the mid 19th century, and receives over 10,000 entries from a patient at Broadmoor Criminal Lunatic Asylum, Dr. William Minor.", "poster_path": "/gtGCDLhfjW96qVarwctnuTpGOtD.jpg", "popularity": 14.972}, {"id": 300671, "video": false, "vote_count": 1700, "vote_average": 7.1, "title": "13 Hours: The Secret Soldiers of Benghazi", "release_date": "2016-01-13", "original_language": "en", "original_title": "13 Hours: The Secret Soldiers of Benghazi", "genre_ids": [28, 18, 36, 53, 10752], "backdrop_path": "/hY8myWhjSOUeeiPskhOfwwgaCwc.jpg", "adult": false, "overview": "An American Ambassador is killed during an attack at a U.S. compound in Libya as a security team struggles to make sense out of the chaos.", "poster_path": "/4gpW4MkRI0BB17GHOJzXq0WamDP.jpg", "popularity": 21.078}, {"id": 334543, "video": false, "vote_count": 4305, "vote_average": 8.1, "title": "Lion", "release_date": "2016-11-24", "original_language": "en", "original_title": "Lion", "genre_ids": [18], "backdrop_path": "/fgffluhvdOv79SkYaKrfRA0xkf4.jpg", "adult": false, "overview": "A five-year-old Indian boy gets lost on the streets of Calcutta, thousands of kilometers from home. He survives many challenges before being adopted by a couple in Australia; 25 years later, he sets out to find his lost family.", "poster_path": "/iBGRbLvg6kVc7wbS8wDdVHq6otm.jpg", "popularity": 36.395}, {"id": 424, "video": false, "vote_count": 8985, "vote_average": 8.6, "title": "Schindler's List", "release_date": "1993-11-30", "original_language": "en", "original_title": "Schindler's List", "genre_ids": [18, 36, 10752], "backdrop_path": "/cTNYRUTXkBgPH3wP3kmPUB5U6dA.jpg", "adult": false, "overview": "The true story of how businessman Oskar Schindler saved over a thousand Jewish lives from the Nazis while they worked as slaves in his factory during World War II.", "poster_path": "/yPisjyLweCl1tbgwgtzBCNCBle.jpg", "popularity": 31.046}, {"id": 424694, "video": false, "vote_count": 9721, "vote_average": 8.0, "title": "Bohemian Rhapsody", "release_date": "2018-10-24", "original_language": "en", "original_title": "Bohemian Rhapsody", "genre_ids": [18, 10402], "backdrop_path": "/93xA62uLd5CwMOAs37eQ7vPc1iV.jpg", "adult": false, "overview": "Singer Freddie Mercury, guitarist Brian May, drummer Roger Taylor and bass guitarist John Deacon take the music world by storm when they form the rock 'n' roll band Queen in 1970. Hit songs become instant classics. When Mercury's increasingly wild lifestyle starts to spiral out of control, Queen soon faces its greatest challenge yet \u2013 finding a way to keep the band together amid the success and excess.", "poster_path": "/lHu1wtNaczFPGFDTrjCSzeLPTKN.jpg", "popularity": 40.186}, {"adult": false, "backdrop_path": "/fJQ5kjLx4UdK05MC323Vlzwr6S8.jpg", "genre_ids": [35, 18, 36], "id": 140823, "original_language": "en", "original_title": "Saving Mr. Banks", "overview": "Author P.L. Travers travels from London to Hollywood as Walt Disney Pictures adapts her novel Mary Poppins for the big screen.", "poster_path": "/mvs3reS18RP6IhjLwwLeVtkoeg0.jpg", "release_date": "2013-11-16", "title": "Saving Mr. Banks", "video": false, "vote_average": 7.4, "vote_count": 2230, "popularity": 17.126}, {"id": 244786, "video": false, "vote_count": 8869, "vote_average": 8.4, "title": "Whiplash", "release_date": "2014-10-10", "original_language": "en", "original_title": "Whiplash", "genre_ids": [18, 10402], "backdrop_path": "/6bbZ6XyvgfjhQwbplnUh1LSj1ky.jpg", "adult": false, "overview": "Under the direction of a ruthless instructor, a talented young drummer begins to pursue perfection at any cost, even his humanity.", "poster_path": "/lIv1QinFqz4dlp5U4lQ6HaiskOZ.jpg", "popularity": 62.72}, {"id": 401847, "video": false, "vote_count": 664, "vote_average": 6.8, "title": "Can You Ever Forgive Me?", "release_date": "2018-10-19", "original_language": "en", "original_title": "Can You Ever Forgive Me?", "genre_ids": [35, 80, 18], "backdrop_path": "/shIOFWkjTn2NRvq5r4Mn2xLdZeJ.jpg", "adult": false, "overview": "When a bestselling celebrity biographer is no longer able to get published because she has fallen out of step with current tastes, she turns her art form to deception.", "poster_path": "/hPuZR2bFoV0kuBrA98exWyvTf40.jpg", "popularity": 18.675}], "total_pages": 299, "total_results": 5972}, "recommendations": {"page": 1, "results": [], "total_pages": 1, "total_results": 0}, "credits": {"cast": [{"cast_id": 3, "character": "Gene Krupa", "credit_id": "52fe462cc3a36847f80f0e6d", "gender": 2, "id": 2770, "name": "Sal Mineo", "order": 0, "profile_path": "/glfs6BXlFIMprrJSuiT74VzJIOJ.jpg"}, {"cast_id": 4, "character": "Ethel Maguire", "credit_id": "52fe462cc3a36847f80f0e71", "gender": 1, "id": 131742, "name": "Susan Kohner", "order": 1, "profile_path": "/eEQP12ACOi3rmC1CSWJ7EaXJ6VH.jpg"}, {"cast_id": 5, "character": "Eddie Sirota", "credit_id": "52fe462cc3a36847f80f0e75", "gender": 2, "id": 100318, "name": "James Darren", "order": 2, "profile_path": "/9CV4eOjAMaGV0BZf4KgUrqJgpzE.jpg"}, {"cast_id": 6, "character": "Dorissa Dinell", "credit_id": "52fe462cc3a36847f80f0e79", "gender": 1, "id": 90520, "name": "Susan Oliver", "order": 3, "profile_path": "/uePe60APf8f0dBvxBxSe7IYL30N.jpg"}, {"cast_id": 7, "character": "Gloria Corregio", "credit_id": "52fe462dc3a36847f80f0e7d", "gender": 1, "id": 16102, "name": "Yvonne Craig", "order": 4, "profile_path": "/ydzFD9tJ2ovBsqHxWteeMt78dwg.jpg"}, {"cast_id": 8, "character": "Speaker Willis", "credit_id": "52fe462dc3a36847f80f0e81", "gender": 0, "id": 15625, "name": "Lawrence Dobkin", "order": 5, "profile_path": "/mI7q9C7Z0tagylB9ew4C6mmKwFp.jpg"}, {"cast_id": 9, "character": "Mother", "credit_id": "52fe462dc3a36847f80f0e85", "gender": 1, "id": 15942, "name": "Celia Lovsky", "order": 6, "profile_path": "/houYB0BFbDah7JxzBBpb48pyHft.jpg"}, {"cast_id": 10, "character": "Himself", "credit_id": "52fe462dc3a36847f80f0e89", "gender": 0, "id": 1161072, "name": "Red Nichols", "order": 7, "profile_path": "/aBybrySj5LL915wdQaldFTfngbq.jpg"}, {"cast_id": 11, "character": "Tommy Dorsey", "credit_id": "52fe462dc3a36847f80f0e8d", "gender": 2, "id": 161681, "name": "Bobby Troup", "order": 8, "profile_path": "/8Q5X3MIP5i7rIUBlRyIcxIfIVQ5.jpg"}, {"cast_id": 12, "character": "Herself", "credit_id": "52fe462dc3a36847f80f0e91", "gender": 0, "id": 1045490, "name": "Anita O'Day", "order": 9, "profile_path": "/bMmX6mTBBio5bkFkWwo0qFDiZ58.jpg"}, {"cast_id": 13, "character": "Davey Tough", "credit_id": "5c4d1d7ac3a36847779118b2", "gender": 0, "id": 153697, "name": "Shelly Manne", "order": 10, "profile_path": "/sbILujt1E3wxSwyB1dr8QsHYGFs.jpg"}, {"cast_id": 14, "character": "Himself", "credit_id": "5c4d1d8c0e0a26495ad52094", "gender": 2, "id": 152682, "name": "Buddy Lester", "order": 11, "profile_path": "/tG1M2qfkrOkZrXV4RYRngovyLLv.jpg"}], "crew": [{"credit_id": "52fe462cc3a36847f80f0e63", "department": "Directing", "gender": 2, "id": 148601, "job": "Director", "name": "Don Weis", "profile_path": null}, {"credit_id": "52fe462cc3a36847f80f0e69", "department": "Writing", "gender": 0, "id": 588069, "job": "Writer", "name": "Orin Jannings", "profile_path": null}]}}