{"adult": false, "backdrop_path": "/8vwuDhsW0YN305oE0d49jDDkDZO.jpg", "belongs_to_collection": {"id": 433556, "name": "Koko Collection", "poster_path": null, "backdrop_path": null}, "budget": 0, "genres": [{"id": 12, "name": "Adventure"}, {"id": 10751, "name": "Family"}, {"id": 9648, "name": "Mystery"}], "homepage": null, "id": 432294, "imdb_id": "tt6484954", "original_language": "hr", "original_title": "Uzbuna na Zelenom Vrhu", "overview": "Koko and his friends are spending summer vacation on the shores of a lake near the idyllic Green Hill, hanging out and playing. The magical countryside is disturbed by unusual events which alarm the children as well as the locals: under cover of night, burglars break into one house after another, stealing anything valuable they can find. When the police turns a blind eye to denunciations by adults, the children decide to take matters into their own hands and unmask the burglars.", "popularity": 0.6, "poster_path": "/p51NCuJ2qM3ihiZXZu085HtFHHi.jpg", "production_companies": [{"id": 20916, "logo_path": "/kTzjchV1BXm1kSmR5vPRUnJfLil.png", "name": "Kinorama", "origin_country": "HR"}], "production_countries": [{"iso_3166_1": "HR", "name": "Croatia"}], "release_date": "2017-01-26", "revenue": 0, "runtime": 80, "spoken_languages": [{"iso_639_1": "hr", "name": "Hrvatski"}], "status": "Released", "tagline": "", "title": "The Mystery of Green Hill", "video": false, "vote_average": 7.1, "vote_count": 4, "keywords": {"keywords": [{"id": 7063, "name": "children gang"}, {"id": 10103, "name": "children"}, {"id": 199981, "name": "hill"}]}, "similar": {"page": 1, "results": [{"id": 420814, "video": false, "vote_count": 1617, "vote_average": 7.4, "title": "Christopher Robin", "release_date": "2018-08-02", "original_language": "en", "original_title": "Christopher Robin", "genre_ids": [12, 35, 14, 10751], "backdrop_path": "/uDt8bQ4lGVlabEx5Gl2cPzvy6qz.jpg", "adult": false, "overview": "Christopher Robin, the boy who had countless adventures in the Hundred Acre Wood, has grown up and lost his way. Now it\u2019s up to his spirited and loveable stuffed animals, Winnie The Pooh, Tigger, Piglet, and the rest of the gang, to rekindle their friendship and remind him of endless days of childlike wonder and make-believe, when doing nothing was the very best something.", "poster_path": "/fQYgljzKgkeGEukezaJsMWp7oq1.jpg", "popularity": 16.389}, {"adult": false, "backdrop_path": "/fBYnaVOcc2Ghfkv473z0xdBRQ0m.jpg", "genre_ids": [10751, 16, 12, 35], "id": 270946, "original_language": "en", "original_title": "Penguins of Madagascar", "overview": "Skipper, Kowalski, Rico and Private join forces with undercover organization The North Wind to stop the villainous Dr. Octavius Brine from destroying the world as we know it.", "poster_path": "/pRer59eyY4rjkLPeKXKo7fPxCHH.jpg", "release_date": "2014-11-22", "title": "Penguins of Madagascar", "video": false, "vote_average": 6.4, "vote_count": 2485, "popularity": 27.36}, {"id": 527435, "video": false, "vote_count": 960, "vote_average": 7.1, "title": "The Christmas Chronicles", "release_date": "2018-11-22", "original_language": "en", "original_title": "The Christmas Chronicles", "genre_ids": [12, 35, 14, 10751], "backdrop_path": "/brENMyyhk13WLzKHBK20rBKx0u7.jpg", "adult": false, "overview": "Siblings Kate and Teddy try to prove Santa Claus is real, but when they accidentally cause his sleigh to crash, they have to save Christmas.", "poster_path": "/5Il2EMSF2KecrUKZPuen6BZmaCP.jpg", "popularity": 12.455}, {"id": 9906, "video": false, "vote_count": 795, "vote_average": 5.6, "title": "The Ant Bully", "release_date": "2006-07-28", "original_language": "en", "original_title": "The Ant Bully", "genre_ids": [12, 16, 35, 14, 10751], "backdrop_path": "/gQ1MQIbEjBKTH5TBsnfv2vkMrJb.jpg", "adult": false, "overview": "Fed up with being targeted by the neighborhood bully, 10-year-old Lucas Nickle vents his frustrations on the anthill in his front yard ... until the insects shrink him to the size of a bug with a magic elixir. Convicted of \"crimes against the colony,\" Lucas can only regain his freedom by living with the ants and learning their ways.", "poster_path": "/tBUlwDCdvYC5aP7DzgcmDgrbfec.jpg", "popularity": 12.439}, {"adult": false, "backdrop_path": "/AeMtzbw7shxtLvwKKqeITabpTrD.jpg", "genre_ids": [12, 16, 35, 10751], "id": 137116, "original_language": "en", "original_title": "Smurfs: The Lost Village", "overview": "In this fully animated, all-new take on the Smurfs, a mysterious map sets Smurfette and her friends Brainy, Clumsy and Hefty on an exciting race through the Forbidden Forest leading to the discovery of the biggest secret in Smurf history.", "poster_path": "/diYAZ6CKUuRAqLYMB2AyVutEFm0.jpg", "release_date": "2017-03-23", "title": "Smurfs: The Lost Village", "video": false, "vote_average": 6.1, "vote_count": 826, "popularity": 21.339}, {"id": 150540, "video": false, "vote_count": 13957, "vote_average": 7.9, "title": "Inside Out", "release_date": "2015-06-09", "original_language": "en", "original_title": "Inside Out", "genre_ids": [16, 35, 18, 10751], "backdrop_path": "/szytSpLAyBh3ULei3x663mAv5ZT.jpg", "adult": false, "overview": "Growing up can be a bumpy road, and it's no exception for Riley, who is uprooted from her Midwest life when her father starts a new job in San Francisco. Riley's guiding emotions\u2014 Joy, Fear, Anger, Disgust and Sadness\u2014live in Headquarters, the control centre inside Riley's mind, where they help advise her through everyday life and tries to keep things positive, but the emotions conflict on how best to navigate a new city, house and school.", "poster_path": "/aAmfIX3TT40zUHGcCKrlOZRKC7u.jpg", "popularity": 57.362}, {"id": 298312, "video": false, "vote_count": 2924, "vote_average": 6.2, "title": "The Visit", "release_date": "2015-09-10", "original_language": "en", "original_title": "The Visit", "genre_ids": [27, 9648, 53], "backdrop_path": "/gbJlEeALVGo7kx8bC2q4EFWX1Xy.jpg", "adult": false, "overview": "The terrifying story of a brother and sister who are sent to their grandparents' remote Pennsylvania farm for a weeklong trip. Once the children discover that the elderly couple is involved in something deeply disturbing, they see their chances of getting back home are growing smaller every day.", "poster_path": "/32tNtTEQ1vIOLm1hEOSFkVwJT5D.jpg", "popularity": 24.632}, {"adult": false, "backdrop_path": "/tNpJuz8NEG0DsGG8SN0dL2kbCzs.jpg", "genre_ids": [878, 12, 10751, 14], "id": 601, "original_language": "en", "original_title": "E.T. the Extra-Terrestrial", "overview": "After a gentle alien becomes stranded on Earth, the being is discovered and befriended by a young boy named Elliott. Bringing the extraterrestrial into his suburban California house, Elliott introduces E.T., as the alien is dubbed, to his brother and his little sister, Gertie, and the children decide to keep its existence a secret. Soon, however, E.T. falls ill, resulting in government intervention and a dire situation for both Elliott and the alien.", "poster_path": "/8htLKK03TJjKZOXJgihZCu8v0P.jpg", "release_date": "1982-06-11", "title": "E.T. the Extra-Terrestrial", "video": false, "vote_average": 7.5, "vote_count": 7147, "popularity": 24.322}, {"id": 260513, "video": false, "vote_count": 7538, "vote_average": 7.5, "title": "Incredibles 2", "release_date": "2018-06-14", "original_language": "en", "original_title": "Incredibles 2", "genre_ids": [28, 12, 16, 10751], "backdrop_path": "/mabuNsGJgRuCTuGqjFkWe1xdu19.jpg", "adult": false, "overview": "Elastigirl springs into action to save the day, while Mr. Incredible faces his greatest challenge yet \u2013 taking care of the problems of his three children.", "poster_path": "/9lFKBtaVIhP7E2Pk0IY1CwTKTMZ.jpg", "popularity": 44.731}, {"id": 20352, "video": false, "vote_count": 10785, "vote_average": 7.2, "title": "Despicable Me", "release_date": "2010-07-08", "original_language": "en", "original_title": "Despicable Me", "genre_ids": [16, 35, 10751], "backdrop_path": "/yo1ef57MEPkEE4BDZKTZGH9uDcX.jpg", "adult": false, "overview": "Villainous Gru lives up to his reputation as a despicable, deplorable and downright unlikable guy when he hatches a plan to steal the moon from the sky. But he has a tough time staying on task after three orphans land in his care.", "poster_path": "/4zHJhBSY4kNZXfhTlmy2TzXD51M.jpg", "popularity": 35.41}, {"id": 93456, "video": false, "vote_count": 7883, "vote_average": 6.9, "title": "Despicable Me 2", "release_date": "2013-06-25", "original_language": "en", "original_title": "Despicable Me 2", "genre_ids": [16, 35, 10751], "backdrop_path": "/rmgxcw8tGTmdhsWqdjGBS9uI1tO.jpg", "adult": false, "overview": "Gru is recruited by the Anti-Villain League to help deal with a powerful new super criminal.", "poster_path": "/kQrYyZQHkwkUg2KlUDyvymj9FAp.jpg", "popularity": 45.613}, {"id": 342473, "video": false, "vote_count": 1169, "vote_average": 7.1, "title": "Ballerina", "release_date": "2016-12-14", "original_language": "en", "original_title": "Ballerina", "genre_ids": [12, 16, 35, 10751], "backdrop_path": "/wlLdcK3Sm7zp0w1ZuVvnFlmcchM.jpg", "adult": false, "overview": "Set in 1879 Paris. An orphan girl dreams of becoming a ballerina and flees her rural Brittany for Paris, where she passes for someone else and accedes to the position of pupil at the Grand Opera house.", "poster_path": "/qBxMhcmNnFniuDAZTKEHcSgKtsn.jpg", "popularity": 24.47}, {"id": 387592, "video": false, "vote_count": 393, "vote_average": 6.0, "title": "Early Man", "release_date": "2018-01-26", "original_language": "en", "original_title": "Early Man", "genre_ids": [12, 16, 35, 10751], "backdrop_path": "/9m71RMP45mg599xtKPyjicyHn1a.jpg", "adult": false, "overview": "Dug, along with his sidekick Hognob, unite a cavemen tribe to save their hidden valley from being spoiled and, all together as a team, to face the menace of a mysterious and mighty enemy, on the turf of an ancient and sacred sport.", "poster_path": "/5iW2rntwLZoGlFCYYy8TjHyblbw.jpg", "popularity": 14.887}, {"adult": false, "backdrop_path": "/5BxrMNGl3YDiWgHCVJu8iLQoJDM.jpg", "genre_ids": [878], "id": 445651, "original_language": "en", "original_title": "The Darkest Minds", "overview": "After a disease kills 98% of America's children, the surviving 2% develop superpowers and are placed in internment camps. A 16-year-old girl escapes her camp and joins a group of other teens on the run from the government.", "poster_path": "/94RaS52zmsqaiAe1TG20pdbJCZr.jpg", "release_date": "2018-07-25", "title": "The Darkest Minds", "video": false, "vote_average": 6.8, "vote_count": 1465, "popularity": 17.505}, {"adult": false, "backdrop_path": "/zd3p7GKopxH4rIjGoDQ1ugalUtx.jpg", "genre_ids": [16, 10751, 10770], "id": 13382, "original_language": "en", "original_title": "Rudolph the Red-Nosed Reindeer", "overview": "Sam the snowman tells us the story of a young red-nosed reindeer who, after being ousted from the reindeer games because of his glowing nose, teams up with Hermey, an elf who wants to be a dentist, and Yukon Cornelius, the prospector. They run into the Abominable Snowman and find a whole island of misfit toys. Rudoph vows to see if he can get Santa to help the toys, and he goes back to the North Pole on Christmas Eve. But Santa's sleigh is fogged in. But when Santa looks over Rudolph, he gets a very bright idea...", "poster_path": "/r0vtyGOwTLZg4pgtbjlMGke7Qo1.jpg", "release_date": "1964-12-06", "title": "Rudolph the Red-Nosed Reindeer", "video": false, "vote_average": 7.4, "vote_count": 276, "popularity": 11.992}, {"adult": false, "backdrop_path": "/9EbRukoEPkdRaXI73H3ufbga6tH.jpg", "genre_ids": [18], "id": 394117, "original_language": "en", "original_title": "The Florida Project", "overview": "The story of a precocious six year-old and her ragtag group of friends whose summer break is filled with childhood wonder, possibility and a sense of adventure while the adults around them struggle with hard times.", "poster_path": "/bnSTP1PY2fDyat0eUa4QouuGV7F.jpg", "release_date": "2017-10-06", "title": "The Florida Project", "video": false, "vote_average": 7.4, "vote_count": 1322, "popularity": 14.756}, {"adult": false, "backdrop_path": "/hnPGWzbv2EZCX9d803Emy3AajI5.jpg", "genre_ids": [35, 18, 14, 10749], "id": 9339, "original_language": "en", "original_title": "Click", "overview": "A harried workaholic, Michael Newman doesn't have time for his wife and children, not if he's to impress his ungrateful boss and earn a well-deserved promotion. So when he meets Morty, a loopy sales clerk, he gets the answer to his prayers: a magical remote that allows him to bypass life's little distractions with increasingly hysterical results.", "poster_path": "/ojmEqzJgTLo8S34uVQ6ZWmhgOoG.jpg", "release_date": "2006-06-22", "title": "Click", "video": false, "vote_average": 6.1, "vote_count": 4365, "popularity": 18.416}, {"id": 11774, "video": false, "vote_count": 3307, "vote_average": 6.8, "title": "Lemony Snicket's A Series of Unfortunate Events", "release_date": "2004-12-16", "original_language": "en", "original_title": "Lemony Snicket's A Series of Unfortunate Events", "genre_ids": [12, 35, 10751], "backdrop_path": "/iH65TTlQtDKCFZ9FZI04jz6xKPF.jpg", "adult": false, "overview": "Three wealthy children's parents are killed in a fire. When they are sent to a distant relative, they find out that he is plotting to kill them and seize their fortune.  This movie is extremely alarming, an expression which here means \"a thrilling misadventure involving three ingenious orphans and a villainous actor named Count Olaf (Jim Carrey) who wants their enormous fortune.\"  It includes a suspicious fire, delicious pasta, Jim Carrey, poorly behaved looches, Billy Connolly, an incredibly deadly viper, Meryl Streep, and the voice of an imposter named Jude Law.", "poster_path": "/dHQMAj9E2G2ewjN1aCOPubsZaj1.jpg", "popularity": 16.733}, {"adult": false, "backdrop_path": "/hpIUiHIyNKWsid3Tz4adtYsUqo1.jpg", "genre_ids": [16, 12, 10751], "id": 82703, "original_language": "en", "original_title": "Mr. Peabody & Sherman", "overview": "A young boy and his dog, who happens to have a genius-level IQ, spring into action when their time-machine is stolen and moments in history begin to be changed.", "poster_path": "/q4FQXK4a4HSb4pajZL4ZFKHVsjC.jpg", "release_date": "2014-02-07", "title": "Mr. Peabody & Sherman", "video": false, "vote_average": 6.6, "vote_count": 1490, "popularity": 18.443}, {"id": 10708, "video": false, "vote_count": 1291, "vote_average": 5.8, "title": "Daddy Day Care", "release_date": "2003-05-03", "original_language": "en", "original_title": "Daddy Day Care", "genre_ids": [35, 10751], "backdrop_path": "/ovAxqg6WTlfi6QbPAJOiyHwNABM.jpg", "adult": false, "overview": "Two men get laid off and have to become stay-at-home dads when they can't find jobs, which inspires them to open their own day-care center.", "poster_path": "/jcDgz7v8tUMixVrJki8zOdQhaMn.jpg", "popularity": 11.076}], "total_pages": 42, "total_results": 826}, "recommendations": {"page": 1, "results": [], "total_pages": 1, "total_results": 0}, "credits": {"cast": [{"cast_id": 4, "character": "Koko", "credit_id": "586634699251412b9002c39e", "gender": 0, "id": 1729938, "name": "Marko Tocilj", "order": 1, "profile_path": null}, {"cast_id": 5, "character": "Tomo", "credit_id": "58663476c3a36852ba02c90a", "gender": 0, "id": 1729939, "name": "Alex Rako\u0161", "order": 2, "profile_path": null}, {"cast_id": 6, "character": "\u017dohar", "credit_id": "58663481c3a36852cc029016", "gender": 0, "id": 1729940, "name": "Jan Pentek", "order": 3, "profile_path": null}, {"cast_id": 7, "character": "Bo\u017eo", "credit_id": "58663490c3a36852ba02c922", "gender": 0, "id": 1729941, "name": "Tin Gregori\u0107", "order": 4, "profile_path": null}, {"cast_id": 8, "character": "Crni", "credit_id": "5866349b9251412b7d02a00c", "gender": 0, "id": 1729942, "name": "Jakov Piljek", "order": 5, "profile_path": null}, {"cast_id": 9, "character": "Kokov tata", "credit_id": "586634a99251412b7d02a01f", "gender": 0, "id": 1058597, "name": "Ozren Grabari\u0107", "order": 6, "profile_path": "/iq9xhP2ThCqAlA2ZJRsUV49DQUL.jpg"}, {"cast_id": 10, "character": "Kokova mama", "credit_id": "586634b79251412b9002c3e4", "gender": 0, "id": 1058598, "name": "Dijana Vidu\u0161in", "order": 7, "profile_path": "/offKynuzJhcxFn51C13uXMusbJy.jpg"}, {"cast_id": 11, "character": "Emica", "credit_id": "5a1ace37c3a3680b9303e413", "gender": 0, "id": 1929868, "name": "Lucija Philips", "order": 8, "profile_path": null}, {"cast_id": 12, "character": "Marica", "credit_id": "5a1ace47c3a3680b9603dea8", "gender": 0, "id": 1929869, "name": "Sara \u010colakovi\u0107", "order": 9, "profile_path": null}, {"cast_id": 13, "character": "Ivo", "credit_id": "5a1ace55925141033603e592", "gender": 0, "id": 1929870, "name": "Toma Serdarevi\u0107", "order": 10, "profile_path": null}, {"cast_id": 14, "character": "Nina", "credit_id": "5a1ace5f0e0a264cc103ce6f", "gender": 0, "id": 1929871, "name": "Dora Bili\u0107", "order": 11, "profile_path": null}, {"cast_id": 15, "character": "Kamatar", "credit_id": "5a1ace69c3a3680b8803e901", "gender": 0, "id": 1192962, "name": "Zvonimir Juri\u0107", "order": 12, "profile_path": null}, {"cast_id": 16, "character": "Tomin otac", "credit_id": "5a1ace71925141033003c4fc", "gender": 0, "id": 63888, "name": "Janko Rako\u0161", "order": 13, "profile_path": "/dWu1o3Fspk7ipmelSQA2zX6RzNw.jpg"}, {"cast_id": 17, "character": "", "credit_id": "5a1ace79c3a3680b8f03dea5", "gender": 0, "id": 63878, "name": "Olga Pakalovi\u0107", "order": 14, "profile_path": "/6ouzJyJGhe2SAjXoaacPqCufgKj.jpg"}, {"cast_id": 18, "character": "", "credit_id": "5a1ace7fc3a3680b9603dede", "gender": 0, "id": 63881, "name": "Kre\u0161imir Miki\u0107", "order": 15, "profile_path": "/gsw9sFV0Su0ObGJy5SMiLQOHHs6.jpg"}], "crew": [{"credit_id": "586634139251412b8702ac14", "department": "Sound", "gender": 0, "id": 1058603, "job": "Original Music Composer", "name": "Dinko Appelt", "profile_path": null}, {"credit_id": "58663275c3a36852d2027a7c", "department": "Writing", "gender": 0, "id": 1058614, "job": "Novel", "name": "Ivan Ku\u0161an", "profile_path": null}, {"credit_id": "586632b6c3a36852c0030001", "department": "Writing", "gender": 1, "id": 1364309, "job": "Writer", "name": "Hana Ju\u0161i\u0107", "profile_path": "/wgAJodvxrFqwIk683gjgKrofarB.jpg"}, {"credit_id": "586632999251412b7b02d0a4", "department": "Directing", "gender": 1, "id": 1729937, "job": "Director", "name": "\u010cejen \u010cerni\u0107", "profile_path": null}]}}