{"adult": false, "backdrop_path": "/aHJeLMjLWewlA75fyUnykqNaVKd.jpg", "belongs_to_collection": {"id": 664273, "name": "Tammy Collection", "poster_path": null, "backdrop_path": null}, "budget": 0, "genres": [{"id": 35, "name": "Comedy"}, {"id": 10749, "name": "Romance"}], "homepage": null, "id": 43240, "imdb_id": "tt0051051", "original_language": "en", "original_title": "Tammy and the Bachelor", "overview": "An unsophisticated young woman from the Mississippi swamps falls in love with an unconventional southern gentleman.", "popularity": 4.257, "poster_path": "/kUZp4fKmfiC9tZVolxSBwSmSAib.jpg", "production_companies": [{"id": 10330, "logo_path": "/nY62adzeba5GVK8LJYD6yd9R8H4.png", "name": "Universal International Pictures", "origin_country": ""}], "production_countries": [{"iso_3166_1": "US", "name": "United States of America"}], "release_date": "1957-06-14", "revenue": 0, "runtime": 89, "spoken_languages": [{"iso_639_1": "en", "name": "English"}], "status": "Released", "tagline": "All about a little Mississippi riverboat gal who taught a sophisticated bachelor about love!", "title": "Tammy and the Bachelor", "video": false, "vote_average": 7.2, "vote_count": 11, "keywords": {"keywords": [{"id": 1338, "name": "bachelor"}, {"id": 4551, "name": "swamp"}, {"id": 9673, "name": "love"}]}, "similar": {"page": 1, "results": [{"adult": false, "backdrop_path": "/w2KDvs7D0E6yDGESrAeJ0tzimSA.jpg", "genre_ids": [35, 18], "id": 44564, "original_language": "en", "original_title": "The Dilemma", "overview": "Longtime friends Ronny and Nick are partners in an auto-design firm. They are hard at work on a presentation for a dream project that would really launch their company. Then Ronny spots Nick's wife out with another man, and in the process of investigating the possible affair, he learns that Nick has a few secrets of his own. As the presentation nears, Ronny agonizes over what might happen if the truth gets out.", "poster_path": "/wMwKQBOrlz3KN3QLIFj65hyJw9B.jpg", "release_date": "2011-01-13", "title": "The Dilemma", "video": false, "vote_average": 5.4, "vote_count": 540, "popularity": 12.409}, {"adult": false, "backdrop_path": "/Ao2bnJMmcFepMVw1BUay25tt7TM.jpg", "genre_ids": [18, 10749], "id": 1259, "original_language": "en", "original_title": "Notes on a Scandal", "overview": "A veteran high school teacher befriends a younger art teacher, who is having an affair with one of her 15-year-old students. However, her intentions with this new \"friend\" also go well beyond platonic friendship.", "poster_path": "/lXZa1mHZ8eD0VOpNaLfvM9tSpAj.jpg", "release_date": "2006-12-25", "title": "Notes on a Scandal", "video": false, "vote_average": 7.1, "vote_count": 463, "popularity": 10.007}, {"id": 12531, "video": false, "vote_count": 91, "vote_average": 6.9, "title": "The Apartment", "release_date": "1996-07-27", "original_language": "fr", "original_title": "L'Appartement", "genre_ids": [18, 9648, 10749], "backdrop_path": "/64qyT8m4JQ6YODvXxtbHgKmXBX7.jpg", "adult": false, "overview": "A stylish suspense thriller that confounds the audience while presenting them with an extraordinary and elusive mystery. Max is a former playboy who has decided to settle down by marrying his current love, Muriel. However, during a business trip, Max catches a glimpse of the great lost love of his life, reviving his wanderlust and sending him off on a chase of the elusive Lisa, whom he had overheard suggesting to a friend that her lover, Daniel, had killed someone for her. Soon, Max is trying to unravel the mystery behind the suspicious death of Daniel's wife, which he hopes will lead him closer to Lisa.", "poster_path": "/1sqrQdQTn8jKLhUcPKfRVj639zA.jpg", "popularity": 21.259}, {"id": 50544, "video": false, "vote_count": 5176, "vote_average": 6.6, "title": "Friends with Benefits", "release_date": "2011-07-21", "original_language": "en", "original_title": "Friends with Benefits", "genre_ids": [35, 10749], "backdrop_path": "/liq5ljqURqLiBUgMkNiR388ZuSH.jpg", "adult": false, "overview": "Dylan and Jamie think it's going to be easy to add the simple act of sex to their friendship, despite what Hollywood romantic comedies would have them believe. They soon discover however that getting physical really does always lead to complications.", "poster_path": "/nKhhDFCdzxeJ3GUunQ570LDpUkz.jpg", "popularity": 19.228}, {"id": 9051, "video": false, "vote_count": 115, "vote_average": 5.6, "title": "10", "release_date": "1979-10-04", "original_language": "en", "original_title": "10", "genre_ids": [35, 10749], "backdrop_path": "/f0KcQlWKQfgJxIV365TFaFyXUVT.jpg", "adult": false, "overview": "A Hollywood songwriter goes through a mid-life crisis and becomes infatuated with a sexy blonde newlywed.", "poster_path": "/7GGpt49Q2c98zVz514mHlRjCpGy.jpg", "popularity": 10.949}, {"adult": false, "backdrop_path": "/3GuYLuqn34guNrgUlZnXyLogD6u.jpg", "genre_ids": [35, 12, 10749], "id": 13523, "original_language": "en", "original_title": "Sex Drive", "overview": "A high school senior drives cross-country with his best friends to hook up with a babe he met online.", "poster_path": "/bwXrZy2xqsyDnno4z8AENEgVfsO.jpg", "release_date": "2008-10-16", "title": "Sex Drive", "video": false, "vote_average": 6.1, "vote_count": 646, "popularity": 16.891}, {"adult": false, "backdrop_path": "/dDxwX9quYcQRaLb8Q5g3owrok9e.jpg", "genre_ids": [35, 10749], "id": 277547, "original_language": "en", "original_title": "Playing It Cool", "overview": "The story of a young man disillusioned by love who meets a breathtaking young woman at a charity dinner by pretending to be a philanthropist. Turns out that she\u2019s engaged to a guy who doesn\u2019t like her going on dates. Challenged by the chase, and egged on by his eclectic friends, he feigns a platonic relationship in order to keep seeing her as he tries to conquer her heart", "poster_path": "/mBzSxaPOcq8XwXq4qkkyy8Ev9Go.jpg", "release_date": "2014-09-26", "title": "Playing It Cool", "video": false, "vote_average": 5.9, "vote_count": 464, "popularity": 19.604}, {"adult": false, "backdrop_path": "/rVivKkJD4HV31zAd9oW3abbGjAu.jpg", "genre_ids": [18, 35], "id": 276, "original_language": "de", "original_title": "Die fetten Jahre sind vorbei", "overview": "Three activists cobble together a kidnapping plot after they encounter a businessman in his home.", "poster_path": "/jmjX2tV91uU6GBKUAx3otsYgMBG.jpg", "release_date": "2004-10-25", "title": "The Edukators", "video": false, "vote_average": 7.3, "vote_count": 172, "popularity": 7.999}, {"id": 38, "video": false, "vote_count": 8439, "vote_average": 8.1, "title": "Eternal Sunshine of the Spotless Mind", "release_date": "2004-03-19", "original_language": "en", "original_title": "Eternal Sunshine of the Spotless Mind", "genre_ids": [18, 878, 10749], "backdrop_path": "/1dXTsaFxHoF9cas08UjAqE8NqOW.jpg", "adult": false, "overview": "Joel Barish, heartbroken that his girlfriend underwent a procedure to erase him from her memory, decides to do the same. However, as he watches his memories of her fade away, he realises that he still loves her, and may be too late to correct his mistake.", "poster_path": "/7y3eYvTsGjxPYDtSnumCLIMDkrV.jpg", "popularity": 22.167}, {"adult": false, "backdrop_path": "/74Jh5SIWnKDwtusPfDP51EeCFHt.jpg", "genre_ids": [35, 10749], "id": 9576, "original_language": "en", "original_title": "Tootsie", "overview": "When struggling, out of work actor Michael Dorsey secretly adopts a female alter ego - Dorothy Michaels - in order to land a part in a daytime drama, he unwittingly becomes a feminist icon and ends up in a romantic pickle.", "poster_path": "/ngyCzZwb9y5sMUCig5JQT4Y33Q.jpg", "release_date": "1982-12-16", "title": "Tootsie", "video": false, "vote_average": 7.2, "vote_count": 915, "popularity": 10.882}, {"id": 76492, "video": false, "vote_count": 5544, "vote_average": 6.9, "title": "Hotel Transylvania", "release_date": "2012-09-20", "original_language": "en", "original_title": "Hotel Transylvania", "genre_ids": [16, 35, 14, 10751], "backdrop_path": "/sETTal2HPPkUC3lWc27HL1AFu9C.jpg", "adult": false, "overview": "Welcome to Hotel Transylvania, Dracula's lavish five-stake resort, where monsters and their families can live it up and no humans are allowed. One special weekend, Dracula has invited all his best friends to celebrate his beloved daughter Mavis's 118th birthday. For Dracula catering to all of these legendary monsters is no problem but the party really starts when one ordinary guy stumbles into the hotel and changes everything!", "poster_path": "/9qugesYpAWHUpdrw2w8URSGkAPt.jpg", "popularity": 25.375}, {"adult": false, "backdrop_path": "/9YwwUNJKUsJ4mOERvUK9ITP0Qou.jpg", "genre_ids": [18, 35, 10749], "id": 245, "original_language": "en", "original_title": "About a Boy", "overview": "Will Freeman is a hip Londoner who one day realizes that his friends are all involved with the responsibilities of married life and that leaves him alone in the cold. Passing himself off as a single father, he starts to meet a string of single mums, confident in his ability to leave them behind when they start to ask for a commitment. But Will's hope of a continued bachelorhood is interrupted when he meets 12-year old Marcus, in many ways his complete opposite.", "poster_path": "/1kz4Q2v7cxwNnTfkjrujzWAVCne.jpg", "release_date": "2002-04-26", "title": "About a Boy", "video": false, "vote_average": 6.6, "vote_count": 1385, "popularity": 13.071}, {"adult": false, "backdrop_path": "/xC9cG6Wy6QbH2hoAx11xPPD995R.jpg", "genre_ids": [18, 10749], "id": 86331, "original_language": "fr", "original_title": "Q", "overview": "In a social context deteriorated by a countrywide economic crisis, the life of several people will be turned upside down after they meet Cecile, a character who symbolizes desire.", "poster_path": "/9Jg9s4yTEndNmy1SSXRF9jdxY9D.jpg", "release_date": "2011-09-14", "title": "Desire", "video": false, "vote_average": 4.7, "vote_count": 204, "popularity": 30.344}, {"id": 272693, "video": false, "vote_count": 3247, "vote_average": 6.8, "title": "The DUFF", "release_date": "2015-02-20", "original_language": "en", "original_title": "The DUFF", "genre_ids": [35, 10749], "backdrop_path": "/awGZf5T1hflis9Z2KvRMhp798xU.jpg", "adult": false, "overview": "Bianca's universe turns upside down when she learns that her high school refers to her as a \u2018DUFF' (Designated Ugly Fat Friend). Hoping to erase that label, she enlists the help of a charming jock and her favorite teacher. Together they'll face the school's mean girl and remind everyone that we are all someone's DUFF\u2026 and that's totally fine.", "poster_path": "/dBBgPTCN5Zze4POXWVVpwf3wkra.jpg", "popularity": 14.151}, {"id": 225886, "video": false, "vote_count": 2903, "vote_average": 5.3, "title": "Sex Tape", "release_date": "2014-07-17", "original_language": "en", "original_title": "Sex Tape", "genre_ids": [35], "backdrop_path": "/82j1VNKMnDx7ZA7Pm06vm0XMKas.jpg", "adult": false, "overview": "When Jay and Annie first got together, their romantic connection was intense \u2013 but ten years and two kids later, the flame of their love needs a spark.  To kick things up a notch, they decide \u2013 why not? \u2013 to make a video of themselves trying out every position in The Joy of Sex in one marathon three-hour session.  It seems like a great idea \u2013 until they discover that their most private video is no longer private.  With their reputations on the line, they know they\u2019re just one click away from being laid bare to the world... but as their race to reclaim their video leads to a night they'll never forget, they'll find that their video will expose even more than they bargained for.", "poster_path": "/2BMmIPGu5ZbTrwXwomdSUuTB2Ul.jpg", "popularity": 25.57}, {"id": 10995, "video": false, "vote_count": 255, "vote_average": 6.6, "title": "The Lover", "release_date": "1992-02-22", "original_language": "fr", "original_title": "L'Amant", "genre_ids": [18, 10749], "backdrop_path": "/zRAgf1F0rRp0Tys8AnMWGBFJRZv.jpg", "adult": false, "overview": "A poor French teenage girl engages in an illicit affair with a wealthy Chinese heir in 1920s Saigon. For the first time in her young life she has control, and she wields it deftly over her besotted lover throughout a series of clandestine meetings and torrid encounters.", "poster_path": "/iey1UA4hav2cn60qGi1zgKxpPBl.jpg", "popularity": 12.739}, {"id": 19913, "video": false, "vote_count": 6205, "vote_average": 7.2, "title": "(500) Days of Summer", "release_date": "2009-07-17", "original_language": "en", "original_title": "(500) Days of Summer", "genre_ids": [35, 18, 10749], "backdrop_path": "/yYw9cVdRJ4zzwxM2cTDXfT6JI6E.jpg", "adult": false, "overview": "Tom, greeting-card writer and hopeless romantic, is caught completely off-guard when his girlfriend, Summer, suddenly dumps him. He reflects on their 500 days together to try to figure out where their love affair went sour, and in doing so, Tom rediscovers his true passions in life.", "poster_path": "/5SjtNPD1bb182vzQccvEUpXHFjN.jpg", "popularity": 20.229}, {"adult": false, "backdrop_path": "/w4w8CTEe4isWO2TzDSQ3MV3br9l.jpg", "genre_ids": [14, 35, 10751], "id": 8839, "original_language": "en", "original_title": "Casper", "overview": "Furious that her late father only willed her his gloomy-looking mansion rather than his millions, Carrigan Crittenden is ready to burn the place to the ground when she discovers a map to a treasure hidden in the house. But when she enters the rickety mansion to seek her claim, she is frightened away by a wicked wave of ghosts. Determined to get her hands on this hidden fortune, she hires afterlife therapist Dr. James Harvey to exorcise the ghosts from the mansion. Harvey and his daughter Kat move in, and soon Kat meets Casper, the ghost of a young boy who's \"the friendliest ghost you know.\" But not so friendly are Casper's uncles--Stretch, Fatso and Stinkie--who are determined to drive all \"fleshies\" away.", "poster_path": "/1WeumvndgPE3hopKQqXbCKO26oH.jpg", "release_date": "1995-05-26", "title": "Casper", "video": false, "vote_average": 6.2, "vote_count": 2787, "popularity": 25.964}, {"id": 13, "video": false, "vote_count": 16601, "vote_average": 8.4, "title": "Forrest Gump", "release_date": "1994-07-06", "original_language": "en", "original_title": "Forrest Gump", "genre_ids": [35, 18, 10749], "backdrop_path": "/wMgbnUVS9wbRGAdki8fqxKU1O0N.jpg", "adult": false, "overview": "A man with a low IQ has accomplished great things in his life and been present during significant historic events\u2014in each case, far exceeding what anyone imagined he could do. But despite all he has achieved, his one true love eludes him.", "poster_path": "/yE5d3BUhE8hCnkMUJOo1QDoOGNz.jpg", "popularity": 46.241}, {"id": 72105, "video": false, "vote_count": 8338, "vote_average": 6.3, "title": "Ted", "release_date": "2012-06-29", "original_language": "en", "original_title": "Ted", "genre_ids": [35, 14], "backdrop_path": "/sPiFgbWMSQxVMO6TuRFrkeWwarI.jpg", "adult": false, "overview": "John Bennett, a man whose childhood wish of bringing his teddy bear to life came true, now must decide between keeping the relationship with the bear or his girlfriend, Lori.", "poster_path": "/5ExgYTRafm4kFRwHp2jH6C23Yl4.jpg", "popularity": 24.937}], "total_pages": 311, "total_results": 6216}, "recommendations": {"page": 1, "results": [], "total_pages": 1, "total_results": 0}, "credits": {"cast": [{"cast_id": 4, "character": "Tambree \"Tammy\" Tyree", "credit_id": "52fe4637c3a36847f80f2f8b", "gender": 1, "id": 8857, "name": "Debbie Reynolds", "order": 0, "profile_path": "/z5naigs3CDthHEX7qrfHnAsAEYO.jpg"}, {"cast_id": 5, "character": "Peter Brent", "credit_id": "52fe4637c3a36847f80f2f8f", "gender": 2, "id": 7633, "name": "Leslie Nielsen", "order": 1, "profile_path": "/u06yDkcwgd5qEDJXckV7T3aRby0.jpg"}, {"cast_id": 6, "character": "John Dinwitty", "credit_id": "52fe4637c3a36847f80f2f93", "gender": 2, "id": 4302, "name": "Walter Brennan", "order": 2, "profile_path": "/wPp0mmWWVMzOD3ipne6MrgDr0Tm.jpg"}, {"cast_id": 7, "character": "Barbara Bissle", "credit_id": "52fe4637c3a36847f80f2f97", "gender": 1, "id": 88975, "name": "Mala Powers", "order": 3, "profile_path": "/tAoeHopIcwGZ7zYgztpqSbJ4Zi4.jpg"}, {"cast_id": 8, "character": "Professor Brent", "credit_id": "56b910f2c3a3681e6d00007d", "gender": 2, "id": 12022, "name": "Sidney Blackmer", "order": 4, "profile_path": "/4chnpfUW4ZcfBkXHLNvvrkYH7ZZ.jpg"}, {"cast_id": 9, "character": "Aunt Renie", "credit_id": "56b910fec3a3681e60000059", "gender": 1, "id": 12969, "name": "Mildred Natwick", "order": 5, "profile_path": "/p5raOD4OXBg3yreGZJQ4IE6r4Lc.jpg"}, {"cast_id": 10, "character": "Mrs. Brent", "credit_id": "56b9110b925141069f00009a", "gender": 1, "id": 3242, "name": "Fay Wray", "order": 6, "profile_path": "/iQpiFC0ZwBZPIB0lFddcrmZjIzU.jpg"}, {"cast_id": 11, "character": "Alfred Bissle", "credit_id": "56b9111892514106b400007c", "gender": 2, "id": 2644, "name": "Philip Ober", "order": 7, "profile_path": "/ney8KQ445hFtsb0fu3apsleKWmh.jpg"}, {"cast_id": 19, "character": "Osia", "credit_id": "594b98f0925141310800eecb", "gender": 1, "id": 89101, "name": "Louise Beavers", "order": 8, "profile_path": "/m0b2RGOMTa8yUhremaQMlpc72uc.jpg"}, {"cast_id": 20, "character": "Tina", "credit_id": "5ab918739251414d3a001931", "gender": 1, "id": 1048024, "name": "April Kent", "order": 9, "profile_path": "/5kBeG9BrRjOlSYKakTMGgFZuDl3.jpg"}], "crew": [{"credit_id": "58bbbe23c3a3686630030e19", "department": "Editing", "gender": 2, "id": 2920, "job": "Editor", "name": "Ted J. Kent", "profile_path": null}, {"credit_id": "58bbbe32c3a36851cd017d98", "department": "Art", "gender": 2, "id": 12347, "job": "Art Direction", "name": "Richard H. Riedel", "profile_path": null}, {"credit_id": "58bbbe3ac3a36851cd017da8", "department": "Art", "gender": 2, "id": 12348, "job": "Set Decoration", "name": "Russell A. Gausman", "profile_path": null}, {"credit_id": "58bbbe15c3a368666b02fed4", "department": "Sound", "gender": 2, "id": 30104, "job": "Original Music Composer", "name": "Frank Skinner", "profile_path": "/iXSLNqs6Rf9ynJ9TzNSpabNO2iW.jpg"}, {"credit_id": "52fe4637c3a36847f80f2f7b", "department": "Directing", "gender": 2, "id": 15705, "job": "Director", "name": "Joseph Pevney", "profile_path": "/shNmqaOUHun2YYju9qyI010uFmB.jpg"}, {"credit_id": "58bbbe1c925141609e0337fc", "department": "Camera", "gender": 2, "id": 40246, "job": "Director of Photography", "name": "Arthur E. Arling", "profile_path": null}, {"credit_id": "58bbbdfdc3a3686630030def", "department": "Production", "gender": 0, "id": 41408, "job": "Producer", "name": "Ross Hunter", "profile_path": "/6bceImSg6xhZMdimjBIm6rdMjXx.jpg"}, {"credit_id": "52fe4637c3a36847f80f2f81", "department": "Writing", "gender": 2, "id": 70495, "job": "Writer", "name": "Oscar Brodney", "profile_path": null}, {"credit_id": "52fe4637c3a36847f80f2f87", "department": "Writing", "gender": 0, "id": 226654, "job": "Novel", "name": "Cid Ricketts Sumner", "profile_path": null}, {"credit_id": "58bbbe29925141606b03681c", "department": "Art", "gender": 2, "id": 1029512, "job": "Art Direction", "name": "Bill Newberry", "profile_path": null}]}}