{"adult": false, "backdrop_path": "/7cUIYSyrtT2Pd9rPMw5Un7IEH5X.jpg", "belongs_to_collection": null, "budget": 0, "genres": [{"id": 12, "name": "Adventure"}, {"id": 10751, "name": "Family"}, {"id": 10402, "name": "Music"}], "homepage": "", "id": 43268, "imdb_id": "tt0028118", "original_language": "en", "original_title": "Poor Little Rich Girl", "overview": "Cossetted and bored, Barbara Barry is finally sent off to school by her busy if doting widowed soap manufacturer father. When her nurse is injured en route, Barbara finds herself alone in town, ending up as part of radio song-and-dance act Dolan and Dolan sponsored by a rival soap company.", "popularity": 4.003, "poster_path": "/ne3Yy2vzAMf2fF1PVCDKgFXxeT.jpg", "production_companies": [{"id": 25, "logo_path": "/qZCc1lty5FzX30aOCVRBLzaVmcp.png", "name": "20th Century Fox", "origin_country": "US"}], "production_countries": [{"iso_3166_1": "US", "name": "United States of America"}], "release_date": "1936-07-24", "revenue": 0, "runtime": 79, "spoken_languages": [{"iso_639_1": "en", "name": "English"}], "status": "Released", "tagline": "", "title": "Poor Little Rich Girl", "video": false, "vote_average": 7.1, "vote_count": 9, "keywords": {"keywords": [{"id": 4344, "name": "musical"}, {"id": 4480, "name": "business man"}, {"id": 33630, "name": "doll"}]}, "similar": {"page": 1, "results": [{"id": 872, "video": false, "vote_count": 1616, "vote_average": 8.2, "title": "Singin' in the Rain", "release_date": "1952-04-10", "original_language": "en", "original_title": "Singin' in the Rain", "genre_ids": [35, 10402, 10749], "backdrop_path": "/amW1YWQvcP8slDyDp1R652aVQZ7.jpg", "adult": false, "overview": "In 1927 Hollywood, a silent film production company and cast make a difficult transition to sound.", "poster_path": "/s39odBPtyutGBnEfBIpdm0fpRwv.jpg", "popularity": 20.625}, {"id": 504608, "video": false, "vote_count": 1661, "vote_average": 7.4, "title": "Rocketman", "release_date": "2019-05-22", "original_language": "en", "original_title": "Rocketman", "genre_ids": [18, 10402], "backdrop_path": "/sZZJ42GrWKxSOfcrpI2TSFQa0AQ.jpg", "adult": false, "overview": "The story of Elton John's life, from his years as a prodigy at the Royal Academy of Music through his influential and enduring musical partnership with Bernie Taupin.", "poster_path": "/f4FF18ia7yTvHf2izNrHqBmgH8U.jpg", "popularity": 26.576}, {"id": 18126, "video": false, "vote_count": 1217, "vote_average": 6.4, "title": "Hannah Montana: The Movie", "release_date": "2009-04-10", "original_language": "en", "original_title": "Hannah Montana: The Movie", "genre_ids": [35, 18, 10402, 10749, 10751], "backdrop_path": "/ezx3NkXNqf2KnJCP6Nfj1bfCFut.jpg", "adult": false, "overview": "As Hannah Montana's popularity begins to take over her life, Miley Stewart, on the urging from her father takes a trip to her hometown of Crowley Corners, Tennessee to get some perspective on what matters in life the most.", "poster_path": "/8pwbnmvshHj2yYPYlyJ8K8Yzecy.jpg", "popularity": 14.838}, {"id": 2005, "video": false, "vote_count": 1805, "vote_average": 6.7, "title": "Sister Act", "release_date": "1992-05-28", "original_language": "en", "original_title": "Sister Act", "genre_ids": [35, 10402], "backdrop_path": "/oaLqlJxt8TJSjsdfMpSkLexZ4l5.jpg", "adult": false, "overview": "A Reno singer witnesses a mob murder and the cops stash her in a nunnery to protect her from the mob's hitmen. The mother superior does not trust her, and takes steps to limit her influence on the other nuns. Eventually the singer rescues the failing choir and begins helping with community projects, which gets her an interview on TV\u2014and identification by the mob.", "poster_path": "/7wQxLtybiUbtC6tsJh9htFEmqq3.jpg", "popularity": 13.161}, {"id": 10537, "video": false, "vote_count": 603, "vote_average": 6.9, "title": "The Doors", "release_date": "1991-03-01", "original_language": "en", "original_title": "The Doors", "genre_ids": [18, 10402], "backdrop_path": "/1rv5sW6Qs2YK2iOzIgwH3SJPIl1.jpg", "adult": false, "overview": "The story of the famous and influential 1960s rock band and its lead singer and composer, Jim Morrison.", "poster_path": "/9CkFrWAkg23YynYd2uJLyWznMZZ.jpg", "popularity": 15.486}, {"id": 224141, "video": false, "vote_count": 3143, "vote_average": 5.7, "title": "Into the Woods", "release_date": "2014-12-24", "original_language": "en", "original_title": "Into the Woods", "genre_ids": [35, 14], "backdrop_path": "/lzJzB0QfkjpGCm9qUC4XpEIB6pm.jpg", "adult": false, "overview": "In a woods filled with magic and fairy tale characters, a baker and his wife set out to end the curse put on them by their neighbor, a spiteful witch.", "poster_path": "/5h91odPFNlBuJbRBj5N4MEBfXDE.jpg", "popularity": 28.397}, {"id": 13004, "video": false, "vote_count": 436, "vote_average": 7.1, "title": "Barbie and the Diamond Castle", "release_date": "2008-01-01", "original_language": "en", "original_title": "Barbie and the Diamond Castle", "genre_ids": [16, 10751], "backdrop_path": "/yjImlENdW0SAT5yUvxCbbFdY0Sn.jpg", "adult": false, "overview": "Liana and Alexa (Barbie and Teresa) are best friends who share everything, including their love of singing. One day while walking through the forest home from the village, the girls meet an old beggar who gives them a magical mirror. As they clean the mirror and sing, a musical apprentice muse named Melody appears in the mirror's surface, and tells the girls about the secret of the Diamond Castle.", "poster_path": "/dvjFM3GgYm3gDZ6Ulw0JurDYs4r.jpg", "popularity": 31.703}, {"id": 10545, "video": false, "vote_count": 3017, "vote_average": 7.0, "title": "The Hunchback of Notre Dame", "release_date": "1996-06-21", "original_language": "en", "original_title": "The Hunchback of Notre Dame", "genre_ids": [16, 18, 10751], "backdrop_path": "/oslaee3VX9kJAjVezbjZKlEJDzn.jpg", "adult": false, "overview": "When Quasimodo defies the evil Frollo and ventures out to the Festival of Fools, the cruel crowd jeers him. Rescued by fellow outcast the gypsy Esmeralda, Quasi soon finds himself battling to save the people and the city he loves.", "poster_path": "/r7V92gY3AMO6li17MmGTixAnFcv.jpg", "popularity": 34.935}, {"adult": false, "backdrop_path": "/ppDnBvf0f7vCZHRLtDjazpYHdTF.jpg", "genre_ids": [35, 10402, 10749], "id": 13368, "original_language": "en", "original_title": "White Christmas", "overview": "Two talented song-and-dance men team up after the war to become one of the hottest acts in show business. In time they befriend and become romantically involved with the beautiful Haynes sisters who comprise a sister act.", "poster_path": "/A5kBQsHKbIptxJyELEpHQJROCRj.jpg", "release_date": "1954-10-14", "title": "White Christmas", "video": false, "vote_average": 7.4, "vote_count": 250, "popularity": 16.622}, {"id": 332562, "video": false, "vote_count": 7176, "vote_average": 7.5, "title": "A Star Is Born", "release_date": "2018-10-03", "original_language": "en", "original_title": "A Star Is Born", "genre_ids": [18, 10402, 10749], "backdrop_path": "/mnDvPokXpvsdPcWSjNRPhiiLOKu.jpg", "adult": false, "overview": "Seasoned musician Jackson Maine discovers \u2014 and falls in love with \u2014 struggling artist Ally. She has just about given up on her dream to make it big as a singer \u2014 until Jack coaxes her into the spotlight. But even as Ally's career takes off, the personal side of their relationship is breaking down, as Jack fights an ongoing battle with his own internal demons.", "poster_path": "/wrFpXMNBRj2PBiN4Z5kix51XaIZ.jpg", "popularity": 32.943}, {"id": 252, "video": false, "vote_count": 1835, "vote_average": 7.5, "title": "Willy Wonka & the Chocolate Factory", "release_date": "1971-06-29", "original_language": "en", "original_title": "Willy Wonka & the Chocolate Factory", "genre_ids": [35, 14, 10751], "backdrop_path": "/nyqiCFF3pjcdwG2KmOwvM6CCLKA.jpg", "adult": false, "overview": "Eccentric candy man Willy Wonka prompts a worldwide frenzy when he announces that golden tickets hidden inside five of his delicious candy bars will admit their lucky holders into his top-secret confectionary. But does Wonka have an agenda hidden amid a world of Oompa Loompas and chocolate rivers?", "poster_path": "/b94qXd1FcIwgzv0NYMUe2bjrzJR.jpg", "popularity": 18.34}, {"id": 313369, "video": false, "vote_count": 11057, "vote_average": 7.9, "title": "La La Land", "release_date": "2016-11-29", "original_language": "en", "original_title": "La La Land", "genre_ids": [35, 18, 10402, 10749], "backdrop_path": "/fp6X6yhgcxzxCpmM0EVC6V9B8XB.jpg", "adult": false, "overview": "Mia, an aspiring actress, serves lattes to movie stars in between auditions and Sebastian, a jazz musician, scrapes by playing cocktail party gigs in dingy bars, but as success mounts they are faced with decisions that begin to fray the fragile fabric of their love affair, and the dreams they worked so hard to maintain in each other threaten to rip them apart.", "poster_path": "/ylXCdC106IKiarftHkcacasaAcb.jpg", "popularity": 30.693}, {"id": 606117, "video": false, "vote_count": 256, "vote_average": 6.8, "title": "A Cinderella Story: Christmas Wish", "release_date": "2019-10-15", "original_language": "en", "original_title": "A Cinderella Story: Christmas Wish", "genre_ids": [35, 14, 10402, 10749], "backdrop_path": "/h3kzgUaUOamInX7nsALsFmlw4qX.jpg", "adult": false, "overview": "Kat is an aspiring singer-songwriter who dreams of making it big. However, her dreams are stalled by her reality: a conniving and cruel stepfamily  and a demoralizing job working as a singing elf at billionaire Terrence Wintergarden\u2019s Santa Land.", "poster_path": "/ozBX0u5caaJFli9AssqJmARb5R.jpg", "popularity": 25.37}, {"id": 15969, "video": false, "vote_count": 1085, "vote_average": 5.8, "title": "The Return of Jafar", "release_date": "1994-12-15", "original_language": "en", "original_title": "The Return of Jafar", "genre_ids": [12, 16, 10749, 10751], "backdrop_path": "/sLF3zgqfFC6Vev84h9aK4U88M2C.jpg", "adult": false, "overview": "The evil Jafar escapes from the magic lamp as an all-powerful genie, ready to plot his revenge against Aladdin. From battling elusive villains atop winged horses, to dodging flames inside an exploding lava pit, it's up to Aladdin - with Princess Jasmine and the outrageously funny Genie by his side - to save the kingdom once and for all.", "poster_path": "/sC4wDVBMPMxmn5JJqPalMOhQ35U.jpg", "popularity": 24.656}, {"id": 10882, "video": false, "vote_count": 3217, "vote_average": 6.9, "title": "Sleeping Beauty", "release_date": "1959-01-28", "original_language": "en", "original_title": "Sleeping Beauty", "genre_ids": [16, 14, 10749, 10751], "backdrop_path": "/oHZIobyIG0YzWntyPCTSJDOk9qB.jpg", "adult": false, "overview": "A beautiful princess born in a faraway kingdom is destined by a terrible curse to prick her finger on the spindle of a spinning wheel and fall into a deep sleep that can only be awakened by true love's first kiss. Determined to protect her, her parents ask three fairies to raise her in hiding. But the evil Maleficent is just as determined to seal the princess's fate.", "poster_path": "/j4YBuAe8D1jDSiitpq69og9x3Yl.jpg", "popularity": 28.036}, {"id": 10693, "video": false, "vote_count": 3344, "vote_average": 7.2, "title": "Peter Pan", "release_date": "1953-02-05", "original_language": "en", "original_title": "Peter Pan", "genre_ids": [12, 16, 14, 10751], "backdrop_path": "/9bNHgmqQ4u4ujYpGwCiMB2BsCLC.jpg", "adult": false, "overview": "Leaving the safety of their nursery behind, Wendy, Michael and John follow Peter Pan to a magical world where childhood lasts forever. But while in Neverland, the kids must face Captain Hook and foil his attempts to get rid of Peter for good.", "poster_path": "/6UTZmeQcxbtW32MyR5nKIx7ID4f.jpg", "popularity": 24.922}, {"adult": false, "backdrop_path": "/6bnI08rrGXRkngRqJWCMXDZuJ1j.jpg", "genre_ids": [35, 10402], "id": 254470, "original_language": "en", "original_title": "Pitch Perfect 2", "overview": "The Bellas are back, and they are better than ever. After being humiliated in front of none other than the President of the United States of America, the Bellas are taken out of the Aca-Circuit. In order to clear their name, and regain their status, the Bellas take on a seemingly impossible task: winning an international competition no American team has ever won. In order to accomplish this monumental task, they need to strengthen the bonds of friendship and sisterhood and blow away the competition with their amazing aca-magic! With all new friends and old rivals tagging along for the trip, the Bellas can hopefully accomplish their dreams.", "poster_path": "/qSjruLiFB4uqRtz2xheQPxG8uaB.jpg", "release_date": "2015-05-07", "title": "Pitch Perfect 2", "video": false, "vote_average": 6.8, "vote_count": 3898, "popularity": 27.354}, {"adult": false, "backdrop_path": "/5x0VEeFCnWzRBwU23KycKQRqEhN.jpg", "genre_ids": [10402, 35], "id": 15157, "original_language": "en", "original_title": "Another Cinderella Story", "overview": "A guy who danced with what could be the girl of his dreams at a costume ball only has one hint at her identity: the Zune she left behind as she rushed home in order to make her curfew. And with a once-in-a-lifetime opportunity in front of him, he sets out to find his masked beauty.", "poster_path": "/fLdCKCfHT8A6bnWybBsQFjC4fCo.jpg", "release_date": "2008-09-16", "title": "Another Cinderella Story", "video": false, "vote_average": 6.6, "vote_count": 1120, "popularity": 22.24}, {"adult": false, "backdrop_path": "/3eAudH9hkkr451VoAZPLEQVy5wX.jpg", "genre_ids": [35, 18, 10402, 10749], "id": 6282, "original_language": "en", "original_title": "Coyote Ugly", "overview": "Graced with a velvet voice, 21-year-old Violet Sanford heads to New York to pursue her dream of becoming a songwriter only to find her aspirations sidelined by the accolades and notoriety she receives at her \"day\" job as a barmaid at Coyote Ugly. The \"Coyotes\" as they are affectionately called tantalize customers and the media alike with their outrageous antics, making Coyote Ugly the watering hole for guys on the prowl.", "poster_path": "/p3nIrS9rkdVmMmgKAWtGsmAnhGV.jpg", "release_date": "2000-07-30", "title": "Coyote Ugly", "video": false, "vote_average": 6.1, "vote_count": 1166, "popularity": 20.571}, {"adult": false, "backdrop_path": "/3mhNnNmfCGrjyVEZhjWRVcjMOSi.jpg", "genre_ids": [14, 16, 10749, 10751], "id": 54113, "original_language": "en", "original_title": "The Swan Princess: Escape from Castle Mountain", "overview": "The first wedding anniversary of Princess Odette and Prince Derek is distracted by field fires set by Knuckles. His master Clavius, wants to conquer the world, and he needs to capture a giant orb to do that. Clavius kidnaps Queen Uberta and Odette with Derek have to save her.", "poster_path": "/oTEgvTpAIugS7OH6oIoVZkmV3C3.jpg", "release_date": "1997-01-01", "title": "The Swan Princess: Escape from Castle Mountain", "video": false, "vote_average": 6.0, "vote_count": 198, "popularity": 15.715}], "total_pages": 161, "total_results": 3220}, "recommendations": {"page": 1, "results": [{"id": 29887, "video": false, "vote_count": 14, "vote_average": 6.5, "title": "Bright Eyes", "release_date": "1934-12-28", "original_language": "en", "original_title": "Bright Eyes", "genre_ids": [18, 10402, 10751], "backdrop_path": "/aYhALsIVWyhO6YBYjazwtubMEiU.jpg", "adult": false, "overview": "An orphaned girl is taken in by a snobbish family at the insistence of their rich, crotchety uncle, even as her devoted aviator godfather fights for custody.", "poster_path": "/oRzV8HVCJ5EZbnOf5Yn5Ty3aUBD.jpg", "popularity": 4.677}, {"id": 57840, "video": false, "vote_count": 14, "vote_average": 6.8, "title": "Captain January", "release_date": "1936-04-24", "original_language": "en", "original_title": "Captain January", "genre_ids": [35, 10751], "backdrop_path": "/xMoh2McVEGxTakQmUpLlfJcrOnI.jpg", "adult": false, "overview": "Shirley lives with a lighthouse keeper (Kibbee) who rescued her when her parents drowned. A truant officer (Haden) decides she should go to boarding school, but she's rescued by relatives. Buddy Ebsen dances \"At The Codfish Ball\" with Shirley.", "poster_path": "/py2ayH5zrjpItoayrFLfR87ZXZ6.jpg", "popularity": 3.597}, {"id": 43869, "video": false, "vote_count": 9, "vote_average": 7.0, "title": "Wee Willie Winkie", "release_date": "1937-07-30", "original_language": "en", "original_title": "Wee Willie Winkie", "genre_ids": [12, 10751], "backdrop_path": "/e3ff5neNptNfHURJrqhR0IkPpTW.jpg", "adult": false, "overview": "In 1897, little Priscilla Williams, along with her widowed mother, goes to live with her army colonel paternal grandfather on the British outpost he commands in northern India.", "poster_path": "/wDHVnZukZ1jGZzdXIzMEDXItWWM.jpg", "popularity": 4.159}, {"adult": false, "backdrop_path": "/8q1Ry3fOc9LZOYIDFLxgHIEtnTe.jpg", "genre_ids": [35], "id": 50549, "original_language": "en", "original_title": "Belles on their Toes", "overview": "The \"Cheaper by the Dozen\" crew is back, sans Clifton Webb. Lillian is struggling to make ends meet without her husband's income, while Anne, Martha, and even Ernestine find romance.", "poster_path": "/aOFxZd3MRJqIzVUYNgRwogIm3Qv.jpg", "release_date": "1952-05-01", "title": "Belles on their Toes", "video": false, "vote_average": 7.1, "vote_count": 6, "popularity": 2.423}, {"adult": false, "backdrop_path": "/kfwYjcbQIzOnBbIVjevFWor15Mk.jpg", "genre_ids": [18, 10751], "id": 29879, "original_language": "en", "original_title": "The Little Colonel", "overview": "After Southern belle Elizabeth Lloyd runs off to marry Yankee Jack Sherman, her father, a former Confederate colonel during the Civil War, vows to never speak to her again. Several years pass and Elizabeth returns to her home town with her husband and young daughter. The little girl charms her crusty grandfather and tries to patch things up between him and her mother.", "poster_path": "/gUv4dkPW19fQc6fjCJzhgRJKET8.jpg", "release_date": "1935-02-22", "title": "The Little Colonel", "video": false, "vote_average": 6.5, "vote_count": 13, "popularity": 4.467}, {"adult": false, "backdrop_path": "/c94Z8YMLTOj1pS6QT9tYhReRGm8.jpg", "genre_ids": [18, 10751, 10402], "id": 38716, "original_language": "en", "original_title": "Rebecca of Sunnybrook Farm", "overview": "Rebecca's Uncle Harry leaves her with Aunt Miranda who forbids her to associate with show people. But neighbor Anthony Kent is a talent scout who secretly set it up for her to broadcast.", "poster_path": "/ok3E5jL0wlXRPxFhMZuNauWLOoj.jpg", "release_date": "1938-03-18", "title": "Rebecca of Sunnybrook Farm", "video": false, "vote_average": 6.6, "vote_count": 13, "popularity": 4.463}, {"adult": false, "backdrop_path": "/6GY3CjFqWE8wl6BxrwmHGrvXCm2.jpg", "genre_ids": [10402, 12, 10751], "id": 27597, "original_language": "en", "original_title": "Stowaway", "overview": "Chin-Ching gets lost in Shanghai and is befriended by American playboy Tommy Randall. She falls asleep in his car which winds up on a ship headed for America. Susan Parker, also on the ship, marries Randall to give Chin-Ching a family.", "poster_path": "/zmulMCPRFgvr2C8xIZug2MxFALK.jpg", "release_date": "1936-12-25", "title": "Stowaway", "video": false, "vote_average": 6.6, "vote_count": 17, "popularity": 3.561}, {"adult": false, "backdrop_path": "/vKF5Y5RhqENQxu4GOSj56NheBqe.jpg", "genre_ids": [80, 27, 878, 37], "id": 3149, "original_language": "en", "original_title": "Jesse James Meets Frankenstein's Daughter", "overview": "Dr. Frankenstein's Granddaughter Maria, and her brother assistant Rudolph, moved to the old west because the lightning storms there are more frequent and intense, which allows them to work on the experiments of their grandfather. But the experiments are failing and Rudolph's been secretly killing the corpses afterwards. Meanwhile, the Lopez family leaves the town because of the evil going on there", "poster_path": "/akJPtcDfRhX8yqUkn8bDxVjqeE6.jpg", "release_date": "1966-04-09", "title": "Jesse James Meets Frankenstein's Daughter", "video": false, "vote_average": 3.8, "vote_count": 11, "popularity": 3.211}], "total_pages": 1, "total_results": 8}, "credits": {"cast": [{"cast_id": 1, "character": "Barbara Barry", "credit_id": "52fe463ac3a36847f80f3745", "gender": 1, "id": 95624, "name": "Shirley Temple", "order": 0, "profile_path": "/btP9pnJQT1qZGG9hDBOIIrdamCI.jpg"}, {"cast_id": 18, "character": "Jerry Dolan", "credit_id": "543924480e0a266e32001d90", "gender": 1, "id": 94928, "name": "Alice Faye", "order": 1, "profile_path": "/x4ld83LmBnJMpSyQO6ef2u5PGKP.jpg"}, {"cast_id": 3, "character": "Margaret Allen", "credit_id": "52fe463ac3a36847f80f374d", "gender": 1, "id": 8535, "name": "Gloria Stuart", "order": 2, "profile_path": "/9aG7UUX3PWIGGf1KRY5TsBSoNz9.jpg"}, {"cast_id": 2, "character": "Jimmy Dolan", "credit_id": "52fe463ac3a36847f80f3749", "gender": 2, "id": 9070, "name": "Jack Haley", "order": 3, "profile_path": "/w2jA19ttf0JVfue9JWO8w5omPtz.jpg"}, {"cast_id": 19, "character": "Richard Barry", "credit_id": "5439246dc3a3680f9600197c", "gender": 2, "id": 34129, "name": "Michael Whalen", "order": 4, "profile_path": "/qwv0BeFucURokU0cLslC1K686Ck.jpg"}, {"cast_id": 20, "character": "Collins", "credit_id": "54392483c3a3680f6c001991", "gender": 1, "id": 85956, "name": "Sara Haden", "order": 5, "profile_path": "/wufYXd5Cy2EESw2VRa00tmlzH8s.jpg"}, {"cast_id": 21, "character": "Woodward", "credit_id": "543924a1c3a36811e80019be", "gender": 1, "id": 8515, "name": "Jane Darwell", "order": 6, "profile_path": "/geGrMcqxcFtMKKJO36OFpVwZFFW.jpg"}, {"cast_id": 22, "character": "Simon Peck", "credit_id": "543924c00e0a266fd9001ce1", "gender": 2, "id": 150082, "name": "Claude Gillingwater", "order": 7, "profile_path": "/2EzztrmZJaCFiau9n9FDdkMJVUA.jpg"}, {"cast_id": 23, "character": "George Hathaway", "credit_id": "543924d9c3a36811e80019c8", "gender": 2, "id": 120816, "name": "Paul Stanton", "order": 8, "profile_path": "/hx1q7CnPwVVoCeXb9f5XxF9ybEN.jpg"}, {"cast_id": 24, "character": "Tony", "credit_id": "543924f30e0a26084a000bb2", "gender": 2, "id": 95725, "name": "Henry Armetta", "order": 9, "profile_path": "/fg2bpiZypUQeKmPNvxWYxPDw6ba.jpg"}, {"cast_id": 25, "character": "Radio Baritone Soloist (uncredited)", "credit_id": "5439253cc3a368101c001974", "gender": 2, "id": 94803, "name": "Tony Martin", "order": 10, "profile_path": "/vAmFNffX9bkhQtSNKyaTWwAdmZW.jpg"}, {"cast_id": 27, "character": "Stebbins", "credit_id": "5c0f2fb392514147b00ca975", "gender": 2, "id": 544585, "name": "Charles Coleman", "order": 11, "profile_path": "/an91KUlUCmPPrutfN95cGP7gyoK.jpg"}, {"cast_id": 28, "character": "Percival Gooch", "credit_id": "5c0f2fc0c3a36825230cbded", "gender": 2, "id": 29263, "name": "Arthur Hoyt", "order": 12, "profile_path": "/zeXxwPwVOmLIIyO6qrsdYCVylzk.jpg"}, {"cast_id": 29, "character": "Flagin", "credit_id": "5c0f2fce92514147980c8fbd", "gender": 2, "id": 2009, "name": "John Wray", "order": 13, "profile_path": "/le1ogQo0KraHo2ihAOlSHGJ4Exi.jpg"}, {"cast_id": 30, "character": "Dan Ward", "credit_id": "5c0f2fdd92514147b00ca993", "gender": 2, "id": 80649, "name": "Tyler Brooke", "order": 14, "profile_path": "/wro7pwBOg7g3Jv7IaW8TlivrOZn.jpg"}, {"cast_id": 31, "character": "Tony's Wife", "credit_id": "5c0f2fea0e0a2638c70c9f14", "gender": 1, "id": 244801, "name": "Mathilde Comont", "order": 15, "profile_path": "/44qmnEOT2iMPu23oTzYpDZcfKfE.jpg"}], "crew": [{"credit_id": "5439232bc3a3680f9600195b", "department": "Writing", "gender": 0, "id": 3377, "job": "Screenplay", "name": "Harry Tugend", "profile_path": null}, {"credit_id": "543923420e0a266fdc001bf4", "department": "Production", "gender": 2, "id": 8502, "job": "Producer", "name": "Darryl F. Zanuck", "profile_path": "/zItDFAPN2NgwXAPCjtGNQwVJoej.jpg"}, {"credit_id": "543923bf0e0a266ebd001bf2", "department": "Art", "gender": 2, "id": 8508, "job": "Settings", "name": "Thomas Little", "profile_path": null}, {"credit_id": "543923d00e0a266fdc001c06", "department": "Costume & Make-Up", "gender": 1, "id": 8509, "job": "Costume Design", "name": "Gwen Wakeling", "profile_path": "/wxQbgiv7sv2ra6JUQUPkSByGZrG.jpg"}, {"credit_id": "543924120e0a266ec8001bed", "department": "Sound", "gender": 0, "id": 8511, "job": "Sound Engineer", "name": "Roger Heman Sr.", "profile_path": null}, {"credit_id": "5512ceb5925141044500165a", "department": "Camera", "gender": 2, "id": 8620, "job": "Director of Photography", "name": "John F. Seitz", "profile_path": "/6hvivkKP5H5NpPcAViAfUMFgqsu.jpg"}, {"credit_id": "54392307c3a3680f96001958", "department": "Writing", "gender": 2, "id": 30285, "job": "Screenplay", "name": "Sam Hellman", "profile_path": null}, {"credit_id": "543923920e0a266e32001d72", "department": "Editing", "gender": 2, "id": 30494, "job": "Editor", "name": "Jack Murray", "profile_path": null}, {"credit_id": "52fe463ac3a36847f80f3753", "department": "Directing", "gender": 2, "id": 129422, "job": "Director", "name": "Irving Cummings", "profile_path": "/dJUdPjAvwk4AHpMsTPVkZFwXTNa.jpg"}, {"credit_id": "543923180e0a265f77000c3a", "department": "Writing", "gender": 1, "id": 227027, "job": "Screenplay", "name": "Gladys Lehman", "profile_path": null}, {"credit_id": "5439235c0e0a266ebd001be8", "department": "Production", "gender": 2, "id": 555890, "job": "Producer", "name": "Raymond Griffith", "profile_path": "/bgLKQFjdhBd3LYxIzf5JhRTZRKu.jpg"}, {"credit_id": "543923a2c3a3680ea8001909", "department": "Art", "gender": 2, "id": 1096786, "job": "Art Direction", "name": "William S. Darling", "profile_path": null}, {"credit_id": "543923e80e0a26084a000b8f", "department": "Directing", "gender": 0, "id": 1372222, "job": "Assistant Director", "name": "Booth McCracken", "profile_path": null}, {"credit_id": "543923fcc3a3680f6a00194a", "department": "Sound", "gender": 0, "id": 1372914, "job": "Sound Engineer", "name": "S.C. Chapman", "profile_path": null}]}}