{"adult": false, "backdrop_path": "/gv77LOGGHdr6DwfPVDpj5TiHwGR.jpg", "belongs_to_collection": null, "budget": 0, "genres": [{"id": 18, "name": "Drama"}, {"id": 10402, "name": "Music"}], "homepage": null, "id": 43458, "imdb_id": "tt0040976", "original_language": "en", "original_title": "Words and Music", "overview": "Encomium to Larry Hart (1895-1943), seen through the fictive eyes of his song-writing partner, Richard Rodgers (1902-1979): from their first meeting, through lean years and their breakthrough, to their successes on Broadway, London, and Hollywood. We see the fruits of Hart and Rodgers' collaboration - elaborately staged numbers from their plays, characters' visits to night clubs, and impromptu performances at parties. We also see Larry's scattered approach to life, his failed love with Peggy McNeil, his unhappiness, and Richard's successful wooing of Dorothy Feiner.", "popularity": 4.283, "poster_path": "/65AJ2VJegPIZDwSrGZLASnFlNlV.jpg", "production_companies": [{"id": 21, "logo_path": "/mjofSXiHpG5t6KYmU4l4FrUhT7m.png", "name": "Metro-Goldwyn-Mayer", "origin_country": "US"}], "production_countries": [{"iso_3166_1": "US", "name": "United States of America"}], "release_date": "1948-12-31", "revenue": 0, "runtime": 120, "spoken_languages": [{"iso_639_1": "en", "name": "English"}], "status": "Released", "tagline": "The BIGGEST musical!", "title": "Words and Music", "video": false, "vote_average": 6.6, "vote_count": 8, "keywords": {"keywords": [{"id": 4344, "name": "musical"}, {"id": 5565, "name": "biography"}, {"id": 6281, "name": "partnership"}, {"id": 8508, "name": "party"}, {"id": 9673, "name": "love"}, {"id": 207417, "name": "richard rodgers"}]}, "similar": {"page": 1, "results": [{"id": 504608, "video": false, "vote_count": 1661, "vote_average": 7.4, "title": "Rocketman", "release_date": "2019-05-22", "original_language": "en", "original_title": "Rocketman", "genre_ids": [18, 10402], "backdrop_path": "/sZZJ42GrWKxSOfcrpI2TSFQa0AQ.jpg", "adult": false, "overview": "The story of Elton John's life, from his years as a prodigy at the Royal Academy of Music through his influential and enduring musical partnership with Bernie Taupin.", "poster_path": "/f4FF18ia7yTvHf2izNrHqBmgH8U.jpg", "popularity": 26.576}, {"id": 424694, "video": false, "vote_count": 9721, "vote_average": 8.0, "title": "Bohemian Rhapsody", "release_date": "2018-10-24", "original_language": "en", "original_title": "Bohemian Rhapsody", "genre_ids": [18, 10402], "backdrop_path": "/93xA62uLd5CwMOAs37eQ7vPc1iV.jpg", "adult": false, "overview": "Singer Freddie Mercury, guitarist Brian May, drummer Roger Taylor and bass guitarist John Deacon take the music world by storm when they form the rock 'n' roll band Queen in 1970. Hit songs become instant classics. When Mercury's increasingly wild lifestyle starts to spiral out of control, Queen soon faces its greatest challenge yet \u2013 finding a way to keep the band together amid the success and excess.", "poster_path": "/lHu1wtNaczFPGFDTrjCSzeLPTKN.jpg", "popularity": 40.186}, {"id": 316029, "video": false, "vote_count": 5849, "vote_average": 8.0, "title": "The Greatest Showman", "release_date": "2017-12-20", "original_language": "en", "original_title": "The Greatest Showman", "genre_ids": [18], "backdrop_path": "/zpq404Sk7qQ7N4x3xOeNgp74GtU.jpg", "adult": false, "overview": "The story of American showman P.T. Barnum, founder of the circus that became the famous traveling Ringling Bros. and Barnum & Bailey Circus.", "poster_path": "/b9CeobiihCx1uG1tpw8hXmpi7nm.jpg", "popularity": 33.03}, {"adult": false, "backdrop_path": "/6QNqvsrOIFuz67Nq97ItD2byVa5.jpg", "genre_ids": [18], "id": 12271, "original_language": "en", "original_title": "Factory Girl", "overview": "In the mid-1960s, wealthy debutant Edie Sedgwick meets artist Andy Warhol. She joins Warhol's famous Factory and becomes his muse. Although she seems to have it all, Edie cannot have the love she craves from Andy, and she has an affair with a charismatic musician, who pushes her to seek independence from the artist and the milieu.", "poster_path": "/inaRwOEDPzYRDnqLi0lQZLQPLCL.jpg", "release_date": "2006-12-29", "title": "Factory Girl", "video": false, "vote_average": 6.1, "vote_count": 144, "popularity": 7.549}, {"id": 10537, "video": false, "vote_count": 603, "vote_average": 6.9, "title": "The Doors", "release_date": "1991-03-01", "original_language": "en", "original_title": "The Doors", "genre_ids": [18, 10402], "backdrop_path": "/1rv5sW6Qs2YK2iOzIgwH3SJPIl1.jpg", "adult": false, "overview": "The story of the famous and influential 1960s rock band and its lead singer and composer, Jim Morrison.", "poster_path": "/9CkFrWAkg23YynYd2uJLyWznMZZ.jpg", "popularity": 14.573}, {"adult": false, "backdrop_path": "/urnGzQvP8fwWWGkn1k809KqIjbm.jpg", "genre_ids": [18], "id": 87093, "original_language": "en", "original_title": "Big Eyes", "overview": "The story of the awakening of painter, Margaret Keane, her phenomenal success in the 1950s, and the subsequent legal difficulties she had with her husband, who claimed credit for her works in the 1960s.", "poster_path": "/z2tqzprHojhgEGYKQepjU28oQg6.jpg", "release_date": "2014-12-24", "title": "Big Eyes", "video": false, "vote_average": 7.0, "vote_count": 2348, "popularity": 12.107}, {"id": 5915, "video": false, "vote_count": 6283, "vote_average": 7.8, "title": "Into the Wild", "release_date": "2007-09-11", "original_language": "en", "original_title": "Into the Wild", "genre_ids": [12, 18], "backdrop_path": "/9yJehIjvR7ULOLxeDJoth4kDDNe.jpg", "adult": false, "overview": "After graduating from Emory University in 1992, top student and athlete Christopher McCandless abandons his possessions, gives his entire $24,000 savings account to charity, and hitchhikes to Alaska to live in the wilderness.", "poster_path": "/lHyYgaocXR6KcJLxVmxZDj115hH.jpg", "popularity": 13.103}, {"id": 457799, "video": false, "vote_count": 1569, "vote_average": 7.0, "title": "Extremely Wicked, Shockingly Evil and Vile", "release_date": "2019-05-02", "original_language": "en", "original_title": "Extremely Wicked, Shockingly Evil and Vile", "genre_ids": [80, 18, 53], "backdrop_path": "/uRoA67sM5vvCI4cplxhl67BTPly.jpg", "adult": false, "overview": "A chronicle of the crimes of Ted Bundy, from the perspective of his longtime girlfriend, Elizabeth Kloepfer, who refused to believe the truth about him for years.", "poster_path": "/zSuJ3r5zr5T26tTxyygHhgkUAIM.jpg", "popularity": 20.961}, {"id": 396371, "video": false, "vote_count": 1968, "vote_average": 7.1, "title": "Molly's Game", "release_date": "2017-12-25", "original_language": "en", "original_title": "Molly's Game", "genre_ids": [80, 18], "backdrop_path": "/rHcBZ6ZKCe4FalWHyvBGsyMsh0k.jpg", "adult": false, "overview": "Molly Bloom, a young skier and former Olympic hopeful becomes a successful entrepreneur (and a target of an FBI investigation) when she establishes a high-stakes, international poker game.", "poster_path": "/in43bQ7k0ttr666IPP94IlbQbTR.jpg", "popularity": 18.118}, {"id": 313369, "video": false, "vote_count": 11057, "vote_average": 7.9, "title": "La La Land", "release_date": "2016-11-29", "original_language": "en", "original_title": "La La Land", "genre_ids": [35, 18, 10402, 10749], "backdrop_path": "/fp6X6yhgcxzxCpmM0EVC6V9B8XB.jpg", "adult": false, "overview": "Mia, an aspiring actress, serves lattes to movie stars in between auditions and Sebastian, a jazz musician, scrapes by playing cocktail party gigs in dingy bars, but as success mounts they are faced with decisions that begin to fray the fragile fabric of their love affair, and the dreams they worked so hard to maintain in each other threaten to rip them apart.", "poster_path": "/ylXCdC106IKiarftHkcacasaAcb.jpg", "popularity": 30.693}, {"id": 369972, "video": false, "vote_count": 2999, "vote_average": 7.1, "title": "First Man", "release_date": "2018-10-11", "original_language": "en", "original_title": "First Man", "genre_ids": [18, 36], "backdrop_path": "/jrudoaXcoLyHRPdolyOGemXgPEs.jpg", "adult": false, "overview": "A look at the life of the astronaut, Neil Armstrong, and the legendary space mission that led him to become the first man to walk on the Moon on July 20, 1969.", "poster_path": "/i91mfvFcPPlaegcbOyjGgiWfZzh.jpg", "popularity": 33.506}, {"adult": false, "backdrop_path": "/6bnI08rrGXRkngRqJWCMXDZuJ1j.jpg", "genre_ids": [35, 10402], "id": 254470, "original_language": "en", "original_title": "Pitch Perfect 2", "overview": "The Bellas are back, and they are better than ever. After being humiliated in front of none other than the President of the United States of America, the Bellas are taken out of the Aca-Circuit. In order to clear their name, and regain their status, the Bellas take on a seemingly impossible task: winning an international competition no American team has ever won. In order to accomplish this monumental task, they need to strengthen the bonds of friendship and sisterhood and blow away the competition with their amazing aca-magic! With all new friends and old rivals tagging along for the trip, the Bellas can hopefully accomplish their dreams.", "poster_path": "/qSjruLiFB4uqRtz2xheQPxG8uaB.jpg", "release_date": "2015-05-07", "title": "Pitch Perfect 2", "video": false, "vote_average": 6.8, "vote_count": 3898, "popularity": 27.354}, {"adult": false, "backdrop_path": "/jK3EAFk3GdOaQfUDCOiTujzMpwH.jpg", "genre_ids": [18], "id": 389015, "original_language": "en", "original_title": "I, Tonya", "overview": "Competitive ice skater Tonya Harding rises amongst the ranks at the U. S. Figure Skating Championships, but her future in the sport is thrown into doubt when her ex-husband intervenes.", "poster_path": "/6gNXwSHxaksR1PjVZRqNapmkgj3.jpg", "release_date": "2017-12-08", "title": "I, Tonya", "video": false, "vote_average": 7.5, "vote_count": 3327, "popularity": 19.513}, {"id": 318846, "video": false, "vote_count": 5226, "vote_average": 7.3, "title": "The Big Short", "release_date": "2015-12-11", "original_language": "en", "original_title": "The Big Short", "genre_ids": [35, 18], "backdrop_path": "/6UyMLbe0lAPqfZLtVllAwBNFIis.jpg", "adult": false, "overview": "The men who made millions from a global economic meltdown.", "poster_path": "/p11Ftd4VposrAzthkhF53ifYZRl.jpg", "popularity": 21.111}, {"id": 300671, "video": false, "vote_count": 1700, "vote_average": 7.1, "title": "13 Hours: The Secret Soldiers of Benghazi", "release_date": "2016-01-13", "original_language": "en", "original_title": "13 Hours: The Secret Soldiers of Benghazi", "genre_ids": [28, 18, 36, 53, 10752], "backdrop_path": "/hY8myWhjSOUeeiPskhOfwwgaCwc.jpg", "adult": false, "overview": "An American Ambassador is killed during an attack at a U.S. compound in Libya as a security team struggles to make sense out of the chaos.", "poster_path": "/4gpW4MkRI0BB17GHOJzXq0WamDP.jpg", "popularity": 21.078}, {"id": 11887, "video": false, "vote_count": 2347, "vote_average": 6.5, "title": "High School Musical 3: Senior Year", "release_date": "2008-10-11", "original_language": "en", "original_title": "High School Musical 3: Senior Year", "genre_ids": [35, 18, 10402, 10749, 10751], "backdrop_path": "/daSGxGZL2nNjGZKkAF5ain3lmOx.jpg", "adult": false, "overview": "It's almost graduation day for high school seniors Troy, Gabriella, Sharpay, Chad, Ryan and Taylor \u2015 and the thought of heading off in separate directions after leaving East High has these Wildcats thinking they need to do something they'll remember forever. Together with the rest of the Wildcats, they stage a spring musical reflecting their hopes and fears about the future and their unforgettable experiences growing up together. But with graduation approaching and college plans in question, what will become of the dreams, romances, and friendships of East High's senior Wildcats?", "poster_path": "/ewZpH2QIfPQ0VIn9lPf7MHbLbl4.jpg", "popularity": 14.748}, {"id": 334543, "video": false, "vote_count": 4305, "vote_average": 8.1, "title": "Lion", "release_date": "2016-11-24", "original_language": "en", "original_title": "Lion", "genre_ids": [18], "backdrop_path": "/fgffluhvdOv79SkYaKrfRA0xkf4.jpg", "adult": false, "overview": "A five-year-old Indian boy gets lost on the streets of Calcutta, thousands of kilometers from home. He survives many challenges before being adopted by a couple in Australia; 25 years later, he sets out to find his lost family.", "poster_path": "/iBGRbLvg6kVc7wbS8wDdVHq6otm.jpg", "popularity": 36.395}, {"id": 824, "video": false, "vote_count": 2859, "vote_average": 7.6, "title": "Moulin Rouge!", "release_date": "2001-03-09", "original_language": "en", "original_title": "Moulin Rouge!", "genre_ids": [18, 10749], "backdrop_path": "/ibXhTCxthtwhMj84XJq8W4KtQDt.jpg", "adult": false, "overview": "A celebration of love and creative inspiration takes place in the infamous, gaudy and glamorous Parisian nightclub, at the cusp of the 20th century. A young poet, who is plunged into the heady world of Moulin Rouge, begins a passionate affair with the club's most notorious and beautiful star.", "poster_path": "/xhuQz2yKPlWvMvvnf2u9RVkAQx6.jpg", "popularity": 15.864}, {"id": 424, "video": false, "vote_count": 8988, "vote_average": 8.6, "title": "Schindler's List", "release_date": "1993-11-30", "original_language": "en", "original_title": "Schindler's List", "genre_ids": [18, 36, 10752], "backdrop_path": "/cTNYRUTXkBgPH3wP3kmPUB5U6dA.jpg", "adult": false, "overview": "The true story of how businessman Oskar Schindler saved over a thousand Jewish lives from the Nazis while they worked as slaves in his factory during World War II.", "poster_path": "/yPisjyLweCl1tbgwgtzBCNCBle.jpg", "popularity": 25.457}, {"adult": false, "backdrop_path": "/fJQ5kjLx4UdK05MC323Vlzwr6S8.jpg", "genre_ids": [35, 18, 36], "id": 140823, "original_language": "en", "original_title": "Saving Mr. Banks", "overview": "Author P.L. Travers travels from London to Hollywood as Walt Disney Pictures adapts her novel Mary Poppins for the big screen.", "poster_path": "/mvs3reS18RP6IhjLwwLeVtkoeg0.jpg", "release_date": "2013-11-16", "title": "Saving Mr. Banks", "video": false, "vote_average": 7.4, "vote_count": 2230, "popularity": 17.126}], "total_pages": 32, "total_results": 626}, "recommendations": {"page": 1, "results": [{"id": 43792, "video": false, "vote_count": 5, "vote_average": 6.0, "title": "Lady Be Good", "release_date": "1941-09-01", "original_language": "en", "original_title": "Lady Be Good", "genre_ids": [35, 10402, 10749], "backdrop_path": "/kwLB783qaeGRCGLdC5zMloRMPik.jpg", "adult": false, "overview": "Married songwriters almost split up while putting on a big show.", "poster_path": "/pSWzGKpEexa1Q6RsRozXfdshHaP.jpg", "popularity": 3.647}, {"id": 160660, "video": false, "vote_count": 10, "vote_average": 5.8, "title": "Confidential Agent", "release_date": "1945-11-02", "original_language": "en", "original_title": "Confidential Agent", "genre_ids": [18], "backdrop_path": "/utc94zgOGMGCnkPxuToGCXRo96Y.jpg", "adult": false, "overview": "During the Spanish Civil War, an agent on a mission to purchase coal meets with murder and counterspies.", "poster_path": "/18oKg5z3VZWU0eKUOw1S5wZAwD.jpg", "popularity": 5.3}, {"id": 120862, "video": false, "vote_count": 9, "vote_average": 6.8, "title": "The Animal Kingdom", "release_date": "1932-12-28", "original_language": "en", "original_title": "The Animal Kingdom", "genre_ids": [35, 18, 10749], "backdrop_path": "/uUZXZ7FYpQU4yftN0K6FV1m8dy6.jpg", "adult": false, "overview": "Tom Collier has had a great relationship with Daisy, but when he decides to marry, it is not Daisy whom he asks, it is Cecelia. After the marriage, Tom is bored with the social scene and the obligations of his life. He publishes books that will sell, not books that he wants to write. Even worse, he has his old friend working as a butler and Cecelia wants him fired. When Tom tries to get back together with Daisy to renew the feelings that he once felt, Daisy turns the tables on him and leaves to protect both of them.", "poster_path": "/p1XIDrvDATndZqFVPDQQAYh03Ft.jpg", "popularity": 3.085}, {"id": 77744, "video": false, "vote_count": 14, "vote_average": 7.1, "title": "Kitty Foyle", "release_date": "1940-12-27", "original_language": "en", "original_title": "Kitty Foyle", "genre_ids": [18, 10749], "backdrop_path": "/wikIuBblq4ppWBgsbZcl9C3ru9m.jpg", "adult": false, "overview": "Kitty Foyle, a hard-working white-collar girl from a Philadelphia, Pennsylvania low, middle-class family, meets and falls in love with young socialite Wyn Strafford but his family is against her.", "poster_path": "/bWkE3Z2dDYiqDefvfGSj4NYQ0Lu.jpg", "popularity": 2.776}], "total_pages": 1, "total_results": 4}, "credits": {"cast": [{"cast_id": 5, "character": "Richard Rodgers", "credit_id": "52fe4649c3a36847f80f68bb", "gender": 2, "id": 13995, "name": "Tom Drake", "order": 0, "profile_path": "/26fzpI2BNUg2zxjmHuFmkyTdU31.jpg"}, {"cast_id": 3, "character": "Lorenz Hart", "credit_id": "52fe4649c3a36847f80f68b3", "gender": 2, "id": 1937, "name": "Mickey Rooney", "order": 1, "profile_path": "/bgCm55k2eo2YV5bMn3D0O4NPwU.jpg"}, {"cast_id": 8, "character": "Dorothy Feiner", "credit_id": "5431d5b7c3a36831bb00417c", "gender": 1, "id": 7302, "name": "Janet Leigh", "order": 2, "profile_path": "/3FWYSCJUOuYVDPG9UoMjtqNMdyb.jpg"}, {"cast_id": 9, "character": "Herbert Fields", "credit_id": "5431d5c2c3a36831bb004182", "gender": 2, "id": 84233, "name": "Marshall Thompson", "order": 3, "profile_path": "/yfAVbAwVQdJxxqt7ee99wbVezzH.jpg"}, {"cast_id": 10, "character": "Peggy Lorgan McNeil", "credit_id": "5431d5ce0e0a2658b2002a89", "gender": 0, "id": 109614, "name": "Betty Garrett", "order": 4, "profile_path": "/7uoCfyyFyepLTCqStF8qpwzt1T5.jpg"}, {"cast_id": 11, "character": "Mrs. Hart", "credit_id": "5431d5e30e0a2658b2002a8d", "gender": 1, "id": 7520, "name": "Jeanette Nolan", "order": 5, "profile_path": "/8E7iDMu0WIbtiKsY1kb8rBYziey.jpg"}, {"cast_id": 12, "character": "Joyce Harmon", "credit_id": "5431d5eec3a3681091002b26", "gender": 1, "id": 87685, "name": "Ann Sothern", "order": 6, "profile_path": "/sPSFce7FL8ifU93HnRwaY4DtASx.jpg"}, {"cast_id": 6, "character": "Eddie Lorrison Anders", "credit_id": "52fe4649c3a36847f80f68bf", "gender": 2, "id": 537064, "name": "Perry Como", "order": 7, "profile_path": "/kO9YVHXr8x2NV2ZbvCt9VgHpamW.jpg"}, {"cast_id": 13, "character": "Margo Grant", "credit_id": "5431d5fac3a36831ac00416a", "gender": 1, "id": 41226, "name": "Cyd Charisse", "order": 8, "profile_path": "/mA1iUO4d0izoIUZ1oRn0cEQ10lv.jpg"}, {"cast_id": 14, "character": "Ben Feiner Jr.", "credit_id": "5431d6090e0a264649004273", "gender": 2, "id": 18907, "name": "Richard Quine", "order": 9, "profile_path": "/6GgNKUTs8ElPPqi3FC7Jg3GUQd8.jpg"}, {"cast_id": 4, "character": "Alisande La Carteloise", "credit_id": "52fe4649c3a36847f80f68b7", "gender": 1, "id": 41216, "name": "June Allyson", "order": 10, "profile_path": "/A6X1fivbqIjhLlDK3EmGxhLf0u2.jpg"}, {"cast_id": 2, "character": "Judy Garland", "credit_id": "52fe4649c3a36847f80f68af", "gender": 1, "id": 9066, "name": "Judy Garland", "order": 11, "profile_path": "/692WrhGAROeIiFbMEaZKvPsG7Sb.jpg"}, {"cast_id": 15, "character": "Lena Horne", "credit_id": "5431d63ec3a36831bb00418f", "gender": 1, "id": 92900, "name": "Lena Horne", "order": 12, "profile_path": "/zqxMb5rxMfTS7p4GjVfiHhb5Zpj.jpg"}, {"cast_id": 16, "character": "Gene Kelly", "credit_id": "5431d6460e0a265915002a7c", "gender": 2, "id": 13294, "name": "Gene Kelly", "order": 13, "profile_path": "/qpxdcekD3x77J6dIxMOUfJifu49.jpg"}, {"cast_id": 17, "character": "Vera-Ellen", "credit_id": "5431d64ec3a36831bb004191", "gender": 1, "id": 77675, "name": "Vera-Ellen", "order": 14, "profile_path": "/kMpfnWzEnVmkrFUVumIOPjzYSmQ.jpg"}, {"cast_id": 18, "character": "Mel Torm\u00e9", "credit_id": "5431d655c3a36831ac004175", "gender": 2, "id": 97772, "name": "Mel Torm\u00e9", "order": 15, "profile_path": "/sg79tHO7bzPkcrGCSRjRI1Ym0tL.jpg"}, {"cast_id": 20, "character": "Shoe Clerk", "credit_id": "551e4edec3a368251d000d2d", "gender": 2, "id": 94112, "name": "Clinton Sundberg", "order": 17, "profile_path": "/ird4IaorvWN07a4CBQmy6Xl7oL.jpg"}, {"cast_id": 21, "character": "Dee Turnell", "credit_id": "551e4f02925141173f00209a", "gender": 0, "id": 1324199, "name": "Dee Turnell", "order": 18, "profile_path": "/x2DVbnUNxS1haLDeE9IkbeENCja.jpg"}, {"cast_id": 22, "character": "James Fernby Kelly", "credit_id": "551e4f1792514137430027f8", "gender": 2, "id": 34508, "name": "Edward Earle", "order": 19, "profile_path": "/gbliCBMFl5Jge8CMzTsUhrr0Hdf.jpg"}, {"cast_id": 23, "character": "Dr. Rogers", "credit_id": "551e4f2a92514137430027fd", "gender": 2, "id": 95668, "name": "Harry Antrim", "order": 20, "profile_path": "/xMlpUkrUcrMNnWRIeNukOHiQs.jpg"}, {"cast_id": 24, "character": "Mrs. Rogers", "credit_id": "551e4f3c9251413753002372", "gender": 1, "id": 100898, "name": "Ilka Gr\u00fcning", "order": 21, "profile_path": "/xZBgr8mSJTROElJ09I7gOrC1EiU.jpg"}, {"cast_id": 25, "character": "Mr. Feiner", "credit_id": "551e4f4cc3a3683a0d0028b6", "gender": 2, "id": 124875, "name": "Emory Parnell", "order": 22, "profile_path": "/sS6qfDabEwf1bLNpLi8EcRlVrmb.jpg"}, {"cast_id": 26, "character": "One of the Blackburn Twins", "credit_id": "551e4f62c3a3682eaf0020d7", "gender": 0, "id": 1363441, "name": "Ramon Blackburn", "order": 23, "profile_path": null}, {"cast_id": 27, "character": "One of the Blackburn Twins", "credit_id": "551e4f8d9251413753002385", "gender": 0, "id": 1363442, "name": "Royce Blackburn", "order": 24, "profile_path": null}, {"cast_id": 28, "character": "Dick Haymes", "credit_id": "551e4fa5c3a3682eaf0020df", "gender": 2, "id": 152713, "name": "Dick Haymes", "order": 25, "profile_path": "/qS7sbPi9lLloMFNdzSKwxXe1670.jpg"}, {"cast_id": 29, "character": "Showgirl (uncredited)", "credit_id": "551e4fdcc3a3683a0d0028c6", "gender": 0, "id": 1234545, "name": "Dorothy Abbott", "order": 26, "profile_path": "/s2aZnW2nLqRoC6ei25Ku0y0SPJc.jpg"}, {"cast_id": 30, "character": "Hollywood Realtor (uncredited)", "credit_id": "551e4ff0c3a3683a180027d7", "gender": 2, "id": 30530, "name": "Irving Bacon", "order": 27, "profile_path": "/oI6h1L5HvvXLacBIlKoHcXrHbhI.jpg"}, {"cast_id": 31, "character": "Specialty Dancer (uncredited)", "credit_id": "551e5009925141374f002411", "gender": 2, "id": 118222, "name": "Gower Champion", "order": 28, "profile_path": "/lzFAobSmHlm51Q36ENEAiAPk62W.jpg"}, {"cast_id": 32, "character": "Italian Waiter (uncredited)", "credit_id": "551e501f92514114d7001336", "gender": 2, "id": 9096, "name": "Gino Corrado", "order": 29, "profile_path": "/s9WKkWJFUNgbPhczUP4sD0OA4I4.jpg"}, {"cast_id": 33, "character": "Showgirl (uncredited)", "credit_id": "551e5033c3a3683a140027a9", "gender": 0, "id": 1449142, "name": "Jeanne Coyne", "order": 30, "profile_path": null}, {"cast_id": 34, "character": "Minor Role (uncredited)", "credit_id": "551e5057c3a3683a180027e7", "gender": 2, "id": 133277, "name": "Frank Mayo", "order": 31, "profile_path": "/3eNNCBwqvJtS1aTqy77mxtIZ3y4.jpg"}, {"cast_id": 35, "character": "Producer (uncredited)", "credit_id": "551e508ac3a3682eaf0020fd", "gender": 2, "id": 99330, "name": "George Meeker", "order": 32, "profile_path": "/66Z6noR6WSvytzwaxt65X5XW2E1.jpg"}, {"cast_id": 36, "character": "Backstage Well-Wisher (uncredited)", "credit_id": "551e509fc3a3683a180027f6", "gender": 2, "id": 122984, "name": "Bert Moorhouse", "order": 33, "profile_path": "/p0v0vNPZOnocEbD9tqQky6Gy0Cz.jpg"}, {"cast_id": 40, "character": "Singer in Garrick Gaeities", "credit_id": "5a2b08a292514103261367cc", "gender": 1, "id": 76382, "name": "Allyn Ann McLerie", "order": 34, "profile_path": "/tVkJUSsKrPlAullwRfpit2RHfW4.jpg"}], "crew": [{"credit_id": "5844a462c3a368469200d236", "department": "Production", "gender": 2, "id": 9055, "job": "Producer", "name": "Arthur Freed", "profile_path": "/dzPxN7pBVeSgW46YEOuCzcDbIv2.jpg"}, {"credit_id": "582931acc3a368360f034cd3", "department": "Camera", "gender": 2, "id": 9080, "job": "Director of Photography", "name": "Charles Rosher", "profile_path": null}, {"credit_id": "57ebf4c5c3a36813e9000d1e", "department": "Camera", "gender": 2, "id": 10537, "job": "Director of Photography", "name": "Harry Stradling Sr.", "profile_path": "/zrOonlDitklFugniihdlLloxGFO.jpg"}, {"credit_id": "542c6404c3a3680ccc000410", "department": "Writing", "gender": 0, "id": 13982, "job": "Writer", "name": "Fred F. Finklehoffe", "profile_path": null}, {"credit_id": "52fe4649c3a36847f80f68ab", "department": "Directing", "gender": 2, "id": 82800, "job": "Director", "name": "Norman Taurog", "profile_path": "/nDz17mvGRWV4BeJwgr9FVq1xIGH.jpg"}, {"credit_id": "5d4a20923e01ea0015cb231f", "department": "Writing", "gender": 2, "id": 134431, "job": "Story", "name": "Guy Bolton", "profile_path": null}, {"credit_id": "5d4a2086439be1001390a9f6", "department": "Writing", "gender": 1, "id": 153718, "job": "Story", "name": "Jean Holloway", "profile_path": null}, {"credit_id": "5d4a20a5076ce80013e580d0", "department": "Writing", "gender": 0, "id": 2380640, "job": "Adaptation", "name": "Ben Feiner Jr.", "profile_path": null}]}}