{"adult": false, "backdrop_path": "/hCQamV4Pp2YuFa9zoIQ4oXdxZRQ.jpg", "belongs_to_collection": null, "budget": 0, "genres": [{"id": 14, "name": "Fantasy"}, {"id": 10402, "name": "Music"}, {"id": 10749, "name": "Romance"}], "homepage": null, "id": 43498, "imdb_id": "tt0038262", "original_language": "en", "original_title": "Yolanda and the Thief", "overview": "Johnny Riggs, a con man on the lam, finds himself in a Latin-American country named Patria. There, he overhears a convent-bred rich girl praying to her guardian angel for help in managing her tangled business affairs. Riggs decides to materialize as the girl's \"angel\", gains her unquestioning confidence, and helps himself to the deluded girl's millions. Just as he and his partner are about to flee Patria with their booty, Riggs realizes he has fallen in love with the girl and returns the money, together with a note that is part confession and part love letter. But the larcenous duo's escape from Patria turns out to be more difficult than they could ever have imagined.", "popularity": 4.335, "poster_path": "/1mLucEX0jcl9oHwS1ZW9sdiuMtT.jpg", "production_companies": [{"id": 21, "logo_path": "/mjofSXiHpG5t6KYmU4l4FrUhT7m.png", "name": "Metro-Goldwyn-Mayer", "origin_country": "US"}], "production_countries": [{"iso_3166_1": "US", "name": "United States of America"}], "release_date": "1945-11-20", "revenue": 0, "runtime": 108, "spoken_languages": [{"iso_639_1": "en", "name": "English"}], "status": "Released", "tagline": "M.G.M.'s magic musical in Technicolor", "title": "Yolanda and the Thief", "video": false, "vote_average": 6.0, "vote_count": 4, "keywords": {"keywords": [{"id": 1691, "name": "dance"}, {"id": 184559, "name": "guardian angel"}]}, "similar": {"page": 1, "results": [{"adult": false, "backdrop_path": "/4rHlXwRldJZDfdQhaOfNbWwwG11.jpg", "genre_ids": [18, 10402], "id": 10560, "original_language": "en", "original_title": "Center Stage", "overview": "A group of 12 teenagers from various backgrounds enroll at the American Ballet Academy in New York to make it as ballet dancers and each one deals with the problems and stress of training and getting ahead in the world of dance.", "poster_path": "/hCR9r2hE0woymx62pymQ0Bs4mk7.jpg", "release_date": "2000-05-12", "title": "Center Stage", "video": false, "vote_average": 6.9, "vote_count": 195, "popularity": 13.175}, {"adult": false, "backdrop_path": "/5x0VEeFCnWzRBwU23KycKQRqEhN.jpg", "genre_ids": [10402, 35], "id": 15157, "original_language": "en", "original_title": "Another Cinderella Story", "overview": "A guy who danced with what could be the girl of his dreams at a costume ball only has one hint at her identity: the Zune she left behind as she rushed home in order to make her curfew. And with a once-in-a-lifetime opportunity in front of him, he sets out to find his masked beauty.", "poster_path": "/fLdCKCfHT8A6bnWybBsQFjC4fCo.jpg", "release_date": "2008-09-16", "title": "Another Cinderella Story", "video": false, "vote_average": 6.6, "vote_count": 1120, "popularity": 22.24}, {"id": 407655, "video": false, "vote_count": 421, "vote_average": 6.8, "title": "A Cinderella Story: If the Shoe Fits", "release_date": "2016-08-02", "original_language": "en", "original_title": "A Cinderella Story: If the Shoe Fits", "genre_ids": [35, 14, 10402, 10751], "backdrop_path": "/svYzELCLW0NGVEuvNraA4W7Hmm9.jpg", "adult": false, "overview": "A contemporary musical version of the classic Cinderella story in which the servant step daughter hope to compete in a musical competition for a famous pop star.", "poster_path": "/prZSNnK5dkYcflsbdOsVVvqasZ5.jpg", "popularity": 23.748}, {"id": 382399, "video": false, "vote_count": 707, "vote_average": 7.1, "title": "High Strung", "release_date": "2016-04-08", "original_language": "en", "original_title": "High Strung", "genre_ids": [18, 10402, 10749], "backdrop_path": "/elSS1VQHKZF1j2ZxOnVdA2VhZzU.jpg", "adult": false, "overview": "When a hip hop violinist busking in the New York subway encounters a classical dancer on scholarship at the Manhattan Conservatory of the Arts, sparks fly. With the help of a hip hop dance crew they must find a common ground while preparing for a competition that could change their lives forever.", "poster_path": "/vBpiQ4urEIlSOntCaNNMkb1SBNR.jpg", "popularity": 18.36}, {"adult": false, "backdrop_path": "/6Ns8a4V5e69f3srxlre33yWNyQO.jpg", "genre_ids": [35, 18, 10749], "id": 10409, "original_language": "en", "original_title": "Strictly Ballroom", "overview": "Brave new steps put Scott's career in jeopardy. With a new partner and determination, can he still succeed?", "poster_path": "/ulA2RUGNvrwxbLDVUwxyB2eBl6P.jpg", "release_date": "1992-08-20", "title": "Strictly Ballroom", "video": false, "vote_average": 6.4, "vote_count": 164, "popularity": 12.103}, {"id": 44214, "video": false, "vote_count": 9188, "vote_average": 7.6, "title": "Black Swan", "release_date": "2010-12-03", "original_language": "en", "original_title": "Black Swan", "genre_ids": [18, 27, 53], "backdrop_path": "/t8jFs6cOl1YVSfXXZivWtEb14tF.jpg", "adult": false, "overview": "A journey through the psyche of a young ballerina whose starring role as the duplicitous swan queen turns out to be a part for which she becomes frighteningly perfect.", "poster_path": "/dQ7uxvsVTspVIsqjfgQj8usJpwX.jpg", "popularity": 27.026}, {"id": 342473, "video": false, "vote_count": 1168, "vote_average": 7.1, "title": "Ballerina", "release_date": "2016-12-14", "original_language": "en", "original_title": "Ballerina", "genre_ids": [12, 16, 35, 10751], "backdrop_path": "/wlLdcK3Sm7zp0w1ZuVvnFlmcchM.jpg", "adult": false, "overview": "Set in 1879 Paris. An orphan girl dreams of becoming a ballerina and flees her rural Brittany for Paris, where she passes for someone else and accedes to the position of pupil at the Grand Opera house.", "poster_path": "/qBxMhcmNnFniuDAZTKEHcSgKtsn.jpg", "popularity": 25.032}, {"id": 361292, "video": false, "vote_count": 1094, "vote_average": 6.9, "title": "Suspiria", "release_date": "2018-10-11", "original_language": "en", "original_title": "Suspiria", "genre_ids": [14, 27], "backdrop_path": "/AmO8I38bkHwKhgxPNrd6djBQyPU.jpg", "adult": false, "overview": "A darkness swirls at the center of a world-renowned dance company, one that will engulf the troupe's artistic director, an ambitious young dancer and a grieving psychotherapist. Some will succumb to the nightmare, others will finally wake up.", "poster_path": "/qntguRoupnAASFdld8kTDe68fEn.jpg", "popularity": 19.86}, {"id": 2976, "video": false, "vote_count": 1689, "vote_average": 6.6, "title": "Hairspray", "release_date": "2007-07-13", "original_language": "en", "original_title": "Hairspray", "genre_ids": [35, 18, 10749], "backdrop_path": "/yafOInYuEuK6FOw1oK40Lggp0TV.jpg", "adult": false, "overview": "Pleasantly plump teenager Tracy Turnblad auditions to be on Baltimore's most popular dance show - The Corny Collins Show - and lands a prime spot. Through her newfound fame, she becomes determined to help her friends and end the racial segregation that has been a staple of the show.", "poster_path": "/ndOpIx4BXpFCRRIxgMoGHxZxlE9.jpg", "popularity": 28.634}, {"id": 313369, "video": false, "vote_count": 11057, "vote_average": 7.9, "title": "La La Land", "release_date": "2016-11-29", "original_language": "en", "original_title": "La La Land", "genre_ids": [35, 18, 10402, 10749], "backdrop_path": "/fp6X6yhgcxzxCpmM0EVC6V9B8XB.jpg", "adult": false, "overview": "Mia, an aspiring actress, serves lattes to movie stars in between auditions and Sebastian, a jazz musician, scrapes by playing cocktail party gigs in dingy bars, but as success mounts they are faced with decisions that begin to fray the fragile fabric of their love affair, and the dreams they worked so hard to maintain in each other threaten to rip them apart.", "poster_path": "/ylXCdC106IKiarftHkcacasaAcb.jpg", "popularity": 30.693}, {"id": 9762, "video": false, "vote_count": 2460, "vote_average": 6.8, "title": "Step Up", "release_date": "2006-08-11", "original_language": "en", "original_title": "Step Up", "genre_ids": [80, 18, 10402, 10749], "backdrop_path": "/sKD3PfyP1u4tcoVQkpiAZqnx4H8.jpg", "adult": false, "overview": "Everyone deserves a chance to follow their dreams, but some people only get one shot. Tyler Gage is a rebel from the wrong side of Baltimore's tracks and the only thing that stands between him and an unfulfilled life are his dreams of one day making it out of there. Nora is a privileged ballet dancer attending Baltimore's ultra-elite Maryland School of the Arts", "poster_path": "/gyLww7ZlcwuzqvIwM1osR9Ioqtm.jpg", "popularity": 20.427}, {"adult": false, "backdrop_path": "/nlwzLx5WVZPZDwXvexGGfaktts7.jpg", "genre_ids": [878, 53, 10749], "id": 38050, "original_language": "en", "original_title": "The Adjustment Bureau", "overview": "A man glimpses the future Fate has planned for him \u2013 and chooses to fight for his own destiny. Battling the powerful Adjustment Bureau across, under and through the streets of New York, he risks his destined greatness to be with the only woman he's ever loved.", "poster_path": "/g87PqGH9Oo3d3Tbczcfk7ZMAIEk.jpg", "release_date": "2011-03-03", "title": "The Adjustment Bureau", "video": false, "vote_average": 6.7, "vote_count": 2859, "popularity": 12.928}, {"id": 1585, "video": false, "vote_count": 2258, "vote_average": 8.2, "title": "It's a Wonderful Life", "release_date": "1946-12-20", "original_language": "en", "original_title": "It's a Wonderful Life", "genre_ids": [18, 14, 10751], "backdrop_path": "/nMomMy1sD3SN2QsKop3zBXCJfDJ.jpg", "adult": false, "overview": "A holiday favourite for generations...  George Bailey has spent his entire life giving to the people of Bedford Falls.  All that prevents rich skinflint Mr. Potter from taking over the entire town is George's modest building and loan company.  But on Christmas Eve the business's $8,000 is lost and George's troubles begin.", "poster_path": "/bSqt9rhDZx1Q7UZ86dBPKdNomp2.jpg", "popularity": 28.472}, {"id": 8328, "video": false, "vote_count": 1485, "vote_average": 6.6, "title": "Step Up 2: The Streets", "release_date": "2008-02-14", "original_language": "en", "original_title": "Step Up 2: The Streets", "genre_ids": [18, 10402, 10749], "backdrop_path": "/fGq48GZp2PLVgx9IwW5lBf4DBYJ.jpg", "adult": false, "overview": "When rebellious street dancer Andie lands at the elite Maryland School of the Arts, she finds herself fighting to fit in while also trying to hold onto her old life. When she joins forces with the schools hottest dancer, Chase, to form a crew of classmate outcasts to compete in Baltimore s underground dance battle The Streets.", "poster_path": "/5SwoeOUyfkS8s6aGB2bLYAL5jKR.jpg", "popularity": 17.786}, {"id": 507076, "video": false, "vote_count": 629, "vote_average": 7.1, "title": "Climax", "release_date": "2018-09-19", "original_language": "fr", "original_title": "Climax", "genre_ids": [18, 27, 10402], "backdrop_path": "/v0sblc9A8eaE8EqDQ5Y6fELj4oB.jpg", "adult": false, "overview": "Young dancers gather in a remote and empty school building to rehearse on a cold and wintry night. The all-night celebration soon turns into a hallucinatory nightmare when they learn that their sangria is laced with LSD.", "poster_path": "/zQDqgzSdTGSDu4rDcQTq7TAttmy.jpg", "popularity": 15.582}, {"id": 71, "video": false, "vote_count": 2229, "vote_average": 7.6, "title": "Billy Elliot", "release_date": "2000-05-18", "original_language": "en", "original_title": "Billy Elliot", "genre_ids": [35, 18, 10402], "backdrop_path": "/vlnhKUvu335ZM8wSD27MaFHpNu2.jpg", "adult": false, "overview": "Set against the background of the 1984 Miners' Strike, 11-year-old Billy Elliot stumbles out of the boxing ring and onto the ballet floor. He faces many trials and triumphs as he strives to conquer his family's set ways, inner conflict, and standing on his toes.", "poster_path": "/6VaP1H3MOW5jdkWqS5Q1NapCOS6.jpg", "popularity": 16.491}, {"id": 10545, "video": false, "vote_count": 3017, "vote_average": 7.0, "title": "The Hunchback of Notre Dame", "release_date": "1996-06-21", "original_language": "en", "original_title": "The Hunchback of Notre Dame", "genre_ids": [16, 18, 10751], "backdrop_path": "/oslaee3VX9kJAjVezbjZKlEJDzn.jpg", "adult": false, "overview": "When Quasimodo defies the evil Frollo and ventures out to the Festival of Fools, the cruel crowd jeers him. Rescued by fellow outcast the gypsy Esmeralda, Quasi soon finds himself battling to save the people and the city he loves.", "poster_path": "/r7V92gY3AMO6li17MmGTixAnFcv.jpg", "popularity": 34.935}, {"id": 10527, "video": false, "vote_count": 4217, "vote_average": 6.4, "title": "Madagascar: Escape 2 Africa", "release_date": "2008-10-30", "original_language": "en", "original_title": "Madagascar: Escape 2 Africa", "genre_ids": [16, 35, 10751], "backdrop_path": "/anxiz37Z9FPKeuCsJcxViSWmPxg.jpg", "adult": false, "overview": "Alex, Marty, and other zoo animals find a way to escape from Madagascar when the penguins reassemble a wrecked airplane. The precariously repaired craft stays airborne just long enough to make it to the African continent. There the New Yorkers encounter members of their own species for the first time. Africa proves to be a wild place, but Alex and company wonder if it is better than their Central Park home.", "poster_path": "/9mohxwknsHcwFBSAAhoQXwFV5zn.jpg", "popularity": 21.514}, {"id": 20352, "video": false, "vote_count": 10780, "vote_average": 7.2, "title": "Despicable Me", "release_date": "2010-07-08", "original_language": "en", "original_title": "Despicable Me", "genre_ids": [16, 35, 10751], "backdrop_path": "/yo1ef57MEPkEE4BDZKTZGH9uDcX.jpg", "adult": false, "overview": "Villainous Gru lives up to his reputation as a despicable, deplorable and downright unlikable guy when he hatches a plan to steal the moon from the sky. But he has a tough time staying on task after three orphans land in his care.", "poster_path": "/4zHJhBSY4kNZXfhTlmy2TzXD51M.jpg", "popularity": 33.374}, {"id": 1788, "video": false, "vote_count": 1107, "vote_average": 6.6, "title": "Footloose", "release_date": "1984-02-17", "original_language": "en", "original_title": "Footloose", "genre_ids": [18, 10749], "backdrop_path": "/ptEAh4Ok6PnXDkcX2kAue5A2sIG.jpg", "adult": false, "overview": "When teenager Ren and his family move from big-city Chicago to a small town in the West, he's in for a real case of culture shock.", "poster_path": "/79iEen28ai1rsXvOVWRJuHrsexO.jpg", "popularity": 14.1}], "total_pages": 45, "total_results": 887}, "recommendations": {"page": 1, "results": [{"adult": false, "backdrop_path": "/zO9fVS9GWHUwuaogICK5OQiNdTw.jpg", "genre_ids": [18], "id": 178348, "original_language": "en", "original_title": "Massacre", "overview": "Rodeo stunt rider Richard Barthelmess (as Joe \"Chief\" Thunder-Horse) thrills crowds at the Chicago \"World's Fair\" celebrating a century of progress in Native American Indian affairs. An assimilated Sioux, Mr. Barthelmess receives word that back on the Reservation his father is dying. Barthelmess takes time out to fulfill a sexual fantasy with shapely blonde Claire Dodd (as Norma), then drives to the Reservation with his happy-go-lucky manservant. On the way, he is attracted to red-skinned Ann Dvorak (as Lydia). Barthelmess discovers his forgotten brethren are being mistreated, and need help...", "poster_path": "/vAPMbB3w1Gi0gnae3qUcKH2dVfj.jpg", "release_date": "1934-01-20", "title": "Massacre", "video": false, "vote_average": 7.0, "vote_count": 2, "popularity": 2.054}, {"adult": false, "backdrop_path": "/90hpiNgvpnphDCgCMRDRCkb68dX.jpg", "genre_ids": [35], "id": 156327, "original_language": "en", "original_title": "Lonely Wives", "overview": "A highly respectable lawyer becomes a sexual animal after working hours. Live-in mother-in-law tries to keep him in line.", "poster_path": "/54bSZ3o4KoaoZmK9Sa9d8gwfBD6.jpg", "release_date": "1931-02-22", "title": "Lonely Wives", "video": false, "vote_average": 4.0, "vote_count": 2, "popularity": 2.11}, {"adult": false, "backdrop_path": "/2CUUXGPNY9PuBgOhJND4erUeT0.jpg", "genre_ids": [35], "id": 53571, "original_language": "en", "original_title": "Parlor, Bedroom and Bath", "overview": "Jeffrey Haywood wants to marry to Virginia Embrey. However, Virginia refused to marry unless her older sister, the hard-to-please Angelica gets married first. Angelica, in turn, finds every man she knows too dull and predictable, and for this reason prefers to stay single. Jeff then tries to make Angelica interested in the mild-mannered and timid Reggie Irving (Keaton) passing him off as a notorious playboy to intrigue her. He asks his friend Polly to teach Reggie \"how to treat a woman right\", but he turns to be a disastrous learner.", "poster_path": "/y6vmo8pJjRBoByhdtIIJ7S10cvv.jpg", "release_date": "1931-02-28", "title": "Parlor, Bedroom and Bath", "video": false, "vote_average": 5.5, "vote_count": 6, "popularity": 4.113}, {"adult": false, "backdrop_path": "/5cJC9uyjVh10bKDABrJzIsokXIp.jpg", "genre_ids": [80, 18], "id": 170297, "original_language": "en", "original_title": "Road To Paradise", "overview": "Loretta Young plays dual roles in this 1930 crime drama about a young thief planning to steal jewels from a wealthy socialite.", "poster_path": "/qjOifRjKpkOGf3ZWkQdQCWgreOw.jpg", "release_date": "1930-07-20", "title": "Road To Paradise", "video": false, "vote_average": 7.0, "vote_count": 3, "popularity": 3.084}, {"adult": false, "backdrop_path": "/hvkZDEV0BriI9ftwZoeC9mPQd6B.jpg", "genre_ids": [18], "id": 156320, "original_language": "en", "original_title": "Our Blushing Brides", "overview": "Three department store girls--Connie, Franky, and Jerry--share an apartment on West 91st Street in New York City. Each earns little more than 20 dollars per week. Jerry is the sensible one, but the others throw themselves at amoral rich men in an attempt to hook one and better themselves. They end up being hurt and disappointed despite Jerry's attempts to warn them.", "poster_path": "/b8TVe7RkB2ZHgJdGINTG3hp9KAH.jpg", "release_date": "1930-07-19", "title": "Our Blushing Brides", "video": false, "vote_average": 6.0, "vote_count": 4, "popularity": 2.508}, {"adult": false, "backdrop_path": "/mlTnIWx4D3PQOWWOuFqmw5dk4cy.jpg", "genre_ids": [18, 10749], "id": 156345, "original_language": "en", "original_title": "The Easiest Way", "overview": "Growing up in a poor working-class family, Laura decides not to marry the boy-next-door and instead accepts wealthy, older Will Brockton's invitation to move in with him. After falling in love with young up-and-coming newsman Jack Madison she leaves Brockton to wait for Madison's return from a long assignment. She runs out of money and becomes desperate, returning again to Brockton who, upon learning of Madison's sudden arrival, tells Laura she must inform Madison of her living situation or he will.", "poster_path": "/mphxrU49VI3aNozPHub9AH3nBdG.jpg", "release_date": "1931-02-07", "title": "The Easiest Way", "video": false, "vote_average": 7.0, "vote_count": 3, "popularity": 3.094}, {"adult": false, "backdrop_path": null, "genre_ids": [18, 10749], "id": 169625, "original_language": "en", "original_title": "Jane Eyre", "overview": "Jane Eyre is an orphan who was raised by her aunt until she came to Thornfield Hall as governess to the young ward of Edward Rochester. But Jane is attracted by the intelligent and energetic Sir Rochester, a man of almost twice her age. But just when Sir Rochester seems to pay attention to her, he invites the beautiful and wealthy Blanche Ingram to stay at his house.", "poster_path": "/vzErKg8DzkpNnETh3VMpTAc91kx.jpg", "release_date": "1934-08-15", "title": "Jane Eyre", "video": false, "vote_average": 5.0, "vote_count": 4, "popularity": 3.363}, {"adult": false, "backdrop_path": "/ofqYnJ5ohIElywsYAMsSq0t9V4O.jpg", "genre_ids": [18], "id": 109197, "original_language": "en", "original_title": "Back Street", "overview": "A woman's love for and devotion to a married man results in her being relegated to the \"back streets\" of his life.", "poster_path": "/gVQ1IxDDmyiYH0vrfKJ1JbZMQnN.jpg", "release_date": "1932-09-01", "title": "Back Street", "video": false, "vote_average": 5.5, "vote_count": 4, "popularity": 2.495}, {"adult": false, "backdrop_path": null, "genre_ids": [], "id": 166592, "original_language": "en", "original_title": "Extravagance", "overview": "Alice Kendall is the darling of her social set, the sons and daughters of millionaires, although Alice's mother has impoverished herself to provide Alice with the luxuries she expects as her right. Mom blows what's left of her fortune to provide the best trousseau that money can buy when Alice marries Fred Garlan, and then wishes Fred lots of luck. Now, Alice is trying to coax Fred into buying her a new sable coat while Fred is busily trying to borrow enough money to keep his business afloat.", "poster_path": "/x4xl4Y4fLZ0N4q9eDD8RAPfM1Gb.jpg", "release_date": "1930-10-09", "title": "Extravagance", "video": false, "vote_average": 3.7, "vote_count": 3, "popularity": 0.752}, {"id": 111344, "video": false, "vote_count": 5, "vote_average": 6.2, "title": "Evergreen", "release_date": "1934-04-01", "original_language": "en", "original_title": "Evergreen", "genre_ids": [35, 10402, 10749], "backdrop_path": "/mkEzzt9YpUJwPSSs2zIAD7bdJvm.jpg", "adult": false, "overview": "Harriet Green, a beloved and radiant music hall star of the Edwardian era mysteriously disappears on the eve of her wedding. Years later she reappears on the stage as young looking and beautiful as ever.", "poster_path": "/fl9DfUXbQ8cGfZe8caAEH4TAyoZ.jpg", "popularity": 1.911}, {"adult": false, "backdrop_path": "/cKfPbSBxKiT07w8GPiyGFL3Ygly.jpg", "genre_ids": [12], "id": 113430, "original_language": "en", "original_title": "The Green Goddess", "overview": "An airplane carrying three Brits crash lands in the kingdom of Rukh. The Rajah holds them prisoner because the British are about to execute his three half-brothers in neighboring India.", "poster_path": "/dcZyoGfqyJLh7Kfb3JrEu6sWoMn.jpg", "release_date": "1930-02-13", "title": "The Green Goddess", "video": false, "vote_average": 4.8, "vote_count": 5, "popularity": 1.813}, {"adult": false, "backdrop_path": "/qagPhLrzfx3gqt6QobLBRZkfiLF.jpg", "genre_ids": [18], "id": 106605, "original_language": "en", "original_title": "Kept Husbands", "overview": "A former All-American football star, now working as a steel mill supervisor in New Jersey, falls in love with the mill owner's wealthy, very spoiled daughter.", "poster_path": "/44yEABinzyvBNfOLuQQfOOe9Hwq.jpg", "release_date": "1931-02-22", "title": "Kept Husbands", "video": false, "vote_average": 6.2, "vote_count": 6, "popularity": 2.856}], "total_pages": 1, "total_results": 12}, "credits": {"cast": [{"cast_id": 1, "character": "Johnny Parkson Riggs", "credit_id": "52fe464cc3a36847f80f733f", "gender": 2, "id": 30181, "name": "Fred Astaire", "order": 0, "profile_path": "/tFdgseH9plbGN8XBhBcG9lscfaY.jpg"}, {"cast_id": 2, "character": "Yolanda", "credit_id": "52fe464cc3a36847f80f7343", "gender": 1, "id": 13993, "name": "Lucille Bremer", "order": 1, "profile_path": "/bH0xLiPDAd7yMqdQyc592HPUgqj.jpg"}, {"cast_id": 9, "character": "Victor Budlow Trout", "credit_id": "52fe464cc3a36847f80f736b", "gender": 2, "id": 9067, "name": "Frank Morgan", "order": 2, "profile_path": "/wqZaxQOgxkBnfSP7i2OMbBAVMI9.jpg"}, {"cast_id": 11, "character": "Duenna", "credit_id": "52fe464cc3a36847f80f736f", "gender": 1, "id": 14686, "name": "Mary Nash", "order": 4, "profile_path": "/pLxjZn8QhuzcDYulqWy2iT2SObe.jpg"}, {"cast_id": 12, "character": "Mr. Candle", "credit_id": "52fe464cc3a36847f80f7373", "gender": 2, "id": 13994, "name": "Leon Ames", "order": 5, "profile_path": "/gzYY95O5AVKXxXlfV3XfHtBzQxA.jpg"}, {"cast_id": 13, "character": "Aunt Amarilla", "credit_id": "52fe464cc3a36847f80f7377", "gender": 1, "id": 12969, "name": "Mildred Natwick", "order": 6, "profile_path": "/p5raOD4OXBg3yreGZJQ4IE6r4Lc.jpg"}], "crew": [{"credit_id": "52fe464cc3a36847f80f7349", "department": "Directing", "gender": 2, "id": 13980, "job": "Director", "name": "Vincente Minnelli", "profile_path": "/qUV0pO7Q1Vs9Jcvq0LWcqOERQ2H.jpg"}, {"credit_id": "52fe464cc3a36847f80f734f", "department": "Writing", "gender": 0, "id": 1031143, "job": "Story", "name": "Ludwig Bemelmans", "profile_path": null}, {"credit_id": "52fe464cc3a36847f80f7355", "department": "Writing", "gender": 2, "id": 13981, "job": "Screenplay", "name": "Irving Brecher", "profile_path": "/jtPDIq2DNJCjsbFXhI8ODAKfLbY.jpg"}, {"credit_id": "52fe464cc3a36847f80f735b", "department": "Production", "gender": 2, "id": 9055, "job": "Producer", "name": "Arthur Freed", "profile_path": "/dzPxN7pBVeSgW46YEOuCzcDbIv2.jpg"}, {"credit_id": "52fe464cc3a36847f80f7361", "department": "Sound", "gender": 2, "id": 95665, "job": "Original Music Composer", "name": "Lennie Hayton", "profile_path": null}, {"credit_id": "5372a75c0e0a267c590001c3", "department": "Camera", "gender": 2, "id": 9080, "job": "Director of Photography", "name": "Charles Rosher", "profile_path": null}]}}