{"adult": false, "backdrop_path": null, "belongs_to_collection": null, "budget": 0, "genres": [{"id": 35, "name": "Comedy"}, {"id": 10402, "name": "Music"}, {"id": 10749, "name": "Romance"}], "homepage": null, "id": 43521, "imdb_id": "tt0034745", "original_language": "en", "original_title": "Footlight Serenade", "overview": "Conceited World Champion boxer Tommy Lundy decides to test his popularity in a Broadway show. Tommy always has an eye for the ladies and he starts paying attention to beautiful chorus girl Pat Lambert. Pat's boyfriend Bill Smith isn't impressed with Tommy even though Tommy gets him a boxing part in the show. When Tommy finds out that Pat and Bill were secretly together the night before the show opens, he angrily plans to turn the boxing scene with Bill into a real bout.", "popularity": 1.026, "poster_path": "/wfR3sNHD2GCFLZiy8CncmenPmTq.jpg", "production_companies": [{"id": 25, "logo_path": "/qZCc1lty5FzX30aOCVRBLzaVmcp.png", "name": "20th Century Fox", "origin_country": "US"}], "production_countries": [{"iso_3166_1": "US", "name": "United States of America"}], "release_date": "1942-08-01", "revenue": 0, "runtime": 80, "spoken_languages": [{"iso_639_1": "en", "name": "English"}], "status": "Released", "tagline": "", "title": "Footlight Serenade", "video": false, "vote_average": 0.0, "vote_count": 0, "keywords": {"keywords": [{"id": 2792, "name": "boxer"}, {"id": 4344, "name": "musical"}, {"id": 190849, "name": "broadway show"}]}, "similar": {"page": 1, "results": [{"id": 1375, "video": false, "vote_count": 1670, "vote_average": 5.6, "title": "Rocky V", "release_date": "1990-10-18", "original_language": "en", "original_title": "Rocky V", "genre_ids": [18], "backdrop_path": "/dr5pdEDOdCvelCQqP32UZubiSgE.jpg", "adult": false, "overview": "A lifetime of taking shots has ended Rocky\u2019s career, and a crooked accountant has left him broke. Inspired by the memory of his trainer, however, Rocky finds glory in training and takes on an up-and-coming boxer.", "poster_path": "/5P2RiuLt31mWyb6duww8qlAhs6G.jpg", "popularity": 22.518}, {"id": 1366, "video": false, "vote_count": 4244, "vote_average": 7.7, "title": "Rocky", "release_date": "1976-11-21", "original_language": "en", "original_title": "Rocky", "genre_ids": [18], "backdrop_path": "/2kkyt0FLROrXt41IgSdE7goCFNQ.jpg", "adult": false, "overview": "When world heavyweight boxing champion, Apollo Creed wants to give an unknown fighter a shot at the title as a publicity stunt, his handlers choose palooka Rocky Balboa, an uneducated collector for a Philadelphia loan shark. Rocky teams up with trainer  Mickey Goldmill to make the most of this once in a lifetime break.", "poster_path": "/9TUR3s1PMJHwDRbpm7PWQ0S7IRy.jpg", "popularity": 31.646}, {"adult": false, "backdrop_path": "/6qYptQG2ynJANbyjjYOt4fpHfxF.jpg", "genre_ids": [18], "id": 1371, "original_language": "en", "original_title": "Rocky III", "overview": "Now the world champion, Rocky Balboa is living in luxury and only fighting opponents who pose no threat to him in the ring, until Clubber Lang challenges him to a bout. After taking a pounding from Lang, the humbled champ turns to former bitter rival Apollo Creed for a rematch with Lang.", "poster_path": "/ns55NGqTDEEjcI9z2a9htA2cFtG.jpg", "release_date": "1982-05-28", "title": "Rocky III", "video": false, "vote_average": 6.8, "vote_count": 2156, "popularity": 25.559}, {"id": 1374, "video": false, "vote_count": 2312, "vote_average": 6.9, "title": "Rocky IV", "release_date": "1985-11-21", "original_language": "en", "original_title": "Rocky IV", "genre_ids": [18], "backdrop_path": "/uvbjTLZSxGehXWDo1ENyVuBrYie.jpg", "adult": false, "overview": "After iron man Drago, a highly intimidating 6-foot-5, 261-pound Soviet athlete, kills Apollo Creed in an exhibition match, Rocky comes to the heart of Russia for 15 pile-driving boxing rounds of revenge.", "poster_path": "/jmvpwgW5M2kduR9zB0q8qGFC4zM.jpg", "popularity": 23.829}, {"id": 921, "video": false, "vote_count": 1245, "vote_average": 7.5, "title": "Cinderella Man", "release_date": "2005-06-02", "original_language": "en", "original_title": "Cinderella Man", "genre_ids": [18, 36, 10749], "backdrop_path": "/ozvvHdadtBYpExCwAjsNPSjV6hT.jpg", "adult": false, "overview": "The true story of boxer, Jim Braddock who, in the 1920\u2019s after his retirement, has a surprise comeback in order to get him and his family out of a socially poor state.", "poster_path": "/xZhumK43Z6jmwCWglh7uHcpkqdb.jpg", "popularity": 14.603}, {"id": 224141, "video": false, "vote_count": 3144, "vote_average": 5.7, "title": "Into the Woods", "release_date": "2014-12-24", "original_language": "en", "original_title": "Into the Woods", "genre_ids": [35, 14], "backdrop_path": "/lzJzB0QfkjpGCm9qUC4XpEIB6pm.jpg", "adult": false, "overview": "In a woods filled with magic and fairy tale characters, a baker and his wife set out to end the curse put on them by their neighbor, a spiteful witch.", "poster_path": "/5h91odPFNlBuJbRBj5N4MEBfXDE.jpg", "popularity": 29.368}, {"id": 872, "video": false, "vote_count": 1617, "vote_average": 8.2, "title": "Singin' in the Rain", "release_date": "1952-04-10", "original_language": "en", "original_title": "Singin' in the Rain", "genre_ids": [35, 10402, 10749], "backdrop_path": "/amW1YWQvcP8slDyDp1R652aVQZ7.jpg", "adult": false, "overview": "In 1927 Hollywood, a silent film production company and cast make a difficult transition to sound.", "poster_path": "/s39odBPtyutGBnEfBIpdm0fpRwv.jpg", "popularity": 17.295}, {"id": 504608, "video": false, "vote_count": 1666, "vote_average": 7.4, "title": "Rocketman", "release_date": "2019-05-22", "original_language": "en", "original_title": "Rocketman", "genre_ids": [18, 10402], "backdrop_path": "/sZZJ42GrWKxSOfcrpI2TSFQa0AQ.jpg", "adult": false, "overview": "The story of Elton John's life, from his years as a prodigy at the Royal Academy of Music through his influential and enduring musical partnership with Bernie Taupin.", "poster_path": "/f4FF18ia7yTvHf2izNrHqBmgH8U.jpg", "popularity": 27.709}, {"id": 18126, "video": false, "vote_count": 1217, "vote_average": 6.4, "title": "Hannah Montana: The Movie", "release_date": "2009-04-10", "original_language": "en", "original_title": "Hannah Montana: The Movie", "genre_ids": [35, 18, 10402, 10749, 10751], "backdrop_path": "/ezx3NkXNqf2KnJCP6Nfj1bfCFut.jpg", "adult": false, "overview": "As Hannah Montana's popularity begins to take over her life, Miley Stewart, on the urging from her father takes a trip to her hometown of Crowley Corners, Tennessee to get some perspective on what matters in life the most.", "poster_path": "/8pwbnmvshHj2yYPYlyJ8K8Yzecy.jpg", "popularity": 12.479}, {"id": 2005, "video": false, "vote_count": 1806, "vote_average": 6.7, "title": "Sister Act", "release_date": "1992-05-28", "original_language": "en", "original_title": "Sister Act", "genre_ids": [35, 10402], "backdrop_path": "/oaLqlJxt8TJSjsdfMpSkLexZ4l5.jpg", "adult": false, "overview": "A Reno singer witnesses a mob murder and the cops stash her in a nunnery to protect her from the mob's hitmen. The mother superior does not trust her, and takes steps to limit her influence on the other nuns. Eventually the singer rescues the failing choir and begins helping with community projects, which gets her an interview on TV\u2014and identification by the mob.", "poster_path": "/7wQxLtybiUbtC6tsJh9htFEmqq3.jpg", "popularity": 16.674}, {"id": 10537, "video": false, "vote_count": 603, "vote_average": 6.9, "title": "The Doors", "release_date": "1991-03-01", "original_language": "en", "original_title": "The Doors", "genre_ids": [18, 10402], "backdrop_path": "/1rv5sW6Qs2YK2iOzIgwH3SJPIl1.jpg", "adult": false, "overview": "The story of the famous and influential 1960s rock band and its lead singer and composer, Jim Morrison.", "poster_path": "/9CkFrWAkg23YynYd2uJLyWznMZZ.jpg", "popularity": 14.573}, {"adult": false, "backdrop_path": "/xx9DyVNmehDJPrYGsy9AJgYzAtd.jpg", "genre_ids": [18], "id": 1367, "original_language": "en", "original_title": "Rocky II", "overview": "After Rocky goes the distance with champ Apollo Creed, both try to put the fight behind them and move on. Rocky settles down with Adrian but can't put his life together outside the ring, while Creed seeks a rematch to restore his reputation. Soon enough, the \"Master of Disaster\" and the \"Italian Stallion\" are set on a collision course for a climactic battle that is brutal and unforgettable.", "poster_path": "/fqJH7mI4dFANRay8qdJoGa7fK1k.jpg", "release_date": "1979-06-15", "title": "Rocky II", "video": false, "vote_average": 7.1, "vote_count": 2345, "popularity": 27.206}, {"id": 70, "video": false, "vote_count": 5415, "vote_average": 7.9, "title": "Million Dollar Baby", "release_date": "2004-12-15", "original_language": "en", "original_title": "Million Dollar Baby", "genre_ids": [18], "backdrop_path": "/7nGW4MhYQ7sJfp482XkrgqPYQ2S.jpg", "adult": false, "overview": "Despondent over a painful estrangement from his daughter, trainer Frankie Dunn isn't prepared for boxer Maggie Fitzgerald to enter his life. But Maggie's determined to go pro and to convince Dunn and his cohort to help her.", "poster_path": "/h4VZKi2Jt4VoBYJmtC4c3bO8KqM.jpg", "popularity": 22.24}, {"id": 680, "video": false, "vote_count": 17227, "vote_average": 8.5, "title": "Pulp Fiction", "release_date": "1994-09-10", "original_language": "en", "original_title": "Pulp Fiction", "genre_ids": [80, 53], "backdrop_path": "/suaEOtk1N1sgg2MTM7oZd2cfVp3.jpg", "adult": false, "overview": "A burger-loving hit man, his philosophical partner, a drug-addled gangster's moll and a washed-up boxer converge in this sprawling, comedic crime caper. Their adventures unfurl in three stories that ingeniously trip back and forth in time.", "poster_path": "/d5iIlFn5s0ImszYzBPb8JPIfbXD.jpg", "popularity": 43.597}, {"id": 194662, "video": false, "vote_count": 8621, "vote_average": 7.5, "title": "Birdman", "release_date": "2014-08-27", "original_language": "en", "original_title": "Birdman", "genre_ids": [35, 18], "backdrop_path": "/AsJVim0Hk3KbQPbfjyijfjqmaoZ.jpg", "adult": false, "overview": "A fading actor best known for his portrayal of a popular superhero attempts to mount a comeback by appearing in a Broadway play. As opening night approaches, his attempts to become more altruistic, rebuild his career, and reconnect with friends and family prove more difficult than expected.", "poster_path": "/rSZs93P0LLxqlVEbI001UKoeCQC.jpg", "popularity": 40.415}, {"id": 332562, "video": false, "vote_count": 7182, "vote_average": 7.5, "title": "A Star Is Born", "release_date": "2018-10-03", "original_language": "en", "original_title": "A Star Is Born", "genre_ids": [18, 10402, 10749], "backdrop_path": "/mnDvPokXpvsdPcWSjNRPhiiLOKu.jpg", "adult": false, "overview": "Seasoned musician Jackson Maine discovers \u2014 and falls in love with \u2014 struggling artist Ally. She has just about given up on her dream to make it big as a singer \u2014 until Jack coaxes her into the spotlight. But even as Ally's career takes off, the personal side of their relationship is breaking down, as Jack fights an ongoing battle with his own internal demons.", "poster_path": "/wrFpXMNBRj2PBiN4Z5kix51XaIZ.jpg", "popularity": 37.528}, {"adult": false, "backdrop_path": "/ppDnBvf0f7vCZHRLtDjazpYHdTF.jpg", "genre_ids": [35, 10402, 10749], "id": 13368, "original_language": "en", "original_title": "White Christmas", "overview": "Two talented song-and-dance men team up after the war to become one of the hottest acts in show business. In time they befriend and become romantically involved with the beautiful Haynes sisters who comprise a sister act.", "poster_path": "/A5kBQsHKbIptxJyELEpHQJROCRj.jpg", "release_date": "1954-10-14", "title": "White Christmas", "video": false, "vote_average": 7.4, "vote_count": 250, "popularity": 10.494}, {"adult": false, "backdrop_path": "/3eAudH9hkkr451VoAZPLEQVy5wX.jpg", "genre_ids": [35, 18, 10402, 10749], "id": 6282, "original_language": "en", "original_title": "Coyote Ugly", "overview": "Graced with a velvet voice, 21-year-old Violet Sanford heads to New York to pursue her dream of becoming a songwriter only to find her aspirations sidelined by the accolades and notoriety she receives at her \"day\" job as a barmaid at Coyote Ugly. The \"Coyotes\" as they are affectionately called tantalize customers and the media alike with their outrageous antics, making Coyote Ugly the watering hole for guys on the prowl.", "poster_path": "/p3nIrS9rkdVmMmgKAWtGsmAnhGV.jpg", "release_date": "2000-07-30", "title": "Coyote Ugly", "video": false, "vote_average": 6.1, "vote_count": 1167, "popularity": 19.287}, {"id": 407655, "video": false, "vote_count": 421, "vote_average": 6.8, "title": "A Cinderella Story: If the Shoe Fits", "release_date": "2016-08-02", "original_language": "en", "original_title": "A Cinderella Story: If the Shoe Fits", "genre_ids": [35, 14, 10402, 10751], "backdrop_path": "/svYzELCLW0NGVEuvNraA4W7Hmm9.jpg", "adult": false, "overview": "A contemporary musical version of the classic Cinderella story in which the servant step daughter hope to compete in a musical competition for a famous pop star.", "poster_path": "/prZSNnK5dkYcflsbdOsVVvqasZ5.jpg", "popularity": 19.825}, {"id": 11887, "video": false, "vote_count": 2347, "vote_average": 6.5, "title": "High School Musical 3: Senior Year", "release_date": "2008-10-11", "original_language": "en", "original_title": "High School Musical 3: Senior Year", "genre_ids": [35, 18, 10402, 10749, 10751], "backdrop_path": "/daSGxGZL2nNjGZKkAF5ain3lmOx.jpg", "adult": false, "overview": "It's almost graduation day for high school seniors Troy, Gabriella, Sharpay, Chad, Ryan and Taylor \u2015 and the thought of heading off in separate directions after leaving East High has these Wildcats thinking they need to do something they'll remember forever. Together with the rest of the Wildcats, they stage a spring musical reflecting their hopes and fears about the future and their unforgettable experiences growing up together. But with graduation approaching and college plans in question, what will become of the dreams, romances, and friendships of East High's senior Wildcats?", "poster_path": "/ewZpH2QIfPQ0VIn9lPf7MHbLbl4.jpg", "popularity": 14.748}], "total_pages": 163, "total_results": 3244}, "recommendations": {"page": 1, "results": [], "total_pages": 1, "total_results": 0}, "credits": {"cast": [{"cast_id": 6, "character": "William J. 'Bill' Smith", "credit_id": "52fe464ec3a36847f80f7c9f", "gender": 2, "id": 70820, "name": "John Payne", "order": 0, "profile_path": "/2PRAP6XPLMQFK5eeJ63A7g0jvw.jpg"}, {"cast_id": 1, "character": "Pat Lambert", "credit_id": "52fe464ec3a36847f80f7c8d", "gender": 1, "id": 64838, "name": "Betty Grable", "order": 1, "profile_path": "/gVQkYy22SpHsZbPb4xyNNORrW6Z.jpg"}, {"cast_id": 3, "character": "Tommy Lundy", "credit_id": "52fe464ec3a36847f80f7c91", "gender": 2, "id": 30290, "name": "Victor Mature", "order": 2, "profile_path": "/aQpiinWT3QJQzLi7mWbW45kXXPz.jpg"}, {"cast_id": 7, "character": "Flo La Verne", "credit_id": "52fe464ec3a36847f80f7ca3", "gender": 1, "id": 20391, "name": "Jane Wyman", "order": 3, "profile_path": "/e7mRq5fOsVZ2dnTFfuQScDDs2ON.jpg"}, {"cast_id": 8, "character": "Bruce McKay", "credit_id": "52fe464ec3a36847f80f7ca7", "gender": 2, "id": 30537, "name": "James Gleason", "order": 4, "profile_path": "/ioE4cCouYzFRvqExhorQ5KmfCmq.jpg"}, {"cast_id": 4, "character": "Slap", "credit_id": "52fe464ec3a36847f80f7c95", "gender": 2, "id": 40178, "name": "Phil Silvers", "order": 5, "profile_path": "/AqPt8HXHVE11trMeRpQ33rrrxY9.jpg"}, {"cast_id": 9, "character": "Estelle Evans (as Cobina Wright Jr.)", "credit_id": "52fe464ec3a36847f80f7cab", "gender": 1, "id": 120717, "name": "Cobina Wright", "order": 6, "profile_path": "/xKt091G26gndHe5d80apSfdmyst.jpg"}, {"cast_id": 10, "character": "June", "credit_id": "52fe464ec3a36847f80f7caf", "gender": 1, "id": 227034, "name": "June Lang", "order": 7, "profile_path": "/qhOAu8RTGsE0mEDSXoWQ0zKeIyB.jpg"}, {"cast_id": 11, "character": "Mike the stage doorman", "credit_id": "52fe464ec3a36847f80f7cb3", "gender": 2, "id": 30240, "name": "Frank Orth", "order": 8, "profile_path": "/9n6ABKYcBmKRjo7yPAyAsd8yKEQ.jpg"}, {"cast_id": 12, "character": "Amos. Tommy's Dresser (as Manton Moreland)", "credit_id": "52fe464ec3a36847f80f7cb7", "gender": 2, "id": 89747, "name": "Mantan Moreland", "order": 9, "profile_path": "/B9nFE1tk7M8Q3nWrExchp2QRIy.jpg"}, {"cast_id": 13, "character": "Stagehand", "credit_id": "52fe464ec3a36847f80f7cbb", "gender": 2, "id": 30530, "name": "Irving Bacon", "order": 10, "profile_path": "/oI6h1L5HvvXLacBIlKoHcXrHbhI.jpg"}, {"cast_id": 14, "character": "Charlie, Stage manager", "credit_id": "57e1933dc3a36808b6001ec0", "gender": 0, "id": 115772, "name": "Charles Tannen", "order": 11, "profile_path": "/9KyhidWj4XjpYGqrvTQeSHjfpsN.jpg"}, {"cast_id": 15, "character": "Frank, Dance director", "credit_id": "57e19355c3a36808b9001ecc", "gender": 0, "id": 1491962, "name": "George Dobbs", "order": 12, "profile_path": null}], "crew": [{"credit_id": "58f9081f9251415bfd00d269", "department": "Sound", "gender": 2, "id": 6457, "job": "Original Music Composer", "name": "Charles Henderson", "profile_path": null}, {"credit_id": "58f9082c9251415c5900d2ca", "department": "Editing", "gender": 2, "id": 8505, "job": "Editor", "name": "Robert L. Simpson", "profile_path": null}, {"credit_id": "52fe464ec3a36847f80f7c9b", "department": "Directing", "gender": 2, "id": 10610, "job": "Director", "name": "Gregory Ratoff", "profile_path": "/1RYNLmLHJA3YYe0l893xTHjZXXL.jpg"}, {"credit_id": "58f90825c3a36875d000cce9", "department": "Camera", "gender": 2, "id": 13338, "job": "Director of Photography", "name": "Lee Garmes", "profile_path": null}, {"credit_id": "58f908189251415c4800d3fb", "department": "Production", "gender": 2, "id": 120449, "job": "Producer", "name": "William LeBaron", "profile_path": null}, {"credit_id": "57e19406c3a36808c3001ba1", "department": "Writing", "gender": 0, "id": 120464, "job": "Writer", "name": "Helen Logan", "profile_path": null}, {"credit_id": "5c276f84c3a3683a76d22d7c", "department": "Crew", "gender": 2, "id": 142625, "job": "Choreographer", "name": "Hermes Pan", "profile_path": "/vzMhrCLaKC7LycGeGS64fDaOM4j.jpg"}, {"credit_id": "57e19380925141151500048f", "department": "Writing", "gender": 0, "id": 178299, "job": "Writer", "name": "Robert Ellis", "profile_path": null}, {"credit_id": "57e193a192514115060004a4", "department": "Writing", "gender": 0, "id": 935862, "job": "Story", "name": "Kenneth Earl", "profile_path": null}, {"credit_id": "57e1941dc3a36808b6001f41", "department": "Writing", "gender": 2, "id": 1091264, "job": "Writer", "name": "Lynn Starling", "profile_path": null}, {"credit_id": "57e193d2c3a36808cf001be4", "department": "Writing", "gender": 0, "id": 1374801, "job": "Story", "name": "Fidel LaBarba", "profile_path": null}]}}