{"adult": false, "backdrop_path": "/hNAvStJ6U7LSofE8sdpE71DLQzu.jpg", "belongs_to_collection": null, "budget": 0, "genres": [{"id": 10402, "name": "Music"}, {"id": 10749, "name": "Romance"}], "homepage": null, "id": 43532, "imdb_id": "tt0057541", "original_language": "en", "original_title": "Summer Holiday", "overview": "1960s musical showcasing Cliff Richard. Four bus mechanics working for London Transport strike up a deal with the company: they do up a one of the company's legendary red double decker buses and take it to southern Europe as a mobile hotel. If it succeeds, they will be put in charge of a whole fleet. While on the road in France they pick up three young British ladies whose car breaks down and offer to take them to their next singing job in Athens. They also pick up a stowaway, who hides the fact that she's a famous American pop star on the run, chased by the media and her parents.", "popularity": 4.295, "poster_path": "/aCE8KJGRQ8I5kyhwigtROb8Vcjt.jpg", "production_companies": [{"id": 1441, "logo_path": "/28DJnfE2ZaR5oNJVlZ38uvnLaCH.png", "name": "Associated British Picture Corporation", "origin_country": "GB"}], "production_countries": [{"iso_3166_1": "GB", "name": "United Kingdom"}], "release_date": "1963-02-18", "revenue": 0, "runtime": 103, "spoken_languages": [{"iso_639_1": "en", "name": "English"}], "status": "Released", "tagline": "From the First Kiss to the Last Blush It's the Craziest Riot On Wheels!", "title": "Summer Holiday", "video": false, "vote_average": 6.1, "vote_count": 15, "keywords": {"keywords": [{"id": 4344, "name": "musical"}, {"id": 7312, "name": "road trip"}, {"id": 9444, "name": "europe journey"}, {"id": 14714, "name": "summer vacation"}, {"id": 186951, "name": "girl disguised as boy"}]}, "similar": {"page": 1, "results": [{"id": 872, "video": false, "vote_count": 1616, "vote_average": 8.2, "title": "Singin' in the Rain", "release_date": "1952-04-10", "original_language": "en", "original_title": "Singin' in the Rain", "genre_ids": [35, 10402, 10749], "backdrop_path": "/amW1YWQvcP8slDyDp1R652aVQZ7.jpg", "adult": false, "overview": "In 1927 Hollywood, a silent film production company and cast make a difficult transition to sound.", "poster_path": "/s39odBPtyutGBnEfBIpdm0fpRwv.jpg", "popularity": 20.625}, {"id": 504608, "video": false, "vote_count": 1661, "vote_average": 7.4, "title": "Rocketman", "release_date": "2019-05-22", "original_language": "en", "original_title": "Rocketman", "genre_ids": [18, 10402], "backdrop_path": "/sZZJ42GrWKxSOfcrpI2TSFQa0AQ.jpg", "adult": false, "overview": "The story of Elton John's life, from his years as a prodigy at the Royal Academy of Music through his influential and enduring musical partnership with Bernie Taupin.", "poster_path": "/f4FF18ia7yTvHf2izNrHqBmgH8U.jpg", "popularity": 26.576}, {"id": 18126, "video": false, "vote_count": 1217, "vote_average": 6.4, "title": "Hannah Montana: The Movie", "release_date": "2009-04-10", "original_language": "en", "original_title": "Hannah Montana: The Movie", "genre_ids": [35, 18, 10402, 10749, 10751], "backdrop_path": "/ezx3NkXNqf2KnJCP6Nfj1bfCFut.jpg", "adult": false, "overview": "As Hannah Montana's popularity begins to take over her life, Miley Stewart, on the urging from her father takes a trip to her hometown of Crowley Corners, Tennessee to get some perspective on what matters in life the most.", "poster_path": "/8pwbnmvshHj2yYPYlyJ8K8Yzecy.jpg", "popularity": 14.838}, {"id": 2005, "video": false, "vote_count": 1805, "vote_average": 6.7, "title": "Sister Act", "release_date": "1992-05-28", "original_language": "en", "original_title": "Sister Act", "genre_ids": [35, 10402], "backdrop_path": "/oaLqlJxt8TJSjsdfMpSkLexZ4l5.jpg", "adult": false, "overview": "A Reno singer witnesses a mob murder and the cops stash her in a nunnery to protect her from the mob's hitmen. The mother superior does not trust her, and takes steps to limit her influence on the other nuns. Eventually the singer rescues the failing choir and begins helping with community projects, which gets her an interview on TV\u2014and identification by the mob.", "poster_path": "/7wQxLtybiUbtC6tsJh9htFEmqq3.jpg", "popularity": 13.161}, {"id": 10537, "video": false, "vote_count": 603, "vote_average": 6.9, "title": "The Doors", "release_date": "1991-03-01", "original_language": "en", "original_title": "The Doors", "genre_ids": [18, 10402], "backdrop_path": "/1rv5sW6Qs2YK2iOzIgwH3SJPIl1.jpg", "adult": false, "overview": "The story of the famous and influential 1960s rock band and its lead singer and composer, Jim Morrison.", "poster_path": "/9CkFrWAkg23YynYd2uJLyWznMZZ.jpg", "popularity": 15.486}, {"id": 224141, "video": false, "vote_count": 3143, "vote_average": 5.7, "title": "Into the Woods", "release_date": "2014-12-24", "original_language": "en", "original_title": "Into the Woods", "genre_ids": [35, 14], "backdrop_path": "/lzJzB0QfkjpGCm9qUC4XpEIB6pm.jpg", "adult": false, "overview": "In a woods filled with magic and fairy tale characters, a baker and his wife set out to end the curse put on them by their neighbor, a spiteful witch.", "poster_path": "/5h91odPFNlBuJbRBj5N4MEBfXDE.jpg", "popularity": 28.397}, {"id": 332562, "video": false, "vote_count": 7176, "vote_average": 7.5, "title": "A Star Is Born", "release_date": "2018-10-03", "original_language": "en", "original_title": "A Star Is Born", "genre_ids": [18, 10402, 10749], "backdrop_path": "/mnDvPokXpvsdPcWSjNRPhiiLOKu.jpg", "adult": false, "overview": "Seasoned musician Jackson Maine discovers \u2014 and falls in love with \u2014 struggling artist Ally. She has just about given up on her dream to make it big as a singer \u2014 until Jack coaxes her into the spotlight. But even as Ally's career takes off, the personal side of their relationship is breaking down, as Jack fights an ongoing battle with his own internal demons.", "poster_path": "/wrFpXMNBRj2PBiN4Z5kix51XaIZ.jpg", "popularity": 32.943}, {"adult": false, "backdrop_path": "/ppDnBvf0f7vCZHRLtDjazpYHdTF.jpg", "genre_ids": [35, 10402, 10749], "id": 13368, "original_language": "en", "original_title": "White Christmas", "overview": "Two talented song-and-dance men team up after the war to become one of the hottest acts in show business. In time they befriend and become romantically involved with the beautiful Haynes sisters who comprise a sister act.", "poster_path": "/A5kBQsHKbIptxJyELEpHQJROCRj.jpg", "release_date": "1954-10-14", "title": "White Christmas", "video": false, "vote_average": 7.4, "vote_count": 250, "popularity": 16.622}, {"adult": false, "backdrop_path": "/3eAudH9hkkr451VoAZPLEQVy5wX.jpg", "genre_ids": [35, 18, 10402, 10749], "id": 6282, "original_language": "en", "original_title": "Coyote Ugly", "overview": "Graced with a velvet voice, 21-year-old Violet Sanford heads to New York to pursue her dream of becoming a songwriter only to find her aspirations sidelined by the accolades and notoriety she receives at her \"day\" job as a barmaid at Coyote Ugly. The \"Coyotes\" as they are affectionately called tantalize customers and the media alike with their outrageous antics, making Coyote Ugly the watering hole for guys on the prowl.", "poster_path": "/p3nIrS9rkdVmMmgKAWtGsmAnhGV.jpg", "release_date": "2000-07-30", "title": "Coyote Ugly", "video": false, "vote_average": 6.1, "vote_count": 1166, "popularity": 20.571}, {"id": 407655, "video": false, "vote_count": 421, "vote_average": 6.8, "title": "A Cinderella Story: If the Shoe Fits", "release_date": "2016-08-02", "original_language": "en", "original_title": "A Cinderella Story: If the Shoe Fits", "genre_ids": [35, 14, 10402, 10751], "backdrop_path": "/svYzELCLW0NGVEuvNraA4W7Hmm9.jpg", "adult": false, "overview": "A contemporary musical version of the classic Cinderella story in which the servant step daughter hope to compete in a musical competition for a famous pop star.", "poster_path": "/prZSNnK5dkYcflsbdOsVVvqasZ5.jpg", "popularity": 23.748}, {"id": 11887, "video": false, "vote_count": 2347, "vote_average": 6.5, "title": "High School Musical 3: Senior Year", "release_date": "2008-10-11", "original_language": "en", "original_title": "High School Musical 3: Senior Year", "genre_ids": [35, 18, 10402, 10749, 10751], "backdrop_path": "/daSGxGZL2nNjGZKkAF5ain3lmOx.jpg", "adult": false, "overview": "It's almost graduation day for high school seniors Troy, Gabriella, Sharpay, Chad, Ryan and Taylor \u2015 and the thought of heading off in separate directions after leaving East High has these Wildcats thinking they need to do something they'll remember forever. Together with the rest of the Wildcats, they stage a spring musical reflecting their hopes and fears about the future and their unforgettable experiences growing up together. But with graduation approaching and college plans in question, what will become of the dreams, romances, and friendships of East High's senior Wildcats?", "poster_path": "/ewZpH2QIfPQ0VIn9lPf7MHbLbl4.jpg", "popularity": 19.967}, {"adult": false, "backdrop_path": "/3mhNnNmfCGrjyVEZhjWRVcjMOSi.jpg", "genre_ids": [14, 16, 10749, 10751], "id": 54113, "original_language": "en", "original_title": "The Swan Princess: Escape from Castle Mountain", "overview": "The first wedding anniversary of Princess Odette and Prince Derek is distracted by field fires set by Knuckles. His master Clavius, wants to conquer the world, and he needs to capture a giant orb to do that. Clavius kidnaps Queen Uberta and Odette with Derek have to save her.", "poster_path": "/oTEgvTpAIugS7OH6oIoVZkmV3C3.jpg", "release_date": "1997-01-01", "title": "The Swan Princess: Escape from Castle Mountain", "video": false, "vote_average": 6.0, "vote_count": 198, "popularity": 15.715}, {"id": 506574, "video": false, "vote_count": 484, "vote_average": 7.7, "title": "Descendants 3", "release_date": "2019-08-09", "original_language": "en", "original_title": "Descendants 3", "genre_ids": [12, 10402, 10751, 10770], "backdrop_path": "/iBJCHz6wWgyxbDmUD2Wk5huxbwS.jpg", "adult": false, "overview": "The teenagers of Disney's most infamous villains return to the Isle of the Lost to recruit a new batch of villainous offspring to join them at Auradon Prep.", "poster_path": "/7IRy0iHdaS0JI3ng4ZYlk5gLSFn.jpg", "popularity": 43.276}, {"adult": false, "backdrop_path": "/5OeY4U2rzePxWq2rkqMajUx2gz7.jpg", "genre_ids": [16, 10751, 12, 14, 10749], "id": 812, "original_language": "en", "original_title": "Aladdin", "overview": "Princess Jasmine grows tired of being forced to remain in the palace, so she sneaks out into the marketplace, in disguise, where she meets street-urchin Aladdin.  The couple falls in love, although Jasmine may only marry a prince.  After being thrown in jail, Aladdin becomes embroiled in a plot to find a mysterious lamp, with which the evil Jafar hopes to rule the land.", "poster_path": "/mjKozYRuHc9j7SmiXmbVmCiAM0A.jpg", "release_date": "1992-11-25", "title": "Aladdin", "video": false, "vote_average": 7.6, "vote_count": 7288, "popularity": 46.629}, {"adult": false, "backdrop_path": "/6bnI08rrGXRkngRqJWCMXDZuJ1j.jpg", "genre_ids": [35, 10402], "id": 254470, "original_language": "en", "original_title": "Pitch Perfect 2", "overview": "The Bellas are back, and they are better than ever. After being humiliated in front of none other than the President of the United States of America, the Bellas are taken out of the Aca-Circuit. In order to clear their name, and regain their status, the Bellas take on a seemingly impossible task: winning an international competition no American team has ever won. In order to accomplish this monumental task, they need to strengthen the bonds of friendship and sisterhood and blow away the competition with their amazing aca-magic! With all new friends and old rivals tagging along for the trip, the Bellas can hopefully accomplish their dreams.", "poster_path": "/qSjruLiFB4uqRtz2xheQPxG8uaB.jpg", "release_date": "2015-05-07", "title": "Pitch Perfect 2", "video": false, "vote_average": 6.8, "vote_count": 3898, "popularity": 27.354}, {"adult": false, "backdrop_path": "/3nG6BBIxgqbIM5p1iO61RyKzUkZ.jpg", "genre_ids": [16, 10751, 14, 12, 35, 10749], "id": 11970, "original_language": "en", "original_title": "Hercules", "overview": "Bestowed with superhuman strength, a young mortal named Hercules sets out to prove himself a hero in the eyes of his father, the great god Zeus. Along with his friends Pegasus, a flying horse, and Phil, a personal trainer, Hercules is tricked by the hilarious, hotheaded villain Hades, who's plotting to take over Mount Olympus!", "poster_path": "/eFlBFMAifj436QctX3akDkUnhlk.jpg", "release_date": "1997-06-20", "title": "Hercules", "video": false, "vote_average": 7.5, "vote_count": 4316, "popularity": 27.252}, {"id": 703, "video": false, "vote_count": 2268, "vote_average": 7.8, "title": "Annie Hall", "release_date": "1977-04-19", "original_language": "en", "original_title": "Annie Hall", "genre_ids": [35, 18, 10749], "backdrop_path": "/8iNt5LGxpX9XeNWJgjx17xfTT7u.jpg", "adult": false, "overview": "New York comedian Alvy Singer falls in love with the ditsy Annie Hall.", "poster_path": "/bK9bLXwxWuXX5mbq75PZqjvAtfG.jpg", "popularity": 15.038}, {"adult": false, "backdrop_path": "/4brEMzPazQE3hv3mogj6k1a29RP.jpg", "genre_ids": [10749, 14, 16], "id": 3933, "original_language": "en", "original_title": "Corpse Bride", "overview": "Set in a 19th-century european village, this stop-motion animation feature follows the story of Victor, a young man whisked away to the underworld and wed to a mysterious corpse bride, while his real bride Victoria waits bereft in the land of the living.", "poster_path": "/o9GbcdP7rOg2m1NyUnUR3ZwNcTE.jpg", "release_date": "2005-09-12", "title": "Corpse Bride", "video": false, "vote_average": 7.4, "vote_count": 4926, "popularity": 16.93}, {"adult": false, "backdrop_path": "/9YAVIwBcBrLXeukg2dgMGfYB1uu.jpg", "genre_ids": [12, 16, 10751, 10749], "id": 10530, "original_language": "en", "original_title": "Pocahontas", "overview": "Pocahontas, daughter of a Native American tribe chief, falls in love with an English soldier as colonists invade 17th century Virginia.", "poster_path": "/kZ1ft0QZ4e3zDUPMBftEkwI9ftd.jpg", "release_date": "1995-06-14", "title": "Pocahontas", "video": false, "vote_average": 6.9, "vote_count": 3584, "popularity": 21.153}, {"adult": false, "backdrop_path": "/h6NQoXBxD0uaIrpuk9FFV89vITT.jpg", "genre_ids": [10402, 35, 10751, 14, 18], "id": 10437, "original_language": "en", "original_title": "The Muppet Christmas Carol", "overview": "A retelling of the classic Dickens tale of Ebenezer Scrooge, miser extraordinaire. He is held accountable for his dastardly ways during night-time visitations by the Ghosts of Christmas Past, Present, and future.", "poster_path": "/fe4nLJkDNXhyuMnrZ60MfoSpPes.jpg", "release_date": "1992-12-10", "title": "The Muppet Christmas Carol", "video": false, "vote_average": 7.4, "vote_count": 497, "popularity": 13.269}], "total_pages": 176, "total_results": 3510}, "recommendations": {"page": 1, "results": [{"adult": false, "backdrop_path": "/gLLbYHNAb6deupUPmyJnFKbg2cK.jpg", "genre_ids": [35, 10402], "id": 115494, "original_language": "en", "original_title": "The Young Ones", "overview": "Nicky and his friends find that their youth club is in danger of being flattened to make way for a new office block unless they can come up with \u00a31500 to pay the new owner, the ruthless property tycoon Hamilton Black. To help raise the cash, Nicky records a song and his friends broadcast it via a pirate radio station, touting him as \"The Mystery Singer\" - the plan works and interest in their up and coming show is heightened by this new but unknown heart-throb. But Nicky has an even bigger secret and one that he cannot share, even with his girlfriend Toni... Hamilton Black is his father.", "poster_path": "/hqug47lKum6v5peFXQR2p1C3A9n.jpg", "release_date": "1961-12-19", "title": "The Young Ones", "video": false, "vote_average": 7.0, "vote_count": 6, "popularity": 3.089}, {"id": 613178, "video": false, "vote_count": 3, "vote_average": 6.0, "title": "Shadow Wolves", "release_date": "2019-07-02", "original_language": "en", "original_title": "Shadow Wolves", "genre_ids": [28, 12, 53], "backdrop_path": "/8QL9d851z1RAKL6ceItS0i4dA3S.jpg", "adult": false, "overview": "A rogue NSA agent joins an elite group of Native American trackers who call themselves the Shadow Wolves as they engage in missions to protect justice in America and abroad.", "poster_path": "/6Uf76RQQGICFq1xjJ1hn7IEYqnN.jpg", "popularity": 12.942}, {"id": 41774, "video": false, "vote_count": 8, "vote_average": 6.5, "title": "The Playboys", "release_date": "1992-04-22", "original_language": "en", "original_title": "The Playboys", "genre_ids": [18, 10749], "backdrop_path": "/tst9mPqmEkYJAMicLw78cfKdpQh.jpg", "adult": false, "overview": "A young woman, Tara Maguire (Robin Wright) scandalizes her provincial Irish village in the 1950s by having a baby out of a wedlock, and refusing to name the father. She has a rare beauty and every man in town desires her, especially Sergeant Hegarty (Albert Finney). The arrival of a dramatic troupe stirs things up even more, especially when she falls in love with one f the \"Playboys\", Tom Casey (Aidan Quinn).", "poster_path": "/yZlwsGAzArv2FIecuCmou1Ss7Gp.jpg", "popularity": 3.576}, {"adult": false, "backdrop_path": "/uyFLdBwvv7Iwutgn1YBx6OEXCSl.jpg", "genre_ids": [37], "id": 141666, "original_language": "en", "original_title": "Gunfight in Abilene", "overview": "Fighting in the Civil War a man accidently kills his friend. Returning to Abilene after the war he finds his former sweetheart about to marry the brother of the man he killed. To pay his debt he not only refuses to win her back but takes the job of Sheriff, a job he doesn't want, when the brother asks him. Still haunted by the killing he refuses to carry a gun. But there is trouble between the ranchers and the farmers and when he finds the brother murdered he straps on a gun and heads after the killer.", "poster_path": "/z5C30PhewJDjGxd831MesC65eg8.jpg", "release_date": "1967-02-03", "title": "Gunfight in Abilene", "video": false, "vote_average": 5.6, "vote_count": 5, "popularity": 1.974}, {"id": 115972, "video": false, "vote_count": 11, "vote_average": 5.8, "title": "Sword of Sherwood Forest", "release_date": "1960-12-26", "original_language": "en", "original_title": "Sword of Sherwood Forest", "genre_ids": [12, 14], "backdrop_path": "/ec3tsJDbyoZjZl6Y1mpDX4e67mn.jpg", "adult": false, "overview": "Robin of Loxley and his men stumble on a plot to overthrow Hubert Walter, King's Chancellor and Archbishop of Canterbury. The plotters, the Sheriff of Nottingham and the Earl of Newark, have set an ambush for Walter and Lady Marian Fitzwater. Will Robin get to them before it is too late?", "poster_path": "/hW7DR17xXJ9A3h5vXM6h3UfSBJc.jpg", "popularity": 5.573}, {"adult": false, "backdrop_path": "/wuhtPwdmsIggkUZr9oahfmMkBrO.jpg", "genre_ids": [80, 28], "id": 85126, "original_language": "en", "original_title": "Hickey & Boggs", "overview": "Two veteran private eyes trigger a criminal reign of terror with their search for a missing girl.", "poster_path": "/eF8C8zOZtyy80a3xsFofdGri74w.jpg", "release_date": "1972-10-04", "title": "Hickey & Boggs", "video": false, "vote_average": 6.6, "vote_count": 15, "popularity": 5.352}, {"adult": false, "backdrop_path": "/nXIb7k8v0YhjThP8h9Hlfyqlu6k.jpg", "genre_ids": [53], "id": 148109, "original_language": "en", "original_title": "Tower of Terror", "overview": "Wartime Germany: Marie, a concentration camp escapee on the run from the Nazis, narrowly escapes drowing when she is rescued by Wolfe Kristan a half-mad lighthouse keeper. Brought aboard the lighthouse itself, she begins to fall in love with the assistant keeper who, unknown to her, is a British spy. As the couple become more intimate, Kristan's jealously finally pushes him over the brink and into full-blown madness...", "poster_path": "/5y0YEYZYpTFGcKv3w2KdrDFcrR8.jpg", "release_date": "1941-12-27", "title": "Tower of Terror", "video": false, "vote_average": 6.5, "vote_count": 4, "popularity": 2.727}, {"id": 25915, "video": false, "vote_count": 13, "vote_average": 6.2, "title": "Shockproof", "release_date": "1949-01-25", "original_language": "en", "original_title": "Shockproof", "genre_ids": [80, 18], "backdrop_path": "/j5xf8IXutYHSfTS3hlnhXrn7kUX.jpg", "adult": false, "overview": "Jenny Marsh is a hard-luck dame who's just finished five years in the slammer for killing a man. Jenny's not exactly the murdering type -- she did the deed while defending her jailbird lover, Harry, which is probably one reason she's attracted the attention of her parole officer, Griff Marat. In fact, Griff is so taken with Jenny that he gets her a job caring for his ailing mother, but although Jenny tries to fly right, she's not yet over Harry.", "poster_path": "/srnSYqErnxbJCrARj0n36oBc9iB.jpg", "popularity": 5.124}, {"adult": false, "backdrop_path": "/6XMJsBAsAdIH5lE89lLc4i8PNkt.jpg", "genre_ids": [28, 35], "id": 32100, "original_language": "en", "original_title": "The Human Tornado", "overview": "Dolemite comes to the rescue of Queen Bee, whose Nightclub is threatened by the Mafia.", "poster_path": "/q2ziWql5KNyZUerDDt9CEA9F5bp.jpg", "release_date": "1976-10-02", "title": "The Human Tornado", "video": false, "vote_average": 6.2, "vote_count": 20, "popularity": 4.007}, {"adult": false, "backdrop_path": "/aO3mV8xlJdgygSTg1J3J5CN5oBm.jpg", "genre_ids": [28, 80, 18, 53], "id": 55766, "original_language": "en", "original_title": "Sweeney 2", "overview": "The plot is set on a group of bank robbers, who are both violent and successful, strangely getting away each time with an amount around the \u00a360,000 mark, and often leaving behind cash in excess of this sum. The robbers are willing to kill their own team, to get away. As Jack Regan himself puts it after the first raid in the film: \"I've never seen so many dead people\". Armed with gold-plated Purdey shotguns, they evaded Regan and the Flying Squad for quite some time, before Regan finds encouragement from his Detective Chief Superintendent who was sent down for corruption because Jack wouldn't testify in court for him.", "poster_path": "/cOR98L8qK87rBSFhwcV7tFclJnv.jpg", "release_date": "1978-03-30", "title": "Sweeney 2", "video": false, "vote_average": 7.8, "vote_count": 4, "popularity": 3.774}, {"adult": false, "backdrop_path": "/ojl6ucyLQx3OFSlv8UubaoHbjE2.jpg", "genre_ids": [18], "id": 252772, "original_language": "en", "original_title": "A Man About the House", "overview": "Handsome Italian laborer Kieron Moore works as caretaker of the Neopolitan villa inherited by plain-Jane Englishwomen Margaret Johnston and Dulcie Gray. Johnston is swept off her feet by the raffishly charming Moore, and before long they are wed.", "poster_path": "/wfgNnC127thcNS202kqmjyoZzYL.jpg", "release_date": "1947-10-03", "title": "A Man About the House", "video": false, "vote_average": 7.4, "vote_count": 5, "popularity": 2.805}, {"id": 52083, "video": false, "vote_count": 12, "vote_average": 5.7, "title": "The Missionary", "release_date": "1982-11-02", "original_language": "en", "original_title": "The Missionary", "genre_ids": [35], "backdrop_path": "/1ShOL0IA6597n984EYcyWbQW6dO.jpg", "adult": false, "overview": "In 1905, after 10 years of missionary work in Africa, the Rev. Charles Fortesque is recalled to England, where his bishop gives him his new assignment - to minister to London's prostitutes", "poster_path": "/q9brTNWdI9ZueihzdnbwWCDzOQ.jpg", "popularity": 4.842}, {"id": 32489, "video": false, "vote_count": 37, "vote_average": 7.2, "title": "Thoroughly Modern Millie", "release_date": "1967-03-22", "original_language": "en", "original_title": "Thoroughly Modern Millie", "genre_ids": [35, 10402, 10749], "backdrop_path": "/jGDPdafQQX9iIWzA8U53XgKK0C6.jpg", "adult": false, "overview": "Millie Dillmount, a fearless young lady fresh from Salina, Kansas, determined to experience Life, sets out to see the world in the rip-roaring Twenties. With high spirits and wearing one of those new high hemlines, she arrives in New York to test the \"modern\" ideas she had been reading about back in Kansas: \"I've taken the girl out of Kansas. Now I have to take Kansas out of the girl!\"", "poster_path": "/9fVnSg4StB1kE84z3bsaUuUSXUy.jpg", "popularity": 6.693}, {"adult": false, "backdrop_path": "/lGWH4TlMJLWUq2ZajY64leevM2h.jpg", "genre_ids": [35, 53], "id": 42633, "original_language": "en", "original_title": "No Way to Treat a Lady", "overview": "Christopher Gill is a psychotic killer who uses various disguises to trick and strangle his victims. Moe Brummel is a single and harassed New York City police detective who starts to get phone calls from the strangler and builds a strange alliance as a result. Kate Palmer is a swinging, hip tour guide who witnesses the strangler leaving her dead neighbor's apartment and sets her sights on the detective. Moe's live-in mother wishes her son would be a successful Jewish doctor like his big brother.", "poster_path": "/s7PNSefGqMsucSxPD9p8qD6lmEO.jpg", "release_date": "1968-03-20", "title": "No Way to Treat a Lady", "video": false, "vote_average": 6.6, "vote_count": 16, "popularity": 3.768}, {"adult": false, "backdrop_path": "/eOdchW2YmkxVNribgy0Doni299y.jpg", "genre_ids": [28, 53], "id": 25720, "original_language": "en", "original_title": "The Whistle Blower", "overview": "A war veteran tries to investigate the murder of his son who was working as a Russian translator for the British intelligence service during the Cold War. He meets a web of deception and paranoia that seems impenetrable...", "poster_path": "/zmkhdouM05tCQDIEQVqKwpK2NGh.jpg", "release_date": "1986-11-21", "title": "The Whistle Blower", "video": false, "vote_average": 6.1, "vote_count": 19, "popularity": 3.629}], "total_pages": 1, "total_results": 15}, "credits": {"cast": [{"cast_id": 2, "character": "Don", "credit_id": "52fe464fc3a36847f80f7f49", "gender": 2, "id": 23220, "name": "Cliff Richard", "order": 0, "profile_path": "/n4dhAR8MophuQSmBu8IKBKhDLyx.jpg"}, {"cast_id": 3, "character": "Barbara", "credit_id": "52fe464fc3a36847f80f7f4d", "gender": 1, "id": 126767, "name": "Lauri Peters", "order": 1, "profile_path": "/mVTraIZmtNx3a9B6zW35wCQ2eCa.jpg"}, {"cast_id": 4, "character": "Cryil", "credit_id": "52fe464fc3a36847f80f7f51", "gender": 2, "id": 30188, "name": "Melvyn Hayes", "order": 2, "profile_path": "/4qEhKuR1lrkRfIJbeZRx1lWZcbL.jpg"}, {"cast_id": 11, "character": "Sandy", "credit_id": "5350c6dcc3a3681d8d000b83", "gender": 1, "id": 1218303, "name": "Una Stubbs", "order": 3, "profile_path": "/lRPlh8IjKZHmXzcsQSsbCLLpbm.jpg"}, {"cast_id": 12, "character": "Steve", "credit_id": "5aa5e8139251415e4200124f", "gender": 0, "id": 1244813, "name": "Teddy Green", "order": 4, "profile_path": "/eL62ZjOwrfC4PgISOnXpqnfKilK.jpg"}, {"cast_id": 13, "character": "Angie", "credit_id": "5aa5e837c3a36839e4001432", "gender": 0, "id": 1996477, "name": "Pamela Hart", "order": 5, "profile_path": null}, {"cast_id": 14, "character": "Edwin", "credit_id": "5aa5e8430e0a263dd000135a", "gender": 0, "id": 33185, "name": "Jeremy Bulloch", "order": 6, "profile_path": "/yRnHoDmmWKdoLdiscCFfRpzzqMa.jpg"}, {"cast_id": 15, "character": "Mimsie", "credit_id": "5aa5e84f9251415e3900126d", "gender": 0, "id": 1996478, "name": "Jacqueline Daryl", "order": 7, "profile_path": null}, {"cast_id": 16, "character": "Stella", "credit_id": "5aa5e85d0e0a263dc40012dc", "gender": 1, "id": 39033, "name": "Madge Ryan", "order": 8, "profile_path": "/oplc4qU1rDxnQ7Msl2He84J6zlb.jpg"}, {"cast_id": 17, "character": "Jerry", "credit_id": "5aa5e86a9251415e48001161", "gender": 2, "id": 141494, "name": "Lionel Murton", "order": 9, "profile_path": "/aGU7vs37UkQP10zj18JgASJlpJn.jpg"}, {"cast_id": 18, "character": "Annie", "credit_id": "5aa5e8769251415e3c0011c9", "gender": 0, "id": 1996479, "name": "Christine Lawson", "order": 10, "profile_path": null}, {"cast_id": 19, "character": "Orlando", "credit_id": "5aa5e882c3a36839cb0012bb", "gender": 2, "id": 41236, "name": "Ron Moody", "order": 11, "profile_path": "/21sEsEm1yRmDO9UxrG1WNDVfwPl.jpg"}, {"cast_id": 20, "character": "Magistrate", "credit_id": "5aa5e88fc3a36839d50013fb", "gender": 2, "id": 29675, "name": "David Kossoff", "order": 12, "profile_path": "/d5xMGFITkes230NjLQ8F5u7RU3f.jpg"}, {"cast_id": 21, "character": "Shepherdess / Dancer (as Wendy Barry)", "credit_id": "5aa5e8b69251415e420012f4", "gender": 0, "id": 1996480, "name": "Wendy Barrie", "order": 13, "profile_path": null}, {"cast_id": 22, "character": "Wrightmore", "credit_id": "5aa5e8c30e0a263dd6001309", "gender": 2, "id": 115602, "name": "Nicholas Phipps", "order": 14, "profile_path": "/mfRsMnUNji80BWzF2yHDKp3UpTO.jpg"}], "crew": [{"credit_id": "52fe464fc3a36847f80f7f45", "department": "Directing", "gender": 2, "id": 12804, "job": "Director", "name": "Peter Yates", "profile_path": "/skBRJxvtvkylZXk6zjNPvwytr5S.jpg"}, {"credit_id": "52fe464fc3a36847f80f7f5b", "department": "Camera", "gender": 2, "id": 30670, "job": "Director of Photography", "name": "John Wilcox", "profile_path": null}, {"credit_id": "52fe464fc3a36847f80f7f61", "department": "Production", "gender": 0, "id": 32569, "job": "Producer", "name": "Kenneth Harper", "profile_path": null}, {"credit_id": "52fe464fc3a36847f80f7f67", "department": "Writing", "gender": 2, "id": 19611, "job": "Screenplay", "name": "Peter Myers", "profile_path": null}, {"credit_id": "52fe464fc3a36847f80f7f6d", "department": "Writing", "gender": 0, "id": 32567, "job": "Screenplay", "name": "Ronald Cass", "profile_path": null}, {"credit_id": "52fe464fc3a36847f80f7f73", "department": "Editing", "gender": 0, "id": 32571, "job": "Editor", "name": "Jack Slade", "profile_path": null}, {"credit_id": "5c4c6e78925141544854f38c", "department": "Costume & Make-Up", "gender": 1, "id": 2217128, "job": "Wardrobe Master", "name": "Rebecca Breed", "profile_path": null}]}}