{"adult": false, "backdrop_path": "/9s0syyiTBaXiJ7ZofeICobPR8Vo.jpg", "belongs_to_collection": null, "budget": 0, "genres": [{"id": 99, "name": "Documentary"}], "homepage": null, "id": 43618, "imdb_id": "tt0059817", "original_language": "ja", "original_title": "\u6771\u4eac\u30aa\u30ea\u30f3\u30d4\u30c3\u30af", "overview": "This impressionistic portrait of the 1964 Tokyo Summer Olympics pays as much attention to the crowds and workers as it does to the actual competitive events. Highlights include an epic pole-vaulting match between West Germany and America, and the final marathon race through Tokyo's streets. Two athletes are highlighted: Ethiopian marathon runner Abebe Bikila, who receives his second gold medal, and runner Ahamed Isa from Chad, representing a country younger than he is.", "popularity": 2.05, "poster_path": "/sEw2E52QM3vTj7Pal3iQNguobXw.jpg", "production_companies": [{"id": 99694, "logo_path": null, "name": "Tokyo Olympic Film Association", "origin_country": ""}], "production_countries": [{"iso_3166_1": "JP", "name": "Japan"}], "release_date": "1965-09-24", "revenue": 0, "runtime": 170, "spoken_languages": [{"iso_639_1": "ja", "name": "\u65e5\u672c\u8a9e"}], "status": "Released", "tagline": "", "title": "Tokyo Olympiad", "video": false, "vote_average": 8.0, "vote_count": 15, "keywords": {"keywords": [{"id": 2070, "name": "olympic games"}, {"id": 6075, "name": "sport"}]}, "similar": {"page": 1, "results": [{"adult": false, "backdrop_path": "/qVjKZMB0IdOc2JlwiiGsuKTvTJs.jpg", "genre_ids": [18], "id": 22881, "original_language": "en", "original_title": "The Blind Side", "overview": "The story of Michael Oher, a homeless and traumatized boy who became an All American football player and first round NFL draft pick with the help of a caring woman and her family", "poster_path": "/wEGFSgPebLk6g1ngKsJ6a46PYLV.jpg", "release_date": "2009-11-20", "title": "The Blind Side", "video": false, "vote_average": 7.5, "vote_count": 3212, "popularity": 30.144}, {"adult": false, "backdrop_path": "/jK3EAFk3GdOaQfUDCOiTujzMpwH.jpg", "genre_ids": [18], "id": 389015, "original_language": "en", "original_title": "I, Tonya", "overview": "Competitive ice skater Tonya Harding rises amongst the ranks at the U. S. Figure Skating Championships, but her future in the sport is thrown into doubt when her ex-husband intervenes.", "poster_path": "/6gNXwSHxaksR1PjVZRqNapmkgj3.jpg", "release_date": "2017-12-08", "title": "I, Tonya", "video": false, "vote_average": 7.5, "vote_count": 3327, "popularity": 19.513}, {"id": 8923, "video": false, "vote_count": 1358, "vote_average": 7.2, "title": "Green Street Hooligans", "release_date": "2005-09-09", "original_language": "en", "original_title": "Green Street Hooligans", "genre_ids": [80, 18], "backdrop_path": "/oasVTD3UpTEjhTAVx9ZCy1k19Qv.jpg", "adult": false, "overview": "After being wrongfully expelled from Harvard University, American Matt Buckner flees to his sister's home in England. Once there, he is befriended by her charming and dangerous brother-in-law, Pete Dunham, and introduced to the underworld of British football hooliganism. Matt learns to stand his ground through a friendship that develops against the backdrop of this secret and often violent world. 'Green Street Hooligans' is a story of loyalty, trust and the sometimes brutal consequences of living close to the edge.", "poster_path": "/z3LC4kI8azbeuHRGgDdWo6VBCdX.jpg", "popularity": 14.424}, {"adult": false, "backdrop_path": "/n1Gh3MJAVvXmkgSDf3SOLlPCjag.jpg", "genre_ids": [35, 18, 10749], "id": 9390, "original_language": "en", "original_title": "Jerry Maguire", "overview": "Jerry Maguire used to be a typical sports agent: willing to do just about anything he could to get the biggest possible contracts for his clients, plus a nice commission for himself. Then, one day, he suddenly has second thoughts about what he's really doing. When he voices these doubts, he ends up losing his job and all of his clients, save Rod Tidwell, an egomaniacal football player.", "poster_path": "/99YTEdKOKDRClsscOpJfdkbaTrQ.jpg", "release_date": "1996-12-13", "title": "Jerry Maguire", "video": false, "vote_average": 6.9, "vote_count": 1794, "popularity": 16.867}, {"adult": false, "backdrop_path": "/kBTdPNTAzagAY6UiwY957KCDGuu.jpg", "genre_ids": [16, 35, 10751], "id": 2300, "original_language": "en", "original_title": "Space Jam", "overview": "Swackhammer, an evil alien theme park owner, needs a new attraction at Moron Mountain. When his gang, the Nerdlucks, heads to Earth to kidnap Bugs Bunny and the Looney Tunes, Bugs challenges them to a basketball game to determine their fate. The aliens agree, but they steal the powers of NBA basketball players, including Larry Bird and Charles Barkley -- so Bugs gets some help from superstar Michael Jordan.", "poster_path": "/xI9AwhOWtsbFlS8tYD2PXa80p7u.jpg", "release_date": "1996-11-15", "title": "Space Jam", "video": false, "vote_average": 6.7, "vote_count": 3179, "popularity": 15.582}, {"adult": false, "backdrop_path": "/eD8PxfDsmWyUcj2LzQ9Ha2O7UvB.jpg", "genre_ids": [99], "id": 614423, "original_language": "en", "original_title": "Collingwood: From The Inside Out", "overview": "An  intimate look at Collingwood Football Club as it rebuilds itself and aims for glory over the course of the 2018 season.", "poster_path": "/dsJMvBJ7M2HvGkJdhW4nKNHEgDs.jpg", "release_date": "2019-08-15", "title": "Collingwood: From The Inside Out", "video": false, "vote_average": 1.0, "vote_count": 1, "popularity": 1.602}, {"id": 630633, "video": false, "vote_count": 0, "vote_average": 0.0, "title": "Varane : Destin de Champion", "release_date": "2019-09-23", "original_language": "fr", "original_title": "Varane : Destin de Champion", "genre_ids": [99], "backdrop_path": null, "adult": false, "overview": "", "poster_path": "/ecUI8DO8lfk5FUca0IF2SNgsgtn.jpg", "popularity": 1.106}, {"adult": false, "backdrop_path": "/20IgqkdFw5kuItqDCJtidSESP0t.jpg", "genre_ids": [27, 18], "id": 10066, "original_language": "en", "original_title": "House of Wax", "overview": "A group of unwitting teens are stranded near a strange wax museum and soon must fight to survive and keep from becoming the next exhibit.", "poster_path": "/uM1RebQywM5PPYsauayefpXGxVk.jpg", "release_date": "2005-04-30", "title": "House of Wax", "video": false, "vote_average": 5.7, "vote_count": 1531, "popularity": 21.972}, {"adult": false, "backdrop_path": "/mYKP6qcDUimVMAHQWLOuDHjO19S.jpg", "genre_ids": [35], "id": 445629, "original_language": "en", "original_title": "Fighting with My Family", "overview": "Born into a tight-knit wrestling family, Paige and her brother Zak are ecstatic when they get the once-in-a-lifetime opportunity to try out for the WWE. But when only Paige earns a spot in the competitive training program, she must leave her loved ones behind and face this new cutthroat world alone. Paige's journey pushes her to dig deep and ultimately prove to the world that what makes her different is the very thing that can make her a star.", "poster_path": "/cVhe15rJLRjolunSWLBN6xQLyGU.jpg", "release_date": "2019-02-14", "title": "Fighting with My Family", "video": false, "vote_average": 6.7, "vote_count": 642, "popularity": 23.641}, {"adult": false, "backdrop_path": "/qnWGw3n1R0OhPkoB1cYTTax5LMU.jpg", "genre_ids": [35, 10751, 14], "id": 23023, "original_language": "en", "original_title": "Tooth Fairy", "overview": "When minor-league hockey player Derek Thompson -- who has a penchant for knocking out his opponents' teeth every time he plays -- disillusions a fan, he is sentenced to a stint for one week as a bona fide, tutu-clad, real-life tooth fairy. Soon, Derek is inspired to rekindle his youthful dreams.", "poster_path": "/gNQA76kl251IuJVKMHfrRE12p7j.jpg", "release_date": "2010-01-14", "title": "Tooth Fairy", "video": false, "vote_average": 5.4, "vote_count": 1226, "popularity": 31.96}, {"adult": false, "backdrop_path": "/w41zFKYTsq4wf5QnQJWMXuzWl2F.jpg", "genre_ids": [18, 28], "id": 96721, "original_language": "en", "original_title": "Rush", "overview": "A biographical drama centered on the rivalry between Formula 1 drivers James Hunt and Niki Lauda during the 1976 Formula One motor-racing season.", "poster_path": "/cjEepHZOZAwmK6nAj5jis6HV75E.jpg", "release_date": "2013-09-02", "title": "Rush", "video": false, "vote_average": 7.7, "vote_count": 4275, "popularity": 16.446}, {"id": 1375, "video": false, "vote_count": 1669, "vote_average": 5.6, "title": "Rocky V", "release_date": "1990-10-18", "original_language": "en", "original_title": "Rocky V", "genre_ids": [18], "backdrop_path": "/dr5pdEDOdCvelCQqP32UZubiSgE.jpg", "adult": false, "overview": "A lifetime of taking shots has ended Rocky\u2019s career, and a crooked accountant has left him broke. Inspired by the memory of his trainer, however, Rocky finds glory in training and takes on an up-and-coming boxer.", "poster_path": "/5P2RiuLt31mWyb6duww8qlAhs6G.jpg", "popularity": 16.084}, {"id": 70006, "video": false, "vote_count": 288, "vote_average": 6.1, "title": "Never Back Down 2: The Beatdown", "release_date": "2011-09-13", "original_language": "en", "original_title": "Never Back Down 2: The Beatdown", "genre_ids": [28, 18], "backdrop_path": "/lSFqtjxMfAHa58TBDDBELKeq2DH.jpg", "adult": false, "overview": "Four fighters different backgrounds come together to train under an ex MMA rising star and then ultimately have to fight each other and the traitor in heir midst.", "poster_path": "/qeISu4rUk9l9sQTMs86fAoxSx8p.jpg", "popularity": 20.91}, {"id": 391757, "video": false, "vote_count": 185, "vote_average": 6.5, "title": "Never Back Down: No Surrender", "release_date": "2016-06-07", "original_language": "en", "original_title": "Never Back Down: No Surrender", "genre_ids": [28, 18], "backdrop_path": "/pzjnObK3uiHcKwiir9OPPWzbW8f.jpg", "adult": false, "overview": "Picking up after the events of Never Back Down 2, former MMA champion Case Walker is on the comeback trail to become champion once again.", "poster_path": "/dYNS4o4Q4DDLiKRAAvZ9KcrhHuy.jpg", "popularity": 16.224}, {"id": 396371, "video": false, "vote_count": 1968, "vote_average": 7.1, "title": "Molly's Game", "release_date": "2017-12-25", "original_language": "en", "original_title": "Molly's Game", "genre_ids": [80, 18], "backdrop_path": "/rHcBZ6ZKCe4FalWHyvBGsyMsh0k.jpg", "adult": false, "overview": "Molly Bloom, a young skier and former Olympic hopeful becomes a successful entrepreneur (and a target of an FBI investigation) when she establishes a high-stakes, international poker game.", "poster_path": "/in43bQ7k0ttr666IPP94IlbQbTR.jpg", "popularity": 18.118}, {"id": 107, "video": false, "vote_count": 5245, "vote_average": 7.8, "title": "Snatch", "release_date": "2000-09-01", "original_language": "en", "original_title": "Snatch", "genre_ids": [80, 53], "backdrop_path": "/cNLZ7YGRikb4IsLblrzu86ndZPw.jpg", "adult": false, "overview": "The second film from British director Guy Ritchie. Snatch tells an obscure story similar to his first fast-paced crazy character-colliding filled film \u201cLock, Stock and Two Smoking Barrels.\u201d There are two overlapping stories here \u2013 one is the search for a stolen diamond, and the other about a boxing promoter who\u2019s having trouble with a psychotic gangster.", "poster_path": "/on9JlbGEccLsYkjeEph2Whm1DIp.jpg", "popularity": 25.391}, {"id": 312221, "video": false, "vote_count": 4400, "vote_average": 7.4, "title": "Creed", "release_date": "2015-11-25", "original_language": "en", "original_title": "Creed", "genre_ids": [18], "backdrop_path": "/fs2yhdSCzMVlNECrN84WuCkgXov.jpg", "adult": false, "overview": "The former World Heavyweight Champion Rocky Balboa serves as a trainer and mentor to Adonis Johnson, the son of his late friend and former rival Apollo Creed.", "poster_path": "/hKzhV274pkZBSpXfCjUyzbyYKLl.jpg", "popularity": 17.551}, {"id": 307081, "video": false, "vote_count": 3699, "vote_average": 7.4, "title": "Southpaw", "release_date": "2015-03-24", "original_language": "en", "original_title": "Southpaw", "genre_ids": [28, 18], "backdrop_path": "/tTt1cdEEkKMJ1R4VBTe5vbE3bWO.jpg", "adult": false, "overview": "Billy \"The Great\" Hope, the reigning junior middleweight boxing champion, has an impressive career, a loving wife and daughter, and a lavish lifestyle. However, when tragedy strikes, Billy hits rock bottom, losing his family, his house and his manager. He soon finds an unlikely savior in Tick Willis, a former fighter who trains the city's toughest amateur boxers. With his future on the line, Hope fights to reclaim the trust of those he loves the most.", "poster_path": "/50d0XQQETSyg3bwBXhC7K33pKgc.jpg", "popularity": 24.057}, {"id": 651, "video": false, "vote_count": 478, "vote_average": 7.1, "title": "M*A*S*H", "release_date": "1970-01-24", "original_language": "en", "original_title": "M*A*S*H", "genre_ids": [35, 18, 10752], "backdrop_path": "/l5YH6TCYi2mgZwXbDjF71iA9UBP.jpg", "adult": false, "overview": "The staff of a Korean War field hospital use humor and high jinks to keep their sanity in the face of the horror of war.", "poster_path": "/cscyvJ4nDgbqewrttPXZ5EYOdwa.jpg", "popularity": 11.845}, {"adult": false, "backdrop_path": "/nb70B4EXuoegiQ0C5N1fNVHIaYc.jpg", "genre_ids": [12, 18, 36, 53, 10752], "id": 5925, "original_language": "en", "original_title": "The Great Escape", "overview": "The Nazis, exasperated at the number of escapes from their prison camps by a relatively small number of Allied prisoners, relocates them to a high-security 'escape-proof' camp to sit out the remainder of the war. Undaunted, the prisoners plan one of the most ambitious escape attempts of World War II. Based on a true story.", "poster_path": "/qhy4HgUqhEbwQ1ekKTv7yEB3b0e.jpg", "release_date": "1963-06-20", "title": "The Great Escape", "video": false, "vote_average": 8.0, "vote_count": 1358, "popularity": 17.61}], "total_pages": 182, "total_results": 3632}, "recommendations": {"page": 1, "results": [{"adult": false, "backdrop_path": null, "genre_ids": [99], "id": 162346, "original_language": "en", "original_title": "Byzance", "overview": "Byzance uses a text by Stefan Zweig to describe the Ottoman conquest of the city in 1453. Before he turned to feature filmmaking in 1968 with Naked Childhood, Pialat worked on a series of short films, many of them financed by French television. Byzance is one of Pialat\u2019s six Turkish shorts.", "poster_path": "/zP8oRAxpUW4eMtH09QiPMqvd8QV.jpg", "release_date": "1964-01-01", "title": "Byzance", "video": false, "vote_average": 6.1, "vote_count": 8, "popularity": 2.155}, {"adult": false, "backdrop_path": null, "genre_ids": [10402], "id": 163114, "original_language": "en", "original_title": "America Is Waiting", "overview": "Stock footage edited with music to comment on American culture.", "poster_path": "/c5W9R0RmesbjeRulxHBNU6jOEwp.jpg", "release_date": "1981-03-31", "title": "America Is Waiting", "video": false, "vote_average": 6.0, "vote_count": 5, "popularity": 1.486}, {"adult": false, "backdrop_path": null, "genre_ids": [99], "id": 125153, "original_language": "es", "original_title": "Vibraci\u00f3n de Granada", "overview": "This is a short film that, although a documentary in appearance, has very little to do with the generic conventions of that form. It would seem, then, that what we have here is the embryo of what he was subsequently to call the \"elementary\": an abstract or lyrical modality in the perception and exposition of the real.", "poster_path": null, "release_date": "1935-01-01", "title": "Vibration of Granada", "video": false, "vote_average": 6.7, "vote_count": 6, "popularity": 2.146}, {"adult": false, "backdrop_path": null, "genre_ids": [99], "id": 139772, "original_language": "it", "original_title": "I dimenticati", "overview": "A  short  documentary set in  Alessandria del Carretto, a small town in the province of Cosenza.", "poster_path": "/j633BTwMZ0E1TJ1o0SpKreJHBcr.jpg", "release_date": "1959-06-01", "title": "I dimenticati", "video": false, "vote_average": 6.5, "vote_count": 8, "popularity": 1.732}, {"adult": false, "backdrop_path": "/oOUV0jlXovIVwLWLz72OxqBMkas.jpg", "genre_ids": [], "id": 239428, "original_language": "fr", "original_title": "Le film \u00e0 venir", "overview": "If any single piece can act as a key to Ruiz, it may be the 1997 short Le Film \u00e0 Venir (The Film to Come). The titular film is a holy fragment of celluloid that can only be seen by a secret society known as the Philokinetes. They watch it on a loop, somnambulating through a life that is unreal by comparison. It is the belief of the Philokinetes that film has an existence \u201cindependent from humans. Cinema, they said, is the primeval soup of a new life form. There from were to emerge pure screening creatures. Which is to say, non-topical beings.\u201d - n+1", "poster_path": "/tkHtzgbKsCMCKfvJsJYLKDaXnZV.jpg", "release_date": "1997-01-01", "title": "The Film to Come", "video": false, "vote_average": 6.8, "vote_count": 5, "popularity": 1.92}, {"adult": false, "backdrop_path": null, "genre_ids": [99], "id": 148118, "original_language": "it", "original_title": "Parabola d'oro", "overview": "", "poster_path": "/hd5ylfICCbGYJqDN9BWgpzn3C3Q.jpg", "release_date": "1955-12-21", "title": "Parabola d'oro", "video": false, "vote_average": 5.9, "vote_count": 9, "popularity": 1.4}, {"adult": false, "backdrop_path": null, "genre_ids": [], "id": 147312, "original_language": "en", "original_title": "Surfarara", "overview": "", "poster_path": "/kThoxqdXKnHjpQFNzZFx4ldfMo0.jpg", "release_date": "1955-12-31", "title": "Surfarara", "video": false, "vote_average": 5.6, "vote_count": 9, "popularity": 1.706}, {"adult": false, "backdrop_path": null, "genre_ids": [99], "id": 148050, "original_language": "it", "original_title": "Lu tempu di li pisci spata", "overview": "A short anthropological documentary from 1954. Director De Seta was fortunate enough to document swordfish fishing; by 1956 it no longer existed.", "poster_path": "/kThoxqdXKnHjpQFNzZFx4ldfMo0.jpg", "release_date": "1955-10-28", "title": "Lu tempu di li pisci spata", "video": false, "vote_average": 6.1, "vote_count": 12, "popularity": 1.041}, {"adult": false, "backdrop_path": null, "genre_ids": [99], "id": 148068, "original_language": "it", "original_title": "Pescherecci", "overview": "Documentary about the work of herring fishers in Sicily.", "poster_path": "/9RXKoOuCwBBib8fSD6IRNDgMnr2.jpg", "release_date": "1958-06-01", "title": "Fishing Boats", "video": false, "vote_average": 6.1, "vote_count": 9, "popularity": 0.907}, {"adult": false, "backdrop_path": null, "genre_ids": [35, 10751], "id": 34063, "original_language": "en", "original_title": "Le poulet", "overview": "No overview found.", "poster_path": "/rrDCBbU64YeJs3fNHA6XYsZJYt4.jpg", "release_date": "1965-07-19", "title": "Le poulet", "video": false, "vote_average": 6.6, "vote_count": 10, "popularity": 1.524}, {"adult": false, "backdrop_path": null, "genre_ids": [99], "id": 147159, "original_language": "it", "original_title": "Pasqua in Sicilia", "overview": "A short film which retells the story of Jesus Christ's death and resurrection.", "poster_path": "/kThoxqdXKnHjpQFNzZFx4ldfMo0.jpg", "release_date": "1955-08-01", "title": "Easter in Sicily", "video": false, "vote_average": 5.0, "vote_count": 9, "popularity": 0.659}, {"adult": false, "backdrop_path": null, "genre_ids": [99], "id": 125150, "original_language": "es", "original_title": "Acari\u00f1o galaico (De barro)", "overview": "This film was reconstructed and completed in 1995 by Javier Codesal for the Filmoteca de Andalucia, from the montage and the sound that Val del Omar had outlined before his death, after having returned to a project abandoned twenty years before with the incorporation of significant additions (above all in the soundtrack).  Val del Omar's notes show that, as he typically did, he had other alternative titles in mind, such as \"Acari\u00f1o de la Terra Meiga\" (Caress of the Magic Land), \"Acari\u00f1o a nosa terra\" (Caress of Our Land), or \"Barro de \u00e1nimas\" (Clay of Souls), and that in the final phase of the unfinished project he wanted to add a second sound channel \u2013 following the diaphonic principle, and using electro-acoustic techniques \u2013 consisting of ambient material that he intended to record at the first screenings of the film in the very places and to the very people that were its origin: its \"clay\".", "poster_path": "/yMwaN7eM2HlDodlCvPNCHoqhGIR.jpg", "release_date": "1995-01-01", "title": "Galician Caress (of Clay)", "video": false, "vote_average": 6.8, "vote_count": 9, "popularity": 1.659}, {"adult": false, "backdrop_path": null, "genre_ids": [99], "id": 200148, "original_language": "hy", "original_title": "Verj", "overview": "Peleshian transforms footage from a train ride into a metaphor for the shape of a life. Early images of faces on the train give way to landscape, a journey through a black tunnel, and a final emergence into pure white light.", "poster_path": "/iDZnB4IrC3aM5mRnfOLoOP5Ld0v.jpg", "release_date": "1992-01-01", "title": "End", "video": false, "vote_average": 5.9, "vote_count": 11, "popularity": 2.337}, {"adult": false, "backdrop_path": null, "genre_ids": [18, 99], "id": 129971, "original_language": "it", "original_title": "Isole di fuoco", "overview": "The first light of dawn. The sound of a boat and the screech of birds fill the wide expanse of sea. Black rocks emerge from the water, the \u201csciara\u201d \u2013 the volcanic scoria \u2013 of Stromboli, the underwater sulfurous emanations, the layers of reddish rock eroded by the sea. The roar of the volcano can be heard, the flames and the liquid lava are thrown skyward. As nature unleashes itself, the fishermen row toward the shore, the sheep stray and the women return home.", "poster_path": "/kThoxqdXKnHjpQFNzZFx4ldfMo0.jpg", "release_date": "1955-04-01", "title": "Islands of Fire", "video": false, "vote_average": 6.3, "vote_count": 14, "popularity": 2.321}, {"id": 96712, "video": false, "vote_count": 17, "vote_average": 7.1, "title": "The Puppetmaster", "release_date": "1993-09-13", "original_language": "zh", "original_title": "Xi meng ren sheng", "genre_ids": [18, 9648, 10752], "backdrop_path": "/epy42R8sVZOhK9doQHvbCVItg5Y.jpg", "adult": false, "overview": "In the first half of this century, young Li Tienlu joins a travelling puppet theatre and subsequently makes a career as one of Taiwan's leading puppeteers.", "poster_path": "/d7RYoQ8j5d9rIGwSZOUgLyJ48QP.jpg", "popularity": 3.582}, {"adult": false, "backdrop_path": "/dq9by9vPDbjpd4KyjdFD9Mv2oS5.jpg", "genre_ids": [18, 27, 10402], "id": 175525, "original_language": "en", "original_title": "Danse macabre", "overview": "The Black Death is ravaging Spain. As Camille Saint-Sa\u00ebns's \"Danse Macabre\" plays on the soundtrack, a mix of animation and acted scenes tells the story of Youth and Love meeting one night. They dance, embrace, and kiss. As the night wears on, exuberant Death, a skeletal figure with a violin, pursues the couple. They try to elude him. Eventually, Love swoons. Youth is powerless to protect her. Is she doomed?", "poster_path": "/r7YIdcU2D5BYpjBVTiPv28604lX.jpg", "release_date": "1922-03-08", "title": "Danse macabre", "video": false, "vote_average": 6.4, "vote_count": 8, "popularity": 1.144}, {"adult": false, "backdrop_path": null, "genre_ids": [9648], "id": 200905, "original_language": "fr", "original_title": "Zig~Zag - le jeu de l'oie (Une fiction didactique \u00e0 propos de la cartographie)", "overview": "A man awakens to find himself immersed in a real-life scenario of a board game with an ever expanding cartography.", "poster_path": "/c0eLfdkrsHwJZMjd99xVqxTENuk.jpg", "release_date": "1980-01-01", "title": "Zig~Zag", "video": false, "vote_average": 6.9, "vote_count": 7, "popularity": 1.627}, {"adult": false, "backdrop_path": null, "genre_ids": [], "id": 151312, "original_language": "en", "original_title": "Vivian", "overview": "\"A film portrait cut to the tune of Conway Twitty's version of 'Mona Lisa.' Filmed in part at a 1964 show of Conner's artwork in San Francisco, the film is also a witty statement about forces that take the life out of art. Vivian Kurz, the subject of the film, is entombed in a glass display case.\" - Judd Chesler  Award: Gold Medal Award, Sesta Biennale D'Arte Republica Di San Marino.  Da Vinci thought he caught her smiling.", "poster_path": "/wB8oWOgjb9yhsD5DMRuROa1sGsB.jpg", "release_date": "1965-03-19", "title": "Vivian", "video": false, "vote_average": 7.0, "vote_count": 7, "popularity": 2.305}, {"adult": false, "backdrop_path": null, "genre_ids": [], "id": 111793, "original_language": "en", "original_title": "Crossroads", "overview": "The 1945 atomic-bomb explosion at Bikini Atoll becomes a thing of terrible beauty and haunting visual poetry when shown in extreme slow motion, shown from 27 different angles, and accompanied by avant-garde Western classical music composed for electric organ by Terry Riley.", "poster_path": "/dz6R2hSxvNY0KJvB59HDYNvctjh.jpg", "release_date": "1976-03-30", "title": "Crossroads", "video": false, "vote_average": 6.9, "vote_count": 9, "popularity": 1.423}, {"adult": false, "backdrop_path": null, "genre_ids": [99], "id": 69913, "original_language": "en", "original_title": "My Dad Is 100 Years Old", "overview": "A tribute to Isabella Rossellini's father", "poster_path": "/8sTP064L0Tc5L0p9Wz09owger6J.jpg", "release_date": "2005-01-01", "title": "My Dad Is 100 Years Old", "video": false, "vote_average": 6.5, "vote_count": 11, "popularity": 2.964}], "total_pages": 2, "total_results": 40}, "credits": {"cast": [{"cast_id": 2, "character": "Himself", "credit_id": "52fe4655c3a36847f80f94b1", "gender": 2, "id": 143023, "name": "Abebe Bikila", "order": 0, "profile_path": null}, {"cast_id": 3, "character": "English-Language Narrator", "credit_id": "52fe4655c3a36847f80f94b5", "gender": 0, "id": 143024, "name": "Jack Douglas", "order": 1, "profile_path": null}], "crew": [{"credit_id": "5ab535a70e0a265f300205fb", "department": "Crew", "gender": 2, "id": 7461, "job": "Cinematography", "name": "Kazuo Miyagawa", "profile_path": "/zOuiKy1s39qfm1eY6HBF6OIFIBu.jpg"}, {"credit_id": "5a5d30dd92514154db0011e7", "department": "Sound", "gender": 2, "id": 25800, "job": "Music", "name": "Toshir\u014d Mayuzumi", "profile_path": "/y8S7ByCIVdJPBIYoPgL6nUHywGr.jpg"}, {"credit_id": "52fe4655c3a36847f80f94ad", "department": "Directing", "gender": 2, "id": 97205, "job": "Director", "name": "Kon Ichikawa", "profile_path": "/rvmjNMYvIwayXgprxgMlEYYfSUY.jpg"}, {"credit_id": "52fe4655c3a36847f80f94bb", "department": "Writing", "gender": 2, "id": 97205, "job": "Writer", "name": "Kon Ichikawa", "profile_path": "/rvmjNMYvIwayXgprxgMlEYYfSUY.jpg"}, {"credit_id": "5a5d30ca0e0a263a300012e5", "department": "Writing", "gender": 1, "id": 135144, "job": "Writer", "name": "Natto Wada", "profile_path": "/7KPgmeN3HKeVuIIuey86W7ypRBm.jpg"}, {"credit_id": "52fe4655c3a36847f80f94c1", "department": "Writing", "gender": 2, "id": 143026, "job": "Writer", "name": "Yoshio Shirasaka", "profile_path": "/nFnpvQrnLaE71PSSsQb8ZOgc4zS.jpg"}, {"credit_id": "5ac13c32925141272000cec6", "department": "Writing", "gender": 0, "id": 1041700, "job": "Screenplay", "name": "Shuntaro Tanikawa", "profile_path": null}, {"credit_id": "5ab535c79251417af601df7b", "department": "Crew", "gender": 0, "id": 1161184, "job": "Cinematography", "name": "Shigeichi Nagano", "profile_path": null}, {"credit_id": "5a5d3052c3a368160e00115d", "department": "Production", "gender": 0, "id": 1870484, "job": "Producer", "name": "Taguchi Suketaro", "profile_path": null}, {"credit_id": "5a5d31130e0a263a2400139b", "department": "Directing", "gender": 0, "id": 1938874, "job": "Assistant Director", "name": "Yukio Tomizawa", "profile_path": null}, {"credit_id": "5a5d30ecc3a36815f1001239", "department": "Art", "gender": 0, "id": 1960778, "job": "Art Direction", "name": "Yusaku Kamekura", "profile_path": null}, {"credit_id": "5a5d31050e0a263a30001317", "department": "Sound", "gender": 0, "id": 1960781, "job": "Sound", "name": "Ichir\u00f4 Hoshi", "profile_path": null}, {"credit_id": "5ab535b69251417b0201dbb6", "department": "Crew", "gender": 0, "id": 2005902, "job": "Cinematography", "name": "Shigeo Murata", "profile_path": null}, {"credit_id": "5ab535f1c3a3686197022155", "department": "Crew", "gender": 0, "id": 2005904, "job": "Cinematography", "name": "Shigeichi Nagano", "profile_path": null}, {"credit_id": "5ab5360bc3a368615f01f4b1", "department": "Crew", "gender": 0, "id": 2005905, "job": "Cinematography", "name": "Tadashi Tanaka", "profile_path": null}]}}