{"adult": false, "backdrop_path": "/y8p7gSMxbVGtPAPdQ8Ag78feUnn.jpg", "belongs_to_collection": null, "budget": 0, "genres": [{"id": 18, "name": "Drama"}], "homepage": "", "id": 436350, "imdb_id": "tt6509862", "original_language": "ja", "original_title": "\u30df\u30b9\u30bf\u30fc\u30fb\u30ed\u30f3", "overview": "Long is a Taiwanese killer known for his sword skills. After Long fails a Tokyo mission, he moves to a small town where no one knows about him.", "popularity": 4.617, "poster_path": "/6xbuK3Y8zonLCuce89gbjXlRcdw.jpg", "production_companies": [{"id": 60184, "logo_path": null, "name": "Rapid Eye Movies", "origin_country": ""}, {"id": 62372, "logo_path": null, "name": "LDH", "origin_country": ""}], "production_countries": [{"iso_3166_1": "DE", "name": "Germany"}, {"iso_3166_1": "HK", "name": "Hong Kong"}, {"iso_3166_1": "JP", "name": "Japan"}, {"iso_3166_1": "TW", "name": "Taiwan"}], "release_date": "2017-04-22", "revenue": 0, "runtime": 129, "spoken_languages": [{"iso_639_1": "zh", "name": "\u666e\u901a\u8bdd"}, {"iso_639_1": "ja", "name": "\u65e5\u672c\u8a9e"}], "status": "Released", "tagline": "", "title": "Mr. Long", "video": false, "vote_average": 7.7, "vote_count": 30, "keywords": {"keywords": [{"id": 2708, "name": "hitman"}]}, "similar": {"page": 1, "results": [{"id": 4816, "video": false, "vote_count": 604, "vote_average": 7.3, "title": "Ghost Dog: The Way of the Samurai", "release_date": "1999-06-02", "original_language": "en", "original_title": "Ghost Dog: The Way of the Samurai", "genre_ids": [80, 18], "backdrop_path": "/hCmImSZ0OyIGxnCrL3LMA3dEZpm.jpg", "adult": false, "overview": "An African-American Mafia hit man who models himself after the samurai of old finds himself targeted for death by the mob.", "poster_path": "/vkmrlVxvcQ6NPWlXBS9mqQ7goVv.jpg", "popularity": 11.44}, {"id": 266396, "video": false, "vote_count": 629, "vote_average": 5.7, "title": "The Gunman", "release_date": "2015-02-16", "original_language": "en", "original_title": "The Gunman", "genre_ids": [28, 80, 18], "backdrop_path": "/jVU1bRNcXCfX9LC8pj9Hp9McN7x.jpg", "adult": false, "overview": "Eight years after fleeing the Congo following his assassination of that country's minister of mining, former assassin Jim Terrier is back, suffering from PTSD and digging wells to atone for his violent past. After an attempt is made on his life, Terrier flies to London to find out who wants him dead -- and why. Terrier's search leads him to a reunion with Annie, a woman he once loved, who is now married to an oily businessman with dealings in Africa.", "poster_path": "/lnUozDnDANTsDYEdsNsHC6b8IiS.jpg", "popularity": 9.884}, {"adult": false, "backdrop_path": "/6wBfey6EVR5qxYLB8pxoTVQYWkS.jpg", "genre_ids": [28, 80, 18, 53], "id": 1620, "original_language": "en", "original_title": "Hitman", "overview": "The best-selling videogame, Hitman, roars to life with both barrels blazing in this hardcore action-thriller starring Timothy Olyphant. A genetically engineered assassin with deadly aim, known only as \"Agent 47\" eliminates strategic targets for a top-secret organization. But when he's double-crossed, the hunter becomes the prey as 47 finds himself in a life-or-death game of international intrigue.", "poster_path": "/1U2FpMotSyaciATw5qfEsKdgpX4.jpg", "release_date": "2007-11-21", "title": "Hitman", "video": false, "vote_average": 5.9, "vote_count": 1868, "popularity": 16.204}, {"id": 2501, "video": false, "vote_count": 5867, "vote_average": 7.4, "title": "The Bourne Identity", "release_date": "2002-06-14", "original_language": "en", "original_title": "The Bourne Identity", "genre_ids": [28, 18, 9648, 53], "backdrop_path": "/2Fr1vqBiDn8xRJM9elcplzHctTN.jpg", "adult": false, "overview": "Wounded to the brink of death and suffering from amnesia, Jason Bourne is rescued at sea by a fisherman. With nothing to go on but a Swiss bank account number, he starts to reconstruct his life, but finds that many people he encounters want him dead. However, Bourne realizes that he has the combat and mental skills of a world-class spy\u2014but who does he work for?", "poster_path": "/bXQIL36VQdzJ69lcjQR1WQzJqQR.jpg", "popularity": 20.935}, {"id": 787, "video": false, "vote_count": 6331, "vote_average": 6.6, "title": "Mr. & Mrs. Smith", "release_date": "2005-06-07", "original_language": "en", "original_title": "Mr. & Mrs. Smith", "genre_ids": [28, 35, 18, 53], "backdrop_path": "/fAwYX0Fha35CaYYUJ06VTN3bEeh.jpg", "adult": false, "overview": "After five (or six) years of vanilla-wedded bliss, ordinary suburbanites John and Jane Smith are stuck in a huge rut. Unbeknownst to each other, they are both coolly lethal, highly-paid assassins working for rival organisations. When they discover they're each other's next target, their secret lives collide in a spicy, explosive mix of wicked comedy, pent-up passion, nonstop action and high-tech weaponry.", "poster_path": "/dqs5BmwSULtB28Kls3IB6khTQwp.jpg", "popularity": 36.487}, {"id": 1538, "video": false, "vote_count": 2891, "vote_average": 7.2, "title": "Collateral", "release_date": "2004-08-04", "original_language": "en", "original_title": "Collateral", "genre_ids": [80, 18, 53], "backdrop_path": "/hFcXrnmciPfIg8ZcXb1V7BeguF.jpg", "adult": false, "overview": "Cab driver Max picks up a man who offers him $600 to drive him around. But the promise of easy money sours when Max realizes his fare is an assassin.", "poster_path": "/fmkv2eRuYCTq7A5jzMBNgoNe1vA.jpg", "popularity": 22.701}, {"id": 101, "video": false, "vote_count": 8647, "vote_average": 8.3, "title": "L\u00e9on: The Professional", "release_date": "1994-09-14", "original_language": "en", "original_title": "L\u00e9on: The Professional", "genre_ids": [28, 80, 18], "backdrop_path": "/dXQ7HILRK1Tg33RT64JwbQI7Osh.jpg", "adult": false, "overview": "L\u00e9on, the top hit man in New York, has earned a rep as an effective \"cleaner\". But when his next-door neighbors are wiped out by a loose-cannon DEA agent, he becomes the unwilling custodian of 12-year-old Mathilda. Before long, Mathilda's thoughts turn to revenge, and she considers following in L\u00e9on's footsteps.", "poster_path": "/gE8S02QUOhVnAmYu4tcrBlMTujz.jpg", "popularity": 41.351}, {"id": 483906, "video": false, "vote_count": 1077, "vote_average": 6.3, "title": "Polar", "release_date": "2019-01-25", "original_language": "en", "original_title": "Polar", "genre_ids": [28, 80, 18], "backdrop_path": "/u8CP7EeWbYMlIVqEoKAt6OYsEe1.jpg", "adult": false, "overview": "When a retiring assassin realizes that he is the target of a hit, he winds up back in the game going head to head with a gang of younger, ruthless killers.", "poster_path": "/qOBEpKVLl8Q9CZScbOcRRVISezV.jpg", "popularity": 13.896}, {"id": 13184, "video": false, "vote_count": 599, "vote_average": 5.1, "title": "Bangkok Dangerous", "release_date": "2008-08-21", "original_language": "en", "original_title": "Bangkok Dangerous", "genre_ids": [28, 80, 53], "backdrop_path": "/lBVtKWWXH46r7oMLdfT3quioaVb.jpg", "adult": false, "overview": "When carrying out a hit, assassin Joe (Cage) always makes use of the knowledge of the local population. On arriving in Bangkok, Joe meets street kid Kong and he becomes his primary aide. But when Kong is nearly killed, he asks Joe to train him up in the deadly arts and unwittingly becomes a target of a band of killers.", "poster_path": "/eyHn8A0lze1pbCNxv0UsATBOmyv.jpg", "popularity": 10.287}, {"adult": false, "backdrop_path": "/neSLpxwG5TWNzCPDUIZ9kbl2bOL.jpg", "genre_ids": [18, 53, 80], "id": 4836, "original_language": "en", "original_title": "Layer Cake", "overview": "When a seemingly straight-forward drug deal goes awry, XXXX has to break his die-hard rules and turn up the heat, not only to outwit the old regime and come out on top, but to save his own skin...", "poster_path": "/y6BzUkrx789OhVMDXZiBBVHu6OQ.jpg", "release_date": "2004-09-30", "title": "Layer Cake", "video": false, "vote_average": 7.0, "vote_count": 1028, "popularity": 19.131}, {"id": 1441, "video": false, "vote_count": 277, "vote_average": 5.7, "title": "The Contract", "release_date": "2006-04-05", "original_language": "en", "original_title": "The Contract", "genre_ids": [28, 80, 18, 53], "backdrop_path": "/615clB1mQwCbxVgT8lPetlrqfFj.jpg", "adult": false, "overview": "Attempting to recover from a recent family trauma by escaping into the woods for a peaceful hiking trip, an ex-lawman and his young son stumble across a dangerous contract killer.", "poster_path": "/a66bDag0gQrFWycqfKbImacUFbV.jpg", "popularity": 9.353}, {"id": 20187, "video": false, "vote_count": 168, "vote_average": 6.1, "title": "The Eiger Sanction", "release_date": "1975-05-21", "original_language": "en", "original_title": "The Eiger Sanction", "genre_ids": [28, 12, 80, 18, 9648, 53], "backdrop_path": "/xHMr3n71h1wlN0hGQhumKnxmlf4.jpg", "adult": false, "overview": "A classical art professor and collector, who doubles as a professional assassin, is coerced out of retirement to avenge the murder of an old friend.", "poster_path": "/q1GB9vhp2WgnCTxo4PqNAo5yG9u.jpg", "popularity": 9.863}, {"id": 400, "video": false, "vote_count": 185, "vote_average": 6.6, "title": "Things to Do in Denver When You're Dead", "release_date": "1995-12-01", "original_language": "en", "original_title": "Things to Do in Denver When You're Dead", "genre_ids": [80, 18], "backdrop_path": "/5iCxKe3zEPnrc1Y0R0m0YnFdaBO.jpg", "adult": false, "overview": "A mafia film in Tarantino style with a star-studded cast. Jimmy\u2019s \u201cThe Saint\u201d gangster career has finally ended. Yet now he finds him self doing favors for a wise godfather known as \u201cThe Man with the Plan.\u201d", "poster_path": "/ysKIolKO0376Nl5DV1fDAAPudEq.jpg", "popularity": 8.729}, {"adult": false, "backdrop_path": "/kSTvteM3ekuoeO7u7GJtZQkZuom.jpg", "genre_ids": [28, 53, 80], "id": 1948, "original_language": "en", "original_title": "Crank", "overview": "Professional assassin Chev Chelios learns his rival has injected him with a poison that will kill him if his heart rate drops.", "poster_path": "/6RnD3Zfh0tO0cD2vroWyH0F98Ej.jpg", "release_date": "2006-08-31", "title": "Crank", "video": false, "vote_average": 6.6, "vote_count": 2121, "popularity": 21.613}, {"adult": false, "backdrop_path": "/fLMv873bBAvrCtzeAbRVjb4Mi9Y.jpg", "genre_ids": [28, 53, 80], "id": 27582, "original_language": "en", "original_title": "The Mechanic", "overview": "Arthur Bishop is a 'mechanic' - an elite assassin with a strict code and unique talent for cleanly eliminating targets. It's a job that requires professional perfection and total detachment, and Bishop is the best in the business. But when he is ordered to take out his mentor and close friend Harry, Bishop is anything but detached.", "poster_path": "/eScKoGnjaUvGD2OkK3DImyzfVkt.jpg", "release_date": "2011-01-13", "title": "The Mechanic", "video": false, "vote_average": 6.3, "vote_count": 1857, "popularity": 20.52}, {"adult": false, "backdrop_path": "/2f8fkWSWOVcTlWforoVpsuaCiwI.jpg", "genre_ids": [53, 28], "id": 449985, "original_language": "en", "original_title": "Triple Threat", "overview": "A crime syndicate places a hit on a billionaire's daughter, making her the target of an elite assassin squad. A small band of down-and-out mercenaries protects her, fighting tooth and nail to stop the assassins from reaching their target.", "poster_path": "/cSpM3QxmoSLp4O1WAMQpUDcaB7R.jpg", "release_date": "2019-03-19", "title": "Triple Threat", "video": false, "vote_average": 5.5, "vote_count": 146, "popularity": 14.986}, {"adult": false, "backdrop_path": "/913sS08HhcTQTwz7X567iR6DLHn.jpg", "genre_ids": [12, 28, 53], "id": 682, "original_language": "en", "original_title": "The Man with the Golden Gun", "overview": "A golden bullet has 007 engraved on it as it smashes into the secret service headquarters. The bullet came from the professional killer Scaramanga who has yet to miss a target and James Bond begins a mission to try and stop him.", "poster_path": "/7VSVgxAvA7IdTf8T6Oon1eaReeJ.jpg", "release_date": "1974-12-01", "title": "The Man with the Golden Gun", "video": false, "vote_average": 6.5, "vote_count": 996, "popularity": 17.905}, {"id": 390043, "video": false, "vote_count": 3455, "vote_average": 6.8, "title": "The Hitman's Bodyguard", "release_date": "2017-08-16", "original_language": "en", "original_title": "The Hitman's Bodyguard", "genre_ids": [28, 35], "backdrop_path": "/7KsqfXDECZMryX1Rv4RKsT7SIjQ.jpg", "adult": false, "overview": "The world top bodyguard gets a new client, a hit man who must testify at the International Court of Justice. They must put their differences aside and work together to make it to the trial on time.", "poster_path": "/5CGjlz2vyBhW5xHW4eNOZIdgzYq.jpg", "popularity": 34.388}, {"id": 156022, "video": false, "vote_count": 5468, "vote_average": 7.2, "title": "The Equalizer", "release_date": "2014-09-24", "original_language": "en", "original_title": "The Equalizer", "genre_ids": [28, 80, 53], "backdrop_path": "/vbl4ZVqelrrzJ16fdDOq9siWbpi.jpg", "adult": false, "overview": "McCall believes he has put his mysterious past behind him and dedicated himself to beginning a new, quiet life. But when he meets Teri, a young girl under the control of ultra-violent Russian gangsters, he can\u2019t stand idly by \u2013 he has to help her. Armed with hidden skills that allow him to serve vengeance against anyone who would brutalize the helpless, McCall comes out of his self-imposed retirement and finds his desire for justice reawakened. If someone has a problem, if the odds are stacked against them, if they have nowhere else to turn, McCall will help. He is The Equalizer.", "poster_path": "/2eQfjqlvPAxd9aLDs8DvsKLnfed.jpg", "popularity": 39.578}, {"id": 8909, "video": false, "vote_count": 4589, "vote_average": 6.4, "title": "Wanted", "release_date": "2008-06-19", "original_language": "en", "original_title": "Wanted", "genre_ids": [28, 80, 53], "backdrop_path": "/nUqFvwyLwZwT6Y3phbRNliTimZ5.jpg", "adult": false, "overview": "Doormat Wesley Gibson discovers that his recently murdered father \u2013 who Wesley never knew \u2013 belonged to a secret guild of assassins. After a leather-clad sexpot drafts Wesley into the society, he hones his innate killing skills and turns avenger.", "poster_path": "/mUrkppyahzk6koYFekxeu0tmcPd.jpg", "popularity": 19.187}], "total_pages": 41, "total_results": 817}, "recommendations": {"page": 1, "results": [{"adult": false, "backdrop_path": "/rmz7D2vcCwFU2iT0YTXiUaq9GYT.jpg", "genre_ids": [18], "id": 468528, "original_language": "fr", "original_title": "Soleil battant", "overview": "Gabriel and Iris head back to their family holiday home in Portugal with their daughters Emma and Zo\u00e9, a couple of adorable six-year-old twins, for a vacation. In the heart of the sun-drenched countryside, as the little ones swim and laugh, the couple\u2019s past begins to rear its head. Emma is overwhelmed by a secret that is simply too big for her to keep, and which she has no right to share with her twin sister.", "poster_path": "/hg2G8mus5uK5wn0LCQQtgKvFU2T.jpg", "release_date": "2017-12-13", "title": "Soleil battant", "video": false, "vote_average": 6.2, "vote_count": 10, "popularity": 3.217}, {"adult": false, "backdrop_path": "/5GxeioqYZd6y3Mex0cQzw8tiQk0.jpg", "genre_ids": [18, 36], "id": 432560, "original_language": "cs", "original_title": "Masaryk", "overview": "It is 1939. Flamboyant Czech diplomat Jan Masaryk has fled to America to escape his recent past. Germany has invaded Czechoslovakia and Masaryk is now a man with no nation. In America he tries to forget the personal and political betrayal he and his country have suffered but these events shadow his every step. As the Czechoslovak ambassador in London, Masaryk failed to win the support of the British and could not avert the ruination of his country. With the help of Dr. Stein, an emigre German psychiatrist, and the beautiful writer Marcia Davenport, Masaryk tries to overcome his demons and re-live the dramatic events leading to the outbreak of the second world war.", "poster_path": "/aR6RbvJYmP3Go8gZDEh9vHT9muO.jpg", "release_date": "2017-03-09", "title": "Masaryk", "video": false, "vote_average": 5.7, "vote_count": 10, "popularity": 2.374}, {"adult": false, "backdrop_path": "/6VL7kJiT0x4EiRcxpo5FXofSFEk.jpg", "genre_ids": [18], "id": 162547, "original_language": "en", "original_title": "Swimmer", "overview": "A young man swims across the rivers and lakes of Britain to a soundtrack of assorted nationalistic music. As he passes people on the banksides including children, lovers and a tramp their thoughts and conversations are also heard. Ultimately, after walking through a wood at night, the boy returns to the water and appears to sink below the surface.", "poster_path": "/5KmqNkC4kVc1SjAwRzlvYIjgNyw.jpg", "release_date": "2012-01-25", "title": "Swimmer", "video": false, "vote_average": 7.5, "vote_count": 14, "popularity": 2.944}], "total_pages": 1, "total_results": 3}, "credits": {"cast": [{"cast_id": 7, "character": "Long", "credit_id": "589eee85c3a3684bc400b785", "gender": 2, "id": 1622, "name": "Chang Chen", "order": 0, "profile_path": "/RccYC6G6bhz3Mjpm9wGvsyKsoY.jpg"}, {"cast_id": 1, "character": "Kenji", "credit_id": "5882d1b59251410454003f42", "gender": 0, "id": 1367226, "name": "Sho Aoyagi", "order": 1, "profile_path": "/twlA8KRAqBTHKHlYQyB1GFr12Vp.jpg"}, {"cast_id": 2, "character": "Lily", "credit_id": "5882d206925141045d003dd5", "gender": 1, "id": 1742837, "name": "Yao Yi Ti", "order": 2, "profile_path": "/w246wYoqoL19MwWE6jYH4RJG6w8.jpg"}, {"cast_id": 4, "character": "Jun", "credit_id": "5891087a92514103ec00b588", "gender": 0, "id": 1748260, "name": "Bai Run-yin", "order": 3, "profile_path": null}, {"cast_id": 24, "character": "Heisuke", "credit_id": "5bae8a3492514150e805bf9b", "gender": 0, "id": 1599701, "name": "Masashi Arifuku", "order": 4, "profile_path": null}, {"cast_id": 25, "character": "Tadao", "credit_id": "5bae8a4092514150f105a02b", "gender": 2, "id": 20327, "name": "Taro Suwa", "order": 5, "profile_path": "/ci1v3bteihMoUP0panFapVUKNy1.jpg"}, {"cast_id": 26, "character": "Kumiko", "credit_id": "5bae8a4c92514151050590ce", "gender": 0, "id": 2137314, "name": "Ritsuko Ohkusa", "order": 6, "profile_path": null}, {"cast_id": 27, "character": "Machiko", "credit_id": "5bae8a57c3a3683a97069665", "gender": 0, "id": 1507320, "name": "Shiiko Utagawa", "order": 7, "profile_path": null}, {"cast_id": 28, "character": "Jiang", "credit_id": "5bae8a6292514150ee058a9c", "gender": 0, "id": 1928300, "name": "Y\u00fbsuke Fukuchi", "order": 8, "profile_path": null}, {"cast_id": 29, "character": "Sakata", "credit_id": "5bae8a7292514150eb05b78e", "gender": 2, "id": 1248921, "name": "Tetsuya Chiba", "order": 9, "profile_path": "/xybv5d2oecMx7aZGpby46UBnZw3.jpg"}], "crew": [{"credit_id": "58a52eddc3a3683d8f0007a2", "department": "Sound", "gender": 0, "id": 8806, "job": "Sound Designer", "name": "Nico Krebs", "profile_path": null}, {"credit_id": "589b3ba1c3a3683a9800764a", "department": "Directing", "gender": 2, "id": 58614, "job": "Director", "name": "SABU", "profile_path": "/qNjgqL33xBtkEJfW51G2Cc08pu6.jpg"}, {"credit_id": "58a620b8c3a3681665000765", "department": "Writing", "gender": 2, "id": 58614, "job": "Writer", "name": "SABU", "profile_path": "/qNjgqL33xBtkEJfW51G2Cc08pu6.jpg"}, {"credit_id": "58a52f02c3a3683dad00079b", "department": "Sound", "gender": 2, "id": 68193, "job": "Sound Designer", "name": "Manuel Laval", "profile_path": null}, {"credit_id": "58a52c549251413caa000531", "department": "Sound", "gender": 0, "id": 1333053, "job": "Original Music Composer", "name": "Junichi Matsumoto", "profile_path": null}, {"credit_id": "58a52c759251413cb200058f", "department": "Editing", "gender": 0, "id": 1471277, "job": "Editor", "name": "Georg Petzold", "profile_path": null}, {"credit_id": "58a52ecdc3a3683d740006d8", "department": "Sound", "gender": 0, "id": 1737430, "job": "Sound", "name": "Masashi Furuya", "profile_path": null}, {"credit_id": "58a52caf9251413cc50005ae", "department": "Costume & Make-Up", "gender": 0, "id": 1758776, "job": "Costume Design", "name": "Kazuyo Koiso", "profile_path": null}, {"credit_id": "58a52d639251413cae000634", "department": "Production", "gender": 0, "id": 1758778, "job": "Casting", "name": "Nana Higashihira", "profile_path": null}, {"credit_id": "58a52daec3a3683d8f000669", "department": "Crew", "gender": 0, "id": 1758779, "job": "Cinematography", "name": "K\u00f4ichi Furuya", "profile_path": "/8QIqdyME9LFRnhBv6su2jEABbwH.jpg"}, {"credit_id": "58a52dcbc3a3683d8f00068f", "department": "Art", "gender": 0, "id": 1758780, "job": "Production Design", "name": "China Hayashi", "profile_path": null}, {"credit_id": "58a52e39c3a3683d85000642", "department": "Costume & Make-Up", "gender": 0, "id": 1758781, "job": "Makeup Artist", "name": "Shinji Hashimoto", "profile_path": null}, {"credit_id": "58a52e5dc3a3683d74000684", "department": "Production", "gender": 0, "id": 1758782, "job": "Production Manager", "name": "Soichiro Koga", "profile_path": null}, {"credit_id": "58a52e7ac3a3683d8f000740", "department": "Directing", "gender": 0, "id": 1758783, "job": "Assistant Director", "name": "Kei Era", "profile_path": null}, {"credit_id": "58a52f739251413caa0007d1", "department": "Crew", "gender": 0, "id": 1758784, "job": "Mix Technician", "name": "Simeon Pabst", "profile_path": null}, {"credit_id": "58a52f509251413cc1000800", "department": "Crew", "gender": 0, "id": 1758785, "job": "Mix Technician", "name": "Markus Wurster", "profile_path": null}]}}