{"adult": false, "backdrop_path": "/iz4nTah8Ij081HaxBlqZRmLhh8E.jpg", "belongs_to_collection": null, "budget": 0, "genres": [{"id": 53, "name": "Thriller"}, {"id": 28, "name": "Action"}, {"id": 18, "name": "Drama"}], "homepage": null, "id": 437083, "imdb_id": "tt8060652", "original_language": "ko", "original_title": "7\ub144\uc758 \ubc24", "overview": "Set against the haunting backdrop of a small lake town, this chilling thriller unravels a meticulous revenge set over a period of 7 years, all beginning with the accidental death of an innocent girl.", "popularity": 1.851, "poster_path": "/1CSzpCz9JJjeS4C9JPw4oGCuzQZ.jpg", "production_companies": [{"id": 51656, "logo_path": null, "name": "Pollux Barunson", "origin_country": "KR"}, {"id": 7036, "logo_path": "/javbyY0ZCvlFJtly3tpZqf2NwLX.png", "name": "CJ Entertainment", "origin_country": "KR"}], "production_countries": [{"iso_3166_1": "KR", "name": "South Korea"}], "release_date": "2018-03-28", "revenue": 0, "runtime": 123, "spoken_languages": [{"iso_639_1": "ko", "name": "\ud55c\uad6d\uc5b4/\uc870\uc120\ub9d0"}], "status": "Released", "tagline": "", "title": "Seven Years of Night", "video": false, "vote_average": 7.8, "vote_count": 4, "keywords": {"keywords": [{"id": 9826, "name": "murder"}]}, "similar": {"page": 1, "results": [{"adult": false, "backdrop_path": "/pA64Ov7lDpwXBu33yq0KpmAOYJL.jpg", "genre_ids": [27, 53], "id": 357096, "original_language": "en", "original_title": "I Spit on Your Grave III: Vengeance is Mine", "overview": "Jennifer Hills is still tormented by the brutal sexual assault she endured years ago. She\u2019s changed identities and cities, reluctantly joining a support group where she begins to piece together a new life. But when her new friend\u2019s murderer goes free and the tales of serial rapists haunt her, Jennifer will hunt down the men responsible and do what the system won\u2019t \u2013 make them pay for their crimes in the most horrific ways imaginable. Only this time, no jury may be able to save her.", "poster_path": "/6SnOlgrUoC5jqmgcYIM5lde5zYq.jpg", "release_date": "2015-10-01", "title": "I Spit on Your Grave III: Vengeance is Mine", "video": false, "vote_average": 5.3, "vote_count": 437, "popularity": 20.815}, {"adult": false, "backdrop_path": "/t3OZS8yMs0NL4YgWWc04eXHTn1X.jpg", "genre_ids": [28, 80, 53], "id": 984, "original_language": "en", "original_title": "Dirty Harry", "overview": "When a madman dubbed 'Scorpio' terrorizes San Francisco, hard-nosed cop, Harry Callahan \u2013 famous for his take-no-prisoners approach to law enforcement \u2013 is tasked with hunting down the psychopath. Harry eventually collars Scorpio in the process of rescuing a kidnap victim, only to see him walk on technicalities. Now, the maverick detective is determined to nail the maniac himself.", "poster_path": "/2TADKc4GMMPdMrLXj0xJVgTvZJM.jpg", "release_date": "1971-12-21", "title": "Dirty Harry", "video": false, "vote_average": 7.5, "vote_count": 1173, "popularity": 18.839}, {"id": 15069, "video": false, "vote_count": 75, "vote_average": 5.4, "title": "W\u0394Z", "release_date": "2007-05-19", "original_language": "en", "original_title": "W\u0394Z", "genre_ids": [80, 18, 27, 53], "backdrop_path": "/nVwdXjnbfulc6cymFgOQJctpspr.jpg", "adult": false, "overview": "There is something horribly wrong with the bodies found in the dark city streets. Some are mutilated while others have the Price equation (w\u0394z = Cov (w,z) = \u03b2wzVz) carved into their flesh. Detective Eddie Argo and his new partner Helen Westcott unearth the meaning of the odd equation and realise each victim is being offered a gruesome choice: kill your loved ones, or be killed. Before long it becomes clear that the perpetrator has suffered a similar fate and is now coping by seeking a way to solve this philosophical dilemma.", "poster_path": "/8lPZ59iQRqUELprKuB0myy7u6Zm.jpg", "popularity": 7.935}, {"adult": false, "backdrop_path": "/uUYCUbgI5VxsUflTMI4Y9L2Y6vb.jpg", "genre_ids": [80, 18, 53], "id": 11423, "original_language": "ko", "original_title": "\uc0b4\uc778\uc758 \ucd94\uc5b5", "overview": "1986 Gyunggi Province. The body of a young woman is found brutally raped and murdered. Two months later, a series of rapes and murders commences under similar circumstances. And in a country that had never known such crimes, the dark whispers about a serial murderer grow louder. A special task force is set up in the area, with two local detectives Park Doo-Man and Jo Young-Goo joined by a detective from Seoul who requested to be assigned to the case.", "poster_path": "/gawnVe9cFowdoDLo9Pok12NTw39.jpg", "release_date": "2003-05-02", "title": "Memories of Murder", "video": false, "vote_average": 8.1, "vote_count": 1093, "popularity": 13.452}, {"id": 8090, "video": false, "vote_count": 448, "vote_average": 6.1, "title": "Untraceable", "release_date": "2008-01-22", "original_language": "en", "original_title": "Untraceable", "genre_ids": [9648, 53], "backdrop_path": "/eXuIPt9I1xuaVddlgzEQRC2EMnJ.jpg", "adult": false, "overview": "Special Agent Jennifer Marsh (Diane Lane) works in an elite division of the FBI dedicated to fighting cybercrime. She thinks she has seen it all, until a particularly sadistic criminal arises on the Internet. This tech-savvy killer posts live feeds of his crimes on his website; the more hits the site gets, the faster the victim dies. Marsh and her team must find the elusive killer before time runs out.", "poster_path": "/ySUwDRDEn01lKIMPQorpFCMLWqE.jpg", "popularity": 14.431}, {"id": 75780, "video": false, "vote_count": 4451, "vote_average": 6.4, "title": "Jack Reacher", "release_date": "2012-12-20", "original_language": "en", "original_title": "Jack Reacher", "genre_ids": [28, 80, 18, 53], "backdrop_path": "/ezXodpP429qK0Av89pVNlaXWJkQ.jpg", "adult": false, "overview": "When a gunman takes five lives with six shots, all evidence points to the suspect in custody. On interrogation, the suspect offers up a single note: \"Get Jack Reacher!\" So begins an extraordinary chase for the truth, pitting Jack Reacher against an unexpected enemy, with a skill for violence and a secret to keep.", "poster_path": "/mt0ELw83HIRgaKaDzhsDcIi0RnW.jpg", "popularity": 15.945}, {"adult": false, "backdrop_path": "/kiWvoV78Cc3fUwkOHKzyBgVdrDD.jpg", "genre_ids": [37, 18, 12], "id": 281957, "original_language": "en", "original_title": "The Revenant", "overview": "In the 1820s, a frontiersman, Hugh Glass, sets out on a path of vengeance against those who left him for dead after a bear mauling.", "poster_path": "/oXUWEc5i3wYyFnL1Ycu8ppxxPvs.jpg", "release_date": "2015-12-25", "title": "The Revenant", "video": false, "vote_average": 7.5, "vote_count": 12127, "popularity": 24.135}, {"adult": false, "backdrop_path": "/a24i4Qw6qFTtkFLQsncv8WPwevj.jpg", "genre_ids": [53, 28, 80], "id": 345887, "original_language": "en", "original_title": "The Equalizer 2", "overview": "Robert McCall, who serves an unflinching justice for the exploited and oppressed, embarks on a relentless, globe-trotting quest for vengeance when a long-time girl friend is murdered.", "poster_path": "/cQvc9N6JiMVKqol3wcYrGshsIdZ.jpg", "release_date": "2018-07-19", "title": "The Equalizer 2", "video": false, "vote_average": 6.5, "vote_count": 2483, "popularity": 21.271}, {"adult": false, "backdrop_path": "/o4psXh7IVD6GFKvBSHjHLzjL2lV.jpg", "genre_ids": [27, 53], "id": 10781, "original_language": "en", "original_title": "The Texas Chainsaw Massacre: The Beginning", "overview": "Chrissie and her friends set out on a road trip for a final fling before one is shipped off to Vietnam. Along the way, bikers harass the foursome and cause an accident that throws Chrissie from the vehicle. The lawman who arrives on the scene kills one of the bikers and brings Chrissie's friends to the Hewitt homestead, where young Leatherface is learning the tools of terror.", "poster_path": "/9elCJIG1TOJ0wew3JVx5ZMkHq5w.jpg", "release_date": "2006-10-06", "title": "The Texas Chainsaw Massacre: The Beginning", "video": false, "vote_average": 6.0, "vote_count": 936, "popularity": 19.211}, {"adult": false, "backdrop_path": "/2J283YNxKhxAqHeVegUJ5mzLfGb.jpg", "genre_ids": [80, 18, 9648], "id": 392044, "original_language": "en", "original_title": "Murder on the Orient Express", "overview": "Genius Belgian detective Hercule Poirot investigates the murder of an American tycoon aboard the Orient Express train.", "poster_path": "/iBlfxlw8qwtUS0R8YjIU7JtM6LM.jpg", "release_date": "2017-11-03", "title": "Murder on the Orient Express", "video": false, "vote_average": 6.7, "vote_count": 6050, "popularity": 27.701}, {"id": 807, "video": false, "vote_count": 11937, "vote_average": 8.3, "title": "Se7en", "release_date": "1995-09-22", "original_language": "en", "original_title": "Se7en", "genre_ids": [80, 9648, 53], "backdrop_path": "/A0WKbRIojF9DUWG4XLCmg5JK6I5.jpg", "adult": false, "overview": "Two homicide detectives are on a desperate hunt for a serial killer whose crimes are based on the \"seven deadly sins\" in this dark and haunting film that takes viewers from the tortured remains of one victim to the next. The seasoned Det. Sommerset researches each sin in an effort to get inside the killer's mind, while his novice partner, Mills, scoffs at his efforts to unravel the case.", "poster_path": "/8zw8IL4zEPjkh8Aysdcd0FwGMb0.jpg", "popularity": 34.018}, {"id": 395834, "video": false, "vote_count": 2755, "vote_average": 7.4, "title": "Wind River", "release_date": "2017-08-03", "original_language": "en", "original_title": "Wind River", "genre_ids": [80, 18, 9648, 53], "backdrop_path": "/6B8e784decj9vtKuNjbl9Fes2aZ.jpg", "adult": false, "overview": "An FBI agent teams with the town's veteran game tracker to investigate a murder that occurred on a Native American reservation.", "poster_path": "/pySivdR845Hom4u4T2WNkJxe6Ad.jpg", "popularity": 16.931}, {"adult": false, "backdrop_path": "/8UkJSL5hlwGh3uSC5tyoaqhHQh7.jpg", "genre_ids": [80, 18, 53], "id": 18587, "original_language": "en", "original_title": "10 to Midnight", "overview": "Based on the real-life Richard Speck murders. After his bizarre behavior results in rejection from countless women, Warren Stacy begins murdering women, always while he is naked, which minimizes any physical evidence left behind. Detective Leo Kessler is convinced of Stacy\u2019s guilt and, over the objections of his partner, plants evidence to get him behind bars. When Stacy is released on a technicality, he threatens to go after Kessler and his family, leaving Kessler to defend himself with little help from the police.", "poster_path": "/bJiLyz6g8vsFgJ5oAdMWlQAWY4T.jpg", "release_date": "1983-03-11", "title": "10 to Midnight", "video": false, "vote_average": 6.0, "vote_count": 73, "popularity": 9.514}, {"id": 4771, "video": false, "vote_count": 2134, "vote_average": 7.3, "title": "Gone Baby Gone", "release_date": "2007-09-18", "original_language": "en", "original_title": "Gone Baby Gone", "genre_ids": [80, 18, 9648], "backdrop_path": "/sogh5NXPbKFajjYKBlfIBfCWgbq.jpg", "adult": false, "overview": "When 4 year old Amanda McCready disappears from her home and the police make little headway in solving the case, the girl's aunt, Beatrice McCready hires two private detectives, Patrick Kenzie and Angie Gennaro. The detectives freely admit that they have little experience with this type of case, but the family wants them for two reasons - they're not cops and they know the tough neighborhood in which they all live. As the case progresses, Kenzie and Gennaro face drug dealers, gangs and pedophiles. When they are about to solve the case, they are faced with a moral dilemma that tears them apart.", "poster_path": "/dXXMPxGiRegd7NNCtE5uchAKRAG.jpg", "popularity": 16.498}, {"adult": false, "backdrop_path": "/3F37pERkV42zI9vX6d3kdCNX4Q8.jpg", "genre_ids": [28, 80, 53], "id": 50236, "original_language": "it", "original_title": "Milano odia: la polizia non pu\u00f2 sparare", "overview": "A psychotic small-time criminal realizes that the everyday robberies, rapes and murders he commits aren't profitable enough, so he figures to hit the big time by kidnapping the daughter of a rich man.", "poster_path": "/oJTCJWiLqRrMg8XBF3X49gWcZsb.jpg", "release_date": "1974-08-08", "title": "Milano odia: la polizia non pu\u00f2 sparare", "video": false, "vote_average": 6.9, "vote_count": 47, "popularity": 6.034}, {"adult": false, "backdrop_path": "/v761yOHKO3p6Yr7LDCjud6tUL5G.jpg", "genre_ids": [28, 80, 53], "id": 10651, "original_language": "en", "original_title": "The Dead Pool", "overview": "Dirty Harry Callahan returns for his final film adventure. Together with his partner Al Quan, he must investigate the systematic murder of actors and musicians. By the time Harry learns that the murders are a part of a sick game to predict the deaths of celebrities before they happen, it may be too late...", "poster_path": "/9ZUSqox9lIxN4xaYBac2QXMFcZj.jpg", "release_date": "1988-07-12", "title": "The Dead Pool", "video": false, "vote_average": 6.4, "vote_count": 389, "popularity": 10.626}, {"id": 37645, "video": false, "vote_count": 575, "vote_average": 6.5, "title": "22 Bullets", "release_date": "2010-03-23", "original_language": "fr", "original_title": "L'Immortel", "genre_ids": [28, 80, 53], "backdrop_path": "/mU8zfCOTbahNGH0ZBTCuNdX16gj.jpg", "adult": false, "overview": "Charly Mattei\u0308 has turned his back on his life as an outlaw. For the last three years, he's led a peaceful life devoting himself to his wife and two children. Then, one winter morning, he's left for dead in the parking garage in Marseille's Old Port, with 22 bullets in his body. Against all the odds, he doesn't die...", "poster_path": "/wTYZjPq4YA2wC99MdHZTFQuxFpd.jpg", "popularity": 12.785}, {"adult": false, "backdrop_path": "/xBhRhY8KimSrPx6AMJXigpzlGQ2.jpg", "genre_ids": [28, 35, 80], "id": 96, "original_language": "en", "original_title": "Beverly Hills Cop II", "overview": "Axel heads for the land of sunshine and palm trees to find out who shot police Captain Andrew Bogomil. Thanks to a couple of old friends, Axel's investigation uncovers a series of robberies masterminded by a heartless weapons kingpin\u2014and the chase is on.", "poster_path": "/2y1z1baxKT0coTTRlnkI6McnR9f.jpg", "release_date": "1987-05-18", "title": "Beverly Hills Cop II", "video": false, "vote_average": 6.4, "vote_count": 1235, "popularity": 13.336}, {"adult": false, "backdrop_path": "/7QjoyyGdBV32x1sEh64dAnNjwg2.jpg", "genre_ids": [53, 35, 27], "id": 12521, "original_language": "en", "original_title": "Shocker", "overview": "After being sent to the electric chair, a serial killer uses electricity to come back from the dead and carry out his vengeance on the football player who turned him in to the police.", "poster_path": "/xEDmOhNGCKlWlS3mCiqLCVzBXVA.jpg", "release_date": "1989-10-27", "title": "Shocker", "video": false, "vote_average": 5.5, "vote_count": 176, "popularity": 10.495}, {"adult": false, "backdrop_path": "/4AXlsl0azR9d9xjX9tDdfAeM8lt.jpg", "genre_ids": [80, 18, 9648, 10749], "id": 25376, "original_language": "es", "original_title": "El secreto de sus ojos", "overview": "A retired legal counselor writes a novel hoping to find closure for one of his past unresolved homicide cases and for his unreciprocated love with his superior - both of which still haunt him decades later.", "poster_path": "/z2mUzEqDi7DtA1E4mYzVjbzXnqE.jpg", "release_date": "2009-08-13", "title": "The Secret in Their Eyes", "video": false, "vote_average": 7.9, "vote_count": 1288, "popularity": 11.544}], "total_pages": 425, "total_results": 8491}, "recommendations": {"page": 1, "results": [], "total_pages": 1, "total_results": 0}, "credits": {"cast": [{"cast_id": 1, "character": "Choi Hyun-su", "credit_id": "58878e4fc3a36859e00007c4", "gender": 2, "id": 227638, "name": "Ryu Seung-ryong", "order": 0, "profile_path": "/veprWXZgcLbWrG3lbKe2GgF3pvc.jpg"}, {"cast_id": 0, "character": "Oh Young-je", "credit_id": "58878e41c3a36859e9000829", "gender": 2, "id": 16962, "name": "Jang Dong-gun", "order": 1, "profile_path": "/kBh44FnsDzoqwgV8f8XBbQTgATr.jpg"}, {"cast_id": 2, "character": "Ahn Seung-hwan", "credit_id": "58878e5cc3a36859f00007e2", "gender": 2, "id": 1299516, "name": "Song Sae-byuk", "order": 2, "profile_path": "/jxMDfNq7o6SMEX6E6oSLcWit7q3.jpg"}, {"cast_id": 3, "character": "Choi Seo-won", "credit_id": "58878e6892514162fa0007f1", "gender": 2, "id": 1257601, "name": "Ko Kyoung-pyo", "order": 3, "profile_path": "/9USMlxZS5GC5i5E2aEZkOtjeejX.jpg"}, {"cast_id": 8, "character": "Kang Eun-ju", "credit_id": "589bef5c925141260a002a3a", "gender": 1, "id": 1077269, "name": "Moon Jeong-hee", "order": 4, "profile_path": "/pSi2HE6F7YV8RkxNrIz44Lw7Ni5.jpg"}, {"cast_id": 11, "character": "Oh Se-ryoung", "credit_id": "5b92c0ce92514165700039c9", "gender": 1, "id": 1299244, "name": "Lee Re", "order": 5, "profile_path": "/kengkYowGTbsIAfFPb1lELIZ8Ob.jpg"}, {"cast_id": 12, "character": "Seo-won (young)", "credit_id": "5b92c0ec925141656c0040ac", "gender": 2, "id": 2123570, "name": "Tang Jun-sang", "order": 6, "profile_path": "/qDSFx6uoKUEKnkXpkhWgIlkG0YL.jpg"}, {"cast_id": 18, "character": "", "credit_id": "5ba38d40925141524a0170d0", "gender": 2, "id": 1338164, "name": "Moon Chang-gil", "order": 7, "profile_path": null}, {"cast_id": 19, "character": "", "credit_id": "5ba38d449251415245019ec5", "gender": 2, "id": 17127, "name": "Jeong Seok-yong", "order": 8, "profile_path": "/xFmseNweZENv5VdbmcrlYb7R9r7.jpg"}, {"cast_id": 13, "character": "", "credit_id": "5ba38cf8c3a368339c01afc9", "gender": 2, "id": 1278161, "name": "Jeong Joon-won", "order": 9, "profile_path": "/jnGl5QXsuYk2a0OrWHrusKHKGWH.jpg"}, {"cast_id": 20, "character": "", "credit_id": "5ba38e4d0e0a265e4601c16a", "gender": 2, "id": 1482672, "name": "Yoo Soon-woong", "order": 10, "profile_path": null}, {"cast_id": 14, "character": "", "credit_id": "5ba38d18925141523d016b81", "gender": 1, "id": 1374543, "name": "Lee Sang-hee", "order": 11, "profile_path": "/qzZrZ6izweisaUfZtCGou273Q1J.jpg"}, {"cast_id": 15, "character": "", "credit_id": "5ba38d230e0a265e5001a300", "gender": 2, "id": 1334230, "name": "Kim Jung-pal", "order": 12, "profile_path": "/ao83emLZIRqiaX4OHFUSjF95tSQ.jpg"}, {"cast_id": 16, "character": "", "credit_id": "5ba38d280e0a265e4601bce5", "gender": 2, "id": 1591370, "name": "Seo Hyun-woo", "order": 13, "profile_path": "/erGaK6qrzXQEcUWnTa43AzgiQ3i.jpg"}, {"cast_id": 17, "character": "", "credit_id": "5ba38d2d0e0a265e4a01acf1", "gender": 1, "id": 496935, "name": "Seong Byeong-sook", "order": 14, "profile_path": "/uDmce1ZlZpzsH1A1unRKZjvt45I.jpg"}, {"cast_id": 29, "character": "Shaman", "credit_id": "5d6c64b065686e6d7d88ce24", "gender": 2, "id": 2401535, "name": "Jeong In-gyeom", "order": 15, "profile_path": "/pLC4o5B7VmuNMLF4zXUcuvQ5vH9.jpg"}, {"cast_id": 32, "character": "Hyun-su's father", "credit_id": "5dfb1cc565686e00188d9419", "gender": 2, "id": 2485848, "name": "Choi Gwang-il", "order": 16, "profile_path": null}], "crew": [{"credit_id": "5c8f47cb9251410feda35439", "department": "Writing", "gender": 1, "id": 517090, "job": "Adaptation", "name": "Bae Se-young", "profile_path": null}, {"credit_id": "5a9f9f2dc3a3680a1300ec42", "department": "Writing", "gender": 2, "id": 566365, "job": "Screenplay", "name": "Choo Chang-min", "profile_path": "/22RtFmA2LsoDRGEoxbLaHaGBaq3.jpg"}, {"credit_id": "58878eb2c3a36859ec000834", "department": "Directing", "gender": 2, "id": 566365, "job": "Director", "name": "Choo Chang-min", "profile_path": "/22RtFmA2LsoDRGEoxbLaHaGBaq3.jpg"}, {"credit_id": "5c4d5b86c3a368479390e8de", "department": "Production", "gender": 0, "id": 1294607, "job": "Producer", "name": "An Eun-mi", "profile_path": null}, {"credit_id": "5de53c8e3faba00015102fbe", "department": "Production", "gender": 1, "id": 1443002, "job": "Executive Producer", "name": "Bang Ok-kyung", "profile_path": null}, {"credit_id": "597c1e78c3a368182a008c0e", "department": "Writing", "gender": 1, "id": 1744536, "job": "Novel", "name": "Jeong You-jeong", "profile_path": null}, {"credit_id": "5d4a770b439be10013915027", "department": "Sound", "gender": 0, "id": 1915915, "job": "Original Music Composer", "name": "Koo Ja-wan", "profile_path": null}, {"credit_id": "5c9f090ec3a368735980bdd0", "department": "Production", "gender": 0, "id": 2197566, "job": "Production Supervisor", "name": "Yun Ji-won", "profile_path": null}, {"credit_id": "5c22569b0e0a264ddeefb2ee", "department": "Costume & Make-Up", "gender": 0, "id": 2201525, "job": "Makeup & Hair", "name": "Kim Jeong-ja", "profile_path": null}, {"credit_id": "5c2256a10e0a264dd8efbd23", "department": "Costume & Make-Up", "gender": 0, "id": 2201526, "job": "Makeup & Hair", "name": "Hwang Hyun-gyu", "profile_path": null}, {"credit_id": "5c713834c3a3685a4012a3bd", "department": "Art", "gender": 0, "id": 2248439, "job": "Production Design", "name": "Lee Jae-sung", "profile_path": null}, {"credit_id": "5cd804530e0a264e5dcafbf9", "department": "Sound", "gender": 0, "id": 2310862, "job": "Sound Supervisor", "name": "Park Ju-kang", "profile_path": null}, {"credit_id": "5dee55c5688cd000121fcf18", "department": "Production", "gender": 2, "id": 2478784, "job": "Production Supervisor", "name": "Kim Kyeong-taek", "profile_path": null}]}}