{"adult": false, "backdrop_path": "/ehtMTb2IzDl1coSvfuKDfSA3cjt.jpg", "belongs_to_collection": null, "budget": 0, "genres": [{"id": 16, "name": "Animation"}, {"id": 80, "name": "Crime"}], "homepage": "https://strandreleasing.com/films/have-a-nice-day/", "id": 437220, "imdb_id": "tt6451304", "original_language": "zh", "original_title": "\u5927\u4e16\u754c", "overview": "Three parties pursue the million dollars that driver Xiao Zhang stole to help out his girlfriend.", "popularity": 1.997, "poster_path": "/hDgqrlBmyFlD2MBu2Zave6S4Z80.jpg", "production_companies": [{"id": 88158, "logo_path": null, "name": "Le-joy Animation Studio", "origin_country": "CN"}], "production_countries": [{"iso_3166_1": "CN", "name": "China"}], "release_date": "2018-01-12", "revenue": 0, "runtime": 77, "spoken_languages": [{"iso_639_1": "zh", "name": "\u666e\u901a\u8bdd"}], "status": "Released", "tagline": "", "title": "Have a Nice Day", "video": false, "vote_average": 5.3, "vote_count": 13, "keywords": {"keywords": [{"id": 8627, "name": "stolen money"}, {"id": 14819, "name": "violence"}]}, "similar": {"page": 1, "results": [{"adult": false, "backdrop_path": "/rPfyX0pkmn8Ea4gh3DfsmzFUf05.jpg", "genre_ids": [18, 27, 80], "id": 74997, "original_language": "en", "original_title": "The Human Centipede 2 (Full Sequence)", "overview": "Inspired by the fictional Dr. Heiter, disturbed loner Martin dreams of creating a 12-person centipede and sets out to realize his sick fantasy.", "poster_path": "/kFtAdkCO0vXN2RWu2oMcR9GZ9Hi.jpg", "release_date": "2011-10-06", "title": "The Human Centipede 2 (Full Sequence)", "video": false, "vote_average": 4.5, "vote_count": 674, "popularity": 14.216}, {"adult": false, "backdrop_path": "/a24i4Qw6qFTtkFLQsncv8WPwevj.jpg", "genre_ids": [53, 28, 80], "id": 345887, "original_language": "en", "original_title": "The Equalizer 2", "overview": "Robert McCall, who serves an unflinching justice for the exploited and oppressed, embarks on a relentless, globe-trotting quest for vengeance when a long-time girl friend is murdered.", "poster_path": "/cQvc9N6JiMVKqol3wcYrGshsIdZ.jpg", "release_date": "2018-07-19", "title": "The Equalizer 2", "video": false, "vote_average": 6.5, "vote_count": 2483, "popularity": 21.271}, {"id": 395834, "video": false, "vote_count": 2755, "vote_average": 7.4, "title": "Wind River", "release_date": "2017-08-03", "original_language": "en", "original_title": "Wind River", "genre_ids": [80, 18, 9648, 53], "backdrop_path": "/6B8e784decj9vtKuNjbl9Fes2aZ.jpg", "adult": false, "overview": "An FBI agent teams with the town's veteran game tracker to investigate a murder that occurred on a Native American reservation.", "poster_path": "/pySivdR845Hom4u4T2WNkJxe6Ad.jpg", "popularity": 16.931}, {"adult": false, "backdrop_path": "/ct2r3CqnA0KtMfib4AvfBU1W9M2.jpg", "genre_ids": [28, 80, 53], "id": 398175, "original_language": "en", "original_title": "Brawl in Cell Block 99", "overview": "After working as a drug courier and getting into a brutal shootout with police, a former boxer finds himself at the mercy of his enemies as they force him to instigate violent acts that turn the prison he resides in into a battleground.", "poster_path": "/lGgIQ10NJ3d0X0uFbbUN4pRrMFZ.jpg", "release_date": "2017-09-23", "title": "Brawl in Cell Block 99", "video": false, "vote_average": 6.8, "vote_count": 605, "popularity": 13.011}, {"adult": false, "backdrop_path": "/a0UYovVNPVfWILYT7TzD10xBX3q.jpg", "genre_ids": [18, 53, 80, 9648], "id": 979, "original_language": "fr", "original_title": "Irr\u00e9versible", "overview": "Events over the course of one traumatic night in Paris unfold in reverse-chronological order as the beautiful Alex is brutally raped and beaten by a stranger in the underpass. Her boyfriend and ex-lover take matters into their own hands by hiring two criminals to help them find the rapist so that they can exact revenge. A simultaneously beautiful and terrible examination of the destructive nature of cause and effect, and how time destroys everything.", "poster_path": "/rxeDxo8FvZpLu6iplNpxdtAVnfu.jpg", "release_date": "2002-05-22", "title": "Irreversible", "video": false, "vote_average": 7.1, "vote_count": 1216, "popularity": 20.416}, {"adult": false, "backdrop_path": "/kiWvoV78Cc3fUwkOHKzyBgVdrDD.jpg", "genre_ids": [37, 18, 12], "id": 281957, "original_language": "en", "original_title": "The Revenant", "overview": "In the 1820s, a frontiersman, Hugh Glass, sets out on a path of vengeance against those who left him for dead after a bear mauling.", "poster_path": "/oXUWEc5i3wYyFnL1Ycu8ppxxPvs.jpg", "release_date": "2015-12-25", "title": "The Revenant", "video": false, "vote_average": 7.5, "vote_count": 12127, "popularity": 24.135}, {"id": 9373, "video": false, "vote_count": 1414, "vote_average": 6.1, "title": "The Texas Chainsaw Massacre", "release_date": "2003-05-21", "original_language": "en", "original_title": "The Texas Chainsaw Massacre", "genre_ids": [27], "backdrop_path": "/3rTsJ7tIC3LUSRr80PfeLbbCfBA.jpg", "adult": false, "overview": "After picking up a traumatized young hitchhiker, five friends find themselves stalked and hunted by a deformed chainsaw-wielding killer and his family of equally psychopathic killers.", "poster_path": "/gx7FCIOFGxqNyplF3t7qtmUv55g.jpg", "popularity": 19.117}, {"adult": false, "backdrop_path": "/o4psXh7IVD6GFKvBSHjHLzjL2lV.jpg", "genre_ids": [27, 53], "id": 10781, "original_language": "en", "original_title": "The Texas Chainsaw Massacre: The Beginning", "overview": "Chrissie and her friends set out on a road trip for a final fling before one is shipped off to Vietnam. Along the way, bikers harass the foursome and cause an accident that throws Chrissie from the vehicle. The lawman who arrives on the scene kills one of the bikers and brings Chrissie's friends to the Hewitt homestead, where young Leatherface is learning the tools of terror.", "poster_path": "/9elCJIG1TOJ0wew3JVx5ZMkHq5w.jpg", "release_date": "2006-10-06", "title": "The Texas Chainsaw Massacre: The Beginning", "video": false, "vote_average": 6.0, "vote_count": 936, "popularity": 19.211}, {"id": 15069, "video": false, "vote_count": 75, "vote_average": 5.4, "title": "W\u0394Z", "release_date": "2007-05-19", "original_language": "en", "original_title": "W\u0394Z", "genre_ids": [80, 18, 27, 53], "backdrop_path": "/nVwdXjnbfulc6cymFgOQJctpspr.jpg", "adult": false, "overview": "There is something horribly wrong with the bodies found in the dark city streets. Some are mutilated while others have the Price equation (w\u0394z = Cov (w,z) = \u03b2wzVz) carved into their flesh. Detective Eddie Argo and his new partner Helen Westcott unearth the meaning of the odd equation and realise each victim is being offered a gruesome choice: kill your loved ones, or be killed. Before long it becomes clear that the perpetrator has suffered a similar fate and is now coping by seeking a way to solve this philosophical dilemma.", "poster_path": "/8lPZ59iQRqUELprKuB0myy7u6Zm.jpg", "popularity": 7.935}, {"id": 400, "video": false, "vote_count": 185, "vote_average": 6.6, "title": "Things to Do in Denver When You're Dead", "release_date": "1995-12-01", "original_language": "en", "original_title": "Things to Do in Denver When You're Dead", "genre_ids": [80, 18], "backdrop_path": "/5iCxKe3zEPnrc1Y0R0m0YnFdaBO.jpg", "adult": false, "overview": "A mafia film in Tarantino style with a star-studded cast. Jimmy\u2019s \u201cThe Saint\u201d gangster career has finally ended. Yet now he finds him self doing favors for a wise godfather known as \u201cThe Man with the Plan.\u201d", "poster_path": "/ysKIolKO0376Nl5DV1fDAAPudEq.jpg", "popularity": 8.729}, {"adult": false, "backdrop_path": "/iZOgAvUt6q356da1sfYz1UalNO.jpg", "genre_ids": [80, 18, 10749, 53], "id": 3134, "original_language": "fr", "original_title": "Baise-moi", "overview": "Manu has lived a difficult life. Abused and violently raped, she sets off to find herself only to meet Nadine, a prostitute who has encountered one too many injustices in the world. Angry at the world, they embark on a twisted, rage-filled road trip. They choose to have sex when they please and kill when they need. Leaving a trail of mischief and dead bodies in their wake. Generating a media blitz and manhunt, soon everyone is out to capture the young fugitives.", "poster_path": "/sLvsIgWMH9bV1IZnZOzY5dXKUHe.jpg", "release_date": "2000-06-28", "title": "Baise-moi", "video": false, "vote_average": 4.3, "vote_count": 173, "popularity": 14.535}, {"adult": false, "backdrop_path": "/9ZYJvlx2nzoi2Q4O11wuDHvTZQe.jpg", "genre_ids": [80, 18, 27, 53], "id": 10692, "original_language": "en", "original_title": "Henry: Portrait of a Serial Killer", "overview": "Henry likes to kill people, in different ways each time. Henry shares an apartment with Otis. When Otis' sister comes to stay, we see both sides of Henry: \"the guy next door\" and the serial killer.", "poster_path": "/jE9bDB7v7lMED5PWpPMsmc3SzlI.jpg", "release_date": "1986-09-24", "title": "Henry: Portrait of a Serial Killer", "video": false, "vote_average": 6.8, "vote_count": 304, "popularity": 10.2}, {"adult": false, "backdrop_path": "/kSTvteM3ekuoeO7u7GJtZQkZuom.jpg", "genre_ids": [28, 53, 80], "id": 1948, "original_language": "en", "original_title": "Crank", "overview": "Professional assassin Chev Chelios learns his rival has injected him with a poison that will kill him if his heart rate drops.", "poster_path": "/6RnD3Zfh0tO0cD2vroWyH0F98Ej.jpg", "release_date": "2006-08-31", "title": "Crank", "video": false, "vote_average": 6.6, "vote_count": 2121, "popularity": 21.613}, {"adult": false, "backdrop_path": "/19qAk3bQZ6ulspbwhPw1A0bNpii.jpg", "genre_ids": [80, 27, 53], "id": 73861, "original_language": "sr", "original_title": "Srpski film", "overview": "Milos, a retired porn star, leads a normal family life trying to make ends meet. Presented with the opportunity of a lifetime to financially support his family for the rest of their lives, Milos must participate in one last mysterious film. From then on, Milos is drawn into a maelstrom of unbelievable cruelty and mayhem.", "poster_path": "/iB3ynCghwG63MrViBC6YyPzUIAn.jpg", "release_date": "2010-06-16", "title": "A Serbian Film", "video": false, "vote_average": 5.5, "vote_count": 898, "popularity": 16.013}, {"id": 400535, "video": false, "vote_count": 1616, "vote_average": 6.7, "title": "Sicario: Day of the Soldado", "release_date": "2018-06-27", "original_language": "en", "original_title": "Sicario: Day of the Soldado", "genre_ids": [28, 80, 18, 53], "backdrop_path": "/13VjjUeJ6mcDUB36XRu4YFpYNSm.jpg", "adult": false, "overview": "Agent Matt Graver teams up with operative Alejandro Gillick to prevent Mexican drug cartels from smuggling terrorists across the United States border.", "poster_path": "/msqWSQkU403cQKjQHnWLnugv7EY.jpg", "popularity": 24.365}, {"adult": false, "backdrop_path": "/2p5rA1NRoyyAFfzdHl1Ab1RN3qr.jpg", "genre_ids": [80, 28, 878], "id": 9739, "original_language": "en", "original_title": "Demolition Man", "overview": "Simon Phoenix, a violent criminal cryogenically frozen in 1996, escapes during a parole hearing in 2032 in the utopia of San Angeles. Police are incapable of dealing with his violent ways and turn to his captor, who had also been cryogenically frozen after being wrongfully accused of killing 30 innocent people while apprehending Phoenix.", "poster_path": "/k0PN3Ho12cGGIVJW7SCS7apLYaP.jpg", "release_date": "1993-10-08", "title": "Demolition Man", "video": false, "vote_average": 6.5, "vote_count": 1913, "popularity": 16.803}, {"id": 156022, "video": false, "vote_count": 5468, "vote_average": 7.2, "title": "The Equalizer", "release_date": "2014-09-24", "original_language": "en", "original_title": "The Equalizer", "genre_ids": [28, 80, 53], "backdrop_path": "/vbl4ZVqelrrzJ16fdDOq9siWbpi.jpg", "adult": false, "overview": "McCall believes he has put his mysterious past behind him and dedicated himself to beginning a new, quiet life. But when he meets Teri, a young girl under the control of ultra-violent Russian gangsters, he can\u2019t stand idly by \u2013 he has to help her. Armed with hidden skills that allow him to serve vengeance against anyone who would brutalize the helpless, McCall comes out of his self-imposed retirement and finds his desire for justice reawakened. If someone has a problem, if the odds are stacked against them, if they have nowhere else to turn, McCall will help. He is The Equalizer.", "poster_path": "/2eQfjqlvPAxd9aLDs8DvsKLnfed.jpg", "popularity": 39.578}, {"id": 339692, "video": false, "vote_count": 1166, "vote_average": 6.9, "title": "Shot Caller", "release_date": "2017-07-13", "original_language": "en", "original_title": "Shot Caller", "genre_ids": [80, 18, 53], "backdrop_path": "/hehboYLXB3m90x9ybiBsupwuifL.jpg", "adult": false, "overview": "A newly-released prison gangster is forced by the leaders of his gang to orchestrate a major crime with a brutal rival gang on the streets of Southern California.", "poster_path": "/qLmLz2wtyYvmW8Ult3l2ngOnW8v.jpg", "popularity": 22.37}, {"adult": false, "backdrop_path": "/sw7mordbZxgITU877yTpZCud90M.jpg", "genre_ids": [18, 80], "id": 769, "original_language": "en", "original_title": "GoodFellas", "overview": "The true story of Henry Hill, a half-Irish, half-Sicilian Brooklyn kid who is adopted by neighbourhood gangsters at an early age and climbs the ranks of a Mafia family under the guidance of Jimmy Conway.", "poster_path": "/pwpGfTImTGifEGgLb3s6LRPd4I6.jpg", "release_date": "1990-09-12", "title": "GoodFellas", "video": false, "vote_average": 8.4, "vote_count": 6559, "popularity": 36.135}, {"id": 479, "video": false, "vote_count": 647, "vote_average": 5.8, "title": "Shaft", "release_date": "2000-06-15", "original_language": "en", "original_title": "Shaft", "genre_ids": [28, 12, 80, 53], "backdrop_path": "/2p9NtyrnFZtGRyCGN5SBk1eARNK.jpg", "adult": false, "overview": "New York police detective John Shaft arrests Walter Wade Jr. for a racially motivated slaying. But the only eyewitness disappears, and Wade jumps bail for Switzerland. Two years later Wade returns to face trial, confident his money and influence will get him acquitted -- especially since he's paid a drug kingpin to kill the witness.", "poster_path": "/bqlpFp96uWu2VDpsm4MVvLXdumh.jpg", "popularity": 10.732}], "total_pages": 390, "total_results": 7790}, "recommendations": {"page": 1, "results": [{"adult": false, "backdrop_path": "/r21n1HOabMslaEcOHwTraSzwNb8.jpg", "genre_ids": [16], "id": 178522, "original_language": "en", "original_title": "In Absentia", "overview": "A woman sits alone on a chair at a table in a room on one of the top floors of an asylum. Bright spot lights dot the night, sometimes shining on her window. She sharpens pencils and writes on a page in a copy book. The pencil point often breaks under her fingers' force. She places broken points outside the window on the sill. A satanic figure is somewhere nearby, animated but of straw or clay, not flesh. She finishes her writing, tears the paper from the pad, folds it, places it in an envelope, and slips it through a slot. Is she writing to her husband? \"Sweetheart, come.\" Written by", "poster_path": "/gSeTuBO84IqQJSEY7CbpRYtiW46.jpg", "release_date": "2000-10-21", "title": "In Absentia", "video": false, "vote_average": 6.8, "vote_count": 16, "popularity": 0.967}], "total_pages": 1, "total_results": 1}, "credits": {"cast": [{"cast_id": 10, "character": "Uncle Liu (voice)", "credit_id": "58d456f2c3a3681267018aa9", "gender": 0, "id": 1782709, "name": "Yang Siming", "order": 1, "profile_path": null}, {"cast_id": 11, "character": "Yellow Eye (voice)", "credit_id": "58d456ffc3a368128901b374", "gender": 0, "id": 1782710, "name": "Cao Kou", "order": 2, "profile_path": null}, {"cast_id": 12, "character": "Thin Skin (voice)", "credit_id": "58d457119251411fd501b681", "gender": 0, "id": 1782711, "name": "Ma Xiaofeng", "order": 3, "profile_path": null}, {"cast_id": 13, "character": "Xiao Zhang (voice)", "credit_id": "58d45726c3a368124f01aadd", "gender": 0, "id": 1782712, "name": "Zhu Changlong", "order": 4, "profile_path": null}, {"cast_id": 14, "character": "Lao Zaoh (voice)", "credit_id": "58d457479251411faa01b20a", "gender": 0, "id": 1782713, "name": "Cao Ka", "order": 5, "profile_path": null}, {"cast_id": 15, "character": "Second Sister (voice)", "credit_id": "58d457649251411fdc01c16d", "gender": 0, "id": 1782715, "name": "Zheng Yi", "order": 6, "profile_path": null}], "crew": [{"credit_id": "58d45511c3a368126f019659", "department": "Sound", "gender": 0, "id": 1379077, "job": "Sound Designer", "name": "Li Danfeng", "profile_path": null}, {"credit_id": "588860189251411bbe0050ed", "department": "Directing", "gender": 2, "id": 1744811, "job": "Director", "name": "Liu Jian", "profile_path": null}, {"credit_id": "58d45426c3a368123401a46d", "department": "Writing", "gender": 2, "id": 1744811, "job": "Writer", "name": "Liu Jian", "profile_path": null}, {"credit_id": "58d45464c3a368121b0193e2", "department": "Visual Effects", "gender": 2, "id": 1744811, "job": "Animation", "name": "Liu Jian", "profile_path": null}, {"credit_id": "58d4561592514103d2004e85", "department": "Sound", "gender": 0, "id": 1782700, "job": "Sound", "name": "Gao Rui Feng", "profile_path": null}, {"credit_id": "58d456219251411fdc01bfd1", "department": "Production", "gender": 2, "id": 1744811, "job": "Casting", "name": "Liu Jian", "profile_path": null}, {"credit_id": "58d456b9c3a368128901b325", "department": "Production", "gender": 0, "id": 1782708, "job": "Producer", "name": "Yang Cheng", "profile_path": null}, {"credit_id": "58d456c29251411f8901b821", "department": "Production", "gender": 0, "id": 1782708, "job": "Executive Producer", "name": "Yang Cheng", "profile_path": null}, {"credit_id": "58d456cac3a368124f01aa56", "department": "Production", "gender": 2, "id": 1744811, "job": "Producer", "name": "Liu Jian", "profile_path": null}, {"credit_id": "58d456d2c3a368128901b343", "department": "Production", "gender": 2, "id": 1744811, "job": "Executive Producer", "name": "Liu Jian", "profile_path": null}, {"credit_id": "58d457dcc3a368124f01abb8", "department": "Production", "gender": 0, "id": 1782717, "job": "Producer", "name": "Lynne Wang", "profile_path": null}, {"credit_id": "58d457eec3a368124f01abd5", "department": "Production", "gender": 0, "id": 1782718, "job": "Co-Producer", "name": "Jin Rui", "profile_path": null}, {"credit_id": "58d4581b9251411fc501b731", "department": "Editing", "gender": 0, "id": 1782719, "job": "Editor", "name": "Minbing Xiaoliu", "profile_path": null}]}}