{"adult": false, "backdrop_path": "/ztQUUH2IcPtZFYwHTIX0fBfjxNu.jpg", "belongs_to_collection": null, "budget": 0, "genres": [{"id": 28, "name": "Action"}], "homepage": null, "id": 437633, "imdb_id": "tt6904062", "original_language": "ko", "original_title": "\ub9ac\uc5bc", "overview": "Jang Tae-Young (Kim Soo-Hyun) is a popular trouble shooter in the criminal world. He is cold and ambitious. He dreams of building a casino hotel one day. A reporter then goes to Jang Tae-Young.", "popularity": 3.484, "poster_path": "/65OspkJC1wjUJOFlP4NWBiEl4I1.jpg", "production_companies": [{"id": 7036, "logo_path": "/javbyY0ZCvlFJtly3tpZqf2NwLX.png", "name": "CJ Entertainment", "origin_country": "KR"}], "production_countries": [{"iso_3166_1": "KR", "name": "South Korea"}], "release_date": "2017-06-28", "revenue": 0, "runtime": 137, "spoken_languages": [{"iso_639_1": "ko", "name": "\ud55c\uad6d\uc5b4/\uc870\uc120\ub9d0"}, {"iso_639_1": "tr", "name": "T\u00fcrk\u00e7e"}], "status": "Released", "tagline": "", "title": "Real", "video": false, "vote_average": 4.7, "vote_count": 14, "keywords": {"keywords": [{"id": 1803, "name": "drug addiction"}, {"id": 9807, "name": "noir"}, {"id": 212803, "name": "dissociative identity disorder"}]}, "similar": {"page": 1, "results": [{"id": 627, "video": false, "vote_count": 6006, "vote_average": 8.0, "title": "Trainspotting", "release_date": "1996-02-23", "original_language": "en", "original_title": "Trainspotting", "genre_ids": [80, 18], "backdrop_path": "/Aw0z8bUhGljT0ots6udf1MTLEMi.jpg", "adult": false, "overview": "Mark Renton, deeply immersed in the Edinburgh drug scene, tries to clean up and get out, despite the allure of the drugs and influence of friends.", "poster_path": "/p1O3eFsdb0GEIYu87xlwV7P4jM1.jpg", "popularity": 35.793}, {"id": 331781, "video": false, "vote_count": 769, "vote_average": 7.6, "title": "Amy", "release_date": "2015-07-03", "original_language": "en", "original_title": "Amy", "genre_ids": [99, 10402], "backdrop_path": "/ktivqGIKG8hk9nwwX2G2FgsBgaD.jpg", "adult": false, "overview": "A documentary on the life of Amy Winehouse, the immensely talented yet doomed songstress. We see her from her teen years, where she already showed her singing abilities, to her finding success and then her downward spiral into alcoholism and drugs.", "poster_path": "/hr0laiK7CVmsT87iQml153xs3Up.jpg", "popularity": 12.766}, {"id": 59967, "video": false, "vote_count": 7205, "vote_average": 6.8, "title": "Looper", "release_date": "2012-09-26", "original_language": "en", "original_title": "Looper", "genre_ids": [28, 878, 53], "backdrop_path": "/vuHG8VlYnvw4gUKtS7GY5kZol69.jpg", "adult": false, "overview": "In the futuristic action thriller Looper, time travel will be invented but it will be illegal and only available on the black market. When the mob wants to get rid of someone, they will send their target 30 years into the past where a looper, a hired gun, like Joe is waiting to mop up. Joe is getting rich and life is good until the day the mob decides to close the loop, sending back Joe's future self for assassination.", "poster_path": "/sNjL6SqErDBE8OUZlrDLkexfsCj.jpg", "popularity": 24.08}, {"adult": false, "backdrop_path": null, "genre_ids": [28, 12], "id": 520799, "original_language": "en", "original_title": "The Riddle Of The Spider's Web", "overview": "The Scotts are confronted with their past and Harrison with his future when they visit a Caribbean island that is being ripped apart by mysterious earthquakes.", "poster_path": "/xHjpsmmNR2cc52t6QwIFEabKFyy.jpg", "release_date": "2019-09-28", "title": "The Riddle Of The Spider's Web", "video": true, "vote_average": 0.0, "vote_count": 0, "popularity": 0.936}, {"id": 1051, "video": false, "vote_count": 854, "vote_average": 7.6, "title": "The French Connection", "release_date": "1971-10-09", "original_language": "en", "original_title": "The French Connection", "genre_ids": [28, 80, 53], "backdrop_path": "/hPlzjKzbO8KuCerm1lOxDtUjlHD.jpg", "adult": false, "overview": "Tough narcotics detective 'Popeye' Doyle is in hot pursuit of a suave French drug dealer who may be the key to a huge heroin-smuggling operation.", "poster_path": "/5XSGvIKl2yPvOkieFjc3rzLw7x0.jpg", "popularity": 13.205}, {"adult": false, "backdrop_path": "/e1QVZfHmKlqxlaTNLTP9ATshLqU.jpg", "genre_ids": [53, 28, 80, 9648], "id": 287948, "original_language": "en", "original_title": "The Transporter Refueled", "overview": "The fast-paced action movie is again set in the criminal underworld in France, where Frank Martin is known as The Transporter, because he is the best driver and mercenary money can buy. In this installment, he meets Anna and they attempt to take down a group of ruthless Russian human traffickers who also have kidnapped Frank\u2019s father.", "poster_path": "/zW7oC3tucYLzu77xNbPbYjXUN4o.jpg", "release_date": "2015-09-03", "title": "The Transporter Refueled", "video": false, "vote_average": 5.5, "vote_count": 903, "popularity": 15.506}, {"adult": false, "backdrop_path": "/1N4CeQyy3kh1pqmTGvMU090sCvh.jpg", "genre_ids": [12, 28, 53], "id": 253, "original_language": "en", "original_title": "Live and Let Die", "overview": "James Bond must investigate a mysterious murder case of a British agent in New Orleans. Soon he finds himself up against a gangster boss named Mr. Big.", "poster_path": "/p34OScaro2KdISrT4EMfeh1aS0E.jpg", "release_date": "1973-07-05", "title": "Live and Let Die", "video": false, "vote_average": 6.5, "vote_count": 992, "popularity": 18.177}, {"id": 416234, "video": false, "vote_count": 1007, "vote_average": 5.8, "title": "Winchester", "release_date": "2018-02-02", "original_language": "en", "original_title": "Winchester", "genre_ids": [14, 27, 9648, 53], "backdrop_path": "/d4wnMDSrQonB9iArMzd90WqaoJ4.jpg", "adult": false, "overview": "San Jose, California, 1906. Isolated in her labyrinthine mansion, eccentric firearm heiress Sarah Winchester believes that she is being haunted by the souls of those killed by the guns manufactured by her company.", "poster_path": "/tHDtskokZeO9B3JBdR1dSH0uqad.jpg", "popularity": 13.27}, {"adult": false, "backdrop_path": "/useuHJQ5HOoEWkAvEjL1FW1sUfe.jpg", "genre_ids": [18], "id": 376867, "original_language": "en", "original_title": "Moonlight", "overview": "The tender, heartbreaking story of a young man\u2019s struggle to find himself, told across three defining chapters in his life as he experiences the ecstasy, pain, and beauty of falling in love, while grappling with his own sexuality.", "poster_path": "/qAwFbszz0kRyTuXmMeKQZCX3Q2O.jpg", "release_date": "2016-10-21", "title": "Moonlight", "video": false, "vote_average": 7.4, "vote_count": 4410, "popularity": 21.716}, {"id": 106646, "video": false, "vote_count": 13908, "vote_average": 8.0, "title": "The Wolf of Wall Street", "release_date": "2013-12-25", "original_language": "en", "original_title": "The Wolf of Wall Street", "genre_ids": [35, 80, 18], "backdrop_path": "/rP36Rx5RQh0rmH2ynEIaG8DxbV2.jpg", "adult": false, "overview": "A New York stockbroker refuses to cooperate in a large securities fraud case involving corruption on Wall Street, corporate banking world and mob infiltration. Based on Jordan Belfort's autobiography.", "poster_path": "/vK1o5rZGqxyovfIhZyMELhk03wO.jpg", "popularity": 35.327}, {"id": 381288, "video": false, "vote_count": 11449, "vote_average": 7.3, "title": "Split", "release_date": "2017-01-19", "original_language": "en", "original_title": "Split", "genre_ids": [27, 53], "backdrop_path": "/9pkZesKMnblFfKxEhQx45YQ2kIe.jpg", "adult": false, "overview": "Though Kevin has evidenced 23 personalities to his trusted psychiatrist, Dr. Fletcher, there remains one still submerged who is set to materialize and dominate all the others. Compelled to abduct three teenage girls led by the willful, observant Casey, Kevin reaches a war for survival among all of those contained within him \u2014 as well as everyone around him \u2014 as the walls between his compartments shatter apart.", "poster_path": "/rXMWOZiCt6eMX22jWuTOSdQ98bY.jpg", "popularity": 39.624}, {"id": 450465, "video": false, "vote_count": 4473, "vote_average": 6.5, "title": "Glass", "release_date": "2019-01-16", "original_language": "en", "original_title": "Glass", "genre_ids": [18, 878, 53], "backdrop_path": "/ngBFDOsx13sFXiMweDoL54XYknR.jpg", "adult": false, "overview": "In a series of escalating encounters, former security guard David Dunn uses his supernatural abilities to track Kevin Wendell Crumb, a disturbed man who has twenty-four personalities. Meanwhile, the shadowy presence of Elijah Price emerges as an orchestrator who holds secrets critical to both men.", "poster_path": "/svIDTNUoajS8dLEo7EosxvyAsgJ.jpg", "popularity": 44.676}, {"id": 635, "video": false, "vote_count": 727, "vote_average": 7.2, "title": "Angel Heart", "release_date": "1987-03-06", "original_language": "en", "original_title": "Angel Heart", "genre_ids": [27, 9648], "backdrop_path": "/lMsT7WcLHVucDsOG2aUlm8AbkvZ.jpg", "adult": false, "overview": "Down-and-out private detective Harry Angel is ordered by the mysterious Louis Cyphre to go on a mission to find a missing person. His routine failure soon leads to a bloody spar with himself, as he goes on a supernatural journey into his own soul.", "poster_path": "/xFtrVJWygDiK2iZluUxNwuQZ6Sm.jpg", "popularity": 14.863}, {"adult": false, "backdrop_path": "/arcpWGGnUkGkakOwZo7xfPsaz7h.jpg", "genre_ids": [9648, 53], "id": 2832, "original_language": "en", "original_title": "Identity", "overview": "Complete strangers stranded at a remote desert motel during a raging storm soon find themselves the target of a deranged murderer. As their numbers thin out, the travelers begin to turn on each other, as each tries to figure out who the killer is.", "poster_path": "/xSNSp2wmCUwFavxdkMF417hBc39.jpg", "release_date": "2003-04-25", "title": "Identity", "video": false, "vote_average": 7.2, "vote_count": 2091, "popularity": 19.629}, {"id": 17578, "video": false, "vote_count": 3534, "vote_average": 6.8, "title": "The Adventures of Tintin", "release_date": "2011-10-25", "original_language": "en", "original_title": "The Adventures of Tintin", "genre_ids": [12, 16, 9648], "backdrop_path": "/m3xgF9JiTlfN1rO9hcvTd4PTIQy.jpg", "adult": false, "overview": "Intrepid young reporter, Tintin, and his loyal dog, Snowy, are thrust into a world of high adventure when they discover a ship carrying an explosive secret. As Tintin is drawn into a centuries-old mystery, Ivan Ivanovitch Sakharine suspects him of stealing a priceless treasure. Tintin and Snowy, with the help of salty, cantankerous Captain Haddock and bumbling detectives, Thompson and Thomson, travel half the world, one step ahead of their enemies, as Tintin endeavors to find the Unicorn, a sunken ship that may hold a vast fortune, but also an ancient curse.", "poster_path": "/3XOaHJARdZIXcd7sgJV24Txp3gf.jpg", "popularity": 20.831}, {"id": 550, "video": false, "vote_count": 17967, "vote_average": 8.4, "title": "Fight Club", "release_date": "1999-10-15", "original_language": "en", "original_title": "Fight Club", "genre_ids": [18], "backdrop_path": "/mMZRKb3NVo5ZeSPEIaNW9buLWQ0.jpg", "adult": false, "overview": "A ticking-time-bomb insomniac and a slippery soap salesman channel primal male aggression into a shocking new form of therapy. Their concept catches on, with underground \"fight clubs\" forming in every town, until an eccentric gets in the way and ignites an out-of-control spiral toward oblivion.", "poster_path": "/adw6Lq9FiC9zjYEpOqfq03ituwp.jpg", "popularity": 44.815}, {"id": 504562, "video": false, "vote_count": 198, "vote_average": 7.1, "title": "Motherless Brooklyn", "release_date": "2019-10-31", "original_language": "en", "original_title": "Motherless Brooklyn", "genre_ids": [18, 9648, 53], "backdrop_path": "/mJoZVYRTtPI6aMPb1UanuXFC1Zw.jpg", "adult": false, "overview": "Lionel Essrog, a private detective living with Tourette syndrome, ventures to solve the murder of his mentor and best friend \u2014 a mystery that carries him from the gin-soaked jazz clubs of Harlem to the slums of Brooklyn to the gilded halls of New York's power brokers.", "poster_path": "/jjMJy5OxJHpFIaboCklDIYdcfpD.jpg", "popularity": 88.388}, {"adult": false, "backdrop_path": "/9alS7FBSf8rvDLskpCRuKqAI2h5.jpg", "genre_ids": [18, 36], "id": 746, "original_language": "en", "original_title": "The Last Emperor", "overview": "A dramatic history of Pu Yi, the last of the Emperors of China, from his lofty birth and brief reign in the Forbidden City, the object of worship by half a billion people; through his abdication, his decline and dissolute lifestyle; his exploitation by the invading Japanese, and finally to his obscure existence as just another peasant worker in the People's Republic.", "poster_path": "/KTirnfG6FZLKWbm8Am3EEKmZDx.jpg", "release_date": "1987-10-21", "title": "The Last Emperor", "video": false, "vote_average": 7.6, "vote_count": 774, "popularity": 13.039}, {"id": 434555, "video": false, "vote_count": 567, "vote_average": 5.2, "title": "The Possession of Hannah Grace", "release_date": "2018-11-29", "original_language": "en", "original_title": "The Possession of Hannah Grace", "genre_ids": [18, 27], "backdrop_path": "/7PlZbduXPMJ7SsTD8EOvUVJalmF.jpg", "adult": false, "overview": "When a cop who is just out of rehab takes the graveyard shift in a city hospital morgue, she faces a series of bizarre, violent events caused by an evil entity in one of the corpses.", "poster_path": "/hDDb0H0uJp2wjoJBbBHbKlYRbug.jpg", "popularity": 17.071}, {"id": 492452, "video": false, "vote_count": 447, "vote_average": 6.7, "title": "Ben Is Back", "release_date": "2018-12-05", "original_language": "en", "original_title": "Ben Is Back", "genre_ids": [18], "backdrop_path": "/tEEKFiUpZSVxQYXfh5mwYiQpzj3.jpg", "adult": false, "overview": "19-year-old Ben Burns unexpectedly returns home to his family's suburban home on Christmas Eve morning. Ben's mother, Holly, is relieved and welcoming but wary of her son staying clean. Over a turbulent 24 hours, new truths are revealed, and a mother's undying love for her son is tested as she does everything in her power to keep him safe.", "poster_path": "/eSPiprXuWqwMGi6t8BkdiTz9Ou3.jpg", "popularity": 13.618}], "total_pages": 28, "total_results": 555}, "recommendations": {"page": 1, "results": [{"id": 488981, "video": false, "vote_count": 3, "vote_average": 6.3, "title": "The Lowlife", "release_date": "2017-11-25", "original_language": "ja", "original_title": "\u6700\u4f4e\u3002", "genre_ids": [18], "backdrop_path": "/cJbD05kmKK6dBoqffnaKquuEodm.jpg", "adult": false, "overview": "Based on a 2016 novel by Mana Sakura, \u201cThe Lowlife\u201d shows the stories of three women who work in Japan\u2019s adult video industry .", "poster_path": "/yoAto9LMjYFmdgrKvnSdgsRtHRv.jpg", "popularity": 2.697}, {"id": 341443, "video": false, "vote_count": 6, "vote_average": 6.2, "title": "Vampire in Love", "release_date": "2015-04-17", "original_language": "ja", "original_title": "\u604b\u3059\u308b\u30fb\u30f4\u30a1\u30f3\u30d1\u30a4\u30a2", "genre_ids": [18], "backdrop_path": "/dzU1cl42OFCW43ilDVOtaHtbGmX.jpg", "adult": false, "overview": "Kiira seems like an ordinary young girl, who likes to talk with her friends and to dress up. Her ultimate goal is to become the world's best baker, but what differentiates her from others is that she is a vampire. She has never told anyone her secret, including her childhood friend Tetsu, whom she played with everyday and liked as a child. After her parents died when Kiira was only 12-years-old, she had to go live with her relatives and lost contact with Tetsu.  Now, 8 years later, Tetsu appears at the bakery where Kiira is working part-time. Kiira is ecstatic to see her first love again. Soon, they are dating and Kiira dreams of having a family with Tetsu. Kiira also becomes filled with worries because she is vampire.", "poster_path": "/bvqkQr7ytESqXKj4OpwSJuB6uTS.jpg", "popularity": 1.64}, {"adult": false, "backdrop_path": "/aOUvV6117OziuqVqrWTJ6GBxHJP.jpg", "genre_ids": [35], "id": 362882, "original_language": "en", "original_title": "\u3084\u308b\u3063\u304d\u3083\u9a0e\u58eb", "overview": "Makoto Gousuke has just transferred to a new high school with the intention of being the toughest kid there. Little does he know that there\u2018s an entire group of toughs who already rule the school, and they\u2018re all girls! After being humiliated by their leader, the pretty Misaki Shizuka, he vows revenge and starts a lengthy battle between the sexes at the school.", "poster_path": "/8XzW1p1sa4xqagvNe1pot3GUZab.jpg", "release_date": "2015-05-23", "title": "Yarukkya Knight", "video": false, "vote_average": 8.8, "vote_count": 4, "popularity": 5.54}, {"adult": false, "backdrop_path": "/k6lRkjAZnCKizm6n4WeKyYX2uvc.jpg", "genre_ids": [53], "id": 423624, "original_language": "cn", "original_title": "\u5147\u624b\u9084\u672a\u7761", "overview": "The beautiful yet naive Jasmine has second thoughts about her arranged marriage with the most eligible bachelor in town because she is secretly in love with the dog-loving math prodigy Fong. One night, she is attacked on her way home. She wakes up and finds herself trapped in a room and tied to a bed naked. She was raped but managed to escape, and this leads to murderous outcomes.", "poster_path": "/f3tjifiNrjdZbQJnfpi80U2jJOn.jpg", "release_date": "2016-10-21", "title": "Nessun Dorma", "video": false, "vote_average": 5.4, "vote_count": 6, "popularity": 2.819}, {"adult": false, "backdrop_path": "/7hlQkV0EkhC5l7RCofmsIAWi0hH.jpg", "genre_ids": [35], "id": 382154, "original_language": "ja", "original_title": "\u30c7\u30a3\u30b9\u30c8\u30e9\u30af\u30b7\u30e7\u30f3\u30fb\u30d9\u30a4\u30d3\u30fc\u30ba", "overview": "Taira is a disaffected youth from a seaside town reveling in violence. Enamored by his strength, Yuya joins his crusade in attacking strangers.  Meanwhile, Taira's brother looks for him.", "poster_path": "/aEH1sb18CjKDEFroih4gvMXN7Ov.jpg", "release_date": "2016-05-31", "title": "Destruction Babies", "video": false, "vote_average": 7.0, "vote_count": 13, "popularity": 2.108}, {"id": 435603, "video": false, "vote_count": 16, "vote_average": 7.4, "title": "A Single Rider", "release_date": "2017-02-22", "original_language": "ko", "original_title": "\uc2f1\uae00\ub77c\uc774\ub354", "genre_ids": [18], "backdrop_path": "/4EmqVReZjP0LoXOf7eumWj5YKp8.jpg", "adult": false, "overview": "Promising fund manager Jae-hoon is at the brink of losing everything when his company goes bankrupt. Overwhelmed by despair, he takes an impulsive trip to Australia where his wife and son live. As his trip nears its unexpected end, Jae-hoon gets a chance to look back on his life.", "poster_path": "/8IOObR7vo4K1moBRv8AOMsg5J6U.jpg", "popularity": 4.463}, {"adult": false, "backdrop_path": "/tYqGSudxazGfIzMl0lFLra4bjfG.jpg", "genre_ids": [28, 18, 10749], "id": 75004, "original_language": "ko", "original_title": "\ud48d\uc0b0\uac1c", "overview": "Poongsan has the unenviable - and death-defying - job of delivering messages across the North and South Korean border to separated families. When South Korean government agents ask him to smuggle in In-ok, the lover of a high-ranking North Korean defector, into the South, the damsel and rescuer fall in love instead.", "poster_path": "/ph8kuXsZzLmcyb0NpvtqYrSE0Zj.jpg", "release_date": "2011-06-23", "title": "Poongsan", "video": false, "vote_average": 6.7, "vote_count": 14, "popularity": 1.991}, {"adult": false, "backdrop_path": "/jybxeYDShj9dl9FoNEoHznWL3sL.jpg", "genre_ids": [10749], "id": 420541, "original_language": "th", "original_title": "\u0e41\u0e1f\u0e19\u0e40\u0e14\u0e22\u0e4c \u0e41\u0e1f\u0e19\u0e01\u0e31\u0e19\u0e41\u0e04\u0e48\u0e27\u0e31\u0e19\u0e40\u0e14\u0e35\u0e22\u0e27", "overview": "Denchai is a geeky 30-year-old IT officer whose existence is only acknowledged when his colleagues need tech support. Denchai's mundane world is flipped upside down when he meets a new girl in the Marketing department named Nui, who makes him feel valued once again. Denchai wish for Nui to be his girl for just one day. During a company trip, Nui has an accident and wakes up with a temporary memory loss disorder, which lasts for just one day. Denchai decides to lie to his dream girl by telling her that he is her boyfriend and that they had plans to travel around Hokkaido together. Would you risk everything, just to be in love for just one day?", "poster_path": "/l1uyqzfoLnfP3JC5WBY3WuU4nbZ.jpg", "release_date": "2016-10-27", "title": "One Day", "video": false, "vote_average": 7.8, "vote_count": 15, "popularity": 3.462}], "total_pages": 1, "total_results": 8}, "credits": {"cast": [{"cast_id": 0, "character": "Jang Tae-young", "credit_id": "588bc69d925141551601fa1d", "gender": 2, "id": 1251581, "name": "Kim Soo-hyun", "order": 0, "profile_path": "/zB940Odydf0gAW9jqjXS6hNrEjv.jpg"}, {"cast_id": 3, "character": "Jo Won-geun", "credit_id": "588bc6d1925141551601fa41", "gender": 2, "id": 1020859, "name": "Sung Dong-il", "order": 1, "profile_path": "/bNDv27VNJ1J12QeDlTI0RESaXOO.jpg"}, {"cast_id": 11, "character": "Choi Jin-gi", "credit_id": "593962dbc3a368785a012715", "gender": 2, "id": 141548, "name": "Lee Sung-min", "order": 2, "profile_path": "/3THm2oYIktQ4sqIvhHeRjYLaWXn.jpg"}, {"cast_id": 5, "character": "Song Yoo-hwa", "credit_id": "588bc6ee9251410bef005ae6", "gender": 1, "id": 125736, "name": "Sulli", "order": 3, "profile_path": "/vvP4Swmfkz6fYTOFP2g867uyvu3.jpg"}, {"cast_id": 6, "character": "Sa Do-jin", "credit_id": "588bc7009251411ac6033630", "gender": 2, "id": 1566012, "name": "Jo Woo-jin", "order": 4, "profile_path": "/ovLx3grp49CV4jT0dWV8Tt9CQSF.jpg"}, {"cast_id": 13, "character": "Choi Nak-hyeon", "credit_id": "593966c1c3a36878c5011aaf", "gender": 2, "id": 1287909, "name": "Kim Hong-pa", "order": 5, "profile_path": "/bVAZ48ZF53lRSZRjPtZ00gOE73y.jpg"}, {"cast_id": 36, "character": "Professor Kim", "credit_id": "5d6c5ce565686e000f8908f9", "gender": 2, "id": 2401535, "name": "Jeong In-gyeom", "order": 6, "profile_path": "/pLC4o5B7VmuNMLF4zXUcuvQ5vH9.jpg"}, {"cast_id": 15, "character": "Manager Baek", "credit_id": "5a979825c3a368613a00ab27", "gender": 2, "id": 1625951, "name": "Choi Kwon", "order": 7, "profile_path": "/mbG7n3NsE3qIqnvCxbrokFHS6sa.jpg"}, {"cast_id": 37, "character": "Mis Jin", "credit_id": "5d6c5d100e4fc81ce0d92ae6", "gender": 1, "id": 83221, "name": "Kim Sun-a", "order": 8, "profile_path": "/e2HqiEvDdqNeAgybB7ATrHiJFfs.jpg"}, {"cast_id": 38, "character": "Bald man", "credit_id": "5d6c5d2b65686e000f890998", "gender": 2, "id": 1574622, "name": "Go Gyu-pil", "order": 9, "profile_path": "/t6KYNXBjQaGsEhqwSaZcU4ZOqMD.jpg"}, {"cast_id": 1, "character": "Han Ye-won", "credit_id": "588bc6b3925141551601fa2a", "gender": 1, "id": 1617157, "name": "Han Ji-eun", "order": 10, "profile_path": "/yIOTiux7MWZNBKYF2EpvfXiG6RV.jpg"}, {"cast_id": 14, "character": "No Yeom", "credit_id": "5a81b993c3a36818ac030580", "gender": 2, "id": 231476, "name": "Lee Kyung-young", "order": 11, "profile_path": "/y39l5vJ3pCOOKRwygOVHHJpwroN.jpg"}, {"cast_id": 27, "character": "Addict", "credit_id": "5cf2497c9251411882badeb1", "gender": 1, "id": 2326809, "name": "Jung Yi-seo", "order": 12, "profile_path": "/o6Nfe0BiZs6CCSm8BigPshbu0px.jpg"}, {"cast_id": 34, "character": "Gangster in Chinatown", "credit_id": "5d4cd69b1065d300154c9cfb", "gender": 2, "id": 2097693, "name": "Lee Jung-hyun", "order": 13, "profile_path": "/qlB7HIaBPwKm5gvE0GGlQKHxFkr.jpg"}, {"cast_id": 39, "character": "Patient", "credit_id": "5d6c5da40e4fc8115ad8da84", "gender": 2, "id": 1015873, "name": "Son Hyun-joo", "order": 14, "profile_path": "/3SmDvskeopAKRDv9Hg6MNMHrCS8.jpg"}, {"cast_id": 32, "character": "Bodyguard man", "credit_id": "5d366b9c5c32470012279434", "gender": 2, "id": 1347525, "name": "Park Seo-jun", "order": 15, "profile_path": "/jqkXsFYFL7ph4CMJoBJABdF3RrC.jpg"}, {"cast_id": 40, "character": "Therapist", "credit_id": "5d6c5dc6efcea900129aaedc", "gender": 1, "id": 1496599, "name": "Kim Da-som", "order": 16, "profile_path": "/24FzfmdFCZsqAaNSCU9VFYEOZhc.jpg"}, {"cast_id": 42, "character": "Seamstress in Chinatown", "credit_id": "5d6c5e5b65686e000f890bb0", "gender": 1, "id": 1042232, "name": "Ahn So-hee", "order": 17, "profile_path": "/m46zI4EUUdBduPYRhNzefTCgz11.jpg"}, {"cast_id": 43, "character": "The awards staff", "credit_id": "5d6c5ecdefcea900109ab31d", "gender": 1, "id": 1252318, "name": "IU", "order": 18, "profile_path": "/bf4xHgewAOUIx13OFNVr5BpDRt4.jpg"}, {"cast_id": 33, "character": "Tatuist", "credit_id": "5d366be2ca83540014fa3777", "gender": 1, "id": 1014784, "name": "Bae Suzy", "order": 19, "profile_path": "/mw0doKABtezZ6o3QAtDjAEszqGj.jpg"}, {"cast_id": 41, "character": "Waitress", "credit_id": "5d6c5df70e4fc8115ad8db5c", "gender": 1, "id": 1875638, "name": "Gyeongree", "order": 20, "profile_path": "/8szL6k73fWZXsgz5s9M6eO8LNbZ.jpg"}, {"cast_id": 44, "character": "Waitress", "credit_id": "5d6c5f3aefcea900129ab21a", "gender": 1, "id": 2401541, "name": "Park Min-ha", "order": 21, "profile_path": "/r4ZXPxuhH1i2RWoaxQetXrK4Lcx.jpg"}], "crew": [{"credit_id": "5d366b46f794ad00127fbec4", "department": "Sound", "gender": 0, "id": 43565, "job": "Sound Supervisor", "name": "Kim Suk-won", "profile_path": null}, {"credit_id": "5b55dab70e0a2673d801acfc", "department": "Costume & Make-Up", "gender": 1, "id": 43570, "job": "Costume Design", "name": "Cho Sang-kyung", "profile_path": "/aTd5Tq5P6a41Q4kYRn9yxuj8xy8.jpg"}, {"credit_id": "5d06986a92514163d1bffd18", "department": "Sound", "gender": 2, "id": 232777, "job": "Music", "name": "Lee Jae-jin", "profile_path": null}, {"credit_id": "588bc7219251410b92005c9a", "department": "Writing", "gender": 2, "id": 1171118, "job": "Writer", "name": "Lee Jeong-sub", "profile_path": null}, {"credit_id": "5c17969392514132bd0c5285", "department": "Lighting", "gender": 0, "id": 1294806, "job": "Lighting Director", "name": "Shin Kyung-man", "profile_path": null}, {"credit_id": "5ce0be99c3a368485b1dd8e0", "department": "Editing", "gender": 2, "id": 1295402, "job": "Editor", "name": "Kim Chang-ju", "profile_path": null}, {"credit_id": "5c28aeac0e0a26541c3600a1", "department": "Production", "gender": 0, "id": 1442980, "job": "Producer", "name": "Park A-hyoung", "profile_path": null}, {"credit_id": "59395f30c3a368783f011a87", "department": "Directing", "gender": 2, "id": 1830479, "job": "Director", "name": "Lee Sa-rang", "profile_path": "/umBQhga8LaFX2RmzKgIPzhVCLPx.jpg"}, {"credit_id": "5d366a46b4a5430010f73e7b", "department": "Production", "gender": 2, "id": 1830479, "job": "Executive Producer", "name": "Lee Sa-rang", "profile_path": "/umBQhga8LaFX2RmzKgIPzhVCLPx.jpg"}, {"credit_id": "5d366b6ac56d2d0012020949", "department": "Writing", "gender": 2, "id": 1830479, "job": "Adaptation", "name": "Lee Sa-rang", "profile_path": "/umBQhga8LaFX2RmzKgIPzhVCLPx.jpg"}, {"credit_id": "5b55da9c0e0a2673cd01acfd", "department": "Editing", "gender": 0, "id": 2090576, "job": "Editor", "name": "Jungwon Kim", "profile_path": null}, {"credit_id": "5deef1cc85da1200144ca510", "department": "Editing", "gender": 0, "id": 2159416, "job": "Digital Intermediate", "name": "Kevin Kang", "profile_path": null}, {"credit_id": "5c135ad592514132c3099936", "department": "Visual Effects", "gender": 0, "id": 2194917, "job": "VFX Supervisor", "name": "Jin Jong-hyen", "profile_path": null}, {"credit_id": "5c21152cc3a368700eebe967", "department": "Production", "gender": 0, "id": 2201130, "job": "Line Producer", "name": "Kim Jeong-bok", "profile_path": null}, {"credit_id": "5dfcf9e8d1a8930012853299", "department": "Editing", "gender": 1, "id": 2209623, "job": "Assistant Editor", "name": "Kim Hye-jin", "profile_path": null}, {"credit_id": "5cce9db80e0a262fb305cbc4", "department": "Production", "gender": 0, "id": 2305187, "job": "Executive Producer", "name": "Shin Pil-soon", "profile_path": null}, {"credit_id": "5db1c996629b2c00152eb389", "department": "Visual Effects", "gender": 0, "id": 2307001, "job": "VFX Supervisor", "name": "Hong Jeong-ho", "profile_path": null}, {"credit_id": "5cd6d08f92514106f8cead4d", "department": "Costume & Make-Up", "gender": 0, "id": 2310042, "job": "Makeup & Hair", "name": "Yi Jeong-suk", "profile_path": null}, {"credit_id": "5ce0fca79251412cecbad5dc", "department": "Art", "gender": 0, "id": 2316176, "job": "Production Design", "name": "Lee Min-a", "profile_path": null}, {"credit_id": "5d68cc1013af5f0012bc6e47", "department": "Camera", "gender": 0, "id": 2399310, "job": "Director of Photography", "name": "Kim Jeong-won", "profile_path": null}]}}