{"adult": false, "backdrop_path": "/5zUanvBSTNToht7aJKsTxqI3gM8.jpg", "belongs_to_collection": null, "budget": 0, "genres": [{"id": 12, "name": "Adventure"}, {"id": 18, "name": "Drama"}], "homepage": null, "id": 43800, "imdb_id": "tt0033490", "original_language": "en", "original_title": "The Corsican Brothers", "overview": "Cultured Mario and outlaw Lucien, twins separated at birth, join forces to avenge their parents' death at the hands of evil Colonna. Because each feels all the same sensations experienced by the other, swordplay is difficult for them. Worse yet, raised very differently, they struggle to find common ground between their conflicting personalities. But to defeat their enemy, the two will have to overcome the obstacles and work as a team.", "popularity": 2.149, "poster_path": "/5D6dgAg48Y6SuTohosPXCnwdSUu.jpg", "production_companies": [{"id": 13479, "logo_path": null, "name": "Edward Small Productions", "origin_country": ""}], "production_countries": [{"iso_3166_1": "US", "name": "United States of America"}], "release_date": "1941-11-28", "revenue": 1300000, "runtime": 111, "spoken_languages": [{"iso_639_1": "en", "name": "English"}], "status": "Released", "tagline": "", "title": "The Corsican Brothers", "video": false, "vote_average": 6.7, "vote_count": 5, "keywords": {"keywords": [{"id": 7375, "name": "twin brother"}, {"id": 9725, "name": "sword fight"}, {"id": 12653, "name": "brother against brother"}, {"id": 13005, "name": "doctor"}, {"id": 13143, "name": "beautiful\u00a0 woman"}, {"id": 33344, "name": "bandit"}, {"id": 155244, "name": "vendetta"}, {"id": 158471, "name": "carrier pigeon"}, {"id": 162344, "name": "antidote"}, {"id": 168211, "name": "twins separated at birth"}, {"id": 192153, "name": "conjoined twins"}, {"id": 204353, "name": "identical twin"}, {"id": 206204, "name": "corsica"}, {"id": 238129, "name": "mental telepathy"}, {"id": 238130, "name": "brothers love same woman"}]}, "similar": {"page": 1, "results": [{"id": 40807, "video": false, "vote_count": 2337, "vote_average": 7.1, "title": "50/50", "release_date": "2011-09-30", "original_language": "en", "original_title": "50/50", "genre_ids": [35, 18], "backdrop_path": "/kGac26bIqfwm8eqbP1RjKP70brE.jpg", "adult": false, "overview": "Inspired by a true story, a comedy centered on a 27-year-old guy who learns of his cancer diagnosis, and his subsequent struggle to beat the disease.", "poster_path": "/uDKmnFHqE3rQ9r6ErQsOZWuzXN8.jpg", "popularity": 13.937}, {"id": 568091, "video": false, "vote_count": 751, "vote_average": 6.6, "title": "Fractured", "release_date": "2019-09-22", "original_language": "en", "original_title": "Fractured", "genre_ids": [53], "backdrop_path": "/3UnUxeEAGoZhjIW8X1HpEuDPngV.jpg", "adult": false, "overview": "Driving cross-country, Ray and his wife and daughter stop at a highway rest area where his daughter falls and breaks her arm. After a frantic rush to the hospital and a clash with the check-in nurse, Ray is finally able to get her to a doctor. While the wife and daughter go downstairs for an MRI, Ray, exhausted, passes out in a chair in the lobby. Upon waking up, they have no record or knowledge of Ray's family ever being checked in.", "poster_path": "/paZNRffT3kUckuRFKbeDBuX1YcZ.jpg", "popularity": 19.226}, {"adult": false, "backdrop_path": "/3mEfawlJnuu4OmUlAOesrAMsWv6.jpg", "genre_ids": [53, 27], "id": 9540, "original_language": "en", "original_title": "Dead Ringers", "overview": "Elliot, a successful gynecologist, works at the same practice as his identical twin, Beverly. Elliot is attracted to many of his patients and has affairs with them. When he inevitably loses interest, he will give the woman over to Beverly, the meeker of the two, without the woman knowing the difference. Beverly falls hard for one of the patients, Claire, but when she inadvertently deceives him, he slips into a state of madness.", "poster_path": "/9ZGBwiWIvN9KmHaLeSS5it44G21.jpg", "release_date": "1988-09-23", "title": "Dead Ringers", "video": false, "vote_average": 7.2, "vote_count": 388, "popularity": 10.111}, {"id": 11821, "video": false, "vote_count": 285, "vote_average": 6.2, "title": "Doc Hollywood", "release_date": "1991-08-02", "original_language": "en", "original_title": "Doc Hollywood", "genre_ids": [35, 10749], "backdrop_path": "/kcqyI3pRvSDulyv2I9qfKmGuuuk.jpg", "adult": false, "overview": "After leaving Washington D.C. hospital, plastic surgeon Ben Stone heads for California, where a lucrative practice in Beverly Hills awaits. After a car accident, he's sentenced to perform as the community's general practitioner.", "poster_path": "/zha7PCdeJj309E3SLjcLEIW47gN.jpg", "popularity": 15.767}, {"adult": false, "backdrop_path": "/a09NeywCuAevxKDG8JmqBpittTT.jpg", "genre_ids": [18], "id": 340027, "original_language": "en", "original_title": "Brain on Fire", "overview": "Susannah Cahalan, an up-and-coming journalist at the New York Post becomes plagued by voices in her head and seizures, causing a rapid descent into insanity.", "poster_path": "/ulOCM9UYjiXxggjDBtNmGTmsJDA.jpg", "release_date": "2017-02-22", "title": "Brain on Fire", "video": false, "vote_average": 7.2, "vote_count": 800, "popularity": 13.13}, {"adult": false, "backdrop_path": "/86wll1GDVKYBFjJYeG8dJXU2aHO.jpg", "genre_ids": [18], "id": 10052, "original_language": "en", "original_title": "Dragonfly", "overview": "A grieving doctor is being contacted by his late wife through his patients near death experiences.", "poster_path": "/dazm7K8IHUtvwFvsGmztugonDi0.jpg", "release_date": "2002-02-22", "title": "Dragonfly", "video": false, "vote_average": 6.4, "vote_count": 440, "popularity": 10.42}, {"adult": false, "backdrop_path": "/efECQRmOpX0ktZB1w1HyeYQQhwW.jpg", "genre_ids": [18, 53], "id": 11306, "original_language": "en", "original_title": "Extreme Measures", "overview": "Guy Luthan, a British doctor working at a hospital in New York, starts making unwelcome enquiries when the body of a man who died in his emergency room disappears. After the trail leads Luthan to the door of an eminent surgeon at the hospital, Luthan soon finds himself in extreme danger people who want the hospital's secret to remain undiscovered.", "poster_path": "/18WUNYhc58VQgBmJaFsaST9Uj69.jpg", "release_date": "1996-09-27", "title": "Extreme Measures", "video": false, "vote_average": 5.9, "vote_count": 157, "popularity": 9.86}, {"adult": false, "backdrop_path": "/2WmdaMjTufY8MIRe4SBmo22haaM.jpg", "genre_ids": [35, 10749], "id": 75802, "original_language": "en", "original_title": "Hysteria", "overview": "Two doctors in Victorian England use manual stimulation of female genitalia to cure their patients' ills, leading to the invention of the vibrator.", "poster_path": "/1vtHZYTBS5iRA5ADibY6cwU7Ffm.jpg", "release_date": "2011-06-06", "title": "Hysteria", "video": false, "vote_average": 6.6, "vote_count": 511, "popularity": 15.659}, {"id": 10312, "video": false, "vote_count": 1874, "vote_average": 7.2, "title": "Patch Adams", "release_date": "1998-12-25", "original_language": "en", "original_title": "Patch Adams", "genre_ids": [35, 18], "backdrop_path": "/9CtyPVGETuWUlqnNswo7R98xGgU.jpg", "adult": false, "overview": "Patch Adams is a doctor who doesn't look, act or think like any doctor you've met before. For Patch, humour is the best medicine and he's willing to do just anything to make his patients laugh\u2014even if it means risking his own career.", "poster_path": "/2T0Mj8gkTXgciedz8W5nsnjCHig.jpg", "popularity": 10.19}, {"adult": false, "backdrop_path": "/oZwwwezJFlHmQGBRJDLmENXwOIt.jpg", "genre_ids": [9648, 27, 878], "id": 378018, "original_language": "en", "original_title": "The Void", "overview": "In the middle of a routine patrol, officer Daniel Carter happens upon a blood-soaked figure limping down a deserted stretch of road. He rushes the young man to a nearby rural hospital staffed by a skeleton crew, only to discover that patients and personnel are transforming into something inhuman. As the horror intensifies, Carter leads the other survivors on a hellish voyage into the subterranean depths of the hospital in a desperate bid to end the nightmare before it's too late.", "poster_path": "/c0WLRyT0AmUi41nVXBnqmJshIBn.jpg", "release_date": "2017-01-15", "title": "The Void", "video": false, "vote_average": 5.8, "vote_count": 573, "popularity": 11.169}, {"id": 10676, "video": false, "vote_count": 588, "vote_average": 5.0, "title": "Halloween III: Season of the Witch", "release_date": "1982-10-22", "original_language": "en", "original_title": "Halloween III: Season of the Witch", "genre_ids": [27, 9648, 878], "backdrop_path": "/ryX5c0RSIur4si9McPwyPtpmTMF.jpg", "adult": false, "overview": "Dr. Daniel Challis and Ellie Grimbridge stumble onto a gruesome murder scheme when Ellie's novelty-salesman father, Harry, is killed while in possession of a halloween mask made by the Silver Shamrock mask company. The company's owner, Conal Cochran, wants to return Halloween to its darker roots using his masks -- and his unspeakable scheme would unleash death and destruction across the country.", "poster_path": "/svPexK18MEl0lyAqb8fFUGGsEQ8.jpg", "popularity": 11.688}, {"id": 16905, "video": false, "vote_count": 105, "vote_average": 7.3, "title": "Captain Blood", "release_date": "1935-12-28", "original_language": "en", "original_title": "Captain Blood", "genre_ids": [12, 10749], "backdrop_path": "/tr2RZyZxb2PnjN9mH8mitj6g3Zv.jpg", "adult": false, "overview": "Dr. Peter Blood, unjustly convicted of treason and exiled from England, becomes a notorious pirate.", "poster_path": "/iuYA1w7iIk1XKiwbCIFFKVQlLOt.jpg", "popularity": 10.495}, {"id": 16220, "video": false, "vote_count": 94, "vote_average": 6.6, "title": "Wizards", "release_date": "1977-02-09", "original_language": "en", "original_title": "Wizards", "genre_ids": [16, 14, 878], "backdrop_path": "/8R3W1VKk0Uxd9YPClO0Xgq6j9Aa.jpg", "adult": false, "overview": "In a post-apocalyptic future, humankind is destroyed and the fantastic races of ancient legend emerge to repopulate the earth. In fulfillment of an ancient prophesy twin sons -- wizards -- are born to a queen of the faeries: one good, the other aggressively evil. They are destined to collide in a war that will destroy the new earth. Blackwolf, the evil son, is a deformed mutant and is cast out of the community. He seeks to rediscover the ancient technologies of warfare and destruction in order to gain his revenge and subjugate the free peoples of the earth. Avatar, the good son, is human and seeks a passive life of non-aggression in order to avoid responsibility for the bloodshed and despair prophesied. Blackwolf's disastrous attempts to assassinate his brother compell Avatar to marshal forces against Blackwolf, leading to the ultimate confrontation.", "poster_path": "/yL6IrU7PNIYPrd5fXexCHVwS3B5.jpg", "popularity": 8.119}, {"adult": false, "backdrop_path": "/9NNY9oXn5rqk3VZDLQgTdBvwoHq.jpg", "genre_ids": [18], "id": 439154, "original_language": "fr", "original_title": "Sage femme", "overview": "Claire is a midwife and has devoted her life to others. At a moment when she is preoccupied by the imminent closure of the maternity clinic where she works, her life is further turned upside down when B\u00e9atrice, her father's former mistress, turns up on the scene. B\u00e9atrice is a capricious and selfish woman, Claire's exact opposite.", "poster_path": "/wBrJGrTmUaGeJVPxAqJT2iZHQCA.jpg", "release_date": "2017-03-22", "title": "The Midwife", "video": false, "vote_average": 5.9, "vote_count": 78, "popularity": 5.889}, {"adult": false, "backdrop_path": "/ssh8zq0TFlOaNP1FjApD39k23l6.jpg", "genre_ids": [14, 18, 9648], "id": 7797, "original_language": "en", "original_title": "Youth Without Youth", "overview": "A love story wrapped in a mystery. Set in Europe before WWII, professor of language and philosophy Dominic Matei is struck by lightning and  ages backwards from 70 to 40 in a week, attracting the world and the Nazis. While on the run, the professor meets a young woman who has her own experience with a lightning storm. Not only does Dominic find love again, but her new abilities hold the key to his research.", "poster_path": "/5TmuzdAHSj2ShNJL2x50Y00xosI.jpg", "release_date": "2007-10-26", "title": "Youth Without Youth", "video": false, "vote_average": 6.4, "vote_count": 103, "popularity": 7.765}, {"adult": false, "backdrop_path": "/4NpeO8Nq2whwZXs1tSb3m4LWSXf.jpg", "genre_ids": [18, 9648, 53], "id": 29589, "original_language": "en", "original_title": "Green for Danger", "overview": "In the midst of Nazi air raids, a postman dies on the operating table at a rural hospital. But was the death accidental?", "poster_path": "/3HYrCn43MSzY6kButjffW5D7BTH.jpg", "release_date": "1946-12-07", "title": "Green for Danger", "video": false, "vote_average": 7.1, "vote_count": 33, "popularity": 4.213}, {"adult": false, "backdrop_path": "/kqgT8bUa8Nkyg6EDpkn0tcOXlpq.jpg", "genre_ids": [99], "id": 2359, "original_language": "en", "original_title": "Sicko", "overview": "Sicko is a Michael Moore documentary about the corrupt health care system in The United States who's main goal is to make profit even if it means losing peoples lives. \"The more people you deny health insurance the more money we make\" is the business model for health care providers in America.", "poster_path": "/tAEhAVqnleu3wEC2LuXvWzRvsEG.jpg", "release_date": "2007-05-18", "title": "Sicko", "video": false, "vote_average": 7.4, "vote_count": 419, "popularity": 11.672}, {"id": 11588, "video": false, "vote_count": 130, "vote_average": 5.9, "title": "The I Inside", "release_date": "2004-01-15", "original_language": "en", "original_title": "The I Inside", "genre_ids": [18, 9648, 878, 53], "backdrop_path": "/ie2yaIxZcPRbaBac7elgfJA5htX.jpg", "adult": false, "overview": "Simon Cable wakes up in a hospital bed, confused and disoriented. He soon discovers from doctors that he has amnesia and is unable to remember the last two years of his life. Cable investigates what has happened to him and slowly pieces together his enigmatic past.", "poster_path": "/A5F586c9YTAqKwozcJr7rhbrlGv.jpg", "popularity": 8.48}, {"id": 375950, "video": false, "vote_count": 136, "vote_average": 6.2, "title": "The Country Doctor", "release_date": "2016-03-23", "original_language": "fr", "original_title": "M\u00e9decin de campagne", "genre_ids": [35, 18], "backdrop_path": "/ywqw5aGQOPfiFGYEbIw7ifYLJKm.jpg", "adult": false, "overview": "All the people in this countryside area, can count on Jean-Pierre, the doctor who auscultates them, heals and reassures them day and night, 7 days a week. Now Jean-Pierre is sick, so he sees Natalie, a young doctor, coming from the hospital to assist him. But will she adapt to this new life and be able to replace the man that believed to be irreplaceable?", "poster_path": "/ymytgiRmoGC5L87IqWf2Z4tdumF.jpg", "popularity": 13.974}, {"id": 505513, "video": false, "vote_count": 19, "vote_average": 6.3, "title": "Detective Chinatown 2", "release_date": "2018-02-16", "original_language": "zh", "original_title": "\u5510\u4eba\u8857\u63a2\u68482", "genre_ids": [35, 9648], "backdrop_path": "/vZstGHenVWt1GWJaQh6GPrCq9UC.jpg", "adult": false, "overview": "Driven by the desire for the huge reward, Tang Ren (by Wang Baoqiang) tricked Qin Feng (by Liu Haoran) to New York, to attend the World Detective Contest,. Later on, behind the crazy competition, Qin and Tang discovered the real hidden facts of this contest.", "poster_path": "/p88dG7zfvne14Fn2UHFa2lqijyE.jpg", "popularity": 4.877}], "total_pages": 4, "total_results": 78}, "recommendations": {"page": 1, "results": [{"adult": false, "backdrop_path": "/tvsNX5TFcWKx7t6ZtI6V55Rb7Gr.jpg", "genre_ids": [12, 18, 36], "id": 44533, "original_language": "en", "original_title": "Prince of Foxes", "overview": "In 1500, Duke Cesare Borgia hopes to marry his sister (widowed by poison) to the heir apparent of Ferrara, which impedes his conquest of central Italy. On this delicate mission he sends Andrea Orsini, his sister's lover and nearly as unscrupulous as himself. En route, Orsini meets Camilla Verano, wife of the count of Citta' del Monte (Borgia's next intended conquest); and sentiment threatens to turn him against his deadly master, whom no one betrays twice...", "poster_path": "/oeZRbsXUpmnX1s7Ralg8SKKWVHZ.jpg", "release_date": "1949-11-11", "title": "Prince of Foxes", "video": false, "vote_average": 5.3, "vote_count": 10, "popularity": 3.448}], "total_pages": 1, "total_results": 1}, "credits": {"cast": [{"cast_id": 2, "character": "Lucien Franchi / Mario Franchi", "credit_id": "52fe4660c3a36847f80fb8a3", "gender": 2, "id": 51762, "name": "Douglas Fairbanks Jr.", "order": 0, "profile_path": "/A8hI3VdDpt40pFQqljlc6WidrJv.jpg"}, {"cast_id": 3, "character": "Countess Isabelle Gravini", "credit_id": "52fe4660c3a36847f80fb8a7", "gender": 1, "id": 11026, "name": "Ruth Warrick", "order": 1, "profile_path": "/rR1DouGmWeJl3tZ1rTEV9H2quzd.jpg"}, {"cast_id": 4, "character": "Baron Colonna", "credit_id": "52fe4660c3a36847f80fb8ab", "gender": 2, "id": 30719, "name": "Akim Tamiroff", "order": 2, "profile_path": "/24khOVoHMGhYwSHnd3QpPcv6HSP.jpg"}, {"cast_id": 5, "character": "Lorenzo", "credit_id": "52fe4660c3a36847f80fb8af", "gender": 2, "id": 30686, "name": "J. Carrol Naish", "order": 3, "profile_path": "/iHUIlLxzgkZSMvapdxLhBZe82B.jpg"}, {"cast_id": 8, "character": "Dr. Enrico Paoli", "credit_id": "54d4eb8ac3a3686ac20130c6", "gender": 2, "id": 33278, "name": "H.B. Warner", "order": 4, "profile_path": "/kYHCNllR7guQTtgROCb3z5dLusa.jpg"}, {"cast_id": 9, "character": "Tomasso", "credit_id": "54d4eb9692514109ba013dad", "gender": 2, "id": 35194, "name": "John Emery", "order": 5, "profile_path": "/44mz6m4k3x6Q7hLIlUgQ6aMCUMv.jpg"}, {"cast_id": 10, "character": "Count Victor Franchi", "credit_id": "54d4eba39251413fc101451f", "gender": 2, "id": 51310, "name": "Henry Wilcoxon", "order": 6, "profile_path": "/3qJEMJDvOy2WVP45oo5GqmMrwed.jpg"}, {"cast_id": 11, "character": "Countess Franchi", "credit_id": "54d4ebb092514173cf008d0d", "gender": 1, "id": 100779, "name": "Gloria Holden", "order": 7, "profile_path": "/3DsqCoOmWqVw4OKeEQWdWt4gFpm.jpg"}, {"cast_id": 22, "character": "Monsieur Dupre", "credit_id": "59c15eb6925141730f00154c", "gender": 2, "id": 33033, "name": "Walter Kingsford", "order": 8, "profile_path": "/hAyno19zK7ZCzESl6RSw1jbOjH3.jpg"}, {"cast_id": 23, "character": "Madame Dupre", "credit_id": "59c15ecb925141734d001396", "gender": 1, "id": 88461, "name": "Nana Bryant", "order": 9, "profile_path": "/4TsrQXRRpO36BseB7BUTG0Op7hM.jpg"}, {"cast_id": 24, "character": "Count Gravini", "credit_id": "59c15ee4c3a368070e0012dc", "gender": 2, "id": 103493, "name": "Pedro de Cordoba", "order": 10, "profile_path": "/8kIq2o5ZljNmCS1u6bKO1bTBlhy.jpg"}, {"cast_id": 25, "character": "Maria", "credit_id": "59c15ef4925141738900149b", "gender": 1, "id": 22948, "name": "Veda Ann Borg", "order": 11, "profile_path": "/1sLegrMApxC4Z5dFMIxjxT1ZhtQ.jpg"}, {"cast_id": 26, "character": "Priest", "credit_id": "59c15f06c3a36806fd00158f", "gender": 2, "id": 78193, "name": "William Farnum", "order": 12, "profile_path": "/qvQCexMiT3TUTOaM7wcUS5kp6sn.jpg"}, {"cast_id": 27, "character": "Nurse", "credit_id": "59c15f19925141734d001406", "gender": 1, "id": 34749, "name": "Sarah Padden", "order": 13, "profile_path": "/9Fs52o6cYURJ6aScQ0odorcH7dv.jpg"}, {"cast_id": 28, "character": "Martelli", "credit_id": "59c15f36c3a368072100152a", "gender": 0, "id": 130486, "name": "Manart Kippen", "order": 14, "profile_path": null}, {"cast_id": 29, "character": "Angela", "credit_id": "59c15f96c3a36806fd00164d", "gender": 1, "id": 967133, "name": "Ruth Robinson", "order": 15, "profile_path": null}, {"cast_id": 30, "character": "Castle Guard", "credit_id": "5cc952e39251416e2bf3178f", "gender": 2, "id": 30197, "name": "Richard Alexander", "order": 16, "profile_path": "/d9zgyrEOlXYy6P90fkrVAshjn4A.jpg"}, {"cast_id": 31, "character": "The Baron's Butler", "credit_id": "5cc9531bc3a3682dad852cd6", "gender": 2, "id": 939842, "name": "Wilson Benge", "order": 17, "profile_path": null}, {"cast_id": 32, "character": "Marquis de Raveneau", "credit_id": "5cc953429251417ea6f2afa0", "gender": 2, "id": 30553, "name": "Henry Brandon", "order": 18, "profile_path": "/xjkd8VhfGkYidjMiqJ4tjihLHsH.jpg"}, {"cast_id": 33, "character": "Baron's Henchman", "credit_id": "5cc953c9c3a36820b5898e1d", "gender": 2, "id": 16004, "name": "Anthony Caruso", "order": 19, "profile_path": "/d2p7VwnIAQKds9JHkz0yxSF6sIQ.jpg"}, {"cast_id": 34, "character": "Giovanni", "credit_id": "5cc953dfc3a368742580ddcb", "gender": 2, "id": 33970, "name": "James Craven", "order": 20, "profile_path": "/2AZ7zNYWFVT0ZFGKDhFzxnHkB1d.jpg"}, {"cast_id": 35, "character": "Opera Spectator", "credit_id": "5cc956d7c3a36820b5899271", "gender": 1, "id": 130377, "name": "Sonia Darrin", "order": 21, "profile_path": "/hYDmPFkJXj5njT9EwMayLJnT2hF.jpg"}, {"cast_id": 36, "character": "Messenger, Arturo's Steward", "credit_id": "5cc956f19251412ba1011d46", "gender": 2, "id": 124882, "name": "Ralph Dunn", "order": 22, "profile_path": "/rb3xuZbdVkwxpYrae1KyV0jNW8a.jpg"}, {"cast_id": 37, "character": "Messenger, Alberto's Steward", "credit_id": "5cc957120e0a266f04ec50e6", "gender": 2, "id": 126014, "name": "Eddie Foster", "order": 23, "profile_path": null}, {"cast_id": 38, "character": "Torture Cell Guard", "credit_id": "5cc957319251412ba1011da9", "gender": 2, "id": 34168, "name": "Frank Hagney", "order": 24, "profile_path": "/nCvW7yfN0PlCkF6v6CV80CUdWgH.jpg"}, {"cast_id": 39, "character": "Opera Spectator", "credit_id": "5cc9574ac3a3682dad8532fc", "gender": 1, "id": 1197463, "name": "Isabel La Mal", "order": 25, "profile_path": "/3IuttUfZAYQW1hp5dggGQ4baGJY.jpg"}, {"cast_id": 40, "character": "Cousin Philip Franchi", "credit_id": "5cc9576692514151ca0aee15", "gender": 0, "id": 30513, "name": "Paul McVey", "order": 26, "profile_path": "/j6lkbAjxQnNlYQMa2NuPQ7OTubF.jpg"}, {"cast_id": 41, "character": "Guard", "credit_id": "5cc95777c3a3684b348832c8", "gender": 0, "id": 133101, "name": "Milburn Morante", "order": 27, "profile_path": "/9ri4QNDw0VF9X62yejOWMvHGDA0.jpg"}, {"cast_id": 42, "character": "Colonna's Barber", "credit_id": "5cc957900e0a263447f2abf3", "gender": 2, "id": 29602, "name": "Edgar Norton", "order": 28, "profile_path": "/pZclnxshBQ2zG5SXePY6taySWIm.jpg"}, {"cast_id": 43, "character": "Countess Isabelle's Mother", "credit_id": "5cc957a29251412ba1011e4f", "gender": 0, "id": 153505, "name": "Isabel Randolph", "order": 29, "profile_path": "/pOyhhidSEjWfCvG9c3AFtxNvCq4.jpg"}, {"cast_id": 44, "character": "Colonna's Henchman", "credit_id": "5cc9580d9251416e2bf31f0f", "gender": 2, "id": 133440, "name": "Frank Richards", "order": 30, "profile_path": null}, {"cast_id": 45, "character": "Opera Spectator", "credit_id": "5cc9582c92514151ca0aef32", "gender": 0, "id": 1458223, "name": "Count Stefenelli", "order": 31, "profile_path": null}, {"cast_id": 46, "character": "Shepherd", "credit_id": "5cc9584e0e0a263743f2bf64", "gender": 0, "id": 1096850, "name": "Charles Stevens", "order": 32, "profile_path": "/mNwRrOtJN6GDMa0MywaZ1Vvt6AK.jpg"}, {"cast_id": 47, "character": "One of Lucien's Men", "credit_id": "5cc95888c3a368742580ecc8", "gender": 2, "id": 29626, "name": "William Tannen", "order": 33, "profile_path": "/oPUe1TFiRDGwdQRPaMY3cXCY37T.jpg"}, {"cast_id": 48, "character": "De Revenau's Friend at Opera", "credit_id": "5cc9589cc3a368744380e258", "gender": 2, "id": 120791, "name": "Rick Vallin", "order": 34, "profile_path": "/gW0mjy28fJPNiw1c0LeGqRb7W2E.jpg"}, {"cast_id": 49, "character": "De Revenau's Friend at Opera", "credit_id": "5cc958c4c3a3684677876ce8", "gender": 0, "id": 2907, "name": "Roland Varno", "order": 35, "profile_path": "/nLwBAGNGmfWcP0E9H7Z8QgOvGAW.jpg"}, {"cast_id": 50, "character": "Townswoman at Celebration", "credit_id": "5cc958e20e0a264ef4f294a5", "gender": 1, "id": 927616, "name": "Dorothy Vernon", "order": 36, "profile_path": "/lP9Gah7CZMafhOu8ywkHfhh3Lbi.jpg"}], "crew": [{"credit_id": "52fe4660c3a36847f80fb89f", "department": "Directing", "gender": 2, "id": 10610, "job": "Director", "name": "Gregory Ratoff", "profile_path": "/1RYNLmLHJA3YYe0l893xTHjZXXL.jpg"}, {"credit_id": "54d4eb6d9251413fd6014893", "department": "Writing", "gender": 2, "id": 24840, "job": "Novel", "name": "Alexandre Dumas", "profile_path": "/iozoh1FldbtJhz74FXK6eELOxwI.jpg"}, {"credit_id": "54d4eb7a9251417a0400b380", "department": "Writing", "gender": 2, "id": 87374, "job": "Screenplay", "name": "George Bruce", "profile_path": null}, {"credit_id": "567f4de09251417ddd00bbe4", "department": "Writing", "gender": 2, "id": 87374, "job": "Adaptation", "name": "George Bruce", "profile_path": null}, {"credit_id": "567f4de99251412e52009728", "department": "Writing", "gender": 2, "id": 88579, "job": "Adaptation", "name": "Howard Estabrook", "profile_path": "/1m7ynuqHocpjI6P0pOiuAo0dp8c.jpg"}, {"credit_id": "567f4df3c3a3684be300bc53", "department": "Production", "gender": 2, "id": 10914, "job": "Producer", "name": "Edward Small", "profile_path": null}, {"credit_id": "567f4dfb92514131df009195", "department": "Sound", "gender": 2, "id": 4082, "job": "Original Music Composer", "name": "Dimitri Tiomkin", "profile_path": "/oYL6Tiuf7MuFEd5F7vf7Dt5vHmF.jpg"}, {"credit_id": "567f4e05c3a3682abc0045aa", "department": "Camera", "gender": 2, "id": 10537, "job": "Director of Photography", "name": "Harry Stradling Sr.", "profile_path": "/zrOonlDitklFugniihdlLloxGFO.jpg"}, {"credit_id": "567f4e0dc3a3686075009b0a", "department": "Editing", "gender": 2, "id": 123969, "job": "Editor", "name": "William F. Claxton", "profile_path": null}, {"credit_id": "567f4e229251411334003044", "department": "Costume & Make-Up", "gender": 2, "id": 11491, "job": "Costume Design", "name": "Walter Plunkett", "profile_path": "/yKfswJpfffXoggkwC3eSDfaMD49.jpg"}, {"credit_id": "567f4e2bc3a3682abc0045b2", "department": "Crew", "gender": 0, "id": 1331557, "job": "Special Effects", "name": "Howard A. Anderson", "profile_path": null}, {"credit_id": "5cc9599dc3a3684677876df6", "department": "Art", "gender": 0, "id": 1111050, "job": "Production Design", "name": "Nicolai Remisoff", "profile_path": null}, {"credit_id": "5cc959b092514119e5f91701", "department": "Art", "gender": 0, "id": 1111050, "job": "Art Direction", "name": "Nicolai Remisoff", "profile_path": null}, {"credit_id": "5cc959d30e0a263447f2ae9e", "department": "Art", "gender": 2, "id": 4104, "job": "Set Decoration", "name": "Edward G. Boyle", "profile_path": null}, {"credit_id": "5cc959edc3a36847dd82feb4", "department": "Costume & Make-Up", "gender": 0, "id": 118446, "job": "Makeup Artist", "name": "Don L. Cash", "profile_path": null}, {"credit_id": "5cc95a130e0a266f04ec55b7", "department": "Production", "gender": 0, "id": 1435037, "job": "Production Manager", "name": "Max Golden", "profile_path": null}, {"credit_id": "5cc95a2cc3a368744380e50c", "department": "Directing", "gender": 2, "id": 940683, "job": "Assistant Director", "name": "Sam Nelson", "profile_path": null}, {"credit_id": "5cc95a3e9251412ba10121e1", "department": "Sound", "gender": 0, "id": 1542727, "job": "Sound", "name": "Earl Sitar", "profile_path": null}, {"credit_id": "5cc95a54c3a3682dad85381b", "department": "Sound", "gender": 0, "id": 1210180, "job": "Sound Effects Editor", "name": "Truman K. Wood", "profile_path": null}, {"credit_id": "5cc95a7d9251415cd2feecfa", "department": "Crew", "gender": 0, "id": 97660, "job": "Stunts", "name": "David Sharpe", "profile_path": "/cyLoiW8jhViXmDGiIgtru2MuLxQ.jpg"}, {"credit_id": "5cc95aa49251416e1ef32945", "department": "Editing", "gender": 2, "id": 100578, "job": "Supervising Editor", "name": "Grant Whytock", "profile_path": null}, {"credit_id": "5cc95b11c3a3684677876fe1", "department": "Sound", "gender": 2, "id": 1090879, "job": "Orchestrator", "name": "Joseph Nussbaum", "profile_path": null}, {"credit_id": "5cc95b340e0a267f78f2a838", "department": "Crew", "gender": 0, "id": 1518938, "job": "Choreographer", "name": "Adolph Bolm", "profile_path": null}, {"credit_id": "5cc95b460e0a264ef4f297e3", "department": "Production", "gender": 2, "id": 100578, "job": "Producer's Assistant", "name": "Grant Whytock", "profile_path": null}, {"credit_id": "5cc95b5892514119e5f91a2e", "department": "Crew", "gender": 2, "id": 1458522, "job": "Fight Choreographer", "name": "Ralph Faulkner", "profile_path": null}]}}