{"adult": false, "backdrop_path": "/xp67eb2yYJV7gl5gw9G0aUXcdqZ.jpg", "belongs_to_collection": null, "budget": 0, "genres": [{"id": 35, "name": "Comedy"}, {"id": 9648, "name": "Mystery"}, {"id": 53, "name": "Thriller"}], "homepage": null, "id": 43833, "imdb_id": "tt0031831", "original_language": "en", "original_title": "Q Planes", "overview": "An eccentric Scotland Yard inspector thinks something beamed from a spy ship is dropping planes.", "popularity": 3.794, "poster_path": "/axakgnlISimgoUamJjKaRIwjXX4.jpg", "production_companies": [{"id": 73658, "logo_path": null, "name": "Irving Asher Productions", "origin_country": ""}], "production_countries": [{"iso_3166_1": "GB", "name": "United Kingdom"}], "release_date": "1939-06-20", "revenue": 0, "runtime": 82, "spoken_languages": [{"iso_639_1": "en", "name": "English"}], "status": "Released", "tagline": "", "title": "Q Planes", "video": false, "vote_average": 6.4, "vote_count": 7, "keywords": {"keywords": [{"id": 470, "name": "spy"}, {"id": 10168, "name": "aviation"}, {"id": 155457, "name": "screwball comedy"}]}, "similar": {"page": 1, "results": [{"adult": false, "backdrop_path": "/bqpGceqQuHbtnjEqUG9acSYIVIh.jpg", "genre_ids": [18, 53, 9648], "id": 49517, "original_language": "en", "original_title": "Tinker Tailor Soldier Spy", "overview": "In the bleak days of the Cold War, espionage veteran George Smiley is forced from semi-retirement to uncover a Soviet mole within his former colleagues at the heart of MI6.", "poster_path": "/2N3P730TYXEcNL0BO8WBuMc6yJz.jpg", "release_date": "2011-09-16", "title": "Tinker Tailor Soldier Spy", "video": false, "vote_average": 6.7, "vote_count": 1545, "popularity": 18.392}, {"id": 660, "video": false, "vote_count": 1117, "vote_average": 6.7, "title": "Thunderball", "release_date": "1965-12-15", "original_language": "en", "original_title": "Thunderball", "genre_ids": [28, 12, 53], "backdrop_path": "/qd0jrqxFLCKkNruPuJ7zXuQRpKG.jpg", "adult": false, "overview": "A criminal organization has obtained two nuclear bombs and are asking for a 100 million pound ransom in the form of diamonds in seven days or they will use the weapons. The secret service sends James Bond to the Bahamas to once again save the world.", "poster_path": "/sASN1VnJxWosdzp4mH40P47Xhhz.jpg", "popularity": 22.632}, {"id": 36669, "video": false, "vote_count": 2045, "vote_average": 5.9, "title": "Die Another Day", "release_date": "2002-11-17", "original_language": "en", "original_title": "Die Another Day", "genre_ids": [28, 12, 53], "backdrop_path": "/3YQfmtpbiFCMHcXY3lJ7fGEcOL6.jpg", "adult": false, "overview": "Bond takes on a North Korean leader who undergoes DNA replacement procedures that allow him to assume different identities. American agent, Jinx Johnson assists Bond in his attempt to thwart the villain's plans to exploit a satellite that is powered by solar energy.", "poster_path": "/1iUZqUXS7x5FcGM5J0u01xuObWC.jpg", "popularity": 24.2}, {"id": 37724, "video": false, "vote_count": 11109, "vote_average": 7.1, "title": "Skyfall", "release_date": "2012-10-25", "original_language": "en", "original_title": "Skyfall", "genre_ids": [28, 12, 53], "backdrop_path": "/6bjRujKSnCVSrzC1qjmqfAyaiET.jpg", "adult": false, "overview": "When Bond's latest assignment goes gravely wrong and agents around the world are exposed, MI6 is attacked forcing M to relocate the agency. These events cause her authority and position to be challenged by Gareth Mallory, the new Chairman of the Intelligence and Security Committee. With MI6 now compromised from both inside and out, M is left with one ally she can trust: Bond. 007 takes to the shadows - aided only by field agent, Eve - following a trail to the mysterious Silva, whose lethal and hidden motives have yet to reveal themselves.", "poster_path": "/lQCkPLDxFONmgzrWLvq085v1g2d.jpg", "popularity": 34.013}, {"adult": false, "backdrop_path": "/tjQHn6xW5BiB1RJ3OZIPDzIOSkF.jpg", "genre_ids": [12, 28, 53], "id": 954, "original_language": "en", "original_title": "Mission: Impossible", "overview": "When Ethan Hunt, the leader of a crack espionage team whose perilous operation has gone awry with no explanation, discovers that a mole has penetrated the CIA, he's surprised to learn that he's the No. 1 suspect. To clear his name, Hunt now must ferret out the real double agent and, in the process, even the score.", "poster_path": "/1PVKS17pIBFsIhgFws2uagPDNLW.jpg", "release_date": "1996-05-22", "title": "Mission: Impossible", "video": false, "vote_average": 6.9, "vote_count": 5216, "popularity": 25.737}, {"id": 691, "video": false, "vote_count": 939, "vote_average": 6.7, "title": "The Spy Who Loved Me", "release_date": "1977-07-07", "original_language": "en", "original_title": "The Spy Who Loved Me", "genre_ids": [28, 12, 53], "backdrop_path": "/2tCAEhE2rPONBmUOs4W73AlBWYg.jpg", "adult": false, "overview": "Russian and British submarines with nuclear missiles on board both vanish from sight without a trace. England and Russia both blame each other as James Bond tries to solve the riddle of the disappearing ships. But the KGB also has an agent on the case.", "poster_path": "/vYMgDqQDpqHDhz3enGkwBmTs7p7.jpg", "popularity": 16.084}, {"adult": false, "backdrop_path": "/vHLsgsvLtFWDlhBigKDRsYIC1p6.jpg", "genre_ids": [28, 9648, 53], "id": 27576, "original_language": "en", "original_title": "Salt", "overview": "As a CIA officer, Evelyn Salt swore an oath to duty, honor and country. Her loyalty will be tested when a defector accuses her of being a Russian spy. Salt goes on the run, using all her skills and years of experience as a covert operative to elude capture. Salt's efforts to prove her innocence only serve to cast doubt on her motives, as the hunt to uncover the truth behind her identity continues and the question remains: \"Who is Salt?\"", "poster_path": "/956xMjH4sPoqimqoLOP6AI19mjm.jpg", "release_date": "2010-07-21", "title": "Salt", "video": false, "vote_average": 6.3, "vote_count": 3533, "popularity": 20.188}, {"id": 206647, "video": false, "vote_count": 7176, "vote_average": 6.4, "title": "Spectre", "release_date": "2015-10-26", "original_language": "en", "original_title": "Spectre", "genre_ids": [28, 12, 80], "backdrop_path": "/wVTYlkKPKrljJfugXN7UlLNjtuJ.jpg", "adult": false, "overview": "A cryptic message from Bond\u2019s past sends him on a trail to uncover a sinister organization. While M battles political forces to keep the secret service alive, Bond peels back the layers of deceit to reveal the terrible truth behind SPECTRE.", "poster_path": "/hE24GYddaxB9MVZl1CaiI86M3kp.jpg", "popularity": 38.086}, {"id": 341013, "video": false, "vote_count": 4063, "vote_average": 6.3, "title": "Atomic Blonde", "release_date": "2017-07-26", "original_language": "en", "original_title": "Atomic Blonde", "genre_ids": [28, 9648, 53], "backdrop_path": "/g3hni0i9iAQ13jDGOFWavJFlojc.jpg", "adult": false, "overview": "An undercover MI6 agent is sent to Berlin during the Cold War to investigate the murder of a fellow agent and recover a missing list of double agents.", "poster_path": "/kV9R5h0Yct1kR8Hf8sJ1nX0Vz4x.jpg", "popularity": 28.364}, {"adult": false, "backdrop_path": "/oS1Ck6sbBnIReyactTdFlFF2Wkh.jpg", "genre_ids": [35, 28, 12], "id": 203801, "original_language": "en", "original_title": "The Man from U.N.C.L.E.", "overview": "At the height of the Cold War, a mysterious criminal organization plans to use nuclear weapons and technology to upset the fragile balance of power between the United States and Soviet Union. CIA agent Napoleon Solo and KGB agent Illya Kuryakin are forced to put aside their hostilities and work together to stop the evildoers in their tracks. The duo's only lead is the daughter of a missing German scientist, whom they must find soon to prevent a global catastrophe.", "poster_path": "/i9P3FU8z2Sd7jYRx6l1Iby0zP0o.jpg", "release_date": "2015-08-13", "title": "The Man from U.N.C.L.E.", "video": false, "vote_average": 7.1, "vote_count": 3844, "popularity": 20.194}, {"id": 681, "video": false, "vote_count": 1040, "vote_average": 6.4, "title": "Diamonds Are Forever", "release_date": "1971-12-13", "original_language": "en", "original_title": "Diamonds Are Forever", "genre_ids": [28, 12, 53], "backdrop_path": "/gIGLXXvsljHK1jdDNaIXsjhZnnH.jpg", "adult": false, "overview": "Diamonds are stolen only to be sold again in the international market. James Bond infiltrates a smuggling mission to find out who\u2019s guilty. The mission takes him to Las Vegas where Bond meets his archenemy Blofeld.", "poster_path": "/viPjZ3JCOahcfNCcVhiPExusJoZ.jpg", "popularity": 18.532}, {"id": 10764, "video": false, "vote_count": 4876, "vote_average": 6.2, "title": "Quantum of Solace", "release_date": "2008-10-30", "original_language": "en", "original_title": "Quantum of Solace", "genre_ids": [28, 12, 80, 53], "backdrop_path": "/hfZVY8lMiE7HH1cDc2qzSFF6Kbt.jpg", "adult": false, "overview": "Quantum of Solace continues the adventures of James Bond after Casino Royale. Betrayed by Vesper, the woman he loved, 007 fights the urge to make his latest mission personal. Pursuing his determination to uncover the truth, Bond and M interrogate Mr. White, who reveals that the organization that blackmailed Vesper is far more complex and dangerous than anyone had imagined.", "poster_path": "/6mlNx0Jiqhg3D7NlANT9pidsgPJ.jpg", "popularity": 27.546}, {"adult": false, "backdrop_path": "/3amJMLyjx0rDbwhnKNG8d6gzDSV.jpg", "genre_ids": [53, 18], "id": 296098, "original_language": "en", "original_title": "Bridge of Spies", "overview": "During the Cold War, the Soviet Union captures U.S. pilot Francis Gary Powers after shooting down his U-2 spy plane. Sentenced to 10 years in prison, Powers' only hope is New York lawyer James Donovan, recruited by a CIA operative to negotiate his release. Donovan boards a plane to Berlin, hoping to win the young man's freedom through a prisoner exchange. If all goes well, the Russians would get Rudolf Abel, the convicted spy who Donovan defended in court.", "poster_path": "/xPCNA8zJxyyFKTj47QpvkXHukzB.jpg", "release_date": "2015-10-15", "title": "Bridge of Spies", "video": false, "vote_average": 7.2, "vote_count": 4667, "popularity": 20.65}, {"id": 213, "video": false, "vote_count": 2129, "vote_average": 8.0, "title": "North by Northwest", "release_date": "1959-07-07", "original_language": "en", "original_title": "North by Northwest", "genre_ids": [9648, 53], "backdrop_path": "/AplR1QRswlXiM65GoifX8sDadME.jpg", "adult": false, "overview": "Advertising man Roger Thornhill is mistaken for a spy, triggering a deadly cross-country chase.", "poster_path": "/aNV789h3oHm2pTHK5Bdq5RuiumZ.jpg", "popularity": 20.897}, {"id": 36670, "video": false, "vote_count": 696, "vote_average": 6.1, "title": "Never Say Never Again", "release_date": "1983-10-07", "original_language": "en", "original_title": "Never Say Never Again", "genre_ids": [28, 12, 53], "backdrop_path": "/jYO08KXUKvJvzx3KcE7MoaDYvoM.jpg", "adult": false, "overview": "James Bond returns as the secret agent 007 one more time to battle the evil organization SPECTRE. Bond must defeat Largo, who has stolen two atomic warheads for nuclear blackmail. But Bond has an ally in Largo's girlfriend, the willowy Domino, who falls for Bond and seeks revenge. This is the last time for Sean Connery as Her Majesty's Secret Agent 007. Made outside of the traditional Broccoli production environment due to separate rights having been obtained for this specific Ian Fleming story.", "poster_path": "/s9tBlhTEW0OtYJdemVMPbRcD7wk.jpg", "popularity": 23.883}, {"adult": false, "backdrop_path": "/9QcYwm5af4JaUSOyuysVEYOyEXn.jpg", "genre_ids": [12, 28, 53], "id": 646, "original_language": "en", "original_title": "Dr. No", "overview": "In the film that launched the James Bond saga, Agent 007 battles mysterious Dr. No, a scientific genius bent on destroying the U.S. space program. As the countdown to disaster begins, Bond must go to Jamaica, where he encounters beautiful Honey Ryder, to confront a megalomaniacal villain in his massive island headquarters.", "poster_path": "/gRdfLVVf6FheOw6mw6wOsKhZG1l.jpg", "release_date": "1962-10-04", "title": "Dr. No", "video": false, "vote_average": 7.0, "vote_count": 1837, "popularity": 31.291}, {"id": 818, "video": false, "vote_count": 1920, "vote_average": 5.9, "title": "Austin Powers in Goldmember", "release_date": "2002-07-26", "original_language": "en", "original_title": "Austin Powers in Goldmember", "genre_ids": [35, 80, 878], "backdrop_path": "/mzZraP6PV34eVjB8giKbKIMXVeW.jpg", "adult": false, "overview": "The world's most shagadelic spy continues his fight against Dr. Evil. This time, the diabolical doctor and his clone, Mini-Me, team up with a new foe -- '70s kingpin Goldmember. While pursuing the team of villains to stop them from world domination, Austin gets help from his dad and an old girlfriend.", "poster_path": "/tFR7dTbX5BsmoUwKHfa2cWoZbwK.jpg", "popularity": 23.167}, {"id": 37834, "video": false, "vote_count": 2737, "vote_average": 6.1, "title": "Knight and Day", "release_date": "2010-06-15", "original_language": "en", "original_title": "Knight and Day", "genre_ids": [28, 35], "backdrop_path": "/clq0YPDQYCql9ekC17YFklk8FwX.jpg", "adult": false, "overview": "A fugitive couple goes on a glamorous and sometimes deadly adventure where nothing and no one \u2013 even themselves \u2013 are what they seem. Amid shifting alliances and unexpected betrayals, they race across the globe, with their survival ultimately hinging on the battle of truth vs. trust.", "poster_path": "/aHEpzwXvMtIEMBE13tWXS5oHZ7d.jpg", "popularity": 17.619}, {"id": 207703, "video": false, "vote_count": 11141, "vote_average": 7.6, "title": "Kingsman: The Secret Service", "release_date": "2014-12-13", "original_language": "en", "original_title": "Kingsman: The Secret Service", "genre_ids": [28, 12, 35, 80], "backdrop_path": "/7McaexSsSTLD8V17UgaZAfI0Cu9.jpg", "adult": false, "overview": "The story of a super-secret spy organization that recruits an unrefined but promising street kid into the agency's ultra-competitive training program just as a global threat emerges from a twisted tech genius.", "poster_path": "/8x7ej0LnHdKUqilNNJXYOeyB6L9.jpg", "popularity": 26.232}, {"id": 36955, "video": false, "vote_count": 2202, "vote_average": 6.9, "title": "True Lies", "release_date": "1994-07-15", "original_language": "en", "original_title": "True Lies", "genre_ids": [28, 53], "backdrop_path": "/o2agns0LEqyEUCByMT8ViIOio7r.jpg", "adult": false, "overview": "A fearless, globe-trotting, terrorist-battling secret agent has his life turned upside down when he discovers his wife might be having an affair with a used car salesman while terrorists smuggle nuclear war heads into the United States.", "poster_path": "/mTAHr5h5i64hTLqo0cW2X2083Cx.jpg", "popularity": 25.06}], "total_pages": 59, "total_results": 1173}, "recommendations": {"page": 1, "results": [{"adult": false, "backdrop_path": "/hCQamV4Pp2YuFa9zoIQ4oXdxZRQ.jpg", "genre_ids": [14, 10402, 10749], "id": 43498, "original_language": "en", "original_title": "Yolanda and the Thief", "overview": "Johnny Riggs, a con man on the lam, finds himself in a Latin-American country named Patria. There, he overhears a convent-bred rich girl praying to her guardian angel for help in managing her tangled business affairs. Riggs decides to materialize as the girl's \"angel\", gains her unquestioning confidence, and helps himself to the deluded girl's millions. Just as he and his partner are about to flee Patria with their booty, Riggs realizes he has fallen in love with the girl and returns the money, together with a note that is part confession and part love letter. But the larcenous duo's escape from Patria turns out to be more difficult than they could ever have imagined.", "poster_path": "/1mLucEX0jcl9oHwS1ZW9sdiuMtT.jpg", "release_date": "1945-11-20", "title": "Yolanda and the Thief", "video": false, "vote_average": 6.0, "vote_count": 4, "popularity": 3.521}, {"adult": false, "backdrop_path": "/hay3sCF3P8Zotqj09BSsMdqFXYK.jpg", "genre_ids": [18, 10402], "id": 25862, "original_language": "en", "original_title": "Blues in the Night", "overview": "Members of a traveling jazz band try to keep their talented leader from dying after he breaks from the band and begins drinking and taking drugs.", "poster_path": "/zbsqx23OaiQtus148d1NYAYVdmI.jpg", "release_date": "1941-11-15", "title": "Blues in the Night", "video": false, "vote_average": 6.3, "vote_count": 10, "popularity": 2.255}, {"adult": false, "backdrop_path": "/khEsilaCR8UMs8XyCFbSpYR5vWk.jpg", "genre_ids": [80, 18, 35, 10749, 9648], "id": 91094, "original_language": "ja", "original_title": "\u6309\u6469\u3068\u5973", "overview": "A pair of blind masseurs, an enigmatic city woman, a lonely man and his ill-behaved nephew\u2014The Masseurs and a Woman is made up of crisscrossing miniature studies of love and family at a remote resort in the mountains. With delicate and surprising humor, Hiroshi Shimizu paints a timeless portrait of loneliness and the human need to connect.", "poster_path": "/xkx0JhOujTddRtJe5QwAfl5iTku.jpg", "release_date": "1938-07-07", "title": "The Masseurs and a Woman", "video": false, "vote_average": 6.7, "vote_count": 14, "popularity": 1.991}, {"adult": false, "backdrop_path": "/3Qpiz6gK7BG2UJM7o0NowkFStpJ.jpg", "genre_ids": [18, 10749], "id": 28391, "original_language": "en", "original_title": "Street Angel", "overview": "A spirited young woman finds herself destitute and on the streets before joining a traveling carnival, where she meets a vagabond painter.", "poster_path": "/lu0GdJ6z9wnjbEXIgCbQLCd5BMN.jpg", "release_date": "1928-04-09", "title": "Street Angel", "video": false, "vote_average": 7.1, "vote_count": 25, "popularity": 4.095}], "total_pages": 1, "total_results": 4}, "credits": {"cast": [{"cast_id": 3, "character": "Tony McVane", "credit_id": "52fe4663c3a36847f80fc3bb", "gender": 2, "id": 3359, "name": "Laurence Olivier", "order": 0, "profile_path": "/n8jDSq91O95HSbtCJLRsM367kKx.jpg"}, {"cast_id": 4, "character": "Maj. Charles Hammond", "credit_id": "52fe4663c3a36847f80fc3bf", "gender": 2, "id": 12689, "name": "Ralph Richardson", "order": 1, "profile_path": "/p9FyikB1ShTtq1cpMgkkhUrI9Bp.jpg"}, {"cast_id": 5, "character": "Kay Lawrence", "credit_id": "52fe4663c3a36847f80fc3c3", "gender": 1, "id": 2924, "name": "Valerie Hobson", "order": 2, "profile_path": "/4OqiJkVZ39Q1NMAgqKEstyNNMdd.jpg"}, {"cast_id": 6, "character": "Jenkins", "credit_id": "52fe4663c3a36847f80fc3c7", "gender": 2, "id": 27942, "name": "George Curzon", "order": 3, "profile_path": null}, {"cast_id": 7, "character": "Mr. Barrett", "credit_id": "52fe4663c3a36847f80fc3cb", "gender": 2, "id": 27944, "name": "George Merritt", "order": 4, "profile_path": "/5Q3zRQOzfgeiu7CIo0jYjHvvbnE.jpg"}, {"cast_id": 8, "character": "Blenkinsop, Hammond's Butler", "credit_id": "52fe4663c3a36847f80fc3cf", "gender": 0, "id": 553488, "name": "Gus McNaughton", "order": 5, "profile_path": null}, {"cast_id": 9, "character": "R. Mackenzie", "credit_id": "52fe4663c3a36847f80fc3d3", "gender": 2, "id": 14152, "name": "David Tree", "order": 6, "profile_path": null}, {"cast_id": 10, "character": "Daphne", "credit_id": "52fe4663c3a36847f80fc3d7", "gender": 0, "id": 1144087, "name": "Sandra Storme", "order": 7, "profile_path": null}, {"cast_id": 11, "character": "Stage Door Keeper", "credit_id": "55468b5f9251414c92004cc5", "gender": 2, "id": 552408, "name": "Hay Petrie", "order": 8, "profile_path": "/cyY6iZoHNyxn5GPFTiw8rivsyyy.jpg"}, {"cast_id": 12, "character": "Karl", "credit_id": "55468b6ec3a36856e5004675", "gender": 0, "id": 194925, "name": "Frank Fox", "order": 9, "profile_path": null}, {"cast_id": 13, "character": "Air Marshal Gosport", "credit_id": "55468b7dc3a3680cd70076c7", "gender": 0, "id": 42081, "name": "George Butler", "order": 10, "profile_path": null}, {"cast_id": 14, "character": "The Baron", "credit_id": "55468b8c9251414c370049a8", "gender": 0, "id": 109850, "name": "Gordon McLeod", "order": 11, "profile_path": "/4djHxDOGs7OYlOHBuwNj9Tvr1U0.jpg"}, {"cast_id": 15, "character": "John Peters, a Pilot", "credit_id": "55468b9c9251414c370049ab", "gender": 2, "id": 7383, "name": "John Longden", "order": 12, "profile_path": "/w4lhVUTCWIxbE3qxeebrPgsxKQV.jpg"}, {"cast_id": 16, "character": "Pollack - Aviation Engineer", "credit_id": "55468bb3c3a3680ce600769d", "gender": 2, "id": 104302, "name": "Ronald Adam", "order": 13, "profile_path": "/mD8zf8SdsreKNW6lN2hmtG1hBRA.jpg"}, {"cast_id": 17, "character": "Officer", "credit_id": "55468bc19251413fc000436e", "gender": 2, "id": 118452, "name": "Patrick Aherne", "order": 14, "profile_path": null}, {"cast_id": 18, "character": "Minor Role", "credit_id": "55468bd0c3a3680cd90072e0", "gender": 0, "id": 120149, "name": "Eileen Bennett", "order": 15, "profile_path": null}, {"cast_id": 19, "character": "Minor Role", "credit_id": "55468bdbc3a3680cd90072e4", "gender": 2, "id": 102746, "name": "Leslie Bradley", "order": 16, "profile_path": "/wc9VysI4TcGNwSQ8D6sJ0fVFbeE.jpg"}, {"cast_id": 20, "character": "Minor Role", "credit_id": "55468beac3a3680cd70076d1", "gender": 2, "id": 77672, "name": "Henry Caine", "order": 17, "profile_path": null}, {"cast_id": 21, "character": "John - Factory Watchman", "credit_id": "55468bf8c3a36816bf0003ec", "gender": 0, "id": 584082, "name": "Mark Daly", "order": 18, "profile_path": null}, {"cast_id": 22, "character": "Viking First Mate", "credit_id": "55468c0ac3a3680ce60076a6", "gender": 2, "id": 990435, "name": "Roy Emerton", "order": 19, "profile_path": null}, {"cast_id": 23, "character": "Minor Role", "credit_id": "55468c1b9251414c92004cd1", "gender": 2, "id": 31298, "name": "Derek Farr", "order": 20, "profile_path": "/szQ3hFOuYFyr3XkHzLCCpNIUzMu.jpg"}, {"cast_id": 24, "character": "Viking Bo'sun", "credit_id": "55468c2ac3a36816bf0003f2", "gender": 2, "id": 91617, "name": "David Farrar", "order": 21, "profile_path": "/aVfrNDb7DKLGmYF01l6dHaPCdYw.jpg"}, {"cast_id": 25, "character": "Air Ministry Officer", "credit_id": "55468c3b925141178b00059a", "gender": 2, "id": 131029, "name": "Ian Fleming", "order": 22, "profile_path": "/uZ4SiEFFHedkg35n65Ricj5qqYS.jpg"}, {"cast_id": 26, "character": "Minor Role", "credit_id": "55468c4cc3a3680ce60076ab", "gender": 2, "id": 552412, "name": "Morland Graham", "order": 23, "profile_path": "/kRv0l8RS0aTW8WH2ZrnOwjE0aiZ.jpg"}, {"cast_id": 27, "character": "Minor Role", "credit_id": "55468c5ac3a36856e500468e", "gender": 1, "id": 104299, "name": "Sally Gray", "order": 24, "profile_path": "/q18u9EspMaTj2fd3siIJPFabW2R.jpg"}, {"cast_id": 28, "character": "Minor Role", "credit_id": "55468c6ac3a36856e5004693", "gender": 2, "id": 95027, "name": "Allan Jeayes", "order": 25, "profile_path": "/qkQs32Rxaan0iM7hBLC9cU3qFfe.jpg"}, {"cast_id": 29, "character": "Minor Role", "credit_id": "55468c7692514111490000f6", "gender": 2, "id": 89589, "name": "Colin Keith-Johnston", "order": 26, "profile_path": "/sfwOAQGoT6j2Tmar1wf1DOGJ2k4.jpg"}, {"cast_id": 30, "character": "Inspector", "credit_id": "55468c87c3a3680ce80072c7", "gender": 0, "id": 1462633, "name": "Franklin Kelsey", "order": 27, "profile_path": null}, {"cast_id": 31, "character": "Newspaper Editor", "credit_id": "55468c9e9251414c370049bd", "gender": 2, "id": 3673, "name": "John Laurie", "order": 28, "profile_path": "/4mmgq0Mq8ycabV7BWwduAGMd265.jpg"}, {"cast_id": 32, "character": "Mattie - Fisherman", "credit_id": "55468caf92514118890005e0", "gender": 2, "id": 231088, "name": "Herbert Lomas", "order": 29, "profile_path": "/wQWTmeNqaOprEpRdJ4oUPfrely.jpg"}, {"cast_id": 33, "character": "Northern Salvage Company Manager", "credit_id": "55468cf8c3a3680ce60076ca", "gender": 0, "id": 115376, "name": "Raymond Lovell", "order": 30, "profile_path": "/sG77WrS9DDa2FQTaHpR1EYcD38k.jpg"}, {"cast_id": 34, "character": "Minor Role", "credit_id": "55468d05c3a3680cdb0075c5", "gender": 2, "id": 47395, "name": "Miles Malleson", "order": 31, "profile_path": "/5Zbh2FzelrTvyGAFfY2Mdeoi7Ps.jpg"}, {"cast_id": 35, "character": "Barmaid", "credit_id": "55468d2bc3a3680cd9007306", "gender": 1, "id": 1026388, "name": "Gertrude Musgrove", "order": 32, "profile_path": null}, {"cast_id": 36, "character": "Pilot", "credit_id": "55468d389251414c370049ce", "gender": 2, "id": 939861, "name": "Reginald Purdell", "order": 33, "profile_path": "/fcQA0pjnAZbQW7BBk95rzCFvEuM.jpg"}, {"cast_id": 37, "character": "Pilot", "credit_id": "55468d48925141499f0037eb", "gender": 2, "id": 444317, "name": "John Robinson", "order": 34, "profile_path": null}, {"cast_id": 38, "character": "Newspaper Boy", "credit_id": "55468d5f92514119e0004754", "gender": 0, "id": 37874, "name": "John Singer", "order": 35, "profile_path": null}, {"cast_id": 39, "character": "Foreign Agent", "credit_id": "55468d6dc3a368573b00448e", "gender": 0, "id": 1462634, "name": "Lewis Stringer", "order": 36, "profile_path": null}, {"cast_id": 40, "character": "Minor Role", "credit_id": "55468d7bc3a36856e50046c0", "gender": 0, "id": 1462628, "name": "Gregory Stroud", "order": 37, "profile_path": null}, {"cast_id": 41, "character": "Police Sgt", "credit_id": "55468d88925141499f0037ef", "gender": 2, "id": 1290333, "name": "Jack Vyvyan", "order": 38, "profile_path": null}, {"cast_id": 42, "character": "Cornish Car Driver", "credit_id": "55468d9ac3a3680cd70076f9", "gender": 2, "id": 588260, "name": "Hal Walters", "order": 39, "profile_path": null}], "crew": [{"credit_id": "56e0479d9251414691003c97", "department": "Writing", "gender": 2, "id": 9952, "job": "Story", "name": "Jack Whittingham", "profile_path": null}, {"credit_id": "575d5e519251412443002039", "department": "Camera", "gender": 2, "id": 10537, "job": "Director of Photography", "name": "Harry Stradling Sr.", "profile_path": "/zrOonlDitklFugniihdlLloxGFO.jpg"}, {"credit_id": "575d5e829251412b0c0033f5", "department": "Art", "gender": 2, "id": 33261, "job": "Supervising Art Director", "name": "Vincent Korda", "profile_path": null}, {"credit_id": "575d5ea9925141540300011e", "department": "Sound", "gender": 2, "id": 39055, "job": "Music Director", "name": "Muir Mathieson", "profile_path": null}, {"credit_id": "56e04792925141657e00002e", "department": "Writing", "gender": 2, "id": 47686, "job": "Story", "name": "Brock Williams", "profile_path": null}, {"credit_id": "575d5e6b9251415dd2002d40", "department": "Editing", "gender": 2, "id": 54033, "job": "Editor", "name": "Hugh Stewart", "profile_path": null}, {"credit_id": "52fe4663c3a36847f80fc3b1", "department": "Directing", "gender": 2, "id": 71788, "job": "Director", "name": "Tim Whelan", "profile_path": null}, {"credit_id": "52fe4663c3a36847f80fc3b7", "department": "Directing", "gender": 0, "id": 95025, "job": "Director", "name": "Arthur B. Woods", "profile_path": null}, {"credit_id": "575d5e3fc3a36879bb00011d", "department": "Production", "gender": 2, "id": 115373, "job": "Producer", "name": "Irving Asher", "profile_path": null}, {"credit_id": "56e047a6c3a36874860043d3", "department": "Writing", "gender": 2, "id": 115849, "job": "Story", "name": "Arthur Wimperis", "profile_path": null}, {"credit_id": "56e047aec3a36874860043d7", "department": "Writing", "gender": 2, "id": 133237, "job": "Writer", "name": "Ian Dalrymple", "profile_path": null}, {"credit_id": "575d5e949251415403000117", "department": "Art", "gender": 0, "id": 1349482, "job": "Assistant Art Director", "name": "Frederick Pusey", "profile_path": null}]}}