{"adult": false, "backdrop_path": "/tu8mdZg9Hhrfkji3OZyrMjPRxgH.jpg", "belongs_to_collection": null, "budget": 0, "genres": [{"id": 18, "name": "Drama"}], "homepage": null, "id": 43876, "imdb_id": "tt0027951", "original_language": "fr", "original_title": "Mayerling", "overview": "The film establishes Rudolph is a rebellious \"man of the people\", at eternal odds with his despotic father, Emperor Franz Joseph. To keep him quiet and out of trouble, Rudolph is forced into an arranged marriage, and surrounded by Hapsburg informers and spies. In an effort to escape this oppressive atmosphere, a disguised Rudolph dashes off to a fair, where he meets the beauteous 17-year-old Marie. Thus begins an illicit romance, which the lovers try vainly to keep secret from the prying eyes of the Emperor's flunkeys.", "popularity": 3.375, "poster_path": "/ksQntaMD7QkMUEOiLWbcnAzACFa.jpg", "production_companies": [{"id": 43854, "logo_path": "/tMo26bTTY0f4mMPIvFnyydrDm7V.png", "name": "Nero-Film AG", "origin_country": "DE"}, {"id": 9261, "logo_path": null, "name": "Mercury Films", "origin_country": "CA"}], "production_countries": [{"iso_3166_1": "FR", "name": "France"}], "release_date": "1936-01-31", "revenue": 0, "runtime": 96, "spoken_languages": [{"iso_639_1": "fr", "name": "Fran\u00e7ais"}], "status": "Released", "tagline": "", "title": "Mayerling", "video": false, "vote_average": 7.4, "vote_count": 4, "keywords": {"keywords": [{"id": 2280, "name": "emperor"}, {"id": 3071, "name": "prince"}, {"id": 161506, "name": "heir"}]}, "similar": {"page": 1, "results": [{"id": 150689, "video": false, "vote_count": 4967, "vote_average": 6.7, "title": "Cinderella", "release_date": "2015-03-12", "original_language": "en", "original_title": "Cinderella", "genre_ids": [18, 14, 10749, 10751], "backdrop_path": "/gkuyOdCeuKLdOlwQIUF44SHsYCq.jpg", "adult": false, "overview": "When her father unexpectedly passes away, young Ella finds herself at the mercy of her cruel stepmother and her daughters. Never one to give up hope, Ella's fortunes begin to change after meeting a dashing stranger in the woods.", "poster_path": "/2i0JH5WqYFqki7WDhUW56Sg0obh.jpg", "popularity": 46.69}, {"id": 224141, "video": false, "vote_count": 3143, "vote_average": 5.7, "title": "Into the Woods", "release_date": "2014-12-24", "original_language": "en", "original_title": "Into the Woods", "genre_ids": [35, 14], "backdrop_path": "/lzJzB0QfkjpGCm9qUC4XpEIB6pm.jpg", "adult": false, "overview": "In a woods filled with magic and fairy tale characters, a baker and his wife set out to end the curse put on them by their neighbor, a spiteful witch.", "poster_path": "/5h91odPFNlBuJbRBj5N4MEBfXDE.jpg", "popularity": 28.397}, {"adult": false, "backdrop_path": "/wQraxOsaq0NwTO9rSwLo4Nc8hVG.jpg", "genre_ids": [10751, 14, 16, 10749], "id": 11224, "original_language": "en", "original_title": "Cinderella", "overview": "Cinderella has faith her dreams of a better life will come true. With help from her loyal mice friends and a wave of her Fairy Godmother's wand, Cinderella's rags are magically turned into a glorious gown and off she goes to the Royal Ball. But when the clock strikes midnight, the spell is broken, leaving a single glass slipper... the only key to the ultimate fairy-tale ending!", "poster_path": "/avz6S9HYWs4O8Oe4PenBFNX4uDi.jpg", "release_date": "1950-03-04", "title": "Cinderella", "video": false, "vote_average": 7.0, "vote_count": 4101, "popularity": 28.485}, {"adult": false, "backdrop_path": "/ikVhBmiTMYMybYnQO8S42txlizJ.jpg", "genre_ids": [18, 10749, 35], "id": 9454, "original_language": "en", "original_title": "EverAfter", "overview": "A unique 16th century woman, Danielle possesses a love of books, and can easily quote from Sir Thomas More\u2019s UTOPIA. An intriguing mix of tomboyish athleticism and physical beauty, she has more than enough charm to capture the heart of a prince ... after beaning him with an apple.", "poster_path": "/1ELrosU04wEbfmxK9wLBjdEECqm.jpg", "release_date": "1998-07-31", "title": "EverAfter", "video": false, "vote_average": 7.1, "vote_count": 788, "popularity": 14.321}, {"adult": false, "backdrop_path": "/3mhNnNmfCGrjyVEZhjWRVcjMOSi.jpg", "genre_ids": [14, 16, 10749, 10751], "id": 54113, "original_language": "en", "original_title": "The Swan Princess: Escape from Castle Mountain", "overview": "The first wedding anniversary of Princess Odette and Prince Derek is distracted by field fires set by Knuckles. His master Clavius, wants to conquer the world, and he needs to capture a giant orb to do that. Clavius kidnaps Queen Uberta and Odette with Derek have to save her.", "poster_path": "/oTEgvTpAIugS7OH6oIoVZkmV3C3.jpg", "release_date": "1997-01-01", "title": "The Swan Princess: Escape from Castle Mountain", "video": false, "vote_average": 6.0, "vote_count": 198, "popularity": 15.715}, {"adult": false, "backdrop_path": "/zrGPZc07huy9ApZs7GCrWj05Cy8.jpg", "genre_ids": [12, 14, 10749, 10751], "id": 2270, "original_language": "en", "original_title": "Stardust", "overview": "In a countryside town bordering on a magical land, a young man makes a promise to his beloved that he'll retrieve a fallen star by venturing into the magical realm. His journey takes him into a world beyond his wildest dreams and reveals his true identity.", "poster_path": "/A9gXvPOnMu961E36x5p3RT4FQ5E.jpg", "release_date": "2007-08-09", "title": "Stardust", "video": false, "vote_average": 7.2, "vote_count": 2401, "popularity": 19.248}, {"adult": false, "backdrop_path": "/yDmyqO3xHTVxtyM0CuqobSX3Hjr.jpg", "genre_ids": [16, 10751, 14], "id": 10144, "original_language": "en", "original_title": "The Little Mermaid", "overview": "This colorful adventure tells the story of an impetuous mermaid princess named Ariel who falls in love with the very human Prince Eric and puts everything on the line for the chance to be with him. Memorable songs and characters -- including the villainous sea witch Ursula.", "poster_path": "/6aXMusULuKFAK0ZRUlv7RJ9zHTc.jpg", "release_date": "1989-11-17", "title": "The Little Mermaid", "video": false, "vote_average": 7.3, "vote_count": 4668, "popularity": 26.278}, {"id": 10882, "video": false, "vote_count": 3217, "vote_average": 6.9, "title": "Sleeping Beauty", "release_date": "1959-01-28", "original_language": "en", "original_title": "Sleeping Beauty", "genre_ids": [16, 14, 10749, 10751], "backdrop_path": "/oHZIobyIG0YzWntyPCTSJDOk9qB.jpg", "adult": false, "overview": "A beautiful princess born in a faraway kingdom is destined by a terrible curse to prick her finger on the spindle of a spinning wheel and fall into a deep sleep that can only be awakened by true love's first kiss. Determined to protect her, her parents ask three fairies to raise her in hiding. But the evil Maleficent is just as determined to seal the princess's fate.", "poster_path": "/j4YBuAe8D1jDSiitpq69og9x3Yl.jpg", "popularity": 28.036}, {"id": 809, "video": false, "vote_count": 6981, "vote_average": 7.0, "title": "Shrek 2", "release_date": "2004-05-19", "original_language": "en", "original_title": "Shrek 2", "genre_ids": [12, 16, 35, 14, 10751], "backdrop_path": "/gdFAYLb5NR5HqcEKnPloOM6fX4B.jpg", "adult": false, "overview": "Shrek, Fiona and Donkey set off to Far, Far Away to meet Fiona's mother and father. But not everyone is happy. Shrek and the King find it hard to get along, and there's tension in the marriage. The fairy godmother discovers that Shrek has married Fiona instead of her Son Prince Charming and sets about destroying their marriage.", "poster_path": "/pSQvRqxwRa2IcDJHGY1d3TdKy2q.jpg", "popularity": 29.41}, {"id": 8703, "video": false, "vote_count": 178, "vote_average": 7.8, "title": "Three Wishes for Cinderella", "release_date": "1973-11-16", "original_language": "cs", "original_title": "T\u0159i o\u0159\u00ed\u0161ky pro Popelku", "genre_ids": [12, 18, 14, 10749, 10751], "backdrop_path": "/mB6K5DYMxIjVJAc6MM0zoG2pcBp.jpg", "adult": false, "overview": "The film stars Libuse Safrankova as the title character, a young woman who is put upon by her stepmother and stepsisters. The film employs a twist, though, when a handsome prince comes knocking. Cinderella does not simply fall into the prince's arms. In this version, he must actively pursue the young woman who is a skilled sharpshooter prone to wearing hunting outfits. Cinderella also has three wishes at her disposal, gained from three magic nuts.", "poster_path": "/rxsZrGh2sS2axwSN9T7SL1aznhH.jpg", "popularity": 16.264}, {"id": 14128, "video": false, "vote_count": 809, "vote_average": 5.9, "title": "Cinderella II: Dreams Come True", "release_date": "2002-02-23", "original_language": "en", "original_title": "Cinderella II: Dreams Come True", "genre_ids": [16, 14, 10749, 10751], "backdrop_path": "/4ErXZZgpXPxDcCLnnLXysK03ss9.jpg", "adult": false, "overview": "As a newly crowned princess, Cinderella quickly learns that life at the Palace - and her royal responsibilities - are more challenging than she had imagined. In three heartwarming tales, Cinderella calls on her animal friends and her Fairy Godmother to help as she brings her own grace and charm to her regal role and discovers that being true to yourself is the best way to make your dreams come true.", "poster_path": "/36nD4aDvoFMewiHBnIcGo3vVcd6.jpg", "popularity": 21.636}, {"id": 2312, "video": false, "vote_count": 433, "vote_average": 4.5, "title": "In the Name of the King: A Dungeon Siege Tale", "release_date": "2007-11-29", "original_language": "en", "original_title": "In the Name of the King: A Dungeon Siege Tale", "genre_ids": [28, 12, 18, 14], "backdrop_path": "/u14b6vdFieOm9OXGa49c7n5gmQS.jpg", "adult": false, "overview": "A man named Farmer sets out to rescue his kidnapped wife and avenge the death of his son -- two acts committed by the Krugs, a race of animal-warriors who are controlled by the evil Gallian.", "poster_path": "/bbN1lmDk1PT0GsTFCy179sk5nIF.jpg", "popularity": 13.396}, {"adult": false, "backdrop_path": "/eMwWyxQMQQrlossNpZV38UliO95.jpg", "genre_ids": [12, 16, 35, 10751, 14], "id": 5393, "original_language": "en", "original_title": "Happily N'Ever After", "overview": "An alliance of evil-doers, led by Frieda, looks to take over Fairy Tale Land. But when Ella realizes her stepmother is out to ruin her storybook existence, she takes a dramatic turn and blossoms into the leader of the resistance effort.", "poster_path": "/pk80r0negE6P0zlBiuaeIESttXX.jpg", "release_date": "2006-09-14", "title": "Happily N'Ever After", "video": false, "vote_average": 4.8, "vote_count": 262, "popularity": 15.524}, {"adult": false, "backdrop_path": "/ncERp0UvXuImUeJcf27kEANcf1r.jpg", "genre_ids": [35, 10751, 10749], "id": 9880, "original_language": "en", "original_title": "The Princess Diaries", "overview": "A socially awkward but very bright 15-year-old girl being raised by a single mom discovers that she is the princess of a small European country because of the recent death of her long-absent father, who, unknown to her, was the crown prince of Genovia. She must make a choice between continuing the life of a San Francisco teen or stepping up to the throne.", "poster_path": "/sxpvHk286sXLJWcFrBMNIsXbYsd.jpg", "release_date": "2001-08-03", "title": "The Princess Diaries", "video": false, "vote_average": 6.8, "vote_count": 2861, "popularity": 32.167}, {"id": 22586, "video": false, "vote_count": 585, "vote_average": 6.6, "title": "The Swan Princess", "release_date": "1994-11-18", "original_language": "en", "original_title": "The Swan Princess", "genre_ids": [12, 16, 35, 14, 10751], "backdrop_path": "/hP9dsGy8FR7eeTqzpOpP3tl3wFD.jpg", "adult": false, "overview": "The beautiful princess Odette is transformed into a swan by an evil sorcerer's spell. Held captive at an enchanted lake, she befriends Jean-Bob the frog, Speed the turtle and Puffin the bird. Despite their struggle to keep the princess safe, these good-natured creatures can do nothing about the sorcerer's spell, which can only be broken by a vow of everlasting love.", "poster_path": "/f5YvIPrkJ9HCsNbgzWJJyxXVNhj.jpg", "popularity": 15.234}, {"id": 354279, "video": false, "vote_count": 86, "vote_average": 6.3, "title": "Charming", "release_date": "2018-04-20", "original_language": "en", "original_title": "Charming", "genre_ids": [16, 35, 10402, 10751], "backdrop_path": "/rTefIDfreT1kcjuld8K1wgI3ifp.jpg", "adult": false, "overview": "Three fairy tale princesses find themselves engaged to the same guy, Prince Charming.", "poster_path": "/xizxQjNw7gbstkU9YIi2NaZIXW3.jpg", "popularity": 15.935}, {"id": 10020, "video": false, "vote_count": 6337, "vote_average": 7.7, "title": "Beauty and the Beast", "release_date": "1991-11-13", "original_language": "en", "original_title": "Beauty and the Beast", "genre_ids": [16, 14, 10749, 10751], "backdrop_path": "/4BE0Fb95KY6yoy5a7QWmvNtYes4.jpg", "adult": false, "overview": "Follow the adventures of Belle, a bright young woman who finds herself in the castle of a prince who's been turned into a mysterious beast. With the help of the castle's enchanted staff, Belle soon learns the most important lesson of all -- that true beauty comes from within.", "poster_path": "/b9QJr2oblOu1grgOMUZF1xkUJdh.jpg", "popularity": 35.63}, {"id": 808, "video": false, "vote_count": 9699, "vote_average": 7.6, "title": "Shrek", "release_date": "2001-05-16", "original_language": "en", "original_title": "Shrek", "genre_ids": [12, 16, 35, 14, 10751], "backdrop_path": "/2l5UHZBcp9cx1PwKLdisJ0gV9jB.jpg", "adult": false, "overview": "It ain't easy bein' green -- especially if you're a likable (albeit smelly) ogre named Shrek. On a mission to retrieve a gorgeous princess from the clutches of a fire-breathing dragon, Shrek teams up with an unlikely compatriot -- a wisecracking donkey.", "poster_path": "/140ewbWv8qHStD3mlBDvvGd0Zvu.jpg", "popularity": 31.216}, {"id": 11688, "video": false, "vote_count": 3809, "vote_average": 7.5, "title": "The Emperor's New Groove", "release_date": "2000-12-09", "original_language": "en", "original_title": "The Emperor's New Groove", "genre_ids": [12, 16, 35, 14, 10751], "backdrop_path": "/wWzZUuvl17RU7rlPwTsG5y1wgxi.jpg", "adult": false, "overview": "Kuzco is a self-centered emperor who summons Pacha from a village and to tell him that his home will be destroyed to make room for Kuzco's new summer home. Kuzco's advisor, Yzma, tries to poison Kuzco and accidentally turns him into a llama, who accidentally ends up in Pacha's village. Pacha offers to help Kuzco if he doesn't destroy his house, and so they form an unlikely partnership.", "poster_path": "/6c4dzX5Io2i9tP30ZRnrhwjsYt7.jpg", "popularity": 24.441}, {"id": 10196, "video": false, "vote_count": 2380, "vote_average": 4.6, "title": "The Last Airbender", "release_date": "2010-06-30", "original_language": "en", "original_title": "The Last Airbender", "genre_ids": [28, 12, 14, 10751], "backdrop_path": "/hzPK7B5iyQTAfG7X92uKpAwLGZC.jpg", "adult": false, "overview": "The story follows the adventures of Aang, a young successor to a long line of Avatars, who must put his childhood ways aside and stop the Fire Nation from enslaving the Water, Earth and Air nations.", "poster_path": "/zgwRTYWEEPivTwjB9S03HtmMcbM.jpg", "popularity": 19.814}], "total_pages": 28, "total_results": 544}, "recommendations": {"page": 1, "results": [], "total_pages": 1, "total_results": 0}, "credits": {"cast": [{"cast_id": 2, "character": "Marie Vetsera", "credit_id": "52fe4667c3a36847f80fd2d9", "gender": 2, "id": 29519, "name": "Charles Boyer", "order": 0, "profile_path": "/5xjnsNi2vr31yyPyum77aPCuCTE.jpg"}, {"cast_id": 3, "character": "Marie Vetsera", "credit_id": "52fe4667c3a36847f80fd2dd", "gender": 1, "id": 236016, "name": "Danielle Darrieux", "order": 1, "profile_path": "/4o6Wjfx4ahEr1ldLLZ0aEF3OTkP.jpg"}, {"cast_id": 4, "character": "L'empereur Fran\u00e7ois-Joseph", "credit_id": "52fe4667c3a36847f80fd2e1", "gender": 0, "id": 1009395, "name": "Jean Dax", "order": 2, "profile_path": null}, {"cast_id": 5, "character": "L'archiduchesse St\u00e9phanie", "credit_id": "52fe4667c3a36847f80fd2e5", "gender": 0, "id": 223228, "name": "Yolande Laffon", "order": 3, "profile_path": null}, {"cast_id": 6, "character": "La comtesse Larisch", "credit_id": "52fe4667c3a36847f80fd2e9", "gender": 1, "id": 213448, "name": "Suzy Prim", "order": 4, "profile_path": "/cjx8lP22vslwIIBTR07cWeE6HVr.jpg"}, {"cast_id": 11, "character": "Marinka", "credit_id": "56f02ba592514118350003e5", "gender": 1, "id": 143357, "name": "Gina Man\u00e8s", "order": 5, "profile_path": "/eyYR2pEkdgb1zjYhmSHcherpQOb.jpg"}], "crew": [{"credit_id": "5719418492514176e9000016", "department": "Camera", "gender": 2, "id": 2579, "job": "Director of Photography", "name": "Armand Thirard", "profile_path": null}, {"credit_id": "5719418d925141772900001b", "department": "Editing", "gender": 0, "id": 2582, "job": "Editor", "name": "Henri Rust", "profile_path": null}, {"credit_id": "56f02b7092514118410003d7", "department": "Writing", "gender": 2, "id": 9748, "job": "Dialogue", "name": "Joseph Kessel", "profile_path": "/gd8AkNHCfdzxcaajpSksX8onI2l.jpg"}, {"credit_id": "571941ffc3a3686cb70055c3", "department": "Sound", "gender": 0, "id": 12265, "job": "Sound", "name": "William Robert Sivel", "profile_path": null}, {"credit_id": "5719414992514176a4000018", "department": "Production", "gender": 2, "id": 13902, "job": "Producer", "name": "Seymour Nebenzal", "profile_path": null}, {"credit_id": "571941aec3a3687c2c00530f", "department": "Art", "gender": 0, "id": 13903, "job": "Art Direction", "name": "Andrej Andrejew", "profile_path": null}, {"credit_id": "56f02b8892514118350003df", "department": "Writing", "gender": 2, "id": 17842, "job": "Screenplay", "name": "Marcel Achard", "profile_path": null}, {"credit_id": "57194159c3a3680160004eb3", "department": "Sound", "gender": 2, "id": 29725, "job": "Original Music Composer", "name": "Arthur Honegger", "profile_path": null}, {"credit_id": "52fe4667c3a36847f80fd2d5", "department": "Directing", "gender": 2, "id": 37361, "job": "Director", "name": "Anatole Litvak", "profile_path": "/pgd4ixBODEMwwzyf705Ki7sOOlG.jpg"}, {"credit_id": "57194175925141769f000015", "department": "Camera", "gender": 2, "id": 33418, "job": "Director of Photography", "name": "Jean Isnard", "profile_path": null}, {"credit_id": "571941e0c3a3687bc70045f5", "department": "Production", "gender": 2, "id": 41837, "job": "Production Supervisor", "name": "Ralph Baum", "profile_path": null}, {"credit_id": "5719416c92514176e600000e", "department": "Sound", "gender": 2, "id": 120123, "job": "Original Music Composer", "name": "Hans May", "profile_path": null}, {"credit_id": "56f02b7fc3a368717d0003ed", "department": "Writing", "gender": 1, "id": 234675, "job": "Adaptation", "name": "Irma von Cube", "profile_path": null}, {"credit_id": "56f02b61925141183a0003c6", "department": "Writing", "gender": 0, "id": 1097776, "job": "Novel", "name": "Claude Anet", "profile_path": null}, {"credit_id": "571941b792514176e9000020", "department": "Art", "gender": 0, "id": 1299401, "job": "Art Direction", "name": "Robert Hubert", "profile_path": null}, {"credit_id": "5719419a925141771000001e", "department": "Art", "gender": 0, "id": 1299402, "job": "Production Design", "name": "Serge Pim\u00e9noff", "profile_path": null}, {"credit_id": "571941d7c3a3687c2c005313", "department": "Directing", "gender": 0, "id": 1457298, "job": "Assistant Director", "name": "Ren\u00e9 Montis", "profile_path": null}, {"credit_id": "571941cec3a3680160004ec2", "department": "Costume & Make-Up", "gender": 0, "id": 1523497, "job": "Costume Design", "name": "Georges Annenkov", "profile_path": null}, {"credit_id": "571941edc3a3687bc70045f9", "department": "Production", "gender": 0, "id": 1608864, "job": "Production Manager", "name": "Wilhelm L\u00f6wenberg", "profile_path": null}, {"credit_id": "571941f5c3a3686cb70055bd", "department": "Production", "gender": 0, "id": 1608865, "job": "Production Supervisor", "name": "Gr\u00e9goire Metchikian", "profile_path": null}]}}