{"adult": false, "backdrop_path": "/4dLh4xczwqFwyjcR8O6LRm9ABUU.jpg", "belongs_to_collection": null, "budget": 0, "genres": [{"id": 18, "name": "Drama"}], "homepage": null, "id": 44006, "imdb_id": "tt0059555", "original_language": "en", "original_title": "Othello", "overview": "The 1965 version of the Shakespeare play.", "popularity": 6.576, "poster_path": "/1sPhQv9j9ac7Zz8TaR4aZO9no2h.jpg", "production_companies": [{"id": 2008, "logo_path": null, "name": "BHE Films", "origin_country": ""}, {"id": 16355, "logo_path": null, "name": "National Theatre of Great Britain Production", "origin_country": ""}, {"id": 174, "logo_path": "/IuAlhI9eVC9Z8UQWOIDdWRKSEJ.png", "name": "Warner Bros. Pictures", "origin_country": "US"}], "production_countries": [{"iso_3166_1": "GB", "name": "United Kingdom"}], "release_date": "1965-12-15", "revenue": 0, "runtime": 165, "spoken_languages": [{"iso_639_1": "en", "name": "English"}], "status": "Released", "tagline": "The greatest Othello ever by the greatest actor of our time", "title": "Othello", "video": false, "vote_average": 6.2, "vote_count": 12, "keywords": {"keywords": [{"id": 497, "name": "william shakespeare"}, {"id": 9673, "name": "love"}, {"id": 10614, "name": "tragedy"}, {"id": 17982, "name": "moor"}, {"id": 193536, "name": "cyprus"}]}, "similar": {"page": 1, "results": [{"id": 12531, "video": false, "vote_count": 91, "vote_average": 6.9, "title": "The Apartment", "release_date": "1996-07-27", "original_language": "fr", "original_title": "L'Appartement", "genre_ids": [18, 9648, 10749], "backdrop_path": "/64qyT8m4JQ6YODvXxtbHgKmXBX7.jpg", "adult": false, "overview": "A stylish suspense thriller that confounds the audience while presenting them with an extraordinary and elusive mystery. Max is a former playboy who has decided to settle down by marrying his current love, Muriel. However, during a business trip, Max catches a glimpse of the great lost love of his life, reviving his wanderlust and sending him off on a chase of the elusive Lisa, whom he had overheard suggesting to a friend that her lover, Daniel, had killed someone for her. Soon, Max is trying to unravel the mystery behind the suspicious death of Daniel's wife, which he hopes will lead him closer to Lisa.", "poster_path": "/1sqrQdQTn8jKLhUcPKfRVj639zA.jpg", "popularity": 21.259}, {"id": 521, "video": false, "vote_count": 1257, "vote_average": 8.0, "title": "Dial M for Murder", "release_date": "1954-05-29", "original_language": "en", "original_title": "Dial M for Murder", "genre_ids": [80, 18, 9648, 53], "backdrop_path": "/jVMlfESb0TJ29w8CUDDofEprMmn.jpg", "adult": false, "overview": "An ex-tennis pro carries out a plot to have his wife murdered after discovering she is having an affair, and assumes she will soon leave him for the other man anyway. When things go wrong, he improvises a new plan\u2014to frame her for murder instead.", "poster_path": "/xrpK1PyckNWmRxU4kZURfaCyboS.jpg", "popularity": 34.566}, {"id": 45772, "video": false, "vote_count": 1217, "vote_average": 5.8, "title": "Gnomeo & Juliet", "release_date": "2011-01-13", "original_language": "en", "original_title": "Gnomeo & Juliet", "genre_ids": [16, 10751], "backdrop_path": "/5VDfdJBofpvXAMtaHTT8YFE0lru.jpg", "adult": false, "overview": "A version of Shakespeare's play, set in the world of warring indoor and outdoor gnomes. Garden gnomes Gnomeo and Juliet have as many obstacles to overcome as their quasi namesakes when they are caught up in a feud between neighbors. But with plastic pink flamingos and lawnmower races in the mix, can this young couple find lasting happiness?", "poster_path": "/atCBHTqq7khw5Z1KSVXDo6ncKWF.jpg", "popularity": 28.225}, {"adult": false, "backdrop_path": "/rGWzox5V7dv6KE1gYlZAZ2sUvKJ.jpg", "genre_ids": [18, 10749], "id": 16642, "original_language": "en", "original_title": "Days of Heaven", "overview": "In 1910, a Chicago steel worker accidentally kills his supervisor and flees to the Texas panhandle with his girlfriend and little sister to work harvesting wheat in the fields of a stoic farmer. A love triangle, a swarm of locusts, a hellish fire\u2014Malick captures it all with dreamlike authenticity, creating at once a timeless American idyll and a gritty evocation of turn-of-the-century labor.", "poster_path": "/rjw7tQbiBnbIeufyEt02oVickDM.jpg", "release_date": "1978-09-13", "title": "Days of Heaven", "video": false, "vote_average": 7.6, "vote_count": 459, "popularity": 10.835}, {"id": 50546, "video": false, "vote_count": 3333, "vote_average": 6.5, "title": "Just Go with It", "release_date": "2011-02-10", "original_language": "en", "original_title": "Just Go with It", "genre_ids": [35, 10749], "backdrop_path": "/7pa08RTp610h72pZnqqgkmsB76l.jpg", "adult": false, "overview": "A plastic surgeon, romancing a much younger schoolteacher, enlists his loyal assistant to pretend to be his soon to be ex-wife, in order to cover up a careless lie. When more lies backfire, the assistant's kids become involved, and everyone heads off for a weekend in Hawaii that will change all their lives.", "poster_path": "/4sJDqzBaqBprkEy0aLjIGl7TrHx.jpg", "popularity": 20.158}, {"id": 46705, "video": false, "vote_count": 1862, "vote_average": 6.9, "title": "Blue Valentine", "release_date": "2010-12-16", "original_language": "en", "original_title": "Blue Valentine", "genre_ids": [18, 10749], "backdrop_path": "/4FLZTeVWrp14vm5wMlSJzEghDrd.jpg", "adult": false, "overview": "Dean and Cindy live a quiet life in a modest neighborhood. They appear to have the world at their feet at the outset of the relationship. However, his lack of ambition and her retreat into self-absorption cause potentially irreversible cracks in their marriage.", "poster_path": "/r8l15gDSQMupjKXEyXkOMkRpcsn.jpg", "popularity": 10.985}, {"id": 38, "video": false, "vote_count": 8439, "vote_average": 8.1, "title": "Eternal Sunshine of the Spotless Mind", "release_date": "2004-03-19", "original_language": "en", "original_title": "Eternal Sunshine of the Spotless Mind", "genre_ids": [18, 878, 10749], "backdrop_path": "/1dXTsaFxHoF9cas08UjAqE8NqOW.jpg", "adult": false, "overview": "Joel Barish, heartbroken that his girlfriend underwent a procedure to erase him from her memory, decides to do the same. However, as he watches his memories of her fade away, he realises that he still loves her, and may be too late to correct his mistake.", "poster_path": "/7y3eYvTsGjxPYDtSnumCLIMDkrV.jpg", "popularity": 22.167}, {"id": 1417, "video": false, "vote_count": 6619, "vote_average": 7.7, "title": "Pan's Labyrinth", "release_date": "2006-08-25", "original_language": "es", "original_title": "El laberinto del fauno", "genre_ids": [18, 14, 10752], "backdrop_path": "/4XP5kp70Pw01qpD6Gr0PQwy43Mr.jpg", "adult": false, "overview": "Living with her tyrannical stepfather in a new home with her pregnant mother, 10-year-old Ofelia feels alone until she explores a decaying labyrinth guarded by a mysterious faun who claims to know her destiny. If she wishes to return to her real father, Ofelia must complete three terrifying tasks.", "poster_path": "/t0TDsqbCTgSi0AL7k4baZrOYYhi.jpg", "popularity": 22.501}, {"id": 27022, "video": false, "vote_count": 3218, "vote_average": 6.0, "title": "The Sorcerer's Apprentice", "release_date": "2010-07-13", "original_language": "en", "original_title": "The Sorcerer's Apprentice", "genre_ids": [28, 12, 35, 18, 14], "backdrop_path": "/v0o9M1us65w1kDQp8Q6KnB5a11s.jpg", "adult": false, "overview": "Balthazar Blake is a master sorcerer in modern-day Manhattan trying to defend the city from his arch-nemesis, Maxim Horvath. Balthazar can't do it alone, so he recruits Dave Stutler, a seemingly average guy who demonstrates hidden potential, as his reluctant prot\u00e9g\u00e9. The sorcerer gives his unwilling accomplice a crash course in the art and science of magic, and together, these unlikely partners work to stop the forces of darkness.", "poster_path": "/ZNSrRpdJ6FjMy4Iu6JpRTJ5Q87.jpg", "popularity": 20.949}, {"adult": false, "backdrop_path": "/xC9cG6Wy6QbH2hoAx11xPPD995R.jpg", "genre_ids": [18, 10749], "id": 86331, "original_language": "fr", "original_title": "Q", "overview": "In a social context deteriorated by a countrywide economic crisis, the life of several people will be turned upside down after they meet Cecile, a character who symbolizes desire.", "poster_path": "/9Jg9s4yTEndNmy1SSXRF9jdxY9D.jpg", "release_date": "2011-09-14", "title": "Desire", "video": false, "vote_average": 4.7, "vote_count": 204, "popularity": 30.344}, {"id": 537915, "video": false, "vote_count": 2376, "vote_average": 6.0, "title": "After", "release_date": "2019-04-11", "original_language": "en", "original_title": "After", "genre_ids": [18, 10749], "backdrop_path": "/997ToEZvF2Obp9zNZbY5ELVnmrW.jpg", "adult": false, "overview": "Tessa Young is a dedicated student, dutiful daughter and loyal girlfriend to her high school sweetheart. Entering her first semester of college, Tessa's guarded world opens up when she meets Hardin Scott, a mysterious and brooding rebel who makes her question all she thought she knew about herself -- and what she wants out of life.", "poster_path": "/u3B2YKUjWABcxXZ6Nm9h10hLUbh.jpg", "popularity": 28.116}, {"id": 293863, "video": false, "vote_count": 4193, "vote_average": 7.4, "title": "The Age of Adaline", "release_date": "2015-04-16", "original_language": "en", "original_title": "The Age of Adaline", "genre_ids": [18, 14, 10749], "backdrop_path": "/dgOosqHUPTrs9hDijYTnBNHYYib.jpg", "adult": false, "overview": "After 29-year-old Adaline recovers from a nearly lethal accident, she inexplicably stops growing older. As the years stretch on and on, Adaline keeps her secret to herself  until she meets a man who changes her life.", "poster_path": "/gEDGROZ4NQDlRjUPPSSyIf0hKvD.jpg", "popularity": 14.551}, {"adult": false, "backdrop_path": "/bQW1TnxHlmkWof0vsALj4HBkoxj.jpg", "genre_ids": [18, 10749], "id": 51828, "original_language": "en", "original_title": "One Day", "overview": "A romantic comedy centered on Dexter and Emma, who first meet during their graduation in 1988 and proceed to keep in touch regularly. The film follows what they do on July 15 annually, usually doing something together.", "poster_path": "/xzOz17yC3K6SZWtWylXimcHUqpD.jpg", "release_date": "2011-03-02", "title": "One Day", "video": false, "vote_average": 7.2, "vote_count": 2342, "popularity": 15.269}, {"adult": false, "backdrop_path": "/oT79THuFrcBzrhlf4fiCddwZBCQ.jpg", "genre_ids": [18, 10402, 10749], "id": 69, "original_language": "en", "original_title": "Walk the Line", "overview": "A chronicle of country music legend Johnny Cash's life, from his early days on an Arkansas cotton farm to his rise to fame with Sun Records in Memphis, where he recorded alongside Elvis Presley, Jerry Lee Lewis and Carl Perkins.", "poster_path": "/wdxL3Zyh3O5MIbmsSiZEevJAjtQ.jpg", "release_date": "2005-09-13", "title": "Walk the Line", "video": false, "vote_average": 7.5, "vote_count": 1544, "popularity": 18.235}, {"id": 4552, "video": false, "vote_count": 496, "vote_average": 7.1, "title": "A Tale of Two Sisters", "release_date": "2003-06-13", "original_language": "ko", "original_title": "\uc7a5\ud654, \ud64d\ub828", "genre_ids": [18, 27, 9648], "backdrop_path": "/6iTvLcCrokveCoVynUobXm8n3uw.jpg", "adult": false, "overview": "A recently released patient from a mental institution returns home with her sister, only to face disturbing events between her stepmother and the ghosts haunting their house- all of which are connected to a dark past in the family's history.", "poster_path": "/8fmnXoIw3e3J7YSr8bzcPica4Dk.jpg", "popularity": 21.191}, {"id": 70, "video": false, "vote_count": 5412, "vote_average": 7.9, "title": "Million Dollar Baby", "release_date": "2004-12-15", "original_language": "en", "original_title": "Million Dollar Baby", "genre_ids": [18], "backdrop_path": "/7nGW4MhYQ7sJfp482XkrgqPYQ2S.jpg", "adult": false, "overview": "Despondent over a painful estrangement from his daughter, trainer Frankie Dunn isn't prepared for boxer Maggie Fitzgerald to enter his life. But Maggie's determined to go pro and to convince Dunn and his cohort to help her.", "poster_path": "/h4VZKi2Jt4VoBYJmtC4c3bO8KqM.jpg", "popularity": 22.587}, {"id": 369885, "video": false, "vote_count": 3048, "vote_average": 6.7, "title": "Allied", "release_date": "2016-11-17", "original_language": "en", "original_title": "Allied", "genre_ids": [28, 18, 53, 10749, 10752], "backdrop_path": "/tC0tVH5KQhCwMlddnyA3iWOSuBA.jpg", "adult": false, "overview": "In 1942, an intelligence officer in North Africa encounters a female French Resistance fighter on a deadly mission behind enemy lines. When they reunite in London, their relationship is tested by the pressures of war.", "poster_path": "/nzXzLFTnd0Zb3ExfhOxlQgizgSu.jpg", "popularity": 32.359}, {"id": 45269, "video": false, "vote_count": 5554, "vote_average": 7.7, "title": "The King's Speech", "release_date": "2010-09-06", "original_language": "en", "original_title": "The King's Speech", "genre_ids": [18, 36], "backdrop_path": "/pJnU0JArW4aLcOoS9u2vQHDGJpK.jpg", "adult": false, "overview": "The King's Speech tells the story of the man who became King George VI, the father of Queen Elizabeth II. After his brother abdicates, George ('Bertie') reluctantly assumes the throne. Plagued by a dreaded stutter and considered unfit to be king, Bertie engages the help of an unorthodox speech therapist named Lionel Logue. Through a set of unexpected techniques, and as a result of an unlikely friendship, Bertie is able to find his voice and boldly lead the country into war.", "poster_path": "/nkFTbA1XjKWo9LCTaV1hV2Lsgr1.jpg", "popularity": 20.648}, {"id": 167073, "video": false, "vote_count": 2097, "vote_average": 7.3, "title": "Brooklyn", "release_date": "2015-10-20", "original_language": "en", "original_title": "Brooklyn", "genre_ids": [18, 10749], "backdrop_path": "/7fXKVIM8UQBvQ9aQOzFqThlq7eN.jpg", "adult": false, "overview": "In 1950s Ireland and New York, young Eilis Lacey has to choose between two men and two countries.", "poster_path": "/dRpkyrSDrEMFRZDeFJG4EupqUfR.jpg", "popularity": 13.039}, {"id": 307081, "video": false, "vote_count": 3699, "vote_average": 7.4, "title": "Southpaw", "release_date": "2015-03-24", "original_language": "en", "original_title": "Southpaw", "genre_ids": [28, 18], "backdrop_path": "/tTt1cdEEkKMJ1R4VBTe5vbE3bWO.jpg", "adult": false, "overview": "Billy \"The Great\" Hope, the reigning junior middleweight boxing champion, has an impressive career, a loving wife and daughter, and a lavish lifestyle. However, when tragedy strikes, Billy hits rock bottom, losing his family, his house and his manager. He soon finds an unlikely savior in Tick Willis, a former fighter who trains the city's toughest amateur boxers. With his future on the line, Hope fights to reclaim the trust of those he loves the most.", "poster_path": "/50d0XQQETSyg3bwBXhC7K33pKgc.jpg", "popularity": 24.057}], "total_pages": 131, "total_results": 2601}, "recommendations": {"page": 1, "results": [{"adult": false, "backdrop_path": "/tM6r9d9OWQml1hcFbrZjtGmlWux.jpg", "genre_ids": [35, 18], "id": 37855, "original_language": "fr", "original_title": "La vie sur terre", "overview": "La Vie Sur Terre (Life on Earth) is a 1998 Malian comedy/drama film written and directed by, and starring Abderrahmane Sissako. It is set in the village of Sokolo and depicts rural life on the eve of the 21st century. Runtime is 61 minutes.The film earned Sissako awards at the Fribourg International Film Festival, the Ouagadougou Panafrican Film and Television Festival and the San Francisco International Film Festival.", "poster_path": "/rCreZHJtJPTY8zAWW1rsZG8RWo0.jpg", "release_date": "1998-07-01", "title": "Life on Earth", "video": false, "vote_average": 5.3, "vote_count": 6, "popularity": 1.378}, {"id": 43004, "video": false, "vote_count": 22, "vote_average": 6.8, "title": "Long Day's Journey Into Night", "release_date": "1962-10-09", "original_language": "en", "original_title": "Long Day's Journey Into Night", "genre_ids": [18, 36], "backdrop_path": "/bQzj8DnIghVqUSe5EsH4uTV3jQb.jpg", "adult": false, "overview": "The film follows one day in the lives of the Tyrone family, each member is troubled and has been damaged by alcohol and/or drugs. In addition, they have issues with each other that lead to fights and an inability to reconcile completely with one another.", "poster_path": "/v0LN26HmrCEgZiDGpO3xJGkb9OK.jpg", "popularity": 4.651}], "total_pages": 1, "total_results": 2}, "credits": {"cast": [{"cast_id": 2, "character": "Othello", "credit_id": "52fe4671c3a36847f80ff479", "gender": 2, "id": 3359, "name": "Laurence Olivier", "order": 0, "profile_path": "/n8jDSq91O95HSbtCJLRsM367kKx.jpg"}, {"cast_id": 6, "character": "Iago", "credit_id": "52fe4671c3a36847f80ff48b", "gender": 2, "id": 6637, "name": "Frank Finlay", "order": 1, "profile_path": "/fz3sIozTo0L1eCKlwHdoe92dcXk.jpg"}, {"cast_id": 3, "character": "Desdemona", "credit_id": "52fe4671c3a36847f80ff47d", "gender": 1, "id": 10978, "name": "Maggie Smith", "order": 2, "profile_path": "/8OtS7JhL12Qa8QzSuZZAzNRbFnu.jpg"}, {"cast_id": 7, "character": "Cassio", "credit_id": "52fe4671c3a36847f80ff48f", "gender": 2, "id": 937, "name": "Derek Jacobi", "order": 3, "profile_path": "/6wJPzrqq4GPO7jBLVEM293LUWU1.jpg"}, {"cast_id": 5, "character": "Emilia", "credit_id": "52fe4671c3a36847f80ff487", "gender": 1, "id": 37441, "name": "Joyce Redman", "order": 4, "profile_path": "/gKumJX8bi6X5pYT21BS52oAVWaX.jpg"}, {"cast_id": 14, "character": "Roderigo", "credit_id": "5dd33c0157d3780015dcdb5f", "gender": 2, "id": 135180, "name": "Robert Lang", "order": 5, "profile_path": "/5SrAyoTZ78f9eeW8xRAzTmjHsFu.jpg"}, {"cast_id": 9, "character": "Brabantio", "credit_id": "5dd33b72b39e3500188bb71c", "gender": 2, "id": 25643, "name": "Anthony Nicholls", "order": 6, "profile_path": "/xf6jPF6HeYW7qZCW2OAVqermnr7.jpg"}, {"cast_id": 10, "character": "Lodovico", "credit_id": "5dd33b9657d3780013dc6b84", "gender": 0, "id": 1499686, "name": "Kenneth MacKintosh", "order": 7, "profile_path": null}, {"cast_id": 11, "character": "Montano", "credit_id": "5dd33bbcb39e3500188bb827", "gender": 2, "id": 3545, "name": "Edward Hardwicke", "order": 8, "profile_path": "/hR8LE66ObEsHKeFk20sHXCRjnca.jpg"}, {"cast_id": 12, "character": "Bianca", "credit_id": "5dd33bc8fd6fa100128242b8", "gender": 1, "id": 47404, "name": "Sheila Reid", "order": 9, "profile_path": "/36OEL4KtXLkEjGq5TsSUQ58KH6y.jpg"}, {"cast_id": 13, "character": "", "credit_id": "5dd33bdfb39e3500188bb876", "gender": 2, "id": 5658, "name": "Michael Gambon", "order": 10, "profile_path": "/rcjsXZ6PUKlBbrFNv8itMWLzgXx.jpg"}], "crew": [{"credit_id": "52fe4671c3a36847f80ff483", "department": "Writing", "gender": 2, "id": 6210, "job": "Theatre Play", "name": "William Shakespeare", "profile_path": "/2z4njqosEQM4g26ttb9grG9rJUg.jpg"}, {"credit_id": "52fe4671c3a36847f80ff475", "department": "Directing", "gender": 2, "id": 130023, "job": "Director", "name": "Stuart Burge", "profile_path": "/iZdegz0vu3EyXQAtxWHQF8KVUL8.jpg"}, {"credit_id": "5c3abe4b0e0a26442702412d", "department": "Sound", "gender": 0, "id": 2212841, "job": "Boom Operator", "name": "Tom Buchanan", "profile_path": null}]}}