{"adult": false, "backdrop_path": "/atluQu1fi72Bsr3OOkQpxvWK1rK.jpg", "belongs_to_collection": null, "budget": 1669597, "genres": [{"id": 18, "name": "Drama"}], "homepage": "http://katapultfilm.hu/film.php?id_film=14", "id": 440342, "imdb_id": "tt5815492", "original_language": "hu", "original_title": "1945", "overview": "An unsettling feeling overwhelms a small Hungarian town when two orthodox Jews arrive with a mysterious trunk. As residents begin to speculate on the purpose of the visit of these two strangers, order starts to crumble in town with some pursuing devious plans and others finding remorse in their hearts.", "popularity": 4.434, "poster_path": "/31sxtOLEsuN2m2OWGti3uEYc6rz.jpg", "production_companies": [{"id": 19117, "logo_path": null, "name": "Katapult Film", "origin_country": "HU"}], "production_countries": [{"iso_3166_1": "HU", "name": "Hungary"}], "release_date": "2017-04-20", "revenue": 0, "runtime": 91, "spoken_languages": [{"iso_639_1": "ru", "name": "P\u0443\u0441\u0441\u043a\u0438\u0439"}, {"iso_639_1": "hu", "name": "Magyar"}], "status": "Released", "tagline": "One Day for Justice", "title": "1945", "video": false, "vote_average": 7.3, "vote_count": 25, "keywords": {"keywords": [{"id": 236, "name": "suicide"}, {"id": 657, "name": "fire"}, {"id": 1227, "name": "cemetery"}, {"id": 1244, "name": "hungary"}, {"id": 1739, "name": "holocaust (shoah)"}, {"id": 2606, "name": "jew / jewish"}, {"id": 2673, "name": "horse"}, {"id": 6038, "name": "marriage"}, {"id": 12999, "name": "black and white"}, {"id": 13008, "name": "train"}, {"id": 14765, "name": "church"}, {"id": 33720, "name": "guilt"}, {"id": 160224, "name": "post world war ii"}, {"id": 163190, "name": "box"}, {"id": 207883, "name": "1940s"}]}, "similar": {"page": 1, "results": [{"id": 424, "video": false, "vote_count": 8988, "vote_average": 8.6, "title": "Schindler's List", "release_date": "1993-11-30", "original_language": "en", "original_title": "Schindler's List", "genre_ids": [18, 36, 10752], "backdrop_path": "/cTNYRUTXkBgPH3wP3kmPUB5U6dA.jpg", "adult": false, "overview": "The true story of how businessman Oskar Schindler saved over a thousand Jewish lives from the Nazis while they worked as slaves in his factory during World War II.", "poster_path": "/yPisjyLweCl1tbgwgtzBCNCBle.jpg", "popularity": 25.457}, {"id": 223485, "video": false, "vote_count": 586, "vote_average": 6.6, "title": "Slow West", "release_date": "2015-04-16", "original_language": "en", "original_title": "Slow West", "genre_ids": [28, 18, 53, 37, 10749], "backdrop_path": "/9qF6lhj6X0ImH4iWGZs1uspXJI0.jpg", "adult": false, "overview": "In the Old West, a 17-year-old Scottish boy teams up with a mysterious gunman to find the woman with whom he is infatuated.", "poster_path": "/uZ9dBBn0GaEw0YIBvQd01Io3pho.jpg", "popularity": 10.467}, {"adult": false, "backdrop_path": "/9alS7FBSf8rvDLskpCRuKqAI2h5.jpg", "genre_ids": [18, 36], "id": 746, "original_language": "en", "original_title": "The Last Emperor", "overview": "A dramatic history of Pu Yi, the last of the Emperors of China, from his lofty birth and brief reign in the Forbidden City, the object of worship by half a billion people; through his abdication, his decline and dissolute lifestyle; his exploitation by the invading Japanese, and finally to his obscure existence as just another peasant worker in the People's Republic.", "poster_path": "/KTirnfG6FZLKWbm8Am3EEKmZDx.jpg", "release_date": "1987-10-21", "title": "The Last Emperor", "video": false, "vote_average": 7.6, "vote_count": 774, "popularity": 13.039}, {"adult": false, "backdrop_path": "/gxl0eDEu2IJkubxu6UL0UN7ieYb.jpg", "genre_ids": [28, 18, 9648, 53], "id": 9268, "original_language": "en", "original_title": "Eraser", "overview": "U.S. Marshall John Kruger erases the identities of people enrolled in the Witness Protection Program. His current assignment is to protect Lee Cullen, who's uncovered evidence that the weapons manufacturer she works for has been selling to terrorist groups. When Kruger discovers that there's a corrupt agent within the program, he must guard his own life while trying to protect Lee's.", "poster_path": "/bmOG5k07nrnS8T49NVPM1LnrOf1.jpg", "release_date": "1996-06-21", "title": "Eraser", "video": false, "vote_average": 5.9, "vote_count": 991, "popularity": 20.546}, {"adult": false, "backdrop_path": "/tk6QB32plylH41eo2Pbv4sIVljO.jpg", "genre_ids": [18], "id": 50270, "original_language": "it", "original_title": "Paprika", "overview": "A young country girl comes to town and works in a brothel in order to help her fiance get the money to start his own business. \"Paprika\" is the name given to her by the madam.", "poster_path": "/6QthFTJvUheocw3fcKklnsMcGib.jpg", "release_date": "1991-02-13", "title": "Paprika", "video": false, "vote_average": 5.9, "vote_count": 81, "popularity": 19.933}, {"id": 407448, "video": false, "vote_count": 916, "vote_average": 7.3, "title": "Detroit", "release_date": "2017-07-28", "original_language": "en", "original_title": "Detroit", "genre_ids": [80, 18, 36, 53], "backdrop_path": "/zpkWkIXEwSErbIgOlh1NkwQ6Pyj.jpg", "adult": false, "overview": "A police raid in Detroit in 1967 results in one of the largest citizens' uprisings in the history of the United States.", "poster_path": "/7APLVpsGzXPJw16ZuBtXICxq8B9.jpg", "popularity": 12.312}, {"id": 2576, "video": false, "vote_count": 158, "vote_average": 7.2, "title": "The Diary of Anne Frank", "release_date": "1959-03-18", "original_language": "en", "original_title": "The Diary of Anne Frank", "genre_ids": [18, 36], "backdrop_path": "/x7yCQSWXSczdHUMKEMk5qyoUazO.jpg", "adult": false, "overview": "The true, harrowing story of a young Jewish girl who, with her family and their friends, is forced into hiding in an attic in Nazi-occupied Amsterdam.", "poster_path": "/i7kUdUAF9eTxQG7GdR6lKUK96En.jpg", "popularity": 13.374}, {"id": 289222, "video": false, "vote_count": 836, "vote_average": 7.4, "title": "The Zookeeper's Wife", "release_date": "2017-03-31", "original_language": "en", "original_title": "The Zookeeper's Wife", "genre_ids": [18, 36], "backdrop_path": "/rE6W3KHdIuTdgRDLOOOMR3gfGgc.jpg", "adult": false, "overview": "The account of keepers of the Warsaw Zoo, Jan and Antonina Zabinski, who helped save hundreds of people and animals during the Nazi invasion.", "poster_path": "/50KGpMiIvSkF4WHOgp0gM6r6sMU.jpg", "popularity": 11.588}, {"adult": false, "backdrop_path": "/sgcgfrlOOB6lVXbfl75YTszF4jI.jpg", "genre_ids": [28, 12, 37], "id": 57201, "original_language": "en", "original_title": "The Lone Ranger", "overview": "The Texas Rangers chase down a gang of outlaws led by Butch Cavendish, but the gang ambushes the Rangers, seemingly killing them all. One survivor is found, however, by an American Indian named Tonto, who nurses him back to health. The Ranger, donning a mask and riding a white stallion named Silver, teams up with Tonto to bring the unscrupulous gang and others of that ilk to justice.", "poster_path": "/b4vil5ueYJNBNypHmo1tpuevh4z.jpg", "release_date": "2013-07-03", "title": "The Lone Ranger", "video": false, "vote_average": 6.0, "vote_count": 4109, "popularity": 18.929}, {"adult": false, "backdrop_path": "/lDhsA4edjDf5ZZHQFTrn5pgOpEN.jpg", "genre_ids": [80, 53], "id": 10778, "original_language": "en", "original_title": "The Man Who Wasn't There", "overview": "A tale of murder, crime and punishment set in the summer of 1949. Ed Crane, a barber in a small California town, is dissatisfied with his life, but his wife Doris' infidelity and a mysterious opportunity presents him with a chance to change it.", "poster_path": "/x1K4OPGNNB9Ye9Ob2OcdBUIXUno.jpg", "release_date": "2001-10-26", "title": "The Man Who Wasn't There", "video": false, "vote_average": 7.6, "vote_count": 799, "popularity": 15.127}, {"adult": false, "backdrop_path": "/tkHlTVLylEIBpUypq0z3ZbtxUKc.jpg", "genre_ids": [35, 18, 10749], "id": 11931, "original_language": "en", "original_title": "In Her Shoes", "overview": "Irresponsible party girl, Maggie is kicked out of her father's and stepmother's home\u2014where she lives for free\u2014and is taken in by her hard-working sister, Philadelphia lawyer, Rose. After Maggie's disruptive ways ruin her sister's love life, Rose turns her out as well. But when their grandmother, who they never knew existed, comes into their lives, the sisters face some complicated truths about themselves and their family.", "poster_path": "/4jqnazZX2bh8UMUS8rl4nHWWtyb.jpg", "release_date": "2005-10-07", "title": "In Her Shoes", "video": false, "vote_average": 6.0, "vote_count": 785, "popularity": 11.9}, {"id": 9962, "video": false, "vote_count": 314, "vote_average": 6.0, "title": "The Good Girl", "release_date": "2002-01-12", "original_language": "en", "original_title": "The Good Girl", "genre_ids": [35, 18, 10749], "backdrop_path": "/gY2qB8EFgiCZTQSgcWoZov3w7eH.jpg", "adult": false, "overview": "A discount store clerk strikes up an affair with a stock boy who considers himself the incarnation of Holden Caulfield.", "poster_path": "/21AacCArwM5hQ8fYPRA0WKZviiN.jpg", "popularity": 10.13}, {"adult": false, "backdrop_path": "/1l77Gk2OK9hjRFze08El8Do3pT1.jpg", "genre_ids": [80, 9648, 53], "id": 996, "original_language": "en", "original_title": "Double Indemnity", "overview": "A rich woman and a calculating insurance agent plot to kill her unsuspecting husband after he signs a double indemnity policy.  Against a backdrop of distinctly Californian settings, the partners in crime plan the perfect murder to collect the insurance, which pays  double if the death is accidental.", "poster_path": "/nW0cCpfuGcR1JG7EinDbdL2Ijf2.jpg", "release_date": "1944-07-03", "title": "Double Indemnity", "video": false, "vote_average": 8.2, "vote_count": 858, "popularity": 14.326}, {"adult": false, "backdrop_path": "/70j4EAHwlbCPZgcKpW04RLtzyHD.jpg", "genre_ids": [35, 18, 10749], "id": 16085, "original_language": "en", "original_title": "Funny Girl", "overview": "The story of the life of comedienne Fanny Brice, from her early days in the Jewish slums of the Lower East Side, to the height of her career with the Ziegfeld Follies, including her marriage to and eventual divorce from her first husband, Nick Arnstein.", "poster_path": "/yaAx93dNbDCYkH9RfH2Rfn8KRWL.jpg", "release_date": "1968-09-19", "title": "Funny Girl", "video": false, "vote_average": 7.3, "vote_count": 185, "popularity": 9.355}, {"id": 32037, "video": false, "vote_count": 80, "vote_average": 6.3, "title": "The Cassandra Crossing", "release_date": "1976-12-18", "original_language": "en", "original_title": "The Cassandra Crossing", "genre_ids": [28], "backdrop_path": "/mh7jlcgLBVVBvxPxQKnWyUwOhoA.jpg", "adult": false, "overview": "Passengers on a European train have been exposed to a deadly disease. Nobody will let them off the train. So what happens next?", "poster_path": "/pjCEpVFMi2VFuHB7ocOHyzNYsop.jpg", "popularity": 9.533}, {"id": 20024, "video": false, "vote_count": 116, "vote_average": 6.7, "title": "The End of the Affair", "release_date": "1999-12-03", "original_language": "en", "original_title": "The End of the Affair", "genre_ids": [18], "backdrop_path": "/sUPWjskNXip394SxoknaBuyLuUL.jpg", "adult": false, "overview": "On a rainy London night in 1946, novelist Maurice Bendrix has a chance meeting with Henry Miles, husband of his ex-mistress Sarah, who abruptly ended their affair two years before. Bendrix's obsession with Sarah is rekindled; he succumbs to his own jealousy and arranges to have her followed.", "poster_path": "/a0FPMCXTtQSMsTtq7JvQQXHPNPi.jpg", "popularity": 10.425}, {"adult": false, "backdrop_path": "/wfFTStTBWo3zIciBW4Eob3sarSz.jpg", "genre_ids": [35, 10749], "id": 3078, "original_language": "en", "original_title": "It Happened One Night", "overview": "A renegade reporter and a crazy young heiress meet on a bus heading for New York, and end up stuck with each other when the bus leaves them behind at one of the stops.", "poster_path": "/k63JqnFvkIGWGhjsqRiksZw2OSs.jpg", "release_date": "1934-02-22", "title": "It Happened One Night", "video": false, "vote_average": 7.9, "vote_count": 564, "popularity": 11.226}, {"id": 321258, "video": false, "vote_count": 2424, "vote_average": 5.8, "title": "The Boy", "release_date": "2016-01-22", "original_language": "en", "original_title": "The Boy", "genre_ids": [27, 9648, 53], "backdrop_path": "/aOvgn3E5OjJDepApd1WtS2doqMF.jpg", "adult": false, "overview": "An American nanny is shocked that her new English family's boy is actually a life-sized doll. After she violates a list of strict rules, disturbing events make her believe that the doll is really alive.", "poster_path": "/yHhBfL2msdFWwLpjGSgPJpVmxQN.jpg", "popularity": 15.669}, {"adult": false, "backdrop_path": "/7QDnuj2T6CCY5wOSnKfYH7cIb6M.jpg", "genre_ids": [18, 35, 10752], "id": 8056, "original_language": "fr", "original_title": "Train de vie", "overview": "In 1941, the inhabitants of a small Jewish village in Central Europe organize a fake deportation train so that they can escape the Nazis and flee to Palestine.", "poster_path": "/anUwgyVrC7kUwN5OliazbC5qBfr.jpg", "release_date": "1998-09-16", "title": "Train of Life", "video": false, "vote_average": 7.5, "vote_count": 150, "popularity": 7.165}, {"id": 301846, "video": false, "vote_count": 238, "vote_average": 5.2, "title": "Howl", "release_date": "2015-10-01", "original_language": "en", "original_title": "Howl", "genre_ids": [27], "backdrop_path": "/f6zcd6ZVviZnCdjqdtZtWKTNDDM.jpg", "adult": false, "overview": "When passengers on a train are attacked by a creature, they must band together in order to survive until morning.", "poster_path": "/sGEOC8x0lXSlIV4hoIZjnOnze9e.jpg", "popularity": 11.373}], "total_pages": 6, "total_results": 120}, "recommendations": {"page": 1, "results": [{"adult": false, "backdrop_path": "/mSRHwAXeR8YX3UoETOhThEujsgc.jpg", "genre_ids": [35, 18], "id": 49446, "original_language": "en", "original_title": "You Wont Miss Me", "overview": "A kaleidoscopic film portrait of Shelly Brown, a twenty-three year-old alienated urban misfit recently released from a psychiatric hospital.", "poster_path": "/bVQv1wOVbAsVP6HZagim4vR4svU.jpg", "release_date": "2010-11-12", "title": "You Wont Miss Me", "video": false, "vote_average": 5.8, "vote_count": 6, "popularity": 2.577}, {"adult": false, "backdrop_path": "/8GCmV7AogtgDsxbR8p7uDrINQGn.jpg", "genre_ids": [18], "id": 434485, "original_language": "pt", "original_title": "Pela Janela", "overview": "Ros\u00e1lia is a woman from S\u00e3o Paulo who has spent decades of her life working in a factory. One day, she is fired.", "poster_path": "/vIdEHgxNUb9HhNqQjOVrqJQzvRT.jpg", "release_date": "2017-01-18", "title": "A Window to Ros\u00e1lia", "video": false, "vote_average": 7.0, "vote_count": 4, "popularity": 1.349}, {"adult": false, "backdrop_path": "/gofQAviRpQvhBu73zhThncs5aX5.jpg", "genre_ids": [18], "id": 517207, "original_language": "en", "original_title": "Marfa Girl 2", "overview": "A family living in Marfa, Texas attempts to pull themselves back together after a horrific tragedy. This provocative sequel to Larry Clark's film Marfa Girl, shows us a group of people ready to escape their current realities - no matter the cost. Gritty, unrelenting and powerful, auteur Clark once again delivers a bleak landscape of sex, drugs and boredom amongst the residents of a dead-end Texas Border town.", "poster_path": "/f9LqBpPYiSv0TK58j9UV2wlsS0q.jpg", "release_date": "2018-08-26", "title": "Marfa Girl 2", "video": false, "vote_average": 6.6, "vote_count": 5, "popularity": 3.638}, {"adult": false, "backdrop_path": "/oXoWnINeLEiN5y7DDlzAmXuLwwq.jpg", "genre_ids": [12, 35, 14], "id": 579296, "original_language": "en", "original_title": "Abnormal Attraction", "overview": "In a world where mythical creatures are real, monsters and humans are forced to coexist; and as prejudice and insecurity pulls everyone apart, three separate storylines manage to come together.", "poster_path": "/ljOaX35V09izGupAEx8h8saFd7n.jpg", "release_date": "2018-03-01", "title": "Abnormal Attraction", "video": false, "vote_average": 6.6, "vote_count": 5, "popularity": 5.231}, {"adult": false, "backdrop_path": "/jgjP3u7gfiAQ9YiynJH3tFBePzr.jpg", "genre_ids": [35], "id": 558117, "original_language": "en", "original_title": "Burguesinha", "overview": "When her Brazilian, senator father is arrested for involving his entire family in campaign finance fraud, a spoiled, rich, Brazilian socialite must suddenly start a new life in America without friends, money, a place to live or a greencard.", "poster_path": "/5sV4p7sxYkZNnW98MpeEvrIMdtg.jpg", "release_date": "2017-10-05", "title": "The Socialite", "video": false, "vote_average": 6.0, "vote_count": 4, "popularity": 2.997}, {"id": 438339, "video": false, "vote_count": 6, "vote_average": 6.7, "title": "The Tokyo Night Sky Is Always the Densest Shade of Blue", "release_date": "2017-02-13", "original_language": "ja", "original_title": "\u591c\u7a7a\u306f\u3044\u3064\u3067\u3082\u6700\u9ad8\u5bc6\u5ea6\u306e\u9752\u8272\u3060", "genre_ids": [18], "backdrop_path": "/aSHEn8VddBV0qcFoVHXWZ3ZlEES.jpg", "adult": false, "overview": "Mika works as a nurse by day; by night she entertains covetous men at a girls\u2019 bar. Shinji is blind in one eye and ekes out a living as a construction worker. Young and grown-up at the same time, they both lead a lonely existence, but somehow their paths keep miraculously crossing under the Tokyo sky. Can loneliness be experienced together?", "poster_path": "/iO3X8J4lzDfFkNzbrlBXi4D9zV1.jpg", "popularity": 1.99}, {"adult": false, "backdrop_path": "/skJbiTKdAycO8sj6KaXShJOhPJ0.jpg", "genre_ids": [99, 36, 10402], "id": 567979, "original_language": "en", "original_title": "America's Blues", "overview": "America's Blues takes a new angle on the Blues, focusing on, not only the musical impact it has had on all forms of Popular American Music, but also the influence it has had on art, fashion, language, film and racial equality.", "poster_path": "/r4UPQfA74LWVcq5c1KIMI1KcHYD.jpg", "release_date": "2015-06-05", "title": "America's Blues", "video": false, "vote_average": 8.3, "vote_count": 3, "popularity": 1.464}, {"adult": false, "backdrop_path": "/fD76dvpzU7bjvkNCJ7Rqt4SVAot.jpg", "genre_ids": [99, 10402], "id": 426243, "original_language": "en", "original_title": "Eagles of Death Metal: Nos Amis (Our Friends)", "overview": "The November 13, 2015 terrorist attack in Paris claimed 130 lives around the city -- 89 of them at the Eagles of Death Metal\u2019s Bataclan Theatre concert. \"Eagles of Death Metal: Nos Amis (Our Friends)\" spotlights the American rock band as they recount their experiences before and after the tragic events. The film explores the deep bonds between band co-founders Jesse Hughes and Josh Homme (also a member of Queens of the Stone Age), as well as the intense connection the band has always had with its devoted fans, which moved them to return to Paris to perform once again in February 2016.", "poster_path": "/oe0exWiCRfy5GSQfnGi9wvwuSS.jpg", "release_date": "2017-02-10", "title": "Eagles of Death Metal: Nos Amis (Our Friends)", "video": false, "vote_average": 7.8, "vote_count": 13, "popularity": 8.988}, {"adult": false, "backdrop_path": "/xLhKsVg9IA3BrjpBqcIKncBYSyg.jpg", "genre_ids": [], "id": 326602, "original_language": "en", "original_title": "The Death and Resurrection Show", "overview": "A music documentary exploring the turbulent, controversial and often unbelievable 30 year history of British post-punk industrial band Killing Joke.", "poster_path": "/ak3roTQgYYpzD64DlC2QgKwUmfh.jpg", "release_date": "2013-11-16", "title": "The Death and Resurrection Show", "video": false, "vote_average": 7.7, "vote_count": 6, "popularity": 2.194}, {"adult": false, "backdrop_path": "/7hXPq6jKjJL3FD7Q9QAVFIUvT0L.jpg", "genre_ids": [18, 10749], "id": 45020, "original_language": "en", "original_title": "Mercy", "overview": "A young novelist tries to write about love, but realizes he will first need some real-life experience before taking on the subject.", "poster_path": "/siZCBP49XZMmQEPkVnwYZWI4dAv.jpg", "release_date": "2009-11-11", "title": "Mercy", "video": false, "vote_average": 5.6, "vote_count": 11, "popularity": 4.241}, {"adult": false, "backdrop_path": "/zEqGWH1lWcVjN1Ax07mSBYGVMLJ.jpg", "genre_ids": [99, 18], "id": 42479, "original_language": "en", "original_title": "Ciao! Manhattan", "overview": "The very sad tale of socialite & Warhol muse Edie Sedgwick (1943-1971) who effectively plays herself in a film that follows her life in a large part from the time she left Warhol's 'factory' and what the life of excess drugs did to her sanity. Edie was such a beautiful fragile girl - who finally got her head together and got married (her wedding day video is edited into the end of the movie) but it was too late, her husband woke up on a morning in November 1971, only weeks after filming wrapped, and found her dead beside him. She had died in her sleep from overdosing on her medication she was 28.", "poster_path": "/vwqnH6omAWc7EVBSGSikrCddEzM.jpg", "release_date": "1973-04-19", "title": "Ciao! Manhattan", "video": false, "vote_average": 5.6, "vote_count": 9, "popularity": 2.362}, {"id": 258071, "video": false, "vote_count": 7, "vote_average": 8.4, "title": "Brasilia, Contradictions of a New City", "release_date": "1968-01-01", "original_language": "pt", "original_title": "Bras\u00edlia, Contradi\u00e7\u00f5es de uma Cidade Nova", "genre_ids": [99], "backdrop_path": null, "adult": false, "overview": "In 1967, de Andrade was invited by the Italian company Olivetti to produce a documentary on the new Brazilian capital city of Bras\u00edlia. Constructed during the latter half of the 1950s and founded in 1960, the city was part of an effort to populate Brazil\u2019s vast interior region and was to be the embodiment of democratic urban planning, free from the class divisions and inequalities that characterize so many metropolises. Unsurprisingly, Bras\u00edlia, Contradi\u00e7\u00f5es de uma Cidade Nova (Bras\u00edlia, Contradictions of a New City, 1968) revealed Bras\u00edlia to be utopic only for the wealthy, replicating the same social problems present in every Brazilian city. (Senses of Cinema)", "poster_path": "/kFX2jO7JMmRgZbN2mxiwCXr4iIe.jpg", "popularity": 1.197}, {"adult": false, "backdrop_path": "/bSszgNPiNppW90WlCHBo9Cr2frq.jpg", "genre_ids": [18], "id": 147679, "original_language": "fr", "original_title": "Elle ne pleure pas, elle chante", "overview": "", "poster_path": "/xOJfNJfmtKlinAZACxKf14PmQRv.jpg", "release_date": "2011-06-29", "title": "She Is Not Crying, She Is Singing", "video": false, "vote_average": 6.0, "vote_count": 4, "popularity": 1.653}, {"adult": false, "backdrop_path": "/rAwfvAFWGQPpHO7m6AH1zSzNOy9.jpg", "genre_ids": [18], "id": 468287, "original_language": "fr", "original_title": "Hannah", "overview": "HANNAH is the intimate portrait of a woman\u2019s loss of identity as she teeters between denial and reality. Left alone grappling with the consequences of her husband\u2019s imprisonment, Hannah begins to unravel. Through the exploration of her fractured sense of identity and loss of self-control, the film investigates modern day alienation, the struggle to connect, and the dividing lines between individual identity, personal relationships, and societal pressures.", "poster_path": "/ceEP87OvIOlASy2PIiJjaFk9V6o.jpg", "release_date": "2017-09-10", "title": "Hannah", "video": false, "vote_average": 5.9, "vote_count": 31, "popularity": 4.735}, {"adult": false, "backdrop_path": null, "genre_ids": [99], "id": 359807, "original_language": "pt", "original_title": "Chico - Artista Brasileiro", "overview": "Chico Buarque is a constant presence in Brazil's art scene and makes up its citizen's popular culture. This wealth in music, poems, theater and novels has been created over the last 50 years and in this film Chico Buarque converses about his memories, shows, daily life, work methods, creative process, in summary all his trajectory. The musician\u2019s search for his German brother, whom he never got to meet, serves as one of the axis for the narrative.", "poster_path": "/cNySjJRiKZcPjFnvNDiQGVBYtBe.jpg", "release_date": "2015-11-26", "title": "Chico - Brazilian Artist", "video": false, "vote_average": 8.0, "vote_count": 3, "popularity": 1.031}, {"adult": false, "backdrop_path": "/i4uSUlFD5BJbiyL43Rsb4B70y7e.jpg", "genre_ids": [18], "id": 551306, "original_language": "pt", "original_title": "Mare Nostrum", "overview": "", "poster_path": "/85RUsv3MczX2V1n80PraKM8Obwg.jpg", "release_date": "2018-10-04", "title": "Mare Nostrum", "video": false, "vote_average": 6.0, "vote_count": 3, "popularity": 1.865}, {"id": 55060, "video": false, "vote_count": 4, "vote_average": 5.5, "title": "This Is My Body", "release_date": "2001-08-29", "original_language": "fr", "original_title": "Ceci est mon corps", "genre_ids": [18], "backdrop_path": null, "adult": false, "overview": "Gifted student Antoine goes against his family\u2019s wishes and accepts the lead role in a controversial director\u2019s film. He learns that the role had previously been offered to a young man who committed suicide after an on-set affair \u2013 and events conspire to draw Antoine towards the same lover.", "poster_path": "/tBDlgirvS9fyxiTCr98xSUMJWmh.jpg", "popularity": 2.996}, {"adult": false, "backdrop_path": null, "genre_ids": [], "id": 82349, "original_language": "it", "original_title": "Nessuna qualit\u00e0 agli eroi", "overview": "Fallen Heroes is a 2007 Italian crime-drama film directed by Paolo Franchi. It entered the competition at the 64th Venice International Film Festival. Wikipedia", "poster_path": "/423pq1JCr08zyeeapJqd5EdpYfa.jpg", "release_date": "2007-01-01", "title": "Fallen Heroes", "video": false, "vote_average": 5.0, "vote_count": 3, "popularity": 1.782}, {"adult": false, "backdrop_path": "/214ikt8ykleN5ftDoxFD1gz2SO3.jpg", "genre_ids": [35], "id": 169497, "original_language": "en", "original_title": "Falsa Loura", "overview": "Silmara, an industrial worker and a woman of exuberant beauty, supports her arsonist father and gets involved with two different pop stars, from whom she learns traumatic life lessons.", "poster_path": "/rjIdTmcudS79x844GNf6PqMeTfL.jpg", "release_date": "2007-11-24", "title": "Fake Blond", "video": false, "vote_average": 6.0, "vote_count": 4, "popularity": 3.219}, {"adult": false, "backdrop_path": "/pzXvGn2FakDlW6KVgnEZajcXDFq.jpg", "genre_ids": [10402, 35, 18], "id": 268282, "original_language": "pt", "original_title": "Bete Balan\u00e7o", "overview": "A small town girl, who's an aspiring singer, tries to make a living out of music in the big city of Rio de Janeiro.", "poster_path": "/bh5Qp4G7RjiY0zuJon6bBiDuBJw.jpg", "release_date": "1984-07-30", "title": "Bete Balan\u00e7o", "video": false, "vote_average": 5.0, "vote_count": 5, "popularity": 1.346}], "total_pages": 2, "total_results": 40}, "credits": {"cast": [{"cast_id": 2, "character": "Istv\u00e1n Szentes (Town Clerk)", "credit_id": "589a398d9251413acd001288", "gender": 0, "id": 89633, "name": "P\u00e9ter Rudolf", "order": 0, "profile_path": "/ITeQk5Ayt91am6WIFtVzJQSVXd.jpg"}, {"cast_id": 3, "character": "\u00c1rp\u00e1d Szentes", "credit_id": "589a39a0c3a3683a3e001092", "gender": 0, "id": 1307649, "name": "Bence Tasn\u00e1di", "order": 1, "profile_path": "/iGQUtT2tGHKZoNWDHqCQnJK3uzr.jpg"}, {"cast_id": 4, "character": "Jancsi", "credit_id": "589a39ac9251413ab8001153", "gender": 0, "id": 930376, "name": "Tam\u00e1s Szab\u00f3 Kimmel", "order": 2, "profile_path": "/k7KIvoSDt6WfsWRR3YIKRxgdIJZ.jpg"}, {"cast_id": 5, "character": "Kisr\u00f3zsi", "credit_id": "589a39bf9251413ac4001168", "gender": 1, "id": 1570490, "name": "D\u00f3ra Sztarenki", "order": 3, "profile_path": "/ocWOWcp5oRDgkeW3cnuZ5VFnPD.jpg"}, {"cast_id": 6, "character": "Mrs. Kust\u00e1r", "credit_id": "589a39d39251413ac400117f", "gender": 1, "id": 107857, "name": "\u00c1gi Szirtes", "order": 4, "profile_path": "/xySAuG2piTPsnC7v7Zu1aGRPCFt.jpg"}, {"cast_id": 7, "character": "Mr. Kust\u00e1r", "credit_id": "589a39e3c3a3683a2b0010ee", "gender": 2, "id": 89638, "name": "J\u00f3zsef Szarvas", "order": 5, "profile_path": "/buJAZbMCJncAB4SrMc45wCBAlH.jpg"}, {"cast_id": 13, "character": "Anna Szentes", "credit_id": "589a3f6fc3a3683a2e001744", "gender": 1, "id": 231052, "name": "Eszter Nagy-K\u00e1l\u00f3zy", "order": 6, "profile_path": "/n0FXyeAHMxnopwTW5YufjcG1OcA.jpg"}, {"cast_id": 9, "character": "Hermann S\u00e1muel", "credit_id": "589a3a069251413ac40011a1", "gender": 0, "id": 1414215, "name": "Iv\u00e1n Angelusz", "order": 8, "profile_path": null}, {"cast_id": 10, "character": "Son of Hermann S\u00e1muel", "credit_id": "589a3a13c3a3683a38001238", "gender": 0, "id": 233131, "name": "Marcell Nagy", "order": 9, "profile_path": null}, {"cast_id": 11, "character": "Station Master", "credit_id": "589a3a209251413acd001331", "gender": 0, "id": 993511, "name": "Istv\u00e1n Znamen\u00e1k", "order": 10, "profile_path": null}, {"cast_id": 15, "character": "", "credit_id": "5d7aab6f069f0e0671314b92", "gender": 2, "id": 49673, "name": "Mikl\u00f3s Sz\u00e9kely B.", "order": 11, "profile_path": "/82IjLmtqqv6sVf8j6vphi0kxBn7.jpg"}], "crew": [{"credit_id": "589a386fc3a3683a380010be", "department": "Directing", "gender": 2, "id": 125440, "job": "Director", "name": "Ferenc T\u00f6r\u00f6k", "profile_path": null}, {"credit_id": "589a38b49251413abe001171", "department": "Writing", "gender": 2, "id": 125440, "job": "Writer", "name": "Ferenc T\u00f6r\u00f6k", "profile_path": null}, {"credit_id": "5c19ac61c3a368188c239e9c", "department": "Writing", "gender": 0, "id": 2198013, "job": "Writer", "name": "G\u00e1bor T. Sz\u00e1nt\u00f3", "profile_path": null}]}}