{"adult": false, "backdrop_path": "/yIo8PBHN68v1Ihznw3jfcnmQBbF.jpg", "belongs_to_collection": null, "budget": 0, "genres": [{"id": 18, "name": "Drama"}], "homepage": null, "id": 44164, "imdb_id": "tt0265116", "original_language": "fr", "original_title": "Chaos", "overview": "A bourgeois couple, modern yet conventional. One night by accident, a young prostitute barges into their lives. Hounded down, beaten up, threatened, she will continue to struggle, with the help of a well off lady, first for her survival-her resurrection-then for her dignity and freedom. Stormy encounters for everyone involved.", "popularity": 2.278, "poster_path": "/mzrA0tfDO8FWKnyeninnmBsWscn.jpg", "production_companies": [], "production_countries": [{"iso_3166_1": "FR", "name": "France"}], "release_date": "2001-10-03", "revenue": 0, "runtime": 109, "spoken_languages": [{"iso_639_1": "fr", "name": "Fran\u00e7ais"}], "status": "Released", "tagline": "", "title": "Chaos", "video": false, "vote_average": 6.8, "vote_count": 23, "keywords": {"keywords": [{"id": 187056, "name": "woman director"}]}, "similar": {"page": 1, "results": [{"adult": false, "backdrop_path": "/cADbqsIoiDW7X3Myg9nz8eAuno5.jpg", "genre_ids": [18, 10749], "id": 10818, "original_language": "fr", "original_title": "Naissance des pieuvres", "overview": "Set during a sultry summer in a French suburb, Marie is desperate to join the local pool's synchronized swimming team, but is her interest solely for the sake of sport or for a chance to get close to Floriane, the bad girl of the team? Sciamma, and the two leads, capture the uncertainty of teenage sexuality with a sympathetic eye in this delicate drama of the angst of coming-of-age.", "poster_path": "/4jajELYrR4Xmv3CVoKnukRnALa2.jpg", "release_date": "2007-05-17", "title": "Water Lilies", "video": false, "vote_average": 6.1, "vote_count": 119, "popularity": 10.744}, {"adult": false, "backdrop_path": "/gZeJziVigmRqbkEZwKAtSqlLQ6s.jpg", "genre_ids": [18, 10749], "id": 370663, "original_language": "en", "original_title": "Below Her Mouth", "overview": "An unexpected affair quickly escalates into a heart-stopping reality for two women whose passionate connection changes their lives forever.", "poster_path": "/nTGbq37hYLuNy7YgMg0gVLma0NS.jpg", "release_date": "2016-09-10", "title": "Below Her Mouth", "video": false, "vote_average": 6.2, "vote_count": 456, "popularity": 22.676}, {"adult": false, "backdrop_path": "/dvQDRfv3qvfHNnVAR57ouVsuErf.jpg", "genre_ids": [10749, 18], "id": 28031, "original_language": "en", "original_title": "If These Walls Could Talk 2", "overview": "The stories of three lesbian couples -- who live in the same house at different periods of time -- who are at a crossroads in their lives. In 1961, Edith loses her lover, Abby, to a stroke. Linda and Amy struggle with feminist issues in 1972. And, in 2000, Kal and Fran try to have a baby with the help of sperm donor.", "poster_path": "/xs7ODbmYQXCDhvXNvz5tF17T59H.jpg", "release_date": "2000-03-05", "title": "If These Walls Could Talk 2", "video": false, "vote_average": 7.1, "vote_count": 55, "popularity": 8.062}, {"adult": false, "backdrop_path": "/knczzNAjBXzSYkeWxoT1u9VNmjR.jpg", "genre_ids": [10749, 18], "id": 258480, "original_language": "en", "original_title": "Carol", "overview": "In 1950s New York, a department-store clerk who dreams of a better life falls for an older, married woman.", "poster_path": "/AbKa7ANxmui0Jmhh7gV7OSELKIL.jpg", "release_date": "2015-11-20", "title": "Carol", "video": false, "vote_average": 7.4, "vote_count": 2182, "popularity": 14.185}, {"adult": false, "backdrop_path": "/fZ8oFcREAr6wgWcXISGql0xyxjB.jpg", "genre_ids": [35, 18], "id": 39781, "original_language": "en", "original_title": "The Kids Are All Right", "overview": "Two women, Nic and Jules, brought a son and daughter into the world through artificial insemination. When one of their children reaches age, both kids go behind their mothers' backs to meet with the donor. Life becomes so much more interesting when the father, two mothers and children start to become attached to each other.", "poster_path": "/fPDeK4MmoGfi2X0oWZev7LrbMqM.jpg", "release_date": "2010-07-09", "title": "The Kids Are All Right", "video": false, "vote_average": 6.6, "vote_count": 923, "popularity": 12.703}, {"adult": false, "backdrop_path": "/rf6G51j0SZL0tP57I8gnqHTRFEr.jpg", "genre_ids": [35, 18, 10749], "id": 273153, "original_language": "fr", "original_title": "La belle saison", "overview": "In 1971, Carole and Delphine meet and fall in love in Paris. When Carole follows Delphine back to her family farm in Limousin, the two find lesbianism and feminism are not as easy in the countryside.", "poster_path": "/evvAkNMO5VJiy5qIo1Hu7fUfvVI.jpg", "release_date": "2015-08-19", "title": "Summertime", "video": false, "vote_average": 6.6, "vote_count": 162, "popularity": 15.434}, {"adult": false, "backdrop_path": "/s12HEmmkJfI2mjltI61hGm5kubD.jpg", "genre_ids": [35, 18, 10749], "id": 20770, "original_language": "en", "original_title": "But I'm a Cheerleader", "overview": "Megan is an all-American girl. A cheerleader. She has a boyfriend. But Megan doesn't like kissing her boyfriend very much. And she's pretty touchy with her cheerleader friends. Her conservative parents worry that she must be a lesbian and send her off to \"sexual redirection\" school, where she must, with other lesbians and gays learn how to be straight.", "poster_path": "/eDGH7CHSdkrYcuUJV1e0WS9DlQL.jpg", "release_date": "1999-12-09", "title": "But I'm a Cheerleader", "video": false, "vote_average": 6.8, "vote_count": 246, "popularity": 10.067}, {"id": 9813, "video": false, "vote_count": 128, "vote_average": 6.1, "title": "The Quiet", "release_date": "2005-09-12", "original_language": "en", "original_title": "The Quiet", "genre_ids": [18, 53], "backdrop_path": "/6eyWAZA4CEidZW1xXnQ4vlYBXTP.jpg", "adult": false, "overview": "After her widowed father dies, deaf teenager Dot moves in with her godparents, Olivia and Paul Deer. The Deers' daughter, Nina, is openly hostile to Dot, but that does not prevent her from telling her secrets to her silent stepsister, including the fact that she wants to kill her lecherous father.", "poster_path": "/GEqIE9YlmygHVUfS64LW2cwAAM.jpg", "popularity": 13.948}, {"adult": false, "backdrop_path": "/tzqeuHWMFihFbiLGHdalPgAcSf6.jpg", "genre_ids": [18, 10749], "id": 18620, "original_language": "en", "original_title": "Go Fish", "overview": "Max is a trendy, pretty, young lesbian, who is having trouble finding love. A friend sets her up with Ely, whom Max likes, but Ely is frumpy, homely, and older. Nor do they have much in common. Can Max learn to look past the packaging?", "poster_path": "/qrEFYrwykaGsY8NULYuYLLI7zrM.jpg", "release_date": "1994-06-10", "title": "Go Fish", "video": false, "vote_average": 5.0, "vote_count": 11, "popularity": 2.626}, {"adult": false, "backdrop_path": "/6tern9vOEwwmkDYC1vRCuO64z0C.jpg", "genre_ids": [10749, 18], "id": 475888, "original_language": "en", "original_title": "Tell It to the Bees", "overview": "Dr. Jean Markham returns to the town she left as a teenager to take over her late father's medical practice. When a school-yard scuffle lands Charlie in her surgery, she invites him to visit the hives in her garden and tell his secrets to the bees, as she once did. The new friendship between the boy and the bee keeper brings his mother Lydia into Jean's world.", "poster_path": "/Rj6zpHhMU1zFW3v28U4PSRSRgP.jpg", "release_date": "2019-05-03", "title": "Tell It to the Bees", "video": false, "vote_average": 6.4, "vote_count": 53, "popularity": 15.113}, {"adult": false, "backdrop_path": "/baYbbMtKRDoDWYJeVWkbygAvAj8.jpg", "genre_ids": [18, 10749], "id": 31216, "original_language": "en", "original_title": "I Can't Think Straight", "overview": "I CAN'T THINK STRAIGHT is a 2007 romance movie about a London-based Jordanian of Palestinian descent, Tala, who is preparing for an elaborate wedding. A turn of events causes her to have an affair and subsequently fall in love with another woman, Leyla, a British Indian.", "poster_path": "/1kapga6rkM5wNuQBYw7sdE42CrA.jpg", "release_date": "2008-06-01", "title": "I Can't Think Straight", "video": false, "vote_average": 7.6, "vote_count": 109, "popularity": 8.749}, {"adult": false, "backdrop_path": "/lI5h8KaoeObu4NMTwzeRuUHzRwD.jpg", "genre_ids": [18, 9648, 53], "id": 401898, "original_language": "no", "original_title": "Thelma", "overview": "A college student starts to experience extreme seizures. She soon learns that the violent episodes are a symptom of inexplicable abilities.", "poster_path": "/yzSfG8TLAqw7nMQh2lxirQkQpgs.jpg", "release_date": "2017-09-15", "title": "Thelma", "video": false, "vote_average": 7.1, "vote_count": 418, "popularity": 12.235}, {"adult": false, "backdrop_path": "/tIFRPjIXQ3sYrmxbIeOu9K1JkUz.jpg", "genre_ids": [18, 10749], "id": 294, "original_language": "en", "original_title": "Desert Hearts", "overview": "The story of straight-edge literature professor Vivian who travels to Reno to get away from a relationship breakup when she falls in love with an attractive and unconventional girl named Cay.", "poster_path": "/b8JSmQSpYYJhctMtxNgqh0elENg.jpg", "release_date": "1985-10-01", "title": "Desert Hearts", "video": false, "vote_average": 7.3, "vote_count": 58, "popularity": 8.237}, {"id": 2255, "video": false, "vote_count": 772, "vote_average": 6.8, "title": "Chasing Amy", "release_date": "1997-04-04", "original_language": "en", "original_title": "Chasing Amy", "genre_ids": [35, 18, 10749], "backdrop_path": "/doKYVK61Vb8J1KUjlb9dNWkQNp6.jpg", "adult": false, "overview": "Holden and Banky are comic book artists. Everything is going good for them until they meet Alyssa, also a comic book artist. Holden falls for her, but his hopes are crushed when he finds out she's a lesbian.", "poster_path": "/4vFJileWrCGaBeobCmF0tXpQCUb.jpg", "popularity": 11.325}, {"adult": false, "backdrop_path": "/hD8DQM72Xacg1d3mFqS0eN8vKYw.jpg", "genre_ids": [18], "id": 8272, "original_language": "en", "original_title": "The Savages", "overview": "A sister and brother face the realities of familial responsibility as they begin to care for their ailing father.", "poster_path": "/nY54gSmTOmSXlQpWDB7DWp4u8a7.jpg", "release_date": "2007-01-19", "title": "The Savages", "video": false, "vote_average": 6.9, "vote_count": 192, "popularity": 13.094}, {"adult": false, "backdrop_path": "/g3LYarEY9LjB28Ct2trwFN72gqZ.jpg", "genre_ids": [35], "id": 437557, "original_language": "en", "original_title": "Blockers", "overview": "When three parents discover their daughters\u2019 pact to lose their virginity at prom, they launch a covert one-night operation to stop the teens from sealing the deal.", "poster_path": "/uvlUQXg0AlpGzKukO11K7QtW3Yu.jpg", "release_date": "2018-03-14", "title": "Blockers", "video": false, "vote_average": 6.2, "vote_count": 1153, "popularity": 18.075}, {"adult": false, "backdrop_path": "/zBB1mzmqnUuSrlTuf0SFFlI1EoJ.jpg", "genre_ids": [18], "id": 244772, "original_language": "en", "original_title": "The Skeleton Twins", "overview": "Estranged twins Maggie and Milo coincidentally cheat death on the same day, prompting them to reunite and confront the reasons their lives went so wrong. As the twins' reunion reinvigorates them, they realize the key to fixing their lives may just lie in repairing their relationship.", "poster_path": "/vvmv1R2jDXJeeeyYcGg0ypXc2XK.jpg", "release_date": "2014-09-12", "title": "The Skeleton Twins", "video": false, "vote_average": 6.7, "vote_count": 416, "popularity": 9.821}, {"adult": false, "backdrop_path": "/3YGy88nTV2e0wxZcKI1goiEN9oy.jpg", "genre_ids": [18, 10749], "id": 37636, "original_language": "en", "original_title": "High Art", "overview": "A young female intern at a small magazine company becomes involved with a drug-addicted lesbian photographer, both of whom seek to exploit each other for their respective careers, while slowly falling in love with each other.", "poster_path": "/qTg05RNJIvb9w4Z7XIcAZxuZmTn.jpg", "release_date": "1998-06-12", "title": "High Art", "video": false, "vote_average": 6.6, "vote_count": 61, "popularity": 7.27}, {"adult": false, "backdrop_path": "/caLMOD3ZJ3V7qjlxDXrzlJfBLgD.jpg", "genre_ids": [18, 10749], "id": 20, "original_language": "en", "original_title": "My Life Without Me", "overview": "A Pedro Almodovar production in which a fatally ill mother with only two months to live creates a list of things she wants to do before she dies with out telling her family of her illness.", "poster_path": "/vVj92VBFUBzjqzLvBiPVVlJDp78.jpg", "release_date": "2003-03-07", "title": "My Life Without Me", "video": false, "vote_average": 6.1, "vote_count": 220, "popularity": 9.208}, {"adult": false, "backdrop_path": "/useuHJQ5HOoEWkAvEjL1FW1sUfe.jpg", "genre_ids": [18], "id": 376867, "original_language": "en", "original_title": "Moonlight", "overview": "The tender, heartbreaking story of a young man\u2019s struggle to find himself, told across three defining chapters in his life as he experiences the ecstasy, pain, and beauty of falling in love, while grappling with his own sexuality.", "poster_path": "/qAwFbszz0kRyTuXmMeKQZCX3Q2O.jpg", "release_date": "2016-10-21", "title": "Moonlight", "video": false, "vote_average": 7.4, "vote_count": 4406, "popularity": 27.348}], "total_pages": 1446, "total_results": 28907}, "recommendations": {"page": 1, "results": [{"adult": false, "backdrop_path": "/2BRrn6PUmBdSfhxEBnF0xlAoGN5.jpg", "genre_ids": [35, 18], "id": 70908, "original_language": "fr", "original_title": "Les Marmottes", "overview": "A story of a family with numerous members drowned in their sentimental problems.", "poster_path": "/vpdvfSPSbfB7K65UMfXK5P77ObZ.jpg", "release_date": "1993-11-10", "title": "The Groundhogs", "video": false, "vote_average": 5.3, "vote_count": 18, "popularity": 3.171}, {"adult": false, "backdrop_path": "/qvb5bdPeugBi4ML1IzspZ59pZzd.jpg", "genre_ids": [18], "id": 54012, "original_language": "fr", "original_title": "Le Promeneur du Champ de Mars", "overview": "A young journalist (Lespert) helps the French President compile his memoirs.", "poster_path": "/xoK2LVA7uNFUEvufkVTb4rCndYW.jpg", "release_date": "2005-02-16", "title": "The Last Mitterrand", "video": false, "vote_average": 6.7, "vote_count": 10, "popularity": 2.248}, {"adult": false, "backdrop_path": "/3YKntOYuxAPGdsISfOHKwIKFk7X.jpg", "genre_ids": [35, 18], "id": 6360, "original_language": "fr", "original_title": "Actrices", "overview": "Com\u00e9dienne hant\u00e9e par son r\u00f4le de Nathalia Petrovna, l'h\u00e9ro\u00efne de la pi\u00e8ce de Tourgu\u00e9niev Un Mois \u00e0 la campagne qu'elle r\u00e9p\u00e8te difficilement, Marcelline tente de noyer ses angoisses dans une piscine sur un air de Glenn Miller. Mais rien n'y fait. Rien n'emp\u00eache le temps de courir et de lui imposer ses quarante ans et toujours pas d'enfant.", "poster_path": "/aqUzqGTW4sTnUBBbDcCoo0Itayv.jpg", "release_date": "2007-12-26", "title": "Actresses", "video": false, "vote_average": 5.8, "vote_count": 11, "popularity": 3.132}, {"adult": false, "backdrop_path": "/uvy4fjdABjA45W2TFo37bDWk27C.jpg", "genre_ids": [18, 10749, 53], "id": 50350, "original_language": "en", "original_title": "And Now... Ladies and Gentlemen...", "overview": "A jazz singer and a British jewel thief are brought together by their mutual desire to forget the past.", "poster_path": "/vfXiLcrReAfqSrCXGexVfElgeLK.jpg", "release_date": "2002-05-29", "title": "And Now... Ladies and Gentlemen...", "video": false, "vote_average": 6.5, "vote_count": 10, "popularity": 3.713}, {"adult": false, "backdrop_path": "/nbJ5ZOWim02lEIHCP6WD3NFyrnV.jpg", "genre_ids": [80, 18, 27], "id": 65292, "original_language": "fr", "original_title": "Le Pharmacien de garde", "overview": "An ecological pharmacist uses ancient Celtic techniques to murder industrial magnates whose practices harm the planet.", "poster_path": "/u7nfAxXNqsTGTLTacy11iprLlN3.jpg", "release_date": "2003-01-15", "title": "The Pharmacist", "video": false, "vote_average": 4.3, "vote_count": 3, "popularity": 2.281}, {"adult": false, "backdrop_path": null, "genre_ids": [10749], "id": 172950, "original_language": "fr", "original_title": "Dr\u00f4le d'endroit pour une rencontre", "overview": "France is a haughty, bourgeoise wife who is abandoned at the side of the road by her husband after a vicious quarrel. She meets Charles, a doctor. The meeting of the two strangers is the focus of the film, along with their encounters with characters at a truck stop.", "poster_path": "/sJyrFryT9KB4GDcNiz5IrQd2o2O.jpg", "release_date": "1988-05-26", "title": "Strange Place for an Encounter", "video": false, "vote_average": 5.5, "vote_count": 5, "popularity": 1.957}, {"adult": false, "backdrop_path": "/ocNGOEVkuueHD3QUBpTuxTP4md5.jpg", "genre_ids": [35], "id": 78278, "original_language": "fr", "original_title": "C'est le bouquet !", "overview": "An unexpected phone call from a certain Kirsch sets off a crisis between Catherine and Rapha\u00ebl that will affect all those around them, be they close friends or casual acquaintances.", "poster_path": "/Ae0ex6rZiDld9KCN9u4VioPUm3u.jpg", "release_date": "2002-12-11", "title": "Special Delivery", "video": false, "vote_average": 4.7, "vote_count": 3, "popularity": 1.577}, {"adult": false, "backdrop_path": "/colgQui4GwTwDIQF1Zth201t40M.jpg", "genre_ids": [18], "id": 17376, "original_language": "fr", "original_title": "Anna M.", "overview": "Anna, a somewhat introverted woman, becomes obsessed with the orthopedic surgeon who helped with her recuperation following a car accident. Incorrectly believing the love to be reciprocated, she embarks on several attempts to try and stay in touch with him but, after several rejections, finds herself descending into despair and, ultimately, hatred.", "poster_path": "/2HRJ7drM7dB1yMO8IBgtEEhJ8XM.jpg", "release_date": "2007-02-14", "title": "Anna M.", "video": false, "vote_average": 5.8, "vote_count": 18, "popularity": 2.649}, {"id": 44539, "video": false, "vote_count": 6, "vote_average": 6.7, "title": "An Amazing Couple", "release_date": "2003-01-01", "original_language": "fr", "original_title": "Un couple \u00e9patant", "genre_ids": [18], "backdrop_path": "/bprOXxycaSJzh7mae78kgQHWnUo.jpg", "adult": false, "overview": "A woman, concerned by her husband's eccentric behavior, hires a detective to follow his every move -- which yields unexpected results.", "poster_path": "/eTOj3U4QqudFgoNA4MNUOHeY26n.jpg", "popularity": 1.774}, {"id": 245787, "video": false, "vote_count": 3, "vote_average": 8.2, "title": "Le glaive et la balance", "release_date": "1963-01-01", "original_language": "fr", "original_title": "Le glaive et la balance", "genre_ids": [18], "backdrop_path": null, "adult": false, "overview": "A boy is kidnapped and murdered on the French riviera. The police, who had watched the delivery of the ransom to TWO men gives chase once they determine that the boy is dead. The police never loses sight of the TWO men who flee on a speedboat and run into an old lighthouse after landing. However, when the police surrounds the lighthouse, THREE men come out, each one claiming that he was there on a stroll and the following investigation can not determine who is lying. The three men are put on trial, but the jury finds them innocent, because they can not determine which two are guilty. Summary justice is made by a mob when the three men leave the court after their aquittal.", "poster_path": "/6vY5iLzzIm7zqWtgHPQXMn7qWsF.jpg", "popularity": 1.914}, {"adult": false, "backdrop_path": "/sgcq5oHTCRgi4rznvRjOunoWsoO.jpg", "genre_ids": [18], "id": 1998, "original_language": "en", "original_title": "Holy Lola", "overview": "The story of a young couple, Pierre and Geraldine, and their desire for a child, which leads them on a journey of initiation to Cambodia.  On their difficult and transformative adventure, they must contend with obstructive authorities and the jealousies and mistrust of a small community of would-be adoptive parents.", "poster_path": "/targniwNovnXelXAxuWpdC1NR0c.jpg", "release_date": "2004-10-16", "title": "Holy Lola", "video": false, "vote_average": 6.3, "vote_count": 12, "popularity": 3.409}, {"adult": false, "backdrop_path": "/vkJdGE6j4WVPYDAoGpM2NfNLRT1.jpg", "genre_ids": [18, 10749], "id": 78210, "original_language": "fr", "original_title": "Mademoiselle", "overview": "Claire is a young woman who leads a somewhat formatted life. Pierre is an improviser, but not an actor. Brief encounter, brief romance, doomed or not, who can say? When things like that happen, you act on the spur of the moment.", "poster_path": "/ieOwnIRhRxDmxqCzhc6mRPK6LKL.jpg", "release_date": "2001-03-21", "title": "Mademoiselle", "video": false, "vote_average": 6.1, "vote_count": 10, "popularity": 1.927}, {"adult": false, "backdrop_path": "/off2Lmb5LiNXM9F99HQOFZUyWdo.jpg", "genre_ids": [35, 18], "id": 76390, "original_language": "fr", "original_title": "Hommes, femmes, mode d'emploi", "overview": "Benoit Blanc loves living, he loves women, he loves daring. He is a famous businessman who suffers from stomach-ache. Fabiolini, a would-be actor, is a policeman and he too suffers from the same sickness. The two man face suffering in opposite ways: Benoit Blanc is optimistic while Fabiolini, always unsure of himself, is persuaded he is seriously ill. The two men meet by chance while doing a gastroscopy and become friends. After having known their real different conditions, they will change and will understand better their lives. Around them, other people, women and men, will see their lives changed, by chance, by love or solely by the life stream.", "poster_path": "/dkDtMJrZqeZlkqDNVTAEmqZWPbz.jpg", "release_date": "1996-08-28", "title": "Men, Women: A User's Manual", "video": false, "vote_average": 6.4, "vote_count": 11, "popularity": 2.335}, {"id": 57327, "video": false, "vote_count": 9, "vote_average": 6.4, "title": "After Sex", "release_date": "1997-08-29", "original_language": "fr", "original_title": "Post co\u00eftum animal triste", "genre_ids": [18, 10749], "backdrop_path": "/8TRnrYlzfNTsqzZ2ArBI7K03RgI.jpg", "adult": false, "overview": "The end of an affair from the woman's point of view.", "poster_path": "/58AcfKh5XZEQrydA1A1iTQXzBKF.jpg", "popularity": 2.364}, {"adult": false, "backdrop_path": "/p4Ee1KptkxO7H1Ews4TfgotXr3y.jpg", "genre_ids": [10749, 18], "id": 71577, "original_language": "fr", "original_title": "Ceux qui restent", "overview": "Bertrand (Vincent Lindon) dutifully visits his terminally ill wife every day, braving the long train and bus ride to and from the hospital. Lorraine (Emmanuelle Devos) not so willingly visits her boyfriend who was diagnosed with colon cancer. They bump into each other during one of their visits and begin to meet for coffee. Coffee turns into Lorraine offering to drive Bertrand to the train station and the two turn to each other in their time of grief and confusion.", "poster_path": "/itVx9anYbFZzXixX0gNXSXBk8iJ.jpg", "release_date": "2007-08-29", "title": "Those Who Remain", "video": false, "vote_average": 6.1, "vote_count": 16, "popularity": 1.996}, {"adult": false, "backdrop_path": "/t4PwTTkYU9XzHfBEaYoRlhlOTR5.jpg", "genre_ids": [99], "id": 37480, "original_language": "fr", "original_title": "1974, une partie de campagne", "overview": "Following the 1974 French presidential campaign with Valery Gicard d'Estaing", "poster_path": "/k0hfaqHL165AFnXqS65g6TDj2aW.jpg", "release_date": "2002-02-20", "title": "1974, une partie de campagne", "video": false, "vote_average": 6.2, "vote_count": 6, "popularity": 1.425}, {"adult": false, "backdrop_path": "/97wRR1LqgHlNtEvAzIlFRm0TURn.jpg", "genre_ids": [18], "id": 70930, "original_language": "fr", "original_title": "Sauf le respect que je vous dois", "overview": "Fran\u00e7ois Durrieux, a man in his forties, married to Cl\u00e9mence and father of Benjamin, has been employed for years by the firm DSBO. In order not to lose his job, he always submits to his boss's demands whether it means working after office hours, canceling planned holidays or harming his family life. However, when one night, Simon Lacaze, his best friend and colleague, commits suicide just after being fired ignominiously, Fran\u00e7ois rebels...", "poster_path": "/u4fVJuPN9WmW4j5EZBhMXs8gqZx.jpg", "release_date": "2006-02-15", "title": "Burnt Out", "video": false, "vote_average": 6.2, "vote_count": 6, "popularity": 1.31}, {"adult": false, "backdrop_path": "/p529nHkjXqNNUDVY5Um2xFk0MyZ.jpg", "genre_ids": [18], "id": 47499, "original_language": "fr", "original_title": "Petites coupures", "overview": "Bruno, a communist newspaper journalist, is suffering a mid-life crisis. Torn between his wife Ga\u00eblle and his young girlfriend Nathalie, his political beliefs battered by the wind of history, Bruno seems to have lost his bearings.", "poster_path": "/KZx4fic6YCdWyCsnBq6Xop8qWP.jpg", "release_date": "2003-02-12", "title": "Small Cuts", "video": false, "vote_average": 5.9, "vote_count": 7, "popularity": 1.211}, {"adult": false, "backdrop_path": "/hmHjh0RXWINqSs1iqpMjn4IniJl.jpg", "genre_ids": [18], "id": 98505, "original_language": "fr", "original_title": "Le septi\u00e8me ciel", "overview": "A bored, sexually frustrated woman's life improves when she begins hypnotherapy and tries feng shui, but her husband's life unravels.", "poster_path": "/tLAF6TLzRVnP31udDX8abJCL6O5.jpg", "release_date": "1997-12-17", "title": "Seventh Heaven", "video": false, "vote_average": 4.8, "vote_count": 5, "popularity": 2.346}, {"adult": false, "backdrop_path": "/gJnj62UUgK17UVPrBLY9n3Jmk4o.jpg", "genre_ids": [35], "id": 47496, "original_language": "fr", "original_title": "Les Grands Ducs", "overview": "Three aging and failed comedians, Georges Cox, Victor Vialat and Eddie Carpentier, hit the road again with a lousy production of a lousy play, of course under the worst possible conditions.", "poster_path": "/nLQXmCoTPLnJDSHY0rLwWHDuNJs.jpg", "release_date": "1996-02-21", "title": "The Grand Dukes", "video": false, "vote_average": 6.5, "vote_count": 15, "popularity": 2.796}], "total_pages": 2, "total_results": 40}, "credits": {"cast": [{"cast_id": 2, "character": "Paul", "credit_id": "52fe467ac3a36847f8101531", "gender": 2, "id": 5443, "name": "Vincent Lindon", "order": 0, "profile_path": "/ttfk7etXzELkW1gMSo5eH8aEzjY.jpg"}, {"cast_id": 3, "character": "H\u00e9l\u00e8ne", "credit_id": "52fe467ac3a36847f8101535", "gender": 1, "id": 20080, "name": "Catherine Frot", "order": 1, "profile_path": "/18d10YaqZlGPzYjaUjMIiSMfs8E.jpg"}, {"cast_id": 4, "character": "Malika", "credit_id": "52fe467ac3a36847f8101539", "gender": 0, "id": 56241, "name": "Rachida Brakni", "order": 2, "profile_path": "/v4oHljkXQEmcpoGMBaZKAz3S4I.jpg"}, {"cast_id": 5, "character": "Mamie", "credit_id": "52fe467ac3a36847f810153d", "gender": 1, "id": 54167, "name": "Line Renaud", "order": 3, "profile_path": "/n1nKGW94uVUfTHuvh8a8IeGTNXv.jpg"}], "crew": [{"credit_id": "52fe467ac3a36847f810152d", "department": "Directing", "gender": 1, "id": 35208, "job": "Director", "name": "Coline Serreau", "profile_path": "/nvuVQdd2F9N2uDpzPGJqYOULNKn.jpg"}]}}