{"adult": false, "backdrop_path": "/z3DtJKwGNZmSbJ6RTC0HpKzipqR.jpg", "belongs_to_collection": null, "budget": 0, "genres": [{"id": 99, "name": "Documentary"}], "homepage": "http://bobbijene.oscilloscope.net/", "id": 442943, "imdb_id": "tt6082630", "original_language": "en", "original_title": "Bobbi Jene", "overview": "A love story, portraying the dilemmas and inevitable consequences of ambition. It is a film about a woman's fight for independence, a woman trying to succeed with her own art in the extremely competitive world of dance.", "popularity": 2.654, "poster_path": "/nYTe5DdAnoHvdOvRNCTvr4lvl2U.jpg", "production_companies": [{"id": 71793, "logo_path": null, "name": "Sonntag Pictures", "origin_country": ""}], "production_countries": [{"iso_3166_1": "US", "name": "United States of America"}, {"iso_3166_1": "DK", "name": "Denmark"}, {"iso_3166_1": "SE", "name": "Sweden"}, {"iso_3166_1": "IL", "name": "Israel"}], "release_date": "2017-09-22", "revenue": 0, "runtime": 95, "spoken_languages": [{"iso_639_1": "en", "name": "English"}], "status": "Released", "tagline": "", "title": "Bobbi Jene", "video": false, "vote_average": 6.6, "vote_count": 8, "keywords": {"keywords": [{"id": 1691, "name": "dance"}, {"id": 163211, "name": "modern dance"}]}, "similar": {"page": 1, "results": [{"id": 361292, "video": false, "vote_count": 1096, "vote_average": 6.9, "title": "Suspiria", "release_date": "2018-10-11", "original_language": "en", "original_title": "Suspiria", "genre_ids": [14, 27], "backdrop_path": "/AmO8I38bkHwKhgxPNrd6djBQyPU.jpg", "adult": false, "overview": "A darkness swirls at the center of a world-renowned dance company, one that will engulf the troupe's artistic director, an ambitious young dancer and a grieving psychotherapist. Some will succumb to the nightmare, others will finally wake up.", "poster_path": "/qntguRoupnAASFdld8kTDe68fEn.jpg", "popularity": 16.617}, {"id": 44214, "video": false, "vote_count": 9192, "vote_average": 7.6, "title": "Black Swan", "release_date": "2010-12-03", "original_language": "en", "original_title": "Black Swan", "genre_ids": [18, 27, 53], "backdrop_path": "/t8jFs6cOl1YVSfXXZivWtEb14tF.jpg", "adult": false, "overview": "A journey through the psyche of a young ballerina whose starring role as the duplicitous swan queen turns out to be a part for which she becomes frighteningly perfect.", "poster_path": "/dQ7uxvsVTspVIsqjfgQj8usJpwX.jpg", "popularity": 24.558}, {"adult": false, "backdrop_path": "/5x0VEeFCnWzRBwU23KycKQRqEhN.jpg", "genre_ids": [10402, 35], "id": 15157, "original_language": "en", "original_title": "Another Cinderella Story", "overview": "A guy who danced with what could be the girl of his dreams at a costume ball only has one hint at her identity: the Zune she left behind as she rushed home in order to make her curfew. And with a once-in-a-lifetime opportunity in front of him, he sets out to find his masked beauty.", "poster_path": "/fLdCKCfHT8A6bnWybBsQFjC4fCo.jpg", "release_date": "2008-09-16", "title": "Another Cinderella Story", "video": false, "vote_average": 6.6, "vote_count": 1120, "popularity": 16.339}, {"id": 407655, "video": false, "vote_count": 421, "vote_average": 6.8, "title": "A Cinderella Story: If the Shoe Fits", "release_date": "2016-08-02", "original_language": "en", "original_title": "A Cinderella Story: If the Shoe Fits", "genre_ids": [35, 14, 10402, 10751], "backdrop_path": "/svYzELCLW0NGVEuvNraA4W7Hmm9.jpg", "adult": false, "overview": "A contemporary musical version of the classic Cinderella story in which the servant step daughter hope to compete in a musical competition for a famous pop star.", "poster_path": "/prZSNnK5dkYcflsbdOsVVvqasZ5.jpg", "popularity": 19.825}, {"id": 342473, "video": false, "vote_count": 1169, "vote_average": 7.1, "title": "Ballerina", "release_date": "2016-12-14", "original_language": "en", "original_title": "Ballerina", "genre_ids": [12, 16, 35, 10751], "backdrop_path": "/wlLdcK3Sm7zp0w1ZuVvnFlmcchM.jpg", "adult": false, "overview": "Set in 1879 Paris. An orphan girl dreams of becoming a ballerina and flees her rural Brittany for Paris, where she passes for someone else and accedes to the position of pupil at the Grand Opera house.", "poster_path": "/qBxMhcmNnFniuDAZTKEHcSgKtsn.jpg", "popularity": 24.47}, {"id": 10545, "video": false, "vote_count": 3018, "vote_average": 7.0, "title": "The Hunchback of Notre Dame", "release_date": "1996-06-21", "original_language": "en", "original_title": "The Hunchback of Notre Dame", "genre_ids": [16, 18, 10751], "backdrop_path": "/oslaee3VX9kJAjVezbjZKlEJDzn.jpg", "adult": false, "overview": "When Quasimodo defies the evil Frollo and ventures out to the Festival of Fools, the cruel crowd jeers him. Rescued by fellow outcast the gypsy Esmeralda, Quasi soon finds himself battling to save the people and the city he loves.", "poster_path": "/r7V92gY3AMO6li17MmGTixAnFcv.jpg", "popularity": 28.041}, {"id": 2976, "video": false, "vote_count": 1691, "vote_average": 6.6, "title": "Hairspray", "release_date": "2007-07-13", "original_language": "en", "original_title": "Hairspray", "genre_ids": [35, 18, 10749], "backdrop_path": "/yafOInYuEuK6FOw1oK40Lggp0TV.jpg", "adult": false, "overview": "Pleasantly plump teenager Tracy Turnblad auditions to be on Baltimore's most popular dance show - The Corny Collins Show - and lands a prime spot. Through her newfound fame, she becomes determined to help her friends and end the racial segregation that has been a staple of the show.", "poster_path": "/ndOpIx4BXpFCRRIxgMoGHxZxlE9.jpg", "popularity": 30.447}, {"id": 313369, "video": false, "vote_count": 11063, "vote_average": 7.9, "title": "La La Land", "release_date": "2016-11-29", "original_language": "en", "original_title": "La La Land", "genre_ids": [35, 18, 10402, 10749], "backdrop_path": "/fp6X6yhgcxzxCpmM0EVC6V9B8XB.jpg", "adult": false, "overview": "Mia, an aspiring actress, serves lattes to movie stars in between auditions and Sebastian, a jazz musician, scrapes by playing cocktail party gigs in dingy bars, but as success mounts they are faced with decisions that begin to fray the fragile fabric of their love affair, and the dreams they worked so hard to maintain in each other threaten to rip them apart.", "poster_path": "/ylXCdC106IKiarftHkcacasaAcb.jpg", "popularity": 39.654}, {"id": 9762, "video": false, "vote_count": 2460, "vote_average": 6.8, "title": "Step Up", "release_date": "2006-08-11", "original_language": "en", "original_title": "Step Up", "genre_ids": [80, 18, 10402, 10749], "backdrop_path": "/sKD3PfyP1u4tcoVQkpiAZqnx4H8.jpg", "adult": false, "overview": "Everyone deserves a chance to follow their dreams, but some people only get one shot. Tyler Gage is a rebel from the wrong side of Baltimore's tracks and the only thing that stands between him and an unfulfilled life are his dreams of one day making it out of there. Nora is a privileged ballet dancer attending Baltimore's ultra-elite Maryland School of the Arts", "poster_path": "/gyLww7ZlcwuzqvIwM1osR9Ioqtm.jpg", "popularity": 22.316}, {"id": 10527, "video": false, "vote_count": 4220, "vote_average": 6.4, "title": "Madagascar: Escape 2 Africa", "release_date": "2008-10-30", "original_language": "en", "original_title": "Madagascar: Escape 2 Africa", "genre_ids": [16, 35, 10751], "backdrop_path": "/anxiz37Z9FPKeuCsJcxViSWmPxg.jpg", "adult": false, "overview": "Alex, Marty, and other zoo animals find a way to escape from Madagascar when the penguins reassemble a wrecked airplane. The precariously repaired craft stays airborne just long enough to make it to the African continent. There the New Yorkers encounter members of their own species for the first time. Africa proves to be a wild place, but Alex and company wonder if it is better than their Central Park home.", "poster_path": "/9mohxwknsHcwFBSAAhoQXwFV5zn.jpg", "popularity": 23.58}, {"adult": false, "backdrop_path": "/nlwzLx5WVZPZDwXvexGGfaktts7.jpg", "genre_ids": [878, 53, 10749], "id": 38050, "original_language": "en", "original_title": "The Adjustment Bureau", "overview": "A man glimpses the future Fate has planned for him \u2013 and chooses to fight for his own destiny. Battling the powerful Adjustment Bureau across, under and through the streets of New York, he risks his destined greatness to be with the only woman he's ever loved.", "poster_path": "/g87PqGH9Oo3d3Tbczcfk7ZMAIEk.jpg", "release_date": "2011-03-03", "title": "The Adjustment Bureau", "video": false, "vote_average": 6.7, "vote_count": 2861, "popularity": 15.293}, {"id": 8328, "video": false, "vote_count": 1486, "vote_average": 6.6, "title": "Step Up 2: The Streets", "release_date": "2008-02-14", "original_language": "en", "original_title": "Step Up 2: The Streets", "genre_ids": [18, 10402, 10749], "backdrop_path": "/fGq48GZp2PLVgx9IwW5lBf4DBYJ.jpg", "adult": false, "overview": "When rebellious street dancer Andie lands at the elite Maryland School of the Arts, she finds herself fighting to fit in while also trying to hold onto her old life. When she joins forces with the schools hottest dancer, Chase, to form a crew of classmate outcasts to compete in Baltimore s underground dance battle The Streets.", "poster_path": "/5SwoeOUyfkS8s6aGB2bLYAL5jKR.jpg", "popularity": 18.121}, {"id": 20352, "video": false, "vote_count": 10785, "vote_average": 7.2, "title": "Despicable Me", "release_date": "2010-07-08", "original_language": "en", "original_title": "Despicable Me", "genre_ids": [16, 35, 10751], "backdrop_path": "/yo1ef57MEPkEE4BDZKTZGH9uDcX.jpg", "adult": false, "overview": "Villainous Gru lives up to his reputation as a despicable, deplorable and downright unlikable guy when he hatches a plan to steal the moon from the sky. But he has a tough time staying on task after three orphans land in his care.", "poster_path": "/4zHJhBSY4kNZXfhTlmy2TzXD51M.jpg", "popularity": 35.41}, {"id": 507076, "video": false, "vote_count": 632, "vote_average": 7.1, "title": "Climax", "release_date": "2018-09-19", "original_language": "fr", "original_title": "Climax", "genre_ids": [18, 27, 10402], "backdrop_path": "/v0sblc9A8eaE8EqDQ5Y6fELj4oB.jpg", "adult": false, "overview": "Young dancers gather in a remote and empty school building to rehearse on a cold and wintry night. The all-night celebration soon turns into a hallucinatory nightmare when they learn that their sangria is laced with LSD.", "poster_path": "/zQDqgzSdTGSDu4rDcQTq7TAttmy.jpg", "popularity": 17.873}, {"id": 382399, "video": false, "vote_count": 707, "vote_average": 7.1, "title": "High Strung", "release_date": "2016-04-08", "original_language": "en", "original_title": "High Strung", "genre_ids": [18, 10402, 10749], "backdrop_path": "/elSS1VQHKZF1j2ZxOnVdA2VhZzU.jpg", "adult": false, "overview": "When a hip hop violinist busking in the New York subway encounters a classical dancer on scholarship at the Manhattan Conservatory of the Arts, sparks fly. With the help of a hip hop dance crew they must find a common ground while preparing for a competition that could change their lives forever.", "poster_path": "/vBpiQ4urEIlSOntCaNNMkb1SBNR.jpg", "popularity": 14.016}, {"adult": false, "backdrop_path": "/4rHlXwRldJZDfdQhaOfNbWwwG11.jpg", "genre_ids": [18, 10402], "id": 10560, "original_language": "en", "original_title": "Center Stage", "overview": "A group of 12 teenagers from various backgrounds enroll at the American Ballet Academy in New York to make it as ballet dancers and each one deals with the problems and stress of training and getting ahead in the world of dance.", "poster_path": "/hCR9r2hE0woymx62pymQ0Bs4mk7.jpg", "release_date": "2000-05-12", "title": "Center Stage", "video": false, "vote_average": 6.9, "vote_count": 195, "popularity": 11.477}, {"id": 71, "video": false, "vote_count": 2231, "vote_average": 7.6, "title": "Billy Elliot", "release_date": "2000-05-18", "original_language": "en", "original_title": "Billy Elliot", "genre_ids": [35, 18, 10402], "backdrop_path": "/vlnhKUvu335ZM8wSD27MaFHpNu2.jpg", "adult": false, "overview": "Set against the background of the 1984 Miners' Strike, 11-year-old Billy Elliot stumbles out of the boxing ring and onto the ballet floor. He faces many trials and triumphs as he strives to conquer his family's set ways, inner conflict, and standing on his toes.", "poster_path": "/6VaP1H3MOW5jdkWqS5Q1NapCOS6.jpg", "popularity": 19.875}, {"adult": false, "backdrop_path": "/iV3FuoJa6d6LtYVteQxLgoW19X.jpg", "genre_ids": [18, 10749, 10402], "id": 85373, "original_language": "en", "original_title": "StreetDance 2", "overview": "After suffering humiliation by the crew Invincible, street dancer Ash looks to gather the best dancers from around the world for a rematch.", "poster_path": "/5EVriguQ8N0s4DGCPPhYingOeLd.jpg", "release_date": "2012-03-30", "title": "StreetDance 2", "video": false, "vote_average": 5.9, "vote_count": 233, "popularity": 12.611}, {"id": 11906, "video": false, "vote_count": 1329, "vote_average": 7.6, "title": "Suspiria", "release_date": "1977-02-01", "original_language": "it", "original_title": "Suspiria", "genre_ids": [27], "backdrop_path": "/i8lyb818XNNGaXiL6qHSxVNodKy.jpg", "adult": false, "overview": "From the moment she arrives in Freiberg, Germany, to attend the prestigious Tanz Academy, American ballet-dancer Suzy Bannion senses that something horribly evil lurks within the walls of the age-old institution.", "poster_path": "/qtHlaxwLIKuZCHjFaHa2IGYWe4C.jpg", "popularity": 15.439}, {"adult": false, "backdrop_path": "/bvAWDh5CpRDN0HAm4oDS9V2PQ7G.jpg", "genre_ids": [10770, 18, 10751], "id": 20497, "original_language": "en", "original_title": "Ballet Shoes", "overview": "An unusual explorer named Gum and his kindly niece adopt three orphans -- Pauline, Petrova and Posy -- and raise them as sisters in 1930s London. But the girls must fend for themselves when Gum doesn't return from one of his adventures. Together, they nurture their passions for acting, aviation and ballet in this charming TV adaptation of Noel Streatfield's novel.", "poster_path": "/6ToVeBxxJVMbXnLktGcuTuALcxU.jpg", "release_date": "2008-08-26", "title": "Ballet Shoes", "video": false, "vote_average": 6.4, "vote_count": 187, "popularity": 23.297}], "total_pages": 45, "total_results": 892}, "recommendations": {"page": 1, "results": [], "total_pages": 1, "total_results": 0}, "credits": {"cast": [{"cast_id": 2, "character": "Herself", "credit_id": "58abe712c3a36849ea00f16e", "gender": 1, "id": 1762627, "name": "Bobbi Jene Smith", "order": 1, "profile_path": "/muPuef6RKcDClVbElE24zjrAXhA.jpg"}, {"cast_id": 3, "character": "Himself", "credit_id": "58abe7f992514158df00feae", "gender": 0, "id": 1625662, "name": "Ohad Naharin", "order": 2, "profile_path": null}, {"cast_id": 4, "character": "Himself", "credit_id": "58abe80a9251415900010b7c", "gender": 0, "id": 1762628, "name": "Or Schraiber", "order": 3, "profile_path": null}, {"cast_id": 5, "character": "Herself", "credit_id": "5a2193290e0a264cc10a529b", "gender": 1, "id": 4784, "name": "Laura Dern", "order": 4, "profile_path": "/2Ryt0SsExqWrLTzBu6sZcbLwoDJ.jpg"}, {"cast_id": 6, "character": "Himself", "credit_id": "5a4de027925141734c006449", "gender": 2, "id": 25072, "name": "Oscar Isaac", "order": 5, "profile_path": "/cY6ail3ebXDx9FCoZMgVGAbmBus.jpg"}], "crew": [{"credit_id": "5a7d79dec3a36844990049e7", "department": "Editing", "gender": 0, "id": 34861, "job": "Editor", "name": "Adam Nielsen", "profile_path": null}, {"credit_id": "5a7d7a8792514154fe004b36", "department": "Production", "gender": 0, "id": 548843, "job": "Producer", "name": "Sara Stockmann", "profile_path": null}, {"credit_id": "58abe6f7c3a36849f600e2ef", "department": "Writing", "gender": 0, "id": 1389724, "job": "Screenplay", "name": "Elvira Lind", "profile_path": null}, {"credit_id": "58abe6eb92514159000109a7", "department": "Directing", "gender": 0, "id": 1389724, "job": "Director", "name": "Elvira Lind", "profile_path": null}, {"credit_id": "5a7d79fb0e0a263e85004e04", "department": "Camera", "gender": 0, "id": 1389724, "job": "Director of Photography", "name": "Elvira Lind", "profile_path": null}]}}