{"adult": false, "backdrop_path": "/xANyxN0dyqKiyq7FAE3HsSV0W0Z.jpg", "belongs_to_collection": null, "budget": 0, "genres": [{"id": 35, "name": "Comedy"}], "homepage": null, "id": 44409, "imdb_id": "tt0011521", "original_language": "en", "original_title": "Number, Please?", "overview": "While at an amusement park, trying vainly to forget the girl he has lost, a young man sees the girl with her new boyfriend. When her dog gets loose in the park, both suitors have to help her catch it. Then, the girl's uncle, a balloonist, gives her a pass for two in his balloon, provided that her mother approves. She then offers to take along the first of her admirers who is able to get her mother's consent.", "popularity": 2.717, "poster_path": "/dvnifLyYcvhFuWhWgXdXOQGzJuw.jpg", "production_companies": [{"id": 18789, "logo_path": null, "name": "Rolin Films", "origin_country": ""}], "production_countries": [{"iso_3166_1": "US", "name": "United States of America"}], "release_date": "1920-12-26", "revenue": 0, "runtime": 25, "spoken_languages": [{"iso_639_1": "xx", "name": "No Language"}], "status": "Released", "tagline": "", "title": "Number, Please?", "video": false, "vote_average": 6.3, "vote_count": 13, "keywords": {"keywords": [{"id": 154802, "name": "silent film"}]}, "similar": {"page": 1, "results": [{"id": 901, "video": false, "vote_count": 1026, "vote_average": 8.4, "title": "City Lights", "release_date": "1931-02-01", "original_language": "xx", "original_title": "City Lights", "genre_ids": [35, 18, 10749], "backdrop_path": "/vT6ux2rdyg2kexuLisO5Ygz7pHg.jpg", "adult": false, "overview": "City Lights is the first silent film that Charlie Chaplin directed after he established himself with sound accompanied films. The film is about a penniless man who falls in love with a flower girl.", "poster_path": "/bXNvzjULc9jrOVhGfjcc64uKZmZ.jpg", "popularity": 14.645}, {"adult": false, "backdrop_path": "/wcT7srQ4GeeMqlszMFEtPZ7v8T7.jpg", "genre_ids": [35, 10749], "id": 28978, "original_language": "en", "original_title": "The Circus", "overview": "Charlie, a wandering tramp, becomes a circus handyman and falls in love with the circus owner's daughter. Unaware of Charlie's affection, the girl falls in love with a handsome young performer. Charlie's versatility makes him star of the show when he substitutes for an ailing tightwire walker. He is discharged from the company when he protects the girl from her father's abuse, but he returns and appeals to the handsome performer to marry the girl. After the wedding the father prevails upon them to rejoin the circus. Charlie is hired again, but he stays behind when the caravan moves on.", "poster_path": "/awTf4Y6TGvgi3VYtGNINyyJJy9Q.jpg", "release_date": "1928-01-06", "title": "The Circus", "video": false, "vote_average": 8.2, "vote_count": 330, "popularity": 12.839}, {"adult": false, "backdrop_path": "/hPByrqJXCXIViFheXQh48wtI7T6.jpg", "genre_ids": [16, 12, 14, 10751], "id": 31135, "original_language": "en", "original_title": "Mickey Mouse: Mickey and the Beanstalk", "overview": "Based on the timeless adventures of \"Jack and the Beanstalk,\" Mickey, Donald and Goofy climb a fantastic beanstalk up into the sky to a place where everything is huge -- the food, the castle and the fearsome giant named Willy who guards a beautiful golden harp! Will Mickey and his friends outwit the giant and make it safely back home?", "poster_path": "/kk1Xg1f1lv6loekjlKinpKJlGOu.jpg", "release_date": "1947-09-27", "title": "Mickey Mouse: Mickey and the Beanstalk", "video": false, "vote_average": 6.7, "vote_count": 166, "popularity": 13.649}, {"id": 21385, "video": false, "vote_count": 455, "vote_average": 6.4, "title": "Mickey, Donald, Goofy: The Three Musketeers", "release_date": "2004-08-04", "original_language": "en", "original_title": "Mickey, Donald, Goofy: The Three Musketeers", "genre_ids": [12, 16, 35, 10751], "backdrop_path": "/8WodHELOg5guFPMIQf0M88IQhNE.jpg", "adult": false, "overview": "In Disney's take on the Alexander Dumas tale, Mickey Mouse, Donald Duck and Goofy want nothing more than to perform brave deeds on behalf of their queen (Minnie Mouse), but they're stymied by the head Musketeer, Pete. Pete secretly wants to get rid of the queen, so he appoints Mickey and his bumbling friends as guardians to Minnie, thinking such a maneuver will ensure his scheme's success. The score features songs based on familiar classical melodies.", "poster_path": "/uDvv54as7hLH7aWHwPyIVvoNb9K.jpg", "popularity": 27.432}, {"id": 10258, "video": false, "vote_count": 148, "vote_average": 6.6, "title": "The Madagascar Penguins in a Christmas Caper", "release_date": "2005-09-23", "original_language": "en", "original_title": "The Madagascar Penguins in a Christmas Caper", "genre_ids": [16, 35, 10751], "backdrop_path": "/gdJ6j1hmt6dQgObWxDJAHUb58o6.jpg", "adult": false, "overview": "During the holiday season, when the animals of the Central Park Zoo are preparing for Christmas, Private, the youngest of the penguins notices that the Polar Bear is all alone. Assured that nobody should have to spend Christmas alone, Private goes into the city for some last-minute Christmas shopping. Along the way, he gets stuffed into a stocking", "poster_path": "/r8QtfGSjDaY6vICRVyYvZvTkjxc.jpg", "popularity": 13.032}, {"id": 10527, "video": false, "vote_count": 4220, "vote_average": 6.4, "title": "Madagascar: Escape 2 Africa", "release_date": "2008-10-30", "original_language": "en", "original_title": "Madagascar: Escape 2 Africa", "genre_ids": [16, 35, 10751], "backdrop_path": "/anxiz37Z9FPKeuCsJcxViSWmPxg.jpg", "adult": false, "overview": "Alex, Marty, and other zoo animals find a way to escape from Madagascar when the penguins reassemble a wrecked airplane. The precariously repaired craft stays airborne just long enough to make it to the African continent. There the New Yorkers encounter members of their own species for the first time. Africa proves to be a wild place, but Alex and company wonder if it is better than their Central Park home.", "poster_path": "/9mohxwknsHcwFBSAAhoQXwFV5zn.jpg", "popularity": 23.58}, {"adult": false, "backdrop_path": "/tr6OExnBfjLADi9OyZoW308mPAp.jpg", "genre_ids": [18, 35, 10749], "id": 74643, "original_language": "en", "original_title": "The Artist", "overview": "Hollywood, 1927: As silent movie star George Valentin wonders if the arrival of talking pictures will cause him to fade into oblivion, he sparks with Peppy Miller, a young dancer set for a big break.", "poster_path": "/i0mpvMIIjyubXsVKug9vX0lYpnd.jpg", "release_date": "2011-06-26", "title": "The Artist", "video": false, "vote_average": 7.4, "vote_count": 1977, "popularity": 10.661}, {"id": 460793, "video": false, "vote_count": 933, "vote_average": 6.2, "title": "Olaf's Frozen Adventure", "release_date": "2017-10-27", "original_language": "en", "original_title": "Olaf's Frozen Adventure", "genre_ids": [12, 16, 35, 14, 10402, 10751], "backdrop_path": "/9K4QqQZg4TVXcxBGDiVY4Aey3Rn.jpg", "adult": false, "overview": "Olaf is on a mission to harness the best holiday traditions for Anna, Elsa, and Kristoff.", "poster_path": "/As8WTtxXs9e3cBit3ztTf7zoRmm.jpg", "popularity": 26.393}, {"id": 14787, "video": false, "vote_count": 124, "vote_average": 6.4, "title": "Tom and Jerry: The Magic Ring", "release_date": "2002-03-12", "original_language": "en", "original_title": "Tom and Jerry: The Magic Ring", "genre_ids": [28, 16, 35, 14, 10751], "backdrop_path": "/wPvYwB9NYUJRXIzjKeupigE1JXc.jpg", "adult": false, "overview": "The world's favourite cat and mouse team bounds back into action in an all-new full-length animated adventure certain to cast its spell over the entire family Left in charge of a priceless magical ring by his young wizard master, Tom is horrified when the ring gets stuck on Jerry's head, who then runs off into the city! Before you can say \"abracadabra\", the entire town is hot on our heroes' tails.", "poster_path": "/fF6I48WGKktHfGYYSVKPTVildWE.jpg", "popularity": 15.019}, {"adult": false, "backdrop_path": "/twGxeStlGooWV3gP6ZIcSNuQ6jf.jpg", "genre_ids": [12, 16, 10751, 14], "id": 81684, "original_language": "en", "original_title": "The Gruffalo's Child", "overview": "A follow up to the 2009 animated feature and adapted from the childrens' book by Julia Donaldson and Alex Scheffler.  The Gruffalo's child explores the deep dark wood in search of the big bad mouse and meets the Snake, Owl and Fox in the process.  She eventually finds the mouse, who manages to outwit her like the Gruffalo before!", "poster_path": "/qaGH2AoaLvoGXURQtNzj1nw6oZd.jpg", "release_date": "2011-12-25", "title": "The Gruffalo's Child", "video": false, "vote_average": 6.9, "vote_count": 73, "popularity": 9.51}, {"adult": false, "backdrop_path": null, "genre_ids": [], "id": 616262, "original_language": "ar", "original_title": "All Come From Dust", "overview": "A loop of edgeless bend. You were its doom, he was its bloom. You were its tomb, he was its womb. You were its gloom, he was its loom. For Heaven and Hell, were words made of fume.", "poster_path": null, "release_date": "2019-08-13", "title": "All Come From Dust", "video": false, "vote_average": 5.0, "vote_count": 1, "popularity": 0.6}, {"id": 621733, "video": false, "vote_count": 0, "vote_average": 0.0, "title": "A Trip to the Seaside", "release_date": "2019-08-30", "original_language": "en", "original_title": "A Trip to the Seaside", "genre_ids": [99], "backdrop_path": null, "adult": false, "overview": "Experimental short film on the excitement and rush of a day trip", "poster_path": "/AuZVhpoJ4jm2LWDhoJKfxQfhDAi.jpg", "popularity": 1.324}, {"id": 240832, "video": false, "vote_count": 10809, "vote_average": 6.3, "title": "Lucy", "release_date": "2014-07-25", "original_language": "en", "original_title": "Lucy", "genre_ids": [28, 878], "backdrop_path": "/eCgIoGvfNXrbSiQGqQHccuHjQHm.jpg", "adult": false, "overview": "A woman, accidentally caught in a dark deal, turns the tables on her captors and transforms into a merciless warrior evolved beyond human logic.", "poster_path": "/rwn876MeqienhOVSSjtUPnwxn0Z.jpg", "popularity": 24.332}, {"id": 828, "video": false, "vote_count": 557, "vote_average": 7.5, "title": "The Day the Earth Stood Still", "release_date": "1951-09-17", "original_language": "en", "original_title": "The Day the Earth Stood Still", "genre_ids": [878], "backdrop_path": "/uExEupzfV7Ffau0H98aefUU0zcG.jpg", "adult": false, "overview": "An alien and a robot land on earth after World War II and tell mankind to be peaceful or face destruction. A classic science fiction film from Robert Wise with an exceptional message.", "poster_path": "/x2DquTpLTq54aPFDnqlwY7apCC3.jpg", "popularity": 30.427}, {"id": 75612, "video": false, "vote_count": 7401, "vote_average": 6.5, "title": "Oblivion", "release_date": "2013-04-10", "original_language": "en", "original_title": "Oblivion", "genre_ids": [28, 12, 9648, 878], "backdrop_path": "/8TE77jL2e4zdERpv8hnBAHUmFRx.jpg", "adult": false, "overview": "Jack Harper is one of the last few drone repairmen stationed on Earth.  Part of a massive operation to extract vital resources after decades of war with a terrifying threat known as the Scavs, Jack\u2019s mission is nearly complete.  His existence is brought crashing down when he rescues a beautiful  stranger from a downed spacecraft.  Her arrival triggers a chain of events that  forces him to question everything he knows and puts the fate of humanity in his hands.", "poster_path": "/hmOzkHlkGvi8x24fYpFSnXvjklv.jpg", "popularity": 34.598}, {"id": 157336, "video": false, "vote_count": 20609, "vote_average": 8.3, "title": "Interstellar", "release_date": "2014-11-05", "original_language": "en", "original_title": "Interstellar", "genre_ids": [12, 18, 878], "backdrop_path": "/xu9zaAevzQ5nnrsXN6JcahLnG4i.jpg", "adult": false, "overview": "Interstellar chronicles the adventures of a group of explorers who make use of a newly discovered wormhole to surpass the limitations on human space travel and conquer the vast distances involved in an interstellar voyage.", "poster_path": "/nBNZadXqJSdt05SHLqgT0HuC5Gm.jpg", "popularity": 53.312}, {"id": 369972, "video": false, "vote_count": 2999, "vote_average": 7.1, "title": "First Man", "release_date": "2018-10-11", "original_language": "en", "original_title": "First Man", "genre_ids": [18, 36], "backdrop_path": "/jrudoaXcoLyHRPdolyOGemXgPEs.jpg", "adult": false, "overview": "A look at the life of the astronaut, Neil Armstrong, and the legendary space mission that led him to become the first man to walk on the Moon on July 20, 1969.", "poster_path": "/i91mfvFcPPlaegcbOyjGgiWfZzh.jpg", "popularity": 33.506}, {"adult": false, "backdrop_path": "/pc7a2qrIkIxzqWGqcexd3mHzIxy.jpg", "genre_ids": [28, 53, 12], "id": 56292, "original_language": "en", "original_title": "Mission: Impossible - Ghost Protocol", "overview": "Ethan Hunt and his team are racing against time to track down a dangerous terrorist named Hendricks, who has gained access to Russian nuclear launch codes and is planning a strike on the United States. An attempt to stop him ends in an explosion causing severe destruction to the Kremlin and the IMF to be implicated in the bombing, forcing the President to disavow them. No longer being aided by the government, Ethan and his team chase Hendricks around the globe, although they might still be too late to stop a disaster.", "poster_path": "/s58mMsgIVOFfoXPtwPWJ3hDYpXf.jpg", "release_date": "2011-12-07", "title": "Mission: Impossible - Ghost Protocol", "video": false, "vote_average": 7.0, "vote_count": 6591, "popularity": 29.242}, {"id": 158852, "video": false, "vote_count": 4945, "vote_average": 6.2, "title": "Tomorrowland", "release_date": "2015-05-19", "original_language": "en", "original_title": "Tomorrowland", "genre_ids": [12, 9648, 878, 10751], "backdrop_path": "/fQbc5XuB4vWA9gnY1CmyxFaOufF.jpg", "adult": false, "overview": "Bound by a shared destiny, a bright, optimistic teen bursting with scientific curiosity and a former boy-genius inventor jaded by disillusionment embark on a danger-filled mission to unearth the secrets of an enigmatic place somewhere in time and space that exists in their collective memory as \"Tomorrowland.\"", "poster_path": "/69Cz9VNQZy39fUE2g0Ggth6SBTM.jpg", "popularity": 39.867}, {"id": 271110, "video": false, "vote_count": 15266, "vote_average": 7.4, "title": "Captain America: Civil War", "release_date": "2016-04-27", "original_language": "en", "original_title": "Captain America: Civil War", "genre_ids": [28, 12, 878], "backdrop_path": "/m5O3SZvQ6EgD5XXXLPIP1wLppeW.jpg", "adult": false, "overview": "Following the events of Age of Ultron, the collective governments of the world pass an act designed to regulate all superhuman activity. This polarizes opinion amongst the Avengers, causing two factions to side with Iron Man or Captain America, which causes an epic battle between former allies.", "poster_path": "/kSBXou5Ac7vEqKd97wotJumyJvU.jpg", "popularity": 53.9}], "total_pages": 830, "total_results": 16596}, "recommendations": {"page": 1, "results": [{"id": 44406, "video": false, "vote_count": 8, "vote_average": 6.9, "title": "A Sailor-Made Man", "release_date": "1921-12-25", "original_language": "en", "original_title": "A Sailor-Made Man", "genre_ids": [35], "backdrop_path": "/7SiOWIGfjRhMOzFpFMSscsZNlQG.jpg", "adult": false, "overview": "An idle, wealthy playboy foolishly joins the Navy when the father of the girl he wants to marry tells him to get a job to prove himself worthy.", "poster_path": "/qM3SmoCevYbSNKprMiBTBjMKfEP.jpg", "popularity": 2.92}, {"id": 147846, "video": false, "vote_count": 5, "vote_average": 5.2, "title": "The Letter", "release_date": "1929-03-17", "original_language": "en", "original_title": "The Letter", "genre_ids": [18], "backdrop_path": "/wyxMz2zEyD6Q3kdX7WWqVyMnleI.jpg", "adult": false, "overview": "A planter's wife shoots a neighbor, but tells conflicting stories of what happened.", "poster_path": "/anpkd2pGE0WUaTmhMcbFLjGcfO8.jpg", "popularity": 2.383}, {"adult": false, "backdrop_path": "/eLndov3mVsYa6kUc1lTeY0gDi0p.jpg", "genre_ids": [10749, 35], "id": 186431, "original_language": "en", "original_title": "Her Night of Romance", "overview": "An impoverished British lord (Paul Menford) impersonates a doctor in order to woo an ailing American heiress (Dorothy Adams). The lord is in it for love, but his business associate (Joe Diamond) smells money.", "poster_path": "/l7pLERjoS7UKziEb1t71qZtoSIf.jpg", "release_date": "1924-11-24", "title": "Her Night of Romance", "video": false, "vote_average": 7.8, "vote_count": 4, "popularity": 1.921}, {"adult": false, "backdrop_path": "/8aHA9R6esJNcss3kiDn7S2bLJD.jpg", "genre_ids": [35], "id": 53519, "original_language": "en", "original_title": "High and Dizzy", "overview": "A tipsy doctor encounters his patient sleepwalking on a building ledge, high above the street.", "poster_path": "/ddvVOCc9Mj19aU0crhexqCgQPmX.jpg", "release_date": "1920-07-11", "title": "High and Dizzy", "video": false, "vote_average": 6.6, "vote_count": 11, "popularity": 1.658}, {"adult": false, "backdrop_path": "/gFXJp6BFbLvxpVMD91HDCd6kmsL.jpg", "genre_ids": [35], "id": 53528, "original_language": "en", "original_title": "Welcome Danger", "overview": "A gentle botany student has to toughen up to replace his father as chief of police.", "poster_path": "/hzDIm9R2De7BFvDA4dMriD8VMel.jpg", "release_date": "1929-10-12", "title": "Welcome Danger", "video": false, "vote_average": 5.3, "vote_count": 9, "popularity": 2.216}, {"adult": false, "backdrop_path": "/fGioD1AHRfknkgjLReBdpYOgCMn.jpg", "genre_ids": [18], "id": 87894, "original_language": "en", "original_title": "Mr. Wu", "overview": "A Chinese patriarch goes mad when his daughter falls for an Englishman.", "poster_path": "/nnTrqMKgHtGuCiGbs28Gu9mKL0g.jpg", "release_date": "1927-03-26", "title": "Mr. Wu", "video": false, "vote_average": 6.0, "vote_count": 8, "popularity": 3.636}, {"adult": false, "backdrop_path": "/S1woYJv1UZewcQYhn5wXV5fU98.jpg", "genre_ids": [35, 10751, 18], "id": 158800, "original_language": "en", "original_title": "A Majority of One", "overview": "A gentle love story about a Japanese businessman and widower, and a Brooklyn widow. But before a happy ending can ensue, they must learn again the lessons of tolerance, kindness and forgiveness.", "poster_path": "/6wXtf2UH3mqQCwviTkJ3p6QzqnH.jpg", "release_date": "1961-12-27", "title": "A Majority of One", "video": false, "vote_average": 5.9, "vote_count": 8, "popularity": 2.675}, {"adult": false, "backdrop_path": "/4y4m7dm3hS86JuuppuPaXjpFnO5.jpg", "genre_ids": [35, 10749], "id": 175689, "original_language": "en", "original_title": "Rosita", "overview": "The King tosses Rosita in jail and when Don Diego, who Rosita loves, tries to defend her, he too is thrown in jail. While Don Diego is sentenced to be executed, the King lusts after Rosita and decides to put her up in a luxurious villa. To give her a title, he marries her to a masked nobleman, who turns out to be Don Diego.", "poster_path": "/nVqbdEhH304to5WFFQApfYsNcob.jpg", "release_date": "1923-09-03", "title": "Rosita", "video": false, "vote_average": 6.9, "vote_count": 6, "popularity": 1.771}, {"id": 75804, "video": false, "vote_count": 9, "vote_average": 6.3, "title": "The Toll of the Sea", "release_date": "1922-11-26", "original_language": "en", "original_title": "The Toll of the Sea", "genre_ids": [18, 14, 10751], "backdrop_path": "/bJJQ44KcnemptXXenQoKvelFa9y.jpg", "adult": false, "overview": "An American sailor marries then deserts the Chinese beauty who had saved his life.", "poster_path": "/ikQ7YoQ46AitwDsGTvIzoXaoMUL.jpg", "popularity": 3.003}, {"adult": false, "backdrop_path": "/l3ZyP5r7C3PiWMn19Hw3brpkZm6.jpg", "genre_ids": [10749, 36, 18], "id": 174711, "original_language": "en", "original_title": "A Tale of Two Cities", "overview": "At the outbreak of the French Revolution, Charles Darnay goes to Paris to rescue an imprisoned former family servant. He is himself imprisoned and condemned by the revolutionary forces there. His wife, the former Lucie Manette, is secretly loved by a gentlemanly wastrel, Sydney Carton. Carton embarks on a daring plan to save the husband of the woman he loves.", "poster_path": "/aglZd1F4YmVK1xiDHnJpZu9eYWF.jpg", "release_date": "1917-03-10", "title": "A Tale of Two Cities", "video": false, "vote_average": 4.4, "vote_count": 4, "popularity": 1.657}, {"adult": false, "backdrop_path": "/5KWrN8LHaCnSq7MSkGLQgTimLv6.jpg", "genre_ids": [35], "id": 53512, "original_language": "en", "original_title": "Ask Father", "overview": "Lloyd is a serious young middle-class guy on the make who wants to marry the boss\u2019 daughter. The problem is getting in to see the boss so that he can ask for her hand in marriage as the office is guarded by a bunch of comic, clumsy flunkies who throw everyone out who tries to get in.", "poster_path": "/o1Jq6RxNkD4GkDbSx6VzWLra79S.jpg", "release_date": "1919-02-09", "title": "Ask Father", "video": false, "vote_average": 6.4, "vote_count": 10, "popularity": 1.912}, {"adult": false, "backdrop_path": "/6qUAKk52jeLRbxxMR6dzIXdvUOg.jpg", "genre_ids": [35], "id": 44405, "original_language": "en", "original_title": "Never Weaken", "overview": "Our hero (Lloyd) is infatuated with a girl in the next office. In order to drum up business for her boss, an osteopath, he gets an actor friend to pretend injuries that the doctor \"cures\", thereby building a reputation. When he hears that his girl is marrying another, he decides to commit suicide and spends the bulk of the film in thrilling, failed attempts.", "poster_path": "/rr9Sv5sbodIBhwrn5CLgJZzLaDC.jpg", "release_date": "1921-10-22", "title": "Never Weaken", "video": false, "vote_average": 6.7, "vote_count": 18, "popularity": 3.018}, {"adult": false, "backdrop_path": "/4GoY5XtIpALn66D2akKUDfYAdtf.jpg", "genre_ids": [35], "id": 53526, "original_language": "en", "original_title": "I Do", "overview": "Comic adventures of newlyweds and children.", "poster_path": "/488qsxof6zfm7PzgGMMgDnQjvUi.jpg", "release_date": "1921-09-11", "title": "I Do", "video": false, "vote_average": 5.5, "vote_count": 11, "popularity": 2.352}, {"adult": false, "backdrop_path": "/eOy1ckYL66RifuQE44n1DiCwsWz.jpg", "genre_ids": [35], "id": 53523, "original_language": "en", "original_title": "Get Out and Get Under", "overview": "The comic adventures of a new car owner.", "poster_path": "/3lnIIBukcf7LWTorRiAGSX3Kwkt.jpg", "release_date": "1920-09-26", "title": "Get Out and Get Under", "video": false, "vote_average": 6.2, "vote_count": 7, "popularity": 1.677}, {"adult": false, "backdrop_path": "/7s4AlTHwCo8E4H0LSL5Rwj9yY2n.jpg", "genre_ids": [35, 28], "id": 42362, "original_language": "en", "original_title": "From Hand to Mouth", "overview": "As a penniless man worries about how he will manage to eat, he is joined by a young waif and her dog, who are in the same predicament. Meanwhile, across town a dishonest lawyer is working with a gang of criminals, trying to swindle an innocent young heiress out of her inheritance. As the heiress is on her way home from the lawyer's office, she notices the young man and the waif in the midst of their latest problem with the authorities, and she rescues them. Later on, the young man will have an unexpected opportunity to repay her for her kindness.", "poster_path": "/cY7qnVqja7DrpSG5WjBHpaBNgX0.jpg", "release_date": "1919-12-28", "title": "From Hand to Mouth", "video": false, "vote_average": 6.6, "vote_count": 13, "popularity": 1.414}, {"id": 141868, "video": false, "vote_count": 7, "vote_average": 5.6, "title": "Fatty and Mabel Adrift", "release_date": "1916-01-09", "original_language": "en", "original_title": "Fatty and Mabel Adrift", "genre_ids": [35], "backdrop_path": "/zS6fYwNeZp34BMp2FVJX9japxGo.jpg", "adult": false, "overview": "Villains launch Fatty and Mabel's beachfront house into the ocean.", "poster_path": "/tqoyOX9mBaccFnmgzHkBioA29PW.jpg", "popularity": 1.717}, {"adult": false, "backdrop_path": "/dj8R2sd91iqW4wIpHc3PjfPwx8f.jpg", "genre_ids": [10749, 35, 28], "id": 42368, "original_language": "en", "original_title": "For Heaven's Sake", "overview": "An irresponsible young millionaire changes his tune when he falls for the daughter of a downtown minister.", "poster_path": "/o1800C0hiZFA7tUeINn5ERvWBAY.jpg", "release_date": "1926-04-05", "title": "For Heaven's Sake", "video": false, "vote_average": 7.4, "vote_count": 12, "popularity": 2.554}, {"adult": false, "backdrop_path": null, "genre_ids": [35, 37], "id": 53516, "original_language": "en", "original_title": "Billy Blazes, Esq.", "overview": "Billy Blazes confronts Crooked Charley, who has been ruling the town of Peaceful Vale through fear and violence.", "poster_path": "/uhL4pusQIFIjIm0FmgDJB0qpXae.jpg", "release_date": "1919-07-06", "title": "Billy Blazes, Esq.", "video": false, "vote_average": 6.1, "vote_count": 10, "popularity": 3.177}, {"adult": false, "backdrop_path": null, "genre_ids": [18], "id": 131453, "original_language": "sv", "original_title": "Johan", "overview": "On a farm in up-country Sweden, an enigmatic stranger comes to a conservative peasant community and seduces a farmer's wife. -IMDB", "poster_path": "/wUcZbsD1tdDrAzNLVrbd9oFGFSv.jpg", "release_date": "1921-02-28", "title": "Johan", "video": false, "vote_average": 6.2, "vote_count": 5, "popularity": 0.967}, {"adult": false, "backdrop_path": "/ltrGoKiq5OtaBjnIofRH64YqjK.jpg", "genre_ids": [35, 10749], "id": 184741, "original_language": "en", "original_title": "Cain and Mabel", "overview": "A chorus girl (Marion Davies) and a heavyweight boxer (Clark Gable) are paired romantically as a publicity stunt.", "poster_path": "/fqzaxoYTqwSbato5nDcwlfOfrZA.jpg", "release_date": "1936-09-26", "title": "Cain and Mabel", "video": false, "vote_average": 7.3, "vote_count": 4, "popularity": 2.833}], "total_pages": 2, "total_results": 40}, "credits": {"cast": [{"cast_id": 6, "character": "The Boy", "credit_id": "52fe4687c3a36847f8103e63", "gender": 2, "id": 88953, "name": "Harold Lloyd", "order": 0, "profile_path": "/aE1pPjEoYOVeG9BtqoYkKePzgCd.jpg"}, {"cast_id": 9, "character": "The Girl", "credit_id": "52fe4687c3a36847f8103e6b", "gender": 1, "id": 88954, "name": "Mildred Davis", "order": 1, "profile_path": "/zchyBt9IOats4aok2TM6ITygfRB.jpg"}, {"cast_id": 8, "character": "The Rival", "credit_id": "52fe4687c3a36847f8103e67", "gender": 0, "id": 148423, "name": "Roy Brooks", "order": 2, "profile_path": null}], "crew": [{"credit_id": "52fe4686c3a36847f8103e53", "department": "Directing", "gender": 2, "id": 33223, "job": "Director", "name": "Hal Roach", "profile_path": "/6VQIciKwBUsoJGDBlnIMV2iS4Cm.jpg"}, {"credit_id": "52fe4686c3a36847f8103e59", "department": "Directing", "gender": 2, "id": 143385, "job": "Director", "name": "Fred C. Newmeyer", "profile_path": "/enAo4JvvixXKDxLGRB4lzEOT5aH.jpg"}, {"credit_id": "52fe4686c3a36847f8103e5f", "department": "Writing", "gender": 2, "id": 131383, "job": "Writer", "name": "H.M. Walker", "profile_path": null}]}}