{"adult": false, "backdrop_path": "/gOpJq5HlA6Y5yStNsuZBJbHZlN6.jpg", "belongs_to_collection": null, "budget": 0, "genres": [{"id": 9648, "name": "Mystery"}, {"id": 10749, "name": "Romance"}, {"id": 53, "name": "Thriller"}], "homepage": null, "id": 44440, "imdb_id": "tt0424863", "original_language": "en", "original_title": "The Book of Revelation", "overview": "An erotic mystery about power and sex, the entanglement of victim and perpetrator, and a man's struggle to regain his lost self.", "popularity": 6.816, "poster_path": "/5l7KBXCMMYCtXbOX0fLdD6jHgMW.jpg", "production_companies": [{"id": 1380, "logo_path": null, "name": "Australian Film Finance Corporation", "origin_country": "AU"}, {"id": 2857, "logo_path": null, "name": "Wildheart Films", "origin_country": ""}], "production_countries": [{"iso_3166_1": "AU", "name": "Australia"}], "release_date": "2006-07-29", "revenue": 0, "runtime": 118, "spoken_languages": [{"iso_639_1": "en", "name": "English"}], "status": "Released", "tagline": "A secret he would not share. An obsession he could not control. A mystery he dare not resolve.", "title": "The Book of Revelation", "video": false, "vote_average": 5.4, "vote_count": 11, "keywords": {"keywords": [{"id": 187056, "name": "woman director"}]}, "similar": {"page": 1, "results": [{"adult": false, "backdrop_path": "/cADbqsIoiDW7X3Myg9nz8eAuno5.jpg", "genre_ids": [18, 10749], "id": 10818, "original_language": "fr", "original_title": "Naissance des pieuvres", "overview": "Set during a sultry summer in a French suburb, Marie is desperate to join the local pool's synchronized swimming team, but is her interest solely for the sake of sport or for a chance to get close to Floriane, the bad girl of the team? Sciamma, and the two leads, capture the uncertainty of teenage sexuality with a sympathetic eye in this delicate drama of the angst of coming-of-age.", "poster_path": "/4jajELYrR4Xmv3CVoKnukRnALa2.jpg", "release_date": "2007-05-17", "title": "Water Lilies", "video": false, "vote_average": 6.1, "vote_count": 119, "popularity": 9.614}, {"adult": false, "backdrop_path": "/gZeJziVigmRqbkEZwKAtSqlLQ6s.jpg", "genre_ids": [18, 10749], "id": 370663, "original_language": "en", "original_title": "Below Her Mouth", "overview": "An unexpected affair quickly escalates into a heart-stopping reality for two women whose passionate connection changes their lives forever.", "poster_path": "/nTGbq37hYLuNy7YgMg0gVLma0NS.jpg", "release_date": "2016-09-10", "title": "Below Her Mouth", "video": false, "vote_average": 6.2, "vote_count": 456, "popularity": 18.664}, {"adult": false, "backdrop_path": "/dvQDRfv3qvfHNnVAR57ouVsuErf.jpg", "genre_ids": [10749, 18], "id": 28031, "original_language": "en", "original_title": "If These Walls Could Talk 2", "overview": "The stories of three lesbian couples -- who live in the same house at different periods of time -- who are at a crossroads in their lives. In 1961, Edith loses her lover, Abby, to a stroke. Linda and Amy struggle with feminist issues in 1972. And, in 2000, Kal and Fran try to have a baby with the help of sperm donor.", "poster_path": "/xs7ODbmYQXCDhvXNvz5tF17T59H.jpg", "release_date": "2000-03-05", "title": "If These Walls Could Talk 2", "video": false, "vote_average": 7.1, "vote_count": 55, "popularity": 8.86}, {"adult": false, "backdrop_path": "/knczzNAjBXzSYkeWxoT1u9VNmjR.jpg", "genre_ids": [10749, 18], "id": 258480, "original_language": "en", "original_title": "Carol", "overview": "In 1950s New York, a department-store clerk who dreams of a better life falls for an older, married woman.", "poster_path": "/AbKa7ANxmui0Jmhh7gV7OSELKIL.jpg", "release_date": "2015-11-20", "title": "Carol", "video": false, "vote_average": 7.4, "vote_count": 2184, "popularity": 13.539}, {"adult": false, "backdrop_path": "/rf6G51j0SZL0tP57I8gnqHTRFEr.jpg", "genre_ids": [35, 18, 10749], "id": 273153, "original_language": "fr", "original_title": "La belle saison", "overview": "In 1971, Carole and Delphine meet and fall in love in Paris. When Carole follows Delphine back to her family farm in Limousin, the two find lesbianism and feminism are not as easy in the countryside.", "poster_path": "/evvAkNMO5VJiy5qIo1Hu7fUfvVI.jpg", "release_date": "2015-08-19", "title": "Summertime", "video": false, "vote_average": 6.6, "vote_count": 162, "popularity": 11.575}, {"adult": false, "backdrop_path": "/s12HEmmkJfI2mjltI61hGm5kubD.jpg", "genre_ids": [35, 18, 10749], "id": 20770, "original_language": "en", "original_title": "But I'm a Cheerleader", "overview": "Megan is an all-American girl. A cheerleader. She has a boyfriend. But Megan doesn't like kissing her boyfriend very much. And she's pretty touchy with her cheerleader friends. Her conservative parents worry that she must be a lesbian and send her off to \"sexual redirection\" school, where she must, with other lesbians and gays learn how to be straight.", "poster_path": "/eDGH7CHSdkrYcuUJV1e0WS9DlQL.jpg", "release_date": "1999-12-09", "title": "But I'm a Cheerleader", "video": false, "vote_average": 6.8, "vote_count": 246, "popularity": 9.011}, {"id": 9813, "video": false, "vote_count": 128, "vote_average": 6.1, "title": "The Quiet", "release_date": "2005-09-12", "original_language": "en", "original_title": "The Quiet", "genre_ids": [18, 53], "backdrop_path": "/6eyWAZA4CEidZW1xXnQ4vlYBXTP.jpg", "adult": false, "overview": "After her widowed father dies, deaf teenager Dot moves in with her godparents, Olivia and Paul Deer. The Deers' daughter, Nina, is openly hostile to Dot, but that does not prevent her from telling her secrets to her silent stepsister, including the fact that she wants to kill her lecherous father.", "poster_path": "/GEqIE9YlmygHVUfS64LW2cwAAM.jpg", "popularity": 14.844}, {"adult": false, "backdrop_path": "/tzqeuHWMFihFbiLGHdalPgAcSf6.jpg", "genre_ids": [18, 10749], "id": 18620, "original_language": "en", "original_title": "Go Fish", "overview": "Max is a trendy, pretty, young lesbian, who is having trouble finding love. A friend sets her up with Ely, whom Max likes, but Ely is frumpy, homely, and older. Nor do they have much in common. Can Max learn to look past the packaging?", "poster_path": "/qrEFYrwykaGsY8NULYuYLLI7zrM.jpg", "release_date": "1994-06-10", "title": "Go Fish", "video": false, "vote_average": 5.0, "vote_count": 11, "popularity": 3.676}, {"adult": false, "backdrop_path": "/6tern9vOEwwmkDYC1vRCuO64z0C.jpg", "genre_ids": [10749, 18], "id": 475888, "original_language": "en", "original_title": "Tell It to the Bees", "overview": "Dr. Jean Markham returns to the town she left as a teenager to take over her late father's medical practice. When a school-yard scuffle lands Charlie in her surgery, she invites him to visit the hives in her garden and tell his secrets to the bees, as she once did. The new friendship between the boy and the bee keeper brings his mother Lydia into Jean's world.", "poster_path": "/Rj6zpHhMU1zFW3v28U4PSRSRgP.jpg", "release_date": "2019-05-03", "title": "Tell It to the Bees", "video": false, "vote_average": 6.4, "vote_count": 53, "popularity": 13.175}, {"adult": false, "backdrop_path": "/xOGEw8iywxcFMolV6SF6YdTdJTb.jpg", "genre_ids": [10402, 10749], "id": 52371, "original_language": "nl", "original_title": "LelleBelle", "overview": "19-year old Belle practices playing the violin diligently, but is unable to impart her music with a sensitive undertone. Her life changes when she discovers that sexual desire stimulates passion in her music.", "poster_path": "/nJVPgIq3icZMQ26p5uWIFdUZJfL.jpg", "release_date": "2010-10-08", "title": "LelleBelle", "video": false, "vote_average": 4.7, "vote_count": 41, "popularity": 13.747}, {"adult": false, "backdrop_path": "/baYbbMtKRDoDWYJeVWkbygAvAj8.jpg", "genre_ids": [18, 10749], "id": 31216, "original_language": "en", "original_title": "I Can't Think Straight", "overview": "I CAN'T THINK STRAIGHT is a 2007 romance movie about a London-based Jordanian of Palestinian descent, Tala, who is preparing for an elaborate wedding. A turn of events causes her to have an affair and subsequently fall in love with another woman, Leyla, a British Indian.", "poster_path": "/1kapga6rkM5wNuQBYw7sdE42CrA.jpg", "release_date": "2008-06-01", "title": "I Can't Think Straight", "video": false, "vote_average": 7.6, "vote_count": 109, "popularity": 7.815}, {"adult": false, "backdrop_path": "/lI5h8KaoeObu4NMTwzeRuUHzRwD.jpg", "genre_ids": [18, 9648, 53], "id": 401898, "original_language": "no", "original_title": "Thelma", "overview": "A college student starts to experience extreme seizures. She soon learns that the violent episodes are a symptom of inexplicable abilities.", "poster_path": "/yzSfG8TLAqw7nMQh2lxirQkQpgs.jpg", "release_date": "2017-09-15", "title": "Thelma", "video": false, "vote_average": 7.1, "vote_count": 418, "popularity": 13.105}, {"adult": false, "backdrop_path": "/tIFRPjIXQ3sYrmxbIeOu9K1JkUz.jpg", "genre_ids": [18, 10749], "id": 294, "original_language": "en", "original_title": "Desert Hearts", "overview": "The story of straight-edge literature professor Vivian who travels to Reno to get away from a relationship breakup when she falls in love with an attractive and unconventional girl named Cay.", "poster_path": "/b8JSmQSpYYJhctMtxNgqh0elENg.jpg", "release_date": "1985-10-01", "title": "Desert Hearts", "video": false, "vote_average": 7.3, "vote_count": 58, "popularity": 6.976}, {"id": 520172, "video": false, "vote_count": 0, "vote_average": 0.0, "title": "Happiest Season", "release_date": "2020-11-20", "original_language": "en", "original_title": "Happiest Season", "genre_ids": [35, 10749], "backdrop_path": null, "adult": false, "overview": "A young woman's plans to propose to her girlfriend while at her family's annual holiday party are upended when she discovers her partner hasn't yet come out to her conservative parents.", "poster_path": null, "popularity": 6.027}, {"id": 2255, "video": false, "vote_count": 772, "vote_average": 6.8, "title": "Chasing Amy", "release_date": "1997-04-04", "original_language": "en", "original_title": "Chasing Amy", "genre_ids": [35, 18, 10749], "backdrop_path": "/doKYVK61Vb8J1KUjlb9dNWkQNp6.jpg", "adult": false, "overview": "Holden and Banky are comic book artists. Everything is going good for them until they meet Alyssa, also a comic book artist. Holden falls for her, but his hopes are crushed when he finds out she's a lesbian.", "poster_path": "/4vFJileWrCGaBeobCmF0tXpQCUb.jpg", "popularity": 13.95}, {"adult": false, "backdrop_path": "/g3LYarEY9LjB28Ct2trwFN72gqZ.jpg", "genre_ids": [35], "id": 437557, "original_language": "en", "original_title": "Blockers", "overview": "When three parents discover their daughters\u2019 pact to lose their virginity at prom, they launch a covert one-night operation to stop the teens from sealing the deal.", "poster_path": "/uvlUQXg0AlpGzKukO11K7QtW3Yu.jpg", "release_date": "2018-03-14", "title": "Blockers", "video": false, "vote_average": 6.2, "vote_count": 1155, "popularity": 17.886}, {"adult": false, "backdrop_path": "/fZ8oFcREAr6wgWcXISGql0xyxjB.jpg", "genre_ids": [35, 18], "id": 39781, "original_language": "en", "original_title": "The Kids Are All Right", "overview": "Two women, Nic and Jules, brought a son and daughter into the world through artificial insemination. When one of their children reaches age, both kids go behind their mothers' backs to meet with the donor. Life becomes so much more interesting when the father, two mothers and children start to become attached to each other.", "poster_path": "/fPDeK4MmoGfi2X0oWZev7LrbMqM.jpg", "release_date": "2010-07-09", "title": "The Kids Are All Right", "video": false, "vote_average": 6.6, "vote_count": 923, "popularity": 12.159}, {"adult": false, "backdrop_path": "/3YGy88nTV2e0wxZcKI1goiEN9oy.jpg", "genre_ids": [18, 10749], "id": 37636, "original_language": "en", "original_title": "High Art", "overview": "A young female intern at a small magazine company becomes involved with a drug-addicted lesbian photographer, both of whom seek to exploit each other for their respective careers, while slowly falling in love with each other.", "poster_path": "/qTg05RNJIvb9w4Z7XIcAZxuZmTn.jpg", "release_date": "1998-06-12", "title": "High Art", "video": false, "vote_average": 6.6, "vote_count": 61, "popularity": 7.422}, {"adult": false, "backdrop_path": "/caLMOD3ZJ3V7qjlxDXrzlJfBLgD.jpg", "genre_ids": [18, 10749], "id": 20, "original_language": "en", "original_title": "My Life Without Me", "overview": "A Pedro Almodovar production in which a fatally ill mother with only two months to live creates a list of things she wants to do before she dies with out telling her family of her illness.", "poster_path": "/vVj92VBFUBzjqzLvBiPVVlJDp78.jpg", "release_date": "2003-03-07", "title": "My Life Without Me", "video": false, "vote_average": 6.1, "vote_count": 220, "popularity": 10.382}, {"adult": false, "backdrop_path": "/k8H7ye6Sab7OrDJoo8Qp5WFGHGk.jpg", "genre_ids": [35, 10749, 18], "id": 244264, "original_language": "en", "original_title": "Laggies", "overview": "Overeducated and underemployed, 28 year old Megan is in the throes of a quarterlife crisis. Squarely into adulthood with no career prospects, no particular motivation to think about her future and no one to relate to, Megan is comfortable lagging a few steps behind - while her friends check off milestones and celebrate their new grown-up status. When her high-school sweetheart proposes, Megan panics and- given an unexpected opportunity to escape for a week - hides out in the home of her new friend, 16-year old Annika and Annika's world-weary single dad Craig.", "poster_path": "/dNcoXoRC7JHiqbe7k5Ufo6syiPP.jpg", "release_date": "2014-09-25", "title": "Laggies", "video": false, "vote_average": 6.1, "vote_count": 788, "popularity": 13.836}], "total_pages": 1446, "total_results": 28909}, "recommendations": {"page": 1, "results": [{"adult": false, "backdrop_path": "/61wqKYMpiYE96O4xjYSiZ5ywoE5.jpg", "genre_ids": [99], "id": 54120, "original_language": "en", "original_title": "Bastards of the Party", "overview": "Surrounded by death and the brutal lifestyle that feeds it, a Los Angeles gangbanger explores the history of Southern California street gangs from the 1950s through the 1990s in an attempt to fully understand his existence. Bastards of the Party humanizes the staggering casualties of the LA gang wars.", "poster_path": "/oxAj0i8kWKZpJtDX4yri1i4BlAt.jpg", "release_date": "2005-01-01", "title": "Bastards of the Party", "video": false, "vote_average": 6.5, "vote_count": 5, "popularity": 3.431}, {"adult": false, "backdrop_path": null, "genre_ids": [99], "id": 22906, "original_language": "en", "original_title": "American Blackout", "overview": "Chronicles the recurring patterns of disenfranchisement witnessed from 2000 to 2004 while following the story of Georgia Congresswoman Cynthia McKinney, who not only took an active role in investigating these election debacles but also found herself in the middle of one after publicly questioning the Bush Administration about the 9-11 terrorist attacks.", "poster_path": "/4zVp9YAv5hiX2Ogtsahy3IDqXLk.jpg", "release_date": "2006-01-27", "title": "American Blackout", "video": false, "vote_average": 6.6, "vote_count": 7, "popularity": 1.977}, {"adult": false, "backdrop_path": null, "genre_ids": [28, 18, 10749, 37], "id": 16405, "original_language": "en", "original_title": "Dust", "overview": "Two parallel tales of redemption, a century apart. In the New York storyline, Edge hunts for Angela's gold to pay back a debt, and gradually grows closer to her. In the Macedonian story, the brothers end up fighting for opposite sides of a revolution, with the religious Elijah taking up sides with the Ottoman sultan and gunslinger Luke joining \"the Teacher\" , a Macedonian rebel.", "poster_path": "/qhNlFTwlrte13wX3ntMQJSO7azG.jpg", "release_date": "2001-08-29", "title": "Dust", "video": false, "vote_average": 6.0, "vote_count": 9, "popularity": 3.389}, {"adult": false, "backdrop_path": "/ns8W11XCl97YXPdJfASkiPDvO0T.jpg", "genre_ids": [18, 10752], "id": 176974, "original_language": "en", "original_title": "I Was A Spy", "overview": "During World War I, a young nurse in a hospital in German-occupied Belgium is secretly feeding military information to the British. Complicating matters is the guilt she feels when she has to treat the German casualties inflicted as a result of the information she's passed on, and the fact that the local German commandant is falling in love with her.", "poster_path": "/lTbFl7nputraKtmH3MOqL7kbrBX.jpg", "release_date": "1933-09-04", "title": "I Was A Spy", "video": false, "vote_average": 5.5, "vote_count": 4, "popularity": 3.108}, {"adult": false, "backdrop_path": null, "genre_ids": [99, 18, 10402, 10749], "id": 14978, "original_language": "en", "original_title": "Moog", "overview": "Documentary about Robert Moog who was an American pioneer of electronic music, best known as the inventor of the Moog synthesizer.", "poster_path": "/ol7f8qSaNjK3Rj5mVWubjoQRapw.jpg", "release_date": "2004-09-17", "title": "Moog", "video": false, "vote_average": 5.3, "vote_count": 7, "popularity": 2.092}, {"adult": false, "backdrop_path": "/w4UpbDs0UABKlesiJx4dHuwoYTf.jpg", "genre_ids": [80, 99], "id": 41850, "original_language": "en", "original_title": "At the Death House Door", "overview": "An investigation of the wrongful death of Carlos DeLuna, who was executed in Texas on December 7, 1989, after prosecutors ignored evidence inculpating a man, who bragged to friends about committing the crimes of which DeLuna was convicted.", "poster_path": "/2giknov3l16UWugtbKdE7cuFFPF.jpg", "release_date": "2008-03-09", "title": "At the Death House Door", "video": false, "vote_average": 5.7, "vote_count": 5, "popularity": 1.868}, {"adult": false, "backdrop_path": "/iStijBCScMGm77NTrJOZPavv1Q3.jpg", "genre_ids": [35], "id": 292824, "original_language": "de", "original_title": "Die Nichten der Frau Oberst", "overview": "Frau Oberst has 2 young nieces who are very open with their sexuality. She hopes to find adequate lovers for her nieces and along the way finds herself in some precarious sexual situations. After a series of sexual encounters between just about everyone at the estate, the Countess drops by for a party where the nieces announce their wedding intentions.", "poster_path": "/t0QMyHYlV2ZcsGXvqufW8mlg4yy.jpg", "release_date": "1980-01-18", "title": "Secrets of a French Maid", "video": false, "vote_average": 5.1, "vote_count": 9, "popularity": 7.657}, {"adult": false, "backdrop_path": "/qQxB5SEgcZdophE1e63lA9J1Uyz.jpg", "genre_ids": [10749, 35, 18], "id": 27922, "original_language": "ka", "original_title": "\u041d\u0435 \u0433\u043e\u0440\u044e\u0439!", "overview": "Benjamin, the local doctor is a soul of a local society, the educated, friendly, democratic person who often treats the poor for free. It makes him very popular with the locals but most certainly does not help with his bank account. He is in love with a beautiful Manette who is also crazy about him but is being watched closely by her father who called his daughter \"his small capital\" and is determined to protect her virginity until the moment the marriage contract has been signed...", "poster_path": "/ibnDSdqaqvMJKvfOjozh9C6iL9w.jpg", "release_date": "1968-12-22", "title": "Don't Grieve!", "video": false, "vote_average": 5.8, "vote_count": 12, "popularity": 2.606}, {"adult": false, "backdrop_path": "/ow5Q7LRfj07Yi2ZDXqduY9gxfw6.jpg", "genre_ids": [35, 18, 10402], "id": 123964, "original_language": "fi", "original_title": "Miss Farkku-Suomi", "overview": "Year 1977. Punk and new wave rock\u00b4n roll has arrived to remote Finland and a bleak small town Oulu where increasingly odd-looking youths began to appear in the street with a message. Their rebellion speaks to V\u00e4lde (17). V\u00e4lde dreams of joining a rock band and becoming famous. He wants to get drunk for the first time, and to win the love of Pike, the most beautiful girl in the class.  When Pike wins the Miss Blue Jeans contest organised by the country\u00b4s leading (and only) pop music magazine Suosikki and takes as her boyfriend the bourgeois Henri Hakala, V\u00e4lde puts all his eggs in one basket. He abandons his former self and begins purposefully constructing a new persona for himself. But everything doesn\u2019t go as V\u00e4lde wanted \u2026  The film is based on a novel by Kauko R\u00f6yhk\u00e4, an author and indie rock musician.", "poster_path": "/a59vbPsABsuv6v8RbzsqJepdE53.jpg", "release_date": "2012-08-03", "title": "Miss Blue Jeans", "video": false, "vote_average": 5.9, "vote_count": 9, "popularity": 2.622}, {"adult": false, "backdrop_path": "/wjbFYD2h1lC8NW4GwaK1sGcri6e.jpg", "genre_ids": [18, 36, 10752], "id": 95431, "original_language": "ru", "original_title": "\u0411\u0435\u0433", "overview": "The film is about a group of people who in other times wouldn't have anything in common, some of them innocent bystanders, some moral criminals. But nothing is straightforward and simple. From Russia \"the run\" continues to Constantinople, to Paris, back to Russia. Some of them have understood that they can't live outside Russia and go back maybe to be happy, maybe not, some go back to face sure death for their crimes, some don't go back and know that are going to miss homeland forever, some are comfortably well off (are they?) in exile. Sentimental without syrup, tragic and comical at the same time.", "poster_path": "/v0Sy5iLMxJHtnOcOchy35kvYLdJ.jpg", "release_date": "1970-01-01", "title": "The Flight", "video": false, "vote_average": 6.3, "vote_count": 10, "popularity": 2.167}, {"adult": false, "backdrop_path": "/2ixJzQ0ZQ1jyB0tJoPbo5vQf8Ri.jpg", "genre_ids": [18, 10751], "id": 15699, "original_language": "en", "original_title": "Opal Dream", "overview": "Pobby &amp; Dingan are invisible. They live in an opal town in Australia and are friends with Kellyanne, the 9 year-old daughter of an opal miner. The film tells the story of the bizarre and inexplicable disappearance of Pobby &amp; Dingan, Kellyanne's imaginary friends, and the impact this has on her family and the whole town. The story is told through the eyes of Kellyanne's 11 years old brother Ashmol.", "poster_path": "/q0KYjvvSHlFsvWwrNClUjm1UvUV.jpg", "release_date": "2006-07-12", "title": "Opal Dream", "video": false, "vote_average": 6.5, "vote_count": 13, "popularity": 2.439}, {"adult": false, "backdrop_path": "/igSRBqnCSi1mq6VdSqSrZgz4xrC.jpg", "genre_ids": [18, 36, 53], "id": 45694, "original_language": "de", "original_title": "Der junge T\u00f6rless", "overview": "At an Austrian boys' boarding school in the early 1900s, shy, intelligent T\u00f6rless observes the sadistic behavior of his fellow students, doing nothing to help a victimized classmate\u2014until the torture goes too far. Adapted from Robert Musil's acclaimed novel, Young T\u00f6rless launched the New German Cinema movement and garnered the 1966 Cannes Film Festival International Critics' Prize for first-time director Volker Schl\u00f6ndorff.", "poster_path": "/rJWcKXABcww5u2kgPEQTYQ85G7d.jpg", "release_date": "1966-05-20", "title": "Young T\u00f6rless", "video": false, "vote_average": 6.4, "vote_count": 18, "popularity": 5.575}, {"adult": false, "backdrop_path": "/4YxQXkQeqROin9votOkhc6oK3sZ.jpg", "genre_ids": [35], "id": 26118, "original_language": "en", "original_title": "Dylan Moran: What It Is", "overview": "Unpredictable, bizarre, elegiac, often cruel but above all painfully funny, What It Is sees Dylan ponder the joys and disappointments of human existence with the sensibility and intense perception of a man teetering on the edge. Critically and publicly acclaimed around the world for his previous Monster and Like, Totally shows, What It Is is Dylan's finest live performance yet.", "poster_path": "/6GdfLTFDEXN71yTDS3OZ5kuzezK.jpg", "release_date": "2009-11-23", "title": "Dylan Moran: What It Is", "video": true, "vote_average": 7.7, "vote_count": 16, "popularity": 3.295}, {"adult": false, "backdrop_path": "/fNKSgxw7Ywgi5XYjnTTlrDo4jdQ.jpg", "genre_ids": [99], "id": 45615, "original_language": "en", "original_title": "Reindeerspotting \u2013 pako Joulumaasta", "overview": "Reindeerspotting is a documentary film of a group of young guys living in Rovaniemi, Arctic Circle, dabbling in petty crime and hard drugs. One of them, Jani, has lost five years of his life and two fingers to his debotators. He wants to leave Lapland and his old life behind. Robbing a supermarket is a start for his getaway. A few years back a documentarist, Joonas Neuvonen, was a young men living on social welfare, using drugs on daily basis. He started to film his friends and their life. This is the story of Jani.", "poster_path": "/zEuWamAwTG75UcG3J16g08gp2bd.jpg", "release_date": "2010-04-09", "title": "Reindeerspotting: Escape from Santaland", "video": false, "vote_average": 6.9, "vote_count": 20, "popularity": 4.847}, {"adult": false, "backdrop_path": "/qBBY5tOvc8CABjpOKZPqxml8Suv.jpg", "genre_ids": [35], "id": 79133, "original_language": "en", "original_title": "Dylan Moran: Yeah, Yeah", "overview": "Dylan Moran, star of Black Books, Shaun of the Dead and Run Fat Boy Run is about to spread a little happiness with a brand new live DVD for 2011. Ageing, religion, kids and relationships intertwine with the general absurdities of life. Searing observations and sumptuous imagery, painted across a large fraying canvas with cruel, curmudgeonly 'Moranesque' brush strokes are all delivered with Dylan's renowned, shambolic charm\u2026 Simply unmissable.", "poster_path": "/tUuLPs5zuJM87hrXHWussMWwQOH.jpg", "release_date": "2011-11-14", "title": "Dylan Moran: Yeah, Yeah", "video": true, "vote_average": 8.0, "vote_count": 17, "popularity": 3.268}], "total_pages": 1, "total_results": 15}, "credits": {"cast": [{"cast_id": 1, "character": "Bridget", "credit_id": "52fe4689c3a36847f81045b9", "gender": 1, "id": 30084, "name": "Anna Torv", "order": 0, "profile_path": "/61zOhv9fNFLe0uPdOPCKbO4zcoD.jpg"}, {"cast_id": 2, "character": "Daniel", "credit_id": "55bd75019251413e5b003424", "gender": 2, "id": 75738, "name": "Tom Long", "order": 1, "profile_path": "/9h3Ug1mmKam8jJ1TwirdepFsZgv.jpg"}, {"cast_id": 3, "character": "Isabel", "credit_id": "55bd751bc3a3686528002dbf", "gender": 1, "id": 21245, "name": "Greta Scacchi", "order": 2, "profile_path": "/uHPHNwBnhBIs1z2sJcKQODtaY2n.jpg"}, {"cast_id": 4, "character": "Olsen", "credit_id": "55bd752dc3a36838b000376e", "gender": 2, "id": 27753, "name": "Colin Friels", "order": 3, "profile_path": "/tXKCpTwCs4TZYdQ6p5Kch7sRkkS.jpg"}, {"cast_id": 5, "character": "James", "credit_id": "55bd754cc3a3686534003c8a", "gender": 0, "id": 1483920, "name": "Brian Lipson", "order": 4, "profile_path": null}, {"cast_id": 6, "character": "Shopkeeper", "credit_id": "55bd756a9251413e49003544", "gender": 2, "id": 75660, "name": "Damien Fotiou", "order": 5, "profile_path": null}, {"cast_id": 7, "character": "Charging Officer", "credit_id": "55bd7584c3a36865260033a3", "gender": 0, "id": 1230278, "name": "Marty Fields", "order": 6, "profile_path": null}], "crew": [{"credit_id": "55bd75fe9251413bdc001ef1", "department": "Production", "gender": 2, "id": 30209, "job": "Producer", "name": "Al Clark", "profile_path": null}, {"credit_id": "55bd76169251413e5100386a", "department": "Production", "gender": 2, "id": 56625, "job": "Executive Producer", "name": "Graham Begg", "profile_path": null}, {"credit_id": "55bd76269251413e550038b8", "department": "Production", "gender": 0, "id": 56626, "job": "Executive Producer", "name": "Jamie Carmichael", "profile_path": null}, {"credit_id": "55bd75c39251413e49003556", "department": "Writing", "gender": 2, "id": 57835, "job": "Writer", "name": "Andrew Bovell", "profile_path": null}, {"credit_id": "55bd75b39251413e55003895", "department": "Writing", "gender": 1, "id": 75675, "job": "Screenplay", "name": "Ana Kokkinos", "profile_path": "/exp281fjrkiH39btqB04WKiAXOZ.jpg"}, {"credit_id": "55bd759ec3a36838b0003786", "department": "Directing", "gender": 1, "id": 75675, "job": "Director", "name": "Ana Kokkinos", "profile_path": "/exp281fjrkiH39btqB04WKiAXOZ.jpg"}, {"credit_id": "55bd763ec3a36865390034d4", "department": "Production", "gender": 1, "id": 88115, "job": "Line Producer", "name": "Barbara Gibbs", "profile_path": null}, {"credit_id": "55bd75d1c3a3686959003c66", "department": "Writing", "gender": 0, "id": 1492827, "job": "Novel", "name": "Rupert Thomson", "profile_path": null}]}}