{"adult": false, "backdrop_path": null, "belongs_to_collection": null, "budget": 0, "genres": [{"id": 14, "name": "Fantasy"}, {"id": 27, "name": "Horror"}], "homepage": "", "id": 44449, "imdb_id": "tt0223755", "original_language": "fr", "original_title": "Le monstre", "overview": "An Egyptian prince has lost his beloved wife and he has sought a dervish who dwells at the base of the sphinx.", "popularity": 2.709, "poster_path": "/24VbtY36ij56HWRVWW9JKz7SncI.jpg", "production_companies": [{"id": 45867, "logo_path": null, "name": "Star Film Company", "origin_country": ""}], "production_countries": [{"iso_3166_1": "FR", "name": "France"}], "release_date": "1903-08-14", "revenue": 0, "runtime": 2, "spoken_languages": [], "status": "Released", "tagline": "", "title": "The Monster", "video": false, "vote_average": 6.0, "vote_count": 22, "keywords": {"keywords": [{"id": 4062, "name": "skeleton"}, {"id": 157894, "name": "ancient egypt"}]}, "similar": {"page": 1, "results": [{"id": 2899, "video": false, "vote_count": 1973, "vote_average": 7.4, "title": "Asterix & Obelix: Mission Cleopatra", "release_date": "2002-01-29", "original_language": "fr", "original_title": "Ast\u00e9rix & Ob\u00e9lix Mission Cl\u00e9op\u00e2tre", "genre_ids": [12, 35, 14, 10751], "backdrop_path": "/2g6rIEw3t8ZWzMRlDlgXFr8pAlB.jpg", "adult": false, "overview": "The Egyptian Queen Cleopatra bets against the Roman Emperor, Julius Caesar, that her people are still great, even if the times of the Pharaohs has long passed. She vows (against all logic) to build a new palace for Caesar within three months. Since all her architects are either busy otherwise or too conservative in style, this ambivalent honor falls to Edifis. He is to build the palace and be covered in gold or, if not, his fate is to be eaten by crocodiles. Edifis calls upon an old friend to help him out: The fabulous Druid Getafix from Gaul, who brews a fantastic potion that gives supernatural strength. In order to help and protect the old Druid, Asterix and Obelix accompany him on his journey to Egypt. When Julius Caesar gets wind of the project succeeding, he has the building site attacked by his troops in order to win the bet and not lose face. But just like the local pirates, he hasn't counted on Asterix and Obelix.", "poster_path": "/qWy5b64SoBXcMDdfgLyLZgIHSdv.jpg", "popularity": 20.077}, {"id": 9837, "video": false, "vote_count": 2194, "vote_average": 7.1, "title": "The Prince of Egypt", "release_date": "1998-12-15", "original_language": "en", "original_title": "The Prince of Egypt", "genre_ids": [12, 16, 35, 18, 10402, 10751], "backdrop_path": "/1yB6o6L5DLteeraLhz5Q0buBm6i.jpg", "adult": false, "overview": "This is the extraordinary tale of two brothers named Moses and Ramses, one born of royal blood, and one an orphan with a secret past. Growing up the best of friends, they share a strong bond of free-spirited youth and good-natured rivalry. But the truth will ultimately set them at odds, as one becomes the ruler of the most powerful empire on earth, and the other the chosen leader of his people! Their final confrontation will forever change their lives and the world.", "poster_path": "/wD34ls2faCrj8YvFViEaPfBtBEe.jpg", "popularity": 23.613}, {"id": 205584, "video": false, "vote_count": 2544, "vote_average": 5.4, "title": "Gods of Egypt", "release_date": "2016-02-25", "original_language": "en", "original_title": "Gods of Egypt", "genre_ids": [28, 12, 14], "backdrop_path": "/xy74anT8ZGhUIGVoalnHrmRDHbQ.jpg", "adult": false, "overview": "A common thief joins a mythical god on a quest through Egypt.", "poster_path": "/uPqAW07bGoljf3cmT5gecdOvVol.jpg", "popularity": 18.688}, {"id": 9334, "video": false, "vote_count": 1847, "vote_average": 5.4, "title": "The Scorpion King", "release_date": "2002-04-18", "original_language": "en", "original_title": "The Scorpion King", "genre_ids": [28, 12, 14], "backdrop_path": "/sP386SaCMTCz9ixvHpZtra0df49.jpg", "adult": false, "overview": "In ancient Egypt, peasant Mathayus is hired to exact revenge on the powerful Memnon and the sorceress Cassandra, who are ready to overtake Balthazar's village. Amid betrayals, thieves, abductions and more, Mathayus strives to bring justice to his complicated world.", "poster_path": "/xHHMo8Za53XK8qpsdarrxUoxBwn.jpg", "popularity": 26.115}, {"adult": false, "backdrop_path": "/zlHeYjpHrHLpH4ylN5xYRdr7NlB.jpg", "genre_ids": [12, 28, 14], "id": 1734, "original_language": "en", "original_title": "The Mummy Returns", "overview": "Rick and Evelyn O\u2019Connell, along with their 8-year-old son Alex, discover the key to the legendary Scorpion King\u2019s might: the fabled Bracelet of Anubis. Unfortunately, a newly resurrected Imhotep has designs on the bracelet as well, and isn\u2019t above kidnapping its new bearer, Alex, to gain control of Anubis\u2019s otherworldly army.", "poster_path": "/hioiYUZVIuYIhagDGhIAjyNEUu0.jpg", "release_date": "2001-05-04", "title": "The Mummy Returns", "video": false, "vote_average": 6.2, "vote_count": 4313, "popularity": 21.982}, {"id": 564, "video": false, "vote_count": 5479, "vote_average": 6.8, "title": "The Mummy", "release_date": "1999-04-16", "original_language": "en", "original_title": "The Mummy", "genre_ids": [28, 12, 14], "backdrop_path": "/7rz4sMD7Ku0E4KIqYezxoiSzTMj.jpg", "adult": false, "overview": "Dashing legionnaire Rick O'Connell stumbles upon the hidden ruins of Hamunaptra while in the midst of a battle to claim the area in 1920s Egypt. It has been over three thousand years since former High Priest Imhotep suffered a fate worse than death as a punishment for a forbidden love\u2014along with a curse that guarantees eternal doom upon the world if he is ever awoken.", "poster_path": "/yhIsVvcUm7QxzLfT6HW2wLf5ajY.jpg", "popularity": 21.113}, {"adult": false, "backdrop_path": "/sO6AnUEirDnaxjy8dxaqYEKDxGi.jpg", "genre_ids": [18, 36], "id": 6844, "original_language": "en", "original_title": "The Ten Commandments", "overview": "Escaping death, a Hebrew infant is raised in a royal household to become a prince. Upon discovery of his true heritage, Moses embarks on a personal quest to reclaim his destiny as the leader and liberator of the Hebrew people.", "poster_path": "/loLrO3SfhHkN3o3fTHdx1vf9ZYf.jpg", "release_date": "1956-10-05", "title": "The Ten Commandments", "video": false, "vote_average": 7.6, "vote_count": 659, "popularity": 17.954}, {"adult": false, "backdrop_path": "/tS3ms6HM52hLLU3eRdjVPSgSS4w.jpg", "genre_ids": [18, 36, 10749], "id": 8095, "original_language": "en", "original_title": "Cleopatra", "overview": "Determined to hold on to the throne, Cleopatra seduces the Roman emperor Julius Caesar. When Caesar is murdered, she redirects her attentions to his general, Marc Antony, who vows to take power\u2014but Caesar\u2019s successor has other plans.", "poster_path": "/bj7rUGUewofA9cpHt1h36gvDFfy.jpg", "release_date": "1963-06-12", "title": "Cleopatra", "video": false, "vote_average": 7.0, "vote_count": 312, "popularity": 17.932}, {"adult": false, "backdrop_path": "/hpIUiHIyNKWsid3Tz4adtYsUqo1.jpg", "genre_ids": [16, 12, 10751], "id": 82703, "original_language": "en", "original_title": "Mr. Peabody & Sherman", "overview": "A young boy and his dog, who happens to have a genius-level IQ, spring into action when their time-machine is stolen and moments in history begin to be changed.", "poster_path": "/q4FQXK4a4HSb4pajZL4ZFKHVsjC.jpg", "release_date": "2014-02-07", "title": "Mr. Peabody & Sherman", "video": false, "vote_average": 6.6, "vote_count": 1490, "popularity": 18.443}, {"adult": false, "backdrop_path": "/4brEMzPazQE3hv3mogj6k1a29RP.jpg", "genre_ids": [10749, 14, 16], "id": 3933, "original_language": "en", "original_title": "Corpse Bride", "overview": "Set in a 19th-century european village, this stop-motion animation feature follows the story of Victor, a young man whisked away to the underworld and wed to a mysterious corpse bride, while his real bride Victoria waits bereft in the land of the living.", "poster_path": "/o9GbcdP7rOg2m1NyUnUR3ZwNcTE.jpg", "release_date": "2005-09-12", "title": "Corpse Bride", "video": false, "vote_average": 7.4, "vote_count": 4928, "popularity": 23.702}, {"id": 1593, "video": false, "vote_count": 6574, "vote_average": 6.5, "title": "Night at the Museum", "release_date": "2006-10-20", "original_language": "en", "original_title": "Night at the Museum", "genre_ids": [28, 12, 35, 14, 10751], "backdrop_path": "/fDuTrT0qJUgEJjexaZOce4kmO0V.jpg", "adult": false, "overview": "Chaos reigns at the natural history museum when night watchman Larry Daley accidentally stirs up an ancient curse, awakening Attila the Hun, an army of gladiators, a Tyrannosaurus rex and other exhibits.", "poster_path": "/NUbCSwy2EQ9Z6psUjPqr3WdVI2.jpg", "popularity": 19.76}, {"id": 76492, "video": false, "vote_count": 5547, "vote_average": 6.9, "title": "Hotel Transylvania", "release_date": "2012-09-20", "original_language": "en", "original_title": "Hotel Transylvania", "genre_ids": [16, 35, 14, 10751], "backdrop_path": "/sETTal2HPPkUC3lWc27HL1AFu9C.jpg", "adult": false, "overview": "Welcome to Hotel Transylvania, Dracula's lavish five-stake resort, where monsters and their families can live it up and no humans are allowed. One special weekend, Dracula has invited all his best friends to celebrate his beloved daughter Mavis's 118th birthday. For Dracula catering to all of these legendary monsters is no problem but the party really starts when one ordinary guy stumbles into the hotel and changes everything!", "poster_path": "/9qugesYpAWHUpdrw2w8URSGkAPt.jpg", "popularity": 31.161}, {"id": 18, "video": false, "vote_count": 6836, "vote_average": 7.5, "title": "The Fifth Element", "release_date": "1997-05-02", "original_language": "en", "original_title": "The Fifth Element", "genre_ids": [28, 12, 14, 878, 53], "backdrop_path": "/qlGoGQSVMzIjGbpvXzZUOH1FjNu.jpg", "adult": false, "overview": "In 2257, a taxi driver is unintentionally given the task of saving a young girl who is part of the key that will ensure the survival of humanity.", "poster_path": "/zaFa1NRZEnFgRTv5OVXkNIZO78O.jpg", "popularity": 46.446}, {"id": 4011, "video": false, "vote_count": 3507, "vote_average": 7.3, "title": "Beetlejuice", "release_date": "1988-02-29", "original_language": "en", "original_title": "Beetlejuice", "genre_ids": [35, 14], "backdrop_path": "/upAwc1kPQJU1ZWeMgEWV8Lp6CWb.jpg", "adult": false, "overview": "Thanks to an untimely demise via drowning, a young couple end up as poltergeists in their New England farmhouse, where they fail to meet the challenge of scaring away the insufferable new owners, who want to make drastic changes. In desperation, the undead newlyweds turn to an expert frightmeister, but he's got a diabolical agenda of his own.", "poster_path": "/gWnW7vxm8yr01TVLQhL4aI02orp.jpg", "popularity": 34.958}, {"id": 22, "video": false, "vote_count": 13524, "vote_average": 7.7, "title": "Pirates of the Caribbean: The Curse of the Black Pearl", "release_date": "2003-07-09", "original_language": "en", "original_title": "Pirates of the Caribbean: The Curse of the Black Pearl", "genre_ids": [28, 12, 14], "backdrop_path": "/8AUQ7YlJJA9C8kWk8P4YNHIcFDE.jpg", "adult": false, "overview": "Jack Sparrow, a freewheeling 18th-century pirate, quarrels with a rival pirate bent on pillaging Port Royal. When the governor's daughter is kidnapped, Sparrow decides to help the girl's love save her.", "poster_path": "/tkt9xR1kNX5R9rCebASKck44si2.jpg", "popularity": 49.826}, {"id": 354912, "video": false, "vote_count": 10129, "vote_average": 8.2, "title": "Coco", "release_date": "2017-10-27", "original_language": "en", "original_title": "Coco", "genre_ids": [12, 16, 35, 14, 10751], "backdrop_path": "/askg3SMvhqEl4OL52YuvdtY40Yb.jpg", "adult": false, "overview": "Despite his family\u2019s baffling generations-old ban on music, Miguel dreams of becoming an accomplished musician like his idol, Ernesto de la Cruz. Desperate to prove his talent, Miguel finds himself in the stunning and colorful Land of the Dead following a mysterious chain of events. Along the way, he meets charming trickster Hector, and together, they set off on an extraordinary journey to unlock the real story behind Miguel's family history.", "poster_path": "/eKi8dIrr8voobbaGzDpe8w0PVbC.jpg", "popularity": 37.991}, {"id": 9479, "video": false, "vote_count": 5316, "vote_average": 7.8, "title": "The Nightmare Before Christmas", "release_date": "1993-10-09", "original_language": "en", "original_title": "The Nightmare Before Christmas", "genre_ids": [16, 14, 10751], "backdrop_path": "/16lk65YfrDFIr6evkWRjSeOOSws.jpg", "adult": false, "overview": "Tired of scaring humans every October 31 with the same old bag of tricks, Jack Skellington, the spindly king of Halloween Town, kidnaps Santa Claus and plans to deliver shrunken heads and other ghoulish gifts to children on Christmas morning. But as Christmas approaches, Jack's rag-doll girlfriend, Sally, tries to foil his misguided plans.", "poster_path": "/6oxkO1VgKCq74fNILKAg6t2dVEt.jpg", "popularity": 18.951}, {"id": 71676, "video": false, "vote_count": 2238, "vote_average": 4.8, "title": "Ghost Rider: Spirit of Vengeance", "release_date": "2011-12-10", "original_language": "en", "original_title": "Ghost Rider: Spirit of Vengeance", "genre_ids": [28, 14, 53], "backdrop_path": "/9w9UtpeRPK797GzT7xQXuVRSUSj.jpg", "adult": false, "overview": "When the devil resurfaces with aims to take over the world in human form, Johnny Blaze reluctantly comes out of hiding to transform into the flame-spewing supernatural hero Ghost Rider -- and rescue a 10-year-old boy from an unsavory end.", "poster_path": "/tqwWzmp5ISh64SJbNKQ9fyItnDj.jpg", "popularity": 18.398}, {"adult": false, "backdrop_path": "/5RPXs9g0sZ9Woo4pNLxdXdge7tc.jpg", "genre_ids": [14, 27, 35], "id": 766, "original_language": "en", "original_title": "Army of Darkness", "overview": "A man is accidentally transported to 1300 A.D., where he must battle an army of the dead and retrieve the Necronomicon so he can return home.", "poster_path": "/2eZKDIwLNnySbwqQtAaUz0kYDIL.jpg", "release_date": "1992-10-09", "title": "Army of Darkness", "video": false, "vote_average": 7.3, "vote_count": 1664, "popularity": 18.122}, {"id": 159824, "video": false, "vote_count": 3485, "vote_average": 6.7, "title": "Hotel Transylvania 2", "release_date": "2015-09-21", "original_language": "en", "original_title": "Hotel Transylvania 2", "genre_ids": [16, 35, 14, 10751], "backdrop_path": "/h3t4zZPteUPqyDBrmz5Z2zzGM61.jpg", "adult": false, "overview": "When the old-old-old-fashioned vampire Vlad arrives at the hotel for an impromptu family get-together, Hotel Transylvania is in for a collision of supernatural old-school and modern day cool.", "poster_path": "/cFQHMUmxaO3PEDo5lxuQC8MCRIH.jpg", "popularity": 22.909}], "total_pages": 15, "total_results": 291}, "recommendations": {"page": 1, "results": [{"id": 107439, "video": false, "vote_count": 15, "vote_average": 5.3, "title": "The Devil and the Statue", "release_date": "1901-01-01", "original_language": "fr", "original_title": "Le diable g\u00e9ant ou Le miracle de la madonne", "genre_ids": [18, 14, 27, 10749], "backdrop_path": null, "adult": false, "overview": "At the beginning of the scene Romeo in his gondola sings to Juliet a sentimental song, then goes away. Hardly has he departed when the colonnade falls to pieces, disclosing the devil. Juliet, frightened, runs to the window and calls Romeo. The latter attempts to enter and protect his fianc\u00e9e, but at a gesture from the devil the window is instantly covered with a grating and Romeo makes frantic efforts to break it. The devil begins to dance a wild dance before Juliet, who is beside herself from terror. The devil gradually becomes the size of a giant (a novel effect). Juliet implores the statue of Madonna, which becomes animated, descends from its pedestal, and stretching out its arms orders the devil to disappear. (M\u00e9li\u00e8s Catalog)", "poster_path": "/nQFQhzspDaJuWCH9NjUygfItVWb.jpg", "popularity": 1.447}, {"adult": false, "backdrop_path": null, "genre_ids": [14], "id": 195292, "original_language": "en", "original_title": "\u00c9vocation spirite", "overview": "A bearded man hangs up a wreath and, like any good magician, waves his hands inside of it and under it to show us it's only a wreath\u2026", "poster_path": "/ceIeNonmnWcFVeOqXuE6N2gYEa1.jpg", "release_date": "1899-05-20", "title": "Summoning the Spirits", "video": false, "vote_average": 5.5, "vote_count": 12, "popularity": 1.889}, {"id": 108278, "video": false, "vote_count": 13, "vote_average": 5.2, "title": "The Treasures of Satan", "release_date": "1902-01-01", "original_language": "fr", "original_title": "Les tr\u00e9sors de satan", "genre_ids": [14, 27], "backdrop_path": null, "adult": false, "overview": "The setting of this fantastic scene represents the hall of an old chateau in which a miser has locked up seven large bags containing his wealth. Satan, who has made his way into the chateau, puts the seven bags in a strong box, and makes with his hands some cabalistic motions. The miser comes into the hall and is greatly astonished to find his fortune missing. He opens the coffer and immediately the bags leap out. He gathers them up and puts them back into the coffer. When he opens it again he finds that they have been transformed into seven young girls, who rush out and chase after him, beating him unmercifully. They shut him up in the coffer from which his gold has vanished. The miser pushes open the lid of the coffer, and to his profound despair finds that both young girls and money have disappeared. (This view is most sensational in its mysterious scenes.) (Star Film Catalog)", "poster_path": "/gsjKVtlWq4uI08rmHeG2CfCoIxz.jpg", "popularity": 1.911}, {"adult": false, "backdrop_path": null, "genre_ids": [14, 35], "id": 44324, "original_language": "fr", "original_title": "Le Roi du maquillage", "overview": "The background of this picture represents a scene along the beautiful river Seine in Paris. A gentleman enters, and taking a blackboard from the side of the picture, he draws on it a sketch of a novelist. Then, standing in the centre, he causes the living features of his sketch to appear in the place of his own, which is utterly devoid of whiskers. The change is made so mysteriously that the eye cannot notice it until one sees quite another person in the place of the first. Again another sketch is shown on the board, this one being that of a miser; then an English cockney; a comic character; a French policeman, and last of all, the grinning visage of Mephistopheles. It is almost impossible to give this film a more definite description; suffice it to say that it is something entirely new in motion pictures and is sure to please. (M\u00e9li\u00e8s Catalog)", "poster_path": "/r3bnSsNeAtA2zPcnVoDGt9M5rI2.jpg", "release_date": "1904-03-05", "title": "The Untameable Whiskers", "video": false, "vote_average": 6.6, "vote_count": 19, "popularity": 1.052}, {"adult": false, "backdrop_path": null, "genre_ids": [14], "id": 104476, "original_language": "fr", "original_title": "L'Auberge ensorcel\u00e9e", "overview": "A weary traveler stops at an inn along the way to get a good night's sleep, but his rest is interrupted by odd happenings when he gets to his room--beds vanishing and re-appearing, candles exploding, pants flying through the air and his shoes walking away by themselves.", "poster_path": "/utYyznVhCNt8doNuMg56JL455Pd.jpg", "release_date": "1897-01-01", "title": "The Bewitched Inn", "video": false, "vote_average": 6.4, "vote_count": 23, "popularity": 1.692}, {"adult": false, "backdrop_path": null, "genre_ids": [35], "id": 172121, "original_language": "fr", "original_title": "Le Bourreau turc", "overview": "In a public place in Constantinople at the corner of a bazaar, the executioner is seated upon a stone and is resting from his daily labors while eating a crust of bread. Suddenly there come running into the place a lot of Turkish men and women preceding some Turkish policemen, who drag along four prisoners in chains. The policemen shut up the four prisoners in the pillory. Their four heads stick up through the huge plank, which is provided with four openings. One of the policemen urges the executioner to decapitate the prisoners. He accordingly seizes a mighty sabre and cuts off by a single stroke the four heads, which roll upon the ground.", "poster_path": "/mNXrj1r0QUbsO1iH0k1swnadrOW.jpg", "release_date": "1904-01-05", "title": "The Terrible Turkish Executioner", "video": false, "vote_average": 6.0, "vote_count": 11, "popularity": 1.176}, {"adult": false, "backdrop_path": null, "genre_ids": [35, 14], "id": 107261, "original_language": "en", "original_title": "L'antre des esprits", "overview": "A very enthusiastic magician performs several tricks.", "poster_path": "/byyqNEk7b77wZ8BItQ9j5xTMyXW.jpg", "release_date": "1901-01-01", "title": "The Magician's Cavern", "video": false, "vote_average": 5.4, "vote_count": 9, "popularity": 2.278}, {"adult": false, "backdrop_path": null, "genre_ids": [14, 35], "id": 107273, "original_language": "fr", "original_title": "Nain et g\u00e9ant", "overview": "A magician explores two halves of his self: The Dwarf and the Giant.", "poster_path": "/AbKvR7yy7uYitTO12eFHRTzET2R.jpg", "release_date": "1901-01-01", "title": "The Dwarf and the Giant", "video": false, "vote_average": 5.8, "vote_count": 9, "popularity": 0.981}, {"id": 107269, "video": false, "vote_count": 15, "vote_average": 6.0, "title": "Excelsior!", "release_date": "1901-01-01", "original_language": "fr", "original_title": "Excelsior!", "genre_ids": [35, 14], "backdrop_path": null, "adult": false, "overview": "A magician does tricks with the aid of his assistant, the Human Pump.", "poster_path": "/9aPSL9iMVLNQSA8s6vtUfkHI7AQ.jpg", "popularity": 1.203}, {"adult": false, "backdrop_path": null, "genre_ids": [35, 14], "id": 106808, "original_language": "fr", "original_title": "Le repas fantastique", "overview": "A family sits down to enjoy a meal that ends up being fraught with complications.", "poster_path": "/9W3YmymyMor807EvDXC4xsHdG6B.jpg", "release_date": "1900-01-01", "title": "A Fantastical Meal", "video": false, "vote_average": 5.6, "vote_count": 14, "popularity": 2.205}, {"id": 137757, "video": false, "vote_count": 23, "vote_average": 6.3, "title": "The Merry Frolics of Satan", "release_date": "1906-01-01", "original_language": "fr", "original_title": "Les quatre cents farces du diable", "genre_ids": [35, 14, 27], "backdrop_path": null, "adult": false, "overview": "Two travellers are tormented by Satan from inn to inn and eventually experience a buggy ride through the heavens courtesy of the Devil before he takes one of them down to Hell and roasts him on a spit.", "poster_path": "/xV7nuBa7lH2ermA32OsMW4eNtEV.jpg", "popularity": 1.742}, {"adult": false, "backdrop_path": null, "genre_ids": [35], "id": 106814, "original_language": "fr", "original_title": "Le Savant et le Chimpanz\u00e9", "overview": "A monkey wreaks havoc on a doctor.", "poster_path": "/ceSqnuY07NY4MvjCozW1JTf1BE9.jpg", "release_date": "1900-01-01", "title": "The Doctor and the Monkey", "video": false, "vote_average": 5.7, "vote_count": 13, "popularity": 1.419}, {"id": 127097, "video": false, "vote_count": 15, "vote_average": 5.6, "title": "The Enchanted Well", "release_date": "1903-01-01", "original_language": "fr", "original_title": "Le puits fantastique", "genre_ids": [], "backdrop_path": null, "adult": false, "overview": "A witch curses a town's well.", "poster_path": "/atMTE826JglGouS1qjLq0OLPuUn.jpg", "popularity": 1.661}, {"id": 114143, "video": false, "vote_count": 9, "vote_average": 5.7, "title": "The Inn Where No Man Rests", "release_date": "1903-01-01", "original_language": "fr", "original_title": "L\u2019Auberge du bon repos", "genre_ids": [35, 14], "backdrop_path": null, "adult": false, "overview": "A traveller is shown to a room in an inn. After a brief dispute with the hostess and a porter, he is left to himself. But strange things begin to happen in his room, and before long he has created a disturbance that has everyone running to his room to find out what is going on.", "poster_path": "/rykGNFLOY3FosNMjgJVcETeh4Zz.jpg", "popularity": 0.981}, {"adult": false, "backdrop_path": null, "genre_ids": [], "id": 137412, "original_language": "en", "original_title": "Les aventures de baron de Munchhausen", "overview": "After an evening of excessive wining and dining Baron Munchausen must be helped to bed by his servants. Once asleep, he has bizarre and frightening dreams.", "poster_path": "/2x9IVbxxxJB8ZXgURuUAQn8PUyK.jpg", "release_date": "1911-11-01", "title": "The Hallucinations of Baron Munchausen", "video": false, "vote_average": 5.6, "vote_count": 9, "popularity": 0.84}, {"adult": false, "backdrop_path": null, "genre_ids": [14, 35], "id": 107268, "original_language": "fr", "original_title": "Chez la sorci\u00e8re", "overview": "A sorceress conjures up a bevy of beauties for a bachelor to peruse.", "poster_path": "/uazGyWWDnmVSVMvPM3vRWxmfkVx.jpg", "release_date": "1901-01-01", "title": "The Bachelor's Paradise", "video": false, "vote_average": 4.8, "vote_count": 10, "popularity": 0.84}, {"adult": false, "backdrop_path": "/tSJuo07xgYCq4vmurgPaussLLdI.jpg", "genre_ids": [14, 27], "id": 16465, "original_language": "fr", "original_title": "Le chaudron infernal", "overview": "A green-skinned demon places a woman and two courtiers into a flaming cauldron.", "poster_path": "/i9P9pTPMaMCMRv2XwbAh06iladt.jpg", "release_date": "1903-10-17", "title": "The Infernal Cauldron", "video": false, "vote_average": 6.1, "vote_count": 31, "popularity": 1.964}, {"id": 190683, "video": false, "vote_count": 7, "vote_average": 4.9, "title": "Jupiter's Thunderballs", "release_date": "1903-11-07", "original_language": "fr", "original_title": "Le tonnerre de Jupiter", "genre_ids": [35, 14], "backdrop_path": null, "adult": false, "overview": "With godly entrapments, Zeus appears on the horizon, engages Hermes as an audience, and tries to throw some thunderbolts. They fizzle. Hephaestus tries to make some repairs but succeeds only in heating the bolts and burning Zeus's hands. Zeus conjures nine muses, but do their incantations help? He dismisses them as well as a visiting Pan, and his fits of pique become counter-productive. Can he get his powers back?", "poster_path": "/rVbNd1Mzv69wOvOm91gZnV4dL1l.jpg", "popularity": 1.421}, {"adult": false, "backdrop_path": null, "genre_ids": [], "id": 195954, "original_language": "fr", "original_title": "La Statue anim\u00e9e", "overview": "In a corner of the garden we see an ornamental fountain. An old professor comes along, looking for a nice spot where he can teach his pupils. Finding the fountain to his liking he goes after his scholars. A mysterious person who has noticed the old man, by means of a balloon, a handkerchief and a coat, constructs a peculiar figure, doing a lot of tricks at the same time.", "poster_path": "/w9aXXl6IVnuoc9QQSb8XfceWKOT.jpg", "release_date": "1903-01-01", "title": "The Drawing Lesson", "video": false, "vote_average": 4.1, "vote_count": 7, "popularity": 1.96}, {"adult": false, "backdrop_path": null, "genre_ids": [35, 14], "id": 106807, "original_language": "fr", "original_title": "Nouvelles luttes extravagantes", "overview": "A series of fantastical wrestling matches.", "poster_path": "/tn5J3PszVETDkKj49nakmeqr8Od.jpg", "release_date": "1900-01-01", "title": "The Fat and Lean Wrestling Match", "video": false, "vote_average": 6.6, "vote_count": 18, "popularity": 1.601}], "total_pages": 2, "total_results": 40}, "credits": {"cast": [{"cast_id": 2, "character": "", "credit_id": "549447f49251416e2200183e", "gender": 2, "id": 11523, "name": "Georges M\u00e9li\u00e8s", "order": 1, "profile_path": "/cjQ3IvPbkNArGjhj4dkGqEwOgdW.jpg"}], "crew": [{"credit_id": "52fe4689c3a36847f810469f", "department": "Directing", "gender": 2, "id": 11523, "job": "Director", "name": "Georges M\u00e9li\u00e8s", "profile_path": "/cjQ3IvPbkNArGjhj4dkGqEwOgdW.jpg"}]}}