{"adult": false, "backdrop_path": null, "belongs_to_collection": null, "budget": 0, "genres": [{"id": 16, "name": "Animation"}, {"id": 35, "name": "Comedy"}, {"id": 10749, "name": "Romance"}, {"id": 878, "name": "Science Fiction"}], "homepage": null, "id": 44486, "imdb_id": "tt1109488", "original_language": "en", "original_title": "Mars", "overview": "A new space race is born between NASA and the ESA when Charlie Brownsville, Hank Morrison, and Dr. Casey Cook compete against an artificially intelligent robot to find out what's up there on the red planet. 'Mars' follows these three astronauts on the first manned mission to our galactic neighbor. On the way they experience life threatening accidents, self doubts, obnoxious reporters, and the boredom of extended space travel.", "popularity": 1.684, "poster_path": "/pFA5Pf21svBoOGIsNHoc0Okl9V0.jpg", "production_companies": [{"id": 100448, "logo_path": null, "name": "Devolver Digital", "origin_country": ""}, {"id": 57998, "logo_path": null, "name": "Swerve Pictures", "origin_country": ""}], "production_countries": [], "release_date": "2010-11-03", "revenue": 0, "runtime": 82, "spoken_languages": [{"iso_639_1": "ru", "name": "P\u0443\u0441\u0441\u043a\u0438\u0439"}, {"iso_639_1": "en", "name": "English"}], "status": "Released", "tagline": "Looking for life and love on Mars.", "title": "Mars", "video": false, "vote_average": 5.6, "vote_count": 8, "keywords": {"keywords": [{"id": 839, "name": "planet mars"}, {"id": 3801, "name": "space travel"}, {"id": 4862, "name": "alien life-form"}, {"id": 9823, "name": "rivalry"}, {"id": 14626, "name": "astronaut"}]}, "similar": {"page": 1, "results": [{"id": 157336, "video": false, "vote_count": 20609, "vote_average": 8.3, "title": "Interstellar", "release_date": "2014-11-05", "original_language": "en", "original_title": "Interstellar", "genre_ids": [12, 18, 878], "backdrop_path": "/xu9zaAevzQ5nnrsXN6JcahLnG4i.jpg", "adult": false, "overview": "Interstellar chronicles the adventures of a group of explorers who make use of a newly discovered wormhole to surpass the limitations on human space travel and conquer the vast distances involved in an interstellar voyage.", "poster_path": "/nBNZadXqJSdt05SHLqgT0HuC5Gm.jpg", "popularity": 53.312}, {"id": 286217, "video": false, "vote_count": 13234, "vote_average": 7.7, "title": "The Martian", "release_date": "2015-09-30", "original_language": "en", "original_title": "The Martian", "genre_ids": [12, 18, 878], "backdrop_path": "/sy3e2e4JwdAtd2oZGA2uUilZe8j.jpg", "adult": false, "overview": "During a manned mission to Mars, Astronaut Mark Watney is presumed dead after a fierce storm and left behind by his crew. But Watney has survived and finds himself stranded and alone on the hostile planet. With only meager supplies, he must draw upon his ingenuity, wit and spirit to subsist and find a way to signal to Earth that he is alive.", "poster_path": "/5aGhaIHYuQbqlHWvWYqMCnj40y2.jpg", "popularity": 45.972}, {"id": 369972, "video": false, "vote_count": 2999, "vote_average": 7.1, "title": "First Man", "release_date": "2018-10-11", "original_language": "en", "original_title": "First Man", "genre_ids": [18, 36], "backdrop_path": "/jrudoaXcoLyHRPdolyOGemXgPEs.jpg", "adult": false, "overview": "A look at the life of the astronaut, Neil Armstrong, and the legendary space mission that led him to become the first man to walk on the Moon on July 20, 1969.", "poster_path": "/i91mfvFcPPlaegcbOyjGgiWfZzh.jpg", "popularity": 33.506}, {"id": 395992, "video": false, "vote_count": 4625, "vote_average": 6.4, "title": "Life", "release_date": "2017-03-22", "original_language": "en", "original_title": "Life", "genre_ids": [27, 878, 53], "backdrop_path": "/nNh7vHHISVAaziJEqAq0P9iL52w.jpg", "adult": false, "overview": "The six-member crew of the International Space Station is tasked with studying a sample from Mars that may be the first proof of extra-terrestrial life, which proves more intelligent than ever expected.", "poster_path": "/h2mhfbEBGABSHo2vXG1ECMKAJa7.jpg", "popularity": 20.7}, {"adult": false, "backdrop_path": "/qHo4hRPJMlcLrtehK9d1m2MTrj9.jpg", "genre_ids": [18, 878, 9648, 10749], "id": 2103, "original_language": "en", "original_title": "Solaris", "overview": "A troubled psychologist is sent to investigate the crew of an isolated research station orbiting a bizarre planet.", "poster_path": "/8TTniVKEjUWs3DnAMEWMXP6V1ct.jpg", "release_date": "2002-11-27", "title": "Solaris", "video": false, "vote_average": 6.0, "vote_count": 718, "popularity": 10.76}, {"adult": false, "backdrop_path": "/y97xS60jrTzOmDb2jwB0IP57qig.jpg", "genre_ids": [878], "id": 2067, "original_language": "en", "original_title": "Mission to Mars", "overview": "When contact is lost with the crew of the first Mars expedition, a rescue mission is launched to discover their fate.", "poster_path": "/i0VuEfR5n1rPzlMX4eJdXaYWd5J.jpg", "release_date": "2000-03-10", "title": "Mission to Mars", "video": false, "vote_average": 5.9, "vote_count": 746, "popularity": 14.926}, {"id": 49047, "video": false, "vote_count": 10489, "vote_average": 7.2, "title": "Gravity", "release_date": "2013-10-03", "original_language": "en", "original_title": "Gravity", "genre_ids": [18, 878, 53], "backdrop_path": "/cQPbUnglzgIE6XDnh1dHnHKB26Y.jpg", "adult": false, "overview": "Dr. Ryan Stone, a brilliant medical engineer on her first Shuttle mission, with veteran astronaut Matt Kowalsky in command of his last flight before retiring. But on a seemingly routine spacewalk, disaster strikes. The Shuttle is destroyed, leaving Stone and Kowalsky completely alone-tethered to nothing but each other and spiraling out into the blackness of space. The deafening silence tells them they have lost any link to Earth and any chance for rescue. As fear turns to panic, every gulp of air eats away at what little oxygen is left. But the only way home may be to go further out into the terrifying expanse of space.", "poster_path": "/uPxtxhB2Fy9ihVqtBtNGHmknJqV.jpg", "popularity": 28.154}, {"adult": false, "backdrop_path": "/rkaP7dnHenOr2n2IqMxip6rtT4W.jpg", "genre_ids": [878, 9648, 12], "id": 62, "original_language": "en", "original_title": "2001: A Space Odyssey", "overview": "Humanity finds a mysterious object buried beneath the lunar surface and sets off to find its origins with the help of HAL 9000, the world's most advanced super computer.", "poster_path": "/90T7b2LIrL07ndYQBmSm09yqVEH.jpg", "release_date": "1968-04-09", "title": "2001: A Space Odyssey", "video": false, "vote_average": 8.1, "vote_count": 6599, "popularity": 29.833}, {"id": 126889, "video": false, "vote_count": 5389, "vote_average": 5.9, "title": "Alien: Covenant", "release_date": "2017-05-09", "original_language": "en", "original_title": "Alien: Covenant", "genre_ids": [27, 878, 53], "backdrop_path": "/6jajFcaY2YsfGQstJ5HaqZNVseX.jpg", "adult": false, "overview": "Bound for a remote planet on the far side of the galaxy, the crew of the colony ship 'Covenant' discovers what is thought to be an uncharted paradise, but is actually a dark, dangerous world\u2014which has a sole inhabitant: the 'synthetic', David, survivor of the doomed Prometheus expedition.", "poster_path": "/zecMELPbU5YMQpC81Z8ImaaXuf9.jpg", "popularity": 36.026}, {"adult": false, "backdrop_path": "/5EW4TR3fWEqpKsWysNcBMtz9Sgp.jpg", "genre_ids": [18, 10749, 878], "id": 274870, "original_language": "en", "original_title": "Passengers", "overview": "A spacecraft traveling to a distant colony planet and transporting thousands of people has a malfunction in its sleep chambers. As a result, two passengers are awakened 90 years early.", "poster_path": "/5gJkVIVU7FDp7AfRAbPSvvdbre2.jpg", "release_date": "2016-12-21", "title": "Passengers", "video": false, "vote_average": 6.9, "vote_count": 8647, "popularity": 19.808}, {"id": 13475, "video": false, "vote_count": 6839, "vote_average": 7.4, "title": "Star Trek", "release_date": "2009-05-06", "original_language": "en", "original_title": "Star Trek", "genre_ids": [28, 12, 878], "backdrop_path": "/1XOSh6BFZbQ0xN75m4avqgzClyG.jpg", "adult": false, "overview": "The fate of the galaxy rests in the hands of bitter rivals. One, James Kirk, is a delinquent, thrill-seeking Iowa farm boy. The other, Spock, a Vulcan, was raised in a logic-based society that rejects all emotion. As fiery instinct clashes with calm reason, their unlikely but powerful partnership is the only thing capable of leading their crew through unimaginable danger, boldly going where no one has gone before. The human adventure has begun again.", "poster_path": "/xPihqTMhCh6b8DHYzE61jrIiNMS.jpg", "popularity": 25.759}, {"id": 8656, "video": false, "vote_count": 1621, "vote_average": 6.1, "title": "Deep Impact", "release_date": "1998-05-08", "original_language": "en", "original_title": "Deep Impact", "genre_ids": [28, 18, 878], "backdrop_path": "/zdPHv4OkhjUNTCO0KkhoowfJmH0.jpg", "adult": false, "overview": "A seven-mile-wide space rock is hurtling toward Earth, threatening to obliterate the planet. Now, it's up to the president of the United States to save the world. He appoints a tough-as-nails veteran astronaut to lead a joint American-Russian crew into space to destroy the comet before impact. Meanwhile, an enterprising reporter uses her smarts to uncover the scoop of the century.", "poster_path": "/nbF4Tuj4OY8btrjoOHtk64hkKbJ.jpg", "popularity": 27.398}, {"id": 8077, "video": false, "vote_count": 3112, "vote_average": 6.3, "title": "Alien\u00b3", "release_date": "1992-05-22", "original_language": "en", "original_title": "Alien\u00b3", "genre_ids": [28, 27, 878], "backdrop_path": "/nDPuIjpJyGDOnNEby5ZgkRBxymS.jpg", "adult": false, "overview": "After escaping with Newt and Hicks from the alien planet, Ripley crash lands on Fiorina 161, a prison planet and host to a correctional facility. Unfortunately, although Newt and Hicks do not survive the crash, a more unwelcome visitor does. The prison does not allow weapons of any kind, and with aid being a long time away, the prisoners must simply survive in any way they can.", "poster_path": "/p7mUd9GpmCYV5qhkKGmiEerFK3i.jpg", "popularity": 25.873}, {"id": 568, "video": false, "vote_count": 3185, "vote_average": 7.4, "title": "Apollo 13", "release_date": "1995-06-30", "original_language": "en", "original_title": "Apollo 13", "genre_ids": [18, 36], "backdrop_path": "/yiNo78Sx3uioxKwHuCVjnAu8ZHv.jpg", "adult": false, "overview": "The true story of technical troubles that scuttle the Apollo 13 lunar mission in 1971, risking the lives of astronaut Jim Lovell and his crew, with the failed journey turning into a thrilling saga of heroism. Drifting more than 200,000 miles from Earth, the astronauts work furiously with the ground crew to avert tragedy.", "poster_path": "/6JQ9z3V9x4vlU2GSZx2yNO0PvuX.jpg", "popularity": 35.051}, {"id": 419704, "video": false, "vote_count": 1927, "vote_average": 6.0, "title": "Ad Astra", "release_date": "2019-09-17", "original_language": "en", "original_title": "Ad Astra", "genre_ids": [12, 18, 9648, 878, 53], "backdrop_path": "/5BwqwxMEjeFtdknRV792Svo0K1v.jpg", "adult": false, "overview": "The near future, a time when both hope and hardships drive humanity to look to the stars and beyond. While a mysterious phenomenon menaces to destroy life on planet Earth, astronaut Roy McBride undertakes a mission across the immensity of space and its many perils to uncover the truth about a lost expedition that decades before boldly faced emptiness and silence in search of the unknown.", "poster_path": "/xBHvZcjRiWyobQ9kxBhO6B2dtRI.jpg", "popularity": 743.027}, {"adult": false, "backdrop_path": "/lI3qV4kiSg0BvE6gelzV0tPAoFK.jpg", "genre_ids": [28, 53, 878, 12], "id": 95, "original_language": "en", "original_title": "Armageddon", "overview": "When an asteroid threatens to collide with Earth, NASA honcho Dan Truman determines the only way to stop it is to drill into its surface and detonate a nuclear bomb. This leads him to renowned driller Harry Stamper, who agrees to helm the dangerous space mission provided he can bring along his own hotshot crew. Among them is the cocksure A.J. who Harry thinks isn't good enough for his daughter, until the mission proves otherwise.", "poster_path": "/coINnuCzcw5FMHBty8hcudMOBnO.jpg", "release_date": "1998-07-01", "title": "Armageddon", "video": false, "vote_average": 6.7, "vote_count": 4739, "popularity": 28.416}, {"adult": false, "backdrop_path": "/dfNrZ82poQ8blHWJreIv6JZQ9JA.jpg", "genre_ids": [27, 878], "id": 348, "original_language": "en", "original_title": "Alien", "overview": "During its return to the earth, commercial spaceship Nostromo intercepts a distress signal from a distant planet. When a three-member team of the crew discovers a chamber containing thousands of eggs on the planet, a creature inside one of the eggs attacks an explorer. The entire crew is unaware of the impending nightmare set to descend upon them when the alien parasite planted inside its unfortunate host is birthed.", "poster_path": "/2h00HrZs89SL3tXB4nbkiM7BKHs.jpg", "release_date": "1979-05-25", "title": "Alien", "video": false, "vote_average": 8.1, "vote_count": 8383, "popularity": 41.028}, {"id": 438740, "video": false, "vote_count": 187, "vote_average": 7.1, "title": "Salyut-7", "release_date": "2017-09-22", "original_language": "ru", "original_title": "\u0421\u0430\u043b\u044e\u0442-7", "genre_ids": [28, 12, 18], "backdrop_path": "/iQmSFq30zjMJxXfb3GehRaFH5Fp.jpg", "adult": false, "overview": "Salyut 7, the Soviet space station, was orbiting Earth in unmanned regime. Suddenly it stops responding to signals from the Ground Control. Fall of this station, the pride of soviet science and space industry, would not only damage the image of the country, but also bring upon tragedy, probably with loss of life. Astronauts have to be sent to the station to find what caused the breakdown and prevent the catastrophe. However, nobody has ever docked an uncontrolled object in space. To this day this is the most technically complicated mission in the history of the world of space navigation.", "poster_path": "/s2ktgF2ze4aVt9bXBUvxFJllqyd.jpg", "popularity": 15.019}, {"adult": false, "backdrop_path": "/pZz5VmundsZO29sB3TgZKjnFEEM.jpg", "genre_ids": [35, 878], "id": 957, "original_language": "en", "original_title": "Spaceballs", "overview": "When the nefarious Dark Helmet hatches a plan to snatch Princess Vespa and steal her planet's air, space-bum-for-hire Lone Starr and his clueless sidekick fly to the rescue. Along the way, they meet Yogurt, who puts Lone Starr wise to the power of \"The Schwartz.\" Can he master it in time to save the day?", "poster_path": "/xWt9KAcToCRdJ6JH8JyZZlhkVgG.jpg", "release_date": "1987-06-24", "title": "Spaceballs", "video": false, "vote_average": 6.8, "vote_count": 1694, "popularity": 20.277}, {"id": 11935, "video": false, "vote_count": 215, "vote_average": 6.8, "title": "Capricorn One", "release_date": "1977-12-10", "original_language": "en", "original_title": "Capricorn One", "genre_ids": [28, 18, 878, 53], "backdrop_path": "/iZAXxEDTZoA7A65mdzHXdF8bySU.jpg", "adult": false, "overview": "In order to protect the reputation of the American space program, a team of scientists stages a phony Mars landing. Willingly participating in the deception are a trio of well-meaning astronauts, who become liabilities when their space capsule is reported lost on re-entry. Now, with the help of a crusading reporter, they must battle a sinister conspiracy that will stop at nothing to keep the truth.", "poster_path": "/iHhMZP9YFRdKbBP1jLFrN9Xkh3T.jpg", "popularity": 9.942}], "total_pages": 51, "total_results": 1009}, "recommendations": {"page": 1, "results": [{"adult": false, "backdrop_path": "/vE6U4DVauV0zUIP2qE6GAFEYWl8.jpg", "genre_ids": [878], "id": 66918, "original_language": "en", "original_title": "Beginning of the End", "overview": "An attractive reporter investigating the mysterious destruction of an Illinois town stumbles upon a secret government laboratory conducting radiation experiments on vegetables. The lead scientist is eager to help find out what happened. Together they discover that giant grasshoppers are behind the devastation. Worse yet, thousands of them are headed toward Chicago! Can they be stopped... or is this the BEGINNING OF THE END?", "poster_path": "/uPLhC09RiaZVPCchuwduzm7Q7my.jpg", "release_date": "1957-06-28", "title": "Beginning of the End", "video": false, "vote_average": 3.9, "vote_count": 21, "popularity": 4.514}, {"adult": false, "backdrop_path": null, "genre_ids": [], "id": 128063, "original_language": "en", "original_title": "Are You Ready for Marriage?", "overview": "1950 - a young couple find out whether they are \"ready for marriage\".", "poster_path": "/1W8150jyqwBrdouY7aunN5oa2Xo.jpg", "release_date": "1950-12-31", "title": "Are You Ready for Marriage?", "video": false, "vote_average": 3.8, "vote_count": 9, "popularity": 1.79}, {"adult": false, "backdrop_path": "/5JbCMbTx0zpOmn2TlQZSmi4MXOl.jpg", "genre_ids": [12, 14], "id": 31396, "original_language": "it", "original_title": "Maciste e la regina di Samar", "overview": "Hercules is summoned to oppose the evil Queen Samara, who has allied herself with aliens and is sacrificing her own people in a bid to awaken a moon goddess.", "poster_path": "/zFR4WPYtwEZi8iQG4alCiK3z5v7.jpg", "release_date": "1964-06-27", "title": "Hercules Against the Moon Men", "video": false, "vote_average": 2.7, "vote_count": 14, "popularity": 2.759}, {"id": 40980, "video": false, "vote_count": 23, "vote_average": 7.4, "title": "Heroes of the East", "release_date": "1978-12-30", "original_language": "zh", "original_title": "\u4e2d\u83ef\u4e08\u592b", "genre_ids": [28], "backdrop_path": "/7ZmjcyQZYtemIQ5h5FouowlDrBM.jpg", "adult": false, "overview": "Gordon Liu stars as a Chinese martial arts student struggling to relate to his new Japanese wife. When a series of martial misunderstandings spirals into an international incident, he's forced to take on seven of Japan's most powerful martial arts masters, each an expert in a different discipline, ranging from karate to samurai to ninjitsu.", "poster_path": "/o3zz23wE9SX0LOi7aQYkwTmzZDn.jpg", "popularity": 3.512}, {"adult": false, "backdrop_path": "/ycY9c5DZgiM4ZK0eb8fR4YSj3w2.jpg", "genre_ids": [18, 80], "id": 89751, "original_language": "en", "original_title": "The Beatniks", "overview": "A young singer's chance at fame is threatened by his hoodlum pals.", "poster_path": "/okFNLh5poZBGhQ3mi0aR2tT7VLn.jpg", "release_date": "1960-01-01", "title": "The Beatniks", "video": false, "vote_average": 2.7, "vote_count": 10, "popularity": 3.308}, {"adult": false, "backdrop_path": "/sSbzcClcUeFziI2TNqcl8Mbl52C.jpg", "genre_ids": [80, 18, 53], "id": 31286, "original_language": "en", "original_title": "The Sinister Urge", "overview": "A flunky for a porno movie ring starts murdering the smut films' lead actresses", "poster_path": "/i7TiUiGdJ1G8D8SnaA89NpJara9.jpg", "release_date": "1960-12-08", "title": "The Sinister Urge", "video": false, "vote_average": 2.5, "vote_count": 12, "popularity": 2.213}, {"id": 155399, "video": false, "vote_count": 10, "vote_average": 3.6, "title": "The Day the Earth Froze", "release_date": "1959-08-24", "original_language": "fi", "original_title": "Sampo", "genre_ids": [12, 14], "backdrop_path": "/iFHreNVsm7rqJBbhlUEoDslRml0.jpg", "adult": false, "overview": "Based on Finnish mythology, this movie traces the exploits of Lemmink\u00e4inen as he woos the fair Annikki and battles the evil witch Louhi. Louhi kidnaps Annikki to compel her father to build for her a Sampo, a magical device that creates salt, grain, and gold. When Lemmink\u00e4inen tries (and fails) to recover the Sampo, Louhi steals the sun, plunging the world into frozen darkness.", "poster_path": "/jZLKbEbi8ycUyCXdm66dKAq9bTa.jpg", "popularity": 2.123}, {"adult": false, "backdrop_path": null, "genre_ids": [18], "id": 31282, "original_language": "en", "original_title": "I Accuse My Parents", "overview": "Ignored by his alcoholic parents, Jimmy Wilson starts hanging around with some shady characters. After falling in love with a lounge singer, Jimmy tries to impress her by doing jobs for her shady boss. After one of these jobs goes bad, Jimmy ends up on the run. Eventually, he must confront the truth, his past, and his parents. The judge cites parental neglect in the case of a teenager (John Miljan) charged with murder.", "poster_path": "/zdcpIQfKyoYBZEzzNxSbvxCTySc.jpg", "release_date": "1944-10-27", "title": "I Accuse My Parents", "video": false, "vote_average": 2.7, "vote_count": 18, "popularity": 3.45}], "total_pages": 1, "total_results": 8}, "credits": {"cast": [{"cast_id": 2, "character": "Charlie Brownsville", "credit_id": "52fe468bc3a36847f8104b93", "gender": 2, "id": 45407, "name": "Mark Duplass", "order": 0, "profile_path": "/pY2qE627sM0Wkx6HvQQWeZ6fd15.jpg"}, {"cast_id": 3, "character": "Casey Cook", "credit_id": "52fe468bc3a36847f8104b97", "gender": 1, "id": 53130, "name": "Zoe Simpson", "order": 1, "profile_path": "/h36tEOcYyg7jBj7y6crlb5VA1za.jpg"}, {"cast_id": 4, "character": "Hank Morrison", "credit_id": "52fe468bc3a36847f8104b9b", "gender": 2, "id": 602161, "name": "Paul Gordon", "order": 2, "profile_path": null}, {"cast_id": 5, "character": "Allison Guthrie", "credit_id": "52fe468bc3a36847f8104b9f", "gender": 1, "id": 36216, "name": "Cynthia Watros", "order": 3, "profile_path": "/o2PuanTsnBoUVxck9w1ezwG3Nml.jpg"}, {"cast_id": 6, "character": "Jackson", "credit_id": "52fe468bc3a36847f8104ba3", "gender": 0, "id": 1030558, "name": "James Kochalka", "order": 4, "profile_path": null}, {"cast_id": 7, "character": "Jewel", "credit_id": "5803046cc3a36873e40027d7", "gender": 1, "id": 55546, "name": "Liza Weil", "order": 5, "profile_path": "/7CG2MTcP37fhgJyGztHLK6rGpq6.jpg"}], "crew": [{"credit_id": "52fe468bc3a36847f8104b8f", "department": "Directing", "gender": 0, "id": 887794, "job": "Director", "name": "Geoff Marslett", "profile_path": "/lzLxoEQQAF7jZB4IwAu6iHdxmwq.jpg"}]}}