{"adult": false, "backdrop_path": "/n2vZjkqcDMqRcIFLCLPsRBBuaJN.jpg", "belongs_to_collection": null, "budget": 700000, "genres": [{"id": 35, "name": "Comedy"}, {"id": 18, "name": "Drama"}, {"id": 10749, "name": "Romance"}], "homepage": null, "id": 44593, "imdb_id": "tt0259567", "original_language": "en", "original_title": "Perfect Opposites", "overview": "The story of two college graduates from the Midwest who move to Los Angeles, where their love is tested for the first time.", "popularity": 4.606, "poster_path": "/jlUy2Tso2slW7M7Bd2kiHdza7XL.jpg", "production_companies": [], "production_countries": [{"iso_3166_1": "US", "name": "United States of America"}], "release_date": "2004-02-06", "revenue": 16201, "runtime": 90, "spoken_languages": [{"iso_639_1": "en", "name": "English"}], "status": "Released", "tagline": "", "title": "Perfect Opposites", "video": false, "vote_average": 6.3, "vote_count": 9, "keywords": {"keywords": [{"id": 3805, "name": "relocation"}, {"id": 5625, "name": "relationship problems"}, {"id": 12670, "name": "los angeles, california"}, {"id": 156153, "name": "ice cream"}, {"id": 208267, "name": "relationship end"}]}, "similar": {"page": 1, "results": [{"adult": false, "backdrop_path": "/7RRuRcGuWkZGuRyYugfXn0Fgrrr.jpg", "genre_ids": [28, 80, 18, 53], "id": 949, "original_language": "en", "original_title": "Heat", "overview": "Obsessive master thief, Neil McCauley leads a top-notch crew on various daring heists throughout Los Angeles while determined detective, Vincent Hanna pursues him without rest. Each man recognizes and respects the ability and the dedication of the other even though they are aware their cat-and-mouse game may end in violence.", "poster_path": "/6pmLVffM9jEYK7VqDJqPblMxfEY.jpg", "release_date": "1995-12-15", "title": "Heat", "video": false, "vote_average": 7.8, "vote_count": 3615, "popularity": 21.973}, {"id": 856, "video": false, "vote_count": 3249, "vote_average": 7.4, "title": "Who Framed Roger Rabbit", "release_date": "1988-06-21", "original_language": "en", "original_title": "Who Framed Roger Rabbit", "genre_ids": [16, 35, 80, 14, 10751], "backdrop_path": "/9podqGmd36AJHO13HQIQHQZRTJC.jpg", "adult": false, "overview": "'Toon star Roger is worried that his wife Jessica is playing pattycake with someone else, so the studio hires detective Eddie Valiant to snoop on her. But the stakes are quickly raised when Marvin Acme is found dead and Roger is the prime suspect.", "poster_path": "/lYfRc57Kx9VgLZ48iulu0HKnM15.jpg", "popularity": 20.755}, {"adult": false, "backdrop_path": "/77ElMccPnTMPouRxSdbJ4nEjf69.jpg", "genre_ids": [35, 80], "id": 115, "original_language": "en", "original_title": "The Big Lebowski", "overview": "Jeffrey \"The Dude\" Lebowski, a Los Angeles slacker who only wants to bowl and drink White Russians, is mistaken for another Jeffrey Lebowski, a wheelchair-bound millionaire, and finds himself dragged into a strange series of events involving nihilists, adult film producers, ferrets, errant toes, and large sums of money.", "poster_path": "/qiE3ovg9TPylHReZjizQ40LsKZV.jpg", "release_date": "1998-03-06", "title": "The Big Lebowski", "video": false, "vote_average": 7.9, "vote_count": 6432, "popularity": 23.538}, {"id": 78, "video": false, "vote_count": 8365, "vote_average": 7.9, "title": "Blade Runner", "release_date": "1982-06-25", "original_language": "en", "original_title": "Blade Runner", "genre_ids": [18, 878, 53], "backdrop_path": "/eIi3klFf7mp3oL5EEF4mLIDs26r.jpg", "adult": false, "overview": "In the smog-choked dystopian Los Angeles of 2019, blade runner Rick Deckard is called out of retirement to terminate a quartet of replicants who have escaped to Earth seeking their creator for a way to extend their short life spans.", "poster_path": "/vfzE3pjE5G7G7kcZWrA3fnbZo7V.jpg", "popularity": 33.322}, {"id": 242582, "video": false, "vote_count": 6508, "vote_average": 7.7, "title": "Nightcrawler", "release_date": "2014-10-23", "original_language": "en", "original_title": "Nightcrawler", "genre_ids": [80, 18, 53], "backdrop_path": "/gktL2rfE7d1xrwPSSTohxLOjLSs.jpg", "adult": false, "overview": "When Lou Bloom, desperate for work, muscles into the world of L.A. crime journalism, he blurs the line between observer and participant to become the star of his own story. Aiding him in his effort is Nina, a TV-news veteran.", "poster_path": "/8oPY6ULFOTbAEskySNhgsUIN4fW.jpg", "popularity": 30.383}, {"adult": false, "backdrop_path": "/kQYBOmJHSUzxeY7VnUXo4t4WIl7.jpg", "genre_ids": [80, 18, 9648, 53], "id": 829, "original_language": "en", "original_title": "Chinatown", "overview": "Private eye Jake Gittes lives off of the murky moral climate of sunbaked, pre-World War II Southern California. Hired by a beautiful socialite to investigate her husband's extra-marital affair, Gittes is swept into a maelstrom of double dealings and deadly deceits, uncovering a web of personal and political scandals that come crashing together.", "poster_path": "/iIHO6FzF6lL4mA90rrmk3Y705XS.jpg", "release_date": "1974-06-20", "title": "Chinatown", "video": false, "vote_average": 7.9, "vote_count": 2007, "popularity": 20.802}, {"adult": false, "backdrop_path": "/uCjCNaxLyLkcwBq4aOHOeiKKwPE.jpg", "genre_ids": [35, 10749, 80, 18, 9648], "id": 171274, "original_language": "en", "original_title": "Inherent Vice", "overview": "In Los Angeles at the turn of the 1970s, drug-fueled detective Larry \"Doc\" Sportello investigates the disappearance of an ex-girlfriend.", "poster_path": "/2fCg6FORkgRLpFIKlUg4gULIn1u.jpg", "release_date": "2014-12-25", "title": "Inherent Vice", "video": false, "vote_average": 6.6, "vote_count": 1536, "popularity": 20.663}, {"id": 1538, "video": false, "vote_count": 2891, "vote_average": 7.2, "title": "Collateral", "release_date": "2004-08-04", "original_language": "en", "original_title": "Collateral", "genre_ids": [80, 18, 53], "backdrop_path": "/hFcXrnmciPfIg8ZcXb1V7BeguF.jpg", "adult": false, "overview": "Cab driver Max picks up a man who offers him $600 to drive him around. But the promise of easy money sours when Max realizes his fare is an assassin.", "poster_path": "/fmkv2eRuYCTq7A5jzMBNgoNe1vA.jpg", "popularity": 22.701}, {"id": 1018, "video": false, "vote_count": 3312, "vote_average": 7.8, "title": "Mulholland Drive", "release_date": "2001-09-08", "original_language": "en", "original_title": "Mulholland Drive", "genre_ids": [18, 9648, 53], "backdrop_path": "/91KNvuQXrWq5vehtQpciCOiOyJe.jpg", "adult": false, "overview": "Blonde Betty Elms has only just arrived in Hollywood to become a movie star when she meets an enigmatic brunette with amnesia. Meanwhile, as the two set off to solve the second woman's identity, filmmaker Adam Kesher runs into ominous trouble while casting his latest project.", "poster_path": "/tVxGt7uffLVhIIcwuldXOMpFBPX.jpg", "popularity": 22.494}, {"adult": false, "backdrop_path": "/zfEAP6lBX8jbdgPnUkxVlh1TPlL.jpg", "genre_ids": [10749, 35], "id": 114, "original_language": "en", "original_title": "Pretty Woman", "overview": "When a millionaire wheeler-dealer enters a business contract with a Hollywood hooker Vivian Ward, he loses his heart in the bargain.", "poster_path": "/fgmdaCMxXClZm2ePteLzCPySB1n.jpg", "release_date": "1990-03-23", "title": "Pretty Woman", "video": false, "vote_average": 7.3, "vote_count": 4252, "popularity": 22.335}, {"id": 2034, "video": false, "vote_count": 3169, "vote_average": 7.4, "title": "Training Day", "release_date": "2001-10-05", "original_language": "en", "original_title": "Training Day", "genre_ids": [28, 80, 18, 53], "backdrop_path": "/A1S9fBzc4Wepc6onnCd9eVR2FLp.jpg", "adult": false, "overview": "On his first day on the job as a narcotics officer, a rookie cop works with a rogue detective who isn't what he appears.", "poster_path": "/sDT2biSB7wzBJdXq9o3ldr7VfvY.jpg", "popularity": 12.719}, {"id": 319, "video": false, "vote_count": 1440, "vote_average": 7.5, "title": "True Romance", "release_date": "1993-09-09", "original_language": "en", "original_title": "True Romance", "genre_ids": [28, 80, 53, 10749], "backdrop_path": "/f0qqTEyVmmztypEMV3THRdnBjFj.jpg", "adult": false, "overview": "Clarence marries hooker Alabama, steals cocaine from her pimp, and tries to sell it in Hollywood, while the owners of the coke try to reclaim it.", "poster_path": "/xBO8R3CZfrJ9rrwrZoJ68PgJyAR.jpg", "popularity": 21.384}, {"id": 941, "video": false, "vote_count": 2548, "vote_average": 7.2, "title": "Lethal Weapon", "release_date": "1987-03-06", "original_language": "en", "original_title": "Lethal Weapon", "genre_ids": [28, 12, 35, 80, 53], "backdrop_path": "/xQpCA4QIEKcfsLf7CSeSM0tHCY7.jpg", "adult": false, "overview": "Veteran buttoned-down LAPD detective Roger Murtaugh is partnered with unhinged cop Martin Riggs, who -- distraught after his wife's death -- has a death wish and takes unnecessary risks with criminals at every turn. The odd couple embark on their first homicide investigation as partners, involving a young woman known to Murtaugh with ties to a drug and prostitution ring.", "poster_path": "/drp80fBSWhz0vAmzUibXDyn0Pjo.jpg", "popularity": 15.283}, {"adult": false, "backdrop_path": "/zRdK2OQ0BquK3mTrCu6AODiBtxi.jpg", "genre_ids": [18, 80, 10749], "id": 13703, "original_language": "en", "original_title": "Less than Zero", "overview": "A college freshman returns to Los Angeles for the holidays at his ex-girlfriend's request, but discovers that his former best friend has an out-of-control drug habit.", "poster_path": "/lhLLXxyjmRTQy2auxzCo6wqYNqM.jpg", "release_date": "1987-11-06", "title": "Less than Zero", "video": false, "vote_average": 6.4, "vote_count": 158, "popularity": 9.378}, {"id": 77, "video": false, "vote_count": 8688, "vote_average": 8.2, "title": "Memento", "release_date": "2000-10-11", "original_language": "en", "original_title": "Memento", "genre_ids": [9648, 53], "backdrop_path": "/q2CtXYjp9IlnfBcPktNkBPsuAEO.jpg", "adult": false, "overview": "Leonard Shelby is tracking down the man who raped and murdered his wife. The difficulty of locating his wife's killer, however, is compounded by the fact that he suffers from a rare, untreatable form of short-term memory loss. Although he can recall details of life before his accident, Leonard cannot remember what happened fifteen minutes ago, where he's going, or why.", "poster_path": "/fQMSaP88cf1nz4qwuNEEFtazuDM.jpg", "popularity": 29.724}, {"id": 86838, "video": false, "vote_count": 2335, "vote_average": 6.8, "title": "Seven Psychopaths", "release_date": "2012-09-07", "original_language": "en", "original_title": "Seven Psychopaths", "genre_ids": [35, 80], "backdrop_path": "/4H6vE7fvB0gvaaSRJyguUu67FvF.jpg", "adult": false, "overview": "A struggling screenwriter inadvertently becomes entangled in the Los Angeles criminal underworld after his oddball friends kidnap a gangster's beloved Shih Tzu.", "poster_path": "/3Zs6Ne6QAEOzQRz85VToH8ml6ab.jpg", "popularity": 10.225}, {"id": 64690, "video": false, "vote_count": 7489, "vote_average": 7.5, "title": "Drive", "release_date": "2011-08-06", "original_language": "en", "original_title": "Drive", "genre_ids": [28, 80, 18, 53], "backdrop_path": "/2qR5pJEMumBCKPxFrfx7RU25oVk.jpg", "adult": false, "overview": "A Hollywood stunt performer who moonlights as a wheelman for criminals discovers that a contract has been put on him after a heist gone wrong.", "poster_path": "/nu7XIa67cXc2t7frXCE5voXUJcN.jpg", "popularity": 31.057}, {"id": 90, "video": false, "vote_count": 2118, "vote_average": 7.1, "title": "Beverly Hills Cop", "release_date": "1984-11-29", "original_language": "en", "original_title": "Beverly Hills Cop", "genre_ids": [28, 35, 80], "backdrop_path": "/gmV4lsRAAtgdTysO3FwTxN8wevb.jpg", "adult": false, "overview": "Tough-talking Detroit cop Axel Foley heads to the rarified world of Beverly Hills in his beat-up Chevy Nova to investigate a friend's murder, but soon realizes he's stumbled onto something much more complicated. Bungling rookie detective, Billy Rosewood joins the fish-out-of-water Axel and shows him the West Los Angeles ropes.", "poster_path": "/eEm00B2qO4j4gGH9PDg8dHvyApD.jpg", "popularity": 26.934}, {"id": 5236, "video": false, "vote_count": 1561, "vote_average": 7.2, "title": "Kiss Kiss Bang Bang", "release_date": "2005-09-05", "original_language": "en", "original_title": "Kiss Kiss Bang Bang", "genre_ids": [28, 35, 80], "backdrop_path": "/wGoyTXBDWHh2V7Jft0R9A0HdKHA.jpg", "adult": false, "overview": "A petty thief posing as an actor is brought to Los Angeles for an unlikely audition and finds himself in the middle of a murder investigation along with his high school dream girl and a detective who's been training him for his upcoming role...", "poster_path": "/5Lif1qGiyaF8OqG9lR3eqzeEC3S.jpg", "popularity": 12.797}, {"adult": false, "backdrop_path": "/xBhRhY8KimSrPx6AMJXigpzlGQ2.jpg", "genre_ids": [28, 35, 80], "id": 96, "original_language": "en", "original_title": "Beverly Hills Cop II", "overview": "Axel heads for the land of sunshine and palm trees to find out who shot police Captain Andrew Bogomil. Thanks to a couple of old friends, Axel's investigation uncovers a series of robberies masterminded by a heartless weapons kingpin\u2014and the chase is on.", "poster_path": "/2y1z1baxKT0coTTRlnkI6McnR9f.jpg", "release_date": "1987-05-18", "title": "Beverly Hills Cop II", "video": false, "vote_average": 6.4, "vote_count": 1235, "popularity": 13.336}], "total_pages": 3, "total_results": 54}, "recommendations": {"page": 1, "results": [], "total_pages": 1, "total_results": 0}, "credits": {"cast": [{"cast_id": 3, "character": "Julia Bishop", "credit_id": "52fe4691c3a36847f810612f", "gender": 1, "id": 15555, "name": "Piper Perabo", "order": 0, "profile_path": "/mbppilPlKFHes1kGouS3kRMxzgq.jpg"}, {"cast_id": 4, "character": "Drew Curtis", "credit_id": "52fe4691c3a36847f8106133", "gender": 2, "id": 26291, "name": "Martin Henderson", "order": 1, "profile_path": "/8D2Megso0mqXnHKFyIsn2exhVgt.jpg"}, {"cast_id": 5, "character": "Danny", "credit_id": "52fe4691c3a36847f8106137", "gender": 2, "id": 141675, "name": "Jason Winer", "order": 2, "profile_path": "/6X7zuwKp2QMguZt0PgHaEwTuVNK.jpg"}, {"cast_id": 6, "character": "Trey Reynolds", "credit_id": "52fe4691c3a36847f810613b", "gender": 2, "id": 40979, "name": "Andrew Keegan", "order": 3, "profile_path": "/98PX1sKUois0GhoMxvq2Ez9nhy9.jpg"}, {"cast_id": 7, "character": "Terri Curtis", "credit_id": "52fe4691c3a36847f810613f", "gender": 1, "id": 42335, "name": "Kathleen Wilhoite", "order": 4, "profile_path": "/53qB97B6QJeMtqeENUH1TyiM9BW.jpg"}, {"cast_id": 8, "character": "Elyse Steinberg", "credit_id": "52fe4691c3a36847f8106143", "gender": 1, "id": 7906, "name": "Jennifer Tilly", "order": 5, "profile_path": "/bNB0BTnPAdAAHuCQSprMk4smBMD.jpg"}, {"cast_id": 9, "character": "Lenny Steinberg", "credit_id": "52fe4691c3a36847f8106147", "gender": 2, "id": 20788, "name": "Artie Lange", "order": 6, "profile_path": "/ifXG3HVuOgYhSTuvugGJCthfcN.jpg"}, {"cast_id": 10, "character": "Katute", "credit_id": "52fe4691c3a36847f810614b", "gender": 2, "id": 76539, "name": "Derek Basco", "order": 7, "profile_path": "/fMcCSfPolUYPE70b4gQ5bckR9Rp.jpg"}, {"cast_id": 11, "character": "Louis Carbonelli", "credit_id": "52fe4691c3a36847f810614f", "gender": 2, "id": 532, "name": "Joe Pantoliano", "order": 8, "profile_path": "/zBvDX2HWepvW9im6ikgoyOL2Xj0.jpg"}, {"cast_id": 12, "character": "Celeste", "credit_id": "52fe4691c3a36847f8106153", "gender": 1, "id": 59090, "name": "Nichole Hiltz", "order": 9, "profile_path": "/6MWOvsODHSwHSbAnEmKODRZqR49.jpg"}, {"cast_id": 14, "character": "Monty Brandt", "credit_id": "5b746e190e0a267ef81e23c9", "gender": 2, "id": 84497, "name": "Aaron Paul", "order": 10, "profile_path": "/u8UdsB9yenM4uHEjmce4nkBn48X.jpg"}, {"cast_id": 15, "character": "Aubrey", "credit_id": "5b746e5bc3a368188f1d4eb5", "gender": 1, "id": 550247, "name": "Jesse Capelli", "order": 11, "profile_path": "/sFzTUzdnbyMBtpcUUYYHaGk6sCp.jpg"}, {"cast_id": 16, "character": "Gary", "credit_id": "5b746e7d925141404f198fe8", "gender": 0, "id": 80294, "name": "Stewart J. Zully", "order": 12, "profile_path": "/hJQjUurAmSZYLUkGB5iCdHNUnEM.jpg"}, {"cast_id": 17, "character": "Starr", "credit_id": "5b746e9fc3a368188f1d4f3d", "gender": 1, "id": 62065, "name": "Bree Turner", "order": 13, "profile_path": "/c9EHEvBmsRTBrWzlalssYSgTdFP.jpg"}, {"cast_id": 18, "character": "French Stewart", "credit_id": "5b746ecf0e0a267ee51c3621", "gender": 2, "id": 67711, "name": "French Stewart", "order": 14, "profile_path": "/8IpVIyRvwRAeWjsGtM7eAcZlj4t.jpg"}, {"cast_id": 19, "character": "Tanya", "credit_id": "5b746ee2925141406a1d1587", "gender": 1, "id": 109900, "name": "Judith Drake", "order": 15, "profile_path": "/1lDKCXCMaSu1fx8ayJKUH2LwgvR.jpg"}, {"cast_id": 20, "character": "Nigel", "credit_id": "5b746efac3a36818991b0601", "gender": 2, "id": 19541, "name": "Mark Ryan", "order": 16, "profile_path": "/mBvV09ssRRE63gNaG3ZkqaZidPh.jpg"}, {"cast_id": 21, "character": "Dr. Barrett", "credit_id": "5b746f1792514140641c96e3", "gender": 2, "id": 73337, "name": "Al White", "order": 17, "profile_path": "/61EO8MnW7KNjjawBykQrFMxwZWX.jpg"}, {"cast_id": 22, "character": "Victor", "credit_id": "5b746f3f0e0a267eed1e1ed4", "gender": 2, "id": 78498, "name": "Tony Perez", "order": 18, "profile_path": "/1xPpTVUpEC1jHI9QaavTj5ufdwy.jpg"}], "crew": [{"credit_id": "52fe4691c3a36847f810612b", "department": "Directing", "gender": 2, "id": 72622, "job": "Director", "name": "Matt Cooper", "profile_path": null}, {"credit_id": "5acf21959251410c03035b16", "department": "Camera", "gender": 2, "id": 1493887, "job": "Steadicam Operator", "name": "Bruce Alan Greene", "profile_path": "/pQjPEw0O5jhiCXzulUr8nMpmu8t.jpg"}]}}