{"adult": false, "backdrop_path": "/usjJdkvbgOxSW5C2027wRYCzLjv.jpg", "belongs_to_collection": null, "budget": 0, "genres": [{"id": 37, "name": "Western"}], "homepage": "http://www.multicom.tv/library/Jessi's_Girls", "id": 446884, "imdb_id": "tt0073202", "original_language": "en", "original_title": "Jessi's Girls", "overview": "A young Mormon couple is attacked by a bunch of outlaws. They kill the man and the woman is raped several times and left for dead in the desert. With the last ounce of her strength she gets to the hut of an old hermit who nurses her back to health and teaches her how to shoot. The woman then frees three female criminals and seeks vengeance on the outlaws.", "popularity": 2.176, "poster_path": "/j1W2iMlkEH6GkiTyQQD9zN47WI8.jpg", "production_companies": [{"id": 20479, "logo_path": null, "name": "Manson International", "origin_country": ""}], "production_countries": [{"iso_3166_1": "US", "name": "United States of America"}], "release_date": "1975-04-01", "revenue": 0, "runtime": 80, "spoken_languages": [{"iso_639_1": "en", "name": "English"}], "status": "Released", "tagline": "Ravaged...Savaged...They fought dirty and loved hard!", "title": "Jessi's Girls", "video": false, "vote_average": 0.0, "vote_count": 0, "keywords": {"keywords": [{"id": 570, "name": "rape"}, {"id": 9503, "name": "outlaw"}, {"id": 9748, "name": "revenge"}, {"id": 11537, "name": "woman with gun"}, {"id": 156166, "name": "mormon"}]}, "similar": {"page": 1, "results": [{"adult": false, "backdrop_path": "/kiWvoV78Cc3fUwkOHKzyBgVdrDD.jpg", "genre_ids": [37, 18, 12], "id": 281957, "original_language": "en", "original_title": "The Revenant", "overview": "In the 1820s, a frontiersman, Hugh Glass, sets out on a path of vengeance against those who left him for dead after a bear mauling.", "poster_path": "/oXUWEc5i3wYyFnL1Ycu8ppxxPvs.jpg", "release_date": "2015-12-25", "title": "The Revenant", "video": false, "vote_average": 7.5, "vote_count": 12127, "popularity": 24.135}, {"id": 458594, "video": false, "vote_count": 983, "vote_average": 6.5, "title": "Peppermint", "release_date": "2018-09-06", "original_language": "en", "original_title": "Peppermint", "genre_ids": [28, 53], "backdrop_path": "/9krZX6T4EEs5eFpXgSi8jZkN48O.jpg", "adult": false, "overview": "A grieving mother transforms herself into a vigilante following the murders of her husband and daughter, eluding the authorities to deliver her own personal brand of justice.", "poster_path": "/jrzxS0vcbzIIay1sdYm0rgI2QfJ.jpg", "popularity": 18.265}, {"adult": false, "backdrop_path": "/a24i4Qw6qFTtkFLQsncv8WPwevj.jpg", "genre_ids": [53, 28, 80], "id": 345887, "original_language": "en", "original_title": "The Equalizer 2", "overview": "Robert McCall, who serves an unflinching justice for the exploited and oppressed, embarks on a relentless, globe-trotting quest for vengeance when a long-time girl friend is murdered.", "poster_path": "/cQvc9N6JiMVKqol3wcYrGshsIdZ.jpg", "release_date": "2018-07-19", "title": "The Equalizer 2", "video": false, "vote_average": 6.5, "vote_count": 2483, "popularity": 21.271}, {"adult": false, "backdrop_path": "/pA64Ov7lDpwXBu33yq0KpmAOYJL.jpg", "genre_ids": [27, 53], "id": 357096, "original_language": "en", "original_title": "I Spit on Your Grave III: Vengeance is Mine", "overview": "Jennifer Hills is still tormented by the brutal sexual assault she endured years ago. She\u2019s changed identities and cities, reluctantly joining a support group where she begins to piece together a new life. But when her new friend\u2019s murderer goes free and the tales of serial rapists haunt her, Jennifer will hunt down the men responsible and do what the system won\u2019t \u2013 make them pay for their crimes in the most horrific ways imaginable. Only this time, no jury may be able to save her.", "poster_path": "/6SnOlgrUoC5jqmgcYIM5lde5zYq.jpg", "release_date": "2015-10-01", "title": "I Spit on Your Grave III: Vengeance is Mine", "video": false, "vote_average": 5.3, "vote_count": 437, "popularity": 20.815}, {"id": 311, "video": false, "vote_count": 2595, "vote_average": 8.4, "title": "Once Upon a Time in America", "release_date": "1984-05-23", "original_language": "en", "original_title": "Once Upon a Time in America", "genre_ids": [80, 18], "backdrop_path": "/vnT6HzjLSDrAweHn9xWykb8Ii6T.jpg", "adult": false, "overview": "A former Prohibition-era Jewish gangster returns to the Lower East Side of Manhattan over thirty years later, where he once again must confront the ghosts and regrets of his old life.", "poster_path": "/x733R4ISI0RbKeHhVkXdTMFmTFr.jpg", "popularity": 22.233}, {"adult": false, "backdrop_path": "/zWGAnbxjjwY3xFGuOeR26LGbBlG.jpg", "genre_ids": [27, 53], "id": 238636, "original_language": "en", "original_title": "The Purge: Anarchy", "overview": "One night per year, the government sanctions a 12-hour period in which citizens can commit any crime they wish -- including murder -- without fear of punishment or imprisonment. Leo, a sergeant who lost his son, plans a vigilante mission of revenge during the mayhem. However, instead of a death-dealing avenger, he becomes the unexpected protector of four innocent strangers who desperately need his help if they are to survive the night.", "poster_path": "/l1DRl40x2OWUoPP42v8fjKdS1Z3.jpg", "release_date": "2014-07-17", "title": "The Purge: Anarchy", "video": false, "vote_average": 6.6, "vote_count": 4145, "popularity": 36.766}, {"id": 156022, "video": false, "vote_count": 5468, "vote_average": 7.2, "title": "The Equalizer", "release_date": "2014-09-24", "original_language": "en", "original_title": "The Equalizer", "genre_ids": [28, 80, 53], "backdrop_path": "/vbl4ZVqelrrzJ16fdDOq9siWbpi.jpg", "adult": false, "overview": "McCall believes he has put his mysterious past behind him and dedicated himself to beginning a new, quiet life. But when he meets Teri, a young girl under the control of ultra-violent Russian gangsters, he can\u2019t stand idly by \u2013 he has to help her. Armed with hidden skills that allow him to serve vengeance against anyone who would brutalize the helpless, McCall comes out of his self-imposed retirement and finds his desire for justice reawakened. If someone has a problem, if the odds are stacked against them, if they have nowhere else to turn, McCall will help. He is The Equalizer.", "poster_path": "/2eQfjqlvPAxd9aLDs8DvsKLnfed.jpg", "popularity": 39.578}, {"adult": false, "backdrop_path": "/o4psXh7IVD6GFKvBSHjHLzjL2lV.jpg", "genre_ids": [27, 53], "id": 10781, "original_language": "en", "original_title": "The Texas Chainsaw Massacre: The Beginning", "overview": "Chrissie and her friends set out on a road trip for a final fling before one is shipped off to Vietnam. Along the way, bikers harass the foursome and cause an accident that throws Chrissie from the vehicle. The lawman who arrives on the scene kills one of the bikers and brings Chrissie's friends to the Hewitt homestead, where young Leatherface is learning the tools of terror.", "poster_path": "/9elCJIG1TOJ0wew3JVx5ZMkHq5w.jpg", "release_date": "2006-10-06", "title": "The Texas Chainsaw Massacre: The Beginning", "video": false, "vote_average": 6.0, "vote_count": 936, "popularity": 19.211}, {"id": 9373, "video": false, "vote_count": 1414, "vote_average": 6.1, "title": "The Texas Chainsaw Massacre", "release_date": "2003-05-21", "original_language": "en", "original_title": "The Texas Chainsaw Massacre", "genre_ids": [27], "backdrop_path": "/3rTsJ7tIC3LUSRr80PfeLbbCfBA.jpg", "adult": false, "overview": "After picking up a traumatized young hitchhiker, five friends find themselves stalked and hunted by a deformed chainsaw-wielding killer and his family of equally psychopathic killers.", "poster_path": "/gx7FCIOFGxqNyplF3t7qtmUv55g.jpg", "popularity": 19.117}, {"adult": false, "backdrop_path": "/19qAk3bQZ6ulspbwhPw1A0bNpii.jpg", "genre_ids": [80, 27, 53], "id": 73861, "original_language": "sr", "original_title": "Srpski film", "overview": "Milos, a retired porn star, leads a normal family life trying to make ends meet. Presented with the opportunity of a lifetime to financially support his family for the rest of their lives, Milos must participate in one last mysterious film. From then on, Milos is drawn into a maelstrom of unbelievable cruelty and mayhem.", "poster_path": "/iB3ynCghwG63MrViBC6YyPzUIAn.jpg", "release_date": "2010-06-16", "title": "A Serbian Film", "video": false, "vote_average": 5.5, "vote_count": 898, "popularity": 16.013}, {"id": 395834, "video": false, "vote_count": 2755, "vote_average": 7.4, "title": "Wind River", "release_date": "2017-08-03", "original_language": "en", "original_title": "Wind River", "genre_ids": [80, 18, 9648, 53], "backdrop_path": "/6B8e784decj9vtKuNjbl9Fes2aZ.jpg", "adult": false, "overview": "An FBI agent teams with the town's veteran game tracker to investigate a murder that occurred on a Native American reservation.", "poster_path": "/pySivdR845Hom4u4T2WNkJxe6Ad.jpg", "popularity": 16.931}, {"id": 223485, "video": false, "vote_count": 586, "vote_average": 6.6, "title": "Slow West", "release_date": "2015-04-16", "original_language": "en", "original_title": "Slow West", "genre_ids": [28, 18, 53, 37, 10749], "backdrop_path": "/9qF6lhj6X0ImH4iWGZs1uspXJI0.jpg", "adult": false, "overview": "In the Old West, a 17-year-old Scottish boy teams up with a mysterious gunman to find the woman with whom he is infatuated.", "poster_path": "/uZ9dBBn0GaEw0YIBvQd01Io3pho.jpg", "popularity": 10.467}, {"adult": false, "backdrop_path": "/rPfyX0pkmn8Ea4gh3DfsmzFUf05.jpg", "genre_ids": [18, 27, 80], "id": 74997, "original_language": "en", "original_title": "The Human Centipede 2 (Full Sequence)", "overview": "Inspired by the fictional Dr. Heiter, disturbed loner Martin dreams of creating a 12-person centipede and sets out to realize his sick fantasy.", "poster_path": "/kFtAdkCO0vXN2RWu2oMcR9GZ9Hi.jpg", "release_date": "2011-10-06", "title": "The Human Centipede 2 (Full Sequence)", "video": false, "vote_average": 4.5, "vote_count": 674, "popularity": 14.216}, {"adult": false, "backdrop_path": "/ct2r3CqnA0KtMfib4AvfBU1W9M2.jpg", "genre_ids": [28, 80, 53], "id": 398175, "original_language": "en", "original_title": "Brawl in Cell Block 99", "overview": "After working as a drug courier and getting into a brutal shootout with police, a former boxer finds himself at the mercy of his enemies as they force him to instigate violent acts that turn the prison he resides in into a battleground.", "poster_path": "/lGgIQ10NJ3d0X0uFbbUN4pRrMFZ.jpg", "release_date": "2017-09-23", "title": "Brawl in Cell Block 99", "video": false, "vote_average": 6.8, "vote_count": 605, "popularity": 13.011}, {"id": 994, "video": false, "vote_count": 444, "vote_average": 7.2, "title": "Straw Dogs", "release_date": "1971-12-23", "original_language": "en", "original_title": "Straw Dogs", "genre_ids": [80, 18, 53], "backdrop_path": "/yL7uVOyvwZeP2U0zKIE3WQqoilA.jpg", "adult": false, "overview": "David Sumner, a mild-mannered academic from the United States, marries Amy, an Englishwoman. In order to escape a hectic stateside lifestyle, David and his wife relocate to the small town in rural Cornwall where Amy was raised. There, David is ostracized by the brutish men of the village, including Amy's old flame, Charlie. Eventually the taunts escalate, and two of the locals rape Amy. This sexual assault awakes a shockingly violent side of David.", "poster_path": "/yigkfHE1OhkxPPrjrV78Y9ibGEk.jpg", "popularity": 15.307}, {"id": 6038, "video": false, "vote_count": 1388, "vote_average": 6.1, "title": "Shanghai Knights", "release_date": "2003-02-06", "original_language": "en", "original_title": "Shanghai Knights", "genre_ids": [28, 12, 35, 37], "backdrop_path": "/qznEajxCwTDpYgqnRFpncwFhvF0.jpg", "adult": false, "overview": "The dynamic duo of Chon Wang and Roy O'Bannon return for another crazy adventure. This time, they're in London to avenge the murder of Chon's father, but end up on an even bigger case. Chon's sister is there to do the same, but instead unearths a plot to kill the royal family. No one believes her, though, and it's up to Chon and Roy (who has romance on his mind) to prove her right.", "poster_path": "/g5BFUJPgv9CoGDyAX4XZFcEY36a.jpg", "popularity": 13.564}, {"adult": false, "backdrop_path": "/iZOgAvUt6q356da1sfYz1UalNO.jpg", "genre_ids": [80, 18, 10749, 53], "id": 3134, "original_language": "fr", "original_title": "Baise-moi", "overview": "Manu has lived a difficult life. Abused and violently raped, she sets off to find herself only to meet Nadine, a prostitute who has encountered one too many injustices in the world. Angry at the world, they embark on a twisted, rage-filled road trip. They choose to have sex when they please and kill when they need. Leaving a trail of mischief and dead bodies in their wake. Generating a media blitz and manhunt, soon everyone is out to capture the young fugitives.", "poster_path": "/sLvsIgWMH9bV1IZnZOzY5dXKUHe.jpg", "release_date": "2000-06-28", "title": "Baise-moi", "video": false, "vote_average": 4.3, "vote_count": 173, "popularity": 14.535}, {"id": 291356, "video": false, "vote_count": 261, "vote_average": 5.9, "title": "In a Valley of Violence", "release_date": "2016-10-21", "original_language": "en", "original_title": "In a Valley of Violence", "genre_ids": [28, 80, 53, 37], "backdrop_path": "/bnw8E9Jrj0mvmktXka9L1Kvq3ji.jpg", "adult": false, "overview": "The story of a drifter named Paul who arrives in a small town seeking revenge on the thugs who murdered his friend. Sisters Mary Anne and Ellen, who run the town's hotel, help Paul in his quest for vengeance.", "poster_path": "/vt6PRYO81BUKxPFhmzg0CzOq8oo.jpg", "popularity": 9.127}, {"adult": false, "backdrop_path": "/uUYCUbgI5VxsUflTMI4Y9L2Y6vb.jpg", "genre_ids": [80, 18, 53], "id": 11423, "original_language": "ko", "original_title": "\uc0b4\uc778\uc758 \ucd94\uc5b5", "overview": "1986 Gyunggi Province. The body of a young woman is found brutally raped and murdered. Two months later, a series of rapes and murders commences under similar circumstances. And in a country that had never known such crimes, the dark whispers about a serial murderer grow louder. A special task force is set up in the area, with two local detectives Park Doo-Man and Jo Young-Goo joined by a detective from Seoul who requested to be assigned to the case.", "poster_path": "/gawnVe9cFowdoDLo9Pok12NTw39.jpg", "release_date": "2003-05-02", "title": "Memories of Murder", "video": false, "vote_average": 8.1, "vote_count": 1093, "popularity": 13.452}, {"adult": false, "backdrop_path": "/brZ6uY49Htby7zzLB40IXhfbwH2.jpg", "genre_ids": [28, 53], "id": 467938, "original_language": "fr", "original_title": "Revenge", "overview": "Jen's romantic getaway with her wealthy (married) boyfriend is disrupted when his friends arrive for an impromptu hunting trip. Tension mounts at the house until the situation culminates in an unexpected way.", "poster_path": "/lDjY67pqcIoQCe0kK91TVgL14om.jpg", "release_date": "2018-02-07", "title": "Revenge", "video": false, "vote_average": 6.3, "vote_count": 850, "popularity": 15.837}], "total_pages": 340, "total_results": 6781}, "recommendations": {"page": 1, "results": [], "total_pages": 1, "total_results": 0}, "credits": {"cast": [{"cast_id": 0, "character": "Jessica", "credit_id": "58c7aaa49251417a23009dc7", "gender": 1, "id": 153621, "name": "Sondra Currie", "order": 1, "profile_path": "/an6mZEO5SMAsOkgEOBg7jSN1jmu.jpg"}, {"cast_id": 1, "character": "Clay", "credit_id": "58c7aab992514179d200a947", "gender": 2, "id": 102968, "name": "Geoffrey Land", "order": 2, "profile_path": null}, {"cast_id": 2, "character": "Brock", "credit_id": "58c7aacf9251417a23009dec", "gender": 0, "id": 103455, "name": "Ben Frank", "order": 3, "profile_path": null}, {"cast_id": 3, "character": "Claire", "credit_id": "58c7aae2c3a3683dc5009c66", "gender": 1, "id": 102971, "name": "Regina Carrol", "order": 4, "profile_path": "/AcDmwOdgFNVq8tIJwVm3J4tFPeY.jpg"}, {"cast_id": 4, "character": "Rachel", "credit_id": "58c7aaf9c3a3683ddf00aa2c", "gender": 1, "id": 102966, "name": "Jennifer Bishop", "order": 5, "profile_path": "/8fqpsEmjOj8w2ymrcmzFBydZKIO.jpg"}, {"cast_id": 5, "character": "Kana (as Ellen Stern)", "credit_id": "58c7ab2bc3a3683dc5009cb4", "gender": 0, "id": 557543, "name": "Ellyn Stern", "order": 6, "profile_path": null}, {"cast_id": 6, "character": "Baldry (as Joseph Cortese)", "credit_id": "58c7ab4092514179e400a268", "gender": 2, "id": 830, "name": "Joe Cortese", "order": 7, "profile_path": "/Ac7sqrV5RQLHR98dyOgTur8q8SJ.jpg"}, {"cast_id": 7, "character": "Slime", "credit_id": "58c7ab59c3a3683dd700952c", "gender": 0, "id": 1776305, "name": "Jon Shark", "order": 8, "profile_path": null}, {"cast_id": 8, "character": "Link", "credit_id": "58c7ab6e92514179d200a9ee", "gender": 2, "id": 1916, "name": "Biff Yeager", "order": 9, "profile_path": "/pxT4WEoRidROV04OjSvXC0ZjTV.jpg"}, {"cast_id": 9, "character": "Indian", "credit_id": "58c7ab829251417a23009e8d", "gender": 0, "id": 1776306, "name": "Gavin Murrell", "order": 10, "profile_path": null}, {"cast_id": 10, "character": "Seth", "credit_id": "58c7ab97c3a3683dbd009dcc", "gender": 0, "id": 93350, "name": "Rigg Kennedy", "order": 11, "profile_path": null}, {"cast_id": 11, "character": "Shag", "credit_id": "58c7abb692514179d200aa29", "gender": 0, "id": 1776307, "name": "William Hammer", "order": 12, "profile_path": null}, {"cast_id": 12, "character": "John", "credit_id": "58c7abca9251417a23009ec0", "gender": 0, "id": 103775, "name": "Hugh Warden", "order": 13, "profile_path": null}, {"cast_id": 13, "character": "Teller", "credit_id": "58c7abddc3a3683ddf00aaf4", "gender": 0, "id": 1776308, "name": "Joe ArrowSmith", "order": 14, "profile_path": null}, {"cast_id": 14, "character": "Rufe", "credit_id": "58c7abf39251417a1700a31d", "gender": 2, "id": 58217, "name": "Rod Cameron", "order": 15, "profile_path": "/aGflgVgFrZMGjbuM04bTFpCfmej.jpg"}], "crew": [{"credit_id": "58c7ac06c3a3683dd70095b8", "department": "Directing", "gender": 0, "id": 30678, "job": "Director", "name": "Al Adamson", "profile_path": "/rQvKAVto1XS51mn04bSz9GGiH1g.jpg"}, {"credit_id": "58c7ac1c9251417a0f009b14", "department": "Writing", "gender": 0, "id": 1269286, "job": "Screenplay", "name": "Budd Donnelly", "profile_path": null}]}}