{"adult": false, "backdrop_path": null, "belongs_to_collection": null, "budget": 0, "genres": [{"id": 10749, "name": "Romance"}, {"id": 35, "name": "Comedy"}], "homepage": null, "id": 447091, "imdb_id": "tt0976030", "original_language": "tr", "original_title": "Delisin", "overview": "A shy introvert falls for the photographer who took her pictures during high school. Confused and worried, she doubts that love will elapse and can never open up to her lover. Yet she cannot runaway from love.", "popularity": 1.344, "poster_path": "/ua91sfcSXWHh40W2qMNZpTc2XhT.jpg", "production_companies": [{"id": 4639, "logo_path": "/ckIiq2nFLY491le3J5brpQVK52q.png", "name": "Arzu Film", "origin_country": "TR"}], "production_countries": [{"iso_3166_1": "TR", "name": "Turkey"}], "release_date": "1975-04-04", "revenue": 0, "runtime": 75, "spoken_languages": [{"iso_639_1": "tr", "name": "T\u00fcrk\u00e7e"}], "status": "Released", "tagline": "", "title": "Delisin", "video": false, "vote_average": 6.7, "vote_count": 6, "keywords": {"keywords": []}, "similar": {"page": 1, "results": [{"adult": false, "backdrop_path": null, "genre_ids": [35], "id": 494298, "original_language": "tr", "original_title": "Saffet Beni Affet", "overview": "", "poster_path": "/zIvugef2BEJYYG81KoYyjhsEzz3.jpg", "release_date": "1976-03-24", "title": "Saffet Beni Affet", "video": false, "vote_average": 6.0, "vote_count": 2, "popularity": 1.27}, {"adult": false, "backdrop_path": null, "genre_ids": [35, 18], "id": 494294, "original_language": "tr", "original_title": "Bal\u0131k\u00e7\u0131 Osman", "overview": "", "poster_path": "/u0ZEVUCmCGCxADxsKctFVOZF31B.jpg", "release_date": "1973-12-24", "title": "Bal\u0131k\u00e7\u0131 Osman", "video": false, "vote_average": 0.0, "vote_count": 0, "popularity": 0.6}, {"adult": false, "backdrop_path": "/aM3hPYJXE9ABgWeICHA12zrkzRm.jpg", "genre_ids": [18, 35], "id": 494296, "original_language": "tr", "original_title": "Y\u0131rt\u0131k Niyazi", "overview": "", "poster_path": "/xkP9WhDHsmyk4OESZe8uJgLsP2L.jpg", "release_date": "1971-12-24", "title": "Y\u0131rt\u0131k Niyazi", "video": false, "vote_average": 0.0, "vote_count": 0, "popularity": 0.6}, {"adult": false, "backdrop_path": "/yz8yc1h5qmQJaBSrVZvb7XYwLqo.jpg", "genre_ids": [18, 10749], "id": 363, "original_language": "de", "original_title": "Gegen die Wand", "overview": "Head On is German director Fatih Akin\u2019s story of the alcoholic Cahit and Turkish Sibel. Akin tells the story of a love that can never be between two people who are too alike to not be together.", "poster_path": "/pWtiFfRGADUv9s4bqgKWSqdVxk9.jpg", "release_date": "2004-03-11", "title": "Head-On", "video": false, "vote_average": 7.5, "vote_count": 267, "popularity": 8.48}, {"id": 63849, "video": false, "vote_count": 90, "vote_average": 6.5, "title": "Almanya: Welcome to Germany", "release_date": "2011-05-13", "original_language": "de", "original_title": "Almanya - Willkommen in Deutschland", "genre_ids": [35, 18], "backdrop_path": "/XwTaPhN40zg3urnsTIjnAMheZP.jpg", "adult": false, "overview": "After living 45 years in Germany, the Turkish H\u00fcseyin Yilmaz, seventy,  announces to his family that he has bought a house in Turkey and they should return to make the necessary reforms. The idea is unwelcome and causes very heated discussions. In addition, Canan, a granddaughter of H\u00fcseyin, announces she is pregnant and the father is her English boyfriend, and no one knew anything. To comfort his cousin Cenk, a child of six years, who was humiliated at school and labeled as \"foreign\", Canan tells a fantastic story about how they left Turkey and went to Germany.", "poster_path": "/t2e8abO0mhZxvlJlizGeXTggEBL.jpg", "popularity": 6.541}, {"adult": false, "backdrop_path": "/VTtZgH68KVfXIN4hOUJ5WIJcCP.jpg", "genre_ids": [35, 10402, 18], "id": 141214, "original_language": "tr", "original_title": "Abuzer Kaday\u0131f", "overview": "After his pregnant wife killed by thinner addicts, Ersin Balkan, decides on to establish a school for children who are abandoned ad thinner addicts. Noticing that he can not afford  a such thing with his salary,  takes a new career and becomes a singer.", "poster_path": "/6dvl8xuKXBAvZ4KOsaU0zweDKZH.jpg", "release_date": "2000-09-29", "title": "Abuzer Kaday\u0131f", "video": false, "vote_average": 5.3, "vote_count": 10, "popularity": 2.591}, {"adult": false, "backdrop_path": "/glMi1UVl9bK7opFTalI7hbwCUdO.jpg", "genre_ids": [35], "id": 48763, "original_language": "tr", "original_title": "Eyyvah Eyvah", "overview": "H\u00fcseyin is a young man who lives with his grandfather and grandmother in a village in Thracian Turkey. The two great loves of his life are his clarinet and M\u00fcjgan, a nurse. Although H\u00fcseyin is content with his life, with his music and dreams of M\u00fcgan, due to an unexpected development he leaves his village. He ends up in Istanbul where he finds support first in his clarinet and then in the friendship of the singer Firuzan. Firuzan is a popular nightclub performer who is eagerly working on an album as she leads a colorful but complicated life. When Firuzan meets Huseyin, the course of events gives away to a hilarious adventure.", "poster_path": "/cXRQLlxt7FMOySNQhXYRjTKjtEJ.jpg", "release_date": "2010-02-26", "title": "Eyyvah Eyvah", "video": false, "vote_average": 6.1, "vote_count": 43, "popularity": 3.599}, {"adult": false, "backdrop_path": "/7g9m3lyKnQBtxO1QJxIhlTtF3yW.jpg", "genre_ids": [35], "id": 53325, "original_language": "tr", "original_title": "Eyyvah Eyvah 2", "overview": "Second part of the turkish comedy film series.", "poster_path": "/yGHZcn8tquj3efEN2uC5fEWmdxl.jpg", "release_date": "2011-01-07", "title": "Eyyvah Eyvah 2", "video": false, "vote_average": 5.3, "vote_count": 32, "popularity": 2.004}, {"adult": false, "backdrop_path": "/nrd0WUoscq0pw6Juz7KBS30I7rh.jpg", "genre_ids": [18, 10749], "id": 43774, "original_language": "fa", "original_title": "\u0628\u0627\u0631\u0627\u0646", "overview": "In a building site in present-day Tehran, Lateef, a 17-year-old Kurdish worker is irresistibly drawn to Rahmat, a young Afghan worker. When Lateef is given heavier tasks to compensate for new Afghan worker Rahmat, he resents his displacement and treats Rahmat cruelly. After one of his pranks, however, Lateef discovers Rahmat's secret--he is a girl named Baran. Latif's heart softens towards Baran and he shows his new affection for her by doing what he can to ease the hardships she suffers at work. revelation of Rahmat's secret changes both their lives.Baran is a 2001 Iranian film directed by Majid Majidi, based on an original script by Majid Majidi. The movie is set during recent times in which there are a large number of Afghan refugees living on the outskirts of Tehran. Almost a silent movie, Baran won a number of awards both nationally and internationally for the director and writer Majid Majidi.", "poster_path": "/1qIu0BSj51sKOcLZGkDfRZKVf4p.jpg", "release_date": "2001-01-31", "title": "Rain", "video": false, "vote_average": 7.8, "vote_count": 35, "popularity": 2.965}, {"adult": false, "backdrop_path": "/eoZnb30lDaaPm1ztHVrbcWG21ex.jpg", "genre_ids": [35], "id": 29099, "original_language": "tr", "original_title": "Baba Bizi Eversene", "overview": "A hopelessly yearning hippie is left alone with a newborn baby when his just married parents go for a vacation, but wittily he finds a solution to get back his expatriate girlfriend, utilizing the baby who has no idea what is going on.", "poster_path": "/ucByHuULeMvTFWPBLs5ObRyGH9c.jpg", "release_date": "1975-12-30", "title": "Dad, Make Me Marry", "video": false, "vote_average": 6.9, "vote_count": 10, "popularity": 1.928}, {"adult": false, "backdrop_path": "/i8U2xQZELjdl4urPFTkJGTYD9b2.jpg", "genre_ids": [18, 35], "id": 381938, "original_language": "tr", "original_title": "Karde\u015fim Benim", "overview": "Hakan and Ozan are brothers who can't get along well. They meet again in their father's funeral. Even though they want to get back to their daily lives, their father's will won't allow it.", "poster_path": "/okyOWy2fuPW7F0Fr4U7b9USYPf.jpg", "release_date": "2016-01-15", "title": "My Brother", "video": false, "vote_average": 6.7, "vote_count": 32, "popularity": 3.474}, {"adult": false, "backdrop_path": "/wpmOtnWIk14Sg46Hb1YnxZDmmm6.jpg", "genre_ids": [35], "id": 265505, "original_language": "tr", "original_title": "Eyyvah Eyvah 3", "overview": "Thid part of the popular turkish comedy film series.", "poster_path": "/7hcaPPw5DuR42SQuOP9fkJWilmd.jpg", "release_date": "2014-01-31", "title": "Eyyvah Eyvah 3", "video": false, "vote_average": 5.1, "vote_count": 26, "popularity": 1.868}, {"adult": false, "backdrop_path": "/4J558dpdVl0DVpshZusU7f6lqtk.jpg", "genre_ids": [35], "id": 386579, "original_language": "tr", "original_title": "Ka\u00e7ma Birader", "overview": "A family with diversified members travels to \u0130stanbul from Yozgat after their youngest son fell in love with a girl.", "poster_path": "/8BxVMj6YuiYWidUToGgQrmnbkyL.jpg", "release_date": "2016-03-09", "title": "Ka\u00e7ma Birader", "video": false, "vote_average": 6.4, "vote_count": 14, "popularity": 2.514}, {"id": 65010, "video": false, "vote_count": 20, "vote_average": 8.6, "title": "Smiling Eyes", "release_date": "1977-03-01", "original_language": "tr", "original_title": "G\u00fclen G\u00f6zler", "genre_ids": [35, 18, 10751], "backdrop_path": "/6UXIovQPS6mQMEqNuHUa4vgoRbO.jpg", "adult": false, "overview": "", "poster_path": "/p9rr1TO9soC5VWCUAoSMAbP0CF6.jpg", "popularity": 2.937}, {"adult": false, "backdrop_path": null, "genre_ids": [35], "id": 496963, "original_language": "tr", "original_title": "Kaynana Z\u0131r\u0131lt\u0131s\u0131", "overview": "", "poster_path": null, "release_date": "1964-01-07", "title": "Kaynana Z\u0131r\u0131lt\u0131s\u0131", "video": false, "vote_average": 0.0, "vote_count": 0, "popularity": 0.6}, {"adult": false, "backdrop_path": null, "genre_ids": [35], "id": 494340, "original_language": "tr", "original_title": "Kald\u0131r\u0131m \u00c7i\u00e7e\u011fi", "overview": "", "poster_path": "/pfd1Q8Ut6FmHJB7W4C0zqv8wMAZ.jpg", "release_date": "1969-12-24", "title": "Kald\u0131r\u0131m \u00c7i\u00e7e\u011fi", "video": false, "vote_average": 0.0, "vote_count": 0, "popularity": 0.6}, {"adult": false, "backdrop_path": null, "genre_ids": [10749, 18], "id": 493543, "original_language": "tr", "original_title": "Namus Kanla Yaz\u0131l\u0131r", "overview": "", "poster_path": null, "release_date": "1966-12-19", "title": "Namus Kanla Yaz\u0131l\u0131r", "video": false, "vote_average": 0.0, "vote_count": 0, "popularity": 0.805}, {"adult": false, "backdrop_path": null, "genre_ids": [12, 35, 10749], "id": 495374, "original_language": "tr", "original_title": "Bitirimsin Han\u0131m Abla", "overview": "", "poster_path": null, "release_date": "1964-12-30", "title": "Bitirimsin Han\u0131m Abla", "video": false, "vote_average": 0.0, "vote_count": 0, "popularity": 0.6}, {"adult": false, "backdrop_path": null, "genre_ids": [10749, 18], "id": 498371, "original_language": "tr", "original_title": "Kumarbaz\u0131n \u0130ntikam\u0131", "overview": "", "poster_path": "/1tJRu5HUk1o5rckh9M4zlRCAlS6.jpg", "release_date": "1966-01-14", "title": "Kumarbaz\u0131n \u0130ntikam\u0131", "video": false, "vote_average": 0.0, "vote_count": 0, "popularity": 0.883}, {"id": 157559, "video": false, "vote_count": 13, "vote_average": 7.1, "title": "Ah Nerede", "release_date": "1975-11-19", "original_language": "tr", "original_title": "Ah Nerede", "genre_ids": [35, 10749], "backdrop_path": "/4enCY0BxDKBLSdMXiiHaEqlR7nN.jpg", "adult": false, "overview": "Three boys are having their higher education in Istanbul (!). In fact, they are messing around and dealing with radical politics, girls and gamble. However the oldest discovers love, and the three realize it is time for change.", "poster_path": "/1OYf1HfsWli1MxmnTVkrF9bHEC5.jpg", "popularity": 1.908}], "total_pages": 8, "total_results": 151}, "recommendations": {"page": 1, "results": [{"id": 190459, "video": false, "vote_count": 8, "vote_average": 6.2, "title": "Dokunmay\u0131n \u015eaban\u0131ma", "release_date": "1979-03-01", "original_language": "tr", "original_title": "Dokunmay\u0131n \u015eaban\u0131ma", "genre_ids": [35], "backdrop_path": "/z03HzeLgPAFiDdPjxdVmH4OsT8c.jpg", "adult": false, "overview": "", "poster_path": "/7lZ2Q8tCfh1YwhpmJD40KUDZwsj.jpg", "popularity": 2.974}, {"id": 452926, "video": false, "vote_count": 6, "vote_average": 7.0, "title": "Talih Ku\u015fu", "release_date": "1989-01-01", "original_language": "tr", "original_title": "Talih Ku\u015fu", "genre_ids": [35, 18], "backdrop_path": null, "adult": false, "overview": "", "poster_path": "/2pChdNnPTWWFT9s655zuRiUOZx4.jpg", "popularity": 2.821}, {"adult": false, "backdrop_path": "/6Yp3FSG94agtZnMVhXpojp26s8O.jpg", "genre_ids": [], "id": 123599, "original_language": "tr", "original_title": "Gerzek \u015eaban", "overview": "", "poster_path": "/5H9Cf8UN946jf1yyvq7Ql1OboMd.jpg", "release_date": "1980-01-01", "title": "Gerzek \u015eaban", "video": false, "vote_average": 6.9, "vote_count": 10, "popularity": 2.102}, {"adult": false, "backdrop_path": "/q6jB8ufnRFCBjKedgsNxL1L0gwy.jpg", "genre_ids": [35], "id": 148706, "original_language": "tr", "original_title": "\u0130nek \u015eaban", "overview": "A poor grocery owner becomes a popular goalkeeper.", "poster_path": "/712N1lDNt6XxLAImTWAZCpxTs7F.jpg", "release_date": "1978-01-01", "title": "\u0130nek \u015eaban", "video": false, "vote_average": 7.1, "vote_count": 16, "popularity": 3.655}, {"adult": false, "backdrop_path": "/vCVrJugZLRz9XxIOqpfxleoRVeK.jpg", "genre_ids": [10749, 10751, 35], "id": 452606, "original_language": "tr", "original_title": "Sultan", "overview": "", "poster_path": "/cwiktG551xKWpPOg1o3TH0WLXpb.jpg", "release_date": "1978-12-01", "title": "Sultan", "video": false, "vote_average": 6.1, "vote_count": 10, "popularity": 1.941}, {"adult": false, "backdrop_path": "/v5yAfedpkjwFQnGYFEn0tDlNsj7.jpg", "genre_ids": [18], "id": 157570, "original_language": "tr", "original_title": "Aile \u015eerefi", "overview": "R\u0131za is a father of 5, who has economical problems but happy nevertheless. Everything changes when his younger son gets hit by a car.", "poster_path": "/sg5uKc3KEnfIrdnc9sTx3X6hqxU.jpg", "release_date": "1976-09-07", "title": "Family Honour", "video": false, "vote_average": 7.7, "vote_count": 13, "popularity": 2.35}, {"id": 192596, "video": false, "vote_count": 7, "vote_average": 5.2, "title": "The Handsome", "release_date": "1987-01-01", "original_language": "tr", "original_title": "Yak\u0131\u015f\u0131kl\u0131", "genre_ids": [35], "backdrop_path": "/iHNcOyeOBwrblDfbUYZmFhtd1Dm.jpg", "adult": false, "overview": "Selim is a paperboy who delivers the morning papers with his truck. He buys a walkie talkie to find find a friend. His codename is \"The Handsome\". After a while he meets the girl and they start a relationship. It is hard for them to get married.", "poster_path": "/Agegjkoa3BHyygv3IGEIOL4uekJ.jpg", "popularity": 1.42}, {"adult": false, "backdrop_path": "/26q9IeMMxQgVUqIoembEq2FMpKv.jpg", "genre_ids": [35], "id": 248750, "original_language": "tr", "original_title": "G\u0131rg\u0131riye", "overview": "", "poster_path": "/hCOIJwz5LHGypi4z5b8a8HQUpqH.jpg", "release_date": "1981-03-01", "title": "G\u0131rg\u0131riye", "video": false, "vote_average": 6.6, "vote_count": 7, "popularity": 2.233}, {"id": 177325, "video": false, "vote_count": 9, "vote_average": 7.1, "title": "Ne Olacak \u015eimdi", "release_date": "1979-06-04", "original_language": "tr", "original_title": "Ne Olacak \u015eimdi", "genre_ids": [], "backdrop_path": "/hBEVVqtPiVlbn3TK3N3gjd2asMy.jpg", "adult": false, "overview": "", "poster_path": "/teICImSkk7pkkc9uO8DKf0Fqlse.jpg", "popularity": 2.659}, {"adult": false, "backdrop_path": "/fF9WcNe3Qxm67YgrUC2p3OdpUwP.jpg", "genre_ids": [35], "id": 331126, "original_language": "tr", "original_title": "\u015ealvar Davas\u0131", "overview": "", "poster_path": "/7Ci8IAiKSY6iOZVbueCU4tYyeAk.jpg", "release_date": "1983-11-01", "title": "\u015ealvar Davas\u0131", "video": false, "vote_average": 7.1, "vote_count": 9, "popularity": 3.677}, {"id": 157559, "video": false, "vote_count": 13, "vote_average": 7.1, "title": "Ah Nerede", "release_date": "1975-11-19", "original_language": "tr", "original_title": "Ah Nerede", "genre_ids": [35, 10749], "backdrop_path": "/4enCY0BxDKBLSdMXiiHaEqlR7nN.jpg", "adult": false, "overview": "Three boys are having their higher education in Istanbul (!). In fact, they are messing around and dealing with radical politics, girls and gamble. However the oldest discovers love, and the three realize it is time for change.", "poster_path": "/1OYf1HfsWli1MxmnTVkrF9bHEC5.jpg", "popularity": 1.908}, {"id": 453100, "video": false, "vote_count": 4, "vote_average": 5.3, "title": "Kara Murat: \u00d6l\u00fcm Emri", "release_date": "1974-10-01", "original_language": "tr", "original_title": "Kara Murat: \u00d6l\u00fcm Emri", "genre_ids": [28], "backdrop_path": null, "adult": false, "overview": "", "poster_path": "/m3vd3kk9xwjC3uVMorbJKEYFYuC.jpg", "popularity": 1.632}, {"id": 479684, "video": false, "vote_count": 4, "vote_average": 6.3, "title": "Be\u015f Milyoncuk Bor\u00e7 Verir misin", "release_date": "1975-02-02", "original_language": "tr", "original_title": "Be\u015f Milyoncuk Bor\u00e7 Verir misin", "genre_ids": [], "backdrop_path": "/2c9yOhYz6hHJrsoOjXVcOKseuJz.jpg", "adult": false, "overview": "", "poster_path": "/xjKr79qna1bosAAAYNQRTUH5pCG.jpg", "popularity": 3.4}, {"id": 484979, "video": false, "vote_count": 4, "vote_average": 6.5, "title": "Nereden \u00c7\u0131kt\u0131 Bu Velet", "release_date": "1975-04-03", "original_language": "tr", "original_title": "Nereden \u00c7\u0131kt\u0131 Bu Velet", "genre_ids": [35], "backdrop_path": "/An3se1syPiwxOrRSE0QHo80DXHv.jpg", "adult": false, "overview": "", "poster_path": "/sY0P3KJF2sxOVvdvKH6ZwKpbK8.jpg", "popularity": 1.93}, {"id": 256945, "video": false, "vote_count": 4, "vote_average": 4.5, "title": "G\u0131rg\u0131riye'de \u015eenlik Var", "release_date": "1981-07-08", "original_language": "tr", "original_title": "G\u0131rg\u0131riye'de \u015eenlik Var", "genre_ids": [], "backdrop_path": "/71ZB1lBBUtn7Wicihc51btdRg4T.jpg", "adult": false, "overview": "Another story in G\u0131rg\u0131riye neighbourhood.", "poster_path": "/7hYgmguL61fyL2nkB1DPNlGL59t.jpg", "popularity": 3.375}, {"adult": false, "backdrop_path": "/d0btAAF57ZiialZygrQYyatgv27.jpg", "genre_ids": [35, 10749], "id": 110028, "original_language": "tr", "original_title": "Tatl\u0131 Dillim", "overview": "Tarik is the best scorer basketball player of his team and is very popular. One day he comes to a village with his team to do entreman. There, he met the village teacher, Emine. He loves her very much and they get married immediately. But, some days after he had to return to istanbul. He wants Emine to go to istanbul with him but she says that she can't leave the village and her students.", "poster_path": "/dpPDxDakLqP8DhvjiFxov0GLczS.jpg", "release_date": "1972-01-01", "title": "Tatl\u0131 Dillim", "video": false, "vote_average": 5.4, "vote_count": 9, "popularity": 3.238}, {"id": 111795, "video": false, "vote_count": 8, "vote_average": 6.3, "title": "\u015ea\u015fk\u0131n Damat", "release_date": "1975-03-01", "original_language": "en", "original_title": "\u015ea\u015fk\u0131n Damat", "genre_ids": [], "backdrop_path": "/u9Sebvjo0rtCGFrNCOMvfcMmf92.jpg", "adult": false, "overview": "", "poster_path": "/oKcSIfbRBDv6CYy0bhPDiev7rt3.jpg", "popularity": 3.349}, {"adult": false, "backdrop_path": "/l1PPSx89WvyA6Avpmfdzyc9FbhU.jpg", "genre_ids": [35], "id": 453494, "original_language": "tr", "original_title": "Aslan Bacanak", "overview": "", "poster_path": "/tyHu24XqDb3pMCNgLSNPNDzVFD6.jpg", "release_date": "1977-04-01", "title": "Aslan Bacanak", "video": false, "vote_average": 6.8, "vote_count": 5, "popularity": 0.6}, {"adult": false, "backdrop_path": "/wRPqmUtmQNPcoqXBAY8BDh4A0D1.jpg", "genre_ids": [], "id": 473423, "original_language": "tr", "original_title": "Malko\u00e7o\u011flu Ak\u0131nc\u0131lar Geliyor", "overview": "", "poster_path": "/iqbA4mwcQzSojUXzdVvFcndx5CR.jpg", "release_date": "1969-01-01", "title": "Malko\u00e7o\u011flu Ak\u0131nc\u0131lar Geliyor", "video": false, "vote_average": 5.8, "vote_count": 5, "popularity": 2.019}, {"adult": false, "backdrop_path": null, "genre_ids": [14, 28, 12], "id": 425847, "original_language": "tr", "original_title": "Kara Murat: Fatih'in Ferman\u0131", "overview": "Turkish action movie", "poster_path": "/3FC8D0vxg2BmQj2Oxp7I0WDTwYz.jpg", "release_date": "1973-11-01", "title": "Karamurat: The Sultan's Warrior", "video": false, "vote_average": 6.0, "vote_count": 5, "popularity": 1.163}], "total_pages": 2, "total_results": 40}, "credits": {"cast": [{"cast_id": 1, "character": "", "credit_id": "58c949c29251410838000093", "gender": 2, "id": 142766, "name": "Tar\u0131k Akan", "order": 0, "profile_path": "/oQNXqggPjAVyXTupdnVfQR1yzRi.jpg"}, {"cast_id": 0, "character": "", "credit_id": "58c949b892514110f8009db4", "gender": 1, "id": 590772, "name": "Necla Naz\u0131r", "order": 1, "profile_path": "/elpo5gf0bkNeNXYvmyJQPgdQhZJ.jpg"}, {"cast_id": 2, "character": "", "credit_id": "58c949ca92514107d30000b0", "gender": 1, "id": 97274, "name": "Adile Na\u015fit", "order": 2, "profile_path": "/f6ggt61mdYcyUFfJiX3GQMhCcLQ.jpg"}, {"cast_id": 3, "character": "", "credit_id": "58c949d4c3a36875830096fe", "gender": 2, "id": 102909, "name": "Hulusi Kentmen", "order": 3, "profile_path": "/8VtNTjDu4j9tn3zGQ00FEzuwDhc.jpg"}, {"cast_id": 4, "character": "", "credit_id": "58c949da9251411113009c4b", "gender": 2, "id": 590773, "name": "Ali \u015een", "order": 4, "profile_path": "/kueXjR8NElmZ5nh7hjw8ee56BCR.jpg"}, {"cast_id": 5, "character": "", "credit_id": "58c949e092514108380000a9", "gender": 1, "id": 121423, "name": "Ay\u015fen Gruda", "order": 5, "profile_path": "/1BYHv4xBqaWs3mY4ljnXTwXise1.jpg"}], "crew": [{"credit_id": "58c94a4ec3a36836b4000128", "department": "Production", "gender": 2, "id": 109083, "job": "Producer", "name": "Ertem E\u011filmez", "profile_path": "/rEKd4iOpWiXZMBqtq7Iv9dE2hgH.jpg"}, {"credit_id": "58c949fe92514108380000cb", "department": "Directing", "gender": 0, "id": 1776922, "job": "Director", "name": "Ergin Orbey", "profile_path": null}, {"credit_id": "5a660b17c3a3687fad03b216", "department": "Writing", "gender": 0, "id": 1776922, "job": "Writer", "name": "Ergin Orbey", "profile_path": null}, {"credit_id": "58c94a3292514108380000ec", "department": "Crew", "gender": 0, "id": 1776922, "job": "Script", "name": "Ergin Orbey", "profile_path": null}]}}