{"adult": false, "backdrop_path": "/n3TCs9TQmMFUpQoFKV6kUVQ3ktW.jpg", "belongs_to_collection": null, "budget": 0, "genres": [{"id": 18, "name": "Drama"}, {"id": 10749, "name": "Romance"}], "homepage": null, "id": 44770, "imdb_id": "tt1294161", "original_language": "en", "original_title": "The Exploding Girl", "overview": "On a summer break from college, Ivy, a young epileptic woman, struggles to balance her feelings for her fledgling boyfriend while her friend Al crashes with her for the season.", "popularity": 4.551, "poster_path": "/k5HAZylGy1clOn4OKKDkH6Pttbj.jpg", "production_companies": [], "production_countries": [], "release_date": "2010-03-12", "revenue": 0, "runtime": 80, "spoken_languages": [{"iso_639_1": "en", "name": "English"}], "status": "Released", "tagline": "", "title": "The Exploding Girl", "video": false, "vote_average": 6.1, "vote_count": 21, "keywords": {"keywords": [{"id": 41523, "name": "brooklyn, new york city"}, {"id": 187298, "name": "epileptic"}]}, "similar": {"page": 1, "results": [{"id": 311, "video": false, "vote_count": 2593, "vote_average": 8.4, "title": "Once Upon a Time in America", "release_date": "1984-05-23", "original_language": "en", "original_title": "Once Upon a Time in America", "genre_ids": [80, 18], "backdrop_path": "/vnT6HzjLSDrAweHn9xWykb8Ii6T.jpg", "adult": false, "overview": "A former Prohibition-era Jewish gangster returns to the Lower East Side of Manhattan over thirty years later, where he once again must confront the ghosts and regrets of his old life.", "poster_path": "/x733R4ISI0RbKeHhVkXdTMFmTFr.jpg", "popularity": 23.555}, {"adult": false, "backdrop_path": "/sw7mordbZxgITU877yTpZCud90M.jpg", "genre_ids": [18, 80], "id": 769, "original_language": "en", "original_title": "GoodFellas", "overview": "The true story of Henry Hill, a half-Irish, half-Sicilian Brooklyn kid who is adopted by neighbourhood gangsters at an early age and climbs the ranks of a Mafia family under the guidance of Jimmy Conway.", "poster_path": "/pwpGfTImTGifEGgLb3s6LRPd4I6.jpg", "release_date": "1990-09-12", "title": "GoodFellas", "video": false, "vote_average": 8.4, "vote_count": 6553, "popularity": 33.23}, {"id": 968, "video": false, "vote_count": 1443, "vote_average": 7.8, "title": "Dog Day Afternoon", "release_date": "1975-08-11", "original_language": "en", "original_title": "Dog Day Afternoon", "genre_ids": [80, 18, 53], "backdrop_path": "/gsnPjs2XTBhYDNFgnlsDgjuauDO.jpg", "adult": false, "overview": "Based on the true story of would-be Brooklyn bank robbers John Wojtowicz and Salvatore Naturale. Sonny and Sal attempt a bank heist which quickly turns sour and escalates into a hostage situation and stand-off with the police. As Sonny's motives for the robbery are slowly revealed and things become more complicated, the heist turns into a media circus.", "poster_path": "/qgWuZ2yNJrclU8EldQG4rLhwMoy.jpg", "popularity": 12.037}, {"id": 13815, "video": false, "vote_count": 92, "vote_average": 7.5, "title": "Fresh", "release_date": "1994-08-24", "original_language": "en", "original_title": "Fresh", "genre_ids": [80, 18, 53], "backdrop_path": "/2ROrwXMOqRr8fAUgH7ARPARjBcS.jpg", "adult": false, "overview": "Michael is a 12-year-old drug pusher who lives in a crowded house with his cousins and aunt. His father has become a street bum,but still meets with Fresh on occasion to play chess. Fresh is rather quiet in a crazy world. Fresh's sister is a junkie who sleeps with the dealers that Fresh sells for. As the story progresses Fresh realizes that he doesn't want to sell drugs anymore - he wants revenge.", "poster_path": "/uXRIIUzjDZZdWR2cUzPJ9eAqaHv.jpg", "popularity": 11.352}, {"id": 2291, "video": false, "vote_count": 776, "vote_average": 7.4, "title": "Jacob's Ladder", "release_date": "1990-11-02", "original_language": "en", "original_title": "Jacob's Ladder", "genre_ids": [18, 27, 9648], "backdrop_path": "/7D5sfA9KT40zC0qA4j8Fee1IPzL.jpg", "adult": false, "overview": "A traumatized Vietnam war veteran finds out that his post-war life isn't what he believes it to be when he's attacked by horned creatures in the subway and his dead son comes to visit him...", "poster_path": "/2Byg7AV91LF7pfByz4ZMvnkZnH7.jpg", "popularity": 10.662}, {"id": 925, "video": false, "vote_count": 731, "vote_average": 7.8, "title": "Do the Right Thing", "release_date": "1989-06-14", "original_language": "en", "original_title": "Do the Right Thing", "genre_ids": [18], "backdrop_path": "/byyly5AGJNnOGdpMODupOmzAPHS.jpg", "adult": false, "overview": "On the hottest day of the year on a street in the Bedford-Stuyvesant section of Brooklyn, everyone's hate and bigotry smolders and builds until it explodes into violence.", "poster_path": "/63rmSDPahrH7C1gEFYzRuIBAN9W.jpg", "popularity": 10.205}, {"id": 10707, "video": false, "vote_count": 436, "vote_average": 7.0, "title": "The Squid and the Whale", "release_date": "2005-10-05", "original_language": "en", "original_title": "The Squid and the Whale", "genre_ids": [35, 18], "backdrop_path": "/judO4PDEDK8rktdCRpqjtKilvm8.jpg", "adult": false, "overview": "Based on the true childhood experiences of Noah Baumbach and his brother, The Squid and the Whale tells the touching story of two young boys dealing with their parents divorce in Brooklyn in the 1980's.", "poster_path": "/yoou0wzArVwdumWcW6t1kvSpo08.jpg", "popularity": 9.704}, {"adult": false, "backdrop_path": "/lTEkPsYqZENRWsh9L6ErzJpKq5S.jpg", "genre_ids": [18, 10749], "id": 10362, "original_language": "en", "original_title": "Two Lovers", "overview": "A depressed man moves back in with his parents following a recent heartbreak and finds himself with two women.", "poster_path": "/9HfZ1JyrGZAglrNHdRFc8196Ina.jpg", "release_date": "2008-11-19", "title": "Two Lovers", "video": false, "vote_average": 6.7, "vote_count": 360, "popularity": 12.284}, {"adult": false, "backdrop_path": "/cPg2OJ56J6p0da12Hez5u5iiFd6.jpg", "genre_ids": [80, 18, 53], "id": 241239, "original_language": "en", "original_title": "A Most Violent Year", "overview": "A thriller set in New York City during the winter of 1981, statistically one of the most violent years in the city's history, and centered on a the lives of an immigrant and his family trying to expand their business and capitalize on opportunities as the rampant violence, decay, and corruption of the day drag them in and threaten to destroy all they have built.", "poster_path": "/7xvfhwi1RjF27z3TfaJFAsIaO3x.jpg", "release_date": "2014-12-30", "title": "A Most Violent Year", "video": false, "vote_average": 6.6, "vote_count": 856, "popularity": 15.322}, {"id": 194662, "video": false, "vote_count": 8616, "vote_average": 7.5, "title": "Birdman", "release_date": "2014-08-27", "original_language": "en", "original_title": "Birdman", "genre_ids": [35, 18], "backdrop_path": "/AsJVim0Hk3KbQPbfjyijfjqmaoZ.jpg", "adult": false, "overview": "A fading actor best known for his portrayal of a popular superhero attempts to mount a comeback by appearing in a Broadway play. As opening night approaches, his attempts to become more altruistic, rebuild his career, and reconnect with friends and family prove more difficult than expected.", "poster_path": "/rSZs93P0LLxqlVEbI001UKoeCQC.jpg", "popularity": 37.733}, {"id": 384677, "video": false, "vote_count": 1691, "vote_average": 7.0, "title": "Set It Up", "release_date": "2018-06-12", "original_language": "en", "original_title": "Set It Up", "genre_ids": [35, 10749], "backdrop_path": "/wYHaQzfzv5vOGaV6uPhatFWG338.jpg", "adult": false, "overview": "Two overworked and underpaid assistants come up with a plan to get their bosses off their backs by setting them up with each other.", "poster_path": "/XF5jV0UxKnYNPAimem0hbwPfCR.jpg", "popularity": 13.812}, {"adult": false, "backdrop_path": "/74Jh5SIWnKDwtusPfDP51EeCFHt.jpg", "genre_ids": [35, 10749], "id": 9576, "original_language": "en", "original_title": "Tootsie", "overview": "When struggling, out of work actor Michael Dorsey secretly adopts a female alter ego - Dorothy Michaels - in order to land a part in a daytime drama, he unwittingly becomes a feminist icon and ends up in a romantic pickle.", "poster_path": "/ngyCzZwb9y5sMUCig5JQT4Y33Q.jpg", "release_date": "1982-12-16", "title": "Tootsie", "video": false, "vote_average": 7.2, "vote_count": 915, "popularity": 10.882}, {"id": 24122, "video": false, "vote_count": 452, "vote_average": 6.1, "title": "The Rebound", "release_date": "2009-09-16", "original_language": "en", "original_title": "The Rebound", "genre_ids": [35, 10749], "backdrop_path": "/tHskgc02jDVnhsPSmPpfEZeLL5v.jpg", "adult": false, "overview": "Upon discovering her husband's infidelity, Sandy leaves the suburbs and moves into the city. There, she befriends Aram, a guy whose wife only married him so she could get a green card. Sandy hires Aram to be her nanny, and  it isn't long until Aram and Sandy find out they get along wonderfully and start to date. But is their relationship real or is it, in fact, just a rebound for both of them?", "poster_path": "/nkkFebe8ZgE843rnTrlaRWJy0g9.jpg", "popularity": 16.417}, {"id": 154400, "video": false, "vote_count": 1342, "vote_average": 6.7, "title": "The Drop", "release_date": "2014-09-12", "original_language": "en", "original_title": "The Drop", "genre_ids": [80, 18], "backdrop_path": "/lI7TD9Z9TsASnc3GxkLbBBpXCac.jpg", "adult": false, "overview": "Bob Saginowski finds himself at the center of a robbery gone awry and entwined in an investigation that digs deep into the neighborhood's past where friends, families, and foes all work together to make a living - no matter the cost.", "poster_path": "/lj8AMCjWx0jU93XajzUEOUUNKZF.jpg", "popularity": 22.374}, {"id": 167073, "video": false, "vote_count": 2097, "vote_average": 7.3, "title": "Brooklyn", "release_date": "2015-10-20", "original_language": "en", "original_title": "Brooklyn", "genre_ids": [18, 10749], "backdrop_path": "/7fXKVIM8UQBvQ9aQOzFqThlq7eN.jpg", "adult": false, "overview": "In 1950s Ireland and New York, young Eilis Lacey has to choose between two men and two countries.", "poster_path": "/dRpkyrSDrEMFRZDeFJG4EupqUfR.jpg", "popularity": 13.039}, {"id": 169917, "video": false, "vote_count": 1811, "vote_average": 6.3, "title": "A Walk Among the Tombstones", "release_date": "2014-09-18", "original_language": "en", "original_title": "A Walk Among the Tombstones", "genre_ids": [80, 18, 9648, 53], "backdrop_path": "/e56QsaJy1weAUukiK2ZmIGVUALF.jpg", "adult": false, "overview": "Private investigator Matthew Scudder is hired by a drug kingpin to find out who kidnapped and murdered his wife.", "poster_path": "/xxe77USOk2tPnq7G4cL42gf1OxQ.jpg", "popularity": 26.185}, {"id": 44214, "video": false, "vote_count": 9188, "vote_average": 7.6, "title": "Black Swan", "release_date": "2010-12-03", "original_language": "en", "original_title": "Black Swan", "genre_ids": [18, 27, 53], "backdrop_path": "/t8jFs6cOl1YVSfXXZivWtEb14tF.jpg", "adult": false, "overview": "A journey through the psyche of a young ballerina whose starring role as the duplicitous swan queen turns out to be a part for which she becomes frighteningly perfect.", "poster_path": "/dQ7uxvsVTspVIsqjfgQj8usJpwX.jpg", "popularity": 27.026}, {"id": 103, "video": false, "vote_count": 6106, "vote_average": 8.2, "title": "Taxi Driver", "release_date": "1976-02-07", "original_language": "en", "original_title": "Taxi Driver", "genre_ids": [80, 18], "backdrop_path": "/hjmJKAVoZ3n2KWbKgasbfdugwhu.jpg", "adult": false, "overview": "A mentally unstable Vietnam War veteran works as a night-time taxi driver in New York City where the perceived decadence and sleaze feed his urge for violent action, attempting to save a preadolescent prostitute in the process.", "poster_path": "/ekstpH614fwDX8DUln1a2Opz0N8.jpg", "popularity": 25.879}, {"id": 3525, "video": false, "vote_count": 480, "vote_average": 6.6, "title": "Working Girl", "release_date": "1988-12-20", "original_language": "en", "original_title": "Working Girl", "genre_ids": [35, 10749], "backdrop_path": "/9DRh30FG1Pe1u9c3N0pXyPyO9XS.jpg", "adult": false, "overview": "Tess McGill is an ambitious secretary with a unique approach for climbing the ladder to success. When her classy, but villainous boss breaks a leg skiing, Tess takes over her office, her apartment and even her wardrobe. She creates a deal with a handsome investment banker that will either take her to the top, or finish her off for good.", "poster_path": "/bzPuHOl8DjfZDzwGDCIHonnHUT6.jpg", "popularity": 11.226}, {"id": 540901, "video": false, "vote_count": 921, "vote_average": 6.3, "title": "Hustlers", "release_date": "2019-09-12", "original_language": "en", "original_title": "Hustlers", "genre_ids": [35, 80, 18], "backdrop_path": "/59ZWXmn2i5MQYUhQOBtOE7jWZGn.jpg", "adult": false, "overview": "A crew of savvy former strip club employees band together to turn the tables on their Wall Street clients.", "poster_path": "/zBhv8rsLOfpFW2M5b6wW78Uoojs.jpg", "popularity": 47.303}], "total_pages": 32, "total_results": 633}, "recommendations": {"page": 1, "results": [{"id": 59196, "video": false, "vote_count": 3, "vote_average": 7.7, "title": "Lost Boys of Sudan", "release_date": "2003-04-24", "original_language": "en", "original_title": "Lost Boys of Sudan", "genre_ids": [99], "backdrop_path": null, "adult": false, "overview": "Lost Boys of Sudan is a feature-length documentary that follows two Sudanese refugees on an extraordinary journey from Africa to America. Orphaned as young boys in one of Africa's cruelest civil wars, Peter Dut and Santino Chuor survived lion attacks and militia gunfire to reach a refugee camp in Kenya along with thousands of other children. From there, remarkably, they were chosen to come to America. Safe at last from physical danger and hunger, a world away from home, they find themselves confronted with the abundance and alienation of contemporary American suburbia", "poster_path": "/2dO0zR2oTovtJOTbdZntZFD5p4K.jpg", "popularity": 1.051}, {"adult": false, "backdrop_path": null, "genre_ids": [18, 53], "id": 79983, "original_language": "es", "original_title": "Padre nuestro", "overview": "A Mexican boy smuggles himself to Brooklyn to meet his long-lost father - only to have his identity stolen upon arrival by an impostor who seeks to steal the fathers' fortune.", "poster_path": "/74vhZJOEZKCo3TEPxc7rcw2OYjC.jpg", "release_date": "2007-10-05", "title": "Padre nuestro", "video": false, "vote_average": 7.3, "vote_count": 4, "popularity": 2.533}, {"adult": false, "backdrop_path": "/syzkPpXf8WzBQMbA09ax9XChczW.jpg", "genre_ids": [18], "id": 141635, "original_language": "en", "original_title": "All the Light in the Sky", "overview": "An insomniac actress is facing the waning days of her career, when her niece pays a visit to her Malibu house.", "poster_path": "/64DdQtmvDxCpyjtyiy31wyiTaY7.jpg", "release_date": "2012-11-03", "title": "All the Light in the Sky", "video": false, "vote_average": 5.6, "vote_count": 7, "popularity": 3.219}, {"id": 47841, "video": false, "vote_count": 7, "vote_average": 5.7, "title": "In Between Days", "release_date": "2007-06-27", "original_language": "en", "original_title": "In Between Days", "genre_ids": [18, 10749], "backdrop_path": "/8garT7HI0PN8lt4haaRGj9JAcTS.jpg", "adult": false, "overview": "A Korean immigrant falls in love with her best friend while navigating her way through the challenges of living in a new country.", "poster_path": "/t4Eb1mb2OYv7kJEKkC0jHr9Q3ug.jpg", "popularity": 2.325}, {"adult": false, "backdrop_path": null, "genre_ids": [35, 10749], "id": 104232, "original_language": "en", "original_title": "Nesting", "overview": "When a thirty-something couple set aside the home furnishings catalogue and decide to rekindle their relationship, they return to their old neighborhood and end up squatting illegally in their twenty-something lives.", "poster_path": "/5IM1iDyJic6KeoC67fsm9zNWpDO.jpg", "release_date": "2012-05-11", "title": "Nesting", "video": false, "vote_average": 4.8, "vote_count": 6, "popularity": 2.408}, {"id": 41973, "video": false, "vote_count": 7, "vote_average": 6.7, "title": "Thelonious Monk: Straight, No Chaser", "release_date": "1988-10-25", "original_language": "en", "original_title": "Thelonious Monk: Straight, No Chaser", "genre_ids": [99, 10402], "backdrop_path": "/m7NussHojl4435pdfzQHrXddNFl.jpg", "adult": false, "overview": "A documentary film about the life of pianist and jazz great Thelonious Monk. Features live performances by Monk and his band, and interviews with friends and family about the offbeat genius.", "poster_path": "/ox9zReWOB6sucmE4KtuhudEjjCq.jpg", "popularity": 3.556}, {"adult": false, "backdrop_path": "/3zCZF5012hQj0pJCgi2wbUARSa8.jpg", "genre_ids": [53], "id": 34733, "original_language": "en", "original_title": "Long Distance", "overview": "When a young, lonely woman misdials a phone number by one digit, calling into a serial killing in progress, the killer latches onto her and involves her telephonically in a string of murders as he heads closer and closer to her home in Boston.", "poster_path": "/9z2a9W3hcHJ1hiwDWg1Uk1d7Pbp.jpg", "release_date": "2005-01-01", "title": "Long Distance", "video": false, "vote_average": 4.4, "vote_count": 5, "popularity": 2.98}, {"adult": false, "backdrop_path": "/rF2s3vxLDyAzFCSsG3trp2c6CTY.jpg", "genre_ids": [18], "id": 63148, "original_language": "en", "original_title": "In the Gloaming", "overview": "Danny, dying of Aids, returns home for his last months. Always close to his mother, they share moments of openness that tend to shut out Danny's father and his sister.", "poster_path": "/oJ9lIiF0ovILazLdQHoE6uH35Vu.jpg", "release_date": "1997-04-20", "title": "In the Gloaming", "video": false, "vote_average": 5.9, "vote_count": 10, "popularity": 2.823}], "total_pages": 1, "total_results": 8}, "credits": {"cast": [{"cast_id": 3, "character": "Ivy", "credit_id": "52fe469bc3a36847f8108235", "gender": 1, "id": 35028, "name": "Zoe Kazan", "order": 0, "profile_path": "/xvSkyaLIRYDzabDUG2HXUYAd4A5.jpg"}, {"cast_id": 1, "character": "Al", "credit_id": "52fe469bc3a36847f810822d", "gender": 2, "id": 34918, "name": "Mark Rendall", "order": 1, "profile_path": "/vUfy1gMka5VvAFSpYHiEJmPv6yU.jpg"}, {"cast_id": 4, "character": "Ivy's Mom", "credit_id": "52fe469bc3a36847f8108239", "gender": 0, "id": 131391, "name": "Maryann Urbano", "order": 2, "profile_path": "/oRTSvGmThauRF5eaAuyNuT3SBbR.jpg"}, {"cast_id": 2, "character": "Cary", "credit_id": "52fe469bc3a36847f8108231", "gender": 2, "id": 131390, "name": "Hunter Canning", "order": 3, "profile_path": null}, {"cast_id": 18, "character": "Greg", "credit_id": "58e9f515c3a36872af0698dd", "gender": 0, "id": 1792564, "name": "Franklin Pipp", "order": 4, "profile_path": null}, {"cast_id": 19, "character": "Jennifer", "credit_id": "58e9f51e9251412819071d26", "gender": 0, "id": 1792565, "name": "Kay Goldberg", "order": 5, "profile_path": null}, {"cast_id": 20, "character": "Cousin", "credit_id": "58e9f52cc3a3684a790636ef", "gender": 0, "id": 1792566, "name": "Margot Ruth Tenenbaum", "order": 6, "profile_path": null}, {"cast_id": 21, "character": "Cousin's Husband", "credit_id": "58e9f53b92514152ac026220", "gender": 0, "id": 1792567, "name": "Nichael Alexander Eisner", "order": 7, "profile_path": null}, {"cast_id": 22, "character": "Baby", "credit_id": "58e9f543c3a36872ee0755f3", "gender": 0, "id": 1792568, "name": "Genevieve T. Eisner", "order": 8, "profile_path": null}, {"cast_id": 23, "character": "Doctor", "credit_id": "58e9f54cc3a368732606ec06", "gender": 0, "id": 1792569, "name": "Caseyarnoux Charlot", "order": 9, "profile_path": null}, {"cast_id": 24, "character": "Dog Owner", "credit_id": "58e9f55b925141351f035414", "gender": 0, "id": 1792570, "name": "Caroline Elaine", "order": 10, "profile_path": null}], "crew": [{"credit_id": "5da458f8cb3084001393f875", "department": "Production", "gender": 0, "id": 32604, "job": "Casting", "name": "Susan Shopmaker", "profile_path": null}, {"credit_id": "52fe469bc3a36847f8108245", "department": "Directing", "gender": 2, "id": 131388, "job": "Director", "name": "Bradley Rust Gray", "profile_path": "/6h9wjFA9uU6hIagLAHV8cg9Tha4.jpg"}, {"credit_id": "58e9f49592514128100735b0", "department": "Editing", "gender": 2, "id": 131388, "job": "Editor", "name": "Bradley Rust Gray", "profile_path": "/6h9wjFA9uU6hIagLAHV8cg9Tha4.jpg"}, {"credit_id": "58e9f4e6925141354c0364d1", "department": "Production", "gender": 2, "id": 131388, "job": "Producer", "name": "Bradley Rust Gray", "profile_path": "/6h9wjFA9uU6hIagLAHV8cg9Tha4.jpg"}, {"credit_id": "52fe469bc3a36847f810826f", "department": "Writing", "gender": 2, "id": 131388, "job": "Writer", "name": "Bradley Rust Gray", "profile_path": "/6h9wjFA9uU6hIagLAHV8cg9Tha4.jpg"}, {"credit_id": "52fe469bc3a36847f810823f", "department": "Production", "gender": 0, "id": 131393, "job": "Producer", "name": "Karin Chien", "profile_path": null}, {"credit_id": "52fe469bc3a36847f810824b", "department": "Production", "gender": 2, "id": 131394, "job": "Executive Producer", "name": "Jason Diamond", "profile_path": null}, {"credit_id": "52fe469bc3a36847f8108251", "department": "Production", "gender": 2, "id": 131395, "job": "Executive Producer", "name": "Josh Diamond", "profile_path": null}, {"credit_id": "52fe469bc3a36847f8108257", "department": "Production", "gender": 2, "id": 131396, "job": "Producer", "name": "Ben Howe", "profile_path": null}, {"credit_id": "58e9f49fc3a368731a075a74", "department": "Editing", "gender": 1, "id": 131397, "job": "Editor", "name": "So Yong Kim", "profile_path": "/yqtYtkkcHq3v3Ji3465FbSr2MgU.jpg"}, {"credit_id": "52fe469bc3a36847f810825d", "department": "Production", "gender": 1, "id": 131397, "job": "Producer", "name": "So Yong Kim", "profile_path": "/yqtYtkkcHq3v3Ji3465FbSr2MgU.jpg"}, {"credit_id": "58e9f4ae92514128100735c5", "department": "Directing", "gender": 1, "id": 131397, "job": "Assistant Director", "name": "So Yong Kim", "profile_path": "/yqtYtkkcHq3v3Ji3465FbSr2MgU.jpg"}, {"credit_id": "52fe469bc3a36847f8108263", "department": "Production", "gender": 2, "id": 131399, "job": "Executive Producer", "name": "Lars Knudsen", "profile_path": "/y4ZPOAn2oe2KsszWkMGJeahONlU.jpg"}, {"credit_id": "52fe469bc3a36847f8108269", "department": "Production", "gender": 2, "id": 131400, "job": "Executive Producer", "name": "Jay Van Hoy", "profile_path": "/aV4XZkpPDabPRl96lyfXsOcx56Z.jpg"}, {"credit_id": "5da458971967570017acdfd2", "department": "Camera", "gender": 2, "id": 1031598, "job": "Director of Photography", "name": "Eric Lin", "profile_path": null}]}}