{"adult": false, "backdrop_path": "/82k2jIIk2y0YXWCOmDmBRGOLhyz.jpg", "belongs_to_collection": null, "budget": 0, "genres": [{"id": 18, "name": "Drama"}], "homepage": null, "id": 44988, "imdb_id": "tt1397502", "original_language": "en", "original_title": "Grown Up Movie Star", "overview": "The story of Ruby, 13, determined to grow up fast after her mother runs away to become a movie star, leaving Ruby with her hopelessly rural father.", "popularity": 3.529, "poster_path": "/bfkjtxfHC4bg1lEHfJKzkkrBAPr.jpg", "production_companies": [], "production_countries": [{"iso_3166_1": "CA", "name": "Canada"}], "release_date": "2009-10-20", "revenue": 0, "runtime": 95, "spoken_languages": [{"iso_639_1": "en", "name": "English"}], "status": "Released", "tagline": "", "title": "Grown Up Movie Star", "video": false, "vote_average": 5.5, "vote_count": 10, "keywords": {"keywords": [{"id": 6178, "name": "newfoundland"}, {"id": 10183, "name": "independent film"}, {"id": 33479, "name": "single father"}, {"id": 158718, "name": "lgbt"}, {"id": 187056, "name": "woman director"}, {"id": 211158, "name": "absent parent"}]}, "similar": {"page": 1, "results": [{"adult": false, "backdrop_path": "/gZeJziVigmRqbkEZwKAtSqlLQ6s.jpg", "genre_ids": [18, 10749], "id": 370663, "original_language": "en", "original_title": "Below Her Mouth", "overview": "An unexpected affair quickly escalates into a heart-stopping reality for two women whose passionate connection changes their lives forever.", "poster_path": "/nTGbq37hYLuNy7YgMg0gVLma0NS.jpg", "release_date": "2016-09-10", "title": "Below Her Mouth", "video": false, "vote_average": 6.2, "vote_count": 456, "popularity": 22.676}, {"adult": false, "backdrop_path": "/s12HEmmkJfI2mjltI61hGm5kubD.jpg", "genre_ids": [35, 18, 10749], "id": 20770, "original_language": "en", "original_title": "But I'm a Cheerleader", "overview": "Megan is an all-American girl. A cheerleader. She has a boyfriend. But Megan doesn't like kissing her boyfriend very much. And she's pretty touchy with her cheerleader friends. Her conservative parents worry that she must be a lesbian and send her off to \"sexual redirection\" school, where she must, with other lesbians and gays learn how to be straight.", "poster_path": "/eDGH7CHSdkrYcuUJV1e0WS9DlQL.jpg", "release_date": "1999-12-09", "title": "But I'm a Cheerleader", "video": false, "vote_average": 6.8, "vote_count": 246, "popularity": 10.067}, {"adult": false, "backdrop_path": "/qbrmEfBEcdrzHSAHgazJWmz3TSU.jpg", "genre_ids": [18], "id": 616229, "original_language": "en", "original_title": "The Male Gaze: The Heat of the Night", "overview": "When darkness falls, temperatures rise in these six stories about late night confessions, intimacy for sale, high speed hookups and full moon frissons. But when the sun comes up and reality reveals itself, will it have all been worth it?", "poster_path": "/e1gNLO829rkE73sBJ3aClZJHNXd.jpg", "release_date": "2019-07-15", "title": "The Male Gaze: The Heat of the Night", "video": false, "vote_average": 3.3, "vote_count": 3, "popularity": 13.056}, {"id": 449176, "video": false, "vote_count": 3690, "vote_average": 8.1, "title": "Love, Simon", "release_date": "2018-02-16", "original_language": "en", "original_title": "Love, Simon", "genre_ids": [35, 18, 10749], "backdrop_path": "/rqMEeajyzSF4PpJtdCB816Iz8Vr.jpg", "adult": false, "overview": "Everyone deserves a great love story. But for seventeen-year old Simon Spier it's a little more complicated: he's yet to tell his family or friends he's gay and he doesn't know the identity of the anonymous classmate he's fallen for online.", "poster_path": "/5YUYg5q7QfC4IoNwNUtiwdiYKPr.jpg", "popularity": 24.849}, {"adult": false, "backdrop_path": "/knczzNAjBXzSYkeWxoT1u9VNmjR.jpg", "genre_ids": [10749, 18], "id": 258480, "original_language": "en", "original_title": "Carol", "overview": "In 1950s New York, a department-store clerk who dreams of a better life falls for an older, married woman.", "poster_path": "/AbKa7ANxmui0Jmhh7gV7OSELKIL.jpg", "release_date": "2015-11-20", "title": "Carol", "video": false, "vote_average": 7.4, "vote_count": 2182, "popularity": 14.185}, {"adult": false, "backdrop_path": "/6VhtzImP1UvYkIAHS4L8yfmceOM.jpg", "genre_ids": [18], "id": 26280, "original_language": "fr", "original_title": "J'ai tu\u00e9 ma m\u00e8re", "overview": "Hubert, a brash 17-year-old, is confused and torn by a love-hate relationship with his mother that consumes him more and more each day. After distressing ordeals and tragic episodes, Hubert will find his mother on the banks of Saint Lawrence river, where he grew up, and where a murder will be committed: the murder of childhood.", "poster_path": "/cxb02CLALt9He1Dt0BIDKj9fdvM.jpg", "release_date": "2009-06-05", "title": "I Killed My Mother", "video": false, "vote_average": 7.7, "vote_count": 655, "popularity": 9.653}, {"adult": false, "backdrop_path": "/useuHJQ5HOoEWkAvEjL1FW1sUfe.jpg", "genre_ids": [18], "id": 376867, "original_language": "en", "original_title": "Moonlight", "overview": "The tender, heartbreaking story of a young man\u2019s struggle to find himself, told across three defining chapters in his life as he experiences the ecstasy, pain, and beauty of falling in love, while grappling with his own sexuality.", "poster_path": "/qAwFbszz0kRyTuXmMeKQZCX3Q2O.jpg", "release_date": "2016-10-21", "title": "Moonlight", "video": false, "vote_average": 7.4, "vote_count": 4406, "popularity": 27.348}, {"id": 424694, "video": false, "vote_count": 9721, "vote_average": 8.0, "title": "Bohemian Rhapsody", "release_date": "2018-10-24", "original_language": "en", "original_title": "Bohemian Rhapsody", "genre_ids": [18, 10402], "backdrop_path": "/93xA62uLd5CwMOAs37eQ7vPc1iV.jpg", "adult": false, "overview": "Singer Freddie Mercury, guitarist Brian May, drummer Roger Taylor and bass guitarist John Deacon take the music world by storm when they form the rock 'n' roll band Queen in 1970. Hit songs become instant classics. When Mercury's increasingly wild lifestyle starts to spiral out of control, Queen soon faces its greatest challenge yet \u2013 finding a way to keep the band together amid the success and excess.", "poster_path": "/lHu1wtNaczFPGFDTrjCSzeLPTKN.jpg", "popularity": 40.186}, {"id": 507076, "video": false, "vote_count": 629, "vote_average": 7.1, "title": "Climax", "release_date": "2018-09-19", "original_language": "fr", "original_title": "Climax", "genre_ids": [18, 27, 10402], "backdrop_path": "/v0sblc9A8eaE8EqDQ5Y6fELj4oB.jpg", "adult": false, "overview": "Young dancers gather in a remote and empty school building to rehearse on a cold and wintry night. The all-night celebration soon turns into a hallucinatory nightmare when they learn that their sangria is laced with LSD.", "poster_path": "/zQDqgzSdTGSDu4rDcQTq7TAttmy.jpg", "popularity": 15.582}, {"adult": false, "backdrop_path": "/tzqeuHWMFihFbiLGHdalPgAcSf6.jpg", "genre_ids": [18, 10749], "id": 18620, "original_language": "en", "original_title": "Go Fish", "overview": "Max is a trendy, pretty, young lesbian, who is having trouble finding love. A friend sets her up with Ely, whom Max likes, but Ely is frumpy, homely, and older. Nor do they have much in common. Can Max learn to look past the packaging?", "poster_path": "/qrEFYrwykaGsY8NULYuYLLI7zrM.jpg", "release_date": "1994-06-10", "title": "Go Fish", "video": false, "vote_average": 5.0, "vote_count": 11, "popularity": 2.626}, {"adult": false, "backdrop_path": "/6tern9vOEwwmkDYC1vRCuO64z0C.jpg", "genre_ids": [10749, 18], "id": 475888, "original_language": "en", "original_title": "Tell It to the Bees", "overview": "Dr. Jean Markham returns to the town she left as a teenager to take over her late father's medical practice. When a school-yard scuffle lands Charlie in her surgery, she invites him to visit the hives in her garden and tell his secrets to the bees, as she once did. The new friendship between the boy and the bee keeper brings his mother Lydia into Jean's world.", "poster_path": "/Rj6zpHhMU1zFW3v28U4PSRSRgP.jpg", "release_date": "2019-05-03", "title": "Tell It to the Bees", "video": false, "vote_average": 6.4, "vote_count": 53, "popularity": 15.113}, {"adult": false, "backdrop_path": "/qs4P8THxjbMZYc9QuZvzN95KzBM.jpg", "genre_ids": [18, 53, 9648], "id": 184352, "original_language": "fr", "original_title": "Tom \u00e0 la ferme", "overview": "A young man travels to an isolated farm for his lover's funeral where he's quickly drawn into a twisted, sexually charged game by his lover's aggressive brother.", "poster_path": "/wS4oYOHEKva9sMLOHSr7tW19SaQ.jpg", "release_date": "2013-09-02", "title": "Tom at the Farm", "video": false, "vote_average": 6.9, "vote_count": 408, "popularity": 7.517}, {"id": 83542, "video": false, "vote_count": 4860, "vote_average": 6.8, "title": "Cloud Atlas", "release_date": "2012-10-26", "original_language": "en", "original_title": "Cloud Atlas", "genre_ids": [18, 878], "backdrop_path": "/2ZA03KiD4jePTNBTJjGGFTNQPMA.jpg", "adult": false, "overview": "A set of six nested stories spanning time between the 19th century and a distant post-apocalyptic future. Cloud Atlas explores how the actions and consequences of individual lives impact one another throughout the past, the present and the future. Action, mystery and romance weave through the story as one soul is shaped from a killer into a hero and a single act of kindness ripples across centuries to inspire a revolution in the distant future.  Based on the award winning novel by David Mitchell. Directed by Tom Tykwer and the Wachowskis.", "poster_path": "/8VNiyIp67ZxhpNgdrwACW0jgvP2.jpg", "popularity": 16.718}, {"id": 513, "video": false, "vote_count": 31, "vote_average": 6.8, "title": "Fire", "release_date": "1997-08-22", "original_language": "en", "original_title": "Fire", "genre_ids": [18, 10749], "backdrop_path": "/2U3hyiVzzhYzS6j9fcdVW4mO4Uk.jpg", "adult": false, "overview": "In a barren, arranged marriage to an amateur swami who seeks enlightenment through celibacy, Radha's life takes an irresistible turn when her beautiful young sister-in-law seeks to free herself from the confines of her own loveless marriage.", "poster_path": "/nhKFB7bPOv9gH93cu8l4tTc2ZO.jpg", "popularity": 4.942}, {"adult": false, "backdrop_path": "/8OfLHQTBRh6WSEB0ZnrpLxXRHdK.jpg", "genre_ids": [18], "id": 338189, "original_language": "fr", "original_title": "Juste la fin du monde", "overview": "Louis, a terminally ill writer, returns home after a long absence to tell his family that he is dying.", "poster_path": "/zD9TQOqZrgTjI7XfHPNjNSki7C0.jpg", "release_date": "2016-08-26", "title": "It's Only the End of the World", "video": false, "vote_average": 7.3, "vote_count": 979, "popularity": 11.34}, {"adult": false, "backdrop_path": "/ofDfZ1JRbjyye5eI1q2GD0cdkB2.jpg", "genre_ids": [18], "id": 529909, "original_language": "en", "original_title": "The Dare Project", "overview": "The fan-demanded sequel to the 2005 short film Dare. Ben and Johnny, now in their early 30s, fortuitously run into each other at a party in Los Angeles after not seeing each other since high school, where they shared one slightly dangerous, very sexy, boundary-pushing night in a swimming pool. Is their connection still alive, and what do they do about it?", "poster_path": "/2Gb3mMbVKXqsJSvqT8RqqyBP2QY.jpg", "release_date": "2018-06-15", "title": "The Dare Project", "video": false, "vote_average": 8.5, "vote_count": 2, "popularity": 5.89}, {"adult": false, "backdrop_path": "/bUvPR1Nsm9419zO4aL90pUl4MNF.jpg", "genre_ids": [10749, 18], "id": 152584, "original_language": "fr", "original_title": "La Vie d'Ad\u00e8le - Chapitres 1 et 2", "overview": "Ad\u00e8le's life is changed when she meets Emma, a young woman with blue hair, who will allow her to discover desire, to assert herself as a woman and as an adult. In front of others, Adele grows, seeks herself, loses herself, finds herself.", "poster_path": "/3BpgeGHYxle9ob4cLiONgESvqVB.jpg", "release_date": "2013-10-09", "title": "Blue Is the Warmest Color", "video": false, "vote_average": 7.1, "vote_count": 2634, "popularity": 8.337}, {"adult": false, "backdrop_path": "/dvQDRfv3qvfHNnVAR57ouVsuErf.jpg", "genre_ids": [10749, 18], "id": 28031, "original_language": "en", "original_title": "If These Walls Could Talk 2", "overview": "The stories of three lesbian couples -- who live in the same house at different periods of time -- who are at a crossroads in their lives. In 1961, Edith loses her lover, Abby, to a stroke. Linda and Amy struggle with feminist issues in 1972. And, in 2000, Kal and Fran try to have a baby with the help of sperm donor.", "poster_path": "/xs7ODbmYQXCDhvXNvz5tF17T59H.jpg", "release_date": "2000-03-05", "title": "If These Walls Could Talk 2", "video": false, "vote_average": 7.1, "vote_count": 55, "popularity": 8.062}, {"adult": false, "backdrop_path": "/lI5h8KaoeObu4NMTwzeRuUHzRwD.jpg", "genre_ids": [18, 9648, 53], "id": 401898, "original_language": "no", "original_title": "Thelma", "overview": "A college student starts to experience extreme seizures. She soon learns that the violent episodes are a symptom of inexplicable abilities.", "poster_path": "/yzSfG8TLAqw7nMQh2lxirQkQpgs.jpg", "release_date": "2017-09-15", "title": "Thelma", "video": false, "vote_average": 7.1, "vote_count": 418, "popularity": 12.235}, {"id": 1544, "video": false, "vote_count": 437, "vote_average": 7.3, "title": "Imagine Me & You", "release_date": "2005-02-01", "original_language": "en", "original_title": "Imagine Me & You", "genre_ids": [35, 18, 10749], "backdrop_path": "/s1wez4YOL10BMVKwMANH7QMp19l.jpg", "adult": false, "overview": "During her wedding ceremony, Rachel notices Luce in the audience and feels instantly drawn to her. The two women become close friends, and when Rachel learns that Luce is a lesbian, she realizes that despite her happy marriage to Heck, she is falling for Luce. As she questions her sexual orientation, Rachel must decide between her stable relationship with Heck and her exhilarating new romance with Luce.", "poster_path": "/6IXVDZOpqThs3GTPix4ImwrTVb7.jpg", "popularity": 16.185}], "total_pages": 119, "total_results": 2363}, "recommendations": {"page": 1, "results": [{"adult": false, "backdrop_path": "/3rEWOx2TxRNTUpVo34zg4Slrxzq.jpg", "genre_ids": [18], "id": 71507, "original_language": "en", "original_title": "Jailbait", "overview": "Randy commits a crime that would normally get him probation and a hefty fine, but in the \"three-strikes\" world of justice, he finds himself locked up for 25 years. His cellmate Jake is a congenial yet remorseless lifer who casually informs Randy that he slit his wife's throat because she slept with another man just three months after they exchanged vows. Jake recognizes Randy's fear and offers him advice on how to make it in prison. But it soon becomes clear that Jake has much more than mentoring in mind as he takes Randy under his wing. \"Jailbait\" sets a darkly cerebral tone, juxtaposing brutality with the unattainable ideal of intimacy in the harshest of psychological environments. For these two men so yearning to be anything but who they are and where they are, power is the goal, and it's never clear who truly holds it right up to the last unsettling moment", "poster_path": "/b7IBftqUp78x9VgbSI8zWaJUS2u.jpg", "release_date": "2004-05-03", "title": "Jailbait", "video": false, "vote_average": 5.0, "vote_count": 3, "popularity": 4.717}, {"adult": false, "backdrop_path": null, "genre_ids": [18, 10770], "id": 51783, "original_language": "en", "original_title": "The Investigator", "overview": "1989: Caroline Meagher is a sergeant with the Royal Military Police, with 12 years' experience, stationed in Northern Ireland. Two men from internal affairs grill her for four days: someone has accused her of being a lesbian. It's an offense that leads to court martial. In a series of flashbacks, we see her enthusiasm when she joins the force, her various assignments including investigating suspected lesbians, and her own slow discovery of her sexual nature. She, like others in her situation, must go to great lengths to avoid detection. Once reported, will she withstand the interrogation? Meagher herself comments on camera at the end of the film.", "poster_path": "/bPQdHDmwF2aODftAwwQFO9S68fE.jpg", "release_date": "1997-01-01", "title": "The Investigator", "video": false, "vote_average": 4.7, "vote_count": 3, "popularity": 2.445}, {"adult": false, "backdrop_path": "/bCF7z8EFpxnRynpzjWP1l45N5Zc.jpg", "genre_ids": [35], "id": 231036, "original_language": "en", "original_title": "Flyfishing", "overview": "Good-looking, well-spoken Phil is broke and cannot understand how flatmate James has recently acquired a lot of extra cash and a permanent grin on his face. James's secret? Adonis Escorts - 40 pounds an hour, 150 for the night. Faced with imminent eviction, a reluctant Phil is persuaded to join the agency and soon the two gigolos have a loyal following including bored housewife, Frances. In fact business is booming until love rears its ugly head. And then chaos reigns as James falls in love with Phil, Phil falls in love with Helen, Helen takes Phil home to her mother - Frances, Frances goes crazy because she had fallen for her daughter's new boyfriend Phil, and Darren just wants to make it alright - by settling down with James. Who is definitely not gay. Just confused!", "poster_path": "/n6ntkF7h4AWLR6P8GkLHHtar6m2.jpg", "release_date": "2002-10-24", "title": "Flyfishing", "video": false, "vote_average": 4.3, "vote_count": 3, "popularity": 3.703}, {"id": 41645, "video": false, "vote_count": 7, "vote_average": 4.9, "title": "Food of Love", "release_date": "2002-02-08", "original_language": "en", "original_title": "Manjar de amor", "genre_ids": [18, 10749], "backdrop_path": "/bg7u9U5okv3OPw5b4yvkshk7gFa.jpg", "adult": false, "overview": "Young aspiring pianist attracts attention of famous musicians. Chance encounters bring them together but expectations must be managed by all.", "poster_path": "/cWX7thygCKzvmkMeAqO7sCnZTFL.jpg", "popularity": 4.087}, {"adult": false, "backdrop_path": "/A0UhVaOZTGonDTXcPTxl7jnq4BJ.jpg", "genre_ids": [35], "id": 21488, "original_language": "fr", "original_title": "Dr\u00f4le de F\u00e9lix", "overview": "A charming comedy about going on a rather long walk. F\u00e9lix is a laid-back guy living in the bleak northern coastal town of Dieppe. He lives happily with his lover Daniel and is a soap opera enthusiast and HIV-positive. After losing his job, F\u00e9lix decides to find the father he never knew in Marseilles. Agreeing to meet Daniel in the southern port city in a week's time, F\u00e9lix throws on his backpack and starts hiking. On his way, he discovers that family need not always be connected by blood.", "poster_path": "/62DDLzTOsqRYX5vWi9v2KflNykS.jpg", "release_date": "2000-04-19", "title": "Adventures of F\u00e9lix", "video": false, "vote_average": 6.1, "vote_count": 10, "popularity": 3.74}, {"adult": false, "backdrop_path": "/sJVrVb08T9HHpm7RQXy9O46fMv.jpg", "genre_ids": [18, 35], "id": 123879, "original_language": "en", "original_title": "Say Uncle", "overview": "A young artist (Peter Paige), desperate to replace the relationship he had with his recently relocated godson, is targeted by a neighborhood mom (Kathy Najimy) as a potential threat to the community.", "poster_path": "/i1Z3QheZbP6tcyn5PeaCt2birY5.jpg", "release_date": "2005-07-10", "title": "Say Uncle", "video": false, "vote_average": 4.6, "vote_count": 5, "popularity": 2.867}, {"adult": false, "backdrop_path": "/3ZuHZcUKUFHy7Q8tjuBnK7bIJ7D.jpg", "genre_ids": [18, 53], "id": 20064, "original_language": "en", "original_title": "Little Boy Blue", "overview": "Living in rural Texas is a dysfunctional family: an abusive dad, a Vietnam vet with a war wound that's left him impotent; a compliant wife and a son of about 20, two small sons who look a lot like their brother. The dad harbors a secret, and he goes to murderous lengths to keep it hidden. The young man, Jimmy, who has suspicions, but little comes out until a Yankee woman comes to town.", "poster_path": "/yBFQhYiHSt7KkyqKfzuuKdtIcbr.jpg", "release_date": "1997-06-01", "title": "Little Boy Blue", "video": false, "vote_average": 6.5, "vote_count": 17, "popularity": 8.163}, {"adult": false, "backdrop_path": "/j8RCAuMGTBZ7rJrc7FNmLgPpRhS.jpg", "genre_ids": [35, 18, 10749], "id": 18803, "original_language": "en", "original_title": "Expired", "overview": "The film revolves around Claire, a kind soul who resents having to enforce the law at all times, and Jay, an angry Traffic Officer who loves his job, being the perfect outlet for his anger and frustrations. Coming both from a place of despair and loneliness, Jay and Claire meet and engage in a tumultuous relationship which will eventually teach them that love can spread redemption.", "poster_path": "/uZTcCVW4NzdpdbmqIIgj0ee57Xz.jpg", "release_date": "2007-01-19", "title": "Expired", "video": false, "vote_average": 6.4, "vote_count": 15, "popularity": 5.096}, {"adult": false, "backdrop_path": "/e8uqvo7ERdfcNrqHgdPDaIlFwAv.jpg", "genre_ids": [80, 18, 53, 10770], "id": 65830, "original_language": "en", "original_title": "No Night Is Too Long", "overview": "Young Tim Cornish's life has begun with great promise. Blessed with extraordinary good looks, Tim enjoyed much attention and cared little of broken hearts. At University he was a favored student in a prestigious creative writing course, but a chance meeting, a stolen kiss and a sudden flare of passion sets Tim on a journey of betrayal, heartbreak and murder. In a flashback, he tells his story of cruelty, love and a soul-destroying guilt that offers little chance for redemption.", "poster_path": "/81uNqDEDFrM9NmdOigwQIjXNF2w.jpg", "release_date": "2002-12-27", "title": "No Night Is Too Long", "video": false, "vote_average": 7.0, "vote_count": 13, "popularity": 5.058}, {"adult": false, "backdrop_path": "/mE5CaaHl9zN3FgTFEfPb180Upht.jpg", "genre_ids": [35, 10749], "id": 43997, "original_language": "en", "original_title": "Divorcing Jack", "overview": "He's Irish, he's ageing, he drinks, is a touch cynical and when he has time writes a newspaper column. On the eve of the country's first election as an independent state, Dan Starkey's life is about to change after he finds the young woman he has just made love to dead and his only ally is a nun", "poster_path": "/rtS6oI8vfDKn8s0OhrNWWbWd9um.jpg", "release_date": "1998-10-01", "title": "Divorcing Jack", "video": false, "vote_average": 6.0, "vote_count": 10, "popularity": 3.71}, {"adult": false, "backdrop_path": "/YW29DFL51cpnH4kg36I9pIDWtN.jpg", "genre_ids": [10402, 18, 10749], "id": 18586, "original_language": "en", "original_title": "The Hottest State", "overview": "A young actor from Texas tries to make it in New York while struggling in his relationship with a beautiful singer/songwriter.", "poster_path": "/tek1OJ3sq6e1MM3g0fL3HGpuaW6.jpg", "release_date": "2006-09-02", "title": "The Hottest State", "video": false, "vote_average": 5.3, "vote_count": 13, "popularity": 5.062}], "total_pages": 1, "total_results": 11}, "credits": {"cast": [{"cast_id": 2, "character": "Ray", "credit_id": "52fe46a8c3a36847f810b175", "gender": 2, "id": 25878, "name": "Shawn Doyle", "order": 0, "profile_path": "/qHiUwajFxoAzM9v0kEMZS7kIEku.jpg"}, {"cast_id": 3, "character": "Ruby", "credit_id": "52fe46a8c3a36847f810b179", "gender": 1, "id": 61134, "name": "Tatiana Maslany", "order": 1, "profile_path": "/mVdss3kBhKiWYWFFcrdOSAAfwC0.jpg"}, {"cast_id": 4, "character": "Rose", "credit_id": "52fe46a8c3a36847f810b17d", "gender": 0, "id": 131865, "name": "Julia Kennedy", "order": 2, "profile_path": null}, {"cast_id": 5, "character": "Stuart", "credit_id": "52fe46a8c3a36847f810b181", "gender": 2, "id": 131866, "name": "Jonny Harris", "order": 3, "profile_path": null}, {"cast_id": 16, "character": "Will", "credit_id": "52fe46a8c3a36847f810b1bf", "gender": 2, "id": 225411, "name": "Mark O'Brien", "order": 5, "profile_path": "/8ckgltvlife4BBJcBpHEQWXfQ9p.jpg"}, {"cast_id": 17, "character": "James", "credit_id": "52fe46a8c3a36847f810b1c3", "gender": 2, "id": 209712, "name": "Steve Cochrane", "order": 6, "profile_path": "/mSQfE7EAmz6ChyjvJyfvJ88IihQ.jpg"}, {"cast_id": 18, "character": "Laura", "credit_id": "52fe46a8c3a36847f810b1c7", "gender": 1, "id": 1085285, "name": "Maggie Meyer", "order": 7, "profile_path": null}, {"cast_id": 19, "character": "Dara", "credit_id": "52fe46a9c3a36847f810b1cb", "gender": 0, "id": 168792, "name": "Mary Lewis", "order": 8, "profile_path": null}, {"cast_id": 20, "character": "Lillian", "credit_id": "52fe46a9c3a36847f810b1cf", "gender": 1, "id": 175285, "name": "Sherry White", "order": 9, "profile_path": "/vMgSCmgr4c10zFP2v7MKRjYaZfn.jpg"}, {"cast_id": 21, "character": "Bill", "credit_id": "550aeed992514146a0001848", "gender": 0, "id": 1331778, "name": "Andy Jones", "order": 10, "profile_path": null}], "crew": [{"credit_id": "52fe46a8c3a36847f810b18d", "department": "Production", "gender": 2, "id": 25878, "job": "Producer", "name": "Shawn Doyle", "profile_path": "/qHiUwajFxoAzM9v0kEMZS7kIEku.jpg"}, {"credit_id": "52fe46a8c3a36847f810b199", "department": "Crew", "gender": 0, "id": 85326, "job": "Cinematography", "name": "Jason Tan", "profile_path": null}, {"credit_id": "52fe46a8c3a36847f810b171", "department": "Directing", "gender": 1, "id": 131864, "job": "Director", "name": "Adriana Maggs", "profile_path": "/9BDc43VYcv2nSKUWWAxAXpusnXw.jpg"}, {"credit_id": "52fe46a8c3a36847f810b193", "department": "Production", "gender": 1, "id": 131864, "job": "Producer", "name": "Adriana Maggs", "profile_path": "/9BDc43VYcv2nSKUWWAxAXpusnXw.jpg"}, {"credit_id": "52fe46a8c3a36847f810b187", "department": "Writing", "gender": 1, "id": 131864, "job": "Writer", "name": "Adriana Maggs", "profile_path": "/9BDc43VYcv2nSKUWWAxAXpusnXw.jpg"}, {"credit_id": "52fe46a8c3a36847f810b19f", "department": "Editing", "gender": 2, "id": 966564, "job": "Editor", "name": "Stephen Philipson", "profile_path": "/bT95KLa5f8ESKCP6WKoolASnex8.jpg"}, {"credit_id": "52fe46a8c3a36847f810b1a5", "department": "Art", "gender": 0, "id": 1085279, "job": "Production Design", "name": "Shelley Cornick", "profile_path": null}, {"credit_id": "52fe46a8c3a36847f810b1ab", "department": "Art", "gender": 0, "id": 1085280, "job": "Set Decoration", "name": "Lori Ann Benson", "profile_path": null}, {"credit_id": "52fe46a8c3a36847f810b1b1", "department": "Production", "gender": 0, "id": 1085281, "job": "Producer", "name": "Paul Pope", "profile_path": null}, {"credit_id": "52fe46a8c3a36847f810b1b7", "department": "Costume & Make-Up", "gender": 0, "id": 1085283, "job": "Makeup Artist", "name": "Daphne Thomas", "profile_path": null}]}}