{"adult": false, "backdrop_path": "/AaOzeem41RI3ZSNiArYbsgbDkT3.jpg", "belongs_to_collection": null, "budget": 0, "genres": [{"id": 18, "name": "Drama"}], "homepage": null, "id": 450336, "imdb_id": "tt6597612", "original_language": "es", "original_title": "J\u00falia ist", "overview": "A young Spanish exchange student who is on her own for the first time in her life tries to adjust to a vastly different life in Berlin.", "popularity": 2.03, "poster_path": "/dJwfIj7jkAmoVDU6KaPALp6fo8q.jpg", "production_companies": [{"id": 52867, "logo_path": "/sihvTcE5dwZ4xl90uVcUHcet8Fc.png", "name": "Lastor Media", "origin_country": "ES"}], "production_countries": [{"iso_3166_1": "ES", "name": "Spain"}], "release_date": "2017-06-16", "revenue": 0, "runtime": 90, "spoken_languages": [{"iso_639_1": "de", "name": "Deutsch"}, {"iso_639_1": "es", "name": "Espa\u00f1ol"}], "status": "Released", "tagline": "", "title": "Julia Is", "video": false, "vote_average": 4.6, "vote_count": 11, "keywords": {"keywords": [{"id": 187056, "name": "woman director"}]}, "similar": {"page": 1, "results": [{"adult": false, "backdrop_path": "/cADbqsIoiDW7X3Myg9nz8eAuno5.jpg", "genre_ids": [18, 10749], "id": 10818, "original_language": "fr", "original_title": "Naissance des pieuvres", "overview": "Set during a sultry summer in a French suburb, Marie is desperate to join the local pool's synchronized swimming team, but is her interest solely for the sake of sport or for a chance to get close to Floriane, the bad girl of the team? Sciamma, and the two leads, capture the uncertainty of teenage sexuality with a sympathetic eye in this delicate drama of the angst of coming-of-age.", "poster_path": "/4jajELYrR4Xmv3CVoKnukRnALa2.jpg", "release_date": "2007-05-17", "title": "Water Lilies", "video": false, "vote_average": 6.1, "vote_count": 119, "popularity": 9.614}, {"adult": false, "backdrop_path": "/gZeJziVigmRqbkEZwKAtSqlLQ6s.jpg", "genre_ids": [18, 10749], "id": 370663, "original_language": "en", "original_title": "Below Her Mouth", "overview": "An unexpected affair quickly escalates into a heart-stopping reality for two women whose passionate connection changes their lives forever.", "poster_path": "/nTGbq37hYLuNy7YgMg0gVLma0NS.jpg", "release_date": "2016-09-10", "title": "Below Her Mouth", "video": false, "vote_average": 6.2, "vote_count": 456, "popularity": 18.664}, {"adult": false, "backdrop_path": "/dvQDRfv3qvfHNnVAR57ouVsuErf.jpg", "genre_ids": [10749, 18], "id": 28031, "original_language": "en", "original_title": "If These Walls Could Talk 2", "overview": "The stories of three lesbian couples -- who live in the same house at different periods of time -- who are at a crossroads in their lives. In 1961, Edith loses her lover, Abby, to a stroke. Linda and Amy struggle with feminist issues in 1972. And, in 2000, Kal and Fran try to have a baby with the help of sperm donor.", "poster_path": "/xs7ODbmYQXCDhvXNvz5tF17T59H.jpg", "release_date": "2000-03-05", "title": "If These Walls Could Talk 2", "video": false, "vote_average": 7.1, "vote_count": 55, "popularity": 8.86}, {"adult": false, "backdrop_path": "/knczzNAjBXzSYkeWxoT1u9VNmjR.jpg", "genre_ids": [10749, 18], "id": 258480, "original_language": "en", "original_title": "Carol", "overview": "In 1950s New York, a department-store clerk who dreams of a better life falls for an older, married woman.", "poster_path": "/AbKa7ANxmui0Jmhh7gV7OSELKIL.jpg", "release_date": "2015-11-20", "title": "Carol", "video": false, "vote_average": 7.4, "vote_count": 2184, "popularity": 13.539}, {"adult": false, "backdrop_path": "/fZ8oFcREAr6wgWcXISGql0xyxjB.jpg", "genre_ids": [35, 18], "id": 39781, "original_language": "en", "original_title": "The Kids Are All Right", "overview": "Two women, Nic and Jules, brought a son and daughter into the world through artificial insemination. When one of their children reaches age, both kids go behind their mothers' backs to meet with the donor. Life becomes so much more interesting when the father, two mothers and children start to become attached to each other.", "poster_path": "/fPDeK4MmoGfi2X0oWZev7LrbMqM.jpg", "release_date": "2010-07-09", "title": "The Kids Are All Right", "video": false, "vote_average": 6.6, "vote_count": 923, "popularity": 12.159}, {"adult": false, "backdrop_path": "/rf6G51j0SZL0tP57I8gnqHTRFEr.jpg", "genre_ids": [35, 18, 10749], "id": 273153, "original_language": "fr", "original_title": "La belle saison", "overview": "In 1971, Carole and Delphine meet and fall in love in Paris. When Carole follows Delphine back to her family farm in Limousin, the two find lesbianism and feminism are not as easy in the countryside.", "poster_path": "/evvAkNMO5VJiy5qIo1Hu7fUfvVI.jpg", "release_date": "2015-08-19", "title": "Summertime", "video": false, "vote_average": 6.6, "vote_count": 162, "popularity": 11.575}, {"adult": false, "backdrop_path": "/s12HEmmkJfI2mjltI61hGm5kubD.jpg", "genre_ids": [35, 18, 10749], "id": 20770, "original_language": "en", "original_title": "But I'm a Cheerleader", "overview": "Megan is an all-American girl. A cheerleader. She has a boyfriend. But Megan doesn't like kissing her boyfriend very much. And she's pretty touchy with her cheerleader friends. Her conservative parents worry that she must be a lesbian and send her off to \"sexual redirection\" school, where she must, with other lesbians and gays learn how to be straight.", "poster_path": "/eDGH7CHSdkrYcuUJV1e0WS9DlQL.jpg", "release_date": "1999-12-09", "title": "But I'm a Cheerleader", "video": false, "vote_average": 6.8, "vote_count": 246, "popularity": 9.011}, {"id": 9813, "video": false, "vote_count": 128, "vote_average": 6.1, "title": "The Quiet", "release_date": "2005-09-12", "original_language": "en", "original_title": "The Quiet", "genre_ids": [18, 53], "backdrop_path": "/6eyWAZA4CEidZW1xXnQ4vlYBXTP.jpg", "adult": false, "overview": "After her widowed father dies, deaf teenager Dot moves in with her godparents, Olivia and Paul Deer. The Deers' daughter, Nina, is openly hostile to Dot, but that does not prevent her from telling her secrets to her silent stepsister, including the fact that she wants to kill her lecherous father.", "poster_path": "/GEqIE9YlmygHVUfS64LW2cwAAM.jpg", "popularity": 14.844}, {"adult": false, "backdrop_path": "/tzqeuHWMFihFbiLGHdalPgAcSf6.jpg", "genre_ids": [18, 10749], "id": 18620, "original_language": "en", "original_title": "Go Fish", "overview": "Max is a trendy, pretty, young lesbian, who is having trouble finding love. A friend sets her up with Ely, whom Max likes, but Ely is frumpy, homely, and older. Nor do they have much in common. Can Max learn to look past the packaging?", "poster_path": "/qrEFYrwykaGsY8NULYuYLLI7zrM.jpg", "release_date": "1994-06-10", "title": "Go Fish", "video": false, "vote_average": 5.0, "vote_count": 11, "popularity": 3.676}, {"adult": false, "backdrop_path": "/6tern9vOEwwmkDYC1vRCuO64z0C.jpg", "genre_ids": [10749, 18], "id": 475888, "original_language": "en", "original_title": "Tell It to the Bees", "overview": "Dr. Jean Markham returns to the town she left as a teenager to take over her late father's medical practice. When a school-yard scuffle lands Charlie in her surgery, she invites him to visit the hives in her garden and tell his secrets to the bees, as she once did. The new friendship between the boy and the bee keeper brings his mother Lydia into Jean's world.", "poster_path": "/Rj6zpHhMU1zFW3v28U4PSRSRgP.jpg", "release_date": "2019-05-03", "title": "Tell It to the Bees", "video": false, "vote_average": 6.4, "vote_count": 53, "popularity": 13.175}, {"adult": false, "backdrop_path": "/baYbbMtKRDoDWYJeVWkbygAvAj8.jpg", "genre_ids": [18, 10749], "id": 31216, "original_language": "en", "original_title": "I Can't Think Straight", "overview": "I CAN'T THINK STRAIGHT is a 2007 romance movie about a London-based Jordanian of Palestinian descent, Tala, who is preparing for an elaborate wedding. A turn of events causes her to have an affair and subsequently fall in love with another woman, Leyla, a British Indian.", "poster_path": "/1kapga6rkM5wNuQBYw7sdE42CrA.jpg", "release_date": "2008-06-01", "title": "I Can't Think Straight", "video": false, "vote_average": 7.6, "vote_count": 109, "popularity": 7.815}, {"adult": false, "backdrop_path": "/lI5h8KaoeObu4NMTwzeRuUHzRwD.jpg", "genre_ids": [18, 9648, 53], "id": 401898, "original_language": "no", "original_title": "Thelma", "overview": "A college student starts to experience extreme seizures. She soon learns that the violent episodes are a symptom of inexplicable abilities.", "poster_path": "/yzSfG8TLAqw7nMQh2lxirQkQpgs.jpg", "release_date": "2017-09-15", "title": "Thelma", "video": false, "vote_average": 7.1, "vote_count": 418, "popularity": 13.105}, {"adult": false, "backdrop_path": "/tIFRPjIXQ3sYrmxbIeOu9K1JkUz.jpg", "genre_ids": [18, 10749], "id": 294, "original_language": "en", "original_title": "Desert Hearts", "overview": "The story of straight-edge literature professor Vivian who travels to Reno to get away from a relationship breakup when she falls in love with an attractive and unconventional girl named Cay.", "poster_path": "/b8JSmQSpYYJhctMtxNgqh0elENg.jpg", "release_date": "1985-10-01", "title": "Desert Hearts", "video": false, "vote_average": 7.3, "vote_count": 58, "popularity": 6.976}, {"id": 2255, "video": false, "vote_count": 772, "vote_average": 6.8, "title": "Chasing Amy", "release_date": "1997-04-04", "original_language": "en", "original_title": "Chasing Amy", "genre_ids": [35, 18, 10749], "backdrop_path": "/doKYVK61Vb8J1KUjlb9dNWkQNp6.jpg", "adult": false, "overview": "Holden and Banky are comic book artists. Everything is going good for them until they meet Alyssa, also a comic book artist. Holden falls for her, but his hopes are crushed when he finds out she's a lesbian.", "poster_path": "/4vFJileWrCGaBeobCmF0tXpQCUb.jpg", "popularity": 13.95}, {"adult": false, "backdrop_path": "/hD8DQM72Xacg1d3mFqS0eN8vKYw.jpg", "genre_ids": [18], "id": 8272, "original_language": "en", "original_title": "The Savages", "overview": "A sister and brother face the realities of familial responsibility as they begin to care for their ailing father.", "poster_path": "/nY54gSmTOmSXlQpWDB7DWp4u8a7.jpg", "release_date": "2007-01-19", "title": "The Savages", "video": false, "vote_average": 6.9, "vote_count": 192, "popularity": 9.466}, {"adult": false, "backdrop_path": "/g3LYarEY9LjB28Ct2trwFN72gqZ.jpg", "genre_ids": [35], "id": 437557, "original_language": "en", "original_title": "Blockers", "overview": "When three parents discover their daughters\u2019 pact to lose their virginity at prom, they launch a covert one-night operation to stop the teens from sealing the deal.", "poster_path": "/uvlUQXg0AlpGzKukO11K7QtW3Yu.jpg", "release_date": "2018-03-14", "title": "Blockers", "video": false, "vote_average": 6.2, "vote_count": 1155, "popularity": 17.886}, {"adult": false, "backdrop_path": "/zBB1mzmqnUuSrlTuf0SFFlI1EoJ.jpg", "genre_ids": [18], "id": 244772, "original_language": "en", "original_title": "The Skeleton Twins", "overview": "Estranged twins Maggie and Milo coincidentally cheat death on the same day, prompting them to reunite and confront the reasons their lives went so wrong. As the twins' reunion reinvigorates them, they realize the key to fixing their lives may just lie in repairing their relationship.", "poster_path": "/vvmv1R2jDXJeeeyYcGg0ypXc2XK.jpg", "release_date": "2014-09-12", "title": "The Skeleton Twins", "video": false, "vote_average": 6.7, "vote_count": 416, "popularity": 10.481}, {"adult": false, "backdrop_path": "/3YGy88nTV2e0wxZcKI1goiEN9oy.jpg", "genre_ids": [18, 10749], "id": 37636, "original_language": "en", "original_title": "High Art", "overview": "A young female intern at a small magazine company becomes involved with a drug-addicted lesbian photographer, both of whom seek to exploit each other for their respective careers, while slowly falling in love with each other.", "poster_path": "/qTg05RNJIvb9w4Z7XIcAZxuZmTn.jpg", "release_date": "1998-06-12", "title": "High Art", "video": false, "vote_average": 6.6, "vote_count": 61, "popularity": 7.422}, {"adult": false, "backdrop_path": "/caLMOD3ZJ3V7qjlxDXrzlJfBLgD.jpg", "genre_ids": [18, 10749], "id": 20, "original_language": "en", "original_title": "My Life Without Me", "overview": "A Pedro Almodovar production in which a fatally ill mother with only two months to live creates a list of things she wants to do before she dies with out telling her family of her illness.", "poster_path": "/vVj92VBFUBzjqzLvBiPVVlJDp78.jpg", "release_date": "2003-03-07", "title": "My Life Without Me", "video": false, "vote_average": 6.1, "vote_count": 220, "popularity": 10.382}, {"adult": false, "backdrop_path": "/useuHJQ5HOoEWkAvEjL1FW1sUfe.jpg", "genre_ids": [18], "id": 376867, "original_language": "en", "original_title": "Moonlight", "overview": "The tender, heartbreaking story of a young man\u2019s struggle to find himself, told across three defining chapters in his life as he experiences the ecstasy, pain, and beauty of falling in love, while grappling with his own sexuality.", "poster_path": "/qAwFbszz0kRyTuXmMeKQZCX3Q2O.jpg", "release_date": "2016-10-21", "title": "Moonlight", "video": false, "vote_average": 7.4, "vote_count": 4410, "popularity": 21.716}], "total_pages": 1446, "total_results": 28911}, "recommendations": {"page": 1, "results": [{"adult": false, "backdrop_path": "/ctLB3wn8z3bLFzAFnKrL4FgpRCa.jpg", "genre_ids": [18], "id": 225037, "original_language": "ca", "original_title": "Tots volem el millor per a ella", "overview": "A middle-age woman recovers from a serious car accident.", "poster_path": "/h55izisvU1w6mqUVMAdd1qAPEli.jpg", "release_date": "2013-10-24", "title": "Puzzlement", "video": false, "vote_average": 5.8, "vote_count": 5, "popularity": 1.442}, {"adult": false, "backdrop_path": "/ntkKc6BkdXztK3nosFpy9F8nkXf.jpg", "genre_ids": [35, 10749], "id": 95744, "original_language": "en", "original_title": "La monta\u00f1a rusa", "overview": "Three childhood friends meet again many years later, a woman and two men. A triangle. In one corner, sex, in another, love, and in the middle ... the protagonist in a mess. Romantic and sentimental comedy about sex, love and its many complicated combinations.", "poster_path": "/wvNvaPnfu6QlD5gKDsXnGNsCMcc.jpg", "release_date": "2012-03-15", "title": "La monta\u00f1a rusa", "video": false, "vote_average": 6.5, "vote_count": 8, "popularity": 3.394}, {"adult": false, "backdrop_path": null, "genre_ids": [99], "id": 359807, "original_language": "pt", "original_title": "Chico - Artista Brasileiro", "overview": "Chico Buarque is a constant presence in Brazil's art scene and makes up its citizen's popular culture. This wealth in music, poems, theater and novels has been created over the last 50 years and in this film Chico Buarque converses about his memories, shows, daily life, work methods, creative process, in summary all his trajectory. The musician\u2019s search for his German brother, whom he never got to meet, serves as one of the axis for the narrative.", "poster_path": "/cNySjJRiKZcPjFnvNDiQGVBYtBe.jpg", "release_date": "2015-11-26", "title": "Chico - Brazilian Artist", "video": false, "vote_average": 8.0, "vote_count": 3, "popularity": 1.031}, {"adult": false, "backdrop_path": "/7DB5LOsifr5leGWlTSPycCYB6qb.jpg", "genre_ids": [10749, 18, 10402], "id": 336784, "original_language": "pt", "original_title": "Rock Estrela", "overview": "Classical music student arrives from Buenos Aires to live with his rocker cousin in Rio De Janeiro. Between parties full of rock and roll, he has to decide between his childhood girlfriend, now a respectful businesswoman, and the volleyball player Vera.", "poster_path": "/fB5GxtKzFyxBWJT8Hnguy2KfVAC.jpg", "release_date": "1986-01-01", "title": "Rock Estrela", "video": false, "vote_average": 5.0, "vote_count": 3, "popularity": 1.646}, {"id": 55060, "video": false, "vote_count": 4, "vote_average": 5.5, "title": "This Is My Body", "release_date": "2001-08-29", "original_language": "fr", "original_title": "Ceci est mon corps", "genre_ids": [18], "backdrop_path": null, "adult": false, "overview": "Gifted student Antoine goes against his family\u2019s wishes and accepts the lead role in a controversial director\u2019s film. He learns that the role had previously been offered to a young man who committed suicide after an on-set affair \u2013 and events conspire to draw Antoine towards the same lover.", "poster_path": "/tBDlgirvS9fyxiTCr98xSUMJWmh.jpg", "popularity": 2.996}, {"adult": false, "backdrop_path": null, "genre_ids": [], "id": 102223, "original_language": "mn", "original_title": "Nohoi oron", "overview": "In Ulan Bator, Mongolia, the cur Baatar is shot by a hunter hired by the authorities to get rid off the dogs in the city...", "poster_path": "/fA3YifgflnpLhiyk3i0gynVeZKi.jpg", "release_date": "1998-09-16", "title": "Nohoi oron", "video": false, "vote_average": 8.0, "vote_count": 3, "popularity": 1.566}, {"adult": false, "backdrop_path": "/214ikt8ykleN5ftDoxFD1gz2SO3.jpg", "genre_ids": [35], "id": 169497, "original_language": "en", "original_title": "Falsa Loura", "overview": "Silmara, an industrial worker and a woman of exuberant beauty, supports her arsonist father and gets involved with two different pop stars, from whom she learns traumatic life lessons.", "poster_path": "/rjIdTmcudS79x844GNf6PqMeTfL.jpg", "release_date": "2007-11-24", "title": "Fake Blond", "video": false, "vote_average": 6.0, "vote_count": 4, "popularity": 3.219}, {"adult": false, "backdrop_path": "/yy3drMqb08XqJIumfaeyR7OmAyJ.jpg", "genre_ids": [18], "id": 422117, "original_language": "pt", "original_title": "Por Tr\u00e1s do C\u00e9u", "overview": "In a place taken by poverty, Aparecida lives full of dreams and hope. While her husband leads a bitter life caused by a tragedy from the past, she decides to take an attitude that can change everything: to leave for the big city.", "poster_path": "/8JlHILhZHlIKVWyDfVADfwij6K9.jpg", "release_date": "2016-05-02", "title": "Por Tr\u00e1s do C\u00e9u", "video": false, "vote_average": 7.0, "vote_count": 4, "popularity": 2.426}, {"adult": false, "backdrop_path": "/aHOi4NRO37Xsv9FtSkIijYe03J7.jpg", "genre_ids": [18], "id": 326193, "original_language": "es", "original_title": "Tiempo sin aire", "overview": "Maria, a nurse whose daughter was killed by three militiamen, travels from Colombia to Spain with her younger son in order to get revenge.", "poster_path": "/iPkSTYNJypGvGVi6uHxuv4IXb1O.jpg", "release_date": "2015-04-30", "title": "Breathless Time", "video": false, "vote_average": 6.5, "vote_count": 4, "popularity": 2.341}, {"adult": false, "backdrop_path": null, "genre_ids": [], "id": 82349, "original_language": "it", "original_title": "Nessuna qualit\u00e0 agli eroi", "overview": "Fallen Heroes is a 2007 Italian crime-drama film directed by Paolo Franchi. It entered the competition at the 64th Venice International Film Festival. Wikipedia", "poster_path": "/423pq1JCr08zyeeapJqd5EdpYfa.jpg", "release_date": "2007-01-01", "title": "Fallen Heroes", "video": false, "vote_average": 5.0, "vote_count": 3, "popularity": 1.782}, {"adult": false, "backdrop_path": null, "genre_ids": [99], "id": 465159, "original_language": "fr", "original_title": "Ni dieu ni ma\u00eetre, une histoire de l'anarchisme", "overview": "Anarchy is often used as a synonym for chaos and destruction with anarchists seen as black-clad nihilists fomenting violence at peaceful protests. But NO GODS NO MASTERS reveals the far more complex history of a viable social system and the men and women who devoted themselves to making it a reality.  Part One: The Passion for Destruction (1840 1906)\r Part Two: Land and Freedom (1907 1921)\r Part Three: In Memory of the Vanquished (1922 1945)", "poster_path": "/5ycgjqU8e9MW0Eo6n0DECGIdk2C.jpg", "release_date": "2016-10-16", "title": "No Gods, No Masters: A History of Anarchism in Three Parts", "video": false, "vote_average": 8.5, "vote_count": 6, "popularity": 0.905}, {"adult": false, "backdrop_path": "/6vPrss495fJpqtJkxTfTja9eeS7.jpg", "genre_ids": [18, 35, 10749], "id": 530294, "original_language": "fi", "original_title": "Tyhji\u00f6", "overview": "Eero\u2019s career as an author is spiraling down: he just can\u2019t get started with his new novel. The ambitious actor Pihla is about to get her international break. Neither of them is willing to sacrifice their career even though their relationship is doing worse than ever. Void is a comedy-drama about the price of success and the agony of failure, and about situations where your partner just doesn\u2019t get it.", "poster_path": "/50vFlmgxK21BzfxsvfoPt2JAw8k.jpg", "release_date": "2018-09-28", "title": "Void", "video": false, "vote_average": 6.8, "vote_count": 5, "popularity": 1.96}, {"adult": false, "backdrop_path": "/i4uSUlFD5BJbiyL43Rsb4B70y7e.jpg", "genre_ids": [18], "id": 551306, "original_language": "pt", "original_title": "Mare Nostrum", "overview": "", "poster_path": "/85RUsv3MczX2V1n80PraKM8Obwg.jpg", "release_date": "2018-10-04", "title": "Mare Nostrum", "video": false, "vote_average": 6.0, "vote_count": 3, "popularity": 1.865}, {"adult": false, "backdrop_path": "/wsmSPM48J2wRR0KUDRyqpwLhtcT.jpg", "genre_ids": [80], "id": 303798, "original_language": "pt", "original_title": "A Maldi\u00e7\u00e3o do Sanpaku", "overview": "", "poster_path": "/cJheyU5OStCEMVwlgbNjCTWCYjN.jpg", "release_date": "1991-05-21", "title": "A Maldi\u00e7\u00e3o do Sanpaku", "video": false, "vote_average": 5.3, "vote_count": 4, "popularity": 1.074}, {"adult": false, "backdrop_path": "/pzXvGn2FakDlW6KVgnEZajcXDFq.jpg", "genre_ids": [10402, 35, 18], "id": 268282, "original_language": "pt", "original_title": "Bete Balan\u00e7o", "overview": "A small town girl, who's an aspiring singer, tries to make a living out of music in the big city of Rio de Janeiro.", "poster_path": "/bh5Qp4G7RjiY0zuJon6bBiDuBJw.jpg", "release_date": "1984-07-30", "title": "Bete Balan\u00e7o", "video": false, "vote_average": 5.0, "vote_count": 5, "popularity": 1.346}, {"adult": false, "backdrop_path": "/5F02rSUtAv9hcMDX0qY55uAC2WP.jpg", "genre_ids": [53, 18], "id": 161343, "original_language": "sv", "original_title": "Den som s\u00f6ker", "overview": "When Tuva's parents die in a car crash, she learns that she is adopted. Disappointed with those around her for never telling her the truth, she sets off with her own daughter in search of her biological mother.", "poster_path": "/9GqutkUjHLITiaItbChywyTrRFA.jpg", "release_date": "2013-04-12", "title": "Crestfallen", "video": false, "vote_average": 6.5, "vote_count": 6, "popularity": 1.033}, {"adult": false, "backdrop_path": "/t0LSwznkStjFlC3pPNPO9pXkgn.jpg", "genre_ids": [18, 35], "id": 185735, "original_language": "es", "original_title": "La Estrella", "overview": "Estrella is a lively girl who works as a cleaner neighborhood and who lives in a modest apartment in Santa Coloma with her boyfriend. His joy and optimism contrasted with adversity around him, especially with the difficult times being experienced co-worker.", "poster_path": "/6X9FqkBR98UliCE738rVLDRj3ae.jpg", "release_date": "2013-05-24", "title": "La Estrella", "video": false, "vote_average": 6.5, "vote_count": 8, "popularity": 2.553}, {"adult": false, "backdrop_path": "/yRkDH1U45tk4roIPL5lECK9WB2m.jpg", "genre_ids": [35], "id": 553668, "original_language": "es", "original_title": "Mi peque\u00f1o gran hombre", "overview": "A successful and somewhat vain lawyer loses her mobile phone and is contacted by a stranger who wants to give it back. Charming and interesting, their instant connection blossoms but everything changes when they meet and she discovers a tiny little detail about him: he's rather short.", "poster_path": "/nqt3fRhuIswrkG3ZFK7zs0xdolD.jpg", "release_date": "2018-12-07", "title": "My Little Big Man", "video": false, "vote_average": 6.0, "vote_count": 9, "popularity": 2.041}, {"adult": false, "backdrop_path": "/2a876wrLVZE1Y4GVQugLBWW6PIy.jpg", "genre_ids": [18, 35], "id": 353301, "original_language": "fr", "original_title": "Fou d'Amour", "overview": "1959. Guilty of a double-murder, a man is beheaded. At the bottom of the basket that just welcomed it, the head of the dead man tells his story: everything was going so well! Admired priest, great lover - his earthly paradise seemed to have no end. Inspired by a scandal surrounding the Priest of Uruffe in the 1950s.", "poster_path": "/j5hd9eQAUPahUvRq6D3dX5cjTsL.jpg", "release_date": "2015-09-16", "title": "Mad Love", "video": false, "vote_average": 6.3, "vote_count": 4, "popularity": 2.02}, {"adult": false, "backdrop_path": "/m2gc8a8PWkV5V5SBrVVoxQXQJSE.jpg", "genre_ids": [18], "id": 412199, "original_language": "es", "original_title": "La mujer del animal", "overview": "Colombian director V\u00edctor Gaviria melds stark realism with nail-biting thrills in this story about a teenage girl who is kidnapped and forced into marriage with a ferocious shantytown thug.", "poster_path": "/cTX6hl7gTX6jRkhb4Rat3w18gpc.jpg", "release_date": "2016-05-01", "title": "The Animal's Wife", "video": false, "vote_average": 7.6, "vote_count": 12, "popularity": 1.7}], "total_pages": 2, "total_results": 40}, "credits": {"cast": [{"cast_id": 0, "character": "J\u00falia", "credit_id": "58e21505925141284400aac5", "gender": 1, "id": 1788850, "name": "Elena Mart\u00edn", "order": 1, "profile_path": "/4AoNZtAkFO4hi10Yd4YcV23DWQS.jpg"}, {"cast_id": 2, "character": "Jordi", "credit_id": "593fbc1f9251414af200d2c3", "gender": 0, "id": 1111470, "name": "Oriol Puig", "order": 2, "profile_path": null}, {"cast_id": 3, "character": "Paula", "credit_id": "593fbc339251414aee00d334", "gender": 1, "id": 1368894, "name": "Paula Kn\u00fcpling", "order": 3, "profile_path": "/a9aGpzTsf82JnFLhg2ImvlmoCaD.jpg"}, {"cast_id": 4, "character": "S\u00edlvia", "credit_id": "593fbc449251417a83003e09", "gender": 0, "id": 1524683, "name": "Carla Linares", "order": 4, "profile_path": null}], "crew": [{"credit_id": "58e21519c3a36872af009c75", "department": "Directing", "gender": 1, "id": 1788850, "job": "Director", "name": "Elena Mart\u00edn", "profile_path": "/4AoNZtAkFO4hi10Yd4YcV23DWQS.jpg"}]}}