{"adult": false, "backdrop_path": null, "belongs_to_collection": null, "budget": 0, "genres": [{"id": 27, "name": "Horror"}], "homepage": null, "id": 45031, "imdb_id": "tt0138050", "original_language": "en", "original_title": "Raiders of the Living Dead", "overview": "In an abandoned prison, a doctor has revived executed convicts as the living dead. Teenager, Jonathan creates a laser gun from a videodisc player and pursues the walking dead, aided by his girlfriend and grandfather. Also tracking down the zombies is a tabloid reporter.", "popularity": 2.043, "poster_path": "/oBVXXckjFQ6Ia3Jiz9EYuMQA9TO.jpg", "production_companies": [{"id": 4951, "logo_path": null, "name": "Independent International Pictures (I-I)", "origin_country": ""}], "production_countries": [{"iso_3166_1": "US", "name": "United States of America"}], "release_date": "1986-01-01", "revenue": 0, "runtime": 86, "spoken_languages": [{"iso_639_1": "en", "name": "English"}], "status": "Released", "tagline": "They are evil. They are dead. They are ravenous...", "title": "Raiders of the Living Dead", "video": false, "vote_average": 3.2, "vote_count": 9, "keywords": {"keywords": [{"id": 1562, "name": "hostage"}, {"id": 3290, "name": "laser"}, {"id": 12377, "name": "zombie"}, {"id": 13132, "name": "pistol"}, {"id": 15156, "name": "cell phone"}, {"id": 156788, "name": "swat team"}, {"id": 157351, "name": "living dead"}, {"id": 158419, "name": "nuclear fallout"}, {"id": 186565, "name": "zombie apocalypse"}]}, "similar": {"page": 1, "results": [{"id": 8408, "video": false, "vote_count": 568, "vote_average": 7.0, "title": "Day of the Dead", "release_date": "1985-07-19", "original_language": "en", "original_title": "Day of the Dead", "genre_ids": [27, 878], "backdrop_path": "/pWaXoU1aqD2KpMVLt4E9ZmKQXIk.jpg", "adult": false, "overview": "Trapped in a missile silo, a small team of scientists, civilians and trigger-happy soldiers battle desperately to ensure the survival of the human race. However, the tension inside the base is reaching a breaking point, and the zombies are gathering outside.", "poster_path": "/yJ2emwXWwQc6VHW3fO4GZr0hXBt.jpg", "popularity": 9.762}, {"adult": false, "backdrop_path": "/eHaGbnX2kukzcYGOpNF3YLPmOG5.jpg", "genre_ids": [27, 35], "id": 16281, "original_language": "en", "original_title": "Creepshow", "overview": "Inspired by the E.C. comics of the 1950s, George A. Romero and Stephen King bring five tales of terror to the screen.", "poster_path": "/hgKeTL416BPzLZntcsD1k7mNFRN.jpg", "release_date": "1982-11-12", "title": "Creepshow", "video": false, "vote_average": 6.8, "vote_count": 458, "popularity": 13.179}, {"id": 72190, "video": false, "vote_count": 9917, "vote_average": 6.7, "title": "World War Z", "release_date": "2013-06-20", "original_language": "en", "original_title": "World War Z", "genre_ids": [28, 18, 27, 878, 53], "backdrop_path": "/xMOQVYLeIKBXenJ9KMeasj7S64y.jpg", "adult": false, "overview": "Life for former United Nations investigator Gerry Lane and his family seems content. Suddenly, the world is plagued by a mysterious infection turning whole human populations into rampaging mindless zombies. After barely escaping the chaos, Lane is persuaded to go on a mission to investigate this disease. What follows is a perilous trek around the world where Lane must brave horrific dangers and long odds to find answers before human civilization falls.", "poster_path": "/Ha5t0J21eyiq6Az1EXzx0iwsGH.jpg", "popularity": 27.681}, {"id": 747, "video": false, "vote_count": 5110, "vote_average": 7.5, "title": "Shaun of the Dead", "release_date": "2004-04-09", "original_language": "en", "original_title": "Shaun of the Dead", "genre_ids": [35, 27], "backdrop_path": "/50mMiR0R1QclaAODTutwXBrReLJ.jpg", "adult": false, "overview": "Shaun lives a supremely uneventful life, which revolves around his girlfriend, his mother, and, above all, his local pub. This gentle routine is threatened when the dead return to life and make strenuous attempts to snack on ordinary Londoners.", "poster_path": "/2evlcGnsfdFWLb7geNlIjIewc0Q.jpg", "popularity": 25.866}, {"adult": false, "backdrop_path": "/5RPXs9g0sZ9Woo4pNLxdXdge7tc.jpg", "genre_ids": [14, 27, 35], "id": 766, "original_language": "en", "original_title": "Army of Darkness", "overview": "A man is accidentally transported to 1300 A.D., where he must battle an army of the dead and retrieve the Necronomicon so he can return home.", "poster_path": "/2eZKDIwLNnySbwqQtAaUz0kYDIL.jpg", "release_date": "1992-10-09", "title": "Army of Darkness", "video": false, "vote_average": 7.3, "vote_count": 1664, "popularity": 18.122}, {"id": 338967, "video": false, "vote_count": 1169, "vote_average": 7.0, "title": "Zombieland: Double Tap", "release_date": "2019-10-09", "original_language": "en", "original_title": "Zombieland: Double Tap", "genre_ids": [28, 35, 27], "backdrop_path": "/3ghImmHdp4RnC3UkL6hpLayclnb.jpg", "adult": false, "overview": "Columbus, Tallahassee, Wichita, and Little Rock move to the American heartland as they face off against evolved zombies, fellow survivors, and the growing pains of the snarky makeshift family.", "poster_path": "/dtRbVsUb5O12WWO54SRpiMtHKC0.jpg", "popularity": 66.191}, {"id": 19908, "video": false, "vote_count": 7598, "vote_average": 7.2, "title": "Zombieland", "release_date": "2009-10-07", "original_language": "en", "original_title": "Zombieland", "genre_ids": [35, 27], "backdrop_path": "/lLgLFzSZduH9kBxrk6BvoHc1gg0.jpg", "adult": false, "overview": "Columbus has made a habit of running from what scares him. Tallahassee doesn't have fears. If he did, he'd kick their ever-living ass. In a world overrun by zombies, these two are perfectly evolved survivors. But now, they're about to stare down the most terrifying prospect of all: each other.", "poster_path": "/vUzzDpVrab1BOG3ogxhRGfLN94d.jpg", "popularity": 27.301}, {"id": 485415, "video": false, "vote_count": 277, "vote_average": 4.1, "title": "Day of the Dead: Bloodline", "release_date": "2018-01-04", "original_language": "en", "original_title": "Day of the Dead: Bloodline", "genre_ids": [28, 27], "backdrop_path": "/1CKntz5l7oblq2RYligHHvY64sh.jpg", "adult": false, "overview": "In a world overrun by zombies, military personnel and survivalists live in an underground bunker while they seek a cure.", "poster_path": "/3jM4C1wJxHLWlF4tcSyyv6fnJPR.jpg", "popularity": 14.184}, {"adult": false, "backdrop_path": "/5CPIk2eE3Nk4UPwx5HCHKDdIiJs.jpg", "genre_ids": [35, 27, 878], "id": 11429, "original_language": "en", "original_title": "Beyond Re-Animator", "overview": "Once again tampering with mother nature to disastrous results, Dr. Herbert West continues his research while serving time in a maximum security prison for his previous exploits. West's limited prison-cell experiments are suddenly interrupted by the arrival of a new prison doctor and the brother of the girl who suffered from West's experiments 13 years earlier.", "poster_path": "/7K8odajc1QUaeOtD5XvlBiWzypQ.jpg", "release_date": "2003-04-04", "title": "Beyond Re-Animator", "video": false, "vote_average": 5.5, "vote_count": 124, "popularity": 10.121}, {"adult": false, "backdrop_path": "/pAD4FAkCERB3sDprJM4f5YaKL3v.jpg", "genre_ids": [27, 35], "id": 24935, "original_language": "en", "original_title": "Return of the Living Dead: Necropolis", "overview": "A group of teenagers who, in an attempt to rescue their friend from an evil corporation, end up releasing a horde of blood thirsty zombies.", "poster_path": "/wez633rPnd9x4xObQwRHmOOM5sE.jpg", "release_date": "2005-10-15", "title": "Return of the Living Dead: Necropolis", "video": false, "vote_average": 3.6, "vote_count": 56, "popularity": 7.853}, {"id": 10925, "video": false, "vote_count": 551, "vote_average": 7.3, "title": "The Return of the Living Dead", "release_date": "1985-04-25", "original_language": "en", "original_title": "The Return of the Living Dead", "genre_ids": [35, 27], "backdrop_path": "/jA34vdJCxOZUoi4khkfhq1pX3WG.jpg", "adult": false, "overview": "When a bumbling pair of employees at a medical supply warehouse accidentally release a deadly gas into the air, the vapors cause the dead to re-animate as they go on a rampage seeking their favorite food: brains!", "poster_path": "/1vydUitzC8W8W5oNevEArCltydJ.jpg", "popularity": 13.326}, {"id": 156022, "video": false, "vote_count": 5468, "vote_average": 7.2, "title": "The Equalizer", "release_date": "2014-09-24", "original_language": "en", "original_title": "The Equalizer", "genre_ids": [28, 80, 53], "backdrop_path": "/vbl4ZVqelrrzJ16fdDOq9siWbpi.jpg", "adult": false, "overview": "McCall believes he has put his mysterious past behind him and dedicated himself to beginning a new, quiet life. But when he meets Teri, a young girl under the control of ultra-violent Russian gangsters, he can\u2019t stand idly by \u2013 he has to help her. Armed with hidden skills that allow him to serve vengeance against anyone who would brutalize the helpless, McCall comes out of his self-imposed retirement and finds his desire for justice reawakened. If someone has a problem, if the odds are stacked against them, if they have nowhere else to turn, McCall will help. He is The Equalizer.", "poster_path": "/2eQfjqlvPAxd9aLDs8DvsKLnfed.jpg", "popularity": 39.578}, {"adult": false, "backdrop_path": "/ieJ5ImFoJILNULvnIpbulAln7Lr.jpg", "genre_ids": [12, 28, 53, 878], "id": 14869, "original_language": "en", "original_title": "G.I. Joe: The Rise of Cobra", "overview": "From the Egyptian desert to deep below the polar ice caps, the elite G.I. JOE team uses the latest in next-generation spy and military equipment to fight the corrupt arms dealer Destro and the growing threat of the mysterious Cobra organization to prevent them from plunging the world into chaos.", "poster_path": "/29eW5c5DaCFQejdt9V14RrA51yD.jpg", "release_date": "2009-08-04", "title": "G.I. Joe: The Rise of Cobra", "video": false, "vote_average": 5.7, "vote_count": 3082, "popularity": 22.639}, {"adult": false, "backdrop_path": "/bvbyidkMaBls1LTaIWYY6UmYTaL.jpg", "genre_ids": [28, 878], "id": 336843, "original_language": "en", "original_title": "Maze Runner: The Death Cure", "overview": "Thomas leads his group of escaped Gladers on their final and most dangerous mission yet. To save their friends, they must break into the legendary Last City, a WCKD-controlled labyrinth that may turn out to be the deadliest maze of all. Anyone who makes it out alive will get answers to the questions the Gladers have been asking since they first arrived in the maze.", "poster_path": "/2zYfzA3TBwrMC8tfFbpiTLODde0.jpg", "release_date": "2018-01-10", "title": "Maze Runner: The Death Cure", "video": false, "vote_average": 7.0, "vote_count": 4396, "popularity": 25.259}, {"adult": false, "backdrop_path": "/7GR03LqwB7ePPPhaK5BAYNzt3Vm.jpg", "genre_ids": [27, 35, 14, 10402], "id": 461928, "original_language": "en", "original_title": "Anna and the Apocalypse", "overview": "A zombie apocalypse threatens the sleepy town of Little Haven \u2013 at Christmas \u2013 forcing Anna and her friends to fight, slash and sing their way to survival, facing the undead in a desperate race to reach their loved ones. But they soon discover that no one is safe in this new world, and with civilization falling apart around them, the only people they can truly rely on are each other.", "poster_path": "/36HmDXMzeLpTPEhjEbpzI3Kv4Vk.jpg", "release_date": "2018-11-30", "title": "Anna and the Apocalypse", "video": false, "vote_average": 6.2, "vote_count": 104, "popularity": 8.874}, {"adult": false, "backdrop_path": "/uZVs1cX00LBKcLMWrmCsZznCuGu.jpg", "genre_ids": [18, 27, 878], "id": 338676, "original_language": "en", "original_title": "Extinction", "overview": "And suddenly, overnight, the world came to a halt. Two men, two survivors, one kid, and hatred that separates them. A place forgotten by everyone, including the creatures that inhabit the Earth... until now.", "poster_path": "/xEoleA3nm71cE7wiu4IXfk7yH8K.jpg", "release_date": "2015-08-07", "title": "Extinction", "video": false, "vote_average": 5.7, "vote_count": 342, "popularity": 9.328}, {"id": 11683, "video": false, "vote_count": 762, "vote_average": 6.1, "title": "Land of the Dead", "release_date": "2005-06-24", "original_language": "en", "original_title": "Land of the Dead", "genre_ids": [27, 878], "backdrop_path": "/auPv1B8wVHnDn9ypAxeit44CFMN.jpg", "adult": false, "overview": "The world is full of zombies and the survivors have barricaded themselves inside a walled city to keep out the living dead. As the wealthy hide out in skyscrapers and chaos rules the streets, the rest of the survivors must find a way to stop the evolving zombies from breaking into the city.", "poster_path": "/1VYvkSiyJg9Za2R5KSHjUygLKEq.jpg", "popularity": 11.432}, {"adult": false, "backdrop_path": "/iLvqbCanH1liQ5VERCyCR31GkkL.jpg", "genre_ids": [35, 27, 878], "id": 15762, "original_language": "en", "original_title": "Night of the Creeps", "overview": "In 1959, an alien experiment crashes to earth and infects a fraternity member. They freeze the body, but in the modern day, two geeks pledging a fraternity accidentally thaw the corpse, which proceeds to infect the campus with parasites that transform their hosts into killer zombies.", "poster_path": "/A3s2tQGNb6mhlr1hPZeE5F8IUwp.jpg", "release_date": "1986-08-21", "title": "Night of the Creeps", "video": false, "vote_average": 6.6, "vote_count": 219, "popularity": 10.383}, {"id": 923, "video": false, "vote_count": 1067, "vote_average": 7.5, "title": "Dawn of the Dead", "release_date": "1978-09-02", "original_language": "en", "original_title": "Dawn of the Dead", "genre_ids": [27], "backdrop_path": "/vCD9mRgSY4HuoSowm8JO4tm2mhj.jpg", "adult": false, "overview": "During an ever-growing epidemic of zombies that have risen from the dead, two Philadelphia SWAT team members, a traffic reporter, and his television-executive girlfriend seek refuge in a secluded shopping mall.", "poster_path": "/yK8BmYEvd0IPpDXL6zzlTA2geDf.jpg", "popularity": 11.925}, {"id": 133121, "video": false, "vote_count": 360, "vote_average": 6.5, "title": "Resident Evil: Damnation", "release_date": "2012-09-25", "original_language": "en", "original_title": "Biohazard: Damnation", "genre_ids": [16, 27], "backdrop_path": "/6pRNDb0yStxlwhavn2ZqYRVFOJ5.jpg", "adult": false, "overview": "U.S. federal agent Leon S. Kennedy sneaks into the \"East Slavic Republic\" to verify rumors that Bio-Organic Weapons (BOWs) are being used in the country's civil war, which the U.S. and Russia are making preparations to jointly intervene in. Right after his infiltration, the U.S. government orders him to leave immediately. Determined to uncover the truth, Leon ignores the order and enters the battlefield to end the chain of tragedies caused by the BOWs.", "poster_path": "/hj2xHc35cEscP7oj6DqCK6IbNIC.jpg", "popularity": 16.091}], "total_pages": 10, "total_results": 189}, "recommendations": {"page": 1, "results": [{"adult": false, "backdrop_path": "/18lduokwMhcgPmRONRf4bIbapcb.jpg", "genre_ids": [], "id": 159348, "original_language": "en", "original_title": "Official Denial", "overview": "A man who claims to have been abducted by aliens is also abducted by a top secret government agency, the Majestic Group, who want him to attempt to communicate with the only surviving alien from a UFO shot down by the Air Force. Telepathically, the alien tells him it must be returned to its ship, where it will reveal a secret vital to the future of the planet. Written by Alexander Lum  , IMDb.", "poster_path": "/oQiMdTNuYprvbtw1pTrrZUf3muK.jpg", "release_date": "1994-01-01", "title": "Official Denial", "video": false, "vote_average": 5.4, "vote_count": 4, "popularity": 0.82}], "total_pages": 1, "total_results": 1}, "credits": {"cast": [{"cast_id": 7, "character": "Jonathan", "credit_id": "52fe46abc3a36847f810bb4d", "gender": 2, "id": 12710, "name": "Scott Schwartz", "order": 0, "profile_path": "/h4GsN59T9UgdWRO8srnL1HOXnzE.jpg"}, {"cast_id": 8, "character": "Morgan Randall", "credit_id": "52fe46abc3a36847f810bb51", "gender": 2, "id": 88842, "name": "Robert Deveau", "order": 1, "profile_path": null}, {"cast_id": 9, "character": "Shelly Goodwin", "credit_id": "52fe46abc3a36847f810bb55", "gender": 0, "id": 131962, "name": "Donna Asali", "order": 2, "profile_path": null}, {"cast_id": 10, "character": "Dr. Carstairs", "credit_id": "52fe46abc3a36847f810bb59", "gender": 2, "id": 96741, "name": "Robert 'Tex' Allen", "order": 3, "profile_path": "/WExjlEW3Qbgtnrml9CcfrBwruA.jpg"}, {"cast_id": 18, "character": "Man in Black", "credit_id": "581ce01fc3a3681d400003c4", "gender": 0, "id": 1682346, "name": "Bob Sacchetti", "order": 4, "profile_path": null}, {"cast_id": 13, "character": "Librarian", "credit_id": "52fe46abc3a36847f810bb61", "gender": 1, "id": 78828, "name": "Zita Johann", "order": 5, "profile_path": "/kVZhqYE32ZQ8t56MhTdwCJypFCz.jpg"}, {"cast_id": 14, "character": "Michelle", "credit_id": "52fe46abc3a36847f810bb65", "gender": 0, "id": 131963, "name": "Corri Burt", "order": 6, "profile_path": null}, {"cast_id": 15, "character": "Dr. Kapek", "credit_id": "52fe46abc3a36847f810bb69", "gender": 0, "id": 592893, "name": "Leonard Corman", "order": 7, "profile_path": null}, {"cast_id": 19, "character": "Detective Kruger", "credit_id": "581ce03f925141370f000394", "gender": 0, "id": 1682347, "name": "Nino Rigali", "order": 8, "profile_path": null}, {"cast_id": 17, "character": "Mrs. Levitt", "credit_id": "52fe46abc3a36847f810bb71", "gender": 0, "id": 5615, "name": "Barbara June Patterson", "order": 9, "profile_path": null}], "crew": [{"credit_id": "52fe46abc3a36847f810bb43", "department": "Directing", "gender": 0, "id": 30680, "job": "Director", "name": "Samuel M. Sherman", "profile_path": null}, {"credit_id": "52fe46abc3a36847f810bb49", "department": "Writing", "gender": 2, "id": 98094, "job": "Writer", "name": "Brett Piper", "profile_path": null}]}}