{"adult": false, "backdrop_path": "/8lGcWMwgr57Mkwl2UDP53iOdGi0.jpg", "belongs_to_collection": null, "budget": 8540000, "genres": [{"id": 12, "name": "Adventure"}, {"id": 28, "name": "Action"}, {"id": 35, "name": "Comedy"}], "homepage": "http://www.cj-entertainment.com/movie/kings-case-note/", "id": 451914, "imdb_id": "tt6817202", "original_language": "ko", "original_title": "\uc784\uae08\ub2d8\uc758 \uc0ac\uac74\uc218\ucca9", "overview": "A clever king of Joseon and his brilliant chronicler hunt for the truth behind a crime that threatens the throne and the stability of the country.", "popularity": 1.333, "poster_path": "/xglzBYBRq6XyPM6W0hdFUujros2.jpg", "production_companies": [{"id": 88852, "logo_path": null, "name": "Film Company RAM", "origin_country": "KR"}, {"id": 121898, "logo_path": null, "name": "The Tower Pictures", "origin_country": "KR"}, {"id": 7036, "logo_path": "/javbyY0ZCvlFJtly3tpZqf2NwLX.png", "name": "CJ Entertainment", "origin_country": "KR"}], "production_countries": [{"iso_3166_1": "KR", "name": "South Korea"}], "release_date": "2017-04-26", "revenue": 0, "runtime": 115, "spoken_languages": [{"iso_639_1": "ko", "name": "\ud55c\uad6d\uc5b4/\uc870\uc120\ub9d0"}], "status": "Released", "tagline": "King by day, detective by night", "title": "The King's Case Note", "video": false, "vote_average": 7.3, "vote_count": 3, "keywords": {"keywords": [{"id": 703, "name": "detective"}, {"id": 10410, "name": "conspiracy"}, {"id": 208244, "name": "16th century"}, {"id": 232421, "name": "joseon dynasty"}, {"id": 232750, "name": "ancient korea"}]}, "similar": {"page": 1, "results": [{"id": 75780, "video": false, "vote_count": 4451, "vote_average": 6.4, "title": "Jack Reacher", "release_date": "2012-12-20", "original_language": "en", "original_title": "Jack Reacher", "genre_ids": [28, 80, 18, 53], "backdrop_path": "/ezXodpP429qK0Av89pVNlaXWJkQ.jpg", "adult": false, "overview": "When a gunman takes five lives with six shots, all evidence points to the suspect in custody. On interrogation, the suspect offers up a single note: \"Get Jack Reacher!\" So begins an extraordinary chase for the truth, pitting Jack Reacher against an unexpected enemy, with a skill for violence and a secret to keep.", "poster_path": "/mt0ELw83HIRgaKaDzhsDcIi0RnW.jpg", "popularity": 15.945}, {"id": 290250, "video": false, "vote_count": 4781, "vote_average": 7.1, "title": "The Nice Guys", "release_date": "2016-05-15", "original_language": "en", "original_title": "The Nice Guys", "genre_ids": [28, 35, 80], "backdrop_path": "/a7eSkK4bkLwKCXYDdYIqLxrqT2n.jpg", "adult": false, "overview": "A private eye investigates the apparent suicide of a fading porn star in 1970s Los Angeles and uncovers a conspiracy.", "poster_path": "/vNCeqxbKyDHL9LUza03V2Im16wB.jpg", "popularity": 30.745}, {"adult": false, "backdrop_path": "/uUYCUbgI5VxsUflTMI4Y9L2Y6vb.jpg", "genre_ids": [80, 18, 53], "id": 11423, "original_language": "ko", "original_title": "\uc0b4\uc778\uc758 \ucd94\uc5b5", "overview": "1986 Gyunggi Province. The body of a young woman is found brutally raped and murdered. Two months later, a series of rapes and murders commences under similar circumstances. And in a country that had never known such crimes, the dark whispers about a serial murderer grow louder. A special task force is set up in the area, with two local detectives Park Doo-Man and Jo Young-Goo joined by a detective from Seoul who requested to be assigned to the case.", "poster_path": "/gawnVe9cFowdoDLo9Pok12NTw39.jpg", "release_date": "2003-05-02", "title": "Memories of Murder", "video": false, "vote_average": 8.1, "vote_count": 1093, "popularity": 13.452}, {"adult": false, "backdrop_path": "/2J283YNxKhxAqHeVegUJ5mzLfGb.jpg", "genre_ids": [80, 18, 9648], "id": 392044, "original_language": "en", "original_title": "Murder on the Orient Express", "overview": "Genius Belgian detective Hercule Poirot investigates the murder of an American tycoon aboard the Orient Express train.", "poster_path": "/iBlfxlw8qwtUS0R8YjIU7JtM6LM.jpg", "release_date": "2017-11-03", "title": "Murder on the Orient Express", "video": false, "vote_average": 6.7, "vote_count": 6050, "popularity": 27.701}, {"adult": false, "backdrop_path": "/bRGtZsVj2Qq8r5CCsNYmQUPF4z4.jpg", "genre_ids": [80, 18, 878, 53], "id": 10559, "original_language": "en", "original_title": "Frequency", "overview": "When a rare phenomenon gives police officer John Sullivan the chance to speak to his father, 30 years in the past, he takes the opportunity to prevent his dad's tragic death.  After his actions inadvertently give rise to a series of brutal murders he and his father must find a way to fix the consequences of altering time.", "poster_path": "/n0QAAZmIaPPIShVkk8eiKwfGV9.jpg", "release_date": "2000-04-28", "title": "Frequency", "video": false, "vote_average": 7.1, "vote_count": 897, "popularity": 14.026}, {"adult": false, "backdrop_path": "/iiH9gxbUiJhfee0UDZOvpA69DAo.jpg", "genre_ids": [80, 18, 9648, 53], "id": 2275, "original_language": "en", "original_title": "The General's Daughter", "overview": "When the body of Army Capt. Elizabeth Campbell is found on a Georgia military base, two investigators, Warrant Officers Paul Brenner and Sara Sunhill, are ordered to solve her murder. What they uncover is anything but clear-cut. Unseemly details emerge about Campbell's life, leading to allegations of a possible military coverup of her death and the involvement of her father, Lt. Gen. Joseph Campbell.", "poster_path": "/4fc4mB9tGgYV4mdJrWPLMfcRvnC.jpg", "release_date": "1999-06-18", "title": "The General's Daughter", "video": false, "vote_average": 6.3, "vote_count": 433, "popularity": 10.474}, {"adult": false, "backdrop_path": "/t3OZS8yMs0NL4YgWWc04eXHTn1X.jpg", "genre_ids": [28, 80, 53], "id": 984, "original_language": "en", "original_title": "Dirty Harry", "overview": "When a madman dubbed 'Scorpio' terrorizes San Francisco, hard-nosed cop, Harry Callahan \u2013 famous for his take-no-prisoners approach to law enforcement \u2013 is tasked with hunting down the psychopath. Harry eventually collars Scorpio in the process of rescuing a kidnap victim, only to see him walk on technicalities. Now, the maverick detective is determined to nail the maniac himself.", "poster_path": "/2TADKc4GMMPdMrLXj0xJVgTvZJM.jpg", "release_date": "1971-12-21", "title": "Dirty Harry", "video": false, "vote_average": 7.5, "vote_count": 1173, "popularity": 18.839}, {"adult": false, "backdrop_path": "/7RRuRcGuWkZGuRyYugfXn0Fgrrr.jpg", "genre_ids": [28, 80, 18, 53], "id": 949, "original_language": "en", "original_title": "Heat", "overview": "Obsessive master thief, Neil McCauley leads a top-notch crew on various daring heists throughout Los Angeles while determined detective, Vincent Hanna pursues him without rest. Each man recognizes and respects the ability and the dedication of the other even though they are aware their cat-and-mouse game may end in violence.", "poster_path": "/6pmLVffM9jEYK7VqDJqPblMxfEY.jpg", "release_date": "1995-12-15", "title": "Heat", "video": false, "vote_average": 7.8, "vote_count": 3615, "popularity": 21.973}, {"id": 4638, "video": false, "vote_count": 4429, "vote_average": 7.5, "title": "Hot Fuzz", "release_date": "2007-02-14", "original_language": "en", "original_title": "Hot Fuzz", "genre_ids": [28, 35, 80], "backdrop_path": "/zuskekrfW3gj9ttXNVhfdHe5n22.jpg", "adult": false, "overview": "As a former London constable, Nicholas Angel finds it difficult to adapt to his new assignment in the sleepy British village of Sandford. Not only does he miss the excitement of the big city, but he also has a well-meaning oaf for a partner. However, when a series of grisly accidents rocks Sandford, Angel smells something rotten in the idyllic village.", "poster_path": "/5Jx6s6VXnunh8wCLgR0YgjwSgjh.jpg", "popularity": 22.387}, {"id": 193893, "video": false, "vote_count": 1816, "vote_average": 6.3, "title": "Let's Be Cops", "release_date": "2014-08-13", "original_language": "en", "original_title": "Let's Be Cops", "genre_ids": [35], "backdrop_path": "/43GrPpAeBUOvOCZ8L1A3MLuDnkc.jpg", "adult": false, "overview": "It's the ultimate buddy cop movie except for one thing: they're not cops.  When two struggling pals dress as police officers for a costume party, they become neighborhood sensations.  But when these newly-minted \u201cheroes\u201d get tangled in a real life web of mobsters and dirty detectives, they must put their fake badges on the line.", "poster_path": "/ayYibwWAA9NxJPaD9GSybPShtvL.jpg", "popularity": 21.654}, {"adult": false, "backdrop_path": "/sRJjliXA7ZqHCr7HCK0ZB83xxjr.jpg", "genre_ids": [12, 28, 878], "id": 101299, "original_language": "en", "original_title": "The Hunger Games: Catching Fire", "overview": "Katniss Everdeen has returned home safe after winning the 74th Annual Hunger Games along with fellow tribute Peeta Mellark. Winning means that they must turn around and leave their family and close friends, embarking on a \"Victor's Tour\" of the districts. Along the way Katniss senses that a rebellion is simmering, but the Capitol is still very much in control as President Snow prepares the 75th Annual Hunger Games (The Quarter Quell) - a competition that could change Panem forever.", "poster_path": "/Hn0KgefVEp0GkdTexS6gfKTMfi.jpg", "release_date": "2013-11-15", "title": "The Hunger Games: Catching Fire", "video": false, "vote_average": 7.4, "vote_count": 12031, "popularity": 22.164}, {"id": 274855, "video": false, "vote_count": 2498, "vote_average": 5.8, "title": "Geostorm", "release_date": "2017-10-13", "original_language": "en", "original_title": "Geostorm", "genre_ids": [28, 878, 53], "backdrop_path": "/79X8JkGxzc1tJMi0KxUSaPLooVg.jpg", "adult": false, "overview": "After an unprecedented series of natural disasters threatened the planet, the world's leaders came together to create an intricate network of satellites to control the global climate and keep everyone safe. But now, something has gone wrong: the system built to protect Earth is attacking it, and it becomes a race against the clock to uncover the real threat before a worldwide geostorm wipes out everything and everyone along with it.", "poster_path": "/nrsx0jEaBgXq4PWo7SooSnYJTv.jpg", "popularity": 22.466}, {"adult": false, "backdrop_path": "/k8nSKp54r0j1uy9QwM9RaD3goah.jpg", "genre_ids": [28, 12, 80, 9648], "id": 10528, "original_language": "en", "original_title": "Sherlock Holmes", "overview": "Eccentric consulting detective, Sherlock Holmes and Doctor John Watson battle to bring down a new nemesis and unravel a deadly plot that could destroy England.", "poster_path": "/22ngurXbLqab7Sko6aTSdwOCe5W.jpg", "release_date": "2009-12-23", "title": "Sherlock Holmes", "video": false, "vote_average": 7.2, "vote_count": 9786, "popularity": 19.893}, {"id": 137094, "video": false, "vote_count": 1851, "vote_average": 6.1, "title": "Jack Ryan: Shadow Recruit", "release_date": "2014-01-15", "original_language": "en", "original_title": "Jack Ryan: Shadow Recruit", "genre_ids": [28, 18, 53], "backdrop_path": "/7WURHOyx05AWAoNcBGp72clvB49.jpg", "adult": false, "overview": "Jack Ryan, as a young covert CIA analyst, uncovers a Russian plot to crash the U.S. economy with a terrorist attack.", "poster_path": "/jBibISmRBUO35p0Picv0nOo33sc.jpg", "popularity": 19.704}, {"adult": false, "backdrop_path": "/lx9eC0e98ZrdU0y55LrydS8CMMp.jpg", "genre_ids": [28, 12, 80, 18, 9648, 53], "id": 9631, "original_language": "en", "original_title": "The Negotiator", "overview": "The police try to arrest expert hostage negotiator Danny Roman, who insists he's being framed for his partner's murder in what he believes is an elaborate conspiracy. Thinking there's evidence in the Internal Affairs offices that might clear him, he takes everyone in the office hostage and demands that another well-known negotiator be brought in to handle the situation and secretly investigate the conspiracy.", "poster_path": "/u4LQDr6QB5i7dz3sMuP8u3EOd3D.jpg", "release_date": "1998-07-29", "title": "The Negotiator", "video": false, "vote_average": 7.0, "vote_count": 1082, "popularity": 18.49}, {"adult": false, "backdrop_path": "/khzRw7ZDE3NIrYpe0RYyB864FPT.jpg", "genre_ids": [80, 28, 53], "id": 189, "original_language": "en", "original_title": "Sin City: A Dame to Kill For", "overview": "Some of Sin City's most hard-boiled citizens cross paths with a few of its more reviled inhabitants.", "poster_path": "/k80qKrJ0qQ6ocVo5N932stNSg6j.jpg", "release_date": "2014-08-20", "title": "Sin City: A Dame to Kill For", "video": false, "vote_average": 6.3, "vote_count": 2422, "popularity": 25.256}, {"id": 4771, "video": false, "vote_count": 2134, "vote_average": 7.3, "title": "Gone Baby Gone", "release_date": "2007-09-18", "original_language": "en", "original_title": "Gone Baby Gone", "genre_ids": [80, 18, 9648], "backdrop_path": "/sogh5NXPbKFajjYKBlfIBfCWgbq.jpg", "adult": false, "overview": "When 4 year old Amanda McCready disappears from her home and the police make little headway in solving the case, the girl's aunt, Beatrice McCready hires two private detectives, Patrick Kenzie and Angie Gennaro. The detectives freely admit that they have little experience with this type of case, but the family wants them for two reasons - they're not cops and they know the tough neighborhood in which they all live. As the case progresses, Kenzie and Gennaro face drug dealers, gangs and pedophiles. When they are about to solve the case, they are faced with a moral dilemma that tears them apart.", "poster_path": "/dXXMPxGiRegd7NNCtE5uchAKRAG.jpg", "popularity": 16.498}, {"adult": false, "backdrop_path": "/arcpWGGnUkGkakOwZo7xfPsaz7h.jpg", "genre_ids": [9648, 53], "id": 2832, "original_language": "en", "original_title": "Identity", "overview": "Complete strangers stranded at a remote desert motel during a raging storm soon find themselves the target of a deranged murderer. As their numbers thin out, the travelers begin to turn on each other, as each tries to figure out who the killer is.", "poster_path": "/xSNSp2wmCUwFavxdkMF417hBc39.jpg", "release_date": "2003-04-25", "title": "Identity", "video": false, "vote_average": 7.2, "vote_count": 2091, "popularity": 19.629}, {"adult": false, "backdrop_path": "/hm4vpIhBW75bTIDTurq2d4rLZy1.jpg", "genre_ids": [53, 18, 27], "id": 3511, "original_language": "en", "original_title": "The Broken", "overview": "The life of a successful radiologist spirals out of control when she sees the spitting image of herself driving down a London street. While attempting to uncover who the imposter could be, she stumbles into a terrifying mystery that her family and closest friends are somehow involved in, leaving her with no one to trust.", "poster_path": "/nGTUsccLUZhF9Bb5fjvL7KrogvC.jpg", "release_date": "2008-01-18", "title": "The Broken", "video": false, "vote_average": 5.5, "vote_count": 113, "popularity": 10.122}, {"adult": false, "backdrop_path": "/cLGKawjQ5tUJCuDyR0OnGYT4fyf.jpg", "genre_ids": [18, 53, 80], "id": 146233, "original_language": "en", "original_title": "Prisoners", "overview": "When Keller Dover's daughter and her friend go missing, he takes matters into his own hands as the police pursue multiple leads and the pressure mounts. But just how far will this desperate father go to protect his family?", "poster_path": "/yAhqW57pwMAsCgmZpM5zSIVQVTh.jpg", "release_date": "2013-09-18", "title": "Prisoners", "video": false, "vote_average": 8.0, "vote_count": 6410, "popularity": 24.427}], "total_pages": 21, "total_results": 407}, "recommendations": {"page": 1, "results": [], "total_pages": 1, "total_results": 0}, "credits": {"cast": [{"cast_id": 0, "character": "King Yejong of Joseon", "credit_id": "58ef073d9251414221003df4", "gender": 2, "id": 115290, "name": "Lee Sun-kyun", "order": 0, "profile_path": "/nnwVLKIQPYoF88ohshnFfbSB0UW.jpg"}, {"cast_id": 1, "character": "Yoon Yi-seo", "credit_id": "58ef0756c3a368265e0040dd", "gender": 2, "id": 1164507, "name": "Ahn Jae-hong", "order": 1, "profile_path": "/wDRyWfW5tgUgnQleIwEhQT3Gs15.jpg"}, {"cast_id": 8, "character": "Nam Geon-hee", "credit_id": "58f10700c3a3681a5f0018eb", "gender": 2, "id": 550683, "name": "Kim Hee-won", "order": 2, "profile_path": "/sDCxskfmmNidOjV2LwsWh9dAVbN.jpg"}, {"cast_id": 9, "character": "Seon-hwa", "credit_id": "58f10722925141553c0019ab", "gender": 1, "id": 1206963, "name": "Kyung Soo-jin", "order": 3, "profile_path": "/lPENELxFyrid0G8je9ylbE767IG.jpg"}, {"cast_id": 11, "character": "Heuk-woon", "credit_id": "59d1fe3d92514113eb03cc8a", "gender": 2, "id": 1470763, "name": "Jung Hae-in", "order": 4, "profile_path": "/aS1rGbzlhFis7dpKDh4syS5JJ1j.jpg"}, {"cast_id": 3, "character": "Jik Je-hak", "credit_id": "58ef078a9251414241003e29", "gender": 2, "id": 945428, "name": "Ju Jin-mo", "order": 5, "profile_path": "/erO2QUXukjo6AnpdRZHyeWLFeWe.jpg"}, {"cast_id": 4, "character": "Soo-bin", "credit_id": "58ef07a6c3a3682626003c96", "gender": 1, "id": 93996, "name": "Jang Young-nam", "order": 6, "profile_path": "/r4iJak5mZUWyzo3Ts1iPfGuGW15.jpg"}, {"cast_id": 12, "character": "Prime Minister", "credit_id": "59d1fe53c3a368558e0368e4", "gender": 2, "id": 1287909, "name": "Kim Hong-pa", "order": 8, "profile_path": "/bVAZ48ZF53lRSZRjPtZ00gOE73y.jpg"}, {"cast_id": 13, "character": "First Vice-Premier", "credit_id": "59d1fe5b92514113eb03ccc7", "gender": 2, "id": 147852, "name": "Kim Eung-soo", "order": 9, "profile_path": "/wf5qNlX2jWDv2phUKxI3oOVdTnr.jpg"}, {"cast_id": 14, "character": "Second Vice-Premier", "credit_id": "59d1fe6a925141144803d3da", "gender": 2, "id": 96467, "name": "Jo Young-jin", "order": 10, "profile_path": "/yqiqEOjtRQCkS5KLTAS5lZw6rJX.jpg"}, {"cast_id": 16, "character": "Young Yejong", "credit_id": "5b2206edc3a36813cf0161da", "gender": 2, "id": 2064247, "name": "Chani", "order": 11, "profile_path": "/2vBAQc9BKRAePO0NQcSp90KHMpk.jpg"}, {"cast_id": 17, "character": "Gunman #1", "credit_id": "5b2207349251416e2e01654a", "gender": 0, "id": 2064248, "name": "Kim Gil-dong", "order": 12, "profile_path": null}, {"cast_id": 27, "character": "Prince Jaseong", "credit_id": "5cdcdd270e0a264cd1cb0ac7", "gender": 2, "id": 2313899, "name": "Um Zi-sung", "order": 13, "profile_path": "/4uUnW3bT4D64KU2CUoZHZwcGbA2.jpg"}], "crew": [{"credit_id": "5b22087ac3a36813b301178f", "department": "Editing", "gender": 1, "id": 97023, "job": "Editor", "name": "Shin Min-kyung", "profile_path": null}, {"credit_id": "5d1431d69251416e14b96d6f", "department": "Writing", "gender": 0, "id": 127794, "job": "Adaptation", "name": "Jeong Ee-mok", "profile_path": null}, {"credit_id": "5d7388c3209f186914fc2aa5", "department": "Production", "gender": 2, "id": 1188109, "job": "Co-Executive Producer", "name": "Lee Soo-nam", "profile_path": null}, {"credit_id": "5cd3dbe7c3a36869d5fb64de", "department": "Sound", "gender": 2, "id": 1293714, "job": "Sound Supervisor", "name": "Lee Seung-yeop", "profile_path": null}, {"credit_id": "5c18653492514132c00cc608", "department": "Costume & Make-Up", "gender": 0, "id": 1294082, "job": "Costume Design", "name": "Shim Hyun-seob", "profile_path": null}, {"credit_id": "58f107d7925141556700193f", "department": "Directing", "gender": 2, "id": 1294594, "job": "Director", "name": "Moon Hyun-sung", "profile_path": null}, {"credit_id": "5b2207f5c3a36813b9019c54", "department": "Sound", "gender": 2, "id": 1299507, "job": "Music", "name": "Kim Tae-seong", "profile_path": "/xhgqPP53RXquNeqcZA3CcfhZsn9.jpg"}, {"credit_id": "58ef08d792514141f700462a", "department": "Writing", "gender": 0, "id": 1420763, "job": "Writer", "name": "Kang Hyeon-seong", "profile_path": null}, {"credit_id": "5b2207d60e0a264d95015f4b", "department": "Production", "gender": 0, "id": 2064251, "job": "Producer", "name": "Aram Choi", "profile_path": null}, {"credit_id": "5c1793c60e0a2641003c4573", "department": "Camera", "gender": 2, "id": 2070760, "job": "Director of Photography", "name": "Kim Dong-young", "profile_path": null}, {"credit_id": "5c18654092514132c00cc60c", "department": "Visual Effects", "gender": 0, "id": 2197563, "job": "VFX Supervisor", "name": "Hong Jang-pyo", "profile_path": null}, {"credit_id": "5c18652392514132bd0cc9bc", "department": "Production", "gender": 0, "id": 2197568, "job": "Co-Producer", "name": "Yi Jin-hee", "profile_path": null}, {"credit_id": "5cd78a16c3a368245bc0224b", "department": "Sound", "gender": 0, "id": 2310671, "job": "Sound Supervisor", "name": "Kim Young-rok", "profile_path": null}, {"credit_id": "5d2ec39727d9cc00137ce040", "department": "Sound", "gender": 1, "id": 2363604, "job": "Original Music Composer", "name": "Kim Yeon-jeong", "profile_path": null}, {"credit_id": "5d4ba9d300213400142733ed", "department": "Production", "gender": 0, "id": 2381345, "job": "Producer", "name": "Yoon Hong-jun", "profile_path": null}, {"credit_id": "5d5661c0bc86576e722df90f", "department": "Art", "gender": 2, "id": 2388372, "job": "Production Design", "name": "Lee Tae-hoon", "profile_path": null}, {"credit_id": "5d91589b79b3d4001f8ffb78", "department": "Costume & Make-Up", "gender": 0, "id": 2421765, "job": "Makeup & Hair", "name": "Jun Young-min", "profile_path": null}]}}