{"adult": false, "backdrop_path": "/pkdqhQxAPSqQs5N3i8nQvJujiCz.jpg", "belongs_to_collection": null, "budget": 0, "genres": [{"id": 35, "name": "Comedy"}, {"id": 10749, "name": "Romance"}], "homepage": "http://starcinema.abs-cbn.com/movies/can-t-help-falling-in-love", "id": 452196, "imdb_id": "tt6725484", "original_language": "tl", "original_title": "Can't Help Falling in Love", "overview": "Gab de la Cuesta is a high-strung career woman who got recently engaged to her longtime boyfriend. Her well-planned life suddenly becomes complicated when she discovers that she is actually married to a total stranger.", "popularity": 1.6, "poster_path": "/6xX4L8ac1nCDF8Vwgwf4pYI78Sa.jpg", "production_companies": [{"id": 4676, "logo_path": "/fu7gOKwS2l2fiFlEQFamITFEWDk.png", "name": "Star Cinema \u2013 ABS-CBN Film Productions", "origin_country": "PH"}], "production_countries": [{"iso_3166_1": "PH", "name": "Philippines"}], "release_date": "2017-04-15", "revenue": 0, "runtime": 119, "spoken_languages": [{"iso_639_1": "tl", "name": ""}], "status": "Released", "tagline": "", "title": "Can't Help Falling in Love", "video": false, "vote_average": 8.0, "vote_count": 16, "keywords": {"keywords": [{"id": 6895, "name": "philippines"}]}, "similar": {"page": 1, "results": [{"id": 576235, "video": false, "vote_count": 0, "vote_average": 0.0, "title": "Elise", "release_date": "2019-02-06", "original_language": "tl", "original_title": "Elise", "genre_ids": [35, 10749], "backdrop_path": "/5yNJKAAV4Ab4DnjRXCVEqalROrC.jpg", "adult": false, "overview": "As their paths cross again several years later, Bert has a hard time acknowledging that he is still in love with Elise.", "poster_path": "/msKjsFkcc7qLJhekzWzpsgQjG8g.jpg", "popularity": 9.948}, {"id": 553100, "video": false, "vote_count": 13, "vote_average": 6.2, "title": "Wild and Free", "release_date": "2018-10-10", "original_language": "tl", "original_title": "Wild and Free", "genre_ids": [18], "backdrop_path": "/9v4nPAyVvtGONV5NtPkDHA9bczS.jpg", "adult": false, "overview": "Ellie and Jake fall in love, but struggle with their relationship when they discover an unexpected connection between their pasts.", "poster_path": "/AhDZQkocc4DQpkSY5dTOmqesqXn.jpg", "popularity": 28.337}, {"adult": false, "backdrop_path": null, "genre_ids": [27, 14], "id": 620413, "original_language": "tl", "original_title": "Sa Gabing Tanging Liwanag Ay Paniniwala", "overview": "The continuous disappearance of townsmen ignited the town captain to search the woods in order to find out who is behind the disappearances and where are the people being brought to. Upon his search, the town captain and his son came across a mysterious answer.", "poster_path": "/jngkUyvbdD5bxNKqoKuj1bVyFha.jpg", "release_date": "2019-08-03", "title": "Sa Gabing Tanging Liwanag Ay Paniniwala", "video": false, "vote_average": 0.0, "vote_count": 0, "popularity": 0.945}, {"id": 49040, "video": false, "vote_count": 3881, "vote_average": 6.1, "title": "The Bourne Legacy", "release_date": "2012-08-08", "original_language": "en", "original_title": "The Bourne Legacy", "genre_ids": [28, 53], "backdrop_path": "/gCdJYpX1TXGEZrEJl0mMTTpinMh.jpg", "adult": false, "overview": "New CIA operative Aaron Cross experiences life-or-death stakes that have been triggered by the previous actions of Jason Bourne.", "poster_path": "/qIJonjlSzU6LCJklS6CH3p5vLcQ.jpg", "popularity": 20.243}, {"adult": false, "backdrop_path": null, "genre_ids": [35, 80], "id": 565156, "original_language": "tl", "original_title": "Ang Pangarap Kong Holdap", "overview": "A group of friends set out a plan for a perfect crime.", "poster_path": "/iLubK0GqnQPq74OztLN3C0Pp9R0.jpg", "release_date": "2018-11-28", "title": "Ang Pangarap Kong Holdap", "video": false, "vote_average": 2.0, "vote_count": 1, "popularity": 6.741}, {"adult": false, "backdrop_path": "/gT8pjzyprU8zwwJan8Y9enSUmyo.jpg", "genre_ids": [35, 10749], "id": 548789, "original_language": "tl", "original_title": "The Hopeful Romantic", "overview": "Jess, a bellboy working at The Manila Hotel, is gifted an all-expenses paid stay at the hotel's most expensive suite. And during his stay, he encounters Veronica, a professional golddigger. Jess keeps up the illusion of being a rich guest of the hotel, hoping to get Veronica to fall in love with him before he has to tell her the truth.", "poster_path": "/23WBe0eWfARtbsZIUmVbgA0CGg7.jpg", "release_date": "2018-09-12", "title": "The Hopeful Romantic", "video": false, "vote_average": 3.0, "vote_count": 4, "popularity": 10.058}, {"adult": false, "backdrop_path": "/34xYArXhdaFiYp0zppC7Dk7m5zW.jpg", "genre_ids": [53, 80, 18, 9648], "id": 183026, "original_language": "en", "original_title": "Rigodon", "overview": "A heartbroken young woman begins a sexual relationship with a struggling artista, not knowing that her new beau is already married. As the truth comes out, obsession and jealousy bring pain into all their lives.", "poster_path": "/kwPyz2Oa7IcjRsm6bJlOQSgsh63.jpg", "release_date": "2012-11-21", "title": "Rigodon", "video": false, "vote_average": 6.7, "vote_count": 8, "popularity": 11.962}, {"adult": false, "backdrop_path": "/5oFqUQDyUxHarGKBITc3l8upu6F.jpg", "genre_ids": [18, 10749], "id": 369927, "original_language": "en", "original_title": "A Second Chance", "overview": "In the continuation of Popoy and Basha\u2019s love story from \u201cOne More Chance,\u201d we find the couple walking down the aisle and vowing to love each other \u201cforever and ever.\u201d \u201cA Second Chance\u201d explores realities and intricacies and Popoy and Basha\u2019s married life. We find Popoy as a failed achiever, struggling to keep his business and self-esteem intact, while Basha has given up so much in her life to keep their marriage together.", "poster_path": "/2q20s3mfjjkTCEwKIbxm8m4pGeM.jpg", "release_date": "2015-11-25", "title": "A Second Chance", "video": false, "vote_average": 7.2, "vote_count": 8, "popularity": 3.423}, {"adult": false, "backdrop_path": "/jYZ415g5qBx0ea4ZgriNeWH0Tl7.jpg", "genre_ids": [28, 35, 10749], "id": 9660, "original_language": "en", "original_title": "Operation Petticoat", "overview": "A World War II submarine commander finds himself stuck with a decrepit sub, a con-man executive officer, and a group of army nurses.", "poster_path": "/emhiXStVB3HoE2MtYVRzTNOgOMn.jpg", "release_date": "1959-12-05", "title": "Operation Petticoat", "video": false, "vote_average": 7.1, "vote_count": 142, "popularity": 8.116}, {"id": 4539, "video": false, "vote_count": 149, "vote_average": 8.0, "title": "Hearts of Darkness: A Filmmaker's Apocalypse", "release_date": "1991-09-06", "original_language": "en", "original_title": "Hearts of Darkness: A Filmmaker's Apocalypse", "genre_ids": [99], "backdrop_path": "/mQ6GJtc5xZpNQpVhAfoeZZbrzJO.jpg", "adult": false, "overview": "A chronicle of the production problems \u2014 including bad weather, actors' health, war near the filming locations, and more \u2014 which plagued the filming of Apocalypse Now, increasing costs and nearly destroying the life and career of Francis Ford Coppola.", "poster_path": "/iQLXcATpUxrRdEzxoDqzCgYllnT.jpg", "popularity": 8.496}, {"adult": false, "backdrop_path": "/2HYvAhyrIaYG2AcdyAZX4FWIZo2.jpg", "genre_ids": [10749, 18], "id": 134380, "original_language": "en", "original_title": "The Mistress", "overview": "A young woman is torn between the affections of her two lovers. One is a young bachelor who brings passion into her life. The other is a married man who has kept her as his mistress for years. Architect JD has a chip on his shoulder about his father Rico never really accepting him as his son. Seamstress Sari struggles to take care of her family. The two meet by chance, and JD aggressively pursues Saris affections. Though the two are clearly a good match, there is a problem standing in the way of their bliss: Sari is the mistress of JDs father. Against his better judgment, JD continues to court Sari even after finding out this difficult fact. He hides his true identity as Ricos son, and fights to win Saris heart.", "poster_path": "/1tB0ClfLmo9kAijLvHzSCR65DUh.jpg", "release_date": "2012-09-21", "title": "The Mistress", "video": false, "vote_average": 6.4, "vote_count": 7, "popularity": 5.286}, {"adult": false, "backdrop_path": "/oxfN2hOLhMPCuDdG68f3wAV7uIu.jpg", "genre_ids": [80, 18, 10749], "id": 18311, "original_language": "cn", "original_title": "\u963f\u98db\u6b63\u50b3", "overview": "Yuddy, a Hong Kong playboy known for breaking girls' hearts, tries to find solace and the truth after discovering the woman who raised him isn't his mother.", "poster_path": "/8GxQZTt3WNke0TqKGCBuTmTxMu8.jpg", "release_date": "1990-12-15", "title": "Days of Being Wild", "video": false, "vote_average": 7.4, "vote_count": 172, "popularity": 11.268}, {"adult": false, "backdrop_path": "/n4yqgEw0uUu8erfouZ1ORSpBTAH.jpg", "genre_ids": [10752, 18, 36], "id": 403357, "original_language": "es", "original_title": "1898: los \u00faltimos de Filipinas", "overview": "The Philippines, 1898. Fifty Spanish soldiers arrive in the small village of Baler to rebuild an outpost. Although the war against the Filipinos and their American allies is almost lost, as is the Spanish Empire, the garrison will endure a cruel siege for eleven months. They will be the last to surrender.", "poster_path": "/q2CbFRigH5qz8v68Q5GbadSMcOz.jpg", "release_date": "2016-12-02", "title": "1898: Our Last Men in the Philippines", "video": false, "vote_average": 6.5, "vote_count": 80, "popularity": 7.653}, {"adult": false, "backdrop_path": null, "genre_ids": [99, 10402], "id": 635872, "original_language": "tl", "original_title": "ICYMI: I See Me", "overview": "A music documentary on MNL48, a franchise of the highly successful Japanese idol group, AKB48. The film looks into the girls as they perform within a music subculture that tries to get a foothold in a market of an overtly critical audience.", "poster_path": "/dDx99h6KtrGMjAV2pskUJigBbEY.jpg", "release_date": "2019-10-21", "title": "ICYMI: I See Me", "video": false, "vote_average": 0.0, "vote_count": 0, "popularity": 1.083}, {"id": 19096, "video": false, "vote_count": 26, "vote_average": 6.1, "title": "Back to Bataan", "release_date": "1945-05-30", "original_language": "en", "original_title": "Back to Bataan", "genre_ids": [28, 18, 10752], "backdrop_path": "/6FRB0D9SJ2vZitrXuRuwCJMWT2W.jpg", "adult": false, "overview": "An Army colonel leads a guerrilla campaign against the Japanese in the Philippines.", "poster_path": "/nfoHUCIXIzKX1AhkWOXEmCKmHzI.jpg", "popularity": 7.138}, {"adult": false, "backdrop_path": "/8FtzdLyAL7P1y2S1HnmOlNr9bUX.jpg", "genre_ids": [35, 10749], "id": 461438, "original_language": "tl", "original_title": "Can We Still Be Friends?", "overview": "Digs a no fuss, no frills kind of guy and idealistic achiever Sam who are friends turned lovers turned exes. Their relationship as a couple lasted for almost eight years until they both decided on an amicable breakup.", "poster_path": "/rUlMsLiL1iUvqE8YYwog0KPz6sV.jpg", "release_date": "2017-06-14", "title": "Can We Still Be Friends?", "video": false, "vote_average": 6.2, "vote_count": 175, "popularity": 5.45}, {"adult": false, "backdrop_path": "/9yytl7scc1qxDWKtJmdVK2FS4nq.jpg", "genre_ids": [18, 35, 10749], "id": 52800, "original_language": "tl", "original_title": "A Very Special Love", "overview": "Laida Magtalas is a modern-day Belle who works hard to provide for her family while hoping that someday she will meet her prince charming and that they will live happily ever after together. That would-be prince charming is none other than \"Miggy\", the youngest member of the Montenegro clan \u2014 a well established family in the business world. Moony Laida's desire to finally meet Miggy leads her to apply as an Editorial Assistant at his newly launched men\u2019s magazine, \"Bachelor\". In spite of the fact that a relationship with Miggy may prove to be a long shot, Laida revels working in such close proximity with the man of her dreams.", "poster_path": "/eggMe506MiKRzDKuY1yAO71sUGY.jpg", "release_date": "2008-08-03", "title": "A Very Special Love", "video": false, "vote_average": 7.3, "vote_count": 3, "popularity": 3.929}, {"adult": false, "backdrop_path": "/3pVJIuV4xPDNIMIv5ZsJPtTV67x.jpg", "genre_ids": [18, 28, 10752], "id": 31935, "original_language": "en", "original_title": "Too Late the Hero", "overview": "A WWII film set on a Pacific island. Japanese and allied forces occupy different parts of the island. When a group of British soldiers are sent on a mission behind enemy lines, things don't go exactly to plan. This film differs in that some of the 'heroes' are very reluctant, but they come good when they are pursued by the Japanese who are determined to prevent them returning to base.", "poster_path": "/gshAXlNmSpgJwll5Zi65N5TnGpO.jpg", "release_date": "1970-05-20", "title": "Too Late the Hero", "video": false, "vote_average": 6.4, "vote_count": 37, "popularity": 6.594}, {"adult": false, "backdrop_path": "/hsEm5oI9y1ImrVrSnjhjINlXjqy.jpg", "genre_ids": [80, 53, 27, 28], "id": 373786, "original_language": "en", "original_title": "Nilalang", "overview": "Nilalang tackles the underbelly of corrupt Philippine cops with the Japanese 'Yakuza' and its links to a centuries\u2019 old curse that may be responsible for the spate of serial killings happening in Manila.", "poster_path": "/hEfxu9VHXpSWipolwTgTLVAgBIt.jpg", "release_date": "2015-12-25", "title": "Creatures", "video": false, "vote_average": 8.0, "vote_count": 2, "popularity": 3.363}, {"adult": false, "backdrop_path": "/pdrv8rP6mUTZ6T1mK2VGxka4YYA.jpg", "genre_ids": [10749, 18], "id": 111412, "original_language": "tl", "original_title": "Sana Maulit Muli", "overview": "Two lovers, who are oceans apart, discover that distance can either make the heart grow fonder or render it numb with grief.", "poster_path": "/nzTtXPjUtzocAAXajgBhrhJMq04.jpg", "release_date": "1995-08-09", "title": "I Wish It Happens Again", "video": false, "vote_average": 6.0, "vote_count": 1, "popularity": 0.84}], "total_pages": 81, "total_results": 1620}, "recommendations": {"page": 1, "results": [{"adult": false, "backdrop_path": "/m8umhMcs7oFRhEafpwZQamdYVOm.jpg", "genre_ids": [10749, 35], "id": 252981, "original_language": "tl", "original_title": "Bride for Rent", "overview": "On the eve of his 25th birthday, the day he\u2019s set to receive money from his trust fund, Rocco (Xian Lim) parties, gets drunk and loses all his money on a poker match. His dilemma: He has to produce the amount, otherwise he will lose the client he needs to defeat his father\u2019s TV commercial production company.  Meanwhile, Rocky (Kim Chiu) also needs money to pay the rent, otherwise her family will be homeless.  There\u2019s only one way for Rocco to be able to get money from his trust fund: Fulfill the conditions set by his grandmother and that is to get married.  Rocky agrees to act as Rocco\u2019s pseudo wife in exchange for a \u201ctalent fee.\u201d They seal the deal.  As they live like a married couple, Rocco and Rocky face one problem after another, forcing them with no alternative but to reconcile their differences and work with each other. Complication arises when they start to feel for each other, with their bond getting closer.", "poster_path": "/niledXhpSt5JbCclrDXGQHqsJhf.jpg", "release_date": "2014-01-15", "title": "Bride for Rent", "video": false, "vote_average": 8.1, "vote_count": 9, "popularity": 2.919}, {"adult": false, "backdrop_path": "/wLX83U0PqbIGm4ER7aIsQsSe45Z.jpg", "genre_ids": [10749, 18, 35], "id": 171587, "original_language": "ko", "original_title": "\ub098\uc758 PS \ud30c\ud2b8\ub108", "overview": "Yoon-Jung accidentally calls a stranger, instead of her boyfriend, and has phone sex with the unknown man. When Yoon-Jung's relationship with her boyfriend turns sour, Yoon-Jung meets Hyun-Seung, the stranger she had phone sex with.", "poster_path": "/acoytVakE7E8lCSB4JM7KyV9Ft9.jpg", "release_date": "2012-12-05", "title": "Whatcha Wearin'?", "video": false, "vote_average": 6.9, "vote_count": 50, "popularity": 6.634}, {"adult": false, "backdrop_path": "/tsUvXNOuE8go5XkhUJa0u1DTBYn.jpg", "genre_ids": [14, 10749], "id": 128246, "original_language": "ko", "original_title": "\ub291\ub300\uc18c\ub144", "overview": "Summoned by an unexpected phone call, an elderly woman visits the country cottage she lived in as a child. Memories of an orphan boy she knew 47 years ago come flooding back to her.", "poster_path": "/4h8B3SJVuwfoMVrFPx7MzP4oJZs.jpg", "release_date": "2012-10-31", "title": "A Werewolf Boy", "video": false, "vote_average": 7.8, "vote_count": 125, "popularity": 5.715}], "total_pages": 1, "total_results": 3}, "credits": {"cast": [{"cast_id": 0, "character": "Gab", "credit_id": "58f17002c3a3681a3d00667c", "gender": 1, "id": 591998, "name": "Kathryn Bernardo", "order": 1, "profile_path": "/b2smlh77GUeJBogZ7BZsRQNgzsX.jpg"}, {"cast_id": 1, "character": "Dos", "credit_id": "58f1701e925141554200648c", "gender": 0, "id": 1268846, "name": "Daniel Padilla", "order": 2, "profile_path": "/auppluCisVNPnK6N4xjFjREeJcl.jpg"}, {"cast_id": 2, "character": "", "credit_id": "58f17039c3a3681a3000687f", "gender": 1, "id": 278926, "name": "Cherry Pie Picache", "order": 3, "profile_path": "/4S5J5nDsZTQfTXScK4u74KGvnDU.jpg"}, {"cast_id": 3, "character": "", "credit_id": "58f170709251415556006a23", "gender": 0, "id": 1432560, "name": "Chienna Filomeno", "order": 4, "profile_path": "/cAIATCyewFQiGq7Qf9Hn82sYNcg.jpg"}, {"cast_id": 4, "character": "", "credit_id": "58f1707bc3a3681a5f006910", "gender": 1, "id": 113267, "name": "Pinky Amador", "order": 5, "profile_path": "/58GFeTASKZSYiscN5GzjnarX66k.jpg"}, {"cast_id": 5, "character": "", "credit_id": "58f17087c3a3681a5f006919", "gender": 0, "id": 1417641, "name": "Johnny Revilla", "order": 6, "profile_path": "/7Ty1dRAXMKDVQDiPHSHBKztqnKX.jpg"}, {"cast_id": 8, "character": "", "credit_id": "58f214f89251412fa9009131", "gender": 0, "id": 591023, "name": "Joross Gamboa", "order": 7, "profile_path": "/pOIIqDOXmRw4KPDYbdO3x4oWOQh.jpg"}, {"cast_id": 9, "character": "", "credit_id": "58f214fdc3a3682e660091dd", "gender": 0, "id": 1226203, "name": "Matteo Guidicelli", "order": 8, "profile_path": "/1ANWoTVpgJnLNAVmvWsWeJ1vt5D.jpg"}, {"cast_id": 10, "character": "", "credit_id": "58f21514c3a3682e66009200", "gender": 0, "id": 1727208, "name": "Hanna Ledesma", "order": 9, "profile_path": "/ox6gsdvBXTOGIZaxBJNGWVI0W2D.jpg"}, {"cast_id": 11, "character": "", "credit_id": "58f2151ac3a3682eb6009605", "gender": 0, "id": 592002, "name": "Lotlot De Leon", "order": 10, "profile_path": "/afrKlmik1WXhkFXDBjCuAU89lCd.jpg"}, {"cast_id": 12, "character": "", "credit_id": "58f215239251412fb90097f0", "gender": 0, "id": 1238397, "name": "Kristel Fulgar", "order": 11, "profile_path": "/vPbRPpAGuHzHaeVnGnXSMYTMeLq.jpg"}, {"cast_id": 13, "character": "", "credit_id": "58f21529c3a3682e3f008ddb", "gender": 0, "id": 1442438, "name": "Devon Seron", "order": 12, "profile_path": "/e7FkTyJvSIVOqFK9aW8pbwaGerk.jpg"}, {"cast_id": 14, "character": "", "credit_id": "58f21530c3a3682e6600922b", "gender": 2, "id": 113265, "name": "Dennis Padilla", "order": 13, "profile_path": "/3WSdaNkGcLQ6S4p4qgHVuVV6WI5.jpg"}, {"cast_id": 15, "character": "", "credit_id": "58f21539c3a3682eb6009625", "gender": 0, "id": 592004, "name": "Clarence Delgado", "order": 14, "profile_path": "/caATXQaiqGjtHu829fOwuZibRqC.jpg"}, {"cast_id": 16, "character": "", "credit_id": "58f2153f9251412ff4009519", "gender": 0, "id": 114872, "name": "Janus Del Prado", "order": 15, "profile_path": "/wwejRofGQCeOFqXraDtse6VwYLX.jpg"}, {"cast_id": 17, "character": "", "credit_id": "58f2157fc3a3682e66009286", "gender": 0, "id": 1193505, "name": "Earl Ignacio", "order": 16, "profile_path": null}, {"cast_id": 18, "character": "", "credit_id": "58f21597c3a3682ee200894a", "gender": 0, "id": 1796626, "name": "Belle Mariano", "order": 17, "profile_path": null}, {"cast_id": 19, "character": "", "credit_id": "58f2159ec3a3682ee2008955", "gender": 1, "id": 591167, "name": "Ni\u00f1a Dolino", "order": 18, "profile_path": "/ekTLErLtDQtnC1NmgdGiqmpJPII.jpg"}, {"cast_id": 20, "character": "", "credit_id": "58f215a49251412fdf0095d8", "gender": 0, "id": 933413, "name": "Lito Pimentel", "order": 19, "profile_path": "/iEXNmRtYIiw8fPYkQmnqJUbOY7g.jpg"}], "crew": [{"credit_id": "58f170bb9251415515006816", "department": "Directing", "gender": 1, "id": 238156, "job": "Director", "name": "Mae Czarina Cruz", "profile_path": null}, {"credit_id": "58f170d2c3a3681a3d00671c", "department": "Writing", "gender": 0, "id": 114866, "job": "Writer", "name": "Carmi Raymundo", "profile_path": "/tMSuLzlsRBAI5vFu2ehoqWOTvo2.jpg"}]}}