{"adult": false, "backdrop_path": "/82PDdypMxyWLt4wydEudGubGaVN.jpg", "belongs_to_collection": null, "budget": 0, "genres": [{"id": 99, "name": "Documentary"}], "homepage": null, "id": 453053, "imdb_id": "tt6794450", "original_language": "en", "original_title": "Dumb: The Story of Big Brother Magazine", "overview": "A look at the rise and fall of the subversive skateboarding magazine Big Brother, which rose to prominence in the mid-1990s and had a profound effect on the skating subculture with its unfiltered approach.", "popularity": 4.82, "poster_path": "/fgVOjfV8xChNAYSvZ0LfpovBwfL.jpg", "production_companies": [], "production_countries": [{"iso_3166_1": "US", "name": "United States of America"}], "release_date": "2017-06-03", "revenue": 0, "runtime": 79, "spoken_languages": [{"iso_639_1": "en", "name": "English"}], "status": "Released", "tagline": "from idiots to icons", "title": "Dumb: The Story of Big Brother Magazine", "video": false, "vote_average": 8.0, "vote_count": 6, "keywords": {"keywords": [{"id": 390, "name": "skateboarding"}]}, "similar": {"page": 1, "results": [{"id": 1498, "video": false, "vote_count": 919, "vote_average": 6.6, "title": "Teenage Mutant Ninja Turtles", "release_date": "1990-03-30", "original_language": "en", "original_title": "Teenage Mutant Ninja Turtles", "genre_ids": [28, 12, 35, 878, 10751], "backdrop_path": "/PxZWmNlfpuU8A26ZrYzpLaOX9S.jpg", "adult": false, "overview": "A quartet of mutated humanoid turtles clash with an uprising criminal gang of ninjas", "poster_path": "/cok0SSxmD7fYeZj6l9XOr2mb0YL.jpg", "popularity": 16.055}, {"id": 165, "video": false, "vote_count": 7689, "vote_average": 7.7, "title": "Back to the Future Part II", "release_date": "1989-11-22", "original_language": "en", "original_title": "Back to the Future Part II", "genre_ids": [12, 35, 878, 10751], "backdrop_path": "/snLFUFzWUZCdYkAbhZlaGJxiY3I.jpg", "adult": false, "overview": "Marty and Doc are at it again in this wacky sequel to the 1985 blockbuster as the time-traveling duo head to 2015 to nip some McFly family woes in the bud. But things go awry thanks to bully Biff Tannen and a pesky sports almanac. In a last-ditch attempt to set things straight, Marty finds himself bound for 1955 and face to face with his teenage parents -- again.", "poster_path": "/k5dzvCQkXU2CAhLtlj9BHE7xmyK.jpg", "popularity": 18.286}, {"adult": false, "backdrop_path": "/mrvlpJFAzKwZZkLm9VD7Rh2VECi.jpg", "genre_ids": [12, 35, 18, 14], "id": 116745, "original_language": "en", "original_title": "The Secret Life of Walter Mitty", "overview": "A timid magazine photo manager who lives life vicariously through daydreams embarks on a true-life adventure when a negative goes missing.", "poster_path": "/b0nIj7dr2bcLAn3erYhql7f6aUm.jpg", "release_date": "2013-12-18", "title": "The Secret Life of Walter Mitty", "video": false, "vote_average": 7.1, "vote_count": 5241, "popularity": 14.477}, {"id": 1990, "video": false, "vote_count": 275, "vote_average": 6.5, "title": "Paranoid Park", "release_date": "2007-05-21", "original_language": "en", "original_title": "Paranoid Park", "genre_ids": [80, 18, 9648], "backdrop_path": "/dFItCoDHeaKN3OsWJNRaoWSOQdN.jpg", "adult": false, "overview": "The teenager and skateboarder Alex is interviewed by Detective Richard Lu that is investigating the death of a security guard in the rail yards severed by a train who was apparently hit by a skate board. While dealing with the separation process of his parents and the sexual heat of his virgin girlfriend Jennifer, Alex writes his last experiences in Paranoid Park with his new acquaintances and how the guard was killed, trying to relieve his feeling of guilty from his conscience.", "poster_path": "/6lCg0i1gbdmKUQnKcVNSbI13Iz6.jpg", "popularity": 7.349}, {"adult": false, "backdrop_path": "/fXv5ZaFoluaE4v5NTaxfVsSu7O9.jpg", "genre_ids": [99, 28], "id": 575707, "original_language": "en", "original_title": "Psycho Skate", "overview": "This VHS video features tons of rare footage of guys like Tony Hawk, Christian Hosoi, Rodney Mullen, Gator, Mark Gonzales, and many more of the late 1980's biggest stars.", "poster_path": "/qRPzBVTtqp9nmZUF8jY4DhEros.jpg", "release_date": "1988-03-15", "title": "Psycho Skate", "video": false, "vote_average": 10.0, "vote_count": 1, "popularity": 0.6}, {"id": 10152, "video": false, "vote_count": 458, "vote_average": 4.1, "title": "Dumb and Dumberer: When Harry Met Lloyd", "release_date": "2003-04-14", "original_language": "en", "original_title": "Dumb and Dumberer: When Harry Met Lloyd", "genre_ids": [35], "backdrop_path": "/dzGocMNPdWMfo52LcofnkfwrMaj.jpg", "adult": false, "overview": "This wacky prequel to the 1994 blockbuster goes back to the lame-brained Harry and Lloyd's days as classmates at a Rhode Island high school, where the unprincipled principal puts the pair in remedial courses as part of a scheme to fleece the school.", "poster_path": "/eizaKEnF108gQq89f1XsAyVxjq6.jpg", "popularity": 9.487}, {"id": 437586, "video": false, "vote_count": 515, "vote_average": 7.4, "title": "Mid90s", "release_date": "2018-10-19", "original_language": "en", "original_title": "Mid90s", "genre_ids": [35, 18], "backdrop_path": "/AniELE0qB56s91edib9Hn0ufwqh.jpg", "adult": false, "overview": "Stevie is a sweet 13-year-old about to explode. His mom is loving and attentive, but a little too forthcoming about her romantic life. His big brother is a taciturn and violent bully. So Stevie searches his working-class Los Angeles suburb for somewhere to belong. He finds it at the Motor Avenue skate shop.", "poster_path": "/3HkP9ale8G43vqOF3F6wt5h86RN.jpg", "popularity": 12.032}, {"id": 491474, "video": false, "vote_count": 46, "vote_average": 6.8, "title": "Skate Kitchen", "release_date": "2018-08-10", "original_language": "en", "original_title": "Skate Kitchen", "genre_ids": [18], "backdrop_path": "/8AXIZeciFJxD7wTJs7qGsfYD54f.jpg", "adult": false, "overview": "Camille's life as a lonely suburban teenager changes dramatically when she befriends a group of girl skateboarders. As she journeys deeper into this raw New York City subculture, she begins to understand the true meaning of friendship as well as her inner self.", "poster_path": "/wXoxxRVbCyQkW8oEYlKVHBPJTlm.jpg", "popularity": 6.295}, {"adult": false, "backdrop_path": "/hKMEAilhlDYShu8feXsHrluWfBR.jpg", "genre_ids": [10749, 28, 35, 80], "id": 11205, "original_language": "cn", "original_title": "\u5feb\u9910\u8eca", "overview": "Cousins Thomas and David, owners of a mobile restaurant, team up with their friend Moby, a bumbling private detective, to save the beautiful Sylvia, a pickpocket.", "poster_path": "/4MEjWGLJfL3woOBTNyahRtsP9Z4.jpg", "release_date": "1984-08-17", "title": "Wheels on Meals", "video": false, "vote_average": 6.9, "vote_count": 141, "popularity": 13.605}, {"adult": false, "backdrop_path": null, "genre_ids": [99], "id": 174334, "original_language": "en", "original_title": "The Motivation", "overview": "Go inside the lives and training regimes of eight of the world\u2019s gutsiest professional skateboarders. These fearless stars face unique obstacles on the way to the Street League Championship and the coveted title of best skateboarder in the world.", "poster_path": "/8y9bnf4JT3i0DrElazjuA3JYc1U.jpg", "release_date": "2013-04-25", "title": "The Motivation", "video": false, "vote_average": 7.0, "vote_count": 19, "popularity": 2.557}, {"adult": false, "backdrop_path": "/1Z53X8Rj7ebuIUHU0XqizkFMPOK.jpg", "genre_ids": [18, 10749], "id": 17483, "original_language": "en", "original_title": "Shelter", "overview": "Forced to give up his dreams of art school, Zach works dead-end jobs to support his sister and her son. Questioning his life, he paints, surfs and hangs out with his best friend, Gabe. When Gabe's older brother returns home for the summer, Zach suddenly finds himself drawn into a relationship he didn't expect.", "poster_path": "/auMRglisVmM01BRGAWCjv7AuUeE.jpg", "release_date": "2007-06-16", "title": "Shelter", "video": false, "vote_average": 7.7, "vote_count": 249, "popularity": 11.276}, {"id": 3602, "video": false, "vote_count": 173, "vote_average": 4.1, "title": "I'll Always Know What You Did Last Summer", "release_date": "2006-06-24", "original_language": "en", "original_title": "I'll Always Know What You Did Last Summer", "genre_ids": [27], "backdrop_path": "/e1pufGS4ly5Wb02WfJnckD22Zfh.jpg", "adult": false, "overview": "Several teenagers in a small-town in Colorado concoct a July 4th prank based on a frightening legend that goes awry when their friend ends up accidentally killed; however, the teens agree to keep their involvement a secret from the authorities, who continue to search for the man who apparently killed their friend. A year later, with the July 4th celebration coming up again, the teenagers realize that they're being stalked by someone who clearly intends on keeping the horrible legend alive by killing them off.", "poster_path": "/hYMAHn28MCkgbTBQom3UmvzUYhN.jpg", "popularity": 8.731}, {"id": 1440, "video": false, "vote_count": 459, "vote_average": 7.3, "title": "Little Children", "release_date": "2006-10-06", "original_language": "en", "original_title": "Little Children", "genre_ids": [35, 18, 10749], "backdrop_path": "/5RYylTj1WAO0kVoaY0o3wDfZSpg.jpg", "adult": false, "overview": "The lives of two lovelorn spouses from separate marriages, a registered sex offender, and a disgraced ex-police officer intersect as they struggle to resist their vulnerabilities and temptations.", "poster_path": "/225OXhGllrBJ6FWaYyiosxDU1us.jpg", "popularity": 12.499}, {"id": 15653, "video": false, "vote_count": 321, "vote_average": 6.2, "title": "An Extremely Goofy Movie", "release_date": "2000-02-29", "original_language": "en", "original_title": "An Extremely Goofy Movie", "genre_ids": [16, 35, 10751], "backdrop_path": "/nxhsdq7g8FzuFUG218q0CrUsqVq.jpg", "adult": false, "overview": "It's all extreme sports and a life of freedom as Max sets off for college -- but Goofy misses Max so much he loses his job and goes to finish college alongside Max and his friends. But as Goofy tries to get closer to Max, both must go to the extreme to learn how to live their own lives together.", "poster_path": "/kHV9ABnZtDeDtSQfTNIveSoxS9m.jpg", "popularity": 15.496}, {"adult": false, "backdrop_path": "/8JhZUAPfKdgVqqyZVYhEfibrHDc.jpg", "genre_ids": [99, 36, 16], "id": 91030, "original_language": "en", "original_title": "This Ain't California", "overview": "A retrospective look at the youth cultures born in the German Democratic Republic. A celebration of the lust for life, a contemporary trip into the world of skate, a tale on three heroes and their boards, from their childhood in the seventies, through their teenage rebellion in the eighties and the summer of 1989, when their life changed forever, to 2011.", "poster_path": "/2XCTalp0mlFLlR3o6lY5xPjZ7Ch.jpg", "release_date": "2012-08-15", "title": "This Ain't California", "video": false, "vote_average": 6.5, "vote_count": 19, "popularity": 4.476}, {"id": 35371, "video": false, "vote_count": 26, "vote_average": 6.7, "title": "Thrashin'", "release_date": "1986-08-29", "original_language": "en", "original_title": "Thrashin'", "genre_ids": [28, 18], "backdrop_path": "/ouoi01NpFt3WxpfIwfOVQ9p8gKk.jpg", "adult": false, "overview": "Corey and his band of skater buddies sometimes make mischief, but they're more interested in girls and having fun on their boards than in getting into any real trouble. Notorious enemy crew the Daggers, led by Tommy Hook, get their kicks terrorizing the locals at Venice Beach. When Corey starts dating Tommy's kid sister Chrissy, the Daggers are furious. The boys then take their beef to the \"L.A. Massacre,\" a deadly skate race down a canyon road.", "poster_path": "/7Z3q6FuVpRAMftv0i381rf8qIiK.jpg", "popularity": 9.225}, {"adult": false, "backdrop_path": "/mpqS3iMM5wUOk3D0MPVbz8U7wF1.jpg", "genre_ids": [99], "id": 489985, "original_language": "en", "original_title": "Minding the Gap", "overview": "Three young men bond together to escape volatile families in their Rust Belt hometown. As they face adult responsibilities, unexpected revelations threaten their decade-long friendship.", "poster_path": "/uOu2YgrryHD1UlngykzTodAxGdC.jpg", "release_date": "2019-01-17", "title": "Minding the Gap", "video": false, "vote_average": 7.8, "vote_count": 66, "popularity": 5.692}, {"adult": false, "backdrop_path": "/3mAMaxmEuNFW6Rm9f90wfZgGUvL.jpg", "genre_ids": [18, 28], "id": 9787, "original_language": "en", "original_title": "Lords of Dogtown", "overview": "\"Lords of Dogtown\" tells the radical true story behind three teenage surfers from Venice Beach, California, who took skateboarding to the extreme and changed the world of sports forever. Stacy Peralta (John Robinson, Elephant), Tony Alva (Victor Rasuk, Raising Victor Vargas) and Jay Adams (Emile Hirsch, The Girl Next Door) are the Z-Boys, a bunch of nobodies until they create a new style of skateboarding that becomes a worldwide phenomenon. But when their hobby becomes a business, the success shreds their friendship. Directed by Catherine Hardwicke (Thirteen) and written by Stacy Peralta, Lords of Dogtown is \"...a dazzling daredevil ride.\" (Peter Travers, Rollng Stone)", "poster_path": "/k1WjRObfqZV7EfmhsnUmhx88EAa.jpg", "release_date": "2005-06-03", "title": "Lords of Dogtown", "video": false, "vote_average": 7.1, "vote_count": 396, "popularity": 10.536}, {"adult": false, "backdrop_path": "/mOnVZI9TxzEZqIt8ebsAMrqIafH.jpg", "genre_ids": [18, 27, 53], "id": 409164, "original_language": "en", "original_title": "Boys in the Trees", "overview": "On Halloween 1997, two estranged teen skaters embark on a surreal journey through their memories, dreams and fears.", "poster_path": "/nZzSxliBkqVqRaXKCnQVr59VcNt.jpg", "release_date": "2016-09-09", "title": "Boys in the Trees", "video": false, "vote_average": 6.3, "vote_count": 69, "popularity": 7.468}, {"id": 20210, "video": false, "vote_count": 64, "vote_average": 6.0, "title": "Grind", "release_date": "2003-08-15", "original_language": "en", "original_title": "Grind", "genre_ids": [28, 35], "backdrop_path": "/t08QsDShEpsnOfvCebzPyhH31Ak.jpg", "adult": false, "overview": "Four skaters follow their idol on his summer tour in an attempt to get noticed, get sponsored, and become stars themselves.", "poster_path": "/7cZ2XPMEyurmiR3slggQYLrPfjM.jpg", "popularity": 7.644}], "total_pages": 12, "total_results": 225}, "recommendations": {"page": 1, "results": [{"adult": false, "backdrop_path": "/u82RurwuuaHlnv0SWEpSSK8T7a8.jpg", "genre_ids": [99], "id": 456348, "original_language": "en", "original_title": "Batman & Bill", "overview": "Everyone thinks that Bob Kane created Batman, but that\u2019s not the whole truth. One author makes it his crusade to make it known that Bill Finger, a struggling writer, actually helped invent the iconic superhero, from concept to costume to the very character we all know and love. Bruce Wayne may be Batman\u2019s secret identity, but his creator was always a true mystery.", "poster_path": "/gc1oyq0K8TdtFTXmYV03v536HsI.jpg", "release_date": "2017-05-06", "title": "Batman & Bill", "video": false, "vote_average": 7.7, "vote_count": 32, "popularity": 5.22}], "total_pages": 1, "total_results": 1}, "credits": {"cast": [{"cast_id": 2, "character": "Himself", "credit_id": "58fb430592514163ec00c472", "gender": 2, "id": 56578, "name": "Jeff Tremaine", "order": 0, "profile_path": "/dLUeKVdZXfFx3VOgf2zNV9fu1Ll.jpg"}, {"cast_id": 3, "character": "Himself", "credit_id": "58fb4310c3a3687a2500bfb8", "gender": 2, "id": 9656, "name": "Johnny Knoxville", "order": 1, "profile_path": "/vUultoYGh6mZraKoKPbuwkIZqRD.jpg"}, {"cast_id": 1, "character": "Himself", "credit_id": "58fb42f2c3a36879f400b37e", "gender": 2, "id": 1713525, "name": "Steve Rocco", "order": 2, "profile_path": "/zRnXVpHmfsIBtYH9Mtcg50UzoZO.jpg"}, {"cast_id": 4, "character": "Himself", "credit_id": "58fb4320c3a3687a2a00ba3f", "gender": 2, "id": 56585, "name": "Steve-O", "order": 3, "profile_path": "/dJ1kYnW5rPn6qePcGCahBUoeikT.jpg"}, {"cast_id": 5, "character": "Himself", "credit_id": "58fb432d925141642f00c7df", "gender": 2, "id": 142589, "name": "Rob Dyrdek", "order": 4, "profile_path": "/cYYCsdMu8IFdaqSIfauzwpcH7mc.jpg"}, {"cast_id": 6, "character": "Himself", "credit_id": "58fb4337c3a36879db00ca6f", "gender": 2, "id": 56584, "name": "Bam Margera", "order": 5, "profile_path": "/vBWSB2ixcQfZIHwkVXoWkMGtvGZ.jpg"}, {"cast_id": 7, "character": "Himself", "credit_id": "58fb433f925141640b00c6ac", "gender": 2, "id": 1228206, "name": "Chad Muska", "order": 6, "profile_path": "/7l49oKo7kwtqzpYObodfOpFXfGi.jpg"}, {"cast_id": 14, "character": "Himself", "credit_id": "5931610d92514115f300cf72", "gender": 2, "id": 16832, "name": "Tony Hawk", "order": 7, "profile_path": "/A0Zi2xSwMKurA91N5zmq9dAzxKh.jpg"}, {"cast_id": 15, "character": "Himself", "credit_id": "5931615e92514115ea00d738", "gender": 2, "id": 5953, "name": "Spike Jonze", "order": 8, "profile_path": "/uzpGNO2zUV8y830U8LnPyAxhQSf.jpg"}, {"cast_id": 16, "character": "Himself", "credit_id": "59f6073c92514142210170d9", "gender": 2, "id": 21007, "name": "Jonah Hill", "order": 9, "profile_path": "/w5qHu8T7gy5CFvPhXMW7Gl3UY3D.jpg"}, {"cast_id": 17, "character": "Himself", "credit_id": "59f60748c3a3682e0c017083", "gender": 2, "id": 56586, "name": "Chris Pontius", "order": 10, "profile_path": "/vdu1nL14zCMHjCssNqaNgHUjIqJ.jpg"}, {"cast_id": 18, "character": "Himself", "credit_id": "59f6075ac3a3682df40154c5", "gender": 2, "id": 61441, "name": "Rick Kosick", "order": 11, "profile_path": "/rBIb1wzXiKfKQ4fNfdqta1TsGpO.jpg"}, {"cast_id": 19, "character": "Himself", "credit_id": "59f6076ac3a3682e0c0170c5", "gender": 0, "id": 56580, "name": "Dimitry Elyashkevich", "order": 12, "profile_path": "/djIRYLzKIr1AIWcRuay6ED2shmo.jpg"}, {"cast_id": 20, "character": "Himself", "credit_id": "59f60777c3a3682d6a0172c4", "gender": 2, "id": 1719228, "name": "Dave Carnie", "order": 13, "profile_path": "/7r79F3OBNbST2gvWDvQMWl9WFhY.jpg"}, {"cast_id": 21, "character": "Himself", "credit_id": "59f60921c3a3682df4015834", "gender": 2, "id": 1025702, "name": "Tim O'Connor", "order": 14, "profile_path": null}], "crew": [{"credit_id": "58fb437492514163e300cb1f", "department": "Production", "gender": 2, "id": 56578, "job": "Producer", "name": "Jeff Tremaine", "profile_path": "/dLUeKVdZXfFx3VOgf2zNV9fu1Ll.jpg"}, {"credit_id": "58fb4368925141642f00c815", "department": "Editing", "gender": 0, "id": 61442, "job": "Editor", "name": "Seth Casriel", "profile_path": null}, {"credit_id": "58f7f2269251415c27000430", "department": "Directing", "gender": 0, "id": 115322, "job": "Director", "name": "Patrick O'Dell", "profile_path": null}, {"credit_id": "58fb437cc3a3687a2500bff4", "department": "Production", "gender": 2, "id": 1692541, "job": "Producer", "name": "Sean Cliver", "profile_path": "/82d2hhmGawLmwaoyq92cDVRIybY.jpg"}, {"credit_id": "58fb438f925141643c00c5d5", "department": "Crew", "gender": 0, "id": 1801172, "job": "Cinematography", "name": "Trevar Cushing", "profile_path": null}]}}