{"adult": false, "backdrop_path": "/fWEkI5jgvH6gxh3E63frL6E5Rgk.jpg", "belongs_to_collection": null, "budget": 0, "genres": [{"id": 12, "name": "Adventure"}, {"id": 18, "name": "Drama"}, {"id": 27, "name": "Horror"}, {"id": 878, "name": "Science Fiction"}], "homepage": "http://www.florathemovie.com/", "id": 454439, "imdb_id": "tt4453756", "original_language": "en", "original_title": "Flora", "overview": "In 1929, an expedition of university botanists enter an uncharted forest where they discover, and must escape an ancient organism.", "popularity": 3.403, "poster_path": "/gFg4GIhfwBy9pxoIptmZOQg6itg.jpg", "production_companies": [], "production_countries": [{"iso_3166_1": "CA", "name": "Canada"}], "release_date": "2017-04-27", "revenue": 88, "runtime": 99, "spoken_languages": [{"iso_639_1": "en", "name": "English"}], "status": "Released", "tagline": "Some things live stronger alone.", "title": "Flora", "video": false, "vote_average": 4.5, "vote_count": 12, "keywords": {"keywords": [{"id": 156810, "name": "science"}, {"id": 162342, "name": "discovery"}, {"id": 220339, "name": "botany"}]}, "similar": {"page": 1, "results": [{"id": 286217, "video": false, "vote_count": 13234, "vote_average": 7.7, "title": "The Martian", "release_date": "2015-09-30", "original_language": "en", "original_title": "The Martian", "genre_ids": [12, 18, 878], "backdrop_path": "/sy3e2e4JwdAtd2oZGA2uUilZe8j.jpg", "adult": false, "overview": "During a manned mission to Mars, Astronaut Mark Watney is presumed dead after a fierce storm and left behind by his crew. But Watney has survived and finds himself stranded and alone on the hostile planet. With only meager supplies, he must draw upon his ingenuity, wit and spirit to subsist and find a way to signal to Earth that he is alive.", "poster_path": "/5aGhaIHYuQbqlHWvWYqMCnj40y2.jpg", "popularity": 45.972}, {"id": 407451, "video": false, "vote_count": 1199, "vote_average": 5.0, "title": "A Wrinkle in Time", "release_date": "2018-03-08", "original_language": "en", "original_title": "A Wrinkle in Time", "genre_ids": [12, 14, 878, 10751], "backdrop_path": "/zqUaMojohr96itJYCE3W1NauTn7.jpg", "adult": false, "overview": "After the disappearance of her scientist father, three peculiar beings send Meg, her brother, and her friend to space in order to find him.", "poster_path": "/yAcb58vipewa1BfNit2RjE6boXA.jpg", "popularity": 15.628}, {"adult": false, "backdrop_path": "/dAK3Sql45m1xyMzCm5LDa4Bmucx.jpg", "genre_ids": [878, 18], "id": 13363, "original_language": "en", "original_title": "The Man from Earth", "overview": "An impromptu goodbye party for Professor John Oldman becomes a mysterious interrogation after the retiring scholar reveals to his colleagues he never ages and has walked the earth for 14,000 years.", "poster_path": "/zYP2lBJ5GRV1HaIi4USqRl3phe.jpg", "release_date": "2007-06-10", "title": "The Man from Earth", "video": false, "vote_average": 7.7, "vote_count": 1237, "popularity": 15.764}, {"adult": false, "backdrop_path": "/rkaP7dnHenOr2n2IqMxip6rtT4W.jpg", "genre_ids": [878, 9648, 12], "id": 62, "original_language": "en", "original_title": "2001: A Space Odyssey", "overview": "Humanity finds a mysterious object buried beneath the lunar surface and sets off to find its origins with the help of HAL 9000, the world's most advanced super computer.", "poster_path": "/90T7b2LIrL07ndYQBmSm09yqVEH.jpg", "release_date": "1968-04-09", "title": "2001: A Space Odyssey", "video": false, "vote_average": 8.1, "vote_count": 6599, "popularity": 29.833}, {"id": 315837, "video": false, "vote_count": 5588, "vote_average": 6.0, "title": "Ghost in the Shell", "release_date": "2017-03-29", "original_language": "en", "original_title": "Ghost in the Shell", "genre_ids": [28, 18, 878, 53], "backdrop_path": "/jGPSVArC0GS2VVc0aGAqGTjfFOG.jpg", "adult": false, "overview": "In the near future, Major (Scarlett Johansson) is the first of her kind: A human saved from a terrible crash, who is cyber-enhanced to be a perfect soldier devoted to stopping the world's most dangerous criminals. When terrorism reaches a new level that includes the ability to hack into people's minds and control them, Major is uniquely qualified to stop it. As she prepares to face a new enemy, Major discovers that she has been lied to: her life was not saved, it was stolen. She will stop at nothing to recover her past, find out who did this to her and stop them before they do it to others. Based on the internationally acclaimed Japanese Manga, \"The Ghost in the Shell.\"", "poster_path": "/si1ZyELNHdPUZw4pXR5KjMIIsBF.jpg", "popularity": 30.17}, {"adult": false, "backdrop_path": "/dfNrZ82poQ8blHWJreIv6JZQ9JA.jpg", "genre_ids": [27, 878], "id": 348, "original_language": "en", "original_title": "Alien", "overview": "During its return to the earth, commercial spaceship Nostromo intercepts a distress signal from a distant planet. When a three-member team of the crew discovers a chamber containing thousands of eggs on the planet, a creature inside one of the eggs attacks an explorer. The entire crew is unaware of the impending nightmare set to descend upon them when the alien parasite planted inside its unfortunate host is birthed.", "poster_path": "/2h00HrZs89SL3tXB4nbkiM7BKHs.jpg", "release_date": "1979-05-25", "title": "Alien", "video": false, "vote_average": 8.1, "vote_count": 8383, "popularity": 41.028}, {"id": 9426, "video": false, "vote_count": 2199, "vote_average": 7.3, "title": "The Fly", "release_date": "1986-08-15", "original_language": "en", "original_title": "The Fly", "genre_ids": [27, 878], "backdrop_path": "/bukhBqYdlcLxQBL1rVswewSka6R.jpg", "adult": false, "overview": "When Seth Brundle makes a huge scientific and technological breakthrough in teleportation, he decides to test it on himself. Unbeknownst to him, a common housefly manages to get inside the device and the two become one.", "poster_path": "/q49tjSe3O152t9QVwaradePGu7W.jpg", "popularity": 18.772}, {"id": 590209, "video": false, "vote_count": 2, "vote_average": 8.0, "title": "Chasing Einstein", "release_date": "2019-09-13", "original_language": "en", "original_title": "Chasing Einstein", "genre_ids": [99], "backdrop_path": "/9Wlcmx2RQsuG6k7Dvb65CFLvjOj.jpg", "adult": false, "overview": "Follow leading scientists around the world and to the edge of the universe on their quest to solve one of the greatest mysteries of the universe, the mysterious invisible \u201cdark matter.\u201d", "poster_path": "/mfDNl2cAASYGi5vV4FFXHjPh5Vo.jpg", "popularity": 1.4}, {"id": 22794, "video": false, "vote_count": 3655, "vote_average": 6.5, "title": "Cloudy with a Chance of Meatballs", "release_date": "2009-09-17", "original_language": "en", "original_title": "Cloudy with a Chance of Meatballs", "genre_ids": [16, 35, 10751], "backdrop_path": "/vYovS909jUV3wxms4DmHGjZ1lhw.jpg", "adult": false, "overview": "Inventor Flint Lockwood creates a machine that makes clouds rain food, enabling the down-and-out citizens of Chewandswallow to feed themselves. But when the falling food reaches gargantuan proportions, Flint must scramble to avert disaster. Can he regain control of the machine and put an end to the wild weather before the town is destroyed?", "poster_path": "/8GyuFxLh3PTaQDy3Vhk1gV3KU8Z.jpg", "popularity": 23.177}, {"id": 300681, "video": false, "vote_count": 586, "vote_average": 5.9, "title": "Replicas", "release_date": "2018-10-25", "original_language": "en", "original_title": "Replicas", "genre_ids": [878, 53], "backdrop_path": "/9gjvI20crsLvsmQ2DjvMIATnDHC.jpg", "adult": false, "overview": "A scientist becomes obsessed with returning his family to normalcy after a terrible accident.", "poster_path": "/hhPBTAn9b4TYOxc1JYNsX4BFAlW.jpg", "popularity": 16.66}, {"adult": false, "backdrop_path": "/wSnMlhSWIZ7JQYkHq168hK9R8Lh.jpg", "genre_ids": [14, 28, 878, 53], "id": 834, "original_language": "en", "original_title": "Underworld: Evolution", "overview": "As the war between the vampires and the Lycans rages on, Selene, a former member of the Death Dealers (an elite vampire special forces unit that hunts werewolves), and Michael, the werewolf hybrid, work together in an effort to unlock the secrets of their respective bloodlines.", "poster_path": "/fogihlu39MuYgL6pKObI4SQWPOY.jpg", "release_date": "2006-01-12", "title": "Underworld: Evolution", "video": false, "vote_average": 6.5, "vote_count": 2559, "popularity": 19.188}, {"id": 1593, "video": false, "vote_count": 6574, "vote_average": 6.5, "title": "Night at the Museum", "release_date": "2006-10-20", "original_language": "en", "original_title": "Night at the Museum", "genre_ids": [28, 12, 35, 14, 10751], "backdrop_path": "/fDuTrT0qJUgEJjexaZOce4kmO0V.jpg", "adult": false, "overview": "Chaos reigns at the natural history museum when night watchman Larry Daley accidentally stirs up an ancient curse, awakening Attila the Hun, an army of gladiators, a Tyrannosaurus rex and other exhibits.", "poster_path": "/NUbCSwy2EQ9Z6psUjPqr3WdVI2.jpg", "popularity": 19.76}, {"id": 181533, "video": false, "vote_count": 3912, "vote_average": 6.1, "title": "Night at the Museum: Secret of the Tomb", "release_date": "2014-12-17", "original_language": "en", "original_title": "Night at the Museum: Secret of the Tomb", "genre_ids": [12, 35, 14, 10751], "backdrop_path": "/8b9mOlxer8DVw4k368IXNG5HPBI.jpg", "adult": false, "overview": "When the magic powers of The Tablet of Ahkmenrah begin to die out, Larry Daley spans the globe, uniting favorite and new characters while embarking on an epic quest to save the magic before it is gone forever.", "poster_path": "/tWwASv4CU1Au1IukacdSUewDCV3.jpg", "popularity": 38.315}, {"id": 6278, "video": false, "vote_count": 1250, "vote_average": 6.0, "title": "Reign of Fire", "release_date": "2002-07-12", "original_language": "en", "original_title": "Reign of Fire", "genre_ids": [28, 12, 14], "backdrop_path": "/xtyNXEmCjSR55cBSIYJ59RSuK7t.jpg", "adult": false, "overview": "In post-apocalyptic England, an American volunteer and a British survivor team up to fight off a brood of fire-breathing dragons seeking to return to global dominance after centuries of rest underground. The Brit -- leading a clan of survivors to hunt down the King of the Dragons -- has much at stake: His mother was killed by a dragon, but his love is still alive.", "poster_path": "/c9FlSkQ0EV2vzln4Bo5NCvzzxWm.jpg", "popularity": 22.354}, {"adult": false, "backdrop_path": "/gNdbzXwf3StDHDmo7q54ICQJ9tU.jpg", "genre_ids": [14, 27, 53, 878], "id": 4961, "original_language": "en", "original_title": "Mimic", "overview": "A disease carried by common cockroaches is killing Manhattan children. In an effort to stop the epidemic an entomologist, Susan Tyler, creates a mutant breed of insect that secretes a fluid to kill the roaches. This mutant breed was engineered to die after one generation, but three years later Susan finds out that the species has survived and evolved into a large, gruesome monster that can mimic human form.", "poster_path": "/tkmSgkekKleTx46a1ERny967Ws5.jpg", "release_date": "1997-08-22", "title": "Mimic", "video": false, "vote_average": 5.9, "vote_count": 486, "popularity": 13.374}, {"adult": false, "backdrop_path": "/y3XY4jrXQS20qdBY1bmPaBD7EIu.jpg", "genre_ids": [99], "id": 1781, "original_language": "en", "original_title": "An Inconvenient Truth", "overview": "A documentary on Al Gore's campaign to make the issue of global warming a recognized problem worldwide.", "poster_path": "/yhsevNFscOH8YA90vsldYwzqkQt.jpg", "release_date": "2006-01-24", "title": "An Inconvenient Truth", "video": false, "vote_average": 7.0, "vote_count": 468, "popularity": 10.854}, {"adult": false, "backdrop_path": "/cBa7Bt42lyVhCmc65MieMdVIQ6h.jpg", "genre_ids": [12, 878, 9648], "id": 1685, "original_language": "en", "original_title": "Beneath the Planet of the Apes", "overview": "During a rescue mission to locate missing astronaut George Taylor, John Brent crash lands on the Planet of the Apes. Brent, along with Taylor's companion, Nova, find he has disappeared into an underground city known as the Forbidden Zone and attempt to track him down.", "poster_path": "/v1r5mBh9hxxWpvZl9G3cP7d1Mh9.jpg", "release_date": "1970-05-01", "title": "Beneath the Planet of the Apes", "video": false, "vote_average": 6.2, "vote_count": 631, "popularity": 12.825}, {"id": 83564, "video": false, "vote_count": 423, "vote_average": 8.0, "title": "La Luna", "release_date": "2012-02-10", "original_language": "en", "original_title": "La luna", "genre_ids": [16, 10751], "backdrop_path": "/p4lpdTn3nW8nZBzyAU5kbb7PPBr.jpg", "adult": false, "overview": "A young boy comes of age in the most peculiar of circumstances. Tonight is the very first time his Papa and Grandpa are taking him to work. In an old wooden boat they row far out to sea, and with no land in sight, they stop and wait. A big surprise awaits the boy as he discovers his family's most unusual line of work. Should he follow the example of his Papa, or his Grandpa? Will he be able to find his own way in the midst of their conflicting opinions and timeworn traditions?", "poster_path": "/py4pMp6QlKUjjzCk8icZ2GrYw3Z.jpg", "popularity": 12.073}, {"id": 10514, "video": false, "vote_count": 318, "vote_average": 7.0, "title": "The Andromeda Strain", "release_date": "1971-03-12", "original_language": "en", "original_title": "The Andromeda Strain", "genre_ids": [878, 53], "backdrop_path": "/pyzCZ11vbhmPEwwWv1fDvpG1Axe.jpg", "adult": false, "overview": "When virtually all of the residents of Piedmont, New Mexico, are found dead after the return to Earth of a space satellite, the head of the US Air Force's Project Scoop declares an emergency. A group of eminent scientists led by Dr. Jeremy Stone scramble to a secure laboratory and try to first isolate the life form while determining why two people from Piedmont - an old alcoholic and a six-month-old baby - survived. The scientists methodically study the alien life form unaware that it has already mutated and presents a far greater danger in the lab, which is equipped with a nuclear self-destruct device designed to prevent the escape of dangerous biological agents..", "poster_path": "/nGI6h63HtxB0SbvaNXc5WcrRycq.jpg", "popularity": 9.289}, {"id": 8870, "video": false, "vote_count": 519, "vote_average": 5.6, "title": "Red Planet", "release_date": "2000-11-10", "original_language": "en", "original_title": "Red Planet", "genre_ids": [28, 878, 53], "backdrop_path": "/iluJrJJRuKJ16Apsjh4O61uVsYQ.jpg", "adult": false, "overview": "Astronauts search for solutions to save a dying Earth by searching on Mars, only to have the mission go terribly awry.", "poster_path": "/sMholOUc89LQhp0X33JZExgxupB.jpg", "popularity": 11.51}], "total_pages": 23, "total_results": 444}, "recommendations": {"page": 1, "results": [{"adult": false, "backdrop_path": "/f5om3g9gCPscPhIz1Aky0oy7LqX.jpg", "genre_ids": [27, 53], "id": 550172, "original_language": "en", "original_title": "High Voltage", "overview": "An emerging rock band, managed by industry vet Jimmy Kleen, strike a deal with record executive Rick Roland. Things take a sinister turn when the band's lead singer, Rachel, and her mother Barb are struck by lightning and killed. Rachel is brought back to life, but she is different than before. Lightning courses through her veins and she uses her new strange electrical powers to drain the life from men, turning it into electrifying stage performances, but just how far are the band willing to go to make it.", "poster_path": "/44TEBlWUctxG9K3T1niiLdBINSx.jpg", "release_date": "2018-10-19", "title": "High Voltage", "video": false, "vote_average": 6.0, "vote_count": 7, "popularity": 4.713}, {"adult": false, "backdrop_path": "/riIsvUTOvJNUGc9AAjuz80DCk57.jpg", "genre_ids": [53, 27], "id": 485217, "original_language": "en", "original_title": "The Follower", "overview": "Young Youtuber David Baker is invited by Carol, a lonely woman, to investigate supernatural occurrences in her home. But it takes a turn as he slowly uncovers that things aren't what they seem.", "poster_path": "/2ZeUf5RRknCNWgsGnuur21YBSdC.jpg", "release_date": "2017-10-31", "title": "The Follower", "video": false, "vote_average": 4.6, "vote_count": 10, "popularity": 2.376}, {"adult": false, "backdrop_path": "/jiLax7waw8LhoH2GOacaH7a3s17.jpg", "genre_ids": [28, 12, 27], "id": 568287, "original_language": "en", "original_title": "Antidote", "overview": "A selfless doctor and a cocky treasure hunter must join forces to uncover the Mayan legend of the White Witch.", "poster_path": "/2kGPeT86qzUBwN5EiSknV8HOigb.jpg", "release_date": "2018-12-14", "title": "Antidote", "video": false, "vote_average": 2.8, "vote_count": 4, "popularity": 3.36}, {"adult": false, "backdrop_path": "/dcQ8qmGnV79V93KDTaD7zNuuURI.jpg", "genre_ids": [18, 53, 9648], "id": 378488, "original_language": "en", "original_title": "If There's a Hell Below", "overview": "Abe is an ambitious journalist. Debra is an idealistic whistle-blower. In a few minutes, they will meet. An hour later, one of them will be dead.", "poster_path": "/2ZX6k3foiD7bgwIWPPbUF7270wl.jpg", "release_date": "2016-01-24", "title": "If There's a Hell Below", "video": false, "vote_average": 4.4, "vote_count": 8, "popularity": 3.09}, {"adult": false, "backdrop_path": "/ekD5e1L4ywctw0UGnW0mGOjt1Px.jpg", "genre_ids": [80, 27, 18, 10749], "id": 224626, "original_language": "en", "original_title": "Olivia", "overview": "Nightmares of the past haunt the beautiful, mysterious Olivia (Suzanna Love), a London resident who begins a passionate affair with American businessman Mike (Easy Rider's Robert Walker, Jr.). Trapped in a loveless marriage and traumatized by memories of her mother's brutal murder, Olivia hopes her lover will offer a chance at a new life. However, ghostly voices and brutal murders ignite a fiendish, twist-filled story of double identities, deception, and erotic terror.", "poster_path": "/8M5wdlnW2EnvVsW8TqbkyrbD61c.jpg", "release_date": "1983-03-01", "title": "Olivia", "video": false, "vote_average": 4.0, "vote_count": 8, "popularity": 3.107}, {"adult": false, "backdrop_path": "/8HdQ4QShG8VBkFJ6om0Smxjy8T5.jpg", "genre_ids": [878, 9648, 12], "id": 261157, "original_language": "en", "original_title": "Senn", "overview": "Strange phenomena begin to plague Senn, a factory worker on the forgotten world, Pyom, when an enigmatic alien intelligence arrives to deliver him to the Polychronom. This ancient object has surreptitiously chosen him for a mysterious purpose that could mean his undoing.", "poster_path": "/c5nB8C8MKZS2SSv4yyvxpmfSmqO.jpg", "release_date": "2013-02-19", "title": "Senn", "video": false, "vote_average": 5.4, "vote_count": 8, "popularity": 2.579}, {"id": 426251, "video": false, "vote_count": 7, "vote_average": 5.8, "title": "Love After Love", "release_date": "2018-03-30", "original_language": "en", "original_title": "Love After Love", "genre_ids": [18], "backdrop_path": "/h3M01Z1GSQ1odVx8RWKbZqQgRDt.jpg", "adult": false, "overview": "A sixty-something mother and her two adult sons cope and move onward following the death of their larger-than-life father/husband.", "poster_path": "/oiJkS8iRnKRfCmdz7aPMdtjsmHt.jpg", "popularity": 3.276}, {"adult": false, "backdrop_path": "/kOJdLGRsvRqgN74m0P4a9K0hD1O.jpg", "genre_ids": [80, 53], "id": 37191, "original_language": "en", "original_title": "I, the Jury", "overview": "Jack Williams was the best friend of Vietnam veteran and detective Mike Hammer. When Jack is murdered, Mike makes it his business to solve the crime. He is helped by his secretary Velda, and partly helped, partly hindered by the Chief of Police, Pat Chambers. On the trail of the killer, Mike discovers government conspiracies, and plots used by the CIA and the Mafia.", "poster_path": "/nrDU3GkcsPze1yZ2Y3HurKnNDrD.jpg", "release_date": "1982-04-22", "title": "I, the Jury", "video": false, "vote_average": 5.4, "vote_count": 10, "popularity": 4.657}], "total_pages": 1, "total_results": 8}, "credits": {"cast": [{"cast_id": 3, "character": "Ora Blackwood", "credit_id": "58ffaefe92514161b1001ebf", "gender": 1, "id": 1803735, "name": "Teresa Marie Doran", "order": 0, "profile_path": "/pNgfGPz2MljpTFYX5MayCv39QOL.jpg"}, {"cast_id": 5, "character": "Matsudaira Basho", "credit_id": "58ffaf1ac3a3680fcc001fe7", "gender": 2, "id": 112690, "name": "Dan Lin", "order": 1, "profile_path": "/qrQNLd6nHOWCIfDyybbSQZF7bze.jpg"}, {"cast_id": 1, "character": "Haviland Corey", "credit_id": "58ffaee092514161b8001e8b", "gender": 2, "id": 1803733, "name": "Caleb Noel", "order": 2, "profile_path": "/meoVR51PNkXpdWk1dFWgtZGaTNi.jpg"}, {"cast_id": 0, "character": "Avis Tasker", "credit_id": "58ffaea292514161be001e31", "gender": 1, "id": 1079959, "name": "Sari Mercer", "order": 3, "profile_path": "/rxRD764BwwtqcCYQsYSVB9xzw0I.jpg"}, {"cast_id": 7, "character": "Charles Horne", "credit_id": "58ffaf4892514161e8001eb3", "gender": 0, "id": 1803738, "name": "William Aaron", "order": 4, "profile_path": null}, {"cast_id": 2, "character": "Rudyard Corey", "credit_id": "58ffaeee92514161e8001e83", "gender": 2, "id": 1803734, "name": "Miles G. Jackson", "order": 5, "profile_path": "/rnI6ubydNsaMawiZB6r7kEfknXh.jpg"}, {"cast_id": 8, "character": "Professor James Keating", "credit_id": "58ffaf5692514161aa001f7b", "gender": 0, "id": 1803739, "name": "Paul Turcot", "order": 6, "profile_path": null}, {"cast_id": 4, "character": "Mill Child", "credit_id": "58ffaf0ec3a3680fcc001fda", "gender": 0, "id": 1803736, "name": "Kimberly Arcand-Lefort", "order": 7, "profile_path": null}, {"cast_id": 6, "character": "Victorian University Driver", "credit_id": "58ffaf34c3a368103a001f0b", "gender": 0, "id": 1803737, "name": "Michael Turcot", "order": 8, "profile_path": null}], "crew": [{"credit_id": "58ffaf7c92514161e8001ed5", "department": "Directing", "gender": 0, "id": 1803740, "job": "Director", "name": "Sasha Louis Vukovic", "profile_path": null}, {"credit_id": "58ffaf8ec3a3680fcc00201f", "department": "Writing", "gender": 0, "id": 1803740, "job": "Writer", "name": "Sasha Louis Vukovic", "profile_path": null}, {"credit_id": "58ffaf9ec3a3681041001c18", "department": "Production", "gender": 0, "id": 1803740, "job": "Producer", "name": "Sasha Louis Vukovic", "profile_path": null}, {"credit_id": "58ffafab92514161be001eca", "department": "Production", "gender": 1, "id": 1803735, "job": "Associate Producer", "name": "Teresa Marie Doran", "profile_path": "/pNgfGPz2MljpTFYX5MayCv39QOL.jpg"}, {"credit_id": "58ffafbac3a3680fcc00203c", "department": "Production", "gender": 2, "id": 112690, "job": "Executive Producer", "name": "Dan Lin", "profile_path": "/qrQNLd6nHOWCIfDyybbSQZF7bze.jpg"}, {"credit_id": "58ffafc492514161b8001efe", "department": "Production", "gender": 2, "id": 1803733, "job": "Executive Producer", "name": "Caleb Noel", "profile_path": "/meoVR51PNkXpdWk1dFWgtZGaTNi.jpg"}, {"credit_id": "58ffafdd92514161e8001f04", "department": "Production", "gender": 0, "id": 1803741, "job": "Executive Producer", "name": "David Stern", "profile_path": null}, {"credit_id": "58ffaff8c3a3681041001c4b", "department": "Sound", "gender": 0, "id": 1803742, "job": "Music", "name": "Nathan Prillaman", "profile_path": null}, {"credit_id": "58ffb005c3a3680fa7001f90", "department": "Camera", "gender": 0, "id": 1803743, "job": "Director of Photography", "name": "Eric Irvin", "profile_path": null}, {"credit_id": "58ffb012c3a3681036001e93", "department": "Editing", "gender": 0, "id": 1803744, "job": "Editor", "name": "Erica Gulliver", "profile_path": null}, {"credit_id": "58ffb01b92514161b8001f23", "department": "Production", "gender": 1, "id": 1803745, "job": "Casting", "name": "Janelle Snow", "profile_path": "/wWiAQ5dFf1mITqjlqVkpo25zLNq.jpg"}, {"credit_id": "58ffb02892514161b1001f4d", "department": "Art", "gender": 0, "id": 1803740, "job": "Production Design", "name": "Sasha Louis Vukovic", "profile_path": null}, {"credit_id": "58ffb03492514161c6001e86", "department": "Art", "gender": 1, "id": 1803735, "job": "Art Direction", "name": "Teresa Marie Doran", "profile_path": "/pNgfGPz2MljpTFYX5MayCv39QOL.jpg"}, {"credit_id": "58ffb047c3a3680fec002002", "department": "Costume & Make-Up", "gender": 0, "id": 1803746, "job": "Costume Design", "name": "Olivia Ball", "profile_path": null}, {"credit_id": "58ffb057c3a3681041001c81", "department": "Costume & Make-Up", "gender": 0, "id": 1803747, "job": "Makeup Artist", "name": "Alma Lucero Acosta", "profile_path": null}, {"credit_id": "58ffb067c3a368103a001fc3", "department": "Crew", "gender": 0, "id": 1803748, "job": "Post Production Supervisor", "name": "Mitch Cappe", "profile_path": null}, {"credit_id": "58ffb07ac3a3681036001ed2", "department": "Directing", "gender": 1, "id": 1803735, "job": "Assistant Director", "name": "Teresa Marie Doran", "profile_path": "/pNgfGPz2MljpTFYX5MayCv39QOL.jpg"}, {"credit_id": "58ffb090c3a368103a001fdc", "department": "Art", "gender": 1, "id": 1803749, "job": "Set Decoration", "name": "Danielle Fleury", "profile_path": null}, {"credit_id": "58ffb0a5c3a3680fcc0020a7", "department": "Art", "gender": 0, "id": 1803750, "job": "Conceptual Illustrator", "name": "Vincent Turcot", "profile_path": null}, {"credit_id": "58ffb0b292514161be001f5e", "department": "Sound", "gender": 0, "id": 1803751, "job": "Sound Editor", "name": "Jon Lawless", "profile_path": null}, {"credit_id": "58ffb0d3c3a3680fcc0020c3", "department": "Sound", "gender": 0, "id": 1803752, "job": "Sound Recordist", "name": "Alex Loft", "profile_path": null}, {"credit_id": "58ffb0e2c3a3680ffd00205a", "department": "Sound", "gender": 0, "id": 1803753, "job": "Supervising Sound Editor", "name": "Evan Miles", "profile_path": null}, {"credit_id": "58ffb0f592514161be001f88", "department": "Sound", "gender": 0, "id": 1617312, "job": "Sound Designer", "name": "Anne-Marie Ront", "profile_path": null}, {"credit_id": "58ffb10192514161b1001fbd", "department": "Sound", "gender": 0, "id": 1803754, "job": "Sound Editor", "name": "Yoora Seo", "profile_path": null}, {"credit_id": "58ffb10b92514161c6001ef9", "department": "Sound", "gender": 0, "id": 1803755, "job": "Sound Editor", "name": "Kyle Watt", "profile_path": null}, {"credit_id": "58ffb131c3a368103a00202c", "department": "Visual Effects", "gender": 0, "id": 1803756, "job": "Visual Effects Designer", "name": "Lee Ormorod", "profile_path": null}, {"credit_id": "58ffb14fc3a368101e001efc", "department": "Visual Effects", "gender": 0, "id": 1337463, "job": "Visual Effects Designer", "name": "Dave Paterson", "profile_path": null}, {"credit_id": "58ffb15dc3a3681036001f48", "department": "Crew", "gender": 0, "id": 1803752, "job": "Drone Operator", "name": "Alex Loft", "profile_path": null}, {"credit_id": "58ffb16892514161c6001f2e", "department": "Production", "gender": 0, "id": 1803757, "job": "Casting Assistant", "name": "Michael John Lea", "profile_path": null}, {"credit_id": "58ffb176c3a368101e001f1b", "department": "Costume & Make-Up", "gender": 0, "id": 1803747, "job": "Assistant Costume Designer", "name": "Alma Lucero Acosta", "profile_path": null}, {"credit_id": "58ffb1acc3a368103a002078", "department": "Visual Effects", "gender": 0, "id": 1803759, "job": "Color Designer", "name": "Stuart McLeod", "profile_path": null}, {"credit_id": "58ffb1d692514161b8002002", "department": "Sound", "gender": 0, "id": 1803761, "job": "Music Supervisor", "name": "Trevor Bumgarner", "profile_path": null}, {"credit_id": "58ffb204c3a3680ffd0020ed", "department": "Sound", "gender": 0, "id": 1803762, "job": "Recording Supervision", "name": "Michael Dean Parsons", "profile_path": null}, {"credit_id": "58ffb210c3a3680fec0020ef", "department": "Crew", "gender": 0, "id": 1803742, "job": "Score Engineer", "name": "Nathan Prillaman", "profile_path": null}, {"credit_id": "58ffb225c3a3680fcc002186", "department": "Crew", "gender": 0, "id": 1803763, "job": "Production Office Assistant", "name": "Yvonne Sung", "profile_path": null}]}}