{"adult": false, "backdrop_path": null, "belongs_to_collection": null, "budget": 0, "genres": [{"id": 27, "name": "Horror"}], "homepage": null, "id": 45511, "imdb_id": "tt0217086", "original_language": "en", "original_title": "Teacher's Pet", "overview": "Psychopath Debbie Strand escapes from a mental institution for the criminally insane and takes the identity of a co-ed she meets and dies out of fear of Debbie and sets herself up on a college campus where she once again begins killing students and faculty who get in the way with her obsession with her former high school teacher Sam Deckner now teaching at the college.", "popularity": 3.059, "poster_path": "/9NCZNJFEq8FuoXOx9R0yXT7s1XP.jpg", "production_companies": [{"id": 22023, "logo_path": null, "name": "Unapix Entertainment Productions", "origin_country": ""}, {"id": 803, "logo_path": "/jEMVaCuEjQ3lzkhakWDKNVjwd9Q.png", "name": "Alliance Atlantis Communications", "origin_country": ""}], "production_countries": [{"iso_3166_1": "CA", "name": "Canada"}, {"iso_3166_1": "US", "name": "United States of America"}], "release_date": "2000-09-08", "revenue": 0, "runtime": 92, "spoken_languages": [{"iso_639_1": "en", "name": "English"}], "status": "Released", "tagline": "She Gets Whatever She Wants...", "title": "Teacher's Pet", "video": false, "vote_average": 3.7, "vote_count": 6, "keywords": {"keywords": [{"id": 1523, "name": "obsession"}, {"id": 3616, "name": "college"}, {"id": 6593, "name": "stripper"}, {"id": 15127, "name": "killer"}]}, "similar": {"page": 1, "results": [{"adult": false, "backdrop_path": "/rH6NsvJg5hYyRigUZhOWDiahUPV.jpg", "genre_ids": [27, 53], "id": 9877, "original_language": "en", "original_title": "Urban Legend", "overview": "There's a campus killer on the loose who's making urban legends, like the one about eating pop rocks and soda at the same time will make your stomach explode and the one about a psycho with an axe stepping into the backseat of your car at the gas station when not looking, into reality.", "poster_path": "/2oIf0ibr0zlhuhgbOwFSHimh7P6.jpg", "release_date": "1998-09-25", "title": "Urban Legend", "video": false, "vote_average": 5.7, "vote_count": 633, "popularity": 10.225}, {"id": 3600, "video": false, "vote_count": 824, "vote_average": 5.2, "title": "I Still Know What You Did Last Summer", "release_date": "1998-11-13", "original_language": "en", "original_title": "I Still Know What You Did Last Summer", "genre_ids": [27, 9648, 53], "backdrop_path": "/iaFSFtxX02lXsT2zQHiykNSj7YP.jpg", "adult": false, "overview": "Unfinished business with coed Julie James brings the murderer to the Bahamas to terrorize her and her friends, Karla, Tyrell and Will, during a vacation. Can Ray Bronson who survived a bloody attack alongside Julie two summers ago, get to the island in time to save everyone?", "poster_path": "/j4s1TK90tZWZj7lQ84UDJXHI9Kh.jpg", "popularity": 11.64}, {"adult": false, "backdrop_path": "/8DkJrxEyRN8gTseEhajybpC5smK.jpg", "genre_ids": [27], "id": 10585, "original_language": "en", "original_title": "Child's Play", "overview": "A single mother gives her son a beloved doll for his birthday, only to discover that it is possessed by the soul of a serial killer.", "poster_path": "/dSX9i2buibfyKFRpK2kOe6rtl5R.jpg", "release_date": "1988-11-08", "title": "Child's Play", "video": false, "vote_average": 6.5, "vote_count": 1416, "popularity": 20.547}, {"adult": false, "backdrop_path": "/7QjoyyGdBV32x1sEh64dAnNjwg2.jpg", "genre_ids": [53, 35, 27], "id": 12521, "original_language": "en", "original_title": "Shocker", "overview": "After being sent to the electric chair, a serial killer uses electricity to come back from the dead and carry out his vengeance on the football player who turned him in to the police.", "poster_path": "/xEDmOhNGCKlWlS3mCiqLCVzBXVA.jpg", "release_date": "1989-10-27", "title": "Shocker", "video": false, "vote_average": 5.5, "vote_count": 176, "popularity": 10.495}, {"adult": false, "backdrop_path": "/iLvqbCanH1liQ5VERCyCR31GkkL.jpg", "genre_ids": [35, 27, 878], "id": 15762, "original_language": "en", "original_title": "Night of the Creeps", "overview": "In 1959, an alien experiment crashes to earth and infects a fraternity member. They freeze the body, but in the modern day, two geeks pledging a fraternity accidentally thaw the corpse, which proceeds to infect the campus with parasites that transform their hosts into killer zombies.", "poster_path": "/A3s2tQGNb6mhlr1hPZeE5F8IUwp.jpg", "release_date": "1986-08-21", "title": "Night of the Creeps", "video": false, "vote_average": 6.6, "vote_count": 219, "popularity": 10.383}, {"adult": false, "backdrop_path": "/3s1jogOznYmG0xPqHE45D5ir3bx.jpg", "genre_ids": [27, 53, 9648], "id": 3597, "original_language": "en", "original_title": "I Know What You Did Last Summer", "overview": "As they celebrate their high school graduation, four friends are involved in a hit-and-run accident when their car hits and apparently kills a pedestrian on an isolated roadway. They dispose of the body and vow to keep the incident a secret, a year later somebody starts sending them letters bearing the warning \"I Know What You Did Last Summer\".", "poster_path": "/cruOfvjIqMTbOQxld8SpM8OzVnf.jpg", "release_date": "1997-10-17", "title": "I Know What You Did Last Summer", "video": false, "vote_average": 5.8, "vote_count": 1506, "popularity": 15.809}, {"id": 325133, "video": false, "vote_count": 3097, "vote_average": 5.7, "title": "Neighbors 2: Sorority Rising", "release_date": "2016-05-04", "original_language": "en", "original_title": "Neighbors 2: Sorority Rising", "genre_ids": [35], "backdrop_path": "/8HuO1RMDI3prfWDkF7t1y8EhLVO.jpg", "adult": false, "overview": "A sorority moves in next door to the home of Mac and Kelly Radner who have a young child. The Radner's enlist their former nemeses from the fraternity to help battle the raucous sisters.", "poster_path": "/bWUeJHbKIyT306WtJFRHoSzX9nk.jpg", "popularity": 17.21}, {"adult": false, "backdrop_path": "/zfs9QuKkZL6ZCluGvjo5Pk49aMv.jpg", "genre_ids": [27, 9648, 53], "id": 16938, "original_language": "en", "original_title": "Black Christmas", "overview": "A sorority house is terrorized by a stranger who makes frightening phone calls and then murders the sorority sisters during Christmas break.", "poster_path": "/qqO98sdPgptFgCua3Z4uZDuPcmP.jpg", "release_date": "1974-10-11", "title": "Black Christmas", "video": false, "vote_average": 6.9, "vote_count": 307, "popularity": 10.097}, {"adult": false, "backdrop_path": "/4L1MSZo8dQ20x4AhBDKfDs1cOjs.jpg", "genre_ids": [27, 53], "id": 9728, "original_language": "en", "original_title": "Friday the 13th Part III", "overview": "An idyllic summer turns into a nightmare of unspeakable terror for yet another group of naive counselors. Ignoring Camp Crystal Lake's bloody legacy, one by one they fall victim to the maniacal Jason who stalks them at every turn.", "poster_path": "/5wg2NZyIhcMbIBAahBODXHyJ54S.jpg", "release_date": "1982-08-13", "title": "Friday the 13th Part III", "video": false, "vote_average": 5.8, "vote_count": 634, "popularity": 15.501}, {"adult": false, "backdrop_path": "/qr7R4pagFUcmz9ny6Gai9gjlSnn.jpg", "genre_ids": [27], "id": 4488, "original_language": "en", "original_title": "Friday the 13th", "overview": "Camp counselors are stalked and murdered by an unknown assailant while trying to reopen a summer camp that was the site of a child's drowning.", "poster_path": "/mGJlh8oMyTDhfudvs20kFpYz0Yc.jpg", "release_date": "1980-05-09", "title": "Friday the 13th", "video": false, "vote_average": 6.3, "vote_count": 1441, "popularity": 17.092}, {"id": 9373, "video": false, "vote_count": 1414, "vote_average": 6.1, "title": "The Texas Chainsaw Massacre", "release_date": "2003-05-21", "original_language": "en", "original_title": "The Texas Chainsaw Massacre", "genre_ids": [27], "backdrop_path": "/3rTsJ7tIC3LUSRr80PfeLbbCfBA.jpg", "adult": false, "overview": "After picking up a traumatized young hitchhiker, five friends find themselves stalked and hunted by a deformed chainsaw-wielding killer and his family of equally psychopathic killers.", "poster_path": "/gx7FCIOFGxqNyplF3t7qtmUv55g.jpg", "popularity": 19.117}, {"id": 9792, "video": false, "vote_count": 1554, "vote_average": 6.3, "title": "The Hills Have Eyes", "release_date": "2006-03-10", "original_language": "en", "original_title": "The Hills Have Eyes", "genre_ids": [27, 53], "backdrop_path": "/7JmFtKtvgVD0zQ2xPQdUKtTXdeA.jpg", "adult": false, "overview": "Based on Wes Craven's 1977 suspenseful cult classic, The Hills Have Eyes is the story of a family road trip that goes terrifyingly awry when the travelers become stranded in a government atomic zone. Miles from nowhere, the Carter family soon realizes the seemingly uninhabited wasteland is actually the breeding ground of a blood-thirsty mutant family...and they are the prey.", "poster_path": "/hNuqY8h1oBGTnEQK75AH4IwuiPG.jpg", "popularity": 15.649}, {"adult": false, "backdrop_path": "/o4psXh7IVD6GFKvBSHjHLzjL2lV.jpg", "genre_ids": [27, 53], "id": 10781, "original_language": "en", "original_title": "The Texas Chainsaw Massacre: The Beginning", "overview": "Chrissie and her friends set out on a road trip for a final fling before one is shipped off to Vietnam. Along the way, bikers harass the foursome and cause an accident that throws Chrissie from the vehicle. The lawman who arrives on the scene kills one of the bikers and brings Chrissie's friends to the Hewitt homestead, where young Leatherface is learning the tools of terror.", "poster_path": "/9elCJIG1TOJ0wew3JVx5ZMkHq5w.jpg", "release_date": "2006-10-06", "title": "The Texas Chainsaw Massacre: The Beginning", "video": false, "vote_average": 6.0, "vote_count": 936, "popularity": 19.211}, {"id": 440021, "video": false, "vote_count": 3799, "vote_average": 6.6, "title": "Happy Death Day", "release_date": "2017-10-12", "original_language": "en", "original_title": "Happy Death Day", "genre_ids": [27, 9648, 53], "backdrop_path": "/9bjHAkyi3aRRnfrIGhHPu7RATPR.jpg", "adult": false, "overview": "Caught in a bizarre and terrifying time warp, college student Tree finds herself repeatedly reliving the day of her murder, ultimately realizing that she must identify the killer and the reason for her death before her chances of survival run out.", "poster_path": "/cTaEIUYTt52ooq9quVbAQ7NpGwo.jpg", "popularity": 23.642}, {"id": 346364, "video": false, "vote_count": 12548, "vote_average": 7.2, "title": "It", "release_date": "2017-09-06", "original_language": "en", "original_title": "It", "genre_ids": [27], "backdrop_path": "/tcheoA2nPATCm2vvXw2hVQoaEFD.jpg", "adult": false, "overview": "In a small town in Maine, seven children known as The Losers Club come face to face with life problems, bullies and a monster that takes the shape of a clown called Pennywise.", "poster_path": "/9E2y5Q7WlCVNEhP5GiVTjhEhx1o.jpg", "popularity": 27.289}, {"adult": false, "backdrop_path": "/3mEfawlJnuu4OmUlAOesrAMsWv6.jpg", "genre_ids": [53, 27], "id": 9540, "original_language": "en", "original_title": "Dead Ringers", "overview": "Elliot, a successful gynecologist, works at the same practice as his identical twin, Beverly. Elliot is attracted to many of his patients and has affairs with them. When he inevitably loses interest, he will give the woman over to Beverly, the meeker of the two, without the woman knowing the difference. Beverly falls hard for one of the patients, Claire, but when she inadvertently deceives him, he slips into a state of madness.", "poster_path": "/9ZGBwiWIvN9KmHaLeSS5it44G21.jpg", "release_date": "1988-09-23", "title": "Dead Ringers", "video": false, "vote_average": 7.2, "vote_count": 388, "popularity": 10.111}, {"id": 512196, "video": false, "vote_count": 1565, "vote_average": 6.2, "title": "Happy Death Day 2U", "release_date": "2019-02-13", "original_language": "en", "original_title": "Happy Death Day 2U", "genre_ids": [35, 27, 878], "backdrop_path": "/3KdQh3EsjXBSojVydtBQEh5TdAG.jpg", "adult": false, "overview": "Collegian Tree Gelbman wakes up in horror to learn that she's stuck in a parallel universe. Her boyfriend Carter is now with someone else, and her friends and fellow students seem to be completely different versions of themselves. When Tree discovers that Carter's roommate has been altering time, she finds herself once again the target of a masked killer. When the psychopath starts to go after her inner circle, Tree soon realizes that she must die over and over again to save everyone.", "poster_path": "/4tdnePOkOOzwuGPEOAHp8UA4vqx.jpg", "popularity": 23.857}, {"id": 502416, "video": false, "vote_count": 737, "vote_average": 5.6, "title": "Ma", "release_date": "2019-05-29", "original_language": "en", "original_title": "Ma", "genre_ids": [27], "backdrop_path": "/mBOv5YrX5QGr5CusK0PKSHuxOt9.jpg", "adult": false, "overview": "Sue Ann is a loner who keeps to herself in her quiet Ohio town. One day, she is asked by Maggie, a new teenager in town, to buy some booze for her and her friends, and Sue Ann sees the chance to make some unsuspecting, if younger, friends of her own.", "poster_path": "/6n7ASmQ1wY2cxTubFFGlcvPpyk7.jpg", "popularity": 14.313}, {"id": 18392, "video": false, "vote_count": 56, "vote_average": 4.8, "title": "Embrace of the Vampire", "release_date": "1995-05-30", "original_language": "en", "original_title": "Embrace of the Vampire", "genre_ids": [14, 27], "backdrop_path": "/hTTLuS0U6MWK1OuoXrtahc6rYNa.jpg", "adult": false, "overview": "An 18-year-old college freshman is seduced by a handsome vampire lover who introduces her to a dark world of carnal desires.", "poster_path": "/uOxKpn3aY4N6JQy49pKdoIz5STE.jpg", "popularity": 12.886}, {"adult": false, "backdrop_path": "/qqdVRlVCvVWdmSBYrEHwQuC3GBd.jpg", "genre_ids": [27, 53], "id": 371608, "original_language": "en", "original_title": "The Strangers: Prey at Night", "overview": "A family\u2019s road trip takes a dangerous turn when they arrive at a secluded mobile home park to stay with some relatives and find it mysteriously deserted. Under the cover of darkness, three masked psychopaths pay them a visit to test the family\u2019s every limit as they struggle to survive.", "poster_path": "/vdxLpPsZkPZdFrREp7eSeSzcimj.jpg", "release_date": "2018-03-07", "title": "The Strangers: Prey at Night", "video": false, "vote_average": 5.4, "vote_count": 758, "popularity": 16.815}], "total_pages": 250, "total_results": 4991}, "recommendations": {"page": 1, "results": [{"adult": false, "backdrop_path": null, "genre_ids": [], "id": 68306, "original_language": "en", "original_title": "Zombie Cop", "overview": "During a drug raid, a narcotics officer confronts a strange Voodoo priest named Dr. Death, who is chanting. The officer and the priest shoot it out and they both wind up dead. Later, the two rise from their graves and return to the land of the living as zombies. Dr. Death is resurrected with a new mission in mind, to take over the world. The \"zombie\" cop enlists the aid of his old police buddies to stop the mad priest.", "poster_path": "/fej2pjNtgXDCe6PbUavNPUdFKDj.jpg", "release_date": "1991-10-10", "title": "Zombie Cop", "video": false, "vote_average": 1.4, "vote_count": 4, "popularity": 1.824}, {"adult": false, "backdrop_path": "/fGGmmYzR1vay65PTsPnbtTWW2sr.jpg", "genre_ids": [53], "id": 16445, "original_language": "en", "original_title": "The Woods Have Eyes", "overview": "When a group of young campers wander into the backwoods of upstate New York to see if Cappy's Cabin--a place they think exists only in urban legend--is real, they find themselves in a twisted game of predator and prey as night begins to fall. All they have to do is survive until dawn, but Cappy is very, very real, and night has only just begun...", "poster_path": "/1Xox0GyfQkpgv4XDJrAJnFAYUsp.jpg", "release_date": "2007-10-16", "title": "The Woods Have Eyes", "video": false, "vote_average": 4.8, "vote_count": 4, "popularity": 1.816}, {"adult": false, "backdrop_path": null, "genre_ids": [27], "id": 3350, "original_language": "en", "original_title": "Frankenstein Reborn!", "overview": "Thirteen-year-old Anna is intrigued by the secret experiments of her eccentric uncle Victor, but her curiosity soon turns to total terror when she's confronted by Uncle Victor's latest creation - a hideous-looking monster with the soul of a man, stitched together and reanimated from the bodies of the dead.", "poster_path": "/hVryDwkgsUyJaXrV3fMOtrLmcex.jpg", "release_date": "1998-01-01", "title": "Frankenstein Reborn!", "video": false, "vote_average": 4.0, "vote_count": 3, "popularity": 1.918}, {"id": 45431, "video": false, "vote_count": 16, "vote_average": 4.6, "title": "Devil in the Flesh", "release_date": "1998-01-04", "original_language": "en", "original_title": "Devil in the Flesh", "genre_ids": [27, 53], "backdrop_path": "/rQjQ2621Mkzk9mDenOVJLvmxpE7.jpg", "adult": false, "overview": "When her mother is killed in a mysterious house fire, rebellious teen Debbie Strand is sent to live with her grandmother, where she becomes even more unhinged. She develops an intense crush on her hunky creative writing teacher, Peter Rinaldi, but her numerous attempts at seduction end in failure. Soon Peter's friends start turning up dead, and he fears that his fianc\u00e9e, Marilyn, may be Debbie's next victim.", "poster_path": "/4iHUjWUl7dYpPGnwsx30wRXvtZy.jpg", "popularity": 6.86}, {"adult": false, "backdrop_path": "/nItiB0lADeVlXyft3kTVyqAjWEl.jpg", "genre_ids": [27], "id": 18969, "original_language": "en", "original_title": "Demon Hunter", "overview": "After resolving a situation of exorcism, the half-breed demon hunter Jake Greyman (Sean Patrick Flanery) reports to Cardinal White (William Bassett) and they realize that the demon Asmodeus (Billy Drago) is impregnating many mortals trying to raise offspring. Cardinal White calls Sister Sarah Ryan (Colleen Porch) to assist Jake in his hunting for Asmodeus and his women.", "poster_path": "/jaf4DoG7TBDs6O0EkpmnVHxaqQo.jpg", "release_date": "2005-06-01", "title": "Demon Hunter", "video": false, "vote_average": 5.0, "vote_count": 14, "popularity": 4.548}, {"adult": false, "backdrop_path": "/oPrvyOmBZuizflnVvUMo6deb06G.jpg", "genre_ids": [18, 10770], "id": 290188, "original_language": "en", "original_title": "The Brittany Murphy Story", "overview": "A look at Brittany Murphy's rise to Hollywood fame in the 1990s, her struggles with celebrity and self-esteem, and her mysterious death in 2009 at the age of 32.", "poster_path": "/fbJDO3nPgDEa61RuxbEMkrpIwri.jpg", "release_date": "2014-09-06", "title": "The Brittany Murphy Story", "video": false, "vote_average": 3.9, "vote_count": 16, "popularity": 3.206}], "total_pages": 1, "total_results": 6}, "credits": {"cast": [{"cast_id": 11, "character": "Debbie Strand", "credit_id": "52fe46c6c3a36847f81117a7", "gender": 1, "id": 58006, "name": "Jodi Lyn O'Keefe", "order": 0, "profile_path": "/akyVB9tFIjoj3PnrMBRcvzU86k5.jpg"}, {"cast_id": 12, "character": "Sam Deckner", "credit_id": "52fe46c6c3a36847f81117ab", "gender": 2, "id": 13657, "name": "Jsu Garcia", "order": 1, "profile_path": "/wbmmHxDtEMECvgmjwsgGX5HRmsr.jpg"}, {"cast_id": 13, "character": "Carla Briggs", "credit_id": "52fe46c6c3a36847f81117af", "gender": 1, "id": 177114, "name": "Katherine Kendall", "order": 2, "profile_path": "/kbySBoXcZMr3b07Wj6WNsrCgzAB.jpg"}, {"cast_id": 14, "character": "Laney", "credit_id": "52fe46c6c3a36847f81117b3", "gender": 1, "id": 62764, "name": "Jeanette Brox", "order": 3, "profile_path": "/77phRIXQaZvKXugTLwGKvT6DNNH.jpg"}, {"cast_id": 15, "character": "Sydney Hollings", "credit_id": "52fe46c6c3a36847f81117b7", "gender": 0, "id": 1106958, "name": "Christiana Frank", "order": 4, "profile_path": null}, {"cast_id": 16, "character": "Deputy Toby Taylor", "credit_id": "52fe46c6c3a36847f81117bb", "gender": 2, "id": 80220, "name": "Todd Robert Anderson", "order": 5, "profile_path": "/wS3WOVCu8h0Q4gf7mLpRKGHRc1o.jpg"}, {"cast_id": 17, "character": "Sheriff Bill Taylor", "credit_id": "52fe46c6c3a36847f81117bf", "gender": 2, "id": 156052, "name": "Bill Gratton", "order": 6, "profile_path": "/8tfKpQhR3NfSTslqQd7mkGzdkLh.jpg"}, {"cast_id": 18, "character": "Tracy Carley", "credit_id": "52fe46c6c3a36847f81117c3", "gender": 1, "id": 81217, "name": "Sarah Lancaster", "order": 7, "profile_path": "/3eVRyNROorM3wTNp6kvimi9AfYA.jpg"}, {"cast_id": 20, "character": "Drunk", "credit_id": "52fe46c6c3a36847f81117cb", "gender": 2, "id": 168258, "name": "Frank Noon", "order": 9, "profile_path": null}, {"cast_id": 22, "character": "Nigel Danby", "credit_id": "5a1542d692514178cb00b3ff", "gender": 2, "id": 75171, "name": "Rel Hunt", "order": 10, "profile_path": "/fftVLJ5VW6mN9t0uhpqJN3BlRIL.jpg"}, {"cast_id": 23, "character": "Woman in Shack (uncredited)", "credit_id": "5bf9ac40c3a36813a601a402", "gender": 1, "id": 104609, "name": "Lisa Comshaw", "order": 11, "profile_path": "/982CRJ8jOkxJlZTjibj5VBFrfbQ.jpg"}], "crew": [{"credit_id": "52fe46c6c3a36847f811176d", "department": "Directing", "gender": 2, "id": 1002080, "job": "Director", "name": "Marcus Spiegel", "profile_path": null}, {"credit_id": "52fe46c6c3a36847f8111773", "department": "Writing", "gender": 2, "id": 92559, "job": "Writer", "name": "Richard Brandes", "profile_path": null}, {"credit_id": "52fe46c6c3a36847f8111779", "department": "Production", "gender": 2, "id": 60051, "job": "Executive Producer", "name": "Robert E. Baruc", "profile_path": null}, {"credit_id": "52fe46c6c3a36847f811177f", "department": "Production", "gender": 2, "id": 92559, "job": "Producer", "name": "Richard Brandes", "profile_path": null}, {"credit_id": "52fe46c6c3a36847f8111785", "department": "Production", "gender": 2, "id": 59923, "job": "Executive Producer", "name": "Marc Forby", "profile_path": null}, {"credit_id": "52fe46c6c3a36847f811178b", "department": "Production", "gender": 0, "id": 1106957, "job": "Line Producer", "name": "Betsy Mackey", "profile_path": null}, {"credit_id": "52fe46c6c3a36847f8111791", "department": "Production", "gender": 1, "id": 59937, "job": "Producer", "name": "Alicia Reilly Larson", "profile_path": null}, {"credit_id": "52fe46c6c3a36847f8111797", "department": "Sound", "gender": 0, "id": 550893, "job": "Original Music Composer", "name": "Steve Gurevitch", "profile_path": null}, {"credit_id": "52fe46c6c3a36847f81117a3", "department": "Production", "gender": 0, "id": 63459, "job": "Casting", "name": "Aaron Griffith", "profile_path": null}, {"credit_id": "569ae6bec3a36872c000123b", "department": "Camera", "gender": 2, "id": 22119, "job": "Director of Photography", "name": "M. David Mullen", "profile_path": null}]}}