{"adult": false, "backdrop_path": null, "belongs_to_collection": null, "budget": 0, "genres": [{"id": 99, "name": "Documentary"}], "homepage": null, "id": 455265, "imdb_id": "tt7028250", "original_language": "fr", "original_title": "Avant la fin de l'\u00e9t\u00e9", "overview": "After five years studying in Paris, Arash has not adjusted to life there and has decided to return to Iran to live. Hoping to change his mind, his two friends Hossein and Ashkan convince him to take a last trip through France.", "popularity": 0.665, "poster_path": "/5Qm9hkZmC5O2KA7336XG8Q0uclw.jpg", "production_companies": [{"id": 58747, "logo_path": null, "name": "4 \u00e0 4 Productions", "origin_country": ""}, {"id": 85595, "logo_path": "/b7WeslTaEl82WgOywyfWMDwXkWX.png", "name": "Intermezzo Films", "origin_country": "CH"}], "production_countries": [{"iso_3166_1": "CH", "name": "Switzerland"}, {"iso_3166_1": "FR", "name": "France"}], "release_date": "2017-05-18", "revenue": 0, "runtime": 80, "spoken_languages": [{"iso_639_1": "es", "name": "Espa\u00f1ol"}, {"iso_639_1": "fa", "name": "\u0641\u0627\u0631\u0633\u06cc"}, {"iso_639_1": "fr", "name": "Fran\u00e7ais"}], "status": "Released", "tagline": "", "title": "Before Summer Ends", "video": false, "vote_average": 6.7, "vote_count": 6, "keywords": {"keywords": [{"id": 254, "name": "france"}, {"id": 1284, "name": "identity"}, {"id": 18009, "name": "iran"}, {"id": 187056, "name": "woman director"}]}, "similar": {"page": 1, "results": [{"id": 616584, "video": false, "vote_count": 92, "vote_average": 7.5, "title": "K-12", "release_date": "2019-09-05", "original_language": "en", "original_title": "K-12", "genre_ids": [14, 27, 10402], "backdrop_path": "/fSlfaF0Ydfr2SK6hOYHvDsb7a9Z.jpg", "adult": false, "overview": "Cry Baby, a strong and sensitive girl, is sent off to a disturbing sleepaway school that\u2019s hidden underneath a grandiose fa\u00e7ade. Luckily, she has a sweet and unapologetic best friend who sticks up for her when she gets bullied by the other students whose brains are under control by the Principal and his wicked staff. With the help of the magical friends they meet along the way, as well as an Angelic Spirit Guide, they are able to gain the strength they need to fight off the school\u2019s belligerent patriarchal conditioning.", "poster_path": "/nVi0yBBPj5Z96JgGWVIg94kv7bR.jpg", "popularity": 15.107}, {"id": 9813, "video": false, "vote_count": 128, "vote_average": 6.1, "title": "The Quiet", "release_date": "2005-09-12", "original_language": "en", "original_title": "The Quiet", "genre_ids": [18, 53], "backdrop_path": "/6eyWAZA4CEidZW1xXnQ4vlYBXTP.jpg", "adult": false, "overview": "After her widowed father dies, deaf teenager Dot moves in with her godparents, Olivia and Paul Deer. The Deers' daughter, Nina, is openly hostile to Dot, but that does not prevent her from telling her secrets to her silent stepsister, including the fact that she wants to kill her lecherous father.", "poster_path": "/GEqIE9YlmygHVUfS64LW2cwAAM.jpg", "popularity": 14.844}, {"id": 326359, "video": false, "vote_count": 1180, "vote_average": 6.8, "title": "Frozen Fever", "release_date": "2015-03-09", "original_language": "en", "original_title": "Frozen Fever", "genre_ids": [12, 16, 10751], "backdrop_path": "/ubioPGniCfDiASmYYpeJs5RRNaC.jpg", "adult": false, "overview": "On Anna's birthday, Elsa and Kristoff are determined to give her the best celebration ever, but Elsa's icy powers may put more than just the party at risk.", "poster_path": "/lKJiVPzsAO9IJ4LKWXZ8vkR2bg4.jpg", "popularity": 17.218}, {"id": 297762, "video": false, "vote_count": 13722, "vote_average": 7.3, "title": "Wonder Woman", "release_date": "2017-05-30", "original_language": "en", "original_title": "Wonder Woman", "genre_ids": [28, 12, 14], "backdrop_path": "/6iUNJZymJBMXXriQyFZfLAKnjO6.jpg", "adult": false, "overview": "An Amazon princess comes to the world of Man in the grips of the First World War to confront the forces of evil and bring an end to human conflict.", "poster_path": "/gfJGlDaHuWimErCr5Ql0I8x9QSy.jpg", "popularity": 44.687}, {"id": 621733, "video": false, "vote_count": 0, "vote_average": 0.0, "title": "A Trip to the Seaside", "release_date": "2019-08-30", "original_language": "en", "original_title": "A Trip to the Seaside", "genre_ids": [99], "backdrop_path": null, "adult": false, "overview": "Experimental short film on the excitement and rush of a day trip", "poster_path": "/AuZVhpoJ4jm2LWDhoJKfxQfhDAi.jpg", "popularity": 1.324}, {"adult": false, "backdrop_path": null, "genre_ids": [], "id": 616262, "original_language": "ar", "original_title": "All Come From Dust", "overview": "A loop of edgeless bend. You were its doom, he was its bloom. You were its tomb, he was its womb. You were its gloom, he was its loom. For Heaven and Hell, were words made of fume.", "poster_path": null, "release_date": "2019-08-13", "title": "All Come From Dust", "video": false, "vote_average": 5.0, "vote_count": 1, "popularity": 0.6}, {"id": 23398, "video": false, "vote_count": 1716, "vote_average": 5.5, "title": "Alvin and the Chipmunks: The Squeakquel", "release_date": "2009-12-21", "original_language": "en", "original_title": "Alvin and the Chipmunks: The Squeakquel", "genre_ids": [16, 35, 14, 10402, 10751], "backdrop_path": "/ukeQ5NshIaedd0s7qXED5aqPpZ5.jpg", "adult": false, "overview": "Pop sensations Alvin, Simon and Theodore end up in the care of Dave Seville's twenty-something nephew Toby. The boys must put aside music super stardom to return to school, and are tasked with saving the school's music program by winning the $25,000 prize in a battle of the bands. But the Chipmunks unexpectedly meet their match in three singing chipmunks known as The Chipettes - Brittany, Eleanor and Jeanette. Romantic and musical sparks are ignited when the Chipmunks and Chipettes square off.", "poster_path": "/8mdPqOga5fty15nXmaNcK1fsNMa.jpg", "popularity": 16.4}, {"adult": false, "backdrop_path": "/caLMOD3ZJ3V7qjlxDXrzlJfBLgD.jpg", "genre_ids": [18, 10749], "id": 20, "original_language": "en", "original_title": "My Life Without Me", "overview": "A Pedro Almodovar production in which a fatally ill mother with only two months to live creates a list of things she wants to do before she dies with out telling her family of her illness.", "poster_path": "/vVj92VBFUBzjqzLvBiPVVlJDp78.jpg", "release_date": "2003-03-07", "title": "My Life Without Me", "video": false, "vote_average": 6.1, "vote_count": 220, "popularity": 10.382}, {"adult": false, "backdrop_path": "/8nvayG5l0urcjvvpszoECDqLWzD.jpg", "genre_ids": [18, 53, 80, 9648], "id": 186, "original_language": "en", "original_title": "Lucky Number Slevin", "overview": "Slevin is mistakenly put in the middle of a personal war between the city\u2019s biggest criminal bosses. Under constant watch, Slevin must try not to get killed by an infamous assassin and come up with an idea of how to get out of his current dilemma. A film with many twists and turns.", "poster_path": "/jtKq0EtothAzWlnRBBWGCA8uFuu.jpg", "release_date": "2006-02-24", "title": "Lucky Number Slevin", "video": false, "vote_average": 7.5, "vote_count": 2480, "popularity": 14.28}, {"adult": false, "backdrop_path": "/xC9cG6Wy6QbH2hoAx11xPPD995R.jpg", "genre_ids": [18, 10749], "id": 86331, "original_language": "fr", "original_title": "Q", "overview": "In a social context deteriorated by a countrywide economic crisis, the life of several people will be turned upside down after they meet Cecile, a character who symbolizes desire.", "poster_path": "/9Jg9s4yTEndNmy1SSXRF9jdxY9D.jpg", "release_date": "2011-09-14", "title": "Desire", "video": false, "vote_average": 4.6, "vote_count": 204, "popularity": 25.756}, {"id": 9603, "video": false, "vote_count": 2178, "vote_average": 7.2, "title": "Clueless", "release_date": "1995-07-19", "original_language": "en", "original_title": "Clueless", "genre_ids": [35, 10749], "backdrop_path": "/pmE7AXRn2X0PVVHvcZ5uvxJfN2R.jpg", "adult": false, "overview": "Shallow, rich and socially successful Cher is at the top of her Beverly Hills high school's pecking scale. Seeing herself as a matchmaker, Cher first coaxes two teachers into dating each other. Emboldened by her success, she decides to give hopelessly klutzy new student Tai a makeover. When Tai becomes more popular than she is, Cher realizes that her disapproving ex-stepbrother was right about how misguided she was -- and falls for him.", "poster_path": "/i8gEHh2sszB6YWLC0jl559sxAeN.jpg", "popularity": 20.836}, {"adult": false, "backdrop_path": "/3bO3b2wYCANInuzzvTlwXSsJT3N.jpg", "genre_ids": [35, 10751], "id": 9820, "original_language": "en", "original_title": "The Parent Trap", "overview": "Hallie Parker and Annie James are identical twins separated at a young age because of their parents' divorce. unknowingly to their parents, the girls are sent to the same summer camp where they meet, discover the truth about themselves, and then plot with each other to switch places. Hallie meets her mother, and Annie meets her father for the first time in years.", "poster_path": "/7vR4e3ga3mdSEpYe8kMeUv3mgND.jpg", "release_date": "1998-07-28", "title": "The Parent Trap", "video": false, "vote_average": 7.0, "vote_count": 2061, "popularity": 21.805}, {"id": 466282, "video": false, "vote_count": 5270, "vote_average": 7.9, "title": "To All the Boys I've Loved Before", "release_date": "2018-08-16", "original_language": "en", "original_title": "To All the Boys I've Loved Before", "genre_ids": [35, 10749], "backdrop_path": "/uZTtVdOEIwPA6vwVRI3217DoPM.jpg", "adult": false, "overview": "Lara Jean's love life goes from imaginary to out of control when her secret letters to every boy she's ever fallen for are mysteriously mailed out.", "poster_path": "/hKHZhUbIyUAjcSrqJThFGYIR6kI.jpg", "popularity": 35.427}, {"adult": false, "backdrop_path": "/bQW1TnxHlmkWof0vsALj4HBkoxj.jpg", "genre_ids": [18, 10749], "id": 51828, "original_language": "en", "original_title": "One Day", "overview": "A romantic comedy centered on Dexter and Emma, who first meet during their graduation in 1988 and proceed to keep in touch regularly. The film follows what they do on July 15 annually, usually doing something together.", "poster_path": "/xzOz17yC3K6SZWtWylXimcHUqpD.jpg", "release_date": "2011-03-02", "title": "One Day", "video": false, "vote_average": 7.2, "vote_count": 2343, "popularity": 16.744}, {"id": 9837, "video": false, "vote_count": 2194, "vote_average": 7.1, "title": "The Prince of Egypt", "release_date": "1998-12-15", "original_language": "en", "original_title": "The Prince of Egypt", "genre_ids": [12, 16, 35, 18, 10402, 10751], "backdrop_path": "/1yB6o6L5DLteeraLhz5Q0buBm6i.jpg", "adult": false, "overview": "This is the extraordinary tale of two brothers named Moses and Ramses, one born of royal blood, and one an orphan with a secret past. Growing up the best of friends, they share a strong bond of free-spirited youth and good-natured rivalry. But the truth will ultimately set them at odds, as one becomes the ruler of the most powerful empire on earth, and the other the chosen leader of his people! Their final confrontation will forever change their lives and the world.", "poster_path": "/wD34ls2faCrj8YvFViEaPfBtBEe.jpg", "popularity": 23.613}, {"id": 483411, "video": false, "vote_count": 48, "vote_average": 6.4, "title": "Ladies in Black", "release_date": "2018-10-18", "original_language": "en", "original_title": "Ladies in Black", "genre_ids": [35, 18], "backdrop_path": "/gIkqcEqz0rj6rK1knYAOoXpwA3y.jpg", "adult": false, "overview": "Adapted from the bestselling novel by Madeleine St John, Ladies in Black is an alluring and tender-hearted comedy drama about the lives of a group of department store employees in 1959 Sydney.", "poster_path": "/sIC0Y0dGLnxbdCksftZ38FZ2c61.jpg", "popularity": 7.782}, {"id": 140300, "video": false, "vote_count": 3210, "vote_average": 6.7, "title": "Kung Fu Panda 3", "release_date": "2016-01-23", "original_language": "en", "original_title": "Kung Fu Panda 3", "genre_ids": [28, 12, 16, 35, 10751], "backdrop_path": "/eHWmEUP4fa7h1Fe7TXfTL7ncDl8.jpg", "adult": false, "overview": "Continuing his \"legendary adventures of awesomeness\", Po must face two hugely epic, but different threats: one supernatural and the other a little closer to his home.", "poster_path": "/MZFPacfKzgisnPoJIPEFZUXBBT.jpg", "popularity": 30.681}, {"id": 438799, "video": false, "vote_count": 1395, "vote_average": 6.6, "title": "Overlord", "release_date": "2018-11-01", "original_language": "en", "original_title": "Overlord", "genre_ids": [27, 878, 10752], "backdrop_path": "/sHNC8hjAu4ZKXYhG3cp8ghRZ02B.jpg", "adult": false, "overview": "France, June 1944. On the eve of D-Day, some American paratroopers fall behind enemy lines after their aircraft crashes while on a mission to destroy a radio tower in a small village near the beaches of Normandy. After reaching their target, the surviving paratroopers realise that, in addition to fighting the Nazi troops that patrol the village, they also must fight against something else.", "poster_path": "/l76Rgp32z2UxjULApxGXAPpYdAP.jpg", "popularity": 21.552}, {"id": 9762, "video": false, "vote_count": 2460, "vote_average": 6.8, "title": "Step Up", "release_date": "2006-08-11", "original_language": "en", "original_title": "Step Up", "genre_ids": [80, 18, 10402, 10749], "backdrop_path": "/sKD3PfyP1u4tcoVQkpiAZqnx4H8.jpg", "adult": false, "overview": "Everyone deserves a chance to follow their dreams, but some people only get one shot. Tyler Gage is a rebel from the wrong side of Baltimore's tracks and the only thing that stands between him and an unfulfilled life are his dreams of one day making it out of there. Nora is a privileged ballet dancer attending Baltimore's ultra-elite Maryland School of the Arts", "poster_path": "/gyLww7ZlcwuzqvIwM1osR9Ioqtm.jpg", "popularity": 22.316}, {"id": 1089, "video": false, "vote_count": 1819, "vote_average": 7.1, "title": "Point Break", "release_date": "1991-07-12", "original_language": "en", "original_title": "Point Break", "genre_ids": [28, 80, 53], "backdrop_path": "/b6lTtyq6o4k10CEMnblFBPiaH6t.jpg", "adult": false, "overview": "In Los Angeles, a gang of bank robbers call themselves The Ex-Presidents commit their crimes while wearing masks of Reagan, Carter, Nixon and Johnson. The F.B.I. believes that the members of the gang could be surfers and send young agent Johnny Utah undercover at the beach to mix with the surfers and gather information.", "poster_path": "/eGSfqknufcsXmM2Rb59H9SiNd4T.jpg", "popularity": 18.44}], "total_pages": 1227, "total_results": 24533}, "recommendations": {"page": 1, "results": [], "total_pages": 1, "total_results": 0}, "credits": {"cast": [], "crew": [{"credit_id": "5905df75c3a3684af001bac4", "department": "Directing", "gender": 1, "id": 1807329, "job": "Director", "name": "Maryam Goormaghtigh", "profile_path": "/yyeANXzZX33dkEDGApBAcEPTCnL.jpg"}]}}