{"adult": false, "backdrop_path": "/zEbetTmUKMUFxMIXN5nS47qCwtY.jpg", "belongs_to_collection": null, "budget": 0, "genres": [{"id": 18, "name": "Drama"}], "homepage": null, "id": 45592, "imdb_id": "tt0060410", "original_language": "en", "original_title": "Film", "overview": "A twenty-minute, almost totally silent film (no dialogue or music, one 'shhh!') in which Buster Keaton attempts to evade observation by an all-seeing eye. But, as the film is based around Bishop Berkeley's principle 'esse est percipi' (to be is to be perceived), Keaton's very existence conspires against his efforts. This was Samuel Beckett's only venture into the medium of cinema.", "popularity": 2.935, "poster_path": "/tPkgBEpq1Rx7wcTFEjZFRhbTLrd.jpg", "production_companies": [{"id": 55218, "logo_path": null, "name": "Evergreen", "origin_country": ""}], "production_countries": [{"iso_3166_1": "US", "name": "United States of America"}], "release_date": "1965-09-04", "revenue": 0, "runtime": 20, "spoken_languages": [{"iso_639_1": "xx", "name": "No Language"}], "status": "Released", "tagline": "", "title": "Film", "video": false, "vote_average": 6.9, "vote_count": 24, "keywords": {"keywords": [{"id": 154802, "name": "silent film"}]}, "similar": {"page": 1, "results": [{"id": 901, "video": false, "vote_count": 1026, "vote_average": 8.4, "title": "City Lights", "release_date": "1931-02-01", "original_language": "xx", "original_title": "City Lights", "genre_ids": [35, 18, 10749], "backdrop_path": "/vT6ux2rdyg2kexuLisO5Ygz7pHg.jpg", "adult": false, "overview": "City Lights is the first silent film that Charlie Chaplin directed after he established himself with sound accompanied films. The film is about a penniless man who falls in love with a flower girl.", "poster_path": "/bXNvzjULc9jrOVhGfjcc64uKZmZ.jpg", "popularity": 14.645}, {"adult": false, "backdrop_path": "/hPByrqJXCXIViFheXQh48wtI7T6.jpg", "genre_ids": [16, 12, 14, 10751], "id": 31135, "original_language": "en", "original_title": "Mickey Mouse: Mickey and the Beanstalk", "overview": "Based on the timeless adventures of \"Jack and the Beanstalk,\" Mickey, Donald and Goofy climb a fantastic beanstalk up into the sky to a place where everything is huge -- the food, the castle and the fearsome giant named Willy who guards a beautiful golden harp! Will Mickey and his friends outwit the giant and make it safely back home?", "poster_path": "/kk1Xg1f1lv6loekjlKinpKJlGOu.jpg", "release_date": "1947-09-27", "title": "Mickey Mouse: Mickey and the Beanstalk", "video": false, "vote_average": 6.7, "vote_count": 166, "popularity": 13.649}, {"adult": false, "backdrop_path": "/wcT7srQ4GeeMqlszMFEtPZ7v8T7.jpg", "genre_ids": [35, 10749], "id": 28978, "original_language": "en", "original_title": "The Circus", "overview": "Charlie, a wandering tramp, becomes a circus handyman and falls in love with the circus owner's daughter. Unaware of Charlie's affection, the girl falls in love with a handsome young performer. Charlie's versatility makes him star of the show when he substitutes for an ailing tightwire walker. He is discharged from the company when he protects the girl from her father's abuse, but he returns and appeals to the handsome performer to marry the girl. After the wedding the father prevails upon them to rejoin the circus. Charlie is hired again, but he stays behind when the caravan moves on.", "poster_path": "/awTf4Y6TGvgi3VYtGNINyyJJy9Q.jpg", "release_date": "1928-01-06", "title": "The Circus", "video": false, "vote_average": 8.2, "vote_count": 330, "popularity": 12.839}, {"id": 157336, "video": false, "vote_count": 20609, "vote_average": 8.3, "title": "Interstellar", "release_date": "2014-11-05", "original_language": "en", "original_title": "Interstellar", "genre_ids": [12, 18, 878], "backdrop_path": "/xu9zaAevzQ5nnrsXN6JcahLnG4i.jpg", "adult": false, "overview": "Interstellar chronicles the adventures of a group of explorers who make use of a newly discovered wormhole to surpass the limitations on human space travel and conquer the vast distances involved in an interstellar voyage.", "poster_path": "/nBNZadXqJSdt05SHLqgT0HuC5Gm.jpg", "popularity": 53.312}, {"id": 369972, "video": false, "vote_count": 3001, "vote_average": 7.1, "title": "First Man", "release_date": "2018-10-11", "original_language": "en", "original_title": "First Man", "genre_ids": [18, 36], "backdrop_path": "/jrudoaXcoLyHRPdolyOGemXgPEs.jpg", "adult": false, "overview": "A look at the life of the astronaut, Neil Armstrong, and the legendary space mission that led him to become the first man to walk on the Moon on July 20, 1969.", "poster_path": "/i91mfvFcPPlaegcbOyjGgiWfZzh.jpg", "popularity": 27.464}, {"id": 155, "video": false, "vote_count": 20760, "vote_average": 8.4, "title": "The Dark Knight", "release_date": "2008-07-16", "original_language": "en", "original_title": "The Dark Knight", "genre_ids": [28, 80, 18, 53], "backdrop_path": "/hqkIcbrOHL86UncnHIsHVcVmzue.jpg", "adult": false, "overview": "Batman raises the stakes in his war on crime. With the help of Lt. Jim Gordon and District Attorney Harvey Dent, Batman sets out to dismantle the remaining criminal organizations that plague the streets. The partnership proves to be effective, but they soon find themselves prey to a reign of chaos unleashed by a rising criminal mastermind known to the terrified citizens of Gotham as the Joker.", "poster_path": "/pKKvCaL1TPTVtbI6EeliyND3api.jpg", "popularity": 43.746}, {"id": 19, "video": false, "vote_count": 1340, "vote_average": 8.2, "title": "Metropolis", "release_date": "1927-01-10", "original_language": "de", "original_title": "Metropolis", "genre_ids": [18, 878], "backdrop_path": "/gmH0N0bdlYGN1EUr8U2cMQYyg78.jpg", "adult": false, "overview": "In a futuristic city sharply divided between the working class and the city planners, the son of the city's mastermind falls in love with a working class prophet who predicts the coming of a savior to mediate their differences.", "poster_path": "/qriaeUUwdmlgethK3aSAx68mG05.jpg", "popularity": 20.587}, {"id": 1585, "video": false, "vote_count": 2261, "vote_average": 8.2, "title": "It's a Wonderful Life", "release_date": "1946-12-20", "original_language": "en", "original_title": "It's a Wonderful Life", "genre_ids": [18, 14, 10751], "backdrop_path": "/nMomMy1sD3SN2QsKop3zBXCJfDJ.jpg", "adult": false, "overview": "A holiday favourite for generations...  George Bailey has spent his entire life giving to the people of Bedford Falls.  All that prevents rich skinflint Mr. Potter from taking over the entire town is George's modest building and loan company.  But on Christmas Eve the business's $8,000 is lost and George's troubles begin.", "poster_path": "/bSqt9rhDZx1Q7UZ86dBPKdNomp2.jpg", "popularity": 30.622}, {"adult": false, "backdrop_path": "/tr6OExnBfjLADi9OyZoW308mPAp.jpg", "genre_ids": [18, 35, 10749], "id": 74643, "original_language": "en", "original_title": "The Artist", "overview": "Hollywood, 1927: As silent movie star George Valentin wonders if the arrival of talking pictures will cause him to fade into oblivion, he sparks with Peppy Miller, a young dancer set for a big break.", "poster_path": "/i0mpvMIIjyubXsVKug9vX0lYpnd.jpg", "release_date": "2011-06-26", "title": "The Artist", "video": false, "vote_average": 7.4, "vote_count": 1977, "popularity": 10.661}, {"id": 568, "video": false, "vote_count": 3185, "vote_average": 7.4, "title": "Apollo 13", "release_date": "1995-06-30", "original_language": "en", "original_title": "Apollo 13", "genre_ids": [18, 36], "backdrop_path": "/yiNo78Sx3uioxKwHuCVjnAu8ZHv.jpg", "adult": false, "overview": "The true story of technical troubles that scuttle the Apollo 13 lunar mission in 1971, risking the lives of astronaut Jim Lovell and his crew, with the failed journey turning into a thrilling saga of heroism. Drifting more than 200,000 miles from Earth, the astronauts work furiously with the ground crew to avert tragedy.", "poster_path": "/6JQ9z3V9x4vlU2GSZx2yNO0PvuX.jpg", "popularity": 35.051}, {"adult": false, "backdrop_path": "/xqQztbT6KlPLQLlRtNHoXivEMZA.jpg", "genre_ids": [18, 10749, 53], "id": 597, "original_language": "en", "original_title": "Titanic", "overview": "101-year-old Rose DeWitt Bukater tells the story of her life aboard the Titanic, 84 years later. A young Rose boards the ship with her mother and fianc\u00e9. Meanwhile, Jack Dawson and Fabrizio De Rossi win third-class tickets aboard the ship. Rose tells the whole story from Titanic's departure through to its death\u2014on its first and last voyage\u2014on April 15, 1912.", "poster_path": "/kHXEpyfl6zqn8a6YuozZUujufXf.jpg", "release_date": "1997-11-18", "title": "Titanic", "video": false, "vote_average": 7.8, "vote_count": 15731, "popularity": 44.898}, {"id": 49026, "video": false, "vote_count": 15150, "vote_average": 7.7, "title": "The Dark Knight Rises", "release_date": "2012-07-16", "original_language": "en", "original_title": "The Dark Knight Rises", "genre_ids": [28, 80, 18, 53], "backdrop_path": "/f6ljQGv7WnJuwBPty017oPWfqjx.jpg", "adult": false, "overview": "Following the death of District Attorney Harvey Dent, Batman assumes responsibility for Dent's crimes to protect the late attorney's reputation and is subsequently hunted by the Gotham City Police Department. Eight years later, Batman encounters the mysterious Selina Kyle and the villainous Bane, a new terrorist leader who overwhelms Gotham's finest. The Dark Knight resurfaces to protect a city that has branded him an enemy.", "poster_path": "/dEYnvnUfXrqvqeRSqvIEtmzhoA8.jpg", "popularity": 43.144}, {"id": 374720, "video": false, "vote_count": 10120, "vote_average": 7.4, "title": "Dunkirk", "release_date": "2017-07-19", "original_language": "en", "original_title": "Dunkirk", "genre_ids": [28, 18, 10752], "backdrop_path": "/fudEG1VUWuOqleXv6NwCExK0VLy.jpg", "adult": false, "overview": "The story of the miraculous evacuation of Allied soldiers from Belgium, Britain, Canada and France, who were cut off and surrounded by the German army from the beaches and harbour of Dunkirk between May 26th and June 4th 1940 during World War II.", "poster_path": "/bOXBV303Fgkzn2K4FeKDc0O31q4.jpg", "popularity": 28.538}, {"adult": false, "backdrop_path": "/gt7HbwIA5xS1s8jrjy18t3Pfnvz.jpg", "genre_ids": [18], "id": 705, "original_language": "en", "original_title": "All About Eve", "overview": "From the moment she glimpses her idol at the stage door, Eve Harrington is determined to take the reins of power away from the great actress Margo Channing. Eve maneuvers her way into Margo's Broadway role, becomes a sensation and even causes turmoil in the lives of Margo's director boyfriend, her playwright and his wife. Only the cynical drama critic sees through Eve, admiring her audacity and perfect pattern of deceit.", "poster_path": "/6numIZH6uR3NlJgY9m7nGH0jhs.jpg", "release_date": "1950-10-06", "title": "All About Eve", "video": false, "vote_average": 8.2, "vote_count": 785, "popularity": 16.618}, {"adult": false, "backdrop_path": "/twGxeStlGooWV3gP6ZIcSNuQ6jf.jpg", "genre_ids": [12, 16, 10751, 14], "id": 81684, "original_language": "en", "original_title": "The Gruffalo's Child", "overview": "A follow up to the 2009 animated feature and adapted from the childrens' book by Julia Donaldson and Alex Scheffler.  The Gruffalo's child explores the deep dark wood in search of the big bad mouse and meets the Snake, Owl and Fox in the process.  She eventually finds the mouse, who manages to outwit her like the Gruffalo before!", "poster_path": "/qaGH2AoaLvoGXURQtNzj1nw6oZd.jpg", "release_date": "2011-12-25", "title": "The Gruffalo's Child", "video": false, "vote_average": 6.9, "vote_count": 73, "popularity": 9.51}, {"id": 621485, "video": false, "vote_count": 2, "vote_average": 5.5, "title": "Guest of Honor", "release_date": "2019-08-14", "original_language": "en", "original_title": "Guest of Honor", "genre_ids": [18], "backdrop_path": "/qo3f05mAqiGG5yDyVhURwwhR1oh.jpg", "adult": false, "overview": "A devout Nazi oversees a group of taste testers for Hitler.", "poster_path": "/g02YorY0sAVDJuXdL42Vpmqtv0g.jpg", "popularity": 3.407}, {"adult": false, "backdrop_path": null, "genre_ids": [], "id": 616262, "original_language": "ar", "original_title": "All Come From Dust", "overview": "A loop of edgeless bend. You were its doom, he was its bloom. You were its tomb, he was its womb. You were its gloom, he was its loom. For Heaven and Hell, were words made of fume.", "poster_path": null, "release_date": "2019-08-13", "title": "All Come From Dust", "video": false, "vote_average": 5.0, "vote_count": 1, "popularity": 0.6}, {"id": 621733, "video": false, "vote_count": 0, "vote_average": 0.0, "title": "A Trip to the Seaside", "release_date": "2019-08-30", "original_language": "en", "original_title": "A Trip to the Seaside", "genre_ids": [99], "backdrop_path": null, "adult": false, "overview": "Experimental short film on the excitement and rush of a day trip", "poster_path": "/AuZVhpoJ4jm2LWDhoJKfxQfhDAi.jpg", "popularity": 1.324}, {"id": 240832, "video": false, "vote_count": 10811, "vote_average": 6.3, "title": "Lucy", "release_date": "2014-07-25", "original_language": "en", "original_title": "Lucy", "genre_ids": [28, 878], "backdrop_path": "/eCgIoGvfNXrbSiQGqQHccuHjQHm.jpg", "adult": false, "overview": "A woman, accidentally caught in a dark deal, turns the tables on her captors and transforms into a merciless warrior evolved beyond human logic.", "poster_path": "/rwn876MeqienhOVSSjtUPnwxn0Z.jpg", "popularity": 26.958}, {"id": 828, "video": false, "vote_count": 557, "vote_average": 7.5, "title": "The Day the Earth Stood Still", "release_date": "1951-09-17", "original_language": "en", "original_title": "The Day the Earth Stood Still", "genre_ids": [878], "backdrop_path": "/uExEupzfV7Ffau0H98aefUU0zcG.jpg", "adult": false, "overview": "An alien and a robot land on earth after World War II and tell mankind to be peaceful or face destruction. A classic science fiction film from Robert Wise with an exceptional message.", "poster_path": "/x2DquTpLTq54aPFDnqlwY7apCC3.jpg", "popularity": 30.427}], "total_pages": 830, "total_results": 16596}, "recommendations": {"page": 1, "results": [{"adult": false, "backdrop_path": null, "genre_ids": [16], "id": 18953, "original_language": "cs", "original_title": "Et Cetera", "overview": "A small, animated figure learns how to use a whip, a pair of wings and a house.", "poster_path": null, "release_date": "1966-07-01", "title": "Et Cetera", "video": false, "vote_average": 6.0, "vote_count": 15, "popularity": 1.002}, {"adult": false, "backdrop_path": null, "genre_ids": [], "id": 145033, "original_language": "en", "original_title": "The Dead", "overview": "An experimental short film from Stan Brakhage.", "poster_path": "/3QDL79FTJjm6FZg1HCjRXkhOyZf.jpg", "release_date": "1960-12-31", "title": "The Dead", "video": false, "vote_average": 4.4, "vote_count": 10, "popularity": 2.586}, {"id": 144694, "video": false, "vote_count": 17, "vote_average": 6.9, "title": "The Vampire", "release_date": "1945-12-31", "original_language": "fr", "original_title": "Le vampire", "genre_ids": [99], "backdrop_path": null, "adult": false, "overview": "After a look at some strange creatures, the narrator and camera take us to the Chaco forest, on the borders of Paraguay, Argentina, and Brazil, where a vampire bat lives, desmodus rotondus, attacking wildlife and domesticated creatures, killing small ones by draining all their blood and killing large ones by leaving a parasite in their bloodstream. Four inches long, with a 12-inch wingspread, we see it walk, approach a victim, pull out a patch of fur large enough for it to engage its teeth, then lap six or seven ounces of blood. Its saliva may be an anesthetic keeping its victims from waking. A stub nose and harelip contribute to its efficiency and its hideous look.", "poster_path": "/az478qHIo2nYAzKVms0wj4efdBE.jpg", "popularity": 1.851}, {"adult": false, "backdrop_path": "/lQ6RH9seB0glVjYxDYMlDLp3GTP.jpg", "genre_ids": [99], "id": 135318, "original_language": "fr", "original_title": "Emak-Bakia", "overview": "Emak-Bakia (Basque for Leave me alone) is a 1926 film directed by Man Ray. Subtitled as a cin\u00e9po\u00e9me, it features many techniques Man Ray used in his still photography (for which he is better known), including Rayographs, double exposure, soft focus and ambiguous features. The film features sculptures by Pablo Picasso, and some of Man Ray's mathematical objects both still and animated using a stop motion technique.", "poster_path": "/3m4hl12C7sGpe9ykLnAXlyxm1DA.jpg", "release_date": "1926-07-26", "title": "Emak-Bakia", "video": false, "vote_average": 7.2, "vote_count": 24, "popularity": 1.192}, {"id": 104342, "video": false, "vote_count": 10, "vote_average": 7.1, "title": "The Last Theft", "release_date": "1987-01-02", "original_language": "cs", "original_title": "Posledn\u00ed lup", "genre_ids": [16, 80], "backdrop_path": null, "adult": false, "overview": "A man breaks into a large, seemingly abandoned old house to plunder the gold received. But the house is really abandoned?", "poster_path": "/9KDqakVdgdW6NwKN64sQSK4PFy.jpg", "popularity": 1.492}, {"adult": false, "backdrop_path": null, "genre_ids": [], "id": 144943, "original_language": "en", "original_title": "The Machine of Eden", "overview": "Short film from Stan Brakhage", "poster_path": "/hpQ8vy0trlbfeVeqXHblnwmf07u.jpg", "release_date": "1970-09-23", "title": "The Machine of Eden", "video": false, "vote_average": 5.2, "vote_count": 10, "popularity": 3.986}, {"adult": false, "backdrop_path": null, "genre_ids": [18], "id": 161897, "original_language": "en", "original_title": "Oramunde", "overview": "Early dance film filmed outdoors and directed by artist Emlen Etting.", "poster_path": "/2gk1bp9a5IdqnfLDFT5gU3Xk6GU.jpg", "release_date": "1933-05-01", "title": "Oramunde", "video": false, "vote_average": 6.0, "vote_count": 6, "popularity": 1.241}, {"adult": false, "backdrop_path": null, "genre_ids": [99], "id": 128939, "original_language": "fr", "original_title": "La Seine a rencontr\u00e9 Paris", "overview": "This movie follows the river Seine from the countryside to the heart of Paris.", "poster_path": "/eB9i2VvSUyKxWuVcDAtqjVgP2r0.jpg", "release_date": "1957-11-20", "title": "The Seine Meets Paris", "video": false, "vote_average": 7.2, "vote_count": 6, "popularity": 1.979}, {"adult": false, "backdrop_path": null, "genre_ids": [16], "id": 209752, "original_language": "en", "original_title": "69", "overview": "Robert Breer animation from 1970.  16mm, color, silent, using spray paint & stencils.", "poster_path": "/lj33kNS5OS21hxAp6rmhI7huTOB.jpg", "release_date": "1969-04-10", "title": "69", "video": false, "vote_average": 5.5, "vote_count": 13, "popularity": 2.452}, {"adult": false, "backdrop_path": null, "genre_ids": [35, 18], "id": 186166, "original_language": "fr", "original_title": "Le brasier ardent", "overview": "A woman, named simply \"Elle\" and her husband, a wealthy industrialist, are not on the best of terms. While she enjoys the way he caters to her every whim, she wonders whether he really loves her. He, on the other hand, torments himself by imagining rivals. One morning she awakens from a nightmare in which she has been pursued by a man in various guises, who turns out to be the famous Detective Z, whose memoirs she has been reading. When she and her husband quarrel over leaving Paris permanently for a country estate, he goes to the \"Trouve Tout\" Agency and hires, of all people, Detective Z, to win back her affection.", "poster_path": "/yclWFw6BHb41Q6LRVdNYzwiiPD8.jpg", "release_date": "1923-08-04", "title": "The Burning Crucible", "video": false, "vote_average": 6.6, "vote_count": 5, "popularity": 1.053}, {"adult": false, "backdrop_path": null, "genre_ids": [99], "id": 48869, "original_language": "it", "original_title": "Le mura di Sana'a", "overview": "The capital of Yemen, the city of Sana'a, holds an important part of history within its walls filled with medieval architecture and culture. But that same culture was about to disappear with the country's modernization which came after the civil war in the 1960's. To impeach such modern invasion, director Pasolini pledges to UNESCO for the recognition of Sana'a as a World Heritage Site.", "poster_path": "/ocNnhvSSxX0QIv4sTQnE4Xg60J.jpg", "release_date": "1971-02-15", "title": "The Walls of Sana'a", "video": false, "vote_average": 6.4, "vote_count": 7, "popularity": 1.423}, {"id": 224138, "video": false, "vote_count": 7, "vote_average": 3.4, "title": "Sodoma", "release_date": "1970-09-20", "original_language": "de", "original_title": "Sodoma", "genre_ids": [18], "backdrop_path": null, "adult": false, "overview": "The Austrian avant-gardist Otto Muehl may well be the most scandalous filmmaker to ever work in cinema, and Sodoma stands as his most famous work. This creation takes the experiments a bit further down the road.", "poster_path": "/qO7HSJngwq0HcTQ4ZnU5Lgi4k2A.jpg", "popularity": 0.6}, {"adult": false, "backdrop_path": null, "genre_ids": [], "id": 212101, "original_language": "en", "original_title": "The Midnight Party", "overview": "Part of The Children's Trilogy. Filmed in 1938, effects added by Larry Jordan ca. 1965-68.", "poster_path": "/sz2i6K6pNfVJy0D5Yz46PTWxaa.jpg", "release_date": "1938-12-31", "title": "The Midnight Party", "video": false, "vote_average": 5.3, "vote_count": 10, "popularity": 2.048}, {"adult": false, "backdrop_path": null, "genre_ids": [99, 35, 18], "id": 110275, "original_language": "en", "original_title": "I, an Actress", "overview": "An actress and a director run through a melodramatic scene, speaking to a mannequin.", "poster_path": "/irdMcW8ODt3imawgWtYF7oMQXDW.jpg", "release_date": "1977-12-09", "title": "I, an Actress", "video": false, "vote_average": 5.8, "vote_count": 12, "popularity": 2.097}, {"adult": false, "backdrop_path": "/2IJXmaNV7eXUDfwDW6xBHGuCdH3.jpg", "genre_ids": [], "id": 109364, "original_language": "fr", "original_title": "Guernica", "overview": "Alain Resnais & Robert Hessen explore the famous Picasso painting \"Guernica\" in light of the town's bombing.", "poster_path": "/9nLRC7rqO2t0VuU923VcnShgT45.jpg", "release_date": "1950-09-16", "title": "Guernica", "video": false, "vote_average": 5.6, "vote_count": 12, "popularity": 2.258}, {"adult": false, "backdrop_path": "/jBoWCjmerdV8AgVpfjoddC4bD5f.jpg", "genre_ids": [99], "id": 122479, "original_language": "en", "original_title": "The Private Life of a Cat", "overview": "Life of a domestic cat, filmed from a cat\u2019s-eye view. This film was circulated in two versions: a silent version without narration and a somewhat longer sound version with a narration read by filmmaker Alexander Hammid\u2019s then-wife, Maya Deren.  Takes place over a period of months as the cat gives birth to a litter of kittens and she cares for them as they grow.", "poster_path": "/nY11edMjWEH3rddSNeig37lZcsv.jpg", "release_date": "1944-12-31", "title": "The Private Life of a Cat", "video": false, "vote_average": 6.5, "vote_count": 13, "popularity": 3.095}, {"id": 146987, "video": false, "vote_count": 12, "vote_average": 6.3, "title": "By Night with Torch and Spear", "release_date": "1942-12-31", "original_language": "en", "original_title": "By Night with Torch and Spear", "genre_ids": [], "backdrop_path": null, "adult": false, "overview": "Smoke, sparks and steam dance together in Cornell's found-footage collage. Backwards title cards (or an alien language, if you like) punctuate this mishmash of the industrial and the ancient.", "poster_path": null, "popularity": 1.558}, {"adult": false, "backdrop_path": null, "genre_ids": [99], "id": 203093, "original_language": "en", "original_title": "Rhythm", "overview": "Intended as a publicity film for Chrysler, Rhythm uses rapid editing to speed up the assembly of a car, synchronizing it to African drum music. The sponsor was horrified by the music and suspicious of the way a worker was shown winking at the camera; although Rhythm won first prize at a New York advertising festival, it was disqualified because Chrysler had never given it a television screening. P. Adams Sitney wrote, \u201cAlthough his reputation has been sustained by the invention of direct painting on film, Lye deserves equal credit as one of the great masters of montage.\u201d And in Film Culture, Jonas Mekas said to Peter Kubelka, \u201cHave you seen Len Lye\u2019s 50-second automobile commercial? Nothing happens there\u2026except that it\u2019s filled with some kind of secret action of cinema.\u201d  - Harvard Film Archive", "poster_path": "/wEsbjfb7anGxrxUbQ3F8MJTkkjF.jpg", "release_date": "1957-01-01", "title": "Rhythm", "video": false, "vote_average": 6.5, "vote_count": 15, "popularity": 1.662}, {"id": 46136, "video": false, "vote_count": 7, "vote_average": 6.0, "title": "The Blank Generation", "release_date": "1976-01-13", "original_language": "en", "original_title": "The Blank Generation", "genre_ids": [99, 10402], "backdrop_path": null, "adult": false, "overview": "The cream of New York new wave/punk filmed live at CBGB's when the scene was just beginning. Includes performances by Patti Smith, Blondie, Television, the Ramones, Talking Heads, the Heartbreakers, the Shirts, Wayne County, the Marbles, the Dolls, Miamis, Harry Toledo, and the Tuff Darts (w/Robert Gordon).", "poster_path": "/c9gBcyjOeDCXT2wVe9tmXzDxfA.jpg", "popularity": 1.792}, {"adult": false, "backdrop_path": null, "genre_ids": [], "id": 260215, "original_language": "en", "original_title": "Saugus Series", "overview": "A film by Pat O'Neill", "poster_path": "/lPnWzNdDMnoJP11WgcqFZrQPSQr.jpg", "release_date": "1974-03-20", "title": "Saugus Series", "video": false, "vote_average": 6.2, "vote_count": 6, "popularity": 1.946}], "total_pages": 2, "total_results": 40}, "credits": {"cast": [{"cast_id": 1002, "character": "The Man", "credit_id": "52fe46cac3a36847f811250f", "gender": 2, "id": 8635, "name": "Buster Keaton", "order": 0, "profile_path": "/8weZnW4cxkbMxtFAtO1NhfTrM9D.jpg"}, {"cast_id": 1003, "character": "Passerby", "credit_id": "52fe46cac3a36847f8112513", "gender": 0, "id": 148610, "name": "Nell Harrison", "order": 1, "profile_path": null}, {"cast_id": 1004, "character": "Passerby", "credit_id": "52fe46cac3a36847f8112517", "gender": 2, "id": 14852, "name": "James Karen", "order": 2, "profile_path": "/1w2g6IbGpDsEnze2QubIGFKlZQt.jpg"}, {"cast_id": 1005, "character": "Old woman", "credit_id": "52fe46cac3a36847f811251b", "gender": 0, "id": 148611, "name": "Susan Reed", "order": 3, "profile_path": null}], "crew": [{"credit_id": "5ac99fde92514162ae050cbf", "department": "Camera", "gender": 2, "id": 5261, "job": "Director of Photography", "name": "Boris Kaufman", "profile_path": "/850nIfw8hXTPcBDRsvpyIkVAeMj.jpg"}, {"credit_id": "5ac99fe792514162a8048d67", "department": "Editing", "gender": 0, "id": 143163, "job": "Editor", "name": "Sidney Meyers", "profile_path": null}, {"credit_id": "52fe46cac3a36847f8112505", "department": "Directing", "gender": 2, "id": 148608, "job": "Director", "name": "Alan Schneider", "profile_path": null}, {"credit_id": "5c2e2eb60e0a26760338d1f0", "department": "Directing", "gender": 2, "id": 148609, "job": "Director", "name": "Samuel Beckett", "profile_path": "/nUDTOoPgQPvQ4Fpgb6GyyShMyNH.jpg"}, {"credit_id": "52fe46cac3a36847f811250b", "department": "Writing", "gender": 2, "id": 148609, "job": "Writer", "name": "Samuel Beckett", "profile_path": "/nUDTOoPgQPvQ4Fpgb6GyyShMyNH.jpg"}, {"credit_id": "5ac9a0280e0a264974052464", "department": "Art", "gender": 0, "id": 1435286, "job": "Art Direction", "name": "Burr Smidt", "profile_path": null}]}}