{"adult": false, "backdrop_path": "/jl9dgpmxFScdAjjC07zrRSeC70w.jpg", "belongs_to_collection": null, "budget": 0, "genres": [{"id": 18, "name": "Drama"}], "homepage": "http://www.filmartsproductions.com/films/those-left-behind/", "id": 457593, "imdb_id": "tt4338138", "original_language": "en", "original_title": "Those Left Behind", "overview": "A family finally comes to terms with the grief over their son's suicide 25 years earlier.", "popularity": 1.834, "poster_path": "/pcV3i3AODgClfVs7J6VP6CO4UAp.jpg", "production_companies": [{"id": 62512, "logo_path": null, "name": "Nut Bucket Films", "origin_country": ""}, {"id": 90341, "logo_path": null, "name": "FilmArts Productions", "origin_country": ""}], "production_countries": [{"iso_3166_1": "US", "name": "United States of America"}], "release_date": "2017-05-13", "revenue": 0, "runtime": 102, "spoken_languages": [{"iso_639_1": "en", "name": "English"}], "status": "Released", "tagline": "A family finally comes to terms with the grief over their son's suicide 25 years earlier.", "title": "Those Left Behind", "video": false, "vote_average": 0.0, "vote_count": 0, "keywords": {"keywords": [{"id": 9673, "name": "love"}, {"id": 34079, "name": "death"}, {"id": 208542, "name": "life"}]}, "similar": {"page": 1, "results": [{"adult": false, "backdrop_path": "/7DwSXdN28VA5wQYw49PKpxhR1Lq.jpg", "genre_ids": [18, 14], "id": 1024, "original_language": "en", "original_title": "Heavenly Creatures", "overview": "Wealthy and precocious teenager Juliet transfers from England to New Zealand with her family, and soon befriends the quiet, brooding Pauline through their shared love of fantasy and literature. When their parents begin to suspect that their increasingly intense and obsessive bond is becoming unhealthy, the girls hatch a dark plan for those who threaten to keep them apart.", "poster_path": "/5ek49TUeqStPmKwNdxrCSUAdXNe.jpg", "release_date": "1994-09-12", "title": "Heavenly Creatures", "video": false, "vote_average": 7.1, "vote_count": 519, "popularity": 10.27}, {"adult": false, "backdrop_path": "/nriBinb7Y3Bm6LdbmOC0mFxSm8d.jpg", "genre_ids": [80, 18], "id": 226, "original_language": "en", "original_title": "Boys Don't Cry", "overview": "Female born, Teena Brandon adopts his male identity of Brandon Teena and attempts to find himself and love in Nebraska.", "poster_path": "/6bqIZTEuJnUrgnxcymciszvOz8J.jpg", "release_date": "1999-09-02", "title": "Boys Don't Cry", "video": false, "vote_average": 7.5, "vote_count": 718, "popularity": 10.072}, {"adult": false, "backdrop_path": "/rPfyX0pkmn8Ea4gh3DfsmzFUf05.jpg", "genre_ids": [18, 27, 80], "id": 74997, "original_language": "en", "original_title": "The Human Centipede 2 (Full Sequence)", "overview": "Inspired by the fictional Dr. Heiter, disturbed loner Martin dreams of creating a 12-person centipede and sets out to realize his sick fantasy.", "poster_path": "/kFtAdkCO0vXN2RWu2oMcR9GZ9Hi.jpg", "release_date": "2011-10-06", "title": "The Human Centipede 2 (Full Sequence)", "video": false, "vote_average": 4.5, "vote_count": 674, "popularity": 14.216}, {"adult": false, "backdrop_path": "/Ao2bnJMmcFepMVw1BUay25tt7TM.jpg", "genre_ids": [18, 10749], "id": 1259, "original_language": "en", "original_title": "Notes on a Scandal", "overview": "A veteran high school teacher befriends a younger art teacher, who is having an affair with one of her 15-year-old students. However, her intentions with this new \"friend\" also go well beyond platonic friendship.", "poster_path": "/lXZa1mHZ8eD0VOpNaLfvM9tSpAj.jpg", "release_date": "2006-12-25", "title": "Notes on a Scandal", "video": false, "vote_average": 7.1, "vote_count": 463, "popularity": 12.753}, {"id": 332872, "video": false, "vote_count": 511, "vote_average": 7.1, "title": "Julieta", "release_date": "2016-04-08", "original_language": "es", "original_title": "Julieta", "genre_ids": [18, 10749], "backdrop_path": "/hx9gGAoCysvmIMkJBxstNH2Fobx.jpg", "adult": false, "overview": "The film spans 30 years in Julieta\u2019s life from a nostalgic 1985 where everything seems hopeful, to 2015 where her life appears to be beyond repair and she is on the verge of madness.", "poster_path": "/vvGuzaTGOFhJYL4MqfrR8Ib1WhA.jpg", "popularity": 8.853}, {"id": 12531, "video": false, "vote_count": 91, "vote_average": 6.9, "title": "The Apartment", "release_date": "1996-07-27", "original_language": "fr", "original_title": "L'Appartement", "genre_ids": [18, 9648, 10749], "backdrop_path": "/64qyT8m4JQ6YODvXxtbHgKmXBX7.jpg", "adult": false, "overview": "A stylish suspense thriller that confounds the audience while presenting them with an extraordinary and elusive mystery. Max is a former playboy who has decided to settle down by marrying his current love, Muriel. However, during a business trip, Max catches a glimpse of the great lost love of his life, reviving his wanderlust and sending him off on a chase of the elusive Lisa, whom he had overheard suggesting to a friend that her lover, Daniel, had killed someone for her. Soon, Max is trying to unravel the mystery behind the suspicious death of Daniel's wife, which he hopes will lead him closer to Lisa.", "poster_path": "/1sqrQdQTn8jKLhUcPKfRVj639zA.jpg", "popularity": 19.17}, {"id": 521, "video": false, "vote_count": 1257, "vote_average": 8.0, "title": "Dial M for Murder", "release_date": "1954-05-29", "original_language": "en", "original_title": "Dial M for Murder", "genre_ids": [80, 18, 9648, 53], "backdrop_path": "/jVMlfESb0TJ29w8CUDDofEprMmn.jpg", "adult": false, "overview": "An ex-tennis pro carries out a plot to have his wife murdered after discovering she is having an affair, and assumes she will soon leave him for the other man anyway. When things go wrong, he improvises a new plan\u2014to frame her for murder instead.", "poster_path": "/xrpK1PyckNWmRxU4kZURfaCyboS.jpg", "popularity": 28.336}, {"adult": false, "backdrop_path": "/lqL9EnG9okK0rcBl5a89qiCU9vO.jpg", "genre_ids": [18, 27, 53], "id": 17609, "original_language": "en", "original_title": "Antichrist", "overview": "A grieving couple retreats to their cabin 'Eden' in the woods, hoping to repair their broken hearts and troubled marriage. But nature takes its course and things go from bad to worse.", "poster_path": "/lY4Y9buUIZY17vpvL5dsBpbORo0.jpg", "release_date": "2009-05-18", "title": "Antichrist", "video": false, "vote_average": 6.6, "vote_count": 1410, "popularity": 17.567}, {"adult": false, "backdrop_path": "/w2KDvs7D0E6yDGESrAeJ0tzimSA.jpg", "genre_ids": [35, 18], "id": 44564, "original_language": "en", "original_title": "The Dilemma", "overview": "Longtime friends Ronny and Nick are partners in an auto-design firm. They are hard at work on a presentation for a dream project that would really launch their company. Then Ronny spots Nick's wife out with another man, and in the process of investigating the possible affair, he learns that Nick has a few secrets of his own. As the presentation nears, Ronny agonizes over what might happen if the truth gets out.", "poster_path": "/wMwKQBOrlz3KN3QLIFj65hyJw9B.jpg", "release_date": "2011-01-13", "title": "The Dilemma", "video": false, "vote_average": 5.4, "vote_count": 542, "popularity": 10.815}, {"adult": false, "backdrop_path": "/a0UYovVNPVfWILYT7TzD10xBX3q.jpg", "genre_ids": [18, 53, 80, 9648], "id": 979, "original_language": "fr", "original_title": "Irr\u00e9versible", "overview": "Events over the course of one traumatic night in Paris unfold in reverse-chronological order as the beautiful Alex is brutally raped and beaten by a stranger in the underpass. Her boyfriend and ex-lover take matters into their own hands by hiring two criminals to help them find the rapist so that they can exact revenge. A simultaneously beautiful and terrible examination of the destructive nature of cause and effect, and how time destroys everything.", "poster_path": "/rxeDxo8FvZpLu6iplNpxdtAVnfu.jpg", "release_date": "2002-05-22", "title": "Irreversible", "video": false, "vote_average": 7.1, "vote_count": 1216, "popularity": 20.416}, {"adult": false, "backdrop_path": "/wnAZlcVj5bfyq5kSaCHiUtJmZEG.jpg", "genre_ids": [80, 18], "id": 868, "original_language": "af", "original_title": "Tsotsi", "overview": "The South African multi-award winning film about a young South African boy from the ghetto named Tsotsi, meaning Gangster. Tsotsi, who left home as a child to get away from helpless parents, finds a baby in the back seat of a car that he has just stolen. He decides that it his responsibility to take care of the baby and in the process learns that maybe the gangster life isn\u2019t the best way.", "poster_path": "/6ylcfUctX2OXYI1poyKSA5epVEi.jpg", "release_date": "2005-08-18", "title": "Tsotsi", "video": false, "vote_average": 7.0, "vote_count": 167, "popularity": 6.748}, {"adult": false, "backdrop_path": "/tkHlTVLylEIBpUypq0z3ZbtxUKc.jpg", "genre_ids": [35, 18, 10749], "id": 11931, "original_language": "en", "original_title": "In Her Shoes", "overview": "Irresponsible party girl, Maggie is kicked out of her father's and stepmother's home\u2014where she lives for free\u2014and is taken in by her hard-working sister, Philadelphia lawyer, Rose. After Maggie's disruptive ways ruin her sister's love life, Rose turns her out as well. But when their grandmother, who they never knew existed, comes into their lives, the sisters face some complicated truths about themselves and their family.", "poster_path": "/4jqnazZX2bh8UMUS8rl4nHWWtyb.jpg", "release_date": "2005-10-07", "title": "In Her Shoes", "video": false, "vote_average": 6.0, "vote_count": 785, "popularity": 11.9}, {"id": 205, "video": false, "vote_count": 1598, "vote_average": 7.7, "title": "Hotel Rwanda", "release_date": "2004-09-11", "original_language": "en", "original_title": "Hotel Rwanda", "genre_ids": [18, 36, 10752], "backdrop_path": "/dQCTuhrP8bgsctRYeHSX21ceNX1.jpg", "adult": false, "overview": "Inspired by true events, this film takes place in Rwanda in the 1990s when more than a million Tutsis were killed in a genocide that went mostly unnoticed by the rest of the world. Hotel owner Paul Rusesabagina houses over a thousand refuges in his hotel in attempt to save their lives.", "poster_path": "/p3pHw85UMZPegfMZBA6dZ06yarm.jpg", "popularity": 16.039}, {"adult": false, "backdrop_path": "/xbW1nnvCCs7eSjf9fTeB4sjbHU9.jpg", "genre_ids": [18], "id": 23949, "original_language": "en", "original_title": "Tape", "overview": "Three old high school friends meet in a Michigan motel room to dissect painful memories from their past.", "poster_path": "/oA9XBHIYFZY2FiYlC9fWtbMt9gG.jpg", "release_date": "2001-11-02", "title": "Tape", "video": false, "vote_average": 7.0, "vote_count": 108, "popularity": 8.788}, {"adult": false, "backdrop_path": "/w2UHBWTJux7bWSi44mMS21tPhGT.jpg", "genre_ids": [35, 18, 10749], "id": 9499, "original_language": "en", "original_title": "Le Divorce", "overview": "While visiting her sister in Paris, a young woman finds romance and learns her brother-in-law is a philanderer.", "poster_path": "/kknXCFaww99tXIu8hY1kXwu0fep.jpg", "release_date": "2003-08-08", "title": "Le Divorce", "video": false, "vote_average": 5.0, "vote_count": 80, "popularity": 12.786}, {"id": 9373, "video": false, "vote_count": 1414, "vote_average": 6.1, "title": "The Texas Chainsaw Massacre", "release_date": "2003-05-21", "original_language": "en", "original_title": "The Texas Chainsaw Massacre", "genre_ids": [27], "backdrop_path": "/3rTsJ7tIC3LUSRr80PfeLbbCfBA.jpg", "adult": false, "overview": "After picking up a traumatized young hitchhiker, five friends find themselves stalked and hunted by a deformed chainsaw-wielding killer and his family of equally psychopathic killers.", "poster_path": "/gx7FCIOFGxqNyplF3t7qtmUv55g.jpg", "popularity": 19.117}, {"adult": false, "backdrop_path": "/zWGAnbxjjwY3xFGuOeR26LGbBlG.jpg", "genre_ids": [27, 53], "id": 238636, "original_language": "en", "original_title": "The Purge: Anarchy", "overview": "One night per year, the government sanctions a 12-hour period in which citizens can commit any crime they wish -- including murder -- without fear of punishment or imprisonment. Leo, a sergeant who lost his son, plans a vigilante mission of revenge during the mayhem. However, instead of a death-dealing avenger, he becomes the unexpected protector of four innocent strangers who desperately need his help if they are to survive the night.", "poster_path": "/l1DRl40x2OWUoPP42v8fjKdS1Z3.jpg", "release_date": "2014-07-17", "title": "The Purge: Anarchy", "video": false, "vote_average": 6.6, "vote_count": 4145, "popularity": 36.766}, {"id": 473149, "video": false, "vote_count": 195, "vote_average": 5.9, "title": "Traffik", "release_date": "2018-04-20", "original_language": "en", "original_title": "Traffik", "genre_ids": [27, 53], "backdrop_path": "/wbk9VvJ8lkUF0ElpfRm3dFIzMJf.jpg", "adult": false, "overview": "A couple off for a romantic weekend in the mountains are accosted by a biker gang. Alone in the mountains, Brea and John must defend themselves against the gang, who will stop at nothing to protect their secrets.", "poster_path": "/e2Z466e9402RFP6wxRMfXYYiJHA.jpg", "popularity": 31.63}, {"id": 11033, "video": false, "vote_count": 359, "vote_average": 6.8, "title": "Dressed to Kill", "release_date": "1980-07-25", "original_language": "en", "original_title": "Dressed to Kill", "genre_ids": [27, 9648, 53], "backdrop_path": "/mtGByKUtyLVWXl8OjWFOicLHsFo.jpg", "adult": false, "overview": "A mysterious, tall, blonde woman wearing sunglasses murders one of a psychiatrist's patients, and now she's after the prostitute who witnessed it.", "poster_path": "/b9RHUexTE6MT5x6iZ2Wmq56H1cJ.jpg", "popularity": 15.886}, {"adult": false, "backdrop_path": "/rVivKkJD4HV31zAd9oW3abbGjAu.jpg", "genre_ids": [18, 35], "id": 276, "original_language": "de", "original_title": "Die fetten Jahre sind vorbei", "overview": "Three activists cobble together a kidnapping plot after they encounter a businessman in his home.", "poster_path": "/jmjX2tV91uU6GBKUAx3otsYgMBG.jpg", "release_date": "2004-10-25", "title": "The Edukators", "video": false, "vote_average": 7.3, "vote_count": 172, "popularity": 6.952}], "total_pages": 486, "total_results": 9707}, "recommendations": {"page": 1, "results": [], "total_pages": 1, "total_results": 0}, "credits": {"cast": [{"cast_id": 0, "character": "Amelia", "credit_id": "591823ee925141580d042089", "gender": 0, "id": 1244086, "name": "Kasey Buckley", "order": 1, "profile_path": "/oPq2D88Z42VzK5Y5zaf460NbMHW.jpg"}, {"cast_id": 1, "character": "Noah", "credit_id": "5918240ec3a368423c042d01", "gender": 2, "id": 1277364, "name": "Jack Griffo", "order": 2, "profile_path": "/j7trzRGKcNqhnFwrw65thR1e3qU.jpg"}, {"cast_id": 2, "character": "David", "credit_id": "59182427c3a36840aa03cc99", "gender": 0, "id": 1816500, "name": "Jack Herndon", "order": 3, "profile_path": null}, {"cast_id": 3, "character": "Shelly", "credit_id": "59182445925141061e03b263", "gender": 1, "id": 14668, "name": "Daphne Zuniga", "order": 4, "profile_path": "/jzxXGApvXYqYJKFpSH1WUnr8qCa.jpg"}, {"cast_id": 4, "character": "", "credit_id": "59182475c3a36842c1043dbd", "gender": 2, "id": 164114, "name": "Michael Hogan", "order": 5, "profile_path": "/c14qQjStwZEs7caQCArYNbdOK2i.jpg"}, {"cast_id": 5, "character": "", "credit_id": "59182493925141572304356a", "gender": 1, "id": 69504, "name": "Debra Mooney", "order": 6, "profile_path": "/6rnwJhFNy1pZL1n3NynIsyxlHrw.jpg"}, {"cast_id": 6, "character": "Shelly 19", "credit_id": "591824b2c3a3683a9303fdf5", "gender": 1, "id": 1450866, "name": "Annie Read", "order": 7, "profile_path": "/iq5qCSjWKNoFqQmdYFpzLxQohxl.jpg"}, {"cast_id": 7, "character": "Jamie", "credit_id": "591824c6925141580d04213e", "gender": 0, "id": 1481193, "name": "Grant Jordan", "order": 8, "profile_path": null}], "crew": [{"credit_id": "5918255d925141583c041e3c", "department": "Directing", "gender": 0, "id": 1485295, "job": "Director", "name": "Maria Finitzo", "profile_path": null}, {"credit_id": "591825a1c3a368423c042e53", "department": "Production", "gender": 0, "id": 1574786, "job": "Producer", "name": "Lije Sarki", "profile_path": null}, {"credit_id": "591825b2c3a36842d604400b", "department": "Camera", "gender": 0, "id": 1816517, "job": "Director of Photography", "name": "Raquel Fern\u00e1ndez Nu\u00f1ez", "profile_path": null}, {"credit_id": "591825c192514159c1040d38", "department": "Editing", "gender": 0, "id": 1816519, "job": "Editor", "name": "Stewart Reeves", "profile_path": null}]}}