{"adult": false, "backdrop_path": "/bZCjHladJ7miq1TlHb4MR0FQh0n.jpg", "belongs_to_collection": null, "budget": 1000000, "genres": [{"id": 878, "name": "Science Fiction"}], "homepage": null, "id": 457665, "imdb_id": "tt4279116", "original_language": "en", "original_title": "Alien Invasion: S.U.M.1", "overview": "An aggressive race of aliens took over Planet Earth and humanity's at its end, living in giant bunkers below ground. Young Military rookie S.U.M.1 (Iwan Rheon) is sent to the surface to save a group of unprotected survivors.", "popularity": 6.98, "poster_path": "/seQLYvclDfR4UDfqGFDQWdbAy9M.jpg", "production_companies": [{"id": 52799, "logo_path": null, "name": "Syrreal Entertainment", "origin_country": ""}], "production_countries": [{"iso_3166_1": "DE", "name": "Germany"}], "release_date": "2017-03-11", "revenue": 0, "runtime": 95, "spoken_languages": [{"iso_639_1": "de", "name": "Deutsch"}, {"iso_639_1": "en", "name": "English"}], "status": "Released", "tagline": "Control your fear", "title": "Alien Invasion: S.U.M.1", "video": false, "vote_average": 4.9, "vote_count": 38, "keywords": {"keywords": [{"id": 9739, "name": "extraterrestrial"}, {"id": 9951, "name": "alien"}, {"id": 10410, "name": "conspiracy"}, {"id": 13065, "name": "soldier"}, {"id": 14909, "name": "alien invasion"}, {"id": 162365, "name": "military"}, {"id": 189359, "name": "rat"}]}, "similar": {"page": 1, "results": [{"id": 602, "video": false, "vote_count": 6006, "vote_average": 6.8, "title": "Independence Day", "release_date": "1996-06-25", "original_language": "en", "original_title": "Independence Day", "genre_ids": [28, 12, 878], "backdrop_path": "/4E2xKGrU2qcqUE2S3Nl27hwZdqy.jpg", "adult": false, "overview": "On July 2, a giant alien mothership enters orbit around Earth and deploys several dozen saucer-shaped 'destroyer' spacecraft that quickly lay waste to major cities around the planet. On July 3, the United States conducts a coordinated counterattack that fails. On July 4, a plan is devised to gain access to the interior of the alien mothership in space, in order to plant a nuclear missile.", "poster_path": "/bqLlWZJdhrS0knfEJRkquW7L8z2.jpg", "popularity": 20.636}, {"id": 828, "video": false, "vote_count": 557, "vote_average": 7.5, "title": "The Day the Earth Stood Still", "release_date": "1951-09-17", "original_language": "en", "original_title": "The Day the Earth Stood Still", "genre_ids": [878], "backdrop_path": "/uExEupzfV7Ffau0H98aefUU0zcG.jpg", "adult": false, "overview": "An alien and a robot land on earth after World War II and tell mankind to be peaceful or face destruction. A classic science fiction film from Robert Wise with an exceptional message.", "poster_path": "/x2DquTpLTq54aPFDnqlwY7apCC3.jpg", "popularity": 30.427}, {"id": 49849, "video": false, "vote_count": 3363, "vote_average": 5.5, "title": "Cowboys & Aliens", "release_date": "2011-07-29", "original_language": "en", "original_title": "Cowboys & Aliens", "genre_ids": [28, 878, 53, 37], "backdrop_path": "/gTDwoJBCu7scwYQoykIlLNpkCes.jpg", "adult": false, "overview": "A stranger stumbles into the desert town of Absolution with no memory of his past and a futuristic shackle around his wrist. With the help of mysterious beauty Ella and the iron-fisted Colonel Dolarhyde, he finds himself leading an unlikely posse of cowboys, outlaws, and Apache warriors against a common enemy from beyond this world in an epic showdown for survival.", "poster_path": "/9uZsGCP4rvOHVGCpMpYq5gNCuNI.jpg", "popularity": 21.609}, {"id": 346910, "video": false, "vote_count": 2440, "vote_average": 5.3, "title": "The Predator", "release_date": "2018-09-05", "original_language": "en", "original_title": "The Predator", "genre_ids": [28, 12, 27, 878, 53], "backdrop_path": "/f4E0ocYeToEuXvczZv6QArrMDJ.jpg", "adult": false, "overview": "When a kid accidentally triggers the universe's most lethal hunters' return to Earth, only a ragtag crew of ex-soldiers and a disgruntled female scientist can prevent the end of the human race.", "poster_path": "/wMq9kQXTeQCHUZOG4fAe5cAxyUA.jpg", "popularity": 26.19}, {"id": 563, "video": false, "vote_count": 2705, "vote_average": 6.9, "title": "Starship Troopers", "release_date": "1997-11-07", "original_language": "en", "original_title": "Starship Troopers", "genre_ids": [28, 12, 878, 53], "backdrop_path": "/cYWI1lnHEvoVKDdlrRt2b5et3Bj.jpg", "adult": false, "overview": "Set in the future, the story follows a young soldier named Johnny Rico and his exploits in the Mobile Infantry. Rico's military career progresses from recruit to non-commissioned officer and finally to officer against the backdrop of an interstellar war between mankind and an arachnoid species known as \"the Bugs\".", "poster_path": "/zeCD9WkhABFJmPq3SlTozXJGEtr.jpg", "popularity": 19.504}, {"id": 137113, "video": false, "vote_count": 8823, "vote_average": 7.6, "title": "Edge of Tomorrow", "release_date": "2014-05-27", "original_language": "en", "original_title": "Edge of Tomorrow", "genre_ids": [28, 878], "backdrop_path": "/7mgKeg18Qml5nJQa56RBZO7dIu0.jpg", "adult": false, "overview": "Major Bill Cage is an officer who has never seen a day of combat when he is unceremoniously demoted and dropped into combat. Cage is killed within minutes, managing to take an alpha alien down with him. He awakens back at the beginning of the same day and is forced to fight and die again... and again - as physical contact with the alien has thrown him into a time loop.", "poster_path": "/tpoVEYvm6qcXueZrQYJNRLXL88s.jpg", "popularity": 33.684}, {"id": 339964, "video": false, "vote_count": 4615, "vote_average": 6.6, "title": "Valerian and the City of a Thousand Planets", "release_date": "2017-07-20", "original_language": "en", "original_title": "Valerian and the City of a Thousand Planets", "genre_ids": [28, 12, 878], "backdrop_path": "/5rYnygKCkmqWuMv1O5yAnzGF8gV.jpg", "adult": false, "overview": "In the 28th century, Valerian and Laureline are special operatives charged with keeping order throughout the human territories. On assignment from the Minister of Defense, the two undertake a mission to Alpha, an ever-expanding metropolis where species from across the universe have converged over centuries to share knowledge, intelligence, and cultures. At the center of Alpha is a mysterious dark force which threatens the peaceful existence of the City of a Thousand Planets, and Valerian and Laureline must race to identify the menace and safeguard not just Alpha, but the future of the universe.", "poster_path": "/jfIpMh79fGRqYJ6PwZLCntzgxlF.jpg", "popularity": 40.036}, {"id": 329865, "video": false, "vote_count": 11412, "vote_average": 7.5, "title": "Arrival", "release_date": "2016-11-10", "original_language": "en", "original_title": "Arrival", "genre_ids": [18, 9648, 878], "backdrop_path": "/yIZ1xendyqKvY3FGeeUYUd5X9Mm.jpg", "adult": false, "overview": "Taking place after alien crafts land around the world, an expert linguist is recruited by the military to determine whether they come in peace or are a threat.", "poster_path": "/xGgg2UI20qtEh7mura3RRwP8d3I.jpg", "popularity": 37.858}, {"id": 228161, "video": false, "vote_count": 2570, "vote_average": 6.7, "title": "Home", "release_date": "2015-03-18", "original_language": "en", "original_title": "Home", "genre_ids": [16, 35, 14, 878, 10751], "backdrop_path": "/6HoS2Hzcye4xGowSLTf0Pox43QW.jpg", "adult": false, "overview": "When Earth is taken over by the overly-confident Boov, an alien race in search of a new place to call home, all humans are promptly relocated, while all Boov get busy reorganizing the planet. But when one resourceful girl, Tip, manages to avoid capture, she finds herself the accidental accomplice of a banished Boov named Oh. The two fugitives realize there\u2019s a lot more at stake than intergalactic relations as they embark on the road trip of a lifetime.", "poster_path": "/b7czgMTk5txqLr2UczBb0Wez77E.jpg", "popularity": 18.709}, {"adult": false, "backdrop_path": "/hZzwIHyVAZ5goljYRuq66CWc5GY.jpg", "genre_ids": [878, 53, 27], "id": 20424, "original_language": "en", "original_title": "Invaders from Mars", "overview": "In the early hours of the night, young David Maclean sees a flying saucer land and disappear into the sand dunes just beyond his house. Slowly, all of the adults, including his once loving parents, begin to act strangely.", "poster_path": "/tafnBTKqr5EFxDt8TTD9tHUx6YB.jpg", "release_date": "1953-04-22", "title": "Invaders from Mars", "video": false, "vote_average": 6.1, "vote_count": 84, "popularity": 9.943}, {"adult": false, "backdrop_path": "/rMsr8JcgVRlP4orRCa8DDkxaoSS.jpg", "genre_ids": [12, 10751, 14, 878, 53, 28], "id": 13836, "original_language": "en", "original_title": "Race to Witch Mountain", "overview": "A taxi driver gets more than he bargained for when he picks up two teen runaways. Not only does the pair possess supernatural powers, but they're also trying desperately to escape people who have made them their targets.", "poster_path": "/jKGmK0nWoPNnHypfWgL7ZI7fN5Q.jpg", "release_date": "2009-03-12", "title": "Race to Witch Mountain", "video": false, "vote_average": 5.6, "vote_count": 980, "popularity": 14.802}, {"id": 401513, "video": false, "vote_count": 242, "vote_average": 5.9, "title": "Attraction", "release_date": "2017-01-26", "original_language": "ru", "original_title": "\u041f\u0440\u0438\u0442\u044f\u0436\u0435\u043d\u0438\u0435", "genre_ids": [12, 18, 878, 10749], "backdrop_path": "/c7biqtoJoizlrDtTYu3389P9PEL.jpg", "adult": false, "overview": "After an alien ship crash lands in a Russian city, many who see the inside and the occupants start to question their own existence while others demand the aliens leave Earth.", "poster_path": "/uMr2lXCh8PuGBhCIosjknQRv1iT.jpg", "popularity": 9.041}, {"adult": false, "backdrop_path": "/iA5RfBnIzzpvwDPy5LHPrUKRl71.jpg", "genre_ids": [12, 878, 10770], "id": 12914, "original_language": "en", "original_title": "Stargate: Continuum", "overview": "Ba'al travels back in time and prevents the Stargate program from being started. SG-1 must somehow restore history.", "poster_path": "/tk1jYOK6DRvBHAoHCueUVL3RSEe.jpg", "release_date": "2008-07-29", "title": "Stargate: Continuum", "video": false, "vote_average": 7.0, "vote_count": 238, "popularity": 10.628}, {"adult": false, "backdrop_path": "/kormVYncbZMrToXaOV58o74LNIz.jpg", "genre_ids": [18, 53, 878, 9648], "id": 2675, "original_language": "en", "original_title": "Signs", "overview": "A family living on a farm finds mysterious crop circles in their fields which suggests something more frightening to come.", "poster_path": "/bY9lCUVUajpkKWlfjWF1mtXaSUp.jpg", "release_date": "2002-08-02", "title": "Signs", "video": false, "vote_average": 6.6, "vote_count": 3222, "popularity": 16.898}, {"id": 106, "video": false, "vote_count": 4130, "vote_average": 7.4, "title": "Predator", "release_date": "1987-06-12", "original_language": "en", "original_title": "Predator", "genre_ids": [28, 12, 878, 53], "backdrop_path": "/vvsQe0ksUH001rxFGrnZkL9eBzr.jpg", "adult": false, "overview": "Dutch and his group of commandos are hired by the CIA to rescue downed airmen from guerillas in a Central American jungle. The mission goes well but as they return they find that something is hunting them. Nearly invisible, it blends in with the forest, taking trophies from the bodies of its victims as it goes along. Occasionally seeing through its eyes, the audience sees it is an intelligent alien hunter, hunting them for sport, killing them off one at a time.", "poster_path": "/gUpto7r2XwoM5eW7MUvd8hl1etB.jpg", "popularity": 28.364}, {"id": 54138, "video": false, "vote_count": 6599, "vote_average": 7.3, "title": "Star Trek Into Darkness", "release_date": "2013-05-05", "original_language": "en", "original_title": "Star Trek Into Darkness", "genre_ids": [28, 12, 878], "backdrop_path": "/ns0IojuqJe24AHTxe8RVcWJUCDM.jpg", "adult": false, "overview": "When the crew of the Enterprise is called back home, they find an unstoppable force of terror from within their own organization has detonated the fleet and everything it stands for, leaving our world in a state of crisis.  With a personal score to settle, Captain Kirk leads a manhunt to a war-zone world to capture a one man weapon of mass destruction. As our heroes are propelled into an epic chess game of life and death, love will be challenged, friendships will be torn apart, and sacrifices must be made for the only family Kirk has left: his crew.", "poster_path": "/41mhrXASAW3sdn7LBWF49uCX0xi.jpg", "popularity": 22.476}, {"adult": false, "backdrop_path": "/xATZyEpnZ0Z0iO9z5K8RZsraGKI.jpg", "genre_ids": [878, 18], "id": 840, "original_language": "en", "original_title": "Close Encounters of the Third Kind", "overview": "After an encounter with UFOs, a line worker feels undeniably drawn to an isolated area in the wilderness where something spectacular is about to happen.", "poster_path": "/3Av8ZPiMrxFq9XiOjZl0tkoq9Oo.jpg", "release_date": "1977-11-16", "title": "Close Encounters of the Third Kind", "video": false, "vote_average": 7.4, "vote_count": 2289, "popularity": 38.059}, {"id": 1398, "video": false, "vote_count": 866, "vote_average": 8.3, "title": "Stalker", "release_date": "1979-05-25", "original_language": "ru", "original_title": "\u0421\u0442\u0430\u043b\u043a\u0435\u0440", "genre_ids": [18, 878], "backdrop_path": "/m7yrs7Sw5WpUNJdqDjEhkNJVpxt.jpg", "adult": false, "overview": "Near a gray and unnamed city is the Zone, a place guarded by barbed wire and soldiers, and where the normal laws of physics are victim to frequent anomalies. A stalker guides two men into the Zone, specifically to an area in which deep-seated desires are granted.", "poster_path": "/lUE0Bp7wH0EterJ44qMRsqtKFnp.jpg", "popularity": 19.11}, {"adult": false, "backdrop_path": "/6kVVfNT0auG6fU5SFQ1zbayNWUC.jpg", "genre_ids": [28, 53, 878], "id": 7191, "original_language": "en", "original_title": "Cloverfield", "overview": "Five young New Yorkers throw their friend a going-away party the night that a monster the size of a skyscraper descends upon the city. Told from the point of view of their video camera, the film is a document of their attempt to survive the most surreal, horrifying event of their lives.", "poster_path": "/qIegUGJqyMMCRjkKV1s7A9MqdJ8.jpg", "release_date": "2008-01-15", "title": "Cloverfield", "video": false, "vote_average": 6.5, "vote_count": 4429, "popularity": 18.322}, {"id": 7453, "video": false, "vote_count": 2556, "vote_average": 6.7, "title": "The Hitchhiker's Guide to the Galaxy", "release_date": "2005-04-28", "original_language": "en", "original_title": "The Hitchhiker's Guide to the Galaxy", "genre_ids": [12, 35, 878, 10751], "backdrop_path": "/kMf3ewax3ZeiSESaPQxBAReQzDD.jpg", "adult": false, "overview": "Mere seconds before the Earth is to be demolished by an alien construction crew, Arthur Dent is swept off the planet by his friend Ford Prefect, a researcher penning a new edition of \"The Hitchhiker's Guide to the Galaxy.\"", "poster_path": "/fOb4cJMhnZ11BoHNUii3Vcfo3XU.jpg", "popularity": 23.951}], "total_pages": 13, "total_results": 256}, "recommendations": {"page": 1, "results": [{"adult": false, "backdrop_path": "/cXLjSeOhakcwxLmjYQrJrZnAD2m.jpg", "genre_ids": [53], "id": 398943, "original_language": "en", "original_title": "Beacon Point", "overview": "A group of hikers lost on the Appalachian Trail stumble across an ancient secret that threatens their survival.", "poster_path": "/9tnnK9sg15Q1TCvFkUm5JE2QhA1.jpg", "release_date": "2016-06-10", "title": "Beacon Point", "video": false, "vote_average": 5.4, "vote_count": 8, "popularity": 5.509}, {"adult": false, "backdrop_path": "/jSlawSBQhJktzfWchFWxJzbOHhS.jpg", "genre_ids": [878], "id": 222305, "original_language": "en", "original_title": "Paradox Alice", "overview": "In the near future, a team is sent on a dangerous mission to Europa to retrieve and bring water back to a dying Earth. Their operation unexpectedly goes awry, jeopardizing not only the lives of those on board but also on earth, resulting in the possible extinction of the human race.", "poster_path": "/rahvsDTBUcyzJXfCK8CtbYPG1wW.jpg", "release_date": "2012-04-20", "title": "Paradox Alice", "video": false, "vote_average": 4.0, "vote_count": 6, "popularity": 2.408}, {"adult": false, "backdrop_path": "/apu7zAFAR8J23Y9sNgnmkQaQqIm.jpg", "genre_ids": [53, 18, 878], "id": 362203, "original_language": "en", "original_title": "Shelter", "overview": "After a cataclysmic event, five strangers sealed inside an emergency shelter with all the comforts of home must learn to cope with their situation and with each other.", "poster_path": "/6QgsjYODmdh46nl2XKg77EV1wAr.jpg", "release_date": "2015-04-21", "title": "Shelter", "video": false, "vote_average": 5.0, "vote_count": 7, "popularity": 2.894}, {"adult": false, "backdrop_path": "/oEkSp9J1FnhpmtSATZ8Bz6Jt6iq.jpg", "genre_ids": [28, 878, 53], "id": 439123, "original_language": "en", "original_title": "Agent", "overview": "A group of friends go to the desert for a gun instruction course and accidentally unleash a power so great it overwhelms them where they must choose between family and friends versus the fate of the world.", "poster_path": "/bDd0JCSv5q1BeRfrbGotVp0xHDd.jpg", "release_date": "2017-02-03", "title": "Agent", "video": false, "vote_average": 6.6, "vote_count": 7, "popularity": 2.818}, {"id": 487638, "video": false, "vote_count": 5, "vote_average": 5.4, "title": "Sightings", "release_date": "2017-10-21", "original_language": "en", "original_title": "Sightings", "genre_ids": [12, 18, 9648, 878, 53], "backdrop_path": "/nKMiLPJ1HjKffOLLBF9glbpv69H.jpg", "adult": false, "overview": "A dysfunctional family under suspicion of murder after three bodies mysteriously appear on their ranch are terrorised by what they can only describe as Bigfoot.", "poster_path": "/s7buFw79ZdyVr5XWSEZYKuG3CO.jpg", "popularity": 3.939}, {"adult": false, "backdrop_path": "/7w5RnHHymchptP70j3Kz5ESso0E.jpg", "genre_ids": [80, 27, 53], "id": 407036, "original_language": "en", "original_title": "On the Brain", "overview": "A small-town Sheriff discovers there is something wrong with the sleepy town of Golden Torch, and he quickly realizes he may not get out alive.", "poster_path": "/kPUwyhcCFos8XB5NzgPVnYXl7G5.jpg", "release_date": "2016-07-12", "title": "On the Brain", "video": false, "vote_average": 4.8, "vote_count": 5, "popularity": 4.536}, {"id": 381032, "video": false, "vote_count": 21, "vote_average": 5.9, "title": "Another Evil", "release_date": "2017-05-05", "original_language": "en", "original_title": "Another Evil", "genre_ids": [35, 27], "backdrop_path": "/9xe0c5cgkjyZC06vujkfcO1pwLU.jpg", "adult": false, "overview": "After encountering a ghost in his family's vacation home, Dan and his wife Mary hire an \"industrial-grade exorcist\" named Os to get rid of the beings.", "poster_path": "/A0WcyVPOgDLs479hOaqaYaT5urP.jpg", "popularity": 5.252}, {"adult": false, "backdrop_path": "/zneHhKTOP0Evu2nbvoLGLYuco9B.jpg", "genre_ids": [35], "id": 78232, "original_language": "en", "original_title": "Bring Me the Head of Mavis Davis", "overview": "Marty's about to make a killing in the music business", "poster_path": "/oRqyLs1NkDbYaOLHjDSX3ozCqM4.jpg", "release_date": "1997-01-16", "title": "Bring Me the Head of Mavis Davis", "video": false, "vote_average": 3.5, "vote_count": 6, "popularity": 2.312}, {"adult": false, "backdrop_path": "/4ywXFLQKkA0XX9xbSXpJW0hqvKu.jpg", "genre_ids": [28, 27, 878], "id": 531208, "original_language": "en", "original_title": "Triassic World", "overview": "In the future, scientists found a way to grow human organs inside dinosaurs to harvest them for profit. But when the dinosaurs break out, the scientists that created them have to find ways undo the terrible mistakes they have done.", "poster_path": "/fcULEb3zNY4Uef8H9DtRoasX8Hi.jpg", "release_date": "2018-06-19", "title": "Triassic World", "video": false, "vote_average": 5.2, "vote_count": 6, "popularity": 4.827}, {"adult": false, "backdrop_path": "/moJy9nK9mgebUWjiHjeHY2OhfjR.jpg", "genre_ids": [16], "id": 87203, "original_language": "en", "original_title": "The Cuckoo Clock", "overview": "A cat is driven up the wall by the inhabitant of the cuckoo clock, so he spends the film trying to catch him...", "poster_path": "/3AW4yp4iM1cFOZHOYUBnKvxyf84.jpg", "release_date": "1950-06-10", "title": "The Cuckoo Clock", "video": false, "vote_average": 6.0, "vote_count": 6, "popularity": 1.581}, {"id": 103602, "video": false, "vote_count": 4, "vote_average": 4.5, "title": "Demolition High", "release_date": "1996-04-12", "original_language": "en", "original_title": "Demolition High", "genre_ids": [28], "backdrop_path": null, "adult": false, "overview": "When a group of terrorists (led by Luther) take over a high school making the students in it their hostages, it is up to several of the students (led by Lenny) to help prevent disaster while the authorities (Slater and General Wainwright) do their part on the other side.", "poster_path": "/p70T94feMhymjddRBtEbQRxFy1r.jpg", "popularity": 2.337}, {"adult": false, "backdrop_path": "/nFGAf283klp1PAgX8W1isFk2vIG.jpg", "genre_ids": [28, 27], "id": 462036, "original_language": "en", "original_title": "The Monster Project", "overview": "When aspiring horror filmmakers post an online casting call looking for \"real life\" monsters to interview for their upcoming documentary called, The Monster Project, they find three individuals claiming to be a skin-walker, a vampire, and a demon. Meeting these monsters at a remote mansion in the woods on the night of a total lunar eclipse, the filmmakers invite the three subjects to share their haunting, personal experiences. Working on the crew is a recovering drug addict who suffers withdrawal and paranoia. As a person of faith, he fears his friends underestimate the dark powers they are summoning. When the interviews turn deadly, he must battle the demons, inside and out, to escape the house and defeat the rise of evil incarnate.", "poster_path": "/1E0JW9zqFwOO7w0HiuEPo6N7HBl.jpg", "release_date": "2017-08-18", "title": "The Monster Project", "video": false, "vote_average": 4.7, "vote_count": 56, "popularity": 8.502}, {"id": 391872, "video": false, "vote_count": 11, "vote_average": 1.7, "title": "Child of Satan", "release_date": "2018-03-06", "original_language": "en", "original_title": "Child of Satan", "genre_ids": [28, 18, 27, 9648, 53], "backdrop_path": "/j8XDb7rZob7zpb7r2QTB4LdX22l.jpg", "adult": false, "overview": "New mom battles the evil lurking within as her adulterous husband hides a dark secret that may lead to the human extinction. After a freak accident during her baby shower, Allison, a dedicated nurse, is rushed to the hospital. After the premature birth of her son Neron, strange events emerge: illusions, vivid dreams, and unexplained killings. The events are linked back to Neron as Allison is taken by sudden premonitions that reveal the victims of her son's next choice.", "poster_path": "/tHAy9bqMa9dlefsiK82CVInQn6y.jpg", "popularity": 3.532}, {"adult": false, "backdrop_path": "/zSMV00DKV4L5c4pxoh3X3xpHFbF.jpg", "genre_ids": [18, 27, 878], "id": 452762, "original_language": "en", "original_title": "Alien Implant", "overview": "A brilliant female recluse sends a distress signal into outer space from a remote location. When the Aliens arrive, they realize it's not a distress signal, it's an ingenious trap designed to exact revenge on the extraterrestrials who abducted her as a child.", "poster_path": "/zDoefPSi891tEwJeW37axppuXnL.jpg", "release_date": "2017-04-14", "title": "Alien Implant", "video": false, "vote_average": 5.2, "vote_count": 13, "popularity": 2.74}, {"adult": false, "backdrop_path": "/vY8r6DpRmSKo1BjtjifvJZdDiF4.jpg", "genre_ids": [27], "id": 522703, "original_language": "en", "original_title": "Night Howl", "overview": "Kaci Evans, a socially awkward photojournalist who can\u2019t seem to come to grips with the death of his mother. As a child, Kaci was psychologically traumatized after seeing his mother monstrously mauled by a large canine. Now that Kaci is an adult, he suffers constant night terrors and flashbacks to the time his mother was murdered. After numerous visits with his psychiatrist, Dr. Ezay, Kaci starts to question whether his nightmares are repressed memories, or are they something far more sinister?", "poster_path": "/bM8ptMCnaKl6O65zPMBMqyVMQt4.jpg", "release_date": "2017-12-12", "title": "Night Howl", "video": false, "vote_average": 4.6, "vote_count": 8, "popularity": 3.345}, {"id": 492713, "video": false, "vote_count": 8, "vote_average": 9.0, "title": "Drowning Echo", "release_date": "2019-08-13", "original_language": "en", "original_title": "Nereus", "genre_ids": [27, 9648, 53], "backdrop_path": "/tDPmahOXYTocdA3f5lrUPecs5Th.jpg", "adult": false, "overview": "During a visit to friends, Sara begins having visions and is attacked by an unearthly creature in her friend\u2019s swimming pool; she soon discovers that anyone who comes into contact with the water is in danger and she is driven to confront the mystical and malevolent creature lurking in the depths", "poster_path": "/isX1Uitnb6rFd4267Mk4JmSP7be.jpg", "popularity": 6.538}, {"adult": false, "backdrop_path": "/cPVhLZoXF4BcNa2muwCTTwiMu7n.jpg", "genre_ids": [99], "id": 241070, "original_language": "en", "original_title": "Divorce Corp.", "overview": "More money flows through the family courts, and into the hands of courthouse insiders, than in all other court systems in America combined \u2013 over $50 billion a year and growing. Through extensive research and interviews with the nation\u2019s top divorce lawyers, mediators, judges, politicians, litigants and journalists, DIVORCE CORP. uncovers how children are torn from their homes, unlicensed custody evaluators extort money, and abusive judges play god with people\u2019s lives while enriching their friends. This explosive documentary reveals the family courts as unregulated, extra-constitutional fiefdoms. Rather than assist victims of domestic crimes, these courts often precipitate them. And rather than help parents and children move on, as they are mandated to do, these courts - and their associates - drag out cases for years, sometimes decades, ultimately resulting in a rash of social ills, including home foreclosure, bankruptcy, suicide and violence.", "poster_path": "/5ZI3ecraeoUbJ6zLaZ8CBEYea4F.jpg", "release_date": "2014-01-10", "title": "Divorce Corp.", "video": false, "vote_average": 7.8, "vote_count": 8, "popularity": 2.591}, {"id": 540970, "video": false, "vote_count": 6, "vote_average": 3.0, "title": "Collider", "release_date": "2018-08-07", "original_language": "en", "original_title": "Collider", "genre_ids": [878], "backdrop_path": "/o99i9Mkb7EWLjFdyxQ91i8mIAOn.jpg", "adult": false, "overview": "In the year 2033, a young girl trapped in a mysterious orphanage recklessly travels back in time to find her parents and amend her past.", "poster_path": "/qMyKYaXk2wpYGuTDjMTt7OHHJxi.jpg", "popularity": 6.608}, {"adult": false, "backdrop_path": "/7oQMct1MrCQaBon0e4T3ZqnG2d8.jpg", "genre_ids": [18, 878, 53], "id": 148343, "original_language": "en", "original_title": "Easton's Article", "overview": "Director:  Tim Connery  After receiving his future obituary via a cryptic Internet file, Easton Denning is forced to confront his troubled past in order to prevent his predicted demise.", "poster_path": "/SBBPlzxPtPpY3yHsD6XzBUI4pK.jpg", "release_date": "2012-06-09", "title": "Easton's Article", "video": false, "vote_average": 5.1, "vote_count": 7, "popularity": 2.144}, {"adult": false, "backdrop_path": "/rGzuBbOmfaaQibxRegLlnkaLKsk.jpg", "genre_ids": [14, 878], "id": 108061, "original_language": "en", "original_title": "Ravagers", "overview": "In a post-apocalyptic world divided between two groups called the Flockers and the Ravagers, an adventurer and his \"pleasure girl\" try to find their way to a rumored safe haven called the Land of Genesis.", "poster_path": "/awBkIIJulVIRNsREvI6BNEwUf2x.jpg", "release_date": "1979-05-01", "title": "Ravagers", "video": false, "vote_average": 4.6, "vote_count": 5, "popularity": 2.736}], "total_pages": 2, "total_results": 40}, "credits": {"cast": [{"cast_id": 1, "character": "S.U.M. 1", "credit_id": "5918c128c3a368426904d706", "gender": 2, "id": 221978, "name": "Iwan Rheon", "order": 0, "profile_path": "/tWpRmRgldINgCYJAACTdHGTLt4A.jpg"}, {"cast_id": 2, "character": "Mac", "credit_id": "5918c134c3a36842d604beff", "gender": 2, "id": 1846, "name": "Andr\u00e9 Hennicke", "order": 1, "profile_path": "/7cjb7ckyLpEFO7uD9mR5g0Yahwv.jpg"}, {"cast_id": 5, "character": "Base (voice)", "credit_id": "5a22fb040e0a264cbc0bf71c", "gender": 2, "id": 141778, "name": "Tim Williams", "order": 2, "profile_path": "/z7KPzneKZwXDPlSs35r9QG1CMWR.jpg"}, {"cast_id": 4, "character": "V.A.X.7", "credit_id": "5a22fad892514103300b6062", "gender": 2, "id": 40745, "name": "Rainer Werner", "order": 3, "profile_path": null}, {"cast_id": 7, "character": "K.E.R.4 (voice)", "credit_id": "5b4e61d5c3a368305e0009f2", "gender": 2, "id": 4886, "name": "Norman Reedus", "order": 4, "profile_path": "/ozHPdO5jAt7ozzdZUgyRAMNPSDW.jpg"}], "crew": [{"credit_id": "5918c114c3a36840aa043d40", "department": "Directing", "gender": 0, "id": 1816849, "job": "Director", "name": "Christian Pasquariello", "profile_path": null}, {"credit_id": "5918c142925141583c0496f7", "department": "Writing", "gender": 0, "id": 1816849, "job": "Writer", "name": "Christian Pasquariello", "profile_path": null}, {"credit_id": "5a22fb38c3a3680b880bd4fd", "department": "Writing", "gender": 0, "id": 1933663, "job": "Dialogue", "name": "Gabrielle Pfeiffer", "profile_path": null}]}}