{"adult": false, "backdrop_path": null, "belongs_to_collection": null, "budget": 0, "genres": [{"id": 80, "name": "Crime"}], "homepage": null, "id": 458496, "imdb_id": "tt4532606", "original_language": "fa", "original_title": "\u0628\u0648\u0641\u0627\u0644\u0648", "overview": "A couple, Shokufeh and Iman who plan to flee Iran travel to the port city of Anzali to meet a man who is to smuggle them across the border. They await him by the side of a lagoon. They accidentally drop their bag of money and jewelry into the lagoon. Iman tries to jump in and find the bag but drowns in the process. A diver called Bahram the Buffalo is assigned to find Iman\u2019s body in the lagoon and a relationship begins to develop between him and Shokufeh\u2026", "popularity": 0.6, "poster_path": "/bmRZiqSVdq2uvQNth8wmRLveSfR.jpg", "production_companies": [], "production_countries": [{"iso_3166_1": "IR", "name": "Iran"}], "release_date": "2015-07-09", "revenue": 0, "runtime": 90, "spoken_languages": [{"iso_639_1": "fa", "name": "\u0641\u0627\u0631\u0633\u06cc"}], "status": "Released", "tagline": "", "title": "The Buffalo", "video": false, "vote_average": 6.0, "vote_count": 1, "keywords": {"keywords": [{"id": 167043, "name": "road movie"}]}, "similar": {"page": 1, "results": [{"id": 380, "video": false, "vote_count": 3521, "vote_average": 7.7, "title": "Rain Man", "release_date": "1988-12-11", "original_language": "en", "original_title": "Rain Man", "genre_ids": [18], "backdrop_path": "/eZ4Aj1O6E95Mk5O9oKKdvfnSWzf.jpg", "adult": false, "overview": "Selfish yuppie Charlie Babbitt's father left a fortune to his savant brother Raymond and a pittance to Charlie; they travel cross-country.", "poster_path": "/vllKYkA7eYi2UMM9yWQ1JegefBh.jpg", "popularity": 13.289}, {"id": 1701, "video": false, "vote_count": 2370, "vote_average": 6.7, "title": "Con Air", "release_date": "1997-06-01", "original_language": "en", "original_title": "Con Air", "genre_ids": [28, 80, 53], "backdrop_path": "/aX2mwtawBe2TD1csPBYvm03sx3a.jpg", "adult": false, "overview": "When the government puts all its rotten criminal eggs in one airborne basket, it's asking for trouble. Before you can say, \"Pass the barf bag,\" the crooks control the plane, led by creepy Cyrus \"The Virus\" Grissom. Watching his every move is the just-released Cameron Poe, who'd rather reunite with his family.", "poster_path": "/yhaOQ7xXw0PLHLvg1w0M9zlPdg6.jpg", "popularity": 27.211}, {"id": 138832, "video": false, "vote_count": 5758, "vote_average": 6.8, "title": "We're the Millers", "release_date": "2013-08-07", "original_language": "en", "original_title": "We're the Millers", "genre_ids": [35, 80], "backdrop_path": "/hoSddFLIyr6FUylOwCxoahbvnXd.jpg", "adult": false, "overview": "A veteran pot dealer creates a fake family as part of his plan to move a huge shipment of weed into the U.S. from Mexico.", "poster_path": "/digXuLXmk88Ar23LYUQTLcz5npA.jpg", "popularity": 22.212}, {"adult": false, "backdrop_path": "/fmo48Lt8XtMWeHeXJzi5SbPCJud.jpg", "genre_ids": [18, 27, 80], "id": 1696, "original_language": "en", "original_title": "The Devil's Rejects", "overview": "The sequel to House of 1000 Corpses \u2013 the Firefly family are ambushed at their isolated home by Sheriff Wydell and a squad of armed men guns blazing \u2013 yet only Otis and his sister, Baby, manage to escape the barrage of bullets unharmed. Hiding out in a backwater motel, the wanted siblings wait to rendezvous with their errant father, Captain Spaulding, killing whoever happens to stand in their way.", "poster_path": "/fj4rrpUlBpFjPaJecpjID6yqacx.jpg", "release_date": "2005-07-22", "title": "The Devil's Rejects", "video": false, "vote_average": 6.7, "vote_count": 720, "popularity": 14.155}, {"id": 1541, "video": false, "vote_count": 1668, "vote_average": 7.5, "title": "Thelma & Louise", "release_date": "1991-05-24", "original_language": "en", "original_title": "Thelma & Louise", "genre_ids": [12, 80, 18, 53], "backdrop_path": "/zfP8YjI0ODMX8v0ZHHIFxCTJBCm.jpg", "adult": false, "overview": "Whilst on a short weekend getaway, Louise shoots a man who had tried to rape Thelma. Due to the incriminating circumstances, they make a run for it and thus a cross country chase ensues for the two fugitives. Along the way, both women rediscover the strength of their friendship and surprising aspects of their personalities and self-strengths in the trying times.", "poster_path": "/pnzuLoE52EiTfjfqRex2uTkH7LB.jpg", "popularity": 23.518}, {"id": 11153, "video": false, "vote_count": 759, "vote_average": 7.1, "title": "National Lampoon's Vacation", "release_date": "1983-07-28", "original_language": "en", "original_title": "National Lampoon's Vacation", "genre_ids": [12, 35], "backdrop_path": "/zcJxJVhvxNHJJ2J7Q7NhgO9nPUV.jpg", "adult": false, "overview": "Clark Griswold is on a quest to take his family on a quest to Walley World theme park for a vacation, but things don't go exactly as planned.", "poster_path": "/ySI88wO1IFyKGWpSKRTSPilE3t2.jpg", "popularity": 15.962}, {"adult": false, "backdrop_path": "/sbH9aJV7fqhRaazCSWuOwNDIf1m.jpg", "genre_ids": [35], "id": 212778, "original_language": "en", "original_title": "Chef", "overview": "When Chef Carl Casper suddenly quits his job at a prominent Los Angeles restaurant after refusing to compromise his creative integrity for its controlling owner, he is left to figure out what's next. Finding himself in Miami, he teams up with his ex-wife, his friend and his son to launch a food truck. Taking to the road, Chef Carl goes back to his roots to reignite his passion for the kitchen -- and zest for life and love.", "poster_path": "/dwweMX2MqYOYGg2Z2lZ8f6uopcg.jpg", "release_date": "2014-05-08", "title": "Chef", "video": false, "vote_average": 7.1, "vote_count": 1959, "popularity": 15.646}, {"id": 475210, "video": false, "vote_count": 1086, "vote_average": 5.1, "title": "How It Ends", "release_date": "2018-07-13", "original_language": "en", "original_title": "How It Ends", "genre_ids": [28, 12, 9648, 878, 53], "backdrop_path": "/qFPSiVDvhuL7E30r83R2ZxGQjWe.jpg", "adult": false, "overview": "A desperate father tries to return home to his pregnant wife after a mysterious apocalyptic event turns everything to chaos.", "poster_path": "/prdFM08mGvVDA6uQxKJh8n8Vek1.jpg", "popularity": 13.51}, {"id": 920, "video": false, "vote_count": 8603, "vote_average": 6.7, "title": "Cars", "release_date": "2006-06-08", "original_language": "en", "original_title": "Cars", "genre_ids": [12, 16, 35, 10751], "backdrop_path": "/a1MlbLBk5Sy6YvMbSuKfwGlDVlb.jpg", "adult": false, "overview": "Lightning McQueen, a hotshot rookie race car driven to succeed, discovers that life is about the journey, not the finish line, when he finds himself unexpectedly detoured in the sleepy Route 66 town of Radiator Springs. On route across the country to the big Piston Cup Championship in California to compete against two seasoned pros, McQueen gets to know the town's offbeat characters.", "poster_path": "/jpfkzbIXgKZqCZAkEkFH2VYF63s.jpg", "popularity": 58.103}, {"id": 1878, "video": false, "vote_count": 2625, "vote_average": 7.2, "title": "Fear and Loathing in Las Vegas", "release_date": "1998-05-22", "original_language": "en", "original_title": "Fear and Loathing in Las Vegas", "genre_ids": [12, 35, 18], "backdrop_path": "/vtEKE4OFsnuIh37oo1arOMM2ELv.jpg", "adult": false, "overview": "Raoul Duke and his attorney Dr. Gonzo drive a red convertible across the Mojave desert to Las Vegas with a suitcase full of drugs to cover a motorcycle race. As their consumption of drugs increases at an alarming rate, the stoned duo trash their hotel room and fear legal repercussions. Duke begins to drive back to L.A., but after an odd run-in with a cop, he returns to Sin City and continues his wild drug binge.", "poster_path": "/u9ffgobMADj6GCafeImbov566j9.jpg", "popularity": 22.582}, {"id": 291870, "video": false, "vote_count": 2886, "vote_average": 5.8, "title": "Dirty Grandpa", "release_date": "2016-01-21", "original_language": "en", "original_title": "Dirty Grandpa", "genre_ids": [35], "backdrop_path": "/ivm52GLofIbvTb4dp4S4zbPO6II.jpg", "adult": false, "overview": "Jason Kelly is one week away from marrying his boss's uber-controlling daughter, putting him on the fast track for a partnership at the law firm. However, when the straight-laced Jason is tricked into driving his foul-mouthed grandfather, Dick, to Daytona for spring break, his pending nuptials are suddenly in jeopardy. Between riotous frat parties, bar fights, and an epic night of karaoke, Dick is on a quest to live his life to the fullest and bring Jason along for the ride.", "poster_path": "/cZEx6mB5Ftnt7LvlDjTKXcrTvyg.jpg", "popularity": 20.13}, {"id": 296099, "video": false, "vote_count": 2162, "vote_average": 6.2, "title": "Vacation", "release_date": "2015-07-28", "original_language": "en", "original_title": "Vacation", "genre_ids": [35], "backdrop_path": "/lWhTsYsTRMDDBg3KIUMzVb8gs2l.jpg", "adult": false, "overview": "Hoping to bring his family closer together and to recreate his childhood vacation for his own kids, a grown up Rusty Griswold takes his wife and their two sons on a cross-country road trip to the coolest theme park in America, Walley World. Needless to say, things don't go quite as planned.", "poster_path": "/q9kL9WW0Uu4AcfTi5iCLcYzBgnm.jpg", "popularity": 24.125}, {"id": 8275, "video": false, "vote_count": 1172, "vote_average": 5.4, "title": "American Pie Presents: The Naked Mile", "release_date": "2006-12-07", "original_language": "en", "original_title": "American Pie Presents: The Naked Mile", "genre_ids": [35], "backdrop_path": "/pOGdj63Szvtyf1nYa5h8hZ1vDFm.jpg", "adult": false, "overview": "The movie will shift its focus on Erik Stifler, the cousin of Matt and Steve, a youngster who is nothing like his wild relations. Peer pressure starts to turn him to live up to the legacy of the other Stiflers when he attends the Naked Mile, a naked run across the college campus. Things get worse when he finds that his cousin Dwight is the life of the party down at the campus", "poster_path": "/uIqZ7Pt0xMAcQAXUc2nziZc4T47.jpg", "popularity": 21.299}, {"id": 19908, "video": false, "vote_count": 7598, "vote_average": 7.2, "title": "Zombieland", "release_date": "2009-10-07", "original_language": "en", "original_title": "Zombieland", "genre_ids": [35, 27], "backdrop_path": "/lLgLFzSZduH9kBxrk6BvoHc1gg0.jpg", "adult": false, "overview": "Columbus has made a habit of running from what scares him. Tallahassee doesn't have fears. If he did, he'd kick their ever-living ass. In a world overrun by zombies, these two are perfectly evolved survivors. But now, they're about to stare down the most terrifying prospect of all: each other.", "poster_path": "/vUzzDpVrab1BOG3ogxhRGfLN94d.jpg", "popularity": 27.301}, {"id": 1391, "video": false, "vote_count": 688, "vote_average": 7.4, "title": "Y Tu Mam\u00e1 Tambi\u00e9n", "release_date": "2001-06-08", "original_language": "es", "original_title": "Y tu mam\u00e1 tambi\u00e9n", "genre_ids": [18, 10749], "backdrop_path": "/5jXzf6VCxmRAbQYYOuoPgGZRbRp.jpg", "adult": false, "overview": "In Mexico, two teenage boys and an attractive older woman embark on a road trip and learn a thing or two about life, friendship, sex, and each other.", "poster_path": "/4n6lnr7q3Ysz4rKz3raxkltbHgr.jpg", "popularity": 16.073}, {"adult": false, "backdrop_path": "/by0WtpJ5UNxOy6ytIfPPTasbRoB.jpg", "genre_ids": [28, 12, 35, 18, 10751, 10402, 10749], "id": 17130, "original_language": "en", "original_title": "Crossroads", "overview": "Three friends get together and bury a box making a pact to open it at midnight at their high school graduation. In the little town in Georgia that they live in, things soon change. One is little miss perfect, one is an engaged prom queen, and the other is a pregnant outcast. The night of graduation, they open the box and they strike up a conversation. All of a sudden, one brings up the topic of her going to Los Angeles for a record contract audition. They all decide to go together and they leave. With a little money, they set out on the road with a guy named Ben. When one of them tells the other a rumor that he might be a homicidal maniac they are all scared of him. When they reach LA, Lucy falls in love with Ben and against her father's wishes, she stays and she goes to the audition.", "poster_path": "/egIs4cWxn0iBErFKrQ7STckjj49.jpg", "release_date": "2002-02-15", "title": "Crossroads", "video": false, "vote_average": 5.0, "vote_count": 334, "popularity": 14.197}, {"id": 338766, "video": false, "vote_count": 2724, "vote_average": 7.3, "title": "Hell or High Water", "release_date": "2016-08-12", "original_language": "en", "original_title": "Hell or High Water", "genre_ids": [80, 37], "backdrop_path": "/5GbRKOQSY08U3SQXXcQAKEnL2rE.jpg", "adult": false, "overview": "A divorced dad and his ex-con brother resort to a desperate scheme in order to save their family's farm in West Texas.", "poster_path": "/6YOrNBdoXvT8aC5VPLkkN6t5z0V.jpg", "popularity": 12.085}, {"id": 100042, "video": false, "vote_count": 2023, "vote_average": 5.5, "title": "Dumb and Dumber To", "release_date": "2014-11-12", "original_language": "en", "original_title": "Dumb and Dumber To", "genre_ids": [35], "backdrop_path": "/pMNSiNT55XrxWPmoI5ytJyinRa8.jpg", "adult": false, "overview": "20 years after the dimwits set out on their first adventure, they head out in search of one of their long lost children in the hope of gaining a new kidney.", "poster_path": "/Ekw3ijq9L6RiKvv5m2tPOEklHF.jpg", "popularity": 23.763}, {"id": 19621, "video": false, "vote_count": 73, "vote_average": 6.5, "title": "The Hit", "release_date": "1984-09-12", "original_language": "en", "original_title": "The Hit", "genre_ids": [28, 80, 18, 53], "backdrop_path": "/7npFn5reJNnlsAFOVU6U49Wfbkg.jpg", "adult": false, "overview": "Ex-gangster Willie Parker has betrayed his former \"colleagues\" and now lives in Spain where he thinks he can hide from their vengeance...", "poster_path": "/alYtSR6GKxUS1Lr5zRuowpr9JdZ.jpg", "popularity": 7.318}, {"adult": false, "backdrop_path": "/vXT5Gw09k99o9XXqqxBPz9NKgsa.jpg", "genre_ids": [35, 12], "id": 9285, "original_language": "en", "original_title": "Road Trip", "overview": "Four friends take off on an 1800 mile road trip to retrieve an illicit tape mistakenly mailed to a girl friend.", "poster_path": "/DCoZVnHVvtKTYwfM00dfVRbfUQ.jpg", "release_date": "2000-05-19", "title": "Road Trip", "video": false, "vote_average": 6.0, "vote_count": 1018, "popularity": 20.323}], "total_pages": 39, "total_results": 778}, "recommendations": {"page": 1, "results": [], "total_pages": 1, "total_results": 0}, "credits": {"cast": [{"cast_id": 3, "character": "", "credit_id": "59215ddfc3a368774e0594f8", "gender": 2, "id": 1211575, "name": "Parviz Parastui", "order": 1, "profile_path": "/ukhmEOpD70Yqr3pVoSE0g8JIS0P.jpg"}, {"cast_id": 4, "character": "", "credit_id": "59215de9c3a368774e059502", "gender": 0, "id": 1574748, "name": "Soheila Golestani", "order": 2, "profile_path": null}, {"cast_id": 5, "character": "", "credit_id": "59215df39251414add053d40", "gender": 0, "id": 1694502, "name": "Pantea Panahiha", "order": 3, "profile_path": null}, {"cast_id": 6, "character": "", "credit_id": "5d21ad0515c6364f5bf4e744", "gender": 0, "id": 1240285, "name": "Houman Seyyedi", "order": 4, "profile_path": null}], "crew": [{"credit_id": "59215d929251414add053ceb", "department": "Directing", "gender": 0, "id": 1820756, "job": "Director", "name": "Kaveh Sajadi Hoseini", "profile_path": null}, {"credit_id": "59215dc0c3a36878fe05046e", "department": "Writing", "gender": 0, "id": 1820757, "job": "Writer", "name": "Taymaz Afsari", "profile_path": null}, {"credit_id": "59215dce925141482f055802", "department": "Writing", "gender": 0, "id": 1820756, "job": "Writer", "name": "Kaveh Sajadi Hoseini", "profile_path": null}]}}