{"adult": false, "backdrop_path": "/bZJEfFXaxHWmKSfQQx5KGTCrEO9.jpg", "belongs_to_collection": null, "budget": 0, "genres": [{"id": 99, "name": "Documentary"}], "homepage": "http://www.bbc.co.uk/programmes/p00kjq6d", "id": 460870, "imdb_id": "tt2083695", "original_language": "en", "original_title": "Shock and Awe: The Story of Electricity", "overview": "Professor Jim Al-Khalili tells the electrifying story of our quest to master nature's most mysterious force - electricity. Until fairly recently, electricity was seen as a magical power, but it is now the lifeblood of the modern world and underpins every aspect of our technological advancements. Without electricity, we would be lost. This series tells of dazzling leaps of imagination and extraordinary experiments - a story of maverick geniuses who used electricity to light our cities, to communicate across the seas and through the air, to create modern industry and to give us the digital revolution.", "popularity": 1.96, "poster_path": "/rKPdZnfN5rltfSILyOnALn3lIUq.jpg", "production_companies": [{"id": 37457, "logo_path": "/muAU7kbTOnS3K5dcpZE4LJogpoQ.png", "name": "The Open University", "origin_country": "GB"}, {"id": 3324, "logo_path": "/16fY7pucCzn7WSOYxOGRHlAayL3.png", "name": "BBC", "origin_country": "GB"}], "production_countries": [{"iso_3166_1": "GB", "name": "United Kingdom"}], "release_date": "2011-10-06", "revenue": 0, "runtime": 180, "spoken_languages": [{"iso_639_1": "en", "name": "English"}], "status": "Released", "tagline": "", "title": "Shock and Awe: The Story of Electricity", "video": false, "vote_average": 8.0, "vote_count": 1, "keywords": {"keywords": [{"id": 1706, "name": "experiment"}, {"id": 41594, "name": "electricity"}, {"id": 214839, "name": "nikola tesla"}]}, "similar": {"page": 1, "results": [{"adult": false, "backdrop_path": "/oeGQCv7bRZKaDOxLFC8oqVRCnOd.jpg", "genre_ids": [878, 35, 27], "id": 1694, "original_language": "en", "original_title": "Re-Animator", "overview": "A dedicated student at a medical college and his girlfriend become involved in bizarre experiments centering around the re-animation of dead tissue when an odd new student arrives on campus.", "poster_path": "/hJnP2O0uTuh8HsR094WLTi3sQwc.jpg", "release_date": "1985-10-18", "title": "Re-Animator", "video": false, "vote_average": 7.1, "vote_count": 557, "popularity": 13.506}, {"adult": false, "backdrop_path": "/108DrCir1YkVyhyxRP6ukB0dZpS.jpg", "genre_ids": [35], "id": 3034, "original_language": "en", "original_title": "Young Frankenstein", "overview": "A young neurosurgeon inherits the castle of his grandfather, the famous Dr. Victor von Frankenstein. In the castle he finds a funny hunchback, a pretty lab assistant and the elderly housekeeper. Young Frankenstein believes that the work of his grandfather was delusional, but when he discovers the book where the mad doctor described his reanimation experiment, he suddenly changes his mind.", "poster_path": "/tQJAWbIjvvqVKLLbIZHtwGw2HTf.jpg", "release_date": "1974-12-15", "title": "Young Frankenstein", "video": false, "vote_average": 7.9, "vote_count": 1841, "popularity": 17.144}, {"id": 9426, "video": false, "vote_count": 2198, "vote_average": 7.3, "title": "The Fly", "release_date": "1986-08-15", "original_language": "en", "original_title": "The Fly", "genre_ids": [27, 878], "backdrop_path": "/bukhBqYdlcLxQBL1rVswewSka6R.jpg", "adult": false, "overview": "When Seth Brundle makes a huge scientific and technological breakthrough in teleportation, he decides to test it on himself. Unbeknownst to him, a common housefly manages to get inside the device and the two become one.", "poster_path": "/q49tjSe3O152t9QVwaradePGu7W.jpg", "popularity": 19.478}, {"id": 19901, "video": false, "vote_count": 1109, "vote_average": 6.2, "title": "Daybreakers", "release_date": "2009-09-11", "original_language": "en", "original_title": "Daybreakers", "genre_ids": [28, 14, 27, 878], "backdrop_path": "/jjTK7kQS0LBU8GNZlUvlRK0dR1h.jpg", "adult": false, "overview": "In the year 2019, a plague has transformed almost every human into vampires. Faced with a dwindling blood supply, the fractured dominant race plots their survival; meanwhile, a researcher works with a covert band of vampires on a way to save humankind.", "poster_path": "/ilicCtkHIBb90PvTfXMeSeJ7b0o.jpg", "popularity": 19.939}, {"id": 9738, "video": false, "vote_count": 6166, "vote_average": 5.7, "title": "Fantastic Four", "release_date": "2005-06-29", "original_language": "en", "original_title": "Fantastic Four", "genre_ids": [28, 12, 14, 878], "backdrop_path": "/6RaH2Znu7dUQq7c8surf7hRp44f.jpg", "adult": false, "overview": "During a space voyage, four scientists are altered by cosmic rays: Reed Richards gains the ability to stretch his body; Sue Storm can become invisible; Johnny Storm controls fire; and Ben Grimm is turned into a super-strong \u2026 thing. Together, these \"Fantastic Four\" must now thwart the evil plans of Dr. Doom and save the world from certain destruction.", "poster_path": "/sYNOCHiWA9UDUHlPvRWztSo5hZV.jpg", "popularity": 24.557}, {"id": 3035, "video": false, "vote_count": 715, "vote_average": 7.5, "title": "Frankenstein", "release_date": "1931-11-21", "original_language": "en", "original_title": "Frankenstein", "genre_ids": [18, 27, 878], "backdrop_path": "/nwmG8pQQ1xFAPZruYNnrnld2KMC.jpg", "adult": false, "overview": "Dr Henry Frankenstein is obsessed with assembling a living being from parts of several exhumed corpses.", "poster_path": "/wB58wlBAr6484Wm6VyFDqSD8VOJ.jpg", "popularity": 24.454}, {"adult": false, "backdrop_path": "/bvbyidkMaBls1LTaIWYY6UmYTaL.jpg", "genre_ids": [28, 878], "id": 336843, "original_language": "en", "original_title": "Maze Runner: The Death Cure", "overview": "Thomas leads his group of escaped Gladers on their final and most dangerous mission yet. To save their friends, they must break into the legendary Last City, a WCKD-controlled labyrinth that may turn out to be the deadliest maze of all. Anyone who makes it out alive will get answers to the questions the Gladers have been asking since they first arrived in the maze.", "poster_path": "/2zYfzA3TBwrMC8tfFbpiTLODde0.jpg", "release_date": "2018-01-10", "title": "Maze Runner: The Death Cure", "video": false, "vote_average": 7.0, "vote_count": 4393, "popularity": 24.242}, {"id": 126889, "video": false, "vote_count": 5385, "vote_average": 5.9, "title": "Alien: Covenant", "release_date": "2017-05-09", "original_language": "en", "original_title": "Alien: Covenant", "genre_ids": [27, 878, 53], "backdrop_path": "/6jajFcaY2YsfGQstJ5HaqZNVseX.jpg", "adult": false, "overview": "Bound for a remote planet on the far side of the galaxy, the crew of the colony ship 'Covenant' discovers what is thought to be an uncharted paradise, but is actually a dark, dangerous world\u2014which has a sole inhabitant: the 'synthetic', David, survivor of the doomed Prometheus expedition.", "poster_path": "/zecMELPbU5YMQpC81Z8ImaaXuf9.jpg", "popularity": 33.391}, {"id": 399055, "video": false, "vote_count": 8032, "vote_average": 7.2, "title": "The Shape of Water", "release_date": "2017-12-01", "original_language": "en", "original_title": "The Shape of Water", "genre_ids": [18, 14, 10749], "backdrop_path": "/rgyhSn3mINvkuy9iswZK0VLqQO3.jpg", "adult": false, "overview": "An other-worldly story, set against the backdrop of Cold War era America circa 1962, where a mute janitor working at a lab falls in love with an amphibious man being held captive there and devises a plan to help him escape.", "poster_path": "/k4FwHlMhuRR5BISY2Gm2QZHlH5Q.jpg", "popularity": 27.281}, {"id": 10344, "video": false, "vote_count": 286, "vote_average": 5.3, "title": "The Fly II", "release_date": "1989-02-10", "original_language": "en", "original_title": "The Fly II", "genre_ids": [27, 878, 53], "backdrop_path": "/jk7lRH7mwFTA4RgRTN5fvoImLow.jpg", "adult": false, "overview": "Martin Brundle, born of the human/fly, is adopted by his father's place of employment (Bartok Inc.) while the employees simply wait for his mutant chromosomes to come out of their dormant state.", "poster_path": "/zoIWGWVMCbkmsVieP99br9ZC8yY.jpg", "popularity": 18.001}, {"adult": false, "backdrop_path": "/tmFDgDmrdp5DYezwpL0ymQKIbnV.jpg", "genre_ids": [28, 12, 14], "id": 102382, "original_language": "en", "original_title": "The Amazing Spider-Man 2", "overview": "For Peter Parker, life is busy. Between taking out the bad guys as Spider-Man and spending time with the person he loves, Gwen Stacy, high school graduation cannot come quickly enough. Peter has not forgotten about the promise he made to Gwen\u2019s father to protect her by staying away, but that is a promise he cannot keep. Things will change for Peter when a new villain, Electro, emerges, an old friend, Harry Osborn, returns, and Peter uncovers new clues about his past.", "poster_path": "/mUjWof8LHDgCZC9mFp0UYKBf1Dm.jpg", "release_date": "2014-04-16", "title": "The Amazing Spider-Man 2", "video": false, "vote_average": 6.4, "vote_count": 7892, "popularity": 25.192}, {"id": 2666, "video": false, "vote_count": 1510, "vote_average": 7.4, "title": "Dark City", "release_date": "1998-02-27", "original_language": "en", "original_title": "Dark City", "genre_ids": [9648, 878], "backdrop_path": "/rIWui0S2ugwTWlhna6CTS3RYW9q.jpg", "adult": false, "overview": "A man struggles with memories of his past, including a wife he cannot remember, in a nightmarish world with no sun and run by beings with telekinetic powers who seek the souls of humans.", "poster_path": "/yR7rapBFxBoBT0vkZQIXhLBr726.jpg", "popularity": 17.969}, {"id": 384521, "video": false, "vote_count": 1919, "vote_average": 5.6, "title": "The Cloverfield Paradox", "release_date": "2018-02-04", "original_language": "en", "original_title": "The Cloverfield Paradox", "genre_ids": [27, 9648, 878, 53], "backdrop_path": "/lX4jScWnurasu6Kxuqo9819mjM2.jpg", "adult": false, "overview": "Orbiting above a planet on the brink of war, scientists test a device to solve an energy crisis and end up face-to-face with a dark alternate reality.", "poster_path": "/dJe4s2h9hac0Fu3pQVV4OuWe8kU.jpg", "popularity": 16.874}, {"adult": false, "backdrop_path": "/nq60mZOlrD4mZJg1T4hHUtWTIkN.jpg", "genre_ids": [12, 14, 28, 53], "id": 1979, "original_language": "en", "original_title": "Fantastic Four: Rise of the Silver Surfer", "overview": "The Fantastic Four return to the big screen as a new and all powerful enemy threatens the Earth. The seemingly unstoppable 'Silver Surfer', but all is not what it seems and there are old and new enemies that pose a greater threat than the intrepid superheroes realize.", "poster_path": "/fXpziQgnBnB4bLgjKhjTbLQumE5.jpg", "release_date": "2007-06-13", "title": "Fantastic Four: Rise of the Silver Surfer", "video": false, "vote_average": 5.5, "vote_count": 5275, "popularity": 33.44}, {"adult": false, "backdrop_path": "/3dWSyYEdcmvNjzwIPy4sPHjdJpw.jpg", "genre_ids": [878, 27, 28], "id": 9348, "original_language": "en", "original_title": "Species", "overview": "In 1993, the Search for Extra Terrestrial Intelligence Project receives a transmission detailing an alien DNA structure, along with instructions on how to splice it with human DNA. The result is Sil, a sensual but deadly creature who can change from a beautiful woman to an armour-plated killing machine in the blink of an eye.", "poster_path": "/94P6kzKH8aPmQmPr9yZjgy7BtQQ.jpg", "release_date": "1995-07-07", "title": "Species", "video": false, "vote_average": 5.7, "vote_count": 798, "popularity": 20.837}, {"id": 686, "video": false, "vote_count": 2421, "vote_average": 7.3, "title": "Contact", "release_date": "1997-07-11", "original_language": "en", "original_title": "Contact", "genre_ids": [18, 9648, 878], "backdrop_path": "/dBK75oCKuHVuJ9rSUnusIFbhocH.jpg", "adult": false, "overview": "Contact is a science fiction film about an encounter with alien intelligence. Based on the novel by Carl Sagan the film starred Jodie Foster as the one chosen scientist who must make some difficult decisions between her beliefs, the truth, and reality.", "poster_path": "/bCpMIywuNZeWt3i5UMLEIc0VSwM.jpg", "popularity": 19.203}, {"id": 1930, "video": false, "vote_count": 11255, "vote_average": 6.5, "title": "The Amazing Spider-Man", "release_date": "2012-06-27", "original_language": "en", "original_title": "The Amazing Spider-Man", "genre_ids": [28, 12, 14], "backdrop_path": "/ujAY1ad7yS2TfV0GDNGUZ7DK0mo.jpg", "adult": false, "overview": "Peter Parker is an outcast high schooler abandoned by his parents as a boy, leaving him to be raised by his Uncle Ben and Aunt May. Like most teenagers, Peter is trying to figure out who he is and how he got to be the person he is today. As Peter discovers a mysterious briefcase that belonged to his father, he begins a quest to understand his parents' disappearance \u2013 leading him directly to Oscorp and the lab of Dr. Curt Connors, his father's former partner. As Spider-Man is set on a collision course with Connors' alter ego, The Lizard, Peter will make life-altering choices to use his powers and shape his destiny to become a hero.", "poster_path": "/eA2D86Y6VPWuUzZyatiLBwpTilQ.jpg", "popularity": 32.122}, {"id": 157336, "video": false, "vote_count": 20600, "vote_average": 8.3, "title": "Interstellar", "release_date": "2014-11-05", "original_language": "en", "original_title": "Interstellar", "genre_ids": [12, 18, 878], "backdrop_path": "/xu9zaAevzQ5nnrsXN6JcahLnG4i.jpg", "adult": false, "overview": "Interstellar chronicles the adventures of a group of explorers who make use of a newly discovered wormhole to surpass the limitations on human space travel and conquer the vast distances involved in an interstellar voyage.", "poster_path": "/nBNZadXqJSdt05SHLqgT0HuC5Gm.jpg", "popularity": 66.028}, {"id": 263115, "video": false, "vote_count": 13396, "vote_average": 7.8, "title": "Logan", "release_date": "2017-02-28", "original_language": "en", "original_title": "Logan", "genre_ids": [28, 18, 878], "backdrop_path": "/yEv8c6i79vk06sZDC3Z9D8HQLVV.jpg", "adult": false, "overview": "In the near future, a weary Logan cares for an ailing Professor X in a hideout on the Mexican border. But Logan's attempts to hide from the world and his legacy are upended when a young mutant arrives, pursued by dark forces.", "poster_path": "/fnbjcRDYn6YviCcePDnGdyAkYsB.jpg", "popularity": 43.501}, {"id": 44833, "video": false, "vote_count": 3510, "vote_average": 5.6, "title": "Battleship", "release_date": "2012-04-11", "original_language": "en", "original_title": "Battleship", "genre_ids": [28, 12, 878, 53], "backdrop_path": "/rLhO767vwqRfUBmJOqvEmt5myIF.jpg", "adult": false, "overview": "When mankind beams a radio signal into space, a reply comes from \u2018Planet G\u2019, in the form of several alien crafts that splash down in the waters off Hawaii. Lieutenant Alex Hopper is a weapons officer assigned to the USS John Paul Jones, part of an international naval coalition which becomes the world's last hope for survival as they engage the hostile alien force of unimaginable strength. While taking on the invaders, Hopper must also try to live up to the potential that his brother, and his fianc\u00e9e's father, Admiral Shane, expect of him.", "poster_path": "/7hN6WtMepoMZyeHZU2DM21cEj3z.jpg", "popularity": 23.786}], "total_pages": 41, "total_results": 816}, "recommendations": {"page": 1, "results": [], "total_pages": 1, "total_results": 0}, "credits": {"cast": [{"cast_id": 0, "character": "Himself - Presenter", "credit_id": "5937dad0c3a368277a004959", "gender": 2, "id": 221787, "name": "Jim Al-Khalili", "order": 1, "profile_path": "/auZRRIhEmTgosusDzxLZDOTey1K.jpg"}], "crew": [{"credit_id": "5937daedc3a3682811004649", "department": "Directing", "gender": 0, "id": 1141408, "job": "Director", "name": "Tim Usborne", "profile_path": null}, {"credit_id": "5937db519251417f55004863", "department": "Directing", "gender": 0, "id": 1829915, "job": "Director", "name": "John Eastman", "profile_path": null}, {"credit_id": "5937db679251417f590047d7", "department": "Directing", "gender": 0, "id": 1829916, "job": "Director", "name": "Alex Freeman", "profile_path": null}, {"credit_id": "5937db82c3a36827bf0045ba", "department": "Crew", "gender": 0, "id": 1108356, "job": "Cinematography", "name": "Andy Jackson", "profile_path": null}]}}