{"adult": false, "backdrop_path": "/lGkE59Y3astTmJdMaBONeFv73n3.jpg", "belongs_to_collection": null, "budget": 0, "genres": [{"id": 16, "name": "Animation"}], "homepage": "http://ikkifilms.com/en/films/negative-space/", "id": 461303, "imdb_id": "tt7090150", "original_language": "fr", "original_title": "Negative Space", "overview": "Even though Sam's father is hardly ever home because he is often away on business trips, he is able to connect with his son by teaching him how to pack a suitcase.", "popularity": 3.998, "poster_path": "/z0ifUdJC7RqxxGcmWWsRX3KTqOg.jpg", "production_companies": [{"id": 94752, "logo_path": null, "name": "Ikki Films", "origin_country": ""}, {"id": 107256, "logo_path": null, "name": "Manuel Cam Studio", "origin_country": ""}], "production_countries": [{"iso_3166_1": "FR", "name": "France"}], "release_date": "2017-06-12", "revenue": 0, "runtime": 6, "spoken_languages": [{"iso_639_1": "en", "name": "English"}, {"iso_639_1": "fr", "name": "Fran\u00e7ais"}], "status": "Released", "tagline": "", "title": "Negative Space", "video": false, "vote_average": 7.5, "vote_count": 56, "keywords": {"keywords": [{"id": 5153, "name": "son"}, {"id": 5905, "name": "father"}, {"id": 10121, "name": "stop motion"}, {"id": 214549, "name": "short"}]}, "similar": {"page": 1, "results": [{"id": 326359, "video": false, "vote_count": 1180, "vote_average": 6.8, "title": "Frozen Fever", "release_date": "2015-03-09", "original_language": "en", "original_title": "Frozen Fever", "genre_ids": [12, 16, 10751], "backdrop_path": "/ubioPGniCfDiASmYYpeJs5RRNaC.jpg", "adult": false, "overview": "On Anna's birthday, Elsa and Kristoff are determined to give her the best celebration ever, but Elsa's icy powers may put more than just the party at risk.", "poster_path": "/lKJiVPzsAO9IJ4LKWXZ8vkR2bg4.jpg", "popularity": 17.218}, {"adult": false, "backdrop_path": "/4brEMzPazQE3hv3mogj6k1a29RP.jpg", "genre_ids": [10749, 14, 16], "id": 3933, "original_language": "en", "original_title": "Corpse Bride", "overview": "Set in a 19th-century european village, this stop-motion animation feature follows the story of Victor, a young man whisked away to the underworld and wed to a mysterious corpse bride, while his real bride Victoria waits bereft in the land of the living.", "poster_path": "/o9GbcdP7rOg2m1NyUnUR3ZwNcTE.jpg", "release_date": "2005-09-12", "title": "Corpse Bride", "video": false, "vote_average": 7.4, "vote_count": 4928, "popularity": 23.702}, {"adult": false, "backdrop_path": "/5OeY4U2rzePxWq2rkqMajUx2gz7.jpg", "genre_ids": [16, 10751, 12, 14, 10749], "id": 812, "original_language": "en", "original_title": "Aladdin", "overview": "Princess Jasmine grows tired of being forced to remain in the palace, so she sneaks out into the marketplace, in disguise, where she meets street-urchin Aladdin.  The couple falls in love, although Jasmine may only marry a prince.  After being thrown in jail, Aladdin becomes embroiled in a plot to find a mysterious lamp, with which the evil Jafar hopes to rule the land.", "poster_path": "/mjKozYRuHc9j7SmiXmbVmCiAM0A.jpg", "release_date": "1992-11-25", "title": "Aladdin", "video": false, "vote_average": 7.6, "vote_count": 7289, "popularity": 35.494}, {"id": 14813, "video": false, "vote_count": 456, "vote_average": 7.6, "title": "Mickey's Christmas Carol", "release_date": "1983-10-19", "original_language": "en", "original_title": "Mickey's Christmas Carol", "genre_ids": [16, 10751], "backdrop_path": "/fDK3xeAcQfQ40ZUULgZshElkspa.jpg", "adult": false, "overview": "It is an adaptation of the Charles Dickens classic A Christmas Carol, featuring Scrooge McDuck as his namesake and inspiration Ebenezer Scrooge and Mickey Mouse as Bob Cratchit. This film was based on a 1972 audio musical entitled Disney's A Christmas Carol. It is a twenty-four minute animated short film produced by Walt Disney Productions as an accompaniment to a re-release of The Rescuers.", "poster_path": "/29iF1IiC3ZyJQ1kmTf4LD8p8oro.jpg", "popularity": 14.7}, {"id": 150540, "video": false, "vote_count": 13957, "vote_average": 7.9, "title": "Inside Out", "release_date": "2015-06-09", "original_language": "en", "original_title": "Inside Out", "genre_ids": [16, 35, 18, 10751], "backdrop_path": "/szytSpLAyBh3ULei3x663mAv5ZT.jpg", "adult": false, "overview": "Growing up can be a bumpy road, and it's no exception for Riley, who is uprooted from her Midwest life when her father starts a new job in San Francisco. Riley's guiding emotions\u2014 Joy, Fear, Anger, Disgust and Sadness\u2014live in Headquarters, the control centre inside Riley's mind, where they help advise her through everyday life and tries to keep things positive, but the emotions conflict on how best to navigate a new city, house and school.", "poster_path": "/aAmfIX3TT40zUHGcCKrlOZRKC7u.jpg", "popularity": 57.362}, {"id": 9479, "video": false, "vote_count": 5316, "vote_average": 7.8, "title": "The Nightmare Before Christmas", "release_date": "1993-10-09", "original_language": "en", "original_title": "The Nightmare Before Christmas", "genre_ids": [16, 14, 10751], "backdrop_path": "/16lk65YfrDFIr6evkWRjSeOOSws.jpg", "adult": false, "overview": "Tired of scaring humans every October 31 with the same old bag of tricks, Jack Skellington, the spindly king of Halloween Town, kidnaps Santa Claus and plans to deliver shrunken heads and other ghoulish gifts to children on Christmas morning. But as Christmas approaches, Jack's rag-doll girlfriend, Sally, tries to foil his misguided plans.", "poster_path": "/6oxkO1VgKCq74fNILKAg6t2dVEt.jpg", "popularity": 18.951}, {"adult": false, "backdrop_path": "/hPByrqJXCXIViFheXQh48wtI7T6.jpg", "genre_ids": [16, 12, 14, 10751], "id": 31135, "original_language": "en", "original_title": "Mickey Mouse: Mickey and the Beanstalk", "overview": "Based on the timeless adventures of \"Jack and the Beanstalk,\" Mickey, Donald and Goofy climb a fantastic beanstalk up into the sky to a place where everything is huge -- the food, the castle and the fearsome giant named Willy who guards a beautiful golden harp! Will Mickey and his friends outwit the giant and make it safely back home?", "poster_path": "/kk1Xg1f1lv6loekjlKinpKJlGOu.jpg", "release_date": "1947-09-27", "title": "Mickey Mouse: Mickey and the Beanstalk", "video": false, "vote_average": 6.7, "vote_count": 166, "popularity": 13.649}, {"adult": false, "backdrop_path": "/twGxeStlGooWV3gP6ZIcSNuQ6jf.jpg", "genre_ids": [12, 16, 10751, 14], "id": 81684, "original_language": "en", "original_title": "The Gruffalo's Child", "overview": "A follow up to the 2009 animated feature and adapted from the childrens' book by Julia Donaldson and Alex Scheffler.  The Gruffalo's child explores the deep dark wood in search of the big bad mouse and meets the Snake, Owl and Fox in the process.  She eventually finds the mouse, who manages to outwit her like the Gruffalo before!", "poster_path": "/qaGH2AoaLvoGXURQtNzj1nw6oZd.jpg", "release_date": "2011-12-25", "title": "The Gruffalo's Child", "video": false, "vote_average": 6.9, "vote_count": 73, "popularity": 9.51}, {"id": 621733, "video": false, "vote_count": 0, "vote_average": 0.0, "title": "A Trip to the Seaside", "release_date": "2019-08-30", "original_language": "en", "original_title": "A Trip to the Seaside", "genre_ids": [99], "backdrop_path": null, "adult": false, "overview": "Experimental short film on the excitement and rush of a day trip", "poster_path": "/AuZVhpoJ4jm2LWDhoJKfxQfhDAi.jpg", "popularity": 1.324}, {"adult": false, "backdrop_path": "/mAaSPfGA4ixiKSXYydNpbwZswi6.jpg", "genre_ids": [35], "id": 9427, "original_language": "en", "original_title": "The Full Monty", "overview": "Sheffield, England. Gaz, a jobless steelworker in need of quick cash persuades his mates to bare it all in a one-night-only strip show.", "poster_path": "/xkMiZv2FPrhIAtxvEcN1jAbkHRY.jpg", "release_date": "1997-08-13", "title": "The Full Monty", "video": false, "vote_average": 7.0, "vote_count": 891, "popularity": 10.763}, {"adult": false, "backdrop_path": "/3YGfpjW0OPcrDSarphlEr64WftB.jpg", "genre_ids": [16], "id": 66834, "original_language": "en", "original_title": "Clock Cleaners", "overview": "Mickey, Donald, and Goofy are cleaning a large clock. Among the complications: Mickey fights a sleeping stork that doesn't want to leave, Donald gets tangled up in the main-spring, and Goofy is inside the bell when the clock strikes four.", "poster_path": "/jKM9p9qkibFMraRodEUzEVMemmY.jpg", "release_date": "1937-10-15", "title": "Clock Cleaners", "video": false, "vote_average": 7.0, "vote_count": 41, "popularity": 5.127}, {"id": 650755, "video": false, "vote_count": 0, "vote_average": 0.0, "title": "Atordoado, Eu Permane\u00e7o Atento", "release_date": "2020-01-15", "original_language": "pt", "original_title": "Atordoado, Eu Permane\u00e7o Atento", "genre_ids": [99], "backdrop_path": null, "adult": false, "overview": "", "poster_path": "/exbM8qk6f6T44olJXcM8ix1sunL.jpg", "popularity": 5.092}, {"adult": false, "backdrop_path": "/qFLDF62VbWyyxkwco9lwZqkGoMB.jpg", "genre_ids": [16, 10751], "id": 10895, "original_language": "en", "original_title": "Pinocchio", "overview": "Lonely toymaker Geppetto has his wishes answered when the Blue Fairy arrives to bring his wooden puppet Pinocchio to life. Before becoming a real boy, however, Pinocchio must prove he's worthy as he sets off on an adventure with his whistling sidekick and conscience, Jiminy Cricket.", "poster_path": "/gN1dQBHi4557cFduIu9njOr6knW.jpg", "release_date": "1940-02-23", "title": "Pinocchio", "video": false, "vote_average": 7.0, "vote_count": 3431, "popularity": 25.831}, {"id": 313297, "video": false, "vote_count": 2277, "vote_average": 7.7, "title": "Kubo and the Two Strings", "release_date": "2016-08-18", "original_language": "en", "original_title": "Kubo and the Two Strings", "genre_ids": [12, 16, 10751], "backdrop_path": "/aF4TrSc1IbNNtsWdwixMQNku3Dv.jpg", "adult": false, "overview": "Kubo mesmerizes the people in his village with his magical gift for spinning wild tales with origami. When he accidentally summons an evil spirit seeking vengeance, Kubo is forced to go on a quest to solve the mystery of his fallen samurai father and his mystical weaponry, as well as discover his own magical powers.", "poster_path": "/3Kr9CIIMcXTPlm6cdZ9y3QTe4Y7.jpg", "popularity": 33.362}, {"id": 14836, "video": false, "vote_count": 3514, "vote_average": 7.6, "title": "Coraline", "release_date": "2009-02-05", "original_language": "en", "original_title": "Coraline", "genre_ids": [16, 10751], "backdrop_path": "/obBsMjC9dkDeoYsLxHURikW87UZ.jpg", "adult": false, "overview": "When Coraline moves to an old house, she feels bored and neglected by her parents. She finds a hidden door with a bricked up passage. During the night, she crosses the passage and finds a parallel world where everybody has buttons instead of eyes, with caring parents and all her dreams coming true. When the Other Mother invites Coraline to stay in her world forever, the girl refuses and finds that the alternate reality where she is trapped is only a trick to lure her.", "poster_path": "/ybOmHUVVXcwBQErjw7tmeE97fpO.jpg", "popularity": 25.26}, {"id": 77931, "video": false, "vote_count": 1336, "vote_average": 5.7, "title": "The Smurfs 2", "release_date": "2013-07-30", "original_language": "en", "original_title": "The Smurfs 2", "genre_ids": [16, 35, 14, 10751], "backdrop_path": "/xqfnJn8ApELIa1zGLOa3W9q2Ztn.jpg", "adult": false, "overview": "The evil wizard Gargamel creates a couple of mischievous Smurf-like creatures called the Naughties that he hopes will let him harness the all-powerful, magical Smurf-essence. But when he discovers that only a real Smurf can give him what he wants, and only a secret spell that Smurfette knows can turn the Naughties into real Smurfs, Gargamel kidnaps Smurfette and brings her to Paris, where he has been winning the adoration of millions as the world\u00b9s greatest sorcerer. It's up to Papa, Clumsy, Grouchy, and Vanity to return to our world, reunite with their human friends Patrick and Grace Winslow, and rescue her! Will Smurfette, who has always felt different from the other Smurfs, find a new connection with the Naughties Vexy and Hackus or will the Smurfs convince her that their love for her is True Blue?", "poster_path": "/mF2FXzZ3EktWoagU4fzoabNsK6J.jpg", "popularity": 16.262}, {"adult": false, "backdrop_path": "/yDmyqO3xHTVxtyM0CuqobSX3Hjr.jpg", "genre_ids": [16, 10751, 14], "id": 10144, "original_language": "en", "original_title": "The Little Mermaid", "overview": "This colorful adventure tells the story of an impetuous mermaid princess named Ariel who falls in love with the very human Prince Eric and puts everything on the line for the chance to be with him. Memorable songs and characters -- including the villainous sea witch Ursula.", "poster_path": "/6aXMusULuKFAK0ZRUlv7RJ9zHTc.jpg", "release_date": "1989-11-17", "title": "The Little Mermaid", "video": false, "vote_average": 7.3, "vote_count": 4669, "popularity": 25.992}, {"id": 920, "video": false, "vote_count": 8603, "vote_average": 6.7, "title": "Cars", "release_date": "2006-06-08", "original_language": "en", "original_title": "Cars", "genre_ids": [12, 16, 35, 10751], "backdrop_path": "/a1MlbLBk5Sy6YvMbSuKfwGlDVlb.jpg", "adult": false, "overview": "Lightning McQueen, a hotshot rookie race car driven to succeed, discovers that life is about the journey, not the finish line, when he finds himself unexpectedly detoured in the sleepy Route 66 town of Radiator Springs. On route across the country to the big Piston Cup Championship in California to compete against two seasoned pros, McQueen gets to know the town's offbeat characters.", "poster_path": "/jpfkzbIXgKZqCZAkEkFH2VYF63s.jpg", "popularity": 58.103}, {"id": 12092, "video": false, "vote_count": 3673, "vote_average": 7.1, "title": "Alice in Wonderland", "release_date": "1951-07-03", "original_language": "en", "original_title": "Alice in Wonderland", "genre_ids": [12, 16, 14, 10751], "backdrop_path": "/p6frW7qR3wUbssM25BS8BlzyoKc.jpg", "adult": false, "overview": "On a golden afternoon, young Alice follows a White Rabbit, who disappears down a nearby rabbit hole. Quickly following him, she tumbles into the burrow - and enters the merry, topsy-turvy world of Wonderland! Memorable songs and whimsical escapades highlight Alice's journey, which culminates in a madcap encounter with the Queen of Hearts - and her army of playing cards!", "poster_path": "/AdwfqyNiH8UqeYKFYoiKhwTtjAb.jpg", "popularity": 31.985}, {"adult": false, "backdrop_path": "/eC8TeqWgfyXi5gSkWwoRMh4Zd18.jpg", "genre_ids": [16, 10751], "id": 11544, "original_language": "en", "original_title": "Lilo & Stitch", "overview": "As Stitch, a runaway genetic experiment from a faraway planet, wreaks havoc on the Hawaiian Islands, he becomes the mischievous adopted alien \"puppy\" of an independent little girl named Lilo and learns about loyalty, friendship, and 'ohana, the Hawaiian tradition of family.", "poster_path": "/tVaEulzowKhMhDvHNNYb9rNEZPB.jpg", "release_date": "2002-06-21", "title": "Lilo & Stitch", "video": false, "vote_average": 7.4, "vote_count": 3483, "popularity": 22.786}], "total_pages": 925, "total_results": 18482}, "recommendations": {"page": 1, "results": [{"adult": false, "backdrop_path": "/3fdzuCntWILNaUwp0Vo5it2VB82.jpg", "genre_ids": [16, 35], "id": 476719, "original_language": "fr", "original_title": "Garden Party", "overview": "In a deserted rich house, a couple of amphibians explore their surroundings and follow their primal instincts.", "poster_path": "/2CwprpQSy2SRyZB10X3YeraMWc6.jpg", "release_date": "2017-01-28", "title": "Garden Party", "video": false, "vote_average": 7.5, "vote_count": 49, "popularity": 2.422}, {"adult": false, "backdrop_path": null, "genre_ids": [18], "id": 442160, "original_language": "en", "original_title": "DeKalb Elementary", "overview": "Inspired by an actual 911 call placed during a school shooting incident in Atlanta, Georgia.", "poster_path": "/mF9o78gayiNQWNG76qQwo2yfDU8.jpg", "release_date": "2017-02-04", "title": "DeKalb Elementary", "video": false, "vote_average": 7.6, "vote_count": 18, "popularity": 4.318}, {"adult": false, "backdrop_path": "/7kVaE2IfeY2fyuxNzJKDxsoVha5.jpg", "genre_ids": [35], "id": 481261, "original_language": "en", "original_title": "The Eleven O'Clock", "overview": "The delusional patient of a psychiatrist believes he is actually the psychiatrist. As they each attempt to treat each other the session gets out of control.", "poster_path": "/r9EnKw6Ic2DzC3x9cb7pRtwU8Za.jpg", "release_date": "2016-09-06", "title": "The Eleven O'Clock", "video": false, "vote_average": 7.2, "vote_count": 18, "popularity": 2.614}, {"adult": false, "backdrop_path": "/kgfFCnpRs0vSMCvqFTbOitlGNub.jpg", "genre_ids": [18], "id": 492224, "original_language": "sw", "original_title": "Watu Wote: All of Us", "overview": "For a decade Kenya has been targeted by terrorist attacks of the Al-Shabaab. An atmosphere of anxiety and mistrust between Muslims and Christians is growing. Until in December 2015, Muslim bus passengers showed that solidarity can prevail.", "poster_path": "/z2Spp3dPzbPidbqTabCuN1MNIN9.jpg", "release_date": "2017-11-15", "title": "Watu Wote: All of Us", "video": false, "vote_average": 7.0, "vote_count": 15, "popularity": 2.024}, {"adult": false, "backdrop_path": "/a6MOCg8iHMDzxgXf5lrSJ8P52Qw.jpg", "genre_ids": [99], "id": 473278, "original_language": "en", "original_title": "Heaven Is a Traffic Jam on the 405", "overview": "Artist Mindy Alper has spent almost all of her 56 years combating severe depression and anxiety, using medication, electroconvulsive therapy and psychiatry to help her. Art has always been her most effective outlet, with drawing and sculpture offering her the tools to give voice to her fears and mental battles.", "poster_path": "/3FfvAT07xOzJJtftZbcjOo0IegS.jpg", "release_date": "2016-10-14", "title": "Heaven Is a Traffic Jam on the 405", "video": false, "vote_average": 7.4, "vote_count": 21, "popularity": 2.949}, {"id": 483306, "video": false, "vote_count": 101, "vote_average": 7.1, "title": "Dear Basketball", "release_date": "2017-04-23", "original_language": "en", "original_title": "Dear Basketball", "genre_ids": [16], "backdrop_path": "/zK8ArWi66Qw1XqR7oPAl6TKSxiN.jpg", "adult": false, "overview": "An animated telling of Kobe Bryant's titular poem, signaling his retirement from the sport that made his name.", "poster_path": "/xE8IBxbY2bHTWQcfTUs34Og1J8H.jpg", "popularity": 6.99}, {"adult": false, "backdrop_path": null, "genre_ids": [18], "id": 492223, "original_language": "en", "original_title": "The Silent Child", "overview": "A deaf 4-year-old girl named Libby lives in a world of silence until a caring social worker teaches her to use sign language to communicate.", "poster_path": "/f4q3dZFXOOPlEkmsReVIroZckWq.jpg", "release_date": "2017-08-08", "title": "The Silent Child", "video": false, "vote_average": 7.7, "vote_count": 30, "popularity": 3.301}, {"adult": false, "backdrop_path": "/7Sd7DcY9xQoH2uXTbWuhgnse2e1.jpg", "genre_ids": [99], "id": 411007, "original_language": "en", "original_title": "Abacus: Small Enough to Jail", "overview": "The incredible saga of the Chinese immigrant Sung family, owners of Abacus Federal Savings of Chinatown, New York. Accused of mortgage fraud by Manhattan District Attorney Cyrus R. Vance, Jr., Abacus becomes the only U.S. bank to face criminal charges in the wake of the 2008 financial crisis. The indictment and subsequent trial forces the Sung family to defend themselves \u2013 and their bank\u2019s legacy in the Chinatown community \u2013 over the course of a five-year legal battle.", "poster_path": "/4u00FWfh8dUruEB7C3KCaV3FtOH.jpg", "release_date": "2017-05-19", "title": "Abacus: Small Enough to Jail", "video": false, "vote_average": 7.2, "vote_count": 45, "popularity": 6.816}, {"adult": false, "backdrop_path": null, "genre_ids": [36, 18], "id": 484569, "original_language": "en", "original_title": "My Nephew Emmett", "overview": "This visually ravishing and thought-provoking work portrays one of the USA\u2019s great shames\u2014the 1955 murder of 14-year-old Emmett Till by two white men in Mississippi\u2014and movingly reminds us of this dark episode\u2019s enduring relevance.", "poster_path": "/xwbUdvfmyRfsCTuZGWX457BheCG.jpg", "release_date": "2017-09-27", "title": "My Nephew Emmett", "video": false, "vote_average": 6.7, "vote_count": 11, "popularity": 3.636}, {"adult": false, "backdrop_path": "/aJBXzOMnSOGX7T7SpUvMXIcByjm.jpg", "genre_ids": [99], "id": 491206, "original_language": "en", "original_title": "Traffic Stop", "overview": "Breaion King, a 26 year-old African-American school teacher from Austin, Texas - is pulled over for a routine traffic stop that escalates into a violent arrest. Dashcam clips intercut with verite scenes tell a story of racism in law enforcement through the eyes of one of its victims.", "poster_path": "/kRVMLMn7uSyTrkg565j16kW6NgS.jpg", "release_date": "2017-11-14", "title": "Traffic Stop", "video": false, "vote_average": 6.1, "vote_count": 19, "popularity": 3.883}, {"id": 348396, "video": false, "vote_count": 22, "vote_average": 5.9, "title": "Ave Maria", "release_date": "2015-05-18", "original_language": "en", "original_title": "Ave Maria", "genre_ids": [35], "backdrop_path": "/bSjjeUfFWwNqZ6wrn9XGnOPxPJw.jpg", "adult": false, "overview": "The silent routine of 5 Nuns living in the West Bank wilderness is disturbed when an Israeli settler family breaks down right outside the convent just as the Sabbath comes into effect.", "poster_path": "/36VCs8TuwJZKm0eH4HP582UZuic.jpg", "popularity": 2.971}, {"adult": false, "backdrop_path": "/dJ49GYu4b8ADpIXQc0bCw2lBI5e.jpg", "genre_ids": [99], "id": 466489, "original_language": "en", "original_title": "Knife Skills", "overview": "Edwin\u2019s Restaurant is determined to become one of America\u2019s top French restaurants, with a staff unlike any other in the country. Brandon Edwin Chrostowski prepares to open his Cleveland, Ohio fine dining establishment with a staff composed nearly entirely of recently released prisoners in search of an opportunity to get their lives back on track. They sign up for a classical French food boot camp to learn the ins and outs of fine wine, sauces, and more. Inspiring and engaging, this documentary emphasizes the enriching and fundamental power of food to bring people together, regardless of circumstance or background.", "poster_path": "/cDzHu23A1MKiSVXyKZ7LsBfLruQ.jpg", "release_date": "2017-07-29", "title": "Knife Skills", "video": false, "vote_average": 6.8, "vote_count": 12, "popularity": 3.68}, {"adult": false, "backdrop_path": "/nQ5qaB2N20GwHI7i2LJB0LT8Eqq.jpg", "genre_ids": [99], "id": 443946, "original_language": "en", "original_title": "Edith+Eddie", "overview": "Edith and Eddie, ages 96 and 95, are America's oldest interracial newlyweds. Their unusual and idyllic love story is threatened by a family feud that triggers a devastating abuse of the legal guardianship system.", "poster_path": "/4wRY96wHHhiJmO98tNR0t6M3kye.jpg", "release_date": "2017-03-02", "title": "Edith+Eddie", "video": false, "vote_average": 7.6, "vote_count": 12, "popularity": 3.777}, {"adult": false, "backdrop_path": "/cwmDxZMDOvSlVA4rId5X128Ujeo.jpg", "genre_ids": [99], "id": 369362, "original_language": "en", "original_title": "Chau, Beyond the Lines", "overview": "A man disabled by Agent Orange dares to dream.", "poster_path": "/hxDFrI6ApNHSUXTOgPfx5OVgzQb.jpg", "release_date": "2015-08-21", "title": "Chau, Beyond the Lines", "video": false, "vote_average": 5.9, "vote_count": 8, "popularity": 2.47}, {"adult": false, "backdrop_path": "/qOUpXZZmvhrxwmxOWJZsotkIhFc.jpg", "genre_ids": [16], "id": 289024, "original_language": "no", "original_title": "Moulton og meg", "overview": "A seven-year-old girl longs for a bicycle so that she can be more like the other kids in her Norwegian town, but her embarrassingly unconventional, modernist architect parents see things differently. Academy Award-winning animator Torill Kove weaves memory and fantasy together in this droll and charming look at the pain of childhood alienation.", "poster_path": "/4hsPsAQY3A952cPtbqQTXlm3nvH.jpg", "release_date": "2014-09-11", "title": "Me and My Moulton", "video": false, "vote_average": 5.7, "vote_count": 16, "popularity": 1.169}, {"adult": false, "backdrop_path": "/5u8L3OAiuxDXAEyQhGIt2VUM10t.jpg", "genre_ids": [18], "id": 427413, "original_language": "fr", "original_title": "Ennemis Int\u00e9rieurs", "overview": "During the 90s, Algerian terrorism reaches France. Two men. Two identities. One battle.", "poster_path": "/oOqdjZf5RYbRUXQQGPYCL58At4B.jpg", "release_date": "2016-02-21", "title": "Enemies Within", "video": false, "vote_average": 6.4, "vote_count": 9, "popularity": 2.466}, {"id": 433471, "video": false, "vote_count": 185, "vote_average": 7.7, "title": "Lou", "release_date": "2017-06-16", "original_language": "en", "original_title": "Lou", "genre_ids": [16, 14, 10751], "backdrop_path": "/c53DjwOJfnUROXifbPzi0EAEXJC.jpg", "adult": false, "overview": "A Pixar short about a lost-and-found box and the unseen monster within.", "poster_path": "/zAQmOmQPWyvU34B3gcK163P4jmH.jpg", "popularity": 7.969}, {"adult": false, "backdrop_path": "/p1mliA3veDVT3ILcaSmldbWYnxl.jpg", "genre_ids": [99], "id": 365447, "original_language": "en", "original_title": "Body Team 12", "overview": "Body Team 12 is tasked with collecting the dead at the height of the Ebola outbreak. These body collectors have arguably the most dangerous and gruesome job in the world. Yet despite the strain they emerge as heroes while the film explores their philosophy and strength.", "poster_path": "/wUPlMaBnOg9OWtnrVYjabYfAvWw.jpg", "release_date": "2015-04-19", "title": "Body Team 12", "video": false, "vote_average": 7.0, "vote_count": 12, "popularity": 3.518}, {"adult": false, "backdrop_path": "/oM4kUWhiQ7OFtVFgKG63D7fAmrs.jpg", "genre_ids": [99], "id": 433085, "original_language": "da", "original_title": "De sidste m\u00e6nd i Aleppo", "overview": "Winner of the Grand Jury Documentary prize at the Sundance Film Festival, Syrian filmmaker Feras Fayyad\u2019s breathtaking work \u2014 a searing example of boots-on-the-ground reportage \u2014 follows the efforts of the internationally recognized White Helmets, an organization consisting of ordinary citizens who are the first to rush towards military strikes and attacks in the hope of saving lives. Incorporating moments of both heart-pounding suspense and improbable beauty, the documentary draws us into the lives of three of its founders \u2014 Khaled, Subhi, and Mahmoud \u2014 as they grapple with the chaos around them and struggle with an ever-present dilemma: do they flee or stay and fight for their country?", "poster_path": "/8wF3AXsybsoWLQLhkEyG5nrNi0L.jpg", "release_date": "2017-02-27", "title": "Last Men in Aleppo", "video": false, "vote_average": 7.0, "vote_count": 45, "popularity": 3.728}, {"adult": false, "backdrop_path": "/rkjSfqnslyfuftyVMhfVcQKUkip.jpg", "genre_ids": [10402, 16], "id": 457198, "original_language": "sv", "original_title": "Min b\u00f6rda", "overview": "A shopping center along a large highway is the scene of an apocalyptic musical. Animation with a strong sense of form set to auto-tuned music by Klungan. About liberation through great catastrophy.", "poster_path": "/31dPGkfRh5nUtrnOsPAEGE16W7b.jpg", "release_date": "2017-01-27", "title": "The Burden", "video": false, "vote_average": 7.3, "vote_count": 6, "popularity": 0.823}], "total_pages": 2, "total_results": 40}, "credits": {"cast": [{"cast_id": 5, "character": "Sam (voice)", "credit_id": "59b66ecbc3a3682aee0116ee", "gender": 0, "id": 1748300, "name": "Albert Birney", "order": 1, "profile_path": null}], "crew": [{"credit_id": "59b66e55c3a3682a840126fb", "department": "Sound", "gender": 0, "id": 107851, "job": "Original Music Composer", "name": "Bram Meindersma", "profile_path": null}, {"credit_id": "5ddb64e63faba00013ffb2db", "department": "Visual Effects", "gender": 0, "id": 1459971, "job": "Animation", "name": "Sylvain Derosne", "profile_path": null}, {"credit_id": "593bbe73925141058700b053", "department": "Directing", "gender": 0, "id": 1503260, "job": "Director", "name": "Max Porter", "profile_path": null}, {"credit_id": "5b626157925141405c021320", "department": "Editing", "gender": 0, "id": 1503260, "job": "Editor", "name": "Max Porter", "profile_path": null}, {"credit_id": "5b62616592514140680221a9", "department": "Art", "gender": 0, "id": 1503260, "job": "Art Direction", "name": "Max Porter", "profile_path": null}, {"credit_id": "5b62618c9251414060022352", "department": "Crew", "gender": 0, "id": 1503260, "job": "Special Effects", "name": "Max Porter", "profile_path": null}, {"credit_id": "5cc9a7000e0a2678a0f45d2e", "department": "Writing", "gender": 0, "id": 1503260, "job": "Writer", "name": "Max Porter", "profile_path": null}, {"credit_id": "593bbe64c3a3680f7b00aa08", "department": "Directing", "gender": 0, "id": 1503261, "job": "Director", "name": "Ru Kuwahata", "profile_path": null}, {"credit_id": "5b626177925141405601f455", "department": "Art", "gender": 0, "id": 1503261, "job": "Art Direction", "name": "Ru Kuwahata", "profile_path": null}, {"credit_id": "5cc9a70ac3a36847dd8389db", "department": "Writing", "gender": 0, "id": 1503261, "job": "Writer", "name": "Ru Kuwahata", "profile_path": null}, {"credit_id": "5b62613b0e0a267eeb02545f", "department": "Camera", "gender": 0, "id": 2097758, "job": "Director of Photography", "name": "Simon Gesrel", "profile_path": null}, {"credit_id": "5b626145925141406802218d", "department": "Camera", "gender": 0, "id": 2097759, "job": "Director of Photography", "name": "Nadine Buss", "profile_path": null}]}}