{"adult": false, "backdrop_path": "/A6KfLwGZISvxu1ry49raubxwbNV.jpg", "belongs_to_collection": null, "budget": 0, "genres": [{"id": 878, "name": "Science Fiction"}, {"id": 18, "name": "Drama"}], "homepage": null, "id": 46158, "imdb_id": "tt0077332", "original_language": "en", "original_title": "Holocaust 2000", "overview": "An executive in charge of a nuclear power plant in the Mid-East must stop his son-- who turns out to be the Anti Christ -- from blowing it up.", "popularity": 4.108, "poster_path": "/wTrQn5mVTuPc0tuJXv1pZuRD7XF.jpg", "production_companies": [{"id": 77369, "logo_path": null, "name": "Embassy Productions", "origin_country": "IT"}, {"id": 112749, "logo_path": null, "name": "Aston Films", "origin_country": "GB"}], "production_countries": [{"iso_3166_1": "IT", "name": "Italy"}, {"iso_3166_1": "GB", "name": "United Kingdom"}], "release_date": "1977-11-25", "revenue": 0, "runtime": 106, "spoken_languages": [{"iso_639_1": "en", "name": "English"}], "status": "Released", "tagline": "He will destroy the world. No man can stop him. No man will even try. He is The Chosen.", "title": "Holocaust 2000", "video": false, "vote_average": 6.1, "vote_count": 18, "keywords": {"keywords": [{"id": 4368, "name": "nuclear power plant"}, {"id": 10247, "name": "nuclear holocaust"}, {"id": 12654, "name": "armageddon"}]}, "similar": {"page": 1, "results": [{"adult": false, "backdrop_path": "/ihagNlUh6T6sHLTU3Zd90tSqZmk.jpg", "genre_ids": [28, 16, 18, 878, 53], "id": 19877, "original_language": "ja", "original_title": "\u5317\u6597\u306e\u62f3 : \u4e16\u7d00\u672b\u6551\u4e16\u4e3b\u4f1d\u8aac", "overview": "After a nuclear holocaust tears the world apart, mankind is forced to the harshness of not only the oppression of others who are much more powerful, but the dead earth which seems to be getting worse with every passing moment. But a savior has risen from the ashes, a man who will defeat those who would torment the weak and make the world a livable place once more. A man named Kenshiro...", "poster_path": "/2kQOS3gBo4Paey81fUENGTZ4cpU.jpg", "release_date": "1986-03-08", "title": "Fist of the North Star", "video": false, "vote_average": 7.2, "vote_count": 76, "popularity": 8.323}, {"id": 287424, "video": false, "vote_count": 1042, "vote_average": 5.3, "title": "Maggie", "release_date": "2015-05-08", "original_language": "en", "original_title": "Maggie", "genre_ids": [18, 27, 9648], "backdrop_path": "/uCI4vNT4u9xOIU3pKV3qeaFcuO9.jpg", "adult": false, "overview": "There's a deadly zombie epidemic threatening humanity, but Wade, a small-town farmer and family man, refuses to accept defeat even when his daughter Maggie becomes infected. As Maggie's condition worsens and the authorities seek to eradicate those with the virus, Wade is pushed to the limits in an effort to protect her. Joely Richardson co-stars in this post-apocalyptic thriller.", "poster_path": "/mFt7Oo3pf8f1BZAdWLyUpYM63aT.jpg", "popularity": 17.493}, {"id": 534, "video": false, "vote_count": 4114, "vote_average": 6.0, "title": "Terminator Salvation", "release_date": "2009-05-20", "original_language": "en", "original_title": "Terminator Salvation", "genre_ids": [28, 878, 53], "backdrop_path": "/mglXOOyXISvuIdLgvhU9oXn1Mi7.jpg", "adult": false, "overview": "All grown up in post-apocalyptic 2018, John Connor must lead the resistance of humans against the increasingly dominating militaristic robots. But when Marcus Wright appears, his existence confuses the mission as Connor tries to determine whether Wright has come from the future or the past -- and whether he's friend or foe.", "poster_path": "/gw6JhlekZgtKUFlDTezq3j5JEPK.jpg", "popularity": 34.306}, {"id": 307081, "video": false, "vote_count": 3699, "vote_average": 7.4, "title": "Southpaw", "release_date": "2015-03-24", "original_language": "en", "original_title": "Southpaw", "genre_ids": [28, 18], "backdrop_path": "/tTt1cdEEkKMJ1R4VBTe5vbE3bWO.jpg", "adult": false, "overview": "Billy \"The Great\" Hope, the reigning junior middleweight boxing champion, has an impressive career, a loving wife and daughter, and a lavish lifestyle. However, when tragedy strikes, Billy hits rock bottom, losing his family, his house and his manager. He soon finds an unlikely savior in Tick Willis, a former fighter who trains the city's toughest amateur boxers. With his future on the line, Hope fights to reclaim the trust of those he loves the most.", "poster_path": "/50d0XQQETSyg3bwBXhC7K33pKgc.jpg", "popularity": 24.057}, {"id": 49049, "video": false, "vote_count": 3046, "vote_average": 6.7, "title": "Dredd", "release_date": "2012-09-07", "original_language": "en", "original_title": "Dredd", "genre_ids": [28, 878], "backdrop_path": "/kqKcID44nGtIxhhzmziAX65abRx.jpg", "adult": false, "overview": "In the future, America is a dystopian wasteland. The latest scourge is Ma-Ma, a prostitute-turned-drug pusher with a dangerous new drug and aims to take over the city. The only possibility of stopping her is an elite group of urban police called Judges, who combine the duties of judge, jury and executioner to deliver a brutal brand of swift justice. But even the top-ranking Judge, Dredd, discovers that taking down Ma-Ma isn\u2019t as easy as it seems in this explosive adaptation of the hugely popular comic series.", "poster_path": "/71fkYuMVMtdbREh9Mp3gTFmI8Bv.jpg", "popularity": 22.587}, {"id": 6479, "video": false, "vote_count": 9817, "vote_average": 7.1, "title": "I Am Legend", "release_date": "2007-12-14", "original_language": "en", "original_title": "I Am Legend", "genre_ids": [28, 18, 27, 878, 53], "backdrop_path": "/u6Qg7TH7Oh1IFWCQSRr4htFFt0A.jpg", "adult": false, "overview": "Robert Neville is a scientist who was unable to stop the spread of the terrible virus that was incurable and man-made. Immune, Neville is now the last human survivor in what is left of New York City and perhaps the world. For three years, Neville has faithfully sent out daily radio messages, desperate to find any other survivors who might be out there. But he is not alone.", "poster_path": "/9skUuHTFtsJznuFPwmB17ZZvq09.jpg", "popularity": 29.22}, {"id": 198663, "video": false, "vote_count": 11444, "vote_average": 7.1, "title": "The Maze Runner", "release_date": "2014-09-10", "original_language": "en", "original_title": "The Maze Runner", "genre_ids": [28, 9648, 878, 53], "backdrop_path": "/lkOZcsXcOLZYeJ2YxJd3vSldvU4.jpg", "adult": false, "overview": "Set in a post-apocalyptic world, young Thomas is deposited in a community of boys after his memory is erased, soon learning they're all trapped in a maze that will require him to join forces with fellow \u201crunners\u201d for a shot at escape.", "poster_path": "/coss7RgL0NH6g4fC2s5atvf3dFO.jpg", "popularity": 51.629}, {"id": 294254, "video": false, "vote_count": 6847, "vote_average": 6.6, "title": "Maze Runner: The Scorch Trials", "release_date": "2015-09-09", "original_language": "en", "original_title": "Maze Runner: The Scorch Trials", "genre_ids": [28, 878, 53], "backdrop_path": "/iapRFMGKvN9tsjqPlN7MIDTCezG.jpg", "adult": false, "overview": "Thomas and his fellow Gladers face their greatest challenge yet: searching for clues about the mysterious and powerful organization known as WCKD. Their journey takes them to the Scorch, a desolate landscape filled with unimaginable obstacles. Teaming up with resistance fighters, the Gladers take on WCKD\u2019s vastly superior forces and uncover its shocking plans for them all.", "poster_path": "/vlTPQANjLYTebzFJM1G4KeON0cb.jpg", "popularity": 24.153}, {"id": 12244, "video": false, "vote_count": 2156, "vote_average": 6.7, "title": "9", "release_date": "2009-08-19", "original_language": "en", "original_title": "9", "genre_ids": [28, 12, 16, 878, 53], "backdrop_path": "/jTki4a30PUskfGtOFx6PgYr74H7.jpg", "adult": false, "overview": "When 9 first comes to life, he finds himself in a post-apocalyptic world. All humans are gone, and it is only by chance that he discovers a small community of others like him taking refuge from fearsome machines that roam the earth intent on their extinction. Despite being the neophyte of the group, 9 convinces the others that hiding will do them no good.", "poster_path": "/iGMOQt6R88ZuJRtlfpqWRa5268h.jpg", "popularity": 25.329}, {"id": 527261, "video": false, "vote_count": 495, "vote_average": 5.7, "title": "The Silence", "release_date": "2019-05-16", "original_language": "en", "original_title": "The Silence", "genre_ids": [18, 14, 53], "backdrop_path": "/iHJQIKSLHN2mUUWySpj2MO5HVtS.jpg", "adult": false, "overview": "With the world under attack by deadly creatures who hunt by sound, a teen and her family seek refuge outside the city and encounter a mysterious cult.", "poster_path": "/lTVOquzxw2DPF3MKuYd1ynz9F6H.jpg", "popularity": 12.093}, {"adult": false, "backdrop_path": "/mSZADd1N0wWkkNJmwcpYAq93bke.jpg", "genre_ids": [878], "id": 9482, "original_language": "en", "original_title": "Judge Dredd", "overview": "In a dystopian future, Dredd, the most famous judge (a cop with instant field judiciary powers) is convicted for a crime he did not commit while his murderous counterpart escapes.", "poster_path": "/r17S4XlQ3Jq5U1KRovFUwU8P4aG.jpg", "release_date": "1995-06-30", "title": "Judge Dredd", "video": false, "vote_average": 5.6, "vote_count": 1317, "popularity": 18.237}, {"id": 110415, "video": false, "vote_count": 5358, "vote_average": 6.8, "title": "Snowpiercer", "release_date": "2013-08-01", "original_language": "ko", "original_title": "Snowpiercer", "genre_ids": [28, 18, 878], "backdrop_path": "/dUrRhiIb9sWckFsKmdNR39Ot1eG.jpg", "adult": false, "overview": "In a future where a failed global-warming experiment kills off most life on the planet, a class system evolves aboard the Snowpiercer, a train that travels around the globe via a perpetual-motion engine.", "poster_path": "/oP0ZWr6MsaQ1TV7xvnZJMKSfz0H.jpg", "popularity": 24.925}, {"id": 131631, "video": false, "vote_count": 10881, "vote_average": 6.8, "title": "The Hunger Games: Mockingjay - Part 1", "release_date": "2014-11-18", "original_language": "en", "original_title": "The Hunger Games: Mockingjay - Part 1", "genre_ids": [12, 878, 53], "backdrop_path": "/4PwyB0ErucIANzW24Kori71J6gU.jpg", "adult": false, "overview": "Katniss Everdeen reluctantly becomes the symbol of a mass rebellion against the autocratic Capitol.", "poster_path": "/gj282Pniaa78ZJfbaixyLXnXEDI.jpg", "popularity": 47.043}, {"id": 12599, "video": false, "vote_count": 441, "vote_average": 6.6, "title": "Pok\u00e9mon: The Movie 2000", "release_date": "1999-07-17", "original_language": "ja", "original_title": "\u5287\u5834\u7248\u30dd\u30b1\u30c3\u30c8\u30e2\u30f3\u30b9\u30bf\u30fc \u5e7b\u306e\u30dd\u30b1\u30e2\u30f3 \u30eb\u30ae\u30a2\u7206\u8a95", "genre_ids": [12, 16, 14, 878, 10751], "backdrop_path": "/5uAptC91ZTbJAsCFYYj7lErIe0A.jpg", "adult": false, "overview": "Satoshi must put his skill to the test when he attempts to save the world from destruction. The Greedy Pokemon collector Gelardan throws the universe into chaos after disrupting the balance of nature by capturing one of the Pokemon birds that rule the elements of fire, lightning and ice. Will Satoshi have what it takes to save the world?", "poster_path": "/jrwTeoEHCmFEr0J9HENdPAR3dEq.jpg", "popularity": 9.277}, {"adult": false, "backdrop_path": "/bvbyidkMaBls1LTaIWYY6UmYTaL.jpg", "genre_ids": [28, 878], "id": 336843, "original_language": "en", "original_title": "Maze Runner: The Death Cure", "overview": "Thomas leads his group of escaped Gladers on their final and most dangerous mission yet. To save their friends, they must break into the legendary Last City, a WCKD-controlled labyrinth that may turn out to be the deadliest maze of all. Anyone who makes it out alive will get answers to the questions the Gladers have been asking since they first arrived in the maze.", "poster_path": "/2zYfzA3TBwrMC8tfFbpiTLODde0.jpg", "release_date": "2018-01-10", "title": "Maze Runner: The Death Cure", "video": false, "vote_average": 7.0, "vote_count": 4393, "popularity": 24.242}, {"id": 76341, "video": false, "vote_count": 15488, "vote_average": 7.5, "title": "Mad Max: Fury Road", "release_date": "2015-05-13", "original_language": "en", "original_title": "Mad Max: Fury Road", "genre_ids": [28, 12, 878], "backdrop_path": "/tbhdm8UJAb4ViCTsulYFL3lxMCd.jpg", "adult": false, "overview": "An apocalyptic story set in the furthest reaches of our planet, in a stark desert landscape where humanity is broken, and most everyone is crazed fighting for the necessities of life. Within this world exist two rebels on the run who just might be able to restore order.", "poster_path": "/kqjL17yufvn9OVLyXYpvtyrFfak.jpg", "popularity": 35.824}, {"id": 280, "video": false, "vote_count": 7496, "vote_average": 8.0, "title": "Terminator 2: Judgment Day", "release_date": "1991-07-03", "original_language": "en", "original_title": "Terminator 2: Judgment Day", "genre_ids": [28, 878, 53], "backdrop_path": "/d9AqtruwS8nljKjL5aYzM42hQJr.jpg", "adult": false, "overview": "Nearly 10 years have passed since Sarah Connor was targeted for termination by a cyborg from the future. Now her son, John, the future leader of the resistance, is the target for a newer, more deadly terminator. Once again, the resistance has managed to send a protector back to attempt to save John and his mother Sarah.", "poster_path": "/2y4dmgWYRMYXdD1UyJVcn2HSd1D.jpg", "popularity": 46.957}, {"id": 447332, "video": false, "vote_count": 6978, "vote_average": 7.3, "title": "A Quiet Place", "release_date": "2018-04-03", "original_language": "en", "original_title": "A Quiet Place", "genre_ids": [18, 27, 878], "backdrop_path": "/roYyPiQDQKmIKUEhO912693tSja.jpg", "adult": false, "overview": "A family is forced to live in silence while hiding from creatures that hunt by sound.", "poster_path": "/nAU74GmpUk7t5iklEp3bufwDq4n.jpg", "popularity": 32.233}, {"id": 505948, "video": false, "vote_count": 1079, "vote_average": 6.6, "title": "I Am Mother", "release_date": "2019-06-07", "original_language": "en", "original_title": "I Am Mother", "genre_ids": [878], "backdrop_path": "/kmPnDn9mbjD9Vzn1FTclNiSHGNa.jpg", "adult": false, "overview": "A teenage girl is raised underground by a robot \"Mother\", designed to repopulate the earth following an extinction event. But their unique bond is threatened when an inexplicable stranger arrives with alarming news.", "poster_path": "/b3jWxwWRFqvNDJTvBcmKJVHnzKK.jpg", "popularity": 28.032}, {"id": 405774, "video": false, "vote_count": 5808, "vote_average": 6.9, "title": "Bird Box", "release_date": "2018-12-13", "original_language": "en", "original_title": "Bird Box", "genre_ids": [18, 53], "backdrop_path": "/z6m7s4w4Erxnr5k2jc1TZR1AMva.jpg", "adult": false, "overview": "Five years after an ominous unseen presence drives most of society to suicide, a survivor and her two children make a desperate bid to reach safety.", "poster_path": "/rGfGfgL2pEPCfhIvqHXieXFn7gp.jpg", "popularity": 21.389}], "total_pages": 25, "total_results": 487}, "recommendations": {"page": 1, "results": [{"adult": false, "backdrop_path": "/ifZR3gPgYITG6sOB7tqvSYRJAfD.jpg", "genre_ids": [27, 9648, 53], "id": 74087, "original_language": "it", "original_title": "Passi di danza su una lama di rasoio", "overview": "Ketty,a photographer living in Rome,accidentally witnesses the murder of a young woman at the hands of a razor-wielding black-gloved killer.Ketty and her fiance,Alberto,go to the police-only to learn that two other witnesses to the crime have been slashed to death.", "poster_path": "/nxRPDyBwHOjezKw5ZpQkPR0ccRg.jpg", "release_date": "1973-01-05", "title": "Death Carries a Cane", "video": false, "vote_average": 5.6, "vote_count": 10, "popularity": 1.96}], "total_pages": 1, "total_results": 1}, "credits": {"cast": [{"cast_id": 3, "character": "Robert Caine", "credit_id": "52fe46e7c3a36847f8118e39", "gender": 2, "id": 2090, "name": "Kirk Douglas", "order": 0, "profile_path": "/vIZgu07gJtS2j460jgBlI1IvkAO.jpg"}, {"cast_id": 4, "character": "Angel Caine", "credit_id": "52fe46e7c3a36847f8118e3d", "gender": 2, "id": 29540, "name": "Simon Ward", "order": 1, "profile_path": "/925VDC2NWk1ecPMeUOULeG7W29K.jpg"}, {"cast_id": 5, "character": "Sara Golan", "credit_id": "52fe46e7c3a36847f8118e41", "gender": 1, "id": 21541, "name": "Agostina Belli", "order": 2, "profile_path": "/gxlRIKjoxEtXyu23SD7y6jxhRvS.jpg"}, {"cast_id": 6, "character": "Professor Griffith", "credit_id": "52fe46e7c3a36847f8118e45", "gender": 2, "id": 14371, "name": "Anthony Quayle", "order": 3, "profile_path": "/au2nJAa5detncsuS7il5z7StaUh.jpg"}, {"cast_id": 7, "character": "Meyer", "credit_id": "560e74689251414779003263", "gender": 2, "id": 40529, "name": "Alexander Knox", "order": 4, "profile_path": "/gWwgGHhIGHw9T7vZE4eyo9JFb4g.jpg"}, {"cast_id": 8, "character": "Eva Caine", "credit_id": "560e7478c3a368680b00c26c", "gender": 1, "id": 77165, "name": "Virginia McKenna", "order": 5, "profile_path": "/1oc5UW2OfoMNHW01vPcsytCZVeV.jpg"}, {"cast_id": 9, "character": "Harbin", "credit_id": "580ddea792514170d101926d", "gender": 0, "id": 6783, "name": "Spiros Foc\u00e1s", "order": 6, "profile_path": "/kadjsoJ5LhRtjH76w1ACuMLeUN6.jpg"}, {"cast_id": 10, "character": "Prime Minister", "credit_id": "580ddeb3c3a3682286019f8e", "gender": 0, "id": 84251, "name": "Ivo Garrani", "order": 7, "profile_path": "/qpDEJjGAeUExV3LbyW2Vjsu2N8r.jpg"}, {"cast_id": 11, "character": "Young Arab", "credit_id": "580ddebd925141713b0198de", "gender": 2, "id": 107212, "name": "Massimo Foschi", "order": 8, "profile_path": "/nr8O8W8sePGMJzmOqjKMhNdE9Ys.jpg"}, {"cast_id": 12, "character": "Charrier", "credit_id": "580ddec79251417138019af7", "gender": 2, "id": 5567, "name": "Romolo Valli", "order": 9, "profile_path": "/nTU1Jfsx0W6koCdMrC5qkgL3tth.jpg"}, {"cast_id": 13, "character": "Dr. Kerouac", "credit_id": "580ddedfc3a368260d0190c7", "gender": 2, "id": 9920, "name": "Adolfo Celi", "order": 10, "profile_path": "/h2RxMAHXJxWK1soazGS5nLaSvnj.jpg"}, {"cast_id": 14, "character": "2nd Journalist", "credit_id": "5a04c2579251416b32006535", "gender": 2, "id": 47698, "name": "Denis Lawson", "order": 11, "profile_path": "/nxPR7KIlJ4CPPI2hniTUk6bu9fA.jpg"}], "crew": [{"credit_id": "5ade9b9ec3a3686ad2003189", "department": "Writing", "gender": 0, "id": 5555, "job": "Screenplay", "name": "Sergio Donati", "profile_path": "/feFhEMfI6bRHa48vlgO3uS8KS5k.jpg"}, {"credit_id": "5ade9ba40e0a2615ea00343c", "department": "Writing", "gender": 0, "id": 5555, "job": "Screenstory", "name": "Sergio Donati", "profile_path": "/feFhEMfI6bRHa48vlgO3uS8KS5k.jpg"}, {"credit_id": "5ade9bac0e0a2615f00037f8", "department": "Writing", "gender": 2, "id": 101108, "job": "Screenplay", "name": "Alberto De Martino", "profile_path": "/agUF5xf7GSDxtRbzdshJOEcDgBa.jpg"}, {"credit_id": "52fe46e7c3a36847f8118e35", "department": "Directing", "gender": 2, "id": 101108, "job": "Director", "name": "Alberto De Martino", "profile_path": "/agUF5xf7GSDxtRbzdshJOEcDgBa.jpg"}, {"credit_id": "5ade9bb2c3a3686adc003521", "department": "Writing", "gender": 2, "id": 101108, "job": "Screenstory", "name": "Alberto De Martino", "profile_path": "/agUF5xf7GSDxtRbzdshJOEcDgBa.jpg"}, {"credit_id": "5ade9bbf9251411343002e7d", "department": "Writing", "gender": 2, "id": 1638645, "job": "Screenplay", "name": "Michael Robson", "profile_path": null}]}}