{"adult": false, "backdrop_path": null, "belongs_to_collection": null, "budget": 0, "genres": [{"id": 99, "name": "Documentary"}], "homepage": "https://www.dalyasothercountry.com/", "id": 461878, "imdb_id": "tt6145762", "original_language": "en", "original_title": "Dalya's Other Country", "overview": "In 2012 Dalya and her mother Rudayna fled Aleppo for Los Angeles as war took over. Months before, Rudayna learns a secret that destroys her marriage, leaving her single at midlife. Arriving in LA, Dalya enrolls as the only Muslim at Holy Family Catholic High School. Can mother and daughter remake themselves while holding on to their Islamic traditions?", "popularity": 0.6, "poster_path": "/jF4vMw8qUwvMhwyiQdqo5bBTxIw.jpg", "production_companies": [], "production_countries": [], "release_date": "2017-01-01", "revenue": 0, "runtime": 75, "spoken_languages": [{"iso_639_1": "en", "name": "English"}, {"iso_639_1": "ar", "name": "\u0627\u0644\u0639\u0631\u0628\u064a\u0629"}], "status": "Released", "tagline": "", "title": "Dalya's Other Country", "video": false, "vote_average": 0.0, "vote_count": 0, "keywords": {"keywords": [{"id": 6270, "name": "high school"}, {"id": 12670, "name": "los angeles, california"}, {"id": 187056, "name": "woman director"}, {"id": 191111, "name": "syria"}, {"id": 233536, "name": "syrian refugee"}]}, "similar": {"page": 1, "results": [{"adult": false, "backdrop_path": "/2oG0ggdMliMDjenw00eSwZFypUp.jpg", "genre_ids": [35, 18], "id": 376660, "original_language": "en", "original_title": "The Edge of Seventeen", "overview": "Two high school girls are best friends until one dates the other's older brother, who is totally his sister's nemesis.", "poster_path": "/gxK80WUwkQePpXpzRdpob0i7DD5.jpg", "release_date": "2016-11-18", "title": "The Edge of Seventeen", "video": false, "vote_average": 7.2, "vote_count": 2517, "popularity": 17.267}, {"id": 449176, "video": false, "vote_count": 3691, "vote_average": 8.1, "title": "Love, Simon", "release_date": "2018-02-16", "original_language": "en", "original_title": "Love, Simon", "genre_ids": [35, 18, 10749], "backdrop_path": "/rqMEeajyzSF4PpJtdCB816Iz8Vr.jpg", "adult": false, "overview": "Everyone deserves a great love story. But for seventeen-year old Simon Spier it's a little more complicated: he's yet to tell his family or friends he's gay and he doesn't know the identity of the anonymous classmate he's fallen for online.", "poster_path": "/5YUYg5q7QfC4IoNwNUtiwdiYKPr.jpg", "popularity": 17.201}, {"id": 11887, "video": false, "vote_count": 2347, "vote_average": 6.5, "title": "High School Musical 3: Senior Year", "release_date": "2008-10-11", "original_language": "en", "original_title": "High School Musical 3: Senior Year", "genre_ids": [35, 18, 10402, 10749, 10751], "backdrop_path": "/daSGxGZL2nNjGZKkAF5ain3lmOx.jpg", "adult": false, "overview": "It's almost graduation day for high school seniors Troy, Gabriella, Sharpay, Chad, Ryan and Taylor \u2015 and the thought of heading off in separate directions after leaving East High has these Wildcats thinking they need to do something they'll remember forever. Together with the rest of the Wildcats, they stage a spring musical reflecting their hopes and fears about the future and their unforgettable experiences growing up together. But with graduation approaching and college plans in question, what will become of the dreams, romances, and friendships of East High's senior Wildcats?", "poster_path": "/ewZpH2QIfPQ0VIn9lPf7MHbLbl4.jpg", "popularity": 14.748}, {"id": 505600, "video": false, "vote_count": 835, "vote_average": 7.2, "title": "Booksmart", "release_date": "2019-05-24", "original_language": "en", "original_title": "Booksmart", "genre_ids": [35], "backdrop_path": "/wcAqndL2MkIjPrCrYeuE794weNE.jpg", "adult": false, "overview": "Two academic teenage superstars realize, on the eve of their high school graduation, that they should have worked less and played more. Determined to never fall short of their peers, the girls set out on a mission to cram four years of fun into one night.", "poster_path": "/micaVOa1UZsdzs4fKGA67ZMGOzc.jpg", "popularity": 21.498}, {"adult": false, "backdrop_path": "/by0WtpJ5UNxOy6ytIfPPTasbRoB.jpg", "genre_ids": [28, 12, 35, 18, 10751, 10402, 10749], "id": 17130, "original_language": "en", "original_title": "Crossroads", "overview": "Three friends get together and bury a box making a pact to open it at midnight at their high school graduation. In the little town in Georgia that they live in, things soon change. One is little miss perfect, one is an engaged prom queen, and the other is a pregnant outcast. The night of graduation, they open the box and they strike up a conversation. All of a sudden, one brings up the topic of her going to Los Angeles for a record contract audition. They all decide to go together and they leave. With a little money, they set out on the road with a guy named Ben. When one of them tells the other a rumor that he might be a homicidal maniac they are all scared of him. When they reach LA, Lucy falls in love with Ben and against her father's wishes, she stays and she goes to the audition.", "poster_path": "/egIs4cWxn0iBErFKrQ7STckjj49.jpg", "release_date": "2002-02-15", "title": "Crossroads", "video": false, "vote_average": 5.0, "vote_count": 334, "popularity": 14.197}, {"adult": false, "backdrop_path": "/cADbqsIoiDW7X3Myg9nz8eAuno5.jpg", "genre_ids": [18, 10749], "id": 10818, "original_language": "fr", "original_title": "Naissance des pieuvres", "overview": "Set during a sultry summer in a French suburb, Marie is desperate to join the local pool's synchronized swimming team, but is her interest solely for the sake of sport or for a chance to get close to Floriane, the bad girl of the team? Sciamma, and the two leads, capture the uncertainty of teenage sexuality with a sympathetic eye in this delicate drama of the angst of coming-of-age.", "poster_path": "/4jajELYrR4Xmv3CVoKnukRnALa2.jpg", "release_date": "2007-05-17", "title": "Water Lilies", "video": false, "vote_average": 6.1, "vote_count": 119, "popularity": 9.614}, {"adult": false, "backdrop_path": "/qFdqdBiqTsfXYvKDeCfxTucxQzU.jpg", "genre_ids": [18, 35, 10749], "id": 80271, "original_language": "en", "original_title": "LOL", "overview": "In a world connected by YouTube, iTunes, and Facebook, Lola and her friends navigate the peer pressures of high school romance and friendship while dodging their sometimes overbearing and confused parents. When Lola's mom, Anne, \"accidentally\" reads her teenage daughter's racy journal, she realizes just how wide their communication gap has grown.", "poster_path": "/vlG6iHT1RuT9xLj17SmNNUd8jJZ.jpg", "release_date": "2012-02-10", "title": "LOL", "video": false, "vote_average": 6.1, "vote_count": 1977, "popularity": 15.159}, {"adult": false, "backdrop_path": "/aE1gbq6nw8zyVqvEBXMVMCqZpCs.jpg", "genre_ids": [18], "id": 85350, "original_language": "en", "original_title": "Boyhood", "overview": "The film tells a story of a divorced couple trying to raise their young son. The story follows the boy for twelve years, from first grade at age 6 through 12th grade at age 17-18, and examines his relationship with his parents as he grows.", "poster_path": "/eKi4e5zXhQKs0De4xu5AAMvu376.jpg", "release_date": "2014-06-05", "title": "Boyhood", "video": false, "vote_average": 7.5, "vote_count": 3350, "popularity": 13.377}, {"id": 378064, "video": false, "vote_count": 1330, "vote_average": 8.3, "title": "A Silent Voice", "release_date": "2016-09-17", "original_language": "ja", "original_title": "\u8072\u306e\u5f62", "genre_ids": [16, 18, 10749], "backdrop_path": "/q5HZvtyqG8Vz39Ee9uTQbLeEml.jpg", "adult": false, "overview": "Shouya Ishida starts bullying the new girl in class, Shouko Nishimiya, because she is deaf. But as the teasing continues, the rest of the class starts to turn on Shouya for his lack of compassion. When they leave elementary school, Shouko and Shouya do not speak to each other again... until an older, wiser Shouya, tormented by his past behaviour, decides he must see Shouko once more. He wants to atone for his sins, but is it already too late...?", "poster_path": "/drlyoSKDOPnxzJFrRWGqzDsyJvR.jpg", "popularity": 17.997}, {"id": 13342, "video": false, "vote_count": 639, "vote_average": 6.9, "title": "Fast Times at Ridgemont High", "release_date": "1982-08-13", "original_language": "en", "original_title": "Fast Times at Ridgemont High", "genre_ids": [35, 18], "backdrop_path": "/l23IoHAfjTdNMZLeDetr75H6sb7.jpg", "adult": false, "overview": "Follows a group of high school students growing up in southern California, based on the real-life adventures chronicled by Cameron Crowe. Stacy Hamilton and Mark Ratner are looking for a love interest, and are helped along by their older classmates, Linda Barrett and Mike Damone, respectively. The center of the film is held by Jeff Spicoli, a perpetually stoned surfer dude who faces off with the resolute Mr. Hand, who is convinced that everyone is on dope.", "poster_path": "/lvEenO2CikD4Zo3rFK1flAU99Pr.jpg", "popularity": 11.118}, {"id": 616584, "video": false, "vote_count": 92, "vote_average": 7.5, "title": "K-12", "release_date": "2019-09-05", "original_language": "en", "original_title": "K-12", "genre_ids": [14, 27, 10402], "backdrop_path": "/fSlfaF0Ydfr2SK6hOYHvDsb7a9Z.jpg", "adult": false, "overview": "Cry Baby, a strong and sensitive girl, is sent off to a disturbing sleepaway school that\u2019s hidden underneath a grandiose fa\u00e7ade. Luckily, she has a sweet and unapologetic best friend who sticks up for her when she gets bullied by the other students whose brains are under control by the Principal and his wicked staff. With the help of the magical friends they meet along the way, as well as an Angelic Spirit Guide, they are able to gain the strength they need to fight off the school\u2019s belligerent patriarchal conditioning.", "poster_path": "/nVi0yBBPj5Z96JgGWVIg94kv7bR.jpg", "popularity": 15.107}, {"id": 9813, "video": false, "vote_count": 128, "vote_average": 6.1, "title": "The Quiet", "release_date": "2005-09-12", "original_language": "en", "original_title": "The Quiet", "genre_ids": [18, 53], "backdrop_path": "/6eyWAZA4CEidZW1xXnQ4vlYBXTP.jpg", "adult": false, "overview": "After her widowed father dies, deaf teenager Dot moves in with her godparents, Olivia and Paul Deer. The Deers' daughter, Nina, is openly hostile to Dot, but that does not prevent her from telling her secrets to her silent stepsister, including the fact that she wants to kill her lecherous father.", "poster_path": "/GEqIE9YlmygHVUfS64LW2cwAAM.jpg", "popularity": 14.844}, {"id": 248574, "video": false, "vote_count": 645, "vote_average": 5.7, "title": "Barely Lethal", "release_date": "2015-04-30", "original_language": "en", "original_title": "Barely Lethal", "genre_ids": [28, 12, 35], "backdrop_path": "/scoMZVgdqBM7vqZaEbhQXJd7jOL.jpg", "adult": false, "overview": "A 16-year-old international assassin yearning for a \"normal\" adolescence fakes her own death and enrolls as a senior in a suburban high school. She quickly learns that being popular can be more painful than getting water-boarded.", "poster_path": "/nJm0vGJVyELlQEzHRq22vi2JHbW.jpg", "popularity": 18.241}, {"id": 15144, "video": false, "vote_count": 1221, "vote_average": 6.8, "title": "Sixteen Candles", "release_date": "1984-05-04", "original_language": "en", "original_title": "Sixteen Candles", "genre_ids": [35, 10749], "backdrop_path": "/xCIgY4mUmO4tbDVlntym9PdZ9H8.jpg", "adult": false, "overview": "A teenage girl deals with her parents forgetting her birthday and a crush on her high school's heartthrob.", "poster_path": "/rzTrRQg5ek47Yl0Vfenc69r9gOd.jpg", "popularity": 29.228}, {"id": 466282, "video": false, "vote_count": 5270, "vote_average": 7.9, "title": "To All the Boys I've Loved Before", "release_date": "2018-08-16", "original_language": "en", "original_title": "To All the Boys I've Loved Before", "genre_ids": [35, 10749], "backdrop_path": "/uZTtVdOEIwPA6vwVRI3217DoPM.jpg", "adult": false, "overview": "Lara Jean's love life goes from imaginary to out of control when her secret letters to every boy she's ever fallen for are mysteriously mailed out.", "poster_path": "/hKHZhUbIyUAjcSrqJThFGYIR6kI.jpg", "popularity": 35.427}, {"adult": false, "backdrop_path": "/ncERp0UvXuImUeJcf27kEANcf1r.jpg", "genre_ids": [35, 10751, 10749], "id": 9880, "original_language": "en", "original_title": "The Princess Diaries", "overview": "A socially awkward but very bright 15-year-old girl being raised by a single mom discovers that she is the princess of a small European country because of the recent death of her long-absent father, who, unknown to her, was the crown prince of Genovia. She must make a choice between continuing the life of a San Francisco teen or stepping up to the throne.", "poster_path": "/sxpvHk286sXLJWcFrBMNIsXbYsd.jpg", "release_date": "2001-08-03", "title": "The Princess Diaries", "video": false, "vote_average": 6.8, "vote_count": 2861, "popularity": 30.076}, {"id": 9603, "video": false, "vote_count": 2178, "vote_average": 7.2, "title": "Clueless", "release_date": "1995-07-19", "original_language": "en", "original_title": "Clueless", "genre_ids": [35, 10749], "backdrop_path": "/pmE7AXRn2X0PVVHvcZ5uvxJfN2R.jpg", "adult": false, "overview": "Shallow, rich and socially successful Cher is at the top of her Beverly Hills high school's pecking scale. Seeing herself as a matchmaker, Cher first coaxes two teachers into dating each other. Emboldened by her success, she decides to give hopelessly klutzy new student Tai a makeover. When Tai becomes more popular than she is, Cher realizes that her disapproving ex-stepbrother was right about how misguided she was -- and falls for him.", "poster_path": "/i8gEHh2sszB6YWLC0jl559sxAeN.jpg", "popularity": 20.836}, {"adult": false, "backdrop_path": "/useuHJQ5HOoEWkAvEjL1FW1sUfe.jpg", "genre_ids": [18], "id": 376867, "original_language": "en", "original_title": "Moonlight", "overview": "The tender, heartbreaking story of a young man\u2019s struggle to find himself, told across three defining chapters in his life as he experiences the ecstasy, pain, and beauty of falling in love, while grappling with his own sexuality.", "poster_path": "/qAwFbszz0kRyTuXmMeKQZCX3Q2O.jpg", "release_date": "2016-10-21", "title": "Moonlight", "video": false, "vote_average": 7.4, "vote_count": 4410, "popularity": 21.716}, {"id": 76726, "video": false, "vote_count": 3331, "vote_average": 6.7, "title": "Chronicle", "release_date": "2012-02-01", "original_language": "en", "original_title": "Chronicle", "genre_ids": [18, 878, 53], "backdrop_path": "/f54d3tpzdRW02IDIIVRuwiY2N3K.jpg", "adult": false, "overview": "Three high school students make an incredible discovery, leading to their developing uncanny powers beyond their understanding. As they learn to control their abilities and use them to their advantage, their lives start to spin out of control, and their darker sides begin to take over.", "poster_path": "/kdyrdFIt29FUmLIKvedAc2j4rpo.jpg", "popularity": 16.937}, {"id": 272693, "video": false, "vote_count": 3249, "vote_average": 6.8, "title": "The DUFF", "release_date": "2015-02-20", "original_language": "en", "original_title": "The DUFF", "genre_ids": [35, 10749], "backdrop_path": "/awGZf5T1hflis9Z2KvRMhp798xU.jpg", "adult": false, "overview": "Bianca's universe turns upside down when she learns that her high school refers to her as a \u2018DUFF' (Designated Ugly Fat Friend). Hoping to erase that label, she enlists the help of a charming jock and her favorite teacher. Together they'll face the school's mean girl and remind everyone that we are all someone's DUFF\u2026 and that's totally fine.", "poster_path": "/dBBgPTCN5Zze4POXWVVpwf3wkra.jpg", "popularity": 17.232}], "total_pages": 1323, "total_results": 26457}, "recommendations": {"page": 1, "results": [], "total_pages": 1, "total_results": 0}, "credits": {"cast": [], "crew": [{"credit_id": "59419624c3a368517f01c432", "department": "Editing", "gender": 0, "id": 1833611, "job": "Editor", "name": "Catherine Hollander", "profile_path": null}, {"credit_id": "5941959a92514105990183a2", "department": "Directing", "gender": 0, "id": 1445677, "job": "Director", "name": "Julia Meltzer", "profile_path": null}, {"credit_id": "594195a7c3a36803b4026dae", "department": "Camera", "gender": 1, "id": 808402, "job": "Director of Photography", "name": "Anne Etheridge", "profile_path": null}, {"credit_id": "594196319251414b020259fb", "department": "Production", "gender": 0, "id": 1833612, "job": "Producer", "name": "Mustafa Rony Zeno", "profile_path": null}, {"credit_id": "5941963bc3a36803b4026e57", "department": "Production", "gender": 0, "id": 1445677, "job": "Producer", "name": "Julia Meltzer", "profile_path": null}]}}