{"adult": false, "backdrop_path": "/sTuw5ARn1a795wtb63IFNxOddc1.jpg", "belongs_to_collection": null, "budget": 0, "genres": [{"id": 35, "name": "Comedy"}, {"id": 18, "name": "Drama"}, {"id": 10749, "name": "Romance"}], "homepage": null, "id": 462181, "imdb_id": "tt3465026", "original_language": "en", "original_title": "Palm Swings", "overview": "After moving to Palm Springs, a young married couple puts their love to the test when they discover that their neighbors are swingers.", "popularity": 8.363, "poster_path": "/g1YnKSZECx2mfCheJmmQOX3CaDn.jpg", "production_companies": [{"id": 106371, "logo_path": null, "name": "Code Blue Pictures", "origin_country": ""}], "production_countries": [{"iso_3166_1": "US", "name": "United States of America"}], "release_date": "2017-10-03", "revenue": 0, "runtime": 95, "spoken_languages": [{"iso_639_1": "en", "name": "English"}], "status": "Released", "tagline": "Do you play?", "title": "Palm Swings", "video": false, "vote_average": 5.4, "vote_count": 7, "keywords": {"keywords": [{"id": 1672, "name": "lifestyle"}, {"id": 1817, "name": "orgy"}, {"id": 2426, "name": "group sex"}, {"id": 10538, "name": "palm springs"}, {"id": 33876, "name": "swinger"}, {"id": 180340, "name": "voyeur"}, {"id": 217311, "name": "sex party"}, {"id": 244648, "name": "wife swapping"}]}, "similar": {"page": 1, "results": [{"id": 12531, "video": false, "vote_count": 91, "vote_average": 6.9, "title": "The Apartment", "release_date": "1996-07-27", "original_language": "fr", "original_title": "L'Appartement", "genre_ids": [18, 9648, 10749], "backdrop_path": "/64qyT8m4JQ6YODvXxtbHgKmXBX7.jpg", "adult": false, "overview": "A stylish suspense thriller that confounds the audience while presenting them with an extraordinary and elusive mystery. Max is a former playboy who has decided to settle down by marrying his current love, Muriel. However, during a business trip, Max catches a glimpse of the great lost love of his life, reviving his wanderlust and sending him off on a chase of the elusive Lisa, whom he had overheard suggesting to a friend that her lover, Daniel, had killed someone for her. Soon, Max is trying to unravel the mystery behind the suspicious death of Daniel's wife, which he hopes will lead him closer to Lisa.", "poster_path": "/1sqrQdQTn8jKLhUcPKfRVj639zA.jpg", "popularity": 19.17}, {"adult": false, "backdrop_path": "/98ahnrena4PwLth7HFYGLf9yssH.jpg", "genre_ids": [35, 18, 10749], "id": 22705, "original_language": "it", "original_title": "Tra(sgre)dire", "overview": "While scouting out apartments in London for her Venetian boyfriend, Carla rents an apartment that overlooks the Thames. There she meet the lesbian hyper-horny real estate agent Moira.", "poster_path": "/kZITrLEiTfzzJhtwtXhQUl3ImCQ.jpg", "release_date": "2000-01-28", "title": "Cheeky", "video": false, "vote_average": 5.7, "vote_count": 92, "popularity": 30.42}, {"id": 1391, "video": false, "vote_count": 688, "vote_average": 7.4, "title": "Y Tu Mam\u00e1 Tambi\u00e9n", "release_date": "2001-06-08", "original_language": "es", "original_title": "Y tu mam\u00e1 tambi\u00e9n", "genre_ids": [18, 10749], "backdrop_path": "/5jXzf6VCxmRAbQYYOuoPgGZRbRp.jpg", "adult": false, "overview": "In Mexico, two teenage boys and an attractive older woman embark on a road trip and learn a thing or two about life, friendship, sex, and each other.", "poster_path": "/4n6lnr7q3Ysz4rKz3raxkltbHgr.jpg", "popularity": 16.073}, {"id": 1791, "video": false, "vote_count": 468, "vote_average": 7.4, "title": "The Piano Teacher", "release_date": "2001-07-21", "original_language": "fr", "original_title": "La Pianiste", "genre_ids": [18, 10749], "backdrop_path": "/mNXNFlZXeJYSqTGIiweEaMxGYfO.jpg", "adult": false, "overview": "Erika Kohut, a sexually repressed piano teacher living with her domineering mother, meets a young man who starts romantically pursuing her.", "poster_path": "/ln8Ip9Etw4jxzxSuXSTwFqsfsSY.jpg", "popularity": 11.804}, {"adult": false, "backdrop_path": "/r2b4rCQlaQ9eyhZhVukW8EnRW0c.jpg", "genre_ids": [35], "id": 55580, "original_language": "it", "original_title": "Fermo posta Tinto Brass", "overview": "This film is a series of letters, photos and video cassettes which women often send in to certain newspapers. By visualizing their story-telling (the name given by the psychologists to their fantasies) the film portrays the confessions, the secret longings, the adventures, recollections, dreams, desires and fantasies of these women. It is an open secret that most women dream of forbidden affairs, secret lovers and hasty encounters but when it comes down to it they lack the courage to pursue their dreams.", "poster_path": "/zC4QqXYwdOPS3LT9J0YPN3bcDxz.jpg", "release_date": "1995-08-30", "title": "P.O. Box Tinto Brass", "video": false, "vote_average": 5.2, "vote_count": 34, "popularity": 11.931}, {"id": 1378, "video": false, "vote_count": 256, "vote_average": 6.3, "title": "Shortbus", "release_date": "2006-05-20", "original_language": "en", "original_title": "Shortbus", "genre_ids": [35, 18, 10749], "backdrop_path": "/q0fWiFPHQy42g41mxNxci2QxTIW.jpg", "adult": false, "overview": "A group of New Yorkers caught up in their milieu converge at an underground salon infamous for its blend of art, music, politics, and carnality. The characters converge in a weekly Brooklyn social/artistic/sexual salon \"Shortbus\", loosely inspired by various underground NYC gatherings that took place in the early 2000's. Here, gay couple Jamie (P J DeBoy) and James (Paul Dawson) meet a young ex-model and aspiring singer Ceth (Jay Brannan).", "poster_path": "/iaS9XXoHW6ZVveu6wpLaTv1Bv29.jpg", "popularity": 13.824}, {"id": 14174, "video": false, "vote_count": 124, "vote_average": 5.4, "title": "Lie with Me", "release_date": "2005-09-10", "original_language": "en", "original_title": "Lie with Me", "genre_ids": [18], "backdrop_path": "/zqHLgJUIoTMQF279PASkHrNi4za.jpg", "adult": false, "overview": "Happily unattached, the sexually voracious Leila satisfies her desires with a host of rapidly changing bed partners, unconcerned about the emotional consequences. But that all changes when she meets an artist looking for a deeper commitment.", "poster_path": "/uBHoL4nUPYLxx3NaGf70NqP4JkN.jpg", "popularity": 14.333}, {"adult": false, "backdrop_path": "/fr8Aon16ksAcjGnv9D2j2A3wAfz.jpg", "genre_ids": [18, 9648, 53], "id": 9729, "original_language": "en", "original_title": "Where the Truth Lies", "overview": "An ambitious reporter probes the reasons behind the sudden split of a 1950s comedy team.", "poster_path": "/kM3SILXjW9YyX8OQbkoVUj1izWQ.jpg", "release_date": "2005-10-07", "title": "Where the Truth Lies", "video": false, "vote_average": 6.1, "vote_count": 145, "popularity": 8.936}, {"id": 17824, "video": false, "vote_count": 98, "vote_average": 5.4, "title": "Private Resort", "release_date": "1985-05-03", "original_language": "en", "original_title": "Private Resort", "genre_ids": [35], "backdrop_path": "/nbWQPFWelZz1KxQEdWPDgiSv5qX.jpg", "adult": false, "overview": "Jack and his buddy Ben check in at a posh Florida resort, planning to spend every hour in hot pursuit of gorgeous babes. But their plans hit a major detour when they try to bed the wife of a conniving jewel thief. They'll have to outsmart him, a nasty security guard and an obnoxious jock if they're ever going to get a moment alone with the girls of their dreams!", "poster_path": "/heIOzHhXzRWNyVmLGnCtyDuXeme.jpg", "popularity": 11.792}, {"id": 44741, "video": false, "vote_count": 52, "vote_average": 6.3, "title": "Malicious", "release_date": "1973-03-29", "original_language": "it", "original_title": "Malizia", "genre_ids": [35], "backdrop_path": "/pYoqSBMEXY38KohUrGKZrKdclEa.jpg", "adult": false, "overview": "A widower and two of his sons become infatuated by their beautiful housekeeper, and all three set out to seduce her using their own unique methods.", "poster_path": "/sQ5SHelVqiHeZstf30O0cTdflwv.jpg", "popularity": 14.983}, {"id": 11012, "video": false, "vote_count": 186, "vote_average": 6.6, "title": "Damage", "release_date": "1992-12-02", "original_language": "en", "original_title": "Damage", "genre_ids": [18, 10749], "backdrop_path": "/fyWAQvLjmRoKi93d8eBjaRwzkNN.jpg", "adult": false, "overview": "The life of a respected British politician at the height of his career crumbles when he becomes obsessed with his son's lover.", "poster_path": "/cmR8sXNPjvIgxuffM2sb4yaeC4W.jpg", "popularity": 11.814}, {"adult": false, "backdrop_path": "/8rjzuGxXaJRbj1ixZSA1Z1WNQZ4.jpg", "genre_ids": [35, 18], "id": 4255, "original_language": "en", "original_title": "The Party at Kitty and Stud's", "overview": "Kitty and Stud are lovers. They enjoy a robust sex-life, which includes fellatio and light S&M, specifically, Stud belt-whipping Kitty. Three women come over for a party and Stud services them, one after the other.", "poster_path": "/iwCJQRoEtNGTppUnKCb3ClVtVbl.jpg", "release_date": "1970-02-10", "title": "The Party at Kitty and Stud's", "video": false, "vote_average": 2.9, "vote_count": 35, "popularity": 10.508}, {"adult": false, "backdrop_path": "/ncLuaJ9s6BuPK2zGsVFoTJSdmkF.jpg", "genre_ids": [18], "id": 35712, "original_language": "fr", "original_title": "Choses secr\u00e8tes", "overview": "Two young women find themselves struggling to survive in Paris, street-wise Nathalie, a stripper, and na\u00efve Sandrine, a barmaid. Together, they discover that sex can be used to their advantage, and pleasure.", "poster_path": "/bipr9hRC8hYlWhkYywINhFJ4INT.jpg", "release_date": "2002-10-16", "title": "Secret Things", "video": false, "vote_average": 6.0, "vote_count": 43, "popularity": 10.306}, {"adult": false, "backdrop_path": "/feZlULeOhSRLz23ZXUeDX3Dl2dS.jpg", "genre_ids": [80, 53, 9648], "id": 17494, "original_language": "en", "original_title": "Unlawful Entry", "overview": "After a break-in at their house, a couple gets help from one of the cops that answered their call. He helps them install the security system, and begins dropping by on short notice and unofficial patrol, and spends a lot of time discussing the couple's problems with the wife. The husband begins wondering if they're getting too much help.", "poster_path": "/sKUk1ca6gHaIopi8VqE8GoxJq6J.jpg", "release_date": "1992-06-26", "title": "Unlawful Entry", "video": false, "vote_average": 6.1, "vote_count": 121, "popularity": 10.241}, {"adult": false, "backdrop_path": "/sOKsA6xh6eMRbBMM0fhdgIt46kF.jpg", "genre_ids": [27, 9648, 53], "id": 572, "original_language": "no", "original_title": "Naboer", "overview": "After Ingrid leaves John, he allows himself to be pulled into a mystical and scary world where it is impossible to separate truth from lies.", "poster_path": "/9QgWi9Nf8vnzRtl8ABOYVdo5Wxh.jpg", "release_date": "2005-03-10", "title": "Next Door", "video": false, "vote_average": 6.8, "vote_count": 76, "popularity": 8.033}, {"adult": false, "backdrop_path": "/nv6Ur5vvcPrlqUlWJt3qPclNWCH.jpg", "genre_ids": [35], "id": 10246, "original_language": "en", "original_title": "Porky's", "overview": "Set in 1954, a group of Florida high schoolers seek out to lose their virginity which leads them to seek revenge on a sleazy nightclub owner and his redneck sheriff brother for harassing them.", "poster_path": "/yfwbpCll3RBxJmixrZvpc2NaqQY.jpg", "release_date": "1981-11-13", "title": "Porky's", "video": false, "vote_average": 6.2, "vote_count": 344, "popularity": 9.495}, {"adult": false, "backdrop_path": "/3IDP3n0ZdUPb86ejeRNLQbI41ko.jpg", "genre_ids": [35, 10749], "id": 6641, "original_language": "en", "original_title": "Love and Other Disasters", "overview": "Flighty Emily \"Jacks\" Jackson works for the British edition of Vogue magazine. Rather than pursue a relationship, Jacks regularly hooks up with her devoted ex-boyfriend, James Wildstone, and lives with Peter Simon, a gay screenwriter. When Jacks meets Argentinian photographer's assistant Paolo Sarmiento, she assumes he is gay and tries to bring him and Peter together, unaware that Paolo is straight and in love with her.", "poster_path": "/hvWOCeBXEChwTa7BHLzBA0mB0Kk.jpg", "release_date": "2006-09-09", "title": "Love and Other Disasters", "video": false, "vote_average": 5.9, "vote_count": 187, "popularity": 7.995}, {"adult": false, "backdrop_path": "/3jIGlkoNHVbGSZM8ZJ3JYZP8PRX.jpg", "genre_ids": [9648, 18], "id": 1411, "original_language": "en", "original_title": "The Rapture", "overview": "A lonely telephone operator leading an empty, amoral life finds God \u2014 only to have her faith continually tested in ways beyond what she could have imagined.", "poster_path": "/2jshD2PlljPpz3OrlkRV519ifVx.jpg", "release_date": "1991-10-04", "title": "The Rapture", "video": false, "vote_average": 6.2, "vote_count": 28, "popularity": 6.416}, {"adult": false, "backdrop_path": "/8jYA3KpCGqnxrj2a7TbFlT9pBQa.jpg", "genre_ids": [18], "id": 47570, "original_language": "en", "original_title": "Maid in Sweden", "overview": "Maid in Sweden tells the story of Inga, a 16-year-old Swedish girl who leaves her rural home to spend a weekend in the Swedish capital. An innocent with no experience, but with prodigious physical attributes, she has a series of romantic adventures as she throws off the frustrations of her small-town environment.", "poster_path": "/c6pbcBXxvyg2qHI8QzuI4CKevAh.jpg", "release_date": "1971-11-03", "title": "Maid in Sweden", "video": false, "vote_average": 4.2, "vote_count": 9, "popularity": 5.539}, {"id": 9534, "video": false, "vote_count": 154, "vote_average": 6.5, "title": "The Ferpect Crime", "release_date": "2004-09-10", "original_language": "es", "original_title": "Crimen Ferpecto", "genre_ids": [35, 80, 53], "backdrop_path": "/cHXa58okQxXooNS0zjkumDEnXYg.jpg", "adult": false, "overview": "A playboy has the tables turned on him when he finds himself being used as a plaything by an undesirable woman in this black comedy from Spain.", "poster_path": "/fduo65oYroaDwa69Z6lZGAQ6nhD.jpg", "popularity": 6.75}], "total_pages": 5, "total_results": 87}, "recommendations": {"page": 1, "results": [{"adult": false, "backdrop_path": "/A0FaC9UmiD9dRlqDetmK2KXoU7X.jpg", "genre_ids": [35], "id": 451939, "original_language": "en", "original_title": "Last Day of School", "overview": "Four college guys caught cheating on their final exam are forced by their unstable teacher to perform a series of outrageously funny and sexy tasks in order to graduate.", "poster_path": "/qZzosEZu3ricqKtQLMir78stDqb.jpg", "release_date": "2016-07-01", "title": "Last Day of School", "video": false, "vote_average": 4.3, "vote_count": 7, "popularity": 8.579}, {"adult": false, "backdrop_path": "/nTr2VAHpPmews4RMTYlMZKtG2OC.jpg", "genre_ids": [80, 10402, 53], "id": 376575, "original_language": "en", "original_title": "48 Hours to Live", "overview": "A loner fresh out of rehab and hunted by both sides of the law returns home to solve the murder of his sister, and finds himself entangled in a game of revenge on the LA club circuit.", "poster_path": "/x44BbwHJmDgeGx2N3E8fsLHdqzs.jpg", "release_date": "2016-11-09", "title": "48 Hours to Live", "video": false, "vote_average": 6.8, "vote_count": 8, "popularity": 5.126}, {"adult": false, "backdrop_path": "/2SfMKEKyuvibKyGyLM9nG1ShpoR.jpg", "genre_ids": [18, 27, 53], "id": 401359, "original_language": "en", "original_title": "Breakdown Lane", "overview": "When Kirby Lane's SUV breaks down in the middle of the desert, she must overcome the dehydration, coyotes, and lurking undead to find her way home.", "poster_path": "/nevwDR8ODeY7nqdZlEo0gqGH6ZA.jpg", "release_date": "2017-01-05", "title": "Breakdown Lane", "video": false, "vote_average": 4.0, "vote_count": 13, "popularity": 6.067}, {"id": 463940, "video": false, "vote_count": 15, "vote_average": 6.4, "title": "Locked Up", "release_date": "2017-06-20", "original_language": "en", "original_title": "Locked Up", "genre_ids": [80, 18, 53], "backdrop_path": "/cdHLTOvEhM7S9p3I4thHt4Fdfrn.jpg", "adult": false, "overview": "When an American teenager gets bullied at her school in Southeast Asia, she fights back--and gets sent to a reform school. But the \"school\" is more like a prison, and the young teenager must fend off predatory guards and menacing gangs to survive", "poster_path": "/tzYJ9X9oVybCIVAaTOUFHVwcjXo.jpg", "popularity": 8.912}, {"adult": false, "backdrop_path": "/decEoJKsV5UzMdZINLwTO1IXdTL.jpg", "genre_ids": [53], "id": 458353, "original_language": "en", "original_title": "High Heel Homicide", "overview": "As a string of brutal murders plague the city, two undercover detectives (Brent Harvey and Mia Li) race to solve the mystery and unmask the killer. Their only clues: each victim is a former cop and each has a blood-red letter painted on their body. How many will have to die before the killer spells out their message in blood?", "poster_path": "/u8qHMiRkWPhDeL4W85OKA5cahPI.jpg", "release_date": "2017-06-20", "title": "High Heel Homicide", "video": false, "vote_average": 6.1, "vote_count": 13, "popularity": 13.586}, {"adult": false, "backdrop_path": "/cHiLrpbrmITxVEXkoNVd3GgBRqV.jpg", "genre_ids": [27, 28, 53], "id": 68212, "original_language": "en", "original_title": "The Terror Experiment", "overview": "When terrorist action releases a secret government virus in the Houston Federal building, the employees become aggressive and homicidal. Federal officials quarantine the building to wipe out the infected and control the story, but a small group of uninfected are fighting to get out.", "poster_path": "/6p0Yox5Om8vVKxg61AI4Ar55C47.jpg", "release_date": "2010-01-01", "title": "The Terror Experiment", "video": false, "vote_average": 4.2, "vote_count": 16, "popularity": 4.002}, {"adult": false, "backdrop_path": "/1Ce3KAwncOoWJt1VYvt7Hl6DTod.jpg", "genre_ids": [27, 53], "id": 92635, "original_language": "en", "original_title": "Snow White: A Deadly Summer", "overview": "A troubled teenage girl finds herself in a web of lies and deceit when her stepmother attempts to murder her by sending her to a discipline camp.", "poster_path": "/ffmDF8wTXB4T5JkdqryRZi58DSH.jpg", "release_date": "2012-03-16", "title": "Snow White: A Deadly Summer", "video": false, "vote_average": 3.8, "vote_count": 16, "popularity": 5.175}, {"adult": false, "backdrop_path": "/xFcmyrC4Xj7NMqO1e8iZT4sn37D.jpg", "genre_ids": [27], "id": 320678, "original_language": "es", "original_title": "Vampyres", "overview": "Victor Matellano directs this tale set in a stately English manor inhabited by two older female vampires and with their only cohabitant being a man imprisoned in the basement. Their lives and lifestyle are upended when a trio of campers come upon their lair and seek to uncover their dark secrets, a decision that has sexual and blood-curdling consequences.", "poster_path": "/yRzaIDreRU4p0XBX2LV588UtW0K.jpg", "release_date": "2015-09-25", "title": "Vampyres", "video": false, "vote_average": 4.8, "vote_count": 17, "popularity": 3.593}, {"adult": false, "backdrop_path": "/nSuoJAGJf4eBgB6oqAMZAElAYK5.jpg", "genre_ids": [53, 27], "id": 384594, "original_language": "en", "original_title": "Blood Hunters", "overview": "An elevated genre horror film about a single mother who wakes up in a medical facility to find that everyone is dead and she's nine months pregnant.  As she struggles to escape she discovers the facility's secret, they've tampered with the boundaries of death and brought people back to life, but those who've returned, have not returned alone.", "poster_path": "/axgFPcZrYGai6xZSB2KlwmBK4hg.jpg", "release_date": "2016-10-01", "title": "Blood Hunters", "video": false, "vote_average": 5.1, "vote_count": 14, "popularity": 5.296}, {"adult": false, "backdrop_path": "/a0GBftsaeysbiJSl6idKsiV0WaU.jpg", "genre_ids": [10749, 18], "id": 400013, "original_language": "es", "original_title": "Fragmentos de amor", "overview": "Rodrigo, a piano-tuner and former composer fallen on hard times, begins a love affair with the soon-to-be-married Susana. When a bomb in the city of Medell\u00edn nearly kills them, Rodrigo and Susana surrender to their attraction and fall into each other\u2019s arms. Cocooned in her apartment above the vibrant city, Susana opens up to him every night and tells him a story of each of the different men from her past. Her stories inspire him to compose again, but his obsession makes him jealous and paranoid. When Susana finally leaves her fianc\u00e9e to be with Rodrigo, he becomes obsessed with her fidelity.", "poster_path": "/l5DUyJE3UaDC9COJ8OxycyTkRBW.jpg", "release_date": "2016-04-15", "title": "Fragments of Love", "video": false, "vote_average": 6.0, "vote_count": 10, "popularity": 1.919}, {"id": 482048, "video": false, "vote_count": 11, "vote_average": 4.5, "title": "Halloween Pussy Trap Kill! Kill!", "release_date": "2017-10-27", "original_language": "en", "original_title": "Halloween Pussy Trap Kill! Kill!", "genre_ids": [80, 27], "backdrop_path": "/Ae8rskSgxyk2U0TqVzxOMKsGNVo.jpg", "adult": false, "overview": "On Halloween, an all girl rock-n-roll band called \u201cKill Pussy Kill\u201d ventures out to play their biggest show to date. However, before hitting the road they manage to unwittingly upset a man. Unfortunately, this man turns out to be an evil genius dead set on revenge. The evil genius manages to lure the girls into his Hell House and when they wake up from being gassed, they find themselves trapped inside an inescapable room filled with a vicious variety of devices that can kill them as well as a variety of weapons that can be used on each other. The rules are simple: advance through all three rooms and you are allowed to go free. The catch is, in order to make it to the next room, someone must die!", "poster_path": "/zMgrC7ESzRV7lPKCWQ2zgx4MLw6.jpg", "popularity": 5.799}, {"id": 368182, "video": false, "vote_count": 24, "vote_average": 4.9, "title": "Compulsion", "release_date": "2016-11-19", "original_language": "en", "original_title": "Compulsion", "genre_ids": [14, 27, 53], "backdrop_path": "/lSRHG4n5bWNVRjYEWyKpp7vIJuD.jpg", "adult": false, "overview": "Sadie, a young female novelist, and an enigmatic woman named Francesca, are enticed by an ex-lover to join him at his Italian villa for a weekend celebration being held to honor the release of Sadie's latest book. Once there, Sadie begins to fear his true intentions as she and Francesca become embroiled in a dangerous game of moral and sexual discovery.", "poster_path": "/oUcemt7fIpMyAeJzUdTcJv8iJUZ.jpg", "popularity": 9.675}], "total_pages": 1, "total_results": 12}, "credits": {"cast": [{"cast_id": 2, "character": "Allison Hughes", "credit_id": "59444bf9c3a36816f6001e69", "gender": 1, "id": 1281758, "name": "Sugar Lyn Beard", "order": 1, "profile_path": "/vEROfgz3JpfPyN3Qjh0Maf0GUq0.jpg"}, {"cast_id": 3, "character": "Ms. Cherry Bomb", "credit_id": "59444c0b9251413ff4001d3d", "gender": 1, "id": 13445, "name": "Tia Carrere", "order": 2, "profile_path": "/dtGgb3UFrhSifzpIWuTlE98z0F0.jpg"}, {"cast_id": 4, "character": "Rachel", "credit_id": "59444c1ac3a368171b001b45", "gender": 1, "id": 208659, "name": "Madison McKinley", "order": 3, "profile_path": "/qdvrbMMeUpWZ5MJo2Xijg1Bu5k2.jpg"}, {"cast_id": 5, "character": "Lance", "credit_id": "59444c31c3a36816c5001df1", "gender": 2, "id": 32224, "name": "Jason Lewis", "order": 4, "profile_path": "/rJx9FAIMOtaOiqTtlaGLVTxn8Y2.jpg"}, {"cast_id": 6, "character": "Claire", "credit_id": "59444c419251413fc2001d15", "gender": 1, "id": 150954, "name": "Diane Farr", "order": 5, "profile_path": "/r63GxSo6qYV5Hy2YZK717fMvxYt.jpg"}], "crew": [{"credit_id": "59444bccc3a368170f001d77", "department": "Directing", "gender": 0, "id": 1436943, "job": "Director", "name": "Sean Hoessli", "profile_path": null}, {"credit_id": "59444bdc925141400d001d92", "department": "Writing", "gender": 0, "id": 1834604, "job": "Writer", "name": "Amanda Lockhart", "profile_path": null}]}}