{"adult": false, "backdrop_path": "/lDAAMSPqtesd3EXvZ2uINIc5Tnb.jpg", "belongs_to_collection": null, "budget": 0, "genres": [{"id": 10749, "name": "Romance"}, {"id": 18, "name": "Drama"}, {"id": 35, "name": "Comedy"}], "homepage": "", "id": 46226, "imdb_id": "tt0255195", "original_language": "en", "original_title": "The Goddess of 1967", "overview": "A rich young Japanese man travels to Australia with the intention of buying a Citro\u00ebn DS car (the goddess of the film's title - nicknamed the D\u00e9esse, after its initials in French, d\u00e9esse being French for \"goddess\") that he has found for sale on the net. Once there things do not quite go to plan and he ends up on a road journey with a blind girl.", "popularity": 1.818, "poster_path": "/k2jQXsq6VRxNZVnYEJ69ym8VNeN.jpg", "production_companies": [{"id": 418, "logo_path": null, "name": "New South Wales Film & Television Office", "origin_country": "AU"}], "production_countries": [{"iso_3166_1": "AU", "name": "Australia"}], "release_date": "2000-09-08", "revenue": 0, "runtime": 119, "spoken_languages": [{"iso_639_1": "ja", "name": "\u65e5\u672c\u8a9e"}, {"iso_639_1": "en", "name": "English"}], "status": "Released", "tagline": "", "title": "The Goddess of 1967", "video": false, "vote_average": 7.0, "vote_count": 13, "keywords": {"keywords": [{"id": 246, "name": "dancing"}, {"id": 5657, "name": "australia"}, {"id": 6149, "name": "police"}, {"id": 187056, "name": "woman director"}]}, "similar": {"page": 1, "results": [{"adult": false, "backdrop_path": "/fZ8oFcREAr6wgWcXISGql0xyxjB.jpg", "genre_ids": [35, 18], "id": 39781, "original_language": "en", "original_title": "The Kids Are All Right", "overview": "Two women, Nic and Jules, brought a son and daughter into the world through artificial insemination. When one of their children reaches age, both kids go behind their mothers' backs to meet with the donor. Life becomes so much more interesting when the father, two mothers and children start to become attached to each other.", "poster_path": "/fPDeK4MmoGfi2X0oWZev7LrbMqM.jpg", "release_date": "2010-07-09", "title": "The Kids Are All Right", "video": false, "vote_average": 6.6, "vote_count": 923, "popularity": 12.703}, {"adult": false, "backdrop_path": "/nriBinb7Y3Bm6LdbmOC0mFxSm8d.jpg", "genre_ids": [80, 18], "id": 226, "original_language": "en", "original_title": "Boys Don't Cry", "overview": "Female born, Teena Brandon adopts his male identity of Brandon Teena and attempts to find himself and love in Nebraska.", "poster_path": "/6bqIZTEuJnUrgnxcymciszvOz8J.jpg", "release_date": "1999-09-02", "title": "Boys Don't Cry", "video": false, "vote_average": 7.5, "vote_count": 718, "popularity": 12.137}, {"adult": false, "backdrop_path": "/ltq1i8ienPm7OSdOXl3o8ROgmKc.jpg", "genre_ids": [28, 80, 18], "id": 2142, "original_language": "en", "original_title": "Cop Land", "overview": "Freddy Heflin is the sheriff of a place everyone calls \u201cCop Land\u201d \u2014 a small and seemingly peaceful town populated by the big city police officers he\u2019s long admired. Yet something ugly is taking place behind the town\u2019s peaceful facade. And when Freddy uncovers a massive, deadly conspiracy among these local residents, he is forced to take action and make a dangerous choice between protecting his idols and upholding the law.", "poster_path": "/th2UDVewgUAfIXFUaWGWWBxCM91.jpg", "release_date": "1997-08-15", "title": "Cop Land", "video": false, "vote_average": 6.7, "vote_count": 757, "popularity": 13.66}, {"id": 400090, "video": false, "vote_count": 106, "vote_average": 7.3, "title": "The Nightingale", "release_date": "2019-08-02", "original_language": "en", "original_title": "The Nightingale", "genre_ids": [12, 18, 53], "backdrop_path": "/bwsANtJNaA5xDmxPp6z2JqEtfCI.jpg", "adult": false, "overview": "In 1825, Claire, a 21-year-old Irish convict, chases a British soldier through the rugged Tasmanian wilderness, bent on revenge for a terrible act of violence he committed against her family. She enlists the services of an Aboriginal tracker who is also marked by trauma from his own violence-filled past.", "poster_path": "/hWA8QwSM1kJYMoTANEPoqrqBapg.jpg", "popularity": 10.467}, {"adult": false, "backdrop_path": "/24JDK9dRRRzkBjHBsKQIGs7sBkj.jpg", "genre_ids": [53, 18], "id": 303858, "original_language": "en", "original_title": "Money Monster", "overview": "Financial TV host Lee Gates and his producer Patty are put in an extreme situation when an irate investor takes over their studio.", "poster_path": "/p7KDmC2beuKCCMO49L767OgwLQr.jpg", "release_date": "2016-05-12", "title": "Money Monster", "video": false, "vote_average": 6.4, "vote_count": 2031, "popularity": 13.066}, {"adult": false, "backdrop_path": "/scRw6gAoO3CfgQnZjHCh2ZgU4Z1.jpg", "genre_ids": [80, 18, 878, 53], "id": 281, "original_language": "en", "original_title": "Strange Days", "overview": "Set in the year 1999 during the last days of the old millennium, the movie tells the story of Lenny Nero, an ex-cop who now deals with data-discs containing recorded memories and emotions. One day he receives a disc which contains the memories of a murderer killing a prostitute. Lenny investigates and is pulled deeper and deeper in a whirl of blackmail, murder and rape. Will he survive and solve the case?", "poster_path": "/rXvy5hG9OeVmgnv9w4IhQxhqEKD.jpg", "release_date": "1995-10-13", "title": "Strange Days", "video": false, "vote_average": 7.0, "vote_count": 662, "popularity": 19.866}, {"id": 9813, "video": false, "vote_count": 128, "vote_average": 6.1, "title": "The Quiet", "release_date": "2005-09-12", "original_language": "en", "original_title": "The Quiet", "genre_ids": [18, 53], "backdrop_path": "/6eyWAZA4CEidZW1xXnQ4vlYBXTP.jpg", "adult": false, "overview": "After her widowed father dies, deaf teenager Dot moves in with her godparents, Olivia and Paul Deer. The Deers' daughter, Nina, is openly hostile to Dot, but that does not prevent her from telling her secrets to her silent stepsister, including the fact that she wants to kill her lecherous father.", "poster_path": "/GEqIE9YlmygHVUfS64LW2cwAAM.jpg", "popularity": 13.948}, {"id": 75780, "video": false, "vote_count": 4450, "vote_average": 6.4, "title": "Jack Reacher", "release_date": "2012-12-20", "original_language": "en", "original_title": "Jack Reacher", "genre_ids": [28, 80, 18, 53], "backdrop_path": "/ezXodpP429qK0Av89pVNlaXWJkQ.jpg", "adult": false, "overview": "When a gunman takes five lives with six shots, all evidence points to the suspect in custody. On interrogation, the suspect offers up a single note: \"Get Jack Reacher!\" So begins an extraordinary chase for the truth, pitting Jack Reacher against an unexpected enemy, with a skill for violence and a secret to keep.", "poster_path": "/mt0ELw83HIRgaKaDzhsDcIi0RnW.jpg", "popularity": 19.929}, {"id": 4638, "video": false, "vote_count": 4426, "vote_average": 7.5, "title": "Hot Fuzz", "release_date": "2007-02-14", "original_language": "en", "original_title": "Hot Fuzz", "genre_ids": [28, 35, 80], "backdrop_path": "/zuskekrfW3gj9ttXNVhfdHe5n22.jpg", "adult": false, "overview": "As a former London constable, Nicholas Angel finds it difficult to adapt to his new assignment in the sleepy British village of Sandford. Not only does he miss the excitement of the big city, but he also has a well-meaning oaf for a partner. However, when a series of grisly accidents rocks Sandford, Angel smells something rotten in the idyllic village.", "poster_path": "/5Jx6s6VXnunh8wCLgR0YgjwSgjh.jpg", "popularity": 25.234}, {"id": 1949, "video": false, "vote_count": 5158, "vote_average": 7.5, "title": "Zodiac", "release_date": "2007-03-02", "original_language": "en", "original_title": "Zodiac", "genre_ids": [80, 18, 9648, 53], "backdrop_path": "/jP2htGBHE7vKq4MLeC75UeC0sZH.jpg", "adult": false, "overview": "The true story of the investigation of the \"Zodiac Killer\", a serial killer who terrified the San Francisco Bay Area, taunting police with his ciphers and letters. The case becomes an obsession for three men as their lives and careers are built and destroyed by the endless trail of clues.", "poster_path": "/bgLyOROfFQI3FqYL7jQbiaV8lkN.jpg", "popularity": 21.354}, {"id": 483411, "video": false, "vote_count": 48, "vote_average": 6.4, "title": "Ladies in Black", "release_date": "2018-10-18", "original_language": "en", "original_title": "Ladies in Black", "genre_ids": [35, 18], "backdrop_path": "/gIkqcEqz0rj6rK1knYAOoXpwA3y.jpg", "adult": false, "overview": "Adapted from the bestselling novel by Madeleine St John, Ladies in Black is an alluring and tender-hearted comedy drama about the lives of a group of department store employees in 1959 Sydney.", "poster_path": "/sIC0Y0dGLnxbdCksftZ38FZ2c61.jpg", "popularity": 7.026}, {"id": 9762, "video": false, "vote_count": 2460, "vote_average": 6.8, "title": "Step Up", "release_date": "2006-08-11", "original_language": "en", "original_title": "Step Up", "genre_ids": [80, 18, 10402, 10749], "backdrop_path": "/sKD3PfyP1u4tcoVQkpiAZqnx4H8.jpg", "adult": false, "overview": "Everyone deserves a chance to follow their dreams, but some people only get one shot. Tyler Gage is a rebel from the wrong side of Baltimore's tracks and the only thing that stands between him and an unfulfilled life are his dreams of one day making it out of there. Nora is a privileged ballet dancer attending Baltimore's ultra-elite Maryland School of the Arts", "poster_path": "/gyLww7ZlcwuzqvIwM1osR9Ioqtm.jpg", "popularity": 20.427}, {"adult": false, "backdrop_path": "/3WgaU6OjTlvjOhbq5C0UmKYQGoW.jpg", "genre_ids": [18, 10749], "id": 26338, "original_language": "fr", "original_title": "Romance", "overview": "Although deeply in love with her boyfriend - and indeed sleeping in the same bed with him - a schoolteacher cannot handle the almost complete lack of intimacy he will allow. Increasingly frustrated, she gradually finds her sexual appetites leading her into ever more risky situations, including a developing one with the headmaster.", "poster_path": "/lcDSXXnZok1qyv4TQ14iZ8g8OHf.jpg", "release_date": "1999-04-13", "title": "Romance", "video": false, "vote_average": 5.3, "vote_count": 101, "popularity": 15.928}, {"adult": false, "backdrop_path": "/gZeJziVigmRqbkEZwKAtSqlLQ6s.jpg", "genre_ids": [18, 10749], "id": 370663, "original_language": "en", "original_title": "Below Her Mouth", "overview": "An unexpected affair quickly escalates into a heart-stopping reality for two women whose passionate connection changes their lives forever.", "poster_path": "/nTGbq37hYLuNy7YgMg0gVLma0NS.jpg", "release_date": "2016-09-10", "title": "Below Her Mouth", "video": false, "vote_average": 6.2, "vote_count": 456, "popularity": 22.676}, {"id": 193893, "video": false, "vote_count": 1813, "vote_average": 6.3, "title": "Let's Be Cops", "release_date": "2014-08-13", "original_language": "en", "original_title": "Let's Be Cops", "genre_ids": [35], "backdrop_path": "/43GrPpAeBUOvOCZ8L1A3MLuDnkc.jpg", "adult": false, "overview": "It's the ultimate buddy cop movie except for one thing: they're not cops.  When two struggling pals dress as police officers for a costume party, they become neighborhood sensations.  But when these newly-minted \u201cheroes\u201d get tangled in a real life web of mobsters and dirty detectives, they must put their fake badges on the line.", "poster_path": "/ayYibwWAA9NxJPaD9GSybPShtvL.jpg", "popularity": 20.729}, {"adult": false, "backdrop_path": "/lx9eC0e98ZrdU0y55LrydS8CMMp.jpg", "genre_ids": [28, 12, 80, 18, 9648, 53], "id": 9631, "original_language": "en", "original_title": "The Negotiator", "overview": "The police try to arrest expert hostage negotiator Danny Roman, who insists he's being framed for his partner's murder in what he believes is an elaborate conspiracy. Thinking there's evidence in the Internal Affairs offices that might clear him, he takes everyone in the office hostage and demands that another well-known negotiator be brought in to handle the situation and secretly investigate the conspiracy.", "poster_path": "/u4LQDr6QB5i7dz3sMuP8u3EOd3D.jpg", "release_date": "1998-07-29", "title": "The Negotiator", "video": false, "vote_average": 7.0, "vote_count": 1081, "popularity": 16.926}, {"adult": false, "backdrop_path": "/5UhVmv70qTfy7YSf8r87kNXWxjK.jpg", "genre_ids": [18, 53, 9648], "id": 638, "original_language": "en", "original_title": "Lost Highway", "overview": "A tormented jazz musician finds himself lost in an enigmatic story involving murder, surveillance, gangsters, doppelgangers, and an impossible transformation inside a prison cell.", "poster_path": "/z6yhgEzGUJaBBgAxoyggRzwLnVM.jpg", "release_date": "1997-01-15", "title": "Lost Highway", "video": false, "vote_average": 7.6, "vote_count": 1277, "popularity": 16.545}, {"adult": false, "backdrop_path": "/by0WtpJ5UNxOy6ytIfPPTasbRoB.jpg", "genre_ids": [28, 12, 35, 18, 10751, 10402, 10749], "id": 17130, "original_language": "en", "original_title": "Crossroads", "overview": "Three friends get together and bury a box making a pact to open it at midnight at their high school graduation. In the little town in Georgia that they live in, things soon change. One is little miss perfect, one is an engaged prom queen, and the other is a pregnant outcast. The night of graduation, they open the box and they strike up a conversation. All of a sudden, one brings up the topic of her going to Los Angeles for a record contract audition. They all decide to go together and they leave. With a little money, they set out on the road with a guy named Ben. When one of them tells the other a rumor that he might be a homicidal maniac they are all scared of him. When they reach LA, Lucy falls in love with Ben and against her father's wishes, she stays and she goes to the audition.", "poster_path": "/egIs4cWxn0iBErFKrQ7STckjj49.jpg", "release_date": "2002-02-15", "title": "Crossroads", "video": false, "vote_average": 5.0, "vote_count": 334, "popularity": 12.973}, {"adult": false, "backdrop_path": "/t4DO37tO3mhMX4DCdnI1EPsRi26.jpg", "genre_ids": [80, 18, 9648], "id": 3580, "original_language": "en", "original_title": "Changeling", "overview": "Christine Collins is overjoyed when her kidnapped son is brought back home. But when Christine suspects that the boy returned to her isn't her child, the police captain has her committed to an asylum.", "poster_path": "/qtte2n6ygA1zVG5kLrjUGui28TJ.jpg", "release_date": "2008-01-30", "title": "Changeling", "video": false, "vote_average": 7.5, "vote_count": 2321, "popularity": 16.435}, {"adult": false, "backdrop_path": "/6tern9vOEwwmkDYC1vRCuO64z0C.jpg", "genre_ids": [10749, 18], "id": 475888, "original_language": "en", "original_title": "Tell It to the Bees", "overview": "Dr. Jean Markham returns to the town she left as a teenager to take over her late father's medical practice. When a school-yard scuffle lands Charlie in her surgery, she invites him to visit the hives in her garden and tell his secrets to the bees, as she once did. The new friendship between the boy and the bee keeper brings his mother Lydia into Jean's world.", "poster_path": "/Rj6zpHhMU1zFW3v28U4PSRSRgP.jpg", "release_date": "2019-05-03", "title": "Tell It to the Bees", "video": false, "vote_average": 6.4, "vote_count": 53, "popularity": 15.113}], "total_pages": 1551, "total_results": 31016}, "recommendations": {"page": 1, "results": [{"adult": false, "backdrop_path": null, "genre_ids": [35], "id": 412344, "original_language": "en", "original_title": "Extraordinary Visitor", "overview": "As the new millennium approaches, God considers pulling the plug on the planet unless St. John the Baptist finds a reason to spare humanity. John travels to the Newfoundland city that bears his name where he becomes entangled in the lives of talk-show host Marietta, her husband Rick. (Toronto International Film Festival)", "poster_path": "/pPa74vZtQNssczy9Fc1WWnPA5oR.jpg", "release_date": "1998-09-02", "title": "Extraordinary Visitor", "video": false, "vote_average": 3.0, "vote_count": 3, "popularity": 1.827}, {"adult": false, "backdrop_path": "/rBx4cUch0PRIYDhCuf3T6vfMQtF.jpg", "genre_ids": [18], "id": 101802, "original_language": "nl", "original_title": "Zwarte zwanen", "overview": "Two passionate people, Marleen and Vince, embark on a scorching love affair. They are sucked down by the fierceness of their feelings and literally drown in them..", "poster_path": "/exQAlGWTNMU8LHh0V6xmRXhYsZk.jpg", "release_date": "2005-07-14", "title": "Black Swans", "video": false, "vote_average": 5.5, "vote_count": 3, "popularity": 1.806}, {"adult": false, "backdrop_path": "/ypId7Z8wvVFjpOOc43qBMieYI6n.jpg", "genre_ids": [53, 80], "id": 125332, "original_language": "en", "original_title": "Blindfold: Acts of Obsession", "overview": "A therapist turns an unhappy wife on to a deadly fantasy game with her husband.", "poster_path": "/x3SR7N2YOZ58eM8gIZqztAHdU2b.jpg", "release_date": "1994-05-20", "title": "Blindfold: Acts of Obsession", "video": false, "vote_average": 3.6, "vote_count": 4, "popularity": 3.919}, {"adult": false, "backdrop_path": "/8jYA3KpCGqnxrj2a7TbFlT9pBQa.jpg", "genre_ids": [18], "id": 47570, "original_language": "en", "original_title": "Maid in Sweden", "overview": "Maid in Sweden tells the story of Inga, a 16-year-old Swedish girl who leaves her rural home to spend a weekend in the Swedish capital. An innocent with no experience, but with prodigious physical attributes, she has a series of romantic adventures as she throws off the frustrations of her small-town environment.", "poster_path": "/c6pbcBXxvyg2qHI8QzuI4CKevAh.jpg", "release_date": "1971-11-03", "title": "Maid in Sweden", "video": false, "vote_average": 4.2, "vote_count": 9, "popularity": 5.125}, {"adult": false, "backdrop_path": null, "genre_ids": [99], "id": 207772, "original_language": "en", "original_title": "The Fourth Dimension", "overview": "THE FOURTH DIMENSION is an elegant meditation on time, travel, and ceremony in the form of a journey. In her first foray into digital video, Minh-ha deconstructs the role of ritual in mediating between the past and the present. She explains, \"Shown in their widespread functions and manifestations, including more evident loci such as festivals, religious rite and theatrical performance, 'rituals' involve not only the regularity in the structure of everyday life, but also the dynamic agents in the world of meaning.\" With its lush imagery, Minh-ha's Japan is viewed through mobile frames, with doors and windows sliding shut, revealing new vistas as it blocks out the old light.", "poster_path": "/ePFaRg2jK2gS0bXygVlpCM0BZQn.jpg", "release_date": "2001-04-18", "title": "The Fourth Dimension", "video": false, "vote_average": 7.3, "vote_count": 4, "popularity": 2.351}, {"adult": false, "backdrop_path": "/q4Vl3CxGDdEkQ9hlevWSb5H0ACM.jpg", "genre_ids": [18], "id": 82969, "original_language": "fr", "original_title": "Don Juan ou si Don Juan \u00e9tait une femme...", "overview": "Jeanne lives in Paris and believes she is the reincarnation of Don Juan. She visits a priest and tells him she has killed a man. He comes to her elegant flat - her father has died leaving her rich - and she tells the priest stories about men she has seduced. The seduction is easy, she tells him, it's destruction that takes planning. We watch her with an upright elected official, a wealthy boor, and a folk singer. She describes herself as a spider. Her friend L\u00e9porella tries to be Jeanne's conscience. What does Jeanne want?", "poster_path": "/kCTfIeBsHxwZxEcNBBWD1fkpf5V.jpg", "release_date": "1973-02-22", "title": "Don Juan or If Don Juan Were a Woman", "video": false, "vote_average": 4.1, "vote_count": 11, "popularity": 4.185}, {"adult": false, "backdrop_path": "/mMvzBcNwQhj3ewD0m1N2wytf1e3.jpg", "genre_ids": [80, 18], "id": 60971, "original_language": "ja", "original_title": "\u6697\u9ed2\u8857\u306e\u7f8e\u5973", "overview": "The moment he's released from prison, the honorable gangster Miyamoto recovers the stolen diamonds he had stashed before getting pinched. When he returns to his haunt to make good by friend who took a bullet for him, he is diverted by the greedy boss Oyane and his insatiable taste for Miyamoto's precious stones. Replete with film noir style, \"Underworld Beauty\" is one of Suzuki's best nods to the American gangster genre.", "poster_path": "/eLzaxQ0wPCiYbVOGazPHmJiyF1S.jpg", "release_date": "1958-03-25", "title": "Underworld Beauty", "video": false, "vote_average": 5.3, "vote_count": 8, "popularity": 2.637}, {"adult": false, "backdrop_path": "/hePiHUDTAzOyxKh0scQJlDq6HOP.jpg", "genre_ids": [99], "id": 102873, "original_language": "es", "original_title": "\u00a1Vivan las Antipodas!", "overview": "What would be the shortest route between Entre Rios in Argentina and the Chinese metropolis Shanghai? Simply a straight line through the center of the earth, since the two places are antipodes: they are located diametrically opposite to each other on the earth's surface. During his visits to four such antipodal pairs, the award-winning documentary filmmaker Victor Kossakovsky captured images that turn our view of the world upside down.", "poster_path": "/wDsY5hNG9kxzmdj4D8rvNUoWLKU.jpg", "release_date": "2011-11-05", "title": "\u00a1Vivan las Antipodas!", "video": false, "vote_average": 7.2, "vote_count": 5, "popularity": 1.005}], "total_pages": 1, "total_results": 8}, "credits": {"cast": [{"cast_id": 2, "character": "B.G.", "credit_id": "52fe46ebc3a36847f8119d47", "gender": 1, "id": 9827, "name": "Rose Byrne", "order": 0, "profile_path": "/4oQWCLK7gd6RNKF0WJipJo7TyFP.jpg"}, {"cast_id": 23, "character": "J.M.", "credit_id": "55e54b7b92514137970014a3", "gender": 0, "id": 127307, "name": "Rikiya", "order": 1, "profile_path": "/9eBlqOkVyCXnmmeQcRe2jMpI3nm.jpg"}, {"cast_id": 4, "character": "Grandpa", "credit_id": "52fe46ebc3a36847f8119d4f", "gender": 2, "id": 81172, "name": "Nicholas Hope", "order": 2, "profile_path": "/e72ckwUVjtyxVeUqlkFTYfGIday.jpg"}, {"cast_id": 14, "character": "Marie", "credit_id": "52fe46ebc3a36847f8119d89", "gender": 0, "id": 186899, "name": "Elise McCredie", "order": 3, "profile_path": "/rlT88bngwL1YIqzPBujXazakmd9.jpg"}, {"cast_id": 15, "character": "Drummer Boy", "credit_id": "52fe46ebc3a36847f8119d8d", "gender": 0, "id": 543339, "name": "Tim Richards", "order": 4, "profile_path": "/49IaK8NtCstiTQHoFuI0JxtjzbR.jpg"}, {"cast_id": 16, "character": "B.G. aged 9", "credit_id": "52fe46ebc3a36847f8119d91", "gender": 0, "id": 1129426, "name": "Bree Beadman", "order": 5, "profile_path": null}, {"cast_id": 17, "character": "Marie aged 9", "credit_id": "52fe46ebc3a36847f8119d95", "gender": 0, "id": 1121516, "name": "Satya Gumbert", "order": 6, "profile_path": null}, {"cast_id": 18, "character": "Esther", "credit_id": "52fe46ebc3a36847f8119d99", "gender": 1, "id": 152485, "name": "Tina Bursill", "order": 7, "profile_path": "/4CkMvxXPNhmuOazoFeJv6G3Hiaw.jpg"}, {"cast_id": 19, "character": "Mr. Hughes", "credit_id": "52fe46ebc3a36847f8119d9d", "gender": 0, "id": 1129427, "name": "Dominic Condon", "order": 8, "profile_path": null}, {"cast_id": 20, "character": "Detective", "credit_id": "52fe46ebc3a36847f8119da1", "gender": 0, "id": 1129428, "name": "Tim McGarry", "order": 9, "profile_path": null}, {"cast_id": 21, "character": "Barman", "credit_id": "52fe46ebc3a36847f8119da5", "gender": 2, "id": 1075445, "name": "John Boxer", "order": 10, "profile_path": "/7i914AsImDLfYAUxQG1kqX2AnhE.jpg"}, {"cast_id": 22, "character": "Old Man in Bar", "credit_id": "52fe46ebc3a36847f8119da9", "gender": 2, "id": 110411, "name": "Harry Lawrence", "order": 11, "profile_path": "/73cUjTwh7q8TGqbCX9reMQsdmDm.jpg"}], "crew": [{"credit_id": "58059d9992514170b40061e8", "department": "Camera", "gender": 2, "id": 647, "job": "Director of Photography", "name": "Dion Beebe", "profile_path": "/q24Jkyu8VclqhdYhPpti7fXoSkS.jpg"}, {"credit_id": "52fe46ebc3a36847f8119d61", "department": "Production", "gender": 2, "id": 45769, "job": "Executive Producer", "name": "Wouter Barendrecht", "profile_path": null}, {"credit_id": "52fe46ebc3a36847f8119d85", "department": "Production", "gender": 2, "id": 45770, "job": "Executive Producer", "name": "Michael J. Werner", "profile_path": null}, {"credit_id": "58059dabc3a3681da8006aa2", "department": "Editing", "gender": 1, "id": 63990, "job": "Editor", "name": "Kate Williams", "profile_path": null}, {"credit_id": "58059dbf92514170ba00680f", "department": "Art", "gender": 0, "id": 62744, "job": "Production Design", "name": "Nicholas McCallum", "profile_path": null}, {"credit_id": "58059dc6c3a3681db00059af", "department": "Costume & Make-Up", "gender": 1, "id": 75732, "job": "Costume Design", "name": "Annie Marshall", "profile_path": null}, {"credit_id": "58059db892514170b700693f", "department": "Production", "gender": 0, "id": 76085, "job": "Casting", "name": "Anousha Zarkesh", "profile_path": null}, {"credit_id": "52fe46ebc3a36847f8119d43", "department": "Directing", "gender": 1, "id": 96449, "job": "Director", "name": "Clara Law", "profile_path": "/xghCiuv0zf6Tm2IjOkfzOVHK2YD.jpg"}, {"credit_id": "52fe46ebc3a36847f8119d55", "department": "Writing", "gender": 1, "id": 96449, "job": "Writer", "name": "Clara Law", "profile_path": "/xghCiuv0zf6Tm2IjOkfzOVHK2YD.jpg"}, {"credit_id": "52fe46ebc3a36847f8119d67", "department": "Production", "gender": 2, "id": 554834, "job": "Producer", "name": "Eddie Fong", "profile_path": null}, {"credit_id": "52fe46ebc3a36847f8119d5b", "department": "Writing", "gender": 2, "id": 554834, "job": "Writer", "name": "Eddie Fong", "profile_path": null}, {"credit_id": "52fe46ebc3a36847f8119d6d", "department": "Production", "gender": 0, "id": 976707, "job": "Executive Producer", "name": "Akiko Funatsu", "profile_path": null}, {"credit_id": "58059db2c3a3681db000599d", "department": "Production", "gender": 1, "id": 1095403, "job": "Casting", "name": "Y\u014dko Narahashi", "profile_path": null}, {"credit_id": "52fe46ebc3a36847f8119d73", "department": "Production", "gender": 0, "id": 1129423, "job": "Line Producer", "name": "Dennis Kiely", "profile_path": null}, {"credit_id": "52fe46ebc3a36847f8119d79", "department": "Production", "gender": 0, "id": 1129424, "job": "Executive Producer", "name": "Helen Loveridge", "profile_path": null}, {"credit_id": "52fe46ebc3a36847f8119d7f", "department": "Production", "gender": 0, "id": 1129425, "job": "Executive Producer", "name": "Peter Sainsbury", "profile_path": null}, {"credit_id": "58059dcd92514170b4006201", "department": "Costume & Make-Up", "gender": 0, "id": 1537935, "job": "Costume Design", "name": "Helen Mather", "profile_path": null}, {"credit_id": "58059d9192514170a50064c3", "department": "Sound", "gender": 0, "id": 1696158, "job": "Original Music Composer", "name": "Jen Anderson", "profile_path": null}]}}