{"adult": false, "backdrop_path": "/gB3FAvo6n1qsXJFtK0mHB1C0mwC.jpg", "belongs_to_collection": null, "budget": 0, "genres": [{"id": 878, "name": "Science Fiction"}], "homepage": null, "id": 462493, "imdb_id": "tt1648035", "original_language": "en", "original_title": "Chronological Order", "overview": "A guy without many everyday worries finds a door floating in the ocean and soon suspects he is being followed. He discovers that it is himself that is following him and that the door allows him to travel back in time. He sets about trying to improve his life by changing his past; leaving himself notes all while trying to track down and correct the corrections his future self keeps trying to make.", "popularity": 0.873, "poster_path": "/mMDLdXHByOKmKdOxXINXlLgQOSc.jpg", "production_companies": [], "production_countries": [], "release_date": "2010-01-01", "revenue": 0, "runtime": 95, "spoken_languages": [{"iso_639_1": "en", "name": "English"}], "status": "Released", "tagline": "", "title": "Chronological Order", "video": false, "vote_average": 7.0, "vote_count": 1, "keywords": {"keywords": [{"id": 4379, "name": "time travel"}]}, "similar": {"page": 1, "results": [{"id": 206487, "video": false, "vote_count": 3723, "vote_average": 7.4, "title": "Predestination", "release_date": "2014-08-28", "original_language": "en", "original_title": "Predestination", "genre_ids": [878, 53], "backdrop_path": "/1G44M3SNVcVBZer0I5ogQBUnVCz.jpg", "adult": false, "overview": "Predestination chronicles the life of a Temporal Agent sent on an intricate series of time-travel journeys designed to prevent future killers from committing their crimes. Now, on his final assignment, the Agent must stop the one criminal that has eluded him throughout time and prevent a devastating attack in which thousands of lives will be lost.", "poster_path": "/kDdUtDsGMQ3OYwoBtEQyJIGPz4V.jpg", "popularity": 23.037}, {"id": 299534, "video": false, "vote_count": 10932, "vote_average": 8.3, "title": "Avengers: Endgame", "release_date": "2019-04-24", "original_language": "en", "original_title": "Avengers: Endgame", "genre_ids": [28, 12, 878], "backdrop_path": "/7RyHsO4yDXtBv1zUU3mTpHeQ0d5.jpg", "adult": false, "overview": "After the devastating events of Avengers: Infinity War, the universe is in ruins due to the efforts of the Mad Titan, Thanos. With the help of remaining allies, the Avengers must assemble once more in order to undo Thanos' actions and restore order to the universe once and for all, no matter what consequences may be in store.", "poster_path": "/or06FN3Dka5tukK1e9sl16pB3iy.jpg", "popularity": 54.02}, {"id": 23048, "video": false, "vote_count": 1526, "vote_average": 6.0, "title": "Hot Tub Time Machine", "release_date": "2010-03-26", "original_language": "en", "original_title": "Hot Tub Time Machine", "genre_ids": [12, 35, 878], "backdrop_path": "/i4xX5YUHUfNvlHt65DPDXQgJT7m.jpg", "adult": false, "overview": "A malfunctioning time machine at a ski resort takes a man back to 1986 with his two friends and nephew, where they must relive a fateful night and not change anything to make sure the nephew is born.", "poster_path": "/zERxFAXiQdPAfsumIIcBFH8fOVt.jpg", "popularity": 14.98}, {"adult": false, "backdrop_path": "/hpIUiHIyNKWsid3Tz4adtYsUqo1.jpg", "genre_ids": [16, 12, 10751], "id": 82703, "original_language": "en", "original_title": "Mr. Peabody & Sherman", "overview": "A young boy and his dog, who happens to have a genius-level IQ, spring into action when their time-machine is stolen and moments in history begin to be changed.", "poster_path": "/q4FQXK4a4HSb4pajZL4ZFKHVsjC.jpg", "release_date": "2014-02-07", "title": "Mr. Peabody & Sherman", "video": false, "vote_average": 6.6, "vote_count": 1490, "popularity": 18.443}, {"id": 41154, "video": false, "vote_count": 7035, "vote_average": 6.4, "title": "Men in Black 3", "release_date": "2012-05-23", "original_language": "en", "original_title": "Men in Black 3", "genre_ids": [28, 35, 878], "backdrop_path": "/mhokitPCejvcZb0r3SHURZDp7OO.jpg", "adult": false, "overview": "Agents J and K are back...in time. J has seen some inexplicable things in his 15 years with the Men in Black, but nothing, not even aliens, perplexes him as much as his wry, reticent partner. But when K's life and the fate of the planet are put at stake, Agent J will have to travel back in time to put things right. J discovers that there are secrets to the universe that K never told him - secrets that will reveal themselves as he teams up with the young Agent K to save his partner, the agency, and the future of humankind.", "poster_path": "/l9hrvXyGq19f6jPRZhSVRibTMwW.jpg", "popularity": 27.147}, {"adult": false, "backdrop_path": "/jxWA2lDLidicmmDymnxlz53zAb9.jpg", "genre_ids": [16, 35, 10751], "id": 1267, "original_language": "en", "original_title": "Meet the Robinsons", "overview": "In this animated adventure, brilliant preteen inventor Lewis creates a memory scanner to retrieve his earliest recollections and find out why his mother gave him up for adoption. But when the villainous Bowler Hat Guy steals the machine, Lewis is ready to give up on his quest until the mysterious Wilbur Robinson shows up on the scene, whisking Lewis to the future to find the scanner and his mom.", "poster_path": "/oe7w9SxGmpSW1dlz5QaVVKWBEVz.jpg", "release_date": "2007-03-23", "title": "Meet the Robinsons", "video": false, "vote_average": 6.8, "vote_count": 1665, "popularity": 21.108}, {"adult": false, "backdrop_path": "/dG7Booc7C2HoVmAZjqAzp2NcTGd.jpg", "genre_ids": [878, 18, 53], "id": 14337, "original_language": "en", "original_title": "Primer", "overview": "Friends and fledgling entrepreneurs invent a device in their garage which reduces the apparent mass of any object placed inside it, but they discover that it has some highly unexpected capabilities - ones that could enable them to do and to have seemingly anything they want. Taking advantage of this unique opportunity is the first challenge they face. Dealing with the consequences is the next.", "poster_path": "/pYiAYDn3ltw9Fq7izODuq7oWYwX.jpg", "release_date": "2004-10-08", "title": "Primer", "video": false, "vote_average": 6.9, "vote_count": 1202, "popularity": 13.087}, {"adult": false, "backdrop_path": "/EVaEyQvzu13g6FPnzb4IlbbrGM.jpg", "genre_ids": [53, 12, 14, 878, 10749], "id": 2134, "original_language": "en", "original_title": "The Time Machine", "overview": "A Victorian Englishman travels to the far future and finds that humanity has divided into two hostile species.", "poster_path": "/cjmluKjmaqLfZmwMEwjki6tvLnS.jpg", "release_date": "1960-05-25", "title": "The Time Machine", "video": false, "vote_average": 7.4, "vote_count": 399, "popularity": 12.837}, {"id": 816, "video": false, "vote_count": 1942, "vote_average": 6.5, "title": "Austin Powers: International Man of Mystery", "release_date": "1997-05-02", "original_language": "en", "original_title": "Austin Powers: International Man of Mystery", "genre_ids": [35, 80, 878], "backdrop_path": "/5agnZ7U1ZITxdvc7QnpvOE3vPzt.jpg", "adult": false, "overview": "As a swingin' fashion photographer by day and a groovy British superagent by night, Austin Powers is the '60s' most shagadelic spy, baby! But can he stop megalomaniac Dr. Evil after the bald villain freezes himself and unthaws in the '90s? With the help of sexy sidekick Vanessa Kensington, he just might.", "poster_path": "/qSvfLwdDBLjZaPwA7qdn0yYePq5.jpg", "popularity": 17.223}, {"id": 105, "video": false, "vote_count": 12168, "vote_average": 8.2, "title": "Back to the Future", "release_date": "1985-07-03", "original_language": "en", "original_title": "Back to the Future", "genre_ids": [12, 35, 878, 10751], "backdrop_path": "/x4N74cycZvKu5k3KDERJay4ajR3.jpg", "adult": false, "overview": "Eighties teenager Marty McFly is accidentally sent back in time to 1955, inadvertently disrupting his parents' first meeting and attracting his mother's romantic interest. Marty must repair the damage to history by rekindling his parents' romance and - with the help of his eccentric inventor friend Doc Brown - return to 1985.", "poster_path": "/pTpxQB1N0waaSc3OSn0e9oc8kx9.jpg", "popularity": 29.77}, {"id": 13475, "video": false, "vote_count": 6839, "vote_average": 7.4, "title": "Star Trek", "release_date": "2009-05-06", "original_language": "en", "original_title": "Star Trek", "genre_ids": [28, 12, 878], "backdrop_path": "/1XOSh6BFZbQ0xN75m4avqgzClyG.jpg", "adult": false, "overview": "The fate of the galaxy rests in the hands of bitter rivals. One, James Kirk, is a delinquent, thrill-seeking Iowa farm boy. The other, Spock, a Vulcan, was raised in a logic-based society that rejects all emotion. As fiery instinct clashes with calm reason, their unlikely but powerful partnership is the only thing capable of leading their crew through unimaginable danger, boldly going where no one has gone before. The human adventure has begun again.", "poster_path": "/xPihqTMhCh6b8DHYzE61jrIiNMS.jpg", "popularity": 25.759}, {"id": 196, "video": false, "vote_count": 6115, "vote_average": 7.4, "title": "Back to the Future Part III", "release_date": "1990-05-25", "original_language": "en", "original_title": "Back to the Future Part III", "genre_ids": [12, 35, 878], "backdrop_path": "/pP2a4MBQbIeZMbErBWMjxTT5Npb.jpg", "adult": false, "overview": "The final installment of the Back to the Future trilogy finds Marty digging the trusty DeLorean out of a mineshaft and looking for Doc in the Wild West of 1885. But when their time machine breaks down, the travelers are stranded in a land of spurs. More problems arise when Doc falls for pretty schoolteacher Clara Clayton, and Marty tangles with Buford Tannen.", "poster_path": "/6DmgPTZYaug7QNDjOhUDWyjOQDl.jpg", "popularity": 17.871}, {"id": 165, "video": false, "vote_count": 7689, "vote_average": 7.7, "title": "Back to the Future Part II", "release_date": "1989-11-22", "original_language": "en", "original_title": "Back to the Future Part II", "genre_ids": [12, 35, 878, 10751], "backdrop_path": "/snLFUFzWUZCdYkAbhZlaGJxiY3I.jpg", "adult": false, "overview": "Marty and Doc are at it again in this wacky sequel to the 1985 blockbuster as the time-traveling duo head to 2015 to nip some McFly family woes in the bud. But things go awry thanks to bully Biff Tannen and a pesky sports almanac. In a last-ditch attempt to set things straight, Marty finds himself bound for 1955 and face to face with his teenage parents -- again.", "poster_path": "/k5dzvCQkXU2CAhLtlj9BHE7xmyK.jpg", "popularity": 18.286}, {"adult": false, "backdrop_path": "/AqocxdL9luA7ALU0gGSHDzDy254.jpg", "genre_ids": [14, 16, 18, 878], "id": 14069, "original_language": "ja", "original_title": "\u6642\u3092\u304b\u3051\u308b\u5c11\u5973", "overview": "When 17-year-old Makoto Konno gains the ability to, quite literally, \"leap\" backwards through time, she immediately sets about improving her grades and preventing personal mishaps. However, she soon realises that changing the past isn't as simple as it seems, and eventually, will have to rely on her new powers to shape the future of herself and her friends.", "poster_path": "/7oNeWrsaiMGxCrvkWjQ56y6JN85.jpg", "release_date": "2006-07-15", "title": "The Girl Who Leapt Through Time", "video": false, "vote_average": 7.8, "vote_count": 1043, "popularity": 22.298}, {"id": 87101, "video": false, "vote_count": 5757, "vote_average": 5.9, "title": "Terminator Genisys", "release_date": "2015-06-23", "original_language": "en", "original_title": "Terminator Genisys", "genre_ids": [28, 12, 878, 53], "backdrop_path": "/3DmxSJ08m9wwbxwbwHzA4dunGNO.jpg", "adult": false, "overview": "The year is 2029. John Connor, leader of the resistance continues the war against the machines. At the Los Angeles offensive, John's fears of the unknown future begin to emerge when TECOM spies reveal a new plot by SkyNet that will attack him from both fronts; past and future, and will ultimately change warfare forever.", "poster_path": "/5JU9ytZJyR3zmClGmVm9q4Geqbd.jpg", "popularity": 60.439}, {"adult": false, "backdrop_path": "/u4s4b3xRz5gOHwzO2KneDqIl7Bf.jpg", "genre_ids": [878, 12, 18, 28], "id": 871, "original_language": "en", "original_title": "Planet of the Apes", "overview": "An  U.S. Spaceship lands on a desolate planet, stranding astronaut Taylor in a world dominated by apes, 2000 years into the future, who use a primitive race of humans for experimentation and sport. Soon Taylor finds himself among the hunted, his life in the hands of a benevolent chimpanzee scientist.", "poster_path": "/fiWii3OCJhoSld3U3tUUr1AB6d7.jpg", "release_date": "1968-02-07", "title": "Planet of the Apes", "video": false, "vote_average": 7.6, "vote_count": 1809, "popularity": 20.754}, {"id": 63, "video": false, "vote_count": 4797, "vote_average": 7.6, "title": "Twelve Monkeys", "release_date": "1995-12-29", "original_language": "en", "original_title": "Twelve Monkeys", "genre_ids": [9648, 878, 53], "backdrop_path": "/6KXbhaxkgExC5EdDqAzRinhmoZ8.jpg", "adult": false, "overview": "In the year 2035, convict James Cole reluctantly volunteers to be sent back in time to discover the origin of a deadly virus that wiped out nearly all of the earth's population and forced the survivors into underground communities. But when Cole is mistakenly sent to 1990 instead of 1996, he's arrested and locked up in a mental hospital. There he meets psychiatrist Dr. Kathryn Railly, and patient Jeffrey Goines, the son of a famous virus expert, who may hold the key to the mysterious rogue group, the Army of the 12 Monkeys, thought to be responsible for unleashing the killer disease.", "poster_path": "/6Sj9wDu3YugthXsU0Vry5XFAZGg.jpg", "popularity": 25.437}, {"id": 1954, "video": false, "vote_count": 4283, "vote_average": 7.5, "title": "The Butterfly Effect", "release_date": "2004-01-22", "original_language": "en", "original_title": "The Butterfly Effect", "genre_ids": [878, 53], "backdrop_path": "/zXTUrm0BIrrZn3nEhybg0hlY275.jpg", "adult": false, "overview": "A young man struggles to access sublimated childhood memories. He finds a technique that allows him to travel back into the past, to occupy his childhood body and change history. However, he soon finds that every change he makes has unexpected consequences.", "poster_path": "/3PAQy3CyNNJPES772OFMx47lFEE.jpg", "popularity": 21.422}, {"id": 16258, "video": false, "vote_count": 295, "vote_average": 5.3, "title": "The Butterfly Effect 3: Revelations", "release_date": "2009-01-09", "original_language": "en", "original_title": "The Butterfly Effect 3: Revelations", "genre_ids": [80, 18, 878, 53], "backdrop_path": "/2jgbKSkUYr2qero54MUiD8lXwD3.jpg", "adult": false, "overview": "The story revolves around a man trying to uncover the mysterious death of his girlfriend and save an innocent man from the death chamber in the process, by using his unique power to time travel. However in attempting to do this, he also frees a spiteful serial-killer.", "poster_path": "/9LJfls07lQYeYctlbowaSgR4Rue.jpg", "popularity": 12.496}, {"id": 59967, "video": false, "vote_count": 7205, "vote_average": 6.8, "title": "Looper", "release_date": "2012-09-26", "original_language": "en", "original_title": "Looper", "genre_ids": [28, 878, 53], "backdrop_path": "/vuHG8VlYnvw4gUKtS7GY5kZol69.jpg", "adult": false, "overview": "In the futuristic action thriller Looper, time travel will be invented but it will be illegal and only available on the black market. When the mob wants to get rid of someone, they will send their target 30 years into the past where a looper, a hired gun, like Joe is waiting to mop up. Joe is getting rich and life is good until the day the mob decides to close the loop, sending back Joe's future self for assassination.", "poster_path": "/sNjL6SqErDBE8OUZlrDLkexfsCj.jpg", "popularity": 24.08}], "total_pages": 32, "total_results": 621}, "recommendations": {"page": 1, "results": [], "total_pages": 1, "total_results": 0}, "credits": {"cast": [{"cast_id": 0, "character": "Guy", "credit_id": "59ca7cd5c3a36803ba00d93e", "gender": 2, "id": 558933, "name": "Brett Jacobsen", "order": 1, "profile_path": "/1BU0nesSGSKzPL8KnjMVXFDXl4W.jpg"}, {"cast_id": 1, "character": "Murray", "credit_id": "59ca7ce7925141240100ce6d", "gender": 2, "id": 1648954, "name": "Vic Stagliano", "order": 2, "profile_path": null}, {"cast_id": 2, "character": "Walt", "credit_id": "59ca7d1d92514123b900d21f", "gender": 0, "id": 1895087, "name": "Rick Seguso", "order": 3, "profile_path": null}, {"cast_id": 3, "character": "Woman", "credit_id": "59ca7d45925141240a00cdb6", "gender": 0, "id": 1093495, "name": "Stephanie Pitts", "order": 4, "profile_path": null}, {"cast_id": 4, "character": "Librarian", "credit_id": "59ca7d59925141240100cec0", "gender": 0, "id": 1895088, "name": "Rhonda Stearns", "order": 5, "profile_path": null}, {"cast_id": 5, "character": "Doctor", "credit_id": "59ca7d6cc3a36803a400d7e4", "gender": 0, "id": 1895089, "name": "Mary Thixton", "order": 6, "profile_path": null}, {"cast_id": 6, "character": "Lobby Attendant", "credit_id": "59ca7d8492514123b900d264", "gender": 0, "id": 1895090, "name": "Mary Alice Stewart", "order": 7, "profile_path": null}, {"cast_id": 7, "character": "Murray's Receptionist", "credit_id": "59ca7da192514123c100dc76", "gender": 0, "id": 1895091, "name": "Jennifer Lieber", "order": 8, "profile_path": null}, {"cast_id": 8, "character": "Music Store Clerk", "credit_id": "59ca7dddc3a36803a400d833", "gender": 0, "id": 1596916, "name": "Robert Gordon Spencer", "order": 9, "profile_path": null}, {"cast_id": 9, "character": "Hardware Store Clerk", "credit_id": "59ca7df2c3a368036a00c0d2", "gender": 2, "id": 1628378, "name": "Gregg Goldsbury", "order": 10, "profile_path": null}, {"cast_id": 10, "character": "Murray's Date", "credit_id": "59ca7e09925141240100cf48", "gender": 0, "id": 1895092, "name": "Margaret Luce", "order": 11, "profile_path": null}], "crew": [{"credit_id": "59ca7ed1925141240a00cebd", "department": "Editing", "gender": 0, "id": 1324440, "job": "Editor", "name": "Greg Jocoy", "profile_path": null}, {"credit_id": "59ca7e73c3a368034700d84d", "department": "Production", "gender": 0, "id": 1895093, "job": "Producer", "name": "Michael Seminerio", "profile_path": null}, {"credit_id": "59ca7ea492514123bd00e16e", "department": "Writing", "gender": 0, "id": 1895093, "job": "Co-Writer", "name": "Michael Seminerio", "profile_path": null}, {"credit_id": "59ca7e88c3a368034700d868", "department": "Directing", "gender": 0, "id": 1895094, "job": "Director", "name": "Cris Silvent", "profile_path": null}, {"credit_id": "59ca7e94c3a36803c700c22a", "department": "Writing", "gender": 0, "id": 1895094, "job": "Co-Writer", "name": "Cris Silvent", "profile_path": null}, {"credit_id": "59ca7ec392514123c100dd57", "department": "Camera", "gender": 0, "id": 1895099, "job": "Director of Photography", "name": "Jon Provan", "profile_path": null}]}}