{"adult": false, "backdrop_path": "/4AOkrkImmld8eNamfnrfgwnsRBm.jpg", "belongs_to_collection": null, "budget": 0, "genres": [{"id": 53, "name": "Thriller"}, {"id": 18, "name": "Drama"}, {"id": 10749, "name": "Romance"}], "homepage": null, "id": 46338, "imdb_id": "tt0116845", "original_language": "en", "original_title": "The Leading Man", "overview": "Successful playwright Felix Webb has a new play, 'The Hit Man', in rehearsal. Directed by his old friend Humphrey, it is already being hailed as a masterpiece; but Felix can't enjoy his success. He has fallen passionately in love with Hilary, a beautiful, fiesty young actress, and is preparing to desert his perfect family, his wife Elena and three lively children. His intolerable situation is further complicated when Humphrey casts Hilary as one of the leads in 'The Hit Man'. Enter Robin Grange, a charismatic young Hollywood actor making his London theatre debut. Robin is attractive, charming and dangerous, and soon inveigles his way into everyone's life. He ingratiates himself with the cast and, quickly grasping Felix's dilemma, sets about weaving his web of mischief. He suggests that if he were to seduce Elena, she would be distracted from Felix's affair, regain her self respect, and perhaps even willingly part from the unfaithful husband to whom she clings...", "popularity": 4.032, "poster_path": "/tDxzkVbUubjXBmgujYwAVvX3Vuf.jpg", "production_companies": [{"id": 12474, "logo_path": null, "name": "J&M Entertainment", "origin_country": ""}, {"id": 38567, "logo_path": null, "name": "BMG Independents", "origin_country": ""}], "production_countries": [{"iso_3166_1": "GB", "name": "United Kingdom"}], "release_date": "1996-12-12", "revenue": 0, "runtime": 100, "spoken_languages": [{"iso_639_1": "en", "name": "English"}], "status": "Released", "tagline": "Indecent. Immoral. Irresistible. It's the role he was born to play.", "title": "The Leading Man", "video": false, "vote_average": 5.0, "vote_count": 6, "keywords": {"keywords": [{"id": 3182, "name": "seduction"}, {"id": 11513, "name": "cheating husband"}, {"id": 33557, "name": "rehearsal"}]}, "similar": {"page": 1, "results": [{"adult": false, "backdrop_path": "/98ahnrena4PwLth7HFYGLf9yssH.jpg", "genre_ids": [35, 18, 10749], "id": 22705, "original_language": "it", "original_title": "Tra(sgre)dire", "overview": "While scouting out apartments in London for her Venetian boyfriend, Carla rents an apartment that overlooks the Thames. There she meet the lesbian hyper-horny real estate agent Moira.", "poster_path": "/kZITrLEiTfzzJhtwtXhQUl3ImCQ.jpg", "release_date": "2000-01-28", "title": "Cheeky", "video": false, "vote_average": 5.7, "vote_count": 92, "popularity": 32.727}, {"id": 263472, "video": false, "vote_count": 1668, "vote_average": 5.0, "title": "Knock Knock", "release_date": "2015-06-26", "original_language": "en", "original_title": "Knock Knock", "genre_ids": [18, 53], "backdrop_path": "/gJduaRau3X2oE3xkmjs1FufT2GE.jpg", "adult": false, "overview": "When a devoted husband and father is left home alone for the weekend, two stranded young women unexpectedly knock on his door for help. What starts out as a kind gesture results in a dangerous seduction and a deadly game of cat and mouse.", "poster_path": "/eynMtjBB1fXsB5vsQylVmsDLmvw.jpg", "popularity": 21.643}, {"id": 26877, "video": false, "vote_count": 19, "vote_average": 5.7, "title": "Naked Killer", "release_date": "1992-12-03", "original_language": "cn", "original_title": "\u8d64\u88f8\u7f94\u7f8a", "genre_ids": [28, 80, 10749], "backdrop_path": "/44nIaOvDWJ04EGFEMGrU1gO3im7.jpg", "adult": false, "overview": "A young woman is trained by a martial arts specialist to become a professional assassin.", "poster_path": "/8np5dem32PewfRtZDtJSyBaCx6l.jpg", "popularity": 11.303}, {"id": 796, "video": false, "vote_count": 1735, "vote_average": 6.6, "title": "Cruel Intentions", "release_date": "1999-03-05", "original_language": "en", "original_title": "Cruel Intentions", "genre_ids": [18, 10749], "backdrop_path": "/74OOkCoNbMb5bDg1AVXQxmGUTex.jpg", "adult": false, "overview": "Slaking a thirst for dangerous games, Kathryn challenges her stepbrother, Sebastian, to deflower their headmaster's daughter before the summer ends. If he succeeds, the prize is the chance to bed Kathryn. But if he loses, Kathryn will claim his most prized possession.", "poster_path": "/6RQu0J2u7viDa34Nn98sKaHv5jD.jpg", "popularity": 14.353}, {"id": 19918, "video": false, "vote_count": 511, "vote_average": 5.3, "title": "Spread", "release_date": "2009-01-16", "original_language": "en", "original_title": "Spread", "genre_ids": [35, 10749], "backdrop_path": "/aKRusBBnH93GVsBObNsLhY14gNN.jpg", "adult": false, "overview": "In Los Angeles, Nikki is homeless, car-less and closing in on 30, but he's amoral, good-looking, and adept in the sack, moving from one wealthy woman of 35 or 40 to another, a kept boy-toy. His newest gig, with Samantha, an attorney whose house overlooks L.A., is sweet, although it's unclear how long she'll put up with him. Then Nikki meets Heather, a waitress. Is the player being played, or might this be love? What will Nikki discover?", "poster_path": "/3MWQaxib5wUXLVaD2tjvpK3zNpD.jpg", "popularity": 14.791}, {"id": 14174, "video": false, "vote_count": 124, "vote_average": 5.4, "title": "Lie with Me", "release_date": "2005-09-10", "original_language": "en", "original_title": "Lie with Me", "genre_ids": [18], "backdrop_path": "/zqHLgJUIoTMQF279PASkHrNi4za.jpg", "adult": false, "overview": "Happily unattached, the sexually voracious Leila satisfies her desires with a host of rapidly changing bed partners, unconcerned about the emotional consequences. But that all changes when she meets an artist looking for a deeper commitment.", "poster_path": "/uBHoL4nUPYLxx3NaGf70NqP4JkN.jpg", "popularity": 17.205}, {"adult": false, "backdrop_path": "/Ao2bnJMmcFepMVw1BUay25tt7TM.jpg", "genre_ids": [18, 10749], "id": 1259, "original_language": "en", "original_title": "Notes on a Scandal", "overview": "A veteran high school teacher befriends a younger art teacher, who is having an affair with one of her 15-year-old students. However, her intentions with this new \"friend\" also go well beyond platonic friendship.", "poster_path": "/lXZa1mHZ8eD0VOpNaLfvM9tSpAj.jpg", "release_date": "2006-12-25", "title": "Notes on a Scandal", "video": false, "vote_average": 7.1, "vote_count": 463, "popularity": 10.007}, {"adult": false, "backdrop_path": "/84kMxZoaw958LrBNqSQqxFJEDXI.jpg", "genre_ids": [18, 10749], "id": 27066, "original_language": "it", "original_title": "L'uomo che guarda", "overview": "At a college in Rome, a professor, nicknamed \"Dodo\" is in a deep depression. His stunningly beautiful wife has just left him for another man. Dodo wants her back very badly and has erotic daydreams about her. A beautiful young student in his class asks him for a ride home and seduces the lucky man, but still he wonders about his wife and her lover.", "poster_path": "/ndMErDbUC7lSiKoWeUfzdMs3OpV.jpg", "release_date": "1994-01-27", "title": "The Voyeur", "video": false, "vote_average": 4.4, "vote_count": 82, "popularity": 15.246}, {"adult": false, "backdrop_path": "/sOKsA6xh6eMRbBMM0fhdgIt46kF.jpg", "genre_ids": [27, 9648, 53], "id": 572, "original_language": "no", "original_title": "Naboer", "overview": "After Ingrid leaves John, he allows himself to be pulled into a mystical and scary world where it is impossible to separate truth from lies.", "poster_path": "/9QgWi9Nf8vnzRtl8ABOYVdo5Wxh.jpg", "release_date": "2005-03-10", "title": "Next Door", "video": false, "vote_average": 6.8, "vote_count": 76, "popularity": 10.004}, {"adult": false, "backdrop_path": "/2OwnlCei1JSuzmaeButyqX2Y7wM.jpg", "genre_ids": [18], "id": 5460, "original_language": "en", "original_title": "Cruel Intentions 3", "overview": "Meet Cassie, Jason and Patrick, three amoral college students who, through a series of sexual wagers, take malicious pleasure in ruining the lives of their fellow classmates.", "poster_path": "/8fvLvfx2QHcwl0Hsik9qn7ISiuL.jpg", "release_date": "2004-05-25", "title": "Cruel Intentions 3", "video": false, "vote_average": 4.5, "vote_count": 113, "popularity": 11.191}, {"adult": false, "backdrop_path": "/ncLuaJ9s6BuPK2zGsVFoTJSdmkF.jpg", "genre_ids": [18], "id": 35712, "original_language": "fr", "original_title": "Choses secr\u00e8tes", "overview": "Two young women find themselves struggling to survive in Paris, street-wise Nathalie, a stripper, and na\u00efve Sandrine, a barmaid. Together, they discover that sex can be used to their advantage, and pleasure.", "poster_path": "/bipr9hRC8hYlWhkYywINhFJ4INT.jpg", "release_date": "2002-10-16", "title": "Secret Things", "video": false, "vote_average": 6.0, "vote_count": 43, "popularity": 8.431}, {"adult": false, "backdrop_path": "/kSB2pzvhQC66QcxEdeHAIPVnLOs.jpg", "genre_ids": [18, 53, 10749], "id": 2149, "original_language": "en", "original_title": "Body of Evidence", "overview": "Sizzingly sexy Madonna leads a star-filled cast in this erotic thriller as a woman accused of killing a wealthy, elderly man through her insatiable sexual prowess.", "poster_path": "/31M7UUTMo5PjCnvcfbtWjokJXMZ.jpg", "release_date": "1993-01-15", "title": "Body of Evidence", "video": false, "vote_average": 4.6, "vote_count": 131, "popularity": 13.811}, {"id": 87309, "video": false, "vote_count": 5, "vote_average": 6.1, "title": "Sex & Mrs. X", "release_date": "2000-04-10", "original_language": "en", "original_title": "Sex & Mrs. X", "genre_ids": [35, 18], "backdrop_path": "/31FpqutWLipP9Qu4rHrKNCDnRRu.jpg", "adult": false, "overview": "A woman regains her sense of self through a sexual reawakening after her husband leaves her for another woman.", "poster_path": "/eg4y5eybt5pByKKABOChoKgfMB7.jpg", "popularity": 3.969}, {"id": 61185, "video": false, "vote_count": 11, "vote_average": 5.0, "title": "Diary of a Sex Addict", "release_date": "2001-11-23", "original_language": "en", "original_title": "Diary of a Sex Addict", "genre_ids": [18], "backdrop_path": "/d7ySmHdKkOOWvBOSxcLvLPnaoS0.jpg", "adult": false, "overview": "A restaurant owner leads a double life.", "poster_path": "/oOkQLPTp6EyvTfQ5OTCUqeQ90pZ.jpg", "popularity": 7.146}, {"adult": false, "backdrop_path": "/qPCI9SZmHXmeG6OK367r9GvkuGl.jpg", "genre_ids": [35, 10749], "id": 41280, "original_language": "en", "original_title": "Private Lessons", "overview": "Phillip Filmore is a naive, 15-year-old, preoccupied with sex, who develops a crush on Nicole Mallow, the new 30-something, French housekeeper and sitter to look after him when Phillip's father is out of town for the summer on a \"business\" trip. But Mr. Filmore's unscrupulous chauffeur, Lester Lewis, takes advantage of Phillip's crush on Nicole to hire her to seduce the youth, then draws her into a plot to fake her own death in a blackmail scheme aimed to drain Phillip's trust fund.", "poster_path": "/azdrerXeyr2Aofr7p9osEWnz05g.jpg", "release_date": "1981-08-21", "title": "Private Lessons", "video": false, "vote_average": 5.8, "vote_count": 36, "popularity": 20.413}, {"adult": false, "backdrop_path": "/tvTyRu9eKfymkje8d9VoWJEoyUv.jpg", "genre_ids": [18], "id": 53932, "original_language": "es", "original_title": "Las edades de Lul\u00fa", "overview": "Fifteen-year-old Lulu has never known any affection from her family. But when she goes to a rock concert with Pablo, a friend of the family, he introduces Lulu to her first sexual experience. Years later, Pablo and Lulu have married; Pablo has created a sheltered, private world for Lulu, into which nothing intrudes. However, Lulu tires of her cloistered existence, and begins hanging out in shady bars, looking for vicarious thrills and danger.", "poster_path": "/5PK5MAN84o0ESgzeW9euozOLIEe.jpg", "release_date": "1990-12-13", "title": "The Ages of Lulu", "video": false, "vote_average": 5.7, "vote_count": 64, "popularity": 23.137}, {"adult": false, "backdrop_path": "/bYbnlh6VXFRtcSX82UMDsBDLB5j.jpg", "genre_ids": [18, 10749], "id": 28468, "original_language": "it", "original_title": "La chiave", "overview": "After twenty years of marriage, art professor Nino Rolfe attempts to break down his wife Teresa's conventional modesty. Noticing her affection for their daughter's fianc\u00e9, Nino instigates her sexual interest in him as well. This sets off a chain of unexpected events and emotional complications, as Nino and his unpredictable fascist daughter find that they both enjoy being jealous.", "poster_path": "/e6g2geNLgFzMbriH6EvSJZD78nx.jpg", "release_date": "1983-10-18", "title": "The Key", "video": false, "vote_average": 5.0, "vote_count": 128, "popularity": 19.088}, {"id": 12531, "video": false, "vote_count": 91, "vote_average": 6.9, "title": "The Apartment", "release_date": "1996-07-27", "original_language": "fr", "original_title": "L'Appartement", "genre_ids": [18, 9648, 10749], "backdrop_path": "/64qyT8m4JQ6YODvXxtbHgKmXBX7.jpg", "adult": false, "overview": "A stylish suspense thriller that confounds the audience while presenting them with an extraordinary and elusive mystery. Max is a former playboy who has decided to settle down by marrying his current love, Muriel. However, during a business trip, Max catches a glimpse of the great lost love of his life, reviving his wanderlust and sending him off on a chase of the elusive Lisa, whom he had overheard suggesting to a friend that her lover, Daniel, had killed someone for her. Soon, Max is trying to unravel the mystery behind the suspicious death of Daniel's wife, which he hopes will lead him closer to Lisa.", "poster_path": "/1sqrQdQTn8jKLhUcPKfRVj639zA.jpg", "popularity": 21.259}, {"adult": false, "backdrop_path": "/a8xpxCnvqKyshdrDNFGs6oy4r8N.jpg", "genre_ids": [18, 10749], "id": 1278, "original_language": "en", "original_title": "The Dreamers", "overview": "A young American studying in Paris in 1968 strikes up a friendship with a French brother and sister. Set against the background of the '68 Paris student riots.", "poster_path": "/7ABcfmXQZeCXl5sNrDuLS1URMPN.jpg", "release_date": "2003-09-01", "title": "The Dreamers", "video": false, "vote_average": 7.2, "vote_count": 1670, "popularity": 19.315}, {"id": 2057, "video": false, "vote_count": 428, "vote_average": 5.9, "title": "Original Sin", "release_date": "2001-05-08", "original_language": "en", "original_title": "Original Sin", "genre_ids": [53], "backdrop_path": "/is3I5v8FwLiEWxaksfN8D4MLNGH.jpg", "adult": false, "overview": "A young man is plunged into a life of subterfuge, deceit and mistaken identity in pursuit of a femme fatale whose heart is never quite within his grasp", "poster_path": "/yGis1Mai4ivspEXdWtXLg0bZPkX.jpg", "popularity": 21.873}], "total_pages": 97, "total_results": 1921}, "recommendations": {"page": 1, "results": [], "total_pages": 1, "total_results": 0}, "credits": {"cast": [{"cast_id": 1, "character": "Robin Grange", "credit_id": "52fe46f1c3a36847f811b14f", "gender": 2, "id": 32362, "name": "Jon Bon Jovi", "order": 0, "profile_path": "/pqqJ2JN4vbXQBsjwzDDw8cSK2XL.jpg"}, {"cast_id": 2, "character": "Elena Webb", "credit_id": "52fe46f1c3a36847f811b153", "gender": 1, "id": 27391, "name": "Anna Galiena", "order": 1, "profile_path": "/958wVgr0CXvMu1pMWwIT8XpAa2U.jpg"}, {"cast_id": 3, "character": "Felix Webb", "credit_id": "52fe46f1c3a36847f811b157", "gender": 2, "id": 2192, "name": "Lambert Wilson", "order": 2, "profile_path": "/jFkr2kuFfpzS1plfOlNJ6kURV6O.jpg"}, {"cast_id": 4, "character": "Hilary Rule", "credit_id": "52fe46f1c3a36847f811b15b", "gender": 1, "id": 9030, "name": "Thandie Newton", "order": 3, "profile_path": "/sW6XsnM2DkX6ujOXZ38aIQAMIWi.jpg"}, {"cast_id": 6, "character": "Humphrey Beal", "credit_id": "52fe46f1c3a36847f811b165", "gender": 2, "id": 22, "name": "Barry Humphries", "order": 4, "profile_path": "/ccJHmzU8wzOe4sAmeVeScu5mygl.jpg"}, {"cast_id": 7, "character": "Tod", "credit_id": "52fe46f1c3a36847f811b169", "gender": 2, "id": 2076, "name": "David Warner", "order": 5, "profile_path": "/sJ5NyKkTmFGyiTrpCnZ1v0DSnQG.jpg"}, {"cast_id": 8, "character": "Delvene", "credit_id": "52fe46f1c3a36847f811b16d", "gender": 1, "id": 175977, "name": "Patricia Hodge", "order": 6, "profile_path": "/snCdu90FJYylxk0LTdKSjHhKMxv.jpg"}, {"cast_id": 9, "character": "Susan", "credit_id": "52fe46f1c3a36847f811b171", "gender": 1, "id": 163422, "name": "Diana Quick", "order": 7, "profile_path": "/u6k0QLlCsvVQ3HIkjWxcurkhvFI.jpg"}, {"cast_id": 10, "character": "Liz Flett", "credit_id": "52fe46f1c3a36847f811b175", "gender": 1, "id": 17477, "name": "Harriet Walter", "order": 8, "profile_path": "/vfpIPsC27D1ONVres7j3DgWYzdN.jpg"}, {"cast_id": 11, "character": "Academy Awards Presenter", "credit_id": "52fe46f1c3a36847f811b179", "gender": 1, "id": 2227, "name": "Nicole Kidman", "order": 9, "profile_path": "/t1HaRL7lRJemWySXcXxOT8fAGhj.jpg"}, {"cast_id": 35, "character": "Henry", "credit_id": "5e036a049bcd0f001708cdd5", "gender": 0, "id": 116130, "name": "Tam Dean Burn", "order": 10, "profile_path": "/9KvZPsDzvP58t1vIvEK0m1x36YZ.jpg"}, {"cast_id": 36, "character": "Serena", "credit_id": "5e036a0f0284200014b4119a", "gender": 1, "id": 44635, "name": "Claire Cox", "order": 11, "profile_path": "/wXVQUuNXgJagSxPccoZwgdr5k5N.jpg"}, {"cast_id": 37, "character": "Ant", "credit_id": "5e036a1b0284200016b3f2e1", "gender": 2, "id": 9013, "name": "Kevin McKidd", "order": 12, "profile_path": "/KtmEKOSehmQ35JfGjEjpqlypbP.jpg"}, {"cast_id": 38, "character": "Annabel", "credit_id": "5e036a25d1a893001291654f", "gender": 1, "id": 3315, "name": "Victoria Smurfit", "order": 13, "profile_path": "/aNPzf4S9WNIF60HTkTuGHvE8JqO.jpg"}, {"cast_id": 39, "character": "Miranda Webb", "credit_id": "5e036a33d1a8930019918cb5", "gender": 0, "id": 2490267, "name": "Laura Austin-Little", "order": 14, "profile_path": null}, {"cast_id": 40, "character": "Danny Webb", "credit_id": "5e036a4226dac100146b0efa", "gender": 0, "id": 1814834, "name": "Danny Worters", "order": 15, "profile_path": null}, {"cast_id": 41, "character": "Jessie Webb", "credit_id": "5e036a4f75110d0011dcfeb1", "gender": 0, "id": 2490268, "name": "Camilla Ohlsson", "order": 16, "profile_path": null}, {"cast_id": 42, "character": "Attendant", "credit_id": "5e036a650284200019b4221c", "gender": 2, "id": 1926890, "name": "Geoffrey Freshwater", "order": 17, "profile_path": null}, {"cast_id": 43, "character": "Cashier", "credit_id": "5e036a6e0284200016b3f387", "gender": 1, "id": 120895, "name": "Neve McIntosh", "order": 18, "profile_path": "/A9yU2PJ1TsiiPAPHBvSBtlssuRF.jpg"}, {"cast_id": 44, "character": "Georgina", "credit_id": "5e036a7b26dac100176a7683", "gender": 0, "id": 178579, "name": "Ginny Holder", "order": 19, "profile_path": "/sz4slGhiQR16SvKCCu97fpWckTs.jpg"}, {"cast_id": 45, "character": "Girl", "credit_id": "5e036aa475110d0018dd6322", "gender": 1, "id": 26076, "name": "Billie Piper", "order": 20, "profile_path": "/14ErF6l0TlNGJ5YybhHlOnObTF3.jpg"}], "crew": [{"credit_id": "5e036898d1a8930019918684", "department": "Sound", "gender": 2, "id": 1999, "job": "Original Music Composer", "name": "Ed Shearmur", "profile_path": "/mj2ArwuGzKRzi4GSOgsC5aQEmvv.jpg"}, {"credit_id": "5e03683a0284200016b3f019", "department": "Production", "gender": 2, "id": 4007, "job": "Producer", "name": "Bertil Ohlsson", "profile_path": null}, {"credit_id": "5e03694275110d0013dcd171", "department": "Costume & Make-Up", "gender": 2, "id": 9007, "job": "Hair Supervisor", "name": "Robert McCann", "profile_path": null}, {"credit_id": "5e036935d236e60012964d0b", "department": "Costume & Make-Up", "gender": 2, "id": 9007, "job": "Makeup Supervisor", "name": "Robert McCann", "profile_path": null}, {"credit_id": "5e036905d1a8930012916330", "department": "Costume & Make-Up", "gender": 1, "id": 9006, "job": "Costume Design", "name": "Rachael Fleming", "profile_path": null}, {"credit_id": "5e03682cd236e6001097210e", "department": "Production", "gender": 2, "id": 9149, "job": "Line Producer", "name": "Peter McAleese", "profile_path": null}, {"credit_id": "5e03691475110d0013dcd119", "department": "Costume & Make-Up", "gender": 0, "id": 9161, "job": "Makeup Artist", "name": "Carmel Jackson", "profile_path": null}, {"credit_id": "5e0369569bcd0f001708cbb8", "department": "Costume & Make-Up", "gender": 1, "id": 9162, "job": "Assistant Makeup Artist", "name": "Lorna McGowan", "profile_path": null}, {"credit_id": "5e0368b626dac100146b0ca1", "department": "Editing", "gender": 2, "id": 12759, "job": "Editor", "name": "Humphrey Dixon", "profile_path": null}, {"credit_id": "5e0368f69bcd0f001708cb33", "department": "Art", "gender": 0, "id": 13008, "job": "Set Decoration", "name": "Trisha Edwards", "profile_path": null}, {"credit_id": "5e0368aa26dac100146b0c8e", "department": "Camera", "gender": 0, "id": 20791, "job": "Director of Photography", "name": "Jean-Fran\u00e7ois Robin", "profile_path": null}, {"credit_id": "5e0368d3d236e6001097222a", "department": "Art", "gender": 0, "id": 36808, "job": "Production Design", "name": "Caroline Hanania", "profile_path": null}, {"credit_id": "5e036820d1a89300129161fa", "department": "Production", "gender": 1, "id": 58548, "job": "Executive Producer", "name": "Julia Palau", "profile_path": null}, {"credit_id": "52fe46f1c3a36847f811b161", "department": "Directing", "gender": 2, "id": 72624, "job": "Director", "name": "John Duigan", "profile_path": "/dbVV1hkAJNADWr3VVhArA648skU.jpg"}, {"credit_id": "5e036848d1a8930014916926", "department": "Production", "gender": 0, "id": 108839, "job": "Producer", "name": "Paul Raphael", "profile_path": null}, {"credit_id": "5e0368e7d236e60012964cc8", "department": "Art", "gender": 0, "id": 1363066, "job": "Art Direction", "name": "Andrew Munro", "profile_path": null}, {"credit_id": "5489c85bc3a3686f58001cd4", "department": "Writing", "gender": 0, "id": 1397889, "job": "Writer", "name": "Virginia Duigan", "profile_path": null}, {"credit_id": "5e03697bd236e60012964de5", "department": "Sound", "gender": 2, "id": 1405813, "job": "Supervising Sound Editor", "name": "Christopher Ackland", "profile_path": null}, {"credit_id": "5e0369270284200016b3f156", "department": "Costume & Make-Up", "gender": 2, "id": 1427823, "job": "Key Makeup Artist", "name": "Graham Johnston", "profile_path": null}, {"credit_id": "5e03699bd1a8930019918be6", "department": "Sound", "gender": 0, "id": 1640361, "job": "Sound Supervisor", "name": "Colin Nicolson", "profile_path": null}, {"credit_id": "5e0369b9d1a8930019918bf5", "department": "Sound", "gender": 2, "id": 1900639, "job": "Sound Recordist", "name": "Stephen McLaughlin", "profile_path": "/q7WO4q0OoJPmyN15NJAO8fh5q0p.jpg"}, {"credit_id": "5e03688ad1a893001491693b", "department": "Production", "gender": 0, "id": 2051204, "job": "Executive Producer", "name": "Michael Ryan", "profile_path": null}, {"credit_id": "5e0368c69bcd0f001508d4e3", "department": "Production", "gender": 0, "id": 2490265, "job": "Casting", "name": "Jina Jayawardena", "profile_path": null}, {"credit_id": "5e03698dd236e6001097233c", "department": "Sound", "gender": 0, "id": 2490266, "job": "Assistant Sound Editor", "name": "Gordon Greenaway", "profile_path": null}]}}