{"adult": false, "backdrop_path": "/A5xGo9qjOYtAuIF0XPaRFfZ72lx.jpg", "belongs_to_collection": null, "budget": 0, "genres": [{"id": 53, "name": "Thriller"}, {"id": 18, "name": "Drama"}, {"id": 10749, "name": "Romance"}], "homepage": "http://www.mapofthesoundsoftokyo.com/", "id": 46458, "imdb_id": "tt1185376", "original_language": "en", "original_title": "Map of the Sounds of Tokyo", "overview": "A fish-market employee who doubles as a contract killer.", "popularity": 4.51, "poster_path": "/fXUvJlnQdB8hBiBRumpFj8hj0Wl.jpg", "production_companies": [], "production_countries": [{"iso_3166_1": "ES", "name": "Spain"}], "release_date": "2009-12-02", "revenue": 0, "runtime": 109, "spoken_languages": [{"iso_639_1": "en", "name": "English"}, {"iso_639_1": "ja", "name": "\u65e5\u672c\u8a9e"}], "status": "Released", "tagline": "", "title": "Map of the Sounds of Tokyo", "video": false, "vote_average": 5.5, "vote_count": 30, "keywords": {"keywords": [{"id": 187056, "name": "woman director"}]}, "similar": {"page": 1, "results": [{"adult": false, "backdrop_path": "/cADbqsIoiDW7X3Myg9nz8eAuno5.jpg", "genre_ids": [18, 10749], "id": 10818, "original_language": "fr", "original_title": "Naissance des pieuvres", "overview": "Set during a sultry summer in a French suburb, Marie is desperate to join the local pool's synchronized swimming team, but is her interest solely for the sake of sport or for a chance to get close to Floriane, the bad girl of the team? Sciamma, and the two leads, capture the uncertainty of teenage sexuality with a sympathetic eye in this delicate drama of the angst of coming-of-age.", "poster_path": "/4jajELYrR4Xmv3CVoKnukRnALa2.jpg", "release_date": "2007-05-17", "title": "Water Lilies", "video": false, "vote_average": 6.1, "vote_count": 119, "popularity": 10.744}, {"adult": false, "backdrop_path": "/gZeJziVigmRqbkEZwKAtSqlLQ6s.jpg", "genre_ids": [18, 10749], "id": 370663, "original_language": "en", "original_title": "Below Her Mouth", "overview": "An unexpected affair quickly escalates into a heart-stopping reality for two women whose passionate connection changes their lives forever.", "poster_path": "/nTGbq37hYLuNy7YgMg0gVLma0NS.jpg", "release_date": "2016-09-10", "title": "Below Her Mouth", "video": false, "vote_average": 6.2, "vote_count": 456, "popularity": 22.676}, {"adult": false, "backdrop_path": "/dvQDRfv3qvfHNnVAR57ouVsuErf.jpg", "genre_ids": [10749, 18], "id": 28031, "original_language": "en", "original_title": "If These Walls Could Talk 2", "overview": "The stories of three lesbian couples -- who live in the same house at different periods of time -- who are at a crossroads in their lives. In 1961, Edith loses her lover, Abby, to a stroke. Linda and Amy struggle with feminist issues in 1972. And, in 2000, Kal and Fran try to have a baby with the help of sperm donor.", "poster_path": "/xs7ODbmYQXCDhvXNvz5tF17T59H.jpg", "release_date": "2000-03-05", "title": "If These Walls Could Talk 2", "video": false, "vote_average": 7.1, "vote_count": 55, "popularity": 8.062}, {"adult": false, "backdrop_path": "/knczzNAjBXzSYkeWxoT1u9VNmjR.jpg", "genre_ids": [10749, 18], "id": 258480, "original_language": "en", "original_title": "Carol", "overview": "In 1950s New York, a department-store clerk who dreams of a better life falls for an older, married woman.", "poster_path": "/AbKa7ANxmui0Jmhh7gV7OSELKIL.jpg", "release_date": "2015-11-20", "title": "Carol", "video": false, "vote_average": 7.4, "vote_count": 2182, "popularity": 14.185}, {"adult": false, "backdrop_path": "/fZ8oFcREAr6wgWcXISGql0xyxjB.jpg", "genre_ids": [35, 18], "id": 39781, "original_language": "en", "original_title": "The Kids Are All Right", "overview": "Two women, Nic and Jules, brought a son and daughter into the world through artificial insemination. When one of their children reaches age, both kids go behind their mothers' backs to meet with the donor. Life becomes so much more interesting when the father, two mothers and children start to become attached to each other.", "poster_path": "/fPDeK4MmoGfi2X0oWZev7LrbMqM.jpg", "release_date": "2010-07-09", "title": "The Kids Are All Right", "video": false, "vote_average": 6.6, "vote_count": 923, "popularity": 12.703}, {"adult": false, "backdrop_path": "/rf6G51j0SZL0tP57I8gnqHTRFEr.jpg", "genre_ids": [35, 18, 10749], "id": 273153, "original_language": "fr", "original_title": "La belle saison", "overview": "In 1971, Carole and Delphine meet and fall in love in Paris. When Carole follows Delphine back to her family farm in Limousin, the two find lesbianism and feminism are not as easy in the countryside.", "poster_path": "/evvAkNMO5VJiy5qIo1Hu7fUfvVI.jpg", "release_date": "2015-08-19", "title": "Summertime", "video": false, "vote_average": 6.6, "vote_count": 162, "popularity": 15.434}, {"adult": false, "backdrop_path": "/s12HEmmkJfI2mjltI61hGm5kubD.jpg", "genre_ids": [35, 18, 10749], "id": 20770, "original_language": "en", "original_title": "But I'm a Cheerleader", "overview": "Megan is an all-American girl. A cheerleader. She has a boyfriend. But Megan doesn't like kissing her boyfriend very much. And she's pretty touchy with her cheerleader friends. Her conservative parents worry that she must be a lesbian and send her off to \"sexual redirection\" school, where she must, with other lesbians and gays learn how to be straight.", "poster_path": "/eDGH7CHSdkrYcuUJV1e0WS9DlQL.jpg", "release_date": "1999-12-09", "title": "But I'm a Cheerleader", "video": false, "vote_average": 6.8, "vote_count": 246, "popularity": 10.067}, {"id": 9813, "video": false, "vote_count": 128, "vote_average": 6.1, "title": "The Quiet", "release_date": "2005-09-12", "original_language": "en", "original_title": "The Quiet", "genre_ids": [18, 53], "backdrop_path": "/6eyWAZA4CEidZW1xXnQ4vlYBXTP.jpg", "adult": false, "overview": "After her widowed father dies, deaf teenager Dot moves in with her godparents, Olivia and Paul Deer. The Deers' daughter, Nina, is openly hostile to Dot, but that does not prevent her from telling her secrets to her silent stepsister, including the fact that she wants to kill her lecherous father.", "poster_path": "/GEqIE9YlmygHVUfS64LW2cwAAM.jpg", "popularity": 13.948}, {"adult": false, "backdrop_path": "/tzqeuHWMFihFbiLGHdalPgAcSf6.jpg", "genre_ids": [18, 10749], "id": 18620, "original_language": "en", "original_title": "Go Fish", "overview": "Max is a trendy, pretty, young lesbian, who is having trouble finding love. A friend sets her up with Ely, whom Max likes, but Ely is frumpy, homely, and older. Nor do they have much in common. Can Max learn to look past the packaging?", "poster_path": "/qrEFYrwykaGsY8NULYuYLLI7zrM.jpg", "release_date": "1994-06-10", "title": "Go Fish", "video": false, "vote_average": 5.0, "vote_count": 11, "popularity": 2.626}, {"adult": false, "backdrop_path": "/6tern9vOEwwmkDYC1vRCuO64z0C.jpg", "genre_ids": [10749, 18], "id": 475888, "original_language": "en", "original_title": "Tell It to the Bees", "overview": "Dr. Jean Markham returns to the town she left as a teenager to take over her late father's medical practice. When a school-yard scuffle lands Charlie in her surgery, she invites him to visit the hives in her garden and tell his secrets to the bees, as she once did. The new friendship between the boy and the bee keeper brings his mother Lydia into Jean's world.", "poster_path": "/Rj6zpHhMU1zFW3v28U4PSRSRgP.jpg", "release_date": "2019-05-03", "title": "Tell It to the Bees", "video": false, "vote_average": 6.4, "vote_count": 53, "popularity": 15.113}, {"adult": false, "backdrop_path": "/xOGEw8iywxcFMolV6SF6YdTdJTb.jpg", "genre_ids": [10402, 10749], "id": 52371, "original_language": "nl", "original_title": "LelleBelle", "overview": "19-year old Belle practices playing the violin diligently, but is unable to impart her music with a sensitive undertone. Her life changes when she discovers that sexual desire stimulates passion in her music.", "poster_path": "/nJVPgIq3icZMQ26p5uWIFdUZJfL.jpg", "release_date": "2010-10-08", "title": "LelleBelle", "video": false, "vote_average": 4.7, "vote_count": 41, "popularity": 13.931}, {"adult": false, "backdrop_path": "/baYbbMtKRDoDWYJeVWkbygAvAj8.jpg", "genre_ids": [18, 10749], "id": 31216, "original_language": "en", "original_title": "I Can't Think Straight", "overview": "I CAN'T THINK STRAIGHT is a 2007 romance movie about a London-based Jordanian of Palestinian descent, Tala, who is preparing for an elaborate wedding. A turn of events causes her to have an affair and subsequently fall in love with another woman, Leyla, a British Indian.", "poster_path": "/1kapga6rkM5wNuQBYw7sdE42CrA.jpg", "release_date": "2008-06-01", "title": "I Can't Think Straight", "video": false, "vote_average": 7.6, "vote_count": 109, "popularity": 8.749}, {"adult": false, "backdrop_path": "/lI5h8KaoeObu4NMTwzeRuUHzRwD.jpg", "genre_ids": [18, 9648, 53], "id": 401898, "original_language": "no", "original_title": "Thelma", "overview": "A college student starts to experience extreme seizures. She soon learns that the violent episodes are a symptom of inexplicable abilities.", "poster_path": "/yzSfG8TLAqw7nMQh2lxirQkQpgs.jpg", "release_date": "2017-09-15", "title": "Thelma", "video": false, "vote_average": 7.1, "vote_count": 418, "popularity": 12.235}, {"adult": false, "backdrop_path": "/tIFRPjIXQ3sYrmxbIeOu9K1JkUz.jpg", "genre_ids": [18, 10749], "id": 294, "original_language": "en", "original_title": "Desert Hearts", "overview": "The story of straight-edge literature professor Vivian who travels to Reno to get away from a relationship breakup when she falls in love with an attractive and unconventional girl named Cay.", "poster_path": "/b8JSmQSpYYJhctMtxNgqh0elENg.jpg", "release_date": "1985-10-01", "title": "Desert Hearts", "video": false, "vote_average": 7.3, "vote_count": 58, "popularity": 8.237}, {"id": 520172, "video": false, "vote_count": 0, "vote_average": 0.0, "title": "Happiest Season", "release_date": "2020-11-20", "original_language": "en", "original_title": "Happiest Season", "genre_ids": [35, 10749], "backdrop_path": null, "adult": false, "overview": "A young woman's plans to propose to her girlfriend while at her family's annual holiday party are upended when she discovers her partner hasn't yet come out to her conservative parents.", "poster_path": null, "popularity": 6.436}, {"id": 2255, "video": false, "vote_count": 772, "vote_average": 6.8, "title": "Chasing Amy", "release_date": "1997-04-04", "original_language": "en", "original_title": "Chasing Amy", "genre_ids": [35, 18, 10749], "backdrop_path": "/doKYVK61Vb8J1KUjlb9dNWkQNp6.jpg", "adult": false, "overview": "Holden and Banky are comic book artists. Everything is going good for them until they meet Alyssa, also a comic book artist. Holden falls for her, but his hopes are crushed when he finds out she's a lesbian.", "poster_path": "/4vFJileWrCGaBeobCmF0tXpQCUb.jpg", "popularity": 11.325}, {"adult": false, "backdrop_path": "/hD8DQM72Xacg1d3mFqS0eN8vKYw.jpg", "genre_ids": [18], "id": 8272, "original_language": "en", "original_title": "The Savages", "overview": "A sister and brother face the realities of familial responsibility as they begin to care for their ailing father.", "poster_path": "/nY54gSmTOmSXlQpWDB7DWp4u8a7.jpg", "release_date": "2007-01-19", "title": "The Savages", "video": false, "vote_average": 6.9, "vote_count": 192, "popularity": 13.094}, {"adult": false, "backdrop_path": "/g3LYarEY9LjB28Ct2trwFN72gqZ.jpg", "genre_ids": [35], "id": 437557, "original_language": "en", "original_title": "Blockers", "overview": "When three parents discover their daughters\u2019 pact to lose their virginity at prom, they launch a covert one-night operation to stop the teens from sealing the deal.", "poster_path": "/uvlUQXg0AlpGzKukO11K7QtW3Yu.jpg", "release_date": "2018-03-14", "title": "Blockers", "video": false, "vote_average": 6.2, "vote_count": 1153, "popularity": 18.075}, {"adult": false, "backdrop_path": "/zBB1mzmqnUuSrlTuf0SFFlI1EoJ.jpg", "genre_ids": [18], "id": 244772, "original_language": "en", "original_title": "The Skeleton Twins", "overview": "Estranged twins Maggie and Milo coincidentally cheat death on the same day, prompting them to reunite and confront the reasons their lives went so wrong. As the twins' reunion reinvigorates them, they realize the key to fixing their lives may just lie in repairing their relationship.", "poster_path": "/vvmv1R2jDXJeeeyYcGg0ypXc2XK.jpg", "release_date": "2014-09-12", "title": "The Skeleton Twins", "video": false, "vote_average": 6.7, "vote_count": 416, "popularity": 9.821}, {"adult": false, "backdrop_path": "/3YGy88nTV2e0wxZcKI1goiEN9oy.jpg", "genre_ids": [18, 10749], "id": 37636, "original_language": "en", "original_title": "High Art", "overview": "A young female intern at a small magazine company becomes involved with a drug-addicted lesbian photographer, both of whom seek to exploit each other for their respective careers, while slowly falling in love with each other.", "poster_path": "/qTg05RNJIvb9w4Z7XIcAZxuZmTn.jpg", "release_date": "1998-06-12", "title": "High Art", "video": false, "vote_average": 6.6, "vote_count": 61, "popularity": 7.27}], "total_pages": 1446, "total_results": 28907}, "recommendations": {"page": 1, "results": [{"adult": false, "backdrop_path": "/mPMIkgdSGr7azVid4w6VT1dGu92.jpg", "genre_ids": [10749, 18], "id": 103704, "original_language": "en", "original_title": "A los que aman", "overview": "A secret and deep passion marks the life of a young doctor, and threatens the existence of those around him.", "poster_path": "/AbeanSbaJIPJ2qqPQQwTYp1XOMr.jpg", "release_date": "1998-10-24", "title": "Those Who Love", "video": false, "vote_average": 3.6, "vote_count": 5, "popularity": 2.634}, {"adult": false, "backdrop_path": "/v1XYug3SqlqxyGEbiNIZgJuo6lb.jpg", "genre_ids": [], "id": 123753, "original_language": "en", "original_title": "Dog", "overview": "A young boy and his father live in a dull, lonely house with the shadow of mourning hanging over them both. The boy misses his mother but gets no comfort from his father's ascertains that she went peacefully. This tragedy is added to by the family dog which is looking increasingly unhealthy.", "poster_path": "/lO2W1Av6Nzs6NsP1jKT4z5vROOG.jpg", "release_date": "2002-08-06", "title": "Dog", "video": false, "vote_average": 6.5, "vote_count": 6, "popularity": 0.883}, {"adult": false, "backdrop_path": null, "genre_ids": [10751, 18], "id": 101780, "original_language": "en", "original_title": "Nada", "overview": "Nada is a 1947 Spanish drama film directed by Edgar Neville. It is based on Carmen Laforet's famous novel Nada which won the Premio Nadal. It was written by Carmen Laforet.", "poster_path": "/zANuAtnVmwVsDIau23kh3jenN88.jpg", "release_date": "1947-01-01", "title": "Nothing", "video": false, "vote_average": 6.0, "vote_count": 3, "popularity": 1.471}, {"id": 31319, "video": false, "vote_count": 17, "vote_average": 5.8, "title": "The Embryo Hunts in Secret", "release_date": "1966-07-01", "original_language": "ja", "original_title": "\u80ce\u5150\u304c\u5bc6\u731f\u3059\u308b\u6642", "genre_ids": [18, 27], "backdrop_path": null, "adult": false, "overview": "A man keeps his girlfriend tied up in his small apartment and tortures her. She is undressed, subjected to various types of bondage, whipped, and tortured with a razor blade.", "poster_path": "/toZtX7MQy35fxMrfRo3KNLgB9An.jpg", "popularity": 4.026}, {"adult": false, "backdrop_path": null, "genre_ids": [], "id": 334706, "original_language": "es", "original_title": "El taxista ful", "overview": "A 52-year-old cab driver drives stolen cars to taxi his clients through the streets of Barcelona.", "poster_path": "/gzoyveD09MyI49ryQs2TIT27fVT.jpg", "release_date": "2006-06-16", "title": "The Taxi Thief", "video": false, "vote_average": 6.0, "vote_count": 3, "popularity": 0.6}, {"id": 42139, "video": false, "vote_count": 15, "vote_average": 7.2, "title": "Blood Wedding", "release_date": "1981-10-25", "original_language": "es", "original_title": "Bodas de sangre", "genre_ids": [18, 10402], "backdrop_path": "/tJFW77JRnUOqXdWAjg5EEHkDTfI.jpg", "adult": false, "overview": "A bride elopes with her lover on the very day of her wedding. The groom follows the two lovers, and a knife fight takes place. The rivals stab each other and the only wedding that takes place is that one knotting their destinies together in death. A blood wedding.", "poster_path": "/lfLdKbwayLuXkU8ZHFJoNSsbPI1.jpg", "popularity": 2.472}, {"id": 115872, "video": false, "vote_count": 11, "vote_average": 6.2, "title": "The Chambermaid on the Titanic", "release_date": "1997-10-10", "original_language": "fr", "original_title": "La femme de chambre du Titanic", "genre_ids": [18, 10749], "backdrop_path": "/n9YAatHxfip8V45kFx9U1CkezTU.jpg", "adult": false, "overview": "Horty, a French foundry worker, wins a contest and is sent to see the sailing of the Titanic. In England, Marie, saying she is a chambermaid on the Titanic and cannot get a room, asks to share his room. They do, chastely; when he awakens, she is gone, but he sees her at the sailing and gets a photo of her. When he returns home, he suspects that his wife Zoe has been sleeping with Simeon, the foundry owner. Horty goes to the bar, where his friends get him drunk and he starts telling an erotic fantasy of what happened with him and Marie, drawing a larger audience each night.", "poster_path": "/jSsKHwtqk0XNdABR2R5wI3grfxV.jpg", "popularity": 3.369}, {"adult": false, "backdrop_path": "/jevGFjRFTgiBH55YSv3p49J2VNq.jpg", "genre_ids": [18], "id": 97535, "original_language": "ja", "original_title": "\u7518\u3044\u591c\u306e\u679c\u3066", "overview": "An opportunistic department store clerk gets involved with three women and attempts to manipulate them so he can move up the social ladder.", "poster_path": "/qTzElQQMa2EHjvZwodosMCbNzSt.jpg", "release_date": "1961-02-14", "title": "Bitter End of a Sweet Night", "video": false, "vote_average": 5.5, "vote_count": 6, "popularity": 1.714}, {"adult": false, "backdrop_path": null, "genre_ids": [], "id": 258023, "original_language": "en", "original_title": "Marisa", "overview": "Marisa changes forms throughout her existance and the Narrator is determined to find her over and over again.", "poster_path": "/vkoghyuBzNm9vjBlli9Ng65rS9D.jpg", "release_date": "2009-06-17", "title": "Marisa", "video": false, "vote_average": 5.7, "vote_count": 6, "popularity": 1.887}, {"adult": false, "backdrop_path": "/538wIwTuvEEIg7GrBeuj8r75B6W.jpg", "genre_ids": [18, 99], "id": 73131, "original_language": "en", "original_title": "Invisibles", "overview": "A series of short films examining the world's overlooked problems and the people who suffer from them.", "poster_path": "/6UIMtOESittu9bX8nTZXRfOScNe.jpg", "release_date": "2007-02-15", "title": "Invisibles", "video": false, "vote_average": 3.1, "vote_count": 7, "popularity": 2.11}, {"adult": false, "backdrop_path": "/z5THNarDLAQ4sOOAcRyEbsATqQs.jpg", "genre_ids": [18], "id": 25051, "original_language": "ja", "original_title": "\u30c7\u30a3\u30b9\u30bf\u30f3\u30b9", "overview": "On the eighth anniversary of a cult's failed chemical attack on Tokyo and their subsequent mass suicide, family members of those affected gather at the cult's former base on the shores of a lake to observe the anniversary of their loved ones' deaths.", "poster_path": "/wyAwtWVlHvrZkCkPEzMa0s5puXg.jpg", "release_date": "2001-05-26", "title": "Distance", "video": false, "vote_average": 7.3, "vote_count": 16, "popularity": 3.08}, {"adult": false, "backdrop_path": "/cdcZWMRghvJpiyv4W5gElgrQz6F.jpg", "genre_ids": [35, 10749], "id": 110909, "original_language": "es", "original_title": "Cosas que nunca te dije", "overview": "Ann and Don are two people caught in a somber existence who cross paths by accident and whose only true ambition is to care and feel.", "poster_path": "/i9dNRzA9F1gNGXcrnKyeyVQtqNb.jpg", "release_date": "1996-10-11", "title": "Things I Never Told You", "video": false, "vote_average": 4.7, "vote_count": 14, "popularity": 3.674}, {"adult": false, "backdrop_path": "/oJDuXOSfoQlNW4N9QXz6s8gOFfh.jpg", "genre_ids": [10749, 18], "id": 127449, "original_language": "es", "original_title": "La Tregua", "overview": "A man has to come to terms with his wasted youth, estranged family and grim prospects for the future.", "poster_path": "/75XK58w2N8QX2STFmMtP7t8gUh1.jpg", "release_date": "1974-08-01", "title": "The Truce", "video": false, "vote_average": 7.1, "vote_count": 8, "popularity": 1.73}, {"adult": false, "backdrop_path": "/5eIwKjHhgGkG0CqhG2T2DFMDGxG.jpg", "genre_ids": [99, 18], "id": 324064, "original_language": "de", "original_title": "H\u00e4rte", "overview": "Half documentary, half docu-drama about a German karate champion, who used to be a successful pimp...", "poster_path": "/j5sZn4aI3QwlgIBWvXebpbQAyWO.jpg", "release_date": "2015-04-23", "title": "Tough Love", "video": false, "vote_average": 6.8, "vote_count": 6, "popularity": 1.895}, {"adult": false, "backdrop_path": "/AbdRLUC1NgOMQMIwoKyfXXZRkh0.jpg", "genre_ids": [35, 14, 27, 53], "id": 118673, "original_language": "es", "original_title": "La torre de los siete jorobados", "overview": "In the Madrid of the 19th century a young man plays roulette. A mysterious character helps him by pointing with his walking stick the next number where the ball is going to fall. The protagonist is the only one able to see him. The mysterious man turn out to be the ghost of an archaelogist and ask the young man to defend his daughter from a gang of hunchbacks. Written by Miguel A. Andrade", "poster_path": "/aqWxxC6ohh6TfgG8JQrF37ArjE3.jpg", "release_date": "1944-11-23", "title": "The Tower of the Seven Hunchbacks", "video": false, "vote_average": 6.7, "vote_count": 10, "popularity": 1.425}], "total_pages": 1, "total_results": 15}, "credits": {"cast": [{"cast_id": 3, "character": "Ryu", "credit_id": "52fe46f8c3a36847f811c7ed", "gender": 1, "id": 18054, "name": "Rinko Kikuchi", "order": 0, "profile_path": "/lv4UuorZtC37VaFAHO205u4lS73.jpg"}, {"cast_id": 4, "character": "David", "credit_id": "52fe46f8c3a36847f811c7f1", "gender": 2, "id": 16972, "name": "Sergi L\u00f3pez", "order": 1, "profile_path": "/dH5jWen7KE4N3QuNSpeGOVAdIOT.jpg"}, {"cast_id": 5, "character": "Narrator", "credit_id": "52fe46f8c3a36847f811c7f5", "gender": 2, "id": 136191, "name": "Min Tanaka", "order": 2, "profile_path": "/ppKKjWpEJxaCGqoRdpZV3oxKmmc.jpg"}, {"cast_id": 6, "character": "Yoshi", "credit_id": "52fe46f8c3a36847f811c7f9", "gender": 2, "id": 136192, "name": "Manabu Oshio", "order": 3, "profile_path": "/kY01V2m4u3Lj8CH1vbJ6rGf5JDM.jpg"}, {"cast_id": 7, "character": "Nagara", "credit_id": "52fe46f8c3a36847f811c7fd", "gender": 2, "id": 136193, "name": "Takeo Nakahara", "order": 4, "profile_path": "/40LZc8303ruICQcGjOwYleJM7WD.jpg"}, {"cast_id": 8, "character": "Ishida", "credit_id": "52fe46f8c3a36847f811c801", "gender": 2, "id": 45993, "name": "Hideo Sakaki", "order": 5, "profile_path": "/goSatXGMc0sW5qrV7QKLVw6mqay.jpg"}], "crew": [{"credit_id": "52fe46f8c3a36847f811c7e3", "department": "Directing", "gender": 1, "id": 90, "job": "Director", "name": "Isabel Coixet", "profile_path": "/s2Hspn17nOf6LIuVrULvV3OOiX0.jpg"}, {"credit_id": "52fe46f8c3a36847f811c807", "department": "Writing", "gender": 1, "id": 90, "job": "Writer", "name": "Isabel Coixet", "profile_path": "/s2Hspn17nOf6LIuVrULvV3OOiX0.jpg"}, {"credit_id": "5548c012c3a368788c001e88", "department": "Camera", "gender": 2, "id": 104, "job": "Director of Photography", "name": "Jean-Claude Larrieu", "profile_path": null}]}}