{"adult": false, "backdrop_path": "/2lA6Yx48ByVeyi1S0VNWMtPVeYs.jpg", "belongs_to_collection": null, "budget": 0, "genres": [{"id": 18, "name": "Drama"}], "homepage": "http://www.lanimale.com/", "id": 466673, "imdb_id": "tt6169920", "original_language": "de", "original_title": "L'Animale", "overview": "Riding on their tuned-up bikes, Mati and her posse of male friends intimidate their neighborhood and harass the girls. In their village, they rule. But when her closest pal Sebastian falls in love with Mati and her enemy Carla unexpectedly turns into a friend, Mati is in danger of losing her standing among her male friends. Meanwhile Mati\u2019s parents have a decision to make: What's more important, appearances or reality?", "popularity": 1.448, "poster_path": "/gUjNRhhjffRGJyHs11ei0A8mZCN.jpg", "production_companies": [{"id": 80290, "logo_path": null, "name": "La Banda Films", "origin_country": ""}, {"id": 2744, "logo_path": null, "name": "Nikolaus Geyrhalter Filmproduktion", "origin_country": ""}], "production_countries": [{"iso_3166_1": "AT", "name": "Austria"}], "release_date": "2018-02-18", "revenue": 0, "runtime": 93, "spoken_languages": [{"iso_639_1": "de", "name": "Deutsch"}], "status": "Released", "tagline": "", "title": "L'Animale", "video": false, "vote_average": 7.6, "vote_count": 12, "keywords": {"keywords": [{"id": 237, "name": "gay"}, {"id": 6054, "name": "friendship"}, {"id": 10683, "name": "coming of age"}, {"id": 158718, "name": "lgbt"}, {"id": 187056, "name": "woman director"}]}, "similar": {"page": 1, "results": [{"id": 449176, "video": false, "vote_count": 3691, "vote_average": 8.1, "title": "Love, Simon", "release_date": "2018-02-16", "original_language": "en", "original_title": "Love, Simon", "genre_ids": [35, 18, 10749], "backdrop_path": "/rqMEeajyzSF4PpJtdCB816Iz8Vr.jpg", "adult": false, "overview": "Everyone deserves a great love story. But for seventeen-year old Simon Spier it's a little more complicated: he's yet to tell his family or friends he's gay and he doesn't know the identity of the anonymous classmate he's fallen for online.", "poster_path": "/5YUYg5q7QfC4IoNwNUtiwdiYKPr.jpg", "popularity": 17.201}, {"adult": false, "backdrop_path": "/yGpQiJ3OvVxXJognn1AlEcxiV5O.jpg", "genre_ids": [18, 35], "id": 585806, "original_language": "en", "original_title": "The Male Gaze: First Kiss", "overview": "The Male Gaze is a new series of releases from New Queer Visions that showcases short LGBTQ films from across the world. The first instalment, First Kiss, brings together five shorts that are based around men experiencing romantic and/or sexual interaction with other men for the first time. It takes in films from Sweden, Indonesia, USA, Australia and France giving a rounded look at how similar experiences are depicted across the world.", "poster_path": "/YBriAk8VXig0ZPWbLdayysQLcK.jpg", "release_date": "2018-11-12", "title": "The Male Gaze: First Kiss", "video": false, "vote_average": 3.3, "vote_count": 3, "popularity": 2.696}, {"adult": false, "backdrop_path": "/qbrmEfBEcdrzHSAHgazJWmz3TSU.jpg", "genre_ids": [18], "id": 616229, "original_language": "en", "original_title": "The Male Gaze: The Heat of the Night", "overview": "When darkness falls, temperatures rise in these six stories about late night confessions, intimacy for sale, high speed hookups and full moon frissons. But when the sun comes up and reality reveals itself, will it have all been worth it?", "poster_path": "/e1gNLO829rkE73sBJ3aClZJHNXd.jpg", "release_date": "2019-07-15", "title": "The Male Gaze: The Heat of the Night", "video": false, "vote_average": 3.3, "vote_count": 3, "popularity": 7.834}, {"adult": false, "backdrop_path": "/6VhtzImP1UvYkIAHS4L8yfmceOM.jpg", "genre_ids": [18], "id": 26280, "original_language": "fr", "original_title": "J'ai tu\u00e9 ma m\u00e8re", "overview": "Hubert, a brash 17-year-old, is confused and torn by a love-hate relationship with his mother that consumes him more and more each day. After distressing ordeals and tragic episodes, Hubert will find his mother on the banks of Saint Lawrence river, where he grew up, and where a murder will be committed: the murder of childhood.", "poster_path": "/cxb02CLALt9He1Dt0BIDKj9fdvM.jpg", "release_date": "2009-06-05", "title": "I Killed My Mother", "video": false, "vote_average": 7.7, "vote_count": 655, "popularity": 11.451}, {"id": 21634, "video": false, "vote_count": 250, "vote_average": 7.9, "title": "Prayers for Bobby", "release_date": "2009-02-27", "original_language": "en", "original_title": "Prayers for Bobby", "genre_ids": [18, 36, 10770], "backdrop_path": "/pSjGsbqyKUzF8rHzL0vtVWV1pS6.jpg", "adult": false, "overview": "Bobby Griffith was his mother's favorite son, the perfect all-American boy growing up under deeply religious influences in Walnut Creek, California. Bobby was also gay. Struggling with a conflict no one knew of much less understood Bobby finally came out to his family.", "poster_path": "/d9TGJxEMkLTEF5lWAx1PLNDNpA0.jpg", "popularity": 9.034}, {"adult": false, "backdrop_path": "/sZo96MCFy4yFaJFKIfj4hbyvTci.jpg", "genre_ids": [18, 10749], "id": 26371, "original_language": "en", "original_title": "Maurice", "overview": "After his lover rejects him, a young man trapped by the oppressiveness of Edwardian society tries to come to terms with and accept his sexuality.", "poster_path": "/4MI2y8XViPrDiKs1p0QC4bTeZzf.jpg", "release_date": "1987-08-21", "title": "Maurice", "video": false, "vote_average": 7.6, "vote_count": 161, "popularity": 11.282}, {"adult": false, "backdrop_path": "/qs4P8THxjbMZYc9QuZvzN95KzBM.jpg", "genre_ids": [18, 53, 9648], "id": 184352, "original_language": "fr", "original_title": "Tom \u00e0 la ferme", "overview": "A young man travels to an isolated farm for his lover's funeral where he's quickly drawn into a twisted, sexually charged game by his lover's aggressive brother.", "poster_path": "/wS4oYOHEKva9sMLOHSr7tW19SaQ.jpg", "release_date": "2013-09-02", "title": "Tom at the Farm", "video": false, "vote_average": 6.9, "vote_count": 408, "popularity": 7.884}, {"adult": false, "backdrop_path": "/useuHJQ5HOoEWkAvEjL1FW1sUfe.jpg", "genre_ids": [18], "id": 376867, "original_language": "en", "original_title": "Moonlight", "overview": "The tender, heartbreaking story of a young man\u2019s struggle to find himself, told across three defining chapters in his life as he experiences the ecstasy, pain, and beauty of falling in love, while grappling with his own sexuality.", "poster_path": "/qAwFbszz0kRyTuXmMeKQZCX3Q2O.jpg", "release_date": "2016-10-21", "title": "Moonlight", "video": false, "vote_average": 7.4, "vote_count": 4410, "popularity": 21.716}, {"adult": false, "backdrop_path": "/2FYSfRSHLBkYScD7gPToV4UNy4h.jpg", "genre_ids": [10749, 18], "id": 104634, "original_language": "es", "original_title": "El sexo de los \u00e1ngeles", "overview": "Carla and Bruno believe they have answers for everything until Rai appears in their lives, an  attractive and mysterious young who lives outside the rules. In this story about love and friendship, boundaries dissolve by the rhythm of funky and break to offer a provocative, exciting and deeply touching vision about romantic relationships.", "poster_path": "/5PqIvW0jK6Nx5m78R3u1aSz7N5P.jpg", "release_date": "2012-05-04", "title": "Angels of Sex", "video": false, "vote_average": 6.8, "vote_count": 66, "popularity": 5.699}, {"adult": false, "backdrop_path": "/da8Kj1bgPvL8Tf1PgkA70UwmYzh.jpg", "genre_ids": [35, 18, 10749], "id": 10938, "original_language": "en", "original_title": "Beautiful Thing", "overview": "Set during a long, hot summer on the Thamesmead Estate in Southeast London, three teenagers edge towards adulthood.", "poster_path": "/8z1ZkZoznIGLyx4xHEaQNZqG63D.jpg", "release_date": "1996-06-21", "title": "Beautiful Thing", "video": false, "vote_average": 7.5, "vote_count": 154, "popularity": 9.835}, {"adult": false, "backdrop_path": "/zCC5Han27o5AxhdNJ86b5YhLhIS.jpg", "genre_ids": [18, 10749], "id": 26933, "original_language": "fr", "original_title": "Les roseaux sauvages", "overview": "As the Algerian War draws to a close, a teenager with a girlfriend starts feeling homosexual urges for two of his classmates: a country boy, and a French-Algerian intellectual.", "poster_path": "/vPPsAieu9KEVZcI06xKHl9zztUO.jpg", "release_date": "1994-06-01", "title": "Wild Reeds", "video": false, "vote_average": 7.5, "vote_count": 46, "popularity": 5.558}, {"adult": false, "backdrop_path": "/1TlSBnlgWhtMVRx7Lf0R2vmwZcw.jpg", "genre_ids": [18], "id": 244063, "original_language": "nl", "original_title": "Jongens", "overview": "Two teen track stars discover first love as they train for the biggest relay race of their young lives.", "poster_path": "/rDlsLHQqEy95JwfViHsa4xO0bl1.jpg", "release_date": "2014-01-08", "title": "Boys", "video": false, "vote_average": 7.5, "vote_count": 313, "popularity": 7.779}, {"adult": false, "backdrop_path": "/r3DKR4VybkjYP2w4wYFIf2cEPc.jpg", "genre_ids": [10749, 18], "id": 322127, "original_language": "de", "original_title": "You & I", "overview": "Summer in Berlin. Jonas is planning a trip through the little known area of the Uckermark in preparation for a photography project. He invites his best friend, Phillip, to come along. When they pick up a hitchhiker named Boris, the friendship of the two starts to fray. Maybe three\u2019s a crowd after all? By the end of the summer, things between Jonas and Phillip won\u2019t ever be the same again.", "poster_path": "/59OmxhLZVh3ZXLAu6iaywYYx01S.jpg", "release_date": "2015-09-16", "title": "You & I", "video": false, "vote_average": 7.4, "vote_count": 22, "popularity": 5.241}, {"adult": false, "backdrop_path": "/s12HEmmkJfI2mjltI61hGm5kubD.jpg", "genre_ids": [35, 18, 10749], "id": 20770, "original_language": "en", "original_title": "But I'm a Cheerleader", "overview": "Megan is an all-American girl. A cheerleader. She has a boyfriend. But Megan doesn't like kissing her boyfriend very much. And she's pretty touchy with her cheerleader friends. Her conservative parents worry that she must be a lesbian and send her off to \"sexual redirection\" school, where she must, with other lesbians and gays learn how to be straight.", "poster_path": "/eDGH7CHSdkrYcuUJV1e0WS9DlQL.jpg", "release_date": "1999-12-09", "title": "But I'm a Cheerleader", "video": false, "vote_average": 6.8, "vote_count": 246, "popularity": 9.011}, {"id": 84892, "video": false, "vote_count": 6553, "vote_average": 7.7, "title": "The Perks of Being a Wallflower", "release_date": "2012-09-20", "original_language": "en", "original_title": "The Perks of Being a Wallflower", "genre_ids": [18], "backdrop_path": "/uhLcaTPeBpUNgYhZXhDWkj7gMkp.jpg", "adult": false, "overview": "15-year-old freshman Charlie is a wallflower, always watching life from the sidelines, until two charismatic senior students become his mentors. Free-spirited Sam and her stepbrother Patrick help Charlie discover the joys of friendship, first love, music and more, while a teacher sparks Charlie's dreams of becoming a writer.", "poster_path": "/cyNQLnHnXZcTUDXVVSEYmquOTOI.jpg", "popularity": 19.486}, {"adult": false, "backdrop_path": "/k8H7ye6Sab7OrDJoo8Qp5WFGHGk.jpg", "genre_ids": [35, 10749, 18], "id": 244264, "original_language": "en", "original_title": "Laggies", "overview": "Overeducated and underemployed, 28 year old Megan is in the throes of a quarterlife crisis. Squarely into adulthood with no career prospects, no particular motivation to think about her future and no one to relate to, Megan is comfortable lagging a few steps behind - while her friends check off milestones and celebrate their new grown-up status. When her high-school sweetheart proposes, Megan panics and- given an unexpected opportunity to escape for a week - hides out in the home of her new friend, 16-year old Annika and Annika's world-weary single dad Craig.", "poster_path": "/dNcoXoRC7JHiqbe7k5Ufo6syiPP.jpg", "release_date": "2014-09-25", "title": "Laggies", "video": false, "vote_average": 6.1, "vote_count": 788, "popularity": 13.836}, {"adult": false, "backdrop_path": "/gZeJziVigmRqbkEZwKAtSqlLQ6s.jpg", "genre_ids": [18, 10749], "id": 370663, "original_language": "en", "original_title": "Below Her Mouth", "overview": "An unexpected affair quickly escalates into a heart-stopping reality for two women whose passionate connection changes their lives forever.", "poster_path": "/nTGbq37hYLuNy7YgMg0gVLma0NS.jpg", "release_date": "2016-09-10", "title": "Below Her Mouth", "video": false, "vote_average": 6.2, "vote_count": 456, "popularity": 18.664}, {"id": 424694, "video": false, "vote_count": 9728, "vote_average": 8.0, "title": "Bohemian Rhapsody", "release_date": "2018-10-24", "original_language": "en", "original_title": "Bohemian Rhapsody", "genre_ids": [18, 10402], "backdrop_path": "/93xA62uLd5CwMOAs37eQ7vPc1iV.jpg", "adult": false, "overview": "Singer Freddie Mercury, guitarist Brian May, drummer Roger Taylor and bass guitarist John Deacon take the music world by storm when they form the rock 'n' roll band Queen in 1970. Hit songs become instant classics. When Mercury's increasingly wild lifestyle starts to spiral out of control, Queen soon faces its greatest challenge yet \u2013 finding a way to keep the band together amid the success and excess.", "poster_path": "/lHu1wtNaczFPGFDTrjCSzeLPTKN.jpg", "popularity": 37.217}, {"id": 490132, "video": false, "vote_count": 5180, "vote_average": 8.3, "title": "Green Book", "release_date": "2018-11-16", "original_language": "en", "original_title": "Green Book", "genre_ids": [35, 18], "backdrop_path": "/78PjwaykLY2QqhMfWRDvmfbC6EV.jpg", "adult": false, "overview": "Tony Lip, a bouncer in 1962, is hired to drive pianist Don Shirley on a tour through the Deep South in the days when African Americans, forced to find alternate accommodations and services due to segregation laws below the Mason-Dixon Line, relied on a guide called The Negro Motorist Green Book.", "poster_path": "/7BsvSuDQuoqhWmU2fL7W2GOcZHU.jpg", "popularity": 31.469}, {"adult": false, "backdrop_path": "/cLOekK7EmHB1beYUYEXIlcr6mpS.jpg", "genre_ids": [10752, 36, 28, 12, 18, 10749], "id": 1966, "original_language": "en", "original_title": "Alexander", "overview": "Alexander, the King of Macedonia, leads his legions against the giant Persian Empire. After defeating the Persians, he leads his army across the then known world, venturing farther than any westerner had ever gone, all the way to India.", "poster_path": "/cJrnmbsFm5cEt0pHZZ2a1ueH5aT.jpg", "release_date": "2004-11-21", "title": "Alexander", "video": false, "vote_average": 5.8, "vote_count": 1989, "popularity": 29.042}], "total_pages": 1397, "total_results": 27926}, "recommendations": {"page": 1, "results": [{"adult": false, "backdrop_path": null, "genre_ids": [99], "id": 565730, "original_language": "fr", "original_title": "Flesh Memory", "overview": "At age 33, Finley Blake lives alone in a remote house in Austin, Texas. Since her divorce, she has been fighting to get back custody of her son, who was removed from her because of the supposedly immoral nature of her work. Finley is a camgirl: she earns her living by performing customized sexual scenes online.  Flesh Memory is a document of a few days in her life, which is at once profoundly isolated and populated by virtual presences, a life attuned to screens, to so many distant interfaces connecting her to the outside world. The background to Finley\u2019s performance life is her custody battle for her son.", "poster_path": "/lx62EgXy5YvnSQvNmM5W9RZkJso.jpg", "release_date": "2018-07-12", "title": "Flesh Memory", "video": false, "vote_average": 4.3, "vote_count": 4, "popularity": 1.176}], "total_pages": 1, "total_results": 1}, "credits": {"cast": [{"cast_id": 1, "character": "Mati", "credit_id": "596b2f61c3a36813bf00df44", "gender": 1, "id": 1268006, "name": "Sophie Stockinger", "order": 0, "profile_path": "/5hkD40wLVr2MhJ3rOHRxNBM9QW.jpg"}, {"cast_id": 3, "character": "Gabi", "credit_id": "5a6251219251416803004367", "gender": 1, "id": 313606, "name": "Kathrin Resetarits", "order": 1, "profile_path": null}, {"cast_id": 4, "character": "Paul", "credit_id": "5a62513392514167f40041f7", "gender": 2, "id": 1730944, "name": "Dominik Warta", "order": 2, "profile_path": "/zI3VmTfdKwjCIqXLVi3YQrILfif.jpg"}, {"cast_id": 5, "character": "Carla", "credit_id": "5a625147c3a36836b9004353", "gender": 1, "id": 1963404, "name": "Julia Franz Richter", "order": 3, "profile_path": null}, {"cast_id": 6, "character": "Sebi", "credit_id": "5a625157c3a36836b900436c", "gender": 0, "id": 1515850, "name": "Jack Hofer", "order": 4, "profile_path": null}, {"cast_id": 15, "character": "Felix", "credit_id": "5c30b49d0e0a260fc13d5236", "gender": 2, "id": 1419763, "name": "Stefan Pohl", "order": 5, "profile_path": "/qpmxafiNAgY38IFpH705zrFub8H.jpg"}, {"cast_id": 2, "character": "Kogler", "credit_id": "596b2f70c3a3682aaf00d577", "gender": 2, "id": 1497340, "name": "Dominic Marcus Singer", "order": 6, "profile_path": null}, {"cast_id": 7, "character": "Mark", "credit_id": "5a62516692514168030043c7", "gender": 2, "id": 1149700, "name": "Simon Morz\u00e9", "order": 7, "profile_path": null}, {"cast_id": 14, "character": "Deutschlehrerin", "credit_id": "5aa06fdc0e0a2641d101d59b", "gender": 1, "id": 1139352, "name": "Johanna Orsini-Rosenberg", "order": 8, "profile_path": null}, {"cast_id": 18, "character": "Sebi's mother", "credit_id": "5c30c6bfc3a3680b8ca4ab69", "gender": 1, "id": 1071142, "name": "Eva Herzig", "order": 9, "profile_path": "/v1JrNpY9IoKTmL7ZIqCAYDXlh2L.jpg"}, {"cast_id": 19, "character": "Grexi", "credit_id": "5c30daea0e0a2655ee40e007", "gender": 2, "id": 134487, "name": "David Oberkogler", "order": 10, "profile_path": "/5ZWHPEEMkoaNU6ReInsGuG0bY8d.jpg"}], "crew": [{"credit_id": "5a7d8fc40e0a263e8b0062a5", "department": "Costume & Make-Up", "gender": 1, "id": 71291, "job": "Costume Design", "name": "Monika Buttinger", "profile_path": null}, {"credit_id": "5c30b5460e0a2655ee40a69e", "department": "Sound", "gender": 0, "id": 1145870, "job": "Original Music Composer", "name": "Bernhard Fleischmann", "profile_path": null}, {"credit_id": "5a7d8f350e0a263e79005eb8", "department": "Editing", "gender": 0, "id": 1201925, "job": "Editor", "name": "Natalie Schwager", "profile_path": null}, {"credit_id": "596b2f2992514136e70237fd", "department": "Directing", "gender": 1, "id": 1268009, "job": "Director", "name": "Katharina M\u00fcckstein", "profile_path": "/wa4I0tOAxQGtJ7kDmCaXN6woNK1.jpg"}, {"credit_id": "5a62517c92514167f1004450", "department": "Writing", "gender": 1, "id": 1268009, "job": "Writer", "name": "Katharina M\u00fcckstein", "profile_path": "/wa4I0tOAxQGtJ7kDmCaXN6woNK1.jpg"}, {"credit_id": "5a7d8fd20e0a263e79005f4c", "department": "Production", "gender": 1, "id": 1301143, "job": "Casting", "name": "Rita Waszilovics", "profile_path": null}, {"credit_id": "5a7d8f48c3a368447d0057ed", "department": "Camera", "gender": 2, "id": 1576285, "job": "Director of Photography", "name": "Michael Schindegger", "profile_path": null}, {"credit_id": "5c30b5b6c3a36819bba48a4f", "department": "Sound", "gender": 0, "id": 1856761, "job": "Sound Re-Recording Mixer", "name": "Alexander Koller", "profile_path": null}, {"credit_id": "5a7d8fb892514154fe005b1c", "department": "Art", "gender": 0, "id": 1974946, "job": "Production Design", "name": "Katharina Haring", "profile_path": null}]}}