{"adult": false, "backdrop_path": "/eaNNAml7KuQWILQro11GTuUJceO.jpg", "belongs_to_collection": null, "budget": 2900000, "genres": [{"id": 18, "name": "Drama"}, {"id": 36, "name": "History"}, {"id": 28, "name": "Action"}], "homepage": "https://film.ua/en/production/filmsandseries/projects/351", "id": 468816, "imdb_id": "tt7439064", "original_language": "uk", "original_title": "\u0417\u0430\u0445\u0430\u0440 \u0411\u0435\u0440\u043a\u0443\u0442", "overview": "The Mongol Empire had grown to the largest the world had ever known. It's armies now laid siege to much of Eastern Europe. A small village fights for freedom in the frontier landscape of the Carpathian Mountains.", "popularity": 4.438, "poster_path": "/ajOov0Nr23fMfhsLJX1TOzy4srX.jpg", "production_companies": [{"id": 93035, "logo_path": "/hwFOSNz27DeKg7MjwnZMcaDRkNp.png", "name": "Kinorob", "origin_country": "UA"}, {"id": 114278, "logo_path": null, "name": "Cinema Day", "origin_country": ""}], "production_countries": [{"iso_3166_1": "UA", "name": "Ukraine"}], "release_date": "2019-10-10", "revenue": 0, "runtime": 110, "spoken_languages": [{"iso_639_1": "uk", "name": "\u0423\u043a\u0440\u0430\u0457\u043d\u0441\u044c\u043a\u0438\u0439"}], "status": "Released", "tagline": "Freedom is my nature.", "title": "The Rising Hawk", "video": false, "vote_average": 6.8, "vote_count": 7, "keywords": {"keywords": [{"id": 1738, "name": "ukraine"}, {"id": 9682, "name": "history"}, {"id": 181242, "name": "mongol"}, {"id": 215160, "name": "13th century"}, {"id": 229900, "name": "carpathians"}]}, "similar": {"page": 1, "results": [{"adult": false, "backdrop_path": "/4bHX7nAmjMiZO9eotJITyro0raw.jpg", "genre_ids": [18], "id": 376866, "original_language": "en", "original_title": "Jackie", "overview": "An account of the days of First Lady, Jacqueline Kennedy, in the immediate aftermath of John F. Kennedy's assassination in 1963.", "poster_path": "/iMkl2Akc1f4CSJCieVwczM4KjZR.jpg", "release_date": "2016-12-02", "title": "Jackie", "video": false, "vote_average": 6.5, "vote_count": 1554, "popularity": 17.637}, {"id": 197, "video": false, "vote_count": 6047, "vote_average": 7.9, "title": "Braveheart", "release_date": "1995-05-24", "original_language": "en", "original_title": "Braveheart", "genre_ids": [28, 18, 36, 10752], "backdrop_path": "/7A3uAcB6KAScHcFw0giptE1mhAZ.jpg", "adult": false, "overview": "Enraged at the slaughter of Murron, his new bride and childhood love, Scottish warrior William Wallace slays a platoon of the local English lord's soldiers. This leads the village to revolt and, eventually, the entire country to rise up against English rule.", "poster_path": "/or1gBugydmjToAEq7OZY0owwFk.jpg", "popularity": 23.118}, {"adult": false, "backdrop_path": "/3BY2I6iLunYRkkl8Hb3hZl8O9MQ.jpg", "genre_ids": [18, 36], "id": 76203, "original_language": "en", "original_title": "12 Years a Slave", "overview": "In the pre-Civil War United States, Solomon Northup, a free black man from upstate New York, is abducted and sold into slavery. Facing cruelty as well as unexpected kindnesses Solomon struggles not only to stay alive, but to retain his dignity. In the twelfth year of his unforgettable odyssey, Solomon\u2019s chance meeting with a Canadian abolitionist will forever alter his life.", "poster_path": "/kb3X943WMIJYVg4SOAyK0pmWL5D.jpg", "release_date": "2013-10-18", "title": "12 Years a Slave", "video": false, "vote_average": 7.9, "vote_count": 7315, "popularity": 21.97}, {"adult": false, "backdrop_path": "/bRGtZsVj2Qq8r5CCsNYmQUPF4z4.jpg", "genre_ids": [80, 18, 878, 53], "id": 10559, "original_language": "en", "original_title": "Frequency", "overview": "When a rare phenomenon gives police officer John Sullivan the chance to speak to his father, 30 years in the past, he takes the opportunity to prevent his dad's tragic death.  After his actions inadvertently give rise to a series of brutal murders he and his father must find a way to fix the consequences of altering time.", "poster_path": "/n0QAAZmIaPPIShVkk8eiKwfGV9.jpg", "release_date": "2000-04-28", "title": "Frequency", "video": false, "vote_average": 7.1, "vote_count": 897, "popularity": 14.026}, {"id": 480530, "video": false, "vote_count": 2746, "vote_average": 6.8, "title": "Creed II", "release_date": "2018-11-21", "original_language": "en", "original_title": "Creed II", "genre_ids": [18], "backdrop_path": "/hZqx2JcZVjHSY2lMEMDC0XlObiw.jpg", "adult": false, "overview": "Between personal obligations and training for his next big fight against an opponent with ties to his family's past, Adonis Creed is up against the challenge of his life.", "poster_path": "/v3QyboWRoA4O9RbcsqH8tJMe8EB.jpg", "popularity": 23.737}, {"id": 369972, "video": false, "vote_count": 3001, "vote_average": 7.1, "title": "First Man", "release_date": "2018-10-11", "original_language": "en", "original_title": "First Man", "genre_ids": [18, 36], "backdrop_path": "/jrudoaXcoLyHRPdolyOGemXgPEs.jpg", "adult": false, "overview": "A look at the life of the astronaut, Neil Armstrong, and the legendary space mission that led him to become the first man to walk on the Moon on July 20, 1969.", "poster_path": "/i91mfvFcPPlaegcbOyjGgiWfZzh.jpg", "popularity": 27.464}, {"adult": false, "backdrop_path": "/dAK3Sql45m1xyMzCm5LDa4Bmucx.jpg", "genre_ids": [878, 18], "id": 13363, "original_language": "en", "original_title": "The Man from Earth", "overview": "An impromptu goodbye party for Professor John Oldman becomes a mysterious interrogation after the retiring scholar reveals to his colleagues he never ages and has walked the earth for 14,000 years.", "poster_path": "/zYP2lBJ5GRV1HaIi4USqRl3phe.jpg", "release_date": "2007-06-10", "title": "The Man from Earth", "video": false, "vote_average": 7.7, "vote_count": 1237, "popularity": 15.764}, {"id": 549559, "video": false, "vote_count": 205, "vote_average": 8.1, "title": "Apollo 11", "release_date": "2019-03-01", "original_language": "en", "original_title": "Apollo 11", "genre_ids": [99, 36], "backdrop_path": "/cRW5341t1y61XK7mrhTvwoodZz6.jpg", "adult": false, "overview": "A look at the Apollo 11 mission to land on the moon led by commander Neil Armstrong and pilot Buzz Aldrin.", "poster_path": "/woLMRroHyoTGoXyxdEeBJEYBFtu.jpg", "popularity": 16.318}, {"id": 384018, "video": false, "vote_count": 2406, "vote_average": 6.6, "title": "Fast & Furious Presents: Hobbs & Shaw", "release_date": "2019-08-01", "original_language": "en", "original_title": "Fast & Furious Presents: Hobbs & Shaw", "genre_ids": [28, 12, 35], "backdrop_path": "/qAhedRxRYWZAgZ8O8pHIl6QHdD7.jpg", "adult": false, "overview": "Ever since US Diplomatic Security Service Agent Hobbs and lawless outcast Shaw first faced off, they just have swapped smacks and bad words. But when cyber-genetically enhanced anarchist Brixton's ruthless actions threaten the future of humanity, both join forces to defeat him. (A spin-off of \u201cThe Fate of the Furious,\u201d focusing on Johnson's Luke Hobbs and Statham's Deckard Shaw.)", "poster_path": "/kvpNZAQow5es1tSY6XW2jAZuPPG.jpg", "popularity": 69.698}, {"id": 6637, "video": false, "vote_count": 3261, "vote_average": 6.2, "title": "National Treasure: Book of Secrets", "release_date": "2007-12-13", "original_language": "en", "original_title": "National Treasure: Book of Secrets", "genre_ids": [28, 12, 9648, 53], "backdrop_path": "/ivrtuhSZnkEqzkdCyFXcH8UbPVp.jpg", "adult": false, "overview": "Benjamin Franklin Gates and Dr. Abigail Chase re-team with Riley Poole and, now armed with a stack of long-lost pages from John Wilkes Booth\u2019s diary, Ben must follow a clue left there to prove his ancestor\u2019s innocence in the assassination of Abraham Lincoln.", "poster_path": "/sHr05tz70r7y8A6XrdCBsHPK7tF.jpg", "popularity": 25.219}, {"id": 1677, "video": false, "vote_count": 961, "vote_average": 7.4, "title": "Ray", "release_date": "2004-10-29", "original_language": "en", "original_title": "Ray", "genre_ids": [18, 10402], "backdrop_path": "/lcVQocaLf4wf5Inmwj7TtrPRnPp.jpg", "adult": false, "overview": "Born on a sharecropping plantation in Northern Florida, Ray Charles went blind at seven. Inspired by a fiercely independent mom who insisted he make his own way, He found his calling and his gift behind a piano keyboard. Touring across the Southern musical circuit, the soulful singer gained a reputation and then exploded with worldwide fame when he pioneered couping gospel and country together.", "poster_path": "/fPDsBL0MdegEvyPhim9b5srHOqG.jpg", "popularity": 16.505}, {"id": 181533, "video": false, "vote_count": 3912, "vote_average": 6.1, "title": "Night at the Museum: Secret of the Tomb", "release_date": "2014-12-17", "original_language": "en", "original_title": "Night at the Museum: Secret of the Tomb", "genre_ids": [12, 35, 14, 10751], "backdrop_path": "/8b9mOlxer8DVw4k368IXNG5HPBI.jpg", "adult": false, "overview": "When the magic powers of The Tablet of Ahkmenrah begin to die out, Larry Daley spans the globe, uniting favorite and new characters while embarking on an epic quest to save the magic before it is gone forever.", "poster_path": "/tWwASv4CU1Au1IukacdSUewDCV3.jpg", "popularity": 38.315}, {"adult": false, "backdrop_path": "/5RPXs9g0sZ9Woo4pNLxdXdge7tc.jpg", "genre_ids": [14, 27, 35], "id": 766, "original_language": "en", "original_title": "Army of Darkness", "overview": "A man is accidentally transported to 1300 A.D., where he must battle an army of the dead and retrieve the Necronomicon so he can return home.", "poster_path": "/2eZKDIwLNnySbwqQtAaUz0kYDIL.jpg", "release_date": "1992-10-09", "title": "Army of Darkness", "video": false, "vote_average": 7.3, "vote_count": 1664, "popularity": 18.122}, {"id": 1648, "video": false, "vote_count": 854, "vote_average": 6.8, "title": "Bill & Ted's Excellent Adventure", "release_date": "1989-02-17", "original_language": "en", "original_title": "Bill & Ted's Excellent Adventure", "genre_ids": [12, 35, 878], "backdrop_path": "/ca925HbhdgTdjEs3VGg3SX0k86a.jpg", "adult": false, "overview": "A pair of failing high school students\u2014Bill S. Preston, Esquire and Ted \"Theodore\" Logan\u2014are visited by a time traveler from the future, who takes them on an adventure through time to gather up actual historical figures to help them with a history report.", "poster_path": "/b2yKJ1STPklVSRtso2Tg4TPXK7u.jpg", "popularity": 15.545}, {"id": 524434, "video": false, "vote_count": 0, "vote_average": 0.0, "title": "Eternals", "release_date": "2020-11-04", "original_language": "en", "original_title": "Eternals", "genre_ids": [28, 12, 878], "backdrop_path": "/rrQBJqDZ8WbkcQEkLQsrCXwCoGZ.jpg", "adult": false, "overview": "Marvel Studios\u2019 The Eternals features an exciting new team of Super Heroes in the Marvel Cinematic Universe, ancient aliens who have been living on Earth in secret for thousands of years. Following the events of Avengers: Endgame, an unexpected tragedy forces them out of the shadows to reunite against mankind\u2019s most ancient enemy, The Deviants.", "poster_path": "/uRc0RTpUszMFakhXouZzK1clLsb.jpg", "popularity": 13.76}, {"id": 402897, "video": false, "vote_count": 877, "vote_average": 7.0, "title": "The Death of Stalin", "release_date": "2017-10-20", "original_language": "en", "original_title": "The Death of Stalin", "genre_ids": [35, 36], "backdrop_path": "/tx5TFMF85qU2Ug4TRIGQZbDpzFA.jpg", "adult": false, "overview": "When tyrannical dictator Josef Stalin dies in 1953, his parasitic cronies square off in a frantic power struggle to become the next Soviet leader. Among the contenders are the dweebish Georgy Malenkov, the wily Nikita Khrushchev and Lavrenti Beria, the sadistic secret police chief.", "poster_path": "/xAKqG5SpsHU7vI6Fh4UYxFrDDZZ.jpg", "popularity": 14.095}, {"id": 433627, "video": false, "vote_count": 220, "vote_average": 5.8, "title": "7 Days in Entebbe", "release_date": "2018-03-15", "original_language": "en", "original_title": "7 Days in Entebbe", "genre_ids": [80, 18, 53], "backdrop_path": "/er6vh4AXzkRiXfLXSvn2eHXuxbp.jpg", "adult": false, "overview": "In 1976, four hijackers take over an Air France airplane en route from Tel Aviv to Paris and force it to land in Entebbe, Uganda. With 248 passengers on board, one of the most daring rescue missions ever is set in motion.", "poster_path": "/nrC63ikbK4jDp3knvBqxPoWYEMM.jpg", "popularity": 15.577}, {"adult": false, "backdrop_path": "/vxsR4pjm8VNFrywz9TQLj3loxNB.jpg", "genre_ids": [12, 18, 36], "id": 26428, "original_language": "es", "original_title": "Agora", "overview": "A historical drama set in Roman Egypt, concerning philosopher Hypatia of Alexandria and her relationship with her slave Davus, who is torn between his love for her and the possibility of gaining his freedom by joining the rising tide of Christianity.", "poster_path": "/hZcl4TuZYTNWztIP8Zpvr6YLxiY.jpg", "release_date": "2009-05-17", "title": "Agora", "video": false, "vote_average": 6.9, "vote_count": 825, "popularity": 14.461}, {"id": 127560, "video": false, "vote_count": 451, "vote_average": 6.9, "title": "The Railway Man", "release_date": "2013-12-02", "original_language": "en", "original_title": "The Railway Man", "genre_ids": [18, 36], "backdrop_path": "/6AGU1BJZthZ8WGNHiLeI0NjR3ie.jpg", "adult": false, "overview": "A victim from World War II's \"Death Railway\" sets out to find those responsible for his torture. A true story.", "poster_path": "/3iU9KLIhvc3pdl1SkeD0gv4BO0f.jpg", "popularity": 10.366}, {"adult": false, "backdrop_path": "/hxGSxNREU4xbA1kfiJRvnPPoL29.jpg", "genre_ids": [10749, 12, 28, 36], "id": 38543, "original_language": "en", "original_title": "Ironclad", "overview": "In the year 1215, the rebel barons of England have forced their despised King John to put his royal seal on the Magna Carta, a seminal document that upheld the rights of free men. Yet within months of pledging himself to the great charter, the King reneged on his word and assembled a mercenary army on the south coast of England with the intention of bringing the barons and the country back under his tyrannical rule. Barring his way stood the mighty Rochester castle, a place that would become the symbol of the rebel's momentous struggle for justice and freedom.", "poster_path": "/kxAkA3cL0pSiGlW1JeiGHJr5Jv2.jpg", "release_date": "2011-03-03", "title": "Ironclad", "video": false, "vote_average": 6.1, "vote_count": 409, "popularity": 13.233}], "total_pages": 49, "total_results": 961}, "recommendations": {"page": 1, "results": [{"id": 402897, "video": false, "vote_count": 877, "vote_average": 7.0, "title": "The Death of Stalin", "release_date": "2017-10-20", "original_language": "en", "original_title": "The Death of Stalin", "genre_ids": [35, 36], "backdrop_path": "/tx5TFMF85qU2Ug4TRIGQZbDpzFA.jpg", "adult": false, "overview": "When tyrannical dictator Josef Stalin dies in 1953, his parasitic cronies square off in a frantic power struggle to become the next Soviet leader. Among the contenders are the dweebish Georgy Malenkov, the wily Nikita Khrushchev and Lavrenti Beria, the sadistic secret police chief.", "poster_path": "/xAKqG5SpsHU7vI6Fh4UYxFrDDZZ.jpg", "popularity": 14.095}], "total_pages": 1, "total_results": 1}, "credits": {"cast": [{"cast_id": 3, "character": "Zakhar Berkut", "credit_id": "5c546547c3a36847899af97e", "gender": 2, "id": 418, "name": "Robert Patrick", "order": 1, "profile_path": "/dpUIbzLpExv69faSRyww8A4ydxf.jpg"}, {"cast_id": 4, "character": "Tuhar Vovk", "credit_id": "5c5465be9251415e3464360b", "gender": 2, "id": 2478, "name": "Tommy Flanagan", "order": 2, "profile_path": "/eVHvVN05wJSINFlkjxjwOwe6C3L.jpg"}, {"cast_id": 5, "character": "Ivan", "credit_id": "5c5465e6c3a36872908565c4", "gender": 2, "id": 1210153, "name": "Rocky Myers", "order": 3, "profile_path": "/9pigmwnqQlUqX0U4Pg5BeYZYQGY.jpg"}, {"cast_id": 6, "character": "Myroslava", "credit_id": "5c546604c3a36847779bf5fa", "gender": 1, "id": 1541266, "name": "Poppy Drayton", "order": 4, "profile_path": "/mx81cyurTIGDtoWcNPcK4fDKxAu.jpg"}, {"cast_id": 7, "character": "Maksym", "credit_id": "5c5466289251410e0a65604f", "gender": 2, "id": 1381981, "name": "Alex MacNicoll", "order": 5, "profile_path": "/1RTMIaEXDh0dfq829Opxsq65ykH.jpg"}, {"cast_id": 8, "character": "Petro", "credit_id": "5c546650c3a36847939b0352", "gender": 2, "id": 1916750, "name": "Andriy Isayenko", "order": 6, "profile_path": "/gaF5cD2rYHk3rAsz3o3wUB2ODZp.jpg"}, {"cast_id": 9, "character": "", "credit_id": "5c546681c3a36847779bf683", "gender": 2, "id": 2050452, "name": "Oleh Voloshchenko", "order": 7, "profile_path": "/5j64MdmVqgJ12qKP7kBPwKx4gst.jpg"}, {"cast_id": 10, "character": "Boroldai", "credit_id": "5c5466bcc3a368478c9cb6f9", "gender": 0, "id": 1988888, "name": "Tserenbold Tsegmid", "order": 8, "profile_path": null}, {"cast_id": 11, "character": "", "credit_id": "5c5466d992514149ab50ea92", "gender": 0, "id": 1148510, "name": "Ayan Utepbergenov", "order": 9, "profile_path": null}, {"cast_id": 12, "character": "", "credit_id": "5c546707925141544860221d", "gender": 2, "id": 1916752, "name": "Viktor Zhdanov", "order": 10, "profile_path": "/sFiBiWS9wbnrJUf6hmlhlDKO7j1.jpg"}, {"cast_id": 13, "character": "", "credit_id": "5c5467270e0a2612ccd3fbae", "gender": 0, "id": 1556838, "name": "Erzhan Nurymbet", "order": 11, "profile_path": null}, {"cast_id": 14, "character": "Rada Berkut", "credit_id": "5c5467490e0a26494dde4877", "gender": 1, "id": 739, "name": "Alison Doody", "order": 12, "profile_path": "/iXP0rdo8vRLU0YwWejFNwmEQtyV.jpg"}, {"cast_id": 15, "character": "Rosana", "credit_id": "5c54676ec3a36847779bf76e", "gender": 0, "id": 2232021, "name": "Alina Kovalenko", "order": 13, "profile_path": null}, {"cast_id": 16, "character": "Levko", "credit_id": "5c5467b6c3a3680b57838f61", "gender": 2, "id": 2232022, "name": "Oleh Stefanov", "order": 14, "profile_path": "/67vSppm2KF1X8X20d5rfCsnXldA.jpg"}, {"cast_id": 17, "character": "Bohun", "credit_id": "5c5467d892514151a9608e51", "gender": 0, "id": 1395206, "name": "Oliver Trevena", "order": 15, "profile_path": "/j0ejU7vdE7lRxYKKrhA5aWw1zCT.jpg"}, {"cast_id": 18, "character": "Ustia", "credit_id": "5c5468009251410e24660e98", "gender": 0, "id": 2232024, "name": "Maryna Koshkina", "order": 16, "profile_path": null}, {"cast_id": 19, "character": "Sokil", "credit_id": "5c546849c3a3680b5783906c", "gender": 0, "id": 2232028, "name": "Stanislav Lozovskyi", "order": 17, "profile_path": null}], "crew": [{"credit_id": "5c546bed9251410e24661665", "department": "Directing", "gender": 2, "id": 174036, "job": "Director", "name": "John Wynn", "profile_path": null}, {"credit_id": "5c546c5e9251410d9f4eb8fc", "department": "Production", "gender": 0, "id": 582827, "job": "Producer", "name": "Raja Collins ", "profile_path": null}, {"credit_id": "5c546c410e0a264965dfcc06", "department": "Production", "gender": 2, "id": 954441, "job": "Producer", "name": "Jeff Rice", "profile_path": null}, {"credit_id": "5b0177efc3a3686c8900fbc2", "department": "Directing", "gender": 2, "id": 1272703, "job": "Director", "name": "Akhtem Seitablaiev", "profile_path": "/7T69aDcZBWpXUtmj29zJk7K1oyp.jpg"}, {"credit_id": "5c546c220e0a26494dde4e21", "department": "Production", "gender": 2, "id": 1461680, "job": "Producer", "name": "Yehor Olesov", "profile_path": "/AcCxfWkmCdcXDtB3qAlvee8HfEh.jpg"}, {"credit_id": "5c547028c3a368576a9b7ee8", "department": "Production", "gender": 0, "id": 1500925, "job": "Production Designer", "name": "Vlad Odudenko", "profile_path": null}, {"credit_id": "5c546dc592514154486029ae", "department": "Writing", "gender": 0, "id": 1739820, "job": "Script Editor", "name": "Rich Ronat", "profile_path": null}, {"credit_id": "5c546cfec3a368576a9b7624", "department": "Camera", "gender": 2, "id": 1752026, "job": "Director of Photography", "name": "Yurii Korol", "profile_path": "/saOLjHlZkr4XHtanDBr2fKbbRtL.jpg"}, {"credit_id": "5c546c919251410e24661742", "department": "Production", "gender": 2, "id": 2232057, "job": "Producer", "name": "Yurii Karnovskyi", "profile_path": null}, {"credit_id": "5c546d79c3a3680b57839868", "department": "Writing", "gender": 2, "id": 2232061, "job": "Script Editor", "name": "Yaroslav Voitseshek", "profile_path": "/eWXKUXGLm10jEZT0MGDG2KonRYY.jpg"}, {"credit_id": "5c546ffdc3a3680b57839ebd", "department": "Costume & Make-Up", "gender": 0, "id": 2232071, "job": "Costume Designer", "name": "Antonina Belinska", "profile_path": null}, {"credit_id": "5d123b64925141076aba3b8d", "department": "Camera", "gender": 2, "id": 2347440, "job": "Aerial Director of Photography", "name": "Taras Miskiv", "profile_path": null}, {"credit_id": "5db9bb580f2fbd001176478b", "department": "Visual Effects", "gender": 2, "id": 2444697, "job": "CG Artist", "name": "Oleh Verenko", "profile_path": "/oIzaTKYd24sfsLqRFBCm0QiSqfT.jpg"}]}}