{"adult": false, "backdrop_path": "/gqhsAF40kRSCRWJERo4j94OFJ4T.jpg", "belongs_to_collection": null, "budget": 0, "genres": [{"id": 27, "name": "Horror"}, {"id": 53, "name": "Thriller"}, {"id": 9648, "name": "Mystery"}], "homepage": "http://www.thewickedgift-movie.com", "id": 468904, "imdb_id": "tt6525978", "original_language": "it", "original_title": "The Wicked Gift", "overview": "Ethan is a young, shy and rather reserved designer who has suffered from insomnia for many years due to his terrible nightmares. Believing he has a personality disorder he decides to see a therapist to solve his problem, but it will be thanks to the help of his best friend and a medium that he will face a long journey, a journey that will lead him to discover that his nightmares hide a shocking truth, something darker and more sinister than he ever imagined.", "popularity": 1.289, "poster_path": "/hwo0xq4dTQQDPLG97gev4Jt3f61.jpg", "production_companies": [{"id": 93069, "logo_path": null, "name": "L/D Production Company", "origin_country": ""}, {"id": 93070, "logo_path": null, "name": "Movie Planet", "origin_country": ""}], "production_countries": [{"iso_3166_1": "IT", "name": "Italy"}], "release_date": "2017-11-23", "revenue": 0, "runtime": 112, "spoken_languages": [{"iso_639_1": "it", "name": "Italiano"}], "status": "Released", "tagline": "", "title": "The Wicked Gift", "video": false, "vote_average": 6.4, "vote_count": 25, "keywords": {"keywords": [{"id": 9950, "name": "thriller"}, {"id": 12565, "name": "psychological thriller"}, {"id": 162846, "name": "ghost"}, {"id": 208351, "name": "wickedness"}, {"id": 237147, "name": "the conjuring"}, {"id": 237148, "name": "roberto d'antona"}, {"id": 237149, "name": "the wicked gift"}, {"id": 237150, "name": "james wan"}]}, "similar": {"page": 1, "results": [{"adult": false, "backdrop_path": "/zZAJke7HMmQfc52L1AzvQkmMR3e.jpg", "genre_ids": [53, 27, 18], "id": 288158, "original_language": "en", "original_title": "The Woman in Black 2: Angel of Death", "overview": "40 years after the first haunting at Eel Marsh House, a group of children evacuated from WWII London arrive, awakening the house's darkest inhabitant.", "poster_path": "/kzWRtyMtazWA22LJXA64KKZ3slY.jpg", "release_date": "2014-12-30", "title": "The Woman in Black 2: Angel of Death", "video": false, "vote_average": 5.1, "vote_count": 681, "popularity": 9.114}, {"adult": false, "backdrop_path": "/yjorFsCy0DsSiK0HwABu0SHQv1P.jpg", "genre_ids": [27], "id": 157547, "original_language": "en", "original_title": "Oculus", "overview": "A woman tries to exonerate her brother's murder conviction by proving that the crime was committed by a supernatural phenomenon.", "poster_path": "/ic8C94ylSfcoLkXqPOKzL6DqPcH.jpg", "release_date": "2014-04-03", "title": "Oculus", "video": false, "vote_average": 6.4, "vote_count": 1917, "popularity": 11.973}, {"adult": false, "backdrop_path": "/97vocRyj35cdKwCpK4ZEfb7oFZm.jpg", "genre_ids": [27, 53], "id": 77949, "original_language": "en", "original_title": "The Awakening", "overview": "1921 England is overwhelmed by the loss and grief of World War I. Hoax exposer Florence Cathcart (Hall) visits a boarding school to explain sightings of a child ghost.", "poster_path": "/1iIB1eR9pFxoOdAp4FhPCYwQ1TA.jpg", "release_date": "2011-08-17", "title": "The Awakening", "video": false, "vote_average": 6.4, "vote_count": 868, "popularity": 15.354}, {"id": 587138, "video": false, "vote_count": 0, "vote_average": 0.0, "title": "Driven", "release_date": "2019-02-09", "original_language": "en", "original_title": "Driven", "genre_ids": [35, 27, 53], "backdrop_path": null, "adult": false, "overview": "Emerson Graham's nights as a cab driver are filled with annoyances and inconveniences, but until tonight, never attacks and disappearances. After picking up a mysterious passenger her evening goes from working a job to performing a quest as they must race against the clock to defeat a force of evil. The meter is running.", "poster_path": "/ca0URmLciw4rZgjWU6y2nOapyGU.jpg", "popularity": 2.366}, {"id": 416234, "video": false, "vote_count": 1007, "vote_average": 5.8, "title": "Winchester", "release_date": "2018-02-02", "original_language": "en", "original_title": "Winchester", "genre_ids": [14, 27, 9648, 53], "backdrop_path": "/d4wnMDSrQonB9iArMzd90WqaoJ4.jpg", "adult": false, "overview": "San Jose, California, 1906. Isolated in her labyrinthine mansion, eccentric firearm heiress Sarah Winchester believes that she is being haunted by the souls of those killed by the guns manufactured by her company.", "poster_path": "/tHDtskokZeO9B3JBdR1dSH0uqad.jpg", "popularity": 13.27}, {"adult": false, "backdrop_path": "/w8jINuXklxghTAHNxt0NQYaAN1C.jpg", "genre_ids": [27], "id": 242512, "original_language": "en", "original_title": "Ouija", "overview": "A group of friends must confront their most terrifying fears when they awaken the dark powers of an ancient spirit board.", "poster_path": "/vHTXN00kJktCbSLV50Vbk9siNiX.jpg", "release_date": "2014-10-24", "title": "Ouija", "video": false, "vote_average": 5.1, "vote_count": 1835, "popularity": 21.913}, {"adult": false, "backdrop_path": "/3uwyXMZN93PRkShUxvLrufwVAc2.jpg", "genre_ids": [80, 18, 27, 9648, 53], "id": 452507, "original_language": "en", "original_title": "1922", "overview": "A simple yet proud rancher conspires to murder his wife for financial gain, convincing his teenage son to participate.", "poster_path": "/q4FQOiSRhTLWulHl5Vpg37FMArH.jpg", "release_date": "2017-10-20", "title": "1922", "video": false, "vote_average": 5.9, "vote_count": 1491, "popularity": 14.757}, {"adult": false, "backdrop_path": "/kQOLgJGvFjQ7EwGfaPkW9dlGFXJ.jpg", "genre_ids": [27, 9648], "id": 565, "original_language": "en", "original_title": "The Ring", "overview": "It sounded like just another urban legend: A videotape filled with nightmarish images, leading to a phone call foretelling the viewer's death in exactly seven days. As a newspaper reporter, Rachel Keller was naturally skeptical of the story, until four teenagers all met with mysterious deaths exactly one week after watching just such a tape. Allowing her investigative curiosity to get the better of her, Rachel tracks down the video... and watches it. Now she has just seven days to unravel the mystery of the Ring.", "poster_path": "/zHJFdhqEXZJxG653oZvOM3PmNON.jpg", "release_date": "2002-10-18", "title": "The Ring", "video": false, "vote_average": 6.6, "vote_count": 3616, "popularity": 12.821}, {"id": 625719, "video": false, "vote_count": 1, "vote_average": 3.0, "title": "Martin's Close", "release_date": "2019-12-24", "original_language": "en", "original_title": "Martin's Close", "genre_ids": [27, 10770], "backdrop_path": "/gcccicGB2eKpE8K50wGXa9GJY3M.jpg", "adult": false, "overview": "Part of the long running tradition of 'A Ghost Story For Christmas' on BBC Four in the UK, and the third instalment presented by Mark Gatiss. A young squire accused of murdering a young girl that did not return his feelings of love reveals a supernatural secret at his trial.", "poster_path": "/ArhYVKnfILuWERuUyuvWJd1jqRm.jpg", "popularity": 6.706}, {"id": 10014, "video": false, "vote_count": 874, "vote_average": 5.8, "title": "A Nightmare on Elm Street Part 2: Freddy's Revenge", "release_date": "1985-10-31", "original_language": "en", "original_title": "A Nightmare on Elm Street Part 2: Freddy's Revenge", "genre_ids": [27], "backdrop_path": "/tJTrNDt1242xe4zlatlZfDMvWjg.jpg", "adult": false, "overview": "A new family moves into the house on Elm Street, and before long, the kids are again having nightmares about deceased child murderer Freddy Krueger. This time, Freddy attempts to possess a teenage boy to cause havoc in the real world, and can only be overcome if the boy's sweetheart can master her fear.", "poster_path": "/seEMZxo6bhHWbWPNcBQfsMAk39F.jpg", "popularity": 16.661}, {"id": 282035, "video": false, "vote_count": 4849, "vote_average": 5.5, "title": "The Mummy", "release_date": "2017-06-06", "original_language": "en", "original_title": "The Mummy", "genre_ids": [28, 12, 14, 27, 53], "backdrop_path": "/5TC6gKrmtnoGE3c3lHeNPevkn4Z.jpg", "adult": false, "overview": "Though safely entombed in a crypt deep beneath the unforgiving desert, an ancient queen whose destiny was unjustly taken from her is awakened in our current day, bringing with her malevolence grown over millennia, and terrors that defy human comprehension.", "poster_path": "/zxkY8byBnCsXodEYpK8tmwEGXBI.jpg", "popularity": 22.059}, {"id": 448095, "video": false, "vote_count": 308, "vote_average": 6.8, "title": "I Still See You", "release_date": "2018-09-27", "original_language": "en", "original_title": "I Still See You", "genre_ids": [14, 53], "backdrop_path": "/7rqpB7coXaNvTVMWb5vL8qU0pBp.jpg", "adult": false, "overview": "A spellbinding and romantic supernatural thriller. Ten years after an apocalyptic event left the world haunted by ghosts, Roni receives a threatening message from beyond the grave. Joining forces with a mysterious classmate, Kirk, Roni descends into a shadow world that blurs the bounds of the living and the dead-and begins a desperate race against time to stop a cunning killer.", "poster_path": "/9fqzZs922V8OmwgO11Eqclof2mQ.jpg", "popularity": 16.612}, {"adult": false, "backdrop_path": "/hgn5SrO9lRh6yRkoubBH9x1NqHm.jpg", "genre_ids": [27, 53], "id": 416160, "original_language": "en", "original_title": "The Vault", "overview": "Two estranged sisters are forced to rob a bank in order to save their brother. But this is no ordinary bank.", "poster_path": "/ycK6nMAEjViBT4b3scuKpNRnilB.jpg", "release_date": "2017-09-01", "title": "The Vault", "video": false, "vote_average": 4.8, "vote_count": 221, "popularity": 13.994}, {"adult": false, "backdrop_path": "/59baGxEztxeXW1oFjs8EBgXxTXk.jpg", "genre_ids": [27, 53], "id": 91586, "original_language": "en", "original_title": "Insidious: Chapter 2", "overview": "The haunted Lambert family seeks to uncover the mysterious childhood secret that has left them dangerously connected to the spirit world.", "poster_path": "/vmWgw1Lsc6bHThA6S2k8fPsROaI.jpg", "release_date": "2013-09-12", "title": "Insidious: Chapter 2", "video": false, "vote_average": 6.6, "vote_count": 2515, "popularity": 21.591}, {"id": 2655, "video": false, "vote_count": 1018, "vote_average": 6.4, "title": "What Lies Beneath", "release_date": "2000-07-21", "original_language": "en", "original_title": "What Lies Beneath", "genre_ids": [18, 27, 9648, 53], "backdrop_path": "/h3A6QXt8t35YQrSvbF9hOkKeeB9.jpg", "adult": false, "overview": "When Claire Spencer starts hearing ghostly voices and seeing spooky images, she wonders if an otherworldly spirit is trying to contact her. All the while, her husband tries to reassure her by telling her it's all in her head. But as Claire investigates, she discovers that the man she loves might know more than he's letting on.", "poster_path": "/A1mrfm8LEv7L28q50ld8QI5z9Iu.jpg", "popularity": 15.628}, {"adult": false, "backdrop_path": "/w4w8CTEe4isWO2TzDSQ3MV3br9l.jpg", "genre_ids": [14, 35, 10751], "id": 8839, "original_language": "en", "original_title": "Casper", "overview": "Furious that her late father only willed her his gloomy-looking mansion rather than his millions, Carrigan Crittenden is ready to burn the place to the ground when she discovers a map to a treasure hidden in the house. But when she enters the rickety mansion to seek her claim, she is frightened away by a wicked wave of ghosts. Determined to get her hands on this hidden fortune, she hires afterlife therapist Dr. James Harvey to exorcise the ghosts from the mansion. Harvey and his daughter Kat move in, and soon Kat meets Casper, the ghost of a young boy who's \"the friendliest ghost you know.\" But not so friendly are Casper's uncles--Stretch, Fatso and Stinkie--who are determined to drive all \"fleshies\" away.", "poster_path": "/1WeumvndgPE3hopKQqXbCKO26oH.jpg", "release_date": "1995-05-26", "title": "Casper", "video": false, "vote_average": 6.2, "vote_count": 2788, "popularity": 25.596}, {"id": 620, "video": false, "vote_count": 5187, "vote_average": 7.4, "title": "Ghostbusters", "release_date": "1984-06-08", "original_language": "en", "original_title": "Ghostbusters", "genre_ids": [35, 14], "backdrop_path": "/qmDy6Rdom8d8UFj9GeAAtVIjTRT.jpg", "adult": false, "overview": "After losing their academic posts at a prestigious university, a team of parapsychologists goes into business as proton-pack-toting \"ghostbusters\" who exterminate ghouls, hobgoblins and supernatural pests of all stripes. An ad campaign pays off when a knockout cellist hires the squad to purge her swanky digs of demons that appear to be living in her refrigerator.", "poster_path": "/3FS3oBdorgczgfCkFi2u8ZTFfpS.jpg", "popularity": 24.995}, {"id": 4011, "video": false, "vote_count": 3507, "vote_average": 7.3, "title": "Beetlejuice", "release_date": "1988-02-29", "original_language": "en", "original_title": "Beetlejuice", "genre_ids": [35, 14], "backdrop_path": "/upAwc1kPQJU1ZWeMgEWV8Lp6CWb.jpg", "adult": false, "overview": "Thanks to an untimely demise via drowning, a young couple end up as poltergeists in their New England farmhouse, where they fail to meet the challenge of scaring away the insufferable new owners, who want to make drastic changes. In desperation, the undead newlyweds turn to an expert frightmeister, but he's got a diabolical agenda of his own.", "poster_path": "/gWnW7vxm8yr01TVLQhL4aI02orp.jpg", "popularity": 34.958}, {"id": 381032, "video": false, "vote_count": 21, "vote_average": 5.9, "title": "Another Evil", "release_date": "2017-05-05", "original_language": "en", "original_title": "Another Evil", "genre_ids": [35, 27], "backdrop_path": "/9xe0c5cgkjyZC06vujkfcO1pwLU.jpg", "adult": false, "overview": "After encountering a ghost in his family's vacation home, Dan and his wife Mary hire an \"industrial-grade exorcist\" named Os to get rid of the beings.", "poster_path": "/A0WcyVPOgDLs479hOaqaYaT5urP.jpg", "popularity": 5.252}, {"adult": false, "backdrop_path": "/kwdmLQgWOmx9oXDpC6KwA2YJOFC.jpg", "genre_ids": [27], "id": 11601, "original_language": "en", "original_title": "Stir of Echoes", "overview": "After being hypnotized by his sister in law, Tom Witzky begins seeing haunting visions of a girl's ghost and a mystery begins to unfold around her.", "poster_path": "/tdsVfsvvkj9ygu0LIiFtpCgwg8h.jpg", "release_date": "1999-09-10", "title": "Stir of Echoes", "video": false, "vote_average": 6.6, "vote_count": 639, "popularity": 12.431}], "total_pages": 18, "total_results": 353}, "recommendations": {"page": 1, "results": [{"id": 648092, "video": false, "vote_count": 8, "vote_average": 7.8, "title": "The Last Heroes - Gli ultimi eroi", "release_date": "2019-10-25", "original_language": "it", "original_title": "The Last Heroes - Gli ultimi eroi", "genre_ids": [], "backdrop_path": "/fEP9GAhC7ygDZwKuvO35BDKtjhm.jpg", "adult": false, "overview": "", "poster_path": "/mZQNNxUMaLTopIOLuvYtobjcaU0.jpg", "popularity": 2.122}, {"id": 507112, "video": false, "vote_count": 18, "vote_average": 7.5, "title": "Fino All'Inferno", "release_date": "2018-08-02", "original_language": "it", "original_title": "Fino All'Inferno", "genre_ids": [28, 80, 27], "backdrop_path": "/hVehuD43OlsQHtEnWTMPtBcmNEE.jpg", "adult": false, "overview": "", "poster_path": "/gQk86ZGV9fNHNNRXzW56mNOTCD7.jpg", "popularity": 2.107}], "total_pages": 1, "total_results": 2}, "credits": {"cast": [{"cast_id": 0, "character": "Ethan", "credit_id": "597fac75c3a36870ab00053c", "gender": 2, "id": 1512360, "name": "Roberto D'Antona", "order": 1, "profile_path": "/nlEEKM8Uww21fjmyqcP4yPZxvh5.jpg"}, {"cast_id": 1, "character": "Ada", "credit_id": "597fac84c3a368707d000538", "gender": 1, "id": 1512357, "name": "Annamaria Lorusso", "order": 2, "profile_path": "/kCpQG4hb4U1KlkoSL6YKF3UbYqu.jpg"}, {"cast_id": 2, "character": "Andrea", "credit_id": "597fac8f925141311100061a", "gender": 0, "id": 1861648, "name": "Francesco Emulo", "order": 3, "profile_path": null}, {"cast_id": 3, "character": "Alice", "credit_id": "597fac9dc3a368709d0004e3", "gender": 1, "id": 1861649, "name": "Kateryna Korchynska", "order": 4, "profile_path": null}, {"cast_id": 4, "character": "Eric", "credit_id": "597facaf9251413167000563", "gender": 0, "id": 1861650, "name": "Andrea Milan", "order": 5, "profile_path": null}, {"cast_id": 6, "character": "Max", "credit_id": "597facda925141314a000598", "gender": 0, "id": 1861652, "name": "Mirko D'Antona", "order": 7, "profile_path": null}, {"cast_id": 7, "character": "Robert", "credit_id": "597facedc3a368707d0005a2", "gender": 2, "id": 1038306, "name": "David White", "order": 8, "profile_path": "/aP41bhkZDp3NtRa9hBNeGgy5KCh.jpg"}, {"cast_id": 23, "character": "Dr. Balestrieri", "credit_id": "5a90b7e6925141417d000c29", "gender": 2, "id": 97611, "name": "Michael Segal", "order": 9, "profile_path": "/aaaeTvSHHKhYkLqNwtHhZpQwQ6s.jpg"}], "crew": [{"credit_id": "597fad459251413144000619", "department": "Directing", "gender": 2, "id": 1512360, "job": "Director", "name": "Roberto D'Antona", "profile_path": "/nlEEKM8Uww21fjmyqcP4yPZxvh5.jpg"}, {"credit_id": "597fad53925141316700061b", "department": "Writing", "gender": 2, "id": 1512360, "job": "Writer", "name": "Roberto D'Antona", "profile_path": "/nlEEKM8Uww21fjmyqcP4yPZxvh5.jpg"}, {"credit_id": "597fad63c3a36870ab000638", "department": "Production", "gender": 1, "id": 1512357, "job": "Producer", "name": "Annamaria Lorusso", "profile_path": "/kCpQG4hb4U1KlkoSL6YKF3UbYqu.jpg"}, {"credit_id": "597fad729251413158000662", "department": "Production", "gender": 0, "id": 1861653, "job": "Producer", "name": "Alessandro Rossi", "profile_path": null}, {"credit_id": "597fad7d925141311100070c", "department": "Production", "gender": 2, "id": 1512360, "job": "Producer", "name": "Roberto D'Antona", "profile_path": "/nlEEKM8Uww21fjmyqcP4yPZxvh5.jpg"}, {"credit_id": "597fad8a9251413129000699", "department": "Directing", "gender": 0, "id": 1861654, "job": "Script Supervisor", "name": "Erica Verzotti", "profile_path": null}, {"credit_id": "597fad99c3a36870690006c8", "department": "Directing", "gender": 2, "id": 1861655, "job": "First Assistant Director", "name": "Alex D'Antona", "profile_path": null}, {"credit_id": "597fada6c3a36870ab000670", "department": "Camera", "gender": 0, "id": 1512359, "job": "Director of Photography", "name": "Stefano Pollastro", "profile_path": null}, {"credit_id": "597fadb8c3a36870cb00061c", "department": "Costume & Make-Up", "gender": 0, "id": 1861656, "job": "Makeup Artist", "name": "Paola Laneve", "profile_path": null}, {"credit_id": "597fadc8c3a368707d00068a", "department": "Sound", "gender": 0, "id": 1861657, "job": "Music", "name": "Aurora Rochez", "profile_path": null}, {"credit_id": "597fadd692514131290006e9", "department": "Visual Effects", "gender": 0, "id": 1861658, "job": "Visual Effects", "name": "Francesco Longo", "profile_path": null}, {"credit_id": "597fade692514131580006e1", "department": "Production", "gender": 0, "id": 1861659, "job": "Production Manager", "name": "Francesca Sacchetti", "profile_path": null}, {"credit_id": "597fadf4925141314a0006d7", "department": "Art", "gender": 0, "id": 1861660, "job": "Production Design", "name": "Cristina Francese", "profile_path": null}, {"credit_id": "597fadfe9251413111000796", "department": "Art", "gender": 0, "id": 1861661, "job": "Production Design", "name": "Danila Leoni", "profile_path": null}, {"credit_id": "597fae0ac3a368707d0006d3", "department": "Art", "gender": 0, "id": 1861662, "job": "Production Design", "name": "Giacomo Carri", "profile_path": null}]}}