{"adult": false, "backdrop_path": "/reLFjEihWIJGhYsBTK6mDFjUU2y.jpg", "belongs_to_collection": null, "budget": 0, "genres": [{"id": 12, "name": "Adventure"}, {"id": 99, "name": "Documentary"}], "homepage": "http://www.underanarcticsky.com/", "id": 469108, "imdb_id": "tt6680858", "original_language": "en", "original_title": "Under an Arctic Sky", "overview": "Six fearless surfers travel to the north coast of Iceland to ride waves unlike anything they've ever experienced, captured with high-tech cameras.", "popularity": 3.542, "poster_path": "/oGMxSC0Rj32dJ9qSjGi97HUFKwF.jpg", "production_companies": [], "production_countries": [], "release_date": "2017-04-23", "revenue": 0, "runtime": 40, "spoken_languages": [{"iso_639_1": "en", "name": "English"}, {"iso_639_1": "is", "name": "\u00cdslenska"}], "status": "Released", "tagline": "", "title": "Under an Arctic Sky", "video": false, "vote_average": 7.7, "vote_count": 27, "keywords": {"keywords": [{"id": 1442, "name": "winter"}, {"id": 5349, "name": "surfing"}, {"id": 5746, "name": "iceland"}, {"id": 14527, "name": "storm"}, {"id": 214549, "name": "short"}, {"id": 226626, "name": "aurora borealis"}]}, "similar": {"page": 1, "results": [{"id": 621733, "video": false, "vote_count": 0, "vote_average": 0.0, "title": "A Trip to the Seaside", "release_date": "2019-08-30", "original_language": "en", "original_title": "A Trip to the Seaside", "genre_ids": [99], "backdrop_path": null, "adult": false, "overview": "Experimental short film on the excitement and rush of a day trip", "poster_path": "/AuZVhpoJ4jm2LWDhoJKfxQfhDAi.jpg", "popularity": 1.324}, {"id": 326359, "video": false, "vote_count": 1180, "vote_average": 6.8, "title": "Frozen Fever", "release_date": "2015-03-09", "original_language": "en", "original_title": "Frozen Fever", "genre_ids": [12, 16, 10751], "backdrop_path": "/ubioPGniCfDiASmYYpeJs5RRNaC.jpg", "adult": false, "overview": "On Anna's birthday, Elsa and Kristoff are determined to give her the best celebration ever, but Elsa's icy powers may put more than just the party at risk.", "poster_path": "/lKJiVPzsAO9IJ4LKWXZ8vkR2bg4.jpg", "popularity": 17.218}, {"adult": false, "backdrop_path": "/5OeY4U2rzePxWq2rkqMajUx2gz7.jpg", "genre_ids": [16, 10751, 12, 14, 10749], "id": 812, "original_language": "en", "original_title": "Aladdin", "overview": "Princess Jasmine grows tired of being forced to remain in the palace, so she sneaks out into the marketplace, in disguise, where she meets street-urchin Aladdin.  The couple falls in love, although Jasmine may only marry a prince.  After being thrown in jail, Aladdin becomes embroiled in a plot to find a mysterious lamp, with which the evil Jafar hopes to rule the land.", "poster_path": "/mjKozYRuHc9j7SmiXmbVmCiAM0A.jpg", "release_date": "1992-11-25", "title": "Aladdin", "video": false, "vote_average": 7.6, "vote_count": 7289, "popularity": 35.494}, {"id": 650755, "video": false, "vote_count": 0, "vote_average": 0.0, "title": "Atordoado, Eu Permane\u00e7o Atento", "release_date": "2020-01-15", "original_language": "pt", "original_title": "Atordoado, Eu Permane\u00e7o Atento", "genre_ids": [99], "backdrop_path": null, "adult": false, "overview": "", "poster_path": "/exbM8qk6f6T44olJXcM8ix1sunL.jpg", "popularity": 5.092}, {"id": 150540, "video": false, "vote_count": 13957, "vote_average": 7.9, "title": "Inside Out", "release_date": "2015-06-09", "original_language": "en", "original_title": "Inside Out", "genre_ids": [16, 35, 18, 10751], "backdrop_path": "/szytSpLAyBh3ULei3x663mAv5ZT.jpg", "adult": false, "overview": "Growing up can be a bumpy road, and it's no exception for Riley, who is uprooted from her Midwest life when her father starts a new job in San Francisco. Riley's guiding emotions\u2014 Joy, Fear, Anger, Disgust and Sadness\u2014live in Headquarters, the control centre inside Riley's mind, where they help advise her through everyday life and tries to keep things positive, but the emotions conflict on how best to navigate a new city, house and school.", "poster_path": "/aAmfIX3TT40zUHGcCKrlOZRKC7u.jpg", "popularity": 57.362}, {"id": 329981, "video": false, "vote_count": 413, "vote_average": 5.2, "title": "Shut In", "release_date": "2016-11-11", "original_language": "en", "original_title": "Shut In", "genre_ids": [18, 53], "backdrop_path": "/ejSSc2ReyK4rctVUES4PISnIG2n.jpg", "adult": false, "overview": "A widowed child psychologist lives in an isolated existence in rural New England. When caught in a deadly winter storm, she must find a way to rescue a young boy before he disappears forever.", "poster_path": "/ngSiyIDAFX4YF1h2OyOacKcDvw0.jpg", "popularity": 9.941}, {"id": 26317, "video": false, "vote_count": 283, "vote_average": 8.0, "title": "Man with a Movie Camera", "release_date": "1929-01-08", "original_language": "ru", "original_title": "\u0427\u0435\u043b\u043e\u0432\u0435\u043a \u0441 \u043a\u0438\u043d\u043e\u0430\u043f\u043f\u0430\u0440\u0430\u0442\u043e\u043c", "genre_ids": [99], "backdrop_path": "/8mg8GZePag5LZVhveBTL92Ufh5W.jpg", "adult": false, "overview": "A cameraman wanders around Moscow, Kharkov, Kiev and Odessa with a camera slung over his shoulder, documenting urban life with dazzling invention.", "poster_path": "/Ded5Kl7MDZQTbFpoNI62tLVWUN.jpg", "popularity": 9.16}, {"adult": false, "backdrop_path": "/hPByrqJXCXIViFheXQh48wtI7T6.jpg", "genre_ids": [16, 12, 14, 10751], "id": 31135, "original_language": "en", "original_title": "Mickey Mouse: Mickey and the Beanstalk", "overview": "Based on the timeless adventures of \"Jack and the Beanstalk,\" Mickey, Donald and Goofy climb a fantastic beanstalk up into the sky to a place where everything is huge -- the food, the castle and the fearsome giant named Willy who guards a beautiful golden harp! Will Mickey and his friends outwit the giant and make it safely back home?", "poster_path": "/kk1Xg1f1lv6loekjlKinpKJlGOu.jpg", "release_date": "1947-09-27", "title": "Mickey Mouse: Mickey and the Beanstalk", "video": false, "vote_average": 6.7, "vote_count": 166, "popularity": 13.649}, {"adult": false, "backdrop_path": "/2CR4OT6Ou4axUfThbJ6sbnMGWWm.jpg", "genre_ids": [12, 14, 878], "id": 775, "original_language": "fr", "original_title": "Le Voyage dans la Lune", "overview": "Professor Barbenfouillis and five of his colleagues from the Academy of Astronomy travel to the Moon aboard a rocket propelled by a giant cannon. Once on the lunar surface, the bold explorers face the many perils hidden in the caves of the mysterious satellite.", "poster_path": "/zztHYAfSecYuaDyIjQudjKaOLLY.jpg", "release_date": "1902-09-01", "title": "A Trip to the Moon", "video": false, "vote_average": 8.0, "vote_count": 822, "popularity": 12.649}, {"id": 5698, "video": false, "vote_count": 268, "vote_average": 7.1, "title": "The Great Train Robbery", "release_date": "1903-12-01", "original_language": "en", "original_title": "The Great Train Robbery", "genre_ids": [28, 12, 80, 37], "backdrop_path": "/9GO8h44nckngDtdJ6R1QfIsl43j.jpg", "adult": false, "overview": "The clerk at the train station is assaulted and left tied by four men, then they rob the train threatening the operator. (They) take all the money and shoot a passenger when trying to run away. A little girl discovers the clerk tied and gives notice to the sheriff, who at once goes along with his men hunting the bandits.", "poster_path": "/uf7Hr1wuUh4T83Ifg5pVpwTqRdI.jpg", "popularity": 11.231}, {"id": 669, "video": false, "vote_count": 123, "vote_average": 7.1, "title": "Nanook of the North", "release_date": "1922-06-11", "original_language": "en", "original_title": "Nanook of the North", "genre_ids": [99], "backdrop_path": "/f8wJyERoBQgmptrue3xhMkC1Mjq.jpg", "adult": false, "overview": "This pioneering documentary film depicts the lives of the indigenous Inuit people of Canada's northern Quebec region. Although the production contains some fictional elements, it vividly shows how its resourceful subjects survive in such a harsh climate, revealing how they construct their igloo homes and find food by hunting and fishing. The film also captures the beautiful, if unforgiving, frozen landscape of the Great White North, far removed from conventional civilization.", "poster_path": "/aWmdeyP4rvOlQZCdjLCpJfJnHVT.jpg", "popularity": 8.419}, {"id": 631, "video": false, "vote_count": 368, "vote_average": 8.0, "title": "Sunrise: A Song of Two Humans", "release_date": "1927-11-04", "original_language": "en", "original_title": "Sunrise: A Song of Two Humans", "genre_ids": [18, 10749], "backdrop_path": "/jAhfMoV8TCIHuTiGz49nA04v6bp.jpg", "adult": false, "overview": "A married farmer falls under the spell of a slatternly woman from the city, who tries to convince him to drown his wife.", "poster_path": "/tyxjxpwr9NiVtSeITtVXuhp84Zl.jpg", "popularity": 11.674}, {"adult": false, "backdrop_path": "/znaH5tNazEMv4DTc07vC5rFi7m7.jpg", "genre_ids": [16, 35, 10751], "id": 47166, "original_language": "en", "original_title": "Ferdinand the Bull", "overview": "This Oscar-winning short tells of a bull who preferred to sit under trees and smell flowers to clashing horns with his fellow animals. As luck would have it, an untimely bee reveals Ferdinand's ferocious side via pained howls and wild stomping. This lands him in the bull-fighting arena amidst characters based on Walt's animators with a matador reportedly modeled after Walt himself.", "poster_path": "/2ifhZGIYjovXjFAVUSXVWBbYlI9.jpg", "release_date": "1938-11-23", "title": "Ferdinand the Bull", "video": false, "vote_average": 6.5, "vote_count": 72, "popularity": 7.135}, {"adult": false, "backdrop_path": "/kw44acMdZBc1NAvuHAdMRO4i4pi.jpg", "genre_ids": [27, 16, 10751, 10402], "id": 88018, "original_language": "en", "original_title": "The Skeleton Dance", "overview": "The clock strikes midnight, the bats fly from the belfry, a dog howls at the full moon, and two black cats fight in the cemetery: a perfect time for four skeletons to come out and dance a bit.", "poster_path": "/kmW0RJVpA3nyzWiEV0kt5829AS.jpg", "release_date": "1929-08-21", "title": "The Skeleton Dance", "video": false, "vote_average": 7.3, "vote_count": 99, "popularity": 6.847}, {"id": 145316, "video": false, "vote_count": 63, "vote_average": 5.8, "title": "Air Mater", "release_date": "2011-08-04", "original_language": "en", "original_title": "Air Mater", "genre_ids": [16, 10751], "backdrop_path": "/59HNGwEqcdZQl1vcKj6kTOwkFJr.jpg", "adult": false, "overview": "Mater's decision to fly lands him accidentally at a big airshow.", "poster_path": "/meGOYxqFyWkibJkPIjVydkdOL3E.jpg", "popularity": 8.304}, {"adult": false, "backdrop_path": "/wzam0pu9jdpwqSD3BVyB7xXXTI.jpg", "genre_ids": [16, 35], "id": 53219, "original_language": "en", "original_title": "Mickey's Trailer", "overview": "Goofy's in the driver's seat, Mickey's in the kitchen, and Donald's in bed in Mickey's high-tech house trailer. When Goofy comes back to eat breakfast, leaving the car on autopilot, it takes them onto a dangerous closed mountain road. When Goofy realizes this, he accidentally unhooks the trailer, sending it on a perilous route. They come very close to disaster several times, while the oblivious Goofy drives on and hooks back up to them.", "poster_path": "/fnYh5nbIsSfR9oC775RJSdNXHZE.jpg", "release_date": "1938-05-06", "title": "Mickey's Trailer", "video": false, "vote_average": 7.0, "vote_count": 58, "popularity": 9.744}, {"id": 262549, "video": true, "vote_count": 5, "vote_average": 5.3, "title": "Donald Duck's Christmas Favourites", "release_date": "2012-11-13", "original_language": "en", "original_title": "Donald Duck's Christmas Favourites", "genre_ids": [16, 35, 10751], "backdrop_path": "/iKv03RibVGosDn0Q56e7b8o4mV2.jpg", "adult": false, "overview": "In Donald Duck\u2019s Christmas Favorites you\u2019ll be treated to some of the best and most hilarious cartoon shorts from the days when Walt Disney himself added his magical touch to each film. The full effect of his presence can be felt in these sparkling gems that for generations have brought joy and laughter to kids and families everywhere. Want to find out how a real snow ball fight is done? Discover how to replace snow with popcorn? Learn how an alpine expedition should not be done? You\u2019ll get all the answers you need in this collection of Donald Duck\u2019s Christmas Favorites \u2013 a delightful winter collection from all of us to all of you. Features: Hockey Champ (1939), Snow fight (1942), Rescue dog (1947), Chip an' Dale (1947), Winter storage (1949), Toy Tinkers (1949), Corn Chips (1951), On ice (1935), Alpine climbers (1936), The art of skiing (1941)", "poster_path": "/aF9FkS5iW8Uk9nqe0hKjgt18mUl.jpg", "popularity": 8.397}, {"id": 461955, "video": false, "vote_count": 106, "vote_average": 7.1, "title": "Rakka", "release_date": "2017-06-14", "original_language": "en", "original_title": "Rakka", "genre_ids": [28, 27, 878], "backdrop_path": "/fGQr2maSQIjLw4RET6XzOKKO9bo.jpg", "adult": false, "overview": "\"Rakka\" is the story of broken humanity following the invasion of a technologically superior alien species. Bleak harrowing and unrelenting, the humans we meet must find enough courage to go on fighting.", "poster_path": "/4wVeP9BHsQul7CRgdrfiUt1Rds1.jpg", "popularity": 8.174}, {"id": 91815, "video": false, "vote_count": 34, "vote_average": 6.5, "title": "The Wise Little Hen", "release_date": "1934-06-08", "original_language": "en", "original_title": "The Wise Little Hen", "genre_ids": [16, 35, 10402, 10751], "backdrop_path": "/6MAsBak2rBRaLJEGzVO3wYbDccO.jpg", "adult": false, "overview": "Donald and his friend Peter Pig try to avoid work by faking stomach aches until Mrs. Hen teaches them the value of labor.", "poster_path": "/4kLo2e4MFB1WYRZupKYfDiaXX4I.jpg", "popularity": 8.406}, {"id": 126132, "video": false, "vote_count": 26, "vote_average": 6.2, "title": "The Act of Seeing with One's Own Eyes", "release_date": "1972-02-19", "original_language": "en", "original_title": "The Act of Seeing with One's Own Eyes", "genre_ids": [99], "backdrop_path": "/6jcxNQN3gW2FMGh32JtEsB0auqm.jpg", "adult": false, "overview": "At a morgue, forensic pathologists conduct autopsies of the corpses assigned.", "poster_path": "/qGLLXsbzR9IrZ1k62qwNv7rmDPb.jpg", "popularity": 5.018}], "total_pages": 83, "total_results": 1658}, "recommendations": {"page": 1, "results": [{"adult": false, "backdrop_path": "/mHLxix4Kjp7WfwMxYh2a1bcKm5S.jpg", "genre_ids": [99], "id": 449748, "original_language": "en", "original_title": "Awake, a Dream from Standing Rock", "overview": "The Standing Rock Sioux Tribe in North Dakota captures world attention through their peaceful resistance against the U.S. government's plan to construct an oil pipeline through their land.", "poster_path": "/17C37bJ9R5Uux4dWNOZz7YrB89M.jpg", "release_date": "2017-04-22", "title": "Awake, a Dream from Standing Rock", "video": false, "vote_average": 6.8, "vote_count": 5, "popularity": 2.423}, {"adult": false, "backdrop_path": "/6T9xJRw7aKOut755eH5kb48193I.jpg", "genre_ids": [18], "id": 403858, "original_language": "hi", "original_title": "Budhia Singh: Born to Run", "overview": "Budhia Singh \u2013 Born To Run is an upcoming 2016 Indian biographical sports film directed by Soumendra Padhi. It is based on Budhia Singh, who ran 48 marathons \u2014 one of which was from Bhubaneshwar to Puri, when he was a five-year-old.", "poster_path": "/jkUQZgcF66LO2NeTcPeLHoCaRf3.jpg", "release_date": "2016-08-05", "title": "Budhia Singh: Born to Run", "video": false, "vote_average": 6.3, "vote_count": 8, "popularity": 1.305}, {"adult": false, "backdrop_path": "/oXoWnINeLEiN5y7DDlzAmXuLwwq.jpg", "genre_ids": [12, 35, 14], "id": 579296, "original_language": "en", "original_title": "Abnormal Attraction", "overview": "In a world where mythical creatures are real, monsters and humans are forced to coexist; and as prejudice and insecurity pulls everyone apart, three separate storylines manage to come together.", "poster_path": "/ljOaX35V09izGupAEx8h8saFd7n.jpg", "release_date": "2018-03-01", "title": "Abnormal Attraction", "video": false, "vote_average": 6.6, "vote_count": 5, "popularity": 5.231}, {"adult": false, "backdrop_path": "/skJbiTKdAycO8sj6KaXShJOhPJ0.jpg", "genre_ids": [99, 36, 10402], "id": 567979, "original_language": "en", "original_title": "America's Blues", "overview": "America's Blues takes a new angle on the Blues, focusing on, not only the musical impact it has had on all forms of Popular American Music, but also the influence it has had on art, fashion, language, film and racial equality.", "poster_path": "/r4UPQfA74LWVcq5c1KIMI1KcHYD.jpg", "release_date": "2015-06-05", "title": "America's Blues", "video": false, "vote_average": 8.3, "vote_count": 3, "popularity": 1.464}, {"adult": false, "backdrop_path": "/jgjP3u7gfiAQ9YiynJH3tFBePzr.jpg", "genre_ids": [35], "id": 558117, "original_language": "en", "original_title": "Burguesinha", "overview": "When her Brazilian, senator father is arrested for involving his entire family in campaign finance fraud, a spoiled, rich, Brazilian socialite must suddenly start a new life in America without friends, money, a place to live or a greencard.", "poster_path": "/5sV4p7sxYkZNnW98MpeEvrIMdtg.jpg", "release_date": "2017-10-05", "title": "The Socialite", "video": false, "vote_average": 6.0, "vote_count": 4, "popularity": 2.997}, {"adult": false, "backdrop_path": "/ixWOjCSEPrGNvfynjGDFybtTgQy.jpg", "genre_ids": [36, 99], "id": 451133, "original_language": "de", "original_title": "Der Terrorf\u00fcrst: Osama bin Laden privat", "overview": "Four years after a Navy SEAL team killed Osama Bin Laden in a raid on his compound, his correspondence sheds new light on his mindset and final years.", "poster_path": "/lDRQi9wpzDDLHXa5oUwMTqNUy2n.jpg", "release_date": "2015-12-31", "title": "Osama Bin Laden: Up Close and Personal", "video": false, "vote_average": 5.0, "vote_count": 4, "popularity": 1.12}, {"id": 435738, "video": false, "vote_count": 7, "vote_average": 6.4, "title": "Meet the Trumps: From Immigrant to President", "release_date": "2017-01-17", "original_language": "en", "original_title": "Meet the Trumps: From Immigrant to President", "genre_ids": [99], "backdrop_path": "/jtpSBmytJduUY1EaUeljxY0S1tC.jpg", "adult": false, "overview": "The remarkable true story of Donald Trump's family history - one of the most extraordinary immigration success stories ever told - and what it reveals about the United States' 45th President", "poster_path": "/7zAIZELgDaMFnqUzJiyKknJJpJQ.jpg", "popularity": 2.556}, {"id": 493201, "video": false, "vote_count": 8, "vote_average": 5.3, "title": "Todd Glass: Act Happy", "release_date": "2018-01-23", "original_language": "en", "original_title": "Todd Glass: Act Happy", "genre_ids": [35], "backdrop_path": "/bonQB5OIdRmAInFlauuwXZzc7MU.jpg", "adult": false, "overview": "Try to keep up as comedian Todd Glass delivers rapid-fire stand-up that bounces from his heart attack to his coming out to how to eat a Kit Kat.", "poster_path": "/eEJOhyYpHBxIqeiXi1j44WLWchE.jpg", "popularity": 4.263}, {"adult": false, "backdrop_path": "/nSck3GJ7YZHElk3JwkdHz7INfmH.jpg", "genre_ids": [18], "id": 356901, "original_language": "en", "original_title": "Five Nights in Maine", "overview": "A young African American man, reeling from the tragic loss of his wife, travels to rural Maine to seek answers from his estranged mother-in-law, who is herself confronting guilt and grief over her daughter's death.", "poster_path": "/o6mjLAX3TNVPWjQo5TYlovkeq88.jpg", "release_date": "2016-08-05", "title": "Five Nights in Maine", "video": false, "vote_average": 5.4, "vote_count": 19, "popularity": 3.889}], "total_pages": 1, "total_results": 9}, "credits": {"cast": [{"cast_id": 1, "character": "Himself", "credit_id": "5a4937470e0a262dc8001872", "gender": 2, "id": 1951385, "name": "Chris Burkard", "order": 1, "profile_path": "/cI7GcsxHrKYjYV7ppB2AuEAJkka.jpg"}], "crew": [{"credit_id": "5a493739c3a36805e9001820", "department": "Directing", "gender": 2, "id": 1951385, "job": "Director", "name": "Chris Burkard", "profile_path": "/cI7GcsxHrKYjYV7ppB2AuEAJkka.jpg"}, {"credit_id": "5da622fbd2b20900168bbd64", "department": "Crew", "gender": 1, "id": 2433376, "job": "Cinematography", "name": "Taylor Rees", "profile_path": null}]}}