{"adult": false, "backdrop_path": "/jgjLLWyW4qF3kkX6wVFHSwna3fy.jpg", "belongs_to_collection": null, "budget": 0, "genres": [{"id": 18, "name": "Drama"}], "homepage": null, "id": 470360, "imdb_id": "tt6737766", "original_language": "pl", "original_title": "Najlepszy", "overview": "Based on true events. In 1980s Poland, Jerzy G\u00f3rski is a young man who finds the determination to struggle against his drug addiction through athletic training, with the aim of competing in the US Ironman Triathlon.", "popularity": 3.54, "poster_path": "/rMgCueGP8Qg24FWhS5AUn8ht2Ik.jpg", "production_companies": [{"id": 3278, "logo_path": null, "name": "Iron Films", "origin_country": ""}], "production_countries": [{"iso_3166_1": "PL", "name": "Poland"}], "release_date": "2017-11-17", "revenue": 0, "runtime": 110, "spoken_languages": [{"iso_639_1": "pl", "name": "Polski"}], "status": "Released", "tagline": "", "title": "Breaking the Limits", "video": false, "vote_average": 8.2, "vote_count": 49, "keywords": {"keywords": [{"id": 5565, "name": "biography"}, {"id": 6075, "name": "sport"}]}, "similar": {"page": 1, "results": [{"adult": false, "backdrop_path": "/jK3EAFk3GdOaQfUDCOiTujzMpwH.jpg", "genre_ids": [18], "id": 389015, "original_language": "en", "original_title": "I, Tonya", "overview": "Competitive ice skater Tonya Harding rises amongst the ranks at the U. S. Figure Skating Championships, but her future in the sport is thrown into doubt when her ex-husband intervenes.", "poster_path": "/6gNXwSHxaksR1PjVZRqNapmkgj3.jpg", "release_date": "2017-12-08", "title": "I, Tonya", "video": false, "vote_average": 7.5, "vote_count": 3332, "popularity": 20.099}, {"id": 396371, "video": false, "vote_count": 1970, "vote_average": 7.1, "title": "Molly's Game", "release_date": "2017-12-25", "original_language": "en", "original_title": "Molly's Game", "genre_ids": [80, 18], "backdrop_path": "/rHcBZ6ZKCe4FalWHyvBGsyMsh0k.jpg", "adult": false, "overview": "Molly Bloom, a young skier and former Olympic hopeful becomes a successful entrepreneur (and a target of an FBI investigation) when she establishes a high-stakes, international poker game.", "poster_path": "/in43bQ7k0ttr666IPP94IlbQbTR.jpg", "popularity": 18.141}, {"id": 319888, "video": false, "vote_count": 1291, "vote_average": 7.2, "title": "Eddie the Eagle", "release_date": "2016-02-26", "original_language": "en", "original_title": "Eddie the Eagle", "genre_ids": [12, 35, 18, 36], "backdrop_path": "/6Zy8HlUrFFmJIlsVfv9YOx4PxYO.jpg", "adult": false, "overview": "The feel-good story of Michael 'Eddie' Edwards, an unlikely but courageous British ski-jumper who never stopped believing in himself\u2014even as an entire nation was counting him out. With the help of a rebellious and charismatic coach, Eddie takes on the establishment and wins the hearts of sports fans around the world by making an improbable and historic showing at the 1988 Calgary Winter Olympics.", "poster_path": "/laEdJnz9CiojWcNpqFjPKhrKuBo.jpg", "popularity": 12.995}, {"id": 60308, "video": false, "vote_count": 2517, "vote_average": 7.2, "title": "Moneyball", "release_date": "2011-09-22", "original_language": "en", "original_title": "Moneyball", "genre_ids": [18], "backdrop_path": "/T9a9Q6Pin6Pra7dNMwWzAibxkk.jpg", "adult": false, "overview": "The story of Oakland Athletics general manager Billy Beane's successful attempt to put together a baseball team on a budget, by employing computer-generated analysis to draft his players.", "poster_path": "/3oAa8mJJ97CH9AeGEY6vjAxqcvZ.jpg", "popularity": 16.975}, {"adult": false, "backdrop_path": "/3fcBsj9JMQQ27Wuk3LVrEwVZ2VT.jpg", "genre_ids": [28, 18], "id": 323677, "original_language": "en", "original_title": "Race", "overview": "Based on the story of Jesse Owens, the athlete whose quest to become the greatest track and field athlete in history thrusts him onto the world stage of the 1936 Olympics, where he faces off against Adolf Hitler's vision of Aryan supremacy.", "poster_path": "/szLfTQ2vLFQkNbP3dc0pnco1rje.jpg", "release_date": "2016-02-19", "title": "Race", "video": false, "vote_average": 7.3, "vote_count": 990, "popularity": 15.646}, {"id": 369192, "video": false, "vote_count": 1153, "vote_average": 6.9, "title": "Battle of the Sexes", "release_date": "2017-09-05", "original_language": "en", "original_title": "Battle of the Sexes", "genre_ids": [35, 18, 36], "backdrop_path": "/wCHJuJwEfOrrykgDas8T4m79Bzs.jpg", "adult": false, "overview": "The true story of the 1973 tennis match between World number one Billie Jean King and ex-champ and serial hustler Bobby Riggs.", "poster_path": "/fWy0A3VojTCb0S2MKtEJjpquubF.jpg", "popularity": 7.932}, {"adult": false, "backdrop_path": "/mYKP6qcDUimVMAHQWLOuDHjO19S.jpg", "genre_ids": [35], "id": 445629, "original_language": "en", "original_title": "Fighting with My Family", "overview": "Born into a tight-knit wrestling family, Paige and her brother Zak are ecstatic when they get the once-in-a-lifetime opportunity to try out for the WWE. But when only Paige earns a spot in the competitive training program, she must leave her loved ones behind and face this new cutthroat world alone. Paige's journey pushes her to dig deep and ultimately prove to the world that what makes her different is the very thing that can make her a star.", "poster_path": "/cVhe15rJLRjolunSWLBN6xQLyGU.jpg", "release_date": "2019-02-14", "title": "Fighting with My Family", "video": false, "vote_average": 6.7, "vote_count": 643, "popularity": 18.498}, {"id": 245913, "video": false, "vote_count": 512, "vote_average": 7.3, "title": "Pel\u00e9: Birth of a Legend", "release_date": "2016-05-06", "original_language": "en", "original_title": "Pel\u00e9: Birth of a Legend", "genre_ids": [18, 36], "backdrop_path": "/mmKn7ECMiCUGFhIhoX2t9SYrTQn.jpg", "adult": false, "overview": "The life story of Brazilian football legend, Pele.", "poster_path": "/7AQFHlPohPiAYKTd1C35Q61z0eD.jpg", "popularity": 11.236}, {"id": 317557, "video": false, "vote_count": 250, "vote_average": 7.1, "title": "Queen of Katwe", "release_date": "2016-09-23", "original_language": "en", "original_title": "Queen of Katwe", "genre_ids": [18], "backdrop_path": "/awZwLXuPAGZEARF3y18S3qWt5LH.jpg", "adult": false, "overview": "A young girl overcomes her disadvantaged upbringing in the slums of Uganda to become a Chess master.", "poster_path": "/8nIIoHuV1c8orDNCyTcHuDhoc4q.jpg", "popularity": 9.376}, {"adult": false, "backdrop_path": "/urnGzQvP8fwWWGkn1k809KqIjbm.jpg", "genre_ids": [18], "id": 87093, "original_language": "en", "original_title": "Big Eyes", "overview": "The story of the awakening of painter, Margaret Keane, her phenomenal success in the 1950s, and the subsequent legal difficulties she had with her husband, who claimed credit for her works in the 1960s.", "poster_path": "/z2tqzprHojhgEGYKQepjU28oQg6.jpg", "release_date": "2014-12-24", "title": "Big Eyes", "video": false, "vote_average": 7.0, "vote_count": 2349, "popularity": 14.024}, {"id": 5915, "video": false, "vote_count": 6283, "vote_average": 7.8, "title": "Into the Wild", "release_date": "2007-09-11", "original_language": "en", "original_title": "Into the Wild", "genre_ids": [12, 18], "backdrop_path": "/9yJehIjvR7ULOLxeDJoth4kDDNe.jpg", "adult": false, "overview": "After graduating from Emory University in 1992, top student and athlete Christopher McCandless abandons his possessions, gives his entire $24,000 savings account to charity, and hitchhikes to Alaska to live in the wilderness.", "poster_path": "/lHyYgaocXR6KcJLxVmxZDj115hH.jpg", "popularity": 13.103}, {"adult": false, "backdrop_path": "/qVjKZMB0IdOc2JlwiiGsuKTvTJs.jpg", "genre_ids": [18], "id": 22881, "original_language": "en", "original_title": "The Blind Side", "overview": "The story of Michael Oher, a homeless and traumatized boy who became an All American football player and first round NFL draft pick with the help of a caring woman and her family", "poster_path": "/wEGFSgPebLk6g1ngKsJ6a46PYLV.jpg", "release_date": "2009-11-20", "title": "The Blind Side", "video": false, "vote_average": 7.5, "vote_count": 3212, "popularity": 42.202}, {"id": 457799, "video": false, "vote_count": 1572, "vote_average": 7.0, "title": "Extremely Wicked, Shockingly Evil and Vile", "release_date": "2019-05-02", "original_language": "en", "original_title": "Extremely Wicked, Shockingly Evil and Vile", "genre_ids": [80, 18, 53], "backdrop_path": "/uRoA67sM5vvCI4cplxhl67BTPly.jpg", "adult": false, "overview": "A chronicle of the crimes of Ted Bundy, from the perspective of his longtime girlfriend, Elizabeth Kloepfer, who refused to believe the truth about him for years.", "poster_path": "/zSuJ3r5zr5T26tTxyygHhgkUAIM.jpg", "popularity": 22.062}, {"adult": false, "backdrop_path": "/w41zFKYTsq4wf5QnQJWMXuzWl2F.jpg", "genre_ids": [18, 28], "id": 96721, "original_language": "en", "original_title": "Rush", "overview": "A biographical drama centered on the rivalry between Formula 1 drivers James Hunt and Niki Lauda during the 1976 Formula One motor-racing season.", "poster_path": "/cjEepHZOZAwmK6nAj5jis6HV75E.jpg", "release_date": "2013-09-02", "title": "Rush", "video": false, "vote_average": 7.7, "vote_count": 4276, "popularity": 17.673}, {"id": 300671, "video": false, "vote_count": 1700, "vote_average": 7.1, "title": "13 Hours: The Secret Soldiers of Benghazi", "release_date": "2016-01-13", "original_language": "en", "original_title": "13 Hours: The Secret Soldiers of Benghazi", "genre_ids": [28, 18, 36, 53, 10752], "backdrop_path": "/hY8myWhjSOUeeiPskhOfwwgaCwc.jpg", "adult": false, "overview": "An American Ambassador is killed during an attack at a U.S. compound in Libya as a security team struggles to make sense out of the chaos.", "poster_path": "/4gpW4MkRI0BB17GHOJzXq0WamDP.jpg", "popularity": 20.173}, {"id": 312221, "video": false, "vote_count": 4401, "vote_average": 7.4, "title": "Creed", "release_date": "2015-11-25", "original_language": "en", "original_title": "Creed", "genre_ids": [18], "backdrop_path": "/fs2yhdSCzMVlNECrN84WuCkgXov.jpg", "adult": false, "overview": "The former World Heavyweight Champion Rocky Balboa serves as a trainer and mentor to Adonis Johnson, the son of his late friend and former rival Apollo Creed.", "poster_path": "/hKzhV274pkZBSpXfCjUyzbyYKLl.jpg", "popularity": 17.844}, {"id": 307081, "video": false, "vote_count": 3703, "vote_average": 7.4, "title": "Southpaw", "release_date": "2015-03-24", "original_language": "en", "original_title": "Southpaw", "genre_ids": [28, 18], "backdrop_path": "/tTt1cdEEkKMJ1R4VBTe5vbE3bWO.jpg", "adult": false, "overview": "Billy \"The Great\" Hope, the reigning junior middleweight boxing champion, has an impressive career, a loving wife and daughter, and a lavish lifestyle. However, when tragedy strikes, Billy hits rock bottom, losing his family, his house and his manager. He soon finds an unlikely savior in Tick Willis, a former fighter who trains the city's toughest amateur boxers. With his future on the line, Hope fights to reclaim the trust of those he loves the most.", "poster_path": "/50d0XQQETSyg3bwBXhC7K33pKgc.jpg", "popularity": 28.235}, {"adult": false, "backdrop_path": "/nb70B4EXuoegiQ0C5N1fNVHIaYc.jpg", "genre_ids": [12, 18, 36, 53, 10752], "id": 5925, "original_language": "en", "original_title": "The Great Escape", "overview": "The Nazis, exasperated at the number of escapes from their prison camps by a relatively small number of Allied prisoners, relocates them to a high-security 'escape-proof' camp to sit out the remainder of the war. Undaunted, the prisoners plan one of the most ambitious escape attempts of World War II. Based on a true story.", "poster_path": "/qhy4HgUqhEbwQ1ekKTv7yEB3b0e.jpg", "release_date": "1963-06-20", "title": "The Great Escape", "video": false, "vote_average": 8.0, "vote_count": 1359, "popularity": 19.093}, {"id": 401847, "video": false, "vote_count": 664, "vote_average": 6.8, "title": "Can You Ever Forgive Me?", "release_date": "2018-10-19", "original_language": "en", "original_title": "Can You Ever Forgive Me?", "genre_ids": [35, 80, 18], "backdrop_path": "/shIOFWkjTn2NRvq5r4Mn2xLdZeJ.jpg", "adult": false, "overview": "When a bestselling celebrity biographer is no longer able to get published because she has fallen out of step with current tastes, she turns her art form to deception.", "poster_path": "/hPuZR2bFoV0kuBrA98exWyvTf40.jpg", "popularity": 16.339}, {"id": 316029, "video": false, "vote_count": 5853, "vote_average": 8.0, "title": "The Greatest Showman", "release_date": "2017-12-20", "original_language": "en", "original_title": "The Greatest Showman", "genre_ids": [18], "backdrop_path": "/zpq404Sk7qQ7N4x3xOeNgp74GtU.jpg", "adult": false, "overview": "The story of American showman P.T. Barnum, founder of the circus that became the famous traveling Ringling Bros. and Barnum & Bailey Circus.", "poster_path": "/b9CeobiihCx1uG1tpw8hXmpi7nm.jpg", "popularity": 29.077}], "total_pages": 337, "total_results": 6725}, "recommendations": {"page": 1, "results": [{"adult": false, "backdrop_path": "/m1jqHtozru9BioJTrJ1kSZA3JOO.jpg", "genre_ids": [18, 35], "id": 478326, "original_language": "pl", "original_title": "Cicha Noc", "overview": "Adam unexpectedly visits his family house at Christmas after a few years of working abroad. No family member knows about his secret plans and the real reasons of his visit.", "poster_path": "/hOYpFmTuPPXuEDhxTtgHcZtcmI.jpg", "release_date": "2017-11-24", "title": "Silent Night", "video": false, "vote_average": 7.3, "vote_count": 35, "popularity": 2.429}, {"adult": false, "backdrop_path": "/j7uxNGSE5VuB3kII60Lcvy5LeF7.jpg", "genre_ids": [18], "id": 451676, "original_language": "pl", "original_title": "Pomi\u0119dzy s\u0142owami", "overview": "A young Polish-born, Berlin-based lawyer working on refugee cases is unexpectedly reunited with his father, who is his only tie left with his homeland.", "poster_path": "/tlU5U9mWYrwD6Ep73m1OqfPJJDQ.jpg", "release_date": "2018-02-16", "title": "Beyond Words", "video": false, "vote_average": 7.7, "vote_count": 7, "popularity": 1.502}, {"adult": false, "backdrop_path": "/xLhKsVg9IA3BrjpBqcIKncBYSyg.jpg", "genre_ids": [], "id": 326602, "original_language": "en", "original_title": "The Death and Resurrection Show", "overview": "A music documentary exploring the turbulent, controversial and often unbelievable 30 year history of British post-punk industrial band Killing Joke.", "poster_path": "/ak3roTQgYYpzD64DlC2QgKwUmfh.jpg", "release_date": "2013-11-16", "title": "The Death and Resurrection Show", "video": false, "vote_average": 7.7, "vote_count": 6, "popularity": 2.194}, {"adult": false, "backdrop_path": "/fD76dvpzU7bjvkNCJ7Rqt4SVAot.jpg", "genre_ids": [99, 10402], "id": 426243, "original_language": "en", "original_title": "Eagles of Death Metal: Nos Amis (Our Friends)", "overview": "The November 13, 2015 terrorist attack in Paris claimed 130 lives around the city -- 89 of them at the Eagles of Death Metal\u2019s Bataclan Theatre concert. \"Eagles of Death Metal: Nos Amis (Our Friends)\" spotlights the American rock band as they recount their experiences before and after the tragic events. The film explores the deep bonds between band co-founders Jesse Hughes and Josh Homme (also a member of Queens of the Stone Age), as well as the intense connection the band has always had with its devoted fans, which moved them to return to Paris to perform once again in February 2016.", "poster_path": "/oe0exWiCRfy5GSQfnGi9wvwuSS.jpg", "release_date": "2017-02-10", "title": "Eagles of Death Metal: Nos Amis (Our Friends)", "video": false, "vote_average": 7.8, "vote_count": 13, "popularity": 8.988}, {"adult": false, "backdrop_path": "/icCpqXuNgHUxqM3mCLh7vMtrjAh.jpg", "genre_ids": [35, 10749], "id": 585833, "original_language": "en", "original_title": "Steam Room Stories: The Movie", "overview": "Failing cosmetics magnate Sally Fay (Traci Lords) will stop at nothing to possess the waters of the Steam Room to help lift her sagging empire. What she doesn\u2019t count on is the Steam Room Guys banding together to thwart her evil plans.", "poster_path": "/wHM4hOpIbrE7U6a0zLhtUgYJSI.jpg", "release_date": "2019-02-14", "title": "Steam Room Stories: The Movie", "video": false, "vote_average": 9.7, "vote_count": 3, "popularity": 3.148}, {"id": 470135, "video": false, "vote_count": 33, "vote_average": 6.0, "title": "Panic Attack", "release_date": "2018-01-19", "original_language": "pl", "original_title": "Atak paniki", "genre_ids": [35, 18], "backdrop_path": "/1FAS2wQ311ZOLXNmDwp205hIjVH.jpg", "adult": false, "overview": "Tragedy meets comedy in seven stories about how our entire world can collapse at any given moment.", "poster_path": "/dqtmx110ojo70F9dlNqefmm9nGe.jpg", "popularity": 4.533}, {"adult": false, "backdrop_path": "/i6d8VOXDWKRUnR8IKhF2j6ldAg0.jpg", "genre_ids": [18, 53], "id": 441483, "original_language": "en", "original_title": "Tomato Red", "overview": "When small town drifter Sammy Barlach drives into town on the search for his next cold beer and the bunch that'll have him, he gets a lot more than he bargained for.", "poster_path": "/eqn6RcwNDh3zzSPbnKSjdzXhowm.jpg", "release_date": "2017-02-24", "title": "Tomato Red", "video": false, "vote_average": 7.5, "vote_count": 4, "popularity": 3.121}, {"adult": false, "backdrop_path": "/mSRHwAXeR8YX3UoETOhThEujsgc.jpg", "genre_ids": [35, 18], "id": 49446, "original_language": "en", "original_title": "You Wont Miss Me", "overview": "A kaleidoscopic film portrait of Shelly Brown, a twenty-three year-old alienated urban misfit recently released from a psychiatric hospital.", "poster_path": "/bVQv1wOVbAsVP6HZagim4vR4svU.jpg", "release_date": "2010-11-12", "title": "You Wont Miss Me", "video": false, "vote_average": 5.8, "vote_count": 6, "popularity": 2.577}, {"adult": false, "backdrop_path": "/gofQAviRpQvhBu73zhThncs5aX5.jpg", "genre_ids": [18], "id": 517207, "original_language": "en", "original_title": "Marfa Girl 2", "overview": "A family living in Marfa, Texas attempts to pull themselves back together after a horrific tragedy. This provocative sequel to Larry Clark's film Marfa Girl, shows us a group of people ready to escape their current realities - no matter the cost. Gritty, unrelenting and powerful, auteur Clark once again delivers a bleak landscape of sex, drugs and boredom amongst the residents of a dead-end Texas Border town.", "poster_path": "/f9LqBpPYiSv0TK58j9UV2wlsS0q.jpg", "release_date": "2018-08-26", "title": "Marfa Girl 2", "video": false, "vote_average": 6.6, "vote_count": 5, "popularity": 3.638}, {"adult": false, "backdrop_path": "/tguW0wGvYMNzsHmJIZafDE8pLsj.jpg", "genre_ids": [53, 35], "id": 503755, "original_language": "en", "original_title": "Brothers' Nest", "overview": "With their Mother dying of cancer, intent on changing her will to benefit her new husband before she dies, two brothers go to extreme and deadly lengths to protect their inheritance from being signed away before it\u2019s too late.", "poster_path": "/b2k7IdRHHuD2HZPZMWsZzRFUHoA.jpg", "release_date": "2018-06-21", "title": "Brothers' Nest", "video": false, "vote_average": 7.0, "vote_count": 18, "popularity": 4.652}, {"id": 414792, "video": false, "vote_count": 15, "vote_average": 7.4, "title": "California Typewriter", "release_date": "2017-08-18", "original_language": "en", "original_title": "California Typewriter", "genre_ids": [99], "backdrop_path": "/j1z8S3ZfgDn47AegrQoslsdAoHl.jpg", "adult": false, "overview": "A story about people whose lives are connected by typewriters. A meditation on creativity and technology featuring Tom Hanks, John Mayer, Sam Shepard, David McCullough and others.", "poster_path": "/8tdOPx8TZ6y85BHD0G3sS8anuMY.jpg", "popularity": 5.232}, {"adult": false, "backdrop_path": "/zq4TnMDOsTRWKduilLTjPNY0AET.jpg", "genre_ids": [18], "id": 419473, "original_language": "en", "original_title": "Aardvark", "overview": "The aardvark has evolved to be one of a kind. You could say the same of Josh Norman.", "poster_path": "/8dBxPZRtoqA2qq9wKxRPBSwqdKi.jpg", "release_date": "2018-04-13", "title": "Aardvark", "video": false, "vote_average": 5.7, "vote_count": 12, "popularity": 3.532}, {"adult": false, "backdrop_path": "/hp2aDZk4FAY5NfRoul2dwXbumw2.jpg", "genre_ids": [35, 18], "id": 442842, "original_language": "ja", "original_title": "\u7363\u9053", "overview": "Born in a small town in Japan, a young girl named Ai is sent to a cult commune by her religious maniac mother and lives there for seven long years. After the cult is exposed by the police, Ai starts a new stage of life, going to a normal school for the first time, but she can\u2019t find her place to fit in there. Ai drops out from the school and society, spending her life living with a rock-bottom delinquent family full of gangsters and call girls. In a strange twist of fate she finds herself back in a new and normal life, living with a middle-class family, but her troubled life continues to follow her into more deep and seedy paths.", "poster_path": "/ocK2R5vFdwFrNNu4dG1EHPnrj9T.jpg", "release_date": "2017-07-15", "title": "Love and Other Cults", "video": false, "vote_average": 8.2, "vote_count": 6, "popularity": 1.527}, {"adult": false, "backdrop_path": "/skJbiTKdAycO8sj6KaXShJOhPJ0.jpg", "genre_ids": [99, 36, 10402], "id": 567979, "original_language": "en", "original_title": "America's Blues", "overview": "America's Blues takes a new angle on the Blues, focusing on, not only the musical impact it has had on all forms of Popular American Music, but also the influence it has had on art, fashion, language, film and racial equality.", "poster_path": "/r4UPQfA74LWVcq5c1KIMI1KcHYD.jpg", "release_date": "2015-06-05", "title": "America's Blues", "video": false, "vote_average": 8.3, "vote_count": 3, "popularity": 1.464}, {"adult": false, "backdrop_path": "/9J5HAg1jTl8bBk5XtBJJkYwxCCy.jpg", "genre_ids": [27], "id": 533137, "original_language": "en", "original_title": "Armenian Haunting", "overview": "An Armenian-American journalist turns into an unwilling ghost hunter while researching the sudden deaths in her family and their connection to a paranormal mystery.", "poster_path": "/kzhko7n2CmNcKGr85jNoY1RxYXN.jpg", "release_date": "2018-04-24", "title": "Armenian Haunting", "video": false, "vote_average": 8.0, "vote_count": 3, "popularity": 2.102}, {"adult": false, "backdrop_path": "/e2CRMDYZHOHCjM5lxvyLwZeeZlT.jpg", "genre_ids": [18], "id": 469035, "original_language": "en", "original_title": "Shot", "overview": "One bullet. Three lives. Everyone pays. On an average Los Angeles day, a couple on the verge of divorce and a bullied teenager find their lives desperately changed when the boy's illegal gun goes off.", "poster_path": "/252Z2VpO6qaddZxwQ0GmwpwlBc5.jpg", "release_date": "2017-09-22", "title": "Shot", "video": false, "vote_average": 9.7, "vote_count": 3, "popularity": 3.013}, {"adult": false, "backdrop_path": "/jgjP3u7gfiAQ9YiynJH3tFBePzr.jpg", "genre_ids": [35], "id": 558117, "original_language": "en", "original_title": "Burguesinha", "overview": "When her Brazilian, senator father is arrested for involving his entire family in campaign finance fraud, a spoiled, rich, Brazilian socialite must suddenly start a new life in America without friends, money, a place to live or a greencard.", "poster_path": "/5sV4p7sxYkZNnW98MpeEvrIMdtg.jpg", "release_date": "2017-10-05", "title": "The Socialite", "video": false, "vote_average": 6.0, "vote_count": 4, "popularity": 2.997}, {"adult": false, "backdrop_path": "/3BeR0tbC8mShrJnaldWkxs7lUcu.jpg", "genre_ids": [99], "id": 73319, "original_language": "en", "original_title": "Visions of Eight", "overview": "Eight acclaimed filmmakers bring their unique and differing perspectives to the 1972 Summer Olympic Games held in Munich. The segments include Lelouch's take on Olympic losers and their struggle to remain dignified even in the face of bitter disappointment and defeat; Zetterling's dramatic exploration of the world of weightlifting; and Pfleghar's piece on young Russian gymnast Ludmilla Tourischev's majestic performance on the uneven bars.", "poster_path": "/mzVkecyq9ZUh5kaF8caVwr7tHso.jpg", "release_date": "1973-10-06", "title": "Visions of Eight", "video": false, "vote_average": 8.0, "vote_count": 5, "popularity": 3.947}, {"adult": false, "backdrop_path": "/oXoWnINeLEiN5y7DDlzAmXuLwwq.jpg", "genre_ids": [12, 35, 14], "id": 579296, "original_language": "en", "original_title": "Abnormal Attraction", "overview": "In a world where mythical creatures are real, monsters and humans are forced to coexist; and as prejudice and insecurity pulls everyone apart, three separate storylines manage to come together.", "poster_path": "/ljOaX35V09izGupAEx8h8saFd7n.jpg", "release_date": "2018-03-01", "title": "Abnormal Attraction", "video": false, "vote_average": 6.6, "vote_count": 5, "popularity": 5.231}, {"adult": false, "backdrop_path": "/npla8aRphjeM6EsKpeGTkxj5D70.jpg", "genre_ids": [18], "id": 436355, "original_language": "pt", "original_title": "Vazante", "overview": "Brazil 1821. Upon his return to the imposing farmhouse, Antonio, a rich cattle herder, finds out that his wife dies in labor. Forced to live in the property with numerous African slaves, he marries his wife's niece. A restless soul, he returns to droving, leaving his young wife behind alone with the slaves.", "poster_path": "/pK1CHVJ8A3MzRE6JrkWdIm1aQ60.jpg", "release_date": "2017-09-28", "title": "Vazante", "video": false, "vote_average": 8.2, "vote_count": 9, "popularity": 1.295}], "total_pages": 2, "total_results": 40}, "credits": {"cast": [{"cast_id": 9, "character": "Jerzy G\u00f3rski", "credit_id": "598cd145c3a3683a37000e57", "gender": 2, "id": 489961, "name": "Jakub Giersza\u0142", "order": 0, "profile_path": "/i3DzV8gL6DAMHn2MC8uFWLHENbk.jpg"}, {"cast_id": 18, "character": "Dyrektor klubu sportowego", "credit_id": "598cd3dbc3a3683aaa001170", "gender": 2, "id": 140652, "name": "Tomasz Kot", "order": 1, "profile_path": "/2tc5SkrtKjEWBd6V8SpuuDPDg0l.jpg"}, {"cast_id": 10, "character": "Trener Jerzego", "credit_id": "598cd157c3a3683a05000f2f", "gender": 0, "id": 127852, "name": "Arkadiusz Jakubik", "order": 2, "profile_path": "/nmeSlClfa0wXm6oPEiSW5NNL26W.jpg"}, {"cast_id": 14, "character": "Ewa", "credit_id": "598cd19bc3a3683a2a000f49", "gender": 0, "id": 1867577, "name": "Kamila Kami\u0144ska", "order": 3, "profile_path": "/TshOKPytu790nGJLGqEKTOROXj.jpg"}, {"cast_id": 12, "character": "Ojciec Jerzego", "credit_id": "598cd17c9251414c52000e44", "gender": 0, "id": 82311, "name": "Artur \u017bmijewski", "order": 4, "profile_path": "/jdSUoReNSqnBkL6GMI6GIwQC10C.jpg"}, {"cast_id": 15, "character": "Matka Jerzego", "credit_id": "598cd1a89251414c52000e7f", "gender": 1, "id": 591258, "name": "Magdalena Cielecka", "order": 5, "profile_path": "/cwGxSo3A6dtogxeWnObYPXRh7dC.jpg"}, {"cast_id": 11, "character": "Marek Kota\u0144ski", "credit_id": "598cd1669251414c42000e8e", "gender": 2, "id": 1147, "name": "Janusz Gajos", "order": 6, "profile_path": "/j8HQOPCGNXMfTPrk7fJ3wFEuCDP.jpg"}, {"cast_id": 13, "character": "Milicjant, ojciec Gra\u017cyny", "credit_id": "598cd1939251414c42000ec5", "gender": 0, "id": 136558, "name": "Adam Woronowicz", "order": 7, "profile_path": "/mfspq18vaDh3ClgxZeCKPBIlGrK.jpg"}, {"cast_id": 16, "character": "Terapeuta Pawe\u0142", "credit_id": "598cd1b4c3a3683a47000dd5", "gender": 0, "id": 1375171, "name": "Szymon Piotr Warszawski", "order": 8, "profile_path": null}, {"cast_id": 17, "character": "Andrzej", "credit_id": "598cd3ce9251414c12001205", "gender": 2, "id": 1482162, "name": "Mateusz Ko\u015bciukiewicz", "order": 9, "profile_path": "/pxjkjiC1CAsqhFWDdUtFDFrkvuf.jpg"}, {"cast_id": 19, "character": "Gra\u017cyna", "credit_id": "598cd3e39251414c0b0011bc", "gender": 1, "id": 1120448, "name": "Anna Pr\u00f3chniak", "order": 10, "profile_path": "/8kEJfZ2wWewXkwpB3bCd78cRF29.jpg"}, {"cast_id": 22, "character": "Instruktor ta\u0144ca", "credit_id": "5b2bbfb792514164f20076c7", "gender": 2, "id": 589350, "name": "Miros\u0142aw Haniszewski", "order": 12, "profile_path": "/tDiFDhhq4vEzkNORDWo3iygfbgh.jpg"}], "crew": [{"credit_id": "598ccfd3c3a3683a2a000ca2", "department": "Writing", "gender": 0, "id": 1281200, "job": "Writer", "name": "Maciej Karpi\u0144ski", "profile_path": null}, {"credit_id": "598ccff1c3a3683a7f000c62", "department": "Writing", "gender": 1, "id": 976820, "job": "Writer", "name": "Agatha Dominik", "profile_path": null}, {"credit_id": "598cd0999251414c42000d71", "department": "Camera", "gender": 2, "id": 1166085, "job": "Director of Photography", "name": "Piotr Soboci\u0144ski Jr.", "profile_path": "/nuBku5u5GvsWRluLSjhONv5eh1v.jpg"}, {"credit_id": "598cd0ddc3a3683aba000d87", "department": "Writing", "gender": 0, "id": 1768864, "job": "Screenplay", "name": "Marek Warszewski", "profile_path": null}, {"credit_id": "598cd1029251414c52000d9b", "department": "Visual Effects", "gender": 0, "id": 1611201, "job": "Character Designer", "name": "Ewa Drobiec", "profile_path": null}, {"credit_id": "598cd1199251414c03000ed5", "department": "Production", "gender": 2, "id": 1801862, "job": "Producer", "name": "Krzysztof Szpetma\u0144ski", "profile_path": null}, {"credit_id": "59cc91e8c3a3682a4100a98c", "department": "Directing", "gender": 2, "id": 121674, "job": "Director", "name": "\u0141ukasz Palkowski", "profile_path": "/v9FPkhv7MKpuc5TsgQxyga8myVL.jpg"}, {"credit_id": "5c2bc17b92514122b16d00cd", "department": "Editing", "gender": 0, "id": 1473507, "job": "Editor", "name": "Jaros\u0142aw Barzan", "profile_path": null}]}}