{"adult": false, "backdrop_path": "/yoer4BZT0FJtEW8xvl57WVKoBub.jpg", "belongs_to_collection": null, "budget": 0, "genres": [{"id": 18, "name": "Drama"}], "homepage": null, "id": 47053, "imdb_id": "tt0113491", "original_language": "hu", "original_title": "Utaz\u00e1s az Alf\u00f6ld\u00f6n", "overview": "Revisits of locations on the Great Hungarian Plain - the puszta - that were used in Tarr's S\u00e1t\u00e1ntang\u00f3 and Werckmeister harm\u00f3ni\u00e1k. Recitations of short lyric poems by Hungary's national poet S\u00e1ndor Petofi.", "popularity": 1.053, "poster_path": "/sGR6jZ5u3eCuJKRZ1VDz7pkwJ17.jpg", "production_companies": [], "production_countries": [{"iso_3166_1": "HU", "name": "Hungary"}], "release_date": "1995-01-01", "revenue": 0, "runtime": 35, "spoken_languages": [{"iso_639_1": "hu", "name": "Magyar"}], "status": "Released", "tagline": "", "title": "Journey on the Plain", "video": false, "vote_average": 5.7, "vote_count": 3, "keywords": {"keywords": [{"id": 1244, "name": "hungary"}, {"id": 214549, "name": "short"}]}, "similar": {"page": 1, "results": [{"id": 150540, "video": false, "vote_count": 13957, "vote_average": 7.9, "title": "Inside Out", "release_date": "2015-06-09", "original_language": "en", "original_title": "Inside Out", "genre_ids": [16, 35, 18, 10751], "backdrop_path": "/szytSpLAyBh3ULei3x663mAv5ZT.jpg", "adult": false, "overview": "Growing up can be a bumpy road, and it's no exception for Riley, who is uprooted from her Midwest life when her father starts a new job in San Francisco. Riley's guiding emotions\u2014 Joy, Fear, Anger, Disgust and Sadness\u2014live in Headquarters, the control centre inside Riley's mind, where they help advise her through everyday life and tries to keep things positive, but the emotions conflict on how best to navigate a new city, house and school.", "poster_path": "/aAmfIX3TT40zUHGcCKrlOZRKC7u.jpg", "popularity": 57.362}, {"id": 621733, "video": false, "vote_count": 0, "vote_average": 0.0, "title": "A Trip to the Seaside", "release_date": "2019-08-30", "original_language": "en", "original_title": "A Trip to the Seaside", "genre_ids": [99], "backdrop_path": null, "adult": false, "overview": "Experimental short film on the excitement and rush of a day trip", "poster_path": "/AuZVhpoJ4jm2LWDhoJKfxQfhDAi.jpg", "popularity": 1.324}, {"id": 326359, "video": false, "vote_count": 1180, "vote_average": 6.8, "title": "Frozen Fever", "release_date": "2015-03-09", "original_language": "en", "original_title": "Frozen Fever", "genre_ids": [12, 16, 10751], "backdrop_path": "/ubioPGniCfDiASmYYpeJs5RRNaC.jpg", "adult": false, "overview": "On Anna's birthday, Elsa and Kristoff are determined to give her the best celebration ever, but Elsa's icy powers may put more than just the party at risk.", "poster_path": "/lKJiVPzsAO9IJ4LKWXZ8vkR2bg4.jpg", "popularity": 17.218}, {"adult": false, "backdrop_path": "/4brEMzPazQE3hv3mogj6k1a29RP.jpg", "genre_ids": [10749, 14, 16], "id": 3933, "original_language": "en", "original_title": "Corpse Bride", "overview": "Set in a 19th-century european village, this stop-motion animation feature follows the story of Victor, a young man whisked away to the underworld and wed to a mysterious corpse bride, while his real bride Victoria waits bereft in the land of the living.", "poster_path": "/o9GbcdP7rOg2m1NyUnUR3ZwNcTE.jpg", "release_date": "2005-09-12", "title": "Corpse Bride", "video": false, "vote_average": 7.4, "vote_count": 4928, "popularity": 23.702}, {"adult": false, "backdrop_path": "/5OeY4U2rzePxWq2rkqMajUx2gz7.jpg", "genre_ids": [16, 10751, 12, 14, 10749], "id": 812, "original_language": "en", "original_title": "Aladdin", "overview": "Princess Jasmine grows tired of being forced to remain in the palace, so she sneaks out into the marketplace, in disguise, where she meets street-urchin Aladdin.  The couple falls in love, although Jasmine may only marry a prince.  After being thrown in jail, Aladdin becomes embroiled in a plot to find a mysterious lamp, with which the evil Jafar hopes to rule the land.", "poster_path": "/mjKozYRuHc9j7SmiXmbVmCiAM0A.jpg", "release_date": "1992-11-25", "title": "Aladdin", "video": false, "vote_average": 7.6, "vote_count": 7289, "popularity": 35.494}, {"id": 14813, "video": false, "vote_count": 456, "vote_average": 7.6, "title": "Mickey's Christmas Carol", "release_date": "1983-10-19", "original_language": "en", "original_title": "Mickey's Christmas Carol", "genre_ids": [16, 10751], "backdrop_path": "/fDK3xeAcQfQ40ZUULgZshElkspa.jpg", "adult": false, "overview": "It is an adaptation of the Charles Dickens classic A Christmas Carol, featuring Scrooge McDuck as his namesake and inspiration Ebenezer Scrooge and Mickey Mouse as Bob Cratchit. This film was based on a 1972 audio musical entitled Disney's A Christmas Carol. It is a twenty-four minute animated short film produced by Walt Disney Productions as an accompaniment to a re-release of The Rescuers.", "poster_path": "/29iF1IiC3ZyJQ1kmTf4LD8p8oro.jpg", "popularity": 14.7}, {"id": 9479, "video": false, "vote_count": 5316, "vote_average": 7.8, "title": "The Nightmare Before Christmas", "release_date": "1993-10-09", "original_language": "en", "original_title": "The Nightmare Before Christmas", "genre_ids": [16, 14, 10751], "backdrop_path": "/16lk65YfrDFIr6evkWRjSeOOSws.jpg", "adult": false, "overview": "Tired of scaring humans every October 31 with the same old bag of tricks, Jack Skellington, the spindly king of Halloween Town, kidnaps Santa Claus and plans to deliver shrunken heads and other ghoulish gifts to children on Christmas morning. But as Christmas approaches, Jack's rag-doll girlfriend, Sally, tries to foil his misguided plans.", "poster_path": "/6oxkO1VgKCq74fNILKAg6t2dVEt.jpg", "popularity": 18.951}, {"id": 650755, "video": false, "vote_count": 0, "vote_average": 0.0, "title": "Atordoado, Eu Permane\u00e7o Atento", "release_date": "2020-01-15", "original_language": "pt", "original_title": "Atordoado, Eu Permane\u00e7o Atento", "genre_ids": [99], "backdrop_path": null, "adult": false, "overview": "", "poster_path": "/exbM8qk6f6T44olJXcM8ix1sunL.jpg", "popularity": 5.092}, {"id": 19, "video": false, "vote_count": 1340, "vote_average": 8.2, "title": "Metropolis", "release_date": "1927-01-10", "original_language": "de", "original_title": "Metropolis", "genre_ids": [18, 878], "backdrop_path": "/gmH0N0bdlYGN1EUr8U2cMQYyg78.jpg", "adult": false, "overview": "In a futuristic city sharply divided between the working class and the city planners, the son of the city's mastermind falls in love with a working class prophet who predicts the coming of a savior to mediate their differences.", "poster_path": "/qriaeUUwdmlgethK3aSAx68mG05.jpg", "popularity": 20.587}, {"id": 4977, "video": false, "vote_count": 999, "vote_average": 7.8, "title": "Paprika", "release_date": "2006-10-01", "original_language": "ja", "original_title": "\u30d1\u30d7\u30ea\u30ab", "genre_ids": [16, 18, 9648, 878, 53], "backdrop_path": "/jViKJYWcILHeN0KH1Wub0Go59TZ.jpg", "adult": false, "overview": "When a machine that allows therapists to enter their patient's dreams is stolen, all hell breaks loose. Only a young female therapist can stop it: Paprika.", "poster_path": "/bLUUr474Go1DfeN1HLjE3rnZXBq.jpg", "popularity": 14.934}, {"adult": false, "backdrop_path": "/tr6OExnBfjLADi9OyZoW308mPAp.jpg", "genre_ids": [18, 35, 10749], "id": 74643, "original_language": "en", "original_title": "The Artist", "overview": "Hollywood, 1927: As silent movie star George Valentin wonders if the arrival of talking pictures will cause him to fade into oblivion, he sparks with Peppy Miller, a young dancer set for a big break.", "poster_path": "/i0mpvMIIjyubXsVKug9vX0lYpnd.jpg", "release_date": "2011-06-26", "title": "The Artist", "video": false, "vote_average": 7.4, "vote_count": 1977, "popularity": 10.661}, {"id": 901, "video": false, "vote_count": 1026, "vote_average": 8.4, "title": "City Lights", "release_date": "1931-02-01", "original_language": "xx", "original_title": "City Lights", "genre_ids": [35, 18, 10749], "backdrop_path": "/vT6ux2rdyg2kexuLisO5Ygz7pHg.jpg", "adult": false, "overview": "City Lights is the first silent film that Charlie Chaplin directed after he established himself with sound accompanied films. The film is about a penniless man who falls in love with a flower girl.", "poster_path": "/bXNvzjULc9jrOVhGfjcc64uKZmZ.jpg", "popularity": 14.645}, {"adult": false, "backdrop_path": "/fJQ5kjLx4UdK05MC323Vlzwr6S8.jpg", "genre_ids": [35, 18, 36], "id": 140823, "original_language": "en", "original_title": "Saving Mr. Banks", "overview": "Author P.L. Travers travels from London to Hollywood as Walt Disney Pictures adapts her novel Mary Poppins for the big screen.", "poster_path": "/mvs3reS18RP6IhjLwwLeVtkoeg0.jpg", "release_date": "2013-11-16", "title": "Saving Mr. Banks", "video": false, "vote_average": 7.4, "vote_count": 2230, "popularity": 11.476}, {"id": 37135, "video": false, "vote_count": 4092, "vote_average": 7.4, "title": "Tarzan", "release_date": "1999-06-18", "original_language": "en", "original_title": "Tarzan", "genre_ids": [12, 16, 18, 10751], "backdrop_path": "/hCpRqibOM0ouOiqL0HMqZOF8bYe.jpg", "adult": false, "overview": "Tarzan was a small orphan who was raised by an ape named Kala since he was a child. He believed that this was his family, but on an expedition Jane Porter is rescued by Tarzan. He then finds out that he's human. Now Tarzan must make the decision as to which family he should belong to...", "poster_path": "/y6k0qn4tcDfbnrjJ2BUnoZYmMBk.jpg", "popularity": 22.572}, {"adult": false, "backdrop_path": "/twGxeStlGooWV3gP6ZIcSNuQ6jf.jpg", "genre_ids": [12, 16, 10751, 14], "id": 81684, "original_language": "en", "original_title": "The Gruffalo's Child", "overview": "A follow up to the 2009 animated feature and adapted from the childrens' book by Julia Donaldson and Alex Scheffler.  The Gruffalo's child explores the deep dark wood in search of the big bad mouse and meets the Snake, Owl and Fox in the process.  She eventually finds the mouse, who manages to outwit her like the Gruffalo before!", "poster_path": "/qaGH2AoaLvoGXURQtNzj1nw6oZd.jpg", "release_date": "2011-12-25", "title": "The Gruffalo's Child", "video": false, "vote_average": 6.9, "vote_count": 73, "popularity": 9.51}, {"id": 621485, "video": false, "vote_count": 2, "vote_average": 5.5, "title": "Guest of Honor", "release_date": "2019-08-14", "original_language": "en", "original_title": "Guest of Honor", "genre_ids": [18], "backdrop_path": "/qo3f05mAqiGG5yDyVhURwwhR1oh.jpg", "adult": false, "overview": "A devout Nazi oversees a group of taste testers for Hitler.", "poster_path": "/g02YorY0sAVDJuXdL42Vpmqtv0g.jpg", "popularity": 3.407}, {"adult": false, "backdrop_path": null, "genre_ids": [], "id": 616262, "original_language": "ar", "original_title": "All Come From Dust", "overview": "A loop of edgeless bend. You were its doom, he was its bloom. You were its tomb, he was its womb. You were its gloom, he was its loom. For Heaven and Hell, were words made of fume.", "poster_path": null, "release_date": "2019-08-13", "title": "All Come From Dust", "video": false, "vote_average": 5.0, "vote_count": 1, "popularity": 0.6}, {"adult": false, "backdrop_path": "/qFLDF62VbWyyxkwco9lwZqkGoMB.jpg", "genre_ids": [16, 10751], "id": 10895, "original_language": "en", "original_title": "Pinocchio", "overview": "Lonely toymaker Geppetto has his wishes answered when the Blue Fairy arrives to bring his wooden puppet Pinocchio to life. Before becoming a real boy, however, Pinocchio must prove he's worthy as he sets off on an adventure with his whistling sidekick and conscience, Jiminy Cricket.", "poster_path": "/gN1dQBHi4557cFduIu9njOr6knW.jpg", "release_date": "1940-02-23", "title": "Pinocchio", "video": false, "vote_average": 7.0, "vote_count": 3431, "popularity": 25.831}, {"id": 313297, "video": false, "vote_count": 2277, "vote_average": 7.7, "title": "Kubo and the Two Strings", "release_date": "2016-08-18", "original_language": "en", "original_title": "Kubo and the Two Strings", "genre_ids": [12, 16, 10751], "backdrop_path": "/aF4TrSc1IbNNtsWdwixMQNku3Dv.jpg", "adult": false, "overview": "Kubo mesmerizes the people in his village with his magical gift for spinning wild tales with origami. When he accidentally summons an evil spirit seeking vengeance, Kubo is forced to go on a quest to solve the mystery of his fallen samurai father and his mystical weaponry, as well as discover his own magical powers.", "poster_path": "/3Kr9CIIMcXTPlm6cdZ9y3QTe4Y7.jpg", "popularity": 33.362}, {"id": 14836, "video": false, "vote_count": 3514, "vote_average": 7.6, "title": "Coraline", "release_date": "2009-02-05", "original_language": "en", "original_title": "Coraline", "genre_ids": [16, 10751], "backdrop_path": "/obBsMjC9dkDeoYsLxHURikW87UZ.jpg", "adult": false, "overview": "When Coraline moves to an old house, she feels bored and neglected by her parents. She finds a hidden door with a bricked up passage. During the night, she crosses the passage and finds a parallel world where everybody has buttons instead of eyes, with caring parents and all her dreams coming true. When the Other Mother invites Coraline to stay in her world forever, the girl refuses and finds that the alternate reality where she is trapped is only a trick to lure her.", "poster_path": "/ybOmHUVVXcwBQErjw7tmeE97fpO.jpg", "popularity": 25.26}], "total_pages": 917, "total_results": 18330}, "recommendations": {"page": 1, "results": [{"adult": false, "backdrop_path": null, "genre_ids": [18], "id": 149514, "original_language": "hu", "original_title": "Szenved\u00e9ly", "overview": "Gy\u00f6rgy Feh\u00e8r\u2019s aim was to \u201cmake a film which is similar to the last salvaged print of a long lost film\u201d. The passions he investigates are centred around primeval fears and cravings and a sense of inescapable doom. Shot in powerful black and white with excellent central performances.", "poster_path": "/l4H5Dd1dOHwSCEcRG0tuBCcTBSM.jpg", "release_date": "1998-10-22", "title": "Passion", "video": false, "vote_average": 7.5, "vote_count": 4, "popularity": 2.103}, {"adult": false, "backdrop_path": null, "genre_ids": [99], "id": 152739, "original_language": "en", "original_title": "Los", "overview": "Los Angeles is depicted in 35 stationary shots, each 2 1/2 minutes long, in this non-narrative film.", "poster_path": "/fhtWPLA032YlKtJoCPLTyjSvuTy.jpg", "release_date": "2001-02-26", "title": "Los", "video": false, "vote_average": 7.0, "vote_count": 4, "popularity": 1.602}, {"adult": false, "backdrop_path": "/p94PfQYtdYaoXKrdLd7r7N597p.jpg", "genre_ids": [99], "id": 137008, "original_language": "en", "original_title": "small roads", "overview": "Lengthy static shots of various backroads, smaller interstates, quieter roads, and lonely highways.", "poster_path": "/jpczFY1YxHyo87xrlmsugnhRyQq.jpg", "release_date": "2011-09-03", "title": "small roads", "video": false, "vote_average": 6.7, "vote_count": 6, "popularity": 2.559}, {"adult": false, "backdrop_path": null, "genre_ids": [18], "id": 247436, "original_language": "xx", "original_title": "Sz\u00e9l", "overview": "During a film course lead by Yvette Biro at the Hungarian Academy of Drama and film in 1995, the director students were shown a black-and-white photo taken by Lucien Herve in 1952, and they were given the task of writing a short film based on it. Three women are standing at the outskirts of a village, looking out of the picture in the same direction. This six-minute one-shot film shows what the Herve photo does not.", "poster_path": "/87C6aoVlqxK2jSOwKDSlwg1IjtB.jpg", "release_date": "1996-01-01", "title": "Wind", "video": false, "vote_average": 6.8, "vote_count": 5, "popularity": 0.6}, {"adult": false, "backdrop_path": null, "genre_ids": [18, 35], "id": 105283, "original_language": "hu", "original_title": "Kelj fel, kom\u00e1m, ne aludj\u00e1l!", "overview": "This time, Kapa and Pepe are first of all prisoners of war \u2013 and convicts taken to forced labor service, Jews, Hungarian soldiers, German soldiers. Once they are to be executed, then again they are to perform executions. The film tells in spectacular episodes about the fact that in the past more than one century and a half we kept marching from war to war; occupation and liberation turned out to be indifferent, and why couldn\u2019t the Jews execute the SS-guys? Our heroes hover about dilapidated barracks, then again on the bridges of the capital they guess whose satellites or eternal friends for all times we might be just now. In the cupboard, among the preserved fruit bottles, Stalin is still hiding. The authors of the film are cited before court, then in a showcase hospital they are waiting for the end to come. A Soviet soldier-maid closes the film with a P\u00e9ter N\u00e1das-quote.", "poster_path": "/zNMlPVYw9PDZ6xVZvEzi0eV3Qr6.jpg", "release_date": "2003-02-06", "title": "Wake Up, Mate, Don't You Sleep", "video": false, "vote_average": 5.1, "vote_count": 6, "popularity": 1.381}, {"id": 100215, "video": false, "vote_count": 5, "vote_average": 6.4, "title": "Another Way", "release_date": "1982-05-01", "original_language": "hu", "original_title": "Egym\u00e1sra n\u00e9zve", "genre_ids": [18, 36], "backdrop_path": "/lnqEUwmKTlFtzsKkkaYSvfA81aF.jpg", "adult": false, "overview": "Political and sexual repression in Hungary, just after the revolution of 1956. In 1958, the body of Eva Szalanczky, a political journalist, is discovered near the border. Her friend Livia is in hospital with a broken neck; Livia's husband, Donci, is under arrest. In a flashback to the year before, we see what leads up to the tragedy. Eva gets a job as a writer. She meets Livia and is attracted to her. Livia feels much the same, but as a married woman, has doubts and hesitations. In their work, they (and Eva in particular) bang up against the limits of telling political truths; in private, they confront the limits of living out sexual and emotional truth.", "poster_path": "/d2k2I1fm4m0Q6rhwIY3Xp0nlRli.jpg", "popularity": 1.861}, {"adult": false, "backdrop_path": "/krrpvp7CEaFKYlPPozAG5P6fqSU.jpg", "genre_ids": [18], "id": 114246, "original_language": "es", "original_title": "Fantasma", "overview": "A solitary man's only pastime is to go to a movie theatre, the Teatro San Mart\u00edn, on Corrientes Avenue in Buenos Aires. There he exorcises his ghosts.", "poster_path": "/8ncw6smQzlnXaaLcQzyPf444O3.jpg", "release_date": "2006-03-23", "title": "Fantasma", "video": false, "vote_average": 6.0, "vote_count": 9, "popularity": 0.91}, {"adult": false, "backdrop_path": null, "genre_ids": [18], "id": 115427, "original_language": "hu", "original_title": "Macbeth", "overview": "A Hungarian TV version of the play shot in just two takes.", "poster_path": "/aJtkDfwy9uIq0Vk7QfbiScvmF02.jpg", "release_date": "1982-01-01", "title": "Macbeth", "video": false, "vote_average": 7.8, "vote_count": 5, "popularity": 1.186}, {"id": 154450, "video": false, "vote_count": 10, "vote_average": 5.1, "title": "Cinderella", "release_date": "1922-12-06", "original_language": "en", "original_title": "Cinderella", "genre_ids": [16], "backdrop_path": "/5H4taLavcjRtFVJA5IHwl7Am9Re.jpg", "adult": false, "overview": "Cinderella, the \"ash girl,\" is kept in menial labor by her two wicked stepsisters. Meanwhile the handsome prince of the territory is out hunting bears. His father invites everyone in the country to a ball, and a fairy godmother appears to help Cinderella attend in style. The prince falls for her, but she runs away as her fairy godmother's deadline of midnight arrives. The prince finds her lost slipper and searches the territory for its rightful owner, hoping to live happily ever after when he finds her.", "poster_path": "/ppoX9veW23dxRuSQ07QBrkM1P5C.jpg", "popularity": 2.073}, {"id": 131586, "video": false, "vote_count": 6, "vote_average": 7.8, "title": "Merry-Go-Round", "release_date": "1956-02-02", "original_language": "hu", "original_title": "K\u00f6rhinta", "genre_ids": [18, 10749], "backdrop_path": null, "adult": false, "overview": "In a rural scenery in the throes of difficult changes lives a humble but promising young farmer girl called Mari Pataki. Her father forbids her from seeing the man she loves. The father, above all preoccupied by work on the fields and prospective wealth, decides to give his daughter in marriage to an old but rich man with whom he does business. Land marries land, he says. This seems to be the unyielding rule of the Hungarian peasantry. But the young lover is ready to stand up to any challenge to keep Maris love.", "poster_path": "/cWwIIQDbwMihUSTsYYppcKdWp6o.jpg", "popularity": 1.214}, {"adult": false, "backdrop_path": "/5tfv0pRaGv7UV81gPsnoIbCQTyP.jpg", "genre_ids": [99], "id": 86282, "original_language": "zh", "original_title": "\u94c1\u897f\u533a", "overview": "A detailed look at the gradual decline of Shenyang\u2019s industrial Tiexi district, an area that was once a vibrant example of China\u2019s socialist economy. But industry is changing, and the factories of Tiexi are closing. Director Wang Bing introduces us to some of the workers affected by the closures, and to their families.", "poster_path": "/hRH0ToR9tgCtNpyzOpqzYv1G47W.jpg", "release_date": "2002-04-26", "title": "Tie Xi Qu: West of the Tracks", "video": false, "vote_average": 7.9, "vote_count": 11, "popularity": 3.902}, {"adult": false, "backdrop_path": "/4IXj6IvsqgyGMhQ2o0JxwqmDMLU.jpg", "genre_ids": [18], "id": 86431, "original_language": "hu", "original_title": "Szindb\u00e1d", "overview": "Based on the stories of Hungarian writer Gyula Kr\u00fady, this iconic film is a lush and sensuous depiction of the life, loves and memories of serial seducer Szindb\u00e1d.", "poster_path": "/puxzbw2njLBaUlJMBntoHMeV0oZ.jpg", "release_date": "1971-11-25", "title": "Sinbad", "video": false, "vote_average": 6.7, "vote_count": 12, "popularity": 1.114}], "total_pages": 1, "total_results": 12}, "credits": {"cast": [{"cast_id": 4, "character": "", "credit_id": "5a5107f70e0a26026f00d389", "gender": 2, "id": 224340, "name": "Mih\u00e1ly V\u00edg", "order": 1, "profile_path": null}], "crew": [{"credit_id": "52fe471cc3a36847f8123e07", "department": "Directing", "gender": 2, "id": 85637, "job": "Director", "name": "B\u00e9la Tarr", "profile_path": "/l8YNXkVlsmfspleRPJsVdPZbZYx.jpg"}, {"credit_id": "52fe471cc3a36847f8123e0d", "department": "Writing", "gender": 0, "id": 125404, "job": "Writer", "name": "S\u00e1ndor Pet\u0151fi", "profile_path": "/re1EpofqVWlHeOiw4u0xfbeZyPI.jpg"}, {"credit_id": "5986935cc3a368323400f4b2", "department": "Crew", "gender": 2, "id": 591878, "job": "Cinematography", "name": "Fred Kelemen", "profile_path": "/qBcX8xfAHifClU7IjQMRmaAMEXU.jpg"}]}}