{"adult": false, "backdrop_path": null, "belongs_to_collection": null, "budget": 100000, "genres": [{"id": 99, "name": "Documentary"}], "homepage": "https://aveclamour.xyz", "id": 470796, "imdb_id": "tt5759506", "original_language": "mk", "original_title": "Avec l'amour", "overview": "A simple story, but larger than life portrayal of the universal human saga represented through Dionis, a retiring biology professor, his wife and his fantasy of turning his unusual car collection into a museum in a small uneventful town.", "popularity": 0.637, "poster_path": "/5Q2IjeVnCvuxIWwXl3rXF3p4x0G.jpg", "production_companies": [{"id": 76536, "logo_path": null, "name": "Trice Films", "origin_country": "MK"}], "production_countries": [{"iso_3166_1": "MK", "name": "Macedonia"}], "release_date": "2017-05-02", "revenue": 0, "runtime": 67, "spoken_languages": [{"iso_639_1": "mk", "name": ""}], "status": "Released", "tagline": "115 rotten vintage cars, a young wife, students that adore him - Dionis, a biology teacher with love for life. (or just another reason to keep on buying useless vehicles)", "title": "Avec l'amour", "video": false, "vote_average": 9.0, "vote_count": 1, "keywords": {"keywords": [{"id": 7313, "name": "oldtimer"}, {"id": 9673, "name": "love"}, {"id": 206119, "name": "macedonia"}, {"id": 231078, "name": "cars"}]}, "similar": {"page": 1, "results": [{"id": 12531, "video": false, "vote_count": 91, "vote_average": 6.9, "title": "The Apartment", "release_date": "1996-07-27", "original_language": "fr", "original_title": "L'Appartement", "genre_ids": [18, 9648, 10749], "backdrop_path": "/64qyT8m4JQ6YODvXxtbHgKmXBX7.jpg", "adult": false, "overview": "A stylish suspense thriller that confounds the audience while presenting them with an extraordinary and elusive mystery. Max is a former playboy who has decided to settle down by marrying his current love, Muriel. However, during a business trip, Max catches a glimpse of the great lost love of his life, reviving his wanderlust and sending him off on a chase of the elusive Lisa, whom he had overheard suggesting to a friend that her lover, Daniel, had killed someone for her. Soon, Max is trying to unravel the mystery behind the suspicious death of Daniel's wife, which he hopes will lead him closer to Lisa.", "poster_path": "/1sqrQdQTn8jKLhUcPKfRVj639zA.jpg", "popularity": 19.17}, {"id": 50544, "video": false, "vote_count": 5179, "vote_average": 6.6, "title": "Friends with Benefits", "release_date": "2011-07-21", "original_language": "en", "original_title": "Friends with Benefits", "genre_ids": [35, 10749], "backdrop_path": "/liq5ljqURqLiBUgMkNiR388ZuSH.jpg", "adult": false, "overview": "Dylan and Jamie think it's going to be easy to add the simple act of sex to their friendship, despite what Hollywood romantic comedies would have them believe. They soon discover however that getting physical really does always lead to complications.", "poster_path": "/nKhhDFCdzxeJ3GUunQ570LDpUkz.jpg", "popularity": 19.488}, {"adult": false, "backdrop_path": "/7DwSXdN28VA5wQYw49PKpxhR1Lq.jpg", "genre_ids": [18, 14], "id": 1024, "original_language": "en", "original_title": "Heavenly Creatures", "overview": "Wealthy and precocious teenager Juliet transfers from England to New Zealand with her family, and soon befriends the quiet, brooding Pauline through their shared love of fantasy and literature. When their parents begin to suspect that their increasingly intense and obsessive bond is becoming unhealthy, the girls hatch a dark plan for those who threaten to keep them apart.", "poster_path": "/5ek49TUeqStPmKwNdxrCSUAdXNe.jpg", "release_date": "1994-09-12", "title": "Heavenly Creatures", "video": false, "vote_average": 7.1, "vote_count": 519, "popularity": 10.27}, {"adult": false, "backdrop_path": "/Ao2bnJMmcFepMVw1BUay25tt7TM.jpg", "genre_ids": [18, 10749], "id": 1259, "original_language": "en", "original_title": "Notes on a Scandal", "overview": "A veteran high school teacher befriends a younger art teacher, who is having an affair with one of her 15-year-old students. However, her intentions with this new \"friend\" also go well beyond platonic friendship.", "poster_path": "/lXZa1mHZ8eD0VOpNaLfvM9tSpAj.jpg", "release_date": "2006-12-25", "title": "Notes on a Scandal", "video": false, "vote_average": 7.1, "vote_count": 463, "popularity": 12.753}, {"id": 2057, "video": false, "vote_count": 429, "vote_average": 5.9, "title": "Original Sin", "release_date": "2001-05-08", "original_language": "en", "original_title": "Original Sin", "genre_ids": [53], "backdrop_path": "/is3I5v8FwLiEWxaksfN8D4MLNGH.jpg", "adult": false, "overview": "A young man is plunged into a life of subterfuge, deceit and mistaken identity in pursuit of a femme fatale whose heart is never quite within his grasp", "poster_path": "/yGis1Mai4ivspEXdWtXLg0bZPkX.jpg", "popularity": 18.232}, {"id": 38, "video": false, "vote_count": 8445, "vote_average": 8.1, "title": "Eternal Sunshine of the Spotless Mind", "release_date": "2004-03-19", "original_language": "en", "original_title": "Eternal Sunshine of the Spotless Mind", "genre_ids": [18, 878, 10749], "backdrop_path": "/1dXTsaFxHoF9cas08UjAqE8NqOW.jpg", "adult": false, "overview": "Joel Barish, heartbroken that his girlfriend underwent a procedure to erase him from her memory, decides to do the same. However, as he watches his memories of her fade away, he realises that he still loves her, and may be too late to correct his mistake.", "poster_path": "/7y3eYvTsGjxPYDtSnumCLIMDkrV.jpg", "popularity": 22.427}, {"id": 521, "video": false, "vote_count": 1257, "vote_average": 8.0, "title": "Dial M for Murder", "release_date": "1954-05-29", "original_language": "en", "original_title": "Dial M for Murder", "genre_ids": [80, 18, 9648, 53], "backdrop_path": "/jVMlfESb0TJ29w8CUDDofEprMmn.jpg", "adult": false, "overview": "An ex-tennis pro carries out a plot to have his wife murdered after discovering she is having an affair, and assumes she will soon leave him for the other man anyway. When things go wrong, he improvises a new plan\u2014to frame her for murder instead.", "poster_path": "/xrpK1PyckNWmRxU4kZURfaCyboS.jpg", "popularity": 28.336}, {"adult": false, "backdrop_path": "/74Jh5SIWnKDwtusPfDP51EeCFHt.jpg", "genre_ids": [35, 10749], "id": 9576, "original_language": "en", "original_title": "Tootsie", "overview": "When struggling, out of work actor Michael Dorsey secretly adopts a female alter ego - Dorothy Michaels - in order to land a part in a daytime drama, he unwittingly becomes a feminist icon and ends up in a romantic pickle.", "poster_path": "/ngyCzZwb9y5sMUCig5JQT4Y33Q.jpg", "release_date": "1982-12-16", "title": "Tootsie", "video": false, "vote_average": 7.2, "vote_count": 915, "popularity": 9.882}, {"adult": false, "backdrop_path": "/xC9cG6Wy6QbH2hoAx11xPPD995R.jpg", "genre_ids": [18, 10749], "id": 86331, "original_language": "fr", "original_title": "Q", "overview": "In a social context deteriorated by a countrywide economic crisis, the life of several people will be turned upside down after they meet Cecile, a character who symbolizes desire.", "poster_path": "/9Jg9s4yTEndNmy1SSXRF9jdxY9D.jpg", "release_date": "2011-09-14", "title": "Desire", "video": false, "vote_average": 4.6, "vote_count": 204, "popularity": 25.756}, {"id": 272693, "video": false, "vote_count": 3249, "vote_average": 6.8, "title": "The DUFF", "release_date": "2015-02-20", "original_language": "en", "original_title": "The DUFF", "genre_ids": [35, 10749], "backdrop_path": "/awGZf5T1hflis9Z2KvRMhp798xU.jpg", "adult": false, "overview": "Bianca's universe turns upside down when she learns that her high school refers to her as a \u2018DUFF' (Designated Ugly Fat Friend). Hoping to erase that label, she enlists the help of a charming jock and her favorite teacher. Together they'll face the school's mean girl and remind everyone that we are all someone's DUFF\u2026 and that's totally fine.", "poster_path": "/dBBgPTCN5Zze4POXWVVpwf3wkra.jpg", "popularity": 17.232}, {"id": 10995, "video": false, "vote_count": 255, "vote_average": 6.6, "title": "The Lover", "release_date": "1992-02-22", "original_language": "fr", "original_title": "L'Amant", "genre_ids": [18, 10749], "backdrop_path": "/zRAgf1F0rRp0Tys8AnMWGBFJRZv.jpg", "adult": false, "overview": "A poor French teenage girl engages in an illicit affair with a wealthy Chinese heir in 1920s Saigon. For the first time in her young life she has control, and she wields it deftly over her besotted lover throughout a series of clandestine meetings and torrid encounters.", "poster_path": "/iey1UA4hav2cn60qGi1zgKxpPBl.jpg", "popularity": 13.161}, {"id": 225886, "video": false, "vote_count": 2904, "vote_average": 5.3, "title": "Sex Tape", "release_date": "2014-07-17", "original_language": "en", "original_title": "Sex Tape", "genre_ids": [35], "backdrop_path": "/82j1VNKMnDx7ZA7Pm06vm0XMKas.jpg", "adult": false, "overview": "When Jay and Annie first got together, their romantic connection was intense \u2013 but ten years and two kids later, the flame of their love needs a spark.  To kick things up a notch, they decide \u2013 why not? \u2013 to make a video of themselves trying out every position in The Joy of Sex in one marathon three-hour session.  It seems like a great idea \u2013 until they discover that their most private video is no longer private.  With their reputations on the line, they know they\u2019re just one click away from being laid bare to the world... but as their race to reclaim their video leads to a night they'll never forget, they'll find that their video will expose even more than they bargained for.", "poster_path": "/2BMmIPGu5ZbTrwXwomdSUuTB2Ul.jpg", "popularity": 30.861}, {"id": 68718, "video": false, "vote_count": 17255, "vote_average": 8.1, "title": "Django Unchained", "release_date": "2012-12-25", "original_language": "en", "original_title": "Django Unchained", "genre_ids": [18, 37], "backdrop_path": "/qUcmEqnzIwlwZxSyTf3WliSfAjJ.jpg", "adult": false, "overview": "With the help of a German bounty hunter, a freed slave sets out to rescue his wife from a brutal Mississippi plantation owner.", "poster_path": "/eCt596Z4zkqxW5AHz1HEhGm1eif.jpg", "popularity": 39.475}, {"adult": false, "backdrop_path": "/w4w8CTEe4isWO2TzDSQ3MV3br9l.jpg", "genre_ids": [14, 35, 10751], "id": 8839, "original_language": "en", "original_title": "Casper", "overview": "Furious that her late father only willed her his gloomy-looking mansion rather than his millions, Carrigan Crittenden is ready to burn the place to the ground when she discovers a map to a treasure hidden in the house. But when she enters the rickety mansion to seek her claim, she is frightened away by a wicked wave of ghosts. Determined to get her hands on this hidden fortune, she hires afterlife therapist Dr. James Harvey to exorcise the ghosts from the mansion. Harvey and his daughter Kat move in, and soon Kat meets Casper, the ghost of a young boy who's \"the friendliest ghost you know.\" But not so friendly are Casper's uncles--Stretch, Fatso and Stinkie--who are determined to drive all \"fleshies\" away.", "poster_path": "/1WeumvndgPE3hopKQqXbCKO26oH.jpg", "release_date": "1995-05-26", "title": "Casper", "video": false, "vote_average": 6.2, "vote_count": 2788, "popularity": 25.596}, {"id": 72105, "video": false, "vote_count": 8343, "vote_average": 6.3, "title": "Ted", "release_date": "2012-06-29", "original_language": "en", "original_title": "Ted", "genre_ids": [35, 14], "backdrop_path": "/sPiFgbWMSQxVMO6TuRFrkeWwarI.jpg", "adult": false, "overview": "John Bennett, a man whose childhood wish of bringing his teddy bear to life came true, now must decide between keeping the relationship with the bear or his girlfriend, Lori.", "poster_path": "/5ExgYTRafm4kFRwHp2jH6C23Yl4.jpg", "popularity": 20.996}, {"id": 19913, "video": false, "vote_count": 6208, "vote_average": 7.2, "title": "(500) Days of Summer", "release_date": "2009-07-17", "original_language": "en", "original_title": "(500) Days of Summer", "genre_ids": [35, 18, 10749], "backdrop_path": "/yYw9cVdRJ4zzwxM2cTDXfT6JI6E.jpg", "adult": false, "overview": "Tom, greeting-card writer and hopeless romantic, is caught completely off-guard when his girlfriend, Summer, suddenly dumps him. He reflects on their 500 days together to try to figure out where their love affair went sour, and in doing so, Tom rediscovers his true passions in life.", "poster_path": "/5SjtNPD1bb182vzQccvEUpXHFjN.jpg", "popularity": 20.487}, {"adult": false, "backdrop_path": "/dji4Fm0gCDVb9DQQMRvAI8YNnTz.jpg", "genre_ids": [16, 35, 10751], "id": 862, "original_language": "en", "original_title": "Toy Story", "overview": "Led by Woody, Andy's toys live happily in his room until Andy's birthday brings Buzz Lightyear onto the scene. Afraid of losing his place in Andy's heart, Woody plots against Buzz. But when circumstances separate Buzz and Woody from their owner, the duo eventually learns to put aside their differences.", "poster_path": "/rhIRbceoE9lR4veEXuwCC2wARtG.jpg", "release_date": "1995-10-30", "title": "Toy Story", "video": false, "vote_average": 7.9, "vote_count": 11534, "popularity": 27.319}, {"id": 13, "video": false, "vote_count": 16610, "vote_average": 8.4, "title": "Forrest Gump", "release_date": "1994-07-06", "original_language": "en", "original_title": "Forrest Gump", "genre_ids": [35, 18, 10749], "backdrop_path": "/wMgbnUVS9wbRGAdki8fqxKU1O0N.jpg", "adult": false, "overview": "A man with a low IQ has accomplished great things in his life and been present during significant historic events\u2014in each case, far exceeding what anyone imagined he could do. But despite all he has achieved, his one true love eludes him.", "poster_path": "/yE5d3BUhE8hCnkMUJOo1QDoOGNz.jpg", "popularity": 41.886}, {"adult": false, "backdrop_path": "/pDuD96Fz0ZZXf9buEvRu1UQsmFT.jpg", "genre_ids": [12, 16, 10751], "id": 105864, "original_language": "en", "original_title": "The Good Dinosaur", "overview": "An epic journey into the world of dinosaurs where an Apatosaurus named Arlo makes an unlikely human friend.", "poster_path": "/2ZckiMTfSkCep2JTtZbr73tnQbN.jpg", "release_date": "2015-11-14", "title": "The Good Dinosaur", "video": false, "vote_average": 6.7, "vote_count": 3443, "popularity": 20.847}, {"id": 28178, "video": false, "vote_count": 3997, "vote_average": 8.0, "title": "Hachi: A Dog's Tale", "release_date": "2009-06-13", "original_language": "en", "original_title": "Hachi: A Dog's Tale", "genre_ids": [18, 10751], "backdrop_path": "/m87xptCZD6J15HcioOOX4kfEdeD.jpg", "adult": false, "overview": "A drama based on the true story of a college professor's bond with the abandoned dog he takes into his home.", "poster_path": "/3MpVmIg6CgOCUrZ2TZ2P0yitCbM.jpg", "popularity": 38.97}], "total_pages": 264, "total_results": 5269}, "recommendations": {"page": 1, "results": [], "total_pages": 1, "total_results": 0}, "credits": {"cast": [{"cast_id": 0, "character": "Dionis", "credit_id": "59b148069251410765089e07", "gender": 0, "id": 1883523, "name": "Dionis Pashlakov", "order": 1, "profile_path": null}, {"cast_id": 1, "character": "Grozdanka", "credit_id": "59b14817c3a3682e64030114", "gender": 0, "id": 1883524, "name": "Grozdanka Pashlakova", "order": 2, "profile_path": null}], "crew": [{"credit_id": "59b1482dc3a3681fcc02fc89", "department": "Directing", "gender": 0, "id": 1801094, "job": "Director", "name": "Ilija Cvetkovski", "profile_path": null}, {"credit_id": "59b14837c3a3682d87032be3", "department": "Writing", "gender": 0, "id": 1801094, "job": "Writer", "name": "Ilija Cvetkovski", "profile_path": null}, {"credit_id": "59b14847925141078a08a27b", "department": "Writing", "gender": 0, "id": 1769634, "job": "Writer", "name": "Atanas Georgiev", "profile_path": null}]}}