{"adult": false, "backdrop_path": null, "belongs_to_collection": null, "budget": 0, "genres": [{"id": 18, "name": "Drama"}], "homepage": "", "id": 47161, "imdb_id": "tt0259981", "original_language": "fa", "original_title": "\u062c\u0645\u0639\u0647", "overview": "Djomeh is a young Afghan man who has come to live in Iran because of family trouble. Working as a milk boy, he encounters discrimination from the Iranian villagers and disdain from Habib, a fellow Afghani to whose trust Djomeh was given. The only person who shows any friendliness to him is his employer, who Djomeh asks to intercede for him in asking a woman from the village for her hand in marriage.", "popularity": 2.051, "poster_path": "/rR2OQVeMouHYFO9CsTB7UjX7CYg.jpg", "production_companies": [{"id": 6216, "logo_path": null, "name": "Lumen Films", "origin_country": ""}, {"id": 95163, "logo_path": null, "name": "Behnegar", "origin_country": "IR"}], "production_countries": [{"iso_3166_1": "IR", "name": "Iran"}, {"iso_3166_1": "FR", "name": "France"}], "release_date": "2000-05-21", "revenue": 0, "runtime": 94, "spoken_languages": [{"iso_639_1": "fa", "name": "\u0641\u0627\u0631\u0633\u06cc"}], "status": "Released", "tagline": "", "title": "Djomeh", "video": false, "vote_average": 6.5, "vote_count": 2, "keywords": {"keywords": [{"id": 33495, "name": "afghan"}, {"id": 186782, "name": "discrimination"}]}, "similar": {"page": 1, "results": [{"id": 9800, "video": false, "vote_count": 2301, "vote_average": 7.7, "title": "Philadelphia", "release_date": "1993-12-22", "original_language": "en", "original_title": "Philadelphia", "genre_ids": [18], "backdrop_path": "/eRlkgrUeaX8LsVMjqN9f6YYw9Dw.jpg", "adult": false, "overview": "Two competing lawyers join forces to sue a prestigious law firm for AIDS discrimination. As their unlikely friendship develops their courage overcomes the prejudice and corruption of their powerful adversaries.", "poster_path": "/nE9DLSKHDmfG7FvYvDW437n8txq.jpg", "popularity": 14.464}, {"adult": false, "backdrop_path": "/aRP8QAOhnthglsTUzeLWwoPVV1T.jpg", "genre_ids": [18, 36], "id": 381284, "original_language": "en", "original_title": "Hidden Figures", "overview": "The untold story of Katherine G. Johnson, Dorothy Vaughan and Mary Jackson \u2013 brilliant African-American women working at NASA and serving as the brains behind one of the greatest operations in history \u2013 the launch of astronaut John Glenn into orbit. The visionary trio crossed all gender and race lines to inspire generations to dream big.", "poster_path": "/6cbIDZLfwUTmttXTmNi8Mp3Rnmg.jpg", "release_date": "2016-12-10", "title": "Hidden Figures", "video": false, "vote_average": 8.0, "vote_count": 5347, "popularity": 32.394}, {"adult": false, "backdrop_path": "/idXJ0W4N47Zc97ZTGC2shdlCNQw.jpg", "genre_ids": [16, 18, 10752, 10751], "id": 435129, "original_language": "en", "original_title": "The Breadwinner", "overview": "A headstrong young girl in Afghanistan, ruled by the Taliban, disguises herself as a boy in order to provide for her family.", "poster_path": "/2d6qmkJz9AWqmk9wBWtd2uFX89t.jpg", "release_date": "2017-11-17", "title": "The Breadwinner", "video": false, "vote_average": 7.9, "vote_count": 347, "popularity": 12.7}, {"id": 269149, "video": false, "vote_count": 10906, "vote_average": 7.7, "title": "Zootopia", "release_date": "2016-02-11", "original_language": "en", "original_title": "Zootopia", "genre_ids": [12, 16, 35, 10751], "backdrop_path": "/mhdeE1yShHTaDbJVdWyTlzFvNkr.jpg", "adult": false, "overview": "Determined to prove herself, Officer Judy Hopps, the first bunny on Zootopia's police force, jumps at the chance to crack her first case - even if it means partnering with scam-artist fox Nick Wilde to solve the mystery.", "poster_path": "/sM33SANp9z6rXW8Itn7NnG1GOEs.jpg", "popularity": 63.21}, {"adult": false, "backdrop_path": "/4NJplkljN06NQLMLSUNmrIsBjBZ.jpg", "genre_ids": [35, 18], "id": 400547, "original_language": "en", "original_title": "Hurricane Bianca", "overview": "Hurricane Bianca is a revenge comedy about a New York teacher who moves to a small town in Texas, gets fired for being gay, and returns disguised in drag to get revenge on the people who were nasty to him.", "poster_path": "/w1QM09R1TqwHTb5UA8X8jR2yh4x.jpg", "release_date": "2016-06-03", "title": "Hurricane Bianca", "video": false, "vote_average": 6.2, "vote_count": 212, "popularity": 10.051}, {"id": 29478, "video": false, "vote_count": 46, "vote_average": 7.5, "title": "A Raisin in the Sun", "release_date": "1961-05-28", "original_language": "en", "original_title": "A Raisin in the Sun", "genre_ids": [18, 10749], "backdrop_path": "/wiCuQXP8vJBfQuXl7kTSgfFcs8F.jpg", "adult": false, "overview": "Walter Lee Younger is a young man struggling with his station in life. Sharing a tiny apartment with his wife, son, sister and mother, he seems like an imprisoned man. Until, that is, the family gets an unexpected financial windfall.", "poster_path": "/g0dQDvuUgHtdtZK5Zb4440ISF0V.jpg", "popularity": 7.424}, {"adult": false, "backdrop_path": "/vnUfZhH6Imc1f3CwPYvjoJ3EN9s.jpg", "genre_ids": [35, 18, 36], "id": 46138, "original_language": "en", "original_title": "Made in Dagenham", "overview": "A dramatization of the 1968 strike at the Ford Dagenham car plant, where female workers walked out in protest against sexual discrimination.", "poster_path": "/9jaYXw11xWdE7U0VQwguOzYlsJG.jpg", "release_date": "2010-09-11", "title": "Made in Dagenham", "video": false, "vote_average": 6.7, "vote_count": 165, "popularity": 10.72}, {"id": 85038, "video": false, "vote_count": 876, "vote_average": 5.8, "title": "Welcome to the North", "release_date": "2012-01-18", "original_language": "it", "original_title": "Benvenuti al Nord", "genre_ids": [35], "backdrop_path": "/ruP0FWFmdUCkfCvaeKBhSs1L7Wc.jpg", "adult": false, "overview": "Now in the Far North (i.e. Milan!), Alberto has accepted to manage a program for efficiency improvement in the Italian Post. He devotes all his time and all his energy to this noble task and neglects his wife Silvia, which of course annoys her beyond limits. Things do not fare much better in Castellabate where it is rather Maria, Matta's wife, who gets on his nerves by always blaming him for his lack of ambition. One day, due to a misunderstanding, Mattia is transferred to... Milan! And on whose doorstep does he land? Alberto's of course!", "poster_path": "/eZhBakjVlMhFxxARSUOVKDM7BG7.jpg", "popularity": 7.078}, {"id": 35796, "video": false, "vote_count": 49, "vote_average": 7.5, "title": "Lawn Dogs", "release_date": "1997-11-21", "original_language": "en", "original_title": "Lawn Dogs", "genre_ids": [18], "backdrop_path": "/uuFAGCdIiNUxVS04uIWEa0XZiSe.jpg", "adult": false, "overview": "In the affluent, gated community of Camelot Gardens, bored wives indiscriminately sleep around while their unwitting husbands try desperately to climb the social ladder. Trent, a 21-year-old outsider who mows the neighborhood lawns, quietly observes the infidelities and hypocrisies of this overly privileged society. When Devon, a 10-year-old daughter from one family, forges a friendship with Trent, things suddenly get very complicated.", "poster_path": "/a1a8TnLmUJANysuZG8xBSw4DIBR.jpg", "popularity": 8.558}, {"adult": false, "backdrop_path": null, "genre_ids": [99], "id": 447143, "original_language": "en", "original_title": "X-Men: The Excitement Continues", "overview": "A behind the scenes look at the making of X-Men: The Last Stand.", "poster_path": null, "release_date": "2006-10-02", "title": "X-Men: The Excitement Continues", "video": false, "vote_average": 6.5, "vote_count": 17, "popularity": 3.576}, {"adult": false, "backdrop_path": "/nrd0WUoscq0pw6Juz7KBS30I7rh.jpg", "genre_ids": [18, 10749], "id": 43774, "original_language": "fa", "original_title": "\u0628\u0627\u0631\u0627\u0646", "overview": "In a building site in present-day Tehran, Lateef, a 17-year-old Kurdish worker is irresistibly drawn to Rahmat, a young Afghan worker. When Lateef is given heavier tasks to compensate for new Afghan worker Rahmat, he resents his displacement and treats Rahmat cruelly. After one of his pranks, however, Lateef discovers Rahmat's secret--he is a girl named Baran. Latif's heart softens towards Baran and he shows his new affection for her by doing what he can to ease the hardships she suffers at work. revelation of Rahmat's secret changes both their lives.Baran is a 2001 Iranian film directed by Majid Majidi, based on an original script by Majid Majidi. The movie is set during recent times in which there are a large number of Afghan refugees living on the outskirts of Tehran. Almost a silent movie, Baran won a number of awards both nationally and internationally for the director and writer Majid Majidi.", "poster_path": "/1qIu0BSj51sKOcLZGkDfRZKVf4p.jpg", "release_date": "2001-01-31", "title": "Rain", "video": false, "vote_average": 7.8, "vote_count": 35, "popularity": 4.942}, {"adult": false, "backdrop_path": "/orJvZovXtageXHxS7HX1Eb0cHZr.jpg", "genre_ids": [99, 18], "id": 502871, "original_language": "es", "original_title": "Claudia tocada por la luna", "overview": "Claudia, a trans-Chilean midwife, remembers the hardest and most difficult moments she had to face in order to live her identity. The documentary tells her history, her struggles and the constant abuses she had to live on a society that still excludes those that are considered \"different\".", "poster_path": "/oUjW5L68WXTxDj9pCVQPyOToolJ.jpg", "release_date": "2019-08-22", "title": "Claudia Touched by the Moon", "video": false, "vote_average": 0.0, "vote_count": 0, "popularity": 0.729}, {"adult": false, "backdrop_path": "/ffy0gZd8eJ6BBUdjMppbt2l17GW.jpg", "genre_ids": [18, 10752], "id": 84057, "original_language": "nl", "original_title": "S\u00fcskind", "overview": "In Nazi-occupied Amsterdam, Walter S\u00fcskind is a member of the Dutch Jewish Council who rescues hundreds of children from the concentration camps.", "poster_path": "/u9TosGoGuJofD6E1RMEt97vO3Qs.jpg", "release_date": "2012-01-19", "title": "S\u00fcskind", "video": false, "vote_average": 7.2, "vote_count": 17, "popularity": 3.433}, {"adult": false, "backdrop_path": "/3NcTGBFQnGpUUvfloymFiTaejZA.jpg", "genre_ids": [18], "id": 95597, "original_language": "fr", "original_title": "La noire de\u2026", "overview": "Eager to find a better life abroad, a Senegalese woman becomes a mere governess to a family in southern France, suffering from discrimination and marginalization.", "poster_path": "/hYYAk9I9KkscSr8DC30KyDjzsVu.jpg", "release_date": "1966-01-01", "title": "Black Girl", "video": false, "vote_average": 7.6, "vote_count": 36, "popularity": 3.237}, {"adult": false, "backdrop_path": "/4MhqqQZDx1I2hfbMRZPEhUHmQd3.jpg", "genre_ids": [18, 10749], "id": 103199, "original_language": "es", "original_title": "Tizoc", "overview": "The story of an indigenous who gave his life for the love of a white woman, whom he confused, because of her beauty, with Maria the virgin, fighting against the society, the prejudices, and the race.", "poster_path": "/c58wv9FdsR3RuR39Qc3hMSJKFrA.jpg", "release_date": "1956-06-15", "title": "Tizoc", "video": false, "vote_average": 6.7, "vote_count": 7, "popularity": 2.481}, {"id": 372226, "video": false, "vote_count": 22, "vote_average": 8.0, "title": "Visaranai", "release_date": "2016-02-04", "original_language": "ta", "original_title": "\u0bb5\u0bbf\u0b9a\u0bbe\u0bb0\u0ba3\u0bc8", "genre_ids": [18, 53], "backdrop_path": "/awIco6QUaypV5bol88VwEaL4HDj.jpg", "adult": false, "overview": "Pandi and his friends, immigrant workers in Andhra Pradesh, are picked up by cops for a crime they never committed. And thus begins their nightmare, where they become pawns in a vicious game where the voiceless are strangled by those with power.", "poster_path": "/8HbknP82NFye7GCsL8L9vyWzMUM.jpg", "popularity": 2.768}, {"adult": false, "backdrop_path": "/rIvfsXoSk12EThwLCiXkIG2NbP7.jpg", "genre_ids": [18], "id": 517180, "original_language": "hi", "original_title": "Counterfeit Kunkoo", "overview": "In a city overflowing with buildings and slums, Smita must find herself a house to rent. She is hard-working, honest and respectful - the ideal tenant - except for one glaring flaw. She is a middle-class Indian woman without a husband. An intimate perspective on the identity of the 'Ideal Indian Female' in urban India of today.", "poster_path": "/xuOrf2XJ3qbV5jNo5yJY0ipm47d.jpg", "release_date": "2018-01-18", "title": "Counterfeit Kunkoo", "video": false, "vote_average": 0.0, "vote_count": 0, "popularity": 0.659}, {"adult": false, "backdrop_path": null, "genre_ids": [9648, 53, 80, 27, 18], "id": 85206, "original_language": "en", "original_title": "City of Blood", "overview": "A medical examiner investigating a series of prostitute murders discovers that the culprit is an ancient tribal witch doctor come back to life.", "poster_path": "/zdUUj24dKGjaYxy5O6c9dp5BNLO.jpg", "release_date": "1983-01-01", "title": "City of Blood", "video": false, "vote_average": 4.0, "vote_count": 3, "popularity": 0.748}, {"adult": false, "backdrop_path": "/dQYQYGAcX12q0UrWEoZTCD5ZisK.jpg", "genre_ids": [18, 10749], "id": 46747, "original_language": "en", "original_title": "Cowboy Forever", "overview": "Fictionalized from a true story, this docu-drama takes us on a journey through Brazil's Mato Grosso do Sul and into the lives of Brazilian gauchos. Beautifully shot landscapes form the backdrop for a simple story of friendship and tolerance between Govinda and John, as Govinda explores his attraction to his fellow cowboy.", "poster_path": "/lFmERvDXPMQvMprF3pAeqGzMWj1.jpg", "release_date": "2006-01-01", "title": "Cowboy Forever", "video": false, "vote_average": 3.0, "vote_count": 4, "popularity": 2.472}, {"adult": false, "backdrop_path": null, "genre_ids": [18], "id": 44072, "original_language": "fa", "original_title": "\u062f\u0648\u0686\u0631\u062e\u0647 \u0633\u0648\u0627\u0631", "overview": "The wife of Nasim, an Afghan immigrant in Iran, is gravely ill. He needs money to pay for her care, but his day labor digging wells does not pay enough. A friend connects Nasim to a two-bit promoter who sells tickets to watch Nasim ride a bicycle continuously for a week. The promoter brings in sick and aged spectators, haranguing them to find hope in Nasim's strength. Aided by his son, who feeds him as he rides, Nasim grinds out the days and shivering nights. Local officials believe this may be a plot and Nasim may be a spy; they try to sabotage him as do those who bet he won't finish the week. Will desperation alone get Nasim the money? Is any triumph an illusion?", "poster_path": "/gw8VCP642eDWthxUGnl0qrYGmF8.jpg", "release_date": "1989-02-01", "title": "The Cyclist", "video": false, "vote_average": 6.5, "vote_count": 11, "popularity": 1.96}], "total_pages": 3, "total_results": 52}, "recommendations": {"page": 1, "results": [{"adult": false, "backdrop_path": "/5cMPGyyiejGR3UnNwCJMSdkmugu.jpg", "genre_ids": [18], "id": 42029, "original_language": "en", "original_title": "Th\u00e9r\u00e8se", "overview": "The life of little St. Therese of Lisieux, depicted in minimalist vignettes. Therese and her sisters are all nuns in a Carmelite convent. Her devotion to Jesus and her concept of \"the little way\" to God are shown clearly, using plain modern language. A sense of angelic simplicity comes across without fancy lights, choirs, or showy miracles.", "poster_path": "/xieFNyTYdr7Q0c3ONa4H3GVqEGF.jpg", "release_date": "1986-01-01", "title": "Therese", "video": false, "vote_average": 5.6, "vote_count": 7, "popularity": 4.305}, {"adult": false, "backdrop_path": "/2Ud4BiwxQMGm5lGxKKTjPod1u3A.jpg", "genre_ids": [18], "id": 52322, "original_language": "fr", "original_title": "Octubre", "overview": "Clemente, a moneylender of few words, is a new hope for Sof\u00eda, his single neighbor, devoted to the October worship of Our Lord of the Miracles. They're brought together over a new-born baby, fruit of Clemente's relationship with a prostitute who's nowhere to be found. While Clemente is looking for the girl's mother, Sof\u00eda cares for the baby and looks after the moneylender's house. With the arrival of these beings in his life, Clemente has the opportunity to reconsider his emotional relations with people", "poster_path": "/rYMHLXBsHTPymKExKqDXkWZgkA6.jpg", "release_date": "2010-09-29", "title": "October", "video": false, "vote_average": 6.5, "vote_count": 3, "popularity": 1.96}, {"adult": false, "backdrop_path": null, "genre_ids": [10752, 18], "id": 198902, "original_language": "ru", "original_title": "\u041f\u043e\u0432\u0435\u0441\u0442\u044c \u043f\u043b\u0430\u043c\u0435\u043d\u043d\u044b\u0445 \u043b\u0435\u0442", "overview": "Once again, Russian director Yulia Solnsteva fulfills her goal of directing movies that her late husband Alexandre Dovchenko scripted but did not live long enough to bring to the screen. In this standard wartime drama, the emphasis is on the heroics of both the civilians and the soldiers during times of severe stress in World War II. At the core of the action is one man in particular, whose sacrifices and heroics speak for a much larger group. Message aside, there are plenty of well-staged battle scenes to sustain attention.", "poster_path": "/fQ7AhXC4aH66Atx7aurGK9IVzdz.jpg", "release_date": "1961-02-23", "title": "Chronicle of Flaming Years", "video": false, "vote_average": 6.0, "vote_count": 4, "popularity": 1.702}, {"adult": false, "backdrop_path": null, "genre_ids": [18], "id": 119399, "original_language": "de", "original_title": "Der starke Ferdinand", "overview": "The clownish security chief of a West German business is obsessed with protecting his factory from fancied and real breaches, especially from groups such as The Red Army Faction. Ferdinand's paranoia and methods can't be contained by his company. The sympathetically-drawn Ferdinand's ludicrous actions recall those of the cynical, disastrous axis between fascism and big business in 1930's Europe: satire of the rise of private security.", "poster_path": "/4wfvmIRVvDrmMt04OSWP081i0ry.jpg", "release_date": "1976-04-26", "title": "Strongman Ferdinand", "video": false, "vote_average": 7.3, "vote_count": 3, "popularity": 1.255}, {"adult": false, "backdrop_path": null, "genre_ids": [18], "id": 198802, "original_language": "ru", "original_title": "\u041b\u0435\u043d\u0438\u043d \u0432 \u041f\u043e\u043b\u044c\u0448\u0435, Lenin v Polch\u00e9", "overview": "The life of the great Bolshevik leader before the Russian revolution is chronicled in this bio-pic. Much of the tale centers on his exile in Poland where Lenin becomes friends with two peasants. The little girl has a strong belief in the nationalist cause. Later Lenin hears she was killed for withholding information about him.", "poster_path": "/8eNDDgvvQvhl8pG11mH5g7P7vub.jpg", "release_date": "1966-06-02", "title": "Lenin in Poland", "video": false, "vote_average": 5.5, "vote_count": 4, "popularity": 0.84}, {"id": 42199, "video": false, "vote_count": 4, "vote_average": 6.5, "title": "Without Anesthesia", "release_date": "1978-11-27", "original_language": "pl", "original_title": "Bez znieczulenia", "genre_ids": [18], "backdrop_path": "/o9c2MoAoYZ2rpRaDUT2eKCDyERl.jpg", "adult": false, "overview": "A famous Polish journalist presents a problem for the powers-that-be when he displays his full political skill and knowledge on a television show featuring questions and answers on a world conference by a panel of journalists. His enemies take away his privileges when he is away. The shock of being \"unwanted\" parallels a deeper disappointment in his private life: his wife has an affair with a jealous young rival, and after 15 years of marriage and two daughters wants a divorce. She offers no explanations as he tries to untie these problems himself. All the moves he makes are the wrong ones. He takes on drinking heavily with students eager to attend his seminar after discovering the class has been canceled. The journalist, once suave and commanding is reduced to silence.", "poster_path": "/mMLtYKRwZW66k0vfqlXjIiFMPPP.jpg", "popularity": 2.356}], "total_pages": 1, "total_results": 6}, "credits": {"cast": [{"cast_id": 2, "character": "Habib", "credit_id": "59c20e8d925141768a008b18", "gender": 0, "id": 1891581, "name": "Rashid Akbari", "order": 1, "profile_path": null}, {"cast_id": 3, "character": "Agha Mohmoud", "credit_id": "59c20e9992514176ef0088a2", "gender": 0, "id": 135907, "name": "Mahmoud Behraznia", "order": 2, "profile_path": null}, {"cast_id": 4, "character": "The Blind Man", "credit_id": "59c20eaa925141768a008b3c", "gender": 0, "id": 1891583, "name": "Valiollah Beta", "order": 3, "profile_path": null}, {"cast_id": 5, "character": "Setareh", "credit_id": "59c20eb492514176ad0089a2", "gender": 0, "id": 1891584, "name": "Mahbobeh Khalili", "order": 4, "profile_path": null}, {"cast_id": 6, "character": "Djomeh", "credit_id": "59c20ebc92514176dc008987", "gender": 0, "id": 1891585, "name": "Jalil Nazari", "order": 5, "profile_path": null}], "crew": [{"credit_id": "5e1ccd1f4df2910015bebbb7", "department": "Sound", "gender": 0, "id": 39402, "job": "Sound Recordist", "name": "Yadollah Najafi", "profile_path": null}, {"credit_id": "5e1ccce34df2910015bebbb1", "department": "Production", "gender": 0, "id": 55486, "job": "Associate Producer", "name": "Hengameh Panahi", "profile_path": null}, {"credit_id": "538d707dc3a368714e004503", "department": "Directing", "gender": 0, "id": 1327119, "job": "Director", "name": "Hassan Yektapanah", "profile_path": null}, {"credit_id": "5e1ccd00d5dbc20015f43904", "department": "Editing", "gender": 0, "id": 1327119, "job": "Editor", "name": "Hassan Yektapanah", "profile_path": null}, {"credit_id": "5e1ccd07d5dbc20017f42138", "department": "Art", "gender": 0, "id": 1327119, "job": "Production Design", "name": "Hassan Yektapanah", "profile_path": null}, {"credit_id": "59c20e7ec3a3682c94008e5a", "department": "Writing", "gender": 0, "id": 1327119, "job": "Writer", "name": "Hassan Yektapanah", "profile_path": null}, {"credit_id": "5e1ccd28d132d6001780c0d0", "department": "Sound", "gender": 0, "id": 1355167, "job": "Sound Re-Recording Mixer", "name": "Changiz Sayad", "profile_path": null}, {"credit_id": "5e1cccefd5dbc20017f420e9", "department": "Camera", "gender": 0, "id": 1393234, "job": "Director of Photography", "name": "Ali Loghmani", "profile_path": null}, {"credit_id": "5e1cccccd5dbc20017f42089", "department": "Production", "gender": 0, "id": 2509092, "job": "Executive Producer", "name": "Fatomeh Abol Ghassemi", "profile_path": null}, {"credit_id": "5e1cccd312b10e0014940ad6", "department": "Production", "gender": 0, "id": 2509093, "job": "Co-Producer", "name": "Mehran Haghighi", "profile_path": null}, {"credit_id": "5e1cccdb6a300b00135eaf9b", "department": "Production", "gender": 0, "id": 2509094, "job": "Producer", "name": "Ahmad Moussazdeh", "profile_path": null}]}}