{"adult": false, "backdrop_path": null, "belongs_to_collection": null, "budget": 0, "genres": [{"id": 18, "name": "Drama"}], "homepage": null, "id": 472502, "imdb_id": "tt0017104", "original_language": "es", "original_title": "La malcasada", "overview": "A silent film centering around bull fighting and general melodrama, which also serves nicely as a documentary with  'cameos' by many Spanish personalities of the time.", "popularity": 0.6, "poster_path": "/6B34kDarWa6Je9KXtQKzZyxOKjC.jpg", "production_companies": [{"id": 94170, "logo_path": null, "name": "Latino Films", "origin_country": ""}], "production_countries": [{"iso_3166_1": "ES", "name": "Spain"}], "release_date": "1927-02-24", "revenue": 0, "runtime": 153, "spoken_languages": [], "status": "Released", "tagline": "", "title": "La malcasada", "video": false, "vote_average": 3.0, "vote_count": 1, "keywords": {"keywords": [{"id": 15160, "name": "divorce"}, {"id": 154802, "name": "silent film"}, {"id": 196110, "name": "social drama"}]}, "similar": {"page": 1, "results": [{"id": 901, "video": false, "vote_count": 1026, "vote_average": 8.4, "title": "City Lights", "release_date": "1931-02-01", "original_language": "xx", "original_title": "City Lights", "genre_ids": [35, 18, 10749], "backdrop_path": "/vT6ux2rdyg2kexuLisO5Ygz7pHg.jpg", "adult": false, "overview": "City Lights is the first silent film that Charlie Chaplin directed after he established himself with sound accompanied films. The film is about a penniless man who falls in love with a flower girl.", "poster_path": "/bXNvzjULc9jrOVhGfjcc64uKZmZ.jpg", "popularity": 14.645}, {"adult": false, "backdrop_path": "/wcT7srQ4GeeMqlszMFEtPZ7v8T7.jpg", "genre_ids": [35, 10749], "id": 28978, "original_language": "en", "original_title": "The Circus", "overview": "Charlie, a wandering tramp, becomes a circus handyman and falls in love with the circus owner's daughter. Unaware of Charlie's affection, the girl falls in love with a handsome young performer. Charlie's versatility makes him star of the show when he substitutes for an ailing tightwire walker. He is discharged from the company when he protects the girl from her father's abuse, but he returns and appeals to the handsome performer to marry the girl. After the wedding the father prevails upon them to rejoin the circus. Charlie is hired again, but he stays behind when the caravan moves on.", "poster_path": "/awTf4Y6TGvgi3VYtGNINyyJJy9Q.jpg", "release_date": "1928-01-06", "title": "The Circus", "video": false, "vote_average": 8.2, "vote_count": 330, "popularity": 12.839}, {"adult": false, "backdrop_path": "/bQW1TnxHlmkWof0vsALj4HBkoxj.jpg", "genre_ids": [18, 10749], "id": 51828, "original_language": "en", "original_title": "One Day", "overview": "A romantic comedy centered on Dexter and Emma, who first meet during their graduation in 1988 and proceed to keep in touch regularly. The film follows what they do on July 15 annually, usually doing something together.", "poster_path": "/xzOz17yC3K6SZWtWylXimcHUqpD.jpg", "release_date": "2011-03-02", "title": "One Day", "video": false, "vote_average": 7.2, "vote_count": 2343, "popularity": 16.744}, {"id": 19, "video": false, "vote_count": 1340, "vote_average": 8.2, "title": "Metropolis", "release_date": "1927-01-10", "original_language": "de", "original_title": "Metropolis", "genre_ids": [18, 878], "backdrop_path": "/gmH0N0bdlYGN1EUr8U2cMQYyg78.jpg", "adult": false, "overview": "In a futuristic city sharply divided between the working class and the city planners, the son of the city's mastermind falls in love with a working class prophet who predicts the coming of a savior to mediate their differences.", "poster_path": "/qriaeUUwdmlgethK3aSAx68mG05.jpg", "popularity": 20.587}, {"adult": false, "backdrop_path": "/tr6OExnBfjLADi9OyZoW308mPAp.jpg", "genre_ids": [18, 35, 10749], "id": 74643, "original_language": "en", "original_title": "The Artist", "overview": "Hollywood, 1927: As silent movie star George Valentin wonders if the arrival of talking pictures will cause him to fade into oblivion, he sparks with Peppy Miller, a young dancer set for a big break.", "poster_path": "/i0mpvMIIjyubXsVKug9vX0lYpnd.jpg", "release_date": "2011-06-26", "title": "The Artist", "video": false, "vote_average": 7.4, "vote_count": 1977, "popularity": 10.661}, {"id": 1585, "video": false, "vote_count": 2261, "vote_average": 8.2, "title": "It's a Wonderful Life", "release_date": "1946-12-20", "original_language": "en", "original_title": "It's a Wonderful Life", "genre_ids": [18, 14, 10751], "backdrop_path": "/nMomMy1sD3SN2QsKop3zBXCJfDJ.jpg", "adult": false, "overview": "A holiday favourite for generations...  George Bailey has spent his entire life giving to the people of Bedford Falls.  All that prevents rich skinflint Mr. Potter from taking over the entire town is George's modest building and loan company.  But on Christmas Eve the business's $8,000 is lost and George's troubles begin.", "poster_path": "/bSqt9rhDZx1Q7UZ86dBPKdNomp2.jpg", "popularity": 30.622}, {"id": 492188, "video": false, "vote_count": 1897, "vote_average": 8.0, "title": "Marriage Story", "release_date": "2019-11-06", "original_language": "en", "original_title": "Marriage Story", "genre_ids": [18], "backdrop_path": "/nwoDC0IJA47wr3znJgT1kkk64Gy.jpg", "adult": false, "overview": "A stage director and an actress struggle through a grueling, coast-to-coast divorce that pushes them to their personal extremes.", "poster_path": "/pZekG6xabTmZxjmYw10wN84Hp8d.jpg", "popularity": 76.357}, {"id": 37094, "video": false, "vote_count": 1728, "vote_average": 7.3, "title": "Falling Down", "release_date": "1993-02-26", "original_language": "en", "original_title": "Falling Down", "genre_ids": [80, 18, 53], "backdrop_path": "/cS45swrlrTJijH1RblBLe8LlW2p.jpg", "adult": false, "overview": "On the day of his daughter's birthday, William \"D-Fens\" Foster is trying to get to the home of his estranged ex-wife to see his daughter. His car breaks down, so he leaves his car in a traffic jam in Los Angeles and decides to walk. He goes to a convenience store and tries to get some change for a phone call, but the Korean owner does not oblige, tipping Foster over the edge. The unstable Foster, so frustrated with the various flaws he sees in society, begins to psychotically and violently lash out against them.", "poster_path": "/s6dnkgQmcaZQiU1omVkyBcrVERR.jpg", "popularity": 15.537}, {"adult": false, "backdrop_path": "/gt7HbwIA5xS1s8jrjy18t3Pfnvz.jpg", "genre_ids": [18], "id": 705, "original_language": "en", "original_title": "All About Eve", "overview": "From the moment she glimpses her idol at the stage door, Eve Harrington is determined to take the reins of power away from the great actress Margo Channing. Eve maneuvers her way into Margo's Broadway role, becomes a sensation and even causes turmoil in the lives of Margo's director boyfriend, her playwright and his wife. Only the cynical drama critic sees through Eve, admiring her audacity and perfect pattern of deceit.", "poster_path": "/6numIZH6uR3NlJgY9m7nGH0jhs.jpg", "release_date": "1950-10-06", "title": "All About Eve", "video": false, "vote_average": 8.2, "vote_count": 785, "popularity": 16.618}, {"adult": false, "backdrop_path": "/9zAAR78OTNBZxQYVojDj4pLHOWz.jpg", "genre_ids": [28, 12, 18], "id": 664, "original_language": "en", "original_title": "Twister", "overview": "TV weatherman Bill Harding is trying to get his tornado-hunter wife, Jo, to sign divorce papers so he can marry his girlfriend Melissa. But Mother Nature, in the form of a series of intense storms sweeping across Oklahoma, has other plans. Soon the three have joined the team of stormchasers as they attempt to insert a revolutionary measuring device into the very heart of several extremely violent tornados.", "poster_path": "/tKdDCkmb6obEhWEMLgGUUz5nDNs.jpg", "release_date": "1996-05-10", "title": "Twister", "video": false, "vote_average": 6.3, "vote_count": 1761, "popularity": 20.529}, {"adult": false, "backdrop_path": "/twGxeStlGooWV3gP6ZIcSNuQ6jf.jpg", "genre_ids": [12, 16, 10751, 14], "id": 81684, "original_language": "en", "original_title": "The Gruffalo's Child", "overview": "A follow up to the 2009 animated feature and adapted from the childrens' book by Julia Donaldson and Alex Scheffler.  The Gruffalo's child explores the deep dark wood in search of the big bad mouse and meets the Snake, Owl and Fox in the process.  She eventually finds the mouse, who manages to outwit her like the Gruffalo before!", "poster_path": "/qaGH2AoaLvoGXURQtNzj1nw6oZd.jpg", "release_date": "2011-12-25", "title": "The Gruffalo's Child", "video": false, "vote_average": 6.9, "vote_count": 73, "popularity": 9.51}, {"id": 4944, "video": false, "vote_count": 2638, "vote_average": 6.6, "title": "Burn After Reading", "release_date": "2008-09-05", "original_language": "en", "original_title": "Burn After Reading", "genre_ids": [35, 18], "backdrop_path": "/r9BCMru6cPtuXeIRKGGkf4NNRrU.jpg", "adult": false, "overview": "When a disc containing memoirs of a former CIA analyst falls into the hands of gym employees, Linda and Chad, they see a chance to make enough money for Linda to have life-changing cosmetic surgery. Predictably, events whirl out of control for the duo, and those in their orbit.", "poster_path": "/cbuPko7d87rhGEzMVIdHgW4mfob.jpg", "popularity": 28.218}, {"id": 621485, "video": false, "vote_count": 2, "vote_average": 5.5, "title": "Guest of Honor", "release_date": "2019-08-14", "original_language": "en", "original_title": "Guest of Honor", "genre_ids": [18], "backdrop_path": "/qo3f05mAqiGG5yDyVhURwwhR1oh.jpg", "adult": false, "overview": "A devout Nazi oversees a group of taste testers for Hitler.", "poster_path": "/g02YorY0sAVDJuXdL42Vpmqtv0g.jpg", "popularity": 3.407}, {"adult": false, "backdrop_path": null, "genre_ids": [], "id": 616262, "original_language": "ar", "original_title": "All Come From Dust", "overview": "A loop of edgeless bend. You were its doom, he was its bloom. You were its tomb, he was its womb. You were its gloom, he was its loom. For Heaven and Hell, were words made of fume.", "poster_path": null, "release_date": "2019-08-13", "title": "All Come From Dust", "video": false, "vote_average": 5.0, "vote_count": 1, "popularity": 0.6}, {"id": 621733, "video": false, "vote_count": 0, "vote_average": 0.0, "title": "A Trip to the Seaside", "release_date": "2019-08-30", "original_language": "en", "original_title": "A Trip to the Seaside", "genre_ids": [99], "backdrop_path": null, "adult": false, "overview": "Experimental short film on the excitement and rush of a day trip", "poster_path": "/AuZVhpoJ4jm2LWDhoJKfxQfhDAi.jpg", "popularity": 1.324}, {"id": 24122, "video": false, "vote_count": 452, "vote_average": 6.1, "title": "The Rebound", "release_date": "2009-09-16", "original_language": "en", "original_title": "The Rebound", "genre_ids": [35, 10749], "backdrop_path": "/tHskgc02jDVnhsPSmPpfEZeLL5v.jpg", "adult": false, "overview": "Upon discovering her husband's infidelity, Sandy leaves the suburbs and moves into the city. There, she befriends Aram, a guy whose wife only married him so she could get a green card. Sandy hires Aram to be her nanny, and  it isn't long until Aram and Sandy find out they get along wonderfully and start to date. But is their relationship real or is it, in fact, just a rebound for both of them?", "poster_path": "/nkkFebe8ZgE843rnTrlaRWJy0g9.jpg", "popularity": 18.716}, {"id": 449443, "video": false, "vote_count": 1469, "vote_average": 6.6, "title": "Den of Thieves", "release_date": "2018-01-18", "original_language": "en", "original_title": "Den of Thieves", "genre_ids": [28, 80, 53], "backdrop_path": "/s3FDBLH4qc1IcjexB05Qvbn3wxO.jpg", "adult": false, "overview": "A gritty crime saga which follows the lives of an elite unit of the LA County Sheriff\u2019s Dept. and the state\u2019s most successful bank robbery crew as the outlaws plan a seemingly impossible heist on the Federal Reserve Bank.", "poster_path": "/AfybH6GbGFw1F9bcETe2yu25mIE.jpg", "popularity": 28.396}, {"id": 326359, "video": false, "vote_count": 1180, "vote_average": 6.8, "title": "Frozen Fever", "release_date": "2015-03-09", "original_language": "en", "original_title": "Frozen Fever", "genre_ids": [12, 16, 10751], "backdrop_path": "/ubioPGniCfDiASmYYpeJs5RRNaC.jpg", "adult": false, "overview": "On Anna's birthday, Elsa and Kristoff are determined to give her the best celebration ever, but Elsa's icy powers may put more than just the party at risk.", "poster_path": "/lKJiVPzsAO9IJ4LKWXZ8vkR2bg4.jpg", "popularity": 17.218}, {"id": 828, "video": false, "vote_count": 557, "vote_average": 7.5, "title": "The Day the Earth Stood Still", "release_date": "1951-09-17", "original_language": "en", "original_title": "The Day the Earth Stood Still", "genre_ids": [878], "backdrop_path": "/uExEupzfV7Ffau0H98aefUU0zcG.jpg", "adult": false, "overview": "An alien and a robot land on earth after World War II and tell mankind to be peaceful or face destruction. A classic science fiction film from Robert Wise with an exceptional message.", "poster_path": "/x2DquTpLTq54aPFDnqlwY7apCC3.jpg", "popularity": 30.427}, {"id": 376659, "video": false, "vote_count": 2897, "vote_average": 6.5, "title": "Bad Moms", "release_date": "2016-07-28", "original_language": "en", "original_title": "Bad Moms", "genre_ids": [35], "backdrop_path": "/elPpPBuYB2Zn5wFwz2FSlJlKUjp.jpg", "adult": false, "overview": "When three overworked and under-appreciated moms are pushed beyond their limits, they ditch their conventional responsibilities for a jolt of long overdue freedom, fun, and comedic self-indulgence.", "poster_path": "/9PaIkUnfOcU1wi5cFbamnmAkjEs.jpg", "popularity": 22.619}], "total_pages": 845, "total_results": 16883}, "recommendations": {"page": 1, "results": [], "total_pages": 1, "total_results": 0}, "credits": {"cast": [{"cast_id": 0, "character": "", "credit_id": "599ff85ec3a36847e500e71c", "gender": 0, "id": 1031899, "name": "Mar\u00eda Banquer", "order": 1, "profile_path": null}, {"cast_id": 1, "character": "", "credit_id": "599ff8a1c3a36847e500e768", "gender": 2, "id": 14822, "name": "Jos\u00e9 Nieto", "order": 2, "profile_path": "/xSdEDsnzMyccEN4i3JSmaLpu3ZY.jpg"}, {"cast_id": 2, "character": "", "credit_id": "599ff8ac925141779300f0d5", "gender": 0, "id": 1387982, "name": "Jos\u00e9 Calle", "order": 3, "profile_path": null}, {"cast_id": 3, "character": "", "credit_id": "599ff8b7925141774b00f731", "gender": 1, "id": 1876629, "name": "Inocencia Alcubierre", "order": 4, "profile_path": "/bCFZ1ssOobZiifyBaWmUCZzpBDV.jpg"}, {"cast_id": 4, "character": "", "credit_id": "599ff8c492514177a700ee45", "gender": 0, "id": 1463267, "name": "Alfredo Corcuera", "order": 5, "profile_path": null}, {"cast_id": 5, "character": "", "credit_id": "599ff8cfc3a368481e00eeac", "gender": 0, "id": 1876630, "name": "Felipe Fernansuar", "order": 6, "profile_path": null}, {"cast_id": 6, "character": "", "credit_id": "599ff8d9925141779300f105", "gender": 0, "id": 1042187, "name": "Julia Lajos", "order": 7, "profile_path": null}], "crew": [{"credit_id": "599ff908c3a368478f00e67a", "department": "Directing", "gender": 0, "id": 1876631, "job": "Director", "name": "Francisco G\u00f3mez Hidalgo", "profile_path": null}, {"credit_id": "599ff917925141779f00ed73", "department": "Writing", "gender": 0, "id": 1876631, "job": "Screenplay", "name": "Francisco G\u00f3mez Hidalgo", "profile_path": null}, {"credit_id": "599ff925c3a36847d400e36e", "department": "Writing", "gender": 0, "id": 1876632, "job": "Screenplay", "name": "Jos\u00e9 Luis de Lucio", "profile_path": null}, {"credit_id": "599ff93bc3a368483000e929", "department": "Writing", "gender": 0, "id": 1876632, "job": "Story", "name": "Jos\u00e9 Luis de Lucio", "profile_path": null}, {"credit_id": "599ff947925141779300f17f", "department": "Writing", "gender": 0, "id": 1876631, "job": "Story", "name": "Francisco G\u00f3mez Hidalgo", "profile_path": null}, {"credit_id": "599ff973925141775b00ee02", "department": "Crew", "gender": 0, "id": 1876633, "job": "Cinematography", "name": "Jos\u00e9 Gaspar", "profile_path": null}, {"credit_id": "599ff97dc3a36847e500e86a", "department": "Crew", "gender": 0, "id": 1876634, "job": "Cinematography", "name": "Agust\u00edn Macasoli", "profile_path": null}, {"credit_id": "599ff98d925141774f00ec00", "department": "Editing", "gender": 0, "id": 1876635, "job": "Editor", "name": "Florentino Hern\u00e1ndez Girbal", "profile_path": null}, {"credit_id": "599ff99ec3a36847c500fbaf", "department": "Production", "gender": 0, "id": 1876636, "job": "Producer", "name": "Bienvenido Esteban", "profile_path": null}, {"credit_id": "599ff9acc3a36847f600eca8", "department": "Production", "gender": 0, "id": 1876631, "job": "Producer", "name": "Francisco G\u00f3mez Hidalgo", "profile_path": null}, {"credit_id": "599ff9cdc3a36847e500e8ce", "department": "Writing", "gender": 0, "id": 1773182, "job": "Writer", "name": "Jos\u00e9 Luis Salado", "profile_path": null}]}}