{"adult": false, "backdrop_path": null, "belongs_to_collection": null, "budget": 0, "genres": [{"id": 28, "name": "Action"}, {"id": 18, "name": "Drama"}, {"id": 53, "name": "Thriller"}], "homepage": null, "id": 47260, "imdb_id": "tt0115847", "original_language": "en", "original_title": "Caught", "overview": "A middle-aged couple has a drifter enter their lives. The fish-store owners find that the mysterious young man awakens the couple in ways they didn't expect. Things get tense when the drifter begins an affair with the woman of the house.", "popularity": 6.849, "poster_path": "/1UXbJIszOEalpFY0BKkRn1cRv66.jpg", "production_companies": [{"id": 761, "logo_path": null, "name": "Cinehaus", "origin_country": ""}, {"id": 11273, "logo_path": null, "name": "Circle Films", "origin_country": ""}, {"id": 20049, "logo_path": null, "name": "DuArt", "origin_country": ""}], "production_countries": [{"iso_3166_1": "US", "name": "United States of America"}], "release_date": "1996-01-24", "revenue": 0, "runtime": 110, "spoken_languages": [{"iso_639_1": "en", "name": "English"}], "status": "Released", "tagline": "", "title": "Caught", "video": false, "vote_average": 6.2, "vote_count": 8, "keywords": {"keywords": [{"id": 5562, "name": "fish market"}, {"id": 13017, "name": "drifter"}, {"id": 207268, "name": "neo-noir"}]}, "similar": {"page": 1, "results": [{"id": 949, "video": false, "vote_count": 3610, "vote_average": 7.8, "title": "Heat", "release_date": "1995-12-15", "original_language": "en", "original_title": "Heat", "genre_ids": [28, 80, 18, 53], "backdrop_path": "/7RRuRcGuWkZGuRyYugfXn0Fgrrr.jpg", "adult": false, "overview": "Obsessive master thief, Neil McCauley leads a top-notch crew on various daring heists throughout Los Angeles while determined detective, Vincent Hanna pursues him without rest. Each man recognizes and respects the ability and the dedication of the other even though they are aware their cat-and-mouse game may end in violence.", "poster_path": "/6pmLVffM9jEYK7VqDJqPblMxfEY.jpg", "popularity": 21.48}, {"adult": false, "backdrop_path": "/uCjCNaxLyLkcwBq4aOHOeiKKwPE.jpg", "genre_ids": [35, 10749, 80, 18, 9648], "id": 171274, "original_language": "en", "original_title": "Inherent Vice", "overview": "In Los Angeles at the turn of the 1970s, drug-fueled detective Larry \"Doc\" Sportello investigates the disappearance of an ex-girlfriend.", "poster_path": "/2fCg6FORkgRLpFIKlUg4gULIn1u.jpg", "release_date": "2014-12-25", "title": "Inherent Vice", "video": false, "vote_average": 6.6, "vote_count": 1534, "popularity": 25.677}, {"id": 5236, "video": false, "vote_count": 1560, "vote_average": 7.2, "title": "Kiss Kiss Bang Bang", "release_date": "2005-09-05", "original_language": "en", "original_title": "Kiss Kiss Bang Bang", "genre_ids": [28, 35, 80], "backdrop_path": "/wGoyTXBDWHh2V7Jft0R9A0HdKHA.jpg", "adult": false, "overview": "A petty thief posing as an actor is brought to Los Angeles for an unlikely audition and finds himself in the middle of a murder investigation along with his high school dream girl and a detective who's been training him for his upcoming role...", "poster_path": "/5Lif1qGiyaF8OqG9lR3eqzeEC3S.jpg", "popularity": 13.967}, {"id": 1847, "video": false, "vote_count": 259, "vote_average": 7.4, "title": "The Long Goodbye", "release_date": "1973-03-07", "original_language": "en", "original_title": "The Long Goodbye", "genre_ids": [80, 18, 9648, 53], "backdrop_path": "/brm75bRffmi2SlsUmsHUxUVI1Hg.jpg", "adult": false, "overview": "Detective Philip Marlowe tries to help a friend who is accused of murdering his wife.", "poster_path": "/oBhUK54yBJ0aH6u9zCzSV5iV7OP.jpg", "popularity": 10.68}, {"id": 320, "video": false, "vote_count": 2528, "vote_average": 6.9, "title": "Insomnia", "release_date": "2002-05-24", "original_language": "en", "original_title": "Insomnia", "genre_ids": [80, 9648, 53], "backdrop_path": "/p8UHSddGu2frGk0nCkuPjDemjka.jpg", "adult": false, "overview": "Two Los Angeles homicide detectives are dispatched to a northern town where the sun doesn't set to investigate the methodical murder of a local teen.", "poster_path": "/zb0D3vfjcPFvuyHp1mFPOIcYJWH.jpg", "popularity": 17.55}, {"id": 2153, "video": false, "vote_count": 176, "vote_average": 7.2, "title": "The Driver", "release_date": "1978-06-08", "original_language": "en", "original_title": "The Driver", "genre_ids": [28, 80, 18, 53], "backdrop_path": "/9s76McxDHYsfh66bIv7LLvl5fD2.jpg", "adult": false, "overview": "The Driver specializes in driving getaway cars for robberies. His exceptional talent has prevented him from being caught yet. After another successful flight from the police a self-assured detective makes it his primary goal to catch the Driver. He promises pardons to a gang if they help to convict him in a set-up robbery. The Driver seeks help from The Player to mislead the detective.", "poster_path": "/sf2hoHenR9lBP5wKVUAkZFAsXgp.jpg", "popularity": 9.13}, {"id": 77, "video": false, "vote_count": 8682, "vote_average": 8.2, "title": "Memento", "release_date": "2000-10-11", "original_language": "en", "original_title": "Memento", "genre_ids": [9648, 53], "backdrop_path": "/q2CtXYjp9IlnfBcPktNkBPsuAEO.jpg", "adult": false, "overview": "Leonard Shelby is tracking down the man who raped and murdered his wife. The difficulty of locating his wife's killer, however, is compounded by the fact that he suffers from a rare, untreatable form of short-term memory loss. Although he can recall details of life before his accident, Leonard cannot remember what happened fifteen minutes ago, where he's going, or why.", "poster_path": "/fQMSaP88cf1nz4qwuNEEFtazuDM.jpg", "popularity": 23.818}, {"adult": false, "backdrop_path": "/t3OZS8yMs0NL4YgWWc04eXHTn1X.jpg", "genre_ids": [28, 80, 53], "id": 984, "original_language": "en", "original_title": "Dirty Harry", "overview": "When a madman dubbed 'Scorpio' terrorizes San Francisco, hard-nosed cop, Harry Callahan \u2013 famous for his take-no-prisoners approach to law enforcement \u2013 is tasked with hunting down the psychopath. Harry eventually collars Scorpio in the process of rescuing a kidnap victim, only to see him walk on technicalities. Now, the maverick detective is determined to nail the maniac himself.", "poster_path": "/2TADKc4GMMPdMrLXj0xJVgTvZJM.jpg", "release_date": "1971-12-21", "title": "Dirty Harry", "video": false, "vote_average": 7.5, "vote_count": 1172, "popularity": 15.928}, {"id": 78, "video": false, "vote_count": 8361, "vote_average": 7.9, "title": "Blade Runner", "release_date": "1982-06-25", "original_language": "en", "original_title": "Blade Runner", "genre_ids": [18, 878, 53], "backdrop_path": "/eIi3klFf7mp3oL5EEF4mLIDs26r.jpg", "adult": false, "overview": "In the smog-choked dystopian Los Angeles of 2019, blade runner Rick Deckard is called out of retirement to terminate a quartet of replicants who have escaped to Earth seeking their creator for a way to extend their short life spans.", "poster_path": "/vfzE3pjE5G7G7kcZWrA3fnbZo7V.jpg", "popularity": 34.149}, {"id": 242582, "video": false, "vote_count": 6506, "vote_average": 7.7, "title": "Nightcrawler", "release_date": "2014-10-23", "original_language": "en", "original_title": "Nightcrawler", "genre_ids": [80, 18, 53], "backdrop_path": "/gktL2rfE7d1xrwPSSTohxLOjLSs.jpg", "adult": false, "overview": "When Lou Bloom, desperate for work, muscles into the world of L.A. crime journalism, he blurs the line between observer and participant to become the star of his own story. Aiding him in his effort is Nina, a TV-news veteran.", "poster_path": "/8oPY6ULFOTbAEskySNhgsUIN4fW.jpg", "popularity": 35.295}, {"adult": false, "backdrop_path": "/kQYBOmJHSUzxeY7VnUXo4t4WIl7.jpg", "genre_ids": [80, 18, 9648, 53], "id": 829, "original_language": "en", "original_title": "Chinatown", "overview": "Private eye Jake Gittes lives off of the murky moral climate of sunbaked, pre-World War II Southern California. Hired by a beautiful socialite to investigate her husband's extra-marital affair, Gittes is swept into a maelstrom of double dealings and deadly deceits, uncovering a web of personal and political scandals that come crashing together.", "poster_path": "/iIHO6FzF6lL4mA90rrmk3Y705XS.jpg", "release_date": "1974-06-20", "title": "Chinatown", "video": false, "vote_average": 7.9, "vote_count": 2005, "popularity": 18.348}, {"id": 449443, "video": false, "vote_count": 1469, "vote_average": 6.6, "title": "Den of Thieves", "release_date": "2018-01-18", "original_language": "en", "original_title": "Den of Thieves", "genre_ids": [28, 80, 53], "backdrop_path": "/s3FDBLH4qc1IcjexB05Qvbn3wxO.jpg", "adult": false, "overview": "A gritty crime saga which follows the lives of an elite unit of the LA County Sheriff\u2019s Dept. and the state\u2019s most successful bank robbery crew as the outlaws plan a seemingly impossible heist on the Federal Reserve Bank.", "poster_path": "/AfybH6GbGFw1F9bcETe2yu25mIE.jpg", "popularity": 30.821}, {"adult": false, "backdrop_path": "/cLGKawjQ5tUJCuDyR0OnGYT4fyf.jpg", "genre_ids": [18, 53, 80], "id": 146233, "original_language": "en", "original_title": "Prisoners", "overview": "When Keller Dover's daughter and her friend go missing, he takes matters into his own hands as the police pursue multiple leads and the pressure mounts. But just how far will this desperate father go to protect his family?", "poster_path": "/yAhqW57pwMAsCgmZpM5zSIVQVTh.jpg", "release_date": "2013-09-18", "title": "Prisoners", "video": false, "vote_average": 8.0, "vote_count": 6408, "popularity": 22.476}, {"id": 1538, "video": false, "vote_count": 2889, "vote_average": 7.2, "title": "Collateral", "release_date": "2004-08-04", "original_language": "en", "original_title": "Collateral", "genre_ids": [80, 18, 53], "backdrop_path": "/hFcXrnmciPfIg8ZcXb1V7BeguF.jpg", "adult": false, "overview": "Cab driver Max picks up a man who offers him $600 to drive him around. But the promise of easy money sours when Max realizes his fare is an assassin.", "poster_path": "/fmkv2eRuYCTq7A5jzMBNgoNe1vA.jpg", "popularity": 16.215}, {"id": 447404, "video": false, "vote_count": 3054, "vote_average": 6.9, "title": "Pok\u00e9mon Detective Pikachu", "release_date": "2019-05-03", "original_language": "en", "original_title": "Pok\u00e9mon Detective Pikachu", "genre_ids": [28, 12, 14], "backdrop_path": "/nDP33LmQwNsnPv29GQazz59HjJI.jpg", "adult": false, "overview": "In a world where people collect pocket-size monsters (Pok\u00e9mon) to do battle, a boy comes across an intelligent monster who seeks to be a detective.", "poster_path": "/wgQ7APnFpf1TuviKHXeEe3KnsTV.jpg", "popularity": 37.486}, {"id": 807, "video": false, "vote_count": 11928, "vote_average": 8.3, "title": "Se7en", "release_date": "1995-09-22", "original_language": "en", "original_title": "Se7en", "genre_ids": [80, 9648, 53], "backdrop_path": "/A0WKbRIojF9DUWG4XLCmg5JK6I5.jpg", "adult": false, "overview": "Two homicide detectives are on a desperate hunt for a serial killer whose crimes are based on the \"seven deadly sins\" in this dark and haunting film that takes viewers from the tortured remains of one victim to the next. The seasoned Det. Sommerset researches each sin in an effort to get inside the killer's mind, while his novice partner, Mills, scoffs at his efforts to unravel the case.", "poster_path": "/8zw8IL4zEPjkh8Aysdcd0FwGMb0.jpg", "popularity": 39.113}, {"id": 535292, "video": false, "vote_count": 109, "vote_average": 6.5, "title": "21 Bridges", "release_date": "2019-10-24", "original_language": "en", "original_title": "21 Bridges", "genre_ids": [28, 80, 18, 53], "backdrop_path": "/blUCzzkFNWrur18J0BvIYBdbquv.jpg", "adult": false, "overview": "A disgraced NYPD detective after being thrust into a citywide manhunt for a cop killer, is given a shot at redemption.", "poster_path": "/bSN9SysoRBMwJKNkfOlQlCw2YQO.jpg", "popularity": 30.138}, {"id": 402, "video": false, "vote_count": 1774, "vote_average": 6.7, "title": "Basic Instinct", "release_date": "1992-03-20", "original_language": "en", "original_title": "Basic Instinct", "genre_ids": [9648, 53], "backdrop_path": "/bKdxJMqvr4wltzAQaieA6CTkaa9.jpg", "adult": false, "overview": "A police detective is in charge of the investigation of a brutal murder, in which a beautiful and seductive woman could be involved.", "poster_path": "/p1DHOfLFZmM567ePKfFNMV4mY92.jpg", "popularity": 22.419}, {"id": 1018, "video": false, "vote_count": 3309, "vote_average": 7.8, "title": "Mulholland Drive", "release_date": "2001-09-08", "original_language": "en", "original_title": "Mulholland Drive", "genre_ids": [18, 9648, 53], "backdrop_path": "/91KNvuQXrWq5vehtQpciCOiOyJe.jpg", "adult": false, "overview": "Blonde Betty Elms has only just arrived in Hollywood to become a movie star when she meets an enigmatic brunette with amnesia. Meanwhile, as the two set off to solve the second woman's identity, filmmaker Adam Kesher runs into ominous trouble while casting his latest project.", "poster_path": "/tVxGt7uffLVhIIcwuldXOMpFBPX.jpg", "popularity": 25.956}, {"id": 37094, "video": false, "vote_count": 1727, "vote_average": 7.3, "title": "Falling Down", "release_date": "1993-02-26", "original_language": "en", "original_title": "Falling Down", "genre_ids": [80, 18, 53], "backdrop_path": "/cS45swrlrTJijH1RblBLe8LlW2p.jpg", "adult": false, "overview": "On the day of his daughter's birthday, William \"D-Fens\" Foster is trying to get to the home of his estranged ex-wife to see his daughter. His car breaks down, so he leaves his car in a traffic jam in Los Angeles and decides to walk. He goes to a convenience store and tries to get some change for a phone call, but the Korean owner does not oblige, tipping Foster over the edge. The unstable Foster, so frustrated with the various flaws he sees in society, begins to psychotically and violently lash out against them.", "poster_path": "/s6dnkgQmcaZQiU1omVkyBcrVERR.jpg", "popularity": 17.248}], "total_pages": 73, "total_results": 1447}, "recommendations": {"page": 1, "results": [{"adult": false, "backdrop_path": null, "genre_ids": [18], "id": 107285, "original_language": "en", "original_title": "Anna", "overview": "Czech refugee Krystyna travels to New York in search of her actress idol and fellow expatriate, Anna. After her own arrival in the Big Apple, Anna finds that celebrity often doesn't travel well, and she must go through a battery of humiliating auditions to try and get work in her adopted land. But when Krystyna and Anna finally meet, they provide a support structure for each other.", "poster_path": "/6CJaiXo2DlX8mEVSwO7PsKpksqQ.jpg", "release_date": "1987-11-28", "title": "Anna", "video": false, "vote_average": 6.0, "vote_count": 6, "popularity": 2.955}, {"id": 63945, "video": false, "vote_count": 13, "vote_average": 5.8, "title": "Bliss", "release_date": "1997-04-14", "original_language": "en", "original_title": "Bliss", "genre_ids": [18, 10749], "backdrop_path": "/5LKtRtDcPxx7Pp7309E8v7w4uDF.jpg", "adult": false, "overview": "Joseph and Maria are married for six months and Maria still has never had an orgasm with her husband. They begin to visit mysterious doctor Baltazar who teaches them how to reach ecstasy in sex.", "poster_path": "/jNlOtRzKZaA2pprSNyeVntP1eSJ.jpg", "popularity": 4.669}], "total_pages": 1, "total_results": 2}, "credits": {"cast": [{"cast_id": 3, "character": "Joe", "credit_id": "52fe4727c3a36847f812638b", "gender": 2, "id": 587, "name": "Edward James Olmos", "order": 0, "profile_path": "/i7zKqsFqL5L1HPmAMeSA1xZzlD5.jpg"}, {"cast_id": 4, "character": "Betty", "credit_id": "52fe4727c3a36847f812638f", "gender": 1, "id": 2051, "name": "Mar\u00eda Conchita Alonso", "order": 1, "profile_path": "/98EEtbFdolcvYiqfM78dybJyyW3.jpg"}, {"cast_id": 5, "character": "Nick", "credit_id": "52fe4727c3a36847f8126393", "gender": 2, "id": 91612, "name": "Arie Verveen", "order": 2, "profile_path": "/yh3mOsRXENzK3JJljFlSgX7p6QL.jpg"}, {"cast_id": 6, "character": "Amy", "credit_id": "52fe4727c3a36847f8126397", "gender": 1, "id": 138240, "name": "Bitty Schram", "order": 3, "profile_path": "/fcUmGsYdoK31CGxIyk1D4clnBK0.jpg"}, {"cast_id": 7, "character": "Danny", "credit_id": "52fe4727c3a36847f812639b", "gender": 2, "id": 15371, "name": "Steven Schub", "order": 4, "profile_path": "/8Rt1XNnNAYG48yEY8WRSUmWwp60.jpg"}], "crew": [{"credit_id": "5c98e6c80e0a2610e5bfd9d9", "department": "Art", "gender": 1, "id": 3997, "job": "Production Design", "name": "Hilary Rosenfeld", "profile_path": null}, {"credit_id": "5c98e6d3c3a36877e63bdc69", "department": "Costume & Make-Up", "gender": 1, "id": 3997, "job": "Costume Design", "name": "Hilary Rosenfeld", "profile_path": null}, {"credit_id": "5c98e6ac9251416b0cf47453", "department": "Crew", "gender": 2, "id": 37039, "job": "Cinematography", "name": "Michael F. Barrow", "profile_path": null}, {"credit_id": "5c98e6e40e0a264cc6c361d2", "department": "Editing", "gender": 2, "id": 51915, "job": "Editor", "name": "Norman Buckley", "profile_path": "/lCvh4S06AP5THX9Kve8nQNAlH1l.jpg"}, {"credit_id": "5c98e68892514165b2f458bd", "department": "Production", "gender": 0, "id": 73597, "job": "Producer", "name": "Richard Brick", "profile_path": null}, {"credit_id": "52fe4727c3a36847f8126381", "department": "Directing", "gender": 2, "id": 86293, "job": "Director", "name": "Robert M. Young", "profile_path": "/iekSJ1eb9o0zvJqPwgEdx1ZfRsE.jpg"}, {"credit_id": "52fe734c92514128e403619e", "department": "Writing", "gender": 0, "id": 138239, "job": "Screenplay", "name": "Edward Pomerantz", "profile_path": null}, {"credit_id": "52fe4727c3a36847f8126387", "department": "Writing", "gender": 0, "id": 138239, "job": "Novel", "name": "Edward Pomerantz", "profile_path": null}, {"credit_id": "5c98e679c3a36877e63bdbdc", "department": "Production", "gender": 0, "id": 1509829, "job": "Producer", "name": "Irwin Young", "profile_path": null}, {"credit_id": "5c98e698c3a3680dbc3a3d03", "department": "Sound", "gender": 0, "id": 2117795, "job": "Music", "name": "Chris Botti", "profile_path": "/cyGpE1bRsnf50j7peoiv2XXqEJM.jpg"}]}}