{"adult": false, "backdrop_path": "/7XAFHLjVY4rHQci2F9YM3MN8zrN.jpg", "belongs_to_collection": null, "budget": 0, "genres": [{"id": 99, "name": "Documentary"}], "homepage": "http://www.dominionmovement.com", "id": 472796, "imdb_id": "tt5773402", "original_language": "en", "original_title": "Dominion", "overview": "Exposing the dark underbelly of modern animal agriculture through drones, hidden & handheld cameras, the feature-length film explores the morality and validity of our dominion over the animal kingdom.", "popularity": 3.977, "poster_path": "/sipSZ6Gcuz6O7gzQbLdskpwjh7V.jpg", "production_companies": [{"id": 103661, "logo_path": null, "name": "Aussie Farms", "origin_country": ""}], "production_countries": [{"iso_3166_1": "AU", "name": "Australia"}], "release_date": "2018-03-29", "revenue": 0, "runtime": 120, "spoken_languages": [{"iso_639_1": "en", "name": "English"}], "status": "Released", "tagline": "An Australian Documentary", "title": "Dominion", "video": false, "vote_average": 9.1, "vote_count": 13, "keywords": {"keywords": [{"id": 2172, "name": "zoo"}, {"id": 2804, "name": "exploitation"}, {"id": 5657, "name": "australia"}, {"id": 18165, "name": "animal"}, {"id": 156456, "name": "animal abuse"}, {"id": 182281, "name": "farming"}, {"id": 205685, "name": "animal cruelty"}, {"id": 220765, "name": "animal suffering"}, {"id": 220766, "name": "factory farming"}, {"id": 233717, "name": "veganism"}]}, "similar": {"page": 1, "results": [{"id": 483411, "video": false, "vote_count": 48, "vote_average": 6.4, "title": "Ladies in Black", "release_date": "2018-10-18", "original_language": "en", "original_title": "Ladies in Black", "genre_ids": [35, 18], "backdrop_path": "/gIkqcEqz0rj6rK1knYAOoXpwA3y.jpg", "adult": false, "overview": "Adapted from the bestselling novel by Madeleine St John, Ladies in Black is an alluring and tender-hearted comedy drama about the lives of a group of department store employees in 1959 Sydney.", "poster_path": "/sIC0Y0dGLnxbdCksftZ38FZ2c61.jpg", "popularity": 7.782}, {"id": 575718, "video": false, "vote_count": 0, "vote_average": 0.0, "title": "Secret Zoo", "release_date": "2020-01-15", "original_language": "ko", "original_title": "\ud574\uce58\uc9c0\uc54a\uc544", "genre_ids": [35], "backdrop_path": "/hc8Y3Xz9YS3DQxVem61qrhkHxtn.jpg", "adult": false, "overview": "A lawyer is given the mission of revitalising a bankrupt zoo that has no animals. When he and a group of zookeepers come up with the idea to dress like animals and his fake polar bear goes viral, the zoo becomes a hit, before his law firm\u2019s real intentions are revealed.", "poster_path": "/2yBRl13BrHXhK7KpMTMZ9YfSvRW.jpg", "popularity": 7.468}, {"adult": false, "backdrop_path": "/7ZyiMee2s7kARJ0IvJOIgTyvmdp.jpg", "genre_ids": [12, 28, 53, 878], "id": 9659, "original_language": "en", "original_title": "Mad Max", "overview": "In a postapocalyptic future, jaded cop Max Rockatansky (Mel Gibson) is ready to retire. But his world is shattered when a malicious gang murders his family as an act of retaliation, forcing a devastated Max to hit the open road seeking vengeance. As he travels the Australian outback's empty stretches of highway, he tours the bloodstained battlegrounds ruled by marauding bikers who feed on violence.", "poster_path": "/5LrI4GiCSrChgkdskVZiwv643Kg.jpg", "release_date": "1979-04-12", "title": "Mad Max", "video": false, "vote_average": 6.7, "vote_count": 2363, "popularity": 25.432}, {"adult": false, "backdrop_path": "/etybioibi04QJK9xxn3Rv5NLuKs.jpg", "genre_ids": [12, 28, 53, 878], "id": 8810, "original_language": "en", "original_title": "Mad Max 2", "overview": "Max Rockatansky returns as the heroic loner who drives the dusty roads of a postapocalyptic Australian Outback in an unending search for gasoline. Arrayed against him and the other scraggly defendants of a fuel-depot encampment are the bizarre warriors commanded by the charismatic Lord Humungus, a violent leader whose scruples are as barren as the surrounding landscape.", "poster_path": "/tVaClEA7n0MxaY8sb81nHwh6XNW.jpg", "release_date": "1981-12-24", "title": "Mad Max 2", "video": false, "vote_average": 7.4, "vote_count": 1898, "popularity": 19.166}, {"id": 8982, "video": false, "vote_count": 327, "vote_average": 6.9, "title": "The Protector", "release_date": "2005-08-11", "original_language": "th", "original_title": "\u0e15\u0e49\u0e21\u0e22\u0e33\u0e01\u0e38\u0e49\u0e07", "genre_ids": [28, 80, 18, 53], "backdrop_path": "/iHxw595q8u34LKmVkdjn3cB0QVd.jpg", "adult": false, "overview": "In Bangkok, the young Kham was raised by his father in the jungle with elephants as members of their family. When his old elephant and the baby Kern are stolen by criminals, Kham finds that the animals were sent to Sidney. He travels to Australia, where he locates the baby elephant in a restaurant owned by the evil Madame Rose, the leader of an international Thai mafia. With the support of the efficient Thai sergeant Mark, who was involved in a conspiracy, Kham fights to rescue the animal from the mobsters.", "poster_path": "/wgipNtPvjzqqilVMKxZWIFKyGF5.jpg", "popularity": 13.978}, {"id": 9555, "video": false, "vote_count": 181, "vote_average": 7.0, "title": "Rabbit-Proof Fence", "release_date": "2002-02-04", "original_language": "en", "original_title": "Rabbit-Proof Fence", "genre_ids": [28, 12, 18, 36], "backdrop_path": "/rFvKtkrO2prjidztdAW0ITzWQSe.jpg", "adult": false, "overview": "In 1931, three aboriginal girls escape after being plucked from their homes to be trained as domestic staff and set off on a trek across the Outback.", "poster_path": "/rxofVzkTIBTAIClCB0F49H8SVkO.jpg", "popularity": 8.452}, {"id": 74465, "video": false, "vote_count": 1671, "vote_average": 6.7, "title": "We Bought a Zoo", "release_date": "2011-12-08", "original_language": "en", "original_title": "We Bought a Zoo", "genre_ids": [35, 18, 10751], "backdrop_path": "/3shXpoLYyfKucz3vJXrP0FCuqJM.jpg", "adult": false, "overview": "Benjamin has lost his wife and, in a bid to start his life over, purchases a large house that has a zoo \u2013 welcome news for his daughter, but his son is not happy about it. The zoo is in need of renovation and Benjamin sets about the work with the head keeper and the rest of the staff, but, the zoo soon runs into financial trouble.", "poster_path": "/2gYXRzCsQz7qpZKgoE28a9zX1eu.jpg", "popularity": 18.35}, {"adult": false, "backdrop_path": "/eg5XyfnonAJHuLvw0aANU9wJQ8E.jpg", "genre_ids": [12, 18], "id": 36040, "original_language": "en", "original_title": "Walkabout", "overview": "Under the pretense of having a picnic, a geologist takes his teenage daughter and 6-year-old son into the Australian outback and attempts to shoot them. When he fails, he turns the gun on himself, and the two city-bred children must contend with harsh wilderness alone. They are saved by a chance encounter with an Aborigine boy who shows them how to survive, and in the process underscores the disharmony between nature and modern life.", "poster_path": "/24vooYt5StgtgcQObVr1GHuM5gy.jpg", "release_date": "1971-07-01", "title": "Walkabout", "video": false, "vote_average": 7.4, "vote_count": 181, "popularity": 8.486}, {"id": 26405, "video": false, "vote_count": 116, "vote_average": 7.5, "title": "Wake in Fright", "release_date": "1971-07-21", "original_language": "en", "original_title": "Wake in Fright", "genre_ids": [18, 53], "backdrop_path": "/jqNFwQQ1HBUpu9M6K1Ycv2OGzjO.jpg", "adult": false, "overview": "Wake in Fright is the story of John Grant, a bonded teacher who arrives in the rough outback mining town of Bundanyabba planning to stay overnight before catching the plane to Sydney, but as one night stretches into several he plunges headlong into his own destruction.", "poster_path": "/1H4L68aEvVThmt1V1PTYyaE8LpE.jpg", "popularity": 8.494}, {"id": 199818, "video": false, "vote_count": 84, "vote_average": 6.0, "title": "Mystery Road", "release_date": "2013-06-05", "original_language": "en", "original_title": "Mystery Road", "genre_ids": [53], "backdrop_path": "/bE0YkLtlKs8ZXb6nVESHIlA9xi2.jpg", "adult": false, "overview": "An indigenous detective returns to the Outback to investigate the murder of a young girl.", "poster_path": "/dq5Z03brQhjK1osXwCsLihbqTnj.jpg", "popularity": 7.006}, {"adult": false, "backdrop_path": "/45V39ywEYIUBwTOg9fAs4khQO6s.jpg", "genre_ids": [18, 53, 9648], "id": 245846, "original_language": "en", "original_title": "Strangerland", "overview": "Newly arrived to a remote desert town, Catherine and Matthew are tormented by a suspicion when their two teenage children mysteriously vanish.", "poster_path": "/cSGg9nvkB7djAUUNxk94gF0g6h4.jpg", "release_date": "2015-07-01", "title": "Strangerland", "video": false, "vote_average": 5.3, "vote_count": 150, "popularity": 11.069}, {"id": 468210, "video": false, "vote_count": 80, "vote_average": 6.8, "title": "Sweet Country", "release_date": "2018-01-25", "original_language": "en", "original_title": "Sweet Country", "genre_ids": [18, 36, 37], "backdrop_path": "/5R5O1IkKz4Otrhax39AwYRPkh1h.jpg", "adult": false, "overview": "It\u2019s 1929 on the vast, desert-like, Eastern Arrernte Nation lands that are now known as the Central Australian outback. Sam Kelly, a middle-aged Aboriginal man, works the land of a kind preacher, Fred Smith. After an ill-tempered bully arrives in town and Kelly kills him in self-defence, he and his wife go on the run as a posse gathers to hunt him down.", "poster_path": "/szJdZCSiEIYybmPymoP2UTEvOUC.jpg", "popularity": 9.419}, {"id": 2759, "video": false, "vote_count": 386, "vote_average": 7.3, "title": "The Adventures of Priscilla, Queen of the Desert", "release_date": "1994-05-31", "original_language": "en", "original_title": "The Adventures of Priscilla, Queen of the Desert", "genre_ids": [35, 18], "backdrop_path": "/1lwk7ezk7MknKCM47FEPNtIsWMP.jpg", "adult": false, "overview": "Two drag-queens and a transsexual contract to perform a drag show at a resort in Alice Springs, and head west from Sydney aboard their lavender bus, named 'Priscilla'. En route, they discover that the woman they've contracted with is the wife of one of the drag queens. Their bus breaks down, and is repaired by Bob, who then travels on with them.", "poster_path": "/pmHRJPlAEiYATBIgKAa0IyY6Or7.jpg", "popularity": 11.383}, {"id": 12145, "video": false, "vote_count": 164, "vote_average": 6.2, "title": "Fierce Creatures", "release_date": "1997-01-23", "original_language": "en", "original_title": "Fierce Creatures", "genre_ids": [35, 10749], "backdrop_path": "/utHwPa0nSPJrY0XYVX1sVMP8JGX.jpg", "adult": false, "overview": "Ex-policeman Rollo Lee is sent to run Marwood Zoo, the newly acquired business of a New Zealand tycoon. In order to meet high profit targets and keep the zoo open, Rollo enforces a new 'fierce creatures' policy, whereby only the most impressive and dangerous animals are allowed to remain in the zoo. However, the keepers are less enthusiastic about complying with these demands.", "poster_path": "/yS9g8DFgBoZodWOZqCEHq7unkrO.jpg", "popularity": 10.757}, {"adult": false, "backdrop_path": "/uJnmwWiGvcdX9qDSVAlJVEA9x1j.jpg", "genre_ids": [80, 53], "id": 393834, "original_language": "en", "original_title": "Goldstone", "overview": "GOLDSTONE, the award-winning new feature from Australian auteur Ivan Sen (Mystery Road), is a complex and stylish crime thriller that explores themes of racism, human trafficking, police corruption, corporate malfeasance, and the trampling of indigenous people\u2019s rights.  On the trail of a missing person, troubled indigenous detective Jay Swan (Aaron Pedersen, Mystery Road) finds himself in the small mining town of Goldstone, where he is arrested for drunk driving by local cop Josh (Alex Russell, CBS\u2019s \u201cS.W.A.T.\u201d). When Jay\u2019s motel room is blasted with gun fire, it becomes clear that something larger is at play. While struggling to overcome their mutual distrust, Jay and Josh uncover a web of crime and corruption, which leads directly to the town\u2019s cold-blooded Mayor (two-time Oscar nominee Jacki Weaver, Silver Linings Playbook) and its smarmy gold mine director (David Wenham, Lord of the Rings).", "poster_path": "/p0zu2NO165r6dqM4cPrhFrD6tBf.jpg", "release_date": "2016-07-07", "title": "Goldstone", "video": false, "vote_average": 6.0, "vote_count": 50, "popularity": 6.254}, {"id": 14064, "video": false, "vote_count": 30, "vote_average": 7.1, "title": "Ten Canoes", "release_date": "2006-06-29", "original_language": "en", "original_title": "Ten Canoes", "genre_ids": [12, 35, 18], "backdrop_path": "/a6EdKjafiVBQXCHgwjEU8H6Ces4.jpg", "adult": false, "overview": "A story within a story within a story. In Australia's Northern Territory, an Aboriginal narrator tells a story about his ancestors on a goose hunt. A youngster on the hunt is being tempted to adultery with his elder brother's wife, so an elder tells him a story from the mythical past about how evil can slip in and cause havoc unless prevented by virtue according to customary tribal law.", "poster_path": "/eIYjI4dZzdajybjkj2EYIAOK8w8.jpg", "popularity": 3.882}, {"adult": false, "backdrop_path": "/qYEOQHiWE1euytE8cbQVRDRnxyZ.jpg", "genre_ids": [28, 53, 37], "id": 45569, "original_language": "en", "original_title": "Red Hill", "overview": "Young police officer Shane Cooper's first day on duty, after relocating to the small town of Red Hill, rapidly turns into a nightmare. News of a prison break, involving convicted murderer Jimmy Conway, sends the local law enforcement officers - led by the town's ruling presence, Old Bill - into a panic and leads to a terrifying and bloody confrontation.", "poster_path": "/a2jsQVoaf8gRXKFoMVe3bdLz8Y4.jpg", "release_date": "2010-11-05", "title": "Red Hill", "video": false, "vote_average": 6.1, "vote_count": 88, "popularity": 9.56}, {"adult": false, "backdrop_path": "/kl4hzeH7jCi18QzZyZm6Xb2PzVq.jpg", "genre_ids": [35, 18, 10749], "id": 36614, "original_language": "en", "original_title": "The Sum of Us", "overview": "\"The Sum of Us\" is an Aussie story about a father and a son both searching for love and sharing an unconventional bond. Harry, the father, is the caring and open-minded \"mate\" that borders on annoyance. His son Jeff unsuccessfully searches for love, with the unwanted guidance of his father.", "poster_path": "/rAQAUf6HHUyoT2Ii6jUmzMu5Ppf.jpg", "release_date": "1994-07-28", "title": "The Sum of Us", "video": false, "vote_average": 7.2, "vote_count": 30, "popularity": 3.147}, {"id": 42048, "video": false, "vote_count": 21, "vote_average": 6.0, "title": "The Coca-Cola Kid", "release_date": "1985-07-14", "original_language": "en", "original_title": "The Coca-Cola Kid", "genre_ids": [35, 18, 10749], "backdrop_path": "/fi3QUbgcXnMEZdtPHO2KOqkFrG2.jpg", "adult": false, "overview": "An eccentric marketing guru visits a Coca-Cola subsidiary in Australia to try and increase market penetration. He finds zero penetration in a valley owned by an old man who makes his own soft drinks, and visits the valley to see why. After \"the Kid's\" persistence is tested he's given a tour of the man's plant, and they begin talking of a joint venture. Things get more complicated when the Coca-Cola man begins falling in love with his temporary secretary, who seems to have connections to the valley.", "poster_path": "/yBfZ52KgC3gnt8UrBULVRp43liC.jpg", "popularity": 4.463}, {"id": 47340, "video": false, "vote_count": 45, "vote_average": 5.9, "title": "Dead End Drive-In", "release_date": "1986-08-13", "original_language": "en", "original_title": "Dead End Drive-In", "genre_ids": [18, 27, 878], "backdrop_path": "/tVBXhMYiv6JwrSNKvnASvVi91v9.jpg", "adult": false, "overview": "In the near future, drive-in theatres are turned into concentration camps for the undesirable and unemployed. The prisoners don't really care to escape because they are fed and they have a place to live which is, in most cases, probably better than the outside. Crabs and his girlfriend Carmen are put into the camp and all Crabs wants to do is escape.", "poster_path": "/oFOocn7EXcdu2e2jmyXMNUMvOHX.jpg", "popularity": 4.557}], "total_pages": 3, "total_results": 60}, "recommendations": {"page": 1, "results": [], "total_pages": 1, "total_results": 0}, "credits": {"cast": [{"cast_id": 4, "character": "Narrator (voice)", "credit_id": "5ac224090e0a264a5705d826", "gender": 1, "id": 108916, "name": "Rooney Mara", "order": 1, "profile_path": "/r9Qe0vIwYKqqB1oPsUCRCu2TIoE.jpg"}, {"cast_id": 5, "character": "Narrator (voice)", "credit_id": "5ac224399251416018059fdf", "gender": 2, "id": 73421, "name": "Joaquin Phoenix", "order": 2, "profile_path": "/zixTWuMZ1D8EopgOhLVZ6Js2ux3.jpg"}, {"cast_id": 8, "character": "Narrator (voice)", "credit_id": "5b38df760e0a263ff00457a8", "gender": 1, "id": 1136517, "name": "Sia", "order": 3, "profile_path": "/zA1g1yZpuYMpoeCic13ejb3Ac4S.jpg"}, {"cast_id": 9, "character": "Narrator (voice)", "credit_id": "5b38df830e0a2673e70048ec", "gender": 1, "id": 1590797, "name": "Sadie Sink", "order": 4, "profile_path": "/qouCh22I7LZtEJ2THaDsSv0W0ma.jpg"}, {"cast_id": 10, "character": "Narrator (voice)", "credit_id": "5b38df90c3a36846d7003a24", "gender": 0, "id": 132833, "name": "Katherine von Drachenberg", "order": 5, "profile_path": "/1q4ZB6qcZ0jRjIGFzdFULb3V3L1.jpg"}, {"cast_id": 11, "character": "Narrator (voice)", "credit_id": "5b38df99c3a368470c0044d5", "gender": 0, "id": 2013572, "name": "Chris Delforce", "order": 6, "profile_path": null}], "crew": [{"credit_id": "5c2216fc9251416805c2f01c", "department": "Crew", "gender": 0, "id": 1590203, "job": "Other", "name": "Alaine Huntington", "profile_path": null}, {"credit_id": "5c22163392514167fdc2ff7b", "department": "Sound", "gender": 0, "id": 1877911, "job": "Music", "name": "Asher Pope", "profile_path": null}, {"credit_id": "5ac224dfc3a3682d9a01c49e", "department": "Directing", "gender": 0, "id": 2013572, "job": "Director", "name": "Chris Delforce", "profile_path": null}, {"credit_id": "5c22166a0e0a264df2ef4e7a", "department": "Editing", "gender": 0, "id": 2013572, "job": "Editor", "name": "Chris Delforce", "profile_path": null}, {"credit_id": "5ac2253dc3a36844480649d8", "department": "Writing", "gender": 0, "id": 2013574, "job": "Writer", "name": "Chris Delforce", "profile_path": null}, {"credit_id": "5c2216cac3a3683782e87615", "department": "Directing", "gender": 0, "id": 2201440, "job": "Assistant Director", "name": "Lissy Jayne", "profile_path": null}, {"credit_id": "5c2216b30e0a264dd8ef53cf", "department": "Directing", "gender": 0, "id": 2201440, "job": "Second Unit Director", "name": "Lissy Jayne", "profile_path": null}]}}