{"adult": false, "backdrop_path": "/m0FjvvPleZUWtzn7ohJ2xRC5OTC.jpg", "belongs_to_collection": null, "budget": 0, "genres": [{"id": 18, "name": "Drama"}], "homepage": "http://osanago-movie.com", "id": 473397, "imdb_id": "tt5797164", "original_language": "ja", "original_title": "\u5e7c\u306a\u5b50\u308f\u308c\u3089\u306b\u751f\u307e\u308c", "overview": "Makoto Tanaka (Tadanobu Asano) is 40-years-old and has remarried. His wife is Nanae (Rena Tanaka) and they care for 2 daughters from Nanae's prior marriage. Makoto tries to have an ordinary family. Nanae then becomes pregnant. Afterwards, things begin to change among the family members.", "popularity": 1.855, "poster_path": "/i7ECY1HKWOtULdAbiePElAt9Aq6.jpg", "production_companies": [], "production_countries": [{"iso_3166_1": "JP", "name": "Japan"}], "release_date": "2017-08-26", "revenue": 0, "runtime": 127, "spoken_languages": [{"iso_639_1": "ja", "name": "\u65e5\u672c\u8a9e"}], "status": "Released", "tagline": "", "title": "Dear Etranger", "video": false, "vote_average": 6.8, "vote_count": 9, "keywords": {"keywords": [{"id": 18035, "name": "family"}, {"id": 187056, "name": "woman director"}]}, "similar": {"page": 1, "results": [{"adult": false, "backdrop_path": "/hD8DQM72Xacg1d3mFqS0eN8vKYw.jpg", "genre_ids": [18], "id": 8272, "original_language": "en", "original_title": "The Savages", "overview": "A sister and brother face the realities of familial responsibility as they begin to care for their ailing father.", "poster_path": "/nY54gSmTOmSXlQpWDB7DWp4u8a7.jpg", "release_date": "2007-01-19", "title": "The Savages", "video": false, "vote_average": 6.9, "vote_count": 192, "popularity": 9.466}, {"adult": false, "backdrop_path": "/rf6G51j0SZL0tP57I8gnqHTRFEr.jpg", "genre_ids": [35, 18, 10749], "id": 273153, "original_language": "fr", "original_title": "La belle saison", "overview": "In 1971, Carole and Delphine meet and fall in love in Paris. When Carole follows Delphine back to her family farm in Limousin, the two find lesbianism and feminism are not as easy in the countryside.", "poster_path": "/evvAkNMO5VJiy5qIo1Hu7fUfvVI.jpg", "release_date": "2015-08-19", "title": "Summertime", "video": false, "vote_average": 6.6, "vote_count": 162, "popularity": 11.575}, {"id": 9813, "video": false, "vote_count": 128, "vote_average": 6.1, "title": "The Quiet", "release_date": "2005-09-12", "original_language": "en", "original_title": "The Quiet", "genre_ids": [18, 53], "backdrop_path": "/6eyWAZA4CEidZW1xXnQ4vlYBXTP.jpg", "adult": false, "overview": "After her widowed father dies, deaf teenager Dot moves in with her godparents, Olivia and Paul Deer. The Deers' daughter, Nina, is openly hostile to Dot, but that does not prevent her from telling her secrets to her silent stepsister, including the fact that she wants to kill her lecherous father.", "poster_path": "/GEqIE9YlmygHVUfS64LW2cwAAM.jpg", "popularity": 14.844}, {"adult": false, "backdrop_path": "/gZeJziVigmRqbkEZwKAtSqlLQ6s.jpg", "genre_ids": [18, 10749], "id": 370663, "original_language": "en", "original_title": "Below Her Mouth", "overview": "An unexpected affair quickly escalates into a heart-stopping reality for two women whose passionate connection changes their lives forever.", "poster_path": "/nTGbq37hYLuNy7YgMg0gVLma0NS.jpg", "release_date": "2016-09-10", "title": "Below Her Mouth", "video": false, "vote_average": 6.2, "vote_count": 456, "popularity": 18.664}, {"adult": false, "backdrop_path": "/tzqeuHWMFihFbiLGHdalPgAcSf6.jpg", "genre_ids": [18, 10749], "id": 18620, "original_language": "en", "original_title": "Go Fish", "overview": "Max is a trendy, pretty, young lesbian, who is having trouble finding love. A friend sets her up with Ely, whom Max likes, but Ely is frumpy, homely, and older. Nor do they have much in common. Can Max learn to look past the packaging?", "poster_path": "/qrEFYrwykaGsY8NULYuYLLI7zrM.jpg", "release_date": "1994-06-10", "title": "Go Fish", "video": false, "vote_average": 5.0, "vote_count": 11, "popularity": 3.676}, {"adult": false, "backdrop_path": "/6tern9vOEwwmkDYC1vRCuO64z0C.jpg", "genre_ids": [10749, 18], "id": 475888, "original_language": "en", "original_title": "Tell It to the Bees", "overview": "Dr. Jean Markham returns to the town she left as a teenager to take over her late father's medical practice. When a school-yard scuffle lands Charlie in her surgery, she invites him to visit the hives in her garden and tell his secrets to the bees, as she once did. The new friendship between the boy and the bee keeper brings his mother Lydia into Jean's world.", "poster_path": "/Rj6zpHhMU1zFW3v28U4PSRSRgP.jpg", "release_date": "2019-05-03", "title": "Tell It to the Bees", "video": false, "vote_average": 6.4, "vote_count": 53, "popularity": 13.175}, {"adult": false, "backdrop_path": "/knczzNAjBXzSYkeWxoT1u9VNmjR.jpg", "genre_ids": [10749, 18], "id": 258480, "original_language": "en", "original_title": "Carol", "overview": "In 1950s New York, a department-store clerk who dreams of a better life falls for an older, married woman.", "poster_path": "/AbKa7ANxmui0Jmhh7gV7OSELKIL.jpg", "release_date": "2015-11-20", "title": "Carol", "video": false, "vote_average": 7.4, "vote_count": 2184, "popularity": 13.539}, {"adult": false, "backdrop_path": "/dvQDRfv3qvfHNnVAR57ouVsuErf.jpg", "genre_ids": [10749, 18], "id": 28031, "original_language": "en", "original_title": "If These Walls Could Talk 2", "overview": "The stories of three lesbian couples -- who live in the same house at different periods of time -- who are at a crossroads in their lives. In 1961, Edith loses her lover, Abby, to a stroke. Linda and Amy struggle with feminist issues in 1972. And, in 2000, Kal and Fran try to have a baby with the help of sperm donor.", "poster_path": "/xs7ODbmYQXCDhvXNvz5tF17T59H.jpg", "release_date": "2000-03-05", "title": "If These Walls Could Talk 2", "video": false, "vote_average": 7.1, "vote_count": 55, "popularity": 8.86}, {"id": 24684, "video": false, "vote_count": 795, "vote_average": 6.9, "title": "An Education", "release_date": "2009-10-29", "original_language": "en", "original_title": "An Education", "genre_ids": [18, 10749], "backdrop_path": "/4PD0Kc4BGYrYrziCwUPHnESSabZ.jpg", "adult": false, "overview": "Despite her sheltered upbringing, Jenny is a teen with a bright future; she's smart, pretty, and has aspirations of attending Oxford University. When David, a charming but much older suitor, motors into her life in a shiny automobile, Jenny gets a taste of adult life that she won't soon forget.", "poster_path": "/n0mH5BgPjlMWJLWKhjtf5MDRrm9.jpg", "popularity": 14.729}, {"adult": false, "backdrop_path": "/cADbqsIoiDW7X3Myg9nz8eAuno5.jpg", "genre_ids": [18, 10749], "id": 10818, "original_language": "fr", "original_title": "Naissance des pieuvres", "overview": "Set during a sultry summer in a French suburb, Marie is desperate to join the local pool's synchronized swimming team, but is her interest solely for the sake of sport or for a chance to get close to Floriane, the bad girl of the team? Sciamma, and the two leads, capture the uncertainty of teenage sexuality with a sympathetic eye in this delicate drama of the angst of coming-of-age.", "poster_path": "/4jajELYrR4Xmv3CVoKnukRnALa2.jpg", "release_date": "2007-05-17", "title": "Water Lilies", "video": false, "vote_average": 6.1, "vote_count": 119, "popularity": 9.614}, {"adult": false, "backdrop_path": "/fZ8oFcREAr6wgWcXISGql0xyxjB.jpg", "genre_ids": [35, 18], "id": 39781, "original_language": "en", "original_title": "The Kids Are All Right", "overview": "Two women, Nic and Jules, brought a son and daughter into the world through artificial insemination. When one of their children reaches age, both kids go behind their mothers' backs to meet with the donor. Life becomes so much more interesting when the father, two mothers and children start to become attached to each other.", "poster_path": "/fPDeK4MmoGfi2X0oWZev7LrbMqM.jpg", "release_date": "2010-07-09", "title": "The Kids Are All Right", "video": false, "vote_average": 6.6, "vote_count": 923, "popularity": 12.159}, {"adult": false, "backdrop_path": "/h3X31FLlJSqi8NTZLKjXWJ7q3rs.jpg", "genre_ids": [35, 18, 10749], "id": 209263, "original_language": "en", "original_title": "Enough Said", "overview": "Eva is a divorced soon-to-be empty-nester wondering about her next act. Then she meets Marianne, the embodiment of her perfect self. Armed with a restored outlook on being middle-aged and single, Eva decides to take a chance on her new love interest Albert \u2014 a sweet, funny and like-minded man. But things get complicated when Eva discovers that Albert is in fact the dreaded ex\u2013husband of Marianne...", "poster_path": "/gPJ7KyzdHVpCaxdiq22sPEmNJZV.jpg", "release_date": "2013-09-18", "title": "Enough Said", "video": false, "vote_average": 6.7, "vote_count": 489, "popularity": 6.802}, {"adult": false, "backdrop_path": "/caLMOD3ZJ3V7qjlxDXrzlJfBLgD.jpg", "genre_ids": [18, 10749], "id": 20, "original_language": "en", "original_title": "My Life Without Me", "overview": "A Pedro Almodovar production in which a fatally ill mother with only two months to live creates a list of things she wants to do before she dies with out telling her family of her illness.", "poster_path": "/vVj92VBFUBzjqzLvBiPVVlJDp78.jpg", "release_date": "2003-03-07", "title": "My Life Without Me", "video": false, "vote_average": 6.1, "vote_count": 220, "popularity": 10.382}, {"adult": false, "backdrop_path": "/useuHJQ5HOoEWkAvEjL1FW1sUfe.jpg", "genre_ids": [18], "id": 376867, "original_language": "en", "original_title": "Moonlight", "overview": "The tender, heartbreaking story of a young man\u2019s struggle to find himself, told across three defining chapters in his life as he experiences the ecstasy, pain, and beauty of falling in love, while grappling with his own sexuality.", "poster_path": "/qAwFbszz0kRyTuXmMeKQZCX3Q2O.jpg", "release_date": "2016-10-21", "title": "Moonlight", "video": false, "vote_average": 7.4, "vote_count": 4410, "popularity": 21.716}, {"id": 8346, "video": false, "vote_count": 1269, "vote_average": 6.4, "title": "My Big Fat Greek Wedding", "release_date": "2002-02-22", "original_language": "en", "original_title": "My Big Fat Greek Wedding", "genre_ids": [35, 18, 10749], "backdrop_path": "/miFwBsaWZER118kg0AAuHcy1YOa.jpg", "adult": false, "overview": "A young Greek woman falls in love with a non-Greek and struggles to get her family to accept him while she comes to terms with her heritage and cultural identity.", "poster_path": "/vqGs8K6MdMHVPMTgMhzKHBVgu0t.jpg", "popularity": 17.695}, {"adult": false, "backdrop_path": "/k8H7ye6Sab7OrDJoo8Qp5WFGHGk.jpg", "genre_ids": [35, 10749, 18], "id": 244264, "original_language": "en", "original_title": "Laggies", "overview": "Overeducated and underemployed, 28 year old Megan is in the throes of a quarterlife crisis. Squarely into adulthood with no career prospects, no particular motivation to think about her future and no one to relate to, Megan is comfortable lagging a few steps behind - while her friends check off milestones and celebrate their new grown-up status. When her high-school sweetheart proposes, Megan panics and- given an unexpected opportunity to escape for a week - hides out in the home of her new friend, 16-year old Annika and Annika's world-weary single dad Craig.", "poster_path": "/dNcoXoRC7JHiqbe7k5Ufo6syiPP.jpg", "release_date": "2014-09-25", "title": "Laggies", "video": false, "vote_average": 6.1, "vote_count": 788, "popularity": 13.836}, {"adult": false, "backdrop_path": "/kJwJfSQht3QwpWka8JBnQ18IyDT.jpg", "genre_ids": [18, 16, 10751, 35], "id": 51052, "original_language": "en", "original_title": "Arthur Christmas", "overview": "Each Christmas, Santa and his vast army of highly trained elves produce gifts and distribute them around the world in one night. However, when one of 600 million children to receive a gift from Santa on Christmas Eve is missed, it is deemed \u2018acceptable\u2019 to all but one \u2013 Arthur. Arthur Claus is Santa\u2019s misfit son who executes an unauthorized rookie mission to get the last present half way around the globe before dawn on Christmas morning.", "poster_path": "/crjzhg2T1sPL9yE7bFHkYp0OfXG.jpg", "release_date": "2011-11-10", "title": "Arthur Christmas", "video": false, "vote_average": 6.7, "vote_count": 800, "popularity": 20.268}, {"id": 434714, "video": false, "vote_count": 32, "vote_average": 7.5, "title": "My Days of Mercy", "release_date": "2019-07-11", "original_language": "en", "original_title": "My Days of Mercy", "genre_ids": [18, 10749], "backdrop_path": "/7Lbzq33nMMIQtAfZAmSqG6ibLSg.jpg", "adult": false, "overview": "The daughter of a man on death row falls in love with a woman on the opposing side of her family's political cause.", "poster_path": "/adIPKAoKnKL9vCTkvfF4J9ZA7Ln.jpg", "popularity": 9.342}, {"adult": false, "backdrop_path": "/npClMhFGn4XUkwu6coq5oKAEu6L.jpg", "genre_ids": [35, 10749, 18], "id": 634, "original_language": "en", "original_title": "Bridget Jones's Diary", "overview": "A chaotic Bridget Jones meets a snobbish lawyer, and he soon enters her world of imperfections.", "poster_path": "/ym6kjFFZg6boC0QHBVw6hqJLbxv.jpg", "release_date": "2001-04-13", "title": "Bridget Jones's Diary", "video": false, "vote_average": 6.7, "vote_count": 3080, "popularity": 19.453}, {"adult": false, "backdrop_path": "/ojn7IYKmMt8HXRd6oLwY5pLGLVc.jpg", "genre_ids": [18, 10749], "id": 9587, "original_language": "en", "original_title": "Little Women", "overview": "With their father away as a chaplain in the Civil War, Jo, Meg, Beth and Amy grow up with their mother in somewhat reduced circumstances. They are a close family who inevitably have their squabbles and tragedies. But the bond holds even when, later, male friends start to become a part of the household.", "poster_path": "/tD9YDE8pjtSvvKUpkmooE6YDSm8.jpg", "release_date": "1994-12-21", "title": "Little Women", "video": false, "vote_average": 7.2, "vote_count": 574, "popularity": 18.707}], "total_pages": 1486, "total_results": 29713}, "recommendations": {"page": 1, "results": [{"adult": false, "backdrop_path": "/iLmzTmIrMy7ElOC8xK8Bjy8zlEE.jpg", "genre_ids": [9648, 18], "id": 456261, "original_language": "ja", "original_title": "\u5f7c\u5973\u304c\u305d\u306e\u540d\u3092\u77e5\u3089\u306a\u3044\u9ce5\u305f\u3061", "overview": "An unstable young woman pines for the ex boyfriend who nearly beat her to death - and who has mysteriously disappeared - in this gripping tale of lust, devotion and redemption.", "poster_path": "/aejO0MHVoHrjms4gLh6bCwCzmt2.jpg", "release_date": "2017-10-28", "title": "Birds Without Names", "video": false, "vote_average": 6.7, "vote_count": 7, "popularity": 2.844}, {"adult": false, "backdrop_path": "/9Kjcd7maWci8cN38h3EnJu3V9lL.jpg", "genre_ids": [10751, 18], "id": 428733, "original_language": "ja", "original_title": "\u5f7c\u3089\u304c\u672c\u6c17\u3067\u7de8\u3080\u3068\u304d\u306f\u3001", "overview": "After being neglected by her mother, a little girl is taken in by her uncle and his transgender girlfriend, who create a loving home for her.", "poster_path": "/oUbsvNZiwepEuSFKuZY36RPdqYr.jpg", "release_date": "2017-02-25", "title": "Close-Knit", "video": false, "vote_average": 7.9, "vote_count": 26, "popularity": 3.071}, {"id": 409550, "video": false, "vote_count": 12, "vote_average": 7.1, "title": "Scoop!", "release_date": "2016-10-01", "original_language": "ja", "original_title": "SCOOP!", "genre_ids": [9648], "backdrop_path": "/1LzjrBSMlDTNgTq1EBJVmPrWSyX.jpg", "adult": false, "overview": "Shizuoka Miyakonojo is a middle-aged paparazzi photographer. His skills as a cameraman are good, but he gambles and is in debt. When he worked in the editorial department for weekly picture magazine 'Scoop!,' he landed numerous scoops. He now works as a freelance photographer and chases after celebrity scandals.  Shizuoka Miyakonojo works with Nobi Namekawa. She is a rookie reporter for 'Scoop!' and they land a scoop.", "poster_path": "/gkLQsGC18XNLFUS6pbLtjQzHxGf.jpg", "popularity": 3.176}, {"adult": false, "backdrop_path": "/kCk4R4t9QYH7dWRYrf2mw6KSrfj.jpg", "genre_ids": [18], "id": 199278, "original_language": "ja", "original_title": "\u3055\u3088\u306a\u3089\u6e13\u8c37", "overview": "In a valley, with a dense growth of trees, a baby is killed. The baby's mother Satomi is arrested as the prime suspect. The police also learn that Satomi is involved in a romantic relationship with her next door neighbor Ozaki. The information was provided by the neighbor's lover Kanako. Meanwhile, magazine reporter Watanabe, who is covering the story, discovers the shocking fact that Ozaki was involved in a rape case 15 years ago. Even more shocking, the victim in the rape case is Kanako.", "poster_path": "/r5goGHDppqk6GCqSqfurY85L1fD.jpg", "release_date": "2013-10-15", "title": "The Ravine of Goodbye", "video": false, "vote_average": 6.1, "vote_count": 10, "popularity": 1.881}, {"adult": false, "backdrop_path": "/6bK5tHVm0iVBV5DCIVUvBzdSCjH.jpg", "genre_ids": [10749, 80, 18], "id": 273096, "original_language": "ja", "original_title": "\u79c1\u306e\u7537", "overview": "Young Hana had lost everything in the earthquake and tsunami and was being taken care of by a relative named Jungo. As Hana grew up she began to fall in love with her own relative.", "poster_path": "/yiOCZqfuBvlM2fwjmLAkAImJjix.jpg", "release_date": "2014-06-14", "title": "My Man", "video": false, "vote_average": 6.6, "vote_count": 11, "popularity": 4.056}, {"id": 354380, "video": false, "vote_count": 9, "vote_average": 6.4, "title": "Too Young To Die!", "release_date": "2016-02-06", "original_language": "ja", "original_title": "TOO YOUNG TO DIE! \u82e5\u304f\u3057\u3066\u6b7b\u306c", "genre_ids": [28, 14, 10749], "backdrop_path": "/ejXK1YUy9JQA1LYzJu47sNnFcgJ.jpg", "adult": false, "overview": "High school student Daisuke has a crush on classmate Hiromi. On the way to a school trip, the bus with Daisuke has an accident. When Daisuke wakes up, he finds himself in Hell. He asks himself \"Why only me? I'm too you young to die and I've never experienced a kiss.\" Then, Killer K appears in front of the confused Daisuke. Killer K leads the rock band Heruzu from Hell Agricultural High School. To return to the living and confess his feelings to Hiromi, Daisuke's hell rounds begin under Killer K's special training.", "poster_path": "/2rXf37DeiYnbRkVMYFTDup2sELo.jpg", "popularity": 3.689}, {"adult": false, "backdrop_path": "/t2jOwKdFfNM09KxqKgvvgq1fIjj.jpg", "genre_ids": [10751, 18], "id": 25746, "original_language": "ja", "original_title": "\u6bcd\u3079\u3048", "overview": "Set in Tokyo in 1940, the peaceful life of the Nogami Family suddenly changes when the father, Shigeru, is arrested and accused of being a Communist. His wife Kayo works frantically from morning to night to maintain the household and bring up her two daughters with the support of Shigeru's sister Hisako and Shigeru's ex-student Yamazaki, but her husband does not return. WWII breaks out and casts dark shadows on the entire country, but Kayo still tries to keep her cheerful determination, and sustain the family with her love. This is an emotional drama of a mother and an eternal message for peace.", "poster_path": "/nfug9hVy3P576zAW1xF9FmQkYwy.jpg", "release_date": "2008-01-26", "title": "Kabei: Our Mother", "video": false, "vote_average": 7.4, "vote_count": 18, "popularity": 2.76}, {"adult": false, "backdrop_path": "/mrJ9JFLviq89wmK5TAqySqhVAqK.jpg", "genre_ids": [18], "id": 468208, "original_language": "zh", "original_title": "\u5609\u5e74\u534e", "overview": "In a small seaside town, two schoolgirls are assaulted by a middle-aged man in a motel. Mia, a teenager who was working on reception that night, is the only witness. For fear of losing her job, she says nothing. Meanwhile, 12-year-old Wen, one of the victims, finds that her troubles have only just begun. Trapped in a world that offers them no safety, Mia and Wen will have to find their own way out.", "poster_path": "/kpATMFID3lzxoLUyqZa65634vet.jpg", "release_date": "2017-12-24", "title": "Angels Wear White", "video": false, "vote_average": 7.1, "vote_count": 20, "popularity": 3.222}], "total_pages": 1, "total_results": 8}, "credits": {"cast": [{"cast_id": 1, "character": "Makoto Tanaka", "credit_id": "59a857a3925141580801a7a6", "gender": 2, "id": 13275, "name": "Tadanobu Asano", "order": 1, "profile_path": "/sL0H5my3PAc208n3yu64TO3ug12.jpg"}, {"cast_id": 2, "character": "Nanae", "credit_id": "59a857aec3a368767100131a", "gender": 1, "id": 116783, "name": "Rena Tanaka", "order": 2, "profile_path": "/xLkgwUnTePrTMyBqhvQKkTWQEeX.jpg"}, {"cast_id": 3, "character": "Yuka", "credit_id": "59a857bc92514157a5019ff9", "gender": 1, "id": 83527, "name": "Shinobu Terajima", "order": 3, "profile_path": "/2U5CxbChu9GLwW80zNpyNKjSKT6.jpg"}, {"cast_id": 4, "character": "Sawada", "credit_id": "59a857e6c3a3683c4d019525", "gender": 2, "id": 87661, "name": "Kankuro Kudo", "order": 4, "profile_path": "/kxRBpwXecaJDStMshwgW4mok5q1.jpg"}, {"cast_id": 5, "character": "", "credit_id": "59a8582892514157ab019f1e", "gender": 0, "id": 1305065, "name": "Shingo Mizusawa", "order": 5, "profile_path": "/w0NrSb8CP6w8kBVVTNG4THlhiVm.jpg"}, {"cast_id": 6, "character": "", "credit_id": "59a8583592514157a501a05f", "gender": 2, "id": 1204781, "name": "Narushi Ikeda", "order": 6, "profile_path": "/rMjLVCZPyyNUSvL0RmkFJUvgBds.jpg"}], "crew": [{"credit_id": "59d0961b9251411433014d09", "department": "Writing", "gender": 0, "id": 134103, "job": "Novel", "name": "Kiyoshi Shigematsu", "profile_path": "/k0i9zzDy6tgVz3P0eF34jcrSG5j.jpg"}, {"credit_id": "59d094ba925141141e0152b0", "department": "Writing", "gender": 2, "id": 1061130, "job": "Screenplay", "name": "Haruhiko Arai", "profile_path": "/7usRZzWtCYk46yEv2oNUkiaQLlb.jpg"}, {"credit_id": "5b0811220e0a267b6900625d", "department": "Directing", "gender": 1, "id": 1102622, "job": "Director", "name": "Yukiko Mishima", "profile_path": "/2CocGN5iiwJ2yu9vjvAXNodyovT.jpg"}, {"credit_id": "59d0953c925141141e015370", "department": "Art", "gender": 0, "id": 1178999, "job": "Art Direction", "name": "Shinpei Inoue", "profile_path": null}, {"credit_id": "59d0955292514113eb01431a", "department": "Sound", "gender": 0, "id": 1296507, "job": "Sound Recordist", "name": "Tomoharu Urata", "profile_path": null}, {"credit_id": "59d094dc92514113ef014b8d", "department": "Sound", "gender": 0, "id": 1776931, "job": "Music", "name": "Takuto Tanaka", "profile_path": null}, {"credit_id": "5c7e4c7ec3a3684e95d1742f", "department": "Camera", "gender": 0, "id": 1782247, "job": "Director of Photography", "name": "Ry\u00f4 Ohtsuka", "profile_path": null}, {"credit_id": "59d09524c3a368786c014366", "department": "Lighting", "gender": 0, "id": 1782249, "job": "Lighting Director", "name": "Kenjir\u00f4 S\u00f4", "profile_path": null}, {"credit_id": "5cfe873f9251410c95b95c28", "department": "Production", "gender": 0, "id": 2334400, "job": "Producer", "name": "Akira Morishige", "profile_path": null}]}}