{"adult": false, "backdrop_path": null, "belongs_to_collection": null, "budget": 0, "genres": [{"id": 99, "name": "Documentary"}], "homepage": "http://www.pbs.org/program/secrets-henry-viiis-palace/", "id": 473528, "imdb_id": "tt6959560", "original_language": "en", "original_title": "Secrets of Henry VIII's Palace: Hampton Court", "overview": "The history of this grand 500-year-old palace is inextricably tied to the lavish lifestyle of King Henry VIII and the doomed fates of his six wives.", "popularity": 1.364, "poster_path": "/vuwCwvb1XMHk6ug5nN3hJcM1SEC.jpg", "production_companies": [], "production_countries": [], "release_date": "2013-06-30", "revenue": 0, "runtime": 60, "spoken_languages": [{"iso_639_1": "en", "name": "English"}], "status": "Released", "tagline": "", "title": "Secrets of Henry VIII's Palace: Hampton Court", "video": false, "vote_average": 7.1, "vote_count": 7, "keywords": {"keywords": [{"id": 392, "name": "england"}, {"id": 190285, "name": "henry viii"}]}, "similar": {"page": 1, "results": [{"id": 657, "video": false, "vote_count": 1493, "vote_average": 7.1, "title": "From Russia with Love", "release_date": "1963-10-11", "original_language": "en", "original_title": "From Russia with Love", "genre_ids": [28, 12, 53], "backdrop_path": "/vemDErY5wkg2Yg5eTQ7ciPRuyqt.jpg", "adult": false, "overview": "Agent 007 is back in the second installment of the James Bond series, this time battling a secret crime organization known as SPECTRE. Russians Rosa Klebb and Kronsteen are out to snatch a decoding device known as the Lektor, using the ravishing Tatiana to lure Bond into helping them. Bond willingly travels to meet Tatiana in Istanbul, where he must rely on his wits to escape with his life in a series of deadly encounters with the enemy", "poster_path": "/fvIG285JwenrV1K6kVASi1TECJ0.jpg", "popularity": 20.662}, {"id": 708, "video": false, "vote_count": 845, "vote_average": 6.4, "title": "The Living Daylights", "release_date": "1987-06-29", "original_language": "en", "original_title": "The Living Daylights", "genre_ids": [28, 12, 53], "backdrop_path": "/gt0TafbcheJeT9SFewDLqYWk3Sd.jpg", "adult": false, "overview": "James Bond helps a Russian General escape into the west. He soon finds out that the KGB wants to kill him for helping the General. A little while later the General is kidnapped from the Secret Service leading 007 to be suspicious.", "poster_path": "/yEryMe58dx7zm1QBhQFeuYcv2aH.jpg", "popularity": 17.272}, {"adult": false, "backdrop_path": "/lHZ5H1jd4zVJYr1wfLKBdXYtZ17.jpg", "genre_ids": [12, 28, 53], "id": 714, "original_language": "en", "original_title": "Tomorrow Never Dies", "overview": "A deranged media mogul is staging international incidents to pit the world\u2019s superpowers against each other. Now 007 must take on this evil mastermind in an adrenaline-charged battle to end his reign of terror and prevent global pandemonium.", "poster_path": "/k3eI9q7ISgpDEu2CMwR2s6inJVp.jpg", "release_date": "1997-12-11", "title": "Tomorrow Never Dies", "video": false, "vote_average": 6.2, "vote_count": 1728, "popularity": 28.522}, {"adult": false, "backdrop_path": "/9QcYwm5af4JaUSOyuysVEYOyEXn.jpg", "genre_ids": [12, 28, 53], "id": 646, "original_language": "en", "original_title": "Dr. No", "overview": "In the film that launched the James Bond saga, Agent 007 battles mysterious Dr. No, a scientific genius bent on destroying the U.S. space program. As the countdown to disaster begins, Bond must go to Jamaica, where he encounters beautiful Honey Ryder, to confront a megalomaniacal villain in his massive island headquarters.", "poster_path": "/gRdfLVVf6FheOw6mw6wOsKhZG1l.jpg", "release_date": "1962-10-04", "title": "Dr. No", "video": false, "vote_average": 7.0, "vote_count": 1837, "popularity": 31.291}, {"id": 667, "video": false, "vote_count": 1033, "vote_average": 6.6, "title": "You Only Live Twice", "release_date": "1967-06-12", "original_language": "en", "original_title": "You Only Live Twice", "genre_ids": [28, 12, 53], "backdrop_path": "/jahBdYTAGMJaEove9l9hzYpDKJD.jpg", "adult": false, "overview": "A mysterious spacecraft captures Russian and American space capsules and brings the two superpowers to the brink of war. James Bond investigates the case in Japan and comes face to face with his archenemy Blofeld.", "poster_path": "/7dnsJZniZK1Hbc9mOFDYa5W0dHi.jpg", "popularity": 26.38}, {"adult": false, "backdrop_path": "/1N4CeQyy3kh1pqmTGvMU090sCvh.jpg", "genre_ids": [12, 28, 53], "id": 253, "original_language": "en", "original_title": "Live and Let Die", "overview": "James Bond must investigate a mysterious murder case of a British agent in New Orleans. Soon he finds himself up against a gangster boss named Mr. Big.", "poster_path": "/p34OScaro2KdISrT4EMfeh1aS0E.jpg", "release_date": "1973-07-05", "title": "Live and Let Die", "video": false, "vote_average": 6.5, "vote_count": 992, "popularity": 18.177}, {"id": 699, "video": false, "vote_count": 908, "vote_average": 6.5, "title": "For Your Eyes Only", "release_date": "1981-06-23", "original_language": "en", "original_title": "For Your Eyes Only", "genre_ids": [28, 12, 53], "backdrop_path": "/hg8ecg8LrR8ChvZh4aMETNUraGA.jpg", "adult": false, "overview": "A British spy ship has sunk and on board was a hi-tech encryption device. James Bond is sent to find the device that holds British launching instructions before the enemy Soviets get to it first.", "poster_path": "/vpZZZ2eq8z4I6PSeGxR2UWNciGG.jpg", "popularity": 18.605}, {"id": 691, "video": false, "vote_count": 939, "vote_average": 6.7, "title": "The Spy Who Loved Me", "release_date": "1977-07-07", "original_language": "en", "original_title": "The Spy Who Loved Me", "genre_ids": [28, 12, 53], "backdrop_path": "/2tCAEhE2rPONBmUOs4W73AlBWYg.jpg", "adult": false, "overview": "Russian and British submarines with nuclear missiles on board both vanish from sight without a trace. England and Russia both blame each other as James Bond tries to solve the riddle of the disappearing ships. But the KGB also has an agent on the case.", "poster_path": "/vYMgDqQDpqHDhz3enGkwBmTs7p7.jpg", "popularity": 16.084}, {"id": 658, "video": false, "vote_count": 1914, "vote_average": 7.4, "title": "Goldfinger", "release_date": "1964-09-17", "original_language": "en", "original_title": "Goldfinger", "genre_ids": [28, 12, 53], "backdrop_path": "/iyD72nJFBGbEIrpQjzdhE3wFxPL.jpg", "adult": false, "overview": "Special agent 007 comes face to face with one of the most notorious villains of all time, and now he must outwit and outgun the powerful tycoon to prevent him from cashing in on a devious scheme to raid Fort Knox -- and obliterate the world's economy.", "poster_path": "/vBNbFU3OS6okJIQBOos1aZXpy2Z.jpg", "popularity": 32.142}, {"adult": false, "backdrop_path": "/913sS08HhcTQTwz7X567iR6DLHn.jpg", "genre_ids": [12, 28, 53], "id": 682, "original_language": "en", "original_title": "The Man with the Golden Gun", "overview": "A golden bullet has 007 engraved on it as it smashes into the secret service headquarters. The bullet came from the professional killer Scaramanga who has yet to miss a target and James Bond begins a mission to try and stop him.", "poster_path": "/7VSVgxAvA7IdTf8T6Oon1eaReeJ.jpg", "release_date": "1974-12-01", "title": "The Man with the Golden Gun", "video": false, "vote_average": 6.5, "vote_count": 996, "popularity": 17.905}, {"id": 146216, "video": false, "vote_count": 2566, "vote_average": 6.5, "title": "RED 2", "release_date": "2013-07-18", "original_language": "en", "original_title": "RED 2", "genre_ids": [28, 35, 80, 53], "backdrop_path": "/iOkkgY4byK8MBoF3Mexybu22J1I.jpg", "adult": false, "overview": "Retired C.I.A. agent Frank Moses reunites his unlikely team of elite operatives for a global quest to track down a missing portable nuclear device.", "poster_path": "/dvWITvEzlq8IaUbxUuBVKvXqfo6.jpg", "popularity": 23.213}, {"adult": false, "backdrop_path": "/slpgZisYNapLoN9FWXqDOC1ExbU.jpg", "genre_ids": [27, 9648, 53], "id": 259693, "original_language": "en", "original_title": "The Conjuring 2", "overview": "Lorraine and Ed Warren travel to north London to help a single mother raising four children alone in a house plagued by malicious spirits.", "poster_path": "/7GUzvvrb6hbOWl8l8YkaS4fgTDT.jpg", "release_date": "2016-05-13", "title": "The Conjuring 2", "video": false, "vote_average": 7.2, "vote_count": 4651, "popularity": 26.258}, {"adult": false, "backdrop_path": "/npClMhFGn4XUkwu6coq5oKAEu6L.jpg", "genre_ids": [35, 10749, 18], "id": 634, "original_language": "en", "original_title": "Bridget Jones's Diary", "overview": "A chaotic Bridget Jones meets a snobbish lawyer, and he soon enters her world of imperfections.", "poster_path": "/ym6kjFFZg6boC0QHBVw6hqJLbxv.jpg", "release_date": "2001-04-13", "title": "Bridget Jones's Diary", "video": false, "vote_average": 6.7, "vote_count": 3080, "popularity": 19.453}, {"id": 267935, "video": false, "vote_count": 2110, "vote_average": 6.2, "title": "The BFG", "release_date": "2016-06-01", "original_language": "en", "original_title": "The BFG", "genre_ids": [12, 14, 10751], "backdrop_path": "/eYT9XQBo1eC4DwPYqhCol0dFFc2.jpg", "adult": false, "overview": "The BFG is no ordinary bone-crunching giant. He is far too nice and jumbly. It's lucky for Sophie that he is. Had she been carried off in the middle of the night by the Bloodbottler, or any of the other giants\u2014rather than the BFG\u2014she would have soon become breakfast. When Sophie hears that the giants are flush-bunking off to England to swollomp a few nice little chiddlers, she decides she must stop them once and for all. And the BFG is going to help her!", "poster_path": "/xMvzfhXZdfeLBZZUIQRB4vw1EtA.jpg", "popularity": 15.457}, {"adult": false, "backdrop_path": "/9SudvdR6HYtgTqMz17RYXdWuTUl.jpg", "genre_ids": [12, 28, 53], "id": 707, "original_language": "en", "original_title": "A View to a Kill", "overview": "A newly developed microchip designed by Zorin Industries for the British Government that can survive the electromagnetic radiation caused by a nuclear explosion has landed in the hands of the KGB. James Bond must find out how and why. His suspicions soon lead him to big industry leader Max Zorin.", "poster_path": "/veDMW7eX6tat86EapsvGEICJ8Tq.jpg", "release_date": "1985-05-24", "title": "A View to a Kill", "video": false, "vote_average": 6.2, "vote_count": 957, "popularity": 24.223}, {"id": 668, "video": false, "vote_count": 896, "vote_average": 6.5, "title": "On Her Majesty's Secret Service", "release_date": "1969-12-12", "original_language": "en", "original_title": "On Her Majesty's Secret Service", "genre_ids": [28, 12, 53], "backdrop_path": "/o71ywQSmQ1hNPSLKJuCMyDTrL7K.jpg", "adult": false, "overview": "James Bond tracks his archnemesis, Ernst Blofeld, to a mountaintop retreat where he is training an army of beautiful, lethal women. Along the way, Bond falls for Italian contessa Tracy Draco, and marries her in order to get closer to Blofeld.", "poster_path": "/7mcqT56ES5U3wg26vQQuEnOaFSj.jpg", "popularity": 19.01}, {"id": 874, "video": false, "vote_count": 195, "vote_average": 7.6, "title": "A Man for All Seasons", "release_date": "1966-12-12", "original_language": "en", "original_title": "A Man for All Seasons", "genre_ids": [18, 36], "backdrop_path": "/6GizkVdEzsKPcI3LAgZpDXqgEgw.jpg", "adult": false, "overview": "A depiction of the conflict between King Henry VIII of England and his Lord Chancellor, Sir Thomas More, who refuses to swear the Oath of Supremacy declaring Henry Supreme Head of the Church in England.", "poster_path": "/mLFfDCdSH6wetMIIbG08hg51PbD.jpg", "popularity": 9.564}, {"adult": false, "backdrop_path": "/mYKP6qcDUimVMAHQWLOuDHjO19S.jpg", "genre_ids": [35], "id": 445629, "original_language": "en", "original_title": "Fighting with My Family", "overview": "Born into a tight-knit wrestling family, Paige and her brother Zak are ecstatic when they get the once-in-a-lifetime opportunity to try out for the WWE. But when only Paige earns a spot in the competitive training program, she must leave her loved ones behind and face this new cutthroat world alone. Paige's journey pushes her to dig deep and ultimately prove to the world that what makes her different is the very thing that can make her a star.", "poster_path": "/cVhe15rJLRjolunSWLBN6xQLyGU.jpg", "release_date": "2019-02-14", "title": "Fighting with My Family", "video": false, "vote_average": 6.7, "vote_count": 643, "popularity": 18.498}, {"id": 2268, "video": false, "vote_count": 2953, "vote_average": 6.0, "title": "The Golden Compass", "release_date": "2007-12-04", "original_language": "en", "original_title": "The Golden Compass", "genre_ids": [12, 14], "backdrop_path": "/qUDa6F6qDp6zcQcw3yuR6Ysc77d.jpg", "adult": false, "overview": "After overhearing a shocking secret, precocious orphan Lyra Belacqua trades her carefree existence roaming the halls of Jordan College for an otherworldly adventure in the far North, unaware that it's part of her destiny.", "poster_path": "/97dPFOvgUb5Q8LjRNt8u6lbJSfp.jpg", "popularity": 19.047}, {"id": 521, "video": false, "vote_count": 1257, "vote_average": 8.0, "title": "Dial M for Murder", "release_date": "1954-05-29", "original_language": "en", "original_title": "Dial M for Murder", "genre_ids": [80, 18, 9648, 53], "backdrop_path": "/jVMlfESb0TJ29w8CUDDofEprMmn.jpg", "adult": false, "overview": "An ex-tennis pro carries out a plot to have his wife murdered after discovering she is having an affair, and assumes she will soon leave him for the other man anyway. When things go wrong, he improvises a new plan\u2014to frame her for murder instead.", "poster_path": "/xrpK1PyckNWmRxU4kZURfaCyboS.jpg", "popularity": 28.336}], "total_pages": 46, "total_results": 907}, "recommendations": {"page": 1, "results": [{"adult": false, "backdrop_path": null, "genre_ids": [99], "id": 473526, "original_language": "en", "original_title": "Secrets of Chatsworth", "overview": "Survey the 500-year history of Chatsworth and learn about its American connections.", "poster_path": "/lNRlkc7GA6kZWRmjCTLCq0Zoi5k.jpg", "release_date": "2013-01-01", "title": "Secrets of Chatsworth", "video": false, "vote_average": 8.0, "vote_count": 4, "popularity": 1.4}], "total_pages": 1, "total_results": 1}, "credits": {"cast": [{"cast_id": 1, "character": "Narrator (voice)", "credit_id": "59b9d12d9251413aec002ba6", "gender": 2, "id": 54447, "name": "Samuel West", "order": 1, "profile_path": "/yIDXDpgXxPbl5qWu8KHV7fGzVNr.jpg"}], "crew": [{"credit_id": "59a96862925141579d02d7e8", "department": "Directing", "gender": 0, "id": 1735737, "job": "Director", "name": "Sam Taplin", "profile_path": null}]}}