{"adult": false, "backdrop_path": "/hJmUr4Jkb8v8Fq5rsUWpStJ3vYd.jpg", "belongs_to_collection": null, "budget": 0, "genres": [{"id": 18, "name": "Drama"}, {"id": 36, "name": "History"}, {"id": 10752, "name": "War"}], "homepage": "", "id": 47370, "imdb_id": "tt0062041", "original_language": "ja", "original_title": "\u65e5\u672c\u306e\u3044\u3061\u3070\u3093\u9577\u3044\u65e5", "overview": "Following the detonation of the atomic bombs on Hiroshima and Nagasaki, the Japanese military and the government clash over the demand from the Allies for unconditional surrender. Minister of the Army Anami leads the military officers who propose to fight on, even to the death of every Japanese citizen. Emperor Hirohito, however, joins with his ministers in asking the unthinkable, the peaceful surrender of Japan. When the military plots a coup to overthrow the Emperor's civilian government, Anami must face the choice between his desires and loyalty to his Emperor.", "popularity": 2.585, "poster_path": "/snXEH31aJY0B2C8NvoRJVwQgoxW.jpg", "production_companies": [{"id": 882, "logo_path": "/fRSWWjquvzcHjACbtF53utZFIll.png", "name": "Toho Company, Ltd.", "origin_country": "JP"}], "production_countries": [{"iso_3166_1": "JP", "name": "Japan"}], "release_date": "1967-08-12", "revenue": 0, "runtime": 157, "spoken_languages": [{"iso_639_1": "ja", "name": "\u65e5\u672c\u8a9e"}], "status": "Released", "tagline": "", "title": "Japan's Longest Day", "video": false, "vote_average": 6.8, "vote_count": 9, "keywords": {"keywords": [{"id": 233, "name": "japan"}, {"id": 1956, "name": "world war ii"}, {"id": 170007, "name": "japanese army"}, {"id": 170009, "name": "japanese soldier"}, {"id": 170013, "name": "japanese surrender"}]}, "similar": {"page": 1, "results": [{"adult": false, "backdrop_path": "/qtD2lFLG5T7L8flbKSEIoSqcslI.jpg", "genre_ids": [18, 10752], "id": 7862, "original_language": "de", "original_title": "Die F\u00e4lscher", "overview": "The story Jewish counterfeiter, Salomon Sorowitsch, coerced into assisting the Nazi operation of the Sachsenhausen concentration camp during World War II.", "poster_path": "/bRQddrgVemZtFdnrPy9AxTpkhpj.jpg", "release_date": "2007-02-09", "title": "The Counterfeiters", "video": false, "vote_average": 7.4, "vote_count": 261, "popularity": 8.902}, {"adult": false, "backdrop_path": "/pKawqrtCBMmxarft7o1LbEynys7.jpg", "genre_ids": [10752, 18, 28], "id": 228150, "original_language": "en", "original_title": "Fury", "overview": "In the last months of World War II, as the Allies make their final push in the European theatre, a battle-hardened U.S. Army sergeant named 'Wardaddy' commands a Sherman tank called 'Fury' and its five-man crew on a deadly mission behind enemy lines. Outnumbered and outgunned, Wardaddy and his men face overwhelming odds in their heroic attempts to strike at the heart of Nazi Germany.", "poster_path": "/fa4PxEPRKWRyjzYje1jM4m30qzd.jpg", "release_date": "2014-10-15", "title": "Fury", "video": false, "vote_average": 7.4, "vote_count": 7301, "popularity": 56.882}, {"id": 424, "video": false, "vote_count": 8985, "vote_average": 8.6, "title": "Schindler's List", "release_date": "1993-11-30", "original_language": "en", "original_title": "Schindler's List", "genre_ids": [18, 36, 10752], "backdrop_path": "/cTNYRUTXkBgPH3wP3kmPUB5U6dA.jpg", "adult": false, "overview": "The true story of how businessman Oskar Schindler saved over a thousand Jewish lives from the Nazis while they worked as slaves in his factory during World War II.", "poster_path": "/yPisjyLweCl1tbgwgtzBCNCBle.jpg", "popularity": 31.046}, {"id": 293982, "video": false, "vote_count": 119, "vote_average": 6.9, "title": "Warsaw 44", "release_date": "2014-07-30", "original_language": "pl", "original_title": "Miasto 44", "genre_ids": [18, 36, 10749, 10752], "backdrop_path": "/wv4kNz9aJPO200vndn5Paczh12K.jpg", "adult": false, "overview": "City of Warsaw, Poland, August 1, 1944. Citizens have experienced inhuman acts of terror and violence during five long years of Nazi occupation. As the Soviet Army relentlessly approaches, the youngest and bravest among them rise up as one and face tyranny fighting street by street, but the price to pay will be high and hard the way to freedom.", "poster_path": "/k9WOOkVur2Gwo93wuiKzJDm2mUK.jpg", "popularity": 7.952}, {"id": 11046, "video": false, "vote_count": 433, "vote_average": 7.6, "title": "Where Eagles Dare", "release_date": "1968-12-04", "original_language": "en", "original_title": "Where Eagles Dare", "genre_ids": [28, 12, 18, 36, 10752], "backdrop_path": "/aAFq5jVHV6RZpLcRXATskNBuEbM.jpg", "adult": false, "overview": "World War II is raging, and an American general has been captured and is being held hostage in the Schloss Adler, a Bavarian castle that's nearly impossible to breach. It's up to a group of skilled Allied soldiers to liberate the general before it's too late.", "poster_path": "/991u0tSWGTVXCYkgC6ftaGE4bkQ.jpg", "popularity": 16.468}, {"id": 438799, "video": false, "vote_count": 1393, "vote_average": 6.6, "title": "Overlord", "release_date": "2018-11-01", "original_language": "en", "original_title": "Overlord", "genre_ids": [27, 878, 10752], "backdrop_path": "/sHNC8hjAu4ZKXYhG3cp8ghRZ02B.jpg", "adult": false, "overview": "France, June 1944. On the eve of D-Day, some American paratroopers fall behind enemy lines after their aircraft crashes while on a mission to destroy a radio tower in a small village near the beaches of Normandy. After reaching their target, the surviving paratroopers realise that, in addition to fighting the Nazi troops that patrol the village, they also must fight against something else.", "poster_path": "/l76Rgp32z2UxjULApxGXAPpYdAP.jpg", "popularity": 21.089}, {"id": 369885, "video": false, "vote_count": 3048, "vote_average": 6.7, "title": "Allied", "release_date": "2016-11-17", "original_language": "en", "original_title": "Allied", "genre_ids": [28, 18, 53, 10749, 10752], "backdrop_path": "/tC0tVH5KQhCwMlddnyA3iWOSuBA.jpg", "adult": false, "overview": "In 1942, an intelligence officer in North Africa encounters a female French Resistance fighter on a deadly mission behind enemy lines. When they reunite in London, their relationship is tested by the pressures of war.", "poster_path": "/nzXzLFTnd0Zb3ExfhOxlQgizgSu.jpg", "popularity": 32.359}, {"id": 637, "video": false, "vote_count": 8080, "vote_average": 8.5, "title": "Life Is Beautiful", "release_date": "1997-12-20", "original_language": "it", "original_title": "La vita \u00e8 bella", "genre_ids": [35, 18], "backdrop_path": "/bORe0eI72D874TMawOOFvqWS6Xe.jpg", "adult": false, "overview": "A touching story of an Italian book seller of Jewish ancestry who lives in his own little fairy tale. His creative and happy life would come to an abrupt halt when his entire family is deported to a concentration camp during World War II. While locked up he tries to convince his son that the whole thing is just a game.", "poster_path": "/f7DImXDebOs148U4uPjI61iDvaK.jpg", "popularity": 33.768}, {"id": 11422, "video": false, "vote_count": 132, "vote_average": 6.5, "title": "Midway", "release_date": "1976-06-18", "original_language": "en", "original_title": "Midway", "genre_ids": [28, 18, 36, 10752], "backdrop_path": "/6jeTEV03QLsjkEomKM6XhjoVJch.jpg", "adult": false, "overview": "This war drama depicts the U.S. and Japanese forces in the naval Battle of Midway, which became a turning point for Americans during World War II.", "poster_path": "/dCUVG2po7DsBvnxfe7WGcJsUn9T.jpg", "popularity": 19.326}, {"id": 522162, "video": false, "vote_count": 206, "vote_average": 6.7, "title": "Midway", "release_date": "2019-11-06", "original_language": "en", "original_title": "Midway", "genre_ids": [28, 18, 36, 10752], "backdrop_path": "/xjP88DFPCQ81mbZHXFscyYtGskT.jpg", "adult": false, "overview": "MIDWAY centers on the Battle of Midway, a clash between the American fleet and the Imperial Japanese Navy which marked a pivotal turning point in the Pacific Theater during WWII. The film, based on the real-life events of this heroic feat, tells the story of the leaders and soldiers who used their instincts, fortitude and bravery to overcome the odds.", "poster_path": "/hj8pyoNnynGeJTAbl7jcLZO8Uhx.jpg", "popularity": 61.847}, {"id": 423, "video": false, "vote_count": 4648, "vote_average": 8.3, "title": "The Pianist", "release_date": "2002-09-17", "original_language": "en", "original_title": "The Pianist", "genre_ids": [18, 10752], "backdrop_path": "/xUR95VFV1UTyzS1C8Lj06hi2n2M.jpg", "adult": false, "overview": "The true story of pianist W\u0142adys\u0142aw Szpilman's experiences in Warsaw during the Nazi occupation. When the Jews of the city find themselves forced into a ghetto, Szpilman finds work playing in a caf\u00e9; and when his family is deported in 1942, he stays behind, works for a while as a laborer, and eventually goes into hiding in the ruins of the war-torn city.", "poster_path": "/hfMeo073RxKKjZZV4gSGema1yog.jpg", "popularity": 26.63}, {"adult": false, "backdrop_path": "/ljZOlqLtMa6gnTHcYn9y9lP0bK3.jpg", "genre_ids": [53, 36, 18], "id": 528949, "original_language": "es", "original_title": "El fot\u00f3grafo de Mauthausen", "overview": "Spanish photographer Francesc Boix, imprisoned in the Mauthausen-Gusen concentration camp, works in the SS Photographic Service. Between 1943 and 1945, he hides, with the help of other prisoners, thousands of negatives, with the purpose of showing the freed world the atrocities committed by the Nazis, exhaustively documented. He will be a key witness during the Nuremberg Trials.", "poster_path": "/1GzwDodNHSQM7Wu8VIbvTmYXJQB.jpg", "release_date": "2018-10-26", "title": "The Photographer of Mauthausen", "video": false, "vote_average": 7.0, "vote_count": 262, "popularity": 12.706}, {"adult": false, "backdrop_path": "/jLnm1qrsZd2FiC016nOjsgiHsQ2.jpg", "genre_ids": [18, 36], "id": 9045, "original_language": "fr", "original_title": "Amen.", "overview": "Kurt Gerstein\u2014a member of the Institute for Hygiene of the Waffen-SS\u2014is horrified by what he sees in the death camps. he is then shocked to learn that the process he used to purify water for his troops by using Zyklon-B, is now used to kill people in gas chambers.", "poster_path": "/3uaiPsJgagOVWzRsDlH3TKdVHrw.jpg", "release_date": "2002-02-13", "title": "Amen.", "video": false, "vote_average": 7.0, "vote_count": 166, "popularity": 8.873}, {"adult": false, "backdrop_path": "/sn0HQZthLpYamYb8VSPbEAWT4kF.jpg", "genre_ids": [18, 36, 10752], "id": 8741, "original_language": "en", "original_title": "The Thin Red Line", "overview": "Based on the graphic novel by James Jones, The Thin Red Line tells the story of a group of men, an Army Rifle company called C-for-Charlie, who change, suffer, and ultimately make essential discoveries about themselves during the fierce World War II battle of Guadalcanal. It follows their journey, from the surprise of an unopposed landing, through the bloody and exhausting battles that follow, to the ultimate departure of those who survived. A powerful frontline cast - including Sean Penn, Nick Nolte, Woody Harrelson and George Clooney - explodes into action in this hauntingly realistic view of military and moral chaos in the Pacific during World War II.", "poster_path": "/g4ApW90svay7veAPgxU8OsNMEOB.jpg", "release_date": "1998-12-25", "title": "The Thin Red Line", "video": false, "vote_average": 7.4, "vote_count": 1576, "popularity": 17.624}, {"id": 14574, "video": false, "vote_count": 3970, "vote_average": 7.8, "title": "The Boy in the Striped Pyjamas", "release_date": "2008-05-07", "original_language": "en", "original_title": "The Boy in the Striped Pyjamas", "genre_ids": [18, 10752], "backdrop_path": "/tFyhGkJgV6M5zZAjS8SBVqOjzH4.jpg", "adult": false, "overview": "When his family moves from their home in Berlin to a strange new house in Poland, young Bruno befriends Shmuel, a boy who lives on the other side of the fence where everyone seems to be wearing striped pajamas. Unaware of Shmuel's fate as a Jewish prisoner or the role his own Nazi father plays in his imprisonment, Bruno embarks on a dangerous journey inside the camp's walls.", "poster_path": "/f40R9to84FGF7T5bp3KGB84Lklb.jpg", "popularity": 23.522}, {"adult": false, "backdrop_path": "/Zl6NIsHLunLAOS4sMoKQwSPDiI.jpg", "genre_ids": [10752, 18, 36], "id": 3683, "original_language": "en", "original_title": "Flags of Our Fathers", "overview": "There were five Marines and one Navy Corpsman photographed raising the U.S. flag on Mt. Suribachi by Joe Rosenthal on February 23, 1945. This is the story of three of the six surviving servicemen - John 'Doc' Bradley, Pvt. Rene Gagnon and Pvt. Ira Hayes - who fought in the battle to take Iwo Jima from the Japanese.", "poster_path": "/4tbKYa8vZSsTCHKca9D6rS4NJ08.jpg", "release_date": "2006-10-18", "title": "Flags of Our Fathers", "video": false, "vote_average": 6.8, "vote_count": 1005, "popularity": 13.69}, {"adult": false, "backdrop_path": "/hNn5koyqFmAXqOE8SzJBuhUmEZo.jpg", "genre_ids": [35, 10752], "id": 8290, "original_language": "fr", "original_title": "La Grande Vadrouille", "overview": "During World War II, two French civilians and a downed British Bomber Crew set out from Paris to cross the demarcation line between Nazi-occupied Northern France and the South. From there they will be able to escape to England. First, they must avoid German troops - and the consequences of their own blunders.", "poster_path": "/nMh6M8kraLZ7Uu4e8u7Vyb2qwg0.jpg", "release_date": "1966-12-07", "title": "Don't Look Now: We're Being Shot At", "video": false, "vote_average": 7.9, "vote_count": 691, "popularity": 19.026}, {"id": 2576, "video": false, "vote_count": 158, "vote_average": 7.2, "title": "The Diary of Anne Frank", "release_date": "1959-03-18", "original_language": "en", "original_title": "The Diary of Anne Frank", "genre_ids": [18, 36], "backdrop_path": "/x7yCQSWXSczdHUMKEMk5qyoUazO.jpg", "adult": false, "overview": "The true, harrowing story of a young Jewish girl who, with her family and their friends, is forced into hiding in an attic in Nazi-occupied Amsterdam.", "poster_path": "/i7kUdUAF9eTxQG7GdR6lKUK96En.jpg", "popularity": 12.484}, {"adult": false, "backdrop_path": "/iMiKWZFILSbzwFWdp30mS1HciT7.jpg", "genre_ids": [28, 18, 10752], "id": 1251, "original_language": "en", "original_title": "Letters from Iwo Jima", "overview": "The story of the battle of Iwo Jima between the United States and Imperial Japan during World War II, as told from the perspective of the Japanese who fought it.", "poster_path": "/nWJJqOryTQOmVXvKUkLcEETUHgT.jpg", "release_date": "2006-12-19", "title": "Letters from Iwo Jima", "video": false, "vote_average": 7.5, "vote_count": 1075, "popularity": 14.06}, {"adult": false, "backdrop_path": "/7QDnuj2T6CCY5wOSnKfYH7cIb6M.jpg", "genre_ids": [18, 35, 10752], "id": 8056, "original_language": "fr", "original_title": "Train de vie", "overview": "In 1941, the inhabitants of a small Jewish village in Central Europe organize a fake deportation train so that they can escape the Nazis and flee to Palestine.", "poster_path": "/anUwgyVrC7kUwN5OliazbC5qBfr.jpg", "release_date": "1998-09-16", "title": "Train of Life", "video": false, "vote_average": 7.5, "vote_count": 150, "popularity": 7.757}], "total_pages": 134, "total_results": 2678}, "recommendations": {"page": 1, "results": [{"adult": false, "backdrop_path": null, "genre_ids": [10752, 18, 36], "id": 34561, "original_language": "zh", "original_title": "\u7d2b\u8774\u8776", "overview": "Ding Hui is a member of Purple Butterfly, a powerful resistance group in Japanese occupied Shanghai. An unexpected encounter reunites her with Itami, an ex-lover... and officer with a secret police unit tasked with dismantling Purple Butterfly.", "poster_path": "/z83njmGdOXfOcWtDj5MHqs6sIOb.jpg", "release_date": "2003-05-22", "title": "Purple Butterfly", "video": false, "vote_average": 6.6, "vote_count": 5, "popularity": 7.896}], "total_pages": 1, "total_results": 1}, "credits": {"cast": [{"cast_id": 4, "character": "Foreign Minister Shigenori Togo", "credit_id": "52fe4730c3a36847f8127f11", "gender": 2, "id": 20829, "name": "Seiji Miyaguchi", "order": 0, "profile_path": "/8hXo6Bm3aHHkZp45uf7LbUSoJ8x.jpg"}, {"cast_id": 5, "character": "Vice Minister of Foreign Affairs Shunichi Matsumato", "credit_id": "52fe4730c3a36847f8127f15", "gender": 2, "id": 138748, "name": "Rokk\u014d Toura", "order": 1, "profile_path": "/7PvnNjSACsz1lV2AoFoZO0wYfT4.jpg"}, {"cast_id": 9, "character": "Minister of Public Welfare Keisuke Okade", "credit_id": "52fe4730c3a36847f8127f19", "gender": 0, "id": 134272, "name": "Yoshio Kosugi", "order": 2, "profile_path": "/pZrCexgS1ewpgjsEhXijZ2mmuSF.jpg"}, {"cast_id": 10, "character": "Information Bureau Director Hiroshi Shimomura", "credit_id": "52fe4730c3a36847f8127f1d", "gender": 2, "id": 7453, "name": "Takashi Shimura", "order": 3, "profile_path": "/k8Ff4Nq2peKfiUpd8IILrSBM0ts.jpg"}, {"cast_id": 11, "character": "Lt. Colonel Masutaka Ida", "credit_id": "52fe4730c3a36847f8127f21", "gender": 2, "id": 81279, "name": "Etsushi Takahashi", "order": 4, "profile_path": "/yO7N57DG2VzdQn8IR6lMLgvYXeL.jpg"}, {"cast_id": 12, "character": "Lt. Colonel Masahiko Takeshita", "credit_id": "52fe4730c3a36847f8127f25", "gender": 0, "id": 138752, "name": "Takao Inoue", "order": 5, "profile_path": null}, {"cast_id": 13, "character": "Lt. Colonel Jiro Shiizaki", "credit_id": "52fe4730c3a36847f8127f29", "gender": 2, "id": 87544, "name": "Tadao Nakamaru", "order": 6, "profile_path": "/heU4o9jcpHDG67gHe7VSRqUGal5.jpg"}, {"cast_id": 14, "character": "General Yoshijiro Umezu - Chief of the Army General Staff", "credit_id": "52fe4730c3a36847f8127f2d", "gender": 0, "id": 138753, "name": "Hikaru Kitchoji", "order": 7, "profile_path": null}, {"cast_id": 15, "character": "Admiral Soemu Toyoda - Chief of the Navy General Staff", "credit_id": "52fe4730c3a36847f8127f31", "gender": 0, "id": 138754, "name": "Haruo Yamada", "order": 8, "profile_path": null}, {"cast_id": 16, "character": "Navy Minister Admiral Mitsumasa Yonai", "credit_id": "52fe4730c3a36847f8127f35", "gender": 2, "id": 68411, "name": "S\u00f4 Yamamura", "order": 9, "profile_path": "/rdnPm1VDk0Q0EfTCFRU3N0YniK5.jpg"}, {"cast_id": 17, "character": "War Minister General Korechika Anami", "credit_id": "52fe4730c3a36847f8127f39", "gender": 2, "id": 7450, "name": "Toshir\u014d Mifune", "order": 10, "profile_path": "/32nCFJneAfmZxYTQsaF5bcmCB7e.jpg"}, {"cast_id": 18, "character": "Prime Minister Baron Kantaro Suzuki", "credit_id": "52fe4730c3a36847f8127f3d", "gender": 2, "id": 33135, "name": "Chish\u016b Ry\u016b", "order": 11, "profile_path": "/ocEzSylcvsKIKw8LciHEA3E1LEG.jpg"}, {"cast_id": 19, "character": "Captain Takeo Sasaki", "credit_id": "54b4ab839251415321000b92", "gender": 2, "id": 227622, "name": "Hideyo Amamoto", "order": 12, "profile_path": "/gdvkD83TwnFLChPzQzOiZd0cc66.jpg"}, {"cast_id": 20, "character": "Commander Sugahara - 302nd Air Group", "credit_id": "54b4abcbc3a368094e008782", "gender": 2, "id": 30568, "name": "Akihiko Hirata", "order": 13, "profile_path": "/hfJ3M03wlP0lhXpPRejONiKXfg0.jpg"}, {"cast_id": 21, "character": "Colonel Toyojiro Haga - CO Imperial Guards 2nd Infantry Regiment", "credit_id": "54b4ac2292514174720080fd", "gender": 2, "id": 30907, "name": "Susumu Fujita", "order": 14, "profile_path": "/eVlXPPjlHAzFBKxgPKML1Uciahx.jpg"}, {"cast_id": 22, "character": "Staff Kamino", "credit_id": "55a31754c3a3681ce70044a1", "gender": 2, "id": 1482691, "name": "Y\u00fb Sekita", "order": 15, "profile_path": null}], "crew": [{"credit_id": "52fe4730c3a36847f8127f0d", "department": "Writing", "gender": 2, "id": 7449, "job": "Screenplay", "name": "Shinobu Hashimoto", "profile_path": "/dWh7KDlI0ELdfIZ413g2KhSzJKR.jpg"}, {"credit_id": "52fe4730c3a36847f8127f01", "department": "Directing", "gender": 2, "id": 85309, "job": "Director", "name": "Kihachi Okamoto", "profile_path": "/gJmUTQxOTYHD0vu5r15kKkjTQGP.jpg"}, {"credit_id": "52fe4730c3a36847f8127f07", "department": "Writing", "gender": 0, "id": 138747, "job": "Novel", "name": "Soichi Oya", "profile_path": null}]}}