{"adult": false, "backdrop_path": "/trbgJ5faGwLJNtozGZvSm8tsYMo.jpg", "belongs_to_collection": null, "budget": 0, "genres": [{"id": 28, "name": "Action"}, {"id": 12, "name": "Adventure"}], "homepage": "", "id": 47561, "imdb_id": "tt0079153", "original_language": "en", "original_title": "Firepower", "overview": "A mercenary is hired by the FBI to track down a powerful recluse criminal, a woman is also trying to track him down for her own personal vendetta.", "popularity": 2.96, "poster_path": "/9ykGoekx1Ce4zhl70ScuDiyiqIz.jpg", "production_companies": [{"id": 76194, "logo_path": null, "name": "ITC Films", "origin_country": ""}], "production_countries": [{"iso_3166_1": "GB", "name": "United Kingdom"}], "release_date": "1979-04-27", "revenue": 0, "runtime": 104, "spoken_languages": [{"iso_639_1": "en", "name": "English"}], "status": "Released", "tagline": "", "title": "Firepower", "video": false, "vote_average": 5.6, "vote_count": 5, "keywords": {"keywords": [{"id": 5135, "name": "jeep"}, {"id": 163474, "name": "bulldozer"}, {"id": 223335, "name": "seaplane"}]}, "similar": {"page": 1, "results": [{"id": 919, "video": false, "vote_count": 140, "vote_average": 6.5, "title": "Blood: The Last Vampire", "release_date": "2000-11-18", "original_language": "en", "original_title": "Blood: The Last Vampire", "genre_ids": [16, 35, 14, 27, 878, 53], "backdrop_path": "/txiztKRpPqtPPa3hMTPs16t6x4u.jpg", "adult": false, "overview": "In Japan, the vampire-hunter Saya, who is a powerful original, is sent by her liaison with the government, David, posed as a teenage student to the Yokota High School on the eve of Halloween to hunt down vampires. Saya asks David to give a new katana to her. Soon she saves the school nurse Makiho Amano from two vampires disguised of classmates and Makiho witnesses her fight against the powerful demon.", "poster_path": "/3ySU3xS4g9KeJNCNDbVniOs3KmG.jpg", "popularity": 10.918}, {"adult": false, "backdrop_path": "/f2Vyj75EU1Cbdh0homXignBcdYG.jpg", "genre_ids": [35, 10749], "id": 10314, "original_language": "en", "original_title": "She's All That", "overview": "High school hotshot Zach Siler is the envy of his peers. But his popularity declines sharply when his cheerleader girlfriend, Taylor, leaves him for sleazy reality-television star Brock Hudson. Desperate to revive his fading reputation, Siler agrees to a seemingly impossible challenge. He has six weeks to gain the trust of nerdy outcast Laney Boggs -- and help her to become the school's next prom queen.", "poster_path": "/2kWpjQ3O6DZywdIoPlvXCk3T91P.jpg", "release_date": "1999-01-29", "title": "She's All That", "video": false, "vote_average": 6.1, "vote_count": 1092, "popularity": 12.557}, {"adult": false, "backdrop_path": "/oEcPmNfadD1S773UFkFIoR5tZNS.jpg", "genre_ids": [35], "id": 14577, "original_language": "en", "original_title": "Dirty Work", "overview": "Unemployed and recently dumped, Mitch and his buddy Sam start a revenge-for-hire business to raise the $50,000 that Sam's father needs to get a heart transplant. The dirty duo brings down a movie theater manager and hires hookers to pose as dead bodies during a live TV ad. When a wealthy developer hires the guys to trash a building (so that he can have it condemned), problems arise and a feud ensues.", "poster_path": "/5sM32j8VhLMaPo27zFqbsEXhe7l.jpg", "release_date": "1998-06-12", "title": "Dirty Work", "video": false, "vote_average": 6.4, "vote_count": 125, "popularity": 9.029}, {"id": 5927, "video": false, "vote_count": 51, "vote_average": 6.4, "title": "Junior Bonner", "release_date": "1972-08-02", "original_language": "en", "original_title": "Junior Bonner", "genre_ids": [28, 18, 37], "backdrop_path": "/uz92heHju7mIyueLtylgMjpT9nh.jpg", "adult": false, "overview": "McQueen is Junior Bonner, an aging rodeo champ who returns to his home town to participate in the annual rodeo. He finds his family estranged, does what he can to help, and then moves on ... after some good rodeo riding and a few brawls.", "poster_path": "/mNkgSZKbYaO929HHHQHw8LDmDoz.jpg", "popularity": 5.08}, {"adult": false, "backdrop_path": "/egsrR27PVJgubMOsHIwplsNK7Sc.jpg", "genre_ids": [10402, 35], "id": 15278, "original_language": "en", "original_title": "CB4", "overview": "A \"rockumentary\", covering the rise to fame of MC Gusto, Stab Master Arson, and Dead Mike: members of the rap group \"CB4\". We soon learn that these three are not what they seem and don't apear to know as much about rap music as they claim... but a lack of musical ability in an artist never hurts sales, does it? You've just got to play the part of a rap star...", "poster_path": "/fdRQvWe6qbOqa5xQJYTAdA0tX28.jpg", "release_date": "1993-03-12", "title": "CB4", "video": false, "vote_average": 6.2, "vote_count": 66, "popularity": 9.831}, {"id": 86330, "video": false, "vote_count": 25, "vote_average": 4.0, "title": "Bates Motel", "release_date": "1987-07-05", "original_language": "en", "original_title": "Bates Motel", "genre_ids": [18, 27, 10770], "backdrop_path": "/yanuaKKT5yG40V3cgHBl1sEubQ8.jpg", "adult": false, "overview": "Alex West is a man who roomed with Norman Bates at the state lunatic asylum for nearly 20 years. After Bates' death, Alex finds that he is in Norman's will as the inheritor of the Bates Motel, which has been vacant since Norman's arrest. Alex travels to Bates' California hometown and with a little help from a teenage runaway, Willie, Alex struggles to re-open the motel for business, only to have strange things happen. Is someone trying to drive him away, or is the motel really haunted by the ghost of Norman's mother?", "poster_path": "/bHVuPI9Yplfk4P3J3mEMfOWlHKy.jpg", "popularity": 6.171}, {"adult": false, "backdrop_path": "/9Ose0R4RiLCcsi68tLmmBOPELjv.jpg", "genre_ids": [28, 53], "id": 90092, "original_language": "it", "original_title": "Il cittadino si ribella", "overview": "Carlo Antonelli, an engineer from Genoa, gets mugged and decides to take justice into his own hands. At first the muggers seem to get the upper hand, but then he's helped by Tommy, a young robber who takes his side.", "poster_path": "/i4ZVsXMJ8vLEbR4Wkj4rszc9EVE.jpg", "release_date": "1974-09-17", "title": "Street Law", "video": false, "vote_average": 6.5, "vote_count": 11, "popularity": 2.005}, {"id": 92304, "video": false, "vote_count": 5, "vote_average": 4.4, "title": "Out of Control", "release_date": "1985-05-01", "original_language": "en", "original_title": "Out of Control", "genre_ids": [28, 18], "backdrop_path": "/y8X9ITpxzGNWDdGvM5pHOAftpbr.jpg", "adult": false, "overview": "Upon graduation from high school eight teens take a seaplane trip, intending to celebrate on Keith's parents' private island. Stormy weather causes the plane to crash and they end up on a deserted isle. They find evidence of other visitors, and soon must fend for their lives against drug smugglers.", "poster_path": "/l6n9NUMVuuksWoUgKp5n8TBUdjJ.jpg", "popularity": 2.754}, {"adult": false, "backdrop_path": "/hqhu64SHY3v8GoHNhD6bLcElGyw.jpg", "genre_ids": [10770, 878, 53, 27], "id": 20121, "original_language": "en", "original_title": "Killdozer", "overview": "Construction workers building an airstrip on a small Pacific Island during WWII encounter an ancient meteor. Then they are terrorized when some strange spirit-like being takes over a large bulldozer, and goes on a killing rampage.", "poster_path": "/gdPogRRIfEOKKal91RKIzxBQ86L.jpg", "release_date": "1974-02-02", "title": "Killdozer", "video": false, "vote_average": 5.8, "vote_count": 21, "popularity": 4.241}, {"adult": false, "backdrop_path": "/3LEPvAGdofijbBNiLhEEpVcrsop.jpg", "genre_ids": [28, 878, 53], "id": 36293, "original_language": "en", "original_title": "Bridge of Dragons", "overview": "The tough and cold mercenary Warchild, is working for the man who took care of his war training and upbringing, the greedy General Ruechang. Ruechang is planning to take over the country by marrying Princess Halo. But Halo discovers that Ruechang killed her father to gain more power than he had working for the King, so she decides to run away. Warchild is the one who has to bring her back to Ruechang, but the one thing no one counted on happens... Warchild and Halo falls in love, and together they take on the forces of Ruechang... Written by Zorteper -", "poster_path": "/f5rIMqlJ3n9eZsVYHKzYMJ3zhA7.jpg", "release_date": "1999-01-01", "title": "Bridge of Dragons", "video": false, "vote_average": 4.5, "vote_count": 19, "popularity": 4.602}, {"adult": false, "backdrop_path": "/lqtklM6nZqYUO3LczfDnheBOip9.jpg", "genre_ids": [16, 10751], "id": 55510, "original_language": "en", "original_title": "Dragon Around", "overview": "Chip and Dale think they see a dragon coming toward their tree. It's really just Donald with a power shovel, clearing the way for a freeway, but he decides to play along, fitting a welding torch to the jaws for an appropriate flame. Ultimately, with help from a large boulder, a convenient barrel of tar, and some fast wrench work, the two little rodents win.", "poster_path": "/bOJPslxrsjAi0yY8Dl6TLiYFDRj.jpg", "release_date": "1954-07-16", "title": "Dragon Around", "video": false, "vote_average": 6.4, "vote_count": 9, "popularity": 2.932}, {"id": 60387, "video": false, "vote_count": 1, "vote_average": 7.0, "title": "Operation Mad Ball", "release_date": "1957-01-01", "original_language": "en", "original_title": "Operation Mad Ball", "genre_ids": [35, 10752], "backdrop_path": "/7As0aNPWMqGyDbK4THIAue7bCAJ.jpg", "adult": false, "overview": "In this wacky military spoof, Lemmon plays a terminally bored Army private waging a war of wits as he tries to throw a party under the nose of his obnoxious commanding officer.", "poster_path": "/pkgAPvromhjtbP06zh5e8R2tb8P.jpg", "popularity": 3.574}, {"adult": false, "backdrop_path": "/sN9kKw4VCAQDuv7MpviDUOY5uUA.jpg", "genre_ids": [10749, 18], "id": 26880, "original_language": "is", "original_title": "B\u00f6rn n\u00e1tt\u00farunnar", "overview": "An elderly couple leave their retirement home to make one last journey back to their home in the Western Fjords.", "poster_path": "/fOyywmXtPs1XsSdeGFNHq9KSJ6J.jpg", "release_date": "1991-08-01", "title": "Children of Nature", "video": false, "vote_average": 6.5, "vote_count": 4, "popularity": 2.744}, {"adult": false, "backdrop_path": "/tR9PDu2RIHmUFz7NjS3d6ii4gUM.jpg", "genre_ids": [27], "id": 43639, "original_language": "en", "original_title": "Five Across the Eyes", "overview": "On their way home from a high school football game, five teenage girls become hopelessly lost. When they stop to get directions at a desolate store, the girls are involved in a minor fender bender which leaves an unattended SUV one headlight short. Inexperienced and frightened that they'll get into trouble, the girls flee the scene of the accident and speed away down the dark and unfamiliar roads. As they blindly make their way across an area the locals call THE EYES, the girls are suddenly shocked to see one lone headlight appear behind them. As the driver of the damaged SUV begins one terrifying assault after another, the five girls will lose their innocence and possibly their lives in this brutal and shocking thrill ride.", "poster_path": "/yEknCXVcO8cvYa9z6OCzRNV6d8W.jpg", "release_date": "2006-10-01", "title": "Five Across the Eyes", "video": false, "vote_average": 3.1, "vote_count": 18, "popularity": 4.346}, {"adult": false, "backdrop_path": "/vf2E8fwI6MxOo5X4awTO9bB2kxG.jpg", "genre_ids": [28, 37], "id": 451885, "original_language": "en", "original_title": "Jeep-Herders", "overview": "A wildcat oil outfit is seeking to take over the ranch belonging to Pop Martin and his son Bob and daughter Helen. Bob sends his ex-army pals a \"stay-way\" message, which brings them on the double. The WW II vets use their jeeps, first for a cattle roundup, and then to round up the gang of crooks, including the crooked family-lawyer Thatcher, brains of the gang.", "poster_path": "/xZ7EKoV93C31W29LiWAykjgKQ1S.jpg", "release_date": "1945-01-01", "title": "Jeep-Herders", "video": false, "vote_average": 0.0, "vote_count": 0, "popularity": 1.877}, {"id": 276087, "video": false, "vote_count": 0, "vote_average": 0.0, "title": "All Cars Go To Heaven - Volume 1: The Washington Discovery Route", "release_date": "2014-04-25", "original_language": "en", "original_title": "All Cars Go To Heaven - Volume 1: The Washington Discovery Route", "genre_ids": [28, 35, 99, 18], "backdrop_path": "/sqPG3DLG1lNouBs5ZXdo4KomGEB.jpg", "adult": false, "overview": "Why did the team behind \"The Smoking Tire\" decide to drive 600 miles, off-road, in a cheap car that they bought over the phone? Is it because they have deep knowledge of outdoor survival and automotive maintenance? No. Definitely not. They did it because away from roads, street signs, people, and police, they would be free to experience every aspect of driving; the good, the bad, and the ugly. There's no one to say, \"Don't stand on that moving car.\" or \"Don't run into that.\" or, \"That seems really stupid.\" If you love cars, total vehicular freedom is your idea of heaven. This series is about 4 guys testing the limits of automobiles, and bringing them to heaven.", "poster_path": "/2dEhXO2NSKRpsS5mtDfYOHPjttm.jpg", "popularity": 1.264}, {"adult": false, "backdrop_path": "/sTyltcwcT9jw4ByFKIgPFXgNvTO.jpg", "genre_ids": [9648, 35], "id": 76483, "original_language": "en", "original_title": "Murder on a Honeymoon", "overview": "A schoolteacher and amateur sleuth suspects foul play when a fellow passenger on a seaplane gets sick and dies. The third and final film with Edna May Oliver and James Gleason as the astute schoolteacher Hildegarde Withers and the New York Police Inspector Oscar Piper busy solving crimes.", "poster_path": "/umeF1UNNQZgG8cqXvN0KWiUfbYi.jpg", "release_date": "1935-02-22", "title": "Murder on a Honeymoon", "video": false, "vote_average": 6.3, "vote_count": 4, "popularity": 2.369}, {"adult": false, "backdrop_path": "/r2RG4Eeiq3rbEOsreyiEjhIFHl1.jpg", "genre_ids": [16, 10751], "id": 100311, "original_language": "en", "original_title": "Homeless Hare", "overview": "A construction worker destroys Bugs' home with a steam shovel and refuses to repair the damage.", "poster_path": "/xVH3mOvHG3eAHxk7qkyxmEF24Na.jpg", "release_date": "1950-03-11", "title": "Homeless Hare", "video": false, "vote_average": 6.8, "vote_count": 10, "popularity": 2.367}, {"adult": false, "backdrop_path": null, "genre_ids": [27, 53], "id": 28584, "original_language": "en", "original_title": "Crawler", "overview": "A crew on a remote construction site are plagued by a series of bizarre mishaps. As the incidents turn more and more savage, it becomes clear that the sole link to the deadly events - is a 50-ton bulldozer.", "poster_path": "/o1zB87HI281cs3a12SwYSDYzdRg.jpg", "release_date": "2009-07-24", "title": "Crawler", "video": false, "vote_average": 1.0, "vote_count": 1, "popularity": 3.164}, {"adult": false, "backdrop_path": null, "genre_ids": [36, 99], "id": 497287, "original_language": "en", "original_title": "Jeepney", "overview": "JEEPNEY visualizes the richly diverse cultural and social climate of the Philippines through its most popular form of mass transportation: vividly decorated ex-WWII military jeeps. The film follows jeepney artists, drivers, and passengers, whose stories take place amidst nationwide protest against oil price hikes that pressure drivers to work overseas to earn a living, far from their homes for years at a time. Lavishly shot and cut to the rhythm of the streets, JEEPNEY provides an enticing vehicle through which the rippling effects of globalization can be felt.", "poster_path": "/lMjCdRv1nLUDnSfFyoj6pBc9CHe.jpg", "release_date": "2013-08-05", "title": "Jeepney", "video": false, "vote_average": 0.0, "vote_count": 0, "popularity": 0.6}], "total_pages": 2, "total_results": 25}, "recommendations": {"page": 1, "results": [], "total_pages": 1, "total_results": 0}, "credits": {"cast": [{"cast_id": 5, "character": "Adele Tasca", "credit_id": "52fe4739c3a36847f812a021", "gender": 1, "id": 16757, "name": "Sophia Loren", "order": 0, "profile_path": "/eNhD1YhuICcfGdqTUkCSZZDU1Ly.jpg"}, {"cast_id": 6, "character": "Jerry Fanon / Eddie", "credit_id": "52fe4739c3a36847f812a025", "gender": 2, "id": 5563, "name": "James Coburn", "order": 1, "profile_path": "/sEouHlYr1hOzl3u6E4KV6gIJSPd.jpg"}, {"cast_id": 7, "character": "Catlett", "credit_id": "52fe4739c3a36847f812a029", "gender": 2, "id": 12951, "name": "O.J. Simpson", "order": 2, "profile_path": "/3q6XMf1L5zCApoUsiAMoFS9ADXY.jpg"}, {"cast_id": 8, "character": "Sal Hyman", "credit_id": "52fe4739c3a36847f812a02d", "gender": 2, "id": 3265, "name": "Eli Wallach", "order": 3, "profile_path": "/cjOzKNXOrwc8ZgGWmJEM8A3HZ19.jpg"}, {"cast_id": 9, "character": "the doctor Charles F\u00e9lix", "credit_id": "52fe4739c3a36847f812a031", "gender": 2, "id": 106179, "name": "Anthony Franciosa", "order": 4, "profile_path": "/9KykLLz0mbWKoWY3hLSZup9ayIi.jpg"}, {"cast_id": 10, "character": "Leo Gelhorn", "credit_id": "52fe4739c3a36847f812a035", "gender": 2, "id": 72056, "name": "George Grizzard", "order": 5, "profile_path": "/9V2TkXB0E5Ol9RqNwHyCPgA4JAc.jpg"}, {"cast_id": 11, "character": "", "credit_id": "56a2c2b9c3a36838a3000a39", "gender": 2, "id": 14830, "name": "Vincent Gardenia", "order": 6, "profile_path": "/o57oXN3dTxdKAXNttmRjfEWXp57.jpg"}, {"cast_id": 12, "character": "Howard Everett", "credit_id": "56a2c2e1925141720b000b12", "gender": 2, "id": 30290, "name": "Victor Mature", "order": 7, "profile_path": "/aQpiinWT3QJQzLi7mWbW45kXXPz.jpg"}, {"cast_id": 13, "character": "Dominic Carbone", "credit_id": "5d3fe24534e15238fcea85c1", "gender": 2, "id": 12659, "name": "Billy Barty", "order": 8, "profile_path": "/h6Xf5csmdoIOUIFi8iRjtQMygQT.jpg"}], "crew": [{"credit_id": "52fe4739c3a36847f812a00b", "department": "Directing", "gender": 2, "id": 19244, "job": "Director", "name": "Michael Winner", "profile_path": "/hxRlptqgGWLDNf5IxSn7lwkFl2W.jpg"}, {"credit_id": "52fe4739c3a36847f812a01d", "department": "Writing", "gender": 2, "id": 19244, "job": "Story", "name": "Michael Winner", "profile_path": "/hxRlptqgGWLDNf5IxSn7lwkFl2W.jpg"}, {"credit_id": "52fe4739c3a36847f812a011", "department": "Writing", "gender": 0, "id": 94851, "job": "Screenplay", "name": "Gerald Wilson", "profile_path": null}, {"credit_id": "52fe4739c3a36847f812a017", "department": "Writing", "gender": 2, "id": 114641, "job": "Story", "name": "Bill Kerby", "profile_path": null}]}}