{"adult": false, "backdrop_path": "/8jYA3KpCGqnxrj2a7TbFlT9pBQa.jpg", "belongs_to_collection": null, "budget": 0, "genres": [{"id": 18, "name": "Drama"}], "homepage": null, "id": 47570, "imdb_id": "tt0064624", "original_language": "en", "original_title": "Maid in Sweden", "overview": "Maid in Sweden tells the story of Inga, a 16-year-old Swedish girl who leaves her rural home to spend a weekend in the Swedish capital. An innocent with no experience, but with prodigious physical attributes, she has a series of romantic adventures as she throws off the frustrations of her small-town environment.", "popularity": 5.539, "poster_path": "/c6pbcBXxvyg2qHI8QzuI4CKevAh.jpg", "production_companies": [{"id": 1444, "logo_path": "/5jvFLUVXGXxkyszL9cqJN5hNhJ6.png", "name": "Cannon Group", "origin_country": "US"}], "production_countries": [{"iso_3166_1": "US", "name": "United States of America"}], "release_date": "1971-11-03", "revenue": 0, "runtime": 80, "spoken_languages": [{"iso_639_1": "en", "name": "English"}], "status": "Released", "tagline": "Inga at sixteen. Her coming of age.", "title": "Maid in Sweden", "video": false, "vote_average": 4.2, "vote_count": 9, "keywords": {"keywords": [{"id": 572, "name": "sex"}, {"id": 2677, "name": "weekend"}, {"id": 6139, "name": "innocence"}, {"id": 13130, "name": "teenager"}, {"id": 159947, "name": "parents"}, {"id": 180340, "name": "voyeur"}, {"id": 190370, "name": "erotic movie"}]}, "similar": {"page": 1, "results": [{"adult": false, "backdrop_path": "/98ahnrena4PwLth7HFYGLf9yssH.jpg", "genre_ids": [35, 18, 10749], "id": 22705, "original_language": "it", "original_title": "Tra(sgre)dire", "overview": "While scouting out apartments in London for her Venetian boyfriend, Carla rents an apartment that overlooks the Thames. There she meet the lesbian hyper-horny real estate agent Moira.", "poster_path": "/kZITrLEiTfzzJhtwtXhQUl3ImCQ.jpg", "release_date": "2000-01-28", "title": "Cheeky", "video": false, "vote_average": 5.7, "vote_count": 92, "popularity": 32.727}, {"adult": false, "backdrop_path": "/tvTyRu9eKfymkje8d9VoWJEoyUv.jpg", "genre_ids": [18], "id": 53932, "original_language": "es", "original_title": "Las edades de Lul\u00fa", "overview": "Fifteen-year-old Lulu has never known any affection from her family. But when she goes to a rock concert with Pablo, a friend of the family, he introduces Lulu to her first sexual experience. Years later, Pablo and Lulu have married; Pablo has created a sheltered, private world for Lulu, into which nothing intrudes. However, Lulu tires of her cloistered existence, and begins hanging out in shady bars, looking for vicarious thrills and danger.", "poster_path": "/5PK5MAN84o0ESgzeW9euozOLIEe.jpg", "release_date": "1990-12-13", "title": "The Ages of Lulu", "video": false, "vote_average": 5.7, "vote_count": 64, "popularity": 23.137}, {"adult": false, "backdrop_path": "/yIszPJawrrp6zcb62d7XJnaxAmw.jpg", "genre_ids": [18], "id": 13078, "original_language": "en", "original_title": "The Babysitters", "overview": "Seventeen-year-old Shirley is a good student who works as a babysitter in order to make money for college. One night Michael, a father Shirley works for, confesses he's unhappy with married life. Shirley has a crush on Michael, and seizes this moment to kiss him. Michael is so happy he presents Shirley with a big tip, which gives her an idea. Shirley plans to make extra money by setting up her teenage friends with other unhappy fathers.", "poster_path": "/nsrNUqGXI95unRKZEu8BJ584xWn.jpg", "release_date": "2007-09-11", "title": "The Babysitters", "video": false, "vote_average": 5.3, "vote_count": 153, "popularity": 16.136}, {"adult": false, "backdrop_path": "/by0WtpJ5UNxOy6ytIfPPTasbRoB.jpg", "genre_ids": [28, 12, 35, 18, 10751, 10402, 10749], "id": 17130, "original_language": "en", "original_title": "Crossroads", "overview": "Three friends get together and bury a box making a pact to open it at midnight at their high school graduation. In the little town in Georgia that they live in, things soon change. One is little miss perfect, one is an engaged prom queen, and the other is a pregnant outcast. The night of graduation, they open the box and they strike up a conversation. All of a sudden, one brings up the topic of her going to Los Angeles for a record contract audition. They all decide to go together and they leave. With a little money, they set out on the road with a guy named Ben. When one of them tells the other a rumor that he might be a homicidal maniac they are all scared of him. When they reach LA, Lucy falls in love with Ben and against her father's wishes, she stays and she goes to the audition.", "poster_path": "/egIs4cWxn0iBErFKrQ7STckjj49.jpg", "release_date": "2002-02-15", "title": "Crossroads", "video": false, "vote_average": 5.0, "vote_count": 334, "popularity": 12.973}, {"adult": false, "backdrop_path": "/tk6QB32plylH41eo2Pbv4sIVljO.jpg", "genre_ids": [18], "id": 50270, "original_language": "it", "original_title": "Paprika", "overview": "A young country girl comes to town and works in a brothel in order to help her fiance get the money to start his own business. \"Paprika\" is the name given to her by the madam.", "poster_path": "/6QthFTJvUheocw3fcKklnsMcGib.jpg", "release_date": "1991-02-13", "title": "Paprika", "video": false, "vote_average": 5.9, "vote_count": 81, "popularity": 20.02}, {"adult": false, "backdrop_path": "/gPiurUCO9Aq5BoftzRjNlvbBrPg.jpg", "genre_ids": [18, 10749], "id": 24402, "original_language": "fr", "original_title": "Emmanuelle", "overview": "Emmanuelle, a svelte, naive young woman, is en route to Bangkok where she'll join her new husband. He works for the French Embassy and has a lovely home, several dedicated servants, and an expensive car at his disposal. Once Emmanuelle arrives, her husband and a few friends introduce her to a realm of sexual ecstasy she'd never imagined.", "poster_path": "/cSZ8MQIoec4w0liHP4x8FJH5BJK.jpg", "release_date": "1974-06-25", "title": "Emmanuelle", "video": false, "vote_average": 5.1, "vote_count": 134, "popularity": 21.236}, {"id": 14174, "video": false, "vote_count": 124, "vote_average": 5.4, "title": "Lie with Me", "release_date": "2005-09-10", "original_language": "en", "original_title": "Lie with Me", "genre_ids": [18], "backdrop_path": "/zqHLgJUIoTMQF279PASkHrNi4za.jpg", "adult": false, "overview": "Happily unattached, the sexually voracious Leila satisfies her desires with a host of rapidly changing bed partners, unconcerned about the emotional consequences. But that all changes when she meets an artist looking for a deeper commitment.", "poster_path": "/uBHoL4nUPYLxx3NaGf70NqP4JkN.jpg", "popularity": 17.205}, {"adult": false, "backdrop_path": "/bYbnlh6VXFRtcSX82UMDsBDLB5j.jpg", "genre_ids": [18, 10749], "id": 28468, "original_language": "it", "original_title": "La chiave", "overview": "After twenty years of marriage, art professor Nino Rolfe attempts to break down his wife Teresa's conventional modesty. Noticing her affection for their daughter's fianc\u00e9, Nino instigates her sexual interest in him as well. This sets off a chain of unexpected events and emotional complications, as Nino and his unpredictable fascist daughter find that they both enjoy being jealous.", "poster_path": "/e6g2geNLgFzMbriH6EvSJZD78nx.jpg", "release_date": "1983-10-18", "title": "The Key", "video": false, "vote_average": 5.0, "vote_count": 128, "popularity": 19.088}, {"id": 12531, "video": false, "vote_count": 91, "vote_average": 6.9, "title": "The Apartment", "release_date": "1996-07-27", "original_language": "fr", "original_title": "L'Appartement", "genre_ids": [18, 9648, 10749], "backdrop_path": "/64qyT8m4JQ6YODvXxtbHgKmXBX7.jpg", "adult": false, "overview": "A stylish suspense thriller that confounds the audience while presenting them with an extraordinary and elusive mystery. Max is a former playboy who has decided to settle down by marrying his current love, Muriel. However, during a business trip, Max catches a glimpse of the great lost love of his life, reviving his wanderlust and sending him off on a chase of the elusive Lisa, whom he had overheard suggesting to a friend that her lover, Daniel, had killed someone for her. Soon, Max is trying to unravel the mystery behind the suspicious death of Daniel's wife, which he hopes will lead him closer to Lisa.", "poster_path": "/1sqrQdQTn8jKLhUcPKfRVj639zA.jpg", "popularity": 21.259}, {"adult": false, "backdrop_path": "/xC9cG6Wy6QbH2hoAx11xPPD995R.jpg", "genre_ids": [18, 10749], "id": 86331, "original_language": "fr", "original_title": "Q", "overview": "In a social context deteriorated by a countrywide economic crisis, the life of several people will be turned upside down after they meet Cecile, a character who symbolizes desire.", "poster_path": "/9Jg9s4yTEndNmy1SSXRF9jdxY9D.jpg", "release_date": "2011-09-14", "title": "Desire", "video": false, "vote_average": 4.7, "vote_count": 204, "popularity": 30.344}, {"id": 11887, "video": false, "vote_count": 2347, "vote_average": 6.5, "title": "High School Musical 3: Senior Year", "release_date": "2008-10-11", "original_language": "en", "original_title": "High School Musical 3: Senior Year", "genre_ids": [35, 18, 10402, 10749, 10751], "backdrop_path": "/daSGxGZL2nNjGZKkAF5ain3lmOx.jpg", "adult": false, "overview": "It's almost graduation day for high school seniors Troy, Gabriella, Sharpay, Chad, Ryan and Taylor \u2015 and the thought of heading off in separate directions after leaving East High has these Wildcats thinking they need to do something they'll remember forever. Together with the rest of the Wildcats, they stage a spring musical reflecting their hopes and fears about the future and their unforgettable experiences growing up together. But with graduation approaching and college plans in question, what will become of the dreams, romances, and friendships of East High's senior Wildcats?", "poster_path": "/ewZpH2QIfPQ0VIn9lPf7MHbLbl4.jpg", "popularity": 19.967}, {"adult": false, "backdrop_path": "/avhG8fITuG78IkKPk28CcBBHPOp.jpg", "genre_ids": [35, 18], "id": 112160, "original_language": "fr", "original_title": "Chroniques sexuelles d'une famille d'aujourd'hui", "overview": "Three generations of a French family open up about their sexual experiences and desires after young Romain is caught masturbating in his biology class.", "poster_path": "/pU2nD3Llaz3Taq5FAaQUg00uJYD.jpg", "release_date": "2012-05-09", "title": "Sexual Chronicles of a French Family", "video": false, "vote_average": 4.4, "vote_count": 169, "popularity": 29.133}, {"id": 449176, "video": false, "vote_count": 3690, "vote_average": 8.1, "title": "Love, Simon", "release_date": "2018-02-16", "original_language": "en", "original_title": "Love, Simon", "genre_ids": [35, 18, 10749], "backdrop_path": "/rqMEeajyzSF4PpJtdCB816Iz8Vr.jpg", "adult": false, "overview": "Everyone deserves a great love story. But for seventeen-year old Simon Spier it's a little more complicated: he's yet to tell his family or friends he's gay and he doesn't know the identity of the anonymous classmate he's fallen for online.", "poster_path": "/5YUYg5q7QfC4IoNwNUtiwdiYKPr.jpg", "popularity": 24.849}, {"adult": false, "backdrop_path": "/bxPw6s61bG5Of19lp1E00n0dDWW.jpg", "genre_ids": [35, 18, 10751, 10402, 10770], "id": 10947, "original_language": "en", "original_title": "High School Musical", "overview": "Troy, the popular captain of the basketball team, and Gabriella, the brainy and beautiful member of the academic club, break all the rules of East High society when they secretly audition for the leads in the school's musical. As they reach for the stars and follow their dreams, everyone learns about acceptance, teamwork, and being yourself.", "poster_path": "/xMRBlTMMKDRJuK4IhwG5idrGHaS.jpg", "release_date": "2006-01-20", "title": "High School Musical", "video": false, "vote_average": 6.5, "vote_count": 2982, "popularity": 16.417}, {"id": 315635, "video": false, "vote_count": 13251, "vote_average": 7.4, "title": "Spider-Man: Homecoming", "release_date": "2017-07-05", "original_language": "en", "original_title": "Spider-Man: Homecoming", "genre_ids": [28, 12, 18, 878], "backdrop_path": "/vc8bCGjdVp0UbMNLzHnHSLRbBWQ.jpg", "adult": false, "overview": "Following the events of Captain America: Civil War, Peter Parker, with the help of his mentor Tony Stark, tries to balance his life as an ordinary high school student in Queens, New York City, with fighting crime as his superhero alter ego Spider-Man as a new threat, the Vulture, emerges.", "poster_path": "/c24sv2weTHPsmDa7jEMN0m2P3RT.jpg", "popularity": 49.046}, {"adult": false, "backdrop_path": "/tUSXZ37j0XpNtmOb5uwqogdcq7E.jpg", "genre_ids": [35, 18], "id": 2108, "original_language": "en", "original_title": "The Breakfast Club", "overview": "Five disparate high school students meet in Saturday detention, and discover they have a lot more in common than they thought.", "poster_path": "/4ZejrrCpfoypR5lHoT3pq6yVldW.jpg", "release_date": "1985-02-15", "title": "The Breakfast Club", "video": false, "vote_average": 7.8, "vote_count": 4903, "popularity": 19.882}, {"id": 1391, "video": false, "vote_count": 688, "vote_average": 7.4, "title": "Y Tu Mam\u00e1 Tambi\u00e9n", "release_date": "2001-06-08", "original_language": "es", "original_title": "Y tu mam\u00e1 tambi\u00e9n", "genre_ids": [18, 10749], "backdrop_path": "/5jXzf6VCxmRAbQYYOuoPgGZRbRp.jpg", "adult": false, "overview": "In Mexico, two teenage boys and an attractive older woman embark on a road trip and learn a thing or two about life, friendship, sex, and each other.", "poster_path": "/4n6lnr7q3Ysz4rKz3raxkltbHgr.jpg", "popularity": 14.148}, {"adult": false, "backdrop_path": "/3nErSCj393Yh5h5MdvYgw9PvTQH.jpg", "genre_ids": [18], "id": 13416, "original_language": "en", "original_title": "Friday Night Lights", "overview": "A small, turbulent town in Texas obsesses over their high school football team to an unhealthy degree. When the star tailback, Boobie Miles, is seriously injured during the first game of the season, all hope is lost, and the town's dormant social problems begin to flare up. It is left to the inspiring abilities of new coach Gary Gaines to instill in the other team members -- and, by proxy, the town itself -- a sense of self-respect and honor.", "poster_path": "/8HIqpOgqShRc3TAleabnYispDl1.jpg", "release_date": "2004-10-08", "title": "Friday Night Lights", "video": false, "vote_average": 7.0, "vote_count": 287, "popularity": 9.072}, {"adult": false, "backdrop_path": "/aE1gbq6nw8zyVqvEBXMVMCqZpCs.jpg", "genre_ids": [18], "id": 85350, "original_language": "en", "original_title": "Boyhood", "overview": "The film tells a story of a divorced couple trying to raise their young son. The story follows the boy for twelve years, from first grade at age 6 through 12th grade at age 17-18, and examines his relationship with his parents as he grows.", "poster_path": "/eKi4e5zXhQKs0De4xu5AAMvu376.jpg", "release_date": "2014-06-05", "title": "Boyhood", "video": false, "vote_average": 7.5, "vote_count": 3348, "popularity": 14.798}, {"id": 248574, "video": false, "vote_count": 645, "vote_average": 5.7, "title": "Barely Lethal", "release_date": "2015-04-30", "original_language": "en", "original_title": "Barely Lethal", "genre_ids": [28, 12, 35], "backdrop_path": "/scoMZVgdqBM7vqZaEbhQXJd7jOL.jpg", "adult": false, "overview": "A 16-year-old international assassin yearning for a \"normal\" adolescence fakes her own death and enrolls as a senior in a suburban high school. She quickly learns that being popular can be more painful than getting water-boarded.", "poster_path": "/nJm0vGJVyELlQEzHRq22vi2JHbW.jpg", "popularity": 13.213}], "total_pages": 29, "total_results": 567}, "recommendations": {"page": 1, "results": [{"adult": false, "backdrop_path": "/8R7m6c7krHGA2FkcADQW136EdRR.jpg", "genre_ids": [18], "id": 86461, "original_language": "it", "original_title": "Hanna D. - La ragazza del Vondel Park", "overview": "Hanna is a girl completely abandoned to herself, is not at all inhibited sexually, and is attracted to the attention of unscrupulous people like Miguel, who takes advantage of Hanna, turning her to prostitution to obtain her drug fix. Until she meets Alex, a young man with a sincere affection for Hanna.", "poster_path": "/zn8aYFvtXleF9f4jCRnc6zYEFmC.jpg", "release_date": "1984-11-02", "title": "Hanna D: The Girl from Vondel Park", "video": false, "vote_average": 4.8, "vote_count": 3, "popularity": 2.939}, {"adult": false, "backdrop_path": null, "genre_ids": [99], "id": 207772, "original_language": "en", "original_title": "The Fourth Dimension", "overview": "THE FOURTH DIMENSION is an elegant meditation on time, travel, and ceremony in the form of a journey. In her first foray into digital video, Minh-ha deconstructs the role of ritual in mediating between the past and the present. She explains, \"Shown in their widespread functions and manifestations, including more evident loci such as festivals, religious rite and theatrical performance, 'rituals' involve not only the regularity in the structure of everyday life, but also the dynamic agents in the world of meaning.\" With its lush imagery, Minh-ha's Japan is viewed through mobile frames, with doors and windows sliding shut, revealing new vistas as it blocks out the old light.", "poster_path": "/ePFaRg2jK2gS0bXygVlpCM0BZQn.jpg", "release_date": "2001-04-18", "title": "The Fourth Dimension", "video": false, "vote_average": 7.3, "vote_count": 4, "popularity": 2.351}, {"adult": false, "backdrop_path": "/gwjluHu9gJk2Gnkk2ZGb87fsZZJ.jpg", "genre_ids": [18, 35], "id": 86497, "original_language": "sv", "original_title": "S\u00e4ngkamrater", "overview": "A philandering cab driver decides to help his girlfriend's attractive sister, who is in trouble with drug dealers.", "poster_path": "/gKT5sM2V767WiU2ETL1F3CVyemi.jpg", "release_date": "1974-12-18", "title": "Wide Open", "video": false, "vote_average": 3.6, "vote_count": 8, "popularity": 4.101}, {"adult": false, "backdrop_path": "/wK7o6Sf5ZDiOxPsf6MU2Q2WhjjO.jpg", "genre_ids": [18], "id": 18514, "original_language": "ko", "original_title": "\ub450\ubc88\uc9f8 \uc0ac\ub791", "overview": "When an American woman begins a dangerous relationship with an attractive immigrant worker, in order to save her marriage, she finds her true self.", "poster_path": "/x5SXEQhfVOm3VsFCEVtZVVlEve9.jpg", "release_date": "2007-01-18", "title": "Never Forever", "video": false, "vote_average": 5.6, "vote_count": 9, "popularity": 2.62}, {"id": 197786, "video": false, "vote_count": 5, "vote_average": 4.4, "title": "The Amorous Sisters", "release_date": "1980-11-28", "original_language": "de", "original_title": "Julchen und Jettchen, die verliebten Apothekerst\u00f6chter", "genre_ids": [35], "backdrop_path": "/83SQnaqWxje4npkewvxf6lMSHOS.jpg", "adult": false, "overview": "Comedy about some schoolgirls being taught anatomy (of the sexual nature) by the sexually frustrated Barbara Moose. In bed at nighttime the girls practice their daily lessons on each other and on any unsuspecting visitors of the night. When they're not in class they enjoy frolicking around outside (naked most of the time!) experiencing the joys of nature.", "poster_path": "/7q2ZUg1b24uCtB72tA2VgW5pl4E.jpg", "popularity": 6.348}, {"adult": false, "backdrop_path": "/q4Vl3CxGDdEkQ9hlevWSb5H0ACM.jpg", "genre_ids": [18], "id": 82969, "original_language": "fr", "original_title": "Don Juan ou si Don Juan \u00e9tait une femme...", "overview": "Jeanne lives in Paris and believes she is the reincarnation of Don Juan. She visits a priest and tells him she has killed a man. He comes to her elegant flat - her father has died leaving her rich - and she tells the priest stories about men she has seduced. The seduction is easy, she tells him, it's destruction that takes planning. We watch her with an upright elected official, a wealthy boor, and a folk singer. She describes herself as a spider. Her friend L\u00e9porella tries to be Jeanne's conscience. What does Jeanne want?", "poster_path": "/kCTfIeBsHxwZxEcNBBWD1fkpf5V.jpg", "release_date": "1973-02-22", "title": "Don Juan or If Don Juan Were a Woman", "video": false, "vote_average": 4.1, "vote_count": 11, "popularity": 3.708}, {"adult": false, "backdrop_path": "/s3ttOHw5dQzUqUUQcDJgPyaERih.jpg", "genre_ids": [18, 28], "id": 76942, "original_language": "en", "original_title": "\u30dd\u30eb\u30ce\u306e\u5973\u738b \u306b\u3063\u307d\u3093SEX\u65c5\u884c", "overview": "Christina, on arriving in Japan, acquaints a Japanese man at the airport who looks like a sap. He takes her to his apartment where he brutally rapes her and keeps her hostage and bound in chains. Christina's alluring beauty eventually enchants the rapist and he is soon consulting his 'How to Stimulate a Woman' sex book in an effort to please her...", "poster_path": "/7UCweYDIRBVo7HW00UAVK0n2GB3.jpg", "release_date": "1973-03-03", "title": "The Kyoto Connection", "video": false, "vote_average": 5.0, "vote_count": 8, "popularity": 2.684}, {"adult": false, "backdrop_path": "/mMvzBcNwQhj3ewD0m1N2wytf1e3.jpg", "genre_ids": [80, 18], "id": 60971, "original_language": "ja", "original_title": "\u6697\u9ed2\u8857\u306e\u7f8e\u5973", "overview": "The moment he's released from prison, the honorable gangster Miyamoto recovers the stolen diamonds he had stashed before getting pinched. When he returns to his haunt to make good by friend who took a bullet for him, he is diverted by the greedy boss Oyane and his insatiable taste for Miyamoto's precious stones. Replete with film noir style, \"Underworld Beauty\" is one of Suzuki's best nods to the American gangster genre.", "poster_path": "/eLzaxQ0wPCiYbVOGazPHmJiyF1S.jpg", "release_date": "1958-03-25", "title": "Underworld Beauty", "video": false, "vote_average": 5.3, "vote_count": 8, "popularity": 2.137}, {"adult": false, "backdrop_path": null, "genre_ids": [18], "id": 28844, "original_language": "it", "original_title": "Velluto nero", "overview": "In the desert paradise of pleasure and pain, a glamourous fashion model and a free-spirited beauty surrender themselves to complete sexual ecstasy. But will an unhinged holy man now lead these new lovers - as well as their friends and even family members - into the most shockingly immoral acts imaginable?", "poster_path": "/hk9Fa3ms1PuLItOHf20PrxdZOcL.jpg", "release_date": "1976-08-06", "title": "Black Emmanuelle, White Emmanuelle", "video": false, "vote_average": 4.3, "vote_count": 7, "popularity": 3.102}, {"adult": false, "backdrop_path": "/j82oFzv1WQqIJNP6d4i3xtXRJOw.jpg", "genre_ids": [99], "id": 31537, "original_language": "en", "original_title": "Aphrodisiac!: The Sexual Secret of Marijuana", "overview": "A documentary examining the use of marijuana by young people in the late 1960s and early 1970s. Included are interviews with people who regularly use marijuana and testify to its beneficial effects as an aphrodisiac  and scenes of nude encounter groups, instructions for making marijuana brownies, soldiers in Vietnam smoking marijuana, etc.", "poster_path": "/7tLI1a3e39op2Xvy66jvau2h12a.jpg", "release_date": "1971-11-05", "title": "Aphrodisiac!: The Sexual Secret of Marijuana", "video": false, "vote_average": 4.6, "vote_count": 7, "popularity": 4.494}], "total_pages": 1, "total_results": 10}, "credits": {"cast": [{"cast_id": 4, "character": "Inga (as Kristina Lindberg)", "credit_id": "52fe4739c3a36847f812a1e1", "gender": 1, "id": 77707, "name": "Christina Lindberg", "order": 0, "profile_path": "/doweQzXmyMCQupRL1AV1HLPuETK.jpg"}, {"cast_id": 5, "character": "Greta - Inga's older sister", "credit_id": "52fe4739c3a36847f812a1e5", "gender": 1, "id": 139111, "name": "Monica Ekman", "order": 1, "profile_path": "/bwuCJDngIuzykjl5YnbvptKtfG0.jpg"}, {"cast_id": 6, "character": "Carsten - Greta's boyfriend", "credit_id": "52fe4739c3a36847f812a1e9", "gender": 0, "id": 139112, "name": "Krister Ekman", "order": 2, "profile_path": null}, {"cast_id": 7, "character": "Bjorn - Carsten's friend (as Leif Naslun)", "credit_id": "52fe4739c3a36847f812a1ed", "gender": 0, "id": 139113, "name": "Leif Naeslund", "order": 3, "profile_path": null}, {"cast_id": 8, "character": "Inga and Greta's father", "credit_id": "52fe4739c3a36847f812a1f1", "gender": 0, "id": 24369, "name": "Per-Axel Arosenius", "order": 4, "profile_path": null}, {"cast_id": 9, "character": "Inga and Greta's mother (as Itela Frodi)", "credit_id": "52fe4739c3a36847f812a1f5", "gender": 1, "id": 139114, "name": "Ittla Frodi", "order": 5, "profile_path": "/dIyFL3EkEeWiK2hOIkuQiEMtZyN.jpg"}, {"cast_id": 10, "character": "Helen - Inga's friend", "credit_id": "52fe4739c3a36847f812a1f9", "gender": 1, "id": 24552, "name": "Tina Hedstr\u00f6m", "order": 6, "profile_path": "/CaSlRH4lT5cRHTaTyd8oGDKFPX.jpg"}, {"cast_id": 14, "character": "Ole, a guy", "credit_id": "5835f46a92514131a100109b", "gender": 2, "id": 1713186, "name": "Henrik Meyer", "order": 7, "profile_path": null}, {"cast_id": 12, "character": "Brita - the dream girl (as Vivianne Ojengen)", "credit_id": "52fe4739c3a36847f812a201", "gender": 0, "id": 139115, "name": "Wivian \u00d6iangen", "order": 8, "profile_path": null}, {"cast_id": 13, "character": "Leonard", "credit_id": "52fe4739c3a36847f812a205", "gender": 0, "id": 139116, "name": "Jim Engelau", "order": 9, "profile_path": null}], "crew": [{"credit_id": "52fe4739c3a36847f812a1d1", "department": "Directing", "gender": 2, "id": 139107, "job": "Director", "name": "Dan Wolman", "profile_path": "/qr83K1R6gbT4oq8WAWFx16k4GOA.jpg"}, {"credit_id": "52fe4739c3a36847f812a1d7", "department": "Writing", "gender": 0, "id": 139108, "job": "Writer", "name": "Ronnie Friedland", "profile_path": null}, {"credit_id": "52fe4739c3a36847f812a1dd", "department": "Writing", "gender": 0, "id": 139110, "job": "Writer", "name": "George T. Norris", "profile_path": null}]}}