{"adult": false, "backdrop_path": "/9MpBBo5VX7QIOLzDwHPf3JyQiAY.jpg", "belongs_to_collection": null, "budget": 0, "genres": [{"id": 10402, "name": "Music"}, {"id": 99, "name": "Documentary"}], "homepage": null, "id": 476161, "imdb_id": "tt7419338", "original_language": "en", "original_title": "The Rolling Stones: From The Vault - Sticky Fingers Live at the Fonda Theatre 2015", "overview": "The Rolling Stones kicked off their 2015 North American tour at the Fonda Theatre where they performed the entire Sticky Fingers album.", "popularity": 1.4, "poster_path": "/oSXDfqXpvUOJFYcoUJrfZrzBxcp.jpg", "production_companies": [], "production_countries": [], "release_date": "2017-09-29", "revenue": 0, "runtime": 87, "spoken_languages": [{"iso_639_1": "en", "name": "English"}], "status": "Released", "tagline": "", "title": "The Rolling Stones: From The Vault - Sticky Fingers Live at the Fonda Theatre 2015", "video": true, "vote_average": 10.0, "vote_count": 1, "keywords": {"keywords": [{"id": 5282, "name": "the rolling stones"}]}, "similar": {"page": 1, "results": [{"id": 7944, "video": false, "vote_count": 87, "vote_average": 7.2, "title": "Shine a Light", "release_date": "2008-02-07", "original_language": "en", "original_title": "Shine a Light", "genre_ids": [99, 10402], "backdrop_path": "/iU606VnpDQGAythRD9fEOdUbRfZ.jpg", "adult": false, "overview": "Martin Scorsese and the Rolling Stones unite in \"Shine A Light,\" a look at The Rolling Stones.\" Scorsese filmed the Stones over a two-day period at the intimate Beacon Theater in New York City in fall 2006. Cinematographers capture the raw energy of the legendary band.", "poster_path": "/28Lbw8CG5jX4nRB7O3dBmbtpzr7.jpg", "popularity": 8.976}, {"id": 23825, "video": false, "vote_count": 9, "vote_average": 6.6, "title": "Rock School", "release_date": "2005-02-27", "original_language": "en", "original_title": "Rock School", "genre_ids": [28, 99, 10402], "backdrop_path": "/8MN98zHLTsaEuoZVZbjHjF9guPx.jpg", "adult": false, "overview": "It is about a music school in Philadelphia, The Paul Green School of Rock Music, run by Paul Green that teaches kids ages 9 to 17 how to play rock music and be rock stars. Paul Green teaches his students how to play music such as Black Sabbath and Frank Zappa better than anyone expects them to by using a unique style of teaching that includes getting very angry and acting childish.", "poster_path": "/9yyIDpDoq5MBVFqZGvaPg4dAeAK.jpg", "popularity": 3.619}, {"id": 627081, "video": false, "vote_count": 1, "vote_average": 8.0, "title": "Ronnie Wood: Somebody Up There Likes Me", "release_date": "2019-10-12", "original_language": "en", "original_title": "Ronnie Wood: Somebody Up There Likes Me", "genre_ids": [99, 10402], "backdrop_path": null, "adult": false, "overview": "Mike Figgis\u2019 enthralling documentary about the turbulent life and career of Ronnie Wood, legendary rock guitarist and long-time member of The Rolling Stones.", "poster_path": null, "popularity": 1.52}, {"id": 6575, "video": false, "vote_count": 364, "vote_average": 6.6, "title": "Walk Hard: The Dewey Cox Story", "release_date": "2007-12-21", "original_language": "en", "original_title": "Walk Hard: The Dewey Cox Story", "genre_ids": [35, 18, 10402], "backdrop_path": "/y7EElGAn1tFE0Npmls7uvg4HPVj.jpg", "adult": false, "overview": "Following a childhood tragedy, Dewey Cox follows a long and winding road to music stardom. Dewey perseveres through changing musical styles, an addiction to nearly every drug known and bouts of uncontrollable rage.", "poster_path": "/2sc7qoLTqZC0nB2k1crwuVoKP6H.jpg", "popularity": 15.669}, {"adult": false, "backdrop_path": "/o6qi9BMbrg9MnVipUXPw1mhjims.jpg", "genre_ids": [10402], "id": 346486, "original_language": "en", "original_title": "The Rolling Stones From The Vault - The Marquee Club Live in 1971", "overview": "'From The Vault' is a series of live concerts from The Rolling Stones archive which are getting their first official release. 'The Marquee Live In 1971' is the latest addition to the series. The show was filmed at London's legendary Marquee club on March 26th 1971, shortly after the finish of the band's 1971 UK tour and about a month before the release of the 'Sticky Fingers' album in late April. Mick Taylor was now fully integrated into the group and the band had used the tour to showcase some of the tracks from the forthcoming album. The show at the Marquee was filmed for American television and four songs from the 'Sticky Fingers' album were featured, including the rarely performed 'I Got The Blues'. The footage has now been carefully restored and the sound has been newly mixed by Bob Clearmountain for this first official release of the show.", "poster_path": "/nLdAeiBSZPFtOEUghretS0cHMvY.jpg", "release_date": "2015-06-22", "title": "The Rolling Stones From The Vault - The Marquee Club Live in 1971", "video": true, "vote_average": 7.0, "vote_count": 1, "popularity": 1.272}, {"id": 786, "video": false, "vote_count": 1485, "vote_average": 7.5, "title": "Almost Famous", "release_date": "2000-09-15", "original_language": "en", "original_title": "Almost Famous", "genre_ids": [18, 10402], "backdrop_path": "/zfucY8mxcrNeopFneyvyERZQah1.jpg", "adult": false, "overview": "In 1973, 15-year-old William Miller's unabashed love of music and aspiration to become a rock journalist lands him an assignment from Rolling Stone magazine to interview and tour with the up-and-coming band Stillwater\u2014fronted by lead guitar Russell Hammond, and lead singer Jeff Bebe.", "poster_path": "/9pNo92j6zSEAUB8pNmcJTkpnkBF.jpg", "popularity": 17.801}, {"id": 2179, "video": false, "vote_count": 887, "vote_average": 6.7, "title": "Tenacious D in The Pick of Destiny", "release_date": "2006-11-22", "original_language": "en", "original_title": "Tenacious D in The Pick of Destiny", "genre_ids": [35, 10402], "backdrop_path": "/9mVTP2P5yvW4MgygJQMI7WA6B6h.jpg", "adult": false, "overview": "In Venice Beach, naive Midwesterner JB bonds with local slacker KG and they form the rock band Tenacious D. Setting out to become the world's greatest band is no easy feat, so they set out to steal what could be the answer to their prayers... a magical guitar pick housed in a rock-and-roll museum some 300 miles away.", "poster_path": "/gQThU8AftVJEBug4ToHUbQ3Lg7M.jpg", "popularity": 12.687}, {"adult": false, "backdrop_path": "/cgSuQyUToypNQXoOBJSjYwkJQ2K.jpg", "genre_ids": [99, 10402], "id": 47246, "original_language": "en", "original_title": "Ladies & Gentlemen: The Rolling Stones", "overview": "A concert film taken from two Rolling Stones concerts during their 1972 North American tour. In 1972, the Stones bring their Exile on Main Street tour to Texas: 15 songs, with five from the \"Exile\" album. Mick Jagger, Keith Richards, Mick Taylor, Charlie Watts, and Bill Wyman on a small stage with three other musicians. Until the lights come up near the end, we see the Stones against a black background. The camera stays mostly on Jagger, with a few shots of Taylor. Richards is on screen for his duets and for some guitar work on the final two songs. It's music from start to finish: hard rock (\"All Down the Line\"), the blues (\"Love in Vain\" and \"Midnight Rambler\"), a tribute to Chuck Berry (\"Bye Bye Johnny\"), and no \"Satisfaction.\"", "poster_path": "/mpPuWqALdCGF0gz8LhHfD71fJBS.jpg", "release_date": "1973-12-01", "title": "Ladies & Gentlemen: The Rolling Stones", "video": false, "vote_average": 5.1, "vote_count": 4, "popularity": 4.347}, {"adult": false, "backdrop_path": "/j6YCBaomMfT3SsHmDFKkdVqYwIP.jpg", "genre_ids": [99], "id": 151787, "original_language": "en", "original_title": "British Rock: The First Wave", "overview": "A history of the rise of rock and roll in England from the 1950's through 1970 and its effects on American popular music.  Beatles - \"She loves You\", \"Twist and Shout\", \"I Saw Her Standing There\", \"Can't Buy Me love\", \"She's a Woman\"  Gerry &amp; The Pacemakers - \"It's Gonna be Alright\", \"Ferry Cross the Mersey\"  Brian Poole &amp; The Tremeloes - \"Do you Love me\"  The Hollies - \"Just One Look\"  The Rolling Stones - \"I Just Wanna Make Love To You\", \"I Wanna be Your Man\", \"Around and Around\"  The Animals - \"The House Of The Rising Sun\", We ve Gotta Get out of This Place\"  The Kings - \"All Day and all of the Night\"  Freddie &amp; the Dreamers - \"I'm Telling You Now\"  Manfred Mann - \"Do Wah Diddy Diddy\"  Herman's Hermits - \"Mrs. Brown You've Got a Lovely Daughter\"  Spencer Davis Group - \"I'm a Men  The Who - \"Can't Explain\", \"My Generation\"  Yardbirds - \"Heart Full of Soul\"  Cream - \"Tales of Brave Ulysses\"", "poster_path": "/radPD4ET7qd6wyAHxBbA8SlZuJK.jpg", "release_date": "1985-10-10", "title": "British Rock: The First Wave", "video": false, "vote_average": 0.0, "vote_count": 0, "popularity": 0.6}, {"adult": false, "backdrop_path": null, "genre_ids": [99], "id": 284603, "original_language": "en", "original_title": "Rock of Ages: The Rolling Stones", "overview": "For over four decades the Rolling Stones have been on top. Arrests, drugs, fall-outs, death and relationships have stood center stage with eight consecutive number one albums in the US and sold out live shows.", "poster_path": "/qVW6wsx13NrlmUYFPFywfd1mMKd.jpg", "release_date": "2008-01-01", "title": "Rock of Ages: The Rolling Stones", "video": false, "vote_average": 0.0, "vote_count": 0, "popularity": 0.631}, {"adult": false, "backdrop_path": "/yo6GwtyPjSIj59rAOGlXDBD59gG.jpg", "genre_ids": [99, 10402], "id": 327737, "original_language": "en", "original_title": "Video Rewind: The Rolling Stones' Great Video Hits", "overview": "Video Rewind by The Rolling Stones is a compilation of video clips recorded between 1972\u20131984. Instead of just presenting unrelated clips and videos just strung together, it uses a framing 'story', featuring Bill Wyman and Mick Jagger, directed by Julien Temple and includes some video directed by Michael Lindsay-Hogg. It was first released in 1984 on the VHS, Laserdisc, and CED Videodisc format by Vestron home video.", "poster_path": "/AoBdb0y7HmsaqdoqU0PMDYBHhIn.jpg", "release_date": "1984-06-15", "title": "Video Rewind: The Rolling Stones' Great Video Hits", "video": false, "vote_average": 7.5, "vote_count": 1, "popularity": 0.6}, {"id": 612738, "video": false, "vote_count": 0, "vote_average": 0.0, "title": "People In A Film", "release_date": "2019-12-20", "original_language": "en", "original_title": "People In A Film", "genre_ids": [99], "backdrop_path": null, "adult": false, "overview": "Chronicles the musical career of British post-punk art rockers Wire.", "poster_path": "/l9uceh7mGbgGxs6ycfTRsjDeak5.jpg", "popularity": 0.757}, {"adult": false, "backdrop_path": "/uqLUeQR6wg80RMlcIbQQHIv8EDW.jpg", "genre_ids": [10402, 35], "id": 8873, "original_language": "en", "original_title": "Wayne's World 2", "overview": "A message from Jim Morrison in a dream prompts cable access TV stars Wayne and Garth to put on a rock concert, \"Waynestock,\" with Aerosmith as headliners. But amid the preparations, Wayne frets that a record producer is putting the moves on his girlfriend, Cassandra, while Garth handles the advances of mega-babe Honey Hornee.", "poster_path": "/pBs9DuzWhqWX7vPjzB6AvAXKXzM.jpg", "release_date": "1993-12-10", "title": "Wayne's World 2", "video": false, "vote_average": 6.0, "vote_count": 559, "popularity": 12.006}, {"id": 10186, "video": false, "vote_count": 324, "vote_average": 5.8, "title": "The Rocker", "release_date": "2008-08-20", "original_language": "en", "original_title": "The Rocker", "genre_ids": [35, 10402], "backdrop_path": "/wyAJgNSphpSI2NYWg4VIxN2w8i9.jpg", "adult": false, "overview": "Rob \"Fish\" Fishman is the drummer in '80s hair metal band Vesuvius. He's unceremoniously booted as the group signs a big record deal, is out of the music world for 20 years - and then receives a second chance with his nephew's band.", "poster_path": "/yQfng0iKQVuGDdI5JeoKPINlXuH.jpg", "popularity": 9.137}, {"id": 1665, "video": false, "vote_count": 197, "vote_average": 5.7, "title": "Last Days", "release_date": "2005-05-13", "original_language": "en", "original_title": "Last Days", "genre_ids": [18, 10402], "backdrop_path": "/sII47h9zFOwBZ2KBozYKM06JXUz.jpg", "adult": false, "overview": "The life and struggles of a notorious rock musician seeping into a pit of loneliness whose everyday life involves friends and family seeking financial aid and favors, inspired by rock music legend Kurt Cobain and his final hours.", "poster_path": "/zNv8Jy1WP94tBE63OSAXuNUcBpG.jpg", "popularity": 14.351}, {"adult": false, "backdrop_path": "/pM1CnP0ZN2VxmrTAbBZOS3PNoNE.jpg", "genre_ids": [35, 10402], "id": 1584, "original_language": "en", "original_title": "School of Rock", "overview": "Fired from his band and hard up for cash, guitarist and vocalist Dewey Finn finagles his way into a job as a fifth-grade substitute teacher at a private school, where he secretly begins teaching his students the finer points of rock 'n' roll. The school's hard-nosed principal is rightly suspicious of Finn's activities. But Finn's roommate remains in the dark about what he's doing.", "poster_path": "/cREN222Yw78zvSQ9bg17Y9QZS0c.jpg", "release_date": "2003-10-03", "title": "School of Rock", "video": false, "vote_average": 7.0, "vote_count": 3292, "popularity": 23.266}, {"adult": false, "backdrop_path": "/pQOs5bwFpaimeaK5PA2XXteU1Ly.jpg", "genre_ids": [10402, 99], "id": 20575, "original_language": "en", "original_title": "Queen: Live at Wembley Stadium", "overview": "One of the world's biggest bands return to the scene of their Live Aid (1985) triumph a year earlier to play all their greatest hits in front of a packed Wembley Stadium.", "poster_path": "/qztOmfZ8uLPN3MUNHJd8GaJST2V.jpg", "release_date": "1986-07-12", "title": "Live at Wembley Stadium", "video": false, "vote_average": 8.7, "vote_count": 49, "popularity": 8.207}, {"id": 132, "video": false, "vote_count": 71, "vote_average": 7.6, "title": "Gimme Shelter", "release_date": "1970-12-06", "original_language": "en", "original_title": "Gimme Shelter", "genre_ids": [99, 10402], "backdrop_path": "/k74ezjZNmap2FpkxuO85NnWmcn.jpg", "adult": false, "overview": "The landmark documentary about the tragically ill-fated Rolling Stones free concert at Altamont Speedway on December 6, 1969. Only four months earlier, Woodstock defined the Love Generation; now it lay in ruins on a desolate racetrack six miles outside of San Francisco.", "poster_path": "/9cQ6TLG89Yv2EMKuxgLRvgLq5nK.jpg", "popularity": 8.569}, {"id": 333667, "video": false, "vote_count": 137, "vote_average": 5.8, "title": "Rock Dog", "release_date": "2016-07-08", "original_language": "en", "original_title": "Rock Dog", "genre_ids": [12, 16, 35, 10402, 10751], "backdrop_path": "/vHiTIgoIoF1rjnjeC4n3qYaZ7Ua.jpg", "adult": false, "overview": "When a radio falls from the sky into the hands of a wide-eyed Tibetan Mastiff, he leaves home to fulfill his dream of becoming a musician, setting into motion a series of completely unexpected events.", "poster_path": "/7RXi2afiNJGU8EB79SD8HYoSz4O.jpg", "popularity": 12.746}, {"id": 473334, "video": false, "vote_count": 25, "vote_average": 7.3, "title": "My Generation", "release_date": "2017-10-08", "original_language": "en", "original_title": "My Generation", "genre_ids": [99, 36, 10402], "backdrop_path": "/2vspUZpK3oMI6yv7SJ735Vp1G6q.jpg", "adult": false, "overview": "The vivid and inspiring story of British film icon Michael Caine's personal journey through 1960s swinging London.", "poster_path": "/zCkYEunEjNucd2ESUaOjWzXhAdE.jpg", "popularity": 4.312}], "total_pages": 22, "total_results": 427}, "recommendations": {"page": 1, "results": [], "total_pages": 1, "total_results": 0}, "credits": {"cast": [{"cast_id": 0, "character": "Himself", "credit_id": "59bd8d6ac3a3681b6e017570", "gender": 2, "id": 1428, "name": "Mick Jagger", "order": 1, "profile_path": "/lnW255mXyX6K8agSNwhj8H06CoC.jpg"}, {"cast_id": 3, "character": "Himself", "credit_id": "59fc303c925141138b027ac8", "gender": 2, "id": 1430, "name": "Keith Richards", "order": 2, "profile_path": "/t1oa5UsJMmrhNqCIks4jQnAYSQT.jpg"}, {"cast_id": 4, "character": "Himself", "credit_id": "59fc305c92514113dd025ec1", "gender": 2, "id": 1429, "name": "Charlie Watts", "order": 3, "profile_path": "/opj3O4sJrNHPmhcg7vtCPi8aEE5.jpg"}, {"cast_id": 5, "character": "himself", "credit_id": "59fc307692514113bb026267", "gender": 2, "id": 53396, "name": "Ron Wood", "order": 4, "profile_path": "/pdIHM9edy0Pv6A5FzlHSCmNoXVX.jpg"}, {"cast_id": 6, "character": "Himself - Bass Guitar, Backing Vocals", "credit_id": "59fc3166c3a3681abb02648b", "gender": 2, "id": 1179601, "name": "Darryl Jones", "order": 5, "profile_path": "/D5OSz9L8NsaY4DK6eIaLVXjjtU.jpg"}, {"cast_id": 7, "character": "Himself - Keyboards, Musical Director", "credit_id": "59fc318dc3a3681adf0246ab", "gender": 0, "id": 1019402, "name": "Chuck Leavell", "order": 6, "profile_path": null}, {"cast_id": 8, "character": "Himself - Saxophone", "credit_id": "59fc31a79251411383027654", "gender": 0, "id": 1318592, "name": "Karl Denson", "order": 7, "profile_path": null}, {"cast_id": 9, "character": "Himself - Saxophone, Keyboards", "credit_id": "59fc31c292514113a6025569", "gender": 0, "id": 1448157, "name": "Tim Ries", "order": 8, "profile_path": null}, {"cast_id": 10, "character": "Himself - Musical Integrator", "credit_id": "59fc31e0925141138302768a", "gender": 0, "id": 1916646, "name": "Matt Clifford", "order": 9, "profile_path": null}, {"cast_id": 11, "character": "Himself - Vocals", "credit_id": "59fc31f5925141137f0278f8", "gender": 0, "id": 1179600, "name": "Bernard Fowler", "order": 10, "profile_path": null}, {"cast_id": 12, "character": "Himself - Vocals", "credit_id": "59fc320cc3a3681a3f023985", "gender": 0, "id": 1916647, "name": "Lisa Fisher", "order": 11, "profile_path": null}], "crew": [{"credit_id": "59fc324dc3a3681abb026546", "department": "Production", "gender": 0, "id": 1644781, "job": "Executive Producer", "name": "Joyce Smyth", "profile_path": null}, {"credit_id": "59fc326bc3a3681acd02675e", "department": "Directing", "gender": 0, "id": 572551, "job": "Director", "name": "Paul Dugdale", "profile_path": "/bWM0X1OMVml3FhDph4EGcs3QtHC.jpg"}, {"credit_id": "59fc328cc3a3681a1b028426", "department": "Production", "gender": 0, "id": 1129325, "job": "Producer", "name": "Jim Parsons", "profile_path": null}, {"credit_id": "59fc32b6c3a3681a3f023a13", "department": "Production", "gender": 0, "id": 544867, "job": "Executive Producer", "name": "Julie Jakobek", "profile_path": null}, {"credit_id": "59fc32d292514113e70267d3", "department": "Production", "gender": 0, "id": 1882379, "job": "Line Producer", "name": "Simon Fisher", "profile_path": null}, {"credit_id": "59fc32f4925141137f0279f1", "department": "Production", "gender": 0, "id": 1916649, "job": "Production Coordinator", "name": "Liz Kruse", "profile_path": null}, {"credit_id": "59fc333992514113e7026822", "department": "Sound", "gender": 0, "id": 1085005, "job": "Sound Mixer", "name": "Bob Clearmountain", "profile_path": null}, {"credit_id": "59fc3363c3a3681acd026855", "department": "Camera", "gender": 2, "id": 84804, "job": "Director of Photography", "name": "Brett Turnbull", "profile_path": null}, {"credit_id": "59fc339292514113bf026443", "department": "Camera", "gender": 0, "id": 1916650, "job": "Camera Supervisor", "name": "Mat Hill", "profile_path": null}, {"credit_id": "59fc33acc3a3681abb0266c1", "department": "Editing", "gender": 0, "id": 1680902, "job": "Editor", "name": "Simon Bryant", "profile_path": null}, {"credit_id": "59fc33bb92514113bf026475", "department": "Editing", "gender": 2, "id": 1680903, "job": "Editor", "name": "Tom Watson", "profile_path": null}]}}