{"adult": false, "backdrop_path": "/2I6PqbEyBswzxszEB3OqbMSMvUS.jpg", "belongs_to_collection": null, "budget": 160000, "genres": [{"id": 99, "name": "Documentary"}], "homepage": "http://www.williamsburroughsthemovie.com/", "id": 47753, "imdb_id": "tt1466072", "original_language": "en", "original_title": "William S. Burroughs: A Man Within", "overview": "A riveting and emotional journey into the world of writer William S. Burroughs, a man considered as cold as an iceberg on a winter night.", "popularity": 4.643, "poster_path": "/2ibZjkVG0E43Pkxb4Vk0vySUSn9.jpg", "production_companies": [{"id": 4748, "logo_path": "/bTMeosrSiKaTPmZiTYnSDZlin5d.png", "name": "Oscilloscope", "origin_country": "US"}, {"id": 69323, "logo_path": null, "name": "Bulletproof Films", "origin_country": ""}], "production_countries": [{"iso_3166_1": "US", "name": "United States of America"}], "release_date": "2010-11-05", "revenue": 0, "runtime": 88, "spoken_languages": [{"iso_639_1": "en", "name": "English"}], "status": "Released", "tagline": "", "title": "William S. Burroughs: A Man Within", "video": false, "vote_average": 6.5, "vote_count": 14, "keywords": {"keywords": [{"id": 13028, "name": "writer"}]}, "similar": {"page": 1, "results": [{"id": 340613, "video": false, "vote_count": 605, "vote_average": 7.2, "title": "The Wife", "release_date": "2018-08-02", "original_language": "en", "original_title": "The Wife", "genre_ids": [18], "backdrop_path": "/jvLrBlzdlJuDZtLunkCCd0eOXSm.jpg", "adult": false, "overview": "A wife questions her life choices as she travels to Stockholm with her husband, where he is slated to receive the Nobel Prize for Literature.", "poster_path": "/d4Qyuy0Ul549f6SOdUqGvIdYKD2.jpg", "popularity": 15.049}, {"adult": false, "backdrop_path": "/bQW1TnxHlmkWof0vsALj4HBkoxj.jpg", "genre_ids": [18, 10749], "id": 51828, "original_language": "en", "original_title": "One Day", "overview": "A romantic comedy centered on Dexter and Emma, who first meet during their graduation in 1988 and proceed to keep in touch regularly. The film follows what they do on July 15 annually, usually doing something together.", "poster_path": "/xzOz17yC3K6SZWtWylXimcHUqpD.jpg", "release_date": "2011-03-02", "title": "One Day", "video": false, "vote_average": 7.2, "vote_count": 2342, "popularity": 15.269}, {"adult": false, "backdrop_path": "/fJQ5kjLx4UdK05MC323Vlzwr6S8.jpg", "genre_ids": [35, 18, 36], "id": 140823, "original_language": "en", "original_title": "Saving Mr. Banks", "overview": "Author P.L. Travers travels from London to Hollywood as Walt Disney Pictures adapts her novel Mary Poppins for the big screen.", "poster_path": "/mvs3reS18RP6IhjLwwLeVtkoeg0.jpg", "release_date": "2013-11-16", "title": "Saving Mr. Banks", "video": false, "vote_average": 7.4, "vote_count": 2230, "popularity": 17.126}, {"id": 824, "video": false, "vote_count": 2858, "vote_average": 7.6, "title": "Moulin Rouge!", "release_date": "2001-03-09", "original_language": "en", "original_title": "Moulin Rouge!", "genre_ids": [18, 10749], "backdrop_path": "/ibXhTCxthtwhMj84XJq8W4KtQDt.jpg", "adult": false, "overview": "A celebration of love and creative inspiration takes place in the infamous, gaudy and glamorous Parisian nightclub, at the cusp of the 20th century. A young poet, who is plunged into the heady world of Moulin Rouge, begins a passionate affair with the club's most notorious and beautiful star.", "poster_path": "/xhuQz2yKPlWvMvvnf2u9RVkAQx6.jpg", "popularity": 19.418}, {"adult": false, "backdrop_path": "/sqq5nDBcgTDrIJ3Hcqq8q4a1iut.jpg", "genre_ids": [35, 18, 14, 10749], "id": 1262, "original_language": "en", "original_title": "Stranger Than Fiction", "overview": "Harold Crick is a lonely IRS agent whose mundane existence is transformed when he hears a mysterious voice narrating his life.", "poster_path": "/AtjCCvfMq9kmjwjbVwTJ0mWG7zp.jpg", "release_date": "2006-09-09", "title": "Stranger Than Fiction", "video": false, "vote_average": 7.2, "vote_count": 1338, "popularity": 14.309}, {"id": 9326, "video": false, "vote_count": 938, "vote_average": 6.7, "title": "Romancing the Stone", "release_date": "1984-03-30", "original_language": "en", "original_title": "Romancing the Stone", "genre_ids": [28, 12, 35, 10749], "backdrop_path": "/5MNAokmkK4NPtYJCPmQ2fgErW9n.jpg", "adult": false, "overview": "Though she can spin wild tales of passionate romance, novelist Joan Wilder has no life of her own. Then one day adventure comes her way in the form of a mysterious package. It turns out that the parcel is the ransom she'll need to free her abducted sister, so Joan flies to South America to hand it over. But she gets on the wrong bus and winds up hopelessly stranded in the jungle.", "poster_path": "/3TqpkTYiltYsxYatdug6WDgdRKL.jpg", "popularity": 22.83}, {"adult": false, "backdrop_path": "/8SQkkMqHqYPaJZsYmxmBp8mQY3M.jpg", "genre_ids": [18, 53], "id": 340666, "original_language": "en", "original_title": "Nocturnal Animals", "overview": "Susan Morrow receives a book manuscript from her ex-husband \u2013 a man she left 20 years earlier \u2013 asking for her opinion of his writing. As she reads, she is drawn into the fictional life of Tony Hastings, a mathematics professor whose family vacation turns violent.", "poster_path": "/6yf5tQgzbLj1HomN6vGqfBggpx9.jpg", "release_date": "2016-11-04", "title": "Nocturnal Animals", "video": false, "vote_average": 7.4, "vote_count": 4697, "popularity": 16.569}, {"id": 267192, "video": false, "vote_count": 434, "vote_average": 6.5, "title": "Genius", "release_date": "2016-06-10", "original_language": "en", "original_title": "Genius", "genre_ids": [18, 36], "backdrop_path": "/5eovlgVfijObBm4TtW1QSaj32q3.jpg", "adult": false, "overview": "New York in the 1920s. Max Perkins, a literary editor is the first to sign such subsequent literary greats as Ernest Hemingway and F. Scott Fitzgerald. When a sprawling, chaotic 1,000-page manuscript by an unknown writer falls into his hands, Perkins is convinced he has discovered a literary genius.", "poster_path": "/nwnmZkRkXpu11Zfku8DUSRu7JWs.jpg", "popularity": 10.301}, {"adult": false, "backdrop_path": "/ry3ov4M7rs3jKObMjELOqd5S0K3.jpg", "genre_ids": [35, 10749], "id": 271718, "original_language": "en", "original_title": "Trainwreck", "overview": "Having thought that monogamy was never possible, a commitment-phobic career woman may have to face her fears when she meets a good guy.", "poster_path": "/2USk7mhiCXRkU9NzttXCzOjg2iV.jpg", "release_date": "2015-07-17", "title": "Trainwreck", "video": false, "vote_average": 5.8, "vote_count": 1863, "popularity": 23.629}, {"id": 72113, "video": false, "vote_count": 1664, "vote_average": 7.2, "title": "Carnage", "release_date": "2011-09-16", "original_language": "en", "original_title": "Carnage", "genre_ids": [35, 18], "backdrop_path": "/9KGWIK8dylbvQTa4LeB2ESKH8FC.jpg", "adult": false, "overview": "After 11-year-old Zachary Cowan strikes his classmate across the face with a stick after an argument, the victim's parents invite Zachary's parents to their Brooklyn apartment to deal with the incident in a civilized manner.", "poster_path": "/1nhY2l0SffJ5nK8FaeiRaMblN3d.jpg", "popularity": 12.603}, {"id": 120467, "video": false, "vote_count": 8928, "vote_average": 8.0, "title": "The Grand Budapest Hotel", "release_date": "2014-02-26", "original_language": "en", "original_title": "The Grand Budapest Hotel", "genre_ids": [35, 18], "backdrop_path": "/5FPUoQtnNC0C0YZ7sUeTLq6eZqa.jpg", "adult": false, "overview": "The Grand Budapest Hotel tells of a legendary concierge at a famous European hotel between the wars and his friendship with a young employee who becomes his trusted prot\u00e9g\u00e9. The story involves the theft and recovery of a priceless Renaissance painting, the battle for an enormous family fortune and the slow and then sudden upheavals that transformed Europe during the first half of the 20th century.", "poster_path": "/nX5XotM9yprCKarRH4fzOq1VM1J.jpg", "popularity": 24.684}, {"id": 51876, "video": false, "vote_count": 6908, "vote_average": 7.2, "title": "Limitless", "release_date": "2011-03-08", "original_language": "en", "original_title": "Limitless", "genre_ids": [9648, 878, 53], "backdrop_path": "/9ISArgiVBdNLASKmvflRDMOYYMj.jpg", "adult": false, "overview": "A paranoia-fueled action thriller about an unsuccessful writer whose life is transformed by a top-secret \"smart drug\" that allows him to use 100% of his brain and become a perfect version of himself. His enhanced abilities soon attract shadowy forces that threaten his new life in this darkly comic and provocative film.", "poster_path": "/bQfOFEeXxi51ijQrbQY9qvMtYhZ.jpg", "popularity": 22.106}, {"adult": false, "backdrop_path": "/ojsY0XyCSsJvm0n7YTwumQcvBqT.jpg", "genre_ids": [9648, 53], "id": 1586, "original_language": "en", "original_title": "Secret Window", "overview": "Mort Rainey, a writer just emerging from a painful divorce with his ex-wife, is stalked at his remote lake house by a psychotic stranger and would-be scribe who claims Rainey swiped his best story idea. But as Rainey endeavors to prove his innocence, he begins to question his own sanity.", "poster_path": "/f5t7Df50xjniLlE80ty2dYsZBqI.jpg", "release_date": "2004-03-12", "title": "Secret Window", "video": false, "vote_average": 6.5, "vote_count": 2124, "popularity": 16.571}, {"id": 401847, "video": false, "vote_count": 664, "vote_average": 6.8, "title": "Can You Ever Forgive Me?", "release_date": "2018-10-19", "original_language": "en", "original_title": "Can You Ever Forgive Me?", "genre_ids": [35, 80, 18], "backdrop_path": "/shIOFWkjTn2NRvq5r4Mn2xLdZeJ.jpg", "adult": false, "overview": "When a bestselling celebrity biographer is no longer able to get published because she has fallen out of step with current tastes, she turns her art form to deception.", "poster_path": "/hPuZR2bFoV0kuBrA98exWyvTf40.jpg", "popularity": 18.675}, {"id": 1398, "video": false, "vote_count": 866, "vote_average": 8.3, "title": "Stalker", "release_date": "1979-05-25", "original_language": "ru", "original_title": "\u0421\u0442\u0430\u043b\u043a\u0435\u0440", "genre_ids": [18, 878], "backdrop_path": "/m7yrs7Sw5WpUNJdqDjEhkNJVpxt.jpg", "adult": false, "overview": "Near a gray and unnamed city is the Zone, a place guarded by barbed wire and soldiers, and where the normal laws of physics are victim to frequent anomalies. A stalker guides two men into the Zone, specifically to an area in which deep-seated desires are granted.", "poster_path": "/lUE0Bp7wH0EterJ44qMRsqtKFnp.jpg", "popularity": 17.402}, {"adult": false, "backdrop_path": "/r8pjTYuz3fDOFAhHNrhrsrh9lNa.jpg", "genre_ids": [18], "id": 294016, "original_language": "en", "original_title": "Trumbo", "overview": "The career of screenwriter Dalton Trumbo is halted by a witch hunt in the late 1940s when he defies the anti-communist HUAC committee and is blacklisted.", "poster_path": "/zShoKppVxFtRP8pIVeVQ4j2DEkz.jpg", "release_date": "2015-10-27", "title": "Trumbo", "video": false, "vote_average": 7.2, "vote_count": 971, "popularity": 9.737}, {"id": 340674, "video": false, "vote_count": 186, "vote_average": 4.5, "title": "Dark Crimes", "release_date": "2018-05-18", "original_language": "en", "original_title": "Dark Crimes", "genre_ids": [80, 18, 53], "backdrop_path": "/7vR0frpPSBhToKKESNfnPfDTY8y.jpg", "adult": false, "overview": "A Polish detective becomes suspicious of a controversial author when the incidents described in his unpublished novel resemble the inner workings of an unsolved murder.", "poster_path": "/bEwK1r4pmJ9huEjqrZf73NXJvFy.jpg", "popularity": 16.376}, {"adult": false, "backdrop_path": "/fAA0S3rM3o5Sp8TIdS0MvWOGsCQ.jpg", "genre_ids": [18, 10749], "id": 843, "original_language": "cn", "original_title": "\u82b1\u6a23\u5e74\u83ef", "overview": "Taking place in Hong Kong of 1962, a melancholy story about the love between a woman and a man who live in the same building and one day find out that their husband and wife had an affair with each other.", "poster_path": "/unOW3SxFxBdd7LMWjmRONdHWKPb.jpg", "release_date": "2000-05-22", "title": "In the Mood for Love", "video": false, "vote_average": 8.1, "vote_count": 962, "popularity": 15.474}, {"id": 41446, "video": false, "vote_count": 1791, "vote_average": 6.2, "title": "Scream 4", "release_date": "2011-04-11", "original_language": "en", "original_title": "Scream 4", "genre_ids": [27, 9648], "backdrop_path": "/5VqyrIpMbnwXdZFcISmtKr3n75A.jpg", "adult": false, "overview": "Sidney Prescott, now the author of a self-help book, returns home to Woodsboro on the last stop of her book tour. There she reconnects with Sheriff Dewey and Gale, who are now married, as well as her cousin Jill and her Aunt Kate. Unfortunately, Sidney's appearance also brings about the return of Ghostface, putting Sidney, Gale, and Dewey, along with Jill, her friends, and the whole town of Woodsboro in danger.", "poster_path": "/g0YcSd5QpgGXOjg9tl0if0soOkE.jpg", "popularity": 19.075}, {"adult": false, "backdrop_path": "/hm8Gux0946IfeJ1PZwztOo6lVHH.jpg", "genre_ids": [18, 36, 35], "id": 450322, "original_language": "en", "original_title": "The Man Who Invented Christmas", "overview": "In 1843, despite the fact that Dickens is a successful writer, the failure of his latest book puts his career at a crossroads, until the moment when, struggling with inspiration and confronting reality with his childhood memories, a new character is born in the depths of his troubled mind; an old, lonely, embittered man, so vivid, so human, that a whole world grows around him, a story so inspiring that changed the meaning of Christmas forever.", "poster_path": "/xYCuRgEKynGurSEooxDa9pQPF7n.jpg", "release_date": "2017-10-12", "title": "The Man Who Invented Christmas", "video": false, "vote_average": 6.7, "vote_count": 395, "popularity": 13.295}], "total_pages": 30, "total_results": 594}, "recommendations": {"page": 1, "results": [{"adult": false, "backdrop_path": "/hdmbjNLomQ1lVgyOJBYoKcSutt0.jpg", "genre_ids": [35, 18], "id": 34328, "original_language": "en", "original_title": "Monster in a Box", "overview": "This is the story of Spalding Gray and his attempt to write a novel. It is a first person account about writing and living, and dealing with success while trying to be successful.", "poster_path": "/aFH8FQlSKexX6f3NdsbEwqRwLN7.jpg", "release_date": "1992-05-15", "title": "Monster in a Box", "video": false, "vote_average": 5.2, "vote_count": 6, "popularity": 3.108}, {"id": 164337, "video": false, "vote_count": 5, "vote_average": 6.0, "title": "Apaches", "release_date": "1977-01-01", "original_language": "en", "original_title": "Apaches", "genre_ids": [28, 12, 18, 27, 37], "backdrop_path": "/bYGNsqWxjQzOQ26RVrq9mbJoZJ6.jpg", "adult": false, "overview": "A group of children play at being \"Apaches\" on an English farm, ignoring all safety precautions. One by one they die a variety of gruesome deaths.", "poster_path": "/rE4qDutjIyk64PR3zKP4mEX1Aaa.jpg", "popularity": 1.929}, {"adult": false, "backdrop_path": null, "genre_ids": [99], "id": 246209, "original_language": "en", "original_title": "Naked Making Lunch", "overview": "A 1992 documentary about the making of Naked Lunch.", "poster_path": "/hyMAbkhHh9Eq7xBLLFwduIVBMdb.jpg", "release_date": "1992-12-29", "title": "Naked Making Lunch", "video": false, "vote_average": 7.3, "vote_count": 3, "popularity": 1.331}, {"adult": false, "backdrop_path": "/bS8ECinoz8h8fNUtg3Hj0D9MhMl.jpg", "genre_ids": [99, 10402], "id": 53434, "original_language": "en", "original_title": "Jazz on a Summer's Day", "overview": "Set at the Newport jazz festival in 1958, this documentary mixes images of water and the town with performers and audience. The film progresses from day to night and from improvisational music to Gospel. It's a concert film that suggests peace and leisure, jazz at a particular time and place.", "poster_path": "/w6NNH5vpR3J8hFIByw7NyZNEyE9.jpg", "release_date": "1960-11-11", "title": "Jazz on a Summer's Day", "video": false, "vote_average": 7.4, "vote_count": 7, "popularity": 0.832}, {"adult": false, "backdrop_path": "/xgrYsSfvgZlQYXgrUWrBDO4h0wN.jpg", "genre_ids": [99], "id": 44038, "original_language": "en", "original_title": "Lovecraft: Fear of the Unknown", "overview": "A chronicle of the life, work and mind that created the Cthulhu mythos.", "poster_path": "/ngzUKBDPjOpdhTNaZDqG85sdfnA.jpg", "release_date": "2008-07-24", "title": "Lovecraft: Fear of the Unknown", "video": false, "vote_average": 7.2, "vote_count": 25, "popularity": 4.463}, {"adult": false, "backdrop_path": null, "genre_ids": [18, 10752], "id": 22114, "original_language": "ru", "original_title": "\u0421\u043e\u043b\u043e", "overview": "Lopushansky's second film focuses on a few hours in the life of a soloist musician during the siege of Leningrad, in WWII. The Leningrad philharmonic is going to play Tchaikovsky's 5th Symphony, which is to be broadcast to England. The soloist, like his fellow musicians, is weak and half-starved, and doubts whether he will be able to perform well enough.", "poster_path": "/qNo8nBDTrcZRJEcsNyfiDIKA2nt.jpg", "release_date": "1980-01-01", "title": "Solo", "video": false, "vote_average": 5.1, "vote_count": 9, "popularity": 2.641}, {"adult": false, "backdrop_path": "/t7rkU9fAthF8x4zGqVIGNeeUiAi.jpg", "genre_ids": [35, 878, 18], "id": 64454, "original_language": "de", "original_title": "Die Hamburger Krankheit", "overview": "When a plague breaks out in Hamburg, several people break out of quarantine and make their way out of the city... only to find that the plague is more widespread.", "poster_path": "/z4t67MO32fNU4W0Iql380vpPYsk.jpg", "release_date": "1979-11-22", "title": "The Hamburg Syndrome", "video": false, "vote_average": 5.7, "vote_count": 9, "popularity": 2.585}, {"adult": false, "backdrop_path": null, "genre_ids": [27, 35], "id": 92613, "original_language": "en", "original_title": "Tub", "overview": "About a guy who can't commit to his girlfriend... Who then jerks off in the shower. And accidentally impregnates his tub.", "poster_path": "/8RXUiDo74P77FXQHUL8z7FfJbzL.jpg", "release_date": "2010-01-22", "title": "Tub", "video": false, "vote_average": 5.1, "vote_count": 7, "popularity": 0.73}, {"adult": false, "backdrop_path": null, "genre_ids": [16], "id": 59363, "original_language": "en", "original_title": "Stille Nacht II: Are We Still Married?", "overview": "Stop-motion animated short film with a white ball, a rabbit, and a girl, and a voice singing \"Are We Still Married\".", "poster_path": "/zDEujbh3f6DIPYm7tbXGfE6Gs4n.jpg", "release_date": "1992-08-31", "title": "Stille Nacht II: Are We Still Married?", "video": false, "vote_average": 6.1, "vote_count": 13, "popularity": 1.081}, {"adult": false, "backdrop_path": "/24tOUTUcbUkx9m5CAgtNbmld3D8.jpg", "genre_ids": [10402], "id": 34659, "original_language": "en", "original_title": "Nine Inch Nails: Broken", "overview": "In 1992, Nine Inch Nails released the \"Broken\" EP. It was followed in 1993 by a short film, roughly 20 minutes in length, known as the \"Broken Movie\". The movie wove Broken's four music videos together via a violent \"snuff film\" and included its own video for the song \"Gave Up\" as its conclusion. Due to its extreme graphic content, the Broken Movie was never officially released. But in christmas 2006, Nin secretly released it on bittorrent along with the free 2 dvd set closure deluxe prototype.", "poster_path": "/7TMinXCxLgQ32Q3cVM93wAmnZFc.jpg", "release_date": "1993-01-01", "title": "Nine Inch Nails: Broken", "video": false, "vote_average": 7.5, "vote_count": 12, "popularity": 3.488}, {"adult": false, "backdrop_path": "/2M0uM1yQ77mBEkavWv8pgQbsyAq.jpg", "genre_ids": [99], "id": 36015, "original_language": "de", "original_title": "Botschaft der G\u00f6tter", "overview": "William Shatner explores the theory that the U.S. government is involved in a cover-up of visiting alien spacecraft. Based on a book by Erich von D\u00e4niken, this documentary contains evidence of extraterrestrial life here on earth. Proof discovered through photographs taken by scientists and evidence of actual voyages found by archaeologists.", "poster_path": "/ytgh9zOgGACxpgCEO6f38Zmf3YS.jpg", "release_date": "1976-03-17", "title": "Mysteries of the Gods", "video": false, "vote_average": 6.5, "vote_count": 5, "popularity": 1.894}, {"adult": false, "backdrop_path": "/t6fuvWEQ1fwQ8moTLzJStoAAvBJ.jpg", "genre_ids": [16, 35], "id": 88378, "original_language": "en", "original_title": "The External World", "overview": "An animated short by David O'Reilly filled with absurdist comedy, clever satire, and imagination.", "poster_path": "/oPPTzo576ipT6mWupMHo0HXSl4J.jpg", "release_date": "2010-09-07", "title": "The External World", "video": false, "vote_average": 6.2, "vote_count": 17, "popularity": 3.743}, {"adult": false, "backdrop_path": null, "genre_ids": [], "id": 155570, "original_language": "en", "original_title": "The Wholly Family", "overview": "An American family's magical adventure in Naples.", "poster_path": "/3ci6H3Kz1Z3TH94OfS8O1WF9OTr.jpg", "release_date": "2011-02-28", "title": "The Wholly Family", "video": false, "vote_average": 6.2, "vote_count": 10, "popularity": 1.84}], "total_pages": 1, "total_results": 13}, "credits": {"cast": [{"cast_id": 3, "character": "Himself - Narrator", "credit_id": "52fe4745c3a36847f812c4e7", "gender": 2, "id": 27811, "name": "Peter Weller", "order": 0, "profile_path": "/qTdm4vdZPsplJpnTU4fSprp0CxJ.jpg"}, {"cast_id": 4, "character": "Himself", "credit_id": "52fe4745c3a36847f812c4eb", "gender": 2, "id": 6471, "name": "William S. Burroughs", "order": 1, "profile_path": "/cdwNs9LcUnt3b393ZeJXChNQEGh.jpg"}, {"cast_id": 10, "character": "Himself", "credit_id": "52fe4745c3a36847f812c503", "gender": 2, "id": 224, "name": "David Cronenberg", "order": 2, "profile_path": "/nFHIlkIuile5RmtSqbyCB4w8SpH.jpg"}, {"cast_id": 11, "character": "Himself", "credit_id": "52fe4745c3a36847f812c507", "gender": 2, "id": 5216, "name": "Gus Van Sant", "order": 3, "profile_path": "/kICHgrSh4eiICjz8piy9fTXIgph.jpg"}, {"cast_id": 6, "character": "Himself", "credit_id": "52fe4745c3a36847f812c4f3", "gender": 2, "id": 13604, "name": "Iggy Pop", "order": 4, "profile_path": "/orkeTSZYiHVKqeTntsD6e6VHuqc.jpg"}, {"cast_id": 7, "character": "Himself", "credit_id": "52fe4745c3a36847f812c4f7", "gender": 2, "id": 89799, "name": "Jello Biafra", "order": 5, "profile_path": "/xcar3rWLJr3ksIIBFLxTTURxFzG.jpg"}, {"cast_id": 5, "character": "Himself", "credit_id": "52fe4745c3a36847f812c4ef", "gender": 2, "id": 10367, "name": "John Waters", "order": 6, "profile_path": "/4foU1kJ24CJwz2RVZgyc7oxMs4i.jpg"}, {"cast_id": 9, "character": "Herself", "credit_id": "52fe4745c3a36847f812c4ff", "gender": 1, "id": 68929, "name": "Laurie Anderson", "order": 7, "profile_path": "/qzYxlXRWKJSa8Qbwt4bcaaUVtle.jpg"}, {"cast_id": 8, "character": "Herself", "credit_id": "52fe4745c3a36847f812c4fb", "gender": 1, "id": 56200, "name": "Patti Smith", "order": 8, "profile_path": "/yrrJRuLam6oTJEeAIvvxq07eEEv.jpg"}, {"cast_id": 12, "character": "Himself (archive footage)", "credit_id": "52fe4745c3a36847f812c50b", "gender": 2, "id": 18626, "name": "Andy Warhol", "order": 9, "profile_path": "/iqfZjl7DzqCR28skok7oY6XuRUd.jpg"}], "crew": [{"credit_id": "543a8753c3a3681995002dc0", "department": "Sound", "gender": 2, "id": 101831, "job": "Music", "name": "Thurston Moore", "profile_path": "/9chjmfXiZfz2uH01SC4QtEad3YX.jpg"}, {"credit_id": "543a87670e0a2649b6002cd1", "department": "Sound", "gender": 2, "id": 101843, "job": "Music", "name": "Lee Ranaldo", "profile_path": null}, {"credit_id": "52fe4745c3a36847f812c4dd", "department": "Directing", "gender": 0, "id": 139347, "job": "Director", "name": "Yony Leyser", "profile_path": null}, {"credit_id": "543a87180e0a2649b2002bf0", "department": "Production", "gender": 0, "id": 139347, "job": "Producer", "name": "Yony Leyser", "profile_path": null}, {"credit_id": "59ef6aca9251412f9c00000c", "department": "Writing", "gender": 0, "id": 139347, "job": "Writer", "name": "Yony Leyser", "profile_path": null}, {"credit_id": "543a86f10e0a26499e002e32", "department": "Production", "gender": 0, "id": 1181553, "job": "Associate Producer", "name": "Scott Crary", "profile_path": null}, {"credit_id": "543a86de0e0a2649a8002e43", "department": "Production", "gender": 0, "id": 1373221, "job": "Producer", "name": "Carmine Cervi", "profile_path": null}, {"credit_id": "543a877a0e0a2649a5002e74", "department": "Editing", "gender": 0, "id": 1373224, "job": "Editor", "name": "Ilko Davidov", "profile_path": null}, {"credit_id": "543a8708c3a3681990002cbd", "department": "Production", "gender": 0, "id": 1373224, "job": "Producer", "name": "Ilko Davidov", "profile_path": null}, {"credit_id": "543a872c0e0a2649b2002bf3", "department": "Sound", "gender": 0, "id": 1373226, "job": "Music", "name": "John Bellow", "profile_path": null}, {"credit_id": "543a873fc3a368198c002da3", "department": "Sound", "gender": 0, "id": 1373228, "job": "Music", "name": "Devin McNulty", "profile_path": null}]}}