{"adult": false, "backdrop_path": "/sUnAK6VaypBQAMrYa9XU8tGcp9X.jpg", "belongs_to_collection": null, "budget": 0, "genres": [{"id": 35, "name": "Comedy"}, {"id": 27, "name": "Horror"}], "homepage": "", "id": 480923, "imdb_id": "tt5265898", "original_language": "en", "original_title": "Dead Ant", "overview": "When the 1989 \"one-hit-wonder\" glam-metal band \"Sonic Grave\" embark on a trip to Coachella in hopes of a comeback, their peyote trip pit stop in Joshua Tree incites an \"unworldly\" viscous attack, and they must \"rock\" themselves out of harms way.", "popularity": 4.836, "poster_path": "/2NoqvEpApbcnSWFpbHAswOYufSQ.jpg", "production_companies": [{"id": 65834, "logo_path": null, "name": "August Heart Entertainment", "origin_country": ""}], "production_countries": [{"iso_3166_1": "US", "name": "United States of America"}], "release_date": "2017-10-10", "revenue": 0, "runtime": 87, "spoken_languages": [{"iso_639_1": "en", "name": "English"}, {"iso_639_1": "it", "name": "Italiano"}], "status": "Released", "tagline": "", "title": "Dead Ant", "video": false, "vote_average": 5.4, "vote_count": 13, "keywords": {"keywords": [{"id": 5288, "name": "rock"}, {"id": 10563, "name": "attack"}, {"id": 12070, "name": "ants"}, {"id": 176502, "name": "peyote"}, {"id": 208289, "name": "1980s"}, {"id": 211508, "name": "glam metal"}, {"id": 219368, "name": "giant ant"}, {"id": 245484, "name": "joshua tree"}, {"id": 251246, "name": "coachella"}]}, "similar": {"page": 1, "results": [{"adult": false, "backdrop_path": "/q3eNcig4YFEsUTnmIYDA90FdndO.jpg", "genre_ids": [10402, 35, 28, 80], "id": 525, "original_language": "en", "original_title": "The Blues Brothers", "overview": "Jake Blues is just out of jail, and teams up with his brother, Elwood on a 'mission from God' to raise funds for the orphanage in which they grew up. The only thing they can do is do what they do best: play music. So they get their old band together, and set out on their way\u2014while getting in a bit of trouble here and there.", "poster_path": "/6hesUNBkpVRqBTBw2HlTg0h8b56.jpg", "release_date": "1980-06-17", "title": "The Blues Brothers", "video": false, "vote_average": 7.7, "vote_count": 2299, "popularity": 21.638}, {"id": 6575, "video": false, "vote_count": 364, "vote_average": 6.6, "title": "Walk Hard: The Dewey Cox Story", "release_date": "2007-12-21", "original_language": "en", "original_title": "Walk Hard: The Dewey Cox Story", "genre_ids": [35, 18, 10402], "backdrop_path": "/y7EElGAn1tFE0Npmls7uvg4HPVj.jpg", "adult": false, "overview": "Following a childhood tragedy, Dewey Cox follows a long and winding road to music stardom. Dewey perseveres through changing musical styles, an addiction to nearly every drug known and bouts of uncontrollable rage.", "poster_path": "/2sc7qoLTqZC0nB2k1crwuVoKP6H.jpg", "popularity": 15.669}, {"id": 786, "video": false, "vote_count": 1485, "vote_average": 7.5, "title": "Almost Famous", "release_date": "2000-09-15", "original_language": "en", "original_title": "Almost Famous", "genre_ids": [18, 10402], "backdrop_path": "/zfucY8mxcrNeopFneyvyERZQah1.jpg", "adult": false, "overview": "In 1973, 15-year-old William Miller's unabashed love of music and aspiration to become a rock journalist lands him an assignment from Rolling Stone magazine to interview and tour with the up-and-coming band Stillwater\u2014fronted by lead guitar Russell Hammond, and lead singer Jeff Bebe.", "poster_path": "/9pNo92j6zSEAUB8pNmcJTkpnkBF.jpg", "popularity": 17.801}, {"adult": false, "backdrop_path": "/ljjr1LTE6Xsg8bQxcymXhcaQyLw.jpg", "genre_ids": [35, 10751, 14, 16], "id": 6477, "original_language": "en", "original_title": "Alvin and the Chipmunks", "overview": "A struggling songwriter named Dave Seville finds success when he comes across a trio of singing chipmunks: mischievous leader Alvin, brainy Simon, and chubby, impressionable Theodore.", "poster_path": "/sAt2yb4dgrpkHjbB9dQaKD9Caor.jpg", "release_date": "2007-12-13", "title": "Alvin and the Chipmunks", "video": false, "vote_average": 5.7, "vote_count": 2746, "popularity": 14.626}, {"id": 13576, "video": false, "vote_count": 509, "vote_average": 6.9, "title": "This Is It", "release_date": "2009-10-28", "original_language": "en", "original_title": "This Is It", "genre_ids": [99, 10402], "backdrop_path": "/w7yzaQ7P2UBtSyMqMOx0zNxc3wB.jpg", "adult": false, "overview": "A compilation of interviews, rehearsals and backstage footage of Michael Jackson as he prepared for his series of sold-out shows in London.", "poster_path": "/4ZgT8FRJxxpG0mgOIPeCgjzAsBR.jpg", "popularity": 11.776}, {"id": 369557, "video": false, "vote_count": 1342, "vote_average": 8.0, "title": "Sing Street", "release_date": "2016-03-11", "original_language": "en", "original_title": "Sing Street", "genre_ids": [35, 18, 10402, 10749], "backdrop_path": "/9j4UaRypr19wz0BOofwvkPRm1Se.jpg", "adult": false, "overview": "A boy growing up in Dublin during the 1980s escapes his strained family life by starting a band to impress the mysterious girl he likes.", "poster_path": "/s0C78plmx3dFcO3WMnoXCz56FiN.jpg", "popularity": 15.725}, {"adult": false, "backdrop_path": "/pQOs5bwFpaimeaK5PA2XXteU1Ly.jpg", "genre_ids": [10402, 99], "id": 20575, "original_language": "en", "original_title": "Queen: Live at Wembley Stadium", "overview": "One of the world's biggest bands return to the scene of their Live Aid (1985) triumph a year earlier to play all their greatest hits in front of a packed Wembley Stadium.", "poster_path": "/qztOmfZ8uLPN3MUNHJd8GaJST2V.jpg", "release_date": "1986-07-12", "title": "Live at Wembley Stadium", "video": false, "vote_average": 8.7, "vote_count": 49, "popularity": 8.207}, {"adult": false, "backdrop_path": "/uqLUeQR6wg80RMlcIbQQHIv8EDW.jpg", "genre_ids": [10402, 35], "id": 8873, "original_language": "en", "original_title": "Wayne's World 2", "overview": "A message from Jim Morrison in a dream prompts cable access TV stars Wayne and Garth to put on a rock concert, \"Waynestock,\" with Aerosmith as headliners. But amid the preparations, Wayne frets that a record producer is putting the moves on his girlfriend, Cassandra, while Garth handles the advances of mega-babe Honey Hornee.", "poster_path": "/pBs9DuzWhqWX7vPjzB6AvAXKXzM.jpg", "release_date": "1993-12-10", "title": "Wayne's World 2", "video": false, "vote_average": 6.0, "vote_count": 559, "popularity": 12.006}, {"adult": false, "backdrop_path": "/2aHM8lYzcaO4MfN7VNvo1QFU0ft.jpg", "genre_ids": [99, 10402], "id": 373558, "original_language": "en", "original_title": "Taylor Swift: The 1989 World Tour - Live", "overview": "Taylor delivers the concert event of the year. Filmed at Sydney's ANZ Stadium in front of 76,000 fans, The 1989 World Tour - Live captures the excitement and energy of the hottest pop star in the world. Filled with great music, an electrifying stage show, and superstar guest appearances, the concert film is only on Apple Music.", "poster_path": "/kzXe8kscKo83BwGvIofWg6SCR7n.jpg", "release_date": "2015-12-20", "title": "Taylor Swift: The 1989 World Tour - Live", "video": false, "vote_average": 8.3, "vote_count": 65, "popularity": 10.446}, {"id": 1791, "video": false, "vote_count": 468, "vote_average": 7.4, "title": "The Piano Teacher", "release_date": "2001-07-21", "original_language": "fr", "original_title": "La Pianiste", "genre_ids": [18, 10749], "backdrop_path": "/mNXNFlZXeJYSqTGIiweEaMxGYfO.jpg", "adult": false, "overview": "Erika Kohut, a sexually repressed piano teacher living with her domineering mother, meets a young man who starts romantically pursuing her.", "poster_path": "/ln8Ip9Etw4jxzxSuXSTwFqsfsSY.jpg", "popularity": 11.804}, {"id": 10186, "video": false, "vote_count": 324, "vote_average": 5.8, "title": "The Rocker", "release_date": "2008-08-20", "original_language": "en", "original_title": "The Rocker", "genre_ids": [35, 10402], "backdrop_path": "/wyAJgNSphpSI2NYWg4VIxN2w8i9.jpg", "adult": false, "overview": "Rob \"Fish\" Fishman is the drummer in '80s hair metal band Vesuvius. He's unceremoniously booted as the group signs a big record deal, is out of the music world for 20 years - and then receives a second chance with his nephew's band.", "poster_path": "/yQfng0iKQVuGDdI5JeoKPINlXuH.jpg", "popularity": 9.137}, {"id": 612738, "video": false, "vote_count": 0, "vote_average": 0.0, "title": "People In A Film", "release_date": "2019-12-20", "original_language": "en", "original_title": "People In A Film", "genre_ids": [99], "backdrop_path": null, "adult": false, "overview": "Chronicles the musical career of British post-punk art rockers Wire.", "poster_path": "/l9uceh7mGbgGxs6ycfTRsjDeak5.jpg", "popularity": 0.757}, {"adult": false, "backdrop_path": "/slmJpBDhIROf64YwNtXnuMT4ufB.jpg", "genre_ids": [35, 878], "id": 13820, "original_language": "en", "original_title": "Repo Man", "overview": "A down and out young punk gets a job working with a seasoned repo man, but what awaits him in his new career is a series of outlandish adventures revolving around aliens, the CIA, and a most wanted '64 Chevy.", "poster_path": "/e3I831drBvpHe6FFb93geZxqU5c.jpg", "release_date": "1984-02-20", "title": "Repo Man", "video": false, "vote_average": 6.7, "vote_count": 276, "popularity": 10.275}, {"id": 7944, "video": false, "vote_count": 87, "vote_average": 7.2, "title": "Shine a Light", "release_date": "2008-02-07", "original_language": "en", "original_title": "Shine a Light", "genre_ids": [99, 10402], "backdrop_path": "/iU606VnpDQGAythRD9fEOdUbRfZ.jpg", "adult": false, "overview": "Martin Scorsese and the Rolling Stones unite in \"Shine A Light,\" a look at The Rolling Stones.\" Scorsese filmed the Stones over a two-day period at the intimate Beacon Theater in New York City in fall 2006. Cinematographers capture the raw energy of the legendary band.", "poster_path": "/28Lbw8CG5jX4nRB7O3dBmbtpzr7.jpg", "popularity": 8.976}, {"adult": false, "backdrop_path": "/qOMWTdCoaiVtZMJL044D0ZRkpu1.jpg", "genre_ids": [10402], "id": 63973, "original_language": "en", "original_title": "AC/DC:  Live at River Plate", "overview": "AC/DC Live At River Plate, a definitive live concert film documenting AC/DC\u2019s massive Black Ice World Tour. Shot in December of 2009, AC/DC Live At River Plate marks AC/DC\u2019s triumphant return to Buenos Aires where nearly 200,000 fans, and 3 sold-out shows, welcomed the band back after a 13 year absence from Argentina. This stunning live footage of AC/DC underscores what Argentina\u2019s Pagina 12 newspaper reported by saying \u201cno one is on the same level when it comes to pure and clear Rock \u2018n Roll.\u201d Live At River Plate was shot with 32 cameras entirely in HD and features 19 songs as well as \u2018behind the scenes\u2019 footage of this massive production coming together among the excitement of anxious fans.", "poster_path": "/8KzHL6lmbtDPH6VZZjF6w65Inmg.jpg", "release_date": "2009-12-11", "title": "AC/DC:  Live at River Plate", "video": true, "vote_average": 6.9, "vote_count": 25, "popularity": 8.432}, {"id": 132, "video": false, "vote_count": 71, "vote_average": 7.6, "title": "Gimme Shelter", "release_date": "1970-12-06", "original_language": "en", "original_title": "Gimme Shelter", "genre_ids": [99, 10402], "backdrop_path": "/k74ezjZNmap2FpkxuO85NnWmcn.jpg", "adult": false, "overview": "The landmark documentary about the tragically ill-fated Rolling Stones free concert at Altamont Speedway on December 6, 1969. Only four months earlier, Woodstock defined the Love Generation; now it lay in ruins on a desolate racetrack six miles outside of San Francisco.", "poster_path": "/9cQ6TLG89Yv2EMKuxgLRvgLq5nK.jpg", "popularity": 8.569}, {"id": 20313, "video": true, "vote_count": 20, "vote_average": 8.7, "title": "Where the Light Is: John Mayer Live in Los Angeles", "release_date": "2008-07-01", "original_language": "en", "original_title": "Where the Light Is: John Mayer Live in Los Angeles", "genre_ids": [10402], "backdrop_path": "/3hRjAtEvLGdRpznktxZRnVmdilz.jpg", "adult": false, "overview": "Where The Light Is: John Mayer Live in Los Angeles captures the multi-Grammy\u00ae Award-winning, Platinum-selling singer/songwriter in the element where fans love him the most: live on stage. This special concert includes three sets: an acoustic performance, a rare set with John Mayer Trio (John Mayer, Steve Jordan and Pino Palladino), as well as a set featuring Mayer's full band.", "poster_path": "/laZt8OKutRXptSbwbMLWlWGoIPM.jpg", "popularity": 4.422}, {"adult": false, "backdrop_path": "/A3MpZcwdyeklyciwkDjJS02ZdNU.jpg", "genre_ids": [53, 18, 10402], "id": 451751, "original_language": "en", "original_title": "American Satan", "overview": "A young rock band, half from England and half from the US, drop out of college and move to the Sunset Strip to chase their dreams.", "poster_path": "/hM9dOYWPh5pcQ3ruFXDayXsqgHw.jpg", "release_date": "2017-10-13", "title": "American Satan", "video": false, "vote_average": 5.9, "vote_count": 67, "popularity": 10.996}, {"adult": false, "backdrop_path": "/kJlPpQy2Zx3s8ETyIpkp4Rkzzng.jpg", "genre_ids": [18, 10402], "id": 3902, "original_language": "en", "original_title": "I'm Not There.", "overview": "Six actors portray six personas of music legend Bob Dylan in scenes depicting various stages of his life, chronicling his rise from unknown folksinger to international icon and revealing how Dylan constantly reinvented himself.", "poster_path": "/gwMjlA6R86hgPkUInaxXalPJKkw.jpg", "release_date": "2007-10-01", "title": "I'm Not There.", "video": false, "vote_average": 6.7, "vote_count": 383, "popularity": 10.859}, {"adult": false, "backdrop_path": "/s283QMcEo62j3Pbpm25ls0O8bEu.jpg", "genre_ids": [99, 10402], "id": 135, "original_language": "en", "original_title": "Dont Look Back", "overview": "In this wildly entertaining vision of one of the twentieth century\u2019s greatest artists, Bob Dylan is surrounded by teen fans, gets into heated philosophical jousts with journalists, and kicks back with fellow musicians Joan Baez, Donovan, and Alan Price.", "poster_path": "/r5S7eiQ6ogKNMJhoRS6bHoCImBz.jpg", "release_date": "1967-05-17", "title": "Dont Look Back", "video": false, "vote_average": 7.6, "vote_count": 77, "popularity": 7.582}], "total_pages": 43, "total_results": 850}, "recommendations": {"page": 1, "results": [{"adult": false, "backdrop_path": "/97BVGZLSRsHQ91yizrQySY0eix7.jpg", "genre_ids": [10749, 18], "id": 309019, "original_language": "en", "original_title": "Best Day Ever", "overview": "David's turning 50 and having a Mid-life Crisis! He isn't sure his \"perfect husband\" loves him, and if he's chosen the right career. Aging is something he never thought about, but now he is faced with making the rest of his life count and hopes his close friends can help. Realizing that he may only have about 35 years left, he must figure out his life to ensure happiness and fulfillment. Fate changes everything when he meets a 15-year younger man who shows him that age does not matter, and that maybe his future happiness is right in front of him.", "poster_path": "/i84jwxHFqH4dhPwfv5WR06r9iCH.jpg", "release_date": "2014-12-09", "title": "Best Day Ever", "video": false, "vote_average": 5.1, "vote_count": 9, "popularity": 4.446}, {"adult": false, "backdrop_path": "/4Mq0qtQvWFsQQe5XRdf7ytezoGu.jpg", "genre_ids": [53], "id": 502800, "original_language": "en", "original_title": "Crisis Hotline", "overview": "A cynical counselor at a crisis hotline finds himself in a life or death situation when a young man calls and threatens to kill three people and then himself.", "poster_path": "/AkyTEsEwe2W8iPfxJD1TcJTHCDx.jpg", "release_date": "2019-06-11", "title": "Crisis Hotline", "video": false, "vote_average": 5.3, "vote_count": 3, "popularity": 4.492}, {"adult": false, "backdrop_path": "/iPRKgNK9Gls5djXpO4e94fQxPmh.jpg", "genre_ids": [], "id": 543889, "original_language": "en", "original_title": "An Audience of Chairs", "overview": "Maura Mackenzie (Carolina Bartczak) believes the world is hers to conquer. With her career as a concert pianist gaining momentum, it seems her beauty and talent will be strong enough to mask the demons that threaten to engulf her. But with an absent husband (Chris Jacot) and two young daughters at home, her precarious sanity begins to unravel until one summer day, burning with manic energy, she makes a terrible mistake \u2014 a mistake that will change her life forever. The consequences for Maura are catastrophic: her ambitious husband runs for his life, taking the children with him, leaving Maura to lapse into a full-scale breakdown. Life as she knew it is now over. With the help of her father, Ian (Peter MacNeill), Maura works to reclaim her life and waits for a miracle to bring her daughters home. But when the fates align, can the past be forgiven?", "poster_path": "/e5MPJTwEPDjdVwifFFO3nKaFVZH.jpg", "release_date": "2018-09-14", "title": "An Audience of Chairs", "video": false, "vote_average": 7.3, "vote_count": 4, "popularity": 3.31}, {"adult": false, "backdrop_path": "/pvBII6iYcCO88HsPvRFFUFSEDEh.jpg", "genre_ids": [27, 9648, 53], "id": 496466, "original_language": "en", "original_title": "The House of Violent Desire", "overview": "Awoken by screams in the night, young Evelyn Whipley is found drenched in blood and mysteriously bound to the bed - A Gothic Horror set in the 1940s, a psychosexual thriller disguised as traditional Ghost Story.", "poster_path": "/j9t1I3MEndYAhzDY7LdCIqVoZRB.jpg", "release_date": "2018-10-05", "title": "The House of Violent Desire", "video": false, "vote_average": 7.4, "vote_count": 5, "popularity": 4.49}, {"adult": false, "backdrop_path": "/xqFWVQcQirVARSZMi4wyQCdRS0V.jpg", "genre_ids": [99, 10402, 35], "id": 503761, "original_language": "en", "original_title": "Being Frank: The Chris Sievey Story", "overview": "The hilarious and bizarre story of Frank Sidebottom, the cult British comedian in a papier m\u00e2ch\u00e9 head, and the secretive life of Chris Sievey, the artist trapped inside.", "poster_path": "/nAJGfk0xpht5BE6kmBVFDYNFZSt.jpg", "release_date": "2019-03-29", "title": "Being Frank: The Chris Sievey Story", "video": false, "vote_average": 7.4, "vote_count": 5, "popularity": 4.963}, {"adult": false, "backdrop_path": "/d1mBUdmTd4MzReLZRShwHMWu9Qd.jpg", "genre_ids": [35], "id": 258784, "original_language": "en", "original_title": "DisOrientation", "overview": "After a string of incompatible dorm mates, Finn \u2013 an unapologetic, collegiate underachiever and extreme party boy \u2013 hopes that a new year is going to bring some better luck. But 15-year-old, nerdy, brainiac Toby isn't exactly who he had in mind.  After an extremely rough start, the two overcome their differences and team up to exact revenge on campus jock, Landon, and his posse of goons, who think they rule the school.", "poster_path": "/zbt8JgpVXtoD30sfVjqjoZwyhQp.jpg", "release_date": "2012-06-02", "title": "DisOrientation", "video": false, "vote_average": 4.0, "vote_count": 10, "popularity": 2.609}, {"adult": false, "backdrop_path": "/bUwwofZUjJ50WFYo2CisXgUadUt.jpg", "genre_ids": [35], "id": 537734, "original_language": "en", "original_title": "The Weekend", "overview": "An acerbic comedian becomes romantically entangled with her ex, his new girlfriend, and another guest during a weekend getaway.", "poster_path": "/6IJ9UcJjUjMW6UOvQ99MllDZhoN.jpg", "release_date": "2019-09-13", "title": "The Weekend", "video": false, "vote_average": 7.0, "vote_count": 4, "popularity": 4.251}, {"id": 83926, "video": false, "vote_count": 3, "vote_average": 7.0, "title": "Ninety Degrees in the Shade", "release_date": "1965-06-01", "original_language": "en", "original_title": "Ninety Degrees in the Shade", "genre_ids": [80, 18, 53], "backdrop_path": "/Abbs7FQ4oBe5rTmo496j5enG92B.jpg", "adult": false, "overview": "A woman attempts to cover up the thefts committed by the manager at the shop she works at.", "poster_path": "/GsW0wqXs40fgZV8MrGItKeRgWu.jpg", "popularity": 2.501}, {"adult": false, "backdrop_path": null, "genre_ids": [99], "id": 558912, "original_language": "en", "original_title": "Beyond Boundaries: The Harvey Weinstein Scandal", "overview": "Examine the rise and fall of Hollywood media mogul Harvey Weinstein following the scandal in 2017. Learn from exclusive interviews with those who knew him in the industry, and a discussion of the start of the #MeToo movement.", "poster_path": "/3RttUhiOHu1qFkmvYPdJOo1PJk5.jpg", "release_date": "2018-08-21", "title": "Beyond Boundaries: The Harvey Weinstein Scandal", "video": false, "vote_average": 6.2, "vote_count": 5, "popularity": 3.318}, {"adult": false, "backdrop_path": "/vNeCUQ2q64essNMKu1Ob26B0M1S.jpg", "genre_ids": [], "id": 46148, "original_language": "en", "original_title": "The Red Menace", "overview": "A couple try to leave the Communist party after a murder by the group they were once loyal to.", "poster_path": "/a7mPps5f7VfVqyeeJ3W6CGyrkJq.jpg", "release_date": "1949-08-01", "title": "The Red Menace", "video": false, "vote_average": 4.1, "vote_count": 7, "popularity": 2.925}, {"adult": false, "backdrop_path": null, "genre_ids": [12, 35, 878], "id": 560034, "original_language": "en", "original_title": "Pocketman and Cargoboy", "overview": "Teenage secret agents must travel to the past and stop an evil doctor from creating a virus that wipes out all life in the future.", "poster_path": "/ieKyPavQrMV7zFAvmZw9tKiSJIp.jpg", "release_date": "2018-10-12", "title": "Pocketman and Cargoboy", "video": false, "vote_average": 7.8, "vote_count": 4, "popularity": 1.973}, {"id": 135858, "video": false, "vote_count": 32, "vote_average": 4.3, "title": "Dungeons & Dragons: The Book of Vile Darkness", "release_date": "2012-08-08", "original_language": "en", "original_title": "Dungeons & Dragons: The Book of Vile Darkness", "genre_ids": [12, 14], "backdrop_path": "/nG4wfCXBULSOlk9wgyr14oerPBV.jpg", "adult": false, "overview": "A noble warrior must battle dragons and demons while upholding his moral code as he covertly joins a group of villains to rescue his kidnapped father from Shathrax, the Mind Flayer, who threatens to destroy the world.", "poster_path": "/thLd3eMzbRTjcCbal9j7x2WumPa.jpg", "popularity": 6.258}, {"adult": false, "backdrop_path": "/cZp4eIWjREAl5E2NorNbzzIEbq7.jpg", "genre_ids": [27, 53], "id": 122369, "original_language": "en", "original_title": "13 Eerie", "overview": "Six ambitious forensic undergrads are pitted against one another on a scientific expedition to a remote island, vying to win an esteemed trainee position with the FBI. Unbeknownst to them, the site was formerly used as an illegal biological testing ground for life-term criminals who were then left for dead. The arrival of the students disturbs the resting place, unleashing a pack of zombie criminal convicts who systematically hunt them down, one by one.", "poster_path": "/1u7rSRI8hMe2lJ7ZgFhxb4Qrhyo.jpg", "release_date": "2013-04-02", "title": "13 Eerie", "video": false, "vote_average": 4.8, "vote_count": 56, "popularity": 6.504}], "total_pages": 1, "total_results": 13}, "credits": {"cast": [{"cast_id": 0, "character": "Danny", "credit_id": "59e06996c3a36861df0c28ab", "gender": 2, "id": 74036, "name": "Tom Arnold", "order": 1, "profile_path": "/z2ajL1ozVCS4Ug04zOGCNH06OPP.jpg"}, {"cast_id": 1, "character": "Art", "credit_id": "59e069b092514125140b9490", "gender": 2, "id": 1328, "name": "Sean Astin", "order": 2, "profile_path": "/j7ufzsiGkUck6HUAuQciXVnowmO.jpg"}, {"cast_id": 2, "character": "Merrick", "credit_id": "59e069cac3a36862270ad3da", "gender": 2, "id": 28410, "name": "Jake Busey", "order": 3, "profile_path": "/mGbWKlwTTyr62h6IwL66otOQV15.jpg"}, {"cast_id": 3, "character": "Stevie", "credit_id": "59e06a1e92514124c50b6a2b", "gender": 1, "id": 18660, "name": "Leisha Hailey", "order": 4, "profile_path": "/1aCuRgx92Prk7enJpCcorAf2Ugb.jpg"}, {"cast_id": 4, "character": "Firecracker", "credit_id": "59e06a51c3a36861df0c2964", "gender": 2, "id": 13645, "name": "Danny Woodburn", "order": 5, "profile_path": "/mT7jSNAoZjB7zlRhWxcnRrFla7d.jpg"}, {"cast_id": 13, "character": "Sam", "credit_id": "5a8a527b9251410aae06f16f", "gender": 1, "id": 115440, "name": "Sydney Sweeney", "order": 6, "profile_path": "/k9IIQOvktdzUx1St25W8Cdld4Oc.jpg"}, {"cast_id": 18, "character": "Daisy Rock Bassist", "credit_id": "5c4da064c3a36847899153bf", "gender": 0, "id": 1099106, "name": "Natasha Blasick", "order": 7, "profile_path": "/iyNTpRTrxCWBrPJuXal5xI20CWY.jpg"}, {"cast_id": 19, "character": "Girl", "credit_id": "5d91de9679b3d40027909853", "gender": 1, "id": 1116282, "name": "Cortney Palm", "order": 8, "profile_path": "/mIvZlUREjyCCxmKRd5onC1vxQ4f.jpg"}], "crew": [{"credit_id": "59e06bd5c3a36861ec0b57b6", "department": "Production", "gender": 0, "id": 27097, "job": "Executive Producer", "name": "Matt Luber", "profile_path": null}, {"credit_id": "5c4d9f6fc3a36847939162ed", "department": "Writing", "gender": 0, "id": 93934, "job": "Screenplay", "name": "Ron Carlson", "profile_path": null}, {"credit_id": "59e06b98c3a368620d0a1f26", "department": "Directing", "gender": 0, "id": 93934, "job": "Director", "name": "Ron Carlson", "profile_path": null}, {"credit_id": "59e06b8b925141252c0b2166", "department": "Production", "gender": 0, "id": 93934, "job": "Producer", "name": "Ron Carlson", "profile_path": null}, {"credit_id": "5c4d9f410e0a26495ad5ecb6", "department": "Writing", "gender": 0, "id": 93934, "job": "Story", "name": "Ron Carlson", "profile_path": null}, {"credit_id": "5c4d9f97c3a368049c860ed6", "department": "Writing", "gender": 0, "id": 117168, "job": "Story", "name": "Hank Braxtan", "profile_path": null}, {"credit_id": "59e06bafc3a36862270ad61d", "department": "Production", "gender": 0, "id": 1904960, "job": "Producer", "name": "Stephanie Hodos", "profile_path": null}, {"credit_id": "59e06bef92514125140b9727", "department": "Production", "gender": 0, "id": 1904961, "job": "Executive Producer", "name": "Mark Hodos", "profile_path": null}, {"credit_id": "59e06c0392514124eb0b3fa2", "department": "Production", "gender": 0, "id": 1904962, "job": "Executive Producer", "name": "Fleur Roberts", "profile_path": null}, {"credit_id": "59e06c1692514125140b9765", "department": "Production", "gender": 0, "id": 1904963, "job": "Executive Producer", "name": "Ron Martino", "profile_path": null}, {"credit_id": "5c4da006c3a368477791ea64", "department": "Writing", "gender": 0, "id": 2227603, "job": "Story", "name": "Dan Sinclair", "profile_path": null}]}}