{"adult": false, "backdrop_path": "/8K9R2gONUh19FKdiDdrMhj6LKBA.jpg", "belongs_to_collection": null, "budget": 0, "genres": [{"id": 18, "name": "Drama"}, {"id": 53, "name": "Thriller"}], "homepage": null, "id": 48118, "imdb_id": "tt0110125", "original_language": "en", "original_title": "The Cold Light of Day", "overview": "A troubled detective befriends a single woman and her daughter with the intention of using them as bait for a serial killer.", "popularity": 3.73, "poster_path": "/lTrHdnAYTuEusGGlE27B0v0e3ID.jpg", "production_companies": [{"id": 6288, "logo_path": null, "name": "Meteor Film Productions", "origin_country": ""}], "production_countries": [{"iso_3166_1": "DE", "name": "Germany"}, {"iso_3166_1": "NL", "name": "Netherlands"}, {"iso_3166_1": "GB", "name": "United Kingdom"}], "release_date": "1996-08-20", "revenue": 0, "runtime": 101, "spoken_languages": [{"iso_639_1": "en", "name": "English"}], "status": "Released", "tagline": "To get inside a killer's head, a cop must pick the next victim... before the killer does.", "title": "The Cold Light of Day", "video": false, "vote_average": 6.2, "vote_count": 5, "keywords": {"keywords": [{"id": 516, "name": "child abuse"}, {"id": 1523, "name": "obsession"}, {"id": 10714, "name": "serial killer"}, {"id": 11723, "name": "rogue cop"}]}, "similar": {"page": 1, "results": [{"adult": false, "backdrop_path": "/coLGEhak0KhPpMYABmZdDnZbnSv.jpg", "genre_ids": [53, 27, 9648], "id": 39874, "original_language": "en", "original_title": "My Bloody Valentine", "overview": "Twenty years ago in the sleepy mining town of Valentine Bluffs, a fatal mining disaster occurred on Valentine's Day while some of the crew was decorating for a party. The sole survivor of the accident killed the remaining crewmembers and warned the town not to celebrate Valentine's Day again. When a group of teenagers decides to defy that order, a murderous maniac in mining gear begins dispatching townsfolk in bloody and creative ways.", "poster_path": "/kl3mewFceFtYIavvGts2atzB0e0.jpg", "release_date": "1981-02-11", "title": "My Bloody Valentine", "video": false, "vote_average": 6.3, "vote_count": 162, "popularity": 13.309}, {"adult": false, "backdrop_path": "/o4psXh7IVD6GFKvBSHjHLzjL2lV.jpg", "genre_ids": [27, 53], "id": 10781, "original_language": "en", "original_title": "The Texas Chainsaw Massacre: The Beginning", "overview": "Chrissie and her friends set out on a road trip for a final fling before one is shipped off to Vietnam. Along the way, bikers harass the foursome and cause an accident that throws Chrissie from the vehicle. The lawman who arrives on the scene kills one of the bikers and brings Chrissie's friends to the Hewitt homestead, where young Leatherface is learning the tools of terror.", "poster_path": "/9elCJIG1TOJ0wew3JVx5ZMkHq5w.jpg", "release_date": "2006-10-06", "title": "The Texas Chainsaw Massacre: The Beginning", "video": false, "vote_average": 6.0, "vote_count": 935, "popularity": 18.392}, {"adult": false, "backdrop_path": "/fmo48Lt8XtMWeHeXJzi5SbPCJud.jpg", "genre_ids": [18, 27, 80], "id": 1696, "original_language": "en", "original_title": "The Devil's Rejects", "overview": "The sequel to House of 1000 Corpses \u2013 the Firefly family are ambushed at their isolated home by Sheriff Wydell and a squad of armed men guns blazing \u2013 yet only Otis and his sister, Baby, manage to escape the barrage of bullets unharmed. Hiding out in a backwater motel, the wanted siblings wait to rendezvous with their errant father, Captain Spaulding, killing whoever happens to stand in their way.", "poster_path": "/fj4rrpUlBpFjPaJecpjID6yqacx.jpg", "release_date": "2005-07-22", "title": "The Devil's Rejects", "video": false, "vote_average": 6.7, "vote_count": 719, "popularity": 14.685}, {"adult": false, "backdrop_path": "/qqdVRlVCvVWdmSBYrEHwQuC3GBd.jpg", "genre_ids": [27, 53], "id": 371608, "original_language": "en", "original_title": "The Strangers: Prey at Night", "overview": "A family\u2019s road trip takes a dangerous turn when they arrive at a secluded mobile home park to stay with some relatives and find it mysteriously deserted. Under the cover of darkness, three masked psychopaths pay them a visit to test the family\u2019s every limit as they struggle to survive.", "poster_path": "/vdxLpPsZkPZdFrREp7eSeSzcimj.jpg", "release_date": "2018-03-07", "title": "The Strangers: Prey at Night", "video": false, "vote_average": 5.4, "vote_count": 757, "popularity": 17.265}, {"adult": false, "backdrop_path": "/7QjoyyGdBV32x1sEh64dAnNjwg2.jpg", "genre_ids": [53, 35, 27], "id": 12521, "original_language": "en", "original_title": "Shocker", "overview": "After being sent to the electric chair, a serial killer uses electricity to come back from the dead and carry out his vengeance on the football player who turned him in to the police.", "poster_path": "/xEDmOhNGCKlWlS3mCiqLCVzBXVA.jpg", "release_date": "1989-10-27", "title": "Shocker", "video": false, "vote_average": 5.5, "vote_count": 176, "popularity": 9.966}, {"adult": false, "backdrop_path": "/t3OZS8yMs0NL4YgWWc04eXHTn1X.jpg", "genre_ids": [28, 80, 53], "id": 984, "original_language": "en", "original_title": "Dirty Harry", "overview": "When a madman dubbed 'Scorpio' terrorizes San Francisco, hard-nosed cop, Harry Callahan \u2013 famous for his take-no-prisoners approach to law enforcement \u2013 is tasked with hunting down the psychopath. Harry eventually collars Scorpio in the process of rescuing a kidnap victim, only to see him walk on technicalities. Now, the maverick detective is determined to nail the maniac himself.", "poster_path": "/2TADKc4GMMPdMrLXj0xJVgTvZJM.jpg", "release_date": "1971-12-21", "title": "Dirty Harry", "video": false, "vote_average": 7.5, "vote_count": 1172, "popularity": 15.928}, {"adult": false, "backdrop_path": "/4L1MSZo8dQ20x4AhBDKfDs1cOjs.jpg", "genre_ids": [27, 53], "id": 9728, "original_language": "en", "original_title": "Friday the 13th Part III", "overview": "An idyllic summer turns into a nightmare of unspeakable terror for yet another group of naive counselors. Ignoring Camp Crystal Lake's bloody legacy, one by one they fall victim to the maniacal Jason who stalks them at every turn.", "poster_path": "/5wg2NZyIhcMbIBAahBODXHyJ54S.jpg", "release_date": "1982-08-13", "title": "Friday the 13th Part III", "video": false, "vote_average": 5.8, "vote_count": 632, "popularity": 11.072}, {"id": 948, "video": false, "vote_count": 2725, "vote_average": 7.5, "title": "Halloween", "release_date": "1978-10-24", "original_language": "en", "original_title": "Halloween", "genre_ids": [27, 53], "backdrop_path": "/6Io0gvfEVpMQsB46yXOKCpSJOoJ.jpg", "adult": false, "overview": "Fifteen years after murdering his sister on Halloween Night 1963, Michael Myers escapes from a mental hospital and returns to the small town of Haddonfield, Illinois to kill again.", "poster_path": "/vjoOFOTBJcJvA1weJejlZ92LZD4.jpg", "popularity": 20.457}, {"adult": false, "backdrop_path": "/arcpWGGnUkGkakOwZo7xfPsaz7h.jpg", "genre_ids": [9648, 53], "id": 2832, "original_language": "en", "original_title": "Identity", "overview": "Complete strangers stranded at a remote desert motel during a raging storm soon find themselves the target of a deranged murderer. As their numbers thin out, the travelers begin to turn on each other, as each tries to figure out who the killer is.", "poster_path": "/xSNSp2wmCUwFavxdkMF417hBc39.jpg", "release_date": "2003-04-25", "title": "Identity", "video": false, "vote_average": 7.2, "vote_count": 2089, "popularity": 15.517}, {"id": 11974, "video": false, "vote_count": 611, "vote_average": 6.8, "title": "The 'Burbs", "release_date": "1989-02-17", "original_language": "en", "original_title": "The 'Burbs", "genre_ids": [35, 27, 53], "backdrop_path": "/yCOTJnV7I0UcusTycv5bGEDQ5ll.jpg", "adult": false, "overview": "When secretive new neighbors move in next door, suburbanite Ray Peterson and his friends let their paranoia get the best of them as they start to suspect the newcomers of evildoings and commence an investigation. But it's hardly how Ray, who much prefers drinking beer, reading his newspaper and watching a ball game on the tube expected to spend his vacation.", "poster_path": "/zPEECSo5ZOBr9oEmBLSVXcqndTO.jpg", "popularity": 12.904}, {"adult": false, "backdrop_path": "/shNOTvaMz7C05LxBOWpakfJVWHc.jpg", "genre_ids": [27, 53], "id": 10987, "original_language": "en", "original_title": "Halloween: The Curse of Michael Myers", "overview": "Six years ago, Michael Myers terrorized the town of Haddonfield, Illinois. He and his niece, Jamie Lloyd, have disappeared. Jamie was kidnapped by a bunch of evil druids who protect Michael Myers. And now, six years later, Jamie has escaped after giving birth to Michael's child. She runs to Haddonfield to get Dr. Loomis to help her again.", "poster_path": "/8Tw5IttoEATGD2FHhcG9bDzqwbi.jpg", "release_date": "1995-09-29", "title": "Halloween: The Curse of Michael Myers", "video": false, "vote_average": 5.0, "vote_count": 470, "popularity": 14.221}, {"adult": false, "backdrop_path": "/oni8CXvEg56JhrfVdVUrQYOuhP0.jpg", "genre_ids": [80, 28, 53], "id": 55846, "original_language": "en", "original_title": "Blitz", "overview": "A tough, renegade cop with a gay sidekick is dispatched to take down a serial killer who has been targeting police officers.", "poster_path": "/woY0qY4DR6bPOQ7cBwyblePsYky.jpg", "release_date": "2011-05-20", "title": "Blitz", "video": false, "vote_average": 6.0, "vote_count": 861, "popularity": 20.522}, {"id": 8461, "video": false, "vote_count": 1137, "vote_average": 6.5, "title": "Funny Games", "release_date": "2007-10-20", "original_language": "en", "original_title": "Funny Games", "genre_ids": [80, 18, 27, 53], "backdrop_path": "/x0IvYeF88qYoKkigRjJ9CiyfY6b.jpg", "adult": false, "overview": "When Ann, husband George, and son Georgie arrive at their holiday home they are visited by a pair of polite and seemingly pleasant young men. Armed with deceptively sweet smiles and some golf clubs, they proceed to terrorize and torture the tight-knit clan, giving them until the next day to survive.", "poster_path": "/eyYqrggNEJpoqulbyaDBW2ABjwO.jpg", "popularity": 14.742}, {"id": 8090, "video": false, "vote_count": 446, "vote_average": 6.0, "title": "Untraceable", "release_date": "2008-01-22", "original_language": "en", "original_title": "Untraceable", "genre_ids": [9648, 53], "backdrop_path": "/eXuIPt9I1xuaVddlgzEQRC2EMnJ.jpg", "adult": false, "overview": "Special Agent Jennifer Marsh (Diane Lane) works in an elite division of the FBI dedicated to fighting cybercrime. She thinks she has seen it all, until a particularly sadistic criminal arises on the Internet. This tech-savvy killer posts live feeds of his crimes on his website; the more hits the site gets, the faster the victim dies. Marsh and her team must find the elusive killer before time runs out.", "poster_path": "/ySUwDRDEn01lKIMPQorpFCMLWqE.jpg", "popularity": 14.186}, {"adult": false, "backdrop_path": "/vIsKcpscdELfbBHHsfLvfTTMIc3.jpg", "genre_ids": [27], "id": 429476, "original_language": "en", "original_title": "Hell Fest", "overview": "On Halloween night at a horror theme park, a costumed killer begins slaying innocent patrons who believe that it's all part of the festivities.", "poster_path": "/99dwKr0Q6Gatq8GDcHvFoB8XLVX.jpg", "release_date": "2018-09-27", "title": "Hell Fest", "video": false, "vote_average": 5.6, "vote_count": 405, "popularity": 13.616}, {"adult": false, "backdrop_path": "/1uTsElgkaNwU1onA8ypDVZpjQPf.jpg", "genre_ids": [27, 53], "id": 5486, "original_language": "it", "original_title": "Ecologia del delitto", "overview": "An elderly heiress is killed by her husband who wants control of her fortunes. What ensues is an all-out murder spree as relatives and friends attempt to reduce the inheritance playing field, complicated by some teenagers who decide to camp out in a dilapidated building on the estate.", "poster_path": "/5l3LNFzdF50lImSYHmTpGdRndM2.jpg", "release_date": "1971-08-08", "title": "A Bay of Blood", "video": false, "vote_average": 6.5, "vote_count": 154, "popularity": 8.705}, {"id": 845, "video": false, "vote_count": 799, "vote_average": 7.8, "title": "Strangers on a Train", "release_date": "1951-06-18", "original_language": "en", "original_title": "Strangers on a Train", "genre_ids": [80, 53], "backdrop_path": "/3DL6BmslkyGHm70HXFNUwoYYIjb.jpg", "adult": false, "overview": "A psychotic socialite confronts a pro tennis star with a theory on how two complete strangers can get away with murder\u2014a theory that he plans to implement.", "poster_path": "/ihC083U7ef56Ui4x0P0dobojrZ1.jpg", "popularity": 19.187}, {"adult": false, "backdrop_path": "/z3s3TdRvEWC1TFrwtk0qhB7OdHh.jpg", "genre_ids": [27, 53], "id": 12662, "original_language": "en", "original_title": "Psycho III", "overview": "Norman Bates is still running his little motel, and he has kept the dressed skeleton he calls 'mother'. One day a nosey journalist comes to see him to ask questions about his past.", "poster_path": "/etiLhEebRnFExeb70COwqqeO8Kd.jpg", "release_date": "1986-04-02", "title": "Psycho III", "video": false, "vote_average": 5.6, "vote_count": 173, "popularity": 10.966}, {"id": 44247, "video": false, "vote_count": 81, "vote_average": 6.2, "title": "The Prowler", "release_date": "1981-11-06", "original_language": "en", "original_title": "The Prowler", "genre_ids": [27, 9648, 53], "backdrop_path": "/uiKTmt6vCi3wud95ZY0F51wparG.jpg", "adult": false, "overview": "A masked killer, wearing World War II U.S. Army fatigues, stalks a small New Jersey town bent on reliving a 35-year-old double murder by focusing on a group of college kids holding an annual Spring Dance.", "poster_path": "/c7wgUqmsPMBYBDfuGbSayZe3wTK.jpg", "popularity": 9.646}, {"adult": false, "backdrop_path": "/qr7R4pagFUcmz9ny6Gai9gjlSnn.jpg", "genre_ids": [27], "id": 4488, "original_language": "en", "original_title": "Friday the 13th", "overview": "Camp counselors are stalked and murdered by an unknown assailant while trying to reopen a summer camp that was the site of a child's drowning.", "poster_path": "/mGJlh8oMyTDhfudvs20kFpYz0Yc.jpg", "release_date": "1980-05-09", "title": "Friday the 13th", "video": false, "vote_average": 6.4, "vote_count": 1439, "popularity": 16.948}], "total_pages": 253, "total_results": 5058}, "recommendations": {"page": 1, "results": [{"id": 40990, "video": false, "vote_count": 14, "vote_average": 4.6, "title": "The Keeper", "release_date": "2004-05-14", "original_language": "en", "original_title": "The Keeper", "genre_ids": [80, 18, 53], "backdrop_path": "/zFroonRhzhNjVIfGbqTE2Rm4He5.jpg", "adult": false, "overview": "When an apparently exemplary cop abducts and secretly imprisons a beautiful dancer, a deadly battle of wills between captor and captive ensues.", "poster_path": "/y7o8rbfeG6lf6r9sruvUwtHshnF.jpg", "popularity": 2.243}], "total_pages": 1, "total_results": 1}, "credits": {"cast": [{"cast_id": 2, "character": "Viktor Marek", "credit_id": "52fe4754c3a36847f812fbb9", "gender": 2, "id": 20766, "name": "Richard E. Grant", "order": 0, "profile_path": "/6UXv8E4WWvRCKMQx1FQ0FJVyu0a.jpg"}, {"cast_id": 3, "character": "Milena Tatour, Anna's mother", "credit_id": "52fe4754c3a36847f812fbbd", "gender": 1, "id": 72708, "name": "Lynsey Baxter", "order": 1, "profile_path": "/nfq8FrRPruFmCv6ibThKjBye3UT.jpg"}, {"cast_id": 4, "character": "Anna Tatour", "credit_id": "52fe4754c3a36847f812fbc1", "gender": 1, "id": 207549, "name": "Perdita Weeks", "order": 2, "profile_path": "/fm0VLOVkhV6Op9X0DB2NcVOB13x.jpg"}, {"cast_id": 5, "character": "Vladimir Kozant", "credit_id": "52fe4754c3a36847f812fbc5", "gender": 2, "id": 175910, "name": "Simon Cadell", "order": 3, "profile_path": "/iZPRU8HpLbKdEm4YJPvLeWGFJon.jpg"}, {"cast_id": 6, "character": "Alexi Berka", "credit_id": "52fe4754c3a36847f812fbc9", "gender": 0, "id": 7572, "name": "Thom Hoffman", "order": 4, "profile_path": "/jUHJ3ettpi4nCTEO14W8fRfCsn3.jpg"}, {"cast_id": 16, "character": "Pavel Novak", "credit_id": "52fe4754c3a36847f812fc03", "gender": 2, "id": 71248, "name": "James Laurenson", "order": 5, "profile_path": "/fW9gq3GzJGjICmTIgmzzGQ4fQyz.jpg"}, {"cast_id": 17, "character": "Stephan Nuslauer", "credit_id": "52fe4754c3a36847f812fc07", "gender": 2, "id": 30431, "name": "Heathcote Williams", "order": 6, "profile_path": "/ryMmczzB3iPXnF9XmOVluAe6za1.jpg"}, {"cast_id": 18, "character": "Ludek Dittmayer", "credit_id": "52fe4754c3a36847f812fc0b", "gender": 2, "id": 42593, "name": "Roger Sloman", "order": 7, "profile_path": "/n0fUcYjJNiGT1r8hB6nbUTP7TWx.jpg"}, {"cast_id": 19, "character": "Jan Pastorek", "credit_id": "52fe4754c3a36847f812fc0f", "gender": 2, "id": 124511, "name": "Gerard Thoolen", "order": 8, "profile_path": "/sZfnYUvpRQVRRRHibOs5uwTT2dH.jpg"}, {"cast_id": 20, "character": "Eva Pastorek", "credit_id": "52fe4754c3a36847f812fc13", "gender": 0, "id": 178608, "name": "Elizabeth McKechnie", "order": 9, "profile_path": null}, {"cast_id": 21, "character": "Old Woman", "credit_id": "52fe4754c3a36847f812fc17", "gender": 1, "id": 115284, "name": "Joanna Dickens", "order": 10, "profile_path": "/cJh65kWzhk0smrzPvqHg1Jb70WF.jpg"}, {"cast_id": 22, "character": "Jana Kaisler", "credit_id": "52fe4754c3a36847f812fc1b", "gender": 0, "id": 1116048, "name": "Jade Hope", "order": 11, "profile_path": null}, {"cast_id": 23, "character": "Martin Wittman", "credit_id": "52fe4754c3a36847f812fc1f", "gender": 0, "id": 25723, "name": "Vladimir Kulhavy", "order": 12, "profile_path": null}, {"cast_id": 25, "character": "Dog Owner", "credit_id": "56c2245c9251414a8c000285", "gender": 0, "id": 1353501, "name": "Boudewijn de Groot", "order": 13, "profile_path": "/fZMGTT4gbFkcm6d0vGDH4upoi7x.jpg"}, {"cast_id": 26, "character": "Policeman Caves", "credit_id": "56c2245c9251414a9b000258", "gender": 2, "id": 20522, "name": "Robert Cavanah", "order": 14, "profile_path": "/gHuA2uTVZB8prxpzJozwGWli2kI.jpg"}, {"cast_id": 27, "character": "Desk Policelady", "credit_id": "56c2245cc3a36825fd000265", "gender": 0, "id": 1578104, "name": "Natasa Hanusov\u00e1", "order": 15, "profile_path": null}, {"cast_id": 28, "character": "Schoolteacher", "credit_id": "56c2245dc3a36825f9000286", "gender": 0, "id": 1299596, "name": "Marta Hrachovinov\u00e1", "order": 16, "profile_path": null}, {"cast_id": 29, "character": "Head of School", "credit_id": "56c2245dc3a368260d000269", "gender": 0, "id": 549115, "name": "Nina Jir\u00e1nkov\u00e1", "order": 17, "profile_path": null}], "crew": [{"credit_id": "55a8b7ff9251411e0600305c", "department": "Camera", "gender": 2, "id": 10253, "job": "Director of Photography", "name": "Igor Luther", "profile_path": "/2zAa1aKFhlafkFvy4qGrJa20muv.jpg"}, {"credit_id": "52fe4754c3a36847f812fbcf", "department": "Writing", "gender": 2, "id": 12734, "job": "Novel", "name": "Friedrich D\u00fcrrenmatt", "profile_path": "/vSlWbpDVnicmET93g2tC2IsCWJv.jpg"}, {"credit_id": "52fe4754c3a36847f812fbe7", "department": "Production", "gender": 0, "id": 228521, "job": "Line Producer", "name": "Arnold Heslenfeld", "profile_path": null}, {"credit_id": "52fe4754c3a36847f812fbb5", "department": "Directing", "gender": 0, "id": 229487, "job": "Director", "name": "Rudolf van den Berg", "profile_path": null}, {"credit_id": "52fe4754c3a36847f812fbdb", "department": "Production", "gender": 0, "id": 317517, "job": "Producer", "name": "Haig Balian", "profile_path": null}, {"credit_id": "52fe4754c3a36847f812fbe1", "department": "Production", "gender": 0, "id": 323375, "job": "Producer", "name": "Chris Brouwer", "profile_path": null}, {"credit_id": "52fe4754c3a36847f812fbed", "department": "Production", "gender": 1, "id": 983022, "job": "Line Producer", "name": "Patricia McMahon", "profile_path": null}, {"credit_id": "52fe4754c3a36847f812fbd5", "department": "Writing", "gender": 0, "id": 1116045, "job": "Writer", "name": "Doug Magee", "profile_path": null}, {"credit_id": "52fe4754c3a36847f812fbf3", "department": "Sound", "gender": 0, "id": 1116046, "job": "Music", "name": "Yves Elegeert", "profile_path": null}, {"credit_id": "52fe4754c3a36847f812fbf9", "department": "Sound", "gender": 0, "id": 1116047, "job": "Music", "name": "Stefan Truyman", "profile_path": null}]}}