{"adult": false, "backdrop_path": "/3T1o0UhnTPrjcaEAajmNGxGqaTi.jpg", "belongs_to_collection": null, "budget": 500000, "genres": [{"id": 18, "name": "Drama"}], "homepage": null, "id": 48146, "imdb_id": "tt0190542", "original_language": "en", "original_title": "Madonna and Child", "overview": "The second part of Terence Davies' trilogy revolving around Liverpudlian Robert Tucker, focusing on the character's efforts in middle-age to come to terms with his homosexuality.", "popularity": 1.383, "poster_path": "/8cMC686SB6xWNcPxMuuc5qbb5xe.jpg", "production_companies": [{"id": 17700, "logo_path": null, "name": "National Film and Television School (NFTS)", "origin_country": ""}], "production_countries": [{"iso_3166_1": "GB", "name": "United Kingdom"}], "release_date": "1980-01-01", "revenue": 0, "runtime": 30, "spoken_languages": [{"iso_639_1": "en", "name": "English"}], "status": "Released", "tagline": "", "title": "Madonna and Child", "video": false, "vote_average": 6.8, "vote_count": 8, "keywords": {"keywords": [{"id": 158718, "name": "lgbt"}]}, "similar": {"page": 1, "results": [{"adult": false, "backdrop_path": "/qbrmEfBEcdrzHSAHgazJWmz3TSU.jpg", "genre_ids": [18], "id": 616229, "original_language": "en", "original_title": "The Male Gaze: The Heat of the Night", "overview": "When darkness falls, temperatures rise in these six stories about late night confessions, intimacy for sale, high speed hookups and full moon frissons. But when the sun comes up and reality reveals itself, will it have all been worth it?", "poster_path": "/e1gNLO829rkE73sBJ3aClZJHNXd.jpg", "release_date": "2019-07-15", "title": "The Male Gaze: The Heat of the Night", "video": false, "vote_average": 3.3, "vote_count": 3, "popularity": 7.834}, {"id": 449176, "video": false, "vote_count": 3691, "vote_average": 8.1, "title": "Love, Simon", "release_date": "2018-02-16", "original_language": "en", "original_title": "Love, Simon", "genre_ids": [35, 18, 10749], "backdrop_path": "/rqMEeajyzSF4PpJtdCB816Iz8Vr.jpg", "adult": false, "overview": "Everyone deserves a great love story. But for seventeen-year old Simon Spier it's a little more complicated: he's yet to tell his family or friends he's gay and he doesn't know the identity of the anonymous classmate he's fallen for online.", "poster_path": "/5YUYg5q7QfC4IoNwNUtiwdiYKPr.jpg", "popularity": 17.201}, {"adult": false, "backdrop_path": "/6VhtzImP1UvYkIAHS4L8yfmceOM.jpg", "genre_ids": [18], "id": 26280, "original_language": "fr", "original_title": "J'ai tu\u00e9 ma m\u00e8re", "overview": "Hubert, a brash 17-year-old, is confused and torn by a love-hate relationship with his mother that consumes him more and more each day. After distressing ordeals and tragic episodes, Hubert will find his mother on the banks of Saint Lawrence river, where he grew up, and where a murder will be committed: the murder of childhood.", "poster_path": "/cxb02CLALt9He1Dt0BIDKj9fdvM.jpg", "release_date": "2009-06-05", "title": "I Killed My Mother", "video": false, "vote_average": 7.7, "vote_count": 655, "popularity": 11.451}, {"adult": false, "backdrop_path": "/qs4P8THxjbMZYc9QuZvzN95KzBM.jpg", "genre_ids": [18, 53, 9648], "id": 184352, "original_language": "fr", "original_title": "Tom \u00e0 la ferme", "overview": "A young man travels to an isolated farm for his lover's funeral where he's quickly drawn into a twisted, sexually charged game by his lover's aggressive brother.", "poster_path": "/wS4oYOHEKva9sMLOHSr7tW19SaQ.jpg", "release_date": "2013-09-02", "title": "Tom at the Farm", "video": false, "vote_average": 6.9, "vote_count": 408, "popularity": 7.884}, {"adult": false, "backdrop_path": "/ofDfZ1JRbjyye5eI1q2GD0cdkB2.jpg", "genre_ids": [18], "id": 529909, "original_language": "en", "original_title": "The Dare Project", "overview": "The fan-demanded sequel to the 2005 short film Dare. Ben and Johnny, now in their early 30s, fortuitously run into each other at a party in Los Angeles after not seeing each other since high school, where they shared one slightly dangerous, very sexy, boundary-pushing night in a swimming pool. Is their connection still alive, and what do they do about it?", "poster_path": "/2Gb3mMbVKXqsJSvqT8RqqyBP2QY.jpg", "release_date": "2018-06-15", "title": "The Dare Project", "video": false, "vote_average": 8.5, "vote_count": 2, "popularity": 4.724}, {"adult": false, "backdrop_path": "/2FYSfRSHLBkYScD7gPToV4UNy4h.jpg", "genre_ids": [10749, 18], "id": 104634, "original_language": "es", "original_title": "El sexo de los \u00e1ngeles", "overview": "Carla and Bruno believe they have answers for everything until Rai appears in their lives, an  attractive and mysterious young who lives outside the rules. In this story about love and friendship, boundaries dissolve by the rhythm of funky and break to offer a provocative, exciting and deeply touching vision about romantic relationships.", "poster_path": "/5PqIvW0jK6Nx5m78R3u1aSz7N5P.jpg", "release_date": "2012-05-04", "title": "Angels of Sex", "video": false, "vote_average": 6.8, "vote_count": 66, "popularity": 5.699}, {"id": 84892, "video": false, "vote_count": 6553, "vote_average": 7.7, "title": "The Perks of Being a Wallflower", "release_date": "2012-09-20", "original_language": "en", "original_title": "The Perks of Being a Wallflower", "genre_ids": [18], "backdrop_path": "/uhLcaTPeBpUNgYhZXhDWkj7gMkp.jpg", "adult": false, "overview": "15-year-old freshman Charlie is a wallflower, always watching life from the sidelines, until two charismatic senior students become his mentors. Free-spirited Sam and her stepbrother Patrick help Charlie discover the joys of friendship, first love, music and more, while a teacher sparks Charlie's dreams of becoming a writer.", "poster_path": "/cyNQLnHnXZcTUDXVVSEYmquOTOI.jpg", "popularity": 19.486}, {"adult": false, "backdrop_path": "/xhstSJACJF7QiO4zAsqAPXE1PbQ.jpg", "genre_ids": [18], "id": 306819, "original_language": "en", "original_title": "The Danish Girl", "overview": "When Gerda Wegener asks her husband Einar to fill in as a portrait model, Einar discovers the person she's meant to be and begins living her life as Lili Elbe. Having realized her true self and with Gerda's love and support, Lili embarks on a groundbreaking journey as a transgender pioneer.", "poster_path": "/seWQ6UKCrhGH0eP7dFZvmIBQtKF.jpg", "release_date": "2015-11-27", "title": "The Danish Girl", "video": false, "vote_average": 7.7, "vote_count": 4035, "popularity": 18.351}, {"id": 205596, "video": false, "vote_count": 11347, "vote_average": 8.1, "title": "The Imitation Game", "release_date": "2014-11-14", "original_language": "en", "original_title": "The Imitation Game", "genre_ids": [18, 36, 53, 10752], "backdrop_path": "/qcb6z1HpokTOKdjqDTsnjJk0Xvg.jpg", "adult": false, "overview": "Based on the real life story of legendary cryptanalyst Alan Turing, the film portrays the nail-biting race against time by Turing and his brilliant team of code-breakers at Britain's top-secret Government Code and Cypher School at Bletchley Park, during the darkest days of World War II.", "poster_path": "/noUp0XOqIcmgefRnRZa1nhtRvWO.jpg", "popularity": 40.487}, {"adult": false, "backdrop_path": "/useuHJQ5HOoEWkAvEjL1FW1sUfe.jpg", "genre_ids": [18], "id": 376867, "original_language": "en", "original_title": "Moonlight", "overview": "The tender, heartbreaking story of a young man\u2019s struggle to find himself, told across three defining chapters in his life as he experiences the ecstasy, pain, and beauty of falling in love, while grappling with his own sexuality.", "poster_path": "/qAwFbszz0kRyTuXmMeKQZCX3Q2O.jpg", "release_date": "2016-10-21", "title": "Moonlight", "video": false, "vote_average": 7.4, "vote_count": 4410, "popularity": 21.716}, {"adult": false, "backdrop_path": "/t3Oea7KbSpOvuqddMnlFtZ4WHn.jpg", "genre_ids": [18, 53, 36], "id": 314365, "original_language": "en", "original_title": "Spotlight", "overview": "In 2001, editor Marty Baron of The Boston Globe assigns a team of journalists to investigate allegations against John Geoghan, an unfrocked priest accused of molesting more than 80 boys. Led by editor Walter \"Robby\" Robinson, reporters Michael Rezendes, Matt Carroll and Sacha Pfeiffer interview victims and try to unseal sensitive documents. The reporters make it their mission to provide proof of a cover-up of sexual abuse within the Roman Catholic Church.", "poster_path": "/ngKxbvsn9Si5TYVJfi1EGAGwThU.jpg", "release_date": "2015-11-06", "title": "Spotlight", "video": false, "vote_average": 7.8, "vote_count": 5410, "popularity": 19.217}, {"id": 424694, "video": false, "vote_count": 9728, "vote_average": 8.0, "title": "Bohemian Rhapsody", "release_date": "2018-10-24", "original_language": "en", "original_title": "Bohemian Rhapsody", "genre_ids": [18, 10402], "backdrop_path": "/93xA62uLd5CwMOAs37eQ7vPc1iV.jpg", "adult": false, "overview": "Singer Freddie Mercury, guitarist Brian May, drummer Roger Taylor and bass guitarist John Deacon take the music world by storm when they form the rock 'n' roll band Queen in 1970. Hit songs become instant classics. When Mercury's increasingly wild lifestyle starts to spiral out of control, Queen soon faces its greatest challenge yet \u2013 finding a way to keep the band together amid the success and excess.", "poster_path": "/lHu1wtNaczFPGFDTrjCSzeLPTKN.jpg", "popularity": 37.217}, {"id": 490132, "video": false, "vote_count": 5180, "vote_average": 8.3, "title": "Green Book", "release_date": "2018-11-16", "original_language": "en", "original_title": "Green Book", "genre_ids": [35, 18], "backdrop_path": "/78PjwaykLY2QqhMfWRDvmfbC6EV.jpg", "adult": false, "overview": "Tony Lip, a bouncer in 1962, is hired to drive pianist Don Shirley on a tour through the Deep South in the days when African Americans, forced to find alternate accommodations and services due to segregation laws below the Mason-Dixon Line, relied on a guide called The Negro Motorist Green Book.", "poster_path": "/7BsvSuDQuoqhWmU2fL7W2GOcZHU.jpg", "popularity": 31.469}, {"adult": false, "backdrop_path": "/8ndqvvwDVe9oDUQF1Jt6NCjAn7z.jpg", "genre_ids": [10749, 18], "id": 398818, "original_language": "en", "original_title": "Call Me by Your Name", "overview": "In 1980s Italy, a relationship begins between seventeen-year-old teenage Elio and the older adult man hired as his father's research assistant.", "poster_path": "/tcNniniS4rfqrLH0oORikJfnIwY.jpg", "release_date": "2017-09-01", "title": "Call Me by Your Name", "video": false, "vote_average": 8.3, "vote_count": 5876, "popularity": 26.075}, {"adult": false, "backdrop_path": "/cLOekK7EmHB1beYUYEXIlcr6mpS.jpg", "genre_ids": [10752, 36, 28, 12, 18, 10749], "id": 1966, "original_language": "en", "original_title": "Alexander", "overview": "Alexander, the King of Macedonia, leads his legions against the giant Persian Empire. After defeating the Persians, he leads his army across the then known world, venturing farther than any westerner had ever gone, all the way to India.", "poster_path": "/cJrnmbsFm5cEt0pHZZ2a1ueH5aT.jpg", "release_date": "2004-11-21", "title": "Alexander", "video": false, "vote_average": 5.8, "vote_count": 1989, "popularity": 29.042}, {"id": 519010, "video": false, "vote_count": 617, "vote_average": 7.6, "title": "Pain and Glory", "release_date": "2019-03-22", "original_language": "es", "original_title": "Dolor y gloria", "genre_ids": [18], "backdrop_path": "/yCwcSCzcVKdI5Y9tA2T1s5Fr7jY.jpg", "adult": false, "overview": "Salvador Mallo, a filmmaker in the twilight of his career, remembers his life: his mother, his lovers, the actors he worked with. The sixties in a small village in Valencia, the eighties in Madrid, the present, when he feels an immeasurable emptiness, facing his mortality, the incapability of continuing filming, the impossibility of separating creation from his own life. The need of narrating his past can be his salvation.", "poster_path": "/rXv4tqt0UZsqyjCD3Kxjcs6OnHT.jpg", "popularity": 30.638}, {"id": 507076, "video": false, "vote_count": 632, "vote_average": 7.1, "title": "Climax", "release_date": "2018-09-19", "original_language": "fr", "original_title": "Climax", "genre_ids": [18, 27, 10402], "backdrop_path": "/v0sblc9A8eaE8EqDQ5Y6fELj4oB.jpg", "adult": false, "overview": "Young dancers gather in a remote and empty school building to rehearse on a cold and wintry night. The all-night celebration soon turns into a hallucinatory nightmare when they learn that their sangria is laced with LSD.", "poster_path": "/zQDqgzSdTGSDu4rDcQTq7TAttmy.jpg", "popularity": 17.873}, {"id": 83542, "video": false, "vote_count": 4861, "vote_average": 6.8, "title": "Cloud Atlas", "release_date": "2012-10-26", "original_language": "en", "original_title": "Cloud Atlas", "genre_ids": [18, 878], "backdrop_path": "/2ZA03KiD4jePTNBTJjGGFTNQPMA.jpg", "adult": false, "overview": "A set of six nested stories spanning time between the 19th century and a distant post-apocalyptic future. Cloud Atlas explores how the actions and consequences of individual lives impact one another throughout the past, the present and the future. Action, mystery and romance weave through the story as one soul is shaped from a killer into a hero and a single act of kindness ripples across centuries to inspire a revolution in the distant future.  Based on the award winning novel by David Mitchell. Directed by Tom Tykwer and the Wachowskis.", "poster_path": "/8VNiyIp67ZxhpNgdrwACW0jgvP2.jpg", "popularity": 19.113}, {"adult": false, "backdrop_path": "/4NJplkljN06NQLMLSUNmrIsBjBZ.jpg", "genre_ids": [35, 18], "id": 400547, "original_language": "en", "original_title": "Hurricane Bianca", "overview": "Hurricane Bianca is a revenge comedy about a New York teacher who moves to a small town in Texas, gets fired for being gay, and returns disguised in drag to get revenge on the people who were nasty to him.", "poster_path": "/w1QM09R1TqwHTb5UA8X8jR2yh4x.jpg", "release_date": "2016-06-03", "title": "Hurricane Bianca", "video": false, "vote_average": 6.2, "vote_count": 212, "popularity": 9.77}, {"id": 21634, "video": false, "vote_count": 250, "vote_average": 7.9, "title": "Prayers for Bobby", "release_date": "2009-02-27", "original_language": "en", "original_title": "Prayers for Bobby", "genre_ids": [18, 36, 10770], "backdrop_path": "/pSjGsbqyKUzF8rHzL0vtVWV1pS6.jpg", "adult": false, "overview": "Bobby Griffith was his mother's favorite son, the perfect all-American boy growing up under deeply religious influences in Walnut Creek, California. Bobby was also gay. Struggling with a conflict no one knew of much less understood Bobby finally came out to his family.", "poster_path": "/d9TGJxEMkLTEF5lWAx1PLNDNpA0.jpg", "popularity": 9.034}], "total_pages": 945, "total_results": 18893}, "recommendations": {"page": 1, "results": [{"adult": false, "backdrop_path": "/u8Axl8BaLRoFUhD9HSXLKg6Zijy.jpg", "genre_ids": [18], "id": 48143, "original_language": "en", "original_title": "Death and Transfiguration", "overview": "In sepia tones, the film moves back and forth among three periods in Robert Tucker's life: he's an old man, near death, in a nursing home at Christmas time; he's in middle age caring for his cheerful but dying mother; he's a lad at Catholic school, practicing his catechism, going to confession for the first time, receiving the Eucharist, surrounded by the singing of a children's choir. In middle age, he looks through his scrapbook of photographs of muscular men; he recalls lovers and his mother's cremation. A nurse sits beside him on his last night; in his last breath, he reaches forward and back.", "poster_path": "/5oBAWNprNJOlYAxcWIP5i4RC6mZ.jpg", "release_date": "1983-01-01", "title": "Death and Transfiguration", "video": false, "vote_average": 6.2, "vote_count": 10, "popularity": 1.053}, {"adult": false, "backdrop_path": "/82599hAW170EnN5MMLEfMyEoPEo.jpg", "genre_ids": [18], "id": 48142, "original_language": "en", "original_title": "Children", "overview": "Robert Tucker, a young gay man who is almost without affect, sits in various waiting rooms. As he sits, he recalls events from the year of his childhood when his father dies. He's ten or eleven that year, picked on by bullies at the Catholic school he attends. He seems friendless. At home, his mother is quiet, his father is ill and angry. After his father's death, there's a wake, the coffin arrives, the body is removed. The lad grieves, alone.", "poster_path": "/3GMyPuyesezLqsKNkFLynfV7dv9.jpg", "release_date": "1976-01-01", "title": "Children", "video": false, "vote_average": 5.3, "vote_count": 12, "popularity": 1.694}, {"adult": false, "backdrop_path": "/hktqhYvq0eYTYPSPmGYUzv4Y358.jpg", "genre_ids": [99], "id": 174353, "original_language": "en", "original_title": "Michael H - Profession: Director", "overview": "Over the past twenty-five years, director Michael Haneke has established himself as a towering figure in modern cinema whose rigorous focus on the craft of filmmaking has produced works of profound artistry. This career-spanning documentary gives unprecedented access and covers the body of Haneke\u2019s work, offering insight into his creative process through on-set footage and interviews with the man himself and collaborators including Emmanuelle Riva, Isabelle Huppert and Juliette Binoche.", "poster_path": "/xQ260YQbIIpmUDydQP3RKATGzxK.jpg", "release_date": "2013-03-15", "title": "Michael H - Profession: Director", "video": false, "vote_average": 7.1, "vote_count": 8, "popularity": 3.187}, {"adult": false, "backdrop_path": null, "genre_ids": [], "id": 41770, "original_language": "sv", "original_title": "S\u00f6ndagsbarn", "overview": "Little Pu spends a summer in Norrland with all his relatives. He and his brother get to hear the story about the watchmaker who hung himself, learns to shoot with a bow and follow his father on a bicycle trip.", "poster_path": "/j55Z4TLCCUnoot2CiS8qSYszAg4.jpg", "release_date": "1992-01-01", "title": "Sunday's Children", "video": false, "vote_average": 6.3, "vote_count": 8, "popularity": 1.986}, {"adult": false, "backdrop_path": "/37LoFm9rIf6Th56UqYZMIb23HqH.jpg", "genre_ids": [18], "id": 32712, "original_language": "et", "original_title": "A Casa", "overview": "Abstract, beautifully photographed and nearly silent but for limited narration, this plotless arthouse outing from Lithuanian cult film director Sharunas Bartas pays tribute to a huge, old lakeside manor and Lithuanian culture.", "poster_path": "/7OlrDw8fInAdaZKb7ieIc7TSbFi.jpg", "release_date": "1997-10-01", "title": "The House", "video": false, "vote_average": 7.3, "vote_count": 11, "popularity": 1.479}, {"adult": false, "backdrop_path": "/6scKKpeRCmOFYj5cejhp1vvKjKf.jpg", "genre_ids": [18], "id": 42715, "original_language": "hu", "original_title": "Apa", "overview": "The beginning shows Hungary devastated by the war and the postwar reconstruction with its communist government. Our hero (played first by D\u00e1niel Erd\u00e9ly and later, as a young man, by Andr\u00e1s B\u00e1lint) is clearly determined to find out what he can about his father who died young. All he knows is that he was a doctor and perhaps he was an honored victim of fascism. He never really finds out but his relationship with his mother, his friends and his Jewish girlfriend will make him totally independent of this need to find all about Apa or Father.", "poster_path": "/1KziDcxlrFpkg8mziqbKWeD0wE2.jpg", "release_date": "1966-01-01", "title": "Father", "video": false, "vote_average": 6.4, "vote_count": 8, "popularity": 0.883}, {"adult": false, "backdrop_path": "/bodYok5t86WXqLjvNUXLqK20n1t.jpg", "genre_ids": [18], "id": 82027, "original_language": "pl", "original_title": "Wrony", "overview": "A thin child of about 10, nicknamed \"Crow\" because she mimics the bird, has no friends and rejects a teacher's hug. At home, she is left on her own, her mom locks her out while entertaining a lover or is asleep. One morning, Crow sees a chubby, cherubic child hugged by both parents as the father leaves for work. When the toddler is left alone, Crow lifts her through the fence and kidnaps her. That day, Crow tries to mother the child, alternately playing with and scolding her, taking her to the beach, leaving shore in a boat, pushing her into the sea in a pique, and eventually carrying the sleeping child back home. Crow returns to her own mother and asks for affection.", "poster_path": "/MgznJeJRhlPodKS45YM2uFSbcE.jpg", "release_date": "1994-09-12", "title": "Crows", "video": false, "vote_average": 6.2, "vote_count": 13, "popularity": 1.672}, {"adult": false, "backdrop_path": "/8M8RVMzSNVvf32rxjqVUG7vUtrV.jpg", "genre_ids": [18], "id": 122671, "original_language": "sv", "original_title": "Ole dole doff", "overview": "S\u00f6ren M\u00e5rtensson is a middle school teacher. His classroom occupied by half-grown children. His work is tormenting him and at night he is haunted by nightmares.", "poster_path": "/tmRazHF8hLFtb1OcLu3IpgzvA6Q.jpg", "release_date": "1968-03-18", "title": "Ole Dole Doff", "video": false, "vote_average": 7.2, "vote_count": 10, "popularity": 2.669}, {"adult": false, "backdrop_path": "/96xfLmtO94chZ6S7Ic28Fzof5lR.jpg", "genre_ids": [18], "id": 69122, "original_language": "en", "original_title": "F\u00f6re stormen", "overview": "Leo, a guy in the seventh grade gets harassed by a two years older boy in school and seeks revenge. At the same time, Ali, the father of a girl in Leo's class (who Leo has a crush on) is contacted by a opposition group from his home country that wants Ali to assassinate an important man for them. Otherwise, they'll kill the family that Ali left when moving to Sweden.", "poster_path": "/4GCnniqMWZPsxZqjcnri8vL8DNn.jpg", "release_date": "2000-09-22", "title": "Before the Storm", "video": false, "vote_average": 7.7, "vote_count": 10, "popularity": 2.918}, {"adult": false, "backdrop_path": "/piUIwQghNdDu0DOUjcUNzJECnHx.jpg", "genre_ids": [99], "id": 29785, "original_language": "en", "original_title": "Of Time and the City", "overview": "\"Of Time and The City\" is both a love song and a eulogy to the director's birthplace of Liverpool, England. It is also a response to memory, reflection and the experience of losing a sense of place as the skyline changes and time takes it toll. The visual content of the film consists largely of archival clips of Liverpool from the 1940s to the 1960s, their nostalgic charm darkened by accompanying music and by the counterpoint of Davies\u2019 dry, at times dyspeptic, voice-over narration. His voice thickens with emotion as he recalls the delights of juvenile movie-going or the ritual of a holiday trip to New Brighton, across the River Mersey, and hardens with contempt when he turns his gaze on the hoopla surrounding Queen Elizabeth\u2019s coronation in 1953.", "poster_path": "/dE6celNkuKbk9GCppEAf9zEkMqS.jpg", "release_date": "2008-10-31", "title": "Of Time and the City", "video": false, "vote_average": 7.2, "vote_count": 18, "popularity": 3.317}], "total_pages": 1, "total_results": 10}, "credits": {"cast": [{"cast_id": 3, "character": "Tucker", "credit_id": "52fe4756c3a36847f813028d", "gender": 0, "id": 143087, "name": "Terry O'Sullivan", "order": 0, "profile_path": null}, {"cast_id": 4, "character": "Robert's mother", "credit_id": "52fe4756c3a36847f8130291", "gender": 1, "id": 2276, "name": "Sheila Raynor", "order": 1, "profile_path": "/b4EXxbf8djBOGycwHjXtPijrx2K.jpg"}, {"cast_id": 2, "character": "", "credit_id": "52fe4756c3a36847f8130289", "gender": 2, "id": 29698, "name": "Paul Barber", "order": 2, "profile_path": "/nH4k8msd6Da7W2Z89JvQiqRLIqE.jpg"}, {"cast_id": 6, "character": "", "credit_id": "58854e64c3a368064d025597", "gender": 0, "id": 1743794, "name": "John Meynell", "order": 3, "profile_path": null}, {"cast_id": 7, "character": "", "credit_id": "58854e79925141045402694b", "gender": 0, "id": 1743795, "name": "Brian Ward", "order": 4, "profile_path": null}, {"cast_id": 8, "character": "", "credit_id": "58854e83c3a368064a022449", "gender": 2, "id": 1743796, "name": "Dave Cooper", "order": 5, "profile_path": "/attVQK4gYbOXSUZzhw1cg464xOX.jpg"}, {"cast_id": 9, "character": "", "credit_id": "58854e8fc3a368063c025172", "gender": 2, "id": 1743797, "name": "Mark Walton", "order": 6, "profile_path": null}, {"cast_id": 10, "character": "", "credit_id": "58854e9a9251413edb0234cf", "gender": 0, "id": 1743798, "name": "Mal Jefferson", "order": 7, "profile_path": null}, {"cast_id": 11, "character": "", "credit_id": "58854ea3c3a3684f3a02078c", "gender": 0, "id": 1743799, "name": "Lovette Edwards", "order": 8, "profile_path": null}, {"cast_id": 12, "character": "", "credit_id": "58854eafc3a3684ec60240a3", "gender": 0, "id": 1743800, "name": "Rita Thatchery", "order": 9, "profile_path": null}, {"cast_id": 13, "character": "", "credit_id": "588612339251412082001228", "gender": 0, "id": 230915, "name": "Eddie Ross", "order": 10, "profile_path": null}], "crew": [{"credit_id": "5d1af546532acb0011ccc328", "department": "Editing", "gender": 2, "id": 294, "job": "Editor", "name": "Mick Audsley", "profile_path": null}, {"credit_id": "5d1af53d55b0c000126a4bd3", "department": "Crew", "gender": 0, "id": 28497, "job": "Cinematography", "name": "William Diver", "profile_path": null}, {"credit_id": "52fe4756c3a36847f8130297", "department": "Directing", "gender": 2, "id": 93911, "job": "Director", "name": "Terence Davies", "profile_path": "/4VaF43xOqsy9rqRYwQy1dS88tLl.jpg"}, {"credit_id": "5d1af532532acb0011ccc30b", "department": "Writing", "gender": 2, "id": 93911, "job": "Writer", "name": "Terence Davies", "profile_path": "/4VaF43xOqsy9rqRYwQy1dS88tLl.jpg"}]}}