{"adult": false, "backdrop_path": "/cEuQmI6EAihbJfxHRSPkjSRR9Ji.jpg", "belongs_to_collection": null, "budget": 0, "genres": [{"id": 18, "name": "Drama"}, {"id": 35, "name": "Comedy"}], "homepage": null, "id": 48216, "imdb_id": "tt0211286", "original_language": "fr", "original_title": "La b\u00fbche", "overview": "Christmas, family, and infidelity. Yvette's husband has died, and her grown daughters join her at the grave: Sonia, wealthy, bourgeois, and generous; Louba, living with their dad Stanislas, singing at a Russian restaurant, penniless, the mistress for the past 12 years of a man who will never leave his wife; Milla, the youngest, acerbic, lonesome. Christmas was when they learned their parents were divorcing 25 years ago. Over the next few days, yuletide depression, Louba's pregnancy, Sonia's crumbling marriage, Stanislas's overtures to Yvette, and Milla's attraction to the man who's her father's rent-free lodger lead each one to re-examine self, family, and hopes. Is renewal possible?", "popularity": 4.115, "poster_path": "/ogqrJhY25jYXXFp1kLYR0tqSlOg.jpg", "production_companies": [{"id": 3012, "logo_path": null, "name": "Path\u00e9 Distribution", "origin_country": "FR"}, {"id": 635, "logo_path": null, "name": "Les Films Alain Sarde", "origin_country": ""}, {"id": 74541, "logo_path": null, "name": "Studio Images 6", "origin_country": ""}, {"id": 356, "logo_path": "/9tW5wZEGotn1Ei5pErA88m47XiD.png", "name": "TF1 Films Production", "origin_country": "FR"}, {"id": 104, "logo_path": "/9aotxauvc9685tq9pTcRJszuT06.png", "name": "Canal+", "origin_country": "FR"}], "production_countries": [{"iso_3166_1": "FR", "name": "France"}], "release_date": "1999-11-24", "revenue": 0, "runtime": 106, "spoken_languages": [{"iso_639_1": "fr", "name": "Fran\u00e7ais"}, {"iso_639_1": "en", "name": "English"}, {"iso_639_1": "ru", "name": "P\u0443\u0441\u0441\u043a\u0438\u0439"}], "status": "Released", "tagline": "", "title": "Season's Beatings", "video": false, "vote_average": 6.0, "vote_count": 38, "keywords": {"keywords": [{"id": 187056, "name": "woman director"}]}, "similar": {"page": 1, "results": [{"adult": false, "backdrop_path": "/cADbqsIoiDW7X3Myg9nz8eAuno5.jpg", "genre_ids": [18, 10749], "id": 10818, "original_language": "fr", "original_title": "Naissance des pieuvres", "overview": "Set during a sultry summer in a French suburb, Marie is desperate to join the local pool's synchronized swimming team, but is her interest solely for the sake of sport or for a chance to get close to Floriane, the bad girl of the team? Sciamma, and the two leads, capture the uncertainty of teenage sexuality with a sympathetic eye in this delicate drama of the angst of coming-of-age.", "poster_path": "/4jajELYrR4Xmv3CVoKnukRnALa2.jpg", "release_date": "2007-05-17", "title": "Water Lilies", "video": false, "vote_average": 6.1, "vote_count": 119, "popularity": 10.744}, {"adult": false, "backdrop_path": "/gZeJziVigmRqbkEZwKAtSqlLQ6s.jpg", "genre_ids": [18, 10749], "id": 370663, "original_language": "en", "original_title": "Below Her Mouth", "overview": "An unexpected affair quickly escalates into a heart-stopping reality for two women whose passionate connection changes their lives forever.", "poster_path": "/nTGbq37hYLuNy7YgMg0gVLma0NS.jpg", "release_date": "2016-09-10", "title": "Below Her Mouth", "video": false, "vote_average": 6.2, "vote_count": 456, "popularity": 22.676}, {"adult": false, "backdrop_path": "/dvQDRfv3qvfHNnVAR57ouVsuErf.jpg", "genre_ids": [10749, 18], "id": 28031, "original_language": "en", "original_title": "If These Walls Could Talk 2", "overview": "The stories of three lesbian couples -- who live in the same house at different periods of time -- who are at a crossroads in their lives. In 1961, Edith loses her lover, Abby, to a stroke. Linda and Amy struggle with feminist issues in 1972. And, in 2000, Kal and Fran try to have a baby with the help of sperm donor.", "poster_path": "/xs7ODbmYQXCDhvXNvz5tF17T59H.jpg", "release_date": "2000-03-05", "title": "If These Walls Could Talk 2", "video": false, "vote_average": 7.1, "vote_count": 55, "popularity": 8.062}, {"adult": false, "backdrop_path": "/knczzNAjBXzSYkeWxoT1u9VNmjR.jpg", "genre_ids": [10749, 18], "id": 258480, "original_language": "en", "original_title": "Carol", "overview": "In 1950s New York, a department-store clerk who dreams of a better life falls for an older, married woman.", "poster_path": "/AbKa7ANxmui0Jmhh7gV7OSELKIL.jpg", "release_date": "2015-11-20", "title": "Carol", "video": false, "vote_average": 7.4, "vote_count": 2182, "popularity": 14.185}, {"adult": false, "backdrop_path": "/fZ8oFcREAr6wgWcXISGql0xyxjB.jpg", "genre_ids": [35, 18], "id": 39781, "original_language": "en", "original_title": "The Kids Are All Right", "overview": "Two women, Nic and Jules, brought a son and daughter into the world through artificial insemination. When one of their children reaches age, both kids go behind their mothers' backs to meet with the donor. Life becomes so much more interesting when the father, two mothers and children start to become attached to each other.", "poster_path": "/fPDeK4MmoGfi2X0oWZev7LrbMqM.jpg", "release_date": "2010-07-09", "title": "The Kids Are All Right", "video": false, "vote_average": 6.6, "vote_count": 923, "popularity": 12.703}, {"adult": false, "backdrop_path": "/rf6G51j0SZL0tP57I8gnqHTRFEr.jpg", "genre_ids": [35, 18, 10749], "id": 273153, "original_language": "fr", "original_title": "La belle saison", "overview": "In 1971, Carole and Delphine meet and fall in love in Paris. When Carole follows Delphine back to her family farm in Limousin, the two find lesbianism and feminism are not as easy in the countryside.", "poster_path": "/evvAkNMO5VJiy5qIo1Hu7fUfvVI.jpg", "release_date": "2015-08-19", "title": "Summertime", "video": false, "vote_average": 6.6, "vote_count": 162, "popularity": 15.434}, {"adult": false, "backdrop_path": "/s12HEmmkJfI2mjltI61hGm5kubD.jpg", "genre_ids": [35, 18, 10749], "id": 20770, "original_language": "en", "original_title": "But I'm a Cheerleader", "overview": "Megan is an all-American girl. A cheerleader. She has a boyfriend. But Megan doesn't like kissing her boyfriend very much. And she's pretty touchy with her cheerleader friends. Her conservative parents worry that she must be a lesbian and send her off to \"sexual redirection\" school, where she must, with other lesbians and gays learn how to be straight.", "poster_path": "/eDGH7CHSdkrYcuUJV1e0WS9DlQL.jpg", "release_date": "1999-12-09", "title": "But I'm a Cheerleader", "video": false, "vote_average": 6.8, "vote_count": 246, "popularity": 10.067}, {"id": 9813, "video": false, "vote_count": 128, "vote_average": 6.1, "title": "The Quiet", "release_date": "2005-09-12", "original_language": "en", "original_title": "The Quiet", "genre_ids": [18, 53], "backdrop_path": "/6eyWAZA4CEidZW1xXnQ4vlYBXTP.jpg", "adult": false, "overview": "After her widowed father dies, deaf teenager Dot moves in with her godparents, Olivia and Paul Deer. The Deers' daughter, Nina, is openly hostile to Dot, but that does not prevent her from telling her secrets to her silent stepsister, including the fact that she wants to kill her lecherous father.", "poster_path": "/GEqIE9YlmygHVUfS64LW2cwAAM.jpg", "popularity": 13.948}, {"adult": false, "backdrop_path": "/g3LYarEY9LjB28Ct2trwFN72gqZ.jpg", "genre_ids": [35], "id": 437557, "original_language": "en", "original_title": "Blockers", "overview": "When three parents discover their daughters\u2019 pact to lose their virginity at prom, they launch a covert one-night operation to stop the teens from sealing the deal.", "poster_path": "/uvlUQXg0AlpGzKukO11K7QtW3Yu.jpg", "release_date": "2018-03-14", "title": "Blockers", "video": false, "vote_average": 6.2, "vote_count": 1153, "popularity": 18.075}, {"adult": false, "backdrop_path": "/tzqeuHWMFihFbiLGHdalPgAcSf6.jpg", "genre_ids": [18, 10749], "id": 18620, "original_language": "en", "original_title": "Go Fish", "overview": "Max is a trendy, pretty, young lesbian, who is having trouble finding love. A friend sets her up with Ely, whom Max likes, but Ely is frumpy, homely, and older. Nor do they have much in common. Can Max learn to look past the packaging?", "poster_path": "/qrEFYrwykaGsY8NULYuYLLI7zrM.jpg", "release_date": "1994-06-10", "title": "Go Fish", "video": false, "vote_average": 5.0, "vote_count": 11, "popularity": 2.626}, {"adult": false, "backdrop_path": "/6tern9vOEwwmkDYC1vRCuO64z0C.jpg", "genre_ids": [10749, 18], "id": 475888, "original_language": "en", "original_title": "Tell It to the Bees", "overview": "Dr. Jean Markham returns to the town she left as a teenager to take over her late father's medical practice. When a school-yard scuffle lands Charlie in her surgery, she invites him to visit the hives in her garden and tell his secrets to the bees, as she once did. The new friendship between the boy and the bee keeper brings his mother Lydia into Jean's world.", "poster_path": "/Rj6zpHhMU1zFW3v28U4PSRSRgP.jpg", "release_date": "2019-05-03", "title": "Tell It to the Bees", "video": false, "vote_average": 6.4, "vote_count": 53, "popularity": 15.113}, {"adult": false, "backdrop_path": "/baYbbMtKRDoDWYJeVWkbygAvAj8.jpg", "genre_ids": [18, 10749], "id": 31216, "original_language": "en", "original_title": "I Can't Think Straight", "overview": "I CAN'T THINK STRAIGHT is a 2007 romance movie about a London-based Jordanian of Palestinian descent, Tala, who is preparing for an elaborate wedding. A turn of events causes her to have an affair and subsequently fall in love with another woman, Leyla, a British Indian.", "poster_path": "/1kapga6rkM5wNuQBYw7sdE42CrA.jpg", "release_date": "2008-06-01", "title": "I Can't Think Straight", "video": false, "vote_average": 7.6, "vote_count": 109, "popularity": 8.749}, {"adult": false, "backdrop_path": "/lI5h8KaoeObu4NMTwzeRuUHzRwD.jpg", "genre_ids": [18, 9648, 53], "id": 401898, "original_language": "no", "original_title": "Thelma", "overview": "A college student starts to experience extreme seizures. She soon learns that the violent episodes are a symptom of inexplicable abilities.", "poster_path": "/yzSfG8TLAqw7nMQh2lxirQkQpgs.jpg", "release_date": "2017-09-15", "title": "Thelma", "video": false, "vote_average": 7.1, "vote_count": 418, "popularity": 12.235}, {"adult": false, "backdrop_path": "/tIFRPjIXQ3sYrmxbIeOu9K1JkUz.jpg", "genre_ids": [18, 10749], "id": 294, "original_language": "en", "original_title": "Desert Hearts", "overview": "The story of straight-edge literature professor Vivian who travels to Reno to get away from a relationship breakup when she falls in love with an attractive and unconventional girl named Cay.", "poster_path": "/b8JSmQSpYYJhctMtxNgqh0elENg.jpg", "release_date": "1985-10-01", "title": "Desert Hearts", "video": false, "vote_average": 7.3, "vote_count": 58, "popularity": 8.237}, {"id": 520172, "video": false, "vote_count": 0, "vote_average": 0.0, "title": "Happiest Season", "release_date": "2020-11-20", "original_language": "en", "original_title": "Happiest Season", "genre_ids": [35, 10749], "backdrop_path": null, "adult": false, "overview": "A young woman's plans to propose to her girlfriend while at her family's annual holiday party are upended when she discovers her partner hasn't yet come out to her conservative parents.", "poster_path": null, "popularity": 6.436}, {"id": 2255, "video": false, "vote_count": 772, "vote_average": 6.8, "title": "Chasing Amy", "release_date": "1997-04-04", "original_language": "en", "original_title": "Chasing Amy", "genre_ids": [35, 18, 10749], "backdrop_path": "/doKYVK61Vb8J1KUjlb9dNWkQNp6.jpg", "adult": false, "overview": "Holden and Banky are comic book artists. Everything is going good for them until they meet Alyssa, also a comic book artist. Holden falls for her, but his hopes are crushed when he finds out she's a lesbian.", "poster_path": "/4vFJileWrCGaBeobCmF0tXpQCUb.jpg", "popularity": 11.325}, {"adult": false, "backdrop_path": "/hD8DQM72Xacg1d3mFqS0eN8vKYw.jpg", "genre_ids": [18], "id": 8272, "original_language": "en", "original_title": "The Savages", "overview": "A sister and brother face the realities of familial responsibility as they begin to care for their ailing father.", "poster_path": "/nY54gSmTOmSXlQpWDB7DWp4u8a7.jpg", "release_date": "2007-01-19", "title": "The Savages", "video": false, "vote_average": 6.9, "vote_count": 192, "popularity": 13.094}, {"adult": false, "backdrop_path": "/zBB1mzmqnUuSrlTuf0SFFlI1EoJ.jpg", "genre_ids": [18], "id": 244772, "original_language": "en", "original_title": "The Skeleton Twins", "overview": "Estranged twins Maggie and Milo coincidentally cheat death on the same day, prompting them to reunite and confront the reasons their lives went so wrong. As the twins' reunion reinvigorates them, they realize the key to fixing their lives may just lie in repairing their relationship.", "poster_path": "/vvmv1R2jDXJeeeyYcGg0ypXc2XK.jpg", "release_date": "2014-09-12", "title": "The Skeleton Twins", "video": false, "vote_average": 6.7, "vote_count": 416, "popularity": 9.821}, {"adult": false, "backdrop_path": "/3YGy88nTV2e0wxZcKI1goiEN9oy.jpg", "genre_ids": [18, 10749], "id": 37636, "original_language": "en", "original_title": "High Art", "overview": "A young female intern at a small magazine company becomes involved with a drug-addicted lesbian photographer, both of whom seek to exploit each other for their respective careers, while slowly falling in love with each other.", "poster_path": "/qTg05RNJIvb9w4Z7XIcAZxuZmTn.jpg", "release_date": "1998-06-12", "title": "High Art", "video": false, "vote_average": 6.6, "vote_count": 61, "popularity": 7.27}, {"adult": false, "backdrop_path": "/caLMOD3ZJ3V7qjlxDXrzlJfBLgD.jpg", "genre_ids": [18, 10749], "id": 20, "original_language": "en", "original_title": "My Life Without Me", "overview": "A Pedro Almodovar production in which a fatally ill mother with only two months to live creates a list of things she wants to do before she dies with out telling her family of her illness.", "poster_path": "/vVj92VBFUBzjqzLvBiPVVlJDp78.jpg", "release_date": "2003-03-07", "title": "My Life Without Me", "video": false, "vote_average": 6.1, "vote_count": 220, "popularity": 9.208}], "total_pages": 1446, "total_results": 28907}, "recommendations": {"page": 1, "results": [{"adult": false, "backdrop_path": "/2BRrn6PUmBdSfhxEBnF0xlAoGN5.jpg", "genre_ids": [35, 18], "id": 70908, "original_language": "fr", "original_title": "Les Marmottes", "overview": "A story of a family with numerous members drowned in their sentimental problems.", "poster_path": "/vpdvfSPSbfB7K65UMfXK5P77ObZ.jpg", "release_date": "1993-11-10", "title": "The Groundhogs", "video": false, "vote_average": 5.3, "vote_count": 18, "popularity": 3.171}, {"id": 14651, "video": false, "vote_count": 36, "vote_average": 6.2, "title": "My Wife Is an Actress", "release_date": "2001-01-14", "original_language": "fr", "original_title": "Ma femme est une actrice", "genre_ids": [35, 18, 10749], "backdrop_path": "/88p0i4PYUebhZC7ws845K5NdNwE.jpg", "adult": false, "overview": "My Wife is an Actress is a French Romantic Comedy/Drama film starring real life couple Yvan Attal and Charlotte Gainsbourg. Attal plays a journalist who becomes obsessively jealous when his actress wife gets a part in a movie with an attractive co-star. Attal also wrote and directed the film.", "poster_path": "/xW7Uax4mKqLFHNboLdYjrou5Ijd.jpg", "popularity": 3.963}, {"id": 64567, "video": false, "vote_count": 41, "vote_average": 6.1, "title": "Dead Tired", "release_date": "1994-05-18", "original_language": "fr", "original_title": "Grosse fatigue", "genre_ids": [35], "backdrop_path": "/ezG5YcaJBCe2IKNN9BaRq25NZ7b.jpg", "adult": false, "overview": "Stressed and overworked, famous French movie star Michel Blanc (Michel Blanc) is beginning to wear down, physically and mentally, from the pressure and demands of fame. Already in a fragile state of mind, strange events start to transpire all around him, and he gradually loses his grip. Taking the advice of a psychiatrist, Blanc retreats to the countryside with his friend, Carole Bouquet (Carole Bouquet), but Blanc still has not managed to escape all of his problems.", "poster_path": "/ga5rXdPnL0gcglMAIvOy7VayBGk.jpg", "popularity": 4.026}, {"adult": false, "backdrop_path": "/q5j9eGUnA9LZkasdv0To2DzqEs.jpg", "genre_ids": [35, 10749], "id": 1785, "original_language": "fr", "original_title": "Milou en Mai", "overview": "An eccentric family is re-united during the 1968 general strike in France, after the death of the grandmother.", "poster_path": "/zhWgqtSOWmxckHMjJRCxJqjqfSN.jpg", "release_date": "1990-01-24", "title": "May Fools", "video": false, "vote_average": 7.0, "vote_count": 36, "popularity": 4.688}, {"adult": false, "backdrop_path": "/r66rccoUgg4AYhtzjHjL4MibVG7.jpg", "genre_ids": [35, 18, 10749], "id": 8434, "original_language": "fr", "original_title": "Embrassez qui vous voudrez", "overview": "Two couple of friends, one very rich the other almost homeless, decides to go on Holiday. Julie, a single mother, joins them too. Once at seaside, it starts a complicate love cross among them that will involve also a transsexual, a jealous brother,a Latin Lover and another nervous stressed couple. Not to mention about the daughter of one of them that is secretly in Chicago with one of his father's employee... More, at the end of the summer all of them will join the same party...", "poster_path": "/vcOW26uYpb8rPrU5g1KAGmNCWGa.jpg", "release_date": "2002-08-30", "title": "Summer Things", "video": false, "vote_average": 5.7, "vote_count": 42, "popularity": 5.557}, {"adult": false, "backdrop_path": "/byb2fcbUcEOmlZIv8heYibZcfle.jpg", "genre_ids": [35, 18], "id": 40627, "original_language": "fr", "original_title": "Cuisine et D\u00e9pendances", "overview": "Jacques et Martine, couple de bourgeois ordinaires, ont invit\u00e9 \u00e0 d\u00eener un ami perdu de vue depuis dix ans et devenu depuis une vedette des m\u00e9dias.", "poster_path": "/b5czH5faR0vKKKXBnddiZvtxtu5.jpg", "release_date": "1993-04-06", "title": "Cuisine et D\u00e9pendances", "video": false, "vote_average": 6.8, "vote_count": 49, "popularity": 4.65}, {"adult": false, "backdrop_path": "/dE3xFuqFF5IMFGpJOCkWujWS2y4.jpg", "genre_ids": [35], "id": 79753, "original_language": "fr", "original_title": "Promotion canap\u00e9", "overview": "", "poster_path": "/2Ci7cBFd2VEGIQzUHC5Y6a5rv7t.jpg", "release_date": "1990-10-10", "title": "Promotion canap\u00e9", "video": false, "vote_average": 5.1, "vote_count": 23, "popularity": 2.161}, {"adult": false, "backdrop_path": "/xx4x8n6b1RtBeAnWkSJWP3uKf3M.jpg", "genre_ids": [35], "id": 65081, "original_language": "fr", "original_title": "Ma petite entreprise", "overview": "A wood worker is trying hard to make his company survive every day... But a fire in his workshop leaves him in a lot of trouble when he realizes his insurer was swindling him - he does not have any insurance... That's when a crazy idea grows in his mind - he will need all his friends and their different talents to make it work...", "poster_path": "/k5sjiUWfPb06DKdDPuISCt1S1oU.jpg", "release_date": "1999-09-01", "title": "My Little Business", "video": false, "vote_average": 6.2, "vote_count": 23, "popularity": 2.22}, {"id": 68023, "video": false, "vote_count": 32, "vote_average": 6.5, "title": "Beaumarchais the Scoundrel", "release_date": "1996-03-20", "original_language": "fr", "original_title": "Beaumarchais, l'insolent", "genre_ids": [12, 36, 10749], "backdrop_path": "/74e4ZzJe38iCrUmNNSNSHNk168B.jpg", "adult": false, "overview": "Beaumarchais the Scoundrel is a biopic film based on the life of the French playwright, financier and spy Pierre Beaumarchais depicting his activities during the American War of Independence and his authorship of the Figaro trilogy of plays.", "poster_path": "/3vTo3h3QGdE3n8QMzfLoRaXrzVt.jpg", "popularity": 4.294}, {"adult": false, "backdrop_path": "/dK4cb4eCWQNv7QcxporHI83zFv6.jpg", "genre_ids": [53, 18], "id": 74401, "original_language": "fr", "original_title": "\u00c0 mort l'arbitre !", "overview": "Michel,a referee has to suffer the consequences of having whistled a penalty against a team which is supported by football hooligans.", "poster_path": "/ibajBclsemBC5EZqtZoKRYbw54c.jpg", "release_date": "1984-02-22", "title": "Kill the Referee", "video": false, "vote_average": 5.6, "vote_count": 20, "popularity": 1.949}, {"adult": false, "backdrop_path": "/6Ss2JQCD5EQPhMfLQSQ6zotrfDB.jpg", "genre_ids": [9648, 18, 80], "id": 45515, "original_language": "fr", "original_title": "Au c\u0153ur du mensonge", "overview": "In a small Breton town, a 10-year-old girl is found murdered. Ren\u00e9, her art teacher, a professional painter, is the last person to have seen her alive. The inspector in charge of the investigation immediately questions him. In this small provincial town where people all know each other and regularly meet at the Bar des Amis, Ren\u00e9 is increasingly unsettled by the other inhabitants' suspicions and by the inspector's investigation. Children stop coming to him for lessons. His wife, Viviane, a district nurse, protects him and supports him with her love. However, a self-centred media-star writer adds to Ren\u00e9's confusion...", "poster_path": "/j9SzL5EZiBjPkGQQKmSjWojkKhe.jpg", "release_date": "1999-01-13", "title": "The Color of Lies", "video": false, "vote_average": 5.9, "vote_count": 22, "popularity": 3.499}, {"id": 62013, "video": false, "vote_count": 28, "vote_average": 6.4, "title": "Les apprentis", "release_date": "1995-12-20", "original_language": "fr", "original_title": "Les apprentis", "genre_ids": [35], "backdrop_path": "/1PLrfKNWk9uGmuOR8r793GDzQBf.jpg", "adult": false, "overview": "Black comedy about two best friends, one a budding playwright and the other a motorbike freak, who spend their time annoying their girlfriends and getting into various scrapes. Things turn nasty, however, when the pair are caught burgling the offices of a karate magazine, the consequences of which sends the playwright into a spiraling bout of depression.", "poster_path": "/u0Sgt38Nzlnsh0jzllB9kyz8Bok.jpg", "popularity": 3.683}, {"adult": false, "backdrop_path": null, "genre_ids": [18, 10749], "id": 63980, "original_language": "fr", "original_title": "La femme de ma vie", "overview": "Simon, a famous violinist, sinks into alcoholism. He finds support from his lover, who is also the manager of the orchestra in which he plays. But is she really helping him or is she exploiting his dependence on her? A man who has been through the same experience as Simon, offers to help him...", "poster_path": "/nZ8RalNjJJt3gWvaO4SjoNO4dGA.jpg", "release_date": "1986-10-08", "title": "The Woman of My Life", "video": false, "vote_average": 6.3, "vote_count": 6, "popularity": 2.791}, {"id": 66695, "video": false, "vote_count": 5, "vote_average": 6.0, "title": "Cause Always... I'm Interested in You", "release_date": "1979-04-18", "original_language": "fr", "original_title": "Cause toujours... tu m'int\u00e9resses", "genre_ids": [35], "backdrop_path": "/b7GnkVpwNZg4258RGVhWw68SjHh.jpg", "adult": false, "overview": "Fran\u00e7ois Perrin is a journalist who reads the news on RTL radio. Alone in life, his only \"amusement\" is his neighbor from Africa, who makes mildly fun of him from time to time. One evening, Fran\u00e7ois is bored, and decides to call a random telephone number. He gets Christine on the line, a bit of an old school pharmacist, who hesitates to put down the phone, and plays the game of seduction with the charming \"Mr X\"...", "poster_path": "/wWg54YbAlhf574xXsuCIk4nygV8.jpg", "popularity": 2.204}, {"adult": false, "backdrop_path": "/aT3mFV7pz4cfwtN87vesG9BJk6f.jpg", "genre_ids": [35], "id": 184187, "original_language": "fr", "original_title": "Elle court, elle court la banlieue", "overview": "", "poster_path": "/zOVa0EheUOgCvbXZHckLqChDTnX.jpg", "release_date": "1973-02-22", "title": "Elle court, elle court la banlieue", "video": false, "vote_average": 5.3, "vote_count": 9, "popularity": 1.245}, {"adult": false, "backdrop_path": "/dOl26y7ZgoLOXMdkpdk7CF8EWuZ.jpg", "genre_ids": [18, 36], "id": 48750, "original_language": "fr", "original_title": "Les mis\u00e9rables", "overview": "In France during World War II, a poor and illiterate man, Henri Fortin (Jean-Paul Belmondo), is introduced to Victor Hugo's classic novel Les Mis\u00e9rables and begins to see parallels between the book and his own life.", "poster_path": "/ePJCk8puXx28CtvpSpmezpwfVt8.jpg", "release_date": "1995-03-22", "title": "Les Miserables", "video": false, "vote_average": 6.9, "vote_count": 26, "popularity": 4.068}, {"id": 42394, "video": false, "vote_count": 41, "vote_average": 5.7, "title": "Pinot Simple Flic", "release_date": "1984-06-06", "original_language": "en", "original_title": "Pinot Simple Flic", "genre_ids": [35], "backdrop_path": "/eie0BsR4JXxa6AbAyoPIxeODCTQ.jpg", "adult": false, "overview": "En voulant aider Marylou \u00e0 sortir de la d\u00e9linquance, Pinot, simple flic, va se retrouver confront\u00e9 \u00e0 Tony, son compagnon, un dealer.", "poster_path": "/9IJwnjSniubt3Za070AH3zSZi4I.jpg", "popularity": 5.426}, {"adult": false, "backdrop_path": "/pcYUukLoAG6nGh3SeFr7Rp4zh1t.jpg", "genre_ids": [80], "id": 84644, "original_language": "fr", "original_title": "Le cousin", "overview": "Nounours is the nickname of a \"cousin\" an informer with a special arrangement with the police: he gets 10% of the drugs seized thanks to his help. When his personal contact, inspector Maurin, commits suicide, inspector G\u00e9rard Delvaux takes over. Meanwhile, judge Lambert is uncovering the illegal practices of the policemen. Her persistent investigations, which had cornered Maurin, are leading to G\u00e9rard, and also to Nounours as the source of heroin that led to recent cases of deadly overdoses. Nounours promises G\u00e9rard increasingly bigger catches which he is intent on realising before he is forced to reveal who Nounours is to judge Lambert.", "poster_path": "/d2X4MuUhz4LFZH3HKBJ38g34P3a.jpg", "release_date": "1997-12-10", "title": "The Cousin", "video": false, "vote_average": 6.2, "vote_count": 28, "popularity": 3.749}, {"adult": false, "backdrop_path": "/yLDCz2PV96UMnuDhpbL026rAnK8.jpg", "genre_ids": [35], "id": 18296, "original_language": "fr", "original_title": "15 ao\u00fbt", "overview": "Three men are abandonned by their wives for a few days in the summer holidays. They are alone with five kids to feed and a house to maintain. And they will learn what they did wrong with their wives.", "poster_path": "/riCV2r7lXaQUpIwIkvToxp7I1LO.jpg", "release_date": "2001-04-18", "title": "August 15th", "video": false, "vote_average": 5.3, "vote_count": 43, "popularity": 3.376}, {"adult": false, "backdrop_path": "/lT9ZqdTrF9RWSEoRwWOVqBNrjpR.jpg", "genre_ids": [35], "id": 40177, "original_language": "fr", "original_title": "Les D\u00e9mons de J\u00e9sus", "overview": "Set in the late 1960s, a family of Gypsies live in a dilapidated pavilion in the western suburbs of Paris.", "poster_path": "/iPAR3pVC1PFxqA9IeaXO6UQJyHg.jpg", "release_date": "1997-01-01", "title": "Les D\u00e9mons de J\u00e9sus", "video": false, "vote_average": 6.7, "vote_count": 32, "popularity": 4.0}], "total_pages": 2, "total_results": 40}, "credits": {"cast": [{"cast_id": 2, "character": "Louba", "credit_id": "52fe475ac3a36847f8130ef7", "gender": 1, "id": 20851, "name": "Sabine Az\u00e9ma", "order": 0, "profile_path": "/lul5wy6v791ka5YzxpVuPqwLPQA.jpg"}, {"cast_id": 3, "character": "Sonia", "credit_id": "52fe475ac3a36847f8130efb", "gender": 1, "id": 4885, "name": "Emmanuelle B\u00e9art", "order": 1, "profile_path": "/dICNGDe2Sgz73Febl0TJZpEKO9f.jpg"}, {"cast_id": 4, "character": "Milla Robin", "credit_id": "52fe475ac3a36847f8130eff", "gender": 1, "id": 4273, "name": "Charlotte Gainsbourg", "order": 2, "profile_path": "/hWUtcljrFsaSf9ZFTgjIoo4FxfQ.jpg"}, {"cast_id": 5, "character": "Stanislas", "credit_id": "52fe475ac3a36847f8130f03", "gender": 2, "id": 24903, "name": "Claude Rich", "order": 3, "profile_path": "/z6eB2NHro21TR7G7R2XyP4qQwNT.jpg"}, {"cast_id": 6, "character": "Yvette", "credit_id": "52fe475ac3a36847f8130f07", "gender": 1, "id": 9765, "name": "Fran\u00e7oise Fabian", "order": 4, "profile_path": "/l8fJpeV3naLD53CEqxWD1shXI2a.jpg"}, {"cast_id": 7, "character": "Gilbert", "credit_id": "52fe475ac3a36847f8130f0b", "gender": 2, "id": 28463, "name": "Jean-Pierre Darroussin", "order": 5, "profile_path": "/951QpVbYDqI8s0TSQrPyhFZOlHY.jpg"}, {"cast_id": 8, "character": "Annabelle", "credit_id": "52fe475ac3a36847f8130f0f", "gender": 1, "id": 4166, "name": "Isabelle Carr\u00e9", "order": 6, "profile_path": "/p97h6F6o9iSxGDuf86WLHs2A8sv.jpg"}, {"cast_id": 9, "character": "Pierre", "credit_id": "52fe475ac3a36847f8130f13", "gender": 2, "id": 57738, "name": "Samuel Labarthe", "order": 7, "profile_path": "/ud26oMB8L7pXeHYmSu6vnmcbWQs.jpg"}], "crew": [{"credit_id": "52fe475ac3a36847f8130ef3", "department": "Directing", "gender": 1, "id": 1963, "job": "Director", "name": "Dani\u00e8le Thompson", "profile_path": "/iZ87eYEoy9rM2oRHCSLNAriX3o3.jpg"}, {"credit_id": "56f198a29251410e7c0002a5", "department": "Writing", "gender": 1, "id": 1963, "job": "Writer", "name": "Dani\u00e8le Thompson", "profile_path": "/iZ87eYEoy9rM2oRHCSLNAriX3o3.jpg"}, {"credit_id": "56f1989a9251410a400002fe", "department": "Writing", "gender": 2, "id": 35530, "job": "Writer", "name": "Christopher Thompson", "profile_path": "/waz8EXJ8xVMa97XnSAh6KxFEvU8.jpg"}]}}