{"adult": false, "backdrop_path": null, "belongs_to_collection": null, "budget": 0, "genres": [{"id": 18, "name": "Drama"}], "homepage": "http://shottan-movie.jp/", "id": 482753, "imdb_id": "tt7268368", "original_language": "ja", "original_title": "\u6ce3\u304d\u866b\u3057\u3087\u3063\u305f\u3093\u306e\u5947\u8de1", "overview": "Shoji Segawa was a quiet and inconspicuous boy, but, for the first time, he is recognized by people after winning the National Middle School Shogi Tournament. At the age of 26, his dream of becoming a professional shogi player collapses due to an age restriction. After he quits playing shogi, he becomes desperate. With the support of his peers, including Yuya Suzuki, and his love of shogi, Shoji Segawa begins to play shogi again. A miracle happens to him.", "popularity": 0.93, "poster_path": "/twc2EtSZkLnSgGa8OR3epgtfNca.jpg", "production_companies": [{"id": 23306, "logo_path": null, "name": "WOWOW FILMS", "origin_country": "JP"}, {"id": 96455, "logo_path": null, "name": "F Project", "origin_country": ""}], "production_countries": [{"iso_3166_1": "JP", "name": "Japan"}], "release_date": "2018-09-07", "revenue": 0, "runtime": 127, "spoken_languages": [{"iso_639_1": "ja", "name": "\u65e5\u672c\u8a9e"}], "status": "Released", "tagline": "", "title": "The Miracle of Crybaby Shottan", "video": false, "vote_average": 0.0, "vote_count": 0, "keywords": {"keywords": [{"id": 818, "name": "based on novel or book"}, {"id": 5565, "name": "biography"}, {"id": 239067, "name": "shogi"}]}, "similar": {"page": 1, "results": [{"adult": false, "backdrop_path": "/nU6DDTabbMkd3649WYtSiOdHCMC.jpg", "genre_ids": [18, 10749], "id": 332283, "original_language": "en", "original_title": "Mary Shelley", "overview": "The love affair between poet Percy Shelley and Mary Wollstonecraft Godwin resulted in the creation of an immortal novel, \u201cFrankenstein; or, The Modern Prometheus.\u201d", "poster_path": "/gKHJTsrfxJtfFNPQJn2hDNEMtFf.jpg", "release_date": "2018-04-22", "title": "Mary Shelley", "video": false, "vote_average": 7.1, "vote_count": 516, "popularity": 12.227}, {"id": 423899, "video": false, "vote_count": 714, "vote_average": 6.9, "title": "Victoria & Abdul", "release_date": "2017-09-14", "original_language": "en", "original_title": "Victoria & Abdul", "genre_ids": [18, 36], "backdrop_path": "/oGPQrolel4noBgS8bfJ5cWx1xHS.jpg", "adult": false, "overview": "Queen Victoria strikes up an unlikely friendship with a young Indian clerk named Abdul Karim.", "poster_path": "/a5vm7eBHLfBqaOMQUUAVxXmgmhA.jpg", "popularity": 11.856}, {"id": 457799, "video": false, "vote_count": 1572, "vote_average": 7.0, "title": "Extremely Wicked, Shockingly Evil and Vile", "release_date": "2019-05-02", "original_language": "en", "original_title": "Extremely Wicked, Shockingly Evil and Vile", "genre_ids": [80, 18, 53], "backdrop_path": "/uRoA67sM5vvCI4cplxhl67BTPly.jpg", "adult": false, "overview": "A chronicle of the crimes of Ted Bundy, from the perspective of his longtime girlfriend, Elizabeth Kloepfer, who refused to believe the truth about him for years.", "poster_path": "/zSuJ3r5zr5T26tTxyygHhgkUAIM.jpg", "popularity": 22.062}, {"adult": false, "backdrop_path": "/kiWvoV78Cc3fUwkOHKzyBgVdrDD.jpg", "genre_ids": [37, 18, 12], "id": 281957, "original_language": "en", "original_title": "The Revenant", "overview": "In the 1820s, a frontiersman, Hugh Glass, sets out on a path of vengeance against those who left him for dead after a bear mauling.", "poster_path": "/oXUWEc5i3wYyFnL1Ycu8ppxxPvs.jpg", "release_date": "2015-12-25", "title": "The Revenant", "video": false, "vote_average": 7.5, "vote_count": 12127, "popularity": 24.135}, {"id": 369972, "video": false, "vote_count": 3001, "vote_average": 7.1, "title": "First Man", "release_date": "2018-10-11", "original_language": "en", "original_title": "First Man", "genre_ids": [18, 36], "backdrop_path": "/jrudoaXcoLyHRPdolyOGemXgPEs.jpg", "adult": false, "overview": "A look at the life of the astronaut, Neil Armstrong, and the legendary space mission that led him to become the first man to walk on the Moon on July 20, 1969.", "poster_path": "/i91mfvFcPPlaegcbOyjGgiWfZzh.jpg", "popularity": 27.464}, {"id": 411728, "video": false, "vote_count": 342, "vote_average": 7.2, "title": "The Professor and the Madman", "release_date": "2019-03-07", "original_language": "en", "original_title": "The Professor and the Madman", "genre_ids": [18, 36, 9648, 53], "backdrop_path": "/zhNfM1CSQqJtIqelwlK9iKtSd9P.jpg", "adult": false, "overview": "Professor James Murray begins work compiling words for the first edition of the Oxford English Dictionary in the mid 19th century, and receives over 10,000 entries from a patient at Broadmoor Criminal Lunatic Asylum, Dr. William Minor.", "poster_path": "/gtGCDLhfjW96qVarwctnuTpGOtD.jpg", "popularity": 13.302}, {"id": 300671, "video": false, "vote_count": 1700, "vote_average": 7.1, "title": "13 Hours: The Secret Soldiers of Benghazi", "release_date": "2016-01-13", "original_language": "en", "original_title": "13 Hours: The Secret Soldiers of Benghazi", "genre_ids": [28, 18, 36, 53, 10752], "backdrop_path": "/hY8myWhjSOUeeiPskhOfwwgaCwc.jpg", "adult": false, "overview": "An American Ambassador is killed during an attack at a U.S. compound in Libya as a security team struggles to make sense out of the chaos.", "poster_path": "/4gpW4MkRI0BB17GHOJzXq0WamDP.jpg", "popularity": 20.173}, {"id": 334543, "video": false, "vote_count": 4306, "vote_average": 8.1, "title": "Lion", "release_date": "2016-11-24", "original_language": "en", "original_title": "Lion", "genre_ids": [18], "backdrop_path": "/fgffluhvdOv79SkYaKrfRA0xkf4.jpg", "adult": false, "overview": "A five-year-old Indian boy gets lost on the streets of Calcutta, thousands of kilometers from home. He survives many challenges before being adopted by a couple in Australia; 25 years later, he sets out to find his lost family.", "poster_path": "/iBGRbLvg6kVc7wbS8wDdVHq6otm.jpg", "popularity": 30.623}, {"id": 424, "video": false, "vote_count": 8988, "vote_average": 8.6, "title": "Schindler's List", "release_date": "1993-11-30", "original_language": "en", "original_title": "Schindler's List", "genre_ids": [18, 36, 10752], "backdrop_path": "/cTNYRUTXkBgPH3wP3kmPUB5U6dA.jpg", "adult": false, "overview": "The true story of how businessman Oskar Schindler saved over a thousand Jewish lives from the Nazis while they worked as slaves in his factory during World War II.", "poster_path": "/yPisjyLweCl1tbgwgtzBCNCBle.jpg", "popularity": 25.457}, {"adult": false, "backdrop_path": "/GRyynLqafMrLFMHqvfGdUweavA.jpg", "genre_ids": [27, 18, 14], "id": 628, "original_language": "en", "original_title": "Interview with the Vampire", "overview": "A vampire relates his epic life story of love, betrayal, loneliness, and dark hunger to an over-curious reporter.", "poster_path": "/hldXwwViSfHJS0kIJr07KBGmHJI.jpg", "release_date": "1994-11-11", "title": "Interview with the Vampire", "video": false, "vote_average": 7.3, "vote_count": 3231, "popularity": 21.064}, {"id": 401847, "video": false, "vote_count": 664, "vote_average": 6.8, "title": "Can You Ever Forgive Me?", "release_date": "2018-10-19", "original_language": "en", "original_title": "Can You Ever Forgive Me?", "genre_ids": [35, 80, 18], "backdrop_path": "/shIOFWkjTn2NRvq5r4Mn2xLdZeJ.jpg", "adult": false, "overview": "When a bestselling celebrity biographer is no longer able to get published because she has fallen out of step with current tastes, she turns her art form to deception.", "poster_path": "/hPuZR2bFoV0kuBrA98exWyvTf40.jpg", "popularity": 16.339}, {"id": 399404, "video": false, "vote_count": 3041, "vote_average": 7.3, "title": "Darkest Hour", "release_date": "2017-11-22", "original_language": "en", "original_title": "Darkest Hour", "genre_ids": [18, 36], "backdrop_path": "/zXwFJMwvQcJFitP9GcHZvHAHGe8.jpg", "adult": false, "overview": "A thrilling and inspiring true story begins on the eve of World War II as, within days of becoming Prime Minister of Great Britain, Winston Churchill must face one of his most turbulent and defining trials: exploring a negotiated peace treaty with Nazi Germany, or standing firm to fight for the ideals, liberty and freedom of a nation. As the unstoppable Nazi forces roll across Western Europe and the threat of invasion is imminent, and with an unprepared public, a skeptical King, and his own party plotting against him, Churchill must withstand his darkest hour, rally a nation, and attempt to change the course of world history.", "poster_path": "/z0K8uoNbrYKkbaP7wIeadJ4BmSL.jpg", "popularity": 21.82}, {"adult": false, "backdrop_path": "/sw7mordbZxgITU877yTpZCud90M.jpg", "genre_ids": [18, 80], "id": 769, "original_language": "en", "original_title": "GoodFellas", "overview": "The true story of Henry Hill, a half-Irish, half-Sicilian Brooklyn kid who is adopted by neighbourhood gangsters at an early age and climbs the ranks of a Mafia family under the guidance of Jimmy Conway.", "poster_path": "/pwpGfTImTGifEGgLb3s6LRPd4I6.jpg", "release_date": "1990-09-12", "title": "GoodFellas", "video": false, "vote_average": 8.4, "vote_count": 6559, "popularity": 36.135}, {"adult": false, "backdrop_path": "/9alS7FBSf8rvDLskpCRuKqAI2h5.jpg", "genre_ids": [18, 36], "id": 746, "original_language": "en", "original_title": "The Last Emperor", "overview": "A dramatic history of Pu Yi, the last of the Emperors of China, from his lofty birth and brief reign in the Forbidden City, the object of worship by half a billion people; through his abdication, his decline and dissolute lifestyle; his exploitation by the invading Japanese, and finally to his obscure existence as just another peasant worker in the People's Republic.", "poster_path": "/KTirnfG6FZLKWbm8Am3EEKmZDx.jpg", "release_date": "1987-10-21", "title": "The Last Emperor", "video": false, "vote_average": 7.6, "vote_count": 774, "popularity": 13.039}, {"adult": false, "backdrop_path": "/fk14EtkyfQP4j28OZCLRr7Zuz2t.jpg", "genre_ids": [18, 53], "id": 48231, "original_language": "en", "original_title": "A Dangerous Method", "overview": "Seduced by the challenge of an impossible case, the driven Dr. Carl Jung takes the unbalanced yet beautiful Sabina Spielrein as his patient. Jung\u2019s weapon is the method of his master, the renowned Sigmund Freud. Both men fall under Sabina\u2019s spell.", "poster_path": "/vKoP2wiyP71abIGxZ2oCmgnWG6K.jpg", "release_date": "2011-09-30", "title": "A Dangerous Method", "video": false, "vote_average": 6.3, "vote_count": 1182, "popularity": 17.689}, {"id": 425336, "video": false, "vote_count": 589, "vote_average": 6.2, "title": "Loving Pablo", "release_date": "2017-10-12", "original_language": "es", "original_title": "Loving Pablo", "genre_ids": [80, 18], "backdrop_path": "/pcIXV6Od8KeDsLWKu7Wzthaur4V.jpg", "adult": false, "overview": "The film chronicles the rise and fall of the world's most feared drug lord Pablo Escobar and his volatile love affair with Colombia's most famous journalist Virginia Vallejo throughout a reign of terror that tore a country apart.", "poster_path": "/xFc8RCsQGQv016ELpggiEKoBNAe.jpg", "popularity": 13.195}, {"id": 371638, "video": false, "vote_count": 2190, "vote_average": 7.2, "title": "The Disaster Artist", "release_date": "2017-03-12", "original_language": "en", "original_title": "The Disaster Artist", "genre_ids": [35, 18], "backdrop_path": "/cCIWU5b4izIpLeGQnQNW7iTtIDN.jpg", "adult": false, "overview": "An aspiring actor in Hollywood meets an enigmatic stranger by the name of Tommy Wiseau, the meeting leads the actor down a path nobody could have predicted; creating the worst movie ever made.", "poster_path": "/jj84nF5vYRD0HUTowBKcrKk8hZP.jpg", "popularity": 21.696}, {"id": 451915, "video": false, "vote_count": 818, "vote_average": 7.6, "title": "Beautiful Boy", "release_date": "2018-10-12", "original_language": "en", "original_title": "Beautiful Boy", "genre_ids": [18], "backdrop_path": "/sOhtC4cmaYPOlcjXCWxxrx2NKKn.jpg", "adult": false, "overview": "After he and his first wife separate, journalist David Sheff struggles to help their teenage son, who goes from experimenting with drugs to becoming devastatingly addicted to methamphetamine.", "poster_path": "/i7gsLrNxpSf8NF5IZIrcOEfMyA3.jpg", "popularity": 17.739}, {"id": 1955, "video": false, "vote_count": 1711, "vote_average": 8.1, "title": "The Elephant Man", "release_date": "1980-10-02", "original_language": "en", "original_title": "The Elephant Man", "genre_ids": [18, 36], "backdrop_path": "/rR479zn26lJp4vNxXKjfBVCHLAW.jpg", "adult": false, "overview": "A Victorian surgeon rescues a heavily disfigured man being mistreated by his \"owner\" as a side-show freak. Behind his monstrous fa\u00e7ade, there is revealed a person of great intelligence and sensitivity. Based on the true story of Joseph Merrick (called John Merrick in the film), a severely deformed man in 19th century London.", "poster_path": "/lDXJUmLQsViSKLbil2luD91l2kE.jpg", "popularity": 12.883}, {"adult": false, "backdrop_path": "/jArl1j9sL2mYjRW23EaZKWAr2E8.jpg", "genre_ids": [18, 36], "id": 399121, "original_language": "fr", "original_title": "J\u2019accuse", "overview": "In 1894, French Captain Alfred Dreyfus is wrongfully convicted of treason and sentenced to life imprisonment at Devil's Island.", "poster_path": "/xMCJhioKlEBoWAJM9aCBKR8J3BT.jpg", "release_date": "2019-09-30", "title": "An Officer and a Spy", "video": false, "vote_average": 7.4, "vote_count": 278, "popularity": 12.331}], "total_pages": 360, "total_results": 7183}, "recommendations": {"page": 1, "results": [], "total_pages": 1, "total_results": 0}, "credits": {"cast": [{"cast_id": 0, "character": "Shoji Segawa", "credit_id": "59ecd5c6c3a36871bc009fa9", "gender": 2, "id": 72932, "name": "Ryuhei Matsuda", "order": 1, "profile_path": "/h5LaFzOmcIufsD0i0nv12AG00Mo.jpg"}, {"cast_id": 1, "character": "Yuya Suzuki", "credit_id": "59ecd5d6c3a3682edc012076", "gender": 2, "id": 1462260, "name": "Yojiro Noda", "order": 2, "profile_path": "/a7A6y9fMdSyiMPli7WuvPNZlGvb.jpg"}, {"cast_id": 6, "character": "", "credit_id": "5c5d33d39251413376bb6f95", "gender": 2, "id": 110500, "name": "Hirofumi Arai", "order": 3, "profile_path": "/8nG16y3euYjEB9ZfZP2ixx7DpXy.jpg"}, {"cast_id": 7, "character": "", "credit_id": "5c5d33e3c3a3683cdb8b633d", "gender": 2, "id": 2541, "name": "Jun Kunimura", "order": 4, "profile_path": "/zMf3lIodQvte4VDnCBnuG9ZEx72.jpg"}], "crew": [{"credit_id": "59ecd5f2925141366d00341b", "department": "Writing", "gender": 2, "id": 81107, "job": "Screenplay", "name": "Toshiaki Toyoda", "profile_path": "/iMolLmPzsRs5OpT8Ko36NSeKMqb.jpg"}, {"credit_id": "59ecd5ebc3a368535b00ff1b", "department": "Directing", "gender": 2, "id": 81107, "job": "Director", "name": "Toshiaki Toyoda", "profile_path": "/iMolLmPzsRs5OpT8Ko36NSeKMqb.jpg"}, {"credit_id": "59ecd6a8c3a3682edc0121d7", "department": "Production", "gender": 0, "id": 1716802, "job": "Producer", "name": "Ky\u00f4ichi Mori", "profile_path": null}, {"credit_id": "59ecd616c3a36851bd00d301", "department": "Writing", "gender": 0, "id": 1910216, "job": "Novel", "name": "Sh\u00f4ji Segawa", "profile_path": null}]}}