{"adult": false, "backdrop_path": "/m0zm0uaz7sfpQyOF4A1AvoXfskF.jpg", "belongs_to_collection": null, "budget": 0, "genres": [{"id": 28, "name": "Action"}], "homepage": "", "id": 48297, "imdb_id": "tt0077973", "original_language": "zh", "original_title": "Nan Shao Lin yu bei Shao Lin", "overview": "Three North Shaolin teachers (Lu Feng, Chang Sheng, and Sun Chien) are called on by the Manchus to teach their soldiers and are urged to challenge the current South Shaolin teachers. They defeat the South Shaolin teachers and, that night, the head general (Wang Lung Wei) kills the South Shaolin teachers and blames their death on the North Shaolin teachers. The South Shaolin master sends more of his pupils, who are killed accidentally by the North Shaolin teachers. He finally sends two more (Wei Pai and Lo Meng) of his students to train with old masters and trains one student (Kuo Chui) himself with the goal of finally defeating the North Shaolin experts.", "popularity": 5.805, "poster_path": "/pqPdYXU8XeEmpyJWNVTOBMLXSy2.jpg", "production_companies": [{"id": 5798, "logo_path": "/tmuI9BGXgpWLmokhlxpnG3IGNQB.png", "name": "Shaw Brothers", "origin_country": "HK"}], "production_countries": [{"iso_3166_1": "HK", "name": "Hong Kong"}], "release_date": "1978-11-19", "revenue": 0, "runtime": 98, "spoken_languages": [{"iso_639_1": "cn", "name": "\u5e7f\u5dde\u8bdd / \u5ee3\u5dde\u8a71"}, {"iso_639_1": "zh", "name": "\u666e\u901a\u8bdd"}], "status": "Released", "tagline": "", "title": "Invincible Shaolin", "video": false, "vote_average": 6.6, "vote_count": 16, "keywords": {"keywords": [{"id": 779, "name": "martial arts"}]}, "similar": {"page": 1, "results": [{"adult": false, "backdrop_path": "/tBWZkKMcrWdrpkOAA84FBlzE2XK.jpg", "genre_ids": [12, 28, 53], "id": 9053, "original_language": "en", "original_title": "DOA: Dead or Alive", "overview": "Four beautiful rivals at an invitation-only martial-arts tournament join forces against a sinister threat. Princess Kasumi is an aristocratic warrior trained by martial-arts masters. Tina Armstrong is a wrestling superstar. Helena Douglas is an athlete with a tragic past. Christie Allen earns her keep as a thief and an assassin-for-hire.", "poster_path": "/lZ6vZka2M0jtH1khYWa8j73E275.jpg", "release_date": "2006-09-07", "title": "DOA: Dead or Alive", "video": false, "vote_average": 4.9, "vote_count": 415, "popularity": 15.433}, {"id": 140300, "video": false, "vote_count": 3210, "vote_average": 6.7, "title": "Kung Fu Panda 3", "release_date": "2016-01-23", "original_language": "en", "original_title": "Kung Fu Panda 3", "genre_ids": [28, 12, 16, 35, 10751], "backdrop_path": "/eHWmEUP4fa7h1Fe7TXfTL7ncDl8.jpg", "adult": false, "overview": "Continuing his \"legendary adventures of awesomeness\", Po must face two hugely epic, but different threats: one supernatural and the other a little closer to his home.", "poster_path": "/MZFPacfKzgisnPoJIPEFZUXBBT.jpg", "popularity": 30.681}, {"id": 146, "video": false, "vote_count": 1771, "vote_average": 7.3, "title": "Crouching Tiger, Hidden Dragon", "release_date": "2000-07-06", "original_language": "zh", "original_title": "\u5367\u864e\u85cf\u9f99", "genre_ids": [28, 12, 18, 10749], "backdrop_path": "/dKenGLffFC9HwuxG4Sq7fJRkiFb.jpg", "adult": false, "overview": "Two warriors in pursuit of a stolen sword and a notorious fugitive are led to an impetuous, physically-skilled, teenage nobleman's daughter, who is at a crossroads in her life.", "poster_path": "/3yYPhffQRuy45HlNabFxNLyP9mg.jpg", "popularity": 20.102}, {"adult": false, "backdrop_path": "/wNm3hNJuOk117wEwuESKO8eCEAk.jpg", "genre_ids": [28], "id": 9461, "original_language": "en", "original_title": "Enter the Dragon", "overview": "A martial artist agrees to spy on a reclusive crime lord using his invitation to a tournament there as cover.", "poster_path": "/6C006cxfwjWYkBW4fM3xCMyr7Yg.jpg", "release_date": "1973-08-17", "title": "Enter the Dragon", "video": false, "vote_average": 7.4, "vote_count": 911, "popularity": 21.422}, {"id": 11841, "video": false, "vote_count": 157, "vote_average": 7.6, "title": "The 36th Chamber of Shaolin", "release_date": "1978-02-02", "original_language": "cn", "original_title": "\u5c11\u6797\u4e09\u5341\u516d\u623f", "genre_ids": [28, 12], "backdrop_path": "/5YXoGdYF1pGv7NHypZWIVMvYl0O.jpg", "adult": false, "overview": "The anti-Ching patriots, under the guidance of Ho Kuang-han, have secretly set up their base in Canton, disguised as school masters. During a brutal Manchu attack, Lui manages to escape, and devotes himself to learning the martial arts in order to seek revenge.", "poster_path": "/hv29eb8g7iCDr0WgAcDdwZinuoY.jpg", "popularity": 13.558}, {"id": 9470, "video": false, "vote_count": 1392, "vote_average": 7.3, "title": "Kung Fu Hustle", "release_date": "2004-02-10", "original_language": "cn", "original_title": "\u529f\u592b", "genre_ids": [28, 35, 80, 14], "backdrop_path": "/qpJWj6MI6VLRt9bGbJVZtmFvqWw.jpg", "adult": false, "overview": "Set in Canton, China in the 1940s, the story revolves in a town ruled by the Axe Gang, Sing who desperately wants to become a member. He stumbles into a slum ruled by eccentric landlords who turns out to be the greatest kung-fu masters in disguise. Sing's actions eventually cause the Axe Gang and the slumlords to engage in an explosive kung-fu battle. Only one side will win and only one hero will emerge as the greatest kung-fu master of all.", "poster_path": "/dZsfDrNLGWgsIUQL1vGhl8tbnqY.jpg", "popularity": 17.654}, {"adult": false, "backdrop_path": "/9DlrsXH9LOgPeuF6Hljmx8GQNlM.jpg", "genre_ids": [18, 28], "id": 7549, "original_language": "zh", "original_title": "\u970d\u5143\u7532", "overview": "Huo Yuan Jia became the most famous martial arts fighter in all of China at the turn of the 20th Century. Huo faced personal tragedy but ultimately fought his way out of darkness, defining the true spirit of martial arts and also inspiring his nation. The son of a great fighter who didn't wish for his child to follow in his footsteps, Huo resolves to teach himself how to fight - and win.", "poster_path": "/nPku02hVAFPsAd1pJr81OkdBidw.jpg", "release_date": "2006-01-26", "title": "Fearless", "video": false, "vote_average": 7.4, "vote_count": 648, "popularity": 12.897}, {"id": 9312, "video": false, "vote_count": 1039, "vote_average": 5.7, "title": "Mortal Kombat", "release_date": "1995-08-18", "original_language": "en", "original_title": "Mortal Kombat", "genre_ids": [28, 14], "backdrop_path": "/mOIvM0pQA7J9I0Caai0zTPxnE3f.jpg", "adult": false, "overview": "For nine generations an evil sorcerer has been victorious in hand-to-hand battle against his mortal enemies. If he wins a tenth Mortal Kombat tournament, desolation and evil will reign over the multiverse forever. To save Earth, three warriors must overcome seemingly insurmountable odds, their own inner demons, and superhuman foes in this action/adventure movie based on one of the most popular video games of all time.", "poster_path": "/aQarGLCGr9ueYuwh9EXz3DfeEd9.jpg", "popularity": 17.982}, {"id": 1498, "video": false, "vote_count": 919, "vote_average": 6.6, "title": "Teenage Mutant Ninja Turtles", "release_date": "1990-03-30", "original_language": "en", "original_title": "Teenage Mutant Ninja Turtles", "genre_ids": [28, 12, 35, 878, 10751], "backdrop_path": "/PxZWmNlfpuU8A26ZrYzpLaOX9S.jpg", "adult": false, "overview": "A quartet of mutated humanoid turtles clash with an uprising criminal gang of ninjas", "poster_path": "/cok0SSxmD7fYeZj6l9XOr2mb0YL.jpg", "popularity": 16.055}, {"id": 98566, "video": false, "vote_count": 4596, "vote_average": 5.8, "title": "Teenage Mutant Ninja Turtles", "release_date": "2014-08-07", "original_language": "en", "original_title": "Teenage Mutant Ninja Turtles", "genre_ids": [28, 12, 35, 14, 878], "backdrop_path": "/OqCXGt5nl1cHPeotxCDvXLLe6p.jpg", "adult": false, "overview": "The city needs heroes. Darkness has settled over New York City as Shredder and his evil Foot Clan have an iron grip on everything from the police to the politicians. The future is grim until four unlikely outcast brothers rise from the sewers and discover their destiny as Teenage Mutant Ninja Turtles. The Turtles must work with fearless reporter April and her wise-cracking cameraman Vern Fenwick to save the city and unravel Shredder's diabolical plan.", "poster_path": "/oDL2ryJ0sV2bmjgshVgJb3qzvwp.jpg", "popularity": 33.698}, {"id": 24, "video": false, "vote_count": 10676, "vote_average": 7.9, "title": "Kill Bill: Vol. 1", "release_date": "2003-10-10", "original_language": "en", "original_title": "Kill Bill: Vol. 1", "genre_ids": [28, 80], "backdrop_path": "/kkS8PKa8c134vXsj2fQkNqOaCXU.jpg", "adult": false, "overview": "An assassin is shot by her ruthless employer, Bill, and other members of their assassination circle \u2013 but she lives to plot her vengeance.", "poster_path": "/v7TaX8kXMXs5yFFGR41guUDNcnB.jpg", "popularity": 35.853}, {"adult": false, "backdrop_path": "/913sS08HhcTQTwz7X567iR6DLHn.jpg", "genre_ids": [12, 28, 53], "id": 682, "original_language": "en", "original_title": "The Man with the Golden Gun", "overview": "A golden bullet has 007 engraved on it as it smashes into the secret service headquarters. The bullet came from the professional killer Scaramanga who has yet to miss a target and James Bond begins a mission to try and stop him.", "poster_path": "/7VSVgxAvA7IdTf8T6Oon1eaReeJ.jpg", "release_date": "1974-12-01", "title": "The Man with the Golden Gun", "video": false, "vote_average": 6.5, "vote_count": 996, "popularity": 17.905}, {"id": 272, "video": false, "vote_count": 13437, "vote_average": 7.6, "title": "Batman Begins", "release_date": "2005-06-10", "original_language": "en", "original_title": "Batman Begins", "genre_ids": [28, 80, 18], "backdrop_path": "/9myrRcegWGGp24mpVfkD4zhUfhi.jpg", "adult": false, "overview": "Driven by tragedy, billionaire Bruce Wayne dedicates his life to uncovering and defeating the corruption that plagues his home, Gotham City.  Unable to work within the system, he instead creates a new identity, a symbol of fear for the criminal underworld - The Batman.", "poster_path": "/dr6x4GyyegBWtinPBzipY02J2lV.jpg", "popularity": 54.458}, {"adult": false, "backdrop_path": "/xC9DRxpKgqJKDYLa9mkNa74eX4q.jpg", "genre_ids": [18, 12, 28, 36], "id": 79, "original_language": "zh", "original_title": "\u82f1\u96c4", "overview": "One man defeated three assassins who sought to murder the most powerful warlord in pre-unified China.", "poster_path": "/xkJnow23eDxwQXB0iIWAWkBF47y.jpg", "release_date": "2002-07-22", "title": "Hero", "video": false, "vote_average": 7.5, "vote_count": 1210, "popularity": 23.249}, {"id": 604, "video": false, "vote_count": 6344, "vote_average": 6.9, "title": "The Matrix Reloaded", "release_date": "2003-05-15", "original_language": "en", "original_title": "The Matrix Reloaded", "genre_ids": [28, 12, 878, 53], "backdrop_path": "/Fp3piEuHXxKnPBO5R0Wj4wjZHg.jpg", "adult": false, "overview": "Six months after the events depicted in The Matrix, Neo has proved to be a good omen for the free humans, as more and more humans are being freed from the matrix and brought to Zion, the one and only stronghold of the Resistance.  Neo himself has discovered his superpowers including super speed, ability to see the codes of the things inside the matrix and a certain degree of pre-cognition. But a nasty piece of news hits the human resistance: 250,000 machine sentinels are digging to Zion and would reach them in 72 hours. As Zion prepares for the ultimate war, Neo, Morpheus and Trinity are advised by the Oracle to find the Keymaker who would help them reach the Source.  Meanwhile Neo's recurrent dreams depicting Trinity's death have got him worried and as if it was not enough, Agent Smith has somehow escaped deletion, has become more powerful than before and has fixed Neo as his next target.", "poster_path": "/ezIurBz2fdUc68d98Fp9dRf5ihv.jpg", "popularity": 26.284}, {"id": 605, "video": false, "vote_count": 5698, "vote_average": 6.6, "title": "The Matrix Revolutions", "release_date": "2003-11-03", "original_language": "en", "original_title": "The Matrix Revolutions", "genre_ids": [28, 12, 878, 53], "backdrop_path": "/pdVHUsb2eEz9ALNTr6wfRJe5xVa.jpg", "adult": false, "overview": "The human city of Zion defends itself against the massive invasion of the machines as Neo fights to end the war at another front while also opposing the rogue Agent Smith.", "poster_path": "/sKogjhfs5q3azmpW7DFKKAeLEG8.jpg", "popularity": 22.724}, {"adult": false, "backdrop_path": "/3hYidDKVg4rsrkHQsbOKeqt6qkj.jpg", "genre_ids": [35, 28], "id": 19274, "original_language": "cn", "original_title": "\u7b11\u62f3\u602a\u62db", "overview": "Jackie Chan is a youngster, living in a remote vllage with his grandfather who teaches him Kong-Fu (naturally). He keeps getting into fights, even though his grandfather warns him not to show their Kong-Fu to others. Jackie, though, is tempted by some thugs he beat up to act as the master of a Kong-Fu school. This school's name apparently spreads far, as an old enemy of Jackie's grandfather (who t", "poster_path": "/ic5iTcB0HOfNCjQRV10SJ5oA4El.jpg", "release_date": "1979-02-17", "title": "Fearless Hyena", "video": false, "vote_average": 6.6, "vote_count": 59, "popularity": 12.832}, {"id": 9502, "video": false, "vote_count": 6771, "vote_average": 7.1, "title": "Kung Fu Panda", "release_date": "2008-06-04", "original_language": "en", "original_title": "Kung Fu Panda", "genre_ids": [12, 16, 35, 10751], "backdrop_path": "/pmLEmMLYCreFAxfdCt5uO1wDgSi.jpg", "adult": false, "overview": "When the Valley of Peace is threatened, lazy Po the panda discovers his destiny as the \"chosen one\" and trains to become a kung fu hero, but transforming the unsleek slacker into a brave warrior won't be easy. It's up to Master Shifu and the Furious Five -- Tigress, Crane, Mantis, Viper and Monkey -- to give it a try.", "poster_path": "/mk3UyyaLyXhgIhmLji25OUPXvGR.jpg", "popularity": 23.634}, {"adult": false, "backdrop_path": "/ic450gLSYFUGb5Gxv39YXOqOGOP.jpg", "genre_ids": [28, 80, 53], "id": 11134, "original_language": "cn", "original_title": "\u8b66\u5bdf\u6545\u4e8b III\uff1a\u8d85\u7d1a\u8b66\u5bdf", "overview": "A Hong Kong detective teams up with his female Red Chinese counterpart to stop a Chinese drug czar.", "poster_path": "/sw94gRwWJf1O4uMFHmDyZNXJeIj.jpg", "release_date": "1992-07-04", "title": "Police Story 3: Super Cop", "video": false, "vote_average": 6.7, "vote_count": 210, "popularity": 11.796}, {"id": 55292, "video": false, "vote_count": 176, "vote_average": 6.6, "title": "Shaolin", "release_date": "2011-01-20", "original_language": "cn", "original_title": "\u65b0\u5c11\u6797\u5bfa", "genre_ids": [28, 18], "backdrop_path": "/dmrIPxd5w69nJ5ZhHTQmH8QDGH2.jpg", "adult": false, "overview": "China is plunged into strife as feuding warlords try to expand their power by warring over neighboring lands. Fuelled by his success on the battlefield, young and arrogant Hao Jie sneers at Shaolin's masters when he beats one of them in a duel. But the pride comes before a fall. When his own family is wiped out by a rival warlord, Hao is forced to take refuge with the monks. As the civil unrest spreads and the people suffer, Hao and the Shaolin masters are forced to take a fiery stand against the evil warlords. They launch a daring plan or rescue and escape.", "poster_path": "/rcX06YbBYiiaBh4bjMS3fau0nuk.jpg", "popularity": 11.309}], "total_pages": 87, "total_results": 1733}, "recommendations": {"page": 1, "results": [{"id": 41383, "video": false, "vote_count": 16, "vote_average": 7.6, "title": "Five Shaolin Masters", "release_date": "1974-12-25", "original_language": "zh", "original_title": "\u5c11\u6797\u4e94\u7956", "genre_ids": [28, 18], "backdrop_path": "/xemSZfN86cPvpd9hgxzrc2YYERi.jpg", "adult": false, "overview": "Hu Te et al. escape the burning Shaolin temple after the Qing soldiers destroyed it in Shaolin Temple. The group of 5 decide to develop secret codes to identify fellow patriots, enlist those patriots and eventually meet up again to escape to the south away from the Qings, and also identify the traitor who sold out Shaolin temple. Ma Fu Yi (the traitor, played by Wang Lung Wei), joins the Qing top fighters to eliminate the rebels but is exposed by Ma Chao-Tsing who gets captured by Ma Fu Yi. Hu meets up with a group of Shaolin men secretly posing as bandits to rescue Ma as their leader is killed in the process, thus the bandits join the rest of the Shaolin patriots.", "poster_path": "/7cI7l7WnXvZhqocGLhAet32adEw.jpg", "popularity": 7.197}, {"id": 64363, "video": false, "vote_count": 14, "vote_average": 6.5, "title": "Blood Brothers", "release_date": "1973-02-24", "original_language": "zh", "original_title": "Ci Ma", "genre_ids": [28, 18], "backdrop_path": "/3TbyUhNFV1w8PqayKufafdFfNd8.jpg", "adult": false, "overview": "Set in the waning years of the Ching Dyansty, this dramatic, tragic, romantic, blood-soaked martial arts tale of betrayal and revenge explores one of the most sensational scandals in Chinese history and marked the true ascension of its director and actors to superstar status. In fact, Ti Lung won Taiwan's Golden Horse Award for Outstanding Performance as the challenging role of a jealous provincial governor who kills his friend in order to steal the man's wife. \u3000\u3000The 11th Golden Horse Awards: Special Award for Outstanding Performance (Ti Lung)", "poster_path": "/ubHcD7FPQIorRjWwwFQpnW7iaGn.jpg", "popularity": 4.039}, {"id": 75832, "video": false, "vote_count": 4, "vote_average": 7.3, "title": "The New Shaolin Boxers", "release_date": "1976-09-03", "original_language": "zh", "original_title": "\u8521\u674e\u4f5b\u5c0f\u5b50", "genre_ids": [28], "backdrop_path": "/wxiMzLNVLUrjzgHrzWj6H9ZHvXH.jpg", "adult": false, "overview": "Esteemed martial arts movie master Chang Cheh cemented the stardom of soon-to-be international favorite Alexander Fu Sheng in this film. Rather than making him just part of the protagonists - as he had in his trilogy (Shaolin Martial Arts, Five Shaolin Masters, and Disciples Of Shaolin) -- this film was clearly Fu's showcase. Fu took full advantage - giving both a great dramatic and martial arts performance as an honorable carriage driver who finds love and death when he battles particularly venal, homicidal street punks.", "poster_path": "/eapfM7MonuDKgkj7vBTZ0ICwqv7.jpg", "popularity": 2.384}, {"adult": false, "backdrop_path": "/3Swqm2KHZNpWYIhMnxS7mCcggV9.jpg", "genre_ids": [28], "id": 64360, "original_language": "zh", "original_title": "\u6d2a\u62f3\u8207\u8a60\u6625", "overview": "After the destruction of the Shaolin Temple, the Chings are in control and send their best students to wipe out all of the remaining Shaolin practioners. They almost succeed, but two students escape (Fu Sheng and Chi Kuan Chung). They learn various Kung Fu styles from different teachers to combat the Ching's two kung fu fighters (Wang Lung Wei and John Liang).", "poster_path": "/qeqUpv7fYpwKpLkgDILsgRu5iu2.jpg", "release_date": "1974-08-03", "title": "Shaolin Martial Arts", "video": false, "vote_average": 6.9, "vote_count": 5, "popularity": 2.334}, {"id": 54178, "video": false, "vote_count": 36, "vote_average": 7.0, "title": "The One-Armed Swordsman", "release_date": "1967-07-26", "original_language": "zh", "original_title": "\u7368\u81c2\u5200", "genre_ids": [28, 18], "backdrop_path": "/okBXjpXDGneV4FRO8GbppZU9tg9.jpg", "adult": false, "overview": "An evil gang attacks the Chi school of Golden Sword Kung Fu. One student sacrifices his life to save his teacher and his school, his dying wish is that his son be taken in as a student. Young Fang Kang grows up in the school and treasures his father's broken sword and the memory of his father's sacrifice. The other students (including the teacher's daughter) resent him and try to drive him away. The teacher's daughter challenges him to a fight and when he refuses she becomes enraged and recklessly chops off his arm! He retreats, broken and bloody, and is found by a young poor girl living alone who nurses him back to health. Meanwhile, the evil gang who originally attacked the Golden Sword school develops a weapon that renders the Golden Sword useless and starts killing off all of the schools students. Fang Kang eventually recovers with the girl's help but must now face a life with only one arm. Will he be able to recover and live to defend the school as his father did?", "poster_path": "/a83IBzGNlM4HRvATgrBVaHWKCI8.jpg", "popularity": 6.669}, {"id": 139321, "video": false, "vote_count": 8, "vote_average": 7.1, "title": "The Duel", "release_date": "1971-04-21", "original_language": "zh", "original_title": "\u5927\u6c7a\u9b25", "genre_ids": [28], "backdrop_path": "/ukk54lzHOak9aUlgvKdo4k2znrT.jpg", "adult": false, "overview": "Tan Jen-chieh\u2019s life spins out of control when he\u2019s forced into exile to clear his name following the murder of his adopted father. He\u2019s hunted in the streets. His lover, Butterfly, turns to prostitution. And his father\u2019s likely killer \u2013 a smooth operator known as the Rambler \u2013 is always lingering nearby. But before Tan and the Rambler can slit each other\u2019s throats, they learn they\u2019ve been double-crossed and go two against everyone in a rage of double-edged vengeance.", "poster_path": "/nqf39QdTRsc21I4cSJydoKKnduG.jpg", "popularity": 3.015}, {"id": 186881, "video": false, "vote_count": 5, "vote_average": 7.3, "title": "Treasure Hunters", "release_date": "1981-07-09", "original_language": "cn", "original_title": "\u9f8d\u864e\u5c11\u723a", "genre_ids": [28, 12, 35], "backdrop_path": "/zmkjaz3j6Ml5nKvZMRVeGDzFCWZ.jpg", "adult": false, "overview": "Fu Sheng and his real-life brother star as friends who are searching for a treasure that a Shaolin priest (Gordon Liu), a villainous traitor (Wang Lung Wei) and his sister (Yang Ching Ching) are also trying to find.", "poster_path": "/eiZZgVcz34Sbix4SNvDjloeCicW.jpg", "popularity": 3.865}, {"adult": false, "backdrop_path": "/5TmfflhlJmj4t1VjmiqdXYwwGH3.jpg", "genre_ids": [28, 35], "id": 37032, "original_language": "zh", "original_title": "\u5357\u5317\u5c11\u6797", "overview": "Jet Li weasels out of the north Shaolin temple to assassinate a despotic ruler at the ruler's extravagant public birthday celebration. Two other men from the south Shaolin temple also set out to assassinate the ruler, but all three fail and are chased all over by soldiers. Meanwhile, one of the southerners turns out to be a cross-dressed woman, who is also discovered to wear a footbell to match Jet Li's, meaning they are somehow slated for an arranged marriage.", "poster_path": "/dgTIUTCcSNnuaxxWQxPuw34Z58b.jpg", "release_date": "1986-03-01", "title": "Martial Arts of Shaolin", "video": false, "vote_average": 7.0, "vote_count": 25, "popularity": 6.01}, {"adult": false, "backdrop_path": "/pfGHUBTzi2KfjTpXZzI7Ii1HLFp.jpg", "genre_ids": [28, 18, 36], "id": 36261, "original_language": "zh", "original_title": "\u5341\u4e09\u592a\u4fdd", "overview": "A Mogul king decides to take stealthy action to help overpower his greatest rivals. He chooses nine out thirteen of his loyal generals (who he treats as sons) to embark on the mission. However, jealously amongst them sparks a treacherous family feud that could lead to catastrophic consequences for all involved.", "poster_path": "/kiRqZNYEY1647l6dUjq1yB7mxQU.jpg", "release_date": "1970-08-14", "title": "The Heroic Ones", "video": false, "vote_average": 6.6, "vote_count": 8, "popularity": 2.347}, {"id": 51303, "video": false, "vote_count": 17, "vote_average": 6.8, "title": "Spite Marriage", "release_date": "1929-03-24", "original_language": "en", "original_title": "Spite Marriage", "genre_ids": [35], "backdrop_path": "/1072g4Z38jwvQiEff7yJtbTjVtR.jpg", "adult": false, "overview": "An unimpressive but well intending man is given the chance to marry a popular actress, of whom he has been a hopeless fan. But what he doesn't realize is that he is being used to make the actress' old flame jealous.", "poster_path": "/9WGm76YJDQ25SKfI3vjfNtIKdHb.jpg", "popularity": 4.294}], "total_pages": 1, "total_results": 10}, "credits": {"cast": [{"cast_id": 14, "character": "Hsu Fong", "credit_id": "52fe475ec3a36847f8131de1", "gender": 2, "id": 240151, "name": "Sun Chien", "order": 0, "profile_path": "/eg0D1GZ4KytDV4NwXjOeAfaI2FN.jpg"}, {"cast_id": 15, "character": "Chun Fei", "credit_id": "52fe475ec3a36847f8131de5", "gender": 2, "id": 119655, "name": "Chiang Sheng", "order": 1, "profile_path": "/4wRpgbkb2nRYjA79xg6NnSCT8AM.jpg"}, {"cast_id": 16, "character": "Pao Siao Tung", "credit_id": "52fe475ec3a36847f8131de9", "gender": 2, "id": 1114203, "name": "Lu Feng", "order": 2, "profile_path": "/ny286I2BQ8TpZfqfWv4qkmAjsL0.jpg"}, {"cast_id": 17, "character": "General Xu", "credit_id": "52fe475ec3a36847f8131ded", "gender": 2, "id": 240174, "name": "Johnny Wang Lung-Wei", "order": 3, "profile_path": null}, {"cast_id": 18, "character": "Captain Hua Shun", "credit_id": "52fe475ec3a36847f8131df1", "gender": 0, "id": 937839, "name": "Suen Shu-Pau", "order": 4, "profile_path": null}, {"cast_id": 19, "character": "Ho Ming Pao", "credit_id": "52fe475ec3a36847f8131df5", "gender": 2, "id": 240155, "name": "Lo Meng", "order": 5, "profile_path": "/gNedk2BfzTARZcP15y2w4alXyUs.jpg"}, {"cast_id": 20, "character": "Ho Yen Wu", "credit_id": "52fe475ec3a36847f8131df9", "gender": 2, "id": 229303, "name": "Philip Kwok Chun-Fung", "order": 6, "profile_path": "/l9yEDDylyfFrSotUoobysptdpct.jpg"}, {"cast_id": 21, "character": "Mai Feng", "credit_id": "52fe475ec3a36847f8131dfd", "gender": 2, "id": 548617, "name": "Wai Pak", "order": 7, "profile_path": null}, {"cast_id": 22, "character": "Master Mai Qi", "credit_id": "52fe475ec3a36847f8131e01", "gender": 2, "id": 1042681, "name": "Chan Shen", "order": 8, "profile_path": null}, {"cast_id": 23, "character": "Master Liang", "credit_id": "52fe475ec3a36847f8131e05", "gender": 2, "id": 1134505, "name": "Wong Ching-Ho", "order": 9, "profile_path": "/7FIekiYCrh63Gts2EyVNj4MdLrC.jpg"}, {"cast_id": 24, "character": "Master Zhu Ming", "credit_id": "52fe475ec3a36847f8131e09", "gender": 2, "id": 544921, "name": "Cheng Miu", "order": 10, "profile_path": "/pJkI8tmkKoYVascjRHEw9Xi5RAz.jpg"}, {"cast_id": 25, "character": "Su Yen", "credit_id": "52fe475ec3a36847f8131e0d", "gender": 1, "id": 84205, "name": "Kara Hui", "order": 11, "profile_path": "/6OV9kM62Y7M7EswtkpCThs0QAxg.jpg"}, {"cast_id": 27, "character": "Chen Cui Ying, fruit vendor", "credit_id": "5874def992514144960075e9", "gender": 1, "id": 1134749, "name": "Nau Nau", "order": 12, "profile_path": null}, {"cast_id": 28, "character": "Xiaoling, fruit vendor", "credit_id": "5874df07c3a368066c007a68", "gender": 0, "id": 1134752, "name": "Yau Chui-Ling", "order": 13, "profile_path": null}, {"cast_id": 29, "character": "South Shaolin fighter", "credit_id": "5874df1c9251414482007e62", "gender": 2, "id": 62424, "name": "Dick Wei", "order": 14, "profile_path": "/pkllOdDN2CGukmyOv2XlzoMAQfC.jpg"}, {"cast_id": 30, "character": "South Shaolin fighter", "credit_id": "5874df23c3a3680686007600", "gender": 0, "id": 1114835, "name": "Yu Tai-Ping", "order": 15, "profile_path": "/msBgaM2pf7OsmbkR8wG5O9bWlYx.jpg"}, {"cast_id": 31, "character": "South Shaolin fighter", "credit_id": "5874df2b9251414482007e70", "gender": 0, "id": 1135342, "name": "Suen San-Cheung", "order": 16, "profile_path": null}, {"cast_id": 32, "character": "Nu Qiang, South Shaolin fighter", "credit_id": "5874df579251414494007891", "gender": 0, "id": 1139722, "name": "Tony Tam Chun-To", "order": 17, "profile_path": null}, {"cast_id": 33, "character": "Ching soldier", "credit_id": "5874df689251414482007e98", "gender": 0, "id": 1135162, "name": "Lau Fong-Sai", "order": 18, "profile_path": null}, {"cast_id": 34, "character": "Ching soldier", "credit_id": "5874df7092514144880079ec", "gender": 2, "id": 930251, "name": "Lam Fai-Wong", "order": 19, "profile_path": "/2NAjWZMiyGl5ysjTl5tmiG5Y1cG.jpg"}, {"cast_id": 35, "character": "Shopkeeper", "credit_id": "59da19c292514124cd04096e", "gender": 2, "id": 1583011, "name": "Gam Tin-Chue", "order": 20, "profile_path": "/v9zMKXExLwZsLux84HwxydRHxYD.jpg"}, {"cast_id": 36, "character": "Ching soldier", "credit_id": "59da93dd92514124c904a38e", "gender": 2, "id": 1619660, "name": "Ting Tung", "order": 21, "profile_path": null}], "crew": [{"credit_id": "55d5f5fac3a368507f004e9a", "department": "Editing", "gender": 2, "id": 43913, "job": "Editor", "name": "Chiang Hsing-Lung", "profile_path": null}, {"credit_id": "52fe475ec3a36847f8131ddd", "department": "Writing", "gender": 2, "id": 70675, "job": "Writer", "name": "Ni Kuang", "profile_path": null}, {"credit_id": "52fe475ec3a36847f8131dd1", "department": "Directing", "gender": 2, "id": 99436, "job": "Director", "name": "Chang Cheh", "profile_path": "/uAYW00KpCDy6Xv4uwh9rVYMkbLu.jpg"}, {"credit_id": "52fe475ec3a36847f8131dd7", "department": "Writing", "gender": 2, "id": 99436, "job": "Writer", "name": "Chang Cheh", "profile_path": "/uAYW00KpCDy6Xv4uwh9rVYMkbLu.jpg"}]}}