{"adult": false, "backdrop_path": "/yg85ITfqSxUOXtvAaQl1f5VEPXh.jpg", "belongs_to_collection": null, "budget": 0, "genres": [{"id": 878, "name": "Science Fiction"}], "homepage": null, "id": 48315, "imdb_id": "tt0108342", "original_language": "en", "original_title": "Time Runner", "overview": "During the alien invasion of 2022, one man flees through a wormhole to 1992, where attempt after attempt is made to catch and kill him.", "popularity": 4.675, "poster_path": "/ju9TNl12FyLrJKD69poTpWMJuy4.jpg", "production_companies": [], "production_countries": [], "release_date": "1993-03-17", "revenue": 0, "runtime": 90, "spoken_languages": [{"iso_639_1": "en", "name": "English"}], "status": "Released", "tagline": "A world under attack.  A hero battling to change destiny.", "title": "Time Runner", "video": false, "vote_average": 5.2, "vote_count": 10, "keywords": {"keywords": [{"id": 176056, "name": "time traveler"}]}, "similar": {"page": 1, "results": [{"id": 279229, "video": false, "vote_count": 682, "vote_average": 7.2, "title": "Sapphire Blue", "release_date": "2014-08-14", "original_language": "de", "original_title": "Saphirblau", "genre_ids": [14, 878, 10749], "backdrop_path": "/fsruMi3epKRAo50SwKi8BmjABEU.jpg", "adult": false, "overview": "Gwen has just discovered, that she's the final member of the secret time-traveling Circle of Twelve. Now she has to juggle with constant trips to the past, her relationships with Gideon and figuring out dark secrets surrounding the Circle.", "poster_path": "/bFUy6s1wktYgpmRonlynWcnBc7b.jpg", "popularity": 10.845}, {"adult": false, "backdrop_path": "/hpIUiHIyNKWsid3Tz4adtYsUqo1.jpg", "genre_ids": [16, 12, 10751], "id": 82703, "original_language": "en", "original_title": "Mr. Peabody & Sherman", "overview": "A young boy and his dog, who happens to have a genius-level IQ, spring into action when their time-machine is stolen and moments in history begin to be changed.", "poster_path": "/q4FQXK4a4HSb4pajZL4ZFKHVsjC.jpg", "release_date": "2014-02-07", "title": "Mr. Peabody & Sherman", "video": false, "vote_average": 6.6, "vote_count": 1490, "popularity": 18.443}, {"adult": false, "backdrop_path": null, "genre_ids": [53, 878, 12], "id": 327546, "original_language": "en", "original_title": "Recursion", "overview": "Recursion tells the story of Sherwin, an unlikely Best Man. Awkward and accident prone Sherwin looses the ring moments before the ceremony. But, he knows a powerful secret. A secret that allows him to try everything possible (and impossible) to correct his mistake ...again, and again, and again. The trick? Not to not to destroy his universe while he's at it.", "poster_path": "/iMe5uSTOQyubNaO4YuVkFpKifjK.jpg", "release_date": "2014-02-16", "title": "Recursion", "video": false, "vote_average": 6.0, "vote_count": 3, "popularity": 1.69}, {"id": 24420, "video": false, "vote_count": 1526, "vote_average": 6.9, "title": "The Time Traveler's Wife", "release_date": "2009-08-14", "original_language": "en", "original_title": "The Time Traveler's Wife", "genre_ids": [18, 14, 10749], "backdrop_path": "/2Po4fvS46AAshzDZGDdjkrVxPo8.jpg", "adult": false, "overview": "Due to a genetic disorder, handsome librarian Henry DeTamble involuntarily zips through time, appearing at various moments in the life of his true love, the beautiful artist Clare Abshire.", "poster_path": "/ayGp00uS6XRrNfbR59XWrJh9jpC.jpg", "popularity": 13.997}, {"adult": false, "backdrop_path": "/62KY1soFtSrf4q2geTJd9MlNPwM.jpg", "genre_ids": [878], "id": 137662, "original_language": "en", "original_title": "Time Travelers", "overview": "In 1976, there's an outbreak of a disease that no one has seen before. All what they know is that resembles a disease that existed at around 1871, and that a Dr. Henderson was able to save most of his patients but the Chicago Fire destroyed his records. Dr. Earnshaw the doctor looking for a cure was approached by a man, Jeffrey Adams, who believes that he could help him. It seems that a Dr. Amos Cummings has prefected the art of time travel, and the plan is for Earnshaw and Adams to go back to 1871 and learn how Henderson cured his patients. But a glitch in the machines computers sends them the day before the fire not four days as intended.", "poster_path": "/vffNbdKbiZA2n42ogGftywt8Qz9.jpg", "release_date": "1976-03-19", "title": "Time Travelers", "video": false, "vote_average": 7.1, "vote_count": 4, "popularity": 2.771}, {"adult": false, "backdrop_path": "/AqocxdL9luA7ALU0gGSHDzDy254.jpg", "genre_ids": [14, 16, 18, 878], "id": 14069, "original_language": "ja", "original_title": "\u6642\u3092\u304b\u3051\u308b\u5c11\u5973", "overview": "When 17-year-old Makoto Konno gains the ability to, quite literally, \"leap\" backwards through time, she immediately sets about improving her grades and preventing personal mishaps. However, she soon realises that changing the past isn't as simple as it seems, and eventually, will have to rely on her new powers to shape the future of herself and her friends.", "poster_path": "/7oNeWrsaiMGxCrvkWjQ56y6JN85.jpg", "release_date": "2006-07-15", "title": "The Girl Who Leapt Through Time", "video": false, "vote_average": 7.8, "vote_count": 1043, "popularity": 22.298}, {"id": 105, "video": false, "vote_count": 12168, "vote_average": 8.2, "title": "Back to the Future", "release_date": "1985-07-03", "original_language": "en", "original_title": "Back to the Future", "genre_ids": [12, 35, 878, 10751], "backdrop_path": "/x4N74cycZvKu5k3KDERJay4ajR3.jpg", "adult": false, "overview": "Eighties teenager Marty McFly is accidentally sent back in time to 1955, inadvertently disrupting his parents' first meeting and attracting his mother's romantic interest. Marty must repair the damage to history by rekindling his parents' romance and - with the help of his eccentric inventor friend Doc Brown - return to 1985.", "poster_path": "/pTpxQB1N0waaSc3OSn0e9oc8kx9.jpg", "popularity": 29.77}, {"id": 13475, "video": false, "vote_count": 6839, "vote_average": 7.4, "title": "Star Trek", "release_date": "2009-05-06", "original_language": "en", "original_title": "Star Trek", "genre_ids": [28, 12, 878], "backdrop_path": "/1XOSh6BFZbQ0xN75m4avqgzClyG.jpg", "adult": false, "overview": "The fate of the galaxy rests in the hands of bitter rivals. One, James Kirk, is a delinquent, thrill-seeking Iowa farm boy. The other, Spock, a Vulcan, was raised in a logic-based society that rejects all emotion. As fiery instinct clashes with calm reason, their unlikely but powerful partnership is the only thing capable of leading their crew through unimaginable danger, boldly going where no one has gone before. The human adventure has begun again.", "poster_path": "/xPihqTMhCh6b8DHYzE61jrIiNMS.jpg", "popularity": 25.759}, {"id": 87101, "video": false, "vote_count": 5757, "vote_average": 5.9, "title": "Terminator Genisys", "release_date": "2015-06-23", "original_language": "en", "original_title": "Terminator Genisys", "genre_ids": [28, 12, 878, 53], "backdrop_path": "/3DmxSJ08m9wwbxwbwHzA4dunGNO.jpg", "adult": false, "overview": "The year is 2029. John Connor, leader of the resistance continues the war against the machines. At the Los Angeles offensive, John's fears of the unknown future begin to emerge when TECOM spies reveal a new plot by SkyNet that will attack him from both fronts; past and future, and will ultimately change warfare forever.", "poster_path": "/5JU9ytZJyR3zmClGmVm9q4Geqbd.jpg", "popularity": 60.439}, {"id": 816, "video": false, "vote_count": 1942, "vote_average": 6.5, "title": "Austin Powers: International Man of Mystery", "release_date": "1997-05-02", "original_language": "en", "original_title": "Austin Powers: International Man of Mystery", "genre_ids": [35, 80, 878], "backdrop_path": "/5agnZ7U1ZITxdvc7QnpvOE3vPzt.jpg", "adult": false, "overview": "As a swingin' fashion photographer by day and a groovy British superagent by night, Austin Powers is the '60s' most shagadelic spy, baby! But can he stop megalomaniac Dr. Evil after the bald villain freezes himself and unthaws in the '90s? With the help of sexy sidekick Vanessa Kensington, he just might.", "poster_path": "/qSvfLwdDBLjZaPwA7qdn0yYePq5.jpg", "popularity": 17.223}, {"id": 196, "video": false, "vote_count": 6115, "vote_average": 7.4, "title": "Back to the Future Part III", "release_date": "1990-05-25", "original_language": "en", "original_title": "Back to the Future Part III", "genre_ids": [12, 35, 878], "backdrop_path": "/pP2a4MBQbIeZMbErBWMjxTT5Npb.jpg", "adult": false, "overview": "The final installment of the Back to the Future trilogy finds Marty digging the trusty DeLorean out of a mineshaft and looking for Doc in the Wild West of 1885. But when their time machine breaks down, the travelers are stranded in a land of spurs. More problems arise when Doc falls for pretty schoolteacher Clara Clayton, and Marty tangles with Buford Tannen.", "poster_path": "/6DmgPTZYaug7QNDjOhUDWyjOQDl.jpg", "popularity": 17.871}, {"id": 165, "video": false, "vote_count": 7689, "vote_average": 7.7, "title": "Back to the Future Part II", "release_date": "1989-11-22", "original_language": "en", "original_title": "Back to the Future Part II", "genre_ids": [12, 35, 878, 10751], "backdrop_path": "/snLFUFzWUZCdYkAbhZlaGJxiY3I.jpg", "adult": false, "overview": "Marty and Doc are at it again in this wacky sequel to the 1985 blockbuster as the time-traveling duo head to 2015 to nip some McFly family woes in the bud. But things go awry thanks to bully Biff Tannen and a pesky sports almanac. In a last-ditch attempt to set things straight, Marty finds himself bound for 1955 and face to face with his teenage parents -- again.", "poster_path": "/k5dzvCQkXU2CAhLtlj9BHE7xmyK.jpg", "popularity": 18.286}, {"adult": false, "backdrop_path": "/u4s4b3xRz5gOHwzO2KneDqIl7Bf.jpg", "genre_ids": [878, 12, 18, 28], "id": 871, "original_language": "en", "original_title": "Planet of the Apes", "overview": "An  U.S. Spaceship lands on a desolate planet, stranding astronaut Taylor in a world dominated by apes, 2000 years into the future, who use a primitive race of humans for experimentation and sport. Soon Taylor finds himself among the hunted, his life in the hands of a benevolent chimpanzee scientist.", "poster_path": "/fiWii3OCJhoSld3U3tUUr1AB6d7.jpg", "release_date": "1968-02-07", "title": "Planet of the Apes", "video": false, "vote_average": 7.6, "vote_count": 1809, "popularity": 20.754}, {"id": 16258, "video": false, "vote_count": 295, "vote_average": 5.3, "title": "The Butterfly Effect 3: Revelations", "release_date": "2009-01-09", "original_language": "en", "original_title": "The Butterfly Effect 3: Revelations", "genre_ids": [80, 18, 878, 53], "backdrop_path": "/2jgbKSkUYr2qero54MUiD8lXwD3.jpg", "adult": false, "overview": "The story revolves around a man trying to uncover the mysterious death of his girlfriend and save an innocent man from the death chamber in the process, by using his unique power to time travel. However in attempting to do this, he also frees a spiteful serial-killer.", "poster_path": "/9LJfls07lQYeYctlbowaSgR4Rue.jpg", "popularity": 12.496}, {"id": 127585, "video": false, "vote_count": 10834, "vote_average": 7.5, "title": "X-Men: Days of Future Past", "release_date": "2014-05-15", "original_language": "en", "original_title": "X-Men: Days of Future Past", "genre_ids": [28, 12, 14, 878], "backdrop_path": "/5kYj5EOQMFBFCdnk4X8KaFUfDVR.jpg", "adult": false, "overview": "The ultimate X-Men ensemble fights a war for the survival of the species across two time periods as they join forces with their younger selves in an epic battle that must change the past \u2013 to save our future.", "poster_path": "/pb1IURTkK5rImP9ZV83lxJO2us7.jpg", "popularity": 25.713}, {"id": 299534, "video": false, "vote_count": 10932, "vote_average": 8.3, "title": "Avengers: Endgame", "release_date": "2019-04-24", "original_language": "en", "original_title": "Avengers: Endgame", "genre_ids": [28, 12, 878], "backdrop_path": "/7RyHsO4yDXtBv1zUU3mTpHeQ0d5.jpg", "adult": false, "overview": "After the devastating events of Avengers: Infinity War, the universe is in ruins due to the efforts of the Mad Titan, Thanos. With the help of remaining allies, the Avengers must assemble once more in order to undo Thanos' actions and restore order to the universe once and for all, no matter what consequences may be in store.", "poster_path": "/or06FN3Dka5tukK1e9sl16pB3iy.jpg", "popularity": 54.02}, {"id": 59967, "video": false, "vote_count": 7205, "vote_average": 6.8, "title": "Looper", "release_date": "2012-09-26", "original_language": "en", "original_title": "Looper", "genre_ids": [28, 878, 53], "backdrop_path": "/vuHG8VlYnvw4gUKtS7GY5kZol69.jpg", "adult": false, "overview": "In the futuristic action thriller Looper, time travel will be invented but it will be illegal and only available on the black market. When the mob wants to get rid of someone, they will send their target 30 years into the past where a looper, a hired gun, like Joe is waiting to mop up. Joe is getting rich and life is good until the day the mob decides to close the loop, sending back Joe's future self for assassination.", "poster_path": "/sNjL6SqErDBE8OUZlrDLkexfsCj.jpg", "popularity": 24.08}, {"adult": false, "backdrop_path": "/eZKJ6Ez3DhVamz1CG1zwUpdwaAS.jpg", "genre_ids": [9648, 878, 53], "id": 530382, "original_language": "en", "original_title": "In the Shadow of the Moon", "overview": "In 1988, Philadelphia police officer Thomas \"Locke\" Lockhart, hungry to become a detective, begins tracking a serial killer whose crimes defy scientific explanation. When the killer mysteriously resurfaces nine years later, Locke's obsession with finding the truth threatens to destroy his career, his family, and possibly his sanity.", "poster_path": "/5DSVYlKwEzGBxTkS95L73c3oxLs.jpg", "release_date": "2019-09-27", "title": "In the Shadow of the Moon", "video": false, "vote_average": 6.2, "vote_count": 449, "popularity": 11.834}, {"id": 63, "video": false, "vote_count": 4797, "vote_average": 7.6, "title": "Twelve Monkeys", "release_date": "1995-12-29", "original_language": "en", "original_title": "Twelve Monkeys", "genre_ids": [9648, 878, 53], "backdrop_path": "/6KXbhaxkgExC5EdDqAzRinhmoZ8.jpg", "adult": false, "overview": "In the year 2035, convict James Cole reluctantly volunteers to be sent back in time to discover the origin of a deadly virus that wiped out nearly all of the earth's population and forced the survivors into underground communities. But when Cole is mistakenly sent to 1990 instead of 1996, he's arrested and locked up in a mental hospital. There he meets psychiatrist Dr. Kathryn Railly, and patient Jeffrey Goines, the son of a famous virus expert, who may hold the key to the mysterious rogue group, the Army of the 12 Monkeys, thought to be responsible for unleashing the killer disease.", "poster_path": "/6Sj9wDu3YugthXsU0Vry5XFAZGg.jpg", "popularity": 25.437}, {"id": 1954, "video": false, "vote_count": 4283, "vote_average": 7.5, "title": "The Butterfly Effect", "release_date": "2004-01-22", "original_language": "en", "original_title": "The Butterfly Effect", "genre_ids": [878, 53], "backdrop_path": "/zXTUrm0BIrrZn3nEhybg0hlY275.jpg", "adult": false, "overview": "A young man struggles to access sublimated childhood memories. He finds a technique that allows him to travel back into the past, to occupy his childhood body and change history. However, he soon finds that every change he makes has unexpected consequences.", "poster_path": "/3PAQy3CyNNJPES772OFMx47lFEE.jpg", "popularity": 21.422}], "total_pages": 31, "total_results": 604}, "recommendations": {"page": 1, "results": [{"adult": false, "backdrop_path": null, "genre_ids": [27], "id": 137707, "original_language": "en", "original_title": "The Dark", "overview": "Something is alive beneath the surface of the graveyard. Something with the power to destroy and the power to heal. One man, a cop, is determined to kill this mysterious creature. Another, a scientist, is determined to capture and save this miraculous being. Stalking the creature in it's subterranean habitat, neither man is aware of the battle they are about to start. A battle for science, survival and revenge.", "poster_path": "/bJ3kSK1Uh5b9DCOer807VeFCCmR.jpg", "release_date": "1994-06-03", "title": "The Dark", "video": false, "vote_average": 3.3, "vote_count": 6, "popularity": 2.241}, {"id": 33826, "video": false, "vote_count": 7, "vote_average": 3.6, "title": "Death Row", "release_date": "2006-10-14", "original_language": "en", "original_title": "Death Row", "genre_ids": [35, 80, 27, 9648], "backdrop_path": "/A6Bsg1gXoVcWNsFL9LC5CY5dJn5.jpg", "adult": false, "overview": "Haunted Prison - AKA Death Row - a horrifying live action film based on the short story by Kevin VanHook-takes place at Isla de la Roca Penitentiary. Rumor has it the Devil himself spat up the place out of the depths of hell, and man turned it into a prison for the most dangerous prisoners in the South. The monstrous building is steeped in the evil created by centuries of murder and injustice and is haunted by vengeful ghosts. Isla de la Roca was abandoned after being soaked in blood by a horrific massacre of inmates and guards. A gang of fugitives from a cop-killing robbery seek refuge within the razor wire of the prison walls at the same time as a documentary film crew arrives to tell the story of the penitentiary. When these groups cross paths within the cruel walls of Isla de la Roca, will anyone get out alive?", "poster_path": "/sy2B19iDjiYngen1wKlBjO813PN.jpg", "popularity": 2.772}, {"adult": false, "backdrop_path": "/x6f4Axjvr5Ybi2mfdpVSWvASdxX.jpg", "genre_ids": [53], "id": 28123, "original_language": "en", "original_title": "Safe House", "overview": "A psychological thriller; Mace Sowell, an ex-intelligence operative and whose past government activities catches up with him, faces his own mortality, in the shape of the onset of Alzheimer's disease. Holding the electronic key to secret information which implicates a Presidential front-runner, Mace struggles for his life while battling the debilitating effects of the disease.", "poster_path": "/iFJ5kEbclDDfpfpRiNYky1dxsPy.jpg", "release_date": "1998-07-01", "title": "Safe House", "video": false, "vote_average": 6.3, "vote_count": 12, "popularity": 3.999}, {"adult": false, "backdrop_path": "/kOP6Rgp6JQHIRQKVfaTjq9aSFDZ.jpg", "genre_ids": [18, 53, 80], "id": 21132, "original_language": "en", "original_title": "Monument Ave.", "overview": "Bobby O'Grady a low level member of a Boston Irish gang run by Jackie O'Hara. Jackie demands absolute, total loyalty to him. When Jackie kills one of Bobby's buddies, Teddy, Bobby and others have to keep it an absolute secret, even from their and Teddy's relatives.", "poster_path": "/hWthx3bzq6FoDUxu0bqZIwQqrSq.jpg", "release_date": "1998-09-25", "title": "Monument Ave.", "video": false, "vote_average": 5.9, "vote_count": 15, "popularity": 2.026}, {"adult": false, "backdrop_path": "/2siI8ZobYiYHkeP3g5vJFdFoyoO.jpg", "genre_ids": [878], "id": 32064, "original_language": "en", "original_title": "The Time Guardian", "overview": "In the distant future, the human race nears extinction and a new race of beast-like creatures rule the earth. The few surviving people live in the City, a huge protected construction with the ability to travel in both space and time. The City travels back to our time to save humanity...", "poster_path": "/qbabFvMB3g0NfW7U6eLUd4bNKjD.jpg", "release_date": "1987-12-03", "title": "The Time Guardian", "video": false, "vote_average": 4.7, "vote_count": 13, "popularity": 3.041}], "total_pages": 1, "total_results": 5}, "credits": {"cast": [{"cast_id": 2, "character": "Michael Raynor", "credit_id": "52fe475fc3a36847f81321fb", "gender": 2, "id": 2, "name": "Mark Hamill", "order": 0, "profile_path": "/fk8OfdReNltKZqOk2TZgkofCUFq.jpg"}, {"cast_id": 3, "character": "Karen Donaldson", "credit_id": "52fe475fc3a36847f81321ff", "gender": 1, "id": 13312, "name": "Rae Dawn Chong", "order": 1, "profile_path": "/6mk5lSTIUav9T1M0VAdUP46FTSH.jpg"}, {"cast_id": 4, "character": "Neila", "credit_id": "52fe475fc3a36847f8132203", "gender": 2, "id": 591, "name": "Brion James", "order": 2, "profile_path": "/uBLLDajj01JIR06Peh1G3YGvZ61.jpg"}, {"cast_id": 5, "character": "Freeman", "credit_id": "59f8add6c3a3685ff801875e", "gender": 0, "id": 1915192, "name": "Mark Baur", "order": 3, "profile_path": null}, {"cast_id": 6, "character": "Arnie", "credit_id": "59f9f1cc9251417e0000053b", "gender": 2, "id": 1235366, "name": "Gordon Tipple", "order": 4, "profile_path": "/v7tMsAOE6T7g1hG3fsDtL0hAQqr.jpg"}], "crew": [{"credit_id": "52fe475fc3a36847f81321f7", "department": "Directing", "gender": 0, "id": 140254, "job": "Director", "name": "Michael Mazo", "profile_path": null}]}}