{"adult": false, "backdrop_path": "/qvlToqIqsAY0qcFtGXXK1v2xDFl.jpg", "belongs_to_collection": null, "budget": 0, "genres": [{"id": 35, "name": "Comedy"}, {"id": 18, "name": "Drama"}], "homepage": "http://www.allaboutnina.film", "id": 483435, "imdb_id": "tt7542576", "original_language": "en", "original_title": "All About Nina", "overview": "Nina Geld's passion and talent have made her a rising star in the comedy scene, but she's an emotional mess offstage. When a new professional opportunity coincides with a romantic one, she is forced to confront her own deeply troubled past.", "popularity": 6.585, "poster_path": "/qcOV7ALpm0CiIyeTxP3Ncjrc7HA.jpg", "production_companies": [{"id": 57537, "logo_path": "/xDWgR9hco6pRM69A4djcwaSpKHz.png", "name": "Diablo Entertainment", "origin_country": "US"}, {"id": 110683, "logo_path": "/z1GfjlIPnK3ObFcW83Wq4vUq972.png", "name": "Malibu Films", "origin_country": "US"}, {"id": 110685, "logo_path": null, "name": "Candela Films", "origin_country": "US"}], "production_countries": [{"iso_3166_1": "US", "name": "United States of America"}], "release_date": "2018-09-28", "revenue": 0, "runtime": 97, "spoken_languages": [{"iso_639_1": "en", "name": "English"}], "status": "Released", "tagline": "Get your act together.", "title": "All About Nina", "video": false, "vote_average": 6.8, "vote_count": 20, "keywords": {"keywords": [{"id": 12670, "name": "los angeles, california"}, {"id": 33731, "name": "stand-up comedian"}, {"id": 187056, "name": "woman director"}]}, "similar": {"page": 1, "results": [{"adult": false, "backdrop_path": "/rf6G51j0SZL0tP57I8gnqHTRFEr.jpg", "genre_ids": [35, 18, 10749], "id": 273153, "original_language": "fr", "original_title": "La belle saison", "overview": "In 1971, Carole and Delphine meet and fall in love in Paris. When Carole follows Delphine back to her family farm in Limousin, the two find lesbianism and feminism are not as easy in the countryside.", "poster_path": "/evvAkNMO5VJiy5qIo1Hu7fUfvVI.jpg", "release_date": "2015-08-19", "title": "Summertime", "video": false, "vote_average": 6.6, "vote_count": 162, "popularity": 11.575}, {"id": 9813, "video": false, "vote_count": 128, "vote_average": 6.1, "title": "The Quiet", "release_date": "2005-09-12", "original_language": "en", "original_title": "The Quiet", "genre_ids": [18, 53], "backdrop_path": "/6eyWAZA4CEidZW1xXnQ4vlYBXTP.jpg", "adult": false, "overview": "After her widowed father dies, deaf teenager Dot moves in with her godparents, Olivia and Paul Deer. The Deers' daughter, Nina, is openly hostile to Dot, but that does not prevent her from telling her secrets to her silent stepsister, including the fact that she wants to kill her lecherous father.", "poster_path": "/GEqIE9YlmygHVUfS64LW2cwAAM.jpg", "popularity": 14.844}, {"adult": false, "backdrop_path": "/gZeJziVigmRqbkEZwKAtSqlLQ6s.jpg", "genre_ids": [18, 10749], "id": 370663, "original_language": "en", "original_title": "Below Her Mouth", "overview": "An unexpected affair quickly escalates into a heart-stopping reality for two women whose passionate connection changes their lives forever.", "poster_path": "/nTGbq37hYLuNy7YgMg0gVLma0NS.jpg", "release_date": "2016-09-10", "title": "Below Her Mouth", "video": false, "vote_average": 6.2, "vote_count": 456, "popularity": 18.664}, {"adult": false, "backdrop_path": "/tzqeuHWMFihFbiLGHdalPgAcSf6.jpg", "genre_ids": [18, 10749], "id": 18620, "original_language": "en", "original_title": "Go Fish", "overview": "Max is a trendy, pretty, young lesbian, who is having trouble finding love. A friend sets her up with Ely, whom Max likes, but Ely is frumpy, homely, and older. Nor do they have much in common. Can Max learn to look past the packaging?", "poster_path": "/qrEFYrwykaGsY8NULYuYLLI7zrM.jpg", "release_date": "1994-06-10", "title": "Go Fish", "video": false, "vote_average": 5.0, "vote_count": 11, "popularity": 3.676}, {"adult": false, "backdrop_path": "/6tern9vOEwwmkDYC1vRCuO64z0C.jpg", "genre_ids": [10749, 18], "id": 475888, "original_language": "en", "original_title": "Tell It to the Bees", "overview": "Dr. Jean Markham returns to the town she left as a teenager to take over her late father's medical practice. When a school-yard scuffle lands Charlie in her surgery, she invites him to visit the hives in her garden and tell his secrets to the bees, as she once did. The new friendship between the boy and the bee keeper brings his mother Lydia into Jean's world.", "poster_path": "/Rj6zpHhMU1zFW3v28U4PSRSRgP.jpg", "release_date": "2019-05-03", "title": "Tell It to the Bees", "video": false, "vote_average": 6.4, "vote_count": 53, "popularity": 13.175}, {"adult": false, "backdrop_path": "/knczzNAjBXzSYkeWxoT1u9VNmjR.jpg", "genre_ids": [10749, 18], "id": 258480, "original_language": "en", "original_title": "Carol", "overview": "In 1950s New York, a department-store clerk who dreams of a better life falls for an older, married woman.", "poster_path": "/AbKa7ANxmui0Jmhh7gV7OSELKIL.jpg", "release_date": "2015-11-20", "title": "Carol", "video": false, "vote_average": 7.4, "vote_count": 2184, "popularity": 13.539}, {"adult": false, "backdrop_path": "/dvQDRfv3qvfHNnVAR57ouVsuErf.jpg", "genre_ids": [10749, 18], "id": 28031, "original_language": "en", "original_title": "If These Walls Could Talk 2", "overview": "The stories of three lesbian couples -- who live in the same house at different periods of time -- who are at a crossroads in their lives. In 1961, Edith loses her lover, Abby, to a stroke. Linda and Amy struggle with feminist issues in 1972. And, in 2000, Kal and Fran try to have a baby with the help of sperm donor.", "poster_path": "/xs7ODbmYQXCDhvXNvz5tF17T59H.jpg", "release_date": "2000-03-05", "title": "If These Walls Could Talk 2", "video": false, "vote_average": 7.1, "vote_count": 55, "popularity": 8.86}, {"id": 520172, "video": false, "vote_count": 0, "vote_average": 0.0, "title": "Happiest Season", "release_date": "2020-11-20", "original_language": "en", "original_title": "Happiest Season", "genre_ids": [35, 10749], "backdrop_path": null, "adult": false, "overview": "A young woman's plans to propose to her girlfriend while at her family's annual holiday party are upended when she discovers her partner hasn't yet come out to her conservative parents.", "poster_path": null, "popularity": 6.027}, {"adult": false, "backdrop_path": "/cADbqsIoiDW7X3Myg9nz8eAuno5.jpg", "genre_ids": [18, 10749], "id": 10818, "original_language": "fr", "original_title": "Naissance des pieuvres", "overview": "Set during a sultry summer in a French suburb, Marie is desperate to join the local pool's synchronized swimming team, but is her interest solely for the sake of sport or for a chance to get close to Floriane, the bad girl of the team? Sciamma, and the two leads, capture the uncertainty of teenage sexuality with a sympathetic eye in this delicate drama of the angst of coming-of-age.", "poster_path": "/4jajELYrR4Xmv3CVoKnukRnALa2.jpg", "release_date": "2007-05-17", "title": "Water Lilies", "video": false, "vote_average": 6.1, "vote_count": 119, "popularity": 9.614}, {"adult": false, "backdrop_path": "/fZ8oFcREAr6wgWcXISGql0xyxjB.jpg", "genre_ids": [35, 18], "id": 39781, "original_language": "en", "original_title": "The Kids Are All Right", "overview": "Two women, Nic and Jules, brought a son and daughter into the world through artificial insemination. When one of their children reaches age, both kids go behind their mothers' backs to meet with the donor. Life becomes so much more interesting when the father, two mothers and children start to become attached to each other.", "poster_path": "/fPDeK4MmoGfi2X0oWZev7LrbMqM.jpg", "release_date": "2010-07-09", "title": "The Kids Are All Right", "video": false, "vote_average": 6.6, "vote_count": 923, "popularity": 12.159}, {"adult": false, "backdrop_path": "/hD8DQM72Xacg1d3mFqS0eN8vKYw.jpg", "genre_ids": [18], "id": 8272, "original_language": "en", "original_title": "The Savages", "overview": "A sister and brother face the realities of familial responsibility as they begin to care for their ailing father.", "poster_path": "/nY54gSmTOmSXlQpWDB7DWp4u8a7.jpg", "release_date": "2007-01-19", "title": "The Savages", "video": false, "vote_average": 6.9, "vote_count": 192, "popularity": 9.466}, {"adult": false, "backdrop_path": "/caLMOD3ZJ3V7qjlxDXrzlJfBLgD.jpg", "genre_ids": [18, 10749], "id": 20, "original_language": "en", "original_title": "My Life Without Me", "overview": "A Pedro Almodovar production in which a fatally ill mother with only two months to live creates a list of things she wants to do before she dies with out telling her family of her illness.", "poster_path": "/vVj92VBFUBzjqzLvBiPVVlJDp78.jpg", "release_date": "2003-03-07", "title": "My Life Without Me", "video": false, "vote_average": 6.1, "vote_count": 220, "popularity": 10.382}, {"adult": false, "backdrop_path": "/useuHJQ5HOoEWkAvEjL1FW1sUfe.jpg", "genre_ids": [18], "id": 376867, "original_language": "en", "original_title": "Moonlight", "overview": "The tender, heartbreaking story of a young man\u2019s struggle to find himself, told across three defining chapters in his life as he experiences the ecstasy, pain, and beauty of falling in love, while grappling with his own sexuality.", "poster_path": "/qAwFbszz0kRyTuXmMeKQZCX3Q2O.jpg", "release_date": "2016-10-21", "title": "Moonlight", "video": false, "vote_average": 7.4, "vote_count": 4410, "popularity": 21.716}, {"adult": false, "backdrop_path": "/k8H7ye6Sab7OrDJoo8Qp5WFGHGk.jpg", "genre_ids": [35, 10749, 18], "id": 244264, "original_language": "en", "original_title": "Laggies", "overview": "Overeducated and underemployed, 28 year old Megan is in the throes of a quarterlife crisis. Squarely into adulthood with no career prospects, no particular motivation to think about her future and no one to relate to, Megan is comfortable lagging a few steps behind - while her friends check off milestones and celebrate their new grown-up status. When her high-school sweetheart proposes, Megan panics and- given an unexpected opportunity to escape for a week - hides out in the home of her new friend, 16-year old Annika and Annika's world-weary single dad Craig.", "poster_path": "/dNcoXoRC7JHiqbe7k5Ufo6syiPP.jpg", "release_date": "2014-09-25", "title": "Laggies", "video": false, "vote_average": 6.1, "vote_count": 788, "popularity": 13.836}, {"id": 1581, "video": false, "vote_count": 2900, "vote_average": 7.0, "title": "The Holiday", "release_date": "2006-12-08", "original_language": "en", "original_title": "The Holiday", "genre_ids": [35, 10749], "backdrop_path": "/9TP7FGdo9ppnuXX3DbB9RtzYKkh.jpg", "adult": false, "overview": "Two women, one from the United States and one from the United Kingdom, swap homes at Christmastime after bad breakups with their boyfriends. Each woman finds romance with a local man but realizes that the imminent return home may end the relationship.", "poster_path": "/ixNtpuq8OVp4IckgzkSJIflFDkw.jpg", "popularity": 18.889}, {"adult": false, "backdrop_path": "/g3LYarEY9LjB28Ct2trwFN72gqZ.jpg", "genre_ids": [35], "id": 437557, "original_language": "en", "original_title": "Blockers", "overview": "When three parents discover their daughters\u2019 pact to lose their virginity at prom, they launch a covert one-night operation to stop the teens from sealing the deal.", "poster_path": "/uvlUQXg0AlpGzKukO11K7QtW3Yu.jpg", "release_date": "2018-03-14", "title": "Blockers", "video": false, "vote_average": 6.2, "vote_count": 1155, "popularity": 17.886}, {"id": 434714, "video": false, "vote_count": 32, "vote_average": 7.5, "title": "My Days of Mercy", "release_date": "2019-07-11", "original_language": "en", "original_title": "My Days of Mercy", "genre_ids": [18, 10749], "backdrop_path": "/7Lbzq33nMMIQtAfZAmSqG6ibLSg.jpg", "adult": false, "overview": "The daughter of a man on death row falls in love with a woman on the opposing side of her family's political cause.", "poster_path": "/adIPKAoKnKL9vCTkvfF4J9ZA7Ln.jpg", "popularity": 9.342}, {"adult": false, "backdrop_path": "/npClMhFGn4XUkwu6coq5oKAEu6L.jpg", "genre_ids": [35, 10749, 18], "id": 634, "original_language": "en", "original_title": "Bridget Jones's Diary", "overview": "A chaotic Bridget Jones meets a snobbish lawyer, and he soon enters her world of imperfections.", "poster_path": "/ym6kjFFZg6boC0QHBVw6hqJLbxv.jpg", "release_date": "2001-04-13", "title": "Bridget Jones's Diary", "video": false, "vote_average": 6.7, "vote_count": 3080, "popularity": 19.453}, {"adult": false, "backdrop_path": "/ojn7IYKmMt8HXRd6oLwY5pLGLVc.jpg", "genre_ids": [18, 10749], "id": 9587, "original_language": "en", "original_title": "Little Women", "overview": "With their father away as a chaplain in the Civil War, Jo, Meg, Beth and Amy grow up with their mother in somewhat reduced circumstances. They are a close family who inevitably have their squabbles and tragedies. But the bond holds even when, later, male friends start to become a part of the household.", "poster_path": "/tD9YDE8pjtSvvKUpkmooE6YDSm8.jpg", "release_date": "1994-12-21", "title": "Little Women", "video": false, "vote_average": 7.2, "vote_count": 574, "popularity": 18.707}, {"adult": false, "backdrop_path": "/txtRue33MaXv5HQpTiHPOmOcDxE.jpg", "genre_ids": [35, 10749], "id": 11631, "original_language": "en", "original_title": "Mamma Mia!", "overview": "An independent, single mother who owns a small hotel on a Greek island is about to marry off the spirited young daughter she's raised alone. But, the daughter has secretly invited three of her mother's ex-lovers in the hopes of finding her biological father.", "poster_path": "/gOm2iMMbC6EonrFzmSQ8xvCa4Ei.jpg", "release_date": "2008-07-02", "title": "Mamma Mia!", "video": false, "vote_average": 6.9, "vote_count": 4124, "popularity": 16.301}], "total_pages": 1450, "total_results": 28985}, "recommendations": {"page": 1, "results": [], "total_pages": 1, "total_results": 0}, "credits": {"cast": [{"cast_id": 2, "character": "Nina Geld", "credit_id": "59f0fbbc9251416a9e020c30", "gender": 1, "id": 17628, "name": "Mary Elizabeth Winstead", "order": 0, "profile_path": "/cBMtncBcUrKMTB8CifDG23THuCE.jpg"}, {"cast_id": 3, "character": "Rafe", "credit_id": "59f0fbcec3a368064e020c43", "gender": 2, "id": 4238, "name": "Common", "order": 1, "profile_path": "/fYA8xm95u4papXddRvQrGRNDThF.jpg"}, {"cast_id": 6, "character": "Joe", "credit_id": "59f0fbf59251416aaf020298", "gender": 2, "id": 60899, "name": "Chace Crawford", "order": 2, "profile_path": "/8bahpqXhSX3zUYhj6ypYILZtynU.jpg"}, {"cast_id": 13, "character": "Paula", "credit_id": "5a24f8da92514103330d2775", "gender": 1, "id": 20387, "name": "Clea DuVall", "order": 3, "profile_path": "/lNCDz75IsCKIPhr295OBk1SHv2J.jpg"}, {"cast_id": 5, "character": "Lake", "credit_id": "59f0fbe7c3a368066501f981", "gender": 1, "id": 36628, "name": "Kate del Castillo", "order": 4, "profile_path": "/p5aq3I9P53C1bN7yN8sTUhUwfrs.jpg"}, {"cast_id": 4, "character": "Larry Michaels", "credit_id": "59f0fbdb9251416a9e020c49", "gender": 2, "id": 2222, "name": "Beau Bridges", "order": 5, "profile_path": "/xv6sDCHxHvBgCK4y96H32kxgcdr.jpg"}, {"cast_id": 12, "character": "Ganja", "credit_id": "5a24f89692514103390d4f34", "gender": 1, "id": 1457238, "name": "Sonoya Mizuno", "order": 6, "profile_path": "/5QLb2nP8Ckp2xjDyeqQLUFaasG9.jpg"}, {"cast_id": 7, "character": "Mike", "credit_id": "59f0fc06c3a36806c401eef0", "gender": 2, "id": 12217, "name": "Jay Mohr", "order": 7, "profile_path": "/lLICNIywduxjo1KA3okgXxGqws3.jpg"}, {"cast_id": 9, "character": "Debora", "credit_id": "59f0fc1f9251416aa3020100", "gender": 1, "id": 20187, "name": "Camryn Manheim", "order": 8, "profile_path": "/baUSk3l2bcmxGvIpifFAyHq2v28.jpg"}, {"cast_id": 10, "character": "Amy", "credit_id": "59f0fc2ac3a36806e001c3ec", "gender": 1, "id": 13924, "name": "Mindy Sterling", "order": 9, "profile_path": "/ffeLktZ7JFCVK1uV2tuw4epSqz0.jpg"}, {"cast_id": 11, "character": "Carrie", "credit_id": "59f0fc39c3a368067301f90c", "gender": 1, "id": 1001536, "name": "Angelique Cabral", "order": 10, "profile_path": "/3f2EdZYCdQH9TlCOPNbrdLT2Ag.jpg"}, {"cast_id": 15, "character": "Mika", "credit_id": "5a24f929925141032c0d74ba", "gender": 1, "id": 1685831, "name": "Ramona Young", "order": 11, "profile_path": "/6sQ1NcAqcOye6nFfWWdNuEWo62p.jpg"}, {"cast_id": 16, "character": "Smoky", "credit_id": "5a24f93492514103290d977f", "gender": 2, "id": 3230, "name": "Todd Louiso", "order": 12, "profile_path": "/e4PTxmKUB0qGBusuNjqMvhjGELK.jpg"}, {"cast_id": 18, "character": "Maria", "credit_id": "5a24f940c3a3680b960d5447", "gender": 1, "id": 1736211, "name": "Cate Freedman", "order": 13, "profile_path": "/idiAGDZ5zyr6R7qfkKEFirFvyj2.jpg"}, {"cast_id": 19, "character": "Yolanda", "credit_id": "5a24f94ac3a3680b8d0d4dcf", "gender": 1, "id": 1194195, "name": "Andree Vermeulen", "order": 14, "profile_path": "/9gydrUWLcPYVAeedeXvm8pJBImP.jpg"}, {"cast_id": 8, "character": "Bride", "credit_id": "59f0fc10c3a368066501f9ab", "gender": 1, "id": 53936, "name": "Melonie Diaz", "order": 15, "profile_path": "/u9ZZDJWYJkc1yNFSLEMaIM5Q20y.jpg"}], "crew": [{"credit_id": "5aa0f141c3a3685060002ec9", "department": "Production", "gender": 0, "id": 554519, "job": "Producer", "name": "Sean Tabibian", "profile_path": "/hWGjv6lk5QQ04wbcTRVsOiGwGCe.jpg"}, {"credit_id": "5aa0f154c3a3685067002f76", "department": "Camera", "gender": 2, "id": 1045750, "job": "Director of Photography", "name": "Thomas Scott Stanton", "profile_path": null}, {"credit_id": "5aa0f11a92514160f9002c60", "department": "Production", "gender": 0, "id": 1262632, "job": "Producer", "name": "Eric B. Fleischman", "profile_path": null}, {"credit_id": "59f0fb829251416a9e020bea", "department": "Directing", "gender": 1, "id": 1568670, "job": "Director", "name": "Eva Vives", "profile_path": null}, {"credit_id": "5aa0f138c3a3685060002ec5", "department": "Production", "gender": 1, "id": 1568670, "job": "Producer", "name": "Eva Vives", "profile_path": null}, {"credit_id": "59f0fb8ac3a368066501f925", "department": "Writing", "gender": 1, "id": 1568670, "job": "Writer", "name": "Eva Vives", "profile_path": null}, {"credit_id": "5aa0f1290e0a2644ed002c28", "department": "Production", "gender": 0, "id": 1568671, "job": "Producer", "name": "Natalie Qasabian", "profile_path": null}]}}