{"adult": false, "backdrop_path": "/ehMv4LBC4eCXFgO6zErf4iZOslt.jpg", "belongs_to_collection": null, "budget": 0, "genres": [{"id": 18, "name": "Drama"}, {"id": 36, "name": "History"}], "homepage": "https://www.musicboxfilms.com/film/becoming-astrid/", "id": 484428, "imdb_id": "tt6433456", "original_language": "sv", "original_title": "Unga Astrid", "overview": "When Astrid Lindgren was very young something happened that affected her profoundly, and this combination of both miracle and calamity came to shape her entire life. It was an event that transformed her into one of the most inspiring women of our age and the storyteller a whole world would come to love. This is the story of when a young Astrid, despite the expectations of her time and religious upbringing, decided to break free from society's norms and follow her heart.", "popularity": 9.22, "poster_path": "/lzZna1qlvLFfgZUlQuX9b8gqPd0.jpg", "production_companies": [{"id": 14758, "logo_path": "/eCYPzcnF5KidrKPOT90ANslOKMx.png", "name": "DCM Pictures", "origin_country": "DE"}, {"id": 94849, "logo_path": null, "name": "Avanti Film", "origin_country": "SE"}, {"id": 235, "logo_path": "/obOynoztBEhDNfHsDXBqOuQLAZk.png", "name": "Nordisk Film", "origin_country": "DK"}, {"id": 327, "logo_path": "/obOynoztBEhDNfHsDXBqOuQLAZk.png", "name": "Nordisk Film", "origin_country": "SE"}, {"id": 2801, "logo_path": "/bswb1PLLsKDUXMLgy42bZtCtIde.png", "name": "Film i V\u00e4st", "origin_country": "SE"}, {"id": 2802, "logo_path": "/x3cLK4hmrDxBeoD7eWbfJL2dGxP.png", "name": "TV4", "origin_country": "SE"}], "production_countries": [{"iso_3166_1": "DK", "name": "Denmark"}, {"iso_3166_1": "SE", "name": "Sweden"}, {"iso_3166_1": "DE", "name": "Germany"}], "release_date": "2018-09-14", "revenue": 0, "runtime": 123, "spoken_languages": [{"iso_639_1": "da", "name": "Dansk"}, {"iso_639_1": "sv", "name": "svenska"}], "status": "Released", "tagline": "Be the author of your own story.", "title": "Becoming Astrid", "video": false, "vote_average": 7.4, "vote_count": 47, "keywords": {"keywords": [{"id": 246, "name": "dancing"}, {"id": 1192, "name": "sweden"}, {"id": 3725, "name": "pregnancy"}, {"id": 5565, "name": "biography"}, {"id": 8085, "name": "stockholm"}, {"id": 10818, "name": "author"}, {"id": 207876, "name": "1920s"}, {"id": 208289, "name": "1980s"}, {"id": 214548, "name": "1930s"}]}, "similar": {"page": 1, "results": [{"adult": false, "backdrop_path": "/9alS7FBSf8rvDLskpCRuKqAI2h5.jpg", "genre_ids": [18, 36], "id": 746, "original_language": "en", "original_title": "The Last Emperor", "overview": "A dramatic history of Pu Yi, the last of the Emperors of China, from his lofty birth and brief reign in the Forbidden City, the object of worship by half a billion people; through his abdication, his decline and dissolute lifestyle; his exploitation by the invading Japanese, and finally to his obscure existence as just another peasant worker in the People's Republic.", "poster_path": "/KTirnfG6FZLKWbm8Am3EEKmZDx.jpg", "release_date": "1987-10-21", "title": "The Last Emperor", "video": false, "vote_average": 7.6, "vote_count": 774, "popularity": 13.039}, {"id": 401847, "video": false, "vote_count": 664, "vote_average": 6.8, "title": "Can You Ever Forgive Me?", "release_date": "2018-10-19", "original_language": "en", "original_title": "Can You Ever Forgive Me?", "genre_ids": [35, 80, 18], "backdrop_path": "/shIOFWkjTn2NRvq5r4Mn2xLdZeJ.jpg", "adult": false, "overview": "When a bestselling celebrity biographer is no longer able to get published because she has fallen out of step with current tastes, she turns her art form to deception.", "poster_path": "/hPuZR2bFoV0kuBrA98exWyvTf40.jpg", "popularity": 16.339}, {"id": 424694, "video": false, "vote_count": 9728, "vote_average": 8.0, "title": "Bohemian Rhapsody", "release_date": "2018-10-24", "original_language": "en", "original_title": "Bohemian Rhapsody", "genre_ids": [18, 10402], "backdrop_path": "/93xA62uLd5CwMOAs37eQ7vPc1iV.jpg", "adult": false, "overview": "Singer Freddie Mercury, guitarist Brian May, drummer Roger Taylor and bass guitarist John Deacon take the music world by storm when they form the rock 'n' roll band Queen in 1970. Hit songs become instant classics. When Mercury's increasingly wild lifestyle starts to spiral out of control, Queen soon faces its greatest challenge yet \u2013 finding a way to keep the band together amid the success and excess.", "poster_path": "/lHu1wtNaczFPGFDTrjCSzeLPTKN.jpg", "popularity": 37.217}, {"adult": false, "backdrop_path": "/fJQ5kjLx4UdK05MC323Vlzwr6S8.jpg", "genre_ids": [35, 18, 36], "id": 140823, "original_language": "en", "original_title": "Saving Mr. Banks", "overview": "Author P.L. Travers travels from London to Hollywood as Walt Disney Pictures adapts her novel Mary Poppins for the big screen.", "poster_path": "/mvs3reS18RP6IhjLwwLeVtkoeg0.jpg", "release_date": "2013-11-16", "title": "Saving Mr. Banks", "video": false, "vote_average": 7.4, "vote_count": 2230, "popularity": 11.476}, {"id": 394741, "video": false, "vote_count": 498, "vote_average": 7.0, "title": "Stan & Ollie", "release_date": "2018-12-28", "original_language": "en", "original_title": "Stan & Ollie", "genre_ids": [35, 18], "backdrop_path": "/bH7ax3A4Pxlh5ddG4d3HNDMlhK4.jpg", "adult": false, "overview": "With their golden era long behind them, comedy duo Stan Laurel and Oliver Hardy embark on a variety hall tour of Britain and Ireland. Despite the pressures of a hectic schedule, and with the support of their wives Lucille and Ida \u2013 a formidable double act in their own right \u2013 the pair's love of performing, as well as for each other, endures as they secure their place in the hearts of their adoring public", "poster_path": "/8qDBDXA8Od8gc4IQMnoXUKyj8Pf.jpg", "popularity": 14.809}, {"id": 152532, "video": false, "vote_count": 5383, "vote_average": 7.9, "title": "Dallas Buyers Club", "release_date": "2013-11-17", "original_language": "en", "original_title": "Dallas Buyers Club", "genre_ids": [18, 36], "backdrop_path": "/3hGRV0xR11aUxCGAJ52F8MTxrno.jpg", "adult": false, "overview": "Loosely based on the true-life tale of Ron Woodroof, a drug-taking, women-loving, homophobic man who in 1986 was diagnosed with HIV/AIDS and given thirty days to live.", "poster_path": "/nxJFUxDRP9qQCiyD5sH24N5SCSu.jpg", "popularity": 15.89}, {"id": 425336, "video": false, "vote_count": 589, "vote_average": 6.2, "title": "Loving Pablo", "release_date": "2017-10-12", "original_language": "es", "original_title": "Loving Pablo", "genre_ids": [80, 18], "backdrop_path": "/pcIXV6Od8KeDsLWKu7Wzthaur4V.jpg", "adult": false, "overview": "The film chronicles the rise and fall of the world's most feared drug lord Pablo Escobar and his volatile love affair with Colombia's most famous journalist Virginia Vallejo throughout a reign of terror that tore a country apart.", "poster_path": "/xFc8RCsQGQv016ELpggiEKoBNAe.jpg", "popularity": 13.195}, {"adult": false, "backdrop_path": "/g3acAt4ROTOaSPHxHa1K2VjjitZ.jpg", "genre_ids": [18, 36], "id": 397538, "original_language": "sv", "original_title": "Borg vs McEnroe", "overview": "The Swedish Bj\u00f6rn Borg and the American John McEnroe, the best tennis players in the world, maintain a legendary duel during the 1980 Wimbledon tournament.", "poster_path": "/9jdg8VxleYb1DhPiEfHM7DzfvGw.jpg", "release_date": "2017-09-06", "title": "Borg vs McEnroe", "video": false, "vote_average": 7.0, "vote_count": 646, "popularity": 12.003}, {"adult": false, "backdrop_path": "/urnGzQvP8fwWWGkn1k809KqIjbm.jpg", "genre_ids": [18], "id": 87093, "original_language": "en", "original_title": "Big Eyes", "overview": "The story of the awakening of painter, Margaret Keane, her phenomenal success in the 1950s, and the subsequent legal difficulties she had with her husband, who claimed credit for her works in the 1960s.", "poster_path": "/z2tqzprHojhgEGYKQepjU28oQg6.jpg", "release_date": "2014-12-24", "title": "Big Eyes", "video": false, "vote_average": 7.0, "vote_count": 2349, "popularity": 14.024}, {"id": 5915, "video": false, "vote_count": 6283, "vote_average": 7.8, "title": "Into the Wild", "release_date": "2007-09-11", "original_language": "en", "original_title": "Into the Wild", "genre_ids": [12, 18], "backdrop_path": "/9yJehIjvR7ULOLxeDJoth4kDDNe.jpg", "adult": false, "overview": "After graduating from Emory University in 1992, top student and athlete Christopher McCandless abandons his possessions, gives his entire $24,000 savings account to charity, and hitchhikes to Alaska to live in the wilderness.", "poster_path": "/lHyYgaocXR6KcJLxVmxZDj115hH.jpg", "popularity": 13.103}, {"id": 120467, "video": false, "vote_count": 8930, "vote_average": 8.0, "title": "The Grand Budapest Hotel", "release_date": "2014-02-26", "original_language": "en", "original_title": "The Grand Budapest Hotel", "genre_ids": [35, 18], "backdrop_path": "/5FPUoQtnNC0C0YZ7sUeTLq6eZqa.jpg", "adult": false, "overview": "The Grand Budapest Hotel tells of a legendary concierge at a famous European hotel between the wars and his friendship with a young employee who becomes his trusted prot\u00e9g\u00e9. The story involves the theft and recovery of a priceless Renaissance painting, the battle for an enormous family fortune and the slow and then sudden upheavals that transformed Europe during the first half of the 20th century.", "poster_path": "/nX5XotM9yprCKarRH4fzOq1VM1J.jpg", "popularity": 24.31}, {"id": 457799, "video": false, "vote_count": 1572, "vote_average": 7.0, "title": "Extremely Wicked, Shockingly Evil and Vile", "release_date": "2019-05-02", "original_language": "en", "original_title": "Extremely Wicked, Shockingly Evil and Vile", "genre_ids": [80, 18, 53], "backdrop_path": "/uRoA67sM5vvCI4cplxhl67BTPly.jpg", "adult": false, "overview": "A chronicle of the crimes of Ted Bundy, from the perspective of his longtime girlfriend, Elizabeth Kloepfer, who refused to believe the truth about him for years.", "poster_path": "/zSuJ3r5zr5T26tTxyygHhgkUAIM.jpg", "popularity": 22.062}, {"id": 311, "video": false, "vote_count": 2595, "vote_average": 8.4, "title": "Once Upon a Time in America", "release_date": "1984-05-23", "original_language": "en", "original_title": "Once Upon a Time in America", "genre_ids": [80, 18], "backdrop_path": "/vnT6HzjLSDrAweHn9xWykb8Ii6T.jpg", "adult": false, "overview": "A former Prohibition-era Jewish gangster returns to the Lower East Side of Manhattan over thirty years later, where he once again must confront the ghosts and regrets of his old life.", "poster_path": "/x733R4ISI0RbKeHhVkXdTMFmTFr.jpg", "popularity": 22.233}, {"id": 316029, "video": false, "vote_count": 5853, "vote_average": 8.0, "title": "The Greatest Showman", "release_date": "2017-12-20", "original_language": "en", "original_title": "The Greatest Showman", "genre_ids": [18], "backdrop_path": "/zpq404Sk7qQ7N4x3xOeNgp74GtU.jpg", "adult": false, "overview": "The story of American showman P.T. Barnum, founder of the circus that became the famous traveling Ringling Bros. and Barnum & Bailey Circus.", "poster_path": "/b9CeobiihCx1uG1tpw8hXmpi7nm.jpg", "popularity": 29.077}, {"id": 300671, "video": false, "vote_count": 1700, "vote_average": 7.1, "title": "13 Hours: The Secret Soldiers of Benghazi", "release_date": "2016-01-13", "original_language": "en", "original_title": "13 Hours: The Secret Soldiers of Benghazi", "genre_ids": [28, 18, 36, 53, 10752], "backdrop_path": "/hY8myWhjSOUeeiPskhOfwwgaCwc.jpg", "adult": false, "overview": "An American Ambassador is killed during an attack at a U.S. compound in Libya as a security team struggles to make sense out of the chaos.", "poster_path": "/4gpW4MkRI0BB17GHOJzXq0WamDP.jpg", "popularity": 20.173}, {"id": 396371, "video": false, "vote_count": 1970, "vote_average": 7.1, "title": "Molly's Game", "release_date": "2017-12-25", "original_language": "en", "original_title": "Molly's Game", "genre_ids": [80, 18], "backdrop_path": "/rHcBZ6ZKCe4FalWHyvBGsyMsh0k.jpg", "adult": false, "overview": "Molly Bloom, a young skier and former Olympic hopeful becomes a successful entrepreneur (and a target of an FBI investigation) when she establishes a high-stakes, international poker game.", "poster_path": "/in43bQ7k0ttr666IPP94IlbQbTR.jpg", "popularity": 18.141}, {"id": 45269, "video": false, "vote_count": 5557, "vote_average": 7.7, "title": "The King's Speech", "release_date": "2010-09-06", "original_language": "en", "original_title": "The King's Speech", "genre_ids": [18, 36], "backdrop_path": "/pJnU0JArW4aLcOoS9u2vQHDGJpK.jpg", "adult": false, "overview": "The King's Speech tells the story of the man who became King George VI, the father of Queen Elizabeth II. After his brother abdicates, George ('Bertie') reluctantly assumes the throne. Plagued by a dreaded stutter and considered unfit to be king, Bertie engages the help of an unorthodox speech therapist named Lionel Logue. Through a set of unexpected techniques, and as a result of an unlikely friendship, Bertie is able to find his voice and boldly lead the country into war.", "poster_path": "/nkFTbA1XjKWo9LCTaV1hV2Lsgr1.jpg", "popularity": 20.201}, {"adult": false, "backdrop_path": "/jK3EAFk3GdOaQfUDCOiTujzMpwH.jpg", "genre_ids": [18], "id": 389015, "original_language": "en", "original_title": "I, Tonya", "overview": "Competitive ice skater Tonya Harding rises amongst the ranks at the U. S. Figure Skating Championships, but her future in the sport is thrown into doubt when her ex-husband intervenes.", "poster_path": "/6gNXwSHxaksR1PjVZRqNapmkgj3.jpg", "release_date": "2017-12-08", "title": "I, Tonya", "video": false, "vote_average": 7.5, "vote_count": 3332, "popularity": 20.099}, {"id": 369972, "video": false, "vote_count": 3001, "vote_average": 7.1, "title": "First Man", "release_date": "2018-10-11", "original_language": "en", "original_title": "First Man", "genre_ids": [18, 36], "backdrop_path": "/jrudoaXcoLyHRPdolyOGemXgPEs.jpg", "adult": false, "overview": "A look at the life of the astronaut, Neil Armstrong, and the legendary space mission that led him to become the first man to walk on the Moon on July 20, 1969.", "poster_path": "/i91mfvFcPPlaegcbOyjGgiWfZzh.jpg", "popularity": 27.464}, {"id": 318846, "video": false, "vote_count": 5227, "vote_average": 7.3, "title": "The Big Short", "release_date": "2015-12-11", "original_language": "en", "original_title": "The Big Short", "genre_ids": [35, 18], "backdrop_path": "/6UyMLbe0lAPqfZLtVllAwBNFIis.jpg", "adult": false, "overview": "The men who made millions from a global economic meltdown.", "poster_path": "/p11Ftd4VposrAzthkhF53ifYZRl.jpg", "popularity": 25.578}], "total_pages": 16, "total_results": 307}, "recommendations": {"page": 1, "results": [{"id": 531489, "video": false, "vote_count": 8, "vote_average": 6.9, "title": "Cutterhead", "release_date": "2018-11-08", "original_language": "da", "original_title": "Cutterhead", "genre_ids": [53], "backdrop_path": "/4ImDNKBJTeyquv7Lw6QAHrbytqb.jpg", "adult": false, "overview": "Rie is a PR-coordinator visiting a tunnel boring machine to portray the well-oiled European cooperation in the Metro construction when an accident suddenly occurs. Unable to escape, she takes refuge in an airlock with Croatian miner Ivo and Bharan, a worker from Eritrea.", "poster_path": "/iXNnROR2XrE8ujIv2j27D6MmUKg.jpg", "popularity": 2.931}, {"adult": false, "backdrop_path": "/6ybapPFGkSez9GCKyZazMbg88g.jpg", "genre_ids": [16, 10751], "id": 230731, "original_language": "no", "original_title": "Solan og Ludvig - Jul i Fl\u00e5klypa", "overview": "The small town of Pinchcliffe is experiencing a great lack of snow, which is why the inventor Reodor Felgen is asked to create a snow machine. However, things does not go as planned.", "poster_path": "/coNdtG1juVXEqkrypxEKyPqlXVi.jpg", "release_date": "2013-11-08", "title": "Louis & Luca and the Snow Machine", "video": false, "vote_average": 7.0, "vote_count": 15, "popularity": 3.767}, {"adult": false, "backdrop_path": null, "genre_ids": [18, 10749, 878], "id": 52473, "original_language": "da", "original_title": "Allegro", "overview": "Famous pianist Zetterstr\u00f6m returns home to his native Denmark, to give a concert, just to find out that the choices he has made in his life have affected his love life greatly.", "poster_path": "/pO56LKrodEJPWbDOC9RWHLr94wj.jpg", "release_date": "2005-09-30", "title": "Allegro", "video": false, "vote_average": 6.9, "vote_count": 9, "popularity": 1.877}], "total_pages": 1, "total_results": 3}, "credits": {"cast": [{"cast_id": 0, "character": "Astrid Lindgren", "credit_id": "59f868b3c3a368606d012fda", "gender": 1, "id": 1164111, "name": "Alba August", "order": 0, "profile_path": "/faKNsiEqDt7OdYoHs6S3Y38bQ6.jpg"}, {"cast_id": 3, "character": "Hanna", "credit_id": "59f8692b92514169a1012e1e", "gender": 1, "id": 97032, "name": "Maria Bonnevie", "order": 1, "profile_path": "/x9Xw2I4UzItSKnPO1xrAnBoocOk.jpg"}, {"cast_id": 2, "character": "Marie", "credit_id": "59f8691d92514169a50123b0", "gender": 1, "id": 4460, "name": "Trine Dyrholm", "order": 2, "profile_path": "/ue2dx6F4g7uOR5nZJh8YEFlccJd.jpg"}, {"cast_id": 5, "character": "Blomberg", "credit_id": "59f8694bc3a368602e0121ec", "gender": 2, "id": 135120, "name": "Henrik Rafaelsen", "order": 3, "profile_path": "/els8FRmmiIgKSdMWY4QJyQXVJqd.jpg"}, {"cast_id": 4, "character": "Samuel", "credit_id": "59f8693c92514169db0129da", "gender": 2, "id": 143391, "name": "Magnus Krepper", "order": 4, "profile_path": "/iHJ5HM0bV5UfogcOobnKJtyJklf.jpg"}, {"cast_id": 1, "character": "Sture", "credit_id": "59f8690dc3a3685ff8011f7a", "gender": 2, "id": 1042841, "name": "Bj\u00f6rn Gustafsson", "order": 5, "profile_path": "/3kGXilt33XTBkjF1zeMuQSDWDaU.jpg"}, {"cast_id": 6, "character": "Olivia", "credit_id": "59f86959c3a36860af011c52", "gender": 1, "id": 1166981, "name": "Maria Alm Norell", "order": 6, "profile_path": "/ipx2w3LAO39bOTSLoEy59sd2jdP.jpg"}, {"cast_id": 15, "character": "Astrid (1987)", "credit_id": "5a8e10c30e0a263e77007b78", "gender": 0, "id": 1663556, "name": "Maria Fahl-Vikander", "order": 7, "profile_path": null}], "crew": [{"credit_id": "59f86969c3a3686093011890", "department": "Directing", "gender": 1, "id": 110601, "job": "Director", "name": "Pernille Fischer Christensen", "profile_path": "/daFzJ1lLVyAeE8gVZXVPmgPFawG.jpg"}, {"credit_id": "59f86973c3a3686058012015", "department": "Writing", "gender": 1, "id": 110601, "job": "Writer", "name": "Pernille Fischer Christensen", "profile_path": "/daFzJ1lLVyAeE8gVZXVPmgPFawG.jpg"}, {"credit_id": "59f869869251416a0c012ac0", "department": "Writing", "gender": 2, "id": 89689, "job": "Writer", "name": "Kim Fupz Aakeson", "profile_path": "/gUUzSQIjeWagfjmD3LB9eszrNmf.jpg"}, {"credit_id": "5a8e0ffa0e0a263e7d007da0", "department": "Camera", "gender": 2, "id": 1025533, "job": "Director of Photography", "name": "Erik Molberg Hansen", "profile_path": null}, {"credit_id": "5a8e100f0e0a263e8000745c", "department": "Editing", "gender": 0, "id": 782144, "job": "Editor", "name": "Kasper Leick", "profile_path": null}, {"credit_id": "5a8e101ac3a3682678007feb", "department": "Editing", "gender": 0, "id": 1114918, "job": "Editor", "name": "\u00c5sa Mossberg", "profile_path": null}, {"credit_id": "5a8e10310e0a263e6e008131", "department": "Art", "gender": 1, "id": 1455994, "job": "Production Design", "name": "Linda Janson", "profile_path": null}, {"credit_id": "5a8e10540e0a263e77007aee", "department": "Costume & Make-Up", "gender": 0, "id": 1033481, "job": "Costume Design", "name": "Cilla R\u00f6rby", "profile_path": null}, {"credit_id": "5a8e115b9251416c9000742c", "department": "Production", "gender": 1, "id": 7737, "job": "Producer", "name": "Anna Anthony", "profile_path": null}, {"credit_id": "5a8e116a9251416c810078c0", "department": "Production", "gender": 0, "id": 1673438, "job": "Producer", "name": "Lars G. Lindstr\u00f6m", "profile_path": null}, {"credit_id": "5a8e11790e0a263e74007d55", "department": "Production", "gender": 1, "id": 1545289, "job": "Producer", "name": "Maria Dahlin", "profile_path": null}]}}