{"adult": false, "backdrop_path": "/Aium2DxbWWdW0QMHLOR4IHvSZba.jpg", "belongs_to_collection": null, "budget": 0, "genres": [{"id": 28, "name": "Action"}, {"id": 878, "name": "Science Fiction"}], "homepage": null, "id": 48481, "imdb_id": "tt0043539", "original_language": "en", "original_title": "Five", "overview": "The world is destroyed in a nuclear holocaust. Only five Americans survive, including a pregnant woman, a neo-Nazi, a black man and a bank clerk. The five fight each other, fall in love, and act really depressed a lot.", "popularity": 2.943, "poster_path": "/nIbWdFISVuSyM2cNseR5PSp7fEn.jpg", "production_companies": [], "production_countries": [{"iso_3166_1": "US", "name": "United States of America"}], "release_date": "1951-04-25", "revenue": 0, "runtime": 93, "spoken_languages": [{"iso_639_1": "en", "name": "English"}], "status": "Released", "tagline": "Four men and one woman are the last five people on Earth...This is their story!", "title": "Five", "video": false, "vote_average": 6.3, "vote_count": 14, "keywords": {"keywords": [{"id": 4565, "name": "dystopia"}]}, "similar": {"page": 1, "results": [{"adult": false, "backdrop_path": null, "genre_ids": [28, 878], "id": 624860, "original_language": "en", "original_title": "The Matrix 4", "overview": "The fourth installment in The Matrix franchise. Plot unknown.", "poster_path": "/uoQfAYR1NTax9akJ1ceeQTKNXeo.jpg", "release_date": "2021-05-20", "title": "The Matrix 4", "video": false, "vote_average": 0.0, "vote_count": 0, "popularity": 6.499}, {"id": 604, "video": false, "vote_count": 6338, "vote_average": 6.9, "title": "The Matrix Reloaded", "release_date": "2003-05-15", "original_language": "en", "original_title": "The Matrix Reloaded", "genre_ids": [28, 12, 878, 53], "backdrop_path": "/Fp3piEuHXxKnPBO5R0Wj4wjZHg.jpg", "adult": false, "overview": "Six months after the events depicted in The Matrix, Neo has proved to be a good omen for the free humans, as more and more humans are being freed from the matrix and brought to Zion, the one and only stronghold of the Resistance.  Neo himself has discovered his superpowers including super speed, ability to see the codes of the things inside the matrix and a certain degree of pre-cognition. But a nasty piece of news hits the human resistance: 250,000 machine sentinels are digging to Zion and would reach them in 72 hours. As Zion prepares for the ultimate war, Neo, Morpheus and Trinity are advised by the Oracle to find the Keymaker who would help them reach the Source.  Meanwhile Neo's recurrent dreams depicting Trinity's death have got him worried and as if it was not enough, Agent Smith has somehow escaped deletion, has become more powerful than before and has fixed Neo as his next target.", "poster_path": "/ezIurBz2fdUc68d98Fp9dRf5ihv.jpg", "popularity": 32.554}, {"id": 605, "video": false, "vote_count": 5694, "vote_average": 6.6, "title": "The Matrix Revolutions", "release_date": "2003-11-03", "original_language": "en", "original_title": "The Matrix Revolutions", "genre_ids": [28, 12, 878, 53], "backdrop_path": "/pdVHUsb2eEz9ALNTr6wfRJe5xVa.jpg", "adult": false, "overview": "The human city of Zion defends itself against the massive invasion of the machines as Neo fights to end the war at another front while also opposing the rogue Agent Smith.", "poster_path": "/sKogjhfs5q3azmpW7DFKKAeLEG8.jpg", "popularity": 26.149}, {"id": 500664, "video": false, "vote_count": 1707, "vote_average": 7.3, "title": "Upgrade", "release_date": "2018-06-01", "original_language": "en", "original_title": "Upgrade", "genre_ids": [28, 27, 878, 53], "backdrop_path": "/qUAGip3XiaVN668WXF2iyukWgUu.jpg", "adult": false, "overview": "A brutal mugging leaves Grey Trace paralyzed in the hospital and his beloved wife dead. A billionaire inventor soon offers Trace a cure \u2014 an artificial intelligence implant called STEM that will enhance his body. Now able to walk, Grey finds that he also has superhuman strength and agility \u2014 skills he uses to seek revenge against the thugs who destroyed his life.", "poster_path": "/8fDtXi6gVw8WUMWGT9XFz7YwkuE.jpg", "popularity": 23.257}, {"adult": false, "backdrop_path": "/3N0XNfknTOpGwYadltyDSszCZmZ.jpg", "genre_ids": [28, 878], "id": 2048, "original_language": "en", "original_title": "I, Robot", "overview": "In 2035, where robots are common-place and abide by the three laws of robotics, a techno-phobic cop investigates an apparent suicide. Suspecting that a robot may be responsible for the death, his investigation leads him to believe that humanity may be in danger.", "poster_path": "/2mkFzf168xJrV6Leqq0bjqOlJCK.jpg", "release_date": "2004-07-15", "title": "I, Robot", "video": false, "vote_average": 6.9, "vote_count": 7603, "popularity": 38.609}, {"id": 9323, "video": false, "vote_count": 1641, "vote_average": 7.9, "title": "Ghost in the Shell", "release_date": "1995-11-18", "original_language": "ja", "original_title": "GHOST IN THE SHELL", "genre_ids": [28, 16, 878], "backdrop_path": "/m1LUdsYnFThcrbvRzlpbsFioEQT.jpg", "adult": false, "overview": "In the year 2029, the barriers of our world have been broken down by the net and by cybernetics, but this brings new vulnerability to humans in the form of brain-hacking. When a highly-wanted hacker known as 'The Puppetmaster' begins involving them in politics, Section 9, a group of cybernetically enhanced cops, are called in to investigate and stop the Puppetmaster.", "poster_path": "/9gC88zYUBARRSThcG93MvW14sqx.jpg", "popularity": 18.602}, {"adult": false, "backdrop_path": "/8QXGNP0Vb4nsYKub59XpAhiUSQN.jpg", "genre_ids": [878, 18], "id": 335984, "original_language": "en", "original_title": "Blade Runner 2049", "overview": "Thirty years after the events of the first film, a new blade runner, LAPD Officer K, unearths a long-buried secret that has the potential to plunge what's left of society into chaos. K's discovery leads him on a quest to find Rick Deckard, a former LAPD blade runner who has been missing for 30 years.", "poster_path": "/gajva2L0rPYkEWjzgFlBXCAVBE5.jpg", "release_date": "2017-10-04", "title": "Blade Runner 2049", "video": false, "vote_average": 7.4, "vote_count": 7576, "popularity": 49.76}, {"id": 198184, "video": false, "vote_count": 5350, "vote_average": 6.7, "title": "Chappie", "release_date": "2015-03-04", "original_language": "en", "original_title": "Chappie", "genre_ids": [28, 80, 878], "backdrop_path": "/y5lG7TBpeOMG0jxAaTK0ghZSzBJ.jpg", "adult": false, "overview": "Every child comes into the world full of promise, and none more so than Chappie: he is gifted, special, a prodigy. Like any child, Chappie will come under the influence of his surroundings\u2014some good, some bad\u2014and he will rely on his heart and soul to find his way in the world and become his own man. But there's one thing that makes Chappie different from any one else: he is a robot.", "poster_path": "/saF3HtAduvrP9ytXDxSnQJP3oqx.jpg", "popularity": 28.111}, {"id": 603, "video": false, "vote_count": 15887, "vote_average": 8.1, "title": "The Matrix", "release_date": "1999-03-30", "original_language": "en", "original_title": "The Matrix", "genre_ids": [28, 878], "backdrop_path": "/icmmSD4vTTDKOq2vvdulafOGw93.jpg", "adult": false, "overview": "Set in the 22nd century, The Matrix tells the story of a computer hacker who joins a group of underground insurgents fighting the vast and powerful computers who now rule the earth.", "poster_path": "/gynBNzwyaHKtXqlEKKLioNkjKgN.jpg", "popularity": 40.299}, {"id": 534, "video": false, "vote_count": 4112, "vote_average": 6.0, "title": "Terminator Salvation", "release_date": "2009-05-20", "original_language": "en", "original_title": "Terminator Salvation", "genre_ids": [28, 878, 53], "backdrop_path": "/mglXOOyXISvuIdLgvhU9oXn1Mi7.jpg", "adult": false, "overview": "All grown up in post-apocalyptic 2018, John Connor must lead the resistance of humans against the increasingly dominating militaristic robots. But when Marcus Wright appears, his existence confuses the mission as Connor tries to determine whether Wright has come from the future or the past -- and whether he's friend or foe.", "poster_path": "/gw6JhlekZgtKUFlDTezq3j5JEPK.jpg", "popularity": 34.351}, {"id": 157336, "video": false, "vote_count": 20600, "vote_average": 8.3, "title": "Interstellar", "release_date": "2014-11-05", "original_language": "en", "original_title": "Interstellar", "genre_ids": [12, 18, 878], "backdrop_path": "/xu9zaAevzQ5nnrsXN6JcahLnG4i.jpg", "adult": false, "overview": "Interstellar chronicles the adventures of a group of explorers who make use of a newly discovered wormhole to surpass the limitations on human space travel and conquer the vast distances involved in an interstellar voyage.", "poster_path": "/nBNZadXqJSdt05SHLqgT0HuC5Gm.jpg", "popularity": 66.028}, {"adult": false, "backdrop_path": "/g6WT9zxATzTy9NVu2xwbxDAxvjd.jpg", "genre_ids": [28, 12, 878], "id": 157350, "original_language": "en", "original_title": "Divergent", "overview": "In a world divided into factions based on personality types, Tris learns that she's been classified as Divergent and won't fit in. When she discovers a plot to destroy Divergents, Tris and the mysterious Four must find out what makes Divergents dangerous before it's too late.", "poster_path": "/yTtx2ciqk4XdN1oKhMMDy3f5ue3.jpg", "release_date": "2014-03-14", "title": "Divergent", "video": false, "vote_average": 6.9, "vote_count": 8979, "popularity": 25.41}, {"id": 198663, "video": false, "vote_count": 11444, "vote_average": 7.1, "title": "The Maze Runner", "release_date": "2014-09-10", "original_language": "en", "original_title": "The Maze Runner", "genre_ids": [28, 9648, 878, 53], "backdrop_path": "/lkOZcsXcOLZYeJ2YxJd3vSldvU4.jpg", "adult": false, "overview": "Set in a post-apocalyptic world, young Thomas is deposited in a community of boys after his memory is erased, soon learning they're all trapped in a maze that will require him to join forces with fellow \u201crunners\u201d for a shot at escape.", "poster_path": "/coss7RgL0NH6g4fC2s5atvf3dFO.jpg", "popularity": 51.629}, {"id": 78, "video": false, "vote_count": 8361, "vote_average": 7.9, "title": "Blade Runner", "release_date": "1982-06-25", "original_language": "en", "original_title": "Blade Runner", "genre_ids": [18, 878, 53], "backdrop_path": "/eIi3klFf7mp3oL5EEF4mLIDs26r.jpg", "adult": false, "overview": "In the smog-choked dystopian Los Angeles of 2019, blade runner Rick Deckard is called out of retirement to terminate a quartet of replicants who have escaped to Earth seeking their creator for a way to extend their short life spans.", "poster_path": "/vfzE3pjE5G7G7kcZWrA3fnbZo7V.jpg", "popularity": 34.149}, {"id": 861, "video": false, "vote_count": 3195, "vote_average": 7.2, "title": "Total Recall", "release_date": "1990-06-01", "original_language": "en", "original_title": "Total Recall", "genre_ids": [28, 12, 878], "backdrop_path": "/qoYaqN9XXrdjKcviJeWVQNcotfK.jpg", "adult": false, "overview": "Construction worker Douglas Quaid discovers a memory chip in his brain during a virtual-reality trip. He also finds that his past has been invented to conceal a plot of planetary domination. Soon, he's off to Mars to find out who he is and who planted the chip.", "poster_path": "/ikYpJ0AjGBNnAYFnPJDUVIOcduR.jpg", "popularity": 33.12}, {"id": 12244, "video": false, "vote_count": 2155, "vote_average": 6.7, "title": "9", "release_date": "2009-08-19", "original_language": "en", "original_title": "9", "genre_ids": [28, 12, 16, 878, 53], "backdrop_path": "/jTki4a30PUskfGtOFx6PgYr74H7.jpg", "adult": false, "overview": "When 9 first comes to life, he finds himself in a post-apocalyptic world. All humans are gone, and it is only by chance that he discovers a small community of others like him taking refuge from fearsome machines that roam the earth intent on their extinction. Despite being the neophyte of the group, 9 convinces the others that hiding will do them no good.", "poster_path": "/iGMOQt6R88ZuJRtlfpqWRa5268h.jpg", "popularity": 22.507}, {"adult": false, "backdrop_path": "/mSZADd1N0wWkkNJmwcpYAq93bke.jpg", "genre_ids": [878], "id": 9482, "original_language": "en", "original_title": "Judge Dredd", "overview": "In a dystopian future, Dredd, the most famous judge (a cop with instant field judiciary powers) is convicted for a crime he did not commit while his murderous counterpart escapes.", "poster_path": "/r17S4XlQ3Jq5U1KRovFUwU8P4aG.jpg", "release_date": "1995-06-30", "title": "Judge Dredd", "video": false, "vote_average": 5.6, "vote_count": 1316, "popularity": 25.238}, {"id": 87101, "video": false, "vote_count": 5753, "vote_average": 5.9, "title": "Terminator Genisys", "release_date": "2015-06-23", "original_language": "en", "original_title": "Terminator Genisys", "genre_ids": [28, 12, 878, 53], "backdrop_path": "/3DmxSJ08m9wwbxwbwHzA4dunGNO.jpg", "adult": false, "overview": "The year is 2029. John Connor, leader of the resistance continues the war against the machines. At the Los Angeles offensive, John's fears of the unknown future begin to emerge when TECOM spies reveal a new plot by SkyNet that will attack him from both fronts; past and future, and will ultimately change warfare forever.", "poster_path": "/5JU9ytZJyR3zmClGmVm9q4Geqbd.jpg", "popularity": 67.413}, {"id": 19, "video": false, "vote_count": 1340, "vote_average": 8.2, "title": "Metropolis", "release_date": "1927-01-10", "original_language": "de", "original_title": "Metropolis", "genre_ids": [18, 878], "backdrop_path": "/gmH0N0bdlYGN1EUr8U2cMQYyg78.jpg", "adult": false, "overview": "In a futuristic city sharply divided between the working class and the city planners, the son of the city's mastermind falls in love with a working class prophet who predicts the coming of a savior to mediate their differences.", "poster_path": "/qriaeUUwdmlgethK3aSAx68mG05.jpg", "popularity": 20.574}, {"id": 131631, "video": false, "vote_count": 10881, "vote_average": 6.8, "title": "The Hunger Games: Mockingjay - Part 1", "release_date": "2014-11-18", "original_language": "en", "original_title": "The Hunger Games: Mockingjay - Part 1", "genre_ids": [12, 878, 53], "backdrop_path": "/4PwyB0ErucIANzW24Kori71J6gU.jpg", "adult": false, "overview": "Katniss Everdeen reluctantly becomes the symbol of a mass rebellion against the autocratic Capitol.", "poster_path": "/gj282Pniaa78ZJfbaixyLXnXEDI.jpg", "popularity": 47.043}], "total_pages": 56, "total_results": 1119}, "recommendations": {"page": 1, "results": [{"adult": false, "backdrop_path": "/obsJ0hix3eVf5xukxDId33zdfHv.jpg", "genre_ids": [35, 27, 53], "id": 41027, "original_language": "en", "original_title": "House of Mystery", "overview": "Out of the Mystic Temples of Old India crept this terrible Monster ... to wreak vengeance of the Hindu Gods ... One by one its victims fell with not a trace of the bloody assassin.", "poster_path": "/rf3geqAhCfKA2Qbuh21COHaKcit.jpg", "release_date": "1934-03-30", "title": "House of Mystery", "video": false, "vote_average": 5.4, "vote_count": 5, "popularity": 1.571}, {"id": 294825, "video": false, "vote_count": 6, "vote_average": 3.3, "title": "Rumors of Wars", "release_date": "2014-05-02", "original_language": "en", "original_title": "Rumors of Wars", "genre_ids": [53], "backdrop_path": "/eptGwX3St48mu52Vunmbl8i9qFx.jpg", "adult": false, "overview": "A suspenseful, genre-bending film with two converging storylines. An aspiring college journalist records events in a diary about the turmoil of a society due to the insertion of a RFID chip mandated by the government. ? Years later in the rubble of a post apocalyptic society filled with decay and violence, the diary finds its way into to the hands of an officer in the New World Army who uncovers the truth about the past and discovers everything he stood for was a lie. But what will he do now?", "poster_path": "/h9RE887bPyYdprlM6hNprA441tX.jpg", "popularity": 4.193}, {"adult": false, "backdrop_path": "/cF4TEhfzayO6UVXTXAe0wpjZzmg.jpg", "genre_ids": [27, 878], "id": 28775, "original_language": "en", "original_title": "The Neanderthal Man", "overview": "A scientist develops a formula which will cause animals to regress to the form of their primitive ancestors, and tries it on himself with disastrous results.", "poster_path": "/xgSfeopJooq5jBe2Ax0h4pdNZsm.jpg", "release_date": "1953-06-19", "title": "The Neanderthal Man", "video": false, "vote_average": 4.0, "vote_count": 8, "popularity": 3.865}, {"adult": false, "backdrop_path": "/7zEROj4ZlAa2ZZd9K5u6i88HJHT.jpg", "genre_ids": [878, 53], "id": 31984, "original_language": "en", "original_title": "Satellite in the Sky", "overview": "A bomb dooms the first space satellite, manned by a selfless crew, a stowaway reporter (Lois Maxwell) and a mad scientist (Donald Wolfit).", "poster_path": "/6HboZy3tqDVURS42vl9Uvl2nfv5.jpg", "release_date": "1956-07-21", "title": "Satellite in the Sky", "video": false, "vote_average": 5.4, "vote_count": 8, "popularity": 5.874}, {"adult": false, "backdrop_path": "/y580GhE7XEKRYgl3eOzN2Z5nf9m.jpg", "genre_ids": [27, 9648], "id": 86191, "original_language": "en", "original_title": "The Four Skulls of Jonathan Drake", "overview": "Jonathan Drake, while attending his brother's funeral, is shocked to find the head of the deceased is missing. When his brother's skull shows up later in a locked cabinet, Drake realizes an ancient curse placed upon his grandfather by a tribe of South American Jivaro Indians is still in effect and that he himself is the probable next victim.", "poster_path": "/2KMAU4a7tvV7FV29HdJAYNUushy.jpg", "release_date": "1959-11-13", "title": "The Four Skulls of Jonathan Drake", "video": false, "vote_average": 5.7, "vote_count": 8, "popularity": 3.062}, {"adult": false, "backdrop_path": "/yGozSzd86GpbinLzOSY0yFCZiiV.jpg", "genre_ids": [53, 18], "id": 188839, "original_language": "en", "original_title": "Aftermath", "overview": "Searching for a happy ending to a tale of unimaginable disaster and horror, nine strangers find themselves holed up together in a farmhouse cellar in rural Texas. The United States has hastily become embroiled in World War 3. A young doctor named Hunter survives the nuclear attack and is thrown together by happenstance with a group of wounded and frightened victims, including Elizabeth, a strong-willed confidant to Hunter, Brad - an antagonistic redneck jackass, and Jennifer, a barely coherent young woman suffering from severe post-traumatic stress. Together, they attempt to endure the devastating holocaust as they struggle with claustrophobia and conflicting personalities. In a makeshift shelter, Hunter and his dying companions wait for news from the government while fending off hunger, radiation sickness, and a horde of frightened and dying refugees", "poster_path": "/l5tbpWBukrVjRBxLYvHMNbJHYYC.jpg", "release_date": "2012-08-24", "title": "Aftermath", "video": false, "vote_average": 4.6, "vote_count": 29, "popularity": 4.961}], "total_pages": 1, "total_results": 6}, "credits": {"cast": [{"cast_id": 3, "character": "Michael", "credit_id": "52fe4767c3a36847f8133c4b", "gender": 2, "id": 99754, "name": "William Phipps", "order": 0, "profile_path": "/hqN5f8MxRYfFLRA3hZfF2HVTHZa.jpg"}, {"cast_id": 4, "character": "Roseanne Rogers", "credit_id": "52fe4767c3a36847f8133c4f", "gender": 1, "id": 140583, "name": "Susan Douglas", "order": 1, "profile_path": null}, {"cast_id": 5, "character": "Eric", "credit_id": "52fe4767c3a36847f8133c53", "gender": 2, "id": 8498, "name": "James Anderson", "order": 2, "profile_path": "/fofHnyW8xzDYDxY94Yx0S358d0L.jpg"}, {"cast_id": 7, "character": "Mr. Barnstaple", "credit_id": "52fe4767c3a36847f8133c5b", "gender": 2, "id": 140585, "name": "Earl Lee", "order": 4, "profile_path": null}, {"cast_id": 8, "character": "Charles", "credit_id": "5aebfb869251417f18003b26", "gender": 2, "id": 140584, "name": "Charles Lampkin", "order": 5, "profile_path": null}], "crew": [{"credit_id": "52fe4767c3a36847f8133c41", "department": "Directing", "gender": 2, "id": 103360, "job": "Director", "name": "Arch Oboler", "profile_path": "/yz9c1dcjQDVbfx7UxRgtHfQhwxJ.jpg"}, {"credit_id": "52fe4767c3a36847f8133c47", "department": "Writing", "gender": 2, "id": 103360, "job": "Writer", "name": "Arch Oboler", "profile_path": "/yz9c1dcjQDVbfx7UxRgtHfQhwxJ.jpg"}, {"credit_id": "5cb333029251412fa827964a", "department": "Editing", "gender": 2, "id": 103345, "job": "Editor", "name": "John Hoffman", "profile_path": null}]}}