{"adult": false, "backdrop_path": "/toTfiaJqTn3sJENPEkAeRCLMpIa.jpg", "belongs_to_collection": null, "budget": 0, "genres": [{"id": 27, "name": "Horror"}, {"id": 53, "name": "Thriller"}, {"id": 10749, "name": "Romance"}], "homepage": null, "id": 486011, "imdb_id": "tt7441032", "original_language": "en", "original_title": "Like.Share.Follow.", "overview": "Garrett is a rising YouTube star. Shell is a deeply emotional fan. When they begin a romantic relationship, he's forced to question whether opening your life to strangers online is an invitation to community and rescue... or to stalking, obsession and madness.", "popularity": 8.43, "poster_path": "/eKNTz46POFW5tDh74oLj0lLkxaM.jpg", "production_companies": [{"id": 3172, "logo_path": "/kDedjRZwO8uyFhuHamomOhN6fzG.png", "name": "Blumhouse Productions", "origin_country": "US"}, {"id": 99208, "logo_path": null, "name": "Studio Unknown", "origin_country": ""}, {"id": 89115, "logo_path": "/zQwTHJVIruUlGsa7zIdfXuSm9GG.png", "name": "Divide / Conquer", "origin_country": "US"}, {"id": 114062, "logo_path": null, "name": "Seer Capital", "origin_country": ""}, {"id": 96654, "logo_path": "/r76unvd8wmHNKhII3HjcxRxiCW5.png", "name": "Gunpowder & Sky", "origin_country": "US"}], "production_countries": [{"iso_3166_1": "US", "name": "United States of America"}], "release_date": "2017-10-31", "revenue": 0, "runtime": 97, "spoken_languages": [{"iso_639_1": "en", "name": "English"}], "status": "Released", "tagline": "", "title": "Like.Share.Follow.", "video": false, "vote_average": 5.3, "vote_count": 76, "keywords": {"keywords": [{"id": 3177, "name": "fan"}, {"id": 14534, "name": "relationship"}, {"id": 211445, "name": "youtuber"}]}, "similar": {"page": 1, "results": [{"id": 38, "video": false, "vote_count": 8445, "vote_average": 8.1, "title": "Eternal Sunshine of the Spotless Mind", "release_date": "2004-03-19", "original_language": "en", "original_title": "Eternal Sunshine of the Spotless Mind", "genre_ids": [18, 878, 10749], "backdrop_path": "/1dXTsaFxHoF9cas08UjAqE8NqOW.jpg", "adult": false, "overview": "Joel Barish, heartbroken that his girlfriend underwent a procedure to erase him from her memory, decides to do the same. However, as he watches his memories of her fade away, he realises that he still loves her, and may be too late to correct his mistake.", "poster_path": "/7y3eYvTsGjxPYDtSnumCLIMDkrV.jpg", "popularity": 22.427}, {"adult": false, "backdrop_path": "/zXsskYrKF8QSivBykfMp48AdtuM.jpg", "genre_ids": [18, 10749], "id": 10641, "original_language": "en", "original_title": "Autumn in New York", "overview": "Autumn in New York follows the sexual exploits of Will Keane - New York restaurateur, infamous verging-on-50 playboy, master of the no-commitment seduction - until he runs into an unexpected dead end when he meets Charlotte Fielding. Charlotte is half Will's age and twice his match, a 21 year-old free spirit yearning to get out and taste the excitement of adult life.", "poster_path": "/tQ5ze794HtDjxTxYVxHRn7AzbSL.jpg", "release_date": "2000-08-11", "title": "Autumn in New York", "video": false, "vote_average": 6.0, "vote_count": 364, "popularity": 11.137}, {"adult": false, "backdrop_path": "/Lnjz6blDcd8rm7AwsGCa3SicDn.jpg", "genre_ids": [18, 10749], "id": 261470, "original_language": "es", "original_title": "Perdona si te llamo amor", "overview": "A successful, attractive, intelligent and brilliant advertising executive is longing to finally find emotional stability in his life, and decides to propose to his girlfriend. After she refuses his proposal, his life takes a turn when a new young lady enters his life.", "poster_path": "/bI2MNBCiK1xcuDRf4A2RvMAwSZ5.jpg", "release_date": "2014-06-20", "title": "Sorry If I Call You Love", "video": false, "vote_average": 6.8, "vote_count": 164, "popularity": 11.433}, {"id": 1903, "video": false, "vote_count": 2237, "vote_average": 6.8, "title": "Vanilla Sky", "release_date": "2001-12-10", "original_language": "en", "original_title": "Vanilla Sky", "genre_ids": [18, 14, 878, 53, 10749], "backdrop_path": "/6XwX3HzKhlBUbTy2qZx0THQOu2T.jpg", "adult": false, "overview": "David Aames has it all: wealth, good looks and gorgeous women on his arm. But just as he begins falling for the warmhearted Sofia, his face is horribly disfigured in a car accident. That's just the beginning of his troubles as the lines between illusion and reality, between life and death, are blurred.", "poster_path": "/ujMy9P4VczTW9YSpAM31uqdOMpz.jpg", "popularity": 16.046}, {"adult": false, "backdrop_path": "/qmERQjNTQ8HhBi5dxwv8BNzrOX.jpg", "genre_ids": [18, 10749], "id": 38684, "original_language": "en", "original_title": "Jane Eyre", "overview": "After a bleak childhood, Jane Eyre goes out into the world to become a governess. As she lives happily in her new position at Thornfield Hall, she meet the dark, cold, and abrupt master of the house, Mr. Rochester. Jane and her employer grow close in friendship and she soon finds herself falling in love with him. Happiness seems to have found Jane at last, but could Mr. Rochester's terrible secret be about to destroy it forever?", "poster_path": "/oC7wvdrBA0RgbXaJZwcxsl1zKBR.jpg", "release_date": "2011-03-11", "title": "Jane Eyre", "video": false, "vote_average": 7.1, "vote_count": 855, "popularity": 10.868}, {"id": 12531, "video": false, "vote_count": 91, "vote_average": 6.9, "title": "The Apartment", "release_date": "1996-07-27", "original_language": "fr", "original_title": "L'Appartement", "genre_ids": [18, 9648, 10749], "backdrop_path": "/64qyT8m4JQ6YODvXxtbHgKmXBX7.jpg", "adult": false, "overview": "A stylish suspense thriller that confounds the audience while presenting them with an extraordinary and elusive mystery. Max is a former playboy who has decided to settle down by marrying his current love, Muriel. However, during a business trip, Max catches a glimpse of the great lost love of his life, reviving his wanderlust and sending him off on a chase of the elusive Lisa, whom he had overheard suggesting to a friend that her lover, Daniel, had killed someone for her. Soon, Max is trying to unravel the mystery behind the suspicious death of Daniel's wife, which he hopes will lead him closer to Lisa.", "poster_path": "/1sqrQdQTn8jKLhUcPKfRVj639zA.jpg", "popularity": 19.17}, {"id": 521, "video": false, "vote_count": 1257, "vote_average": 8.0, "title": "Dial M for Murder", "release_date": "1954-05-29", "original_language": "en", "original_title": "Dial M for Murder", "genre_ids": [80, 18, 9648, 53], "backdrop_path": "/jVMlfESb0TJ29w8CUDDofEprMmn.jpg", "adult": false, "overview": "An ex-tennis pro carries out a plot to have his wife murdered after discovering she is having an affair, and assumes she will soon leave him for the other man anyway. When things go wrong, he improvises a new plan\u2014to frame her for murder instead.", "poster_path": "/xrpK1PyckNWmRxU4kZURfaCyboS.jpg", "popularity": 28.336}, {"id": 537915, "video": false, "vote_count": 2376, "vote_average": 6.0, "title": "After", "release_date": "2019-04-11", "original_language": "en", "original_title": "After", "genre_ids": [18, 10749], "backdrop_path": "/997ToEZvF2Obp9zNZbY5ELVnmrW.jpg", "adult": false, "overview": "Tessa Young is a dedicated student, dutiful daughter and loyal girlfriend to her high school sweetheart. Entering her first semester of college, Tessa's guarded world opens up when she meets Hardin Scott, a mysterious and brooding rebel who makes her question all she thought she knew about herself -- and what she wants out of life.", "poster_path": "/u3B2YKUjWABcxXZ6Nm9h10hLUbh.jpg", "popularity": 25.23}, {"adult": false, "backdrop_path": "/74Jh5SIWnKDwtusPfDP51EeCFHt.jpg", "genre_ids": [35, 10749], "id": 9576, "original_language": "en", "original_title": "Tootsie", "overview": "When struggling, out of work actor Michael Dorsey secretly adopts a female alter ego - Dorothy Michaels - in order to land a part in a daytime drama, he unwittingly becomes a feminist icon and ends up in a romantic pickle.", "poster_path": "/ngyCzZwb9y5sMUCig5JQT4Y33Q.jpg", "release_date": "1982-12-16", "title": "Tootsie", "video": false, "vote_average": 7.2, "vote_count": 915, "popularity": 9.882}, {"id": 293863, "video": false, "vote_count": 4195, "vote_average": 7.4, "title": "The Age of Adaline", "release_date": "2015-04-16", "original_language": "en", "original_title": "The Age of Adaline", "genre_ids": [18, 14, 10749], "backdrop_path": "/dgOosqHUPTrs9hDijYTnBNHYYib.jpg", "adult": false, "overview": "After 29-year-old Adaline recovers from a nearly lethal accident, she inexplicably stops growing older. As the years stretch on and on, Adaline keeps her secret to herself  until she meets a man who changes her life.", "poster_path": "/gEDGROZ4NQDlRjUPPSSyIf0hKvD.jpg", "popularity": 18.342}, {"adult": false, "backdrop_path": "/bQW1TnxHlmkWof0vsALj4HBkoxj.jpg", "genre_ids": [18, 10749], "id": 51828, "original_language": "en", "original_title": "One Day", "overview": "A romantic comedy centered on Dexter and Emma, who first meet during their graduation in 1988 and proceed to keep in touch regularly. The film follows what they do on July 15 annually, usually doing something together.", "poster_path": "/xzOz17yC3K6SZWtWylXimcHUqpD.jpg", "release_date": "2011-03-02", "title": "One Day", "video": false, "vote_average": 7.2, "vote_count": 2343, "popularity": 16.744}, {"id": 49530, "video": false, "vote_count": 6907, "vote_average": 6.9, "title": "In Time", "release_date": "2011-10-27", "original_language": "en", "original_title": "In Time", "genre_ids": [28, 878, 53], "backdrop_path": "/cnGPiAd7D50YFcpt6HK7CwTUCew.jpg", "adult": false, "overview": "In the not-too-distant future the aging gene has been switched off. To avoid overpopulation, time has become the currency and the way people pay for luxuries and necessities. The rich can live forever, while the rest try to negotiate for their immortality. A poor young man who comes into a fortune of time, though too late to help his mother from dying. He ends up on the run from a corrupt police force known as 'time keepers'.", "poster_path": "/lnYuAr3QOPzvuEFlzpsRUq41IEy.jpg", "popularity": 24.14}, {"adult": false, "backdrop_path": "/xC9cG6Wy6QbH2hoAx11xPPD995R.jpg", "genre_ids": [18, 10749], "id": 86331, "original_language": "fr", "original_title": "Q", "overview": "In a social context deteriorated by a countrywide economic crisis, the life of several people will be turned upside down after they meet Cecile, a character who symbolizes desire.", "poster_path": "/9Jg9s4yTEndNmy1SSXRF9jdxY9D.jpg", "release_date": "2011-09-14", "title": "Desire", "video": false, "vote_average": 4.6, "vote_count": 204, "popularity": 25.756}, {"id": 272693, "video": false, "vote_count": 3249, "vote_average": 6.8, "title": "The DUFF", "release_date": "2015-02-20", "original_language": "en", "original_title": "The DUFF", "genre_ids": [35, 10749], "backdrop_path": "/awGZf5T1hflis9Z2KvRMhp798xU.jpg", "adult": false, "overview": "Bianca's universe turns upside down when she learns that her high school refers to her as a \u2018DUFF' (Designated Ugly Fat Friend). Hoping to erase that label, she enlists the help of a charming jock and her favorite teacher. Together they'll face the school's mean girl and remind everyone that we are all someone's DUFF\u2026 and that's totally fine.", "poster_path": "/dBBgPTCN5Zze4POXWVVpwf3wkra.jpg", "popularity": 17.232}, {"id": 369885, "video": false, "vote_count": 3048, "vote_average": 6.7, "title": "Allied", "release_date": "2016-11-17", "original_language": "en", "original_title": "Allied", "genre_ids": [28, 18, 53, 10749, 10752], "backdrop_path": "/tC0tVH5KQhCwMlddnyA3iWOSuBA.jpg", "adult": false, "overview": "In 1942, an intelligence officer in North Africa encounters a female French Resistance fighter on a deadly mission behind enemy lines. When they reunite in London, their relationship is tested by the pressures of war.", "poster_path": "/nzXzLFTnd0Zb3ExfhOxlQgizgSu.jpg", "popularity": 29.818}, {"id": 50646, "video": false, "vote_count": 5060, "vote_average": 7.2, "title": "Crazy, Stupid, Love.", "release_date": "2011-07-29", "original_language": "en", "original_title": "Crazy, Stupid, Love.", "genre_ids": [35, 18, 10749], "backdrop_path": "/6ECnUXleS9G2O02f1b5tvZiVn3D.jpg", "adult": false, "overview": "Cal Weaver is living the American dream. He has a good job, a beautiful house, great children and a beautiful wife, named Emily. Cal's seemingly perfect life unravels, however, when he learns that Emily has been unfaithful and wants a divorce. Over 40 and suddenly single, Cal is adrift in the fickle world of dating. Enter, Jacob Palmer, a self-styled player who takes Cal under his wing and teaches him how to be a hit with the ladies.", "poster_path": "/n97V1WcpoJ8gBA0pM48Om05o2fN.jpg", "popularity": 22.649}, {"id": 10184, "video": false, "vote_count": 2199, "vote_average": 6.4, "title": "He's Just Not That Into You", "release_date": "2009-02-06", "original_language": "en", "original_title": "He's Just Not That Into You", "genre_ids": [35, 18, 10749], "backdrop_path": "/lyltBzgnMcWo13FTc1RyU8Xl1Zk.jpg", "adult": false, "overview": "Remember that really cute girl/guy who said they'd call \u2013 and didn't? Maybe they lost your number. Maybe they're in the hospital. Maybe they're awed by your looks, brains or success. Or maybe... They're just not that into you.", "poster_path": "/ruc33YnCrmCL8PHdPQVzfa4shWX.jpg", "popularity": 13.643}, {"id": 641366, "video": false, "vote_count": 0, "vote_average": 0.0, "title": "El hombre Perfecto", "release_date": "2019-12-22", "original_language": "es", "original_title": "El hombre Perfecto", "genre_ids": [27, 53], "backdrop_path": "/q7qvb2IGvFvA86QPin04D4zh8Wv.jpg", "adult": false, "overview": "", "poster_path": "/5ypbGdZrUUwYVpnBR1gFJ8JCO4h.jpg", "popularity": 1.107}, {"adult": false, "backdrop_path": "/gZeJziVigmRqbkEZwKAtSqlLQ6s.jpg", "genre_ids": [18, 10749], "id": 370663, "original_language": "en", "original_title": "Below Her Mouth", "overview": "An unexpected affair quickly escalates into a heart-stopping reality for two women whose passionate connection changes their lives forever.", "poster_path": "/nTGbq37hYLuNy7YgMg0gVLma0NS.jpg", "release_date": "2016-09-10", "title": "Below Her Mouth", "video": false, "vote_average": 6.2, "vote_count": 456, "popularity": 18.664}, {"id": 449176, "video": false, "vote_count": 3691, "vote_average": 8.1, "title": "Love, Simon", "release_date": "2018-02-16", "original_language": "en", "original_title": "Love, Simon", "genre_ids": [35, 18, 10749], "backdrop_path": "/rqMEeajyzSF4PpJtdCB816Iz8Vr.jpg", "adult": false, "overview": "Everyone deserves a great love story. But for seventeen-year old Simon Spier it's a little more complicated: he's yet to tell his family or friends he's gay and he doesn't know the identity of the anonymous classmate he's fallen for online.", "poster_path": "/5YUYg5q7QfC4IoNwNUtiwdiYKPr.jpg", "popularity": 17.201}], "total_pages": 114, "total_results": 2274}, "recommendations": {"page": 1, "results": [{"id": 21119, "video": false, "vote_count": 9, "vote_average": 6.1, "title": "The Last Days of Frankie the Fly", "release_date": "1996-10-24", "original_language": "en", "original_title": "The Last Days of Frankie the Fly", "genre_ids": [80], "backdrop_path": "/1ywgtuaaFULvgZ456Sdyt7bcYW1.jpg", "adult": false, "overview": "Dreaming of ascending the underworld ladder and gaining revenge on his sadistic boss, Sal, a Mafia flunky, Frankie, tries to take a step in the right direction by \"saving\" an exploited, drug-addicted porn actress, Margaret.", "poster_path": "/jWni4RT94XL5zmZcpcoKoeVU23z.jpg", "popularity": 5.554}, {"adult": false, "backdrop_path": null, "genre_ids": [27], "id": 24928, "original_language": "en", "original_title": "Nutbag", "overview": "A serial killer stalks prostitutes on the mean streets of Las Vegas.", "poster_path": "/lqSaRNPDDac4MUw51u34u8APTh4.jpg", "release_date": "2000-12-13", "title": "Nutbag", "video": false, "vote_average": 4.5, "vote_count": 6, "popularity": 1.669}, {"adult": false, "backdrop_path": "/88AMo7QXZxQ2Zt4BsTeUiGiQ8jh.jpg", "genre_ids": [27], "id": 483737, "original_language": "en", "original_title": "Totem", "overview": "A teen must resort to extreme measures to protect her family from a supernatural entity.", "poster_path": "/2eMZjYxEGXS6xj4hRtxBmaPPi3z.jpg", "release_date": "2017-10-31", "title": "Totem", "video": false, "vote_average": 4.8, "vote_count": 74, "popularity": 6.636}, {"adult": false, "backdrop_path": null, "genre_ids": [53, 9648, 27], "id": 85137, "original_language": "en", "original_title": "Girls School Screamers", "overview": "Seven college girls spend the weekend at an elegant estate which begins as a fun filled adventure but ends in a nightmare of gut-wrenching terror.", "poster_path": "/jK5KIQs2RcuDgF6IjXy4BUxif6W.jpg", "release_date": "1986-03-07", "title": "Girls School Screamers", "video": false, "vote_average": 3.3, "vote_count": 8, "popularity": 2.479}, {"adult": false, "backdrop_path": "/qzM70NTFbWVo58tb80IEyYao8KT.jpg", "genre_ids": [53, 27], "id": 340865, "original_language": "en", "original_title": "Provoked", "overview": "A group of amateur paranormal investigators, frustrated with the lack of any solid evidence after months of attempts, decide to provoke and taught spirits from the afterlife in a last ditch attempt for a paranormal encounter. The experiment works, but they have awakened something angry and very deadly - something that follows them home and now will not leave. The investigators must now defend their home, and their family, from the spirits who were brought into this world and are not going without taking some souls with them.", "poster_path": "/ermVjZC1R9EFosjChg1dIr8MnUp.jpg", "release_date": "2016-12-05", "title": "Provoked", "video": false, "vote_average": 4.3, "vote_count": 8, "popularity": 3.501}, {"adult": false, "backdrop_path": "/9ztxKDEEw0Xj33yzWdoxNRfsOZE.jpg", "genre_ids": [35, 14, 27], "id": 177838, "original_language": "en", "original_title": "Ooga Booga", "overview": "Revenge is served on a spear when dirty cops brutally murder DEVIN, an innocent African-American med student. Devin\u2019s soul is magically transferred into the body of an action figure named OOGA BOOGA. Armed only with his tribal weapon and the help of his old girlfriend, DONNA, Ooga Booga takes to the streets and trailer parks to find the men who stole his bright future away from him. The bodies begin to pile up as Ooga Booga slices and dices his way through crooked cops, meth heads and demented city officials in order to clear his name. Racists beware! You won\u2019t even have enough time to scream, \u201cOoga Booga!\u201d", "poster_path": "/jXfC3jVN0iOXfp3z0kv8GYetsQr.jpg", "release_date": "2013-03-12", "title": "Ooga Booga", "video": false, "vote_average": 3.3, "vote_count": 7, "popularity": 5.447}, {"id": 591459, "video": false, "vote_count": 7, "vote_average": 6.3, "title": "Pet Graveyard", "release_date": "2019-04-02", "original_language": "en", "original_title": "Pet Graveyard", "genre_ids": [27], "backdrop_path": "/yoIA8KwFLk1hwInjGYrnydsIeze.jpg", "adult": false, "overview": "A group of teens are tormented by the Grim Reaper and his pet after undergoing an experiment that allows them to revisit the dead.", "poster_path": "/yj8vYLY5yrJC8AgNsLgJc5e1IY3.jpg", "popularity": 4.866}, {"id": 463602, "video": false, "vote_count": 190, "vote_average": 5.0, "title": "Slumber", "release_date": "2017-12-01", "original_language": "en", "original_title": "Slumber", "genre_ids": [27], "backdrop_path": "/aGAWFJ9DvlDRzz8SGW1DVplB28a.jpg", "adult": false, "overview": "A sleep doctor tries to protect a family from a demon that feeds on people in their nightmares.", "poster_path": "/fYbShpy94q0kbr2wqlZ0KmpcQy7.jpg", "popularity": 12.802}, {"adult": false, "backdrop_path": null, "genre_ids": [28, 80, 18], "id": 468316, "original_language": "en", "original_title": "Road", "overview": "An elder brother who lived a life of crime but left to show his younger brother the lifestyle is not fit for anything. Years later his younger brother takes his footsteps in the life of drugs/crime, to a deal gone wrong his younger brother is murdered, his elder brother steps back into his crime ways and to find and avenge his younger brother's death.", "poster_path": "/86evGndT6v57QctAvhQknVANDXl.jpg", "release_date": "2017-08-05", "title": "Road", "video": false, "vote_average": 4.7, "vote_count": 7, "popularity": 2.593}, {"id": 463940, "video": false, "vote_count": 15, "vote_average": 6.4, "title": "Locked Up", "release_date": "2017-06-20", "original_language": "en", "original_title": "Locked Up", "genre_ids": [80, 18, 53], "backdrop_path": "/cdHLTOvEhM7S9p3I4thHt4Fdfrn.jpg", "adult": false, "overview": "When an American teenager gets bullied at her school in Southeast Asia, she fights back--and gets sent to a reform school. But the \"school\" is more like a prison, and the young teenager must fend off predatory guards and menacing gangs to survive", "poster_path": "/tzYJ9X9oVybCIVAaTOUFHVwcjXo.jpg", "popularity": 8.912}, {"id": 407531, "video": false, "vote_count": 159, "vote_average": 5.0, "title": "Bedeviled", "release_date": "2017-06-28", "original_language": "en", "original_title": "Bedeviled", "genre_ids": [27, 53], "backdrop_path": "/gnaExMrBDw9hhgb1GacWapOV3mV.jpg", "adult": false, "overview": "When a group of teenagers receive an invite to download the latest smartphone app, an intelligent personal assistant, they expect a harmless way to get directions and restaurant recommendations. But the sinister nature of the app soon reveals itself, tormenting the friends by tapping into their darkest fears.", "poster_path": "/irGn96pm2xk9Qlhig7KX3H6f1B.jpg", "popularity": 8.49}, {"id": 363111, "video": false, "vote_count": 104, "vote_average": 4.8, "title": "Wolves at the Door", "release_date": "2016-10-21", "original_language": "en", "original_title": "Wolves at the Door", "genre_ids": [27, 53], "backdrop_path": "/aKuOokr4J7sbaXpYPVUC4j90ITx.jpg", "adult": false, "overview": "Four friends gather at an elegant home during the Summer of Love, 1969. Unbeknownst to them, deadly visitors are waiting outside. What begins as a simple farewell party turns to a night of primal terror as the intruders stalk and torment the four, who struggle for their lives against what appears to be a senseless attack.", "poster_path": "/r1OWlfEq9ahXoTNAIDg5mI3zh1z.jpg", "popularity": 9.033}, {"adult": false, "backdrop_path": "/pFI3FkbQqCFJgJ5hWecOjRguNou.jpg", "genre_ids": [53, 10770], "id": 463986, "original_language": "en", "original_title": "Girl Followed", "overview": "A resentful 14-year-old girl is drawn into a seemingly innocent friendship with an older man, but the relationship turns sinister.", "poster_path": "/cPQTV5NywWpxOJJA6pA5HRRczI.jpg", "release_date": "2017-05-15", "title": "Girl Followed", "video": false, "vote_average": 4.7, "vote_count": 10, "popularity": 2.78}, {"adult": false, "backdrop_path": "/h32SpZLQzbohjPOermBtIbXdqEd.jpg", "genre_ids": [53, 27, 18], "id": 242606, "original_language": "en", "original_title": "Keep Watching", "overview": "A family imprisoned by intruders is forced to play a terrifying game of \"Kill, Or Be Killed\". As the night unfolds, the game's mysterious rules become clear, and the family realizes their nightmare is being streamed live to riveted viewers all over the world, who are compelled to KEEP WATCHING... not knowing if what they're seeing is real, or staged.", "poster_path": "/65UjzcdXlLcDzZQEidMN58BsFzg.jpg", "release_date": "2017-05-04", "title": "Keep Watching", "video": false, "vote_average": 5.0, "vote_count": 143, "popularity": 11.047}, {"id": 441762, "video": false, "vote_count": 28, "vote_average": 4.6, "title": "Accident", "release_date": "2017-12-01", "original_language": "en", "original_title": "Accident", "genre_ids": [28, 53], "backdrop_path": "/thBSuLIDjMRnLCMXfSbNb9uWWVV.jpg", "adult": false, "overview": "A group of teenagers suffer a terrible accident during a joy ride and get trapped at the bottom of a ravine.", "poster_path": "/rnIFlouo4WwcBXdtcjX5WDUyVpx.jpg", "popularity": 4.703}, {"adult": false, "backdrop_path": "/vIsKcpscdELfbBHHsfLvfTTMIc3.jpg", "genre_ids": [27], "id": 429476, "original_language": "en", "original_title": "Hell Fest", "overview": "On Halloween night at a horror theme park, a costumed killer begins slaying innocent patrons who believe that it's all part of the festivities.", "poster_path": "/99dwKr0Q6Gatq8GDcHvFoB8XLVX.jpg", "release_date": "2018-09-27", "title": "Hell Fest", "video": false, "vote_average": 5.6, "vote_count": 406, "popularity": 12.729}, {"id": 413852, "video": false, "vote_count": 25, "vote_average": 5.3, "title": "Welcome the Stranger", "release_date": "2018-03-20", "original_language": "en", "original_title": "Welcome the Stranger", "genre_ids": [18, 9648, 878, 53], "backdrop_path": "/51aiE8fEXchmbLIyX7Smm3zJavV.jpg", "adult": false, "overview": "Alice arrives unannounced at her estranged brother Ethan's house in an attempt to reconcile, but bizarre visions, the return of his strange girlfriend and Alice's paranoia and suspicion force the siblings to cling onto reality amidst mysterious circumstances.", "poster_path": "/fZch4FhfexA18gUUQjHXKnLmkjh.jpg", "popularity": 7.139}], "total_pages": 1, "total_results": 17}, "credits": {"cast": [{"cast_id": 0, "character": "Garret", "credit_id": "5a060b43c3a3682cef0034e8", "gender": 2, "id": 1251875, "name": "Keiynan Lonsdale", "order": 0, "profile_path": "/k3d3UvV69yhVyKmizayktLrUCS4.jpg"}, {"cast_id": 1, "character": "Shell", "credit_id": "5a060b4d9251415630003a4c", "gender": 1, "id": 1921268, "name": "Ema Horvath", "order": 1, "profile_path": "/fcGjptU00SMqJV40dq86qeXTuFD.jpg"}, {"cast_id": 4, "character": "Lyle", "credit_id": "5a075d2fc3a368337f00221b", "gender": 2, "id": 55097, "name": "Nate Hartley", "order": 2, "profile_path": "/dCw5LGB03eiWLsr5qKGJxlMIfnH.jpg"}, {"cast_id": 15, "character": "Kiki", "credit_id": "5bd584b5c3a36820f002c557", "gender": 0, "id": 1817021, "name": "Amy Pham", "order": 3, "profile_path": null}, {"cast_id": 5, "character": "Norman", "credit_id": "5a075d579251414c23002218", "gender": 2, "id": 66101, "name": "Michael Boatman", "order": 4, "profile_path": "/oYqntfW4eaKcccyZ20eqsKt40MM.jpg"}, {"cast_id": 9, "character": "Detective Yarden", "credit_id": "5b0a775e9251411dca00423b", "gender": 2, "id": 21132, "name": "Abraham Benrubi", "order": 5, "profile_path": "/f5o2JsFVIqi0kFbvgXVgriap9cA.jpg"}, {"cast_id": 14, "character": "Petunia4ever", "credit_id": "5bd584aa925141038902717d", "gender": 1, "id": 1182673, "name": "Remy Nozik", "order": 6, "profile_path": "/o4H70nU2pnRKwbiesJRgdWaYed4.jpg"}, {"cast_id": 19, "character": "RaveOn717", "credit_id": "5bd58519c3a368210b028108", "gender": 1, "id": 1505505, "name": "Alexis G. Zall", "order": 7, "profile_path": "/bRFhIzWyUFiUqemaVnGhwdNyDxp.jpg"}, {"cast_id": 8, "character": "carbonite", "credit_id": "5ad3f93e0e0a2628bc00a287", "gender": 2, "id": 1638123, "name": "Gabriel Conte", "order": 8, "profile_path": "/pVA5shxWSZiHEf7kjV2V4Bqjpdm.jpg"}, {"cast_id": 10, "character": "Skeezix", "credit_id": "5bd584180e0a2622c802a33b", "gender": 0, "id": 1682618, "name": "Mikey Bolts", "order": 9, "profile_path": null}, {"cast_id": 18, "character": "BruteBurger99", "credit_id": "5bd584e7c3a36820e902ee48", "gender": 0, "id": 1775159, "name": "Andrew Spieler", "order": 10, "profile_path": null}, {"cast_id": 13, "character": "Detective Reyes", "credit_id": "5bd5849dc3a3682112025761", "gender": 1, "id": 121277, "name": "Norma Maldonado", "order": 11, "profile_path": "/vu6EY6TSXofu0Xx1Mganr22T7ry.jpg"}, {"cast_id": 12, "character": "Marie", "credit_id": "5bd58487c3a36820e902ede5", "gender": 1, "id": 2047762, "name": "M\u00f3nica L\u00f3pez", "order": 12, "profile_path": "/4TZp3UapzlaHjuwCfLbNQ56XHTC.jpg"}, {"cast_id": 11, "character": "Mr. Crossbow", "credit_id": "5bd5842fc3a36821120256fc", "gender": 2, "id": 136921, "name": "Patrick Gorman", "order": 13, "profile_path": "/5cGqMcS0M3NX9jaMGf2Lfop7eLq.jpg"}, {"cast_id": 16, "character": "Desk Clerk", "credit_id": "5bd584c4c3a36820f5027996", "gender": 2, "id": 1886468, "name": "Will Pinson Rose", "order": 14, "profile_path": "/Al67XLU0mfCvzt5P6XfjoHLu5tj.jpg"}, {"cast_id": 17, "character": "Open Mic Singer", "credit_id": "5bd584d5c3a368210b028086", "gender": 0, "id": 1347374, "name": "Jessica Rotter", "order": 15, "profile_path": null}], "crew": [{"credit_id": "5a060b6f9251415680003a06", "department": "Directing", "gender": 2, "id": 48137, "job": "Director", "name": "Glenn Gers", "profile_path": null}, {"credit_id": "5a060b76c3a3682cbf00381c", "department": "Writing", "gender": 2, "id": 48137, "job": "Writer", "name": "Glenn Gers", "profile_path": null}]}}