{"adult": false, "backdrop_path": "/mca2romD7I6brKfYvjWTHpr9d7Q.jpg", "belongs_to_collection": null, "budget": 0, "genres": [{"id": 16, "name": "Animation"}, {"id": 99, "name": "Documentary"}], "homepage": null, "id": 48752, "imdb_id": "tt1506940", "original_language": "en", "original_title": "2012: Time for Change", "overview": "2012: Time For Change is a documentary feature that presents ways to transform our unsustainable society into a regenerative planetary culture. This can be achieved through a personal and global change of consciousness and the systemic implementation of ecological design.", "popularity": 5.028, "poster_path": "/kE5SAdIVTTDhefwzek81laEDaxT.jpg", "production_companies": [{"id": 3728, "logo_path": null, "name": "Mangusta Productions", "origin_country": ""}], "production_countries": [{"iso_3166_1": "CH", "name": "Switzerland"}, {"iso_3166_1": "US", "name": "United States of America"}, {"iso_3166_1": "BR", "name": "Brazil"}, {"iso_3166_1": "FR", "name": "France"}, {"iso_3166_1": "MX", "name": "Mexico"}], "release_date": "2010-10-08", "revenue": 0, "runtime": 85, "spoken_languages": [{"iso_639_1": "en", "name": "English"}], "status": "Released", "tagline": "Evolve to Solve!", "title": "2012: Time for Change", "video": false, "vote_average": 7.0, "vote_count": 2, "keywords": {"keywords": [{"id": 6707, "name": "student movie"}, {"id": 10183, "name": "independent film"}, {"id": 15216, "name": "avant-garde"}, {"id": 18256, "name": "spiritual"}, {"id": 18257, "name": "educational"}, {"id": 18330, "name": "nature"}]}, "similar": {"page": 1, "results": [{"adult": false, "backdrop_path": "/4oXV4AW6LYabqxmMZZ7gjJRP4Ej.jpg", "genre_ids": [35, 10749], "id": 1599, "original_language": "en", "original_title": "I \u2665 Huckabees", "overview": "A husband-and-wife team play detective, but not in the traditional sense. Instead, the happy duo helps others solve their existential issues, the kind that keep you up at night, wondering what it all means.", "poster_path": "/xMVGVA3MAWtBcLIsfkYLa31n241.jpg", "release_date": "2004-09-10", "title": "I \u2665 Huckabees", "video": false, "vote_average": 6.3, "vote_count": 384, "popularity": 10.235}, {"id": 24348, "video": false, "vote_count": 73, "vote_average": 7.4, "title": "Powaqqatsi", "release_date": "1988-04-29", "original_language": "en", "original_title": "Powaqqatsi", "genre_ids": [99, 10402], "backdrop_path": "/oqPfS4fvNWk0Cb2ZxmH3LJ8RnWH.jpg", "adult": false, "overview": "An exploration of technologically developing nations and the effect the transition to Western-style modernization has had on them.", "poster_path": "/zu0UiW8K5bu8kKrXzJqFt4R7GkS.jpg", "popularity": 6.595}, {"id": 21356, "video": false, "vote_count": 42, "vote_average": 6.3, "title": "Rock & Rule", "release_date": "1983-04-15", "original_language": "en", "original_title": "Rock & Rule", "genre_ids": [12, 16, 14], "backdrop_path": "/fmDP3thG0nB2rFgurRBaM41CWGc.jpg", "adult": false, "overview": "A malevolent rock star kidnaps a female singer to force her to participate in the summoning of a demon and her band must help her stop him.", "poster_path": "/d5La4KVkVu2RC13hJFrOakA9EM3.jpg", "popularity": 6.835}, {"adult": false, "backdrop_path": "/jR7wAeSDYKgodF95DSn8s9OWJvj.jpg", "genre_ids": [16, 99, 18], "id": 46624, "original_language": "en", "original_title": "The Short Films of David Lynch", "overview": "The Short Films of David Lynch (2002) is a DVD collection of the early student and commissioned film work of American filmmaker David Lynch. As such, the collection does not include Lynch's later short work, which are listed in the filmography. The films are listed in chronological order, with brief descriptions of each film. The DVD contains introductions by Lynch to each film, which can be viewed individually or in sequence. # 1 Six Figures Getting Sick (Six Times) # 2 The Alphabet # 3 The Grandmother # 4 The Amputee # 5 The Cowboy and the Frenchman # 6 Premonitions Following an Evil Deed", "poster_path": "/vrSZxibhelDBMhZwECO3UbGHVDB.jpg", "release_date": "2002-06-01", "title": "The Short Films of David Lynch", "video": false, "vote_average": 7.6, "vote_count": 29, "popularity": 6.843}, {"adult": false, "backdrop_path": "/8nKmHIdxb1OAYzjGdxMdX1h1HwJ.jpg", "genre_ids": [18], "id": 36234, "original_language": "en", "original_title": "Timecode", "overview": "A production company begins casting for its next feature, and an up-and-coming actress named Rose tries to manipulate her filmmaker boyfriend, Alex, into giving her a screen test. Alex's wife, Emma, knows about the affair and is considering divorce, while Rose's girlfriend secretly spies on her and attempts to sabotage the relationship. The four storylines in the film were each shot in one take and are shown simultaneously, each taking up a quarter of the screen.", "poster_path": "/lgVzwhUnXEzbAWjJjcmzaGgM7Es.jpg", "release_date": "2000-03-22", "title": "Timecode", "video": false, "vote_average": 6.1, "vote_count": 39, "popularity": 5.372}, {"adult": false, "backdrop_path": "/1FjjkLbFcwtVrC7ZoOdbItWogWc.jpg", "genre_ids": [99], "id": 147676, "original_language": "en", "original_title": "The Wonder Ring", "overview": "An important early film by Stan Brakhage, which Cornell commissioned as a record of New York's Third Avenue before it was torn down. Curiously lacking in people, the film focuses on the rhythms of the ride and reflections in train windows, finding a real-world version of the superimpositions Brakhage would later create in the lab.", "poster_path": "/kWH6w02Ogm9mR9HHUrNWw3iKTmd.jpg", "release_date": "1955-12-04", "title": "The Wonder Ring", "video": false, "vote_average": 5.7, "vote_count": 19, "popularity": 2.183}, {"adult": false, "backdrop_path": "/qcFseLNMRwuzJLsX15WxwsEHq38.jpg", "genre_ids": [99], "id": 301301, "original_language": "ko", "original_title": "\uc544\ub9c8\uc874\uc758 \ub208\ubb3c", "overview": "A documentary about environment destruction in the Amazon and the tribes living there. Produced for the 48th anniversary of MBC, Korea. A brilliant records of the itinerary for 250 days through the Amazon.", "poster_path": "/4Xf1EIwjQM9P5xvAb85Jkqna17Z.jpg", "release_date": "2010-06-09", "title": "Tears in the Amazon", "video": true, "vote_average": 6.5, "vote_count": 2, "popularity": 2.757}, {"id": 72334, "video": false, "vote_count": 67, "vote_average": 7.2, "title": "Chimpanzee", "release_date": "2012-04-20", "original_language": "en", "original_title": "Chimpanzee", "genre_ids": [99], "backdrop_path": "/30KRxEMI7cykynsUE6BVLyOxh5H.jpg", "adult": false, "overview": "A nature documentary centered on a family of chimps living in the Ivory Coast and Ugandan rain forests.", "poster_path": "/i3IojCgvzVba9Fq2myvEGyoItE4.jpg", "popularity": 7.711}, {"adult": false, "backdrop_path": "/w0S04Q3qiQxLfUtf5AcqxQU4xUJ.jpg", "genre_ids": [12, 53], "id": 2989, "original_language": "en", "original_title": "Roar", "overview": "Roar follows a family who are attacked by various African animals at the secluded home of their keeper.", "poster_path": "/3v5T5ahdzSg8EzPddprTaEeAmrM.jpg", "release_date": "1981-11-12", "title": "Roar", "video": false, "vote_average": 6.1, "vote_count": 45, "popularity": 7.23}, {"adult": false, "backdrop_path": "/OsSoNuCTXq0T5Y5hE6L1diCBAV.jpg", "genre_ids": [], "id": 126194, "original_language": "en", "original_title": "The Dante Quartet", "overview": "A visual representation, in four parts, of one man's internalization of \"The Divine Comedy.\" Hell is a series of multicolored brush strokes against a white background; the speed of the changing images varies. \"Hell Spit Flexion,\" or springing out of Hell, is on smaller film stock, taking the center of the frame. Montages of color move rapidly with a star and the edge of a lighted moon briefly visible. Purgation is back to full frame; blurs of color occasionally slow down then freeze. From time to time, an image, such as a window or a face, is distinguishable for a moment. In \"existence is song,\" colors swirl then flash in and out of view. Behind the vivid colors are momentary glimpses of volcanic activity.", "poster_path": "/4Bl7aXAbv1peLt8NkmUr5vfkVCs.jpg", "release_date": "1987-01-01", "title": "The Dante Quartet", "video": false, "vote_average": 5.7, "vote_count": 28, "popularity": 4.101}, {"adult": false, "backdrop_path": "/e0r6UdNAqywZtbQygOwZcOj8SMW.jpg", "genre_ids": [12, 878], "id": 35663, "original_language": "en", "original_title": "The Incredible Petrified World", "overview": "When the cable breaks on their diving bell four people find themselves trapped in a hidden underwater world.", "poster_path": "/uJhnIZJaaYPR0R4Y6Xk0AWCDF3m.jpg", "release_date": "1959-11-18", "title": "The Incredible Petrified World", "video": false, "vote_average": 3.1, "vote_count": 13, "popularity": 2.641}, {"adult": false, "backdrop_path": null, "genre_ids": [27, 878, 53, 18], "id": 619527, "original_language": "pt", "original_title": "este n\u00e3o \u00e9 o fim", "overview": "Two police brothers enter a forest region looking for missing persons after a mysterious accident. Thereafter realizing they are lost and seemingly walking in circles, astonishing phenomenons and unexpected encounters take place.", "poster_path": "/uHgYsRWf14GyF4AuchiIqhGoGzB.jpg", "release_date": "2019-08-05", "title": "this is not the end", "video": false, "vote_average": 0.0, "vote_count": 0, "popularity": 0.712}, {"id": 22716, "video": false, "vote_count": 8, "vote_average": 6.0, "title": "Ocean Oasis", "release_date": "2000-09-12", "original_language": "en", "original_title": "Ocean Oasis", "genre_ids": [99], "backdrop_path": "/4EwutaoWtdp1j9lMAdbaVVywY2b.jpg", "adult": false, "overview": "Ocean Oasis is a fascinating journey into the bountiful seas and pristine deserts of two remarkably different, but inextricably linked worlds \u2014 Mexico's Sea of Cort\u00e9s and the Baja California desert.", "poster_path": "/9UA7iKNGnT2ExgyFRnsiJ77uZoG.jpg", "popularity": 3.621}, {"adult": false, "backdrop_path": "/5s1AfYy9DxQvujBlycMBqI4c6EH.jpg", "genre_ids": [878, 28, 35], "id": 15493, "original_language": "fi", "original_title": "Star Wreck: In the Pirkinning", "overview": "Star Wreck: In the Pirkinning begins with Captain James B. Pirk of the starship Kickstart shipwrecked on the 21st century Earth with his crew. Originally from the distant future, Pirk and his crew traveled back in time to save the Earth from hostile aliens, but lost their ship and became stranded. Pirk's daily routine consists mainly of stuffing his face at the local fast food restaurant, and he is finding it difficult to convince the ladies he is, in fact, an intergalactic space hero from the future. As the prospects for humanity's conquest of space look increasingly bleaker, Pirk comes up with a questionable plan to save mankind's future...", "poster_path": "/p0yYeQEvaL8DHn2IespaHoqsHfL.jpg", "release_date": "2005-08-20", "title": "Star Wreck: In the Pirkinning", "video": false, "vote_average": 6.7, "vote_count": 44, "popularity": 3.283}, {"adult": false, "backdrop_path": "/ko0X0Z6F5I0oZsVKl3wQwXJ6A5u.jpg", "genre_ids": [28, 27, 53], "id": 32857, "original_language": "en", "original_title": "Surviving Evil", "overview": "A TV documentary crew arrive on a remote island in the Philippines to film a survival special. Their back-to-the-wild adventure proves to be more terrifying than they ever could have imagined", "poster_path": "/lALXUryxu0OlLnPf7qUWqkrUKSB.jpg", "release_date": "2009-07-10", "title": "Surviving Evil", "video": false, "vote_average": 4.1, "vote_count": 12, "popularity": 4.703}, {"adult": false, "backdrop_path": "/5oV7xkwOaPnC0staFX9r9gTAgau.jpg", "genre_ids": [14], "id": 23987, "original_language": "en", "original_title": "Cremaster 4", "overview": "CREMASTER 4 (1994) adheres most closely to the project's biological model. This penultimate episode describes the system's onward rush toward descension despite its resistance to division. The logo for this chapter is the Manx triskelion - three identical armored legs revolving around a central axis. Set on the Isle of Man, the film absorbs the island's folklore ...", "poster_path": "/fiQAYXzd8fykneeCDCuS4LSwPQw.jpg", "release_date": "1995-01-01", "title": "Cremaster 4", "video": false, "vote_average": 6.1, "vote_count": 15, "popularity": 4.013}, {"adult": false, "backdrop_path": "/A8juWy4yMR2VQA7oxy9CKE1mxZJ.jpg", "genre_ids": [16], "id": 93521, "original_language": "de", "original_title": "Symphonie diagonale", "overview": "A tilted figure, consisting largely of right angles at the beginning, grows by accretion, with the addition of short straight lines and curves which sprout from the existing design. The figure vanishes and the process begins again with a new pattern, each cycle lasting one or two seconds. The complete figures are drawn in a vaguely Art Deco style and could be said to resemble any number of things, an ear, a harp, panpipes, a grand piano with trombones, and so on, only highly stylized. The tone is playful and hypnotic.", "poster_path": "/3TknQsPZpa2hUA8If3O52rMm1h0.jpg", "release_date": "1924-11-04", "title": "Symphonie diagonale", "video": false, "vote_average": 5.4, "vote_count": 28, "popularity": 1.628}, {"adult": false, "backdrop_path": "/iizkBTr5Y2dxEA1as8VkrXzZ2dA.jpg", "genre_ids": [18], "id": 126124, "original_language": "en", "original_title": "Desistfilm", "overview": "Four young men and a young woman sit in boredom. She smokes while one strums a lute, one looks at a magazine, and two fiddle with string. The door opens and in comes a young man, cigarette between his lips, a swagger on his face. The young woman laughs. As the four young men continue disconnected activities, the other two become a couple. When the four realize something has changed, first they stare at the couple who have kissed and now are dancing slowly. The four run from the house in a kind of frenzy and return to stare. The power of sex has unnerved them.", "poster_path": "/k5SAkAdvDIQzUlJUs1C2KokdhyY.jpg", "release_date": "1954-01-01", "title": "Desistfilm", "video": false, "vote_average": 5.4, "vote_count": 19, "popularity": 3.245}, {"adult": false, "backdrop_path": "/j9aaPddHkSXJeR7TxPFyFu4BqHw.jpg", "genre_ids": [99], "id": 21742, "original_language": "en", "original_title": "Into the Deep", "overview": "An underwater exploration beneath kelp forests in the Pacific Ocean off the coast of Southern California. The film captures the birth of a shark, squids mating, a lobster molting, a fish protecting its nest from an octopus and a sea urchin, and the sea bed covered with brittle stars.", "poster_path": "/6rzgFhJ6GwS3v4EUvRcpdfCxBHI.jpg", "release_date": "1994-11-02", "title": "Into the Deep", "video": false, "vote_average": 5.1, "vote_count": 4, "popularity": 3.769}, {"adult": false, "backdrop_path": null, "genre_ids": [], "id": 144651, "original_language": "de", "original_title": "Vormittagsspuk", "overview": "Hans Richter, noted for his abstract shorts, has everyday objects rebelling against their daily routine.", "poster_path": "/pbOkmRDtls7OgElRzitw9dtxemY.jpg", "release_date": "1928-07-14", "title": "Ghosts Before Breakfast", "video": false, "vote_average": 7.0, "vote_count": 23, "popularity": 1.611}], "total_pages": 19, "total_results": 376}, "recommendations": {"page": 1, "results": [], "total_pages": 1, "total_results": 0}, "credits": {"cast": [{"cast_id": 2, "character": "Himself", "credit_id": "596b66ae925141382c01a193", "gender": 0, "id": 1129473, "name": "Daniel Pinchbeck", "order": 1, "profile_path": null}, {"cast_id": 3, "character": "Herself", "credit_id": "596b66c7925141486b021358", "gender": 0, "id": 69357, "name": "Maude Barlow", "order": 2, "profile_path": "/qark4bCWxSN4uUKvMWQE94d74LG.jpg"}, {"cast_id": 4, "character": "Herself", "credit_id": "596b66d2925141798701d544", "gender": 0, "id": 1852452, "name": "Ariane Burgess", "order": 3, "profile_path": null}, {"cast_id": 5, "character": "Himself (archive footage)", "credit_id": "596b6714c3a3683b4f026394", "gender": 0, "id": 1512417, "name": "Gerald Celente", "order": 4, "profile_path": null}, {"cast_id": 6, "character": "Himself", "credit_id": "596b6748925141486b021421", "gender": 0, "id": 1852453, "name": "Policarpo Chaj", "order": 5, "profile_path": null}, {"cast_id": 7, "character": "Himself", "credit_id": "596b6759c3a3682b22012cad", "gender": 2, "id": 225352, "name": "Michael D. Coe", "order": 6, "profile_path": null}, {"cast_id": 8, "character": "Himself - Deputy Director Groundwork Hudson Valley", "credit_id": "596b679dc3a36813bf01160e", "gender": 0, "id": 1852454, "name": "Curt Collier", "order": 7, "profile_path": null}, {"cast_id": 9, "character": "Himself - Dartmouth College (as Dr. Michael Dorsey)", "credit_id": "596b67d492514136a4027296", "gender": 0, "id": 1852456, "name": "Michael Dorsey", "order": 8, "profile_path": null}, {"cast_id": 10, "character": "Himself (archive footage)", "credit_id": "596b67e8c3a3683b7d02923a", "gender": 0, "id": 1095347, "name": "R. Buckminster Fuller", "order": 9, "profile_path": null}, {"cast_id": 11, "character": "Herself (archive footage)", "credit_id": "596b67fe92514136f802827a", "gender": 0, "id": 1852458, "name": "Indira Gandhi", "order": 10, "profile_path": null}, {"cast_id": 12, "character": "Himself", "credit_id": "596b680a92514136a40272fe", "gender": 0, "id": 1852459, "name": "Tiokasin Ghosthorse", "order": 11, "profile_path": null}, {"cast_id": 13, "character": "Himself", "credit_id": "596b6833c3a3681337011680", "gender": 2, "id": 65463, "name": "Gilberto Gil", "order": 12, "profile_path": "/g7bsGKO5lBUzaqJEuOI51CKNtYW.jpg"}, {"cast_id": 14, "character": "Himself (as Gaspar P. Gonzales)", "credit_id": "596b689192514136f802835f", "gender": 0, "id": 1852460, "name": "Gaspar Pedro Gonz\u00e1lez", "order": 13, "profile_path": null}, {"cast_id": 15, "character": "Himself", "credit_id": "596b689c925141798701d7b6", "gender": 0, "id": 1852461, "name": "Mitch Horowitz", "order": 14, "profile_path": null}, {"cast_id": 16, "character": "Herself", "credit_id": "596b68b7925141197701229f", "gender": 0, "id": 1473526, "name": "Barbara Marx Hubbard", "order": 15, "profile_path": null}, {"cast_id": 17, "character": "Himself - Architect", "credit_id": "596b68cec3a3683b4f0265f3", "gender": 0, "id": 1852462, "name": "Michael Jantzen", "order": 16, "profile_path": null}, {"cast_id": 18, "character": "Himself (archive footage) (as Dr. Michio Kaku)", "credit_id": "596b68f6c3a36813bf0117c5", "gender": 2, "id": 83299, "name": "Michio Kaku", "order": 17, "profile_path": "/nQJHrAVqMLgzMWSBpLt6rXgYN7v.jpg"}, {"cast_id": 19, "character": "Himself", "credit_id": "596b690192514136a402747a", "gender": 0, "id": 1852463, "name": "Joel Kovel", "order": 18, "profile_path": null}, {"cast_id": 20, "character": "Herself", "credit_id": "596b690b925141486b0216b1", "gender": 0, "id": 1852464, "name": "Lucy Legan", "order": 19, "profile_path": null}, {"cast_id": 21, "character": "Himself", "credit_id": "596b692992514136a40274af", "gender": 0, "id": 1852465, "name": "Bernard A. Lietaer", "order": 20, "profile_path": null}, {"cast_id": 22, "character": "Herself", "credit_id": "596b6936c3a3683b7d029405", "gender": 0, "id": 1852466, "name": "Penny Livingston-Stark", "order": 21, "profile_path": null}, {"cast_id": 23, "character": "Himself", "credit_id": "596b6943c3a3683b420263c8", "gender": 2, "id": 5602, "name": "David Lynch", "order": 22, "profile_path": "/3xMyM3kvPqrIgcFQsHT7hVmIwwf.jpg"}, {"cast_id": 24, "character": "Himself", "credit_id": "596b6953c3a3683b420263d5", "gender": 2, "id": 930970, "name": "Dennis J. McKenna", "order": 23, "profile_path": "/r9oRRTHZxIyEWUf50Kcu654HAJO.jpg"}, {"cast_id": 25, "character": "Himself (archive Footage)", "credit_id": "596b6968c3a3683b8c029ce1", "gender": 2, "id": 93498, "name": "Terence McKenna", "order": 24, "profile_path": "/b6GM7o8yOrKE7sl2fAeAF7RJDv2.jpg"}, {"cast_id": 26, "character": "Himself - Bay Glass", "credit_id": "596b698092514136a402750a", "gender": 0, "id": 1852468, "name": "Donald McPherson", "order": 25, "profile_path": null}, {"cast_id": 27, "character": "Herself", "credit_id": "596b69a0925141382c01a574", "gender": 1, "id": 27578, "name": "Ellen Page", "order": 26, "profile_path": "/paexwBfmlVyzva7q4XgcBdqowmL.jpg"}, {"cast_id": 28, "character": "Himself (archive footage)", "credit_id": "596b69d6c3a3682b22013056", "gender": 0, "id": 1852469, "name": "T. Boone Pickens", "order": 27, "profile_path": null}, {"cast_id": 29, "character": "Himself (as Dr. Dean Radin)", "credit_id": "596b69f5c3a3682aaf0110c2", "gender": 0, "id": 128554, "name": "Dean Radin", "order": 28, "profile_path": null}, {"cast_id": 30, "character": "Herself", "credit_id": "596b6a0d925141486b0217e4", "gender": 0, "id": 1340400, "name": "Shiva Rea", "order": 29, "profile_path": "/f9T5BN3o0ro9sV4Xxj3dY7a26WH.jpg"}, {"cast_id": 31, "character": "Himself - Founder and President of Ecocity Builders", "credit_id": "596b6a25925141380601b81e", "gender": 0, "id": 1852470, "name": "Richard Register", "order": 30, "profile_path": null}, {"cast_id": 32, "character": "Himself (archive footage)", "credit_id": "596b6a3a925141380601b841", "gender": 2, "id": 12951, "name": "O.J. Simpson", "order": 31, "profile_path": "/3q6XMf1L5zCApoUsiAMoFS9ADXY.jpg"}, {"cast_id": 33, "character": "Himself", "credit_id": "596b6a499251411977012463", "gender": 0, "id": 1852471, "name": "Andr\u00e9 Soares", "order": 32, "profile_path": null}, {"cast_id": 34, "character": "Himself", "credit_id": "596b6a54925141382c01a642", "gender": 0, "id": 1852472, "name": "Paul Stamets", "order": 33, "profile_path": "/2oiOW1MhNSczDbXJniQiKsDIdj1.jpg"}, {"cast_id": 35, "character": "Himself", "credit_id": "596b6a5d92514136e70276e1", "gender": 2, "id": 982, "name": "Sting", "order": 34, "profile_path": "/j140YMt42pRD7fNWGQSOmfjB4pp.jpg"}, {"cast_id": 36, "character": "Herself - Executive Director of the Buckminster Fuller Institute", "credit_id": "596b6a7892514136a402766c", "gender": 0, "id": 1852473, "name": "Elizabeth Thompson", "order": 35, "profile_path": null}, {"cast_id": 37, "character": "Himself (as Dr. John Todd)", "credit_id": "596b6aa892514136e7027743", "gender": 0, "id": 1852474, "name": "John Todd", "order": 36, "profile_path": null}, {"cast_id": 38, "character": "Himself (as Dr. Ryan Wartena)", "credit_id": "596b6aba925141798701da2f", "gender": 0, "id": 1852475, "name": "Ryan Wartena", "order": 37, "profile_path": null}, {"cast_id": 39, "character": "Himself", "credit_id": "596b6ac6925141798701da4e", "gender": 0, "id": 1852476, "name": "Craig Wescott", "order": 38, "profile_path": null}, {"cast_id": 40, "character": "Himself", "credit_id": "596b6acfc3a3683b4f02682b", "gender": 0, "id": 1434787, "name": "Ganga White", "order": 39, "profile_path": null}, {"cast_id": 41, "character": "Himself (archive footage)", "credit_id": "596b6adf92514136e7027789", "gender": 2, "id": 1852477, "name": "Maharishi Mahesh Yogi", "order": 40, "profile_path": "/7t2j7Ni5eyYqfL12H1DMbgHxqOm.jpg"}, {"cast_id": 42, "character": "Himself (archive footage) (uncredited)", "credit_id": "596b6af0c3a3683b420265c2", "gender": 2, "id": 1107983, "name": "Martin Luther King", "order": 41, "profile_path": "/ng1Bs4dG0wwpjl9TFfEwsRZiLHr.jpg"}], "crew": [{"credit_id": "52fe4773c3a36847f8136667", "department": "Directing", "gender": 2, "id": 141060, "job": "Director", "name": "Joao G. Amorim", "profile_path": null}]}}