{"adult": false, "backdrop_path": null, "belongs_to_collection": null, "budget": 0, "genres": [{"id": 18, "name": "Drama"}], "homepage": null, "id": 48790, "imdb_id": "tt0158871", "original_language": "en", "original_title": "P\u00e5 fremmed mark", "overview": "When Jacob takes a job escorting wealthy adventurers through Bosnia, he is horrified to learn the \"tourists\" plan to participate in the conflict.", "popularity": 1.904, "poster_path": "/t68VbhopKaG6MUAaZC5U7iDMIo4.jpg", "production_companies": [], "production_countries": [], "release_date": "2000-03-23", "revenue": 0, "runtime": 93, "spoken_languages": [], "status": "Released", "tagline": "", "title": "Foreign Fields", "video": false, "vote_average": 6.0, "vote_count": 2, "keywords": {"keywords": [{"id": 1662, "name": "bosnia and herzegovina"}, {"id": 6091, "name": "war"}, {"id": 7973, "name": "bosnian war"}, {"id": 223286, "name": "peacekeeper"}]}, "similar": {"page": 1, "results": [{"id": 324786, "video": false, "vote_count": 7336, "vote_average": 8.1, "title": "Hacksaw Ridge", "release_date": "2016-10-07", "original_language": "en", "original_title": "Hacksaw Ridge", "genre_ids": [18, 36, 10752], "backdrop_path": "/zBK4QZONMQXhcgaJv1YYTdCW7q9.jpg", "adult": false, "overview": "WWII American Army Medic Desmond T. Doss, who served during the Battle of Okinawa, refuses to kill people and becomes the first Conscientious Objector in American history to receive the Congressional Medal of Honor.", "poster_path": "/bndiUFfJxNd2fYx8XO610L9a07m.jpg", "popularity": 23.616}, {"adult": false, "backdrop_path": "/pKawqrtCBMmxarft7o1LbEynys7.jpg", "genre_ids": [10752, 18, 28], "id": 228150, "original_language": "en", "original_title": "Fury", "overview": "In the last months of World War II, as the Allies make their final push in the European theatre, a battle-hardened U.S. Army sergeant named 'Wardaddy' commands a Sherman tank called 'Fury' and its five-man crew on a deadly mission behind enemy lines. Outnumbered and outgunned, Wardaddy and his men face overwhelming odds in their heroic attempts to strike at the heart of Nazi Germany.", "poster_path": "/fa4PxEPRKWRyjzYje1jM4m30qzd.jpg", "release_date": "2014-10-15", "title": "Fury", "video": false, "vote_average": 7.4, "vote_count": 7302, "popularity": 53.985}, {"id": 369885, "video": false, "vote_count": 3048, "vote_average": 6.7, "title": "Allied", "release_date": "2016-11-17", "original_language": "en", "original_title": "Allied", "genre_ids": [28, 18, 53, 10749, 10752], "backdrop_path": "/tC0tVH5KQhCwMlddnyA3iWOSuBA.jpg", "adult": false, "overview": "In 1942, an intelligence officer in North Africa encounters a female French Resistance fighter on a deadly mission behind enemy lines. When they reunite in London, their relationship is tested by the pressures of war.", "poster_path": "/nzXzLFTnd0Zb3ExfhOxlQgizgSu.jpg", "popularity": 29.818}, {"id": 227306, "video": false, "vote_count": 2439, "vote_average": 7.4, "title": "Unbroken", "release_date": "2014-12-25", "original_language": "en", "original_title": "Unbroken", "genre_ids": [18, 10752], "backdrop_path": "/eSbKT3v3RKFRGeOmxJbZhIvrevR.jpg", "adult": false, "overview": "A chronicle of the life of Louis Zamperini, an Olympic runner who was taken prisoner by Japanese forces during World War II.", "poster_path": "/1un8i8UtCjSCnY3OfdxtB5kDRvF.jpg", "popularity": 18.995}, {"id": 11422, "video": false, "vote_count": 133, "vote_average": 6.5, "title": "Midway", "release_date": "1976-06-18", "original_language": "en", "original_title": "Midway", "genre_ids": [28, 18, 36, 10752], "backdrop_path": "/6jeTEV03QLsjkEomKM6XhjoVJch.jpg", "adult": false, "overview": "This war drama depicts the U.S. and Japanese forces in the naval Battle of Midway, which became a turning point for Americans during World War II.", "poster_path": "/dCUVG2po7DsBvnxfe7WGcJsUn9T.jpg", "popularity": 15.349}, {"id": 676, "video": false, "vote_count": 3795, "vote_average": 6.8, "title": "Pearl Harbor", "release_date": "2001-05-21", "original_language": "en", "original_title": "Pearl Harbor", "genre_ids": [18, 36, 10749, 10752], "backdrop_path": "/cDctk61tUeQz4LX7tTFPknI28ea.jpg", "adult": false, "overview": "The lifelong friendship between Rafe McCawley and Danny Walker is put to the ultimate test when the two ace fighter pilots become entangled in a love triangle with beautiful Naval nurse Evelyn Johnson. But the rivalry between the friends-turned-foes is immediately put on hold when they find themselves at the center of Japan's devastating attack on Pearl Harbor on Dec. 7, 1941.", "poster_path": "/gzjMpcyV1RksWonaA87DZ8wQTH0.jpg", "popularity": 26.975}, {"id": 522162, "video": false, "vote_count": 208, "vote_average": 6.7, "title": "Midway", "release_date": "2019-11-06", "original_language": "en", "original_title": "Midway", "genre_ids": [28, 18, 36, 10752], "backdrop_path": "/xjP88DFPCQ81mbZHXFscyYtGskT.jpg", "adult": false, "overview": "MIDWAY centers on the Battle of Midway, a clash between the American fleet and the Imperial Japanese Navy which marked a pivotal turning point in the Pacific Theater during WWII. The film, based on the real-life events of this heroic feat, tells the story of the leaders and soldiers who used their instincts, fortitude and bravery to overcome the odds.", "poster_path": "/hj8pyoNnynGeJTAbl7jcLZO8Uhx.jpg", "popularity": 61.116}, {"id": 374720, "video": false, "vote_count": 10120, "vote_average": 7.4, "title": "Dunkirk", "release_date": "2017-07-19", "original_language": "en", "original_title": "Dunkirk", "genre_ids": [28, 18, 10752], "backdrop_path": "/fudEG1VUWuOqleXv6NwCExK0VLy.jpg", "adult": false, "overview": "The story of the miraculous evacuation of Allied soldiers from Belgium, Britain, Canada and France, who were cut off and surrounded by the German army from the beaches and harbour of Dunkirk between May 26th and June 4th 1940 during World War II.", "poster_path": "/bOXBV303Fgkzn2K4FeKDc0O31q4.jpg", "popularity": 28.538}, {"adult": false, "backdrop_path": "/7A6IWD6tA5h1zeVXJ8KtfqvDPmS.jpg", "genre_ids": [18, 10752], "id": 10592, "original_language": "en", "original_title": "Hart's War", "overview": "Fourth-generation Army Col. William McNamara is imprisoned in a brutal German POW camp. Still, as the senior-ranking American officer, he commands his fellow inmates, keeping a sense of honor alive in a place where honor is easy to destroy, all under the dangerous eye of the Luftwafe vetran Col. Wilhelm Visser. Never giving up the fight to win the war, McNamara is silently planning, waiting for his moment to strike back at the enemy. A murder in the camp gives him the chance to set a risky plan in motion. With a court martial to keep Visser and the Germans distracted, McNamara orchestrates a cunning scheme to escape and destroy a nearby munitions plant, enlisting the unwitting help of young Lt. Tommy Hart. Together with his men, McNamara uses a hero's resolve to carry out his mission, ultimately forced to weigh the value of his life against the good of his country.", "poster_path": "/yRUhSU7vzs5ePa72LNPcKKCCMZ5.jpg", "release_date": "2002-02-15", "title": "Hart's War", "video": false, "vote_average": 6.3, "vote_count": 468, "popularity": 10.297}, {"adult": false, "backdrop_path": "/9alS7FBSf8rvDLskpCRuKqAI2h5.jpg", "genre_ids": [18, 36], "id": 746, "original_language": "en", "original_title": "The Last Emperor", "overview": "A dramatic history of Pu Yi, the last of the Emperors of China, from his lofty birth and brief reign in the Forbidden City, the object of worship by half a billion people; through his abdication, his decline and dissolute lifestyle; his exploitation by the invading Japanese, and finally to his obscure existence as just another peasant worker in the People's Republic.", "poster_path": "/KTirnfG6FZLKWbm8Am3EEKmZDx.jpg", "release_date": "1987-10-21", "title": "The Last Emperor", "video": false, "vote_average": 7.6, "vote_count": 774, "popularity": 13.039}, {"id": 12162, "video": false, "vote_count": 3373, "vote_average": 7.3, "title": "The Hurt Locker", "release_date": "2008-10-10", "original_language": "en", "original_title": "The Hurt Locker", "genre_ids": [18, 53, 10752], "backdrop_path": "/3iPnZOXR9mpcK8RwvAW7b7Axr8v.jpg", "adult": false, "overview": "Forced to play a dangerous game of cat-and-mouse in the chaos of war, an elite Army bomb squad unit must come together in a city where everyone is a potential enemy and every object could be a deadly bomb.", "poster_path": "/3ZEqU9Ykmn8zGDUwWnmTfHaaWRB.jpg", "popularity": 19.01}, {"id": 8007, "video": false, "vote_count": 780, "vote_average": 6.2, "title": "Behind Enemy Lines", "release_date": "2001-11-30", "original_language": "en", "original_title": "Behind Enemy Lines", "genre_ids": [28, 18, 53, 10752], "backdrop_path": "/fORfDnft6dosWAGl2clDWm8kUMp.jpg", "adult": false, "overview": "While flying a routine reconnaissance mission over Bosnia, fighter pilot Chris Burnett photographs something he wasn't supposed to see and gets shot down behind enemy lines, where he must outrun an army led by a ruthless Serbian general. With time running out and a deadly tracker on his trail, Burnett's commanding officer decides to risk his career and launch a renegade rescue mission to save his life.", "poster_path": "/dl1OgKeKxKQsOAqGM7TZRNozbKf.jpg", "popularity": 17.176}, {"adult": false, "backdrop_path": "/sn0HQZthLpYamYb8VSPbEAWT4kF.jpg", "genre_ids": [18, 36, 10752], "id": 8741, "original_language": "en", "original_title": "The Thin Red Line", "overview": "Based on the graphic novel by James Jones, The Thin Red Line tells the story of a group of men, an Army Rifle company called C-for-Charlie, who change, suffer, and ultimately make essential discoveries about themselves during the fierce World War II battle of Guadalcanal. It follows their journey, from the surprise of an unopposed landing, through the bloody and exhausting battles that follow, to the ultimate departure of those who survived. A powerful frontline cast - including Sean Penn, Nick Nolte, Woody Harrelson and George Clooney - explodes into action in this hauntingly realistic view of military and moral chaos in the Pacific during World War II.", "poster_path": "/g4ApW90svay7veAPgxU8OsNMEOB.jpg", "release_date": "1998-12-25", "title": "The Thin Red Line", "video": false, "vote_average": 7.4, "vote_count": 1577, "popularity": 19.345}, {"id": 12412, "video": false, "vote_count": 218, "vote_average": 6.2, "title": "Miracle at St. Anna", "release_date": "2008-09-15", "original_language": "en", "original_title": "Miracle at St. Anna", "genre_ids": [18, 10752], "backdrop_path": "/7jDLjAydj7R0uf9RRUOpt2FNW1u.jpg", "adult": false, "overview": "Miracle at St. Anna chronicles the story of four American soldiers who are members of the all-black 92nd \"Buffalo Soldier\" Division stationed in Tuscany, Italy during World War II.", "poster_path": "/hXJgJ7TQWaDmmSNrjMzsV2YZvW3.jpg", "popularity": 8.528}, {"id": 8916, "video": false, "vote_count": 2873, "vote_average": 6.1, "title": "Antz", "release_date": "1998-10-02", "original_language": "en", "original_title": "Antz", "genre_ids": [12, 16, 35, 10751], "backdrop_path": "/kMfLkbVTsALj5eIu72jtwzDhVsV.jpg", "adult": false, "overview": "In this animated hit, a neurotic worker ant in love with a rebellious princess rises to unlikely stardom when he switches places with a soldier. Signing up to march in a parade, he ends up under the command of a bloodthirsty general. But he's actually been enlisted to fight against a termite army.", "poster_path": "/3biVcPu5hrfKUMC73sTFq17dmmS.jpg", "popularity": 19.964}, {"id": 190859, "video": false, "vote_count": 8311, "vote_average": 7.4, "title": "American Sniper", "release_date": "2014-12-11", "original_language": "en", "original_title": "American Sniper", "genre_ids": [28, 10752], "backdrop_path": "/oJNu8vS6Wf10Cv2996KO65jt4C0.jpg", "adult": false, "overview": "U.S. Navy SEAL Chris Kyle takes his sole mission\u2014protect his comrades\u2014to heart and becomes one of the most lethal snipers in American history. His pinpoint accuracy not only saves countless lives but also makes him a prime target of insurgents. Despite grave danger and his struggle to be a good husband and father to his family back in the States, Kyle serves four tours of duty in Iraq. However, when he finally returns home, he finds that he cannot leave the war behind.", "poster_path": "/svPHnYE7N5NAGO49dBmRhq0vDQ3.jpg", "popularity": 19.216}, {"id": 137113, "video": false, "vote_count": 8823, "vote_average": 7.6, "title": "Edge of Tomorrow", "release_date": "2014-05-27", "original_language": "en", "original_title": "Edge of Tomorrow", "genre_ids": [28, 878], "backdrop_path": "/7mgKeg18Qml5nJQa56RBZO7dIu0.jpg", "adult": false, "overview": "Major Bill Cage is an officer who has never seen a day of combat when he is unceremoniously demoted and dropped into combat. Cage is killed within minutes, managing to take an alpha alien down with him. He awakens back at the beginning of the same day and is forced to fight and die again... and again - as physical contact with the alien has thrown him into a time loop.", "poster_path": "/tpoVEYvm6qcXueZrQYJNRLXL88s.jpg", "popularity": 33.684}, {"id": 1369, "video": false, "vote_count": 1901, "vote_average": 6.5, "title": "Rambo: First Blood Part II", "release_date": "1985-05-21", "original_language": "en", "original_title": "Rambo: First Blood Part II", "genre_ids": [28, 12, 53, 10752], "backdrop_path": "/tqrN6ZVA2lXeyqSi58kWvNdnzzA.jpg", "adult": false, "overview": "John Rambo is released from prison by the government for a top-secret covert mission to the last place on Earth he'd want to return - the jungles of Vietnam.", "poster_path": "/l6zUaYqaQ5TFokesv3BPzBvSN0.jpg", "popularity": 24.903}, {"id": 2576, "video": false, "vote_count": 158, "vote_average": 7.2, "title": "The Diary of Anne Frank", "release_date": "1959-03-18", "original_language": "en", "original_title": "The Diary of Anne Frank", "genre_ids": [18, 36], "backdrop_path": "/x7yCQSWXSczdHUMKEMk5qyoUazO.jpg", "adult": false, "overview": "The true, harrowing story of a young Jewish girl who, with her family and their friends, is forced into hiding in an attic in Nazi-occupied Amsterdam.", "poster_path": "/i7kUdUAF9eTxQG7GdR6lKUK96En.jpg", "popularity": 13.374}, {"adult": false, "backdrop_path": "/xStFRUQtjdQWiZEGN80rgkhN0Kh.jpg", "genre_ids": [18, 878], "id": 11864, "original_language": "en", "original_title": "Enemy Mine", "overview": "A soldier from Earth crashlands on an alien world after sustaining battle damage. Eventually he encounters another survivor, but from the enemy species he was fighting; they band together to survive on this hostile world. In the end the human finds himself caring for his enemy in a completely unexpected way.", "poster_path": "/rOGOW5BnkT0Ccg7XEDmdBUBuw0K.jpg", "release_date": "1985-12-12", "title": "Enemy Mine", "video": false, "vote_average": 6.8, "vote_count": 456, "popularity": 12.134}], "total_pages": 166, "total_results": 3318}, "recommendations": {"page": 1, "results": [], "total_pages": 1, "total_results": 0}, "credits": {"cast": [{"cast_id": 2, "character": "Holt", "credit_id": "52fe4775c3a36847f8136b53", "gender": 2, "id": 12795, "name": "Nikolaj Coster-Waldau", "order": 0, "profile_path": "/qDCSP0CiCQIQwEzZJoH6NX5FdsT.jpg"}, {"cast_id": 3, "character": "Vildb\u00e6k", "credit_id": "52fe4775c3a36847f8136b57", "gender": 0, "id": 1263487, "name": "Mikkel Bay", "order": 1, "profile_path": null}, {"cast_id": 4, "character": "Morten", "credit_id": "52fe4775c3a36847f8136b5b", "gender": 0, "id": 1065735, "name": "Anders Valentinus Dam", "order": 2, "profile_path": "/zvkjEgtkSs85aqubG0J7p0wGIQb.jpg"}, {"cast_id": 5, "character": "Kurt Cobain", "credit_id": "52fe4775c3a36847f8136b5f", "gender": 2, "id": 96935, "name": "Johan Widerberg", "order": 3, "profile_path": "/vzD8l02LjcF3AleiUNhtogOvHE9.jpg"}, {"cast_id": 6, "character": "Jacob", "credit_id": "5cd2f570c3a368472ddd34af", "gender": 2, "id": 68452, "name": "Pelle Hvenegaard", "order": 4, "profile_path": "/7NUSWF3T1ESvdJHLETREX16xB5J.jpg"}], "crew": [{"credit_id": "52fe4775c3a36847f8136b4f", "department": "Directing", "gender": 0, "id": 1177843, "job": "Director", "name": "Aage Rais-Nordentoft", "profile_path": null}]}}