{"adult": false, "backdrop_path": "/zsBNJjVYRi8gwPT3RuI0NkaEh9y.jpg", "belongs_to_collection": null, "budget": 0, "genres": [{"id": 18, "name": "Drama"}], "homepage": "", "id": 48949, "imdb_id": "tt0080868", "original_language": "en", "original_title": "Hide in Plain Sight", "overview": "True story of a man in search of his children after his ex-wife enters the Witness Protection Program.", "popularity": 3.536, "poster_path": "/r81TZGQzanMiSRWJmOQCBOFpvfL.jpg", "production_companies": [{"id": 21, "logo_path": "/mjofSXiHpG5t6KYmU4l4FrUhT7m.png", "name": "Metro-Goldwyn-Mayer", "origin_country": "US"}], "production_countries": [{"iso_3166_1": "US", "name": "United States of America"}], "release_date": "1980-03-21", "revenue": 0, "runtime": 92, "spoken_languages": [{"iso_639_1": "en", "name": "English"}], "status": "Released", "tagline": "If the Justice Dept of the United States abducted your children, what would you do?", "title": "Hide in Plain Sight", "video": false, "vote_average": 5.8, "vote_count": 3, "keywords": {"keywords": [{"id": 4009, "name": "witness protection"}, {"id": 9672, "name": "based on a true story"}, {"id": 255316, "name": "buffalo, new york"}]}, "similar": {"page": 1, "results": [{"adult": false, "backdrop_path": "/gxl0eDEu2IJkubxu6UL0UN7ieYb.jpg", "genre_ids": [28, 18, 9648, 53], "id": 9268, "original_language": "en", "original_title": "Eraser", "overview": "U.S. Marshall John Kruger erases the identities of people enrolled in the Witness Protection Program. His current assignment is to protect Lee Cullen, who's uncovered evidence that the weapons manufacturer she works for has been selling to terrorist groups. When Kruger discovers that there's a corrupt agent within the program, he must guard his own life while trying to protect Lee's.", "poster_path": "/bmOG5k07nrnS8T49NVPM1LnrOf1.jpg", "release_date": "1996-06-21", "title": "Eraser", "video": false, "vote_average": 5.9, "vote_count": 989, "popularity": 16.632}, {"adult": false, "backdrop_path": "/qPNcb2eKL7EOh2lFyNJux0Nf1HW.jpg", "genre_ids": [18, 53, 80, 9648], "id": 10731, "original_language": "en", "original_title": "The Client", "overview": "A street-wise kid, Mark Sway, sees the suicide of Jerome Clifford, a prominent Louisiana lawyer, whose current client is Barry 'The Blade' Muldano, a Mafia hit-man. Before Jerome shoots himself, he tells Mark where the body of a Senator is buried. Clifford shoots himself and Mark is found at the scene, and both the FBI and the Mafia quickly realize that Mark probably knows more than he says.", "poster_path": "/bCWpxGGcP9DsCLwfNpnfcl1vLk8.jpg", "release_date": "1994-07-20", "title": "The Client", "video": false, "vote_average": 6.6, "vote_count": 568, "popularity": 11.024}, {"adult": false, "backdrop_path": "/2jNSXfITbGYxxWLJOLTh9eAx3y8.jpg", "genre_ids": [28, 35, 80, 53], "id": 9737, "original_language": "en", "original_title": "Bad Boys", "overview": "Marcus Burnett is a hen-pecked family man. Mike Lowry is a foot-loose and fancy free ladies' man. Both are Miami policemen, and both have 72 hours to reclaim a consignment of drugs stolen from under their station's nose. To complicate matters, in order to get the assistance of the sole witness to a murder, they have to pretend to be each other.", "poster_path": "/x1ygBecKHfXX4M2kRhmFKWfWbJc.jpg", "release_date": "1995-04-07", "title": "Bad Boys", "video": false, "vote_average": 6.6, "vote_count": 3335, "popularity": 45.921}, {"id": 139567, "video": false, "vote_count": 369, "vote_average": 5.6, "title": "Fire with Fire", "release_date": "2012-08-31", "original_language": "en", "original_title": "Fire with Fire", "genre_ids": [28, 80, 18, 53], "backdrop_path": "/3oqNKnwfW1UKC5i8hnQz2fAGtGE.jpg", "adult": false, "overview": "A fireman takes an unexpected course of action when a man whom he's been ordered to testify against\u2014after being held up at a local convenience store\u2014threatens him.", "poster_path": "/2F0Y4l7uXIGfDMtfuq2k6b2744w.jpg", "popularity": 13.344}, {"id": 9464, "video": false, "vote_count": 390, "vote_average": 7.2, "title": "Buffalo '66", "release_date": "1998-01-20", "original_language": "en", "original_title": "Buffalo '66", "genre_ids": [35, 80, 18, 10749], "backdrop_path": "/sy7ssgt6wxkX45Xtx6f4aan9w1u.jpg", "adult": false, "overview": "Billy is released after five years in prison. In the next moment, he kidnaps teenage student Layla and visits his parents with her, pretending she is his girlfriend and they will soon marry.", "poster_path": "/taVFuUhUWoX9YE7bb2bWkSPjC9P.jpg", "popularity": 10.379}, {"id": 2005, "video": false, "vote_count": 1805, "vote_average": 6.7, "title": "Sister Act", "release_date": "1992-05-28", "original_language": "en", "original_title": "Sister Act", "genre_ids": [35, 10402], "backdrop_path": "/oaLqlJxt8TJSjsdfMpSkLexZ4l5.jpg", "adult": false, "overview": "A Reno singer witnesses a mob murder and the cops stash her in a nunnery to protect her from the mob's hitmen. The mother superior does not trust her, and takes steps to limit her influence on the other nuns. Eventually the singer rescues the failing choir and begins helping with community projects, which gets her an interview on TV\u2014and identification by the mob.", "poster_path": "/7wQxLtybiUbtC6tsJh9htFEmqq3.jpg", "popularity": 13.161}, {"id": 916, "video": false, "vote_count": 513, "vote_average": 7.2, "title": "Bullitt", "release_date": "1968-10-17", "original_language": "en", "original_title": "Bullitt", "genre_ids": [28, 80, 18, 53], "backdrop_path": "/wu0Ad30NciUbR5c5Q1AglHZbRWJ.jpg", "adult": false, "overview": "Senator Walter Chalmers is aiming to take down mob boss Pete Ross with the help of testimony from the criminal's hothead brother Johnny, who is in protective custody in San Francisco under the watch of police lieutenant Frank Bullitt. When a pair of mob hitmen enter the scene, Bullitt follows their trail through a maze of complications and double-crosses. This thriller includes one of the most famous car chases ever filmed.", "poster_path": "/oyhnoFu2oKQfAIdu9YU8I8Ne0pX.jpg", "popularity": 17.2}, {"id": 112205, "video": false, "vote_count": 1801, "vote_average": 6.2, "title": "The Family", "release_date": "2013-09-13", "original_language": "en", "original_title": "The Family", "genre_ids": [28, 35, 80], "backdrop_path": "/3igy0yH1ihCBbvzWo2AeldRzbSg.jpg", "adult": false, "overview": "The Manzoni family, a notorious mafia clan, is relocated to Normandy, France under the witness protection program, where fitting in soon becomes challenging as their old habits die hard.", "poster_path": "/9Qnug9QrwUCQhd7dSfGJfJMO1zS.jpg", "popularity": 16.098}, {"id": 11675, "video": false, "vote_count": 789, "vote_average": 5.9, "title": "Halloween H20: 20 Years Later", "release_date": "1998-08-05", "original_language": "en", "original_title": "Halloween H20: 20 Years Later", "genre_ids": [27, 53], "backdrop_path": "/xtVaN3xQ8hjS90Jx29pOkIXKht1.jpg", "adult": false, "overview": "Two decades after surviving a massacre on October 31, 1978, former baby sitter Laurie Strode finds herself hunted by persistent knife-wielder Michael Myers. Laurie now lives in Northern California under an assumed name, where she works as the headmistress of a private school. But it's not far enough to escape Myers, who soon discovers her whereabouts. As Halloween descends upon Laurie's peaceful community, a feeling of dread weighs upon her -- with good reason.", "poster_path": "/crycJDHRvpQyZeQyRYtIZKIpNzK.jpg", "popularity": 11.238}, {"id": 9873, "video": false, "vote_count": 166, "vote_average": 6.4, "title": "F/X", "release_date": "1986-02-07", "original_language": "en", "original_title": "F/X", "genre_ids": [28, 80, 53], "backdrop_path": "/t0u76RL3YlcfnWdRWgRudROqEkg.jpg", "adult": false, "overview": "A movies special effects man is hired by a government agency to help stage the assassination of a well known gangster. When the agency double cross him, he uses his special effects to trap the gangster and the corrupt agents.", "poster_path": "/6VAiIPBnIRPWXi70sxsHDn9rXA8.jpg", "popularity": 11.755}, {"adult": false, "backdrop_path": "/n9T87j9AJ2zuzmfxrfyv8S0vfV4.jpg", "genre_ids": [28, 35], "id": 16384, "original_language": "en", "original_title": "My Blue Heaven", "overview": "FBI agent Barney Coopersmith is assigned to protect former Mafia figure turned informant Vincent Antonelli. In the witness protection program one is supposed to keep a low profile, but that is something that Antonelli has trouble doing. Coopersmith certainly has his hands full keeping Antonelli away from the Mafia hitmen who want to stop him testifying, not to mention the nightclubs...", "poster_path": "/4rTJLIBocmu1WjadfcZL2nsivZd.jpg", "release_date": "1990-08-17", "title": "My Blue Heaven", "video": false, "vote_average": 6.0, "vote_count": 116, "popularity": 7.937}, {"id": 34729, "video": false, "vote_count": 157, "vote_average": 5.8, "title": "Our Lips Are Sealed", "release_date": "2000-05-18", "original_language": "en", "original_title": "Our Lips Are Sealed", "genre_ids": [35, 18, 10751], "backdrop_path": "/FGzSMKCXPkbnY2ctdo4q2X3567.jpg", "adult": false, "overview": "Follow Mary-Kate and Ashely halfway around the world in this Aussie adventure jam packed with non-stop action, laughs, super spies and surfer guys. The extraordinary escapade begins when the girls eyewitness a crime and are forced to go undercover in the FBI Witness Protection Program.", "poster_path": "/m4wj0CdQfy7C68drlcH1m2aDtFp.jpg", "popularity": 10.241}, {"adult": false, "backdrop_path": "/fiYymtAvnCJGeYf5HsOo2CZUoRS.jpg", "genre_ids": [35], "id": 24438, "original_language": "en", "original_title": "Did You Hear About the Morgans?", "overview": "In New York City, an estranged couple who witness a murder are relocated to small-town Wyoming as part of a witness-protection program.", "poster_path": "/yBrceyep5ZWaU9XuodM1X5c67K6.jpg", "release_date": "2009-12-17", "title": "Did You Hear About the Morgans?", "video": false, "vote_average": 5.3, "vote_count": 600, "popularity": 14.945}, {"adult": false, "backdrop_path": "/1ATDMFvV5gCngdmIPvRVsLJbhhr.jpg", "genre_ids": [28, 53, 80, 9648], "id": 31597, "original_language": "en", "original_title": "Narrow Margin", "overview": "A L.A. District Attorney is attempting to take an unwilling murder witness back to the United States to testify against a top-level mob boss. Frantically attempting to escape two deadly hitmen sent to silence her, they board a Vancouver-bound train only to discover that the killers are onboard with them. For the next 20 hours, as the train hurls through the beautiful but isolated Canadian wilderness, a deadly game of cat and mouse ensues in which their ability to tell friend from foe is a matter of life and death.", "poster_path": "/6njNmIz4jiVoALGIE2oK4xRSHuk.jpg", "release_date": "1990-09-21", "title": "Narrow Margin", "video": false, "vote_average": 6.2, "vote_count": 58, "popularity": 8.536}, {"adult": false, "backdrop_path": "/tRRL9pIKXad7fgaVrMvUFXkfFxC.jpg", "genre_ids": [28, 35, 10749], "id": 109513, "original_language": "en", "original_title": "Hit & Run", "overview": "When former getaway driver, Charlie Bronson jeopardises his Witness Protection Plan identity in order to help his girlfriend get to Los Angeles, the feds and Charlie's former gang chase them on the road.", "poster_path": "/fKlHDj9vGuapS3MKpezwlKFqz4w.jpg", "release_date": "2012-08-22", "title": "Hit & Run", "video": false, "vote_average": 5.7, "vote_count": 337, "popularity": 11.619}, {"adult": false, "backdrop_path": "/fZLYwPvee0FzKuKEDmgCgfhXNhv.jpg", "genre_ids": [28, 12, 35, 18, 10751, 53], "id": 26156, "original_language": "en", "original_title": "Hiding Out", "overview": "A very successful stock broker is called to court to testify against a mob boss who was into some inside trading. Andrew Morenski must become Max Hauser and go back to high school for protection from the mob.", "poster_path": "/n1INpdK4goM1XFQKDv9bsA9Bmd6.jpg", "release_date": "1987-11-06", "title": "Hiding Out", "video": false, "vote_average": 5.7, "vote_count": 20, "popularity": 4.958}, {"id": 509932, "video": false, "vote_count": 1, "vote_average": 4.0, "title": "The True Adventures of Wolfboy", "release_date": "2019-07-02", "original_language": "en", "original_title": "The True Adventures of Wolfboy", "genre_ids": [18], "backdrop_path": "/ynzAYYw1qagFpgOEiGYfTFBzQBV.jpg", "adult": false, "overview": "Follows a young boy who runs away from home in the search of his estranged mother.", "poster_path": "/qnPapj2u0kaBBv4zfgbJPJ9ERF9.jpg", "popularity": 5.92}, {"adult": false, "backdrop_path": "/upyFhj8thqR04yko91EChCcr7av.jpg", "genre_ids": [18], "id": 164207, "original_language": "ja", "original_title": "\u30de\u30eb\u30bf\u30a4\u306e\u5973", "overview": "In this made-in-Japan drama/comedy/gangster movie from director Juzo Itami a star actress, Biwako (played by Nobuko Miyamoto), is the sole witness to a grizzly murder. The cops persuade Biwako to play the bait to catch the killers. Two veteran detectives are assigned to protect her at all times, and as the film progresses the guardians have no choice but to deal with the overly dramatic, hilarious, and sometimes harrowing ups-and-downs of Biwako's life. Beautifully shot and dynamically structured in a way that only the Japanese are capable of, Marutai reminds us that sometimes the most loyal friendships are formed under the darkest circumstances.", "poster_path": "/wsFX4FzydbY1R3wYiGt1PgpeMi4.jpg", "release_date": "1997-09-27", "title": "Woman in Witness Protection", "video": false, "vote_average": 7.0, "vote_count": 1, "popularity": 0.907}, {"id": 32079, "video": false, "vote_count": 22, "vote_average": 7.0, "title": "Cohen and Tate", "release_date": "1988-01-01", "original_language": "en", "original_title": "Cohen and Tate", "genre_ids": [80, 53], "backdrop_path": "/93YafpP5qAEOIaVeNnCr5xa89fB.jpg", "adult": false, "overview": "A boy kidnapped by two mismatched hitmen puts them at each other's throats while being driven to their employers, possibly to be killed. Cohen, an older professional becomes increasingly irritated with his partner Tate, a brutish killer, when their prisoner uses unnatural guile and resourcefulness to play them off against each other.", "poster_path": "/fKzLqgWktOtdAjwSBhDPeGa8hXu.jpg", "popularity": 4.603}, {"adult": false, "backdrop_path": null, "genre_ids": [28], "id": 127756, "original_language": "en", "original_title": "Hitman's Run", "overview": "A former mob hitman, now in witness protection, is forced to come out of retirement when his family is threatened by his cohorts. He teams up with a skateboarding kid, who has a computer disk that the mob wants to get their hands on that has a list of new names for individuals in the FBI witness protection program. The list includes his dad, who separated from his mother years before and hadn't been seen since.", "poster_path": "/kbum0WAUt5QRc9zfLDgU0cVuUBa.jpg", "release_date": "1999-01-01", "title": "Hitman's Run", "video": false, "vote_average": 5.8, "vote_count": 5, "popularity": 3.311}], "total_pages": 2, "total_results": 28}, "recommendations": {"page": 1, "results": [], "total_pages": 1, "total_results": 0}, "credits": {"cast": [{"cast_id": 4, "character": "Thomas Hacklin, Jr.", "credit_id": "52fe477cc3a36847f813875f", "gender": 2, "id": 3085, "name": "James Caan", "order": 0, "profile_path": "/bGyOCCOIgcIyKjOGLoXoyp0XWHf.jpg"}, {"cast_id": 5, "character": "Alisa Hacklin", "credit_id": "52fe477cc3a36847f8138763", "gender": 1, "id": 44712, "name": "Jill Eikenberry", "order": 1, "profile_path": "/hdmZKB8JoKSBtRsozEDvEUejP7Y.jpg"}, {"cast_id": 6, "character": "Jack Scolese", "credit_id": "52fe477cc3a36847f8138767", "gender": 2, "id": 109625, "name": "Robert Viharo", "order": 2, "profile_path": "/pvHkVZK05E1aGrjAD7Nt8V5qqDK.jpg"}, {"cast_id": 7, "character": "Matty Stanek", "credit_id": "52fe477cc3a36847f813876b", "gender": 2, "id": 4887, "name": "Joe Grifasi", "order": 3, "profile_path": "/cesXbWZaKHeOhsSdfbF9mB9750w.jpg"}, {"cast_id": 8, "character": "Ruthie Hacklin", "credit_id": "52fe477cc3a36847f813876f", "gender": 0, "id": 1184797, "name": "Barbra Rae", "order": 4, "profile_path": null}, {"cast_id": 9, "character": "Sam Marzetta", "credit_id": "52fe477cc3a36847f8138773", "gender": 2, "id": 12521, "name": "Kenneth McMillan", "order": 5, "profile_path": "/St74rdoCMMJHRMaEY2kU2YmuaD.jpg"}, {"cast_id": 10, "character": "Jason R. Reid", "credit_id": "52fe477cc3a36847f8138777", "gender": 2, "id": 14792, "name": "Josef Sommer", "order": 6, "profile_path": "/3mR6yfeMhFS1UGsb7btjjLaiTu1.jpg"}, {"cast_id": 11, "character": "Sal Carvello", "credit_id": "52fe477cc3a36847f813877b", "gender": 2, "id": 1004, "name": "Danny Aiello", "order": 7, "profile_path": "/UvPalkz4ynJJrTcrbpfD05gVoO.jpg"}, {"cast_id": 15, "character": "Richard Fieldston", "credit_id": "54affe8fc3a368070f002d5f", "gender": 2, "id": 15412, "name": "David Clennon", "order": 8, "profile_path": "/sUZ6eL77Eh0aNYSx2NaB9NEZeCf.jpg"}, {"cast_id": 16, "character": "Bobby Momisa", "credit_id": "589e891dc3a3684baa0057d4", "gender": 2, "id": 124435, "name": "Thomas Hill", "order": 9, "profile_path": "/mSLh1gi5nfyA1BCzYsaGykwKoHq.jpg"}, {"cast_id": 17, "character": "Frankie Irish", "credit_id": "589e8932925141171e005701", "gender": 2, "id": 25579, "name": "Chuck Hicks", "order": 10, "profile_path": "/zI7gk2B5A0Sygr5ewJVeL4XNYYy.jpg"}, {"cast_id": 20, "character": "Lee McHugh", "credit_id": "589e8977c3a3684bbf0051e0", "gender": 2, "id": 15415, "name": "Peter Maloney", "order": 13, "profile_path": "/AuWdzHWJA6Jx9mdxxjJs6VcIs7m.jpg"}, {"cast_id": 21, "character": "Frantuzzi", "credit_id": "589e8982c3a3684bbb005731", "gender": 2, "id": 276530, "name": "Ken Sylk", "order": 14, "profile_path": null}, {"cast_id": 22, "character": "Detective Reilly", "credit_id": "589e898f925141172a00551c", "gender": 2, "id": 8875, "name": "David Margulies", "order": 15, "profile_path": "/gxzWJuIokIQxVfncRrPOnBbczuq.jpg"}, {"cast_id": 12, "character": "Mrs. Novack", "credit_id": "5393905e0e0a266dbb002bd3", "gender": 1, "id": 17488, "name": "Alice Drummond", "order": 17, "profile_path": "/f1O8suDhVloKdPvhyltj017SPTo.jpg"}, {"cast_id": 40, "character": "Matty's Chick", "credit_id": "5e038a6c0284200019b4546d", "gender": 1, "id": 54782, "name": "Mary Beth Hurt", "order": 18, "profile_path": "/kX58VOb6a5c4kmjfCIudcWqU24H.jpg"}], "crew": [{"credit_id": "589e8a5dc3a3684bbf005277", "department": "Production", "gender": 0, "id": 8337, "job": "Casting", "name": "Terry Liebling", "profile_path": null}, {"credit_id": "589e8a189251411724005627", "department": "Sound", "gender": 2, "id": 2027, "job": "Original Music Composer", "name": "Leonard Rosenman", "profile_path": null}, {"credit_id": "589e8a4fc3a3684bb000560a", "department": "Editing", "gender": 2, "id": 2241, "job": "Editor", "name": "William Steinkamp", "profile_path": null}, {"credit_id": "589e8a67925141171e0057cc", "department": "Production", "gender": 2, "id": 2997, "job": "Casting", "name": "Scott Rudin", "profile_path": "/zR8sdlGblto6dneAr2mckTowwEl.jpg"}, {"credit_id": "5e09a988d35dea0013205a02", "department": "Production", "gender": 2, "id": 2997, "job": "Casting Director", "name": "Scott Rudin", "profile_path": "/zR8sdlGblto6dneAr2mckTowwEl.jpg"}, {"credit_id": "52fe477cc3a36847f813874f", "department": "Directing", "gender": 2, "id": 3085, "job": "Director", "name": "James Caan", "profile_path": "/bGyOCCOIgcIyKjOGLoXoyp0XWHf.jpg"}, {"credit_id": "589e8a2dc3a3684bbf00524d", "department": "Editing", "gender": 2, "id": 10640, "job": "Editor", "name": "Fredric Steinkamp", "profile_path": null}, {"credit_id": "589e8aaf925141172d005988", "department": "Production", "gender": 2, "id": 10546, "job": "Unit Production Manager", "name": "Fred T. Gallo", "profile_path": null}, {"credit_id": "589e8a0d925141172d0058f0", "department": "Production", "gender": 2, "id": 10546, "job": "Associate Producer", "name": "Fred T. Gallo", "profile_path": null}, {"credit_id": "589e8a7ec3a3684bad004f1f", "department": "Art", "gender": 1, "id": 35500, "job": "Set Decoration", "name": "Mary Swanson", "profile_path": null}, {"credit_id": "589e8a94c3a3684bb0005636", "department": "Costume & Make-Up", "gender": 2, "id": 24313, "job": "Makeup Artist", "name": "Frank Griffin", "profile_path": null}, {"credit_id": "589e8a2392514117180059cf", "department": "Camera", "gender": 2, "id": 30605, "job": "Director of Photography", "name": "Paul Lohmann", "profile_path": null}, {"credit_id": "589e8a88925141172a0055c8", "department": "Costume & Make-Up", "gender": 0, "id": 30996, "job": "Makeup Artist", "name": "John Alese", "profile_path": null}, {"credit_id": "589e8a01925141171b00585a", "department": "Production", "gender": 2, "id": 40147, "job": "Producer", "name": "Robert W. Christiansen", "profile_path": null}, {"credit_id": "589e89f6c3a3684bbb00578f", "department": "Production", "gender": 2, "id": 40149, "job": "Producer", "name": "Rick Rosenberg", "profile_path": null}, {"credit_id": "52fe477cc3a36847f813875b", "department": "Writing", "gender": 0, "id": 1070826, "job": "Screenplay", "name": "Spencer Eastman", "profile_path": null}, {"credit_id": "589e89e8925141171b005842", "department": "Writing", "gender": 0, "id": 1184796, "job": "Book", "name": "Leslie Waller", "profile_path": null}, {"credit_id": "589e8a72925141172600564e", "department": "Art", "gender": 0, "id": 1331823, "job": "Production Design", "name": "Pato Guzman", "profile_path": null}, {"credit_id": "589e8aa3c3a3684bc40059ce", "department": "Costume & Make-Up", "gender": 0, "id": 1755408, "job": "Hairstylist", "name": "Laura Lee Grubich", "profile_path": null}, {"credit_id": "5bffeed40e0a26486a0193fd", "department": "Camera", "gender": 0, "id": 2185383, "job": "Second Assistant Camera", "name": "Ron Frantzvog", "profile_path": null}]}}