{"adult": false, "backdrop_path": "/cP1itx889q3jpk4bd0NJkpSxFwu.jpg", "belongs_to_collection": null, "budget": 0, "genres": [{"id": 16, "name": "Animation"}, {"id": 18, "name": "Drama"}], "homepage": "https://ablazeimage.com/on-happiness-road-info/", "id": 490725, "imdb_id": "tt7543904", "original_language": "zh", "original_title": "\u5e78\u798f\u8def\u4e0a", "overview": "Chi earned her American dream after persevering with her studies in Taiwan. Following her grandmothers\u2019 death, Chi returns to her family on Happiness Road, where she begins to feel nostalgic about her childhood and starts to contemplate the meaning of \u201clife\u201d and \u201chome\u201d. What is happiness? Will Chi find her own happiness?", "popularity": 2.294, "poster_path": "/ypDzAzsjxUnQF171bdLzjmXOFJ9.jpg", "production_companies": [], "production_countries": [{"iso_3166_1": "TW", "name": "Taiwan"}], "release_date": "2018-01-05", "revenue": 0, "runtime": 111, "spoken_languages": [{"iso_639_1": "zh", "name": "\u666e\u901a\u8bdd"}], "status": "Released", "tagline": "", "title": "On Happiness Road", "video": false, "vote_average": 7.5, "vote_count": 17, "keywords": {"keywords": [{"id": 10235, "name": "family relationships"}]}, "similar": {"page": 1, "results": [{"id": 8204, "video": false, "vote_count": 1537, "vote_average": 6.5, "title": "The Spiderwick Chronicles", "release_date": "2008-02-14", "original_language": "en", "original_title": "The Spiderwick Chronicles", "genre_ids": [12, 18, 14, 10751], "backdrop_path": "/2Uwv3eUDRJ9UcjN8AlSg4GDm6TN.jpg", "adult": false, "overview": "Upon moving into the run-down Spiderwick Estate with their mother, twin brothers Jared and Simon Grace, along with their sister Mallory, find themselves pulled into an alternate world full of faeries and other creatures.", "poster_path": "/nSLjsBDzwsIpQL534CNfAKidyAm.jpg", "popularity": 13.069}, {"adult": false, "backdrop_path": "/eB43LYncKDJS3p5xYSUN9dUrL2A.jpg", "genre_ids": [18], "id": 205587, "original_language": "en", "original_title": "The Judge", "overview": "A successful lawyer returns to his hometown for his mother's funeral only to discover that his estranged father, the town's judge, is suspected of murder.", "poster_path": "/v6s65U6qisvxWgO3cNnreaaaite.jpg", "release_date": "2014-10-08", "title": "The Judge", "video": false, "vote_average": 7.3, "vote_count": 2564, "popularity": 22.668}, {"adult": false, "backdrop_path": "/avhG8fITuG78IkKPk28CcBBHPOp.jpg", "genre_ids": [35, 18], "id": 112160, "original_language": "fr", "original_title": "Chroniques sexuelles d'une famille d'aujourd'hui", "overview": "Three generations of a French family open up about their sexual experiences and desires after young Romain is caught masturbating in his biology class.", "poster_path": "/pU2nD3Llaz3Taq5FAaQUg00uJYD.jpg", "release_date": "2012-05-09", "title": "Sexual Chronicles of a French Family", "video": false, "vote_average": 4.4, "vote_count": 169, "popularity": 26.875}, {"id": 13, "video": false, "vote_count": 16610, "vote_average": 8.4, "title": "Forrest Gump", "release_date": "1994-07-06", "original_language": "en", "original_title": "Forrest Gump", "genre_ids": [35, 18, 10749], "backdrop_path": "/wMgbnUVS9wbRGAdki8fqxKU1O0N.jpg", "adult": false, "overview": "A man with a low IQ has accomplished great things in his life and been present during significant historic events\u2014in each case, far exceeding what anyone imagined he could do. But despite all he has achieved, his one true love eludes him.", "poster_path": "/yE5d3BUhE8hCnkMUJOo1QDoOGNz.jpg", "popularity": 41.886}, {"id": 333348, "video": false, "vote_count": 444, "vote_average": 5.9, "title": "Love the Coopers", "release_date": "2015-11-12", "original_language": "en", "original_title": "Love the Coopers", "genre_ids": [35, 18, 10751], "backdrop_path": "/E1dQIYaRhZJCnxQ2R2mGLPScsv.jpg", "adult": false, "overview": "When four generations of the Cooper clan come together for their annual Christmas Eve celebration, a series of unexpected visitors and unlikely events turn the night upside down, leading them all toward a surprising rediscovery of family bonds and the spirit of the holiday.", "poster_path": "/nL0rGAxqIT6rBBudFjN8wJDkrVM.jpg", "popularity": 11.11}, {"adult": false, "backdrop_path": "/r9KKD6PRQKmZNr0SSAaDWGVHKDO.jpg", "genre_ids": [35, 18, 10751], "id": 1552, "original_language": "en", "original_title": "Parenthood", "overview": "The story of the Buckman family and friends, attempting to bring up their children. They suffer/enjoy all the events that occur: estranged relatives, the 'black sheep' of the family, the eccentrics, the skeletons in the closet, and the rebellious teenagers.", "poster_path": "/e51tNNQBJpJi9xkyuj0QFhyBcz7.jpg", "release_date": "1989-07-31", "title": "Parenthood", "video": false, "vote_average": 6.7, "vote_count": 315, "popularity": 13.577}, {"id": 11816, "video": false, "vote_count": 215, "vote_average": 7.4, "title": "On Golden Pond", "release_date": "1981-12-01", "original_language": "en", "original_title": "On Golden Pond", "genre_ids": [18], "backdrop_path": "/j5cE2YUjyzEeRgWHuO2ccDL5Wps.jpg", "adult": false, "overview": "For Norman and Ethel Thayer, this summer on golden pond is filled with conflict and resolution. When their daughter Chelsea arrives, the family is forced to renew the bonds of love and overcome the generational friction that has existed for years. Norman must find his way through his anger and fear of growing old, while Chelsea struggles to rebuild their relationship. Ethel's consistent support of her \"Knight in shining armor\" is inspirational in its simplicity. This is a movie to ponder and always keep in your heart.", "poster_path": "/h88NQA1slcXmdmUKBjyymAEV8sS.jpg", "popularity": 9.427}, {"id": 12920, "video": false, "vote_count": 175, "vote_average": 6.5, "title": "Dreamer: Inspired By a True Story", "release_date": "2005-09-10", "original_language": "en", "original_title": "Dreamer: Inspired By a True Story", "genre_ids": [18, 10751], "backdrop_path": "/7TeuTbE4WfQ2ujijJAfTwiogIcn.jpg", "adult": false, "overview": "Ben Crane believes that a severely injured racehorse deserves another chance. He and his daughter Cale adopt the mare and save it from being sacrificed by the owner.", "poster_path": "/hVGeYxlMkjvnde0QSuloQragYNe.jpg", "popularity": 10.681}, {"adult": false, "backdrop_path": "/xLHT8PyhMP4itkBQh071IltfyPx.jpg", "genre_ids": [35, 14, 16, 18, 10751], "id": 100271, "original_language": "ja", "original_title": "\u3082\u3082\u3078\u306e\u624b\u7d19", "overview": "Clinging to an unfinished letter written by her recently deceased father, young Momo moves with her mother from bustling Tokyo to the remote Japanese island of Shio. Upon their arrival, she begins to explore her new habitat, meeting local children and learning their routines and customs. However, it's not long before several bizarre occurrences crop up around the previously tranquil island. Orchards are found ransacked, prized trinkets start disappearing and, worst of all, each morning after her mother leaves for work, Momo hears strange mumblings coming from the attic of their home. Annoyed by these creepy goings-on and her mother's refusal to believe them, Momo embarks on a strange and supernatural adventure to discover the source of the mischief, which leads her to a trio of troublesome imps: the flatulent lizard Kawa, the childlike Mame and their hulking ogre leader Iwa. Momo also learns that her visit to the island is in some way connected to her father's mysterious letter.", "poster_path": "/w1bkQrf6fXytXwAlv8ph0v9FnRD.jpg", "release_date": "2012-04-21", "title": "A Letter to Momo", "video": false, "vote_average": 7.6, "vote_count": 194, "popularity": 9.451}, {"adult": false, "backdrop_path": "/i998vFSbMKlLL5EfMVY1kvDDUuO.jpg", "genre_ids": [27], "id": 609, "original_language": "en", "original_title": "Poltergeist", "overview": "Steve Freeling lives with his wife, Diane, and their three children, Dana, Robbie, and Carol Anne, in Southern California where he sells houses for the company that built the neighborhood. It starts with just a few odd occurrences, such as broken dishes and furniture moving around by itself. However, when he realizes that something truly evil haunts his home, Steve calls in a team of parapsychologists led by Dr. Lesh to help before it's too late.", "poster_path": "/hKs6umpuLSgZhOiZI1pxpO0iVTQ.jpg", "release_date": "1982-06-04", "title": "Poltergeist", "video": false, "vote_average": 7.1, "vote_count": 1519, "popularity": 19.232}, {"adult": false, "backdrop_path": "/dSMaEGFegnkCjVssEZyLB9mC3Ev.jpg", "genre_ids": [18], "id": 232175, "original_language": "en", "original_title": "Gimme Shelter", "overview": "After running away from her abusive mother, a streetwise teen seeks refuge with her father, but he rejects her when he learns that she's pregnant.", "poster_path": "/wH7vpiZaLFszp101lfBuJBDSd4Q.jpg", "release_date": "2013-10-17", "title": "Gimme Shelter", "video": false, "vote_average": 6.7, "vote_count": 166, "popularity": 7.926}, {"adult": false, "backdrop_path": "/gRjiCDm7jpg0sS1dK4MWsV3PLTR.jpg", "genre_ids": [35, 10751], "id": 11007, "original_language": "en", "original_title": "Cheaper by the Dozen", "overview": "The Baker brood moves to Chicago after patriarch Tom gets a job coaching football at Northwestern University, forcing his writer wife, Mary, and the couple's 12 children to make a major adjustment. The transition works well until work demands pull the parents away from home, leaving the kids bored -- and increasingly mischievous.", "poster_path": "/qdbC2M1WCY310tmbraIoxbd32TT.jpg", "release_date": "2003-12-24", "title": "Cheaper by the Dozen", "video": false, "vote_average": 6.2, "vote_count": 1727, "popularity": 14.221}, {"id": 185, "video": false, "vote_count": 7610, "vote_average": 8.2, "title": "A Clockwork Orange", "release_date": "1971-12-18", "original_language": "en", "original_title": "A Clockwork Orange", "genre_ids": [18, 878], "backdrop_path": "/unMc1jEyqCnzba976GviSFKGagt.jpg", "adult": false, "overview": "In a near-future Britain, young Alexander DeLarge and his pals get their kicks beating and raping anyone they please. When not destroying the lives of others, Alex swoons to the music of Beethoven. The state, eager to crack down on juvenile crime, gives an incarcerated Alex the option to undergo an invasive procedure that'll rob him of all personal agency. In a time when conscience is a commodity, can Alex change his tune?", "poster_path": "/4sHeTAp65WrSSuc05nRBKddhBxO.jpg", "popularity": 21.362}, {"id": 5915, "video": false, "vote_count": 6283, "vote_average": 7.8, "title": "Into the Wild", "release_date": "2007-09-11", "original_language": "en", "original_title": "Into the Wild", "genre_ids": [12, 18], "backdrop_path": "/9yJehIjvR7ULOLxeDJoth4kDDNe.jpg", "adult": false, "overview": "After graduating from Emory University in 1992, top student and athlete Christopher McCandless abandons his possessions, gives his entire $24,000 savings account to charity, and hitchhikes to Alaska to live in the wilderness.", "poster_path": "/lHyYgaocXR6KcJLxVmxZDj115hH.jpg", "popularity": 13.103}, {"adult": false, "backdrop_path": "/caLMOD3ZJ3V7qjlxDXrzlJfBLgD.jpg", "genre_ids": [18, 10749], "id": 20, "original_language": "en", "original_title": "My Life Without Me", "overview": "A Pedro Almodovar production in which a fatally ill mother with only two months to live creates a list of things she wants to do before she dies with out telling her family of her illness.", "poster_path": "/vVj92VBFUBzjqzLvBiPVVlJDp78.jpg", "release_date": "2003-03-07", "title": "My Life Without Me", "video": false, "vote_average": 6.1, "vote_count": 220, "popularity": 10.382}, {"id": 9813, "video": false, "vote_count": 128, "vote_average": 6.1, "title": "The Quiet", "release_date": "2005-09-12", "original_language": "en", "original_title": "The Quiet", "genre_ids": [18, 53], "backdrop_path": "/6eyWAZA4CEidZW1xXnQ4vlYBXTP.jpg", "adult": false, "overview": "After her widowed father dies, deaf teenager Dot moves in with her godparents, Olivia and Paul Deer. The Deers' daughter, Nina, is openly hostile to Dot, but that does not prevent her from telling her secrets to her silent stepsister, including the fact that she wants to kill her lecherous father.", "poster_path": "/GEqIE9YlmygHVUfS64LW2cwAAM.jpg", "popularity": 14.844}, {"adult": false, "backdrop_path": "/kiWvoV78Cc3fUwkOHKzyBgVdrDD.jpg", "genre_ids": [37, 18, 12], "id": 281957, "original_language": "en", "original_title": "The Revenant", "overview": "In the 1820s, a frontiersman, Hugh Glass, sets out on a path of vengeance against those who left him for dead after a bear mauling.", "poster_path": "/oXUWEc5i3wYyFnL1Ycu8ppxxPvs.jpg", "release_date": "2015-12-25", "title": "The Revenant", "video": false, "vote_average": 7.5, "vote_count": 12127, "popularity": 24.135}, {"id": 157336, "video": false, "vote_count": 20609, "vote_average": 8.3, "title": "Interstellar", "release_date": "2014-11-05", "original_language": "en", "original_title": "Interstellar", "genre_ids": [12, 18, 878], "backdrop_path": "/xu9zaAevzQ5nnrsXN6JcahLnG4i.jpg", "adult": false, "overview": "Interstellar chronicles the adventures of a group of explorers who make use of a newly discovered wormhole to surpass the limitations on human space travel and conquer the vast distances involved in an interstellar voyage.", "poster_path": "/nBNZadXqJSdt05SHLqgT0HuC5Gm.jpg", "popularity": 53.312}, {"id": 14, "video": false, "vote_count": 7295, "vote_average": 8.0, "title": "American Beauty", "release_date": "1999-09-15", "original_language": "en", "original_title": "American Beauty", "genre_ids": [18], "backdrop_path": "/z5J18ByLeOZ68iORfMXmxeFuwyL.jpg", "adult": false, "overview": "Lester Burnham, a depressed suburban father in a mid-life crisis, decides to turn his hectic life around after developing an infatuation with his daughter's attractive friend.", "poster_path": "/or1MP8BZIAjqWYxPdPX724ydKar.jpg", "popularity": 28.789}, {"id": 11881, "video": false, "vote_count": 342, "vote_average": 7.4, "title": "Miracle on 34th Street", "release_date": "1947-06-11", "original_language": "en", "original_title": "Miracle on 34th Street", "genre_ids": [35, 18, 10751], "backdrop_path": "/i90947b0zLbH1P4qjAxqiQdRfiZ.jpg", "adult": false, "overview": "Kris Kringle, seemingly the embodiment of Santa Claus, is asked to portray the jolly old fellow at Macy's following his performance in the Thanksgiving Day parade. His portrayal is so complete that many begin to question if he truly is Santa Claus, while others question his sanity.", "poster_path": "/h8kkqroLwxvAHxWGIStEZaNd4wr.jpg", "popularity": 18.855}], "total_pages": 75, "total_results": 1487}, "recommendations": {"page": 1, "results": [{"adult": false, "backdrop_path": "/ovetvy3PEWMaovd2isXHOavbnfb.jpg", "genre_ids": [35], "id": 56836, "original_language": "zh", "original_title": "\u5c0f\u5b69\u4e0d\u7b28", "overview": "Kok Pin, Boon Hock and Terry are classmates in \"EM3\" stream. In Singapore, that means that at the age of 12, the government has decided that they are not as academically inclined as their peers. Kok Pin is creative and a born artist but his parents would rather he focus on his Maths and Sciences. Boon Hock comes from a low-income family and needs to balance school and helping out at the food stall. Terry, a spoilt brat is just too lazy a student. While the three children suffer from the pressure of school, their parents have another set of problems - their jobs and careers", "poster_path": "/ie2iIGMYj64WEyLwJYnwCOYMWn2.jpg", "release_date": "2002-02-09", "title": "I Not Stupid", "video": false, "vote_average": 7.0, "vote_count": 9, "popularity": 2.88}, {"id": 567646, "video": false, "vote_count": 42, "vote_average": 7.2, "title": "Extreme Job", "release_date": "2019-01-23", "original_language": "ko", "original_title": "\uadf9\ud55c\uc9c1\uc5c5", "genre_ids": [28, 35], "backdrop_path": "/hn7oqr6RVqr3u6dcGoPRPi4jj1m.jpg", "adult": false, "overview": "A drug squad attempts to take down a criminal organization and they must go undercover to do so, so they begin working at a chicken restaurant, that becomes famous for its delicious chicken. Due to the unexpected popularity, the detectives find themselves in a situation they never expected.", "poster_path": "/x74VQTLwFs2MLHSg2LNufhX8lVg.jpg", "popularity": 6.321}], "total_pages": 1, "total_results": 2}, "credits": {"cast": [{"cast_id": 0, "character": "Lin Shu-Chi(voice)", "credit_id": "5a24fd2a0e0a264cca0d3804", "gender": 1, "id": 85962, "name": "Kwai Lun-Mei", "order": 1, "profile_path": "/vBUKbkGs0Y1FDqtNpPXWuVBbdVC.jpg"}, {"cast_id": 4, "character": "Wen (voice)", "credit_id": "5a24fe8ec3a3680b930d7023", "gender": 2, "id": 85337, "name": "Te-Sheng Wei", "order": 3, "profile_path": "/8249XnLg2N6pJu68dmam8esgGw7.jpg"}, {"cast_id": 5, "character": "Lin's father (voice)", "credit_id": "5a5b49a49251413f7701e2df", "gender": 2, "id": 1081519, "name": "Bor Jeng Chen", "order": 4, "profile_path": "/rO0CAWlNaiyKZixxxdqUWut0URg.jpg"}, {"cast_id": 6, "character": "Lin's mother (voice)", "credit_id": "5a5b49d59251413f7401dec8", "gender": 0, "id": 1697974, "name": "Liao Hui-Jen", "order": 5, "profile_path": null}], "crew": [{"credit_id": "5a5b63730e0a267fe602082d", "department": "Visual Effects", "gender": 0, "id": 1481881, "job": "Animation Director", "name": "Ta-Wei Chao", "profile_path": null}, {"credit_id": "5a24fd4b92514103290d9a91", "department": "Directing", "gender": 0, "id": 1934679, "job": "Director", "name": "Sung Hsin-Yin", "profile_path": null}, {"credit_id": "5a24fd60c3a3680b8d0d5075", "department": "Writing", "gender": 0, "id": 1934679, "job": "Writer", "name": "Sung Hsin-Yin", "profile_path": null}]}}