{"adult": false, "backdrop_path": "/iEEz8MabGY2lEMTX5BuCyU4svrM.jpg", "belongs_to_collection": null, "budget": 0, "genres": [{"id": 14, "name": "Fantasy"}, {"id": 12, "name": "Adventure"}, {"id": 10751, "name": "Family"}], "homepage": null, "id": 49082, "imdb_id": "tt0103621", "original_language": "en", "original_title": "Adventures in Dinosaur City", "overview": "A scientist's kids are sucked into a TV screen and wind up in the Stone Age with cavemen and dinosaurs.", "popularity": 3.353, "poster_path": "/5OIVYP27b10n7J2XGB4xp3q2hUd.jpg", "production_companies": [{"id": 1531, "logo_path": null, "name": "Smart Egg Pictures", "origin_country": "GB"}], "production_countries": [{"iso_3166_1": "US", "name": "United States of America"}], "release_date": "1991-08-28", "revenue": 0, "runtime": 88, "spoken_languages": [{"iso_639_1": "en", "name": "English"}], "status": "Released", "tagline": "Long Before There Were Turtles the World Was Ruled by Dinosaurs", "title": "Adventures in Dinosaur City", "video": false, "vote_average": 3.7, "vote_count": 12, "keywords": {"keywords": [{"id": 1930, "name": "kidnapping"}, {"id": 3822, "name": "teleportation"}, {"id": 4428, "name": "stone age"}, {"id": 6300, "name": "puppet"}, {"id": 10049, "name": "teen angst"}, {"id": 12616, "name": "dinosaur"}, {"id": 13008, "name": "train"}, {"id": 13130, "name": "teenager"}, {"id": 18165, "name": "animal"}]}, "similar": {"page": 1, "results": [{"adult": false, "backdrop_path": "/yIszPJawrrp6zcb62d7XJnaxAmw.jpg", "genre_ids": [18], "id": 13078, "original_language": "en", "original_title": "The Babysitters", "overview": "Seventeen-year-old Shirley is a good student who works as a babysitter in order to make money for college. One night Michael, a father Shirley works for, confesses he's unhappy with married life. Shirley has a crush on Michael, and seizes this moment to kiss him. Michael is so happy he presents Shirley with a big tip, which gives her an idea. Shirley plans to make extra money by setting up her teenage friends with other unhappy fathers.", "poster_path": "/nsrNUqGXI95unRKZEu8BJ584xWn.jpg", "release_date": "2007-09-11", "title": "The Babysitters", "video": false, "vote_average": 5.3, "vote_count": 153, "popularity": 15.673}, {"adult": false, "backdrop_path": "/4h6c98SPvXCfmZ0Qn5TaCZisy2K.jpg", "genre_ids": [53, 28, 9648], "id": 59965, "original_language": "en", "original_title": "Abduction", "overview": "A young man sets out to uncover the truth about his life after finding his baby photo on a missing persons website.", "poster_path": "/cUT6NQP5LAJpmUoStGtXmvNt4zA.jpg", "release_date": "2011-09-22", "title": "Abduction", "video": false, "vote_average": 5.8, "vote_count": 1958, "popularity": 17.954}, {"id": 248574, "video": false, "vote_count": 645, "vote_average": 5.7, "title": "Barely Lethal", "release_date": "2015-04-30", "original_language": "en", "original_title": "Barely Lethal", "genre_ids": [28, 12, 35], "backdrop_path": "/scoMZVgdqBM7vqZaEbhQXJd7jOL.jpg", "adult": false, "overview": "A 16-year-old international assassin yearning for a \"normal\" adolescence fakes her own death and enrolls as a senior in a suburban high school. She quickly learns that being popular can be more painful than getting water-boarded.", "poster_path": "/nJm0vGJVyELlQEzHRq22vi2JHbW.jpg", "popularity": 18.241}, {"id": 11887, "video": false, "vote_count": 2347, "vote_average": 6.5, "title": "High School Musical 3: Senior Year", "release_date": "2008-10-11", "original_language": "en", "original_title": "High School Musical 3: Senior Year", "genre_ids": [35, 18, 10402, 10749, 10751], "backdrop_path": "/daSGxGZL2nNjGZKkAF5ain3lmOx.jpg", "adult": false, "overview": "It's almost graduation day for high school seniors Troy, Gabriella, Sharpay, Chad, Ryan and Taylor \u2015 and the thought of heading off in separate directions after leaving East High has these Wildcats thinking they need to do something they'll remember forever. Together with the rest of the Wildcats, they stage a spring musical reflecting their hopes and fears about the future and their unforgettable experiences growing up together. But with graduation approaching and college plans in question, what will become of the dreams, romances, and friendships of East High's senior Wildcats?", "poster_path": "/ewZpH2QIfPQ0VIn9lPf7MHbLbl4.jpg", "popularity": 14.748}, {"adult": false, "backdrop_path": "/ncERp0UvXuImUeJcf27kEANcf1r.jpg", "genre_ids": [35, 10751, 10749], "id": 9880, "original_language": "en", "original_title": "The Princess Diaries", "overview": "A socially awkward but very bright 15-year-old girl being raised by a single mom discovers that she is the princess of a small European country because of the recent death of her long-absent father, who, unknown to her, was the crown prince of Genovia. She must make a choice between continuing the life of a San Francisco teen or stepping up to the throne.", "poster_path": "/sxpvHk286sXLJWcFrBMNIsXbYsd.jpg", "release_date": "2001-08-03", "title": "The Princess Diaries", "video": false, "vote_average": 6.8, "vote_count": 2861, "popularity": 30.076}, {"id": 346648, "video": false, "vote_count": 1053, "vote_average": 7.5, "title": "Paddington 2", "release_date": "2017-11-09", "original_language": "en", "original_title": "Paddington 2", "genre_ids": [12, 35, 10751], "backdrop_path": "/mxIrSooBPUoPBukIRFBxjYudQoT.jpg", "adult": false, "overview": "Paddington, now happily settled with the Browns, picks up a series of odd jobs to buy the perfect present for his Aunt Lucy, but it is stolen.", "poster_path": "/zuXMvSQq9F7H29qzuUm0qyUqw6m.jpg", "popularity": 19.613}, {"id": 325189, "video": false, "vote_count": 338, "vote_average": 6.5, "title": "Teen Beach 2", "release_date": "2015-06-26", "original_language": "en", "original_title": "Teen Beach 2", "genre_ids": [35, 14, 10751, 10770], "backdrop_path": "/x3cQd5rruj6jySg7dIHuNXT8REX.jpg", "adult": false, "overview": "When characters from the movie musical \u201cWet Side Story\u201d get stuck in the real world, teens Brady and Mack must find a way to return them home.", "poster_path": "/4A5Ecrvs6P8Yipjn4Xl2WYgu7Gm.jpg", "popularity": 24.718}, {"adult": false, "backdrop_path": "/bxPw6s61bG5Of19lp1E00n0dDWW.jpg", "genre_ids": [35, 18, 10751, 10402, 10770], "id": 10947, "original_language": "en", "original_title": "High School Musical", "overview": "Troy, the popular captain of the basketball team, and Gabriella, the brainy and beautiful member of the academic club, break all the rules of East High society when they secretly audition for the leads in the school's musical. As they reach for the stars and follow their dreams, everyone learns about acceptance, teamwork, and being yourself.", "poster_path": "/xMRBlTMMKDRJuK4IhwG5idrGHaS.jpg", "release_date": "2006-01-20", "title": "High School Musical", "video": false, "vote_average": 6.5, "vote_count": 2983, "popularity": 14.165}, {"id": 315635, "video": false, "vote_count": 13257, "vote_average": 7.4, "title": "Spider-Man: Homecoming", "release_date": "2017-07-05", "original_language": "en", "original_title": "Spider-Man: Homecoming", "genre_ids": [28, 12, 18, 878], "backdrop_path": "/vc8bCGjdVp0UbMNLzHnHSLRbBWQ.jpg", "adult": false, "overview": "Following the events of Captain America: Civil War, Peter Parker, with the help of his mentor Tony Stark, tries to balance his life as an ordinary high school student in Queens, New York City, with fighting crime as his superhero alter ego Spider-Man as a new threat, the Vulture, emerges.", "poster_path": "/c24sv2weTHPsmDa7jEMN0m2P3RT.jpg", "popularity": 43.075}, {"adult": false, "backdrop_path": "/by0WtpJ5UNxOy6ytIfPPTasbRoB.jpg", "genre_ids": [28, 12, 35, 18, 10751, 10402, 10749], "id": 17130, "original_language": "en", "original_title": "Crossroads", "overview": "Three friends get together and bury a box making a pact to open it at midnight at their high school graduation. In the little town in Georgia that they live in, things soon change. One is little miss perfect, one is an engaged prom queen, and the other is a pregnant outcast. The night of graduation, they open the box and they strike up a conversation. All of a sudden, one brings up the topic of her going to Los Angeles for a record contract audition. They all decide to go together and they leave. With a little money, they set out on the road with a guy named Ben. When one of them tells the other a rumor that he might be a homicidal maniac they are all scared of him. When they reach LA, Lucy falls in love with Ben and against her father's wishes, she stays and she goes to the audition.", "poster_path": "/egIs4cWxn0iBErFKrQ7STckjj49.jpg", "release_date": "2002-02-15", "title": "Crossroads", "video": false, "vote_average": 5.0, "vote_count": 334, "popularity": 14.197}, {"adult": false, "backdrop_path": "/2oG0ggdMliMDjenw00eSwZFypUp.jpg", "genre_ids": [35, 18], "id": 376660, "original_language": "en", "original_title": "The Edge of Seventeen", "overview": "Two high school girls are best friends until one dates the other's older brother, who is totally his sister's nemesis.", "poster_path": "/gxK80WUwkQePpXpzRdpob0i7DD5.jpg", "release_date": "2016-11-18", "title": "The Edge of Seventeen", "video": false, "vote_average": 7.2, "vote_count": 2517, "popularity": 17.267}, {"id": 888, "video": false, "vote_count": 1405, "vote_average": 5.2, "title": "The Flintstones", "release_date": "1994-05-26", "original_language": "en", "original_title": "The Flintstones", "genre_ids": [35, 14, 10751], "backdrop_path": "/vbWvWqZJiEiffj8xag0owDExRVg.jpg", "adult": false, "overview": "Modern Stone Age family the Flintstones hit the big screen in this live-action version of the classic cartoon. Fred helps Barney adopt a child. Barney sees an opportunity to repay him when Slate Mining tests its employees to find a new executive. But no good deed goes unpunished.", "poster_path": "/dnYXJZgstixBsOjF4JJrPCDRd2n.jpg", "popularity": 20.049}, {"adult": false, "backdrop_path": "/t3OZS8yMs0NL4YgWWc04eXHTn1X.jpg", "genre_ids": [28, 80, 53], "id": 984, "original_language": "en", "original_title": "Dirty Harry", "overview": "When a madman dubbed 'Scorpio' terrorizes San Francisco, hard-nosed cop, Harry Callahan \u2013 famous for his take-no-prisoners approach to law enforcement \u2013 is tasked with hunting down the psychopath. Harry eventually collars Scorpio in the process of rescuing a kidnap victim, only to see him walk on technicalities. Now, the maverick detective is determined to nail the maniac himself.", "poster_path": "/2TADKc4GMMPdMrLXj0xJVgTvZJM.jpg", "release_date": "1971-12-21", "title": "Dirty Harry", "video": false, "vote_average": 7.5, "vote_count": 1173, "popularity": 18.839}, {"id": 15144, "video": false, "vote_count": 1221, "vote_average": 6.8, "title": "Sixteen Candles", "release_date": "1984-05-04", "original_language": "en", "original_title": "Sixteen Candles", "genre_ids": [35, 10749], "backdrop_path": "/xCIgY4mUmO4tbDVlntym9PdZ9H8.jpg", "adult": false, "overview": "A teenage girl deals with her parents forgetting her birthday and a crush on her high school's heartthrob.", "poster_path": "/rzTrRQg5ek47Yl0Vfenc69r9gOd.jpg", "popularity": 29.228}, {"adult": false, "backdrop_path": "/5x0VEeFCnWzRBwU23KycKQRqEhN.jpg", "genre_ids": [10402, 35], "id": 15157, "original_language": "en", "original_title": "Another Cinderella Story", "overview": "A guy who danced with what could be the girl of his dreams at a costume ball only has one hint at her identity: the Zune she left behind as she rushed home in order to make her curfew. And with a once-in-a-lifetime opportunity in front of him, he sets out to find his masked beauty.", "poster_path": "/fLdCKCfHT8A6bnWybBsQFjC4fCo.jpg", "release_date": "2008-09-16", "title": "Another Cinderella Story", "video": false, "vote_average": 6.6, "vote_count": 1120, "popularity": 16.339}, {"id": 300669, "video": false, "vote_count": 4121, "vote_average": 6.9, "title": "Don't Breathe", "release_date": "2016-06-08", "original_language": "en", "original_title": "Don't Breathe", "genre_ids": [80, 27, 53], "backdrop_path": "/bCThHXQ3aLLDU3KFST0rC8mTan5.jpg", "adult": false, "overview": "A group of teens break into a blind man's home thinking they'll get away with the perfect crime. They're wrong.", "poster_path": "/lw0IqOSMsQcy1QnVIEIDppLmNwk.jpg", "popularity": 15.933}, {"id": 449176, "video": false, "vote_count": 3691, "vote_average": 8.1, "title": "Love, Simon", "release_date": "2018-02-16", "original_language": "en", "original_title": "Love, Simon", "genre_ids": [35, 18, 10749], "backdrop_path": "/rqMEeajyzSF4PpJtdCB816Iz8Vr.jpg", "adult": false, "overview": "Everyone deserves a great love story. But for seventeen-year old Simon Spier it's a little more complicated: he's yet to tell his family or friends he's gay and he doesn't know the identity of the anonymous classmate he's fallen for online.", "poster_path": "/5YUYg5q7QfC4IoNwNUtiwdiYKPr.jpg", "popularity": 17.201}, {"id": 272693, "video": false, "vote_count": 3249, "vote_average": 6.8, "title": "The DUFF", "release_date": "2015-02-20", "original_language": "en", "original_title": "The DUFF", "genre_ids": [35, 10749], "backdrop_path": "/awGZf5T1hflis9Z2KvRMhp798xU.jpg", "adult": false, "overview": "Bianca's universe turns upside down when she learns that her high school refers to her as a \u2018DUFF' (Designated Ugly Fat Friend). Hoping to erase that label, she enlists the help of a charming jock and her favorite teacher. Together they'll face the school's mean girl and remind everyone that we are all someone's DUFF\u2026 and that's totally fine.", "poster_path": "/dBBgPTCN5Zze4POXWVVpwf3wkra.jpg", "popularity": 17.232}, {"adult": false, "backdrop_path": "/tUSXZ37j0XpNtmOb5uwqogdcq7E.jpg", "genre_ids": [35, 18], "id": 2108, "original_language": "en", "original_title": "The Breakfast Club", "overview": "Five disparate high school students meet in Saturday detention, and discover they have a lot more in common than they thought.", "poster_path": "/4ZejrrCpfoypR5lHoT3pq6yVldW.jpg", "release_date": "1985-02-15", "title": "The Breakfast Club", "video": false, "vote_average": 7.8, "vote_count": 4906, "popularity": 22.032}, {"id": 502416, "video": false, "vote_count": 737, "vote_average": 5.6, "title": "Ma", "release_date": "2019-05-29", "original_language": "en", "original_title": "Ma", "genre_ids": [27], "backdrop_path": "/mBOv5YrX5QGr5CusK0PKSHuxOt9.jpg", "adult": false, "overview": "Sue Ann is a loner who keeps to herself in her quiet Ohio town. One day, she is asked by Maggie, a new teenager in town, to buy some booze for her and her friends, and Sue Ann sees the chance to make some unsuspecting, if younger, friends of her own.", "poster_path": "/6n7ASmQ1wY2cxTubFFGlcvPpyk7.jpg", "popularity": 14.313}], "total_pages": 13, "total_results": 257}, "recommendations": {"page": 1, "results": [{"id": 125059, "video": false, "vote_count": 11, "vote_average": 2.5, "title": "The Skateboard Kid", "release_date": "1993-01-01", "original_language": "en", "original_title": "The Skateboard Kid", "genre_ids": [35, 14, 10751], "backdrop_path": null, "adult": false, "overview": "No one could be more bored than Zack, the new kid in town with no friends in sight. When a gang of hip, skateboarding thrashers start cruising his neighborhood, Zack hopes his luck will change. But they want nothing to do with him. Then Zack makes the discovery of his life: a talking wisecracking, magical skateboard. And suddenly, skateboarding rises to entirely new heights. Written by Concorde - New Horizons.", "poster_path": "/tB6gfg4SH5ybIBK2YW773Oby5M8.jpg", "popularity": 2.024}, {"adult": false, "backdrop_path": "/idzNQd4qBEV7D4INsB2rvNGvwpD.jpg", "genre_ids": [], "id": 84211, "original_language": "en", "original_title": "Safety Patrol", "overview": "Scout Bozell has always dreamt of being on his school's Safety Patrol. The only reason he cannot join is because he is very clumsy. He's sent to another school because his old school would not let him become part of their Safety Patrol. But his new school does let him on the Safety Patrol.", "poster_path": "/4yorGDqYCzZeBDsbrW15LE09lzn.jpg", "release_date": "1998-03-29", "title": "Safety Patrol", "video": false, "vote_average": 4.0, "vote_count": 5, "popularity": 1.524}, {"adult": false, "backdrop_path": "/hJyzeokK3s4bblxdostCLh6mhfm.jpg", "genre_ids": [12, 10751, 14], "id": 125089, "original_language": "en", "original_title": "The Phoenix and the Magic Carpet", "overview": "Stuck in their late Grandfather's country cottage with no TV, Anthea, Robert and Chris are resigned to a boring week until they find a mouldy old carpet and a strange golden egg. But when the egg accidentally falls into the bonfire, it hatches into the mythical firebird, the Gloden Phoenix. So begins an amazing journey and the adventure of a lifetime, as the Phoenix takes them to a land of enchantment, magic and fantasy - via a magic flying carpet. Written by L.H. Wong", "poster_path": "/2BtdkHRVdBeIq8nWMlRZfOAC5L6.jpg", "release_date": "1995-11-21", "title": "The Phoenix and the Magic Carpet", "video": false, "vote_average": 4.8, "vote_count": 5, "popularity": 1.53}, {"id": 207451, "video": false, "vote_count": 10, "vote_average": 4.4, "title": "The Shaggy Dog", "release_date": "1994-11-12", "original_language": "en", "original_title": "The Shaggy Dog", "genre_ids": [], "backdrop_path": null, "adult": false, "overview": "Preteen Moochie Daniels just wants a dog, but his dad, Daniel, is allergic to canines, like Bundles, the shabby sheep dog of neighbor Charlie Mulvihill who secretly trained his pet to help him steal jewels. Mooch's big brother Wilbert 'Wilby' is smart, shy and a promising inventor, but hopelessly clumsy when it comes to girls, and is jealous of his slick mate Trey who has no problems. Desperate Wilby resorts to a spell from the ring of Lucrezia Borgia (he accidentally got from dad's museum of curiosities), which magically turns him into Bundles and back at uncontrollable times. This is how he also knows that the diamond on loan in his father's museum is Charlie's next target.", "poster_path": "/AaHZtm07jcyeUL31cjHOEoG9Ty6.jpg", "popularity": 4.404}, {"adult": false, "backdrop_path": "/fNw4pp95IXo2L3vY9WOL2Oovx46.jpg", "genre_ids": [10751], "id": 99754, "original_language": "en", "original_title": "The Pooch and the Pauper", "overview": "The bulldog Liberty (who's thoughts we're able to hear) is the \"First Dog of the USA\", i.e. the president's dog. As such he has a lot of representative duties, but also many privileges which made him snobby and condescending towards other dogs. But one day when the young Nataniel takes him for a walk, he's mixed up with the stray dog Moocher who looks like his identical twin. Henceforth Moocher takes Liberty's place in the White House. From now on a different spirit reigns in the White House", "poster_path": "/pesAk7LCEix3BHydrUQe2zc7SBm.jpg", "release_date": "2000-07-01", "title": "The Pooch and the Pauper", "video": false, "vote_average": 2.5, "vote_count": 8, "popularity": 2.816}, {"id": 69979, "video": false, "vote_count": 5, "vote_average": 3.8, "title": "Love Julinsee", "release_date": "2011-03-02", "original_language": "th", "original_title": "\u0e23\u0e31\u0e01\u0e21\u0e31\u0e19\u0e43\u0e2b\u0e0d\u0e48\u0e21\u0e32\u0e01", "genre_ids": [35, 10749], "backdrop_path": "/gVHrbNECQJpb0MdmYytoQGlpkEa.jpg", "adult": false, "overview": "A romantic about teenage love that sparks during a music festival. The film revolves around young people who find different experiences of love.", "poster_path": "/e3qZDF0Ludoro4sxN2HK0imaEIk.jpg", "popularity": 2.563}, {"adult": false, "backdrop_path": "/6pNnWpYcU8UEb5BcDk1TZz6qKNF.jpg", "genre_ids": [28, 35, 18, 10751], "id": 51268, "original_language": "en", "original_title": "The Ransom of Red Chief", "overview": "Two hoboes strike on a get-rich quick scheme to kidnap an overly-energetic 9 year old son of a local banker. Based on the classic story by O'Henry.", "poster_path": "/wah8Jq5ZKvFld07qYALG46sW2vH.jpg", "release_date": "1998-01-01", "title": "The Ransom of Red Chief", "video": false, "vote_average": 4.0, "vote_count": 6, "popularity": 3.809}, {"adult": false, "backdrop_path": "/mjGv8pDC8E3GiVReMqeeLwYdtYM.jpg", "genre_ids": [18, 10751], "id": 96715, "original_language": "en", "original_title": "Ruby Bridges", "overview": "The true story of Ruby Bridges, an African-American girl who, in 1960 at age 6, helped to integrate the all-white schools of New Orleans. Although she was the only black girl to come to the school she was sent to, (and since all the white mothers pulled their children out of class, she was the only one there, period), and though she faced a crowd of angry white citizens every day, she emerged unscathed, physically or emotionally. Encouraged by her teacher, a white woman from the North named Barbara Henry, and her mother, Lucille, and with her own quiet strength, she eventually broke down a century-old barrier forever, a pivotal moment in the civil-rights movement", "poster_path": "/9Hi2HrX1Ha2tSBdWbk6y7Vs7m1e.jpg", "release_date": "1998-01-18", "title": "Ruby Bridges", "video": false, "vote_average": 5.5, "vote_count": 7, "popularity": 2.556}, {"id": 70172, "video": false, "vote_count": 12, "vote_average": 4.8, "title": "Still Not Quite Human", "release_date": "1992-01-01", "original_language": "en", "original_title": "Still Not Quite Human", "genre_ids": [], "backdrop_path": null, "adult": false, "overview": "In the final film of the series, Chip and his \"father\" attend a robotics convention. Here, Dr. Carson is kidnapped and replaced by an android. Can Chip and his newfound friends save Dr. Carson from a dangerous competitor?", "poster_path": "/vCgTQetIXSNKF64h11jyfx6ZbOy.jpg", "popularity": 2.891}, {"adult": false, "backdrop_path": null, "genre_ids": [], "id": 45249, "original_language": "en", "original_title": "Not Quite Human II", "overview": "Chip, the android boy is back. This time, he is off to college, suffering from a computer virus and in love with Roberta, another android. Will there be a happy ending?", "poster_path": "/q8zKCS4Lwi7Yraij5yZAHPJFikF.jpg", "release_date": "1989-09-23", "title": "Not Quite Human II", "video": false, "vote_average": 6.1, "vote_count": 15, "popularity": 3.901}, {"adult": false, "backdrop_path": "/mEUZD8ZPfyQJp86jKJdeZGcFcJG.jpg", "genre_ids": [12, 10751, 14], "id": 239033, "original_language": "en", "original_title": "Escape to Witch Mountain", "overview": "The tale of two orphan twins with special powers who go looking for their origins. The two are hindered by an avaricious tycoon who only wants to exploit their abilities.", "poster_path": "/yZPPixfmUp7TZ7PVssFOmVzxLDh.jpg", "release_date": "1995-04-29", "title": "Escape to Witch Mountain", "video": false, "vote_average": 5.7, "vote_count": 27, "popularity": 7.085}, {"adult": false, "backdrop_path": "/2ycLYvxXczHpbTbsUGKDI1PDHbB.jpg", "genre_ids": [35], "id": 23134, "original_language": "en", "original_title": "Totally Awesome", "overview": "Do you prefer to wax on or wax off? Preacher won't let you dance? Well then, put Baby in the corner and come on down, 'cause VH1 is bringing back more of the'80s you love in this feature-length film, Totally Awesome. The Gundersons have just moved across the country and the kids - Charlie, Lori, and Max - are trying their best to acclimate themselves into a new school and all kinds of dilemmas therein: the need to dance, the pitfalls of young love, the quest for popularity, scientific genius and of course the quirky but loveable Japanese gardener. Totally Awesome takes all your favorite '80s-flick mainstays and weaves them into the biggest and baddest plotline ever conceived. Tot say it is radical would be an understatement.", "poster_path": "/9MMfOeSE5dJqXD6vBZVZk9kV6Uy.jpg", "release_date": "2006-11-07", "title": "Totally Awesome", "video": false, "vote_average": 5.3, "vote_count": 15, "popularity": 4.553}, {"adult": false, "backdrop_path": "/jM9nf0UNztxRFctxVxwcPRIKFrV.jpg", "genre_ids": [35, 878], "id": 3288, "original_language": "en", "original_title": "Frankenstein: The College Years", "overview": "When professor Lippzigger dies, his favorite student Mark inherits the key to his secret laboratory. There he and his friend Jay find the hundreds of years old body of Frankenstein - and revive it. But where to go with him? They take him with them to their dorms. He's dumb as a brick, but makes it into their football team and becomes popular. If there only wasn't Prof. Loman, who wants to become famous with Lipp's inventions...", "poster_path": "/f4oeKHJqUbS1cZ2OKs1Wt5QK4GK.jpg", "release_date": "1991-10-28", "title": "Frankenstein: The College Years", "video": false, "vote_average": 4.5, "vote_count": 12, "popularity": 5.9}, {"adult": false, "backdrop_path": "/dfDhMfdakvY4QgIdnyc7dgYcpig.jpg", "genre_ids": [], "id": 18188, "original_language": "en", "original_title": "Digby, the Biggest Dog in the World", "overview": "Digby consumes a bowl of Project X, a liquid growth formula. Soon, he becomes a sheepdog of gigantic size!", "poster_path": "/xkGcnsz72U3FhNARmhxcbZq9TJL.jpg", "release_date": "1973-12-01", "title": "Digby, the Biggest Dog in the World", "video": false, "vote_average": 4.5, "vote_count": 11, "popularity": 3.025}], "total_pages": 1, "total_results": 14}, "credits": {"cast": [{"cast_id": 0, "character": "Timmy", "credit_id": "559ee0d6c3a368081000258d", "gender": 2, "id": 65309, "name": "Omri Katz", "order": 0, "profile_path": "/4ohtjOAFLDghurBunwGlCKbRcjL.jpg"}, {"cast_id": 1, "character": "Jamie", "credit_id": "559ee1009251412db60024fc", "gender": 0, "id": 1485830, "name": "Tiffanie Poston", "order": 1, "profile_path": null}, {"cast_id": 2, "character": "Mick", "credit_id": "559ee14b925141300e001f2f", "gender": 0, "id": 1485831, "name": "Shawn Hoffman", "order": 2, "profile_path": null}, {"cast_id": 3, "character": "Link (as Pete Koch)", "credit_id": "559ee1739251412db20023d0", "gender": 2, "id": 1024264, "name": "Peter Koch", "order": 3, "profile_path": null}, {"cast_id": 5, "character": "Rex", "credit_id": "559ee1ce9251412dbe0022a6", "gender": 2, "id": 175938, "name": "Don Barnes", "order": 4, "profile_path": null}, {"cast_id": 6, "character": "Tops", "credit_id": "559ee1de9251412daf0023ac", "gender": 0, "id": 1485833, "name": "Marc Martorana", "order": 5, "profile_path": null}, {"cast_id": 7, "character": "Mr. Big", "credit_id": "559ee1fcc3a3680820002458", "gender": 2, "id": 99600, "name": "R.A. Mihailoff", "order": 6, "profile_path": "/8F1iz1pP9pltoIaSD1YiU884Kgk.jpg"}, {"cast_id": 9, "character": "Chanteuse", "credit_id": "559ee235925141300e001f54", "gender": 1, "id": 2174, "name": "Kimberly Beck", "order": 7, "profile_path": "/wt7KIBun88QLlxlXnPj7Tp9lwkB.jpg"}, {"cast_id": 11, "character": "Bear", "credit_id": "559ee270925141300e001f65", "gender": 0, "id": 1485834, "name": "Sebastian Massa", "order": 8, "profile_path": null}, {"cast_id": 22, "character": "Missy", "credit_id": "5acfc4739251417b5d000ef4", "gender": 1, "id": 1181951, "name": "Megan Hughes", "order": 9, "profile_path": null}, {"cast_id": 18, "character": "Rex / Mr. Big (voice) (as Patrick Labyerteaux)", "credit_id": "5a1741819251410336005a41", "gender": 2, "id": 114876, "name": "Patrick Labyorteaux", "order": 10, "profile_path": "/bpT1Xkowt0YpsntbytgddnWDT9Q.jpg"}, {"cast_id": 19, "character": "Gil", "credit_id": "5a1742010e0a264cc8005c80", "gender": 2, "id": 1219358, "name": "Steven Anderson", "order": 11, "profile_path": null}, {"cast_id": 20, "character": "Bigfoot", "credit_id": "5a17420ec3a3680b8f005ba7", "gender": 0, "id": 1213114, "name": "Jeffrey Asch", "order": 12, "profile_path": null}, {"cast_id": 21, "character": "Guard #1", "credit_id": "5a1742259251410329005d3d", "gender": 2, "id": 13592, "name": "Irwin Keyes", "order": 13, "profile_path": "/9xejxwb12zvNfvDNZkmlIdtQ9A0.jpg"}], "crew": [{"credit_id": "559ee353c3a3680814002179", "department": "Writing", "gender": 0, "id": 1485836, "job": "Screenplay", "name": "Wili Baronet", "profile_path": null}, {"credit_id": "559ee35fc3a368080c0024a0", "department": "Writing", "gender": 0, "id": 1485836, "job": "Story", "name": "Wili Baronet", "profile_path": null}, {"credit_id": "559ee370c3a36808100025ed", "department": "Directing", "gender": 0, "id": 940684, "job": "Director", "name": "Brett Thompson", "profile_path": null}]}}