{"adult": false, "backdrop_path": "/ev9v0MrfRRLVO2GUSwN5ZL8ifuu.jpg", "belongs_to_collection": null, "budget": 0, "genres": [{"id": 99, "name": "Documentary"}], "homepage": "http://www.fortyfps.com/perfect-bid-documentary.htm", "id": 491766, "imdb_id": "tt6854248", "original_language": "en", "original_title": "Perfect Bid: The Contestant Who Knew Too Much", "overview": "Maths teacher Ted Slauson became adept at recording and memorizing prices of products featured on the iconic game show The Price is Right, an obsession dating back to the show's inception in 1972. This passion and dedication for the show culminated in him helping a contestant place a perfect bid during a 2008 showcase, an innocent act that would create one of the biggest controversies in television industry history.", "popularity": 5.581, "poster_path": "/k0ZpJq0QyNyPqJz57DqyORqqrPt.jpg", "production_companies": [{"id": 98294, "logo_path": null, "name": "MK Ultra Productions", "origin_country": ""}, {"id": 93305, "logo_path": null, "name": "FortyFPS Productions", "origin_country": ""}], "production_countries": [{"iso_3166_1": "CA", "name": "Canada"}], "release_date": "2017-10-13", "revenue": 0, "runtime": 72, "spoken_languages": [{"iso_639_1": "en", "name": "English"}], "status": "Released", "tagline": "", "title": "Perfect Bid: The Contestant Who Knew Too Much", "video": false, "vote_average": 6.6, "vote_count": 36, "keywords": {"keywords": [{"id": 1523, "name": "obsession"}, {"id": 2136, "name": "television"}, {"id": 4325, "name": "game show"}, {"id": 9701, "name": "controversy"}]}, "similar": {"page": 1, "results": [{"adult": false, "backdrop_path": "/bYbnlh6VXFRtcSX82UMDsBDLB5j.jpg", "genre_ids": [18, 10749], "id": 28468, "original_language": "it", "original_title": "La chiave", "overview": "After twenty years of marriage, art professor Nino Rolfe attempts to break down his wife Teresa's conventional modesty. Noticing her affection for their daughter's fianc\u00e9, Nino instigates her sexual interest in him as well. This sets off a chain of unexpected events and emotional complications, as Nino and his unpredictable fascist daughter find that they both enjoy being jealous.", "poster_path": "/e6g2geNLgFzMbriH6EvSJZD78nx.jpg", "release_date": "1983-10-18", "title": "The Key", "video": false, "vote_average": 5.0, "vote_count": 128, "popularity": 15.363}, {"adult": false, "backdrop_path": "/u38489kflUhjQqj9Z4lhejGAYKb.jpg", "genre_ids": [99, 18], "id": 13917, "original_language": "en", "original_title": "The King", "overview": "The King is the story of Graham Kennedy, Australia's first and greatest home grown TV superstar. It traces his rise from working class Balaclava kid, through radio, TV, film, and back to TV again. It also tracks Kennedy's personal tragedies - the loneliness, the unrealised ambitions and the terrible pressures of being Australia's first homegrown superstar in the 1950s and 60s.", "poster_path": "/3UudwwytCwUkMgq9hTD3O1jteD0.jpg", "release_date": "2007-05-20", "title": "The King", "video": false, "vote_average": 0.0, "vote_count": 0, "popularity": 1.898}, {"adult": false, "backdrop_path": "/6Ae5hTEgmowsgKcotKTXvoiKlpt.jpg", "genre_ids": [36, 18], "id": 11450, "original_language": "en", "original_title": "Quiz Show", "overview": "Quiz Show is a 1994 American historical drama film which tells the true story of the Twenty One quiz show scandal of the 1950s.", "poster_path": "/yoGJo1h3Hl2exXPVcG9UXWDENtX.jpg", "release_date": "1994-08-25", "title": "Quiz Show", "video": false, "vote_average": 7.3, "vote_count": 477, "popularity": 13.508}, {"id": 482004, "video": false, "vote_count": 38, "vote_average": 7.9, "title": "Too Funny to Fail: The Life & Death of The Dana Carvey Show", "release_date": "2017-10-20", "original_language": "en", "original_title": "Too Funny to Fail: The Life & Death of The Dana Carvey Show", "genre_ids": [35, 99], "backdrop_path": "/xnRDoZo0KVAiaHsTkmfBXKbpToH.jpg", "adult": false, "overview": "It had all the makings of a huge television success:  a white-hot comic at the helm, a coveted primetime slot, and a pantheon of future comedy legends in the cast and crew. So why did The Dana Carvey Show\u2014with a writers room and cast including then unknowns Steve Carell, Stephen Colbert, Louis C.K., Robert Smigel, Charlie Kaufman, and more\u2014 crash and burn so spectacularly? TOO FUNNY TO FAIL tells the hilarious true story of a crew of genius misfits who set out to make comedy history\u2026 and succeeded in a way they never intended.", "poster_path": "/daOljc1BMtILw8XYQRcVu0bHObj.jpg", "popularity": 4.788}, {"id": 10774, "video": false, "vote_count": 816, "vote_average": 7.9, "title": "Network", "release_date": "1976-11-01", "original_language": "en", "original_title": "Network", "genre_ids": [18], "backdrop_path": "/pRMmLhZQncfvS44JelQyB078ZP2.jpg", "adult": false, "overview": "When veteran anchorman Howard Beale is forced to retire his 25-year post because of his age, he announces to viewers that he will kill himself during his farewell broadcast. Network executives rethink their decision when his fanatical tirade results in a spike in ratings.", "poster_path": "/qKcduPILUyZJsHWHGVwDF1CshUi.jpg", "popularity": 12.175}, {"adult": false, "backdrop_path": "/lI5h8KaoeObu4NMTwzeRuUHzRwD.jpg", "genre_ids": [18, 9648, 53], "id": 401898, "original_language": "no", "original_title": "Thelma", "overview": "A college student starts to experience extreme seizures. She soon learns that the violent episodes are a symptom of inexplicable abilities.", "poster_path": "/yzSfG8TLAqw7nMQh2lxirQkQpgs.jpg", "release_date": "2017-09-15", "title": "Thelma", "video": false, "vote_average": 7.1, "vote_count": 418, "popularity": 13.105}, {"id": 577, "video": false, "vote_count": 383, "vote_average": 6.6, "title": "To Die For", "release_date": "1995-09-22", "original_language": "en", "original_title": "To Die For", "genre_ids": [35, 80, 18], "backdrop_path": "/gx5X7KK3Uw2A81xuYxP4yXKHTkZ.jpg", "adult": false, "overview": "Suzanne Stone wants to be a world-famous news anchor and she is willing to do anything to get what she wants. What she lacks in intelligence, she makes up for in cold determination and diabolical wiles. As she pursues her goal with relentless focus, she is forced to destroy anything and anyone that may stand in her way, regardless of the ultimate cost or means necessary.", "poster_path": "/zCREx8trzejNieDLUsRuwLU0cS3.jpg", "popularity": 14.209}, {"id": 12531, "video": false, "vote_count": 91, "vote_average": 6.9, "title": "The Apartment", "release_date": "1996-07-27", "original_language": "fr", "original_title": "L'Appartement", "genre_ids": [18, 9648, 10749], "backdrop_path": "/64qyT8m4JQ6YODvXxtbHgKmXBX7.jpg", "adult": false, "overview": "A stylish suspense thriller that confounds the audience while presenting them with an extraordinary and elusive mystery. Max is a former playboy who has decided to settle down by marrying his current love, Muriel. However, during a business trip, Max catches a glimpse of the great lost love of his life, reviving his wanderlust and sending him off on a chase of the elusive Lisa, whom he had overheard suggesting to a friend that her lover, Daniel, had killed someone for her. Soon, Max is trying to unravel the mystery behind the suspicious death of Daniel's wife, which he hopes will lead him closer to Lisa.", "poster_path": "/1sqrQdQTn8jKLhUcPKfRVj639zA.jpg", "popularity": 19.17}, {"id": 10545, "video": false, "vote_count": 3018, "vote_average": 7.0, "title": "The Hunchback of Notre Dame", "release_date": "1996-06-21", "original_language": "en", "original_title": "The Hunchback of Notre Dame", "genre_ids": [16, 18, 10751], "backdrop_path": "/oslaee3VX9kJAjVezbjZKlEJDzn.jpg", "adult": false, "overview": "When Quasimodo defies the evil Frollo and ventures out to the Festival of Fools, the cruel crowd jeers him. Rescued by fellow outcast the gypsy Esmeralda, Quasi soon finds himself battling to save the people and the city he loves.", "poster_path": "/r7V92gY3AMO6li17MmGTixAnFcv.jpg", "popularity": 28.041}, {"id": 44214, "video": false, "vote_count": 9192, "vote_average": 7.6, "title": "Black Swan", "release_date": "2010-12-03", "original_language": "en", "original_title": "Black Swan", "genre_ids": [18, 27, 53], "backdrop_path": "/t8jFs6cOl1YVSfXXZivWtEb14tF.jpg", "adult": false, "overview": "A journey through the psyche of a young ballerina whose starring role as the duplicitous swan queen turns out to be a part for which she becomes frighteningly perfect.", "poster_path": "/dQ7uxvsVTspVIsqjfgQj8usJpwX.jpg", "popularity": 24.558}, {"adult": false, "backdrop_path": "/zwW7fzXQZF6r9fdl1C7V1gRQq73.jpg", "genre_ids": [28, 878, 53], "id": 865, "original_language": "en", "original_title": "The Running Man", "overview": "By 2017, the global economy has collapsed and American society has become a totalitarian police state, censoring all cultural activity. The government pacifies the populace by broadcasting a number of game shows in which convicted criminals fight for their lives, including the gladiator-style The Running Man, hosted by the ruthless Damon Killian, where \u201crunners\u201d attempt to evade \u201cstalkers\u201d and certain death for a chance to be pardoned and set free.", "poster_path": "/ni5PkWh3J3Zx4pVk5JYGTywZDqW.jpg", "release_date": "1987-11-13", "title": "The Running Man", "video": false, "vote_average": 6.5, "vote_count": 1244, "popularity": 19.566}, {"adult": false, "backdrop_path": "/7RRuRcGuWkZGuRyYugfXn0Fgrrr.jpg", "genre_ids": [28, 80, 18, 53], "id": 949, "original_language": "en", "original_title": "Heat", "overview": "Obsessive master thief, Neil McCauley leads a top-notch crew on various daring heists throughout Los Angeles while determined detective, Vincent Hanna pursues him without rest. Each man recognizes and respects the ability and the dedication of the other even though they are aware their cat-and-mouse game may end in violence.", "poster_path": "/6pmLVffM9jEYK7VqDJqPblMxfEY.jpg", "release_date": "1995-12-15", "title": "Heat", "video": false, "vote_average": 7.8, "vote_count": 3615, "popularity": 21.973}, {"id": 103, "video": false, "vote_count": 6109, "vote_average": 8.2, "title": "Taxi Driver", "release_date": "1976-02-07", "original_language": "en", "original_title": "Taxi Driver", "genre_ids": [80, 18], "backdrop_path": "/hjmJKAVoZ3n2KWbKgasbfdugwhu.jpg", "adult": false, "overview": "A mentally unstable Vietnam War veteran works as a night-time taxi driver in New York City where the perceived decadence and sleaze feed his urge for violent action, attempting to save a preadolescent prostitute in the process.", "poster_path": "/ekstpH614fwDX8DUln1a2Opz0N8.jpg", "popularity": 30.132}, {"id": 2976, "video": false, "vote_count": 1691, "vote_average": 6.6, "title": "Hairspray", "release_date": "2007-07-13", "original_language": "en", "original_title": "Hairspray", "genre_ids": [35, 18, 10749], "backdrop_path": "/yafOInYuEuK6FOw1oK40Lggp0TV.jpg", "adult": false, "overview": "Pleasantly plump teenager Tracy Turnblad auditions to be on Baltimore's most popular dance show - The Corny Collins Show - and lands a prime spot. Through her newfound fame, she becomes determined to help her friends and end the racial segregation that has been a staple of the show.", "poster_path": "/ndOpIx4BXpFCRRIxgMoGHxZxlE9.jpg", "popularity": 30.447}, {"adult": false, "backdrop_path": "/aIv7WnkxMWsswEpaeRuNbC32D9d.jpg", "genre_ids": [18, 10749], "id": 12405, "original_language": "en", "original_title": "Slumdog Millionaire", "overview": "Jamal Malik is an impoverished Indian teen who becomes a contestant on the Hindi version of \u2018Who Wants to Be a Millionaire?\u2019 but, after he wins, he is suspected of cheating.", "poster_path": "/ojgf8iJpS4VX6jJfWGLpuEx0wm.jpg", "release_date": "2008-05-12", "title": "Slumdog Millionaire", "video": false, "vote_average": 7.7, "vote_count": 6598, "popularity": 21.835}, {"id": 622, "video": false, "vote_count": 1606, "vote_average": 6.4, "title": "The Ninth Gate", "release_date": "1999-08-25", "original_language": "en", "original_title": "The Ninth Gate", "genre_ids": [27, 9648, 53], "backdrop_path": "/7ikpBrx2YZyVZxFS5YTZUZoyIJu.jpg", "adult": false, "overview": "An all-expenses-paid international search for a rare copy of the book, 'The Nine Gates of the Shadow Kingdom' brings an unscrupulous book dealer deep into a world of murder, double-dealing and satanic worship.", "poster_path": "/uamhDQBebdW3UQqOaVmma3yW8pm.jpg", "popularity": 21.277}, {"id": 244786, "video": false, "vote_count": 8873, "vote_average": 8.4, "title": "Whiplash", "release_date": "2014-10-10", "original_language": "en", "original_title": "Whiplash", "genre_ids": [18, 10402], "backdrop_path": "/6bbZ6XyvgfjhQwbplnUh1LSj1ky.jpg", "adult": false, "overview": "Under the direction of a ruthless instructor, a talented young drummer begins to pursue perfection at any cost, even his humanity.", "poster_path": "/lIv1QinFqz4dlp5U4lQ6HaiskOZ.jpg", "popularity": 43.002}, {"adult": false, "backdrop_path": "/xATZyEpnZ0Z0iO9z5K8RZsraGKI.jpg", "genre_ids": [878, 18], "id": 840, "original_language": "en", "original_title": "Close Encounters of the Third Kind", "overview": "After an encounter with UFOs, a line worker feels undeniably drawn to an isolated area in the wilderness where something spectacular is about to happen.", "poster_path": "/3Av8ZPiMrxFq9XiOjZl0tkoq9Oo.jpg", "release_date": "1977-11-16", "title": "Close Encounters of the Third Kind", "video": false, "vote_average": 7.4, "vote_count": 2289, "popularity": 38.059}, {"id": 8224, "video": false, "vote_count": 959, "vote_average": 6.2, "title": "8MM", "release_date": "1999-02-26", "original_language": "en", "original_title": "8MM", "genre_ids": [80, 9648, 53], "backdrop_path": "/7mg6NTzvqpMDHtatxA36jFhXvdT.jpg", "adult": false, "overview": "A small, seemingly innocuous plastic reel of film leads surveillance specialist Tom Welles down an increasingly dark and frightening path. With the help of the streetwise Max, he relentlessly follows a bizarre trail of evidence to determine the fate of a complete stranger. As his work turns into obsession, he drifts farther and farther away from his wife, family and simple life as a small-town PI.", "poster_path": "/oEgBIcIJb1Z5sperKxE8Pb4tTr0.jpg", "popularity": 20.587}, {"adult": false, "backdrop_path": "/kQOLgJGvFjQ7EwGfaPkW9dlGFXJ.jpg", "genre_ids": [27, 9648], "id": 565, "original_language": "en", "original_title": "The Ring", "overview": "It sounded like just another urban legend: A videotape filled with nightmarish images, leading to a phone call foretelling the viewer's death in exactly seven days. As a newspaper reporter, Rachel Keller was naturally skeptical of the story, until four teenagers all met with mysterious deaths exactly one week after watching just such a tape. Allowing her investigative curiosity to get the better of her, Rachel tracks down the video... and watches it. Now she has just seven days to unravel the mystery of the Ring.", "poster_path": "/zHJFdhqEXZJxG653oZvOM3PmNON.jpg", "release_date": "2002-10-18", "title": "The Ring", "video": false, "vote_average": 6.6, "vote_count": 3616, "popularity": 12.821}], "total_pages": 27, "total_results": 530}, "recommendations": {"page": 1, "results": [{"adult": false, "backdrop_path": "/cfCHc8Dq0WtLoZfcqlGMCjQg0or.jpg", "genre_ids": [35], "id": 590872, "original_language": "en", "original_title": "Nate Bargatze: The Tennessee Kid", "overview": "Comic Nate Bargatze touches on air travel, cheap weddings, college football, chocolate milk and the perils of ordering coffee in this stand-up special.", "poster_path": "/lOw31Itg7fybcviFG9pCoT4m6P3.jpg", "release_date": "2019-03-26", "title": "Nate Bargatze: The Tennessee Kid", "video": false, "vote_average": 7.5, "vote_count": 11, "popularity": 3.862}, {"adult": false, "backdrop_path": "/xJHyk5tfGNG8dJFV1id2aTdDLLk.jpg", "genre_ids": [99], "id": 157674, "original_language": "en", "original_title": "FrackNation", "overview": "FrackNation is a feature documentary that aims to address what the filmmakers say is misinformation about the process of hydraulic fracturing, commonly called fracking.", "poster_path": "/gB7my1v4FVi0a6fvn4f2aojNxTj.jpg", "release_date": "2013-01-07", "title": "FrackNation", "video": false, "vote_average": 6.2, "vote_count": 13, "popularity": 2.395}], "total_pages": 1, "total_results": 2}, "credits": {"cast": [{"cast_id": 0, "character": "Himself", "credit_id": "5a2c4c13c3a3680b8a13b12d", "gender": 0, "id": 1938024, "name": "Theodore Slauson", "order": 1, "profile_path": null}, {"cast_id": 2, "character": "Himself", "credit_id": "5a2c4c2e0e0a264cc814b242", "gender": 0, "id": 1228985, "name": "Roger Dobkowitz", "order": 3, "profile_path": null}, {"cast_id": 3, "character": "Himself", "credit_id": "5a2c4c43925141033614174d", "gender": 2, "id": 83349, "name": "Drew Carey", "order": 4, "profile_path": "/ycAtRqnn8uigqoUETnqjefD0a7w.jpg"}, {"cast_id": 4, "character": "Himself", "credit_id": "5a2c4c580e0a264cc814b26f", "gender": 2, "id": 7166, "name": "Kevin Pollak", "order": 5, "profile_path": "/kwu2T8CDnThZTzE88uiSgJ5eHXf.jpg"}, {"cast_id": 16, "character": "Himself", "credit_id": "5d3c6909a1d332000f0c39fe", "gender": 2, "id": 170802, "name": "Bob Barker", "order": 6, "profile_path": "/sGOsKHyYMUGStirI8ZwvA3IvoFP.jpg"}], "crew": [{"credit_id": "5a2c4c6bc3a3680b8f13f0b6", "department": "Directing", "gender": 2, "id": 544137, "job": "Director", "name": "C.J. Wallis", "profile_path": null}, {"credit_id": "5a2c4c7e0e0a264cd0140aad", "department": "Editing", "gender": 2, "id": 544137, "job": "Editor", "name": "C.J. Wallis", "profile_path": null}, {"credit_id": "5a2c4c8992514103301373a3", "department": "Production", "gender": 2, "id": 544137, "job": "Producer", "name": "C.J. Wallis", "profile_path": null}, {"credit_id": "5a2c4c97c3a3680b9613eda1", "department": "Production", "gender": 0, "id": 1938025, "job": "Producer", "name": "Mallory Kennedy", "profile_path": null}, {"credit_id": "5a2c4cb3c3a3680b88144661", "department": "Crew", "gender": 2, "id": 544137, "job": "Cinematography", "name": "C.J. Wallis", "profile_path": null}, {"credit_id": "5a2c4cd10e0a264cbc1465b9", "department": "Visual Effects", "gender": 2, "id": 544137, "job": "Animation", "name": "C.J. Wallis", "profile_path": null}, {"credit_id": "5a2c4d0ac3a3680b881446a8", "department": "Sound", "gender": 0, "id": 1938026, "job": "Sound Recordist", "name": "John B Sovie", "profile_path": null}, {"credit_id": "5a2c4d3f0e0a264ccd14431a", "department": "Sound", "gender": 0, "id": 1938027, "job": "Sound Mixer", "name": "Eric St Laurent", "profile_path": null}, {"credit_id": "5a2c4d570e0a264cbe13ca57", "department": "Sound", "gender": 2, "id": 544137, "job": "Sound Recordist", "name": "C.J. Wallis", "profile_path": null}, {"credit_id": "5a2c4d77925141033913efd2", "department": "Camera", "gender": 0, "id": 1938026, "job": "Camera Operator", "name": "John B Sovie", "profile_path": null}, {"credit_id": "5a2c4d870e0a264cc113ba32", "department": "Camera", "gender": 0, "id": 1938028, "job": "Grip", "name": "Tony Ramirez", "profile_path": null}]}}