{"adult": false, "backdrop_path": null, "belongs_to_collection": null, "budget": 500000, "genres": [{"id": 80, "name": "Crime"}, {"id": 18, "name": "Drama"}], "homepage": null, "id": 49235, "imdb_id": "tt0117724", "original_language": "en", "original_title": "Squeeze", "overview": "Ty, Hector, and Bao are close friends in a tough section of Boston, where they're called \"the PG-13 crew.\" They're 14, decent kids with few skills who've bailed out of school. A small gang of older tough guys, led by Marcus and Tommy, menace them, and when the PG-13s fight back and rob one of the gang, Marcus and Tommy vow to kill them. They seek protection from Derick, a drug dealer, who agrees to help if they'll sell drugs. Meanwhile, Ty is recruited to work at a community center by J.J., its quiet leader. Ty and his friends are in a squeeze: surrounded by violence, drugs, and no opportunities, is there any way out?", "popularity": 1.786, "poster_path": "/iifSS4xn1rnkYhICYXUwbF3BF5h.jpg", "production_companies": [], "production_countries": [], "release_date": "1997-06-06", "revenue": 10300, "runtime": 95, "spoken_languages": [], "status": "Released", "tagline": "Only the strong survive these streets.", "title": "Squeeze", "video": false, "vote_average": 6.0, "vote_count": 2, "keywords": {"keywords": [{"id": 10183, "name": "independent film"}]}, "similar": {"page": 1, "results": [{"adult": false, "backdrop_path": "/kQyeXce1ozYryHichnEserMAByN.jpg", "genre_ids": [28, 80, 18, 53], "id": 11564, "original_language": "en", "original_title": "Class of 1984", "overview": "Andy is a new teacher at a inner city high school that is like nothing he has ever seen before. There is metal detectors at the front door and everything is basically run by a tough kid named Peter Stegman. Soon, Andy and Stegman become enemies and Stegman will stop at nothing to protect his turf and drug dealing business.", "poster_path": "/whDnqSYg4yYgVzbVhLSjzC5piUR.jpg", "release_date": "1982-08-20", "title": "Class of 1984", "video": false, "vote_average": 6.2, "vote_count": 121, "popularity": 9.407}, {"id": 4638, "video": false, "vote_count": 4426, "vote_average": 7.5, "title": "Hot Fuzz", "release_date": "2007-02-14", "original_language": "en", "original_title": "Hot Fuzz", "genre_ids": [28, 35, 80], "backdrop_path": "/zuskekrfW3gj9ttXNVhfdHe5n22.jpg", "adult": false, "overview": "As a former London constable, Nicholas Angel finds it difficult to adapt to his new assignment in the sleepy British village of Sandford. Not only does he miss the excitement of the big city, but he also has a well-meaning oaf for a partner. However, when a series of grisly accidents rocks Sandford, Angel smells something rotten in the idyllic village.", "poster_path": "/5Jx6s6VXnunh8wCLgR0YgjwSgjh.jpg", "popularity": 25.234}, {"id": 949, "video": false, "vote_count": 3610, "vote_average": 7.8, "title": "Heat", "release_date": "1995-12-15", "original_language": "en", "original_title": "Heat", "genre_ids": [28, 80, 18, 53], "backdrop_path": "/7RRuRcGuWkZGuRyYugfXn0Fgrrr.jpg", "adult": false, "overview": "Obsessive master thief, Neil McCauley leads a top-notch crew on various daring heists throughout Los Angeles while determined detective, Vincent Hanna pursues him without rest. Each man recognizes and respects the ability and the dedication of the other even though they are aware their cat-and-mouse game may end in violence.", "poster_path": "/6pmLVffM9jEYK7VqDJqPblMxfEY.jpg", "popularity": 21.48}, {"adult": false, "backdrop_path": "/2Tawvc0JMmR9nBXD3nhBThTQP2X.jpg", "genre_ids": [53, 18, 80, 27], "id": 1359, "original_language": "en", "original_title": "American Psycho", "overview": "A wealthy New York investment banking executive hides his alternate psychopathic ego from his co-workers and friends as he escalates deeper into his illogical, gratuitous fantasies.", "poster_path": "/qXsylPM4Lr5397R3eHrfqHhTUNc.jpg", "release_date": "2000-04-13", "title": "American Psycho", "video": false, "vote_average": 7.4, "vote_count": 4911, "popularity": 20.069}, {"id": 101, "video": false, "vote_count": 8645, "vote_average": 8.3, "title": "L\u00e9on: The Professional", "release_date": "1994-09-14", "original_language": "en", "original_title": "L\u00e9on: The Professional", "genre_ids": [28, 80, 18], "backdrop_path": "/dXQ7HILRK1Tg33RT64JwbQI7Osh.jpg", "adult": false, "overview": "L\u00e9on, the top hit man in New York, has earned a rep as an effective \"cleaner\". But when his next-door neighbors are wiped out by a loose-cannon DEA agent, he becomes the unwilling custodian of 12-year-old Mathilda. Before long, Mathilda's thoughts turn to revenge, and she considers following in L\u00e9on's footsteps.", "poster_path": "/gE8S02QUOhVnAmYu4tcrBlMTujz.jpg", "popularity": 42.005}, {"id": 83542, "video": false, "vote_count": 4860, "vote_average": 6.8, "title": "Cloud Atlas", "release_date": "2012-10-26", "original_language": "en", "original_title": "Cloud Atlas", "genre_ids": [18, 878], "backdrop_path": "/2ZA03KiD4jePTNBTJjGGFTNQPMA.jpg", "adult": false, "overview": "A set of six nested stories spanning time between the 19th century and a distant post-apocalyptic future. Cloud Atlas explores how the actions and consequences of individual lives impact one another throughout the past, the present and the future. Action, mystery and romance weave through the story as one soul is shaped from a killer into a hero and a single act of kindness ripples across centuries to inspire a revolution in the distant future.  Based on the award winning novel by David Mitchell. Directed by Tom Tykwer and the Wachowskis.", "poster_path": "/8VNiyIp67ZxhpNgdrwACW0jgvP2.jpg", "popularity": 16.718}, {"adult": false, "backdrop_path": "/s12HEmmkJfI2mjltI61hGm5kubD.jpg", "genre_ids": [35, 18, 10749], "id": 20770, "original_language": "en", "original_title": "But I'm a Cheerleader", "overview": "Megan is an all-American girl. A cheerleader. She has a boyfriend. But Megan doesn't like kissing her boyfriend very much. And she's pretty touchy with her cheerleader friends. Her conservative parents worry that she must be a lesbian and send her off to \"sexual redirection\" school, where she must, with other lesbians and gays learn how to be straight.", "poster_path": "/eDGH7CHSdkrYcuUJV1e0WS9DlQL.jpg", "release_date": "1999-12-09", "title": "But I'm a Cheerleader", "video": false, "vote_average": 6.8, "vote_count": 246, "popularity": 10.067}, {"id": 298312, "video": false, "vote_count": 2921, "vote_average": 6.2, "title": "The Visit", "release_date": "2015-09-10", "original_language": "en", "original_title": "The Visit", "genre_ids": [27, 9648, 53], "backdrop_path": "/gbJlEeALVGo7kx8bC2q4EFWX1Xy.jpg", "adult": false, "overview": "The terrifying story of a brother and sister who are sent to their grandparents' remote Pennsylvania farm for a weeklong trip. Once the children discover that the elderly couple is involved in something deeply disturbing, they see their chances of getting back home are growing smaller every day.", "poster_path": "/32tNtTEQ1vIOLm1hEOSFkVwJT5D.jpg", "popularity": 20.148}, {"adult": false, "backdrop_path": "/9e5e7dJTMxQeF7zNx0CiJmxXE1I.jpg", "genre_ids": [27, 878, 53], "id": 11309, "original_language": "en", "original_title": "Hardware", "overview": "Mark 13 is a government-built killing machine programmed with artificial intelligence, able to repair and recharge itself from any energy source. Through a series of coincidences, the cyborg's head ends up in the home of a sculptress as a bizarre Christmas present from her boyfriend. Once inside its new home, the cyborg promptly reconstructs the rest of its body using a variety of household utensils and proceeds to go on a murderous rampage.", "poster_path": "/nsFm5xniViTVr1oVUpKmgvlAOEA.jpg", "release_date": "1990-09-14", "title": "Hardware", "video": false, "vote_average": 5.7, "vote_count": 145, "popularity": 11.259}, {"id": 317744, "video": false, "vote_count": 244, "vote_average": 6.0, "title": "Careful What You Wish For", "release_date": "2015-05-06", "original_language": "en", "original_title": "Careful What You Wish For", "genre_ids": [18, 53], "backdrop_path": "/7PAQ85UXQ9IhZ5ZJIC1uC0h6PZK.jpg", "adult": false, "overview": "A guy gets more than he bargained for after entering into an affair with the wife of an investment banker. Soon, a suspicious death and substantial life insurance policy embroil him in a scandal.", "poster_path": "/hQCLtJaGcEWLp7zKECnC3cy8W4i.jpg", "popularity": 13.897}, {"adult": false, "backdrop_path": "/oni8CXvEg56JhrfVdVUrQYOuhP0.jpg", "genre_ids": [80, 28, 53], "id": 55846, "original_language": "en", "original_title": "Blitz", "overview": "A tough, renegade cop with a gay sidekick is dispatched to take down a serial killer who has been targeting police officers.", "poster_path": "/woY0qY4DR6bPOQ7cBwyblePsYky.jpg", "release_date": "2011-05-20", "title": "Blitz", "video": false, "vote_average": 6.0, "vote_count": 861, "popularity": 20.522}, {"adult": false, "backdrop_path": "/lcB6jRNms95ySvVTCaH8pdFJq4j.jpg", "genre_ids": [80, 18, 53], "id": 22323, "original_language": "en", "original_title": "The Boys Next Door", "overview": "Roy and Bo leave their small town the weekend after graduation for a short road trip to LA. Soon, they find themselves lashing out and leaving a trial of bodies behind them. The violence escalates throughout.", "poster_path": "/pnLU9z0fLIzIRa35ULIvlQAAwho.jpg", "release_date": "1985-10-01", "title": "The Boys Next Door", "video": false, "vote_average": 6.3, "vote_count": 28, "popularity": 5.945}, {"id": 185, "video": false, "vote_count": 7609, "vote_average": 8.2, "title": "A Clockwork Orange", "release_date": "1971-12-18", "original_language": "en", "original_title": "A Clockwork Orange", "genre_ids": [18, 878], "backdrop_path": "/unMc1jEyqCnzba976GviSFKGagt.jpg", "adult": false, "overview": "In a near-future Britain, young Alexander DeLarge and his pals get their kicks beating and raping anyone they please. When not destroying the lives of others, Alex swoons to the music of Beethoven. The state, eager to crack down on juvenile crime, gives an incarcerated Alex the option to undergo an invasive procedure that'll rob him of all personal agency. In a time when conscience is a commodity, can Alex change his tune?", "poster_path": "/4sHeTAp65WrSSuc05nRBKddhBxO.jpg", "popularity": 24.413}, {"adult": false, "backdrop_path": "/20IgqkdFw5kuItqDCJtidSESP0t.jpg", "genre_ids": [27, 18], "id": 10066, "original_language": "en", "original_title": "House of Wax", "overview": "A group of unwitting teens are stranded near a strange wax museum and soon must fight to survive and keep from becoming the next exhibit.", "poster_path": "/uM1RebQywM5PPYsauayefpXGxVk.jpg", "release_date": "2005-04-30", "title": "House of Wax", "video": false, "vote_average": 5.7, "vote_count": 1531, "popularity": 21.972}, {"adult": false, "backdrop_path": "/caLMOD3ZJ3V7qjlxDXrzlJfBLgD.jpg", "genre_ids": [18, 10749], "id": 20, "original_language": "en", "original_title": "My Life Without Me", "overview": "A Pedro Almodovar production in which a fatally ill mother with only two months to live creates a list of things she wants to do before she dies with out telling her family of her illness.", "poster_path": "/vVj92VBFUBzjqzLvBiPVVlJDp78.jpg", "release_date": "2003-03-07", "title": "My Life Without Me", "video": false, "vote_average": 6.1, "vote_count": 220, "popularity": 9.208}, {"id": 9813, "video": false, "vote_count": 128, "vote_average": 6.1, "title": "The Quiet", "release_date": "2005-09-12", "original_language": "en", "original_title": "The Quiet", "genre_ids": [18, 53], "backdrop_path": "/6eyWAZA4CEidZW1xXnQ4vlYBXTP.jpg", "adult": false, "overview": "After her widowed father dies, deaf teenager Dot moves in with her godparents, Olivia and Paul Deer. The Deers' daughter, Nina, is openly hostile to Dot, but that does not prevent her from telling her secrets to her silent stepsister, including the fact that she wants to kill her lecherous father.", "poster_path": "/GEqIE9YlmygHVUfS64LW2cwAAM.jpg", "popularity": 13.948}, {"adult": false, "backdrop_path": "/8nvayG5l0urcjvvpszoECDqLWzD.jpg", "genre_ids": [18, 53, 80, 9648], "id": 186, "original_language": "en", "original_title": "Lucky Number Slevin", "overview": "Slevin is mistakenly put in the middle of a personal war between the city\u2019s biggest criminal bosses. Under constant watch, Slevin must try not to get killed by an infamous assassin and come up with an idea of how to get out of his current dilemma. A film with many twists and turns.", "poster_path": "/jtKq0EtothAzWlnRBBWGCA8uFuu.jpg", "release_date": "2006-02-24", "title": "Lucky Number Slevin", "video": false, "vote_average": 7.5, "vote_count": 2480, "popularity": 17.523}, {"id": 521, "video": false, "vote_count": 1257, "vote_average": 8.0, "title": "Dial M for Murder", "release_date": "1954-05-29", "original_language": "en", "original_title": "Dial M for Murder", "genre_ids": [80, 18, 9648, 53], "backdrop_path": "/jVMlfESb0TJ29w8CUDDofEprMmn.jpg", "adult": false, "overview": "An ex-tennis pro carries out a plot to have his wife murdered after discovering she is having an affair, and assumes she will soon leave him for the other man anyway. When things go wrong, he improvises a new plan\u2014to frame her for murder instead.", "poster_path": "/xrpK1PyckNWmRxU4kZURfaCyboS.jpg", "popularity": 34.566}, {"id": 75780, "video": false, "vote_count": 4450, "vote_average": 6.4, "title": "Jack Reacher", "release_date": "2012-12-20", "original_language": "en", "original_title": "Jack Reacher", "genre_ids": [28, 80, 18, 53], "backdrop_path": "/ezXodpP429qK0Av89pVNlaXWJkQ.jpg", "adult": false, "overview": "When a gunman takes five lives with six shots, all evidence points to the suspect in custody. On interrogation, the suspect offers up a single note: \"Get Jack Reacher!\" So begins an extraordinary chase for the truth, pitting Jack Reacher against an unexpected enemy, with a skill for violence and a secret to keep.", "poster_path": "/mt0ELw83HIRgaKaDzhsDcIi0RnW.jpg", "popularity": 19.929}, {"id": 205596, "video": false, "vote_count": 11343, "vote_average": 8.1, "title": "The Imitation Game", "release_date": "2014-11-14", "original_language": "en", "original_title": "The Imitation Game", "genre_ids": [18, 36, 53, 10752], "backdrop_path": "/qcb6z1HpokTOKdjqDTsnjJk0Xvg.jpg", "adult": false, "overview": "Based on the real life story of legendary cryptanalyst Alan Turing, the film portrays the nail-biting race against time by Turing and his brilliant team of code-breakers at Britain's top-secret Government Code and Cypher School at Bletchley Park, during the darkest days of World War II.", "poster_path": "/noUp0XOqIcmgefRnRZa1nhtRvWO.jpg", "popularity": 40.743}], "total_pages": 1097, "total_results": 21925}, "recommendations": {"page": 1, "results": [], "total_pages": 1, "total_results": 0}, "credits": {"cast": [{"cast_id": 1, "character": "Tyson", "credit_id": "52fe478cc3a36847f813b93b", "gender": 2, "id": 141910, "name": "Tyrone Burton", "order": 0, "profile_path": null}, {"cast_id": 2, "character": "Hector", "credit_id": "52fe478cc3a36847f813b93f", "gender": 2, "id": 141911, "name": "Eddie Cutanda", "order": 1, "profile_path": null}, {"cast_id": 3, "character": "Bao", "credit_id": "52fe478cc3a36847f813b943", "gender": 2, "id": 141912, "name": "Phuong Duong", "order": 2, "profile_path": null}, {"cast_id": 4, "character": "JJ", "credit_id": "52fe478cc3a36847f813b947", "gender": 2, "id": 141913, "name": "Geoffrey Rhue", "order": 3, "profile_path": null}, {"cast_id": 5, "character": "Tommy", "credit_id": "52fe478cc3a36847f813b94b", "gender": 2, "id": 21709, "name": "Russell G. Jones", "order": 4, "profile_path": "/qvRdF3WMMp3ioaFca8yeAQJMqG1.jpg"}, {"cast_id": 6, "character": "Marcus", "credit_id": "52fe478cc3a36847f813b94f", "gender": 2, "id": 141914, "name": "Leigh Williams", "order": 5, "profile_path": null}, {"cast_id": 7, "character": "Uzi", "credit_id": "52fe478cc3a36847f813b953", "gender": 0, "id": 141915, "name": "Robert Agredo", "order": 6, "profile_path": null}, {"cast_id": 8, "character": "Derick", "credit_id": "52fe478cc3a36847f813b957", "gender": 2, "id": 141916, "name": "Beresford Bennett", "order": 7, "profile_path": "/xahMiplzOY0sW5tijfIuXWAMiOF.jpg"}, {"cast_id": 9, "character": "Lisa", "credit_id": "52fe478cc3a36847f813b95b", "gender": 0, "id": 141917, "name": "Jennifer Maxcy", "order": 8, "profile_path": null}, {"cast_id": 10, "character": "Fiend", "credit_id": "52fe478cc3a36847f813b95f", "gender": 0, "id": 141918, "name": "Harlem Logan", "order": 9, "profile_path": null}, {"cast_id": 11, "character": "Aunt C", "credit_id": "52fe478cc3a36847f813b963", "gender": 1, "id": 141919, "name": "Diane Beckett", "order": 10, "profile_path": null}, {"cast_id": 12, "character": "Pearl", "credit_id": "52fe478cc3a36847f813b967", "gender": 0, "id": 141920, "name": "Ingrid Askew", "order": 11, "profile_path": null}, {"cast_id": 13, "character": "Psychiatrist", "credit_id": "52fe478cc3a36847f813b96b", "gender": 0, "id": 141921, "name": "James Spruill", "order": 12, "profile_path": null}, {"cast_id": 14, "character": "Jason (as William Butler)", "credit_id": "52fe478cc3a36847f813b96f", "gender": 2, "id": 141922, "name": "William K. Butler", "order": 13, "profile_path": null}, {"cast_id": 15, "character": "Mason", "credit_id": "52fe478cc3a36847f813b973", "gender": 0, "id": 141923, "name": "Daryl Bugg", "order": 14, "profile_path": null}, {"cast_id": 16, "character": "Tisha", "credit_id": "52fe478cc3a36847f813b977", "gender": 0, "id": 141924, "name": "Maleah Liggins", "order": 15, "profile_path": null}, {"cast_id": 17, "character": "Pinky", "credit_id": "52fe478cc3a36847f813b97b", "gender": 0, "id": 141925, "name": "Pinky Lugo", "order": 16, "profile_path": null}, {"cast_id": 18, "character": "Angela", "credit_id": "52fe478cc3a36847f813b97f", "gender": 0, "id": 141926, "name": "Milagros Jones", "order": 17, "profile_path": null}, {"cast_id": 19, "character": "Cat Fighter", "credit_id": "52fe478cc3a36847f813b983", "gender": 0, "id": 141927, "name": "Catherine Oberg", "order": 18, "profile_path": null}, {"cast_id": 20, "character": "Bad Kid #1", "credit_id": "52fe478cc3a36847f813b987", "gender": 0, "id": 141928, "name": "Sean Henderson", "order": 19, "profile_path": null}, {"cast_id": 21, "character": "Bad Kid #2", "credit_id": "52fe478cc3a36847f813b98b", "gender": 2, "id": 141929, "name": "Johnny Henderson", "order": 20, "profile_path": null}, {"cast_id": 22, "character": "Woman In Car #1", "credit_id": "52fe478cc3a36847f813b98f", "gender": 0, "id": 141930, "name": "Lynda Patton", "order": 21, "profile_path": null}, {"cast_id": 23, "character": "Woman In Car #2", "credit_id": "52fe478cc3a36847f813b993", "gender": 0, "id": 141931, "name": "Georgette Leslie", "order": 22, "profile_path": null}, {"cast_id": 24, "character": "Police Officer", "credit_id": "52fe478cc3a36847f813b997", "gender": 2, "id": 141932, "name": "Bruce-Robert Serafin", "order": 23, "profile_path": "/vIXgI9dVdT5AuzUxNoHvjU2n2im.jpg"}, {"cast_id": 25, "character": "Gas Station Attendent", "credit_id": "52fe478cc3a36847f813b99b", "gender": 0, "id": 141933, "name": "Gerry Nuzollo", "order": 24, "profile_path": null}, {"cast_id": 26, "character": "Marrisa", "credit_id": "52fe478cc3a36847f813b99f", "gender": 1, "id": 141934, "name": "Jessica Edwards", "order": 25, "profile_path": "/vIbtfCvIGjmb5eODjAH53x1Pc0j.jpg"}, {"cast_id": 27, "character": "Julio", "credit_id": "52fe478cc3a36847f813b9a3", "gender": 2, "id": 138322, "name": "Victor Nunez", "order": 26, "profile_path": null}, {"cast_id": 28, "character": "Dorrman", "credit_id": "52fe478cc3a36847f813b9a7", "gender": 0, "id": 141935, "name": "Alfredo Rivera", "order": 27, "profile_path": null}, {"cast_id": 29, "character": "Man With Burning Book", "credit_id": "52fe478cc3a36847f813b9ab", "gender": 0, "id": 141936, "name": "John Bonaparte", "order": 28, "profile_path": null}, {"cast_id": 30, "character": "Youth Center Receptionist", "credit_id": "52fe478cc3a36847f813b9af", "gender": 0, "id": 141937, "name": "Juanita Rodriguez", "order": 29, "profile_path": null}, {"cast_id": 31, "character": "Female Youth Worker", "credit_id": "52fe478cc3a36847f813b9b3", "gender": 0, "id": 141938, "name": "Monique Douglas", "order": 30, "profile_path": null}, {"cast_id": 32, "character": "Girl With Rake #1", "credit_id": "52fe478cc3a36847f813b9b7", "gender": 0, "id": 141939, "name": "Sparkle Henderson", "order": 31, "profile_path": null}, {"cast_id": 33, "character": "Girl With Rake #2", "credit_id": "52fe478cc3a36847f813b9bb", "gender": 0, "id": 141940, "name": "Nicole Kelly", "order": 32, "profile_path": null}, {"cast_id": 34, "character": "Girl With Rake #3", "credit_id": "52fe478cc3a36847f813b9bf", "gender": 0, "id": 141941, "name": "Melissa Khomblassen", "order": 33, "profile_path": null}, {"cast_id": 35, "character": "Barber #1", "credit_id": "52fe478cc3a36847f813b9c3", "gender": 0, "id": 141942, "name": "Aaron Stewart", "order": 34, "profile_path": null}, {"cast_id": 36, "character": "Barber #2", "credit_id": "52fe478cc3a36847f813b9c7", "gender": 0, "id": 141943, "name": "Roy J. Lynch", "order": 35, "profile_path": null}, {"cast_id": 37, "character": "Hospital Patient (as Max Cutler)", "credit_id": "52fe478cc3a36847f813b9cb", "gender": 0, "id": 141944, "name": "Maximillian Cutler", "order": 36, "profile_path": null}], "crew": [{"credit_id": "52fe478cc3a36847f813b9d1", "department": "Directing", "gender": 2, "id": 563363, "job": "Director", "name": "Robert Patton-Spruill", "profile_path": null}]}}