{"adult": false, "backdrop_path": "/hD69Qot8j7GzoTb4MIFUBH2U0K.jpg", "belongs_to_collection": null, "budget": 0, "genres": [{"id": 99, "name": "Documentary"}], "homepage": "http://www.generation-wealth.com/", "id": 493014, "imdb_id": "tt5268348", "original_language": "en", "original_title": "Generation Wealth", "overview": "Over the past 25 years, Lauren Greenfield's documentary photography and film projects have explored youth culture, gender, body image, and affluence. In this fascinating meld of career retrospective and film essay, Greenfield offers a meditation on her extensive body of work, structuring it through the lens of materialism and its increasing sway on culture and society in America and throughout the world. Underscoring the ever-increasing gap between the haves and the have-nots, her portraits reveal a focus on cultivating image over substance, where subjects unable to attain actual wealth instead settle for its trappings, no matter their ability to pay for it.", "popularity": 5.499, "poster_path": "/lMTdKAKTrZqHZ2t6Cnit0SBAcbz.jpg", "production_companies": [{"id": 47940, "logo_path": null, "name": "Evergreen Pictures", "origin_country": ""}], "production_countries": [{"iso_3166_1": "US", "name": "United States of America"}], "release_date": "2018-07-20", "revenue": 0, "runtime": 110, "spoken_languages": [{"iso_639_1": "en", "name": "English"}], "status": "Released", "tagline": "The American dream just keeps getting more expensive.", "title": "Generation Wealth", "video": false, "vote_average": 7.1, "vote_count": 29, "keywords": {"keywords": [{"id": 592, "name": "capitalism"}, {"id": 3431, "name": "materialism"}, {"id": 10907, "name": "consumerism"}, {"id": 256556, "name": "late stage capitalism"}]}, "similar": {"page": 1, "results": [{"adult": false, "backdrop_path": "/4HA3MLBmTf0sDqnw4BZlVDiOwG5.jpg", "genre_ids": [99], "id": 44639, "original_language": "en", "original_title": "Inside Job", "overview": "A film that exposes the shocking truth behind the economic crisis of 2008. The global financial meltdown, at a cost of over $20 trillion, resulted in millions of people losing their homes and jobs. Through extensive research and interviews with major financial insiders, politicians and journalists, Inside Job traces the rise of a rogue industry and unveils the corrosive relationships which have corrupted politics, regulation and academia.", "poster_path": "/gy1CzwHUrb46gou2NO0wkjNFO6f.jpg", "release_date": "2010-10-08", "title": "Inside Job", "video": false, "vote_average": 7.8, "vote_count": 506, "popularity": 10.752}, {"adult": false, "backdrop_path": "/jkpTcreM7YOUF4RaDTgTAy9aMJZ.jpg", "genre_ids": [99], "id": 13020, "original_language": "en", "original_title": "Enron: The Smartest Guys in the Room", "overview": "A documentary about the Enron corporation, its faulty and corrupt business practices, and how they led to its fall.", "poster_path": "/d1oHF7nFAxC6X5ZNRn1SCSTJYDW.jpg", "release_date": "2005-04-22", "title": "Enron: The Smartest Guys in the Room", "video": false, "vote_average": 7.2, "vote_count": 147, "popularity": 11.797}, {"id": 22074, "video": false, "vote_count": 319, "vote_average": 7.2, "title": "Capitalism: A Love Story", "release_date": "2009-09-06", "original_language": "en", "original_title": "Capitalism: A Love Story", "genre_ids": [99], "backdrop_path": "/vI1RY1JYAS1m94izWO9AFeIQ2xv.jpg", "adult": false, "overview": "Michael Moore comes home to the issue he's been examining throughout his career: the disastrous impact of corporate dominance on the everyday lives of Unitedstatians (and by default, the rest of the world).", "poster_path": "/4do1m6EathXZAegiGlS9CfjXpWC.jpg", "popularity": 7.81}, {"adult": false, "backdrop_path": "/c6Z0E5IYNXSslBxSWX7Q1xUvthJ.jpg", "genre_ids": [12, 28, 35], "id": 3989, "original_language": "en", "original_title": "Team America: World Police", "overview": "Team America World Police follows an international police force dedicated to maintaining global stability. Learning that dictator Kim Jong il is out to destroy the world, the team recruits Broadway star Gary Johnston to go undercover. With the help of Team America, Gary manages to uncover the plan to destroy the world. Will Team America be able to save it in time? It stars\u2026 Samuel L Jackson, Tim Robbins, Sean Penn, Michael Moore, Helen Hunt, Matt Damon, Susan Sarandon, George Clooney, Danny Glover, Ethan Hawke, Alec Baldwin\u2026 or does it?", "poster_path": "/crkPGNm0M19LHp8I5mhs75EqhSH.jpg", "release_date": "2004-10-10", "title": "Team America: World Police", "video": false, "vote_average": 6.7, "vote_count": 1108, "popularity": 15.898}, {"id": 50839, "video": false, "vote_count": 923, "vote_average": 6.8, "title": "Margin Call", "release_date": "2011-09-28", "original_language": "en", "original_title": "Margin Call", "genre_ids": [18, 53], "backdrop_path": "/rPVPJga5BTKK1cpeaChJeUh5ZMK.jpg", "adult": false, "overview": "A thriller that revolves around the key people at an investment bank over a 24-hour period during the early stages of the financial crisis.", "poster_path": "/h4Cv588VpNpO9twXsdorhz6K8t1.jpg", "popularity": 13.934}, {"adult": false, "backdrop_path": "/cPg2OJ56J6p0da12Hez5u5iiFd6.jpg", "genre_ids": [80, 18, 53], "id": 241239, "original_language": "en", "original_title": "A Most Violent Year", "overview": "A thriller set in New York City during the winter of 1981, statistically one of the most violent years in the city's history, and centered on a the lives of an immigrant and his family trying to expand their business and capitalize on opportunities as the rampant violence, decay, and corruption of the day drag them in and threaten to destroy all they have built.", "poster_path": "/7xvfhwi1RjF27z3TfaJFAsIaO3x.jpg", "release_date": "2014-12-30", "title": "A Most Violent Year", "video": false, "vote_average": 6.6, "vote_count": 857, "popularity": 15.059}, {"id": 505914, "video": false, "vote_count": 76, "vote_average": 4.4, "title": "A.I. Rising", "release_date": "2018-02-25", "original_language": "en", "original_title": "A.I. Rising", "genre_ids": [18, 878, 10749], "backdrop_path": "/ddQ11EC7tiXJVNNHjGCMMQgJYNz.jpg", "adult": false, "overview": "On a lonely mission to Alpha Centauri, Milutin is teamed up with Nimani 1345, a female cyborg designed to fulfill his every need. At first thrilled to be able to control her, Sebastian grows tired of having his desires fulfilled so easily. Longing for human intimacy, Sebastian alters Nimani's programmed responses, but in doing so he risks the mission's security \u2014 and his own life.", "poster_path": "/aXosp6MFBxYi4m6ZmE4u1auReHc.jpg", "popularity": 19.05}, {"id": 318846, "video": false, "vote_count": 5227, "vote_average": 7.3, "title": "The Big Short", "release_date": "2015-12-11", "original_language": "en", "original_title": "The Big Short", "genre_ids": [35, 18], "backdrop_path": "/6UyMLbe0lAPqfZLtVllAwBNFIis.jpg", "adult": false, "overview": "The men who made millions from a global economic meltdown.", "poster_path": "/p11Ftd4VposrAzthkhF53ifYZRl.jpg", "popularity": 25.578}, {"id": 294254, "video": false, "vote_count": 6849, "vote_average": 6.6, "title": "Maze Runner: The Scorch Trials", "release_date": "2015-09-09", "original_language": "en", "original_title": "Maze Runner: The Scorch Trials", "genre_ids": [28, 878, 53], "backdrop_path": "/iapRFMGKvN9tsjqPlN7MIDTCezG.jpg", "adult": false, "overview": "Thomas and his fellow Gladers face their greatest challenge yet: searching for clues about the mysterious and powerful organization known as WCKD. Their journey takes them to the Scorch, a desolate landscape filled with unimaginable obstacles. Teaming up with resistance fighters, the Gladers take on WCKD\u2019s vastly superior forces and uncover its shocking plans for them all.", "poster_path": "/vlTPQANjLYTebzFJM1G4KeON0cb.jpg", "popularity": 28.283}, {"adult": false, "backdrop_path": "/zfEAP6lBX8jbdgPnUkxVlh1TPlL.jpg", "genre_ids": [10749, 35], "id": 114, "original_language": "en", "original_title": "Pretty Woman", "overview": "When a millionaire wheeler-dealer enters a business contract with a Hollywood hooker Vivian Ward, he loses his heart in the bargain.", "poster_path": "/fgmdaCMxXClZm2ePteLzCPySB1n.jpg", "release_date": "1990-03-23", "title": "Pretty Woman", "video": false, "vote_average": 7.3, "vote_count": 4252, "popularity": 22.335}, {"adult": false, "backdrop_path": "/zGutQCLUIQ5LakubDZtfM8s22eA.jpg", "genre_ids": [9648, 18], "id": 15, "original_language": "en", "original_title": "Citizen Kane", "overview": "Newspaper magnate, Charles Foster Kane is taken from his mother as a boy and made the ward of a rich industrialist. As a result, every well-meaning, tyrannical or self-destructive move he makes for the rest of his life appears in some way to be a reaction to that deeply wounding event.", "poster_path": "/sav0jxhqiH0bPr2vZFU0Kjt2nZL.jpg", "release_date": "1941-04-30", "title": "Citizen Kane", "video": false, "vote_average": 8.1, "vote_count": 2765, "popularity": 22.836}, {"adult": false, "backdrop_path": "/3wFeNr1TBXeGNnjKWDZVxXNVY4J.jpg", "genre_ids": [99], "id": 29595, "original_language": "en", "original_title": "Wal-Mart: The High Cost of Low Price", "overview": "This documentary takes the viewer on a deeply personal journey into the everyday lives of families struggling to fight Goliath. From a family business owner in the Midwest to a preacher in California, from workers in Florida to a poet in Mexico, dozens of film crews on three continents bring the intensely personal stories of an assault on families and American values.", "poster_path": "/6jh2yA236Dh6TX7hya0qbrnAQtK.jpg", "release_date": "2005-11-04", "title": "Wal-Mart: The High Cost of Low Price", "video": false, "vote_average": 6.5, "vote_count": 45, "popularity": 5.571}, {"id": 13377, "video": false, "vote_count": 587, "vote_average": 7.4, "title": "How the Grinch Stole Christmas!", "release_date": "1966-12-18", "original_language": "en", "original_title": "How the Grinch Stole Christmas!", "genre_ids": [16, 35, 10751], "backdrop_path": "/3kuQVBTd4c5dfdj2BFJKWJ0ZWA6.jpg", "adult": false, "overview": "Bitter and hateful, the Grinch is irritated at the thought of a nearby village having a happy time celebrating Christmas. Disguised as Santa Claus, with his dog made to look like a reindeer, he decides to raid the village to steal all the Christmas things.", "poster_path": "/7ir0iRuPK9OEuH569cp0nF5CJce.jpg", "popularity": 11.735}, {"id": 55721, "video": false, "vote_count": 3029, "vote_average": 6.5, "title": "Bridesmaids", "release_date": "2011-05-13", "original_language": "en", "original_title": "Bridesmaids", "genre_ids": [35, 10749], "backdrop_path": "/yMqCfrfz3QXGiurmXXP3pJIwKOR.jpg", "adult": false, "overview": "Annie's life is a mess. But when she finds out her lifetime best friend is engaged, she simply must serve as Lillian's maid of honor. Though lovelorn and broke, Annie bluffs her way through the expensive and bizarre rituals. With one chance to get it perfect, she\u2019ll show Lillian and her bridesmaids just how far you\u2019ll go for someone you love.", "poster_path": "/x5ucaJZ4FP589Gn3I8l3ZFV3Nl8.jpg", "popularity": 22.889}, {"id": 1779, "video": false, "vote_count": 168, "vote_average": 7.3, "title": "Roger & Me", "release_date": "1989-09-01", "original_language": "en", "original_title": "Roger & Me", "genre_ids": [35, 99, 36], "backdrop_path": "/1TFrt5rlgbAS7WdHfCp142NPt4s.jpg", "adult": false, "overview": "A documentary about the closure of General Motors' plant at Flint, Michigan, which resulted in the loss of 30,000 jobs. Details the attempts of filmmaker Michael Moore to get an interview with GM CEO Roger Smith.", "poster_path": "/kTaqM1mxJCgDq7nhc7zHvtR3LPk.jpg", "popularity": 9.573}, {"id": 369560, "video": false, "vote_count": 74, "vote_average": 4.6, "title": "Drunk Parents", "release_date": "2019-02-08", "original_language": "en", "original_title": "Drunk Parents", "genre_ids": [35], "backdrop_path": "/2k8vryZjN3qSxzMgUkkM0MmZQo3.jpg", "adult": false, "overview": "Two drunk parents attempt to hide their ever increasing financial difficulties from their daughter and social circle through elaborate neighborhood schemes.", "poster_path": "/wwFaM56RH2gZYdPZgnVyVABYedR.jpg", "popularity": 14.571}, {"id": 3509, "video": false, "vote_count": 1016, "vote_average": 6.9, "title": "A Scanner Darkly", "release_date": "2006-05-25", "original_language": "en", "original_title": "A Scanner Darkly", "genre_ids": [16, 878, 53], "backdrop_path": "/nZuqo9yQpEo447sH0w0MFBgdT6J.jpg", "adult": false, "overview": "An undercover cop in a not-too-distant future becomes involved with a dangerous new drug and begins to lose his own identity as a result.", "poster_path": "/wS0QhF2RTwap84BKGr9hKHzNAMx.jpg", "popularity": 14.941}, {"adult": false, "backdrop_path": "/ckNp6LPhp1roR8dVI16q5u3LUMg.jpg", "genre_ids": [53, 9648, 27], "id": 463684, "original_language": "en", "original_title": "Velvet Buzzsaw", "overview": "Big money artists and mega-collectors pay a high price when art collides with commerce.\u00a0After a series of paintings by an unknown artist are discovered, a supernatural force enacts revenge on those who have allowed their greed to get in the way of art.", "poster_path": "/3rViQPcrWthMNecp5XnkKev6BzW.jpg", "release_date": "2019-02-01", "title": "Velvet Buzzsaw", "video": false, "vote_average": 5.3, "vote_count": 1092, "popularity": 11.988}, {"id": 923, "video": false, "vote_count": 1067, "vote_average": 7.5, "title": "Dawn of the Dead", "release_date": "1978-09-02", "original_language": "en", "original_title": "Dawn of the Dead", "genre_ids": [27], "backdrop_path": "/vCD9mRgSY4HuoSowm8JO4tm2mhj.jpg", "adult": false, "overview": "During an ever-growing epidemic of zombies that have risen from the dead, two Philadelphia SWAT team members, a traffic reporter, and his television-executive girlfriend seek refuge in a secluded shopping mall.", "poster_path": "/yK8BmYEvd0IPpDXL6zzlTA2geDf.jpg", "popularity": 11.925}, {"id": 29917, "video": false, "vote_count": 1090, "vote_average": 6.7, "title": "Exam", "release_date": "2009-06-19", "original_language": "en", "original_title": "Exam", "genre_ids": [9648, 53], "backdrop_path": "/AtLHKulhe6VTsnU3pe4i0As5zOb.jpg", "adult": false, "overview": "The final candidates for a highly desirable corporate job are locked together in an exam room and given a test so simple and confusing that tension begins to unravel.", "poster_path": "/i1J2zBCyOQJKsQipqJ0qXERC1Ma.jpg", "popularity": 14.205}], "total_pages": 14, "total_results": 277}, "recommendations": {"page": 1, "results": [{"adult": false, "backdrop_path": "/r4pIqYVlNjHQhqOZFK59qfUOT6X.jpg", "genre_ids": [], "id": 69357, "original_language": "es", "original_title": "Revoluci\u00f3n", "overview": "Made up of 10 short films, 'Revolucion' analyzes through the eyes of the directors what is the revolution today and what it means to the young minds of Mexico.", "poster_path": "/1nnB85qJj68vygVH4GOOm0zSDag.jpg", "release_date": "2010-07-16", "title": "Revoluci\u00f3n", "video": false, "vote_average": 4.8, "vote_count": 5, "popularity": 1.352}, {"adult": false, "backdrop_path": "/jLLfD2D7zYKT0nUamzfh6PA6uNa.jpg", "genre_ids": [99], "id": 470827, "original_language": "en", "original_title": "Boom for Real: The Late Teenage Years of Jean-Michel Basquiat", "overview": "Exploring the pre-fame years of the celebrated American artist Jean-Michel Basquiat, and how New York City, its people, and tectonically shifting arts culture of the late 1970s and '80s shaped his vision.", "poster_path": "/si3UVpJaD94I4o2lrQ0o92Gmh0R.jpg", "release_date": "2018-12-19", "title": "Boom for Real: The Late Teenage Years of Jean-Michel Basquiat", "video": false, "vote_average": 8.0, "vote_count": 7, "popularity": 1.48}, {"adult": false, "backdrop_path": "/mC4vay8MqPOpiK39vL6UPPzs0u5.jpg", "genre_ids": [99], "id": 516585, "original_language": "en", "original_title": "Far from the Tree", "overview": "Parents of children who have Down syndrome, dwarfism or autism share intimate stories of the challenges they face. Tracing their joys, challenges, tragedies, and triumphs.", "poster_path": "/yneht2xnLxtwLqYeJ4GTNJiKNin.jpg", "release_date": "2017-11-10", "title": "Far from the Tree", "video": false, "vote_average": 8.0, "vote_count": 7, "popularity": 1.109}], "total_pages": 1, "total_results": 3}, "credits": {"cast": [{"cast_id": 1, "character": "Himself", "credit_id": "5a3586c3925141547e040da3", "gender": 0, "id": 1942417, "name": "Florian Homm", "order": 1, "profile_path": null}, {"cast_id": 13, "character": "Himself", "credit_id": "5b7b40e00e0a264731053842", "gender": 0, "id": 16379, "name": "Bret Easton Ellis", "order": 2, "profile_path": "/8ExSaiOuvT73cfLpibswHn5lJag.jpg"}, {"cast_id": 21, "character": "Herself", "credit_id": "5bf35c4dc3a36818a508b2c7", "gender": 1, "id": 212225, "name": "Kim Kardashian", "order": 3, "profile_path": "/9rrdnBnHv8iyblG2x2NIoQtkLor.jpg"}, {"cast_id": 22, "character": "Herself", "credit_id": "5cf9726d0e0a2671fdce9839", "gender": 1, "id": 1695682, "name": "Kylie Jenner", "order": 4, "profile_path": "/rKoKx8kmeQrJu0o2ZMtnTnlyg7t.jpg"}, {"cast_id": 23, "character": "Herself/Interviewer", "credit_id": "5d6cb8dd65686e000f897871", "gender": 1, "id": 930705, "name": "Lauren Greenfield", "order": 5, "profile_path": "/7lcA7e6PWs2Kr4wf8kQqhHXHF6m.jpg"}, {"cast_id": 24, "character": "", "credit_id": "5d6cb90a20ecaf001329db20", "gender": 1, "id": 1024112, "name": "Eden Wood", "order": 6, "profile_path": "/dcRfdANy3aguoSJPLsdA74xMl67.jpg"}, {"cast_id": 25, "character": "", "credit_id": "5d6cb934efcea900149b1f2f", "gender": 0, "id": 2401693, "name": "Jaqueline Siegel", "order": 7, "profile_path": null}, {"cast_id": 26, "character": "", "credit_id": "5d6cb97a20ecaf001329db8c", "gender": 0, "id": 1870893, "name": "Tiffany Masters", "order": 8, "profile_path": null}], "crew": [{"credit_id": "5b5764209251416dcc037dd9", "department": "Sound", "gender": 2, "id": 20692, "job": "Original Music Composer", "name": "Jeff Beal", "profile_path": null}, {"credit_id": "5ba84281c3a3680e5503b89f", "department": "Production", "gender": 2, "id": 41175, "job": "Producer", "name": "Frank Evers", "profile_path": null}, {"credit_id": "5b576427c3a3685c910365c5", "department": "Camera", "gender": 0, "id": 56075, "job": "Director of Photography", "name": "Robert Chappell", "profile_path": null}, {"credit_id": "5b576444c3a3685c9303cad3", "department": "Camera", "gender": 2, "id": 98071, "job": "Director of Photography", "name": "Lars Skree", "profile_path": null}, {"credit_id": "5b57643d9251416dd103634e", "department": "Camera", "gender": 0, "id": 119331, "job": "Director of Photography", "name": "Jerry Risius", "profile_path": null}, {"credit_id": "5b57644bc3a3685c8203d2db", "department": "Editing", "gender": 2, "id": 140995, "job": "Editor", "name": "Victor Livingston", "profile_path": null}, {"credit_id": "5b576435c3a3685c910365d7", "department": "Camera", "gender": 0, "id": 543382, "job": "Director of Photography", "name": "Shana Hagan", "profile_path": null}, {"credit_id": "5a3586aec3a3680b8d1c8d83", "department": "Directing", "gender": 1, "id": 930705, "job": "Director", "name": "Lauren Greenfield", "profile_path": "/7lcA7e6PWs2Kr4wf8kQqhHXHF6m.jpg"}, {"credit_id": "5b57642e9251416dc2038538", "department": "Camera", "gender": 1, "id": 930705, "job": "Director of Photography", "name": "Lauren Greenfield", "profile_path": "/7lcA7e6PWs2Kr4wf8kQqhHXHF6m.jpg"}, {"credit_id": "5ba8424e0e0a2635f003a780", "department": "Production", "gender": 1, "id": 930705, "job": "Producer", "name": "Lauren Greenfield", "profile_path": "/7lcA7e6PWs2Kr4wf8kQqhHXHF6m.jpg"}, {"credit_id": "5b5764189251416dc203851a", "department": "Writing", "gender": 1, "id": 930705, "job": "Writer", "name": "Lauren Greenfield", "profile_path": "/7lcA7e6PWs2Kr4wf8kQqhHXHF6m.jpg"}, {"credit_id": "5b576458c3a3685c9703c9ec", "department": "Editing", "gender": 0, "id": 1058761, "job": "Editor", "name": "Aaron Wickenden", "profile_path": null}, {"credit_id": "5b5764529251416dde03473b", "department": "Editing", "gender": 2, "id": 1084965, "job": "Editor", "name": "Dan Marks", "profile_path": null}, {"credit_id": "5ba842aa9251412f07037e6f", "department": "Production", "gender": 0, "id": 1113540, "job": "Executive Producer", "name": "Lilly Hartley", "profile_path": null}, {"credit_id": "5ba842b90e0a2635ec03d8a0", "department": "Production", "gender": 0, "id": 1113543, "job": "Executive Producer", "name": "Jeffrey Tarrant", "profile_path": null}, {"credit_id": "5ba842c60e0a2635f603afba", "department": "Production", "gender": 1, "id": 1126877, "job": "Executive Producer", "name": "Geralyn White Dreyfous", "profile_path": "/t25RCx0fyLkUJFOsc3uoPsPiIlM.jpg"}, {"credit_id": "5ba8429bc3a3680e5503b8d1", "department": "Production", "gender": 1, "id": 1147955, "job": "Executive Producer", "name": "Regina Kulik Scully", "profile_path": null}, {"credit_id": "5b576465c3a3685c8203d335", "department": "Editing", "gender": 0, "id": 1446400, "job": "Editor", "name": "Michelle M. Witten", "profile_path": null}, {"credit_id": "5ba842ecc3a3680e5203a7c7", "department": "Production", "gender": 0, "id": 2134154, "job": "Producer", "name": "Wallis Annenberg", "profile_path": null}]}}