{"adult": false, "backdrop_path": null, "belongs_to_collection": null, "budget": 0, "genres": [{"id": 99, "name": "Documentary"}, {"id": 10402, "name": "Music"}], "homepage": null, "id": 493946, "imdb_id": "tt1789752", "original_language": "it", "original_title": "Effedia - Sulla mia cattiva strada", "overview": "", "popularity": 0.6, "poster_path": "/wlLqb5JdHDTVyO7qfkqQgliyy4h.jpg", "production_companies": [{"id": 28189, "logo_path": "/4bWbSJrOaHOEIpeYTIqihWX7iEF.png", "name": "Rai Trade", "origin_country": "IT"}], "production_countries": [{"iso_3166_1": "IT", "name": "Italy"}], "release_date": "2008-01-01", "revenue": 0, "runtime": null, "spoken_languages": [{"iso_639_1": "it", "name": "Italiano"}], "status": "Released", "tagline": "", "title": "Effedia - Sulla mia cattiva strada", "video": false, "vote_average": 0.0, "vote_count": 0, "keywords": {"keywords": [{"id": 6027, "name": "music"}, {"id": 6382, "name": "folk music"}]}, "similar": {"page": 1, "results": [{"adult": false, "backdrop_path": "/q3eNcig4YFEsUTnmIYDA90FdndO.jpg", "genre_ids": [10402, 35, 28, 80], "id": 525, "original_language": "en", "original_title": "The Blues Brothers", "overview": "Jake Blues is just out of jail, and teams up with his brother, Elwood on a 'mission from God' to raise funds for the orphanage in which they grew up. The only thing they can do is do what they do best: play music. So they get their old band together, and set out on their way\u2014while getting in a bit of trouble here and there.", "poster_path": "/6hesUNBkpVRqBTBw2HlTg0h8b56.jpg", "release_date": "1980-06-17", "title": "The Blues Brothers", "video": false, "vote_average": 7.7, "vote_count": 2299, "popularity": 21.638}, {"id": 6575, "video": false, "vote_count": 364, "vote_average": 6.6, "title": "Walk Hard: The Dewey Cox Story", "release_date": "2007-12-21", "original_language": "en", "original_title": "Walk Hard: The Dewey Cox Story", "genre_ids": [35, 18, 10402], "backdrop_path": "/y7EElGAn1tFE0Npmls7uvg4HPVj.jpg", "adult": false, "overview": "Following a childhood tragedy, Dewey Cox follows a long and winding road to music stardom. Dewey perseveres through changing musical styles, an addiction to nearly every drug known and bouts of uncontrollable rage.", "poster_path": "/2sc7qoLTqZC0nB2k1crwuVoKP6H.jpg", "popularity": 15.669}, {"adult": false, "backdrop_path": "/pQOs5bwFpaimeaK5PA2XXteU1Ly.jpg", "genre_ids": [10402, 99], "id": 20575, "original_language": "en", "original_title": "Queen: Live at Wembley Stadium", "overview": "One of the world's biggest bands return to the scene of their Live Aid (1985) triumph a year earlier to play all their greatest hits in front of a packed Wembley Stadium.", "poster_path": "/qztOmfZ8uLPN3MUNHJd8GaJST2V.jpg", "release_date": "1986-07-12", "title": "Live at Wembley Stadium", "video": false, "vote_average": 8.7, "vote_count": 49, "popularity": 8.207}, {"id": 786, "video": false, "vote_count": 1485, "vote_average": 7.5, "title": "Almost Famous", "release_date": "2000-09-15", "original_language": "en", "original_title": "Almost Famous", "genre_ids": [18, 10402], "backdrop_path": "/zfucY8mxcrNeopFneyvyERZQah1.jpg", "adult": false, "overview": "In 1973, 15-year-old William Miller's unabashed love of music and aspiration to become a rock journalist lands him an assignment from Rolling Stone magazine to interview and tour with the up-and-coming band Stillwater\u2014fronted by lead guitar Russell Hammond, and lead singer Jeff Bebe.", "poster_path": "/9pNo92j6zSEAUB8pNmcJTkpnkBF.jpg", "popularity": 17.801}, {"id": 5723, "video": false, "vote_count": 768, "vote_average": 7.5, "title": "Once", "release_date": "2007-03-23", "original_language": "en", "original_title": "Once", "genre_ids": [18, 10402, 10749], "backdrop_path": "/5e9rYIQzaSy3v6ntyFuA3N4QN6b.jpg", "adult": false, "overview": "A vacuum repairman moonlights as a street musician and hopes for his big break. One day a Czech immigrant, who earns a living selling flowers, approaches him with the news that she is also an aspiring singer-songwriter. The pair decide to collaborate, and the songs that they compose reflect the story of their blossoming love.", "poster_path": "/fEjwJfeDxgsRBlYgEWMgvrKQ6VB.jpg", "popularity": 11.17}, {"id": 198277, "video": false, "vote_count": 2275, "vote_average": 7.2, "title": "Begin Again", "release_date": "2013-09-07", "original_language": "en", "original_title": "Begin Again", "genre_ids": [35, 18, 10402, 10749], "backdrop_path": "/r36B5xC2KT9KuxPlTfQJHFwi2EA.jpg", "adult": false, "overview": "A long-lost music producer finds a singer-songwriter right about the moment he has given up all hope on life.", "poster_path": "/qx4HXHXt528hS4rwePZbZo20xqZ.jpg", "popularity": 13.171}, {"id": 13576, "video": false, "vote_count": 509, "vote_average": 6.9, "title": "This Is It", "release_date": "2009-10-28", "original_language": "en", "original_title": "This Is It", "genre_ids": [99, 10402], "backdrop_path": "/w7yzaQ7P2UBtSyMqMOx0zNxc3wB.jpg", "adult": false, "overview": "A compilation of interviews, rehearsals and backstage footage of Michael Jackson as he prepared for his series of sold-out shows in London.", "poster_path": "/4ZgT8FRJxxpG0mgOIPeCgjzAsBR.jpg", "popularity": 11.776}, {"adult": false, "backdrop_path": "/qOMWTdCoaiVtZMJL044D0ZRkpu1.jpg", "genre_ids": [10402], "id": 63973, "original_language": "en", "original_title": "AC/DC:  Live at River Plate", "overview": "AC/DC Live At River Plate, a definitive live concert film documenting AC/DC\u2019s massive Black Ice World Tour. Shot in December of 2009, AC/DC Live At River Plate marks AC/DC\u2019s triumphant return to Buenos Aires where nearly 200,000 fans, and 3 sold-out shows, welcomed the band back after a 13 year absence from Argentina. This stunning live footage of AC/DC underscores what Argentina\u2019s Pagina 12 newspaper reported by saying \u201cno one is on the same level when it comes to pure and clear Rock \u2018n Roll.\u201d Live At River Plate was shot with 32 cameras entirely in HD and features 19 songs as well as \u2018behind the scenes\u2019 footage of this massive production coming together among the excitement of anxious fans.", "poster_path": "/8KzHL6lmbtDPH6VZZjF6w65Inmg.jpg", "release_date": "2009-12-11", "title": "AC/DC:  Live at River Plate", "video": true, "vote_average": 6.9, "vote_count": 25, "popularity": 8.432}, {"id": 27, "video": false, "vote_count": 200, "vote_average": 5.0, "title": "9 Songs", "release_date": "2004-07-16", "original_language": "en", "original_title": "9 Songs", "genre_ids": [18, 10402, 10749], "backdrop_path": "/tie8vA3q3Q9BB5RlMlexRvv9xoh.jpg", "adult": false, "overview": "Matt, a young glaciologist, soars across the vast, silent, icebound immensities of the South Pole as he recalls his love affair with Lisa. They meet at a mobbed rock concert in a vast music hall - London's Brixton Academy. They are in bed at night's end. Together, over a period of several months, they pursue a mutual sexual passion whose inevitable stages unfold in counterpoint to nine live-concert songs.", "poster_path": "/91O7z0vo7MiNWd5xD2BoivwbQsb.jpg", "popularity": 17.371}, {"adult": false, "backdrop_path": "/pM1CnP0ZN2VxmrTAbBZOS3PNoNE.jpg", "genre_ids": [35, 10402], "id": 1584, "original_language": "en", "original_title": "School of Rock", "overview": "Fired from his band and hard up for cash, guitarist and vocalist Dewey Finn finagles his way into a job as a fifth-grade substitute teacher at a private school, where he secretly begins teaching his students the finer points of rock 'n' roll. The school's hard-nosed principal is rightly suspicious of Finn's activities. But Finn's roommate remains in the dark about what he's doing.", "poster_path": "/cREN222Yw78zvSQ9bg17Y9QZS0c.jpg", "release_date": "2003-10-03", "title": "School of Rock", "video": false, "vote_average": 7.0, "vote_count": 3292, "popularity": 23.266}, {"id": 10537, "video": false, "vote_count": 603, "vote_average": 6.9, "title": "The Doors", "release_date": "1991-03-01", "original_language": "en", "original_title": "The Doors", "genre_ids": [18, 10402], "backdrop_path": "/1rv5sW6Qs2YK2iOzIgwH3SJPIl1.jpg", "adult": false, "overview": "The story of the famous and influential 1960s rock band and its lead singer and composer, Jim Morrison.", "poster_path": "/9CkFrWAkg23YynYd2uJLyWznMZZ.jpg", "popularity": 14.573}, {"id": 20313, "video": true, "vote_count": 20, "vote_average": 8.7, "title": "Where the Light Is: John Mayer Live in Los Angeles", "release_date": "2008-07-01", "original_language": "en", "original_title": "Where the Light Is: John Mayer Live in Los Angeles", "genre_ids": [10402], "backdrop_path": "/3hRjAtEvLGdRpznktxZRnVmdilz.jpg", "adult": false, "overview": "Where The Light Is: John Mayer Live in Los Angeles captures the multi-Grammy\u00ae Award-winning, Platinum-selling singer/songwriter in the element where fans love him the most: live on stage. This special concert includes three sets: an acoustic performance, a rare set with John Mayer Trio (John Mayer, Steve Jordan and Pino Palladino), as well as a set featuring Mayer's full band.", "poster_path": "/laZt8OKutRXptSbwbMLWlWGoIPM.jpg", "popularity": 4.422}, {"adult": false, "backdrop_path": "/2aHM8lYzcaO4MfN7VNvo1QFU0ft.jpg", "genre_ids": [99, 10402], "id": 373558, "original_language": "en", "original_title": "Taylor Swift: The 1989 World Tour - Live", "overview": "Taylor delivers the concert event of the year. Filmed at Sydney's ANZ Stadium in front of 76,000 fans, The 1989 World Tour - Live captures the excitement and energy of the hottest pop star in the world. Filled with great music, an electrifying stage show, and superstar guest appearances, the concert film is only on Apple Music.", "poster_path": "/kzXe8kscKo83BwGvIofWg6SCR7n.jpg", "release_date": "2015-12-20", "title": "Taylor Swift: The 1989 World Tour - Live", "video": false, "vote_average": 8.3, "vote_count": 65, "popularity": 10.446}, {"adult": false, "backdrop_path": "/iOGODt9Z92SHVEyuEQiN8wYidmQ.jpg", "genre_ids": [16, 878, 12, 14, 10402], "id": 11827, "original_language": "en", "original_title": "Heavy Metal", "overview": "A glowing orb terrorizes a young girl with a collection of stories of dark fantasy, eroticism and horror.", "poster_path": "/atUtWrDlLzT1yeVK2EoYtvbS963.jpg", "release_date": "1981-08-07", "title": "Heavy Metal", "video": false, "vote_average": 6.3, "vote_count": 316, "popularity": 19.299}, {"id": 11887, "video": false, "vote_count": 2347, "vote_average": 6.5, "title": "High School Musical 3: Senior Year", "release_date": "2008-10-11", "original_language": "en", "original_title": "High School Musical 3: Senior Year", "genre_ids": [35, 18, 10402, 10749, 10751], "backdrop_path": "/daSGxGZL2nNjGZKkAF5ain3lmOx.jpg", "adult": false, "overview": "It's almost graduation day for high school seniors Troy, Gabriella, Sharpay, Chad, Ryan and Taylor \u2015 and the thought of heading off in separate directions after leaving East High has these Wildcats thinking they need to do something they'll remember forever. Together with the rest of the Wildcats, they stage a spring musical reflecting their hopes and fears about the future and their unforgettable experiences growing up together. But with graduation approaching and college plans in question, what will become of the dreams, romances, and friendships of East High's senior Wildcats?", "poster_path": "/ewZpH2QIfPQ0VIn9lPf7MHbLbl4.jpg", "popularity": 14.748}, {"adult": false, "backdrop_path": "/oT79THuFrcBzrhlf4fiCddwZBCQ.jpg", "genre_ids": [18, 10402, 10749], "id": 69, "original_language": "en", "original_title": "Walk the Line", "overview": "A chronicle of country music legend Johnny Cash's life, from his early days on an Arkansas cotton farm to his rise to fame with Sun Records in Memphis, where he recorded alongside Elvis Presley, Jerry Lee Lewis and Carl Perkins.", "poster_path": "/wdxL3Zyh3O5MIbmsSiZEevJAjtQ.jpg", "release_date": "2005-09-13", "title": "Walk the Line", "video": false, "vote_average": 7.5, "vote_count": 1545, "popularity": 15.437}, {"id": 332562, "video": false, "vote_count": 7182, "vote_average": 7.5, "title": "A Star Is Born", "release_date": "2018-10-03", "original_language": "en", "original_title": "A Star Is Born", "genre_ids": [18, 10402, 10749], "backdrop_path": "/mnDvPokXpvsdPcWSjNRPhiiLOKu.jpg", "adult": false, "overview": "Seasoned musician Jackson Maine discovers \u2014 and falls in love with \u2014 struggling artist Ally. She has just about given up on her dream to make it big as a singer \u2014 until Jack coaxes her into the spotlight. But even as Ally's career takes off, the personal side of their relationship is breaking down, as Jack fights an ongoing battle with his own internal demons.", "poster_path": "/wrFpXMNBRj2PBiN4Z5kix51XaIZ.jpg", "popularity": 37.528}, {"id": 313369, "video": false, "vote_count": 11063, "vote_average": 7.9, "title": "La La Land", "release_date": "2016-11-29", "original_language": "en", "original_title": "La La Land", "genre_ids": [35, 18, 10402, 10749], "backdrop_path": "/fp6X6yhgcxzxCpmM0EVC6V9B8XB.jpg", "adult": false, "overview": "Mia, an aspiring actress, serves lattes to movie stars in between auditions and Sebastian, a jazz musician, scrapes by playing cocktail party gigs in dingy bars, but as success mounts they are faced with decisions that begin to fray the fragile fabric of their love affair, and the dreams they worked so hard to maintain in each other threaten to rip them apart.", "poster_path": "/ylXCdC106IKiarftHkcacasaAcb.jpg", "popularity": 39.654}, {"adult": false, "backdrop_path": "/6bnI08rrGXRkngRqJWCMXDZuJ1j.jpg", "genre_ids": [35, 10402], "id": 254470, "original_language": "en", "original_title": "Pitch Perfect 2", "overview": "The Bellas are back, and they are better than ever. After being humiliated in front of none other than the President of the United States of America, the Bellas are taken out of the Aca-Circuit. In order to clear their name, and regain their status, the Bellas take on a seemingly impossible task: winning an international competition no American team has ever won. In order to accomplish this monumental task, they need to strengthen the bonds of friendship and sisterhood and blow away the competition with their amazing aca-magic! With all new friends and old rivals tagging along for the trip, the Bellas can hopefully accomplish their dreams.", "poster_path": "/qSjruLiFB4uqRtz2xheQPxG8uaB.jpg", "release_date": "2015-05-07", "title": "Pitch Perfect 2", "video": false, "vote_average": 6.8, "vote_count": 3901, "popularity": 29.697}, {"adult": false, "backdrop_path": "/bxPw6s61bG5Of19lp1E00n0dDWW.jpg", "genre_ids": [35, 18, 10751, 10402, 10770], "id": 10947, "original_language": "en", "original_title": "High School Musical", "overview": "Troy, the popular captain of the basketball team, and Gabriella, the brainy and beautiful member of the academic club, break all the rules of East High society when they secretly audition for the leads in the school's musical. As they reach for the stars and follow their dreams, everyone learns about acceptance, teamwork, and being yourself.", "poster_path": "/xMRBlTMMKDRJuK4IhwG5idrGHaS.jpg", "release_date": "2006-01-20", "title": "High School Musical", "video": false, "vote_average": 6.5, "vote_count": 2983, "popularity": 14.165}], "total_pages": 223, "total_results": 4453}, "recommendations": {"page": 1, "results": [], "total_pages": 1, "total_results": 0}, "credits": {"cast": [{"cast_id": 0, "character": "Fabrizio De Andr\u00e8", "credit_id": "5a3bdec0925141547b09f1de", "gender": 2, "id": 230409, "name": "Fabrizio De Andr\u00e8", "order": 1, "profile_path": "/7bDCqU2Z90qn5fFrIsHEr9IuwZq.jpg"}, {"cast_id": 3, "character": "Georges Brassens", "credit_id": "5a3bdfc20e0a264cd0229f94", "gender": 0, "id": 548815, "name": "Georges Brassens", "order": 2, "profile_path": "/mkmdZRddzcCG03sGBq49b7z0Aat.jpg"}, {"cast_id": 4, "character": "Vasco Rossi", "credit_id": "5a3bdfe0c3a3680b9d20cca2", "gender": 2, "id": 146233, "name": "Vasco Rossi", "order": 3, "profile_path": "/zpySxCLY5xQ8oozfjJm5unMjNmP.jpg"}, {"cast_id": 5, "character": "Franco Battiato", "credit_id": "5a3bdfeb925141547509d69a", "gender": 2, "id": 589376, "name": "Franco Battiato", "order": 4, "profile_path": "/hiQSHewdAfnoMW301weMP7F0cTD.jpg"}, {"cast_id": 6, "character": "Mina", "credit_id": "5a3be01c0e0a264cca222363", "gender": 0, "id": 1029059, "name": "Mina", "order": 5, "profile_path": "/fbbiSro5q7HTylRDdD50wTTJW0H.jpg"}, {"cast_id": 7, "character": "Zucchero Fornaciari", "credit_id": "5a3be03a0e0a265f77028280", "gender": 2, "id": 1120207, "name": "Zucchero", "order": 6, "profile_path": "/2p68sBasaeshYGPN6odg78wkdil.jpg"}, {"cast_id": 8, "character": "Fiorello", "credit_id": "5a3be051925141032c22c672", "gender": 2, "id": 15916, "name": "Fiorello", "order": 7, "profile_path": "/ww5gS2ZtXw8Bsg2F7YLw1qGvtvR.jpg"}, {"cast_id": 9, "character": "Wim Wenders", "credit_id": "5a3be060925141547809f566", "gender": 2, "id": 2303, "name": "Wim Wenders", "order": 8, "profile_path": "/AbqrYglSgaMfetQAeqdHaqiPSof.jpg"}, {"cast_id": 10, "character": "Sergio Castellitto", "credit_id": "5a3be0700e0a264cd022a072", "gender": 2, "id": 2166, "name": "Sergio Castellitto", "order": 9, "profile_path": "/uq5xz7kinzgdclGOcechgfPBgYC.jpg"}, {"cast_id": 11, "character": "Roberto Murolo", "credit_id": "5a3be0800e0a264cc421c2f8", "gender": 2, "id": 1094534, "name": "Roberto Murolo", "order": 10, "profile_path": "/7mg6HOtdFyXPg2pIdnfdDSbuGRf.jpg"}, {"cast_id": 12, "character": "Luigi Tenco", "credit_id": "5a3be091c3a368148f0987d2", "gender": 0, "id": 1344106, "name": "Luigi Tenco", "order": 11, "profile_path": null}, {"cast_id": 13, "character": "Gabriele Salvatores", "credit_id": "5a3be0a2c3a3680b88227abe", "gender": 0, "id": 55916, "name": "Gabriele Salvatores", "order": 12, "profile_path": "/qRBui7fB2dxaChy2cf1msFT52qJ.jpg"}, {"cast_id": 14, "character": "Fernanda Pivano", "credit_id": "5a3be0ae0e0a264cc122189e", "gender": 1, "id": 1342345, "name": "Fernanda Pivano", "order": 13, "profile_path": "/19mysueWalOGxqm2KwzWh3KNqCo.jpg"}], "crew": [{"credit_id": "5a3bdee9925141547209d280", "department": "Production", "gender": 0, "id": 1945848, "job": "Producer", "name": "Dori Ghezzi", "profile_path": "/6NDm3lHeHO17Pg19OsF27kgP1FI.jpg"}, {"credit_id": "5a3bdefdc3a368148f09858c", "department": "Directing", "gender": 0, "id": 1945849, "job": "Director", "name": "Teresa Marchesi", "profile_path": "/49MlZbDfJk5N2UzM8sVjdEjgBAM.jpg"}, {"credit_id": "5a3be2a40e0a264cc421c541", "department": "Writing", "gender": 0, "id": 1945849, "job": "Storyboard", "name": "Teresa Marchesi", "profile_path": "/49MlZbDfJk5N2UzM8sVjdEjgBAM.jpg"}]}}