{"adult": false, "backdrop_path": "/4jydtNkMFAe1l983NdYrsSdORcG.jpg", "belongs_to_collection": null, "budget": 20000000, "genres": [{"id": 18, "name": "Drama"}, {"id": 35, "name": "Comedy"}], "homepage": "", "id": 4953, "imdb_id": "tt0799934", "original_language": "en", "original_title": "Be Kind Rewind", "overview": "A man whose brain becomes magnetized unintentionally destroys every tape in his friend's video store. In order to satisfy the store's most loyal renter, an aging woman with signs of dementia, the two men set out to remake the lost films.", "popularity": 9.598, "poster_path": "/f0oX20YrQEiVPDH9InCQ1d3Cm66.jpg", "production_companies": [{"id": 1784, "logo_path": null, "name": "Partizan", "origin_country": "FR"}, {"id": 12, "logo_path": "/iaYpEp3LQmb8AfAtmTvpqd4149c.png", "name": "New Line Cinema", "origin_country": "US"}, {"id": 10146, "logo_path": "/xnFIOeq5cKw09kCWqV7foWDe4AA.png", "name": "Focus Features", "origin_country": "US"}], "production_countries": [{"iso_3166_1": "US", "name": "United States of America"}, {"iso_3166_1": "GB", "name": "United Kingdom"}], "release_date": "2008-01-20", "revenue": 30600000, "runtime": 102, "spoken_languages": [{"iso_639_1": "en", "name": "English"}], "status": "Released", "tagline": "You name it, we shoot it.", "title": "Be Kind Rewind", "video": false, "vote_average": 6.3, "vote_count": 798, "keywords": {"keywords": [{"id": 2249, "name": "camcorder"}, {"id": 4368, "name": "nuclear power plant"}, {"id": 6262, "name": "delusion"}, {"id": 34053, "name": "video store"}, {"id": 177185, "name": "videotape"}]}, "similar": {"page": 1, "results": [{"id": 1412, "video": false, "vote_count": 394, "vote_average": 6.9, "title": "sex, lies, and videotape", "release_date": "1989-08-18", "original_language": "en", "original_title": "sex, lies, and videotape", "genre_ids": [18], "backdrop_path": "/esCRA7XoKR95PmbzmcbrfhcXQNN.jpg", "adult": false, "overview": "A sexually repressed woman's husband is having an affair with her sister. The arrival of a visitor with a rather unusual fetish changes everything.", "poster_path": "/kOXATYKziiKmoMxgKA10JOO13JZ.jpg", "popularity": 16.964}, {"id": 1987, "video": false, "vote_count": 134, "vote_average": 7.2, "title": "Benny's Video", "release_date": "1993-03-04", "original_language": "de", "original_title": "Benny's Video", "genre_ids": [80, 18, 27], "backdrop_path": "/uH7zKI0YsvZhEju7f9NpVNhtjHw.jpg", "adult": false, "overview": "A 14-year-old video enthusiast is so caught up in film fantasy that he can no longer relate to the real world, to such an extent that he commits murder and records an on-camera confession for his parents.", "poster_path": "/yiJZEqCdOPFkCGsmr4oUKd7Xf51.jpg", "popularity": 8.724}, {"id": 445, "video": false, "vote_count": 488, "vote_average": 7.2, "title": "Cach\u00e9", "release_date": "2005-10-05", "original_language": "fr", "original_title": "Cach\u00e9", "genre_ids": [18, 9648, 53], "backdrop_path": "/851cJxUgYK4QrD8Hdu0ByxtlPRR.jpg", "adult": false, "overview": "A married couple is terrorized by a series of videotapes planted on their front porch.", "poster_path": "/i21qLdE76ACgjhh9vjk5D2sFEQe.jpg", "popularity": 12.281}, {"id": 14, "video": false, "vote_count": 7289, "vote_average": 8.0, "title": "American Beauty", "release_date": "1999-09-15", "original_language": "en", "original_title": "American Beauty", "genre_ids": [18], "backdrop_path": "/z5J18ByLeOZ68iORfMXmxeFuwyL.jpg", "adult": false, "overview": "Lester Burnham, a depressed suburban father in a mid-life crisis, decides to turn his hectic life around after developing an infatuation with his daughter's attractive friend.", "poster_path": "/or1MP8BZIAjqWYxPdPX724ydKar.jpg", "popularity": 34.256}, {"adult": false, "backdrop_path": "/9PwUQZDHGPKsgbnoBl1Ah9zXWjk.jpg", "genre_ids": [18, 10749], "id": 453, "original_language": "en", "original_title": "A Beautiful Mind", "overview": "John Nash is a brilliant but asocial mathematician fighting schizophrenia. After he accepts secret work in cryptography, his life takes a turn for the nightmarish.", "poster_path": "/4SFqHDZ1NvWdysucWbgnYlobdxC.jpg", "release_date": "2001-12-11", "title": "A Beautiful Mind", "video": false, "vote_average": 7.8, "vote_count": 6094, "popularity": 19.654}, {"adult": false, "backdrop_path": "/5UhVmv70qTfy7YSf8r87kNXWxjK.jpg", "genre_ids": [18, 53, 9648], "id": 638, "original_language": "en", "original_title": "Lost Highway", "overview": "A tormented jazz musician finds himself lost in an enigmatic story involving murder, surveillance, gangsters, doppelgangers, and an impossible transformation inside a prison cell.", "poster_path": "/z6yhgEzGUJaBBgAxoyggRzwLnVM.jpg", "release_date": "1997-01-15", "title": "Lost Highway", "video": false, "vote_average": 7.6, "vote_count": 1277, "popularity": 16.545}, {"id": 1907, "video": false, "vote_count": 2622, "vote_average": 6.4, "title": "The Beach", "release_date": "2000-02-03", "original_language": "en", "original_title": "The Beach", "genre_ids": [12, 18, 53, 10749], "backdrop_path": "/uqseIBb0MH9dXic9RGmGaLvf56q.jpg", "adult": false, "overview": "Twenty-something Richard travels to Thailand and finds himself in possession of a strange map. Rumours state that it leads to a solitary beach paradise, a tropical bliss - excited and intrigued, he sets out to find it.", "poster_path": "/4VgPflOJMxlqOYpAqXCm5J6BkYm.jpg", "popularity": 13.386}, {"adult": false, "backdrop_path": "/6kVVfNT0auG6fU5SFQ1zbayNWUC.jpg", "genre_ids": [28, 53, 878], "id": 7191, "original_language": "en", "original_title": "Cloverfield", "overview": "Five young New Yorkers throw their friend a going-away party the night that a monster the size of a skyscraper descends upon the city. Told from the point of view of their video camera, the film is a document of their attempt to survive the most surreal, horrifying event of their lives.", "poster_path": "/qIegUGJqyMMCRjkKV1s7A9MqdJ8.jpg", "release_date": "2008-01-15", "title": "Cloverfield", "video": false, "vote_average": 6.5, "vote_count": 4423, "popularity": 14.46}, {"adult": false, "backdrop_path": "/aog6vKNxw5USOGP4whH9V1YTR5K.jpg", "genre_ids": [80, 53, 28], "id": 201088, "original_language": "en", "original_title": "Blackhat", "overview": "A man is released from prison to help American and Chinese authorities pursue a mysterious cyber criminal. The dangerous search leads them from Chicago to Hong Kong.", "poster_path": "/sW3VEsulmxMlOmQwm0h7H7lZROi.jpg", "release_date": "2015-01-13", "title": "Blackhat", "video": false, "vote_average": 5.3, "vote_count": 1242, "popularity": 17.624}, {"adult": false, "backdrop_path": "/kQOLgJGvFjQ7EwGfaPkW9dlGFXJ.jpg", "genre_ids": [27, 9648], "id": 565, "original_language": "en", "original_title": "The Ring", "overview": "It sounded like just another urban legend: A videotape filled with nightmarish images, leading to a phone call foretelling the viewer's death in exactly seven days. As a newspaper reporter, Rachel Keller was naturally skeptical of the story, until four teenagers all met with mysterious deaths exactly one week after watching just such a tape. Allowing her investigative curiosity to get the better of her, Rachel tracks down the video... and watches it. Now she has just seven days to unravel the mystery of the Ring.", "poster_path": "/zHJFdhqEXZJxG653oZvOM3PmNON.jpg", "release_date": "2002-10-18", "title": "The Ring", "video": false, "vote_average": 6.6, "vote_count": 3614, "popularity": 18.465}, {"id": 694, "video": false, "vote_count": 9948, "vote_average": 8.2, "title": "The Shining", "release_date": "1980-05-22", "original_language": "en", "original_title": "The Shining", "genre_ids": [27, 53], "backdrop_path": "/h4DcDCOkQBENWBJZjNlPv3adQfM.jpg", "adult": false, "overview": "Jack Torrance accepts a caretaker job at the Overlook Hotel, where he, along with his wife Wendy and their son Danny, must live isolated from the rest of the world for the winter. But they aren't prepared for the madness that lurks within.", "poster_path": "/b6ko0IKC8MdYBBPkkA1aBPLe2yz.jpg", "popularity": 31.425}, {"id": 181886, "video": false, "vote_count": 3150, "vote_average": 6.9, "title": "Enemy", "release_date": "2013-12-31", "original_language": "en", "original_title": "Enemy", "genre_ids": [9648, 53], "backdrop_path": "/buZgGbVwR46GSz6lX2TbYBjKNXP.jpg", "adult": false, "overview": "A mild-mannered college professor discovers a look-alike actor and delves into the other man's private affairs.", "poster_path": "/aQkyFHzNzZoMhxZ7c0IaK8BljED.jpg", "popularity": 16.521}, {"id": 599, "video": false, "vote_count": 1215, "vote_average": 8.4, "title": "Sunset Boulevard", "release_date": "1950-08-10", "original_language": "en", "original_title": "Sunset Boulevard", "genre_ids": [18], "backdrop_path": "/u44VbUuoP6OZYEBv2DRd7ShPTMp.jpg", "adult": false, "overview": "A hack screenwriter writes a screenplay for a former silent film star who has faded into Hollywood obscurity.", "poster_path": "/oFwzvRgfxJc0FUr2mwYTi10dk3G.jpg", "popularity": 13.003}, {"id": 460668, "video": false, "vote_count": 1296, "vote_average": 6.4, "title": "I Feel Pretty", "release_date": "2018-04-19", "original_language": "en", "original_title": "I Feel Pretty", "genre_ids": [35], "backdrop_path": "/3Zb4Du20mvKl0jlOtQ6lCFhpiiT.jpg", "adult": false, "overview": "A head injury causes a woman to develop an extraordinary amount of confidence and believe she's drop dead gorgeous.", "poster_path": "/iuPs45XIxfARKPLEkCGXWUrBrTR.jpg", "popularity": 20.334}, {"adult": false, "backdrop_path": "/u2hltGUbjJLD9DnmpTNp0Ywly2I.jpg", "genre_ids": [27, 878, 9648], "id": 8413, "original_language": "en", "original_title": "Event Horizon", "overview": "In 2047 a group of astronauts are sent to investigate and salvage the starship 'Event Horizon' which disappeared mysteriously 7 years before on its maiden voyage. With its return, the crew of the 'Lewis and Clark' discovers the real truth behind the disappearance of the 'Event Horizon' \u2013 and something even more terrifying.", "poster_path": "/vo02iJLsem3VCJ2TNvSzRiJMpAE.jpg", "release_date": "1997-08-15", "title": "Event Horizon", "video": false, "vote_average": 6.5, "vote_count": 1374, "popularity": 20.498}, {"id": 8329, "video": false, "vote_count": 2247, "vote_average": 7.1, "title": "[REC]", "release_date": "2007-04-10", "original_language": "es", "original_title": "[REC]", "genre_ids": [27, 9648], "backdrop_path": "/qJjGPJSXtCMOvBLJwusTGkiboYZ.jpg", "adult": false, "overview": "A television reporter and cameraman follow emergency workers into a dark apartment building and are quickly locked inside with something terrifying.", "poster_path": "/hJx9gqUJgWXRkFpIbCcNYrkqAQX.jpg", "popularity": 17.47}, {"id": 10320, "video": false, "vote_count": 1373, "vote_average": 5.6, "title": "The Ring Two", "release_date": "2005-03-17", "original_language": "en", "original_title": "The Ring Two", "genre_ids": [18, 27, 53], "backdrop_path": "/3UPGMO3KqxpBHkAinXr4fknjDV0.jpg", "adult": false, "overview": "Rachel Keller must prevent evil Samara from taking possession of her son's soul.", "poster_path": "/mYZdcd5XeZkye72oQejkLuAGI7q.jpg", "popularity": 14.637}, {"adult": false, "backdrop_path": "/iiH9gxbUiJhfee0UDZOvpA69DAo.jpg", "genre_ids": [80, 18, 9648, 53], "id": 2275, "original_language": "en", "original_title": "The General's Daughter", "overview": "When the body of Army Capt. Elizabeth Campbell is found on a Georgia military base, two investigators, Warrant Officers Paul Brenner and Sara Sunhill, are ordered to solve her murder. What they uncover is anything but clear-cut. Unseemly details emerge about Campbell's life, leading to allegations of a possible military coverup of her death and the involvement of her father, Lt. Gen. Joseph Campbell.", "poster_path": "/4fc4mB9tGgYV4mdJrWPLMfcRvnC.jpg", "release_date": "1999-06-18", "title": "The General's Daughter", "video": false, "vote_average": 6.3, "vote_count": 433, "popularity": 9.818}, {"id": 988, "video": false, "vote_count": 200, "vote_average": 7.2, "title": "The China Syndrome", "release_date": "1979-03-16", "original_language": "en", "original_title": "The China Syndrome", "genre_ids": [18, 53], "backdrop_path": "/iN5jSaKD21AC2wwHaV3BMkiGwKp.jpg", "adult": false, "overview": "While doing a series of reports on alternative energy sources, opportunistic reporter Kimberly Wells witnesses an accident at a nuclear power plant. Wells is determined to publicize the incident, but soon finds herself entangled in a sinister conspiracy to keep the full impact of the incident a secret.", "poster_path": "/u0tbxqq0krtGMWnuycmikHPQ22Z.jpg", "popularity": 13.892}, {"id": 10145, "video": false, "vote_count": 632, "vote_average": 5.7, "title": "The Forgotten", "release_date": "2004-09-24", "original_language": "en", "original_title": "The Forgotten", "genre_ids": [18, 27, 9648, 878, 53], "backdrop_path": "/kSQ0TGzg9pMGZMhWYQOIqW1wNqc.jpg", "adult": false, "overview": "Telly Paretta is a grieving mother struggling to cope with the loss of her 8-year-old son. She is stunned when her psychiatrist reveals that she has created eight years of memories about a son she never had. But when she meets a man who has had a similar experience, Telly embarks on a search to prove her son's existence, and her sanity.", "poster_path": "/lr1jcoacf5EEdqeUAYqDlFXs4hs.jpg", "popularity": 11.793}], "total_pages": 8, "total_results": 160}, "recommendations": {"page": 1, "results": [{"id": 13092, "video": false, "vote_count": 445, "vote_average": 6.1, "title": "How to Lose Friends & Alienate People", "release_date": "2008-10-02", "original_language": "en", "original_title": "How to Lose Friends & Alienate People", "genre_ids": [35, 18, 10749], "backdrop_path": "/rQ7qMylqniree8x0F38ldaF3uGF.jpg", "adult": false, "overview": "A British writer struggles to fit in at a high-profile magazine in New York.", "poster_path": "/gIqp469K4w7158Zg0VqNdfo3qDk.jpg", "popularity": 14.138}, {"id": 2293, "video": false, "vote_count": 672, "vote_average": 6.8, "title": "Mallrats", "release_date": "1995-10-20", "original_language": "en", "original_title": "Mallrats", "genre_ids": [35, 10749], "backdrop_path": "/pYOg7Ds6auGHUGQIEr5uoYl36Ph.jpg", "adult": false, "overview": "Both dumped by their girlfriends, two best friends seek refuge in the local mall.", "poster_path": "/4saVIltqkhq9is5NmD7N87Q40M.jpg", "popularity": 14.872}, {"id": 300, "video": false, "vote_count": 422, "vote_average": 7.0, "title": "The Science of Sleep", "release_date": "2006-02-11", "original_language": "fr", "original_title": "La Science des r\u00eaves", "genre_ids": [35, 18, 14], "backdrop_path": "/h5ILYBMAYAlZbMypIImmSr2NGqZ.jpg", "adult": false, "overview": "A man entranced by his dreams and imagination is lovestruck with a French woman and feels he can show her his world.", "poster_path": "/8juTRqn5o43mnlVacp1IzZSd11N.jpg", "popularity": 9.346}, {"adult": false, "backdrop_path": "/dIF8r4OUVaRfy6O7mfIJjufEC9j.jpg", "genre_ids": [35], "id": 2295, "original_language": "en", "original_title": "Clerks II", "overview": "A calamity at Dante and Randall's shops sends them looking for new horizons - but they ultimately settle at Mooby's, a fictional Disney-McDonald's-style fast-food empire.", "poster_path": "/luPEGTlN8egktVeomdf2nEap5SP.jpg", "release_date": "2006-07-21", "title": "Clerks II", "video": false, "vote_average": 6.9, "vote_count": 726, "popularity": 14.833}, {"adult": false, "backdrop_path": "/1Y3ThCgBgGy0woQTUgjGxQmEByS.jpg", "genre_ids": [35], "id": 2294, "original_language": "en", "original_title": "Jay and Silent Bob Strike Back", "overview": "When Jay and Silent Bob learn that their comic-book alter egos, Bluntman and Chronic, have been sold to Hollywood as part of a big-screen movie that leaves them out of any royalties, the pair travels to Tinseltown to sabotage the production.", "poster_path": "/8xI9g6su8aKwg3Nk5qUnS025NyA.jpg", "release_date": "2001-08-22", "title": "Jay and Silent Bob Strike Back", "video": false, "vote_average": 6.4, "vote_count": 867, "popularity": 17.189}, {"id": 6575, "video": false, "vote_count": 364, "vote_average": 6.6, "title": "Walk Hard: The Dewey Cox Story", "release_date": "2007-12-21", "original_language": "en", "original_title": "Walk Hard: The Dewey Cox Story", "genre_ids": [35, 18, 10402], "backdrop_path": "/y7EElGAn1tFE0Npmls7uvg4HPVj.jpg", "adult": false, "overview": "Following a childhood tragedy, Dewey Cox follows a long and winding road to music stardom. Dewey perseveres through changing musical styles, an addiction to nearly every drug known and bouts of uncontrollable rage.", "poster_path": "/2sc7qoLTqZC0nB2k1crwuVoKP6H.jpg", "popularity": 12.774}, {"adult": false, "backdrop_path": "/ataSToX6mARHLbv0NpEmKr7IJJs.jpg", "genre_ids": [35, 10749], "id": 7942, "original_language": "en", "original_title": "Run Fatboy Run", "overview": "Five years after jilting his pregnant fianc\u00e9e on their wedding day, out-of-shape Dennis decides to run a marathon to win her back.", "poster_path": "/s6ehbUfScpU0408ahsxCzlUwAzG.jpg", "release_date": "2007-09-06", "title": "Run, Fatboy, Run", "video": false, "vote_average": 6.2, "vote_count": 401, "popularity": 11.411}, {"adult": false, "backdrop_path": "/sqq5nDBcgTDrIJ3Hcqq8q4a1iut.jpg", "genre_ids": [35, 18, 14, 10749], "id": 1262, "original_language": "en", "original_title": "Stranger Than Fiction", "overview": "Harold Crick is a lonely IRS agent whose mundane existence is transformed when he hears a mysterious voice narrating his life.", "poster_path": "/AtjCCvfMq9kmjwjbVwTJ0mWG7zp.jpg", "release_date": "2006-09-09", "title": "Stranger Than Fiction", "video": false, "vote_average": 7.2, "vote_count": 1338, "popularity": 14.309}, {"adult": false, "backdrop_path": "/4oXV4AW6LYabqxmMZZ7gjJRP4Ej.jpg", "genre_ids": [35, 10749], "id": 1599, "original_language": "en", "original_title": "I \u2665 Huckabees", "overview": "A husband-and-wife team play detective, but not in the traditional sense. Instead, the happy duo helps others solve their existential issues, the kind that keep you up at night, wondering what it all means.", "poster_path": "/xMVGVA3MAWtBcLIsfkYLa31n241.jpg", "release_date": "2004-09-10", "title": "I \u2665 Huckabees", "video": false, "vote_average": 6.3, "vote_count": 384, "popularity": 10.235}, {"id": 13532, "video": false, "vote_count": 500, "vote_average": 6.1, "title": "Fanboys", "release_date": "2009-02-06", "original_language": "en", "original_title": "Fanboys", "genre_ids": [12, 35], "backdrop_path": "/89udmMtxl8AuQHYoFdSgB5e6xYs.jpg", "adult": false, "overview": "In 1999, Star Wars fanatics take a cross-country trip to George Lucas' Skywalker Ranch so their dying friend can see a screening of The Phantom Menace before its release.", "poster_path": "/ywI92p2x7D96nuEayGVOMll35SF.jpg", "popularity": 13.772}, {"id": 7211, "video": false, "vote_count": 654, "vote_average": 6.4, "title": "Dan in Real Life", "release_date": "2007-10-26", "original_language": "en", "original_title": "Dan in Real Life", "genre_ids": [35, 18, 10749], "backdrop_path": "/hp8HvgnEzJrYnoXlEs9cK7nmKT7.jpg", "adult": false, "overview": "Advice columnist, Dan Burns is an expert on relationships, but somehow struggles to succeed as a brother, a son and a single parent to three precocious daughters. Things get even more complicated when Dan finds out that the woman he falls in love with is actually his brother's new girlfriend.", "poster_path": "/2HnyNUcQ9B5OJVJBIbidb0F9gT1.jpg", "popularity": 10.683}, {"id": 2292, "video": false, "vote_count": 1407, "vote_average": 7.4, "title": "Clerks", "release_date": "1994-09-13", "original_language": "en", "original_title": "Clerks", "genre_ids": [35], "backdrop_path": "/a3sogs3NLDj3d2ITPd6TTBR0Eax.jpg", "adult": false, "overview": "Convenience and video store clerks Dante and Randal are sharp-witted, potty-mouthed and bored out of their minds. So in between needling customers, the counter jockeys play hockey on the roof, visit a funeral home and deal with their love lives.", "poster_path": "/dmNytzvQTjylI83qrgDoS1KQ0ev.jpg", "popularity": 14.629}, {"id": 1850, "video": false, "vote_count": 956, "vote_average": 7.2, "title": "Man on the Moon", "release_date": "1999-12-22", "original_language": "en", "original_title": "Man on the Moon", "genre_ids": [35, 18, 36], "backdrop_path": "/pbRiqUD8zp7e1HIt2Cn68xyxnjL.jpg", "adult": false, "overview": "The story of the life and career of eccentric avant-garde comedian, Andy Kaufman.", "poster_path": "/otB2n1cXZ6ASbbRSwKm0Ze7kcNn.jpg", "popularity": 9.117}, {"id": 9353, "video": false, "vote_count": 704, "vote_average": 5.6, "title": "Nacho Libre", "release_date": "2006-06-16", "original_language": "en", "original_title": "Nacho Libre", "genre_ids": [35, 10751], "backdrop_path": "/cb73g9x8mUyxkW0G13wkGo4UoMG.jpg", "adult": false, "overview": "Nacho Libre is loosely based on the story of Fray Tormenta (\"Friar Storm\"), aka Rev. Sergio Gutierrez Benitez, a real-life Mexican Catholic priest who had a 23-year career as a masked luchador. He competed in order to support the orphanage he directed.", "poster_path": "/lNue9evMBzqjWE4tJmUegkep8Qs.jpg", "popularity": 13.838}, {"adult": false, "backdrop_path": "/rLW1reSSMCMlKF9A6IViIV1Zbt7.jpg", "genre_ids": [35], "id": 11543, "original_language": "en", "original_title": "Kingpin", "overview": "After bowler Roy Munson swindles the wrong crowd and is left with a hook for a hand, he settles into impoverished obscurity. That is, until he uncovers the next big thing: an Amish kid named Ishmael. So, the corrupt and the hopelessly na\u00efve hit the circuit intent on settling an old score with Big Ern.", "poster_path": "/l2LObt7s0hakFi9ga6tOKMqKkuo.jpg", "release_date": "1996-07-04", "title": "Kingpin", "video": false, "vote_average": 6.5, "vote_count": 445, "popularity": 13.84}, {"id": 2255, "video": false, "vote_count": 772, "vote_average": 6.8, "title": "Chasing Amy", "release_date": "1997-04-04", "original_language": "en", "original_title": "Chasing Amy", "genre_ids": [35, 18, 10749], "backdrop_path": "/doKYVK61Vb8J1KUjlb9dNWkQNp6.jpg", "adult": false, "overview": "Holden and Banky are comic book artists. Everything is going good for them until they meet Alyssa, also a comic book artist. Holden falls for her, but his hopes are crushed when he finds out she's a lesbian.", "poster_path": "/4vFJileWrCGaBeobCmF0tXpQCUb.jpg", "popularity": 11.325}, {"id": 8193, "video": false, "vote_count": 1025, "vote_average": 6.8, "title": "Napoleon Dynamite", "release_date": "2004-06-11", "original_language": "en", "original_title": "Napoleon Dynamite", "genre_ids": [35], "backdrop_path": "/Ac1DJFbYXWANxO59l1uabUcYQT0.jpg", "adult": false, "overview": "A listless and alienated teenager decides to help his new friend win the class presidency in their small western high school, while he must deal with his bizarre family life back home.", "poster_path": "/s0yuDUKiAJNl5XkO9OT4aFwnA3I.jpg", "popularity": 12.582}, {"id": 11635, "video": false, "vote_count": 1006, "vote_average": 6.5, "title": "Old School", "release_date": "2003-02-21", "original_language": "en", "original_title": "Old School", "genre_ids": [35], "backdrop_path": "/ixpnr4IeYWiuPfPcLPnoy8xNQC6.jpg", "adult": false, "overview": "Three friends attempt to recapture their glory days by opening up a fraternity near their alma mater.", "poster_path": "/lvcyZumUoA6OBeqcJknfZVTmKKF.jpg", "popularity": 11.978}, {"adult": false, "backdrop_path": "/uqLUeQR6wg80RMlcIbQQHIv8EDW.jpg", "genre_ids": [10402, 35], "id": 8873, "original_language": "en", "original_title": "Wayne's World 2", "overview": "A message from Jim Morrison in a dream prompts cable access TV stars Wayne and Garth to put on a rock concert, \"Waynestock,\" with Aerosmith as headliners. But amid the preparations, Wayne frets that a record producer is putting the moves on his girlfriend, Cassandra, while Garth handles the advances of mega-babe Honey Hornee.", "poster_path": "/pBs9DuzWhqWX7vPjzB6AvAXKXzM.jpg", "release_date": "1993-12-10", "title": "Wayne's World 2", "video": false, "vote_average": 6.0, "vote_count": 558, "popularity": 12.373}, {"id": 13257, "video": false, "vote_count": 250, "vote_average": 4.9, "title": "Mr. Woodcock", "release_date": "2007-09-14", "original_language": "en", "original_title": "Mr. Woodcock", "genre_ids": [35, 10749], "backdrop_path": "/j29rVuIcHfCERifgFvYXBLBD8Dc.jpg", "adult": false, "overview": "Taken aback by his mother's wedding announcement, a young man returns home in an effort to stop her from marrying his old high school gym teacher, a man who made high school hell for generations of students.", "poster_path": "/wCakZiRTNOd9jS6Rf32IjMBvIr9.jpg", "popularity": 9.964}], "total_pages": 2, "total_results": 40}, "credits": {"cast": [{"cast_id": 12, "character": "Jerry", "credit_id": "52fe43e7c3a36847f807740f", "gender": 2, "id": 70851, "name": "Jack Black", "order": 0, "profile_path": "/rtCx0fiYxJVhzXXdwZE2XRTfIKE.jpg"}, {"cast_id": 15, "character": "Mike (as Mos Def)", "credit_id": "52fe43e7c3a36847f807741b", "gender": 2, "id": 4239, "name": "Yasiin Bey", "order": 1, "profile_path": "/x51WKi3gxwobt9Sov5HeS5kKHUe.jpg"}, {"cast_id": 16, "character": "Mr. Fletcher", "credit_id": "52fe43e7c3a36847f807741f", "gender": 2, "id": 2047, "name": "Danny Glover", "order": 2, "profile_path": "/jSNTEnm0Sxm8FRtoBfJmhmQyozH.jpg"}, {"cast_id": 13, "character": "Ms. Kimberley", "credit_id": "52fe43e7c3a36847f8077413", "gender": 1, "id": 12021, "name": "Mia Farrow", "order": 3, "profile_path": "/rUVPgrDCyiW718F7SwlkpZYbSxL.jpg"}, {"cast_id": 14, "character": "James", "credit_id": "52fe43e7c3a36847f8077417", "gender": 2, "id": 34111, "name": "Marcus Carl Franklin", "order": 4, "profile_path": "/x0l67ha9vDO6NcRJ9UmKx20ZoOU.jpg"}, {"cast_id": 17, "character": "Manny", "credit_id": "52fe43e7c3a36847f8077423", "gender": 2, "id": 6070, "name": "Arjay Smith", "order": 5, "profile_path": "/pf1myo7qI3MTTPmmCg61BKqBayp.jpg"}, {"cast_id": 18, "character": "Mr. Rooney", "credit_id": "52fe43e7c3a36847f8077427", "gender": 2, "id": 40250, "name": "Paul Dinello", "order": 6, "profile_path": "/up1gsViuqIqS0w5idWSFWFm2a18.jpg"}, {"cast_id": 19, "character": "Alma", "credit_id": "52fe43e7c3a36847f807742b", "gender": 1, "id": 53936, "name": "Melonie Diaz", "order": 7, "profile_path": "/u9ZZDJWYJkc1yNFSLEMaIM5Q20y.jpg"}, {"cast_id": 20, "character": "Ms. Lawson", "credit_id": "52fe43e7c3a36847f807742f", "gender": 1, "id": 10205, "name": "Sigourney Weaver", "order": 8, "profile_path": "/pYtEkU8VOP0pS2gC1iD2Vuesgyj.jpg"}, {"cast_id": 22, "character": "West Coast Video Employee Passaic (as August Darnell)", "credit_id": "5b99ad040e0a265a38002d06", "gender": 2, "id": 103173, "name": "Kid Creole", "order": 9, "profile_path": null}, {"cast_id": 23, "character": "Officer Julian", "credit_id": "5cb3b2020e0a2626cac96593", "gender": 2, "id": 59841, "name": "Matt Walsh", "order": 10, "profile_path": "/qGPdThOmuzzWx7MH12qZr0pw19X.jpg"}, {"cast_id": 24, "character": "Andrea", "credit_id": "5d166c37fe63fa001e7df0c7", "gender": 0, "id": 2349916, "name": "Basia Rosas", "order": 11, "profile_path": null}, {"cast_id": 25, "character": "Sherry", "credit_id": "5d166c48665408001e99b049", "gender": 1, "id": 1308302, "name": "Heather Lawless", "order": 12, "profile_path": "/aZV7sE4LqYqFadqiiqPZx3bOZtN.jpg"}, {"cast_id": 26, "character": "Mr. Baker", "credit_id": "5d4d72a7699fb70016a153dc", "gender": 2, "id": 1211946, "name": "P. J. Byrne", "order": 13, "profile_path": "/y2ZxfTzMfXdGdqdDAyCPHFcHjqy.jpg"}], "crew": [{"credit_id": "52fe43e7c3a36847f80773d5", "department": "Writing", "gender": 2, "id": 201, "job": "Screenplay", "name": "Michel Gondry", "profile_path": "/a0uLwuRoAiELs02gJhNX14WqzV9.jpg"}, {"credit_id": "52fe43e7c3a36847f80773cf", "department": "Directing", "gender": 2, "id": 201, "job": "Director", "name": "Michel Gondry", "profile_path": "/a0uLwuRoAiELs02gJhNX14WqzV9.jpg"}, {"credit_id": "595bb00a925141222b03bc11", "department": "Production", "gender": 2, "id": 201, "job": "Producer", "name": "Michel Gondry", "profile_path": "/a0uLwuRoAiELs02gJhNX14WqzV9.jpg"}, {"credit_id": "52fe43e7c3a36847f80773e1", "department": "Camera", "gender": 1, "id": 313, "job": "Director of Photography", "name": "Ellen Kuras", "profile_path": null}, {"credit_id": "52fe43e7c3a36847f80773ff", "department": "Production", "gender": 1, "id": 4231, "job": "Producer", "name": "Julie Fong", "profile_path": null}, {"credit_id": "52fe43e7c3a36847f80773e7", "department": "Editing", "gender": 2, "id": 4234, "job": "Editor", "name": "Jeff Buchanan", "profile_path": null}, {"credit_id": "52fe43e7c3a36847f80773f9", "department": "Production", "gender": 2, "id": 4276, "job": "Producer", "name": "Georges Bermann", "profile_path": null}, {"credit_id": "52fe43e7c3a36847f80773db", "department": "Sound", "gender": 2, "id": 4278, "job": "Original Music Composer", "name": "Jean-Michel Bernard", "profile_path": null}, {"credit_id": "52fe43e7c3a36847f80773f3", "department": "Art", "gender": 2, "id": 7496, "job": "Production Design", "name": "Dan Leigh", "profile_path": null}, {"credit_id": "52fe43e7c3a36847f807740b", "department": "Production", "gender": 2, "id": 10830, "job": "Executive Producer", "name": "Toby Emmerich", "profile_path": "/mfkHPnmazcxDcjyVovNPzhUX1JN.jpg"}, {"credit_id": "52fe43e7c3a36847f80773ed", "department": "Art", "gender": 2, "id": 40248, "job": "Art Direction", "name": "James Donahue", "profile_path": null}, {"credit_id": "52fe43e7c3a36847f8077405", "department": "Production", "gender": 2, "id": 40249, "job": "Executive Producer", "name": "Guy Stodel", "profile_path": null}]}}