{"adult": false, "backdrop_path": "/1qQ120DSMhIlXdQUY0UnOX2al62.jpg", "belongs_to_collection": null, "budget": 0, "genres": [{"id": 18, "name": "Drama"}], "homepage": "", "id": 4955, "imdb_id": "tt0051964", "original_language": "de", "original_title": "M\u00e4dchen in Uniform", "overview": "After the death of her parents young girl Manuela von Meinhardis is sent to a boarding school where Prussian drill rules the education. Desperately seeking love and warmth in Manuela's heart special emotions for the only human lady teacher, Fraeulein von Bernburg, start growing. Manuela falls in love with her. It's just a matter of time until that forbidden love becomes known what immediately leads to disaster. Though Elisabeth von Bernburg has never returned the love she is forced to leave the school; Manuela gets a severe punishment, like someone who has committed a crime.", "popularity": 2.772, "poster_path": "/3jIoc8JqoOAPozmT6YbKwk1k4pT.jpg", "production_companies": [{"id": 10651, "logo_path": null, "name": "Productions Emile Natan", "origin_country": ""}, {"id": 18908, "logo_path": null, "name": "Central Cinema Company Film (CCC)", "origin_country": ""}, {"id": 1574, "logo_path": null, "name": "Les Films Modernes", "origin_country": ""}], "production_countries": [{"iso_3166_1": "FR", "name": "France"}, {"iso_3166_1": "DE", "name": "Germany"}], "release_date": "1958-07-07", "revenue": 0, "runtime": 95, "spoken_languages": [{"iso_639_1": "de", "name": "Deutsch"}], "status": "Released", "tagline": "", "title": "Girls in Uniform", "video": false, "vote_average": 6.4, "vote_count": 11, "keywords": {"keywords": [{"id": 1862, "name": "coming out"}, {"id": 6271, "name": "boarding school"}, {"id": 7357, "name": "potsdam"}, {"id": 7358, "name": "school performance"}, {"id": 10508, "name": "teacher"}, {"id": 193547, "name": "teachers and students"}]}, "similar": {"page": 1, "results": [{"adult": false, "backdrop_path": "/jLq0ol1f0ZKXni9R9GsPBcyPrNN.jpg", "genre_ids": [18], "id": 18148, "original_language": "ja", "original_title": "\u6771\u4eac\u7269\u8a9e", "overview": "The elderly Shukishi and his wife, Tomi, take the long journey from their small seaside village to visit their adult children in Tokyo. Their elder son, Koichi, a doctor, and their daughter, Shige, a hairdresser, don't have much time to spend with their aged parents, and so it falls to Noriko, the widow of their younger son who was killed in the war, to keep her in-laws company.", "poster_path": "/g2YbTYKpY7N2yDSk7BfXZ18I5QV.jpg", "release_date": "1953-11-03", "title": "Tokyo Story", "video": false, "vote_average": 8.4, "vote_count": 423, "popularity": 12.262}, {"adult": false, "backdrop_path": "/5dF4FNwM2qZIuF0WCUs5zvDGU2H.jpg", "genre_ids": [18], "id": 7508, "original_language": "hi", "original_title": "Taare Zameen Par", "overview": "Ishaan Awasthi is an eight-year-old whose world is filled with wonders that no one else seems to appreciate. Colours, fish, dogs, and kites don't seem important to the adults, who are much more interested in things like homework, marks, and neatness. Ishaan cannot seem to get anything right in class; he is then sent to boarding school, where his life changes forever.", "poster_path": "/t8x4j5KtI6hZRUVtPPztNBo1q5W.jpg", "release_date": "2007-12-21", "title": "Like Stars on Earth", "video": false, "vote_average": 8.0, "vote_count": 458, "popularity": 10.808}, {"adult": false, "backdrop_path": "/uDCZppEnWorFzO70sGW6zZfh4FH.jpg", "genre_ids": [35, 18], "id": 8618, "original_language": "en", "original_title": "The History Boys", "overview": "The story of an unruly class of bright, funny history students at a Yorkshire grammar school in pursuit of an undergraduate place at Oxford or Cambridge. Bounced between their maverick English master, a young and shrewd teacher hired to up their test scores, a grossly out-numbered history teacher, and a headmaster obsessed with results, the boys attempt to pass.", "poster_path": "/AZvkyBkqSUTyJgePwDHL3R5snj.jpg", "release_date": "2006-10-02", "title": "The History Boys", "video": false, "vote_average": 6.8, "vote_count": 113, "popularity": 8.736}, {"id": 449176, "video": false, "vote_count": 3691, "vote_average": 8.1, "title": "Love, Simon", "release_date": "2018-02-16", "original_language": "en", "original_title": "Love, Simon", "genre_ids": [35, 18, 10749], "backdrop_path": "/rqMEeajyzSF4PpJtdCB816Iz8Vr.jpg", "adult": false, "overview": "Everyone deserves a great love story. But for seventeen-year old Simon Spier it's a little more complicated: he's yet to tell his family or friends he's gay and he doesn't know the identity of the anonymous classmate he's fallen for online.", "poster_path": "/5YUYg5q7QfC4IoNwNUtiwdiYKPr.jpg", "popularity": 17.201}, {"adult": false, "backdrop_path": "/AqocxdL9luA7ALU0gGSHDzDy254.jpg", "genre_ids": [14, 16, 18, 878], "id": 14069, "original_language": "ja", "original_title": "\u6642\u3092\u304b\u3051\u308b\u5c11\u5973", "overview": "When 17-year-old Makoto Konno gains the ability to, quite literally, \"leap\" backwards through time, she immediately sets about improving her grades and preventing personal mishaps. However, she soon realises that changing the past isn't as simple as it seems, and eventually, will have to rely on her new powers to shape the future of herself and her friends.", "poster_path": "/7oNeWrsaiMGxCrvkWjQ56y6JN85.jpg", "release_date": "2006-07-15", "title": "The Girl Who Leapt Through Time", "video": false, "vote_average": 7.8, "vote_count": 1043, "popularity": 22.298}, {"id": 400928, "video": false, "vote_count": 2318, "vote_average": 7.9, "title": "Gifted", "release_date": "2017-04-12", "original_language": "en", "original_title": "Gifted", "genre_ids": [35, 18, 10751], "backdrop_path": "/gYtXT7fJNBRZBbBulO11DoRveLT.jpg", "adult": false, "overview": "Frank, a single man raising his child prodigy niece Mary, is drawn into a custody battle with his mother.", "poster_path": "/9Ts7Vc4wLlpI9oox9mkVUE1tBHy.jpg", "popularity": 22.146}, {"id": 52449, "video": false, "vote_count": 3175, "vote_average": 5.5, "title": "Bad Teacher", "release_date": "2011-05-16", "original_language": "en", "original_title": "Bad Teacher", "genre_ids": [35], "backdrop_path": "/vmgRzmRMPjhZ50Oai1DI0LLEZCo.jpg", "adult": false, "overview": "A lazy, incompetent middle school teacher who hates her job and her students is forced to return to her job to make enough money for a boob job after her rich fianc\u00e9 dumps her.", "poster_path": "/zpIY4qUSX91J9XpPgr0hFrk1eKr.jpg", "popularity": 15.441}, {"adult": false, "backdrop_path": "/4NJplkljN06NQLMLSUNmrIsBjBZ.jpg", "genre_ids": [35, 18], "id": 400547, "original_language": "en", "original_title": "Hurricane Bianca", "overview": "Hurricane Bianca is a revenge comedy about a New York teacher who moves to a small town in Texas, gets fired for being gay, and returns disguised in drag to get revenge on the people who were nasty to him.", "poster_path": "/w1QM09R1TqwHTb5UA8X8jR2yh4x.jpg", "release_date": "2016-06-03", "title": "Hurricane Bianca", "video": false, "vote_average": 6.2, "vote_count": 212, "popularity": 9.77}, {"id": 233063, "video": false, "vote_count": 1166, "vote_average": 7.1, "title": "Suck Me Shakespeer", "release_date": "2013-11-07", "original_language": "de", "original_title": "Fack ju G\u00f6hte", "genre_ids": [35], "backdrop_path": "/AtCGEku6kLUFmZ6JWkvXphQBQXx.jpg", "adult": false, "overview": "A comedy that follows an ex-con who lands a position at a school that sits over the spot where money from one of his earlier robberies was stashed.", "poster_path": "/9GSGg4McYID6Ld0OMwimLr1Zx4J.jpg", "popularity": 15.749}, {"id": 13971, "video": false, "vote_count": 1137, "vote_average": 6.7, "title": "Wild Child", "release_date": "2008-01-01", "original_language": "en", "original_title": "Wild Child", "genre_ids": [35, 18, 10749], "backdrop_path": "/18W6hUmP9sVzDlzzlrsP4RaKJ7H.jpg", "adult": false, "overview": "Rebellious 16 year old Poppy from Mailibu is sent to an English boarding school. Realising her Father isn't coming back to rescue her she tries to get expelled.", "poster_path": "/mtkVTaXslEGadjPC2uSofQlJ4jP.jpg", "popularity": 16.567}, {"id": 140, "video": false, "vote_count": 465, "vote_average": 7.4, "title": "Bad Education", "release_date": "2004-03-19", "original_language": "es", "original_title": "La mala educaci\u00f3n", "genre_ids": [80, 18, 9648, 53, 10749], "backdrop_path": "/vg08n0OYu7CF4rjZut3uOgbd8wB.jpg", "adult": false, "overview": "Two children, Ignacio and Enrique, know love, the movies and fear in a religious school at the beginning of the 1960s. Father Manolo, director of the school and its professor of literature, is witness to and part of these discoveries. The three are followed through the next few decades, their reunion marking life and death.", "poster_path": "/2wPhxmIveLgp8ClczFSHQhupF29.jpg", "popularity": 9.632}, {"id": 810, "video": false, "vote_count": 5379, "vote_average": 6.2, "title": "Shrek the Third", "release_date": "2007-05-17", "original_language": "en", "original_title": "Shrek the Third", "genre_ids": [12, 16, 35, 14, 10751], "backdrop_path": "/7fT1IogBbxM6S7SOIGSe7BXLEMq.jpg", "adult": false, "overview": "The King of Far Far Away has died and Shrek and Fiona are to become King & Queen. However, Shrek wants to return to his cozy swamp and live in peace and quiet, so when he finds out there is another heir to the throne, they set off to bring him back to rule the kingdom.", "poster_path": "/lA17Mlz8hXVZsW5Y3WuUa8KPilQ.jpg", "popularity": 25.166}, {"id": 1791, "video": false, "vote_count": 468, "vote_average": 7.4, "title": "The Piano Teacher", "release_date": "2001-07-21", "original_language": "fr", "original_title": "La Pianiste", "genre_ids": [18, 10749], "backdrop_path": "/mNXNFlZXeJYSqTGIiweEaMxGYfO.jpg", "adult": false, "overview": "Erika Kohut, a sexually repressed piano teacher living with her domineering mother, meets a young man who starts romantically pursuing her.", "poster_path": "/ln8Ip9Etw4jxzxSuXSTwFqsfsSY.jpg", "popularity": 11.804}, {"id": 1807, "video": false, "vote_count": 931, "vote_average": 7.1, "title": "Elephant", "release_date": "2003-09-06", "original_language": "en", "original_title": "Elephant", "genre_ids": [80, 18], "backdrop_path": "/uCIRcNRHGN5VCLHTsBBITVqYWQN.jpg", "adult": false, "overview": "Several ordinary high school students go through their daily routine as two others prepare for something more malevolent. The film chronicles the events surrounding a school shooting.", "poster_path": "/1a4VU9z2hxEvugHMK7VsobB9xTX.jpg", "popularity": 9.359}, {"id": 35052, "video": false, "vote_count": 204, "vote_average": 6.7, "title": "Cracks", "release_date": "2009-12-04", "original_language": "en", "original_title": "Cracks", "genre_ids": [18, 9648, 53], "backdrop_path": "/6rWMFj9HrlJWzsLOCZJyl3HR6VJ.jpg", "adult": false, "overview": "Jealousy flares after the headmistress of an elite boarding school for girls becomes obsessed with a new student.", "poster_path": "/2zpNd8qPT9HyQMUT1uVwyXhmMjM.jpg", "popularity": 9.137}, {"id": 103663, "video": false, "vote_count": 1814, "vote_average": 8.1, "title": "The Hunt", "release_date": "2012-09-24", "original_language": "da", "original_title": "Jagten", "genre_ids": [18], "backdrop_path": "/guJLZQ0glrGpyOydxrpvnlNByae.jpg", "adult": false, "overview": "A teacher lives a lonely life, all the while struggling over his son\u2019s custody. His life slowly gets better as he finds love and receives good news from his son, but his new luck is about to be brutally shattered by an innocent little lie.", "poster_path": "/hD42EDHLap5UVmv9CZrUiTxH3rY.jpg", "popularity": 11.967}, {"id": 27098, "video": false, "vote_count": 49, "vote_average": 6.3, "title": "All Things Fair", "release_date": "1995-03-08", "original_language": "sv", "original_title": "Lust och f\u00e4gring stor", "genre_ids": [18, 10749, 10752], "backdrop_path": "/l1ulbjfMODxJyW4L2EfO7BzqydO.jpg", "adult": false, "overview": "This film is set in 1943 when the whole of Europe was embroiled in WWII. It deals with attraction of a 15 year old boy Stig to his teacher Viola. The whole movie revolves around the sexual encounters between Stig and Viola and how he eventually grows out of it.", "poster_path": "/uJD0PvYGAa1IoZBsX4E6GQ4K2In.jpg", "popularity": 16.819}, {"adult": false, "backdrop_path": "/zwJFfKQdfiptK2GY6N8GkZFrAxJ.jpg", "genre_ids": [27, 53], "id": 7340, "original_language": "en", "original_title": "Carrie", "overview": "Carrie White, a shy and troubled teenage girl who is tormented by her high school peers and her fanatically religious mother, begins to use her powers of telekinesis to exact revenge upon them.", "poster_path": "/n9JxLthRHwTWwu5OjFHVplkVSUg.jpg", "release_date": "1976-11-03", "title": "Carrie", "video": false, "vote_average": 7.2, "vote_count": 2026, "popularity": 14.332}, {"id": 167581, "video": false, "vote_count": 366, "vote_average": 7.6, "title": "Free Fall", "release_date": "2013-05-27", "original_language": "de", "original_title": "Freier Fall", "genre_ids": [18, 10749], "backdrop_path": "/bK4be7CxH5OypObfC0HQd1djA8f.jpg", "adult": false, "overview": "A promising career with the police, a baby on the way... Marc's life seems to be right on track. Then he meets fellow policeman Kay and during their regular jogs Marc experiences a never-before-felt sense of ease and effortlessness -- and what it means to fall in love with another man.", "poster_path": "/2ZfCMmIdrkmQl5DKCkzFPhVyezp.jpg", "popularity": 11.711}, {"adult": false, "backdrop_path": "/vvRlCks4HEZktmAhDIqghyamKiY.jpg", "genre_ids": [35, 18, 9648, 53], "id": 121875, "original_language": "fr", "original_title": "Dans la maison", "overview": "A sixteen-year-old boy insinuates himself into the house of a fellow student from his literature class and writes about it in essays for his French teacher. Faced with this gifted and unusual pupil, the teacher rediscovers his enthusiasm for his work, but the boy\u2019s intrusion will unleash a series of uncontrollable events.", "poster_path": "/4qAnWMNKUadx10jlCrkRAAuT4bN.jpg", "release_date": "2012-09-26", "title": "In the House", "video": false, "vote_average": 7.4, "vote_count": 456, "popularity": 10.737}], "total_pages": 14, "total_results": 266}, "recommendations": {"page": 1, "results": [], "total_pages": 1, "total_results": 0}, "credits": {"cast": [{"cast_id": 1, "character": "Fr\u00e4ulein von Bernburg", "credit_id": "52fe43e7c3a36847f807751d", "gender": 1, "id": 27932, "name": "Lilli Palmer", "order": 0, "profile_path": "/9nEJhELLIkkdlhYwnhGuLYnihbE.jpg"}, {"cast_id": 2, "character": "Manuela von Meinhardis", "credit_id": "52fe43e7c3a36847f8077521", "gender": 1, "id": 6250, "name": "Romy Schneider", "order": 1, "profile_path": "/xDFOi56e7OjMcbQ0o5B58kid5FF.jpg"}, {"cast_id": 3, "character": "Frau Oberin", "credit_id": "52fe43e7c3a36847f8077525", "gender": 1, "id": 40251, "name": " Therese Giehse", "order": 2, "profile_path": "/1tWcLlN2CCZ3f6FaddfVbnbWf7i.jpg"}, {"cast_id": 4, "character": "Ilse", "credit_id": "52fe43e7c3a36847f8077529", "gender": 1, "id": 26300, "name": "Sabine Sinjen", "order": 3, "profile_path": "/699OBdkgjAA7CpCjFdNatO6N5M9.jpg"}, {"cast_id": 5, "character": "Mia", "credit_id": "52fe43e7c3a36847f807752d", "gender": 1, "id": 3762, "name": "Christine Kaufmann", "order": 4, "profile_path": "/5dOT16uZw2wKekuv1ogvRwS3y5U.jpg"}, {"cast_id": 6, "character": "Fr\u00e4ulein von Rackett", "credit_id": "52fe43e7c3a36847f8077531", "gender": 1, "id": 40252, "name": "Blandine Ebinger", "order": 5, "profile_path": "/6mLfdo79hoqwhKHSSSZ6GZNGHUO.jpg"}, {"cast_id": 19, "character": "Alexandra", "credit_id": "52fe43e7c3a36847f807757d", "gender": 1, "id": 40993, "name": "Danik Patisson", "order": 6, "profile_path": "/ylIAMovgww4qqHiibQ2kyB5gBDL.jpg"}, {"cast_id": 20, "character": "Edelgard von Kleist", "credit_id": "52fe43e7c3a36847f8077581", "gender": 1, "id": 40994, "name": "Ginette Pigeon", "order": 7, "profile_path": "/1vEta4vrDM22RYeXkEoQfFHbeWZ.jpg"}, {"cast_id": 22, "character": "Johanna", "credit_id": "52fe43e7c3a36847f8077585", "gender": 1, "id": 11535, "name": "Paulette Dubost", "order": 9, "profile_path": "/gvrZ8ANDx29OCcgbEIHTb6o9VLV.jpg"}, {"cast_id": 23, "character": "Schneiderin", "credit_id": "52fe43e7c3a36847f8077589", "gender": 1, "id": 40996, "name": "Roma Bahn", "order": 10, "profile_path": "/xuayTqxu7MlYranWIUDzbOiwftz.jpg"}, {"cast_id": 24, "character": "Miss Evans", "credit_id": "52fe43e7c3a36847f807758d", "gender": 0, "id": 40997, "name": "Margaret Jahnen", "order": 11, "profile_path": null}, {"cast_id": 25, "character": "Jossy", "credit_id": "52fe43e7c3a36847f8077591", "gender": 0, "id": 40998, "name": "Ulla Moritz", "order": 12, "profile_path": null}, {"cast_id": 26, "character": "Frau von Ehrenhardt", "credit_id": "52fe43e7c3a36847f8077595", "gender": 0, "id": 41000, "name": "Edith Helou", "order": 13, "profile_path": null}, {"cast_id": 27, "character": "Hertha", "credit_id": "52fe43e7c3a36847f8077599", "gender": 0, "id": 41001, "name": "Tessy Aselmeier", "order": 14, "profile_path": null}, {"cast_id": 28, "character": "Lehrerin", "credit_id": "52fe43e7c3a36847f807759d", "gender": 0, "id": 41002, "name": "Edith Adana", "order": 15, "profile_path": null}, {"cast_id": 29, "character": "Lehrerin", "credit_id": "52fe43e7c3a36847f80775a1", "gender": 1, "id": 41003, "name": "K\u00e4the Kamossa", "order": 16, "profile_path": null}, {"cast_id": 30, "character": "Lehrerin", "credit_id": "52fe43e7c3a36847f80775a5", "gender": 0, "id": 41005, "name": "Regine Burghardt", "order": 17, "profile_path": null}, {"cast_id": 36, "character": "Frau Aubert", "credit_id": "52fe43e7c3a36847f80775c7", "gender": 1, "id": 104087, "name": "Marthe Mercadier", "order": 18, "profile_path": "/iPYDq0jJWNZNLDPVg5Gi6zhHxQc.jpg"}], "crew": [{"credit_id": "52fe43e7c3a36847f807756d", "department": "Art", "gender": 2, "id": 12319, "job": "Production Design", "name": "Emil Hasler", "profile_path": null}, {"credit_id": "52fe43e7c3a36847f80775ab", "department": "Production", "gender": 2, "id": 12737, "job": "Producer", "name": "Artur Brauner", "profile_path": "/uW5tXwzaAji5DYUonEBSDuEcsip.jpg"}, {"credit_id": "52fe43e7c3a36847f807755b", "department": "Editing", "gender": 0, "id": 32531, "job": "Editor", "name": "Ira Oberberg", "profile_path": null}, {"credit_id": "52fe43e7c3a36847f8077537", "department": "Directing", "gender": 2, "id": 40983, "job": "Director", "name": "G\u00e9za von Radv\u00e1nyi", "profile_path": null}, {"credit_id": "52fe43e7c3a36847f807753d", "department": "Directing", "gender": 1, "id": 40984, "job": "Director", "name": "Eva Ebner", "profile_path": "/nAWQp0hGcpCOLwpAubHb2zpiXSI.jpg"}, {"credit_id": "52fe43e7c3a36847f8077543", "department": "Writing", "gender": 0, "id": 40985, "job": "Screenplay", "name": "Franz H\u00f6llering", "profile_path": null}, {"credit_id": "52fe43e7c3a36847f8077549", "department": "Writing", "gender": 0, "id": 40986, "job": "Screenplay", "name": "Friedrich Dammann", "profile_path": null}, {"credit_id": "52fe43e7c3a36847f807754f", "department": "Camera", "gender": 2, "id": 40987, "job": "Director of Photography", "name": "Werner Krien", "profile_path": null}, {"credit_id": "52fe43e7c3a36847f8077555", "department": "Camera", "gender": 0, "id": 40988, "job": "Camera Operator", "name": "Gerhard Kr\u00fcger", "profile_path": null}, {"credit_id": "52fe43e7c3a36847f8077561", "department": "Sound", "gender": 0, "id": 40989, "job": "Sound Designer", "name": "Clemens T\u00fctsch", "profile_path": null}, {"credit_id": "52fe43e7c3a36847f8077567", "department": "Art", "gender": 0, "id": 40990, "job": "Production Design", "name": "Walter Kutz", "profile_path": null}, {"credit_id": "52fe43e7c3a36847f8077573", "department": "Costume & Make-Up", "gender": 0, "id": 40991, "job": "Costume Design", "name": "Manon Hahn", "profile_path": null}, {"credit_id": "52fe43e7c3a36847f8077579", "department": "Sound", "gender": 2, "id": 40992, "job": "Original Music Composer", "name": "Peter Sandloff", "profile_path": null}, {"credit_id": "52fe43e7c3a36847f80775b1", "department": "Production", "gender": 0, "id": 41006, "job": "Producer", "name": "Joseph Spigler", "profile_path": null}, {"credit_id": "52fe43e7c3a36847f80775b7", "department": "Production", "gender": 0, "id": 41007, "job": "Production Manager", "name": "Helmut Ungerland", "profile_path": null}, {"credit_id": "52fe43e7c3a36847f80775bd", "department": "Production", "gender": 0, "id": 41008, "job": "Location Manager", "name": "Heinz G\u00f6tze", "profile_path": null}, {"credit_id": "52fe43e7c3a36847f80775c3", "department": "Production", "gender": 0, "id": 41009, "job": "Location Manager", "name": "Horst Springel", "profile_path": null}, {"credit_id": "5a4bf99c925141262c000c66", "department": "Writing", "gender": 0, "id": 58345, "job": "Theatre Play", "name": "Christa Winsloe", "profile_path": null}]}}