{"adult": false, "backdrop_path": "/fj5BS9DBlqlxonYascf9hX03A8w.jpg", "belongs_to_collection": null, "budget": 0, "genres": [{"id": 99, "name": "Documentary"}], "homepage": null, "id": 49837, "imdb_id": "tt0198559", "original_language": "en", "original_title": "South", "overview": "The story of the 1914-1916 Antarctic exploration mission of Sir Ernest Shackleton.", "popularity": 3.095, "poster_path": "/99TRhj3Qm3FNHLXkDbYHcGSAn9X.jpg", "production_companies": [{"id": 74429, "logo_path": null, "name": "Ralph Minden Film", "origin_country": ""}], "production_countries": [{"iso_3166_1": "AU", "name": "Australia"}, {"iso_3166_1": "GB", "name": "United Kingdom"}], "release_date": "1919-01-01", "revenue": 0, "runtime": 81, "spoken_languages": [{"iso_639_1": "en", "name": "English"}], "status": "Released", "tagline": "", "title": "South", "video": false, "vote_average": 6.9, "vote_count": 8, "keywords": {"keywords": [{"id": 4759, "name": "exploration"}]}, "similar": {"page": 1, "results": [{"adult": false, "backdrop_path": null, "genre_ids": [99], "id": 302874, "original_language": "en", "original_title": "Terra Antarctica, Re-Discovering the Seventh Continent", "overview": "For six weeks we explored the Antarctic Peninsula by sea kayak, sailboat, foot and small plane, observing the fast changing evolution of this most remote place. Impacted by climate change - temperatures have warmed along the Peninsula faster than anywhere on the planet during the past 50 years - this part of Antarctica is also experiencing a boom in tourism and nations fighting over who owns what as its ice slowly disappears. This National Geographic-sponsored exploration is a one-of-a-kind look at Antarctica from a unique perspective - sea level.", "poster_path": "/x0ySVcDM3pHUX7kUt6NtycbThzj.jpg", "release_date": "2009-03-10", "title": "Terra Antarctica, Re-Discovering the Seventh Continent", "video": false, "vote_average": 6.0, "vote_count": 1, "popularity": 0.6}, {"id": 93790, "video": false, "vote_count": 2, "vote_average": 8.5, "title": "Voyage to the Edge of the World", "release_date": "1976-09-01", "original_language": "fr", "original_title": "Voyage au bout du monde", "genre_ids": [99], "backdrop_path": "/xpu17VaCAfQX9z7SfIaOxXRhStj.jpg", "adult": false, "overview": "On his ship \"Calypso,\" as well as in a submarine, Jacques Cousteau and his crew sail from South America and travel to Antarctica. They explore islands, reefs, icebergs, fossils, active volcanic craters, and creatures of the ocean never before seen. This voyage took place in 1975, and Captain Cousteau became one of the first explorers ever to dive beneath the waters of the frozen South Pole.", "poster_path": "/tLbKATQFwRmUsSaST9Ge70Ol8BF.jpg", "popularity": 0.84}, {"adult": false, "backdrop_path": "/cjXvkPZsjPRduErCZjq8xysaubx.jpg", "genre_ids": [99], "id": 465197, "original_language": "fr", "original_title": "Antarctica, sur les traces de l'empereur", "overview": "", "poster_path": "/1OjcBlbG4EbHG1vycLdxdU5EPCl.jpg", "release_date": "2016-02-23", "title": "Antarctica, sur les traces de l'empereur", "video": false, "vote_average": 0.0, "vote_count": 0, "popularity": 0.639}, {"id": 1091, "video": false, "vote_count": 3506, "vote_average": 8.0, "title": "The Thing", "release_date": "1982-06-25", "original_language": "en", "original_title": "The Thing", "genre_ids": [27, 9648, 878], "backdrop_path": "/7mdGrxp3ZL2OqNSrQ5LoYySi5MH.jpg", "adult": false, "overview": "Scientists in the Antarctic are confronted by a shape-shifting alien that assumes the appearance of the people it kills.", "poster_path": "/tzGY49kseSE9QAKk47uuDGwnSCu.jpg", "popularity": 23.828}, {"id": 60935, "video": false, "vote_count": 1591, "vote_average": 6.1, "title": "The Thing", "release_date": "2011-10-12", "original_language": "en", "original_title": "The Thing", "genre_ids": [27, 9648, 878, 53], "backdrop_path": "/9pguay2WdWNORzgxQuOmxPVf7Z3.jpg", "adult": false, "overview": "When paleontologist Kate Lloyd travels to an isolated outpost in Antarctica for the expedition of a lifetime, she joins an international team that unearths a remarkable discovery. Their elation quickly turns to fear as they realize that their experiment has freed a mysterious being from its frozen prison. Paranoia spreads like an epidemic as a creature that can mimic anything it touches will pit human against human as it tries to survive and flourish in this spine-tingling thriller.", "poster_path": "/a2Cme25fHcSdIQ2wW6aWmE4owUI.jpg", "popularity": 17.137}, {"id": 9836, "video": false, "vote_count": 3141, "vote_average": 6.0, "title": "Happy Feet", "release_date": "2006-11-16", "original_language": "en", "original_title": "Happy Feet", "genre_ids": [16, 35, 10751], "backdrop_path": "/xgLMY1VCwM8SJq6HB3ZMpYL6mic.jpg", "adult": false, "overview": "Into the world of the Emperor Penguins, who find their soul mates through song, a penguin is born who cannot sing. But he can tap dance something fierce!", "poster_path": "/8RLEzftZK87S2usLsQoYtyNYzoV.jpg", "popularity": 17.384}, {"id": 9036, "video": false, "vote_count": 1082, "vote_average": 6.9, "title": "Eight Below", "release_date": "2006-02-17", "original_language": "en", "original_title": "Eight Below", "genre_ids": [12, 18, 10751], "backdrop_path": "/kHRrE2xAMe3JdPTwY4wXgOhlfmv.jpg", "adult": false, "overview": "In the Antarctic, after an expedition with Dr. Davis McClaren, the sled dog trainer Jerry Shepherd has to leave the polar base with his colleagues due to the proximity of a heavy snow storm. He ties his dogs to be rescued after, but the mission is called-off and the dogs are left alone at their own fortune. For six months, Jerry tries to find a sponsor for a rescue mission.", "poster_path": "/b25TensrtHJNGeYFFtI86GMO27a.jpg", "popularity": 17.251}, {"id": 27085, "video": false, "vote_count": 75, "vote_average": 5.4, "title": "The Land That Time Forgot", "release_date": "1974-08-13", "original_language": "en", "original_title": "The Land That Time Forgot", "genre_ids": [12, 14, 878], "backdrop_path": "/aXurrinBoBrS8e3ThpwdylLAWhy.jpg", "adult": false, "overview": "During World War I, a German U-boat sinks a British ship and takes the survivors on board. After it takes a wrong turn, the submarine takes them to the unknown land of Caprona, where they find dinosaurs and neanderthals.", "poster_path": "/wUlk7qYAmDicYXQ9uMVP0F2OMZ4.jpg", "popularity": 8.632}, {"id": 9764, "video": false, "vote_count": 192, "vote_average": 8.2, "title": "Dersu Uzala", "release_date": "1975-08-02", "original_language": "ru", "original_title": "\u0414\u0435\u0440\u0441\u0443 \u0423\u0437\u0430\u043b\u0430", "genre_ids": [28, 12, 18], "backdrop_path": "/xpHIp4ZQjmfLslA2O4yfOG8O700.jpg", "adult": false, "overview": "A military explorer meets and befriends a Goldi man in Russia\u2019s unmapped forests. A deep and abiding bond evolves between the two men, one civilized in the usual sense, the other at home in the glacial Siberian woods.", "poster_path": "/vC48JE8jGB5kxg6qUPLflvI4eHB.jpg", "popularity": 7.294}, {"adult": false, "backdrop_path": "/6twIfM3vWCm0GbmS6ij8fXouRuC.jpg", "genre_ids": [18, 12], "id": 17895, "original_language": "ja", "original_title": "\u5357\u6975\u7269\u8a9e", "overview": "Two Japanese scientists, Ushioda and Ochi, develop a bond with their sled dogs while on an expedition in Antarctica.", "poster_path": "/8IMfzLT7I4oqfR5un6O1JtnzTMP.jpg", "release_date": "1983-07-23", "title": "Antarctica", "video": false, "vote_average": 7.2, "vote_count": 35, "popularity": 8.077}, {"adult": false, "backdrop_path": "/39XQf9sk2qyyleVOX6QdS9o8v53.jpg", "genre_ids": [16, 12, 14, 10751], "id": 462677, "original_language": "ja", "original_title": "\u6620\u753b\u30c9\u30e9\u3048\u3082\u3093 \u306e\u3073\u592a\u306e\u5357\u6975\u30ab\u30c1\u30b3\u30c1\u5927\u5192\u967a", "overview": "Unable to endure the midsummer heat, Doraemon transports Nobita and his friends to a huge iceberg floating in the South Pacific. While creating an amusement parks with the secret tool \"Ice-working Iron\" the group finds a mysterious golden ring in the ice. Upon closer examination, they determine that the ring was buried in Antarctica 100,000 years ago - before people could have lived there. Doraemon and friends head to Antarctica looking for the owner of the ring and come across the ruins of a huge city buried in the ice. Using Doraemon's Time Belt, the group travels back 100,000 years ago and meets the young girl Kara who is connected to the mysterious ring. But now the group must fight for survival as Doraemon faces the crisis of the entire Earth freezing.", "poster_path": "/oUvhVQ6wyO7qssQSJ1CiM93Di7P.jpg", "release_date": "2017-03-04", "title": "Doraemon: Nobita's Great Adventure in the Antarctic Kachi Kochi", "video": false, "vote_average": 8.6, "vote_count": 12, "popularity": 8.727}, {"id": 197624, "video": false, "vote_count": 32, "vote_average": 3.9, "title": "AE: Apocalypse Earth", "release_date": "2013-05-28", "original_language": "en", "original_title": "AE: Apocalypse Earth", "genre_ids": [28, 878, 10770], "backdrop_path": "/p7kHtJDMuowURRgR9wsMIeu941M.jpg", "adult": false, "overview": "A group of refugees from Earth land on an exotic planet, where they must fight ruthless aliens to survive.", "poster_path": "/y1ChvzGMMI5eys69A1wKuRXpSma.jpg", "popularity": 5.959}, {"id": 550844, "video": false, "vote_count": 6, "vote_average": 4.0, "title": "Alien Expedition", "release_date": "2018-09-25", "original_language": "en", "original_title": "Alien Expedition", "genre_ids": [28, 12, 878], "backdrop_path": "/pphvLmExQhj6fZid4DoRoQimiWA.jpg", "adult": false, "overview": "After a deep space exploration vessel discovers a potentially habitable planet, a scouting team composed of human and biorobotic individuals is dispatched to investigate the planet's resources. Once on the ground, their reconnaissance mission soon turns into a battle for survival against the planet's hostile alien lifeforms.", "poster_path": "/alHSQQMgJUAyHxVHzH1i8VXk6hu.jpg", "popularity": 4.795}, {"adult": false, "backdrop_path": "/704YsOl87azhQDV9RWZfPkjERvx.jpg", "genre_ids": [99], "id": 15254, "original_language": "en", "original_title": "Antarctica", "overview": "This large format film explores the last great wilderness on earth. It takes you to the coldest, driest, windiest continent, Antarctica. The film explores the life in Antarctica, both for the animals that live their and the scientist that work there.", "poster_path": "/zAuu5tPlK9Ak8mqjcKJPWie00yZ.jpg", "release_date": "1991-10-18", "title": "Antarctica", "video": false, "vote_average": 5.4, "vote_count": 4, "popularity": 2.996}, {"adult": false, "backdrop_path": "/k6rVUyZnIBWot3SR3GRCZLrGdKd.jpg", "genre_ids": [99], "id": 548898, "original_language": "de", "original_title": "Projekt: Antarktis", "overview": "", "poster_path": "/qYijTvF4daD5mweBAA5RDLS5ERu.jpg", "release_date": "2018-10-25", "title": "Project: Antarctica", "video": false, "vote_average": 7.0, "vote_count": 3, "popularity": 1.108}, {"adult": false, "backdrop_path": "/7JYrt5pTf1JFSgkmg33XLiYHtg6.jpg", "genre_ids": [12, 36], "id": 52998, "original_language": "en", "original_title": "El Dorado", "overview": "The story of an expedition down the Orinoco and Amazon rivers in 1560 by Spanish soldiers searching for the fabled city of gold, El Dorado.", "poster_path": "/rYLR2fgcC1XJEHAX7qiAtwQBZDb.jpg", "release_date": "1988-04-20", "title": "El Dorado", "video": false, "vote_average": 4.9, "vote_count": 5, "popularity": 4.526}, {"adult": false, "backdrop_path": "/s6SsrA1ko8vN9IRc8y4YiYuK6CJ.jpg", "genre_ids": [18, 12, 99], "id": 201132, "original_language": "en", "original_title": "Antarctica: A Year on Ice", "overview": "Filling the giant screen with stunning time-lapse vistas of Antarctica, and detailing year-round life at McMurdo and Scott Base, Anthony Powell\u2019s documentary is a potent hymn to the icy continent and the heavens above.", "poster_path": "/fQjPO9O4RIvKJBCP08Apenzrn9R.jpg", "release_date": "2013-09-05", "title": "Antarctica: A Year on Ice", "video": false, "vote_average": 7.3, "vote_count": 44, "popularity": 5.969}, {"adult": false, "backdrop_path": "/nbK2xcg2ZxpdEtP5FQ5Xnjz3Ols.jpg", "genre_ids": [99], "id": 84880, "original_language": "en", "original_title": "The Great White Silence", "overview": "Herbert Ponting travelled to Antarctica as part of Captain Scott's ill-fated South pole expedition and shot the footage that makes up this extraordinary documentary.", "poster_path": "/pDjhCI3uChRSV2QY5W2QGkTSqfW.jpg", "release_date": "1924-05-10", "title": "The Great White Silence", "video": false, "vote_average": 7.6, "vote_count": 17, "popularity": 3.939}, {"adult": false, "backdrop_path": "/yYp3LAwNn0QvvgUytpL9s6tWlKA.jpg", "genre_ids": [12, 16, 14, 10770, 35], "id": 437217, "original_language": "en", "original_title": "Adventure Time: Islands", "overview": "Told in eight parts, Islands tells the story of Finn, Jake, BMO  and Susan Strong leaving Ooo and traveling across the ocean to solve the mystery of Finn's past. During their trip, they unlock secrets, encounter various creatures, make new friends, and explore a variety of mysterious islands.", "poster_path": "/aGK3nb2e1q9yrkQvHBTItSTBsmB.jpg", "release_date": "2017-04-13", "title": "Adventure Time: Islands", "video": true, "vote_average": 8.1, "vote_count": 26, "popularity": 5.41}, {"id": 566611, "video": false, "vote_count": 6, "vote_average": 5.5, "title": "Howard Lovecraft and the Kingdom of Madness", "release_date": "2018-12-04", "original_language": "en", "original_title": "Howard Lovecraft and the Kingdom of Madness", "genre_ids": [12, 16], "backdrop_path": "/lfuColmis0O3Hx8QpLwfOaiRvD0.jpg", "adult": false, "overview": "Returning from his previous adventure,  Howard Lovecraft must lead an expedition  to Antarctica, to prevent the awakening of Cthulhu!", "poster_path": "/NZO8lPMby8yCREOWAHI2mpG0jl.jpg", "popularity": 3.886}], "total_pages": 4, "total_results": 73}, "recommendations": {"page": 1, "results": [{"adult": false, "backdrop_path": "/xenL0akofJDy3DtNA02YV9kf2HR.jpg", "genre_ids": [99], "id": 45538, "original_language": "en", "original_title": "Shackleton's Antarctic Adventure", "overview": "Shackleton's Antarctic Adventure is a giant-screen film that tells the dramatic true story of explorer Sir Ernest Shackleton's now-legendary 1914-1916 British Imperial Trans-Antarctic Expedition. A testament to heroism and human endurance, the 28-man crew survived nearly two years in the Antarctic when its ship, the Endurance, was trapped and then crushed by pack ice.", "poster_path": "/iTVZCCTzLA1h2HheaDCEUAgiGj9.jpg", "release_date": "2001-02-05", "title": "Shackleton's Antarctic Adventure", "video": false, "vote_average": 5.9, "vote_count": 5, "popularity": 3.174}, {"adult": false, "backdrop_path": "/gLUdcDFW9qGIC3hXAK8JTzYGjrt.jpg", "genre_ids": [99], "id": 217268, "original_language": "en", "original_title": "The Epic of Everest", "overview": "The official record of Mallory and Irvine's 1924 expedition. When George Mallory and Sandy Irvine attempted to reach the summit of Everest in 1924 they came closer than any previous attempt. Inspired by the work of Herbert Ponting (The Great White Silence) Captain Noel filmed in the harshest of conditions, with specially adapted equipment, to capture the drama of the fateful expedition.", "poster_path": "/pSm4T9KgiOFflAKKHq76mZbCdxh.jpg", "release_date": "1924-01-01", "title": "The Epic of Everest", "video": false, "vote_average": 7.0, "vote_count": 10, "popularity": 2.718}, {"id": 27510, "video": false, "vote_count": 5, "vote_average": 4.8, "title": "Ocean Wonderland", "release_date": "2003-02-11", "original_language": "en", "original_title": "Ocean Wonderland", "genre_ids": [99], "backdrop_path": "/zn26VrxEWlQ88EiIDUFxyCqNhYr.jpg", "adult": false, "overview": "Shot on the Great Barrier Reef in Australia and in the Bahamas, Ocean Wonderland brings to you the amazing beauty of the many varieties of coral and the immense diversity of the marine life thriving there.", "poster_path": "/o5q5gXQiMoZHMtvfhfEUUaRxx9P.jpg", "popularity": 5.326}], "total_pages": 1, "total_results": 3}, "credits": {"cast": [{"cast_id": 3, "character": "Leader of the Expedition (as Sir Ernest Shackleton)", "credit_id": "52fe47aac3a36847f8141b3f", "gender": 0, "id": 142886, "name": "Ernest Shackleton", "order": 0, "profile_path": "/uyTuDsGcWw15t5mxF1ULDbzcCIr.jpg"}, {"cast_id": 4, "character": "Captain of the Endurance (as Captain F. Worsley)", "credit_id": "52fe47aac3a36847f8141b43", "gender": 0, "id": 142887, "name": "Frank Worsley", "order": 1, "profile_path": "/jjVnhQwq82IexlvhnwrXu1AB7Bi.jpg"}, {"cast_id": 5, "character": "Captain of the Aurora (as Lieut. J. Stenhouse)", "credit_id": "52fe47aac3a36847f8141b47", "gender": 0, "id": 142888, "name": "J. Stenhouse", "order": 2, "profile_path": null}, {"cast_id": 6, "character": "Meteorologist", "credit_id": "52fe47aac3a36847f8141b4b", "gender": 0, "id": 142889, "name": "Captain L. Hussey", "order": 3, "profile_path": "/uLqWi7I7QkWMbetgK2mkXd5m9Eh.jpg"}, {"cast_id": 7, "character": "Head of Scientific Staff", "credit_id": "52fe47aac3a36847f8141b4f", "gender": 0, "id": 142890, "name": "Dr. McIlroy", "order": 4, "profile_path": null}, {"cast_id": 8, "character": "Head of Scientific Staff (as Wordie)", "credit_id": "52fe47aac3a36847f8141b53", "gender": 0, "id": 142891, "name": "Mr. Wordie", "order": 5, "profile_path": null}, {"cast_id": 9, "character": "Doctor", "credit_id": "52fe47aac3a36847f8141b57", "gender": 0, "id": 142892, "name": "Dr. Macklin", "order": 6, "profile_path": null}, {"cast_id": 10, "character": "Second in Command of the Endurance", "credit_id": "52fe47aac3a36847f8141b5b", "gender": 0, "id": 142893, "name": "Frank Wild", "order": 7, "profile_path": null}, {"cast_id": 11, "character": "Crewman", "credit_id": "52fe47aac3a36847f8141b5f", "gender": 0, "id": 142894, "name": "Tom Crean", "order": 8, "profile_path": null}, {"cast_id": 12, "character": "Crewman (as James)", "credit_id": "52fe47aac3a36847f8141b63", "gender": 0, "id": 142895, "name": "Mr. James", "order": 9, "profile_path": null}, {"cast_id": 13, "character": "Crewman (as Clark)", "credit_id": "52fe47aac3a36847f8141b67", "gender": 2, "id": 142896, "name": "Mr. Clark", "order": 10, "profile_path": null}, {"cast_id": 14, "character": "Crewman (as Greenstreet)", "credit_id": "52fe47aac3a36847f8141b6b", "gender": 0, "id": 142898, "name": "Mr. Greenstreet", "order": 11, "profile_path": null}], "crew": [{"credit_id": "537b0cfc0e0a267fed001237", "department": "Directing", "gender": 0, "id": 142885, "job": "Director", "name": "Frank Hurley", "profile_path": null}, {"credit_id": "537b0d080e0a267ff70011d0", "department": "Camera", "gender": 0, "id": 142885, "job": "Director of Photography", "name": "Frank Hurley", "profile_path": null}]}}