{"adult": false, "backdrop_path": "/pZUtMkkftz7VbanJ3PH4WbESnd3.jpg", "belongs_to_collection": null, "budget": 0, "genres": [{"id": 99, "name": "Documentary"}], "homepage": "https://www.allthequeenshorsesfilm.com/", "id": 498528, "imdb_id": "tt5709852", "original_language": "en", "original_title": "All the Queen's Horses", "overview": "For two decades, a comptroller in a small Illinois town financed her successful horse-breeding business by stealing $53 million in public funds.", "popularity": 3.179, "poster_path": "/svDWrS3YCnzET9jIwKote6FFYIE.jpg", "production_companies": [{"id": 44632, "logo_path": "/neCKH4sJCBhZ1B4QocTM4VXCQOR.png", "name": "Gravitas Ventures", "origin_country": "US"}], "production_countries": [{"iso_3166_1": "US", "name": "United States of America"}], "release_date": "2017-11-10", "revenue": 0, "runtime": 70, "spoken_languages": [{"iso_639_1": "en", "name": "English"}], "status": "Released", "tagline": "", "title": "All the Queen's Horses", "video": false, "vote_average": 7.0, "vote_count": 3, "keywords": {"keywords": [{"id": 4373, "name": "fraud"}, {"id": 163072, "name": "embezzlement"}]}, "similar": {"page": 1, "results": [{"adult": false, "backdrop_path": "/4HA3MLBmTf0sDqnw4BZlVDiOwG5.jpg", "genre_ids": [99], "id": 44639, "original_language": "en", "original_title": "Inside Job", "overview": "A film that exposes the shocking truth behind the economic crisis of 2008. The global financial meltdown, at a cost of over $20 trillion, resulted in millions of people losing their homes and jobs. Through extensive research and interviews with major financial insiders, politicians and journalists, Inside Job traces the rise of a rogue industry and unveils the corrosive relationships which have corrupted politics, regulation and academia.", "poster_path": "/gy1CzwHUrb46gou2NO0wkjNFO6f.jpg", "release_date": "2010-10-08", "title": "Inside Job", "video": false, "vote_average": 7.8, "vote_count": 506, "popularity": 10.752}, {"id": 652, "video": false, "vote_count": 6024, "vote_average": 7.0, "title": "Troy", "release_date": "2004-05-03", "original_language": "en", "original_title": "Troy", "genre_ids": [12, 36], "backdrop_path": "/lIyNUZbIeEwWpaWXAO5gnciB8Dq.jpg", "adult": false, "overview": "In year 1250 B.C. during the late Bronze age, two emerging nations begin to clash. Paris, the Trojan prince, convinces Helen, Queen of Sparta, to leave her husband Menelaus, and sail with him back to Troy. After Menelaus finds out that his wife was taken by the Trojans, he asks his brother Agamemnom to help him get her back. Agamemnon sees this as an opportunity for power. So they set off with 1,000 ships holding 50,000 Greeks to Troy. With the help of Achilles, the Greeks are able to fight the never before defeated Trojans.", "poster_path": "/edMlij7nw2NMla32xskDnzMCFBM.jpg", "popularity": 27.723}, {"adult": false, "backdrop_path": "/jQR6de9dwOjvx91wC4tqpTlMqCD.jpg", "genre_ids": [53, 80, 18], "id": 109421, "original_language": "en", "original_title": "Side Effects", "overview": "A woman turns to prescription medication as a way of handling her anxiety concerning her husband's upcoming release from prison.", "poster_path": "/ttD69Yhh2BV1WVqr27NRbF8ubOW.jpg", "release_date": "2013-02-07", "title": "Side Effects", "video": false, "vote_average": 6.5, "vote_count": 2035, "popularity": 12.767}, {"id": 106646, "video": false, "vote_count": 13908, "vote_average": 8.0, "title": "The Wolf of Wall Street", "release_date": "2013-12-25", "original_language": "en", "original_title": "The Wolf of Wall Street", "genre_ids": [35, 80, 18], "backdrop_path": "/rP36Rx5RQh0rmH2ynEIaG8DxbV2.jpg", "adult": false, "overview": "A New York stockbroker refuses to cooperate in a large securities fraud case involving corruption on Wall Street, corporate banking world and mob infiltration. Based on Jordan Belfort's autobiography.", "poster_path": "/vK1o5rZGqxyovfIhZyMELhk03wO.jpg", "popularity": 35.327}, {"adult": false, "backdrop_path": "/wGxK2uFowRXdyKcv8Gni7snK3yu.jpg", "genre_ids": [28, 12, 35], "id": 134, "original_language": "en", "original_title": "O Brother, Where Art Thou?", "overview": "In the deep south during the 1930s, three escaped convicts search for hidden treasure while a relentless lawman pursues them. On their journey they come across many comical characters and incredible situations. Based upon Homer's 'Odyssey'.", "poster_path": "/eIqSzq6j3yuxNmifiUOh6iTpG9N.jpg", "release_date": "2000-08-30", "title": "O Brother, Where Art Thou?", "video": false, "vote_average": 7.3, "vote_count": 2213, "popularity": 22.175}, {"id": 318846, "video": false, "vote_count": 5227, "vote_average": 7.3, "title": "The Big Short", "release_date": "2015-12-11", "original_language": "en", "original_title": "The Big Short", "genre_ids": [35, 18], "backdrop_path": "/6UyMLbe0lAPqfZLtVllAwBNFIis.jpg", "adult": false, "overview": "The men who made millions from a global economic meltdown.", "poster_path": "/p11Ftd4VposrAzthkhF53ifYZRl.jpg", "popularity": 25.578}, {"id": 13161, "video": false, "vote_count": 335, "vote_average": 5.8, "title": "Big Stan", "release_date": "2007-06-06", "original_language": "en", "original_title": "Big Stan", "genre_ids": [35], "backdrop_path": "/6O7TMiTUF4fdh5Jn3Xe3GtPwk2X.jpg", "adult": false, "overview": "Rob Schneider writes and stars in this comedy about a nerdy con man whose swindling ways land him a stiff prison sentence. Terrified at the prospect of being raped in prison he enlists the aid of a mysterious kung-fu expert to teach him how to fight.", "poster_path": "/9aVhW8KoKSn6l35n1WXAHZkqdwj.jpg", "popularity": 17.897}, {"adult": false, "backdrop_path": "/rBnUusNA6FmypqjGmRo5dvgycqL.jpg", "genre_ids": [99, 10770, 10402, 36], "id": 567860, "original_language": "en", "original_title": "Fyre", "overview": "He promised supermodels and yachts, but delivered tents and cheese sandwiches. How one man engineered a music festival disaster.", "poster_path": "/yFsP0BAJhAH3RTXCAnGvI1CtaUb.jpg", "release_date": "2019-01-18", "title": "Fyre", "video": false, "vote_average": 7.0, "vote_count": 484, "popularity": 10.772}, {"adult": false, "backdrop_path": "/8dHsvdiZLBdppKwRiZ0XZYngbeN.jpg", "genre_ids": [35], "id": 257091, "original_language": "en", "original_title": "Get Hard", "overview": "When obscenely rich hedge-fund manager James is convicted of fraud and sentenced to a stretch in San Quentin, the judge gives him one month to get his affairs in order. Knowing that he won't survive more than a few minutes in prison on his own, James desperately turns to Darnell-- a black businessman who's never even had a parking ticket -- for help. As Darnell puts James through the wringer, both learn that they were wrong about many things, including each other.", "poster_path": "/qRzUSrN4p6B7fzA5XGm4ebFg3co.jpg", "release_date": "2015-03-26", "title": "Get Hard", "video": false, "vote_average": 6.0, "vote_count": 1629, "popularity": 12.349}, {"id": 10673, "video": false, "vote_count": 1099, "vote_average": 7.2, "title": "Wall Street", "release_date": "1987-12-10", "original_language": "en", "original_title": "Wall Street", "genre_ids": [80, 18], "backdrop_path": "/sN3meOEJziO9HDjRzg2vhVm6uGu.jpg", "adult": false, "overview": "A young and impatient stockbroker is willing to do anything to get to the top, including trading on illegal inside information taken through a ruthless and greedy corporate raider whom takes the youth under his wing.", "poster_path": "/fC9zRkJjgemBEmubrZaWXtC4FcN.jpg", "popularity": 20.782}, {"id": 8952, "video": false, "vote_count": 958, "vote_average": 6.4, "title": "I Love You Phillip Morris", "release_date": "2009-01-18", "original_language": "en", "original_title": "I Love You Phillip Morris", "genre_ids": [35, 18, 10749], "backdrop_path": "/xImbM4eokn6qqbTAXGCPjMUKGtP.jpg", "adult": false, "overview": "Steve Russell is a small-town cop. Bored with his bland lifestyle, Russell turns to fraud as a means of shaking things up. Before long, Russell's criminal antics have landed him behind bars, where he encounters the charismatic Phillip Morris. Smitten, Russell devotes his entire life to being with Morris regardless of the consequences.", "poster_path": "/qtAuWLGQ7N4PNQ6boZeqqoUY2l9.jpg", "popularity": 11.626}, {"adult": false, "backdrop_path": "/phL15yfKUCWqxVlbpJDeDkbTxyK.jpg", "genre_ids": [99], "id": 39452, "original_language": "en", "original_title": "Exit Through the Gift Shop", "overview": "Banksy is a graffiti artist with a global reputation whose work can be seen on walls from post-hurricane New Orleans to the separation barrier on the Palestinian West Bank. Fiercely guarding his anonymity to avoid prosecution, Banksy has so far resisted all attempts to be captured on film. Exit Through the Gift Shop tells the incredible true story of how an eccentric French shop keeper turned documentary maker attempted to locate and befriend Banksy, only to have the artist turn the camera back on its owner.", "poster_path": "/fT6dysu7vxVGEZInDQzZ209RdSI.jpg", "release_date": "2010-01-24", "title": "Exit Through the Gift Shop", "video": false, "vote_average": 7.7, "vote_count": 510, "popularity": 11.43}, {"adult": false, "backdrop_path": "/dtI76GsfzgNia0yIqnlv9QiFwwr.jpg", "genre_ids": [12, 18, 53], "id": 334524, "original_language": "en", "original_title": "Gold", "overview": "Kenny Wells, a modern-day prospector, hustler, and dreamer, is desperate for a lucky break. Left with few options, Wells teams up with an equally luckless geologist to execute a grandiose, last-ditch effort: to find gold deep in the uncharted jungle of Indonesia.", "poster_path": "/d6AipVF4SDYqxGeivfs3yzsNUs7.jpg", "release_date": "2016-12-22", "title": "Gold", "video": false, "vote_average": 6.6, "vote_count": 947, "popularity": 13.06}, {"adult": false, "backdrop_path": "/swXcukNqS52UffiBSrG0M1pm3t6.jpg", "genre_ids": [27, 18, 53], "id": 38358, "original_language": "en", "original_title": "The Last Exorcism", "overview": "After years of performing \u201cexorcisms\u201d and taking believers\u2019 money, Reverend Marcus travels to rural Louisiana with a film crew so he can dispel what he believes is the myth of demonic possession. The dynamic reverend is certain that this will be another routine \u201cexorcism\u201d on a disturbed religious fanatic but instead comes upon the blood-soaked farm of the Sweetzer family and a true evil he would have never thought imaginable.", "poster_path": "/iWPm2Xlc5arD0oRb18k6MurmqHD.jpg", "release_date": "2010-08-27", "title": "The Last Exorcism", "video": false, "vote_average": 5.5, "vote_count": 573, "popularity": 8.943}, {"id": 9022, "video": false, "vote_count": 355, "vote_average": 5.5, "title": "All the Boys Love Mandy Lane", "release_date": "2008-02-15", "original_language": "en", "original_title": "All the Boys Love Mandy Lane", "genre_ids": [27, 9648, 53], "backdrop_path": "/3HEE058xHDkb3MrcfbpXzOdPPCr.jpg", "adult": false, "overview": "Beautiful Mandy Lane isn't a party girl but, when classmate Chloe invites the Texas high school student to a bash in the countryside, she reluctantly accepts. After hitching a ride with a vaguely scary older man, the teens arrive at their destination. Partying ensues, and Mandy's close pal, Emmet, keeps a watchful eye on the young males making a play for Mandy. Then two of the students are murdered.", "poster_path": "/2ENAfp2NhaeXSPNB4makF0In4YY.jpg", "popularity": 6.969}, {"adult": false, "backdrop_path": "/tFm0uRDFh9SarRyQN1mZLWvxJvE.jpg", "genre_ids": [18, 53], "id": 8999, "original_language": "en", "original_title": "Derailed", "overview": "When two married business executives having an affair are blackmailed by a violent criminal, they are forced to turn the tables on him to save their families.", "poster_path": "/fWZK40LvrjJ2w7IBuuadJMdHgVK.jpg", "release_date": "2005-11-11", "title": "Derailed", "video": false, "vote_average": 6.3, "vote_count": 556, "popularity": 11.887}, {"id": 75638, "video": false, "vote_count": 678, "vote_average": 6.1, "title": "Red Lights", "release_date": "2012-03-02", "original_language": "en", "original_title": "Red Lights", "genre_ids": [53], "backdrop_path": "/kAlz6J4UHwQsB6A9850frALGmP8.jpg", "adult": false, "overview": "Two investigators of paranormal hoaxes, the veteran Dr. Margaret Matheson and her young assistant, Tom Buckley, study the most varied metaphysical phenomena with the aim of proving their fraudulent origins. Simon Silver, a legendary blind psychic, reappears after an enigmatic absence of 30 years to become the greatest international challenge to both orthodox science and professional sceptics. Tom starts to develop an intense obsession with Silver, whose magnetism becomes stronger with each new manifestation of inexplicable events. As Tom gets closer to Silver, tension mounts, and his worldview is threatened to its core.", "poster_path": "/iiNGtxUhO2oDeCci7E6OF7OEASk.jpg", "popularity": 13.686}, {"id": 3086, "video": false, "vote_count": 149, "vote_average": 7.4, "title": "The Lady Eve", "release_date": "1941-02-25", "original_language": "en", "original_title": "The Lady Eve", "genre_ids": [35, 10749], "backdrop_path": "/mcBllhz7mbnlzEZLJhge0YbPSR.jpg", "adult": false, "overview": "It's no accident when wealthy Charles falls for Jean. Jean is a con artist with her sights set on Charles' fortune. Matters complicate when Jean starts falling for her mark. When Charles suspects Jean is a gold digger, he dumps her. Jean, fixated on revenge and still pining for the millionaire, devises a plan to get back in Charles' life. With love and payback on her mind, she re-introduces herself to Charles, this time as an aristocrat named Lady Eve Sidwich.", "poster_path": "/lJYD3CMgKtv12hazSHc7xt3i2uq.jpg", "popularity": 12.29}, {"adult": false, "backdrop_path": "/bJgsq1Z5UCG3hAaP2Um5Mkmnbng.jpg", "genre_ids": [35, 10749], "id": 24405, "original_language": "en", "original_title": "Chasers", "overview": "Military men Rock Reilly and Eddie Devane are tasked with taking a prisoner, blonde bombshell Toni Johnson, on what becomes an unforgettable road trip. Toni, an enlistee who's in trouble for deserting her unit, soon proves that she's craftier than most inmates.", "poster_path": "/j8Q7pQ27hvH54wpxJzIuQgQCdro.jpg", "release_date": "1994-04-22", "title": "Chasers", "video": false, "vote_average": 5.1, "vote_count": 60, "popularity": 10.451}, {"id": 517331, "video": false, "vote_count": 174, "vote_average": 7.3, "title": "The Realm", "release_date": "2018-09-28", "original_language": "es", "original_title": "El reino", "genre_ids": [18, 9648, 53], "backdrop_path": "/cLAvMhCYwRelzzOJTXuXxzMFZZV.jpg", "adult": false, "overview": "Manuel is a crooked politician who enjoys the lifestyle that kickbacks afford. He eats at fancy restaurants, parties with his friends on yachts, and provides a very luxurious lifestyle for his family. Manuel brazenly bribes, extorts, and pays off anyone who threatens to expose the activities of his inner circle. When he is singled out to take the fall for a case of fraudulent government contracts, rather than admit to any wrongdoing, Manuel decides to sell out his whole party in an effort to avoid jail time. It's a decision that puts many lives at risk.", "poster_path": "/8C4rnA6r7myYdJBgeZLgCvy5RPS.jpg", "popularity": 7.534}], "total_pages": 6, "total_results": 109}, "recommendations": {"page": 1, "results": [], "total_pages": 1, "total_results": 0}, "credits": {"cast": [], "crew": [{"credit_id": "5b461d7ec3a3684f19006d09", "department": "Directing", "gender": 0, "id": 2082479, "job": "Director", "name": "Kelly Richmond Pope", "profile_path": null}, {"credit_id": "5be1f709c3a36810c60036da", "department": "Writing", "gender": 0, "id": 2082479, "job": "Writer", "name": "Kelly Richmond Pope", "profile_path": null}, {"credit_id": "5be1f70fc3a36810c400355c", "department": "Production", "gender": 0, "id": 2082479, "job": "Producer", "name": "Kelly Richmond Pope", "profile_path": null}]}}