{"adult": false, "backdrop_path": "/uqmpkpzTQjiOtESIYgCYHb5ela7.jpg", "belongs_to_collection": null, "budget": 0, "genres": [{"id": 18, "name": "Drama"}, {"id": 10749, "name": "Romance"}], "homepage": null, "id": 49890, "imdb_id": "tt0339707", "original_language": "en", "original_title": "Song for a Raggy Boy", "overview": "William Franklin is a teacher who was born in Ireland and moved to the United States only to repatriate in 1939 after his leftist political views cause him to lose his job. Franklin becomes the first non-cleric instructor at St. Jude's, a school for wayward boys run by Brother John, who is a firm believer in strong discipline.", "popularity": 4.708, "poster_path": "/1GMKyNq8eiA1SaPLYCtYMBxZ99K.jpg", "production_companies": [], "production_countries": [{"iso_3166_1": "IE", "name": "Ireland"}, {"iso_3166_1": "GB", "name": "United Kingdom"}, {"iso_3166_1": "DK", "name": "Denmark"}, {"iso_3166_1": "ES", "name": "Spain"}], "release_date": "2003-01-19", "revenue": 0, "runtime": 94, "spoken_languages": [{"iso_639_1": "en", "name": "English"}], "status": "Released", "tagline": "four walls. one faith. no identity.", "title": "Song for a Raggy Boy", "video": false, "vote_average": 7.5, "vote_count": 40, "keywords": {"keywords": [{"id": 496, "name": "poetry"}, {"id": 818, "name": "based on novel or book"}, {"id": 9849, "name": "beating"}, {"id": 46960, "name": "reformatory"}, {"id": 46961, "name": "strap"}, {"id": 46962, "name": "discipline"}, {"id": 187056, "name": "woman director"}, {"id": 214548, "name": "1930s"}]}, "similar": {"page": 1, "results": [{"id": 9813, "video": false, "vote_count": 128, "vote_average": 6.1, "title": "The Quiet", "release_date": "2005-09-12", "original_language": "en", "original_title": "The Quiet", "genre_ids": [18, 53], "backdrop_path": "/6eyWAZA4CEidZW1xXnQ4vlYBXTP.jpg", "adult": false, "overview": "After her widowed father dies, deaf teenager Dot moves in with her godparents, Olivia and Paul Deer. The Deers' daughter, Nina, is openly hostile to Dot, but that does not prevent her from telling her secrets to her silent stepsister, including the fact that she wants to kill her lecherous father.", "poster_path": "/GEqIE9YlmygHVUfS64LW2cwAAM.jpg", "popularity": 14.844}, {"adult": false, "backdrop_path": "/kiWvoV78Cc3fUwkOHKzyBgVdrDD.jpg", "genre_ids": [37, 18, 12], "id": 281957, "original_language": "en", "original_title": "The Revenant", "overview": "In the 1820s, a frontiersman, Hugh Glass, sets out on a path of vengeance against those who left him for dead after a bear mauling.", "poster_path": "/oXUWEc5i3wYyFnL1Ycu8ppxxPvs.jpg", "release_date": "2015-12-25", "title": "The Revenant", "video": false, "vote_average": 7.5, "vote_count": 12127, "popularity": 24.135}, {"id": 466282, "video": false, "vote_count": 5270, "vote_average": 7.9, "title": "To All the Boys I've Loved Before", "release_date": "2018-08-16", "original_language": "en", "original_title": "To All the Boys I've Loved Before", "genre_ids": [35, 10749], "backdrop_path": "/uZTtVdOEIwPA6vwVRI3217DoPM.jpg", "adult": false, "overview": "Lara Jean's love life goes from imaginary to out of control when her secret letters to every boy she's ever fallen for are mysteriously mailed out.", "poster_path": "/hKHZhUbIyUAjcSrqJThFGYIR6kI.jpg", "popularity": 35.427}, {"adult": false, "backdrop_path": "/nEdBHjvRkKwEPD1Ps5A3rRiiLVN.jpg", "genre_ids": [14, 18, 10749], "id": 8966, "original_language": "en", "original_title": "Twilight", "overview": "When Bella Swan moves to a small town in the Pacific Northwest to live with her father, she meets the reclusive Edward Cullen, a mysterious classmate who reveals himself to be a 108-year-old vampire. Despite Edward's repeated cautions, Bella can't help but fall in love with him, a fatal move that endangers her own life when a coven of bloodsuckers try to challenge the Cullen clan.", "poster_path": "/lcMp3AONdNhjYE9MmTtMMTOiRDP.jpg", "release_date": "2008-11-20", "title": "Twilight", "video": false, "vote_average": 6.0, "vote_count": 8149, "popularity": 30.9}, {"adult": false, "backdrop_path": "/ojn7IYKmMt8HXRd6oLwY5pLGLVc.jpg", "genre_ids": [18, 10749], "id": 9587, "original_language": "en", "original_title": "Little Women", "overview": "With their father away as a chaplain in the Civil War, Jo, Meg, Beth and Amy grow up with their mother in somewhat reduced circumstances. They are a close family who inevitably have their squabbles and tragedies. But the bond holds even when, later, male friends start to become a part of the household.", "poster_path": "/tD9YDE8pjtSvvKUpkmooE6YDSm8.jpg", "release_date": "1994-12-21", "title": "Little Women", "video": false, "vote_average": 7.2, "vote_count": 574, "popularity": 18.707}, {"adult": false, "backdrop_path": "/wdI8XvIUfrneUPEsypTHL7zD8iN.jpg", "genre_ids": [35, 18, 10751, 10749], "id": 12689, "original_language": "en", "original_title": "Angus, Thongs and Perfect Snogging", "overview": "Georgia Nicolson is fourteen, lives with nosey parents who don't understand her, an annoying three year old sister and has to wear a beret to school. She would, however, rather be blonde, have a smaller nose and a boyfriend. Revolving around her hilarious journal entries, prepare to be engulfed in the world of the soaring joys and bottomless angst of being a teenager.", "poster_path": "/ga6pDaKJvwTCpBSUoGjhAvJAMyC.jpg", "release_date": "2008-07-25", "title": "Angus, Thongs and Perfect Snogging", "video": false, "vote_average": 6.5, "vote_count": 538, "popularity": 12.059}, {"adult": false, "backdrop_path": "/eSs0CkWB5ASQgcx8Dr0uai3IRjT.jpg", "genre_ids": [18], "id": 339984, "original_language": "en", "original_title": "Miracles from Heaven", "overview": "When Christy discovers her 10-year-old daughter Anna has a rare, incurable disease, she becomes a ferocious advocate for her daughter\u2019s healing as she searches for a solution. After Anna has a freak accident and falls three stories, a miracle unfolds in the wake of her dramatic rescue that leaves medical specialists mystified, her family restored and their community inspired.", "poster_path": "/hz9VF1TfaM0D04pYneSXUkNeOZv.jpg", "release_date": "2016-03-17", "title": "Miracles from Heaven", "video": false, "vote_average": 7.2, "vote_count": 568, "popularity": 10.907}, {"id": 399019, "video": false, "vote_count": 1322, "vote_average": 5.7, "title": "The Beguiled", "release_date": "2017-06-23", "original_language": "en", "original_title": "The Beguiled", "genre_ids": [18, 37], "backdrop_path": "/5jq7TjRzmvkJsa8bF3zWqxbPtmw.jpg", "adult": false, "overview": "During the Civil War, at a Southern girls\u2019 boarding school, young women take in an injured enemy soldier. As they provide refuge and tend to his wounds, the house is taken over with sexual tension and dangerous rivalries, and taboos are broken in an unexpected turn of events.", "poster_path": "/uQxfqFAqAvNK5b1wD11b2ycDAVg.jpg", "popularity": 12.812}, {"id": 185, "video": false, "vote_count": 7610, "vote_average": 8.2, "title": "A Clockwork Orange", "release_date": "1971-12-18", "original_language": "en", "original_title": "A Clockwork Orange", "genre_ids": [18, 878], "backdrop_path": "/unMc1jEyqCnzba976GviSFKGagt.jpg", "adult": false, "overview": "In a near-future Britain, young Alexander DeLarge and his pals get their kicks beating and raping anyone they please. When not destroying the lives of others, Alex swoons to the music of Beethoven. The state, eager to crack down on juvenile crime, gives an incarcerated Alex the option to undergo an invasive procedure that'll rob him of all personal agency. In a time when conscience is a commodity, can Alex change his tune?", "poster_path": "/4sHeTAp65WrSSuc05nRBKddhBxO.jpg", "popularity": 21.362}, {"adult": false, "backdrop_path": "/dLAPTvBwEdP4h7a14isNc0HwmOj.jpg", "genre_ids": [18, 10749], "id": 250734, "original_language": "en", "original_title": "Far from the Madding Crowd", "overview": "Based on the literary classic by Thomas Hardy. Bathsheba Everdene, attracts three very different suitors: Gabriel Oak, a sheep farmer, captivated by her fetching willfulness; Frank Troy, a handsome and reckless Sergeant; and William Boldwood, a prosperous and mature bachelor. This timeless story of Bathsheba's choices and passions explores the nature of relationships and love \u2013 as well as the human ability to overcome hardships through resilience and perseverance.", "poster_path": "/6v1DEaO2TZzrqcaGohUf1K7BXkU.jpg", "release_date": "2015-04-23", "title": "Far from the Madding Crowd", "video": false, "vote_average": 7.0, "vote_count": 643, "popularity": 13.429}, {"adult": false, "backdrop_path": "/caLMOD3ZJ3V7qjlxDXrzlJfBLgD.jpg", "genre_ids": [18, 10749], "id": 20, "original_language": "en", "original_title": "My Life Without Me", "overview": "A Pedro Almodovar production in which a fatally ill mother with only two months to live creates a list of things she wants to do before she dies with out telling her family of her illness.", "poster_path": "/vVj92VBFUBzjqzLvBiPVVlJDp78.jpg", "release_date": "2003-03-07", "title": "My Life Without Me", "video": false, "vote_average": 6.1, "vote_count": 220, "popularity": 10.382}, {"id": 50619, "video": false, "vote_count": 5595, "vote_average": 6.0, "title": "The Twilight Saga: Breaking Dawn - Part 1", "release_date": "2011-03-15", "original_language": "en", "original_title": "The Twilight Saga: Breaking Dawn - Part 1", "genre_ids": [12, 14, 10749], "backdrop_path": "/fwhRNjMmwqeGH35eQonSPmQs2ah.jpg", "adult": false, "overview": "The new found married bliss of Bella Swan and vampire Edward Cullen is cut short when a series of betrayals and misfortunes threatens to destroy their world.", "poster_path": "/dSSzv6JrlwS48pBeTNSswLJXOYF.jpg", "popularity": 22.3}, {"adult": false, "backdrop_path": "/bQW1TnxHlmkWof0vsALj4HBkoxj.jpg", "genre_ids": [18, 10749], "id": 51828, "original_language": "en", "original_title": "One Day", "overview": "A romantic comedy centered on Dexter and Emma, who first meet during their graduation in 1988 and proceed to keep in touch regularly. The film follows what they do on July 15 annually, usually doing something together.", "poster_path": "/xzOz17yC3K6SZWtWylXimcHUqpD.jpg", "release_date": "2011-03-02", "title": "One Day", "video": false, "vote_average": 7.2, "vote_count": 2343, "popularity": 16.744}, {"adult": false, "backdrop_path": "/ncERp0UvXuImUeJcf27kEANcf1r.jpg", "genre_ids": [35, 10751, 10749], "id": 9880, "original_language": "en", "original_title": "The Princess Diaries", "overview": "A socially awkward but very bright 15-year-old girl being raised by a single mom discovers that she is the princess of a small European country because of the recent death of her long-absent father, who, unknown to her, was the crown prince of Genovia. She must make a choice between continuing the life of a San Francisco teen or stepping up to the throne.", "poster_path": "/sxpvHk286sXLJWcFrBMNIsXbYsd.jpg", "release_date": "2001-08-03", "title": "The Princess Diaries", "video": false, "vote_average": 6.8, "vote_count": 2861, "popularity": 30.076}, {"id": 454983, "video": false, "vote_count": 3909, "vote_average": 7.2, "title": "The Kissing Booth", "release_date": "2018-05-11", "original_language": "en", "original_title": "The Kissing Booth", "genre_ids": [35, 10749], "backdrop_path": "/xEKx7zPEjN6meomZ7OhV82Mm2jm.jpg", "adult": false, "overview": "When teenager Elle's first kiss leads to a forbidden romance with the hottest boy in high school, she risks her relationship with her best friend.", "poster_path": "/7Dktk2ST6aL8h9Oe5rpk903VLhx.jpg", "popularity": 28.208}, {"id": 123553, "video": false, "vote_count": 3198, "vote_average": 6.3, "title": "The Mortal Instruments: City of Bones", "release_date": "2013-08-21", "original_language": "en", "original_title": "The Mortal Instruments: City of Bones", "genre_ids": [28, 12, 18, 14, 9648, 10749], "backdrop_path": "/xIisiN3GxiOMpYQOYarzWlgpDNT.jpg", "adult": false, "overview": "In New York City, Clary Fray, a seemingly ordinary teenager, learns that she is descended from a line of Shadowhunters \u2014 half-angel warriors who protect humanity from evil forces. After her mother disappears, Clary joins forces with a group of Shadowhunters and enters Downworld, an alternate realm filled with demons, vampires, and a host of other creatures. Clary and her companions must find and protect an ancient cup that holds the key to her mother's future.", "poster_path": "/xOBuyMuqc5lDNfxz6ipFjrxd38X.jpg", "popularity": 20.181}, {"id": 272693, "video": false, "vote_count": 3249, "vote_average": 6.8, "title": "The DUFF", "release_date": "2015-02-20", "original_language": "en", "original_title": "The DUFF", "genre_ids": [35, 10749], "backdrop_path": "/awGZf5T1hflis9Z2KvRMhp798xU.jpg", "adult": false, "overview": "Bianca's universe turns upside down when she learns that her high school refers to her as a \u2018DUFF' (Designated Ugly Fat Friend). Hoping to erase that label, she enlists the help of a charming jock and her favorite teacher. Together they'll face the school's mean girl and remind everyone that we are all someone's DUFF\u2026 and that's totally fine.", "poster_path": "/dBBgPTCN5Zze4POXWVVpwf3wkra.jpg", "popularity": 17.232}, {"id": 84892, "video": false, "vote_count": 6553, "vote_average": 7.7, "title": "The Perks of Being a Wallflower", "release_date": "2012-09-20", "original_language": "en", "original_title": "The Perks of Being a Wallflower", "genre_ids": [18], "backdrop_path": "/uhLcaTPeBpUNgYhZXhDWkj7gMkp.jpg", "adult": false, "overview": "15-year-old freshman Charlie is a wallflower, always watching life from the sidelines, until two charismatic senior students become his mentors. Free-spirited Sam and her stepbrother Patrick help Charlie discover the joys of friendship, first love, music and more, while a teacher sparks Charlie's dreams of becoming a writer.", "poster_path": "/cyNQLnHnXZcTUDXVVSEYmquOTOI.jpg", "popularity": 19.486}, {"id": 470044, "video": false, "vote_count": 911, "vote_average": 8.3, "title": "The Hate U Give", "release_date": "2018-10-19", "original_language": "en", "original_title": "The Hate U Give", "genre_ids": [80, 18], "backdrop_path": "/5AijK8OxcTzuT8z6aEcc3kO96eG.jpg", "adult": false, "overview": "Raised in a poverty-stricken slum, a 16-year-old girl named Starr now attends a suburban prep school. After she witnesses a police officer shoot her unarmed best friend, she's torn between her two very different worlds as she tries to speak her truth.", "poster_path": "/2icwBom0t5nmOuZI9FVXF3gkMK0.jpg", "popularity": 26.717}, {"id": 449176, "video": false, "vote_count": 3691, "vote_average": 8.1, "title": "Love, Simon", "release_date": "2018-02-16", "original_language": "en", "original_title": "Love, Simon", "genre_ids": [35, 18, 10749], "backdrop_path": "/rqMEeajyzSF4PpJtdCB816Iz8Vr.jpg", "adult": false, "overview": "Everyone deserves a great love story. But for seventeen-year old Simon Spier it's a little more complicated: he's yet to tell his family or friends he's gay and he doesn't know the identity of the anonymous classmate he's fallen for online.", "poster_path": "/5YUYg5q7QfC4IoNwNUtiwdiYKPr.jpg", "popularity": 17.201}], "total_pages": 66, "total_results": 1310}, "recommendations": {"page": 1, "results": [{"adult": false, "backdrop_path": null, "genre_ids": [], "id": 172539, "original_language": "en", "original_title": "My Uncle Mario", "overview": "A young boy delivers food in the summer vacation for this mother, who has some sort of a restaurant. Suddenly his uncle Mario, who lives in Italy, visits them by surprise. The boy's life changes when he follows his uncle one night to an appointment. After that night things will never be the same.", "poster_path": "/w0q49rCVVVtpt9gR4EuvDEHFgWS.jpg", "release_date": "2004-07-01", "title": "My Uncle Mario", "video": false, "vote_average": 9.2, "vote_count": 5, "popularity": 2.514}, {"adult": false, "backdrop_path": "/4R6WbxtSeOI9sd6x6XvyvMRQygU.jpg", "genre_ids": [18, 10749], "id": 499802, "original_language": "es", "original_title": "L\u00ednea 9", "overview": "In a city with constant movement like the subway rides, the paths of Andr\u00e9s and Miguel are crossing. It seems like the beginning of a new Romance but Andr\u00e9s doesn't know which direction to take.", "poster_path": "/4mUdPrT5KE9Bb6xoWOnz0epPVhr.jpg", "release_date": "2017-07-09", "title": "Line 9", "video": false, "vote_average": 7.2, "vote_count": 5, "popularity": 1.119}, {"adult": false, "backdrop_path": null, "genre_ids": [18], "id": 471155, "original_language": "es", "original_title": "Vestido nuevo", "overview": "This is the story of Mario, an 8 year old boy, who comes to his class dressed as a girl.", "poster_path": "/78xe5NUfvb63zZDeWKVVUbit0FF.jpg", "release_date": "2007-10-06", "title": "Vestido nuevo", "video": false, "vote_average": 8.0, "vote_count": 5, "popularity": 1.96}, {"adult": false, "backdrop_path": "/nBXCrRYcBb2KUww6gKUKJ1zcOny.jpg", "genre_ids": [18], "id": 177906, "original_language": "he", "original_title": "\u05d5\u05d0\u05d4\u05d1\u05ea", "overview": "Ohad, the protagonist, is serving in the Israel Defense Forces as a Hesder student. He has not told anyone that he is gay. He tries various ways of dealing with the conflict between his religious beliefs and his sexual orientation, including Atzat Nefesh. He is told to spend forty days fasting and repenting to help rid him of his homosexual inclinations. He does this and believes himself to be cured.  After this, his best friend, Nir, returns from leave. Ohed is torn between his homosexuality and his religion. The film deals with the struggles Ohed faces when it comes to loving God and loving Nir.", "poster_path": "/ic32WOiy6yGCygnnI7G600orlU6.jpg", "release_date": "2007-01-01", "title": "And Thou Shalt Love", "video": false, "vote_average": 5.2, "vote_count": 6, "popularity": 1.165}, {"adult": false, "backdrop_path": null, "genre_ids": [10749], "id": 346638, "original_language": "pt", "original_title": "Antes de Palavras", "overview": "Fragments of the approximation between two boys shows the naive curiosity of Celio for Dario, the assumption of Sofia by this approximation and the previous interest of Dario for Celio.", "poster_path": "/9xrsFlVzJIV1lfCW6hFGGFPDugx.jpg", "release_date": "2013-09-25", "title": "Before Words", "video": false, "vote_average": 6.7, "vote_count": 7, "popularity": 1.676}, {"adult": false, "backdrop_path": "/cq2L6uo2fpUJUXkrnY8wQ7A3mkA.jpg", "genre_ids": [18], "id": 228302, "original_language": "fr", "original_title": "13 ans", "overview": "Jonathan is in love with Julie, the most beautiful girl of his school... However, Julie doesn't even know him. He becomes friend with Charles, Julie's brother. One day, he sneaks in Julie's room to steal her diary. Back home, he finds in the diary a drawn heart, with the quote \"I love Jonathan\"... Back to his new friend Charles' home, he realizes that the diary belongs to Charles, himself...", "poster_path": "/oAPya6oHqitViceuUVKViRqvUVx.jpg", "release_date": "2008-02-04", "title": "My 13", "video": false, "vote_average": 9.3, "vote_count": 7, "popularity": 1.208}, {"adult": false, "backdrop_path": "/3QDIICROOAMu85KInnL2gWSKgkX.jpg", "genre_ids": [18], "id": 184801, "original_language": "fr", "original_title": "Le silence des \u00e9glises", "overview": "At the age of 12, Gabriel was sexually abused by Father Vincey, his headmaster. Fifteen years later, he is still traumatized. Constantly racked by this wrong that he has kept secret, Gabriel buys a gun and moves in near the boarding school where the priest is still headmaster...", "poster_path": "/twsBOWazG27zbFpkKmqhgdQnI84.jpg", "release_date": "2013-04-10", "title": "Le silence des \u00e9glises", "video": false, "vote_average": 7.1, "vote_count": 7, "popularity": 2.327}, {"adult": false, "backdrop_path": "/m2gc8a8PWkV5V5SBrVVoxQXQJSE.jpg", "genre_ids": [18], "id": 412199, "original_language": "es", "original_title": "La mujer del animal", "overview": "Colombian director V\u00edctor Gaviria melds stark realism with nail-biting thrills in this story about a teenage girl who is kidnapped and forced into marriage with a ferocious shantytown thug.", "poster_path": "/cTX6hl7gTX6jRkhb4Rat3w18gpc.jpg", "release_date": "2016-05-01", "title": "The Animal's Wife", "video": false, "vote_average": 7.6, "vote_count": 12, "popularity": 1.7}, {"adult": false, "backdrop_path": "/2RVXBt0DwStN4LP56V2XxIHkdnU.jpg", "genre_ids": [18], "id": 337101, "original_language": "es", "original_title": "El bosque de Karadima", "overview": "Based on true events, involving powerful Catholic priest Fernando Karadima, who committed crimes of child abuse and pedophile between 1980's-2000's. The struggle of his victims, to be able to reveal the truth and look for justice.", "poster_path": "/xjmipY93H5HRk4BS79cDSYpGTRu.jpg", "release_date": "2015-04-23", "title": "Karadima Forest", "video": false, "vote_average": 7.5, "vote_count": 15, "popularity": 1.925}, {"id": 395940, "video": false, "vote_count": 18, "vote_average": 8.3, "title": "For My Brother", "release_date": "2014-12-08", "original_language": "da", "original_title": "For Min Brors Skyld", "genre_ids": [18], "backdrop_path": "/oD8xZChOxvUfRyV1kVhJvZff2Tw.jpg", "adult": false, "overview": "The two brothers Aske and Bastian live with their father, Lasse, in a world of fear, violence and alcohol but the brothers' strong and close relationship means everything. Aske must serve his father's sexual needs, as well as paying customers and his father's friend, Hans. Aske tries everything to keep his little brother out of it all so that he won't experience the same as himself. But one day Bastian is abused by their father. The brothers choose to move to Norway, far away in the beautiful mountains. Their friendship outshines everything! They are together and far away from their evil father...", "poster_path": "/xm9YypsAZkZUqp8GIPsGKiOk7nE.jpg", "popularity": 5.725}, {"id": 269572, "video": false, "vote_count": 12, "vote_average": 3.3, "title": "Almost Thirty", "release_date": "2013-10-04", "original_language": "es", "original_title": "Casi treinta", "genre_ids": [35], "backdrop_path": "/jwhGFbJIUZHYzaoGnVFVhsGHExw.jpg", "adult": false, "overview": "Hilarious romantic comedy which main essence is based on the maturation process that young people face when entering their thirties. When their options come to settling down and starting a family or pursuing and achieving what they've always dreamed of, even though this could become a risk for their economic and emotional stability.", "poster_path": "/4udSnM84ocWoPx3ApcX8S4ifTDc.jpg", "popularity": 1.293}, {"adult": false, "backdrop_path": "/hKO2HTNq8LX2LpdLXiQzOfl77Aw.jpg", "genre_ids": [35, 10751], "id": 306562, "original_language": "en", "original_title": "Por mis Bigotes", "overview": "Though it sounds incredible, little Ulises with only nine years old, from one day to another grows an enourmous mustache. This situation, appearing to be ordinary, starts a series of extraordinary events for him, his mother and his best friends. From this moment onward with the company of a bunch of very curious characters they will have to face this hairy adventure.", "poster_path": "/jJfZQIuNBtpMOdIctgyTiwM1pVb.jpg", "release_date": "2014-12-10", "title": "Ulises and the 10,000 moustaches", "video": false, "vote_average": 6.6, "vote_count": 7, "popularity": 3.661}, {"id": 53739, "video": false, "vote_count": 22, "vote_average": 5.4, "title": "For the Good of Others", "release_date": "2010-06-03", "original_language": "es", "original_title": "El mal ajeno", "genre_ids": [18, 878, 53], "backdrop_path": "/c0x5BoFyJCVoPFDwNoEhn8OnsbL.jpg", "adult": false, "overview": "Diego is a doctor so used to working in extreme situations that he has immunized himself to others' pain. He has switched off from his work, his partner and his commitment as a father. Over the course of a disturbing meeting, Diego is threatened with a gun. Hours later, he can only remember the sound of a bang and the strange feeling of having being hit with something more than a bullet. Diego has to take an irreversible decision which will affect his own life and that of his loved ones.", "poster_path": "/mV5s6UmeJvFxJitD2tUSRL2s2O.jpg", "popularity": 3.905}, {"adult": false, "backdrop_path": "/kInRMh54elzQhUD9J9EE1aWzCZn.jpg", "genre_ids": [18], "id": 30846, "original_language": "en", "original_title": "Man t\u00e4nker sitt", "overview": "An eleven-year-old boy observes his neighborhood as its surface orderliness rots away.", "poster_path": "/hgGAVhM5lve4fa09dMWDryqE5qg.jpg", "release_date": "2009-02-07", "title": "Burrowing", "video": false, "vote_average": 5.8, "vote_count": 5, "popularity": 1.356}, {"adult": false, "backdrop_path": "/ozhF26KjKfKHKGN1fjGMYnJSMoR.jpg", "genre_ids": [18], "id": 82265, "original_language": "es", "original_title": "Las bicicletas son para el verano", "overview": "The story of a boy and his family during the Spanish Civil War.", "poster_path": "/eqEIcZi70FRipzX5cEOrN5GXcpN.jpg", "release_date": "1984-01-20", "title": "Bicycles Are for the Summer", "video": false, "vote_average": 6.6, "vote_count": 6, "popularity": 1.564}, {"adult": false, "backdrop_path": null, "genre_ids": [99], "id": 344900, "original_language": "en", "original_title": "Oriented", "overview": "Documentary of three gay men living in the Palestine-Israel region trade reflections on their situation and that of the region they live.", "poster_path": "/6H2Yrh8oJsqHktVgft3jHNnF83X.jpg", "release_date": "2015-06-06", "title": "Oriented", "video": false, "vote_average": 5.3, "vote_count": 13, "popularity": 3.528}, {"adult": false, "backdrop_path": "/ip6Hx0BUcs8PkDejt2TTFPKmdW7.jpg", "genre_ids": [99], "id": 345661, "original_language": "en", "original_title": "Salam Neighbor", "overview": "Two Americans deliberately head to the edge of war, just seven miles from the Syrian border, to live among 80,000 uprooted refugees in Jordan's Za'atari refugee camp.", "poster_path": "/uJW3RlaXeR8TGtbO5nHqwHfV1am.jpg", "release_date": "2015-06-20", "title": "Salam Neighbor", "video": false, "vote_average": 7.2, "vote_count": 10, "popularity": 2.899}, {"adult": false, "backdrop_path": "/3SfcCMckaQhvFJmehI8b8w1PeSt.jpg", "genre_ids": [35, 18], "id": 46773, "original_language": "tl", "original_title": "Ang Pagdadalaga ni Maximo Oliveros", "overview": "A 12-year-old gay who comes from a criminal family falls in love with a handsome policeman.", "poster_path": "/XOpQALT4O14NG01oJboCaSpYd.jpg", "release_date": "2005-07-13", "title": "The Blossoming of Maximo Oliveros", "video": false, "vote_average": 7.8, "vote_count": 17, "popularity": 2.341}, {"adult": false, "backdrop_path": "/yp4EHngjCoen7JRWOzCM0MqFc4Y.jpg", "genre_ids": [18], "id": 273828, "original_language": "es", "original_title": "Las Aparicio", "overview": "Three generations of women who share a strange family tradition: all widowed in extraordinary circumstances; all give birth only to girls. This is the film based on the television series.", "poster_path": "/mUY3XXKiCh9s6h8BqRbX9rLr2ge.jpg", "release_date": "2016-02-26", "title": "Las Aparicio", "video": false, "vote_average": 4.2, "vote_count": 12, "popularity": 1.846}, {"id": 329687, "video": false, "vote_count": 19, "vote_average": 7.3, "title": "Sara", "release_date": "2014-11-21", "original_language": "cn", "original_title": "\u96db\u5993", "genre_ids": [18], "backdrop_path": "/2e5amtYBtPYtdUkEjQqOqp9fiPI.jpg", "adult": false, "overview": "Journalist Sara has just spent four months completing an in-depth investigation piece. Her editor-in-chief, afraid of offending powerful politicians and business moguls, refuses to run it. Sara\u2019s boyfriend, who works for the same magazine, chooses not to warn her and even sides with the editor-in-chief. In just one moment, Sara is turned off by her work, her love relationship, and even about life.At this low point in her life, Sara exiles herself to Chiang Mai, Thailand. One evening, while at a bar, Sara meets child prostitute Dok-My. During her time getting to know Dok-My and through the process of rescuing her, Sara becomes haunted by the memories of her own past\u2026", "poster_path": "/2cacos6D9vJKmTQg784VqlR2m1d.jpg", "popularity": 4.988}], "total_pages": 2, "total_results": 35}, "credits": {"cast": [{"cast_id": 2, "character": "William Franklin", "credit_id": "52fe47adc3a36847f81426c9", "gender": 2, "id": 18992, "name": "Aidan Quinn", "order": 0, "profile_path": "/fOiuJIBJUdiuqjQtGkffpSbRQ49.jpg"}, {"cast_id": 3, "character": "Brother John", "credit_id": "52fe47adc3a36847f81426cd", "gender": 2, "id": 20508, "name": "Iain Glen", "order": 1, "profile_path": "/vYEI5xJWJ6HKjPusvO2klAvez3J.jpg"}, {"cast_id": 4, "character": "Brother Mac", "credit_id": "52fe47adc3a36847f81426d1", "gender": 2, "id": 70903, "name": "Marc Warren", "order": 2, "profile_path": "/q1B4nq8YDMldLpkxA9VwwNnXb2Z.jpg"}, {"cast_id": 5, "character": "Brother Tom", "credit_id": "52fe47adc3a36847f81426d5", "gender": 2, "id": 27393, "name": "Dudley Sutton", "order": 3, "profile_path": "/B5T9dy3eSv1ea9ZuWrz5kNwO7i.jpg"}, {"cast_id": 6, "character": "Father Damian", "credit_id": "52fe47adc3a36847f81426d9", "gender": 2, "id": 43139, "name": "Alan Devlin", "order": 4, "profile_path": "/8FxmNUUdgPlRpjEMk8adZYiGH7s.jpg"}, {"cast_id": 7, "character": "Brother Whelan", "credit_id": "52fe47adc3a36847f81426dd", "gender": 2, "id": 18993, "name": "Stuart Graham", "order": 5, "profile_path": "/nbmECI9jthzBuXwpaCXVXveY0NZ.jpg"}, {"cast_id": 8, "character": "Rogers 855", "credit_id": "564e034bc3a368603100ad89", "gender": 0, "id": 86114, "name": "Bernard Manning", "order": 6, "profile_path": null}], "crew": [{"credit_id": "52fe47adc3a36847f81426c5", "department": "Directing", "gender": 1, "id": 133873, "job": "Director", "name": "Aisling Walsh", "profile_path": "/56Xf8s6StP0YDc4nvMWg0u1IFTx.jpg"}]}}