{"adult": false, "backdrop_path": "/b8i2A9ConUsvsoDjbdtjSWUSofU.jpg", "belongs_to_collection": null, "budget": 0, "genres": [{"id": 35, "name": "Comedy"}], "homepage": null, "id": 49907, "imdb_id": "tt0070887", "original_language": "it", "original_title": "Vogliamo i colonnelli", "overview": "Italy 1973. Giuseppe Tritoni (Ugo Tognazzi) is an ultra-right-wing congressman that doesn't agree anymore with his fascist party policy. He contacts many Italian Army officers and built a net of relationship in order to organize a Coup d'Etat (Golpe). Something goes wrong and the Interior Minister (Home Secretary) Mr. Li Masi (Lino Pugliesi) got the all information about the attempted Golpe. So the Minister organizes a counter-Golpe. Tritoni desperately, to save his project, kidnaps the Italian Republic President (Claude Dauphin) that immediately dies for heartache. Now Minister Mr. Li Masi is free to lay down the law to the rest of the country, realizing basically the actual Golpe! Tritoni surrenders and will spend rest of his time trying to sell his ideas about managing Golpe in Africa!", "popularity": 1.952, "poster_path": "/rKzLUTVkF2LKkpIPr6PuCW3CR7V.jpg", "production_companies": [{"id": 43711, "logo_path": null, "name": "Dean Film", "origin_country": ""}], "production_countries": [{"iso_3166_1": "IT", "name": "Italy"}], "release_date": "1973-03-05", "revenue": 0, "runtime": 102, "spoken_languages": [{"iso_639_1": "fr", "name": "Fran\u00e7ais"}, {"iso_639_1": "it", "name": "Italiano"}], "status": "Released", "tagline": "", "title": "We Want the Colonels", "video": false, "vote_average": 6.5, "vote_count": 11, "keywords": {"keywords": [{"id": 1755, "name": "fascism"}, {"id": 6078, "name": "politics"}, {"id": 6285, "name": "coup d'etat"}, {"id": 8201, "name": "satire"}, {"id": 194320, "name": "military coup"}]}, "similar": {"page": 1, "results": [{"id": 592739, "video": false, "vote_count": 51, "vote_average": 5.5, "title": "Cetto C'\u00e8", "release_date": "2019-11-21", "original_language": "it", "original_title": "Cetto c'\u00e8, senzadubbiamente", "genre_ids": [35], "backdrop_path": "/bzo9brPKm8lJgL2vqYmbvs1AFyd.jpg", "adult": false, "overview": "Third movie about the character of Cetto La Qualunque (Antonio Albanese)", "poster_path": "/5n5uCJQzFUMdBu3WkHhGBg2dhts.jpg", "popularity": 4.021}, {"id": 401469, "video": false, "vote_count": 1261, "vote_average": 6.5, "title": "Widows", "release_date": "2018-11-06", "original_language": "en", "original_title": "Widows", "genre_ids": [80, 53], "backdrop_path": "/tkri1hMrb1FhWfb2bWpprsvq9Sd.jpg", "adult": false, "overview": "A police shootout leaves four thieves dead during an explosive armed robbery attempt in Chicago. Their widows have nothing in common except a debt left behind by their spouses' criminal activities. Hoping to forge a future on their own terms, they join forces to pull off a heist.", "poster_path": "/d31SGJSaX29ba5ZUbZcesGoDE7I.jpg", "popularity": 16.285}, {"id": 9388, "video": false, "vote_count": 1252, "vote_average": 7.2, "title": "Thank You for Smoking", "release_date": "2005-03-17", "original_language": "en", "original_title": "Thank You for Smoking", "genre_ids": [35, 18], "backdrop_path": "/D1VqMoYT4K2aFcywu3kGnycD6n.jpg", "adult": false, "overview": "Nick Naylor is a charismatic spin-doctor for Big Tobacco who'll fight to protect America's right to smoke -- even if it kills him -- while still remaining a role model for his 12-year old son. When he incurs the wrath of a senator bent on snuffing out cigarettes, Nick's powers of \"filtering the truth\" will be put to the test.", "poster_path": "/v8PKsbAGIvAhKbbRUjdQ3jgFD2S.jpg", "popularity": 14.661}, {"adult": false, "backdrop_path": "/pZz5VmundsZO29sB3TgZKjnFEEM.jpg", "genre_ids": [35, 878], "id": 957, "original_language": "en", "original_title": "Spaceballs", "overview": "When the nefarious Dark Helmet hatches a plan to snatch Princess Vespa and steal her planet's air, space-bum-for-hire Lone Starr and his clueless sidekick fly to the rescue. Along the way, they meet Yogurt, who puts Lone Starr wise to the power of \"The Schwartz.\" Can he master it in time to save the day?", "poster_path": "/xWt9KAcToCRdJ6JH8JyZZlhkVgG.jpg", "release_date": "1987-06-24", "title": "Spaceballs", "video": false, "vote_average": 6.8, "vote_count": 1694, "popularity": 20.277}, {"id": 7446, "video": false, "vote_count": 3479, "vote_average": 6.5, "title": "Tropic Thunder", "release_date": "2008-08-09", "original_language": "en", "original_title": "Tropic Thunder", "genre_ids": [28, 12, 35, 10752], "backdrop_path": "/pr8sj9FozsiT45TMtkwFRWONNII.jpg", "adult": false, "overview": "Vietnam veteran 'Four Leaf' Tayback's memoir, Tropic Thunder, is being made into a film, but Director Damien Cockburn can\u2019t control the cast of prima donnas. Behind schedule and over budget, Cockburn is ordered by a studio executive to get filming back on track, or risk its cancellation. On Tayback's advice, Cockburn drops the actors into the middle of the jungle to film the remaining scenes but, unbeknownst to the actors and production, the group have been dropped in the middle of the Golden Triangle, the home of heroin-producing gangs.", "poster_path": "/ue9QdvhpcNPvKQyLY5a5Pd0tagS.jpg", "popularity": 28.425}, {"id": 459992, "video": false, "vote_count": 883, "vote_average": 6.6, "title": "Long Shot", "release_date": "2019-05-02", "original_language": "en", "original_title": "Long Shot", "genre_ids": [35, 10749], "backdrop_path": "/88r25ghJzVYKq0vaOApqEOZsQlD.jpg", "adult": false, "overview": "Fred Flarsky is a gifted and free-spirited journalist who has a knack for getting into trouble. Charlotte Field is one of the most influential women in the world -- a smart, sophisticated and accomplished politician. When Fred unexpectedly runs into Charlotte, he soon realizes that she was his former baby sitter and childhood crush. When Charlotte decides to make a run for the presidency, she impulsively hires Fred as her speechwriter -- much to the dismay of her trusted advisers.", "poster_path": "/m2ttWZ8rMRwIMT7zA48Jo6mTkDS.jpg", "popularity": 37.774}, {"id": 637, "video": false, "vote_count": 8083, "vote_average": 8.5, "title": "Life Is Beautiful", "release_date": "1997-12-20", "original_language": "it", "original_title": "La vita \u00e8 bella", "genre_ids": [35, 18], "backdrop_path": "/bORe0eI72D874TMawOOFvqWS6Xe.jpg", "adult": false, "overview": "A touching story of an Italian book seller of Jewish ancestry who lives in his own little fairy tale. His creative and happy life would come to an abrupt halt when his entire family is deported to a concentration camp during World War II. While locked up he tries to convince his son that the whole thing is just a game.", "poster_path": "/f7DImXDebOs148U4uPjI61iDvaK.jpg", "popularity": 23.166}, {"adult": false, "backdrop_path": "/plnmzCMPAb3suBAUJ4Yi2NC1APA.jpg", "genre_ids": [35], "id": 35056, "original_language": "en", "original_title": "Date Night", "overview": "Phil and Claire Foster fear that their mild-mannered relationship may be falling into a stale rut. During their weekly date night, their dinner reservation leads to their being mistaken for a couple of thieves\u2014and now a number of unsavoury characters want Phil and Claire killed.", "poster_path": "/fzzPht9KId6Ollow30jYtABhDY3.jpg", "release_date": "2010-04-08", "title": "Date Night", "video": false, "vote_average": 6.0, "vote_count": 1888, "popularity": 14.813}, {"id": 762, "video": false, "vote_count": 3388, "vote_average": 7.8, "title": "Monty Python and the Holy Grail", "release_date": "1975-05-25", "original_language": "en", "original_title": "Monty Python and the Holy Grail", "genre_ids": [12, 35, 14], "backdrop_path": "/6fqmcCVci3cSBCgJw8NGXE4ST8G.jpg", "adult": false, "overview": "King Arthur, accompanied by his squire, recruits his Knights of the Round Table, including Sir Bedevere the Wise, Sir Lancelot the Brave, Sir Robin the Not-Quite-So-Brave-As-Sir-Lancelot and Sir Galahad the Pure. On the way, Arthur battles the Black Knight who, despite having had all his limbs chopped off, insists he can still fight. They reach Camelot, but Arthur decides not  to enter, as \"it is a silly place\".", "poster_path": "/8AVb7tyxZRsbKJNOTJHQZl7JYWO.jpg", "popularity": 32.333}, {"adult": false, "backdrop_path": "/qYIag7ACS9todyiWyYQVG2PL0Iv.jpg", "genre_ids": [35], "id": 10607, "original_language": "en", "original_title": "Don't Be a Menace to South Central While Drinking Your Juice in the Hood", "overview": "When Ashtray (Shawn Wayans) moves to South Central L.A. to live with his father (who appears to be the same age he is) and grandmother (who likes to talk tough and smoke reefer), he falls in with his gang-banging cousin Loc Dog (Marlon Wayans), who along with the requisite pistols and Uzi carries a thermo-nuclear warhead for self-defense. Will Ashtray be able to keep living the straight life?", "poster_path": "/l6D9f9WbxdI4tyCmJGs56y8tQla.jpg", "release_date": "1996-01-12", "title": "Don't Be a Menace to South Central While Drinking Your Juice in the Hood", "video": false, "vote_average": 6.2, "vote_count": 412, "popularity": 19.933}, {"id": 228967, "video": false, "vote_count": 3857, "vote_average": 6.2, "title": "The Interview", "release_date": "2014-12-25", "original_language": "en", "original_title": "The Interview", "genre_ids": [28, 35], "backdrop_path": "/p5n7VTC6qmFIuBFjACWURYCAlKP.jpg", "adult": false, "overview": "Dave Skylark and his producer Aaron Rapaport run the celebrity tabloid show \"Skylark Tonight\". When they land an interview with a surprise fan, North Korean dictator Kim Jong-un, they are recruited by the CIA to turn their trip to Pyongyang into an assassination mission.", "poster_path": "/2uWb0aSm5cFmRCHP95OdA6hvTEs.jpg", "popularity": 23.561}, {"adult": false, "backdrop_path": "/hyVHeKqCDwZdvgeFvAFZD2pDcFy.jpg", "genre_ids": [14, 35, 12], "id": 1832, "original_language": "en", "original_title": "Dogma", "overview": "The latest battle in the eternal war between Good and Evil has come to New Jersey in the late, late 20th Century. Angels, demons, apostles and prophets (of a sort) walk among the cynics and innocents of America and duke it out for the fate of humankind.", "poster_path": "/zuJJAEvyiZiddzRx7JRGNDzjP07.jpg", "release_date": "1999-11-12", "title": "Dogma", "video": false, "vote_average": 6.9, "vote_count": 1485, "popularity": 16.863}, {"id": 747, "video": false, "vote_count": 5110, "vote_average": 7.5, "title": "Shaun of the Dead", "release_date": "2004-04-09", "original_language": "en", "original_title": "Shaun of the Dead", "genre_ids": [35, 27], "backdrop_path": "/50mMiR0R1QclaAODTutwXBrReLJ.jpg", "adult": false, "overview": "Shaun lives a supremely uneventful life, which revolves around his girlfriend, his mother, and, above all, his local pub. This gentle routine is threatened when the dead return to life and make strenuous attempts to snack on ordinary Londoners.", "poster_path": "/2evlcGnsfdFWLb7geNlIjIewc0Q.jpg", "popularity": 25.866}, {"id": 515001, "video": false, "vote_count": 576, "vote_average": 8.1, "title": "Jojo Rabbit", "release_date": "2019-10-18", "original_language": "en", "original_title": "Jojo Rabbit", "genre_ids": [35, 18, 10752], "backdrop_path": "/agoBZfL1q5G79SD0npArSlJn8BH.jpg", "adult": false, "overview": "A World War II satire that follows a lonely German boy whose world view is turned upside down when he discovers his single mother is hiding a young Jewish girl in their attic. Aided only by his idiotic imaginary friend, Adolf Hitler, Jojo must confront his blind nationalism.", "poster_path": "/7GsM4mtM0worCtIVeiQt28HieeN.jpg", "popularity": 81.75}, {"id": 402897, "video": false, "vote_count": 877, "vote_average": 7.0, "title": "The Death of Stalin", "release_date": "2017-10-20", "original_language": "en", "original_title": "The Death of Stalin", "genre_ids": [35, 36], "backdrop_path": "/tx5TFMF85qU2Ug4TRIGQZbDpzFA.jpg", "adult": false, "overview": "When tyrannical dictator Josef Stalin dies in 1953, his parasitic cronies square off in a frantic power struggle to become the next Soviet leader. Among the contenders are the dweebish Georgy Malenkov, the wily Nikita Khrushchev and Lavrenti Beria, the sadistic secret police chief.", "poster_path": "/xAKqG5SpsHU7vI6Fh4UYxFrDDZZ.jpg", "popularity": 14.095}, {"id": 914, "video": false, "vote_count": 1696, "vote_average": 8.4, "title": "The Great Dictator", "release_date": "1940-10-15", "original_language": "en", "original_title": "The Great Dictator", "genre_ids": [35], "backdrop_path": "/qkpsvso2neEr7v6YnyMoZtm6R9F.jpg", "adult": false, "overview": "Dictator Adenoid Hynkel tries to expand his empire while a poor Jewish barber tries to avoid persecution from Hynkel's regime.", "poster_path": "/hK2KsU0lNiYRqIrYJcC3x63dPnH.jpg", "popularity": 20.398}, {"id": 424781, "video": false, "vote_count": 652, "vote_average": 6.9, "title": "Sorry to Bother You", "release_date": "2018-07-06", "original_language": "en", "original_title": "Sorry to Bother You", "genre_ids": [35, 14, 878], "backdrop_path": "/x832ykgj3fx0Q0MFKEno77XM47e.jpg", "adult": false, "overview": "In an alternate present-day version of Oakland, black telemarketer Cassius Green discovers a magical key to professional success \u2013 which propels him into a macabre universe.", "poster_path": "/peTl1V04E9ppvhgvNmSX0r2ALqO.jpg", "popularity": 12.714}, {"id": 517909, "video": false, "vote_count": 429, "vote_average": 6.1, "title": "The Laundromat", "release_date": "2019-09-05", "original_language": "en", "original_title": "The Laundromat", "genre_ids": [35, 80, 18], "backdrop_path": "/ld3bBHoKINhXHjABn5yEJVSBOpF.jpg", "adult": false, "overview": "When her idyllic vacation takes an unthinkable turn, Ellen Martin begins investigating a fake insurance policy, only to find herself down a rabbit hole of questionable dealings that can be linked to a Panama City law firm and its vested interest in helping the world's wealthiest citizens amass larger fortunes.", "poster_path": "/hwNMJgbiUUvPCxsnADjbV9ysM5j.jpg", "popularity": 13.093}, {"id": 185, "video": false, "vote_count": 7610, "vote_average": 8.2, "title": "A Clockwork Orange", "release_date": "1971-12-18", "original_language": "en", "original_title": "A Clockwork Orange", "genre_ids": [18, 878], "backdrop_path": "/unMc1jEyqCnzba976GviSFKGagt.jpg", "adult": false, "overview": "In a near-future Britain, young Alexander DeLarge and his pals get their kicks beating and raping anyone they please. When not destroying the lives of others, Alex swoons to the music of Beethoven. The state, eager to crack down on juvenile crime, gives an incarcerated Alex the option to undergo an invasive procedure that'll rob him of all personal agency. In a time when conscience is a commodity, can Alex change his tune?", "poster_path": "/4sHeTAp65WrSSuc05nRBKddhBxO.jpg", "popularity": 21.362}, {"adult": false, "backdrop_path": "/bYbnlh6VXFRtcSX82UMDsBDLB5j.jpg", "genre_ids": [18, 10749], "id": 28468, "original_language": "it", "original_title": "La chiave", "overview": "After twenty years of marriage, art professor Nino Rolfe attempts to break down his wife Teresa's conventional modesty. Noticing her affection for their daughter's fianc\u00e9, Nino instigates her sexual interest in him as well. This sets off a chain of unexpected events and emotional complications, as Nino and his unpredictable fascist daughter find that they both enjoy being jealous.", "poster_path": "/e6g2geNLgFzMbriH6EvSJZD78nx.jpg", "release_date": "1983-10-18", "title": "The Key", "video": false, "vote_average": 5.0, "vote_count": 128, "popularity": 15.363}], "total_pages": 85, "total_results": 1696}, "recommendations": {"page": 1, "results": [{"id": 15483, "video": false, "vote_count": 103, "vote_average": 4.6, "title": "The Card Player", "release_date": "2004-01-02", "original_language": "it", "original_title": "Il cartaio", "genre_ids": [27, 9648, 53], "backdrop_path": "/i5oH3Fkmn8OoXN8eeG9MXB2B3FK.jpg", "adult": false, "overview": "Policewoman Anna Mari is forced to play a dangerous game with the title serial killer. If she loses, she witnesses the maniac's tortured victims having their throats cut in explicit close-up detail via webcam. She teams up with British cop John Brennan to find out the identity of the murderer.", "poster_path": "/7CMdqXK0pncI3f6ul6QmyZkzm6D.jpg", "popularity": 7.304}], "total_pages": 1, "total_results": 1}, "credits": {"cast": [{"cast_id": 7, "character": "On. Giuseppe Tritoni", "credit_id": "52fe47aec3a36847f8142a15", "gender": 2, "id": 32312, "name": "Ugo Tognazzi", "order": 0, "profile_path": "/3CKdR5x869QViYxjv4tp92JcfHT.jpg"}, {"cast_id": 8, "character": "Il Presidente della Repubblica", "credit_id": "52fe47aec3a36847f8142a19", "gender": 2, "id": 20113, "name": "Claude Dauphin", "order": 1, "profile_path": "/9ZYZhyJee5MGBkeggYkENJegYmZ.jpg"}, {"cast_id": 9, "character": "Monsignor Sartorello", "credit_id": "52fe47aec3a36847f8142a1d", "gender": 0, "id": 24599, "name": "Duilio Del Prete", "order": 2, "profile_path": "/3Qt72kwlUsucaNQQXvCtqftJxlL.jpg"}, {"cast_id": 16, "character": "Colonnello Barbacane", "credit_id": "5a0187979251415718016f34", "gender": 0, "id": 240092, "name": "Giuseppe Maffioli", "order": 3, "profile_path": "/sgOKax9dOirGEpx8dQcFHJU02Oo.jpg"}, {"cast_id": 11, "character": "Marcella Bassi-Lega", "credit_id": "52fe47aec3a36847f8142a25", "gender": 0, "id": 550267, "name": "Carla Tat\u00f2", "order": 4, "profile_path": "/bPThS6QLcQauEa6RTjqulkCq9h3.jpg"}, {"cast_id": 28, "character": "On. Gigino Di Cori", "credit_id": "5a0189359251415745016e17", "gender": 2, "id": 27440, "name": "Fran\u00e7ois P\u00e9rier", "order": 5, "profile_path": "/nYEA81FGfwT0O9obLX6gysC7VeO.jpg"}, {"cast_id": 25, "character": "On. Li Masi", "credit_id": "5a0188b7925141572e01684f", "gender": 0, "id": 1677525, "name": "Lino Puglisi", "order": 6, "profile_path": null}, {"cast_id": 24, "character": "Armando Caff\u00e8", "credit_id": "5a0188ad925141573a017725", "gender": 2, "id": 1890337, "name": "Pino Zac", "order": 7, "profile_path": null}, {"cast_id": 26, "character": "On. Mazzante", "credit_id": "5a0188c1925141572e016858", "gender": 2, "id": 980399, "name": "Tino Bianchi", "order": 8, "profile_path": null}, {"cast_id": 12, "character": "Colonnello Ribaud", "credit_id": "5a01875f92514157260168e2", "gender": 0, "id": 1137518, "name": "Antonino Fa\u00e0 di Bruno", "order": 9, "profile_path": "/ba3ukHtfeBHeNSXPCgE0nMbTA3a.jpg"}, {"cast_id": 20, "character": "Tarcisio \"Ciccio\" Introna", "credit_id": "5a0188149251415718017006", "gender": 0, "id": 1537166, "name": "Vincenzo Falanga", "order": 10, "profile_path": null}, {"cast_id": 14, "character": "Colonnello Furas", "credit_id": "5a018781c3a36807b3014d73", "gender": 0, "id": 1090542, "name": "Giancarlo Fusco", "order": 11, "profile_path": "/m62KrzNRnTtJqNhCdg4W1sjujno.jpg"}, {"cast_id": 22, "character": "Contessa Amelia Di Amatrice", "credit_id": "5a018897c3a3680720016bcc", "gender": 0, "id": 1206772, "name": "Barbara Herrera", "order": 12, "profile_path": null}, {"cast_id": 17, "character": "Tenente Branzino", "credit_id": "5a0187a79251415726016979", "gender": 2, "id": 100680, "name": "Renzo Marignano", "order": 13, "profile_path": "/iEIjLyZYh1iujnvoxZg4QahqbWm.jpg"}, {"cast_id": 13, "character": "Colonnello Aguzzo", "credit_id": "5a018774c3a3680711017adb", "gender": 2, "id": 133755, "name": "Camillo Milli", "order": 14, "profile_path": "/nzc7FUYBiAPnrsRePeSvjcCJdyv.jpg"}, {"cast_id": 33, "character": "il colonnello strabico", "credit_id": "5c0fc8cd92514147920d5d95", "gender": 0, "id": 1461306, "name": "Alberto Postorino", "order": 15, "profile_path": null}, {"cast_id": 27, "character": "On. Cicero", "credit_id": "5a01892ac3a36807b3014fa9", "gender": 2, "id": 50786, "name": "Gianni Solaro", "order": 16, "profile_path": null}, {"cast_id": 19, "character": "Generale Bassi-Lega", "credit_id": "5a0187c7c3a368075601692e", "gender": 2, "id": 543681, "name": "Pietro Tordi", "order": 17, "profile_path": "/63UffElgIOX8gGJZZ48PV8yXNiC.jpg"}, {"cast_id": 15, "character": "Colonnello Turzilli", "credit_id": "5a01878cc3a36807b3014d88", "gender": 0, "id": 1024364, "name": "Max Turilli", "order": 18, "profile_path": "/1mHxdIbVHvC5U1uU5UF3utW55V1.jpg"}, {"cast_id": 23, "character": "Colonnello Automatikos", "credit_id": "5a0188a3c3a3680711017ca7", "gender": 0, "id": 1919113, "name": "Salvatore Biliardo", "order": 19, "profile_path": null}, {"cast_id": 34, "character": "", "credit_id": "5c0fc9090e0a2638af0e971f", "gender": 0, "id": 1016083, "name": "Bruno Boschetti", "order": 20, "profile_path": null}, {"cast_id": 35, "character": "Professor Pube", "credit_id": "5c0fc927c3a368252d0e6377", "gender": 2, "id": 1038520, "name": "Pietro Biondi", "order": 21, "profile_path": "/bJCcK8dvn3ePTQrtmcakdktO8ip.jpg"}, {"cast_id": 31, "character": "Franz Cavicchia", "credit_id": "5a01897c9251415745016e85", "gender": 2, "id": 37125, "name": "Giuseppe Castellano", "order": 22, "profile_path": "/2CyDiJQ6J45CDlwA9WMblOtWLm0.jpg"}, {"cast_id": 36, "character": "benzinaio", "credit_id": "5c0fc9520e0a2638bc0e1681", "gender": 2, "id": 33810, "name": "Luciano Catenacci", "order": 23, "profile_path": "/jONYtjxUL8Dvnm1fQUK0NjRKBrF.jpg"}, {"cast_id": 29, "character": "On. Ferlingeri", "credit_id": "5a0189489251415726016b7f", "gender": 0, "id": 1189965, "name": "Mico Cundari", "order": 24, "profile_path": "/6aU8Abhn470266dAQBTTftbMnKT.jpg"}, {"cast_id": 37, "character": "figlio di DI Cori", "credit_id": "5c0fc988c3a368252a0e7994", "gender": 0, "id": 1085172, "name": "Vittorio De Bisogno", "order": 25, "profile_path": "/9tJ8fCaKpTDqzMS4k4BO5g9Y38d.jpg"}, {"cast_id": 18, "character": "Generale Pariglia", "credit_id": "5a0187bb925141572e0166ee", "gender": 0, "id": 1919111, "name": "Belisario De Matteis", "order": 26, "profile_path": null}, {"cast_id": 38, "character": "Ulisse", "credit_id": "5c0fc9cdc3a36825280e1d32", "gender": 0, "id": 1766978, "name": "Nino Formicola", "order": 27, "profile_path": "/yKxAU1X0RboW4uUX91wK6RPFBV4.jpg"}, {"cast_id": 39, "character": "ufficiale di polizia", "credit_id": "5c0fc9da92514147aa0d0297", "gender": 2, "id": 1169659, "name": "Mario Frera", "order": 28, "profile_path": "/vsjjhtQG9u5lefv6qSKue4WfUC6.jpg"}, {"cast_id": 40, "character": "Cristiana Tallone", "credit_id": "5c0fc9e40e0a2638b80dfe35", "gender": 0, "id": 995406, "name": "Rosanna Gherardi", "order": 29, "profile_path": null}, {"cast_id": 41, "character": "", "credit_id": "5c0fc9f80e0a2638d30e77fe", "gender": 0, "id": 1602099, "name": "Enzo Guarini", "order": 30, "profile_path": null}, {"cast_id": 42, "character": "", "credit_id": "5c0fca050e0a2638b60ded63", "gender": 0, "id": 1708955, "name": "Enzo La Torre", "order": 31, "profile_path": null}, {"cast_id": 43, "character": "", "credit_id": "5c0fca0d0e0a2638b80dfe6a", "gender": 1, "id": 27390, "name": "Carla Mancini", "order": 32, "profile_path": "/ovUX2Ke2z45i5L3d4ja5n8TEqgV.jpg"}, {"cast_id": 44, "character": "Urbini", "credit_id": "5c0fca189251414f29047461", "gender": 0, "id": 1287648, "name": "Mauro Misul", "order": 33, "profile_path": null}, {"cast_id": 45, "character": "Alfonsone", "credit_id": "5c0fca2fc3a368252a0e7a99", "gender": 2, "id": 1604220, "name": "Franco Moraldi", "order": 34, "profile_path": null}, {"cast_id": 46, "character": "", "credit_id": "5c0fca3892514147980d688d", "gender": 0, "id": 2193219, "name": "Lino Murolo", "order": 35, "profile_path": null}, {"cast_id": 30, "character": "On. Bertoni", "credit_id": "5a0189529251415726016b8c", "gender": 0, "id": 1886232, "name": "Loris Zanchi", "order": 36, "profile_path": null}, {"cast_id": 21, "character": "Ing. Stainer", "credit_id": "5a018832c3a3680711017c13", "gender": 0, "id": 1919112, "name": "Luigi Lenner", "order": 37, "profile_path": null}, {"cast_id": 47, "character": "cameriere", "credit_id": "5c0fca55c3a36825180e3777", "gender": 2, "id": 581710, "name": "Francesco Anniballi", "order": 38, "profile_path": "/vvxIkBDqsH6Ecv2EduLSqsAGGuq.jpg"}, {"cast_id": 48, "character": "", "credit_id": "5c0fca630e0a2638d30e7938", "gender": 2, "id": 25781, "name": "Angelo Boscariol", "order": 39, "profile_path": "/uqZGaaoKv4t6d5olrT8JBHeIMZq.jpg"}, {"cast_id": 49, "character": "", "credit_id": "5c0fca700e0a2638bc0e17dc", "gender": 0, "id": 1137526, "name": "Gianni Baghino", "order": 40, "profile_path": null}], "crew": [{"credit_id": "52fe47aec3a36847f81429f3", "department": "Directing", "gender": 2, "id": 32375, "job": "Director", "name": "Mario Monicelli", "profile_path": "/3AWi7C76eGO3WxZgvRavzxq2x5q.jpg"}, {"credit_id": "52fe47aec3a36847f81429f9", "department": "Writing", "gender": 2, "id": 32375, "job": "Screenplay", "name": "Mario Monicelli", "profile_path": "/3AWi7C76eGO3WxZgvRavzxq2x5q.jpg"}, {"credit_id": "52fe47aec3a36847f81429ff", "department": "Writing", "gender": 2, "id": 5811, "job": "Screenplay", "name": "Agenore Incrocci", "profile_path": "/radxkfrIVLjPDzCef9aER1aWkc4.jpg"}, {"credit_id": "52fe47aec3a36847f8142a05", "department": "Writing", "gender": 2, "id": 5812, "job": "Screenplay", "name": "Furio Scarpelli", "profile_path": null}, {"credit_id": "52fe47aec3a36847f8142a0b", "department": "Sound", "gender": 2, "id": 29500, "job": "Original Music Composer", "name": "Carlo Rustichelli", "profile_path": "/3LOPAqzUlWbyjzxYXMlJpJDrrrE.jpg"}, {"credit_id": "52fe47aec3a36847f8142a11", "department": "Camera", "gender": 0, "id": 39014, "job": "Director of Photography", "name": "Alberto Spagnoli", "profile_path": null}, {"credit_id": "5bc854cf9251410a030127ed", "department": "Costume & Make-Up", "gender": 2, "id": 32055, "job": "Costume Designer", "name": "Piero Tosi", "profile_path": "/bTE02wqXfOBOFlAcNlpWnVfcUHO.jpg"}]}}