{"adult": false, "backdrop_path": "/AruGETky41vHWRRTkkq4urbvxKN.jpg", "belongs_to_collection": null, "budget": 1986448, "genres": [{"id": 36, "name": "History"}, {"id": 18, "name": "Drama"}, {"id": 35, "name": "Comedy"}], "homepage": "", "id": 500909, "imdb_id": "tt8506840", "original_language": "ro", "original_title": "\u00cemi este indiferent dac\u0103 \u00een istorie vom intra ca barbari", "overview": "\"I do not care if we go down in history as barbarians.\" These words, spoken in the Council of Ministers of the summer of 1941, started the ethnic cleansing on the Eastern Front. The film attempts to comment on this statement.", "popularity": 1.229, "poster_path": "/nUl6JaghmaEBrcIxvunLDPfNXOI.jpg", "production_companies": [{"id": 70098, "logo_path": null, "name": "Klas Film", "origin_country": "BG"}, {"id": 8698, "logo_path": null, "name": "Hi Film Productions", "origin_country": "RO"}, {"id": 76921, "logo_path": "/gCUEfolhrKlX8QntF7RbIWop7Zc.png", "name": "Les Films d'Ici", "origin_country": "FR"}, {"id": 24870, "logo_path": null, "name": "endorfilm", "origin_country": "CZ"}, {"id": 1618, "logo_path": "/dacmPYkpGE9Mbu2dqG2sFTXpsqr.png", "name": "Komplizen Film", "origin_country": "DE"}, {"id": 11237, "logo_path": null, "name": "ZDF/Arte", "origin_country": "DE"}], "production_countries": [{"iso_3166_1": "DE", "name": "Germany"}, {"iso_3166_1": "BG", "name": "Bulgaria"}, {"iso_3166_1": "FR", "name": "France"}, {"iso_3166_1": "CZ", "name": "Czech Republic"}, {"iso_3166_1": "RO", "name": "Romania"}], "release_date": "2018-09-28", "revenue": 0, "runtime": 140, "spoken_languages": [{"iso_639_1": "ro", "name": "Rom\u00e2n\u0103"}], "status": "Released", "tagline": "", "title": "I Do Not Care If We Go Down in History as Barbarians", "video": false, "vote_average": 7.9, "vote_count": 7, "keywords": {"keywords": [{"id": 1956, "name": "world war ii"}, {"id": 2433, "name": "jew persecution"}, {"id": 2444, "name": "jewish ghetto"}, {"id": 14546, "name": "massacre"}, {"id": 207883, "name": "1940s"}, {"id": 210456, "name": "romanian army"}]}, "similar": {"page": 1, "results": [{"id": 424, "video": false, "vote_count": 8988, "vote_average": 8.6, "title": "Schindler's List", "release_date": "1993-11-30", "original_language": "en", "original_title": "Schindler's List", "genre_ids": [18, 36, 10752], "backdrop_path": "/cTNYRUTXkBgPH3wP3kmPUB5U6dA.jpg", "adult": false, "overview": "The true story of how businessman Oskar Schindler saved over a thousand Jewish lives from the Nazis while they worked as slaves in his factory during World War II.", "poster_path": "/yPisjyLweCl1tbgwgtzBCNCBle.jpg", "popularity": 25.457}, {"adult": false, "backdrop_path": "/qtD2lFLG5T7L8flbKSEIoSqcslI.jpg", "genre_ids": [18, 10752], "id": 7862, "original_language": "de", "original_title": "Die F\u00e4lscher", "overview": "The story Jewish counterfeiter, Salomon Sorowitsch, coerced into assisting the Nazi operation of the Sachsenhausen concentration camp during World War II.", "poster_path": "/bRQddrgVemZtFdnrPy9AxTpkhpj.jpg", "release_date": "2007-02-09", "title": "The Counterfeiters", "video": false, "vote_average": 7.4, "vote_count": 261, "popularity": 12.463}, {"adult": false, "backdrop_path": "/pKawqrtCBMmxarft7o1LbEynys7.jpg", "genre_ids": [10752, 18, 28], "id": 228150, "original_language": "en", "original_title": "Fury", "overview": "In the last months of World War II, as the Allies make their final push in the European theatre, a battle-hardened U.S. Army sergeant named 'Wardaddy' commands a Sherman tank called 'Fury' and its five-man crew on a deadly mission behind enemy lines. Outnumbered and outgunned, Wardaddy and his men face overwhelming odds in their heroic attempts to strike at the heart of Nazi Germany.", "poster_path": "/fa4PxEPRKWRyjzYje1jM4m30qzd.jpg", "release_date": "2014-10-15", "title": "Fury", "video": false, "vote_average": 7.4, "vote_count": 7302, "popularity": 53.985}, {"id": 637, "video": false, "vote_count": 8083, "vote_average": 8.5, "title": "Life Is Beautiful", "release_date": "1997-12-20", "original_language": "it", "original_title": "La vita \u00e8 bella", "genre_ids": [35, 18], "backdrop_path": "/bORe0eI72D874TMawOOFvqWS6Xe.jpg", "adult": false, "overview": "A touching story of an Italian book seller of Jewish ancestry who lives in his own little fairy tale. His creative and happy life would come to an abrupt halt when his entire family is deported to a concentration camp during World War II. While locked up he tries to convince his son that the whole thing is just a game.", "poster_path": "/f7DImXDebOs148U4uPjI61iDvaK.jpg", "popularity": 23.166}, {"id": 423, "video": false, "vote_count": 4650, "vote_average": 8.3, "title": "The Pianist", "release_date": "2002-09-17", "original_language": "en", "original_title": "The Pianist", "genre_ids": [18, 10752], "backdrop_path": "/xUR95VFV1UTyzS1C8Lj06hi2n2M.jpg", "adult": false, "overview": "The true story of pianist W\u0142adys\u0142aw Szpilman's experiences in Warsaw during the Nazi occupation. When the Jews of the city find themselves forced into a ghetto, Szpilman finds work playing in a caf\u00e9; and when his family is deported in 1942, he stays behind, works for a while as a laborer, and eventually goes into hiding in the ruins of the war-torn city.", "poster_path": "/hfMeo073RxKKjZZV4gSGema1yog.jpg", "popularity": 25.546}, {"id": 489176, "video": false, "vote_count": 7, "vote_average": 4.9, "title": "The Birdcatcher", "release_date": "2017-03-29", "original_language": "en", "original_title": "The Birdcatcher", "genre_ids": [18, 36, 53, 10752], "backdrop_path": "/Wb6y1b2uOTUDhaBmrP7eqtuSjK.jpg", "adult": false, "overview": "Norway, 1942, during World War II. After being separated from her family, Esther, a young Jewish girl from Trondheim, arrives at an isolated farm where she must assume a new identity in order to survive the Nazi persecution\u2026", "poster_path": "/l9dmHphfmhmIZ4h8zRvhnSvuq0A.jpg", "popularity": 12.176}, {"id": 293982, "video": false, "vote_count": 119, "vote_average": 6.9, "title": "Warsaw 44", "release_date": "2014-07-30", "original_language": "pl", "original_title": "Miasto 44", "genre_ids": [18, 36, 10749, 10752], "backdrop_path": "/wv4kNz9aJPO200vndn5Paczh12K.jpg", "adult": false, "overview": "City of Warsaw, Poland, August 1, 1944. Citizens have experienced inhuman acts of terror and violence during five long years of Nazi occupation. As the Soviet Army relentlessly approaches, the youngest and bravest among them rise up as one and face tyranny fighting street by street, but the price to pay will be high and hard the way to freedom.", "poster_path": "/k9WOOkVur2Gwo93wuiKzJDm2mUK.jpg", "popularity": 7.451}, {"id": 11046, "video": false, "vote_count": 434, "vote_average": 7.6, "title": "Where Eagles Dare", "release_date": "1968-12-04", "original_language": "en", "original_title": "Where Eagles Dare", "genre_ids": [28, 12, 18, 36, 10752], "backdrop_path": "/aAFq5jVHV6RZpLcRXATskNBuEbM.jpg", "adult": false, "overview": "World War II is raging, and an American general has been captured and is being held hostage in the Schloss Adler, a Bavarian castle that's nearly impossible to breach. It's up to a group of skilled Allied soldiers to liberate the general before it's too late.", "poster_path": "/991u0tSWGTVXCYkgC6ftaGE4bkQ.jpg", "popularity": 15.171}, {"id": 369885, "video": false, "vote_count": 3048, "vote_average": 6.7, "title": "Allied", "release_date": "2016-11-17", "original_language": "en", "original_title": "Allied", "genre_ids": [28, 18, 53, 10749, 10752], "backdrop_path": "/tC0tVH5KQhCwMlddnyA3iWOSuBA.jpg", "adult": false, "overview": "In 1942, an intelligence officer in North Africa encounters a female French Resistance fighter on a deadly mission behind enemy lines. When they reunite in London, their relationship is tested by the pressures of war.", "poster_path": "/nzXzLFTnd0Zb3ExfhOxlQgizgSu.jpg", "popularity": 29.818}, {"id": 16869, "video": false, "vote_count": 13525, "vote_average": 8.1, "title": "Inglourious Basterds", "release_date": "2009-08-18", "original_language": "en", "original_title": "Inglourious Basterds", "genre_ids": [28, 18, 53, 10752], "backdrop_path": "/50VD6QU0NX0aRB6ftKCVWun80bm.jpg", "adult": false, "overview": "In Nazi-occupied France during World War II, a group of Jewish-American soldiers known as \"The Basterds\" are chosen specifically to spread fear throughout the Third Reich by scalping and brutally killing Nazis. The Basterds, lead by Lt. Aldo Raine soon cross paths with a French-Jewish teenage girl who runs a movie theater in Paris which is targeted by the soldiers.", "poster_path": "/ai0LXkzVM3hMjDhvFdKMUemoBe.jpg", "popularity": 32.532}, {"id": 515001, "video": false, "vote_count": 576, "vote_average": 8.1, "title": "Jojo Rabbit", "release_date": "2019-10-18", "original_language": "en", "original_title": "Jojo Rabbit", "genre_ids": [35, 18, 10752], "backdrop_path": "/agoBZfL1q5G79SD0npArSlJn8BH.jpg", "adult": false, "overview": "A World War II satire that follows a lonely German boy whose world view is turned upside down when he discovers his single mother is hiding a young Jewish girl in their attic. Aided only by his idiotic imaginary friend, Adolf Hitler, Jojo must confront his blind nationalism.", "poster_path": "/7GsM4mtM0worCtIVeiQt28HieeN.jpg", "popularity": 81.75}, {"adult": false, "backdrop_path": "/ljZOlqLtMa6gnTHcYn9y9lP0bK3.jpg", "genre_ids": [53, 36, 18], "id": 528949, "original_language": "es", "original_title": "El fot\u00f3grafo de Mauthausen", "overview": "Spanish photographer Francesc Boix, imprisoned in the Mauthausen-Gusen concentration camp, works in the SS Photographic Service. Between 1943 and 1945, he hides, with the help of other prisoners, thousands of negatives, with the purpose of showing the freed world the atrocities committed by the Nazis, exhaustively documented. He will be a key witness during the Nuremberg Trials.", "poster_path": "/1GzwDodNHSQM7Wu8VIbvTmYXJQB.jpg", "release_date": "2018-10-26", "title": "The Photographer of Mauthausen", "video": false, "vote_average": 7.0, "vote_count": 263, "popularity": 10.595}, {"adult": false, "backdrop_path": "/jLnm1qrsZd2FiC016nOjsgiHsQ2.jpg", "genre_ids": [18, 36], "id": 9045, "original_language": "fr", "original_title": "Amen.", "overview": "Kurt Gerstein\u2014a member of the Institute for Hygiene of the Waffen-SS\u2014is horrified by what he sees in the death camps. he is then shocked to learn that the process he used to purify water for his troops by using Zyklon-B, is now used to kill people in gas chambers.", "poster_path": "/3uaiPsJgagOVWzRsDlH3TKdVHrw.jpg", "release_date": "2002-02-13", "title": "Amen.", "video": false, "vote_average": 7.0, "vote_count": 166, "popularity": 12.082}, {"id": 14574, "video": false, "vote_count": 3974, "vote_average": 7.8, "title": "The Boy in the Striped Pyjamas", "release_date": "2008-05-07", "original_language": "en", "original_title": "The Boy in the Striped Pyjamas", "genre_ids": [18, 10752], "backdrop_path": "/tFyhGkJgV6M5zZAjS8SBVqOjzH4.jpg", "adult": false, "overview": "When his family moves from their home in Berlin to a strange new house in Poland, young Bruno befriends Shmuel, a boy who lives on the other side of the fence where everyone seems to be wearing striped pajamas. Unaware of Shmuel's fate as a Jewish prisoner or the role his own Nazi father plays in his imprisonment, Bruno embarks on a dangerous journey inside the camp's walls.", "poster_path": "/f40R9to84FGF7T5bp3KGB84Lklb.jpg", "popularity": 19.131}, {"adult": false, "backdrop_path": "/hNn5koyqFmAXqOE8SzJBuhUmEZo.jpg", "genre_ids": [35, 10752], "id": 8290, "original_language": "fr", "original_title": "La Grande Vadrouille", "overview": "During World War II, two French civilians and a downed British Bomber Crew set out from Paris to cross the demarcation line between Nazi-occupied Northern France and the South. From there they will be able to escape to England. First, they must avoid German troops - and the consequences of their own blunders.", "poster_path": "/nMh6M8kraLZ7Uu4e8u7Vyb2qwg0.jpg", "release_date": "1966-12-07", "title": "Don't Look Now: We're Being Shot At", "video": false, "vote_average": 7.9, "vote_count": 691, "popularity": 18.855}, {"id": 2576, "video": false, "vote_count": 158, "vote_average": 7.2, "title": "The Diary of Anne Frank", "release_date": "1959-03-18", "original_language": "en", "original_title": "The Diary of Anne Frank", "genre_ids": [18, 36], "backdrop_path": "/x7yCQSWXSczdHUMKEMk5qyoUazO.jpg", "adult": false, "overview": "The true, harrowing story of a young Jewish girl who, with her family and their friends, is forced into hiding in an attic in Nazi-occupied Amsterdam.", "poster_path": "/i7kUdUAF9eTxQG7GdR6lKUK96En.jpg", "popularity": 13.374}, {"adult": false, "backdrop_path": "/7QDnuj2T6CCY5wOSnKfYH7cIb6M.jpg", "genre_ids": [18, 35, 10752], "id": 8056, "original_language": "fr", "original_title": "Train de vie", "overview": "In 1941, the inhabitants of a small Jewish village in Central Europe organize a fake deportation train so that they can escape the Nazis and flee to Palestine.", "poster_path": "/anUwgyVrC7kUwN5OliazbC5qBfr.jpg", "release_date": "1998-09-16", "title": "Train of Life", "video": false, "vote_average": 7.5, "vote_count": 150, "popularity": 7.165}, {"id": 821, "video": false, "vote_count": 348, "vote_average": 8.1, "title": "Judgment at Nuremberg", "release_date": "1961-12-01", "original_language": "en", "original_title": "Judgment at Nuremberg", "genre_ids": [18, 36], "backdrop_path": "/g8yVrnJ72eOt1Xw4uyYBIsBBE2g.jpg", "adult": false, "overview": "In 1947, four German judges who served on the bench during the Nazi regime face a military tribunal to answer charges of crimes against humanity. Chief Justice Haywood hears evidence and testimony not only from lead defendant Ernst Janning and his defense attorney Hans Rolfe, but also from the widow of a Nazi general, an idealistic U.S. Army captain and reluctant witness Irene Wallner.", "poster_path": "/iu7VMhBma5S94M3wh0fR8cmwgUf.jpg", "popularity": 10.015}, {"id": 56179, "video": false, "vote_count": 22, "vote_average": 7.0, "title": "Triumph of the Spirit", "release_date": "1989-01-01", "original_language": "en", "original_title": "Triumph of the Spirit", "genre_ids": [18, 10752], "backdrop_path": "/fRdksi7TdI9yY2S2g2ldG4c2vqZ.jpg", "adult": false, "overview": "Fact based story about a former Greek Olympic boxer who was taken as a prisoner during World war II and placed in the Auschwitz prison camp. There he was permitted to survive as long as he fought for the amusement of his captors. His father and brother were also held as insurance that he would continue to fight.", "poster_path": "/dxaSARmpCiFOCaxwGvjYAXMYPE4.jpg", "popularity": 6.546}, {"id": 289222, "video": false, "vote_count": 836, "vote_average": 7.4, "title": "The Zookeeper's Wife", "release_date": "2017-03-31", "original_language": "en", "original_title": "The Zookeeper's Wife", "genre_ids": [18, 36], "backdrop_path": "/rE6W3KHdIuTdgRDLOOOMR3gfGgc.jpg", "adult": false, "overview": "The account of keepers of the Warsaw Zoo, Jan and Antonina Zabinski, who helped save hundreds of people and animals during the Nazi invasion.", "poster_path": "/50KGpMiIvSkF4WHOgp0gM6r6sMU.jpg", "popularity": 11.588}], "total_pages": 26, "total_results": 505}, "recommendations": {"page": 1, "results": [], "total_pages": 1, "total_results": 0}, "credits": {"cast": [{"cast_id": 1, "character": "Mariana", "credit_id": "5a6a465ac3a36843c1003888", "gender": 1, "id": 149124, "name": "Ioana Iacob", "order": 1, "profile_path": "/iI8lwVmyNtGaRrirwMSPic0mgm.jpg"}, {"cast_id": 2, "character": "Traian", "credit_id": "5a6a46709251412255003eaf", "gender": 0, "id": 1772440, "name": "Alex Bogdan", "order": 2, "profile_path": null}, {"cast_id": 3, "character": "Movila", "credit_id": "5a6a467a9251412255003eb5", "gender": 0, "id": 1315264, "name": "Alexandru Dabija", "order": 3, "profile_path": null}, {"cast_id": 7, "character": "", "credit_id": "5b420bcdc3a36840a401252a", "gender": 0, "id": 2080403, "name": "Ion Rizea", "order": 4, "profile_path": null}, {"cast_id": 8, "character": "", "credit_id": "5b420bd90e0a26711a011b78", "gender": 0, "id": 2080404, "name": "Claudia Ieremia", "order": 5, "profile_path": null}, {"cast_id": 9, "character": "", "credit_id": "5b420be2c3a368408a01438e", "gender": 2, "id": 1772028, "name": "Ion Arcudeanu", "order": 6, "profile_path": "/7SSrk4U2RetCrO0NR79MUJ8pHFF.jpg"}, {"cast_id": 10, "character": "", "credit_id": "5b420beb9251414f4c011f8d", "gender": 1, "id": 20700, "name": "Dana Bunescu", "order": 7, "profile_path": "/eJVV6VgZME7R8qq9YHdLAZIUjAz.jpg"}, {"cast_id": 11, "character": "", "credit_id": "5b420bf9c3a36840b8013142", "gender": 0, "id": 1422075, "name": "Eduard Cirlan", "order": 8, "profile_path": null}, {"cast_id": 12, "character": "", "credit_id": "5b420c020e0a26711d010f95", "gender": 2, "id": 1650663, "name": "Bogdan Cotle\u021b", "order": 9, "profile_path": null}, {"cast_id": 13, "character": "", "credit_id": "5b420c159251414f4000f4bb", "gender": 0, "id": 1683770, "name": "Larisa Crun\u021beanu", "order": 10, "profile_path": null}, {"cast_id": 14, "character": "", "credit_id": "5b420c1dc3a36840a2013842", "gender": 1, "id": 2080405, "name": "Liliana Ghi\u021b\u0103", "order": 11, "profile_path": null}, {"cast_id": 15, "character": "", "credit_id": "5b420c290e0a267104011ce6", "gender": 1, "id": 1650662, "name": "Ilinca H\u0103rnu\u021b", "order": 12, "profile_path": null}, {"cast_id": 16, "character": "", "credit_id": "5b420c34c3a36840a70103fd", "gender": 0, "id": 2080406, "name": "Rares Hontzu", "order": 13, "profile_path": null}, {"cast_id": 17, "character": "", "credit_id": "5b420c42c3a36840b100fcae", "gender": 0, "id": 2080407, "name": "Ilinca Manolache", "order": 14, "profile_path": null}, {"cast_id": 18, "character": "", "credit_id": "5b420c4cc3a368409e00d392", "gender": 0, "id": 2080408, "name": "Gheorghe Mezei", "order": 15, "profile_path": null}, {"cast_id": 19, "character": "", "credit_id": "5b420c5e0e0a2671160129c5", "gender": 1, "id": 1154241, "name": "Sofia Nicolaescu", "order": 16, "profile_path": null}, {"cast_id": 20, "character": "", "credit_id": "5b420c68c3a36840a2013873", "gender": 0, "id": 111912, "name": "Mihai Niculescu", "order": 17, "profile_path": null}, {"cast_id": 21, "character": "", "credit_id": "5b420c71c3a36840a4012597", "gender": 2, "id": 592227, "name": "\u0218erban Pavlu", "order": 18, "profile_path": "/zRxb750VJrnlWs57kMXRNN3peFt.jpg"}, {"cast_id": 22, "character": "", "credit_id": "5b420c7a0e0a267120010da7", "gender": 0, "id": 2080410, "name": "Dumitru Raducu", "order": 19, "profile_path": null}, {"cast_id": 23, "character": "", "credit_id": "5b420c830e0a26711d010ff7", "gender": 2, "id": 60422, "name": "Gabriel Spahiu", "order": 20, "profile_path": "/orChMrEqTkwdWWnB0FfqT9qow5v.jpg"}, {"cast_id": 24, "character": "", "credit_id": "5b420c8c9251414f5f01002d", "gender": 0, "id": 2080411, "name": "Andrea Tokai", "order": 21, "profile_path": null}, {"cast_id": 25, "character": "", "credit_id": "5b420c980e0a2670f9010cd3", "gender": 0, "id": 2080412, "name": "Luca Tudor", "order": 22, "profile_path": null}], "crew": [{"credit_id": "5bcc7781925141612a007e08", "department": "Sound", "gender": 1, "id": 20700, "job": "Sound Designer", "name": "Dana Bunescu", "profile_path": "/eJVV6VgZME7R8qq9YHdLAZIUjAz.jpg"}, {"credit_id": "5be3e8a89251415c75025dee", "department": "Production", "gender": 1, "id": 60407, "job": "Producer", "name": "Ada Solomon", "profile_path": "/7NjdcEuPcaL1mAGh4UvY4AbG0Um.jpg"}, {"credit_id": "5a6a462ac3a36843ca003b3a", "department": "Directing", "gender": 2, "id": 588822, "job": "Director", "name": "Radu Jude", "profile_path": "/aRVYVYQvKBXKI7zIkaoN3vaU2uu.jpg"}, {"credit_id": "5a6a48470e0a266f220042bc", "department": "Writing", "gender": 2, "id": 588822, "job": "Writer", "name": "Radu Jude", "profile_path": "/aRVYVYQvKBXKI7zIkaoN3vaU2uu.jpg"}, {"credit_id": "5a6a48b90e0a266f22004325", "department": "Camera", "gender": 2, "id": 931382, "job": "Director of Photography", "name": "Marius Panduru", "profile_path": null}, {"credit_id": "5b434af39251414f4601d124", "department": "Editing", "gender": 2, "id": 1437664, "job": "Editor", "name": "Catalin Cristutiu", "profile_path": "/n9pHKeOzHKQmIj9EHQXi793YSvl.jpg"}]}}