{"adult": false, "backdrop_path": "/gsdlFuDGDg6Yaknj6zjUAP3tYNX.jpg", "belongs_to_collection": null, "budget": 0, "genres": [{"id": 36, "name": "History"}, {"id": 18, "name": "Drama"}], "homepage": null, "id": 50107, "imdb_id": "tt0024144", "original_language": "en", "original_title": "The House on 56th Street", "overview": "A beautiful chorine marries a handsome rich socialite, but her idyllic life ends when she visits a dying old beau and is charged when he commits suicide.", "popularity": 3.323, "poster_path": "/ujNB7oWad6P12YFr02dbCv2oaoN.jpg", "production_companies": [{"id": 174, "logo_path": "/IuAlhI9eVC9Z8UQWOIDdWRKSEJ.png", "name": "Warner Bros. Pictures", "origin_country": "US"}], "production_countries": [{"iso_3166_1": "US", "name": "United States of America"}], "release_date": "1933-12-23", "revenue": 0, "runtime": 68, "spoken_languages": [{"iso_639_1": "en", "name": "English"}], "status": "Released", "tagline": "", "title": "The House on 56th Street", "video": false, "vote_average": 6.3, "vote_count": 3, "keywords": {"keywords": [{"id": 156764, "name": "pre-code"}]}, "similar": {"page": 1, "results": [{"id": 3035, "video": false, "vote_count": 715, "vote_average": 7.5, "title": "Frankenstein", "release_date": "1931-11-21", "original_language": "en", "original_title": "Frankenstein", "genre_ids": [18, 27, 878], "backdrop_path": "/nwmG8pQQ1xFAPZruYNnrnld2KMC.jpg", "adult": false, "overview": "Dr Henry Frankenstein is obsessed with assembling a living being from parts of several exhumed corpses.", "poster_path": "/wB58wlBAr6484Wm6VyFDqSD8VOJ.jpg", "popularity": 24.454}, {"id": 1585, "video": false, "vote_count": 2258, "vote_average": 8.2, "title": "It's a Wonderful Life", "release_date": "1946-12-20", "original_language": "en", "original_title": "It's a Wonderful Life", "genre_ids": [18, 14, 10751], "backdrop_path": "/nMomMy1sD3SN2QsKop3zBXCJfDJ.jpg", "adult": false, "overview": "A holiday favourite for generations...  George Bailey has spent his entire life giving to the people of Bedford Falls.  All that prevents rich skinflint Mr. Potter from taking over the entire town is George's modest building and loan company.  But on Christmas Eve the business's $8,000 is lost and George's troubles begin.", "poster_path": "/bSqt9rhDZx1Q7UZ86dBPKdNomp2.jpg", "popularity": 28.472}, {"id": 497, "video": false, "vote_count": 9313, "vote_average": 8.5, "title": "The Green Mile", "release_date": "1999-12-10", "original_language": "en", "original_title": "The Green Mile", "genre_ids": [80, 18, 14], "backdrop_path": "/Rlt20sEbOQKPVjia7lUilFm49W.jpg", "adult": false, "overview": "A supernatural tale set on death row in a Southern prison, where gentle giant John Coffey possesses the mysterious power to heal people's ailments. When the cell block's head guard, Paul Edgecomb, recognizes Coffey's miraculous gift, he tries desperately to help stave off the condemned man's execution.", "poster_path": "/sOHqdY1RnSn6kcfAHKu28jvTebE.jpg", "popularity": 41.99}, {"adult": false, "backdrop_path": "/cMrvn4Hl0A0NAL61BpDWQIsMsiN.jpg", "genre_ids": [16], "id": 149870, "original_language": "ja", "original_title": "\u98a8\u7acb\u3061\u306c", "overview": "A lifelong love of flight inspires Japanese aviation engineer Jiro Horikoshi, whose storied career includes the creation of the A-6M World War II fighter plane.", "poster_path": "/3OTcCyf7QbGdVxsS8GLtaSsTZtP.jpg", "release_date": "2013-07-20", "title": "The Wind Rises", "video": false, "vote_average": 7.8, "vote_count": 1427, "popularity": 23.476}, {"adult": false, "backdrop_path": "/oHrTL0iTwLJMKbx2T3R5L5DPSyz.jpg", "genre_ids": [27], "id": 571, "original_language": "en", "original_title": "The Birds", "overview": "Chic socialite Melanie Daniels enjoys a passing flirtation with an eligible attorney in a San Francisco pet shop and, on an impulse, follows him to his hometown bearing a gift of lovebirds. But upon her arrival, the bird population runs amok. Suddenly, the townsfolk face a massive avian onslaught, with the feathered fiends inexplicably attacking people all over Bodega Bay.", "poster_path": "/z0iYrJ6GsAMP3abOha7uGMuc5kZ.jpg", "release_date": "1963-03-28", "title": "The Birds", "video": false, "vote_average": 7.5, "vote_count": 2155, "popularity": 21.846}, {"id": 58431, "video": false, "vote_count": 1300, "vote_average": 5.8, "title": "Pride and Prejudice and Zombies", "release_date": "2016-02-04", "original_language": "en", "original_title": "Pride and Prejudice and Zombies", "genre_ids": [35, 27, 53, 10749], "backdrop_path": "/z6gSLTHsAgqlOwID8jMHfFgeufS.jpg", "adult": false, "overview": "A zombie outbreak has fallen upon the land in this reimagining of Jane Austen\u2019s classic tale of the tangled relationships between lovers from different social classes in 19th century England. Feisty heroine Elizabeth Bennet (Lily James) is a master of martial arts and weaponry and the handsome Mr. Darcy (Sam Riley) is a fierce zombie killer, yet the epitome of upper class prejudice. As the zombie outbreak intensifies, they must swallow their pride and join forces on the blood-soaked battlefield in order to conquer the undead once and for all.", "poster_path": "/jsJlOhVHiz1xXr36616EI8tJ4b2.jpg", "popularity": 15.305}, {"adult": false, "backdrop_path": "/j7hS3yybvvAd9V217IkZSOjkOvY.jpg", "genre_ids": [18, 28, 53, 80], "id": 832, "original_language": "de", "original_title": "M - Eine Stadt sucht einen M\u00f6rder", "overview": "In this classic German thriller, Hans Beckert, a serial killer who preys on children, becomes the focus of a massive Berlin police manhunt. Beckert's heinous crimes are so repellant and disruptive to city life that he is even targeted by others in the seedy underworld network. With both cops and criminals in pursuit, the murderer soon realizes that people are on his trail, sending him into a tense, panicked attempt to escape justice.", "poster_path": "/AqE126KXLcT3wwmeM3HtlKqyGze.jpg", "release_date": "1931-05-11", "title": "M", "video": false, "vote_average": 8.1, "vote_count": 999, "popularity": 14.976}, {"adult": false, "backdrop_path": "/6ekbOVMy7VTFL7AG1qOMSQMh2fl.jpg", "genre_ids": [35, 18], "id": 39130, "original_language": "en", "original_title": "Dinner at Eight", "overview": "An ambitious New York socialite plans an extravagant dinner party as her businessman husband, Oliver, contends with financial woes, causing a lot of tension between the couple. Meanwhile, their high-society friends and associates, including the gruff Dan Packard and his sultry spouse, Kitty, contend with their own entanglements, leading to revelations at the much-anticipated dinner.", "poster_path": "/uUZe7h9YAx8o90LT3Wrb398yGGH.jpg", "release_date": "1933-12-22", "title": "Dinner at Eight", "video": false, "vote_average": 6.9, "vote_count": 36, "popularity": 5.759}, {"id": 254, "video": false, "vote_count": 4693, "vote_average": 6.7, "title": "King Kong", "release_date": "2005-12-12", "original_language": "en", "original_title": "King Kong", "genre_ids": [28, 12, 18], "backdrop_path": "/lWnPz1EvXUWMvXK1plZMA1I2XMV.jpg", "adult": false, "overview": "In 1933 New York, an overly ambitious movie producer coerces his cast and hired ship crew to travel to mysterious Skull Island, where they encounter Kong, a giant ape who is immediately smitten with the leading lady.", "poster_path": "/iQYMVoI9QE2wQCOSrxhiBYd4v0w.jpg", "popularity": 22.992}, {"adult": false, "backdrop_path": "/wfFTStTBWo3zIciBW4Eob3sarSz.jpg", "genre_ids": [35, 10749], "id": 3078, "original_language": "en", "original_title": "It Happened One Night", "overview": "A renegade reporter and a crazy young heiress meet on a bus heading for New York, and end up stuck with each other when the bus leaves them behind at one of the stops.", "poster_path": "/k63JqnFvkIGWGhjsqRiksZw2OSs.jpg", "release_date": "1934-02-22", "title": "It Happened One Night", "video": false, "vote_average": 7.9, "vote_count": 563, "popularity": 13.497}, {"id": 116, "video": false, "vote_count": 2412, "vote_average": 7.3, "title": "Match Point", "release_date": "2005-10-26", "original_language": "en", "original_title": "Match Point", "genre_ids": [80, 18, 53, 10749], "backdrop_path": "/40gCaXoyT75wuLbz1t5BwpLm0w4.jpg", "adult": false, "overview": "Match Point is Woody Allen\u2019s satire of the British High Society and the ambition of a young tennis instructor to enter into it. Yet when he must decide between two women - one assuring him his place in high society, and the other that would take him far from it - palms start to sweat and a dark psychological match in his head begins.", "poster_path": "/zuSFZEbSs7hj9lfeu2k7a4bPxdE.jpg", "popularity": 13.645}, {"adult": false, "backdrop_path": "/46y6EvnDveRFwtztyHVS0y2DipU.jpg", "genre_ids": [18, 53, 28], "id": 1372, "original_language": "en", "original_title": "Blood Diamond", "overview": "An ex-mercenary turned smuggler. A Mende fisherman. Amid the explosive civil war overtaking 1999 Sierra Leone, these men join for two desperate missions: recovering a rare pink diamond of immense value and rescuing the fisherman's son conscripted as a child soldier into the brutal rebel forces ripping a swath of torture and bloodshed countrywide.", "poster_path": "/wRamTzV6udKaMXrspxqOuo02zk0.jpg", "release_date": "2006-12-07", "title": "Blood Diamond", "video": false, "vote_average": 7.5, "vote_count": 4323, "popularity": 18.56}, {"adult": false, "backdrop_path": "/ke4r46wgmL1WUac1cOgjSsHLqwE.jpg", "genre_ids": [12, 18, 27], "id": 244, "original_language": "en", "original_title": "King Kong", "overview": "A film crew discovers the \"eighth wonder of the world,\" a giant prehistoric ape, and brings him back to New York, where he wreaks havoc.", "poster_path": "/vXInYahVp31uL8wZORckaoHq565.jpg", "release_date": "1933-03-15", "title": "King Kong", "video": false, "vote_average": 7.6, "vote_count": 721, "popularity": 16.591}, {"adult": false, "backdrop_path": "/wEo4UtBAWdB4aOmQ9wRjI1aS7Dt.jpg", "genre_ids": [35, 18], "id": 10098, "original_language": "en", "original_title": "The Kid", "overview": "A tramp cares for a boy after he's abandoned as a newborn by his mother. Later the mother has a change of heart and aches to be reunited with her son.", "poster_path": "/drgMcyTsySQBnUPGaBThCHGdlWT.jpg", "release_date": "1921-02-06", "title": "The Kid", "video": false, "vote_average": 8.3, "vote_count": 976, "popularity": 12.296}, {"id": 3082, "video": false, "vote_count": 1966, "vote_average": 8.3, "title": "Modern Times", "release_date": "1936-02-05", "original_language": "en", "original_title": "Modern Times", "genre_ids": [35, 18], "backdrop_path": "/s58uDwuyVMqgsbmnfyrbpfF147.jpg", "adult": false, "overview": "The Tramp struggles to live in modern industrial society with the help of a young homeless woman.", "poster_path": "/7uoiKOEjxBBW0AgDGQWrlfGQ90w.jpg", "popularity": 16.168}, {"id": 4464, "video": false, "vote_count": 458, "vote_average": 7.0, "title": "Seabiscuit", "release_date": "2003-07-22", "original_language": "en", "original_title": "Seabiscuit", "genre_ids": [18, 36], "backdrop_path": "/z7qXjCwD2q0nF5TWTkUuuEDsuXJ.jpg", "adult": false, "overview": "True story of the undersized Depression-era racehorse whose victories lifted not only the spirits of the team behind it but also those of their nation.", "poster_path": "/xzYOaFGZBNAciQXRasQQ8sYxBSi.jpg", "popularity": 10.712}, {"id": 877, "video": false, "vote_count": 222, "vote_average": 7.6, "title": "Scarface", "release_date": "1932-04-09", "original_language": "en", "original_title": "Scarface", "genre_ids": [28, 80, 18, 53], "backdrop_path": "/fX1DFPMZYsRG17BmMPJAKUaBZEz.jpg", "adult": false, "overview": "A murderous thug shoots his way to the top of the mobs while trying to protect his sister from the criminal life.", "poster_path": "/ai9WOjgNRXo42D0GJIIdi7toZ5x.jpg", "popularity": 14.434}, {"id": 55787, "video": false, "vote_count": 1755, "vote_average": 6.9, "title": "Water for Elephants", "release_date": "2011-03-15", "original_language": "en", "original_title": "Water for Elephants", "genre_ids": [18, 10749], "backdrop_path": "/3gu944cvSn9fY4ON9z7m26v3Rxh.jpg", "adult": false, "overview": "In this captivating Depression-era melodrama, impetuous veterinary student Jacob Jankowski joins a celebrated circus as an animal caretaker but faces a wrenching dilemma when he's transfixed by angelic married performer Marlena.", "poster_path": "/yL2GKiIZTnr8w3M9NkCXSdbDTxA.jpg", "popularity": 8.616}, {"id": 138, "video": false, "vote_count": 542, "vote_average": 7.2, "title": "Dracula", "release_date": "1931-02-12", "original_language": "en", "original_title": "Dracula", "genre_ids": [14, 27], "backdrop_path": "/ouPAQD01ZOsdsZTNgxJ0J3mo6qK.jpg", "adult": false, "overview": "The legend of vampire Count Dracula begins here with this original 1931 Dracula film starring Bela Lugosi.", "poster_path": "/hA9kQrIwDHJKl1pt8GpJdDnBzim.jpg", "popularity": 11.146}, {"id": 17473, "video": false, "vote_count": 825, "vote_average": 4.1, "title": "The Room", "release_date": "2003-06-27", "original_language": "en", "original_title": "The Room", "genre_ids": [18, 10749], "backdrop_path": "/mz4lKE1bPRGOeoC14bf09SJw1tu.jpg", "adult": false, "overview": "Johnny is a successful banker with great respect for and dedication to the people in his life, especially his future wife Lisa. The happy-go-lucky guy sees his world fall apart when his friends begin to betray him one-by-one.", "poster_path": "/aUC39cFC2KO8CJ0EV0ijIJRr3PT.jpg", "popularity": 11.094}], "total_pages": 55, "total_results": 1096}, "recommendations": {"page": 1, "results": [{"adult": false, "backdrop_path": "/9LrJFsGumQrj53HBvsUPdDJv3Oy.jpg", "genre_ids": [28, 12, 35, 10749], "id": 94182, "original_language": "en", "original_title": "Torrid Zone", "overview": "A Central American plantation manager and his boss battle over a traveling showgirl.", "poster_path": "/7UznObzSCY62RHqj8ZEI38ZLKcr.jpg", "release_date": "1940-05-25", "title": "Torrid Zone", "video": false, "vote_average": 6.4, "vote_count": 4, "popularity": 3.871}], "total_pages": 1, "total_results": 1}, "credits": {"cast": [{"cast_id": 2, "character": "Peggy Martin Van Tyle / Peggy Stone", "credit_id": "52fe47bac3a36847f8145031", "gender": 1, "id": 2434, "name": "Kay Francis", "order": 0, "profile_path": "/g1jkxUQpjucwWczcFRMX8Km8OmV.jpg"}, {"cast_id": 3, "character": "Bill Blaine", "credit_id": "52fe47bac3a36847f8145035", "gender": 2, "id": 83476, "name": "Ricardo Cortez", "order": 1, "profile_path": "/ztYv4178LAnIEPWgaZALprMWTEj.jpg"}, {"cast_id": 4, "character": "Monte Van Tyle", "credit_id": "52fe47bac3a36847f8145039", "gender": 2, "id": 117419, "name": "Gene Raymond", "order": 2, "profile_path": "/7SPUqMrrbCbp71ICO2z71tCArYc.jpg"}, {"cast_id": 5, "character": "Lyndon Fiske", "credit_id": "52fe47bac3a36847f814503d", "gender": 2, "id": 14688, "name": "John Halliday", "order": 3, "profile_path": "/soyfwUQtgcxahcylFig4lG9RvRs.jpg"}, {"cast_id": 6, "character": "Eleanor Van Tyle Burgess", "credit_id": "52fe47bac3a36847f8145041", "gender": 1, "id": 20365, "name": "Margaret Lindsay", "order": 4, "profile_path": "/q63KOzoy1ZmpsXxItwqLb1SL2WX.jpg"}, {"cast_id": 7, "character": "Chester Hunt", "credit_id": "53984d24c3a3686423008abf", "gender": 2, "id": 74875, "name": "Frank McHugh", "order": 5, "profile_path": "/oSBztLH3U3TctJnuJm0U9600fSq.jpg"}, {"cast_id": 8, "character": "Bonelli", "credit_id": "53984d2ec3a368641500882e", "gender": 0, "id": 104017, "name": "William 'Stage' Boyd", "order": 6, "profile_path": "/nNJQ9UzGfbVycGQqACKi5AVTOLz.jpg"}, {"cast_id": 9, "character": "Henry Burgess", "credit_id": "53984d36c3a368642b008b23", "gender": 2, "id": 31702, "name": "Hardie Albright", "order": 7, "profile_path": "/4wTdULXac5ewxYHyyMBlcnNex8l.jpg"}, {"cast_id": 10, "character": "Dolly", "credit_id": "53984d3fc3a3686423008ac3", "gender": 1, "id": 149017, "name": "Sheila Terry", "order": 8, "profile_path": "/Nstq8erLO3ozLS3sAuhzoAvQBp.jpg"}, {"cast_id": 11, "character": "Freddy", "credit_id": "53984d48c3a3686446008914", "gender": 2, "id": 52756, "name": "Phillip Reed", "order": 9, "profile_path": "/nLnUY15rwRakxcQVclDwL9Fzg50.jpg"}, {"cast_id": 12, "character": "Gordon", "credit_id": "53984d54c3a368642b008b26", "gender": 0, "id": 585748, "name": "Philip Faversham", "order": 10, "profile_path": null}, {"cast_id": 13, "character": "Dr. Wyman", "credit_id": "53984d5dc3a368641d008a7a", "gender": 2, "id": 590550, "name": "Walter Walker", "order": 11, "profile_path": "/9RgAFUeUDjxnUsa4Y2dbGqpqH6E.jpg"}, {"cast_id": 14, "character": "Eleanor Van Tyle", "credit_id": "53984d68c3a368641d008a7c", "gender": 1, "id": 50836, "name": "Nella Walker", "order": 12, "profile_path": "/kl8WuqmPAuwqaOne9fod7kkwcTQ.jpg"}, {"cast_id": 25, "character": "Sextet Girl (uncredited)", "credit_id": "5831713892514162d8020963", "gender": 1, "id": 1283925, "name": "Pat Wing", "order": 13, "profile_path": "/3osyPKZ6X0YABeeaP2W5wDIk1fJ.jpg"}], "crew": [{"credit_id": "57ed5e369251416df500110e", "department": "Camera", "gender": 2, "id": 2774, "job": "Director of Photography", "name": "Ernest Haller", "profile_path": null}, {"credit_id": "57ed5e779251416dfa00107b", "department": "Costume & Make-Up", "gender": 2, "id": 4127, "job": "Costume Design", "name": "Orry-Kelly", "profile_path": "/zDyC5sYHLtS5Kb3A1QDyoVKXLiL.jpg"}, {"credit_id": "57ed5e6fc3a3683afa007e09", "department": "Costume & Make-Up", "gender": 2, "id": 14650, "job": "Costume Design", "name": "Earl Luick", "profile_path": null}, {"credit_id": "52fe47bac3a36847f814502d", "department": "Directing", "gender": 2, "id": 29808, "job": "Director", "name": "Robert Florey", "profile_path": "/g6qrrzdvwQKyiu5lJdLUfZ1IQEe.jpg"}, {"credit_id": "57ed5e2fc3a3683a850073df", "department": "Sound", "gender": 2, "id": 29810, "job": "Original Music Composer", "name": "Bernhard Kaun", "profile_path": null}, {"credit_id": "57ed5e59c3a36839f7007521", "department": "Art", "gender": 2, "id": 33020, "job": "Art Direction", "name": "Esdras Hartley", "profile_path": null}, {"credit_id": "57ed5e269251416e02001063", "department": "Writing", "gender": 2, "id": 119462, "job": "Screenplay", "name": "Sheridan Gibney", "profile_path": null}, {"credit_id": "57ed5e40c3a3683a850073e6", "department": "Editing", "gender": 2, "id": 120796, "job": "Editor", "name": "Howard Bretherton", "profile_path": null}, {"credit_id": "57ed5d9bc3a3684276001c10", "department": "Writing", "gender": 2, "id": 130087, "job": "Story", "name": "Joseph Santley", "profile_path": "/xbh7KVy3Fqe6gEDg5WaXtLVxGOX.jpg"}, {"credit_id": "57ed5e209251416dfe00106a", "department": "Writing", "gender": 2, "id": 374004, "job": "Screenplay", "name": "Austin Parker", "profile_path": null}, {"credit_id": "57ed5e7dc3a3683afa007e13", "department": "Costume & Make-Up", "gender": 0, "id": 1077421, "job": "Hairstylist", "name": "Emily Moore", "profile_path": null}, {"credit_id": "5c9b6a48925141780cf7b778", "department": "Production", "gender": 2, "id": 2252005, "job": "Casting Assistant", "name": "William Forsyth", "profile_path": null}, {"credit_id": "5c963e72c3a3682e5bf591ee", "department": "Production", "gender": 2, "id": 2261156, "job": "Casting Director", "name": "Maxwell Arnow", "profile_path": null}]}}