{"adult": false, "backdrop_path": "/2UfeoibSBoOiT4KJFdllFRoDCjq.jpg", "belongs_to_collection": null, "budget": 0, "genres": [{"id": 99, "name": "Documentary"}], "homepage": "https://fan-force.com/films/themagicpill/", "id": 501718, "imdb_id": "tt6035294", "original_language": "en", "original_title": "The Magic Pill", "overview": "Doctors, scientists and chefs around the globe combat illness with dietary changes, believing fat should be embraced as a source of fuel.", "popularity": 4.25, "poster_path": "/yXoG0GhT2Re2nvRdNaMqWSh31Re.jpg", "production_companies": [], "production_countries": [{"iso_3166_1": "AU", "name": "Australia"}, {"iso_3166_1": "ZA", "name": "South Africa"}, {"iso_3166_1": "GB", "name": "United Kingdom"}, {"iso_3166_1": "US", "name": "United States of America"}], "release_date": "2017-09-07", "revenue": 0, "runtime": 91, "spoken_languages": [{"iso_639_1": "en", "name": "English"}], "status": "Released", "tagline": "Food is Medicine", "title": "The Magic Pill", "video": false, "vote_average": 6.4, "vote_count": 14, "keywords": {"keywords": [{"id": 3721, "name": "health"}, {"id": 10637, "name": "food"}, {"id": 223406, "name": "low-carb"}]}, "similar": {"page": 1, "results": [{"adult": false, "backdrop_path": "/kiWIFa3Ij48rCjxiG2FmQxvEvJa.jpg", "genre_ids": [99, 35, 18], "id": 9372, "original_language": "en", "original_title": "Super Size Me", "overview": "Morgan Spurlock subjects himself to a diet based only on McDonald's fast food three times a day for thirty days without exercising to try to prove why so many Americans are fat or obese. He submits himself to a complete check-up by three doctors, comparing his weight along the way, resulting in a scary conclusion.", "poster_path": "/9J2cYFtYRplFnHgn8V5ntCZEHut.jpg", "release_date": "2004-01-17", "title": "Super Size Me", "video": false, "vote_average": 6.7, "vote_count": 965, "popularity": 11.778}, {"id": 22794, "video": false, "vote_count": 3655, "vote_average": 6.5, "title": "Cloudy with a Chance of Meatballs", "release_date": "2009-09-17", "original_language": "en", "original_title": "Cloudy with a Chance of Meatballs", "genre_ids": [16, 35, 10751], "backdrop_path": "/vYovS909jUV3wxms4DmHGjZ1lhw.jpg", "adult": false, "overview": "Inventor Flint Lockwood creates a machine that makes clouds rain food, enabling the down-and-out citizens of Chewandswallow to feed themselves. But when the falling food reaches gargantuan proportions, Flint must scramble to avert disaster. Can he regain control of the machine and put an end to the wild weather before the town is destroyed?", "poster_path": "/8GyuFxLh3PTaQDy3Vhk1gV3KU8Z.jpg", "popularity": 23.177}, {"adult": false, "backdrop_path": "/8VyW7cJxsdnIfptbPjGCIX1StUe.jpg", "genre_ids": [10749, 18], "id": 1587, "original_language": "en", "original_title": "What's Eating Gilbert Grape", "overview": "Gilbert Grape is a small-town young man with a lot of responsibility. Chief among his concerns are his mother, who is so overweight that she can't leave the house, and his mentally impaired younger brother, Arnie, who has a knack for finding trouble. Settled into a job at a grocery store and an ongoing affair with local woman Betty Carver, Gilbert finally has his life shaken up by the free-spirited Becky.", "poster_path": "/jQLoOPwNxyILwDbdhn9DsfQz0Sg.jpg", "release_date": "1993-12-17", "title": "What's Eating Gilbert Grape", "video": false, "vote_average": 7.7, "vote_count": 2113, "popularity": 20.762}, {"id": 334533, "video": false, "vote_count": 3919, "vote_average": 8.0, "title": "Captain Fantastic", "release_date": "2016-07-02", "original_language": "en", "original_title": "Captain Fantastic", "genre_ids": [12, 35, 18], "backdrop_path": "/hzp6irYITiJc5JUA1GZhmbE10pD.jpg", "adult": false, "overview": "A father living in the forests of the Pacific Northwest with his six young kids tries to assimilate back into society.", "poster_path": "/fnaGmGCWgGOQjCpM0TqKPZJ5x85.jpg", "popularity": 18.228}, {"adult": false, "backdrop_path": "/sFpGI08aeHIRKlLi9SxLyYrRyZ8.jpg", "genre_ids": [16, 35, 10751, 14], "id": 2062, "original_language": "en", "original_title": "Ratatouille", "overview": "A rat named Remy dreams of becoming a great French chef despite his family's wishes and the obvious problem of being a rat in a decidedly rodent-phobic profession. When fate places Remy in the sewers of Paris, he finds himself ideally situated beneath a restaurant made famous by his culinary hero, Auguste Gusteau. Despite the apparent dangers of being an unlikely - and certainly unwanted - visitor in the kitchen of a fine French restaurant, Remy's passion for cooking soon sets into motion a hilarious and exciting rat race that turns the culinary world of Paris upside down.", "poster_path": "/xVxxSYHAfrEbllyWFQG5df5nwH4.jpg", "release_date": "2007-06-22", "title": "Ratatouille", "video": false, "vote_average": 7.7, "vote_count": 10067, "popularity": 31.73}, {"adult": false, "backdrop_path": "/sbH9aJV7fqhRaazCSWuOwNDIf1m.jpg", "genre_ids": [35], "id": 212778, "original_language": "en", "original_title": "Chef", "overview": "When Chef Carl Casper suddenly quits his job at a prominent Los Angeles restaurant after refusing to compromise his creative integrity for its controlling owner, he is left to figure out what's next. Finding himself in Miami, he teams up with his ex-wife, his friend and his son to launch a food truck. Taking to the road, Chef Carl goes back to his roots to reignite his passion for the kitchen -- and zest for life and love.", "poster_path": "/dwweMX2MqYOYGg2Z2lZ8f6uopcg.jpg", "release_date": "2014-05-08", "title": "Chef", "video": false, "vote_average": 7.1, "vote_count": 1959, "popularity": 15.646}, {"id": 109451, "video": false, "vote_count": 1873, "vote_average": 6.4, "title": "Cloudy with a Chance of Meatballs 2", "release_date": "2013-09-26", "original_language": "en", "original_title": "Cloudy with a Chance of Meatballs 2", "genre_ids": [16, 35, 10751], "backdrop_path": "/qlAeyqhKUfX1f4FWVoFZcHEDCAL.jpg", "adult": false, "overview": "After the disastrous food storm in the first film, Flint and his friends are forced to leave the town. Flint accepts the invitation from his idol Chester V to join The Live Corp Company, which has been tasked to clean the island, and where the best inventors in the world create technologies for the betterment of mankind. When Flint discovers that his machine still operates and now creates mutant food beasts like living pickles, hungry tacodiles, shrimpanzees and apple pie-thons, he and his friends must return to save the world.", "poster_path": "/oZjluB568NJVtRrny4rpeApGuNi.jpg", "popularity": 23.838}, {"adult": false, "backdrop_path": "/A7ovlrws4B7lXvkcC9iSRkypX02.jpg", "genre_ids": [27, 9648, 878, 53], "id": 340837, "original_language": "en", "original_title": "A Cure for Wellness", "overview": "An ambitious young executive is sent to retrieve his company's CEO from an idyllic but mysterious \"wellness center\" at a remote location in the Swiss Alps but soon suspects that the spa's miraculous treatments are not what they seem.", "poster_path": "/d4fXuJS3zZcAZfz2HYDtnwqtnwn.jpg", "release_date": "2017-02-15", "title": "A Cure for Wellness", "video": false, "vote_average": 6.2, "vote_count": 2312, "popularity": 23.178}, {"id": 9472, "video": false, "vote_count": 2070, "vote_average": 6.2, "title": "DodgeBall: A True Underdog Story", "release_date": "2004-06-18", "original_language": "en", "original_title": "DodgeBall: A True Underdog Story", "genre_ids": [35], "backdrop_path": "/yM4k71Y6bEuVl7EX46OJ2fvyFHV.jpg", "adult": false, "overview": "When megalomaniacal White Goodman, the owner of a trendy, high-end fitness center, makes a move to take over the struggling local gym run by happy-go-lucky Pete La Fleur, there's only one way for La Fleur to fight back: dodgeball. Aided by a dodgeball guru and Goodman's attorney, La Fleur and his rag-tag team of underdogs launch a knock-down, drag-out battle in which the winner takes all.", "poster_path": "/c7biFO9cEl5hOSvZRMuuJohH5f3.jpg", "popularity": 21.78}, {"id": 463088, "video": false, "vote_count": 68, "vote_average": 7.4, "title": "The Game Changers", "release_date": "2019-09-16", "original_language": "en", "original_title": "The Game Changers", "genre_ids": [99], "backdrop_path": "/1qvFSpY0cFfhfuJza4hDzcGxypz.jpg", "adult": false, "overview": "From the UFC Octagon in Las Vegas and the anthropology lab at Dartmouth, to a strongman gym in Berlin and the bushlands of Zimbabwe, the world is introduced to elite athletes, special ops soldiers, visionary scientists, cultural icons, and everyday heroes\u2014each on a mission to create a seismic shift in the way we eat and live.", "poster_path": "/eufF3xEif5EZ1gTjdubw3KWh9xU.jpg", "popularity": 10.609}, {"id": 9889, "video": false, "vote_count": 1676, "vote_average": 6.0, "title": "Shallow Hal", "release_date": "2001-11-01", "original_language": "en", "original_title": "Shallow Hal", "genre_ids": [35, 10749], "backdrop_path": "/k9fMBC1MMgrt4w6IVuB7kTX3yqz.jpg", "adult": false, "overview": "A shallow man falls in love with a 300 pound woman because of her \"inner beauty\".", "poster_path": "/xhdJKfDp7TihFcO5CF6BFY1xImE.jpg", "popularity": 17.032}, {"id": 18570, "video": false, "vote_count": 355, "vote_average": 7.4, "title": "Food, Inc.", "release_date": "2008-09-07", "original_language": "en", "original_title": "Food, Inc.", "genre_ids": [99], "backdrop_path": "/npq6sSmWFWulvKNdQaTkpxbSWW4.jpg", "adult": false, "overview": "Documentary filmmaker Robert Kenner examines how mammoth corporations have taken over all aspects of the food chain in the United States, from the farms where our food is grown to the chain restaurants and supermarkets where it's sold. Narrated by author and activist Eric Schlosser, the film features interviews with average Americans about their dietary habits, commentary from food experts like Michael Pollan and unsettling footage shot inside large-scale animal processing plants.", "poster_path": "/gWYCM3YVYwZQcpfye6biAlPy9Xt.jpg", "popularity": 10.704}, {"adult": false, "backdrop_path": "/zpF8ufiB9mG6IwctoD5ONRjXXv1.jpg", "genre_ids": [12, 16, 35, 14], "id": 223702, "original_language": "en", "original_title": "Sausage Party", "overview": "Frank leads a group of supermarket products on a quest to discover the truth about their existence and what really happens when they become chosen to leave the grocery store.", "poster_path": "/w90cORtNWQAd2k93aFlIBbpQYTC.jpg", "release_date": "2016-07-11", "title": "Sausage Party", "video": false, "vote_average": 5.6, "vote_count": 4639, "popularity": 21.034}, {"id": 282297, "video": false, "vote_count": 258, "vote_average": 7.9, "title": "Cowspiracy: The Sustainability Secret", "release_date": "2014-07-01", "original_language": "en", "original_title": "Cowspiracy: The Sustainability Secret", "genre_ids": [99], "backdrop_path": "/on3RvSQH6EihugnCcjl6QmDgPAF.jpg", "adult": false, "overview": "Follow the shocking, yet humorous, journey of an aspiring environmentalist, as he daringly seeks to find the real solution to the most pressing environmental issues and true path to sustainability.", "poster_path": "/yTJAP34YPAEMr8fCdpSiYbzcFTb.jpg", "popularity": 11.58}, {"id": 811, "video": false, "vote_count": 289, "vote_average": 6.4, "title": "Silent Running", "release_date": "1972-03-09", "original_language": "en", "original_title": "Silent Running", "genre_ids": [12, 18, 878], "backdrop_path": "/yLxNGRQQov8osrNCGPmJzDomJ5f.jpg", "adult": false, "overview": "In a future Earth barren of all flora and fauna, the planet's ecosystems exist only in large pods attached to spacecraft. When word comes in that the pods are to be jettisoned into space and destroyed so that the spacecraft can be reused for commercial purposes, most of the crew of the Valley Forge rejoice at the prospect of going home. Not so for botanist Freeman Lowell who loves the forest and its creatures, so decides to take matters into his own hands to protect what he loves.", "poster_path": "/kyEljmcf7YYmp85BdZffqiuRLfV.jpg", "popularity": 9.047}, {"id": 415086, "video": false, "vote_count": 192, "vote_average": 7.3, "title": "What the Health", "release_date": "2017-03-16", "original_language": "en", "original_title": "What the Health", "genre_ids": [99], "backdrop_path": "/uoNpFDFQOdaMvyqD8zxP3yezzCJ.jpg", "adult": false, "overview": "Filmmaker Kip Andersen uncovers the secret to preventing and even reversing chronic diseases, and he investigates why the nation's leading health organizations doesn't want people to know about it.", "poster_path": "/sz9cPeSmiGLA1EDUPszlrWfSrId.jpg", "popularity": 11.128}, {"id": 64288, "video": false, "vote_count": 87, "vote_average": 7.1, "title": "Forks Over Knives", "release_date": "2011-05-06", "original_language": "en", "original_title": "Forks Over Knives", "genre_ids": [99], "backdrop_path": "/cMvaL2ixyngQHNSdr9WIWneqDxH.jpg", "adult": false, "overview": "Examines the profound claim that most, if not all, of the degenerative diseases that afflict us can be controlled, or even reversed, by rejecting our present menu of animal-based and processed foods.", "poster_path": "/rNw4qSzEfpit4UJzoqUdAd0flhd.jpg", "popularity": 8.732}, {"adult": false, "backdrop_path": "/9nPM0bDtVnNJF9ZfZS1fFz5ocMZ.jpg", "genre_ids": [99], "id": 250657, "original_language": "en", "original_title": "Fed Up", "overview": "Fed Up blows the lid off everything we thought we knew about food and weight loss, revealing a 30-year campaign by the food industry, aided by the U.S. government, to mislead and confuse the American public, resulting in one of the largest health epidemics in history.", "poster_path": "/jKVENCajbPNs5woa92oqUFHKBR9.jpg", "release_date": "2014-05-09", "title": "Fed Up", "video": false, "vote_average": 7.5, "vote_count": 163, "popularity": 7.391}, {"id": 2292, "video": false, "vote_count": 1408, "vote_average": 7.4, "title": "Clerks", "release_date": "1994-09-13", "original_language": "en", "original_title": "Clerks", "genre_ids": [35], "backdrop_path": "/a3sogs3NLDj3d2ITPd6TTBR0Eax.jpg", "adult": false, "overview": "Convenience and video store clerks Dante and Randal are sharp-witted, potty-mouthed and bored out of their minds. So in between needling customers, the counter jockeys play hockey on the roof, visit a funeral home and deal with their love lives.", "poster_path": "/dmNytzvQTjylI83qrgDoS1KQ0ev.jpg", "popularity": 14.394}, {"id": 11323, "video": false, "vote_count": 513, "vote_average": 6.2, "title": "The Informant!", "release_date": "2009-09-18", "original_language": "en", "original_title": "The Informant!", "genre_ids": [35, 80, 18], "backdrop_path": "/e7CVA0d35oWcEzOCmw5DFsmnOBp.jpg", "adult": false, "overview": "A rising star at agri-industry giant Archer Daniels Midland (ADM), Mark Whitacre suddenly turns whistleblower. Even as he exposes his company\u2019s multi-national price-fixing conspiracy to the FBI, Whitacre envisions himself being hailed as a hero of the common man and handed a promotion.", "poster_path": "/qqcmJrzVx3Yx3IcBpqrgb2SK1Rx.jpg", "popularity": 9.165}], "total_pages": 21, "total_results": 412}, "recommendations": {"page": 1, "results": [{"id": 257026, "video": false, "vote_count": 9, "vote_average": 7.9, "title": "The Irish Pub", "release_date": "2013-10-04", "original_language": "en", "original_title": "The Irish Pub", "genre_ids": [99], "backdrop_path": "/21qnnhyqHsBhYjdUdByYhIQ20ml.jpg", "adult": false, "overview": "The tradition of the Irish pub. Speaking to pub owners all over Ireland, Alex Fegan gets into the heart of what makes \"the Irish pub\" the institution that it is.", "poster_path": "/sLIFeYNDpNvKpBNYQFqGX8YzV1Y.jpg", "popularity": 1.794}, {"adult": false, "backdrop_path": "/54Tnfo95fBHxW1Hi13GHv92tqdD.jpg", "genre_ids": [28, 80], "id": 190754, "original_language": "en", "original_title": "On the Job", "overview": "On The Job is about the ambitions and passions of four men trying to make a living, for themselves and their families. It shows the parallels between two prison inmates who are contract killers, and the two agents of the law investigating the murders. As they get caught in a web of machination of corrupt government officials, their jobs lead them on a head-on collision against each other with their loved ones as collateral damage.", "poster_path": "/iPiwUeF2vhA7t7cVvaUa8gmMceq.jpg", "release_date": "2013-05-23", "title": "On the Job", "video": false, "vote_average": 6.7, "vote_count": 41, "popularity": 5.409}, {"adult": false, "backdrop_path": "/mZxQxBs4seD0lbkcCMeUZRah8YG.jpg", "genre_ids": [99], "id": 473286, "original_language": "en", "original_title": "The Truth About Alcohol", "overview": "A&E doctor Javid Abdelmoneim is on a mission to find out the truth about alcohol, including why the government cut the recommended weekly limit for men by a third in January.", "poster_path": "/wcmYZxZLAnzBnTkvOCbvScnMedv.jpg", "release_date": "2016-09-11", "title": "The Truth About Alcohol", "video": false, "vote_average": 6.5, "vote_count": 11, "popularity": 2.929}, {"adult": false, "backdrop_path": "/82iyqZ30o6ff96kSSRn0YFeqmSZ.jpg", "genre_ids": [99], "id": 396126, "original_language": "en", "original_title": "Sustainable", "overview": "This film weaves together expert analysis of America's food and farming system with a powerful narrative of one extraordinary farmer who is determined to create a sustainable future for his community.", "poster_path": "/h6ZhcjWgafI5MFLK5GK69cUDKLZ.jpg", "release_date": "2016-05-22", "title": "Sustainable", "video": false, "vote_average": 7.0, "vote_count": 16, "popularity": 4.27}], "total_pages": 1, "total_results": 4}, "credits": {"cast": [], "crew": [{"credit_id": "5a92311dc3a3682517014fd2", "department": "Directing", "gender": 0, "id": 1178217, "job": "Director", "name": "Robert Tate", "profile_path": null}, {"credit_id": "5a9231230e0a265c4e002c66", "department": "Production", "gender": 0, "id": 1178217, "job": "Executive Producer", "name": "Robert Tate", "profile_path": null}, {"credit_id": "5a92312f0e0a2616c00175d0", "department": "Camera", "gender": 0, "id": 1178217, "job": "Director of Photography", "name": "Robert Tate", "profile_path": null}, {"credit_id": "5a9231370e0a265f7a002e89", "department": "Editing", "gender": 0, "id": 1178217, "job": "Editor", "name": "Robert Tate", "profile_path": null}, {"credit_id": "5b50d6e9c3a3680f1900052d", "department": "Sound", "gender": 0, "id": 2087727, "job": "Original Music Composer", "name": "Ben Monder", "profile_path": null}, {"credit_id": "5b53803b9251411f7c0147bb", "department": "Production", "gender": 2, "id": 2088967, "job": "Executive Producer", "name": "Pete Evans", "profile_path": null}]}}