{"adult": false, "backdrop_path": "/7BEmm4FZEXszE1PIqzzZhcvOIaQ.jpg", "belongs_to_collection": null, "budget": 0, "genres": [{"id": 35, "name": "Comedy"}, {"id": 18, "name": "Drama"}], "homepage": null, "id": 502141, "imdb_id": "tt6927880", "original_language": "en", "original_title": "All Square", "overview": "A down-on-his-luck bookie befriends an ex-girlfriend\u2019s son and gets the bright idea to take bets on his youth league baseball games; only to realize he\u2019s killed what\u2019s pure about the sport as the games turn ugly when money is on the line.", "popularity": 2.977, "poster_path": "/od3GUgoaM2QIWVlRIhYHCdjAimC.jpg", "production_companies": [{"id": 111865, "logo_path": "/4UtwPhdPtJX519TpPjJS6hmsHD6.png", "name": "Mill House Motion Pictures", "origin_country": "US"}, {"id": 111866, "logo_path": null, "name": "Paperclip", "origin_country": "US"}], "production_countries": [{"iso_3166_1": "US", "name": "United States of America"}], "release_date": "2018-10-12", "revenue": 0, "runtime": 94, "spoken_languages": [{"iso_639_1": "en", "name": "English"}], "status": "Released", "tagline": "Tide Goes In. Tide Goes Out.", "title": "All Square", "video": false, "vote_average": 6.0, "vote_count": 7, "keywords": {"keywords": [{"id": 1480, "name": "baseball"}, {"id": 155503, "name": "bookie"}, {"id": 162739, "name": "little league"}, {"id": 173606, "name": "betting"}]}, "similar": {"page": 1, "results": [{"id": 37136, "video": false, "vote_count": 1997, "vote_average": 7.2, "title": "The Naked Gun: From the Files of Police Squad!", "release_date": "1988-12-02", "original_language": "en", "original_title": "The Naked Gun: From the Files of Police Squad!", "genre_ids": [35, 80], "backdrop_path": "/vBvfE7oUpJggU1Cf4UXgeeXocsg.jpg", "adult": false, "overview": "When the incompetent Officer Frank Drebin seeks the ruthless killer of his partner, he stumbles upon an attempt to assassinate Queen Elizabeth.", "poster_path": "/gajZQkZjVXPuLJUMoEk1eVeZz61.jpg", "popularity": 16.388}, {"adult": false, "backdrop_path": "/nb70B4EXuoegiQ0C5N1fNVHIaYc.jpg", "genre_ids": [12, 18, 36, 53, 10752], "id": 5925, "original_language": "en", "original_title": "The Great Escape", "overview": "The Nazis, exasperated at the number of escapes from their prison camps by a relatively small number of Allied prisoners, relocates them to a high-security 'escape-proof' camp to sit out the remainder of the war. Undaunted, the prisoners plan one of the most ambitious escape attempts of World War II. Based on a true story.", "poster_path": "/qhy4HgUqhEbwQ1ekKTv7yEB3b0e.jpg", "release_date": "1963-06-20", "title": "The Great Escape", "video": false, "vote_average": 8.0, "vote_count": 1359, "popularity": 19.093}, {"adult": false, "backdrop_path": "/bRGtZsVj2Qq8r5CCsNYmQUPF4z4.jpg", "genre_ids": [80, 18, 878, 53], "id": 10559, "original_language": "en", "original_title": "Frequency", "overview": "When a rare phenomenon gives police officer John Sullivan the chance to speak to his father, 30 years in the past, he takes the opportunity to prevent his dad's tragic death.  After his actions inadvertently give rise to a series of brutal murders he and his father must find a way to fix the consequences of altering time.", "poster_path": "/n0QAAZmIaPPIShVkk8eiKwfGV9.jpg", "release_date": "2000-04-28", "title": "Frequency", "video": false, "vote_average": 7.1, "vote_count": 897, "popularity": 14.026}, {"id": 489, "video": false, "vote_count": 6675, "vote_average": 8.1, "title": "Good Will Hunting", "release_date": "1997-12-05", "original_language": "en", "original_title": "Good Will Hunting", "genre_ids": [18], "backdrop_path": "/8vA6dxBzRqSajvqdmTLtoguAa3T.jpg", "adult": false, "overview": "Will Hunting has a genius-level IQ but chooses to work as a janitor at MIT. When he solves a difficult graduate-level math problem, his talents are discovered by Professor Gerald Lambeau, who decides to help the misguided youth reach his potential. When Will is arrested for attacking a police officer, Professor Lambeau makes a deal to get leniency for him if he will get treatment from therapist Sean Maguire.", "poster_path": "/jq8LjngZ7XZEQge5JFTdOGMrHyZ.jpg", "popularity": 16.686}, {"id": 393457, "video": false, "vote_count": 1617, "vote_average": 6.8, "title": "Fences", "release_date": "2016-12-16", "original_language": "en", "original_title": "Fences", "genre_ids": [18], "backdrop_path": "/jNlCIAcheh0iOuL3kz9x1Wq9WLG.jpg", "adult": false, "overview": "In 1950s Pittsburgh, a frustrated African-American father struggles with the constraints of poverty, racism, and his own inner demons as he tries to raise a family.", "poster_path": "/yZFBqealET1TunuVvu4YzcM1orT.jpg", "popularity": 10.81}, {"adult": false, "backdrop_path": "/5s8Nhvkz5nIZq1Km2pRxtRC2Flz.jpg", "genre_ids": [12, 16, 35, 10751], "id": 15213, "original_language": "en", "original_title": "Everyone's Hero", "overview": "A boy begins a grand journey to return Babe Ruth's baseball bat before the deciding game of the 1932 World Series comes to a close.", "poster_path": "/8pWPBlTuOJwBfLTqQceADLUhqTl.jpg", "release_date": "2006-09-15", "title": "Everyone's Hero", "video": false, "vote_average": 5.6, "vote_count": 117, "popularity": 11.299}, {"id": 2280, "video": false, "vote_count": 2041, "vote_average": 7.1, "title": "Big", "release_date": "1988-06-03", "original_language": "en", "original_title": "Big", "genre_ids": [35, 18, 14, 10749, 10751], "backdrop_path": "/tVpkaXfP5xCS2Fd19JijUSDvpbg.jpg", "adult": false, "overview": "When a young boy makes a wish at a carnival machine to be big\u2014he wakes up the following morning to find that it has been granted and his body has grown older overnight. But he is still the same 13-year-old boy inside. Now he must learn how to cope with the unfamiliar world of grown-ups including getting a job and having his first romantic encounter with a woman.", "poster_path": "/cCglgzP9hXrqPqUMGNzISZrK338.jpg", "popularity": 17.847}, {"id": 60308, "video": false, "vote_count": 2517, "vote_average": 7.2, "title": "Moneyball", "release_date": "2011-09-22", "original_language": "en", "original_title": "Moneyball", "genre_ids": [18], "backdrop_path": "/T9a9Q6Pin6Pra7dNMwWzAibxkk.jpg", "adult": false, "overview": "The story of Oakland Athletics general manager Billy Beane's successful attempt to put together a baseball team on a budget, by employing computer-generated analysis to draft his players.", "poster_path": "/3oAa8mJJ97CH9AeGEY6vjAxqcvZ.jpg", "popularity": 16.975}, {"adult": false, "backdrop_path": "/jLq0ol1f0ZKXni9R9GsPBcyPrNN.jpg", "genre_ids": [18], "id": 18148, "original_language": "ja", "original_title": "\u6771\u4eac\u7269\u8a9e", "overview": "The elderly Shukishi and his wife, Tomi, take the long journey from their small seaside village to visit their adult children in Tokyo. Their elder son, Koichi, a doctor, and their daughter, Shige, a hairdresser, don't have much time to spend with their aged parents, and so it falls to Noriko, the widow of their younger son who was killed in the war, to keep her in-laws company.", "poster_path": "/g2YbTYKpY7N2yDSk7BfXZ18I5QV.jpg", "release_date": "1953-11-03", "title": "Tokyo Story", "video": false, "vote_average": 8.4, "vote_count": 423, "popularity": 12.262}, {"id": 10390, "video": false, "vote_count": 195, "vote_average": 6.4, "title": "For Love of the Game", "release_date": "1999-09-17", "original_language": "en", "original_title": "For Love of the Game", "genre_ids": [18, 10749], "backdrop_path": "/l4Amqpp3PGh61rENfxVZ3p2n3n9.jpg", "adult": false, "overview": "A baseball legend almost finished with his distinguished career at the age of forty has one last chance to prove who he is, what he is capable of, and win the heart of the woman he has loved for the past four years.", "poster_path": "/nvsXIOYg8CHFS7WYh0anh7WFYtN.jpg", "popularity": 7.967}, {"id": 284564, "video": false, "vote_count": 440, "vote_average": 5.3, "title": "31", "release_date": "2016-09-15", "original_language": "en", "original_title": "31", "genre_ids": [27, 9648, 53], "backdrop_path": "/lBOV4FayqSUKqvPLMnFCtEeQs4m.jpg", "adult": false, "overview": "Five carnival workers are kidnapped and held hostage in an abandoned, Hell-like compound where they are forced to participate in a violent game, the goal of which is to survive twelve hours against a gang of sadistic clowns.", "poster_path": "/jHkIIkP4O0vUkSACcizOPZQIiF7.jpg", "popularity": 14.737}, {"id": 11287, "video": false, "vote_count": 725, "vote_average": 7.1, "title": "A League of Their Own", "release_date": "1992-07-01", "original_language": "en", "original_title": "A League of Their Own", "genre_ids": [35, 18, 36], "backdrop_path": "/cTzJXKXqy8pqisykmDueETv6ikb.jpg", "adult": false, "overview": "As America's stock of athletic young men is depleted during World War II, a professional all-female baseball league springs up in the Midwest, funded by publicity-hungry candy maker Walter Harvey (Garry Marshall). Competitive sisters Dottie Hinson (Geena Davis) and Kit Keller (Lori Petty) spar with each other, scout Ernie Capadino (Jon Lovitz) and grumpy has-been coach Jimmy Dugan (Tom Hanks) on their way to fame. Madonna and Rosie O'Donnell co-star as two of the sisters' teammates.", "poster_path": "/mHr58FxWSPZtxSqVxDpO12nKmMi.jpg", "popularity": 11.427}, {"adult": false, "backdrop_path": "/g5gwbwR98yN1TvycqHCJZhCPa7O.jpg", "genre_ids": [18, 14], "id": 2323, "original_language": "en", "original_title": "Field of Dreams", "overview": "Ray Kinsella is an Iowa farmer who hears a mysterious voice telling him to turn his cornfield into a baseball diamond. He does, but the voice's directions don't stop -- even after the spirits of deceased ballplayers turn up to play.", "poster_path": "/ps5B8ZNSFvqLczD5e4Yh3whV66B.jpg", "release_date": "1989-04-21", "title": "Field of Dreams", "video": false, "vote_average": 7.2, "vote_count": 749, "popularity": 13.987}, {"id": 17689, "video": false, "vote_count": 227, "vote_average": 6.7, "title": "The Gauntlet", "release_date": "1977-12-21", "original_language": "en", "original_title": "The Gauntlet", "genre_ids": [28, 80, 18, 53], "backdrop_path": "/AqLSm9sl2Oe46XvqhoRBhKI3wXi.jpg", "adult": false, "overview": "Phoenix cop Ben Shockley is well on his way to becoming a derelict when he is assigned to transport a witness named Gus Mally from Vegas. Mally turns out to be a belligerent prostitute with mob ties and incriminating information regarding a high-placed figure.", "poster_path": "/vojzvKay2QT2eGwvfGBkFfJQlcj.jpg", "popularity": 10.101}, {"id": 109410, "video": false, "vote_count": 1110, "vote_average": 7.0, "title": "42", "release_date": "2013-04-12", "original_language": "en", "original_title": "42", "genre_ids": [18], "backdrop_path": "/jkKHBwKAM2vOPrm9bwaPlXXdTPy.jpg", "adult": false, "overview": "The powerful story of Jackie Robinson, the legendary baseball player who broke Major League Baseball\u2019s color barrier when he joined the roster of the Brooklyn Dodgers. The film follows the innovative Dodgers\u2019 general manager Branch Rickey, the MLB executive who first signed Robinson to the minors and then helped to bring him up to the show.", "poster_path": "/vlP18ooLmvYVNnqidbot0FupY05.jpg", "popularity": 10.814}, {"id": 11431, "video": false, "vote_count": 373, "vote_average": 6.0, "title": "Fever Pitch", "release_date": "2005-04-06", "original_language": "en", "original_title": "Fever Pitch", "genre_ids": [35, 18, 10749], "backdrop_path": "/6lv1fJSWUlPGcku6JzXysSdEsrj.jpg", "adult": false, "overview": "When relaxed and charming Ben Wrightman meets workaholic Lindsey Meeks she finds him sweet and charming, they hit it off and when it is winter Ben can spend every waking hour with Lindsey, but when summer comes around the corner Lindsey discovers Ben's obsession with the Boston Red Sox. She thinks it is perfect until everything goes downhill for them.", "poster_path": "/kuugk93pYPqOsEW2R5C7n8gy2QK.jpg", "popularity": 12.06}, {"id": 11064, "video": false, "vote_count": 285, "vote_average": 6.6, "title": "Brewster's Millions", "release_date": "1985-05-22", "original_language": "en", "original_title": "Brewster's Millions", "genre_ids": [35], "backdrop_path": "/vFpaAPt38KtCS9ac7kSOihc1wUh.jpg", "adult": false, "overview": "Brewster, an aging minor-league baseball player, stands to inherit 300 million dollars if he can successfully spend 30 million dollars in 30 days without anything to show for it, and without telling anyone what he's up to... A task that's a lot harder than it sounds!", "poster_path": "/nt7zLmrTOmcCC74r4JNrGYvlDbV.jpg", "popularity": 11.018}, {"id": 13341, "video": false, "vote_count": 132, "vote_average": 5.7, "title": "Bad News Bears", "release_date": "2005-07-22", "original_language": "en", "original_title": "Bad News Bears", "genre_ids": [35], "backdrop_path": "/1EIxg5120QFNzo62rlGTM4G4ZQP.jpg", "adult": false, "overview": "Morris Buttermaker is a burned-out minor league baseball player who loves to drink and can't keep his hands to himself. His long-suffering lawyer arranges for him to manage a local Little League team, and Buttermaker soon finds himself the head of a rag-tag group of misfit players. Through unconventional team-building exercises and his offbeat coaching style, Buttermaker helps his hapless Bears prepare to meet their rivals, the Yankees.", "poster_path": "/25zNjE9CCnLQNnUchBAsVLFiPOL.jpg", "popularity": 10.532}, {"id": 198185, "video": false, "vote_count": 378, "vote_average": 6.8, "title": "Million Dollar Arm", "release_date": "2014-05-09", "original_language": "en", "original_title": "Million Dollar Arm", "genre_ids": [18], "backdrop_path": "/x5ZwyoTfApcvw0mwToWlY2qUliY.jpg", "adult": false, "overview": "In a last-ditch effort to save his career, sports agent JB Bernstein (Jon Hamm) dreams up a wild game plan to find Major League Baseball\u2019s next great pitcher from a pool of cricket players in India. He soon discovers two young men who can throw a fastball but know nothing about the game of baseball. Or America. It\u2019s an incredible and touching journey that will change them all \u2014 especially JB, who learns valuable lessons about teamwork, commitment and family.", "poster_path": "/rYOQL42cDdsbhfgaxeEW4SlszUp.jpg", "popularity": 9.24}, {"id": 87825, "video": false, "vote_count": 671, "vote_average": 6.7, "title": "Trouble with the Curve", "release_date": "2012-09-21", "original_language": "en", "original_title": "Trouble with the Curve", "genre_ids": [18, 10749], "backdrop_path": "/9fN6z7JcO5o3jDmJ0fHSq4PXwUT.jpg", "adult": false, "overview": "Slowed by age and failing eyesight, crack baseball scout Gus Lobel takes his grown daughter along as he checks out the final prospect of his career. Along the way, the two renew their bond, and she catches the eye of a young player-turned-scout.", "poster_path": "/vNWFhlTseaTupYmpnXxJLoShJe3.jpg", "popularity": 9.416}], "total_pages": 15, "total_results": 298}, "recommendations": {"page": 1, "results": [{"adult": false, "backdrop_path": "/mFCR7qscnhseuGXbE0v2afvr0wH.jpg", "genre_ids": [18, 10751, 878], "id": 554979, "original_language": "en", "original_title": "Mail Order Monster", "overview": "A girl seeks help and guidance from a robot monster to cope with the bullies at school and her father's new girlfriend.", "poster_path": "/tnxNqC3S9qgyx4PdwT1MybcpCYJ.jpg", "release_date": "2018-11-06", "title": "Mail Order Monster", "video": false, "vote_average": 5.0, "vote_count": 8, "popularity": 6.587}, {"adult": false, "backdrop_path": "/tguW0wGvYMNzsHmJIZafDE8pLsj.jpg", "genre_ids": [53, 35], "id": 503755, "original_language": "en", "original_title": "Brothers' Nest", "overview": "With their Mother dying of cancer, intent on changing her will to benefit her new husband before she dies, two brothers go to extreme and deadly lengths to protect their inheritance from being signed away before it\u2019s too late.", "poster_path": "/b2k7IdRHHuD2HZPZMWsZzRFUHoA.jpg", "release_date": "2018-06-21", "title": "Brothers' Nest", "video": false, "vote_average": 7.0, "vote_count": 18, "popularity": 4.652}], "total_pages": 1, "total_results": 2}, "credits": {"cast": [{"cast_id": 2, "character": "John", "credit_id": "5a72234e9251417f1900f0d6", "gender": 2, "id": 50217, "name": "Michael Kelly", "order": 0, "profile_path": "/iivECyPFmK7SeT3iBtmOgz3n3M7.jpg"}, {"cast_id": 3, "character": "Matt", "credit_id": "5a7223599251417f2500efa3", "gender": 2, "id": 6164, "name": "Josh Lucas", "order": 1, "profile_path": "/gv7jI1SZLRXRVJnNGOS1zK6yWB.jpg"}, {"cast_id": 4, "character": "Debbie", "credit_id": "5a72236ac3a368608d00fefd", "gender": 1, "id": 21063, "name": "Pamela Adlon", "order": 2, "profile_path": "/DbStLMSMhW1qtmKugYjS4yWOi.jpg"}, {"cast_id": 12, "character": "Brian", "credit_id": "5a7eccf00e0a262ab2009951", "gender": 0, "id": 1664176, "name": "Jesse Ray Sheps", "order": 3, "profile_path": "/49nLfeleIzW0t0vtBcAowCyXZTY.jpg"}, {"cast_id": 7, "character": "Adam", "credit_id": "5a7ecc260e0a262ab2009885", "gender": 2, "id": 16857, "name": "Tom Everett Scott", "order": 4, "profile_path": "/nVDihOvsSm7kmeyHLtAcEzrrSYC.jpg"}, {"cast_id": 8, "character": "Scotty", "credit_id": "5a7ecc3a0e0a262ab200989b", "gender": 2, "id": 17490, "name": "Isiah Whitlock Jr.", "order": 5, "profile_path": "/8OIhQb53rMX7VcTLZbAMeVd7tHc.jpg"}, {"cast_id": 9, "character": "Bob", "credit_id": "5a7ecc50c3a36818b70088b9", "gender": 2, "id": 1166, "name": "Harris Yulin", "order": 6, "profile_path": "/rKEWwNwhaE4AsubDGoLu6pDIxZy.jpg"}, {"cast_id": 10, "character": "Beaches", "credit_id": "5a7ecc6592514140f8008aa1", "gender": 1, "id": 5586, "name": "Yeardley Smith", "order": 7, "profile_path": "/9AjPwbb3uz4GfgOPBYsy2ILvwkB.jpg"}, {"cast_id": 11, "character": "Russ", "credit_id": "5a7ecc8d925141410d0087c4", "gender": 0, "id": 1334288, "name": "Jay Larson", "order": 8, "profile_path": "/2KQe5i5S4oIwywsHogSs6N1qDtn.jpg"}], "crew": [{"credit_id": "5a722333c3a368609700f030", "department": "Directing", "gender": 2, "id": 62941, "job": "Director", "name": "John Hyams", "profile_path": "/7NosT6z5tAM0HlujmIyLpKJckAy.jpg"}, {"credit_id": "5a7ecbc592514140fe00872b", "department": "Camera", "gender": 2, "id": 935296, "job": "Director of Photography", "name": "Yaron Levy", "profile_path": null}, {"credit_id": "5a7ecbe89251414107008a45", "department": "Art", "gender": 0, "id": 1711192, "job": "Production Design", "name": "Tiffany Zappulla", "profile_path": null}, {"credit_id": "5a72233ec3a368606f00f3d5", "department": "Writing", "gender": 0, "id": 1970359, "job": "Writer", "name": "Timothy Brady", "profile_path": null}]}}