{"adult": false, "backdrop_path": "/nYM30bR4YW3PQxBNzMXiUUtKaKw.jpg", "belongs_to_collection": null, "budget": 0, "genres": [{"id": 99, "name": "Documentary"}], "homepage": "http://thebillmurraystories.com", "id": 502157, "imdb_id": "tt7329810", "original_language": "en", "original_title": "The Bill Murray Stories: Life Lessons Learned from a Mythical Man", "overview": "One man\u2019s journey to find meaning in Bill Murray\u2019s many unexpected adventures with everyday people, rare and never-before seen footage of the comedic icon participating in stories previously presumed to be urban legend.", "popularity": 6.484, "poster_path": "/bQ0k7yeY5EWCLOyF3JAK0HZnCqz.jpg", "production_companies": [{"id": 70839, "logo_path": null, "name": "Double Windsor Films", "origin_country": ""}, {"id": 111817, "logo_path": null, "name": "Old Lime Productions", "origin_country": ""}], "production_countries": [{"iso_3166_1": "US", "name": "United States of America"}], "release_date": "2018-05-02", "revenue": 0, "runtime": 70, "spoken_languages": [{"iso_639_1": "en", "name": "English"}], "status": "Released", "tagline": "No One Will Ever Believe You", "title": "The Bill Murray Stories: Life Lessons Learned from a Mythical Man", "video": false, "vote_average": 7.2, "vote_count": 25, "keywords": {"keywords": [{"id": 9955, "name": "urban legend"}, {"id": 12396, "name": "hollywood, california"}]}, "similar": {"page": 1, "results": [{"adult": false, "backdrop_path": "/tr6OExnBfjLADi9OyZoW308mPAp.jpg", "genre_ids": [18, 35, 10749], "id": 74643, "original_language": "en", "original_title": "The Artist", "overview": "Hollywood, 1927: As silent movie star George Valentin wonders if the arrival of talking pictures will cause him to fade into oblivion, he sparks with Peppy Miller, a young dancer set for a big break.", "poster_path": "/i0mpvMIIjyubXsVKug9vX0lYpnd.jpg", "release_date": "2011-06-26", "title": "The Artist", "video": false, "vote_average": 7.4, "vote_count": 1977, "popularity": 10.661}, {"adult": false, "backdrop_path": "/r8pjTYuz3fDOFAhHNrhrsrh9lNa.jpg", "genre_ids": [18], "id": 294016, "original_language": "en", "original_title": "Trumbo", "overview": "The career of screenwriter Dalton Trumbo is halted by a witch hunt in the late 1940s when he defies the anti-communist HUAC committee and is blacklisted.", "poster_path": "/zShoKppVxFtRP8pIVeVQ4j2DEkz.jpg", "release_date": "2015-10-27", "title": "Trumbo", "video": false, "vote_average": 7.2, "vote_count": 971, "popularity": 11.721}, {"id": 291984, "video": false, "vote_count": 342, "vote_average": 7.4, "title": "The Death & Life of John F. Donovan", "release_date": "2019-03-13", "original_language": "en", "original_title": "The Death & Life of John F. Donovan", "genre_ids": [18], "backdrop_path": "/duXbSimVAH4ZThehr8EFq8d4zlU.jpg", "adult": false, "overview": "A decade after the death of an American TV star, a young actor reminisces about the written correspondence he once shared with the former, as well as the impact those letters had on both their lives.", "poster_path": "/2bhI7Ivk7VmvUaJaDTxJUgOXp1E.jpg", "popularity": 13.05}, {"adult": false, "backdrop_path": "/1SjsVcGO2T2cCrhlhXi8gxQl7jx.jpg", "genre_ids": [16, 28, 35, 878], "id": 474395, "original_language": "en", "original_title": "Teen Titans Go! To the Movies", "overview": "All the major DC superheroes are starring in their own films, all but the Teen Titans, so Robin is determined to remedy this situation by getting over his role as a sidekick and becoming a movie star. Thus, with a few madcap ideas and an inspirational song in their hearts, the Teen Titans head to Hollywood to fulfill their dreams.", "poster_path": "/mFHihhE9hlvJEk2f1AqdLRaYHd6.jpg", "release_date": "2018-07-27", "title": "Teen Titans Go! To the Movies", "video": false, "vote_average": 7.0, "vote_count": 415, "popularity": 18.084}, {"id": 7446, "video": false, "vote_count": 3479, "vote_average": 6.5, "title": "Tropic Thunder", "release_date": "2008-08-09", "original_language": "en", "original_title": "Tropic Thunder", "genre_ids": [28, 12, 35, 10752], "backdrop_path": "/pr8sj9FozsiT45TMtkwFRWONNII.jpg", "adult": false, "overview": "Vietnam veteran 'Four Leaf' Tayback's memoir, Tropic Thunder, is being made into a film, but Director Damien Cockburn can\u2019t control the cast of prima donnas. Behind schedule and over budget, Cockburn is ordered by a studio executive to get filming back on track, or risk its cancellation. On Tayback's advice, Cockburn drops the actors into the middle of the jungle to film the remaining scenes but, unbeknownst to the actors and production, the group have been dropped in the middle of the Golden Triangle, the home of heroin-producing gangs.", "poster_path": "/ue9QdvhpcNPvKQyLY5a5Pd0tagS.jpg", "popularity": 28.425}, {"id": 856, "video": false, "vote_count": 3249, "vote_average": 7.4, "title": "Who Framed Roger Rabbit", "release_date": "1988-06-21", "original_language": "en", "original_title": "Who Framed Roger Rabbit", "genre_ids": [16, 35, 80, 14, 10751], "backdrop_path": "/9podqGmd36AJHO13HQIQHQZRTJC.jpg", "adult": false, "overview": "'Toon star Roger is worried that his wife Jessica is playing pattycake with someone else, so the studio hires detective Eddie Valiant to snoop on her. But the stakes are quickly raised when Marvin Acme is found dead and Roger is the prime suspect.", "poster_path": "/lYfRc57Kx9VgLZ48iulu0HKnM15.jpg", "popularity": 20.755}, {"adult": false, "backdrop_path": "/aWLIsFyLSX81Z0ORQQpxMFm1zFw.jpg", "genre_ids": [35], "id": 188222, "original_language": "en", "original_title": "Entourage", "overview": "Movie star Vincent Chase, together with his boys, Eric, Turtle and Johnny, are back\u2026and back in business with super agent-turned-studio head Ari Gold. Some of their ambitions have changed, but the bond between them remains strong as they navigate the capricious and often cutthroat world of Hollywood.", "poster_path": "/eXFOwg43NeZAv4BgXTlmdp7pzRG.jpg", "release_date": "2015-06-03", "title": "Entourage", "video": false, "vote_average": 6.2, "vote_count": 669, "popularity": 18.152}, {"id": 466272, "video": false, "vote_count": 4110, "vote_average": 7.5, "title": "Once Upon a Time\u2026 in Hollywood", "release_date": "2019-07-25", "original_language": "en", "original_title": "Once Upon a Time\u2026 in Hollywood", "genre_ids": [35, 18, 53], "backdrop_path": "/yB2hTgz9CTVYjlMWPSl3LPx5nWj.jpg", "adult": false, "overview": "Los Angeles, 1969. TV star Rick Dalton, a struggling actor specializing in westerns, and stuntman Cliff Booth, his best friend, try to survive in a constantly changing movie industry. Dalton is the neighbor of the young and promising actress and model Sharon Tate, who has just married the prestigious Polish director Roman Polanski\u2026", "poster_path": "/8j58iEBw9pOXFD2L0nt0ZXeHviB.jpg", "popularity": 95.043}, {"adult": false, "backdrop_path": "/pdIoY6ZOqwbwPlTuDh83TbJ64xw.jpg", "genre_ids": [35, 18, 9648], "id": 270487, "original_language": "en", "original_title": "Hail, Caesar!", "overview": "When a Hollywood star mysteriously disappears in the middle of filming, the studio sends their \"fixer\" to get him back. Set in the 1950s, the story was inspired by the career of Eddie Mannix (1891\u20131963).", "poster_path": "/rzMYZYphL9qrbBClQq1Jc0zPMmY.jpg", "release_date": "2016-02-05", "title": "Hail, Caesar!", "video": false, "vote_average": 5.9, "vote_count": 2550, "popularity": 15.402}, {"id": 522, "video": false, "vote_count": 1294, "vote_average": 7.5, "title": "Ed Wood", "release_date": "1994-09-27", "original_language": "en", "original_title": "Ed Wood", "genre_ids": [35, 18, 36], "backdrop_path": "/iyOAqR2xhjk21MBhzFSnHzO1Y0c.jpg", "adult": false, "overview": "The mostly true story of the legendary \"worst director of all time\", who, with the help of his strange friends, filmed countless B-movies without ever becoming famous or successful.", "poster_path": "/zeXBzwpr785X0luB97WNK6C5iNS.jpg", "popularity": 14.227}, {"id": 599, "video": false, "vote_count": 1215, "vote_average": 8.4, "title": "Sunset Boulevard", "release_date": "1950-08-10", "original_language": "en", "original_title": "Sunset Boulevard", "genre_ids": [18], "backdrop_path": "/u44VbUuoP6OZYEBv2DRd7ShPTMp.jpg", "adult": false, "overview": "A hack screenwriter writes a screenplay for a former silent film star who has faded into Hollywood obscurity.", "poster_path": "/oFwzvRgfxJc0FUr2mwYTi10dk3G.jpg", "popularity": 15.201}, {"id": 11353, "video": false, "vote_count": 466, "vote_average": 6.1, "title": "Bowfinger", "release_date": "1999-08-12", "original_language": "en", "original_title": "Bowfinger", "genre_ids": [35], "backdrop_path": "/8Vg0BMyvKPcmOU3LjoTh7P5l0tl.jpg", "adult": false, "overview": "On the verge of bankruptcy and desperate for his big break, aspiring filmmaker Bobby Bowfinger concocts a crazy plan to make his ultimate dream movie. Rallying a ragtag team that includes a starry-eyed ingenue, a has-been diva and a film studio gofer, he sets out to shoot a blockbuster featuring the biggest star in Hollywood, Kit Ramsey -- only without letting Ramsey know he's in the picture.", "poster_path": "/8dPucB4Dp7gdbozmuV2dxMOHy7i.jpg", "popularity": 10.04}, {"id": 194662, "video": false, "vote_count": 8621, "vote_average": 7.5, "title": "Birdman", "release_date": "2014-08-27", "original_language": "en", "original_title": "Birdman", "genre_ids": [35, 18], "backdrop_path": "/AsJVim0Hk3KbQPbfjyijfjqmaoZ.jpg", "adult": false, "overview": "A fading actor best known for his portrayal of a popular superhero attempts to mount a comeback by appearing in a Broadway play. As opening night approaches, his attempts to become more altruistic, rebuild his career, and reconnect with friends and family prove more difficult than expected.", "poster_path": "/rSZs93P0LLxqlVEbI001UKoeCQC.jpg", "popularity": 40.415}, {"id": 686, "video": false, "vote_count": 2422, "vote_average": 7.3, "title": "Contact", "release_date": "1997-07-11", "original_language": "en", "original_title": "Contact", "genre_ids": [18, 9648, 878], "backdrop_path": "/dBK75oCKuHVuJ9rSUnusIFbhocH.jpg", "adult": false, "overview": "Contact is a science fiction film about an encounter with alien intelligence. Based on the novel by Carl Sagan the film starred Jodie Foster as the one chosen scientist who must make some difficult decisions between her beliefs, the truth, and reality.", "poster_path": "/bCpMIywuNZeWt3i5UMLEIc0VSwM.jpg", "popularity": 21.581}, {"adult": false, "backdrop_path": "/74Jh5SIWnKDwtusPfDP51EeCFHt.jpg", "genre_ids": [35, 10749], "id": 9576, "original_language": "en", "original_title": "Tootsie", "overview": "When struggling, out of work actor Michael Dorsey secretly adopts a female alter ego - Dorothy Michaels - in order to land a part in a daytime drama, he unwittingly becomes a feminist icon and ends up in a romantic pickle.", "poster_path": "/ngyCzZwb9y5sMUCig5JQT4Y33Q.jpg", "release_date": "1982-12-16", "title": "Tootsie", "video": false, "vote_average": 7.2, "vote_count": 915, "popularity": 9.882}, {"id": 14, "video": false, "vote_count": 7295, "vote_average": 8.0, "title": "American Beauty", "release_date": "1999-09-15", "original_language": "en", "original_title": "American Beauty", "genre_ids": [18], "backdrop_path": "/z5J18ByLeOZ68iORfMXmxeFuwyL.jpg", "adult": false, "overview": "Lester Burnham, a depressed suburban father in a mid-life crisis, decides to turn his hectic life around after developing an infatuation with his daughter's attractive friend.", "poster_path": "/or1MP8BZIAjqWYxPdPX724ydKar.jpg", "popularity": 28.789}, {"adult": false, "backdrop_path": "/mAXgaPxxUQg6U446yz8KPRYSUT.jpg", "genre_ids": [12, 18, 10751], "id": 44826, "original_language": "en", "original_title": "Hugo", "overview": "Orphaned and alone except for an uncle, Hugo Cabret lives in the walls of a train station in 1930s Paris. Hugo's job is to oil and maintain the station's clocks, but to him, his more important task is to protect a broken automaton and notebook left to him by his late father. Accompanied by the goddaughter of an embittered toy merchant, Hugo embarks on a quest to solve the mystery of the automaton and find a place he can call home.", "poster_path": "/rSmmVKeW3nsP86V2S6R7ePs4CFw.jpg", "release_date": "2011-11-22", "title": "Hugo", "video": false, "vote_average": 7.1, "vote_count": 4578, "popularity": 20.1}, {"adult": false, "backdrop_path": "/zrGPZc07huy9ApZs7GCrWj05Cy8.jpg", "genre_ids": [12, 14, 10749, 10751], "id": 2270, "original_language": "en", "original_title": "Stardust", "overview": "In a countryside town bordering on a magical land, a young man makes a promise to his beloved that he'll retrieve a fallen star by venturing into the magical realm. His journey takes him into a world beyond his wildest dreams and reveals his true identity.", "poster_path": "/A9gXvPOnMu961E36x5p3RT4FQ5E.jpg", "release_date": "2007-08-09", "title": "Stardust", "video": false, "vote_average": 7.2, "vote_count": 2402, "popularity": 20.44}, {"id": 439015, "video": false, "vote_count": 890, "vote_average": 4.0, "title": "Slender Man", "release_date": "2018-08-10", "original_language": "en", "original_title": "Slender Man", "genre_ids": [27, 9648, 53], "backdrop_path": "/5K0fgMaJSdEvqSsS8e3Ez4TpvXR.jpg", "adult": false, "overview": "In a small town in Massachusetts, four high school girls perform a ritual in an attempt to debunk the lore of Slender Man. When one of the girls goes mysteriously missing, they begin to suspect that she is, in fact, his latest victim.", "poster_path": "/huSncs4RyvQDBmHjBBYHSBYJbSJ.jpg", "popularity": 19.519}, {"adult": false, "backdrop_path": "/tVi83ttAeyMJinYpy6xfgJSpzvP.jpg", "genre_ids": [18, 10749], "id": 11216, "original_language": "it", "original_title": "Nuovo Cinema Paradiso", "overview": "A filmmaker recalls his childhood, when he fell in love with the movies at his village's theater and formed a deep friendship with the theater's projectionist.", "poster_path": "/hYzCLju3W74nLhhRXfPkwDi1Tun.jpg", "release_date": "1988-11-17", "title": "Cinema Paradiso", "video": false, "vote_average": 8.4, "vote_count": 2031, "popularity": 17.915}], "total_pages": 60, "total_results": 1196}, "recommendations": {"page": 1, "results": [{"adult": false, "backdrop_path": "/uOuck9a7GkL1plVsSa5JD1eKyN2.jpg", "genre_ids": [18], "id": 539819, "original_language": "en", "original_title": "The Grizzlies", "overview": "In a small Arctic town struggling with the highest suicide rate in North America, a group of Inuit students' lives are transformed when they are introduced to the sport of lacrosse.", "poster_path": "/lMXnqQeD2fX7IQskgFt1hsLqK9U.jpg", "release_date": "2019-04-19", "title": "The Grizzlies", "video": false, "vote_average": 8.8, "vote_count": 4, "popularity": 1.956}, {"id": 8778, "video": false, "vote_count": 7, "vote_average": 7.3, "title": "Narcissus and Psyche", "release_date": "1980-12-22", "original_language": "hu", "original_title": "N\u00e1rcisz \u00e9s Psych\u00e9", "genre_ids": [18], "backdrop_path": "/1tZD7kQDxG17usK2WTo6r0nqXwa.jpg", "adult": false, "overview": "Narcisus and Psyche is based on a novel by Sandor Weores which was adapted by Vilmos Csaplar and director Gabor Body for a feature-length film. Borrowing the character of Psyche from mythology and placing her in Europe in the 19th century, the authors give her a \"modern\" life. She is an attractive young woman - and remains so throughout the film, in spite of one hardship after another. Psyche is libidinous, and her prurient interests shock her staid contemporaries.", "poster_path": "/bfjKPEcoYdud7HGW7BK6QoxpP9J.jpg", "popularity": 1.877}, {"adult": false, "backdrop_path": "/s3smQxusMEOrpUfySagkSihG8Rm.jpg", "genre_ids": [99, 10402], "id": 520364, "original_language": "en", "original_title": "Blue Note Records: Beyond the Notes", "overview": "The film explores the vision behind the iconic American jazz record label. Since 1939, Blue Note artists have been encouraged to push creative boundaries in search of uncompromising expressions. Through current recording sessions, rare archive and conversations with iconic Blue Note artists, the film reveals an intimate perspective of a legacy that continues to be vital in today\u2019s political climate.", "poster_path": "/79iWEZpXAfozSI9S8VBU31ug0r9.jpg", "release_date": "2019-08-15", "title": "Blue Note Records: Beyond the Notes", "video": false, "vote_average": 7.3, "vote_count": 3, "popularity": 4.185}, {"adult": false, "backdrop_path": "/jK4MOzeXKtJA06P7nWYcW75cCSt.jpg", "genre_ids": [99], "id": 39848, "original_language": "en", "original_title": "Breakfast with Hunter", "overview": "Breakfast with Hunter is a feature length documentary starring the infamous outlaw journalist Dr. Hunter S. Thompson. Edited by director Wayne Ewing from cinema verite film and digital video that he shot over many years on the road with Dr. Thompson, Breakfast with Hunter follows several story lines in the trials (literally) and triumphs of this cultural icon who created his own genre of writing - Gonzo journalism.", "poster_path": "/k40DoiBz2CN8wM4HKb6k3sRo2vE.jpg", "release_date": "2003-06-21", "title": "Breakfast with Hunter", "video": false, "vote_average": 6.7, "vote_count": 13, "popularity": 5.139}, {"id": 22711, "video": false, "vote_count": 18, "vote_average": 6.4, "title": "Blaze", "release_date": "1989-12-15", "original_language": "en", "original_title": "Blaze", "genre_ids": [18, 10749], "backdrop_path": "/wftxczt2XKpDnJDrClPbxOUjDIx.jpg", "adult": false, "overview": "This movie tells the story of the latter years of Earl Long, a flamboyant governor of Louisiana. The aging Earl, an unapologetic habitue of strip joints, falls in love with young stripper Blaze Starr. When Earl and Blaze move in together, Earl's opponents use this to attack his controversial political program, which included civil rights for blacks in the 1950's.", "poster_path": "/upb42GxljtsmhoLxXbD6REm5Iwg.jpg", "popularity": 5.725}, {"id": 24032, "video": false, "vote_count": 53, "vote_average": 6.4, "title": "Oh, God!", "release_date": "1977-10-07", "original_language": "en", "original_title": "Oh, God!", "genre_ids": [35, 14], "backdrop_path": "/3iEP0EnA6nffr5WRZgtjI7PnNYk.jpg", "adult": false, "overview": "When God appears to an assistant grocery manager as a good natured old man, the Almighty selects him as his messenger for the modern world.", "poster_path": "/hUbs7igJjefhwXEGFo0DGzugLBm.jpg", "popularity": 7.993}, {"adult": false, "backdrop_path": "/aweAfrr17FARZtJJeQIFvg2h26k.jpg", "genre_ids": [35, 18, 10749], "id": 49225, "original_language": "en", "original_title": "Age of Consent", "overview": "An elderly artist thinks he has become too stale and is past his prime. His friend (and agent) persuades him to go to an offshore island to try once more. On the island he re-discovers his muse in the form of a young girl.", "poster_path": "/4Rqn8okUMJIr5JNe8yGlMzDSwSU.jpg", "release_date": "1969-05-13", "title": "Age of Consent", "video": false, "vote_average": 6.2, "vote_count": 25, "popularity": 6.262}], "total_pages": 1, "total_results": 7}, "credits": {"cast": [{"cast_id": 14, "character": "Himself", "credit_id": "5bace39ac3a3683a9c03fd44", "gender": 2, "id": 1532, "name": "Bill Murray", "order": 0, "profile_path": "/cA3ncPFv1oFZYx4AaiQDbHSDy9e.jpg"}, {"cast_id": 17, "character": "Himself", "credit_id": "5c012a6b0e0a26360e079e54", "gender": 2, "id": 7396, "name": "Peter Farrelly", "order": 1, "profile_path": "/8vLjukhhj4dKQSbtZ8qFr2Ybf5T.jpg"}, {"cast_id": 20, "character": "Himself", "credit_id": "5c012acd925141111606bb04", "gender": 2, "id": 155649, "name": "Joel Murray", "order": 2, "profile_path": "/t5syYfCgxbTC7XPrNeXhhhQULUf.jpg"}, {"cast_id": 13, "character": "Himself", "credit_id": "5bace393c3a3683ac003d54a", "gender": 0, "id": 1099836, "name": "Tommy Avallone", "order": 3, "profile_path": null}, {"cast_id": 15, "character": "Himself", "credit_id": "5c012a26c3a36869ae0754d6", "gender": 0, "id": 2185891, "name": "John Barnhardt", "order": 4, "profile_path": null}, {"cast_id": 16, "character": "Diner Storyteller", "credit_id": "5c012a48c3a3685c370711a1", "gender": 0, "id": 2185892, "name": "Johnathan Davis", "order": 5, "profile_path": null}, {"cast_id": 18, "character": "Himself", "credit_id": "5c012a8c0e0a2629ce0725b7", "gender": 0, "id": 2185893, "name": "Josh Horowitz", "order": 6, "profile_path": null}, {"cast_id": 19, "character": "Woman", "credit_id": "5c012aaac3a36865dc06303c", "gender": 0, "id": 2185895, "name": "Rachel Keefe", "order": 7, "profile_path": null}, {"cast_id": 21, "character": "Himself", "credit_id": "5c012afdc3a36869ae0755cb", "gender": 0, "id": 2185896, "name": "Gavin Edwards", "order": 8, "profile_path": null}], "crew": [{"credit_id": "5a722847c3a368606f00fdbb", "department": "Directing", "gender": 0, "id": 1099836, "job": "Director", "name": "Tommy Avallone", "profile_path": null}, {"credit_id": "5a8dfc5dc3a368267f0068c9", "department": "Editing", "gender": 0, "id": 1099836, "job": "Editor", "name": "Tommy Avallone", "profile_path": null}, {"credit_id": "5af47d0e0e0a263a5b0000c4", "department": "Writing", "gender": 0, "id": 1099836, "job": "Writer", "name": "Tommy Avallone", "profile_path": null}, {"credit_id": "5af47d45c3a36822c3000078", "department": "Sound", "gender": 0, "id": 1150805, "job": "Music", "name": "John Avarese", "profile_path": null}, {"credit_id": "5af47d690e0a263a790000f8", "department": "Sound", "gender": 0, "id": 1150805, "job": "Sound", "name": "John Avarese", "profile_path": null}, {"credit_id": "5af47cedc3a36822cf000119", "department": "Production", "gender": 0, "id": 1422636, "job": "Executive Producer", "name": "Glen Zipper", "profile_path": null}, {"credit_id": "5a8dfc0c9251416c7e006265", "department": "Camera", "gender": 2, "id": 1534445, "job": "Director of Photography", "name": "Derrick Kunzer", "profile_path": null}, {"credit_id": "5af47cd4c3a36822c90000c1", "department": "Production", "gender": 2, "id": 1534445, "job": "Producer", "name": "Derrick Kunzer", "profile_path": null}, {"credit_id": "5af47c6ec3a36822c300003d", "department": "Production", "gender": 0, "id": 2040165, "job": "Producer", "name": "Max Paolucci", "profile_path": null}, {"credit_id": "5af47d1fc3a36822c60000f9", "department": "Writing", "gender": 0, "id": 2040165, "job": "Writer", "name": "Max Paolucci", "profile_path": null}, {"credit_id": "5af47c7e0e0a263a70000087", "department": "Production", "gender": 0, "id": 2040168, "job": "Producer", "name": "Raymond Esposito", "profile_path": null}, {"credit_id": "5af47c91c3a36822b0000070", "department": "Production", "gender": 0, "id": 2040170, "job": "Producer", "name": "Kevin Sisti Jr.", "profile_path": null}, {"credit_id": "5af47d579251417de30000cf", "department": "Sound", "gender": 0, "id": 2040174, "job": "Music", "name": "Ryan Petrillo", "profile_path": null}]}}