{"adult": false, "backdrop_path": null, "belongs_to_collection": null, "budget": 0, "genres": [{"id": 80, "name": "Crime"}, {"id": 18, "name": "Drama"}], "homepage": null, "id": 50250, "imdb_id": "tt0367878", "original_language": "pt", "original_title": "Os Imortais", "overview": "\"Os Imortais\" is without a doubt one of the best, or probably, the best Portuguese film ever made. It certainly is a landmark on the Portuguese cinema's scene; this movie his worth every minute. Every year, four ex-soldiers that call themselves \"Os Imortais\" (translated \"The Immortals\"), get together with four women to celebrate war deeds and to remember the old days, back in the war. On the summer of 1985, tired of their monotonous lives they decide to rob a bank. Joaquim Malarranha, a chief inspector from the local police about to retire, crosses their path and will spend his last days of duty trying to solve the robbery. But has he carries on with his investigation, he discovers more than he could ever think of.", "popularity": 1.18, "poster_path": "/zz1ZGtsjP0xhbV7TQAeursS6yLp.jpg", "production_companies": [], "production_countries": [{"iso_3166_1": "PT", "name": "Portugal"}], "release_date": "2003-11-07", "revenue": 0, "runtime": 130, "spoken_languages": [{"iso_639_1": "fr", "name": "Fran\u00e7ais"}, {"iso_639_1": "pt", "name": "Portugu\u00eas"}], "status": "Released", "tagline": "", "title": "The Immortals", "video": false, "vote_average": 6.7, "vote_count": 6, "keywords": {"keywords": [{"id": 6091, "name": "war"}, {"id": 10051, "name": "heist"}, {"id": 15060, "name": "period drama"}]}, "similar": {"page": 1, "results": [{"id": 339403, "video": false, "vote_count": 9215, "vote_average": 7.4, "title": "Baby Driver", "release_date": "2017-06-28", "original_language": "en", "original_title": "Baby Driver", "genre_ids": [28, 80], "backdrop_path": "/goCvLSUFz0p7k8R10Hv4CVh3EQv.jpg", "adult": false, "overview": "After being coerced into working for a crime boss, a young getaway driver finds himself taking part in a heist doomed to fail.", "poster_path": "/dN9LbVNNZFITwfaRjl4tmwGWkRg.jpg", "popularity": 34.697}, {"adult": false, "backdrop_path": "/bRGtZsVj2Qq8r5CCsNYmQUPF4z4.jpg", "genre_ids": [80, 18, 878, 53], "id": 10559, "original_language": "en", "original_title": "Frequency", "overview": "When a rare phenomenon gives police officer John Sullivan the chance to speak to his father, 30 years in the past, he takes the opportunity to prevent his dad's tragic death.  After his actions inadvertently give rise to a series of brutal murders he and his father must find a way to fix the consequences of altering time.", "poster_path": "/n0QAAZmIaPPIShVkk8eiKwfGV9.jpg", "release_date": "2000-04-28", "title": "Frequency", "video": false, "vote_average": 7.1, "vote_count": 897, "popularity": 14.026}, {"id": 947, "video": false, "vote_count": 1588, "vote_average": 8.0, "title": "Lawrence of Arabia", "release_date": "1962-12-10", "original_language": "en", "original_title": "Lawrence of Arabia", "genre_ids": [12, 18, 36, 10752], "backdrop_path": "/lENerYvUcfl9GlolqA1emj5gb4k.jpg", "adult": false, "overview": "The story of British officer T.E. Lawrence's mission to aid the Arab tribes in their revolt against the Ottoman Empire during the First World War. Lawrence becomes a flamboyant, messianic figure in the cause of Arab unity but his psychological instability threatens to undermine his achievements.", "poster_path": "/j21UXCOq0EbV8EPTtmPn1CGePfB.jpg", "popularity": 17.37}, {"id": 289, "video": false, "vote_count": 2866, "vote_average": 8.1, "title": "Casablanca", "release_date": "1942-01-23", "original_language": "en", "original_title": "Casablanca", "genre_ids": [18, 10749], "backdrop_path": "/5tE7iKSpBrc4z6LqF5kHutMm6KQ.jpg", "adult": false, "overview": "In Casablanca, Morocco in December 1941, a cynical American expatriate meets a former lover, with unforeseen complications.", "poster_path": "/wOBKAoUJZb5qTsWv5XXvVV2vUzz.jpg", "popularity": 21.116}, {"id": 52345, "video": false, "vote_count": 221, "vote_average": 7.8, "title": "Lisbela and the Prisoner", "release_date": "2003-08-22", "original_language": "pt", "original_title": "Lisbela e o Prisioneiro", "genre_ids": [35, 10749], "backdrop_path": "/4KDlC0cZvR5LtszqjFhZcMzdiUD.jpg", "adult": false, "overview": "Lisbela is a young woman who loves going to the movies. Lel\u00e9u is a con man, going from town to town selling all sort of things and performing as master of ceremonies for some cheesy numbers, such as the woman who gets transformed into a gorilla. He gets involved with Linaura, a sexy and beautiful woman who happens to be the wife of the most frightening hitman of the place. The hitman finds out his wife's affair and goes after Lel\u00e9u, who has to leave in a hurry. In another town, he meets and falls instantly in love with Lisbela, who is engaged to Douglas, a hillbilly who tries hard to pass for a cosmopolitan Rio de Janeiro dweller.", "poster_path": "/9nlaRxQeYaMrVVANMppagFohCRP.jpg", "popularity": 1.042}, {"adult": false, "backdrop_path": "/yl0siKWmGjnBcuCEacKyW0vHsWq.jpg", "genre_ids": [10749, 18], "id": 409387, "original_language": "ko", "original_title": "\uc815\uc0ac : \uacb0\ud63c \ub9d0\uace0 \uc5f0\uc560", "overview": "\"Getting married is crazy! I only want to be in relationships!\" The life story of a woman who doesn't want to settle for one man. Her mom nags at her to get married, her superior grills her to bring results and her boyfriend turns out to be married. Soo-kyeong comforts herself with some spicy food. One lonely birthday, she ends up having sex with the chef of the spicy food restaurant. They fit well mentally and physically so they get closer but Soo-kyeong rejects the chef's marriage proposal. The chef gets married with someone else and asks her, \"I got married with someone else like you said. Now will you have a relationship with me?\"", "poster_path": "/4hiv07Quj8A7J8onCIAjNCy62Er.jpg", "release_date": "2016-04-19", "title": "Sex: A Relationship and Not Marriage", "video": false, "vote_average": 7.7, "vote_count": 3, "popularity": 11.678}, {"adult": false, "backdrop_path": "/xStFRUQtjdQWiZEGN80rgkhN0Kh.jpg", "genre_ids": [18, 878], "id": 11864, "original_language": "en", "original_title": "Enemy Mine", "overview": "A soldier from Earth crashlands on an alien world after sustaining battle damage. Eventually he encounters another survivor, but from the enemy species he was fighting; they band together to survive on this hostile world. In the end the human finds himself caring for his enemy in a completely unexpected way.", "poster_path": "/rOGOW5BnkT0Ccg7XEDmdBUBuw0K.jpg", "release_date": "1985-12-12", "title": "Enemy Mine", "video": false, "vote_average": 6.8, "vote_count": 456, "popularity": 12.134}, {"id": 50620, "video": false, "vote_count": 5631, "vote_average": 6.3, "title": "The Twilight Saga: Breaking Dawn - Part 2", "release_date": "2012-11-13", "original_language": "en", "original_title": "The Twilight Saga: Breaking Dawn - Part 2", "genre_ids": [12, 18, 14, 10749], "backdrop_path": "/xDWphxQqBfZJVlTrg6C0GQBSeUc.jpg", "adult": false, "overview": "After the birth of Renesmee, the Cullens gather other vampire clans in order to protect the child from a false allegation that puts the family in front of the Volturi.", "poster_path": "/kJQPygYB8aNEevZZHRifyYrAdU9.jpg", "popularity": 21.925}, {"adult": false, "backdrop_path": "/pKawqrtCBMmxarft7o1LbEynys7.jpg", "genre_ids": [10752, 18, 28], "id": 228150, "original_language": "en", "original_title": "Fury", "overview": "In the last months of World War II, as the Allies make their final push in the European theatre, a battle-hardened U.S. Army sergeant named 'Wardaddy' commands a Sherman tank called 'Fury' and its five-man crew on a deadly mission behind enemy lines. Outnumbered and outgunned, Wardaddy and his men face overwhelming odds in their heroic attempts to strike at the heart of Nazi Germany.", "poster_path": "/fa4PxEPRKWRyjzYje1jM4m30qzd.jpg", "release_date": "2014-10-15", "title": "Fury", "video": false, "vote_average": 7.4, "vote_count": 7302, "popularity": 53.985}, {"id": 13809, "video": false, "vote_count": 1565, "vote_average": 6.9, "title": "RockNRolla", "release_date": "2008-09-04", "original_language": "en", "original_title": "RockNRolla", "genre_ids": [28, 80, 53], "backdrop_path": "/g6FLR1fSleLUmYxufJNMTYiVpA4.jpg", "adult": false, "overview": "When a Russian mobster sets up a real estate scam that generates millions of pounds, various members of London's criminal underworld pursue their share of the fortune. Various shady characters, including Mr One-Two, Stella the accountant, and Johnny Quid, a druggie rock-star, try to claim their slice.", "poster_path": "/9tnHUDuUDrNJxJ3raxpKIrnYXlH.jpg", "popularity": 18.124}, {"adult": false, "backdrop_path": "/nfm6JCKUaM6dT0mATmShLY6cpmc.jpg", "genre_ids": [18, 10752], "id": 600, "original_language": "en", "original_title": "Full Metal Jacket", "overview": "A pragmatic U.S. Marine observes the dehumanizing effects the U.S.-Vietnam War has on his fellow recruits from their brutal boot camp training to the bloody street fighting in Hue.", "poster_path": "/29veIwD38rVL2qY74emXQw4y25H.jpg", "release_date": "1987-06-26", "title": "Full Metal Jacket", "video": false, "vote_average": 8.1, "vote_count": 5897, "popularity": 25.207}, {"id": 122126, "video": false, "vote_count": 35, "vote_average": 6.0, "title": "The Concubine", "release_date": "2012-06-06", "original_language": "ko", "original_title": "\ud6c4\uad81: \uc81c\uc655\uc758 \ucca9", "genre_ids": [18], "backdrop_path": "/zgx6bBaVLAsFO5ip7gwndOjhE7U.jpg", "adult": false, "overview": "Living a torturous life of poverty and barely able to survive, Hwa-yeon decides to offer herself as one of the king\u2019s concubines. Once inside the royal palace, two men are immediately seized by the woman -- the Grand Prince Seong-won, a megalomaniacal ruler drunk with power and lust, and Kwon-yoo, who has everything to lose if his desire for Hwa-yeon is exposed.", "poster_path": "/2qkaLzpsC0X3zYwjhh1GPsjny2.jpg", "popularity": 19.786}, {"adult": false, "backdrop_path": "/7RRuRcGuWkZGuRyYugfXn0Fgrrr.jpg", "genre_ids": [28, 80, 18, 53], "id": 949, "original_language": "en", "original_title": "Heat", "overview": "Obsessive master thief, Neil McCauley leads a top-notch crew on various daring heists throughout Los Angeles while determined detective, Vincent Hanna pursues him without rest. Each man recognizes and respects the ability and the dedication of the other even though they are aware their cat-and-mouse game may end in violence.", "poster_path": "/6pmLVffM9jEYK7VqDJqPblMxfEY.jpg", "release_date": "1995-12-15", "title": "Heat", "video": false, "vote_average": 7.8, "vote_count": 3615, "popularity": 21.973}, {"id": 369885, "video": false, "vote_count": 3048, "vote_average": 6.7, "title": "Allied", "release_date": "2016-11-17", "original_language": "en", "original_title": "Allied", "genre_ids": [28, 18, 53, 10749, 10752], "backdrop_path": "/tC0tVH5KQhCwMlddnyA3iWOSuBA.jpg", "adult": false, "overview": "In 1942, an intelligence officer in North Africa encounters a female French Resistance fighter on a deadly mission behind enemy lines. When they reunite in London, their relationship is tested by the pressures of war.", "poster_path": "/nzXzLFTnd0Zb3ExfhOxlQgizgSu.jpg", "popularity": 29.818}, {"id": 9679, "video": false, "vote_count": 2590, "vote_average": 6.3, "title": "Gone in Sixty Seconds", "release_date": "2000-06-09", "original_language": "en", "original_title": "Gone in Sixty Seconds", "genre_ids": [28, 80, 53], "backdrop_path": "/uqd4cqpp6gbs6zG6izBUaCorgjv.jpg", "adult": false, "overview": "Upon learning that he has to come out of retirement to steal 50 cars in one night to save his brother Kip's life, former car thief Randall \"Memphis\" Raines enlists help from a few \"boost happy\" pals to accomplish a seemingly impossible feat. From countless car chases to relentless cops, the high-octane excitement builds as Randall swerves around more than a few roadblocks to keep Kip alive.", "poster_path": "/77TxKvRiX0c5JR6l4fxcN19prOy.jpg", "popularity": 20.394}, {"id": 449443, "video": false, "vote_count": 1469, "vote_average": 6.6, "title": "Den of Thieves", "release_date": "2018-01-18", "original_language": "en", "original_title": "Den of Thieves", "genre_ids": [28, 80, 53], "backdrop_path": "/s3FDBLH4qc1IcjexB05Qvbn3wxO.jpg", "adult": false, "overview": "A gritty crime saga which follows the lives of an elite unit of the LA County Sheriff\u2019s Dept. and the state\u2019s most successful bank robbery crew as the outlaws plan a seemingly impossible heist on the Federal Reserve Bank.", "poster_path": "/AfybH6GbGFw1F9bcETe2yu25mIE.jpg", "popularity": 28.396}, {"id": 57212, "video": false, "vote_count": 2067, "vote_average": 7.2, "title": "War Horse", "release_date": "2011-12-25", "original_language": "en", "original_title": "War Horse", "genre_ids": [28, 18, 10752], "backdrop_path": "/iO4fslQ9CenAOcg3JfhN6o9va2.jpg", "adult": false, "overview": "Follows a young man named Albert and his horse, Joey, and how their bond is broken when Joey is sold to the cavalry and sent to the trenches of World War One. Despite being too young to enlist, Albert heads to France to save his friend.", "poster_path": "/6wMoQyJddEiLCzLUHiX7LNWhDol.jpg", "popularity": 12.763}, {"id": 75780, "video": false, "vote_count": 4451, "vote_average": 6.4, "title": "Jack Reacher", "release_date": "2012-12-20", "original_language": "en", "original_title": "Jack Reacher", "genre_ids": [28, 80, 18, 53], "backdrop_path": "/ezXodpP429qK0Av89pVNlaXWJkQ.jpg", "adult": false, "overview": "When a gunman takes five lives with six shots, all evidence points to the suspect in custody. On interrogation, the suspect offers up a single note: \"Get Jack Reacher!\" So begins an extraordinary chase for the truth, pitting Jack Reacher against an unexpected enemy, with a skill for violence and a secret to keep.", "poster_path": "/mt0ELw83HIRgaKaDzhsDcIi0RnW.jpg", "popularity": 15.945}, {"id": 521, "video": false, "vote_count": 1257, "vote_average": 8.0, "title": "Dial M for Murder", "release_date": "1954-05-29", "original_language": "en", "original_title": "Dial M for Murder", "genre_ids": [80, 18, 9648, 53], "backdrop_path": "/jVMlfESb0TJ29w8CUDDofEprMmn.jpg", "adult": false, "overview": "An ex-tennis pro carries out a plot to have his wife murdered after discovering she is having an affair, and assumes she will soon leave him for the other man anyway. When things go wrong, he improvises a new plan\u2014to frame her for murder instead.", "poster_path": "/xrpK1PyckNWmRxU4kZURfaCyboS.jpg", "popularity": 28.336}, {"id": 300671, "video": false, "vote_count": 1700, "vote_average": 7.1, "title": "13 Hours: The Secret Soldiers of Benghazi", "release_date": "2016-01-13", "original_language": "en", "original_title": "13 Hours: The Secret Soldiers of Benghazi", "genre_ids": [28, 18, 36, 53, 10752], "backdrop_path": "/hY8myWhjSOUeeiPskhOfwwgaCwc.jpg", "adult": false, "overview": "An American Ambassador is killed during an attack at a U.S. compound in Libya as a security team struggles to make sense out of the chaos.", "poster_path": "/4gpW4MkRI0BB17GHOJzXq0WamDP.jpg", "popularity": 20.173}], "total_pages": 273, "total_results": 5441}, "recommendations": {"page": 1, "results": [{"adult": false, "backdrop_path": "/42qnGKeWh1P7L5EShaDQ3OuO6oP.jpg", "genre_ids": [80, 18, 53], "id": 13959, "original_language": "pt", "original_title": "Call Girl", "overview": "A powerful entrepreneur wants to build an exclusive resort hotel in Villanova, but he discovers the location he has in mind is protected by local land-use regulations. He hires Maria, a beautiful and elegant prostitute, to seduce the mayor, leaving him open to blackmail if he won't give the entrepreneur what he wants. Maria has no trouble twisting Meireles around her finger, but police detectives Madeira and Neves get wind of the plan and set out to expose the plot...", "poster_path": "/bDxYt4gdtTy8vMce1C7FxuY0CWS.jpg", "release_date": "2007-12-27", "title": "Call Girl", "video": false, "vote_average": 6.7, "vote_count": 10, "popularity": 2.027}], "total_pages": 1, "total_results": 1}, "credits": {"cast": [{"cast_id": 1, "character": "Roberto Alua", "credit_id": "52fe47c0c3a36847f8146631", "gender": 2, "id": 22462, "name": "Joaquim de Almeida", "order": 0, "profile_path": "/AiBNELVvARLrTFdOgEgMZQRiqvA.jpg"}, {"cast_id": 7, "character": "Madeleine Durand", "credit_id": "52fe47c0c3a36847f8146653", "gender": 1, "id": 8925, "name": "Emmanuelle Seigner", "order": 1, "profile_path": "/3L0jsBpxn9VKa04PqtgD89FPrli.jpg"}, {"cast_id": 8, "character": "Joaquim Malarranha", "credit_id": "52fe47c0c3a36847f8146657", "gender": 0, "id": 121447, "name": "Nicolau Breyner", "order": 2, "profile_path": "/9BwBrPIDbs7xa0zUWvvSB3wYedI.jpg"}, {"cast_id": 9, "character": "Hor\u00e1cio Lobo", "credit_id": "52fe47c0c3a36847f814665b", "gender": 2, "id": 628253, "name": "Rog\u00e9rio Samora", "order": 3, "profile_path": "/aXtlrZNMvaSfRpg4qYk0JfRoUa9.jpg"}, {"cast_id": 10, "character": "V\u00edtor Pratas", "credit_id": "52fe47c0c3a36847f814665f", "gender": 2, "id": 799438, "name": "Rui Unas", "order": 4, "profile_path": "/4VDUc58TerOKS1f0oDjxhkVRDKN.jpg"}, {"cast_id": 11, "character": "Abel Cavaco", "credit_id": "52fe47c0c3a36847f8146663", "gender": 2, "id": 1005681, "name": "Filipe Duarte", "order": 5, "profile_path": "/5LMzBxCAf5hBBoR9YO1PmsdUP5A.jpg"}, {"cast_id": 12, "character": "S\u00e9rgio Mano", "credit_id": "52fe47c0c3a36847f8146667", "gender": 0, "id": 938040, "name": "Joaquim Nicolau", "order": 6, "profile_path": "/n97BXYbsGFOhH57uirBWXBeLsJK.jpg"}, {"cast_id": 13, "character": "Fil\u00f3", "credit_id": "52fe47c0c3a36847f814666b", "gender": 0, "id": 1055132, "name": "Paula Mora", "order": 7, "profile_path": "/2Uhuhw9xQJYfnuEQx4IgDawgTeT.jpg"}, {"cast_id": 14, "character": "Sara", "credit_id": "52fe47c0c3a36847f814666f", "gender": 1, "id": 139032, "name": "Ana Padr\u00e3o", "order": 8, "profile_path": "/mc2fqVp6U3cR9dtkvc5eH9AhiN.jpg"}, {"cast_id": 15, "character": "Maria Ant\u00f3nia", "credit_id": "52fe47c0c3a36847f8146673", "gender": 1, "id": 109712, "name": "Alexandra Lencastre", "order": 9, "profile_path": "/c5vP9l2wfEE1vYGn2Cic2wtkdAL.jpg"}, {"cast_id": 16, "character": "Severina", "credit_id": "52fe47c0c3a36847f8146677", "gender": 0, "id": 128449, "name": "Maria Rueff", "order": 10, "profile_path": "/jRBe7fL9ZPF18lOSbeYDDvB4AVk.jpg"}, {"cast_id": 17, "character": "Captain Alves", "credit_id": "52fe47c0c3a36847f814667b", "gender": 0, "id": 1055133, "name": "Jos\u00e9 Mora Ramos", "order": 11, "profile_path": "/uI8BYn5wmkghmyK9icxL1dsifZW.jpg"}, {"cast_id": 18, "character": "Dora", "credit_id": "52fe47c0c3a36847f814667f", "gender": 0, "id": 1055134, "name": "Carla Salgueiro", "order": 12, "profile_path": "/2cNzNojdriY4lIGf1YJgYswJfb9.jpg"}, {"cast_id": 19, "character": "In\u00eas", "credit_id": "52fe47c0c3a36847f8146683", "gender": 1, "id": 938036, "name": "S\u00e3o Jos\u00e9 Correia", "order": 13, "profile_path": "/eukzNmegLIfwZzfXtjCyf3dRPOv.jpg"}, {"cast_id": 28, "character": "Joana", "credit_id": "598a74c99251414bdd0223ad", "gender": 1, "id": 118770, "name": "Sofia Grilo", "order": 14, "profile_path": "/5hDZgWaPR71W9PNGDy9hxhLQmSo.jpg"}, {"cast_id": 29, "character": "Padre", "credit_id": "598a74ddc3a36824e201485a", "gender": 0, "id": 1200880, "name": "Jo\u00e3o D'\u00c1vila", "order": 15, "profile_path": "/l3nvastbhYK9I2smsH7fojfNnyA.jpg"}, {"cast_id": 30, "character": "Evaristo", "credit_id": "598a74ec9251414bb40233fc", "gender": 0, "id": 1732123, "name": "Carlos Areia", "order": 16, "profile_path": null}, {"cast_id": 31, "character": "Pianista", "credit_id": "598a750cc3a36824a0014102", "gender": 2, "id": 141594, "name": "Ant\u00f3nio-Pedro Vasconcelos", "order": 17, "profile_path": "/lItpQBrXOd3RGSXk7B8QmQvKJfh.jpg"}], "crew": [{"credit_id": "5987c66d925141059d01a080", "department": "Camera", "gender": 2, "id": 15493, "job": "Director of Photography", "name": "Barry Ackroyd", "profile_path": "/mpdR2TB4gS5E3qzSuQ9p6eMxgYD.jpg"}, {"credit_id": "5a8748ef9251410a1f03f0b6", "department": "Costume & Make-Up", "gender": 0, "id": 19992, "job": "Makeup Designer", "name": "Katja Reinert-Alexis", "profile_path": null}, {"credit_id": "5987c65e9251413d420246d1", "department": "Production", "gender": 0, "id": 43635, "job": "Producer", "name": "Jani Thiltges", "profile_path": null}, {"credit_id": "5987c680925141059d01a08f", "department": "Sound", "gender": 2, "id": 38309, "job": "Music", "name": "Gast Waltzing", "profile_path": null}, {"credit_id": "598a7470c3a36824e20147e3", "department": "Writing", "gender": 0, "id": 108450, "job": "Writer", "name": "Carlos Vale Ferraz", "profile_path": null}, {"credit_id": "5987c628c3a3681df0012021", "department": "Writing", "gender": 2, "id": 141594, "job": "Screenplay", "name": "Ant\u00f3nio-Pedro Vasconcelos", "profile_path": "/lItpQBrXOd3RGSXk7B8QmQvKJfh.jpg"}, {"credit_id": "52fe47c0c3a36847f8146637", "department": "Directing", "gender": 2, "id": 141594, "job": "Director", "name": "Ant\u00f3nio-Pedro Vasconcelos", "profile_path": "/lItpQBrXOd3RGSXk7B8QmQvKJfh.jpg"}, {"credit_id": "598a7443c3a36824a0014006", "department": "Writing", "gender": 0, "id": 937197, "job": "Screenplay", "name": "Vicente Alves do \u00d3", "profile_path": "/4SQsH0G8qNzDBfANjL1ncy8zDPK.jpg"}, {"credit_id": "5a8748c70e0a2653b3041344", "department": "Costume & Make-Up", "gender": 0, "id": 1018988, "job": "Costume Design", "name": "Uli Simon", "profile_path": null}, {"credit_id": "598a7461c3a36874f20247be", "department": "Writing", "gender": 0, "id": 1055130, "job": "Screenplay", "name": "Claire Downs", "profile_path": null}, {"credit_id": "598a745592514137060160c3", "department": "Writing", "gender": 0, "id": 1055131, "job": "Screenplay", "name": "Ant\u00f3nio Tavares Teles", "profile_path": null}, {"credit_id": "59ccd0f092514139bf0108bb", "department": "Sound", "gender": 2, "id": 1183166, "job": "Sound Designer", "name": "Branko Ne\u0161kov", "profile_path": "/euXMeIyehJ5hQx72hSLatiQPCFW.jpg"}, {"credit_id": "59ccd0e5c3a3682ac000fefc", "department": "Sound", "gender": 0, "id": 1283141, "job": "Sound Designer", "name": "Pedro Melo", "profile_path": null}, {"credit_id": "5a8748d00e0a26540c03e83f", "department": "Costume & Make-Up", "gender": 0, "id": 1321631, "job": "Key Hair Stylist", "name": "Sano De Perpessac", "profile_path": null}, {"credit_id": "5a8749200e0a26400b044082", "department": "Editing", "gender": 2, "id": 1321777, "job": "Editor", "name": "Scott Thomas", "profile_path": null}, {"credit_id": "5a8748afc3a3686339044251", "department": "Art", "gender": 0, "id": 1352102, "job": "Set Decoration", "name": "Jo\u00e3o Calv\u00e1rio", "profile_path": null}, {"credit_id": "5a8748ba925141759904116a", "department": "Costume & Make-Up", "gender": 0, "id": 1437123, "job": "Costume Design", "name": "Cynthia Dumont", "profile_path": null}, {"credit_id": "5a8748e3c3a368620703f2b5", "department": "Costume & Make-Up", "gender": 0, "id": 1622821, "job": "Makeup Artist", "name": "Claudine Moureaud", "profile_path": null}, {"credit_id": "59ccd0d69251413968010670", "department": "Sound", "gender": 0, "id": 1896080, "job": "Sound Designer", "name": "Miguel Lima", "profile_path": null}]}}