{"adult": false, "backdrop_path": "/iyjb5faxfKI2hABkd68KdAtVJIb.jpg", "belongs_to_collection": null, "budget": 0, "genres": [{"id": 99, "name": "Documentary"}], "homepage": "https://www.itzhakthefilm.com", "id": 502759, "imdb_id": "tt6186232", "original_language": "en", "original_title": "Itzhak", "overview": "From Schubert to Strauss, Bach to Brahms, Mozart to\u2026Billy Joel, Itzhak Perlman\u2019s violin playing transcends mere performance to evoke the celebrations and struggles of real life. Director Alison Chernick\u2019s (The Jeff Koons Show, Matthew Barney: No Restraint) new documentary provides an intimate, cin\u00e9ma v\u00e9rit\u00e9 look at the remarkable life and career of this musician, widely considered the world\u2019s greatest violinist. Features new interviews with the world-renowned violinist, his family, friends and colleagues including Billy Joel, Alan Alda, pianist Martha Argerich and cellist Mischa Maisky.", "popularity": 2.931, "poster_path": "/wC2WF9E4vHeKW9fjHcITMBn4Asp.jpg", "production_companies": [{"id": 99614, "logo_path": "/gXrb4q4TqBHCYEvjRa16WOE9NRs.png", "name": "American Masters Pictures", "origin_country": "US"}], "production_countries": [{"iso_3166_1": "IL", "name": "Israel"}, {"iso_3166_1": "US", "name": "United States of America"}], "release_date": "2018-12-20", "revenue": 606719, "runtime": 82, "spoken_languages": [{"iso_639_1": "en", "name": "English"}, {"iso_639_1": "he", "name": "\u05e2\u05b4\u05d1\u05b0\u05e8\u05b4\u05d9\u05ea"}], "status": "Released", "tagline": "", "title": "Itzhak", "video": false, "vote_average": 6.3, "vote_count": 3, "keywords": {"keywords": [{"id": 4721, "name": "violin"}, {"id": 5783, "name": "classical music"}, {"id": 6027, "name": "music"}, {"id": 8608, "name": "violinist"}, {"id": 188684, "name": "fiddler"}]}, "similar": {"page": 1, "results": [{"adult": false, "backdrop_path": "/pQOs5bwFpaimeaK5PA2XXteU1Ly.jpg", "genre_ids": [10402, 99], "id": 20575, "original_language": "en", "original_title": "Queen: Live at Wembley Stadium", "overview": "One of the world's biggest bands return to the scene of their Live Aid (1985) triumph a year earlier to play all their greatest hits in front of a packed Wembley Stadium.", "poster_path": "/qztOmfZ8uLPN3MUNHJd8GaJST2V.jpg", "release_date": "1986-07-12", "title": "Live at Wembley Stadium", "video": false, "vote_average": 8.7, "vote_count": 49, "popularity": 8.207}, {"adult": false, "backdrop_path": "/q3eNcig4YFEsUTnmIYDA90FdndO.jpg", "genre_ids": [10402, 35, 28, 80], "id": 525, "original_language": "en", "original_title": "The Blues Brothers", "overview": "Jake Blues is just out of jail, and teams up with his brother, Elwood on a 'mission from God' to raise funds for the orphanage in which they grew up. The only thing they can do is do what they do best: play music. So they get their old band together, and set out on their way\u2014while getting in a bit of trouble here and there.", "poster_path": "/6hesUNBkpVRqBTBw2HlTg0h8b56.jpg", "release_date": "1980-06-17", "title": "The Blues Brothers", "video": false, "vote_average": 7.7, "vote_count": 2299, "popularity": 21.638}, {"id": 786, "video": false, "vote_count": 1485, "vote_average": 7.5, "title": "Almost Famous", "release_date": "2000-09-15", "original_language": "en", "original_title": "Almost Famous", "genre_ids": [18, 10402], "backdrop_path": "/zfucY8mxcrNeopFneyvyERZQah1.jpg", "adult": false, "overview": "In 1973, 15-year-old William Miller's unabashed love of music and aspiration to become a rock journalist lands him an assignment from Rolling Stone magazine to interview and tour with the up-and-coming band Stillwater\u2014fronted by lead guitar Russell Hammond, and lead singer Jeff Bebe.", "poster_path": "/9pNo92j6zSEAUB8pNmcJTkpnkBF.jpg", "popularity": 17.801}, {"id": 13576, "video": false, "vote_count": 509, "vote_average": 6.9, "title": "This Is It", "release_date": "2009-10-28", "original_language": "en", "original_title": "This Is It", "genre_ids": [99, 10402], "backdrop_path": "/w7yzaQ7P2UBtSyMqMOx0zNxc3wB.jpg", "adult": false, "overview": "A compilation of interviews, rehearsals and backstage footage of Michael Jackson as he prepared for his series of sold-out shows in London.", "poster_path": "/4ZgT8FRJxxpG0mgOIPeCgjzAsBR.jpg", "popularity": 11.776}, {"id": 6575, "video": false, "vote_count": 364, "vote_average": 6.6, "title": "Walk Hard: The Dewey Cox Story", "release_date": "2007-12-21", "original_language": "en", "original_title": "Walk Hard: The Dewey Cox Story", "genre_ids": [35, 18, 10402], "backdrop_path": "/y7EElGAn1tFE0Npmls7uvg4HPVj.jpg", "adult": false, "overview": "Following a childhood tragedy, Dewey Cox follows a long and winding road to music stardom. Dewey perseveres through changing musical styles, an addiction to nearly every drug known and bouts of uncontrollable rage.", "poster_path": "/2sc7qoLTqZC0nB2k1crwuVoKP6H.jpg", "popularity": 15.669}, {"adult": false, "backdrop_path": "/xOGEw8iywxcFMolV6SF6YdTdJTb.jpg", "genre_ids": [10402, 10749], "id": 52371, "original_language": "nl", "original_title": "LelleBelle", "overview": "19-year old Belle practices playing the violin diligently, but is unable to impart her music with a sensitive undertone. Her life changes when she discovers that sexual desire stimulates passion in her music.", "poster_path": "/nJVPgIq3icZMQ26p5uWIFdUZJfL.jpg", "release_date": "2010-10-08", "title": "LelleBelle", "video": false, "vote_average": 4.7, "vote_count": 41, "popularity": 13.747}, {"adult": false, "backdrop_path": "/2aHM8lYzcaO4MfN7VNvo1QFU0ft.jpg", "genre_ids": [99, 10402], "id": 373558, "original_language": "en", "original_title": "Taylor Swift: The 1989 World Tour - Live", "overview": "Taylor delivers the concert event of the year. Filmed at Sydney's ANZ Stadium in front of 76,000 fans, The 1989 World Tour - Live captures the excitement and energy of the hottest pop star in the world. Filled with great music, an electrifying stage show, and superstar guest appearances, the concert film is only on Apple Music.", "poster_path": "/kzXe8kscKo83BwGvIofWg6SCR7n.jpg", "release_date": "2015-12-20", "title": "Taylor Swift: The 1989 World Tour - Live", "video": false, "vote_average": 8.3, "vote_count": 65, "popularity": 10.446}, {"id": 653567, "video": false, "vote_count": 0, "vote_average": 0.0, "title": "Miss Americana", "release_date": "2020-01-23", "original_language": "en", "original_title": "Miss Americana", "genre_ids": [99], "backdrop_path": "/x2P9usnTYSd1pTKDIW83cXhKYUo.jpg", "adult": false, "overview": "A raw and emotionally revealing look at one of the most iconic artists of our time during a transformational period in her life as she learns to embrace her role not only as a songwriter and performer, but as a woman harnessing the full power of her voice.", "poster_path": "/fmHMmBl3VftWdLTy8E1mvWCgLe7.jpg", "popularity": 19.526}, {"adult": false, "backdrop_path": "/ljjr1LTE6Xsg8bQxcymXhcaQyLw.jpg", "genre_ids": [35, 10751, 14, 16], "id": 6477, "original_language": "en", "original_title": "Alvin and the Chipmunks", "overview": "A struggling songwriter named Dave Seville finds success when he comes across a trio of singing chipmunks: mischievous leader Alvin, brainy Simon, and chubby, impressionable Theodore.", "poster_path": "/sAt2yb4dgrpkHjbB9dQaKD9Caor.jpg", "release_date": "2007-12-13", "title": "Alvin and the Chipmunks", "video": false, "vote_average": 5.7, "vote_count": 2746, "popularity": 14.626}, {"id": 198277, "video": false, "vote_count": 2275, "vote_average": 7.2, "title": "Begin Again", "release_date": "2013-09-07", "original_language": "en", "original_title": "Begin Again", "genre_ids": [35, 18, 10402, 10749], "backdrop_path": "/r36B5xC2KT9KuxPlTfQJHFwi2EA.jpg", "adult": false, "overview": "A long-lost music producer finds a singer-songwriter right about the moment he has given up all hope on life.", "poster_path": "/qx4HXHXt528hS4rwePZbZo20xqZ.jpg", "popularity": 13.171}, {"adult": false, "backdrop_path": "/tvTyRu9eKfymkje8d9VoWJEoyUv.jpg", "genre_ids": [18], "id": 53932, "original_language": "es", "original_title": "Las edades de Lul\u00fa", "overview": "Fifteen-year-old Lulu has never known any affection from her family. But when she goes to a rock concert with Pablo, a friend of the family, he introduces Lulu to her first sexual experience. Years later, Pablo and Lulu have married; Pablo has created a sheltered, private world for Lulu, into which nothing intrudes. However, Lulu tires of her cloistered existence, and begins hanging out in shady bars, looking for vicarious thrills and danger.", "poster_path": "/5PK5MAN84o0ESgzeW9euozOLIEe.jpg", "release_date": "1990-12-13", "title": "The Ages of Lulu", "video": false, "vote_average": 5.7, "vote_count": 64, "popularity": 24.141}, {"adult": false, "backdrop_path": "/iOGODt9Z92SHVEyuEQiN8wYidmQ.jpg", "genre_ids": [16, 878, 12, 14, 10402], "id": 11827, "original_language": "en", "original_title": "Heavy Metal", "overview": "A glowing orb terrorizes a young girl with a collection of stories of dark fantasy, eroticism and horror.", "poster_path": "/atUtWrDlLzT1yeVK2EoYtvbS963.jpg", "release_date": "1981-08-07", "title": "Heavy Metal", "video": false, "vote_average": 6.3, "vote_count": 316, "popularity": 19.299}, {"id": 11887, "video": false, "vote_count": 2347, "vote_average": 6.5, "title": "High School Musical 3: Senior Year", "release_date": "2008-10-11", "original_language": "en", "original_title": "High School Musical 3: Senior Year", "genre_ids": [35, 18, 10402, 10749, 10751], "backdrop_path": "/daSGxGZL2nNjGZKkAF5ain3lmOx.jpg", "adult": false, "overview": "It's almost graduation day for high school seniors Troy, Gabriella, Sharpay, Chad, Ryan and Taylor \u2015 and the thought of heading off in separate directions after leaving East High has these Wildcats thinking they need to do something they'll remember forever. Together with the rest of the Wildcats, they stage a spring musical reflecting their hopes and fears about the future and their unforgettable experiences growing up together. But with graduation approaching and college plans in question, what will become of the dreams, romances, and friendships of East High's senior Wildcats?", "poster_path": "/ewZpH2QIfPQ0VIn9lPf7MHbLbl4.jpg", "popularity": 14.748}, {"adult": false, "backdrop_path": "/oT79THuFrcBzrhlf4fiCddwZBCQ.jpg", "genre_ids": [18, 10402, 10749], "id": 69, "original_language": "en", "original_title": "Walk the Line", "overview": "A chronicle of country music legend Johnny Cash's life, from his early days on an Arkansas cotton farm to his rise to fame with Sun Records in Memphis, where he recorded alongside Elvis Presley, Jerry Lee Lewis and Carl Perkins.", "poster_path": "/wdxL3Zyh3O5MIbmsSiZEevJAjtQ.jpg", "release_date": "2005-09-13", "title": "Walk the Line", "video": false, "vote_average": 7.5, "vote_count": 1545, "popularity": 15.437}, {"id": 332562, "video": false, "vote_count": 7182, "vote_average": 7.5, "title": "A Star Is Born", "release_date": "2018-10-03", "original_language": "en", "original_title": "A Star Is Born", "genre_ids": [18, 10402, 10749], "backdrop_path": "/mnDvPokXpvsdPcWSjNRPhiiLOKu.jpg", "adult": false, "overview": "Seasoned musician Jackson Maine discovers \u2014 and falls in love with \u2014 struggling artist Ally. She has just about given up on her dream to make it big as a singer \u2014 until Jack coaxes her into the spotlight. But even as Ally's career takes off, the personal side of their relationship is breaking down, as Jack fights an ongoing battle with his own internal demons.", "poster_path": "/wrFpXMNBRj2PBiN4Z5kix51XaIZ.jpg", "popularity": 37.528}, {"id": 313369, "video": false, "vote_count": 11063, "vote_average": 7.9, "title": "La La Land", "release_date": "2016-11-29", "original_language": "en", "original_title": "La La Land", "genre_ids": [35, 18, 10402, 10749], "backdrop_path": "/fp6X6yhgcxzxCpmM0EVC6V9B8XB.jpg", "adult": false, "overview": "Mia, an aspiring actress, serves lattes to movie stars in between auditions and Sebastian, a jazz musician, scrapes by playing cocktail party gigs in dingy bars, but as success mounts they are faced with decisions that begin to fray the fragile fabric of their love affair, and the dreams they worked so hard to maintain in each other threaten to rip them apart.", "poster_path": "/ylXCdC106IKiarftHkcacasaAcb.jpg", "popularity": 39.654}, {"id": 339403, "video": false, "vote_count": 9215, "vote_average": 7.4, "title": "Baby Driver", "release_date": "2017-06-28", "original_language": "en", "original_title": "Baby Driver", "genre_ids": [28, 80], "backdrop_path": "/goCvLSUFz0p7k8R10Hv4CVh3EQv.jpg", "adult": false, "overview": "After being coerced into working for a crime boss, a young getaway driver finds himself taking part in a heist doomed to fail.", "poster_path": "/dN9LbVNNZFITwfaRjl4tmwGWkRg.jpg", "popularity": 34.697}, {"adult": false, "backdrop_path": "/6bnI08rrGXRkngRqJWCMXDZuJ1j.jpg", "genre_ids": [35, 10402], "id": 254470, "original_language": "en", "original_title": "Pitch Perfect 2", "overview": "The Bellas are back, and they are better than ever. After being humiliated in front of none other than the President of the United States of America, the Bellas are taken out of the Aca-Circuit. In order to clear their name, and regain their status, the Bellas take on a seemingly impossible task: winning an international competition no American team has ever won. In order to accomplish this monumental task, they need to strengthen the bonds of friendship and sisterhood and blow away the competition with their amazing aca-magic! With all new friends and old rivals tagging along for the trip, the Bellas can hopefully accomplish their dreams.", "poster_path": "/qSjruLiFB4uqRtz2xheQPxG8uaB.jpg", "release_date": "2015-05-07", "title": "Pitch Perfect 2", "video": false, "vote_average": 6.8, "vote_count": 3901, "popularity": 29.697}, {"id": 458104, "video": false, "vote_count": 0, "vote_average": 0.0, "title": "Hold On", "release_date": "2019-12-06", "original_language": "en", "original_title": "Hold On", "genre_ids": [18], "backdrop_path": null, "adult": false, "overview": "Fighting to save her brother from a life of addiction on Los Angeles' Skid Row, an overlooked singing prodigy embarks on an unlikely journey with the son of a famed music manager.", "poster_path": "/7mxhUUoNkcA5eQdCTwHnWldriSl.jpg", "popularity": 2.616}, {"id": 2976, "video": false, "vote_count": 1691, "vote_average": 6.6, "title": "Hairspray", "release_date": "2007-07-13", "original_language": "en", "original_title": "Hairspray", "genre_ids": [35, 18, 10749], "backdrop_path": "/yafOInYuEuK6FOw1oK40Lggp0TV.jpg", "adult": false, "overview": "Pleasantly plump teenager Tracy Turnblad auditions to be on Baltimore's most popular dance show - The Corny Collins Show - and lands a prime spot. Through her newfound fame, she becomes determined to help her friends and end the racial segregation that has been a staple of the show.", "poster_path": "/ndOpIx4BXpFCRRIxgMoGHxZxlE9.jpg", "popularity": 30.447}], "total_pages": 225, "total_results": 4482}, "recommendations": {"page": 1, "results": [{"adult": false, "backdrop_path": "/3FQIVxQ3JAiHB0VarGayw38Iujk.jpg", "genre_ids": [99], "id": 392178, "original_language": "en", "original_title": "Escapes", "overview": "Escapes blazes a path through mid-20th-century Hollywood via the experiences of Hampton Fancher \u2013 flamenco dancer, actor, and the unlikely producer and screenwriter of the landmark sci-fi classic Blade Runner. Fancher recounts episodes from his life \u2014 romantic misadventures with silver-screen stars, wayward acts of chivalry, jealousy, and friendship \u2014 matched with a parallel world of film and TV footage wherein Fancher plays cowboys, killers, fops, cads, and the occasional hero. Escapes shows how one man\u2019s personal journey can unexpectedly shape a medium\u2019s future.", "poster_path": "/1O8yWBU1TMYcpsLCdFXnSdal9qL.jpg", "release_date": "2017-07-26", "title": "Escapes", "video": false, "vote_average": 6.0, "vote_count": 3, "popularity": 1.374}], "total_pages": 1, "total_results": 1}, "credits": {"cast": [{"cast_id": 1, "character": "Himself", "credit_id": "5aae17f80e0a2665f500c445", "gender": 2, "id": 166002, "name": "Itzhak Perlman", "order": 1, "profile_path": "/tZns0u61WDyWtBlMtxDWsn9UNMa.jpg"}, {"cast_id": 2, "character": "", "credit_id": "5bed2a1b0e0a26329000f59b", "gender": 0, "id": 1656348, "name": "Toby Perlman", "order": 2, "profile_path": null}, {"cast_id": 12, "character": "Self", "credit_id": "5c33d9ae0e0a2663023f4f7a", "gender": 2, "id": 21278, "name": "Alan Alda", "order": 3, "profile_path": "/jzDIL5eaFQ3WorUtwOwoJ7AFX2C.jpg"}, {"cast_id": 13, "character": "Self", "credit_id": "5c33d9b8c3a3682919ae0a89", "gender": 2, "id": 71791, "name": "Billy Joel", "order": 4, "profile_path": "/sXnzN7gfuNoIY1kv422guWYquvx.jpg"}], "crew": [{"credit_id": "5a75cf110e0a266427036594", "department": "Directing", "gender": 0, "id": 231993, "job": "Director", "name": "Alison Chernick", "profile_path": null}, {"credit_id": "5c33d9220e0a2666043e92d2", "department": "Production", "gender": 0, "id": 231993, "job": "Producer", "name": "Alison Chernick", "profile_path": null}, {"credit_id": "5c33d93fc3a36819bba9323d", "department": "Writing", "gender": 0, "id": 231993, "job": "Writer", "name": "Alison Chernick", "profile_path": null}, {"credit_id": "5c33d949c3a3682919ae0a10", "department": "Writing", "gender": 0, "id": 1098837, "job": "Writer", "name": "Helen Yum", "profile_path": null}, {"credit_id": "5c33d95dc3a36819bba9324b", "department": "Production", "gender": 0, "id": 1256151, "job": "Executive Producer", "name": "Michael Kantor", "profile_path": null}, {"credit_id": "5c33d9729251415f3c74396a", "department": "Production", "gender": 0, "id": 2210640, "job": "Executive Producer", "name": "Penny Lieberman", "profile_path": null}, {"credit_id": "5d020528c3a368489e1e6c5c", "department": "Camera", "gender": 0, "id": 939501, "job": "Director of Photography", "name": "Chris Dapkins", "profile_path": null}, {"credit_id": "5d0205329251412b4cb83492", "department": "Camera", "gender": 0, "id": 1300550, "job": "Director of Photography", "name": "Christopher Gallo", "profile_path": null}, {"credit_id": "5d02053f9251412b4cb83498", "department": "Camera", "gender": 0, "id": 1072983, "job": "Director of Photography", "name": "Daniel Kedem", "profile_path": null}, {"credit_id": "5d02054e0e0a261fbbd10d64", "department": "Camera", "gender": 0, "id": 989720, "job": "Director of Photography", "name": "Mikko Timonen", "profile_path": null}]}}