{"adult": false, "backdrop_path": null, "belongs_to_collection": null, "budget": 0, "genres": [{"id": 28, "name": "Action"}, {"id": 18, "name": "Drama"}], "homepage": null, "id": 50295, "imdb_id": "tt0097119", "original_language": "en", "original_title": "Crack House", "overview": "Rick and Melissa are a pair of young lovers hoping to get out of the slums for good and escape the poverty and crime their families and friends have gotten involved in. All this comes to an end when Rick feels he must rejoin his old gang to avenge the killing of his brother by a rival gang. In the course of getting even, Rick is arrested, leaving Melissa without anyone to protect her. She falls in with a crack dealer and quickly becomes addicted to the drug. When she gets sold to a drug kingpin by a minor dealer to pay off a debt, only Rick can save her.", "popularity": 2.341, "poster_path": "/8xtn6SwCy5B6tqANsdsSoUvLI5x.jpg", "production_companies": [{"id": 35933, "logo_path": null, "name": "Silverman Entertainment", "origin_country": ""}, {"id": 1444, "logo_path": "/5jvFLUVXGXxkyszL9cqJN5hNhJ6.png", "name": "Cannon Group", "origin_country": "US"}], "production_countries": [{"iso_3166_1": "US", "name": "United States of America"}], "release_date": "1989-11-10", "revenue": 0, "runtime": 90, "spoken_languages": [{"iso_639_1": "en", "name": "English"}], "status": "Released", "tagline": "Getting in is easy... Getting out is pure hell.", "title": "Crack House", "video": false, "vote_average": 6.0, "vote_count": 1, "keywords": {"keywords": [{"id": 10726, "name": "gang"}, {"id": 11527, "name": "rape victim"}, {"id": 12987, "name": "poverty"}, {"id": 14964, "name": "drugs"}, {"id": 207874, "name": "crack house"}]}, "similar": {"page": 1, "results": [{"adult": false, "backdrop_path": "/yIszPJawrrp6zcb62d7XJnaxAmw.jpg", "genre_ids": [18], "id": 13078, "original_language": "en", "original_title": "The Babysitters", "overview": "Seventeen-year-old Shirley is a good student who works as a babysitter in order to make money for college. One night Michael, a father Shirley works for, confesses he's unhappy with married life. Shirley has a crush on Michael, and seizes this moment to kiss him. Michael is so happy he presents Shirley with a big tip, which gives her an idea. Shirley plans to make extra money by setting up her teenage friends with other unhappy fathers.", "poster_path": "/nsrNUqGXI95unRKZEu8BJ584xWn.jpg", "release_date": "2007-09-11", "title": "The Babysitters", "video": false, "vote_average": 5.3, "vote_count": 153, "popularity": 15.673}, {"id": 339692, "video": false, "vote_count": 1163, "vote_average": 6.9, "title": "Shot Caller", "release_date": "2017-07-13", "original_language": "en", "original_title": "Shot Caller", "genre_ids": [80, 18, 53], "backdrop_path": "/hehboYLXB3m90x9ybiBsupwuifL.jpg", "adult": false, "overview": "A newly-released prison gangster is forced by the leaders of his gang to orchestrate a major crime with a brutal rival gang on the streets of Southern California.", "poster_path": "/qLmLz2wtyYvmW8Ult3l2ngOnW8v.jpg", "popularity": 25.016}, {"id": 4771, "video": false, "vote_count": 2134, "vote_average": 7.3, "title": "Gone Baby Gone", "release_date": "2007-09-18", "original_language": "en", "original_title": "Gone Baby Gone", "genre_ids": [80, 18, 9648], "backdrop_path": "/sogh5NXPbKFajjYKBlfIBfCWgbq.jpg", "adult": false, "overview": "When 4 year old Amanda McCready disappears from her home and the police make little headway in solving the case, the girl's aunt, Beatrice McCready hires two private detectives, Patrick Kenzie and Angie Gennaro. The detectives freely admit that they have little experience with this type of case, but the family wants them for two reasons - they're not cops and they know the tough neighborhood in which they all live. As the case progresses, Kenzie and Gennaro face drug dealers, gangs and pedophiles. When they are about to solve the case, they are faced with a moral dilemma that tears them apart.", "poster_path": "/dXXMPxGiRegd7NNCtE5uchAKRAG.jpg", "popularity": 16.498}, {"adult": false, "backdrop_path": "/kR48L1E3OLOkQcnlmpi5wDj7ZZt.jpg", "genre_ids": [80, 18], "id": 180863, "original_language": "en", "original_title": "T2 Trainspotting", "overview": "After 20 years abroad, Mark Renton returns to Scotland and reunites with his old friends Sick Boy, Spud and Begbie.", "poster_path": "/fbHXfr2N4pI2j7i9RLYiddjotBl.jpg", "release_date": "2017-01-27", "title": "T2 Trainspotting", "video": false, "vote_average": 7.0, "vote_count": 1919, "popularity": 17.054}, {"adult": false, "backdrop_path": "/a0UYovVNPVfWILYT7TzD10xBX3q.jpg", "genre_ids": [18, 53, 80, 9648], "id": 979, "original_language": "fr", "original_title": "Irr\u00e9versible", "overview": "Events over the course of one traumatic night in Paris unfold in reverse-chronological order as the beautiful Alex is brutally raped and beaten by a stranger in the underpass. Her boyfriend and ex-lover take matters into their own hands by hiring two criminals to help them find the rapist so that they can exact revenge. A simultaneously beautiful and terrible examination of the destructive nature of cause and effect, and how time destroys everything.", "poster_path": "/rxeDxo8FvZpLu6iplNpxdtAVnfu.jpg", "release_date": "2002-05-22", "title": "Irreversible", "video": false, "vote_average": 7.1, "vote_count": 1216, "popularity": 20.416}, {"adult": false, "backdrop_path": "/LxmZLr6VHeibkq5DG0LvRKJWrX.jpg", "genre_ids": [80, 18], "id": 7457, "original_language": "en", "original_title": "Alpha Dog", "overview": "Johnny Truelove likes to see himself as tough. He's the son of an underworld figure and a drug dealer. Johnny also likes to get tough when things don't go his way. When Jake Mazursky fails to pay up for Johnny, things get worse for the Mazursky family, as Johnny and his 'gang' kidnap Jake's 15 year old brother and holds him hostage. Problem now is what to do with 'stolen boy?'", "poster_path": "/t9pirEsDxe102mSQGoDZWBbdcCD.jpg", "release_date": "2006-01-27", "title": "Alpha Dog", "video": false, "vote_average": 6.6, "vote_count": 803, "popularity": 14.506}, {"adult": false, "backdrop_path": "/xbW1nnvCCs7eSjf9fTeB4sjbHU9.jpg", "genre_ids": [18], "id": 23949, "original_language": "en", "original_title": "Tape", "overview": "Three old high school friends meet in a Michigan motel room to dissect painful memories from their past.", "poster_path": "/oA9XBHIYFZY2FiYlC9fWtbMt9gG.jpg", "release_date": "2001-11-02", "title": "Tape", "video": false, "vote_average": 7.0, "vote_count": 108, "popularity": 8.788}, {"adult": false, "backdrop_path": "/rPfyX0pkmn8Ea4gh3DfsmzFUf05.jpg", "genre_ids": [18, 27, 80], "id": 74997, "original_language": "en", "original_title": "The Human Centipede 2 (Full Sequence)", "overview": "Inspired by the fictional Dr. Heiter, disturbed loner Martin dreams of creating a 12-person centipede and sets out to realize his sick fantasy.", "poster_path": "/kFtAdkCO0vXN2RWu2oMcR9GZ9Hi.jpg", "release_date": "2011-10-06", "title": "The Human Centipede 2 (Full Sequence)", "video": false, "vote_average": 4.5, "vote_count": 674, "popularity": 14.216}, {"id": 263472, "video": false, "vote_count": 1668, "vote_average": 5.0, "title": "Knock Knock", "release_date": "2015-06-26", "original_language": "en", "original_title": "Knock Knock", "genre_ids": [18, 53], "backdrop_path": "/gJduaRau3X2oE3xkmjs1FufT2GE.jpg", "adult": false, "overview": "When a devoted husband and father is left home alone for the weekend, two stranded young women unexpectedly knock on his door for help. What starts out as a kind gesture results in a dangerous seduction and a deadly game of cat and mouse.", "poster_path": "/eynMtjBB1fXsB5vsQylVmsDLmvw.jpg", "popularity": 21.643}, {"adult": false, "backdrop_path": "/uC54rlRdLMZ46fnrz5SoVYleNyv.jpg", "genre_ids": [18], "id": 4995, "original_language": "en", "original_title": "Boogie Nights", "overview": "Set in 1977, back when sex was safe, pleasure was a business and business was booming, idealistic porn producer Jack Horner aspires to elevate his craft to an art form. Horner discovers Eddie Adams, a hot young talent working as a busboy in a nightclub, and welcomes him into the extended family of movie-makers, misfits and hangers-on that are always around. Adams' rise from nobody to a celebrity adult entertainer is meteoric, and soon the whole world seems to know his porn alter ego, \"Dirk Diggler\". Now, when disco and drugs are in vogue, fashion is in flux and the party never seems to stop, Adams' dreams of turning sex into stardom are about to collide with cold, hard reality.", "poster_path": "/gTq6MPt7SeMiJ2miHeMoNEZTz4p.jpg", "release_date": "1997-10-07", "title": "Boogie Nights", "video": false, "vote_average": 7.6, "vote_count": 1660, "popularity": 21.563}, {"id": 400535, "video": false, "vote_count": 1615, "vote_average": 6.7, "title": "Sicario: Day of the Soldado", "release_date": "2018-06-27", "original_language": "en", "original_title": "Sicario: Day of the Soldado", "genre_ids": [28, 80, 18, 53], "backdrop_path": "/13VjjUeJ6mcDUB36XRu4YFpYNSm.jpg", "adult": false, "overview": "Agent Matt Graver teams up with operative Alejandro Gillick to prevent Mexican drug cartels from smuggling terrorists across the United States border.", "poster_path": "/msqWSQkU403cQKjQHnWLnugv7EY.jpg", "popularity": 29.236}, {"id": 627, "video": false, "vote_count": 6006, "vote_average": 8.0, "title": "Trainspotting", "release_date": "1996-02-23", "original_language": "en", "original_title": "Trainspotting", "genre_ids": [80, 18], "backdrop_path": "/Aw0z8bUhGljT0ots6udf1MTLEMi.jpg", "adult": false, "overview": "Mark Renton, deeply immersed in the Edinburgh drug scene, tries to clean up and get out, despite the allure of the drugs and influence of friends.", "poster_path": "/p1O3eFsdb0GEIYu87xlwV7P4jM1.jpg", "popularity": 35.793}, {"adult": false, "backdrop_path": "/a24i4Qw6qFTtkFLQsncv8WPwevj.jpg", "genre_ids": [53, 28, 80], "id": 345887, "original_language": "en", "original_title": "The Equalizer 2", "overview": "Robert McCall, who serves an unflinching justice for the exploited and oppressed, embarks on a relentless, globe-trotting quest for vengeance when a long-time girl friend is murdered.", "poster_path": "/cQvc9N6JiMVKqol3wcYrGshsIdZ.jpg", "release_date": "2018-07-19", "title": "The Equalizer 2", "video": false, "vote_average": 6.5, "vote_count": 2482, "popularity": 24.261}, {"id": 37094, "video": false, "vote_count": 1728, "vote_average": 7.3, "title": "Falling Down", "release_date": "1993-02-26", "original_language": "en", "original_title": "Falling Down", "genre_ids": [80, 18, 53], "backdrop_path": "/cS45swrlrTJijH1RblBLe8LlW2p.jpg", "adult": false, "overview": "On the day of his daughter's birthday, William \"D-Fens\" Foster is trying to get to the home of his estranged ex-wife to see his daughter. His car breaks down, so he leaves his car in a traffic jam in Los Angeles and decides to walk. He goes to a convenience store and tries to get some change for a phone call, but the Korean owner does not oblige, tipping Foster over the edge. The unstable Foster, so frustrated with the various flaws he sees in society, begins to psychotically and violently lash out against them.", "poster_path": "/s6dnkgQmcaZQiU1omVkyBcrVERR.jpg", "popularity": 15.537}, {"id": 277216, "video": false, "vote_count": 2188, "vote_average": 7.7, "title": "Straight Outta Compton", "release_date": "2015-08-13", "original_language": "en", "original_title": "Straight Outta Compton", "genre_ids": [18, 10402], "backdrop_path": "/fdDTA06o5e7MRXnTGAf4EygL2MJ.jpg", "adult": false, "overview": "In 1987, five young men, using brutally honest rhymes and hardcore beats, put their frustration and anger about life in the most dangerous place in America into the most powerful weapon they had: their music.  Taking us back to where it all began, Straight Outta Compton tells the true story of how these cultural rebels\u2014armed only with their lyrics, swagger, bravado and raw talent\u2014stood up to the authorities that meant to keep them down and formed the world\u2019s most dangerous group, N.W.A.  And as they spoke the truth that no one had before and exposed life in the hood, their voice ignited a social revolution that is still reverberating today.", "poster_path": "/X7S1RtotXOZNV7OlgCfh5VKZSB.jpg", "popularity": 21.041}, {"adult": false, "backdrop_path": "/hEoThfZZpQAyU9HlpEaSO4Ofnbz.jpg", "genre_ids": [28, 35, 27], "id": 429733, "original_language": "en", "original_title": "Mayhem", "overview": "A virus spreads through an office complex causing white collar workers to act out their worst impulses.", "poster_path": "/fF5ULrCAQ8TULXyFGlPlQ2s3Jie.jpg", "release_date": "2017-03-13", "title": "Mayhem", "video": false, "vote_average": 6.3, "vote_count": 271, "popularity": 11.704}, {"id": 319, "video": false, "vote_count": 1440, "vote_average": 7.5, "title": "True Romance", "release_date": "1993-09-09", "original_language": "en", "original_title": "True Romance", "genre_ids": [28, 80, 53, 10749], "backdrop_path": "/f0qqTEyVmmztypEMV3THRdnBjFj.jpg", "adult": false, "overview": "Clarence marries hooker Alabama, steals cocaine from her pimp, and tries to sell it in Hollywood, while the owners of the coke try to reclaim it.", "poster_path": "/xBO8R3CZfrJ9rrwrZoJ68PgJyAR.jpg", "popularity": 21.384}, {"id": 10537, "video": false, "vote_count": 603, "vote_average": 6.9, "title": "The Doors", "release_date": "1991-03-01", "original_language": "en", "original_title": "The Doors", "genre_ids": [18, 10402], "backdrop_path": "/1rv5sW6Qs2YK2iOzIgwH3SJPIl1.jpg", "adult": false, "overview": "The story of the famous and influential 1960s rock band and its lead singer and composer, Jim Morrison.", "poster_path": "/9CkFrWAkg23YynYd2uJLyWznMZZ.jpg", "popularity": 14.573}, {"adult": false, "backdrop_path": "/vncja00Ci4tPNnn4TbF3lF8SGWV.jpg", "genre_ids": [80, 18], "id": 12093, "original_language": "sv", "original_title": "Lilja 4-Ever", "overview": "Lilya lives in poverty and dreams of a better life. Her mother moves to the United States and abandons her to her aunt, who neglects her. Lilya hangs out with her friends, Natasha and Volodya, who is suicidal. Desperate for money, she starts working as a prostitute, and later meets Andrei. He offers her a good job in Sweden, but when Lilya arrives her life quickly enters a downward spiral.", "poster_path": "/1uqtBLEXFO6qxofV9Hm1SigE3WH.jpg", "release_date": "2002-08-23", "title": "Lilya 4-ever", "video": false, "vote_average": 7.8, "vote_count": 265, "popularity": 12.122}, {"id": 9605, "video": false, "vote_count": 278, "vote_average": 6.3, "title": "Single White Female", "release_date": "1992-08-14", "original_language": "en", "original_title": "Single White Female", "genre_ids": [18, 53], "backdrop_path": "/oIrAtnRnQYA2elOZAOMXzimymGy.jpg", "adult": false, "overview": "Attractive Manhattanite Allison Jones has it all: a handsome beau, a rent-controlled apartment, and a promising career as a fashion designer. When boyfriend Sam proves unfaithful, Allison strikes out on her own but must use the classifieds to seek out a roommate in order to keep her spacious digs.", "poster_path": "/3PH1tWrCAtAb7ws5BNYN9j0DnxN.jpg", "popularity": 10.139}], "total_pages": 219, "total_results": 4366}, "recommendations": {"page": 1, "results": [], "total_pages": 1, "total_results": 0}, "credits": {"cast": [{"cast_id": 14, "character": "Steadman", "credit_id": "52fe47c2c3a36847f8146b23", "gender": 2, "id": 4774, "name": "Jim Brown", "order": 0, "profile_path": "/1Wn7swoFBVW4GFVr5MxP46oT6po.jpg"}, {"cast_id": 2, "character": "Dockett", "credit_id": "52fe47c2c3a36847f8146b07", "gender": 2, "id": 92684, "name": "Anthony Geary", "order": 1, "profile_path": "/gCxW4Bx4u1pXSLxXaCCh6Jw0Cq0.jpg"}, {"cast_id": 3, "character": "Lt. Johnson", "credit_id": "52fe47c2c3a36847f8146b0b", "gender": 2, "id": 6487, "name": "Richard Roundtree", "order": 2, "profile_path": "/cF7WMpXLQb6pKHconoUXQ46irQE.jpg"}, {"cast_id": 5, "character": "Mother", "credit_id": "52fe47c2c3a36847f8146b0f", "gender": 1, "id": 45002, "name": "Angel Tompkins", "order": 3, "profile_path": "/uKsybLhwT46UWpA9lsJpaa5SNfP.jpg"}, {"cast_id": 6, "character": "B.T.", "credit_id": "52fe47c2c3a36847f8146b13", "gender": 2, "id": 108188, "name": "Clyde Jones", "order": 4, "profile_path": "/sSJWqS8cBveSoMkSbDVMR3DSZ9C.jpg"}, {"cast_id": 7, "character": "Chico", "credit_id": "52fe47c2c3a36847f8146b17", "gender": 2, "id": 53766, "name": "Albert Michel Jr.", "order": 5, "profile_path": "/99jKLcRRWgiEzc5QLEo39LPNUCB.jpg"}, {"cast_id": 9, "character": "Tripper", "credit_id": "52fe47c2c3a36847f8146b1b", "gender": 0, "id": 112502, "name": "Kenny Edwards", "order": 6, "profile_path": null}, {"cast_id": 16, "character": "Melissa (as Cheryl Kay)", "credit_id": "5446ba210e0a26633600bc1b", "gender": 0, "id": 138680, "name": "Cheryl Butler", "order": 8, "profile_path": null}], "crew": [{"credit_id": "5446b9f9c3a3683df700b8f8", "department": "Directing", "gender": 2, "id": 100645, "job": "Director", "name": "Michael Fischa", "profile_path": null}, {"credit_id": "5b3b96210e0a2673e701afb8", "department": "Production", "gender": 0, "id": 1592439, "job": "Producer", "name": "Joan Weidman", "profile_path": null}, {"credit_id": "5b3b962f0e0a266371010737", "department": "Production", "gender": 0, "id": 1646184, "job": "Producer", "name": "Jim Silverman", "profile_path": null}, {"credit_id": "5b3b967492514139e40102ae", "department": "Production", "gender": 2, "id": 171170, "job": "Producer", "name": "John Quinn", "profile_path": null}, {"credit_id": "5b3b969792514162a20100a2", "department": "Production", "gender": 0, "id": 2077494, "job": "Producer", "name": "Jack Silverman", "profile_path": null}, {"credit_id": "5b3b96a6c3a368161c01526c", "department": "Writing", "gender": 0, "id": 2077495, "job": "Screenplay", "name": "Blake Schaeffer", "profile_path": null}, {"credit_id": "5b3b96d00e0a26637101078e", "department": "Writing", "gender": 0, "id": 2077494, "job": "Story", "name": "Jack Silverman", "profile_path": null}, {"credit_id": "5b3b97410e0a266ad000ffaa", "department": "Sound", "gender": 0, "id": 2077497, "job": "Original Music Composer", "name": "Mike Piccirillo", "profile_path": null}, {"credit_id": "5b3b9750c3a3684de901abee", "department": "Crew", "gender": 0, "id": 1371023, "job": "Cinematography", "name": "Arledge Armenaki", "profile_path": null}, {"credit_id": "5b3b975d92514131ba00ddc1", "department": "Editing", "gender": 1, "id": 22545, "job": "Editor", "name": "Claudia Finkle", "profile_path": null}, {"credit_id": "5b3b976792514131ba00ddd7", "department": "Editing", "gender": 0, "id": 2077499, "job": "Editor", "name": "Bill Swenson", "profile_path": null}]}}