{"adult": false, "backdrop_path": "/bPIKOrtpv2zDqaR9c4mU4BTmyKp.jpg", "belongs_to_collection": null, "budget": 0, "genres": [{"id": 18, "name": "Drama"}], "homepage": null, "id": 50339, "imdb_id": "tt0428965", "original_language": "en", "original_title": "La Petite J\u00e9rusalem", "overview": "An orthodox Jewish teen living with her family in France attempts to balance her religious upbringing with her increasingly complex view of the outside world.", "popularity": 2.98, "poster_path": "/sapSx3uea3PfQi8aSYQtZJ2LxA2.jpg", "production_companies": [{"id": 6941, "logo_path": "/mjl7Tn8vszEPdWIfIg3c6weyjPP.png", "name": "Gloria Films", "origin_country": "FR"}, {"id": 3620, "logo_path": null, "name": "Film Par Film", "origin_country": ""}, {"id": 104, "logo_path": "/9aotxauvc9685tq9pTcRJszuT06.png", "name": "Canal+", "origin_country": "FR"}], "production_countries": [], "release_date": "2005-05-16", "revenue": 0, "runtime": 97, "spoken_languages": [{"iso_639_1": "ar", "name": "\u0627\u0644\u0639\u0631\u0628\u064a\u0629"}, {"iso_639_1": "fr", "name": "Fran\u00e7ais"}], "status": "Released", "tagline": "", "title": "Little Jerusalem", "video": false, "vote_average": 6.7, "vote_count": 3, "keywords": {"keywords": [{"id": 187056, "name": "woman director"}]}, "similar": {"page": 1, "results": [{"adult": false, "backdrop_path": "/cADbqsIoiDW7X3Myg9nz8eAuno5.jpg", "genre_ids": [18, 10749], "id": 10818, "original_language": "fr", "original_title": "Naissance des pieuvres", "overview": "Set during a sultry summer in a French suburb, Marie is desperate to join the local pool's synchronized swimming team, but is her interest solely for the sake of sport or for a chance to get close to Floriane, the bad girl of the team? Sciamma, and the two leads, capture the uncertainty of teenage sexuality with a sympathetic eye in this delicate drama of the angst of coming-of-age.", "poster_path": "/4jajELYrR4Xmv3CVoKnukRnALa2.jpg", "release_date": "2007-05-17", "title": "Water Lilies", "video": false, "vote_average": 6.1, "vote_count": 119, "popularity": 9.614}, {"adult": false, "backdrop_path": "/gZeJziVigmRqbkEZwKAtSqlLQ6s.jpg", "genre_ids": [18, 10749], "id": 370663, "original_language": "en", "original_title": "Below Her Mouth", "overview": "An unexpected affair quickly escalates into a heart-stopping reality for two women whose passionate connection changes their lives forever.", "poster_path": "/nTGbq37hYLuNy7YgMg0gVLma0NS.jpg", "release_date": "2016-09-10", "title": "Below Her Mouth", "video": false, "vote_average": 6.2, "vote_count": 456, "popularity": 18.664}, {"adult": false, "backdrop_path": "/dvQDRfv3qvfHNnVAR57ouVsuErf.jpg", "genre_ids": [10749, 18], "id": 28031, "original_language": "en", "original_title": "If These Walls Could Talk 2", "overview": "The stories of three lesbian couples -- who live in the same house at different periods of time -- who are at a crossroads in their lives. In 1961, Edith loses her lover, Abby, to a stroke. Linda and Amy struggle with feminist issues in 1972. And, in 2000, Kal and Fran try to have a baby with the help of sperm donor.", "poster_path": "/xs7ODbmYQXCDhvXNvz5tF17T59H.jpg", "release_date": "2000-03-05", "title": "If These Walls Could Talk 2", "video": false, "vote_average": 7.1, "vote_count": 55, "popularity": 8.86}, {"adult": false, "backdrop_path": "/knczzNAjBXzSYkeWxoT1u9VNmjR.jpg", "genre_ids": [10749, 18], "id": 258480, "original_language": "en", "original_title": "Carol", "overview": "In 1950s New York, a department-store clerk who dreams of a better life falls for an older, married woman.", "poster_path": "/AbKa7ANxmui0Jmhh7gV7OSELKIL.jpg", "release_date": "2015-11-20", "title": "Carol", "video": false, "vote_average": 7.4, "vote_count": 2184, "popularity": 13.539}, {"adult": false, "backdrop_path": "/fZ8oFcREAr6wgWcXISGql0xyxjB.jpg", "genre_ids": [35, 18], "id": 39781, "original_language": "en", "original_title": "The Kids Are All Right", "overview": "Two women, Nic and Jules, brought a son and daughter into the world through artificial insemination. When one of their children reaches age, both kids go behind their mothers' backs to meet with the donor. Life becomes so much more interesting when the father, two mothers and children start to become attached to each other.", "poster_path": "/fPDeK4MmoGfi2X0oWZev7LrbMqM.jpg", "release_date": "2010-07-09", "title": "The Kids Are All Right", "video": false, "vote_average": 6.6, "vote_count": 923, "popularity": 12.159}, {"adult": false, "backdrop_path": "/rf6G51j0SZL0tP57I8gnqHTRFEr.jpg", "genre_ids": [35, 18, 10749], "id": 273153, "original_language": "fr", "original_title": "La belle saison", "overview": "In 1971, Carole and Delphine meet and fall in love in Paris. When Carole follows Delphine back to her family farm in Limousin, the two find lesbianism and feminism are not as easy in the countryside.", "poster_path": "/evvAkNMO5VJiy5qIo1Hu7fUfvVI.jpg", "release_date": "2015-08-19", "title": "Summertime", "video": false, "vote_average": 6.6, "vote_count": 162, "popularity": 11.575}, {"adult": false, "backdrop_path": "/s12HEmmkJfI2mjltI61hGm5kubD.jpg", "genre_ids": [35, 18, 10749], "id": 20770, "original_language": "en", "original_title": "But I'm a Cheerleader", "overview": "Megan is an all-American girl. A cheerleader. She has a boyfriend. But Megan doesn't like kissing her boyfriend very much. And she's pretty touchy with her cheerleader friends. Her conservative parents worry that she must be a lesbian and send her off to \"sexual redirection\" school, where she must, with other lesbians and gays learn how to be straight.", "poster_path": "/eDGH7CHSdkrYcuUJV1e0WS9DlQL.jpg", "release_date": "1999-12-09", "title": "But I'm a Cheerleader", "video": false, "vote_average": 6.8, "vote_count": 246, "popularity": 9.011}, {"id": 9813, "video": false, "vote_count": 128, "vote_average": 6.1, "title": "The Quiet", "release_date": "2005-09-12", "original_language": "en", "original_title": "The Quiet", "genre_ids": [18, 53], "backdrop_path": "/6eyWAZA4CEidZW1xXnQ4vlYBXTP.jpg", "adult": false, "overview": "After her widowed father dies, deaf teenager Dot moves in with her godparents, Olivia and Paul Deer. The Deers' daughter, Nina, is openly hostile to Dot, but that does not prevent her from telling her secrets to her silent stepsister, including the fact that she wants to kill her lecherous father.", "poster_path": "/GEqIE9YlmygHVUfS64LW2cwAAM.jpg", "popularity": 14.844}, {"adult": false, "backdrop_path": "/tzqeuHWMFihFbiLGHdalPgAcSf6.jpg", "genre_ids": [18, 10749], "id": 18620, "original_language": "en", "original_title": "Go Fish", "overview": "Max is a trendy, pretty, young lesbian, who is having trouble finding love. A friend sets her up with Ely, whom Max likes, but Ely is frumpy, homely, and older. Nor do they have much in common. Can Max learn to look past the packaging?", "poster_path": "/qrEFYrwykaGsY8NULYuYLLI7zrM.jpg", "release_date": "1994-06-10", "title": "Go Fish", "video": false, "vote_average": 5.0, "vote_count": 11, "popularity": 3.676}, {"adult": false, "backdrop_path": "/6tern9vOEwwmkDYC1vRCuO64z0C.jpg", "genre_ids": [10749, 18], "id": 475888, "original_language": "en", "original_title": "Tell It to the Bees", "overview": "Dr. Jean Markham returns to the town she left as a teenager to take over her late father's medical practice. When a school-yard scuffle lands Charlie in her surgery, she invites him to visit the hives in her garden and tell his secrets to the bees, as she once did. The new friendship between the boy and the bee keeper brings his mother Lydia into Jean's world.", "poster_path": "/Rj6zpHhMU1zFW3v28U4PSRSRgP.jpg", "release_date": "2019-05-03", "title": "Tell It to the Bees", "video": false, "vote_average": 6.4, "vote_count": 53, "popularity": 13.175}, {"adult": false, "backdrop_path": "/baYbbMtKRDoDWYJeVWkbygAvAj8.jpg", "genre_ids": [18, 10749], "id": 31216, "original_language": "en", "original_title": "I Can't Think Straight", "overview": "I CAN'T THINK STRAIGHT is a 2007 romance movie about a London-based Jordanian of Palestinian descent, Tala, who is preparing for an elaborate wedding. A turn of events causes her to have an affair and subsequently fall in love with another woman, Leyla, a British Indian.", "poster_path": "/1kapga6rkM5wNuQBYw7sdE42CrA.jpg", "release_date": "2008-06-01", "title": "I Can't Think Straight", "video": false, "vote_average": 7.6, "vote_count": 109, "popularity": 7.815}, {"adult": false, "backdrop_path": "/lI5h8KaoeObu4NMTwzeRuUHzRwD.jpg", "genre_ids": [18, 9648, 53], "id": 401898, "original_language": "no", "original_title": "Thelma", "overview": "A college student starts to experience extreme seizures. She soon learns that the violent episodes are a symptom of inexplicable abilities.", "poster_path": "/yzSfG8TLAqw7nMQh2lxirQkQpgs.jpg", "release_date": "2017-09-15", "title": "Thelma", "video": false, "vote_average": 7.1, "vote_count": 418, "popularity": 13.105}, {"adult": false, "backdrop_path": "/tIFRPjIXQ3sYrmxbIeOu9K1JkUz.jpg", "genre_ids": [18, 10749], "id": 294, "original_language": "en", "original_title": "Desert Hearts", "overview": "The story of straight-edge literature professor Vivian who travels to Reno to get away from a relationship breakup when she falls in love with an attractive and unconventional girl named Cay.", "poster_path": "/b8JSmQSpYYJhctMtxNgqh0elENg.jpg", "release_date": "1985-10-01", "title": "Desert Hearts", "video": false, "vote_average": 7.3, "vote_count": 58, "popularity": 6.976}, {"id": 2255, "video": false, "vote_count": 772, "vote_average": 6.8, "title": "Chasing Amy", "release_date": "1997-04-04", "original_language": "en", "original_title": "Chasing Amy", "genre_ids": [35, 18, 10749], "backdrop_path": "/doKYVK61Vb8J1KUjlb9dNWkQNp6.jpg", "adult": false, "overview": "Holden and Banky are comic book artists. Everything is going good for them until they meet Alyssa, also a comic book artist. Holden falls for her, but his hopes are crushed when he finds out she's a lesbian.", "poster_path": "/4vFJileWrCGaBeobCmF0tXpQCUb.jpg", "popularity": 13.95}, {"adult": false, "backdrop_path": "/hD8DQM72Xacg1d3mFqS0eN8vKYw.jpg", "genre_ids": [18], "id": 8272, "original_language": "en", "original_title": "The Savages", "overview": "A sister and brother face the realities of familial responsibility as they begin to care for their ailing father.", "poster_path": "/nY54gSmTOmSXlQpWDB7DWp4u8a7.jpg", "release_date": "2007-01-19", "title": "The Savages", "video": false, "vote_average": 6.9, "vote_count": 192, "popularity": 9.466}, {"adult": false, "backdrop_path": "/g3LYarEY9LjB28Ct2trwFN72gqZ.jpg", "genre_ids": [35], "id": 437557, "original_language": "en", "original_title": "Blockers", "overview": "When three parents discover their daughters\u2019 pact to lose their virginity at prom, they launch a covert one-night operation to stop the teens from sealing the deal.", "poster_path": "/uvlUQXg0AlpGzKukO11K7QtW3Yu.jpg", "release_date": "2018-03-14", "title": "Blockers", "video": false, "vote_average": 6.2, "vote_count": 1155, "popularity": 17.886}, {"adult": false, "backdrop_path": "/zBB1mzmqnUuSrlTuf0SFFlI1EoJ.jpg", "genre_ids": [18], "id": 244772, "original_language": "en", "original_title": "The Skeleton Twins", "overview": "Estranged twins Maggie and Milo coincidentally cheat death on the same day, prompting them to reunite and confront the reasons their lives went so wrong. As the twins' reunion reinvigorates them, they realize the key to fixing their lives may just lie in repairing their relationship.", "poster_path": "/vvmv1R2jDXJeeeyYcGg0ypXc2XK.jpg", "release_date": "2014-09-12", "title": "The Skeleton Twins", "video": false, "vote_average": 6.7, "vote_count": 416, "popularity": 10.481}, {"adult": false, "backdrop_path": "/3YGy88nTV2e0wxZcKI1goiEN9oy.jpg", "genre_ids": [18, 10749], "id": 37636, "original_language": "en", "original_title": "High Art", "overview": "A young female intern at a small magazine company becomes involved with a drug-addicted lesbian photographer, both of whom seek to exploit each other for their respective careers, while slowly falling in love with each other.", "poster_path": "/qTg05RNJIvb9w4Z7XIcAZxuZmTn.jpg", "release_date": "1998-06-12", "title": "High Art", "video": false, "vote_average": 6.6, "vote_count": 61, "popularity": 7.422}, {"adult": false, "backdrop_path": "/caLMOD3ZJ3V7qjlxDXrzlJfBLgD.jpg", "genre_ids": [18, 10749], "id": 20, "original_language": "en", "original_title": "My Life Without Me", "overview": "A Pedro Almodovar production in which a fatally ill mother with only two months to live creates a list of things she wants to do before she dies with out telling her family of her illness.", "poster_path": "/vVj92VBFUBzjqzLvBiPVVlJDp78.jpg", "release_date": "2003-03-07", "title": "My Life Without Me", "video": false, "vote_average": 6.1, "vote_count": 220, "popularity": 10.382}, {"adult": false, "backdrop_path": "/useuHJQ5HOoEWkAvEjL1FW1sUfe.jpg", "genre_ids": [18], "id": 376867, "original_language": "en", "original_title": "Moonlight", "overview": "The tender, heartbreaking story of a young man\u2019s struggle to find himself, told across three defining chapters in his life as he experiences the ecstasy, pain, and beauty of falling in love, while grappling with his own sexuality.", "poster_path": "/qAwFbszz0kRyTuXmMeKQZCX3Q2O.jpg", "release_date": "2016-10-21", "title": "Moonlight", "video": false, "vote_average": 7.4, "vote_count": 4410, "popularity": 21.716}], "total_pages": 1446, "total_results": 28909}, "recommendations": {"page": 1, "results": [{"adult": false, "backdrop_path": "/oaozIAA7744r1zPsA6IMMKF4nTJ.jpg", "genre_ids": [35, 18], "id": 78344, "original_language": "en", "original_title": "Ha-Kochavim Shel Shlomi", "overview": "16 years old Shlomi lives with his restless mother, his soldier brother and their ill grandfather. Although not doing well in school, Shlomi is a gifted cook and takes care of most household chores. One day, the school's principal finds out Shlomi is actually a genius and tries to get him into a more suitable curriculum. However, Shlomi is more interested in taking care of his family and his new love interest, the beautiful girl next door.", "poster_path": "/xEynm3sANtD1bl302Afg1dx8Nei.jpg", "release_date": "2003-04-03", "title": "Bonjour Monsieur Shlomi", "video": false, "vote_average": 7.0, "vote_count": 7, "popularity": 3.328}, {"adult": false, "backdrop_path": "/yiF7ouSisfT5xLkH6tQesxk6G7.jpg", "genre_ids": [18], "id": 28705, "original_language": "en", "original_title": "Karov La Bayit", "overview": "Smadar (Smadar Sayar) and Mirit (Naama Schendar), both 18 years old, are assigned to patrol the streets of Jerusalem together as part of their military service. Worlds apart in their personality their initial frosty relationship changes to friendship as they deal with their own emotional issues, the crushes and break-ups in their love lives, as well as the political realities.", "poster_path": "/4Olbv8kjEEpDaGjeTdt09wp6i16.jpg", "release_date": "2005-07-15", "title": "Close to Home", "video": false, "vote_average": 6.3, "vote_count": 9, "popularity": 2.939}, {"adult": false, "backdrop_path": "/zXpnGPaFe0hsfDGzh9iralOYcYk.jpg", "genre_ids": [18], "id": 74666, "original_language": "he", "original_title": "Kalat Hayam", "overview": "In the city of Jaffa; a young girl plans to run away with her secret lover, when a tragedy forever changes the course of their lives.", "poster_path": "/yLB6mTTAOehyOXmp2hXNgVAJhWc.jpg", "release_date": "2009-06-10", "title": "Jaffa", "video": false, "vote_average": 5.6, "vote_count": 10, "popularity": 2.152}, {"adult": false, "backdrop_path": "/1hiDuC4okqXhZfsfnHOiM2htPRY.jpg", "genre_ids": [18, 35, 10749], "id": 6391, "original_language": "he", "original_title": "Meduzot", "overview": "Meduzot (the Hebrew word for Jellyfish) tells the story of three very different Israeli women living in Tel Aviv whose intersecting stories weave an unlikely portrait of modern Israeli life. Batya, a catering waitress, takes in a young child apparently abandoned at a local beach. Batya is one of the servers at the wedding reception of Keren, a young bride who breaks her leg in trying to escape from a locked toilet stall, which ruins her chance at a romantic honeymoon in the Caribbean. One of the guests is Joy, a Philippine chore woman attending the event with her employer, and who doesn't speak any Hebrew (she communicates mainly in English), and who is guilt-ridden after having left her young son behind in the Philippines.", "poster_path": "/hTCagyFazmGez993bLX9XgG3GiP.jpg", "release_date": "2007-05-05", "title": "Jellyfish", "video": false, "vote_average": 6.9, "vote_count": 16, "popularity": 2.712}, {"adult": false, "backdrop_path": "/s2XyJwZ2nmtbCT8ZE3oPlm0yq1j.jpg", "genre_ids": [28, 35, 10749], "id": 2004, "original_language": "de", "original_title": "Kebab Connection", "overview": "In Hamburg, Ibrahim \"Ibo\" Secmez, of Turkish descent, wants to direct the first German kung-fu movie. For now, he makes commercials for his uncle's kebab restaurant. Titzie, an aspiring actress and Ibo's German girlfriend, finds she's pregnant. Ibo is uncertain about fatherhood - compounded by his father's disowning him for getting a German girl pregnant - so Titzie sends him packing. He makes attempts at getting it right, but as the birth approaches, he's still not ready. In the background are three thugs in search of good tripe soup and a Capulet-Montegue feud between the kebab joint and a Greek taverna across the street. Can Ibo be the glove upon that hand?", "poster_path": "/nVVBqPegOB6fp7fXOJ4JoQFCvsZ.jpg", "release_date": "2004-04-21", "title": "Kebab Connection", "video": false, "vote_average": 6.3, "vote_count": 34, "popularity": 4.298}, {"adult": false, "backdrop_path": "/1NgaEIv3ucwTpe0oVsr6rR427go.jpg", "genre_ids": [18, 10402], "id": 110550, "original_language": "en", "original_title": "I Used to Be Darker", "overview": "When Taryn, a Northern Irish runaway, finds herself in trouble in Ocean City, MD, she seeks refuge with her aunt and uncle in Baltimore. But Kim and Bill have problems of their own: they\u2019re trying to handle the end of their marriage gracefully for the sake of their daughter Abby, just home from her first year of college. A story of family revelations, people finding each other and letting each other go, looking for love where they\u2019ve found it before and, when that doesn\u2019t work, figuring out where they might find it next.", "poster_path": "/3nuGtSlgOZpibwKy1df8h8yb5sY.jpg", "release_date": "2013-10-04", "title": "I Used to Be Darker", "video": false, "vote_average": 6.1, "vote_count": 17, "popularity": 4.853}, {"id": 15292, "video": false, "vote_count": 20, "vote_average": 7.3, "title": "Step Into Liquid", "release_date": "2003-08-05", "original_language": "en", "original_title": "Step Into Liquid", "genre_ids": [99, 18], "backdrop_path": "/xz1Go2wQDwlDTgYS1Fm0Km7rX0Y.jpg", "adult": false, "overview": "No special effects. No stuntmen. No stereotypes. No other feeling comes close. Surfers and secret spots from around the world are profiled in this documentary.", "poster_path": "/nymvCM2hiOjMM9ICYcfX7Tpc9qq.jpg", "popularity": 4.275}], "total_pages": 1, "total_results": 7}, "credits": {"cast": [{"cast_id": 2, "character": "Laura", "credit_id": "52fe47c4c3a36847f8147079", "gender": 1, "id": 144760, "name": "Fanny Valette", "order": 0, "profile_path": "/mVfqIvwVoqTRGQrzvKRdVFRoE2A.jpg"}, {"cast_id": 4, "character": "Mathilde", "credit_id": "52fe47c4c3a36847f8147083", "gender": 1, "id": 39195, "name": "Elsa Zylberstein", "order": 1, "profile_path": "/bw1bIuyfyOyxRlx2qIKk4AwQLTU.jpg"}, {"cast_id": 5, "character": "Ariel", "credit_id": "52fe47c4c3a36847f8147087", "gender": 2, "id": 56285, "name": "Bruno Todeschini", "order": 2, "profile_path": "/pQTC4RrrEbshv5B5nDsykPQw1tq.jpg"}, {"cast_id": 6, "character": "Eric", "credit_id": "52fe47c4c3a36847f814708b", "gender": 0, "id": 125412, "name": "Micha\u00ebl Cohen", "order": 3, "profile_path": "/8G2WIiQ67Y7aW2txMQLTtVgKO8h.jpg"}], "crew": [{"credit_id": "52fe47c4c3a36847f8147075", "department": "Directing", "gender": 0, "id": 143402, "job": "Director", "name": "Karin Albou", "profile_path": "/alw3QSfWNT8RmYW9PDO4bMFtVQ8.jpg"}, {"credit_id": "52fe47c4c3a36847f814707f", "department": "Writing", "gender": 0, "id": 143402, "job": "Writer", "name": "Karin Albou", "profile_path": "/alw3QSfWNT8RmYW9PDO4bMFtVQ8.jpg"}]}}