{"adult": false, "backdrop_path": "/xCMdS7EtrqJeBjYuwaLNFgu9LIi.jpg", "belongs_to_collection": null, "budget": 0, "genres": [{"id": 35, "name": "Comedy"}], "homepage": "", "id": 50377, "imdb_id": "tt0079136", "original_language": "en", "original_title": "Fast Break", "overview": "David Greene is a New York basketball enthusiast, who wants to coach. He is then offered the coaching job at a small Nevada college. He brings along some players, who are a bit odd but good. Like Swish who unknown to the rest of the team is a girl. Preacher, who's being sought by some nefarious characters. And D.C., who's a fugitive. And along with some of the students at the college, he turns them into a contender. In order to give the tam the respect they deserve and some exposure, Greene schemes to try and get the number 1 team led by Bo Winnegar, to play them.", "popularity": 3.163, "poster_path": "/glnW4JLrReRrmCVB7gGhtKaixTQ.jpg", "production_companies": [{"id": 4255, "logo_path": null, "name": "Kings Road Entertainment", "origin_country": "US"}], "production_countries": [{"iso_3166_1": "US", "name": "United States of America"}], "release_date": "1979-03-02", "revenue": 0, "runtime": 107, "spoken_languages": [{"iso_639_1": "en", "name": "English"}], "status": "Released", "tagline": "Gabe Kaplan's having a ball! - His dream team's got a preacher, a jailbird, a pool shark, a muscleman. And the best guy on the team is a girl.", "title": "Fast Break", "video": false, "vote_average": 5.5, "vote_count": 3, "keywords": {"keywords": [{"id": 6075, "name": "sport"}, {"id": 6496, "name": "basketball"}]}, "similar": {"page": 1, "results": [{"adult": false, "backdrop_path": "/n1Gh3MJAVvXmkgSDf3SOLlPCjag.jpg", "genre_ids": [35, 18, 10749], "id": 9390, "original_language": "en", "original_title": "Jerry Maguire", "overview": "Jerry Maguire used to be a typical sports agent: willing to do just about anything he could to get the biggest possible contracts for his clients, plus a nice commission for himself. Then, one day, he suddenly has second thoughts about what he's really doing. When he voices these doubts, he ends up losing his job and all of his clients, save Rod Tidwell, an egomaniacal football player.", "poster_path": "/99YTEdKOKDRClsscOpJfdkbaTrQ.jpg", "release_date": "1996-12-13", "title": "Jerry Maguire", "video": false, "vote_average": 6.9, "vote_count": 1796, "popularity": 20.431}, {"adult": false, "backdrop_path": "/kBTdPNTAzagAY6UiwY957KCDGuu.jpg", "genre_ids": [16, 35, 10751], "id": 2300, "original_language": "en", "original_title": "Space Jam", "overview": "Swackhammer, an evil alien theme park owner, needs a new attraction at Moron Mountain. When his gang, the Nerdlucks, heads to Earth to kidnap Bugs Bunny and the Looney Tunes, Bugs challenges them to a basketball game to determine their fate. The aliens agree, but they steal the powers of NBA basketball players, including Larry Bird and Charles Barkley -- so Bugs gets some help from superstar Michael Jordan.", "poster_path": "/xI9AwhOWtsbFlS8tYD2PXa80p7u.jpg", "release_date": "1996-11-15", "title": "Space Jam", "video": false, "vote_average": 6.7, "vote_count": 3180, "popularity": 17.288}, {"adult": false, "backdrop_path": "/qVjKZMB0IdOc2JlwiiGsuKTvTJs.jpg", "genre_ids": [18], "id": 22881, "original_language": "en", "original_title": "The Blind Side", "overview": "The story of Michael Oher, a homeless and traumatized boy who became an All American football player and first round NFL draft pick with the help of a caring woman and her family", "poster_path": "/wEGFSgPebLk6g1ngKsJ6a46PYLV.jpg", "release_date": "2009-11-20", "title": "The Blind Side", "video": false, "vote_average": 7.5, "vote_count": 3212, "popularity": 42.202}, {"adult": false, "backdrop_path": "/jK3EAFk3GdOaQfUDCOiTujzMpwH.jpg", "genre_ids": [18], "id": 389015, "original_language": "en", "original_title": "I, Tonya", "overview": "Competitive ice skater Tonya Harding rises amongst the ranks at the U. S. Figure Skating Championships, but her future in the sport is thrown into doubt when her ex-husband intervenes.", "poster_path": "/6gNXwSHxaksR1PjVZRqNapmkgj3.jpg", "release_date": "2017-12-08", "title": "I, Tonya", "video": false, "vote_average": 7.5, "vote_count": 3332, "popularity": 20.099}, {"id": 8923, "video": false, "vote_count": 1359, "vote_average": 7.2, "title": "Green Street Hooligans", "release_date": "2005-09-09", "original_language": "en", "original_title": "Green Street Hooligans", "genre_ids": [80, 18], "backdrop_path": "/oasVTD3UpTEjhTAVx9ZCy1k19Qv.jpg", "adult": false, "overview": "After being wrongfully expelled from Harvard University, American Matt Buckner flees to his sister's home in England. Once there, he is befriended by her charming and dangerous brother-in-law, Pete Dunham, and introduced to the underworld of British football hooliganism. Matt learns to stand his ground through a friendship that develops against the backdrop of this secret and often violent world. 'Green Street Hooligans' is a story of loyalty, trust and the sometimes brutal consequences of living close to the edge.", "poster_path": "/z3LC4kI8azbeuHRGgDdWo6VBCdX.jpg", "popularity": 20.194}, {"adult": false, "backdrop_path": "/9lrM0o89ASyHmDgMLfCbU5qdsAm.jpg", "genre_ids": [35, 18], "id": 9291, "original_language": "en", "original_title": "The Longest Yard", "overview": "Pro quarter-back, Paul Crewe and former college champion and coach, Nate Scarboro are doing time in the same prison. Asked to put together a team of inmates to take on the guards, Crewe enlists the help of Scarboro to coach the inmates to victory in a football game 'fixed' to turn out quite another way.", "poster_path": "/ag6q9euZABqbHtbDhoRT9xEYltP.jpg", "release_date": "2005-05-27", "title": "The Longest Yard", "video": false, "vote_average": 6.4, "vote_count": 1766, "popularity": 16.3}, {"adult": false, "backdrop_path": "/9o1Ni0t6kdDWS8SV3G8y0AJTSrZ.jpg", "genre_ids": [35], "id": 13260, "original_language": "en", "original_title": "Semi-Pro", "overview": "Jackie Moon is the owner, promoter, coach, and star player of the Flint Michigan Tropics of the American Basketball Association (ABA). In 1976 before the ABA collapses, the National Basketball Association (NBA) plans to merge with the best teams of the ABA at the end of the season. Only the top four teams will make the move and the worst teams will fold. The Tropics are the worst team in the league and if they want to make it to the NBA, Jackie Moon must rally his team and start winning. The only problem is the fact that Jackie Moon is not really the coach and star basketball player he thinks he is. To keep his team from oblivion and leave his mark in the city, Jackie Moon must inspire his team to win fourth place in the playoffs.", "poster_path": "/idFmbYkCmBqZ1YbzLEqeplmbBrc.jpg", "release_date": "2008-02-28", "title": "Semi-Pro", "video": false, "vote_average": 5.6, "vote_count": 465, "popularity": 15.004}, {"adult": false, "backdrop_path": "/mYKP6qcDUimVMAHQWLOuDHjO19S.jpg", "genre_ids": [35], "id": 445629, "original_language": "en", "original_title": "Fighting with My Family", "overview": "Born into a tight-knit wrestling family, Paige and her brother Zak are ecstatic when they get the once-in-a-lifetime opportunity to try out for the WWE. But when only Paige earns a spot in the competitive training program, she must leave her loved ones behind and face this new cutthroat world alone. Paige's journey pushes her to dig deep and ultimately prove to the world that what makes her different is the very thing that can make her a star.", "poster_path": "/cVhe15rJLRjolunSWLBN6xQLyGU.jpg", "release_date": "2019-02-14", "title": "Fighting with My Family", "video": false, "vote_average": 6.7, "vote_count": 643, "popularity": 18.498}, {"id": 37136, "video": false, "vote_count": 1997, "vote_average": 7.2, "title": "The Naked Gun: From the Files of Police Squad!", "release_date": "1988-12-02", "original_language": "en", "original_title": "The Naked Gun: From the Files of Police Squad!", "genre_ids": [35, 80], "backdrop_path": "/vBvfE7oUpJggU1Cf4UXgeeXocsg.jpg", "adult": false, "overview": "When the incompetent Officer Frank Drebin seeks the ruthless killer of his partner, he stumbles upon an attempt to assassinate Queen Elizabeth.", "poster_path": "/gajZQkZjVXPuLJUMoEk1eVeZz61.jpg", "popularity": 16.388}, {"id": 522924, "video": false, "vote_count": 151, "vote_average": 8.1, "title": "The Art of Racing in the Rain", "release_date": "2019-08-08", "original_language": "en", "original_title": "The Art of Racing in the Rain", "genre_ids": [35, 18, 10749], "backdrop_path": "/6esNUoXh4xQvucB7o7e3TCfjI65.jpg", "adult": false, "overview": "A family dog\u2014with a near-human soul and a philosopher's mind\u2014evaluates his life through the lessons learned by his human owner, a race-car driver.", "poster_path": "/mi5VN4ww0JZgRFJIaPxxTGKjUg7.jpg", "popularity": 15.11}, {"id": 703, "video": false, "vote_count": 2272, "vote_average": 7.8, "title": "Annie Hall", "release_date": "1977-04-19", "original_language": "en", "original_title": "Annie Hall", "genre_ids": [35, 18, 10749], "backdrop_path": "/8iNt5LGxpX9XeNWJgjx17xfTT7u.jpg", "adult": false, "overview": "New York comedian Alvy Singer falls in love with the ditsy Annie Hall.", "poster_path": "/bK9bLXwxWuXX5mbq75PZqjvAtfG.jpg", "popularity": 14.556}, {"id": 651, "video": false, "vote_count": 478, "vote_average": 7.1, "title": "M*A*S*H", "release_date": "1970-01-24", "original_language": "en", "original_title": "M*A*S*H", "genre_ids": [35, 18, 10752], "backdrop_path": "/l5YH6TCYi2mgZwXbDjF71iA9UBP.jpg", "adult": false, "overview": "The staff of a Korean War field hospital use humor and high jinks to keep their sanity in the face of the horror of war.", "poster_path": "/cscyvJ4nDgbqewrttPXZ5EYOdwa.jpg", "popularity": 12.777}, {"id": 387592, "video": false, "vote_count": 393, "vote_average": 6.0, "title": "Early Man", "release_date": "2018-01-26", "original_language": "en", "original_title": "Early Man", "genre_ids": [12, 16, 35, 10751], "backdrop_path": "/9m71RMP45mg599xtKPyjicyHn1a.jpg", "adult": false, "overview": "Dug, along with his sidekick Hognob, unite a cavemen tribe to save their hidden valley from being spoiled and, all together as a team, to face the menace of a mysterious and mighty enemy, on the turf of an ancient and sacred sport.", "poster_path": "/5iW2rntwLZoGlFCYYy8TjHyblbw.jpg", "popularity": 14.887}, {"adult": false, "backdrop_path": "/eD8PxfDsmWyUcj2LzQ9Ha2O7UvB.jpg", "genre_ids": [99], "id": 614423, "original_language": "en", "original_title": "Collingwood: From The Inside Out", "overview": "An  intimate look at Collingwood Football Club as it rebuilds itself and aims for glory over the course of the 2018 season.", "poster_path": "/dsJMvBJ7M2HvGkJdhW4nKNHEgDs.jpg", "release_date": "2019-08-15", "title": "Collingwood: From The Inside Out", "video": false, "vote_average": 1.0, "vote_count": 1, "popularity": 1.883}, {"adult": false, "backdrop_path": "/20IgqkdFw5kuItqDCJtidSESP0t.jpg", "genre_ids": [27, 18], "id": 10066, "original_language": "en", "original_title": "House of Wax", "overview": "A group of unwitting teens are stranded near a strange wax museum and soon must fight to survive and keep from becoming the next exhibit.", "poster_path": "/uM1RebQywM5PPYsauayefpXGxVk.jpg", "release_date": "2005-04-30", "title": "House of Wax", "video": false, "vote_average": 5.7, "vote_count": 1532, "popularity": 16.398}, {"id": 630633, "video": false, "vote_count": 0, "vote_average": 0.0, "title": "Varane : Destin de Champion", "release_date": "2019-09-23", "original_language": "fr", "original_title": "Varane : Destin de Champion", "genre_ids": [99], "backdrop_path": null, "adult": false, "overview": "", "poster_path": "/ecUI8DO8lfk5FUca0IF2SNgsgtn.jpg", "popularity": 1.548}, {"id": 107, "video": false, "vote_count": 5247, "vote_average": 7.8, "title": "Snatch", "release_date": "2000-09-01", "original_language": "en", "original_title": "Snatch", "genre_ids": [80, 53], "backdrop_path": "/cNLZ7YGRikb4IsLblrzu86ndZPw.jpg", "adult": false, "overview": "The second film from British director Guy Ritchie. Snatch tells an obscure story similar to his first fast-paced crazy character-colliding filled film \u201cLock, Stock and Two Smoking Barrels.\u201d There are two overlapping stories here \u2013 one is the search for a stolen diamond, and the other about a boxing promoter who\u2019s having trouble with a psychotic gangster.", "poster_path": "/on9JlbGEccLsYkjeEph2Whm1DIp.jpg", "popularity": 25.36}, {"id": 391757, "video": false, "vote_count": 185, "vote_average": 6.5, "title": "Never Back Down: No Surrender", "release_date": "2016-06-07", "original_language": "en", "original_title": "Never Back Down: No Surrender", "genre_ids": [28, 18], "backdrop_path": "/pzjnObK3uiHcKwiir9OPPWzbW8f.jpg", "adult": false, "overview": "Picking up after the events of Never Back Down 2, former MMA champion Case Walker is on the comeback trail to become champion once again.", "poster_path": "/dYNS4o4Q4DDLiKRAAvZ9KcrhHuy.jpg", "popularity": 15.446}, {"id": 396371, "video": false, "vote_count": 1970, "vote_average": 7.1, "title": "Molly's Game", "release_date": "2017-12-25", "original_language": "en", "original_title": "Molly's Game", "genre_ids": [80, 18], "backdrop_path": "/rHcBZ6ZKCe4FalWHyvBGsyMsh0k.jpg", "adult": false, "overview": "Molly Bloom, a young skier and former Olympic hopeful becomes a successful entrepreneur (and a target of an FBI investigation) when she establishes a high-stakes, international poker game.", "poster_path": "/in43bQ7k0ttr666IPP94IlbQbTR.jpg", "popularity": 18.141}, {"id": 44833, "video": false, "vote_count": 3512, "vote_average": 5.6, "title": "Battleship", "release_date": "2012-04-11", "original_language": "en", "original_title": "Battleship", "genre_ids": [28, 12, 878, 53], "backdrop_path": "/rLhO767vwqRfUBmJOqvEmt5myIF.jpg", "adult": false, "overview": "When mankind beams a radio signal into space, a reply comes from \u2018Planet G\u2019, in the form of several alien crafts that splash down in the waters off Hawaii. Lieutenant Alex Hopper is a weapons officer assigned to the USS John Paul Jones, part of an international naval coalition which becomes the world's last hope for survival as they engage the hostile alien force of unimaginable strength. While taking on the invaders, Hopper must also try to live up to the potential that his brother, and his fianc\u00e9e's father, Admiral Shane, expect of him.", "poster_path": "/7hN6WtMepoMZyeHZU2DM21cEj3z.jpg", "popularity": 24.873}], "total_pages": 178, "total_results": 3556}, "recommendations": {"page": 1, "results": [], "total_pages": 1, "total_results": 0}, "credits": {"cast": [{"cast_id": 5, "character": "David Greene", "credit_id": "52fe47c6c3a36847f81476ab", "gender": 2, "id": 146569, "name": "Gabe Kaplan", "order": 0, "profile_path": "/mHL8qk3wKTY3fZAZGo1l9Tw65vW.jpg"}, {"cast_id": 3, "character": "D.C.", "credit_id": "52fe47c6c3a36847f81476a3", "gender": 0, "id": 27540, "name": "Harold Sylvester", "order": 1, "profile_path": "/d7caCyjDpaemQzO4DlVfF2uIKQ1.jpg"}, {"cast_id": 4, "character": "Preacher", "credit_id": "52fe47c6c3a36847f81476a7", "gender": 2, "id": 99583, "name": "Michael Warren", "order": 2, "profile_path": "/2YxIgv6ACIFsg6KYXB4ijxxfLPs.jpg"}, {"cast_id": 6, "character": "Hustler", "credit_id": "52fe47c6c3a36847f81476af", "gender": 0, "id": 146570, "name": "Bernard King", "order": 3, "profile_path": null}, {"cast_id": 8, "character": "Bull", "credit_id": "5ce8cd210e0a26643fc9b158", "gender": 2, "id": 61144, "name": "Reb Brown", "order": 4, "profile_path": "/qfwAxACTK3lGvPCfaAIIlJfJszS.jpg"}, {"cast_id": 9, "character": "Swish", "credit_id": "5ce8cd41c3a368547f1e1e73", "gender": 0, "id": 2320774, "name": "Mavis Washington", "order": 5, "profile_path": null}, {"cast_id": 10, "character": "Bo Winnegar", "credit_id": "5ce8cd5392514175e8b84392", "gender": 2, "id": 30621, "name": "Bert Remsen", "order": 6, "profile_path": "/kLddDLz6g3vBaTnmPD0yzPj04Bo.jpg"}, {"cast_id": 11, "character": "Jan", "credit_id": "5ce8cd66925141479bc0bf6c", "gender": 1, "id": 23916, "name": "Randee Heller", "order": 7, "profile_path": "/birMI3xI4SiX8swADkjhZoAzTza.jpg"}, {"cast_id": 12, "character": "Mom", "credit_id": "5ce8cd750e0a265cded1b192", "gender": 1, "id": 116727, "name": "Connie Sawyer", "order": 8, "profile_path": "/zQJPnBNNw9nkhdLVcqwR1vB5H7H.jpg"}, {"cast_id": 13, "character": "Ms. Tidwell", "credit_id": "5ce8cd88c3a3681a131deabf", "gender": 1, "id": 41729, "name": "K Callan", "order": 9, "profile_path": "/sfQU2LRT3aOz2mFJLTgZZAvWWXo.jpg"}, {"cast_id": 14, "character": "Howard", "credit_id": "5ce8cd9e92514159e9bc76fe", "gender": 0, "id": 134092, "name": "Richard Brestoff", "order": 10, "profile_path": "/qWPRs0myl0DoRxqrhxm5P0v0JL7.jpg"}, {"cast_id": 15, "character": "Thompson", "credit_id": "5ce8cdc5c3a3682d8f1e2cce", "gender": 0, "id": 1225343, "name": "Le Tari", "order": 11, "profile_path": null}, {"cast_id": 16, "character": "Dibber", "credit_id": "5ce8cddb0e0a26381cd4c835", "gender": 2, "id": 30422, "name": "Jack Smight", "order": 12, "profile_path": "/lLJg4SQ6kSvPL32gAvSQpO2RTEC.jpg"}, {"cast_id": 17, "character": "Street Kid", "credit_id": "5ce8cdf19251416a3fb846f3", "gender": 2, "id": 2975, "name": "Laurence Fishburne", "order": 13, "profile_path": "/8suOhUmPbfKqDQ17jQ1Gy0mI3P4.jpg"}, {"cast_id": 18, "character": "Sammy", "credit_id": "5ce8ce02925141479bc0c057", "gender": 0, "id": 583696, "name": "Ken Butler", "order": 14, "profile_path": null}, {"cast_id": 19, "character": "Cousin David", "credit_id": "5ce8ce12c3a3681c4e1dec7d", "gender": 2, "id": 1952, "name": "Jeffrey Weissman", "order": 15, "profile_path": "/rJJ066KTyGPNmu13eu2279DQrAw.jpg"}], "crew": [{"credit_id": "5ce8ce63c3a3681c4e1decec", "department": "Camera", "gender": 2, "id": 1822, "job": "Director of Photography", "name": "Charles Correll", "profile_path": null}, {"credit_id": "5ce8ce7a0e0a265183c9b4f0", "department": "Editing", "gender": 2, "id": 7715, "job": "Editor", "name": "Frank J. Urioste", "profile_path": null}, {"credit_id": "5ce8cebb925141522bb84e8b", "department": "Art", "gender": 0, "id": 10065, "job": "Set Decoration", "name": "Cheryal Kearney", "profile_path": null}, {"credit_id": "52fe47c6c3a36847f814769f", "department": "Directing", "gender": 2, "id": 30422, "job": "Director", "name": "Jack Smight", "profile_path": "/lLJg4SQ6kSvPL32gAvSQpO2RTEC.jpg"}, {"credit_id": "52fe47c6c3a36847f81476b5", "department": "Writing", "gender": 2, "id": 46000, "job": "Writer", "name": "Sandor Stern", "profile_path": null}, {"credit_id": "5ce8ce9392514159e9bc77dd", "department": "Art", "gender": 2, "id": 568911, "job": "Production Design", "name": "John Barry", "profile_path": null}, {"credit_id": "5ce8cea60e0a2661d1c9b4de", "department": "Art", "gender": 2, "id": 1089831, "job": "Art Direction", "name": "Norm Baron", "profile_path": null}]}}