{"adult": false, "backdrop_path": "/bAbDSnTarRyxVjo8SdUNtMugenn.jpg", "belongs_to_collection": null, "budget": 0, "genres": [{"id": 18, "name": "Drama"}, {"id": 10749, "name": "Romance"}, {"id": 53, "name": "Thriller"}], "homepage": null, "id": 50433, "imdb_id": "tt0086868", "original_language": "it", "original_title": "L'Alcova", "overview": "In 1936 Italy, Elio returns home from Africa with a present for his wife in the form of Zerbal (Laura Gemser), the daughter of a tribal king. Unbeknown to him, his neglected wife Alessandra (Lili Carati) has formed a relationship with Elio\u2019s otherwise frigid secretary Velma (Annie Belle) who is less than pleased at Elio\u2019s return", "popularity": 3.908, "poster_path": "/wxsNJA9P9rIv07iuanmNopYS0GA.jpg", "production_companies": [{"id": 70402, "logo_path": null, "name": "M.A.D. Film", "origin_country": ""}, {"id": 6082, "logo_path": null, "name": "Filmirage", "origin_country": ""}, {"id": 70403, "logo_path": null, "name": "Golden Hawk Entertainment", "origin_country": ""}], "production_countries": [{"iso_3166_1": "IT", "name": "Italy"}], "release_date": "1985-01-21", "revenue": 0, "runtime": 88, "spoken_languages": [{"iso_639_1": "it", "name": "Italiano"}], "status": "Released", "tagline": "", "title": "The Alcove", "video": false, "vote_average": 6.3, "vote_count": 9, "keywords": {"keywords": [{"id": 931, "name": "jealousy"}, {"id": 2804, "name": "exploitation"}, {"id": 9748, "name": "revenge"}, {"id": 33998, "name": "lesbian sex"}, {"id": 158217, "name": "colonialism"}, {"id": 162701, "name": "racial prejudice"}, {"id": 197871, "name": "illicit affair"}, {"id": 222743, "name": "female slave"}]}, "similar": {"page": 1, "results": [{"adult": false, "backdrop_path": "/rPfyX0pkmn8Ea4gh3DfsmzFUf05.jpg", "genre_ids": [18, 27, 80], "id": 74997, "original_language": "en", "original_title": "The Human Centipede 2 (Full Sequence)", "overview": "Inspired by the fictional Dr. Heiter, disturbed loner Martin dreams of creating a 12-person centipede and sets out to realize his sick fantasy.", "poster_path": "/kFtAdkCO0vXN2RWu2oMcR9GZ9Hi.jpg", "release_date": "2011-10-06", "title": "The Human Centipede 2 (Full Sequence)", "video": false, "vote_average": 4.5, "vote_count": 674, "popularity": 14.216}, {"adult": false, "backdrop_path": "/kiWvoV78Cc3fUwkOHKzyBgVdrDD.jpg", "genre_ids": [37, 18, 12], "id": 281957, "original_language": "en", "original_title": "The Revenant", "overview": "In the 1820s, a frontiersman, Hugh Glass, sets out on a path of vengeance against those who left him for dead after a bear mauling.", "poster_path": "/oXUWEc5i3wYyFnL1Ycu8ppxxPvs.jpg", "release_date": "2015-12-25", "title": "The Revenant", "video": false, "vote_average": 7.5, "vote_count": 12127, "popularity": 24.135}, {"adult": false, "backdrop_path": "/a24i4Qw6qFTtkFLQsncv8WPwevj.jpg", "genre_ids": [53, 28, 80], "id": 345887, "original_language": "en", "original_title": "The Equalizer 2", "overview": "Robert McCall, who serves an unflinching justice for the exploited and oppressed, embarks on a relentless, globe-trotting quest for vengeance when a long-time girl friend is murdered.", "poster_path": "/cQvc9N6JiMVKqol3wcYrGshsIdZ.jpg", "release_date": "2018-07-19", "title": "The Equalizer 2", "video": false, "vote_average": 6.5, "vote_count": 2483, "popularity": 21.271}, {"adult": false, "backdrop_path": "/gk67yS6cLpYEia8kSPcsSxFqpYA.jpg", "genre_ids": [10752, 12, 18, 10749], "id": 9093, "original_language": "en", "original_title": "The Four Feathers", "overview": "The story, set in 1875, follows a British officer (Heath Ledger) who resigns his post when he learns of his regiment's plan to ship out to the Sudan for the conflict with the Mahdi. His friends and fianc\u00e9e send him four white feathers which symbolize cowardice. To redeem his honor he disguises himself as an Arab and secretly saves the lives of those who branded him a coward.", "poster_path": "/1mr4V13SFK4En8f4ZdyBgnZmVar.jpg", "release_date": "2002-09-08", "title": "The Four Feathers", "video": false, "vote_average": 6.6, "vote_count": 286, "popularity": 9.715}, {"adult": false, "backdrop_path": "/a0UYovVNPVfWILYT7TzD10xBX3q.jpg", "genre_ids": [18, 53, 80, 9648], "id": 979, "original_language": "fr", "original_title": "Irr\u00e9versible", "overview": "Events over the course of one traumatic night in Paris unfold in reverse-chronological order as the beautiful Alex is brutally raped and beaten by a stranger in the underpass. Her boyfriend and ex-lover take matters into their own hands by hiring two criminals to help them find the rapist so that they can exact revenge. A simultaneously beautiful and terrible examination of the destructive nature of cause and effect, and how time destroys everything.", "poster_path": "/rxeDxo8FvZpLu6iplNpxdtAVnfu.jpg", "release_date": "2002-05-22", "title": "Irreversible", "video": false, "vote_average": 7.1, "vote_count": 1216, "popularity": 20.416}, {"id": 400090, "video": false, "vote_count": 106, "vote_average": 7.3, "title": "The Nightingale", "release_date": "2019-08-02", "original_language": "en", "original_title": "The Nightingale", "genre_ids": [12, 18, 53], "backdrop_path": "/bwsANtJNaA5xDmxPp6z2JqEtfCI.jpg", "adult": false, "overview": "In 1825, Claire, a 21-year-old Irish convict, chases a British soldier through the rugged Tasmanian wilderness, bent on revenge for a terrible act of violence he committed against her family. She enlists the services of an Aboriginal tracker who is also marked by trauma from his own violence-filled past.", "poster_path": "/hWA8QwSM1kJYMoTANEPoqrqBapg.jpg", "popularity": 14.654}, {"adult": false, "backdrop_path": "/pA64Ov7lDpwXBu33yq0KpmAOYJL.jpg", "genre_ids": [27, 53], "id": 357096, "original_language": "en", "original_title": "I Spit on Your Grave III: Vengeance is Mine", "overview": "Jennifer Hills is still tormented by the brutal sexual assault she endured years ago. She\u2019s changed identities and cities, reluctantly joining a support group where she begins to piece together a new life. But when her new friend\u2019s murderer goes free and the tales of serial rapists haunt her, Jennifer will hunt down the men responsible and do what the system won\u2019t \u2013 make them pay for their crimes in the most horrific ways imaginable. Only this time, no jury may be able to save her.", "poster_path": "/6SnOlgrUoC5jqmgcYIM5lde5zYq.jpg", "release_date": "2015-10-01", "title": "I Spit on Your Grave III: Vengeance is Mine", "video": false, "vote_average": 5.3, "vote_count": 437, "popularity": 20.815}, {"adult": false, "backdrop_path": "/feZlULeOhSRLz23ZXUeDX3Dl2dS.jpg", "genre_ids": [80, 53, 9648], "id": 17494, "original_language": "en", "original_title": "Unlawful Entry", "overview": "After a break-in at their house, a couple gets help from one of the cops that answered their call. He helps them install the security system, and begins dropping by on short notice and unofficial patrol, and spends a lot of time discussing the couple's problems with the wife. The husband begins wondering if they're getting too much help.", "poster_path": "/sKUk1ca6gHaIopi8VqE8GoxJq6J.jpg", "release_date": "1992-06-26", "title": "Unlawful Entry", "video": false, "vote_average": 6.1, "vote_count": 121, "popularity": 10.241}, {"adult": false, "backdrop_path": "/aavkYzXS4PnBDRXVarQtbKZh5us.jpg", "genre_ids": [53], "id": 13538, "original_language": "en", "original_title": "Straightheads", "overview": "There is instant chemistry between Alice (Gillian Anderson), a businesswoman, and Adam (Danny Dyer), a younger working-class man who installs a security system in her London apartment. She takes him to a party in the country, and they end up making love. But the night turns horrific when they encounter three thugs who maim Adam and rape Alice. The incident turns them into fearful recluses until Alice spots the leader of their attackers (Anthony Calf) -- and the two victims plot a brutal revenge.", "poster_path": "/ywf1UPAhy4Hg2XzVUwDRa60NFKR.jpg", "release_date": "2007-04-27", "title": "Straightheads", "video": false, "vote_average": 5.0, "vote_count": 64, "popularity": 9.392}, {"adult": false, "backdrop_path": "/iZOgAvUt6q356da1sfYz1UalNO.jpg", "genre_ids": [80, 18, 10749, 53], "id": 3134, "original_language": "fr", "original_title": "Baise-moi", "overview": "Manu has lived a difficult life. Abused and violently raped, she sets off to find herself only to meet Nadine, a prostitute who has encountered one too many injustices in the world. Angry at the world, they embark on a twisted, rage-filled road trip. They choose to have sex when they please and kill when they need. Leaving a trail of mischief and dead bodies in their wake. Generating a media blitz and manhunt, soon everyone is out to capture the young fugitives.", "poster_path": "/sLvsIgWMH9bV1IZnZOzY5dXKUHe.jpg", "release_date": "2000-06-28", "title": "Baise-moi", "video": false, "vote_average": 4.3, "vote_count": 173, "popularity": 14.535}, {"adult": false, "backdrop_path": "/2BLk25CMNl22IHqVJSAu3nkWoUj.jpg", "genre_ids": [28, 80, 53], "id": 26789, "original_language": "en", "original_title": "No Mercy", "overview": "An unconventional undercover Chicago cop and his partner are recruited to commit the murder of a New Orleans criminal kingpin.", "poster_path": "/iQozlPXgadwTvymHWH1mPWzM80a.jpg", "release_date": "1986-12-19", "title": "No Mercy", "video": false, "vote_average": 5.8, "vote_count": 71, "popularity": 9.238}, {"adult": false, "backdrop_path": "/19qAk3bQZ6ulspbwhPw1A0bNpii.jpg", "genre_ids": [80, 27, 53], "id": 73861, "original_language": "sr", "original_title": "Srpski film", "overview": "Milos, a retired porn star, leads a normal family life trying to make ends meet. Presented with the opportunity of a lifetime to financially support his family for the rest of their lives, Milos must participate in one last mysterious film. From then on, Milos is drawn into a maelstrom of unbelievable cruelty and mayhem.", "poster_path": "/iB3ynCghwG63MrViBC6YyPzUIAn.jpg", "release_date": "2010-06-16", "title": "A Serbian Film", "video": false, "vote_average": 5.5, "vote_count": 898, "popularity": 16.013}, {"adult": false, "backdrop_path": "/zWGAnbxjjwY3xFGuOeR26LGbBlG.jpg", "genre_ids": [27, 53], "id": 238636, "original_language": "en", "original_title": "The Purge: Anarchy", "overview": "One night per year, the government sanctions a 12-hour period in which citizens can commit any crime they wish -- including murder -- without fear of punishment or imprisonment. Leo, a sergeant who lost his son, plans a vigilante mission of revenge during the mayhem. However, instead of a death-dealing avenger, he becomes the unexpected protector of four innocent strangers who desperately need his help if they are to survive the night.", "poster_path": "/l1DRl40x2OWUoPP42v8fjKdS1Z3.jpg", "release_date": "2014-07-17", "title": "The Purge: Anarchy", "video": false, "vote_average": 6.6, "vote_count": 4145, "popularity": 36.766}, {"id": 395834, "video": false, "vote_count": 2755, "vote_average": 7.4, "title": "Wind River", "release_date": "2017-08-03", "original_language": "en", "original_title": "Wind River", "genre_ids": [80, 18, 9648, 53], "backdrop_path": "/6B8e784decj9vtKuNjbl9Fes2aZ.jpg", "adult": false, "overview": "An FBI agent teams with the town's veteran game tracker to investigate a murder that occurred on a Native American reservation.", "poster_path": "/pySivdR845Hom4u4T2WNkJxe6Ad.jpg", "popularity": 16.931}, {"adult": false, "backdrop_path": "/61jXRAqQihmnIfViTChwkGHMXsT.jpg", "genre_ids": [27, 9648, 53], "id": 12619, "original_language": "en", "original_title": "Cherry Falls", "overview": "Cherry Falls is a quiet little town - until the night that a serial killer begins preying on its youth. After a third teen is found slain, the killer's modus operandi emerges: the victims were all virgins. Sheriff Marken is concerned for the safety of the teens in general and in particular his own daughter Jody, who is still a virgin...", "poster_path": "/9bw9yVBFyv3nMeVDR7gjzELAATh.jpg", "release_date": "2000-08-25", "title": "Cherry Falls", "video": false, "vote_average": 5.0, "vote_count": 133, "popularity": 9.535}, {"adult": false, "backdrop_path": "/jWyWzGqDX999LUFaKxHGo3GvRoH.jpg", "genre_ids": [27, 9648, 53], "id": 39918, "original_language": "de", "original_title": "Die S\u00e4ge des Todes", "overview": "Miguel, a horribly disfigured young man, goes on a rampage at a masquerade party and rapes and then mutilates a girl. Institutionalized at a mental asylum, he is released five years later, into the care of his sister, Manuela who, along with their wheelchair bound mother operates a boarding school for young women. Miguel becomes obsessed with one of the girls at the school, and wants to resume his incestuous relationship with his sister.", "poster_path": "/mBoJUYD08K0im1wND6abtUy3ggU.jpg", "release_date": "1981-03-27", "title": "Bloody Moon", "video": false, "vote_average": 4.8, "vote_count": 22, "popularity": 5.423}, {"adult": false, "backdrop_path": "/ct2r3CqnA0KtMfib4AvfBU1W9M2.jpg", "genre_ids": [28, 80, 53], "id": 398175, "original_language": "en", "original_title": "Brawl in Cell Block 99", "overview": "After working as a drug courier and getting into a brutal shootout with police, a former boxer finds himself at the mercy of his enemies as they force him to instigate violent acts that turn the prison he resides in into a battleground.", "poster_path": "/lGgIQ10NJ3d0X0uFbbUN4pRrMFZ.jpg", "release_date": "2017-09-23", "title": "Brawl in Cell Block 99", "video": false, "vote_average": 6.8, "vote_count": 605, "popularity": 13.011}, {"id": 994, "video": false, "vote_count": 444, "vote_average": 7.2, "title": "Straw Dogs", "release_date": "1971-12-23", "original_language": "en", "original_title": "Straw Dogs", "genre_ids": [80, 18, 53], "backdrop_path": "/yL7uVOyvwZeP2U0zKIE3WQqoilA.jpg", "adult": false, "overview": "David Sumner, a mild-mannered academic from the United States, marries Amy, an Englishwoman. In order to escape a hectic stateside lifestyle, David and his wife relocate to the small town in rural Cornwall where Amy was raised. There, David is ostracized by the brutish men of the village, including Amy's old flame, Charlie. Eventually the taunts escalate, and two of the locals rape Amy. This sexual assault awakes a shockingly violent side of David.", "poster_path": "/yigkfHE1OhkxPPrjrV78Y9ibGEk.jpg", "popularity": 15.307}, {"id": 37645, "video": false, "vote_count": 575, "vote_average": 6.5, "title": "22 Bullets", "release_date": "2010-03-23", "original_language": "fr", "original_title": "L'Immortel", "genre_ids": [28, 80, 53], "backdrop_path": "/mU8zfCOTbahNGH0ZBTCuNdX16gj.jpg", "adult": false, "overview": "Charly Mattei\u0308 has turned his back on his life as an outlaw. For the last three years, he's led a peaceful life devoting himself to his wife and two children. Then, one winter morning, he's left for dead in the parking garage in Marseille's Old Port, with 22 bullets in his body. Against all the odds, he doesn't die...", "poster_path": "/wTYZjPq4YA2wC99MdHZTFQuxFpd.jpg", "popularity": 12.785}, {"adult": false, "backdrop_path": "/7Z9OmWJszjjvjh5N2Mv14uYmLoC.jpg", "genre_ids": [80, 53, 27, 18], "id": 18405, "original_language": "en", "original_title": "The Last House on the Left", "overview": "A group of teenage girls heading into the city hook up with a gang of drug-addled ne'er-do-wells and are brutally murdered. The killers find their way to the home of one of their victim's parents, where both father and mother exact a horrible revenge.", "poster_path": "/tpjP9MLDRq6aC1MTpFcJEOYOGtj.jpg", "release_date": "2009-03-13", "title": "The Last House on the Left", "video": false, "vote_average": 6.4, "vote_count": 901, "popularity": 17.245}], "total_pages": 62, "total_results": 1226}, "recommendations": {"page": 1, "results": [{"adult": false, "backdrop_path": "/glyBrLjzqsoeDoqnx9rZTb10hqE.jpg", "genre_ids": [878, 27], "id": 52883, "original_language": "it", "original_title": "La bestia nello spazio", "overview": "In the future the struggle for space superiority has forced humanity to search the cosmos for a rare element called Antallum that is the key ingredient for the construction of neutron bombs. Starship captain Larry Madison and his crew are assigned to retrieve Antallum from the remote planet Lorigon. However, Madison and crew find themselves under the control of a powerful computer on Lorigon that incites everyone to have sex.  Some versions feature brief adult scenes shot with body doubles.", "poster_path": "/mWHMrXt27iRUzRAsreo6Ykxe4XU.jpg", "release_date": "1980-05-13", "title": "Beast in Space", "video": false, "vote_average": 4.0, "vote_count": 5, "popularity": 1.814}, {"id": 77086, "video": false, "vote_count": 15, "vote_average": 5.7, "title": "Satan's Baby Doll", "release_date": "1982-06-29", "original_language": "it", "original_title": "La bimba di Satana", "genre_ids": [27, 53], "backdrop_path": "/zt2q046xJCQgnBItKIA9U7qqn5t.jpg", "adult": false, "overview": "In the crypt of the remote castle of the Aguilars lies the recently-deceased body of Maria. Her husband Antonio is a jealous bully, his mute brother Ignazio is in a wheelchair peeping on his caretaker Sol, a novice. Also present are Miria, the couple's virginal daughter, and Isidro, a factotum who fears Satan's power. A frequent visitor is Juan Suarez, a doctor who wants Miria in a sanatorium for a month. She doesn't want to go. Isidro tries to exorcize the castle's evil spirits. Bodies pile up. Is Miria's mother truly dead, and who is Satan's tool?", "poster_path": "/2XdvHU1mvkcoiG96BN4FsrfGPPL.jpg", "popularity": 6.4}, {"adult": false, "backdrop_path": "/2tF7PFepvga70WwfpnIvubHQNCO.jpg", "genre_ids": [27], "id": 28768, "original_language": "en", "original_title": "Faceless", "overview": "A model named Barbara Hallen has disappeared and her father gets private detective Sam Morgan to go to Paris to find his daughter. Barbara's trail leads Morgan to a plastic surgery clinic owned by Dr. Flamand. Morgan's investigation reveals the horrifying secret behind the Doctor's miracle cures which is blood and organs taken from kidnapped young women. As Morgan's investigation closes witnesses are eliminated one by one, each in a more horrible way.", "poster_path": "/ks2q1JzdIc6UkbzpqYinGcL2buI.jpg", "release_date": "1987-09-01", "title": "Faceless", "video": false, "vote_average": 6.2, "vote_count": 13, "popularity": 3.801}, {"id": 28224, "video": false, "vote_count": 7, "vote_average": 2.6, "title": "Blood Sabbath", "release_date": "1972-01-01", "original_language": "en", "original_title": "Blood Sabbath", "genre_ids": [27], "backdrop_path": null, "adult": false, "overview": "A coven of witches captures a young man traveling through the woods. He gets involved in a power struggle between a beautiful witch and the evil queen who heads the coven.", "poster_path": "/xhXMaMkLJsdiOxlLL68SZeF0VUJ.jpg", "popularity": 2.581}, {"adult": false, "backdrop_path": "/lzyGYPG2KOIRFQ7Dxe55xUmE3mQ.jpg", "genre_ids": [27], "id": 28806, "original_language": "es", "original_title": "La mansi\u00f3n de los muertos vivientes", "overview": "Four strippers take a vacation and wind up at a Spanish resort complex that, despite the hotel receptionist's claims of it being fully booked, appears to be completely empty. After one of the girls mysteriously vanishes and another ends up dead in the pool, both accompanied by the tolling bell from a nearby monastery, Candy and Caty must try to solve the mystery that seems to involve the Spanish Inquisition.", "poster_path": "/zoEyoOSSOPljqQ10FkDh8dxPiPB.jpg", "release_date": "1985-11-18", "title": "Mansion of the Living Dead", "video": false, "vote_average": 4.9, "vote_count": 7, "popularity": 2.674}], "total_pages": 1, "total_results": 5}, "credits": {"cast": [{"cast_id": 3, "character": "Alessandra", "credit_id": "52fe47c7c3a36847f8147bc9", "gender": 1, "id": 132571, "name": "Lilli Carati", "order": 0, "profile_path": "/otzEL3PTZn7MAzmqMGbtjEiaafo.jpg"}, {"cast_id": 2, "character": "Wilma", "credit_id": "52fe47c7c3a36847f8147bc5", "gender": 1, "id": 101576, "name": "Annie Belle", "order": 1, "profile_path": "/vmLEPb1WZ1eIbGcjDnMaWFt1lJL.jpg"}, {"cast_id": 4, "character": "Elio De Silveris", "credit_id": "52fe47c7c3a36847f8147bcd", "gender": 0, "id": 52063, "name": "Al Cliver", "order": 2, "profile_path": "/lQTPaWTC4yjVDzMGvBj9Nl2k73w.jpg"}, {"cast_id": 5, "character": "Furio", "credit_id": "52fe47c7c3a36847f8147bd1", "gender": 2, "id": 431536, "name": "Roberto Caruso", "order": 3, "profile_path": null}, {"cast_id": 1, "character": "Zerbal", "credit_id": "52fe47c7c3a36847f8147bc1", "gender": 1, "id": 41127, "name": "Laura Gemser", "order": 4, "profile_path": "/zObMWYEHJkPEhmFsyW8uFCVRgfo.jpg"}, {"cast_id": 8, "character": "The Gardener", "credit_id": "53b290b30e0a265989009f16", "gender": 2, "id": 32679, "name": "Nello Pazzafini", "order": 5, "profile_path": "/48Dwk4rSPmkXRua5WxMuDCGwZBn.jpg"}, {"cast_id": 14, "character": "Furio (voice) (uncredited)", "credit_id": "5804ce109251410df5000cf6", "gender": 2, "id": 1289428, "name": "Steven Luotto", "order": 6, "profile_path": null}, {"cast_id": 15, "character": "Alexandra (voice) (uncredited)", "credit_id": "5804ce219251410df5000d08", "gender": 1, "id": 1334925, "name": "Susan Spafford", "order": 7, "profile_path": null}], "crew": [{"credit_id": "52fe47c7c3a36847f8147bd7", "department": "Directing", "gender": 2, "id": 31775, "job": "Director", "name": "Joe D'Amato", "profile_path": "/mYyejhm6tqa290duWvLgX7L48No.jpg"}, {"credit_id": "52fe47c7c3a36847f8147bdd", "department": "Writing", "gender": 2, "id": 239306, "job": "Writer", "name": "Ugo Moretti", "profile_path": null}, {"credit_id": "5676feadc3a368167c006725", "department": "Sound", "gender": 2, "id": 38759, "job": "Original Music Composer", "name": "Manuel De Sica", "profile_path": null}, {"credit_id": "5676febbc3a368167a006be3", "department": "Camera", "gender": 2, "id": 31775, "job": "Director of Photography", "name": "Joe D'Amato", "profile_path": "/mYyejhm6tqa290duWvLgX7L48No.jpg"}, {"credit_id": "5676fecbc3a368167a006be7", "department": "Art", "gender": 0, "id": 1551606, "job": "Art Direction", "name": "Richard Ribovske", "profile_path": null}, {"credit_id": "5676fedf92514179d2006690", "department": "Editing", "gender": 0, "id": 1551607, "job": "Editor", "name": "Franco Alessandri", "profile_path": null}, {"credit_id": "5676feeac3a368167c00672c", "department": "Editing", "gender": 2, "id": 146996, "job": "Editor", "name": "Mariano Laurenti", "profile_path": null}]}}