{"adult": false, "backdrop_path": "/osgngmejACP5MOKKAsPVCcQh54q.jpg", "belongs_to_collection": null, "budget": 0, "genres": [{"id": 878, "name": "Science Fiction"}, {"id": 18, "name": "Drama"}], "homepage": "http://www.coop99.at/web-coop99/?portfolio=little-joe&lang=en", "id": 504585, "imdb_id": "tt9204204", "original_language": "en", "original_title": "Little Joe", "overview": "A genetically engineered plant scatters its seeds and seems to cause uncanny changes on living creatures. The afflicted appear strange, as if they were replaced - especially for those, who are close to them. Or is it all just imagination? Thus starts a play between various truths,on which end stands the loss of the own identity.", "popularity": 8.504, "poster_path": "/q4VMyavCoXxN9U8AONE2YryQDVz.jpg", "production_companies": [{"id": 10441, "logo_path": "/aTEwjHN8l51ix2YcTxxzR92WaXy.png", "name": "The Bureau", "origin_country": "GB"}, {"id": 52412, "logo_path": null, "name": "Coop99 Filmproduktion", "origin_country": ""}, {"id": 20691, "logo_path": null, "name": "Essential Filmproduktion", "origin_country": "DE"}], "production_countries": [{"iso_3166_1": "AT", "name": "Austria"}, {"iso_3166_1": "DE", "name": "Germany"}, {"iso_3166_1": "GB", "name": "United Kingdom"}], "release_date": "2019-11-13", "revenue": 0, "runtime": 100, "spoken_languages": [{"iso_639_1": "en", "name": "English"}], "status": "Released", "tagline": "Happiness is a business", "title": "Little Joe", "video": false, "vote_average": 6.1, "vote_count": 19, "keywords": {"keywords": [{"id": 187056, "name": "woman director"}]}, "similar": {"page": 1, "results": [{"adult": false, "backdrop_path": "/cADbqsIoiDW7X3Myg9nz8eAuno5.jpg", "genre_ids": [18, 10749], "id": 10818, "original_language": "fr", "original_title": "Naissance des pieuvres", "overview": "Set during a sultry summer in a French suburb, Marie is desperate to join the local pool's synchronized swimming team, but is her interest solely for the sake of sport or for a chance to get close to Floriane, the bad girl of the team? Sciamma, and the two leads, capture the uncertainty of teenage sexuality with a sympathetic eye in this delicate drama of the angst of coming-of-age.", "poster_path": "/4jajELYrR4Xmv3CVoKnukRnALa2.jpg", "release_date": "2007-05-17", "title": "Water Lilies", "video": false, "vote_average": 6.1, "vote_count": 119, "popularity": 9.614}, {"adult": false, "backdrop_path": "/gZeJziVigmRqbkEZwKAtSqlLQ6s.jpg", "genre_ids": [18, 10749], "id": 370663, "original_language": "en", "original_title": "Below Her Mouth", "overview": "An unexpected affair quickly escalates into a heart-stopping reality for two women whose passionate connection changes their lives forever.", "poster_path": "/nTGbq37hYLuNy7YgMg0gVLma0NS.jpg", "release_date": "2016-09-10", "title": "Below Her Mouth", "video": false, "vote_average": 6.2, "vote_count": 456, "popularity": 18.664}, {"adult": false, "backdrop_path": "/dvQDRfv3qvfHNnVAR57ouVsuErf.jpg", "genre_ids": [10749, 18], "id": 28031, "original_language": "en", "original_title": "If These Walls Could Talk 2", "overview": "The stories of three lesbian couples -- who live in the same house at different periods of time -- who are at a crossroads in their lives. In 1961, Edith loses her lover, Abby, to a stroke. Linda and Amy struggle with feminist issues in 1972. And, in 2000, Kal and Fran try to have a baby with the help of sperm donor.", "poster_path": "/xs7ODbmYQXCDhvXNvz5tF17T59H.jpg", "release_date": "2000-03-05", "title": "If These Walls Could Talk 2", "video": false, "vote_average": 7.1, "vote_count": 55, "popularity": 8.86}, {"adult": false, "backdrop_path": "/knczzNAjBXzSYkeWxoT1u9VNmjR.jpg", "genre_ids": [10749, 18], "id": 258480, "original_language": "en", "original_title": "Carol", "overview": "In 1950s New York, a department-store clerk who dreams of a better life falls for an older, married woman.", "poster_path": "/AbKa7ANxmui0Jmhh7gV7OSELKIL.jpg", "release_date": "2015-11-20", "title": "Carol", "video": false, "vote_average": 7.4, "vote_count": 2184, "popularity": 13.539}, {"adult": false, "backdrop_path": "/fZ8oFcREAr6wgWcXISGql0xyxjB.jpg", "genre_ids": [35, 18], "id": 39781, "original_language": "en", "original_title": "The Kids Are All Right", "overview": "Two women, Nic and Jules, brought a son and daughter into the world through artificial insemination. When one of their children reaches age, both kids go behind their mothers' backs to meet with the donor. Life becomes so much more interesting when the father, two mothers and children start to become attached to each other.", "poster_path": "/fPDeK4MmoGfi2X0oWZev7LrbMqM.jpg", "release_date": "2010-07-09", "title": "The Kids Are All Right", "video": false, "vote_average": 6.6, "vote_count": 923, "popularity": 12.159}, {"adult": false, "backdrop_path": "/rf6G51j0SZL0tP57I8gnqHTRFEr.jpg", "genre_ids": [35, 18, 10749], "id": 273153, "original_language": "fr", "original_title": "La belle saison", "overview": "In 1971, Carole and Delphine meet and fall in love in Paris. When Carole follows Delphine back to her family farm in Limousin, the two find lesbianism and feminism are not as easy in the countryside.", "poster_path": "/evvAkNMO5VJiy5qIo1Hu7fUfvVI.jpg", "release_date": "2015-08-19", "title": "Summertime", "video": false, "vote_average": 6.6, "vote_count": 162, "popularity": 11.575}, {"adult": false, "backdrop_path": "/s12HEmmkJfI2mjltI61hGm5kubD.jpg", "genre_ids": [35, 18, 10749], "id": 20770, "original_language": "en", "original_title": "But I'm a Cheerleader", "overview": "Megan is an all-American girl. A cheerleader. She has a boyfriend. But Megan doesn't like kissing her boyfriend very much. And she's pretty touchy with her cheerleader friends. Her conservative parents worry that she must be a lesbian and send her off to \"sexual redirection\" school, where she must, with other lesbians and gays learn how to be straight.", "poster_path": "/eDGH7CHSdkrYcuUJV1e0WS9DlQL.jpg", "release_date": "1999-12-09", "title": "But I'm a Cheerleader", "video": false, "vote_average": 6.8, "vote_count": 246, "popularity": 9.011}, {"id": 9813, "video": false, "vote_count": 128, "vote_average": 6.1, "title": "The Quiet", "release_date": "2005-09-12", "original_language": "en", "original_title": "The Quiet", "genre_ids": [18, 53], "backdrop_path": "/6eyWAZA4CEidZW1xXnQ4vlYBXTP.jpg", "adult": false, "overview": "After her widowed father dies, deaf teenager Dot moves in with her godparents, Olivia and Paul Deer. The Deers' daughter, Nina, is openly hostile to Dot, but that does not prevent her from telling her secrets to her silent stepsister, including the fact that she wants to kill her lecherous father.", "poster_path": "/GEqIE9YlmygHVUfS64LW2cwAAM.jpg", "popularity": 14.844}, {"adult": false, "backdrop_path": "/tzqeuHWMFihFbiLGHdalPgAcSf6.jpg", "genre_ids": [18, 10749], "id": 18620, "original_language": "en", "original_title": "Go Fish", "overview": "Max is a trendy, pretty, young lesbian, who is having trouble finding love. A friend sets her up with Ely, whom Max likes, but Ely is frumpy, homely, and older. Nor do they have much in common. Can Max learn to look past the packaging?", "poster_path": "/qrEFYrwykaGsY8NULYuYLLI7zrM.jpg", "release_date": "1994-06-10", "title": "Go Fish", "video": false, "vote_average": 5.0, "vote_count": 11, "popularity": 3.676}, {"adult": false, "backdrop_path": "/6tern9vOEwwmkDYC1vRCuO64z0C.jpg", "genre_ids": [10749, 18], "id": 475888, "original_language": "en", "original_title": "Tell It to the Bees", "overview": "Dr. Jean Markham returns to the town she left as a teenager to take over her late father's medical practice. When a school-yard scuffle lands Charlie in her surgery, she invites him to visit the hives in her garden and tell his secrets to the bees, as she once did. The new friendship between the boy and the bee keeper brings his mother Lydia into Jean's world.", "poster_path": "/Rj6zpHhMU1zFW3v28U4PSRSRgP.jpg", "release_date": "2019-05-03", "title": "Tell It to the Bees", "video": false, "vote_average": 6.4, "vote_count": 53, "popularity": 13.175}, {"adult": false, "backdrop_path": "/baYbbMtKRDoDWYJeVWkbygAvAj8.jpg", "genre_ids": [18, 10749], "id": 31216, "original_language": "en", "original_title": "I Can't Think Straight", "overview": "I CAN'T THINK STRAIGHT is a 2007 romance movie about a London-based Jordanian of Palestinian descent, Tala, who is preparing for an elaborate wedding. A turn of events causes her to have an affair and subsequently fall in love with another woman, Leyla, a British Indian.", "poster_path": "/1kapga6rkM5wNuQBYw7sdE42CrA.jpg", "release_date": "2008-06-01", "title": "I Can't Think Straight", "video": false, "vote_average": 7.6, "vote_count": 109, "popularity": 7.815}, {"adult": false, "backdrop_path": "/lI5h8KaoeObu4NMTwzeRuUHzRwD.jpg", "genre_ids": [18, 9648, 53], "id": 401898, "original_language": "no", "original_title": "Thelma", "overview": "A college student starts to experience extreme seizures. She soon learns that the violent episodes are a symptom of inexplicable abilities.", "poster_path": "/yzSfG8TLAqw7nMQh2lxirQkQpgs.jpg", "release_date": "2017-09-15", "title": "Thelma", "video": false, "vote_average": 7.1, "vote_count": 418, "popularity": 13.105}, {"adult": false, "backdrop_path": "/tIFRPjIXQ3sYrmxbIeOu9K1JkUz.jpg", "genre_ids": [18, 10749], "id": 294, "original_language": "en", "original_title": "Desert Hearts", "overview": "The story of straight-edge literature professor Vivian who travels to Reno to get away from a relationship breakup when she falls in love with an attractive and unconventional girl named Cay.", "poster_path": "/b8JSmQSpYYJhctMtxNgqh0elENg.jpg", "release_date": "1985-10-01", "title": "Desert Hearts", "video": false, "vote_average": 7.3, "vote_count": 58, "popularity": 6.976}, {"id": 2255, "video": false, "vote_count": 772, "vote_average": 6.8, "title": "Chasing Amy", "release_date": "1997-04-04", "original_language": "en", "original_title": "Chasing Amy", "genre_ids": [35, 18, 10749], "backdrop_path": "/doKYVK61Vb8J1KUjlb9dNWkQNp6.jpg", "adult": false, "overview": "Holden and Banky are comic book artists. Everything is going good for them until they meet Alyssa, also a comic book artist. Holden falls for her, but his hopes are crushed when he finds out she's a lesbian.", "poster_path": "/4vFJileWrCGaBeobCmF0tXpQCUb.jpg", "popularity": 13.95}, {"adult": false, "backdrop_path": "/hD8DQM72Xacg1d3mFqS0eN8vKYw.jpg", "genre_ids": [18], "id": 8272, "original_language": "en", "original_title": "The Savages", "overview": "A sister and brother face the realities of familial responsibility as they begin to care for their ailing father.", "poster_path": "/nY54gSmTOmSXlQpWDB7DWp4u8a7.jpg", "release_date": "2007-01-19", "title": "The Savages", "video": false, "vote_average": 6.9, "vote_count": 192, "popularity": 9.466}, {"adult": false, "backdrop_path": "/g3LYarEY9LjB28Ct2trwFN72gqZ.jpg", "genre_ids": [35], "id": 437557, "original_language": "en", "original_title": "Blockers", "overview": "When three parents discover their daughters\u2019 pact to lose their virginity at prom, they launch a covert one-night operation to stop the teens from sealing the deal.", "poster_path": "/uvlUQXg0AlpGzKukO11K7QtW3Yu.jpg", "release_date": "2018-03-14", "title": "Blockers", "video": false, "vote_average": 6.2, "vote_count": 1155, "popularity": 17.886}, {"adult": false, "backdrop_path": "/zBB1mzmqnUuSrlTuf0SFFlI1EoJ.jpg", "genre_ids": [18], "id": 244772, "original_language": "en", "original_title": "The Skeleton Twins", "overview": "Estranged twins Maggie and Milo coincidentally cheat death on the same day, prompting them to reunite and confront the reasons their lives went so wrong. As the twins' reunion reinvigorates them, they realize the key to fixing their lives may just lie in repairing their relationship.", "poster_path": "/vvmv1R2jDXJeeeyYcGg0ypXc2XK.jpg", "release_date": "2014-09-12", "title": "The Skeleton Twins", "video": false, "vote_average": 6.7, "vote_count": 416, "popularity": 10.481}, {"adult": false, "backdrop_path": "/3YGy88nTV2e0wxZcKI1goiEN9oy.jpg", "genre_ids": [18, 10749], "id": 37636, "original_language": "en", "original_title": "High Art", "overview": "A young female intern at a small magazine company becomes involved with a drug-addicted lesbian photographer, both of whom seek to exploit each other for their respective careers, while slowly falling in love with each other.", "poster_path": "/qTg05RNJIvb9w4Z7XIcAZxuZmTn.jpg", "release_date": "1998-06-12", "title": "High Art", "video": false, "vote_average": 6.6, "vote_count": 61, "popularity": 7.422}, {"adult": false, "backdrop_path": "/caLMOD3ZJ3V7qjlxDXrzlJfBLgD.jpg", "genre_ids": [18, 10749], "id": 20, "original_language": "en", "original_title": "My Life Without Me", "overview": "A Pedro Almodovar production in which a fatally ill mother with only two months to live creates a list of things she wants to do before she dies with out telling her family of her illness.", "poster_path": "/vVj92VBFUBzjqzLvBiPVVlJDp78.jpg", "release_date": "2003-03-07", "title": "My Life Without Me", "video": false, "vote_average": 6.1, "vote_count": 220, "popularity": 10.382}, {"id": 434714, "video": false, "vote_count": 32, "vote_average": 7.5, "title": "My Days of Mercy", "release_date": "2019-07-11", "original_language": "en", "original_title": "My Days of Mercy", "genre_ids": [18, 10749], "backdrop_path": "/7Lbzq33nMMIQtAfZAmSqG6ibLSg.jpg", "adult": false, "overview": "The daughter of a man on death row falls in love with a woman on the opposing side of her family's political cause.", "poster_path": "/adIPKAoKnKL9vCTkvfF4J9ZA7Ln.jpg", "popularity": 9.342}], "total_pages": 1446, "total_results": 28911}, "recommendations": {"page": 1, "results": [{"id": 565341, "video": false, "vote_count": 10, "vote_average": 6.4, "title": "The Sound of Silence", "release_date": "2019-09-13", "original_language": "en", "original_title": "The Sound of Silence", "genre_ids": [18], "backdrop_path": "/mrH2HxDl0p7evhNqSGN7SIYpVRG.jpg", "adult": false, "overview": "A successful \"house tuner\" in New York City, who calibrates the sound in people's homes in order to adjust their moods, meets a client with a problem he can't solve.", "poster_path": "/dXkv8lkX9gdJyUxxrulJ2PWzidI.jpg", "popularity": 7.619}, {"adult": false, "backdrop_path": "/18qPOsT3yEXiVzKEqo6tqE8M7QT.jpg", "genre_ids": [35], "id": 570128, "original_language": "fr", "original_title": "Convoi exceptionnel", "overview": "", "poster_path": "/4Gt9cDtEek4Yksrxxi4jrE7bQ2I.jpg", "release_date": "2019-03-13", "title": "Wide Load", "video": false, "vote_average": 4.2, "vote_count": 57, "popularity": 4.985}, {"id": 502385, "video": false, "vote_count": 62, "vote_average": 5.9, "title": "The Festival", "release_date": "2018-08-14", "original_language": "en", "original_title": "The Festival", "genre_ids": [35, 10402], "backdrop_path": "/b3oAuzWkJ120zXQ32dWUtZ1cc2F.jpg", "adult": false, "overview": "After Nick's girlfriend dumps him, his best mate Shane has the perfect antidote to his break-up blues: three days at an epic music festival.", "poster_path": "/zokQMbuBst9z0dP5UKi9EkCSSnV.jpg", "popularity": 10.081}], "total_pages": 1, "total_results": 3}, "credits": {"cast": [{"cast_id": 15, "character": "Alice", "credit_id": "5bd82e2bc3a36821540089c2", "gender": 1, "id": 130414, "name": "Emily Beecham", "order": 1, "profile_path": "/cwBsTcY0FLnVYvRUY6cTutZsfPs.jpg"}, {"cast_id": 16, "character": "Chris", "credit_id": "5bd82e319251417f680086dd", "gender": 2, "id": 17064, "name": "Ben Whishaw", "order": 2, "profile_path": "/e74Cz65ifeNb9zHfUTvF5rTix0d.jpg"}, {"cast_id": 17, "character": "Bella", "credit_id": "5bd82f610e0a262caa0080f3", "gender": 1, "id": 17258, "name": "Kerry Fox", "order": 3, "profile_path": "/6EVZpzoOVUHKqaLqgFrNTT014IN.jpg"}, {"cast_id": 18, "character": "", "credit_id": "5bd82f7fc3a368213d0088e7", "gender": 2, "id": 1566670, "name": "Ph\u00e9nix Brossard", "order": 4, "profile_path": "/lRjAk8aZNNc07WJIjyj9qIlDfxn.jpg"}, {"cast_id": 19, "character": "", "credit_id": "5bd82fa8c3a368214a008f35", "gender": 2, "id": 1538851, "name": "Kit Connor", "order": 5, "profile_path": "/k28TBl4QBX2fqTOOb6MBXpNy5QI.jpg"}, {"cast_id": 20, "character": "Ivan", "credit_id": "5bd82fdd9251417f6b008996", "gender": 2, "id": 550554, "name": "Sebastian H\u00fclk", "order": 6, "profile_path": "/esYqiDXZ4YE6zXidWtPt32cu3RV.jpg"}, {"cast_id": 21, "character": "Psychotherapist", "credit_id": "5c34d79a0e0a2654b8d8c90f", "gender": 1, "id": 30083, "name": "Lindsay Duncan", "order": 7, "profile_path": "/ddjjwMEHLBvzkZzZ5frEvJyWnZ6.jpg"}, {"cast_id": 22, "character": "Brittany", "credit_id": "5c34d7b20e0a2654b5d8d91d", "gender": 0, "id": 1370630, "name": "Leanne Best", "order": 8, "profile_path": "/3GJSWDGuINZjQEgz06wlBELoJCK.jpg"}, {"cast_id": 23, "character": "Karl", "credit_id": "5c34d7cb0e0a2654b8d8c95b", "gender": 0, "id": 73287, "name": "David Wilmot", "order": 9, "profile_path": "/qc5ABw9XRIx6LP2rElYIJb9JTgj.jpg"}, {"cast_id": 24, "character": "Mr. Simic", "credit_id": "5c34d7ea0e0a2654c9d8dafd", "gender": 2, "id": 44736, "name": "Goran Kosti\u0107", "order": 10, "profile_path": "/3L0bBollvrXMH7BcuUKpcMue8Lo.jpg"}, {"cast_id": 25, "character": "Jasper", "credit_id": "5c34d7fdc3a36828e165da24", "gender": 0, "id": 1502758, "name": "Andrew Rajan", "order": 11, "profile_path": null}, {"cast_id": 26, "character": "", "credit_id": "5c34d80f9251414825dd347a", "gender": 0, "id": 2211290, "name": "Jessie Mae Alonzo", "order": 12, "profile_path": null}, {"cast_id": 28, "character": "Student", "credit_id": "5c7fc51ec3a3684e8cd3a94c", "gender": 2, "id": 2258850, "name": "Jason Cloud", "order": 13, "profile_path": "/3QEMSr2gq1OqrOHmuQYI5FAVvC9.jpg"}], "crew": [{"credit_id": "5aef526dc3a3681403006d69", "department": "Production", "gender": 1, "id": 474, "job": "Casting", "name": "Jina Jay", "profile_path": null}, {"credit_id": "5a807b3c925141410101fa02", "department": "Production", "gender": 0, "id": 4647, "job": "Producer", "name": "Bruno Wagner", "profile_path": null}, {"credit_id": "5a807a67c3a36818ac01e22b", "department": "Directing", "gender": 1, "id": 19896, "job": "Director", "name": "Jessica Hausner", "profile_path": "/owJiGfpVZkvk8PojcgYuCzruiIW.jpg"}, {"credit_id": "5a807b2cc3a36818ac01e2ec", "department": "Production", "gender": 1, "id": 19896, "job": "Producer", "name": "Jessica Hausner", "profile_path": "/owJiGfpVZkvk8PojcgYuCzruiIW.jpg"}, {"credit_id": "5a807a6dc3a368189a021aae", "department": "Writing", "gender": 1, "id": 19896, "job": "Writer", "name": "Jessica Hausner", "profile_path": "/owJiGfpVZkvk8PojcgYuCzruiIW.jpg"}, {"credit_id": "5c3e46050e0a2655c48fc3bc", "department": "Camera", "gender": 2, "id": 28620, "job": "Director of Photography", "name": "Martin Gschlacht", "profile_path": null}, {"credit_id": "5a807b480e0a262aa2021afc", "department": "Production", "gender": 2, "id": 28620, "job": "Producer", "name": "Martin Gschlacht", "profile_path": null}, {"credit_id": "5aef52f1c3a368142a0085f6", "department": "Art", "gender": 1, "id": 28622, "job": "Production Design", "name": "Katharina W\u00f6ppermann", "profile_path": null}, {"credit_id": "5a807b0a925141410401f15a", "department": "Editing", "gender": 0, "id": 48789, "job": "Editor", "name": "Karina Ressler", "profile_path": null}, {"credit_id": "5aef52889251417683009097", "department": "Costume & Make-Up", "gender": 0, "id": 1169610, "job": "Costume Design", "name": "Tanja Hausner", "profile_path": null}, {"credit_id": "5a807aeb0e0a262aac0229d1", "department": "Writing", "gender": 0, "id": 1266013, "job": "Screenplay", "name": "G\u00e9raldine Bajard", "profile_path": null}, {"credit_id": "5aef52a90e0a261d72007880", "department": "Costume & Make-Up", "gender": 1, "id": 1539382, "job": "Makeup Artist", "name": "Kerstin Gaecklein", "profile_path": null}, {"credit_id": "5aef529d925141766f0078b3", "department": "Costume & Make-Up", "gender": 0, "id": 1539384, "job": "Makeup Artist", "name": "Heiko Schmidt", "profile_path": null}]}}