{"adult": false, "backdrop_path": "/8E4i7yHLeNxYqAMo28ezHySCQCh.jpg", "belongs_to_collection": null, "budget": 0, "genres": [{"id": 28, "name": "Action"}, {"id": 35, "name": "Comedy"}, {"id": 53, "name": "Thriller"}], "homepage": "http://www.inseedangthemovie.com/", "id": 50583, "imdb_id": "tt1743711", "original_language": "th", "original_title": "\u0e2d\u0e34\u0e19\u0e17\u0e23\u0e35\u0e41\u0e14\u0e07", "overview": "Year 2016, Bangkok is a rotten capital infested with chaos and criminals. Widespread corruption by politicians has dipped the moral compass to a new low, and the government's hasty plan to construct a nuclear power plant has spread fears among villagers and enivironmental activists. Amidst the mood of despair, a hero emerges. He goes after filthy politicians and vile criminals, handing out his own brand of justice when the law fails to fuction. No one knows his true identity. Every time he kills, he leaves a name card which says: The Red Eagle. But Red Eagle is a hunter who's also being hunted. An assassin, called Black Devil, has been sent by a crime lord to kill him. As his past returns to haunt him, the tortured hero is facing a conflict that will decide not just his own destiny, but the destiny of his entire nation.", "popularity": 1.567, "poster_path": "/3ogIXj1BAlIF3o98uuBZSTBSNE0.jpg", "production_companies": [{"id": 1241, "logo_path": "/m0pcwdXt4FgzaBtoSMfXoNucgoz.png", "name": "Five Star Production", "origin_country": "TH"}], "production_countries": [{"iso_3166_1": "TH", "name": "Thailand"}], "release_date": "2010-10-07", "revenue": 0, "runtime": 130, "spoken_languages": [{"iso_639_1": "th", "name": "\u0e20\u0e32\u0e29\u0e32\u0e44\u0e17\u0e22"}], "status": "Released", "tagline": "", "title": "Red Eagle", "video": false, "vote_average": 5.1, "vote_count": 17, "keywords": {"keywords": []}, "similar": {"page": 1, "results": [{"id": 416234, "video": false, "vote_count": 1007, "vote_average": 5.8, "title": "Winchester", "release_date": "2018-02-02", "original_language": "en", "original_title": "Winchester", "genre_ids": [14, 27, 9648, 53], "backdrop_path": "/d4wnMDSrQonB9iArMzd90WqaoJ4.jpg", "adult": false, "overview": "San Jose, California, 1906. Isolated in her labyrinthine mansion, eccentric firearm heiress Sarah Winchester believes that she is being haunted by the souls of those killed by the guns manufactured by her company.", "poster_path": "/tHDtskokZeO9B3JBdR1dSH0uqad.jpg", "popularity": 13.27}, {"id": 122, "video": false, "vote_count": 14485, "vote_average": 8.4, "title": "The Lord of the Rings: The Return of the King", "release_date": "2003-12-01", "original_language": "en", "original_title": "The Lord of the Rings: The Return of the King", "genre_ids": [28, 12, 14], "backdrop_path": "/8BPZO0Bf8TeAy8znF43z8soK3ys.jpg", "adult": false, "overview": "Aragorn is revealed as the heir to the ancient kings as he, Gandalf and the other members of the broken fellowship struggle to save Gondor from Sauron's forces. Meanwhile, Frodo and Sam take the ring closer to the heart of Mordor, the dark lord's realm.", "poster_path": "/rCzpDGLbOoPwLjy3OAm5NUPOTrC.jpg", "popularity": 47.099}, {"id": 9647, "video": false, "vote_count": 786, "vote_average": 6.9, "title": "Scrooged", "release_date": "1988-11-22", "original_language": "en", "original_title": "Scrooged", "genre_ids": [35, 18, 14], "backdrop_path": "/6xezVJoUp0cZUBQeIDpW6lFuhcd.jpg", "adult": false, "overview": "In this modern take on Charles Dickens' \"A Christmas Carol,\" Frank Cross (Bill Murray) is a wildly successful television executive whose cold ambition and curmudgeonly nature has driven away the love of his life, Claire Phillips (Karen Allen). But after firing a staff member, Eliot Loudermilk (Bobcat Goldthwait), on Christmas Eve, Frank is visited by a series of ghosts who give him a chance to re-evaluate his actions and right the wrongs of his past.", "poster_path": "/uO0znfB2ZzTXA1IS7jkrjNbpkYK.jpg", "popularity": 17.767}, {"id": 9312, "video": false, "vote_count": 1039, "vote_average": 5.7, "title": "Mortal Kombat", "release_date": "1995-08-18", "original_language": "en", "original_title": "Mortal Kombat", "genre_ids": [28, 14], "backdrop_path": "/mOIvM0pQA7J9I0Caai0zTPxnE3f.jpg", "adult": false, "overview": "For nine generations an evil sorcerer has been victorious in hand-to-hand battle against his mortal enemies. If he wins a tenth Mortal Kombat tournament, desolation and evil will reign over the multiverse forever. To save Earth, three warriors must overcome seemingly insurmountable odds, their own inner demons, and superhuman foes in this action/adventure movie based on one of the most popular video games of all time.", "poster_path": "/aQarGLCGr9ueYuwh9EXz3DfeEd9.jpg", "popularity": 17.982}, {"id": 620, "video": false, "vote_count": 5187, "vote_average": 7.4, "title": "Ghostbusters", "release_date": "1984-06-08", "original_language": "en", "original_title": "Ghostbusters", "genre_ids": [35, 14], "backdrop_path": "/qmDy6Rdom8d8UFj9GeAAtVIjTRT.jpg", "adult": false, "overview": "After losing their academic posts at a prestigious university, a team of parapsychologists goes into business as proton-pack-toting \"ghostbusters\" who exterminate ghouls, hobgoblins and supernatural pests of all stripes. An ad campaign pays off when a knockout cellist hires the squad to purge her swanky digs of demons that appear to be living in her refrigerator.", "poster_path": "/3FS3oBdorgczgfCkFi2u8ZTFfpS.jpg", "popularity": 24.995}, {"adult": false, "backdrop_path": "/o8u0NyEigCEaZHBdCYTRfXR8U4i.jpg", "genre_ids": [27, 9648, 53], "id": 396422, "original_language": "en", "original_title": "Annabelle: Creation", "overview": "Several years after the tragic death of their little girl, a doll maker and his wife welcome a nun and several girls from a shuttered orphanage into their home, soon becoming the target of the doll maker's possessed creation\u2014Annabelle.", "poster_path": "/f7pn0VD3QpEXH8sETFNUow4o7hz.jpg", "release_date": "2017-08-03", "title": "Annabelle: Creation", "video": false, "vote_average": 6.5, "vote_count": 3553, "popularity": 20.881}, {"id": 138843, "video": false, "vote_count": 6584, "vote_average": 7.5, "title": "The Conjuring", "release_date": "2013-03-20", "original_language": "en", "original_title": "The Conjuring", "genre_ids": [27, 53], "backdrop_path": "/3TqhNm9C8GWLwkpG3gA7v0jBBb6.jpg", "adult": false, "overview": "Paranormal investigators Ed and Lorraine Warren work to help a family terrorized by a dark presence in their farmhouse. Forced to confront a powerful entity, the Warrens find themselves caught in the most terrifying case of their lives.", "poster_path": "/ejrD1lkCIQX26TO8k4gePsFpcyX.jpg", "popularity": 21.753}, {"adult": false, "backdrop_path": "/slpgZisYNapLoN9FWXqDOC1ExbU.jpg", "genre_ids": [27, 9648, 53], "id": 259693, "original_language": "en", "original_title": "The Conjuring 2", "overview": "Lorraine and Ed Warren travel to north London to help a single mother raising four children alone in a house plagued by malicious spirits.", "poster_path": "/7GUzvvrb6hbOWl8l8YkaS4fgTDT.jpg", "release_date": "2016-05-13", "title": "The Conjuring 2", "video": false, "vote_average": 7.2, "vote_count": 4651, "popularity": 26.258}, {"adult": false, "backdrop_path": "/w4w8CTEe4isWO2TzDSQ3MV3br9l.jpg", "genre_ids": [14, 35, 10751], "id": 8839, "original_language": "en", "original_title": "Casper", "overview": "Furious that her late father only willed her his gloomy-looking mansion rather than his millions, Carrigan Crittenden is ready to burn the place to the ground when she discovers a map to a treasure hidden in the house. But when she enters the rickety mansion to seek her claim, she is frightened away by a wicked wave of ghosts. Determined to get her hands on this hidden fortune, she hires afterlife therapist Dr. James Harvey to exorcise the ghosts from the mansion. Harvey and his daughter Kat move in, and soon Kat meets Casper, the ghost of a young boy who's \"the friendliest ghost you know.\" But not so friendly are Casper's uncles--Stretch, Fatso and Stinkie--who are determined to drive all \"fleshies\" away.", "poster_path": "/1WeumvndgPE3hopKQqXbCKO26oH.jpg", "release_date": "1995-05-26", "title": "Casper", "video": false, "vote_average": 6.2, "vote_count": 2788, "popularity": 25.596}, {"id": 43074, "video": false, "vote_count": 4132, "vote_average": 5.4, "title": "Ghostbusters", "release_date": "2016-07-14", "original_language": "en", "original_title": "Ghostbusters", "genre_ids": [28, 35, 14], "backdrop_path": "/cEIBMJYS0aE1xrUXDvxLeAcTbbC.jpg", "adult": false, "overview": "Following a ghost invasion of Manhattan, paranormal enthusiasts Erin Gilbert and Abby Yates, nuclear engineer Jillian Holtzmann, and subway worker Patty Tolan band together to stop the otherworldly threat.", "poster_path": "/4qnJ1hsMADxzwnOmnwjZTNp0rKT.jpg", "popularity": 26.23}, {"id": 166426, "video": false, "vote_count": 7553, "vote_average": 6.6, "title": "Pirates of the Caribbean: Dead Men Tell No Tales", "release_date": "2017-05-23", "original_language": "en", "original_title": "Pirates of the Caribbean: Dead Men Tell No Tales", "genre_ids": [28, 12, 35, 14], "backdrop_path": "/7C921eWK06n12c1miRXnYoEu5Yv.jpg", "adult": false, "overview": "Thrust into an all-new adventure, a down-on-his-luck Capt. Jack Sparrow feels the winds of ill-fortune blowing even more strongly when deadly ghost sailors led by his old nemesis, the evil Capt. Salazar, escape from the Devil's Triangle. Jack's only hope of survival lies in seeking out the legendary Trident of Poseidon, but to find it, he must forge an uneasy alliance with a brilliant and beautiful astronomer and a headstrong young man in the British navy.", "poster_path": "/xbpSDU3p7YUGlu9Mr6Egg2Vweto.jpg", "popularity": 31.346}, {"id": 4011, "video": false, "vote_count": 3507, "vote_average": 7.3, "title": "Beetlejuice", "release_date": "1988-02-29", "original_language": "en", "original_title": "Beetlejuice", "genre_ids": [35, 14], "backdrop_path": "/upAwc1kPQJU1ZWeMgEWV8Lp6CWb.jpg", "adult": false, "overview": "Thanks to an untimely demise via drowning, a young couple end up as poltergeists in their New England farmhouse, where they fail to meet the challenge of scaring away the insufferable new owners, who want to make drastic changes. In desperation, the undead newlyweds turn to an expert frightmeister, but he's got a diabolical agenda of his own.", "poster_path": "/gWnW7vxm8yr01TVLQhL4aI02orp.jpg", "popularity": 34.958}, {"id": 745, "video": false, "vote_count": 6957, "vote_average": 7.9, "title": "The Sixth Sense", "release_date": "1999-08-06", "original_language": "en", "original_title": "The Sixth Sense", "genre_ids": [18, 9648, 53], "backdrop_path": "/1X6F9OvfaWl6AGcCdqYl8icxG9z.jpg", "adult": false, "overview": "A psychological thriller about an eight year old boy named Cole Sear who believes he can see into the world of the dead. A child psychologist named Malcolm Crowe comes to Cole to help him deal with his problem, learning that he really can see ghosts of dead people.", "poster_path": "/imps263dHNe3SuoaAJORZyNTdDT.jpg", "popularity": 24.961}, {"id": 448095, "video": false, "vote_count": 308, "vote_average": 6.8, "title": "I Still See You", "release_date": "2018-09-27", "original_language": "en", "original_title": "I Still See You", "genre_ids": [14, 53], "backdrop_path": "/7rqpB7coXaNvTVMWb5vL8qU0pBp.jpg", "adult": false, "overview": "A spellbinding and romantic supernatural thriller. Ten years after an apocalyptic event left the world haunted by ghosts, Roni receives a threatening message from beyond the grave. Joining forces with a mysterious classmate, Kirk, Roni descends into a shadow world that blurs the bounds of the living and the dead-and begins a desperate race against time to stop a cunning killer.", "poster_path": "/9fqzZs922V8OmwgO11Eqclof2mQ.jpg", "popularity": 16.612}, {"adult": false, "backdrop_path": "/59baGxEztxeXW1oFjs8EBgXxTXk.jpg", "genre_ids": [27, 53], "id": 91586, "original_language": "en", "original_title": "Insidious: Chapter 2", "overview": "The haunted Lambert family seeks to uncover the mysterious childhood secret that has left them dangerously connected to the spirit world.", "poster_path": "/vmWgw1Lsc6bHThA6S2k8fPsROaI.jpg", "release_date": "2013-09-12", "title": "Insidious: Chapter 2", "video": false, "vote_average": 6.6, "vote_count": 2515, "popularity": 21.591}, {"id": 439, "video": false, "vote_count": 829, "vote_average": 8.1, "title": "La Dolce Vita", "release_date": "1960-02-05", "original_language": "it", "original_title": "La dolce vita", "genre_ids": [35, 18], "backdrop_path": "/b3ofp0vhkbKsrz2V44DimBRKkxf.jpg", "adult": false, "overview": "Episodic journey of an Italian journalist scouring Rome in search of love.", "poster_path": "/aU7WLwPVCOoonAPWOPBmZ8X0c3c.jpg", "popularity": 18.483}, {"adult": false, "backdrop_path": "/w8jINuXklxghTAHNxt0NQYaAN1C.jpg", "genre_ids": [27], "id": 242512, "original_language": "en", "original_title": "Ouija", "overview": "A group of friends must confront their most terrifying fears when they awaken the dark powers of an ancient spirit board.", "poster_path": "/vHTXN00kJktCbSLV50Vbk9siNiX.jpg", "release_date": "2014-10-24", "title": "Ouija", "video": false, "vote_average": 5.1, "vote_count": 1835, "popularity": 21.913}, {"adult": false, "backdrop_path": "/kQOLgJGvFjQ7EwGfaPkW9dlGFXJ.jpg", "genre_ids": [27, 9648], "id": 565, "original_language": "en", "original_title": "The Ring", "overview": "It sounded like just another urban legend: A videotape filled with nightmarish images, leading to a phone call foretelling the viewer's death in exactly seven days. As a newspaper reporter, Rachel Keller was naturally skeptical of the story, until four teenagers all met with mysterious deaths exactly one week after watching just such a tape. Allowing her investigative curiosity to get the better of her, Rachel tracks down the video... and watches it. Now she has just seven days to unravel the mystery of the Ring.", "poster_path": "/zHJFdhqEXZJxG653oZvOM3PmNON.jpg", "release_date": "2002-10-18", "title": "The Ring", "video": false, "vote_average": 6.6, "vote_count": 3616, "popularity": 12.821}, {"id": 17979, "video": false, "vote_count": 2815, "vote_average": 6.8, "title": "A Christmas Carol", "release_date": "2009-11-04", "original_language": "en", "original_title": "A Christmas Carol", "genre_ids": [16, 10751], "backdrop_path": "/GtwSStViUdhKGf0d7tCkR7alKV.jpg", "adult": false, "overview": "Miser Ebenezer Scrooge is awakened on Christmas Eve by spirits who reveal to him his own miserable existence, what opportunities he wasted in his youth, his current cruelties, and the dire fate that awaits him if he does not change his ways. Scrooge is faced with his own story of growing bitterness and meanness, and must decide what his own future will hold: death or redemption.", "poster_path": "/jeOCcjUAcSYleVwhsaKEPT4CYwF.jpg", "popularity": 19.945}, {"id": 14813, "video": false, "vote_count": 456, "vote_average": 7.6, "title": "Mickey's Christmas Carol", "release_date": "1983-10-19", "original_language": "en", "original_title": "Mickey's Christmas Carol", "genre_ids": [16, 10751], "backdrop_path": "/fDK3xeAcQfQ40ZUULgZshElkspa.jpg", "adult": false, "overview": "It is an adaptation of the Charles Dickens classic A Christmas Carol, featuring Scrooge McDuck as his namesake and inspiration Ebenezer Scrooge and Mickey Mouse as Bob Cratchit. This film was based on a 1972 audio musical entitled Disney's A Christmas Carol. It is a twenty-four minute animated short film produced by Walt Disney Productions as an accompaniment to a re-release of The Rescuers.", "poster_path": "/29iF1IiC3ZyJQ1kmTf4LD8p8oro.jpg", "popularity": 14.7}], "total_pages": 55, "total_results": 1093}, "recommendations": {"page": 1, "results": [{"adult": false, "backdrop_path": "/i2SeWsQaac0pszKDm2PxAITwChL.jpg", "genre_ids": [27, 28, 14], "id": 27436, "original_language": "th", "original_title": "\u0e42\u0e2d\u0e1b\u0e1b\u0e32\u0e15\u0e34\u0e01 \u0e40\u0e01\u0e34\u0e14\u0e2d\u0e21\u0e15\u0e30", "overview": "Opapatika is a special power that makes one become practically invincible. The power remains alive so long as that person is remains alive. In this film, five Opapatikas, each with their own unique power, are brought together. They meet in the middle of a great assassination that finally brings them loss, but a new start of their lives.", "poster_path": "/9g1byQBzEW44gAC0Rmnk5WCQNAN.jpg", "release_date": "2007-10-23", "title": "Demon Warriors", "video": false, "vote_average": 4.2, "vote_count": 5, "popularity": 2.51}], "total_pages": 1, "total_results": 1}, "credits": {"cast": [{"cast_id": 2, "character": "Red Eagle / Rome", "credit_id": "52fe47cdc3a36847f814902b", "gender": 2, "id": 81253, "name": "Ananda Everingham", "order": 0, "profile_path": "/qXExcHzuYNZy79GFDNwmB7gTLLL.jpg"}, {"cast_id": 3, "character": "Wassana", "credit_id": "52fe47cdc3a36847f814902f", "gender": 1, "id": 1170107, "name": "Yarinda Bunnag", "order": 1, "profile_path": "/jbEj82Vkx42hF0TDZuvG751NUUU.jpg"}, {"cast_id": 4, "character": "", "credit_id": "52fe47cdc3a36847f8149033", "gender": 0, "id": 1170108, "name": "Wannasing Prasertkul", "order": 2, "profile_path": null}, {"cast_id": 5, "character": "", "credit_id": "52fe47cdc3a36847f8149037", "gender": 0, "id": 1170109, "name": "Pornwut Sarasin", "order": 3, "profile_path": null}, {"cast_id": 6, "character": "Black Devil", "credit_id": "52fe47cdc3a36847f814903b", "gender": 2, "id": 955264, "name": "Ron Smoorenburg", "order": 4, "profile_path": "/966UMP8nH678wUOmJ3Ai1f4xaMT.jpg"}], "crew": [{"credit_id": "52fe47cdc3a36847f8149027", "department": "Directing", "gender": 2, "id": 28233, "job": "Director", "name": "Wisit Sasanatieng", "profile_path": "/62HuEYrP5NuLYsXYKIRycpfE2WT.jpg"}, {"credit_id": "52fe47cdc3a36847f8149041", "department": "Editing", "gender": 0, "id": 545212, "job": "Editor", "name": "Sunij Asavinikul", "profile_path": null}, {"credit_id": "52fe47cdc3a36847f8149047", "department": "Editing", "gender": 0, "id": 1170110, "job": "Editor", "name": "Phannipha Kabillikavanich", "profile_path": null}]}}