{"adult": false, "backdrop_path": "/iCtf6nq1Dj0A6r8CPjBzk9P9hSg.jpg", "belongs_to_collection": {"id": 512693, "name": "Atlantic Rim Collection", "poster_path": null, "backdrop_path": "/uFoGQcfLDNYNbVp1KHFTZStvzry.jpg"}, "budget": 0, "genres": [{"id": 28, "name": "Action"}], "homepage": "http://www.theasylum.cc/", "id": 506319, "imdb_id": "tt7963218", "original_language": "en", "original_title": "Atlantic Rim: Resurrection", "overview": "When huge bio-mechanical monsters descend upon the earth ready to destroy the entire city of Los Angeles, a whole new team of top notch \"M-bot\" pilots take control of their supercharged robot warriors and try to save the world from being reduced to rubble", "popularity": 5.918, "poster_path": "/bvg3vt4zs8BwAu281Z4mJVDr1OZ.jpg", "production_companies": [], "production_countries": [], "release_date": "2018-05-11", "revenue": 0, "runtime": 90, "spoken_languages": [{"iso_639_1": "en", "name": "English"}], "status": "Released", "tagline": "Metal vs Monster", "title": "Atlantic Rim: Resurrection", "video": false, "vote_average": 2.6, "vote_count": 12, "keywords": {"keywords": [{"id": 1373, "name": "killer robot"}, {"id": 10891, "name": "giant robot"}, {"id": 13031, "name": "creature"}, {"id": 14909, "name": "alien invasion"}, {"id": 232561, "name": "military sci-fi"}]}, "similar": {"page": 1, "results": [{"id": 10529, "video": false, "vote_count": 628, "vote_average": 6.1, "title": "Outlander", "release_date": "2008-04-24", "original_language": "en", "original_title": "Outlander", "genre_ids": [28, 14, 878], "backdrop_path": "/rOmTlcLUmNbjpSM03MqPmVe35aC.jpg", "adult": false, "overview": "During the reign of the Vikings, a man from another world crash-lands on Earth, bringing with him an alien predator. The man must fuse his advanced technology with the weaponry of the vikings to fight the monster.", "poster_path": "/fjRXOzuBEg0VGDM701ftBaVqWTr.jpg", "popularity": 16.497}, {"adult": false, "backdrop_path": "/kormVYncbZMrToXaOV58o74LNIz.jpg", "genre_ids": [18, 53, 878, 9648], "id": 2675, "original_language": "en", "original_title": "Signs", "overview": "A family living on a farm finds mysterious crop circles in their fields which suggests something more frightening to come.", "poster_path": "/bY9lCUVUajpkKWlfjWF1mtXaSUp.jpg", "release_date": "2002-08-02", "title": "Signs", "video": false, "vote_average": 6.6, "vote_count": 3222, "popularity": 16.898}, {"id": 106, "video": false, "vote_count": 4130, "vote_average": 7.4, "title": "Predator", "release_date": "1987-06-12", "original_language": "en", "original_title": "Predator", "genre_ids": [28, 12, 878, 53], "backdrop_path": "/vvsQe0ksUH001rxFGrnZkL9eBzr.jpg", "adult": false, "overview": "Dutch and his group of commandos are hired by the CIA to rescue downed airmen from guerillas in a Central American jungle. The mission goes well but as they return they find that something is hunting them. Nearly invisible, it blends in with the forest, taking trophies from the bodies of its victims as it goes along. Occasionally seeing through its eyes, the audience sees it is an intelligent alien hunter, hunting them for sport, killing them off one at a time.", "poster_path": "/gUpto7r2XwoM5eW7MUvd8hl1etB.jpg", "popularity": 28.364}, {"id": 346910, "video": false, "vote_count": 2440, "vote_average": 5.3, "title": "The Predator", "release_date": "2018-09-05", "original_language": "en", "original_title": "The Predator", "genre_ids": [28, 12, 27, 878, 53], "backdrop_path": "/f4E0ocYeToEuXvczZv6QArrMDJ.jpg", "adult": false, "overview": "When a kid accidentally triggers the universe's most lethal hunters' return to Earth, only a ragtag crew of ex-soldiers and a disgruntled female scientist can prevent the end of the human race.", "poster_path": "/wMq9kQXTeQCHUZOG4fAe5cAxyUA.jpg", "popularity": 26.19}, {"id": 602, "video": false, "vote_count": 6006, "vote_average": 6.8, "title": "Independence Day", "release_date": "1996-06-25", "original_language": "en", "original_title": "Independence Day", "genre_ids": [28, 12, 878], "backdrop_path": "/4E2xKGrU2qcqUE2S3Nl27hwZdqy.jpg", "adult": false, "overview": "On July 2, a giant alien mothership enters orbit around Earth and deploys several dozen saucer-shaped 'destroyer' spacecraft that quickly lay waste to major cities around the planet. On July 3, the United States conducts a coordinated counterattack that fails. On July 4, a plan is devised to gain access to the interior of the alien mothership in space, in order to plant a nuclear missile.", "poster_path": "/bqLlWZJdhrS0knfEJRkquW7L8z2.jpg", "popularity": 20.636}, {"adult": false, "backdrop_path": "/6kVVfNT0auG6fU5SFQ1zbayNWUC.jpg", "genre_ids": [28, 53, 878], "id": 7191, "original_language": "en", "original_title": "Cloverfield", "overview": "Five young New Yorkers throw their friend a going-away party the night that a monster the size of a skyscraper descends upon the city. Told from the point of view of their video camera, the film is a document of their attempt to survive the most surreal, horrifying event of their lives.", "poster_path": "/qIegUGJqyMMCRjkKV1s7A9MqdJ8.jpg", "release_date": "2008-01-15", "title": "Cloverfield", "video": false, "vote_average": 6.5, "vote_count": 4429, "popularity": 18.322}, {"id": 91314, "video": false, "vote_count": 5192, "vote_average": 5.8, "title": "Transformers: Age of Extinction", "release_date": "2014-06-25", "original_language": "en", "original_title": "Transformers: Age of Extinction", "genre_ids": [28, 12, 878], "backdrop_path": "/cHy7nSitAVgvZ7qfCK4JO47t3oZ.jpg", "adult": false, "overview": "As humanity picks up the pieces, following the conclusion of \"Transformers: Dark of the Moon,\" Autobots and Decepticons have all but vanished from the face of the planet. However, a group of powerful, ingenious businessman and scientists attempt to learn from past Transformer incursions and push the boundaries of technology beyond what they can control - all while an ancient, powerful Transformer menace sets Earth in his cross-hairs.", "poster_path": "/ykIZB9dYBIKV13k5igGFncT5th6.jpg", "popularity": 29.624}, {"id": 68726, "video": false, "vote_count": 8208, "vote_average": 6.8, "title": "Pacific Rim", "release_date": "2013-07-11", "original_language": "en", "original_title": "Pacific Rim", "genre_ids": [28, 12, 878], "backdrop_path": "/iB0RsWVoOXzicPi2Yy5xmTYMbho.jpg", "adult": false, "overview": "When legions of monstrous creatures, known as Kaiju, started rising from the sea, a war began that would take millions of lives and consume humanity's resources for years on end. To combat the giant Kaiju, a special type of weapon was devised: massive robots, called Jaegers, which are controlled simultaneously by two pilots whose minds are locked in a neural bridge. But even the Jaegers are proving nearly defenseless in the face of the relentless Kaiju. On the verge of defeat, the forces defending mankind have no choice but to turn to two unlikely heroes\u2014a washed-up former pilot (Charlie Hunnam) and an untested trainee (Rinko Kikuchi)\u2014who are teamed to drive a legendary but seemingly obsolete Jaeger from the past. Together, they stand as mankind's last hope against the mounting apocalypse.", "poster_path": "/sCJEwEShZvruTpQ2a4yiX3Q9EyZ.jpg", "popularity": 32.371}, {"id": 137113, "video": false, "vote_count": 8823, "vote_average": 7.6, "title": "Edge of Tomorrow", "release_date": "2014-05-27", "original_language": "en", "original_title": "Edge of Tomorrow", "genre_ids": [28, 878], "backdrop_path": "/7mgKeg18Qml5nJQa56RBZO7dIu0.jpg", "adult": false, "overview": "Major Bill Cage is an officer who has never seen a day of combat when he is unceremoniously demoted and dropped into combat. Cage is killed within minutes, managing to take an alpha alien down with him. He awakens back at the beginning of the same day and is forced to fight and die again... and again - as physical contact with the alien has thrown him into a time loop.", "poster_path": "/tpoVEYvm6qcXueZrQYJNRLXL88s.jpg", "popularity": 33.684}, {"id": 47933, "video": false, "vote_count": 4137, "vote_average": 5.1, "title": "Independence Day: Resurgence", "release_date": "2016-06-22", "original_language": "en", "original_title": "Independence Day: Resurgence", "genre_ids": [28, 12, 878], "backdrop_path": "/mou66QcacavDahfyuaqKfaCLdoI.jpg", "adult": false, "overview": "We always knew they were coming back. Using recovered alien technology, the nations of Earth have collaborated on an immense defense program to protect the planet. But nothing can prepare us for the aliens\u2019 advanced and unprecedented force. Only the ingenuity of a few brave men and women can bring our world back from the brink of extinction.", "poster_path": "/5CHJs479xWnm3zMDOl94VkKS7MZ.jpg", "popularity": 16.669}, {"id": 9982, "video": false, "vote_count": 2289, "vote_average": 5.8, "title": "Chicken Little", "release_date": "2005-11-04", "original_language": "en", "original_title": "Chicken Little", "genre_ids": [16, 35, 10751], "backdrop_path": "/39oKyStu7OHnq7twySPbW0gPvBK.jpg", "adult": false, "overview": "When the sky really is falling and sanity has flown the coop, who will rise to save the day? Together with his hysterical band of misfit friends, Chicken Little must hatch a plan to save the planet from alien invasion and prove that the world's biggest hero is a little chicken.", "poster_path": "/iLMALbInUmbNn1tHmxJEWm5MyjP.jpg", "popularity": 24.314}, {"id": 7453, "video": false, "vote_count": 2556, "vote_average": 6.7, "title": "The Hitchhiker's Guide to the Galaxy", "release_date": "2005-04-28", "original_language": "en", "original_title": "The Hitchhiker's Guide to the Galaxy", "genre_ids": [12, 35, 878, 10751], "backdrop_path": "/kMf3ewax3ZeiSESaPQxBAReQzDD.jpg", "adult": false, "overview": "Mere seconds before the Earth is to be demolished by an alien construction crew, Arthur Dent is swept off the planet by his friend Ford Prefect, a researcher penning a new edition of \"The Hitchhiker's Guide to the Galaxy.\"", "poster_path": "/fOb4cJMhnZ11BoHNUii3Vcfo3XU.jpg", "popularity": 23.951}, {"adult": false, "backdrop_path": "/2mVGExprEkZAwOmYOi9dJkyX9Mq.jpg", "genre_ids": [28, 35, 878], "id": 80035, "original_language": "en", "original_title": "The Watch", "overview": "Four everyday suburban guys come together as an excuse to escape their humdrum lives one night a week. But when they accidentally discover that their town has become overrun with aliens posing as ordinary suburbanites, they have no choice but to save their neighborhood - and the world - from total extermination.", "poster_path": "/8fc3oLtDi8ZiV7Di1XJMl5T6uhE.jpg", "release_date": "2012-07-26", "title": "The Watch", "video": false, "vote_average": 5.4, "vote_count": 1471, "popularity": 15.624}, {"adult": false, "backdrop_path": "/eTxgy8eROB5Ly7ZXKLukQoF6tKl.jpg", "genre_ids": [27, 878], "id": 11549, "original_language": "en", "original_title": "Invasion of the Body Snatchers", "overview": "A small-town doctor learns that the population of his community is being replaced by emotionless alien duplicates.", "poster_path": "/4oj0G2Zr6tQKBDOzKaLuefdeBsG.jpg", "release_date": "1956-02-05", "title": "Invasion of the Body Snatchers", "video": false, "vote_average": 7.5, "vote_count": 472, "popularity": 24.989}, {"adult": false, "backdrop_path": "/jAfDrjH0tIqzsJpwmY6yTfP0Big.jpg", "genre_ids": [10749, 878, 28, 12], "id": 19545, "original_language": "ja", "original_title": "\u602a\u7363\u5927\u6226\u4e89", "overview": "Mysterious aliens known as Xiliens arrive from Planet X and ask Earth's people to help them save their world from \"Monster Zero\".  In exchange for borrowing Godzilla and Rodan, the Xiliens offer a cure for  cancer. Sent on the expedition are astronauts Glenn and Fuji who discover Monster Zero is none other than King Ghidorah.", "poster_path": "/nNX5PVGZj40vVCQHkn2kpnoq5mJ.jpg", "release_date": "1965-12-19", "title": "Invasion of Astro-Monster", "video": false, "vote_average": 6.4, "vote_count": 55, "popularity": 9.27}, {"adult": false, "backdrop_path": "/3dWSyYEdcmvNjzwIPy4sPHjdJpw.jpg", "genre_ids": [878, 27, 28], "id": 9348, "original_language": "en", "original_title": "Species", "overview": "In 1993, the Search for Extra Terrestrial Intelligence Project receives a transmission detailing an alien DNA structure, along with instructions on how to splice it with human DNA. The result is Sil, a sensual but deadly creature who can change from a beautiful woman to an armour-plated killing machine in the blink of an eye.", "poster_path": "/94P6kzKH8aPmQmPr9yZjgy7BtQQ.jpg", "release_date": "1995-07-07", "title": "Species", "video": false, "vote_average": 5.7, "vote_count": 799, "popularity": 27.177}, {"id": 44912, "video": false, "vote_count": 4726, "vote_average": 5.1, "title": "Green Lantern", "release_date": "2011-06-16", "original_language": "en", "original_title": "Green Lantern", "genre_ids": [28, 12, 878, 53], "backdrop_path": "/gulyiqtyuzFRJCnvNwD6Z786kQi.jpg", "adult": false, "overview": "For centuries, a small but powerful force of warriors called the Green Lantern Corps has sworn to keep intergalactic order. Each Green Lantern wears a ring that grants him superpowers. But when a new enemy called Parallax threatens to destroy the balance of power in the Universe, their fate and the fate of Earth lie in the hands of the first human ever recruited.", "poster_path": "/zUSEYp9G7Hk9GZIfbPoOiSHvwHV.jpg", "popularity": 15.073}, {"id": 534, "video": false, "vote_count": 4114, "vote_average": 6.0, "title": "Terminator Salvation", "release_date": "2009-05-20", "original_language": "en", "original_title": "Terminator Salvation", "genre_ids": [28, 878, 53], "backdrop_path": "/mglXOOyXISvuIdLgvhU9oXn1Mi7.jpg", "adult": false, "overview": "All grown up in post-apocalyptic 2018, John Connor must lead the resistance of humans against the increasingly dominating militaristic robots. But when Marcus Wright appears, his existence confuses the mission as Connor tries to determine whether Wright has come from the future or the past -- and whether he's friend or foe.", "poster_path": "/gw6JhlekZgtKUFlDTezq3j5JEPK.jpg", "popularity": 34.306}, {"id": 49017, "video": false, "vote_count": 4003, "vote_average": 6.3, "title": "Dracula Untold", "release_date": "2014-10-01", "original_language": "en", "original_title": "Dracula Untold", "genre_ids": [28, 18, 14, 27, 10752], "backdrop_path": "/gy5ItoprIPOT7Z1c2YhNhart39l.jpg", "adult": false, "overview": "Vlad Tepes is a great hero, but when he learns the Sultan is preparing for battle and needs to form an army of 1,000 boys, he vows to find a way to protect his family. Vlad turns to dark forces in order to get the power to destroy his enemies and agrees to go from hero to monster as he's turned into the mythological vampire, Dracula.", "poster_path": "/4oy4e0DP6LRwRszfx8NY8EYBj8V.jpg", "popularity": 32.104}, {"id": 49849, "video": false, "vote_count": 3363, "vote_average": 5.5, "title": "Cowboys & Aliens", "release_date": "2011-07-29", "original_language": "en", "original_title": "Cowboys & Aliens", "genre_ids": [28, 878, 53, 37], "backdrop_path": "/gTDwoJBCu7scwYQoykIlLNpkCes.jpg", "adult": false, "overview": "A stranger stumbles into the desert town of Absolution with no memory of his past and a futuristic shackle around his wrist. With the help of mysterious beauty Ella and the iron-fisted Colonel Dolarhyde, he finds himself leading an unlikely posse of cowboys, outlaws, and Apache warriors against a common enemy from beyond this world in an epic showdown for survival.", "poster_path": "/9uZsGCP4rvOHVGCpMpYq5gNCuNI.jpg", "popularity": 21.609}], "total_pages": 77, "total_results": 1535}, "recommendations": {"page": 1, "results": [{"adult": false, "backdrop_path": "/j6U9gM8XGiI2qEjcpm4e8H5E23w.jpg", "genre_ids": [10770, 28, 18, 9648], "id": 67204, "original_language": "en", "original_title": "Reverse Angle", "overview": "In the remote, sun soaked Pennsylvanian countryside, Ned Larson - a retired professor and reclusive inventor is killed in an explosion at his home. Soon after, small-time investigative journalist Eve Pretson crawls from the wreckage of a burnt out car nearby. She suffers a complete loss of memory - with no recollection of who she is or anything that preceded the accident. Weak and disorientated, she stops at a gas station for help, but instead witnesses the murder of a local mechanic. How are these events connected? In a desperate search for answers, Eve pieces together the scattered fragments of her life, becoming ever more fearful of all she uncovers.", "poster_path": "/cLCD41wUOrmRe07PEW5wrKQHCvZ.jpg", "release_date": "2009-05-03", "title": "Reverse Angle", "video": false, "vote_average": 6.8, "vote_count": 5, "popularity": 2.069}, {"adult": false, "backdrop_path": "/oZ5d5xdUrc3G0Ai4tsqFS5N9Gr0.jpg", "genre_ids": [27, 53], "id": 450654, "original_language": "en", "original_title": "Out of the Shadows", "overview": "A newly married detective and his pregnant wife move into their dream home unaware of its dark history. When his wife claims their baby is being tormented by a supernatural force and seeks the help of a renegade demonologist, he must investigate the past to save his family.", "poster_path": "/ikPI9bF9s7jufAi5Q3QcuQjdQVm.jpg", "release_date": "2017-04-29", "title": "Out of the Shadows", "video": false, "vote_average": 8.0, "vote_count": 4, "popularity": 2.52}, {"adult": false, "backdrop_path": "/sc9RO74f5oyy53GfJn6HO2UsVxE.jpg", "genre_ids": [], "id": 83791, "original_language": "en", "original_title": "Living with the Enemy", "overview": "Smart, sexy Allison can't help but fall in love with Philip, a dashing software billionaire, and they quickly marry. But soon this new bride begins to think her hubby was involved in the mysterious death of his first wife. This suspicious newlywed needs to get to the truth - but as things turn dangerous, she may not make it to their first anniversary!", "poster_path": "/4vTO7o9VxmRYPKW7g9IhtaOBeXG.jpg", "release_date": "2005-01-01", "title": "Living with the Enemy", "video": false, "vote_average": 7.0, "vote_count": 4, "popularity": 2.451}, {"adult": false, "backdrop_path": "/xs1FnNBNhMBQckKqMJBIYWpnnDr.jpg", "genre_ids": [53, 10770], "id": 487088, "original_language": "en", "original_title": "Devious Nanny", "overview": "A woman tries to protect her family after her husband has an affair with their nanny. As her husband's co-workers are killed, she discovers everything is not what it appears to be.", "poster_path": "/XNk6SG77YyNodXZcR3Z9HPeaTR.jpg", "release_date": "2018-03-02", "title": "Devious Nanny", "video": false, "vote_average": 7.6, "vote_count": 7, "popularity": 8.22}], "total_pages": 1, "total_results": 4}, "credits": {"cast": [{"cast_id": 0, "character": "Dr. JP Roth", "credit_id": "5a8b5d16c3a36862a707c7c3", "gender": 0, "id": 1232535, "name": "Steve Richard Harris", "order": 1, "profile_path": null}, {"cast_id": 1, "character": "Samantha", "credit_id": "5a8b5d2c9251410a1f0803cd", "gender": 0, "id": 1579145, "name": "Teagan Sirset", "order": 2, "profile_path": null}, {"cast_id": 3, "character": "General Worthington", "credit_id": "5a8b5d749251410a1f0803fc", "gender": 0, "id": 1581483, "name": "Terry Woodberry", "order": 4, "profile_path": null}, {"cast_id": 4, "character": "Dr. Andrea Horowitz", "credit_id": "5a8b5da2c3a3686207080415", "gender": 0, "id": 1981653, "name": "Jenna Enns", "order": 5, "profile_path": null}, {"cast_id": 6, "character": "Bugs", "credit_id": "5d542b7c55c9260017254d5f", "gender": 1, "id": 1696081, "name": "Lindsay Elston", "order": 6, "profile_path": "/rWSoTjeu5b8qAcxZlPBZlrg40BK.jpg"}], "crew": [{"credit_id": "5a8b5e490e0a26540c07f75f", "department": "Directing", "gender": 2, "id": 583932, "job": "Director", "name": "Jared Cohn", "profile_path": null}]}}