{"adult": false, "backdrop_path": "/6uPii9T9SeZHbm8YBMilyrXtZo6.jpg", "belongs_to_collection": null, "budget": 700000, "genres": [{"id": 99, "name": "Documentary"}], "homepage": "http://www.feministswhatweretheythinking.com/", "id": 507618, "imdb_id": "tt5419676", "original_language": "en", "original_title": "Feminists: What Were They Thinking?", "overview": "In 1977, a book of photographs captured an awakening - women shedding the cultural restrictions of their childhoods and embracing their full humanity. FEMINISTS: WHAT WERE THEY THINKING? revisits those photos, those women and those times and takes aim at our culture today that alarmingly shows the need for continued change.", "popularity": 7.585, "poster_path": "/dmSlkxFmbZmhdsvxuVIhgmlPmRK.jpg", "production_companies": [{"id": 110495, "logo_path": null, "name": "Crazy Wisdom Productions", "origin_country": ""}], "production_countries": [{"iso_3166_1": "US", "name": "United States of America"}], "release_date": "2018-02-19", "revenue": 0, "runtime": 86, "spoken_languages": [{"iso_639_1": "en", "name": "English"}], "status": "Released", "tagline": "", "title": "Feminists: What Were They Thinking?", "video": false, "vote_average": 8.0, "vote_count": 50, "keywords": {"keywords": [{"id": 2383, "name": "feminism"}, {"id": 9682, "name": "history"}, {"id": 11718, "name": "feminist"}, {"id": 161316, "name": "social documentary"}, {"id": 187056, "name": "woman director"}, {"id": 233514, "name": "feminist activism"}, {"id": 240847, "name": "social & cultural documentary"}]}, "similar": {"page": 1, "results": [{"id": 616584, "video": false, "vote_count": 92, "vote_average": 7.5, "title": "K-12", "release_date": "2019-09-05", "original_language": "en", "original_title": "K-12", "genre_ids": [14, 27, 10402], "backdrop_path": "/fSlfaF0Ydfr2SK6hOYHvDsb7a9Z.jpg", "adult": false, "overview": "Cry Baby, a strong and sensitive girl, is sent off to a disturbing sleepaway school that\u2019s hidden underneath a grandiose fa\u00e7ade. Luckily, she has a sweet and unapologetic best friend who sticks up for her when she gets bullied by the other students whose brains are under control by the Principal and his wicked staff. With the help of the magical friends they meet along the way, as well as an Angelic Spirit Guide, they are able to gain the strength they need to fight off the school\u2019s belligerent patriarchal conditioning.", "poster_path": "/nVi0yBBPj5Z96JgGWVIg94kv7bR.jpg", "popularity": 15.107}, {"id": 9813, "video": false, "vote_count": 128, "vote_average": 6.1, "title": "The Quiet", "release_date": "2005-09-12", "original_language": "en", "original_title": "The Quiet", "genre_ids": [18, 53], "backdrop_path": "/6eyWAZA4CEidZW1xXnQ4vlYBXTP.jpg", "adult": false, "overview": "After her widowed father dies, deaf teenager Dot moves in with her godparents, Olivia and Paul Deer. The Deers' daughter, Nina, is openly hostile to Dot, but that does not prevent her from telling her secrets to her silent stepsister, including the fact that she wants to kill her lecherous father.", "poster_path": "/GEqIE9YlmygHVUfS64LW2cwAAM.jpg", "popularity": 14.844}, {"adult": false, "backdrop_path": "/6bnI08rrGXRkngRqJWCMXDZuJ1j.jpg", "genre_ids": [35, 10402], "id": 254470, "original_language": "en", "original_title": "Pitch Perfect 2", "overview": "The Bellas are back, and they are better than ever. After being humiliated in front of none other than the President of the United States of America, the Bellas are taken out of the Aca-Circuit. In order to clear their name, and regain their status, the Bellas take on a seemingly impossible task: winning an international competition no American team has ever won. In order to accomplish this monumental task, they need to strengthen the bonds of friendship and sisterhood and blow away the competition with their amazing aca-magic! With all new friends and old rivals tagging along for the trip, the Bellas can hopefully accomplish their dreams.", "poster_path": "/qSjruLiFB4uqRtz2xheQPxG8uaB.jpg", "release_date": "2015-05-07", "title": "Pitch Perfect 2", "video": false, "vote_average": 6.8, "vote_count": 3901, "popularity": 29.697}, {"id": 297762, "video": false, "vote_count": 13722, "vote_average": 7.3, "title": "Wonder Woman", "release_date": "2017-05-30", "original_language": "en", "original_title": "Wonder Woman", "genre_ids": [28, 12, 14], "backdrop_path": "/6iUNJZymJBMXXriQyFZfLAKnjO6.jpg", "adult": false, "overview": "An Amazon princess comes to the world of Man in the grips of the First World War to confront the forces of evil and bring an end to human conflict.", "poster_path": "/gfJGlDaHuWimErCr5Ql0I8x9QSy.jpg", "popularity": 44.687}, {"id": 326359, "video": false, "vote_count": 1180, "vote_average": 6.8, "title": "Frozen Fever", "release_date": "2015-03-09", "original_language": "en", "original_title": "Frozen Fever", "genre_ids": [12, 16, 10751], "backdrop_path": "/ubioPGniCfDiASmYYpeJs5RRNaC.jpg", "adult": false, "overview": "On Anna's birthday, Elsa and Kristoff are determined to give her the best celebration ever, but Elsa's icy powers may put more than just the party at risk.", "poster_path": "/lKJiVPzsAO9IJ4LKWXZ8vkR2bg4.jpg", "popularity": 17.218}, {"adult": false, "backdrop_path": "/gRY30dvyLhydkblpE0v3NiXt0Nj.jpg", "genre_ids": [35, 10749], "id": 6557, "original_language": "en", "original_title": "27 Dresses", "overview": "Altruistic Jane finds herself facing her worst nightmare as her younger sister announces her engagement to the man Jane secretly adores.", "poster_path": "/zzJtHNzi1D4CPwRlPHV1TRQNXD2.jpg", "release_date": "2008-01-10", "title": "27 Dresses", "video": false, "vote_average": 6.3, "vote_count": 2137, "popularity": 14.081}, {"adult": false, "backdrop_path": "/pBgGl3GfVxs84T7ZniUAz5FMMNx.jpg", "genre_ids": [35, 10751, 12, 14, 10749], "id": 11451, "original_language": "en", "original_title": "Herbie Fully Loaded", "overview": "Maggie Peyton, the new owner of Number 53 - the free-wheelin' Volkswagen bug with a mind of its own - puts the car through its paces on the road to becoming a NASCAR competitor.", "poster_path": "/7lTfTZ8CDfXw09eAv3OOvsbCVgs.jpg", "release_date": "2005-06-22", "title": "Herbie Fully Loaded", "video": false, "vote_average": 5.3, "vote_count": 1347, "popularity": 14.041}, {"adult": false, "backdrop_path": "/rf6G51j0SZL0tP57I8gnqHTRFEr.jpg", "genre_ids": [35, 18, 10749], "id": 273153, "original_language": "fr", "original_title": "La belle saison", "overview": "In 1971, Carole and Delphine meet and fall in love in Paris. When Carole follows Delphine back to her family farm in Limousin, the two find lesbianism and feminism are not as easy in the countryside.", "poster_path": "/evvAkNMO5VJiy5qIo1Hu7fUfvVI.jpg", "release_date": "2015-08-19", "title": "Summertime", "video": false, "vote_average": 6.6, "vote_count": 162, "popularity": 11.575}, {"adult": false, "backdrop_path": "/cADbqsIoiDW7X3Myg9nz8eAuno5.jpg", "genre_ids": [18, 10749], "id": 10818, "original_language": "fr", "original_title": "Naissance des pieuvres", "overview": "Set during a sultry summer in a French suburb, Marie is desperate to join the local pool's synchronized swimming team, but is her interest solely for the sake of sport or for a chance to get close to Floriane, the bad girl of the team? Sciamma, and the two leads, capture the uncertainty of teenage sexuality with a sympathetic eye in this delicate drama of the angst of coming-of-age.", "poster_path": "/4jajELYrR4Xmv3CVoKnukRnALa2.jpg", "release_date": "2007-05-17", "title": "Water Lilies", "video": false, "vote_average": 6.1, "vote_count": 119, "popularity": 9.614}, {"adult": false, "backdrop_path": "/fZ8oFcREAr6wgWcXISGql0xyxjB.jpg", "genre_ids": [35, 18], "id": 39781, "original_language": "en", "original_title": "The Kids Are All Right", "overview": "Two women, Nic and Jules, brought a son and daughter into the world through artificial insemination. When one of their children reaches age, both kids go behind their mothers' backs to meet with the donor. Life becomes so much more interesting when the father, two mothers and children start to become attached to each other.", "poster_path": "/fPDeK4MmoGfi2X0oWZev7LrbMqM.jpg", "release_date": "2010-07-09", "title": "The Kids Are All Right", "video": false, "vote_average": 6.6, "vote_count": 923, "popularity": 12.159}, {"id": 4688, "video": false, "vote_count": 869, "vote_average": 7.2, "title": "Across the Universe", "release_date": "2007-09-14", "original_language": "en", "original_title": "Across the Universe", "genre_ids": [18, 14, 10749], "backdrop_path": "/1ZdfkJiul04VyAcN9WHqawMPlz6.jpg", "adult": false, "overview": "When young dockworker Jude leaves Liverpool to find his estranged father in America, he is swept up by the waves of change that are re-shaping the nation. Jude falls in love with Lucy, a rich but sheltered American girl who joins the growing anti-war movement in New York's Greenwich Village. As the body count in Vietnam rises, political tensions at home spiral out of control and the star-crossed lovers find themselves in a psychedelic world gone mad.", "poster_path": "/447c8Te3DXC46rQvDEixKGO4dS6.jpg", "popularity": 14.798}, {"adult": false, "backdrop_path": "/nriBinb7Y3Bm6LdbmOC0mFxSm8d.jpg", "genre_ids": [80, 18], "id": 226, "original_language": "en", "original_title": "Boys Don't Cry", "overview": "Female born, Teena Brandon adopts his male identity of Brandon Teena and attempts to find himself and love in Nebraska.", "poster_path": "/6bqIZTEuJnUrgnxcymciszvOz8J.jpg", "release_date": "1999-09-02", "title": "Boys Don't Cry", "video": false, "vote_average": 7.5, "vote_count": 718, "popularity": 10.072}, {"adult": false, "backdrop_path": "/24JDK9dRRRzkBjHBsKQIGs7sBkj.jpg", "genre_ids": [53, 18], "id": 303858, "original_language": "en", "original_title": "Money Monster", "overview": "Financial TV host Lee Gates and his producer Patty are put in an extreme situation when an irate investor takes over their studio.", "poster_path": "/p7KDmC2beuKCCMO49L767OgwLQr.jpg", "release_date": "2016-05-12", "title": "Money Monster", "video": false, "vote_average": 6.4, "vote_count": 2031, "popularity": 11.472}, {"id": 71688, "video": false, "vote_count": 1019, "vote_average": 6.4, "title": "The Iron Lady", "release_date": "2011-12-30", "original_language": "en", "original_title": "The Iron Lady", "genre_ids": [18, 36], "backdrop_path": "/dfM5XwQcw36HAnKhowEh5776MJl.jpg", "adult": false, "overview": "A look at the life of Margaret Thatcher, the former Prime Minister of the United Kingdom, with a focus on the price she paid for power.", "poster_path": "/e67tal4u66eFz8yGnJGTO5FYRxY.jpg", "popularity": 10.839}, {"id": 132, "video": false, "vote_count": 71, "vote_average": 7.6, "title": "Gimme Shelter", "release_date": "1970-12-06", "original_language": "en", "original_title": "Gimme Shelter", "genre_ids": [99, 10402], "backdrop_path": "/k74ezjZNmap2FpkxuO85NnWmcn.jpg", "adult": false, "overview": "The landmark documentary about the tragically ill-fated Rolling Stones free concert at Altamont Speedway on December 6, 1969. Only four months earlier, Woodstock defined the Love Generation; now it lay in ruins on a desolate racetrack six miles outside of San Francisco.", "poster_path": "/9cQ6TLG89Yv2EMKuxgLRvgLq5nK.jpg", "popularity": 8.569}, {"adult": false, "backdrop_path": "/dvQDRfv3qvfHNnVAR57ouVsuErf.jpg", "genre_ids": [10749, 18], "id": 28031, "original_language": "en", "original_title": "If These Walls Could Talk 2", "overview": "The stories of three lesbian couples -- who live in the same house at different periods of time -- who are at a crossroads in their lives. In 1961, Edith loses her lover, Abby, to a stroke. Linda and Amy struggle with feminist issues in 1972. And, in 2000, Kal and Fran try to have a baby with the help of sperm donor.", "poster_path": "/xs7ODbmYQXCDhvXNvz5tF17T59H.jpg", "release_date": "2000-03-05", "title": "If These Walls Could Talk 2", "video": false, "vote_average": 7.1, "vote_count": 55, "popularity": 8.86}, {"adult": false, "backdrop_path": "/dXQdfVXUOrGhby6yTk9yZEDKhhg.jpg", "genre_ids": [18], "id": 65229, "original_language": "fr", "original_title": "Tomboy", "overview": "A French family with two daughters, 10-year-old Laure and 6-year-old Jeanne, moves to a new neighborhood during the summer holidays. With her tomboy ways, Laure is immediately mistaken for a boy by the local kids and passes herself off as Micka\u00ebl.", "poster_path": "/q4bl7q32VmqWMPl5WWfCdu2UFSw.jpg", "release_date": "2011-04-20", "title": "Tomboy", "video": false, "vote_average": 7.2, "vote_count": 339, "popularity": 9.175}, {"adult": false, "backdrop_path": "/s12HEmmkJfI2mjltI61hGm5kubD.jpg", "genre_ids": [35, 18, 10749], "id": 20770, "original_language": "en", "original_title": "But I'm a Cheerleader", "overview": "Megan is an all-American girl. A cheerleader. She has a boyfriend. But Megan doesn't like kissing her boyfriend very much. And she's pretty touchy with her cheerleader friends. Her conservative parents worry that she must be a lesbian and send her off to \"sexual redirection\" school, where she must, with other lesbians and gays learn how to be straight.", "poster_path": "/eDGH7CHSdkrYcuUJV1e0WS9DlQL.jpg", "release_date": "1999-12-09", "title": "But I'm a Cheerleader", "video": false, "vote_average": 6.8, "vote_count": 246, "popularity": 9.011}, {"adult": false, "backdrop_path": "/15bRcmO6nbzNMvsiQTUrKxavEiv.jpg", "genre_ids": [35, 10402], "id": 19366, "original_language": "en", "original_title": "Josie and the Pussycats", "overview": "Josie, Melody and Val are three small-town girl musicians determined to take their rock band out of their garage and straight to the top, while remaining true to their look, style and sound. They get a record deal which brings fame and fortune but soon realize they are pawns of two people who want to control the youth of America. They must clear their names, even if it means losing fame and fortune.", "poster_path": "/cc13QhiKt507D8krOmL8reTmMJU.jpg", "release_date": "2001-04-06", "title": "Josie and the Pussycats", "video": false, "vote_average": 5.5, "vote_count": 151, "popularity": 11.151}, {"adult": false, "backdrop_path": "/wRZCI7HbecEcqPaU9OqURg7pmXQ.jpg", "genre_ids": [18, 10749], "id": 10399, "original_language": "en", "original_title": "Mansfield Park", "overview": "This fun and sexy comedy tells a timelessly entertaining story where wealthy, secret passions and mischievous women put love to the test.. When a spirited young woman, Fanny Price, is sent away to live on the great country estate of her rich cousins, she's meant to learn the ways of proper society. But while Fanny learns \"their\" ways, she also enlightens them with a wit and sparkle all her own!", "poster_path": "/reh2SdnPDmFbjWWAEbTv9GgQbke.jpg", "release_date": "1999-11-12", "title": "Mansfield Park", "video": false, "vote_average": 6.8, "vote_count": 186, "popularity": 11.106}], "total_pages": 66, "total_results": 1317}, "recommendations": {"page": 1, "results": [{"adult": false, "backdrop_path": "/2mC05I9FfkudC71zJ2uMQebWJIH.jpg", "genre_ids": [99], "id": 561230, "original_language": "en", "original_title": "Out of Many, One", "overview": "The U.S. has long offered a promise of opportunity to immigrants, but currently immigration has become a divisive issue. This documentary illustrates how an understanding of our history and democracy is essential to constructive debate, informed civic participation and shaping a new class of citizens.", "poster_path": "/lDW6Bttoo1x1Rdohm43dveAjKHN.jpg", "release_date": "2018-12-12", "title": "Out of Many, One", "video": false, "vote_average": 5.4, "vote_count": 5, "popularity": 2.522}, {"adult": false, "backdrop_path": "/sOEEvGlLTqp06USLROWJzSGcOny.jpg", "genre_ids": [18], "id": 543726, "original_language": "en", "original_title": "VS.", "overview": "VS. is an urban rites of passage drama set in the hostile and exciting UK rap battle scene.", "poster_path": "/A2F1h72JzpYxHGAU7BJzsBkVHBv.jpg", "release_date": "2018-10-19", "title": "VS.", "video": false, "vote_average": 6.5, "vote_count": 6, "popularity": 4.007}, {"id": 489984, "video": false, "vote_count": 6, "vote_average": 7.8, "title": "The Devil We Know", "release_date": "2018-01-21", "original_language": "en", "original_title": "The Devil We Know", "genre_ids": [99], "backdrop_path": "/xu6ba6x4yyGWNqejV5b98bnaCWm.jpg", "adult": false, "overview": "Unraveling one of the biggest environmental scandals of our time, a group of citizens in West Virginia take on a powerful corporation after they discover it has knowingly been dumping a toxic chemical \u2014 now found in the blood of 99.7% of Americans \u2014 into the local drinking water supply.", "poster_path": "/9eLww3wkI2x1RjDqHf0xfyxiNaM.jpg", "popularity": 4.338}, {"adult": false, "backdrop_path": "/xvNR7JKO1RnV7XipScN6OYk5OPp.jpg", "genre_ids": [53], "id": 502805, "original_language": "en", "original_title": "Ladyworld", "overview": "After a catastrophic event, eight girls find themselves stranded in a house without electricity. As they run out of food and water, their sanity begins to crumble, and soon they regress to their baser instincts.", "poster_path": "/zF3TesrjJ95LkQvfH1xP835ggj5.jpg", "release_date": "2019-10-18", "title": "Ladyworld", "video": false, "vote_average": 9.0, "vote_count": 1, "popularity": 4.207}, {"adult": false, "backdrop_path": "/6rwiZfQukz05kZ8UbpSWrX2PCjk.jpg", "genre_ids": [53], "id": 388335, "original_language": "en", "original_title": "La valija de Benavidez", "overview": "During his entire existence, art teacher Benavidez has been living in the shadow of his formidable father, a famous artist who constantly reminded his son of his lack of talent and vision. Even more painful is that the love of his life, one of his ex-students, reveals herself to be a gifted artist. To some she\u2019s even considered to be the true successor to Benavidez\u2019s father. It\u2019s no wonder that this creates tensions and after a devastating lovers quarrel, Benavidez puts all his artworks into a big case and, having nowhere else to go, drags it to his shrink. The man specializes in treating creative spirits and even has an artist\u2019s colony in the basement of his huge mansion. As part of their therapy, his patients produce artworks that get sold for lucrative prizes at auctions organized by the psychiatrist himself. When he looks at what\u2019s inside the case of Benavidez, he realizes that the son has finally surpassed his father.", "poster_path": "/4obyOERYjtJNRSnEtxRy9AORitf.jpg", "release_date": "2016-04-08", "title": "Benavidez\u2019s Case", "video": false, "vote_average": 5.3, "vote_count": 3, "popularity": 2.141}, {"adult": false, "backdrop_path": "/145zMwLciDUUmPwGqET95Ve8Ioa.jpg", "genre_ids": [18], "id": 472025, "original_language": "en", "original_title": "Dublin Oldschool", "overview": "Join Jason on a chemically enhanced trip through the streets of Dublin as he stumbles from one misguided adventure to another. Somewhere between the DJs, decks, drug busts and hilltop raves, he stumbles across a familiar face from the past, his brother Daniel. Daniel is an educated homeless heroin addict living on the streets of Dublin. The brothers haven\u2019t seen or spoken to each other in years but over a lost weekend they reconnect and reminisce over tunes, trips, their history and their city. Two brothers living on the edge but perhaps they have more in common than they think.", "poster_path": "/mIlNuvcq6lH6MgINGiBcn0dI60r.jpg", "release_date": "2018-06-29", "title": "Dublin Oldschool", "video": false, "vote_average": 7.5, "vote_count": 4, "popularity": 2.349}, {"id": 433095, "video": false, "vote_count": 4, "vote_average": 7.0, "title": "Winnie", "release_date": "2017-07-07", "original_language": "en", "original_title": "Winnie", "genre_ids": [99], "backdrop_path": "/sBhBwhtxVWGxMBd33rXh5JpzIk9.jpg", "adult": false, "overview": "While her husband served a life sentence, paradoxically kept safe and morally uncontaminated, Winnie Mandela rode the raw violence of apartheid, fighting on the front line and underground. This is the untold story of the mysterious forces that combined to take her down, labeling him a saint, her, a sinner.", "poster_path": "/nwwhVdALOnXeZpCAhAFRN5tp7Ky.jpg", "popularity": 1.94}, {"id": 438466, "video": false, "vote_count": 10, "vote_average": 6.0, "title": "Us and Them", "release_date": "2017-03-10", "original_language": "en", "original_title": "Us and Them", "genre_ids": [80, 18, 53], "backdrop_path": "/xa9d54rgahl2dEIVkph0YLcJk5B.jpg", "adult": false, "overview": "Working class Danny aims to kick start a revolution by turning the tables on the establishment with a deadly game of chance.", "poster_path": "/qb3qxO1QTr0jBL4Goj0knebtpcB.jpg", "popularity": 2.974}, {"id": 589739, "video": false, "vote_count": 36, "vote_average": 7.2, "title": "Hair Love", "release_date": "2019-08-14", "original_language": "en", "original_title": "Hair Love", "genre_ids": [16, 18, 10751], "backdrop_path": "/sAjxWqwNAYc7ylEyXN7oFI486oL.jpg", "adult": false, "overview": "When dad has to unexpectedly step in for mom to do his daughter Zuri\u2019s hair before a big event, what seems like a simple task is anything but as these locks have a mind of their own!", "poster_path": "/w2wYB2Lt2cpADybLxffHibGxqh4.jpg", "popularity": 7.075}, {"adult": false, "backdrop_path": "/49YIt9i7ku1DKTVZRzUGjiDJNNP.jpg", "genre_ids": [99], "id": 77801, "original_language": "en", "original_title": "Miss Representation", "overview": "The film MISS REPRESENTATION exposes how American youth are being sold the concept that women and girls\u2019 value lies in their youth, beauty and sexuality. Explores the under-representation of women in positions of power and influence in America, and challenges the media's limited portrayal of what it means to be a powerful woman. It\u2019s time to break that cycle of mistruths.", "poster_path": "/2hy7nPjlIaA4JJV7XYaPwWa311C.jpg", "release_date": "2011-01-20", "title": "Miss Representation", "video": false, "vote_average": 7.6, "vote_count": 51, "popularity": 5.469}], "total_pages": 1, "total_results": 10}, "credits": {"cast": [{"cast_id": 4, "character": "Herself", "credit_id": "5bce4496c3a3683d69006395", "gender": 1, "id": 68929, "name": "Laurie Anderson", "order": 1, "profile_path": "/qzYxlXRWKJSa8Qbwt4bcaaUVtle.jpg"}, {"cast_id": 5, "character": "Herself", "credit_id": "5bce44b4925141057a006254", "gender": 1, "id": 2101342, "name": "Judy Chicago", "order": 2, "profile_path": "/4p7OSpJJG8U9TloWCvGQNvstQnM.jpg"}, {"cast_id": 6, "character": "Herself", "credit_id": "5bce44c8c3a3683d6f006007", "gender": 1, "id": 6352, "name": "Jane Fonda", "order": 3, "profile_path": "/eMOZRLKuLJEaMl2kLkdeN5BszC3.jpg"}, {"cast_id": 7, "character": "Herself", "credit_id": "5bce44d6c3a3683d730069cf", "gender": 1, "id": 12134, "name": "Sally Kirkland", "order": 4, "profile_path": "/wkSuQqn6ms8uvigDAla9TNxvEue.jpg"}, {"cast_id": 8, "character": "Herself", "credit_id": "5bce44e692514105710063f8", "gender": 1, "id": 10437, "name": "Lily Tomlin", "order": 5, "profile_path": "/z6aNkslg49DWz66XcLKYc78n7Ra.jpg"}, {"cast_id": 9, "character": "Herself", "credit_id": "5e24bea01bf2660016fb4f8c", "gender": 0, "id": 1209863, "name": "Wendy J.N. Lee", "order": 6, "profile_path": null}, {"cast_id": 10, "character": "Herself", "credit_id": "5e24beadcf4b8b0014f6a7c5", "gender": 1, "id": 1303053, "name": "Meredith Monk", "order": 7, "profile_path": null}, {"cast_id": 11, "character": "Herself", "credit_id": "5e24beb95ed8e9001360ae8a", "gender": 1, "id": 29543, "name": "Michelle Phillips", "order": 8, "profile_path": "/rSnEKTQVGHyrTuqUX2sHhUZ6z8n.jpg"}, {"cast_id": 12, "character": "Herself", "credit_id": "5e24bef4cf4b8b0017f757a3", "gender": 0, "id": 1606232, "name": "Cheryl Swannack", "order": 9, "profile_path": null}, {"cast_id": 13, "character": "Herself", "credit_id": "5e24bf37a894d600153a6c31", "gender": 0, "id": 1606233, "name": "Phyllis Chesler", "order": 10, "profile_path": null}], "crew": [{"credit_id": "5a93a01d925141417a029bb3", "department": "Directing", "gender": 0, "id": 89420, "job": "Director", "name": "Johanna Demetrakas", "profile_path": "/kl0Qzqr2xpV19VsJZB4pJWJKo6B.jpg"}, {"credit_id": "5bce447e0e0a265d39006c5a", "department": "Sound", "gender": 1, "id": 119233, "job": "Original Music Composer", "name": "Lili Haydn", "profile_path": "/gKbtCT3UN6Urpj1BeP7Oa6oQmk6.jpg"}, {"credit_id": "5bce445c925141058100687c", "department": "Crew", "gender": 0, "id": 555213, "job": "Cinematography", "name": "Kristy Tully", "profile_path": null}, {"credit_id": "5bce44690e0a265d2d006ab7", "department": "Editing", "gender": 0, "id": 582639, "job": "Editor", "name": "Kate Amend ", "profile_path": null}]}}