{"adult": false, "backdrop_path": "/b6VJT1EuQtmJm4JpkLhK62dPQmB.jpg", "belongs_to_collection": null, "budget": 0, "genres": [{"id": 35, "name": "Comedy"}, {"id": 18, "name": "Drama"}], "homepage": "https://themergerfilm.com", "id": 507660, "imdb_id": "tt7891470", "original_language": "en", "original_title": "The Merger", "overview": "A country football coach who has a plan to rebuild the local football team by recruiting recently settled asylum seekers.", "popularity": 2.973, "poster_path": "/v1bCOU6touQ4qWidGGD8LtqwiBW.jpg", "production_companies": [{"id": 101417, "logo_path": null, "name": "Crow Crow Productions", "origin_country": ""}], "production_countries": [{"iso_3166_1": "AU", "name": "Australia"}], "release_date": "2018-08-30", "revenue": 0, "runtime": 103, "spoken_languages": [{"iso_639_1": "en", "name": "English"}], "status": "Released", "tagline": "If they can play they can stay", "title": "The Merger", "video": false, "vote_average": 6.1, "vote_count": 7, "keywords": {"keywords": [{"id": 972, "name": "refugee"}, {"id": 3094, "name": "australian"}, {"id": 6075, "name": "sport"}, {"id": 193761, "name": "australian rules football"}, {"id": 208863, "name": "asylum seekers"}, {"id": 242425, "name": "inclusion"}]}, "similar": {"page": 1, "results": [{"adult": false, "backdrop_path": "/qVjKZMB0IdOc2JlwiiGsuKTvTJs.jpg", "genre_ids": [18], "id": 22881, "original_language": "en", "original_title": "The Blind Side", "overview": "The story of Michael Oher, a homeless and traumatized boy who became an All American football player and first round NFL draft pick with the help of a caring woman and her family", "poster_path": "/wEGFSgPebLk6g1ngKsJ6a46PYLV.jpg", "release_date": "2009-11-20", "title": "The Blind Side", "video": false, "vote_average": 7.5, "vote_count": 3212, "popularity": 42.202}, {"adult": false, "backdrop_path": "/jK3EAFk3GdOaQfUDCOiTujzMpwH.jpg", "genre_ids": [18], "id": 389015, "original_language": "en", "original_title": "I, Tonya", "overview": "Competitive ice skater Tonya Harding rises amongst the ranks at the U. S. Figure Skating Championships, but her future in the sport is thrown into doubt when her ex-husband intervenes.", "poster_path": "/6gNXwSHxaksR1PjVZRqNapmkgj3.jpg", "release_date": "2017-12-08", "title": "I, Tonya", "video": false, "vote_average": 7.5, "vote_count": 3332, "popularity": 20.099}, {"id": 8923, "video": false, "vote_count": 1359, "vote_average": 7.2, "title": "Green Street Hooligans", "release_date": "2005-09-09", "original_language": "en", "original_title": "Green Street Hooligans", "genre_ids": [80, 18], "backdrop_path": "/oasVTD3UpTEjhTAVx9ZCy1k19Qv.jpg", "adult": false, "overview": "After being wrongfully expelled from Harvard University, American Matt Buckner flees to his sister's home in England. Once there, he is befriended by her charming and dangerous brother-in-law, Pete Dunham, and introduced to the underworld of British football hooliganism. Matt learns to stand his ground through a friendship that develops against the backdrop of this secret and often violent world. 'Green Street Hooligans' is a story of loyalty, trust and the sometimes brutal consequences of living close to the edge.", "poster_path": "/z3LC4kI8azbeuHRGgDdWo6VBCdX.jpg", "popularity": 20.194}, {"adult": false, "backdrop_path": "/n1Gh3MJAVvXmkgSDf3SOLlPCjag.jpg", "genre_ids": [35, 18, 10749], "id": 9390, "original_language": "en", "original_title": "Jerry Maguire", "overview": "Jerry Maguire used to be a typical sports agent: willing to do just about anything he could to get the biggest possible contracts for his clients, plus a nice commission for himself. Then, one day, he suddenly has second thoughts about what he's really doing. When he voices these doubts, he ends up losing his job and all of his clients, save Rod Tidwell, an egomaniacal football player.", "poster_path": "/99YTEdKOKDRClsscOpJfdkbaTrQ.jpg", "release_date": "1996-12-13", "title": "Jerry Maguire", "video": false, "vote_average": 6.9, "vote_count": 1796, "popularity": 20.431}, {"adult": false, "backdrop_path": "/kBTdPNTAzagAY6UiwY957KCDGuu.jpg", "genre_ids": [16, 35, 10751], "id": 2300, "original_language": "en", "original_title": "Space Jam", "overview": "Swackhammer, an evil alien theme park owner, needs a new attraction at Moron Mountain. When his gang, the Nerdlucks, heads to Earth to kidnap Bugs Bunny and the Looney Tunes, Bugs challenges them to a basketball game to determine their fate. The aliens agree, but they steal the powers of NBA basketball players, including Larry Bird and Charles Barkley -- so Bugs gets some help from superstar Michael Jordan.", "poster_path": "/xI9AwhOWtsbFlS8tYD2PXa80p7u.jpg", "release_date": "1996-11-15", "title": "Space Jam", "video": false, "vote_average": 6.7, "vote_count": 3180, "popularity": 17.288}, {"adult": false, "backdrop_path": "/eD8PxfDsmWyUcj2LzQ9Ha2O7UvB.jpg", "genre_ids": [99], "id": 614423, "original_language": "en", "original_title": "Collingwood: From The Inside Out", "overview": "An  intimate look at Collingwood Football Club as it rebuilds itself and aims for glory over the course of the 2018 season.", "poster_path": "/dsJMvBJ7M2HvGkJdhW4nKNHEgDs.jpg", "release_date": "2019-08-15", "title": "Collingwood: From The Inside Out", "video": false, "vote_average": 1.0, "vote_count": 1, "popularity": 1.883}, {"adult": false, "backdrop_path": "/9lrM0o89ASyHmDgMLfCbU5qdsAm.jpg", "genre_ids": [35, 18], "id": 9291, "original_language": "en", "original_title": "The Longest Yard", "overview": "Pro quarter-back, Paul Crewe and former college champion and coach, Nate Scarboro are doing time in the same prison. Asked to put together a team of inmates to take on the guards, Crewe enlists the help of Scarboro to coach the inmates to victory in a football game 'fixed' to turn out quite another way.", "poster_path": "/ag6q9euZABqbHtbDhoRT9xEYltP.jpg", "release_date": "2005-05-27", "title": "The Longest Yard", "video": false, "vote_average": 6.4, "vote_count": 1766, "popularity": 16.3}, {"adult": false, "backdrop_path": "/zu3zLkJeRtGJq4I6D7ONMWmFOLh.jpg", "genre_ids": [28, 18], "id": 9766, "original_language": "en", "original_title": "Gridiron Gang", "overview": "Teenagers at a juvenile detention center, under the leadership of their counselor, gain self-esteem by playing football together.", "poster_path": "/8UlDsCPjAfg15L5Sgkcmy8rv1rg.jpg", "release_date": "2006-09-15", "title": "Gridiron Gang", "video": false, "vote_average": 6.7, "vote_count": 431, "popularity": 10.994}, {"id": 60308, "video": false, "vote_count": 2517, "vote_average": 7.2, "title": "Moneyball", "release_date": "2011-09-22", "original_language": "en", "original_title": "Moneyball", "genre_ids": [18], "backdrop_path": "/T9a9Q6Pin6Pra7dNMwWzAibxkk.jpg", "adult": false, "overview": "The story of Oakland Athletics general manager Billy Beane's successful attempt to put together a baseball team on a budget, by employing computer-generated analysis to draft his players.", "poster_path": "/3oAa8mJJ97CH9AeGEY6vjAxqcvZ.jpg", "popularity": 16.975}, {"adult": false, "backdrop_path": "/3fcBsj9JMQQ27Wuk3LVrEwVZ2VT.jpg", "genre_ids": [28, 18], "id": 323677, "original_language": "en", "original_title": "Race", "overview": "Based on the story of Jesse Owens, the athlete whose quest to become the greatest track and field athlete in history thrusts him onto the world stage of the 1936 Olympics, where he faces off against Adolf Hitler's vision of Aryan supremacy.", "poster_path": "/szLfTQ2vLFQkNbP3dc0pnco1rje.jpg", "release_date": "2016-02-19", "title": "Race", "video": false, "vote_average": 7.3, "vote_count": 990, "popularity": 15.646}, {"adult": false, "backdrop_path": "/k66qUqJM7H2AXr7Iz94J3mQXigy.jpg", "genre_ids": [18, 80], "id": 10474, "original_language": "en", "original_title": "The Basketball Diaries", "overview": "Film adaptation of street tough Jim Carroll's epistle about his kaleidoscopic free fall into the harrowing world of drug addiction.", "poster_path": "/8BkedYL5LdpkyHc7JtuohMr8a9N.jpg", "release_date": "1995-04-21", "title": "The Basketball Diaries", "video": false, "vote_average": 7.3, "vote_count": 990, "popularity": 15.52}, {"adult": false, "backdrop_path": "/sZ5k4hbjqeY8inKRj3PseINvbq8.jpg", "genre_ids": [35, 10751], "id": 13680, "original_language": "en", "original_title": "The Game Plan", "overview": "Bachelor football star Joe Kingman seems to have it all. He is wealthy and carefree, and his team is on the way to capturing a championship. Suddenly, he is tackled by some unexpected news: He has a young daughter, the result of a last fling with his ex-wife. Joe must learn to balance his personal and professional lives with the needs of his child.", "poster_path": "/fcLFvIqCUrhY96mkSmr3okxaMEw.jpg", "release_date": "2007-09-28", "title": "The Game Plan", "video": false, "vote_average": 6.3, "vote_count": 1130, "popularity": 12.368}, {"id": 10390, "video": false, "vote_count": 195, "vote_average": 6.4, "title": "For Love of the Game", "release_date": "1999-09-17", "original_language": "en", "original_title": "For Love of the Game", "genre_ids": [18, 10749], "backdrop_path": "/l4Amqpp3PGh61rENfxVZ3p2n3n9.jpg", "adult": false, "overview": "A baseball legend almost finished with his distinguished career at the age of forty has one last chance to prove who he is, what he is capable of, and win the heart of the woman he has loved for the past four years.", "poster_path": "/nvsXIOYg8CHFS7WYh0anh7WFYtN.jpg", "popularity": 7.967}, {"adult": false, "backdrop_path": "/kWt9mP8CcUWr18DvQiXxdX5Yd7W.jpg", "genre_ids": [35], "id": 9955, "original_language": "en", "original_title": "Blades of Glory", "overview": "When a much-publicized ice-skating scandal strips them of their gold medals, two world-class athletes skirt their way back onto the ice via a loophole that allows them to compete together as a pairs team.", "poster_path": "/7vbtLFfN00BaczHjOaPWui4aqg1.jpg", "release_date": "2007-03-30", "title": "Blades of Glory", "video": false, "vote_average": 6.0, "vote_count": 999, "popularity": 14.137}, {"id": 515333, "video": false, "vote_count": 151, "vote_average": 6.4, "title": "Amateur", "release_date": "2018-04-06", "original_language": "en", "original_title": "Amateur", "genre_ids": [18], "backdrop_path": "/xXpATYKBOKacswyO465SNu0bh8R.jpg", "adult": false, "overview": "14-year-old basketball phenom Terron Forte has to navigate the under-the-table world of amateur athletics when he is recruited to an elite NCAA prep school.", "poster_path": "/nWUvlNxKSMdegAoY5eMOqPwMKIb.jpg", "popularity": 7.871}, {"id": 11287, "video": false, "vote_count": 725, "vote_average": 7.1, "title": "A League of Their Own", "release_date": "1992-07-01", "original_language": "en", "original_title": "A League of Their Own", "genre_ids": [35, 18, 36], "backdrop_path": "/cTzJXKXqy8pqisykmDueETv6ikb.jpg", "adult": false, "overview": "As America's stock of athletic young men is depleted during World War II, a professional all-female baseball league springs up in the Midwest, funded by publicity-hungry candy maker Walter Harvey (Garry Marshall). Competitive sisters Dottie Hinson (Geena Davis) and Kit Keller (Lori Petty) spar with each other, scout Ernie Capadino (Jon Lovitz) and grumpy has-been coach Jimmy Dugan (Tom Hanks) on their way to fame. Madonna and Rosie O'Donnell co-star as two of the sisters' teammates.", "poster_path": "/mHr58FxWSPZtxSqVxDpO12nKmMi.jpg", "popularity": 11.427}, {"adult": false, "backdrop_path": "/g5gwbwR98yN1TvycqHCJZhCPa7O.jpg", "genre_ids": [18, 14], "id": 2323, "original_language": "en", "original_title": "Field of Dreams", "overview": "Ray Kinsella is an Iowa farmer who hears a mysterious voice telling him to turn his cornfield into a baseball diamond. He does, but the voice's directions don't stop -- even after the spirits of deceased ballplayers turn up to play.", "poster_path": "/ps5B8ZNSFvqLczD5e4Yh3whV66B.jpg", "release_date": "1989-04-21", "title": "Field of Dreams", "video": false, "vote_average": 7.2, "vote_count": 749, "popularity": 13.987}, {"id": 245913, "video": false, "vote_count": 512, "vote_average": 7.3, "title": "Pel\u00e9: Birth of a Legend", "release_date": "2016-05-06", "original_language": "en", "original_title": "Pel\u00e9: Birth of a Legend", "genre_ids": [18, 36], "backdrop_path": "/mmKn7ECMiCUGFhIhoX2t9SYrTQn.jpg", "adult": false, "overview": "The life story of Brazilian football legend, Pele.", "poster_path": "/7AQFHlPohPiAYKTd1C35Q61z0eD.jpg", "popularity": 11.236}, {"adult": false, "backdrop_path": "/qgmcpz4ZyDxtAOTvqN6oIpBez7d.jpg", "genre_ids": [18], "id": 7214, "original_language": "en", "original_title": "Coach Carter", "overview": "Based on a true story, in which Richmond High School head basketball coach Ken Carter made headlines in 1999 for benching his undefeated team due to poor academic results.", "poster_path": "/8c6BeOIrDStz2aiPceYdI5sd9pL.jpg", "release_date": "2005-01-14", "title": "Coach Carter", "video": false, "vote_average": 7.5, "vote_count": 1200, "popularity": 14.214}, {"id": 9655, "video": false, "vote_count": 1712, "vote_average": 6.6, "title": "She's the Man", "release_date": "2006-03-17", "original_language": "en", "original_title": "She's the Man", "genre_ids": [35, 18, 10749, 10751], "backdrop_path": "/qHHM9pcly5YFV3hdLjyPofnzVjH.jpg", "adult": false, "overview": "Viola Johnson is in a real jam. Complications threaten her scheme to pose as her twin brother, Sebastian, and take his place at a new boarding school. She falls in love with her handsome roommate, Duke, who loves beautiful Olivia, who has fallen for Sebastian! As if that were not enough, Viola's twin returns from London ahead of schedule but has no idea that his sister has already replaced him on campus.", "poster_path": "/aoO3OtAojt9g8D60tro8s26mGmj.jpg", "popularity": 13.735}], "total_pages": 30, "total_results": 595}, "recommendations": {"page": 1, "results": [{"adult": false, "backdrop_path": "/iPRKgNK9Gls5djXpO4e94fQxPmh.jpg", "genre_ids": [], "id": 543889, "original_language": "en", "original_title": "An Audience of Chairs", "overview": "Maura Mackenzie (Carolina Bartczak) believes the world is hers to conquer. With her career as a concert pianist gaining momentum, it seems her beauty and talent will be strong enough to mask the demons that threaten to engulf her. But with an absent husband (Chris Jacot) and two young daughters at home, her precarious sanity begins to unravel until one summer day, burning with manic energy, she makes a terrible mistake \u2014 a mistake that will change her life forever. The consequences for Maura are catastrophic: her ambitious husband runs for his life, taking the children with him, leaving Maura to lapse into a full-scale breakdown. Life as she knew it is now over. With the help of her father, Ian (Peter MacNeill), Maura works to reclaim her life and waits for a miracle to bring her daughters home. But when the fates align, can the past be forgiven?", "poster_path": "/e5MPJTwEPDjdVwifFFO3nKaFVZH.jpg", "release_date": "2018-09-14", "title": "An Audience of Chairs", "video": false, "vote_average": 7.3, "vote_count": 4, "popularity": 3.31}, {"adult": false, "backdrop_path": "/4Mq0qtQvWFsQQe5XRdf7ytezoGu.jpg", "genre_ids": [53], "id": 502800, "original_language": "en", "original_title": "Crisis Hotline", "overview": "A cynical counselor at a crisis hotline finds himself in a life or death situation when a young man calls and threatens to kill three people and then himself.", "poster_path": "/AkyTEsEwe2W8iPfxJD1TcJTHCDx.jpg", "release_date": "2019-06-11", "title": "Crisis Hotline", "video": false, "vote_average": 5.3, "vote_count": 3, "popularity": 4.492}, {"adult": false, "backdrop_path": "/bUwwofZUjJ50WFYo2CisXgUadUt.jpg", "genre_ids": [35], "id": 537734, "original_language": "en", "original_title": "The Weekend", "overview": "An acerbic comedian becomes romantically entangled with her ex, his new girlfriend, and another guest during a weekend getaway.", "poster_path": "/6IJ9UcJjUjMW6UOvQ99MllDZhoN.jpg", "release_date": "2019-09-13", "title": "The Weekend", "video": false, "vote_average": 7.0, "vote_count": 4, "popularity": 4.251}, {"id": 83926, "video": false, "vote_count": 3, "vote_average": 7.0, "title": "Ninety Degrees in the Shade", "release_date": "1965-06-01", "original_language": "en", "original_title": "Ninety Degrees in the Shade", "genre_ids": [80, 18, 53], "backdrop_path": "/Abbs7FQ4oBe5rTmo496j5enG92B.jpg", "adult": false, "overview": "A woman attempts to cover up the thefts committed by the manager at the shop she works at.", "poster_path": "/GsW0wqXs40fgZV8MrGItKeRgWu.jpg", "popularity": 2.501}, {"adult": false, "backdrop_path": "/vNeCUQ2q64essNMKu1Ob26B0M1S.jpg", "genre_ids": [], "id": 46148, "original_language": "en", "original_title": "The Red Menace", "overview": "A couple try to leave the Communist party after a murder by the group they were once loyal to.", "poster_path": "/a7mPps5f7VfVqyeeJ3W6CGyrkJq.jpg", "release_date": "1949-08-01", "title": "The Red Menace", "video": false, "vote_average": 4.1, "vote_count": 7, "popularity": 2.925}, {"adult": false, "backdrop_path": "/q6z0jtnoaUDxhQsfFTzWjUWLmfO.jpg", "genre_ids": [], "id": 495831, "original_language": "en", "original_title": "Quality Problems", "overview": "Bailey and Drew are a 40 something couple much like other couples: They have two kids, two jobs, one dad with Alzheimers and one boob with cancer. Toss in planning an 8 year old\u2019s birthday party and the only thing you CAN do is laugh.", "poster_path": "/eItrIDqNkNlLkafTzQ3kWMiozrB.jpg", "release_date": "2018-05-08", "title": "Quality Problems", "video": false, "vote_average": 8.3, "vote_count": 3, "popularity": 1.76}, {"adult": false, "backdrop_path": "/lhYIgXqEXwQWdTBoiWju0gKkhjA.jpg", "genre_ids": [99], "id": 360150, "original_language": "en", "original_title": "Love Is a Verb", "overview": "Love Is A Verb is an examination of a social movement of Sufi-inspired Sunni Muslims that began in Turkey in the l960s and now spans across the globe. The group is called Hizmet, the Turkish word for \"service\" or The G\u00fclen Movement after its inspiration and teacher, Fethullah G\u00fclen, a man TIME magazine named as one of the most influential leaders in the world in 2013 for \"...preaching a message of tolerance.\"", "poster_path": "/3kPA4EeqiOaq6RTCDcYQzZYQgZs.jpg", "release_date": "2014-04-01", "title": "Love Is a Verb", "video": false, "vote_average": 7.0, "vote_count": 3, "popularity": 1.806}, {"adult": false, "backdrop_path": "/aPJdv8ynbVlMKeJgSJUguqColuh.jpg", "genre_ids": [18, 10749], "id": 47920, "original_language": "en", "original_title": "Magnificent Obsession", "overview": "A playboy tries to redeem himself after his careless behavior causes a great man's death.", "poster_path": "/9ypouSkN5BzMQUaXqC80XH3GAXi.jpg", "release_date": "1935-12-30", "title": "Magnificent Obsession", "video": false, "vote_average": 7.7, "vote_count": 7, "popularity": 3.451}, {"id": 515917, "video": false, "vote_count": 4, "vote_average": 7.8, "title": "Saints Rest", "release_date": "2018-04-26", "original_language": "en", "original_title": "Saints Rest", "genre_ids": [18, 10402], "backdrop_path": "/cdPS99Rg2X7jCkkbYWAwuvslq8A.jpg", "adult": false, "overview": "A musical drama set in small-town Iowa, SAINTS REST tells the story of two estranged sisters, who over the course of one summer, form a connection through their shared love of music, as they grieve the recent death of their mother.", "poster_path": "/8gNHJ3iLIcne4RWqG5t6eUBfz19.jpg", "popularity": 4.736}, {"id": 43116, "video": false, "vote_count": 5, "vote_average": 6.8, "title": "High School Confidential!", "release_date": "1958-05-30", "original_language": "en", "original_title": "High School Confidential!", "genre_ids": [9648, 53], "backdrop_path": "/aGYiuTcaG73iJBX31ihEWJLCNok.jpg", "adult": false, "overview": "Tony Baker is a rebel with a cause in this classic exploitation tale of teens gone wild.Sent undercover to expose a dope ring at Santa Bella High, Baker infiltrates the gang, pulls a switchblade and gets his girl all in one fell swoop.Banned in numerous countries on release for its edgy content of dancing, drugs and drag car racing,", "poster_path": "/aqCCtvx9SsM8i8cBE7HOJMvYS6p.jpg", "popularity": 4.327}, {"adult": false, "backdrop_path": "/iEeR1Ezr0rIviKHOfOWDsvycUxc.jpg", "genre_ids": [18], "id": 183361, "original_language": "en", "original_title": "Caroline and Jackie", "overview": "A woman turns her sister's belated birthday celebration into an intervention, but as events unfold, it becomes unclear which sibling needs the most help.", "poster_path": "/flC2O1aqEbbqRj5pWmIKPUu1gdd.jpg", "release_date": "2013-05-03", "title": "Caroline and Jackie", "video": false, "vote_average": 7.0, "vote_count": 4, "popularity": 1.776}], "total_pages": 1, "total_results": 11}, "credits": {"cast": [{"cast_id": 1, "character": "Troy Carrington", "credit_id": "5a93e6ce0e0a2616c003151f", "gender": 0, "id": 1331597, "name": "Damian Callinan", "order": 0, "profile_path": null}, {"cast_id": 4, "character": "Sayyid", "credit_id": "5a93e737925141417102d98b", "gender": 0, "id": 230609, "name": "Fayssal Bazzi", "order": 1, "profile_path": "/gM9qAahQjUsJ56BxQfuUqJjdaBU.jpg"}, {"cast_id": 3, "character": "Carpet Burn", "credit_id": "5a93e7290e0a2616d20300fb", "gender": 2, "id": 187470, "name": "Angus McLaren", "order": 2, "profile_path": "/h0uk3tCyC04HoFg6WC2ye1Fuct3.jpg"}, {"cast_id": 5, "character": "Neville", "credit_id": "5a93e7530e0a2616d203011f", "gender": 0, "id": 1193834, "name": "Stephen Hunter", "order": 3, "profile_path": "/xGKavu5mcGBOQMSawk9voZeEzN6.jpg"}, {"cast_id": 2, "character": "Bull Barlow", "credit_id": "5a93e71b0e0a2616d20300f0", "gender": 2, "id": 102603, "name": "John Howard", "order": 4, "profile_path": "/id5ucdglU6oPIibTzrLrtWBxTbw.jpg"}, {"cast_id": 6, "character": "Angie Barlow", "credit_id": "5a93e774c3a368250b02ccf5", "gender": 0, "id": 123884, "name": "Kate Mulvany", "order": 5, "profile_path": "/qGpy9gYMC5NvU1iZMllHRKRaKWh.jpg"}, {"cast_id": 7, "character": "Navina", "credit_id": "5a93e77f0e0a2616c00315e4", "gender": 0, "id": 1985775, "name": "Zenia Starr", "order": 6, "profile_path": null}, {"cast_id": 8, "character": "Snapper", "credit_id": "5a93e791925141417402f465", "gender": 0, "id": 1281967, "name": "Josh McConville", "order": 7, "profile_path": null}, {"cast_id": 9, "character": "Morris Dancer / Medieval Performer / Goal Umpire", "credit_id": "5a93e7c20e0a2616c6030c52", "gender": 0, "id": 1985776, "name": "Michael Morley", "order": 8, "profile_path": null}, {"cast_id": 10, "character": "Goober", "credit_id": "5a93ea30925141417102dbff", "gender": 0, "id": 1530650, "name": "Nick Cody", "order": 9, "profile_path": null}, {"cast_id": 11, "character": "Fran Barlow", "credit_id": "5a93ea3f0e0a2616cc032cd6", "gender": 1, "id": 1233401, "name": "Penny Cook", "order": 10, "profile_path": null}, {"cast_id": 12, "character": "Hibbert", "credit_id": "5a93ea4b0e0a2616c30301c3", "gender": 0, "id": 1985778, "name": "Adam Drummond", "order": 11, "profile_path": null}, {"cast_id": 13, "character": "Porterhouse", "credit_id": "5a93ea5792514107a901afe8", "gender": 0, "id": 1985779, "name": "Aaron Gocs", "order": 12, "profile_path": null}, {"cast_id": 14, "character": "Second Goal Umpire", "credit_id": "5a93ea64c3a368675b019c96", "gender": 0, "id": 1985780, "name": "Liam Campbell", "order": 13, "profile_path": null}, {"cast_id": 15, "character": "Neil Barlow", "credit_id": "5a93ea7192514107a901b004", "gender": 0, "id": 1985781, "name": "Rafferty Grierson", "order": 14, "profile_path": null}, {"cast_id": 16, "character": "Gretchen", "credit_id": "5a93ea7e925141417d02d2cc", "gender": 1, "id": 1985782, "name": "Michelle Brasier", "order": 15, "profile_path": null}, {"cast_id": 17, "character": "Suresh", "credit_id": "5a93ea88c3a368250b02cf98", "gender": 0, "id": 1985783, "name": "Sahil Saluja", "order": 16, "profile_path": null}, {"cast_id": 18, "character": "Tou Pou", "credit_id": "5a93ea9d0e0a2616bd02f6be", "gender": 0, "id": 1290154, "name": "Harry Tseng", "order": 17, "profile_path": null}, {"cast_id": 19, "character": "Harpo", "credit_id": "5a93ead1c3a368250202f23c", "gender": 0, "id": 1985784, "name": "Ben Knight", "order": 18, "profile_path": null}, {"cast_id": 20, "character": "Roosters Player", "credit_id": "5a93eaf6925141417102dcc7", "gender": 0, "id": 1985785, "name": "Dane Simpson", "order": 19, "profile_path": null}, {"cast_id": 21, "character": "Morris Dancer / Medieval Performer", "credit_id": "5a93eb060e0a2616c6030f67", "gender": 0, "id": 1985786, "name": "Gavin Baskerville", "order": 20, "profile_path": null}, {"cast_id": 22, "character": "Weet-Bix", "credit_id": "5a93eb4e92514107a901b0e2", "gender": 0, "id": 1377688, "name": "Danny McGinlay", "order": 21, "profile_path": null}], "crew": [{"credit_id": "5a93e6b9c3a36824f602ea8a", "department": "Directing", "gender": 0, "id": 1331595, "job": "Director", "name": "Mark Grentell", "profile_path": null}, {"credit_id": "5a93eb900e0a265c4e01b739", "department": "Production", "gender": 0, "id": 1985788, "job": "Producer", "name": "Anne Robinson", "profile_path": null}, {"credit_id": "5a93ebb092514107a901b134", "department": "Crew", "gender": 0, "id": 1320559, "job": "Cinematography", "name": "Tony Luu", "profile_path": null}, {"credit_id": "5a93ebc29251410b0301b24a", "department": "Writing", "gender": 0, "id": 1331597, "job": "Writer", "name": "Damian Callinan", "profile_path": null}, {"credit_id": "5a93ebe99251410b0301b270", "department": "Editing", "gender": 0, "id": 1985789, "job": "Editor", "name": "Christopher Mill", "profile_path": null}, {"credit_id": "5a93ec0792514107a901b16f", "department": "Art", "gender": 0, "id": 1718271, "job": "Art Direction", "name": "Marianne Evans", "profile_path": null}, {"credit_id": "5a93ec44c3a36824fd032710", "department": "Costume & Make-Up", "gender": 0, "id": 1985790, "job": "Key Makeup Artist", "name": "Debbie Muller", "profile_path": null}, {"credit_id": "5a93ec4e925141417d02d490", "department": "Costume & Make-Up", "gender": 0, "id": 1985790, "job": "Key Hair Stylist", "name": "Debbie Muller", "profile_path": null}, {"credit_id": "5a93ec5d9251410b0301b2d3", "department": "Crew", "gender": 0, "id": 1985791, "job": "Post Production Supervisor", "name": "Freya Rogers-Fauske", "profile_path": null}]}}