{"adult": false, "backdrop_path": "/n1kBmnH7b6uDAQMIYwnAaXpUP8A.jpg", "belongs_to_collection": null, "budget": 0, "genres": [{"id": 16, "name": "Animation"}], "homepage": "http://www.ghibli-museum.jp/", "id": 508884, "imdb_id": "tt6572002", "original_language": "ja", "original_title": "\u6bdb\u866b\u306e\u30dc\u30ed", "overview": "Just before dawn, Boro the Caterpillar hatched from an egg among patches of scrub grass. Looking around for the first time, he noticed the brilliance of the morning sun and a deliciousness in the air. Boro lowered himself down to the ground from the groundsel, and stepped out into the world of caterpillars and caterpillars' enemies.", "popularity": 4.861, "poster_path": "/1hSkWvzTKxEyDPqQCoi6fbVsOFW.jpg", "production_companies": [{"id": 10342, "logo_path": "/dT3UbXjca6TClutHJtr7GhkRALP.png", "name": "Studio Ghibli", "origin_country": "JP"}], "production_countries": [{"iso_3166_1": "JP", "name": "Japan"}], "release_date": "2018-03-21", "revenue": 0, "runtime": 14, "spoken_languages": [{"iso_639_1": "ja", "name": "\u65e5\u672c\u8a9e"}], "status": "Released", "tagline": "", "title": "Boro the Caterpillar", "video": false, "vote_average": 4.5, "vote_count": 2, "keywords": {"keywords": [{"id": 214549, "name": "short"}, {"id": 233762, "name": "ghibli museum"}]}, "similar": {"page": 1, "results": [{"adult": false, "backdrop_path": "/uRLUjLYEvqQNMRItBJkjVNA1FeC.jpg", "genre_ids": [16], "id": 53453, "original_language": "en", "original_title": "Donald Duck: Beach Picnic", "overview": "Donald Duck is at the beach and tries to ride a rubber horse. He notices Pluto sleeping at the shore and decides to have some fun with him by sending the rubber horse over to Pluto which completely mesmerizes him. Meanwhile, a tribe of ants abduct Donald's picnic lunch. Donald lays out fly paper to stop the ants. Pluto follows one of the ants and, of course, he and later Donald become enmeshed in the fly paper", "poster_path": "/mC1C2ydi1h19yspJRDlUq5WOavH.jpg", "release_date": "1939-06-09", "title": "Beach Picnic", "video": false, "vote_average": 5.6, "vote_count": 20, "popularity": 4.606}, {"adult": false, "backdrop_path": "/l5bS0w1JxytrBGInjDSZMEpIxDc.jpg", "genre_ids": [16], "id": 67113, "original_language": "en", "original_title": "Mickey's Polo Team", "overview": "Mickey leads his polo team Donald (on a mule), Goofy, The Big Bad Wolf against an all-star team: Stan Laurel, Oliver Hardy, Harpo Marx (on an ostrich), Charles Chaplin, in a game refereed by Jack Holt. Featured spectators include the Three Little Pigs with Shirley Temple, W.C. Fields, and Clarabelle Cow with Clark Gable. Game action proceeds pretty much as you might expect from this bunch of comedians.", "poster_path": "/4FDkgZWa5NCstaLszniBu1H4RAC.jpg", "release_date": "1936-01-04", "title": "Mickey's Polo Team", "video": false, "vote_average": 6.9, "vote_count": 17, "popularity": 4.343}, {"id": 326359, "video": false, "vote_count": 1180, "vote_average": 6.8, "title": "Frozen Fever", "release_date": "2015-03-09", "original_language": "en", "original_title": "Frozen Fever", "genre_ids": [12, 16, 10751], "backdrop_path": "/ubioPGniCfDiASmYYpeJs5RRNaC.jpg", "adult": false, "overview": "On Anna's birthday, Elsa and Kristoff are determined to give her the best celebration ever, but Elsa's icy powers may put more than just the party at risk.", "poster_path": "/lKJiVPzsAO9IJ4LKWXZ8vkR2bg4.jpg", "popularity": 17.218}, {"adult": false, "backdrop_path": "/4brEMzPazQE3hv3mogj6k1a29RP.jpg", "genre_ids": [10749, 14, 16], "id": 3933, "original_language": "en", "original_title": "Corpse Bride", "overview": "Set in a 19th-century european village, this stop-motion animation feature follows the story of Victor, a young man whisked away to the underworld and wed to a mysterious corpse bride, while his real bride Victoria waits bereft in the land of the living.", "poster_path": "/o9GbcdP7rOg2m1NyUnUR3ZwNcTE.jpg", "release_date": "2005-09-12", "title": "Corpse Bride", "video": false, "vote_average": 7.4, "vote_count": 4928, "popularity": 23.702}, {"adult": false, "backdrop_path": "/5OeY4U2rzePxWq2rkqMajUx2gz7.jpg", "genre_ids": [16, 10751, 12, 14, 10749], "id": 812, "original_language": "en", "original_title": "Aladdin", "overview": "Princess Jasmine grows tired of being forced to remain in the palace, so she sneaks out into the marketplace, in disguise, where she meets street-urchin Aladdin.  The couple falls in love, although Jasmine may only marry a prince.  After being thrown in jail, Aladdin becomes embroiled in a plot to find a mysterious lamp, with which the evil Jafar hopes to rule the land.", "poster_path": "/mjKozYRuHc9j7SmiXmbVmCiAM0A.jpg", "release_date": "1992-11-25", "title": "Aladdin", "video": false, "vote_average": 7.6, "vote_count": 7289, "popularity": 35.494}, {"id": 14813, "video": false, "vote_count": 456, "vote_average": 7.6, "title": "Mickey's Christmas Carol", "release_date": "1983-10-19", "original_language": "en", "original_title": "Mickey's Christmas Carol", "genre_ids": [16, 10751], "backdrop_path": "/fDK3xeAcQfQ40ZUULgZshElkspa.jpg", "adult": false, "overview": "It is an adaptation of the Charles Dickens classic A Christmas Carol, featuring Scrooge McDuck as his namesake and inspiration Ebenezer Scrooge and Mickey Mouse as Bob Cratchit. This film was based on a 1972 audio musical entitled Disney's A Christmas Carol. It is a twenty-four minute animated short film produced by Walt Disney Productions as an accompaniment to a re-release of The Rescuers.", "poster_path": "/29iF1IiC3ZyJQ1kmTf4LD8p8oro.jpg", "popularity": 14.7}, {"id": 150540, "video": false, "vote_count": 13957, "vote_average": 7.9, "title": "Inside Out", "release_date": "2015-06-09", "original_language": "en", "original_title": "Inside Out", "genre_ids": [16, 35, 18, 10751], "backdrop_path": "/szytSpLAyBh3ULei3x663mAv5ZT.jpg", "adult": false, "overview": "Growing up can be a bumpy road, and it's no exception for Riley, who is uprooted from her Midwest life when her father starts a new job in San Francisco. Riley's guiding emotions\u2014 Joy, Fear, Anger, Disgust and Sadness\u2014live in Headquarters, the control centre inside Riley's mind, where they help advise her through everyday life and tries to keep things positive, but the emotions conflict on how best to navigate a new city, house and school.", "poster_path": "/aAmfIX3TT40zUHGcCKrlOZRKC7u.jpg", "popularity": 57.362}, {"id": 9479, "video": false, "vote_count": 5316, "vote_average": 7.8, "title": "The Nightmare Before Christmas", "release_date": "1993-10-09", "original_language": "en", "original_title": "The Nightmare Before Christmas", "genre_ids": [16, 14, 10751], "backdrop_path": "/16lk65YfrDFIr6evkWRjSeOOSws.jpg", "adult": false, "overview": "Tired of scaring humans every October 31 with the same old bag of tricks, Jack Skellington, the spindly king of Halloween Town, kidnaps Santa Claus and plans to deliver shrunken heads and other ghoulish gifts to children on Christmas morning. But as Christmas approaches, Jack's rag-doll girlfriend, Sally, tries to foil his misguided plans.", "poster_path": "/6oxkO1VgKCq74fNILKAg6t2dVEt.jpg", "popularity": 18.951}, {"adult": false, "backdrop_path": "/hPByrqJXCXIViFheXQh48wtI7T6.jpg", "genre_ids": [16, 12, 14, 10751], "id": 31135, "original_language": "en", "original_title": "Mickey Mouse: Mickey and the Beanstalk", "overview": "Based on the timeless adventures of \"Jack and the Beanstalk,\" Mickey, Donald and Goofy climb a fantastic beanstalk up into the sky to a place where everything is huge -- the food, the castle and the fearsome giant named Willy who guards a beautiful golden harp! Will Mickey and his friends outwit the giant and make it safely back home?", "poster_path": "/kk1Xg1f1lv6loekjlKinpKJlGOu.jpg", "release_date": "1947-09-27", "title": "Mickey Mouse: Mickey and the Beanstalk", "video": false, "vote_average": 6.7, "vote_count": 166, "popularity": 13.649}, {"adult": false, "backdrop_path": "/twGxeStlGooWV3gP6ZIcSNuQ6jf.jpg", "genre_ids": [12, 16, 10751, 14], "id": 81684, "original_language": "en", "original_title": "The Gruffalo's Child", "overview": "A follow up to the 2009 animated feature and adapted from the childrens' book by Julia Donaldson and Alex Scheffler.  The Gruffalo's child explores the deep dark wood in search of the big bad mouse and meets the Snake, Owl and Fox in the process.  She eventually finds the mouse, who manages to outwit her like the Gruffalo before!", "poster_path": "/qaGH2AoaLvoGXURQtNzj1nw6oZd.jpg", "release_date": "2011-12-25", "title": "The Gruffalo's Child", "video": false, "vote_average": 6.9, "vote_count": 73, "popularity": 9.51}, {"id": 21385, "video": false, "vote_count": 455, "vote_average": 6.4, "title": "Mickey, Donald, Goofy: The Three Musketeers", "release_date": "2004-08-04", "original_language": "en", "original_title": "Mickey, Donald, Goofy: The Three Musketeers", "genre_ids": [12, 16, 35, 10751], "backdrop_path": "/8WodHELOg5guFPMIQf0M88IQhNE.jpg", "adult": false, "overview": "In Disney's take on the Alexander Dumas tale, Mickey Mouse, Donald Duck and Goofy want nothing more than to perform brave deeds on behalf of their queen (Minnie Mouse), but they're stymied by the head Musketeer, Pete. Pete secretly wants to get rid of the queen, so he appoints Mickey and his bumbling friends as guardians to Minnie, thinking such a maneuver will ensure his scheme's success. The score features songs based on familiar classical melodies.", "poster_path": "/uDvv54as7hLH7aWHwPyIVvoNb9K.jpg", "popularity": 27.432}, {"id": 621733, "video": false, "vote_count": 0, "vote_average": 0.0, "title": "A Trip to the Seaside", "release_date": "2019-08-30", "original_language": "en", "original_title": "A Trip to the Seaside", "genre_ids": [99], "backdrop_path": null, "adult": false, "overview": "Experimental short film on the excitement and rush of a day trip", "poster_path": "/AuZVhpoJ4jm2LWDhoJKfxQfhDAi.jpg", "popularity": 1.324}, {"adult": false, "backdrop_path": "/3YGfpjW0OPcrDSarphlEr64WftB.jpg", "genre_ids": [16], "id": 66834, "original_language": "en", "original_title": "Clock Cleaners", "overview": "Mickey, Donald, and Goofy are cleaning a large clock. Among the complications: Mickey fights a sleeping stork that doesn't want to leave, Donald gets tangled up in the main-spring, and Goofy is inside the bell when the clock strikes four.", "poster_path": "/jKM9p9qkibFMraRodEUzEVMemmY.jpg", "release_date": "1937-10-15", "title": "Clock Cleaners", "video": false, "vote_average": 7.0, "vote_count": 41, "popularity": 5.127}, {"id": 650755, "video": false, "vote_count": 0, "vote_average": 0.0, "title": "Atordoado, Eu Permane\u00e7o Atento", "release_date": "2020-01-15", "original_language": "pt", "original_title": "Atordoado, Eu Permane\u00e7o Atento", "genre_ids": [99], "backdrop_path": null, "adult": false, "overview": "", "poster_path": "/exbM8qk6f6T44olJXcM8ix1sunL.jpg", "popularity": 5.092}, {"adult": false, "backdrop_path": "/qFLDF62VbWyyxkwco9lwZqkGoMB.jpg", "genre_ids": [16, 10751], "id": 10895, "original_language": "en", "original_title": "Pinocchio", "overview": "Lonely toymaker Geppetto has his wishes answered when the Blue Fairy arrives to bring his wooden puppet Pinocchio to life. Before becoming a real boy, however, Pinocchio must prove he's worthy as he sets off on an adventure with his whistling sidekick and conscience, Jiminy Cricket.", "poster_path": "/gN1dQBHi4557cFduIu9njOr6knW.jpg", "release_date": "1940-02-23", "title": "Pinocchio", "video": false, "vote_average": 7.0, "vote_count": 3431, "popularity": 25.831}, {"id": 313297, "video": false, "vote_count": 2277, "vote_average": 7.7, "title": "Kubo and the Two Strings", "release_date": "2016-08-18", "original_language": "en", "original_title": "Kubo and the Two Strings", "genre_ids": [12, 16, 10751], "backdrop_path": "/aF4TrSc1IbNNtsWdwixMQNku3Dv.jpg", "adult": false, "overview": "Kubo mesmerizes the people in his village with his magical gift for spinning wild tales with origami. When he accidentally summons an evil spirit seeking vengeance, Kubo is forced to go on a quest to solve the mystery of his fallen samurai father and his mystical weaponry, as well as discover his own magical powers.", "poster_path": "/3Kr9CIIMcXTPlm6cdZ9y3QTe4Y7.jpg", "popularity": 33.362}, {"id": 14836, "video": false, "vote_count": 3514, "vote_average": 7.6, "title": "Coraline", "release_date": "2009-02-05", "original_language": "en", "original_title": "Coraline", "genre_ids": [16, 10751], "backdrop_path": "/obBsMjC9dkDeoYsLxHURikW87UZ.jpg", "adult": false, "overview": "When Coraline moves to an old house, she feels bored and neglected by her parents. She finds a hidden door with a bricked up passage. During the night, she crosses the passage and finds a parallel world where everybody has buttons instead of eyes, with caring parents and all her dreams coming true. When the Other Mother invites Coraline to stay in her world forever, the girl refuses and finds that the alternate reality where she is trapped is only a trick to lure her.", "poster_path": "/ybOmHUVVXcwBQErjw7tmeE97fpO.jpg", "popularity": 25.26}, {"id": 77931, "video": false, "vote_count": 1336, "vote_average": 5.7, "title": "The Smurfs 2", "release_date": "2013-07-30", "original_language": "en", "original_title": "The Smurfs 2", "genre_ids": [16, 35, 14, 10751], "backdrop_path": "/xqfnJn8ApELIa1zGLOa3W9q2Ztn.jpg", "adult": false, "overview": "The evil wizard Gargamel creates a couple of mischievous Smurf-like creatures called the Naughties that he hopes will let him harness the all-powerful, magical Smurf-essence. But when he discovers that only a real Smurf can give him what he wants, and only a secret spell that Smurfette knows can turn the Naughties into real Smurfs, Gargamel kidnaps Smurfette and brings her to Paris, where he has been winning the adoration of millions as the world\u00b9s greatest sorcerer. It's up to Papa, Clumsy, Grouchy, and Vanity to return to our world, reunite with their human friends Patrick and Grace Winslow, and rescue her! Will Smurfette, who has always felt different from the other Smurfs, find a new connection with the Naughties Vexy and Hackus or will the Smurfs convince her that their love for her is True Blue?", "poster_path": "/mF2FXzZ3EktWoagU4fzoabNsK6J.jpg", "popularity": 16.262}, {"adult": false, "backdrop_path": "/yDmyqO3xHTVxtyM0CuqobSX3Hjr.jpg", "genre_ids": [16, 10751, 14], "id": 10144, "original_language": "en", "original_title": "The Little Mermaid", "overview": "This colorful adventure tells the story of an impetuous mermaid princess named Ariel who falls in love with the very human Prince Eric and puts everything on the line for the chance to be with him. Memorable songs and characters -- including the villainous sea witch Ursula.", "poster_path": "/6aXMusULuKFAK0ZRUlv7RJ9zHTc.jpg", "release_date": "1989-11-17", "title": "The Little Mermaid", "video": false, "vote_average": 7.3, "vote_count": 4669, "popularity": 25.992}, {"id": 920, "video": false, "vote_count": 8603, "vote_average": 6.7, "title": "Cars", "release_date": "2006-06-08", "original_language": "en", "original_title": "Cars", "genre_ids": [12, 16, 35, 10751], "backdrop_path": "/a1MlbLBk5Sy6YvMbSuKfwGlDVlb.jpg", "adult": false, "overview": "Lightning McQueen, a hotshot rookie race car driven to succeed, discovers that life is about the journey, not the finish line, when he finds himself unexpectedly detoured in the sleepy Route 66 town of Radiator Springs. On route across the country to the big Piston Cup Championship in California to compete against two seasoned pros, McQueen gets to know the town's offbeat characters.", "poster_path": "/jpfkzbIXgKZqCZAkEkFH2VYF63s.jpg", "popularity": 58.103}], "total_pages": 922, "total_results": 18439}, "recommendations": {"page": 1, "results": [], "total_pages": 1, "total_results": 0}, "credits": {"cast": [{"cast_id": 3, "character": "(voice)", "credit_id": "5ae049b0c3a3683dcf00fc17", "gender": 2, "id": 554570, "name": "Tamori", "order": 1, "profile_path": "/eAwgsj9ncLpYpRHwRUvkTmg7WzP.jpg"}], "crew": [{"credit_id": "5a9a981f0e0a26064901ea91", "department": "Directing", "gender": 2, "id": 608, "job": "Director", "name": "Hayao Miyazaki", "profile_path": "/1OBQPIwR88n49oAEzk47k0fhhOV.jpg"}, {"credit_id": "5a9a9832925141286d01c9e0", "department": "Production", "gender": 2, "id": 608, "job": "Executive Producer", "name": "Hayao Miyazaki", "profile_path": "/1OBQPIwR88n49oAEzk47k0fhhOV.jpg"}, {"credit_id": "5a9a982ac3a3680c0801c80c", "department": "Writing", "gender": 2, "id": 608, "job": "Writer", "name": "Hayao Miyazaki", "profile_path": "/1OBQPIwR88n49oAEzk47k0fhhOV.jpg"}, {"credit_id": "5b4258200e0a2670f9013374", "department": "Sound", "gender": 2, "id": 636, "job": "Music", "name": "Joe Hisaishi", "profile_path": "/9U16jEYcoCyXGBpHrSQ7pZGdHfd.jpg"}, {"credit_id": "5b4257ff0e0a267126013d89", "department": "Art", "gender": 0, "id": 40455, "job": "Art Direction", "name": "Noboru Yoshida", "profile_path": null}]}}