{"adult": false, "backdrop_path": null, "belongs_to_collection": null, "budget": 0, "genres": [{"id": 99, "name": "Documentary"}], "homepage": "https://americadocumentary.com/", "id": 509402, "imdb_id": "tt8119782", "original_language": "en", "original_title": "Am\u00e9rica", "overview": "This sparkling, irreverent, and deeply emotional piece of creative nonfiction announces the arrival of a standout filmmaking partnership. When their father is hauled away, a colorful trio of brothers \u2014 a sibling team to rival Moe, Larry, and Curly \u2014 step up to take care of Am\u00e9rica, their grandmother, in Colima, Mexico. Rodrigo, Diego, and Bruno are stilt-walkers and acrobats and Elvis impersonators and unicycle riders \u2014 when not running the family's agriculture warehouse. With a loose, offhanded charm, Stoll and Whiteside capture the family\u2019s natural performative streak in a way that makes even the most explosive, dramatic moments feel organic. The endearing, genuine scenes between Diego and his grandmother celebrate the possibility of multigenerational connection.", "popularity": 2.262, "poster_path": "/hvdtyGU4HNkbLLMCa8gsbGm6TH2.jpg", "production_companies": [], "production_countries": [{"iso_3166_1": "MX", "name": "Mexico"}, {"iso_3166_1": "US", "name": "United States of America"}], "release_date": "2018-03-01", "revenue": 0, "runtime": 75, "spoken_languages": [{"iso_639_1": "es", "name": "Espa\u00f1ol"}], "status": "Released", "tagline": "", "title": "Am\u00e9rica", "video": false, "vote_average": 10.0, "vote_count": 1, "keywords": {"keywords": [{"id": 534, "name": "mexico"}, {"id": 211660, "name": "old age"}]}, "similar": {"page": 1, "results": [{"id": 138832, "video": false, "vote_count": 5758, "vote_average": 6.8, "title": "We're the Millers", "release_date": "2013-08-07", "original_language": "en", "original_title": "We're the Millers", "genre_ids": [35, 80], "backdrop_path": "/hoSddFLIyr6FUylOwCxoahbvnXd.jpg", "adult": false, "overview": "A veteran pot dealer creates a fake family as part of his plan to move a huge shipment of weed into the U.S. from Mexico.", "poster_path": "/digXuLXmk88Ar23LYUQTLcz5npA.jpg", "popularity": 22.212}, {"id": 312221, "video": false, "vote_count": 4401, "vote_average": 7.4, "title": "Creed", "release_date": "2015-11-25", "original_language": "en", "original_title": "Creed", "genre_ids": [18], "backdrop_path": "/fs2yhdSCzMVlNECrN84WuCkgXov.jpg", "adult": false, "overview": "The former World Heavyweight Champion Rocky Balboa serves as a trainer and mentor to Adonis Johnson, the son of his late friend and former rival Apollo Creed.", "poster_path": "/hKzhV274pkZBSpXfCjUyzbyYKLl.jpg", "popularity": 17.844}, {"id": 273481, "video": false, "vote_count": 4912, "vote_average": 7.3, "title": "Sicario", "release_date": "2015-09-17", "original_language": "en", "original_title": "Sicario", "genre_ids": [28, 80, 53], "backdrop_path": "/zAHozevwbbsB2epEVpCkzqVccWW.jpg", "adult": false, "overview": "An idealistic FBI agent is enlisted by a government task force to aid in the escalating war against drugs at the border area between the U.S. and Mexico.", "poster_path": "/p2SdfGmQRaw8xhFbexlHL7srMM8.jpg", "popularity": 30.863}, {"adult": false, "backdrop_path": "/h51DdjaDD2aPu1fLHsmpJaaJinS.jpg", "genre_ids": [80, 18, 53], "id": 504172, "original_language": "en", "original_title": "The Mule", "overview": "Earl Stone, a man in his eighties, is broke, alone, and facing foreclosure of his business when he is offered a job that simply requires him to drive. Easy enough, but, unbeknownst to Earl, he's just signed on as a drug courier for a Mexican cartel. He does so well that his cargo increases exponentially, and Earl hit the radar of hard-charging DEA agent Colin Bates.", "poster_path": "/oeZh7yEz3PMnZLgBPhrafFHRbVz.jpg", "release_date": "2018-12-14", "title": "The Mule", "video": false, "vote_average": 6.6, "vote_count": 2387, "popularity": 23.514}, {"id": 373571, "video": false, "vote_count": 1972, "vote_average": 6.2, "title": "Godzilla: King of the Monsters", "release_date": "2019-05-29", "original_language": "en", "original_title": "Godzilla: King of the Monsters", "genre_ids": [28, 878], "backdrop_path": "/cNt14e43I2DDW6Xd9zFhrP8eOcA.jpg", "adult": false, "overview": "Follows the heroic efforts of the crypto-zoological agency Monarch as its members face off against a battery of god-sized monsters, including the mighty Godzilla, who collides with Mothra, Rodan, and his ultimate nemesis, the three-headed King Ghidorah. When these ancient super-species - thought to be mere myths - rise again, they all vie for supremacy, leaving humanity's very existence hanging in the balance.", "poster_path": "/fQ40gmFM4p03tXwMxQQKh2cCBW4.jpg", "popularity": 49.654}, {"id": 354912, "video": false, "vote_count": 10129, "vote_average": 8.2, "title": "Coco", "release_date": "2017-10-27", "original_language": "en", "original_title": "Coco", "genre_ids": [12, 16, 35, 14, 10751], "backdrop_path": "/askg3SMvhqEl4OL52YuvdtY40Yb.jpg", "adult": false, "overview": "Despite his family\u2019s baffling generations-old ban on music, Miguel dreams of becoming an accomplished musician like his idol, Ernesto de la Cruz. Desperate to prove his talent, Miguel finds himself in the stunning and colorful Land of the Dead following a mysterious chain of events. Along the way, he meets charming trickster Hector, and together, they set off on an extraordinary journey to unlock the real story behind Miguel's family history.", "poster_path": "/eKi8dIrr8voobbaGzDpe8w0PVbC.jpg", "popularity": 37.991}, {"id": 480105, "video": false, "vote_count": 380, "vote_average": 4.9, "title": "47 Meters Down: Uncaged", "release_date": "2019-08-15", "original_language": "en", "original_title": "47 Meters Down: Uncaged", "genre_ids": [12, 27, 53], "backdrop_path": "/3uG3aOhEzFCjcQulsJQiAzLSrw8.jpg", "adult": false, "overview": "Four teenage girls go on a diving adventure to explore a submerged Mayan city. Once inside, their rush of excitement turns into a jolt of terror as they discover the sunken ruins are a hunting ground for deadly great white sharks. With their air supply steadily dwindling, the friends must navigate the underwater labyrinth of claustrophobic caves and eerie tunnels in search of a way out of their watery hell.", "poster_path": "/g4z7mDmJmx23vsVg6XNWcnXb6gc.jpg", "popularity": 44.216}, {"id": 1391, "video": false, "vote_count": 688, "vote_average": 7.4, "title": "Y Tu Mam\u00e1 Tambi\u00e9n", "release_date": "2001-06-08", "original_language": "es", "original_title": "Y tu mam\u00e1 tambi\u00e9n", "genre_ids": [18, 10749], "backdrop_path": "/5jXzf6VCxmRAbQYYOuoPgGZRbRp.jpg", "adult": false, "overview": "In Mexico, two teenage boys and an attractive older woman embark on a road trip and learn a thing or two about life, friendship, sex, and each other.", "poster_path": "/4n6lnr7q3Ysz4rKz3raxkltbHgr.jpg", "popularity": 16.073}, {"id": 12146, "video": false, "vote_count": 309, "vote_average": 6.3, "title": "The Missing", "release_date": "2003-11-26", "original_language": "en", "original_title": "The Missing", "genre_ids": [12, 53, 37], "backdrop_path": "/6YveStq0npJFRE8LqMb5jDhzr0t.jpg", "adult": false, "overview": "When rancher and single mother of two Maggie Gilkeson sees her teenage daughter, Lily, kidnapped by Apache rebels, she reluctantly accepts the help of her estranged father, Samuel, in tracking down the kidnappers. Along the way, the two must learn to reconcile the past and work together if they are going to have any hope of getting Lily back before she is taken over the border and forced to become a prostitute.", "poster_path": "/eAXh7In47DugzaN4VPI1T84USB6.jpg", "popularity": 11.946}, {"id": 1656, "video": false, "vote_count": 1771, "vote_average": 6.0, "title": "The Legend of Zorro", "release_date": "2005-10-24", "original_language": "en", "original_title": "The Legend of Zorro", "genre_ids": [28, 12], "backdrop_path": "/iRD5SBgro8MRmcU9Y4JNJxYmh3k.jpg", "adult": false, "overview": "Having spent the last 10 years fighting injustice and cruelty, Alejandro de la Vega is now facing his greatest challenge: his loving wife Elena has thrown him out of the house!  Elena has filed for divorce and found comfort in the arms of Count Armand, a dashing French aristocrat.  But Alejandro knows something she doesn't: Armand is the evil mastermind behind a terrorist plot to destroy the United States.  And so, with his marriage and the county's future at stake, it's up to Zorro to save two unions before it's too late.", "poster_path": "/rH3WJbSE3APS1l1hTXZZbz3NVP1.jpg", "popularity": 14.366}, {"id": 500852, "video": false, "vote_count": 159, "vote_average": 6.1, "title": "Miss Bala", "release_date": "2019-02-01", "original_language": "en", "original_title": "Miss Bala", "genre_ids": [28], "backdrop_path": "/5OoR3aVpxXluSCe9P5mhqOa36Gb.jpg", "adult": false, "overview": "Gloria finds a power she never knew she had when she is drawn into a dangerous world of cross-border crime. Surviving will require all of her cunning, inventiveness, and strength.", "poster_path": "/ae9yrSAS7nLZPbbkOm61pSuIqeo.jpg", "popularity": 13.505}, {"adult": false, "backdrop_path": "/lEkHdk4g0nAKtMcHBtSmC1ON3O1.jpg", "genre_ids": [27, 18, 53], "id": 332567, "original_language": "en", "original_title": "The Shallows", "overview": "When Nancy is surfing on a secluded beach, she finds herself on the feeding ground of a great white shark. Though she is stranded only 200 yards from shore, survival proves to be the ultimate test of wills, requiring all of Nancy's ingenuity, resourcefulness, and fortitude.", "poster_path": "/6vuxwCfBejPfUjMxrPgk0ANmVFq.jpg", "release_date": "2016-06-24", "title": "The Shallows", "video": false, "vote_average": 6.3, "vote_count": 3391, "popularity": 16.812}, {"id": 80389, "video": false, "vote_count": 915, "vote_average": 6.5, "title": "Get the Gringo", "release_date": "2012-03-15", "original_language": "en", "original_title": "Get the Gringo", "genre_ids": [28, 80, 18, 53], "backdrop_path": "/ef76SZtJSZEplZ95uq5cWtaDnp1.jpg", "adult": false, "overview": "A career criminal (Gibson) nabbed by Mexican authorities is placed in a tough prison where he learns to survive with the help of a 9-year-old boy.", "poster_path": "/tHhJ5evvhy9G2g0NbkZHNeDz4UO.jpg", "popularity": 13.141}, {"adult": false, "backdrop_path": "/csjX21x5Re3vQninMLJ1zJemXZ8.jpg", "genre_ids": [37], "id": 336, "original_language": "it", "original_title": "Gi\u00f9 la testa", "overview": "At the beginning of the 1913 Mexican Revolution, greedy bandit Juan Miranda and idealist John H. Mallory, an Irish Republican Army explosives expert on the lam from the British, fall in with a band of revolutionaries plotting to strike a national bank. When it turns out that the government has been using the bank as a hiding place for illegally detained political prisoners -- who are freed by the blast -- Miranda becomes a revolutionary hero against his will.", "poster_path": "/nQkr1yi87pX1d3lQVTrBEWlCpT1.jpg", "release_date": "1971-10-20", "title": "Duck, You Sucker", "video": false, "vote_average": 7.8, "vote_count": 481, "popularity": 10.37}, {"id": 9051, "video": false, "vote_count": 115, "vote_average": 5.6, "title": "10", "release_date": "1979-10-04", "original_language": "en", "original_title": "10", "genre_ids": [35, 10749], "backdrop_path": "/f0KcQlWKQfgJxIV365TFaFyXUVT.jpg", "adult": false, "overview": "A Hollywood songwriter goes through a mid-life crisis and becomes infatuated with a sexy blonde newlywed.", "poster_path": "/7GGpt49Q2c98zVz514mHlRjCpGy.jpg", "popularity": 14.392}, {"id": 460019, "video": false, "vote_count": 2349, "vote_average": 6.0, "title": "Truth or Dare", "release_date": "2018-04-12", "original_language": "en", "original_title": "Truth or Dare", "genre_ids": [27, 53], "backdrop_path": "/jrZTNZmcjUVh7DPy6txp93Aczpa.jpg", "adult": false, "overview": "A harmless game of \"Truth or Dare\" among friends turns deadly when someone\u2014or something\u2014begins to punish those who tell a lie\u2014or refuse the dare.", "poster_path": "/ei2waWQAG8NP244WShIFgGu9IOu.jpg", "popularity": 18.452}, {"id": 14249, "video": false, "vote_count": 192, "vote_average": 6.4, "title": "Revenge", "release_date": "1990-02-16", "original_language": "en", "original_title": "Revenge", "genre_ids": [53, 10749], "backdrop_path": "/yzO7RSh46cWceoBfW5RhiqgVJrW.jpg", "adult": false, "overview": "Michael \u2018Jay\u2019 Cochran has just left the Navy after 12 years and he's not quite sure what he's going to do, except that he knows he wants a holiday. He decides to visit Tiburon Mendez, a powerful but shady Mexican businessman who he once flew to Alaska for a hunting trip. Arriving at the Mendez mansion in Mexico, he is immediately surprised by the beauty and youth of Mendez\u2019s wife, Miryea.", "poster_path": "/j0dnMRoeYZ5KoIymS9qVHdgo8xX.jpg", "popularity": 11.013}, {"id": 12165, "video": false, "vote_count": 226, "vote_average": 6.6, "title": "The Burning Plain", "release_date": "2008-11-07", "original_language": "en", "original_title": "The Burning Plain", "genre_ids": [18, 10749], "backdrop_path": "/rAY51Y6Asy37nwawUCHGMvOobPF.jpg", "adult": false, "overview": "A trailer is burning in the middle of a plain. The bodies of two adulterous lovers are found. Scenes from both families, before and after the dramatic events, suggest an unusual connection between them. But what is their secret?", "poster_path": "/j5dUcaMtaAa0Cx3ex8CjuJnvrPA.jpg", "popularity": 10.175}, {"id": 106747, "video": false, "vote_count": 1191, "vote_average": 5.5, "title": "Machete Kills", "release_date": "2013-09-12", "original_language": "en", "original_title": "Machete Kills", "genre_ids": [28, 80, 53], "backdrop_path": "/5bxyCKV3AHlzwmvtqXkcr7Li56s.jpg", "adult": false, "overview": "Ex-Federale agent Machete is recruited by the President of the United States for a mission which would be impossible for any mortal man \u2013 he must take down a madman revolutionary and an eccentric billionaire arms dealer who has hatched a plan to spread war and anarchy across the planet.", "poster_path": "/ltblMRM8clWKsjC2qQITuRN40Yr.jpg", "popularity": 13.957}, {"id": 3090, "video": false, "vote_count": 557, "vote_average": 8.1, "title": "The Treasure of the Sierra Madre", "release_date": "1948-01-24", "original_language": "en", "original_title": "The Treasure of the Sierra Madre", "genre_ids": [12, 18, 37], "backdrop_path": "/dDuNQNUdVMSKeEOwvuicc7m83IL.jpg", "adult": false, "overview": "Fred C. Dobbs and Bob Curtin, both down on their luck in Tampico, Mexico in 1925, meet up with a grizzled prospector named Howard and decide to join with him in search of gold in the wilds of central Mexico. Through enormous difficulties, they eventually succeed in finding gold, but bandits, the elements, and most especially greed threaten to turn their success into disaster.", "poster_path": "/e3lYTRwiDVPQv07xKldwlLAXikN.jpg", "popularity": 17.812}], "total_pages": 35, "total_results": 699}, "recommendations": {"page": 1, "results": [], "total_pages": 1, "total_results": 0}, "credits": {"cast": [], "crew": [{"credit_id": "5a9d85a5c3a3684287001209", "department": "Directing", "gender": 0, "id": 1991187, "job": "Director", "name": "Chase Whiteside", "profile_path": null}, {"credit_id": "5a9d85c0c3a368428e001186", "department": "Directing", "gender": 0, "id": 1991188, "job": "Director", "name": "Erick Stoll", "profile_path": null}, {"credit_id": "5d99149b55c1f40023c54433", "department": "Production", "gender": 0, "id": 2425805, "job": "Associate Producer", "name": "Ryan Davis", "profile_path": null}, {"credit_id": "5d9914a755c1f40023c54440", "department": "Production", "gender": 0, "id": 2425806, "job": "Associate Producer", "name": "Jason Somerville", "profile_path": null}, {"credit_id": "5d9914bbaaec710022690221", "department": "Production", "gender": 0, "id": 1991188, "job": "Producer", "name": "Erick Stoll", "profile_path": null}, {"credit_id": "5d9914c98c40f700197a0ee9", "department": "Production", "gender": 0, "id": 1991187, "job": "Producer", "name": "Chase Whiteside", "profile_path": null}, {"credit_id": "5d9914d430f79c00224abbb3", "department": "Crew", "gender": 0, "id": 1991188, "job": "Cinematography", "name": "Erick Stoll", "profile_path": null}, {"credit_id": "5d9914dfaaec71002a690bf9", "department": "Editing", "gender": 0, "id": 1991188, "job": "Editor", "name": "Erick Stoll", "profile_path": null}, {"credit_id": "5d9914e8b0460500224312fc", "department": "Editing", "gender": 0, "id": 1991187, "job": "Editor", "name": "Chase Whiteside", "profile_path": null}, {"credit_id": "5d9914fbaaec71001a68da87", "department": "Sound", "gender": 0, "id": 2425809, "job": "Sound Editor", "name": "Antonia Bustamente", "profile_path": null}, {"credit_id": "5d99151255c1f40019c539a3", "department": "Sound", "gender": 0, "id": 2425810, "job": "Sound Editor", "name": "Gonz\u00e1lez Mart\u00ednez David", "profile_path": null}, {"credit_id": "5d991526aaec71001268f2dc", "department": "Sound", "gender": 0, "id": 1372633, "job": "Sound Designer", "name": "Christian Giraud", "profile_path": null}, {"credit_id": "5d9915328c40f700297a27f7", "department": "Sound", "gender": 0, "id": 2425811, "job": "Foley Artist", "name": "Samantha Gonz\u00e1lez Fong", "profile_path": null}, {"credit_id": "5d9915478c40f700117a24b2", "department": "Sound", "gender": 0, "id": 2425812, "job": "Recording Supervision", "name": "No\u00e9 Aguayo L\u00f3pez", "profile_path": null}, {"credit_id": "5d99155430f79c00194ac06f", "department": "Editing", "gender": 0, "id": 1991187, "job": "Colorist", "name": "Chase Whiteside", "profile_path": null}]}}