{"adult": false, "backdrop_path": null, "belongs_to_collection": null, "budget": 0, "genres": [{"id": 18, "name": "Drama"}], "homepage": null, "id": 50983, "imdb_id": "tt0152721", "original_language": "en", "original_title": "Swamp Girl", "overview": "A little blonde girl who is abandoned by her parents in the Florida swamps is rescued and raised by a black man she calls her \"Pa\".", "popularity": 1.042, "poster_path": "/c2DGVQQpEGazGfL819xe3MyqHPX.jpg", "production_companies": [{"id": 75825, "logo_path": null, "name": "Donald A. Davis Productions", "origin_country": ""}], "production_countries": [{"iso_3166_1": "US", "name": "United States of America"}], "release_date": "1971-01-01", "revenue": 0, "runtime": 78, "spoken_languages": [{"iso_639_1": "en", "name": "English"}], "status": "Released", "tagline": "Filmed on location in the strangely beautiful Okefenokee swamps of Georgia.", "title": "Swamp Girl", "video": false, "vote_average": 3.0, "vote_count": 1, "keywords": {"keywords": [{"id": 2804, "name": "exploitation"}, {"id": 3184, "name": "alligator"}, {"id": 4551, "name": "swamp"}, {"id": 197411, "name": "hicksploitation"}]}, "similar": {"page": 1, "results": [{"adult": false, "backdrop_path": "/lnxiNlbStoBT4CDMqPAdprS5pwN.jpg", "genre_ids": [28, 53], "id": 1991, "original_language": "en", "original_title": "Death Proof", "overview": "Austin's hottest DJ, Jungle Julia, sets out into the night to unwind with her two friends Shanna and Arlene. Covertly tracking their moves is Stuntman Mike, a scarred rebel leering from behind the wheel of his muscle car, revving just feet away.", "poster_path": "/nyQBcpxqS4im2akQlWG9Y1oeM2V.jpg", "release_date": "2007-05-21", "title": "Death Proof", "video": false, "vote_average": 6.8, "vote_count": 2821, "popularity": 17.718}, {"adult": false, "backdrop_path": "/bYbnlh6VXFRtcSX82UMDsBDLB5j.jpg", "genre_ids": [18, 10749], "id": 28468, "original_language": "it", "original_title": "La chiave", "overview": "After twenty years of marriage, art professor Nino Rolfe attempts to break down his wife Teresa's conventional modesty. Noticing her affection for their daughter's fianc\u00e9, Nino instigates her sexual interest in him as well. This sets off a chain of unexpected events and emotional complications, as Nino and his unpredictable fascist daughter find that they both enjoy being jealous.", "poster_path": "/e6g2geNLgFzMbriH6EvSJZD78nx.jpg", "release_date": "1983-10-18", "title": "The Key", "video": false, "vote_average": 5.0, "vote_count": 128, "popularity": 15.363}, {"adult": false, "backdrop_path": "/20IgqkdFw5kuItqDCJtidSESP0t.jpg", "genre_ids": [27, 18], "id": 10066, "original_language": "en", "original_title": "House of Wax", "overview": "A group of unwitting teens are stranded near a strange wax museum and soon must fight to survive and keep from becoming the next exhibit.", "poster_path": "/uM1RebQywM5PPYsauayefpXGxVk.jpg", "release_date": "2005-04-30", "title": "House of Wax", "video": false, "vote_average": 5.7, "vote_count": 1532, "popularity": 16.398}, {"adult": false, "backdrop_path": "/siRoJI12l4SbWye3wpIotM8OslV.jpg", "genre_ids": [18, 53], "id": 293768, "original_language": "en", "original_title": "Kidnap", "overview": "A mother (in her Minivan) stops at nothing to recover her kidnapped son.", "poster_path": "/fwdOX3PEZlOLXr9SMpgRnSmTVFp.jpg", "release_date": "2017-06-16", "title": "Kidnap", "video": false, "vote_average": 6.1, "vote_count": 846, "popularity": 21.554}, {"adult": false, "backdrop_path": "/r3xsFBD1VTUusk393bBc7SsDUJe.jpg", "genre_ids": [80, 18, 53], "id": 553, "original_language": "en", "original_title": "Dogville", "overview": "A barren soundstage is stylishly utilized to create a minimalist small-town setting in which a mysterious woman named Grace hides from the criminals who pursue her. The town is two-faced and offers to harbor Grace as long as she can make it worth their effort, so Grace works hard under the employ of various townspeople to win their favor. Tensions flare, however, and Grace's status as a helpless outsider provokes vicious contempt and abuse from the citizens of Dogville.", "poster_path": "/g1xLrof2RVgtHBB4fLvR5Xr8l5x.jpg", "release_date": "2003-05-19", "title": "Dogville", "video": false, "vote_average": 7.8, "vote_count": 1359, "popularity": 16.355}, {"id": 511987, "video": false, "vote_count": 1034, "vote_average": 6.1, "title": "Crawl", "release_date": "2019-07-11", "original_language": "en", "original_title": "Crawl", "genre_ids": [28, 18, 27, 53], "backdrop_path": "/yG0iksOxpsbZo3fwAGRxpxHQTcZ.jpg", "adult": false, "overview": "When a huge hurricane hits her hometown in Florida, Haley ignores evacuation orders to look for her father. After finding him badly wounded, both are trapped by the flood. With virtually no time to escape the storm, they discover that rising water levels are the least of their problems.", "poster_path": "/9kOtMOUa5HrOiIG2Z9Anv7M8AbY.jpg", "popularity": 22.31}, {"adult": false, "backdrop_path": "/GRyynLqafMrLFMHqvfGdUweavA.jpg", "genre_ids": [27, 18, 14], "id": 628, "original_language": "en", "original_title": "Interview with the Vampire", "overview": "A vampire relates his epic life story of love, betrayal, loneliness, and dark hunger to an over-curious reporter.", "poster_path": "/hldXwwViSfHJS0kIJr07KBGmHJI.jpg", "release_date": "1994-11-11", "title": "Interview with the Vampire", "video": false, "vote_average": 7.3, "vote_count": 3231, "popularity": 21.064}, {"id": 617, "video": false, "vote_count": 856, "vote_average": 6.3, "title": "Wild Things", "release_date": "1998-03-20", "original_language": "en", "original_title": "Wild Things", "genre_ids": [18, 9648, 53], "backdrop_path": "/wvMSGevzwrJAmK3xXYvse9goQgV.jpg", "adult": false, "overview": "When teen-socialite Kelly Van Ryan and troubled bad girl Suzie Toller accuse guidance counselor Sam Lombardo of rape, he's suspended by the school, rejected by the town, and fighting to get his life back. One cop suspects conspiracy, but nothing is what it seems...", "poster_path": "/dI9iYo1cL81yzJkBVyNGipjSvy0.jpg", "popularity": 15.963}, {"adult": false, "backdrop_path": "/fmo48Lt8XtMWeHeXJzi5SbPCJud.jpg", "genre_ids": [18, 27, 80], "id": 1696, "original_language": "en", "original_title": "The Devil's Rejects", "overview": "The sequel to House of 1000 Corpses \u2013 the Firefly family are ambushed at their isolated home by Sheriff Wydell and a squad of armed men guns blazing \u2013 yet only Otis and his sister, Baby, manage to escape the barrage of bullets unharmed. Hiding out in a backwater motel, the wanted siblings wait to rendezvous with their errant father, Captain Spaulding, killing whoever happens to stand in their way.", "poster_path": "/fj4rrpUlBpFjPaJecpjID6yqacx.jpg", "release_date": "2005-07-22", "title": "The Devil's Rejects", "video": false, "vote_average": 6.7, "vote_count": 720, "popularity": 14.155}, {"id": 808, "video": false, "vote_count": 9704, "vote_average": 7.6, "title": "Shrek", "release_date": "2001-05-16", "original_language": "en", "original_title": "Shrek", "genre_ids": [12, 16, 35, 14, 10751], "backdrop_path": "/2l5UHZBcp9cx1PwKLdisJ0gV9jB.jpg", "adult": false, "overview": "It ain't easy bein' green -- especially if you're a likable (albeit smelly) ogre named Shrek. On a mission to retrieve a gorgeous princess from the clutches of a fire-breathing dragon, Shrek teams up with an unlikely compatriot -- a wisecracking donkey.", "poster_path": "/140ewbWv8qHStD3mlBDvvGd0Zvu.jpg", "popularity": 29.933}, {"id": 300668, "video": false, "vote_count": 5125, "vote_average": 6.3, "title": "Annihilation", "release_date": "2018-02-22", "original_language": "en", "original_title": "Annihilation", "genre_ids": [27, 878], "backdrop_path": "/5zfVNTrkhMu673zma6qhFzG01ig.jpg", "adult": false, "overview": "A biologist signs up for a dangerous, secret expedition into a mysterious zone where the laws of nature don't apply.", "poster_path": "/d3qcpfNwbAMCNqWDHzPQsUYiUgS.jpg", "popularity": 30.197}, {"adult": false, "backdrop_path": "/7ZyiMee2s7kARJ0IvJOIgTyvmdp.jpg", "genre_ids": [12, 28, 53, 878], "id": 9659, "original_language": "en", "original_title": "Mad Max", "overview": "In a postapocalyptic future, jaded cop Max Rockatansky (Mel Gibson) is ready to retire. But his world is shattered when a malicious gang murders his family as an act of retaliation, forcing a devastated Max to hit the open road seeking vengeance. As he travels the Australian outback's empty stretches of highway, he tours the bloodstained battlegrounds ruled by marauding bikers who feed on violence.", "poster_path": "/5LrI4GiCSrChgkdskVZiwv643Kg.jpg", "release_date": "1979-04-12", "title": "Mad Max", "video": false, "vote_average": 6.7, "vote_count": 2363, "popularity": 25.432}, {"adult": false, "backdrop_path": "/rPfyX0pkmn8Ea4gh3DfsmzFUf05.jpg", "genre_ids": [18, 27, 80], "id": 74997, "original_language": "en", "original_title": "The Human Centipede 2 (Full Sequence)", "overview": "Inspired by the fictional Dr. Heiter, disturbed loner Martin dreams of creating a 12-person centipede and sets out to realize his sick fantasy.", "poster_path": "/kFtAdkCO0vXN2RWu2oMcR9GZ9Hi.jpg", "release_date": "2011-10-06", "title": "The Human Centipede 2 (Full Sequence)", "video": false, "vote_average": 4.5, "vote_count": 674, "popularity": 14.216}, {"id": 70074, "video": false, "vote_count": 746, "vote_average": 5.4, "title": "Bullet to the Head", "release_date": "2013-01-31", "original_language": "en", "original_title": "Bullet to the Head", "genre_ids": [28, 80, 53], "backdrop_path": "/9viReI7LM6RV9UxsgLsO5XO0hFi.jpg", "adult": false, "overview": "After watching their respective partners die, a cop and a hitman form an alliance in order to bring down their common enemy.", "poster_path": "/in6KZhkj6UCpXhjVm00VzdisHyf.jpg", "popularity": 15.722}, {"id": 1955, "video": false, "vote_count": 1711, "vote_average": 8.1, "title": "The Elephant Man", "release_date": "1980-10-02", "original_language": "en", "original_title": "The Elephant Man", "genre_ids": [18, 36], "backdrop_path": "/rR479zn26lJp4vNxXKjfBVCHLAW.jpg", "adult": false, "overview": "A Victorian surgeon rescues a heavily disfigured man being mistreated by his \"owner\" as a side-show freak. Behind his monstrous fa\u00e7ade, there is revealed a person of great intelligence and sensitivity. Based on the true story of Joseph Merrick (called John Merrick in the film), a severely deformed man in 19th century London.", "poster_path": "/lDXJUmLQsViSKLbil2luD91l2kE.jpg", "popularity": 12.883}, {"id": 1992, "video": false, "vote_count": 2033, "vote_average": 6.6, "title": "Planet Terror", "release_date": "2007-04-06", "original_language": "en", "original_title": "Planet Terror", "genre_ids": [28, 27, 53], "backdrop_path": "/a2zIKDg5QGFc2vzdaPXT7uZKipe.jpg", "adult": false, "overview": "Two doctors find their graveyard shift inundated with townspeople ravaged by sores. Among the wounded is Cherry, a dancer whose leg was ripped from her body. As the invalids quickly become enraged aggressors, Cherry and her ex-boyfriend Wray lead a team of accidental warriors into the night.", "poster_path": "/7Yjzttt0VfPphSsUg8vFUO9WaEt.jpg", "popularity": 18.01}, {"id": 33518, "video": false, "vote_count": 121, "vote_average": 5.6, "title": "Alligator", "release_date": "1980-07-02", "original_language": "en", "original_title": "Alligator", "genre_ids": [27, 878, 53], "backdrop_path": "/qMVM1NZvj70UPLGKYh22uSjY2OH.jpg", "adult": false, "overview": "A baby alligator is flushed down a toilet and survives by eating discarded lab animals, injected with growth hormones. The now gigantic animal, escapes the city sewers, and goes on a rampage, pursued by a cop and a big-game hunter.", "poster_path": "/2wZtSH9oSuhkdvG79dClQZVvctR.jpg", "popularity": 11.519}, {"adult": false, "backdrop_path": "/etybioibi04QJK9xxn3Rv5NLuKs.jpg", "genre_ids": [12, 28, 53, 878], "id": 8810, "original_language": "en", "original_title": "Mad Max 2", "overview": "Max Rockatansky returns as the heroic loner who drives the dusty roads of a postapocalyptic Australian Outback in an unending search for gasoline. Arrayed against him and the other scraggly defendants of a fuel-depot encampment are the bizarre warriors commanded by the charismatic Lord Humungus, a violent leader whose scruples are as barren as the surrounding landscape.", "poster_path": "/tVaClEA7n0MxaY8sb81nHwh6XNW.jpg", "release_date": "1981-12-24", "title": "Mad Max 2", "video": false, "vote_average": 7.4, "vote_count": 1898, "popularity": 19.166}, {"id": 9326, "video": false, "vote_count": 938, "vote_average": 6.7, "title": "Romancing the Stone", "release_date": "1984-03-30", "original_language": "en", "original_title": "Romancing the Stone", "genre_ids": [28, 12, 35, 10749], "backdrop_path": "/5MNAokmkK4NPtYJCPmQ2fgErW9n.jpg", "adult": false, "overview": "Though she can spin wild tales of passionate romance, novelist Joan Wilder has no life of her own. Then one day adventure comes her way in the form of a mysterious package. It turns out that the parcel is the ransom she'll need to free her abducted sister, so Joan flies to South America to hand it over. But she gets on the wrong bus and winds up hopelessly stranded in the jungle.", "poster_path": "/3TqpkTYiltYsxYatdug6WDgdRKL.jpg", "popularity": 16.925}, {"id": 10398, "video": false, "vote_count": 585, "vote_average": 6.4, "title": "Double Jeopardy", "release_date": "1999-09-24", "original_language": "en", "original_title": "Double Jeopardy", "genre_ids": [80, 18, 9648, 53], "backdrop_path": "/oPwMJ06HCX9jluDmHFsW2j4GzjN.jpg", "adult": false, "overview": "A woman framed for her husband's murder suspects he is still alive; as she has already been tried for the crime, she can't be re-prosecuted if she finds and kills him.", "poster_path": "/9Pl7lqUzU7lxQHYjcmTT6ZvbbDY.jpg", "popularity": 13.86}], "total_pages": 45, "total_results": 881}, "recommendations": {"page": 1, "results": [], "total_pages": 1, "total_results": 0}, "credits": {"cast": [{"cast_id": 6, "character": "Swamp Ranger", "credit_id": "5717f7d6c3a3686c83002235", "gender": 2, "id": 1019845, "name": "Ferlin Husky", "order": 0, "profile_path": "/tfavOXiUh4VZE0LjVCAuPCBtR5O.jpg"}, {"cast_id": 17, "character": "Janeen", "credit_id": "5717f883c3a3687fd6001a1d", "gender": 1, "id": 74351, "name": "Simone Griffeth", "order": 1, "profile_path": "/hfJSkRDjj27PZvl7RBqbzP8BXVo.jpg"}, {"cast_id": 18, "character": "Sheriff", "credit_id": "57233c08c3a368646c001474", "gender": 0, "id": 119382, "name": "Claude King", "order": 2, "profile_path": null}, {"cast_id": 8, "character": "Steve", "credit_id": "5717f7fec3a3687b8c002003", "gender": 0, "id": 1042689, "name": "Steve Drexel", "order": 3, "profile_path": null}, {"cast_id": 9, "character": "Nat", "credit_id": "5717f80c925141119c00061d", "gender": 0, "id": 1608522, "name": "Lonnie Bower", "order": 4, "profile_path": null}, {"cast_id": 10, "character": "Carol", "credit_id": "5717f8169251411f5600047e", "gender": 0, "id": 558566, "name": "Donna Stanley", "order": 5, "profile_path": null}, {"cast_id": 11, "character": "Ella", "credit_id": "5717f827925141282f001e54", "gender": 0, "id": 1605902, "name": "Joyce Lee", "order": 6, "profile_path": null}, {"cast_id": 12, "character": "Dent", "credit_id": "5717f83bc3a3687c2c001ebd", "gender": 0, "id": 1608524, "name": "Robert Corley", "order": 7, "profile_path": null}, {"cast_id": 13, "character": "Eafe", "credit_id": "5717f84d9251411b09001f61", "gender": 2, "id": 138878, "name": "Stuart Culpepper", "order": 8, "profile_path": null}, {"cast_id": 14, "character": "Hank", "credit_id": "5717f8579251413d3000395e", "gender": 0, "id": 1608525, "name": "Gerald Hurd", "order": 9, "profile_path": null}, {"cast_id": 15, "character": "Jesse", "credit_id": "5717f866c3a3680160001ceb", "gender": 0, "id": 1608526, "name": "Bill Chap", "order": 10, "profile_path": null}, {"cast_id": 16, "character": "Old Doctor", "credit_id": "5717f8749251411f5600048c", "gender": 0, "id": 85773, "name": "Byrd Holland", "order": 11, "profile_path": null}, {"cast_id": 19, "character": "Swamp Woman (as Ann Myers)", "credit_id": "59cecc3bc3a3681e97005e2e", "gender": 1, "id": 549413, "name": "Ann Perry", "order": 12, "profile_path": null}], "crew": [{"credit_id": "5717f772925141276f001d36", "department": "Writing", "gender": 0, "id": 1608520, "job": "Story", "name": "Jack Vaughn", "profile_path": null}, {"credit_id": "5717f74b9251417a22007a4f", "department": "Directing", "gender": 2, "id": 44750, "job": "Director", "name": "Donald A. Davis", "profile_path": null}, {"credit_id": "5717f792c3a3680160001cd4", "department": "Production", "gender": 2, "id": 44750, "job": "Producer", "name": "Donald A. Davis", "profile_path": null}, {"credit_id": "5717f7639251412b37001c81", "department": "Writing", "gender": 0, "id": 1608519, "job": "Screenplay", "name": "Jay Kulp", "profile_path": null}, {"credit_id": "5717f7bb925141282f001e47", "department": "Sound", "gender": 2, "id": 74810, "job": "Music", "name": "Douglas M. Lackey", "profile_path": null}, {"credit_id": "5717f7abc3a3686c83002231", "department": "Camera", "gender": 0, "id": 1608519, "job": "Director of Photography", "name": "Jay Kulp", "profile_path": null}, {"credit_id": "59cecc66c3a3681ddf0054e0", "department": "Production", "gender": 1, "id": 549413, "job": "Assistant Production Manager", "name": "Ann Perry", "profile_path": null}, {"credit_id": "59cecc7ac3a3681e37005f49", "department": "Production", "gender": 2, "id": 100350, "job": "Location Manager", "name": "Don Nagel", "profile_path": null}, {"credit_id": "59cecc89c3a3681e97005eb1", "department": "Crew", "gender": 2, "id": 97714, "job": "Second Unit Cinematographer", "name": "Henning Schellerup", "profile_path": null}]}}