{"adult": false, "backdrop_path": "/2UHVqJ2hxv8OEOAJxDO6WwFqhgy.jpg", "belongs_to_collection": null, "budget": 0, "genres": [{"id": 27, "name": "Horror"}, {"id": 53, "name": "Thriller"}], "homepage": null, "id": 509901, "imdb_id": "tt3968004", "original_language": "en", "original_title": "Deadly Reunion", "overview": "Ten years after graduation, a mini-reunion is organized by Tom and Jill Miller at their home, inviting only the special friends that were in their clique and one fringe member, Bobby Zwick, whom they had done a terrible wrong. Bobby said all was forgiven, but he was not telling the truth.", "popularity": 4.614, "poster_path": "/hWr94UJnO25bA3AU2IYxbYNoHVU.jpg", "production_companies": [], "production_countries": [], "release_date": "2019-05-21", "revenue": 0, "runtime": null, "spoken_languages": [], "status": "Released", "tagline": "Ingredients for The Perfect Reunion: Love, Memories, MURDER.", "title": "Deadly Reunion", "video": false, "vote_average": 4.0, "vote_count": 1, "keywords": {"keywords": [{"id": 9824, "name": "reunion"}, {"id": 163180, "name": "old friends"}, {"id": 191045, "name": "revenge killing"}]}, "similar": {"page": 1, "results": [{"adult": false, "backdrop_path": "/utghtkDDOhwEDS7r9hhRhn7Wneg.jpg", "genre_ids": [53, 878], "id": 220289, "original_language": "en", "original_title": "Coherence", "overview": "On the night of an astronomical anomaly, eight friends at a dinner party experience a troubling chain of reality bending events.", "poster_path": "/8OIsK5Mlkieeqf5ejZOKFiyH5mM.jpg", "release_date": "2013-09-19", "title": "Coherence", "video": false, "vote_average": 7.3, "vote_count": 1392, "popularity": 14.42}, {"id": 529962, "video": false, "vote_count": 592, "vote_average": 6.5, "title": "The Perfection", "release_date": "2018-09-20", "original_language": "en", "original_title": "The Perfection", "genre_ids": [27, 53], "backdrop_path": "/99LvuMDXJ6A6I7FW61OvjDjvvAx.jpg", "adult": false, "overview": "When troubled musical prodigy Charlotte seeks out Elizabeth, the new star pupil of her former school, the encounter sends both musicians down a sinister path with shocking consequences.", "poster_path": "/tPDe68PDsgIGMs6wdJLtcwVVxA7.jpg", "popularity": 16.559}, {"id": 431580, "video": false, "vote_count": 409, "vote_average": 7.0, "title": "Abominable", "release_date": "2019-09-19", "original_language": "en", "original_title": "Abominable", "genre_ids": [12, 16, 35, 10751], "backdrop_path": "/tLCDKsXo6D84IVFanoElosSEKdp.jpg", "adult": false, "overview": "A group of misfits encounter a young Yeti named Everest, and they set off to reunite the magical creature with his family on the mountain of his namesake.", "poster_path": "/20djTLqppfBx5WYA67Y300S6aPD.jpg", "popularity": 33.12}, {"adult": false, "backdrop_path": "/t4DO37tO3mhMX4DCdnI1EPsRi26.jpg", "genre_ids": [80, 18, 9648], "id": 3580, "original_language": "en", "original_title": "Changeling", "overview": "Christine Collins is overjoyed when her kidnapped son is brought back home. But when Christine suspects that the boy returned to her isn't her child, the police captain has her committed to an asylum.", "poster_path": "/qtte2n6ygA1zVG5kLrjUGui28TJ.jpg", "release_date": "2008-01-30", "title": "Changeling", "video": false, "vote_average": 7.5, "vote_count": 2322, "popularity": 19.918}, {"adult": false, "backdrop_path": "/8YQNMRm5gPAtdj5CTqYjfbRI4Zw.jpg", "genre_ids": [35, 18], "id": 542830, "original_language": "fr", "original_title": "Nous finirons ensemble", "overview": "The result of the small handkerchiefs \"Petits mouchoirs\", 7 years later. The band, which erupted, is found on the occasion of the anniversary surprise organized for Max.", "poster_path": "/fzUvcARz82u9ZL1MIQPJXhSwBhB.jpg", "release_date": "2019-05-01", "title": "Little White Lies 2", "video": false, "vote_average": 7.0, "vote_count": 325, "popularity": 10.62}, {"id": 1273, "video": false, "vote_count": 614, "vote_average": 5.9, "title": "TMNT", "release_date": "2007-03-23", "original_language": "en", "original_title": "TMNT", "genre_ids": [12, 16, 35, 10751], "backdrop_path": "/cTjQ1Lqipf3wLnWUHogqHQFIdb9.jpg", "adult": false, "overview": "After the defeat of their old arch nemesis, The Shredder, the Turtles have grown apart as a family. Struggling to keep them together, their rat sensei, Splinter, becomes worried when strange things begin to brew in New York City.", "poster_path": "/4hGzZ2DAjdu6IjHT7dGfiVatHEu.jpg", "popularity": 15.988}, {"adult": false, "backdrop_path": "/mEEJC1tHmxJZ49L0Gc7jsFlvQXJ.jpg", "genre_ids": [37], "id": 11577, "original_language": "en", "original_title": "Pat Garrett & Billy the Kid", "overview": "An aging Pat Garrett is hired as a lawman on behalf of a group of wealthy New Mexico cattle barons--his sole purpose being to bring down his old friend Billy the Kid.", "poster_path": "/b2T0hxFReZa1KQCaw7RGhOyukOW.jpg", "release_date": "1973-05-23", "title": "Pat Garrett & Billy the Kid", "video": false, "vote_average": 7.2, "vote_count": 160, "popularity": 11.022}, {"id": 11520, "video": false, "vote_count": 325, "vote_average": 6.7, "title": "Grumpy Old Men", "release_date": "1993-12-25", "original_language": "en", "original_title": "Grumpy Old Men", "genre_ids": [35], "backdrop_path": "/fU4WEpG851JEpYXO3JGIr7iVf85.jpg", "adult": false, "overview": "For decades, next-door neighbors and former friends John and Max have feuded, trading insults and wicked pranks. When an attractive widow moves in nearby, their bad blood erupts into a high-stakes rivalry full of naughty jokes and adolescent hijinks. Will this love triangle destroy the two old grumps? Or will the geriatric odd couple overcome their differences and rediscover their friendship?", "poster_path": "/5iXz6IkAwxMJSy2LQgQzjGdrkba.jpg", "popularity": 10.536}, {"adult": false, "backdrop_path": "/zBB1mzmqnUuSrlTuf0SFFlI1EoJ.jpg", "genre_ids": [18], "id": 244772, "original_language": "en", "original_title": "The Skeleton Twins", "overview": "Estranged twins Maggie and Milo coincidentally cheat death on the same day, prompting them to reunite and confront the reasons their lives went so wrong. As the twins' reunion reinvigorates them, they realize the key to fixing their lives may just lie in repairing their relationship.", "poster_path": "/vvmv1R2jDXJeeeyYcGg0ypXc2XK.jpg", "release_date": "2014-09-12", "title": "The Skeleton Twins", "video": false, "vote_average": 6.7, "vote_count": 416, "popularity": 10.481}, {"adult": false, "backdrop_path": "/m1lpJfCDts8zSXLh60EXJB4wSz3.jpg", "genre_ids": [28, 35, 53, 10749], "id": 9434, "original_language": "en", "original_title": "Grosse Pointe Blank", "overview": "Martin Blank is a freelance hitman who starts to develop a conscience, which causes him to botch a couple of routine assignments. On the advice of his secretary and his psychiatrist, he decides to attend his 10 year high school reunion in Grosse Pointe, Michigan.", "poster_path": "/3qn4gjft8dl5syUDpmPvWqCPFAf.jpg", "release_date": "1997-04-11", "title": "Grosse Pointe Blank", "video": false, "vote_average": 7.0, "vote_count": 468, "popularity": 13.775}, {"id": 67392, "video": false, "vote_count": 9, "vote_average": 5.4, "title": "Angel III: The Final Chapter", "release_date": "1988-11-10", "original_language": "en", "original_title": "Angel III: The Final Chapter", "genre_ids": [28, 53], "backdrop_path": "/j4H7lcaHocopOV39X1ZXI8SXhDh.jpg", "adult": false, "overview": "Molly is now a freelance photographer in New York. She runs across a woman at an art show that looks familiar. She goes to L.A. to find out that this woman is in fact, her mother. She also finds out she has a sister. The reunion is short-lived when her mother calls her to tell her that her sister is in danger and later, gets killed in an explosion. Molly must once again, become Angel to try and find her sister.", "poster_path": "/mLYZabSXZpjouk2Ows3hvOLLoKe.jpg", "popularity": 4.67}, {"id": 310593, "video": false, "vote_count": 1230, "vote_average": 6.9, "title": "Youth", "release_date": "2015-05-20", "original_language": "it", "original_title": "Youth", "genre_ids": [35, 18], "backdrop_path": "/2IBIAiLuzrLgzohCebd6oQVBYe7.jpg", "adult": false, "overview": "YOUTH explores the lifelong bond between two friends vacationing in a luxury Swiss Alps lodge as they ponder retirement. While Fred has no plans to resume his musical career despite the urging of his loving daughter Lena, Mick is intent on finishing the screenplay for what may be his last important film for his muse Brenda. And where will inspiration lead their younger friend Jimmy, an actor grasping to make sense of his next performance?", "poster_path": "/9vFNTKVhFDAMrAGOVmPBMT9XDee.jpg", "popularity": 9.935}, {"id": 9819, "video": false, "vote_count": 296, "vote_average": 6.7, "title": "Marvin's Room", "release_date": "1996-12-18", "original_language": "en", "original_title": "Marvin's Room", "genre_ids": [18], "backdrop_path": "/dXGjxSaKV02s1It9i0IF7HhVQ8l.jpg", "adult": false, "overview": "A leukemia patient attempts to end a 20-year feud with her sister to get her bone marrow.", "poster_path": "/lTHq1K5Y6EDRjxTBvReXHY6AKQ3.jpg", "popularity": 9.368}, {"id": 10757, "video": false, "vote_count": 220, "vote_average": 7.7, "title": "Kabhi Khushi Kabhie Gham", "release_date": "2001-12-14", "original_language": "hi", "original_title": "\u0915\u092d\u0940 \u0916\u093c\u0941\u0936\u0940 \u0915\u092d\u0940 \u0917\u093c\u092e", "genre_ids": [35, 18], "backdrop_path": "/mwTIMcVJFeSvREIM4nPIao67d0R.jpg", "adult": false, "overview": "Rahul, the adoptive son of business magnate Yash Raichand, feels eternal gratitude to his father for rescuing him from a life of poverty. Yet, when Yash forbids his love of poor Anjali, Rahul marries her and moves to London with new wife and sister-in-law, breaking the heart of his mother. Ten years later, Rahul's younger brother comes to London intent on brokering peace between father and son.", "poster_path": "/ioW5i4R4FEm3QT9yd0aBxJDJi6T.jpg", "popularity": 9.083}, {"adult": false, "backdrop_path": "/9jAQTw2uLxx5L5oFTiV6TrYQzzi.jpg", "genre_ids": [27], "id": 115210, "original_language": "en", "original_title": "Stitches", "overview": "The clumsy and unfunny clown Richard \"Stitches\" Grindle entertains at the 10th birthday party of little Tom, but the boy and his friends play a prank with Stitches, tying his shoelaces. Stitches slips, falls and dies. Six years later, Tom gives a birthday party for his friends at home, but Stitches revives to haunt the teenagers and revenge his death.", "poster_path": "/pLpKEqVkristz626uirMXmxkVGe.jpg", "release_date": "2012-05-19", "title": "Stitches", "video": false, "vote_average": 5.7, "vote_count": 153, "popularity": 7.178}, {"id": 22171, "video": false, "vote_count": 127, "vote_average": 6.6, "title": "Ms .45", "release_date": "1981-04-24", "original_language": "en", "original_title": "Ms .45", "genre_ids": [80, 18, 27, 53], "backdrop_path": "/tAKtdu7GSDeexyQzWG3YSOBD2t9.jpg", "adult": false, "overview": "A shy and mute seamstress goes insane after being attacked and raped twice in one day. She wanders the New York streets at night in a sexy black dress with her attacker's gun strapped to her garter belt, blowing away any man who tries to pick her up.", "poster_path": "/y2svLBTp724nJMKOdovXXtIJTNj.jpg", "popularity": 8.078}, {"id": 30943, "video": false, "vote_count": 119, "vote_average": 6.2, "title": "The Deep End of the Ocean", "release_date": "1999-03-12", "original_language": "en", "original_title": "The Deep End of the Ocean", "genre_ids": [18, 9648], "backdrop_path": "/7o7glW9lssAvPFM8dS5fZYJnL3Q.jpg", "adult": false, "overview": "Michelle Pfeiffer is ferocious in the role of a desperate mother whose 3-year-old son disappears during her high school reunion. Nine years later, by chance, he turns up in the town in which the family has just relocated. Based on Jacquelyn Mitchard's best-selling novel (an Oprah book club selection), the movie effectively presents the troubling dynamics that exist between family members who've suffered such an unsettling loss.", "poster_path": "/iUBMUUqBMPRQ7fCOtCsmBaFBPCB.jpg", "popularity": 9.373}, {"adult": false, "backdrop_path": "/5iT4QTtcqk0aZ1S9aKICGKcwHaA.jpg", "genre_ids": [35, 18], "id": 58547, "original_language": "en", "original_title": "10 Years", "overview": "A group of friends reunite ten years after their high-school graduation.", "poster_path": "/kZq3Cq3Gh0HgW1ki5oFJwxR7Wn7.jpg", "release_date": "2011-09-12", "title": "10 Years", "video": false, "vote_average": 5.9, "vote_count": 332, "popularity": 7.8}, {"id": 11159, "video": false, "vote_count": 255, "vote_average": 7.6, "title": "Secrets & Lies", "release_date": "1996-05-24", "original_language": "en", "original_title": "Secrets & Lies", "genre_ids": [18], "backdrop_path": "/yjMyR5wwqDjSwG6CE3ty1PRJMSH.jpg", "adult": false, "overview": "A middle-aged London factory worker is shocked when the mixed-race daughter she gave up at birth decides to track her down. At first she denies she is her mother. All family members become emotional, as everyone's secrets are exposed.", "poster_path": "/8uinoRlLK1wh2l7l7P2PqnuxRiS.jpg", "popularity": 10.961}, {"id": 12560, "video": false, "vote_count": 269, "vote_average": 7.0, "title": "The Big Chill", "release_date": "1983-09-09", "original_language": "en", "original_title": "The Big Chill", "genre_ids": [35, 18], "backdrop_path": "/zLudKzsMPHZgrstEx7OLMSkzZnn.jpg", "adult": false, "overview": "A couple's marital troubles are put on hold while they host an unhappy reunion of former college pals gathered for the funeral of one of their own, a suicide victim named Alex. As the weekend unfolds, the friends catch up with each other, play the music of their youth, reminisce, smoke marijuana, and pair off with each other.", "poster_path": "/rU8kjMEL5Mn0EWm3gOShPHBEZ4l.jpg", "popularity": 10.192}], "total_pages": 8, "total_results": 143}, "recommendations": {"page": 1, "results": [], "total_pages": 1, "total_results": 0}, "credits": {"cast": [{"cast_id": 3, "character": "Stu Pembleton", "credit_id": "5aa01949925141580f0156a3", "gender": 0, "id": 226332, "name": "Trae Ireland", "order": 1, "profile_path": "/vVy6KLIclwTlKeR5ZbnK4xLiC0M.jpg"}, {"cast_id": 4, "character": "Tom Miller", "credit_id": "5aa01975c3a3680a13015cc2", "gender": 0, "id": 1525014, "name": "Baron Jay", "order": 2, "profile_path": "/dsYI4aUxeqx1RizSqmxIsXhruS8.jpg"}, {"cast_id": 5, "character": "Felitia Pembleton", "credit_id": "5aa019b10e0a2641dd0173cc", "gender": 0, "id": 1992438, "name": "La'Princess Jackson", "order": 3, "profile_path": null}, {"cast_id": 6, "character": "Bobby Zwick", "credit_id": "5aa019eb9251414bb600f65d", "gender": 0, "id": 1291916, "name": "Joe Karam", "order": 4, "profile_path": "/oSU6xBsRU3Xqy7kNABZBaYa9Y3c.jpg"}, {"cast_id": 7, "character": "Perry Hendricks", "credit_id": "5aa01a219251414bd300f809", "gender": 0, "id": 1992440, "name": "Daryl Keith Johnson", "order": 5, "profile_path": null}], "crew": [{"credit_id": "5aa018499251414bc400f030", "department": "Directing", "gender": 2, "id": 1211636, "job": "Director", "name": "James Cullen Bressack", "profile_path": "/1s89cGaLByNuIyEyZG7rmFmSv0J.jpg"}, {"credit_id": "5aa018b0c3a368152a01129f", "department": "Writing", "gender": 0, "id": 1690875, "job": "Writer", "name": "Christian Ackerman", "profile_path": null}, {"credit_id": "5aa01900c3a3680a0c015880", "department": "Writing", "gender": 0, "id": 1992437, "job": "Story", "name": "Willim B. Keller", "profile_path": null}]}}