{"adult": false, "backdrop_path": "/yJEJNpsrEt7nw4CD7gOYLXDQlLD.jpg", "belongs_to_collection": null, "budget": 0, "genres": [{"id": 18, "name": "Drama"}], "homepage": "http://faux.pt/film/raiva/en/index.html", "id": 510228, "imdb_id": "tt5553810", "original_language": "pt", "original_title": "Raiva", "overview": "Alentejo, Portugal, 1950. In a desolate region, where the wind seems to speak, where misery and hunger reign over poorest, a desperate man takes his revenge on those who caused his ruin during the darkest night, unable to get honestly the bread needed to feed his family in the daylight.", "popularity": 1.96, "poster_path": "/kqm6Oe4irs9ahyTYFOwinrNzetV.jpg", "production_companies": [{"id": 101883, "logo_path": null, "name": "Faux", "origin_country": ""}, {"id": 101884, "logo_path": null, "name": "Refinaria Filmes", "origin_country": "BR"}, {"id": 76921, "logo_path": "/gCUEfolhrKlX8QntF7RbIWop7Zc.png", "name": "Les Films d'Ici", "origin_country": "FR"}, {"id": 8492, "logo_path": null, "name": "Radiotelevis\u00e3o Portuguesa (RTP)", "origin_country": "PT"}], "production_countries": [{"iso_3166_1": "BR", "name": "Brazil"}, {"iso_3166_1": "FR", "name": "France"}, {"iso_3166_1": "PT", "name": "Portugal"}], "release_date": "2018-10-31", "revenue": 0, "runtime": 85, "spoken_languages": [{"iso_639_1": "pt", "name": "Portugu\u00eas"}, {"iso_639_1": "es", "name": "Espa\u00f1ol"}], "status": "Released", "tagline": "", "title": "Rage", "video": false, "vote_average": 7.3, "vote_count": 4, "keywords": {"keywords": [{"id": 324, "name": "portugal"}, {"id": 6212, "name": "smuggling"}, {"id": 10235, "name": "family relationships"}, {"id": 208611, "name": "1950s"}, {"id": 255834, "name": "rural life"}, {"id": 256288, "name": "portuguese countryside"}]}, "similar": {"page": 1, "results": [{"id": 398978, "video": false, "vote_count": 2192, "vote_average": 7.8, "title": "The Irishman", "release_date": "2019-11-01", "original_language": "en", "original_title": "The Irishman", "genre_ids": [80, 18, 36], "backdrop_path": "/iLLDiO4dbUfFEnRug8DuvFEl1NB.jpg", "adult": false, "overview": "Pennsylvania, 1956. Frank Sheeran, a war veteran of Irish origin who works as a truck driver, accidentally meets mobster Russell Bufalino. Once Frank becomes his trusted man, Bufalino sends him to Chicago with the task of helping Jimmy Hoffa, a powerful union leader related to organized crime, with whom Frank will maintain a close friendship for nearly twenty years.", "poster_path": "/mbm8k3GFhXS0ROd9AD1gqYbIFbM.jpg", "popularity": 71.608}, {"adult": false, "backdrop_path": "/urnGzQvP8fwWWGkn1k809KqIjbm.jpg", "genre_ids": [18], "id": 87093, "original_language": "en", "original_title": "Big Eyes", "overview": "The story of the awakening of painter, Margaret Keane, her phenomenal success in the 1950s, and the subsequent legal difficulties she had with her husband, who claimed credit for her works in the 1960s.", "poster_path": "/z2tqzprHojhgEGYKQepjU28oQg6.jpg", "release_date": "2014-12-24", "title": "Big Eyes", "video": false, "vote_average": 7.0, "vote_count": 2349, "popularity": 14.024}, {"id": 2604, "video": false, "vote_count": 844, "vote_average": 7.0, "title": "Born on the Fourth of July", "release_date": "1989-12-20", "original_language": "en", "original_title": "Born on the Fourth of July", "genre_ids": [18, 10752], "backdrop_path": "/t9MrNY0xM9U5JSe5vHN9z08UYty.jpg", "adult": false, "overview": "The biography of Ron Kovic. Paralyzed in the Vietnam war, he becomes an anti-war and pro-human rights political activist after feeling betrayed by the country he fought for.", "poster_path": "/iAUSzQNpxf9fX1EvhNbeguo6aVA.jpg", "popularity": 12.659}, {"adult": false, "backdrop_path": "/29DDoPM1qV6DqLUfNAY9jRhd7sR.jpg", "genre_ids": [10749, 18], "id": 43949, "original_language": "en", "original_title": "Flipped", "overview": "When Juli meets Bryce in the second grade, she knows it's true love. After spending six years trying to convince Bryce the same, she's ready to give up - until he starts to reconsider.", "poster_path": "/ndgk8EhgT6VxnscAaFV6SMewcQ6.jpg", "release_date": "2010-08-06", "title": "Flipped", "video": false, "vote_average": 7.4, "vote_count": 991, "popularity": 12.986}, {"id": 393457, "video": false, "vote_count": 1617, "vote_average": 6.8, "title": "Fences", "release_date": "2016-12-16", "original_language": "en", "original_title": "Fences", "genre_ids": [18], "backdrop_path": "/jNlCIAcheh0iOuL3kz9x1Wq9WLG.jpg", "adult": false, "overview": "In 1950s Pittsburgh, a frustrated African-American father struggles with the constraints of poverty, racism, and his own inner demons as he tries to raise a family.", "poster_path": "/yZFBqealET1TunuVvu4YzcM1orT.jpg", "popularity": 10.81}, {"id": 440298, "video": false, "vote_count": 712, "vote_average": 7.6, "title": "Cold War", "release_date": "2018-06-08", "original_language": "pl", "original_title": "Zimna wojna", "genre_ids": [18, 10402, 10749], "backdrop_path": "/n7vcKtvScHPJREEaLIuRk41mMot.jpg", "adult": false, "overview": "A man and a woman meet in the ruins of post-war Poland. With vastly different backgrounds and temperaments, they are fatally mismatched and yet drawn to each other.", "poster_path": "/6rbS8oPIgUMhQgIX8oGVTtlNgLR.jpg", "popularity": 12.591}, {"adult": false, "backdrop_path": "/uAjSPEyn2JZhw1TP75TJ43URRYf.jpg", "genre_ids": [18, 10749], "id": 5967, "original_language": "fr", "original_title": "Les parapluies de Cherbourg", "overview": "This simple romantic tragedy begins in 1957. Guy Foucher, a 20-year-old French auto mechanic, has fallen in love with 17-year-old Genevi\u00e8ve Emery, an employee in her widowed mother's chic but financially embattled umbrella shop. On the evening before Guy is to leave for a two-year tour of combat in Algeria, he and Genevi\u00e8ve make love. She becomes pregnant and must choose between waiting for Guy's return or accepting an offer of marriage from a wealthy diamond merchant.", "poster_path": "/ju5W8qvWfjXXGaR7wd9wSyuYXhS.jpg", "release_date": "1964-02-19", "title": "The Umbrellas of Cherbourg", "video": false, "vote_average": 7.6, "vote_count": 281, "popularity": 11.326}, {"adult": false, "backdrop_path": "/uBuMVTfwFKhSUOHM94tSFIZM4lm.jpg", "genre_ids": [35, 18], "id": 403, "original_language": "en", "original_title": "Driving Miss Daisy", "overview": "The story of an old Jewish widow named Daisy Werthan and her relationship with her black chauffeur Hoke. From an initial mere work relationship grew in 25 years a strong friendship between the two very different characters in a time when those types of relationships where shunned upon. Oscar winning tragic comedy with a star-studded cast and based on a play of the same name by Alfred Uhry.", "poster_path": "/iaCzvcY42HihFxQBTZCTKMpsI0P.jpg", "release_date": "1989-12-13", "title": "Driving Miss Daisy", "video": false, "vote_average": 7.3, "vote_count": 761, "popularity": 11.117}, {"id": 31439, "video": false, "vote_count": 105, "vote_average": 7.9, "title": "To Live", "release_date": "1994-05-26", "original_language": "zh", "original_title": "\u6d3b\u7740", "genre_ids": [18, 10749, 10752], "backdrop_path": "/peZyq9WQgTjTaWXV2gC0FcZomLN.jpg", "adult": false, "overview": "Fugui and Jiazhen endure tumultuous events in China as their personal fortunes move from wealthy landownership to peasantry.", "poster_path": "/kKZYobKNLPGoOt7p2pfTRggelgP.jpg", "popularity": 9.321}, {"id": 9549, "video": false, "vote_count": 449, "vote_average": 7.5, "title": "The Right Stuff", "release_date": "1983-10-20", "original_language": "en", "original_title": "The Right Stuff", "genre_ids": [18, 36], "backdrop_path": "/2ZPIAUctGFWgatWLGnFb2FPcvbo.jpg", "adult": false, "overview": "A chronicle of the original Mercury astronauts in the formation of America's space program: Alan Shepherd, the first American in space; Gus Grissom, the benighted astronaut for whom nothing works out as planned; John Glenn, the straight-arrow 'boy scout' of the bunch who was the first American to orbit the earth; and the remaining pilots: Deke Slayton, Scott Carpenter and Wally Schirra.", "poster_path": "/df1gdyE9S3DxmTfAeN3pNdSm64J.jpg", "popularity": 11.707}, {"id": 398, "video": false, "vote_count": 767, "vote_average": 7.1, "title": "Capote", "release_date": "2005-09-30", "original_language": "en", "original_title": "Capote", "genre_ids": [80, 18], "backdrop_path": "/95G8AMedQgqOhlqJGmKEU6B6Eqg.jpg", "adult": false, "overview": "A biopic of the writer, Truman Capote and his assignment for The New Yorker to write the non-fiction book, 'In Cold Blood'.", "poster_path": "/klbnGQ9OlFRzuLDtP9FSGkwepGp.jpg", "popularity": 9.866}, {"adult": false, "backdrop_path": "/14gO2STuh7qCPZkgvkp48GBrm1x.jpg", "genre_ids": [18], "id": 42984, "original_language": "ja", "original_title": "\u306b\u3063\u307d\u3093\u6606\u866b\u8a18", "overview": "A woman, Tome, is born to a lower class family in Japan in 1918. The title refers to an insect, repeating its mistakes, as in an infinite circle. Imamura, with this metaphor, introduces the life of Tome, who keeps trying to change her poor life.", "poster_path": "/jAhw4x0rVaReaVjm0vL8EZOCjUy.jpg", "release_date": "1963-11-16", "title": "The Insect Woman", "video": false, "vote_average": 7.5, "vote_count": 25, "popularity": 5.709}, {"id": 45999, "video": false, "vote_count": 28, "vote_average": 7.3, "title": "The Time to Live, the Time to Die", "release_date": "1985-08-03", "original_language": "zh", "original_title": "\u7ae5\u5e74\u5f80\u4e8b", "genre_ids": [18], "backdrop_path": "/6SO3WcfmoByOt0SBB7tOCmPtkVF.jpg", "adult": false, "overview": "The semi-autobiographical film on director Hou Hsiao-Hsien's childhood and adolescence, when he was growing up in Taiwan, living through the deaths of his father, mother and grandmother.", "poster_path": "/7yFSUy939rX5CncqieINpajnM3q.jpg", "popularity": 3.714}, {"id": 15677, "video": false, "vote_count": 66, "vote_average": 7.2, "title": "84 Charing Cross Road", "release_date": "1987-02-13", "original_language": "en", "original_title": "84 Charing Cross Road", "genre_ids": [18, 10749], "backdrop_path": "/4sFYD7ittxdLSCcF0VQXUJdfUf.jpg", "adult": false, "overview": "When a humorous script-reader in her New York apartment sees an ad in the Saturday Review of Literature for a bookstore in London that does mail order, she begins a very special correspondence and friendship with Frank Doel, the bookseller who works at Marks &amp; Co., 84 Charing Cross Road.", "poster_path": "/bvBX3PPbZ5tAjYlCoBm15IlOOr7.jpg", "popularity": 6.802}, {"id": 41799, "video": false, "vote_count": 48, "vote_average": 7.1, "title": "Distant Voices, Still Lives", "release_date": "1988-09-29", "original_language": "en", "original_title": "Distant Voices, Still Lives", "genre_ids": [18], "backdrop_path": "/qAzJDEGoCiS2ctCoFqFxx6p2Y33.jpg", "adult": false, "overview": "The second film in Terence Davies's autobiographical series (along with \"Trilogy\" and \"The Long Day Closes\") is an impressionistic view of a working-class family in 1940s and 1950s Liverpool, based on Davies's own family.  Through a series of exquisite tableaux Davies creates a deeply affecting photo album of a troubled family wrestling with the complexity of love.", "poster_path": "/yoWJVoZOqTba0ccfcNqQ2vR2GpV.jpg", "popularity": 4.636}, {"id": 42045, "video": false, "vote_count": 22, "vote_average": 6.8, "title": "Sweet Dreams", "release_date": "1985-10-02", "original_language": "en", "original_title": "Sweet Dreams", "genre_ids": [18, 10402, 10749], "backdrop_path": "/db0tQH4SYqK1XbksVRYV5khYkIa.jpg", "adult": false, "overview": "Lange stunningly portrays Patsy Cline, the velvet-voiced country singer who died in a tragic plane crash.", "poster_path": "/bguhQWpe69PivtZ2AyIYrHkFebW.jpg", "popularity": 6.269}, {"adult": false, "backdrop_path": "/cTmdfAOYo4pOGrib78qzTzCoPhK.jpg", "genre_ids": [35, 18], "id": 382486, "original_language": "en", "original_title": "\u6211\u4eec\u7684\u6545\u4e8b", "overview": "The story spans from 1965 to the early 1970s. Heavily pregnant Zhao Di, the unwanted second wife of an older man, was chased out by her husband's family and forced to return to her own family. She gave birth to a pair of twins, Shun Fatt and Su-mei. As Su-mei had two moles on her face, which was said to be bad luck, she decided to give her up due to the pressure of wanting to build a better life for the rest of her family. Her father, under the advice of a match-maker, married her off to a coffee shop owner Xiao Qie, but after his unfortunate death, she was chased out the door with five young children to look after. With Zhao Di's indomitable spirit, and with the help of her family, they went through adversities, witnessed the changes through the years, and accompanied every step of the nation`s growth in its early years.", "poster_path": "/wlyeQvzKSkvocgQHVdVfOEa8aGS.jpg", "release_date": "2016-02-04", "title": "Long Long Time Ago", "video": false, "vote_average": 7.2, "vote_count": 6, "popularity": 2.228}, {"adult": false, "backdrop_path": "/sVXxox4KoksT24LxAMmSClU4BPm.jpg", "genre_ids": [18], "id": 21887, "original_language": "en", "original_title": "The Great Santini", "overview": "As he approaches manhood, Ben Meechum struggles to win the approval of his demanding alpha male father, an aggressively competitive, but frustrated marine pilot.", "poster_path": "/hmQ28zCwiXWEYJ6AJneELQ6NaKe.jpg", "release_date": "1979-10-26", "title": "The Great Santini", "video": false, "vote_average": 6.9, "vote_count": 30, "popularity": 5.081}, {"adult": false, "backdrop_path": "/txGSAqZuHM1l2qFPZqvjUIr4POl.jpg", "genre_ids": [18], "id": 73132, "original_language": "de", "original_title": "Wer wenn nicht wir", "overview": "In the early 60s, Bernward Vesper and fellow university student Gudrun Ensslin begin a passionate love in the stifling atmosphere of provincial West Germany. Dedicated to the power of the written word, Bernward and Gudrun found a publishing house whose first publication is, paradoxically to many, a controversial past work of Bernward's ostracized father, an infamous Nazi author. Bernward defends his father's writing ability, even if he is haunted by his father's suspicious past.", "poster_path": "/1mulu3ug9aaLygCkXOlTdncQeRq.jpg", "release_date": "2011-03-10", "title": "If Not Us, Who?", "video": false, "vote_average": 6.0, "vote_count": 10, "popularity": 2.796}, {"adult": false, "backdrop_path": "/bTsulXaVpxfDE93OzgsaGNaqTe5.jpg", "genre_ids": [18], "id": 15474, "original_language": "en", "original_title": "Swimming Upstream", "overview": "A young man aspiring for recognition of his talents battles against his estranged father's sentiment towards him as the father deals with his own demons.", "poster_path": "/8ANUGOMcIx8xvWQW2nknZh3hKlA.jpg", "release_date": "2003-02-27", "title": "Swimming Upstream", "video": false, "vote_average": 6.8, "vote_count": 24, "popularity": 4.641}], "total_pages": 4, "total_results": 64}, "recommendations": {"page": 1, "results": [], "total_pages": 1, "total_results": 0}, "credits": {"cast": [{"cast_id": 7, "character": "Amanda Carrusca", "credit_id": "5aa161e3c3a368509e00b2fa", "gender": 1, "id": 937210, "name": "Isabel Ruth", "order": 0, "profile_path": "/jxNId9RQPbghP1Eo1TgvtaxRGoe.jpg"}, {"cast_id": 8, "character": "J\u00falia", "credit_id": "5aa161e7c3a368506700aebc", "gender": 1, "id": 213290, "name": "Leonor Silveira", "order": 1, "profile_path": "/uhxfvl4KFKA60KcapfHY68Q2Bay.jpg"}, {"cast_id": 37, "character": "Ant\u00f3nio Palma", "credit_id": "5d38f098e54d5d16dfdadb06", "gender": 0, "id": 2370583, "name": "Hugo Bentes", "order": 2, "profile_path": null}, {"cast_id": 38, "character": "Bento Palma", "credit_id": "5d38f25ae54d5d2f6adbf109", "gender": 0, "id": 2370584, "name": "Kaio C\u00e9sar", "order": 3, "profile_path": null}, {"cast_id": 6, "character": "Mariana Palma", "credit_id": "5aa161d9c3a368506000a891", "gender": 0, "id": 1993228, "name": "Rita Caba\u00e7o", "order": 4, "profile_path": null}, {"cast_id": 1, "character": "Jo\u00e3o", "credit_id": "5aa161b492514160f700a18a", "gender": 2, "id": 116597, "name": "Adriano Luz", "order": 5, "profile_path": "/xF7QIAlLaCBnUDVsjb4m26MVvvp.jpg"}, {"cast_id": 11, "character": "Mira", "credit_id": "5aa161fb92514160f900a4bc", "gender": 0, "id": 560280, "name": "Lia Gama", "order": 6, "profile_path": "/bcWFoMFzptFzdTUfsw3yILG1C0m.jpg"}, {"cast_id": 10, "character": "Elias Sobral", "credit_id": "5aa161f40e0a2644dd00a50a", "gender": 0, "id": 130715, "name": "Diogo D\u00f3ria", "order": 7, "profile_path": "/uEk1s9UVWR16n3D4oSJdSEGHou8.jpg"}, {"cast_id": 39, "character": "Diogo Sobral", "credit_id": "5d38f2b6b1f68d000fc2b7a4", "gender": 0, "id": 1625815, "name": "Dinis Gomes", "order": 8, "profile_path": null}, {"cast_id": 3, "character": "Lina Sobral", "credit_id": "5aa161c2c3a368506000a872", "gender": 1, "id": 130714, "name": "Catarina Wallenstein", "order": 9, "profile_path": "/fAfPt7IEaqUCnVSIo3TcvbgIVWr.jpg"}, {"cast_id": 40, "character": "Clara Sobral", "credit_id": "5d38f2e060c51d001388de68", "gender": 0, "id": 2370585, "name": "Mar\u00edlia Villaverde Cabral", "order": 10, "profile_path": null}, {"cast_id": 9, "character": "Sergeant Gil", "credit_id": "5aa161ee0e0a2644dd00a503", "gender": 0, "id": 234489, "name": "Jos\u00e9 Pinto", "order": 11, "profile_path": "/hAQJKkept1H7UKDqHajkpqqOmay.jpg"}, {"cast_id": 41, "character": "Corporal", "credit_id": "5d38f30fe54d5d2533d9f4e7", "gender": 0, "id": 2370586, "name": "Pedro Gabriel Marques", "order": 12, "profile_path": null}, {"cast_id": 0, "character": "Spanish Man", "credit_id": "5aa161af92514160f900a464", "gender": 2, "id": 16972, "name": "Sergi L\u00f3pez", "order": 13, "profile_path": "/dH5jWen7KE4N3QuNSpeGOVAdIOT.jpg"}, {"cast_id": 2, "character": "Camacho", "credit_id": "5aa161bd9251416105009495", "gender": 0, "id": 234486, "name": "Lu\u00eds Miguel Cintra", "order": 14, "profile_path": "/bVv9Hgy62EhGWsuFAf4kc7zQ417.jpg"}, {"cast_id": 13, "character": "Galrito", "credit_id": "5aa16212c3a368509e00b342", "gender": 0, "id": 1462033, "name": "Chico Chapas", "order": 15, "profile_path": null}, {"cast_id": 12, "character": "Corona", "credit_id": "5aa162030e0a2644ed00a28b", "gender": 0, "id": 1195279, "name": "Jo\u00e3o Pedro B\u00e9nard", "order": 16, "profile_path": "/vJYSRGum3N3iSyHuaauwAOxvklM.jpg"}, {"cast_id": 42, "character": "Smuggler", "credit_id": "5d38f34060c51d6c6a80b3bb", "gender": 0, "id": 1189142, "name": "Am\u00e9rico Silva", "order": 17, "profile_path": null}, {"cast_id": 5, "character": "Priest", "credit_id": "5aa161ce92514160f2009ea4", "gender": 0, "id": 1292458, "name": "Herman Jos\u00e9", "order": 18, "profile_path": "/8XFxFsGEt2ccXhrzvtWnzbLvv67.jpg"}, {"cast_id": 4, "character": "Commander", "credit_id": "5aa161cac3a368508d00991b", "gender": 2, "id": 628253, "name": "Rog\u00e9rio Samora", "order": 19, "profile_path": "/aXtlrZNMvaSfRpg4qYk0JfRoUa9.jpg"}, {"cast_id": 43, "character": "", "credit_id": "5d38f37ae54d5d018edc8848", "gender": 0, "id": 1186048, "name": "Catarina Santos", "order": 20, "profile_path": null}], "crew": [{"credit_id": "5d39163260c51d6c6a812b41", "department": "Sound", "gender": 0, "id": 10054, "job": "Sound Mixer", "name": "Bruno Tarri\u00e8re", "profile_path": null}, {"credit_id": "5aa162610e0a2644da00aa73", "department": "Production", "gender": 0, "id": 41793, "job": "Producer", "name": "Serge Lalou", "profile_path": null}, {"credit_id": "5aa16259c3a3685063009c41", "department": "Production", "gender": 0, "id": 54319, "job": "Producer", "name": "Claire Dornoy", "profile_path": null}, {"credit_id": "5aa1627f0e0a2644da00aa89", "department": "Editing", "gender": 1, "id": 1013608, "job": "Editor", "name": "Karen Harley", "profile_path": null}, {"credit_id": "5d3917d7e54d5d2533da6317", "department": "Writing", "gender": 2, "id": 1045479, "job": "Screenplay", "name": "S\u00e9rgio Tr\u00e9faut", "profile_path": null}, {"credit_id": "5aa162240e0a2644e100ad31", "department": "Directing", "gender": 2, "id": 1045479, "job": "Director", "name": "S\u00e9rgio Tr\u00e9faut", "profile_path": null}, {"credit_id": "5aa1626a0e0a2644e900bd48", "department": "Production", "gender": 2, "id": 1045479, "job": "Producer", "name": "S\u00e9rgio Tr\u00e9faut", "profile_path": null}, {"credit_id": "5c7566b4c3a3684825d387bf", "department": "Camera", "gender": 2, "id": 1112003, "job": "Director of Photography", "name": "Ac\u00e1cio de Almeida", "profile_path": "/yB1mU5Sj7CYKOtXTstMQ8MwWMx8.jpg"}, {"credit_id": "5d39171160c51d6c6a81303a", "department": "Costume & Make-Up", "gender": 0, "id": 1112006, "job": "Makeup Department Head", "name": "Emmanuelle F\u00e8vre", "profile_path": null}, {"credit_id": "5aa16246c3a368507e0097c2", "department": "Production", "gender": 2, "id": 1159096, "job": "Producer", "name": "Jos\u00e9 Barahona", "profile_path": null}, {"credit_id": "5d39160760c51d6d0c8127ef", "department": "Sound", "gender": 0, "id": 1183164, "job": "Sound Editor", "name": "Tiago Matos", "profile_path": null}, {"credit_id": "5d3915e6e54d5d2f6adc7354", "department": "Sound", "gender": 0, "id": 1342931, "job": "Sound Designer", "name": "Waldir Xavier", "profile_path": null}, {"credit_id": "5d3918a8ab684969a58495ac", "department": "Production", "gender": 0, "id": 1364374, "job": "Producer", "name": "Mar\u00edlia Albornoz", "profile_path": null}, {"credit_id": "5d39156eab68496bf78486ac", "department": "Editing", "gender": 0, "id": 1367207, "job": "Additional Editor", "name": "Paulo MilHomens", "profile_path": null}, {"credit_id": "5aa1625092514160fc00a02e", "department": "Production", "gender": 0, "id": 1527627, "job": "Producer", "name": "Carolina Dias", "profile_path": null}, {"credit_id": "5d39175160c51d0012893cb8", "department": "Production", "gender": 0, "id": 1527627, "job": "Production Director", "name": "Carolina Dias", "profile_path": null}, {"credit_id": "5d3916db60c51d6d0c8129aa", "department": "Costume & Make-Up", "gender": 1, "id": 1529830, "job": "Wardrobe Supervisor", "name": "Patr\u00edcia D\u00f3ria", "profile_path": null}, {"credit_id": "5d3914b5e54d5d018edcf03a", "department": "Directing", "gender": 0, "id": 1532360, "job": "Second Assistant Director", "name": "M\u00e1rcio Laranjeira", "profile_path": null}, {"credit_id": "5d391557e54d5d2f6adc7218", "department": "Editing", "gender": 0, "id": 1553300, "job": "Additional Editor", "name": "Gon\u00e7alo Soares", "profile_path": null}, {"credit_id": "5ac4d47d92514126b004b0de", "department": "Writing", "gender": 0, "id": 1579087, "job": "Novel", "name": "Manuel da Fonseca", "profile_path": null}, {"credit_id": "5aa162c7c3a368508d009a06", "department": "Sound", "gender": 0, "id": 1593837, "job": "Sound Editor", "name": "\u00c8ve Corr\u00eaa-Guedes", "profile_path": null}, {"credit_id": "5d391d37e54d5d4654dcc710", "department": "Writing", "gender": 0, "id": 1764783, "job": "Screenplay", "name": "F\u00e1tima Ribeiro", "profile_path": null}, {"credit_id": "5d39149be54d5d2f6adc702e", "department": "Directing", "gender": 0, "id": 1798648, "job": "First Assistant Director", "name": "\u00c2ngela Sequeira", "profile_path": null}, {"credit_id": "5d391878e54d5d2f6adc7a34", "department": "Sound", "gender": 0, "id": 1865184, "job": "Sound Engineer", "name": "Olivier Blanc", "profile_path": null}, {"credit_id": "5d39176be54d5d2533da6239", "department": "Production", "gender": 0, "id": 1982422, "job": "Production Director", "name": "Martin Bertier", "profile_path": null}, {"credit_id": "5aa16295c3a368509e00b436", "department": "Art", "gender": 0, "id": 1993233, "job": "Set Decoration", "name": "Miguel Mendes", "profile_path": null}, {"credit_id": "5aa1629e92514160f2009f70", "department": "Art", "gender": 0, "id": 1993234, "job": "Set Decoration", "name": "Fabrice Ziegler", "profile_path": null}, {"credit_id": "5d3916c6e54d5d16dfdb56ed", "department": "Costume & Make-Up", "gender": 0, "id": 1993235, "job": "Wardrobe Supervisor", "name": "Lidija Kolovrat", "profile_path": null}]}}