{"adult": false, "backdrop_path": "/p3eEVf1Hj0n2QvnkRW8mEu8yQyr.jpg", "belongs_to_collection": null, "budget": 0, "genres": [{"id": 80, "name": "Crime"}, {"id": 9648, "name": "Mystery"}, {"id": 53, "name": "Thriller"}], "homepage": null, "id": 51130, "imdb_id": "tt0040671", "original_language": "en", "original_title": "Open Secret", "overview": "A couple discovers that their friend has gone missing. Their investigation leads them to believe that anti-semites are behind the disappearance.", "popularity": 2.424, "poster_path": "/65uEDeZT2JnPJa5ofbACUK6amOR.jpg", "production_companies": [{"id": 20249, "logo_path": null, "name": "Marathon Pictures", "origin_country": ""}, {"id": 45137, "logo_path": null, "name": "Harry Brandt Productions", "origin_country": ""}], "production_countries": [{"iso_3166_1": "US", "name": "United States of America"}], "release_date": "1948-02-14", "revenue": 0, "runtime": 68, "spoken_languages": [{"iso_639_1": "en", "name": "English"}], "status": "Released", "tagline": "The Pull-No-Punch drama of men chained together by hate!", "title": "Open Secret", "video": false, "vote_average": 7.0, "vote_count": 2, "keywords": {"keywords": [{"id": 195402, "name": "film noir"}]}, "similar": {"page": 1, "results": [{"id": 1939, "video": false, "vote_count": 363, "vote_average": 7.7, "title": "Laura", "release_date": "1944-10-11", "original_language": "en", "original_title": "Laura", "genre_ids": [18, 9648], "backdrop_path": "/rZJ20gFLsztneVJPRn2ockZO3uP.jpg", "adult": false, "overview": "A police detective falls in love with the woman whose murder he's investigating.", "poster_path": "/utpUn9TdBIx6x2QX91YhYzFZxg1.jpg", "popularity": 12.914}, {"adult": false, "backdrop_path": "/7RRuRcGuWkZGuRyYugfXn0Fgrrr.jpg", "genre_ids": [28, 80, 18, 53], "id": 949, "original_language": "en", "original_title": "Heat", "overview": "Obsessive master thief, Neil McCauley leads a top-notch crew on various daring heists throughout Los Angeles while determined detective, Vincent Hanna pursues him without rest. Each man recognizes and respects the ability and the dedication of the other even though they are aware their cat-and-mouse game may end in violence.", "poster_path": "/6pmLVffM9jEYK7VqDJqPblMxfEY.jpg", "release_date": "1995-12-15", "title": "Heat", "video": false, "vote_average": 7.8, "vote_count": 3615, "popularity": 21.973}, {"adult": false, "backdrop_path": "/khzRw7ZDE3NIrYpe0RYyB864FPT.jpg", "genre_ids": [80, 28, 53], "id": 189, "original_language": "en", "original_title": "Sin City: A Dame to Kill For", "overview": "Some of Sin City's most hard-boiled citizens cross paths with a few of its more reviled inhabitants.", "poster_path": "/k80qKrJ0qQ6ocVo5N932stNSg6j.jpg", "release_date": "2014-08-20", "title": "Sin City: A Dame to Kill For", "video": false, "vote_average": 6.3, "vote_count": 2422, "popularity": 25.256}, {"adult": false, "backdrop_path": "/tR1RXbnkSvZq0sgx0Gyh3GmgYoB.jpg", "genre_ids": [80, 18, 53], "id": 21734, "original_language": "en", "original_title": "Shadow of a Doubt", "overview": "A bored teen living in Santa Rosa, California, Charlotte \"Charlie\" Newton, is frustrated because nothing seems to be happening in her life and that of her family. Then, she receives wonderful news: her uncle (for whom she was named), Charlie Oakley, is arriving for a visit. But Uncle Charlie may not be the man he seems to be.", "poster_path": "/ptyWagbWE8jSGyV2tGEzAdVbRCj.jpg", "release_date": "1943-01-15", "title": "Shadow of a Doubt", "video": false, "vote_average": 7.7, "vote_count": 448, "popularity": 12.942}, {"adult": false, "backdrop_path": "/jRNqzZZwYIpiukkblMQ4G2Vc5p7.jpg", "genre_ids": [9648, 80, 53], "id": 963, "original_language": "en", "original_title": "The Maltese Falcon", "overview": "A private detective takes on a case that involves him with three eccentric criminals, a beautiful liar, and their quest for a priceless statuette.", "poster_path": "/jQilmbgbKtpbHM9hw9hgmqomJ9.jpg", "release_date": "1941-10-18", "title": "The Maltese Falcon", "video": false, "vote_average": 7.8, "vote_count": 840, "popularity": 16.587}, {"adult": false, "backdrop_path": "/1l77Gk2OK9hjRFze08El8Do3pT1.jpg", "genre_ids": [80, 9648, 53], "id": 996, "original_language": "en", "original_title": "Double Indemnity", "overview": "A rich woman and a calculating insurance agent plot to kill her unsuspecting husband after he signs a double indemnity policy.  Against a backdrop of distinctly Californian settings, the partners in crime plan the perfect murder to collect the insurance, which pays  double if the death is accidental.", "poster_path": "/nW0cCpfuGcR1JG7EinDbdL2Ijf2.jpg", "release_date": "1944-07-03", "title": "Double Indemnity", "video": false, "vote_average": 8.2, "vote_count": 858, "popularity": 14.326}, {"adult": false, "backdrop_path": "/n3mOfQBLMPGO3AO0L5pgkf2DaEF.jpg", "genre_ids": [80, 9648, 53], "id": 910, "original_language": "en", "original_title": "The Big Sleep", "overview": "Private Investigator Philip Marlowe is hired by wealthy General Sternwood regarding a matter involving his youngest daughter Carmen. Before the complex case is over, Marlowe sees murder, blackmail, deception, and what might be love.", "poster_path": "/ttUJSTKBdu1dR8d24FaoS4S1GFJ.jpg", "release_date": "1946-08-23", "title": "The Big Sleep", "video": false, "vote_average": 7.7, "vote_count": 507, "popularity": 12.425}, {"adult": false, "backdrop_path": "/ArT1HUDedndeJeT16pOrNiesorQ.jpg", "genre_ids": [80, 18, 9648], "id": 11929, "original_language": "en", "original_title": "Dolores Claiborne", "overview": "Dolores Claiborne was accused of killing her abusive husband twenty years ago, but the court's findings were inconclusive and she was allowed to walk free. Now she has been accused of killing her employer, Vera Donovan, and this time there is a witness who can place her at the scene of the crime. Things look bad for Dolores when her daughter Selena, a successful Manhattan magazine writer, returns to cover the story.", "poster_path": "/ewmVWV0TP8LTlYZ4OzCcguwC9d1.jpg", "release_date": "1995-03-24", "title": "Dolores Claiborne", "video": false, "vote_average": 7.2, "vote_count": 353, "popularity": 13.1}, {"adult": false, "backdrop_path": "/3TCPWrxQkfon82xPNtmpweOSVJc.jpg", "genre_ids": [18, 80, 9648, 10749, 53], "id": 12150, "original_language": "en", "original_title": "Sea of Love", "overview": "Seen-it-all New York detective Frank Keller is unsettled - he has done twenty years on the force and could retire, and he hasn't come to terms with his wife leaving him for a colleague. Joining up with an officer from another part of town to investigate a series of murders linked by the lonely hearts columns he finds he is getting seriously and possibly dangerously involved with Helen, one of the main suspects.", "poster_path": "/7DkkTHIX3hUqvsRv5sDmJAkCfKK.jpg", "release_date": "1989-09-15", "title": "Sea of Love", "video": false, "vote_average": 6.7, "vote_count": 290, "popularity": 10.636}, {"id": 678, "video": false, "vote_count": 234, "vote_average": 7.7, "title": "Out of the Past", "release_date": "1947-11-13", "original_language": "en", "original_title": "Out of the Past", "genre_ids": [9648, 53], "backdrop_path": "/7JFsV4qEQ6WVj3SJAC2ktnAyCMm.jpg", "adult": false, "overview": "Jeff Bailey seems to be a mundane gas station owner in remote Bridgeport, CA. He is dating local girl Ann Miller and lives a quiet life. But Jeff has a secret past, and when a mysterious stranger arrives in town, Jeff is forced to return to the dark world he had tried to escape.", "poster_path": "/6M1Qeuq0K5THG95S9nzvEIRHsyt.jpg", "popularity": 12.132}, {"id": 1847, "video": false, "vote_count": 259, "vote_average": 7.4, "title": "The Long Goodbye", "release_date": "1973-03-07", "original_language": "en", "original_title": "The Long Goodbye", "genre_ids": [80, 18, 9648, 53], "backdrop_path": "/brm75bRffmi2SlsUmsHUxUVI1Hg.jpg", "adult": false, "overview": "Detective Philip Marlowe tries to help a friend who is accused of murdering his wife.", "poster_path": "/oBhUK54yBJ0aH6u9zCzSV5iV7OP.jpg", "popularity": 9.602}, {"id": 1923, "video": false, "vote_count": 970, "vote_average": 7.3, "title": "Twin Peaks: Fire Walk with Me", "release_date": "1992-06-03", "original_language": "en", "original_title": "Twin Peaks: Fire Walk with Me", "genre_ids": [18, 9648], "backdrop_path": "/bGyusx5LtsTLbyAq0ow1DrdE7K6.jpg", "adult": false, "overview": "In the questionable town of Deer Meadow, Washington, FBI Agent Desmond inexplicably disappears while hunting for the man who murdered a teen girl. The killer is never apprehended, and, after experiencing dark visions and supernatural encounters, Agent Dale Cooper chillingly predicts that the culprit will claim another life. Meanwhile, in the more cozy town of Twin Peaks, hedonistic beauty Laura Palmer hangs with lowlifes and seems destined for a grisly fate.", "poster_path": "/tOQekTHJmVCgfUYXTb6dLAu6l8W.jpg", "popularity": 13.017}, {"adult": false, "backdrop_path": "/gF7v48JI9Vf6bBVU5aykiPtcCub.jpg", "genre_ids": [80, 9648, 53], "id": 14638, "original_language": "en", "original_title": "The Killers", "overview": "Two hit men walk into a diner asking for a man called \"the Swede\". When the killers find the Swede, he's expecting them and doesn't put up a fight. Since the Swede had a life insurance policy, an investigator, on a hunch, decides to look into the murder. As the Swede's past is laid bare, it comes to light that he was in love with a beautiful woman who may have lured him into pulling off a bank robbery overseen by another man.", "poster_path": "/uXnuc6pW01s1MDwb6QwBWg2JQeX.jpg", "release_date": "1946-08-28", "title": "The Killers", "video": false, "vote_average": 7.4, "vote_count": 167, "popularity": 11.012}, {"id": 521, "video": false, "vote_count": 1257, "vote_average": 8.0, "title": "Dial M for Murder", "release_date": "1954-05-29", "original_language": "en", "original_title": "Dial M for Murder", "genre_ids": [80, 18, 9648, 53], "backdrop_path": "/jVMlfESb0TJ29w8CUDDofEprMmn.jpg", "adult": false, "overview": "An ex-tennis pro carries out a plot to have his wife murdered after discovering she is having an affair, and assumes she will soon leave him for the other man anyway. When things go wrong, he improvises a new plan\u2014to frame her for murder instead.", "poster_path": "/xrpK1PyckNWmRxU4kZURfaCyboS.jpg", "popularity": 28.336}, {"id": 75780, "video": false, "vote_count": 4451, "vote_average": 6.4, "title": "Jack Reacher", "release_date": "2012-12-20", "original_language": "en", "original_title": "Jack Reacher", "genre_ids": [28, 80, 18, 53], "backdrop_path": "/ezXodpP429qK0Av89pVNlaXWJkQ.jpg", "adult": false, "overview": "When a gunman takes five lives with six shots, all evidence points to the suspect in custody. On interrogation, the suspect offers up a single note: \"Get Jack Reacher!\" So begins an extraordinary chase for the truth, pitting Jack Reacher against an unexpected enemy, with a skill for violence and a secret to keep.", "poster_path": "/mt0ELw83HIRgaKaDzhsDcIi0RnW.jpg", "popularity": 15.945}, {"adult": false, "backdrop_path": "/arcpWGGnUkGkakOwZo7xfPsaz7h.jpg", "genre_ids": [9648, 53], "id": 2832, "original_language": "en", "original_title": "Identity", "overview": "Complete strangers stranded at a remote desert motel during a raging storm soon find themselves the target of a deranged murderer. As their numbers thin out, the travelers begin to turn on each other, as each tries to figure out who the killer is.", "poster_path": "/xSNSp2wmCUwFavxdkMF417hBc39.jpg", "release_date": "2003-04-25", "title": "Identity", "video": false, "vote_average": 7.2, "vote_count": 2091, "popularity": 19.629}, {"adult": false, "backdrop_path": "/ojsY0XyCSsJvm0n7YTwumQcvBqT.jpg", "genre_ids": [9648, 53], "id": 1586, "original_language": "en", "original_title": "Secret Window", "overview": "Mort Rainey, a writer just emerging from a painful divorce with his ex-wife, is stalked at his remote lake house by a psychotic stranger and would-be scribe who claims Rainey swiped his best story idea. But as Rainey endeavors to prove his innocence, he begins to question his own sanity.", "poster_path": "/f5t7Df50xjniLlE80ty2dYsZBqI.jpg", "release_date": "2004-03-12", "title": "Secret Window", "video": false, "vote_average": 6.5, "vote_count": 2126, "popularity": 19.288}, {"adult": false, "backdrop_path": "/2J283YNxKhxAqHeVegUJ5mzLfGb.jpg", "genre_ids": [80, 18, 9648], "id": 392044, "original_language": "en", "original_title": "Murder on the Orient Express", "overview": "Genius Belgian detective Hercule Poirot investigates the murder of an American tycoon aboard the Orient Express train.", "poster_path": "/iBlfxlw8qwtUS0R8YjIU7JtM6LM.jpg", "release_date": "2017-11-03", "title": "Murder on the Orient Express", "video": false, "vote_average": 6.7, "vote_count": 6050, "popularity": 27.701}, {"adult": false, "backdrop_path": "/o4psXh7IVD6GFKvBSHjHLzjL2lV.jpg", "genre_ids": [27, 53], "id": 10781, "original_language": "en", "original_title": "The Texas Chainsaw Massacre: The Beginning", "overview": "Chrissie and her friends set out on a road trip for a final fling before one is shipped off to Vietnam. Along the way, bikers harass the foursome and cause an accident that throws Chrissie from the vehicle. The lawman who arrives on the scene kills one of the bikers and brings Chrissie's friends to the Hewitt homestead, where young Leatherface is learning the tools of terror.", "poster_path": "/9elCJIG1TOJ0wew3JVx5ZMkHq5w.jpg", "release_date": "2006-10-06", "title": "The Texas Chainsaw Massacre: The Beginning", "video": false, "vote_average": 6.0, "vote_count": 936, "popularity": 19.211}, {"adult": false, "backdrop_path": "/bRGtZsVj2Qq8r5CCsNYmQUPF4z4.jpg", "genre_ids": [80, 18, 878, 53], "id": 10559, "original_language": "en", "original_title": "Frequency", "overview": "When a rare phenomenon gives police officer John Sullivan the chance to speak to his father, 30 years in the past, he takes the opportunity to prevent his dad's tragic death.  After his actions inadvertently give rise to a series of brutal murders he and his father must find a way to fix the consequences of altering time.", "poster_path": "/n0QAAZmIaPPIShVkk8eiKwfGV9.jpg", "release_date": "2000-04-28", "title": "Frequency", "video": false, "vote_average": 7.1, "vote_count": 897, "popularity": 14.026}], "total_pages": 318, "total_results": 6346}, "recommendations": {"page": 1, "results": [], "total_pages": 1, "total_results": 0}, "credits": {"cast": [{"cast_id": 9, "character": "Paul Lester", "credit_id": "52fe47e2c3a36847f814d707", "gender": 2, "id": 14502, "name": "John Ireland", "order": 0, "profile_path": "/3l9eioLZ1LjQKts1CCqUrPCkJmw.jpg"}, {"cast_id": 10, "character": "Nancy Lester", "credit_id": "52fe47e2c3a36847f814d70b", "gender": 1, "id": 30114, "name": "Jane Randolph", "order": 1, "profile_path": "/5EN6xSvHUkgwwm4yIasnsFVVEHq.jpg"}, {"cast_id": 11, "character": "Detective Sgt. Mike Frontelli", "credit_id": "52fe47e2c3a36847f814d70f", "gender": 2, "id": 41750, "name": "Sheldon Leonard", "order": 2, "profile_path": "/tkz20WzQYKQDDOYkbFTsFVKmLWD.jpg"}, {"cast_id": 12, "character": "Roy Locke", "credit_id": "52fe47e2c3a36847f814d713", "gender": 2, "id": 95315, "name": "Roman Bohnen", "order": 3, "profile_path": "/hm1gjO3kqVX7cc1AgAU9NFzrvCO.jpg"}, {"cast_id": 13, "character": "Harry Strauss", "credit_id": "52fe47e2c3a36847f814d717", "gender": 2, "id": 34421, "name": "George Tyne", "order": 4, "profile_path": null}, {"cast_id": 14, "character": "Larry Mitchell", "credit_id": "52fe47e2c3a36847f814d71b", "gender": 2, "id": 4076, "name": "Morgan Farley", "order": 5, "profile_path": "/94yu6kY3TVj60OV7gUxTFvFUJDD.jpg"}, {"cast_id": 15, "character": "Mae Locke", "credit_id": "52fe47e2c3a36847f814d71f", "gender": 0, "id": 134819, "name": "Ellen Lowe", "order": 6, "profile_path": null}, {"cast_id": 16, "character": "Carter", "credit_id": "52fe47e2c3a36847f814d723", "gender": 2, "id": 857, "name": "Arthur O'Connell", "order": 7, "profile_path": "/rWoLpGwQlIZSiPIzJqE1yIMiDxr.jpg"}, {"cast_id": 17, "character": "Chuck Hill", "credit_id": "52fe47e2c3a36847f814d727", "gender": 0, "id": 95733, "name": "Rory Mallinson", "order": 8, "profile_path": "/rBcvcL6KNw6JK7gMXbgzGxt49K2.jpg"}, {"cast_id": 19, "character": "Ralph", "credit_id": "52fe47e2c3a36847f814d72b", "gender": 2, "id": 113704, "name": "John Alvin", "order": 10, "profile_path": "/2CSAGmnWFTRwK6jmY2wjSdHmnJl.jpg"}, {"cast_id": 20, "character": "Ed Stevens", "credit_id": "52fe47e2c3a36847f814d72f", "gender": 0, "id": 136376, "name": "Charles Waldron Jr.", "order": 11, "profile_path": null}, {"cast_id": 22, "character": "Fawnes, Bigot Gang Member", "credit_id": "52fe47e2c3a36847f814d733", "gender": 2, "id": 69811, "name": "King Donovan", "order": 13, "profile_path": "/mREKj50gHPnaoBgJ3e0m4mFbLGF.jpg"}, {"cast_id": 24, "character": "Bob, Man at bar (as Tom Noonan)", "credit_id": "52fe47e2c3a36847f814d737", "gender": 2, "id": 11170, "name": "Tommy Noonan", "order": 15, "profile_path": "/2brYO4Sye2btso3g4GciTgQB1WM.jpg"}], "crew": [{"credit_id": "52fe47e2c3a36847f814d6eb", "department": "Directing", "gender": 2, "id": 114396, "job": "Director", "name": "John Reinhardt", "profile_path": null}, {"credit_id": "52fe47e2c3a36847f814d6f1", "department": "Writing", "gender": 0, "id": 124850, "job": "Screenplay", "name": "Henry Blankfort", "profile_path": null}, {"credit_id": "52fe47e2c3a36847f814d6f7", "department": "Sound", "gender": 2, "id": 55694, "job": "Original Music Composer", "name": "Herschel Burke Gilbert", "profile_path": null}, {"credit_id": "52fe47e2c3a36847f814d6fd", "department": "Camera", "gender": 2, "id": 29635, "job": "Director of Photography", "name": "George Robinson", "profile_path": null}, {"credit_id": "52fe47e2c3a36847f814d703", "department": "Editing", "gender": 2, "id": 32125, "job": "Editor", "name": "Stanley Frazen", "profile_path": "/nErDliVc4h7mJ8CIAAK2xKwxAjk.jpg"}]}}