{"adult": false, "backdrop_path": "/c8atc5Lsepq2gjkAKaRGhn5Enhz.jpg", "belongs_to_collection": null, "budget": 0, "genres": [{"id": 18, "name": "Drama"}], "homepage": null, "id": 51145, "imdb_id": "tt0156096", "original_language": "en", "original_title": "Spring Forward", "overview": "As the seasons change in a Connecticut town, two men of different age and backgrounds who work together outdoors for the local park system, share thoughts and feelings that gradually deepen into a relationship approaching father and son. Paul is just out of prison for armed robbery, assigned to work with Murph, a middle-aged vet whose grown son Bobby is dying. Paul is trying to control his temper and build a spiritual side based on reading. Murph is a down-to-earth Sancho Panza to Paul's more ethereal ideas. And Murphy seems to need forgiveness for mistakes as a dad. As Murphy's retirement approaches and winter sets in, the men talk and love blossoms.", "popularity": 2.3, "poster_path": "/gcstu4J7zZr2NATn0U8AnXlQTw5.jpg", "production_companies": [{"id": 307, "logo_path": "/gUi3pAUznQJpR296lw4mSVbB7zx.png", "name": "IFC Films", "origin_country": "US"}], "production_countries": [], "release_date": "1999-09-01", "revenue": 0, "runtime": 110, "spoken_languages": [], "status": "Released", "tagline": "", "title": "Spring Forward", "video": false, "vote_average": 6.5, "vote_count": 6, "keywords": {"keywords": [{"id": 10183, "name": "independent film"}]}, "similar": {"page": 1, "results": [{"adult": false, "backdrop_path": "/kQyeXce1ozYryHichnEserMAByN.jpg", "genre_ids": [28, 80, 18, 53], "id": 11564, "original_language": "en", "original_title": "Class of 1984", "overview": "Andy is a new teacher at a inner city high school that is like nothing he has ever seen before. There is metal detectors at the front door and everything is basically run by a tough kid named Peter Stegman. Soon, Andy and Stegman become enemies and Stegman will stop at nothing to protect his turf and drug dealing business.", "poster_path": "/whDnqSYg4yYgVzbVhLSjzC5piUR.jpg", "release_date": "1982-08-20", "title": "Class of 1984", "video": false, "vote_average": 6.2, "vote_count": 121, "popularity": 9.407}, {"id": 949, "video": false, "vote_count": 3610, "vote_average": 7.8, "title": "Heat", "release_date": "1995-12-15", "original_language": "en", "original_title": "Heat", "genre_ids": [28, 80, 18, 53], "backdrop_path": "/7RRuRcGuWkZGuRyYugfXn0Fgrrr.jpg", "adult": false, "overview": "Obsessive master thief, Neil McCauley leads a top-notch crew on various daring heists throughout Los Angeles while determined detective, Vincent Hanna pursues him without rest. Each man recognizes and respects the ability and the dedication of the other even though they are aware their cat-and-mouse game may end in violence.", "poster_path": "/6pmLVffM9jEYK7VqDJqPblMxfEY.jpg", "popularity": 21.48}, {"adult": false, "backdrop_path": "/2Tawvc0JMmR9nBXD3nhBThTQP2X.jpg", "genre_ids": [53, 18, 80, 27], "id": 1359, "original_language": "en", "original_title": "American Psycho", "overview": "A wealthy New York investment banking executive hides his alternate psychopathic ego from his co-workers and friends as he escalates deeper into his illogical, gratuitous fantasies.", "poster_path": "/qXsylPM4Lr5397R3eHrfqHhTUNc.jpg", "release_date": "2000-04-13", "title": "American Psycho", "video": false, "vote_average": 7.4, "vote_count": 4911, "popularity": 20.069}, {"id": 101, "video": false, "vote_count": 8645, "vote_average": 8.3, "title": "L\u00e9on: The Professional", "release_date": "1994-09-14", "original_language": "en", "original_title": "L\u00e9on: The Professional", "genre_ids": [28, 80, 18], "backdrop_path": "/dXQ7HILRK1Tg33RT64JwbQI7Osh.jpg", "adult": false, "overview": "L\u00e9on, the top hit man in New York, has earned a rep as an effective \"cleaner\". But when his next-door neighbors are wiped out by a loose-cannon DEA agent, he becomes the unwilling custodian of 12-year-old Mathilda. Before long, Mathilda's thoughts turn to revenge, and she considers following in L\u00e9on's footsteps.", "poster_path": "/gE8S02QUOhVnAmYu4tcrBlMTujz.jpg", "popularity": 42.005}, {"id": 83542, "video": false, "vote_count": 4860, "vote_average": 6.8, "title": "Cloud Atlas", "release_date": "2012-10-26", "original_language": "en", "original_title": "Cloud Atlas", "genre_ids": [18, 878], "backdrop_path": "/2ZA03KiD4jePTNBTJjGGFTNQPMA.jpg", "adult": false, "overview": "A set of six nested stories spanning time between the 19th century and a distant post-apocalyptic future. Cloud Atlas explores how the actions and consequences of individual lives impact one another throughout the past, the present and the future. Action, mystery and romance weave through the story as one soul is shaped from a killer into a hero and a single act of kindness ripples across centuries to inspire a revolution in the distant future.  Based on the award winning novel by David Mitchell. Directed by Tom Tykwer and the Wachowskis.", "poster_path": "/8VNiyIp67ZxhpNgdrwACW0jgvP2.jpg", "popularity": 16.718}, {"adult": false, "backdrop_path": "/s12HEmmkJfI2mjltI61hGm5kubD.jpg", "genre_ids": [35, 18, 10749], "id": 20770, "original_language": "en", "original_title": "But I'm a Cheerleader", "overview": "Megan is an all-American girl. A cheerleader. She has a boyfriend. But Megan doesn't like kissing her boyfriend very much. And she's pretty touchy with her cheerleader friends. Her conservative parents worry that she must be a lesbian and send her off to \"sexual redirection\" school, where she must, with other lesbians and gays learn how to be straight.", "poster_path": "/eDGH7CHSdkrYcuUJV1e0WS9DlQL.jpg", "release_date": "1999-12-09", "title": "But I'm a Cheerleader", "video": false, "vote_average": 6.8, "vote_count": 246, "popularity": 10.067}, {"id": 4638, "video": false, "vote_count": 4426, "vote_average": 7.5, "title": "Hot Fuzz", "release_date": "2007-02-14", "original_language": "en", "original_title": "Hot Fuzz", "genre_ids": [28, 35, 80], "backdrop_path": "/zuskekrfW3gj9ttXNVhfdHe5n22.jpg", "adult": false, "overview": "As a former London constable, Nicholas Angel finds it difficult to adapt to his new assignment in the sleepy British village of Sandford. Not only does he miss the excitement of the big city, but he also has a well-meaning oaf for a partner. However, when a series of grisly accidents rocks Sandford, Angel smells something rotten in the idyllic village.", "poster_path": "/5Jx6s6VXnunh8wCLgR0YgjwSgjh.jpg", "popularity": 25.234}, {"id": 298312, "video": false, "vote_count": 2921, "vote_average": 6.2, "title": "The Visit", "release_date": "2015-09-10", "original_language": "en", "original_title": "The Visit", "genre_ids": [27, 9648, 53], "backdrop_path": "/gbJlEeALVGo7kx8bC2q4EFWX1Xy.jpg", "adult": false, "overview": "The terrifying story of a brother and sister who are sent to their grandparents' remote Pennsylvania farm for a weeklong trip. Once the children discover that the elderly couple is involved in something deeply disturbing, they see their chances of getting back home are growing smaller every day.", "poster_path": "/32tNtTEQ1vIOLm1hEOSFkVwJT5D.jpg", "popularity": 20.148}, {"adult": false, "backdrop_path": "/9e5e7dJTMxQeF7zNx0CiJmxXE1I.jpg", "genre_ids": [27, 878, 53], "id": 11309, "original_language": "en", "original_title": "Hardware", "overview": "Mark 13 is a government-built killing machine programmed with artificial intelligence, able to repair and recharge itself from any energy source. Through a series of coincidences, the cyborg's head ends up in the home of a sculptress as a bizarre Christmas present from her boyfriend. Once inside its new home, the cyborg promptly reconstructs the rest of its body using a variety of household utensils and proceeds to go on a murderous rampage.", "poster_path": "/nsFm5xniViTVr1oVUpKmgvlAOEA.jpg", "release_date": "1990-09-14", "title": "Hardware", "video": false, "vote_average": 5.7, "vote_count": 145, "popularity": 11.259}, {"id": 317744, "video": false, "vote_count": 244, "vote_average": 6.0, "title": "Careful What You Wish For", "release_date": "2015-05-06", "original_language": "en", "original_title": "Careful What You Wish For", "genre_ids": [18, 53], "backdrop_path": "/7PAQ85UXQ9IhZ5ZJIC1uC0h6PZK.jpg", "adult": false, "overview": "A guy gets more than he bargained for after entering into an affair with the wife of an investment banker. Soon, a suspicious death and substantial life insurance policy embroil him in a scandal.", "poster_path": "/hQCLtJaGcEWLp7zKECnC3cy8W4i.jpg", "popularity": 13.897}, {"adult": false, "backdrop_path": "/lcB6jRNms95ySvVTCaH8pdFJq4j.jpg", "genre_ids": [80, 18, 53], "id": 22323, "original_language": "en", "original_title": "The Boys Next Door", "overview": "Roy and Bo leave their small town the weekend after graduation for a short road trip to LA. Soon, they find themselves lashing out and leaving a trial of bodies behind them. The violence escalates throughout.", "poster_path": "/pnLU9z0fLIzIRa35ULIvlQAAwho.jpg", "release_date": "1985-10-01", "title": "The Boys Next Door", "video": false, "vote_average": 6.3, "vote_count": 28, "popularity": 5.945}, {"id": 185, "video": false, "vote_count": 7609, "vote_average": 8.2, "title": "A Clockwork Orange", "release_date": "1971-12-18", "original_language": "en", "original_title": "A Clockwork Orange", "genre_ids": [18, 878], "backdrop_path": "/unMc1jEyqCnzba976GviSFKGagt.jpg", "adult": false, "overview": "In a near-future Britain, young Alexander DeLarge and his pals get their kicks beating and raping anyone they please. When not destroying the lives of others, Alex swoons to the music of Beethoven. The state, eager to crack down on juvenile crime, gives an incarcerated Alex the option to undergo an invasive procedure that'll rob him of all personal agency. In a time when conscience is a commodity, can Alex change his tune?", "poster_path": "/4sHeTAp65WrSSuc05nRBKddhBxO.jpg", "popularity": 24.413}, {"adult": false, "backdrop_path": "/20IgqkdFw5kuItqDCJtidSESP0t.jpg", "genre_ids": [27, 18], "id": 10066, "original_language": "en", "original_title": "House of Wax", "overview": "A group of unwitting teens are stranded near a strange wax museum and soon must fight to survive and keep from becoming the next exhibit.", "poster_path": "/uM1RebQywM5PPYsauayefpXGxVk.jpg", "release_date": "2005-04-30", "title": "House of Wax", "video": false, "vote_average": 5.7, "vote_count": 1531, "popularity": 21.972}, {"adult": false, "backdrop_path": "/caLMOD3ZJ3V7qjlxDXrzlJfBLgD.jpg", "genre_ids": [18, 10749], "id": 20, "original_language": "en", "original_title": "My Life Without Me", "overview": "A Pedro Almodovar production in which a fatally ill mother with only two months to live creates a list of things she wants to do before she dies with out telling her family of her illness.", "poster_path": "/vVj92VBFUBzjqzLvBiPVVlJDp78.jpg", "release_date": "2003-03-07", "title": "My Life Without Me", "video": false, "vote_average": 6.1, "vote_count": 220, "popularity": 9.208}, {"id": 9813, "video": false, "vote_count": 128, "vote_average": 6.1, "title": "The Quiet", "release_date": "2005-09-12", "original_language": "en", "original_title": "The Quiet", "genre_ids": [18, 53], "backdrop_path": "/6eyWAZA4CEidZW1xXnQ4vlYBXTP.jpg", "adult": false, "overview": "After her widowed father dies, deaf teenager Dot moves in with her godparents, Olivia and Paul Deer. The Deers' daughter, Nina, is openly hostile to Dot, but that does not prevent her from telling her secrets to her silent stepsister, including the fact that she wants to kill her lecherous father.", "poster_path": "/GEqIE9YlmygHVUfS64LW2cwAAM.jpg", "popularity": 13.948}, {"adult": false, "backdrop_path": "/8nvayG5l0urcjvvpszoECDqLWzD.jpg", "genre_ids": [18, 53, 80, 9648], "id": 186, "original_language": "en", "original_title": "Lucky Number Slevin", "overview": "Slevin is mistakenly put in the middle of a personal war between the city\u2019s biggest criminal bosses. Under constant watch, Slevin must try not to get killed by an infamous assassin and come up with an idea of how to get out of his current dilemma. A film with many twists and turns.", "poster_path": "/jtKq0EtothAzWlnRBBWGCA8uFuu.jpg", "release_date": "2006-02-24", "title": "Lucky Number Slevin", "video": false, "vote_average": 7.5, "vote_count": 2480, "popularity": 17.523}, {"adult": false, "backdrop_path": "/kiWvoV78Cc3fUwkOHKzyBgVdrDD.jpg", "genre_ids": [37, 18, 12], "id": 281957, "original_language": "en", "original_title": "The Revenant", "overview": "In the 1820s, a frontiersman, Hugh Glass, sets out on a path of vengeance against those who left him for dead after a bear mauling.", "poster_path": "/oXUWEc5i3wYyFnL1Ycu8ppxxPvs.jpg", "release_date": "2015-12-25", "title": "The Revenant", "video": false, "vote_average": 7.5, "vote_count": 12122, "popularity": 30.491}, {"id": 453075, "video": false, "vote_count": 3, "vote_average": 7.0, "title": "One Summer Night", "release_date": "2017-04-06", "original_language": "ko", "original_title": "\uc5b4\ub290 \uc5ec\ub984\ub0a0 \ubc24\uc5d0", "genre_ids": [18], "backdrop_path": "/1oQcW3xi7IFbInWnhgG1Eir4RAL.jpg", "adult": false, "overview": "In the winter of 2013, Yong-jun and Jae-sung, a member of the Korean People\u2019s Army, Their sex scene is caught by the superior. After all, Yong-jun decided to defect from North Korea leaving Jae-sung.", "poster_path": "/bKdk8hNlsGYDPXPEPRKtUjcwiQx.jpg", "popularity": 7.868}, {"adult": false, "backdrop_path": "/rSf0RYkPiMo9TyjHs2vI8rHlmfF.jpg", "genre_ids": [28, 18, 53], "id": 241554, "original_language": "en", "original_title": "Run All Night", "overview": "Brooklyn mobster and prolific hit man Jimmy Conlon has seen better days. Longtime best friend of a mob boss, Jimmy is haunted by the sins of his past\u2014as well as a dogged police detective who\u2019s been one step behind Jimmy for 30 years. But when Jimmy\u2019s estranged son becomes a target, Jimmy must make a choice between the crime family he chose and the real family he abandoned long ago. Now, with nowhere safe to turn, Jimmy has just one night to figure out exactly where his loyalties lie and to see if he can finally make things right.", "poster_path": "/aqNJrAxudMRNo8jg3HOUQqdl2xr.jpg", "release_date": "2015-03-11", "title": "Run All Night", "video": false, "vote_average": 6.4, "vote_count": 1820, "popularity": 30.086}, {"id": 9693, "video": false, "vote_count": 4054, "vote_average": 7.6, "title": "Children of Men", "release_date": "2006-09-22", "original_language": "en", "original_title": "Children of Men", "genre_ids": [28, 18, 878, 53], "backdrop_path": "/c5jNuPA19oGiEmbh8iFeAi6aHMI.jpg", "adult": false, "overview": "In 2027, in a chaotic world in which humans can no longer procreate, a former activist agrees to help transport a miraculously pregnant woman to a sanctuary at sea, where her child's birth may help scientists save the future of humankind.", "poster_path": "/gZ6i32Da76EUxta06GL2BxpC4Cn.jpg", "popularity": 25.649}], "total_pages": 1097, "total_results": 21925}, "recommendations": {"page": 1, "results": [{"adult": false, "backdrop_path": "/mgIrUrlw9VMNqlsSE0eLAIGbmTW.jpg", "genre_ids": [35, 18, 10749], "id": 15104, "original_language": "en", "original_title": "Tortilla Soup", "overview": "A Mexican-American master chef and father to three daughters has lost his taste for food but not for life.", "poster_path": "/3HrCV6pQ6QXytxxmT45pVlaKWxA.jpg", "release_date": "2001-08-24", "title": "Tortilla Soup", "video": false, "vote_average": 6.0, "vote_count": 22, "popularity": 6.096}, {"adult": false, "backdrop_path": "/zEoZDTZEcqEpa16kZSoHPIxpELy.jpg", "genre_ids": [18, 35, 10749], "id": 25985, "original_language": "en", "original_title": "Jump Tomorrow", "overview": "When shy, straitlaced George (Tunde Adebimpe) meets vivacious, adorable Alicia (Natalia Verbeke), he's instantly smitten -- which puts his imminent arranged marriage in jeopardy. He vows to do the right thing, but then he falls in with Gerard (Hippolyte Girardot), a lovesick, voluble Frenchman who overcomes George's sense of propriety and takes him on a meandering road trip to amour.", "poster_path": "/8k7gR1scAI2onir2ygkizIgv1Gi.jpg", "release_date": "2001-11-09", "title": "Jump Tomorrow", "video": false, "vote_average": 6.6, "vote_count": 10, "popularity": 5.393}, {"adult": false, "backdrop_path": "/xMCL6xXpnWUjqGG1zpRGvnavisQ.jpg", "genre_ids": [99], "id": 2287, "original_language": "en", "original_title": "Rize", "overview": "A documentary film that highlights two street derived dance styles, Clowning and Krumping, that came out of the low income neighborhoods of L.A.. Director David LaChapelle interviews each dance crew about how their unique dances evolved. A new and positive activity away from the drugs, guns, and gangs that ruled their neighborhood. A raw film about a growing sub-culture movements in America.", "poster_path": "/cMbgHEmJSSuBsiXgSvaS2489JZe.jpg", "release_date": "2005-01-15", "title": "Rize", "video": false, "vote_average": 6.6, "vote_count": 22, "popularity": 5.673}, {"adult": false, "backdrop_path": "/21C7fIhKHK2FE77RrviEpH7P6As.jpg", "genre_ids": [99], "id": 77350, "original_language": "en", "original_title": "Unzipped", "overview": "Isaac Mizrahi, one of the most successful designers in high fashion, plans his fall 1994 collection.", "poster_path": "/dnIzv4rXr9FXkqW880E3rStYQA7.jpg", "release_date": "1995-08-11", "title": "Unzipped", "video": false, "vote_average": 5.8, "vote_count": 10, "popularity": 5.175}, {"adult": false, "backdrop_path": "/xdwCWhB2IY8Dm62YAs7GNhVoBtb.jpg", "genre_ids": [28, 12, 35], "id": 38140, "original_language": "en", "original_title": "Ladr\u00f3n que roba a ladr\u00f3n", "overview": "Emilio, a Colombian con man, arrives in LA with two weeks to complete his plan to rob a former colleague, Claudio Silvestrini, who's made a fortune using infomercials to peddle snake oil to Latin immigrants. Emilio's friend Alejandro, who sells pirated DVDs, has assembled a team of amateurs, who, as Alejandro says, will go unnoticed because they're immigrants. The team must gain entry to Silvestrini's well-guarded mansion, steal two keys to access a vault, and then get the money off the property. A father and his tomboy daughter, a nervous Cuban actor, a techie, and a muscle man make up the team, plus Alejandro has been courting Silvestrini's nanny. Will they be enough?", "poster_path": "/rRaPWVZFFrgu5ZNSXxbhV0UsR5H.jpg", "release_date": "2007-08-31", "title": "To Rob a Thief", "video": false, "vote_average": 6.6, "vote_count": 10, "popularity": 1.97}], "total_pages": 1, "total_results": 5}, "credits": {"cast": [{"cast_id": 1, "character": "Murph", "credit_id": "52fe47e3c3a36847f814da1b", "gender": 2, "id": 13726, "name": "Ned Beatty", "order": 0, "profile_path": "/aO5MtnqcZHpsVYz1nINdjqgEJUl.jpg"}, {"cast_id": 2, "character": "Paul", "credit_id": "52fe47e3c3a36847f814da1f", "gender": 2, "id": 23626, "name": "Liev Schreiber", "order": 1, "profile_path": "/nNU9ex3ENaESVU3XklVYn6O2ubB.jpg"}, {"cast_id": 4, "character": "Frederickson", "credit_id": "5898708a9251417a91009036", "gender": 2, "id": 55152, "name": "Campbell Scott", "order": 2, "profile_path": "/LpYIN2jh58sHaUFM2r3G4G0iE6.jpg"}, {"cast_id": 5, "character": "Fran", "credit_id": "589870989251417a8e0092fa", "gender": 2, "id": 10985, "name": "Ian Hart", "order": 3, "profile_path": "/tAsLBMEaRv3S7AefSQwd1JlO71H.jpg"}, {"cast_id": 6, "character": "Georgia", "credit_id": "589870a09251417a85008876", "gender": 1, "id": 21703, "name": "Peri Gilpin", "order": 4, "profile_path": "/qQMoD3QsVuVjS21hOO6Kx4XcC3B.jpg"}, {"cast_id": 8, "character": "Don Regan", "credit_id": "5a030559c3a368629601799b", "gender": 2, "id": 7576, "name": "Bill Raymond", "order": 5, "profile_path": "/9qUefRsvEzitR2j8CwtXYbddayE.jpg"}], "crew": [{"credit_id": "52fe47e3c3a36847f814da25", "department": "Directing", "gender": 2, "id": 88750, "job": "Director", "name": "Tom Gilroy", "profile_path": null}, {"credit_id": "589870bbc3a3687715008f13", "department": "Writing", "gender": 2, "id": 88750, "job": "Writer", "name": "Tom Gilroy", "profile_path": null}, {"credit_id": "5ab6ad5c925141395e00f9cf", "department": "Production", "gender": 2, "id": 23626, "job": "Associate Producer", "name": "Liev Schreiber", "profile_path": "/nNU9ex3ENaESVU3XklVYn6O2ubB.jpg"}, {"credit_id": "5d2a5f08be4b36756aa339a8", "department": "Editing", "gender": 2, "id": 17234, "job": "Editor", "name": "James Lyons", "profile_path": "/eYepgw281zZrf4OTOXdnMS8cabh.jpg"}]}}