{"adult": false, "backdrop_path": "/rYEpzaesJt7wfk1InOFn30op1yB.jpg", "belongs_to_collection": null, "budget": 0, "genres": [{"id": 35, "name": "Comedy"}], "homepage": "", "id": 51166, "imdb_id": "tt0051133", "original_language": "fr", "original_title": "Une parisienne", "overview": "The spoiled daughter of the French Ambassador tricks one of his aides into marrying her.", "popularity": 3.054, "poster_path": "/l9RMxVv8HJU9UugNR6zWXe5tPPh.jpg", "production_companies": [{"id": 7110, "logo_path": null, "name": "Les Films Ariane", "origin_country": "FR"}, {"id": 534, "logo_path": null, "name": "Filmsonor", "origin_country": "FR"}, {"id": 1129, "logo_path": null, "name": "Cinetel", "origin_country": "FR"}], "production_countries": [{"iso_3166_1": "FR", "name": "France"}, {"iso_3166_1": "IT", "name": "Italy"}], "release_date": "1957-12-16", "revenue": 0, "runtime": 86, "spoken_languages": [{"iso_639_1": "fr", "name": "Fran\u00e7ais"}], "status": "Released", "tagline": "Bardot At Her Frankest! At Her Frenchest! At Her Funniest! In Her First BIG Picture!", "title": "La Parisienne", "video": false, "vote_average": 5.5, "vote_count": 10, "keywords": {"keywords": [{"id": 2335, "name": "southern france"}, {"id": 9799, "name": "romantic comedy"}]}, "similar": {"page": 1, "results": [{"id": 384677, "video": false, "vote_count": 1691, "vote_average": 7.0, "title": "Set It Up", "release_date": "2018-06-12", "original_language": "en", "original_title": "Set It Up", "genre_ids": [35, 10749], "backdrop_path": "/wYHaQzfzv5vOGaV6uPhatFWG338.jpg", "adult": false, "overview": "Two overworked and underpaid assistants come up with a plan to get their bosses off their backs by setting them up with each other.", "poster_path": "/XF5jV0UxKnYNPAimem0hbwPfCR.jpg", "popularity": 13.812}, {"id": 11172, "video": false, "vote_count": 1032, "vote_average": 6.3, "title": "Music and Lyrics", "release_date": "2007-02-09", "original_language": "en", "original_title": "Music and Lyrics", "genre_ids": [35, 10402, 10749], "backdrop_path": "/cLZsdMMC3hoVQy9xwn3YJ4CR9Pd.jpg", "adult": false, "overview": "A washed up singer is given a couple days to compose a chart-topping hit for an aspiring teen sensation. Though he's never written a decent lyric in his life, he sparks with an offbeat younger woman with a flair for words.", "poster_path": "/jhv9qSAuwGkzVj1pSnu3HQBb8Qe.jpg", "popularity": 13.627}, {"adult": false, "backdrop_path": "/8ZIZJbPXCtnIG1rJpR57iFRyPTt.jpg", "genre_ids": [10749, 35], "id": 544, "original_language": "en", "original_title": "There's Something About Mary", "overview": "For Ted, prom night went about as bad as it\u2019s possible for any night to go. Thirteen years later, he finally gets another chance with his old prom date, only to run up against other suitors including the sleazy detective he hired to find her.", "poster_path": "/zD4ACYImREkDRk8PPiIXHDx4nZa.jpg", "release_date": "1998-07-15", "title": "There's Something About Mary", "video": false, "vote_average": 6.5, "vote_count": 3193, "popularity": 28.959}, {"id": 9489, "video": false, "vote_count": 1858, "vote_average": 6.6, "title": "You've Got Mail", "release_date": "1998-12-17", "original_language": "en", "original_title": "You've Got Mail", "genre_ids": [35, 10749], "backdrop_path": "/jbdQ0PDyrWqz5HfzKmparE93ky9.jpg", "adult": false, "overview": "Book superstore magnate, Joe Fox and independent book shop owner, Kathleen Kelly fall in love in the anonymity of the Internet\u2014both blissfully unaware that he's trying to put her out of business.", "poster_path": "/2XIsqnCwEE3Uf5TlP9H68STgtk6.jpg", "popularity": 21.259}, {"id": 1581, "video": false, "vote_count": 2897, "vote_average": 7.0, "title": "The Holiday", "release_date": "2006-12-08", "original_language": "en", "original_title": "The Holiday", "genre_ids": [35, 10749], "backdrop_path": "/9TP7FGdo9ppnuXX3DbB9RtzYKkh.jpg", "adult": false, "overview": "Two women, one from the United States and one from the United Kingdom, swap homes at Christmastime after bad breakups with their boyfriends. Each woman finds romance with a local man but realizes that the imminent return home may end the relationship.", "poster_path": "/ixNtpuq8OVp4IckgzkSJIflFDkw.jpg", "popularity": 21.914}, {"id": 703, "video": false, "vote_count": 2268, "vote_average": 7.8, "title": "Annie Hall", "release_date": "1977-04-19", "original_language": "en", "original_title": "Annie Hall", "genre_ids": [35, 18, 10749], "backdrop_path": "/8iNt5LGxpX9XeNWJgjx17xfTT7u.jpg", "adult": false, "overview": "New York comedian Alvy Singer falls in love with the ditsy Annie Hall.", "poster_path": "/bK9bLXwxWuXX5mbq75PZqjvAtfG.jpg", "popularity": 15.038}, {"id": 20048, "video": false, "vote_count": 1815, "vote_average": 6.4, "title": "Confessions of a Shopaholic", "release_date": "2009-02-05", "original_language": "en", "original_title": "Confessions of a Shopaholic", "genre_ids": [35, 10749], "backdrop_path": "/npNh1FMJgWrmq01bfYysGzuD4pX.jpg", "adult": false, "overview": "In the glamorous world of New York City, Rebecca Bloomwood is a fun-loving girl who is really good at shopping-a little too good, perhaps. She dreams of working for her favorite fashion magazine, but can't quite get her foot in the door-until ironically, she snags a job as an advice columnist for a financial magazine published by the same company.", "poster_path": "/8gCZJ8gOxd22Spz1MKiu4b54T2r.jpg", "popularity": 20.763}, {"id": 10141, "video": false, "vote_count": 414, "vote_average": 7.1, "title": "Dirty Rotten Scoundrels", "release_date": "1988-12-14", "original_language": "en", "original_title": "Dirty Rotten Scoundrels", "genre_ids": [35, 80], "backdrop_path": "/coemYANmOCtpXE98qdXzQ0uqqG5.jpg", "adult": false, "overview": "Two con men try to settle their rivalry by betting on who can be the first to swindle a young American heiress out of $50,000.", "poster_path": "/fdwW9gwi50lmgPyv2teT2NCjElO.jpg", "popularity": 15.8}, {"adult": false, "backdrop_path": "/9yQWwc7mwWID0ssy4eIm50fxXCd.jpg", "genre_ids": [35, 10749], "id": 32856, "original_language": "en", "original_title": "Valentine's Day", "overview": "More than a dozen Angelenos navigate Valentine's Day from early morning until midnight. Three couples awake together, but each relationship will sputter. A grade-school boy wants flowers for his first true love. Two high school seniors plan first-time sex at noon. A TV sports reporter gets the assignment to find romance in LA. A star quarterback contemplates his future. Two strangers meet on a plane. Grandparents, together for years, face a crisis. An 'I Hate Valentine's Day' dinner beckons the lonely and the lied to.", "poster_path": "/qOTcfD2DdnOTmhH0r1TOE09VvNh.jpg", "release_date": "2010-02-10", "title": "Valentine's Day", "video": false, "vote_average": 5.8, "vote_count": 2063, "popularity": 13.67}, {"adult": false, "backdrop_path": "/w9Zeo9D6kpdizGKPgFHdrOLYkFE.jpg", "genre_ids": [35, 10749], "id": 20943, "original_language": "en", "original_title": "The Ugly Truth", "overview": "A romantically challenged morning show producer is reluctantly embroiled in a series of outrageous tests by her chauvinistic correspondent to prove his theories on relationships and help her find love. His clever ploys, however, lead to an unexpected result.", "poster_path": "/xbIEfRy1qLYyChHc3cqaYLIWdVS.jpg", "release_date": "2009-07-24", "title": "The Ugly Truth", "video": false, "vote_average": 6.5, "vote_count": 2216, "popularity": 20.868}, {"adult": false, "backdrop_path": "/moXYmj79ClxEz5rxs2jmpO1CLEQ.jpg", "genre_ids": [18, 35, 10749], "id": 1968, "original_language": "en", "original_title": "Fools Rush In", "overview": "Alex Whitman (Matthew Perry) is a designer from New York City who is sent to Las Vegas to supervise the construction of a nightclub that his firm has been hired to build. Alex is a straight-laced WASP-ish type who, while enjoying a night on the town, meets Isabel Fuentes (Salma Hayek), a free-spirited Mexican-American photographer. Alex and Isabel are overtaken by lust at first sight and end up sp", "poster_path": "/e1rzqz7ehOk6uzu7Wkgu4q3L8CK.jpg", "release_date": "1997-02-14", "title": "Fools Rush In", "video": false, "vote_average": 6.1, "vote_count": 241, "popularity": 12.002}, {"adult": false, "backdrop_path": "/yT0dZm5EicwHZIWTJZvK2MvjDqO.jpg", "genre_ids": [35, 14, 10749], "id": 13477, "original_language": "en", "original_title": "When in Rome", "overview": "After fishing out coins from a water fountain in Italy, cynical New Yorker Beth Harper finds herself being wooed by several ardent suitors. As she deals with the attention, Beth tries to figure out whether a charming reporter really loves her.", "poster_path": "/lsq9k09TGKXMbAqNr5lNj8EInQf.jpg", "release_date": "2010-01-29", "title": "When in Rome", "video": false, "vote_average": 5.9, "vote_count": 791, "popularity": 17.451}, {"adult": false, "backdrop_path": "/gRY30dvyLhydkblpE0v3NiXt0Nj.jpg", "genre_ids": [35, 10749], "id": 6557, "original_language": "en", "original_title": "27 Dresses", "overview": "Altruistic Jane finds herself facing her worst nightmare as her younger sister announces her engagement to the man Jane secretly adores.", "poster_path": "/zzJtHNzi1D4CPwRlPHV1TRQNXD2.jpg", "release_date": "2008-01-10", "title": "27 Dresses", "video": false, "vote_average": 6.3, "vote_count": 2136, "popularity": 10.851}, {"id": 622, "video": false, "vote_count": 1604, "vote_average": 6.4, "title": "The Ninth Gate", "release_date": "1999-08-25", "original_language": "en", "original_title": "The Ninth Gate", "genre_ids": [27, 9648, 53], "backdrop_path": "/7ikpBrx2YZyVZxFS5YTZUZoyIJu.jpg", "adult": false, "overview": "An all-expenses-paid international search for a rare copy of the book, 'The Nine Gates of the Shadow Kingdom' brings an unscrupulous book dealer deep into a world of murder, double-dealing and satanic worship.", "poster_path": "/uamhDQBebdW3UQqOaVmma3yW8pm.jpg", "popularity": 24.171}, {"adult": false, "backdrop_path": "/7ApilgVwA0rjhl92GFTzW0FLGBG.jpg", "genre_ids": [10749, 10770], "id": 427045, "original_language": "en", "original_title": "A December Bride", "overview": "Aspiring interior designer Layla is dreading the Christmastime wedding of her cousin who\u2019s marrying Layla\u2019s ex-fianc\u00e9. Although Seth is the one responsible for introducing the bride and groom, she begrudgingly accepts his offer to be her date as she\u2019s out of options. Seth gets carried away at the reception and announces they\u2019re engaged, forcing a mortified Layla to keep up the pretense.", "poster_path": "/o1jAel6EasQkLPUj0TcDOJB2btE.jpg", "release_date": "2016-11-20", "title": "A December Bride", "video": false, "vote_average": 6.5, "vote_count": 66, "popularity": 8.437}, {"id": 947, "video": false, "vote_count": 1587, "vote_average": 8.0, "title": "Lawrence of Arabia", "release_date": "1962-12-10", "original_language": "en", "original_title": "Lawrence of Arabia", "genre_ids": [12, 18, 36, 10752], "backdrop_path": "/lENerYvUcfl9GlolqA1emj5gb4k.jpg", "adult": false, "overview": "The story of British officer T.E. Lawrence's mission to aid the Arab tribes in their revolt against the Ottoman Empire during the First World War. Lawrence becomes a flamboyant, messianic figure in the cause of Arab unity but his psychological instability threatens to undermine his achievements.", "poster_path": "/j21UXCOq0EbV8EPTtmPn1CGePfB.jpg", "popularity": 19.461}, {"adult": false, "backdrop_path": "/t52ImvH020yOvoEhH6sRzC6XoCj.jpg", "genre_ids": [18], "id": 406, "original_language": "fr", "original_title": "La Haine", "overview": "Aimlessly whiling away their days in the concrete environs of their dead-end suburbia, Vinz, Hubert, and Said - a Jew, African, and an Arab - give human faces to France's immigrant populations, their bristling resentment at their social marginalization slowly simmering until it reaches a climactic boiling point.", "poster_path": "/jTzBED0leGPwWDqNewye11qzJgd.jpg", "release_date": "1995-05-31", "title": "La Haine", "video": false, "vote_average": 8.0, "vote_count": 1734, "popularity": 20.823}, {"id": 9029, "video": false, "vote_count": 1893, "vote_average": 6.0, "title": "What Happens in Vegas", "release_date": "2008-05-07", "original_language": "en", "original_title": "What Happens in Vegas", "genre_ids": [35, 10749], "backdrop_path": "/925k5OHcumv1xYNwYnDdXiVPMTf.jpg", "adult": false, "overview": "During a wild vacation in Las Vegas, career woman Joy McNally and playboy Jack Fuller come to the sober realization that they have married each other after a night of drunken abandon. They are then compelled, for legal reasons, to live life as a couple for a limited period of time. At stake is a large amount of money.", "poster_path": "/NWQmNdQwm7blsBNSdpWIfqkGte.jpg", "popularity": 14.609}, {"id": 34016, "video": false, "vote_count": 1084, "vote_average": 6.1, "title": "She's Out of My League", "release_date": "2010-03-11", "original_language": "en", "original_title": "She's Out of My League", "genre_ids": [35, 10749], "backdrop_path": "/9Pu4kGTcq7c1bvufK13p5WaHe7K.jpg", "adult": false, "overview": "When he starts dating drop-dead gorgeous Molly, insecure airport security agent Kirk can't believe it. As his friends and family share their doubts about the relationship lasting, Kirk does everything he can to avoid losing Molly forever.", "poster_path": "/jtoZLyid2QGjbkuMrQ4cMt8iRFd.jpg", "popularity": 14.839}, {"id": 284, "video": false, "vote_count": 1038, "vote_average": 8.2, "title": "The Apartment", "release_date": "1960-06-15", "original_language": "en", "original_title": "The Apartment", "genre_ids": [35, 18, 10749], "backdrop_path": "/vF4d4hAKMcrDE4Y6zLwUSijp32g.jpg", "adult": false, "overview": "Bud Baxter is a minor clerk in a huge New York insurance company, until he discovers a quick way to climb the corporate ladder. He lends out his apartment to the executives as a place to take their mistresses. Although he often has to deal with the aftermath of their visits, one night he's left with a major problem to solve.", "poster_path": "/8nrQKQjD6z0SJouKHQapXzmjFc6.jpg", "popularity": 15.832}], "total_pages": 25, "total_results": 491}, "recommendations": {"page": 1, "results": [{"id": 90978, "video": false, "vote_count": 3, "vote_average": 4.0, "title": "The Male Animal", "release_date": "1942-03-12", "original_language": "en", "original_title": "The Male Animal", "genre_ids": [35, 10749], "backdrop_path": "/vQTGYeWz3WK4efCgRdj8HCvAABI.jpg", "adult": false, "overview": "The trustees of Midwestern University have forced three teachers out of their jobs for being suspected communists. Trustee Ed Keller has also threatened mild mannered English Professor Tommy Turner, because he plans to read a controversial piece of prose in class. Tommy is upset that his wife Ellen also suggested he not read the passage. Meanwhile, Ellen's old boyfriend, the football player Joe Ferguson, comes to visit for the homecoming weekend. He takes Ellen out dancing after the football rally, causing Tommy to worry that he will lose her to Joe.", "poster_path": "/6YHCL2uJ1opi8hQbB4bL8Grh2pu.jpg", "popularity": 3.058}], "total_pages": 1, "total_results": 1}, "credits": {"cast": [{"cast_id": 1, "character": "Brigitte Laurier", "credit_id": "52fe47e4c3a36847f814ddeb", "gender": 1, "id": 3783, "name": "Brigitte Bardot", "order": 0, "profile_path": "/3zQZJKE1TBXEi1khQlLI321KhHX.jpg"}, {"cast_id": 3, "character": "Le prince Charles", "credit_id": "52fe47e4c3a36847f814ddf5", "gender": 2, "id": 29519, "name": "Charles Boyer", "order": 1, "profile_path": "/5xjnsNi2vr31yyPyum77aPCuCTE.jpg"}, {"cast_id": 4, "character": "Michel Legrand", "credit_id": "52fe47e4c3a36847f814ddf9", "gender": 2, "id": 545679, "name": "Henri Vidal", "order": 2, "profile_path": "/tDpmWrkWyNjGGkxXCey4ddiT343.jpg"}, {"cast_id": 5, "character": "Le docteur d'Herblay", "credit_id": "52fe47e4c3a36847f814ddfd", "gender": 2, "id": 12272, "name": "No\u00ebl Roquevert", "order": 3, "profile_path": "/9OOPCNPl0nwsMDd82tJRhgVtTJ6.jpg"}, {"cast_id": 8, "character": "Monique Wilson", "credit_id": "57b9ff45925141361b0017f1", "gender": 1, "id": 4116, "name": "Madeleine Lebeau", "order": 4, "profile_path": "/tYUnGiQEBJLG1OfeqHvdcANgm2I.jpg"}, {"cast_id": 9, "character": "Fernand le Barman", "credit_id": "57b9ff50925141753000004d", "gender": 2, "id": 144990, "name": "Fernand Sardou", "order": 5, "profile_path": "/pJZOopoU5p6UdkKNN07RAd8nD2d.jpg"}, {"cast_id": 10, "character": "Caroline Herblay", "credit_id": "57b9ff5c9251417530000053", "gender": 1, "id": 1654, "name": "Claire Maurier", "order": 6, "profile_path": "/cP1n7zMsMKr77xJeR3CncomxEZ0.jpg"}], "crew": [{"credit_id": "52fe47e4c3a36847f814ddf1", "department": "Directing", "gender": 2, "id": 35216, "job": "Director", "name": "Michel Boisrond", "profile_path": "/djRMKctZJkSFVITNESlUe3KN6ma.jpg"}, {"credit_id": "5707bebb92514117cd0008a8", "department": "Writing", "gender": 0, "id": 3582, "job": "Writer", "name": "Jean Aurel", "profile_path": null}, {"credit_id": "5707bec8c3a3686509002be4", "department": "Writing", "gender": 1, "id": 553897, "job": "Writer", "name": "Annette Wademant", "profile_path": null}, {"credit_id": "5b787db5c3a36860ed0168cc", "department": "Camera", "gender": 2, "id": 6789, "job": "Director of Photography", "name": "Marcel Grignon", "profile_path": null}, {"credit_id": "5b787dbe0e0a26472b016c02", "department": "Editing", "gender": 1, "id": 18223, "job": "Editor", "name": "Claudine Bouch\u00e9", "profile_path": null}]}}