{"adult": false, "backdrop_path": "/msuSWuBdzzhWtWjViOGrlsnDOV7.jpg", "belongs_to_collection": null, "budget": 0, "genres": [{"id": 99, "name": "Documentary"}], "homepage": "https://www.netflix.com/title/80174436", "id": 511791, "imdb_id": "tt8139850", "original_language": "en", "original_title": "Mercury 13", "overview": "After rigorous testing in 1961, a small group of skilled female pilots are asked to step aside when only men are selected for spaceflight.", "popularity": 3.99, "poster_path": "/cIH8lHaNRGjSLXlkOzyp1MkE0yk.jpg", "production_companies": [{"id": 80995, "logo_path": "/awknjEFU2v2qRKAOe1MZkaMDYN2.png", "name": "Fine Point Films", "origin_country": "IE"}], "production_countries": [{"iso_3166_1": "US", "name": "United States of America"}], "release_date": "2018-04-08", "revenue": 0, "runtime": 79, "spoken_languages": [{"iso_639_1": "en", "name": "English"}], "status": "Released", "tagline": "Meet the women who dared to reach for the stars.", "title": "Mercury 13", "video": false, "vote_average": 6.8, "vote_count": 18, "keywords": {"keywords": [{"id": 9682, "name": "history"}, {"id": 156836, "name": "space race"}, {"id": 208992, "name": "1960s"}]}, "similar": {"page": 1, "results": [{"id": 549559, "video": false, "vote_count": 205, "vote_average": 8.1, "title": "Apollo 11", "release_date": "2019-03-01", "original_language": "en", "original_title": "Apollo 11", "genre_ids": [99, 36], "backdrop_path": "/cRW5341t1y61XK7mrhTvwoodZz6.jpg", "adult": false, "overview": "A look at the Apollo 11 mission to land on the moon led by commander Neil Armstrong and pilot Buzz Aldrin.", "poster_path": "/woLMRroHyoTGoXyxdEeBJEYBFtu.jpg", "popularity": 16.318}, {"id": 369972, "video": false, "vote_count": 3001, "vote_average": 7.1, "title": "First Man", "release_date": "2018-10-11", "original_language": "en", "original_title": "First Man", "genre_ids": [18, 36], "backdrop_path": "/jrudoaXcoLyHRPdolyOGemXgPEs.jpg", "adult": false, "overview": "A look at the life of the astronaut, Neil Armstrong, and the legendary space mission that led him to become the first man to walk on the Moon on July 20, 1969.", "poster_path": "/i91mfvFcPPlaegcbOyjGgiWfZzh.jpg", "popularity": 27.464}, {"id": 398978, "video": false, "vote_count": 2192, "vote_average": 7.8, "title": "The Irishman", "release_date": "2019-11-01", "original_language": "en", "original_title": "The Irishman", "genre_ids": [80, 18, 36], "backdrop_path": "/iLLDiO4dbUfFEnRug8DuvFEl1NB.jpg", "adult": false, "overview": "Pennsylvania, 1956. Frank Sheeran, a war veteran of Irish origin who works as a truck driver, accidentally meets mobster Russell Bufalino. Once Frank becomes his trusted man, Bufalino sends him to Chicago with the task of helping Jimmy Hoffa, a powerful union leader related to organized crime, with whom Frank will maintain a close friendship for nearly twenty years.", "poster_path": "/mbm8k3GFhXS0ROd9AD1gqYbIFbM.jpg", "popularity": 71.608}, {"id": 2604, "video": false, "vote_count": 844, "vote_average": 7.0, "title": "Born on the Fourth of July", "release_date": "1989-12-20", "original_language": "en", "original_title": "Born on the Fourth of July", "genre_ids": [18, 10752], "backdrop_path": "/t9MrNY0xM9U5JSe5vHN9z08UYty.jpg", "adult": false, "overview": "The biography of Ron Kovic. Paralyzed in the Vietnam war, he becomes an anti-war and pro-human rights political activist after feeling betrayed by the country he fought for.", "poster_path": "/iAUSzQNpxf9fX1EvhNbeguo6aVA.jpg", "popularity": 12.659}, {"adult": false, "backdrop_path": "/4bHX7nAmjMiZO9eotJITyro0raw.jpg", "genre_ids": [18], "id": 376866, "original_language": "en", "original_title": "Jackie", "overview": "An account of the days of First Lady, Jacqueline Kennedy, in the immediate aftermath of John F. Kennedy's assassination in 1963.", "poster_path": "/iMkl2Akc1f4CSJCieVwczM4KjZR.jpg", "release_date": "2016-12-02", "title": "Jackie", "video": false, "vote_average": 6.5, "vote_count": 1554, "popularity": 17.637}, {"adult": false, "backdrop_path": "/urnGzQvP8fwWWGkn1k809KqIjbm.jpg", "genre_ids": [18], "id": 87093, "original_language": "en", "original_title": "Big Eyes", "overview": "The story of the awakening of painter, Margaret Keane, her phenomenal success in the 1950s, and the subsequent legal difficulties she had with her husband, who claimed credit for her works in the 1960s.", "poster_path": "/z2tqzprHojhgEGYKQepjU28oQg6.jpg", "release_date": "2014-12-24", "title": "Big Eyes", "video": false, "vote_average": 7.0, "vote_count": 2349, "popularity": 14.024}, {"id": 1949, "video": false, "vote_count": 5165, "vote_average": 7.5, "title": "Zodiac", "release_date": "2007-03-02", "original_language": "en", "original_title": "Zodiac", "genre_ids": [80, 18, 9648, 53], "backdrop_path": "/jP2htGBHE7vKq4MLeC75UeC0sZH.jpg", "adult": false, "overview": "The true story of the investigation of the \"Zodiac Killer\", a serial killer who terrified the San Francisco Bay Area, taunting police with his ciphers and letters. The case becomes an obsession for three men as their lives and careers are built and destroyed by the endless trail of clues.", "poster_path": "/bgLyOROfFQI3FqYL7jQbiaV8lkN.jpg", "popularity": 24.455}, {"adult": false, "backdrop_path": "/uCjCNaxLyLkcwBq4aOHOeiKKwPE.jpg", "genre_ids": [35, 10749, 80, 18, 9648], "id": 171274, "original_language": "en", "original_title": "Inherent Vice", "overview": "In Los Angeles at the turn of the 1970s, drug-fueled detective Larry \"Doc\" Sportello investigates the disappearance of an ex-girlfriend.", "poster_path": "/2fCg6FORkgRLpFIKlUg4gULIn1u.jpg", "release_date": "2014-12-25", "title": "Inherent Vice", "video": false, "vote_average": 6.6, "vote_count": 1536, "popularity": 20.663}, {"adult": false, "backdrop_path": "/aRP8QAOhnthglsTUzeLWwoPVV1T.jpg", "genre_ids": [18, 36], "id": 381284, "original_language": "en", "original_title": "Hidden Figures", "overview": "The untold story of Katherine G. Johnson, Dorothy Vaughan and Mary Jackson \u2013 brilliant African-American women working at NASA and serving as the brains behind one of the greatest operations in history \u2013 the launch of astronaut John Glenn into orbit. The visionary trio crossed all gender and race lines to inspire generations to dream big.", "poster_path": "/6cbIDZLfwUTmttXTmNi8Mp3Rnmg.jpg", "release_date": "2016-12-10", "title": "Hidden Figures", "video": false, "vote_average": 8.0, "vote_count": 5348, "popularity": 31.774}, {"id": 504608, "video": false, "vote_count": 1666, "vote_average": 7.4, "title": "Rocketman", "release_date": "2019-05-22", "original_language": "en", "original_title": "Rocketman", "genre_ids": [18, 10402], "backdrop_path": "/sZZJ42GrWKxSOfcrpI2TSFQa0AQ.jpg", "adult": false, "overview": "The story of Elton John's life, from his years as a prodigy at the Royal Academy of Music through his influential and enduring musical partnership with Bernie Taupin.", "poster_path": "/f4FF18ia7yTvHf2izNrHqBmgH8U.jpg", "popularity": 27.709}, {"adult": false, "backdrop_path": "/9alS7FBSf8rvDLskpCRuKqAI2h5.jpg", "genre_ids": [18, 36], "id": 746, "original_language": "en", "original_title": "The Last Emperor", "overview": "A dramatic history of Pu Yi, the last of the Emperors of China, from his lofty birth and brief reign in the Forbidden City, the object of worship by half a billion people; through his abdication, his decline and dissolute lifestyle; his exploitation by the invading Japanese, and finally to his obscure existence as just another peasant worker in the People's Republic.", "poster_path": "/KTirnfG6FZLKWbm8Am3EEKmZDx.jpg", "release_date": "1987-10-21", "title": "The Last Emperor", "video": false, "vote_average": 7.6, "vote_count": 774, "popularity": 13.039}, {"id": 239566, "video": false, "vote_count": 271, "vote_average": 6.7, "title": "Get on Up", "release_date": "2014-08-01", "original_language": "en", "original_title": "Get on Up", "genre_ids": [18, 10402], "backdrop_path": "/uXY6UyQZGjnkyKfI5CUjZee58bv.jpg", "adult": false, "overview": "A chronicle of James Brown's rise from extreme poverty to become one of the most influential musicians in history.", "poster_path": "/n1jw04rLk8YRVEJ9D6gQWIiDtfi.jpg", "popularity": 11.917}, {"adult": false, "backdrop_path": "/uAjSPEyn2JZhw1TP75TJ43URRYf.jpg", "genre_ids": [18, 10749], "id": 5967, "original_language": "fr", "original_title": "Les parapluies de Cherbourg", "overview": "This simple romantic tragedy begins in 1957. Guy Foucher, a 20-year-old French auto mechanic, has fallen in love with 17-year-old Genevi\u00e8ve Emery, an employee in her widowed mother's chic but financially embattled umbrella shop. On the evening before Guy is to leave for a two-year tour of combat in Algeria, he and Genevi\u00e8ve make love. She becomes pregnant and must choose between waiting for Guy's return or accepting an offer of marriage from a wealthy diamond merchant.", "poster_path": "/ju5W8qvWfjXXGaR7wd9wSyuYXhS.jpg", "release_date": "1964-02-19", "title": "The Umbrellas of Cherbourg", "video": false, "vote_average": 7.6, "vote_count": 281, "popularity": 11.326}, {"adult": false, "backdrop_path": "/uBuMVTfwFKhSUOHM94tSFIZM4lm.jpg", "genre_ids": [35, 18], "id": 403, "original_language": "en", "original_title": "Driving Miss Daisy", "overview": "The story of an old Jewish widow named Daisy Werthan and her relationship with her black chauffeur Hoke. From an initial mere work relationship grew in 25 years a strong friendship between the two very different characters in a time when those types of relationships where shunned upon. Oscar winning tragic comedy with a star-studded cast and based on a play of the same name by Alfred Uhry.", "poster_path": "/iaCzvcY42HihFxQBTZCTKMpsI0P.jpg", "release_date": "1989-12-13", "title": "Driving Miss Daisy", "video": false, "vote_average": 7.3, "vote_count": 761, "popularity": 11.117}, {"id": 8916, "video": false, "vote_count": 2873, "vote_average": 6.1, "title": "Antz", "release_date": "1998-10-02", "original_language": "en", "original_title": "Antz", "genre_ids": [12, 16, 35, 10751], "backdrop_path": "/kMfLkbVTsALj5eIu72jtwzDhVsV.jpg", "adult": false, "overview": "In this animated hit, a neurotic worker ant in love with a rebellious princess rises to unlikely stardom when he switches places with a soldier. Signing up to march in a parade, he ends up under the command of a bloodthirsty general. But he's actually been enlisted to fight against a termite army.", "poster_path": "/3biVcPu5hrfKUMC73sTFq17dmmS.jpg", "popularity": 19.964}, {"adult": false, "backdrop_path": "/xStFRUQtjdQWiZEGN80rgkhN0Kh.jpg", "genre_ids": [18, 878], "id": 11864, "original_language": "en", "original_title": "Enemy Mine", "overview": "A soldier from Earth crashlands on an alien world after sustaining battle damage. Eventually he encounters another survivor, but from the enemy species he was fighting; they band together to survive on this hostile world. In the end the human finds himself caring for his enemy in a completely unexpected way.", "poster_path": "/rOGOW5BnkT0Ccg7XEDmdBUBuw0K.jpg", "release_date": "1985-12-12", "title": "Enemy Mine", "video": false, "vote_average": 6.8, "vote_count": 456, "popularity": 12.134}, {"id": 120467, "video": false, "vote_count": 8930, "vote_average": 8.0, "title": "The Grand Budapest Hotel", "release_date": "2014-02-26", "original_language": "en", "original_title": "The Grand Budapest Hotel", "genre_ids": [35, 18], "backdrop_path": "/5FPUoQtnNC0C0YZ7sUeTLq6eZqa.jpg", "adult": false, "overview": "The Grand Budapest Hotel tells of a legendary concierge at a famous European hotel between the wars and his friendship with a young employee who becomes his trusted prot\u00e9g\u00e9. The story involves the theft and recovery of a priceless Renaissance painting, the battle for an enormous family fortune and the slow and then sudden upheavals that transformed Europe during the first half of the 20th century.", "poster_path": "/nX5XotM9yprCKarRH4fzOq1VM1J.jpg", "popularity": 24.31}, {"adult": false, "backdrop_path": "/pKawqrtCBMmxarft7o1LbEynys7.jpg", "genre_ids": [10752, 18, 28], "id": 228150, "original_language": "en", "original_title": "Fury", "overview": "In the last months of World War II, as the Allies make their final push in the European theatre, a battle-hardened U.S. Army sergeant named 'Wardaddy' commands a Sherman tank called 'Fury' and its five-man crew on a deadly mission behind enemy lines. Outnumbered and outgunned, Wardaddy and his men face overwhelming odds in their heroic attempts to strike at the heart of Nazi Germany.", "poster_path": "/fa4PxEPRKWRyjzYje1jM4m30qzd.jpg", "release_date": "2014-10-15", "title": "Fury", "video": false, "vote_average": 7.4, "vote_count": 7302, "popularity": 53.985}, {"id": 205584, "video": false, "vote_count": 2544, "vote_average": 5.4, "title": "Gods of Egypt", "release_date": "2016-02-25", "original_language": "en", "original_title": "Gods of Egypt", "genre_ids": [28, 12, 14], "backdrop_path": "/xy74anT8ZGhUIGVoalnHrmRDHbQ.jpg", "adult": false, "overview": "A common thief joins a mythical god on a quest through Egypt.", "poster_path": "/uPqAW07bGoljf3cmT5gecdOvVol.jpg", "popularity": 18.688}, {"id": 602, "video": false, "vote_count": 6006, "vote_average": 6.8, "title": "Independence Day", "release_date": "1996-06-25", "original_language": "en", "original_title": "Independence Day", "genre_ids": [28, 12, 878], "backdrop_path": "/4E2xKGrU2qcqUE2S3Nl27hwZdqy.jpg", "adult": false, "overview": "On July 2, a giant alien mothership enters orbit around Earth and deploys several dozen saucer-shaped 'destroyer' spacecraft that quickly lay waste to major cities around the planet. On July 3, the United States conducts a coordinated counterattack that fails. On July 4, a plan is devised to gain access to the interior of the alien mothership in space, in order to plant a nuclear missile.", "poster_path": "/bqLlWZJdhrS0knfEJRkquW7L8z2.jpg", "popularity": 20.636}], "total_pages": 185, "total_results": 3683}, "recommendations": {"page": 1, "results": [{"adult": false, "backdrop_path": "/2mC05I9FfkudC71zJ2uMQebWJIH.jpg", "genre_ids": [99], "id": 561230, "original_language": "en", "original_title": "Out of Many, One", "overview": "The U.S. has long offered a promise of opportunity to immigrants, but currently immigration has become a divisive issue. This documentary illustrates how an understanding of our history and democracy is essential to constructive debate, informed civic participation and shaping a new class of citizens.", "poster_path": "/lDW6Bttoo1x1Rdohm43dveAjKHN.jpg", "release_date": "2018-12-12", "title": "Out of Many, One", "video": false, "vote_average": 5.4, "vote_count": 5, "popularity": 2.522}, {"id": 438466, "video": false, "vote_count": 10, "vote_average": 6.0, "title": "Us and Them", "release_date": "2017-03-10", "original_language": "en", "original_title": "Us and Them", "genre_ids": [80, 18, 53], "backdrop_path": "/xa9d54rgahl2dEIVkph0YLcJk5B.jpg", "adult": false, "overview": "Working class Danny aims to kick start a revolution by turning the tables on the establishment with a deadly game of chance.", "poster_path": "/qb3qxO1QTr0jBL4Goj0knebtpcB.jpg", "popularity": 2.974}, {"adult": false, "backdrop_path": "/iPRKgNK9Gls5djXpO4e94fQxPmh.jpg", "genre_ids": [], "id": 543889, "original_language": "en", "original_title": "An Audience of Chairs", "overview": "Maura Mackenzie (Carolina Bartczak) believes the world is hers to conquer. With her career as a concert pianist gaining momentum, it seems her beauty and talent will be strong enough to mask the demons that threaten to engulf her. But with an absent husband (Chris Jacot) and two young daughters at home, her precarious sanity begins to unravel until one summer day, burning with manic energy, she makes a terrible mistake \u2014 a mistake that will change her life forever. The consequences for Maura are catastrophic: her ambitious husband runs for his life, taking the children with him, leaving Maura to lapse into a full-scale breakdown. Life as she knew it is now over. With the help of her father, Ian (Peter MacNeill), Maura works to reclaim her life and waits for a miracle to bring her daughters home. But when the fates align, can the past be forgiven?", "poster_path": "/e5MPJTwEPDjdVwifFFO3nKaFVZH.jpg", "release_date": "2018-09-14", "title": "An Audience of Chairs", "video": false, "vote_average": 7.3, "vote_count": 4, "popularity": 3.31}, {"id": 489984, "video": false, "vote_count": 6, "vote_average": 7.8, "title": "The Devil We Know", "release_date": "2018-01-21", "original_language": "en", "original_title": "The Devil We Know", "genre_ids": [99], "backdrop_path": "/xu6ba6x4yyGWNqejV5b98bnaCWm.jpg", "adult": false, "overview": "Unraveling one of the biggest environmental scandals of our time, a group of citizens in West Virginia take on a powerful corporation after they discover it has knowingly been dumping a toxic chemical \u2014 now found in the blood of 99.7% of Americans \u2014 into the local drinking water supply.", "poster_path": "/9eLww3wkI2x1RjDqHf0xfyxiNaM.jpg", "popularity": 4.338}, {"adult": false, "backdrop_path": "/4Mq0qtQvWFsQQe5XRdf7ytezoGu.jpg", "genre_ids": [53], "id": 502800, "original_language": "en", "original_title": "Crisis Hotline", "overview": "A cynical counselor at a crisis hotline finds himself in a life or death situation when a young man calls and threatens to kill three people and then himself.", "poster_path": "/AkyTEsEwe2W8iPfxJD1TcJTHCDx.jpg", "release_date": "2019-06-11", "title": "Crisis Hotline", "video": false, "vote_average": 5.3, "vote_count": 3, "popularity": 4.492}, {"adult": false, "backdrop_path": "/vNeCUQ2q64essNMKu1Ob26B0M1S.jpg", "genre_ids": [], "id": 46148, "original_language": "en", "original_title": "The Red Menace", "overview": "A couple try to leave the Communist party after a murder by the group they were once loyal to.", "poster_path": "/a7mPps5f7VfVqyeeJ3W6CGyrkJq.jpg", "release_date": "1949-08-01", "title": "The Red Menace", "video": false, "vote_average": 4.1, "vote_count": 7, "popularity": 2.925}, {"adult": false, "backdrop_path": "/sOEEvGlLTqp06USLROWJzSGcOny.jpg", "genre_ids": [18], "id": 543726, "original_language": "en", "original_title": "VS.", "overview": "VS. is an urban rites of passage drama set in the hostile and exciting UK rap battle scene.", "poster_path": "/A2F1h72JzpYxHGAU7BJzsBkVHBv.jpg", "release_date": "2018-10-19", "title": "VS.", "video": false, "vote_average": 6.5, "vote_count": 6, "popularity": 4.007}, {"id": 83926, "video": false, "vote_count": 3, "vote_average": 7.0, "title": "Ninety Degrees in the Shade", "release_date": "1965-06-01", "original_language": "en", "original_title": "Ninety Degrees in the Shade", "genre_ids": [80, 18, 53], "backdrop_path": "/Abbs7FQ4oBe5rTmo496j5enG92B.jpg", "adult": false, "overview": "A woman attempts to cover up the thefts committed by the manager at the shop she works at.", "poster_path": "/GsW0wqXs40fgZV8MrGItKeRgWu.jpg", "popularity": 2.501}, {"adult": false, "backdrop_path": "/bUwwofZUjJ50WFYo2CisXgUadUt.jpg", "genre_ids": [35], "id": 537734, "original_language": "en", "original_title": "The Weekend", "overview": "An acerbic comedian becomes romantically entangled with her ex, his new girlfriend, and another guest during a weekend getaway.", "poster_path": "/6IJ9UcJjUjMW6UOvQ99MllDZhoN.jpg", "release_date": "2019-09-13", "title": "The Weekend", "video": false, "vote_average": 7.0, "vote_count": 4, "popularity": 4.251}, {"adult": false, "backdrop_path": "/yMdUNvpQWAXKw65fZb0cJs6MA5D.jpg", "genre_ids": [99], "id": 390603, "original_language": "en", "original_title": "14 Minutes from Earth", "overview": "At the break of dawn on October 24, 2014, 57-year old Google Executive Alan Eustace slowly rises into the air dangling below a helium balloon. This ascent is the culmination of three years of planning under an utmost secret mission which started as a scribble on a paper napkin. Eustace realized that as a private citizen you cannot merely walk into a store and buy a spacesuit. He determined that he would have to call upon the brightest minds in the country to pioneer a new technological invention in order to make his dream come true.", "poster_path": "/1xzsB3GNliuDfK8Fr7QKfmwOwWe.jpg", "release_date": "2016-04-20", "title": "14 Minutes from Earth", "video": false, "vote_average": 5.8, "vote_count": 4, "popularity": 1.587}, {"adult": false, "backdrop_path": "/145zMwLciDUUmPwGqET95Ve8Ioa.jpg", "genre_ids": [18], "id": 472025, "original_language": "en", "original_title": "Dublin Oldschool", "overview": "Join Jason on a chemically enhanced trip through the streets of Dublin as he stumbles from one misguided adventure to another. Somewhere between the DJs, decks, drug busts and hilltop raves, he stumbles across a familiar face from the past, his brother Daniel. Daniel is an educated homeless heroin addict living on the streets of Dublin. The brothers haven\u2019t seen or spoken to each other in years but over a lost weekend they reconnect and reminisce over tunes, trips, their history and their city. Two brothers living on the edge but perhaps they have more in common than they think.", "poster_path": "/mIlNuvcq6lH6MgINGiBcn0dI60r.jpg", "release_date": "2018-06-29", "title": "Dublin Oldschool", "video": false, "vote_average": 7.5, "vote_count": 4, "popularity": 2.349}, {"adult": false, "backdrop_path": "/tr7Yqv9m0dEfyLTCQrTjKCrHfSj.jpg", "genre_ids": [18], "id": 217719, "original_language": "en", "original_title": "Snake & Mongoose", "overview": "The untold story of how Southern California drag racers, Don \"The Snake\" Prudhomme and Tom \"The Mongoose\" McEwen combined with corporate giants to change the face of sports and ultimately became the most famous rivalry in racing history.", "poster_path": "/txrgqECyskfUBhPq5KXPMHbXHPI.jpg", "release_date": "2013-09-06", "title": "Snake & Mongoose", "video": false, "vote_average": 5.8, "vote_count": 8, "popularity": 4.672}, {"id": 440319, "video": false, "vote_count": 17, "vote_average": 7.3, "title": "Mission Control: The Unsung Heroes of Apollo", "release_date": "2017-03-14", "original_language": "en", "original_title": "Mission Control: The Unsung Heroes of Apollo", "genre_ids": [99], "backdrop_path": "/oOiG94dfEpvZzFhzzinKYVlRFgN.jpg", "adult": false, "overview": "At the heart of the Apollo program was the special team in Mission Control who put a man on the moon and helped create the future.", "poster_path": "/5pBpq1fieUBcoFUM4lbGp8dUKR6.jpg", "popularity": 6.013}, {"adult": false, "backdrop_path": "/b6VJT1EuQtmJm4JpkLhK62dPQmB.jpg", "genre_ids": [35, 18], "id": 507660, "original_language": "en", "original_title": "The Merger", "overview": "A country football coach who has a plan to rebuild the local football team by recruiting recently settled asylum seekers.", "poster_path": "/v1bCOU6touQ4qWidGGD8LtqwiBW.jpg", "release_date": "2018-08-30", "title": "The Merger", "video": false, "vote_average": 6.1, "vote_count": 7, "popularity": 2.973}, {"id": 515917, "video": false, "vote_count": 4, "vote_average": 7.8, "title": "Saints Rest", "release_date": "2018-04-26", "original_language": "en", "original_title": "Saints Rest", "genre_ids": [18, 10402], "backdrop_path": "/cdPS99Rg2X7jCkkbYWAwuvslq8A.jpg", "adult": false, "overview": "A musical drama set in small-town Iowa, SAINTS REST tells the story of two estranged sisters, who over the course of one summer, form a connection through their shared love of music, as they grieve the recent death of their mother.", "poster_path": "/8gNHJ3iLIcne4RWqG5t6eUBfz19.jpg", "popularity": 4.736}, {"id": 566141, "video": false, "vote_count": 4, "vote_average": 6.8, "title": "Her Only Choice", "release_date": "2018-10-06", "original_language": "en", "original_title": "Her Only Choice", "genre_ids": [18], "backdrop_path": "/2xfX8cP3Aj124L8wIyp475uv8yu.jpg", "adult": false, "overview": "A woman is faced with a choice to fight for her life or sacrifice it for another. After years of infertility, a newly-expectant mother is diagnosed with a life-altering disease.", "poster_path": "/oJ540zZprpaXWIPdG1WyD0DjvXe.jpg", "popularity": 3.515}, {"adult": false, "backdrop_path": "/q6z0jtnoaUDxhQsfFTzWjUWLmfO.jpg", "genre_ids": [], "id": 495831, "original_language": "en", "original_title": "Quality Problems", "overview": "Bailey and Drew are a 40 something couple much like other couples: They have two kids, two jobs, one dad with Alzheimers and one boob with cancer. Toss in planning an 8 year old\u2019s birthday party and the only thing you CAN do is laugh.", "poster_path": "/eItrIDqNkNlLkafTzQ3kWMiozrB.jpg", "release_date": "2018-05-08", "title": "Quality Problems", "video": false, "vote_average": 8.3, "vote_count": 3, "popularity": 1.76}, {"id": 43116, "video": false, "vote_count": 5, "vote_average": 6.8, "title": "High School Confidential!", "release_date": "1958-05-30", "original_language": "en", "original_title": "High School Confidential!", "genre_ids": [9648, 53], "backdrop_path": "/aGYiuTcaG73iJBX31ihEWJLCNok.jpg", "adult": false, "overview": "Tony Baker is a rebel with a cause in this classic exploitation tale of teens gone wild.Sent undercover to expose a dope ring at Santa Bella High, Baker infiltrates the gang, pulls a switchblade and gets his girl all in one fell swoop.Banned in numerous countries on release for its edgy content of dancing, drugs and drag car racing,", "poster_path": "/aqCCtvx9SsM8i8cBE7HOJMvYS6p.jpg", "popularity": 4.327}, {"adult": false, "backdrop_path": "/z2NSj11gnjSJUgbm1bghEBYtktV.jpg", "genre_ids": [28], "id": 533509, "original_language": "en", "original_title": "On the Ropes", "overview": "Following the sudden death of their father, two brothers realize the greatest threat to their criminal empire might just be each other. A no-holds-barred battle for power ensues that threatens to destroy everything their old man built.", "poster_path": "/vaqNize5xphjgShpdYRc9ezO5z5.jpg", "release_date": "2018-07-03", "title": "On the Ropes", "video": false, "vote_average": 5.0, "vote_count": 5, "popularity": 3.868}, {"adult": false, "backdrop_path": "/lhYIgXqEXwQWdTBoiWju0gKkhjA.jpg", "genre_ids": [99], "id": 360150, "original_language": "en", "original_title": "Love Is a Verb", "overview": "Love Is A Verb is an examination of a social movement of Sufi-inspired Sunni Muslims that began in Turkey in the l960s and now spans across the globe. The group is called Hizmet, the Turkish word for \"service\" or The G\u00fclen Movement after its inspiration and teacher, Fethullah G\u00fclen, a man TIME magazine named as one of the most influential leaders in the world in 2013 for \"...preaching a message of tolerance.\"", "poster_path": "/3kPA4EeqiOaq6RTCDcYQzZYQgZs.jpg", "release_date": "2014-04-01", "title": "Love Is a Verb", "video": false, "vote_average": 7.0, "vote_count": 3, "popularity": 1.806}], "total_pages": 2, "total_results": 23}, "credits": {"cast": [{"cast_id": 2, "character": "Herself", "credit_id": "5adddca10e0a2608b000f0dc", "gender": 0, "id": 2028516, "name": "Myrtle Cagle", "order": 1, "profile_path": null}, {"cast_id": 3, "character": "Herself", "credit_id": "5adddcaec3a36862c4036258", "gender": 0, "id": 2028517, "name": "Jerrie Cobb", "order": 2, "profile_path": null}, {"cast_id": 4, "character": "Herself", "credit_id": "5adddcd60e0a2608b000f106", "gender": 0, "id": 2028518, "name": "Wally Funk", "order": 3, "profile_path": null}], "crew": [{"credit_id": "5aa991e49251410e32004742", "department": "Directing", "gender": 2, "id": 86662, "job": "Director", "name": "David Sington", "profile_path": null}, {"credit_id": "5aa992149251410e2f00478d", "department": "Directing", "gender": 0, "id": 1998360, "job": "Director", "name": "Heather Walsh", "profile_path": null}, {"credit_id": "5de92105a313b8001293d4cd", "department": "Production", "gender": 0, "id": 2475922, "job": "Co-Producer", "name": "Eimhear O'Neill", "profile_path": null}]}}