{"adult": false, "backdrop_path": "/mcWzjPVqqwStQYnjLxZAmsSuJjU.jpg", "belongs_to_collection": null, "budget": 0, "genres": [{"id": 18, "name": "Drama"}], "homepage": "", "id": 512056, "imdb_id": "tt7493370", "original_language": "el", "original_title": "Adults in the Room", "overview": "A universal theme: a story of people trapped in an inhuman network of power. The brutal circle of the Eurogroup meetings, who impose on Greece the dictatorship of austerity, where humanity and compassion are utterly disregarded. A claustrophobic trap with no way out, exerting pressures on the protagonists which finally divide them.", "popularity": 3.843, "poster_path": "/axFXbZ3c3TNpa4xxXn3X4y0zWOm.jpg", "production_companies": [{"id": 13837, "logo_path": null, "name": "K.G Productions", "origin_country": ""}, {"id": 20678, "logo_path": null, "name": "Odeon", "origin_country": ""}, {"id": 83, "logo_path": "/9OQ0rm55xtlgX7KcAKMUePJSrQc.png", "name": "France 2 Cin\u00e9ma", "origin_country": "FR"}, {"id": 856, "logo_path": "/3tfzS2CrX6Ntbu927XzHXEPDA6y.png", "name": "Wild Bunch", "origin_country": "FR"}], "production_countries": [{"iso_3166_1": "FR", "name": "France"}, {"iso_3166_1": "GR", "name": "Greece"}], "release_date": "2019-10-03", "revenue": 0, "runtime": 124, "spoken_languages": [{"iso_639_1": "el", "name": "\u03b5\u03bb\u03bb\u03b7\u03bd\u03b9\u03ba\u03ac"}, {"iso_639_1": "de", "name": "Deutsch"}, {"iso_639_1": "en", "name": "English"}, {"iso_639_1": "fr", "name": "Fran\u00e7ais"}], "status": "Released", "tagline": "", "title": "Adults in the Room", "video": false, "vote_average": 7.1, "vote_count": 21, "keywords": {"keywords": [{"id": 1200, "name": "greece"}, {"id": 5565, "name": "biography"}, {"id": 195769, "name": "european union"}]}, "similar": {"page": 1, "results": [{"adult": false, "backdrop_path": "/nU6DDTabbMkd3649WYtSiOdHCMC.jpg", "genre_ids": [18, 10749], "id": 332283, "original_language": "en", "original_title": "Mary Shelley", "overview": "The love affair between poet Percy Shelley and Mary Wollstonecraft Godwin resulted in the creation of an immortal novel, \u201cFrankenstein; or, The Modern Prometheus.\u201d", "poster_path": "/gKHJTsrfxJtfFNPQJn2hDNEMtFf.jpg", "release_date": "2018-04-22", "title": "Mary Shelley", "video": false, "vote_average": 7.1, "vote_count": 516, "popularity": 12.227}, {"adult": false, "backdrop_path": "/urnGzQvP8fwWWGkn1k809KqIjbm.jpg", "genre_ids": [18], "id": 87093, "original_language": "en", "original_title": "Big Eyes", "overview": "The story of the awakening of painter, Margaret Keane, her phenomenal success in the 1950s, and the subsequent legal difficulties she had with her husband, who claimed credit for her works in the 1960s.", "poster_path": "/z2tqzprHojhgEGYKQepjU28oQg6.jpg", "release_date": "2014-12-24", "title": "Big Eyes", "video": false, "vote_average": 7.0, "vote_count": 2349, "popularity": 14.024}, {"id": 5915, "video": false, "vote_count": 6283, "vote_average": 7.8, "title": "Into the Wild", "release_date": "2007-09-11", "original_language": "en", "original_title": "Into the Wild", "genre_ids": [12, 18], "backdrop_path": "/9yJehIjvR7ULOLxeDJoth4kDDNe.jpg", "adult": false, "overview": "After graduating from Emory University in 1992, top student and athlete Christopher McCandless abandons his possessions, gives his entire $24,000 savings account to charity, and hitchhikes to Alaska to live in the wilderness.", "poster_path": "/lHyYgaocXR6KcJLxVmxZDj115hH.jpg", "popularity": 13.103}, {"id": 457799, "video": false, "vote_count": 1572, "vote_average": 7.0, "title": "Extremely Wicked, Shockingly Evil and Vile", "release_date": "2019-05-02", "original_language": "en", "original_title": "Extremely Wicked, Shockingly Evil and Vile", "genre_ids": [80, 18, 53], "backdrop_path": "/uRoA67sM5vvCI4cplxhl67BTPly.jpg", "adult": false, "overview": "A chronicle of the crimes of Ted Bundy, from the perspective of his longtime girlfriend, Elizabeth Kloepfer, who refused to believe the truth about him for years.", "poster_path": "/zSuJ3r5zr5T26tTxyygHhgkUAIM.jpg", "popularity": 22.062}, {"id": 396371, "video": false, "vote_count": 1970, "vote_average": 7.1, "title": "Molly's Game", "release_date": "2017-12-25", "original_language": "en", "original_title": "Molly's Game", "genre_ids": [80, 18], "backdrop_path": "/rHcBZ6ZKCe4FalWHyvBGsyMsh0k.jpg", "adult": false, "overview": "Molly Bloom, a young skier and former Olympic hopeful becomes a successful entrepreneur (and a target of an FBI investigation) when she establishes a high-stakes, international poker game.", "poster_path": "/in43bQ7k0ttr666IPP94IlbQbTR.jpg", "popularity": 18.141}, {"id": 300671, "video": false, "vote_count": 1700, "vote_average": 7.1, "title": "13 Hours: The Secret Soldiers of Benghazi", "release_date": "2016-01-13", "original_language": "en", "original_title": "13 Hours: The Secret Soldiers of Benghazi", "genre_ids": [28, 18, 36, 53, 10752], "backdrop_path": "/hY8myWhjSOUeeiPskhOfwwgaCwc.jpg", "adult": false, "overview": "An American Ambassador is killed during an attack at a U.S. compound in Libya as a security team struggles to make sense out of the chaos.", "poster_path": "/4gpW4MkRI0BB17GHOJzXq0WamDP.jpg", "popularity": 20.173}, {"id": 401847, "video": false, "vote_count": 664, "vote_average": 6.8, "title": "Can You Ever Forgive Me?", "release_date": "2018-10-19", "original_language": "en", "original_title": "Can You Ever Forgive Me?", "genre_ids": [35, 80, 18], "backdrop_path": "/shIOFWkjTn2NRvq5r4Mn2xLdZeJ.jpg", "adult": false, "overview": "When a bestselling celebrity biographer is no longer able to get published because she has fallen out of step with current tastes, she turns her art form to deception.", "poster_path": "/hPuZR2bFoV0kuBrA98exWyvTf40.jpg", "popularity": 16.339}, {"id": 316029, "video": false, "vote_count": 5853, "vote_average": 8.0, "title": "The Greatest Showman", "release_date": "2017-12-20", "original_language": "en", "original_title": "The Greatest Showman", "genre_ids": [18], "backdrop_path": "/zpq404Sk7qQ7N4x3xOeNgp74GtU.jpg", "adult": false, "overview": "The story of American showman P.T. Barnum, founder of the circus that became the famous traveling Ringling Bros. and Barnum & Bailey Circus.", "poster_path": "/b9CeobiihCx1uG1tpw8hXmpi7nm.jpg", "popularity": 29.077}, {"id": 334543, "video": false, "vote_count": 4306, "vote_average": 8.1, "title": "Lion", "release_date": "2016-11-24", "original_language": "en", "original_title": "Lion", "genre_ids": [18], "backdrop_path": "/fgffluhvdOv79SkYaKrfRA0xkf4.jpg", "adult": false, "overview": "A five-year-old Indian boy gets lost on the streets of Calcutta, thousands of kilometers from home. He survives many challenges before being adopted by a couple in Australia; 25 years later, he sets out to find his lost family.", "poster_path": "/iBGRbLvg6kVc7wbS8wDdVHq6otm.jpg", "popularity": 30.623}, {"adult": false, "backdrop_path": "/fJQ5kjLx4UdK05MC323Vlzwr6S8.jpg", "genre_ids": [35, 18, 36], "id": 140823, "original_language": "en", "original_title": "Saving Mr. Banks", "overview": "Author P.L. Travers travels from London to Hollywood as Walt Disney Pictures adapts her novel Mary Poppins for the big screen.", "poster_path": "/mvs3reS18RP6IhjLwwLeVtkoeg0.jpg", "release_date": "2013-11-16", "title": "Saving Mr. Banks", "video": false, "vote_average": 7.4, "vote_count": 2230, "popularity": 11.476}, {"adult": false, "backdrop_path": "/jK3EAFk3GdOaQfUDCOiTujzMpwH.jpg", "genre_ids": [18], "id": 389015, "original_language": "en", "original_title": "I, Tonya", "overview": "Competitive ice skater Tonya Harding rises amongst the ranks at the U. S. Figure Skating Championships, but her future in the sport is thrown into doubt when her ex-husband intervenes.", "poster_path": "/6gNXwSHxaksR1PjVZRqNapmkgj3.jpg", "release_date": "2017-12-08", "title": "I, Tonya", "video": false, "vote_average": 7.5, "vote_count": 3332, "popularity": 20.099}, {"id": 369972, "video": false, "vote_count": 3001, "vote_average": 7.1, "title": "First Man", "release_date": "2018-10-11", "original_language": "en", "original_title": "First Man", "genre_ids": [18, 36], "backdrop_path": "/jrudoaXcoLyHRPdolyOGemXgPEs.jpg", "adult": false, "overview": "A look at the life of the astronaut, Neil Armstrong, and the legendary space mission that led him to become the first man to walk on the Moon on July 20, 1969.", "poster_path": "/i91mfvFcPPlaegcbOyjGgiWfZzh.jpg", "popularity": 27.464}, {"id": 318846, "video": false, "vote_count": 5227, "vote_average": 7.3, "title": "The Big Short", "release_date": "2015-12-11", "original_language": "en", "original_title": "The Big Short", "genre_ids": [35, 18], "backdrop_path": "/6UyMLbe0lAPqfZLtVllAwBNFIis.jpg", "adult": false, "overview": "The men who made millions from a global economic meltdown.", "poster_path": "/p11Ftd4VposrAzthkhF53ifYZRl.jpg", "popularity": 25.578}, {"id": 424, "video": false, "vote_count": 8988, "vote_average": 8.6, "title": "Schindler's List", "release_date": "1993-11-30", "original_language": "en", "original_title": "Schindler's List", "genre_ids": [18, 36, 10752], "backdrop_path": "/cTNYRUTXkBgPH3wP3kmPUB5U6dA.jpg", "adult": false, "overview": "The true story of how businessman Oskar Schindler saved over a thousand Jewish lives from the Nazis while they worked as slaves in his factory during World War II.", "poster_path": "/yPisjyLweCl1tbgwgtzBCNCBle.jpg", "popularity": 25.457}, {"id": 424694, "video": false, "vote_count": 9728, "vote_average": 8.0, "title": "Bohemian Rhapsody", "release_date": "2018-10-24", "original_language": "en", "original_title": "Bohemian Rhapsody", "genre_ids": [18, 10402], "backdrop_path": "/93xA62uLd5CwMOAs37eQ7vPc1iV.jpg", "adult": false, "overview": "Singer Freddie Mercury, guitarist Brian May, drummer Roger Taylor and bass guitarist John Deacon take the music world by storm when they form the rock 'n' roll band Queen in 1970. Hit songs become instant classics. When Mercury's increasingly wild lifestyle starts to spiral out of control, Queen soon faces its greatest challenge yet \u2013 finding a way to keep the band together amid the success and excess.", "poster_path": "/lHu1wtNaczFPGFDTrjCSzeLPTKN.jpg", "popularity": 37.217}, {"adult": false, "backdrop_path": "/msOjpu9wigi6n1Xa51MeLcBue88.jpg", "genre_ids": [18, 36, 10752, 10749], "id": 468224, "original_language": "en", "original_title": "Tolkien", "overview": "England, early 20th century. The future writer and philologist John Ronald Reuel Tolkien (1892-1973) and three of his schoolmates create a strong bond between them as they share the same passion for literature and art, a true fellowship that strengthens as they grow up, but the outbreak of World War I threatens to shatter it.", "poster_path": "/A7eYO3t7oZQdfJj5KlJBI7GhT9H.jpg", "release_date": "2019-05-03", "title": "Tolkien", "video": false, "vote_average": 6.8, "vote_count": 453, "popularity": 15.582}, {"id": 399404, "video": false, "vote_count": 3041, "vote_average": 7.3, "title": "Darkest Hour", "release_date": "2017-11-22", "original_language": "en", "original_title": "Darkest Hour", "genre_ids": [18, 36], "backdrop_path": "/zXwFJMwvQcJFitP9GcHZvHAHGe8.jpg", "adult": false, "overview": "A thrilling and inspiring true story begins on the eve of World War II as, within days of becoming Prime Minister of Great Britain, Winston Churchill must face one of his most turbulent and defining trials: exploring a negotiated peace treaty with Nazi Germany, or standing firm to fight for the ideals, liberty and freedom of a nation. As the unstoppable Nazi forces roll across Western Europe and the threat of invasion is imminent, and with an unprepared public, a skeptical King, and his own party plotting against him, Churchill must withstand his darkest hour, rally a nation, and attempt to change the course of world history.", "poster_path": "/z0K8uoNbrYKkbaP7wIeadJ4BmSL.jpg", "popularity": 21.82}, {"adult": false, "backdrop_path": "/ei0BdAPDALPp21OEZqknG43WOmO.jpg", "genre_ids": [18, 80], "id": 640, "original_language": "en", "original_title": "Catch Me If You Can", "overview": "A true story about Frank Abagnale Jr. who, before his 19th birthday, successfully conned millions of dollars worth of checks as a Pan Am pilot, doctor, and legal prosecutor. An FBI agent makes it his mission to put him behind bars. But Frank not only eludes capture, he revels in the pursuit.", "poster_path": "/MywWCQGJNUr5kivAQ7eseCG7rm.jpg", "release_date": "2002-12-25", "title": "Catch Me If You Can", "video": false, "vote_average": 7.9, "vote_count": 8316, "popularity": 24.779}, {"id": 324786, "video": false, "vote_count": 7336, "vote_average": 8.1, "title": "Hacksaw Ridge", "release_date": "2016-10-07", "original_language": "en", "original_title": "Hacksaw Ridge", "genre_ids": [18, 36, 10752], "backdrop_path": "/zBK4QZONMQXhcgaJv1YYTdCW7q9.jpg", "adult": false, "overview": "WWII American Army Medic Desmond T. Doss, who served during the Battle of Okinawa, refuses to kill people and becomes the first Conscientious Objector in American history to receive the Congressional Medal of Honor.", "poster_path": "/bndiUFfJxNd2fYx8XO610L9a07m.jpg", "popularity": 23.616}, {"adult": false, "backdrop_path": "/sw7mordbZxgITU877yTpZCud90M.jpg", "genre_ids": [18, 80], "id": 769, "original_language": "en", "original_title": "GoodFellas", "overview": "The true story of Henry Hill, a half-Irish, half-Sicilian Brooklyn kid who is adopted by neighbourhood gangsters at an early age and climbs the ranks of a Mafia family under the guidance of Jimmy Conway.", "poster_path": "/pwpGfTImTGifEGgLb3s6LRPd4I6.jpg", "release_date": "1990-09-12", "title": "GoodFellas", "video": false, "vote_average": 8.4, "vote_count": 6559, "popularity": 36.135}], "total_pages": 190, "total_results": 3786}, "recommendations": {"page": 1, "results": [{"adult": false, "backdrop_path": "/bNmmCx66sN7FPZ8g79gHsQjemqW.jpg", "genre_ids": [18], "id": 396253, "original_language": "fr", "original_title": "Diamond Island", "overview": "Bora, an 18-year-old, leaves his village to work on the construction sites of Diamond Island, a project for an ultra-modern paradise for the rich and a symbol of tomorrow\u2019s Cambodia. He befriends his fellow workers and finds his elder brother, the charismatic Solei, who went missing five years earlier. Solei introduces him into an exciting world, that of an urban and wealthy youth, its girls, nights and illusions.", "poster_path": "/ecwPXOYc1f8rxANb4xdAo90Ku1y.jpg", "release_date": "2016-12-28", "title": "Diamond Island", "video": false, "vote_average": 7.9, "vote_count": 12, "popularity": 1.447}, {"id": 592480, "video": false, "vote_count": 54, "vote_average": 7.0, "title": "Alice and the Mayor", "release_date": "2019-10-02", "original_language": "fr", "original_title": "Alice et le maire", "genre_ids": [35, 18], "backdrop_path": "/ZLvIuzn0CVvgEjuVvDSfl2bsp6.jpg", "adult": false, "overview": "The mayor of Lyon, Paul Th\u00e9raneau, is in a delicate position. After 30 years in politics, he is running out of ideas, feeling like an existential emptiness. To overcome this, Paul hires a young and brilliant philosopher, Alice Heimann. Then follows a dialogue between two diametrically opposed personalities who will turn their certainties upside down.", "poster_path": "/O7vbzSGmP7nl0mGvCP9HwKWkAK.jpg", "popularity": 6.047}, {"id": 592798, "video": false, "vote_count": 28, "vote_average": 7.0, "title": "The Bare Necessity", "release_date": "2019-08-14", "original_language": "fr", "original_title": "Perdrix", "genre_ids": [35, 18, 10749], "backdrop_path": "/qtzdeFXDzGyCQzPq8Awq3ioMbcA.jpg", "adult": false, "overview": "Pierre Perdrix has been enjoying an enchanted though restless existence since the enigmatic Juliette Webb burst into his life. a stranger who landed in his family's unique world like a meteorite, and who by her presence alone will force this tight-knit microcosm to redefie their boundaries and finally begin to fully live their lives.", "poster_path": "/9K3ULLZx4NqtSBskjagxFXpaASB.jpg", "popularity": 5.467}, {"id": 543636, "video": false, "vote_count": 17, "vote_average": 6.4, "title": "Tout ce qu'il me reste de la r\u00e9volution", "release_date": "2019-02-06", "original_language": "fr", "original_title": "Tout ce qu'il me reste de la r\u00e9volution", "genre_ids": [35, 18], "backdrop_path": "/nFY7pUIWPUVLQy8hnw70GmdTWGn.jpg", "adult": false, "overview": "", "poster_path": "/rQz3uz5Xe9uLO6GvGfSabB9kdj6.jpg", "popularity": 2.363}, {"adult": false, "backdrop_path": "/cO4TRe1GE1XLb5NaUv3lIdyHI6z.jpg", "genre_ids": [18], "id": 592807, "original_language": "ar", "original_title": "Papicha", "overview": "Algiers, 1997. The country is in the hands of terrorist groups, seeking to establish an Islamic and archaic state. Women are particularly affected and oppressed by primitive diktas, who seek to take control of their bodies and control their passage through the public space. While a frenzied hunt for women unveiled is launched, Nedjma, a young student passionate about fashion, is determined to federate the girls of her campus to organize a fashion show braving all the forbidden.", "poster_path": "/amxwipsiqeaHouqglgHn6cImhf7.jpg", "release_date": "2019-10-09", "title": "Papicha", "video": false, "vote_average": 8.1, "vote_count": 38, "popularity": 2.641}, {"id": 595867, "video": false, "vote_count": 61, "vote_average": 6.9, "title": "On a Magical Night", "release_date": "2019-10-09", "original_language": "fr", "original_title": "Chambre 212", "genre_ids": [35], "backdrop_path": "/opXWsle6HPKVJ0mqFtlCPLuXWok.jpg", "adult": false, "overview": "After 20 years of marriage, Maria decides to leave her husband. She moves into room 212 at the hotel across the street, with a bird\u2019s-eye view of her apartment, her husband and the life she shared with him. While she wonders if she made the right decision, many of the people in her life offer their opinions on the matter. They intend to let her know, whether she likes it or not, on what proves to be a life-changing evening.", "poster_path": "/x4BXC3jK6RtMjcA0gDSp4JMjhkY.jpg", "popularity": 5.429}, {"id": 537651, "video": false, "vote_count": 24, "vote_average": 7.0, "title": "Sibel", "release_date": "2019-01-04", "original_language": "tr", "original_title": "Sibel", "genre_ids": [18], "backdrop_path": "/dt1YyvCpShKW22mT9JLAIj1BuIS.jpg", "adult": false, "overview": "25-year-old Sibel lives with her father and sister in a secluded village in the mountains of Turkey\u2019s Black Sea region. Sibel is a mute, but she communicates by using the ancestral whistled language of the area.", "poster_path": "/k9e3nsRMVlwaraQmn4NUIRET5qa.jpg", "popularity": 3.308}, {"id": 539056, "video": false, "vote_count": 34, "vote_average": 7.0, "title": "Tel Aviv on Fire", "release_date": "2018-08-23", "original_language": "he", "original_title": "Tel Aviv on Fire", "genre_ids": [35], "backdrop_path": "/b1h7Oif2rA8NqaDPMcTiYcnG3ut.jpg", "adult": false, "overview": "Salam, an inexperienced young Palestinian man, becomes a writer on a popular soap opera after a chance meeting with an Israeli soldier. His creative career is on the rise - until the soldier and the show's financial backers disagree about how the show should end, and Salam is caught in the middle.", "poster_path": "/ryzojLKm8xEYu1F2sme8rFo1Qoy.jpg", "popularity": 2.225}], "total_pages": 1, "total_results": 8}, "credits": {"cast": [{"cast_id": 4, "character": "Yanis Varoufakis", "credit_id": "5d3b7764d3719700119a5bb3", "gender": 2, "id": 980217, "name": "Christos Loulis", "order": 1, "profile_path": "/7GaDmSop0OG6JrLnhiszIJgAKVh.jpg"}, {"cast_id": 5, "character": "Alexis Tsipras", "credit_id": "5d3b7778d37197000f9a5b9f", "gender": 0, "id": 1605840, "name": "Alexandros Bourdoumis", "order": 2, "profile_path": null}, {"cast_id": 6, "character": "Wolfgang Sch\u00e4uble", "credit_id": "5d3b779f8fdda90014123d94", "gender": 2, "id": 8198, "name": "Ulrich Tukur", "order": 3, "profile_path": "/assJYvivgfukHFWim6o9T3sUmu9.jpg"}, {"cast_id": 7, "character": "Christine Lagarde", "credit_id": "5d3b77baa6ddcb0012ea43d6", "gender": 0, "id": 2371819, "name": "Josiane Pinson", "order": 4, "profile_path": null}, {"cast_id": 8, "character": "Efklis", "credit_id": "5d3b77c4713ea60012fe25f4", "gender": 0, "id": 2371820, "name": "Dimitris Tarlow", "order": 5, "profile_path": null}, {"cast_id": 9, "character": "Jeroen Dijsselbloem", "credit_id": "5d3b77cdd8d329001580671e", "gender": 0, "id": 82456, "name": "Daan Schuurmans", "order": 6, "profile_path": "/9ytnHzJ3HHQWvJbKpuNwX087W22.jpg"}, {"cast_id": 10, "character": "Sakis", "credit_id": "5d3b77d7d3719700139a5a75", "gender": 0, "id": 122428, "name": "Christos Stergioglou", "order": 7, "profile_path": "/6qsXPyQ85tVejBrnK6WCeK3o2Xz.jpg"}, {"cast_id": 11, "character": "Danae Stratou", "credit_id": "5d3b77eb8fdda955ef123419", "gender": 1, "id": 3124, "name": "Valeria Golino", "order": 8, "profile_path": "/6UmnZGoZkmqMrkTY1roIkCzB4rn.jpg"}, {"cast_id": 12, "character": "Pierre Moscovici", "credit_id": "5d3b77f4713ea6000ffe2457", "gender": 2, "id": 15482, "name": "Aur\u00e9lien Recoing", "order": 9, "profile_path": "/pJpoKybetgI8GIY3vPKbyIurtb.jpg"}, {"cast_id": 13, "character": "Michel Sapin", "credit_id": "5d3b77fcd8d3290016806427", "gender": 2, "id": 230078, "name": "Vincent Nemeth", "order": 10, "profile_path": "/e2uRhuzOopokatHFYFHap0r72af.jpg"}, {"cast_id": 14, "character": "Wims", "credit_id": "5d3b7806d2b20900112ce316", "gender": 2, "id": 932671, "name": "Cornelius Obonya", "order": 11, "profile_path": "/vuANwbeywKMcqaoEfW1OkXllloo.jpg"}, {"cast_id": 15, "character": "Mario Draghi", "credit_id": "5d3b7811d3719700129a5887", "gender": 2, "id": 1078993, "name": "Francesco Acquaroli", "order": 12, "profile_path": "/djRTttvjXoRDHwdUpQdIngbfBnu.jpg"}], "crew": [{"credit_id": "5d6e4ebd00fb6b0013e047bd", "department": "Writing", "gender": 2, "id": 27436, "job": "Screenplay", "name": "Costa-Gavras", "profile_path": "/qYwJwz88aAf0Uraz79egHt5R1a1.jpg"}, {"credit_id": "5aab3d09c3a3686c0b00a6d0", "department": "Directing", "gender": 2, "id": 27436, "job": "Director", "name": "Costa-Gavras", "profile_path": "/qYwJwz88aAf0Uraz79egHt5R1a1.jpg"}, {"credit_id": "5d6e4ed4a284eb01bf340e5a", "department": "Editing", "gender": 2, "id": 27436, "job": "Editor", "name": "Costa-Gavras", "profile_path": "/qYwJwz88aAf0Uraz79egHt5R1a1.jpg"}, {"credit_id": "5aab3ea1c3a3686c0b00a875", "department": "Writing", "gender": 2, "id": 27436, "job": "Writer", "name": "Costa-Gavras", "profile_path": "/qYwJwz88aAf0Uraz79egHt5R1a1.jpg"}, {"credit_id": "5d3b7861d2b20900142ce102", "department": "Sound", "gender": 2, "id": 2949, "job": "Original Music Composer", "name": "Alexandre Desplat", "profile_path": "/sdGjvOGJqjK1CTbxRedE64Txk0t.jpg"}, {"credit_id": "5d3b7850df857c0014287a19", "department": "Camera", "gender": 2, "id": 20572, "job": "Director of Photography", "name": "Giorgos Arvanitis", "profile_path": "/8h9SwFNVktZlnWah5jaVky2CwBV.jpg"}, {"credit_id": "5d6e4ea79ae61300110b067c", "department": "Production", "gender": 2, "id": 56787, "job": "Producer", "name": "Brahim Chioua", "profile_path": null}, {"credit_id": "5d3b7872d3719700119a5cf8", "department": "Production", "gender": 0, "id": 56840, "job": "Producer", "name": "Mich\u00e8le Ray-Gavras", "profile_path": null}, {"credit_id": "5d6e4ef565686e389988701c", "department": "Art", "gender": 0, "id": 1030407, "job": "Production Design", "name": "Philippe Chiffre", "profile_path": null}, {"credit_id": "5d3b788fd8d3290016806476", "department": "Production", "gender": 0, "id": 1089512, "job": "Producer", "name": "Manos Krezias", "profile_path": null}, {"credit_id": "5d6e4f159ae61300120b09f2", "department": "Sound", "gender": 0, "id": 1561810, "job": "Sound", "name": "Nikos Papadimitriou", "profile_path": null}, {"credit_id": "5d6e4f48a284eb4733341bbd", "department": "Sound", "gender": 2, "id": 1632379, "job": "Sound", "name": "Daniel Sobrino", "profile_path": null}, {"credit_id": "5d6e4eeb00fb6b0012e0489f", "department": "Art", "gender": 0, "id": 1716090, "job": "Production Design", "name": "Spyros Laskaris", "profile_path": null}, {"credit_id": "5d6e4f3d9ae61300130b0851", "department": "Sound", "gender": 0, "id": 1788829, "job": "Sound", "name": "Edouard Morin", "profile_path": null}, {"credit_id": "5d3b787fd2b20900122ce32e", "department": "Production", "gender": 0, "id": 1793832, "job": "Producer", "name": "Alexandre Gavras", "profile_path": null}, {"credit_id": "5d3b7749d2b20900132ce1e6", "department": "Writing", "gender": 2, "id": 1804873, "job": "Novel", "name": "Yanis Varoufakis", "profile_path": "/6e0ye3Fg3MXJhhrbKYIj4rWrRv7.jpg"}, {"credit_id": "5aab3e919251413ff400921f", "department": "Writing", "gender": 2, "id": 1804873, "job": "Writer", "name": "Yanis Varoufakis", "profile_path": "/6e0ye3Fg3MXJhhrbKYIj4rWrRv7.jpg"}, {"credit_id": "5d3b78a58fdda955ef123507", "department": "Production", "gender": 0, "id": 2371823, "job": "Executive Producer", "name": "Kostas Lampropoulos", "profile_path": null}, {"credit_id": "5d6e4edf65686e78bf8780f5", "department": "Editing", "gender": 0, "id": 2402744, "job": "Editor", "name": "Lambis Haralampidis", "profile_path": null}, {"credit_id": "5d6e4f0365686e3899887036", "department": "Costume & Make-Up", "gender": 0, "id": 2402745, "job": "Costume Designer", "name": "Agis Panayotou", "profile_path": null}, {"credit_id": "5d6e4f2000fb6b0011e049b2", "department": "Sound", "gender": 0, "id": 2402746, "job": "Sound", "name": "Marianne Roussy-Moreau", "profile_path": null}, {"credit_id": "5d6e4f2fa284eb4732340747", "department": "Sound", "gender": 0, "id": 2402747, "job": "Sound", "name": "Costas Varibobiotis", "profile_path": null}, {"credit_id": "5d6e4f5865686e43b6877060", "department": "Visual Effects", "gender": 0, "id": 2402748, "job": "Visual Effects", "name": "Beno\u00eet Maffone", "profile_path": null}]}}