{"adult": false, "backdrop_path": "/AuFHevt9J4eSIeQu87wCUfE2ES.jpg", "belongs_to_collection": null, "budget": 0, "genres": [{"id": 27, "name": "Horror"}], "homepage": null, "id": 513297, "imdb_id": "tt6807256", "original_language": "en", "original_title": "Fear Level", "overview": "Increased level of fear, six colliding stories, one roller coaster ride of emotions and terror. What would you do if you caught your significant other in the act or was face to face with your abductors? With twists and turns at every corner you will have the ride of your life on this journey. A journey where you will be dying to find out the unknown. Where curiosity kills the cat and a seductive mistake can be your last. What level are you?", "popularity": 1.919, "poster_path": "/oj7gQO0Aw6G8F3JeEidT0Ina86i.jpg", "production_companies": [], "production_countries": [{"iso_3166_1": "US", "name": "United States of America"}], "release_date": "2018-05-25", "revenue": 0, "runtime": 92, "spoken_languages": [{"iso_639_1": "en", "name": "English"}], "status": "Released", "tagline": "What's your level of fear?", "title": "Fear Level", "video": false, "vote_average": 7.0, "vote_count": 1, "keywords": {"keywords": [{"id": 10183, "name": "independent film"}]}, "similar": {"page": 1, "results": [{"adult": false, "backdrop_path": "/9e5e7dJTMxQeF7zNx0CiJmxXE1I.jpg", "genre_ids": [27, 878, 53], "id": 11309, "original_language": "en", "original_title": "Hardware", "overview": "Mark 13 is a government-built killing machine programmed with artificial intelligence, able to repair and recharge itself from any energy source. Through a series of coincidences, the cyborg's head ends up in the home of a sculptress as a bizarre Christmas present from her boyfriend. Once inside its new home, the cyborg promptly reconstructs the rest of its body using a variety of household utensils and proceeds to go on a murderous rampage.", "poster_path": "/nsFm5xniViTVr1oVUpKmgvlAOEA.jpg", "release_date": "1990-09-14", "title": "Hardware", "video": false, "vote_average": 5.7, "vote_count": 145, "popularity": 10.189}, {"id": 298312, "video": false, "vote_count": 2924, "vote_average": 6.2, "title": "The Visit", "release_date": "2015-09-10", "original_language": "en", "original_title": "The Visit", "genre_ids": [27, 9648, 53], "backdrop_path": "/gbJlEeALVGo7kx8bC2q4EFWX1Xy.jpg", "adult": false, "overview": "The terrifying story of a brother and sister who are sent to their grandparents' remote Pennsylvania farm for a weeklong trip. Once the children discover that the elderly couple is involved in something deeply disturbing, they see their chances of getting back home are growing smaller every day.", "poster_path": "/32tNtTEQ1vIOLm1hEOSFkVwJT5D.jpg", "popularity": 24.632}, {"adult": false, "backdrop_path": "/2Tawvc0JMmR9nBXD3nhBThTQP2X.jpg", "genre_ids": [53, 18, 80, 27], "id": 1359, "original_language": "en", "original_title": "American Psycho", "overview": "A wealthy New York investment banking executive hides his alternate psychopathic ego from his co-workers and friends as he escalates deeper into his illogical, gratuitous fantasies.", "poster_path": "/qXsylPM4Lr5397R3eHrfqHhTUNc.jpg", "release_date": "2000-04-13", "title": "American Psycho", "video": false, "vote_average": 7.4, "vote_count": 4915, "popularity": 21.511}, {"id": 985, "video": false, "vote_count": 1183, "vote_average": 7.6, "title": "Eraserhead", "release_date": "1977-03-19", "original_language": "en", "original_title": "Eraserhead", "genre_ids": [14, 27], "backdrop_path": "/2hUB03FXuG72Zsa4rlXVopEzokm.jpg", "adult": false, "overview": "Henry Spencer tries to survive his industrial environment, his angry girlfriend, and the unbearable screams of his newly born mutant child.", "poster_path": "/l8oAmU5swopsyWzTHpZtAK15Mrc.jpg", "popularity": 13.512}, {"adult": false, "backdrop_path": "/7RRuRcGuWkZGuRyYugfXn0Fgrrr.jpg", "genre_ids": [28, 80, 18, 53], "id": 949, "original_language": "en", "original_title": "Heat", "overview": "Obsessive master thief, Neil McCauley leads a top-notch crew on various daring heists throughout Los Angeles while determined detective, Vincent Hanna pursues him without rest. Each man recognizes and respects the ability and the dedication of the other even though they are aware their cat-and-mouse game may end in violence.", "poster_path": "/6pmLVffM9jEYK7VqDJqPblMxfEY.jpg", "release_date": "1995-12-15", "title": "Heat", "video": false, "vote_average": 7.8, "vote_count": 3615, "popularity": 21.973}, {"id": 4638, "video": false, "vote_count": 4429, "vote_average": 7.5, "title": "Hot Fuzz", "release_date": "2007-02-14", "original_language": "en", "original_title": "Hot Fuzz", "genre_ids": [28, 35, 80], "backdrop_path": "/zuskekrfW3gj9ttXNVhfdHe5n22.jpg", "adult": false, "overview": "As a former London constable, Nicholas Angel finds it difficult to adapt to his new assignment in the sleepy British village of Sandford. Not only does he miss the excitement of the big city, but he also has a well-meaning oaf for a partner. However, when a series of grisly accidents rocks Sandford, Angel smells something rotten in the idyllic village.", "poster_path": "/5Jx6s6VXnunh8wCLgR0YgjwSgjh.jpg", "popularity": 22.387}, {"id": 101, "video": false, "vote_count": 8647, "vote_average": 8.3, "title": "L\u00e9on: The Professional", "release_date": "1994-09-14", "original_language": "en", "original_title": "L\u00e9on: The Professional", "genre_ids": [28, 80, 18], "backdrop_path": "/dXQ7HILRK1Tg33RT64JwbQI7Osh.jpg", "adult": false, "overview": "L\u00e9on, the top hit man in New York, has earned a rep as an effective \"cleaner\". But when his next-door neighbors are wiped out by a loose-cannon DEA agent, he becomes the unwilling custodian of 12-year-old Mathilda. Before long, Mathilda's thoughts turn to revenge, and she considers following in L\u00e9on's footsteps.", "poster_path": "/gE8S02QUOhVnAmYu4tcrBlMTujz.jpg", "popularity": 41.351}, {"adult": false, "backdrop_path": "/tG7ydFmDr2Y1kecUCM6foFxmJjP.jpg", "genre_ids": [27, 37, 35], "id": 10212, "original_language": "en", "original_title": "Ravenous", "overview": "Upon receiving reports of missing persons at Fort Spencer, a remote Army outpost on the Western frontier, Capt. John Boyd investigates. After arriving at his new post, Boyd and his regiment aid a wounded frontiersman who recounts a horrifying tale of a wagon train murdered by its supposed guide -- a vicious U.S. Army colonel gone rogue. Fearing the worst, the regiment heads out into the wilderness to verify the gruesome claims.", "poster_path": "/spwvStEA4CraTXPOcONrDzncXOZ.jpg", "release_date": "1999-03-16", "title": "Ravenous", "video": false, "vote_average": 6.8, "vote_count": 271, "popularity": 10.22}, {"adult": false, "backdrop_path": "/kQyeXce1ozYryHichnEserMAByN.jpg", "genre_ids": [28, 80, 18, 53], "id": 11564, "original_language": "en", "original_title": "Class of 1984", "overview": "Andy is a new teacher at a inner city high school that is like nothing he has ever seen before. There is metal detectors at the front door and everything is basically run by a tough kid named Peter Stegman. Soon, Andy and Stegman become enemies and Stegman will stop at nothing to protect his turf and drug dealing business.", "poster_path": "/whDnqSYg4yYgVzbVhLSjzC5piUR.jpg", "release_date": "1982-08-20", "title": "Class of 1984", "video": false, "vote_average": 6.2, "vote_count": 121, "popularity": 11.911}, {"id": 83542, "video": false, "vote_count": 4861, "vote_average": 6.8, "title": "Cloud Atlas", "release_date": "2012-10-26", "original_language": "en", "original_title": "Cloud Atlas", "genre_ids": [18, 878], "backdrop_path": "/2ZA03KiD4jePTNBTJjGGFTNQPMA.jpg", "adult": false, "overview": "A set of six nested stories spanning time between the 19th century and a distant post-apocalyptic future. Cloud Atlas explores how the actions and consequences of individual lives impact one another throughout the past, the present and the future. Action, mystery and romance weave through the story as one soul is shaped from a killer into a hero and a single act of kindness ripples across centuries to inspire a revolution in the distant future.  Based on the award winning novel by David Mitchell. Directed by Tom Tykwer and the Wachowskis.", "poster_path": "/8VNiyIp67ZxhpNgdrwACW0jgvP2.jpg", "popularity": 19.113}, {"id": 616584, "video": false, "vote_count": 92, "vote_average": 7.5, "title": "K-12", "release_date": "2019-09-05", "original_language": "en", "original_title": "K-12", "genre_ids": [14, 27, 10402], "backdrop_path": "/fSlfaF0Ydfr2SK6hOYHvDsb7a9Z.jpg", "adult": false, "overview": "Cry Baby, a strong and sensitive girl, is sent off to a disturbing sleepaway school that\u2019s hidden underneath a grandiose fa\u00e7ade. Luckily, she has a sweet and unapologetic best friend who sticks up for her when she gets bullied by the other students whose brains are under control by the Principal and his wicked staff. With the help of the magical friends they meet along the way, as well as an Angelic Spirit Guide, they are able to gain the strength they need to fight off the school\u2019s belligerent patriarchal conditioning.", "poster_path": "/nVi0yBBPj5Z96JgGWVIg94kv7bR.jpg", "popularity": 15.107}, {"adult": false, "backdrop_path": "/20IgqkdFw5kuItqDCJtidSESP0t.jpg", "genre_ids": [27, 18], "id": 10066, "original_language": "en", "original_title": "House of Wax", "overview": "A group of unwitting teens are stranded near a strange wax museum and soon must fight to survive and keep from becoming the next exhibit.", "poster_path": "/uM1RebQywM5PPYsauayefpXGxVk.jpg", "release_date": "2005-04-30", "title": "House of Wax", "video": false, "vote_average": 5.7, "vote_count": 1532, "popularity": 16.398}, {"adult": false, "backdrop_path": "/8DkJrxEyRN8gTseEhajybpC5smK.jpg", "genre_ids": [27], "id": 10585, "original_language": "en", "original_title": "Child's Play", "overview": "A single mother gives her son a beloved doll for his birthday, only to discover that it is possessed by the soul of a serial killer.", "poster_path": "/dSX9i2buibfyKFRpK2kOe6rtl5R.jpg", "release_date": "1988-11-08", "title": "Child's Play", "video": false, "vote_average": 6.5, "vote_count": 1416, "popularity": 20.547}, {"adult": false, "backdrop_path": "/hm4vpIhBW75bTIDTurq2d4rLZy1.jpg", "genre_ids": [53, 18, 27], "id": 3511, "original_language": "en", "original_title": "The Broken", "overview": "The life of a successful radiologist spirals out of control when she sees the spitting image of herself driving down a London street. While attempting to uncover who the imposter could be, she stumbles into a terrifying mystery that her family and closest friends are somehow involved in, leaving her with no one to trust.", "poster_path": "/nGTUsccLUZhF9Bb5fjvL7KrogvC.jpg", "release_date": "2008-01-18", "title": "The Broken", "video": false, "vote_average": 5.5, "vote_count": 113, "popularity": 10.122}, {"adult": false, "backdrop_path": "/4L1MSZo8dQ20x4AhBDKfDs1cOjs.jpg", "genre_ids": [27, 53], "id": 9728, "original_language": "en", "original_title": "Friday the 13th Part III", "overview": "An idyllic summer turns into a nightmare of unspeakable terror for yet another group of naive counselors. Ignoring Camp Crystal Lake's bloody legacy, one by one they fall victim to the maniacal Jason who stalks them at every turn.", "poster_path": "/5wg2NZyIhcMbIBAahBODXHyJ54S.jpg", "release_date": "1982-08-13", "title": "Friday the 13th Part III", "video": false, "vote_average": 5.8, "vote_count": 634, "popularity": 15.501}, {"adult": false, "backdrop_path": "/zfs9QuKkZL6ZCluGvjo5Pk49aMv.jpg", "genre_ids": [27, 9648, 53], "id": 16938, "original_language": "en", "original_title": "Black Christmas", "overview": "A sorority house is terrorized by a stranger who makes frightening phone calls and then murders the sorority sisters during Christmas break.", "poster_path": "/qqO98sdPgptFgCua3Z4uZDuPcmP.jpg", "release_date": "1974-10-11", "title": "Black Christmas", "video": false, "vote_average": 6.9, "vote_count": 307, "popularity": 10.097}, {"id": 641366, "video": false, "vote_count": 0, "vote_average": 0.0, "title": "El hombre Perfecto", "release_date": "2019-12-22", "original_language": "es", "original_title": "El hombre Perfecto", "genre_ids": [27, 53], "backdrop_path": "/q7qvb2IGvFvA86QPin04D4zh8Wv.jpg", "adult": false, "overview": "", "poster_path": "/5ypbGdZrUUwYVpnBR1gFJ8JCO4h.jpg", "popularity": 1.107}, {"adult": false, "backdrop_path": "/zWGAnbxjjwY3xFGuOeR26LGbBlG.jpg", "genre_ids": [27, 53], "id": 238636, "original_language": "en", "original_title": "The Purge: Anarchy", "overview": "One night per year, the government sanctions a 12-hour period in which citizens can commit any crime they wish -- including murder -- without fear of punishment or imprisonment. Leo, a sergeant who lost his son, plans a vigilante mission of revenge during the mayhem. However, instead of a death-dealing avenger, he becomes the unexpected protector of four innocent strangers who desperately need his help if they are to survive the night.", "poster_path": "/l1DRl40x2OWUoPP42v8fjKdS1Z3.jpg", "release_date": "2014-07-17", "title": "The Purge: Anarchy", "video": false, "vote_average": 6.6, "vote_count": 4145, "popularity": 36.766}, {"id": 442249, "video": false, "vote_count": 2159, "vote_average": 5.8, "title": "The First Purge", "release_date": "2018-07-04", "original_language": "en", "original_title": "The First Purge", "genre_ids": [28, 27, 878, 53], "backdrop_path": "/r4clWIxKeWoqrHspQP0XunuUmB7.jpg", "adult": false, "overview": "To push the crime rate below one percent for the rest of the year, the New Founding Fathers of America test a sociological theory that vents aggression for one night in one isolated community. But when the violence of oppressors meets the rage of the others, the contagion will explode from the trial-city borders and spread across the nation.", "poster_path": "/litjsBoiydO6JlO70uOX4N3WnNL.jpg", "popularity": 27.656}, {"adult": false, "backdrop_path": "/o4psXh7IVD6GFKvBSHjHLzjL2lV.jpg", "genre_ids": [27, 53], "id": 10781, "original_language": "en", "original_title": "The Texas Chainsaw Massacre: The Beginning", "overview": "Chrissie and her friends set out on a road trip for a final fling before one is shipped off to Vietnam. Along the way, bikers harass the foursome and cause an accident that throws Chrissie from the vehicle. The lawman who arrives on the scene kills one of the bikers and brings Chrissie's friends to the Hewitt homestead, where young Leatherface is learning the tools of terror.", "poster_path": "/9elCJIG1TOJ0wew3JVx5ZMkHq5w.jpg", "release_date": "2006-10-06", "title": "The Texas Chainsaw Massacre: The Beginning", "video": false, "vote_average": 6.0, "vote_count": 936, "popularity": 19.211}], "total_pages": 1097, "total_results": 21925}, "recommendations": {"page": 1, "results": [], "total_pages": 1, "total_results": 0}, "credits": {"cast": [{"cast_id": 6, "character": "Pete", "credit_id": "5ab30e599251411be10032a4", "gender": 0, "id": 1338033, "name": "Jason K Wixom", "order": 1, "profile_path": "/VeDWOWWiGXXXEy9n640pfFt5uq.jpg"}, {"cast_id": 7, "character": "Correctional Officer", "credit_id": "5ab30e7c9251411bea0031ba", "gender": 0, "id": 1776841, "name": "Tua Kealoha", "order": 2, "profile_path": null}, {"cast_id": 8, "character": "Nancy", "credit_id": "5ab30e9bc3a36863bf002cf8", "gender": 0, "id": 130799, "name": "Kannika Coley", "order": 3, "profile_path": null}, {"cast_id": 9, "character": "Betty", "credit_id": "5ab30ead0e0a267e6a00357b", "gender": 0, "id": 2004497, "name": "Cici Chambers", "order": 4, "profile_path": null}, {"cast_id": 10, "character": "Lindsey", "credit_id": "5ab30ede0e0a265f27000035", "gender": 1, "id": 1906746, "name": "Savannah Meyer", "order": 5, "profile_path": "/ofGhcARZBKorFVka3iye1qbfiGn.jpg"}, {"cast_id": 11, "character": "John / Clown 1", "credit_id": "5ab30f0fc3a3686197000023", "gender": 0, "id": 2004499, "name": "Jake Tase", "order": 6, "profile_path": null}, {"cast_id": 12, "character": "Craig / Clown 2", "credit_id": "5ab30f260e0a265f24000076", "gender": 0, "id": 2004530, "name": "Damarr Jones", "order": 7, "profile_path": null}, {"cast_id": 13, "character": "Jessica", "credit_id": "5ab30f489251417af90000a5", "gender": 0, "id": 2004498, "name": "Lacie Nicole James", "order": 8, "profile_path": null}, {"cast_id": 14, "character": "Terrance", "credit_id": "5ab30f669251417b080000b3", "gender": 0, "id": 2004495, "name": "Chapell Griggs", "order": 9, "profile_path": null}], "crew": [{"credit_id": "5ab30d9f0e0a267e64003773", "department": "Directing", "gender": 2, "id": 2004494, "job": "Director", "name": "J.D. Allen", "profile_path": "/we7JMtrbrZ2oDSdDfClANclwqDJ.jpg"}, {"credit_id": "5ab30dd10e0a267e610034ff", "department": "Writing", "gender": 2, "id": 2004494, "job": "Writer", "name": "J.D. Allen", "profile_path": "/we7JMtrbrZ2oDSdDfClANclwqDJ.jpg"}, {"credit_id": "5ab30de30e0a267e6700392b", "department": "Writing", "gender": 0, "id": 2004495, "job": "Writer", "name": "Chapell Griggs", "profile_path": null}, {"credit_id": "5ab30df60e0a267e6d003492", "department": "Writing", "gender": 0, "id": 2004676, "job": "Writer", "name": "Amanda Deheroghe", "profile_path": null}, {"credit_id": "5ab30e0c0e0a267e67003958", "department": "Writing", "gender": 0, "id": 2004677, "job": "Writer", "name": "Tristan Lawyer", "profile_path": null}, {"credit_id": "5ab30e20c3a3686394002fae", "department": "Writing", "gender": 0, "id": 2004679, "job": "Writer", "name": "Sean Worsham", "profile_path": null}]}}