{"adult": false, "backdrop_path": "/3afM7UWdb2o0nOPSd9sS1vfzLni.jpg", "belongs_to_collection": null, "budget": 0, "genres": [{"id": 18, "name": "Drama"}, {"id": 10749, "name": "Romance"}], "homepage": null, "id": 51384, "imdb_id": "tt1150947", "original_language": "en", "original_title": "Lovely, Still", "overview": "A holiday fable that tells the story of an elderly man discovering love for the first time.", "popularity": 2.641, "poster_path": "/a5kfNSG5AEWNWk54zvzC0P6HjYk.jpg", "production_companies": [], "production_countries": [], "release_date": "2008-01-01", "revenue": 0, "runtime": 92, "spoken_languages": [{"iso_639_1": "de", "name": "Deutsch"}], "status": "Released", "tagline": "Something mysterious, new, unexpected and lovely is happening to Robert Malone.", "title": "Lovely, Still", "video": false, "vote_average": 6.9, "vote_count": 24, "keywords": {"keywords": [{"id": 10183, "name": "independent film"}]}, "similar": {"page": 1, "results": [{"adult": false, "backdrop_path": "/kQyeXce1ozYryHichnEserMAByN.jpg", "genre_ids": [28, 80, 18, 53], "id": 11564, "original_language": "en", "original_title": "Class of 1984", "overview": "Andy is a new teacher at a inner city high school that is like nothing he has ever seen before. There is metal detectors at the front door and everything is basically run by a tough kid named Peter Stegman. Soon, Andy and Stegman become enemies and Stegman will stop at nothing to protect his turf and drug dealing business.", "poster_path": "/whDnqSYg4yYgVzbVhLSjzC5piUR.jpg", "release_date": "1982-08-20", "title": "Class of 1984", "video": false, "vote_average": 6.2, "vote_count": 121, "popularity": 9.407}, {"adult": false, "backdrop_path": "/7RRuRcGuWkZGuRyYugfXn0Fgrrr.jpg", "genre_ids": [28, 80, 18, 53], "id": 949, "original_language": "en", "original_title": "Heat", "overview": "Obsessive master thief, Neil McCauley leads a top-notch crew on various daring heists throughout Los Angeles while determined detective, Vincent Hanna pursues him without rest. Each man recognizes and respects the ability and the dedication of the other even though they are aware their cat-and-mouse game may end in violence.", "poster_path": "/6pmLVffM9jEYK7VqDJqPblMxfEY.jpg", "release_date": "1995-12-15", "title": "Heat", "video": false, "vote_average": 7.8, "vote_count": 3610, "popularity": 21.48}, {"adult": false, "backdrop_path": "/2Tawvc0JMmR9nBXD3nhBThTQP2X.jpg", "genre_ids": [53, 18, 80, 27], "id": 1359, "original_language": "en", "original_title": "American Psycho", "overview": "A wealthy New York investment banking executive hides his alternate psychopathic ego from his co-workers and friends as he escalates deeper into his illogical, gratuitous fantasies.", "poster_path": "/qXsylPM4Lr5397R3eHrfqHhTUNc.jpg", "release_date": "2000-04-13", "title": "American Psycho", "video": false, "vote_average": 7.4, "vote_count": 4911, "popularity": 20.069}, {"id": 101, "video": false, "vote_count": 8645, "vote_average": 8.3, "title": "L\u00e9on: The Professional", "release_date": "1994-09-14", "original_language": "en", "original_title": "L\u00e9on: The Professional", "genre_ids": [28, 80, 18], "backdrop_path": "/dXQ7HILRK1Tg33RT64JwbQI7Osh.jpg", "adult": false, "overview": "L\u00e9on, the top hit man in New York, has earned a rep as an effective \"cleaner\". But when his next-door neighbors are wiped out by a loose-cannon DEA agent, he becomes the unwilling custodian of 12-year-old Mathilda. Before long, Mathilda's thoughts turn to revenge, and she considers following in L\u00e9on's footsteps.", "poster_path": "/gE8S02QUOhVnAmYu4tcrBlMTujz.jpg", "popularity": 42.005}, {"id": 83542, "video": false, "vote_count": 4860, "vote_average": 6.8, "title": "Cloud Atlas", "release_date": "2012-10-26", "original_language": "en", "original_title": "Cloud Atlas", "genre_ids": [18, 878], "backdrop_path": "/2ZA03KiD4jePTNBTJjGGFTNQPMA.jpg", "adult": false, "overview": "A set of six nested stories spanning time between the 19th century and a distant post-apocalyptic future. Cloud Atlas explores how the actions and consequences of individual lives impact one another throughout the past, the present and the future. Action, mystery and romance weave through the story as one soul is shaped from a killer into a hero and a single act of kindness ripples across centuries to inspire a revolution in the distant future.  Based on the award winning novel by David Mitchell. Directed by Tom Tykwer and the Wachowskis.", "poster_path": "/8VNiyIp67ZxhpNgdrwACW0jgvP2.jpg", "popularity": 16.718}, {"adult": false, "backdrop_path": "/s12HEmmkJfI2mjltI61hGm5kubD.jpg", "genre_ids": [35, 18, 10749], "id": 20770, "original_language": "en", "original_title": "But I'm a Cheerleader", "overview": "Megan is an all-American girl. A cheerleader. She has a boyfriend. But Megan doesn't like kissing her boyfriend very much. And she's pretty touchy with her cheerleader friends. Her conservative parents worry that she must be a lesbian and send her off to \"sexual redirection\" school, where she must, with other lesbians and gays learn how to be straight.", "poster_path": "/eDGH7CHSdkrYcuUJV1e0WS9DlQL.jpg", "release_date": "1999-12-09", "title": "But I'm a Cheerleader", "video": false, "vote_average": 6.8, "vote_count": 246, "popularity": 10.067}, {"id": 4638, "video": false, "vote_count": 4426, "vote_average": 7.5, "title": "Hot Fuzz", "release_date": "2007-02-14", "original_language": "en", "original_title": "Hot Fuzz", "genre_ids": [28, 35, 80], "backdrop_path": "/zuskekrfW3gj9ttXNVhfdHe5n22.jpg", "adult": false, "overview": "As a former London constable, Nicholas Angel finds it difficult to adapt to his new assignment in the sleepy British village of Sandford. Not only does he miss the excitement of the big city, but he also has a well-meaning oaf for a partner. However, when a series of grisly accidents rocks Sandford, Angel smells something rotten in the idyllic village.", "poster_path": "/5Jx6s6VXnunh8wCLgR0YgjwSgjh.jpg", "popularity": 25.234}, {"id": 298312, "video": false, "vote_count": 2921, "vote_average": 6.2, "title": "The Visit", "release_date": "2015-09-10", "original_language": "en", "original_title": "The Visit", "genre_ids": [27, 9648, 53], "backdrop_path": "/gbJlEeALVGo7kx8bC2q4EFWX1Xy.jpg", "adult": false, "overview": "The terrifying story of a brother and sister who are sent to their grandparents' remote Pennsylvania farm for a weeklong trip. Once the children discover that the elderly couple is involved in something deeply disturbing, they see their chances of getting back home are growing smaller every day.", "poster_path": "/32tNtTEQ1vIOLm1hEOSFkVwJT5D.jpg", "popularity": 20.148}, {"adult": false, "backdrop_path": "/9e5e7dJTMxQeF7zNx0CiJmxXE1I.jpg", "genre_ids": [27, 878, 53], "id": 11309, "original_language": "en", "original_title": "Hardware", "overview": "Mark 13 is a government-built killing machine programmed with artificial intelligence, able to repair and recharge itself from any energy source. Through a series of coincidences, the cyborg's head ends up in the home of a sculptress as a bizarre Christmas present from her boyfriend. Once inside its new home, the cyborg promptly reconstructs the rest of its body using a variety of household utensils and proceeds to go on a murderous rampage.", "poster_path": "/nsFm5xniViTVr1oVUpKmgvlAOEA.jpg", "release_date": "1990-09-14", "title": "Hardware", "video": false, "vote_average": 5.7, "vote_count": 145, "popularity": 11.259}, {"id": 317744, "video": false, "vote_count": 244, "vote_average": 6.0, "title": "Careful What You Wish For", "release_date": "2015-05-06", "original_language": "en", "original_title": "Careful What You Wish For", "genre_ids": [18, 53], "backdrop_path": "/7PAQ85UXQ9IhZ5ZJIC1uC0h6PZK.jpg", "adult": false, "overview": "A guy gets more than he bargained for after entering into an affair with the wife of an investment banker. Soon, a suspicious death and substantial life insurance policy embroil him in a scandal.", "poster_path": "/hQCLtJaGcEWLp7zKECnC3cy8W4i.jpg", "popularity": 13.897}, {"adult": false, "backdrop_path": "/lcB6jRNms95ySvVTCaH8pdFJq4j.jpg", "genre_ids": [80, 18, 53], "id": 22323, "original_language": "en", "original_title": "The Boys Next Door", "overview": "Roy and Bo leave their small town the weekend after graduation for a short road trip to LA. Soon, they find themselves lashing out and leaving a trial of bodies behind them. The violence escalates throughout.", "poster_path": "/pnLU9z0fLIzIRa35ULIvlQAAwho.jpg", "release_date": "1985-10-01", "title": "The Boys Next Door", "video": false, "vote_average": 6.3, "vote_count": 28, "popularity": 5.945}, {"id": 185, "video": false, "vote_count": 7609, "vote_average": 8.2, "title": "A Clockwork Orange", "release_date": "1971-12-18", "original_language": "en", "original_title": "A Clockwork Orange", "genre_ids": [18, 878], "backdrop_path": "/unMc1jEyqCnzba976GviSFKGagt.jpg", "adult": false, "overview": "In a near-future Britain, young Alexander DeLarge and his pals get their kicks beating and raping anyone they please. When not destroying the lives of others, Alex swoons to the music of Beethoven. The state, eager to crack down on juvenile crime, gives an incarcerated Alex the option to undergo an invasive procedure that'll rob him of all personal agency. In a time when conscience is a commodity, can Alex change his tune?", "poster_path": "/4sHeTAp65WrSSuc05nRBKddhBxO.jpg", "popularity": 24.413}, {"adult": false, "backdrop_path": "/20IgqkdFw5kuItqDCJtidSESP0t.jpg", "genre_ids": [27, 18], "id": 10066, "original_language": "en", "original_title": "House of Wax", "overview": "A group of unwitting teens are stranded near a strange wax museum and soon must fight to survive and keep from becoming the next exhibit.", "poster_path": "/uM1RebQywM5PPYsauayefpXGxVk.jpg", "release_date": "2005-04-30", "title": "House of Wax", "video": false, "vote_average": 5.7, "vote_count": 1531, "popularity": 21.972}, {"adult": false, "backdrop_path": "/caLMOD3ZJ3V7qjlxDXrzlJfBLgD.jpg", "genre_ids": [18, 10749], "id": 20, "original_language": "en", "original_title": "My Life Without Me", "overview": "A Pedro Almodovar production in which a fatally ill mother with only two months to live creates a list of things she wants to do before she dies with out telling her family of her illness.", "poster_path": "/vVj92VBFUBzjqzLvBiPVVlJDp78.jpg", "release_date": "2003-03-07", "title": "My Life Without Me", "video": false, "vote_average": 6.1, "vote_count": 220, "popularity": 9.208}, {"id": 9813, "video": false, "vote_count": 128, "vote_average": 6.1, "title": "The Quiet", "release_date": "2005-09-12", "original_language": "en", "original_title": "The Quiet", "genre_ids": [18, 53], "backdrop_path": "/6eyWAZA4CEidZW1xXnQ4vlYBXTP.jpg", "adult": false, "overview": "After her widowed father dies, deaf teenager Dot moves in with her godparents, Olivia and Paul Deer. The Deers' daughter, Nina, is openly hostile to Dot, but that does not prevent her from telling her secrets to her silent stepsister, including the fact that she wants to kill her lecherous father.", "poster_path": "/GEqIE9YlmygHVUfS64LW2cwAAM.jpg", "popularity": 13.948}, {"adult": false, "backdrop_path": "/8nvayG5l0urcjvvpszoECDqLWzD.jpg", "genre_ids": [18, 53, 80, 9648], "id": 186, "original_language": "en", "original_title": "Lucky Number Slevin", "overview": "Slevin is mistakenly put in the middle of a personal war between the city\u2019s biggest criminal bosses. Under constant watch, Slevin must try not to get killed by an infamous assassin and come up with an idea of how to get out of his current dilemma. A film with many twists and turns.", "poster_path": "/jtKq0EtothAzWlnRBBWGCA8uFuu.jpg", "release_date": "2006-02-24", "title": "Lucky Number Slevin", "video": false, "vote_average": 7.5, "vote_count": 2480, "popularity": 17.523}, {"adult": false, "backdrop_path": "/kiWvoV78Cc3fUwkOHKzyBgVdrDD.jpg", "genre_ids": [37, 18, 12], "id": 281957, "original_language": "en", "original_title": "The Revenant", "overview": "In the 1820s, a frontiersman, Hugh Glass, sets out on a path of vengeance against those who left him for dead after a bear mauling.", "poster_path": "/oXUWEc5i3wYyFnL1Ycu8ppxxPvs.jpg", "release_date": "2015-12-25", "title": "The Revenant", "video": false, "vote_average": 7.5, "vote_count": 12122, "popularity": 30.491}, {"id": 453075, "video": false, "vote_count": 3, "vote_average": 7.0, "title": "One Summer Night", "release_date": "2017-04-06", "original_language": "ko", "original_title": "\uc5b4\ub290 \uc5ec\ub984\ub0a0 \ubc24\uc5d0", "genre_ids": [18], "backdrop_path": "/1oQcW3xi7IFbInWnhgG1Eir4RAL.jpg", "adult": false, "overview": "In the winter of 2013, Yong-jun and Jae-sung, a member of the Korean People\u2019s Army, Their sex scene is caught by the superior. After all, Yong-jun decided to defect from North Korea leaving Jae-sung.", "poster_path": "/bKdk8hNlsGYDPXPEPRKtUjcwiQx.jpg", "popularity": 7.868}, {"adult": false, "backdrop_path": "/rSf0RYkPiMo9TyjHs2vI8rHlmfF.jpg", "genre_ids": [28, 18, 53], "id": 241554, "original_language": "en", "original_title": "Run All Night", "overview": "Brooklyn mobster and prolific hit man Jimmy Conlon has seen better days. Longtime best friend of a mob boss, Jimmy is haunted by the sins of his past\u2014as well as a dogged police detective who\u2019s been one step behind Jimmy for 30 years. But when Jimmy\u2019s estranged son becomes a target, Jimmy must make a choice between the crime family he chose and the real family he abandoned long ago. Now, with nowhere safe to turn, Jimmy has just one night to figure out exactly where his loyalties lie and to see if he can finally make things right.", "poster_path": "/aqNJrAxudMRNo8jg3HOUQqdl2xr.jpg", "release_date": "2015-03-11", "title": "Run All Night", "video": false, "vote_average": 6.4, "vote_count": 1820, "popularity": 30.086}, {"id": 2493, "video": false, "vote_count": 2686, "vote_average": 7.7, "title": "The Princess Bride", "release_date": "1987-09-25", "original_language": "en", "original_title": "The Princess Bride", "genre_ids": [12, 35, 14, 10749, 10751], "backdrop_path": "/oaXyPP3HNW0gBl0ZGXLhJOdACeH.jpg", "adult": false, "overview": "In this enchantingly cracked fairy tale, the beautiful Princess Buttercup and the dashing Westley must overcome staggering odds to find happiness amid six-fingered swordsmen, murderous princes, Sicilians and rodents of unusual size. But even death can't stop these true lovebirds from triumphing.", "poster_path": "/gpxjoE0yvRwIhFEJgNArtKtaN7S.jpg", "popularity": 16.912}], "total_pages": 1097, "total_results": 21925}, "recommendations": {"page": 1, "results": [{"adult": false, "backdrop_path": "/sHY9SoYbvO79n5mvq2b36uDZ8du.jpg", "genre_ids": [99], "id": 41339, "original_language": "en", "original_title": "Tapped", "overview": "Is access to clean drinking water a basic human right, or a commodity that should be bought and sold like any other article of commerce? Stephanie Soechtig's debut feature is an unflinching examination of the big business of bottled water. From the producers of Who Killed the Electric Car and I.O.U.S.A., this timely documentary is a behind-the-scenes look into the unregulated and unseen world of an industry that aims to privatize and sell back the one resource that ought never to become a commodity: our water. From the plastic production to the ocean in which so many of these bottles end up, this inspiring documentary trails the path of the bottled water industry and the communities which were the unwitting chips on the table. A powerful portrait of the lives affected by the bottled water industry, this revelatory film features those caught at the intersection of big business and the public's right to water.", "poster_path": "/oDudehGnaCkXSKOkt9I8qM64S9W.jpg", "release_date": "2009-07-31", "title": "Tapped", "video": false, "vote_average": 6.5, "vote_count": 11, "popularity": 2.482}, {"adult": false, "backdrop_path": "/oi62CLTWA5xLxUPtOT7VwbvZJcl.jpg", "genre_ids": [878], "id": 247308, "original_language": "en", "original_title": "The Bubble", "overview": "Summary: A couple encounter mysterious atmospheric effects in an airplane and find themselves in a town where people behave oddly. Directed by Arch Oboler.", "poster_path": "/qg5t2tIS7TF2uqSLmK6rMkk5Pn3.jpg", "release_date": "1966-12-21", "title": "The Bubble", "video": false, "vote_average": 5.3, "vote_count": 3, "popularity": 0.807}, {"adult": false, "backdrop_path": "/vwDml8ZVVe2JBwKusheF3YJC2Nl.jpg", "genre_ids": [35, 14, 10402], "id": 188652, "original_language": "en", "original_title": "The Ghastly Love of Johnny X", "overview": "A truly mad concoction, blending 1950s juvenile delinquents, sci-fi melodrama, song-and-dance, and a touch of horror, everything in just the right combination to create an engaging big screen spectacle! This curious and curiously entertaining story involves one Jonathan Xavier and his devoted misfit gang who, incidentally, have been exiled to Earth from the far reaches of outer space. Johnny's former girlfriend Bliss has left him and stolen his Resurrection Suit, a cosmic, mind-bending uniform that gives the owner power over others. Along the way, there will be several highly stylized musical numbers, lots of genuinely humorous dialogue, and a wacky plot-twist or two, all beautifully captured on the very last of Kodak's black-and-white Plus-X film stock.", "poster_path": "/x5f1DNKwid7Pce9afAQd2waPtDs.jpg", "release_date": "2013-04-26", "title": "The Ghastly Love of Johnny X", "video": false, "vote_average": 6.5, "vote_count": 9, "popularity": 2.218}, {"adult": false, "backdrop_path": "/rgIPTb1GWM4wcfmx04x9I759HFS.jpg", "genre_ids": [27, 35, 10749], "id": 84391, "original_language": "en", "original_title": "My Sucky Teen Romance", "overview": "On 17-year-old Kate's last weekend in town, she and her friends plan to spend it together at SpaceCON\u2013 the local science fiction convention they attend every year. At the convention Kate meets Paul, a recently turned teen-vampire (who is also dressed as one). But when Kate tries to make a move on him, he accidentally bites her in the neck. Kate and her friends soon discover Paul is not the only vampire at the convention, and it is up to them to stop the vampires and find a way to turn Kate back before it is too late.", "poster_path": "/cJahTWDItCpP8VgrfadQOmBoX9C.jpg", "release_date": "2011-03-15", "title": "My Sucky Teen Romance", "video": false, "vote_average": 6.0, "vote_count": 8, "popularity": 2.791}, {"adult": false, "backdrop_path": "/eNPzyK2QOVSrySDDbFV3LYJAJ3B.jpg", "genre_ids": [35, 10749], "id": 69792, "original_language": "en", "original_title": "Love Birds", "overview": "Love Birds is a hilarious charming romantic comedy that tells the story of a regular Kiwi bloke who finds himself on a quest to find true love \u2013 all with the help of a native New Zealand Shelduck. Comedian Rhys Darby (Flight of the Conchords, The Boat That Rocked) plays Doug \u2013 a road working employee and massive fan of the legendary band Queen, along with Golden-Globe Award winning actress Sally Hawkins (Made In Dagenham) who plays Holly the sassy animal specialist.", "poster_path": "/trw2p9LmOvGXABZHvsTeTWLaOGW.jpg", "release_date": "2011-02-24", "title": "Love Birds", "video": false, "vote_average": 6.1, "vote_count": 24, "popularity": 5.74}, {"adult": false, "backdrop_path": null, "genre_ids": [35, 18], "id": 41730, "original_language": "en", "original_title": "Desert Blue", "overview": "An academic obsessed with \"roadside attractions\" and his tv-star daughter finally discover the world's largest ice cream cone, the centerpiece for an old gold-rush town struggling to stay on the map. They end up staying longer than expected because of an accident that spilled an unknown cola ingredient all over the highway. They spend the next few days with the various residents of the town which include a teenage girl who loves to blow things up and a boy trying to keep alive his fathers dream of building a beachside resort in the middle of the desert.", "poster_path": "/bHsLvpsTU5VI96YDCdJMmGz2M0o.jpg", "release_date": "1999-06-04", "title": "Desert Blue", "video": false, "vote_average": 6.0, "vote_count": 15, "popularity": 3.725}, {"adult": false, "backdrop_path": "/mqRDttdTiT2on7Y2oWVkQbM6ojW.jpg", "genre_ids": [35, 27], "id": 36220, "original_language": "en", "original_title": "The Creature Wasn't Nice", "overview": "A farce satirizing extraterrestrial horror movies such as Alien.", "poster_path": "/cwrnrjnfA520ub1D3aJ5YzCY9HP.jpg", "release_date": "1983-07-01", "title": "The Creature Wasn't Nice", "video": false, "vote_average": 4.4, "vote_count": 14, "popularity": 4.538}, {"adult": false, "backdrop_path": "/2CvHi6a3YPBhpFs3OC7XPxMB67a.jpg", "genre_ids": [27, 53], "id": 143928, "original_language": "en", "original_title": "Hellgate", "overview": "A western businessman, his Thai wife and son experience a horrible accident while visiting Bangkok. In the aftermath, they find there is a shadow world between life and death where endless darkness lies.", "poster_path": "/ArF8t5MPDImcTJWu3T6YCGUc7mX.jpg", "release_date": "2011-11-05", "title": "Hellgate", "video": false, "vote_average": 4.7, "vote_count": 14, "popularity": 3.093}, {"adult": false, "backdrop_path": "/mgIrUrlw9VMNqlsSE0eLAIGbmTW.jpg", "genre_ids": [35, 18, 10749], "id": 15104, "original_language": "en", "original_title": "Tortilla Soup", "overview": "A Mexican-American master chef and father to three daughters has lost his taste for food but not for life.", "poster_path": "/3HrCV6pQ6QXytxxmT45pVlaKWxA.jpg", "release_date": "2001-08-24", "title": "Tortilla Soup", "video": false, "vote_average": 6.0, "vote_count": 22, "popularity": 6.096}, {"adult": false, "backdrop_path": "/3UWWTrt0Qe4Sho5cVjEubRAvEaS.jpg", "genre_ids": [35, 27], "id": 30993, "original_language": "en", "original_title": "Flesh Eating Mothers", "overview": "A venereal disease turns an entire town of two-timing mothers into cannibals!", "poster_path": "/pVd4hhA4M7JpqOXAxZjftjxjE6z.jpg", "release_date": "1988-09-16", "title": "Flesh Eating Mothers", "video": false, "vote_average": 4.5, "vote_count": 17, "popularity": 3.813}, {"adult": false, "backdrop_path": "/wCnBxGgvFSXgRBBkx0uO18DcxA1.jpg", "genre_ids": [18], "id": 84201, "original_language": "en", "original_title": "For Ellen", "overview": "After an overnight long-distance drive, Joby has a special meeting\u2014with lawyers and his ex-wife. A struggling musician with the prerequisite tattoos, slimy hair, goatee, and his head firmly floating in the clouds, Joby hasn\u2019t been around to be a dad. Now is his last chance to fight for shared custody of his daughter, Ellen.", "poster_path": "/e90D2CALahc3sOzf8wHjsyFQ8ck.jpg", "release_date": "2012-02-12", "title": "For Ellen", "video": false, "vote_average": 5.6, "vote_count": 18, "popularity": 4.675}, {"adult": false, "backdrop_path": "/PRHyFNJsc9HHQRFAL9vlUfNa5u.jpg", "genre_ids": [35], "id": 34341, "original_language": "en", "original_title": "Men with Brooms", "overview": "A witty and clever comedy that follows four longtime curling friends reunited by the last wishes of their recently deceased coach and set out to win the Golden Broom. Realising that the out of shape crew will be hard-pressed to win without a coach, Cutter swallows his pride and calls upon a retired curling champion - his estranged father. Now, these men with brooms, along with their new eccentric coach and Cutter's new romantic interest Amy, set off on a comedic journey which takes them from frozen lakes to huge arenas, searching for perfect stones, lost loves and second chances.", "poster_path": "/p17H0Dt7i7310uGrA7Pvyx6Oj5K.jpg", "release_date": "2002-09-20", "title": "Men with Brooms", "video": false, "vote_average": 5.2, "vote_count": 14, "popularity": 5.867}, {"adult": false, "backdrop_path": "/3Ig6f7c33fddX3svEVITUGYAMDq.jpg", "genre_ids": [18, 10402], "id": 62677, "original_language": "en", "original_title": "Songcatcher", "overview": "After being denied a promotion at the university where she teaches, Doctor Lily Penleric, a brilliant musicologist, impulsively visits her sister, who runs a struggling rural school in Appalachia. There she stumbles upon the discovery of her life - a treasure trove of ancient Scots-Irish ballads, songs that have been handed down from generation to generation, preserved intact by the seclusion of the mountains. With the goal of securing her promotion, Lily ventures into the most isolated areas of the mountains to collect the songs and finds herself increasingly enchanted.", "poster_path": "/qpUSLY5BPi42rqO097tNF8e53Qm.jpg", "release_date": "2001-03-01", "title": "Songcatcher", "video": false, "vote_average": 5.7, "vote_count": 17, "popularity": 3.88}, {"adult": false, "backdrop_path": "/ruafnNmccGgri2m4hvQCoJ3iWtN.jpg", "genre_ids": [18], "id": 54602, "original_language": "en", "original_title": "Skateland", "overview": "In the early 1980s, in small-town Texas, dramatic events force a 19-year-old skating rink manager to look at his life in a very new way.", "poster_path": "/2sUGjZD6tTrHXipQtBJXxROqFyx.jpg", "release_date": "2011-05-13", "title": "Skateland", "video": false, "vote_average": 5.6, "vote_count": 18, "popularity": 5.301}, {"id": 82685, "video": false, "vote_count": 28, "vote_average": 4.1, "title": "Division III: Football's Finest", "release_date": "2011-10-14", "original_language": "en", "original_title": "Division III: Football's Finest", "genre_ids": [35, 10749], "backdrop_path": "/kVRZijuvhBeHjjN0RdqaONuPKUh.jpg", "adult": false, "overview": "This ensemble comedy follows the Pullham University Bluecocks, a small liberal arts college with a Division III football program (the lowest division in the NCAA). When the head coach unexpectedly dies, the future of the flailing football program is in jeopardy, as they have not had a winning season in decades. In a desperate attempt to create some media attention for the athletic program and the university, President Georgia Anne Whistler hires known lunatic and felon, Coach Rick Vice, for what could be the football programs final season.", "poster_path": "/9BUVLmtgXyaOq47o2jcKVNeJmkT.jpg", "popularity": 4.441}], "total_pages": 1, "total_results": 15}, "credits": {"cast": [{"cast_id": 1, "character": "Robert Malone", "credit_id": "52fe47f0c3a36847f8150587", "gender": 2, "id": 2641, "name": "Martin Landau", "order": 0, "profile_path": "/ylT7pqkcPNsHloe2dJsePFSoIkE.jpg"}, {"cast_id": 2, "character": "Mary", "credit_id": "52fe47f0c3a36847f815058b", "gender": 1, "id": 9560, "name": "Ellen Burstyn", "order": 1, "profile_path": "/kxWFljG3JjJMbOMCLm0SkrPQjhf.jpg"}, {"cast_id": 3, "character": "Mike", "credit_id": "52fe47f0c3a36847f815058f", "gender": 2, "id": 36801, "name": "Adam Scott", "order": 2, "profile_path": "/6vLiih0N5s7JOYyRgclxbnOMzI9.jpg"}, {"cast_id": 5, "character": "alex malone", "credit_id": "52fe47f0c3a36847f8150599", "gender": 1, "id": 9281, "name": "Elizabeth Banks", "order": 3, "profile_path": "/w2RrVNLQa4ApXhpIgWTkpNVS2kd.jpg"}], "crew": [{"credit_id": "52fe47f0c3a36847f8150595", "department": "Directing", "gender": 2, "id": 989831, "job": "Director", "name": "Nicholas Fackler", "profile_path": null}, {"credit_id": "591d994cc3a3687a4b01e2d5", "department": "Production", "gender": 0, "id": 1819100, "job": "Producer", "name": "James Lawler", "profile_path": null}, {"credit_id": "5b5e3905925141522a030e77", "department": "Production", "gender": 1, "id": 1039217, "job": "Executive Producer", "name": "Dany Garcia", "profile_path": "/nZnQuskqDYmm9BDfsgRjDyVakCR.jpg"}]}}