{"adult": false, "backdrop_path": "/xISek1CzowNOewILkX0qZET3YfR.jpg", "belongs_to_collection": null, "budget": 0, "genres": [{"id": 99, "name": "Documentary"}], "homepage": "", "id": 516807, "imdb_id": "tt6360394", "original_language": "en", "original_title": "Jack of all Trades", "overview": "In the late 80's/early 90's North America's favorite pastime was collecting baseball cards. People would invest millions, in this game of pirates treasure, by putting their mint condition gold in plastic sleeves, locking it away and hoping it's value would continue to rise year after year. Unfortunately, this house of cards would soon collapse, leaving the pieces of cardboard along with the hopes and dreams of fathers and sons worthless. Stu Stone was one of those sons, and his relationship with his father Jack, who was in the card business, would crumble with the industry. 25 years later, Stu is on a mission to discover why his beloved baseball cards are worth nothing more than the memories they hold of a happy childhood. What he didn't plan on finding though, was the most elusive card of them all, his father Jack.", "popularity": 3.453, "poster_path": "/sno4NWBFBq9cofAvI2Mqu29V8Dt.jpg", "production_companies": [{"id": 127290, "logo_path": null, "name": "R2-G2", "origin_country": ""}, {"id": 98203, "logo_path": null, "name": "5\u20197 Films", "origin_country": ""}], "production_countries": [{"iso_3166_1": "CA", "name": "Canada"}], "release_date": "2018-03-03", "revenue": 0, "runtime": 85, "spoken_languages": [{"iso_639_1": "en", "name": "English"}], "status": "Released", "tagline": "The story of a father and son.... and their baseball cards", "title": "Jack of all Trades", "video": false, "vote_average": 5.7, "vote_count": 10, "keywords": {"keywords": [{"id": 1480, "name": "baseball"}, {"id": 6224, "name": "hobby"}, {"id": 11460, "name": "baseball card"}, {"id": 161194, "name": "estranged father"}]}, "similar": {"page": 1, "results": [{"adult": false, "backdrop_path": "/nb70B4EXuoegiQ0C5N1fNVHIaYc.jpg", "genre_ids": [12, 18, 36, 53, 10752], "id": 5925, "original_language": "en", "original_title": "The Great Escape", "overview": "The Nazis, exasperated at the number of escapes from their prison camps by a relatively small number of Allied prisoners, relocates them to a high-security 'escape-proof' camp to sit out the remainder of the war. Undaunted, the prisoners plan one of the most ambitious escape attempts of World War II. Based on a true story.", "poster_path": "/qhy4HgUqhEbwQ1ekKTv7yEB3b0e.jpg", "release_date": "1963-06-20", "title": "The Great Escape", "video": false, "vote_average": 8.0, "vote_count": 1359, "popularity": 19.093}, {"id": 37136, "video": false, "vote_count": 1997, "vote_average": 7.2, "title": "The Naked Gun: From the Files of Police Squad!", "release_date": "1988-12-02", "original_language": "en", "original_title": "The Naked Gun: From the Files of Police Squad!", "genre_ids": [35, 80], "backdrop_path": "/vBvfE7oUpJggU1Cf4UXgeeXocsg.jpg", "adult": false, "overview": "When the incompetent Officer Frank Drebin seeks the ruthless killer of his partner, he stumbles upon an attempt to assassinate Queen Elizabeth.", "poster_path": "/gajZQkZjVXPuLJUMoEk1eVeZz61.jpg", "popularity": 16.388}, {"adult": false, "backdrop_path": "/bRGtZsVj2Qq8r5CCsNYmQUPF4z4.jpg", "genre_ids": [80, 18, 878, 53], "id": 10559, "original_language": "en", "original_title": "Frequency", "overview": "When a rare phenomenon gives police officer John Sullivan the chance to speak to his father, 30 years in the past, he takes the opportunity to prevent his dad's tragic death.  After his actions inadvertently give rise to a series of brutal murders he and his father must find a way to fix the consequences of altering time.", "poster_path": "/n0QAAZmIaPPIShVkk8eiKwfGV9.jpg", "release_date": "2000-04-28", "title": "Frequency", "video": false, "vote_average": 7.1, "vote_count": 897, "popularity": 14.026}, {"id": 339692, "video": false, "vote_count": 1166, "vote_average": 6.9, "title": "Shot Caller", "release_date": "2017-07-13", "original_language": "en", "original_title": "Shot Caller", "genre_ids": [80, 18, 53], "backdrop_path": "/hehboYLXB3m90x9ybiBsupwuifL.jpg", "adult": false, "overview": "A newly-released prison gangster is forced by the leaders of his gang to orchestrate a major crime with a brutal rival gang on the streets of Southern California.", "poster_path": "/qLmLz2wtyYvmW8Ult3l2ngOnW8v.jpg", "popularity": 22.37}, {"id": 489, "video": false, "vote_count": 6675, "vote_average": 8.1, "title": "Good Will Hunting", "release_date": "1997-12-05", "original_language": "en", "original_title": "Good Will Hunting", "genre_ids": [18], "backdrop_path": "/8vA6dxBzRqSajvqdmTLtoguAa3T.jpg", "adult": false, "overview": "Will Hunting has a genius-level IQ but chooses to work as a janitor at MIT. When he solves a difficult graduate-level math problem, his talents are discovered by Professor Gerald Lambeau, who decides to help the misguided youth reach his potential. When Will is arrested for attacking a police officer, Professor Lambeau makes a deal to get leniency for him if he will get treatment from therapist Sean Maguire.", "poster_path": "/jq8LjngZ7XZEQge5JFTdOGMrHyZ.jpg", "popularity": 16.686}, {"id": 393457, "video": false, "vote_count": 1617, "vote_average": 6.8, "title": "Fences", "release_date": "2016-12-16", "original_language": "en", "original_title": "Fences", "genre_ids": [18], "backdrop_path": "/jNlCIAcheh0iOuL3kz9x1Wq9WLG.jpg", "adult": false, "overview": "In 1950s Pittsburgh, a frustrated African-American father struggles with the constraints of poverty, racism, and his own inner demons as he tries to raise a family.", "poster_path": "/yZFBqealET1TunuVvu4YzcM1orT.jpg", "popularity": 10.81}, {"id": 2280, "video": false, "vote_count": 2041, "vote_average": 7.1, "title": "Big", "release_date": "1988-06-03", "original_language": "en", "original_title": "Big", "genre_ids": [35, 18, 14, 10749, 10751], "backdrop_path": "/tVpkaXfP5xCS2Fd19JijUSDvpbg.jpg", "adult": false, "overview": "When a young boy makes a wish at a carnival machine to be big\u2014he wakes up the following morning to find that it has been granted and his body has grown older overnight. But he is still the same 13-year-old boy inside. Now he must learn how to cope with the unfamiliar world of grown-ups including getting a job and having his first romantic encounter with a woman.", "poster_path": "/cCglgzP9hXrqPqUMGNzISZrK338.jpg", "popularity": 17.847}, {"id": 60308, "video": false, "vote_count": 2517, "vote_average": 7.2, "title": "Moneyball", "release_date": "2011-09-22", "original_language": "en", "original_title": "Moneyball", "genre_ids": [18], "backdrop_path": "/T9a9Q6Pin6Pra7dNMwWzAibxkk.jpg", "adult": false, "overview": "The story of Oakland Athletics general manager Billy Beane's successful attempt to put together a baseball team on a budget, by employing computer-generated analysis to draft his players.", "poster_path": "/3oAa8mJJ97CH9AeGEY6vjAxqcvZ.jpg", "popularity": 16.975}, {"adult": false, "backdrop_path": "/jLq0ol1f0ZKXni9R9GsPBcyPrNN.jpg", "genre_ids": [18], "id": 18148, "original_language": "ja", "original_title": "\u6771\u4eac\u7269\u8a9e", "overview": "The elderly Shukishi and his wife, Tomi, take the long journey from their small seaside village to visit their adult children in Tokyo. Their elder son, Koichi, a doctor, and their daughter, Shige, a hairdresser, don't have much time to spend with their aged parents, and so it falls to Noriko, the widow of their younger son who was killed in the war, to keep her in-laws company.", "poster_path": "/g2YbTYKpY7N2yDSk7BfXZ18I5QV.jpg", "release_date": "1953-11-03", "title": "Tokyo Story", "video": false, "vote_average": 8.4, "vote_count": 423, "popularity": 12.262}, {"id": 617299, "video": false, "vote_count": 5, "vote_average": 7.2, "title": "Lola vers la mer", "release_date": "2019-12-11", "original_language": "fr", "original_title": "Lola vers la mer", "genre_ids": [18], "backdrop_path": null, "adult": false, "overview": "Just when Lola, 18 years old and transgender, learns that she can finally have surgery, her mother, who is her only financial support, passes away. Abiding by her mother\u2019s last wishes, Lola and her father, who are permanently in conflict and have not seen each other for two years, undertake a journey all the way to the Belgian coast. They realize the outcome of the journey may not be the one they were both expecting...", "poster_path": "/rZTnLlJiBCOgJi6FW0EPCLfG9tE.jpg", "popularity": 2.431}, {"id": 7350, "video": false, "vote_count": 2048, "vote_average": 7.1, "title": "The Bucket List", "release_date": "2007-12-25", "original_language": "en", "original_title": "The Bucket List", "genre_ids": [35, 18], "backdrop_path": "/6gbCxC5p6kown2O6I2H8mt6hQCJ.jpg", "adult": false, "overview": "Corporate billionaire Edward Cole and working class mechanic Carter Chambers are worlds apart. At a crossroads in their lives, they share a hospital room and discover they have two things in common: a desire to spend the time they have left doing everything they ever wanted to do and an unrealized need to come to terms with who they are. Together they embark on the road trip of a lifetime, becoming friends along the way and learning to live life to the fullest, with insight and humor.", "poster_path": "/hbfrU8JmCiVWeFck91qHNrGZao3.jpg", "popularity": 13.115}, {"id": 10390, "video": false, "vote_count": 195, "vote_average": 6.4, "title": "For Love of the Game", "release_date": "1999-09-17", "original_language": "en", "original_title": "For Love of the Game", "genre_ids": [18, 10749], "backdrop_path": "/l4Amqpp3PGh61rENfxVZ3p2n3n9.jpg", "adult": false, "overview": "A baseball legend almost finished with his distinguished career at the age of forty has one last chance to prove who he is, what he is capable of, and win the heart of the woman he has loved for the past four years.", "poster_path": "/nvsXIOYg8CHFS7WYh0anh7WFYtN.jpg", "popularity": 7.967}, {"id": 11287, "video": false, "vote_count": 725, "vote_average": 7.1, "title": "A League of Their Own", "release_date": "1992-07-01", "original_language": "en", "original_title": "A League of Their Own", "genre_ids": [35, 18, 36], "backdrop_path": "/cTzJXKXqy8pqisykmDueETv6ikb.jpg", "adult": false, "overview": "As America's stock of athletic young men is depleted during World War II, a professional all-female baseball league springs up in the Midwest, funded by publicity-hungry candy maker Walter Harvey (Garry Marshall). Competitive sisters Dottie Hinson (Geena Davis) and Kit Keller (Lori Petty) spar with each other, scout Ernie Capadino (Jon Lovitz) and grumpy has-been coach Jimmy Dugan (Tom Hanks) on their way to fame. Madonna and Rosie O'Donnell co-star as two of the sisters' teammates.", "poster_path": "/mHr58FxWSPZtxSqVxDpO12nKmMi.jpg", "popularity": 11.427}, {"adult": false, "backdrop_path": "/g5gwbwR98yN1TvycqHCJZhCPa7O.jpg", "genre_ids": [18, 14], "id": 2323, "original_language": "en", "original_title": "Field of Dreams", "overview": "Ray Kinsella is an Iowa farmer who hears a mysterious voice telling him to turn his cornfield into a baseball diamond. He does, but the voice's directions don't stop -- even after the spirits of deceased ballplayers turn up to play.", "poster_path": "/ps5B8ZNSFvqLczD5e4Yh3whV66B.jpg", "release_date": "1989-04-21", "title": "Field of Dreams", "video": false, "vote_average": 7.2, "vote_count": 749, "popularity": 13.987}, {"id": 109410, "video": false, "vote_count": 1110, "vote_average": 7.0, "title": "42", "release_date": "2013-04-12", "original_language": "en", "original_title": "42", "genre_ids": [18], "backdrop_path": "/jkKHBwKAM2vOPrm9bwaPlXXdTPy.jpg", "adult": false, "overview": "The powerful story of Jackie Robinson, the legendary baseball player who broke Major League Baseball\u2019s color barrier when he joined the roster of the Brooklyn Dodgers. The film follows the innovative Dodgers\u2019 general manager Branch Rickey, the MLB executive who first signed Robinson to the minors and then helped to bring him up to the show.", "poster_path": "/vlP18ooLmvYVNnqidbot0FupY05.jpg", "popularity": 10.814}, {"id": 11431, "video": false, "vote_count": 373, "vote_average": 6.0, "title": "Fever Pitch", "release_date": "2005-04-06", "original_language": "en", "original_title": "Fever Pitch", "genre_ids": [35, 18, 10749], "backdrop_path": "/6lv1fJSWUlPGcku6JzXysSdEsrj.jpg", "adult": false, "overview": "When relaxed and charming Ben Wrightman meets workaholic Lindsey Meeks she finds him sweet and charming, they hit it off and when it is winter Ben can spend every waking hour with Lindsey, but when summer comes around the corner Lindsey discovers Ben's obsession with the Boston Red Sox. She thinks it is perfect until everything goes downhill for them.", "poster_path": "/kuugk93pYPqOsEW2R5C7n8gy2QK.jpg", "popularity": 12.06}, {"adult": false, "backdrop_path": "/5s8Nhvkz5nIZq1Km2pRxtRC2Flz.jpg", "genre_ids": [12, 16, 35, 10751], "id": 15213, "original_language": "en", "original_title": "Everyone's Hero", "overview": "A boy begins a grand journey to return Babe Ruth's baseball bat before the deciding game of the 1932 World Series comes to a close.", "poster_path": "/8pWPBlTuOJwBfLTqQceADLUhqTl.jpg", "release_date": "2006-09-15", "title": "Everyone's Hero", "video": false, "vote_average": 5.6, "vote_count": 117, "popularity": 11.299}, {"id": 198185, "video": false, "vote_count": 378, "vote_average": 6.8, "title": "Million Dollar Arm", "release_date": "2014-05-09", "original_language": "en", "original_title": "Million Dollar Arm", "genre_ids": [18], "backdrop_path": "/x5ZwyoTfApcvw0mwToWlY2qUliY.jpg", "adult": false, "overview": "In a last-ditch effort to save his career, sports agent JB Bernstein (Jon Hamm) dreams up a wild game plan to find Major League Baseball\u2019s next great pitcher from a pool of cricket players in India. He soon discovers two young men who can throw a fastball but know nothing about the game of baseball. Or America. It\u2019s an incredible and touching journey that will change them all \u2014 especially JB, who learns valuable lessons about teamwork, commitment and family.", "poster_path": "/rYOQL42cDdsbhfgaxeEW4SlszUp.jpg", "popularity": 9.24}, {"id": 12143, "video": false, "vote_count": 376, "vote_average": 7.2, "title": "Bad Lieutenant", "release_date": "1992-09-16", "original_language": "en", "original_title": "Bad Lieutenant", "genre_ids": [80], "backdrop_path": "/dzHZPetromOHkB2cNONgFjcuvuE.jpg", "adult": false, "overview": "While investigating a young nun's rape, a corrupt New York City police detective, with a serious drug and gambling addiction, tries to change his ways and find forgiveness.", "poster_path": "/oe8VjWCKXktqA19T1ZWtaSn8rc2.jpg", "popularity": 11.572}, {"id": 87825, "video": false, "vote_count": 671, "vote_average": 6.7, "title": "Trouble with the Curve", "release_date": "2012-09-21", "original_language": "en", "original_title": "Trouble with the Curve", "genre_ids": [18, 10749], "backdrop_path": "/9fN6z7JcO5o3jDmJ0fHSq4PXwUT.jpg", "adult": false, "overview": "Slowed by age and failing eyesight, crack baseball scout Gus Lobel takes his grown daughter along as he checks out the final prospect of his career. Along the way, the two renew their bond, and she catches the eye of a young player-turned-scout.", "poster_path": "/vNWFhlTseaTupYmpnXxJLoShJe3.jpg", "popularity": 9.416}], "total_pages": 15, "total_results": 298}, "recommendations": {"page": 1, "results": [], "total_pages": 1, "total_results": 0}, "credits": {"cast": [{"cast_id": 2, "character": "Himself", "credit_id": "5ac953580e0a26496504ee78", "gender": 2, "id": 156011, "name": "Stuart Stone", "order": 1, "profile_path": "/xLAtmUL0GtXMnwCrendFcXSu1Eq.jpg"}, {"cast_id": 3, "character": "Himself", "credit_id": "5d6ccf4765686e3c1288de7b", "gender": 2, "id": 267236, "name": "Jose Canseco", "order": 2, "profile_path": "/bUQPI4w0iZd4VBSKDSIpWnPhYQj.jpg"}, {"cast_id": 4, "character": "Himself", "credit_id": "5d6ccf7920ecaf001329f00d", "gender": 2, "id": 62658, "name": "Harvey Glazer", "order": 3, "profile_path": null}], "crew": [{"credit_id": "5ac95323c3a36834e8050964", "department": "Directing", "gender": 2, "id": 62658, "job": "Director", "name": "Harvey Glazer", "profile_path": null}, {"credit_id": "5ac9533cc3a36834d404fd59", "department": "Directing", "gender": 2, "id": 156011, "job": "Director", "name": "Stuart Stone", "profile_path": "/xLAtmUL0GtXMnwCrendFcXSu1Eq.jpg"}]}}