{"adult": false, "backdrop_path": "/2PtQscb1lEqrHkG6eXgWOLbV8xu.jpg", "belongs_to_collection": null, "budget": 0, "genres": [{"id": 27, "name": "Horror"}, {"id": 53, "name": "Thriller"}], "homepage": null, "id": 517831, "imdb_id": "tt6112524", "original_language": "en", "original_title": "The Young Cannibals", "overview": "Seven friends summon a monster when they are tricked into eating burgers made of human flesh.", "popularity": 4.934, "poster_path": "/buRaywMQ2ixlnVfMEnPGAwsgxzZ.jpg", "production_companies": [{"id": 103260, "logo_path": null, "name": "Bad taste pictures", "origin_country": ""}], "production_countries": [], "release_date": "2019-10-01", "revenue": 0, "runtime": null, "spoken_languages": [{"iso_639_1": "en", "name": "English"}], "status": "Released", "tagline": "TIME TO GO VEGAN?", "title": "The Young Cannibals", "video": false, "vote_average": 5.4, "vote_count": 5, "keywords": {"keywords": [{"id": 1299, "name": "monster"}, {"id": 8271, "name": "meat"}, {"id": 13031, "name": "creature"}, {"id": 14895, "name": "cannibal"}, {"id": 162521, "name": "flesh eating"}, {"id": 234713, "name": "burgers"}, {"id": 242878, "name": "human flesh"}, {"id": 243587, "name": "summoned"}, {"id": 243588, "name": "tricked"}]}, "similar": {"page": 1, "results": [{"adult": false, "backdrop_path": "/6kVVfNT0auG6fU5SFQ1zbayNWUC.jpg", "genre_ids": [28, 53, 878], "id": 7191, "original_language": "en", "original_title": "Cloverfield", "overview": "Five young New Yorkers throw their friend a going-away party the night that a monster the size of a skyscraper descends upon the city. Told from the point of view of their video camera, the film is a document of their attempt to survive the most surreal, horrifying event of their lives.", "poster_path": "/qIegUGJqyMMCRjkKV1s7A9MqdJ8.jpg", "release_date": "2008-01-15", "title": "Cloverfield", "video": false, "vote_average": 6.5, "vote_count": 4429, "popularity": 18.322}, {"id": 315011, "video": false, "vote_count": 400, "vote_average": 6.7, "title": "Shin Godzilla", "release_date": "2016-07-29", "original_language": "ja", "original_title": "\u30b7\u30f3\u30fb\u30b4\u30b8\u30e9", "genre_ids": [28, 27, 878], "backdrop_path": "/9nyToPG5mhfm4KiPGChu35jH9QZ.jpg", "adult": false, "overview": "When a massive, gilled monster emerges from the deep and tears through the city, the government scrambles to save its citizens.  A rag-tag team of volunteers cuts through a web of red tape to uncover the monster's weakness and its mysterious ties to a foreign superpower.  But time is not on their side - the greatest catastrophe to ever befall the world is about to evolve right before their very eyes.", "poster_path": "/8YWirGQidtZeSEmhqvQM5FrI6N1.jpg", "popularity": 11.942}, {"adult": false, "backdrop_path": "/AhxObJqssOpGKIOWtAyCN8DF9AH.jpg", "genre_ids": [28, 18, 27, 878, 53], "id": 39256, "original_language": "ja", "original_title": "Godzilla 1985", "overview": "Originally released in Japan as \"The Return of Godzilla\"  in 1984, this is the heavily re-edited, re-titled \"Godzilla 1985\".  Adding in new footage of Raymond Burr, this 16th Godzilla film ignores all previous sequels and serves as a direct follow-up to the 1956 \"Godzilla King of the Monsters\", which also featured scenes with Burr edited into 1954's \"Godzilla\". This film restores the darker tone of the original, as we witness the nuclear destruction of giant lizard terrorizing Japan.", "poster_path": "/wWQmEv8UiGckO4lHyNtOX8tSCQy.jpg", "release_date": "1985-08-23", "title": "Godzilla 1985", "video": false, "vote_average": 6.4, "vote_count": 63, "popularity": 5.863}, {"id": 124905, "video": false, "vote_count": 5565, "vote_average": 6.1, "title": "Godzilla", "release_date": "2014-05-14", "original_language": "en", "original_title": "Godzilla", "genre_ids": [28, 18, 878], "backdrop_path": "/2WKcxQbTVkLUgoS5kPnHlecbj02.jpg", "adult": false, "overview": "Ford Brody, a Navy bomb expert, has just reunited with his family in San Francisco when he is forced to go to Japan to help his estranged father, Joe. Soon, both men are swept up in an escalating crisis when an ancient alpha predator arises from the sea to combat malevolent adversaries that threaten the survival of humanity. The creatures leave colossal destruction in their wake, as they make their way toward their final battleground: San Francisco.", "poster_path": "/szVwkB4H5yyOJBVuQ432b9boO0N.jpg", "popularity": 22.182}, {"id": 68726, "video": false, "vote_count": 8208, "vote_average": 6.8, "title": "Pacific Rim", "release_date": "2013-07-11", "original_language": "en", "original_title": "Pacific Rim", "genre_ids": [28, 12, 878], "backdrop_path": "/iB0RsWVoOXzicPi2Yy5xmTYMbho.jpg", "adult": false, "overview": "When legions of monstrous creatures, known as Kaiju, started rising from the sea, a war began that would take millions of lives and consume humanity's resources for years on end. To combat the giant Kaiju, a special type of weapon was devised: massive robots, called Jaegers, which are controlled simultaneously by two pilots whose minds are locked in a neural bridge. But even the Jaegers are proving nearly defenseless in the face of the relentless Kaiju. On the verge of defeat, the forces defending mankind have no choice but to turn to two unlikely heroes\u2014a washed-up former pilot (Charlie Hunnam) and an untested trainee (Rinko Kikuchi)\u2014who are teamed to drive a legendary but seemingly obsolete Jaeger from the past. Together, they stand as mankind's last hope against the mounting apocalypse.", "poster_path": "/sCJEwEShZvruTpQ2a4yiX3Q9EyZ.jpg", "popularity": 32.371}, {"adult": false, "backdrop_path": "/wIP9NCL6x1fc5pmADRcCQMNzGjA.jpg", "genre_ids": [12, 27, 878], "id": 10973, "original_language": "en", "original_title": "Creature from the Black Lagoon", "overview": "A scientific expedition searching for fossils along the Amazon River discover a prehistoric Gill-Man in the legendary Black Lagoon. The explorers capture the mysterious creature, but it breaks free. The Gill-Man returns to kidnap the lovely Kay, fianc\u00e9e of one of the expedition, with whom it has fallen in love.", "poster_path": "/hQ3k0gAh2Hv2uqrMff0gqxZDJKy.jpg", "release_date": "1954-03-05", "title": "Creature from the Black Lagoon", "video": false, "vote_average": 6.8, "vote_count": 343, "popularity": 12.023}, {"id": 5876, "video": false, "vote_count": 2784, "vote_average": 6.8, "title": "The Mist", "release_date": "2007-11-21", "original_language": "en", "original_title": "The Mist", "genre_ids": [27, 878, 53], "backdrop_path": "/slQnhKRIPkA2Cm5x6VvrOPXt4Qu.jpg", "adult": false, "overview": "After a violent storm, a dense cloud of mist envelops a small Maine town, trapping artist David Drayton and his five-year-old son in a local grocery store with other people. They soon discover that the mist conceals deadly horrors that threaten their lives, and worse, their sanity.", "poster_path": "/uYVheUBf8ITaocUP4Og9GXxOMIH.jpg", "popularity": 15.94}, {"adult": false, "backdrop_path": "/5Hj5fPpmXbREYk8f1n7JFguSHHE.jpg", "genre_ids": [28, 14, 878], "id": 15766, "original_language": "ja", "original_title": "\u4e09\u5927\u602a\u7363\u3000\u5730\u7403\u6700\u5927\u306e\u6c7a\u6226", "overview": "The Princess Mas Selina Salno is seemingly assassinated as a mysterious meteorite lands in Kurobe Valley. When a scientific expedition examines the meteorite, they discover the rock is growing, producing heat and has a strong magnetic pull. Soon a prophetess, with a striking resemblance to the princess, warns of great calamity in the return of Godzilla, Rodan, and the arrival of King Ghidorah.", "poster_path": "/oW4QkHaFmkKHambxeatAqCLXkw8.jpg", "release_date": "1964-12-20", "title": "Ghidorah, the Three-Headed Monster", "video": false, "vote_average": 6.4, "vote_count": 72, "popularity": 12.051}, {"adult": false, "backdrop_path": "/xRgbS6GqgO6SAjM2DpKJ6H6iKh8.jpg", "genre_ids": [27, 878], "id": 19742, "original_language": "ja", "original_title": "\u7a7a\u306e\u5927\u602a\u7363\u30e9\u30c9\u30f3", "overview": "When a village is besieged by giant caterpillars, a more horrifying discovery is made in their underground home: a giant flying creature that resembles the prehistoric pterodactyl. Soon after, a second Rodan appears and the two monsters begin to destroy Japan.", "poster_path": "/juyQCAhUan2Z8rC2B7ULU2N4TJU.jpg", "release_date": "1956-12-26", "title": "Rodan", "video": false, "vote_average": 6.2, "vote_count": 52, "popularity": 5.489}, {"id": 427641, "video": false, "vote_count": 3661, "vote_average": 6.2, "title": "Rampage", "release_date": "2018-04-12", "original_language": "en", "original_title": "Rampage", "genre_ids": [28, 12, 14, 878], "backdrop_path": "/wrqUiMXttHE4UBFMhLHlN601MZh.jpg", "adult": false, "overview": "Primatologist Davis Okoye shares an unshakable bond with George, the extraordinarily intelligent, silverback gorilla who has been in his care since birth.  But a rogue genetic experiment gone awry mutates this gentle ape into a raging creature of enormous size.  To make matters worse, it\u2019s soon discovered there are other similarly altered animals.  As these newly created alpha predators tear across North America, destroying everything in their path, Okoye teams with a discredited genetic engineer to secure an antidote, fighting his way through an ever-changing battlefield, not only to halt a global catastrophe but to save the fearsome creature that was once his friend.", "poster_path": "/3gIO6mCd4Q4PF1tuwcyI3sjFrtI.jpg", "popularity": 28.246}, {"id": 268896, "video": false, "vote_count": 2614, "vote_average": 5.9, "title": "Pacific Rim: Uprising", "release_date": "2018-03-21", "original_language": "en", "original_title": "Pacific Rim: Uprising", "genre_ids": [28, 12, 14, 878], "backdrop_path": "/6pT73ACl5N1VekdK3wQI8PLfz1E.jpg", "adult": false, "overview": "It has been ten years since The Battle of the Breach and the oceans are still, but restless. Vindicated by the victory at the Breach, the Jaeger program has evolved into the most powerful global defense force in human history. The PPDC now calls upon the best and brightest to rise up and become the next generation of heroes when the Kaiju threat returns.", "poster_path": "/v5HlmJK9bdeHxN2QhaFP1ivjX3U.jpg", "popularity": 28.651}, {"id": 373571, "video": false, "vote_count": 1972, "vote_average": 6.2, "title": "Godzilla: King of the Monsters", "release_date": "2019-05-29", "original_language": "en", "original_title": "Godzilla: King of the Monsters", "genre_ids": [28, 878], "backdrop_path": "/cNt14e43I2DDW6Xd9zFhrP8eOcA.jpg", "adult": false, "overview": "Follows the heroic efforts of the crypto-zoological agency Monarch as its members face off against a battery of god-sized monsters, including the mighty Godzilla, who collides with Mothra, Rodan, and his ultimate nemesis, the three-headed King Ghidorah. When these ancient super-species - thought to be mere myths - rise again, they all vie for supremacy, leaving humanity's very existence hanging in the balance.", "poster_path": "/fQ40gmFM4p03tXwMxQQKh2cCBW4.jpg", "popularity": 49.654}, {"id": 293167, "video": false, "vote_count": 6635, "vote_average": 6.4, "title": "Kong: Skull Island", "release_date": "2017-03-08", "original_language": "en", "original_title": "Kong: Skull Island", "genre_ids": [28, 12, 14], "backdrop_path": "/sRg0J1uvz3Yfp6WnHcL33dY4g5w.jpg", "adult": false, "overview": "Explore the mysterious and dangerous home of the king of the apes as a team of explorers ventures deep inside the treacherous, primordial island.", "poster_path": "/r2517Vz9EhDhj88qwbDVj8DCRZN.jpg", "popularity": 35.861}, {"adult": false, "backdrop_path": "/y5qDjStKZ6y4IHQDhJGMlfZwH92.jpg", "genre_ids": [18, 14, 878], "id": 339967, "original_language": "en", "original_title": "Colossal", "overview": "A woman discovers that severe catastrophic events are somehow connected to the mental breakdown from which she's suffering.", "poster_path": "/4VOyofBd1pexblxtDZYtYIk7NI4.jpg", "release_date": "2016-06-30", "title": "Colossal", "video": false, "vote_average": 6.1, "vote_count": 1144, "popularity": 12.003}, {"id": 15767, "video": false, "vote_count": 84, "vote_average": 6.7, "title": "Godzilla: Final Wars", "release_date": "2004-12-04", "original_language": "ja", "original_title": "\u30b4\u30b8\u30e9 \u30d5\u30a1\u30a4\u30ca\u30eb\u30a6\u30a9\u30fc\u30ba", "genre_ids": [28, 12, 14, 878, 53], "backdrop_path": "/nFHdB6f93ZZgpxqLtE4Rv2lgZBE.jpg", "adult": false, "overview": "Humanity final rids themselves of Godzilla, in-prisoning him in an icy tomb at the South Pole. Years later all is peaceful until various monsters emerge to lay waste to Earth's cities. Overwhelmed, humanity is seemingly saved by a race of benevolent aliens known as  Xiliens. But not all is what it seems with these bizarre visitors. If humanity wishes to survive they must reluctantly resurrect their most hated enemy, Godzilla.", "poster_path": "/unjWANFfc05ckUuwaSDLB3XfOWX.jpg", "popularity": 7.058}, {"id": 588, "video": false, "vote_count": 2408, "vote_average": 6.4, "title": "Silent Hill", "release_date": "2006-04-21", "original_language": "en", "original_title": "Silent Hill", "genre_ids": [27, 9648], "backdrop_path": "/6tfW4BjdgwuYSD7gaEMEEPoDcpH.jpg", "adult": false, "overview": "The eerie and deserted ghost town of Silent Hill draws a young mother desperate to find a cure for her only child's illness. Unable to accept the doctor's diagnosis that her daughter should be permanently institutionalized for psychiatric care, Rose flees with her child, heading for the abandoned town in search of answers \u2013 and ignoring the protests of her husband. It's soon clear this place is unlike anywhere she's ever been. It's smothered by fog, inhabited by a variety of strange beings and periodically overcome by a living 'darkness' that literally transforms everything it touches. As Rose searches for her little girl, she begins to learn the history of the strange town and realizes that her daughter is just a pawn in a larger game.", "poster_path": "/4Zz9cF8S4E7DITosNYh3spybYJb.jpg", "popularity": 20.72}, {"adult": false, "backdrop_path": "/9sCWF0nYkyQQn5IofJVA41LsMaM.jpg", "genre_ids": [14, 878, 28, 12], "id": 1682, "original_language": "ja", "original_title": "\u30e2\u30b9\u30e9\u5bfe\u30b4\u30b8\u30e9", "overview": "A typhoon washes ashore a giant egg. Before it can be studied, the local villagers claim the egg and sell it to greedy  entrepreneurs. The Shobijin soon arrive to plead for the return of egg as it belongs to Mothra. At the same time Godzilla arises near Nagoya, washed ashore by the same typhoon. It is now up to Mothra defend its egg and Japan from Godzilla.", "poster_path": "/aezP1gozrPbdqtm1Eo3DZxaJHhJ.jpg", "release_date": "1964-04-29", "title": "Mothra vs. Godzilla", "video": false, "vote_average": 6.7, "vote_count": 80, "popularity": 8.658}, {"id": 254, "video": false, "vote_count": 4697, "vote_average": 6.7, "title": "King Kong", "release_date": "2005-12-12", "original_language": "en", "original_title": "King Kong", "genre_ids": [28, 12, 18], "backdrop_path": "/lWnPz1EvXUWMvXK1plZMA1I2XMV.jpg", "adult": false, "overview": "In 1933 New York, an overly ambitious movie producer coerces his cast and hired ship crew to travel to mysterious Skull Island, where they encounter Kong, a giant ape who is immediately smitten with the leading lady.", "poster_path": "/iQYMVoI9QE2wQCOSrxhiBYd4v0w.jpg", "popularity": 26.001}, {"id": 18983, "video": false, "vote_count": 95, "vote_average": 6.5, "title": "Godzilla, King of the Monsters!", "release_date": "1956-04-27", "original_language": "en", "original_title": "Godzilla, King of the Monsters!", "genre_ids": [27, 878], "backdrop_path": "/5opq3usPVRkA4NK5zJw1FgUSl2D.jpg", "adult": false, "overview": "A 400-foot (122-meter) dinosaur-like beast, awoken from undersea hibernation off the Japanese coast by atomic-bomb testing, attacks Tokyo.", "poster_path": "/nqLKIsVfi5BW1KuIbe02pMEDXiU.jpg", "popularity": 10.835}, {"id": 408220, "video": false, "vote_count": 441, "vote_average": 6.9, "title": "Justice League Dark", "release_date": "2017-01-24", "original_language": "en", "original_title": "Justice League Dark", "genre_ids": [28, 16, 14, 878, 53], "backdrop_path": "/45zVQcCegFVyvImzXyfXy63XDlr.jpg", "adult": false, "overview": "Beings with supernatural powers join together to fight against supernatural villains.", "poster_path": "/lGa2sK2LdcHQjasYyukl3P2nras.jpg", "popularity": 7.844}], "total_pages": 8, "total_results": 145}, "recommendations": {"page": 1, "results": [], "total_pages": 1, "total_results": 0}, "credits": {"cast": [{"cast_id": 21, "character": "Nat", "credit_id": "5acf8cab0e0a267f9704a2a0", "gender": 1, "id": 2021785, "name": "Megan Purvis", "order": 1, "profile_path": "/4YeZCndcLSQEajYo3nE6pR1PLn4.jpg"}, {"cast_id": 22, "character": "Teddy", "credit_id": "5acf8ccd9251415a6d02a7d8", "gender": 2, "id": 2021787, "name": "Samuel Freeman", "order": 2, "profile_path": "/y4uDEflNV8Lu9o7VMT38pC6ENn7.jpg"}, {"cast_id": 23, "character": "Pippa", "credit_id": "5acf8ceb0e0a2631cc062f78", "gender": 1, "id": 2021788, "name": "Hannah Louise Howell", "order": 3, "profile_path": "/eP3OkILigeVwWoGnFx6NNomRQNh.jpg"}, {"cast_id": 24, "character": "Ethan", "credit_id": "5acf8d279251415a6d02a865", "gender": 0, "id": 2021791, "name": "Benjamin Sarpong-Broni", "order": 4, "profile_path": null}, {"cast_id": 25, "character": "Frances", "credit_id": "5acf8d4a0e0a267f9a040c66", "gender": 0, "id": 2021794, "name": "Kim Spearman", "order": 5, "profile_path": null}, {"cast_id": 26, "character": "Campbell", "credit_id": "5acf8da19251410c3903ec7f", "gender": 0, "id": 2021796, "name": "Martin Thomas", "order": 6, "profile_path": null}, {"cast_id": 27, "character": "Blackwood", "credit_id": "5acf8dd60e0a267f9704a4e2", "gender": 0, "id": 2021797, "name": "David Patrick Stucky", "order": 7, "profile_path": null}, {"cast_id": 28, "character": "Mike", "credit_id": "5acf8df50e0a2631e7063040", "gender": 0, "id": 2021798, "name": "Michael Haynes", "order": 8, "profile_path": null}, {"cast_id": 29, "character": "Haines", "credit_id": "5acf8e140e0a2631cc063159", "gender": 0, "id": 2021799, "name": "Anthony Wakefield", "order": 9, "profile_path": null}, {"cast_id": 30, "character": "Tim", "credit_id": "5acf8e330e0a2631fa05fd80", "gender": 2, "id": 1644168, "name": "Tony Manders", "order": 10, "profile_path": "/s3zzlTgDSpkdUm87L1WrVqFnwRf.jpg"}, {"cast_id": 31, "character": "Mason", "credit_id": "5acf8e529251410c0303dfa5", "gender": 0, "id": 2021800, "name": "James Knapp", "order": 11, "profile_path": null}, {"cast_id": 32, "character": "Reid", "credit_id": "5acf8e71c3a3687e27060ca7", "gender": 0, "id": 2021801, "name": "Iacopo Paradisi", "order": 12, "profile_path": null}, {"cast_id": 33, "character": "The Monster", "credit_id": "5acf8eaac3a3687e9505f425", "gender": 0, "id": 2021802, "name": "Charles Clarke-Devonald", "order": 13, "profile_path": null}, {"cast_id": 34, "character": "The Monster", "credit_id": "5acf8ee99251410c3903ee94", "gender": 0, "id": 1404979, "name": "Frederick Bennett", "order": 14, "profile_path": null}, {"cast_id": 35, "character": "The Monster", "credit_id": "5acf8f120e0a2631fa05ff06", "gender": 0, "id": 2021803, "name": "Ashton Bell", "order": 15, "profile_path": null}], "crew": [{"credit_id": "5acf890b9251410c3903e540", "department": "Directing", "gender": 0, "id": 2021768, "job": "Director", "name": "Kris Carr", "profile_path": null}, {"credit_id": "5acf89280e0a2631a3063ee7", "department": "Writing", "gender": 0, "id": 2021768, "job": "Writer", "name": "Kris Carr", "profile_path": null}, {"credit_id": "5acf89429251415a450279a0", "department": "Production", "gender": 0, "id": 2021768, "job": "Executive Producer", "name": "Kris Carr", "profile_path": null}, {"credit_id": "5acf89909251410c0603ceaf", "department": "Directing", "gender": 0, "id": 2021769, "job": "Director", "name": "Sam Fowler", "profile_path": null}, {"credit_id": "5acf89a39251410c4803f7e9", "department": "Writing", "gender": 0, "id": 2021769, "job": "Writer", "name": "Sam Fowler", "profile_path": null}, {"credit_id": "5acf89bb0e0a2631e706282c", "department": "Production", "gender": 0, "id": 2021769, "job": "Executive Producer", "name": "Sam Fowler", "profile_path": null}, {"credit_id": "5acf89e9c3a368674c041511", "department": "Editing", "gender": 0, "id": 2021769, "job": "Editor", "name": "Sam Fowler", "profile_path": null}, {"credit_id": "5acf8a27c3a3687e4005fdfe", "department": "Production", "gender": 0, "id": 2021771, "job": "Producer", "name": "Charlie Pride", "profile_path": null}, {"credit_id": "5acf8a750e0a2631e7062946", "department": "Production", "gender": 0, "id": 2021772, "job": "Assistant Production Coordinator", "name": "Sandra Urbanik", "profile_path": null}, {"credit_id": "5acf8a9cc3a3687e0e05a798", "department": "Sound", "gender": 0, "id": 2021773, "job": "Music", "name": "Gabe Castro", "profile_path": null}, {"credit_id": "5acf8ac0c3a3687e9505ed9c", "department": "Crew", "gender": 0, "id": 2021774, "job": "Cinematography", "name": "Liam Hejsak", "profile_path": null}, {"credit_id": "5acf8aeb9251415a6d02a49a", "department": "Editing", "gender": 0, "id": 2021768, "job": "Editor", "name": "Kris Carr", "profile_path": null}, {"credit_id": "5acf8b0b0e0a2631f705da94", "department": "Crew", "gender": 0, "id": 2021771, "job": "Editorial Staff", "name": "Charlie Pride", "profile_path": null}, {"credit_id": "5acf8b590e0a267f9704a051", "department": "Production", "gender": 0, "id": 2021775, "job": "Casting", "name": "Bel Smith", "profile_path": null}, {"credit_id": "5acf8b7cc3a3687e7205c210", "department": "Art", "gender": 0, "id": 2021776, "job": "Set Decoration", "name": "Abbie Jones", "profile_path": null}, {"credit_id": "5acf8ba59251410c3903e971", "department": "Costume & Make-Up", "gender": 0, "id": 2021777, "job": "Makeup Artist", "name": "Channelle Lai", "profile_path": null}, {"credit_id": "5acf8bc89251410c4803fb1d", "department": "Costume & Make-Up", "gender": 0, "id": 2021778, "job": "Makeup Artist", "name": "Lucy Ryan", "profile_path": null}, {"credit_id": "5acf8bf10e0a2631a306431d", "department": "Costume & Make-Up", "gender": 2, "id": 1248036, "job": "Makeup Artist", "name": "Frankie Smith", "profile_path": "/8dz4qSVjAXdCZPysGwOeFtnldgg.jpg"}, {"credit_id": "5acf8c1cc3a3687e9505efc4", "department": "Costume & Make-Up", "gender": 0, "id": 2021779, "job": "Makeup Designer", "name": "Hayley Pavis", "profile_path": null}, {"credit_id": "5acf8c3d0e0a2631a306437c", "department": "Costume & Make-Up", "gender": 0, "id": 2021781, "job": "Makeup Designer", "name": "Renae Taylor", "profile_path": null}, {"credit_id": "5acf8c710e0a2631e7062da7", "department": "Production", "gender": 0, "id": 2021771, "job": "Production Manager", "name": "Charlie Pride", "profile_path": null}]}}