{"adult": false, "backdrop_path": "/h9Wj3786hGjaDnBCtZZYIe69dXV.jpg", "belongs_to_collection": null, "budget": 0, "genres": [{"id": 18, "name": "Drama"}, {"id": 35, "name": "Comedy"}, {"id": 10749, "name": "Romance"}], "homepage": null, "id": 518471, "imdb_id": "tt8089288", "original_language": "hu", "original_title": "Susot\u00e1zs", "overview": "During a professional conference in Prague, two interpreters in the Hungarian booth hilariously vie for the attention of one listener.", "popularity": 1.38, "poster_path": "/yGXVc4iofw61zQwtCq5Hc55giq6.jpg", "production_companies": [{"id": 103447, "logo_path": null, "name": "Csokonai Cultural Center", "origin_country": ""}, {"id": 12520, "logo_path": null, "name": "Laokoon Filmgroup", "origin_country": ""}], "production_countries": [{"iso_3166_1": "HU", "name": "Hungary"}], "release_date": "2018-04-24", "revenue": 0, "runtime": 16, "spoken_languages": [{"iso_639_1": "en", "name": "English"}, {"iso_639_1": "hu", "name": "Magyar"}, {"iso_639_1": "it", "name": "Italiano"}], "status": "Released", "tagline": "", "title": "Chuchotage", "video": false, "vote_average": 8.1, "vote_count": 5, "keywords": {"keywords": [{"id": 163751, "name": "translator"}, {"id": 214549, "name": "short"}]}, "similar": {"page": 1, "results": [{"adult": false, "backdrop_path": "/4brEMzPazQE3hv3mogj6k1a29RP.jpg", "genre_ids": [10749, 14, 16], "id": 3933, "original_language": "en", "original_title": "Corpse Bride", "overview": "Set in a 19th-century european village, this stop-motion animation feature follows the story of Victor, a young man whisked away to the underworld and wed to a mysterious corpse bride, while his real bride Victoria waits bereft in the land of the living.", "poster_path": "/o9GbcdP7rOg2m1NyUnUR3ZwNcTE.jpg", "release_date": "2005-09-12", "title": "Corpse Bride", "video": false, "vote_average": 7.4, "vote_count": 4928, "popularity": 23.702}, {"adult": false, "backdrop_path": "/5OeY4U2rzePxWq2rkqMajUx2gz7.jpg", "genre_ids": [16, 10751, 12, 14, 10749], "id": 812, "original_language": "en", "original_title": "Aladdin", "overview": "Princess Jasmine grows tired of being forced to remain in the palace, so she sneaks out into the marketplace, in disguise, where she meets street-urchin Aladdin.  The couple falls in love, although Jasmine may only marry a prince.  After being thrown in jail, Aladdin becomes embroiled in a plot to find a mysterious lamp, with which the evil Jafar hopes to rule the land.", "poster_path": "/mjKozYRuHc9j7SmiXmbVmCiAM0A.jpg", "release_date": "1992-11-25", "title": "Aladdin", "video": false, "vote_average": 7.6, "vote_count": 7289, "popularity": 35.494}, {"id": 150540, "video": false, "vote_count": 13957, "vote_average": 7.9, "title": "Inside Out", "release_date": "2015-06-09", "original_language": "en", "original_title": "Inside Out", "genre_ids": [16, 35, 18, 10751], "backdrop_path": "/szytSpLAyBh3ULei3x663mAv5ZT.jpg", "adult": false, "overview": "Growing up can be a bumpy road, and it's no exception for Riley, who is uprooted from her Midwest life when her father starts a new job in San Francisco. Riley's guiding emotions\u2014 Joy, Fear, Anger, Disgust and Sadness\u2014live in Headquarters, the control centre inside Riley's mind, where they help advise her through everyday life and tries to keep things positive, but the emotions conflict on how best to navigate a new city, house and school.", "poster_path": "/aAmfIX3TT40zUHGcCKrlOZRKC7u.jpg", "popularity": 57.362}, {"id": 21385, "video": false, "vote_count": 455, "vote_average": 6.4, "title": "Mickey, Donald, Goofy: The Three Musketeers", "release_date": "2004-08-04", "original_language": "en", "original_title": "Mickey, Donald, Goofy: The Three Musketeers", "genre_ids": [12, 16, 35, 10751], "backdrop_path": "/8WodHELOg5guFPMIQf0M88IQhNE.jpg", "adult": false, "overview": "In Disney's take on the Alexander Dumas tale, Mickey Mouse, Donald Duck and Goofy want nothing more than to perform brave deeds on behalf of their queen (Minnie Mouse), but they're stymied by the head Musketeer, Pete. Pete secretly wants to get rid of the queen, so he appoints Mickey and his bumbling friends as guardians to Minnie, thinking such a maneuver will ensure his scheme's success. The score features songs based on familiar classical melodies.", "poster_path": "/uDvv54as7hLH7aWHwPyIVvoNb9K.jpg", "popularity": 27.432}, {"id": 621733, "video": false, "vote_count": 0, "vote_average": 0.0, "title": "A Trip to the Seaside", "release_date": "2019-08-30", "original_language": "en", "original_title": "A Trip to the Seaside", "genre_ids": [99], "backdrop_path": null, "adult": false, "overview": "Experimental short film on the excitement and rush of a day trip", "poster_path": "/AuZVhpoJ4jm2LWDhoJKfxQfhDAi.jpg", "popularity": 1.324}, {"id": 326359, "video": false, "vote_count": 1180, "vote_average": 6.8, "title": "Frozen Fever", "release_date": "2015-03-09", "original_language": "en", "original_title": "Frozen Fever", "genre_ids": [12, 16, 10751], "backdrop_path": "/ubioPGniCfDiASmYYpeJs5RRNaC.jpg", "adult": false, "overview": "On Anna's birthday, Elsa and Kristoff are determined to give her the best celebration ever, but Elsa's icy powers may put more than just the party at risk.", "poster_path": "/lKJiVPzsAO9IJ4LKWXZ8vkR2bg4.jpg", "popularity": 17.218}, {"id": 14813, "video": false, "vote_count": 456, "vote_average": 7.6, "title": "Mickey's Christmas Carol", "release_date": "1983-10-19", "original_language": "en", "original_title": "Mickey's Christmas Carol", "genre_ids": [16, 10751], "backdrop_path": "/fDK3xeAcQfQ40ZUULgZshElkspa.jpg", "adult": false, "overview": "It is an adaptation of the Charles Dickens classic A Christmas Carol, featuring Scrooge McDuck as his namesake and inspiration Ebenezer Scrooge and Mickey Mouse as Bob Cratchit. This film was based on a 1972 audio musical entitled Disney's A Christmas Carol. It is a twenty-four minute animated short film produced by Walt Disney Productions as an accompaniment to a re-release of The Rescuers.", "poster_path": "/29iF1IiC3ZyJQ1kmTf4LD8p8oro.jpg", "popularity": 14.7}, {"id": 9479, "video": false, "vote_count": 5316, "vote_average": 7.8, "title": "The Nightmare Before Christmas", "release_date": "1993-10-09", "original_language": "en", "original_title": "The Nightmare Before Christmas", "genre_ids": [16, 14, 10751], "backdrop_path": "/16lk65YfrDFIr6evkWRjSeOOSws.jpg", "adult": false, "overview": "Tired of scaring humans every October 31 with the same old bag of tricks, Jack Skellington, the spindly king of Halloween Town, kidnaps Santa Claus and plans to deliver shrunken heads and other ghoulish gifts to children on Christmas morning. But as Christmas approaches, Jack's rag-doll girlfriend, Sally, tries to foil his misguided plans.", "poster_path": "/6oxkO1VgKCq74fNILKAg6t2dVEt.jpg", "popularity": 18.951}, {"id": 650755, "video": false, "vote_count": 0, "vote_average": 0.0, "title": "Atordoado, Eu Permane\u00e7o Atento", "release_date": "2020-01-15", "original_language": "pt", "original_title": "Atordoado, Eu Permane\u00e7o Atento", "genre_ids": [99], "backdrop_path": null, "adult": false, "overview": "", "poster_path": "/exbM8qk6f6T44olJXcM8ix1sunL.jpg", "popularity": 5.092}, {"id": 77931, "video": false, "vote_count": 1336, "vote_average": 5.7, "title": "The Smurfs 2", "release_date": "2013-07-30", "original_language": "en", "original_title": "The Smurfs 2", "genre_ids": [16, 35, 14, 10751], "backdrop_path": "/xqfnJn8ApELIa1zGLOa3W9q2Ztn.jpg", "adult": false, "overview": "The evil wizard Gargamel creates a couple of mischievous Smurf-like creatures called the Naughties that he hopes will let him harness the all-powerful, magical Smurf-essence. But when he discovers that only a real Smurf can give him what he wants, and only a secret spell that Smurfette knows can turn the Naughties into real Smurfs, Gargamel kidnaps Smurfette and brings her to Paris, where he has been winning the adoration of millions as the world\u00b9s greatest sorcerer. It's up to Papa, Clumsy, Grouchy, and Vanity to return to our world, reunite with their human friends Patrick and Grace Winslow, and rescue her! Will Smurfette, who has always felt different from the other Smurfs, find a new connection with the Naughties Vexy and Hackus or will the Smurfs convince her that their love for her is True Blue?", "poster_path": "/mF2FXzZ3EktWoagU4fzoabNsK6J.jpg", "popularity": 16.262}, {"adult": false, "backdrop_path": "/9l5Nzo1qbEslfCu2NYWimpZ1Vkc.jpg", "genre_ids": [35, 10751, 14, 10749], "id": 4523, "original_language": "en", "original_title": "Enchanted", "overview": "The beautiful princess Giselle is banished by an evil queen from her magical, musical animated land and finds herself in the gritty reality of the streets of modern-day Manhattan. Shocked by this strange new environment that doesn't operate on a \"happily ever after\" basis, Giselle is now adrift in a chaotic world badly in need of enchantment. But when Giselle begins to fall in love with a charmingly flawed divorce lawyer who has come to her aid - even though she is already promised to a perfect fairy tale prince back home - she has to wonder: Can a storybook view of romance survive in the real world?", "poster_path": "/65EfHNQ6NCeAoRPNLRhTyLqNZmU.jpg", "release_date": "2007-11-20", "title": "Enchanted", "video": false, "vote_average": 6.7, "vote_count": 3505, "popularity": 22.541}, {"id": 920, "video": false, "vote_count": 8603, "vote_average": 6.7, "title": "Cars", "release_date": "2006-06-08", "original_language": "en", "original_title": "Cars", "genre_ids": [12, 16, 35, 10751], "backdrop_path": "/a1MlbLBk5Sy6YvMbSuKfwGlDVlb.jpg", "adult": false, "overview": "Lightning McQueen, a hotshot rookie race car driven to succeed, discovers that life is about the journey, not the finish line, when he finds himself unexpectedly detoured in the sleepy Route 66 town of Radiator Springs. On route across the country to the big Piston Cup Championship in California to compete against two seasoned pros, McQueen gets to know the town's offbeat characters.", "poster_path": "/jpfkzbIXgKZqCZAkEkFH2VYF63s.jpg", "popularity": 58.103}, {"adult": false, "backdrop_path": "/3nG6BBIxgqbIM5p1iO61RyKzUkZ.jpg", "genre_ids": [16, 10751, 14, 12, 35, 10749], "id": 11970, "original_language": "en", "original_title": "Hercules", "overview": "Bestowed with superhuman strength, a young mortal named Hercules sets out to prove himself a hero in the eyes of his father, the great god Zeus. Along with his friends Pegasus, a flying horse, and Phil, a personal trainer, Hercules is tricked by the hilarious, hotheaded villain Hades, who's plotting to take over Mount Olympus!", "poster_path": "/eFlBFMAifj436QctX3akDkUnhlk.jpg", "release_date": "1997-06-20", "title": "Hercules", "video": false, "vote_average": 7.5, "vote_count": 4318, "popularity": 23.839}, {"id": 533, "video": false, "vote_count": 1440, "vote_average": 6.9, "title": "Wallace & Gromit: The Curse of the Were-Rabbit", "release_date": "2005-09-04", "original_language": "en", "original_title": "Wallace & Gromit: The Curse of the Were-Rabbit", "genre_ids": [12, 16, 35, 10751], "backdrop_path": "/v45E1vDhPp2hc1dEZx5KZuRsSxX.jpg", "adult": false, "overview": "Cheese-loving eccentric Wallace and his cunning canine pal, Gromit, investigate a mystery in Nick Park's animated adventure, in which the lovable inventor and his intrepid pup run a business ridding the town of garden pests. Using only humane methods that turn their home into a halfway house for evicted vermin, the pair stumble upon a mystery involving a voracious vegetarian monster that threatens to ruin the annual veggie-growing contest.", "poster_path": "/tLryx0x9TDV5rifA9W8yUvDZFHB.jpg", "popularity": 21.23}, {"id": 321612, "video": false, "vote_count": 11799, "vote_average": 6.9, "title": "Beauty and the Beast", "release_date": "2017-03-16", "original_language": "en", "original_title": "Beauty and the Beast", "genre_ids": [14, 10749, 10751], "backdrop_path": "/6aUWe0GSl69wMTSWWexsorMIvwU.jpg", "adult": false, "overview": "A live-action adaptation of Disney's version of the classic tale of a cursed prince and a beautiful young woman who helps him break the spell.", "poster_path": "/tWqifoYuwLETmmasnGHO7xBjEtt.jpg", "popularity": 47.679}, {"id": 856, "video": false, "vote_count": 3249, "vote_average": 7.4, "title": "Who Framed Roger Rabbit", "release_date": "1988-06-21", "original_language": "en", "original_title": "Who Framed Roger Rabbit", "genre_ids": [16, 35, 80, 14, 10751], "backdrop_path": "/9podqGmd36AJHO13HQIQHQZRTJC.jpg", "adult": false, "overview": "'Toon star Roger is worried that his wife Jessica is playing pattycake with someone else, so the studio hires detective Eddie Valiant to snoop on her. But the stakes are quickly raised when Marvin Acme is found dead and Roger is the prime suspect.", "poster_path": "/lYfRc57Kx9VgLZ48iulu0HKnM15.jpg", "popularity": 20.755}, {"id": 399174, "video": false, "vote_count": 2443, "vote_average": 7.9, "title": "Isle of Dogs", "release_date": "2018-03-23", "original_language": "en", "original_title": "Isle of Dogs", "genre_ids": [12, 16, 35], "backdrop_path": "/5YtXsLG9ncjjFyGZjoeV31CGf01.jpg", "adult": false, "overview": "In the future, an outbreak of canine flu leads the mayor of a Japanese city to banish all dogs to an island that's a garbage dump. The outcasts must soon embark on an epic journey when a 12-year-old boy arrives on the island to find his beloved pet.", "poster_path": "/c0nUX6Q1ZB0P2t1Jo6EeFSVnOGQ.jpg", "popularity": 20.413}, {"id": 10882, "video": false, "vote_count": 3219, "vote_average": 6.9, "title": "Sleeping Beauty", "release_date": "1959-01-28", "original_language": "en", "original_title": "Sleeping Beauty", "genre_ids": [16, 14, 10749, 10751], "backdrop_path": "/oHZIobyIG0YzWntyPCTSJDOk9qB.jpg", "adult": false, "overview": "A beautiful princess born in a faraway kingdom is destined by a terrible curse to prick her finger on the spindle of a spinning wheel and fall into a deep sleep that can only be awakened by true love's first kiss. Determined to protect her, her parents ask three fairies to raise her in hiding. But the evil Maleficent is just as determined to seal the princess's fate.", "poster_path": "/j4YBuAe8D1jDSiitpq69og9x3Yl.jpg", "popularity": 29.356}, {"id": 19, "video": false, "vote_count": 1340, "vote_average": 8.2, "title": "Metropolis", "release_date": "1927-01-10", "original_language": "de", "original_title": "Metropolis", "genre_ids": [18, 878], "backdrop_path": "/gmH0N0bdlYGN1EUr8U2cMQYyg78.jpg", "adult": false, "overview": "In a futuristic city sharply divided between the working class and the city planners, the son of the city's mastermind falls in love with a working class prophet who predicts the coming of a savior to mediate their differences.", "poster_path": "/qriaeUUwdmlgethK3aSAx68mG05.jpg", "popularity": 20.587}, {"id": 4977, "video": false, "vote_count": 999, "vote_average": 7.8, "title": "Paprika", "release_date": "2006-10-01", "original_language": "ja", "original_title": "\u30d1\u30d7\u30ea\u30ab", "genre_ids": [16, 18, 9648, 878, 53], "backdrop_path": "/jViKJYWcILHeN0KH1Wub0Go59TZ.jpg", "adult": false, "overview": "When a machine that allows therapists to enter their patient's dreams is stolen, all hell breaks loose. Only a young female therapist can stop it: Paprika.", "poster_path": "/bLUUr474Go1DfeN1HLjE3rnZXBq.jpg", "popularity": 14.934}], "total_pages": 923, "total_results": 18441}, "recommendations": {"page": 1, "results": [], "total_pages": 1, "total_results": 0}, "credits": {"cast": [{"cast_id": 1, "character": "P\u00e1l", "credit_id": "5ad5df0ec3a3680c16015c72", "gender": 0, "id": 2024439, "name": "P\u00e1l G\u00f6ttinger", "order": 0, "profile_path": null}, {"cast_id": 2, "character": "Andr\u00e1s", "credit_id": "5ad5df199251415dc3013551", "gender": 0, "id": 2024440, "name": "G\u00e9za Tak\u00e1cs", "order": 1, "profile_path": null}, {"cast_id": 0, "character": "Lady", "credit_id": "5ad5df040e0a2660aa0145aa", "gender": 1, "id": 130875, "name": "Andrea Osv\u00e1rt", "order": 2, "profile_path": "/toSq6w1F9HePFE4wkErMhAOaxkP.jpg"}], "crew": [{"credit_id": "5ad5df380e0a2660ad015692", "department": "Directing", "gender": 0, "id": 1092678, "job": "Director", "name": "Barnab\u00e1s T\u00f3th", "profile_path": "/evjIMNxu1Vr4ppkYSHJvZoxkfl3.jpg"}, {"credit_id": "5ad5df3f9251415dbd0130db", "department": "Writing", "gender": 0, "id": 1092678, "job": "Screenplay", "name": "Barnab\u00e1s T\u00f3th", "profile_path": "/evjIMNxu1Vr4ppkYSHJvZoxkfl3.jpg"}, {"credit_id": "5ad5df480e0a2660ad0156a6", "department": "Production", "gender": 0, "id": 2024441, "job": "Producer", "name": "Andrea Kuczk\u00f3", "profile_path": null}, {"credit_id": "5ad5df589251415dcc013cc9", "department": "Production", "gender": 0, "id": 1208471, "job": "Producer", "name": "G\u00e1bor Rajna", "profile_path": null}, {"credit_id": "5ad5df610e0a2660bf013929", "department": "Production", "gender": 0, "id": 1970728, "job": "Producer", "name": "Lajos T\u00f3th", "profile_path": null}, {"credit_id": "5ad5df7a0e0a2660bf013946", "department": "Editing", "gender": 0, "id": 2024444, "job": "Editor", "name": "Gyula Heged\u00fcs", "profile_path": null}, {"credit_id": "5ad5df859251415dc30135ba", "department": "Directing", "gender": 0, "id": 2024445, "job": "Assistant Director", "name": "Linda Lisztes", "profile_path": null}, {"credit_id": "5ad5df90c3a3680c050130d9", "department": "Sound", "gender": 0, "id": 2024446, "job": "Sound Mixer", "name": "B\u00e1lint Z\u00e1ndoki", "profile_path": null}, {"credit_id": "5b44ec920e0a26711602efbb", "department": "Sound", "gender": 0, "id": 2024442, "job": "Original Music Composer", "name": "L\u00e1szl\u00f3 Pirisi", "profile_path": null}, {"credit_id": "5b44eca79251414f390274ac", "department": "Camera", "gender": 2, "id": 2024443, "job": "Director of Photography", "name": "Andr\u00e1s G\u00e1bor Sz\u00f6ke", "profile_path": null}]}}