{"adult": false, "backdrop_path": "/1xhBgMP2XYNx8S5OkvqbXG7yjcz.jpg", "belongs_to_collection": null, "budget": 0, "genres": [{"id": 80, "name": "Crime"}, {"id": 9648, "name": "Mystery"}, {"id": 53, "name": "Thriller"}], "homepage": null, "id": 519335, "imdb_id": "tt5022560", "original_language": "en", "original_title": "Goodland", "overview": "When the body of a drifter is discovered the same day a photographer arrives in a small farming community, the local sheriff is left to piece together a string of events that don't quite add up.", "popularity": 1.148, "poster_path": "/imNMQSeQcRow5nKJWCUiKG3w3rp.jpg", "production_companies": [{"id": 103560, "logo_path": "/gu4mxx5uKYvs5sJQV0QDtx0cc1W.png", "name": "Rockhaven Films", "origin_country": "US"}], "production_countries": [], "release_date": "2018-05-11", "revenue": 0, "runtime": 84, "spoken_languages": [{"iso_639_1": "en", "name": "English"}], "status": "Released", "tagline": "", "title": "Goodland", "video": false, "vote_average": 4.0, "vote_count": 1, "keywords": {"keywords": [{"id": 13017, "name": "drifter"}]}, "similar": {"page": 1, "results": [{"id": 2019, "video": false, "vote_count": 488, "vote_average": 6.1, "title": "Hard Target", "release_date": "1993-08-20", "original_language": "en", "original_title": "Hard Target", "genre_ids": [28, 12, 80, 18, 53], "backdrop_path": "/6r1nGcCP1gzlorSJgtmm5W434rw.jpg", "adult": false, "overview": "When a woman's father goes missing, she enlist a local to aid in her search.  The pair soon discover that her father has died at the hands of a wealthy sportsman who hunts homeless men as a form of recreation.", "poster_path": "/6WEu60V7EzncuFJSVmGJzhFvs4I.jpg", "popularity": 17.435}, {"id": 76812, "video": false, "vote_count": 325, "vote_average": 6.3, "title": "Black Butterfly", "release_date": "2017-05-26", "original_language": "en", "original_title": "Black Butterfly", "genre_ids": [53], "backdrop_path": "/p0UpMWsISGexlFccIg4baEjyj76.jpg", "adult": false, "overview": "Paul is a down-on-his-luck screenwriter who picks up a drifter and offers him a place to stay. However, when the deranged stranger takes Paul hostage and forces him to write, their unhinged relationship brings buried secrets to light.", "poster_path": "/cbFMuxF8p6C7Sbutbxsc4M57jrH.jpg", "popularity": 10.771}, {"adult": false, "backdrop_path": "/22cuO9wM2mnpvXx2NDT8la0IBKY.jpg", "genre_ids": [80, 53], "id": 188166, "original_language": "en", "original_title": "Blue Ruin", "overview": "When the quiet life of a beach bum is upended by dreadful news, he sets off for his childhood home to carry out an act of vengeance. However, he proves an inept assassin and finds himself in a brutal fight to protect his estranged family.", "poster_path": "/jspgd5F60RH8sKFfuvVW5jVL1F0.jpg", "release_date": "2013-09-09", "title": "Blue Ruin", "video": false, "vote_average": 6.8, "vote_count": 812, "popularity": 8.111}, {"id": 30618, "video": false, "vote_count": 180, "vote_average": 6.0, "title": "Bunraku", "release_date": "2010-09-01", "original_language": "en", "original_title": "Bunraku", "genre_ids": [28, 18, 53], "backdrop_path": "/bB3qunHzqSxLLEgXw1WpATCRLxk.jpg", "adult": false, "overview": "In a world with no guns, a mysterious drifter, a bartender and a young samurai plot revenge against a ruthless leader and his army of thugs, headed by nine diverse and deadly assassins.", "poster_path": "/85sDkrECwDoez5RByFT1I2d8I0j.jpg", "popularity": 7.814}, {"adult": false, "backdrop_path": "/zdYy22WBJeXFTVXsZ1s1zA7WKkd.jpg", "genre_ids": [80, 18, 53], "id": 25736, "original_language": "en", "original_title": "The Postman Always Rings Twice", "overview": "A married woman and a drifter fall in love, then plot to murder her husband.", "poster_path": "/7yY32i0KZtA1cQmbjGHYR1B40h7.jpg", "release_date": "1946-05-02", "title": "The Postman Always Rings Twice", "video": false, "vote_average": 7.3, "vote_count": 138, "popularity": 11.003}, {"id": 5155, "video": false, "vote_count": 91, "vote_average": 7.4, "title": "Ossessione", "release_date": "1943-05-16", "original_language": "it", "original_title": "Ossessione", "genre_ids": [80, 18, 10749], "backdrop_path": "/ftFxhrKMqgtGXEOkq73ZpMmRBbO.jpg", "adult": false, "overview": "Gino, a drifter, begins an affair with inn-owner Giovanna as they plan to get rid of her older husband.", "poster_path": "/qgDF8yuJa9eEcfBqEQrqbJuxe5z.jpg", "popularity": 11.772}, {"id": 257444, "video": false, "vote_count": 84, "vote_average": 5.6, "title": "The Boy", "release_date": "2015-08-14", "original_language": "en", "original_title": "The Boy", "genre_ids": [18, 27, 53], "backdrop_path": "/ohowfrZr0H4HEmpfaaGtmvMMZBF.jpg", "adult": false, "overview": "An intimate portrait of a 9 year old sociopath as he discovers his taste for killing.", "poster_path": "/58EhIese7a77U8PtZSylT8rt4I6.jpg", "popularity": 5.676}, {"id": 26243, "video": false, "vote_count": 42, "vote_average": 6.7, "title": "Fallen Angel", "release_date": "1945-11-15", "original_language": "en", "original_title": "Fallen Angel", "genre_ids": [80, 9648, 10749], "backdrop_path": "/yNqFvR6HH2OxZWwEygbWUXPm8uD.jpg", "adult": false, "overview": "An unemployed drifter, Eric Stanton wanders into a small California town and begins hanging around the local diner. While Eric falls for the lovely waitress Stella, he also begins romancing a quiet and well-to-do woman named June Mills. Since Stella isn't interested in Eric unless he has money, the lovelorn guy comes up with a scheme to win her over, and it involves June. Before long, murder works its way into this passionate love triangle.", "poster_path": "/eGtRuKRXfhf6dX1VWhI6e1I0uQU.jpg", "popularity": 5.908}, {"id": 1619, "video": false, "vote_count": 209, "vote_average": 6.4, "title": "The Way of the Gun", "release_date": "2000-09-08", "original_language": "en", "original_title": "The Way of the Gun", "genre_ids": [28, 80, 18, 53], "backdrop_path": "/g9firif6CMl08WHfhBh4JwpEVnB.jpg", "adult": false, "overview": "Two criminal drifters without sympathy get more than they bargained for after kidnapping and holding for ransom the surrogate mother of a powerful and shady man.", "poster_path": "/zLMZxrVeepvtAbL3iUGexAtznmT.jpg", "popularity": 8.28}, {"adult": false, "backdrop_path": "/6Nmn0yMihiNS5UPGAEiDmZzhEwg.jpg", "genre_ids": [18, 80], "id": 17030, "original_language": "en", "original_title": "The Petrified Forest", "overview": "Gaby is a waitress in an isolated Arizona gas station who dreams of a bigger and better life. One day, destitute intellectual Alan drifts into the joint and the two strike up a rapport. Soon enough, Notorious killer Duke Mantee takes the gas station hostage. Surrounded by miles of desert, the patrons and staff are forced to sit tight with Mantee and his gang overnight.", "poster_path": "/fU5rj72flMFCwTKUkIwbfUgvYBx.jpg", "release_date": "1936-02-08", "title": "The Petrified Forest", "video": false, "vote_average": 7.4, "vote_count": 90, "popularity": 9.113}, {"adult": false, "backdrop_path": "/33qfoqP8tgB0AcgDGyloXQUfWIf.jpg", "genre_ids": [28, 35, 80, 18], "id": 13552, "original_language": "en", "original_title": "The Doom Generation", "overview": "Jordan White and Amy Blue, two troubled teens, pick up an adolescent drifter, Xavier Red. Together, the threesome embark on a sex and violence-filled journey through an America of psychos and quickiemarts.", "poster_path": "/6ZwsSedjyzR0poDrKlJaYWoseaH.jpg", "release_date": "1995-10-27", "title": "The Doom Generation", "video": false, "vote_average": 6.2, "vote_count": 111, "popularity": 9.492}, {"id": 237584, "video": false, "vote_count": 64, "vote_average": 4.9, "title": "Mojave", "release_date": "2015-04-18", "original_language": "en", "original_title": "Mojave", "genre_ids": [53], "backdrop_path": "/ktj0FMA6ST4j0sZsaueBRa5LVCO.jpg", "adult": false, "overview": "A suicidal artist goes into the desert, where he finds his doppelg\u00e4nger, a homicidal drifter.", "poster_path": "/4Dxd5SbhiwDaca1axQIePHN8uvl.jpg", "popularity": 7.153}, {"id": 21619, "video": false, "vote_count": 32, "vote_average": 6.2, "title": "King of the Ants", "release_date": "2003-07-28", "original_language": "en", "original_title": "King of the Ants", "genre_ids": [28, 80, 18, 27, 53], "backdrop_path": "/xcfpiUV5APngRXoivL11mkcDVSf.jpg", "adult": false, "overview": "A young drifter, struggling to makes ends meet, accepts a job to kill a prominent accountant. When he isn't paid for the hit, revenge is now his path.", "poster_path": "/bFsxsZlEDo1rMemCLZiR06z9YlF.jpg", "popularity": 3.941}, {"adult": false, "backdrop_path": "/x1RyR9XbTG6qCuZhkTgyx96ADHt.jpg", "genre_ids": [18], "id": 68722, "original_language": "en", "original_title": "The Master", "overview": "Freddie, a volatile, heavy-drinking veteran who suffers from post-traumatic stress disorder, finds some semblance of a family when he stumbles onto the ship of Lancaster Dodd, the charismatic leader of a new \"religion\" he forms after World War II.", "poster_path": "/rUSjbyvYWN9H4az8xt0tDtU7I6v.jpg", "release_date": "2012-09-07", "title": "The Master", "video": false, "vote_average": 7.2, "vote_count": 1552, "popularity": 23.528}, {"id": 412061, "video": false, "vote_count": 2, "vote_average": 9.3, "title": "Age Out", "release_date": "2019-11-22", "original_language": "en", "original_title": "Age Out", "genre_ids": [80, 18], "backdrop_path": "/zXbyWHoSyIxWrvdYUsugpZX0nLF.jpg", "adult": false, "overview": "Fresh out of foster care at age 18, a young drifter turns to petty crime to survive, and discovers an impossible love in an unlikely friend.", "poster_path": "/v5yW5oxpKAlk2219EVCJ7QiOLCe.jpg", "popularity": 4.062}, {"adult": false, "backdrop_path": "/Akdkq4k3YJc66fDTp8hztlBiCgb.jpg", "genre_ids": [27, 53], "id": 519337, "original_language": "en", "original_title": "Tempus Tormentum", "overview": "A drifter passing through a small town is drugged by three masked psychopaths and forced into a bizarre game of cat and mouse. He is chased through a series of more and more bizarre events until, in the end, he finds that this evening of terror has lasting consequences. It\u2019s a feel bad film, nasty and brutish, red in tooth and claw.", "poster_path": "/8ZbJ7bDmcKr8GzqoKI00awhjqyH.jpg", "release_date": "2018-04-17", "title": "Tempus Tormentum", "video": false, "vote_average": 4.9, "vote_count": 12, "popularity": 3.968}, {"adult": false, "backdrop_path": "/4VT6S9q724cdiYZ98IN0e2jLrLq.jpg", "genre_ids": [80, 35], "id": 46510, "original_language": "en", "original_title": "The High Sign", "overview": "Buster is thrown off a train near an amusement park. There he gets a job in a shooting gallery run by the Blinking Buzzards mob. Ordered to kill a businessman, he winds up protecting the man and his daughter by outfitting their home with trick devices.", "poster_path": "/gfm1qL4of2ZjVxeL1RLRprALlKN.jpg", "release_date": "1921-04-18", "title": "The High Sign", "video": false, "vote_average": 7.3, "vote_count": 43, "popularity": 4.314}, {"id": 77670, "video": false, "vote_count": 8, "vote_average": 5.0, "title": "Kansas", "release_date": "1988-09-23", "original_language": "en", "original_title": "Kansas", "genre_ids": [80, 18, 53, 10749], "backdrop_path": null, "adult": false, "overview": "A drifter becomes both a bank robber and a hero in this crime thriller. Andrew McCarthy stars as Wade Corey, who hitches a ride on a freight train already occupied by Doyle Kennedy (Matt Dillon), a charming ex-con who convinces Wade to accompany him to his hometown. Once there, Wade realizes too late that Doyle is intent on robbing the local bank. After they are separated following the crime, Wade hides the money. Happening upon a drowning in progress, he saves a young girl who just happens to be the daughter of the state governor, and he becomes an unlikely hero. Finding work at a nearby farm, the meandering Wade becomes a hired hand, falls for the beautiful daughter (Leslie Hope) of his boss, and dreads the return of Doyle, who is sure to come looking for his money.", "poster_path": "/tQ1gIYqfZvVCz8MUvDNpxI9lPUM.jpg", "popularity": 1.604}, {"adult": false, "backdrop_path": "/tdCHGB6Syji3xg8LRvv5tmvPtRY.jpg", "genre_ids": [35, 18, 53], "id": 421044, "original_language": "en", "original_title": "Best F(r)iends: Volume 1", "overview": "When a drifter befriends a quirky mortician, an unlikely business partnership is formed. Paranoia soon develops, however, and both men are forced to come to terms with the fragility of friendship and loyalty.", "poster_path": "/3vDQbXCliqQCsH0EcC2v5NMuLgp.jpg", "release_date": "2017-09-04", "title": "Best F(r)iends: Volume 1", "video": false, "vote_average": 5.1, "vote_count": 36, "popularity": 5.216}, {"id": 10908, "video": false, "vote_count": 102, "vote_average": 5.3, "title": "Inferno", "release_date": "1999-09-25", "original_language": "en", "original_title": "Inferno", "genre_ids": [28, 18, 10749], "backdrop_path": "/cQ920d829HuQao4fquBVNbRuySy.jpg", "adult": false, "overview": "Eddie Lomax (Jean-Claude Van Damme) is a drifter who has been in a suicidal funk since the death of his close friend Johnny (Danny Trejo). Riding his motorcycle into a small desert town where Johnny once lived, Lomax is confronted by a gang of toughs, who beat him and steal his bike. However, Lomax is not a man to take an injustice lying down, and soon he begins exacting a violent revenge on the men who stole his motorcycle, with local handyman Jubal Early (Pat Morita) lending a hand and several area ladies offering aid and comfort.", "poster_path": "/dFlI0Vb4JOsRXG1JSS2Ufs6Sp8k.jpg", "popularity": 9.672}], "total_pages": 3, "total_results": 59}, "recommendations": {"page": 1, "results": [], "total_pages": 1, "total_results": 0}, "credits": {"cast": [{"cast_id": 1, "character": "Ergo Raines", "credit_id": "5ad9462bc3a3683c85000988", "gender": 0, "id": 2026271, "name": "Matt Weiss", "order": 1, "profile_path": null}, {"cast_id": 2, "character": "Sheriff Georgette Gaines", "credit_id": "5ad94639c3a3683c7c000aff", "gender": 0, "id": 1163723, "name": "Cinnamon Schultz", "order": 2, "profile_path": null}, {"cast_id": 3, "character": "Ida Flowers", "credit_id": "5ad9465dc3a3683c69000b67", "gender": 0, "id": 2026273, "name": "Sara Kennedy", "order": 3, "profile_path": null}, {"cast_id": 4, "character": "Guy", "credit_id": "5ad9466a9251415905000b0d", "gender": 0, "id": 1030250, "name": "Jason Curtis Miller", "order": 4, "profile_path": null}, {"cast_id": 5, "character": "Hal Bloom", "credit_id": "5ad946779251415905000b1d", "gender": 2, "id": 151447, "name": "Kip Niven", "order": 5, "profile_path": "/cjQAIRCEPNt8s6cHBZKzCl3SxIN.jpg"}], "crew": [{"credit_id": "5ad9460cc3a3683c6d000ae1", "department": "Directing", "gender": 0, "id": 2026270, "job": "Director", "name": "Josh Doke", "profile_path": null}]}}