{"adult": false, "backdrop_path": "/3xqkD4QaB9qYrOgcc5YdfMvof7Z.jpg", "belongs_to_collection": null, "budget": 19000000, "genres": [{"id": 18, "name": "Drama"}], "homepage": "", "id": 519465, "imdb_id": "tt8378126", "original_language": "da", "original_title": "Dronningen", "overview": "Anne, a brilliant and dedicated advocacy lawyer specialising in society\u2019s most vulnerable, children and young adults, lives what appears to be the picture-perfect life with her doctor-husband, Peter, and their twin daughters. When her estranged teenage stepson, Gustav, moves in with them, Anne\u2019s escalating desire leads her down a dangerous rabbit hole which, once exposed, unleashes a sequence of events destined to destroy her world.", "popularity": 11.585, "poster_path": "/dfFVDIgovEfQZn53VRKLV2JQnRJ.jpg", "production_companies": [{"id": 235, "logo_path": "/obOynoztBEhDNfHsDXBqOuQLAZk.png", "name": "Nordisk Film", "origin_country": "DK"}, {"id": 327, "logo_path": "/obOynoztBEhDNfHsDXBqOuQLAZk.png", "name": "Nordisk Film", "origin_country": "SE"}], "production_countries": [{"iso_3166_1": "DK", "name": "Denmark"}, {"iso_3166_1": "SE", "name": "Sweden"}], "release_date": "2019-03-27", "revenue": 0, "runtime": 127, "spoken_languages": [{"iso_639_1": "da", "name": "Dansk"}, {"iso_639_1": "sv", "name": "svenska"}], "status": "Released", "tagline": "", "title": "Queen of Hearts", "video": false, "vote_average": 7.2, "vote_count": 43, "keywords": {"keywords": [{"id": 187056, "name": "woman director"}]}, "similar": {"page": 1, "results": [{"adult": false, "backdrop_path": "/cADbqsIoiDW7X3Myg9nz8eAuno5.jpg", "genre_ids": [18, 10749], "id": 10818, "original_language": "fr", "original_title": "Naissance des pieuvres", "overview": "Set during a sultry summer in a French suburb, Marie is desperate to join the local pool's synchronized swimming team, but is her interest solely for the sake of sport or for a chance to get close to Floriane, the bad girl of the team? Sciamma, and the two leads, capture the uncertainty of teenage sexuality with a sympathetic eye in this delicate drama of the angst of coming-of-age.", "poster_path": "/4jajELYrR4Xmv3CVoKnukRnALa2.jpg", "release_date": "2007-05-17", "title": "Water Lilies", "video": false, "vote_average": 6.1, "vote_count": 119, "popularity": 9.614}, {"adult": false, "backdrop_path": "/gZeJziVigmRqbkEZwKAtSqlLQ6s.jpg", "genre_ids": [18, 10749], "id": 370663, "original_language": "en", "original_title": "Below Her Mouth", "overview": "An unexpected affair quickly escalates into a heart-stopping reality for two women whose passionate connection changes their lives forever.", "poster_path": "/nTGbq37hYLuNy7YgMg0gVLma0NS.jpg", "release_date": "2016-09-10", "title": "Below Her Mouth", "video": false, "vote_average": 6.2, "vote_count": 456, "popularity": 18.664}, {"adult": false, "backdrop_path": "/dvQDRfv3qvfHNnVAR57ouVsuErf.jpg", "genre_ids": [10749, 18], "id": 28031, "original_language": "en", "original_title": "If These Walls Could Talk 2", "overview": "The stories of three lesbian couples -- who live in the same house at different periods of time -- who are at a crossroads in their lives. In 1961, Edith loses her lover, Abby, to a stroke. Linda and Amy struggle with feminist issues in 1972. And, in 2000, Kal and Fran try to have a baby with the help of sperm donor.", "poster_path": "/xs7ODbmYQXCDhvXNvz5tF17T59H.jpg", "release_date": "2000-03-05", "title": "If These Walls Could Talk 2", "video": false, "vote_average": 7.1, "vote_count": 55, "popularity": 8.86}, {"adult": false, "backdrop_path": "/knczzNAjBXzSYkeWxoT1u9VNmjR.jpg", "genre_ids": [10749, 18], "id": 258480, "original_language": "en", "original_title": "Carol", "overview": "In 1950s New York, a department-store clerk who dreams of a better life falls for an older, married woman.", "poster_path": "/AbKa7ANxmui0Jmhh7gV7OSELKIL.jpg", "release_date": "2015-11-20", "title": "Carol", "video": false, "vote_average": 7.4, "vote_count": 2184, "popularity": 13.539}, {"adult": false, "backdrop_path": "/fZ8oFcREAr6wgWcXISGql0xyxjB.jpg", "genre_ids": [35, 18], "id": 39781, "original_language": "en", "original_title": "The Kids Are All Right", "overview": "Two women, Nic and Jules, brought a son and daughter into the world through artificial insemination. When one of their children reaches age, both kids go behind their mothers' backs to meet with the donor. Life becomes so much more interesting when the father, two mothers and children start to become attached to each other.", "poster_path": "/fPDeK4MmoGfi2X0oWZev7LrbMqM.jpg", "release_date": "2010-07-09", "title": "The Kids Are All Right", "video": false, "vote_average": 6.6, "vote_count": 923, "popularity": 12.159}, {"adult": false, "backdrop_path": "/rf6G51j0SZL0tP57I8gnqHTRFEr.jpg", "genre_ids": [35, 18, 10749], "id": 273153, "original_language": "fr", "original_title": "La belle saison", "overview": "In 1971, Carole and Delphine meet and fall in love in Paris. When Carole follows Delphine back to her family farm in Limousin, the two find lesbianism and feminism are not as easy in the countryside.", "poster_path": "/evvAkNMO5VJiy5qIo1Hu7fUfvVI.jpg", "release_date": "2015-08-19", "title": "Summertime", "video": false, "vote_average": 6.6, "vote_count": 162, "popularity": 11.575}, {"adult": false, "backdrop_path": "/s12HEmmkJfI2mjltI61hGm5kubD.jpg", "genre_ids": [35, 18, 10749], "id": 20770, "original_language": "en", "original_title": "But I'm a Cheerleader", "overview": "Megan is an all-American girl. A cheerleader. She has a boyfriend. But Megan doesn't like kissing her boyfriend very much. And she's pretty touchy with her cheerleader friends. Her conservative parents worry that she must be a lesbian and send her off to \"sexual redirection\" school, where she must, with other lesbians and gays learn how to be straight.", "poster_path": "/eDGH7CHSdkrYcuUJV1e0WS9DlQL.jpg", "release_date": "1999-12-09", "title": "But I'm a Cheerleader", "video": false, "vote_average": 6.8, "vote_count": 246, "popularity": 9.011}, {"id": 9813, "video": false, "vote_count": 128, "vote_average": 6.1, "title": "The Quiet", "release_date": "2005-09-12", "original_language": "en", "original_title": "The Quiet", "genre_ids": [18, 53], "backdrop_path": "/6eyWAZA4CEidZW1xXnQ4vlYBXTP.jpg", "adult": false, "overview": "After her widowed father dies, deaf teenager Dot moves in with her godparents, Olivia and Paul Deer. The Deers' daughter, Nina, is openly hostile to Dot, but that does not prevent her from telling her secrets to her silent stepsister, including the fact that she wants to kill her lecherous father.", "poster_path": "/GEqIE9YlmygHVUfS64LW2cwAAM.jpg", "popularity": 14.844}, {"adult": false, "backdrop_path": "/tzqeuHWMFihFbiLGHdalPgAcSf6.jpg", "genre_ids": [18, 10749], "id": 18620, "original_language": "en", "original_title": "Go Fish", "overview": "Max is a trendy, pretty, young lesbian, who is having trouble finding love. A friend sets her up with Ely, whom Max likes, but Ely is frumpy, homely, and older. Nor do they have much in common. Can Max learn to look past the packaging?", "poster_path": "/qrEFYrwykaGsY8NULYuYLLI7zrM.jpg", "release_date": "1994-06-10", "title": "Go Fish", "video": false, "vote_average": 5.0, "vote_count": 11, "popularity": 3.676}, {"adult": false, "backdrop_path": "/6tern9vOEwwmkDYC1vRCuO64z0C.jpg", "genre_ids": [10749, 18], "id": 475888, "original_language": "en", "original_title": "Tell It to the Bees", "overview": "Dr. Jean Markham returns to the town she left as a teenager to take over her late father's medical practice. When a school-yard scuffle lands Charlie in her surgery, she invites him to visit the hives in her garden and tell his secrets to the bees, as she once did. The new friendship between the boy and the bee keeper brings his mother Lydia into Jean's world.", "poster_path": "/Rj6zpHhMU1zFW3v28U4PSRSRgP.jpg", "release_date": "2019-05-03", "title": "Tell It to the Bees", "video": false, "vote_average": 6.4, "vote_count": 53, "popularity": 13.175}, {"adult": false, "backdrop_path": "/baYbbMtKRDoDWYJeVWkbygAvAj8.jpg", "genre_ids": [18, 10749], "id": 31216, "original_language": "en", "original_title": "I Can't Think Straight", "overview": "I CAN'T THINK STRAIGHT is a 2007 romance movie about a London-based Jordanian of Palestinian descent, Tala, who is preparing for an elaborate wedding. A turn of events causes her to have an affair and subsequently fall in love with another woman, Leyla, a British Indian.", "poster_path": "/1kapga6rkM5wNuQBYw7sdE42CrA.jpg", "release_date": "2008-06-01", "title": "I Can't Think Straight", "video": false, "vote_average": 7.6, "vote_count": 109, "popularity": 7.815}, {"adult": false, "backdrop_path": "/lI5h8KaoeObu4NMTwzeRuUHzRwD.jpg", "genre_ids": [18, 9648, 53], "id": 401898, "original_language": "no", "original_title": "Thelma", "overview": "A college student starts to experience extreme seizures. She soon learns that the violent episodes are a symptom of inexplicable abilities.", "poster_path": "/yzSfG8TLAqw7nMQh2lxirQkQpgs.jpg", "release_date": "2017-09-15", "title": "Thelma", "video": false, "vote_average": 7.1, "vote_count": 418, "popularity": 13.105}, {"adult": false, "backdrop_path": "/tIFRPjIXQ3sYrmxbIeOu9K1JkUz.jpg", "genre_ids": [18, 10749], "id": 294, "original_language": "en", "original_title": "Desert Hearts", "overview": "The story of straight-edge literature professor Vivian who travels to Reno to get away from a relationship breakup when she falls in love with an attractive and unconventional girl named Cay.", "poster_path": "/b8JSmQSpYYJhctMtxNgqh0elENg.jpg", "release_date": "1985-10-01", "title": "Desert Hearts", "video": false, "vote_average": 7.3, "vote_count": 58, "popularity": 6.976}, {"id": 2255, "video": false, "vote_count": 772, "vote_average": 6.8, "title": "Chasing Amy", "release_date": "1997-04-04", "original_language": "en", "original_title": "Chasing Amy", "genre_ids": [35, 18, 10749], "backdrop_path": "/doKYVK61Vb8J1KUjlb9dNWkQNp6.jpg", "adult": false, "overview": "Holden and Banky are comic book artists. Everything is going good for them until they meet Alyssa, also a comic book artist. Holden falls for her, but his hopes are crushed when he finds out she's a lesbian.", "poster_path": "/4vFJileWrCGaBeobCmF0tXpQCUb.jpg", "popularity": 13.95}, {"adult": false, "backdrop_path": "/hD8DQM72Xacg1d3mFqS0eN8vKYw.jpg", "genre_ids": [18], "id": 8272, "original_language": "en", "original_title": "The Savages", "overview": "A sister and brother face the realities of familial responsibility as they begin to care for their ailing father.", "poster_path": "/nY54gSmTOmSXlQpWDB7DWp4u8a7.jpg", "release_date": "2007-01-19", "title": "The Savages", "video": false, "vote_average": 6.9, "vote_count": 192, "popularity": 9.466}, {"adult": false, "backdrop_path": "/g3LYarEY9LjB28Ct2trwFN72gqZ.jpg", "genre_ids": [35], "id": 437557, "original_language": "en", "original_title": "Blockers", "overview": "When three parents discover their daughters\u2019 pact to lose their virginity at prom, they launch a covert one-night operation to stop the teens from sealing the deal.", "poster_path": "/uvlUQXg0AlpGzKukO11K7QtW3Yu.jpg", "release_date": "2018-03-14", "title": "Blockers", "video": false, "vote_average": 6.2, "vote_count": 1155, "popularity": 17.886}, {"adult": false, "backdrop_path": "/zBB1mzmqnUuSrlTuf0SFFlI1EoJ.jpg", "genre_ids": [18], "id": 244772, "original_language": "en", "original_title": "The Skeleton Twins", "overview": "Estranged twins Maggie and Milo coincidentally cheat death on the same day, prompting them to reunite and confront the reasons their lives went so wrong. As the twins' reunion reinvigorates them, they realize the key to fixing their lives may just lie in repairing their relationship.", "poster_path": "/vvmv1R2jDXJeeeyYcGg0ypXc2XK.jpg", "release_date": "2014-09-12", "title": "The Skeleton Twins", "video": false, "vote_average": 6.7, "vote_count": 416, "popularity": 10.481}, {"adult": false, "backdrop_path": "/3YGy88nTV2e0wxZcKI1goiEN9oy.jpg", "genre_ids": [18, 10749], "id": 37636, "original_language": "en", "original_title": "High Art", "overview": "A young female intern at a small magazine company becomes involved with a drug-addicted lesbian photographer, both of whom seek to exploit each other for their respective careers, while slowly falling in love with each other.", "poster_path": "/qTg05RNJIvb9w4Z7XIcAZxuZmTn.jpg", "release_date": "1998-06-12", "title": "High Art", "video": false, "vote_average": 6.6, "vote_count": 61, "popularity": 7.422}, {"adult": false, "backdrop_path": "/caLMOD3ZJ3V7qjlxDXrzlJfBLgD.jpg", "genre_ids": [18, 10749], "id": 20, "original_language": "en", "original_title": "My Life Without Me", "overview": "A Pedro Almodovar production in which a fatally ill mother with only two months to live creates a list of things she wants to do before she dies with out telling her family of her illness.", "poster_path": "/vVj92VBFUBzjqzLvBiPVVlJDp78.jpg", "release_date": "2003-03-07", "title": "My Life Without Me", "video": false, "vote_average": 6.1, "vote_count": 220, "popularity": 10.382}, {"adult": false, "backdrop_path": "/useuHJQ5HOoEWkAvEjL1FW1sUfe.jpg", "genre_ids": [18], "id": 376867, "original_language": "en", "original_title": "Moonlight", "overview": "The tender, heartbreaking story of a young man\u2019s struggle to find himself, told across three defining chapters in his life as he experiences the ecstasy, pain, and beauty of falling in love, while grappling with his own sexuality.", "poster_path": "/qAwFbszz0kRyTuXmMeKQZCX3Q2O.jpg", "release_date": "2016-10-21", "title": "Moonlight", "video": false, "vote_average": 7.4, "vote_count": 4410, "popularity": 21.716}], "total_pages": 1446, "total_results": 28910}, "recommendations": {"page": 1, "results": [{"id": 498162, "video": false, "vote_count": 7, "vote_average": 7.1, "title": "Before the Frost", "release_date": "2018-09-07", "original_language": "da", "original_title": "F\u00f8r frosten", "genre_ids": [18], "backdrop_path": "/gcpc7RDfADxz2YhgZrQdvuq69uT.jpg", "adult": false, "overview": "The film takes place somewhere in the Danish countryside in the middle of the 19th century. Here within a small Danish peasant family, harsh circumstances reign. With the prospect of yet another tough winter, the farmer Jens faces an unbearable choice. If the family is to survive the winter, he must settle an agreement with the rich farmer nearby and forsake his own moral as well as his most precious possession, in an effort to secure them all a better life.", "poster_path": "/w90AQ8FoABXy7UUtKxonnw0Q82Y.jpg", "popularity": 1.772}, {"adult": false, "backdrop_path": "/qRK1cQuTqKdg70dL6VZc3afewE2.jpg", "genre_ids": [27, 53, 80], "id": 528769, "original_language": "it", "original_title": "Rabbia furiosa: Er Canaro", "overview": "Inspired by one of the most savage and violent crimes committed in Rome in the 1980s, \"Rabbia Furiosa\" is the story of Fabio, a small-time neighborhood crook, known as \u201cEr Canaro\u201d (the Dog Man) who suffers years of abuse and mistreatment from Claudio, a local boss of the criminal underworld. When he is driven to desperation and the brink of madness, he will carry out a terrible and bloody act of vengeance...", "poster_path": "/sGiTGOb8HsbYwF97ncMVxWoFffN.jpg", "release_date": "2018-06-07", "title": "Rabbia Furiosa: Underdog", "video": false, "vote_average": 4.9, "vote_count": 7, "popularity": 2.304}, {"adult": false, "backdrop_path": "/yqrDJd5dIauWU1yjRkWrgWBVUef.jpg", "genre_ids": [18], "id": 382653, "original_language": "zh", "original_title": "\u8001\u77f3", "overview": "A man falls down the stairs, but instead of helping him, the bystanders just take photos with their phones. Lao Shi is a taxi driver and he\u2019s fighting for justice in the darkest recesses of Chinese society. The man who pushed him got into his taxi drunk not so very long ago, grabbed the steering wheel and caused an accident. The victim of the crash has been in a coma ever since, and because his family is destitute, Lao Shi is paying the hospital bills. The insurance company is refusing to cover the costs because the taxi driver left the scene of the accident with the injured man because no help was in sight. Now Lao Shi needs the testimony of his passenger, who angrily refuses to cooperate.", "poster_path": "/uEhHepHn00aQ0Dni8GrJHTRoFuP.jpg", "release_date": "2016-02-12", "title": "Old Stone", "video": false, "vote_average": 7.1, "vote_count": 12, "popularity": 1.07}, {"adult": false, "backdrop_path": "/lcR3wNKTKEV2erVYgpkkFIxWGHp.jpg", "genre_ids": [18, 10749], "id": 39770, "original_language": "fr", "original_title": "Br\u00e8ve travers\u00e9e", "overview": "A young French man and an older English woman spend one night together on a ship.", "poster_path": "/pN58bzunyCmko4fhIClGsSAQEqZ.jpg", "release_date": "2001-03-06", "title": "Brief Crossing", "video": false, "vote_average": 6.3, "vote_count": 12, "popularity": 7.133}, {"id": 531753, "video": false, "vote_count": 12, "vote_average": 8.0, "title": "Killing", "release_date": "2018-10-08", "original_language": "ja", "original_title": "\u65ac\u3001", "genre_ids": [28, 18], "backdrop_path": "/daDjGXeRlxgHEwO8RSAkZQo1NVq.jpg", "adult": false, "overview": "Set during the Edo period, the film follows the life of a ronin (Sosuke Ikematsu) and those around him.", "poster_path": "/rSb3VMv9AtomsQ62VJYJyp2mxKH.jpg", "popularity": 2.713}], "total_pages": 1, "total_results": 5}, "credits": {"cast": [{"cast_id": 0, "character": "Anne", "credit_id": "5ada44f5c3a3686a23000886", "gender": 1, "id": 4460, "name": "Trine Dyrholm", "order": 0, "profile_path": "/ue2dx6F4g7uOR5nZJh8YEFlccJd.jpg"}, {"cast_id": 1, "character": "Gustav", "credit_id": "5ada45070e0a262d3c0008a6", "gender": 2, "id": 1428295, "name": "Gustav Lindh", "order": 1, "profile_path": "/a92RvY2O8jn3MtNFi2dJMDr0NFc.jpg"}, {"cast_id": 2, "character": "Peter", "credit_id": "5ada4513c3a3686a190009d0", "gender": 2, "id": 143391, "name": "Magnus Krepper", "order": 2, "profile_path": "/iHJ5HM0bV5UfogcOobnKJtyJklf.jpg"}, {"cast_id": 3, "character": "Cecilie", "credit_id": "5ada454992514123120008d2", "gender": 1, "id": 582051, "name": "Frederikke Dahl Hansen", "order": 3, "profile_path": "/yqIfXgERwLmLyNaejUl1VXyzS87.jpg"}, {"cast_id": 12, "character": "Erik", "credit_id": "5b3a714ac3a3684561016cac", "gender": 0, "id": 73214, "name": "Preben Kristensen", "order": 4, "profile_path": "/yLcRMIlZRLoztACfJzkHQKE96aC.jpg"}, {"cast_id": 11, "character": "Karsten", "credit_id": "5b3a71379251415d71011828", "gender": 0, "id": 233316, "name": "Mads Wille", "order": 5, "profile_path": null}, {"cast_id": 13, "character": "Sara", "credit_id": "5b3a715ec3a368483b00d35f", "gender": 0, "id": 1518350, "name": "Ella Solgaard", "order": 6, "profile_path": null}, {"cast_id": 15, "character": "", "credit_id": "5d7630ef2ea6b90012c10a8b", "gender": 0, "id": 2407273, "name": "Silja Esm\u00e5r Dannemann", "order": 7, "profile_path": null}, {"cast_id": 16, "character": "", "credit_id": "5d7631132ea6b90013c103d0", "gender": 0, "id": 2407274, "name": "Liv Esm\u00e5r Dannemann", "order": 8, "profile_path": null}, {"cast_id": 17, "character": "", "credit_id": "5d76312a12970c00129b93cb", "gender": 0, "id": 2407275, "name": "Stine Gyldenkerne", "order": 9, "profile_path": null}, {"cast_id": 18, "character": "", "credit_id": "5d76314312970c00139b9a98", "gender": 0, "id": 2117343, "name": "Elias Budde Christensen", "order": 10, "profile_path": null}, {"cast_id": 19, "character": "", "credit_id": "5d7631572ea6b90012c10af6", "gender": 0, "id": 2038233, "name": "Carla Philip R\u00f8der", "order": 11, "profile_path": null}, {"cast_id": 20, "character": "", "credit_id": "5d76328b5294e7000ef5333b", "gender": 0, "id": 582347, "name": "Mads Knarreborg", "order": 12, "profile_path": null}, {"cast_id": 21, "character": "", "credit_id": "5d7632bb5294e70010f52c54", "gender": 0, "id": 2407277, "name": "Peter Khouri", "order": 13, "profile_path": null}, {"cast_id": 22, "character": "", "credit_id": "5d7632d15294e7000ef533c8", "gender": 0, "id": 2130931, "name": "Marie Dalsgaard", "order": 14, "profile_path": null}, {"cast_id": 23, "character": "", "credit_id": "5d7632e52ea6b90010c10674", "gender": 0, "id": 2407278, "name": "Noel Bouhon Kiertzer", "order": 15, "profile_path": null}, {"cast_id": 24, "character": "", "credit_id": "5d7633012ea6b90011c10205", "gender": 0, "id": 2102818, "name": "Mathias Skov Rahb\u00e6k", "order": 16, "profile_path": null}, {"cast_id": 25, "character": "", "credit_id": "5d7633102ea6b90010c106a7", "gender": 0, "id": 2407279, "name": "Nessie Beik", "order": 17, "profile_path": null}, {"cast_id": 26, "character": "", "credit_id": "5d7633385294e7000ef53448", "gender": 0, "id": 2407280, "name": "Stanley Bakar", "order": 18, "profile_path": null}, {"cast_id": 27, "character": "", "credit_id": "5d7633495294e7000ef5345d", "gender": 0, "id": 2407281, "name": "Anders Hedegaard Andersen", "order": 19, "profile_path": null}], "crew": [{"credit_id": "5ca2529e9251411a16096392", "department": "Production", "gender": 0, "id": 141885, "job": "Producer", "name": "Rene Ezra", "profile_path": null}, {"credit_id": "5ada45680e0a262d48000a51", "department": "Directing", "gender": 1, "id": 1290996, "job": "Director", "name": "May el-Toukhy", "profile_path": "/5DlwQ6AZBEYsnBQXbXMxvwYklkC.jpg"}, {"credit_id": "5ada458392514123cf0009c7", "department": "Writing", "gender": 1, "id": 1290996, "job": "Writer", "name": "May el-Toukhy", "profile_path": "/5DlwQ6AZBEYsnBQXbXMxvwYklkC.jpg"}, {"credit_id": "5ada45a30e0a262d4500097b", "department": "Production", "gender": 0, "id": 1372319, "job": "Producer", "name": "Caroline Blanco", "profile_path": null}, {"credit_id": "5ada4592c3a3686a230008ee", "department": "Writing", "gender": 0, "id": 1517987, "job": "Writer", "name": "Maren Louise K\u00e4ehne", "profile_path": null}, {"credit_id": "5ada45c5c3a3686a23000918", "department": "Crew", "gender": 0, "id": 1616244, "job": "Cinematography", "name": "Jasper Spanning", "profile_path": null}, {"credit_id": "5ada45d50e0a262d48000aa4", "department": "Editing", "gender": 0, "id": 1994076, "job": "Editor", "name": "Rasmus Stensgaard Madsen", "profile_path": null}]}}