{"adult": false, "backdrop_path": "/nHvSSVPqM3Sd6pKx9LhbFO7m457.jpg", "belongs_to_collection": null, "budget": 0, "genres": [{"id": 18, "name": "Drama"}, {"id": 9648, "name": "Mystery"}, {"id": 53, "name": "Thriller"}], "homepage": null, "id": 51986, "imdb_id": "tt0238137", "original_language": "en", "original_title": "Tangled", "overview": "A young man is found bruised, beaten and stumbling down a secluded road. As the police try to piece together what happened, the convoluted relationship between a young woman and her two suitors gradually emerges.", "popularity": 5.364, "poster_path": "/tP4gZTSHzKE7ct1HWBEeFYWum0k.jpg", "production_companies": [{"id": 7405, "logo_path": "/rfnws0uY8rsNAsrLbx3gEIcYXx3.png", "name": "Dimension Films", "origin_country": "US"}, {"id": 738, "logo_path": null, "name": "Myriad Pictures", "origin_country": "US"}, {"id": 870, "logo_path": null, "name": "Tapestry Films", "origin_country": ""}, {"id": 22018, "logo_path": null, "name": "Ben's Sister Productions", "origin_country": ""}, {"id": 22023, "logo_path": null, "name": "Unapix Entertainment Productions", "origin_country": ""}], "production_countries": [{"iso_3166_1": "CA", "name": "Canada"}, {"iso_3166_1": "US", "name": "United States of America"}], "release_date": "2001-11-02", "revenue": 0, "runtime": 100, "spoken_languages": [{"iso_639_1": "en", "name": "English"}, {"iso_639_1": "pl", "name": "Polski"}, {"iso_639_1": "pt", "name": "Portugu\u00eas"}], "status": "Released", "tagline": "The best of friends make the worst of enemies.", "title": "Tangled", "video": false, "vote_average": 5.6, "vote_count": 27, "keywords": {"keywords": [{"id": 128, "name": "love triangle"}, {"id": 703, "name": "detective"}, {"id": 3508, "name": "underwear"}, {"id": 5340, "name": "investigation"}, {"id": 9856, "name": "flashback"}, {"id": 10941, "name": "disappearance"}]}, "similar": {"page": 1, "results": [{"adult": false, "backdrop_path": "/t3OZS8yMs0NL4YgWWc04eXHTn1X.jpg", "genre_ids": [28, 80, 53], "id": 984, "original_language": "en", "original_title": "Dirty Harry", "overview": "When a madman dubbed 'Scorpio' terrorizes San Francisco, hard-nosed cop, Harry Callahan \u2013 famous for his take-no-prisoners approach to law enforcement \u2013 is tasked with hunting down the psychopath. Harry eventually collars Scorpio in the process of rescuing a kidnap victim, only to see him walk on technicalities. Now, the maverick detective is determined to nail the maniac himself.", "poster_path": "/2TADKc4GMMPdMrLXj0xJVgTvZJM.jpg", "release_date": "1971-12-21", "title": "Dirty Harry", "video": false, "vote_average": 7.5, "vote_count": 1173, "popularity": 18.839}, {"id": 75780, "video": false, "vote_count": 4451, "vote_average": 6.4, "title": "Jack Reacher", "release_date": "2012-12-20", "original_language": "en", "original_title": "Jack Reacher", "genre_ids": [28, 80, 18, 53], "backdrop_path": "/ezXodpP429qK0Av89pVNlaXWJkQ.jpg", "adult": false, "overview": "When a gunman takes five lives with six shots, all evidence points to the suspect in custody. On interrogation, the suspect offers up a single note: \"Get Jack Reacher!\" So begins an extraordinary chase for the truth, pitting Jack Reacher against an unexpected enemy, with a skill for violence and a secret to keep.", "poster_path": "/mt0ELw83HIRgaKaDzhsDcIi0RnW.jpg", "popularity": 15.945}, {"adult": false, "backdrop_path": "/bRGtZsVj2Qq8r5CCsNYmQUPF4z4.jpg", "genre_ids": [80, 18, 878, 53], "id": 10559, "original_language": "en", "original_title": "Frequency", "overview": "When a rare phenomenon gives police officer John Sullivan the chance to speak to his father, 30 years in the past, he takes the opportunity to prevent his dad's tragic death.  After his actions inadvertently give rise to a series of brutal murders he and his father must find a way to fix the consequences of altering time.", "poster_path": "/n0QAAZmIaPPIShVkk8eiKwfGV9.jpg", "release_date": "2000-04-28", "title": "Frequency", "video": false, "vote_average": 7.1, "vote_count": 897, "popularity": 14.026}, {"id": 807, "video": false, "vote_count": 11937, "vote_average": 8.3, "title": "Se7en", "release_date": "1995-09-22", "original_language": "en", "original_title": "Se7en", "genre_ids": [80, 9648, 53], "backdrop_path": "/A0WKbRIojF9DUWG4XLCmg5JK6I5.jpg", "adult": false, "overview": "Two homicide detectives are on a desperate hunt for a serial killer whose crimes are based on the \"seven deadly sins\" in this dark and haunting film that takes viewers from the tortured remains of one victim to the next. The seasoned Det. Sommerset researches each sin in an effort to get inside the killer's mind, while his novice partner, Mills, scoffs at his efforts to unravel the case.", "poster_path": "/8zw8IL4zEPjkh8Aysdcd0FwGMb0.jpg", "popularity": 34.018}, {"adult": false, "backdrop_path": "/uUYCUbgI5VxsUflTMI4Y9L2Y6vb.jpg", "genre_ids": [80, 18, 53], "id": 11423, "original_language": "ko", "original_title": "\uc0b4\uc778\uc758 \ucd94\uc5b5", "overview": "1986 Gyunggi Province. The body of a young woman is found brutally raped and murdered. Two months later, a series of rapes and murders commences under similar circumstances. And in a country that had never known such crimes, the dark whispers about a serial murderer grow louder. A special task force is set up in the area, with two local detectives Park Doo-Man and Jo Young-Goo joined by a detective from Seoul who requested to be assigned to the case.", "poster_path": "/gawnVe9cFowdoDLo9Pok12NTw39.jpg", "release_date": "2003-05-02", "title": "Memories of Murder", "video": false, "vote_average": 8.1, "vote_count": 1093, "popularity": 13.452}, {"id": 8090, "video": false, "vote_count": 448, "vote_average": 6.1, "title": "Untraceable", "release_date": "2008-01-22", "original_language": "en", "original_title": "Untraceable", "genre_ids": [9648, 53], "backdrop_path": "/eXuIPt9I1xuaVddlgzEQRC2EMnJ.jpg", "adult": false, "overview": "Special Agent Jennifer Marsh (Diane Lane) works in an elite division of the FBI dedicated to fighting cybercrime. She thinks she has seen it all, until a particularly sadistic criminal arises on the Internet. This tech-savvy killer posts live feeds of his crimes on his website; the more hits the site gets, the faster the victim dies. Marsh and her team must find the elusive killer before time runs out.", "poster_path": "/ySUwDRDEn01lKIMPQorpFCMLWqE.jpg", "popularity": 14.431}, {"id": 369300, "video": false, "vote_count": 317, "vote_average": 6.0, "title": "The Limehouse Golem", "release_date": "2016-10-18", "original_language": "en", "original_title": "The Limehouse Golem", "genre_ids": [27, 9648, 53], "backdrop_path": "/jOsELWItMJOwqEXpUewV8zFH3eX.jpg", "adult": false, "overview": "A series of murders has shaken the community to the point where people believe that only a legendary creature from dark times \u2013 the mythical Golem \u2013 must be responsible.", "poster_path": "/u9NnEq4Be7hhwSvkNf6dOAD8ppi.jpg", "popularity": 13.502}, {"adult": false, "backdrop_path": "/3TCPWrxQkfon82xPNtmpweOSVJc.jpg", "genre_ids": [18, 80, 9648, 10749, 53], "id": 12150, "original_language": "en", "original_title": "Sea of Love", "overview": "Seen-it-all New York detective Frank Keller is unsettled - he has done twenty years on the force and could retire, and he hasn't come to terms with his wife leaving him for a colleague. Joining up with an officer from another part of town to investigate a series of murders linked by the lonely hearts columns he finds he is getting seriously and possibly dangerously involved with Helen, one of the main suspects.", "poster_path": "/7DkkTHIX3hUqvsRv5sDmJAkCfKK.jpg", "release_date": "1989-09-15", "title": "Sea of Love", "video": false, "vote_average": 6.7, "vote_count": 290, "popularity": 10.636}, {"adult": false, "backdrop_path": "/pA64Ov7lDpwXBu33yq0KpmAOYJL.jpg", "genre_ids": [27, 53], "id": 357096, "original_language": "en", "original_title": "I Spit on Your Grave III: Vengeance is Mine", "overview": "Jennifer Hills is still tormented by the brutal sexual assault she endured years ago. She\u2019s changed identities and cities, reluctantly joining a support group where she begins to piece together a new life. But when her new friend\u2019s murderer goes free and the tales of serial rapists haunt her, Jennifer will hunt down the men responsible and do what the system won\u2019t \u2013 make them pay for their crimes in the most horrific ways imaginable. Only this time, no jury may be able to save her.", "poster_path": "/6SnOlgrUoC5jqmgcYIM5lde5zYq.jpg", "release_date": "2015-10-01", "title": "I Spit on Your Grave III: Vengeance is Mine", "video": false, "vote_average": 5.3, "vote_count": 437, "popularity": 20.815}, {"id": 60670, "video": false, "vote_count": 765, "vote_average": 6.9, "title": "The Crimson Rivers", "release_date": "2000-09-26", "original_language": "fr", "original_title": "Les Rivi\u00e8res pourpres", "genre_ids": [80, 9648, 53], "backdrop_path": "/pXmMiqordTEbRTDNlKPnyielNVA.jpg", "adult": false, "overview": "Two French policemen, one investigating a grisly murder at a remote mountain college, the other working on the desecration of a young girl's grave by skinheads, are brought together by the clues from their respective cases. Soon after they start working together, more murders are committed, and the pair begin to discover just what dark secrets are behind the killings.", "poster_path": "/kkRgQST0bEdEgqpPZMGaUB1twsQ.jpg", "popularity": 11.569}, {"id": 1949, "video": false, "vote_count": 5165, "vote_average": 7.5, "title": "Zodiac", "release_date": "2007-03-02", "original_language": "en", "original_title": "Zodiac", "genre_ids": [80, 18, 9648, 53], "backdrop_path": "/jP2htGBHE7vKq4MLeC75UeC0sZH.jpg", "adult": false, "overview": "The true story of the investigation of the \"Zodiac Killer\", a serial killer who terrified the San Francisco Bay Area, taunting police with his ciphers and letters. The case becomes an obsession for three men as their lives and careers are built and destroyed by the endless trail of clues.", "poster_path": "/bgLyOROfFQI3FqYL7jQbiaV8lkN.jpg", "popularity": 24.455}, {"adult": false, "backdrop_path": "/ojsY0XyCSsJvm0n7YTwumQcvBqT.jpg", "genre_ids": [9648, 53], "id": 1586, "original_language": "en", "original_title": "Secret Window", "overview": "Mort Rainey, a writer just emerging from a painful divorce with his ex-wife, is stalked at his remote lake house by a psychotic stranger and would-be scribe who claims Rainey swiped his best story idea. But as Rainey endeavors to prove his innocence, he begins to question his own sanity.", "poster_path": "/f5t7Df50xjniLlE80ty2dYsZBqI.jpg", "release_date": "2004-03-12", "title": "Secret Window", "video": false, "vote_average": 6.5, "vote_count": 2126, "popularity": 19.288}, {"id": 65754, "video": false, "vote_count": 4330, "vote_average": 7.3, "title": "The Girl with the Dragon Tattoo", "release_date": "2011-12-14", "original_language": "en", "original_title": "The Girl with the Dragon Tattoo", "genre_ids": [80, 18, 9648, 53], "backdrop_path": "/1fk2xS5hRkblBuag5JXZkmE8pg6.jpg", "adult": false, "overview": "This English-language adaptation of the Swedish novel by Stieg Larsson follows a disgraced journalist, Mikael Blomkvist, as he investigates the disappearance of a weary patriarch's niece from 40 years ago. He is aided by the pierced, tattooed, punk computer hacker named Lisbeth Salander. As they work together in the investigation, Blomkvist and Salander uncover immense corruption beyond anything they have ever imagined.", "poster_path": "/voxRWFTtagLiqnJQs9tWQLB0MN.jpg", "popularity": 27.09}, {"adult": false, "backdrop_path": "/aJCEQFFXNcfg5YneJzTG15qzxF7.jpg", "genre_ids": [28, 53], "id": 1572, "original_language": "en", "original_title": "Die Hard: With a Vengeance", "overview": "New York detective John McClane is back and kicking bad-guy butt in the third installment of this action-packed series, which finds him teaming with civilian Zeus Carver to prevent the loss of innocent lives. McClane thought he'd seen it all, until a genius named Simon engages McClane, his new \"partner\" -- and his beloved city -- in a deadly game that demands their concentration.", "poster_path": "/ivpXGcsPZglyYrN65THWSD7JM3q.jpg", "release_date": "1995-05-19", "title": "Die Hard: With a Vengeance", "video": false, "vote_average": 7.1, "vote_count": 3603, "popularity": 27.341}, {"adult": false, "backdrop_path": "/arcpWGGnUkGkakOwZo7xfPsaz7h.jpg", "genre_ids": [9648, 53], "id": 2832, "original_language": "en", "original_title": "Identity", "overview": "Complete strangers stranded at a remote desert motel during a raging storm soon find themselves the target of a deranged murderer. As their numbers thin out, the travelers begin to turn on each other, as each tries to figure out who the killer is.", "poster_path": "/xSNSp2wmCUwFavxdkMF417hBc39.jpg", "release_date": "2003-04-25", "title": "Identity", "video": false, "vote_average": 7.2, "vote_count": 2091, "popularity": 19.629}, {"adult": false, "backdrop_path": "/2J283YNxKhxAqHeVegUJ5mzLfGb.jpg", "genre_ids": [80, 18, 9648], "id": 392044, "original_language": "en", "original_title": "Murder on the Orient Express", "overview": "Genius Belgian detective Hercule Poirot investigates the murder of an American tycoon aboard the Orient Express train.", "poster_path": "/iBlfxlw8qwtUS0R8YjIU7JtM6LM.jpg", "release_date": "2017-11-03", "title": "Murder on the Orient Express", "video": false, "vote_average": 6.7, "vote_count": 6044, "popularity": 24.868}, {"id": 210577, "video": false, "vote_count": 11617, "vote_average": 7.9, "title": "Gone Girl", "release_date": "2014-10-01", "original_language": "en", "original_title": "Gone Girl", "genre_ids": [18, 9648, 53], "backdrop_path": "/8ZNGBfGoN3uI5Akj5vEUDMxvmGO.jpg", "adult": false, "overview": "With his wife's disappearance having become the focus of an intense media circus, a man sees the spotlight turned on him when it's suspected that he may not be innocent.", "poster_path": "/gdiLTof3rbPDAmPaCf4g6op46bj.jpg", "popularity": 42.468}, {"adult": false, "backdrop_path": "/t4DO37tO3mhMX4DCdnI1EPsRi26.jpg", "genre_ids": [80, 18, 9648], "id": 3580, "original_language": "en", "original_title": "Changeling", "overview": "Christine Collins is overjoyed when her kidnapped son is brought back home. But when Christine suspects that the boy returned to her isn't her child, the police captain has her committed to an asylum.", "poster_path": "/qtte2n6ygA1zVG5kLrjUGui28TJ.jpg", "release_date": "2008-01-30", "title": "Changeling", "video": false, "vote_average": 7.5, "vote_count": 2322, "popularity": 19.918}, {"id": 6973, "video": false, "vote_count": 504, "vote_average": 6.7, "title": "In the Valley of Elah", "release_date": "2007-08-31", "original_language": "en", "original_title": "In the Valley of Elah", "genre_ids": [80, 18, 36, 9648, 53], "backdrop_path": "/dGBPaT4p2mOZ3xiETS4fcC5D6bA.jpg", "adult": false, "overview": "A career officer and his wife work with a police detective to uncover the truth behind their son's disappearance following his return from a tour of duty in Iraq.", "poster_path": "/ccqymPOnylrkXpnvizW8d6n3dtt.jpg", "popularity": 14.984}, {"id": 193893, "video": false, "vote_count": 1816, "vote_average": 6.3, "title": "Let's Be Cops", "release_date": "2014-08-13", "original_language": "en", "original_title": "Let's Be Cops", "genre_ids": [35], "backdrop_path": "/43GrPpAeBUOvOCZ8L1A3MLuDnkc.jpg", "adult": false, "overview": "It's the ultimate buddy cop movie except for one thing: they're not cops.  When two struggling pals dress as police officers for a costume party, they become neighborhood sensations.  But when these newly-minted \u201cheroes\u201d get tangled in a real life web of mobsters and dirty detectives, they must put their fake badges on the line.", "poster_path": "/ayYibwWAA9NxJPaD9GSybPShtvL.jpg", "popularity": 21.654}], "total_pages": 44, "total_results": 878}, "recommendations": {"page": 1, "results": [{"adult": false, "backdrop_path": "/vOFi9545pjefhy1Cjhv7KcqQFWQ.jpg", "genre_ids": [35, 18, 10749], "id": 165598, "original_language": "en", "original_title": "Love and Debate", "overview": "A girl goes to Harvard and joins the debate team.  She has to deal with a ton of issues, from boyfriends, to ethnicity, to religion, to sexual assault.", "poster_path": "/vijSMw9WZa7o60CloMW7YLC5oRy.jpg", "release_date": "2006-06-13", "title": "Love and Debate", "video": false, "vote_average": 4.0, "vote_count": 4, "popularity": 2.7}, {"adult": false, "backdrop_path": null, "genre_ids": [10749, 53, 18, 9648], "id": 98486, "original_language": "en", "original_title": "Sister, Sister", "overview": "A congressional aide (Eric Stoltz) explores an old Louisiana mansion two kooky sisters (Jennifer Jason Leigh, Judith Ivey) run as a guest house.", "poster_path": "/lctdeo2qlw6W2YcIxQTcOGcXHrt.jpg", "release_date": "1987-09-13", "title": "Sister, Sister", "video": false, "vote_average": 5.4, "vote_count": 7, "popularity": 4.779}, {"adult": false, "backdrop_path": "/uvPFWbRH9Gru2vZ0G9fug5JPetV.jpg", "genre_ids": [18], "id": 201272, "original_language": "it", "original_title": "Lucrezia Giovane", "overview": "In the early 16th century Italy is ruled by the powerful Borgia family, led by Cesare Borgia and his sister Lucrezia. In a ruthless power play, Cesare plots to have his sister\u2019s husband murdered.", "poster_path": "/lGwh8hYqGG3zoIyPXjXb8ximnwJ.jpg", "release_date": "1974-08-23", "title": "Lucrezia Giovane", "video": false, "vote_average": 5.3, "vote_count": 3, "popularity": 3.032}, {"adult": false, "backdrop_path": "/q8ven1jdRy4hqMe7eQqnnUjRyXZ.jpg", "genre_ids": [35], "id": 138857, "original_language": "it", "original_title": "La moglie vergine", "overview": "Valentina and Giovannino have just got married, but the Honeymoon has gone by and nothing happened between the two. Tension grows and they are about to break up the marriage, until a French tourist satisfies Valentina, while Giovannino regains his virility with his mother in law.", "poster_path": "/eYUhQ0ltxtXLvxaxLz30oYLz4Gu.jpg", "release_date": "1975-06-06", "title": "Valentina... The Virgin Wife", "video": false, "vote_average": 5.1, "vote_count": 5, "popularity": 5.845}, {"adult": false, "backdrop_path": "/n0p5KOPpwjQhdDAmpFGL175SP0b.jpg", "genre_ids": [53], "id": 59940, "original_language": "en", "original_title": "Zebra Lounge", "overview": "Alan and Wendy Barnet have been married just long enough for the excitement to have gone out of their relationship, and they're looking for a way to put some spice back in their lives. After placing a personal ad looking for another couple interested in swapping mates, the Barnets are led to the Zebra Lounge, where they meet Jack and Louise Bauer, a pair of seasoned erotic adventurers. While the Barnets find the swinging scene exciting at first, they soon decide it may be doing more harm than good to their marriage. But easing the Bauers out of their lives proves to be neither simple nor safe.", "poster_path": "/nAtqLzm44xUHxrb3xW39MBlukeX.jpg", "release_date": "2001-10-04", "title": "Zebra Lounge", "video": false, "vote_average": 4.5, "vote_count": 13, "popularity": 6.842}, {"adult": false, "backdrop_path": "/5fsvRKDNdfq9uP9la5SsivtAwYv.jpg", "genre_ids": [35], "id": 137607, "original_language": "fr", "original_title": "C\u00e9lestine... bonne \u00e0 tout faire", "overview": "The story opens with Celestine eluding arrest with a friend as the police raid a brothel. While hiding out in the hayloft of the Count de la Braquette's estate, she meets the hayseed handyman S\u00e9bastien and the butler Malou, who reward her favors with the offer of employment. In a manner recalling Terence Stamp's effect on the household in TEOREMA, Celestine's open and relaxed attitude toward sexuality has a transformative effect on the isolated, moribund inhabitants of the mansion, imbuing them with gift of renewed life for the men and women alike, that remains even after a third act twist that forces her to betray them.", "poster_path": "/mtUCWrbc0KvsKjbJe1X40ZRKN8Q.jpg", "release_date": "1974-10-16", "title": "Celestine", "video": false, "vote_average": 6.2, "vote_count": 6, "popularity": 6.393}, {"id": 114574, "video": false, "vote_count": 26, "vote_average": 3.8, "title": "Bikini Spring Break", "release_date": "2012-06-26", "original_language": "en", "original_title": "Bikini Spring Break", "genre_ids": [35], "backdrop_path": "/4KkY6zLDUNdV7nR1WpsOPC1lIRT.jpg", "adult": false, "overview": "A group of coeds from a small conservative college break out of their shells when their marching band bus breaks down in Fort Lauderdale during Spring Break.", "poster_path": "/mxOm8YPZSTrUscxJcVY4aftebDW.jpg", "popularity": 7.514}, {"adult": false, "backdrop_path": "/hEGklGruhak8bpTL8muPyjTwaSA.jpg", "genre_ids": [35], "id": 77850, "original_language": "en", "original_title": "School Spirit", "overview": "The only thing keeping Billy Batson from the girl of his dreams is one little condom\u2014or rather the lack of one. Lucky Billy finds one at an all-night roadhouse\u2014but speeding back to his girl, he is killed in a head-on collision. Now invisible, Billy must find his sweetheart and rekindle her fire.", "poster_path": "/5CziNRq74YOrk8hOZzdyHRRyPIn.jpg", "release_date": "1985-10-30", "title": "School Spirit", "video": false, "vote_average": 5.2, "vote_count": 14, "popularity": 4.528}, {"adult": false, "backdrop_path": "/9whzEeodNMRqEjkwxfkSXov5KHu.jpg", "genre_ids": [35, 10749], "id": 25451, "original_language": "en", "original_title": "Taking Chances", "overview": "When he discovers that an Indian casino is about to be built over the town's historic battlefield, Chase Revere, the self-appointed protector of a small town's rather meager place in American history, joins forces with sexy but dangerous town siren Lucy Shanks to launch an all-out offensive against the project - earning the wrath of the entire town.", "poster_path": "/oNyahBbrFSD0cwky3keePg5O6bu.jpg", "release_date": "2009-11-24", "title": "Taking Chances", "video": false, "vote_average": 4.3, "vote_count": 21, "popularity": 3.769}], "total_pages": 1, "total_results": 9}, "credits": {"cast": [{"cast_id": 1, "character": "Jenny Kelley", "credit_id": "52fe4810c3a36847f8156875", "gender": 1, "id": 38581, "name": "Rachael Leigh Cook", "order": 0, "profile_path": "/cotGJui5H2Te2ThYERndc3DOVOm.jpg"}, {"cast_id": 2, "character": "David Klein", "credit_id": "52fe4810c3a36847f8156879", "gender": 2, "id": 52647, "name": "Shawn Hatosy", "order": 1, "profile_path": "/deVcvUyZEybTQuyBYiioVJ4Lyst.jpg"}, {"cast_id": 3, "character": "Alan Hammond", "credit_id": "52fe4810c3a36847f815687d", "gender": 2, "id": 1244, "name": "Jonathan Rhys Meyers", "order": 2, "profile_path": "/A6RyyQ4GeXl0ugnGrqGqBMQIgKh.jpg"}, {"cast_id": 5, "character": "Elise Stevens", "credit_id": "52fe4810c3a36847f8156887", "gender": 1, "id": 13241, "name": "Estella Warren", "order": 3, "profile_path": "/lgwg1duHUeT2TJWBEKuvNTwS8Ce.jpg"}, {"cast_id": 6, "character": "Det. Anne Andersle", "credit_id": "52fe4810c3a36847f815688b", "gender": 1, "id": 11478, "name": "Lorraine Bracco", "order": 4, "profile_path": "/8khTSZIrHEMbBiH6HSAOzOnnbmB.jpg"}], "crew": [{"credit_id": "52fe4810c3a36847f8156883", "department": "Directing", "gender": 2, "id": 81272, "job": "Director", "name": "Jay Lowi", "profile_path": null}, {"credit_id": "5353444ac3a3681d930036fe", "department": "Writing", "gender": 2, "id": 1237491, "job": "Writer", "name": "Jeffrey Lieber", "profile_path": null}, {"credit_id": "53534464c3a3681da00035d6", "department": "Writing", "gender": 0, "id": 1224303, "job": "Writer", "name": "Michael Shapiro", "profile_path": null}, {"credit_id": "5353447ec3a3681d8d00364b", "department": "Writing", "gender": 0, "id": 1311509, "job": "Writer", "name": "Shawn Simons", "profile_path": null}]}}