{"adult": false, "backdrop_path": "/lZm007i6SApuAuLGN8ELKae3t3O.jpg", "belongs_to_collection": null, "budget": 0, "genres": [{"id": 99, "name": "Documentary"}], "homepage": "https://www.theserengetirules.com", "id": 520450, "imdb_id": "tt6838670", "original_language": "en", "original_title": "The Serengeti Rules", "overview": "Exploring  some  of  the  most  remote  and  spectacular  places  on  Earth,  five  pioneering  scientists make surprising discoveries that flip our understanding of nature on its head, and offer new hope for restoring our world.", "popularity": 3.379, "poster_path": "/qtpyK1zlont0rRp6LsTbAEXoVSh.jpg", "production_companies": [{"id": 11594, "logo_path": "/fOQ18TmeTzQaVLiMayYGfc5uzoL.png", "name": "Passion Pictures", "origin_country": "GB"}, {"id": 83714, "logo_path": "/v8EoMrSFyvXtChtJXHn2tobgrmL.png", "name": "Tangled Bank Studios", "origin_country": "US"}], "production_countries": [{"iso_3166_1": "GB", "name": "United Kingdom"}, {"iso_3166_1": "US", "name": "United States of America"}], "release_date": "2018-04-21", "revenue": 0, "runtime": 84, "spoken_languages": [{"iso_639_1": "en", "name": "English"}], "status": "Released", "tagline": "", "title": "The Serengeti Rules", "video": false, "vote_average": 0.0, "vote_count": 0, "keywords": {"keywords": [{"id": 818, "name": "based on novel or book"}, {"id": 226442, "name": "serengeti"}]}, "similar": {"page": 1, "results": [{"adult": false, "backdrop_path": "/kiWvoV78Cc3fUwkOHKzyBgVdrDD.jpg", "genre_ids": [37, 18, 12], "id": 281957, "original_language": "en", "original_title": "The Revenant", "overview": "In the 1820s, a frontiersman, Hugh Glass, sets out on a path of vengeance against those who left him for dead after a bear mauling.", "poster_path": "/oXUWEc5i3wYyFnL1Ycu8ppxxPvs.jpg", "release_date": "2015-12-25", "title": "The Revenant", "video": false, "vote_average": 7.5, "vote_count": 12127, "popularity": 24.135}, {"adult": false, "backdrop_path": "/sRJjliXA7ZqHCr7HCK0ZB83xxjr.jpg", "genre_ids": [12, 28, 878], "id": 101299, "original_language": "en", "original_title": "The Hunger Games: Catching Fire", "overview": "Katniss Everdeen has returned home safe after winning the 74th Annual Hunger Games along with fellow tribute Peeta Mellark. Winning means that they must turn around and leave their family and close friends, embarking on a \"Victor's Tour\" of the districts. Along the way Katniss senses that a rebellion is simmering, but the Capitol is still very much in control as President Snow prepares the 75th Annual Hunger Games (The Quarter Quell) - a competition that could change Panem forever.", "poster_path": "/Hn0KgefVEp0GkdTexS6gfKTMfi.jpg", "release_date": "2013-11-15", "title": "The Hunger Games: Catching Fire", "video": false, "vote_average": 7.4, "vote_count": 12031, "popularity": 22.164}, {"adult": false, "backdrop_path": "/2J283YNxKhxAqHeVegUJ5mzLfGb.jpg", "genre_ids": [80, 18, 9648], "id": 392044, "original_language": "en", "original_title": "Murder on the Orient Express", "overview": "Genius Belgian detective Hercule Poirot investigates the murder of an American tycoon aboard the Orient Express train.", "poster_path": "/iBlfxlw8qwtUS0R8YjIU7JtM6LM.jpg", "release_date": "2017-11-03", "title": "Murder on the Orient Express", "video": false, "vote_average": 6.7, "vote_count": 6050, "popularity": 27.701}, {"adult": false, "backdrop_path": "/GRyynLqafMrLFMHqvfGdUweavA.jpg", "genre_ids": [27, 18, 14], "id": 628, "original_language": "en", "original_title": "Interview with the Vampire", "overview": "A vampire relates his epic life story of love, betrayal, loneliness, and dark hunger to an over-curious reporter.", "poster_path": "/hldXwwViSfHJS0kIJr07KBGmHJI.jpg", "release_date": "1994-11-11", "title": "Interview with the Vampire", "video": false, "vote_average": 7.3, "vote_count": 3231, "popularity": 21.064}, {"adult": false, "backdrop_path": "/bvbyidkMaBls1LTaIWYY6UmYTaL.jpg", "genre_ids": [28, 878], "id": 336843, "original_language": "en", "original_title": "Maze Runner: The Death Cure", "overview": "Thomas leads his group of escaped Gladers on their final and most dangerous mission yet. To save their friends, they must break into the legendary Last City, a WCKD-controlled labyrinth that may turn out to be the deadliest maze of all. Anyone who makes it out alive will get answers to the questions the Gladers have been asking since they first arrived in the maze.", "poster_path": "/2zYfzA3TBwrMC8tfFbpiTLODde0.jpg", "release_date": "2018-01-10", "title": "Maze Runner: The Death Cure", "video": false, "vote_average": 7.0, "vote_count": 4396, "popularity": 25.259}, {"adult": false, "backdrop_path": "/hm8Gux0946IfeJ1PZwztOo6lVHH.jpg", "genre_ids": [18, 36, 35], "id": 450322, "original_language": "en", "original_title": "The Man Who Invented Christmas", "overview": "In 1843, despite the fact that Dickens is a successful writer, the failure of his latest book puts his career at a crossroads, until the moment when, struggling with inspiration and confronting reality with his childhood memories, a new character is born in the depths of his troubled mind; an old, lonely, embittered man, so vivid, so human, that a whole world grows around him, a story so inspiring that changed the meaning of Christmas forever.", "poster_path": "/xYCuRgEKynGurSEooxDa9pQPF7n.jpg", "release_date": "2017-10-12", "title": "The Man Who Invented Christmas", "video": false, "vote_average": 6.7, "vote_count": 395, "popularity": 12.264}, {"id": 656968, "video": false, "vote_count": 23, "vote_average": 7.0, "title": "A Christmas Carol", "release_date": "2019-12-19", "original_language": "en", "original_title": "A Christmas Carol", "genre_ids": [18, 14], "backdrop_path": "/ubLsCmv36zUUt2zxhFSowYFe5uF.jpg", "adult": false, "overview": "London, 1843. Ebenezer Scrooge, a bitter old man, despises the Christmas holiday. Over the course of Christmas Eve night he is visited by three ghosts to show him his past, present and future.", "poster_path": "/tKW48tnZKaHLBIxxgoAf9BIpyRv.jpg", "popularity": 7.061}, {"adult": false, "backdrop_path": "/sw7mordbZxgITU877yTpZCud90M.jpg", "genre_ids": [18, 80], "id": 769, "original_language": "en", "original_title": "GoodFellas", "overview": "The true story of Henry Hill, a half-Irish, half-Sicilian Brooklyn kid who is adopted by neighbourhood gangsters at an early age and climbs the ranks of a Mafia family under the guidance of Jimmy Conway.", "poster_path": "/pwpGfTImTGifEGgLb3s6LRPd4I6.jpg", "release_date": "1990-09-12", "title": "GoodFellas", "video": false, "vote_average": 8.4, "vote_count": 6559, "popularity": 36.135}, {"id": 6114, "video": false, "vote_count": 2611, "vote_average": 7.4, "title": "Dracula", "release_date": "1992-11-13", "original_language": "en", "original_title": "Dracula", "genre_ids": [27, 10749], "backdrop_path": "/hm2stwkNFAaXMEeetJS2RZ77zC1.jpg", "adult": false, "overview": "When Dracula leaves the captive Jonathan Harker and Transylvania for London in search of Mina Harker\u2014the reincarnation of Dracula's long-dead wife, Elisabeta\u2014obsessed vampire hunter Dr. Van Helsing sets out to end the madness.", "poster_path": "/ioHxm3D3JdSXR61LRhcVb8KdZOz.jpg", "popularity": 21.922}, {"adult": false, "backdrop_path": "/fewP7EsMEnfqqcx4qYHKSKebwkF.jpg", "genre_ids": [28, 18, 36], "id": 2669, "original_language": "en", "original_title": "The Bounty", "overview": "The familiar story of Lieutenant Bligh, whose cruelty leads to a mutiny on his ship. This version follows both the efforts of Fletcher Christian to get his men beyond the reach of British retribution, and the epic voyage of Lieutenant Bligh to get his loyalists safely to East Timor in a tiny lifeboat.", "poster_path": "/hXFXIc6F4NXI5emWCKcUwqEPjIZ.jpg", "release_date": "1984-05-04", "title": "The Bounty", "video": false, "vote_average": 6.7, "vote_count": 246, "popularity": 10.539}, {"adult": false, "backdrop_path": "/20IgqkdFw5kuItqDCJtidSESP0t.jpg", "genre_ids": [27, 18], "id": 10066, "original_language": "en", "original_title": "House of Wax", "overview": "A group of unwitting teens are stranded near a strange wax museum and soon must fight to survive and keep from becoming the next exhibit.", "poster_path": "/uM1RebQywM5PPYsauayefpXGxVk.jpg", "release_date": "2005-04-30", "title": "House of Wax", "video": false, "vote_average": 5.7, "vote_count": 1532, "popularity": 16.398}, {"adult": false, "backdrop_path": "/dLAPTvBwEdP4h7a14isNc0HwmOj.jpg", "genre_ids": [18, 10749], "id": 250734, "original_language": "en", "original_title": "Far from the Madding Crowd", "overview": "Based on the literary classic by Thomas Hardy. Bathsheba Everdene, attracts three very different suitors: Gabriel Oak, a sheep farmer, captivated by her fetching willfulness; Frank Troy, a handsome and reckless Sergeant; and William Boldwood, a prosperous and mature bachelor. This timeless story of Bathsheba's choices and passions explores the nature of relationships and love \u2013 as well as the human ability to overcome hardships through resilience and perseverance.", "poster_path": "/6v1DEaO2TZzrqcaGohUf1K7BXkU.jpg", "release_date": "2015-04-23", "title": "Far from the Madding Crowd", "video": false, "vote_average": 7.0, "vote_count": 643, "popularity": 13.429}, {"id": 2454, "video": false, "vote_count": 3954, "vote_average": 6.5, "title": "The Chronicles of Narnia: Prince Caspian", "release_date": "2008-05-15", "original_language": "en", "original_title": "The Chronicles of Narnia: Prince Caspian", "genre_ids": [12, 14, 10751], "backdrop_path": "/eiET76GO3xECOic1rL8VcTLuy3L.jpg", "adult": false, "overview": "One year after their incredible adventures in the Lion, the Witch and the Wardrobe, Peter, Edmund, Lucy and Susan Pevensie return to Narnia to aid a young prince whose life has been threatened by the evil King Miraz. Now, with the help of a colorful cast of new characters, including Trufflehunter the badger and Nikabrik the dwarf, the Pevensie clan embarks on an incredible quest to ensure that Narnia is returned to its rightful heir.", "poster_path": "/kSSyzqw9C4wUggicG4D81XmptR1.jpg", "popularity": 23.366}, {"id": 50619, "video": false, "vote_count": 5595, "vote_average": 6.0, "title": "The Twilight Saga: Breaking Dawn - Part 1", "release_date": "2011-03-15", "original_language": "en", "original_title": "The Twilight Saga: Breaking Dawn - Part 1", "genre_ids": [12, 14, 10749], "backdrop_path": "/fwhRNjMmwqeGH35eQonSPmQs2ah.jpg", "adult": false, "overview": "The new found married bliss of Bella Swan and vampire Edward Cullen is cut short when a series of betrayals and misfortunes threatens to destroy their world.", "poster_path": "/dSSzv6JrlwS48pBeTNSswLJXOYF.jpg", "popularity": 22.3}, {"id": 205775, "video": false, "vote_count": 2362, "vote_average": 6.6, "title": "In the Heart of the Sea", "release_date": "2015-11-20", "original_language": "en", "original_title": "In the Heart of the Sea", "genre_ids": [28, 12, 18, 36, 53], "backdrop_path": "/aZoZ0NglXgiBMToem9HhTAYYamw.jpg", "adult": false, "overview": "In the winter of 1820, the New England whaling ship Essex is assaulted by something no one could believe\u2014a whale of mammoth size and will, and an almost human sense of vengeance.", "poster_path": "/zVmWh0Zfg4UhbvdGI8LQrn1lQZJ.jpg", "popularity": 18.435}, {"id": 2268, "video": false, "vote_count": 2953, "vote_average": 6.0, "title": "The Golden Compass", "release_date": "2007-12-04", "original_language": "en", "original_title": "The Golden Compass", "genre_ids": [12, 14], "backdrop_path": "/qUDa6F6qDp6zcQcw3yuR6Ysc77d.jpg", "adult": false, "overview": "After overhearing a shocking secret, precocious orphan Lyra Belacqua trades her carefree existence roaming the halls of Jordan College for an otherworldly adventure in the far North, unaware that it's part of her destiny.", "poster_path": "/97dPFOvgUb5Q8LjRNt8u6lbJSfp.jpg", "popularity": 19.047}, {"id": 521, "video": false, "vote_count": 1257, "vote_average": 8.0, "title": "Dial M for Murder", "release_date": "1954-05-29", "original_language": "en", "original_title": "Dial M for Murder", "genre_ids": [80, 18, 9648, 53], "backdrop_path": "/jVMlfESb0TJ29w8CUDDofEprMmn.jpg", "adult": false, "overview": "An ex-tennis pro carries out a plot to have his wife murdered after discovering she is having an affair, and assumes she will soon leave him for the other man anyway. When things go wrong, he improvises a new plan\u2014to frame her for murder instead.", "poster_path": "/xrpK1PyckNWmRxU4kZURfaCyboS.jpg", "popularity": 28.336}, {"id": 457799, "video": false, "vote_count": 1572, "vote_average": 7.0, "title": "Extremely Wicked, Shockingly Evil and Vile", "release_date": "2019-05-02", "original_language": "en", "original_title": "Extremely Wicked, Shockingly Evil and Vile", "genre_ids": [80, 18, 53], "backdrop_path": "/uRoA67sM5vvCI4cplxhl67BTPly.jpg", "adult": false, "overview": "A chronicle of the crimes of Ted Bundy, from the perspective of his longtime girlfriend, Elizabeth Kloepfer, who refused to believe the truth about him for years.", "poster_path": "/zSuJ3r5zr5T26tTxyygHhgkUAIM.jpg", "popularity": 22.062}, {"id": 454983, "video": false, "vote_count": 3909, "vote_average": 7.2, "title": "The Kissing Booth", "release_date": "2018-05-11", "original_language": "en", "original_title": "The Kissing Booth", "genre_ids": [35, 10749], "backdrop_path": "/xEKx7zPEjN6meomZ7OhV82Mm2jm.jpg", "adult": false, "overview": "When teenager Elle's first kiss leads to a forbidden romance with the hottest boy in high school, she risks her relationship with her best friend.", "poster_path": "/7Dktk2ST6aL8h9Oe5rpk903VLhx.jpg", "popularity": 28.208}, {"id": 49529, "video": false, "vote_count": 3606, "vote_average": 6.1, "title": "John Carter", "release_date": "2012-03-07", "original_language": "en", "original_title": "John Carter", "genre_ids": [28, 12, 878], "backdrop_path": "/2eDepJWMMBHmZ7pt9MSqzGQeoDc.jpg", "adult": false, "overview": "John Carter is a war-weary, former military captain who's inexplicably transported to the mysterious and exotic planet of Barsoom (Mars) and reluctantly becomes embroiled in an epic conflict. It's a world on the brink of collapse, and Carter rediscovers his humanity when he realizes the survival of Barsoom and its people rests in his hands.", "poster_path": "/4QDBNt9PmxqUH4Ab2R5xKWqzXiQ.jpg", "popularity": 20.92}], "total_pages": 446, "total_results": 8906}, "recommendations": {"page": 1, "results": [], "total_pages": 1, "total_results": 0}, "credits": {"cast": [{"cast_id": 7, "character": "Bob Paine", "credit_id": "5cfb77de0e0a263073cc263a", "gender": 0, "id": 2332166, "name": "Matthieson McCrae", "order": 1, "profile_path": null}, {"cast_id": 8, "character": "Jim Estes", "credit_id": "5cfb77ee0e0a267113ca675c", "gender": 0, "id": 2332167, "name": "Jaime Excell", "order": 2, "profile_path": null}, {"cast_id": 9, "character": "John Terborgh", "credit_id": "5cfb7802c3a368057f1f437d", "gender": 0, "id": 2332168, "name": "Johnathan Newport", "order": 3, "profile_path": null}, {"cast_id": 10, "character": "Mary Power, Age 8", "credit_id": "5cfb78110e0a267617d2a517", "gender": 0, "id": 1867648, "name": "Ashlynn Jade Lopez", "order": 4, "profile_path": "/oNHSVm0ubyGsmjBfnYX1zlNLRrz.jpg"}, {"cast_id": 11, "character": "Mary Power, Age 33", "credit_id": "5cfb78220e0a267113ca67a0", "gender": 0, "id": 2033617, "name": "Samantha Nugent", "order": 5, "profile_path": null}, {"cast_id": 12, "character": "Mary Power's Mother", "credit_id": "5cfb78399251411a82b8f717", "gender": 0, "id": 2332169, "name": "Laurie Spiegel", "order": 6, "profile_path": null}, {"cast_id": 13, "character": "Tony Sinclair", "credit_id": "5cfb78509251416f8eb9e359", "gender": 0, "id": 1469407, "name": "Greg Kriek", "order": 7, "profile_path": "/knY4Xuse11bRkWjUMeiTdOCwvgw.jpg"}], "crew": [{"credit_id": "5adfdcc30e0a26156c009109", "department": "Directing", "gender": 0, "id": 57837, "job": "Director", "name": "Nicolas Brown", "profile_path": null}, {"credit_id": "5cfb769cc3a36819331e90de", "department": "Production", "gender": 0, "id": 210945, "job": "Executive Producer", "name": "David Elisco", "profile_path": null}, {"credit_id": "5cfb7686c3a36819331e90d7", "department": "Camera", "gender": 0, "id": 587426, "job": "Director of Photography", "name": "Tim Cragg", "profile_path": null}, {"credit_id": "5cfb76bac3a36836621e3e14", "department": "Production", "gender": 0, "id": 1134551, "job": "Executive Producer", "name": "Dennis Liu", "profile_path": null}, {"credit_id": "5cfb764f9251411470b8cfc4", "department": "Production", "gender": 0, "id": 1206995, "job": "Producer", "name": "David Allen", "profile_path": null}, {"credit_id": "5cfb76cd92514144ceb8d627", "department": "Writing", "gender": 0, "id": 1713686, "job": "Book", "name": "Sean B. Carroll", "profile_path": null}, {"credit_id": "5cfb767192514144ceb8d59d", "department": "Editing", "gender": 0, "id": 1817278, "job": "Editor", "name": "Andy R. Worboys", "profile_path": null}]}}