{"adult": false, "backdrop_path": "/hAqOLwI2gv3iWQSPxVJXvoPXVrx.jpg", "belongs_to_collection": null, "budget": 0, "genres": [{"id": 35, "name": "Comedy"}, {"id": 18, "name": "Drama"}], "homepage": null, "id": 52359, "imdb_id": "tt0029675", "original_language": "en", "original_title": "The Toast of New York", "overview": "After the American Civil War, Jim Fisk, a former peddler and cotton smuggler, arrives in New York, along with his partners Nick and Luke, where he struggles to make his way through the treacherous world of Wall Street's financial markets.", "popularity": 3.002, "poster_path": "/6wExqrcvIIISIVRDLzAFVz45SG2.jpg", "production_companies": [{"id": 6, "logo_path": "/n53F7K9scQWFXYbrCablqLKqJdp.png", "name": "RKO Radio Pictures", "origin_country": "US"}], "production_countries": [{"iso_3166_1": "US", "name": "United States of America"}], "release_date": "1937-07-30", "revenue": 0, "runtime": 109, "spoken_languages": [{"iso_639_1": "en", "name": "English"}], "status": "Released", "tagline": "The terror of Wall Street was a chump for this girl!", "title": "The Toast of New York", "video": false, "vote_average": 6.0, "vote_count": 3, "keywords": {"keywords": [{"id": 1321, "name": "gold"}, {"id": 5636, "name": "wall street"}, {"id": 7862, "name": "private army"}, {"id": 10453, "name": "con artist"}, {"id": 14512, "name": "new york city, usa"}, {"id": 165804, "name": "peddler"}, {"id": 179585, "name": "american civil war"}, {"id": 190477, "name": "cotton"}, {"id": 207928, "name": "19th century"}, {"id": 240863, "name": "theatrical production"}, {"id": 250279, "name": "black friday"}]}, "similar": {"page": 1, "results": [{"adult": false, "backdrop_path": "/iGAQZPnHLeXTaxZdKVUjLegWDom.jpg", "genre_ids": [35, 37], "id": 440161, "original_language": "en", "original_title": "The Sisters Brothers", "overview": "Oregon, 1851. Hermann Kermit Warm, a chemist and aspiring gold prospector, keeps a profitable secret that the Commodore wants to know, so he sends the Sisters brothers, two notorious assassins, to capture him on his way to California.", "poster_path": "/7Tl2nZ6uvmxwK14Skbf9VFHEHpX.jpg", "release_date": "2018-09-19", "title": "The Sisters Brothers", "video": false, "vote_average": 6.9, "vote_count": 894, "popularity": 15.148}, {"id": 8619, "video": false, "vote_count": 1674, "vote_average": 7.1, "title": "Master and Commander: The Far Side of the World", "release_date": "2003-11-14", "original_language": "en", "original_title": "Master and Commander: The Far Side of the World", "genre_ids": [12, 18, 10752], "backdrop_path": "/uuPbSNgk2dfhMH8l4cKSQUBBk6k.jpg", "adult": false, "overview": "After an abrupt and violent encounter with a French warship inflicts severe damage upon his ship, a captain of the British Royal Navy begins a chase over two oceans to capture or destroy the enemy, though he must weigh his commitment to duty and ferocious pursuit of glory against the safety of his devoted crew, including the ship's thoughtful surgeon, his best friend.", "poster_path": "/s1cVTQEZYn4nSjZLnFbzLP0j8y2.jpg", "popularity": 33.538}, {"id": 399019, "video": false, "vote_count": 1322, "vote_average": 5.7, "title": "The Beguiled", "release_date": "2017-06-23", "original_language": "en", "original_title": "The Beguiled", "genre_ids": [18, 37], "backdrop_path": "/5jq7TjRzmvkJsa8bF3zWqxbPtmw.jpg", "adult": false, "overview": "During the Civil War, at a Southern girls\u2019 boarding school, young women take in an injured enemy soldier. As they provide refuge and tend to his wounds, the house is taken over with sexual tension and dangerous rivalries, and taboos are broken in an unexpected turn of events.", "poster_path": "/uQxfqFAqAvNK5b1wD11b2ycDAVg.jpg", "popularity": 13.626}, {"adult": false, "backdrop_path": "/dLAPTvBwEdP4h7a14isNc0HwmOj.jpg", "genre_ids": [18, 10749], "id": 250734, "original_language": "en", "original_title": "Far from the Madding Crowd", "overview": "Based on the literary classic by Thomas Hardy. Bathsheba Everdene, attracts three very different suitors: Gabriel Oak, a sheep farmer, captivated by her fetching willfulness; Frank Troy, a handsome and reckless Sergeant; and William Boldwood, a prosperous and mature bachelor. This timeless story of Bathsheba's choices and passions explores the nature of relationships and love \u2013 as well as the human ability to overcome hardships through resilience and perseverance.", "poster_path": "/6v1DEaO2TZzrqcaGohUf1K7BXkU.jpg", "release_date": "2015-04-23", "title": "Far from the Madding Crowd", "video": false, "vote_average": 7.0, "vote_count": 643, "popularity": 14.468}, {"adult": false, "backdrop_path": "/kiWvoV78Cc3fUwkOHKzyBgVdrDD.jpg", "genre_ids": [37, 18, 12], "id": 281957, "original_language": "en", "original_title": "The Revenant", "overview": "In the 1820s, a frontiersman, Hugh Glass, sets out on a path of vengeance against those who left him for dead after a bear mauling.", "poster_path": "/oXUWEc5i3wYyFnL1Ycu8ppxxPvs.jpg", "release_date": "2015-12-25", "title": "The Revenant", "video": false, "vote_average": 7.5, "vote_count": 12122, "popularity": 30.491}, {"id": 169917, "video": false, "vote_count": 1811, "vote_average": 6.3, "title": "A Walk Among the Tombstones", "release_date": "2014-09-18", "original_language": "en", "original_title": "A Walk Among the Tombstones", "genre_ids": [80, 18, 9648, 53], "backdrop_path": "/e56QsaJy1weAUukiK2ZmIGVUALF.jpg", "adult": false, "overview": "Private investigator Matthew Scudder is hired by a drug kingpin to find out who kidnapped and murdered his wife.", "poster_path": "/xxe77USOk2tPnq7G4cL42gf1OxQ.jpg", "popularity": 26.185}, {"id": 106646, "video": false, "vote_count": 13901, "vote_average": 8.0, "title": "The Wolf of Wall Street", "release_date": "2013-12-25", "original_language": "en", "original_title": "The Wolf of Wall Street", "genre_ids": [35, 80, 18], "backdrop_path": "/rP36Rx5RQh0rmH2ynEIaG8DxbV2.jpg", "adult": false, "overview": "A New York stockbroker refuses to cooperate in a large securities fraud case involving corruption on Wall Street, corporate banking world and mob infiltration. Based on Jordan Belfort's autobiography.", "poster_path": "/vK1o5rZGqxyovfIhZyMELhk03wO.jpg", "popularity": 36.8}, {"id": 411728, "video": false, "vote_count": 342, "vote_average": 7.2, "title": "The Professor and the Madman", "release_date": "2019-03-07", "original_language": "en", "original_title": "The Professor and the Madman", "genre_ids": [18, 36, 9648, 53], "backdrop_path": "/zhNfM1CSQqJtIqelwlK9iKtSd9P.jpg", "adult": false, "overview": "Professor James Murray begins work compiling words for the first edition of the Oxford English Dictionary in the mid 19th century, and receives over 10,000 entries from a patient at Broadmoor Criminal Lunatic Asylum, Dr. William Minor.", "poster_path": "/gtGCDLhfjW96qVarwctnuTpGOtD.jpg", "popularity": 14.972}, {"id": 540901, "video": false, "vote_count": 921, "vote_average": 6.3, "title": "Hustlers", "release_date": "2019-09-12", "original_language": "en", "original_title": "Hustlers", "genre_ids": [35, 80, 18], "backdrop_path": "/59ZWXmn2i5MQYUhQOBtOE7jWZGn.jpg", "adult": false, "overview": "A crew of savvy former strip club employees band together to turn the tables on their Wall Street clients.", "poster_path": "/zBhv8rsLOfpFW2M5b6wW78Uoojs.jpg", "popularity": 47.303}, {"adult": false, "backdrop_path": "/GRyynLqafMrLFMHqvfGdUweavA.jpg", "genre_ids": [27, 18, 14], "id": 628, "original_language": "en", "original_title": "Interview with the Vampire", "overview": "A vampire relates his epic life story of love, betrayal, loneliness, and dark hunger to an over-curious reporter.", "poster_path": "/hldXwwViSfHJS0kIJr07KBGmHJI.jpg", "release_date": "1994-11-11", "title": "Interview with the Vampire", "video": false, "vote_average": 7.3, "vote_count": 3229, "popularity": 20.093}, {"id": 401847, "video": false, "vote_count": 664, "vote_average": 6.8, "title": "Can You Ever Forgive Me?", "release_date": "2018-10-19", "original_language": "en", "original_title": "Can You Ever Forgive Me?", "genre_ids": [35, 80, 18], "backdrop_path": "/shIOFWkjTn2NRvq5r4Mn2xLdZeJ.jpg", "adult": false, "overview": "When a bestselling celebrity biographer is no longer able to get published because she has fallen out of step with current tastes, she turns her art form to deception.", "poster_path": "/hPuZR2bFoV0kuBrA98exWyvTf40.jpg", "popularity": 18.675}, {"id": 656968, "video": false, "vote_count": 23, "vote_average": 7.0, "title": "A Christmas Carol", "release_date": "2019-12-19", "original_language": "en", "original_title": "A Christmas Carol", "genre_ids": [18, 14], "backdrop_path": "/ubLsCmv36zUUt2zxhFSowYFe5uF.jpg", "adult": false, "overview": "London, 1843. Ebenezer Scrooge, a bitter old man, despises the Christmas holiday. Over the course of Christmas Eve night he is visited by three ghosts to show him his past, present and future.", "poster_path": "/tKW48tnZKaHLBIxxgoAf9BIpyRv.jpg", "popularity": 10.458}, {"adult": false, "backdrop_path": "/hm8Gux0946IfeJ1PZwztOo6lVHH.jpg", "genre_ids": [18, 36, 35], "id": 450322, "original_language": "en", "original_title": "The Man Who Invented Christmas", "overview": "In 1843, despite the fact that Dickens is a successful writer, the failure of his latest book puts his career at a crossroads, until the moment when, struggling with inspiration and confronting reality with his childhood memories, a new character is born in the depths of his troubled mind; an old, lonely, embittered man, so vivid, so human, that a whole world grows around him, a story so inspiring that changed the meaning of Christmas forever.", "poster_path": "/xYCuRgEKynGurSEooxDa9pQPF7n.jpg", "release_date": "2017-10-12", "title": "The Man Who Invented Christmas", "video": false, "vote_average": 6.7, "vote_count": 395, "popularity": 13.295}, {"adult": false, "backdrop_path": "/sw7mordbZxgITU877yTpZCud90M.jpg", "genre_ids": [18, 80], "id": 769, "original_language": "en", "original_title": "GoodFellas", "overview": "The true story of Henry Hill, a half-Irish, half-Sicilian Brooklyn kid who is adopted by neighbourhood gangsters at an early age and climbs the ranks of a Mafia family under the guidance of Jimmy Conway.", "poster_path": "/pwpGfTImTGifEGgLb3s6LRPd4I6.jpg", "release_date": "1990-09-12", "title": "GoodFellas", "video": false, "vote_average": 8.4, "vote_count": 6553, "popularity": 33.23}, {"id": 466081, "video": false, "vote_count": 68, "vote_average": 6.4, "title": "The Informer", "release_date": "2019-08-30", "original_language": "en", "original_title": "The Informer", "genre_ids": [80, 18, 53], "backdrop_path": "/98sIdYdvnh68Va1JLjcyAuFGZO5.jpg", "adult": false, "overview": "In New York, former convict Pete Koslow, related to the Polish mafia, must deal with both Klimek the General, his ruthless boss, and the twisted ambitions of two federal agents, as he tries to survive and protect the lives of his loved ones\u2026", "poster_path": "/pbGveUC8mk0QRkdXpERPLbMFnrg.jpg", "popularity": 24.677}, {"adult": false, "backdrop_path": "/2Tawvc0JMmR9nBXD3nhBThTQP2X.jpg", "genre_ids": [53, 18, 80, 27], "id": 1359, "original_language": "en", "original_title": "American Psycho", "overview": "A wealthy New York investment banking executive hides his alternate psychopathic ego from his co-workers and friends as he escalates deeper into his illogical, gratuitous fantasies.", "poster_path": "/qXsylPM4Lr5397R3eHrfqHhTUNc.jpg", "release_date": "2000-04-13", "title": "American Psycho", "video": false, "vote_average": 7.4, "vote_count": 4911, "popularity": 20.069}, {"id": 11362, "video": false, "vote_count": 888, "vote_average": 7.5, "title": "The Count of Monte Cristo", "release_date": "2002-01-23", "original_language": "en", "original_title": "The Count of Monte Cristo", "genre_ids": [28, 12, 18, 53], "backdrop_path": "/pgreancDSQbXbOIeMWuJclnm03C.jpg", "adult": false, "overview": "Edmond Dant\u00e9s's life and plans to marry the beautiful Mercedes are shattered when his best friend, Fernand, deceives him. After spending 13 miserable years in prison, Dant\u00e9s escapes with the help of a fellow inmate and plots his revenge, cleverly insinuating himself into the French nobility.", "poster_path": "/1JbBZex0EUcTj9FCD8oYEFbVH3j.jpg", "popularity": 17.682}, {"id": 20237, "video": false, "vote_count": 6, "vote_average": 6.8, "title": "The Adventures of Bullwhip Griffin", "release_date": "1967-03-08", "original_language": "en", "original_title": "The Adventures of Bullwhip Griffin", "genre_ids": [28, 35, 18, 37, 10751], "backdrop_path": "/bk0FRvHr36nmp0E8IO1h9MLkNIb.jpg", "adult": false, "overview": "Boston proper meets the Wild West as Roddy McDowall, Suzanne Pleshette, and Karl Malden star in a fish-out-of-water comedy for everyone! To restore his family's lost wealth, a young Boston lad stows away on a ship bound for the California Gold Rush. When their very proper butler gives chase, all roads lead to nonstop adventure, wild and woolly characters, and a lucky punch that leads to a bonanza of belly laughs!", "poster_path": "/cmCHhK8g7sOOTkqOVTbMqRdtrbI.jpg", "popularity": 18.289}, {"id": 331482, "video": false, "vote_count": 527, "vote_average": 8.1, "title": "Little Women", "release_date": "2019-12-25", "original_language": "en", "original_title": "Little Women", "genre_ids": [18, 10749], "backdrop_path": "/3uTxPIdVEXxHpsHOHdJC24QebBV.jpg", "adult": false, "overview": "Four sisters come of age in America in the aftermath of the Civil War.", "poster_path": "/mSmiB8XjUnR1GSIljuCPGsk0cwX.jpg", "popularity": 107.902}, {"adult": false, "backdrop_path": "/jDLJ1X0YCzTD5Jh5WxfN7wD0pyN.jpg", "genre_ids": [16, 35, 10751], "id": 12233, "original_language": "en", "original_title": "Oliver & Company", "overview": "This animated take on Oliver Twist re-imagines Oliver as an adorable orphaned kitten who struggles to survive in New York City and falls in with a band of canine criminals led by an evil human. First, Oliver meets Dodger, a carefree mutt with street savoir faire. But when Oliver meets wealthy Jenny on one of the gang's thieving missions, his life changes forever.", "poster_path": "/m54pXsIUy3IJoaGhk3RwKsZQPG8.jpg", "release_date": "1988-11-18", "title": "Oliver & Company", "video": false, "vote_average": 6.7, "vote_count": 901, "popularity": 15.777}], "total_pages": 12, "total_results": 223}, "recommendations": {"page": 1, "results": [], "total_pages": 1, "total_results": 0}, "credits": {"cast": [{"cast_id": 4, "character": "Jim Fisk", "credit_id": "52fe4826c3a36847f815a28b", "gender": 2, "id": 30211, "name": "Edward Arnold", "order": 0, "profile_path": "/oYJfe7rvtubC8CNNa8gqY36iNP8.jpg"}, {"cast_id": 5, "character": "Nick Boyd", "credit_id": "52fe4826c3a36847f815a28f", "gender": 2, "id": 2638, "name": "Cary Grant", "order": 1, "profile_path": "/moeJxPpEIF0abbjXYDPknDKLn44.jpg"}, {"cast_id": 6, "character": "Josie Mansfield", "credit_id": "52fe4826c3a36847f815a293", "gender": 1, "id": 116640, "name": "Frances Farmer", "order": 2, "profile_path": "/8LSnxsrgJG4o5dYFnmmal2g9nLv.jpg"}, {"cast_id": 7, "character": "Luke", "credit_id": "52fe4826c3a36847f815a297", "gender": 2, "id": 14028, "name": "Jack Oakie", "order": 3, "profile_path": "/rSo16WdKISZTAZwffjdQTBO26DU.jpg"}, {"cast_id": 8, "character": "Daniel Drew", "credit_id": "52fe4826c3a36847f815a29b", "gender": 2, "id": 14968, "name": "Donald Meek", "order": 4, "profile_path": "/zKB7cWdaXAi12lDOMlc85m1HiqV.jpg"}, {"cast_id": 12, "character": "Fleurique", "credit_id": "56a2e523925141720b001471", "gender": 0, "id": 1437229, "name": "Thelma Leeds", "order": 5, "profile_path": "/uNQ19Th14UMBUAbZnTGtE6NEFO6.jpg"}, {"cast_id": 13, "character": "Cornelius Vanderbilt", "credit_id": "56a2e532c3a368389e00142d", "gender": 2, "id": 30237, "name": "Clarence Kolb", "order": 6, "profile_path": "/qW24KvtdLQYhE3OMa9jFEgExe6q.jpg"}, {"cast_id": 29, "character": "Collins", "credit_id": "5c2ab7df92514122ae6bbfbc", "gender": 0, "id": 1074731, "name": "Dudley Clements", "order": 7, "profile_path": null}, {"cast_id": 25, "character": "Beef Dooley", "credit_id": "5c2ab78c92514122b86bc055", "gender": 2, "id": 120046, "name": "Dewey Robinson", "order": 8, "profile_path": "/7jbd6WBzj7mgNqTVqSraifT09UE.jpg"}, {"cast_id": 27, "character": "Broker", "credit_id": "5c2ab7b9c3a3682919a04206", "gender": 2, "id": 13823, "name": "George Irving", "order": 9, "profile_path": "/js2u7KGDeYSKf4eOrVQJxDPfaUP.jpg"}, {"cast_id": 28, "character": "Lawyer", "credit_id": "5c2ab7ca0e0a2655f4381914", "gender": 2, "id": 13969, "name": "Russell Hicks", "order": 10, "profile_path": "/hRRM5ni87mxjlDV2G9jr4GCxFew.jpg"}, {"cast_id": 14, "character": "Photographer", "credit_id": "56a2e54292514172020014ed", "gender": 2, "id": 5464, "name": "Billy Gilbert", "order": 11, "profile_path": "/7Kbya2ek3mGShtJBWKouRLi8F2G.jpg"}, {"cast_id": 26, "character": "Top Sergeant", "credit_id": "5c2ab79c0e0a2655e7382907", "gender": 2, "id": 29762, "name": "Stanley Fields", "order": 12, "profile_path": "/a7gQDvBBg6S2qN8cQTeclTLGX49.jpg"}], "crew": [{"credit_id": "5acd16b89251410bda011a0f", "department": "Art", "gender": 2, "id": 11036, "job": "Art Direction", "name": "Van Nest Polglase", "profile_path": "/11wRR3ofmyXu33rjhlrwg74zpnJ.jpg"}, {"credit_id": "5acd17170e0a267f97015e06", "department": "Costume & Make-Up", "gender": 2, "id": 10153, "job": "Costume Design", "name": "Edward Stevenson", "profile_path": "/6Qf4d6MNUw7GlDg7YSFAJnEjGHr.jpg"}, {"credit_id": "573f6953c3a3683bd6000631", "department": "Costume & Make-Up", "gender": 2, "id": 4352, "job": "Makeup Artist", "name": "Mel Berns", "profile_path": "/OGT3K2ekiitrITzytByC3JSxf2.jpg"}, {"credit_id": "5acd17009251410c48012c02", "department": "Editing", "gender": 2, "id": 10151, "job": "Editor", "name": "Samuel E. Beetley", "profile_path": null}, {"credit_id": "52fe4826c3a36847f815a2a1", "department": "Writing", "gender": 2, "id": 13802, "job": "Screenplay", "name": "Dudley Nichols", "profile_path": null}, {"credit_id": "5c2ab6d3c3a3682919a04068", "department": "Sound", "gender": 2, "id": 13813, "job": "Sound Recordist", "name": "John L. Cass", "profile_path": null}, {"credit_id": "52fe4826c3a36847f815a27b", "department": "Directing", "gender": 2, "id": 30146, "job": "Director", "name": "Rowland V. Lee", "profile_path": null}, {"credit_id": "5c2ab6aac3a3682919a0402d", "department": "Production", "gender": 2, "id": 10914, "job": "Producer", "name": "Edward Small", "profile_path": null}, {"credit_id": "52fe4826c3a36847f815a2ad", "department": "Writing", "gender": 0, "id": 92909, "job": "Screenplay", "name": "Joel Sayre", "profile_path": null}, {"credit_id": "5acd16a9c3a3687e7202f49d", "department": "Camera", "gender": 2, "id": 98501, "job": "Director of Photography", "name": "J. Peverell Marley", "profile_path": null}, {"credit_id": "5c2ab670c3a3682919a03fe1", "department": "Directing", "gender": 2, "id": 99667, "job": "Assistant Director", "name": "Alexander Hall", "profile_path": "/cI5plsrm2kfqalh3dDRPMun6pZW.jpg"}, {"credit_id": "52fe4826c3a36847f815a2a7", "department": "Writing", "gender": 2, "id": 100914, "job": "Screenplay", "name": "John Twist", "profile_path": null}, {"credit_id": "52fe4826c3a36847f815a281", "department": "Writing", "gender": 0, "id": 145841, "job": "Novel", "name": "Bouck White", "profile_path": null}, {"credit_id": "52fe4826c3a36847f815a287", "department": "Writing", "gender": 0, "id": 145842, "job": "Story", "name": "Matthew Josephson", "profile_path": null}, {"credit_id": "5acd16e3925141434402f9f6", "department": "Editing", "gender": 0, "id": 1182098, "job": "Editor", "name": "George C. Hively", "profile_path": null}, {"credit_id": "5c2ab6bbc3a368290ba04a44", "department": "Sound", "gender": 2, "id": 1313001, "job": "Original Music Composer", "name": "Nathaniel Shilkret", "profile_path": "/eRemDqRGocPuLMTEm2iARLTHMxf.jpg"}]}}