{"adult": false, "backdrop_path": "/zEa4cQdcxUZEyshdiUhD7QuYA2P.jpg", "belongs_to_collection": null, "budget": 0, "genres": [{"id": 80, "name": "Crime"}, {"id": 18, "name": "Drama"}, {"id": 53, "name": "Thriller"}], "homepage": null, "id": 52364, "imdb_id": "tt0042352", "original_language": "en", "original_title": "Crisis", "overview": "An American doctor gets caught in the middle of a revolution when he's forced to operate on a South American dictator.", "popularity": 2.976, "poster_path": "/olG8qrwEBnNHISC8uJlJ0OtL8jf.jpg", "production_companies": [{"id": 1460, "logo_path": null, "name": "Loew's", "origin_country": ""}, {"id": 21, "logo_path": "/mjofSXiHpG5t6KYmU4l4FrUhT7m.png", "name": "Metro-Goldwyn-Mayer", "origin_country": "US"}], "production_countries": [{"iso_3166_1": "US", "name": "United States of America"}], "release_date": "1950-07-07", "revenue": 0, "runtime": 95, "spoken_languages": [{"iso_639_1": "en", "name": "English"}, {"iso_639_1": "es", "name": "Espa\u00f1ol"}], "status": "Released", "tagline": "Carefree Cary Grant on a gay holiday with his lovely bride walks right into DANGER!", "title": "Crisis", "video": false, "vote_average": 7.0, "vote_count": 9, "keywords": {"keywords": [{"id": 879, "name": "brain tumor"}, {"id": 6876, "name": "vacation"}, {"id": 7606, "name": "dictatorship"}, {"id": 13005, "name": "doctor"}, {"id": 188083, "name": "brain surgeon"}]}, "similar": {"page": 1, "results": [{"id": 40807, "video": false, "vote_count": 2336, "vote_average": 7.1, "title": "50/50", "release_date": "2011-09-30", "original_language": "en", "original_title": "50/50", "genre_ids": [35, 18], "backdrop_path": "/kGac26bIqfwm8eqbP1RjKP70brE.jpg", "adult": false, "overview": "Inspired by a true story, a comedy centered on a 27-year-old guy who learns of his cancer diagnosis, and his subsequent struggle to beat the disease.", "poster_path": "/uDKmnFHqE3rQ9r6ErQsOZWuzXN8.jpg", "popularity": 19.878}, {"id": 797, "video": false, "vote_count": 884, "vote_average": 8.3, "title": "Persona", "release_date": "1966-10-18", "original_language": "sv", "original_title": "Persona", "genre_ids": [18], "backdrop_path": "/hqFN0gOmeXKmKP266CSjbHt9y05.jpg", "adult": false, "overview": "A young nurse, Alma, is put in charge of Elisabeth Vogler: an actress who is seemingly healthy in all respects, but will not talk. As they spend time together, Alma speaks to Elisabeth constantly, never receiving any answer. Alma eventually confesses her secrets to a seemingly sympathetic Elisabeth and finds that her own personality is being submerged into Elisabeth's persona.", "poster_path": "/cjAnlvCrp9ZY7atASUsxRrhve7o.jpg", "popularity": 14.909}, {"id": 568091, "video": false, "vote_count": 751, "vote_average": 6.6, "title": "Fractured", "release_date": "2019-09-22", "original_language": "en", "original_title": "Fractured", "genre_ids": [53], "backdrop_path": "/3UnUxeEAGoZhjIW8X1HpEuDPngV.jpg", "adult": false, "overview": "Driving cross-country, Ray and his wife and daughter stop at a highway rest area where his daughter falls and breaks her arm. After a frantic rush to the hospital and a clash with the check-in nurse, Ray is finally able to get her to a doctor. While the wife and daughter go downstairs for an MRI, Ray, exhausted, passes out in a chair in the lobby. Upon waking up, they have no record or knowledge of Ray's family ever being checked in.", "poster_path": "/paZNRffT3kUckuRFKbeDBuX1YcZ.jpg", "popularity": 19.226}, {"adult": false, "backdrop_path": "/mtJrV7i76PtXJMmWz3tu6dWav6n.jpg", "genre_ids": [18], "id": 510, "original_language": "en", "original_title": "One Flew Over the Cuckoo's Nest", "overview": "While serving time for insanity at a state mental hospital, implacable rabble-rouser, Randle Patrick McMurphy, inspires his fellow patients to rebel against the authoritarian rule of head nurse, Mildred Ratched.", "poster_path": "/2Sns5oMb356JNdBHgBETjIpRYy9.jpg", "release_date": "1975-11-18", "title": "One Flew Over the Cuckoo's Nest", "video": false, "vote_average": 8.4, "vote_count": 6157, "popularity": 24.823}, {"id": 9294, "video": false, "vote_count": 619, "vote_average": 6.3, "title": "Phenomenon", "release_date": "1996-07-05", "original_language": "en", "original_title": "Phenomenon", "genre_ids": [18, 14, 878, 10749], "backdrop_path": "/nipD6OWKuSgOBzElr6Hzb31AWfU.jpg", "adult": false, "overview": "An ordinary man sees a bright light descend from the sky, and discovers he now has super-intelligence and telekinesis.", "poster_path": "/bnjSUzRUNaKQLN678wpK8zsD8jF.jpg", "popularity": 11.46}, {"adult": false, "backdrop_path": "/A7ovlrws4B7lXvkcC9iSRkypX02.jpg", "genre_ids": [27, 9648, 878, 53], "id": 340837, "original_language": "en", "original_title": "A Cure for Wellness", "overview": "An ambitious young executive is sent to retrieve his company's CEO from an idyllic but mysterious \"wellness center\" at a remote location in the Swiss Alps but soon suspects that the spa's miraculous treatments are not what they seem.", "poster_path": "/d4fXuJS3zZcAZfz2HYDtnwqtnwn.jpg", "release_date": "2017-02-15", "title": "A Cure for Wellness", "video": false, "vote_average": 6.2, "vote_count": 2310, "popularity": 16.556}, {"adult": false, "backdrop_path": "/bvbyidkMaBls1LTaIWYY6UmYTaL.jpg", "genre_ids": [28, 878], "id": 336843, "original_language": "en", "original_title": "Maze Runner: The Death Cure", "overview": "Thomas leads his group of escaped Gladers on their final and most dangerous mission yet. To save their friends, they must break into the legendary Last City, a WCKD-controlled labyrinth that may turn out to be the deadliest maze of all. Anyone who makes it out alive will get answers to the questions the Gladers have been asking since they first arrived in the maze.", "poster_path": "/2zYfzA3TBwrMC8tfFbpiTLODde0.jpg", "release_date": "2018-01-10", "title": "Maze Runner: The Death Cure", "video": false, "vote_average": 7.0, "vote_count": 4393, "popularity": 24.242}, {"adult": false, "backdrop_path": "/eTxgy8eROB5Ly7ZXKLukQoF6tKl.jpg", "genre_ids": [27, 878], "id": 11549, "original_language": "en", "original_title": "Invasion of the Body Snatchers", "overview": "A small-town doctor learns that the population of his community is being replaced by emotionless alien duplicates.", "poster_path": "/4oj0G2Zr6tQKBDOzKaLuefdeBsG.jpg", "release_date": "1956-02-05", "title": "Invasion of the Body Snatchers", "video": false, "vote_average": 7.5, "vote_count": 472, "popularity": 26.588}, {"id": 10312, "video": false, "vote_count": 1874, "vote_average": 7.2, "title": "Patch Adams", "release_date": "1998-12-25", "original_language": "en", "original_title": "Patch Adams", "genre_ids": [35, 18], "backdrop_path": "/9CtyPVGETuWUlqnNswo7R98xGgU.jpg", "adult": false, "overview": "Patch Adams is a doctor who doesn't look, act or think like any doctor you've met before. For Patch, humour is the best medicine and he's willing to do just anything to make his patients laugh\u2014even if it means risking his own career.", "poster_path": "/2T0Mj8gkTXgciedz8W5nsnjCHig.jpg", "popularity": 12.924}, {"id": 406761, "video": false, "vote_count": 683, "vote_average": 5.9, "title": "Hotel Artemis", "release_date": "2018-06-07", "original_language": "en", "original_title": "Hotel Artemis", "genre_ids": [28, 878, 53], "backdrop_path": "/E0QuvtI9RCDfi79WnQSPKIzc61.jpg", "adult": false, "overview": "Los Angeles, June 21st, 2028. While the streets are being torn apart by riots, the Nurse, who runs a clandestine hospital for criminals in the penthouse of the Artemis, a closed old hotel, has a rough night dealing with troublemaker clients: thieves, assassins, someone from the past and the one who owns the place and the whole city.", "poster_path": "/wUTiyJ9N8rVLOxJz7aVpaBLpbot.jpg", "popularity": 14.165}, {"id": 204922, "video": false, "vote_count": 1211, "vote_average": 6.5, "title": "Before I Go to Sleep", "release_date": "2014-09-03", "original_language": "en", "original_title": "Before I Go to Sleep", "genre_ids": [9648, 53], "backdrop_path": "/oP6t2PvX8DFcGyyCcWFQSP6s25W.jpg", "adult": false, "overview": "A woman wakes up every day, remembering nothing as a result of a traumatic accident in her past. One day, new terrifying truths emerge that force her to question everyone around her.", "poster_path": "/3UG2Pb122c7Va8MBtr1OHRB1YPh.jpg", "popularity": 23.113}, {"id": 416234, "video": false, "vote_count": 1006, "vote_average": 5.8, "title": "Winchester", "release_date": "2018-02-02", "original_language": "en", "original_title": "Winchester", "genre_ids": [14, 27, 9648, 53], "backdrop_path": "/d4wnMDSrQonB9iArMzd90WqaoJ4.jpg", "adult": false, "overview": "San Jose, California, 1906. Isolated in her labyrinthine mansion, eccentric firearm heiress Sarah Winchester believes that she is being haunted by the souls of those killed by the guns manufactured by her company.", "poster_path": "/tHDtskokZeO9B3JBdR1dSH0uqad.jpg", "popularity": 15.306}, {"id": 4922, "video": false, "vote_count": 7498, "vote_average": 7.5, "title": "The Curious Case of Benjamin Button", "release_date": "2008-12-25", "original_language": "en", "original_title": "The Curious Case of Benjamin Button", "genre_ids": [18, 14, 9648, 53, 10749], "backdrop_path": "/u4izHlsHk8jwalt5m7E2uzP8q9E.jpg", "adult": false, "overview": "Born under unusual circumstances, Benjamin Button springs into being as an elderly man in a New Orleans nursing home and ages in reverse. Twelve years after his birth, he meets Daisy, a child who flits in and out of his life as she grows up to be a dancer. Though he has all sorts of unusual adventures over the course of his life, it is his relationship with Daisy, and the hope that they will come together at the right time, that drives Benjamin forward.", "poster_path": "/gjMR102u5hPdIAWX7O2rim8ZWgA.jpg", "popularity": 28.44}, {"adult": false, "backdrop_path": "/ueMSXqgN3FOF8y8fym7ntJqtAP.jpg", "genre_ids": [28, 9648, 53], "id": 48138, "original_language": "en", "original_title": "Unknown", "overview": "An American biologist attending a conference in Berlin awakens from a coma after a car accident, only to discover that someone has taken his identity and that no one, not even his wife, believes him. With the help of an illegal immigrant and a former Stazi agent, he sets out to prove who he is and find out why people are trying to kill him.", "poster_path": "/4QAPgl63sRyCptq1Wd25lNsptbU.jpg", "release_date": "2011-02-16", "title": "Unknown", "video": false, "vote_average": 6.6, "vote_count": 2265, "popularity": 21.455}, {"id": 651, "video": false, "vote_count": 478, "vote_average": 7.1, "title": "M*A*S*H", "release_date": "1970-01-24", "original_language": "en", "original_title": "M*A*S*H", "genre_ids": [35, 18, 10752], "backdrop_path": "/l5YH6TCYi2mgZwXbDjF71iA9UBP.jpg", "adult": false, "overview": "The staff of a Korean War field hospital use humor and high jinks to keep their sanity in the face of the horror of war.", "poster_path": "/cscyvJ4nDgbqewrttPXZ5EYOdwa.jpg", "popularity": 11.845}, {"id": 9567, "video": false, "vote_count": 1085, "vote_average": 6.5, "title": "Tears of the Sun", "release_date": "2003-03-07", "original_language": "en", "original_title": "Tears of the Sun", "genre_ids": [28, 18, 10752], "backdrop_path": "/ldqbcQaNc8RyTekKaeMoV4HBDQB.jpg", "adult": false, "overview": "Navy SEAL Lieutenant A.K. Waters and his elite squadron of tactical specialists are forced to choose between their duty and their humanity, between following orders by ignoring the conflict that surrounds them, or finding the courage to follow their conscience and protect a group of innocent refugees. When the democratic government of Nigeria collapses and the country is taken over by a ruthless military dictator, Waters, a fiercely loyal and hardened veteran is dispatched on a routine mission to retrieve a Doctors Without Borders physician.", "poster_path": "/qEe7aE4PgZCwnVoxKe7YsTm3Smh.jpg", "popularity": 16.721}, {"adult": false, "backdrop_path": "/siLeWQthKbUef4PKhR57BbReGnC.jpg", "genre_ids": [28, 80, 878, 53], "id": 754, "original_language": "en", "original_title": "Face/Off", "overview": "An antiterrorism agent goes under the knife to acquire the likeness of a terrorist and gather details about a bombing plot. When the terrorist escapes custody, he undergoes surgery to look like the agent so he can get close to the agent's family.", "poster_path": "/q1i8QHiHZ1cukG5iOxai8pydmoa.jpg", "release_date": "1997-06-27", "title": "Face/Off", "video": false, "vote_average": 6.9, "vote_count": 2960, "popularity": 19.404}, {"id": 567, "video": false, "vote_count": 3301, "vote_average": 8.3, "title": "Rear Window", "release_date": "1954-08-01", "original_language": "en", "original_title": "Rear Window", "genre_ids": [18, 9648, 53], "backdrop_path": "/8hknli2ljweYPkdEgl33vtJBf2U.jpg", "adult": false, "overview": "Professional photographer L.B. 'Jeff' Jeffries breaks his leg while getting an action shot at an auto race. Confined to his New York apartment, he spends his time looking out of the rear window observing the neighbors. When he begins to suspect that a man across the courtyard may have murdered his wife, Jeff enlists the help of his high society fashion-consultant girlfriend and his visiting nurse to investigate.", "poster_path": "/oXbT7vlLmZ76kWoHe5XJYuyJUgp.jpg", "popularity": 23.326}, {"id": 297, "video": false, "vote_count": 2534, "vote_average": 7.1, "title": "Meet Joe Black", "release_date": "1998-11-12", "original_language": "en", "original_title": "Meet Joe Black", "genre_ids": [18, 14, 10749], "backdrop_path": "/xYI72IVRK7MTQpENTdt4L20Aa2I.jpg", "adult": false, "overview": "When the grim reaper comes to collect the soul of megamogul Bill Parrish, he arrives with a proposition: Host him for a \"vacation\" among the living in trade for a few more days of existence. Parrish agrees, and using the pseudonym Joe Black, Death begins taking part in Parrish's daily agenda and falls in love with the man's daughter. Yet when Black's holiday is over, so is Parrish's life.", "poster_path": "/s5maEXmEsVZYUx6dWc11GhL0zww.jpg", "popularity": 20.753}, {"id": 264644, "video": false, "vote_count": 6078, "vote_average": 8.1, "title": "Room", "release_date": "2015-10-16", "original_language": "en", "original_title": "Room", "genre_ids": [18, 53], "backdrop_path": "/6Fi9Ta7m0wdmve2B2XpDdysxAGd.jpg", "adult": false, "overview": "Jack is a young boy of 5 years old who has lived all his life in one room. He believes everything within it are the only real things in the world. But what will happen when his Ma suddenly tells him that there are other things outside of Room?", "poster_path": "/eqFckcHuFCT1FrzLOAvXBb4jHwq.jpg", "popularity": 18.572}], "total_pages": 68, "total_results": 1346}, "recommendations": {"page": 1, "results": [{"adult": false, "backdrop_path": "/gzl9g0zwaOuUarY9kzPKMG0puFd.jpg", "genre_ids": [18], "id": 72338, "original_language": "en", "original_title": "Frisco Jenny", "overview": "Frisco Jenny was orphaned by the 1906 earthquake and fire and has become the madame of prosperous bawdy house. She puts her son up for adoption and he rises to prominence as district attorney dedicated to closing down such houses. When her underling Dutton proposes killing the DA, she kills the underling and must face execution.", "poster_path": "/1RI7hKDXt6vmXWRinObEhk9Jx9h.jpg", "release_date": "1932-12-30", "title": "Frisco Jenny", "video": false, "vote_average": 7.2, "vote_count": 6, "popularity": 2.821}, {"adult": false, "backdrop_path": "/bfWj7U3JZnKlchlcIfOi1AZcHRC.jpg", "genre_ids": [12, 10749], "id": 98539, "original_language": "en", "original_title": "The Exile", "overview": "In 17th-century England, Charles II, the rightful heir to the kingdom, is driven from his country by militants working for rogue leader Oliver Cromwell. Charles ends up in the Netherlands, where he falls for local beauty Katie and spends his days happily in the quiet countryside. Unfortunately, Cromwell's associate Col. Ingram and his men track Charles down, and the would-be monarch must resort to swashbuckling his way to freedom.", "poster_path": "/1kYXL3c10mLBG0OPAf23iygMQ4U.jpg", "release_date": "1947-10-17", "title": "The Exile", "video": false, "vote_average": 6.3, "vote_count": 4, "popularity": 2.888}, {"adult": false, "backdrop_path": "/yz59q7dkg3azLzzMkX667HPWbDx.jpg", "genre_ids": [18, 10749], "id": 120844, "original_language": "en", "original_title": "Strangers May Kiss", "overview": "After years of fighting off the advances of her old flame Steve, Lisbeth settles into a steamy, casual romance with journalist Alan. Against the advice of her happily married aunt Celia -- who encourages her to demand a serious commitment -- Lisbeth continues to see Alan, even after she hears he may have a wife in France. When Alan's work sends him abroad, a lovesick Lisbeth struggles to understand her feelings.", "poster_path": "/y3AuqiQTytoR3yOpggcJiuNSsZ6.jpg", "release_date": "1931-04-04", "title": "Strangers May Kiss", "video": false, "vote_average": 6.0, "vote_count": 3, "popularity": 3.713}, {"adult": false, "backdrop_path": "/ryfOVNUw3UFiKP7JeLcPWvu1aKV.jpg", "genre_ids": [12, 27], "id": 39441, "original_language": "en", "original_title": "White Pongo", "overview": "Suspecting that a safari guide is a wanted killer, undercover policeman Geoffrey Bishop (Richard Fraser) joins a safari led by the suspect for a scientist that hopes to find and prove that a fabled white gorilla is a missing link.", "poster_path": "/n0z4Y5z2QKujsvf7BmHD7dSqc92.jpg", "release_date": "1945-11-02", "title": "White Pongo", "video": false, "vote_average": 3.4, "vote_count": 4, "popularity": 2.062}, {"adult": false, "backdrop_path": "/kIlK9jxvhSaFgUyviZMWDko2r5q.jpg", "genre_ids": [35, 18], "id": 82169, "original_language": "en", "original_title": "Night After Night", "overview": "A former boxer purchases a classy speakeasy and falls in love with a wealthy society girl.", "poster_path": "/6inArfeANunvk6YIvWEu4fmS5Po.jpg", "release_date": "1932-10-30", "title": "Night After Night", "video": false, "vote_average": 7.0, "vote_count": 4, "popularity": 2.552}, {"adult": false, "backdrop_path": "/2luWPc10im2XMSadBSBt77fQarw.jpg", "genre_ids": [18, 9648], "id": 81678, "original_language": "en", "original_title": "Madonna of the Seven Moons", "overview": "In the early part of this century, Maddelena a teenage Italian girl, is attacked whilst walking in the woods. The attack leaves her mentally scarred and our story flashes forward to the 1940s where Maddelena is still troubled. She disappears one day and her daughter vows to find her.", "poster_path": "/IxsCXAwbANmHjhh2J62U07pp3U.jpg", "release_date": "1945-01-22", "title": "Madonna of the Seven Moons", "video": false, "vote_average": 6.8, "vote_count": 6, "popularity": 3.661}, {"adult": false, "backdrop_path": "/jaHRQ11bx8mKs88kdNQfoUg8Ufk.jpg", "genre_ids": [35, 18], "id": 50740, "original_language": "en", "original_title": "Friday the Thirteenth", "overview": "It is pouring with rain at one minute to midnight on Friday the thirteenth, and the driver of a London bus is peering through his blurred windscreen as his vehicle sails down an empty road. Suddenly, lightning strikes, and a vast crane above topples into the path of the oncoming bus... Then Big Ben begins to wind backwards. Time recedes. And we discover the lives of all the passengers and the events that brought them to that late-night bus journey, from the con-man with a hundred-pound cheque to the businessman's distraught and elderly wife. Time flows on, inevitably, to the crash -- and past it, as some live and some die.", "poster_path": "/j9W8pTc1ovJ7aCVH2vX4g3brsZQ.jpg", "release_date": "1933-11-01", "title": "Friday the Thirteenth", "video": false, "vote_average": 6.3, "vote_count": 3, "popularity": 2.465}, {"adult": false, "backdrop_path": "/mtZuQ7ZeBbNXBwlqQt1Jn7lB4qx.jpg", "genre_ids": [28, 10749], "id": 76499, "original_language": "en", "original_title": "Barbary Coast", "overview": "Mary Rutledge arrives from the east, finds her fiance dead, and goes to work at the roulette wheel of Louis Charnalis' Bella Donna, a rowdy gambling house in San Francisco in the 1850s. She falls in love with miner Carmichael and takes his gold dust at the wheel. She goes after him, Louis goes after her with intent to harm Carmichael.", "poster_path": "/mGralMkhmOPCdkheDUCQCgrCC1c.jpg", "release_date": "1935-10-13", "title": "Barbary Coast", "video": false, "vote_average": 7.1, "vote_count": 9, "popularity": 3.581}, {"adult": false, "backdrop_path": "/oAaIdwrLoKetLl5wUB6pxwLs7Lz.jpg", "genre_ids": [80, 18], "id": 91961, "original_language": "en", "original_title": "The Star Witness", "overview": "A tough District Attorney goes after a murderous crime gang, only to find that his witnesses, an innocent family, have clammed up in fear of reprisals.", "poster_path": "/1SyiChAGjG48EFMcnAvtdaw2GBD.jpg", "release_date": "1931-08-22", "title": "The Star Witness", "video": false, "vote_average": 7.0, "vote_count": 7, "popularity": 2.467}, {"adult": false, "backdrop_path": "/i1oSIwU5XcvEEBYK06GA7H0hQve.jpg", "genre_ids": [35], "id": 192938, "original_language": "en", "original_title": "The Affairs of Susan", "overview": "Susan is about to be married, but the wedding may get called off after her fiancee summons three former beaus. Each reveals a different portrait of Susan: one describes her as a naive country girl who reluctantly becomes an actress, another paints a picture of a gay party girl and and the third describes a serious intellectual. Which one is the real Susan?", "poster_path": "/pxwpg9hsMC8vclG622WO0jteDZ3.jpg", "release_date": "1945-03-28", "title": "The Affairs of Susan", "video": false, "vote_average": 6.1, "vote_count": 5, "popularity": 3.822}, {"adult": false, "backdrop_path": "/xD1nDWdYRjf6ha3JisBOXnrTl5x.jpg", "genre_ids": [35], "id": 82185, "original_language": "fr", "original_title": "Mauvaise graine", "overview": "A young man-about-Paris, cut off from his father's money, falls in with a picaresque gang of car thieves.", "poster_path": "/zhXe40oQgfmTv5c1iTPR7xigYRe.jpg", "release_date": "1934-07-05", "title": "Bad Seed", "video": false, "vote_average": 5.5, "vote_count": 6, "popularity": 2.016}, {"adult": false, "backdrop_path": "/2whC9VPq1ZTgrGtHDwkMtTUeJB5.jpg", "genre_ids": [80], "id": 32892, "original_language": "en", "original_title": "Apology for Murder", "overview": "Head over heels in love with a stern and cold older businessman's young wife, a love-starved reporter is seduced into conspiring to murder him so she can inherit his estate, while pinning the murder on another businessman.", "poster_path": "/u3L5C3u2oAca9iJsDkcHWaun6qJ.jpg", "release_date": "1945-09-27", "title": "Apology for Murder", "video": false, "vote_average": 5.3, "vote_count": 7, "popularity": 2.667}, {"id": 157343, "video": false, "vote_count": 7, "vote_average": 7.6, "title": "Hard to Handle", "release_date": "1933-01-28", "original_language": "en", "original_title": "Hard to Handle", "genre_ids": [35, 10749], "backdrop_path": "/3bv5TEwUoyLJaJeAs5d7nH6Fwpx.jpg", "adult": false, "overview": "A hustling public relations man promotes a series of fads.", "poster_path": "/laHa7OWSwtrQe89RzCD4wOECETM.jpg", "popularity": 3.626}, {"id": 26533, "video": false, "vote_count": 9, "vote_average": 5.4, "title": "The Fallen Sparrow", "release_date": "1943-08-19", "original_language": "en", "original_title": "The Fallen Sparrow", "genre_ids": [53], "backdrop_path": "/18vLISbnh9omczZeasqzM3XvWq8.jpg", "adult": false, "overview": "Imprisoned during the Spanish Civil War, John \"Kit\" McKittrick is released when a New York City policeman pulls some strings. Upon returning to America, McKittrick hears that a friend has committed suicide, and he begins to smell a rat. During his investigation, McKittrick questions three beautiful women, one of whom has a tie to his refugee past. Pursued by Nazi operatives, McKittrick learns of the death of another friend, and begins to suspect the dark Dr. Skaas.", "poster_path": "/9qLV3pb33L3wy544XJsvVN4qU3q.jpg", "popularity": 4.712}, {"id": 109881, "video": false, "vote_count": 7, "vote_average": 6.7, "title": "Love Letters", "release_date": "1945-10-26", "original_language": "en", "original_title": "Love Letters", "genre_ids": [10749], "backdrop_path": "/6egyZdbdaIzzXgfBgEvBVgEngEL.jpg", "adult": false, "overview": "When a man asks another man more facile with words to do his wooing for him, there are always complications. The man with no talent for writing marries the girl, confesses one night he didn't write the letters and ends up with a knife in his back. The writer of the letters fell in love with the woman he wrote to and wants to become her second husband even if she did murder husband number one. Singleton doesn't remember the murder or anything about the first 22 years of her life as Victoria Remington. Then at her second wedding she wonders why she said \"I take you, Roger,\" instead of \"I take you, Allen.\"", "poster_path": "/2i7SmV2gP6P4vTpc71aXuFavYVg.jpg", "popularity": 3.111}], "total_pages": 1, "total_results": 15}, "credits": {"cast": [{"cast_id": 4, "character": "Dr. Eugene Norland Ferguson", "credit_id": "52fe4827c3a36847f815a41b", "gender": 2, "id": 2638, "name": "Cary Grant", "order": 0, "profile_path": "/moeJxPpEIF0abbjXYDPknDKLn44.jpg"}, {"cast_id": 5, "character": "Raoul Farrago", "credit_id": "52fe4827c3a36847f815a41f", "gender": 0, "id": 12515, "name": "Jos\u00e9 Ferrer", "order": 1, "profile_path": "/4AeQKvJXTSFrjNtSKm2BFWVHdCr.jpg"}, {"cast_id": 6, "character": "Helen Ferguson", "credit_id": "52fe4827c3a36847f815a423", "gender": 1, "id": 93944, "name": "Paula Raymond", "order": 2, "profile_path": "/lfJ4wEmG4DxIsHfmRdW01ZKfMRy.jpg"}, {"cast_id": 7, "character": "Senora Isabel Farrago", "credit_id": "52fe4827c3a36847f815a427", "gender": 1, "id": 93902, "name": "Signe Hasso", "order": 3, "profile_path": "/rZp25Bh9CG0TdC2kmEDf5sAIj5I.jpg"}, {"cast_id": 8, "character": "Colonel Adragon", "credit_id": "52fe4827c3a36847f815a42b", "gender": 2, "id": 85425, "name": "Ramon Novarro", "order": 4, "profile_path": "/s0tGyixROd7thj2O6gnOSQFzVA4.jpg"}, {"cast_id": 9, "character": "Roland Gonzales", "credit_id": "52fe4827c3a36847f815a42f", "gender": 2, "id": 29273, "name": "Gilbert Roland", "order": 5, "profile_path": "/w9yWPxagQc0beQ8dntfSpfgil4T.jpg"}, {"cast_id": 10, "character": "Sam Proctor", "credit_id": "52fe4827c3a36847f815a433", "gender": 2, "id": 13994, "name": "Leon Ames", "order": 6, "profile_path": "/gzYY95O5AVKXxXlfV3XfHtBzQxA.jpg"}, {"cast_id": 13, "character": "Man In Street Crowd (uncredited)", "credit_id": "5945e8b0c3a368052d0186fc", "gender": 2, "id": 97999, "name": "John George", "order": 7, "profile_path": "/gEhNTzAQ2EoZzpAQWMYQuOVkSpF.jpg"}], "crew": [{"credit_id": "52fe4827c3a36847f815a40b", "department": "Directing", "gender": 2, "id": 3632, "job": "Director", "name": "Richard Brooks", "profile_path": "/2xTXd8iz1kKrH0sV4KFuEwZs62O.jpg"}, {"credit_id": "52fe4827c3a36847f815a417", "department": "Writing", "gender": 2, "id": 3632, "job": "Writer", "name": "Richard Brooks", "profile_path": "/2xTXd8iz1kKrH0sV4KFuEwZs62O.jpg"}, {"credit_id": "5aced59ec3a3687e40052065", "department": "Sound", "gender": 2, "id": 7647, "job": "Original Music Composer", "name": "Mikl\u00f3s R\u00f3zsa", "profile_path": "/1eAU1ckh7SUNMP9IZeii9qX5xa.jpg"}, {"credit_id": "5844a38792514166ba00df69", "department": "Production", "gender": 2, "id": 9055, "job": "Producer", "name": "Arthur Freed", "profile_path": "/dzPxN7pBVeSgW46YEOuCzcDbIv2.jpg"}, {"credit_id": "5aced5b99251410bda02ff75", "department": "Art", "gender": 2, "id": 9062, "job": "Art Direction", "name": "Cedric Gibbons", "profile_path": "/w8tc9iVH87Iu1KKFDZ9B99NhnBc.jpg"}, {"credit_id": "5aced5c00e0a267f9703a53d", "department": "Art", "gender": 2, "id": 9063, "job": "Set Decoration", "name": "Edwin B. Willis", "profile_path": "/b4hSs5KLFXxSrvvA923VjdmywMl.jpg"}, {"credit_id": "58293c499251417b1a034356", "department": "Camera", "gender": 2, "id": 16750, "job": "Director of Photography", "name": "Ray June", "profile_path": null}, {"credit_id": "5aced5a99251410c0603038b", "department": "Editing", "gender": 2, "id": 32439, "job": "Editor", "name": "Robert Kern", "profile_path": null}, {"credit_id": "5aced5b2c3a3687e4005208c", "department": "Art", "gender": 0, "id": 40170, "job": "Art Direction", "name": "E. Preston Ames", "profile_path": null}, {"credit_id": "52fe4827c3a36847f815a411", "department": "Writing", "gender": 2, "id": 105793, "job": "Story", "name": "George Tabori", "profile_path": null}]}}