{"adult": false, "backdrop_path": "/bH2sdmeQO4Bt3MJARJ3SLOIMuKH.jpg", "belongs_to_collection": null, "budget": 0, "genres": [{"id": 35, "name": "Comedy"}, {"id": 10749, "name": "Romance"}], "homepage": null, "id": 52560, "imdb_id": "tt0099166", "original_language": "en", "original_title": "Book of Love", "overview": "John Twiller takes down his high school yearbook and begins to reminiscence about that time he first moved into the neighborhood in 1956. His teenage self, Jack is obsessed with Lily one of the more popular girls around. The sole obstacle is Angelo, her bullying boyfriend. With the help of his pals Crutch, Floyd, and Spider, he makes every attempt possible to change her mind.", "popularity": 3.704, "poster_path": "/wqnhkSlBWfZoQ03wzjIdy0nMeGh.jpg", "production_companies": [], "production_countries": [], "release_date": "1990-08-03", "revenue": 0, "runtime": 82, "spoken_languages": [{"iso_639_1": "en", "name": "English"}], "status": "Released", "tagline": "Some things never change.", "title": "Book of Love", "video": false, "vote_average": 6.0, "vote_count": 12, "keywords": {"keywords": [{"id": 387, "name": "california"}, {"id": 14641, "name": "based on memoir or autobiography"}, {"id": 18425, "name": "teenage love"}, {"id": 208611, "name": "1950s"}]}, "similar": {"page": 1, "results": [{"id": 11086, "video": false, "vote_count": 381, "vote_average": 6.7, "title": "The Majestic", "release_date": "2001-12-21", "original_language": "en", "original_title": "The Majestic", "genre_ids": [35, 18, 10749], "backdrop_path": "/55gGvO7h1g1OZBiph0NRbqF8Gdj.jpg", "adult": false, "overview": "Set in 1951, a blacklisted Hollywood writer gets into a car accident, loses his memory and settles down in a small town where he is mistaken for a long-lost son.", "poster_path": "/A7P4oUpLl4tmgUn0oQjTb0nRjW4.jpg", "popularity": 11.555}, {"adult": false, "backdrop_path": "/uBuMVTfwFKhSUOHM94tSFIZM4lm.jpg", "genre_ids": [35, 18], "id": 403, "original_language": "en", "original_title": "Driving Miss Daisy", "overview": "The story of an old Jewish widow named Daisy Werthan and her relationship with her black chauffeur Hoke. From an initial mere work relationship grew in 25 years a strong friendship between the two very different characters in a time when those types of relationships where shunned upon. Oscar winning tragic comedy with a star-studded cast and based on a play of the same name by Alfred Uhry.", "poster_path": "/iaCzvcY42HihFxQBTZCTKMpsI0P.jpg", "release_date": "1989-12-13", "title": "Driving Miss Daisy", "video": false, "vote_average": 7.3, "vote_count": 761, "popularity": 10.778}, {"adult": false, "backdrop_path": "/uCjCNaxLyLkcwBq4aOHOeiKKwPE.jpg", "genre_ids": [35, 10749, 80, 18, 9648], "id": 171274, "original_language": "en", "original_title": "Inherent Vice", "overview": "In Los Angeles at the turn of the 1970s, drug-fueled detective Larry \"Doc\" Sportello investigates the disappearance of an ex-girlfriend.", "poster_path": "/2fCg6FORkgRLpFIKlUg4gULIn1u.jpg", "release_date": "2014-12-25", "title": "Inherent Vice", "video": false, "vote_average": 6.6, "vote_count": 1534, "popularity": 25.677}, {"adult": false, "backdrop_path": "/7B3I7S9a4bLonbYw6XVcoDzW8RT.jpg", "genre_ids": [18, 10749], "id": 109689, "original_language": "es", "original_title": "Tengo ganas de ti", "overview": "Sequel to \"Three Steps Above Heaven\". The sexy Gin is the new love of Hache, but this can not forget his former girlfriend, so the love triangle is inevitable.", "poster_path": "/z13I3sWzOoKBDAEpJ7iK9bSznQn.jpg", "release_date": "2012-06-22", "title": "I Want You", "video": false, "vote_average": 6.7, "vote_count": 692, "popularity": 15.177}, {"adult": false, "backdrop_path": "/urnGzQvP8fwWWGkn1k809KqIjbm.jpg", "genre_ids": [18], "id": 87093, "original_language": "en", "original_title": "Big Eyes", "overview": "The story of the awakening of painter, Margaret Keane, her phenomenal success in the 1950s, and the subsequent legal difficulties she had with her husband, who claimed credit for her works in the 1960s.", "poster_path": "/z2tqzprHojhgEGYKQepjU28oQg6.jpg", "release_date": "2014-12-24", "title": "Big Eyes", "video": false, "vote_average": 7.0, "vote_count": 2348, "popularity": 12.107}, {"id": 1949, "video": false, "vote_count": 5158, "vote_average": 7.5, "title": "Zodiac", "release_date": "2007-03-02", "original_language": "en", "original_title": "Zodiac", "genre_ids": [80, 18, 9648, 53], "backdrop_path": "/jP2htGBHE7vKq4MLeC75UeC0sZH.jpg", "adult": false, "overview": "The true story of the investigation of the \"Zodiac Killer\", a serial killer who terrified the San Francisco Bay Area, taunting police with his ciphers and letters. The case becomes an obsession for three men as their lives and careers are built and destroyed by the endless trail of clues.", "poster_path": "/bgLyOROfFQI3FqYL7jQbiaV8lkN.jpg", "popularity": 21.354}, {"adult": false, "backdrop_path": "/6xKCYgH16UuwEGAyroLU6p8HLIn.jpg", "genre_ids": [18, 80], "id": 238, "original_language": "en", "original_title": "The Godfather", "overview": "Spanning the years 1945 to 1955, a chronicle of the fictional Italian-American Corleone crime family. When organized crime family patriarch, Vito Corleone barely survives an attempt on his life, his youngest son, Michael steps in to take care of the would-be killers, launching a campaign of bloody revenge.", "poster_path": "/rPdtLWNsZmAtoZl9PK7S2wE3qiS.jpg", "release_date": "1972-03-14", "title": "The Godfather", "video": false, "vote_average": 8.6, "vote_count": 11267, "popularity": 44.902}, {"id": 398978, "video": false, "vote_count": 2174, "vote_average": 7.8, "title": "The Irishman", "release_date": "2019-11-01", "original_language": "en", "original_title": "The Irishman", "genre_ids": [80, 18, 36], "backdrop_path": "/iLLDiO4dbUfFEnRug8DuvFEl1NB.jpg", "adult": false, "overview": "Pennsylvania, 1956. Frank Sheeran, a war veteran of Irish origin who works as a truck driver, accidentally meets mobster Russell Bufalino. Once Frank becomes his trusted man, Bufalino sends him to Chicago with the task of helping Jimmy Hoffa, a powerful union leader related to organized crime, with whom Frank will maintain a close friendship for nearly twenty years.", "poster_path": "/mbm8k3GFhXS0ROd9AD1gqYbIFbM.jpg", "popularity": 75.227}, {"adult": false, "backdrop_path": "/9alS7FBSf8rvDLskpCRuKqAI2h5.jpg", "genre_ids": [18, 36], "id": 746, "original_language": "en", "original_title": "The Last Emperor", "overview": "A dramatic history of Pu Yi, the last of the Emperors of China, from his lofty birth and brief reign in the Forbidden City, the object of worship by half a billion people; through his abdication, his decline and dissolute lifestyle; his exploitation by the invading Japanese, and finally to his obscure existence as just another peasant worker in the People's Republic.", "poster_path": "/KTirnfG6FZLKWbm8Am3EEKmZDx.jpg", "release_date": "1987-10-21", "title": "The Last Emperor", "video": false, "vote_average": 7.6, "vote_count": 774, "popularity": 15.26}, {"id": 31439, "video": false, "vote_count": 105, "vote_average": 7.9, "title": "To Live", "release_date": "1994-05-26", "original_language": "zh", "original_title": "\u6d3b\u7740", "genre_ids": [18, 10749, 10752], "backdrop_path": "/peZyq9WQgTjTaWXV2gC0FcZomLN.jpg", "adult": false, "overview": "Fugui and Jiazhen endure tumultuous events in China as their personal fortunes move from wealthy landownership to peasantry.", "poster_path": "/kKZYobKNLPGoOt7p2pfTRggelgP.jpg", "popularity": 8.808}, {"id": 2604, "video": false, "vote_count": 844, "vote_average": 7.0, "title": "Born on the Fourth of July", "release_date": "1989-12-20", "original_language": "en", "original_title": "Born on the Fourth of July", "genre_ids": [18, 10752], "backdrop_path": "/t9MrNY0xM9U5JSe5vHN9z08UYty.jpg", "adult": false, "overview": "The biography of Ron Kovic. Paralyzed in the Vietnam war, he becomes an anti-war and pro-human rights political activist after feeling betrayed by the country he fought for.", "poster_path": "/iAUSzQNpxf9fX1EvhNbeguo6aVA.jpg", "popularity": 14.729}, {"id": 440298, "video": false, "vote_count": 712, "vote_average": 7.6, "title": "Cold War", "release_date": "2018-06-08", "original_language": "pl", "original_title": "Zimna wojna", "genre_ids": [18, 10402, 10749], "backdrop_path": "/n7vcKtvScHPJREEaLIuRk41mMot.jpg", "adult": false, "overview": "A man and a woman meet in the ruins of post-war Poland. With vastly different backgrounds and temperaments, they are fatally mismatched and yet drawn to each other.", "poster_path": "/6rbS8oPIgUMhQgIX8oGVTtlNgLR.jpg", "popularity": 12.078}, {"adult": false, "backdrop_path": "/uAjSPEyn2JZhw1TP75TJ43URRYf.jpg", "genre_ids": [18, 10749], "id": 5967, "original_language": "fr", "original_title": "Les parapluies de Cherbourg", "overview": "This simple romantic tragedy begins in 1957. Guy Foucher, a 20-year-old French auto mechanic, has fallen in love with 17-year-old Genevi\u00e8ve Emery, an employee in her widowed mother's chic but financially embattled umbrella shop. On the evening before Guy is to leave for a two-year tour of combat in Algeria, he and Genevi\u00e8ve make love. She becomes pregnant and must choose between waiting for Guy's return or accepting an offer of marriage from a wealthy diamond merchant.", "poster_path": "/ju5W8qvWfjXXGaR7wd9wSyuYXhS.jpg", "release_date": "1964-02-19", "title": "The Umbrellas of Cherbourg", "video": false, "vote_average": 7.6, "vote_count": 281, "popularity": 10.502}, {"id": 9470, "video": false, "vote_count": 1391, "vote_average": 7.3, "title": "Kung Fu Hustle", "release_date": "2004-02-10", "original_language": "cn", "original_title": "\u529f\u592b", "genre_ids": [28, 35, 80, 14], "backdrop_path": "/qpJWj6MI6VLRt9bGbJVZtmFvqWw.jpg", "adult": false, "overview": "Set in Canton, China in the 1940s, the story revolves in a town ruled by the Axe Gang, Sing who desperately wants to become a member. He stumbles into a slum ruled by eccentric landlords who turns out to be the greatest kung-fu masters in disguise. Sing's actions eventually cause the Axe Gang and the slumlords to engage in an explosive kung-fu battle. Only one side will win and only one hero will emerge as the greatest kung-fu master of all.", "poster_path": "/dZsfDrNLGWgsIUQL1vGhl8tbnqY.jpg", "popularity": 24.679}, {"id": 120467, "video": false, "vote_count": 8928, "vote_average": 8.0, "title": "The Grand Budapest Hotel", "release_date": "2014-02-26", "original_language": "en", "original_title": "The Grand Budapest Hotel", "genre_ids": [35, 18], "backdrop_path": "/5FPUoQtnNC0C0YZ7sUeTLq6eZqa.jpg", "adult": false, "overview": "The Grand Budapest Hotel tells of a legendary concierge at a famous European hotel between the wars and his friendship with a young employee who becomes his trusted prot\u00e9g\u00e9. The story involves the theft and recovery of a priceless Renaissance painting, the battle for an enormous family fortune and the slow and then sudden upheavals that transformed Europe during the first half of the 20th century.", "poster_path": "/nX5XotM9yprCKarRH4fzOq1VM1J.jpg", "popularity": 24.684}, {"id": 853, "video": false, "vote_count": 1912, "vote_average": 7.3, "title": "Enemy at the Gates", "release_date": "2001-03-14", "original_language": "en", "original_title": "Enemy at the Gates", "genre_ids": [28, 18, 36, 10749, 10752], "backdrop_path": "/70G2k5LYyvatd87Rai7DJM0DcYj.jpg", "adult": false, "overview": "A Russian and a German sniper play a game of cat-and-mouse during the Battle of Stalingrad in WWII.", "poster_path": "/9cSoNnB31hGY2mL78VT8mAbz6nR.jpg", "popularity": 18.297}, {"adult": false, "backdrop_path": "/oT79THuFrcBzrhlf4fiCddwZBCQ.jpg", "genre_ids": [18, 10402, 10749], "id": 69, "original_language": "en", "original_title": "Walk the Line", "overview": "A chronicle of country music legend Johnny Cash's life, from his early days on an Arkansas cotton farm to his rise to fame with Sun Records in Memphis, where he recorded alongside Elvis Presley, Jerry Lee Lewis and Carl Perkins.", "poster_path": "/wdxL3Zyh3O5MIbmsSiZEevJAjtQ.jpg", "release_date": "2005-09-13", "title": "Walk the Line", "video": false, "vote_average": 7.5, "vote_count": 1544, "popularity": 18.235}, {"adult": false, "backdrop_path": "/fAA0S3rM3o5Sp8TIdS0MvWOGsCQ.jpg", "genre_ids": [18, 10749], "id": 843, "original_language": "cn", "original_title": "\u82b1\u6a23\u5e74\u83ef", "overview": "Taking place in Hong Kong of 1962, a melancholy story about the love between a woman and a man who live in the same building and one day find out that their husband and wife had an affair with each other.", "poster_path": "/unOW3SxFxBdd7LMWjmRONdHWKPb.jpg", "release_date": "2000-05-22", "title": "In the Mood for Love", "video": false, "vote_average": 8.1, "vote_count": 962, "popularity": 15.474}, {"id": 2976, "video": false, "vote_count": 1689, "vote_average": 6.6, "title": "Hairspray", "release_date": "2007-07-13", "original_language": "en", "original_title": "Hairspray", "genre_ids": [35, 18, 10749], "backdrop_path": "/yafOInYuEuK6FOw1oK40Lggp0TV.jpg", "adult": false, "overview": "Pleasantly plump teenager Tracy Turnblad auditions to be on Baltimore's most popular dance show - The Corny Collins Show - and lands a prime spot. Through her newfound fame, she becomes determined to help her friends and end the racial segregation that has been a staple of the show.", "poster_path": "/ndOpIx4BXpFCRRIxgMoGHxZxlE9.jpg", "popularity": 28.634}, {"id": 167073, "video": false, "vote_count": 2097, "vote_average": 7.3, "title": "Brooklyn", "release_date": "2015-10-20", "original_language": "en", "original_title": "Brooklyn", "genre_ids": [18, 10749], "backdrop_path": "/7fXKVIM8UQBvQ9aQOzFqThlq7eN.jpg", "adult": false, "overview": "In 1950s Ireland and New York, young Eilis Lacey has to choose between two men and two countries.", "poster_path": "/dRpkyrSDrEMFRZDeFJG4EupqUfR.jpg", "popularity": 13.039}], "total_pages": 65, "total_results": 1300}, "recommendations": {"page": 1, "results": [{"id": 114726, "video": false, "vote_count": 19, "vote_average": 6.0, "title": "Out on a Limb", "release_date": "1992-09-04", "original_language": "en", "original_title": "Out on a Limb", "genre_ids": [35], "backdrop_path": "/1G0V32XLFw3IAkQaxYb1MdLlJ32.jpg", "adult": false, "overview": "While heading to the town where his sister, Marci, lives, big-city banker Bill Campbell is robbed by a woman who takes everything he has, including his clothes and a business document worth millions of dollars. Bill eventually reunites with Marci, who is in a tizzy because she thinks their stepfather has been killed. While trying to determine if his sister is right, Bill must also get back his valuable paperwork.", "poster_path": "/d4kZEu70HmRbw5EMRYZng4c40W2.jpg", "popularity": 5.01}], "total_pages": 1, "total_results": 1}, "credits": {"cast": [{"cast_id": 2, "character": "Adult Jack Twiller", "credit_id": "52fe4833c3a36847f815c44f", "gender": 2, "id": 21731, "name": "Michael McKean", "order": 0, "profile_path": "/iVcsvBb15nep7TZ07MlJFcxMzvD.jpg"}, {"cast_id": 3, "character": "Jack Twiller", "credit_id": "52fe4833c3a36847f815c453", "gender": 2, "id": 27504, "name": "Chris Young", "order": 1, "profile_path": "/4TBxXTdUtQ7VcnUR8BFEt1lDWFi.jpg"}, {"cast_id": 4, "character": "Lily", "credit_id": "52fe4833c3a36847f815c457", "gender": 1, "id": 100395, "name": "Josie Bissett", "order": 2, "profile_path": "/fBbzCjeRodLSwNP2tjf4oM5SZ3p.jpg"}, {"cast_id": 5, "character": "Angelo Gabooch", "credit_id": "52fe4833c3a36847f815c45b", "gender": 2, "id": 146220, "name": "Beau Dremann", "order": 3, "profile_path": null}, {"cast_id": 6, "character": "Floyd", "credit_id": "52fe4833c3a36847f815c45f", "gender": 2, "id": 17114, "name": "John Cameron Mitchell", "order": 4, "profile_path": "/iDyhkjtgy7U8xl9tKk9xcJA3yEY.jpg"}, {"cast_id": 7, "character": "Crutch Kane", "credit_id": "52fe4833c3a36847f815c463", "gender": 2, "id": 56145, "name": "Keith Coogan", "order": 5, "profile_path": "/uAMrErJNb1IW78RkgpMq9id2ec8.jpg"}, {"cast_id": 8, "character": "Gina Gabooch", "credit_id": "5d66f4e912c60400136f2264", "gender": 0, "id": 147593, "name": "Tricia Leigh Fisher", "order": 6, "profile_path": "/3x4y5bq0OiYN7qtjTVo9nWDSn2H.jpg"}, {"cast_id": 9, "character": "Spider Bomboni", "credit_id": "5d66f4fdecbde9001295adb5", "gender": 2, "id": 8540, "name": "Danny Nucci", "order": 7, "profile_path": "/q1KztDGVWkVzbKYlj5GAoojpQc4.jpg"}, {"cast_id": 10, "character": "Mr. Joe Twiller", "credit_id": "5d66f5676082eb0016a57b67", "gender": 2, "id": 162052, "name": "John Achorn", "order": 8, "profile_path": null}, {"cast_id": 11, "character": "Mrs. Kitty Twiller", "credit_id": "5d66f5a012c60400136f2352", "gender": 1, "id": 1720929, "name": "Jill Jaress", "order": 9, "profile_path": null}, {"cast_id": 12, "character": "Mr. Malloy", "credit_id": "5d66f5ce12c60400136f238c", "gender": 2, "id": 75465, "name": "Lewis Arquette", "order": 10, "profile_path": "/uPlzI6d6zjJ8epskb5GepEtkNJF.jpg"}, {"cast_id": 13, "character": "Mama Gabooch", "credit_id": "5d66f61612c60400146f230b", "gender": 1, "id": 139943, "name": "Anna Berger", "order": 11, "profile_path": "/r9hukamoCTkuosl83xwBCnFYaEz.jpg"}, {"cast_id": 14, "character": "Ubaldini", "credit_id": "5d66f66812c60400136f2426", "gender": 0, "id": 112150, "name": "Michael Cavalieri", "order": 12, "profile_path": "/oF4C3zn6dWVGyPtlw0OvSJvjew1.jpg"}], "crew": [{"credit_id": "52fe4833c3a36847f815c44b", "department": "Directing", "gender": 2, "id": 13663, "job": "Director", "name": "Robert Shaye", "profile_path": "/ylgPcVcvDAZ9IykvDVN4894cEJh.jpg"}]}}