{"adult": false, "backdrop_path": "/4XxGSCyBA6TeKnLx4899ZNHQGP8.jpg", "belongs_to_collection": null, "budget": 0, "genres": [{"id": 18, "name": "Drama"}], "homepage": null, "id": 52717, "imdb_id": "tt0181912", "original_language": "fr", "original_title": "\u00c9loge de l'amour", "overview": "Someone we hear talking - but whom we do not see - speaks of a project which describes the four key moments of love: meeting, physical passion, arguments/separation and making up. This project is to be told through three couples: young, adult and old. We do not know if the project is for a play, a film, a novel or an opera. The author of the project is always accompanied by a kind of servant. Meanwhile, two years earlier, an American civil servant meets with an elderly French couple who had fought in the Resistance during World War II, brokering a deal with a Hollywood director to buy the rights to tell their story. The members of the old couple's family discuss heatedly questions of nation, memory and history.", "popularity": 3.996, "poster_path": "/wmAkJ9dAvKnLwaMiOGE2SWaciGe.jpg", "production_companies": [{"id": 4491, "logo_path": null, "name": "Avventura Films", "origin_country": ""}, {"id": 33266, "logo_path": null, "name": "Peripheria", "origin_country": ""}, {"id": 94, "logo_path": "/huC7HqorvUThGIrENrbcHmQVUA0.png", "name": "ARTE France Cin\u00e9ma", "origin_country": "FR"}, {"id": 8138, "logo_path": "/1r8RsEaaANDcMbr3rH0mB1CC9z4.png", "name": "Vega Film", "origin_country": "CH"}, {"id": 33267, "logo_path": null, "name": "ECM Records", "origin_country": ""}, {"id": 104, "logo_path": "/9aotxauvc9685tq9pTcRJszuT06.png", "name": "Canal+", "origin_country": "FR"}, {"id": 1245, "logo_path": "/suKdkPTtHn0DzGYmrXCA506dJON.png", "name": "T\u00e9l\u00e9vision Suisse-Romande", "origin_country": "CH"}], "production_countries": [{"iso_3166_1": "FR", "name": "France"}], "release_date": "2001-05-16", "revenue": 0, "runtime": 97, "spoken_languages": [{"iso_639_1": "fr", "name": "Fran\u00e7ais"}], "status": "Released", "tagline": "", "title": "In Praise of Love", "video": false, "vote_average": 6.8, "vote_count": 14, "keywords": {"keywords": [{"id": 14629, "name": "experimental"}]}, "similar": {"page": 1, "results": [{"id": 621733, "video": false, "vote_count": 0, "vote_average": 0.0, "title": "A Trip to the Seaside", "release_date": "2019-08-30", "original_language": "en", "original_title": "A Trip to the Seaside", "genre_ids": [99], "backdrop_path": null, "adult": false, "overview": "Experimental short film on the excitement and rush of a day trip", "poster_path": "/AuZVhpoJ4jm2LWDhoJKfxQfhDAi.jpg", "popularity": 1.324}, {"id": 650755, "video": false, "vote_count": 0, "vote_average": 0.0, "title": "Atordoado, Eu Permane\u00e7o Atento", "release_date": "2020-01-15", "original_language": "pt", "original_title": "Atordoado, Eu Permane\u00e7o Atento", "genre_ids": [99], "backdrop_path": null, "adult": false, "overview": "", "poster_path": "/exbM8qk6f6T44olJXcM8ix1sunL.jpg", "popularity": 7.153}, {"id": 621485, "video": false, "vote_count": 2, "vote_average": 5.5, "title": "Guest of Honor", "release_date": "2019-08-14", "original_language": "en", "original_title": "Guest of Honor", "genre_ids": [18], "backdrop_path": "/qo3f05mAqiGG5yDyVhURwwhR1oh.jpg", "adult": false, "overview": "A devout Nazi oversees a group of taste testers for Hitler.", "poster_path": "/g02YorY0sAVDJuXdL42Vpmqtv0g.jpg", "popularity": 5.678}, {"adult": false, "backdrop_path": null, "genre_ids": [], "id": 616262, "original_language": "ar", "original_title": "All Come From Dust", "overview": "A loop of edgeless bend. You were its doom, he was its bloom. You were its tomb, he was its womb. You were its gloom, he was its loom. For Heaven and Hell, were words made of fume.", "poster_path": null, "release_date": "2019-08-13", "title": "All Come From Dust", "video": false, "vote_average": 5.0, "vote_count": 1, "popularity": 0.6}, {"id": 10258, "video": false, "vote_count": 148, "vote_average": 6.6, "title": "The Madagascar Penguins in a Christmas Caper", "release_date": "2005-09-23", "original_language": "en", "original_title": "The Madagascar Penguins in a Christmas Caper", "genre_ids": [16, 35, 10751], "backdrop_path": "/gdJ6j1hmt6dQgObWxDJAHUb58o6.jpg", "adult": false, "overview": "During the holiday season, when the animals of the Central Park Zoo are preparing for Christmas, Private, the youngest of the penguins notices that the Polar Bear is all alone. Assured that nobody should have to spend Christmas alone, Private goes into the city for some last-minute Christmas shopping. Along the way, he gets stuffed into a stocking", "poster_path": "/r8QtfGSjDaY6vICRVyYvZvTkjxc.jpg", "popularity": 15.199}, {"id": 82507, "video": false, "vote_count": 3231, "vote_average": 6.8, "title": "Sinister", "release_date": "2012-03-29", "original_language": "en", "original_title": "Sinister", "genre_ids": [27, 9648, 53], "backdrop_path": "/lAdRfK0Clun517bq5V0meoIx7SG.jpg", "adult": false, "overview": "Found footage helps a true-crime novelist realize how and why a family was murdered in his new home, though his discoveries put his entire family in the path of a supernatural entity.", "poster_path": "/hrRYY7FcRc46Ue7h9jcKiW1xqJ3.jpg", "popularity": 13.284}, {"id": 326359, "video": false, "vote_count": 1179, "vote_average": 6.8, "title": "Frozen Fever", "release_date": "2015-03-09", "original_language": "en", "original_title": "Frozen Fever", "genre_ids": [12, 16, 10751], "backdrop_path": "/ubioPGniCfDiASmYYpeJs5RRNaC.jpg", "adult": false, "overview": "On Anna's birthday, Elsa and Kristoff are determined to give her the best celebration ever, but Elsa's icy powers may put more than just the party at risk.", "poster_path": "/lKJiVPzsAO9IJ4LKWXZ8vkR2bg4.jpg", "popularity": 17.061}, {"id": 460793, "video": false, "vote_count": 933, "vote_average": 6.2, "title": "Olaf's Frozen Adventure", "release_date": "2017-10-27", "original_language": "en", "original_title": "Olaf's Frozen Adventure", "genre_ids": [12, 16, 35, 14, 10402, 10751], "backdrop_path": "/9K4QqQZg4TVXcxBGDiVY4Aey3Rn.jpg", "adult": false, "overview": "Olaf is on a mission to harness the best holiday traditions for Anna, Elsa, and Kristoff.", "poster_path": "/As8WTtxXs9e3cBit3ztTf7zoRmm.jpg", "popularity": 26.393}, {"id": 654980, "video": false, "vote_count": 0, "vote_average": 0.0, "title": "Former Cult Member Hears Music For The First Time", "release_date": "2020-01-23", "original_language": "en", "original_title": "Former Cult Member Hears Music For The First Time", "genre_ids": [], "backdrop_path": null, "adult": false, "overview": "After a woman escapes the captivity of her abusive family, a magazine invites her to a journalistic experiment: to hear music for the first time.", "poster_path": "/85K8ODZp51Cl5OAivRyjN1MKTdy.jpg", "popularity": 16.804}, {"adult": false, "backdrop_path": null, "genre_ids": [], "id": 623058, "original_language": "en", "original_title": "We Still Have to Close Our Eyes", "overview": "John Torres repurposes documentary footage captured from the sets of various Filipino productions (including the likes of Lav Diaz and Erik Matti) into an eerie, elliptical sci-fi narrative about human avatars controlled by apps.", "poster_path": "/jY7znoWWH3BJCK25w6QBOSfIFPs.jpg", "release_date": "2019-09-06", "title": "We Still Have to Close Our Eyes", "video": false, "vote_average": 0.0, "vote_count": 0, "popularity": 0.973}, {"adult": false, "backdrop_path": "/5qy4PGnEzZajJNzPZ2jxiqUIBON.jpg", "genre_ids": [35], "id": 6166, "original_language": "en", "original_title": "Dinner for One", "overview": "A very old woman wants to have dinner with her friends. As they are all dead, the butler has to play the role of every guest.", "poster_path": "/2uzk4IIwOrRQHn816IsEngYn8mp.jpg", "release_date": "1963-06-08", "title": "Dinner for One", "video": false, "vote_average": 7.4, "vote_count": 73, "popularity": 6.229}, {"id": 76122, "video": false, "vote_count": 231, "vote_average": 6.5, "title": "Marvel One-Shot: The Consultant", "release_date": "2011-09-12", "original_language": "en", "original_title": "Marvel One-Shot: The Consultant", "genre_ids": [28, 12, 14, 878], "backdrop_path": "/tHthULHaBaWLS1z2UfYhvHphJSb.jpg", "adult": false, "overview": "Agent Coulson informs Agent Sitwell that the World Security Council wishes Emil Blonsky to be released from prison to join the Avengers Initiative. As Nick Fury doesn't want to release Blonsky, the two agents decide to send a patsy to sabotage the meeting...", "poster_path": "/75AsB4NRKaYanuCeKYgIh2hfsR1.jpg", "popularity": 15.078}, {"adult": false, "backdrop_path": "/twGxeStlGooWV3gP6ZIcSNuQ6jf.jpg", "genre_ids": [12, 16, 10751, 14], "id": 81684, "original_language": "en", "original_title": "The Gruffalo's Child", "overview": "A follow up to the 2009 animated feature and adapted from the childrens' book by Julia Donaldson and Alex Scheffler.  The Gruffalo's child explores the deep dark wood in search of the big bad mouse and meets the Snake, Owl and Fox in the process.  She eventually finds the mouse, who manages to outwit her like the Gruffalo before!", "poster_path": "/qaGH2AoaLvoGXURQtNzj1nw6oZd.jpg", "release_date": "2011-12-25", "title": "The Gruffalo's Child", "video": false, "vote_average": 6.9, "vote_count": 73, "popularity": 13.766}, {"id": 596890, "video": false, "vote_count": 0, "vote_average": 0.0, "title": "Tenzo", "release_date": "2019-11-27", "original_language": "ja", "original_title": "\u5178\u5ea7 -TENZO-", "genre_ids": [99], "backdrop_path": "/hI3TYhcjM1CXOkLxY0q5qjiFu9u.jpg", "adult": false, "overview": "To address the social crisis, Chiken - a buddhist monk - throws himself into various tasks such as a suicide helpline, in his temple in Yamanashi. In Fukushima, his old mate Ry\u00fbgy\u00f4 - whose temple was wrecked by the tsunami - lives in a portacabin and works on construction sites.", "poster_path": "/dMWUVF3v5Yfg68LBA0RNxKJyuVI.jpg", "popularity": 0.743}, {"adult": false, "backdrop_path": "/lCDV61WEp0V5rwUl4TzfJcCBTHH.jpg", "genre_ids": [18, 10749], "id": 330947, "original_language": "en", "original_title": "Song to Song", "overview": "In this modern love story set against the Austin, Texas music scene, two entangled couples \u2014 struggling songwriters Faye and BV, and music mogul Cook and the waitress whom he ensnares \u2014 chase success through a rock \u2018n\u2019 roll landscape of seduction and betrayal.", "poster_path": "/rEvtGhNY2DQ4L8Ma6rpMhL6IbKM.jpg", "release_date": "2017-03-17", "title": "Song to Song", "video": false, "vote_average": 5.3, "vote_count": 520, "popularity": 10.934}, {"adult": false, "backdrop_path": null, "genre_ids": [], "id": 617079, "original_language": "fr", "original_title": "Color-Blind", "overview": "A synaesthetic portrait made between French Polynesia and Brittany, Color-blind follows the restless ghost of Gauguin in excavating the colonial legacy of a post-postcolonial present.", "poster_path": "/1JzdZbPfjoIcIavrdS0dsU4sid.jpg", "release_date": "2019-08-14", "title": "Color-Blind", "video": false, "vote_average": 0.0, "vote_count": 0, "popularity": 1.221}, {"id": 632544, "video": false, "vote_count": 3, "vote_average": 6.7, "title": "There Comes a Knocking", "release_date": "2019-10-28", "original_language": "en", "original_title": "There Comes a Knocking", "genre_ids": [18, 27], "backdrop_path": "/QWikq7EqdXO8VDC53YPK0XRqdV.jpg", "adult": false, "overview": "A widow moves into a new home and discovers an old door that won't open.", "poster_path": "/mrrPK6OvNResUn4lori2XepxYnW.jpg", "popularity": 2.878}, {"id": 13932, "video": false, "vote_count": 467, "vote_average": 7.4, "title": "Jack-Jack Attack", "release_date": "2005-03-15", "original_language": "en", "original_title": "Jack-Jack Attack", "genre_ids": [12, 16, 10751], "backdrop_path": "/mUcfavkzBSlJbhS6cXZyInM9jix.jpg", "adult": false, "overview": "The Parrs' baby Jack-Jack is thought to be normal, not having any super-powers like his parents or siblings. But when an outsider is hired to watch him, Jack-Jack shows his true potential.", "poster_path": "/btnyGcvjMbN4MpwLE7A6J7gNV01.jpg", "popularity": 13.107}, {"id": 399106, "video": false, "vote_count": 934, "vote_average": 8.2, "title": "Piper", "release_date": "2016-06-16", "original_language": "en", "original_title": "Piper", "genre_ids": [16, 10751], "backdrop_path": "/w1WqcS6hT0PUWC3adG37NSUOGX5.jpg", "adult": false, "overview": "A mother bird tries to teach her little one how to find food by herself. In the process, she encounters a traumatic experience that she must overcome in order to survive.", "poster_path": "/jLRllZsubY8UWpeMyDLVXdRyEWi.jpg", "popularity": 13.132}, {"id": 626, "video": false, "vote_count": 636, "vote_average": 7.5, "title": "Un Chien Andalou", "release_date": "1929-06-05", "original_language": "fr", "original_title": "Un chien andalou", "genre_ids": [18, 14, 27], "backdrop_path": "/5XUmngHuhc41kMwv7ZeRWaplcBl.jpg", "adult": false, "overview": "Un Chien Andalou is a classic European avant-garde surrealist film from the cooperation of director Luis Bu\u00f1uel and Salvador Dali. The film changed the way people made movies. Most famous is the scene of a woman\u2019s eye being cut with a knife.", "poster_path": "/r4OfwC3AcDJqqBg3ayD0w5KWKdV.jpg", "popularity": 11.634}], "total_pages": 612, "total_results": 12235}, "recommendations": {"page": 1, "results": [{"adult": false, "backdrop_path": "/jADkwtTVRBa8npetRMv5bqLe7qt.jpg", "genre_ids": [99], "id": 141484, "original_language": "en", "original_title": "Brazil: A Report on Torture", "overview": "The filmmakers spoke to ex-political prisoners who had been tortured by the military government who were at that point supported by the US government.", "poster_path": "/7l9uN9hV7y92Q2dll368MffffaF.jpg", "release_date": "1971-10-21", "title": "Brazil: A Report on Torture", "video": false, "vote_average": 7.5, "vote_count": 4, "popularity": 2.15}, {"adult": false, "backdrop_path": "/jUd6rGkp7pgIRj10rtihvzwqbFL.jpg", "genre_ids": [99], "id": 26298, "original_language": "fr", "original_title": "Ici et ailleurs", "overview": "Godard, Mi\u00e9ville and Gorin (aka the \"Dziga Vertov Group\") examine the parallel lives of two families - one French, one Palestinian - using an exploratory combination of film and video.", "poster_path": "/yxdBS1jF7HF1GryHwCZSvLPukpL.jpg", "release_date": "1976-09-15", "title": "Here and Elsewhere", "video": false, "vote_average": 6.2, "vote_count": 10, "popularity": 2.628}, {"adult": false, "backdrop_path": null, "genre_ids": [], "id": 136055, "original_language": "en", "original_title": "Reassemblage: From the Firelight to the Screen", "overview": "A complex visual study of the women of rural Senegal. Through a complicity of interaction between film and spectator, Reassemblage reflects on documentary filmmaking and the ethnographic representation of cultures.", "poster_path": "/daurS56caND79DGwnQ0rvR7DetR.jpg", "release_date": "1983-09-24", "title": "Reassemblage: From the Firelight to the Screen", "video": false, "vote_average": 6.3, "vote_count": 6, "popularity": 1.554}, {"adult": false, "backdrop_path": "/oc8tInuYzKOZy2FYFJwHW2hQG4H.jpg", "genre_ids": [18], "id": 47143, "original_language": "fr", "original_title": "L'intrus", "overview": "An emotionally cold man leaves the safety of his Alpine home to seek a heart transplant and an estranged son.", "poster_path": "/1JoplARZHYKjfpSnh1wWsTZojHX.jpg", "release_date": "2005-05-04", "title": "The Intruder", "video": false, "vote_average": 7.0, "vote_count": 20, "popularity": 3.69}, {"id": 50012, "video": false, "vote_count": 15, "vote_average": 6.4, "title": "King Lear", "release_date": "1987-05-17", "original_language": "en", "original_title": "King Lear", "genre_ids": [35, 18], "backdrop_path": null, "adult": false, "overview": "A descendant of Shakespeare tries to restore his plays in a world rebuilding itself after the Chernobyl catastrophe obliterates most of human civilization.", "poster_path": "/3m8XsZDrsT3r0e5UmqHLXLoP6ng.jpg", "popularity": 2.64}, {"adult": false, "backdrop_path": null, "genre_ids": [10749, 18], "id": 131478, "original_language": "pt", "original_title": "Amor de Perdi\u00e7\u00e3o", "overview": "A story about doomed love between two people from different worlds and the impact in their lives.", "poster_path": "/a2CTIlFy1g1fwr8uwuIHMCGKDNz.jpg", "release_date": "1979-11-25", "title": "Doomed Love", "video": false, "vote_average": 6.9, "vote_count": 8, "popularity": 1.4}, {"adult": false, "backdrop_path": null, "genre_ids": [18], "id": 104341, "original_language": "ja", "original_title": "\u7121\u4eba\u5217\u5cf6", "overview": "A young man reaches adolescence and escapes the nunnery where he survived a tortured upbringing; the world outside suddenly seems even more frightening than before.", "poster_path": "/y0IWfetTJBd5S4JhHUjGTKuAop4.jpg", "release_date": "1969-04-25", "title": "The Deserted Archipelago", "video": false, "vote_average": 7.6, "vote_count": 5, "popularity": 1.384}, {"id": 82476, "video": false, "vote_count": 7, "vote_average": 6.7, "title": "Tih Minh", "release_date": "1918-02-07", "original_language": "fr", "original_title": "Tih Minh", "genre_ids": [12, 9648], "backdrop_path": "/2dYTdC9ebQwsJGsCI0ZnuyOLGZN.jpg", "adult": false, "overview": "Jacques d'Athys, a French adventurer, returns to his home in Nice after an expedition to Indochina where he has picked up a Eurasian fianc\u00e9e and a book that, unbeknownst to him, contains a coded message revealing the whereabouts of both secret treasures and sensitive government intelligence. This makes him the target of foreign spies, including a Marquise of mysterious Latin origin, a Hindu hypnotist and an evil German doctor, who will stop at nothing to obtain the book.", "poster_path": "/4EkRQQ49vijI3mptYbFQCrlu1BA.jpg", "popularity": 1.43}, {"adult": false, "backdrop_path": "/pzNJyuQYbL7U66TO6bA2GM0eKor.jpg", "genre_ids": [16, 878], "id": 73790, "original_language": "ja", "original_title": "Garakuta no machi", "overview": "A science fiction story about a young boy who discovers and befriends a small robot at a shopping arcade. The robot is hungry and he grows in size as he devours a number of machines of increasing size.", "poster_path": "/nxS98rDPAFpizNg6HaTN0SNXtC6.jpg", "release_date": "2006-01-07", "title": "Junk Town", "video": false, "vote_average": 6.0, "vote_count": 5, "popularity": 0.6}, {"adult": false, "backdrop_path": "/mQikua5SRJPEFBNW3V9ZGcxh8pi.jpg", "genre_ids": [18, 36], "id": 26347, "original_language": "fr", "original_title": "Notre musique", "overview": "Jean-Luc Godard's poetic meditation on war, violence and defeat. The film is structured in three parts. The three segments are \"Hell\", \"Purgatory\", and \"Heaven\". The first segment is a montage of war images from documentary and fictional sources. The second concerns two young Jewish women attending a European arts conference in Sarajevo. The final segment concerns the after life.", "poster_path": "/qYuECBeoVGKogIlNAp2OEkbawWs.jpg", "release_date": "2004-05-19", "title": "Our Music", "video": false, "vote_average": 6.6, "vote_count": 19, "popularity": 2.16}, {"adult": false, "backdrop_path": "/4SFSia8VdxyUi2WJq3GI4rE3olv.jpg", "genre_ids": [18], "id": 94649, "original_language": "es", "original_title": "La libertad", "overview": "A woodcutter goes about his work.", "poster_path": "/d258qEiSMMd6XMxyG0J21vCW8kh.jpg", "release_date": "2001-06-28", "title": "La Libertad", "video": false, "vote_average": 6.7, "vote_count": 11, "popularity": 1.079}, {"id": 78117, "video": false, "vote_count": 18, "vote_average": 7.5, "title": "Eros + Massacre", "release_date": "1969-03-13", "original_language": "ja", "original_title": "\u30a8\u30ed\u30b9\uff0b\u8650\u6bba", "genre_ids": [18], "backdrop_path": "/zEPVHPVN72OMOAbngjDjkkPKQdJ.jpg", "adult": false, "overview": "Two interwoven stories. The first is a biography of anarchist Sakae Osugi which follows his relationship with three women in the 1920s. The second centers around two 1960s students researching Osugi's theories.", "poster_path": "/vbNDSmtMjbZnnfMchb5HKCSlOM1.jpg", "popularity": 3.746}, {"adult": false, "backdrop_path": "/gxDCxWgZc08sjMj7xxZOf6Dt94Z.jpg", "genre_ids": [99], "id": 89681, "original_language": "es", "original_title": "La hora de los hornos", "overview": "An impassioned three-part documentary of the liberation struggle waged throughout Latin America, using Argentina as a historical example of the imperialist exploitation of the continent. Part I: Neo-Colonialism and Violence is a historical, geographic, and economic analysis of Argentina. Part II: An Act For Liberation examines the ten-year reign of Juan Per\u00f3n (1945-55) and the activities of the Peronist movement after his fall from power. Part III: Violence and Liberation studies the role of violence in the national liberation process and constitutes a call for action.", "poster_path": "/u2waxnUzPFmFVZJCWeGXHtzYYug.jpg", "release_date": "1968-09-08", "title": "The Hour of the Furnaces", "video": false, "vote_average": 6.3, "vote_count": 12, "popularity": 2.388}, {"adult": false, "backdrop_path": null, "genre_ids": [18], "id": 218150, "original_language": "de", "original_title": "Abendland", "overview": "A largely plotless, fado-scored journey through the gloomy cobblestone streets, zombie bars, and fetid basements of a sordid harbor town populated by German-speaking sots and Portuguese guest workers, Nightfall is Kelemen\u2019s most polished despair-fest. An unhappy young couple, Leni and Anton, quarrel and split separately into the rat\u2019s ass of the evening. Everyone is looking for love, but no one finds any\u2014although Leni does pick up a trick.", "poster_path": "/oaRkI5c3CkZEVFALcMMT66m3qlD.jpg", "release_date": "1999-09-05", "title": "Nightfall", "video": false, "vote_average": 7.2, "vote_count": 5, "popularity": 1.728}, {"adult": false, "backdrop_path": "/sMPWC36D2MQnTOH5gtnTneM6j1j.jpg", "genre_ids": [80, 18, 9648], "id": 110379, "original_language": "hu", "original_title": "Sz\u00fcrk\u00fclet", "overview": "In this grim story, three murders of young girls are committed in a similar manner, and their bodies are all found in the woods. The only suspect, a young man assumed to be a paedophile, commits suicide during the investigation. A policeman becomes obsessed with solving the mystery of this serial killer and he continues to investigate even after he has been taken off the case.", "poster_path": "/807RpfaZF5z6XoQwEuJ7ATtTBcx.jpg", "release_date": "1990-09-28", "title": "Twilight", "video": false, "vote_average": 7.4, "vote_count": 9, "popularity": 2.876}, {"adult": false, "backdrop_path": null, "genre_ids": [99], "id": 326038, "original_language": "ru", "original_title": "\u041c\u0430\u0440\u0438\u044f", "overview": "\u201cMaria\u201d is a film requiem for a Russian peasant woman, Maria Semionovna Voinova. The film is in two chapters. The first chapter consists of an impression of Maria Semionovna, scenes of the colours of summer time: hay\u2013making, bathing in a river, work in the flax fields and a holiday in the Crimea. The second chapter, set nine years later, is in black and white and deals with how Maria Semionovna's life ended. The mood is one of a sad and elegiac narration.", "poster_path": "/zFcjOBHkWNu2f9BSAUGmMCaJGhz.jpg", "release_date": "1989-02-14", "title": "Maria", "video": false, "vote_average": 6.4, "vote_count": 7, "popularity": 1.3}, {"adult": false, "backdrop_path": "/8aawXi3pVc3HdnXgk9wzNzT4lUk.jpg", "genre_ids": [99], "id": 251037, "original_language": "zh", "original_title": "Wu ming zhe", "overview": "The character of this story lives far from the worlds of the material and the spirit. He has built his own subsistence conditions. He often goes to the neighboring villages, although he doesn\u2019t communicate with other people. He collects some waste but doesn\u2019t beg. He prowls about the ruins of deserted villages, as an animal or as a ghost. Under double political and economical pressure, most of people are depriving of their last dignity into a world where it exists a lack of material and spirit. But a human being stays a human being. He is looking for reasons to continue to live. \u2014Wang Bing", "poster_path": "/FEzdQf9RUQiQSqLfjCNE6jHgjn.jpg", "release_date": "2009-01-01", "title": "Man with No Name", "video": false, "vote_average": 7.3, "vote_count": 4, "popularity": 0.715}, {"adult": false, "backdrop_path": null, "genre_ids": [18], "id": 163888, "original_language": "zh", "original_title": "Oxhide", "overview": "Daily life in an impossibly cramped Beijing apartment takes on epic proportions in this, intimate portrait, with unprecedented access, of a working-class Chinese family. Boldly transforming documentary into fiction, Liu Jiayin cast her parents and herself as fictionalized versions of themselves. Her father, Liu Zaiping, sells leather bags but is slowly going bankrupt. He argues with his wife, Jia Huifen, and his daughter over methods to boost business in the shop. A cloud of anxiety follows them into sleepless nights shared in the same bed. But through the thousand daily travails of city life, a genuine and deeply moving picture of Chinese familial solidarity emerges from the screen.", "poster_path": "/aCPXyYKICztdAx5ARIINon7UbA5.jpg", "release_date": "2005-02-13", "title": "Oxhide", "video": false, "vote_average": 6.0, "vote_count": 3, "popularity": 0.882}, {"adult": false, "backdrop_path": "/vZ46lWs1D7eEaA8QJDXnnEoC3Cb.jpg", "genre_ids": [99, 10402], "id": 44436, "original_language": "en", "original_title": "Oddsac", "overview": "Opening with torch-wielding villagers and a wall bleeding oil, this experimental film attaches vivid scenery and strange characters to the wonderful melodic wavelengths of the band Animal Collective, revitalizing the lost form of the \"visual album.\"", "poster_path": "/zwkDLS6IiQ3xtDrdbQ2Un2YVxZ2.jpg", "release_date": "2010-08-04", "title": "Oddsac", "video": false, "vote_average": 5.6, "vote_count": 10, "popularity": 2.992}, {"adult": false, "backdrop_path": "/qab7TVaQmQTB3UYOSiDM4lfJG5v.jpg", "genre_ids": [18], "id": 149507, "original_language": "fa", "original_title": "\u06af\u0632\u0627\u0631\u0634\u200e\u200e", "overview": "The movie revolves around the life of a tax collector who is accused of taking bribes, and also has to deal with problems at home, including the suicide attempt of his wife.", "poster_path": "/dYYzui1HmATdnQtse1dNxsoZGx0.jpg", "release_date": "1977-01-01", "title": "The Report", "video": false, "vote_average": 6.5, "vote_count": 4, "popularity": 3.246}], "total_pages": 2, "total_results": 40}, "credits": {"cast": [{"cast_id": 3, "character": "Edgar", "credit_id": "52fe483fc3a36847f815dffb", "gender": 2, "id": 120385, "name": "Bruno Putzulu", "order": 0, "profile_path": "/74KkRSQBm8DhukadLwM5ghIWJow.jpg"}, {"cast_id": 4, "character": "Elle", "credit_id": "52fe483fc3a36847f815dfff", "gender": 0, "id": 146546, "name": "Cecile Camp", "order": 1, "profile_path": null}, {"cast_id": 5, "character": "Grandfather", "credit_id": "52fe483fc3a36847f815e003", "gender": 0, "id": 146547, "name": "Jean Davy", "order": 2, "profile_path": "/siYYO0uh4is0D4FgSnrVfQtgxob.jpg"}, {"cast_id": 6, "character": "Grandmother", "credit_id": "52fe483fc3a36847f815e007", "gender": 0, "id": 28181, "name": "Fran\u00e7oise Verny", "order": 3, "profile_path": null}, {"cast_id": 7, "character": "Eglantine", "credit_id": "52fe483fc3a36847f815e00b", "gender": 0, "id": 146548, "name": "Audrey Klebaner", "order": 4, "profile_path": null}, {"cast_id": 8, "character": "Perceval", "credit_id": "52fe483fc3a36847f815e00f", "gender": 0, "id": 96926, "name": "J\u00e9r\u00e9mie Lippmann", "order": 5, "profile_path": null}], "crew": [{"credit_id": "52fe483fc3a36847f815e015", "department": "Directing", "gender": 2, "id": 3776, "job": "Director", "name": "Jean-Luc Godard", "profile_path": "/40irqwjSgDaxts68tdV63m4Ls4n.jpg"}, {"credit_id": "52fe483fc3a36847f815e01b", "department": "Writing", "gender": 2, "id": 3776, "job": "Writer", "name": "Jean-Luc Godard", "profile_path": "/40irqwjSgDaxts68tdV63m4Ls4n.jpg"}, {"credit_id": "58baddfc9251416084026052", "department": "Production", "gender": 2, "id": 3560, "job": "Producer", "name": "Alain Sarde", "profile_path": "/95fgX9tAqahF98DG4FutHpLjbEi.jpg"}, {"credit_id": "58bade04c3a368666b021a77", "department": "Production", "gender": 1, "id": 95166, "job": "Producer", "name": "Ruth Waldburger", "profile_path": null}, {"credit_id": "58bade0b9251416077025dd6", "department": "Camera", "gender": 2, "id": 32506, "job": "Director of Photography", "name": "Julien Hirsch", "profile_path": null}, {"credit_id": "58bade12c3a368668f01f908", "department": "Camera", "gender": 2, "id": 1270992, "job": "Director of Photography", "name": "Christophe Pollock", "profile_path": null}, {"credit_id": "58bade19925141126a007d09", "department": "Editing", "gender": 0, "id": 1030265, "job": "Editor", "name": "Rapha\u00eble Urtin", "profile_path": null}, {"credit_id": "58bade21925141606b0265bf", "department": "Production", "gender": 2, "id": 10907, "job": "Casting", "name": "St\u00e9phane Foenkinos", "profile_path": "/t7kHAc3IlPAgHZ5xeUmc6xtPYGC.jpg"}, {"credit_id": "58bade289251416084026088", "department": "Costume & Make-Up", "gender": 0, "id": 1769953, "job": "Costume Design", "name": "Marina Thibaut", "profile_path": null}]}}