{"adult": false, "backdrop_path": "/hAUrTw12aatooHBHgjRDzsMKzcu.jpg", "belongs_to_collection": null, "budget": 0, "genres": [{"id": 18, "name": "Drama"}, {"id": 10749, "name": "Romance"}], "homepage": null, "id": 52805, "imdb_id": "tt0256459", "original_language": "en", "original_title": "The Truth About Jane", "overview": "Jane, a high school teenager, tries to deal with the discovery that she is a lesbian after developing an intense friendship with another girl who makes her discover her true sexuality, which is only the start of Jane's troubles when Jane's unaccepting mother, Janice, struggles with her surprising revelation of brought forth by her only daughter.", "popularity": 5.507, "poster_path": "/jZQynplhTqFQVa4Kj83XPPOIr48.jpg", "production_companies": [], "production_countries": [{"iso_3166_1": "US", "name": "United States of America"}], "release_date": "2000-08-07", "revenue": 0, "runtime": 87, "spoken_languages": [{"iso_639_1": "en", "name": "English"}], "status": "Released", "tagline": "", "title": "The Truth About Jane", "video": false, "vote_average": 6.4, "vote_count": 22, "keywords": {"keywords": [{"id": 1862, "name": "coming out"}, {"id": 187056, "name": "woman director"}]}, "similar": {"page": 1, "results": [{"adult": false, "backdrop_path": "/cADbqsIoiDW7X3Myg9nz8eAuno5.jpg", "genre_ids": [18, 10749], "id": 10818, "original_language": "fr", "original_title": "Naissance des pieuvres", "overview": "Set during a sultry summer in a French suburb, Marie is desperate to join the local pool's synchronized swimming team, but is her interest solely for the sake of sport or for a chance to get close to Floriane, the bad girl of the team? Sciamma, and the two leads, capture the uncertainty of teenage sexuality with a sympathetic eye in this delicate drama of the angst of coming-of-age.", "poster_path": "/4jajELYrR4Xmv3CVoKnukRnALa2.jpg", "release_date": "2007-05-17", "title": "Water Lilies", "video": false, "vote_average": 6.1, "vote_count": 119, "popularity": 9.614}, {"adult": false, "backdrop_path": "/rf6G51j0SZL0tP57I8gnqHTRFEr.jpg", "genre_ids": [35, 18, 10749], "id": 273153, "original_language": "fr", "original_title": "La belle saison", "overview": "In 1971, Carole and Delphine meet and fall in love in Paris. When Carole follows Delphine back to her family farm in Limousin, the two find lesbianism and feminism are not as easy in the countryside.", "poster_path": "/evvAkNMO5VJiy5qIo1Hu7fUfvVI.jpg", "release_date": "2015-08-19", "title": "Summertime", "video": false, "vote_average": 6.6, "vote_count": 162, "popularity": 11.575}, {"adult": false, "backdrop_path": "/s12HEmmkJfI2mjltI61hGm5kubD.jpg", "genre_ids": [35, 18, 10749], "id": 20770, "original_language": "en", "original_title": "But I'm a Cheerleader", "overview": "Megan is an all-American girl. A cheerleader. She has a boyfriend. But Megan doesn't like kissing her boyfriend very much. And she's pretty touchy with her cheerleader friends. Her conservative parents worry that she must be a lesbian and send her off to \"sexual redirection\" school, where she must, with other lesbians and gays learn how to be straight.", "poster_path": "/eDGH7CHSdkrYcuUJV1e0WS9DlQL.jpg", "release_date": "1999-12-09", "title": "But I'm a Cheerleader", "video": false, "vote_average": 6.8, "vote_count": 246, "popularity": 9.011}, {"adult": false, "backdrop_path": "/baYbbMtKRDoDWYJeVWkbygAvAj8.jpg", "genre_ids": [18, 10749], "id": 31216, "original_language": "en", "original_title": "I Can't Think Straight", "overview": "I CAN'T THINK STRAIGHT is a 2007 romance movie about a London-based Jordanian of Palestinian descent, Tala, who is preparing for an elaborate wedding. A turn of events causes her to have an affair and subsequently fall in love with another woman, Leyla, a British Indian.", "poster_path": "/1kapga6rkM5wNuQBYw7sdE42CrA.jpg", "release_date": "2008-06-01", "title": "I Can't Think Straight", "video": false, "vote_average": 7.6, "vote_count": 109, "popularity": 7.815}, {"adult": false, "backdrop_path": "/gZeJziVigmRqbkEZwKAtSqlLQ6s.jpg", "genre_ids": [18, 10749], "id": 370663, "original_language": "en", "original_title": "Below Her Mouth", "overview": "An unexpected affair quickly escalates into a heart-stopping reality for two women whose passionate connection changes their lives forever.", "poster_path": "/nTGbq37hYLuNy7YgMg0gVLma0NS.jpg", "release_date": "2016-09-10", "title": "Below Her Mouth", "video": false, "vote_average": 6.2, "vote_count": 456, "popularity": 18.664}, {"adult": false, "backdrop_path": "/dvQDRfv3qvfHNnVAR57ouVsuErf.jpg", "genre_ids": [10749, 18], "id": 28031, "original_language": "en", "original_title": "If These Walls Could Talk 2", "overview": "The stories of three lesbian couples -- who live in the same house at different periods of time -- who are at a crossroads in their lives. In 1961, Edith loses her lover, Abby, to a stroke. Linda and Amy struggle with feminist issues in 1972. And, in 2000, Kal and Fran try to have a baby with the help of sperm donor.", "poster_path": "/xs7ODbmYQXCDhvXNvz5tF17T59H.jpg", "release_date": "2000-03-05", "title": "If These Walls Could Talk 2", "video": false, "vote_average": 7.1, "vote_count": 55, "popularity": 8.86}, {"adult": false, "backdrop_path": "/xOGEw8iywxcFMolV6SF6YdTdJTb.jpg", "genre_ids": [10402, 10749], "id": 52371, "original_language": "nl", "original_title": "LelleBelle", "overview": "19-year old Belle practices playing the violin diligently, but is unable to impart her music with a sensitive undertone. Her life changes when she discovers that sexual desire stimulates passion in her music.", "poster_path": "/nJVPgIq3icZMQ26p5uWIFdUZJfL.jpg", "release_date": "2010-10-08", "title": "LelleBelle", "video": false, "vote_average": 4.7, "vote_count": 41, "popularity": 13.747}, {"adult": false, "backdrop_path": "/tIFRPjIXQ3sYrmxbIeOu9K1JkUz.jpg", "genre_ids": [18, 10749], "id": 294, "original_language": "en", "original_title": "Desert Hearts", "overview": "The story of straight-edge literature professor Vivian who travels to Reno to get away from a relationship breakup when she falls in love with an attractive and unconventional girl named Cay.", "poster_path": "/b8JSmQSpYYJhctMtxNgqh0elENg.jpg", "release_date": "1985-10-01", "title": "Desert Hearts", "video": false, "vote_average": 7.3, "vote_count": 58, "popularity": 6.976}, {"adult": false, "backdrop_path": "/fZ8oFcREAr6wgWcXISGql0xyxjB.jpg", "genre_ids": [35, 18], "id": 39781, "original_language": "en", "original_title": "The Kids Are All Right", "overview": "Two women, Nic and Jules, brought a son and daughter into the world through artificial insemination. When one of their children reaches age, both kids go behind their mothers' backs to meet with the donor. Life becomes so much more interesting when the father, two mothers and children start to become attached to each other.", "poster_path": "/fPDeK4MmoGfi2X0oWZev7LrbMqM.jpg", "release_date": "2010-07-09", "title": "The Kids Are All Right", "video": false, "vote_average": 6.6, "vote_count": 923, "popularity": 12.159}, {"adult": false, "backdrop_path": "/9Cd0valk8L7COsMwPq6XPEsf2dd.jpg", "genre_ids": [18, 10749], "id": 18212, "original_language": "en", "original_title": "Better Than Chocolate", "overview": "Not long after moving into her own place, Maggie finds herself with two unsolicited roommates: her recently divorced mother, Lila, and her young brother. The timing is especially bad, considering Maggie has fallen hard for an attractive woman, Kim, only hours before they move in. What could be a nonissue becomes increasingly complicated -- since Maggie's family is unaware of her sexual orientation, and Maggie is not open to sharing that information.", "poster_path": "/gT38JHYcUSrwdrWX7cQda0FuaFD.jpg", "release_date": "1999-02-14", "title": "Better Than Chocolate", "video": false, "vote_average": 6.3, "vote_count": 44, "popularity": 6.615}, {"id": 449176, "video": false, "vote_count": 3691, "vote_average": 8.1, "title": "Love, Simon", "release_date": "2018-02-16", "original_language": "en", "original_title": "Love, Simon", "genre_ids": [35, 18, 10749], "backdrop_path": "/rqMEeajyzSF4PpJtdCB816Iz8Vr.jpg", "adult": false, "overview": "Everyone deserves a great love story. But for seventeen-year old Simon Spier it's a little more complicated: he's yet to tell his family or friends he's gay and he doesn't know the identity of the anonymous classmate he's fallen for online.", "poster_path": "/5YUYg5q7QfC4IoNwNUtiwdiYKPr.jpg", "popularity": 17.201}, {"id": 434714, "video": false, "vote_count": 32, "vote_average": 7.5, "title": "My Days of Mercy", "release_date": "2019-07-11", "original_language": "en", "original_title": "My Days of Mercy", "genre_ids": [18, 10749], "backdrop_path": "/7Lbzq33nMMIQtAfZAmSqG6ibLSg.jpg", "adult": false, "overview": "The daughter of a man on death row falls in love with a woman on the opposing side of her family's political cause.", "poster_path": "/adIPKAoKnKL9vCTkvfF4J9ZA7Ln.jpg", "popularity": 9.342}, {"id": 426613, "video": false, "vote_count": 432, "vote_average": 7.0, "title": "The Miseducation of Cameron Post", "release_date": "2018-07-18", "original_language": "en", "original_title": "The Miseducation of Cameron Post", "genre_ids": [18], "backdrop_path": "/lqmNJ2dEqC5afCmYeLUiC6bYDUI.jpg", "adult": false, "overview": "In 1993, teenager Cameron is sent to a gay conversion therapy center after getting caught with another girl in the back seat of a car on prom night. Run by the strict and severe Dr. Lydia Marsh and her brother, Reverend Rick, the center is built upon repenting for \"same sex attraction.\" In the face of intolerance and denial, Cameron meets a group of fellow sinners including the amputee stoner Jane, and her friend, the Lakota Two-Spirit, Adam. Together, this group of teenagers form an unlikely family as they fight to survive.", "poster_path": "/xFLJDW3na8AADFzQJT6bM1VU5zs.jpg", "popularity": 16.426}, {"adult": false, "backdrop_path": "/6tern9vOEwwmkDYC1vRCuO64z0C.jpg", "genre_ids": [10749, 18], "id": 475888, "original_language": "en", "original_title": "Tell It to the Bees", "overview": "Dr. Jean Markham returns to the town she left as a teenager to take over her late father's medical practice. When a school-yard scuffle lands Charlie in her surgery, she invites him to visit the hives in her garden and tell his secrets to the bees, as she once did. The new friendship between the boy and the bee keeper brings his mother Lydia into Jean's world.", "poster_path": "/Rj6zpHhMU1zFW3v28U4PSRSRgP.jpg", "release_date": "2019-05-03", "title": "Tell It to the Bees", "video": false, "vote_average": 6.4, "vote_count": 53, "popularity": 13.175}, {"adult": false, "backdrop_path": "/knczzNAjBXzSYkeWxoT1u9VNmjR.jpg", "genre_ids": [10749, 18], "id": 258480, "original_language": "en", "original_title": "Carol", "overview": "In 1950s New York, a department-store clerk who dreams of a better life falls for an older, married woman.", "poster_path": "/AbKa7ANxmui0Jmhh7gV7OSELKIL.jpg", "release_date": "2015-11-20", "title": "Carol", "video": false, "vote_average": 7.4, "vote_count": 2184, "popularity": 13.539}, {"id": 513, "video": false, "vote_count": 31, "vote_average": 6.8, "title": "Fire", "release_date": "1997-08-22", "original_language": "en", "original_title": "Fire", "genre_ids": [18, 10749], "backdrop_path": "/2U3hyiVzzhYzS6j9fcdVW4mO4Uk.jpg", "adult": false, "overview": "In a barren, arranged marriage to an amateur swami who seeks enlightenment through celibacy, Radha's life takes an irresistible turn when her beautiful young sister-in-law seeks to free herself from the confines of her own loveless marriage.", "poster_path": "/nhKFB7bPOv9gH93cu8l4tTc2ZO.jpg", "popularity": 6.919}, {"adult": false, "backdrop_path": "/bUvPR1Nsm9419zO4aL90pUl4MNF.jpg", "genre_ids": [10749, 18], "id": 152584, "original_language": "fr", "original_title": "La Vie d'Ad\u00e8le - Chapitres 1 et 2", "overview": "Ad\u00e8le's life is changed when she meets Emma, a young woman with blue hair, who will allow her to discover desire, to assert herself as a woman and as an adult. In front of others, Adele grows, seeks herself, loses herself, finds herself.", "poster_path": "/3BpgeGHYxle9ob4cLiONgESvqVB.jpg", "release_date": "2013-10-09", "title": "Blue Is the Warmest Color", "video": false, "vote_average": 7.1, "vote_count": 2637, "popularity": 10.028}, {"adult": false, "backdrop_path": "/lI5h8KaoeObu4NMTwzeRuUHzRwD.jpg", "genre_ids": [18, 9648, 53], "id": 401898, "original_language": "no", "original_title": "Thelma", "overview": "A college student starts to experience extreme seizures. She soon learns that the violent episodes are a symptom of inexplicable abilities.", "poster_path": "/yzSfG8TLAqw7nMQh2lxirQkQpgs.jpg", "release_date": "2017-09-15", "title": "Thelma", "video": false, "vote_average": 7.1, "vote_count": 418, "popularity": 13.105}, {"id": 520172, "video": false, "vote_count": 0, "vote_average": 0.0, "title": "Happiest Season", "release_date": "2020-11-20", "original_language": "en", "original_title": "Happiest Season", "genre_ids": [35, 10749], "backdrop_path": null, "adult": false, "overview": "A young woman's plans to propose to her girlfriend while at her family's annual holiday party are upended when she discovers her partner hasn't yet come out to her conservative parents.", "poster_path": null, "popularity": 6.027}, {"adult": false, "backdrop_path": "/uTT0yYYgD5S4cDpNOJxuvCITAeC.jpg", "genre_ids": [18, 10749], "id": 419743, "original_language": "en", "original_title": "Disobedience", "overview": "A woman learns about the death of her Orthodox Jewish father, a rabbi. She returns home and has romantic feelings rekindled for her best childhood friend, who is now married to her cousin.", "poster_path": "/skPT4ffWhlmmDOMNEdxOiP6Emfz.jpg", "release_date": "2017-09-10", "title": "Disobedience", "video": false, "vote_average": 6.9, "vote_count": 490, "popularity": 15.03}], "total_pages": 1312, "total_results": 26230}, "recommendations": {"page": 1, "results": [{"adult": false, "backdrop_path": null, "genre_ids": [18], "id": 100626, "original_language": "en", "original_title": "Something to Live for: The Alison Gertz Story", "overview": "An AIDS-stricken woman becomes a leader in the struggle to educate people about the disease and its prevention.", "poster_path": "/3ovS9oXfoi3ZJCW9TJTRn0I6wXl.jpg", "release_date": "1992-03-26", "title": "Something to Live for: The Alison Gertz Story", "video": false, "vote_average": 4.3, "vote_count": 3, "popularity": 2.394}, {"adult": false, "backdrop_path": null, "genre_ids": [18, 10770], "id": 51783, "original_language": "en", "original_title": "The Investigator", "overview": "1989: Caroline Meagher is a sergeant with the Royal Military Police, with 12 years' experience, stationed in Northern Ireland. Two men from internal affairs grill her for four days: someone has accused her of being a lesbian. It's an offense that leads to court martial. In a series of flashbacks, we see her enthusiasm when she joins the force, her various assignments including investigating suspected lesbians, and her own slow discovery of her sexual nature. She, like others in her situation, must go to great lengths to avoid detection. Once reported, will she withstand the interrogation? Meagher herself comments on camera at the end of the film.", "poster_path": "/bPQdHDmwF2aODftAwwQFO9S68fE.jpg", "release_date": "1997-01-01", "title": "The Investigator", "video": false, "vote_average": 4.7, "vote_count": 3, "popularity": 2.708}, {"id": 42548, "video": false, "vote_count": 24, "vote_average": 7.1, "title": "The Secret Diaries of Miss Anne Lister", "release_date": "2010-03-01", "original_language": "en", "original_title": "The Secret Diaries of Miss Anne Lister", "genre_ids": [18, 10749], "backdrop_path": "/mROSB3VxDoum3kUOgov1Vtk8Acs.jpg", "adult": false, "overview": "A lesbian in the 1800s who keeps a detailed account of her life written in coded diaries attempts to live independently while juggling an affair with a married woman.", "poster_path": "/fpJHzNNRkLFdY41JwOdZYuAmZ23.jpg", "popularity": 5.253}, {"adult": false, "backdrop_path": "/55GSD5IKibzWOmLo81Y8g1dQqlg.jpg", "genre_ids": [18], "id": 38244, "original_language": "en", "original_title": "Casa de los Babys", "overview": "A group of women, including Skipper, the wealthy young Jennifer and the domineering Nan, journey from the United States to South America in hopes of easily adopting children. Unfortunately, their plans are complicated by local laws that require the women to live in the foreign nation for an extended period before they can take in orphaned kids. While stuck in another country, the women bond as they share their aspirations and anxieties.", "poster_path": "/5YZDt8ewvwa49I8M4MJHVl9UPkl.jpg", "release_date": "2003-09-05", "title": "Casa de los Babys", "video": false, "vote_average": 5.7, "vote_count": 12, "popularity": 5.028}, {"adult": false, "backdrop_path": null, "genre_ids": [10749, 53, 18, 9648], "id": 98486, "original_language": "en", "original_title": "Sister, Sister", "overview": "A congressional aide (Eric Stoltz) explores an old Louisiana mansion two kooky sisters (Jennifer Jason Leigh, Judith Ivey) run as a guest house.", "poster_path": "/lctdeo2qlw6W2YcIxQTcOGcXHrt.jpg", "release_date": "1987-09-13", "title": "Sister, Sister", "video": false, "vote_average": 5.4, "vote_count": 7, "popularity": 4.779}, {"adult": false, "backdrop_path": "/vDvDF9MKOyg42AmWj4EXw3wp0Je.jpg", "genre_ids": [18, 10770], "id": 108251, "original_language": "en", "original_title": "Girl Fight", "overview": "Inspired by a true story, Girl Fight recounts the harrowing story of a 16-year-old, stellar high school student whose life spirals downward when her former friends conspire to upload onto the Internet a shocking video of them beating her up.", "poster_path": "/mie2uVWWI2iNlkSdHaOjk1J3irW.jpg", "release_date": "2011-10-03", "title": "Girl Fight", "video": false, "vote_average": 6.3, "vote_count": 18, "popularity": 4.525}, {"adult": false, "backdrop_path": "/7yRMAR05oqsl8GNvRt7QqgyUsKF.jpg", "genre_ids": [18], "id": 46564, "original_language": "en", "original_title": "A Marine Story", "overview": "Marine officer Alexandra is tough enough to kick any guy's ass in a bar fight, but there's one opponent she can't beat: military policy. When she returns to her conservative hometown from Iraq with a mysterious personal life, she finds herself charged with preparing a tempestuous teenage girl to boot camp.", "poster_path": "/pntBMDfGgPgIEeNBhT3JR7E3h5s.jpg", "release_date": "2010-11-05", "title": "A Marine Story", "video": false, "vote_average": 6.3, "vote_count": 21, "popularity": 3.87}, {"adult": false, "backdrop_path": null, "genre_ids": [35, 10749], "id": 49267, "original_language": "en", "original_title": "Just One Time", "overview": "When the fiancee of a fireman reluctantly agrees to participate in a menage a trois with another woman, she does so on the condition that he reciprocate the favor with another man, which ultimately puts their impending marriage in jeopardy.", "poster_path": "/52AxxlYO1OlwQeNPi9PUufWfbrr.jpg", "release_date": "1999-09-12", "title": "Just One Time", "video": false, "vote_average": 5.4, "vote_count": 7, "popularity": 4.502}, {"adult": false, "backdrop_path": "/XlpeaPN9bFME8SVqe8BnEC0pUr.jpg", "genre_ids": [10770, 18], "id": 71465, "original_language": "en", "original_title": "Common Ground", "overview": "This movie contains three short stories dealing with the theme of homosexuality. In \"A Friend of Dorothy\", a woman joins the Navy during the 1950's and discovers lesbianism. In \"Mr. Roberts\", a teacher in a 1970's classroom struggles with his closeted gay status. Finally in \"Amos and Andy\", a father wrestles with his own emotional acceptance of a present day wedding between his son and another man.", "poster_path": "/25lVPTQbgdiTeBjkOVrn01ddiob.jpg", "release_date": "2000-01-29", "title": "Common Ground", "video": false, "vote_average": 5.8, "vote_count": 7, "popularity": 4.763}, {"adult": false, "backdrop_path": "/6NPlZTjZTxSlXxEkV69gvwktWIP.jpg", "genre_ids": [53, 14], "id": 262053, "original_language": "en", "original_title": "Ghost Bride", "overview": "Ghost Bride tells the story of Jason Chen - a young chinese immigrant in New Zealand who keeps his love for Kiwi girl Skye secret from his disapproving mother Alice. Things quickly unravel as his mother introduces him to Madam Yin, a matchmaker who has a very special bride in mind for Jason - the mysterious and silent May Ling.", "poster_path": "/8bEWC6QxtJShm8tmEZu0MIfyQY0.jpg", "release_date": "2013-10-31", "title": "Ghost Bride", "video": false, "vote_average": 3.4, "vote_count": 7, "popularity": 2.038}, {"adult": false, "backdrop_path": "/eFcOLJDrvBiYk75kkWS1GGBVJF.jpg", "genre_ids": [53], "id": 37503, "original_language": "en", "original_title": "Bulletface", "overview": "Horror and Revenge drive this thriller set in the sex and human trafficking underbelly of a nightmarish city where spinal fluid has become the drug of choice...with frightening consequences.", "poster_path": "/yYV97I5cjVc5tgU76IJtl22XY4j.jpg", "release_date": "2010-03-10", "title": "Bulletface", "video": false, "vote_average": 5.5, "vote_count": 5, "popularity": 1.779}, {"adult": false, "backdrop_path": null, "genre_ids": [18, 10749], "id": 109693, "original_language": "en", "original_title": "Electroshock", "overview": "Spain, the era of dictator Franco. Two female teachers are in love, but in those years and in that regime the love is not only forbidden but also a crime. To avoid their child been in prison, the parents of the one teacher, force her to be confined in a clinic for mental diseases, where she is heavily abused, the main treatment been electroshocks. After Franco's fall, and the change of things, she is free to return to her home, under the surveillance of her mother. Her father, more compassionate, helps her escape and find her lover. But the years of been under electroshocks have damaged her health, and make it impossible to live a normal life.", "poster_path": "/8ZDB5Ldbpn9uKu5IcypuAC2kBeA.jpg", "release_date": "2006-03-16", "title": "Electroshock", "video": false, "vote_average": 6.0, "vote_count": 4, "popularity": 1.386}, {"adult": false, "backdrop_path": "/fyWK7ZZ1dQ95fIrIPoQ7QMumSda.jpg", "genre_ids": [18, 53, 80, 9648], "id": 83144, "original_language": "en", "original_title": "Plain Truth", "overview": "An unmarried 18 year-old Amish girl is charged with the murder of her infant child.", "poster_path": "/dyOTnYXqFACQ2mgXBG3IePh8hd2.jpg", "release_date": "2004-10-04", "title": "Plain Truth", "video": false, "vote_average": 5.3, "vote_count": 8, "popularity": 4.476}, {"id": 44373, "video": false, "vote_count": 16, "vote_average": 5.0, "title": "New Best Friend", "release_date": "2002-04-12", "original_language": "en", "original_title": "New Best Friend", "genre_ids": [18, 9648, 53], "backdrop_path": null, "adult": false, "overview": "Alicia is a poor girl starting college. Hadley, Julianne and Sydney are three well-off girls in a row house. Classes begin and Alicia is paired with Hadley to work on a sociology class project. At first rejected, Alicia is finally accepted into Hadley's clique where she is introduced to a world of privilege and dangerous thrills. But her attempts to become one of them ultimately land her in the hospital.", "poster_path": "/4qdxBV2FZ9o46neCW3T7Na8W9L.jpg", "popularity": 3.846}, {"adult": false, "backdrop_path": "/kzDi8FjFVnFugzuxcBduYzggniE.jpg", "genre_ids": [53], "id": 107054, "original_language": "en", "original_title": "The Woman In White", "overview": "Based upon Wilkie Collins Victorian mystery, the gothic tale tells of a pair of half sisters whose lives end up caught in a grand conspiracy revolving around a mentally ill woman dressed in white. As the story unfolds, murder, love, marriage, and greed stand between the two women and happy lives. Their only hope is the secret the woman in white waits to tell them.", "poster_path": "/5cyyrHDIiPMlg0cYBCAZip9Fqur.jpg", "release_date": "1997-01-01", "title": "The Woman In White", "video": false, "vote_average": 6.9, "vote_count": 8, "popularity": 2.387}, {"adult": false, "backdrop_path": "/6tYb4mDRucscYv7e5w2JuyyrHat.jpg", "genre_ids": [10749, 18], "id": 179641, "original_language": "fr", "original_title": "Chlo\u00e9", "overview": "After a violent dispute with her mother, sixteen-years old Chlo\u00e9 ends up in the streets with nowhere to go. Then she finds Jean-Michel, a charming young man who will lead her to prostitution.", "poster_path": "/pj8dBzfGYnCBQK9l0diovSlxdlS.jpg", "release_date": "1996-06-11", "title": "Chlo\u00e9", "video": false, "vote_average": 6.5, "vote_count": 7, "popularity": 4.763}, {"adult": false, "backdrop_path": "/f4C8V3xUgMlaDammxQHPcv3wb42.jpg", "genre_ids": [10770], "id": 34786, "original_language": "en", "original_title": "Super Sweet 16: The Movie", "overview": "No overview found.", "poster_path": "/lm4Pluk7HEHwMlHHNqKprhqpa02.jpg", "release_date": "2007-07-07", "title": "Super Sweet 16: The Movie", "video": false, "vote_average": 4.5, "vote_count": 6, "popularity": 3.968}, {"adult": false, "backdrop_path": null, "genre_ids": [35, 10751, 9648], "id": 60870, "original_language": "en", "original_title": "Roxy Hunter and the Myth of the Mermaid", "overview": "Roxy is at it again when, in pursuit of a local journalism award, she brings home a mysterious amnesiac who was found soaking wet outside of the local coffee shop. After ceremoniously naming her ANNIE NONYMOUS, Roxy takes the young lady home and finds that even the most common household item is a complete mystery to Annie. When Annie returns dripping wet from the lake several nights in a row, Roxy determines what is abundantly clear to her, Annie is a mermaid. A mermaid who has to find her way home.", "poster_path": "/pnn478CszCEQ6FkORgm7GMWbhCr.jpg", "release_date": "2008-07-13", "title": "Roxy Hunter and the Myth of the Mermaid", "video": false, "vote_average": 4.2, "vote_count": 3, "popularity": 1.639}, {"adult": false, "backdrop_path": "/9A5dH9skhs3kyxmhNZTZZbVgYlZ.jpg", "genre_ids": [99], "id": 318033, "original_language": "en", "original_title": "Dreamcatcher", "overview": "Longinotto's documentary is about Brenda Myers-Powell, who fights against sexual exploitation and supports prostitutes in Chicago. Brenda knows what she is talking about: her own story, involving teenage prostitution and a life of violence and abuse, is in stark contrast to her dauntless energy and optimism.", "poster_path": "/bL7oMk6tZymISkwbhSHHgYL1B7C.jpg", "release_date": "2015-03-27", "title": "Dreamcatcher", "video": false, "vote_average": 5.2, "vote_count": 5, "popularity": 3.508}, {"adult": false, "backdrop_path": "/zongf50avJjbChfPhmRJEJ5ut20.jpg", "genre_ids": [18, 10749], "id": 53049, "original_language": "en", "original_title": "Claire of the Moon", "overview": "Claire of the Moon is set in the 1990s in the Pacific Northwest. Claire Jabrowski, a famous heterosexual author, decides to attend a retreat for all-female writers. Claire's rommate at the retreat is Dr. Noel Benedict, author of a book called The Naked Truth. The movie culminates in a sexual encounter between the two authors.", "poster_path": "/nJCWveawzShpOkOxV6xYIWHXlGF.jpg", "release_date": "1992-09-18", "title": "Claire of the Moon", "video": false, "vote_average": 5.9, "vote_count": 17, "popularity": 3.632}], "total_pages": 2, "total_results": 40}, "credits": {"cast": [{"cast_id": 1, "character": "Janice", "credit_id": "52fe4843c3a36847f815eaf9", "gender": 1, "id": 8893, "name": "Stockard Channing", "order": 0, "profile_path": "/8QbU4hLJrwMxuonu7CwkVpYG8aA.jpg"}, {"cast_id": 13, "character": "Jane", "credit_id": "52fe4843c3a36847f815eb2d", "gender": 1, "id": 1218072, "name": "Ellen Muth", "order": 1, "profile_path": "/1U1qdqyKCNbmi6r8HdN3ahur1zp.jpg"}, {"cast_id": 3, "character": "Ms. Lynn Walcott", "credit_id": "52fe4843c3a36847f815eafd", "gender": 1, "id": 47757, "name": "Kelly Rowan", "order": 2, "profile_path": "/uxrGUfhLtqZXhy35r4RsHpZNz6Z.jpg"}, {"cast_id": 4, "character": "Beth", "credit_id": "52fe4843c3a36847f815eb01", "gender": 1, "id": 4734, "name": "Jenny O'Hara", "order": 3, "profile_path": "/jfEnP388TYX8kGyrD4MOadyOJRb.jpg"}, {"cast_id": 5, "character": "Jimmy", "credit_id": "52fe4843c3a36847f815eb05", "gender": 2, "id": 78589, "name": "RuPaul", "order": 4, "profile_path": "/gNwa8c7XmYWXxa0i9fGF3OXazL4.jpg"}, {"cast_id": 6, "character": "Ned", "credit_id": "52fe4843c3a36847f815eb09", "gender": 2, "id": 57286, "name": "Noah Fleiss", "order": 5, "profile_path": "/jWCEjHjDdAE1zYEInbraXCen9Mm.jpg"}, {"cast_id": 7, "character": "Robert", "credit_id": "52fe4843c3a36847f815eb0d", "gender": 2, "id": 37421, "name": "James Naughton", "order": 6, "profile_path": "/cjEnGQb3FDoDRZKcwbeM43Kma6b.jpg"}, {"cast_id": 8, "character": "Taylor", "credit_id": "52fe4843c3a36847f815eb11", "gender": 1, "id": 105659, "name": "Alicia Lagano", "order": 7, "profile_path": "/pjohi4Owtp2GmxBm7XmqlXbJi9F.jpg"}], "crew": [{"credit_id": "52fe4843c3a36847f815eb17", "department": "Writing", "gender": 1, "id": 202122, "job": "Writer", "name": "Lee Rose", "profile_path": null}, {"credit_id": "52fe4843c3a36847f815eb1d", "department": "Directing", "gender": 1, "id": 202122, "job": "Director", "name": "Lee Rose", "profile_path": null}, {"credit_id": "52fe4843c3a36847f815eb23", "department": "Crew", "gender": 0, "id": 69049, "job": "Cinematography", "name": "Eric Van Haren Noman", "profile_path": null}, {"credit_id": "52fe4843c3a36847f815eb29", "department": "Editing", "gender": 0, "id": 75873, "job": "Editor", "name": "Peter V. White", "profile_path": null}, {"credit_id": "5b892ae9c3a3682e5800db83", "department": "Sound", "gender": 2, "id": 5287, "job": "Music", "name": "Terence Blanchard", "profile_path": "/rJIXX2O82ZAHBh7a1efZAz7JIW4.jpg"}]}}