{"adult": false, "backdrop_path": "/z3k4vBDc9Iygr9glEgtK0ERyuaK.jpg", "belongs_to_collection": null, "budget": 0, "genres": [{"id": 80, "name": "Crime"}, {"id": 53, "name": "Thriller"}], "homepage": null, "id": 530588, "imdb_id": "tt7345930", "original_language": "ml", "original_title": "\u0d05\u0d2c\u0d4d\u0d30\u0d39\u0d3e\u0d2e\u0d3f\u0d28\u0d4d\u200d\u0d31\u0d46 \u0d38\u0d28\u0d4d\u0d24\u0d24\u0d3f\u0d15\u0d33\u0d4d\u200d", "overview": "Derick Abraham, a fiery and dutiful police officer, continues to be the best officer until his brother Philip Abraham gets arrested for false murder charges. Will he be able to investigate the case and serve justice to his brother?", "popularity": 0.955, "poster_path": "/kcx4RP7jPQrA4fm07sXVwP70RpC.jpg", "production_companies": [{"id": 80317, "logo_path": null, "name": "Goodwill Entertainments", "origin_country": ""}], "production_countries": [{"iso_3166_1": "IN", "name": "India"}], "release_date": "2018-06-15", "revenue": 0, "runtime": 131, "spoken_languages": [{"iso_639_1": "en", "name": "English"}, {"iso_639_1": "ml", "name": ""}], "status": "Released", "tagline": "A police story", "title": "Abrahaminte Santhathikal", "video": false, "vote_average": 5.8, "vote_count": 7, "keywords": {"keywords": [{"id": 5301, "name": "brother"}, {"id": 9826, "name": "murder"}, {"id": 15090, "name": "police officer"}]}, "similar": {"page": 1, "results": [{"adult": false, "backdrop_path": "/pA64Ov7lDpwXBu33yq0KpmAOYJL.jpg", "genre_ids": [27, 53], "id": 357096, "original_language": "en", "original_title": "I Spit on Your Grave III: Vengeance is Mine", "overview": "Jennifer Hills is still tormented by the brutal sexual assault she endured years ago. She\u2019s changed identities and cities, reluctantly joining a support group where she begins to piece together a new life. But when her new friend\u2019s murderer goes free and the tales of serial rapists haunt her, Jennifer will hunt down the men responsible and do what the system won\u2019t \u2013 make them pay for their crimes in the most horrific ways imaginable. Only this time, no jury may be able to save her.", "poster_path": "/6SnOlgrUoC5jqmgcYIM5lde5zYq.jpg", "release_date": "2015-10-01", "title": "I Spit on Your Grave III: Vengeance is Mine", "video": false, "vote_average": 5.3, "vote_count": 437, "popularity": 20.815}, {"adult": false, "backdrop_path": "/t3OZS8yMs0NL4YgWWc04eXHTn1X.jpg", "genre_ids": [28, 80, 53], "id": 984, "original_language": "en", "original_title": "Dirty Harry", "overview": "When a madman dubbed 'Scorpio' terrorizes San Francisco, hard-nosed cop, Harry Callahan \u2013 famous for his take-no-prisoners approach to law enforcement \u2013 is tasked with hunting down the psychopath. Harry eventually collars Scorpio in the process of rescuing a kidnap victim, only to see him walk on technicalities. Now, the maverick detective is determined to nail the maniac himself.", "poster_path": "/2TADKc4GMMPdMrLXj0xJVgTvZJM.jpg", "release_date": "1971-12-21", "title": "Dirty Harry", "video": false, "vote_average": 7.5, "vote_count": 1173, "popularity": 18.839}, {"id": 8090, "video": false, "vote_count": 448, "vote_average": 6.1, "title": "Untraceable", "release_date": "2008-01-22", "original_language": "en", "original_title": "Untraceable", "genre_ids": [9648, 53], "backdrop_path": "/eXuIPt9I1xuaVddlgzEQRC2EMnJ.jpg", "adult": false, "overview": "Special Agent Jennifer Marsh (Diane Lane) works in an elite division of the FBI dedicated to fighting cybercrime. She thinks she has seen it all, until a particularly sadistic criminal arises on the Internet. This tech-savvy killer posts live feeds of his crimes on his website; the more hits the site gets, the faster the victim dies. Marsh and her team must find the elusive killer before time runs out.", "poster_path": "/ySUwDRDEn01lKIMPQorpFCMLWqE.jpg", "popularity": 14.431}, {"id": 75780, "video": false, "vote_count": 4451, "vote_average": 6.4, "title": "Jack Reacher", "release_date": "2012-12-20", "original_language": "en", "original_title": "Jack Reacher", "genre_ids": [28, 80, 18, 53], "backdrop_path": "/ezXodpP429qK0Av89pVNlaXWJkQ.jpg", "adult": false, "overview": "When a gunman takes five lives with six shots, all evidence points to the suspect in custody. On interrogation, the suspect offers up a single note: \"Get Jack Reacher!\" So begins an extraordinary chase for the truth, pitting Jack Reacher against an unexpected enemy, with a skill for violence and a secret to keep.", "poster_path": "/mt0ELw83HIRgaKaDzhsDcIi0RnW.jpg", "popularity": 15.945}, {"id": 807, "video": false, "vote_count": 11937, "vote_average": 8.3, "title": "Se7en", "release_date": "1995-09-22", "original_language": "en", "original_title": "Se7en", "genre_ids": [80, 9648, 53], "backdrop_path": "/A0WKbRIojF9DUWG4XLCmg5JK6I5.jpg", "adult": false, "overview": "Two homicide detectives are on a desperate hunt for a serial killer whose crimes are based on the \"seven deadly sins\" in this dark and haunting film that takes viewers from the tortured remains of one victim to the next. The seasoned Det. Sommerset researches each sin in an effort to get inside the killer's mind, while his novice partner, Mills, scoffs at his efforts to unravel the case.", "poster_path": "/8zw8IL4zEPjkh8Aysdcd0FwGMb0.jpg", "popularity": 34.018}, {"adult": false, "backdrop_path": "/8UkJSL5hlwGh3uSC5tyoaqhHQh7.jpg", "genre_ids": [80, 18, 53], "id": 18587, "original_language": "en", "original_title": "10 to Midnight", "overview": "Based on the real-life Richard Speck murders. After his bizarre behavior results in rejection from countless women, Warren Stacy begins murdering women, always while he is naked, which minimizes any physical evidence left behind. Detective Leo Kessler is convinced of Stacy\u2019s guilt and, over the objections of his partner, plants evidence to get him behind bars. When Stacy is released on a technicality, he threatens to go after Kessler and his family, leaving Kessler to defend himself with little help from the police.", "poster_path": "/bJiLyz6g8vsFgJ5oAdMWlQAWY4T.jpg", "release_date": "1983-03-11", "title": "10 to Midnight", "video": false, "vote_average": 6.0, "vote_count": 73, "popularity": 9.514}, {"id": 4771, "video": false, "vote_count": 2134, "vote_average": 7.3, "title": "Gone Baby Gone", "release_date": "2007-09-18", "original_language": "en", "original_title": "Gone Baby Gone", "genre_ids": [80, 18, 9648], "backdrop_path": "/sogh5NXPbKFajjYKBlfIBfCWgbq.jpg", "adult": false, "overview": "When 4 year old Amanda McCready disappears from her home and the police make little headway in solving the case, the girl's aunt, Beatrice McCready hires two private detectives, Patrick Kenzie and Angie Gennaro. The detectives freely admit that they have little experience with this type of case, but the family wants them for two reasons - they're not cops and they know the tough neighborhood in which they all live. As the case progresses, Kenzie and Gennaro face drug dealers, gangs and pedophiles. When they are about to solve the case, they are faced with a moral dilemma that tears them apart.", "poster_path": "/dXXMPxGiRegd7NNCtE5uchAKRAG.jpg", "popularity": 16.498}, {"adult": false, "backdrop_path": "/uUYCUbgI5VxsUflTMI4Y9L2Y6vb.jpg", "genre_ids": [80, 18, 53], "id": 11423, "original_language": "ko", "original_title": "\uc0b4\uc778\uc758 \ucd94\uc5b5", "overview": "1986 Gyunggi Province. The body of a young woman is found brutally raped and murdered. Two months later, a series of rapes and murders commences under similar circumstances. And in a country that had never known such crimes, the dark whispers about a serial murderer grow louder. A special task force is set up in the area, with two local detectives Park Doo-Man and Jo Young-Goo joined by a detective from Seoul who requested to be assigned to the case.", "poster_path": "/gawnVe9cFowdoDLo9Pok12NTw39.jpg", "release_date": "2003-05-02", "title": "Memories of Murder", "video": false, "vote_average": 8.1, "vote_count": 1093, "popularity": 13.452}, {"adult": false, "backdrop_path": "/v761yOHKO3p6Yr7LDCjud6tUL5G.jpg", "genre_ids": [28, 80, 53], "id": 10651, "original_language": "en", "original_title": "The Dead Pool", "overview": "Dirty Harry Callahan returns for his final film adventure. Together with his partner Al Quan, he must investigate the systematic murder of actors and musicians. By the time Harry learns that the murders are a part of a sick game to predict the deaths of celebrities before they happen, it may be too late...", "poster_path": "/9ZUSqox9lIxN4xaYBac2QXMFcZj.jpg", "release_date": "1988-07-12", "title": "The Dead Pool", "video": false, "vote_average": 6.4, "vote_count": 389, "popularity": 10.626}, {"id": 37645, "video": false, "vote_count": 575, "vote_average": 6.5, "title": "22 Bullets", "release_date": "2010-03-23", "original_language": "fr", "original_title": "L'Immortel", "genre_ids": [28, 80, 53], "backdrop_path": "/mU8zfCOTbahNGH0ZBTCuNdX16gj.jpg", "adult": false, "overview": "Charly Mattei\u0308 has turned his back on his life as an outlaw. For the last three years, he's led a peaceful life devoting himself to his wife and two children. Then, one winter morning, he's left for dead in the parking garage in Marseille's Old Port, with 22 bullets in his body. Against all the odds, he doesn't die...", "poster_path": "/wTYZjPq4YA2wC99MdHZTFQuxFpd.jpg", "popularity": 12.785}, {"adult": false, "backdrop_path": "/xBhRhY8KimSrPx6AMJXigpzlGQ2.jpg", "genre_ids": [28, 35, 80], "id": 96, "original_language": "en", "original_title": "Beverly Hills Cop II", "overview": "Axel heads for the land of sunshine and palm trees to find out who shot police Captain Andrew Bogomil. Thanks to a couple of old friends, Axel's investigation uncovers a series of robberies masterminded by a heartless weapons kingpin\u2014and the chase is on.", "poster_path": "/2y1z1baxKT0coTTRlnkI6McnR9f.jpg", "release_date": "1987-05-18", "title": "Beverly Hills Cop II", "video": false, "vote_average": 6.4, "vote_count": 1235, "popularity": 13.336}, {"adult": false, "backdrop_path": "/3TCPWrxQkfon82xPNtmpweOSVJc.jpg", "genre_ids": [18, 80, 9648, 10749, 53], "id": 12150, "original_language": "en", "original_title": "Sea of Love", "overview": "Seen-it-all New York detective Frank Keller is unsettled - he has done twenty years on the force and could retire, and he hasn't come to terms with his wife leaving him for a colleague. Joining up with an officer from another part of town to investigate a series of murders linked by the lonely hearts columns he finds he is getting seriously and possibly dangerously involved with Helen, one of the main suspects.", "poster_path": "/7DkkTHIX3hUqvsRv5sDmJAkCfKK.jpg", "release_date": "1989-09-15", "title": "Sea of Love", "video": false, "vote_average": 6.7, "vote_count": 290, "popularity": 10.636}, {"id": 15069, "video": false, "vote_count": 75, "vote_average": 5.4, "title": "W\u0394Z", "release_date": "2007-05-19", "original_language": "en", "original_title": "W\u0394Z", "genre_ids": [80, 18, 27, 53], "backdrop_path": "/nVwdXjnbfulc6cymFgOQJctpspr.jpg", "adult": false, "overview": "There is something horribly wrong with the bodies found in the dark city streets. Some are mutilated while others have the Price equation (w\u0394z = Cov (w,z) = \u03b2wzVz) carved into their flesh. Detective Eddie Argo and his new partner Helen Westcott unearth the meaning of the odd equation and realise each victim is being offered a gruesome choice: kill your loved ones, or be killed. Before long it becomes clear that the perpetrator has suffered a similar fate and is now coping by seeking a way to solve this philosophical dilemma.", "poster_path": "/8lPZ59iQRqUELprKuB0myy7u6Zm.jpg", "popularity": 7.935}, {"adult": false, "backdrop_path": "/xdha8DvElblfBbNnkpGsF42lAyv.jpg", "genre_ids": [28, 80, 53], "id": 2749, "original_language": "en", "original_title": "15 Minutes", "overview": "When Eastern European criminals Oleg and Emil come to New York City to pick up their share of a heist score, Oleg steals a video camera and starts filming their activities, both legal and illegal. When they learn how the American media circus can make a remorseless killer look like the victim and make them rich, they target media-savvy NYPD Homicide Detective Eddie Flemming and media-naive FDNY Fire Marshal Jordy Warsaw, the cops investigating their murder and torching of their former criminal partner, filming everything to sell to the local tabloid TV show \"Top Story.\"", "poster_path": "/qqqleHV8y7NLKt7isSZAvOwVPH6.jpg", "release_date": "2001-03-01", "title": "15 Minutes", "video": false, "vote_average": 5.8, "vote_count": 372, "popularity": 14.636}, {"id": 60670, "video": false, "vote_count": 765, "vote_average": 6.9, "title": "The Crimson Rivers", "release_date": "2000-09-26", "original_language": "fr", "original_title": "Les Rivi\u00e8res pourpres", "genre_ids": [80, 9648, 53], "backdrop_path": "/pXmMiqordTEbRTDNlKPnyielNVA.jpg", "adult": false, "overview": "Two French policemen, one investigating a grisly murder at a remote mountain college, the other working on the desecration of a young girl's grave by skinheads, are brought together by the clues from their respective cases. Soon after they start working together, more murders are committed, and the pair begin to discover just what dark secrets are behind the killings.", "poster_path": "/kkRgQST0bEdEgqpPZMGaUB1twsQ.jpg", "popularity": 11.569}, {"adult": false, "backdrop_path": "/iNuvbrHGNtrUwlm48u4KnQhhMKp.jpg", "genre_ids": [80, 18, 53], "id": 26390, "original_language": "en", "original_title": "Brooklyn's Finest", "overview": "Enforcing the law within the notoriously rough Brownsville section of the city and especially within the Van Dyke housing projects is the NYPD's sixty-fifth precinct. Three police officers struggle with the sometimes fine line between right and wrong.", "poster_path": "/jKSBk0LtZgXxG56uvwiAtYf6ttF.jpg", "release_date": "2009-01-16", "title": "Brooklyn's Finest", "video": false, "vote_average": 6.4, "vote_count": 500, "popularity": 11.822}, {"adult": false, "backdrop_path": "/3naOwcmYNZfd80kC1OXmembjc8j.jpg", "genre_ids": [53, 28, 18], "id": 445954, "original_language": "en", "original_title": "Acts of Vengeance", "overview": "A fast-talking lawyer transforms his body and takes a vow of silence, not to be broken until he finds out who killed his wife and daughter and has his revenge.", "poster_path": "/r5o6vWPYOQs6bv91gQ8kQs2zQYl.jpg", "release_date": "2017-10-27", "title": "Acts of Vengeance", "video": false, "vote_average": 5.7, "vote_count": 234, "popularity": 15.211}, {"id": 276488, "video": false, "vote_count": 162, "vote_average": 5.7, "title": "Let Us Prey", "release_date": "2014-04-17", "original_language": "en", "original_title": "Let Us Prey", "genre_ids": [27, 53], "backdrop_path": "/6y5s5XboARsaZARPBO9L3oYM9Bl.jpg", "adult": false, "overview": "Rachel, a rookie cop, is about to begin her first night shift in a neglected police station in a Scottish, backwater town. The kind of place where the tide has gone out and stranded a motley bunch of the aimless, the forgotten, the bitter-and-twisted who all think that, really, they deserve to be somewhere else. They all think they're there by accident and that, with a little luck, life is going to get better. Wrong, on both counts. Six is about to arrive - and All Hell Will Break Loose!", "poster_path": "/yQgKyDXbV8XQKKarJ8ph5Y9dpQe.jpg", "popularity": 9.209}, {"id": 1949, "video": false, "vote_count": 5165, "vote_average": 7.5, "title": "Zodiac", "release_date": "2007-03-02", "original_language": "en", "original_title": "Zodiac", "genre_ids": [80, 18, 9648, 53], "backdrop_path": "/jP2htGBHE7vKq4MLeC75UeC0sZH.jpg", "adult": false, "overview": "The true story of the investigation of the \"Zodiac Killer\", a serial killer who terrified the San Francisco Bay Area, taunting police with his ciphers and letters. The case becomes an obsession for three men as their lives and careers are built and destroyed by the endless trail of clues.", "poster_path": "/bgLyOROfFQI3FqYL7jQbiaV8lkN.jpg", "popularity": 24.455}, {"adult": false, "backdrop_path": "/arcpWGGnUkGkakOwZo7xfPsaz7h.jpg", "genre_ids": [9648, 53], "id": 2832, "original_language": "en", "original_title": "Identity", "overview": "Complete strangers stranded at a remote desert motel during a raging storm soon find themselves the target of a deranged murderer. As their numbers thin out, the travelers begin to turn on each other, as each tries to figure out who the killer is.", "poster_path": "/xSNSp2wmCUwFavxdkMF417hBc39.jpg", "release_date": "2003-04-25", "title": "Identity", "video": false, "vote_average": 7.2, "vote_count": 2091, "popularity": 19.629}], "total_pages": 432, "total_results": 8627}, "recommendations": {"page": 1, "results": [{"adult": false, "backdrop_path": "/luhgb6WW71KkXHiCJ5fqiSl7jNr.jpg", "genre_ids": [35, 80, 18], "id": 425380, "original_language": "ml", "original_title": "\u0d38\u0d4d\u0d35\u0d30\u0d4d\u200d\u0d23\u0d4d\u0d23 \u0d15\u0d1f\u0d41\u0d35", "overview": "Riny (Biju Menon) is the right hand man of jeweller Lolappan (Innocent). He is extremely selfish and doesn't worry about the consequences of his actions as long as it contributes to his growth. He becomes estranged even with his family, but despite this, his rise up through the ranks continue.", "poster_path": "/yu54QFipVcW3DUKZk4sA8qdhjwV.jpg", "release_date": "2016-11-04", "title": "Swarna Kaduva", "video": false, "vote_average": 6.0, "vote_count": 3, "popularity": 1.295}, {"adult": false, "backdrop_path": "/dlvna1u68OsenLlv4qQ4Ee8S4ci.jpg", "genre_ids": [35, 10749], "id": 542276, "original_language": "ml", "original_title": "\u0d12\u0d30\u0d41 \u0d2a\u0d34\u0d2f \u0d2c\u0d4b\u0d02\u0d2c\u0d41 \u0d15\u0d25", "overview": "Disabled Sreekuttan and his buddy Bhavyan are a simpletons without many dreams. However, the duo will not tolerate insults and humiliation. After being disgraced by a newly-joined police officer in their village, they set out to take revenge.", "poster_path": "/vMSGmUWHiwWLWyh4jhHlvWRaPpc.jpg", "release_date": "2018-07-20", "title": "Oru Pazhaya Bomb Kadha", "video": false, "vote_average": 5.3, "vote_count": 3, "popularity": 1.279}, {"id": 572680, "video": false, "vote_count": 3, "vote_average": 2.7, "title": "Irupathiyonnaam Noottaandu", "release_date": "2019-01-25", "original_language": "ml", "original_title": "\u0d07\u0d30\u0d41\u0d2a\u0d4d\u0d2a\u0d2f\u0d4d\u0d2f\u0d3f\u0d2f\u0d28\u0d4d\u0d28\u0d23\u0d02 \u0d28\u0d42\u0d31\u0d4d\u0d31\u0d3e\u0d23\u0d28\u0d4d\u0d26\u0d4d", "genre_ids": [28, 12, 18], "backdrop_path": "/1GgBjPULXL7q7svfHB4AIeHzUVL.jpg", "adult": false, "overview": "Appu is a young homestay owner in Goa. He lives with his father, mother and younger sister. His father Baba is a retired goon who got tricked and surpassed by Abusi one of his followers. Amidst all the problems caused by his friend Macroni, Baba and Abusi, a young Malayali girl Zaya comes into his life on a Russian New Year eve. How her relationship with Appu affects his life is the soul of the film.", "poster_path": "/7URrg8LPWUtKSwnmIbLz9q6X9Qm.jpg", "popularity": 1.789}, {"adult": false, "backdrop_path": "/imQ8sYu5KZAxX81fTbbrMSUHr3X.jpg", "genre_ids": [53], "id": 522621, "original_language": "ml", "original_title": "\u0d1a\u0d3e\u0d23\u0d15\u0d4d\u0d2f\u0d24\u0d28\u0d4d\u0d24\u0d4d\u0d30\u0d02", "overview": "A fresh-out-of-college criminologist, finds himself pit against an evil mastermind, whom he has can only outdo by using his wits and courage.", "poster_path": "/2XbYfUO5um2bvhVIrobvqsOMX4l.jpg", "release_date": "2018-05-03", "title": "Chanakyathanthram", "video": false, "vote_average": 3.5, "vote_count": 3, "popularity": 1.605}, {"adult": false, "backdrop_path": "/7J873nhAnyBY2PXUJan1w0TWxe4.jpg", "genre_ids": [12, 35], "id": 497369, "original_language": "ml", "original_title": "\u0d36\u0d3f\u0d15\u0d4d\u0d15\u0d3e\u0d30\u0d3f \u0d36\u0d02\u0d2d\u0d41", "overview": "When an entire village is terrorised by the news of a tiger on the loose, they turn to Peeli and his jolly gang of friends for help. but has he got it in him to stop the dreaded predator from wreaking more havoc?", "poster_path": "/uWz6x42KmGTk6Rj5e9gHysFfLpd.jpg", "release_date": "2018-01-20", "title": "Shikkari Shambhu", "video": false, "vote_average": 5.5, "vote_count": 4, "popularity": 1.384}, {"adult": false, "backdrop_path": "/xVzebxhBXGhaVSu9Gf6rGktywIJ.jpg", "genre_ids": [35, 18], "id": 470443, "original_language": "ml", "original_title": "\u0d2a\u0d41\u0d33\u0d4d\u0d33\u0d3f\u0d15\u0d4d\u0d15\u0d3e\u0d30\u0d28\u0d4d\u200d \u0d38\u0d4d\u0d31\u0d4d\u0d31\u0d3e\u0d31\u0d3e", "overview": "Rajakumaran, a talented teacher and also a trainer for other teaching staff. His way of communication and the method he adopts while teaching, makes him everybody's favorite. The story takes a turn when two women from two different generations come across his life and change it for the better or worse.", "poster_path": "/6WPFkk7IOWiLDDabzaCZRnDSAjK.jpg", "release_date": "2017-09-01", "title": "Pullikaran Staraa", "video": false, "vote_average": 4.9, "vote_count": 4, "popularity": 0.729}], "total_pages": 1, "total_results": 6}, "credits": {"cast": [{"cast_id": 0, "character": "Derick Abraham", "credit_id": "5b25f80d9251410d6a009e7e", "gender": 2, "id": 124111, "name": "Mammootty", "order": 0, "profile_path": "/vfGx5lIbhp9s8hWUnqsGlR9aVLu.jpg"}, {"cast_id": 4, "character": "Philip Abraham", "credit_id": "5b28eb54c3a36847d1004138", "gender": 0, "id": 1657965, "name": "Anson Paul", "order": 1, "profile_path": "/tuuQTQFh4qMY7EOP9rgVlz0Y57y.jpg"}, {"cast_id": 5, "character": "Narayana Sethupathi", "credit_id": "5b28eb690e0a2659d4004bbb", "gender": 2, "id": 1187400, "name": "Yoge Jappie", "order": 2, "profile_path": "/m767UNdlU1C5fFQX1mFBdEZLCvg.jpg"}, {"cast_id": 6, "character": "Dinesh", "credit_id": "5b28eb789251412c89005087", "gender": 2, "id": 111668, "name": "Siddique", "order": 3, "profile_path": "/tMv7QsmYlXAXtP75D3eIxXHpgTv.jpg"}, {"cast_id": 7, "character": "Shahul Muhammed IPS", "credit_id": "5b28eb86c3a36847cc00477b", "gender": 2, "id": 1199187, "name": "Renji Panicker", "order": 4, "profile_path": "/5MGztWs1yxlptGDzeofC2jG7cAm.jpg"}, {"cast_id": 1, "character": "Diana Joseph", "credit_id": "5b25f848c3a36841d100af51", "gender": 1, "id": 1071556, "name": "Kaniha", "order": 5, "profile_path": "/3CO0eoxm1haZTDvuCrk245TW9Qi.jpg"}, {"cast_id": 9, "character": "Sukumaran", "credit_id": "5b28eb9f0e0a2659cb003abc", "gender": 2, "id": 1088644, "name": "Kalabhavan Shajon", "order": 6, "profile_path": "/ntIFoHFZMIP51VcUIm0qJvVZA10.jpg"}, {"cast_id": 8, "character": "Joseph Esthappan", "credit_id": "5b28eb92c3a36847b00050b4", "gender": 2, "id": 1274873, "name": "Sijoy Varghese", "order": 7, "profile_path": "/vjxFgJUNBlP69bnTUAsoR5Qgggy.jpg"}, {"cast_id": 10, "character": "Johnny", "credit_id": "5b28ebb09251412c6a00436c", "gender": 2, "id": 141074, "name": "Suresh Krishna", "order": 8, "profile_path": "/hQ4TZgh8IuUh1LJtxCRmUY45fo6.jpg"}, {"cast_id": 12, "character": "Arun", "credit_id": "5b28ebc69251412c5400480a", "gender": 0, "id": 1174439, "name": "Maqbool Salmaan", "order": 9, "profile_path": "/kDQKiSozwqxuDEQBNP2ixeioZCF.jpg"}, {"cast_id": 13, "character": "Issac", "credit_id": "5b28ebd8c3a36847c6004e25", "gender": 0, "id": 931521, "name": "Shyamaprasad", "order": 10, "profile_path": "/iCR3qgcZQW5R5A8j1iEivA7V4Bv.jpg"}, {"cast_id": 11, "character": "Simon", "credit_id": "5b28ebbbc3a36847b6004c1a", "gender": 2, "id": 1544619, "name": "Sudev Nair", "order": 11, "profile_path": "/5bvxZ56C6XmgzlDHCgj9YVMTObR.jpg"}, {"cast_id": 14, "character": "Jalal", "credit_id": "5b28ebe69251412c710046e3", "gender": 2, "id": 580846, "name": "I. M. Vijayan", "order": 13, "profile_path": "/1NlWRwfOXHaguLhtp0ZrKG0aIPi.jpg"}], "crew": [{"credit_id": "5b28ec29c3a36847c0004ae2", "department": "Editing", "gender": 0, "id": 1118113, "job": "Editor", "name": "Mahesh Narayanan", "profile_path": null}, {"credit_id": "5b28ec1ec3a36847cc0047a5", "department": "Camera", "gender": 0, "id": 1186680, "job": "Director of Photography", "name": "Alby", "profile_path": null}, {"credit_id": "5b28ec109251412c890050bd", "department": "Sound", "gender": 2, "id": 1198764, "job": "Original Music Composer", "name": "Gopi Sunder", "profile_path": "/wfMEDekbAN0gOxvSTgSTGBfCN6b.jpg"}, {"credit_id": "5b25f8d9c3a36841e100cf98", "department": "Writing", "gender": 0, "id": 1717375, "job": "Writer", "name": "Haneef Adeni", "profile_path": "/jsuiJYAvw5pGnkK9hMNg0ddtPm7.jpg"}, {"credit_id": "5b25f8749251410d5c00c14a", "department": "Directing", "gender": 0, "id": 2066435, "job": "Director", "name": "Shaji Padoor", "profile_path": null}]}}