{"adult": false, "backdrop_path": "/pJwYrv2Fd6ExsPzTNiRusmjjpTn.jpg", "belongs_to_collection": null, "budget": 0, "genres": [{"id": 27, "name": "Horror"}, {"id": 14, "name": "Fantasy"}], "homepage": "https://www.flixhouseglobal.com/movie/dracula-in-love/", "id": 535280, "imdb_id": "tt7830584", "original_language": "en", "original_title": "Dracula in Love", "overview": "Leila, a lonely young soul spends the night partying with her friends Nancy, David and Nash in a warehouse. As the boys drink up and smoke pot all social barriers between the sexes crumble. Leila, hit on by both men, hides away from them. Alone she senses there is someone else who wants her and certainly he is not of this world. A 200 year old Dracula escapes from a crate and reveals himself to Leila and tells her that she is his lost love. For him to live again and be with her, she must bring him the blood of her friends to drink and make love to him. Hypnotized by his sexual powers, Leila does as she is told. Leila and a handsome young Dracula get away and live happily ever after.", "popularity": 7.139, "poster_path": "/zLexTw5yhZHcWX5XCqKOdy10FTB.jpg", "production_companies": [{"id": 28738, "logo_path": null, "name": "Hand 'n' Hand Films", "origin_country": ""}], "production_countries": [{"iso_3166_1": "CA", "name": "Canada"}], "release_date": "2018-07-11", "revenue": 0, "runtime": 83, "spoken_languages": [{"iso_639_1": "en", "name": "English"}], "status": "Released", "tagline": "Sex, Drugs, Rock & Roll... Dracula, and Then You Die!", "title": "Dracula in Love", "video": false, "vote_average": 5.5, "vote_count": 8, "keywords": {"keywords": [{"id": 567, "name": "alcohol"}, {"id": 3133, "name": "vampire"}, {"id": 10776, "name": "marijuana"}, {"id": 11221, "name": "blood"}, {"id": 157892, "name": "warehouse"}, {"id": 160269, "name": "lost love"}, {"id": 215285, "name": "crate"}, {"id": 227056, "name": "hypnotize"}]}, "similar": {"page": 1, "results": [{"adult": false, "backdrop_path": "/ysLIi9nzMbUqi4dQh3tqblUb27o.jpg", "genre_ids": [878, 28, 27, 53, 12, 14], "id": 36648, "original_language": "en", "original_title": "Blade: Trinity", "overview": "For years, Blade has fought against the vampires in the cover of the night. But now, after falling into the crosshairs of the FBI, he is forced out into the daylight, where he is driven to join forces with a clan of human vampire hunters he never knew existed\u2014The Nightstalkers. Together with Abigail and Hannibal, two deftly trained Nightstalkers, Blade follows a trail of blood to the ancient creature that is also hunting him\u2014the original vampire, Dracula.", "poster_path": "/4WinsdHQBdh5aTt7Bd7T7dbUXbb.jpg", "release_date": "2004-12-08", "title": "Blade: Trinity", "video": false, "vote_average": 5.8, "vote_count": 2278, "popularity": 19.358}, {"adult": false, "backdrop_path": "/99Z7mNsixJJTn10tHLCtu6XcY6E.jpg", "genre_ids": [53, 27], "id": 10577, "original_language": "en", "original_title": "Dracula 2000", "overview": "In the millenium version of this classic Gothic horror we find Abraham Van Helsing, who has tangled with Count Dracula in the past, working as an English antiques dealer. Simon is a vampire hunter in training under his apprenticeship.", "poster_path": "/6YF56U91zP1mQvle83KA1A7CPop.jpg", "release_date": "2000-12-22", "title": "Dracula 2000", "video": false, "vote_average": 4.7, "vote_count": 317, "popularity": 11.748}, {"id": 49017, "video": false, "vote_count": 4003, "vote_average": 6.3, "title": "Dracula Untold", "release_date": "2014-10-01", "original_language": "en", "original_title": "Dracula Untold", "genre_ids": [28, 18, 14, 27, 10752], "backdrop_path": "/gy5ItoprIPOT7Z1c2YhNhart39l.jpg", "adult": false, "overview": "Vlad Tepes is a great hero, but when he learns the Sultan is preparing for battle and needs to form an army of 1,000 boys, he vows to find a way to protect his family. Vlad turns to dark forces in order to get the power to destroy his enemies and agrees to go from hero to monster as he's turned into the mythological vampire, Dracula.", "poster_path": "/4oy4e0DP6LRwRszfx8NY8EYBj8V.jpg", "popularity": 32.104}, {"id": 76492, "video": false, "vote_count": 5547, "vote_average": 6.9, "title": "Hotel Transylvania", "release_date": "2012-09-20", "original_language": "en", "original_title": "Hotel Transylvania", "genre_ids": [16, 35, 14, 10751], "backdrop_path": "/sETTal2HPPkUC3lWc27HL1AFu9C.jpg", "adult": false, "overview": "Welcome to Hotel Transylvania, Dracula's lavish five-stake resort, where monsters and their families can live it up and no humans are allowed. One special weekend, Dracula has invited all his best friends to celebrate his beloved daughter Mavis's 118th birthday. For Dracula catering to all of these legendary monsters is no problem but the party really starts when one ordinary guy stumbles into the hotel and changes everything!", "poster_path": "/9qugesYpAWHUpdrw2w8URSGkAPt.jpg", "popularity": 31.161}, {"id": 7131, "video": false, "vote_count": 3395, "vote_average": 6.1, "title": "Van Helsing", "release_date": "2004-05-05", "original_language": "en", "original_title": "Van Helsing", "genre_ids": [28, 12, 27], "backdrop_path": "/sib4pGrwKQUbFRyHlhXv03HXoHj.jpg", "adult": false, "overview": "Famed monster slayer Gabriel Van Helsing is dispatched to Transylvania to assist the last of the Valerious bloodline in defeating Count Dracula. Anna Valerious reveals that Dracula has formed an unholy alliance with Dr. Frankenstein's monster and is hell-bent on exacting a centuries-old curse on her family.", "poster_path": "/s2OPT5CZsZBQYAIlO9Mv4AimHvV.jpg", "popularity": 19.526}, {"id": 9373, "video": false, "vote_count": 1414, "vote_average": 6.1, "title": "The Texas Chainsaw Massacre", "release_date": "2003-05-21", "original_language": "en", "original_title": "The Texas Chainsaw Massacre", "genre_ids": [27], "backdrop_path": "/3rTsJ7tIC3LUSRr80PfeLbbCfBA.jpg", "adult": false, "overview": "After picking up a traumatized young hitchhiker, five friends find themselves stalked and hunted by a deformed chainsaw-wielding killer and his family of equally psychopathic killers.", "poster_path": "/gx7FCIOFGxqNyplF3t7qtmUv55g.jpg", "popularity": 19.117}, {"adult": false, "backdrop_path": "/o4psXh7IVD6GFKvBSHjHLzjL2lV.jpg", "genre_ids": [27, 53], "id": 10781, "original_language": "en", "original_title": "The Texas Chainsaw Massacre: The Beginning", "overview": "Chrissie and her friends set out on a road trip for a final fling before one is shipped off to Vietnam. Along the way, bikers harass the foursome and cause an accident that throws Chrissie from the vehicle. The lawman who arrives on the scene kills one of the bikers and brings Chrissie's friends to the Hewitt homestead, where young Leatherface is learning the tools of terror.", "poster_path": "/9elCJIG1TOJ0wew3JVx5ZMkHq5w.jpg", "release_date": "2006-10-06", "title": "The Texas Chainsaw Massacre: The Beginning", "video": false, "vote_average": 6.0, "vote_count": 936, "popularity": 19.211}, {"id": 381288, "video": false, "vote_count": 11449, "vote_average": 7.3, "title": "Split", "release_date": "2017-01-19", "original_language": "en", "original_title": "Split", "genre_ids": [27, 53], "backdrop_path": "/9pkZesKMnblFfKxEhQx45YQ2kIe.jpg", "adult": false, "overview": "Though Kevin has evidenced 23 personalities to his trusted psychiatrist, Dr. Fletcher, there remains one still submerged who is set to materialize and dominate all the others. Compelled to abduct three teenage girls led by the willful, observant Casey, Kevin reaches a war for survival among all of those contained within him \u2014 as well as everyone around him \u2014 as the walls between his compartments shatter apart.", "poster_path": "/rXMWOZiCt6eMX22jWuTOSdQ98bY.jpg", "popularity": 39.624}, {"id": 36647, "video": false, "vote_count": 3460, "vote_average": 6.6, "title": "Blade", "release_date": "1998-08-21", "original_language": "en", "original_title": "Blade", "genre_ids": [28, 27], "backdrop_path": "/dGnDGHD5vmaRow4BzAiuJaGwIz3.jpg", "adult": false, "overview": "When Blade's mother was bitten by a vampire during pregnancy, she did not know that she gave her son a special gift while dying\u2014all the good vampire attributes in combination with the best human skills. Blade and his mentor battle an evil vampire rebel who plans to take over the outdated vampire council, capture Blade and resurrect a voracious blood god.", "poster_path": "/hEXJCBVZYWT8qBMwGJoSsvtnVhr.jpg", "popularity": 30.575}, {"id": 400155, "video": false, "vote_count": 1998, "vote_average": 6.8, "title": "Hotel Transylvania 3: Summer Vacation", "release_date": "2018-06-28", "original_language": "en", "original_title": "Hotel Transylvania 3: Summer Vacation", "genre_ids": [16, 35, 14, 10751], "backdrop_path": "/m03jul0YdVEOFXEQVUv6pOVQYGL.jpg", "adult": false, "overview": "Dracula, Mavis, Johnny and the rest of the Drac Pack take a vacation on a luxury Monster Cruise Ship, where Dracula falls in love with the ship\u2019s captain, Ericka, who\u2019s secretly a descendant of Abraham Van Helsing, the notorious monster slayer.", "poster_path": "/gjAFM4xhA5vyLxxKMz38ujlUfDL.jpg", "popularity": 27.772}, {"id": 9945, "video": false, "vote_count": 533, "vote_average": 6.1, "title": "Vampires", "release_date": "1998-10-30", "original_language": "en", "original_title": "Vampires", "genre_ids": [28, 18, 14, 27, 53, 37], "backdrop_path": "/rFCx9xDNgywf1A5hsBbic0C0ihd.jpg", "adult": false, "overview": "The church enlists a team of vampire-hunters to hunt down and destroy a group of vampires searching for an ancient relic that will allow them to exist in sunlight.", "poster_path": "/qHGawU64MeGvtU86s6V0MA7MqFV.jpg", "popularity": 9.529}, {"adult": false, "backdrop_path": "/o4lpqMqDQGx4RVorWzcHnSaDeRo.jpg", "genre_ids": [27], "id": 1690, "original_language": "en", "original_title": "Hostel", "overview": "Three backpackers head to a Slovakian city that promises to meet their hedonistic expectations, with no idea of the hell that awaits them.", "poster_path": "/zF3pEs1CUbjPgioxDH4h2MEHsWl.jpg", "release_date": "2006-01-06", "title": "Hostel", "video": false, "vote_average": 5.8, "vote_count": 2026, "popularity": 16.556}, {"id": 12110, "video": false, "vote_count": 476, "vote_average": 5.9, "title": "Dracula: Dead and Loving It", "release_date": "1995-12-22", "original_language": "en", "original_title": "Dracula: Dead and Loving It", "genre_ids": [35, 14, 27], "backdrop_path": "/y7N276seR43H31xvDbWMWxEsDr.jpg", "adult": false, "overview": "When a lawyer shows up at the vampire's doorstep, he falls prey to his charms and joins him in his search for fresh blood. Enter Professor Van Helsing, who may be the only one able to vanquish the Count.", "poster_path": "/xve4cgfYItnOhtzLYoTwTVy5FGr.jpg", "popularity": 14.191}, {"id": 298250, "video": false, "vote_count": 2120, "vote_average": 6.1, "title": "Jigsaw", "release_date": "2017-10-26", "original_language": "en", "original_title": "Jigsaw", "genre_ids": [80, 27, 9648, 53], "backdrop_path": "/e3ofKYdZ3jgNYuCriE5AAsHp4L6.jpg", "adult": false, "overview": "Dead bodies begin to turn up all over the city, each meeting their demise in a variety of grisly ways. All investigations begin to point the finger at deceased killer John Kramer.", "poster_path": "/2mUqHJG7ZiGwZYIylczFCsRPbXM.jpg", "popularity": 18.577}, {"id": 38321, "video": false, "vote_count": 1300, "vote_average": 5.6, "title": "Priest", "release_date": "2011-05-05", "original_language": "en", "original_title": "Priest", "genre_ids": [28, 27, 53], "backdrop_path": "/7pCsrkl7yPNFU7wIuWy52wdAFQs.jpg", "adult": false, "overview": "In an alternate world, humanity and vampires have warred for centuries. After the last Vampire War, the veteran Warrior Priest lives in obscurity with other humans inside one of the Church's walled cities. When the Priest's niece is kidnapped by vampires, the Priest breaks his vows to hunt them down. He is accompanied by the niece's boyfriend, who is a wasteland sheriff, and a former Warrior Priestess.", "poster_path": "/pE28BDqICBPe3FgphsYSxtH6FcZ.jpg", "popularity": 14.86}, {"id": 588, "video": false, "vote_count": 2408, "vote_average": 6.4, "title": "Silent Hill", "release_date": "2006-04-21", "original_language": "en", "original_title": "Silent Hill", "genre_ids": [27, 9648], "backdrop_path": "/6tfW4BjdgwuYSD7gaEMEEPoDcpH.jpg", "adult": false, "overview": "The eerie and deserted ghost town of Silent Hill draws a young mother desperate to find a cure for her only child's illness. Unable to accept the doctor's diagnosis that her daughter should be permanently institutionalized for psychiatric care, Rose flees with her child, heading for the abandoned town in search of answers \u2013 and ignoring the protests of her husband. It's soon clear this place is unlike anywhere she's ever been. It's smothered by fog, inhabited by a variety of strange beings and periodically overcome by a living 'darkness' that literally transforms everything it touches. As Rose searches for her little girl, she begins to learn the history of the strange town and realizes that her daughter is just a pawn in a larger game.", "poster_path": "/4Zz9cF8S4E7DITosNYh3spybYJb.jpg", "popularity": 20.72}, {"id": 301846, "video": false, "vote_count": 238, "vote_average": 5.2, "title": "Howl", "release_date": "2015-10-01", "original_language": "en", "original_title": "Howl", "genre_ids": [27], "backdrop_path": "/f6zcd6ZVviZnCdjqdtZtWKTNDDM.jpg", "adult": false, "overview": "When passengers on a train are attacked by a creature, they must band together in order to survive until morning.", "poster_path": "/sGEOC8x0lXSlIV4hoIZjnOnze9e.jpg", "popularity": 11.373}, {"id": 138, "video": false, "vote_count": 542, "vote_average": 7.2, "title": "Dracula", "release_date": "1931-02-12", "original_language": "en", "original_title": "Dracula", "genre_ids": [14, 27], "backdrop_path": "/ouPAQD01ZOsdsZTNgxJ0J3mo6qK.jpg", "adult": false, "overview": "The legend of vampire Count Dracula begins here with this original 1931 Dracula film starring Bela Lugosi.", "poster_path": "/hA9kQrIwDHJKl1pt8GpJdDnBzim.jpg", "popularity": 10.423}, {"id": 133121, "video": false, "vote_count": 360, "vote_average": 6.5, "title": "Resident Evil: Damnation", "release_date": "2012-09-25", "original_language": "en", "original_title": "Biohazard: Damnation", "genre_ids": [16, 27], "backdrop_path": "/6pRNDb0yStxlwhavn2ZqYRVFOJ5.jpg", "adult": false, "overview": "U.S. federal agent Leon S. Kennedy sneaks into the \"East Slavic Republic\" to verify rumors that Bio-Organic Weapons (BOWs) are being used in the country's civil war, which the U.S. and Russia are making preparations to jointly intervene in. Right after his infiltration, the U.S. government orders him to leave immediately. Determined to uncover the truth, Leon ignores the order and enters the battlefield to end the chain of tragedies caused by the BOWs.", "poster_path": "/hj2xHc35cEscP7oj6DqCK6IbNIC.jpg", "popularity": 16.091}, {"adult": false, "backdrop_path": "/k4AVaOboquMcd3zbFSSgCEbzabz.jpg", "genre_ids": [35, 27], "id": 246741, "original_language": "en", "original_title": "What We Do in the Shadows", "overview": "Vampire housemates try to cope with the complexities of modern life and show a newly turned hipster some of the perks of being undead.", "poster_path": "/4bqqrtzY9vVQeEcqyqWfTJWmpD9.jpg", "release_date": "2014-06-19", "title": "What We Do in the Shadows", "video": false, "vote_average": 7.6, "vote_count": 1866, "popularity": 19.487}], "total_pages": 13, "total_results": 260}, "recommendations": {"page": 1, "results": [{"adult": false, "backdrop_path": "/e2bHakNE88tthoDHfh30mLFZZEc.jpg", "genre_ids": [27, 80], "id": 628468, "original_language": "en", "original_title": "The Utah Cabin Murders", "overview": "Two sisters fight for survival when masked intruders invade their vacation cabin.", "poster_path": "/bo24RIoihcmLvcFKQzRLlUyDxmd.jpg", "release_date": "2019-09-03", "title": "The Utah Cabin Murders", "video": false, "vote_average": 5.5, "vote_count": 4, "popularity": 2.923}, {"adult": false, "backdrop_path": "/tMObGH32ZHtMCvO3EppYDA5rXdJ.jpg", "genre_ids": [53], "id": 518200, "original_language": "en", "original_title": "Rideshare", "overview": "Hitch, the most popular Rideshare app, has created safe rides for millions. At least, that's what they want you to think. It was only a matter of time before the story went public. The story of that one night. That one, horrific night.", "poster_path": "/cccSbqLOcLWDC4WQbSh2Fd76OmD.jpg", "release_date": "2018-04-13", "title": "Rideshare", "video": false, "vote_average": 5.1, "vote_count": 7, "popularity": 3.866}, {"adult": false, "backdrop_path": "/oZ5d5xdUrc3G0Ai4tsqFS5N9Gr0.jpg", "genre_ids": [27, 53], "id": 450654, "original_language": "en", "original_title": "Out of the Shadows", "overview": "A newly married detective and his pregnant wife move into their dream home unaware of its dark history. When his wife claims their baby is being tormented by a supernatural force and seeks the help of a renegade demonologist, he must investigate the past to save his family.", "poster_path": "/ikPI9bF9s7jufAi5Q3QcuQjdQVm.jpg", "release_date": "2017-04-29", "title": "Out of the Shadows", "video": false, "vote_average": 8.0, "vote_count": 4, "popularity": 2.52}, {"id": 546391, "video": false, "vote_count": 11, "vote_average": 4.6, "title": "The Dawnseeker", "release_date": "2018-08-16", "original_language": "en", "original_title": "The Dawnseeker", "genre_ids": [878], "backdrop_path": "/A5Zf58zt6liGdWcFCUUgWuQ7cYi.jpg", "adult": false, "overview": "Set in the year 2245 when Earth's sun threatens to wipe out all of humanity, \"The Dawnseeker\" follows five hired mercenaries who travel to an uncharted planet to collect a rare mineral known as stardust to replenish the dying star. After their spaceship crashes on the alien planet, they are stalked and hunted by a creature far more advanced than anything they have ever encountered before.", "poster_path": "/q5zBRzZQkcrHn7PDm6gHChWHhIG.jpg", "popularity": 7.893}, {"id": 533938, "video": false, "vote_count": 12, "vote_average": 4.8, "title": "West of Hell", "release_date": "2018-01-01", "original_language": "en", "original_title": "West of Hell", "genre_ids": [14, 27, 37], "backdrop_path": "/cx7buQxagnvI01Do8Sxh7PSCNwk.jpg", "adult": false, "overview": "A gunslinger, a vengeful ex-slave, and a runaway board a midnight train to Atlanta. They discover that the train is haunted by a sinister force, and must fight to survive the night.", "poster_path": "/oJcuslAltQP7bxAI4J7Jk7dxvbx.jpg", "popularity": 4.323}], "total_pages": 1, "total_results": 5}, "credits": {"cast": [{"cast_id": 0, "character": "Dracula", "credit_id": "5b46681d92514124b4000a45", "gender": 0, "id": 1664611, "name": "Youssef Abed-Alnour", "order": 0, "profile_path": null}, {"cast_id": 3, "character": "Leila", "credit_id": "5b46684792514124b00009c8", "gender": 0, "id": 2082546, "name": "Cailey Muise", "order": 1, "profile_path": null}, {"cast_id": 6, "character": "Nash", "credit_id": "5b4668730e0a266134000a55", "gender": 0, "id": 2082548, "name": "Eyal Simko", "order": 2, "profile_path": null}, {"cast_id": 9, "character": "Nancy", "credit_id": "5b4a502f9251417d0f0139fa", "gender": 0, "id": 2084559, "name": "Amy Cruickshank", "order": 3, "profile_path": null}, {"cast_id": 2, "character": "David", "credit_id": "5b4668380e0a26611e000a2f", "gender": 0, "id": 2082545, "name": "Josh Maltin", "order": 4, "profile_path": null}, {"cast_id": 5, "character": "Stuart", "credit_id": "5b4668650e0a2661280009b8", "gender": 0, "id": 1428544, "name": "Alan K. Sapp", "order": 5, "profile_path": null}, {"cast_id": 4, "character": "Young Dracula", "credit_id": "5b466857c3a36851e9000ae6", "gender": 0, "id": 2082547, "name": "Andre Luis Oliveira", "order": 6, "profile_path": null}], "crew": [{"credit_id": "5b466891c3a3685204000af1", "department": "Directing", "gender": 0, "id": 232119, "job": "Director", "name": "Izidore K. Musallam", "profile_path": null}, {"credit_id": "5b46689a92514124c500088a", "department": "Writing", "gender": 0, "id": 232119, "job": "Writer", "name": "Izidore K. Musallam", "profile_path": null}]}}