{"adult": false, "backdrop_path": "/qe2BU6KfnDrRdAR0QmbUJEkenxT.jpg", "belongs_to_collection": null, "budget": 0, "genres": [{"id": 18, "name": "Drama"}, {"id": 80, "name": "Crime"}], "homepage": "", "id": 537153, "imdb_id": "tt6557356", "original_language": "en", "original_title": "American Pets", "overview": "A young man hatches a diabolical plan to cover-up his Grandma's death.", "popularity": 3.403, "poster_path": "/iaMHx1qWEiwH5L3Z6HK8Xl3jVO8.jpg", "production_companies": [], "production_countries": [{"iso_3166_1": "US", "name": "United States of America"}], "release_date": "2018-07-11", "revenue": 0, "runtime": 86, "spoken_languages": [{"iso_639_1": "en", "name": "English"}], "status": "Released", "tagline": "", "title": "American Pets", "video": false, "vote_average": 6.7, "vote_count": 9, "keywords": {"keywords": [{"id": 5857, "name": "narcism"}, {"id": 7208, "name": "spoiled child"}, {"id": 10123, "name": "dark comedy"}, {"id": 187291, "name": "strange behavior"}, {"id": 198141, "name": "strange person"}, {"id": 221204, "name": "accidental killing"}]}, "similar": {"page": 1, "results": [{"id": 14, "video": false, "vote_count": 7295, "vote_average": 8.0, "title": "American Beauty", "release_date": "1999-09-15", "original_language": "en", "original_title": "American Beauty", "genre_ids": [18], "backdrop_path": "/z5J18ByLeOZ68iORfMXmxeFuwyL.jpg", "adult": false, "overview": "Lester Burnham, a depressed suburban father in a mid-life crisis, decides to turn his hectic life around after developing an infatuation with his daughter's attractive friend.", "poster_path": "/or1MP8BZIAjqWYxPdPX724ydKar.jpg", "popularity": 28.789}, {"adult": false, "backdrop_path": "/2Tawvc0JMmR9nBXD3nhBThTQP2X.jpg", "genre_ids": [53, 18, 80, 27], "id": 1359, "original_language": "en", "original_title": "American Psycho", "overview": "A wealthy New York investment banking executive hides his alternate psychopathic ego from his co-workers and friends as he escalates deeper into his illogical, gratuitous fantasies.", "poster_path": "/qXsylPM4Lr5397R3eHrfqHhTUNc.jpg", "release_date": "2000-04-13", "title": "American Psycho", "video": false, "vote_average": 7.4, "vote_count": 4915, "popularity": 21.511}, {"id": 371638, "video": false, "vote_count": 2190, "vote_average": 7.2, "title": "The Disaster Artist", "release_date": "2017-03-12", "original_language": "en", "original_title": "The Disaster Artist", "genre_ids": [35, 18], "backdrop_path": "/cCIWU5b4izIpLeGQnQNW7iTtIDN.jpg", "adult": false, "overview": "An aspiring actor in Hollywood meets an enigmatic stranger by the name of Tommy Wiseau, the meeting leads the actor down a path nobody could have predicted; creating the worst movie ever made.", "poster_path": "/jj84nF5vYRD0HUTowBKcrKk8hZP.jpg", "popularity": 21.696}, {"id": 935, "video": false, "vote_count": 3106, "vote_average": 8.2, "title": "Dr. Strangelove or: How I Learned to Stop Worrying and Love the Bomb", "release_date": "1964-01-29", "original_language": "en", "original_title": "Dr. Strangelove or: How I Learned to Stop Worrying and Love the Bomb", "genre_ids": [35, 18, 10752], "backdrop_path": "/8Sh5rRcOrBy4AIm3keZ50dOIn4D.jpg", "adult": false, "overview": "After the insane General Jack D. Ripper initiates a nuclear strike on the Soviet Union, a war room full of politicians, generals and a Russian diplomat all frantically try to stop the nuclear strike.", "poster_path": "/tviJ68Wj4glQk3CPMvdvExYHxX.jpg", "popularity": 20.711}, {"adult": false, "backdrop_path": "/hyVHeKqCDwZdvgeFvAFZD2pDcFy.jpg", "genre_ids": [14, 35, 12], "id": 1832, "original_language": "en", "original_title": "Dogma", "overview": "The latest battle in the eternal war between Good and Evil has come to New Jersey in the late, late 20th Century. Angels, demons, apostles and prophets (of a sort) walk among the cynics and innocents of America and duke it out for the fate of humankind.", "poster_path": "/zuJJAEvyiZiddzRx7JRGNDzjP07.jpg", "release_date": "1999-11-12", "title": "Dogma", "video": false, "vote_average": 6.9, "vote_count": 1485, "popularity": 16.863}, {"id": 747, "video": false, "vote_count": 5110, "vote_average": 7.5, "title": "Shaun of the Dead", "release_date": "2004-04-09", "original_language": "en", "original_title": "Shaun of the Dead", "genre_ids": [35, 27], "backdrop_path": "/50mMiR0R1QclaAODTutwXBrReLJ.jpg", "adult": false, "overview": "Shaun lives a supremely uneventful life, which revolves around his girlfriend, his mother, and, above all, his local pub. This gentle routine is threatened when the dead return to life and make strenuous attempts to snack on ordinary Londoners.", "poster_path": "/2evlcGnsfdFWLb7geNlIjIewc0Q.jpg", "popularity": 25.866}, {"adult": false, "backdrop_path": "/vZ7EVk7FaNEWYqlVWbFLHP8Z0LU.jpg", "genre_ids": [9648, 53, 27], "id": 419430, "original_language": "en", "original_title": "Get Out", "overview": "Chris and his girlfriend Rose go upstate to visit her parents for the weekend. At first, Chris reads the family's overly accommodating behavior as nervous attempts to deal with their daughter's interracial relationship, but as the weekend progresses, a series of increasingly disturbing discoveries lead him to a truth that he never could have imagined.", "poster_path": "/rdPGUJhadPg7FGFNzavib0iwTor.jpg", "release_date": "2017-02-24", "title": "Get Out", "video": false, "vote_average": 7.5, "vote_count": 10007, "popularity": 24.396}, {"adult": false, "backdrop_path": "/hkuPAYz0TstcAquVpibaDnADqQS.jpg", "genre_ids": [28, 35], "id": 109414, "original_language": "en", "original_title": "This Is the End", "overview": "While attending a party at James Franco's house, Seth Rogen, Jay Baruchel and many other celebrities are faced with the apocalypse.", "poster_path": "/1rMzHyOsk1b1ddcFJgMSB6kOASu.jpg", "release_date": "2013-06-12", "title": "This Is the End", "video": false, "vote_average": 6.2, "vote_count": 4139, "popularity": 17.805}, {"id": 402897, "video": false, "vote_count": 877, "vote_average": 7.0, "title": "The Death of Stalin", "release_date": "2017-10-20", "original_language": "en", "original_title": "The Death of Stalin", "genre_ids": [35, 36], "backdrop_path": "/tx5TFMF85qU2Ug4TRIGQZbDpzFA.jpg", "adult": false, "overview": "When tyrannical dictator Josef Stalin dies in 1953, his parasitic cronies square off in a frantic power struggle to become the next Soviet leader. Among the contenders are the dweebish Georgy Malenkov, the wily Nikita Khrushchev and Lavrenti Beria, the sadistic secret police chief.", "poster_path": "/xAKqG5SpsHU7vI6Fh4UYxFrDDZZ.jpg", "popularity": 14.095}, {"id": 37495, "video": false, "vote_count": 689, "vote_average": 7.0, "title": "Four Lions", "release_date": "2010-05-07", "original_language": "en", "original_title": "Four Lions", "genre_ids": [35, 80, 18], "backdrop_path": "/mJkhUOqFSYPtugNS8dfRpu0RyCY.jpg", "adult": false, "overview": "Four incompetent British terrorists set out to train for and commit an act of terror.", "poster_path": "/xp500JNCanNW2F2Flw6jLp56M5g.jpg", "popularity": 9.66}, {"id": 68, "video": false, "vote_count": 1807, "vote_average": 7.7, "title": "Brazil", "release_date": "1985-02-20", "original_language": "en", "original_title": "Brazil", "genre_ids": [35, 878], "backdrop_path": "/pVlZBKp8v3Jzd0ahPmrBGlbeQ2s.jpg", "adult": false, "overview": "Low-level bureaucrat Sam Lowry escapes the monotony of his day-to-day life through a recurring daydream of himself as a virtuous hero saving a beautiful damsel. Investigating a case that led to the wrongful arrest and eventual death of an innocent man instead of wanted terrorist Harry Tuttle, he meets the woman from his daydream, and in trying to help her gets caught in a web of mistaken identities, mindless bureaucracy and lies.", "poster_path": "/55Vfc1beLn3pJF4Lw83TRKHenK6.jpg", "popularity": 17.147}, {"adult": false, "backdrop_path": "/ckNp6LPhp1roR8dVI16q5u3LUMg.jpg", "genre_ids": [53, 9648, 27], "id": 463684, "original_language": "en", "original_title": "Velvet Buzzsaw", "overview": "Big money artists and mega-collectors pay a high price when art collides with commerce.\u00a0After a series of paintings by an unknown artist are discovered, a supernatural force enacts revenge on those who have allowed their greed to get in the way of art.", "poster_path": "/3rViQPcrWthMNecp5XnkKev6BzW.jpg", "release_date": "2019-02-01", "title": "Velvet Buzzsaw", "video": false, "vote_average": 5.3, "vote_count": 1092, "popularity": 11.988}, {"adult": false, "backdrop_path": "/nq4fAIN7oIn3NUP4mqZZACmhMAo.jpg", "genre_ids": [18, 80], "id": 96936, "original_language": "en", "original_title": "The Bling Ring", "overview": "Inspired by actual events, a group of fame-obsessed teenagers use the Internet to track celebrities' whereabouts in order to rob their homes.", "poster_path": "/wvgovOj0WR2PrjNII2zR8rIDBhf.jpg", "release_date": "2013-06-12", "title": "The Bling Ring", "video": false, "vote_average": 5.4, "vote_count": 2209, "popularity": 11.299}, {"id": 1023, "video": false, "vote_count": 347, "vote_average": 7.5, "title": "Adam's Apples", "release_date": "2005-04-15", "original_language": "da", "original_title": "Adams \u00e6bler", "genre_ids": [35, 80, 18], "backdrop_path": "/tgtZyxkghTimVYf3uF7kfLsZrGW.jpg", "adult": false, "overview": "A neo-nazi sentenced to community service at a church clashes with the blindly devotional priest.", "poster_path": "/ysLgwV21cnoI9nkWIvdZWqJuwjE.jpg", "popularity": 7.456}, {"adult": false, "backdrop_path": "/rtQKPquRwkk2tpc6LuSg0DrfHpW.jpg", "genre_ids": [10749, 35, 18, 27], "id": 10288, "original_language": "en", "original_title": "Fido", "overview": "Timmy Robinson's best friend in the whole wide world is a six-foot tall rotting zombie named Fido. But when Fido eats the next-door neighbor, Mom and Dad hit the roof, and Timmy has to go to the ends of the earth to keep Fido a part of the family. A boy-and-his-dog movie for grown ups, \"Fido\" will rip your heart out.", "poster_path": "/eHRyjlgv8e66p4fhpQKeo5SpVGq.jpg", "release_date": "2006-09-07", "title": "Fido", "video": false, "vote_average": 6.5, "vote_count": 242, "popularity": 10.897}, {"id": 117974, "video": false, "vote_count": 288, "vote_average": 6.4, "title": "Sightseers", "release_date": "2012-11-30", "original_language": "en", "original_title": "Sightseers", "genre_ids": [12, 35, 80], "backdrop_path": "/xSW4TN3AnzlFBtNGF7XQrTTRjdO.jpg", "adult": false, "overview": "Chris wants to show girlfriend Tina his world, but events soon conspire against the couple and their dream caravan holiday takes a very wrong turn.", "poster_path": "/zyXbeDmxPMbEhoOtzyIBPmGMe8x.jpg", "popularity": 8.16}, {"adult": false, "backdrop_path": "/gxgzKtGaYaykQSQqLfzKy7rwkhv.jpg", "genre_ids": [35, 10749, 18], "id": 16129, "original_language": "en", "original_title": "Last Night", "overview": "Various citizens of Toronto anxiously await the end of the world, which is occurring at the stroke of midnight on New Year's Day.", "poster_path": "/AgzRrFjp2sUrsDtPSkaJzRHMSy5.jpg", "release_date": "1998-10-23", "title": "Last Night", "video": false, "vote_average": 7.0, "vote_count": 68, "popularity": 6.204}, {"id": 283596, "video": false, "vote_count": 90, "vote_average": 6.2, "title": "The Legend of Barney Thomson", "release_date": "2015-07-24", "original_language": "en", "original_title": "The Legend of Barney Thomson", "genre_ids": [35, 18, 53], "backdrop_path": "/aidqlICh9vib4DucUjqRNOmV1f8.jpg", "adult": false, "overview": "Barney Thomson, awkward, diffident, Glasgow barber, lives a life of desperate mediocrity and his uninteresting life is about to go from 0 to 60 in five seconds, as he enters the grotesque and comically absurd world of the serial killer.", "poster_path": "/4CHtIDGCsFTsN1UMI7sohPVkfQB.jpg", "popularity": 7.229}, {"adult": false, "backdrop_path": "/egsrR27PVJgubMOsHIwplsNK7Sc.jpg", "genre_ids": [10402, 35], "id": 15278, "original_language": "en", "original_title": "CB4", "overview": "A \"rockumentary\", covering the rise to fame of MC Gusto, Stab Master Arson, and Dead Mike: members of the rap group \"CB4\". We soon learn that these three are not what they seem and don't apear to know as much about rap music as they claim... but a lack of musical ability in an artist never hurts sales, does it? You've just got to play the part of a rap star...", "poster_path": "/fdRQvWe6qbOqa5xQJYTAdA0tX28.jpg", "release_date": "1993-03-12", "title": "CB4", "video": false, "vote_average": 6.2, "vote_count": 66, "popularity": 11.455}, {"adult": false, "backdrop_path": "/aorPWXGPhteM64CwNoDAM1NYVaJ.jpg", "genre_ids": [18, 35], "id": 30892, "original_language": "en", "original_title": "The Ruling Class", "overview": "When the Earl of Gurney dies in a cross-dressing accident, his schizophrenic son, Jack, inherits the Gurney estate. Jack is not the average nobleman; he sings and dances across the estate and thinks he is Jesus reincarnated. Believing that Jack is mentally unfit to own the estate, the Gurney family plots to steal Jack's inheritance. As their outrageous schemes fail, the family strives to cure Jack of his bizarre behavior, with disastrous results.", "poster_path": "/4TV1qeDMRHwrRudBIMkEF9KHWe4.jpg", "release_date": "1972-09-13", "title": "The Ruling Class", "video": false, "vote_average": 6.9, "vote_count": 45, "popularity": 4.394}], "total_pages": 4, "total_results": 70}, "recommendations": {"page": 1, "results": [{"id": 457041, "video": false, "vote_count": 97, "vote_average": 6.0, "title": "Elizabeth Harvest", "release_date": "2018-08-10", "original_language": "en", "original_title": "Elizabeth Harvest", "genre_ids": [9648, 878, 53], "backdrop_path": "/6On6nMv3PJAjs38cx6LmfesRXgS.jpg", "adult": false, "overview": "The newly married Elizabeth arrives with her new husband, the scientist Henry, at a magnificent house. He tells her that she can do there anything she pleases, except to enter a certain closed room.", "poster_path": "/oiwY0z17ZqCPVSK1plvL11rSKuK.jpg", "popularity": 13.549}, {"adult": false, "backdrop_path": "/gQ6Tw3MPtFI7pN0dE5Cd4t64gvD.jpg", "genre_ids": [35, 53], "id": 490004, "original_language": "en", "original_title": "Arizona", "overview": "Set in the midst of the 2009 housing crisis, the life of Cassie Fowler, a single mother and struggling realtor, goes off the rails when she witnesses a murder.", "poster_path": "/sLqutab3wuUfPBu27rXcoaEd6WD.jpg", "release_date": "2018-08-24", "title": "Arizona", "video": false, "vote_average": 5.5, "vote_count": 86, "popularity": 8.386}], "total_pages": 1, "total_results": 2}, "credits": {"cast": [{"cast_id": 0, "character": "Tod", "credit_id": "5b5431579251411f84028865", "gender": 2, "id": 55899, "name": "Rhys Wakefield", "order": 0, "profile_path": "/wqg6qaNkYUMviXz7irNWJGDdeZB.jpg"}, {"cast_id": 2, "character": "Judy", "credit_id": "5b5431840e0a26231702ba58", "gender": 1, "id": 21818, "name": "Lesley Ann Warren", "order": 1, "profile_path": "/4I5VPyumsxYGKST9b0FL2harYRK.jpg"}, {"cast_id": 10, "character": "Barbara", "credit_id": "5b74dc38c3a3687548007c6b", "gender": 1, "id": 25836, "name": "Sarah Clarke", "order": 2, "profile_path": "/50umNQSJOGuz09Sb6R5BIRP5IoD.jpg"}, {"cast_id": 1, "character": "Lani", "credit_id": "5b5431669251411f8a027ea3", "gender": 1, "id": 576223, "name": "Fabianne Therese", "order": 3, "profile_path": "/3HLRTbikOyRPIZjaFw134ytxknx.jpg"}, {"cast_id": 8, "character": "Halle", "credit_id": "5b74dbe40e0a265c22008b90", "gender": 1, "id": 114372, "name": "Danielle Campbell", "order": 4, "profile_path": "/h3kLxMJT1SL8zfTtQPTd7mYRm8S.jpg"}, {"cast_id": 3, "character": "Jacob", "credit_id": "5b5432389251411f8a027f96", "gender": 2, "id": 134397, "name": "Nathan Keyes", "order": 5, "profile_path": "/rK7RYbHv5QkiQZYdWvrCXCCkMUR.jpg"}, {"cast_id": 11, "character": "Suit #1", "credit_id": "5b74dc7f0e0a265c25007b1d", "gender": 2, "id": 29795, "name": "Jack Plotnick", "order": 6, "profile_path": "/1BeShuLhc2HXZieyGEOVgDssAuR.jpg"}, {"cast_id": 12, "character": "Suit #2", "credit_id": "5b74dc8d9251411d89006d73", "gender": 2, "id": 154648, "name": "Scott Beehner", "order": 7, "profile_path": "/m0dGsMX2dZfPPGCDKHhBSnP510k.jpg"}, {"cast_id": 13, "character": "Celebrity Tour Guide", "credit_id": "5b74dc9f0e0a265c22008c10", "gender": 2, "id": 2065, "name": "David Schneider", "order": 8, "profile_path": "/wLiB2o5hr3au6kXOtpqPuo6Sz1X.jpg"}, {"cast_id": 14, "character": "Mechanic", "credit_id": "5b74dcad9251411da30082c8", "gender": 2, "id": 156283, "name": "Mark Bramhall", "order": 9, "profile_path": "/5s5YO5N5COIO5ctOyTNIrlcwmvE.jpg"}, {"cast_id": 15, "character": "Zebra Handler", "credit_id": "5b74dd53c3a3687548007d47", "gender": 2, "id": 2108294, "name": "Eric Henry", "order": 10, "profile_path": null}, {"cast_id": 16, "character": "Police Officer #1", "credit_id": "5b74dd649251411dad0073bf", "gender": 2, "id": 1055673, "name": "Darren Dupree Washington", "order": 11, "profile_path": "/yJz38KcawEQMG9ijfwPtRMJrK3z.jpg"}, {"cast_id": 17, "character": "Police Officer #2A", "credit_id": "5b74dd749251411d91007009", "gender": 0, "id": 1077890, "name": "Tom Sean Foley", "order": 12, "profile_path": null}, {"cast_id": 18, "character": "Police Officer #2B", "credit_id": "5b74dd8cc3a368754500705e", "gender": 0, "id": 1366695, "name": "Brent Alan Henry", "order": 13, "profile_path": null}, {"cast_id": 19, "character": "Gardener", "credit_id": "5b74dd97c3a3687548007d88", "gender": 2, "id": 98401, "name": "Gino Montesinos", "order": 14, "profile_path": "/1LyJSfm95LRurMdnDPHZ4JmO332.jpg"}, {"cast_id": 20, "character": "Delivery Guy", "credit_id": "5b74dda20e0a265c34007e2a", "gender": 0, "id": 1899598, "name": "Deyo Forteza", "order": 15, "profile_path": null}], "crew": [{"credit_id": "5b74dc040e0a265c22008ba7", "department": "Camera", "gender": 0, "id": 49363, "job": "Director of Photography", "name": "Carlo Jelavic", "profile_path": null}, {"credit_id": "5b5468129251411f8a02b688", "department": "Production", "gender": 1, "id": 967203, "job": "Casting", "name": "Lauren Bass", "profile_path": null}, {"credit_id": "5b54325c0e0a26231f02b846", "department": "Directing", "gender": 0, "id": 1063783, "job": "Director", "name": "Robert Logevall", "profile_path": null}, {"credit_id": "5b5432680e0a26231702bb76", "department": "Writing", "gender": 0, "id": 1193222, "job": "Writer", "name": "Abram Makowka", "profile_path": null}, {"credit_id": "5b5467f59251411f8c02b650", "department": "Production", "gender": 0, "id": 1400876, "job": "Casting", "name": "Jordan Bass", "profile_path": null}]}}