{"adult": false, "backdrop_path": "/ad31BLXxsSDmyZpH1gxQ2d6UT83.jpg", "belongs_to_collection": null, "budget": 0, "genres": [{"id": 12, "name": "Adventure"}, {"id": 35, "name": "Comedy"}, {"id": 14, "name": "Fantasy"}], "homepage": null, "id": 53759, "imdb_id": "tt0001463", "original_language": "en", "original_title": "The Wonderful Wizard of Oz", "overview": "An early version of the classic, based more on the 1902 stage musical than on the original novel.", "popularity": 3.59, "poster_path": "/3uf1JaypnF98PrAUkBXFRcM26SP.jpg", "production_companies": [{"id": 1282, "logo_path": null, "name": "Selig Polyscope Company", "origin_country": ""}], "production_countries": [{"iso_3166_1": "US", "name": "United States of America"}], "release_date": "1910-03-24", "revenue": 0, "runtime": 13, "spoken_languages": [{"iso_639_1": "xx", "name": "No Language"}], "status": "Released", "tagline": "", "title": "The Wonderful Wizard of Oz", "video": false, "vote_average": 5.4, "vote_count": 20, "keywords": {"keywords": [{"id": 154802, "name": "silent film"}, {"id": 246466, "name": "based on young adult novel"}]}, "similar": {"page": 1, "results": [{"id": 901, "video": false, "vote_count": 1026, "vote_average": 8.4, "title": "City Lights", "release_date": "1931-02-01", "original_language": "xx", "original_title": "City Lights", "genre_ids": [35, 18, 10749], "backdrop_path": "/vT6ux2rdyg2kexuLisO5Ygz7pHg.jpg", "adult": false, "overview": "City Lights is the first silent film that Charlie Chaplin directed after he established himself with sound accompanied films. The film is about a penniless man who falls in love with a flower girl.", "poster_path": "/bXNvzjULc9jrOVhGfjcc64uKZmZ.jpg", "popularity": 14.645}, {"adult": false, "backdrop_path": "/wcT7srQ4GeeMqlszMFEtPZ7v8T7.jpg", "genre_ids": [35, 10749], "id": 28978, "original_language": "en", "original_title": "The Circus", "overview": "Charlie, a wandering tramp, becomes a circus handyman and falls in love with the circus owner's daughter. Unaware of Charlie's affection, the girl falls in love with a handsome young performer. Charlie's versatility makes him star of the show when he substitutes for an ailing tightwire walker. He is discharged from the company when he protects the girl from her father's abuse, but he returns and appeals to the handsome performer to marry the girl. After the wedding the father prevails upon them to rejoin the circus. Charlie is hired again, but he stays behind when the caravan moves on.", "poster_path": "/awTf4Y6TGvgi3VYtGNINyyJJy9Q.jpg", "release_date": "1928-01-06", "title": "The Circus", "video": false, "vote_average": 8.2, "vote_count": 330, "popularity": 12.839}, {"adult": false, "backdrop_path": "/hPByrqJXCXIViFheXQh48wtI7T6.jpg", "genre_ids": [16, 12, 14, 10751], "id": 31135, "original_language": "en", "original_title": "Mickey Mouse: Mickey and the Beanstalk", "overview": "Based on the timeless adventures of \"Jack and the Beanstalk,\" Mickey, Donald and Goofy climb a fantastic beanstalk up into the sky to a place where everything is huge -- the food, the castle and the fearsome giant named Willy who guards a beautiful golden harp! Will Mickey and his friends outwit the giant and make it safely back home?", "poster_path": "/kk1Xg1f1lv6loekjlKinpKJlGOu.jpg", "release_date": "1947-09-27", "title": "Mickey Mouse: Mickey and the Beanstalk", "video": false, "vote_average": 6.7, "vote_count": 166, "popularity": 13.649}, {"adult": false, "backdrop_path": "/twGxeStlGooWV3gP6ZIcSNuQ6jf.jpg", "genre_ids": [12, 16, 10751, 14], "id": 81684, "original_language": "en", "original_title": "The Gruffalo's Child", "overview": "A follow up to the 2009 animated feature and adapted from the childrens' book by Julia Donaldson and Alex Scheffler.  The Gruffalo's child explores the deep dark wood in search of the big bad mouse and meets the Snake, Owl and Fox in the process.  She eventually finds the mouse, who manages to outwit her like the Gruffalo before!", "poster_path": "/qaGH2AoaLvoGXURQtNzj1nw6oZd.jpg", "release_date": "2011-12-25", "title": "The Gruffalo's Child", "video": false, "vote_average": 6.9, "vote_count": 73, "popularity": 9.51}, {"id": 2454, "video": false, "vote_count": 3954, "vote_average": 6.5, "title": "The Chronicles of Narnia: Prince Caspian", "release_date": "2008-05-15", "original_language": "en", "original_title": "The Chronicles of Narnia: Prince Caspian", "genre_ids": [12, 14, 10751], "backdrop_path": "/eiET76GO3xECOic1rL8VcTLuy3L.jpg", "adult": false, "overview": "One year after their incredible adventures in the Lion, the Witch and the Wardrobe, Peter, Edmund, Lucy and Susan Pevensie return to Narnia to aid a young prince whose life has been threatened by the evil King Miraz. Now, with the help of a colorful cast of new characters, including Trufflehunter the badger and Nikabrik the dwarf, the Pevensie clan embarks on an incredible quest to ensure that Narnia is returned to its rightful heir.", "poster_path": "/kSSyzqw9C4wUggicG4D81XmptR1.jpg", "popularity": 23.366}, {"id": 50619, "video": false, "vote_count": 5595, "vote_average": 6.0, "title": "The Twilight Saga: Breaking Dawn - Part 1", "release_date": "2011-03-15", "original_language": "en", "original_title": "The Twilight Saga: Breaking Dawn - Part 1", "genre_ids": [12, 14, 10749], "backdrop_path": "/fwhRNjMmwqeGH35eQonSPmQs2ah.jpg", "adult": false, "overview": "The new found married bliss of Bella Swan and vampire Edward Cullen is cut short when a series of betrayals and misfortunes threatens to destroy their world.", "poster_path": "/dSSzv6JrlwS48pBeTNSswLJXOYF.jpg", "popularity": 22.3}, {"id": 50620, "video": false, "vote_count": 5631, "vote_average": 6.3, "title": "The Twilight Saga: Breaking Dawn - Part 2", "release_date": "2012-11-13", "original_language": "en", "original_title": "The Twilight Saga: Breaking Dawn - Part 2", "genre_ids": [12, 18, 14, 10749], "backdrop_path": "/xDWphxQqBfZJVlTrg6C0GQBSeUc.jpg", "adult": false, "overview": "After the birth of Renesmee, the Cullens gather other vampire clans in order to protect the child from a false allegation that puts the family in front of the Volturi.", "poster_path": "/kJQPygYB8aNEevZZHRifyYrAdU9.jpg", "popularity": 21.925}, {"id": 2268, "video": false, "vote_count": 2953, "vote_average": 6.0, "title": "The Golden Compass", "release_date": "2007-12-04", "original_language": "en", "original_title": "The Golden Compass", "genre_ids": [12, 14], "backdrop_path": "/qUDa6F6qDp6zcQcw3yuR6Ysc77d.jpg", "adult": false, "overview": "After overhearing a shocking secret, precocious orphan Lyra Belacqua trades her carefree existence roaming the halls of Jordan College for an otherworldly adventure in the far North, unaware that it's part of her destiny.", "poster_path": "/97dPFOvgUb5Q8LjRNt8u6lbJSfp.jpg", "popularity": 19.047}, {"id": 76285, "video": false, "vote_count": 3422, "vote_average": 5.9, "title": "Percy Jackson: Sea of Monsters", "release_date": "2013-08-07", "original_language": "en", "original_title": "Percy Jackson: Sea of Monsters", "genre_ids": [12, 14, 10751], "backdrop_path": "/3NK02PLJSs01SY1hsXUAcqbG3WP.jpg", "adult": false, "overview": "In their quest to confront the ultimate evil, Percy and his friends battle swarms of mythical creatures to find the mythical Golden Fleece and to stop an ancient evil from rising.", "poster_path": "/k1bhUW7XM5X0yD3iewAEvloFBEo.jpg", "popularity": 17.468}, {"id": 24021, "video": false, "vote_count": 5444, "vote_average": 6.1, "title": "The Twilight Saga: Eclipse", "release_date": "2010-06-23", "original_language": "en", "original_title": "The Twilight Saga: Eclipse", "genre_ids": [12, 18, 14, 10749], "backdrop_path": "/lKCZYVQQb7Agw6WR25WvQBFKJmK.jpg", "adult": false, "overview": "Bella once again finds herself surrounded by danger as Seattle is ravaged by a string of mysterious killings and a malicious vampire continues her quest for revenge. In the midst of it all, she is forced to choose between her love for Edward and her friendship with Jacob, knowing that her decision has the potential to ignite the ageless struggle between vampire and werewolf. With her graduation quickly approaching, Bella is confronted with the most important decision of her life.", "poster_path": "/sOpCY4by0bkEu9LbVXVCOpWWKzF.jpg", "popularity": 21.716}, {"id": 466282, "video": false, "vote_count": 5270, "vote_average": 7.9, "title": "To All the Boys I've Loved Before", "release_date": "2018-08-16", "original_language": "en", "original_title": "To All the Boys I've Loved Before", "genre_ids": [35, 10749], "backdrop_path": "/uZTtVdOEIwPA6vwVRI3217DoPM.jpg", "adult": false, "overview": "Lara Jean's love life goes from imaginary to out of control when her secret letters to every boy she's ever fallen for are mysteriously mailed out.", "poster_path": "/hKHZhUbIyUAjcSrqJThFGYIR6kI.jpg", "popularity": 35.427}, {"adult": false, "backdrop_path": "/ncERp0UvXuImUeJcf27kEANcf1r.jpg", "genre_ids": [35, 10751, 10749], "id": 9880, "original_language": "en", "original_title": "The Princess Diaries", "overview": "A socially awkward but very bright 15-year-old girl being raised by a single mom discovers that she is the princess of a small European country because of the recent death of her long-absent father, who, unknown to her, was the crown prince of Genovia. She must make a choice between continuing the life of a San Francisco teen or stepping up to the throne.", "poster_path": "/sxpvHk286sXLJWcFrBMNIsXbYsd.jpg", "release_date": "2001-08-03", "title": "The Princess Diaries", "video": false, "vote_average": 6.8, "vote_count": 2861, "popularity": 30.076}, {"id": 454983, "video": false, "vote_count": 3909, "vote_average": 7.2, "title": "The Kissing Booth", "release_date": "2018-05-11", "original_language": "en", "original_title": "The Kissing Booth", "genre_ids": [35, 10749], "backdrop_path": "/xEKx7zPEjN6meomZ7OhV82Mm2jm.jpg", "adult": false, "overview": "When teenager Elle's first kiss leads to a forbidden romance with the hottest boy in high school, she risks her relationship with her best friend.", "poster_path": "/7Dktk2ST6aL8h9Oe5rpk903VLhx.jpg", "popularity": 28.208}, {"id": 283366, "video": false, "vote_count": 6766, "vote_average": 6.7, "title": "Miss Peregrine's Home for Peculiar Children", "release_date": "2016-09-28", "original_language": "en", "original_title": "Miss Peregrine's Home for Peculiar Children", "genre_ids": [12, 18, 14, 10751], "backdrop_path": "/iiWLJMRaEjaBf4WFmKAktn0IfbF.jpg", "adult": false, "overview": "A teenager finds himself transported to an island where he must help protect a group of orphans with special powers from creatures intent on destroying them.", "poster_path": "/AvekzUdI8HZnImdQulmTTmAZXrC.jpg", "popularity": 28.505}, {"id": 123553, "video": false, "vote_count": 3198, "vote_average": 6.3, "title": "The Mortal Instruments: City of Bones", "release_date": "2013-08-21", "original_language": "en", "original_title": "The Mortal Instruments: City of Bones", "genre_ids": [28, 12, 18, 14, 9648, 10749], "backdrop_path": "/xIisiN3GxiOMpYQOYarzWlgpDNT.jpg", "adult": false, "overview": "In New York City, Clary Fray, a seemingly ordinary teenager, learns that she is descended from a line of Shadowhunters \u2014 half-angel warriors who protect humanity from evil forces. After her mother disappears, Clary joins forces with a group of Shadowhunters and enters Downworld, an alternate realm filled with demons, vampires, and a host of other creatures. Clary and her companions must find and protect an ancient cup that holds the key to her mother's future.", "poster_path": "/xOBuyMuqc5lDNfxz6ipFjrxd38X.jpg", "popularity": 20.181}, {"id": 272693, "video": false, "vote_count": 3249, "vote_average": 6.8, "title": "The DUFF", "release_date": "2015-02-20", "original_language": "en", "original_title": "The DUFF", "genre_ids": [35, 10749], "backdrop_path": "/awGZf5T1hflis9Z2KvRMhp798xU.jpg", "adult": false, "overview": "Bianca's universe turns upside down when she learns that her high school refers to her as a \u2018DUFF' (Designated Ugly Fat Friend). Hoping to erase that label, she enlists the help of a charming jock and her favorite teacher. Together they'll face the school's mean girl and remind everyone that we are all someone's DUFF\u2026 and that's totally fine.", "poster_path": "/dBBgPTCN5Zze4POXWVVpwf3wkra.jpg", "popularity": 17.232}, {"id": 75612, "video": false, "vote_count": 7401, "vote_average": 6.5, "title": "Oblivion", "release_date": "2013-04-10", "original_language": "en", "original_title": "Oblivion", "genre_ids": [28, 12, 9648, 878], "backdrop_path": "/8TE77jL2e4zdERpv8hnBAHUmFRx.jpg", "adult": false, "overview": "Jack Harper is one of the last few drone repairmen stationed on Earth.  Part of a massive operation to extract vital resources after decades of war with a terrifying threat known as the Scavs, Jack\u2019s mission is nearly complete.  His existence is brought crashing down when he rescues a beautiful  stranger from a downed spacecraft.  Her arrival triggers a chain of events that  forces him to question everything he knows and puts the fate of humanity in his hands.", "poster_path": "/hmOzkHlkGvi8x24fYpFSnXvjklv.jpg", "popularity": 34.598}, {"id": 157336, "video": false, "vote_count": 20609, "vote_average": 8.3, "title": "Interstellar", "release_date": "2014-11-05", "original_language": "en", "original_title": "Interstellar", "genre_ids": [12, 18, 878], "backdrop_path": "/xu9zaAevzQ5nnrsXN6JcahLnG4i.jpg", "adult": false, "overview": "Interstellar chronicles the adventures of a group of explorers who make use of a newly discovered wormhole to surpass the limitations on human space travel and conquer the vast distances involved in an interstellar voyage.", "poster_path": "/nBNZadXqJSdt05SHLqgT0HuC5Gm.jpg", "popularity": 53.312}, {"id": 68737, "video": false, "vote_count": 1669, "vote_average": 5.3, "title": "Seventh Son", "release_date": "2014-12-12", "original_language": "en", "original_title": "Seventh Son", "genre_ids": [12, 14], "backdrop_path": "/iAX8lPlDEeGHatw79k1LfGLbTi2.jpg", "adult": false, "overview": "John Gregory, who is a seventh son of a seventh son and also the local spook, has protected the country from witches, boggarts, ghouls and all manner of things that go bump in the night. However John is not young anymore, and has been seeking an apprentice to carry on his trade. Most have failed to survive. The last hope is a young farmer's son named Thomas Ward. Will he survive the training to become the spook that so many others couldn't?", "poster_path": "/zzfzErL8HIyNTRqBHqZAVvEKJ54.jpg", "popularity": 27.375}, {"adult": false, "backdrop_path": "/g6WT9zxATzTy9NVu2xwbxDAxvjd.jpg", "genre_ids": [28, 12, 878], "id": 157350, "original_language": "en", "original_title": "Divergent", "overview": "In a world divided into factions based on personality types, Tris learns that she's been classified as Divergent and won't fit in. When she discovers a plot to destroy Divergents, Tris and the mysterious Four must find out what makes Divergents dangerous before it's too late.", "poster_path": "/yTtx2ciqk4XdN1oKhMMDy3f5ue3.jpg", "release_date": "2014-03-14", "title": "Divergent", "video": false, "vote_average": 6.9, "vote_count": 8983, "popularity": 33.469}], "total_pages": 837, "total_results": 16728}, "recommendations": {"page": 1, "results": [{"adult": false, "backdrop_path": null, "genre_ids": [35], "id": 162857, "original_language": "en", "original_title": "Admiral Cigarette", "overview": "A commercial. Four men sit in animated conversation in front of a billboard for Admiral Cigarettes. The billboard fills the entire background", "poster_path": "/fpTRxMMSB32vqcAezIotnfFsu0j.jpg", "release_date": "1897-08-18", "title": "Admiral Cigarette", "video": false, "vote_average": 5.6, "vote_count": 8, "popularity": 1.179}, {"adult": false, "backdrop_path": "/69ECjfzOB38MsHBXbY6mjlJRgNZ.jpg", "genre_ids": [18, 28], "id": 44336, "original_language": "en", "original_title": "Rescued from an Eagle's Nest", "overview": "A woodsman leaves a hut followed by a woman with their baby. Nearby some men chop down a tree. The baby is left outside the hut, but an eagle flies away with it.", "poster_path": "/9LrNxkiUurG8h1HlPnJ9kaeCIt6.jpg", "release_date": "1908-01-16", "title": "Rescued from an Eagle's Nest", "video": false, "vote_average": 5.7, "vote_count": 16, "popularity": 4.048}, {"adult": false, "backdrop_path": null, "genre_ids": [], "id": 163053, "original_language": "en", "original_title": "A Morning Bath", "overview": "\u201cMammy is washing her little pickaninny. She thrusts him, kicking and struggling, into a tub full of foaming suds.\u201d (Edison film catalog)", "poster_path": "/nMwKnRC5aGQ0uuoCfbppqF6RWPM.jpg", "release_date": "1896-10-30", "title": "A Morning Bath", "video": false, "vote_average": 4.3, "vote_count": 10, "popularity": 1.205}, {"adult": false, "backdrop_path": null, "genre_ids": [18, 36, 10752], "id": 147625, "original_language": "en", "original_title": "The House with Closed Shutters", "overview": "During the Civil War a young soldier loses his nerve in battle and runs away to his home to hide; his sister puts on his uniform, takes her brother's place in the battle, and is killed. Their mother, not wanting the shameful truth to become known, closes all the shutters (hence the film's title) and keeps her son's presence a secret for many years, though two boyhood chums stumble upon the truth...", "poster_path": "/jcPpR30D1kjm2xC400iYxpBgVPI.jpg", "release_date": "1910-08-08", "title": "The House with Closed Shutters", "video": false, "vote_average": 5.2, "vote_count": 13, "popularity": 2.208}, {"adult": false, "backdrop_path": null, "genre_ids": [27], "id": 152031, "original_language": "en", "original_title": "How It Feels to Be Run Over", "overview": "As the camera looks down an open road, a horse and carriage approaches, and passes by to one side of the field of view. Soon afterwards, an automobile comes up the road, straight towards the camera. As it gets nearer, the occupants start to wave frantically, but can a collision be avoided?", "poster_path": "/AvoOBncoOr0pSgthVl7kZB3LybE.jpg", "release_date": "1900-06-30", "title": "How It Feels to Be Run Over", "video": false, "vote_average": 6.4, "vote_count": 10, "popularity": 1.294}, {"adult": false, "backdrop_path": null, "genre_ids": [99], "id": 129863, "original_language": "en", "original_title": "Demolishing and Building Up the Star Theatre", "overview": "Time-lapse photography showing the one month-long demolition of the Star Theatre in New York.", "poster_path": "/Ak50Z0xgsaD1iTI6amwDiJD38E9.jpg", "release_date": "1901-04-29", "title": "Demolishing and Building Up the Star Theatre", "video": false, "vote_average": 6.8, "vote_count": 18, "popularity": 1.227}, {"adult": false, "backdrop_path": "/x4yLOuuUv1Zpdc9pFIwlRxanKyr.jpg", "genre_ids": [35], "id": 118943, "original_language": "en", "original_title": "Those Awful Hats", "overview": "A pair of young ladies cause trouble at the cinema with their lavish hats.", "poster_path": "/qjtxktNK9FgyNqtLFLIF8dUVPx7.jpg", "release_date": "1909-01-25", "title": "Those Awful Hats", "video": false, "vote_average": 6.1, "vote_count": 17, "popularity": 2.768}, {"adult": false, "backdrop_path": null, "genre_ids": [18], "id": 190651, "original_language": "en", "original_title": "The Little Match Seller", "overview": "A short melodrama based on Hans Christian Andersen's harrowing tale. A poor little girl tries to sell matchsticks in the freezing December cold. She lights matches for some light and warmth. There are visions: a fireplace, dinner, a Christmas tree. She sees her dead mother, welcoming her.", "poster_path": "/a9X0Z7HDsQtyLt0mrv7iAD4vlPC.jpg", "release_date": "1902-12-24", "title": "The Little Match Seller", "video": false, "vote_average": 6.4, "vote_count": 7, "popularity": 2.502}, {"adult": false, "backdrop_path": null, "genre_ids": [35], "id": 190668, "original_language": "en", "original_title": "Fun in a Bakery Shop", "overview": "A baker's assistant throws a handful of dough at a rat. The dough sticks to the side of a barrel and the assistant proceeds to sculpt the dough into various faces and shapes. There is some experimental use of stop motion.", "poster_path": "/6zuaEafBWrj42LWrEXHq3AgSHt4.jpg", "release_date": "1902-04-10", "title": "Fun in a Bakery Shop", "video": false, "vote_average": 6.0, "vote_count": 6, "popularity": 1.689}, {"adult": false, "backdrop_path": null, "genre_ids": [14], "id": 196286, "original_language": "en", "original_title": "L'\u00eele de Calypso: Ulysse et le g\u00e9ant Polyph\u00e8me", "overview": "An early horror treatment of the hero's encounter with the one-eyed man-eating Cyclops.", "poster_path": "/6pSkCk0aW1mOf9q2NL4JyxN2uAW.jpg", "release_date": "1905-01-01", "title": "Ulysses and the Giant Polyphemus", "video": false, "vote_average": 5.4, "vote_count": 6, "popularity": 1.172}, {"adult": false, "backdrop_path": "/nsei1kLMGb63NrgXBR5ryLNcRaP.jpg", "genre_ids": [35, 878], "id": 189571, "original_language": "xx", "original_title": "Charcuterie m\u00e9canique", "overview": "A butcher puts a full-grown live pig into his large box-like machine. Moments later, he draws out a full range of pork products, many already packaged for sale.", "poster_path": null, "release_date": "1895-02-01", "title": "The Mechanical Butcher", "video": false, "vote_average": 5.7, "vote_count": 20, "popularity": 1.57}, {"adult": false, "backdrop_path": "/t7p7Tsz8Wb2qvsa0i0HjeMRsRp6.jpg", "genre_ids": [16], "id": 84582, "original_language": "en", "original_title": "Bacall to Arms", "overview": "Movie patrons watch and interact with a variety of short subjects and a spoof of the film \"To Have and Have Not.\"", "poster_path": "/2zv3iaZQTRAOvMgD5PkMMZP21Jp.jpg", "release_date": "1946-08-03", "title": "Bacall to Arms", "video": false, "vote_average": 5.6, "vote_count": 15, "popularity": 2.294}, {"adult": false, "backdrop_path": null, "genre_ids": [35, 14], "id": 106808, "original_language": "fr", "original_title": "Le repas fantastique", "overview": "A family sits down to enjoy a meal that ends up being fraught with complications.", "poster_path": "/9W3YmymyMor807EvDXC4xsHdG6B.jpg", "release_date": "1900-01-01", "title": "A Fantastical Meal", "video": false, "vote_average": 5.6, "vote_count": 14, "popularity": 2.205}, {"adult": false, "backdrop_path": null, "genre_ids": [35, 16], "id": 175407, "original_language": "en", "original_title": "Modeling", "overview": "A man with a huge hooked nose enters the Fleischer studios to have his bust sculpted. Meanwhile, across the studio, Max is animating Koko. When he's called over to consult on the too-accurate bust, Koko gets mischievous and creates his own drawings. He then escapes and crawls inside the clay bust, eventually wriggling off like an inchworm. He gets into a fight with the man being modelled, both of them flinging wads of clay.", "poster_path": "/qzWwDKWoqDPIyc0FsydcYU2DWgT.jpg", "release_date": "1921-10-08", "title": "Modeling", "video": false, "vote_average": 6.0, "vote_count": 4, "popularity": 1.041}, {"adult": false, "backdrop_path": null, "genre_ids": [16, 35, 10752], "id": 101380, "original_language": "en", "original_title": "Booby Traps", "overview": "Pvt. Snafu thinks he's too smart to get caught by an enemy booby trap, but he soon finds that the traps are alluring and that he is every bit the booby.", "poster_path": null, "release_date": "1944-01-15", "title": "Booby Traps", "video": false, "vote_average": 6.0, "vote_count": 5, "popularity": 2.604}, {"adult": false, "backdrop_path": null, "genre_ids": [18], "id": 143801, "original_language": "en", "original_title": "The Sick Kitten", "overview": "A simple scene of two rather flamboyantly-dressed Edwardian children attempting to feed a spoonful of medicine to a sick kitten. The film is important for being one of the earliest films to cut to a close-up, then back again to the same medium shot as before.", "poster_path": "/jhwPJneWQGAra9d9tMxBKLbdCbc.jpg", "release_date": "1903-12-31", "title": "The Sick Kitten", "video": false, "vote_average": 5.3, "vote_count": 21, "popularity": 2.574}, {"adult": false, "backdrop_path": null, "genre_ids": [14, 35], "id": 107268, "original_language": "fr", "original_title": "Chez la sorci\u00e8re", "overview": "A sorceress conjures up a bevy of beauties for a bachelor to peruse.", "poster_path": "/uazGyWWDnmVSVMvPM3vRWxmfkVx.jpg", "release_date": "1901-01-01", "title": "The Bachelor's Paradise", "video": false, "vote_average": 4.8, "vote_count": 10, "popularity": 0.84}, {"adult": false, "backdrop_path": null, "genre_ids": [12, 10751, 14], "id": 144436, "original_language": "en", "original_title": "Jack and the Beanstalk", "overview": "Porter's sequential continuity editing links several shots to form a narrative of the famous fairy tale story of Jack and his magic beanstalk. Borrowing on cinematographic methods reminiscent of 'Georges Melies' , Porter uses animation, double exposure, and trick photography to illustrate the fairy's apparitions, Jack's dream, and the fast growing beanstalk.", "poster_path": "/foCZDVtHaclpIkXj1ux3G2L4C0l.jpg", "release_date": "1902-06-20", "title": "Jack and the Beanstalk", "video": false, "vote_average": 6.1, "vote_count": 12, "popularity": 1.607}, {"adult": false, "backdrop_path": null, "genre_ids": [18], "id": 193900, "original_language": "fr", "original_title": "Le myst\u00e8re des roches de Kador", "overview": "Count Fernand De Keramic plots against his niece in order to acquire her wealth to pay his debts.", "poster_path": "/ytgrpH76wVMm6btu2OHUgclFGcy.jpg", "release_date": "1912-12-01", "title": "The Mystery of the Rocks of Kador", "video": false, "vote_average": 6.5, "vote_count": 8, "popularity": 0.951}, {"adult": false, "backdrop_path": null, "genre_ids": [], "id": 168407, "original_language": "en", "original_title": "Fatima's Coochee-Coochee Dance", "overview": "Released  in 1896.", "poster_path": null, "release_date": "1896-05-03", "title": "Fatima's Coochee-Coochee Dance", "video": false, "vote_average": 5.3, "vote_count": 7, "popularity": 0.948}], "total_pages": 2, "total_results": 40}, "credits": {"cast": [{"cast_id": 4, "character": "Dorothy Gale", "credit_id": "52fe4879c3a36847f8168ca1", "gender": 1, "id": 30000, "name": "Bebe Daniels", "order": 0, "profile_path": "/rkOFYpvLvdBZkhqFYh9SIp2FR15.jpg"}, {"cast_id": 5, "character": "Wizard of Oz and King", "credit_id": "52fe4879c3a36847f8168ca5", "gender": 2, "id": 29536, "name": "Hobart Bosworth", "order": 1, "profile_path": "/a5MoycL5zzAPIoTAfJt3BNK3nX9.jpg"}, {"cast_id": 6, "character": "Aunt Em", "credit_id": "52fe4879c3a36847f8168ca9", "gender": 1, "id": 14288, "name": "Eugenie Besserer", "order": 2, "profile_path": "/b98SpSMoGcL1FIDv2VPR2raj552.jpg"}, {"cast_id": 7, "character": "Scarecrow", "credit_id": "52fe4879c3a36847f8168cad", "gender": 2, "id": 93906, "name": "Robert Z. Leonard", "order": 3, "profile_path": "/w6wkz4NRYhhOTWqVjXvoHAWj6yQ.jpg"}, {"cast_id": 8, "character": "Momba", "credit_id": "52fe4879c3a36847f8168cb1", "gender": 0, "id": 148783, "name": "Winifred Greenwood", "order": 4, "profile_path": "/sSbr9lqF1ggkJO2cujLbeeVL3xs.jpg"}, {"cast_id": 9, "character": "Union Enforcer", "credit_id": "52fe4879c3a36847f8168cb5", "gender": 1, "id": 133571, "name": "Lillian Leighton", "order": 5, "profile_path": "/rxPtbTLEzH0RHi7P6KdBj98UDmM.jpg"}, {"cast_id": 10, "character": "Glinda the Good", "credit_id": "52fe4879c3a36847f8168cb9", "gender": 0, "id": 148784, "name": "Olive Cox", "order": 6, "profile_path": null}], "crew": [{"credit_id": "52fe4879c3a36847f8168c91", "department": "Directing", "gender": 0, "id": 29530, "job": "Director", "name": "Otis Turner", "profile_path": null}, {"credit_id": "52fe4879c3a36847f8168c97", "department": "Writing", "gender": 2, "id": 9051, "job": "Novel", "name": "L. Frank Baum", "profile_path": "/71j62WM8z6XN1DXnSv4AWjMUxJS.jpg"}, {"credit_id": "52fe4879c3a36847f8168c9d", "department": "Writing", "gender": 0, "id": 29530, "job": "Scenario Writer", "name": "Otis Turner", "profile_path": null}, {"credit_id": "5342d1a6c3a368152f003c2c", "department": "Production", "gender": 0, "id": 29535, "job": "Producer", "name": "William Nicholas Selig", "profile_path": null}]}}