{"adult": false, "backdrop_path": "/7QI04qViAUtXNocjbWbj0dx5o3t.jpg", "belongs_to_collection": null, "budget": 0, "genres": [{"id": 16, "name": "Animation"}, {"id": 27, "name": "Horror"}, {"id": 14, "name": "Fantasy"}, {"id": 28, "name": "Action"}], "homepage": "https://www.dccomics.com/movies/constantine-city-of-demons-the-movie", "id": 539517, "imdb_id": "tt9177882", "original_language": "en", "original_title": "Constantine: City of Demons - The Movie", "overview": "A decade after a tragic mistake, family man Chas and occult detective John Constantine set out to cure Chas\u2019s daughter Trish from a mysterious supernatural coma. With the help of the mysterious Nightmare Nurse, the influential Queen of Angels, and brutal Aztec God Mictlantecuhtli, the pair just might have a chance at outsmarting the demon Beroul to save Trish\u2019s soul. In a world of shadows and dark magic, not everything is what it seems, and there\u2019s always a price to pay. The path to redemption is never easy, and if Constantine is to succeed, he must navigate through the dark urban underbelly of Los Angeles, outwit the most cunning spawns of hell, and come face to face with arch-nemesis Nergal \u2013 all while battling his own inner demons!", "popularity": 12.162, "poster_path": "/xyQmYuYFzeSE9HzlffLeG29OXyh.jpg", "production_companies": [{"id": 2785, "logo_path": "/l5zW8jjmQOCx2dFmvnmbYmqoBmL.png", "name": "Warner Bros. Animation", "origin_country": "US"}, {"id": 9993, "logo_path": "/2Tc1P3Ac8M479naPp1kYT3izLS5.png", "name": "DC Entertainment", "origin_country": "US"}, {"id": 429, "logo_path": "/2Tc1P3Ac8M479naPp1kYT3izLS5.png", "name": "DC Comics", "origin_country": "US"}], "production_countries": [{"iso_3166_1": "US", "name": "United States of America"}], "release_date": "2018-10-04", "revenue": 0, "runtime": 90, "spoken_languages": [{"iso_639_1": "en", "name": "English"}], "status": "Released", "tagline": "", "title": "Constantine: City of Demons - The Movie", "video": false, "vote_average": 7.1, "vote_count": 92, "keywords": {"keywords": [{"id": 849, "name": "dc comics"}, {"id": 9717, "name": "based on comic"}, {"id": 253375, "name": "dc animated movie universe"}]}, "similar": {"page": 1, "results": [{"id": 9738, "video": false, "vote_count": 6168, "vote_average": 5.7, "title": "Fantastic Four", "release_date": "2005-06-29", "original_language": "en", "original_title": "Fantastic Four", "genre_ids": [28, 12, 14, 878], "backdrop_path": "/6RaH2Znu7dUQq7c8surf7hRp44f.jpg", "adult": false, "overview": "During a space voyage, four scientists are altered by cosmic rays: Reed Richards gains the ability to stretch his body; Sue Storm can become invisible; Johnny Storm controls fire; and Ben Grimm is turned into a super-strong \u2026 thing. Together, these \"Fantastic Four\" must now thwart the evil plans of Dr. Doom and save the world from certain destruction.", "poster_path": "/sYNOCHiWA9UDUHlPvRWztSo5hZV.jpg", "popularity": 23.086}, {"adult": false, "backdrop_path": "/nq60mZOlrD4mZJg1T4hHUtWTIkN.jpg", "genre_ids": [12, 14, 28, 53], "id": 1979, "original_language": "en", "original_title": "Fantastic Four: Rise of the Silver Surfer", "overview": "The Fantastic Four return to the big screen as a new and all powerful enemy threatens the Earth. The seemingly unstoppable 'Silver Surfer', but all is not what it seems and there are old and new enemies that pose a greater threat than the intrepid superheroes realize.", "poster_path": "/fXpziQgnBnB4bLgjKhjTbLQumE5.jpg", "release_date": "2007-06-13", "title": "Fantastic Four: Rise of the Silver Surfer", "video": false, "vote_average": 5.5, "vote_count": 5280, "popularity": 38.268}, {"id": 10195, "video": false, "vote_count": 13991, "vote_average": 6.7, "title": "Thor", "release_date": "2011-04-21", "original_language": "en", "original_title": "Thor", "genre_ids": [28, 12, 14], "backdrop_path": "/LvmmDZxkTDqp0DX7mUo621ahdX.jpg", "adult": false, "overview": "Against his father Odin's will, The Mighty Thor - a powerful but arrogant warrior god - recklessly reignites an ancient war. Thor is cast down to Earth and forced to live among humans as punishment. Once here, Thor learns what it takes to be a true hero when the most dangerous villain of his world sends the darkest forces of Asgard to invade Earth.", "poster_path": "/9zDwvsISU8bR15R2yN3kh1lfqve.jpg", "popularity": 33.381}, {"id": 297762, "video": false, "vote_count": 13722, "vote_average": 7.3, "title": "Wonder Woman", "release_date": "2017-05-30", "original_language": "en", "original_title": "Wonder Woman", "genre_ids": [28, 12, 14], "backdrop_path": "/6iUNJZymJBMXXriQyFZfLAKnjO6.jpg", "adult": false, "overview": "An Amazon princess comes to the world of Man in the grips of the First World War to confront the forces of evil and bring an end to human conflict.", "poster_path": "/gfJGlDaHuWimErCr5Ql0I8x9QSy.jpg", "popularity": 44.687}, {"id": 246655, "video": false, "vote_count": 8994, "vote_average": 6.5, "title": "X-Men: Apocalypse", "release_date": "2016-05-18", "original_language": "en", "original_title": "X-Men: Apocalypse", "genre_ids": [28, 12, 14, 878], "backdrop_path": "/oQWWth5AOtbWG9o8SCAviGcADed.jpg", "adult": false, "overview": "After the re-emergence of the world's first mutant, world-destroyer Apocalypse, the X-Men must unite to defeat his extinction level plan.", "poster_path": "/zSouWWrySXshPCT4t3UKCQGayyo.jpg", "popularity": 28.213}, {"id": 209112, "video": false, "vote_count": 12706, "vote_average": 5.8, "title": "Batman v Superman: Dawn of Justice", "release_date": "2016-03-23", "original_language": "en", "original_title": "Batman v Superman: Dawn of Justice", "genre_ids": [28, 12, 14], "backdrop_path": "/vsjBeMPZtyB7yNsYY56XYxifaQZ.jpg", "adult": false, "overview": "Fearing the actions of a god-like Super Hero left unchecked, Gotham City\u2019s own formidable, forceful vigilante takes on Metropolis\u2019s most revered, modern-day savior, while the world wrestles with what sort of hero it really needs. And with Batman and Superman at war with one another, a new threat quickly arises, putting mankind in greater danger than it\u2019s ever known before.", "poster_path": "/cGOPbv9wA5gEejkUN892JrveARt.jpg", "popularity": 40.938}, {"adult": false, "backdrop_path": "/o5T8rZxoWSBMYwjsUFUqTt6uMQB.jpg", "genre_ids": [28, 12, 14, 878], "id": 141052, "original_language": "en", "original_title": "Justice League", "overview": "Fuelled by his restored faith in humanity and inspired by Superman's selfless act, Bruce Wayne and Diana Prince assemble a team of metahumans consisting of Barry Allen, Arthur Curry and Victor Stone to face the catastrophic threat of Steppenwolf and the Parademons who are on the hunt for three Mother Boxes on Earth.", "poster_path": "/eifGNCSDuxJeS1loAXil5bIGgvC.jpg", "release_date": "2017-11-15", "title": "Justice League", "video": false, "vote_average": 6.2, "vote_count": 8353, "popularity": 37.398}, {"id": 36647, "video": false, "vote_count": 3460, "vote_average": 6.6, "title": "Blade", "release_date": "1998-08-21", "original_language": "en", "original_title": "Blade", "genre_ids": [28, 27], "backdrop_path": "/dGnDGHD5vmaRow4BzAiuJaGwIz3.jpg", "adult": false, "overview": "When Blade's mother was bitten by a vampire during pregnancy, she did not know that she gave her son a special gift while dying\u2014all the good vampire attributes in combination with the best human skills. Blade and his mentor battle an evil vampire rebel who plans to take over the outdated vampire council, capture Blade and resurrect a voracious blood god.", "poster_path": "/hEXJCBVZYWT8qBMwGJoSsvtnVhr.jpg", "popularity": 30.575}, {"id": 49521, "video": false, "vote_count": 10455, "vote_average": 6.5, "title": "Man of Steel", "release_date": "2013-06-12", "original_language": "en", "original_title": "Man of Steel", "genre_ids": [28, 12, 14, 878], "backdrop_path": "/jYLh4mdOqkt30i7LTFs3o02UcGF.jpg", "adult": false, "overview": "A young boy learns that he has extraordinary powers and is not of this earth. As a young man, he journeys to discover where he came from and what he was sent here to do. But the hero in him must emerge if he is to save the world from annihilation and become the symbol of hope for all mankind.", "poster_path": "/xWlaTLnD8NJMTT9PGOD9z5re1SL.jpg", "popularity": 35.911}, {"id": 287947, "video": false, "vote_count": 4115, "vote_average": 7.0, "title": "Shazam!", "release_date": "2019-03-29", "original_language": "en", "original_title": "Shazam!", "genre_ids": [28, 35, 14], "backdrop_path": "/OIGX2lm5tmlCKvZUghtwHzoxxO.jpg", "adult": false, "overview": "A boy is given the ability to become an adult superhero in times of need with a single magic word.", "poster_path": "/xnopI5Xtky18MPhK40cZAGAOVeV.jpg", "popularity": 47.365}, {"id": 366924, "video": false, "vote_count": 369, "vote_average": 7.0, "title": "Batman: Bad Blood", "release_date": "2016-03-22", "original_language": "en", "original_title": "Batman: Bad Blood", "genre_ids": [28, 16, 878], "backdrop_path": "/prdrusiPbYES4F5ROISvQRKdTbV.jpg", "adult": false, "overview": "Bruce Wayne is missing. Alfred covers for him while Nightwing and Robin patrol Gotham City in his stead. And a new player, Batwoman, investigates Batman's disappearance.", "poster_path": "/UUuwP7PEiOzXWH2mP1QkAkFidI.jpg", "popularity": 9.593}, {"adult": false, "backdrop_path": "/k88XKMUDhOM0df0uEJrjYgDBR7r.jpg", "genre_ids": [28, 878, 14, 12], "id": 298618, "original_language": "en", "original_title": "The Flash", "overview": "The standalone film with The Flash set in the DC Extended Universe.", "poster_path": "/8bWYaeBrTr5LegScAwNnUVeOKiz.jpg", "release_date": "2022-06-30", "title": "The Flash", "video": false, "vote_average": 0.0, "vote_count": 0, "popularity": 11.202}, {"id": 379291, "video": false, "vote_count": 421, "vote_average": 6.9, "title": "Justice League vs. Teen Titans", "release_date": "2016-03-29", "original_language": "en", "original_title": "Justice League vs. Teen Titans", "genre_ids": [28, 16], "backdrop_path": "/AjtPveq4ZdDDvMGHY4Vi4LIM8oe.jpg", "adult": false, "overview": "Robin is sent by Batman to work with the Teen Titans after his volatile behavior botches up a Justice League mission. The Titans must then step up to face Trigon after he possesses the League and threatens to conquer the world.", "poster_path": "/dQMO9EJxDBkdRzWUEWkbYzrMDC0.jpg", "popularity": 13.707}, {"id": 251519, "video": false, "vote_count": 525, "vote_average": 6.8, "title": "Son of Batman", "release_date": "2014-04-20", "original_language": "en", "original_title": "Son of Batman", "genre_ids": [28, 12, 16], "backdrop_path": "/omK35Mr3oks6bd5efrgsO7CzmLP.jpg", "adult": false, "overview": "Batman learns that he has a violent, unruly pre-teen son with Talia al Ghul named Damian Wayne who is secretly being raised by Ra's al Ghul and the League of Assassins. When Ra's al Ghul apparently dies after a battle with Deathstroke, Batman must work to stop his long-lost son from taking revenge and guiding him to a righteous path, in addition to the chance for the pair to truly acknowledging each other as family.", "poster_path": "/j3SFJqZPeeB9g5JMU7UFLgEqj2T.jpg", "popularity": 10.964}, {"id": 537056, "video": false, "vote_count": 211, "vote_average": 6.9, "title": "Batman: Hush", "release_date": "2019-07-19", "original_language": "en", "original_title": "Batman: Hush", "genre_ids": [28, 16, 80, 9648], "backdrop_path": "/eevJuYAitUe6VwFN29aFwzeyeTr.jpg", "adult": false, "overview": "A mysterious new villain known only as Hush uses a gallery of villains to destroy Batman's crime-fighting career as well as Bruce Wayne's personal life, which has been further complicated by a  relationship with Selina Kyle/Catwoman.", "poster_path": "/eiVQORVyVuNNZHPAELuWtlXoQsD.jpg", "popularity": 14.146}, {"id": 76338, "video": false, "vote_count": 11167, "vote_average": 6.6, "title": "Thor: The Dark World", "release_date": "2013-10-29", "original_language": "en", "original_title": "Thor: The Dark World", "genre_ids": [28, 12, 14], "backdrop_path": "/3FweBee0xZoY77uO1bhUOlQorNH.jpg", "adult": false, "overview": "Thor fights to restore order across the cosmos\u2026 but an ancient race led by the vengeful Malekith returns to plunge the universe back into darkness. Faced with an enemy that even Odin and Asgard cannot withstand, Thor must embark on his most perilous and personal journey yet, one that will reunite him with Jane Foster and force him to sacrifice everything to save us all.", "poster_path": "/bnX5PqAdQZRXSw3aX3DutDcdso5.jpg", "popularity": 30.286}, {"adult": false, "backdrop_path": "/ysLIi9nzMbUqi4dQh3tqblUb27o.jpg", "genre_ids": [878, 28, 27, 53, 12, 14], "id": 36648, "original_language": "en", "original_title": "Blade: Trinity", "overview": "For years, Blade has fought against the vampires in the cover of the night. But now, after falling into the crosshairs of the FBI, he is forced out into the daylight, where he is driven to join forces with a clan of human vampire hunters he never knew existed\u2014The Nightstalkers. Together with Abigail and Hannibal, two deftly trained Nightstalkers, Blade follows a trail of blood to the ancient creature that is also hunting him\u2014the original vampire, Dracula.", "poster_path": "/4WinsdHQBdh5aTt7Bd7T7dbUXbb.jpg", "release_date": "2004-12-08", "title": "Blade: Trinity", "video": false, "vote_average": 5.8, "vote_count": 2278, "popularity": 19.358}, {"adult": false, "backdrop_path": "/2n0kjNEI3uF0ju9H5jiE3rBk5C0.jpg", "genre_ids": [14, 27, 28, 53], "id": 36586, "original_language": "en", "original_title": "Blade II", "overview": "A rare mutation has occurred within the vampire community - The Reaper. A vampire so consumed with an insatiable bloodlust that they prey on vampires as well as humans, transforming victims who are unlucky enough to survive into Reapers themselves. Blade is asked by the Vampire Nation for his help in preventing a nightmare plague that would wipe out both humans and vampires.", "poster_path": "/jlURNpXCMK830CsGRd939PJLh8c.jpg", "release_date": "2002-03-22", "title": "Blade II", "video": false, "vote_average": 6.4, "vote_count": 2814, "popularity": 29.742}, {"adult": false, "backdrop_path": "/5yAEbTXiJZQpNx7eCyyOhnY9MYw.jpg", "genre_ids": [14, 28], "id": 557, "original_language": "en", "original_title": "Spider-Man", "overview": "After being bitten by a genetically altered spider, nerdy high school student Peter Parker is endowed with amazing powers.", "poster_path": "/rZd0y1X1Gw4t5B3f01Qzj8DYY66.jpg", "release_date": "2002-05-01", "title": "Spider-Man", "video": false, "vote_average": 7.1, "vote_count": 11001, "popularity": 26.079}, {"id": 284053, "video": false, "vote_count": 12880, "vote_average": 7.5, "title": "Thor: Ragnarok", "release_date": "2017-10-25", "original_language": "en", "original_title": "Thor: Ragnarok", "genre_ids": [28, 12, 35, 14], "backdrop_path": "/kaIfm5ryEOwYg8mLbq8HkPuM1Fo.jpg", "adult": false, "overview": "Thor is imprisoned on the other side of the universe and finds himself in a race against time to get back to Asgard to stop Ragnarok, the destruction of his home-world and the end of Asgardian civilization, at the hands of an all-powerful new threat, the ruthless Hela.", "poster_path": "/rzRwTcFvttcN1ZpX2xv4j3tSdJu.jpg", "popularity": 56.548}], "total_pages": 51, "total_results": 1017}, "recommendations": {"page": 1, "results": [{"id": 487670, "video": false, "vote_count": 312, "vote_average": 7.3, "title": "The Death of Superman", "release_date": "2018-07-03", "original_language": "en", "original_title": "The Death of Superman", "genre_ids": [28, 16, 18, 878], "backdrop_path": "/wA1eufMEvM0RdQk24gj5yaDWLjQ.jpg", "adult": false, "overview": "When a hulking monster arrives on Earth and begins a mindless rampage, the Justice League is quickly called in to stop it. But it soon becomes apparent that only Superman can stand against the monstrosity.", "poster_path": "/y0uxSHaSFmt6XaBJgjkeLqe7aM.jpg", "popularity": 13.307}, {"id": 487672, "video": false, "vote_count": 209, "vote_average": 6.8, "title": "Reign of the Supermen", "release_date": "2019-01-13", "original_language": "en", "original_title": "Reign of the Supermen", "genre_ids": [28, 16, 878], "backdrop_path": "/cdCMUHWyXBOsbLL4dOEPdCEtwM4.jpg", "adult": false, "overview": "In the wake of The Death of Superman, the world is still mourning the loss of the Man of Steel following his fatal battle with the monster Doomsday. However, no sooner as his body been laid to rest than do four new bearers of the Superman shield come forward to take on the mantle. The Last Son of Krypton, Superboy, Steel, and the Cyborg Superman all attempt to fill the vacuum left by the world's greatest champion. Meanwhile, Superman's death has also signaled to the universe that Earth is vulnerable. Can these new Supermen and the rest of the heroes prove them wrong?", "poster_path": "/e9TzqscNRUaG8HqEP3K1jUvi8pC.jpg", "popularity": 13.292}, {"id": 487242, "video": false, "vote_count": 182, "vote_average": 6.8, "title": "Suicide Squad: Hell to Pay", "release_date": "2018-05-09", "original_language": "en", "original_title": "Suicide Squad: Hell to Pay", "genre_ids": [28, 16, 878], "backdrop_path": "/dCQufBk08xVYRethCBqXU7I4vYn.jpg", "adult": false, "overview": "Task Force X targets a powerful mystical object that they will risk their lives to steal.", "poster_path": "/rqnqzJ2dVq4tdK1ICpWUVKSFHuR.jpg", "popularity": 11.227}, {"id": 537056, "video": false, "vote_count": 211, "vote_average": 6.9, "title": "Batman: Hush", "release_date": "2019-07-19", "original_language": "en", "original_title": "Batman: Hush", "genre_ids": [28, 16, 80, 9648], "backdrop_path": "/eevJuYAitUe6VwFN29aFwzeyeTr.jpg", "adult": false, "overview": "A mysterious new villain known only as Hush uses a gallery of villains to destroy Batman's crime-fighting career as well as Bruce Wayne's personal life, which has been further complicated by a  relationship with Selina Kyle/Catwoman.", "poster_path": "/eiVQORVyVuNNZHPAELuWtlXoQsD.jpg", "popularity": 14.146}, {"id": 537055, "video": false, "vote_count": 81, "vote_average": 6.7, "title": "Wonder Woman: Bloodlines", "release_date": "2019-10-05", "original_language": "en", "original_title": "Wonder Woman: Bloodlines", "genre_ids": [28, 16, 14], "backdrop_path": "/645T4C9rip5mvK2UrwTmLPIuKYd.jpg", "adult": false, "overview": "When Amazon princess Diana of Themyscira chooses to save fighter pilot Steve Trevor, it\u2019s a choice that will change her world and ours. Fulfilling the role of both ambassador as well as protector, Diana earns the name Wonder Woman from the gracious people of Earth. But her heart is as strong as her will as she is determined to help a troubled and embittered young girl whom has fallen in with a deadly organization known only as Villainy, Inc! Get ready for an exciting adventure packed with brutal battles, myth and wonder!", "poster_path": "/w1SBqj0fn1j72ST5i1jauWo3swT.jpg", "popularity": 12.788}, {"id": 42025, "video": false, "vote_count": 15, "vote_average": 7.1, "title": "Project A-Ko", "release_date": "1986-06-21", "original_language": "ja", "original_title": "\u30d7\u30ed\u30b8\u30a7\u30af\u30c8A\u5b50", "genre_ids": [28, 16, 35, 878], "backdrop_path": "/jJu0VjL90eNk0XRxPaWmEN7GCf1.jpg", "adult": false, "overview": "Earth. The not too distant future. A city is miraculously reborn just sixteen years after being completely destroyed by a giant meteor. At the prestigious Graviton High School for Girls, two new students are introduced. A-ko and her ditzy sidekick, C-ko.", "poster_path": "/m8Lbn1XJsGai7sFSKydNdtto9dQ.jpg", "popularity": 1.925}, {"id": 408647, "video": false, "vote_count": 284, "vote_average": 7.2, "title": "Teen Titans: The Judas Contract", "release_date": "2017-03-22", "original_language": "en", "original_title": "Teen Titans: The Judas Contract", "genre_ids": [28, 16, 878], "backdrop_path": "/xZKDZ1lVpeKqFaD6zzBhvVM7bFp.jpg", "adult": false, "overview": "Tara Markov is a girl who has power over earth and stone; she is also more than she seems. Is the newest Teen Titan an ally or a threat? And what are the mercenary Deathstroke's plans for the Titans?", "poster_path": "/ut5F7z1U89zKz9GZAtbJHF7ljqV.jpg", "popularity": 12.524}, {"adult": false, "backdrop_path": "/v0dXDmenDx5ElQZvI5VhzdGamRP.jpg", "genre_ids": [28], "id": 611562, "original_language": "en", "original_title": "Hollow Point", "overview": "When his wife and daughter are senselessly murdered, a grieving man finds himself caught up in a war between a group of charismatic vigilantes and the crime that infests their city.", "poster_path": "/lLbcqa8YnO2Qz4ggflhwglwXI8R.jpg", "release_date": "2019-06-13", "title": "Hollow Point", "video": false, "vote_average": 5.3, "vote_count": 9, "popularity": 6.334}, {"adult": false, "backdrop_path": "/dczf0YXTQG5zoj5xt9VDAYSBydU.jpg", "genre_ids": [878, 53, 9648], "id": 596386, "original_language": "en", "original_title": "Excursion", "overview": "In the late eighties, the USSR government enlists Tomas, a devoted member of the Communist Party, to travel back in time to future London and document how Socialism has thrived.", "poster_path": "/4LVgMplCwhc5yoFhf7X23rHb4Re.jpg", "release_date": "2018-01-11", "title": "Excursion", "video": false, "vote_average": 4.0, "vote_count": 7, "popularity": 3.51}, {"adult": false, "backdrop_path": "/vuFWL4wS9khrAGQqsWfdnadUKlo.jpg", "genre_ids": [99], "id": 15323, "original_language": "en", "original_title": "Steal This Film II", "overview": "These are strange times indeed. While they continue to command so much attention in the mainstream media, the 'battles' between old and new modes of distribution, between the pirate and the institution of copyright, seem to many of us already lost and won. We know who the victors are. Why then say any more?", "poster_path": "/XVg2SeovkIAfWVvCsi3O9KSriw.jpg", "release_date": "2007-12-28", "title": "Steal This Film II", "video": false, "vote_average": 6.4, "vote_count": 13, "popularity": 3.021}], "total_pages": 1, "total_results": 10}, "credits": {"cast": [{"cast_id": 0, "character": "John Constantine / Constantine-Demons (voice)", "credit_id": "5b60b9f4c3a368188f003e93", "gender": 2, "id": 127712, "name": "Matt Ryan", "order": 0, "profile_path": "/vhtPgliaSVRit9WkHxKT1julQDx.jpg"}, {"cast_id": 8, "character": "Nergal (voice)", "credit_id": "5bc4a309c3a3682d4706843e", "gender": 2, "id": 130081, "name": "Robin Atkin Downes", "order": 1, "profile_path": "/qb4xPIJGiKyiQ2MhSDQzFWxN0jS.jpg"}, {"cast_id": 3, "character": "Trish / Asa the Healer (voice)", "credit_id": "5bbac7810e0a2634e603a9a4", "gender": 1, "id": 75037, "name": "Laura Bailey", "order": 2, "profile_path": "/213MerOuZFAVdMFoGaO6r3SwgZV.jpg"}, {"cast_id": 9, "character": "Angela (voice)", "credit_id": "5bc4a3140e0a266e5906007b", "gender": 0, "id": 177919, "name": "Rachel Kimsey", "order": 3, "profile_path": "/A82gK44cbO1hwusIFvAJMwo71Xj.jpg"}, {"cast_id": 5, "character": "Beroul / Cheleb / Quedbas (voice)", "credit_id": "5bc4a2d992514179ca05a9b7", "gender": 2, "id": 30697, "name": "Jim Meskimen", "order": 4, "profile_path": "/fZ1Eu6Pb98LUn0wwTU7D32a6WGR.jpg"}, {"cast_id": 4, "character": "Renee Chandler (voice)", "credit_id": "5bc4a2cdc3a3682d4b064786", "gender": 1, "id": 1480477, "name": "Emily O'Brien", "order": 5, "profile_path": "/gppJxHB0dyOZ2FqXH69NveabNao.jpg"}, {"cast_id": 2, "character": "Chas Chandler / Amainon / Decarabia (voice)", "credit_id": "5bbac76e0e0a2616a7006c12", "gender": 2, "id": 1712, "name": "Damian O'Hare", "order": 6, "profile_path": "/fKpaczsKihsuEPWInNENp1WVtwg.jpg"}, {"cast_id": 6, "character": "Mahonin / Old Man (voice)", "credit_id": "5bc4a2e392514179ba05dee6", "gender": 2, "id": 24362, "name": "Kevin Michael Richardson", "order": 7, "profile_path": "/9dMOW2CFRrlDkNzeXVGMJfASupM.jpg"}, {"cast_id": 7, "character": "Mictlantecuhtli (voice)", "credit_id": "5bc4a2fdc3a3682d60064416", "gender": 2, "id": 106774, "name": "Rick D. Wasserman", "order": 8, "profile_path": "/gjjsSK4WMvDQhComOC02ht1Yo26.jpg"}], "crew": [{"credit_id": "5bc4a34e0e0a266e5d0618fe", "department": "Production", "gender": 2, "id": 3893, "job": "Executive Producer", "name": "David S. Goyer", "profile_path": "/vh0ULL0N22JlVlQ5mXFmreA6Ubz.jpg"}, {"credit_id": "5bec9ad10e0a26329500525a", "department": "Writing", "gender": 0, "id": 10944, "job": "Characters", "name": "Jamie Delano", "profile_path": null}, {"credit_id": "5bec9ab10e0a2632980051a0", "department": "Writing", "gender": 2, "id": 11449, "job": "Characters", "name": "Alan Moore", "profile_path": "/dS0Vlap8GBkwTvDU4BRm1Qu50YV.jpg"}, {"credit_id": "5bc4a35a0e0a266e5706360f", "department": "Production", "gender": 2, "id": 88967, "job": "Executive Producer", "name": "Greg Berlanti", "profile_path": "/AbocIYSo4KXx7nT6lz2dj3qMD8H.jpg"}, {"credit_id": "5bc4a39ec3a3682d470684fc", "department": "Production", "gender": 2, "id": 34922, "job": "Producer", "name": "Butch Lukic", "profile_path": null}, {"credit_id": "5bc4a3780e0a266e5706362c", "department": "Production", "gender": 2, "id": 141043, "job": "Executive Producer", "name": "Sam Register", "profile_path": "/9K1RTX51GDbegrAhMeLQLSGyF3B.jpg"}, {"credit_id": "5bc4a36a92514179c40597de", "department": "Production", "gender": 2, "id": 171830, "job": "Executive Producer", "name": "Marc Guggenheim", "profile_path": "/1nCTlHZ37IjpUlJbQv68iizYdX5.jpg"}, {"credit_id": "5bc4a3ac92514179ba05dfd8", "department": "Sound", "gender": 0, "id": 1116280, "job": "Original Music Composer", "name": "Kevin Riepl", "profile_path": null}, {"credit_id": "5bec9aec9251413cf000490a", "department": "Writing", "gender": 2, "id": 1220917, "job": "Characters", "name": "J. M. DeMatteis", "profile_path": "/cYtMwZr5TXF1FCTtLM8IK4EPKQf.jpg"}, {"credit_id": "5bc4a3b60e0a266e5405eb0c", "department": "Writing", "gender": 2, "id": 1220917, "job": "Writer", "name": "J. M. DeMatteis", "profile_path": "/cYtMwZr5TXF1FCTtLM8IK4EPKQf.jpg"}, {"credit_id": "5b6dab710e0a267ef414db21", "department": "Directing", "gender": 0, "id": 1227608, "job": "Director", "name": "Doug Murphy", "profile_path": null}, {"credit_id": "5bc4a384c3a3682d4e05bac0", "department": "Production", "gender": 0, "id": 1395152, "job": "Executive Producer", "name": "Sarah Schechter", "profile_path": null}, {"credit_id": "5bec9b239251413ce40047e2", "department": "Production", "gender": 0, "id": 1641642, "job": "Casting", "name": "Wes Gleason", "profile_path": null}, {"credit_id": "5bc4a33b0e0a266e640626ef", "department": "Editing", "gender": 0, "id": 2099807, "job": "Editor", "name": "Kyle Stafford", "profile_path": null}, {"credit_id": "5bec9abcc3a36812e8005197", "department": "Writing", "gender": 0, "id": 2103977, "job": "Characters", "name": "Steve Bissette", "profile_path": null}, {"credit_id": "5bec9ac80e0a26328600507f", "department": "Writing", "gender": 0, "id": 2103981, "job": "Characters", "name": "John Totleben", "profile_path": null}, {"credit_id": "5bec9ae0c3a36812fa0052ed", "department": "Writing", "gender": 0, "id": 2103982, "job": "Characters", "name": "John Ridgway", "profile_path": null}, {"credit_id": "5bc4a38f0e0a266e6b05ec54", "department": "Production", "gender": 0, "id": 2103984, "job": "Executive Producer", "name": "Liz Marshall", "profile_path": null}, {"credit_id": "5bc4a32f0e0a266e640626de", "department": "Art", "gender": 0, "id": 2147116, "job": "Art Direction", "name": "Phillip Bourassa", "profile_path": null}, {"credit_id": "5bec9b170e0a26329c005239", "department": "Writing", "gender": 2, "id": 2175776, "job": "Characters", "name": "Philip Tan", "profile_path": null}]}}