{"adult": false, "backdrop_path": "/wGOgDa7xQdrEJzQBdk6ftp567Ye.jpg", "belongs_to_collection": null, "budget": 0, "genres": [{"id": 99, "name": "Documentary"}], "homepage": null, "id": 54194, "imdb_id": "tt0076097", "original_language": "en", "original_title": "Koko, le gorille qui parle", "overview": "Koko: A Talking Gorilla is a documentary directed by Barbet Schroeder. The film is a study of Dr. Penny Patterson and her current scientific study, Koko, a gorilla.", "popularity": 3.452, "poster_path": "/1zkyoSBHwZUUCvcz0rUcywsOuAT.jpg", "production_companies": [{"id": 223, "logo_path": "/b9Icqi8qGm7gJ6jVs8bauUo5N5Q.png", "name": "Les Films du Losange", "origin_country": "FR"}, {"id": 22642, "logo_path": "/gqFSMOsv68FkYalHrKbUvq3pGwh.png", "name": "Ina", "origin_country": "FR"}], "production_countries": [{"iso_3166_1": "FR", "name": "France"}], "release_date": "1978-10-01", "revenue": 0, "runtime": 85, "spoken_languages": [{"iso_639_1": "en", "name": "English"}, {"iso_639_1": "fr", "name": "Fran\u00e7ais"}], "status": "Released", "tagline": "", "title": "Koko: A Talking Gorilla", "video": false, "vote_average": 7.5, "vote_count": 8, "keywords": {"keywords": [{"id": 690, "name": "gorilla"}, {"id": 2172, "name": "zoo"}, {"id": 188953, "name": "sign languages"}, {"id": 212542, "name": "communication"}]}, "similar": {"page": 1, "results": [{"id": 527261, "video": false, "vote_count": 495, "vote_average": 5.7, "title": "The Silence", "release_date": "2019-05-16", "original_language": "en", "original_title": "The Silence", "genre_ids": [18, 14, 53], "backdrop_path": "/iHJQIKSLHN2mUUWySpj2MO5HVtS.jpg", "adult": false, "overview": "With the world under attack by deadly creatures who hunt by sound, a teen and her family seek refuge outside the city and encounter a mysterious cult.", "poster_path": "/lTVOquzxw2DPF3MKuYd1ynz9F6H.jpg", "popularity": 12.093}, {"id": 87827, "video": false, "vote_count": 9356, "vote_average": 7.3, "title": "Life of Pi", "release_date": "2012-11-20", "original_language": "en", "original_title": "Life of Pi", "genre_ids": [28, 12, 18], "backdrop_path": "/tk159LPfy69zSHw4dabehfAaJXi.jpg", "adult": false, "overview": "The story of an Indian boy named Pi, a zookeeper's son who finds himself in the company of a hyena, zebra, orangutan, and a Bengal tiger after a shipwreck sets them adrift in the Pacific Ocean.", "poster_path": "/sLYdcz7easaS7CmJGwQcVVYZqiF.jpg", "popularity": 23.211}, {"adult": false, "backdrop_path": "/rV9hascFIkEKKtiKONPTHSzyCgi.jpg", "genre_ids": [18], "id": 7345, "original_language": "en", "original_title": "There Will Be Blood", "overview": "Ruthless silver miner, turned oil prospector, Daniel Plainview moves to oil-rich California. Using his adopted son to project a trustworthy, family-man image, Plainview cons local landowners into selling him their valuable properties for a pittance. However, local preacher Eli Sunday suspects Plainviews motives and intentions, starting a slow-burning feud that threatens both their lives.", "poster_path": "/bFgqkuAFBHNuq0oTtewHwuLVWSO.jpg", "release_date": "2007-12-28", "title": "There Will Be Blood", "video": false, "vote_average": 8.1, "vote_count": 3320, "popularity": 17.131}, {"id": 447332, "video": false, "vote_count": 6978, "vote_average": 7.3, "title": "A Quiet Place", "release_date": "2018-04-03", "original_language": "en", "original_title": "A Quiet Place", "genre_ids": [18, 27, 878], "backdrop_path": "/roYyPiQDQKmIKUEhO912693tSja.jpg", "adult": false, "overview": "A family is forced to live in silence while hiding from creatures that hunt by sound.", "poster_path": "/nAU74GmpUk7t5iklEp3bufwDq4n.jpg", "popularity": 32.233}, {"id": 38317, "video": false, "vote_count": 1004, "vote_average": 5.4, "title": "Zookeeper", "release_date": "2011-07-06", "original_language": "en", "original_title": "Zookeeper", "genre_ids": [35, 10749, 10751], "backdrop_path": "/2au5IQO5AuQwSGmn0eIOTLZ0Nop.jpg", "adult": false, "overview": "Kindhearted Griffin Keyes is one of the best-loved caretakers at the Franklin Park Zoo, but since he is more comfortable with the animals than with females of his own species, his love life is lacking. When Griffin decides that the only way to get a girlfriend is to find a more-glamorous career, the animals panic. To keep him from leaving, they reveal their secret ability to talk and offer to teach him the rules of courtship, animal-style.", "poster_path": "/qVsaDvFLnGSH6WdTgatzc2nXt7e.jpg", "popularity": 17.86}, {"id": 58224, "video": false, "vote_count": 1757, "vote_average": 5.8, "title": "Mr. Popper's Penguins", "release_date": "2011-06-17", "original_language": "en", "original_title": "Mr. Popper's Penguins", "genre_ids": [35, 10751], "backdrop_path": "/kJTtIU4sBfgGa6GqPkpFh3K07qM.jpg", "adult": false, "overview": "Jim Carrey stars as Tom Popper, a successful businessman who\u2019s clueless when it comes to the really important things in life...until he inherits six \u201cadorable\u201d penguins, each with its own unique personality. Soon Tom\u2019s rambunctious roommates turn his swank New York apartment into a snowy winter wonderland \u2014 and the rest of his world upside-down.", "poster_path": "/qKkyePjlG9yilHpS89ZOc3N2Cd1.jpg", "popularity": 12.59}, {"id": 378064, "video": false, "vote_count": 1330, "vote_average": 8.3, "title": "A Silent Voice", "release_date": "2016-09-17", "original_language": "ja", "original_title": "\u8072\u306e\u5f62", "genre_ids": [16, 18, 10749], "backdrop_path": "/q5HZvtyqG8Vz39Ee9uTQbLeEml.jpg", "adult": false, "overview": "Shouya Ishida starts bullying the new girl in class, Shouko Nishimiya, because she is deaf. But as the teasing continues, the rest of the class starts to turn on Shouya for his lack of compassion. When they leave elementary school, Shouko and Shouya do not speak to each other again... until an older, wiser Shouya, tormented by his past behaviour, decides he must see Shouko once more. He wants to atone for his sins, but is it already too late...?", "poster_path": "/drlyoSKDOPnxzJFrRWGqzDsyJvR.jpg", "popularity": 19.896}, {"id": 9813, "video": false, "vote_count": 128, "vote_average": 6.1, "title": "The Quiet", "release_date": "2005-09-12", "original_language": "en", "original_title": "The Quiet", "genre_ids": [18, 53], "backdrop_path": "/6eyWAZA4CEidZW1xXnQ4vlYBXTP.jpg", "adult": false, "overview": "After her widowed father dies, deaf teenager Dot moves in with her godparents, Olivia and Paul Deer. The Deers' daughter, Nina, is openly hostile to Dot, but that does not prevent her from telling her secrets to her silent stepsister, including the fact that she wants to kill her lecherous father.", "poster_path": "/GEqIE9YlmygHVUfS64LW2cwAAM.jpg", "popularity": 13.948}, {"id": 339403, "video": false, "vote_count": 9210, "vote_average": 7.4, "title": "Baby Driver", "release_date": "2017-06-28", "original_language": "en", "original_title": "Baby Driver", "genre_ids": [28, 80], "backdrop_path": "/goCvLSUFz0p7k8R10Hv4CVh3EQv.jpg", "adult": false, "overview": "After being coerced into working for a crime boss, a young getaway driver finds himself taking part in a heist doomed to fail.", "poster_path": "/dN9LbVNNZFITwfaRjl4tmwGWkRg.jpg", "popularity": 27.195}, {"id": 427641, "video": false, "vote_count": 3660, "vote_average": 6.2, "title": "Rampage", "release_date": "2018-04-12", "original_language": "en", "original_title": "Rampage", "genre_ids": [28, 12, 14, 878], "backdrop_path": "/wrqUiMXttHE4UBFMhLHlN601MZh.jpg", "adult": false, "overview": "Primatologist Davis Okoye shares an unshakable bond with George, the extraordinarily intelligent, silverback gorilla who has been in his care since birth.  But a rogue genetic experiment gone awry mutates this gentle ape into a raging creature of enormous size.  To make matters worse, it\u2019s soon discovered there are other similarly altered animals.  As these newly created alpha predators tear across North America, destroying everything in their path, Okoye teams with a discredited genetic engineer to secure an antidote, fighting his way through an ever-changing battlefield, not only to halt a global catastrophe but to save the fearsome creature that was once his friend.", "poster_path": "/3gIO6mCd4Q4PF1tuwcyI3sjFrtI.jpg", "popularity": 29.79}, {"id": 9904, "video": false, "vote_count": 559, "vote_average": 5.3, "title": "The Wild", "release_date": "2006-03-06", "original_language": "en", "original_title": "The Wild", "genre_ids": [16, 10751], "backdrop_path": "/z8bCwHtKypfDoqChf41pKWR41Xb.jpg", "adult": false, "overview": "An adolescent lion is accidentally shipped from the New York Zoo to Africa. Now running free, his zoo pals must put aside their differences to help bring him back.", "poster_path": "/uxTtgh4tpSWVulXLCDqKU10cWXo.jpg", "popularity": 19.726}, {"id": 400535, "video": false, "vote_count": 1615, "vote_average": 6.7, "title": "Sicario: Day of the Soldado", "release_date": "2018-06-27", "original_language": "en", "original_title": "Sicario: Day of the Soldado", "genre_ids": [28, 80, 18, 53], "backdrop_path": "/13VjjUeJ6mcDUB36XRu4YFpYNSm.jpg", "adult": false, "overview": "Agent Matt Graver teams up with operative Alejandro Gillick to prevent Mexican drug cartels from smuggling terrorists across the United States border.", "poster_path": "/msqWSQkU403cQKjQHnWLnugv7EY.jpg", "popularity": 29.236}, {"id": 953, "video": false, "vote_count": 6883, "vote_average": 6.8, "title": "Madagascar", "release_date": "2005-05-25", "original_language": "en", "original_title": "Madagascar", "genre_ids": [16, 10751], "backdrop_path": "/wUetiqu2EFhHW94yTP0pWABfyUG.jpg", "adult": false, "overview": "Alex the lion is the king of the urban jungle, the main attraction at New York\u2019s Central Park Zoo. He and his best friends\u2014Marty the zebra, Melman the giraffe and Gloria the hippo\u2014have spent their whole lives in blissful captivity before an admiring public and with regular meals provided for them. Not content to leave well enough alone, Marty lets his curiosity get the better of him and makes his escape\u2014with the help of some prodigious penguins\u2014to explore the world.", "poster_path": "/2YiESGB68BGQSAFvfJxBi774sc4.jpg", "popularity": 30.512}, {"id": 10527, "video": false, "vote_count": 4217, "vote_average": 6.4, "title": "Madagascar: Escape 2 Africa", "release_date": "2008-10-30", "original_language": "en", "original_title": "Madagascar: Escape 2 Africa", "genre_ids": [16, 35, 10751], "backdrop_path": "/anxiz37Z9FPKeuCsJcxViSWmPxg.jpg", "adult": false, "overview": "Alex, Marty, and other zoo animals find a way to escape from Madagascar when the penguins reassemble a wrecked airplane. The precariously repaired craft stays airborne just long enough to make it to the African continent. There the New Yorkers encounter members of their own species for the first time. Africa proves to be a wild place, but Alex and company wonder if it is better than their Central Park home.", "poster_path": "/9mohxwknsHcwFBSAAhoQXwFV5zn.jpg", "popularity": 21.514}, {"id": 10258, "video": false, "vote_count": 148, "vote_average": 6.6, "title": "The Madagascar Penguins in a Christmas Caper", "release_date": "2005-09-23", "original_language": "en", "original_title": "The Madagascar Penguins in a Christmas Caper", "genre_ids": [16, 35, 10751], "backdrop_path": "/gdJ6j1hmt6dQgObWxDJAHUb58o6.jpg", "adult": false, "overview": "During the holiday season, when the animals of the Central Park Zoo are preparing for Christmas, Private, the youngest of the penguins notices that the Polar Bear is all alone. Assured that nobody should have to spend Christmas alone, Private goes into the city for some last-minute Christmas shopping. Along the way, he gets stuffed into a stocking", "poster_path": "/r8QtfGSjDaY6vICRVyYvZvTkjxc.jpg", "popularity": 15.199}, {"adult": false, "backdrop_path": "/u4s4b3xRz5gOHwzO2KneDqIl7Bf.jpg", "genre_ids": [878, 12, 18, 28], "id": 871, "original_language": "en", "original_title": "Planet of the Apes", "overview": "An  U.S. Spaceship lands on a desolate planet, stranding astronaut Taylor in a world dominated by apes, 2000 years into the future, who use a primitive race of humans for experimentation and sport. Soon Taylor finds himself among the hunted, his life in the hands of a benevolent chimpanzee scientist.", "poster_path": "/fiWii3OCJhoSld3U3tUUr1AB6d7.jpg", "release_date": "1968-02-07", "title": "Planet of the Apes", "video": false, "vote_average": 7.6, "vote_count": 1807, "popularity": 30.02}, {"adult": false, "backdrop_path": "/4T2EpBzG4VyqDijObJFjWse8RaH.jpg", "genre_ids": [12, 35, 10751, 10749], "id": 10603, "original_language": "en", "original_title": "George of the Jungle", "overview": "After Baby George survives a plane crash in the jungle, he is rescued and then adopted by a wise ape. Years later, grown-up George saves a US noble woman, Ursula Stanhope while she is on a safari\u2014and takes her to the jungle to live with him. While Ursula's lover continues his search for Ursula and the one who took her, George slowly learns the rules of human relationships.", "poster_path": "/wTvuMi6YlO6bVe2Ax5mEL1dbVYv.jpg", "release_date": "1997-07-15", "title": "George of the Jungle", "video": false, "vote_average": 5.4, "vote_count": 1149, "popularity": 15.381}, {"id": 61791, "video": false, "vote_count": 7879, "vote_average": 7.2, "title": "Rise of the Planet of the Apes", "release_date": "2011-08-03", "original_language": "en", "original_title": "Rise of the Planet of the Apes", "genre_ids": [28, 18, 878, 53], "backdrop_path": "/oxrovtv9Yo9snk4WLM0bK0SCRES.jpg", "adult": false, "overview": "Scientist Will Rodman is determined to find a cure for Alzheimer's, the disease which has slowly consumed his father. Will feels certain he is close to a breakthrough and tests his latest serum on apes, noticing dramatic increases in intelligence and brain activity in the primate subjects \u2013 especially Caesar, his pet chimpanzee.", "poster_path": "/j87XPCcAnJUnjQ0gvZoWS6XQpfh.jpg", "popularity": 26.657}, {"id": 575718, "video": false, "vote_count": 0, "vote_average": 0.0, "title": "Secret Zoo", "release_date": "2020-01-15", "original_language": "ko", "original_title": "\ud574\uce58\uc9c0\uc54a\uc544", "genre_ids": [35], "backdrop_path": "/hc8Y3Xz9YS3DQxVem61qrhkHxtn.jpg", "adult": false, "overview": "A lawyer is given the mission of revitalising a bankrupt zoo that has no animals. When he and a group of zookeepers come up with the idea to dress like animals and his fake polar bear goes viral, the zoo becomes a hit, before his law firm\u2019s real intentions are revealed.", "poster_path": "/2yBRl13BrHXhK7KpMTMZ9YfSvRW.jpg", "popularity": 7.975}, {"id": 399055, "video": false, "vote_count": 8032, "vote_average": 7.2, "title": "The Shape of Water", "release_date": "2017-12-01", "original_language": "en", "original_title": "The Shape of Water", "genre_ids": [18, 14, 10749], "backdrop_path": "/rgyhSn3mINvkuy9iswZK0VLqQO3.jpg", "adult": false, "overview": "An other-worldly story, set against the backdrop of Cold War era America circa 1962, where a mute janitor working at a lab falls in love with an amphibious man being held captive there and devises a plan to help him escape.", "poster_path": "/k4FwHlMhuRR5BISY2Gm2QZHlH5Q.jpg", "popularity": 27.281}], "total_pages": 16, "total_results": 315}, "recommendations": {"page": 1, "results": [{"adult": false, "backdrop_path": "/6LxINM5qTOMJTQEm16VAcKHmrlH.jpg", "genre_ids": [80, 18, 10749], "id": 154515, "original_language": "en", "original_title": "Dance, Fools, Dance", "overview": "When misfortune hits hard on the Jordan family of Chicago's upper class, Bonnie Jordan, a dazzling and witty girl, finds a job as an aspiring reporter; however, his naive younger brother Rodney takes a twisted path and gets involved with the wrong people.", "poster_path": "/hcIS27FprV4AT2LYFlDl2GnHACq.jpg", "release_date": "1931-02-07", "title": "Dance, Fools, Dance", "video": false, "vote_average": 6.5, "vote_count": 4, "popularity": 3.185}, {"adult": false, "backdrop_path": "/xL3FmnNbrGwReYdHIJcf7F7rpMb.jpg", "genre_ids": [18], "id": 39327, "original_language": "en", "original_title": "The Music of Chance", "overview": "Two men face the consequences of gambling after playing with men beyond their league.", "poster_path": "/4w2ipDuVyL4y91wNHkVdvA84NFd.jpg", "release_date": "1993-06-23", "title": "The Music of Chance", "video": false, "vote_average": 7.0, "vote_count": 5, "popularity": 4.008}, {"adult": false, "backdrop_path": "/3LNBgCtT7IZfw9JafARuOETvwzv.jpg", "genre_ids": [18], "id": 85504, "original_language": "en", "original_title": "The Sin of Madelon Claudet", "overview": "Out of jail for a crime she did not commit, Madelon turns to prostitution and thievery to send her illegitimate son to medical school.", "poster_path": "/6Y3PTsAukFXvHojykl3Z6rmfn5p.jpg", "release_date": "1931-10-23", "title": "The Sin of Madelon Claudet", "video": false, "vote_average": 6.4, "vote_count": 7, "popularity": 3.764}, {"adult": false, "backdrop_path": "/9q5fLTgc5hiD7CkO49GVafxWBd9.jpg", "genre_ids": [35, 10749], "id": 111605, "original_language": "en", "original_title": "True Love", "overview": "Donna and Michael are getting married. But first, they have to plan the reception, get the tux, buy the rings, and cope with their own uncertainty about the decision. Michael fears commitment. Donna has her doubts about Michael's immaturity. Both are getting cold feet.", "poster_path": "/bb8LdVqPhJbd1WnH6yiMbjy0N0C.jpg", "release_date": "1989-09-15", "title": "True Love", "video": false, "vote_average": 6.3, "vote_count": 10, "popularity": 3.741}, {"adult": false, "backdrop_path": "/mAiGnwC0K4HlMXTDxsGTWcrZhY6.jpg", "genre_ids": [10749, 18], "id": 31903, "original_language": "en", "original_title": "History Is Made at Night", "overview": "The obsessive and jealous shipowner Bruce Vail does not accept the divorce his wife Irene Vail achieved in London, and he hires his driver Michael Browsky to forge adultery with Irene in Paris to make the decree null. However, she is rescued by the headwaiter Paul Dumond, who punches Michael and locks Bruce and his private eyes in a locker, and they spend a wonderful night together in the restaurant Chateau Bleu, where Paul and his best friend Chef Cesare work, and they fall in love for each other. Meanwhile, Bruce kills Michael and blackmails Irene, blaming Paul and forcing her to return with him to New York.", "poster_path": "/sAXo6B4gMYyL3lqBCYFa3cZxhjH.jpg", "release_date": "1937-03-05", "title": "History Is Made at Night", "video": false, "vote_average": 6.1, "vote_count": 11, "popularity": 3.781}, {"adult": false, "backdrop_path": "/w4zgsAgfRoWQgjkO1nrraabmPu0.jpg", "genre_ids": [35], "id": 85420, "original_language": "en", "original_title": "Movie Movie", "overview": "Three movie genres of the 1930s, boxing films, WWI aviation dramas, and backstage Broadway musicals, are satirized using the same cast.", "poster_path": "/ibbixbVqqAcs2fot7dUcyOALFsD.jpg", "release_date": "1978-11-01", "title": "Movie Movie", "video": false, "vote_average": 6.3, "vote_count": 6, "popularity": 2.524}, {"adult": false, "backdrop_path": "/uosb0bcucfhAeZjshK9mOnXyeot.jpg", "genre_ids": [18, 10749], "id": 104301, "original_language": "en", "original_title": "The Good Mother", "overview": "After finding a sexually liberated boyfriend, a divorced woman gets sued over daughter's custody, by her ex, who claims that her lover has a bad influence on the kid.", "poster_path": "/4BXVfarkduEvWVua2fDzN9CzSGD.jpg", "release_date": "1988-11-04", "title": "The Good Mother", "video": false, "vote_average": 6.4, "vote_count": 8, "popularity": 4.179}, {"adult": false, "backdrop_path": "/67N48fhtJFqtipRyUj1Vi5UWoUd.jpg", "genre_ids": [18, 80], "id": 37087, "original_language": "en", "original_title": "711 Ocean Drive", "overview": "The Horatio Alger parable gets the film noir treatment with the redoubtable Edmund O\u2019Brien as a whip-smart telephone technician who moves up the ladder of a Syndicate gambling empire in Southern California until distracted by an inconveniently married Joanne Dru and his own greed. Ripped from the headlines of the 1950 Kevaufer Organized Crime Hearings, this fast-moving picture is laden with location sequences shot in Los Angeles, the Hoover Dam and Palm Springs including the famous Doll House watering hole on North Palm Canyon Drive!", "poster_path": "/dGcNBeGe29lV52ja03HkNEecjDt.jpg", "release_date": "1950-07-01", "title": "711 Ocean Drive", "video": false, "vote_average": 6.1, "vote_count": 14, "popularity": 5.565}, {"adult": false, "backdrop_path": "/trUBsnhQj685K3RIyhDZLI8CzLQ.jpg", "genre_ids": [18], "id": 42750, "original_language": "en", "original_title": "Return of the Secaucus Seven", "overview": "Seven former college friends, along with a few new friends, gather for a weekend reunion at a summer house in New Hampshire to reminisce about the good old days, when they got arrested on the way to a protest in Washington, DC.", "poster_path": "/AmKpvX0l7y82jrgKrfDduikfZVd.jpg", "release_date": "1980-09-05", "title": "Return of the Secaucus Seven", "video": false, "vote_average": 6.9, "vote_count": 7, "popularity": 1.767}, {"id": 47454, "video": false, "vote_count": 6, "vote_average": 5.8, "title": "Presentation, or Charlotte and Her Steak", "release_date": "1960-01-01", "original_language": "fr", "original_title": "Pr\u00e9sentation ou Charlotte et son steak", "genre_ids": [], "backdrop_path": null, "adult": false, "overview": "Two young people, Walter and Charlotte, are walking through a small village in Switzerland a snowy winter day. Walter introduces Charlotte to Clara, hoping to make Charlotte jealous. After saying good-bye to Clara, Walter accompanies Charlotte into her house, although she doesn't want him to. Charlotte is hungry and cooks a steak. She asks Walter if he wants a piece of it. He says no, but she gives him a small piece anyway. He wants a kiss, and she says no. She starts to compare herself with Clara, who Walter agrees is more beautiful. In spite of this, Walter says he likes Charlotte much more, but she thinks he is lying. She notices that he is cold and shivering. She hugs him, he kisses her, and she starts kissing him. After leaving the house he accompanies her to the train.", "poster_path": "/96jT4Rr5J5N4q1ucPVHLdhVzXVW.jpg", "popularity": 0.89}, {"id": 61689, "video": false, "vote_count": 20, "vote_average": 5.7, "title": "Thirst", "release_date": "1979-09-28", "original_language": "en", "original_title": "Thirst", "genre_ids": [27, 53, 10749], "backdrop_path": "/nXYde5QCHKh3m1dS3pF1sC5kB6Q.jpg", "adult": false, "overview": "The descendant of Elizabeth Bathory is abducted by a cult of self-proclaimed supermen who achieve this state of superiority by drinking from the \"blood cows\" (read: people) kept at the \"dairy farm\", and they try to get her to join them.", "poster_path": "/s2M21Jd62AZUHpOYe1VuhlXsDae.jpg", "popularity": 3.314}, {"id": 77245, "video": false, "vote_count": 20, "vote_average": 7.0, "title": "The Prisoner of Shark Island", "release_date": "1936-02-28", "original_language": "en", "original_title": "The Prisoner of Shark Island", "genre_ids": [18, 36], "backdrop_path": "/mzD0sJ27mDN6oIcQqymfr6U3afX.jpg", "adult": false, "overview": "After setting the leg of John Wilkes Booth, Dr. Samuel Mudd is sent to prison as a conspirator in the assassination of Abraham Lincoln.", "poster_path": "/uzJIIgtMG7hsnKk34z1KQCuyrXC.jpg", "popularity": 5.268}, {"adult": false, "backdrop_path": "/97Uz0e0hbL0zeBnfkvujuZSNg0s.jpg", "genre_ids": [99], "id": 40428, "original_language": "en", "original_title": "8: The Mormon Proposition", "overview": "Filmmaker and ex-Church of Jesus Christ of Latter-day Saints member Reed Cowan examines that church's nationwide efforts to prevent the legalization of gay marriage - including California's Proposition 8, which was passed by voters in 2008. Confidential church documents, statements by high-ranking church officials and other sources detail 30 years of efforts to turn back gay rights, particularly by the Mormon-sponsored National Organization for Marriage.", "poster_path": "/2gG1a2b0GlzaS2VBeY0vjNHmFY1.jpg", "release_date": "2010-01-01", "title": "8: The Mormon Proposition", "video": false, "vote_average": 6.2, "vote_count": 13, "popularity": 3.567}, {"adult": false, "backdrop_path": "/ihzTf8aotDHmdPkuc0ABP0CcNEW.jpg", "genre_ids": [80], "id": 44669, "original_language": "en", "original_title": "Johnny Allegro", "overview": "Treasury Department officials recruit a florist (Raft) to lead them to a wanted criminal (Macready); but once he gets too close, he finds he's the hunted.", "poster_path": "/s568kGMIHPR76WmlQoqEDQ0N7Mv.jpg", "release_date": "1949-05-26", "title": "Johnny Allegro", "video": false, "vote_average": 6.2, "vote_count": 6, "popularity": 3.802}, {"adult": false, "backdrop_path": "/ig2s37oXcidcI0MITjalZ1Lg3Q0.jpg", "genre_ids": [10770, 18], "id": 4367, "original_language": "en", "original_title": "Cat on a Hot Tin Roof", "overview": "Brick, an alcoholic ex-football player, drinks his days away and resists the affections of his wife, Maggie. His reunion with his father, Big Daddy, who is dying of cancer, jogs a host of memories and revelations for both father and son.", "poster_path": "/t7oP2cAckR7lOKogmYSNrliWO2a.jpg", "release_date": "1984-08-19", "title": "Cat on a Hot Tin Roof", "video": false, "vote_average": 5.4, "vote_count": 7, "popularity": 5.317}, {"id": 93313, "video": false, "vote_count": 11, "vote_average": 6.4, "title": "Come and Get It", "release_date": "1936-11-06", "original_language": "en", "original_title": "Come and Get It", "genre_ids": [18, 10749], "backdrop_path": "/de7FGx42gGJLlq0lWGRNv0zJkV1.jpg", "adult": false, "overview": "An ambitious lumberjack abandons his saloon girl lover so that he can marry into wealth, but years later becomes infatuated with the woman's daughter.", "poster_path": "/4w65AMsJ0RZVkxGfxw4DVWWSTyq.jpg", "popularity": 2.304}, {"adult": false, "backdrop_path": "/AdZhNKJZ71c6V3F0DDgK5AKVD2h.jpg", "genre_ids": [35, 18], "id": 198567, "original_language": "bn", "original_title": "\u09ae\u09b9\u09be\u09aa\u09c1\u09b0\u09c1\u09b7", "overview": "A wandering baba initiates a widower layer and his youngest daughter, irritating her boyfriend Satya and the ever-skeptical Nibaran.", "poster_path": "/ebOyFL9SrlNvhSJebZeHxSAAPtA.jpg", "release_date": "1965-05-06", "title": "The Holy Man", "video": false, "vote_average": 6.4, "vote_count": 7, "popularity": 1.67}, {"adult": false, "backdrop_path": "/4Dmj5W9ceoXaMr4JJpohci9Tyk8.jpg", "genre_ids": [99], "id": 112630, "original_language": "fr", "original_title": "Calcutta", "overview": "When he was cutting \"Phantom India,\" Louis Malle found that the footage shot in Calcutta was so diverse, intense, and unforgettable that it deserved its own film. The result, released theatrically, is at times shocking\u2014a chaotic portrait of a city engulfed in social and political turmoil.", "poster_path": "/zFK0x9Xq5zKP6qJY65MPgTtA3CP.jpg", "release_date": "1969-04-16", "title": "Calcutta", "video": false, "vote_average": 7.6, "vote_count": 5, "popularity": 2.868}], "total_pages": 1, "total_results": 18}, "credits": {"cast": [{"cast_id": 2, "character": "Herself", "credit_id": "52fe4890c3a36847f816e37b", "gender": 1, "id": 150071, "name": "Penny Patterson", "order": 0, "profile_path": null}, {"cast_id": 3, "character": "Le Gorille", "credit_id": "5419b872c3a3683ef00001f9", "gender": 1, "id": 1364939, "name": "Koko", "order": 1, "profile_path": "/syrTQFNctbXpDelwvpGW29Qd8NE.jpg"}, {"cast_id": 4, "character": "Directeur du Zoo de San Francisco", "credit_id": "5419b8890e0a266edc000201", "gender": 2, "id": 1364941, "name": "Saul Kitchener", "order": 2, "profile_path": null}, {"cast_id": 5, "character": "Le professeur de Neuroscience", "credit_id": "5419b89e0e0a266eee0001f3", "gender": 2, "id": 1364942, "name": "Carl Pribram", "order": 3, "profile_path": null}], "crew": [{"credit_id": "52fe4890c3a36847f816e377", "department": "Directing", "gender": 2, "id": 23393, "job": "Director", "name": "Barbet Schroeder", "profile_path": "/5uBKjaIcxAaq70v2RPBAvb9qcgM.jpg"}, {"credit_id": "59cb410a9251412be1009d08", "department": "Production", "gender": 1, "id": 6100, "job": "Producer", "name": "Margaret M\u00e9n\u00e9goz", "profile_path": null}, {"credit_id": "59cb41139251412b8f00a94f", "department": "Production", "gender": 0, "id": 1895453, "job": "Associate Producer", "name": "Dale Djerassi", "profile_path": null}, {"credit_id": "59cb411ac3a368776100abd0", "department": "Production", "gender": 2, "id": 23393, "job": "Associate Producer", "name": "Barbet Schroeder", "profile_path": "/5uBKjaIcxAaq70v2RPBAvb9qcgM.jpg"}, {"credit_id": "59cb4122c3a368773d00b2b7", "department": "Sound", "gender": 0, "id": 1895454, "job": "Original Music Composer", "name": "Guta Cattoni", "profile_path": null}, {"credit_id": "59cb41299251412be1009d2e", "department": "Sound", "gender": 0, "id": 1895455, "job": "Original Music Composer", "name": "Maris Embiricos", "profile_path": null}, {"credit_id": "59cb4132c3a36877a900a26a", "department": "Camera", "gender": 2, "id": 3569, "job": "Director of Photography", "name": "N\u00e9stor Almendros", "profile_path": "/3O9fLu6Mc1AYHHOh3DFwSO9vveY.jpg"}, {"credit_id": "59cb4138c3a36877a900a27f", "department": "Editing", "gender": 1, "id": 9889, "job": "Editor", "name": "Dominique Auvray", "profile_path": null}, {"credit_id": "59cb413e9251412b8b00ac03", "department": "Editing", "gender": 0, "id": 23730, "job": "Editor", "name": "Denise de Casabianca", "profile_path": null}, {"credit_id": "59cb4145c3a36877a900a286", "department": "Directing", "gender": 0, "id": 1895456, "job": "Assistant Director", "name": "Georges Csicsery", "profile_path": null}]}}