{"adult": false, "backdrop_path": "/8fwBhLeP4glHpiaXcOzOq8YdBXA.jpg", "belongs_to_collection": null, "budget": 0, "genres": [{"id": 18, "name": "Drama"}, {"id": 10749, "name": "Romance"}], "homepage": "", "id": 54225, "imdb_id": "tt1587422", "original_language": "en", "original_title": "\uc624\uac10\ub3c4", "overview": "In this anthology film centered around the theme of \"Eros,\" five seperate stories are presented by five top Korean directors. The main characters from each segment are connected with each other in one way or another.", "popularity": 5.195, "poster_path": "/g7N9DbpHW7EDbvsBVylfLShvFEM.jpg", "production_companies": [], "production_countries": [{"iso_3166_1": "KR", "name": "South Korea"}], "release_date": "2009-07-09", "revenue": 2484095, "runtime": 130, "spoken_languages": [{"iso_639_1": "ko", "name": "\ud55c\uad6d\uc5b4/\uc870\uc120\ub9d0"}], "status": "Released", "tagline": "", "title": "Five Senses of Eros", "video": false, "vote_average": 5.2, "vote_count": 10, "keywords": {"keywords": [{"id": 1664, "name": "eroticism"}, {"id": 9706, "name": "anthology"}]}, "similar": {"page": 1, "results": [{"id": 496243, "video": false, "vote_count": 2663, "vote_average": 8.6, "title": "Parasite", "release_date": "2019-05-30", "original_language": "ko", "original_title": "\uae30\uc0dd\ucda9", "genre_ids": [35, 18, 53], "backdrop_path": "/TU9NIjwzjoKPwQHoHshkFcQUCG.jpg", "adult": false, "overview": "All unemployed, Ki-taek's family takes peculiar interest in the wealthy and glamorous Parks for their livelihood until they get entangled in an unexpected incident.", "poster_path": "/7IiTTgloJzvGI1TAYymCfbfl3vT.jpg", "popularity": 129.815}, {"id": 72190, "video": false, "vote_count": 9917, "vote_average": 6.7, "title": "World War Z", "release_date": "2013-06-20", "original_language": "en", "original_title": "World War Z", "genre_ids": [28, 18, 27, 878, 53], "backdrop_path": "/xMOQVYLeIKBXenJ9KMeasj7S64y.jpg", "adult": false, "overview": "Life for former United Nations investigator Gerry Lane and his family seems content. Suddenly, the world is plagued by a mysterious infection turning whole human populations into rampaging mindless zombies. After barely escaping the chaos, Lane is persuaded to go on a mission to investigate this disease. What follows is a perilous trek around the world where Lane must brave horrific dangers and long odds to find answers before human civilization falls.", "poster_path": "/Ha5t0J21eyiq6Az1EXzx0iwsGH.jpg", "popularity": 27.681}, {"id": 1255, "video": false, "vote_count": 1118, "vote_average": 6.8, "title": "The Host", "release_date": "2006-07-27", "original_language": "ko", "original_title": "\uad34\ubb3c", "genre_ids": [18, 27, 878], "backdrop_path": "/9diyJ180qJP4PHlHYPvwEMrrqI8.jpg", "adult": false, "overview": "Gang-du is a dim-witted man working at his father's tiny snack bar near the Han River. Following the dumping of gallons of toxic waste in the river, a giant mutated squid-like appears and begins attacking the populace.  Gang-du's daughter Hyun-seo is snatched up by the creature and he and his family are taken into custody by the military, who fear a virus spread by the creature..  In detention, Gang-du receives a phone call from Hyun-seo, who is not dead, merely trapped in a sewer.  With his family to assist him, he sets off to find Hyun-seo.", "poster_path": "/wLe2XnBHv5jJWIv5URin7vyCHbd.jpg", "popularity": 15.728}, {"id": 566397, "video": false, "vote_count": 0, "vote_average": 0.0, "title": "The Man Standing Next", "release_date": "2020-01-22", "original_language": "ko", "original_title": "\ub0a8\uc0b0\uc758 \ubd80\uc7a5\ub4e4", "genre_ids": [28, 18], "backdrop_path": "/m0Zp6dlmjfpolhMWx6KHJvmFlOk.jpg", "adult": false, "overview": "In the 1970s, Korea is under the absolute control of the President Park who controls the KCIA, the organization with an edge over any branch of government. The director of KCIA, KIM Gyu-pyeong, is the seemingly most prospective second-in-command. In the midst of reign of fear, a former KCIA director, PARK Yong-gak who knows all about the government\u2019s obscure operations, exiles to the U.S. where the investigation of \u2018Koreagate\u2019 is underway. As the tension escalates, the stifling political maneuvering by the all second-in-command\u2019s unfolds.", "poster_path": "/irC14m9de5imarTX6br5op1xfqU.jpg", "popularity": 20.801}, {"adult": false, "backdrop_path": "/9EetaShpwcbSfrcvDmaFaNMtVyK.jpg", "genre_ids": [28, 27, 53], "id": 396535, "original_language": "ko", "original_title": "\ubd80\uc0b0\ud589", "overview": "Martial law is declared when a mysterious viral outbreak pushes Korea into a state of emergency. Those on an express train to Busan, a city that has successfully fended off the viral outbreak, must fight for their own survival\u2026", "poster_path": "/qWOkfCgioLEf3Km9OWva93RYWAc.jpg", "release_date": "2016-07-20", "title": "Train to Busan", "video": false, "vote_average": 7.7, "vote_count": 3022, "popularity": 21.935}, {"adult": false, "backdrop_path": "/uUYCUbgI5VxsUflTMI4Y9L2Y6vb.jpg", "genre_ids": [80, 18, 53], "id": 11423, "original_language": "ko", "original_title": "\uc0b4\uc778\uc758 \ucd94\uc5b5", "overview": "1986 Gyunggi Province. The body of a young woman is found brutally raped and murdered. Two months later, a series of rapes and murders commences under similar circumstances. And in a country that had never known such crimes, the dark whispers about a serial murderer grow louder. A special task force is set up in the area, with two local detectives Park Doo-Man and Jo Young-Goo joined by a detective from Seoul who requested to be assigned to the case.", "poster_path": "/gawnVe9cFowdoDLo9Pok12NTw39.jpg", "release_date": "2003-05-02", "title": "Memories of Murder", "video": false, "vote_average": 8.1, "vote_count": 1093, "popularity": 13.452}, {"id": 437068, "video": false, "vote_count": 200, "vote_average": 8.2, "title": "A Taxi Driver", "release_date": "2017-08-02", "original_language": "ko", "original_title": "\ud0dd\uc2dc\uc6b4\uc804\uc0ac", "genre_ids": [28, 18, 36], "backdrop_path": "/dbXjTu5J00kCggPnQlDpVZmDBil.jpg", "adult": false, "overview": "May, 1980. Man-seob is a taxi driver in Seoul who lives from hand to mouth, raising his young daughter alone. One day, he hears that there is a foreigner who will pay big money for a drive down to Gwangju city. Not knowing that he\u2019s a German journalist with a hidden agenda, Man-seob takes the job.", "poster_path": "/iXVaWbxmyPk4KZGZk5GGDGFieMX.jpg", "popularity": 12.229}, {"adult": false, "backdrop_path": "/yl0siKWmGjnBcuCEacKyW0vHsWq.jpg", "genre_ids": [10749, 18], "id": 409387, "original_language": "ko", "original_title": "\uc815\uc0ac : \uacb0\ud63c \ub9d0\uace0 \uc5f0\uc560", "overview": "\"Getting married is crazy! I only want to be in relationships!\" The life story of a woman who doesn't want to settle for one man. Her mom nags at her to get married, her superior grills her to bring results and her boyfriend turns out to be married. Soo-kyeong comforts herself with some spicy food. One lonely birthday, she ends up having sex with the chef of the spicy food restaurant. They fit well mentally and physically so they get closer but Soo-kyeong rejects the chef's marriage proposal. The chef gets married with someone else and asks her, \"I got married with someone else like you said. Now will you have a relationship with me?\"", "poster_path": "/4hiv07Quj8A7J8onCIAjNCy62Er.jpg", "release_date": "2016-04-19", "title": "Sex: A Relationship and Not Marriage", "video": false, "vote_average": 7.7, "vote_count": 3, "popularity": 11.678}, {"adult": false, "backdrop_path": "/tvTyRu9eKfymkje8d9VoWJEoyUv.jpg", "genre_ids": [18], "id": 53932, "original_language": "es", "original_title": "Las edades de Lul\u00fa", "overview": "Fifteen-year-old Lulu has never known any affection from her family. But when she goes to a rock concert with Pablo, a friend of the family, he introduces Lulu to her first sexual experience. Years later, Pablo and Lulu have married; Pablo has created a sheltered, private world for Lulu, into which nothing intrudes. However, Lulu tires of her cloistered existence, and begins hanging out in shady bars, looking for vicarious thrills and danger.", "poster_path": "/5PK5MAN84o0ESgzeW9euozOLIEe.jpg", "release_date": "1990-12-13", "title": "The Ages of Lulu", "video": false, "vote_average": 5.7, "vote_count": 64, "popularity": 24.141}, {"adult": false, "backdrop_path": "/eHhtUoazdml8CMvzWtpunIyqrZS.jpg", "genre_ids": [18, 53, 10749], "id": 884, "original_language": "en", "original_title": "Crash", "overview": "After getting into a serious car accident, a TV director discovers an underground sub-culture of scarred, omnisexual car-crash victims who use car accidents and the raw sexual energy they produce to try to rejuvenate his sex life with his wife.", "poster_path": "/4PDLGJsS5uVBQlYjLMZ7t85dU0P.jpg", "release_date": "1996-07-17", "title": "Crash", "video": false, "vote_average": 6.5, "vote_count": 438, "popularity": 14.59}, {"id": 345, "video": false, "vote_count": 3077, "vote_average": 7.4, "title": "Eyes Wide Shut", "release_date": "1999-07-16", "original_language": "en", "original_title": "Eyes Wide Shut", "genre_ids": [18, 9648, 53], "backdrop_path": "/nxJ05LTOxmbTKdOA7kXcnijC2K9.jpg", "adult": false, "overview": "After Dr. Bill Harford's wife, Alice, admits to having sexual fantasies about a man she met, Bill becomes obsessed with having a sexual encounter. He discovers an underground sexual group and attends one of their meetings -- and quickly discovers that he is in over his head.", "poster_path": "/3mcSzcjUZSDFIUtuJZ7hNNGJGW1.jpg", "popularity": 20.781}, {"adult": false, "backdrop_path": "/fwreQBx5CD55c1DpH117cS8915P.jpg", "genre_ids": [18, 53], "id": 867, "original_language": "en", "original_title": "Sliver", "overview": "A woman moves into an apartment in Manhattan and learns that the previous tenant's life ended mysteriously after they fell from the balcony.", "poster_path": "/av21Dfu31DQPtp5jkorMMS58rQC.jpg", "release_date": "1993-05-21", "title": "Sliver", "video": false, "vote_average": 5.3, "vote_count": 288, "popularity": 19.094}, {"adult": false, "backdrop_path": "/90kmxuSwU28dVy1ghVSHI4x1wb8.jpg", "genre_ids": [35, 18, 37], "id": 537996, "original_language": "en", "original_title": "The Ballad of Buster Scruggs", "overview": "Vignettes weaving together the stories of six individuals in the old West at the end of the Civil War. Following the tales of a sharp-shooting songster, a wannabe bank robber, two weary traveling performers, a lone gold prospector, a woman traveling the West to an uncertain future, and a motley crew of strangers undertaking a carriage ride.", "poster_path": "/voxl654m7p36y8FLu8oQD7dfwwK.jpg", "release_date": "2018-11-09", "title": "The Ballad of Buster Scruggs", "video": false, "vote_average": 7.2, "vote_count": 2074, "popularity": 13.969}, {"id": 651, "video": false, "vote_count": 478, "vote_average": 7.1, "title": "M*A*S*H", "release_date": "1970-01-24", "original_language": "en", "original_title": "M*A*S*H", "genre_ids": [35, 18, 10752], "backdrop_path": "/l5YH6TCYi2mgZwXbDjF71iA9UBP.jpg", "adult": false, "overview": "The staff of a Korean War field hospital use humor and high jinks to keep their sanity in the face of the horror of war.", "poster_path": "/cscyvJ4nDgbqewrttPXZ5EYOdwa.jpg", "popularity": 12.777}, {"id": 337167, "video": false, "vote_count": 3882, "vote_average": 6.2, "title": "Fifty Shades Freed", "release_date": "2018-01-17", "original_language": "en", "original_title": "Fifty Shades Freed", "genre_ids": [18, 10749], "backdrop_path": "/9ywA15OAiwjSTvg3cBs9B7kOCBF.jpg", "adult": false, "overview": "Believing they have left behind shadowy figures from their past, newlyweds Christian and Ana fully embrace an inextricable connection and shared life of luxury. But just as she steps into her role as Mrs. Grey and he relaxes into an unfamiliar stability, new threats could jeopardize their happy ending before it even begins.", "poster_path": "/9ZedQHPQVveaIYmDSTazhT3y273.jpg", "popularity": 28.901}, {"id": 617, "video": false, "vote_count": 856, "vote_average": 6.3, "title": "Wild Things", "release_date": "1998-03-20", "original_language": "en", "original_title": "Wild Things", "genre_ids": [18, 9648, 53], "backdrop_path": "/wvMSGevzwrJAmK3xXYvse9goQgV.jpg", "adult": false, "overview": "When teen-socialite Kelly Van Ryan and troubled bad girl Suzie Toller accuse guidance counselor Sam Lombardo of rape, he's suspended by the school, rejected by the town, and fighting to get his life back. One cop suspects conspiracy, but nothing is what it seems...", "poster_path": "/dI9iYo1cL81yzJkBVyNGipjSvy0.jpg", "popularity": 15.963}, {"adult": false, "backdrop_path": "/5UhVmv70qTfy7YSf8r87kNXWxjK.jpg", "genre_ids": [18, 53, 9648], "id": 638, "original_language": "en", "original_title": "Lost Highway", "overview": "A tormented jazz musician finds himself lost in an enigmatic story involving murder, surveillance, gangsters, doppelgangers, and an impossible transformation inside a prison cell.", "poster_path": "/z6yhgEzGUJaBBgAxoyggRzwLnVM.jpg", "release_date": "1997-01-15", "title": "Lost Highway", "video": false, "vote_average": 7.6, "vote_count": 1279, "popularity": 17.633}, {"id": 72570, "video": false, "vote_count": 2651, "vote_average": 7.1, "title": "The Vow", "release_date": "2012-02-05", "original_language": "en", "original_title": "The Vow", "genre_ids": [18, 10749], "backdrop_path": "/cfp28CJU7Xak3MEjjIMkZLkTtIW.jpg", "adult": false, "overview": "Happy young married couple Paige and Leo are, well, happy. Then a car accident puts Paige into a life-threatening coma. Upon awakening she has lost the previous five years of memories, including those of her beloved Leo, her wedding, a confusing relationship with her parents, or the ending of her relationship with her ex-fiance. Despite these complications, Leo endeavors to win her heart again and rebuild their marriage.", "poster_path": "/qHNjcjKa6VHJsa0Eu0DHl2BaYw3.jpg", "popularity": 20.921}, {"id": 10497, "video": false, "vote_count": 282, "vote_average": 7.0, "title": "Bitter Moon", "release_date": "1992-09-02", "original_language": "en", "original_title": "Bitter Moon", "genre_ids": [18, 53, 10749], "backdrop_path": "/aQEByvmVJHPcGXzdYYFJhSitaGW.jpg", "adult": false, "overview": "An embittered husband, paralyzed and in a wheelchair, buttonholes a complete stranger and begins to tell him the story of his marriage. The stranger would like to escape, but cannot. For one thing he grows fascinated by the story. For another he is mesmerized by the man's wife, who has perfected that trick of looking a man boldly in the eye until, by looking away, he concedes sexual supremacy.", "poster_path": "/hGvO7nzNc9S2qKaY2blBb3qHHkQ.jpg", "popularity": 15.264}, {"id": 2057, "video": false, "vote_count": 429, "vote_average": 5.9, "title": "Original Sin", "release_date": "2001-05-08", "original_language": "en", "original_title": "Original Sin", "genre_ids": [53], "backdrop_path": "/is3I5v8FwLiEWxaksfN8D4MLNGH.jpg", "adult": false, "overview": "A young man is plunged into a life of subterfuge, deceit and mistaken identity in pursuit of a femme fatale whose heart is never quite within his grasp", "poster_path": "/yGis1Mai4ivspEXdWtXLg0bZPkX.jpg", "popularity": 18.232}], "total_pages": 58, "total_results": 1154}, "recommendations": {"page": 1, "results": [], "total_pages": 1, "total_results": 0}, "credits": {"cast": [{"cast_id": 1023, "character": "Jung Min-soo", "credit_id": "5817669b9251415c5e01cdc5", "gender": 2, "id": 63438, "name": "Jang Hyuk", "order": 0, "profile_path": "/yqG73irGO21PekSlTNlxEzfidYM.jpg"}, {"cast_id": 1009, "character": "Han Ji-won", "credit_id": "52fe4891c3a36847f816e6d3", "gender": 1, "id": 1149918, "name": "Cha Hyun-jung", "order": 1, "profile_path": "/1ddXF9lqsHyLYNtYw0XYfxdFzZH.jpg"}, {"cast_id": 1024, "character": "Kang Hyun-woo / Jung-ha's Younger Brother", "credit_id": "581766f7c3a36876af01d337", "gender": 2, "id": 84751, "name": "Kim Kang-woo", "order": 2, "profile_path": "/lJvcgUx1qEnNfGcCtbmp3EC5vCG.jpg"}, {"cast_id": 1022, "character": "Park Hwa-ran", "credit_id": "57f87b88c3a36830cf001507", "gender": 1, "id": 1094648, "name": "Bae Jong-ok", "order": 3, "profile_path": "/fkxuu5Mzul1Dvhw7ilk3dWjfVo7.jpg"}, {"cast_id": 1029, "character": "Bong Chan-woon / Older Brother", "credit_id": "581768ddc3a3687557018f17", "gender": 2, "id": 138531, "name": "Kim Su-ro", "order": 4, "profile_path": "/mPwzakqC43b7NPZbJkx36XQraKy.jpg"}, {"cast_id": 1017, "character": "Kim Mi-jin", "credit_id": "530a0c9bc3a36841f00041c6", "gender": 1, "id": 1246931, "name": "Kim Gyu-ri", "order": 5, "profile_path": "/q48drWt7V9pARReR3gRcB3Qf0q9.jpg"}, {"cast_id": 1021, "character": "Lee Jung-ha", "credit_id": "53ccc1a70e0a265ded003771", "gender": 1, "id": 121149, "name": "Uhm Jung-hwa", "order": 6, "profile_path": "/4apnh4HOHIv6eCeEttbD13AzvxY.jpg"}, {"cast_id": 1027, "character": "Min Jae-in", "credit_id": "581768b99251415d6101bd8b", "gender": 2, "id": 68903, "name": "Hwang Jung-min", "order": 7, "profile_path": "/2T81Q4tgjsrPnmbarHnQwySNPZd.jpg"}, {"cast_id": 1020, "character": "Kang Na-ru", "credit_id": "532ed88cc3a3685fac003f2c", "gender": 1, "id": 127273, "name": "Kim Hyo-jin", "order": 8, "profile_path": "/2FNzPWRekRa2vIUUqCXonn0KjHP.jpg"}, {"cast_id": 1025, "character": "Han Ji-woon", "credit_id": "581767a1c3a3687557018e71", "gender": 2, "id": 118976, "name": "Kim Dong-wook", "order": 9, "profile_path": "/mXOe140fwEAJkAkLyWldv8Hs7ux.jpg"}, {"cast_id": 1015, "character": "Jung Se-eun", "credit_id": "52fe4891c3a36847f816e6eb", "gender": 1, "id": 138532, "name": "Lee Si-young", "order": 10, "profile_path": "/44yPqL4mYdbEcAenusclgcXT0sl.jpg"}, {"cast_id": 1026, "character": "Seo Sang-min", "credit_id": "5817689dc3a368767e01ac68", "gender": 2, "id": 1256350, "name": "Jung Eui-chul", "order": 11, "profile_path": null}, {"cast_id": 1006, "character": "Shin Su-jung", "credit_id": "52fe4891c3a36847f816e6c3", "gender": 1, "id": 126348, "name": "Shin Se-kyung", "order": 12, "profile_path": "/uR04441kxeSzYkztUv2uogIfiAr.jpg"}, {"cast_id": 1031, "character": "Yu Jae-hyuk", "credit_id": "59c51e8e9251415b2802baaa", "gender": 2, "id": 150698, "name": "Song Joong-ki", "order": 13, "profile_path": "/PvQ0ccnMQxs9e4qIaOGXIW2uZ8.jpg"}, {"cast_id": 1016, "character": "Lee Yun-jung", "credit_id": "52fe4891c3a36847f816e6ef", "gender": 1, "id": 1149923, "name": "Clara Lee", "order": 14, "profile_path": "/6Nm2uohq4KzIOGlmYztlQ5abTnu.jpg"}, {"cast_id": 1030, "character": "Ahn Hye-rim / Music Director", "credit_id": "58525e2dc3a368258c016b12", "gender": 1, "id": 119529, "name": "Cha Soo-yeon", "order": 15, "profile_path": "/vugm1dNimJO4jwnMM8nU1HDKgSO.jpg"}], "crew": [{"credit_id": "52fe4891c3a36847f816e6c9", "department": "Directing", "gender": 2, "id": 96631, "job": "Director", "name": "Hur Jin-ho", "profile_path": "/2slcQmDkQOFRlxVkblzCq52zBcE.jpg"}, {"credit_id": "52fe4891c3a36847f816e6b5", "department": "Directing", "gender": 2, "id": 117498, "job": "Director", "name": "Oh Ki-hwan", "profile_path": null}, {"credit_id": "5bbe8fb39251413d4a002fcc", "department": "Writing", "gender": 2, "id": 117498, "job": "Writer", "name": "Oh Ki-hwan", "profile_path": null}, {"credit_id": "52fe4891c3a36847f816e6bb", "department": "Directing", "gender": 2, "id": 150150, "job": "Director", "name": "Min Kyu-dong", "profile_path": "/lsLVaDDkglaYkFoiayN0cDGQTp5.jpg"}, {"credit_id": "5bbe8cefc3a3682b390033fb", "department": "Writing", "gender": 2, "id": 150150, "job": "Writer", "name": "Min Kyu-dong", "profile_path": "/lsLVaDDkglaYkFoiayN0cDGQTp5.jpg"}, {"credit_id": "5314eb5ec3a3687e3f000a50", "department": "Directing", "gender": 2, "id": 224381, "job": "Director", "name": "Byun Hyuk", "profile_path": "/wlvHtiXwjbUYdysmXgkX3s4elk7.jpg"}, {"credit_id": "5bbe82d3c3a3682b4600216d", "department": "Writing", "gender": 2, "id": 224381, "job": "Writer", "name": "Byun Hyuk", "profile_path": "/wlvHtiXwjbUYdysmXgkX3s4elk7.jpg"}, {"credit_id": "52fe4891c3a36847f816e6cf", "department": "Production", "gender": 0, "id": 1149916, "job": "Producer", "name": "Choi Soon-Sik", "profile_path": null}, {"credit_id": "5314ed97c3a3682a220057c1", "department": "Directing", "gender": 2, "id": 1182413, "job": "Director", "name": "Yu Young-sik", "profile_path": null}, {"credit_id": "5bbe89fb0e0a26236f002f78", "department": "Writing", "gender": 2, "id": 1182413, "job": "Writer", "name": "Yu Young-sik", "profile_path": null}, {"credit_id": "5e0a2f3adbcade0016c4f532", "department": "Directing", "gender": 2, "id": 1293617, "job": "Assistant Director", "name": "Lee Won-suk", "profile_path": "/pcw7hcB8iUYWtWhF289IdxCMfP.jpg"}, {"credit_id": "5c6eda3dc3a36848f1e4577a", "department": "Camera", "gender": 2, "id": 1294077, "job": "Director of Photography", "name": "Go Rak-sun", "profile_path": null}, {"credit_id": "5bbe85290e0a26236b0026cf", "department": "Writing", "gender": 1, "id": 2147224, "job": "Writer", "name": "Kim Kyung-mi", "profile_path": null}, {"credit_id": "5bbe88db0e0a262376002b4e", "department": "Writing", "gender": 0, "id": 2147230, "job": "Writer", "name": "Lee Jung-hwa", "profile_path": null}, {"credit_id": "5c6ed8c80e0a262c99a4a098", "department": "Production", "gender": 2, "id": 2187772, "job": "Producer", "name": "William Kim", "profile_path": null}]}}