{"adult": false, "backdrop_path": "/waoV6Bo7aJiXPEUOtB1pBhf0iSV.jpg", "belongs_to_collection": null, "budget": 0, "genres": [{"id": 53, "name": "Thriller"}], "homepage": null, "id": 542905, "imdb_id": "tt6237268", "original_language": "en", "original_title": "Ride", "overview": "A night in Los Angeles becomes a psychological war for survival when an Uber driver, James, and his passenger, Jessica, pick up Bruno, who is charismatic but manipulative.", "popularity": 9.95, "poster_path": "/skyZpGolECdQD3KrtqjYHLHC4to.jpg", "production_companies": [{"id": 13238, "logo_path": "/kDNZz8imH866Mezx1YhLWljoQTV.png", "name": "Unified Pictures", "origin_country": "US"}, {"id": 89122, "logo_path": null, "name": "Look to the Sky Films", "origin_country": "CA"}], "production_countries": [{"iso_3166_1": "US", "name": "United States of America"}], "release_date": "2018-10-05", "revenue": 0, "runtime": 79, "spoken_languages": [{"iso_639_1": "en", "name": "English"}], "status": "Released", "tagline": "Some rides should never be shared", "title": "Ride", "video": false, "vote_average": 5.7, "vote_count": 42, "keywords": {"keywords": [{"id": 1419, "name": "gun"}, {"id": 3752, "name": "night"}, {"id": 3762, "name": "darkness"}, {"id": 33885, "name": "car"}, {"id": 207716, "name": "actor"}, {"id": 231544, "name": "uber"}]}, "similar": {"page": 1, "results": [{"id": 11427, "video": false, "vote_count": 245, "vote_average": 6.5, "title": "Dead End", "release_date": "2003-01-30", "original_language": "en", "original_title": "Dead End", "genre_ids": [27, 9648, 53], "backdrop_path": "/mStA8L0tXViSfd89KeXatNIA5u8.jpg", "adult": false, "overview": "Christmas Eve. On his way to his in-laws with his family, Frank Harrington decides to try a shortcut, for the first time in 20 years. It turns out to be the biggest mistake of his life.", "poster_path": "/51JnZig26aAUZ7zA4l5MkFCQ9th.jpg", "popularity": 11.883}, {"id": 13446, "video": false, "vote_count": 287, "vote_average": 7.5, "title": "Withnail & I", "release_date": "1987-06-19", "original_language": "en", "original_title": "Withnail & I", "genre_ids": [35, 18], "backdrop_path": "/6ef97oecBYvur6CoatTURHQscjU.jpg", "adult": false, "overview": "Two out-of-work actors -- the anxious, luckless Marwood and his acerbic, alcoholic friend, Withnail -- spend their days drifting between their squalid flat, the unemployment office and the pub. When they take a holiday \"by mistake\" at the country house of Withnail's flamboyantly gay uncle, Monty, they encounter the unpleasant side of the English countryside: tedium, terrifying locals and torrential rain.", "poster_path": "/lXD5UR2dvXJF54AIBt8G2kDvYGk.jpg", "popularity": 11.561}, {"id": 359246, "video": false, "vote_count": 125, "vote_average": 6.4, "title": "Hell House LLC", "release_date": "2015-10-16", "original_language": "en", "original_title": "Hell House LLC", "genre_ids": [27, 9648, 53], "backdrop_path": "/frZyvfi83MAdudtrJeOOB77Vo0O.jpg", "adult": false, "overview": "Five years after an unexplained malfunction causes the death of 15 tour-goers and staff on the opening night of a Halloween haunted house tour, a documentary crew travels back to the scene of the tragedy to find out what really happened.", "poster_path": "/6PiTLoQRtc27pM922t9GUNrvCdf.jpg", "popularity": 8.347}, {"id": 145316, "video": false, "vote_count": 63, "vote_average": 5.8, "title": "Air Mater", "release_date": "2011-08-04", "original_language": "en", "original_title": "Air Mater", "genre_ids": [16, 10751], "backdrop_path": "/59HNGwEqcdZQl1vcKj6kTOwkFJr.jpg", "adult": false, "overview": "Mater's decision to fly lands him accidentally at a big airshow.", "poster_path": "/meGOYxqFyWkibJkPIjVydkdOL3E.jpg", "popularity": 8.304}, {"id": 36349, "video": false, "vote_count": 57, "vote_average": 5.7, "title": "Black Moon Rising", "release_date": "1986-01-10", "original_language": "en", "original_title": "Black Moon Rising", "genre_ids": [28, 878, 53], "backdrop_path": "/2gZ93Y3kDTAhQaNvz70yBqHMm66.jpg", "adult": false, "overview": "An FBI free-lancer stashes a stolen Las Vegas-crime tape in a high-tech car stolen by someone else.", "poster_path": "/2KNhZ3D0YkBDaO82aqWN6WxVvJS.jpg", "popularity": 8.329}, {"adult": false, "backdrop_path": "/3MnR8hhwaszjmOiob3qVrplPP3S.jpg", "genre_ids": [10751, 16], "id": 141528, "original_language": "en", "original_title": "Time Travel Mater", "overview": "When a clock lands on Mater's engine, he travels back in time to 1909 where he meets Stanley, an ambitious young car on his way to California. With the help of Lightning McQueen, Mater alters history by convincing Stanley to stay and build Radiator Springs. Stanley meets Lizzie and they commemorate the opening of the new courthouse with their wedding.", "poster_path": "/nuISwHACr86MD9iO1U9ne7ZtT2l.jpg", "release_date": "2012-06-12", "title": "Time Travel Mater", "video": false, "vote_average": 5.8, "vote_count": 48, "popularity": 7.2}, {"adult": false, "backdrop_path": "/5JMUel99xacu6RRBK79LxLeEUVc.jpg", "genre_ids": [16, 35], "id": 148608, "original_language": "en", "original_title": "Moon Mater", "overview": "Mater is the first tow truck on the moon! When an auto-naut gets stranded on his lunar mission, it's up to Mater to venture into space and tow him back to Earth (with a little help from his friend Lightning McQueen, of course).", "poster_path": "/d4du70hEkq5nBznMcW89BxDY2Zb.jpg", "release_date": "2010-11-02", "title": "Moon Mater", "video": false, "vote_average": 5.6, "vote_count": 22, "popularity": 3.448}, {"adult": false, "backdrop_path": "/9atgLa22Jvg025BcCmcJGWcmZZY.jpg", "genre_ids": [16], "id": 148607, "original_language": "en", "original_title": "Heavy Metal Mater", "overview": "Mater and Lightning McQueen are ready to rock! When Mater's garage band, Mater and the Gas Caps, records a hit song, Mater becomes a rock legend. Then Lightning joins Mater's band for the rock concert of the century!", "poster_path": "/9IhQCB8McfAasoFtzfu1LXgaNMH.jpg", "release_date": "2010-10-08", "title": "Heavy Metal Mater", "video": false, "vote_average": 5.8, "vote_count": 23, "popularity": 4.273}, {"adult": false, "backdrop_path": "/u1m7bwLmRV30gXVS1FoFy5zwbgV.jpg", "genre_ids": [35, 10751], "id": 151321, "original_language": "ml", "original_title": "\u0d2c\u0d46\u0d38\u0d4d\u0d31\u0d4d\u0d31\u0d4d \u0d06\u0d15\u0d4d\u0d1f\u0d30\u0d4d\u200d", "overview": "Best Actor is a movie about an ordinary school teacher who never gives up on his dream of becoming an actor.", "poster_path": "/aEE0XuBqae6wiZ9i8jOlCXRcwxB.jpg", "release_date": "2010-01-01", "title": "Best Actor", "video": false, "vote_average": 6.5, "vote_count": 11, "popularity": 2.431}, {"adult": false, "backdrop_path": "/lHcvSaTG8gPN1Jbk3jkJf8fm5B.jpg", "genre_ids": [16], "id": 148606, "original_language": "en", "original_title": "Mater Private Eye", "overview": "Detective Mater is hot on the trail of a dastardly car-napping! When Tia's sister goes missing, Mater is the only car she can turn to. With this tow truck on the case, anything can happen.", "poster_path": "/3zL2OZU7rkw4v0uVudjDbVzXdhO.jpg", "release_date": "2010-11-02", "title": "Mater Private Eye", "video": false, "vote_average": 5.5, "vote_count": 25, "popularity": 5.937}, {"id": 432606, "video": false, "vote_count": 10, "vote_average": 8.4, "title": "Sleep Has Her House", "release_date": "2017-01-01", "original_language": "en", "original_title": "Sleep Has Her House", "genre_ids": [99, 27, 9648], "backdrop_path": "/ioU6utUf6ZQ956sg46dZDwLgOb7.jpg", "adult": false, "overview": "The shadows of screams climb beyond the hills.  It has happened before. But this will be the last time.  The last few sense it, withdrawing deep into the forest.  They cry out into the black, as the shadows pass away, into the ground.", "poster_path": "/xIFdTSIe3KVb2rxgBwfaWNdrFwx.jpg", "popularity": 3.269}, {"adult": false, "backdrop_path": null, "genre_ids": [53, 27], "id": 488289, "original_language": "en", "original_title": "The Hag", "overview": "It seems like an ordinary night when Emily turns out the lights in her apartment, little does she know that her night would become a living nightmare.", "poster_path": null, "release_date": "2017-11-25", "title": "The Hag", "video": false, "vote_average": 0.0, "vote_count": 0, "popularity": 0.6}, {"adult": false, "backdrop_path": null, "genre_ids": [28, 80, 18], "id": 469813, "original_language": "en", "original_title": "30 Segundos para Morir", "overview": "Three brothers smuggle arms and drugs from Mexico into the US.", "poster_path": "/8tyPe6Ah44OoI0oaHwlE2CJqoQc.jpg", "release_date": "1981-02-26", "title": "30 Segundos para Morir", "video": false, "vote_average": 5.0, "vote_count": 1, "popularity": 0.87}, {"adult": false, "backdrop_path": null, "genre_ids": [28], "id": 108374, "original_language": "en", "original_title": "Loter\u00eda mortal", "overview": "", "poster_path": "/qAnb9snSjLKzRcAliH9bGbY1o5n.jpg", "release_date": "1997-01-01", "title": "Fatal Lottery", "video": false, "vote_average": 0.0, "vote_count": 0, "popularity": 0.947}, {"adult": false, "backdrop_path": "/tx6lM2ELjV3bUJkOQPAUPeAQAIu.jpg", "genre_ids": [35, 28, 80], "id": 502496, "original_language": "lv", "original_title": "Krimin\u0101l\u0101s ekselences fonds", "overview": "Imants Veide is writing a script about con artists and their schemes. Together with his friend Harijs Kuharjonoks he's trying them out for real for greater authenticity, but gets too entangled in real criminal schemes. More and more colorful characters appear on the horizon, but Imant's main adversary on the road to criminal excellency is his Neighbour, a true iron lady with balls bigger than all those involved combined.", "poster_path": "/tO9Fg0dT9lCJEgKzbkgkBHuFVSv.jpg", "release_date": "2018-02-02", "title": "The Foundation of Criminal Excellence", "video": false, "vote_average": 9.0, "vote_count": 4, "popularity": 1.184}, {"adult": false, "backdrop_path": null, "genre_ids": [28, 80, 18], "id": 542475, "original_language": "es", "original_title": "Una buena forma de morir", "overview": "After his wife is murdered by gang members, a man must take revenge.", "poster_path": "/1WnS3sb9A3m9JcyuRQTOBexro80.jpg", "release_date": "1994-11-11", "title": "Una buena forma de morir", "video": false, "vote_average": 0.0, "vote_count": 0, "popularity": 0.6}, {"adult": false, "backdrop_path": "/gB3SanNkCYYShYNgBGtwppJC2iy.jpg", "genre_ids": [18], "id": 5953, "original_language": "fr", "original_title": "La dame dans l'auto avec des lunettes et un fusil", "overview": "Dany Longo is blonde, beautiful, disturbed, passionate--and nearsighted. As she speeds through the south of France in a purloined Thunderbird on an errand for her employer and his wife, no one, including Dany herself, knows where she is headed--or why she is going there.", "poster_path": "/9jGhwi1JIwuhtjGEMYnpcP176P8.jpg", "release_date": "1970-10-22", "title": "The Lady in the Car with Glasses and a Gun", "video": false, "vote_average": 4.3, "vote_count": 6, "popularity": 1.811}, {"adult": false, "backdrop_path": null, "genre_ids": [18, 53], "id": 297865, "original_language": "es", "original_title": "La Santa Muerte", "overview": "Two stories of people who's life has changed after joining the cult of \"La Santa Muerte\" for both better and worse.", "poster_path": "/hJjGtUQZG3HA0lxfzmD7ASNlBLB.jpg", "release_date": "2007-09-28", "title": "La Santa Muerte", "video": false, "vote_average": 3.5, "vote_count": 2, "popularity": 1.161}, {"adult": false, "backdrop_path": null, "genre_ids": [80, 28, 18, 53], "id": 542226, "original_language": "es", "original_title": "Las Muertas de Juarez", "overview": "There is a serial killer and the detectives try to capture him. Someone brings him women willing to migrate to the United States, he sexually abuses them and kills them.", "poster_path": "/6PProE7mYljwyRSLc5tTuzomyCC.jpg", "release_date": "2002-01-01", "title": "Las Muertas de Juarez", "video": false, "vote_average": 5.0, "vote_count": 1, "popularity": 0.697}, {"adult": false, "backdrop_path": null, "genre_ids": [35, 27, 53], "id": 406265, "original_language": "fr", "original_title": "Le cimeti\u00e8re des \u00e9l\u00e9phants", "overview": "A man's car somehow becomes completely autonomous and takes the powerless driver, to a scrap yard, or a 'cemetery for cars', where several more vehicles are waiting to be crushed by powerful reducing machines, their passengers still inside.", "poster_path": null, "release_date": "1989-01-01", "title": "The Elephant Graveyard", "video": false, "vote_average": 0.0, "vote_count": 0, "popularity": 0.848}], "total_pages": 2, "total_results": 36}, "recommendations": {"page": 1, "results": [{"id": 516082, "video": false, "vote_count": 5, "vote_average": 5.4, "title": "Dead Squad: Temple of the Undead", "release_date": "2018-10-21", "original_language": "en", "original_title": "Dead Squad: Temple of the Undead", "genre_ids": [27], "backdrop_path": "/mFoZ1W0MK8rYFdvvxAKaLDEFxrJ.jpg", "adult": false, "overview": "A group of young people become lost in the jungle during a river rafting trip and stumble upon a long lost ruin that is home to a host of mysterious monsters.", "poster_path": "/t9yQUutIUcKtsVbFnbmtex7rV62.jpg", "popularity": 3.868}, {"id": 485464, "video": false, "vote_count": 7, "vote_average": 6.4, "title": "Lies We Tell", "release_date": "2018-02-02", "original_language": "en", "original_title": "Lies We Tell", "genre_ids": [80, 53, 10749], "backdrop_path": "/3vVlKIULu56yyjjj9zvwSdrowDr.jpg", "adult": false, "overview": "A trusted driver must deal with his dead boss's Muslim mistress, her dark past pulling him into a life-and-death showdown with her notorious gangster cousin/ex-husband.", "poster_path": "/4j2OYmRiDcEkfYNv0IAsXu5RRf1.jpg", "popularity": 5.493}, {"id": 531647, "video": false, "vote_count": 7, "vote_average": 7.1, "title": "22 Chaser", "release_date": "2018-07-06", "original_language": "en", "original_title": "22 Chaser", "genre_ids": [80, 18], "backdrop_path": "/3ZtAdmPqE8vZVaghcsuDEfLeJlM.jpg", "adult": false, "overview": "One of the city's last decent tow truck drivers risks everything on a desperate quest to become king of the road and provide for his struggling family.", "poster_path": "/ufVCyUIfnoPgpKA578wADEDPTqc.jpg", "popularity": 6.683}, {"adult": false, "backdrop_path": "/5vk1jue98S3iKy3gEJgFhQSdvxg.jpg", "genre_ids": [18, 10749], "id": 55895, "original_language": "en", "original_title": "Monogamy", "overview": "Exhibitionism, voyeurism, jealousy, lust. Brooklyn wedding photographer Theo\u2019s  side business shooting surveillance-style photos of clients on the sly takes an unexpected turn\u2014and creates a rift with his fianc\u00e9e \u2014when he\u2019s hired by a provocative mystery woman.", "poster_path": "/tyrxCMlwszOzZpRUhToP4zQuBhB.jpg", "release_date": "2010-04-24", "title": "Monogamy", "video": false, "vote_average": 3.6, "vote_count": 5, "popularity": 2.855}, {"adult": false, "backdrop_path": "/tMObGH32ZHtMCvO3EppYDA5rXdJ.jpg", "genre_ids": [53], "id": 518200, "original_language": "en", "original_title": "Rideshare", "overview": "Hitch, the most popular Rideshare app, has created safe rides for millions. At least, that's what they want you to think. It was only a matter of time before the story went public. The story of that one night. That one, horrific night.", "poster_path": "/cccSbqLOcLWDC4WQbSh2Fd76OmD.jpg", "release_date": "2018-04-13", "title": "Rideshare", "video": false, "vote_average": 5.1, "vote_count": 7, "popularity": 3.866}, {"adult": false, "backdrop_path": "/7dEAViBTMRKEmZMEgRg4FUwX5Gr.jpg", "genre_ids": [18], "id": 428323, "original_language": "en", "original_title": "Slamma Jamma", "overview": "Wrongfully accused and sent to prison, a former basketball star prepares for the national slam dunk competition while finding redemption in himself and in those he loves.", "poster_path": "/neKzLN7UaFzwP3H1r0FyYVtMGTh.jpg", "release_date": "2017-03-24", "title": "Slamma Jamma", "video": false, "vote_average": 5.6, "vote_count": 10, "popularity": 5.001}, {"adult": false, "backdrop_path": "/pvBII6iYcCO88HsPvRFFUFSEDEh.jpg", "genre_ids": [27, 9648, 53], "id": 496466, "original_language": "en", "original_title": "The House of Violent Desire", "overview": "Awoken by screams in the night, young Evelyn Whipley is found drenched in blood and mysteriously bound to the bed - A Gothic Horror set in the 1940s, a psychosexual thriller disguised as traditional Ghost Story.", "poster_path": "/j9t1I3MEndYAhzDY7LdCIqVoZRB.jpg", "release_date": "2018-10-05", "title": "The House of Violent Desire", "video": false, "vote_average": 7.4, "vote_count": 5, "popularity": 4.49}, {"adult": false, "backdrop_path": "/4X1N1Diiv1OsyvLuxAhzYmCTMCF.jpg", "genre_ids": [18, 53, 9648, 10749, 80], "id": 417809, "original_language": "en", "original_title": "Fatal Crossing", "overview": "When high-flying tech entrepreneur Carson Griffin believes himself guilty of killing a pedestrian while driving drunk, guilt and paranoia begin to unravel his life ahead of the launch of his new company as he plays a dangerous game of cat and mouse with June, the girlfriend of the deceased who is hell-bent on proving he is responsible.", "poster_path": "/nOuXSXTNX8x85wHky4Rphw4ry00.jpg", "release_date": "2017-11-19", "title": "Fatal Crossing", "video": false, "vote_average": 7.0, "vote_count": 3, "popularity": 3.021}, {"adult": false, "backdrop_path": "/poVt3f1dCG3J6UnczY9Otml7WvT.jpg", "genre_ids": [878], "id": 543140, "original_language": "en", "original_title": "The Capture", "overview": "A group of scientists perform an unethical experiment bending both space and time \u2013in the process they may have not only changed their lives but also the very fabric of the universe.", "poster_path": "/iVpoC6Kzg96S63rc1RWmNuV7DP3.jpg", "release_date": "2017-11-16", "title": "The Capture", "video": false, "vote_average": 6.4, "vote_count": 5, "popularity": 3.017}, {"id": 359767, "video": false, "vote_count": 10, "vote_average": 5.1, "title": "Girl Gets Girl", "release_date": "2015-09-25", "original_language": "es", "original_title": "De chica en chica", "genre_ids": [35], "backdrop_path": "/zPSWZcQQuRvJ2y02d64yckOCvA9.jpg", "adult": false, "overview": "A deliciously lighthearted comedy from the team of the successful web series Girl Seeks Girl. A hot and hilarious LGBT comedy that shows the different ways to understand love & family.", "poster_path": "/vMyidJDz7yl8s9QyrC1RdNnJM54.jpg", "popularity": 2.315}, {"id": 509624, "video": false, "vote_count": 10, "vote_average": 5.5, "title": "The Lotus", "release_date": "2018-03-06", "original_language": "en", "original_title": "The Lotus", "genre_ids": [28, 27, 878], "backdrop_path": null, "adult": false, "overview": "In the not so distant future, biochemical technology has advanced in unexpected ways. Unfortunately, it has fallen into the hands of the wrong man. A brilliant young biochemist by the name of Jacob, who believes the world is a better place without humanity. Jacob decides to take matters into his own hands by beginning the process to wipe everyone out. Staging biochemical attacks through out the city, the virus is released, infecting millions, from a matter of seconds. The virus is fierce, causing chaos and destruction everywhere. Across the way, just minutes before the attack, a young woman, by the name of Cee is caught in the whirlwind of her sister\u2019s wedding. As the wedding begins, the virus hits. Infecting everyone. Cee watches the attack unfold before her eyes, as dozens of loved ones perish. Waiting for the infection to take her, Cee finds herself alone in the early days of an apocalyptic world, surrounded by chaos and war. Fighting to survive as long as she can, she meets a...", "poster_path": "/hV9IwGeLDwbeNVDYukZitosSuO.jpg", "popularity": 2.434}, {"adult": false, "backdrop_path": "/2RfVsC0VDCyvfpwQKckqaFHS1rS.jpg", "genre_ids": [80, 28, 53], "id": 551947, "original_language": "en", "original_title": "Betrayed", "overview": "In an effort to control the city the Mayor opens the doors to the Russian Mob. It is not long until he realizes they aren't going to follow his rules. To fix the problem he accepts an offer to set up the Russians and open the door for the Cartel. When the Russians find out they take the Mayors Daughter and then the real games begin.", "poster_path": "/AcNhuxe5s6PqcLteRzjBlr0MAOU.jpg", "release_date": "2018-10-02", "title": "Betrayed", "video": false, "vote_average": 5.5, "vote_count": 11, "popularity": 3.44}, {"id": 528998, "video": false, "vote_count": 11, "vote_average": 5.2, "title": "Affairs of State", "release_date": "2018-06-15", "original_language": "en", "original_title": "Affairs of State", "genre_ids": [18, 53, 10749], "backdrop_path": "/9dx7vTeoUO6CrMHMn8qxq87GTDU.jpg", "adult": false, "overview": "A young campaign aide gets in way over his head when he sleeps with the wife of a presidential candidate, sending him into a downward spiral of corruption and blackmail. He is left fighting not only for his career, but also his life.", "poster_path": "/jw3CFmGrfs4qUf3Aih9xgN5BTqu.jpg", "popularity": 5.57}, {"id": 463940, "video": false, "vote_count": 15, "vote_average": 6.4, "title": "Locked Up", "release_date": "2017-06-20", "original_language": "en", "original_title": "Locked Up", "genre_ids": [80, 18, 53], "backdrop_path": "/cdHLTOvEhM7S9p3I4thHt4Fdfrn.jpg", "adult": false, "overview": "When an American teenager gets bullied at her school in Southeast Asia, she fights back--and gets sent to a reform school. But the \"school\" is more like a prison, and the young teenager must fend off predatory guards and menacing gangs to survive", "poster_path": "/tzYJ9X9oVybCIVAaTOUFHVwcjXo.jpg", "popularity": 8.912}, {"adult": false, "backdrop_path": "/BIAWStXjeYW3E88tYbEkCtBgcr.jpg", "genre_ids": [53], "id": 344276, "original_language": "en", "original_title": "Inhumane", "overview": "At a secret government facility, behavioral scientist Rachel Moreno runs an experimental drug trial on a group of prison inmates to find out what caused their violent behavior.", "poster_path": "/5XQid2cGPMak3ZSWj0vfZEJzdT2.jpg", "release_date": "2018-02-16", "title": "Inhumane", "video": false, "vote_average": 4.5, "vote_count": 10, "popularity": 4.922}, {"adult": false, "backdrop_path": "/dZ0irD16CWPah8C9VlJmpbrF2jU.jpg", "genre_ids": [18, 28], "id": 434129, "original_language": "en", "original_title": "Days of Power", "overview": "On their 2010 tour, an International Pop Star and band mates mysteriously disappear. As past and present merge, they find themselves searching for answers and fighting for more than just their own lives when a concealed industry is revealed.", "poster_path": "/r6WWgaAcccADoGBwUjmOgNs4KKA.jpg", "release_date": "2018-02-20", "title": "Days of Power", "video": false, "vote_average": 5.7, "vote_count": 13, "popularity": 4.047}, {"id": 516321, "video": false, "vote_count": 14, "vote_average": 5.5, "title": "The Assassin's Code", "release_date": "2018-05-11", "original_language": "en", "original_title": "The Assassin's Code", "genre_ids": [28, 53], "backdrop_path": "/7sDrjvHuyBONGvw2MCNcRlIDRgq.jpg", "adult": false, "overview": "A rookie detective, son of a dead disgraced cop, works to solve his first major case while under the watchful eye of a ghost-like assassin.", "poster_path": "/6YaLITnYgxtYyeYi3YP1otBMxrr.jpg", "popularity": 7.16}, {"adult": false, "backdrop_path": "/rudzNTwkKnFXfFMiuSSRHfIf0vU.jpg", "genre_ids": [18], "id": 450100, "original_language": "en", "original_title": "The Holly Kane Experiment", "overview": "An obsessive psychologist attempts to reprogramme her subconscious mind, but when her actions become increasingly uncharacteristic she fears her experiment is dangerously out of control.", "poster_path": "/nuJns2vtO5QLucBWj0DjhmWZvP8.jpg", "release_date": "2017-03-25", "title": "The Holly Kane Experiment", "video": false, "vote_average": 6.0, "vote_count": 15, "popularity": 5.135}, {"adult": false, "backdrop_path": "/ObT3kCNFxqkJRkrOqmjJrLGFVi.jpg", "genre_ids": [27], "id": 501851, "original_language": "en", "original_title": "Ouija House", "overview": "A graduate student, who is trying to finish the last of her research on a book project that she hopes will help her down-on-her-luck mother, brings friends to a house with a dark past, where they soon unwittingly summon an evil entity who makes the house part of its game\u2026", "poster_path": "/qzIieLNegNXZRzYLGgf8pYXp74X.jpg", "release_date": "2018-05-05", "title": "Ouija House", "video": false, "vote_average": 4.6, "vote_count": 14, "popularity": 3.308}, {"adult": false, "backdrop_path": "/l5AD1J9g9GwMMfWO2TIfrWMyfG8.jpg", "genre_ids": [35, 27], "id": 27207, "original_language": "en", "original_title": "Bloodsucking Pharaohs in Pittsburgh", "overview": "Two cops and a detective's daughter go after a chainsaw killer.", "poster_path": "/2Hp0DHqObkKOuRweeTlJr7i9xaY.jpg", "release_date": "1991-05-02", "title": "Bloodsucking Pharaohs in Pittsburgh", "video": false, "vote_average": 5.8, "vote_count": 11, "popularity": 4.535}], "total_pages": 2, "total_results": 40}, "credits": {"cast": [{"cast_id": 0, "character": "Jessica", "credit_id": "5b76ff87c3a3687555033ab2", "gender": 1, "id": 98285, "name": "Bella Thorne", "order": 1, "profile_path": "/xCEg9dWkbIUlcmTjsbb19gyNW2M.jpg"}, {"cast_id": 3, "character": "James", "credit_id": "5b872a5fc3a3681fe80025f9", "gender": 2, "id": 198847, "name": "Jessie T. Usher", "order": 2, "profile_path": "/bkFM2GHKU1rr6CRCgeaojY1TDCS.jpg"}, {"cast_id": 4, "character": "Bruno", "credit_id": "5b872a67c3a3681fef002c4e", "gender": 2, "id": 1136135, "name": "Will Brill", "order": 3, "profile_path": "/dMnnVxAMVmvbprdz87u9WNCmjsS.jpg"}, {"cast_id": 9, "character": "Club Bouncer", "credit_id": "5c1088c1c3a36825150fce22", "gender": 2, "id": 2193700, "name": "Byron L. Hopkins", "order": 4, "profile_path": "/7L6ZUT4lfshpmpZA7gcWhnkwxC2.jpg"}, {"cast_id": 10, "character": "Lucy", "credit_id": "5c1088e2925141479a0eba33", "gender": 1, "id": 2193701, "name": "Hailee Keanna Lautenbach", "order": 5, "profile_path": "/cyljoRZJPdnZtMTx9qvt3h4ZY0u.jpg"}, {"cast_id": 12, "character": "Promoter", "credit_id": "5c108932925141479e0dcd11", "gender": 0, "id": 1098033, "name": "Sara Lindsey", "order": 7, "profile_path": "/jdsEJyq9JbvSq6gerWcei4q7fIE.jpg"}, {"cast_id": 13, "character": "GPS (voice)", "credit_id": "5c108973c3a36825150fcf2d", "gender": 1, "id": 116315, "name": "Kari Wahlgren", "order": 8, "profile_path": "/9QEOdp5yM9B8IMAopBeX3Cz09tO.jpg"}], "crew": [{"credit_id": "5baa2763c3a36839f20192ef", "department": "Sound", "gender": 2, "id": 2214, "job": "Original Music Composer", "name": "Paul Haslinger", "profile_path": "/b1mV6xXtOuPHs0CLVpikVnRQJut.jpg"}, {"credit_id": "5baa27500e0a26611b016c86", "department": "Editing", "gender": 1, "id": 1099631, "job": "Editor", "name": "Kayla Emter", "profile_path": null}, {"credit_id": "5baa276d92514151d00148b7", "department": "Camera", "gender": 0, "id": 1261682, "job": "Director of Photography", "name": "Rob Givens", "profile_path": null}, {"credit_id": "5b76ffa9c3a368754802b03d", "department": "Directing", "gender": 2, "id": 2109586, "job": "Director", "name": "Jeremy Ungar", "profile_path": "/sWPMa9bSqDBImg9vSnhCPghEeVG.jpg"}, {"credit_id": "5b7769c39251412949003473", "department": "Writing", "gender": 2, "id": 2109586, "job": "Writer", "name": "Jeremy Ungar", "profile_path": "/sWPMa9bSqDBImg9vSnhCPghEeVG.jpg"}, {"credit_id": "5bc7e9639251410a0600bffc", "department": "Production", "gender": 2, "id": 2153267, "job": "Executive Producer", "name": "Mike Rowe", "profile_path": null}]}}