{"adult": false, "backdrop_path": "/pEvUvwwegt7Qcx4jKGfxGqsoMq6.jpg", "belongs_to_collection": null, "budget": 0, "genres": [{"id": 10749, "name": "Romance"}, {"id": 878, "name": "Science Fiction"}], "homepage": null, "id": 54476, "imdb_id": "tt0116294", "original_language": "en", "original_title": "Femalien", "overview": "In the pursuit of perfection, an alien civilization has evolved to become beings of pure light energy, unbound by the limitations of the mortal body. But they have lost something precious along the way: the ability to experience physical pleasure. They send a representative to Earth to record human sensory experiences. Taking the form of the perfect human female, \"Kara\" uses her powers to unlock the secrets of sensuality so long forgotten on her world.", "popularity": 5.148, "poster_path": "/7OmEnlwRTc2WrJJ0lapC6haArVK.jpg", "production_companies": [{"id": 1889, "logo_path": null, "name": "Surrender Cinema", "origin_country": ""}], "production_countries": [{"iso_3166_1": "US", "name": "United States of America"}], "release_date": "1996-09-03", "revenue": 0, "runtime": 89, "spoken_languages": [{"iso_639_1": "en", "name": "English"}], "status": "Released", "tagline": "Beyond Human Desire...", "title": "Femalien", "video": false, "vote_average": 4.6, "vote_count": 6, "keywords": {"keywords": [{"id": 572, "name": "sex"}, {"id": 4076, "name": "massage"}, {"id": 9951, "name": "alien"}, {"id": 33998, "name": "lesbian sex"}, {"id": 155477, "name": "softcore"}]}, "similar": {"page": 1, "results": [{"id": 602, "video": false, "vote_count": 6006, "vote_average": 6.8, "title": "Independence Day", "release_date": "1996-06-25", "original_language": "en", "original_title": "Independence Day", "genre_ids": [28, 12, 878], "backdrop_path": "/4E2xKGrU2qcqUE2S3Nl27hwZdqy.jpg", "adult": false, "overview": "On July 2, a giant alien mothership enters orbit around Earth and deploys several dozen saucer-shaped 'destroyer' spacecraft that quickly lay waste to major cities around the planet. On July 3, the United States conducts a coordinated counterattack that fails. On July 4, a plan is devised to gain access to the interior of the alien mothership in space, in order to plant a nuclear missile.", "poster_path": "/bqLlWZJdhrS0knfEJRkquW7L8z2.jpg", "popularity": 20.636}, {"id": 49849, "video": false, "vote_count": 3363, "vote_average": 5.5, "title": "Cowboys & Aliens", "release_date": "2011-07-29", "original_language": "en", "original_title": "Cowboys & Aliens", "genre_ids": [28, 878, 53, 37], "backdrop_path": "/gTDwoJBCu7scwYQoykIlLNpkCes.jpg", "adult": false, "overview": "A stranger stumbles into the desert town of Absolution with no memory of his past and a futuristic shackle around his wrist. With the help of mysterious beauty Ella and the iron-fisted Colonel Dolarhyde, he finds himself leading an unlikely posse of cowboys, outlaws, and Apache warriors against a common enemy from beyond this world in an epic showdown for survival.", "poster_path": "/9uZsGCP4rvOHVGCpMpYq5gNCuNI.jpg", "popularity": 21.609}, {"adult": false, "backdrop_path": "/98ahnrena4PwLth7HFYGLf9yssH.jpg", "genre_ids": [35, 18, 10749], "id": 22705, "original_language": "it", "original_title": "Tra(sgre)dire", "overview": "While scouting out apartments in London for her Venetian boyfriend, Carla rents an apartment that overlooks the Thames. There she meet the lesbian hyper-horny real estate agent Moira.", "poster_path": "/kZITrLEiTfzzJhtwtXhQUl3ImCQ.jpg", "release_date": "2000-01-28", "title": "Cheeky", "video": false, "vote_average": 5.7, "vote_count": 92, "popularity": 30.42}, {"id": 228161, "video": false, "vote_count": 2570, "vote_average": 6.7, "title": "Home", "release_date": "2015-03-18", "original_language": "en", "original_title": "Home", "genre_ids": [16, 35, 14, 878, 10751], "backdrop_path": "/6HoS2Hzcye4xGowSLTf0Pox43QW.jpg", "adult": false, "overview": "When Earth is taken over by the overly-confident Boov, an alien race in search of a new place to call home, all humans are promptly relocated, while all Boov get busy reorganizing the planet. But when one resourceful girl, Tip, manages to avoid capture, she finds herself the accidental accomplice of a banished Boov named Oh. The two fugitives realize there\u2019s a lot more at stake than intergalactic relations as they embark on the road trip of a lifetime.", "poster_path": "/b7czgMTk5txqLr2UczBb0Wez77E.jpg", "popularity": 18.709}, {"adult": false, "backdrop_path": "/hZzwIHyVAZ5goljYRuq66CWc5GY.jpg", "genre_ids": [878, 53, 27], "id": 20424, "original_language": "en", "original_title": "Invaders from Mars", "overview": "In the early hours of the night, young David Maclean sees a flying saucer land and disappear into the sand dunes just beyond his house. Slowly, all of the adults, including his once loving parents, begin to act strangely.", "poster_path": "/tafnBTKqr5EFxDt8TTD9tHUx6YB.jpg", "release_date": "1953-04-22", "title": "Invaders from Mars", "video": false, "vote_average": 6.1, "vote_count": 84, "popularity": 9.943}, {"adult": false, "backdrop_path": "/gPiurUCO9Aq5BoftzRjNlvbBrPg.jpg", "genre_ids": [18, 10749], "id": 24402, "original_language": "fr", "original_title": "Emmanuelle", "overview": "Emmanuelle, a svelte, naive young woman, is en route to Bangkok where she'll join her new husband. He works for the French Embassy and has a lovely home, several dedicated servants, and an expensive car at his disposal. Once Emmanuelle arrives, her husband and a few friends introduce her to a realm of sexual ecstasy she'd never imagined.", "poster_path": "/cSZ8MQIoec4w0liHP4x8FJH5BJK.jpg", "release_date": "1974-06-25", "title": "Emmanuelle", "video": false, "vote_average": 5.1, "vote_count": 135, "popularity": 24.885}, {"id": 2210, "video": false, "vote_count": 190, "vote_average": 5.5, "title": "Earth Girls Are Easy", "release_date": "1988-05-12", "original_language": "en", "original_title": "Earth Girls Are Easy", "genre_ids": [35, 10402, 878], "backdrop_path": "/rcgE2Tlbuzo3FFYMtzdTjdyybo0.jpg", "adult": false, "overview": "In this musical comedy, Valerie is dealing with her philandering fianc\u00e9, Ted, when she finds that a trio of aliens have crashed their spaceship into her swimming pool. Once the furry beings are shaved at her girlfriend's salon, the women discover three handsome men underneath. After absorbing the native culture via television, the spacemen are ready to hit the dating scene in 1980s Los Angeles.", "poster_path": "/pO9Edq8mgp9kD3N6EkCGYLnIVaA.jpg", "popularity": 13.511}, {"adult": false, "backdrop_path": "/iA5RfBnIzzpvwDPy5LHPrUKRl71.jpg", "genre_ids": [12, 878, 10770], "id": 12914, "original_language": "en", "original_title": "Stargate: Continuum", "overview": "Ba'al travels back in time and prevents the Stargate program from being started. SG-1 must somehow restore history.", "poster_path": "/tk1jYOK6DRvBHAoHCueUVL3RSEe.jpg", "release_date": "2008-07-29", "title": "Stargate: Continuum", "video": false, "vote_average": 7.0, "vote_count": 238, "popularity": 10.628}, {"adult": false, "backdrop_path": "/bYbnlh6VXFRtcSX82UMDsBDLB5j.jpg", "genre_ids": [18, 10749], "id": 28468, "original_language": "it", "original_title": "La chiave", "overview": "After twenty years of marriage, art professor Nino Rolfe attempts to break down his wife Teresa's conventional modesty. Noticing her affection for their daughter's fianc\u00e9, Nino instigates her sexual interest in him as well. This sets off a chain of unexpected events and emotional complications, as Nino and his unpredictable fascist daughter find that they both enjoy being jealous.", "poster_path": "/e6g2geNLgFzMbriH6EvSJZD78nx.jpg", "release_date": "1983-10-18", "title": "The Key", "video": false, "vote_average": 5.0, "vote_count": 128, "popularity": 15.363}, {"id": 106, "video": false, "vote_count": 4130, "vote_average": 7.4, "title": "Predator", "release_date": "1987-06-12", "original_language": "en", "original_title": "Predator", "genre_ids": [28, 12, 878, 53], "backdrop_path": "/vvsQe0ksUH001rxFGrnZkL9eBzr.jpg", "adult": false, "overview": "Dutch and his group of commandos are hired by the CIA to rescue downed airmen from guerillas in a Central American jungle. The mission goes well but as they return they find that something is hunting them. Nearly invisible, it blends in with the forest, taking trophies from the bodies of its victims as it goes along. Occasionally seeing through its eyes, the audience sees it is an intelligent alien hunter, hunting them for sport, killing them off one at a time.", "poster_path": "/gUpto7r2XwoM5eW7MUvd8hl1etB.jpg", "popularity": 28.364}, {"id": 2770, "video": false, "vote_count": 2941, "vote_average": 6.1, "title": "American Pie 2", "release_date": "2001-08-10", "original_language": "en", "original_title": "American Pie 2", "genre_ids": [35, 10749], "backdrop_path": "/1C1d3Tpesm8Vn3BRqsQZt0LfZcG.jpg", "adult": false, "overview": "The whole gang are back and as close as ever. They decide to get even closer by spending the summer together at a beach house. They decide to hold the biggest party ever to be seen, even if the preparation doesn't always go to plan. Especially when Stifler, Finch and Jim become more close to each other than they ever want to be and when Jim mistakes super glue for lubricant...", "poster_path": "/q4LNgUnRfltxzp3gf1MAGiK5LhV.jpg", "popularity": 20.359}, {"id": 346910, "video": false, "vote_count": 2440, "vote_average": 5.3, "title": "The Predator", "release_date": "2018-09-05", "original_language": "en", "original_title": "The Predator", "genre_ids": [28, 12, 27, 878, 53], "backdrop_path": "/f4E0ocYeToEuXvczZv6QArrMDJ.jpg", "adult": false, "overview": "When a kid accidentally triggers the universe's most lethal hunters' return to Earth, only a ragtag crew of ex-soldiers and a disgruntled female scientist can prevent the end of the human race.", "poster_path": "/wMq9kQXTeQCHUZOG4fAe5cAxyUA.jpg", "popularity": 26.19}, {"adult": false, "backdrop_path": "/xC9cG6Wy6QbH2hoAx11xPPD995R.jpg", "genre_ids": [18, 10749], "id": 86331, "original_language": "fr", "original_title": "Q", "overview": "In a social context deteriorated by a countrywide economic crisis, the life of several people will be turned upside down after they meet Cecile, a character who symbolizes desire.", "poster_path": "/9Jg9s4yTEndNmy1SSXRF9jdxY9D.jpg", "release_date": "2011-09-14", "title": "Desire", "video": false, "vote_average": 4.6, "vote_count": 204, "popularity": 25.756}, {"adult": false, "backdrop_path": "/kormVYncbZMrToXaOV58o74LNIz.jpg", "genre_ids": [18, 53, 878, 9648], "id": 2675, "original_language": "en", "original_title": "Signs", "overview": "A family living on a farm finds mysterious crop circles in their fields which suggests something more frightening to come.", "poster_path": "/bY9lCUVUajpkKWlfjWF1mtXaSUp.jpg", "release_date": "2002-08-02", "title": "Signs", "video": false, "vote_average": 6.6, "vote_count": 3222, "popularity": 16.898}, {"id": 828, "video": false, "vote_count": 557, "vote_average": 7.5, "title": "The Day the Earth Stood Still", "release_date": "1951-09-17", "original_language": "en", "original_title": "The Day the Earth Stood Still", "genre_ids": [878], "backdrop_path": "/uExEupzfV7Ffau0H98aefUU0zcG.jpg", "adult": false, "overview": "An alien and a robot land on earth after World War II and tell mankind to be peaceful or face destruction. A classic science fiction film from Robert Wise with an exceptional message.", "poster_path": "/x2DquTpLTq54aPFDnqlwY7apCC3.jpg", "popularity": 30.427}, {"id": 8077, "video": false, "vote_count": 3112, "vote_average": 6.3, "title": "Alien\u00b3", "release_date": "1992-05-22", "original_language": "en", "original_title": "Alien\u00b3", "genre_ids": [28, 27, 878], "backdrop_path": "/nDPuIjpJyGDOnNEby5ZgkRBxymS.jpg", "adult": false, "overview": "After escaping with Newt and Hicks from the alien planet, Ripley crash lands on Fiorina 161, a prison planet and host to a correctional facility. Unfortunately, although Newt and Hicks do not survive the crash, a more unwelcome visitor does. The prison does not allow weapons of any kind, and with aid being a long time away, the prisoners must simply survive in any way they can.", "poster_path": "/p7mUd9GpmCYV5qhkKGmiEerFK3i.jpg", "popularity": 25.873}, {"id": 7453, "video": false, "vote_count": 2556, "vote_average": 6.7, "title": "The Hitchhiker's Guide to the Galaxy", "release_date": "2005-04-28", "original_language": "en", "original_title": "The Hitchhiker's Guide to the Galaxy", "genre_ids": [12, 35, 878, 10751], "backdrop_path": "/kMf3ewax3ZeiSESaPQxBAReQzDD.jpg", "adult": false, "overview": "Mere seconds before the Earth is to be demolished by an alien construction crew, Arthur Dent is swept off the planet by his friend Ford Prefect, a researcher penning a new edition of \"The Hitchhiker's Guide to the Galaxy.\"", "poster_path": "/fOb4cJMhnZ11BoHNUii3Vcfo3XU.jpg", "popularity": 23.951}, {"id": 54138, "video": false, "vote_count": 6599, "vote_average": 7.3, "title": "Star Trek Into Darkness", "release_date": "2013-05-05", "original_language": "en", "original_title": "Star Trek Into Darkness", "genre_ids": [28, 12, 878], "backdrop_path": "/ns0IojuqJe24AHTxe8RVcWJUCDM.jpg", "adult": false, "overview": "When the crew of the Enterprise is called back home, they find an unstoppable force of terror from within their own organization has detonated the fleet and everything it stands for, leaving our world in a state of crisis.  With a personal score to settle, Captain Kirk leads a manhunt to a war-zone world to capture a one man weapon of mass destruction. As our heroes are propelled into an epic chess game of life and death, love will be challenged, friendships will be torn apart, and sacrifices must be made for the only family Kirk has left: his crew.", "poster_path": "/41mhrXASAW3sdn7LBWF49uCX0xi.jpg", "popularity": 22.476}, {"adult": false, "backdrop_path": "/xATZyEpnZ0Z0iO9z5K8RZsraGKI.jpg", "genre_ids": [878, 18], "id": 840, "original_language": "en", "original_title": "Close Encounters of the Third Kind", "overview": "After an encounter with UFOs, a line worker feels undeniably drawn to an isolated area in the wilderness where something spectacular is about to happen.", "poster_path": "/3Av8ZPiMrxFq9XiOjZl0tkoq9Oo.jpg", "release_date": "1977-11-16", "title": "Close Encounters of the Third Kind", "video": false, "vote_average": 7.4, "vote_count": 2289, "popularity": 38.059}, {"id": 126889, "video": false, "vote_count": 5389, "vote_average": 5.9, "title": "Alien: Covenant", "release_date": "2017-05-09", "original_language": "en", "original_title": "Alien: Covenant", "genre_ids": [27, 878, 53], "backdrop_path": "/6jajFcaY2YsfGQstJ5HaqZNVseX.jpg", "adult": false, "overview": "Bound for a remote planet on the far side of the galaxy, the crew of the colony ship 'Covenant' discovers what is thought to be an uncharted paradise, but is actually a dark, dangerous world\u2014which has a sole inhabitant: the 'synthetic', David, survivor of the doomed Prometheus expedition.", "poster_path": "/zecMELPbU5YMQpC81Z8ImaaXuf9.jpg", "popularity": 36.026}], "total_pages": 234, "total_results": 4666}, "recommendations": {"page": 1, "results": [], "total_pages": 1, "total_results": 0}, "credits": {"cast": [{"cast_id": 1003, "character": "Sun", "credit_id": "52fe489ec3a36847f8170dd3", "gender": 1, "id": 42961, "name": "Jacqueline Lovell", "order": 0, "profile_path": "/qlSEnlDUd7VPz9vsZWuOTmxmJp2.jpg"}, {"cast_id": 1007, "character": "Drew", "credit_id": "5747f1ecc3a3686ba0001a52", "gender": 0, "id": 1626814, "name": "Matt Shue", "order": 1, "profile_path": null}, {"cast_id": 1008, "character": "M.J.", "credit_id": "5747f2139251416356000f50", "gender": 2, "id": 103858, "name": "Kurt Sinclair", "order": 2, "profile_path": "/gDie6KvGegR7eNwHGOCERKbGdrp.jpg"}, {"cast_id": 1004, "character": "Kara", "credit_id": "52fe489ec3a36847f8170dd7", "gender": 1, "id": 104141, "name": "Venesa Talor", "order": 3, "profile_path": "/tRcHVCAYbpA7Dcg8OwYLPNDhFX2.jpg"}, {"cast_id": 1020, "character": "Gina / Meditation Woman", "credit_id": "58f18fbac3a3682ede000af9", "gender": 1, "id": 102877, "name": "Taylor St. Claire", "order": 4, "profile_path": "/u6kV1ou0sZ3FEKh4na1HHmxhvP1.jpg"}, {"cast_id": 1009, "character": "Girl Cop / Theatre Woman", "credit_id": "5747f269c3a3686bba0017a9", "gender": 1, "id": 929211, "name": "Brittany Andrews", "order": 5, "profile_path": "/e7hzTye8T4uRlzKabyDDk89vfUJ.jpg"}, {"cast_id": 1010, "character": "Frank", "credit_id": "5747f2879251415f4100121f", "gender": 0, "id": 1626817, "name": "Juan Carlos de Vasquez", "order": 6, "profile_path": null}, {"cast_id": 1011, "character": "Jean", "credit_id": "5747f32ac3a368136500136d", "gender": 1, "id": 1626820, "name": "Leena", "order": 7, "profile_path": "/cwFbd4NftikqQ9BdovS1u6POA82.jpg"}, {"cast_id": 1012, "character": "Harry", "credit_id": "5747f34592514135cb0017b4", "gender": 0, "id": 1626821, "name": "Carlos San Miguel", "order": 8, "profile_path": null}, {"cast_id": 1013, "character": "Celeste", "credit_id": "5747f36d9251414c4b000022", "gender": 0, "id": 1626822, "name": "Holly Cat", "order": 9, "profile_path": null}, {"cast_id": 1021, "character": "Paul", "credit_id": "58f18feec3a3682eb6000bc1", "gender": 0, "id": 240611, "name": "Everett Rodd", "order": 10, "profile_path": "/6qOAeIXZOb4vV7FvY5SOwj0LfMC.jpg"}, {"cast_id": 1022, "character": "Danielle", "credit_id": "58f18ffb9251412fc0000b3a", "gender": 1, "id": 1626377, "name": "Stephanie Hudson", "order": 11, "profile_path": null}, {"cast_id": 1023, "character": "Theatre Woman / Meditation Woman", "credit_id": "58f19026c3a3682eb6000bed", "gender": 1, "id": 100469, "name": "Sky Nicholas", "order": 12, "profile_path": null}, {"cast_id": 1024, "character": "Theatre Man / Meditation Man", "credit_id": "58f1904b9251412ff4000b98", "gender": 2, "id": 107198, "name": "Bobby Johnston", "order": 13, "profile_path": "/vyTqpp5RGxeie6nFQ5SBgq1GSgT.jpg"}, {"cast_id": 1025, "character": "Woman in Black Jumpsuit (uncredited)", "credit_id": "58f1905fc3a3682ece000ab8", "gender": 1, "id": 98434, "name": "Holly Hollywood", "order": 14, "profile_path": "/oojk7CS1CwgtMyFdI5tbl0P8fa3.jpg"}], "crew": [{"credit_id": "52fe489dc3a36847f8170dc9", "department": "Directing", "gender": 0, "id": 150742, "job": "Director", "name": "Cybil Richards", "profile_path": null}, {"credit_id": "52fe489ec3a36847f8170dcf", "department": "Writing", "gender": 0, "id": 150744, "job": "Story", "name": "Randy Fontana", "profile_path": null}, {"credit_id": "52fe489ec3a36847f8170de1", "department": "Writing", "gender": 0, "id": 150742, "job": "Writer", "name": "Cybil Richards", "profile_path": null}, {"credit_id": "5747f3bb9251413cf6000220", "department": "Production", "gender": 0, "id": 42229, "job": "Executive Producer", "name": "Pat Siciliano", "profile_path": null}, {"credit_id": "5747f4009251416356000f92", "department": "Sound", "gender": 0, "id": 1626823, "job": "Music", "name": "Ollie Wood", "profile_path": null}, {"credit_id": "5747f41ec3a368136500138f", "department": "Camera", "gender": 0, "id": 1626824, "job": "Director of Photography", "name": "Allen Smitty", "profile_path": null}, {"credit_id": "5747f4339251413cd9000256", "department": "Editing", "gender": 0, "id": 1626825, "job": "Editor", "name": "Barry Byrne", "profile_path": null}, {"credit_id": "5747f45492514135cb0017dc", "department": "Production", "gender": 0, "id": 1626131, "job": "Casting", "name": "Keely Rene", "profile_path": null}, {"credit_id": "5747f465c3a3686bc10019ff", "department": "Production", "gender": 0, "id": 42229, "job": "Casting", "name": "Pat Siciliano", "profile_path": null}]}}