{"adult": false, "backdrop_path": "/l6bDW12YCh4U3aBlZPxdT8THmQh.jpg", "belongs_to_collection": null, "budget": 250000, "genres": [{"id": 99, "name": "Documentary"}], "homepage": "http://www.nomaps.com/", "id": 54499, "imdb_id": "tt0269629", "original_language": "en", "original_title": "William Gibson: No Maps for These Territories", "overview": "On an overcast morning in 1999, William Gibson, father of cyberpunk and author of the cult-classic novel Neuromancer, stepped into a limousine and set off on a road trip around North America. The limo was rigged with digital cameras, a computer, a television, a stereo, and a cell phone. Generated entirely by this four-wheeled media machine, No Maps for These Territories is both an account of Gibson\u2019s life and work and a commentary on the world outside the car windows. Here, the man who coined the word \"cyberspace\" offers a unique perspective on Western culture at the edge of the new millennium, and in the throes of convulsive, tech-driven change.", "popularity": 2.573, "poster_path": "/329157hdloFLqZzyq7BoFQKEszS.jpg", "production_companies": [], "production_countries": [{"iso_3166_1": "US", "name": "United States of America"}, {"iso_3166_1": "GB", "name": "United Kingdom"}], "release_date": "2000-01-01", "revenue": 0, "runtime": 89, "spoken_languages": [{"iso_639_1": "en", "name": "English"}], "status": "Released", "tagline": "", "title": "William Gibson: No Maps for These Territories", "video": false, "vote_average": 6.1, "vote_count": 5, "keywords": {"keywords": [{"id": 1329, "name": "canada"}, {"id": 4434, "name": "interview"}, {"id": 10818, "name": "author"}, {"id": 12190, "name": "cyberpunk"}]}, "similar": {"page": 1, "results": [{"id": 91356, "video": false, "vote_count": 29, "vote_average": 6.7, "title": "Comic-Con Episode IV: A Fan's Hope", "release_date": "2011-09-10", "original_language": "en", "original_title": "Comic-Con Episode IV: A Fan's Hope", "genre_ids": [99], "backdrop_path": "/9jEhi26UTbZXn2QFzcYtiPyYkWB.jpg", "adult": false, "overview": "A behind-the-scenes look at San Diego Comic-Con, the world's largest comic book convention, and the fans who attend every year.", "poster_path": "/axltQJKHxolLfbGwuTKZZlLbBsZ.jpg", "popularity": 6.937}, {"adult": false, "backdrop_path": "/8QXGNP0Vb4nsYKub59XpAhiUSQN.jpg", "genre_ids": [878, 18], "id": 335984, "original_language": "en", "original_title": "Blade Runner 2049", "overview": "Thirty years after the events of the first film, a new blade runner, LAPD Officer K, unearths a long-buried secret that has the potential to plunge what's left of society into chaos. K's discovery leads him on a quest to find Rick Deckard, a former LAPD blade runner who has been missing for 30 years.", "poster_path": "/gajva2L0rPYkEWjzgFlBXCAVBE5.jpg", "release_date": "2017-10-04", "title": "Blade Runner 2049", "video": false, "vote_average": 7.4, "vote_count": 7580, "popularity": 47.484}, {"id": 500664, "video": false, "vote_count": 1709, "vote_average": 7.3, "title": "Upgrade", "release_date": "2018-06-01", "original_language": "en", "original_title": "Upgrade", "genre_ids": [28, 27, 878, 53], "backdrop_path": "/qUAGip3XiaVN668WXF2iyukWgUu.jpg", "adult": false, "overview": "A brutal mugging leaves Grey Trace paralyzed in the hospital and his beloved wife dead. A billionaire inventor soon offers Trace a cure \u2014 an artificial intelligence implant called STEM that will enhance his body. Now able to walk, Grey finds that he also has superhuman strength and agility \u2014 skills he uses to seek revenge against the thugs who destroyed his life.", "poster_path": "/8fDtXi6gVw8WUMWGT9XFz7YwkuE.jpg", "popularity": 32.518}, {"id": 78, "video": false, "vote_count": 8365, "vote_average": 7.9, "title": "Blade Runner", "release_date": "1982-06-25", "original_language": "en", "original_title": "Blade Runner", "genre_ids": [18, 878, 53], "backdrop_path": "/eIi3klFf7mp3oL5EEF4mLIDs26r.jpg", "adult": false, "overview": "In the smog-choked dystopian Los Angeles of 2019, blade runner Rick Deckard is called out of retirement to terminate a quartet of replicants who have escaped to Earth seeking their creator for a way to extend their short life spans.", "poster_path": "/vfzE3pjE5G7G7kcZWrA3fnbZo7V.jpg", "popularity": 33.322}, {"id": 861, "video": false, "vote_count": 3196, "vote_average": 7.2, "title": "Total Recall", "release_date": "1990-06-01", "original_language": "en", "original_title": "Total Recall", "genre_ids": [28, 12, 878], "backdrop_path": "/qoYaqN9XXrdjKcviJeWVQNcotfK.jpg", "adult": false, "overview": "Construction worker Douglas Quaid discovers a memory chip in his brain during a virtual-reality trip. He also finds that his past has been invented to conceal a plot of planetary domination. Soon, he's off to Mars to find out who he is and who planted the chip.", "poster_path": "/ikYpJ0AjGBNnAYFnPJDUVIOcduR.jpg", "popularity": 28.918}, {"id": 97, "video": false, "vote_count": 1217, "vote_average": 6.6, "title": "Tron", "release_date": "1982-07-09", "original_language": "en", "original_title": "Tron", "genre_ids": [28, 12, 878], "backdrop_path": "/owAF2FmDO0UnniCbMpCjN8VcFgA.jpg", "adult": false, "overview": "As Kevin Flynn searches for proof that he invented a hit video game, he is 'digitalized' by a laser and finds himself inside 'The Grid', where programs suffer under the tyrannical rule of the Master Control Program (MCP). With the help of a security program called 'TRON\", Flynn seeks to free The Grid from the MCP.", "poster_path": "/cTF8lpXvAwT1SLH9kVFZZl0AO0D.jpg", "popularity": 25.823}, {"id": 9323, "video": false, "vote_count": 1641, "vote_average": 7.9, "title": "Ghost in the Shell", "release_date": "1995-11-18", "original_language": "ja", "original_title": "GHOST IN THE SHELL", "genre_ids": [28, 16, 878], "backdrop_path": "/m1LUdsYnFThcrbvRzlpbsFioEQT.jpg", "adult": false, "overview": "In the year 2029, the barriers of our world have been broken down by the net and by cybernetics, but this brings new vulnerability to humans in the form of brain-hacking. When a highly-wanted hacker known as 'The Puppetmaster' begins involving them in politics, Section 9, a group of cybernetically enhanced cops, are called in to investigate and stop the Puppetmaster.", "poster_path": "/9gC88zYUBARRSThcG93MvW14sqx.jpg", "popularity": 21.491}, {"adult": false, "backdrop_path": "/2p5rA1NRoyyAFfzdHl1Ab1RN3qr.jpg", "genre_ids": [80, 28, 878], "id": 9739, "original_language": "en", "original_title": "Demolition Man", "overview": "Simon Phoenix, a violent criminal cryogenically frozen in 1996, escapes during a parole hearing in 2032 in the utopia of San Angeles. Police are incapable of dealing with his violent ways and turn to his captor, who had also been cryogenically frozen after being wrongfully accused of killing 30 innocent people while apprehending Phoenix.", "poster_path": "/k0PN3Ho12cGGIVJW7SCS7apLYaP.jpg", "release_date": "1993-10-08", "title": "Demolition Man", "video": false, "vote_average": 6.5, "vote_count": 1913, "popularity": 16.803}, {"id": 604, "video": false, "vote_count": 6344, "vote_average": 6.9, "title": "The Matrix Reloaded", "release_date": "2003-05-15", "original_language": "en", "original_title": "The Matrix Reloaded", "genre_ids": [28, 12, 878, 53], "backdrop_path": "/Fp3piEuHXxKnPBO5R0Wj4wjZHg.jpg", "adult": false, "overview": "Six months after the events depicted in The Matrix, Neo has proved to be a good omen for the free humans, as more and more humans are being freed from the matrix and brought to Zion, the one and only stronghold of the Resistance.  Neo himself has discovered his superpowers including super speed, ability to see the codes of the things inside the matrix and a certain degree of pre-cognition. But a nasty piece of news hits the human resistance: 250,000 machine sentinels are digging to Zion and would reach them in 72 hours. As Zion prepares for the ultimate war, Neo, Morpheus and Trinity are advised by the Oracle to find the Keymaker who would help them reach the Source.  Meanwhile Neo's recurrent dreams depicting Trinity's death have got him worried and as if it was not enough, Agent Smith has somehow escaped deletion, has become more powerful than before and has fixed Neo as his next target.", "poster_path": "/ezIurBz2fdUc68d98Fp9dRf5ihv.jpg", "popularity": 26.284}, {"id": 605, "video": false, "vote_count": 5698, "vote_average": 6.6, "title": "The Matrix Revolutions", "release_date": "2003-11-03", "original_language": "en", "original_title": "The Matrix Revolutions", "genre_ids": [28, 12, 878, 53], "backdrop_path": "/pdVHUsb2eEz9ALNTr6wfRJe5xVa.jpg", "adult": false, "overview": "The human city of Zion defends itself against the massive invasion of the machines as Neo fights to end the war at another front while also opposing the rogue Agent Smith.", "poster_path": "/sKogjhfs5q3azmpW7DFKKAeLEG8.jpg", "popularity": 22.724}, {"id": 603, "video": false, "vote_count": 15892, "vote_average": 8.1, "title": "The Matrix", "release_date": "1999-03-30", "original_language": "en", "original_title": "The Matrix", "genre_ids": [28, 878], "backdrop_path": "/icmmSD4vTTDKOq2vvdulafOGw93.jpg", "adult": false, "overview": "Set in the 22nd century, The Matrix tells the story of a computer hacker who joins a group of underground insurgents fighting the vast and powerful computers who now rule the earth.", "poster_path": "/gynBNzwyaHKtXqlEKKLioNkjKgN.jpg", "popularity": 37.396}, {"id": 5548, "video": false, "vote_count": 2720, "vote_average": 7.2, "title": "RoboCop", "release_date": "1987-07-17", "original_language": "en", "original_title": "RoboCop", "genre_ids": [28, 878, 53], "backdrop_path": "/s6XqpJcn7VT3MHI3VyGZ07DKZF8.jpg", "adult": false, "overview": "In a violent, near-apocalyptic Detroit, evil corporation Omni Consumer Products wins a contract from the city government to privatize the police force. To test their crime-eradicating cyborgs, the company leads street cop Alex Murphy into an armed confrontation with crime lord Boddicker so they can use his body to support their untested RoboCop prototype. But when RoboCop learns of the company's nefarious plans, he turns on his masters.", "poster_path": "/gtGreTdzYBuQsEwTliEFdTzPleV.jpg", "popularity": 21.458}, {"id": 8202, "video": false, "vote_count": 1237, "vote_average": 5.5, "title": "\u00c6on Flux", "release_date": "2005-11-30", "original_language": "en", "original_title": "\u00c6on Flux", "genre_ids": [28, 878], "backdrop_path": "/3c7e0IywQOmPKyVRPwNe2uys0MZ.jpg", "adult": false, "overview": "400 years into the future, disease has wiped out the majority of the world's population, except one walled city, Bregna, ruled by a congress of scientists. When \u00c6on Flux, the top operative in the underground 'Monican' rebellion, is sent on a mission to kill a government leader, she uncovers a world of secrets.", "poster_path": "/3rKw2QInyaACZ6wnqSg4nAXgKal.jpg", "popularity": 18.217}, {"id": 2666, "video": false, "vote_count": 1511, "vote_average": 7.4, "title": "Dark City", "release_date": "1998-02-27", "original_language": "en", "original_title": "Dark City", "genre_ids": [9648, 878], "backdrop_path": "/rIWui0S2ugwTWlhna6CTS3RYW9q.jpg", "adult": false, "overview": "A man struggles with memories of his past, including a wife he cannot remember, in a nightmarish world with no sun and run by beings with telekinetic powers who seek the souls of humans.", "poster_path": "/yR7rapBFxBoBT0vkZQIXhLBr726.jpg", "popularity": 17.646}, {"id": 653567, "video": false, "vote_count": 0, "vote_average": 0.0, "title": "Miss Americana", "release_date": "2020-01-23", "original_language": "en", "original_title": "Miss Americana", "genre_ids": [99], "backdrop_path": "/x2P9usnTYSd1pTKDIW83cXhKYUo.jpg", "adult": false, "overview": "A raw and emotionally revealing look at one of the most iconic artists of our time during a transformational period in her life as she learns to embrace her role not only as a songwriter and performer, but as a woman harnessing the full power of her voice.", "poster_path": "/fmHMmBl3VftWdLTy8E1mvWCgLe7.jpg", "popularity": 19.526}, {"id": 185, "video": false, "vote_count": 7610, "vote_average": 8.2, "title": "A Clockwork Orange", "release_date": "1971-12-18", "original_language": "en", "original_title": "A Clockwork Orange", "genre_ids": [18, 878], "backdrop_path": "/unMc1jEyqCnzba976GviSFKGagt.jpg", "adult": false, "overview": "In a near-future Britain, young Alexander DeLarge and his pals get their kicks beating and raping anyone they please. When not destroying the lives of others, Alex swoons to the music of Beethoven. The state, eager to crack down on juvenile crime, gives an incarcerated Alex the option to undergo an invasive procedure that'll rob him of all personal agency. In a time when conscience is a commodity, can Alex change his tune?", "poster_path": "/4sHeTAp65WrSSuc05nRBKddhBxO.jpg", "popularity": 21.362}, {"id": 406761, "video": false, "vote_count": 683, "vote_average": 5.9, "title": "Hotel Artemis", "release_date": "2018-06-07", "original_language": "en", "original_title": "Hotel Artemis", "genre_ids": [28, 878, 53], "backdrop_path": "/E0QuvtI9RCDfi79WnQSPKIzc61.jpg", "adult": false, "overview": "Los Angeles, June 21st, 2028. While the streets are being torn apart by riots, the Nurse, who runs a clandestine hospital for criminals in the penthouse of the Artemis, a closed old hotel, has a rough night dealing with troublemaker clients: thieves, assassins, someone from the past and the one who owns the place and the whole city.", "poster_path": "/wUTiyJ9N8rVLOxJz7aVpaBLpbot.jpg", "popularity": 14.904}, {"id": 19901, "video": false, "vote_count": 1112, "vote_average": 6.2, "title": "Daybreakers", "release_date": "2009-09-11", "original_language": "en", "original_title": "Daybreakers", "genre_ids": [28, 14, 27, 878], "backdrop_path": "/jjTK7kQS0LBU8GNZlUvlRK0dR1h.jpg", "adult": false, "overview": "In the year 2019, a plague has transformed almost every human into vampires. Faced with a dwindling blood supply, the fractured dominant race plots their survival; meanwhile, a researcher works with a covert band of vampires on a way to save humankind.", "poster_path": "/ilicCtkHIBb90PvTfXMeSeJ7b0o.jpg", "popularity": 16.844}, {"adult": false, "backdrop_path": "/h45LDCoPWmFMTTb7taGhOPBIGKJ.jpg", "genre_ids": [878, 53], "id": 476926, "original_language": "en", "original_title": "The Titan", "overview": "On a bleak future Earth, a soldier endures a radical genetic transformation to save humanity. But his wife fears he's becoming more creature than man.", "poster_path": "/qRmQazyIBZR4pQIk9VruiZul0Au.jpg", "release_date": "2018-03-30", "title": "The Titan", "video": false, "vote_average": 5.3, "vote_count": 735, "popularity": 12.307}, {"id": 120467, "video": false, "vote_count": 8930, "vote_average": 8.0, "title": "The Grand Budapest Hotel", "release_date": "2014-02-26", "original_language": "en", "original_title": "The Grand Budapest Hotel", "genre_ids": [35, 18], "backdrop_path": "/5FPUoQtnNC0C0YZ7sUeTLq6eZqa.jpg", "adult": false, "overview": "The Grand Budapest Hotel tells of a legendary concierge at a famous European hotel between the wars and his friendship with a young employee who becomes his trusted prot\u00e9g\u00e9. The story involves the theft and recovery of a priceless Renaissance painting, the battle for an enormous family fortune and the slow and then sudden upheavals that transformed Europe during the first half of the 20th century.", "poster_path": "/nX5XotM9yprCKarRH4fzOq1VM1J.jpg", "popularity": 24.31}], "total_pages": 90, "total_results": 1783}, "recommendations": {"page": 1, "results": [], "total_pages": 1, "total_results": 0}, "credits": {"cast": [{"cast_id": 1000, "character": "Himself", "credit_id": "52fe489fc3a36847f81712bf", "gender": 2, "id": 150783, "name": "William Gibson", "order": 0, "profile_path": "/mnrprkOYH3nsrEBtb31BMtp8IH6.jpg"}, {"cast_id": 1001, "character": "Himself", "credit_id": "52fe489fc3a36847f81712c3", "gender": 2, "id": 33684, "name": "Bono", "order": 1, "profile_path": "/pj3JYEJlVkNV91fxDHkgWKhDdot.jpg"}, {"cast_id": 1002, "character": "Himself", "credit_id": "52fe489fc3a36847f81712c7", "gender": 2, "id": 82426, "name": "The Edge", "order": 2, "profile_path": "/oB64cRlIPxNwXjQp9npCo1eGbsM.jpg"}], "crew": [{"credit_id": "57ae662b9251412f45000dfc", "department": "Directing", "gender": 0, "id": 639925, "job": "Director", "name": "Mark Neale", "profile_path": "/aGTy10HothID2byn2vilLIkq1Ep.jpg"}, {"credit_id": "57ae6635c3a36802fe00102c", "department": "Production", "gender": 0, "id": 639925, "job": "Producer", "name": "Mark Neale", "profile_path": "/aGTy10HothID2byn2vilLIkq1Ep.jpg"}, {"credit_id": "57ae665e9251412f40000e72", "department": "Writing", "gender": 0, "id": 639925, "job": "Writer", "name": "Mark Neale", "profile_path": "/aGTy10HothID2byn2vilLIkq1Ep.jpg"}, {"credit_id": "57ae6677c3a368030a000fd7", "department": "Editing", "gender": 0, "id": 1665108, "job": "Editor", "name": "Rochelle Watson", "profile_path": null}, {"credit_id": "57ae6683c3a3680319000e65", "department": "Crew", "gender": 2, "id": 84554, "job": "Cinematography", "name": "Grant Gee", "profile_path": null}, {"credit_id": "57ae66929251412f4c000df8", "department": "Crew", "gender": 0, "id": 4340, "job": "Cinematography", "name": "Chris Norr", "profile_path": null}, {"credit_id": "5c69dd340e0a26177797f2e5", "department": "Production", "gender": 2, "id": 11676, "job": "Executive Producer", "name": "Mark Pellington", "profile_path": "/7TR3DIbvsLKHrCkylSJgySGcs3Z.jpg"}, {"credit_id": "5c69dd6592514129a2fc73c4", "department": "Production", "gender": 0, "id": 74589, "job": "Executive Producer", "name": "Chris Paine", "profile_path": "/nzS8NMyj04SXrqVmeyVzX83v2im.jpg"}, {"credit_id": "5c69dd73c3a36843c6e2141e", "department": "Production", "gender": 2, "id": 15245, "job": "Executive Producer", "name": "Tom Gorai", "profile_path": null}, {"credit_id": "5c69ddca92514129d5fcea31", "department": "Production", "gender": 1, "id": 2244527, "job": "Executive Producer", "name": "Mary Buffet", "profile_path": null}, {"credit_id": "5c69dee50e0a265627a10eb1", "department": "Production", "gender": 0, "id": 2197866, "job": "Associate Producer", "name": "Dan Geschwind", "profile_path": null}, {"credit_id": "5c69def20e0a261e0698df8c", "department": "Production", "gender": 0, "id": 2244532, "job": "Associate Producer", "name": "Sandy Geschwind", "profile_path": null}, {"credit_id": "5c6ad4b70e0a2617779a336c", "department": "Production", "gender": 0, "id": 2244530, "job": "Co-Producer", "name": "Ellen Dux", "profile_path": null}, {"credit_id": "5c6ad4e7c3a3683bf0da333c", "department": "Directing", "gender": 0, "id": 2224155, "job": "Assistant Director", "name": "Nick Conroy", "profile_path": null}, {"credit_id": "5c6ad4f7c3a36843c6e48360", "department": "Editing", "gender": 2, "id": 964304, "job": "Co-Editor", "name": "Nicholas Erasmus", "profile_path": null}, {"credit_id": "5c6ad5030e0a262c999a9072", "department": "Editing", "gender": 0, "id": 639925, "job": "Co-Editor", "name": "Mark Neale", "profile_path": "/aGTy10HothID2byn2vilLIkq1Ep.jpg"}, {"credit_id": "5c6ad5250e0a2617779a3431", "department": "Art", "gender": 0, "id": 2245043, "job": "Title Designer", "name": "Kim Harper", "profile_path": null}, {"credit_id": "5c6ad5519251417df4076276", "department": "Camera", "gender": 2, "id": 84554, "job": "Camera Operator", "name": "Grant Gee", "profile_path": null}, {"credit_id": "5c6ad57292514129d5ff0156", "department": "Camera", "gender": 2, "id": 63227, "job": "Camera Operator", "name": "Joe Kessler", "profile_path": null}, {"credit_id": "5c6ad589c3a3686fb6da850c", "department": "Camera", "gender": 0, "id": 2245044, "job": "Camera Operator", "name": "Steven Miko", "profile_path": null}, {"credit_id": "5c6ad5940e0a266daca6d3d8", "department": "Camera", "gender": 0, "id": 639925, "job": "Camera Operator", "name": "Mark Neale", "profile_path": "/aGTy10HothID2byn2vilLIkq1Ep.jpg"}, {"credit_id": "5c6ad5a09251412a74fe9794", "department": "Camera", "gender": 0, "id": 4340, "job": "Camera Operator", "name": "Chris Norr", "profile_path": null}, {"credit_id": "5c6ad61bc3a3683bf0da3558", "department": "Camera", "gender": 0, "id": 2245048, "job": "Camera Operator", "name": "Phil Todd", "profile_path": null}, {"credit_id": "5c6ad62d9251412a74fe988a", "department": "Camera", "gender": 0, "id": 2245049, "job": "Camera Operator", "name": "Mark Ritchie", "profile_path": null}, {"credit_id": "5c6ad6800e0a262b349a4659", "department": "Sound", "gender": 0, "id": 2245051, "job": "Sound Recordist", "name": "Paul Flanery", "profile_path": null}, {"credit_id": "5c6ad690c3a368745ee78042", "department": "Sound", "gender": 0, "id": 2245052, "job": "Sound Recordist", "name": "Sandro Licastro", "profile_path": null}]}}