{"adult": false, "backdrop_path": "/x3rsvVhi3iNSt2z3JxE4ZUeu8Lf.jpg", "belongs_to_collection": null, "budget": 3900000, "genres": [{"id": 18, "name": "Drama"}, {"id": 53, "name": "Thriller"}, {"id": 80, "name": "Crime"}], "homepage": "http://www.kinolorber.com/film.php?id=1170", "id": 54524, "imdb_id": "tt1339161", "original_language": "de", "original_title": "Der R\u00e4uber", "overview": "A champion marathoner leads a double life as a serial bank robber, sprinting between fixes (and away from police cavalcades) as many as three times a day.", "popularity": 3.291, "poster_path": "/wxJ579nYUXzy9WeI13hIPld8tDs.jpg", "production_companies": [{"id": 2744, "logo_path": null, "name": "Nikolaus Geyrhalter Filmproduktion", "origin_country": ""}], "production_countries": [{"iso_3166_1": "AT", "name": "Austria"}, {"iso_3166_1": "DE", "name": "Germany"}], "release_date": "2010-02-14", "revenue": 208475, "runtime": 96, "spoken_languages": [{"iso_639_1": "de", "name": "Deutsch"}, {"iso_639_1": "en", "name": "English"}, {"iso_639_1": "it", "name": "Italiano"}], "status": "Released", "tagline": "", "title": "The Robber", "video": false, "vote_average": 6.7, "vote_count": 50, "keywords": {"keywords": [{"id": 642, "name": "robbery"}, {"id": 7248, "name": "marathon"}]}, "similar": {"page": 1, "results": [{"adult": false, "backdrop_path": "/7RRuRcGuWkZGuRyYugfXn0Fgrrr.jpg", "genre_ids": [28, 80, 18, 53], "id": 949, "original_language": "en", "original_title": "Heat", "overview": "Obsessive master thief, Neil McCauley leads a top-notch crew on various daring heists throughout Los Angeles while determined detective, Vincent Hanna pursues him without rest. Each man recognizes and respects the ability and the dedication of the other even though they are aware their cat-and-mouse game may end in violence.", "poster_path": "/6pmLVffM9jEYK7VqDJqPblMxfEY.jpg", "release_date": "1995-12-15", "title": "Heat", "video": false, "vote_average": 7.8, "vote_count": 3610, "popularity": 21.48}, {"id": 339403, "video": false, "vote_count": 9210, "vote_average": 7.4, "title": "Baby Driver", "release_date": "2017-06-28", "original_language": "en", "original_title": "Baby Driver", "genre_ids": [28, 80], "backdrop_path": "/goCvLSUFz0p7k8R10Hv4CVh3EQv.jpg", "adult": false, "overview": "After being coerced into working for a crime boss, a young getaway driver finds himself taking part in a heist doomed to fail.", "poster_path": "/dN9LbVNNZFITwfaRjl4tmwGWkRg.jpg", "popularity": 27.195}, {"id": 359412, "video": false, "vote_count": 302, "vote_average": 5.7, "title": "Marauders", "release_date": "2016-07-01", "original_language": "en", "original_title": "Marauders", "genre_ids": [28, 80, 53], "backdrop_path": "/p58HH6vw6c3O6aeg5YHoRP2kq0Z.jpg", "adult": false, "overview": "An untraceable group of elite bank robbers is chased by a suicidal FBI agent who uncovers a deeper purpose behind the robbery-homicides.", "poster_path": "/3iOYH67ZPflBMDMMkEv2tKRX4xe.jpg", "popularity": 14.751}, {"id": 500, "video": false, "vote_count": 8369, "vote_average": 8.2, "title": "Reservoir Dogs", "release_date": "1992-09-02", "original_language": "en", "original_title": "Reservoir Dogs", "genre_ids": [80, 53], "backdrop_path": "/fupyzBwFAn1PoeCXhp54bYVM2ER.jpg", "adult": false, "overview": "A botched robbery indicates a police informant, and the pressure mounts in the aftermath at a warehouse. Crime begets violence as the survivors -- veteran Mr. White, newcomer Mr. Orange, psychopathic parolee Mr. Blonde, bickering weasel Mr. Pink and Nice Guy Eddie -- unravel.", "poster_path": "/g7spS2Y4SZoQoC6Hn7zoqEqdYqR.jpg", "popularity": 27.836}, {"id": 22907, "video": false, "vote_count": 685, "vote_average": 6.2, "title": "Takers", "release_date": "2010-08-26", "original_language": "en", "original_title": "Takers", "genre_ids": [28, 80, 18, 53], "backdrop_path": "/n6FokmbxhCWH0ad7i1lJzAbrZqK.jpg", "adult": false, "overview": "A seasoned team of bank robbers, including Gordon Jennings (Idris Elba), John Rahway (Paul Walker), A.J. (Hayden Christensen), and brothers Jake (Michael Ealy) and Jesse Attica (Chris Brown) successfully complete their latest heist and lead a life of luxury while planning their next job. When Ghost (Tip T.I. Harris), a former member of their team, is released from prison he convinces the group to strike an armored car carrying $20 million. As the \"Takers\" carefully plot out their strategy and draw nearer to exacting the grand heist, a reckless police officer (Matt Dillon) inches closer to apprehending the criminals.", "poster_path": "/zwepORN3ONa5qSLzmcZSPlpQxce.jpg", "popularity": 16.951}, {"id": 429203, "video": false, "vote_count": 717, "vote_average": 6.3, "title": "The Old Man & the Gun", "release_date": "2018-09-27", "original_language": "en", "original_title": "The Old Man & the Gun", "genre_ids": [35, 80, 18], "backdrop_path": "/6X2YjjYcs8XyZRDmJAHNDlls7L4.jpg", "adult": false, "overview": "The true story of Forrest Tucker, from his audacious escape from San Quentin at the age of 70 to an unprecedented string of heists that confounded authorities and enchanted the public. Wrapped up in the pursuit are a detective, who becomes captivated with Forrest\u2019s commitment to his craft, and a woman, who loves him in spite of his chosen profession.", "poster_path": "/a4BfxRK8dBgbQqbRxPs8kmLd8LG.jpg", "popularity": 13.473}, {"id": 2017, "video": false, "vote_count": 88, "vote_average": 5.4, "title": "No Good Deed", "release_date": "2002-06-28", "original_language": "en", "original_title": "No Good Deed", "genre_ids": [28, 80, 18, 9648, 53], "backdrop_path": "/ltoyZPhj4mNGSNTryC9MOkQPJpW.jpg", "adult": false, "overview": "While doing a friend a favor and searching for a runaway teenager, a police detective stumbles upon a bizarre band of criminals about to pull off a bank robbery.", "poster_path": "/vGwbyQOGOG5WRKcemHREpdSviMO.jpg", "popularity": 11.687}, {"id": 10623, "video": false, "vote_count": 440, "vote_average": 5.8, "title": "Cradle 2 the Grave", "release_date": "2003-02-28", "original_language": "en", "original_title": "Cradle 2 the Grave", "genre_ids": [28, 80, 18], "backdrop_path": "/1SWYvFhQvAEI3CkbxQOg3VTqjlp.jpg", "adult": false, "overview": "Gang leader Tony pulls off a major diamond heist with his crew, but cop-turned-criminal Ling knows who has the loot and responds by kidnapping Tony's daughter and holding her for ransom. Unfortunately, Tony's lost the diamonds as well. As he frantically searches for his daughter and the jewels, Tony pairs with a high-kicking government agent who once worked with Ling and seeks revenge on him.", "poster_path": "/v8iPcn54TNsSPabD9ZYQVQUWbXk.jpg", "popularity": 13.668}, {"adult": false, "backdrop_path": "/hgn5SrO9lRh6yRkoubBH9x1NqHm.jpg", "genre_ids": [27, 53], "id": 416160, "original_language": "en", "original_title": "The Vault", "overview": "Two estranged sisters are forced to rob a bank in order to save their brother. But this is no ordinary bank.", "poster_path": "/ycK6nMAEjViBT4b3scuKpNRnilB.jpg", "release_date": "2017-09-01", "title": "The Vault", "video": false, "vote_average": 4.8, "vote_count": 221, "popularity": 11.5}, {"id": 449443, "video": false, "vote_count": 1469, "vote_average": 6.6, "title": "Den of Thieves", "release_date": "2018-01-18", "original_language": "en", "original_title": "Den of Thieves", "genre_ids": [28, 80, 53], "backdrop_path": "/s3FDBLH4qc1IcjexB05Qvbn3wxO.jpg", "adult": false, "overview": "A gritty crime saga which follows the lives of an elite unit of the LA County Sheriff\u2019s Dept. and the state\u2019s most successful bank robbery crew as the outlaws plan a seemingly impossible heist on the Federal Reserve Bank.", "poster_path": "/AfybH6GbGFw1F9bcETe2yu25mIE.jpg", "popularity": 30.821}, {"id": 298, "video": false, "vote_count": 3874, "vote_average": 6.7, "title": "Ocean's Thirteen", "release_date": "2007-06-06", "original_language": "en", "original_title": "Ocean's Thirteen", "genre_ids": [80, 53], "backdrop_path": "/7ytb78OyijteFpFKKoZsYSvPw2u.jpg", "adult": false, "overview": "Danny Ocean's team of criminals are back and composing a plan more personal than ever. When ruthless casino owner Willy Bank doublecrosses Reuben Tishkoff, causing a heart attack, Danny Ocean vows that he and his team will do anything to bring down Willy Bank along with everything he's got. Even if it means asking for help from an enemy.", "poster_path": "/uDUebdX0SFqpjBrdC4ANxub3zjy.jpg", "popularity": 17.82}, {"id": 75656, "video": false, "vote_count": 10756, "vote_average": 7.4, "title": "Now You See Me", "release_date": "2013-05-29", "original_language": "en", "original_title": "Now You See Me", "genre_ids": [80, 53], "backdrop_path": "/9wbXqcx6rHhoZ9Esp03C7amQzom.jpg", "adult": false, "overview": "An FBI agent and an Interpol detective track a team of illusionists who pull off bank heists during their performances and reward their audiences with the money.", "poster_path": "/A06e9YJ5ry3WXEIFIAD1mKBxcuZ.jpg", "popularity": 26.412}, {"id": 388, "video": false, "vote_count": 3229, "vote_average": 7.4, "title": "Inside Man", "release_date": "2006-03-23", "original_language": "en", "original_title": "Inside Man", "genre_ids": [80, 18, 53], "backdrop_path": "/6sLQFh6VFxU8nIkVaYg2yyJ6FL.jpg", "adult": false, "overview": "When an armed, masked gang enter a Manhattan bank, lock the doors and take hostages, the detective assigned to effect their release enters negotiations preoccupied with corruption charges he is facing.", "poster_path": "/z6wYRuvk1lf60R4SmWETfdUvGsm.jpg", "popularity": 25.247}, {"adult": false, "backdrop_path": "/6TBwBULY7nDt4ozkwkeEhbDXuIz.jpg", "genre_ids": [28, 16, 80], "id": 456611, "original_language": "ja", "original_title": "LUPIN THE IIIRD \u8840\u7159\u306e\u77f3\u5ddd\u4e94\u30a7\u9580", "overview": "Centered on the character of Goemon, this film is a sequel to the spin-off TV series, \"The Woman Called Fujiko Mine\" and its sequel film, \"Daisuke Jigen's Gravestone.\"", "poster_path": "/AeF2oitbvWfsuyz2FUs9Ohlqx6N.jpg", "release_date": "2017-02-04", "title": "Lupin the Third: Goemon Ishikawa's Spray of Blood", "video": false, "vote_average": 7.6, "vote_count": 18, "popularity": 16.885}, {"id": 2153, "video": false, "vote_count": 176, "vote_average": 7.2, "title": "The Driver", "release_date": "1978-06-08", "original_language": "en", "original_title": "The Driver", "genre_ids": [28, 80, 18, 53], "backdrop_path": "/9s76McxDHYsfh66bIv7LLvl5fD2.jpg", "adult": false, "overview": "The Driver specializes in driving getaway cars for robberies. His exceptional talent has prevented him from being caught yet. After another successful flight from the police a self-assured detective makes it his primary goal to catch the Driver. He promises pardons to a gang if they help to convict him in a set-up robbery. The Driver seeks help from The Player to mislead the detective.", "poster_path": "/sf2hoHenR9lBP5wKVUAkZFAsXgp.jpg", "popularity": 9.13}, {"id": 968, "video": false, "vote_count": 1443, "vote_average": 7.8, "title": "Dog Day Afternoon", "release_date": "1975-08-11", "original_language": "en", "original_title": "Dog Day Afternoon", "genre_ids": [80, 18, 53], "backdrop_path": "/gsnPjs2XTBhYDNFgnlsDgjuauDO.jpg", "adult": false, "overview": "Based on the true story of would-be Brooklyn bank robbers John Wojtowicz and Salvatore Naturale. Sonny and Sal attempt a bank heist which quickly turns sour and escalates into a hostage situation and stand-off with the police. As Sonny's motives for the robbery are slowly revealed and things become more complicated, the heist turns into a media circus.", "poster_path": "/qgWuZ2yNJrclU8EldQG4rLhwMoy.jpg", "popularity": 12.037}, {"id": 11088, "video": false, "vote_count": 247, "vote_average": 6.3, "title": "Heist", "release_date": "2001-11-09", "original_language": "en", "original_title": "Heist", "genre_ids": [28, 80, 18, 53], "backdrop_path": "/asDHxLkwrhbGTAVOoh6BB6myPBL.jpg", "adult": false, "overview": "Joe Moore has a job he loves. He's a thief. His job goes sour when he gets caught on security camera tape. His fence, Bergman reneges on the money he's owed, and his wife may be betraying him with the fence's young lieutenant. Moore and his partner, Bobby Blane and their utility man, Pinky Pincus find themselves broke, betrayed, and blackmailed. Moore is forced to commit his crew to do one last big job.", "poster_path": "/pxn4PMxyNatJhliQEGGhssnvEEW.jpg", "popularity": 13.81}, {"id": 531593, "video": false, "vote_count": 111, "vote_average": 5.0, "title": "Reprisal", "release_date": "2018-08-31", "original_language": "en", "original_title": "Reprisal", "genre_ids": [28, 80, 53], "backdrop_path": "/2o5knHXrenSTk7vfVbxlKoJykSi.jpg", "adult": false, "overview": "Jacob, a bank manager haunted by a violent heist that took the life of a coworker, teams up with his ex-cop neighbor, James, to bring down the assailant. While the two men work together to figure out the thief\u2019s next move, Gabriel, the highly-trained criminal, is one step ahead. When Gabriel kidnaps Jacob\u2019s wife and daughter, Jacob barrels down a path of bloodshed that initiates an explosive counterattack and brings all three men to the breaking point.", "poster_path": "/qBsQUK5QSeZjRPLFUVgSGHxj2PI.jpg", "popularity": 14.726}, {"adult": false, "backdrop_path": "/i7LNbj1EgA8XiUvJ5o9qs5QkAW3.jpg", "genre_ids": [10749, 18, 9648], "id": 1844, "original_language": "en", "original_title": "Entrapment", "overview": "Two thieves, who travel in elegant circles, try to outsmart each other and, in the process, end up falling in love.", "poster_path": "/6IKmjW52qeMXx8xXMdX6RRshmY0.jpg", "release_date": "1999-04-29", "title": "Entrapment", "video": false, "vote_average": 6.1, "vote_count": 1116, "popularity": 12.094}, {"id": 49849, "video": false, "vote_count": 3359, "vote_average": 5.5, "title": "Cowboys & Aliens", "release_date": "2011-07-29", "original_language": "en", "original_title": "Cowboys & Aliens", "genre_ids": [28, 878, 53, 37], "backdrop_path": "/gTDwoJBCu7scwYQoykIlLNpkCes.jpg", "adult": false, "overview": "A stranger stumbles into the desert town of Absolution with no memory of his past and a futuristic shackle around his wrist. With the help of mysterious beauty Ella and the iron-fisted Colonel Dolarhyde, he finds himself leading an unlikely posse of cowboys, outlaws, and Apache warriors against a common enemy from beyond this world in an epic showdown for survival.", "poster_path": "/9uZsGCP4rvOHVGCpMpYq5gNCuNI.jpg", "popularity": 18.7}], "total_pages": 64, "total_results": 1272}, "recommendations": {"page": 1, "results": [{"id": 104366, "video": false, "vote_count": 7, "vote_average": 6.7, "title": "Violent Virgin", "release_date": "1969-01-01", "original_language": "ja", "original_title": "Gewalt! Gewalt: shojo geba-geba", "genre_ids": [80, 18, 27], "backdrop_path": "/wJdedSWLVRkcaYjAwTB4VvQcjv1.jpg", "adult": false, "overview": "A bunch of young hipsters kidnaps a loving couple and keeps them trapped in a barren landscape. To the sounds of free jazz they are performing various experiments with the couple. In the distance is a yakuza gang keeping track of the youths. Who are really experimenting with whom?", "poster_path": "/4y4n4shgk7CfbspRxYkqZPXEjtG.jpg", "popularity": 5.335}, {"adult": false, "backdrop_path": null, "genre_ids": [], "id": 125606, "original_language": "en", "original_title": "Spectator", "overview": "Spectator is one of the early masterpieces by Zwartjes. The film explicitly shows one of Frans Zwartjes\u2019 main themes: the relationship between husband and wife. It is a relationship that is strongly marked by power and domination, sexual attraction and repulsion. It manifests itself in humiliation and abuse (such Pentimento), but also in cool eroticism or natural physicality.  Zwartjes\u2019 goal is not to explain or designate this relationship. Rather it is the subject that Zwartjes uses to describe his world. In an article on Zwartjes, filmmaker and student George Schouten compares Zwartjes to the Italian writer Alberto Moravia. For both, sex is their way of dealing with reality. It is the subject by which they define their world. And for Zwartjes, it is also the subject with which he can display and develop his cinematic talent. (eyefilm.nl)", "poster_path": "/ibWmkDiNiIjr59v1DE85lQVW648.jpg", "release_date": "1970-01-01", "title": "Spectator", "video": false, "vote_average": 6.3, "vote_count": 6, "popularity": 1.4}, {"adult": false, "backdrop_path": "/fPhY5CBOl74DhiXdvzg3R8fJQ04.jpg", "genre_ids": [18], "id": 152943, "original_language": "nl", "original_title": "Pentimento", "overview": "This film is dominated by an icy blue. In a monumental building a group of scientists submit women to obscure experiments, in which sexuality and cruelty constantly merge into one another. When the film was released, this horrifying game of power and powerlessness was condemned severely by a militant group of feminists. The criticism was undeserved. After all, 'Pentimento' is an art-historical term for a hidden image underneath the actual image giving an indication of how the latter evolved to its current state. The film does not endorse the lopsided power relations in our world but actually challenges them.", "poster_path": "/f03Jl8ITjIcLatpqpiBZWnUNB3s.jpg", "release_date": "1979-02-01", "title": "Pentimento", "video": false, "vote_average": 6.4, "vote_count": 7, "popularity": 1.975}, {"adult": false, "backdrop_path": null, "genre_ids": [18, 35], "id": 121942, "original_language": "pl", "original_title": "Bariera", "overview": "A dream-like meditation on post-industrial life in Communist Poland.", "poster_path": "/a2wJOs7ZR4rqkoO87OgTnXn5hco.jpg", "release_date": "1966-11-18", "title": "Barrier", "video": false, "vote_average": 6.5, "vote_count": 6, "popularity": 2.807}, {"adult": false, "backdrop_path": "/jJKb44aCsH6sOQsIhHzOkY9A9jm.jpg", "genre_ids": [18, 27], "id": 47425, "original_language": "en", "original_title": "Witch's Cradle", "overview": "Witch\u2019s Cradle is an unfinished Maya Deren film made in the Guggenheim Gallery during a surrealist \u201cArt of this Century\u201d exhibit. It was assembled long after her death by staffers within the preservation department at Anthology Film Archives.", "poster_path": "/zLFw1PAr9soZuLw6WCggdPn5cSt.jpg", "release_date": "1944-01-01", "title": "Witch's Cradle", "video": false, "vote_average": 6.9, "vote_count": 13, "popularity": 2.801}, {"adult": false, "backdrop_path": "/iqw7lnggII0ALa431ZU43pdPgbm.jpg", "genre_ids": [18], "id": 87434, "original_language": "en", "original_title": "Welcome to Pine Hill", "overview": "Welcome to Pine Hill follows Shannon, a recently reformed drug dealer, now working as a claims adjuster by day and bouncer by night. When Shannon receives earth-shattering news, he is compelled to make peace with his past and search for freedom beyond the concrete jungle of New York City.", "poster_path": "/uNTUSfC1Xd4q8ZEuLC34B2PRSPV.jpg", "release_date": "2012-03-01", "title": "Welcome to Pine Hill", "video": false, "vote_average": 6.6, "vote_count": 5, "popularity": 1.182}, {"adult": false, "backdrop_path": null, "genre_ids": [18], "id": 239268, "original_language": "en", "original_title": "Behind Your Walls", "overview": "Frans Zwartjes' two visions of womanhood in Behind Your Walls have all the febrile frustration associated with his previous work. Flesh looks like crisp paper about to be despoiled, a torpid heat reduces movement to fidgets and hesitations. - MIFF", "poster_path": "/eGQqiiaScPkw2QJmTzlo1qnGx9N.jpg", "release_date": "1970-01-01", "title": "Behind Your Walls", "video": false, "vote_average": 5.5, "vote_count": 6, "popularity": 1.473}, {"adult": false, "backdrop_path": "/bL6Ka1UgEYovPUZ8nba2lvU8P1n.jpg", "genre_ids": [18, 10749], "id": 125604, "original_language": "en", "original_title": "Living", "overview": "Frans Zwartjes and his wife explore their new home, and the sexual tension they've brought with them to it.", "poster_path": "/uuqwmMvBbvkBe8eDclHhvvVQRWb.jpg", "release_date": "1971-01-01", "title": "Living", "video": false, "vote_average": 7.0, "vote_count": 6, "popularity": 0.85}, {"adult": false, "backdrop_path": "/vTTiQ92wJsqHFvgNPDE8X7unp8r.jpg", "genre_ids": [99], "id": 36880, "original_language": "de", "original_title": "Wodaabe - Die Hirten der Sonne. Nomaden am S\u00fcdrand der Sahara", "overview": "Herzog's documentary of the Wodaabe people of the Sahara/Sahel region. Particular attention is given to the tribe's spectacular courtship rituals and 'beauty pageants', where eligible young men strive to outshine each other and attract mates by means of lavish makeup, posturing and facial movements.", "poster_path": "/ekdIaPakRDWv4pAEKO0blA7pIVO.jpg", "release_date": "1989-01-01", "title": "Wodaabe: Herdsmen of the Sun", "video": false, "vote_average": 7.4, "vote_count": 11, "popularity": 1.989}, {"id": 203263, "video": false, "vote_count": 7, "vote_average": 7.6, "title": "A Simple Story", "release_date": "1959-03-31", "original_language": "fr", "original_title": "Une simple histoire", "genre_ids": [18], "backdrop_path": "/xHEerKc69rcywEwusqJVHE4TNh9.jpg", "adult": false, "overview": "A woman arrives in Paris with her little girl to look for work. With limited funds and no luck, they end up penniless, homeless and dependent on the rare kindness of strangers.", "poster_path": "/cFAZEHQlohdLJsOI2ZnpFTIk4Ec.jpg", "popularity": 1.4}, {"adult": false, "backdrop_path": null, "genre_ids": [99], "id": 139945, "original_language": "de", "original_title": "Gasherbrum - Der leuchtende Berg", "overview": "Werner Herzog follows mountaineers Hans Kammerlander and Reinhold Messner during their expedition into climbing the Gasherbrum mountains, which has some of the most difficult peaks to be conquered, and they'll do it without the use of oxygen tanks. Herzog also takes some time to hear about their past experiences with other mountains, their personal tragedies and the reasons why they are so involved with such activity.", "poster_path": "/x0Ab8CDJdCoLc5tnhWQcrcRoDvi.jpg", "release_date": "1985-03-09", "title": "The Dark Glow of the Mountain", "video": false, "vote_average": 8.0, "vote_count": 11, "popularity": 2.156}, {"adult": false, "backdrop_path": "/5GL2Kv8LkZGjg08lzbbCzsSdRbj.jpg", "genre_ids": [18], "id": 68774, "original_language": "fr", "original_title": "Eurazijos aborigenas", "overview": "A drug smuggler is betrayed by his partner and is then forced to seek help from Russian mobsters.", "poster_path": "/eMhOf6mn3rLxdBJUIa5LTso8h4j.jpg", "release_date": "2010-12-01", "title": "Eastern Drift", "video": false, "vote_average": 6.8, "vote_count": 8, "popularity": 2.643}, {"adult": false, "backdrop_path": "/qi7bQOzftLlwilkE9oAQIxhyVDQ.jpg", "genre_ids": [14, 18], "id": 162329, "original_language": "fr", "original_title": "Elle a pass\u00e9 tant d'heures sous les sunlights...", "overview": "A young film director is turning a movie with his friend Christa (reminds us of the real-life relationship between Garrel and Nico). In the film-within-the-film there are two couples, one real, one imagined , and the film - told through five dreams - is as much the story of a film on-production, as the birth of a child.", "poster_path": "/plGzk4wxE3TbtZRBySRgebrbW3Y.jpg", "release_date": "1985-10-09", "title": "She Spent So Many Hours Under the Sun Lamps", "video": false, "vote_average": 7.8, "vote_count": 6, "popularity": 2.77}, {"adult": false, "backdrop_path": "/cJepTeIsLpzjMEFkgcV1Btjt8VO.jpg", "genre_ids": [18], "id": 388854, "original_language": "fr", "original_title": "La v\u00e9rit\u00e9 sur l'imaginaire passion d'un inconnu", "overview": "A very personal interpretation, to say the least, of the passion of the Christ According to St. John.", "poster_path": "/cEMowpYC9ZiuHhcnqbINiHjtduc.jpg", "release_date": "1974-05-20", "title": "The Truth About the Imaginary Passion of an Unknown", "video": false, "vote_average": 4.4, "vote_count": 5, "popularity": 1.865}, {"adult": false, "backdrop_path": null, "genre_ids": [18], "id": 267985, "original_language": "en", "original_title": "Strangers", "overview": "Eyal ,an Israeli traveling to Berlin for the mondial - or football World Cup, meets Rana ,a Palestinian ex-pat, and they fall in love.", "poster_path": "/iB26DnGuGY8lWmHHiqBM8b6CI3w.jpg", "release_date": "2003-08-01", "title": "Strangers", "video": false, "vote_average": 5.9, "vote_count": 6, "popularity": 1.064}, {"adult": false, "backdrop_path": "/sYIdBX3Iq6biOM2GTJ3LuP9LEWb.jpg", "genre_ids": [53], "id": 69485, "original_language": "en", "original_title": "Blame", "overview": "A group of young vigilantes seeking revenge for a sexual betrayal fall far from grace. When the truth is out they find themselves on the dark side of justice.", "poster_path": "/mENho9p4JZAYdyykkbV9rEjqdgl.jpg", "release_date": "2010-09-12", "title": "Blame", "video": false, "vote_average": 5.2, "vote_count": 12, "popularity": 5.615}, {"adult": false, "backdrop_path": "/emhtukTAAbDzXPrdvmPeOytV0Z6.jpg", "genre_ids": [18], "id": 155006, "original_language": "en", "original_title": "Naissant", "overview": "Filmed in New York in 1964, completed in London 1967.", "poster_path": "/1scBBfF5jmB4SFTcPuD8rXoBP6a.jpg", "release_date": "1964-12-31", "title": "Naissant", "video": false, "vote_average": 5.0, "vote_count": 10, "popularity": 3.233}, {"adult": false, "backdrop_path": null, "genre_ids": [99], "id": 191060, "original_language": "nl", "original_title": "Het oog boven de put", "overview": "A poetic depiction of life and ritual in the south Indian state of Kerala. We see how knowledge is passed down from generation to generation: within the family, through the village economy, and especially from teachers to students. Performance footage shows how song, dance, martial arts, and religion constitute the building blocks of a culture.", "poster_path": "/1I7LDyvAoM4z4LtBvX3nJifK1fn.jpg", "release_date": "1988-01-01", "title": "The Eye Above the Well", "video": false, "vote_average": 7.0, "vote_count": 5, "popularity": 1.4}, {"id": 81799, "video": false, "vote_count": 10, "vote_average": 6.6, "title": "The Camp Followers", "release_date": "1965-11-04", "original_language": "it", "original_title": "Le soldatesse", "genre_ids": [18, 10752], "backdrop_path": "/tJLzh8xeoUDlt6WqCzrvDieduRB.jpg", "adult": false, "overview": "In WWII, Lieut. Martino and his men are assigned to lead a group of prostitutes through the mountainous ways to serve in brothels for Italian soldiers in Albania.", "poster_path": "/eRplQDaBJ5lw5lVsPcJtKTk5prp.jpg", "popularity": 3.014}, {"adult": false, "backdrop_path": "/2h3kRJ0f6Xa9O6NCWD4pHNs9kRr.jpg", "genre_ids": [35, 18], "id": 30019, "original_language": "no", "original_title": "Upperdog", "overview": "As young children, half-siblings Axel and Yanne are adopted to Norway. They are separated on arrival, he to material wealth on Oslo's west side, she to an average family on the east side. In contrast to her younger brother, Yanne remembers their journey to Norway, but she has no idea where he might be now.", "poster_path": "/poqLzKggtMSr3qUPhcb5uFpCIz8.jpg", "release_date": "2009-08-28", "title": "Upperdog", "video": false, "vote_average": 7.2, "vote_count": 11, "popularity": 2.047}], "total_pages": 2, "total_results": 40}, "credits": {"cast": [{"cast_id": 2, "character": "Johann Rettenberger", "credit_id": "52fe48a0c3a36847f8171691", "gender": 2, "id": 78233, "name": "Andreas Lust", "order": 0, "profile_path": "/bNtkRHXwO30Dgj7GTMuRNmlIUe0.jpg"}, {"cast_id": 3, "character": "Kommissar Welz", "credit_id": "52fe48a0c3a36847f8171695", "gender": 0, "id": 150829, "name": "Michael Welz", "order": 1, "profile_path": null}, {"cast_id": 4, "character": "Erika", "credit_id": "52fe48a0c3a36847f8171699", "gender": 1, "id": 56699, "name": "Franziska Weisz", "order": 2, "profile_path": "/pvIDF0nsxnOY1qXOaVcbXMcrEYu.jpg"}, {"cast_id": 5, "character": "Markus Kreczi", "credit_id": "52fe48a0c3a36847f817169d", "gender": 2, "id": 557863, "name": "Florian Wotruba", "order": 3, "profile_path": null}, {"cast_id": 6, "character": "Kommissar Lukas", "credit_id": "52fe48a0c3a36847f81716a1", "gender": 2, "id": 506932, "name": "Johann Bednar", "order": 4, "profile_path": null}, {"cast_id": 7, "character": "Bew\u00e4hrungsbeamter", "credit_id": "52fe48a0c3a36847f81716a5", "gender": 2, "id": 28605, "name": "Markus Schleinzer", "order": 5, "profile_path": "/hOMu2eBgUgjFIV7mQioBUnnNT0X.jpg"}, {"cast_id": 8, "character": "Alter Mann", "credit_id": "52fe48a0c3a36847f81716a9", "gender": 2, "id": 506931, "name": "Peter Vilnai", "order": 6, "profile_path": null}, {"cast_id": 9, "character": "Kommissar Seidl", "credit_id": "52fe48a0c3a36847f81716ad", "gender": 2, "id": 506930, "name": "Max Edelbacher", "order": 7, "profile_path": null}], "crew": [{"credit_id": "52fe48a0c3a36847f817168d", "department": "Directing", "gender": 2, "id": 73579, "job": "Director", "name": "Benjamin Heisenberg", "profile_path": "/5kWukfiGkqr3xdTOtdzsWLGsAZ3.jpg"}, {"credit_id": "52fe48a0c3a36847f81716b3", "department": "Writing", "gender": 2, "id": 506934, "job": "Novel", "name": "Martin Prinz", "profile_path": null}, {"credit_id": "5760f84ac3a36808bc000962", "department": "Writing", "gender": 2, "id": 73579, "job": "Writer", "name": "Benjamin Heisenberg", "profile_path": "/5kWukfiGkqr3xdTOtdzsWLGsAZ3.jpg"}, {"credit_id": "5760f85892514175c1000973", "department": "Crew", "gender": 2, "id": 40486, "job": "Cinematography", "name": "Reinhold Vorschneider", "profile_path": null}]}}