{"adult": false, "backdrop_path": null, "belongs_to_collection": null, "budget": 0, "genres": [{"id": 99, "name": "Documentary"}, {"id": 10402, "name": "Music"}], "homepage": "http://www.heavymetalparkinglot.com", "id": 54642, "imdb_id": "tt0322526", "original_language": "en", "original_title": "Heavy Metal Parking Lot", "overview": "Heavy Metal Parking Lot documents heavy metal music fans tailgating in the parking lot outside the Capital Centre (since demolished) in Landover, Maryland, on May 31, 1986, before a Judas Priest concert (with opening act Dokken).", "popularity": 2.159, "poster_path": "/mOUrD81QfnQpK4xO4f0we36RH3G.jpg", "production_companies": [], "production_countries": [{"iso_3166_1": "US", "name": "United States of America"}], "release_date": "1986-01-01", "revenue": 0, "runtime": 17, "spoken_languages": [{"iso_639_1": "en", "name": "English"}], "status": "Released", "tagline": "The wildest rock 'n' roll documentary of all time.", "title": "Heavy Metal Parking Lot", "video": false, "vote_average": 7.1, "vote_count": 20, "keywords": {"keywords": [{"id": 4434, "name": "interview"}, {"id": 5540, "name": "heavy metal"}, {"id": 5729, "name": "maryland"}, {"id": 9818, "name": "fan culture"}, {"id": 15201, "name": "music fan"}, {"id": 214549, "name": "short"}]}, "similar": {"page": 1, "results": [{"id": 621733, "video": false, "vote_count": 0, "vote_average": 0.0, "title": "A Trip to the Seaside", "release_date": "2019-08-30", "original_language": "en", "original_title": "A Trip to the Seaside", "genre_ids": [99], "backdrop_path": null, "adult": false, "overview": "Experimental short film on the excitement and rush of a day trip", "poster_path": "/AuZVhpoJ4jm2LWDhoJKfxQfhDAi.jpg", "popularity": 1.324}, {"id": 650755, "video": false, "vote_count": 0, "vote_average": 0.0, "title": "Atordoado, Eu Permane\u00e7o Atento", "release_date": "2020-01-15", "original_language": "pt", "original_title": "Atordoado, Eu Permane\u00e7o Atento", "genre_ids": [99], "backdrop_path": null, "adult": false, "overview": "", "poster_path": "/exbM8qk6f6T44olJXcM8ix1sunL.jpg", "popularity": 7.153}, {"id": 14813, "video": false, "vote_count": 456, "vote_average": 7.6, "title": "Mickey's Christmas Carol", "release_date": "1983-10-19", "original_language": "en", "original_title": "Mickey's Christmas Carol", "genre_ids": [16, 10751], "backdrop_path": "/fDK3xeAcQfQ40ZUULgZshElkspa.jpg", "adult": false, "overview": "It is an adaptation of the Charles Dickens classic A Christmas Carol, featuring Scrooge McDuck as his namesake and inspiration Ebenezer Scrooge and Mickey Mouse as Bob Cratchit. This film was based on a 1972 audio musical entitled Disney's A Christmas Carol. It is a twenty-four minute animated short film produced by Walt Disney Productions as an accompaniment to a re-release of The Rescuers.", "poster_path": "/29iF1IiC3ZyJQ1kmTf4LD8p8oro.jpg", "popularity": 18.001}, {"id": 326359, "video": false, "vote_count": 1179, "vote_average": 6.8, "title": "Frozen Fever", "release_date": "2015-03-09", "original_language": "en", "original_title": "Frozen Fever", "genre_ids": [12, 16, 10751], "backdrop_path": "/ubioPGniCfDiASmYYpeJs5RRNaC.jpg", "adult": false, "overview": "On Anna's birthday, Elsa and Kristoff are determined to give her the best celebration ever, but Elsa's icy powers may put more than just the party at risk.", "poster_path": "/lKJiVPzsAO9IJ4LKWXZ8vkR2bg4.jpg", "popularity": 17.061}, {"id": 150540, "video": false, "vote_count": 13953, "vote_average": 7.9, "title": "Inside Out", "release_date": "2015-06-09", "original_language": "en", "original_title": "Inside Out", "genre_ids": [16, 35, 18, 10751], "backdrop_path": "/szytSpLAyBh3ULei3x663mAv5ZT.jpg", "adult": false, "overview": "Growing up can be a bumpy road, and it's no exception for Riley, who is uprooted from her Midwest life when her father starts a new job in San Francisco. Riley's guiding emotions\u2014 Joy, Fear, Anger, Disgust and Sadness\u2014live in Headquarters, the control centre inside Riley's mind, where they help advise her through everyday life and tries to keep things positive, but the emotions conflict on how best to navigate a new city, house and school.", "poster_path": "/aAmfIX3TT40zUHGcCKrlOZRKC7u.jpg", "popularity": 47.351}, {"adult": false, "backdrop_path": "/5OeY4U2rzePxWq2rkqMajUx2gz7.jpg", "genre_ids": [16, 10751, 12, 14, 10749], "id": 812, "original_language": "en", "original_title": "Aladdin", "overview": "Princess Jasmine grows tired of being forced to remain in the palace, so she sneaks out into the marketplace, in disguise, where she meets street-urchin Aladdin.  The couple falls in love, although Jasmine may only marry a prince.  After being thrown in jail, Aladdin becomes embroiled in a plot to find a mysterious lamp, with which the evil Jafar hopes to rule the land.", "poster_path": "/mjKozYRuHc9j7SmiXmbVmCiAM0A.jpg", "release_date": "1992-11-25", "title": "Aladdin", "video": false, "vote_average": 7.6, "vote_count": 7288, "popularity": 46.629}, {"adult": false, "backdrop_path": "/twGxeStlGooWV3gP6ZIcSNuQ6jf.jpg", "genre_ids": [12, 16, 10751, 14], "id": 81684, "original_language": "en", "original_title": "The Gruffalo's Child", "overview": "A follow up to the 2009 animated feature and adapted from the childrens' book by Julia Donaldson and Alex Scheffler.  The Gruffalo's child explores the deep dark wood in search of the big bad mouse and meets the Snake, Owl and Fox in the process.  She eventually finds the mouse, who manages to outwit her like the Gruffalo before!", "poster_path": "/qaGH2AoaLvoGXURQtNzj1nw6oZd.jpg", "release_date": "2011-12-25", "title": "The Gruffalo's Child", "video": false, "vote_average": 6.9, "vote_count": 73, "popularity": 13.766}, {"id": 26317, "video": false, "vote_count": 283, "vote_average": 8.0, "title": "Man with a Movie Camera", "release_date": "1929-01-08", "original_language": "ru", "original_title": "\u0427\u0435\u043b\u043e\u0432\u0435\u043a \u0441 \u043a\u0438\u043d\u043e\u0430\u043f\u043f\u0430\u0440\u0430\u0442\u043e\u043c", "genre_ids": [99], "backdrop_path": "/8mg8GZePag5LZVhveBTL92Ufh5W.jpg", "adult": false, "overview": "A cameraman wanders around Moscow, Kharkov, Kiev and Odessa with a camera slung over his shoulder, documenting urban life with dazzling invention.", "poster_path": "/Ded5Kl7MDZQTbFpoNI62tLVWUN.jpg", "popularity": 11.059}, {"adult": false, "backdrop_path": "/hPByrqJXCXIViFheXQh48wtI7T6.jpg", "genre_ids": [16, 12, 14, 10751], "id": 31135, "original_language": "en", "original_title": "Mickey Mouse: Mickey and the Beanstalk", "overview": "Based on the timeless adventures of \"Jack and the Beanstalk,\" Mickey, Donald and Goofy climb a fantastic beanstalk up into the sky to a place where everything is huge -- the food, the castle and the fearsome giant named Willy who guards a beautiful golden harp! Will Mickey and his friends outwit the giant and make it safely back home?", "poster_path": "/kk1Xg1f1lv6loekjlKinpKJlGOu.jpg", "release_date": "1947-09-27", "title": "Mickey Mouse: Mickey and the Beanstalk", "video": false, "vote_average": 6.7, "vote_count": 166, "popularity": 12.653}, {"id": 126132, "video": false, "vote_count": 26, "vote_average": 6.2, "title": "The Act of Seeing with One's Own Eyes", "release_date": "1972-02-19", "original_language": "en", "original_title": "The Act of Seeing with One's Own Eyes", "genre_ids": [99], "backdrop_path": "/6jcxNQN3gW2FMGh32JtEsB0auqm.jpg", "adult": false, "overview": "At a morgue, forensic pathologists conduct autopsies of the corpses assigned.", "poster_path": "/qGLLXsbzR9IrZ1k62qwNv7rmDPb.jpg", "popularity": 4.919}, {"adult": false, "backdrop_path": "/2CR4OT6Ou4axUfThbJ6sbnMGWWm.jpg", "genre_ids": [12, 14, 878], "id": 775, "original_language": "fr", "original_title": "Le Voyage dans la Lune", "overview": "Professor Barbenfouillis and five of his colleagues from the Academy of Astronomy travel to the Moon aboard a rocket propelled by a giant cannon. Once on the lunar surface, the bold explorers face the many perils hidden in the caves of the mysterious satellite.", "poster_path": "/zztHYAfSecYuaDyIjQudjKaOLLY.jpg", "release_date": "1902-09-01", "title": "A Trip to the Moon", "video": false, "vote_average": 8.0, "vote_count": 820, "popularity": 14.653}, {"adult": false, "backdrop_path": "/wdMq7F5Cr1DGg8ioNPZvWxqQer4.jpg", "genre_ids": [878, 14], "id": 76535, "original_language": "en", "original_title": "Marvel One-Shot: A Funny Thing Happened on the Way to Thor's Hammer", "overview": "Agent Coulson stops at a convenience store and deals with a coincidental robbery during his visit.", "poster_path": "/5uGaqAnt0RQ87uKy8UlRDNrL2jY.jpg", "release_date": "2011-10-25", "title": "Marvel One-Shot: A Funny Thing Happened on the Way to Thor's Hammer", "video": false, "vote_average": 7.1, "vote_count": 180, "popularity": 12.89}, {"id": 5698, "video": false, "vote_count": 268, "vote_average": 7.1, "title": "The Great Train Robbery", "release_date": "1903-12-01", "original_language": "en", "original_title": "The Great Train Robbery", "genre_ids": [28, 12, 80, 37], "backdrop_path": "/9GO8h44nckngDtdJ6R1QfIsl43j.jpg", "adult": false, "overview": "The clerk at the train station is assaulted and left tied by four men, then they rob the train threatening the operator. (They) take all the money and shoot a passenger when trying to run away. A little girl discovers the clerk tied and gives notice to the sheriff, who at once goes along with his men hunting the bandits.", "poster_path": "/uf7Hr1wuUh4T83Ifg5pVpwTqRdI.jpg", "popularity": 9.865}, {"adult": false, "backdrop_path": "/43TK5GtHUiPelQpnSX0bl9ONLh0.jpg", "genre_ids": [16, 35, 10751], "id": 54553, "original_language": "en", "original_title": "Home Makeover", "overview": "The Minions have to make Gru's home safe for the children, before Child Services arrive!", "poster_path": "/uRlT6hzUE6pMCtSsUhKd7OtjD1l.jpg", "release_date": "2010-12-13", "title": "Home Makeover", "video": false, "vote_average": 6.9, "vote_count": 97, "popularity": 8.853}, {"adult": false, "backdrop_path": "/wwwkeSqtU4Agi7HFp1NvtZCD5IJ.jpg", "genre_ids": [99], "id": 17700, "original_language": "en", "original_title": "Deep Sea 3D", "overview": "Sea life in a whole new way. Deep Sea 3D, an underwater adventure from the filmmakers behind the successful IMAX\u00ae 3D film Into the Deep, transports audiences deep below the ocean surface. Through the magic of IMAX\u00ae; and IMAX 3D, moviegoers will swim with some of the planets most unique, dangerous and colorful creatures, and understand this inspiring underworld.", "poster_path": "/2UglT7JjN6o7dYni4G16NYOFRJO.jpg", "release_date": "2006-03-03", "title": "Deep Sea 3D", "video": false, "vote_average": 6.5, "vote_count": 40, "popularity": 7.764}, {"id": 54559, "video": false, "vote_count": 123, "vote_average": 6.9, "title": "Minions: Orientation Day", "release_date": "2010-12-13", "original_language": "en", "original_title": "Minions: Orientation Day", "genre_ids": [16, 35, 10751], "backdrop_path": "/8BueE3xOMMd2Z2ix6ayqj2uPIGL.jpg", "adult": false, "overview": "With so many jobs to choose from, the Minions have to make serious decisions after watching an 'Initiation Video'. What could go wrong?!", "poster_path": "/u1gyqMqRvdwj49vsBLRBGBs4Yoi.jpg", "popularity": 9.969}, {"id": 234567, "video": false, "vote_count": 130, "vote_average": 7.6, "title": "Get a Horse!", "release_date": "2013-11-27", "original_language": "en", "original_title": "Get a Horse!", "genre_ids": [16, 10751], "backdrop_path": "/pHKhvWkI65I579uXvIU2TcIxIRe.jpg", "adult": false, "overview": "Mickey, Minnie, Horace Horsecollar, and Clarabelle Cow go on a musical wagon ride until Peg-Leg Pete tries to run them off the road.", "poster_path": "/gJD2wDa5gGUTQITW9ZfjckxSBEs.jpg", "popularity": 8.866}, {"adult": false, "backdrop_path": "/kw44acMdZBc1NAvuHAdMRO4i4pi.jpg", "genre_ids": [27, 16, 10751, 10402], "id": 88018, "original_language": "en", "original_title": "The Skeleton Dance", "overview": "The clock strikes midnight, the bats fly from the belfry, a dog howls at the full moon, and two black cats fight in the cemetery: a perfect time for four skeletons to come out and dance a bit.", "poster_path": "/kmW0RJVpA3nyzWiEV0kt5829AS.jpg", "release_date": "1929-08-21", "title": "The Skeleton Dance", "video": false, "vote_average": 7.3, "vote_count": 99, "popularity": 7.504}, {"id": 83797, "video": false, "vote_count": 33, "vote_average": 7.1, "title": "I Love to Singa", "release_date": "1936-07-18", "original_language": "en", "original_title": "I Love to Singa", "genre_ids": [16, 35, 10402, 10751], "backdrop_path": "/jlhzLIr9XBz2YZr5BmjCuz0E24i.jpg", "adult": false, "overview": "I Love to Singa depicts the story of a young owl who wants to sing jazz, instead of the classical music that his German parents wish him to perform. The plot is a lighthearted tribute to Al Jolson's film The Jazz Singer.", "poster_path": "/oTokMtDQw2aVyQBEJaqicy4gxXi.jpg", "popularity": 4.476}, {"adult": false, "backdrop_path": "/oJ5LIvOKpPZvYQOOqUsRXq02L7c.jpg", "genre_ids": [99, 10751], "id": 251471, "original_language": "en", "original_title": "A LEGO Brickumentary", "overview": "A look at the global culture and appeal of the LEGO building-block toys.", "poster_path": "/4cGnjZriMY3uv11gIrMhHT4CWHV.jpg", "release_date": "2014-11-09", "title": "A LEGO Brickumentary", "video": false, "vote_average": 6.0, "vote_count": 74, "popularity": 9.073}], "total_pages": 156, "total_results": 3113}, "recommendations": {"page": 1, "results": [{"adult": false, "backdrop_path": "/alD4PcMrjmtopp7OpRJqbiRE9EI.jpg", "genre_ids": [99], "id": 38616, "original_language": "en", "original_title": "Marjoe", "overview": "Part documentary, part expose, this film follows one-time child evangelist Marjoe Gortner on the \"church tent\" Revivalist circuit, commenting on the showmanship of Evangelism and \"the religion business\", prior to the start of \"televangelism\".", "poster_path": "/g58MqIxzhjGAIMP4IoNtPkvLFA3.jpg", "release_date": "1972-07-24", "title": "Marjoe", "video": false, "vote_average": 7.8, "vote_count": 12, "popularity": 3.601}, {"id": 81611, "video": false, "vote_count": 13, "vote_average": 4.2, "title": "The German Chainsaw Massacre", "release_date": "1990-11-29", "original_language": "de", "original_title": "Das deutsche Kettens\u00e4genmassaker", "genre_ids": [35, 27, 53], "backdrop_path": "/xQ3L5vNbL3hSEkxKZa4opefcnkK.jpg", "adult": false, "overview": "", "poster_path": "/dGLvpYeh7nmJBSikNiZvEQmnGkl.jpg", "popularity": 1.859}, {"adult": false, "backdrop_path": "/8oMcfgVW9lM526XgdF6UFjLcoLH.jpg", "genre_ids": [99], "id": 44200, "original_language": "en", "original_title": "Fractals: The Colors Of Infinity", "overview": "Explores the revolutionary world of Fractal Geometry - its far-reaching and often unexpected implications - its powerful and revolutionary applications.", "poster_path": "/bKphPiDh6x17B2w9dqETKoa6RkG.jpg", "release_date": "1995-01-01", "title": "Fractals: The Colors Of Infinity", "video": false, "vote_average": 5.4, "vote_count": 4, "popularity": 2.167}, {"adult": false, "backdrop_path": null, "genre_ids": [35, 18], "id": 186166, "original_language": "fr", "original_title": "Le brasier ardent", "overview": "A woman, named simply \"Elle\" and her husband, a wealthy industrialist, are not on the best of terms. While she enjoys the way he caters to her every whim, she wonders whether he really loves her. He, on the other hand, torments himself by imagining rivals. One morning she awakens from a nightmare in which she has been pursued by a man in various guises, who turns out to be the famous Detective Z, whose memoirs she has been reading. When she and her husband quarrel over leaving Paris permanently for a country estate, he goes to the \"Trouve Tout\" Agency and hires, of all people, Detective Z, to win back her affection.", "poster_path": "/yclWFw6BHb41Q6LRVdNYzwiiPD8.jpg", "release_date": "1923-08-04", "title": "The Burning Crucible", "video": false, "vote_average": 6.6, "vote_count": 5, "popularity": 1.015}, {"adult": false, "backdrop_path": "/3HeBK80YwoPiv4E7tM1oS6sYaWk.jpg", "genre_ids": [18], "id": 182746, "original_language": "es", "original_title": "Obreras saliendo de la f\u00e1brica", "overview": "An atmospheric portrait of four women who leave the factory where they work to go to the beach.", "poster_path": "/cRGlLbFYFG0jaE0SkFrfCuNlmcU.jpg", "release_date": "2005-03-09", "title": "Women Workers Leaving the Factory", "video": false, "vote_average": 6.0, "vote_count": 4, "popularity": 1.4}, {"adult": false, "backdrop_path": "/jRgGWserjIYt6bjMybq9SLKtT5V.jpg", "genre_ids": [27, 18], "id": 60085, "original_language": "en", "original_title": "Final Flesh", "overview": "A 'dramatic work' from Vernon Chatman (Wondershowzen, Xavier Renegade Angel &amp; Doggyfizzle Televizzle). This new form of entertainment involves work-for-hire adult entertainment companies who turn your script into subterranean gold. Operating on the principle that they'd commit themselves to the script even if it didn't involve pornographic sex, Vernon commissioned pieces from four different companies, all of which form a surreal narrative when played back to back. Existential, sublime &amp; ridiculous, featuring unmistakeable porno production values &amp; shudderingly unseasoned porno actors/actresses - but no actual sex! Chatman's sexworker hirelings applied themselves earnestly to his cerebral text (never suspecting the prank nature of the project).", "poster_path": "/cdmJnnebaX9tRFxW2raRG1ZodGA.jpg", "release_date": "2009-11-17", "title": "Final Flesh", "video": false, "vote_average": 6.6, "vote_count": 7, "popularity": 3.204}, {"adult": false, "backdrop_path": "/oU2ZzVjqEA3KMxnDQehg1chkHcW.jpg", "genre_ids": [18], "id": 167235, "original_language": "de", "original_title": "Hitlerjunge Quex", "overview": "A Nazi propaganda film based upon the life and death of Hitler Youth Heini Volker, killed while distributing flyers in a Communist neighborhood.", "poster_path": "/6mdG71sZSttD1FUBaJZYHK6JsWy.jpg", "release_date": "1933-09-10", "title": "Hitlerjunge Quex", "video": false, "vote_average": 5.2, "vote_count": 6, "popularity": 2.902}, {"adult": false, "backdrop_path": "/mYJUTx71C6XQt3ukqHQMS1sFnuZ.jpg", "genre_ids": [10402], "id": 27930, "original_language": "en", "original_title": "Rude Boy", "overview": "Rude Boy is a semi-documentary, part character study, part 'rockumentary', featuring a British punk band, The Clash. The script includes the story of a fictional fan juxtposed with actual public events of the day, including political demonstrations and Clash concerts.", "poster_path": "/lcgkq1uIHRXqCEHUu5BJdbuLGh4.jpg", "release_date": "1980-07-25", "title": "Rude Boy", "video": false, "vote_average": 5.8, "vote_count": 8, "popularity": 4.564}, {"adult": false, "backdrop_path": null, "genre_ids": [99], "id": 259995, "original_language": "en", "original_title": "Angano... Angano... nouvelles de Madagascar", "overview": "Venerable storytellers recount for the camera and their listeners the founding myths of Malagasy culture.", "poster_path": "/ddHjpoB0HxLii0r0QrHyL0j2hWn.jpg", "release_date": "1989-03-04", "title": "Angano... Angano... Tales from Madagascar", "video": false, "vote_average": 5.2, "vote_count": 6, "popularity": 2.763}, {"adult": false, "backdrop_path": "/tysRoWjQOuTwQ7DLag0pPS9eIPI.jpg", "genre_ids": [10402, 99], "id": 60399, "original_language": "en", "original_title": "Radiohead: In Rainbows \u2013 From the Basement", "overview": "A live performance by Radiohead of their 2007 album In Rainbows. This was their first of two full-episode performances, filmed at Maida Vale Studios in London, as part of the \u2018From the Basement\u2019 television series produced by Nigel Godrich, Dilly Gent, James Chads and John Woollcombe.", "poster_path": "/hBlKx7NhAvpgFJLDux7IqxB4Olb.jpg", "release_date": "2008-05-04", "title": "Radiohead: In Rainbows \u2013 From the Basement", "video": false, "vote_average": 7.3, "vote_count": 8, "popularity": 3.898}, {"id": 48234, "video": false, "vote_count": 6, "vote_average": 4.1, "title": "Key Witness", "release_date": "1947-10-09", "original_language": "en", "original_title": "Key Witness", "genre_ids": [80], "backdrop_path": "/oYpX42Em4NIfZvuPVCpChJ3D3Xk.jpg", "adult": false, "overview": "A man takes over the identity of a dead man while on the lam from a crime he didn't commit.", "poster_path": "/tkBgRUD9MHVJCmybIlOOqII7huP.jpg", "popularity": 3.459}, {"adult": false, "backdrop_path": "/zL0YeNhEUVAzmsogxtIr2ZJDAyU.jpg", "genre_ids": [99, 36, 10402], "id": 29124, "original_language": "en", "original_title": "Get Thrashed", "overview": "Get Thrashed traces the rise, fall and impact of thrash metal; from its early years, through its influence on grunge, nu metal and today's heavy metal scene. It is the story of the heaviest, hardest music of the 80s and early 90s as told by the bands who lived it, the fans and bands that grew up on it and by the artists that carry the \"thrash metal\" flag today.", "poster_path": "/yLOSHaN52KDNfD8IEHKFzuYxp1z.jpg", "release_date": "2006-10-03", "title": "Get Thrashed", "video": false, "vote_average": 7.1, "vote_count": 12, "popularity": 3.74}, {"adult": false, "backdrop_path": "/6oV8rnHImhWl0SLkhxFfcA2KJtr.jpg", "genre_ids": [18, 99], "id": 62842, "original_language": "sr", "original_title": "Nevinost bez za\u0161tite", "overview": "A documentary about the famous athlete and movie enthusiast who made Serbia's first sound film, Innocence Unprotected. The Nazi occupation of Belgrade prevented the film from gaining wider acclaim. Director Makavejev intersperses clips of the original film with interviews of surviving cast and crew members, as well as newsreel and archival footage.", "poster_path": "/xUdE629gfk2o9httACzxhwJCAoi.jpg", "release_date": "1968-11-12", "title": "Innocence Unprotected", "video": false, "vote_average": 6.9, "vote_count": 12, "popularity": 3.078}, {"adult": false, "backdrop_path": "/toVwF8BF911ci0CCsGzmDrOrSpn.jpg", "genre_ids": [99], "id": 90511, "original_language": "en", "original_title": "Welfare", "overview": "WELFARE shows the nature and complexity of the welfare system in sequences illustrating the staggering diversity of problems that constitute welfare: housing, unemployment, divorce, medical and psychiatric problems, abandoned and abused children, and the elderly. These issues are presented in a context where welfare workers as well as clients struggle to cope with and interpret the laws and regulations that govern their work and life.", "poster_path": "/ubZeIyelsH0CV2o6NA46p5xQNea.jpg", "release_date": "1975-09-23", "title": "Welfare", "video": false, "vote_average": 7.1, "vote_count": 12, "popularity": 2.767}, {"adult": false, "backdrop_path": "/yPeFlbvDQsGqImNk5j0qwTGQAIi.jpg", "genre_ids": [80, 99], "id": 89191, "original_language": "en", "original_title": "Saving Face", "overview": "Every year hundreds of people - mostly women - are attacked with acid in Pakistan. Follow several of these survivors, their fight for justice, and a Pakistani plastic surgeon who has returned to his homeland to help them restore their faces and their lives.", "poster_path": "/qNEbiQZwNeBvRtMsTEGa1g4JhoM.jpg", "release_date": "2012-03-08", "title": "Saving Face", "video": false, "vote_average": 7.2, "vote_count": 11, "popularity": 3.73}, {"adult": false, "backdrop_path": null, "genre_ids": [99], "id": 195012, "original_language": "en", "original_title": "To Fly!", "overview": "Early IMAX documentary about the development of human flight.", "poster_path": "/tuuKSaUTg8MBwxPWI3vM8LlKOAC.jpg", "release_date": "1976-07-01", "title": "To Fly!", "video": false, "vote_average": 6.3, "vote_count": 5, "popularity": 0.771}, {"id": 41948, "video": false, "vote_count": 12, "vote_average": 7.3, "title": "Freeze Die Come to Life", "release_date": "1990-08-01", "original_language": "ru", "original_title": "\u0417\u0430\u043c\u0440\u0438-\u0443\u043c\u0440\u0438-\u0432\u043e\u0441\u043a\u0440\u0435\u0441\u043d\u0438!", "genre_ids": [18], "backdrop_path": "/oTjGk4s2qgoGPkid5i5VjSn0Z4X.jpg", "adult": false, "overview": "Stuck in a mining town near Vladivostok in 1947 amongst Soviet exiles and Japanese POWs (Japanese prisoners remained in Siberia for years after the war had ended), the kids have to come up with something to keep them busy. Two friends, Valerka and Galia, play some peculiar, very dangerous games of their own amid the man-made wasteland of Suchan.", "poster_path": "/gelazFMTgmYkOlnXn4h3qAl45ct.jpg", "popularity": 1.876}, {"adult": false, "backdrop_path": null, "genre_ids": [16, 14, 27], "id": 136601, "original_language": "ja", "original_title": "Chumon no ooi ryori-ten", "overview": "A short film based on a story by Japanese writer Kenji Miyazawa in which two young British hunters get lost in the woods and discover a strange restaurant. Are the hunters about to discover how it feels to be hunted?", "poster_path": "/zOO4sfqOkBqNxVYgogkTVuMsksl.jpg", "release_date": "1991-08-03", "title": "The Restaurant of Many Orders", "video": false, "vote_average": 6.9, "vote_count": 9, "popularity": 1.169}, {"adult": false, "backdrop_path": "/Alij59650EirNJjngzplSRRVFnH.jpg", "genre_ids": [16, 35, 10751], "id": 31309, "original_language": "en", "original_title": "Mr. Bug Goes to Town", "overview": "The happy tranquility of Buggsville is shattered when the populace learns that a colossal skyscraper is to be built over their tiny town.", "poster_path": "/tf8PJqY2OQZPw640WCaTsri1JIy.jpg", "release_date": "1941-12-09", "title": "Mr. Bug Goes to Town", "video": false, "vote_average": 6.3, "vote_count": 16, "popularity": 3.049}, {"id": 46136, "video": false, "vote_count": 7, "vote_average": 6.0, "title": "The Blank Generation", "release_date": "1976-01-13", "original_language": "en", "original_title": "The Blank Generation", "genre_ids": [99, 10402], "backdrop_path": null, "adult": false, "overview": "The cream of New York new wave/punk filmed live at CBGB's when the scene was just beginning. Includes performances by Patti Smith, Blondie, Television, the Ramones, Talking Heads, the Heartbreakers, the Shirts, Wayne County, the Marbles, the Dolls, Miamis, Harry Toledo, and the Tuff Darts (w/Robert Gordon).", "poster_path": "/c9gBcyjOeDCXT2wVe9tmXzDxfA.jpg", "popularity": 2.213}], "total_pages": 2, "total_results": 27}, "credits": {"cast": [], "crew": [{"credit_id": "52fe48a8c3a36847f8172cff", "department": "Directing", "gender": 0, "id": 150964, "job": "Director", "name": "Jeff Krulik", "profile_path": "/pM0pwxW6dXNmgmx9MLCikqtbFr0.jpg"}, {"credit_id": "5763c215c3a368279d000311", "department": "Directing", "gender": 0, "id": 1332039, "job": "Director", "name": "John Heyn", "profile_path": null}]}}