{"adult": false, "backdrop_path": null, "belongs_to_collection": null, "budget": 0, "genres": [{"id": 18, "name": "Drama"}, {"id": 35, "name": "Comedy"}], "homepage": "", "id": 54715, "imdb_id": "tt0104697", "original_language": "en", "original_title": "Leaving Normal", "overview": "A female buddy story in which Meg Tilly plays a child-like 20-something who has just walked out on her abusive husband. Darly (Christine Lahti) is fleeing a life as a waitress and stripper and is on her way to Alaska to claim a home and family she abandoned eighteen years earlier after giving birth. The two run into each other on the road and Darly welcomes the company as they head north from Wyoming.", "popularity": 4.385, "poster_path": "/zZWTFb1eT9CL8GePAilkRyB8Zut.jpg", "production_companies": [{"id": 33, "logo_path": "/8lvHyhjr8oUKOOy2dKXoALWKdp0.png", "name": "Universal Pictures", "origin_country": "US"}, {"id": 205, "logo_path": null, "name": "Mirage Entertainment", "origin_country": ""}], "production_countries": [{"iso_3166_1": "US", "name": "United States of America"}], "release_date": "1992-04-29", "revenue": 0, "runtime": 110, "spoken_languages": [{"iso_639_1": "en", "name": "English"}], "status": "Released", "tagline": "Sometimes the only way to find where you're going is to lose your way", "title": "Leaving Normal", "video": false, "vote_average": 6.8, "vote_count": 12, "keywords": {"keywords": [{"id": 7312, "name": "road trip"}, {"id": 9880, "name": "alaska"}, {"id": 11322, "name": "female protagonist"}, {"id": 15214, "name": "buddy"}, {"id": 167043, "name": "road movie"}]}, "similar": {"page": 1, "results": [{"id": 376290, "video": false, "vote_count": 1036, "vote_average": 7.5, "title": "Miss Sloane", "release_date": "2016-11-25", "original_language": "en", "original_title": "Miss Sloane", "genre_ids": [18, 53], "backdrop_path": "/64xHK6gmw3ZwIpjeSWZ7W686J5l.jpg", "adult": false, "overview": "An ambitious lobbyist faces off against the powerful gun lobby in an attempt to pass gun control legislation.", "poster_path": "/lPgISoC37G3E2QEVtSuJ15oYlI.jpg", "popularity": 21.855}, {"id": 15472, "video": false, "vote_count": 1749, "vote_average": 7.5, "title": "The Girl with the Dragon Tattoo", "release_date": "2009-02-27", "original_language": "sv", "original_title": "M\u00e4n som hatar kvinnor", "genre_ids": [80, 18, 9648, 53], "backdrop_path": "/7ajX2OJsBecgDDOYfk9VXYfhMIy.jpg", "adult": false, "overview": "Swedish thriller based on Stieg Larsson's novel about a male journalist and a young female hacker. In the opening of the movie, Mikael Blomkvist, a middle-aged publisher for the magazine Millennium, loses a libel case brought by corrupt Swedish industrialist Hans-Erik Wennerstr\u00f6m. Nevertheless, he is hired by Henrik Vanger in order to solve a cold case, the disappearance of Vanger's niece", "poster_path": "/9pRod9YBfBwC0tPfMijhYSdSlwU.jpg", "popularity": 20.738}, {"id": 297762, "video": false, "vote_count": 13717, "vote_average": 7.3, "title": "Wonder Woman", "release_date": "2017-05-30", "original_language": "en", "original_title": "Wonder Woman", "genre_ids": [28, 12, 14], "backdrop_path": "/6iUNJZymJBMXXriQyFZfLAKnjO6.jpg", "adult": false, "overview": "An Amazon princess comes to the world of Man in the grips of the First World War to confront the forces of evil and bring an end to human conflict.", "poster_path": "/gfJGlDaHuWimErCr5Ql0I8x9QSy.jpg", "popularity": 41.8}, {"id": 3525, "video": false, "vote_count": 480, "vote_average": 6.6, "title": "Working Girl", "release_date": "1988-12-20", "original_language": "en", "original_title": "Working Girl", "genre_ids": [35, 10749], "backdrop_path": "/9DRh30FG1Pe1u9c3N0pXyPyO9XS.jpg", "adult": false, "overview": "Tess McGill is an ambitious secretary with a unique approach for climbing the ladder to success. When her classy, but villainous boss breaks a leg skiing, Tess takes over her office, her apartment and even her wardrobe. She creates a deal with a handsome investment banker that will either take her to the top, or finish her off for good.", "poster_path": "/bzPuHOl8DjfZDzwGDCIHonnHUT6.jpg", "popularity": 11.226}, {"adult": false, "backdrop_path": "/siRoJI12l4SbWye3wpIotM8OslV.jpg", "genre_ids": [18, 53], "id": 293768, "original_language": "en", "original_title": "Kidnap", "overview": "A mother (in her Minivan) stops at nothing to recover her kidnapped son.", "poster_path": "/fwdOX3PEZlOLXr9SMpgRnSmTVFp.jpg", "release_date": "2017-06-16", "title": "Kidnap", "video": false, "vote_average": 6.1, "vote_count": 846, "popularity": 23.575}, {"adult": false, "backdrop_path": "/1jcwDtYfcjR5QdbY6iUxYBpXn8I.jpg", "genre_ids": [28, 53, 12], "id": 50456, "original_language": "en", "original_title": "Hanna", "overview": "A 16-year-old girl raised by her father to be the perfect assassin is dispatched on a mission across Europe. Tracked by a ruthless operatives, she faces startling revelations about her existence and questions about her humanity.", "poster_path": "/2Jr4Rl4Hjiahgh09bjeH8tFhgKp.jpg", "release_date": "2011-04-07", "title": "Hanna", "video": false, "vote_average": 6.6, "vote_count": 2098, "popularity": 15.758}, {"adult": false, "backdrop_path": "/eu6nDxJLMrKS7zS7yRzigNn8Rg1.jpg", "genre_ids": [18, 53], "id": 340584, "original_language": "en", "original_title": "Lavender", "overview": "A photographer struggling with memory loss discovers her pictures may indicate something sinister is hitting close to home.", "poster_path": "/tAPvkv0XTeLFqlvMgtlFB8mqk3L.jpg", "release_date": "2016-11-04", "title": "Lavender", "video": false, "vote_average": 5.5, "vote_count": 156, "popularity": 11.864}, {"id": 360814, "video": false, "vote_count": 407, "vote_average": 8.0, "title": "Dangal", "release_date": "2016-12-21", "original_language": "hi", "original_title": "\u0926\u0902\u0917\u0932", "genre_ids": [28, 18], "backdrop_path": "/mFCEeEjRfU2WU9vv5ApXJLzKxy7.jpg", "adult": false, "overview": "Dangal is an extraordinary true story based on the life of Mahavir Singh and his two daughters, Geeta and Babita Phogat. The film traces the inspirational journey of a father who trains his daughters to become world class wrestlers.", "poster_path": "/5PDT64gtbmH10gK5AYR7LZh5PQk.jpg", "popularity": 11.531}, {"id": 70, "video": false, "vote_count": 5412, "vote_average": 7.9, "title": "Million Dollar Baby", "release_date": "2004-12-15", "original_language": "en", "original_title": "Million Dollar Baby", "genre_ids": [18], "backdrop_path": "/7nGW4MhYQ7sJfp482XkrgqPYQ2S.jpg", "adult": false, "overview": "Despondent over a painful estrangement from his daughter, trainer Frankie Dunn isn't prepared for boxer Maggie Fitzgerald to enter his life. But Maggie's determined to go pro and to convince Dunn and his cohort to help her.", "poster_path": "/h4VZKi2Jt4VoBYJmtC4c3bO8KqM.jpg", "popularity": 22.587}, {"id": 290595, "video": false, "vote_count": 3265, "vote_average": 6.2, "title": "The Huntsman: Winter's War", "release_date": "2016-04-06", "original_language": "en", "original_title": "The Huntsman: Winter's War", "genre_ids": [28, 12, 18], "backdrop_path": "/nQ0UvXdxoMZguLuPj0sdV0U36KR.jpg", "adult": false, "overview": "As two evil sisters prepare to conquer the land, two renegades\u2014Eric the Huntsman, who aided Snow White in defeating Ravenna in Snowwhite and the Huntsman, and his forbidden lover, Sara\u2014set out to stop them.", "poster_path": "/b77l5vmp6PYsc98LE6Uf1mXtmHh.jpg", "popularity": 26.088}, {"id": 315837, "video": false, "vote_count": 5588, "vote_average": 6.0, "title": "Ghost in the Shell", "release_date": "2017-03-29", "original_language": "en", "original_title": "Ghost in the Shell", "genre_ids": [28, 18, 878, 53], "backdrop_path": "/jGPSVArC0GS2VVc0aGAqGTjfFOG.jpg", "adult": false, "overview": "In the near future, Major (Scarlett Johansson) is the first of her kind: A human saved from a terrible crash, who is cyber-enhanced to be a perfect soldier devoted to stopping the world's most dangerous criminals. When terrorism reaches a new level that includes the ability to hack into people's minds and control them, Major is uniquely qualified to stop it. As she prepares to face a new enemy, Major discovers that she has been lied to: her life was not saved, it was stolen. She will stop at nothing to recover her past, find out who did this to her and stop them before they do it to others. Based on the internationally acclaimed Japanese Manga, \"The Ghost in the Shell.\"", "poster_path": "/si1ZyELNHdPUZw4pXR5KjMIIsBF.jpg", "popularity": 22.695}, {"adult": false, "backdrop_path": "/9pgHdDy43KeGQiODBNye3ltjxY3.jpg", "genre_ids": [18], "id": 347033, "original_language": "en", "original_title": "Equity", "overview": "Senior investment banker Naomi Bishop\u2019s world of high-power big money is brutal and fierce, and one she thrives in. When a controversial IPO threatens the fragile balance of power and confidentiality, Naomi finds herself entangled in a web of politics and deception.", "poster_path": "/7SoNk9wZ20Icyyk1vJAZRqAxeRQ.jpg", "release_date": "2016-07-29", "title": "Equity", "video": false, "vote_average": 5.8, "vote_count": 70, "popularity": 7.87}, {"id": 314, "video": false, "vote_count": 2002, "vote_average": 4.4, "title": "Catwoman", "release_date": "2004-07-22", "original_language": "en", "original_title": "Catwoman", "genre_ids": [28, 14, 9648], "backdrop_path": "/3ErftAMzVP4btJhbrd5H8FvIHRb.jpg", "adult": false, "overview": "Liquidated after discovering a corporate conspiracy, mild-mannered graphic artist Patience Phillips washes up on an island, where she's resurrected and endowed with the prowess of a cat -- and she's eager to use her new skills ... as a vigilante. Before you can say \"cat and mouse,\" handsome gumshoe Tom Lone is on her tail.", "poster_path": "/3E1XPZ2lZmL4lJV1KSUi1jaSx3w.jpg", "popularity": 19.732}, {"id": 299537, "video": false, "vote_count": 8119, "vote_average": 7.0, "title": "Captain Marvel", "release_date": "2019-03-06", "original_language": "en", "original_title": "Captain Marvel", "genre_ids": [28, 12, 878], "backdrop_path": "/w2PMyoyLU22YvrGK3smVM9fW1jj.jpg", "adult": false, "overview": "The story follows Carol Danvers as she becomes one of the universe\u2019s most powerful heroes when Earth is caught in the middle of a galactic war between two alien races. Set in the 1990s, Captain Marvel is an all-new adventure from a previously unseen period in the history of the Marvel Cinematic Universe.", "poster_path": "/AtsgWhDnHTq68L0lLsUrCnM7TjG.jpg", "popularity": 54.705}, {"id": 5915, "video": false, "vote_count": 6281, "vote_average": 7.8, "title": "Into the Wild", "release_date": "2007-09-11", "original_language": "en", "original_title": "Into the Wild", "genre_ids": [12, 18], "backdrop_path": "/9yJehIjvR7ULOLxeDJoth4kDDNe.jpg", "adult": false, "overview": "After graduating from Emory University in 1992, top student and athlete Christopher McCandless abandons his possessions, gives his entire $24,000 savings account to charity, and hitchhikes to Alaska to live in the wilderness.", "poster_path": "/lHyYgaocXR6KcJLxVmxZDj115hH.jpg", "popularity": 16.336}, {"id": 543025, "video": false, "vote_count": 4, "vote_average": 8.5, "title": "The Great Alaskan Race", "release_date": "2019-10-25", "original_language": "en", "original_title": "The Great Alaskan Race", "genre_ids": [28, 12, 18], "backdrop_path": "/rLLfec1lchEZISUmq92K1XDo1dN.jpg", "adult": false, "overview": "In 1925, a group of brave mushers travel 700 miles to save the small children of Nome, Alaska from a deadly epidemic.", "poster_path": "/pTZ3eiVBSX6LChecw2iIIir4ndA.jpg", "popularity": 4.422}, {"id": 396371, "video": false, "vote_count": 1968, "vote_average": 7.1, "title": "Molly's Game", "release_date": "2017-12-25", "original_language": "en", "original_title": "Molly's Game", "genre_ids": [80, 18], "backdrop_path": "/rHcBZ6ZKCe4FalWHyvBGsyMsh0k.jpg", "adult": false, "overview": "Molly Bloom, a young skier and former Olympic hopeful becomes a successful entrepreneur (and a target of an FBI investigation) when she establishes a high-stakes, international poker game.", "poster_path": "/in43bQ7k0ttr666IPP94IlbQbTR.jpg", "popularity": 18.118}, {"id": 11153, "video": false, "vote_count": 758, "vote_average": 7.1, "title": "National Lampoon's Vacation", "release_date": "1983-07-28", "original_language": "en", "original_title": "National Lampoon's Vacation", "genre_ids": [12, 35], "backdrop_path": "/zcJxJVhvxNHJJ2J7Q7NhgO9nPUV.jpg", "adult": false, "overview": "Clark Griswold is on a quest to take his family on a quest to Walley World theme park for a vacation, but things don't go exactly as planned.", "poster_path": "/ySI88wO1IFyKGWpSKRTSPilE3t2.jpg", "popularity": 20.077}, {"id": 138832, "video": false, "vote_count": 5756, "vote_average": 6.8, "title": "We're the Millers", "release_date": "2013-08-07", "original_language": "en", "original_title": "We're the Millers", "genre_ids": [35, 80], "backdrop_path": "/hoSddFLIyr6FUylOwCxoahbvnXd.jpg", "adult": false, "overview": "A veteran pot dealer creates a fake family as part of his plan to move a huge shipment of weed into the U.S. from Mexico.", "poster_path": "/digXuLXmk88Ar23LYUQTLcz5npA.jpg", "popularity": 19.043}, {"adult": false, "backdrop_path": "/gZeJziVigmRqbkEZwKAtSqlLQ6s.jpg", "genre_ids": [18, 10749], "id": 370663, "original_language": "en", "original_title": "Below Her Mouth", "overview": "An unexpected affair quickly escalates into a heart-stopping reality for two women whose passionate connection changes their lives forever.", "poster_path": "/nTGbq37hYLuNy7YgMg0gVLma0NS.jpg", "release_date": "2016-09-10", "title": "Below Her Mouth", "video": false, "vote_average": 6.2, "vote_count": 456, "popularity": 22.676}], "total_pages": 58, "total_results": 1148}, "recommendations": {"page": 1, "results": [{"adult": false, "backdrop_path": "/nMNEHxHPDFUKVLpzGNxJg070evQ.jpg", "genre_ids": [18], "id": 154276, "original_language": "en", "original_title": "The Stone Boy", "overview": "One summer morning, 12-year-old Arnold Hillerman and his 17-year-old brother Eugene wake at dawn on their family's Montana farm. In a nearby pasture, Arnold's gun fires accidentally. His brother is killed instantly. Isolated by emotions he can't comprehend, Arnold must now come to terms with his grieving family - including his angry father, his frightened mother, his antagonistic uncle and his gentle, straight-talking grandfather  - while his family must come to terms with Arnold.", "poster_path": "/see0E9EV9MLRyh6M09COAeujnm0.jpg", "release_date": "1984-04-04", "title": "The Stone Boy", "video": false, "vote_average": 8.5, "vote_count": 2, "popularity": 3.565}, {"adult": false, "backdrop_path": "/8fBCvvojswv03pBqCJen3CEjUbz.jpg", "genre_ids": [18, 37], "id": 259773, "original_language": "en", "original_title": "When the Legends Die", "overview": "An elderly rodeo rider becomes mentor to a young man attempting to make his own name in the business.", "poster_path": "/9eHxopDZEwdKQuwcfEhOz9H5oy.jpg", "release_date": "1972-10-19", "title": "When the Legends Die", "video": false, "vote_average": 4.2, "vote_count": 5, "popularity": 3.357}, {"adult": false, "backdrop_path": "/nwK5TIt2gn96R1uK7YZ2FTPMcDN.jpg", "genre_ids": [99], "id": 53104, "original_language": "en", "original_title": "Orgasm Inc.", "overview": "Extraordinary behind-the-scenes access reveals a drug company's fevered race to develop the first FDA-approved Viagra for women - and offers a humorous but sobering look inside the cash-fueled pharmaceutical industry.", "poster_path": "/vAm6XK4oOGoaG2Sv0W0QceKCpWk.jpg", "release_date": "2009-05-02", "title": "Orgasm Inc.", "video": false, "vote_average": 6.3, "vote_count": 3, "popularity": 3.866}, {"id": 77128, "video": false, "vote_count": 15, "vote_average": 6.7, "title": "Absolution", "release_date": "1978-06-05", "original_language": "en", "original_title": "Absolution", "genre_ids": [18, 9648, 53], "backdrop_path": "/iJeC2pXHvuVyZa97dmjbvokiBgG.jpg", "adult": false, "overview": "At a Catholic boys' school, domineering disciplinarian Father Goddard rules over his pupils with an iron hand. When one of his teenage charges confesses to murder, the dogmatic but deeply repressed Goddard finds his faith challenged and his life spiralling dangerously out of control.  Also starring Billy Connolly (in his first feature-film role), Dominic Guard ,Kes star Dai Bradley, and the inimitable Brian Glover, and written by the great Anthony Shaffer, Absolution is one of British cinema\u2019s most underrated chillers, not least for a towering central performance by Burton.", "poster_path": "/19nYOhadbitWq4alQQuM9CBSYDa.jpg", "popularity": 4.504}, {"adult": false, "backdrop_path": null, "genre_ids": [18], "id": 91217, "original_language": "en", "original_title": "Men Don't Leave", "overview": "After her husband John dies unexpectedly, Beth Macauley is unprepared for life without him. She is unemployed with no job skills and $60,000 in debt from on-going renovations to their house located in suburban Bingham. She doesn't know what to do but sell what material possessions she has, such as the family pick-up truck and the house, and move into an apartment in the city, namely Baltimore. Beth just wants to survive by finding a job she doesn't dislike, and keep her family together while trying to maintain her sanity and sense of self-worth", "poster_path": "/nG4QJg4ukabGAgbmANMCNBxUtp1.jpg", "release_date": "1990-02-02", "title": "Men Don't Leave", "video": false, "vote_average": 7.1, "vote_count": 14, "popularity": 3.03}, {"adult": false, "backdrop_path": null, "genre_ids": [18, 35], "id": 121870, "original_language": "en", "original_title": "Patti Rocks", "overview": "It's Christmas time in the twin cities. Billy's working a lot of overtime, running barges on the Mississippi. He calls his friend Eddie, whom he hasn't seen in six months, and asks a favor: to drive with him to see his pregnant girlfriend, Patti, because Billy hasn't told her he's married and already has two children. The road trip of guy talk becomes a night of truths exchanged between men and women.", "poster_path": "/wq8nPywpy9GweuMbZsZCFmWMk8l.jpg", "release_date": "1988-01-15", "title": "Patti Rocks", "video": false, "vote_average": 3.1, "vote_count": 4, "popularity": 2.737}, {"adult": false, "backdrop_path": "/71GlZTqRiVijke6hYlpHZfCoPWT.jpg", "genre_ids": [18], "id": 52964, "original_language": "en", "original_title": "Duet for One", "overview": "When Stephanie, a famous violinist, contracts multiple sclerosis her life begins to fall apart. Her career ends, her husband leaves her for another woman and her favorite pupil leave the country. Unable to bear all this loss, Stephanie attempts suicide.", "poster_path": "/i71ntavDjGW4kbFn13An6A1AHQv.jpg", "release_date": "1987-02-01", "title": "Duet for One", "video": false, "vote_average": 5.8, "vote_count": 5, "popularity": 3.018}, {"adult": false, "backdrop_path": null, "genre_ids": [18, 10749], "id": 65579, "original_language": "en", "original_title": "Dirty Filthy Love", "overview": "A man's life falls apart as a result of his affliction with Obsessive Compulsive Disorder and Tourette's Syndrome in this touching and funny tale.", "poster_path": "/oWKeAD0E12zXYaKgRj5834LYUqp.jpg", "release_date": "2005-05-24", "title": "Dirty Filthy Love", "video": false, "vote_average": 7.5, "vote_count": 8, "popularity": 3.769}, {"adult": false, "backdrop_path": null, "genre_ids": [18, 10751], "id": 266525, "original_language": "en", "original_title": "Alan & Naomi", "overview": "When Naomi, a young refugee from Nazi-occupied Paris, moves into Alan Silverman\u2019s building in New York, he does his best to avoid her. But despite Naomi's strange behavior and the language barrier, they slowly develop a deep and touching friendship.", "poster_path": "/cFhhuskJMZMOc7Ru45P7nPf7eLP.jpg", "release_date": "1992-01-31", "title": "Alan & Naomi", "video": false, "vote_average": 6.3, "vote_count": 3, "popularity": 3.91}, {"adult": false, "backdrop_path": "/pPZAxUYvHZI7X58gqXpWZFsg3Ej.jpg", "genre_ids": [35], "id": 18913, "original_language": "en", "original_title": "Betsy's Wedding", "overview": "Offbeat fashion student Betsy Hopper and her straight-laced investment-banker fianc\u00e9, Dylan Walsh, just want an intimate little wedding reception, but Betsy's father, Eddie, a Long Island construction contractor, feels so threatened by Jake's rich WASP parents that he blows the ceremony up into a bank-breaking showpiece, sending his wife, Lola, into a financial panic.", "poster_path": "/ywIwJw7OVH2UOcqK69obv1DbJZ6.jpg", "release_date": "1990-06-22", "title": "Betsy's Wedding", "video": false, "vote_average": 5.7, "vote_count": 15, "popularity": 6.832}, {"adult": false, "backdrop_path": "/28XSsc6CBEWRIPk2E6f3b5lXFZY.jpg", "genre_ids": [35, 18], "id": 118915, "original_language": "en", "original_title": "Such Good Friends", "overview": "Julie Messinger is an intense woman who hides her wild emotions and desires under her conventional facade. Her husband Richard checks into the hospital for a simple mole removal that goes seriously wrong.", "poster_path": "/82G5zdgqz6sW1eBGxqU86jLe2uh.jpg", "release_date": "1971-12-16", "title": "Such Good Friends", "video": false, "vote_average": 6.3, "vote_count": 4, "popularity": 3.808}, {"adult": false, "backdrop_path": "/4zCkj9ahUSq5LU9YGmofiUMN8nI.jpg", "genre_ids": [18], "id": 172149, "original_language": "en", "original_title": "Burning Secret", "overview": "While recuperating in a sanatorium in the mountains, a young boy becomes very close friends with an older baron. But the baron is only using the boy to get to know his mother, the wife of an older diplomat. When the boy realises the baron\u2019s intentions, he becomes jealous, moody and de-pressed.", "poster_path": "/rDtuKHcvg6QnTRWc25sXnojPNZH.jpg", "release_date": "1988-12-23", "title": "Burning Secret", "video": false, "vote_average": 7.0, "vote_count": 4, "popularity": 3.764}, {"adult": false, "backdrop_path": "/s85GzS5LBkWlTsrGmXPclaOI3lS.jpg", "genre_ids": [18, 53, 36], "id": 47493, "original_language": "en", "original_title": "To Kill a Priest", "overview": "A young priest speaks out against the Communist regime in Poland and is killed for it.", "poster_path": "/ogfmZi2EtQUTTdc85g7N86HkK8R.jpg", "release_date": "1988-01-01", "title": "To Kill a Priest", "video": false, "vote_average": 6.1, "vote_count": 8, "popularity": 3.815}, {"adult": false, "backdrop_path": "/75wSqzC48EbQt61IVRijj8w1xTj.jpg", "genre_ids": [18], "id": 60929, "original_language": "de", "original_title": "Nimmermeer", "overview": "One night he will fetch the silver from the night sky Jonas loves his fathers magical stories. When Helge dies, Jonas ends up in an orphanage whereupon dreariness and discipline rule his life until a group of circus performers appear in the village.", "poster_path": "/sOie6xIJEA1nxVhMsABVe6rXOme.jpg", "release_date": "2006-11-02", "title": "Nimmermeer", "video": false, "vote_average": 6.0, "vote_count": 3, "popularity": 2.093}], "total_pages": 1, "total_results": 14}, "credits": {"cast": [{"cast_id": 2, "character": "Darly", "credit_id": "52fe48abc3a36847f8173693", "gender": 1, "id": 77133, "name": "Christine Lahti", "order": 0, "profile_path": "/8tN2asTuDxdGuzWU6PrPYDNFDlc.jpg"}, {"cast_id": 3, "character": "Marianne", "credit_id": "52fe48abc3a36847f8173697", "gender": 1, "id": 39117, "name": "Meg Tilly", "order": 1, "profile_path": "/qR47kpFZR7ROd82oXJUj1CHYyZl.jpg"}, {"cast_id": 5, "character": "66", "credit_id": "544935a40e0a26748f001d61", "gender": 1, "id": 54044, "name": "Patrika Darbo", "order": 2, "profile_path": "/ixUbj1NWOtLSpu1T2DN8EaQYHpi.jpg"}, {"cast_id": 6, "character": "Harry", "credit_id": "544935b6c3a3680fae001d6a", "gender": 0, "id": 15799, "name": "Lenny Von Dohlen", "order": 3, "profile_path": "/7duYOdfUgAX7JL1zsXaKZEhuEVY.jpg"}, {"cast_id": 7, "character": "Leon", "credit_id": "544935c30e0a267483001d0c", "gender": 2, "id": 7868, "name": "Maury Chaykin", "order": 4, "profile_path": "/jhJgkb5P0oAW7QtULjqD2kaN0ez.jpg"}, {"cast_id": 8, "character": "Kurt", "credit_id": "544935d00e0a267479001d0f", "gender": 2, "id": 16841, "name": "Brett Cullen", "order": 5, "profile_path": "/o94R8Z59lrwbZ0LcUkDSPu1GS7q.jpg"}, {"cast_id": 9, "character": "Walt", "credit_id": "544935dcc3a3680fb8001e84", "gender": 2, "id": 16433, "name": "James Gammon", "order": 6, "profile_path": "/4oTidbjDQ8XU3LHot249SMlVLn4.jpg"}, {"cast_id": 10, "character": "Sarah", "credit_id": "5a67957292514169b2012870", "gender": 1, "id": 1965949, "name": "Robyn Simons", "order": 7, "profile_path": "/849WvjqYYuaNqpoFgbrQkKJqWQa.jpg"}], "crew": [{"credit_id": "52fe48abc3a36847f817368f", "department": "Directing", "gender": 2, "id": 9181, "job": "Director", "name": "Edward Zwick", "profile_path": "/ucBi071XeIGMEHaEGKtU6PN1FwN.jpg"}, {"credit_id": "544935930e0a26748c001d46", "department": "Writing", "gender": 2, "id": 9612, "job": "Screenplay", "name": "Ed Solomon", "profile_path": "/dfhHU0NT1mtEhfuPZgNSHe1N1lH.jpg"}]}}