{"adult": false, "backdrop_path": "/sjwaNSXxlcS7cXBO9gyJgGazLLo.jpg", "belongs_to_collection": null, "budget": 0, "genres": [{"id": 16, "name": "Animation"}, {"id": 35, "name": "Comedy"}, {"id": 10751, "name": "Family"}], "homepage": "", "id": 54825, "imdb_id": "tt0099317", "original_language": "en", "original_title": "Creature Comforts", "overview": "A humorous and thought-provoking view of what animals in zoos might be thinking about their captivity and surroundings.", "popularity": 3.814, "poster_path": "/x15Ridzr13YMi6RHcyVQ2s2l1Sk.jpg", "production_companies": [{"id": 181, "logo_path": "/zhQ77XOviCBuXd74IurqqjgLNe0.png", "name": "Channel Four Films", "origin_country": "GB"}, {"id": 297, "logo_path": "/ykJbf1z5qIreJrHWfnh1ev1alkD.png", "name": "Aardman Animations", "origin_country": "GB"}], "production_countries": [{"iso_3166_1": "GB", "name": "United Kingdom"}], "release_date": "1989-07-15", "revenue": 0, "runtime": 5, "spoken_languages": [{"iso_639_1": "en", "name": "English"}], "status": "Released", "tagline": "", "title": "Creature Comforts", "video": false, "vote_average": 7.3, "vote_count": 50, "keywords": {"keywords": []}, "similar": {"page": 1, "results": [{"adult": false, "backdrop_path": "/5OeY4U2rzePxWq2rkqMajUx2gz7.jpg", "genre_ids": [16, 10751, 12, 14, 10749], "id": 812, "original_language": "en", "original_title": "Aladdin", "overview": "Princess Jasmine grows tired of being forced to remain in the palace, so she sneaks out into the marketplace, in disguise, where she meets street-urchin Aladdin.  The couple falls in love, although Jasmine may only marry a prince.  After being thrown in jail, Aladdin becomes embroiled in a plot to find a mysterious lamp, with which the evil Jafar hopes to rule the land.", "poster_path": "/mjKozYRuHc9j7SmiXmbVmCiAM0A.jpg", "release_date": "1992-11-25", "title": "Aladdin", "video": false, "vote_average": 7.6, "vote_count": 7288, "popularity": 46.629}, {"id": 150540, "video": false, "vote_count": 13953, "vote_average": 7.9, "title": "Inside Out", "release_date": "2015-06-09", "original_language": "en", "original_title": "Inside Out", "genre_ids": [16, 35, 18, 10751], "backdrop_path": "/szytSpLAyBh3ULei3x663mAv5ZT.jpg", "adult": false, "overview": "Growing up can be a bumpy road, and it's no exception for Riley, who is uprooted from her Midwest life when her father starts a new job in San Francisco. Riley's guiding emotions\u2014 Joy, Fear, Anger, Disgust and Sadness\u2014live in Headquarters, the control centre inside Riley's mind, where they help advise her through everyday life and tries to keep things positive, but the emotions conflict on how best to navigate a new city, house and school.", "poster_path": "/aAmfIX3TT40zUHGcCKrlOZRKC7u.jpg", "popularity": 47.351}, {"adult": false, "backdrop_path": "/4brEMzPazQE3hv3mogj6k1a29RP.jpg", "genre_ids": [10749, 14, 16], "id": 3933, "original_language": "en", "original_title": "Corpse Bride", "overview": "Set in a 19th-century european village, this stop-motion animation feature follows the story of Victor, a young man whisked away to the underworld and wed to a mysterious corpse bride, while his real bride Victoria waits bereft in the land of the living.", "poster_path": "/o9GbcdP7rOg2m1NyUnUR3ZwNcTE.jpg", "release_date": "2005-09-12", "title": "Corpse Bride", "video": false, "vote_average": 7.4, "vote_count": 4926, "popularity": 16.93}, {"id": 326359, "video": false, "vote_count": 1179, "vote_average": 6.8, "title": "Frozen Fever", "release_date": "2015-03-09", "original_language": "en", "original_title": "Frozen Fever", "genre_ids": [12, 16, 10751], "backdrop_path": "/ubioPGniCfDiASmYYpeJs5RRNaC.jpg", "adult": false, "overview": "On Anna's birthday, Elsa and Kristoff are determined to give her the best celebration ever, but Elsa's icy powers may put more than just the party at risk.", "poster_path": "/lKJiVPzsAO9IJ4LKWXZ8vkR2bg4.jpg", "popularity": 17.061}, {"id": 14813, "video": false, "vote_count": 456, "vote_average": 7.6, "title": "Mickey's Christmas Carol", "release_date": "1983-10-19", "original_language": "en", "original_title": "Mickey's Christmas Carol", "genre_ids": [16, 10751], "backdrop_path": "/fDK3xeAcQfQ40ZUULgZshElkspa.jpg", "adult": false, "overview": "It is an adaptation of the Charles Dickens classic A Christmas Carol, featuring Scrooge McDuck as his namesake and inspiration Ebenezer Scrooge and Mickey Mouse as Bob Cratchit. This film was based on a 1972 audio musical entitled Disney's A Christmas Carol. It is a twenty-four minute animated short film produced by Walt Disney Productions as an accompaniment to a re-release of The Rescuers.", "poster_path": "/29iF1IiC3ZyJQ1kmTf4LD8p8oro.jpg", "popularity": 18.001}, {"id": 9479, "video": false, "vote_count": 5315, "vote_average": 7.8, "title": "The Nightmare Before Christmas", "release_date": "1993-10-09", "original_language": "en", "original_title": "The Nightmare Before Christmas", "genre_ids": [16, 14, 10751], "backdrop_path": "/16lk65YfrDFIr6evkWRjSeOOSws.jpg", "adult": false, "overview": "Tired of scaring humans every October 31 with the same old bag of tricks, Jack Skellington, the spindly king of Halloween Town, kidnaps Santa Claus and plans to deliver shrunken heads and other ghoulish gifts to children on Christmas morning. But as Christmas approaches, Jack's rag-doll girlfriend, Sally, tries to foil his misguided plans.", "poster_path": "/6oxkO1VgKCq74fNILKAg6t2dVEt.jpg", "popularity": 20.34}, {"adult": false, "backdrop_path": "/twGxeStlGooWV3gP6ZIcSNuQ6jf.jpg", "genre_ids": [12, 16, 10751, 14], "id": 81684, "original_language": "en", "original_title": "The Gruffalo's Child", "overview": "A follow up to the 2009 animated feature and adapted from the childrens' book by Julia Donaldson and Alex Scheffler.  The Gruffalo's child explores the deep dark wood in search of the big bad mouse and meets the Snake, Owl and Fox in the process.  She eventually finds the mouse, who manages to outwit her like the Gruffalo before!", "poster_path": "/qaGH2AoaLvoGXURQtNzj1nw6oZd.jpg", "release_date": "2011-12-25", "title": "The Gruffalo's Child", "video": false, "vote_average": 6.9, "vote_count": 73, "popularity": 13.766}, {"adult": false, "backdrop_path": "/qFLDF62VbWyyxkwco9lwZqkGoMB.jpg", "genre_ids": [16, 10751], "id": 10895, "original_language": "en", "original_title": "Pinocchio", "overview": "Lonely toymaker Geppetto has his wishes answered when the Blue Fairy arrives to bring his wooden puppet Pinocchio to life. Before becoming a real boy, however, Pinocchio must prove he's worthy as he sets off on an adventure with his whistling sidekick and conscience, Jiminy Cricket.", "poster_path": "/gN1dQBHi4557cFduIu9njOr6knW.jpg", "release_date": "1940-02-23", "title": "Pinocchio", "video": false, "vote_average": 7.0, "vote_count": 3429, "popularity": 24.532}, {"id": 313297, "video": false, "vote_count": 2276, "vote_average": 7.7, "title": "Kubo and the Two Strings", "release_date": "2016-08-18", "original_language": "en", "original_title": "Kubo and the Two Strings", "genre_ids": [12, 16, 10751], "backdrop_path": "/aF4TrSc1IbNNtsWdwixMQNku3Dv.jpg", "adult": false, "overview": "Kubo mesmerizes the people in his village with his magical gift for spinning wild tales with origami. When he accidentally summons an evil spirit seeking vengeance, Kubo is forced to go on a quest to solve the mystery of his fallen samurai father and his mystical weaponry, as well as discover his own magical powers.", "poster_path": "/3Kr9CIIMcXTPlm6cdZ9y3QTe4Y7.jpg", "popularity": 29.328}, {"id": 533, "video": false, "vote_count": 1440, "vote_average": 6.9, "title": "Wallace & Gromit: The Curse of the Were-Rabbit", "release_date": "2005-09-04", "original_language": "en", "original_title": "Wallace & Gromit: The Curse of the Were-Rabbit", "genre_ids": [12, 16, 35, 10751], "backdrop_path": "/v45E1vDhPp2hc1dEZx5KZuRsSxX.jpg", "adult": false, "overview": "Cheese-loving eccentric Wallace and his cunning canine pal, Gromit, investigate a mystery in Nick Park's animated adventure, in which the lovable inventor and his intrepid pup run a business ridding the town of garden pests. Using only humane methods that turn their home into a halfway house for evicted vermin, the pair stumble upon a mystery involving a voracious vegetarian monster that threatens to ruin the annual veggie-growing contest.", "poster_path": "/tLryx0x9TDV5rifA9W8yUvDZFHB.jpg", "popularity": 23.185}, {"id": 14836, "video": false, "vote_count": 3513, "vote_average": 7.6, "title": "Coraline", "release_date": "2009-02-05", "original_language": "en", "original_title": "Coraline", "genre_ids": [16, 10751], "backdrop_path": "/obBsMjC9dkDeoYsLxHURikW87UZ.jpg", "adult": false, "overview": "When Coraline moves to an old house, she feels bored and neglected by her parents. She finds a hidden door with a bricked up passage. During the night, she crosses the passage and finds a parallel world where everybody has buttons instead of eyes, with caring parents and all her dreams coming true. When the Other Mother invites Coraline to stay in her world forever, the girl refuses and finds that the alternate reality where she is trapped is only a trick to lure her.", "poster_path": "/ybOmHUVVXcwBQErjw7tmeE97fpO.jpg", "popularity": 22.379}, {"id": 856, "video": false, "vote_count": 3247, "vote_average": 7.4, "title": "Who Framed Roger Rabbit", "release_date": "1988-06-21", "original_language": "en", "original_title": "Who Framed Roger Rabbit", "genre_ids": [16, 35, 80, 14, 10751], "backdrop_path": "/9podqGmd36AJHO13HQIQHQZRTJC.jpg", "adult": false, "overview": "'Toon star Roger is worried that his wife Jessica is playing pattycake with someone else, so the studio hires detective Eddie Valiant to snoop on her. But the stakes are quickly raised when Marvin Acme is found dead and Roger is the prime suspect.", "poster_path": "/lYfRc57Kx9VgLZ48iulu0HKnM15.jpg", "popularity": 22.366}, {"id": 12092, "video": false, "vote_count": 3671, "vote_average": 7.1, "title": "Alice in Wonderland", "release_date": "1951-07-03", "original_language": "en", "original_title": "Alice in Wonderland", "genre_ids": [12, 16, 14, 10751], "backdrop_path": "/p6frW7qR3wUbssM25BS8BlzyoKc.jpg", "adult": false, "overview": "On a golden afternoon, young Alice follows a White Rabbit, who disappears down a nearby rabbit hole. Quickly following him, she tumbles into the burrow - and enters the merry, topsy-turvy world of Wonderland! Memorable songs and whimsical escapades highlight Alice's journey, which culminates in a madcap encounter with the Queen of Hearts - and her army of playing cards!", "poster_path": "/AdwfqyNiH8UqeYKFYoiKhwTtjAb.jpg", "popularity": 24.891}, {"id": 9016, "video": false, "vote_count": 2230, "vote_average": 7.4, "title": "Treasure Planet", "release_date": "2002-11-26", "original_language": "en", "original_title": "Treasure Planet", "genre_ids": [12, 16, 14, 878, 10751], "backdrop_path": "/3HVvtFm9NvOfn1u3yfeEugh2ZWj.jpg", "adult": false, "overview": "When space galleon cabin boy Jim Hawkins discovers a map to an intergalactic \"loot of a thousand worlds,\" a cyborg cook named John Silver teaches him to battle supernovas and space storms. But, soon, Jim realizes Silver is a pirate intent on mutiny!", "poster_path": "/gFfZVblQoExIVK4PVCJ9xZZJJKy.jpg", "popularity": 25.816}, {"adult": false, "backdrop_path": "/98Gi6TauCtoQAJOIoEsnBBVTLQC.jpg", "genre_ids": [16, 10751, 10749], "id": 10340, "original_language": "en", "original_title": "Lady and the Tramp", "overview": "Lady, a golden cocker spaniel, meets up with a mongrel dog who calls himself the Tramp. He is obviously from the wrong side of town, but happenings at Lady's home make her decide to travel with him for a while.", "poster_path": "/y9nf5YIKbwycDFU4fqdKkOV1Am8.jpg", "release_date": "1955-06-16", "title": "Lady and the Tramp", "video": false, "vote_average": 7.1, "vote_count": 3159, "popularity": 26.0}, {"adult": false, "backdrop_path": "/3nG6BBIxgqbIM5p1iO61RyKzUkZ.jpg", "genre_ids": [16, 10751, 14, 12, 35, 10749], "id": 11970, "original_language": "en", "original_title": "Hercules", "overview": "Bestowed with superhuman strength, a young mortal named Hercules sets out to prove himself a hero in the eyes of his father, the great god Zeus. Along with his friends Pegasus, a flying horse, and Phil, a personal trainer, Hercules is tricked by the hilarious, hotheaded villain Hades, who's plotting to take over Mount Olympus!", "poster_path": "/eFlBFMAifj436QctX3akDkUnhlk.jpg", "release_date": "1997-06-20", "title": "Hercules", "video": false, "vote_average": 7.5, "vote_count": 4316, "popularity": 27.252}, {"id": 62177, "video": false, "vote_count": 8930, "vote_average": 6.9, "title": "Brave", "release_date": "2012-06-21", "original_language": "en", "original_title": "Brave", "genre_ids": [28, 12, 16, 35, 14, 10751], "backdrop_path": "/sfRCA9g3CunpnZO3QurHSIRcsUq.jpg", "adult": false, "overview": "Brave is set in the mystical Scottish Highlands, where M\u00e9rida is the princess of a kingdom ruled by King Fergus and Queen Elinor. An unruly daughter and an accomplished archer, M\u00e9rida one day defies a sacred custom of the land and inadvertently brings turmoil to the kingdom. In an attempt to set things right, M\u00e9rida seeks out an eccentric old Wise Woman and is granted an ill-fated wish. Also figuring into M\u00e9rida\u2019s quest \u2014 and serving as comic relief \u2014 are the kingdom\u2019s three lords: the enormous Lord MacGuffin, the surly Lord Macintosh, and the disagreeable Lord Dingwall.", "poster_path": "/qhABv2d4NZLhsOOA4iBFM4rfuJC.jpg", "popularity": 41.81}, {"adult": false, "backdrop_path": "/9l5Nzo1qbEslfCu2NYWimpZ1Vkc.jpg", "genre_ids": [35, 10751, 14, 10749], "id": 4523, "original_language": "en", "original_title": "Enchanted", "overview": "The beautiful princess Giselle is banished by an evil queen from her magical, musical animated land and finds herself in the gritty reality of the streets of modern-day Manhattan. Shocked by this strange new environment that doesn't operate on a \"happily ever after\" basis, Giselle is now adrift in a chaotic world badly in need of enchantment. But when Giselle begins to fall in love with a charmingly flawed divorce lawyer who has come to her aid - even though she is already promised to a perfect fairy tale prince back home - she has to wonder: Can a storybook view of romance survive in the real world?", "poster_path": "/65EfHNQ6NCeAoRPNLRhTyLqNZmU.jpg", "release_date": "2007-11-20", "title": "Enchanted", "video": false, "vote_average": 6.7, "vote_count": 3505, "popularity": 20.256}, {"adult": false, "backdrop_path": "/fJQ5kjLx4UdK05MC323Vlzwr6S8.jpg", "genre_ids": [35, 18, 36], "id": 140823, "original_language": "en", "original_title": "Saving Mr. Banks", "overview": "Author P.L. Travers travels from London to Hollywood as Walt Disney Pictures adapts her novel Mary Poppins for the big screen.", "poster_path": "/mvs3reS18RP6IhjLwwLeVtkoeg0.jpg", "release_date": "2013-11-16", "title": "Saving Mr. Banks", "video": false, "vote_average": 7.4, "vote_count": 2230, "popularity": 17.126}, {"adult": false, "backdrop_path": "/eC8TeqWgfyXi5gSkWwoRMh4Zd18.jpg", "genre_ids": [16, 10751], "id": 11544, "original_language": "en", "original_title": "Lilo & Stitch", "overview": "As Stitch, a runaway genetic experiment from a faraway planet, wreaks havoc on the Hawaiian Islands, he becomes the mischievous adopted alien \"puppy\" of an independent little girl named Lilo and learns about loyalty, friendship, and 'ohana, the Hawaiian tradition of family.", "poster_path": "/tVaEulzowKhMhDvHNNYb9rNEZPB.jpg", "release_date": "2002-06-21", "title": "Lilo & Stitch", "video": false, "vote_average": 7.4, "vote_count": 3479, "popularity": 21.231}], "total_pages": 861, "total_results": 17204}, "recommendations": {"page": 1, "results": [{"adult": false, "backdrop_path": null, "genre_ids": [], "id": 48277, "original_language": "en", "original_title": "Closed Mondays", "overview": "A man visiting a museum sees the works of art come to life.", "poster_path": "/rfPcTFY6eBW6zuRZH9aAELQU0IZ.jpg", "release_date": "1974-10-01", "title": "Closed Mondays", "video": false, "vote_average": 6.3, "vote_count": 13, "popularity": 4.02}, {"adult": false, "backdrop_path": null, "genre_ids": [35, 16], "id": 134752, "original_language": "en", "original_title": "The Flying Man", "overview": "A man undresses and takes to flight, while another man and his dog witness him.", "poster_path": "/wMCTxsIst2v9VTzjpucYHT6KPJM.jpg", "release_date": "1962-01-02", "title": "The Flying Man", "video": false, "vote_average": 4.7, "vote_count": 10, "popularity": 1.83}, {"adult": false, "backdrop_path": "/l66G3Xj6kPTHZuJNgwraL4aoV8I.jpg", "genre_ids": [16, 35], "id": 32529, "original_language": "en", "original_title": "Ah, L'Amour", "overview": "A guy keeps getting painfully rejected (bodily harm) when he asks girls out.", "poster_path": "/qXMs9mVC73zX1lrELO0BVPzxZom.jpg", "release_date": "1995-01-01", "title": "Ah, L'Amour", "video": false, "vote_average": 6.6, "vote_count": 22, "popularity": 3.213}, {"adult": false, "backdrop_path": "/stEyIShL8gX81yJ4zOnpMnDjpgq.jpg", "genre_ids": [10749, 16, 35, 37, 28], "id": 85791, "original_language": "ja", "original_title": "\u304a\u3093\u307c\u308d\u30d5\u30a3\u30eb\u30e0", "overview": "A cowboy seeks to rescue, then woo, a damsel in distress. But he is constantly thwarted by the scratches, breaks, and other imperfections present in the film print itself.", "poster_path": "/wsnWgUDhywCjUIwmtxKHzQgVKls.jpg", "release_date": "1985-01-01", "title": "Broken Down Film", "video": false, "vote_average": 6.3, "vote_count": 17, "popularity": 2.585}, {"adult": false, "backdrop_path": "/rGMX8zW3RclO6MLya5eNBwiAzo7.jpg", "genre_ids": [16, 14], "id": 47217, "original_language": "en", "original_title": "Jumping", "overview": "A boy walks down the street and as he goes along his strides increase. Eventually he leaps over towns, forests, and oceans, seeing many things and surprising many people along the way.", "poster_path": "/mVeX9NugUpc23cQ5XaJGA7v92ed.jpg", "release_date": "1984-08-12", "title": "Jumping", "video": false, "vote_average": 6.8, "vote_count": 24, "popularity": 2.195}, {"adult": false, "backdrop_path": null, "genre_ids": [], "id": 154612, "original_language": "en", "original_title": "The Birth of Magellan: Cadenza I", "overview": "Hollis Frampton alludes to origins and creation as he cuts between a garden featuring a bride and groom and an 1902 film entitled \"A Little Piece of String.\"", "poster_path": "/hrg5cK5zh4b0tVkEfPTEfDq4Ds2.jpg", "release_date": "1977-12-31", "title": "The Birth of Magellan: Cadenza I", "video": false, "vote_average": 3.7, "vote_count": 9, "popularity": 2.008}, {"adult": false, "backdrop_path": null, "genre_ids": [99, 35], "id": 49176, "original_language": "en", "original_title": "O Dreamland", "overview": "Lindsay Anderson's early documentary film of a British amusement park, the irony of its manufactured fun on full display.", "poster_path": "/s76JNaWjxF5w2Rd3V3E8N6Jn6Je.jpg", "release_date": "1953-01-01", "title": "O Dreamland", "video": false, "vote_average": 6.3, "vote_count": 11, "popularity": 2.228}, {"adult": false, "backdrop_path": "/cBD6hmx198Wec6LqhuFU5L65KHL.jpg", "genre_ids": [16], "id": 48331, "original_language": "en", "original_title": "Guard Dog", "overview": "Why do dogs bark at such innocent creatures as pigeons and squirrels... what are they afraid of? This film answers that eternal question.", "poster_path": "/2ARywfgu1vc2ocu2cksMrHh5yhS.jpg", "release_date": "2004-01-01", "title": "Guard Dog", "video": false, "vote_average": 6.4, "vote_count": 10, "popularity": 1.866}, {"adult": false, "backdrop_path": null, "genre_ids": [], "id": 212101, "original_language": "en", "original_title": "The Midnight Party", "overview": "Part of The Children's Trilogy. Filmed in 1938, effects added by Larry Jordan ca. 1965-68.", "poster_path": "/sz2i6K6pNfVJy0D5Yz46PTWxaa.jpg", "release_date": "1938-12-31", "title": "The Midnight Party", "video": false, "vote_average": 5.3, "vote_count": 10, "popularity": 1.463}, {"adult": false, "backdrop_path": null, "genre_ids": [], "id": 147491, "original_language": "en", "original_title": "The Great Society", "overview": "A parade of popular consumer items cut to \"The Battle Hymn of the Republic\". A great example of Pop Art in film.", "poster_path": "/uKrqDPi5gZUR4Yvygz2TlU5nu9D.jpg", "release_date": "1967-12-31", "title": "The Great Society", "video": false, "vote_average": 5.3, "vote_count": 10, "popularity": 1.3}, {"adult": false, "backdrop_path": null, "genre_ids": [16], "id": 160332, "original_language": "en", "original_title": "When the Day Breaks", "overview": "A rooster has his last biscuit for breakfast and goes grocery shopping. A pig prepares her breakfast (potato peelings, with the potatoes thrown in the trash) and discovers she needs more milk. Their paths cross, a lemon falls into the sewer, and both lives are changed.", "poster_path": "/oT9Lr5Kk5RLqfsJxmqe5pFuNbSc.jpg", "release_date": "1999-02-21", "title": "When the Day Breaks", "video": false, "vote_average": 7.1, "vote_count": 15, "popularity": 2.804}, {"adult": false, "backdrop_path": null, "genre_ids": [99], "id": 127813, "original_language": "en", "original_title": "Case Study: LSD", "overview": "A young girl relates what happened during her first LSD trip, when \u2013 among other things \u2013 her food began talking to her.", "poster_path": "/AbeOlN6VMK4Jei69lOhXWEJN4nK.jpg", "release_date": "1969-12-31", "title": "Case Study: LSD", "video": false, "vote_average": 4.9, "vote_count": 8, "popularity": 1.704}, {"adult": false, "backdrop_path": null, "genre_ids": [], "id": 249354, "original_language": "en", "original_title": "High Kukus", "overview": "A short experimental film from James Broughton.", "poster_path": "/nYBpUlfGTuZMqLzBJXXlAmY4C2h.jpg", "release_date": "1973-12-31", "title": "High Kukus", "video": false, "vote_average": 5.4, "vote_count": 8, "popularity": 0.84}, {"adult": false, "backdrop_path": null, "genre_ids": [], "id": 48276, "original_language": "en", "original_title": "Charade", "overview": "A talented, but doomed, gentleman tries to participate in a properly British game of charades.", "poster_path": "/Yavf3cOED5RvMVPnkhdH3KuWZQ.jpg", "release_date": "1984-01-01", "title": "Charade", "video": false, "vote_average": 5.9, "vote_count": 10, "popularity": 1.293}, {"adult": false, "backdrop_path": null, "genre_ids": [10402], "id": 466301, "original_language": "en", "original_title": "Mongoloid", "overview": "For MONGOLOID (1978), the short film Conner began preparing after seeing Devo on their first tour, Conner spliced together newsreel, educational, and b-movie footage which resonated with their satirical lyrics about an underdeveloped man-child determined to fit into and positively contribute to mainstream American society.", "poster_path": "/tws5ArY7hyi2C5a1bAeRSNtUC5D.jpg", "release_date": "1978-02-27", "title": "Mongoloid", "video": false, "vote_average": 6.9, "vote_count": 9, "popularity": 1.48}, {"adult": false, "backdrop_path": "/zhAXcbv9H0S1Nieq4octkKuUBjh.jpg", "genre_ids": [], "id": 127835, "original_language": "en", "original_title": "Very Nice, Very Nice", "overview": "Arthur Lipsett's first film is an avant-garde blend of photography and sound. It looks behind the business-as-usual face we put on life and shows anxieties we want to forget. It is made of dozens of pictures that seem familiar, with fragments of speech heard in passing and, between times, a voice saying, \"Very nice, very nice.\"", "poster_path": "/zhjrpgn1QioF9sIDoa5Z01ZzR5Q.jpg", "release_date": "1961-12-31", "title": "Very Nice, Very Nice", "video": false, "vote_average": 6.1, "vote_count": 20, "popularity": 2.438}, {"adult": false, "backdrop_path": null, "genre_ids": [16], "id": 380029, "original_language": "en", "original_title": "No. 1: A Strange Dream", "overview": "Hand-painted 35 mm stock photographed in 16 mm, color, silent, 2:20 or 5 min. Initially intended to be screened with and synchronized to Dizzy Gillespie's Manteca or Guarachi Guaro. \"...the history of the geologic period reduced to orgasm length.\"", "poster_path": "/qPKWVuBg4e3pDZJ8Iaeoxrghaji.jpg", "release_date": "1939-01-01", "title": "No. 1: A Strange Dream", "video": false, "vote_average": 6.1, "vote_count": 10, "popularity": 0.694}, {"adult": false, "backdrop_path": null, "genre_ids": [16], "id": 380030, "original_language": "en", "original_title": "No. 2: Message From the Sun", "overview": "Hand-painted 35 mm stock photographed in 16 mm, color, 2:15 or 10 min. Initially intended to be screened with and synchronized to Dizzy Gillespie's Algo Bueno. This film \"takes place either inside the sun or in... Switzerland\" according to Smith. To produce this film he used a technique that involved cutting stickers of the type used to reinforce the holes in 3-ring binder paper. These were applied to 16 mm movie film and used like a stencil. Layers of vaseline and paint were used to color each frame in this manner. The effect is hypnotic, psychedelic and is something like a visual music.", "poster_path": "/wX8uNMal1cfKziW7bB8HEXkrDjN.jpg", "release_date": "1947-10-24", "title": "No. 2: Message From the Sun", "video": false, "vote_average": 6.2, "vote_count": 10, "popularity": 1.605}, {"adult": false, "backdrop_path": null, "genre_ids": [], "id": 147393, "original_language": "nl", "original_title": "Koekoekswals", "overview": "", "poster_path": "/3oHH5w7VOdJyyIAACi4DEz9DUHH.jpg", "release_date": "1955-12-31", "title": "The Cuckoo Waltz", "video": false, "vote_average": 5.1, "vote_count": 8, "popularity": 0.949}, {"adult": false, "backdrop_path": null, "genre_ids": [99, 18], "id": 127811, "original_language": "en", "original_title": "Case Study: Heroin", "overview": "A man talks about heroin abuse and withdrawal.", "poster_path": "/u9qhOug6CEbPU1CdLH3qhhqY1DY.jpg", "release_date": "1969-12-31", "title": "Case Study: Heroin", "video": false, "vote_average": 4.4, "vote_count": 9, "popularity": 0.901}], "total_pages": 2, "total_results": 40}, "credits": {"cast": [{"cast_id": 9, "character": "Interviewer (voice)", "credit_id": "5ac67edb92514162a201507d", "gender": 0, "id": 2016586, "name": "Julie Sedgewick", "order": 1, "profile_path": null}], "crew": [{"credit_id": "52fe48b0c3a36847f81744e1", "department": "Directing", "gender": 2, "id": 7314, "job": "Director", "name": "Nick Park", "profile_path": "/f7MzwTzd2Wu2JjL74R8t7ixVBLN.jpg"}, {"credit_id": "5ac67e3fc3a36834de014470", "department": "Writing", "gender": 2, "id": 7314, "job": "Writer", "name": "Nick Park", "profile_path": "/f7MzwTzd2Wu2JjL74R8t7ixVBLN.jpg"}, {"credit_id": "5ac67e74c3a36834d0014f52", "department": "Production", "gender": 1, "id": 2016583, "job": "Producer", "name": "Sara Mullock", "profile_path": null}, {"credit_id": "5ac67e7ec3a36834db014cfa", "department": "Camera", "gender": 0, "id": 2016584, "job": "Director of Photography", "name": "Andy MacCormack", "profile_path": null}, {"credit_id": "5ac67e960e0a26496b01763d", "department": "Camera", "gender": 0, "id": 554220, "job": "Director of Photography", "name": "Fred Reed", "profile_path": null}, {"credit_id": "5ac67ea70e0a26497a015fda", "department": "Camera", "gender": 0, "id": 1119834, "job": "Director of Photography", "name": "Dave Alex Riddett", "profile_path": null}, {"credit_id": "5ac67eaf0e0a264977016b3d", "department": "Camera", "gender": 2, "id": 53329, "job": "Director of Photography", "name": "David Sproxton", "profile_path": "/zVeJRzQaIvENbOUbhMgP4DkgK7W.jpg"}, {"credit_id": "5ac67ebac3a36834db014d3c", "department": "Editing", "gender": 0, "id": 2016585, "job": "Editor", "name": "William Ennals", "profile_path": null}]}}