{"adult": false, "backdrop_path": "/jdqyJ26Do6ShxsHX2lq1RbEcAyV.jpg", "belongs_to_collection": null, "budget": 0, "genres": [{"id": 27, "name": "Horror"}, {"id": 53, "name": "Thriller"}], "homepage": "http://www.neowolfthemovie.com", "id": 5489, "imdb_id": "tt0847215", "original_language": "en", "original_title": "Neowolf", "overview": "When an aspiring rock musician Tony returns to his college town to make up with his estranged girlfriend Rosemary, he finds his life taking an unexpected turn to the dark side when he encounters a mysterious rock band Neowolf led by rocker Vince and the alluring band girl Paula.  When Rosemary's best friend Kevin turns up dead, Rosemary seeks out a nursery owner Mrs. Belakov who knows the secrets of an ancient evil.", "popularity": 1.898, "poster_path": "/ikNAOpmzdlyMmYkAdtHXoG8H15p.jpg", "production_companies": [], "production_countries": [{"iso_3166_1": "US", "name": "United States of America"}], "release_date": "2010-04-19", "revenue": 0, "runtime": 90, "spoken_languages": [{"iso_639_1": "en", "name": "English"}], "status": "Released", "tagline": "", "title": "Neowolf", "video": false, "vote_average": 2.7, "vote_count": 6, "keywords": {"keywords": [{"id": 572, "name": "sex"}, {"id": 2334, "name": "nightclub"}, {"id": 12564, "name": "werewolf"}, {"id": 14819, "name": "violence"}]}, "similar": {"page": 1, "results": [{"adult": false, "backdrop_path": "/rPfyX0pkmn8Ea4gh3DfsmzFUf05.jpg", "genre_ids": [18, 27, 80], "id": 74997, "original_language": "en", "original_title": "The Human Centipede 2 (Full Sequence)", "overview": "Inspired by the fictional Dr. Heiter, disturbed loner Martin dreams of creating a 12-person centipede and sets out to realize his sick fantasy.", "poster_path": "/kFtAdkCO0vXN2RWu2oMcR9GZ9Hi.jpg", "release_date": "2011-10-06", "title": "The Human Centipede 2 (Full Sequence)", "video": false, "vote_average": 4.5, "vote_count": 674, "popularity": 14.216}, {"id": 301846, "video": false, "vote_count": 238, "vote_average": 5.2, "title": "Howl", "release_date": "2015-10-01", "original_language": "en", "original_title": "Howl", "genre_ids": [27], "backdrop_path": "/f6zcd6ZVviZnCdjqdtZtWKTNDDM.jpg", "adult": false, "overview": "When passengers on a train are attacked by a creature, they must band together in order to survive until morning.", "poster_path": "/sGEOC8x0lXSlIV4hoIZjnOnze9e.jpg", "popularity": 11.373}, {"adult": false, "backdrop_path": "/o4psXh7IVD6GFKvBSHjHLzjL2lV.jpg", "genre_ids": [27, 53], "id": 10781, "original_language": "en", "original_title": "The Texas Chainsaw Massacre: The Beginning", "overview": "Chrissie and her friends set out on a road trip for a final fling before one is shipped off to Vietnam. Along the way, bikers harass the foursome and cause an accident that throws Chrissie from the vehicle. The lawman who arrives on the scene kills one of the bikers and brings Chrissie's friends to the Hewitt homestead, where young Leatherface is learning the tools of terror.", "poster_path": "/9elCJIG1TOJ0wew3JVx5ZMkHq5w.jpg", "release_date": "2006-10-06", "title": "The Texas Chainsaw Massacre: The Beginning", "video": false, "vote_average": 6.0, "vote_count": 936, "popularity": 19.211}, {"id": 9373, "video": false, "vote_count": 1414, "vote_average": 6.1, "title": "The Texas Chainsaw Massacre", "release_date": "2003-05-21", "original_language": "en", "original_title": "The Texas Chainsaw Massacre", "genre_ids": [27], "backdrop_path": "/3rTsJ7tIC3LUSRr80PfeLbbCfBA.jpg", "adult": false, "overview": "After picking up a traumatized young hitchhiker, five friends find themselves stalked and hunted by a deformed chainsaw-wielding killer and his family of equally psychopathic killers.", "poster_path": "/gx7FCIOFGxqNyplF3t7qtmUv55g.jpg", "popularity": 19.117}, {"adult": false, "backdrop_path": "/hp0gnNBrRaqQcwlZXTYtWSlgsaJ.jpg", "genre_ids": [27, 878], "id": 39899, "original_language": "en", "original_title": "Turkey Shoot", "overview": "In the near future, after an unspecified holocaust, survivors are herded into prison camps. There, they are hunted for sport by the leaders of the camp. Paul, one of the newest prisoners, is determined not to go down as quietly as the others.", "poster_path": "/7dp6jaQJ26UUt7Ts0SW2ClvWHy4.jpg", "release_date": "1982-03-25", "title": "Turkey Shoot", "video": false, "vote_average": 5.7, "vote_count": 48, "popularity": 5.096}, {"adult": false, "backdrop_path": "/a0UYovVNPVfWILYT7TzD10xBX3q.jpg", "genre_ids": [18, 53, 80, 9648], "id": 979, "original_language": "fr", "original_title": "Irr\u00e9versible", "overview": "Events over the course of one traumatic night in Paris unfold in reverse-chronological order as the beautiful Alex is brutally raped and beaten by a stranger in the underpass. Her boyfriend and ex-lover take matters into their own hands by hiring two criminals to help them find the rapist so that they can exact revenge. A simultaneously beautiful and terrible examination of the destructive nature of cause and effect, and how time destroys everything.", "poster_path": "/rxeDxo8FvZpLu6iplNpxdtAVnfu.jpg", "release_date": "2002-05-22", "title": "Irreversible", "video": false, "vote_average": 7.1, "vote_count": 1216, "popularity": 20.416}, {"id": 434873, "video": false, "vote_count": 96, "vote_average": 5.3, "title": "It Stains the Sands Red", "release_date": "2016-10-08", "original_language": "en", "original_title": "It Stains the Sands Red", "genre_ids": [35, 18, 27], "backdrop_path": "/7agafhYuc4ItjAwdT4Y62hbSqoe.jpg", "adult": false, "overview": "In the throes of a zombie apocalypse, A troubled woman from Las Vegas with a dark past, finds herself stranded in the desert with a lone and ravenous zombie on her tail.", "poster_path": "/rBCjDBa2Dau9WqEslCpdJni394M.jpg", "popularity": 8.318}, {"adult": false, "backdrop_path": "/z3s3TdRvEWC1TFrwtk0qhB7OdHh.jpg", "genre_ids": [27, 53], "id": 12662, "original_language": "en", "original_title": "Psycho III", "overview": "Norman Bates is still running his little motel, and he has kept the dressed skeleton he calls 'mother'. One day a nosey journalist comes to see him to ask questions about his past.", "poster_path": "/etiLhEebRnFExeb70COwqqeO8Kd.jpg", "release_date": "1986-04-02", "title": "Psycho III", "video": false, "vote_average": 5.6, "vote_count": 173, "popularity": 9.895}, {"adult": false, "backdrop_path": "/sP1d39946QhP3lkoJZ7qUJOb9fa.jpg", "genre_ids": [12, 27, 53], "id": 30877, "original_language": "it", "original_title": "Inferno in diretta", "overview": "A reporter and her cameraman connect a surviving Jonestown leader and a TV exec's missing son to a drug war where jungle installations are being massacred by an army of natives and a skilled white assassin.", "poster_path": "/uskRcGmNIQrMw3xnuObqeeDOxsh.jpg", "release_date": "1985-08-08", "title": "Cut and Run", "video": false, "vote_average": 5.9, "vote_count": 28, "popularity": 5.11}, {"adult": false, "backdrop_path": "/jYnjr6jNSo2CU9cmNbZZGvnrzjv.jpg", "genre_ids": [18, 80, 53], "id": 2001, "original_language": "en", "original_title": "We Own the Night", "overview": "A New York nightclub manager tries to save his brother and father from Russian mafia hitmen.", "poster_path": "/iUQdkZstEViwMgRjqrCu6uCfVjc.jpg", "release_date": "2007-05-25", "title": "We Own the Night", "video": false, "vote_average": 6.7, "vote_count": 685, "popularity": 13.466}, {"id": 339692, "video": false, "vote_count": 1166, "vote_average": 6.9, "title": "Shot Caller", "release_date": "2017-07-13", "original_language": "en", "original_title": "Shot Caller", "genre_ids": [80, 18, 53], "backdrop_path": "/hehboYLXB3m90x9ybiBsupwuifL.jpg", "adult": false, "overview": "A newly-released prison gangster is forced by the leaders of his gang to orchestrate a major crime with a brutal rival gang on the streets of Southern California.", "poster_path": "/qLmLz2wtyYvmW8Ult3l2ngOnW8v.jpg", "popularity": 22.37}, {"id": 381288, "video": false, "vote_count": 11449, "vote_average": 7.3, "title": "Split", "release_date": "2017-01-19", "original_language": "en", "original_title": "Split", "genre_ids": [27, 53], "backdrop_path": "/9pkZesKMnblFfKxEhQx45YQ2kIe.jpg", "adult": false, "overview": "Though Kevin has evidenced 23 personalities to his trusted psychiatrist, Dr. Fletcher, there remains one still submerged who is set to materialize and dominate all the others. Compelled to abduct three teenage girls led by the willful, observant Casey, Kevin reaches a war for survival among all of those contained within him \u2014 as well as everyone around him \u2014 as the walls between his compartments shatter apart.", "poster_path": "/rXMWOZiCt6eMX22jWuTOSdQ98bY.jpg", "popularity": 39.624}, {"adult": false, "backdrop_path": "/19qAk3bQZ6ulspbwhPw1A0bNpii.jpg", "genre_ids": [80, 27, 53], "id": 73861, "original_language": "sr", "original_title": "Srpski film", "overview": "Milos, a retired porn star, leads a normal family life trying to make ends meet. Presented with the opportunity of a lifetime to financially support his family for the rest of their lives, Milos must participate in one last mysterious film. From then on, Milos is drawn into a maelstrom of unbelievable cruelty and mayhem.", "poster_path": "/iB3ynCghwG63MrViBC6YyPzUIAn.jpg", "release_date": "2010-06-16", "title": "A Serbian Film", "video": false, "vote_average": 5.5, "vote_count": 898, "popularity": 16.013}, {"id": 398181, "video": false, "vote_count": 1302, "vote_average": 6.6, "title": "You Were Never Really Here", "release_date": "2017-11-08", "original_language": "en", "original_title": "You Were Never Really Here", "genre_ids": [53], "backdrop_path": "/h4Lk8Cgfvlzz0hcnSJBTAOwNDia.jpg", "adult": false, "overview": "A traumatised veteran, unafraid of violence, tracks down missing girls for a living. When a job spins out of control, Joe's nightmares overtake him as a conspiracy is uncovered leading to what may be his death trip or his awakening.", "poster_path": "/ktPbjD6nYg5NxmeTt72Iqaw5GD0.jpg", "popularity": 16.619}, {"adult": false, "backdrop_path": "/lnxiNlbStoBT4CDMqPAdprS5pwN.jpg", "genre_ids": [28, 53], "id": 1991, "original_language": "en", "original_title": "Death Proof", "overview": "Austin's hottest DJ, Jungle Julia, sets out into the night to unwind with her two friends Shanna and Arlene. Covertly tracking their moves is Stuntman Mike, a scarred rebel leering from behind the wheel of his muscle car, revving just feet away.", "poster_path": "/nyQBcpxqS4im2akQlWG9Y1oeM2V.jpg", "release_date": "2007-05-21", "title": "Death Proof", "video": false, "vote_average": 6.8, "vote_count": 2821, "popularity": 17.718}, {"adult": false, "backdrop_path": "/a24i4Qw6qFTtkFLQsncv8WPwevj.jpg", "genre_ids": [53, 28, 80], "id": 345887, "original_language": "en", "original_title": "The Equalizer 2", "overview": "Robert McCall, who serves an unflinching justice for the exploited and oppressed, embarks on a relentless, globe-trotting quest for vengeance when a long-time girl friend is murdered.", "poster_path": "/cQvc9N6JiMVKqol3wcYrGshsIdZ.jpg", "release_date": "2018-07-19", "title": "The Equalizer 2", "video": false, "vote_average": 6.5, "vote_count": 2483, "popularity": 21.271}, {"adult": false, "backdrop_path": "/3mEfawlJnuu4OmUlAOesrAMsWv6.jpg", "genre_ids": [53, 27], "id": 9540, "original_language": "en", "original_title": "Dead Ringers", "overview": "Elliot, a successful gynecologist, works at the same practice as his identical twin, Beverly. Elliot is attracted to many of his patients and has affairs with them. When he inevitably loses interest, he will give the woman over to Beverly, the meeker of the two, without the woman knowing the difference. Beverly falls hard for one of the patients, Claire, but when she inadvertently deceives him, he slips into a state of madness.", "poster_path": "/9ZGBwiWIvN9KmHaLeSS5it44G21.jpg", "release_date": "1988-09-23", "title": "Dead Ringers", "video": false, "vote_average": 7.2, "vote_count": 388, "popularity": 10.111}, {"id": 395834, "video": false, "vote_count": 2755, "vote_average": 7.4, "title": "Wind River", "release_date": "2017-08-03", "original_language": "en", "original_title": "Wind River", "genre_ids": [80, 18, 9648, 53], "backdrop_path": "/6B8e784decj9vtKuNjbl9Fes2aZ.jpg", "adult": false, "overview": "An FBI agent teams with the town's veteran game tracker to investigate a murder that occurred on a Native American reservation.", "poster_path": "/pySivdR845Hom4u4T2WNkJxe6Ad.jpg", "popularity": 16.931}, {"adult": false, "backdrop_path": "/o4lpqMqDQGx4RVorWzcHnSaDeRo.jpg", "genre_ids": [27], "id": 1690, "original_language": "en", "original_title": "Hostel", "overview": "Three backpackers head to a Slovakian city that promises to meet their hedonistic expectations, with no idea of the hell that awaits them.", "poster_path": "/zF3pEs1CUbjPgioxDH4h2MEHsWl.jpg", "release_date": "2006-01-06", "title": "Hostel", "video": false, "vote_average": 5.8, "vote_count": 2026, "popularity": 16.556}, {"adult": false, "backdrop_path": "/kiWvoV78Cc3fUwkOHKzyBgVdrDD.jpg", "genre_ids": [37, 18, 12], "id": 281957, "original_language": "en", "original_title": "The Revenant", "overview": "In the 1820s, a frontiersman, Hugh Glass, sets out on a path of vengeance against those who left him for dead after a bear mauling.", "poster_path": "/oXUWEc5i3wYyFnL1Ycu8ppxxPvs.jpg", "release_date": "2015-12-25", "title": "The Revenant", "video": false, "vote_average": 7.5, "vote_count": 12127, "popularity": 24.135}], "total_pages": 406, "total_results": 8119}, "recommendations": {"page": 1, "results": [{"id": 21119, "video": false, "vote_count": 9, "vote_average": 6.1, "title": "The Last Days of Frankie the Fly", "release_date": "1996-10-24", "original_language": "en", "original_title": "The Last Days of Frankie the Fly", "genre_ids": [80], "backdrop_path": "/1ywgtuaaFULvgZ456Sdyt7bcYW1.jpg", "adult": false, "overview": "Dreaming of ascending the underworld ladder and gaining revenge on his sadistic boss, Sal, a Mafia flunky, Frankie, tries to take a step in the right direction by \"saving\" an exploited, drug-addicted porn actress, Margaret.", "poster_path": "/jWni4RT94XL5zmZcpcoKoeVU23z.jpg", "popularity": 5.554}, {"adult": false, "backdrop_path": null, "genre_ids": [27], "id": 24928, "original_language": "en", "original_title": "Nutbag", "overview": "A serial killer stalks prostitutes on the mean streets of Las Vegas.", "poster_path": "/lqSaRNPDDac4MUw51u34u8APTh4.jpg", "release_date": "2000-12-13", "title": "Nutbag", "video": false, "vote_average": 4.5, "vote_count": 6, "popularity": 1.669}, {"adult": false, "backdrop_path": "/9ztxKDEEw0Xj33yzWdoxNRfsOZE.jpg", "genre_ids": [35, 14, 27], "id": 177838, "original_language": "en", "original_title": "Ooga Booga", "overview": "Revenge is served on a spear when dirty cops brutally murder DEVIN, an innocent African-American med student. Devin\u2019s soul is magically transferred into the body of an action figure named OOGA BOOGA. Armed only with his tribal weapon and the help of his old girlfriend, DONNA, Ooga Booga takes to the streets and trailer parks to find the men who stole his bright future away from him. The bodies begin to pile up as Ooga Booga slices and dices his way through crooked cops, meth heads and demented city officials in order to clear his name. Racists beware! You won\u2019t even have enough time to scream, \u201cOoga Booga!\u201d", "poster_path": "/jXfC3jVN0iOXfp3z0kv8GYetsQr.jpg", "release_date": "2013-03-12", "title": "Ooga Booga", "video": false, "vote_average": 3.3, "vote_count": 7, "popularity": 5.447}, {"adult": false, "backdrop_path": null, "genre_ids": [53, 9648, 27], "id": 85137, "original_language": "en", "original_title": "Girls School Screamers", "overview": "Seven college girls spend the weekend at an elegant estate which begins as a fun filled adventure but ends in a nightmare of gut-wrenching terror.", "poster_path": "/jK5KIQs2RcuDgF6IjXy4BUxif6W.jpg", "release_date": "1986-03-07", "title": "Girls School Screamers", "video": false, "vote_average": 3.3, "vote_count": 8, "popularity": 2.479}, {"adult": false, "backdrop_path": "/qzM70NTFbWVo58tb80IEyYao8KT.jpg", "genre_ids": [53, 27], "id": 340865, "original_language": "en", "original_title": "Provoked", "overview": "A group of amateur paranormal investigators, frustrated with the lack of any solid evidence after months of attempts, decide to provoke and taught spirits from the afterlife in a last ditch attempt for a paranormal encounter. The experiment works, but they have awakened something angry and very deadly - something that follows them home and now will not leave. The investigators must now defend their home, and their family, from the spirits who were brought into this world and are not going without taking some souls with them.", "poster_path": "/ermVjZC1R9EFosjChg1dIr8MnUp.jpg", "release_date": "2016-12-05", "title": "Provoked", "video": false, "vote_average": 4.3, "vote_count": 8, "popularity": 3.501}], "total_pages": 1, "total_results": 5}, "credits": {"cast": [{"cast_id": 14, "character": "Vince", "credit_id": "52fe4409c3a36847f807e6d7", "gender": 2, "id": 43597, "name": "Agim Kaba", "order": 0, "profile_path": null}, {"cast_id": 15, "character": "Tony", "credit_id": "52fe4409c3a36847f807e6db", "gender": 0, "id": 43598, "name": "Michael Frascino", "order": 1, "profile_path": null}, {"cast_id": 16, "character": "Rosemary", "credit_id": "52fe4409c3a36847f807e6df", "gender": 1, "id": 43599, "name": "Heidi Johanningmeier", "order": 2, "profile_path": "/hTBg6M9Zzr6SBV3YIFyZsN16pTj.jpg"}, {"cast_id": 17, "character": "Kevin", "credit_id": "52fe4409c3a36847f807e6e3", "gender": 2, "id": 43600, "name": "Ryan Ross", "order": 3, "profile_path": "/72D7ufaHMrXDbhZEoNWdTiHfO8w.jpg"}, {"cast_id": 19, "character": "Mrs. Belakov", "credit_id": "52fe4409c3a36847f807e6eb", "gender": 1, "id": 5047, "name": "Veronica Cartwright", "order": 4, "profile_path": "/8s31kdotRrghkH4DkxpRZCmELYd.jpg"}, {"cast_id": 18, "character": "Paula", "credit_id": "52fe4409c3a36847f807e6e7", "gender": 0, "id": 43602, "name": "Megan Pepin", "order": 5, "profile_path": null}, {"cast_id": 20, "character": "Girl Groupie", "credit_id": "57f213a8c3a36802cd0028ef", "gender": 1, "id": 62000, "name": "Tiffany Shepis", "order": 6, "profile_path": "/wyVA0gh6J3azjp3TBLpjDMUBcGv.jpg"}, {"cast_id": 13, "character": "Bouncer", "credit_id": "52fe4409c3a36847f807e6d3", "gender": 0, "id": 43596, "name": "Jacob Browne", "order": 7, "profile_path": "/A4nOWHt1FohhJ4WUM5p5NCkvGGv.jpg"}], "crew": [{"credit_id": "52fe4409c3a36847f807e68d", "department": "Directing", "gender": 0, "id": 43583, "job": "Director", "name": "Yvan Gauthier", "profile_path": null}, {"credit_id": "52fe4409c3a36847f807e6c9", "department": "Editing", "gender": 0, "id": 43583, "job": "Editor", "name": "Yvan Gauthier", "profile_path": null}, {"credit_id": "52fe4409c3a36847f807e693", "department": "Directing", "gender": 0, "id": 43584, "job": "Director", "name": "Jonathan Carloff", "profile_path": null}, {"credit_id": "52fe4409c3a36847f807e699", "department": "Writing", "gender": 0, "id": 43585, "job": "Screenplay", "name": "Alessandro De Gaetano", "profile_path": null}, {"credit_id": "52fe4409c3a36847f807e69f", "department": "Writing", "gender": 0, "id": 43586, "job": "Screenplay", "name": "Michael January", "profile_path": null}, {"credit_id": "52fe4409c3a36847f807e6a5", "department": "Production", "gender": 0, "id": 43587, "job": "Producer", "name": "M. Allesandro di Gaetano", "profile_path": null}, {"credit_id": "52fe4409c3a36847f807e6ab", "department": "Production", "gender": 1, "id": 43588, "job": "Producer", "name": "Dani\u00e8le J. Suissa", "profile_path": null}, {"credit_id": "52fe4409c3a36847f807e6b1", "department": "Production", "gender": 0, "id": 43589, "job": "Producer", "name": "Nicholas Thomas", "profile_path": null}, {"credit_id": "52fe4409c3a36847f807e6b7", "department": "Sound", "gender": 0, "id": 43590, "job": "Original Music Composer", "name": "Jonathan Clark", "profile_path": null}, {"credit_id": "52fe4409c3a36847f807e6bd", "department": "Sound", "gender": 0, "id": 43592, "job": "Original Music Composer", "name": "Conrad Pope", "profile_path": null}, {"credit_id": "52fe4409c3a36847f807e6c3", "department": "Camera", "gender": 2, "id": 43594, "job": "Director of Photography", "name": "Kevin Atkinson", "profile_path": null}, {"credit_id": "52fe4409c3a36847f807e6cf", "department": "Production", "gender": 0, "id": 43595, "job": "Casting", "name": "Pamela Shae", "profile_path": null}]}}