{"adult": false, "backdrop_path": null, "belongs_to_collection": null, "budget": 50000, "genres": [{"id": 99, "name": "Documentary"}], "homepage": "https://joantrumpauermulholland.org/the-uncomfortable-truth/", "id": 552791, "imdb_id": "tt7119062", "original_language": "en", "original_title": "The Uncomfortable Truth", "overview": "When the award-winning filmmaker of \"An Ordinary Hero\", Loki Mulholland, dives into the 400 year history of institutional racism in America he is confronted with the shocking reality that his family helped start it all from the very beginning.", "popularity": 2.944, "poster_path": "/4saQVYXWw1lt9J3sXaBgkij8JMN.jpg", "production_companies": [], "production_countries": [{"iso_3166_1": "US", "name": "United States of America"}], "release_date": "2018-10-08", "revenue": 0, "runtime": 85, "spoken_languages": [{"iso_639_1": "en", "name": "English"}], "status": "Released", "tagline": "Family... History", "title": "The Uncomfortable Truth", "video": false, "vote_average": 0.0, "vote_count": 0, "keywords": {"keywords": [{"id": 9682, "name": "history"}, {"id": 10057, "name": "institutional discrimination"}, {"id": 12425, "name": "racism"}, {"id": 163116, "name": "civil rights"}]}, "similar": {"page": 1, "results": [{"adult": false, "backdrop_path": "/rW5gI8SEO1qYbXGwRANYrKtMiQB.jpg", "genre_ids": [18], "id": 413362, "original_language": "en", "original_title": "Roman J. Israel, Esq.", "overview": "Hard-nosed liberal lawyer Roman J. Israel has been fighting the good fight forever while others take the credit. When his partner \u2013 the firm\u2019s frontman \u2013 has a heart attack, Israel suddenly takes on that role. He soon discovers some unsettling truths about the firm \u2013 truths that conflict with his values of helping the poor and dispossessed \u2013 and finds himself in an existential crisis that leads to extreme actions.", "poster_path": "/epTCHVcyLkT8Aqt08Ki3PWC2sUh.jpg", "release_date": "2017-11-17", "title": "Roman J. Israel, Esq.", "video": false, "vote_average": 6.3, "vote_count": 583, "popularity": 12.787}, {"id": 487558, "video": false, "vote_count": 4020, "vote_average": 7.6, "title": "BlacKkKlansman", "release_date": "2018-07-30", "original_language": "en", "original_title": "BlacKkKlansman", "genre_ids": [80], "backdrop_path": "/wKRrldOtg6HVeGqGLls6iT9XO7I.jpg", "adult": false, "overview": "Colorado Springs, late 1970s. Ron Stallworth, an African American police officer, and Flip Zimmerman, his Jewish colleague, run an undercover operation to infiltrate the Ku Klux Klan.", "poster_path": "/8jxqAvSDoneSKRczaK8v9X5gqBp.jpg", "popularity": 25.597}, {"adult": false, "backdrop_path": "/aRP8QAOhnthglsTUzeLWwoPVV1T.jpg", "genre_ids": [18, 36], "id": 381284, "original_language": "en", "original_title": "Hidden Figures", "overview": "The untold story of Katherine G. Johnson, Dorothy Vaughan and Mary Jackson \u2013 brilliant African-American women working at NASA and serving as the brains behind one of the greatest operations in history \u2013 the launch of astronaut John Glenn into orbit. The visionary trio crossed all gender and race lines to inspire generations to dream big.", "poster_path": "/6cbIDZLfwUTmttXTmNi8Mp3Rnmg.jpg", "release_date": "2016-12-10", "title": "Hidden Figures", "video": false, "vote_average": 8.0, "vote_count": 5348, "popularity": 31.774}, {"adult": false, "backdrop_path": "/vZ7EVk7FaNEWYqlVWbFLHP8Z0LU.jpg", "genre_ids": [9648, 53, 27], "id": 419430, "original_language": "en", "original_title": "Get Out", "overview": "Chris and his girlfriend Rose go upstate to visit her parents for the weekend. At first, Chris reads the family's overly accommodating behavior as nervous attempts to deal with their daughter's interracial relationship, but as the weekend progresses, a series of increasingly disturbing discoveries lead him to a truth that he never could have imagined.", "poster_path": "/rdPGUJhadPg7FGFNzavib0iwTor.jpg", "release_date": "2017-02-24", "title": "Get Out", "video": false, "vote_average": 7.5, "vote_count": 10007, "popularity": 24.396}, {"id": 549559, "video": false, "vote_count": 205, "vote_average": 8.1, "title": "Apollo 11", "release_date": "2019-03-01", "original_language": "en", "original_title": "Apollo 11", "genre_ids": [99, 36], "backdrop_path": "/cRW5341t1y61XK7mrhTvwoodZz6.jpg", "adult": false, "overview": "A look at the Apollo 11 mission to land on the moon led by commander Neil Armstrong and pilot Buzz Aldrin.", "poster_path": "/woLMRroHyoTGoXyxdEeBJEYBFtu.jpg", "popularity": 16.318}, {"id": 393457, "video": false, "vote_count": 1617, "vote_average": 6.8, "title": "Fences", "release_date": "2016-12-16", "original_language": "en", "original_title": "Fences", "genre_ids": [18], "backdrop_path": "/jNlCIAcheh0iOuL3kz9x1Wq9WLG.jpg", "adult": false, "overview": "In 1950s Pittsburgh, a frustrated African-American father struggles with the constraints of poverty, racism, and his own inner demons as he tries to raise a family.", "poster_path": "/yZFBqealET1TunuVvu4YzcM1orT.jpg", "popularity": 10.81}, {"id": 1632, "video": false, "vote_count": 770, "vote_average": 7.6, "title": "Mississippi Burning", "release_date": "1988-12-08", "original_language": "en", "original_title": "Mississippi Burning", "genre_ids": [80, 18, 53], "backdrop_path": "/4ypwob4uxh0q1osOFq2Wh7zdopT.jpg", "adult": false, "overview": "Two FBI agents investigating the murder of civil rights workers during the 60s seek to breach the conspiracy of silence in a small Southern town where segregation divides black and white. The younger agent trained in FBI school runs up against the small town ways of his partner, a former sheriff.", "poster_path": "/uSukdUQwx0l4rRuMXNqugR1tu4n.jpg", "popularity": 16.862}, {"adult": false, "backdrop_path": "/4bHX7nAmjMiZO9eotJITyro0raw.jpg", "genre_ids": [18], "id": 376866, "original_language": "en", "original_title": "Jackie", "overview": "An account of the days of First Lady, Jacqueline Kennedy, in the immediate aftermath of John F. Kennedy's assassination in 1963.", "poster_path": "/iMkl2Akc1f4CSJCieVwczM4KjZR.jpg", "release_date": "2016-12-02", "title": "Jackie", "video": false, "vote_average": 6.5, "vote_count": 1554, "popularity": 17.637}, {"adult": false, "backdrop_path": "/xStFRUQtjdQWiZEGN80rgkhN0Kh.jpg", "genre_ids": [18, 878], "id": 11864, "original_language": "en", "original_title": "Enemy Mine", "overview": "A soldier from Earth crashlands on an alien world after sustaining battle damage. Eventually he encounters another survivor, but from the enemy species he was fighting; they band together to survive on this hostile world. In the end the human finds himself caring for his enemy in a completely unexpected way.", "poster_path": "/rOGOW5BnkT0Ccg7XEDmdBUBuw0K.jpg", "release_date": "1985-12-12", "title": "Enemy Mine", "video": false, "vote_average": 6.8, "vote_count": 456, "popularity": 12.134}, {"adult": false, "backdrop_path": "/nfm6JCKUaM6dT0mATmShLY6cpmc.jpg", "genre_ids": [18, 10752], "id": 600, "original_language": "en", "original_title": "Full Metal Jacket", "overview": "A pragmatic U.S. Marine observes the dehumanizing effects the U.S.-Vietnam War has on his fellow recruits from their brutal boot camp training to the bloody street fighting in Hue.", "poster_path": "/29veIwD38rVL2qY74emXQw4y25H.jpg", "release_date": "1987-06-26", "title": "Full Metal Jacket", "video": false, "vote_average": 8.1, "vote_count": 5897, "popularity": 25.207}, {"adult": false, "backdrop_path": "/useuHJQ5HOoEWkAvEjL1FW1sUfe.jpg", "genre_ids": [18], "id": 376867, "original_language": "en", "original_title": "Moonlight", "overview": "The tender, heartbreaking story of a young man\u2019s struggle to find himself, told across three defining chapters in his life as he experiences the ecstasy, pain, and beauty of falling in love, while grappling with his own sexuality.", "poster_path": "/qAwFbszz0kRyTuXmMeKQZCX3Q2O.jpg", "release_date": "2016-10-21", "title": "Moonlight", "video": false, "vote_average": 7.4, "vote_count": 4410, "popularity": 21.716}, {"id": 369972, "video": false, "vote_count": 3001, "vote_average": 7.1, "title": "First Man", "release_date": "2018-10-11", "original_language": "en", "original_title": "First Man", "genre_ids": [18, 36], "backdrop_path": "/jrudoaXcoLyHRPdolyOGemXgPEs.jpg", "adult": false, "overview": "A look at the life of the astronaut, Neil Armstrong, and the legendary space mission that led him to become the first man to walk on the Moon on July 20, 1969.", "poster_path": "/i91mfvFcPPlaegcbOyjGgiWfZzh.jpg", "popularity": 27.464}, {"adult": false, "backdrop_path": "/bRGtZsVj2Qq8r5CCsNYmQUPF4z4.jpg", "genre_ids": [80, 18, 878, 53], "id": 10559, "original_language": "en", "original_title": "Frequency", "overview": "When a rare phenomenon gives police officer John Sullivan the chance to speak to his father, 30 years in the past, he takes the opportunity to prevent his dad's tragic death.  After his actions inadvertently give rise to a series of brutal murders he and his father must find a way to fix the consequences of altering time.", "poster_path": "/n0QAAZmIaPPIShVkk8eiKwfGV9.jpg", "release_date": "2000-04-28", "title": "Frequency", "video": false, "vote_average": 7.1, "vote_count": 897, "popularity": 14.026}, {"id": 262391, "video": false, "vote_count": 2387, "vote_average": 6.8, "title": "Serial (Bad) Weddings", "release_date": "2014-04-16", "original_language": "fr", "original_title": "Qu'est-ce qu'on a fait au Bon Dieu", "genre_ids": [35], "backdrop_path": "/umRJ4di4xbpv6jAddHczdt1723S.jpg", "adult": false, "overview": "A catholic French couple sees their life upside down when their four daughters get married to men of different religion and origins.", "poster_path": "/5Hw0GuPahcTCMsJNaLn37OVeXB3.jpg", "popularity": 17.45}, {"adult": false, "backdrop_path": "/3BY2I6iLunYRkkl8Hb3hZl8O9MQ.jpg", "genre_ids": [18, 36], "id": 76203, "original_language": "en", "original_title": "12 Years a Slave", "overview": "In the pre-Civil War United States, Solomon Northup, a free black man from upstate New York, is abducted and sold into slavery. Facing cruelty as well as unexpected kindnesses Solomon struggles not only to stay alive, but to retain his dignity. In the twelfth year of his unforgettable odyssey, Solomon\u2019s chance meeting with a Canadian abolitionist will forever alter his life.", "poster_path": "/kb3X943WMIJYVg4SOAyK0pmWL5D.jpg", "release_date": "2013-10-18", "title": "12 Years a Slave", "video": false, "vote_average": 7.9, "vote_count": 7315, "popularity": 21.97}, {"adult": false, "backdrop_path": "/qYIag7ACS9todyiWyYQVG2PL0Iv.jpg", "genre_ids": [35], "id": 10607, "original_language": "en", "original_title": "Don't Be a Menace to South Central While Drinking Your Juice in the Hood", "overview": "When Ashtray (Shawn Wayans) moves to South Central L.A. to live with his father (who appears to be the same age he is) and grandmother (who likes to talk tough and smoke reefer), he falls in with his gang-banging cousin Loc Dog (Marlon Wayans), who along with the requisite pistols and Uzi carries a thermo-nuclear warhead for self-defense. Will Ashtray be able to keep living the straight life?", "poster_path": "/l6D9f9WbxdI4tyCmJGs56y8tQla.jpg", "release_date": "1996-01-12", "title": "Don't Be a Menace to South Central While Drinking Your Juice in the Hood", "video": false, "vote_average": 6.2, "vote_count": 412, "popularity": 19.933}, {"id": 68718, "video": false, "vote_count": 17255, "vote_average": 8.1, "title": "Django Unchained", "release_date": "2012-12-25", "original_language": "en", "original_title": "Django Unchained", "genre_ids": [18, 37], "backdrop_path": "/qUcmEqnzIwlwZxSyTf3WliSfAjJ.jpg", "adult": false, "overview": "With the help of a German bounty hunter, a freed slave sets out to rescue his wife from a brutal Mississippi plantation owner.", "poster_path": "/eCt596Z4zkqxW5AHz1HEhGm1eif.jpg", "popularity": 39.475}, {"id": 8961, "video": false, "vote_count": 2968, "vote_average": 6.5, "title": "Bad Boys II", "release_date": "2003-07-18", "original_language": "en", "original_title": "Bad Boys II", "genre_ids": [28, 12, 35, 80, 53], "backdrop_path": "/5xQVApmdUbBlCi1QzS8NwbCF0Ne.jpg", "adult": false, "overview": "Out-of-control, trash-talking buddy cops Marcus Burnett and Mike Lowrey of the Miami Narcotics Task Force reunite, and bullets fly, cars crash and laughs explode as they pursue a whacked-out drug lord from the streets of Miami to the barrios of Cuba. But the real fireworks result when Marcus discovers that playboy Mike is secretly romancing Marcus\u2019 sexy sister.", "poster_path": "/680X9apSqmAcebLg8evnnUeQNeI.jpg", "popularity": 37.123}, {"id": 490132, "video": false, "vote_count": 5180, "vote_average": 8.3, "title": "Green Book", "release_date": "2018-11-16", "original_language": "en", "original_title": "Green Book", "genre_ids": [35, 18], "backdrop_path": "/78PjwaykLY2QqhMfWRDvmfbC6EV.jpg", "adult": false, "overview": "Tony Lip, a bouncer in 1962, is hired to drive pianist Don Shirley on a tour through the Deep South in the days when African Americans, forced to find alternate accommodations and services due to segregation laws below the Mason-Dixon Line, relied on a guide called The Negro Motorist Green Book.", "poster_path": "/7BsvSuDQuoqhWmU2fL7W2GOcZHU.jpg", "popularity": 31.469}, {"id": 147441, "video": false, "vote_count": 3122, "vote_average": 5.8, "title": "Exodus: Gods and Kings", "release_date": "2014-12-03", "original_language": "en", "original_title": "Exodus: Gods and Kings", "genre_ids": [28, 12, 18], "backdrop_path": "/hOOgtrByGgWfqGTTn5VL7jkLYXJ.jpg", "adult": false, "overview": "The defiant leader Moses rises up against the Egyptian Pharaoh Ramses, setting 400,000 slaves on a monumental journey of escape from Egypt and its terrifying cycle of deadly plagues.", "poster_path": "/ycDcPCpWM7hSdIR6tFkOzQPkve2.jpg", "popularity": 23.138}], "total_pages": 72, "total_results": 1436}, "recommendations": {"page": 1, "results": [], "total_pages": 1, "total_results": 0}, "credits": {"cast": [{"cast_id": 0, "character": "Himself", "credit_id": "5bbb8ef392514137a80011b1", "gender": 0, "id": 1202289, "name": "Loki Mulholland", "order": 1, "profile_path": null}, {"cast_id": 1, "character": "Herself", "credit_id": "5bbb8f000e0a26661e0013e8", "gender": 0, "id": 1596636, "name": "Joan Mulholland", "order": 2, "profile_path": null}, {"cast_id": 2, "character": "Himself", "credit_id": "5bbb8f0bc3a36858f5001445", "gender": 0, "id": 1596629, "name": "Luvaughn Brown", "order": 3, "profile_path": null}], "crew": [{"credit_id": "5bbb8f1bc3a368590a00128f", "department": "Directing", "gender": 0, "id": 1202289, "job": "Director", "name": "Loki Mulholland", "profile_path": null}]}}