{"adult": false, "backdrop_path": "/23DjeAXEbhQEPmiCDllLFqPI4Gv.jpg", "belongs_to_collection": null, "budget": 0, "genres": [{"id": 99, "name": "Documentary"}, {"id": 10402, "name": "Music"}], "homepage": "https://www.netflix.com/title/80191051", "id": 553649, "imdb_id": "tt9046556", "original_language": "en", "original_title": "ReMastered: Tricky Dick & The Man in Black", "overview": "This documentary chronicles Johnny Cash's 1970 visit to the White House, where Cash's emerging liberal ideals clashed with Richard Nixon's policies.", "popularity": 4.337, "poster_path": "/nN511RlOvXXTiz8BT65o8ZR5feT.jpg", "production_companies": [], "production_countries": [{"iso_3166_1": "US", "name": "United States of America"}], "release_date": "2018-11-02", "revenue": 0, "runtime": 58, "spoken_languages": [{"iso_639_1": "en", "name": "English"}], "status": "Released", "tagline": "", "title": "ReMastered: Tricky Dick & The Man in Black", "video": false, "vote_average": 6.6, "vote_count": 15, "keywords": {"keywords": [{"id": 6027, "name": "music"}, {"id": 187056, "name": "woman director"}]}, "similar": {"page": 1, "results": [{"adult": false, "backdrop_path": "/pQOs5bwFpaimeaK5PA2XXteU1Ly.jpg", "genre_ids": [10402, 99], "id": 20575, "original_language": "en", "original_title": "Queen: Live at Wembley Stadium", "overview": "One of the world's biggest bands return to the scene of their Live Aid (1985) triumph a year earlier to play all their greatest hits in front of a packed Wembley Stadium.", "poster_path": "/qztOmfZ8uLPN3MUNHJd8GaJST2V.jpg", "release_date": "1986-07-12", "title": "Live at Wembley Stadium", "video": false, "vote_average": 8.7, "vote_count": 49, "popularity": 8.207}, {"id": 786, "video": false, "vote_count": 1485, "vote_average": 7.5, "title": "Almost Famous", "release_date": "2000-09-15", "original_language": "en", "original_title": "Almost Famous", "genre_ids": [18, 10402], "backdrop_path": "/zfucY8mxcrNeopFneyvyERZQah1.jpg", "adult": false, "overview": "In 1973, 15-year-old William Miller's unabashed love of music and aspiration to become a rock journalist lands him an assignment from Rolling Stone magazine to interview and tour with the up-and-coming band Stillwater\u2014fronted by lead guitar Russell Hammond, and lead singer Jeff Bebe.", "poster_path": "/9pNo92j6zSEAUB8pNmcJTkpnkBF.jpg", "popularity": 17.801}, {"id": 616584, "video": false, "vote_count": 92, "vote_average": 7.5, "title": "K-12", "release_date": "2019-09-05", "original_language": "en", "original_title": "K-12", "genre_ids": [14, 27, 10402], "backdrop_path": "/fSlfaF0Ydfr2SK6hOYHvDsb7a9Z.jpg", "adult": false, "overview": "Cry Baby, a strong and sensitive girl, is sent off to a disturbing sleepaway school that\u2019s hidden underneath a grandiose fa\u00e7ade. Luckily, she has a sweet and unapologetic best friend who sticks up for her when she gets bullied by the other students whose brains are under control by the Principal and his wicked staff. With the help of the magical friends they meet along the way, as well as an Angelic Spirit Guide, they are able to gain the strength they need to fight off the school\u2019s belligerent patriarchal conditioning.", "poster_path": "/nVi0yBBPj5Z96JgGWVIg94kv7bR.jpg", "popularity": 15.107}, {"adult": false, "backdrop_path": "/q3eNcig4YFEsUTnmIYDA90FdndO.jpg", "genre_ids": [10402, 35, 28, 80], "id": 525, "original_language": "en", "original_title": "The Blues Brothers", "overview": "Jake Blues is just out of jail, and teams up with his brother, Elwood on a 'mission from God' to raise funds for the orphanage in which they grew up. The only thing they can do is do what they do best: play music. So they get their old band together, and set out on their way\u2014while getting in a bit of trouble here and there.", "poster_path": "/6hesUNBkpVRqBTBw2HlTg0h8b56.jpg", "release_date": "1980-06-17", "title": "The Blues Brothers", "video": false, "vote_average": 7.7, "vote_count": 2299, "popularity": 21.638}, {"adult": false, "backdrop_path": "/6bnI08rrGXRkngRqJWCMXDZuJ1j.jpg", "genre_ids": [35, 10402], "id": 254470, "original_language": "en", "original_title": "Pitch Perfect 2", "overview": "The Bellas are back, and they are better than ever. After being humiliated in front of none other than the President of the United States of America, the Bellas are taken out of the Aca-Circuit. In order to clear their name, and regain their status, the Bellas take on a seemingly impossible task: winning an international competition no American team has ever won. In order to accomplish this monumental task, they need to strengthen the bonds of friendship and sisterhood and blow away the competition with their amazing aca-magic! With all new friends and old rivals tagging along for the trip, the Bellas can hopefully accomplish their dreams.", "poster_path": "/qSjruLiFB4uqRtz2xheQPxG8uaB.jpg", "release_date": "2015-05-07", "title": "Pitch Perfect 2", "video": false, "vote_average": 6.8, "vote_count": 3901, "popularity": 29.697}, {"id": 6575, "video": false, "vote_count": 364, "vote_average": 6.6, "title": "Walk Hard: The Dewey Cox Story", "release_date": "2007-12-21", "original_language": "en", "original_title": "Walk Hard: The Dewey Cox Story", "genre_ids": [35, 18, 10402], "backdrop_path": "/y7EElGAn1tFE0Npmls7uvg4HPVj.jpg", "adult": false, "overview": "Following a childhood tragedy, Dewey Cox follows a long and winding road to music stardom. Dewey perseveres through changing musical styles, an addiction to nearly every drug known and bouts of uncontrollable rage.", "poster_path": "/2sc7qoLTqZC0nB2k1crwuVoKP6H.jpg", "popularity": 15.669}, {"adult": false, "backdrop_path": "/xOGEw8iywxcFMolV6SF6YdTdJTb.jpg", "genre_ids": [10402, 10749], "id": 52371, "original_language": "nl", "original_title": "LelleBelle", "overview": "19-year old Belle practices playing the violin diligently, but is unable to impart her music with a sensitive undertone. Her life changes when she discovers that sexual desire stimulates passion in her music.", "poster_path": "/nJVPgIq3icZMQ26p5uWIFdUZJfL.jpg", "release_date": "2010-10-08", "title": "LelleBelle", "video": false, "vote_average": 4.7, "vote_count": 41, "popularity": 13.747}, {"id": 13576, "video": false, "vote_count": 509, "vote_average": 6.9, "title": "This Is It", "release_date": "2009-10-28", "original_language": "en", "original_title": "This Is It", "genre_ids": [99, 10402], "backdrop_path": "/w7yzaQ7P2UBtSyMqMOx0zNxc3wB.jpg", "adult": false, "overview": "A compilation of interviews, rehearsals and backstage footage of Michael Jackson as he prepared for his series of sold-out shows in London.", "poster_path": "/4ZgT8FRJxxpG0mgOIPeCgjzAsBR.jpg", "popularity": 11.776}, {"id": 9813, "video": false, "vote_count": 128, "vote_average": 6.1, "title": "The Quiet", "release_date": "2005-09-12", "original_language": "en", "original_title": "The Quiet", "genre_ids": [18, 53], "backdrop_path": "/6eyWAZA4CEidZW1xXnQ4vlYBXTP.jpg", "adult": false, "overview": "After her widowed father dies, deaf teenager Dot moves in with her godparents, Olivia and Paul Deer. The Deers' daughter, Nina, is openly hostile to Dot, but that does not prevent her from telling her secrets to her silent stepsister, including the fact that she wants to kill her lecherous father.", "poster_path": "/GEqIE9YlmygHVUfS64LW2cwAAM.jpg", "popularity": 14.844}, {"id": 326359, "video": false, "vote_count": 1180, "vote_average": 6.8, "title": "Frozen Fever", "release_date": "2015-03-09", "original_language": "en", "original_title": "Frozen Fever", "genre_ids": [12, 16, 10751], "backdrop_path": "/ubioPGniCfDiASmYYpeJs5RRNaC.jpg", "adult": false, "overview": "On Anna's birthday, Elsa and Kristoff are determined to give her the best celebration ever, but Elsa's icy powers may put more than just the party at risk.", "poster_path": "/lKJiVPzsAO9IJ4LKWXZ8vkR2bg4.jpg", "popularity": 17.218}, {"adult": false, "backdrop_path": "/gZeJziVigmRqbkEZwKAtSqlLQ6s.jpg", "genre_ids": [18, 10749], "id": 370663, "original_language": "en", "original_title": "Below Her Mouth", "overview": "An unexpected affair quickly escalates into a heart-stopping reality for two women whose passionate connection changes their lives forever.", "poster_path": "/nTGbq37hYLuNy7YgMg0gVLma0NS.jpg", "release_date": "2016-09-10", "title": "Below Her Mouth", "video": false, "vote_average": 6.2, "vote_count": 456, "popularity": 18.664}, {"id": 297762, "video": false, "vote_count": 13722, "vote_average": 7.3, "title": "Wonder Woman", "release_date": "2017-05-30", "original_language": "en", "original_title": "Wonder Woman", "genre_ids": [28, 12, 14], "backdrop_path": "/6iUNJZymJBMXXriQyFZfLAKnjO6.jpg", "adult": false, "overview": "An Amazon princess comes to the world of Man in the grips of the First World War to confront the forces of evil and bring an end to human conflict.", "poster_path": "/gfJGlDaHuWimErCr5Ql0I8x9QSy.jpg", "popularity": 44.687}, {"id": 20313, "video": true, "vote_count": 20, "vote_average": 8.7, "title": "Where the Light Is: John Mayer Live in Los Angeles", "release_date": "2008-07-01", "original_language": "en", "original_title": "Where the Light Is: John Mayer Live in Los Angeles", "genre_ids": [10402], "backdrop_path": "/3hRjAtEvLGdRpznktxZRnVmdilz.jpg", "adult": false, "overview": "Where The Light Is: John Mayer Live in Los Angeles captures the multi-Grammy\u00ae Award-winning, Platinum-selling singer/songwriter in the element where fans love him the most: live on stage. This special concert includes three sets: an acoustic performance, a rare set with John Mayer Trio (John Mayer, Steve Jordan and Pino Palladino), as well as a set featuring Mayer's full band.", "poster_path": "/laZt8OKutRXptSbwbMLWlWGoIPM.jpg", "popularity": 4.422}, {"id": 8872, "video": false, "vote_count": 1307, "vote_average": 6.6, "title": "Wayne's World", "release_date": "1992-02-14", "original_language": "en", "original_title": "Wayne's World", "genre_ids": [35, 10402], "backdrop_path": "/oge7Us6Sq08K2ydjmgkoLEu429.jpg", "adult": false, "overview": "When a sleazy TV exec offers Wayne and Garth a fat contract to tape their late-night public access show at his network, they can't believe their good fortune. But they soon discover the road from basement to big-time is a gnarly one, fraught with danger, temptation and ragin' party opportunities.", "poster_path": "/rsgklbt5KxeuUuchehnLACxzisP.jpg", "popularity": 18.202}, {"adult": false, "backdrop_path": "/6tern9vOEwwmkDYC1vRCuO64z0C.jpg", "genre_ids": [10749, 18], "id": 475888, "original_language": "en", "original_title": "Tell It to the Bees", "overview": "Dr. Jean Markham returns to the town she left as a teenager to take over her late father's medical practice. When a school-yard scuffle lands Charlie in her surgery, she invites him to visit the hives in her garden and tell his secrets to the bees, as she once did. The new friendship between the boy and the bee keeper brings his mother Lydia into Jean's world.", "poster_path": "/Rj6zpHhMU1zFW3v28U4PSRSRgP.jpg", "release_date": "2019-05-03", "title": "Tell It to the Bees", "video": false, "vote_average": 6.4, "vote_count": 53, "popularity": 13.175}, {"adult": false, "backdrop_path": "/2aHM8lYzcaO4MfN7VNvo1QFU0ft.jpg", "genre_ids": [99, 10402], "id": 373558, "original_language": "en", "original_title": "Taylor Swift: The 1989 World Tour - Live", "overview": "Taylor delivers the concert event of the year. Filmed at Sydney's ANZ Stadium in front of 76,000 fans, The 1989 World Tour - Live captures the excitement and energy of the hottest pop star in the world. Filled with great music, an electrifying stage show, and superstar guest appearances, the concert film is only on Apple Music.", "poster_path": "/kzXe8kscKo83BwGvIofWg6SCR7n.jpg", "release_date": "2015-12-20", "title": "Taylor Swift: The 1989 World Tour - Live", "video": false, "vote_average": 8.3, "vote_count": 65, "popularity": 10.446}, {"id": 621733, "video": false, "vote_count": 0, "vote_average": 0.0, "title": "A Trip to the Seaside", "release_date": "2019-08-30", "original_language": "en", "original_title": "A Trip to the Seaside", "genre_ids": [99], "backdrop_path": null, "adult": false, "overview": "Experimental short film on the excitement and rush of a day trip", "poster_path": "/AuZVhpoJ4jm2LWDhoJKfxQfhDAi.jpg", "popularity": 1.324}, {"id": 23398, "video": false, "vote_count": 1716, "vote_average": 5.5, "title": "Alvin and the Chipmunks: The Squeakquel", "release_date": "2009-12-21", "original_language": "en", "original_title": "Alvin and the Chipmunks: The Squeakquel", "genre_ids": [16, 35, 14, 10402, 10751], "backdrop_path": "/ukeQ5NshIaedd0s7qXED5aqPpZ5.jpg", "adult": false, "overview": "Pop sensations Alvin, Simon and Theodore end up in the care of Dave Seville's twenty-something nephew Toby. The boys must put aside music super stardom to return to school, and are tasked with saving the school's music program by winning the $25,000 prize in a battle of the bands. But the Chipmunks unexpectedly meet their match in three singing chipmunks known as The Chipettes - Brittany, Eleanor and Jeanette. Romantic and musical sparks are ignited when the Chipmunks and Chipettes square off.", "poster_path": "/8mdPqOga5fty15nXmaNcK1fsNMa.jpg", "popularity": 16.4}, {"adult": false, "backdrop_path": "/iOGODt9Z92SHVEyuEQiN8wYidmQ.jpg", "genre_ids": [16, 878, 12, 14, 10402], "id": 11827, "original_language": "en", "original_title": "Heavy Metal", "overview": "A glowing orb terrorizes a young girl with a collection of stories of dark fantasy, eroticism and horror.", "poster_path": "/atUtWrDlLzT1yeVK2EoYtvbS963.jpg", "release_date": "1981-08-07", "title": "Heavy Metal", "video": false, "vote_average": 6.3, "vote_count": 316, "popularity": 19.299}, {"id": 11887, "video": false, "vote_count": 2347, "vote_average": 6.5, "title": "High School Musical 3: Senior Year", "release_date": "2008-10-11", "original_language": "en", "original_title": "High School Musical 3: Senior Year", "genre_ids": [35, 18, 10402, 10749, 10751], "backdrop_path": "/daSGxGZL2nNjGZKkAF5ain3lmOx.jpg", "adult": false, "overview": "It's almost graduation day for high school seniors Troy, Gabriella, Sharpay, Chad, Ryan and Taylor \u2015 and the thought of heading off in separate directions after leaving East High has these Wildcats thinking they need to do something they'll remember forever. Together with the rest of the Wildcats, they stage a spring musical reflecting their hopes and fears about the future and their unforgettable experiences growing up together. But with graduation approaching and college plans in question, what will become of the dreams, romances, and friendships of East High's senior Wildcats?", "poster_path": "/ewZpH2QIfPQ0VIn9lPf7MHbLbl4.jpg", "popularity": 14.748}], "total_pages": 1407, "total_results": 28138}, "recommendations": {"page": 1, "results": [{"id": 553648, "video": false, "vote_count": 11, "vote_average": 6.6, "title": "ReMastered: Who Killed Jam Master Jay?", "release_date": "2018-10-12", "original_language": "en", "original_title": "ReMastered: Who Killed Jam Master Jay?", "genre_ids": [99], "backdrop_path": "/eNh92TkIaCTfMLc80H6kDbYNdoR.jpg", "adult": false, "overview": "Run-D.M.C. DJ Jam Master Jay made a huge impact in music and his community. But friends and family still seek closure years after his unsolved murder.", "poster_path": "/8qrPaGEk5gTL34cQF7a9iMMrUzx.jpg", "popularity": 4.18}, {"id": 553539, "video": false, "vote_count": 19, "vote_average": 7.0, "title": "ReMastered: Who Shot the Sheriff", "release_date": "2018-10-12", "original_language": "en", "original_title": "ReMastered: Who Shot the Sheriff", "genre_ids": [99], "backdrop_path": "/zSDb4AA6Lf8L8uh6qXPFp59mK2w.jpg", "adult": false, "overview": "In 1976, reggae icon Bob Marley survived an assassination attempt as rival political groups battled in Jamaica. But who exactly was responsible?", "poster_path": "/lgOHOZftmTka2hVQn0iBci3aJSq.jpg", "popularity": 4.469}, {"id": 553644, "video": false, "vote_count": 10, "vote_average": 7.0, "title": "ReMastered: The Miami Showband Massacre", "release_date": "2019-03-22", "original_language": "en", "original_title": "ReMastered: The Miami Showband Massacre", "genre_ids": [99], "backdrop_path": "/4ut6xeTXvZHmmwMNcamozS4rrJk.jpg", "adult": false, "overview": "Ambushed by Ulster loyalists, three members of the Miami Showband were killed in Northern Ireland in 1975. Was the crime linked to the government?", "poster_path": "/bFXbGsyccxtkPiqp7GQNcFsvvJP.jpg", "popularity": 3.814}, {"id": 112912, "video": false, "vote_count": 11, "vote_average": 6.8, "title": "Why We Fight: The Battle of Russia", "release_date": "1943-01-01", "original_language": "en", "original_title": "Why We Fight: The Battle of Russia", "genre_ids": [99, 36, 10752], "backdrop_path": "/texw0dgm5uwDwh2O35rGNZas8y5.jpg", "adult": false, "overview": "\"The Battle of Russia,\" Chapter V of Frank Capra's \"Why We Fight\" series, follows the beginning of the end for Adolph Hitler.", "poster_path": "/xgcuUIKFkiVwtUzZy7iE7oeD8ro.jpg", "popularity": 3.052}, {"id": 553646, "video": false, "vote_count": 24, "vote_average": 7.1, "title": "ReMastered: The Two Killings of Sam Cooke", "release_date": "2019-02-08", "original_language": "en", "original_title": "ReMastered: The Two Killings of Sam Cooke", "genre_ids": [99], "backdrop_path": null, "adult": false, "overview": "This investigation examines the mysterious shooting of soul icon Sam Cooke, whose death silenced one of the most vital voices in the civil rights movement.", "poster_path": "/8hZd9TquyZp0TralTUh2zangZ0O.jpg", "popularity": 3.808}, {"id": 257084, "video": false, "vote_count": 7, "vote_average": 6.4, "title": "Tunisian Victory", "release_date": "1944-03-23", "original_language": "en", "original_title": "Tunisian Victory", "genre_ids": [99, 10752], "backdrop_path": "/6oNedloeUrSu1tdLqB6uZhL5fem.jpg", "adult": false, "overview": "Documentary made by the U.S. Army Signal Corps after the North African campaign.", "poster_path": "/wBZH6GSRaDGOxaQpUvp8ZQ2JvEV.jpg", "popularity": 2.113}, {"adult": false, "backdrop_path": "/zhl8lx87dHddGEiMDiBqipl76RR.jpg", "genre_ids": [99], "id": 462104, "original_language": "en", "original_title": "Counterpunch", "overview": "As boxing's popularity wanes, three fighters at different stages of their career make sacrifices to pursue their dreams of becoming champions.", "poster_path": "/pkV3UPUqAZ9YsUDVQ6KfqpxeVP6.jpg", "release_date": "2017-06-16", "title": "Counterpunch", "video": false, "vote_average": 6.8, "vote_count": 21, "popularity": 4.692}], "total_pages": 1, "total_results": 7}, "credits": {"cast": [{"cast_id": 5, "character": "", "credit_id": "5bdc1571c3a368403e0095db", "gender": 2, "id": 84678, "name": "Johnny Cash", "order": 1, "profile_path": "/kN5puSwxd2hafK4G5m4xrERlPSO.jpg"}, {"cast_id": 6, "character": "", "credit_id": "5bdc157b9251417845008415", "gender": 2, "id": 1230027, "name": "Pat Buchanan", "order": 2, "profile_path": "/dd42aFTbrbsNj3QoRsKePk8mLWQ.jpg"}, {"cast_id": 7, "character": "", "credit_id": "5bdc1581925141784000958f", "gender": 2, "id": 410, "name": "John Carter Cash", "order": 3, "profile_path": "/kdNJbbppGmd0IS1nJLGZFZC2k9c.jpg"}, {"cast_id": 8, "character": "", "credit_id": "5bdc158c0e0a26332d009305", "gender": 0, "id": 230247, "name": "Lou Robin", "order": 4, "profile_path": null}, {"cast_id": 9, "character": "", "credit_id": "5bdc159492514178400095cd", "gender": 0, "id": 2166866, "name": "Joanne Cash Yates", "order": 5, "profile_path": null}], "crew": [{"credit_id": "5bdc1532c3a36840280095d8", "department": "Directing", "gender": 0, "id": 1349268, "job": "Director", "name": "Sara Dosa", "profile_path": null}, {"credit_id": "5bdc153dc3a36840280095e1", "department": "Directing", "gender": 1, "id": 22020, "job": "Director", "name": "Barbara Kopple", "profile_path": "/cQ8XyOiDPZGFdUrzKbBLEMwBPXi.jpg"}, {"credit_id": "5bdc1549c3a368402c009e30", "department": "Crew", "gender": 2, "id": 550045, "job": "Creator", "name": "Jeff Zimbalist", "profile_path": null}, {"credit_id": "5bdc15520e0a263345008ecd", "department": "Crew", "gender": 2, "id": 550046, "job": "Creator", "name": "Michael Zimbalist", "profile_path": null}, {"credit_id": "5bdc15620e0a263345008ee2", "department": "Production", "gender": 0, "id": 2166864, "job": "Producer", "name": "Renee Tod", "profile_path": null}]}}