{"adult": false, "backdrop_path": null, "belongs_to_collection": null, "budget": 0, "genres": [{"id": 35, "name": "Comedy"}], "homepage": null, "id": 55390, "imdb_id": "tt0121657", "original_language": "es", "original_title": "El profesor patag\u00f3nico", "overview": "After filming the hippie professor Luis Sandrini filmed this sequel to the above, following the sanctions imposed on it by Professor Horacio Montesano, sending him to Patagonia to a secondary school. Among the supporting cast is the famous singer Piero (he even play many of their good songs).", "popularity": 0.6, "poster_path": "/mpnIKLONxzdCZ4lz4odkwIZQYz3.jpg", "production_companies": [{"id": 5462, "logo_path": null, "name": "Aries Cinematogr\u00e1fica Argentina", "origin_country": ""}], "production_countries": [{"iso_3166_1": "AR", "name": "Argentina"}], "release_date": "1970-09-03", "revenue": 0, "runtime": 102, "spoken_languages": [{"iso_639_1": "es", "name": "Espa\u00f1ol"}], "status": "Released", "tagline": "", "title": "El profesor patag\u00f3nico", "video": false, "vote_average": 5.3, "vote_count": 2, "keywords": {"keywords": [{"id": 4344, "name": "musical"}]}, "similar": {"page": 1, "results": [{"id": 224141, "video": false, "vote_count": 3144, "vote_average": 5.7, "title": "Into the Woods", "release_date": "2014-12-24", "original_language": "en", "original_title": "Into the Woods", "genre_ids": [35, 14], "backdrop_path": "/lzJzB0QfkjpGCm9qUC4XpEIB6pm.jpg", "adult": false, "overview": "In a woods filled with magic and fairy tale characters, a baker and his wife set out to end the curse put on them by their neighbor, a spiteful witch.", "poster_path": "/5h91odPFNlBuJbRBj5N4MEBfXDE.jpg", "popularity": 29.368}, {"id": 872, "video": false, "vote_count": 1617, "vote_average": 8.2, "title": "Singin' in the Rain", "release_date": "1952-04-10", "original_language": "en", "original_title": "Singin' in the Rain", "genre_ids": [35, 10402, 10749], "backdrop_path": "/amW1YWQvcP8slDyDp1R652aVQZ7.jpg", "adult": false, "overview": "In 1927 Hollywood, a silent film production company and cast make a difficult transition to sound.", "poster_path": "/s39odBPtyutGBnEfBIpdm0fpRwv.jpg", "popularity": 17.295}, {"id": 18126, "video": false, "vote_count": 1217, "vote_average": 6.4, "title": "Hannah Montana: The Movie", "release_date": "2009-04-10", "original_language": "en", "original_title": "Hannah Montana: The Movie", "genre_ids": [35, 18, 10402, 10749, 10751], "backdrop_path": "/ezx3NkXNqf2KnJCP6Nfj1bfCFut.jpg", "adult": false, "overview": "As Hannah Montana's popularity begins to take over her life, Miley Stewart, on the urging from her father takes a trip to her hometown of Crowley Corners, Tennessee to get some perspective on what matters in life the most.", "poster_path": "/8pwbnmvshHj2yYPYlyJ8K8Yzecy.jpg", "popularity": 12.479}, {"id": 2005, "video": false, "vote_count": 1806, "vote_average": 6.7, "title": "Sister Act", "release_date": "1992-05-28", "original_language": "en", "original_title": "Sister Act", "genre_ids": [35, 10402], "backdrop_path": "/oaLqlJxt8TJSjsdfMpSkLexZ4l5.jpg", "adult": false, "overview": "A Reno singer witnesses a mob murder and the cops stash her in a nunnery to protect her from the mob's hitmen. The mother superior does not trust her, and takes steps to limit her influence on the other nuns. Eventually the singer rescues the failing choir and begins helping with community projects, which gets her an interview on TV\u2014and identification by the mob.", "poster_path": "/7wQxLtybiUbtC6tsJh9htFEmqq3.jpg", "popularity": 16.674}, {"id": 504608, "video": false, "vote_count": 1666, "vote_average": 7.4, "title": "Rocketman", "release_date": "2019-05-22", "original_language": "en", "original_title": "Rocketman", "genre_ids": [18, 10402], "backdrop_path": "/sZZJ42GrWKxSOfcrpI2TSFQa0AQ.jpg", "adult": false, "overview": "The story of Elton John's life, from his years as a prodigy at the Royal Academy of Music through his influential and enduring musical partnership with Bernie Taupin.", "poster_path": "/f4FF18ia7yTvHf2izNrHqBmgH8U.jpg", "popularity": 27.709}, {"id": 194662, "video": false, "vote_count": 8621, "vote_average": 7.5, "title": "Birdman", "release_date": "2014-08-27", "original_language": "en", "original_title": "Birdman", "genre_ids": [35, 18], "backdrop_path": "/AsJVim0Hk3KbQPbfjyijfjqmaoZ.jpg", "adult": false, "overview": "A fading actor best known for his portrayal of a popular superhero attempts to mount a comeback by appearing in a Broadway play. As opening night approaches, his attempts to become more altruistic, rebuild his career, and reconnect with friends and family prove more difficult than expected.", "poster_path": "/rSZs93P0LLxqlVEbI001UKoeCQC.jpg", "popularity": 40.415}, {"adult": false, "backdrop_path": "/ppDnBvf0f7vCZHRLtDjazpYHdTF.jpg", "genre_ids": [35, 10402, 10749], "id": 13368, "original_language": "en", "original_title": "White Christmas", "overview": "Two talented song-and-dance men team up after the war to become one of the hottest acts in show business. In time they befriend and become romantically involved with the beautiful Haynes sisters who comprise a sister act.", "poster_path": "/A5kBQsHKbIptxJyELEpHQJROCRj.jpg", "release_date": "1954-10-14", "title": "White Christmas", "video": false, "vote_average": 7.4, "vote_count": 250, "popularity": 10.494}, {"id": 252, "video": false, "vote_count": 1838, "vote_average": 7.5, "title": "Willy Wonka & the Chocolate Factory", "release_date": "1971-06-29", "original_language": "en", "original_title": "Willy Wonka & the Chocolate Factory", "genre_ids": [35, 14, 10751], "backdrop_path": "/nyqiCFF3pjcdwG2KmOwvM6CCLKA.jpg", "adult": false, "overview": "Eccentric candy man Willy Wonka prompts a worldwide frenzy when he announces that golden tickets hidden inside five of his delicious candy bars will admit their lucky holders into his top-secret confectionary. But does Wonka have an agenda hidden amid a world of Oompa Loompas and chocolate rivers?", "poster_path": "/b94qXd1FcIwgzv0NYMUe2bjrzJR.jpg", "popularity": 19.101}, {"id": 313369, "video": false, "vote_count": 11063, "vote_average": 7.9, "title": "La La Land", "release_date": "2016-11-29", "original_language": "en", "original_title": "La La Land", "genre_ids": [35, 18, 10402, 10749], "backdrop_path": "/fp6X6yhgcxzxCpmM0EVC6V9B8XB.jpg", "adult": false, "overview": "Mia, an aspiring actress, serves lattes to movie stars in between auditions and Sebastian, a jazz musician, scrapes by playing cocktail party gigs in dingy bars, but as success mounts they are faced with decisions that begin to fray the fragile fabric of their love affair, and the dreams they worked so hard to maintain in each other threaten to rip them apart.", "poster_path": "/ylXCdC106IKiarftHkcacasaAcb.jpg", "popularity": 39.654}, {"id": 606117, "video": false, "vote_count": 257, "vote_average": 6.8, "title": "A Cinderella Story: Christmas Wish", "release_date": "2019-10-15", "original_language": "en", "original_title": "A Cinderella Story: Christmas Wish", "genre_ids": [35, 14, 10402, 10749], "backdrop_path": "/h3kzgUaUOamInX7nsALsFmlw4qX.jpg", "adult": false, "overview": "Kat is an aspiring singer-songwriter who dreams of making it big. However, her dreams are stalled by her reality: a conniving and cruel stepfamily  and a demoralizing job working as a singing elf at billionaire Terrence Wintergarden\u2019s Santa Land.", "poster_path": "/ozBX0u5caaJFli9AssqJmARb5R.jpg", "popularity": 22.941}, {"adult": false, "backdrop_path": "/6bnI08rrGXRkngRqJWCMXDZuJ1j.jpg", "genre_ids": [35, 10402], "id": 254470, "original_language": "en", "original_title": "Pitch Perfect 2", "overview": "The Bellas are back, and they are better than ever. After being humiliated in front of none other than the President of the United States of America, the Bellas are taken out of the Aca-Circuit. In order to clear their name, and regain their status, the Bellas take on a seemingly impossible task: winning an international competition no American team has ever won. In order to accomplish this monumental task, they need to strengthen the bonds of friendship and sisterhood and blow away the competition with their amazing aca-magic! With all new friends and old rivals tagging along for the trip, the Bellas can hopefully accomplish their dreams.", "poster_path": "/qSjruLiFB4uqRtz2xheQPxG8uaB.jpg", "release_date": "2015-05-07", "title": "Pitch Perfect 2", "video": false, "vote_average": 6.8, "vote_count": 3901, "popularity": 29.697}, {"adult": false, "backdrop_path": "/5x0VEeFCnWzRBwU23KycKQRqEhN.jpg", "genre_ids": [10402, 35], "id": 15157, "original_language": "en", "original_title": "Another Cinderella Story", "overview": "A guy who danced with what could be the girl of his dreams at a costume ball only has one hint at her identity: the Zune she left behind as she rushed home in order to make her curfew. And with a once-in-a-lifetime opportunity in front of him, he sets out to find his masked beauty.", "poster_path": "/fLdCKCfHT8A6bnWybBsQFjC4fCo.jpg", "release_date": "2008-09-16", "title": "Another Cinderella Story", "video": false, "vote_average": 6.6, "vote_count": 1120, "popularity": 16.339}, {"adult": false, "backdrop_path": "/3eAudH9hkkr451VoAZPLEQVy5wX.jpg", "genre_ids": [35, 18, 10402, 10749], "id": 6282, "original_language": "en", "original_title": "Coyote Ugly", "overview": "Graced with a velvet voice, 21-year-old Violet Sanford heads to New York to pursue her dream of becoming a songwriter only to find her aspirations sidelined by the accolades and notoriety she receives at her \"day\" job as a barmaid at Coyote Ugly. The \"Coyotes\" as they are affectionately called tantalize customers and the media alike with their outrageous antics, making Coyote Ugly the watering hole for guys on the prowl.", "poster_path": "/p3nIrS9rkdVmMmgKAWtGsmAnhGV.jpg", "release_date": "2000-07-30", "title": "Coyote Ugly", "video": false, "vote_average": 6.1, "vote_count": 1167, "popularity": 19.287}, {"id": 11887, "video": false, "vote_count": 2347, "vote_average": 6.5, "title": "High School Musical 3: Senior Year", "release_date": "2008-10-11", "original_language": "en", "original_title": "High School Musical 3: Senior Year", "genre_ids": [35, 18, 10402, 10749, 10751], "backdrop_path": "/daSGxGZL2nNjGZKkAF5ain3lmOx.jpg", "adult": false, "overview": "It's almost graduation day for high school seniors Troy, Gabriella, Sharpay, Chad, Ryan and Taylor \u2015 and the thought of heading off in separate directions after leaving East High has these Wildcats thinking they need to do something they'll remember forever. Together with the rest of the Wildcats, they stage a spring musical reflecting their hopes and fears about the future and their unforgettable experiences growing up together. But with graduation approaching and college plans in question, what will become of the dreams, romances, and friendships of East High's senior Wildcats?", "poster_path": "/ewZpH2QIfPQ0VIn9lPf7MHbLbl4.jpg", "popularity": 14.748}, {"id": 407655, "video": false, "vote_count": 421, "vote_average": 6.8, "title": "A Cinderella Story: If the Shoe Fits", "release_date": "2016-08-02", "original_language": "en", "original_title": "A Cinderella Story: If the Shoe Fits", "genre_ids": [35, 14, 10402, 10751], "backdrop_path": "/svYzELCLW0NGVEuvNraA4W7Hmm9.jpg", "adult": false, "overview": "A contemporary musical version of the classic Cinderella story in which the servant step daughter hope to compete in a musical competition for a famous pop star.", "poster_path": "/prZSNnK5dkYcflsbdOsVVvqasZ5.jpg", "popularity": 19.825}, {"adult": false, "backdrop_path": "/9l5Nzo1qbEslfCu2NYWimpZ1Vkc.jpg", "genre_ids": [35, 10751, 14, 10749], "id": 4523, "original_language": "en", "original_title": "Enchanted", "overview": "The beautiful princess Giselle is banished by an evil queen from her magical, musical animated land and finds herself in the gritty reality of the streets of modern-day Manhattan. Shocked by this strange new environment that doesn't operate on a \"happily ever after\" basis, Giselle is now adrift in a chaotic world badly in need of enchantment. But when Giselle begins to fall in love with a charmingly flawed divorce lawyer who has come to her aid - even though she is already promised to a perfect fairy tale prince back home - she has to wonder: Can a storybook view of romance survive in the real world?", "poster_path": "/65EfHNQ6NCeAoRPNLRhTyLqNZmU.jpg", "release_date": "2007-11-20", "title": "Enchanted", "video": false, "vote_average": 6.7, "vote_count": 3505, "popularity": 22.541}, {"id": 433, "video": false, "vote_count": 2994, "vote_average": 7.6, "title": "Mary Poppins", "release_date": "1964-08-27", "original_language": "en", "original_title": "Mary Poppins", "genre_ids": [35, 14, 10751], "backdrop_path": "/7DbgR36Sct5gcyEAzoM8bqiTYUV.jpg", "adult": false, "overview": "A magical nanny employs music and adventure to help two neglected children become closer to their father.", "poster_path": "/ei8hhYCMfURfPOXKBnyl61be2iV.jpg", "popularity": 20.325}, {"id": 22586, "video": false, "vote_count": 585, "vote_average": 6.6, "title": "The Swan Princess", "release_date": "1994-11-18", "original_language": "en", "original_title": "The Swan Princess", "genre_ids": [12, 16, 35, 14, 10751], "backdrop_path": "/hP9dsGy8FR7eeTqzpOpP3tl3wFD.jpg", "adult": false, "overview": "The beautiful princess Odette is transformed into a swan by an evil sorcerer's spell. Held captive at an enchanted lake, she befriends Jean-Bob the frog, Speed the turtle and Puffin the bird. Despite their struggle to keep the princess safe, these good-natured creatures can do nothing about the sorcerer's spell, which can only be broken by a vow of everlasting love.", "poster_path": "/f5YvIPrkJ9HCsNbgzWJJyxXVNhj.jpg", "popularity": 13.035}, {"adult": false, "backdrop_path": "/wGxK2uFowRXdyKcv8Gni7snK3yu.jpg", "genre_ids": [28, 12, 35], "id": 134, "original_language": "en", "original_title": "O Brother, Where Art Thou?", "overview": "In the deep south during the 1930s, three escaped convicts search for hidden treasure while a relentless lawman pursues them. On their journey they come across many comical characters and incredible situations. Based upon Homer's 'Odyssey'.", "poster_path": "/eIqSzq6j3yuxNmifiUOh6iTpG9N.jpg", "release_date": "2000-08-30", "title": "O Brother, Where Art Thou?", "video": false, "vote_average": 7.3, "vote_count": 2213, "popularity": 22.175}, {"adult": false, "backdrop_path": "/90kmxuSwU28dVy1ghVSHI4x1wb8.jpg", "genre_ids": [35, 18, 37], "id": 537996, "original_language": "en", "original_title": "The Ballad of Buster Scruggs", "overview": "Vignettes weaving together the stories of six individuals in the old West at the end of the Civil War. Following the tales of a sharp-shooting songster, a wannabe bank robber, two weary traveling performers, a lone gold prospector, a woman traveling the West to an uncertain future, and a motley crew of strangers undertaking a carriage ride.", "poster_path": "/voxl654m7p36y8FLu8oQD7dfwwK.jpg", "release_date": "2018-11-09", "title": "The Ballad of Buster Scruggs", "video": false, "vote_average": 7.2, "vote_count": 2074, "popularity": 13.969}], "total_pages": 159, "total_results": 3180}, "recommendations": {"page": 1, "results": [], "total_pages": 1, "total_results": 0}, "credits": {"cast": [{"cast_id": 3, "character": "Profesor H\u00e9ctor 'Tito' Montesano", "credit_id": "52fe48c9c3a36847f817979d", "gender": 2, "id": 220227, "name": "Luis Sandrini", "order": 0, "profile_path": "/4OCy9K6He5uNvNdxpEx0qQxNr2q.jpg"}, {"cast_id": 4, "character": "Cura Ra\u00fal", "credit_id": "590e20e8c3a368650a011b9b", "gender": 0, "id": 1811785, "name": "Piero", "order": 1, "profile_path": null}, {"cast_id": 5, "character": "", "credit_id": "590e21039251414e890129c3", "gender": 0, "id": 1811786, "name": "Gabriela Gilli", "order": 2, "profile_path": null}, {"cast_id": 6, "character": "", "credit_id": "590e2123c3a36864fc0122d5", "gender": 0, "id": 1811787, "name": "Juan y Juan", "order": 3, "profile_path": "/ljmtzfavU88JR9syRNuWg5kFX0L.jpg"}, {"cast_id": 7, "character": "", "credit_id": "590e21459251414e80012a87", "gender": 0, "id": 1791674, "name": "Pedro Quartucci", "order": 4, "profile_path": null}, {"cast_id": 8, "character": "", "credit_id": "590e2169c3a368650a011bf3", "gender": 0, "id": 1811788, "name": "Jos\u00e9 Luis Mazza", "order": 5, "profile_path": null}, {"cast_id": 9, "character": "", "credit_id": "590e219b9251414e89012a40", "gender": 0, "id": 107296, "name": "Homero C\u00e1rpena", "order": 6, "profile_path": null}, {"cast_id": 10, "character": "", "credit_id": "590e21ab9251414e920128dd", "gender": 0, "id": 1811789, "name": "\u00c1ngela Ferrer Jaimes", "order": 7, "profile_path": null}, {"cast_id": 11, "character": "", "credit_id": "590e21b59251414e920128e6", "gender": 0, "id": 1811790, "name": "Celia Cav\u00e1dani", "order": 8, "profile_path": null}, {"cast_id": 12, "character": "", "credit_id": "590e21c09251414e8d01215c", "gender": 2, "id": 1811791, "name": "Jes\u00fas Pamp\u00edn", "order": 9, "profile_path": null}, {"cast_id": 13, "character": "", "credit_id": "590e21cc9251414e8d01216a", "gender": 0, "id": 1811792, "name": "Jos\u00e9 Mar\u00eda Vecchio", "order": 10, "profile_path": null}, {"cast_id": 14, "character": "", "credit_id": "590e21d69251414eca011e7a", "gender": 0, "id": 1811793, "name": "Luis Manuel de la Cuesta", "order": 11, "profile_path": null}, {"cast_id": 16, "character": "", "credit_id": "590e21e9c3a36864ec0113f1", "gender": 0, "id": 1811795, "name": "Sergio Dufour", "order": 13, "profile_path": null}, {"cast_id": 17, "character": "", "credit_id": "590e21fec3a3686519010f72", "gender": 0, "id": 1811796, "name": "Jorge Bustamante", "order": 14, "profile_path": null}, {"cast_id": 18, "character": "", "credit_id": "590e220d9251414e9201290c", "gender": 0, "id": 1811797, "name": "Ana Mar\u00eda Petrici\u00f3n", "order": 15, "profile_path": null}, {"cast_id": 19, "character": "", "credit_id": "590e2217c3a368650a011c59", "gender": 0, "id": 1811798, "name": "Andrea Hanzel", "order": 16, "profile_path": null}, {"cast_id": 20, "character": "", "credit_id": "590e2220c3a3686519010f90", "gender": 0, "id": 1811799, "name": "Ilsa Arce", "order": 17, "profile_path": null}, {"cast_id": 21, "character": "", "credit_id": "590e22299251414edb0127b0", "gender": 0, "id": 1811800, "name": "Manuel Pad\u00edn", "order": 18, "profile_path": null}, {"cast_id": 22, "character": "Alumno", "credit_id": "590e22369251414e89012aa1", "gender": 0, "id": 1811801, "name": "Daniel Dunstan", "order": 19, "profile_path": null}, {"cast_id": 27, "character": "", "credit_id": "5b228f039251416e2a019481", "gender": 2, "id": 1370549, "name": "Gig\u00ed Ru\u00e1", "order": 20, "profile_path": "/c9cg7Q78oQ4LvsMY8YDQfScCg48.jpg"}], "crew": [{"credit_id": "52fe48c9c3a36847f8179793", "department": "Directing", "gender": 2, "id": 220264, "job": "Director", "name": "Fernando Ayala", "profile_path": null}, {"credit_id": "52fe48c9c3a36847f8179799", "department": "Writing", "gender": 0, "id": 222291, "job": "Writer", "name": "Augusto Giustozzi", "profile_path": null}, {"credit_id": "590e22e9c3a36864d4012ef2", "department": "Production", "gender": 2, "id": 220264, "job": "Producer", "name": "Fernando Ayala", "profile_path": null}, {"credit_id": "590e23249251414e85012875", "department": "Editing", "gender": 0, "id": 1427374, "job": "Editor", "name": "Luis C\u00e9sar D'Angiolillo", "profile_path": null}, {"credit_id": "590e2392c3a36864a70120f9", "department": "Art", "gender": 0, "id": 1311466, "job": "Production Design", "name": "Abel Facello", "profile_path": null}, {"credit_id": "5b32393dc3a368532000c742", "department": "Editing", "gender": 0, "id": 1540999, "job": "Editor", "name": "\u00d3scar Montauti", "profile_path": null}]}}