{"adult": false, "backdrop_path": "/4qXuidjw6RoLi15TKSRS7hHcPm2.jpg", "belongs_to_collection": null, "budget": 640451, "genres": [{"id": 53, "name": "Thriller"}, {"id": 9648, "name": "Mystery"}], "homepage": "https://j-blockbuster.com/feature-films/8remains/", "id": 555058, "imdb_id": "tt5643730", "original_language": "en", "original_title": "8 Remains", "overview": "Preceding her death a young woman relives her life in a mirror world, giving her the chance to fight her killer.", "popularity": 4.213, "poster_path": "/qep366SZ7KypgsHMAIbvY3Yq6wJ.jpg", "production_companies": [{"id": 111708, "logo_path": null, "name": "Aquaset Filmworks", "origin_country": "DE"}, {"id": 99242, "logo_path": null, "name": "J-Blockbuster", "origin_country": "GB"}], "production_countries": [{"iso_3166_1": "GB", "name": "United Kingdom"}, {"iso_3166_1": "DE", "name": "Germany"}], "release_date": "2018-11-23", "revenue": 0, "runtime": 80, "spoken_languages": [{"iso_639_1": "en", "name": "English"}], "status": "Released", "tagline": "Open the door. Unleash the demon.", "title": "8 Remains", "video": false, "vote_average": 5.8, "vote_count": 4, "keywords": {"keywords": [{"id": 14712, "name": "young woman"}, {"id": 15127, "name": "killer"}, {"id": 34079, "name": "death"}, {"id": 249379, "name": "mirror"}]}, "similar": {"page": 1, "results": [{"adult": false, "backdrop_path": "/o4psXh7IVD6GFKvBSHjHLzjL2lV.jpg", "genre_ids": [27, 53], "id": 10781, "original_language": "en", "original_title": "The Texas Chainsaw Massacre: The Beginning", "overview": "Chrissie and her friends set out on a road trip for a final fling before one is shipped off to Vietnam. Along the way, bikers harass the foursome and cause an accident that throws Chrissie from the vehicle. The lawman who arrives on the scene kills one of the bikers and brings Chrissie's friends to the Hewitt homestead, where young Leatherface is learning the tools of terror.", "poster_path": "/9elCJIG1TOJ0wew3JVx5ZMkHq5w.jpg", "release_date": "2006-10-06", "title": "The Texas Chainsaw Massacre: The Beginning", "video": false, "vote_average": 6.0, "vote_count": 936, "popularity": 19.211}, {"adult": false, "backdrop_path": "/rH6NsvJg5hYyRigUZhOWDiahUPV.jpg", "genre_ids": [27, 53], "id": 9877, "original_language": "en", "original_title": "Urban Legend", "overview": "There's a campus killer on the loose who's making urban legends, like the one about eating pop rocks and soda at the same time will make your stomach explode and the one about a psycho with an axe stepping into the backseat of your car at the gas station when not looking, into reality.", "poster_path": "/2oIf0ibr0zlhuhgbOwFSHimh7P6.jpg", "release_date": "1998-09-25", "title": "Urban Legend", "video": false, "vote_average": 5.7, "vote_count": 633, "popularity": 10.225}, {"adult": false, "backdrop_path": "/n7rXLeKo28a3Rxiyg9MQBoX7heX.jpg", "genre_ids": [27, 9648], "id": 22804, "original_language": "en", "original_title": "Saw VI", "overview": "Special Agent Strahm is dead, and Detective Hoffman has emerged as the unchallenged successor to Jigsaw's legacy. However, when the FBI draws closer to Hoffman, he is forced to set a game into motion, and Jigsaw's grand scheme is finally understood.", "poster_path": "/1gTXWIrtrnKJOkxxSXopknT92zz.jpg", "release_date": "2009-10-22", "title": "Saw VI", "video": false, "vote_average": 6.2, "vote_count": 1733, "popularity": 18.479}, {"adult": false, "backdrop_path": "/7QjoyyGdBV32x1sEh64dAnNjwg2.jpg", "genre_ids": [53, 35, 27], "id": 12521, "original_language": "en", "original_title": "Shocker", "overview": "After being sent to the electric chair, a serial killer uses electricity to come back from the dead and carry out his vengeance on the football player who turned him in to the police.", "poster_path": "/xEDmOhNGCKlWlS3mCiqLCVzBXVA.jpg", "release_date": "1989-10-27", "title": "Shocker", "video": false, "vote_average": 5.5, "vote_count": 176, "popularity": 10.495}, {"id": 9568, "video": false, "vote_count": 121, "vote_average": 5.4, "title": "The Dentist", "release_date": "1996-06-07", "original_language": "en", "original_title": "The Dentist", "genre_ids": [27, 53], "backdrop_path": "/gkGrcxU9qtzQ17zEPtN58BTYZgg.jpg", "adult": false, "overview": "Dr. Feinstone has everything, a beautiful wife and a successful career in dentistry; but when he discovers his wife's affair, he realizes that behind every clean, white surface lies the stench of decay.", "poster_path": "/aCi2qpZPpzyNw6UQ32zs7W11Aje.jpg", "popularity": 7.295}, {"id": 3600, "video": false, "vote_count": 824, "vote_average": 5.2, "title": "I Still Know What You Did Last Summer", "release_date": "1998-11-13", "original_language": "en", "original_title": "I Still Know What You Did Last Summer", "genre_ids": [27, 9648, 53], "backdrop_path": "/iaFSFtxX02lXsT2zQHiykNSj7YP.jpg", "adult": false, "overview": "Unfinished business with coed Julie James brings the murderer to the Bahamas to terrorize her and her friends, Karla, Tyrell and Will, during a vacation. Can Ray Bronson who survived a bloody attack alongside Julie two summers ago, get to the island in time to save everyone?", "poster_path": "/j4s1TK90tZWZj7lQ84UDJXHI9Kh.jpg", "popularity": 11.64}, {"adult": false, "backdrop_path": "/feZlULeOhSRLz23ZXUeDX3Dl2dS.jpg", "genre_ids": [80, 53, 9648], "id": 17494, "original_language": "en", "original_title": "Unlawful Entry", "overview": "After a break-in at their house, a couple gets help from one of the cops that answered their call. He helps them install the security system, and begins dropping by on short notice and unofficial patrol, and spends a lot of time discussing the couple's problems with the wife. The husband begins wondering if they're getting too much help.", "poster_path": "/sKUk1ca6gHaIopi8VqE8GoxJq6J.jpg", "release_date": "1992-06-26", "title": "Unlawful Entry", "video": false, "vote_average": 6.1, "vote_count": 121, "popularity": 10.241}, {"adult": false, "backdrop_path": "/zWGAnbxjjwY3xFGuOeR26LGbBlG.jpg", "genre_ids": [27, 53], "id": 238636, "original_language": "en", "original_title": "The Purge: Anarchy", "overview": "One night per year, the government sanctions a 12-hour period in which citizens can commit any crime they wish -- including murder -- without fear of punishment or imprisonment. Leo, a sergeant who lost his son, plans a vigilante mission of revenge during the mayhem. However, instead of a death-dealing avenger, he becomes the unexpected protector of four innocent strangers who desperately need his help if they are to survive the night.", "poster_path": "/l1DRl40x2OWUoPP42v8fjKdS1Z3.jpg", "release_date": "2014-07-17", "title": "The Purge: Anarchy", "video": false, "vote_average": 6.6, "vote_count": 4145, "popularity": 36.766}, {"id": 473149, "video": false, "vote_count": 195, "vote_average": 5.9, "title": "Traffik", "release_date": "2018-04-20", "original_language": "en", "original_title": "Traffik", "genre_ids": [27, 53], "backdrop_path": "/wbk9VvJ8lkUF0ElpfRm3dFIzMJf.jpg", "adult": false, "overview": "A couple off for a romantic weekend in the mountains are accosted by a biker gang. Alone in the mountains, Brea and John must defend themselves against the gang, who will stop at nothing to protect their secrets.", "poster_path": "/e2Z466e9402RFP6wxRMfXYYiJHA.jpg", "popularity": 31.63}, {"adult": false, "backdrop_path": "/shpk8353ETGcOo18aC9eScuI5aw.jpg", "genre_ids": [35, 80, 53], "id": 10029, "original_language": "en", "original_title": "Very Bad Things", "overview": "Kyle Fisher has one last night to celebrate life as a single man before marrying Laura, so he sets out to Vegas with four of his best buddies. But a drug and alcohol filled night on the town with a stripper who goes all the way, turns into a cold night in the desert with shovels when the stripper goes all the way into a body bag after dying in their bathroom. And that's just the first of the bodies to pile up before Kyle can walk down the aisle...", "poster_path": "/rGZ4bR7dNcAWntnVY5R8kge2IVq.jpg", "release_date": "1998-09-11", "title": "Very Bad Things", "video": false, "vote_average": 6.2, "vote_count": 348, "popularity": 7.489}, {"adult": false, "backdrop_path": "/8DkJrxEyRN8gTseEhajybpC5smK.jpg", "genre_ids": [27], "id": 10585, "original_language": "en", "original_title": "Child's Play", "overview": "A single mother gives her son a beloved doll for his birthday, only to discover that it is possessed by the soul of a serial killer.", "poster_path": "/dSX9i2buibfyKFRpK2kOe6rtl5R.jpg", "release_date": "1988-11-08", "title": "Child's Play", "video": false, "vote_average": 6.5, "vote_count": 1416, "popularity": 20.547}, {"id": 9373, "video": false, "vote_count": 1414, "vote_average": 6.1, "title": "The Texas Chainsaw Massacre", "release_date": "2003-05-21", "original_language": "en", "original_title": "The Texas Chainsaw Massacre", "genre_ids": [27], "backdrop_path": "/3rTsJ7tIC3LUSRr80PfeLbbCfBA.jpg", "adult": false, "overview": "After picking up a traumatized young hitchhiker, five friends find themselves stalked and hunted by a deformed chainsaw-wielding killer and his family of equally psychopathic killers.", "poster_path": "/gx7FCIOFGxqNyplF3t7qtmUv55g.jpg", "popularity": 19.117}, {"adult": false, "backdrop_path": "/7MJNhkXpbsoE8BuxwJLuTPcjYvH.jpg", "genre_ids": [27, 9648, 53], "id": 36599, "original_language": "en", "original_title": "Prom Night", "overview": "This slasher movie follows a relentless killer who is out to avenge the death of a young girl who died after being bullied and teased by four of her classmates. Now high-school students, the guilt-ridden kids have kept their involvement a secret, but when they start being murdered, one by one, it's clear that someone knows the truth. Also coping with the past are members of the dead girl's family, most notably her prom-queen sister, Kim Hammond (Jamie Lee Curtis).", "poster_path": "/3KIy1qFmdLMwUrSlRAiovX5anhR.jpg", "release_date": "1980-07-18", "title": "Prom Night", "video": false, "vote_average": 5.6, "vote_count": 169, "popularity": 10.34}, {"adult": false, "backdrop_path": "/qqdVRlVCvVWdmSBYrEHwQuC3GBd.jpg", "genre_ids": [27, 53], "id": 371608, "original_language": "en", "original_title": "The Strangers: Prey at Night", "overview": "A family\u2019s road trip takes a dangerous turn when they arrive at a secluded mobile home park to stay with some relatives and find it mysteriously deserted. Under the cover of darkness, three masked psychopaths pay them a visit to test the family\u2019s every limit as they struggle to survive.", "poster_path": "/vdxLpPsZkPZdFrREp7eSeSzcimj.jpg", "release_date": "2018-03-07", "title": "The Strangers: Prey at Night", "video": false, "vote_average": 5.4, "vote_count": 758, "popularity": 16.815}, {"id": 489064, "video": false, "vote_count": 102, "vote_average": 6.1, "title": "3 from Hell", "release_date": "2019-09-26", "original_language": "en", "original_title": "3 from Hell", "genre_ids": [80, 27, 53], "backdrop_path": "/18XnA53LlUcfMsOyuN4JeeXBKI9.jpg", "adult": false, "overview": "After barely surviving a furious shootout with the police, Baby Firefly, Otis Driftwood and Captain Spaulding are behind bars. But pure evil cannot be contained. Teaming up with Otis\u2019 half-brother Winslow, the demented Firefly clan escape to unleash a whole new wave of murder, madness and mayhem.", "poster_path": "/wWWjBJbORsB9xt17eXmYEYhinux.jpg", "popularity": 11.673}, {"adult": false, "backdrop_path": "/shNOTvaMz7C05LxBOWpakfJVWHc.jpg", "genre_ids": [27, 53], "id": 10987, "original_language": "en", "original_title": "Halloween: The Curse of Michael Myers", "overview": "Six years ago, Michael Myers terrorized the town of Haddonfield, Illinois. He and his niece, Jamie Lloyd, have disappeared. Jamie was kidnapped by a bunch of evil druids who protect Michael Myers. And now, six years later, Jamie has escaped after giving birth to Michael's child. She runs to Haddonfield to get Dr. Loomis to help her again.", "poster_path": "/8Tw5IttoEATGD2FHhcG9bDzqwbi.jpg", "release_date": "1995-09-29", "title": "Halloween: The Curse of Michael Myers", "video": false, "vote_average": 5.0, "vote_count": 471, "popularity": 14.084}, {"adult": false, "backdrop_path": "/9e5e7dJTMxQeF7zNx0CiJmxXE1I.jpg", "genre_ids": [27, 878, 53], "id": 11309, "original_language": "en", "original_title": "Hardware", "overview": "Mark 13 is a government-built killing machine programmed with artificial intelligence, able to repair and recharge itself from any energy source. Through a series of coincidences, the cyborg's head ends up in the home of a sculptress as a bizarre Christmas present from her boyfriend. Once inside its new home, the cyborg promptly reconstructs the rest of its body using a variety of household utensils and proceeds to go on a murderous rampage.", "poster_path": "/nsFm5xniViTVr1oVUpKmgvlAOEA.jpg", "release_date": "1990-09-14", "title": "Hardware", "video": false, "vote_average": 5.7, "vote_count": 145, "popularity": 10.189}, {"adult": false, "backdrop_path": "/qfZd3oZSTFa103e3cGd1rewHcNJ.jpg", "genre_ids": [53, 27], "id": 310137, "original_language": "en", "original_title": "Reversal", "overview": "A young woman, Eve, fights back and manages to escape a malicious abductor. However, after discovering she may not be the only victim, Eve unravels a darker truth and decides to turn the tables on her captor.", "poster_path": "/i10TBdHpX0e7CC2eDM5xUitmmGY.jpg", "release_date": "2015-06-26", "title": "Bound to Vengeance", "video": false, "vote_average": 5.8, "vote_count": 176, "popularity": 8.477}, {"adult": false, "backdrop_path": "/dQq32z4XmYIiK406tZhMhfxmnr.jpg", "genre_ids": [80, 53], "id": 158011, "original_language": "en", "original_title": "The Call", "overview": "Jordan Turner is an experienced 911 operator but when she makes an error in judgment and a call ends badly, Jordan is rattled and unsure if she can continue. But when teenager Casey Welson is abducted in the back of a man's car and calls 911, Jordan is the one called upon to use all of her experience, insights and quick thinking to help Casey escape, and not just to save her, but to make sure the man is brought to justice.", "poster_path": "/ekKVxnKeHEQiBznaEnj0VmK28bc.jpg", "release_date": "2013-03-14", "title": "The Call", "video": false, "vote_average": 6.7, "vote_count": 1918, "popularity": 12.863}, {"adult": false, "backdrop_path": "/3s1jogOznYmG0xPqHE45D5ir3bx.jpg", "genre_ids": [27, 53, 9648], "id": 3597, "original_language": "en", "original_title": "I Know What You Did Last Summer", "overview": "As they celebrate their high school graduation, four friends are involved in a hit-and-run accident when their car hits and apparently kills a pedestrian on an isolated roadway. They dispose of the body and vow to keep the incident a secret, a year later somebody starts sending them letters bearing the warning \"I Know What You Did Last Summer\".", "poster_path": "/cruOfvjIqMTbOQxld8SpM8OzVnf.jpg", "release_date": "1997-10-17", "title": "I Know What You Did Last Summer", "video": false, "vote_average": 5.8, "vote_count": 1506, "popularity": 15.809}], "total_pages": 295, "total_results": 5899}, "recommendations": {"page": 1, "results": [], "total_pages": 1, "total_results": 0}, "credits": {"cast": [{"cast_id": 0, "character": "Sebastian", "credit_id": "5bca2112c3a3684087016e84", "gender": 2, "id": 1471194, "name": "Kevin Leslie", "order": 0, "profile_path": "/jR7bGmNOBDKD703dgOSSgN2y0Ml.jpg"}, {"cast_id": 1, "character": "Josephine", "credit_id": "5bca21219251415627014a8c", "gender": 0, "id": 1827920, "name": "Anne Alexander Sieder", "order": 1, "profile_path": "/9vWia3OFfivzg0NdWOcY4twNrH4.jpg"}, {"cast_id": 2, "character": "Talli", "credit_id": "5bca212e9251415618014ac1", "gender": 0, "id": 1483357, "name": "Maja-Celin\u00e9 Probst", "order": 2, "profile_path": "/fL1JyPhAmZf1CBg0LZhZuQVy6mK.jpg"}, {"cast_id": 6, "character": "Catherine", "credit_id": "5bfca9330e0a263888021379", "gender": 0, "id": 1719150, "name": "Isabelle Mann", "order": 3, "profile_path": "/bjG0YtaOQIfldGWBNQHN1Axrt9H.jpg"}, {"cast_id": 7, "character": "Older Talli", "credit_id": "5bfca953c3a36865dc019166", "gender": 0, "id": 1875487, "name": "Priscilla Wittman", "order": 4, "profile_path": "/odFdtEerd6EbWwWlNTe2hfgg3CE.jpg"}, {"cast_id": 10, "character": "Ms. Fatcher", "credit_id": "5bfcab470e0a263821020073", "gender": 0, "id": 2184007, "name": "Andrea Schneider", "order": 5, "profile_path": "/2OuFSaExKtHX8iKo1RLF5pThEa8.jpg"}, {"cast_id": 8, "character": "Sarah (Victim #1)", "credit_id": "5bfca9880e0a262cfb01d625", "gender": 0, "id": 2184000, "name": "Judith Hahn", "order": 6, "profile_path": null}, {"cast_id": 9, "character": "Damian", "credit_id": "5bfcab120e0a2638880215d0", "gender": 0, "id": 17728, "name": "Gregory B. Waldis", "order": 7, "profile_path": null}], "crew": [{"credit_id": "5bca2145c3a36840aa0178b4", "department": "Directing", "gender": 0, "id": 149161, "job": "Director", "name": "Juliane Block", "profile_path": null}, {"credit_id": "5bfca8660e0a2629ce01e35f", "department": "Writing", "gender": 0, "id": 2183997, "job": "Writer", "name": "Laura Sommer", "profile_path": null}, {"credit_id": "5bfca88592514110800204e2", "department": "Writing", "gender": 2, "id": 1628408, "job": "Dialogue", "name": "Wolf-Peter Arand", "profile_path": null}]}}