{"adult": false, "backdrop_path": "/uYgKrelJQKIt4xxqQh1bc7nygOe.jpg", "belongs_to_collection": null, "budget": 0, "genres": [{"id": 27, "name": "Horror"}, {"id": 35, "name": "Comedy"}, {"id": 10770, "name": "TV Movie"}], "homepage": null, "id": 555249, "imdb_id": "tt8466648", "original_language": "en", "original_title": "Killer High", "overview": "Sabrina's perfectly planned high school reunion goes south when a monster keeps killing all the guests.", "popularity": 4.403, "poster_path": "/nNX58K2R8GKWY0q1hxf3Gcqd6Bj.jpg", "production_companies": [{"id": 82659, "logo_path": "/3mZkZUZUaqXDcIoYnECLb98PSWC.png", "name": "Blue Ice Pictures", "origin_country": "CA"}], "production_countries": [{"iso_3166_1": "CA", "name": "Canada"}, {"iso_3166_1": "US", "name": "United States of America"}], "release_date": "2018-10-20", "revenue": 0, "runtime": null, "spoken_languages": [{"iso_639_1": "en", "name": "English"}], "status": "Released", "tagline": "", "title": "Killer High", "video": false, "vote_average": 5.3, "vote_count": 12, "keywords": {"keywords": [{"id": 4328, "name": "costume"}, {"id": 6270, "name": "high school"}, {"id": 6732, "name": "mascot"}, {"id": 9824, "name": "reunion"}, {"id": 9900, "name": "warthog"}, {"id": 10022, "name": "rampage"}, {"id": 10541, "name": "curse"}, {"id": 156580, "name": "ghost story"}, {"id": 166701, "name": "ghost town"}, {"id": 214805, "name": "developers"}]}, "similar": {"page": 1, "results": [{"adult": false, "backdrop_path": "/8cVSUI36ORfCJ6d4TP71wIrdD7h.jpg", "genre_ids": [18, 27], "id": 133805, "original_language": "en", "original_title": "Carrie", "overview": "A reimagining of the classic horror tale about Carrie White, a shy girl outcast by her peers and sheltered by her deeply religious mother, who unleashes telekinetic terror on her small town after being pushed too far at her senior prom.", "poster_path": "/j0999NYddCGcishJlxluDRQIn6k.jpg", "release_date": "2013-10-16", "title": "Carrie", "video": false, "vote_average": 5.9, "vote_count": 2914, "popularity": 15.756}, {"adult": false, "backdrop_path": "/zffzhr30v7nCHRcyfnVr8PmNLbM.jpg", "genre_ids": [10749, 35, 18], "id": 11355, "original_language": "en", "original_title": "Never Been Kissed", "overview": "Josie Geller, a baby-faced junior copywriter at the Chicago Sun-Times, must pose as a student at her former high school to research contemporary teenage culture. With the help of her brother, Rob, Josie infiltrates the inner circle of the most popular clique on campus. But she hits a major snag in her investigation -- not to mention her own failed love life -- when she falls for her dreamy English teacher, Sam Coulson.", "poster_path": "/1F9EAhEQxa0I5Pa5Z10hWIBFS3r.jpg", "release_date": "1999-04-09", "title": "Never Been Kissed", "video": false, "vote_average": 6.0, "vote_count": 855, "popularity": 15.613}, {"adult": false, "backdrop_path": "/20IgqkdFw5kuItqDCJtidSESP0t.jpg", "genre_ids": [27, 18], "id": 10066, "original_language": "en", "original_title": "House of Wax", "overview": "A group of unwitting teens are stranded near a strange wax museum and soon must fight to survive and keep from becoming the next exhibit.", "poster_path": "/uM1RebQywM5PPYsauayefpXGxVk.jpg", "release_date": "2005-04-30", "title": "House of Wax", "video": false, "vote_average": 5.7, "vote_count": 1532, "popularity": 16.398}, {"id": 248574, "video": false, "vote_count": 645, "vote_average": 5.7, "title": "Barely Lethal", "release_date": "2015-04-30", "original_language": "en", "original_title": "Barely Lethal", "genre_ids": [28, 12, 35], "backdrop_path": "/scoMZVgdqBM7vqZaEbhQXJd7jOL.jpg", "adult": false, "overview": "A 16-year-old international assassin yearning for a \"normal\" adolescence fakes her own death and enrolls as a senior in a suburban high school. She quickly learns that being popular can be more painful than getting water-boarded.", "poster_path": "/nJm0vGJVyELlQEzHRq22vi2JHbW.jpg", "popularity": 18.241}, {"id": 15144, "video": false, "vote_count": 1221, "vote_average": 6.8, "title": "Sixteen Candles", "release_date": "1984-05-04", "original_language": "en", "original_title": "Sixteen Candles", "genre_ids": [35, 10749], "backdrop_path": "/xCIgY4mUmO4tbDVlntym9PdZ9H8.jpg", "adult": false, "overview": "A teenage girl deals with her parents forgetting her birthday and a crush on her high school's heartthrob.", "poster_path": "/rzTrRQg5ek47Yl0Vfenc69r9gOd.jpg", "popularity": 29.228}, {"adult": false, "backdrop_path": "/ncERp0UvXuImUeJcf27kEANcf1r.jpg", "genre_ids": [35, 10751, 10749], "id": 9880, "original_language": "en", "original_title": "The Princess Diaries", "overview": "A socially awkward but very bright 15-year-old girl being raised by a single mom discovers that she is the princess of a small European country because of the recent death of her long-absent father, who, unknown to her, was the crown prince of Genovia. She must make a choice between continuing the life of a San Francisco teen or stepping up to the throne.", "poster_path": "/sxpvHk286sXLJWcFrBMNIsXbYsd.jpg", "release_date": "2001-08-03", "title": "The Princess Diaries", "video": false, "vote_average": 6.8, "vote_count": 2861, "popularity": 30.076}, {"id": 272693, "video": false, "vote_count": 3249, "vote_average": 6.8, "title": "The DUFF", "release_date": "2015-02-20", "original_language": "en", "original_title": "The DUFF", "genre_ids": [35, 10749], "backdrop_path": "/awGZf5T1hflis9Z2KvRMhp798xU.jpg", "adult": false, "overview": "Bianca's universe turns upside down when she learns that her high school refers to her as a \u2018DUFF' (Designated Ugly Fat Friend). Hoping to erase that label, she enlists the help of a charming jock and her favorite teacher. Together they'll face the school's mean girl and remind everyone that we are all someone's DUFF\u2026 and that's totally fine.", "poster_path": "/dBBgPTCN5Zze4POXWVVpwf3wkra.jpg", "popularity": 17.232}, {"adult": false, "backdrop_path": "/5x0VEeFCnWzRBwU23KycKQRqEhN.jpg", "genre_ids": [10402, 35], "id": 15157, "original_language": "en", "original_title": "Another Cinderella Story", "overview": "A guy who danced with what could be the girl of his dreams at a costume ball only has one hint at her identity: the Zune she left behind as she rushed home in order to make her curfew. And with a once-in-a-lifetime opportunity in front of him, he sets out to find his masked beauty.", "poster_path": "/fLdCKCfHT8A6bnWybBsQFjC4fCo.jpg", "release_date": "2008-09-16", "title": "Another Cinderella Story", "video": false, "vote_average": 6.6, "vote_count": 1120, "popularity": 16.339}, {"id": 449176, "video": false, "vote_count": 3691, "vote_average": 8.1, "title": "Love, Simon", "release_date": "2018-02-16", "original_language": "en", "original_title": "Love, Simon", "genre_ids": [35, 18, 10749], "backdrop_path": "/rqMEeajyzSF4PpJtdCB816Iz8Vr.jpg", "adult": false, "overview": "Everyone deserves a great love story. But for seventeen-year old Simon Spier it's a little more complicated: he's yet to tell his family or friends he's gay and he doesn't know the identity of the anonymous classmate he's fallen for online.", "poster_path": "/5YUYg5q7QfC4IoNwNUtiwdiYKPr.jpg", "popularity": 17.201}, {"id": 11887, "video": false, "vote_count": 2347, "vote_average": 6.5, "title": "High School Musical 3: Senior Year", "release_date": "2008-10-11", "original_language": "en", "original_title": "High School Musical 3: Senior Year", "genre_ids": [35, 18, 10402, 10749, 10751], "backdrop_path": "/daSGxGZL2nNjGZKkAF5ain3lmOx.jpg", "adult": false, "overview": "It's almost graduation day for high school seniors Troy, Gabriella, Sharpay, Chad, Ryan and Taylor \u2015 and the thought of heading off in separate directions after leaving East High has these Wildcats thinking they need to do something they'll remember forever. Together with the rest of the Wildcats, they stage a spring musical reflecting their hopes and fears about the future and their unforgettable experiences growing up together. But with graduation approaching and college plans in question, what will become of the dreams, romances, and friendships of East High's senior Wildcats?", "poster_path": "/ewZpH2QIfPQ0VIn9lPf7MHbLbl4.jpg", "popularity": 14.748}, {"id": 325189, "video": false, "vote_count": 338, "vote_average": 6.5, "title": "Teen Beach 2", "release_date": "2015-06-26", "original_language": "en", "original_title": "Teen Beach 2", "genre_ids": [35, 14, 10751, 10770], "backdrop_path": "/x3cQd5rruj6jySg7dIHuNXT8REX.jpg", "adult": false, "overview": "When characters from the movie musical \u201cWet Side Story\u201d get stuck in the real world, teens Brady and Mack must find a way to return them home.", "poster_path": "/4A5Ecrvs6P8Yipjn4Xl2WYgu7Gm.jpg", "popularity": 24.718}, {"adult": false, "backdrop_path": "/bxPw6s61bG5Of19lp1E00n0dDWW.jpg", "genre_ids": [35, 18, 10751, 10402, 10770], "id": 10947, "original_language": "en", "original_title": "High School Musical", "overview": "Troy, the popular captain of the basketball team, and Gabriella, the brainy and beautiful member of the academic club, break all the rules of East High society when they secretly audition for the leads in the school's musical. As they reach for the stars and follow their dreams, everyone learns about acceptance, teamwork, and being yourself.", "poster_path": "/xMRBlTMMKDRJuK4IhwG5idrGHaS.jpg", "release_date": "2006-01-20", "title": "High School Musical", "video": false, "vote_average": 6.5, "vote_count": 2983, "popularity": 14.165}, {"adult": false, "backdrop_path": "/g3LYarEY9LjB28Ct2trwFN72gqZ.jpg", "genre_ids": [35], "id": 437557, "original_language": "en", "original_title": "Blockers", "overview": "When three parents discover their daughters\u2019 pact to lose their virginity at prom, they launch a covert one-night operation to stop the teens from sealing the deal.", "poster_path": "/uvlUQXg0AlpGzKukO11K7QtW3Yu.jpg", "release_date": "2018-03-14", "title": "Blockers", "video": false, "vote_average": 6.2, "vote_count": 1155, "popularity": 17.886}, {"adult": false, "backdrop_path": "/tUSXZ37j0XpNtmOb5uwqogdcq7E.jpg", "genre_ids": [35, 18], "id": 2108, "original_language": "en", "original_title": "The Breakfast Club", "overview": "Five disparate high school students meet in Saturday detention, and discover they have a lot more in common than they thought.", "poster_path": "/4ZejrrCpfoypR5lHoT3pq6yVldW.jpg", "release_date": "1985-02-15", "title": "The Breakfast Club", "video": false, "vote_average": 7.8, "vote_count": 4906, "popularity": 22.032}, {"id": 40264, "video": false, "vote_count": 746, "vote_average": 4.1, "title": "Vampires Suck", "release_date": "2010-08-18", "original_language": "en", "original_title": "Vampires Suck", "genre_ids": [35], "backdrop_path": "/1A5oDak9MwbHN2TU4gy3e8kfzU7.jpg", "adult": false, "overview": "Becca, an anxious, non-vampire teen is torn between two boys. Before she can choose, Becca must get around her controlling father, who embarrasses Becca by treating her like a child. Meanwhile, Becca's friends contend with their own romantic issues - all of which collide at the prom.", "poster_path": "/ug9h5BJ5XX9bp1nJI6Ji07QC3sx.jpg", "popularity": 11.815}, {"adult": false, "backdrop_path": "/by0WtpJ5UNxOy6ytIfPPTasbRoB.jpg", "genre_ids": [28, 12, 35, 18, 10751, 10402, 10749], "id": 17130, "original_language": "en", "original_title": "Crossroads", "overview": "Three friends get together and bury a box making a pact to open it at midnight at their high school graduation. In the little town in Georgia that they live in, things soon change. One is little miss perfect, one is an engaged prom queen, and the other is a pregnant outcast. The night of graduation, they open the box and they strike up a conversation. All of a sudden, one brings up the topic of her going to Los Angeles for a record contract audition. They all decide to go together and they leave. With a little money, they set out on the road with a guy named Ben. When one of them tells the other a rumor that he might be a homicidal maniac they are all scared of him. When they reach LA, Lucy falls in love with Ben and against her father's wishes, she stays and she goes to the audition.", "poster_path": "/egIs4cWxn0iBErFKrQ7STckjj49.jpg", "release_date": "2002-02-15", "title": "Crossroads", "video": false, "vote_average": 5.0, "vote_count": 334, "popularity": 14.197}, {"id": 14001, "video": false, "vote_count": 1103, "vote_average": 6.3, "title": "Dead Silence", "release_date": "2007-03-16", "original_language": "en", "original_title": "Dead Silence", "genre_ids": [27], "backdrop_path": "/xke1TAen3XVhmeEOPJtCWEjpDI5.jpg", "adult": false, "overview": "Jamie returns to his hometown in search of answers to his wife's murder, which occurred after receiving a weird package containing a ventriloquist dummy named Billy, which may be linked to the legend of ventriloquist Mary Shaw. Destined to find out the truth, Jamie goes to the town of Raven's Fair, where Shaw used to perform and is buried. But Jamie is in for more than he expected.", "poster_path": "/gRe2XJPOSFH9ZJe5oOsrtnX0eeB.jpg", "popularity": 14.146}, {"adult": false, "backdrop_path": "/gFYx0L17dZgmvsvSbwQ0PWtf3BO.jpg", "genre_ids": [35, 18, 10751, 10770], "id": 89185, "original_language": "en", "original_title": "Radio Rebel", "overview": "High school senior Tara is so painfully shy that she dreads speaking to anyone in the hallways or getting called on in class. But in the privacy of her bedroom with her iPod in hand, she rocks out -- doing mock broadcasts for Miami's hottest FM radio station, which happens to be owned by her stepfather. When a slot opens up at The SLAM, Tara surprises herself by blossoming behind the mike into confident, \"Radio Rebel\" -- and to everyone's shock, she's a hit!", "poster_path": "/xMDnQAGrjdy4k20n9CZGHKFm7XA.jpg", "release_date": "2012-02-17", "title": "Radio Rebel", "video": false, "vote_average": 6.2, "vote_count": 548, "popularity": 13.248}, {"adult": false, "backdrop_path": "/yIszPJawrrp6zcb62d7XJnaxAmw.jpg", "genre_ids": [18], "id": 13078, "original_language": "en", "original_title": "The Babysitters", "overview": "Seventeen-year-old Shirley is a good student who works as a babysitter in order to make money for college. One night Michael, a father Shirley works for, confesses he's unhappy with married life. Shirley has a crush on Michael, and seizes this moment to kiss him. Michael is so happy he presents Shirley with a big tip, which gives her an idea. Shirley plans to make extra money by setting up her teenage friends with other unhappy fathers.", "poster_path": "/nsrNUqGXI95unRKZEu8BJ584xWn.jpg", "release_date": "2007-09-11", "title": "The Babysitters", "video": false, "vote_average": 5.3, "vote_count": 153, "popularity": 15.673}, {"id": 315635, "video": false, "vote_count": 13257, "vote_average": 7.4, "title": "Spider-Man: Homecoming", "release_date": "2017-07-05", "original_language": "en", "original_title": "Spider-Man: Homecoming", "genre_ids": [28, 12, 18, 878], "backdrop_path": "/vc8bCGjdVp0UbMNLzHnHSLRbBWQ.jpg", "adult": false, "overview": "Following the events of Captain America: Civil War, Peter Parker, with the help of his mentor Tony Stark, tries to balance his life as an ordinary high school student in Queens, New York City, with fighting crime as his superhero alter ego Spider-Man as a new threat, the Vulture, emerges.", "poster_path": "/c24sv2weTHPsmDa7jEMN0m2P3RT.jpg", "popularity": 43.075}], "total_pages": 10, "total_results": 184}, "recommendations": {"page": 1, "results": [{"id": 464738, "video": false, "vote_count": 9, "vote_average": 4.9, "title": "The Terror of Hallow's Eve", "release_date": "2017-08-28", "original_language": "en", "original_title": "The Terror of Hallow's Eve", "genre_ids": [27, 53], "backdrop_path": "/rBFjaJlm0IKPTXw2Q4hBRTJA1BU.jpg", "adult": false, "overview": "After a fifteen-year-old is brutally beaten up by High School bullies, his wish for revenge unknowingly unleashes the Terror of Halloween.", "poster_path": "/yUl1UC0OhWcXPfWzYctXnp984Dy.jpg", "popularity": 3.99}, {"adult": false, "backdrop_path": null, "genre_ids": [14, 27], "id": 336453, "original_language": "en", "original_title": "Judas Ghost", "overview": "A team of professional ghost finders are trapped in an old village hall. The haunting they set out to investigate turns out to be far worse than they anticipated. Who will survive and what will be left of their souls?", "poster_path": "/k3M0fnqJ4ad0DrKw7mgxKN9YpWz.jpg", "release_date": "2015-04-01", "title": "Judas Ghost", "video": false, "vote_average": 4.8, "vote_count": 13, "popularity": 2.417}], "total_pages": 1, "total_results": 2}, "credits": {"cast": [{"cast_id": 2, "character": "Sabrina", "credit_id": "5bcbd895c3a368239d00ad31", "gender": 1, "id": 1038625, "name": "Kacey Rohl", "order": 1, "profile_path": "/ic3DvvbrfxzJ3uKxYDBpER0sbxy.jpg"}, {"cast_id": 3, "character": "Rosario", "credit_id": "5bcbd8adc3a3682387009aa7", "gender": 1, "id": 1847915, "name": "Humberly Gonzalez", "order": 2, "profile_path": "/rmYAqYeRai7bBwprnkCXdqvrN2N.jpg"}, {"cast_id": 4, "character": "Margo", "credit_id": "5bcbd8c40e0a2627b70098ba", "gender": 1, "id": 1384315, "name": "Asha Bromfield", "order": 3, "profile_path": "/qKiKyTy3RtZEWZW4ZaEaotwpPCX.jpg"}, {"cast_id": 5, "character": "Ronnie", "credit_id": "5bfed2570e0a26486a003342", "gender": 2, "id": 1741000, "name": "Varun Saranga", "order": 4, "profile_path": "/gyMhJXEQVtECRQt9PT1HdGcDh4U.jpg"}, {"cast_id": 6, "character": "Meg", "credit_id": "5bfed2719251410b92047ed0", "gender": 1, "id": 1574442, "name": "Nikki Duval", "order": 5, "profile_path": "/6TPYidJ60qVJ80hRNiGcPSDmR7W.jpg"}, {"cast_id": 7, "character": "George", "credit_id": "5bfed28c925141165404c42d", "gender": 2, "id": 2144603, "name": "Jonathan Langdon", "order": 6, "profile_path": "/73BfNyTvKOgs8mMJVStyykl5N6K.jpg"}, {"cast_id": 8, "character": "Carrie", "credit_id": "5bfed2a1925141165404c462", "gender": 1, "id": 88620, "name": "Lauren Collins", "order": 7, "profile_path": "/1Oty8QYUszvmOKA0B2hWMk4oIda.jpg"}, {"cast_id": 9, "character": "Mrs. Blakeslee", "credit_id": "5bfed2b59251417f0f04425e", "gender": 1, "id": 189633, "name": "Linda Goranson", "order": 8, "profile_path": "/gujmhis5uNDQDHytKG7ztf8iwbr.jpg"}, {"cast_id": 10, "character": "Beth Ann", "credit_id": "5bfed2cc92514111160438ed", "gender": 1, "id": 1820438, "name": "Annie Chen", "order": 9, "profile_path": "/zBM3kEtbtMg6NCtWmozTi03IIUG.jpg"}, {"cast_id": 11, "character": "Jeanne", "credit_id": "5bfed2de9251410b92047f4d", "gender": 1, "id": 1050328, "name": "Brittany Bristow", "order": 10, "profile_path": "/lg4qi3k0GYnEoFnDaZbO8I63DjW.jpg"}, {"cast_id": 12, "character": "Whitney", "credit_id": "5bfed2f30e0a2636ce04ddee", "gender": 1, "id": 2058904, "name": "Kate Ross", "order": 11, "profile_path": "/6xc4xQnI6EhMfTdCiS3LzLs1ATH.jpg"}, {"cast_id": 13, "character": "Jed", "credit_id": "5bfed30f9251417f0f0442f4", "gender": 2, "id": 956556, "name": "Michael Xavier", "order": 12, "profile_path": "/o0QdKVbiMOQA5QLpri05N3tj7hU.jpg"}], "crew": [{"credit_id": "5bcbd85b92514155a4008c6e", "department": "Directing", "gender": 1, "id": 1602849, "job": "Director", "name": "Jem Garrard", "profile_path": "/hAw2K1pLwlE8WvqurjGxeoa7Y3z.jpg"}, {"credit_id": "5bcbd86d925141559a009a5b", "department": "Writing", "gender": 1, "id": 220557, "job": "Writer", "name": "Suzanne Keilly", "profile_path": "/2aDDCg4qAEE9PNzJUPxtmKUIppf.jpg"}, {"credit_id": "5d60b1826dea3a0011934554", "department": "Visual Effects", "gender": 2, "id": 2394265, "job": "Visual Effects Coordinator", "name": "Liam Macdonald", "profile_path": "/6Uq0Nl1LfUPSungiAMIjMHEhtfV.jpg"}]}}