{"adult": false, "backdrop_path": "/tWHPwXiQ9q8aoGjKRzL1Bf0zPT6.jpg", "belongs_to_collection": null, "budget": 0, "genres": [{"id": 18, "name": "Drama"}], "homepage": null, "id": 555795, "imdb_id": "tt7666724", "original_language": "es", "original_title": "Esto no es Berlin", "overview": "Seventeen-year-old Carlos doesn't fit in anywhere, not in his family nor with the friends he has chosen in school. But everything changes when he is invited to a mythical nightclub where he discovers the underground LGBTQ nightlife scene: punk, sexual liberty and drugs.", "popularity": 0.869, "poster_path": "/1aWD6w5VCUOeYx4iYRr0HCE4mxy.jpg", "production_companies": [{"id": 52889, "logo_path": null, "name": "Catatonia Films", "origin_country": ""}], "production_countries": [{"iso_3166_1": "MX", "name": "Mexico"}], "release_date": "2019-06-21", "revenue": 0, "runtime": 115, "spoken_languages": [{"iso_639_1": "es", "name": "Espa\u00f1ol"}], "status": "Released", "tagline": "", "title": "This Is Not Berlin", "video": false, "vote_average": 8.6, "vote_count": 5, "keywords": {"keywords": [{"id": 237, "name": "gay"}, {"id": 158718, "name": "lgbt"}]}, "similar": {"page": 1, "results": [{"id": 449176, "video": false, "vote_count": 3691, "vote_average": 8.1, "title": "Love, Simon", "release_date": "2018-02-16", "original_language": "en", "original_title": "Love, Simon", "genre_ids": [35, 18, 10749], "backdrop_path": "/rqMEeajyzSF4PpJtdCB816Iz8Vr.jpg", "adult": false, "overview": "Everyone deserves a great love story. But for seventeen-year old Simon Spier it's a little more complicated: he's yet to tell his family or friends he's gay and he doesn't know the identity of the anonymous classmate he's fallen for online.", "poster_path": "/5YUYg5q7QfC4IoNwNUtiwdiYKPr.jpg", "popularity": 17.201}, {"adult": false, "backdrop_path": "/qs4P8THxjbMZYc9QuZvzN95KzBM.jpg", "genre_ids": [18, 53, 9648], "id": 184352, "original_language": "fr", "original_title": "Tom \u00e0 la ferme", "overview": "A young man travels to an isolated farm for his lover's funeral where he's quickly drawn into a twisted, sexually charged game by his lover's aggressive brother.", "poster_path": "/wS4oYOHEKva9sMLOHSr7tW19SaQ.jpg", "release_date": "2013-09-02", "title": "Tom at the Farm", "video": false, "vote_average": 6.9, "vote_count": 408, "popularity": 7.884}, {"adult": false, "backdrop_path": "/qWZSYN2tBoZdUY9NDdvSKQ6OH4u.jpg", "genre_ids": [18], "id": 377154, "original_language": "fr", "original_title": "Quand on a 17 Ans", "overview": "Set in the beautiful high Pyrenees in south-west France, Damien lives with his mother Marianne, a doctor, while his father, a pilot, is on a tour of duty abroad with the French military. At school, Damien is bullied by Thomas,  who lives in the farming community up in the mountains, nut learns to fight back. The boys find themselves living together when Marianne invites Thomas to come and stay with them while his mother is ill in hospital. Damien must learn to live with the boy who terrorised him.", "poster_path": "/ogfzBX1iNzgaCBTmRRf6c69L19k.jpg", "release_date": "2016-02-27", "title": "Being 17", "video": false, "vote_average": 6.9, "vote_count": 210, "popularity": 6.56}, {"adult": false, "backdrop_path": "/6VhtzImP1UvYkIAHS4L8yfmceOM.jpg", "genre_ids": [18], "id": 26280, "original_language": "fr", "original_title": "J'ai tu\u00e9 ma m\u00e8re", "overview": "Hubert, a brash 17-year-old, is confused and torn by a love-hate relationship with his mother that consumes him more and more each day. After distressing ordeals and tragic episodes, Hubert will find his mother on the banks of Saint Lawrence river, where he grew up, and where a murder will be committed: the murder of childhood.", "poster_path": "/cxb02CLALt9He1Dt0BIDKj9fdvM.jpg", "release_date": "2009-06-05", "title": "I Killed My Mother", "video": false, "vote_average": 7.7, "vote_count": 655, "popularity": 11.451}, {"id": 21634, "video": false, "vote_count": 250, "vote_average": 7.9, "title": "Prayers for Bobby", "release_date": "2009-02-27", "original_language": "en", "original_title": "Prayers for Bobby", "genre_ids": [18, 36, 10770], "backdrop_path": "/pSjGsbqyKUzF8rHzL0vtVWV1pS6.jpg", "adult": false, "overview": "Bobby Griffith was his mother's favorite son, the perfect all-American boy growing up under deeply religious influences in Walnut Creek, California. Bobby was also gay. Struggling with a conflict no one knew of much less understood Bobby finally came out to his family.", "poster_path": "/d9TGJxEMkLTEF5lWAx1PLNDNpA0.jpg", "popularity": 9.034}, {"adult": false, "backdrop_path": "/qbrmEfBEcdrzHSAHgazJWmz3TSU.jpg", "genre_ids": [18], "id": 616229, "original_language": "en", "original_title": "The Male Gaze: The Heat of the Night", "overview": "When darkness falls, temperatures rise in these six stories about late night confessions, intimacy for sale, high speed hookups and full moon frissons. But when the sun comes up and reality reveals itself, will it have all been worth it?", "poster_path": "/e1gNLO829rkE73sBJ3aClZJHNXd.jpg", "release_date": "2019-07-15", "title": "The Male Gaze: The Heat of the Night", "video": false, "vote_average": 3.3, "vote_count": 3, "popularity": 7.834}, {"adult": false, "backdrop_path": "/ztD8x6kFrhyPIrdbEqWkxwKEgzv.jpg", "genre_ids": [80, 18], "id": 383526, "original_language": "es", "original_title": "Nunca vas a estar solo", "overview": "Introverted Juan, manager of a mannequin factory, lives alone with his eighteen-year-old gay son, Pablo. Whilst Pablo blithely studies dance, Juan is hoping that, after twenty-five years at the firm, his boss will consider him for a partnership. When Pablo is badly wounded in a brutal homophobic attack which sees him hospitalised, his father realises just how far they have become estranged. A lack of witnesses and expensive medical bills force Juan to leave the quiet stability of his life for good and reposition himself in a world where there is discrimination. Time and again his efforts come to nought, until one night on the streets of Santiago he makes up his own rules in order to save his son.", "poster_path": "/lGReDf0NnrAbdXaU1SbFyKnJJH4.jpg", "release_date": "2016-02-13", "title": "You'll Never Be Alone", "video": false, "vote_average": 7.1, "vote_count": 17, "popularity": 2.412}, {"adult": false, "backdrop_path": "/zCC5Han27o5AxhdNJ86b5YhLhIS.jpg", "genre_ids": [18, 10749], "id": 26933, "original_language": "fr", "original_title": "Les roseaux sauvages", "overview": "As the Algerian War draws to a close, a teenager with a girlfriend starts feeling homosexual urges for two of his classmates: a country boy, and a French-Algerian intellectual.", "poster_path": "/vPPsAieu9KEVZcI06xKHl9zztUO.jpg", "release_date": "1994-06-01", "title": "Wild Reeds", "video": false, "vote_average": 7.5, "vote_count": 46, "popularity": 5.558}, {"adult": false, "backdrop_path": "/r3DKR4VybkjYP2w4wYFIf2cEPc.jpg", "genre_ids": [10749, 18], "id": 322127, "original_language": "de", "original_title": "You & I", "overview": "Summer in Berlin. Jonas is planning a trip through the little known area of the Uckermark in preparation for a photography project. He invites his best friend, Phillip, to come along. When they pick up a hitchhiker named Boris, the friendship of the two starts to fray. Maybe three\u2019s a crowd after all? By the end of the summer, things between Jonas and Phillip won\u2019t ever be the same again.", "poster_path": "/59OmxhLZVh3ZXLAu6iaywYYx01S.jpg", "release_date": "2015-09-16", "title": "You & I", "video": false, "vote_average": 7.4, "vote_count": 22, "popularity": 5.241}, {"adult": false, "backdrop_path": "/4NJplkljN06NQLMLSUNmrIsBjBZ.jpg", "genre_ids": [35, 18], "id": 400547, "original_language": "en", "original_title": "Hurricane Bianca", "overview": "Hurricane Bianca is a revenge comedy about a New York teacher who moves to a small town in Texas, gets fired for being gay, and returns disguised in drag to get revenge on the people who were nasty to him.", "poster_path": "/w1QM09R1TqwHTb5UA8X8jR2yh4x.jpg", "release_date": "2016-06-03", "title": "Hurricane Bianca", "video": false, "vote_average": 6.2, "vote_count": 212, "popularity": 9.77}, {"adult": false, "backdrop_path": "/1Z53X8Rj7ebuIUHU0XqizkFMPOK.jpg", "genre_ids": [18, 10749], "id": 17483, "original_language": "en", "original_title": "Shelter", "overview": "Forced to give up his dreams of art school, Zach works dead-end jobs to support his sister and her son. Questioning his life, he paints, surfs and hangs out with his best friend, Gabe. When Gabe's older brother returns home for the summer, Zach suddenly finds himself drawn into a relationship he didn't expect.", "poster_path": "/auMRglisVmM01BRGAWCjv7AuUeE.jpg", "release_date": "2007-06-16", "title": "Shelter", "video": false, "vote_average": 7.7, "vote_count": 249, "popularity": 11.276}, {"adult": false, "backdrop_path": "/ybbB49QJSFgv8IxzJhPLwJbSuEG.jpg", "genre_ids": [18, 14, 10749], "id": 47643, "original_language": "en", "original_title": "Lilies - Les feluettes", "overview": "1952: Bishop Bilodeau visits a qu\u00e9b\u00e9cois prison to hear the confession of a boyhood friend jailed for murder 40 years ago. The inmates force the prelate to watch a play depicting what really happened in 1912. We meet him as a young man, strait-laced, intent on convincing Simon (now the convict) to join the seminary with him.", "poster_path": "/zEaYOUDV7nKsd8SIfC6Dcs38pp2.jpg", "release_date": "1996-09-07", "title": "Lilies", "video": false, "vote_average": 7.8, "vote_count": 16, "popularity": 6.051}, {"adult": false, "backdrop_path": "/1l5NKzPZmvrI1BygrGz5png96Wl.jpg", "genre_ids": [18, 10749], "id": 382475, "original_language": "en", "original_title": "The Pass", "overview": "The night before their debut game, two professional soccer players share a kiss. In a sporting world where image is everything, this surprising \u2018pass\u2019 sets the men up for a contrasting decade of fame and failure, full of secrets and denial.", "poster_path": "/1HoULoDol45qOr4LiKBwJdfU1pr.jpg", "release_date": "2016-03-16", "title": "The Pass", "video": false, "vote_average": 6.9, "vote_count": 67, "popularity": 5.722}, {"adult": false, "backdrop_path": "/3Z0GbJ3NKBEbotdHxsllRBKRMmj.jpg", "genre_ids": [18], "id": 472451, "original_language": "en", "original_title": "Boy Erased", "overview": "Jared, the son of a Baptist pastor in a small American town, is outed to his parents at age 19. Jared is faced with an ultimatum: attend a gay conversion therapy program \u2013 or be permanently exiled and shunned by his family, friends, and faith.", "poster_path": "/oZbhTdi0ZQY7iiSQ0L7h3ya6NDF.jpg", "release_date": "2018-09-24", "title": "Boy Erased", "video": false, "vote_average": 7.2, "vote_count": 653, "popularity": 14.358}, {"adult": false, "backdrop_path": "/da8Kj1bgPvL8Tf1PgkA70UwmYzh.jpg", "genre_ids": [35, 18, 10749], "id": 10938, "original_language": "en", "original_title": "Beautiful Thing", "overview": "Set during a long, hot summer on the Thamesmead Estate in Southeast London, three teenagers edge towards adulthood.", "poster_path": "/8z1ZkZoznIGLyx4xHEaQNZqG63D.jpg", "release_date": "1996-06-21", "title": "Beautiful Thing", "video": false, "vote_average": 7.5, "vote_count": 154, "popularity": 9.835}, {"adult": false, "backdrop_path": "/8uwHvRutx9y79ZBIowg7VDVx9Dy.jpg", "genre_ids": [18, 10749], "id": 222918, "original_language": "en", "original_title": "The Wilding", "overview": "When juvenile inmate Malcolm is offered a chance at parole, he is torn between his chance for freedom and protecting the one he loves.", "poster_path": "/5vbTbtgm0dH5MHwVQBaWo47gG6Q.jpg", "release_date": "2012-02-13", "title": "The Wilding", "video": false, "vote_average": 6.8, "vote_count": 4, "popularity": 4.083}, {"adult": false, "backdrop_path": "/knpPKme88KkGx0IyAgXTZ4fPGC6.jpg", "genre_ids": [18], "id": 258034, "original_language": "es", "original_title": "Cuatro Lunas", "overview": "Four stories about love and self-acceptance: An eleven year-old boy struggles to keep secret the attraction he feels towards his male cousin. Two former childhood friends reunite and start a relationship that gets complicated due to one of them\u2019s fear of getting caught. A gay long lasting relationship is in jeopardy when a third man comes along. An old family man is obsessed with a young male prostitute and tries to raise the money to afford the experience.", "poster_path": "/9txGc3oPCLfYse0ozfHLltwC2Q7.jpg", "release_date": "2014-03-21", "title": "4 Moons", "video": false, "vote_average": 7.6, "vote_count": 101, "popularity": 8.755}, {"adult": false, "backdrop_path": "/jjQBDuCyhBW7cjllKUsuzoxll5l.jpg", "genre_ids": [18], "id": 160165, "original_language": "pl", "original_title": "W Imi\u0119...", "overview": "The contemporary story of a priest who launches a centre for troubled youth in a small parish. He is a good priest and is well-liked by his congregation, which remains unaware of his complicated past.", "poster_path": "/oHa3pVFl5Ef9K3BmFlmwWs5ftkB.jpg", "release_date": "2013-09-06", "title": "In the Name of...", "video": false, "vote_average": 7.1, "vote_count": 28, "popularity": 4.547}, {"adult": false, "backdrop_path": "/xe7PSGl603NPPAOvSr1bs44hQs3.jpg", "genre_ids": [18], "id": 380874, "original_language": "de", "original_title": "Jonathan", "overview": "A young man struggles with the pressure of caring for his terminally ill father while trying to unlock a secret that his father seems determined to keep from him. The story takes another dramatic turn when Ron, Burghardt\u2019s long-lost friend from his youth, re-appears \u2014 and a well-kept family secret is uncovered.", "poster_path": "/ixaQRWo75DLEUQu03dAPcSDxFmr.jpg", "release_date": "2016-05-05", "title": "Jonathan", "video": false, "vote_average": 6.7, "vote_count": 22, "popularity": 2.506}, {"adult": false, "backdrop_path": "/sZo96MCFy4yFaJFKIfj4hbyvTci.jpg", "genre_ids": [18, 10749], "id": 26371, "original_language": "en", "original_title": "Maurice", "overview": "After his lover rejects him, a young man trapped by the oppressiveness of Edwardian society tries to come to terms with and accept his sexuality.", "poster_path": "/4MI2y8XViPrDiKs1p0QC4bTeZzf.jpg", "release_date": "1987-08-21", "title": "Maurice", "video": false, "vote_average": 7.6, "vote_count": 161, "popularity": 11.282}], "total_pages": 174, "total_results": 3465}, "recommendations": {"page": 1, "results": [{"adult": false, "backdrop_path": "/9CRnd3sUV4N8PoEgB57xPDH1WUI.jpg", "genre_ids": [18], "id": 519101, "original_language": "es", "original_title": "C\u00f3mprame un revolver", "overview": "In a timeless M\u00e9xico where women are disappearing, a girl helps her dad, a tormented addict, to take care of an abandoned baseball camp where the narcos gather to play.", "poster_path": "/AhIIoMNcNxbtf04tvr4YoubwRpK.jpg", "release_date": "2018-05-14", "title": "Buy Me a Gun", "video": false, "vote_average": 7.6, "vote_count": 10, "popularity": 1.717}, {"id": 571391, "video": false, "vote_count": 20, "vote_average": 7.8, "title": "Chicuarotes", "release_date": "2019-05-20", "original_language": "es", "original_title": "Chicuarotes", "genre_ids": [80, 18], "backdrop_path": "/4JpOuUyoryxRmiMGHh4tmsYiCzV.jpg", "adult": false, "overview": "Cagalera and Moloteco are two teenagers from San Gregorio Atlapulco who are desperate to get out and move up and away from oppressive circumstances. When they hear of an opportunity to buy a spot in the electrician\u2019s union, which could transform their lives, they quickly devolve into the criminal, adult underworld of Mexico City in a bid to buy their freedom.", "poster_path": "/9yHOL5q3uk0ZwZZUFJbPwVKyzRs.jpg", "popularity": 3.28}, {"adult": false, "backdrop_path": "/fGAYabyOlcXvWLSbofEiK8eFJbP.jpg", "genre_ids": [18, 35], "id": 267797, "original_language": "es", "original_title": "Elvira, te dar\u00eda mi vida pero la estoy usando", "overview": "Elvira had a fight with her husband, he went to purchase some cigarettes but he never came back, now Elvira is searching for him.", "poster_path": "/1JNn3UleSMq3p9M0NXHyHyb2Jhi.jpg", "release_date": "2014-10-24", "title": "Elvira, I would give you my life but I'm using it", "video": false, "vote_average": 6.8, "vote_count": 22, "popularity": 3.913}], "total_pages": 1, "total_results": 3}, "credits": {"cast": [{"cast_id": 0, "character": "Rita", "credit_id": "5bce8d4792514172d800415f", "gender": 1, "id": 969412, "name": "Ximena Romo", "order": 1, "profile_path": "/fFGnB7qbbIT0yc2yjn5SRLefd7R.jpg"}, {"cast_id": 1, "character": "Nico", "credit_id": "5bce8d51c3a368663700503b", "gender": 0, "id": 1659073, "name": "Mauro S\u00e1nchez Navarro", "order": 2, "profile_path": null}, {"cast_id": 2, "character": "Gera", "credit_id": "5bce8d5e92514172d3004066", "gender": 0, "id": 2158397, "name": "Jos\u00e9 Antonio Toledano", "order": 3, "profile_path": null}, {"cast_id": 3, "character": "Carlos", "credit_id": "5bce8d630e0a2662420043c7", "gender": 2, "id": 1295165, "name": "Xabiani Ponce de Le\u00f3n", "order": 4, "profile_path": null}, {"cast_id": 4, "character": "Qui\u00f1ones", "credit_id": "5bce8d7292514172dc003e98", "gender": 0, "id": 1149166, "name": "Fernando \u00c1lvarez Rebeil", "order": 5, "profile_path": null}, {"cast_id": 5, "character": "Susana", "credit_id": "5bce8d7ac3a368662f0043f6", "gender": 1, "id": 74940, "name": "Lumi Cavazos", "order": 6, "profile_path": "/qD7DyoqUUqoaFTMz8IJkfOYwf5M.jpg"}, {"cast_id": 6, "character": "Carolina", "credit_id": "5bce8d8692514172d00040ec", "gender": 1, "id": 78883, "name": "Marina de Tavira", "order": 7, "profile_path": "/rGGjW1UnUL1Q4TGlfRL3W5yuyq1.jpg"}, {"cast_id": 7, "character": "Esteban", "credit_id": "5bce8d98c3a3686637005094", "gender": 2, "id": 967926, "name": "Hari Sama", "order": 8, "profile_path": "/1l3WKGyixGZd6EIY6UcRp0OPaLJ.jpg"}, {"cast_id": 8, "character": "Tito", "credit_id": "5bce8dbdc3a36866430050c8", "gender": 0, "id": 1204037, "name": "Am\u00e9rico Hollander", "order": 9, "profile_path": null}, {"cast_id": 9, "character": "Maud", "credit_id": "5bce8dd0c3a368664e004f3c", "gender": 0, "id": 2158398, "name": "Klaudia Garc\u00eda", "order": 10, "profile_path": null}], "crew": [{"credit_id": "5bce8e25c3a3686634004d41", "department": "Directing", "gender": 2, "id": 967926, "job": "Director", "name": "Hari Sama", "profile_path": "/1l3WKGyixGZd6EIY6UcRp0OPaLJ.jpg"}, {"credit_id": "5da85111944a57001925d52e", "department": "Production", "gender": 2, "id": 967926, "job": "Producer", "name": "Hari Sama", "profile_path": "/1l3WKGyixGZd6EIY6UcRp0OPaLJ.jpg"}, {"credit_id": "5da8530b70309f001665b4a9", "department": "Writing", "gender": 2, "id": 967926, "job": "Writer", "name": "Hari Sama", "profile_path": "/1l3WKGyixGZd6EIY6UcRp0OPaLJ.jpg"}, {"credit_id": "5da8532ae6d3cc0018afe6f1", "department": "Writing", "gender": 2, "id": 970607, "job": "Writer", "name": "Rodrigo Ordo\u00f1ez", "profile_path": null}, {"credit_id": "5da8531770309f0014659750", "department": "Writing", "gender": 2, "id": 973207, "job": "Writer", "name": "Max Zunino", "profile_path": null}, {"credit_id": "5da85109a2423200147ba9c9", "department": "Production", "gender": 0, "id": 1678041, "job": "Producer", "name": "Ver\u00f3nica Valadez", "profile_path": null}, {"credit_id": "5da850fab7b69d0015e89fb6", "department": "Production", "gender": 0, "id": 1734663, "job": "Producer", "name": "Antonio Urdapilleta", "profile_path": null}, {"credit_id": "5da85519b7b69d0015e8ac4d", "department": "Production", "gender": 0, "id": 2434725, "job": "Producer", "name": "Ale Garc\u00eda", "profile_path": null}]}}