{"adult": false, "backdrop_path": "/cN1gwfZUDzQUhQyFZ77cNNDUaYE.jpg", "belongs_to_collection": null, "budget": 0, "genres": [{"id": 27, "name": "Horror"}, {"id": 9648, "name": "Mystery"}, {"id": 53, "name": "Thriller"}], "homepage": "", "id": 555974, "imdb_id": "tt9173418", "original_language": "en", "original_title": "Brahms: The Boy II", "overview": "After a family moves into the Heelshire Mansion, their young son soon makes friends with a life-like doll called Brahms.", "popularity": 10.393, "poster_path": "/sEpmKEptwJ7nBzDAaL9xSyV5axS.jpg", "production_companies": [{"id": 47729, "logo_path": "/5NRpQ7xxmODXAjt2pRWUFMLVzvP.png", "name": "STX Entertainment", "origin_country": "US"}, {"id": 126, "logo_path": "/kADPanRDkKTxncPXXVahvHPUvCj.png", "name": "Lakeshore Entertainment", "origin_country": "US"}], "production_countries": [], "release_date": "2020-02-20", "revenue": 0, "runtime": 0, "spoken_languages": [{"iso_639_1": "en", "name": "English"}, {"iso_639_1": "es", "name": "Espa\u00f1ol"}], "status": "In Production", "tagline": "", "title": "Brahms: The Boy II", "video": false, "vote_average": 0.0, "vote_count": 0, "keywords": {"keywords": [{"id": 5202, "name": "boy"}, {"id": 9826, "name": "murder"}, {"id": 12545, "name": "mansion"}]}, "similar": {"page": 1, "results": [{"adult": false, "backdrop_path": "/pA64Ov7lDpwXBu33yq0KpmAOYJL.jpg", "genre_ids": [27, 53], "id": 357096, "original_language": "en", "original_title": "I Spit on Your Grave III: Vengeance is Mine", "overview": "Jennifer Hills is still tormented by the brutal sexual assault she endured years ago. She\u2019s changed identities and cities, reluctantly joining a support group where she begins to piece together a new life. But when her new friend\u2019s murderer goes free and the tales of serial rapists haunt her, Jennifer will hunt down the men responsible and do what the system won\u2019t \u2013 make them pay for their crimes in the most horrific ways imaginable. Only this time, no jury may be able to save her.", "poster_path": "/6SnOlgrUoC5jqmgcYIM5lde5zYq.jpg", "release_date": "2015-10-01", "title": "I Spit on Your Grave III: Vengeance is Mine", "video": false, "vote_average": 5.3, "vote_count": 437, "popularity": 20.815}, {"adult": false, "backdrop_path": "/t3OZS8yMs0NL4YgWWc04eXHTn1X.jpg", "genre_ids": [28, 80, 53], "id": 984, "original_language": "en", "original_title": "Dirty Harry", "overview": "When a madman dubbed 'Scorpio' terrorizes San Francisco, hard-nosed cop, Harry Callahan \u2013 famous for his take-no-prisoners approach to law enforcement \u2013 is tasked with hunting down the psychopath. Harry eventually collars Scorpio in the process of rescuing a kidnap victim, only to see him walk on technicalities. Now, the maverick detective is determined to nail the maniac himself.", "poster_path": "/2TADKc4GMMPdMrLXj0xJVgTvZJM.jpg", "release_date": "1971-12-21", "title": "Dirty Harry", "video": false, "vote_average": 7.5, "vote_count": 1173, "popularity": 18.839}, {"id": 8090, "video": false, "vote_count": 448, "vote_average": 6.1, "title": "Untraceable", "release_date": "2008-01-22", "original_language": "en", "original_title": "Untraceable", "genre_ids": [9648, 53], "backdrop_path": "/eXuIPt9I1xuaVddlgzEQRC2EMnJ.jpg", "adult": false, "overview": "Special Agent Jennifer Marsh (Diane Lane) works in an elite division of the FBI dedicated to fighting cybercrime. She thinks she has seen it all, until a particularly sadistic criminal arises on the Internet. This tech-savvy killer posts live feeds of his crimes on his website; the more hits the site gets, the faster the victim dies. Marsh and her team must find the elusive killer before time runs out.", "poster_path": "/ySUwDRDEn01lKIMPQorpFCMLWqE.jpg", "popularity": 14.431}, {"id": 75780, "video": false, "vote_count": 4451, "vote_average": 6.4, "title": "Jack Reacher", "release_date": "2012-12-20", "original_language": "en", "original_title": "Jack Reacher", "genre_ids": [28, 80, 18, 53], "backdrop_path": "/ezXodpP429qK0Av89pVNlaXWJkQ.jpg", "adult": false, "overview": "When a gunman takes five lives with six shots, all evidence points to the suspect in custody. On interrogation, the suspect offers up a single note: \"Get Jack Reacher!\" So begins an extraordinary chase for the truth, pitting Jack Reacher against an unexpected enemy, with a skill for violence and a secret to keep.", "poster_path": "/mt0ELw83HIRgaKaDzhsDcIi0RnW.jpg", "popularity": 15.945}, {"adult": false, "backdrop_path": "/2J283YNxKhxAqHeVegUJ5mzLfGb.jpg", "genre_ids": [80, 18, 9648], "id": 392044, "original_language": "en", "original_title": "Murder on the Orient Express", "overview": "Genius Belgian detective Hercule Poirot investigates the murder of an American tycoon aboard the Orient Express train.", "poster_path": "/iBlfxlw8qwtUS0R8YjIU7JtM6LM.jpg", "release_date": "2017-11-03", "title": "Murder on the Orient Express", "video": false, "vote_average": 6.7, "vote_count": 6050, "popularity": 27.701}, {"id": 807, "video": false, "vote_count": 11937, "vote_average": 8.3, "title": "Se7en", "release_date": "1995-09-22", "original_language": "en", "original_title": "Se7en", "genre_ids": [80, 9648, 53], "backdrop_path": "/A0WKbRIojF9DUWG4XLCmg5JK6I5.jpg", "adult": false, "overview": "Two homicide detectives are on a desperate hunt for a serial killer whose crimes are based on the \"seven deadly sins\" in this dark and haunting film that takes viewers from the tortured remains of one victim to the next. The seasoned Det. Sommerset researches each sin in an effort to get inside the killer's mind, while his novice partner, Mills, scoffs at his efforts to unravel the case.", "poster_path": "/8zw8IL4zEPjkh8Aysdcd0FwGMb0.jpg", "popularity": 34.018}, {"adult": false, "backdrop_path": "/8UkJSL5hlwGh3uSC5tyoaqhHQh7.jpg", "genre_ids": [80, 18, 53], "id": 18587, "original_language": "en", "original_title": "10 to Midnight", "overview": "Based on the real-life Richard Speck murders. After his bizarre behavior results in rejection from countless women, Warren Stacy begins murdering women, always while he is naked, which minimizes any physical evidence left behind. Detective Leo Kessler is convinced of Stacy\u2019s guilt and, over the objections of his partner, plants evidence to get him behind bars. When Stacy is released on a technicality, he threatens to go after Kessler and his family, leaving Kessler to defend himself with little help from the police.", "poster_path": "/bJiLyz6g8vsFgJ5oAdMWlQAWY4T.jpg", "release_date": "1983-03-11", "title": "10 to Midnight", "video": false, "vote_average": 6.0, "vote_count": 73, "popularity": 9.514}, {"id": 4771, "video": false, "vote_count": 2134, "vote_average": 7.3, "title": "Gone Baby Gone", "release_date": "2007-09-18", "original_language": "en", "original_title": "Gone Baby Gone", "genre_ids": [80, 18, 9648], "backdrop_path": "/sogh5NXPbKFajjYKBlfIBfCWgbq.jpg", "adult": false, "overview": "When 4 year old Amanda McCready disappears from her home and the police make little headway in solving the case, the girl's aunt, Beatrice McCready hires two private detectives, Patrick Kenzie and Angie Gennaro. The detectives freely admit that they have little experience with this type of case, but the family wants them for two reasons - they're not cops and they know the tough neighborhood in which they all live. As the case progresses, Kenzie and Gennaro face drug dealers, gangs and pedophiles. When they are about to solve the case, they are faced with a moral dilemma that tears them apart.", "poster_path": "/dXXMPxGiRegd7NNCtE5uchAKRAG.jpg", "popularity": 16.498}, {"adult": false, "backdrop_path": "/uUYCUbgI5VxsUflTMI4Y9L2Y6vb.jpg", "genre_ids": [80, 18, 53], "id": 11423, "original_language": "ko", "original_title": "\uc0b4\uc778\uc758 \ucd94\uc5b5", "overview": "1986 Gyunggi Province. The body of a young woman is found brutally raped and murdered. Two months later, a series of rapes and murders commences under similar circumstances. And in a country that had never known such crimes, the dark whispers about a serial murderer grow louder. A special task force is set up in the area, with two local detectives Park Doo-Man and Jo Young-Goo joined by a detective from Seoul who requested to be assigned to the case.", "poster_path": "/gawnVe9cFowdoDLo9Pok12NTw39.jpg", "release_date": "2003-05-02", "title": "Memories of Murder", "video": false, "vote_average": 8.1, "vote_count": 1093, "popularity": 13.452}, {"adult": false, "backdrop_path": "/v761yOHKO3p6Yr7LDCjud6tUL5G.jpg", "genre_ids": [28, 80, 53], "id": 10651, "original_language": "en", "original_title": "The Dead Pool", "overview": "Dirty Harry Callahan returns for his final film adventure. Together with his partner Al Quan, he must investigate the systematic murder of actors and musicians. By the time Harry learns that the murders are a part of a sick game to predict the deaths of celebrities before they happen, it may be too late...", "poster_path": "/9ZUSqox9lIxN4xaYBac2QXMFcZj.jpg", "release_date": "1988-07-12", "title": "The Dead Pool", "video": false, "vote_average": 6.4, "vote_count": 389, "popularity": 10.626}, {"id": 37645, "video": false, "vote_count": 575, "vote_average": 6.5, "title": "22 Bullets", "release_date": "2010-03-23", "original_language": "fr", "original_title": "L'Immortel", "genre_ids": [28, 80, 53], "backdrop_path": "/mU8zfCOTbahNGH0ZBTCuNdX16gj.jpg", "adult": false, "overview": "Charly Mattei\u0308 has turned his back on his life as an outlaw. For the last three years, he's led a peaceful life devoting himself to his wife and two children. Then, one winter morning, he's left for dead in the parking garage in Marseille's Old Port, with 22 bullets in his body. Against all the odds, he doesn't die...", "poster_path": "/wTYZjPq4YA2wC99MdHZTFQuxFpd.jpg", "popularity": 12.785}, {"id": 321258, "video": false, "vote_count": 2424, "vote_average": 5.8, "title": "The Boy", "release_date": "2016-01-22", "original_language": "en", "original_title": "The Boy", "genre_ids": [27, 9648, 53], "backdrop_path": "/aOvgn3E5OjJDepApd1WtS2doqMF.jpg", "adult": false, "overview": "An American nanny is shocked that her new English family's boy is actually a life-sized doll. After she violates a list of strict rules, disturbing events make her believe that the doll is really alive.", "poster_path": "/yHhBfL2msdFWwLpjGSgPJpVmxQN.jpg", "popularity": 15.669}, {"adult": false, "backdrop_path": "/iLvqbCanH1liQ5VERCyCR31GkkL.jpg", "genre_ids": [35, 27, 878], "id": 15762, "original_language": "en", "original_title": "Night of the Creeps", "overview": "In 1959, an alien experiment crashes to earth and infects a fraternity member. They freeze the body, but in the modern day, two geeks pledging a fraternity accidentally thaw the corpse, which proceeds to infect the campus with parasites that transform their hosts into killer zombies.", "poster_path": "/A3s2tQGNb6mhlr1hPZeE5F8IUwp.jpg", "release_date": "1986-08-21", "title": "Night of the Creeps", "video": false, "vote_average": 6.6, "vote_count": 219, "popularity": 10.383}, {"adult": false, "backdrop_path": "/3TCPWrxQkfon82xPNtmpweOSVJc.jpg", "genre_ids": [18, 80, 9648, 10749, 53], "id": 12150, "original_language": "en", "original_title": "Sea of Love", "overview": "Seen-it-all New York detective Frank Keller is unsettled - he has done twenty years on the force and could retire, and he hasn't come to terms with his wife leaving him for a colleague. Joining up with an officer from another part of town to investigate a series of murders linked by the lonely hearts columns he finds he is getting seriously and possibly dangerously involved with Helen, one of the main suspects.", "poster_path": "/7DkkTHIX3hUqvsRv5sDmJAkCfKK.jpg", "release_date": "1989-09-15", "title": "Sea of Love", "video": false, "vote_average": 6.7, "vote_count": 290, "popularity": 10.636}, {"id": 15069, "video": false, "vote_count": 75, "vote_average": 5.4, "title": "W\u0394Z", "release_date": "2007-05-19", "original_language": "en", "original_title": "W\u0394Z", "genre_ids": [80, 18, 27, 53], "backdrop_path": "/nVwdXjnbfulc6cymFgOQJctpspr.jpg", "adult": false, "overview": "There is something horribly wrong with the bodies found in the dark city streets. Some are mutilated while others have the Price equation (w\u0394z = Cov (w,z) = \u03b2wzVz) carved into their flesh. Detective Eddie Argo and his new partner Helen Westcott unearth the meaning of the odd equation and realise each victim is being offered a gruesome choice: kill your loved ones, or be killed. Before long it becomes clear that the perpetrator has suffered a similar fate and is now coping by seeking a way to solve this philosophical dilemma.", "poster_path": "/8lPZ59iQRqUELprKuB0myy7u6Zm.jpg", "popularity": 7.935}, {"adult": false, "backdrop_path": "/xdha8DvElblfBbNnkpGsF42lAyv.jpg", "genre_ids": [28, 80, 53], "id": 2749, "original_language": "en", "original_title": "15 Minutes", "overview": "When Eastern European criminals Oleg and Emil come to New York City to pick up their share of a heist score, Oleg steals a video camera and starts filming their activities, both legal and illegal. When they learn how the American media circus can make a remorseless killer look like the victim and make them rich, they target media-savvy NYPD Homicide Detective Eddie Flemming and media-naive FDNY Fire Marshal Jordy Warsaw, the cops investigating their murder and torching of their former criminal partner, filming everything to sell to the local tabloid TV show \"Top Story.\"", "poster_path": "/qqqleHV8y7NLKt7isSZAvOwVPH6.jpg", "release_date": "2001-03-01", "title": "15 Minutes", "video": false, "vote_average": 5.8, "vote_count": 372, "popularity": 14.636}, {"id": 60670, "video": false, "vote_count": 765, "vote_average": 6.9, "title": "The Crimson Rivers", "release_date": "2000-09-26", "original_language": "fr", "original_title": "Les Rivi\u00e8res pourpres", "genre_ids": [80, 9648, 53], "backdrop_path": "/pXmMiqordTEbRTDNlKPnyielNVA.jpg", "adult": false, "overview": "Two French policemen, one investigating a grisly murder at a remote mountain college, the other working on the desecration of a young girl's grave by skinheads, are brought together by the clues from their respective cases. Soon after they start working together, more murders are committed, and the pair begin to discover just what dark secrets are behind the killings.", "poster_path": "/kkRgQST0bEdEgqpPZMGaUB1twsQ.jpg", "popularity": 11.569}, {"adult": false, "backdrop_path": "/oMqUz9knesAaAfjXPrF8yuNTycW.jpg", "genre_ids": [27], "id": 21484, "original_language": "fr", "original_title": "Possession", "overview": "A young woman left her family for an unspecified reason. The husband determines to find out the truth and starts following his wife. At first, he suspects that a man is involved. But gradually, he finds out more and more strange behaviors and bizarre incidents that indicate something more than a possessed love affair.", "poster_path": "/36dqEcj90gwnYIif9BqfuHXafyZ.jpg", "release_date": "1981-05-27", "title": "Possession", "video": false, "vote_average": 7.4, "vote_count": 360, "popularity": 14.655}, {"adult": false, "backdrop_path": "/iNuvbrHGNtrUwlm48u4KnQhhMKp.jpg", "genre_ids": [80, 18, 53], "id": 26390, "original_language": "en", "original_title": "Brooklyn's Finest", "overview": "Enforcing the law within the notoriously rough Brownsville section of the city and especially within the Van Dyke housing projects is the NYPD's sixty-fifth precinct. Three police officers struggle with the sometimes fine line between right and wrong.", "poster_path": "/jKSBk0LtZgXxG56uvwiAtYf6ttF.jpg", "release_date": "2009-01-16", "title": "Brooklyn's Finest", "video": false, "vote_average": 6.4, "vote_count": 500, "popularity": 11.822}, {"adult": false, "backdrop_path": "/3naOwcmYNZfd80kC1OXmembjc8j.jpg", "genre_ids": [53, 28, 18], "id": 445954, "original_language": "en", "original_title": "Acts of Vengeance", "overview": "A fast-talking lawyer transforms his body and takes a vow of silence, not to be broken until he finds out who killed his wife and daughter and has his revenge.", "poster_path": "/r5o6vWPYOQs6bv91gQ8kQs2zQYl.jpg", "release_date": "2017-10-27", "title": "Acts of Vengeance", "video": false, "vote_average": 5.7, "vote_count": 234, "popularity": 15.211}], "total_pages": 400, "total_results": 7991}, "recommendations": {"page": 1, "results": [], "total_pages": 1, "total_results": 0}, "credits": {"cast": [{"cast_id": 2, "character": "Liza", "credit_id": "5bcf80690e0a26623d01f1fb", "gender": 1, "id": 3897, "name": "Katie Holmes", "order": 1, "profile_path": "/eYeE0Z1sOvqxt7LsQHK30vUfWaM.jpg"}, {"cast_id": 3, "character": "Jude", "credit_id": "5bf35c58c3a36818ae0870e7", "gender": 2, "id": 1960997, "name": "Christopher Convery", "order": 2, "profile_path": "/xUGbUC15au8walzf6zphqC0YImH.jpg"}, {"cast_id": 4, "character": "Sean", "credit_id": "5bfc8070c3a3686476021cd0", "gender": 2, "id": 61527, "name": "Owain Yeoman", "order": 3, "profile_path": "/xrijlHgD2eNGogrcQwVGFo2xWuk.jpg"}, {"cast_id": 5, "character": "Joseph", "credit_id": "5bfc807a925141165401ce26", "gender": 2, "id": 202032, "name": "Ralph Ineson", "order": 4, "profile_path": "/zqvpAuiocN9hHjg6f9Dqu2S8y9x.jpg"}, {"cast_id": 16, "character": "Dr. Lawrence", "credit_id": "5d00f73c0e0a261377ca62c8", "gender": 1, "id": 87816, "name": "Anjali Jay", "order": 5, "profile_path": "/1gDAb1ZNIbQYwz49xsOyP35tVaL.jpg"}, {"cast_id": 17, "character": "Liam", "credit_id": "5d00f74c0e0a263f96cd9459", "gender": 0, "id": 1368508, "name": "Oliver Rice", "order": 6, "profile_path": "/8H0kGdzDUzgWoP7oqbR2FVydB42.jpg"}, {"cast_id": 18, "character": "Mary", "credit_id": "5d00f75a925141517fbdc22b", "gender": 1, "id": 173362, "name": "Joely Collins", "order": 7, "profile_path": null}, {"cast_id": 19, "character": "Pamela", "credit_id": "5d00f7680e0a263f96cd948e", "gender": 0, "id": 1451352, "name": "Natalie Moon", "order": 8, "profile_path": null}, {"cast_id": 20, "character": "Nurse Receptionist", "credit_id": "5d00f78392514142cabd5e03", "gender": 0, "id": 2336132, "name": "Joanne Kimm", "order": 9, "profile_path": null}], "crew": [{"credit_id": "5bcf80530e0a26623a01ed4e", "department": "Directing", "gender": 2, "id": 62768, "job": "Director", "name": "William Brent Bell", "profile_path": null}, {"credit_id": "5bcf806292514172d501b53f", "department": "Writing", "gender": 0, "id": 1447246, "job": "Writer", "name": "Stacey Menear", "profile_path": null}, {"credit_id": "5c6c217e925141250a0d50f9", "department": "Production", "gender": 2, "id": 3953, "job": "Producer", "name": "Gary Lucchesi", "profile_path": "/zQRUANlcJXa1TFVoCYK1vjIMmEh.jpg"}, {"credit_id": "5c6c218892514129a2017bcb", "department": "Production", "gender": 0, "id": 59416, "job": "Producer", "name": "Matt Berenson", "profile_path": null}, {"credit_id": "5c6c2192c3a3686fb6ddc5e8", "department": "Production", "gender": 2, "id": 21036, "job": "Producer", "name": "Roy Lee", "profile_path": "/fMY0MiVyrGaK44ejqWzT2txcRVI.jpg"}, {"credit_id": "5c6c219bc3a36843c6e7d5e8", "department": "Production", "gender": 2, "id": 68602, "job": "Producer", "name": "Tom Rosenberg", "profile_path": null}, {"credit_id": "5c6c21a4c3a3684f97e9593f", "department": "Production", "gender": 2, "id": 956248, "job": "Producer", "name": "Jim Wedaa", "profile_path": null}, {"credit_id": "5c6c21c20e0a260e9e99a78e", "department": "Production", "gender": 0, "id": 2245793, "job": "Executive Producer", "name": "Michael McKay", "profile_path": null}, {"credit_id": "5c6c21d8c3a3684fabe94fe8", "department": "Production", "gender": 1, "id": 989750, "job": "Casting", "name": "Deanna Brigidi", "profile_path": "/i3vm5iEf1K0zt6atEHrZkDDDm5Q.jpg"}, {"credit_id": "5c6c21e19251417aa20a6936", "department": "Art", "gender": 2, "id": 957310, "job": "Production Design", "name": "John Willett", "profile_path": null}, {"credit_id": "5c6c21eb0e0a265627a61d1a", "department": "Art", "gender": 0, "id": 2103808, "job": "Art Direction", "name": "Laurin Kelsey", "profile_path": null}, {"credit_id": "5d51cc2f18b751001445fb70", "department": "Production", "gender": 2, "id": 52790, "job": "Producer", "name": "Eric Reid", "profile_path": null}, {"credit_id": "5d51cc40b686b92411989feb", "department": "Production", "gender": 2, "id": 3954, "job": "Producer", "name": "Richard S. Wright", "profile_path": null}, {"credit_id": "5d51cc4d0102c96f39760bed", "department": "Production", "gender": 0, "id": 1626015, "job": "Executive Producer", "name": "Jackie Shenoo", "profile_path": null}, {"credit_id": "5d51cc5518b751001545f8c2", "department": "Production", "gender": 2, "id": 29015, "job": "Executive Producer", "name": "Robert Simonds", "profile_path": null}, {"credit_id": "5d51cc5e77e1f60014ae2479", "department": "Editing", "gender": 2, "id": 3189, "job": "Editor", "name": "Brian Berdan", "profile_path": "/6XdyyjxRcWX1vhkcmoeTjzq04RY.jpg"}, {"credit_id": "5d51cc9c77e1f60016ae2a97", "department": "Production", "gender": 1, "id": 1559145, "job": "Casting", "name": "Errin Lally", "profile_path": null}, {"credit_id": "5d51cd1117b5ef0014dc886b", "department": "Production", "gender": 0, "id": 2385683, "job": "Casting", "name": "Annalese Tilling", "profile_path": null}, {"credit_id": "5d51cd2117b5ef0017dc8983", "department": "Costume & Make-Up", "gender": 1, "id": 129988, "job": "Costume Design", "name": "Aieisha Li", "profile_path": null}, {"credit_id": "5d51cd2cb686b923f8989c8c", "department": "Production", "gender": 0, "id": 1551558, "job": "Unit Production Manager", "name": "Nicole Oguchi", "profile_path": null}]}}