{"adult": false, "backdrop_path": null, "belongs_to_collection": {"id": 148320, "name": "V\u00e4\u00e4peli K\u00f6rmy - Collection", "poster_path": "/xJjzqKxej2PT3FRgWLejOER0emP.jpg", "backdrop_path": null}, "budget": 0, "genres": [{"id": 35, "name": "Comedy"}], "homepage": null, "id": 55759, "imdb_id": "tt0122787", "original_language": "fi", "original_title": "V\u00e4\u00e4peli K\u00f6rmy ja kahtesti laukeava", "overview": "", "popularity": 1.862, "poster_path": "/pVnW7LV9EixKL8Aq46o2PjT0G2k.jpg", "production_companies": [], "production_countries": [{"iso_3166_1": "FI", "name": "Finland"}], "release_date": "1997-08-15", "revenue": 0, "runtime": 103, "spoken_languages": [{"iso_639_1": "fi", "name": "suomi"}], "status": "Released", "tagline": "", "title": "V\u00e4\u00e4peli K\u00f6rmy ja kahtesti laukeava", "video": false, "vote_average": 5.0, "vote_count": 4, "keywords": {"keywords": [{"id": 162365, "name": "military"}]}, "similar": {"page": 1, "results": [{"id": 13, "video": false, "vote_count": 16601, "vote_average": 8.4, "title": "Forrest Gump", "release_date": "1994-07-06", "original_language": "en", "original_title": "Forrest Gump", "genre_ids": [35, 18, 10749], "backdrop_path": "/wMgbnUVS9wbRGAdki8fqxKU1O0N.jpg", "adult": false, "overview": "A man with a low IQ has accomplished great things in his life and been present during significant historic events\u2014in each case, far exceeding what anyone imagined he could do. But despite all he has achieved, his one true love eludes him.", "poster_path": "/yE5d3BUhE8hCnkMUJOo1QDoOGNz.jpg", "popularity": 46.241}, {"id": 402897, "video": false, "vote_count": 876, "vote_average": 7.0, "title": "The Death of Stalin", "release_date": "2017-10-20", "original_language": "en", "original_title": "The Death of Stalin", "genre_ids": [35, 36], "backdrop_path": "/tx5TFMF85qU2Ug4TRIGQZbDpzFA.jpg", "adult": false, "overview": "When tyrannical dictator Josef Stalin dies in 1953, his parasitic cronies square off in a frantic power struggle to become the next Soviet leader. Among the contenders are the dweebish Georgy Malenkov, the wily Nikita Khrushchev and Lavrenti Beria, the sadistic secret police chief.", "poster_path": "/xAKqG5SpsHU7vI6Fh4UYxFrDDZZ.jpg", "popularity": 14.828}, {"id": 2605, "video": false, "vote_count": 872, "vote_average": 6.5, "title": "Short Circuit", "release_date": "1986-05-09", "original_language": "en", "original_title": "Short Circuit", "genre_ids": [35, 878, 10751], "backdrop_path": "/yoOgUFzKst23wCcW4TdakAJ1lXd.jpg", "adult": false, "overview": "After a lightning bolt zaps a robot named Number 5, the lovable machine starts to think he's human and escapes the lab. Hot on his trail is his designer, Newton, who hopes to get to Number 5 before the military does. In the meantime, a spunky animal lover mistakes the robot for an alien and takes him in, teaching her new guest about life on Earth.", "poster_path": "/7HGVea7ful5Hvm7yngAQhIXubJv.jpg", "popularity": 13.746}, {"id": 222936, "video": false, "vote_count": 1346, "vote_average": 5.4, "title": "Aloha", "release_date": "2015-05-27", "original_language": "en", "original_title": "Aloha", "genre_ids": [35, 18, 10749], "backdrop_path": "/o8KUFmZlAmi4dgbNxyVf5PH0GL3.jpg", "adult": false, "overview": "A celebrated military contractor returns to the site of his greatest career triumphs and re-connects with a long-ago love while unexpectedly falling for the hard-charging Air Force watchdog assigned to him.", "poster_path": "/4Q0rnkCsQ9GhdnR66Bqjvav2Q1x.jpg", "popularity": 13.955}, {"adult": false, "backdrop_path": "/bJgsq1Z5UCG3hAaP2Um5Mkmnbng.jpg", "genre_ids": [35, 10749], "id": 24405, "original_language": "en", "original_title": "Chasers", "overview": "Military men Rock Reilly and Eddie Devane are tasked with taking a prisoner, blonde bombshell Toni Johnson, on what becomes an unforgettable road trip. Toni, an enlistee who's in trouble for deserting her unit, soon proves that she's craftier than most inmates.", "poster_path": "/j8Q7pQ27hvH54wpxJzIuQgQCdro.jpg", "release_date": "1994-04-22", "title": "Chasers", "video": false, "vote_average": 5.1, "vote_count": 60, "popularity": 9.34}, {"adult": false, "backdrop_path": "/lWHrCRXkZQPwgIHTiVL2YPGpU38.jpg", "genre_ids": [35, 10749], "id": 270343, "original_language": "fr", "original_title": "Les Combattants", "overview": "Arnaud, facing an uncertain future and a dearth of choices in a small French coastal town, meets and falls for the apocalyptic-minded Madeleine, who joins an army boot camp to learn military and survival skills to prepare for the upcoming environmental collapse. Intrigued and excited by Madeleine\u2019s wild ideas, Arnaud signs up for the boot camp himself. They soon realize that the boot camp is harder than they\u2019d imagined, but the experience nonetheless cements them together as the couple continues to explore their young love.", "poster_path": "/cvNdGacd4IDq0pA6Pbphi1HEQkl.jpg", "release_date": "2014-08-20", "title": "Love at First Fight", "video": false, "vote_average": 6.5, "vote_count": 273, "popularity": 5.537}, {"adult": false, "backdrop_path": "/i4ifG2jrtqc9QpJrmr9afqU5KAg.jpg", "genre_ids": [10752, 35, 18], "id": 14968, "original_language": "ko", "original_title": "\uc6f0\ucef4 \ud22c \ub3d9\ub9c9\uace8", "overview": "Based on the long running play by Jang Jin, the story is set in Korea during the Korean War in 1950. Soldiers from both the North and South, as well as an American pilot, find themselves in a secluded and naively idealistic village, its residents unaware of the outside world, including the war.", "poster_path": "/5iGVw8AdnUJ3xNaZ5iipfsv2e5.jpg", "release_date": "2005-08-04", "title": "Welcome to Dongmakgol", "video": false, "vote_average": 7.5, "vote_count": 85, "popularity": 9.0}, {"adult": false, "backdrop_path": "/nq60mZOlrD4mZJg1T4hHUtWTIkN.jpg", "genre_ids": [12, 14, 28, 53], "id": 1979, "original_language": "en", "original_title": "Fantastic Four: Rise of the Silver Surfer", "overview": "The Fantastic Four return to the big screen as a new and all powerful enemy threatens the Earth. The seemingly unstoppable 'Silver Surfer', but all is not what it seems and there are old and new enemies that pose a greater threat than the intrepid superheroes realize.", "poster_path": "/fXpziQgnBnB4bLgjKhjTbLQumE5.jpg", "release_date": "2007-06-13", "title": "Fantastic Four: Rise of the Silver Surfer", "video": false, "vote_average": 5.5, "vote_count": 5275, "popularity": 33.44}, {"id": 828, "video": false, "vote_count": 556, "vote_average": 7.5, "title": "The Day the Earth Stood Still", "release_date": "1951-09-17", "original_language": "en", "original_title": "The Day the Earth Stood Still", "genre_ids": [878], "backdrop_path": "/uExEupzfV7Ffau0H98aefUU0zcG.jpg", "adult": false, "overview": "An alien and a robot land on earth after World War II and tell mankind to be peaceful or face destruction. A classic science fiction film from Robert Wise with an exceptional message.", "poster_path": "/x2DquTpLTq54aPFDnqlwY7apCC3.jpg", "popularity": 28.171}, {"id": 453075, "video": false, "vote_count": 3, "vote_average": 7.0, "title": "One Summer Night", "release_date": "2017-04-06", "original_language": "ko", "original_title": "\uc5b4\ub290 \uc5ec\ub984\ub0a0 \ubc24\uc5d0", "genre_ids": [18], "backdrop_path": "/1oQcW3xi7IFbInWnhgG1Eir4RAL.jpg", "adult": false, "overview": "In the winter of 2013, Yong-jun and Jae-sung, a member of the Korean People\u2019s Army, Their sex scene is caught by the superior. After all, Yong-jun decided to defect from North Korea leaving Jae-sung.", "poster_path": "/bKdk8hNlsGYDPXPEPRKtUjcwiQx.jpg", "popularity": 7.868}, {"id": 181283, "video": false, "vote_count": 988, "vote_average": 6.2, "title": "Child 44", "release_date": "2015-03-15", "original_language": "en", "original_title": "Child 44", "genre_ids": [80, 53], "backdrop_path": "/A2WK7mdiKHaxgE4hRyKuDIM4KGg.jpg", "adult": false, "overview": "Set in Stalin-era Soviet Union, a disgraced MGB agent is dispatched to investigate a series of child murders -- a case that begins to connect with the very top of party leadership.", "poster_path": "/nzXwfnBcsmREzHlem6fkStN1RUH.jpg", "popularity": 19.529}, {"adult": false, "backdrop_path": "/6kVVfNT0auG6fU5SFQ1zbayNWUC.jpg", "genre_ids": [28, 53, 878], "id": 7191, "original_language": "en", "original_title": "Cloverfield", "overview": "Five young New Yorkers throw their friend a going-away party the night that a monster the size of a skyscraper descends upon the city. Told from the point of view of their video camera, the film is a document of their attempt to survive the most surreal, horrifying event of their lives.", "poster_path": "/qIegUGJqyMMCRjkKV1s7A9MqdJ8.jpg", "release_date": "2008-01-15", "title": "Cloverfield", "video": false, "vote_average": 6.5, "vote_count": 4423, "popularity": 14.46}, {"id": 346910, "video": false, "vote_count": 2440, "vote_average": 5.3, "title": "The Predator", "release_date": "2018-09-05", "original_language": "en", "original_title": "The Predator", "genre_ids": [28, 12, 27, 878, 53], "backdrop_path": "/f4E0ocYeToEuXvczZv6QArrMDJ.jpg", "adult": false, "overview": "When a kid accidentally triggers the universe's most lethal hunters' return to Earth, only a ragtag crew of ex-soldiers and a disgruntled female scientist can prevent the end of the human race.", "poster_path": "/wMq9kQXTeQCHUZOG4fAe5cAxyUA.jpg", "popularity": 29.699}, {"adult": false, "backdrop_path": "/cVpBJxRBIwTjajKQ08TE6BINTEu.jpg", "genre_ids": [878, 28, 12], "id": 1724, "original_language": "en", "original_title": "The Incredible Hulk", "overview": "Scientist Bruce Banner scours the planet for an antidote to the unbridled force of rage within him: the Hulk. But when the military masterminds who dream of exploiting his powers force him back to civilization, he finds himself coming face to face with a new, deadly foe.", "poster_path": "/gCQ4e8klADtzoa6bL7XLPnjiUIg.jpg", "release_date": "2008-06-12", "title": "The Incredible Hulk", "video": false, "vote_average": 6.2, "vote_count": 7023, "popularity": 31.587}, {"id": 563, "video": false, "vote_count": 2704, "vote_average": 6.9, "title": "Starship Troopers", "release_date": "1997-11-07", "original_language": "en", "original_title": "Starship Troopers", "genre_ids": [28, 12, 878, 53], "backdrop_path": "/cYWI1lnHEvoVKDdlrRt2b5et3Bj.jpg", "adult": false, "overview": "Set in the future, the story follows a young soldier named Johnny Rico and his exploits in the Mobile Infantry. Rico's military career progresses from recruit to non-commissioned officer and finally to officer against the backdrop of an interstellar war between mankind and an arachnoid species known as \"the Bugs\".", "poster_path": "/zeCD9WkhABFJmPq3SlTozXJGEtr.jpg", "popularity": 20.687}, {"id": 1927, "video": false, "vote_count": 3504, "vote_average": 5.4, "title": "Hulk", "release_date": "2003-06-19", "original_language": "en", "original_title": "Hulk", "genre_ids": [28, 878], "backdrop_path": "/kVxquPLBzAIq2NmlbWjTsfZBFh5.jpg", "adult": false, "overview": "Bruce Banner, a genetics researcher with a tragic past, suffers massive radiation exposure in his laboratory that causes him to transform into a raging green monster when he gets angry.", "poster_path": "/ogCQV6mnLtCJuiiHtMB83jvSRfY.jpg", "popularity": 29.829}, {"id": 18, "video": false, "vote_count": 6834, "vote_average": 7.5, "title": "The Fifth Element", "release_date": "1997-05-02", "original_language": "en", "original_title": "The Fifth Element", "genre_ids": [28, 12, 14, 878, 53], "backdrop_path": "/qlGoGQSVMzIjGbpvXzZUOH1FjNu.jpg", "adult": false, "overview": "In 2257, a taxi driver is unintentionally given the task of saving a young girl who is part of the key that will ensure the survival of humanity.", "poster_path": "/zaFa1NRZEnFgRTv5OVXkNIZO78O.jpg", "popularity": 40.969}, {"id": 339964, "video": false, "vote_count": 4614, "vote_average": 6.6, "title": "Valerian and the City of a Thousand Planets", "release_date": "2017-07-20", "original_language": "en", "original_title": "Valerian and the City of a Thousand Planets", "genre_ids": [28, 12, 878], "backdrop_path": "/5rYnygKCkmqWuMv1O5yAnzGF8gV.jpg", "adult": false, "overview": "In the 28th century, Valerian and Laureline are special operatives charged with keeping order throughout the human territories. On assignment from the Minister of Defense, the two undertake a mission to Alpha, an ever-expanding metropolis where species from across the universe have converged over centuries to share knowledge, intelligence, and cultures. At the center of Alpha is a mysterious dark force which threatens the peaceful existence of the City of a Thousand Planets, and Valerian and Laureline must race to identify the menace and safeguard not just Alpha, but the future of the universe.", "poster_path": "/jfIpMh79fGRqYJ6PwZLCntzgxlF.jpg", "popularity": 28.788}, {"id": 857, "video": false, "vote_count": 9339, "vote_average": 8.1, "title": "Saving Private Ryan", "release_date": "1998-07-24", "original_language": "en", "original_title": "Saving Private Ryan", "genre_ids": [18, 36, 10752], "backdrop_path": "/hjQp148VjWF4KjzhsD90OCMr11h.jpg", "adult": false, "overview": "As U.S. troops storm the beaches of Normandy, three brothers lie dead on the battlefield, with a fourth trapped behind enemy lines. Ranger captain John Miller and seven men are tasked with penetrating German-held territory and bringing the boy home.", "poster_path": "/35CMz4t7PuUiQqt5h4u5nbrXZlF.jpg", "popularity": 35.648}, {"id": 329865, "video": false, "vote_count": 11409, "vote_average": 7.5, "title": "Arrival", "release_date": "2016-11-10", "original_language": "en", "original_title": "Arrival", "genre_ids": [18, 9648, 878], "backdrop_path": "/yIZ1xendyqKvY3FGeeUYUd5X9Mm.jpg", "adult": false, "overview": "Taking place after alien crafts land around the world, an expert linguist is recruited by the military to determine whether they come in peace or are a threat.", "poster_path": "/xGgg2UI20qtEh7mura3RRwP8d3I.jpg", "popularity": 36.625}], "total_pages": 12, "total_results": 231}, "recommendations": {"page": 1, "results": [{"adult": false, "backdrop_path": null, "genre_ids": [], "id": 55763, "original_language": "fi", "original_title": "V\u00e4\u00e4peli K\u00f6rmy - Taisteluni", "overview": "", "poster_path": "/g6YFT6pbUrzTQEGh6ODvDC0gCLZ.jpg", "release_date": "1994-09-16", "title": "V\u00e4\u00e4peli K\u00f6rmy - Taisteluni", "video": false, "vote_average": 5.0, "vote_count": 4, "popularity": 2.117}, {"adult": false, "backdrop_path": null, "genre_ids": [], "id": 55754, "original_language": "fi", "original_title": "V\u00e4\u00e4peli K\u00f6rmy ja vetenalaiset vehkeet", "overview": "Sergeant Friman is developing an automatic submarine detector that piques the interest of both, Swedish and Russian spies.", "poster_path": "/e50Ir6smSGS1pJumPgVhVKdSEeK.jpg", "release_date": "1991-10-18", "title": "Sergeant K\u00f6rmy and the Underwater Vehicles", "video": false, "vote_average": 4.8, "vote_count": 5, "popularity": 1.06}, {"adult": false, "backdrop_path": null, "genre_ids": [], "id": 55761, "original_language": "fi", "original_title": "V\u00e4\u00e4peli K\u00f6rmy ja etel\u00e4n hetelm\u00e4t", "overview": "", "poster_path": "/yreYcuTbqU119COp0zNiJXJZ2EQ.jpg", "release_date": "1992-10-09", "title": "V\u00e4\u00e4peli K\u00f6rmy ja etel\u00e4n hetelm\u00e4t", "video": false, "vote_average": 4.4, "vote_count": 5, "popularity": 2.223}, {"adult": false, "backdrop_path": null, "genre_ids": [35], "id": 36772, "original_language": "fi", "original_title": "Koeputkiaikuinen ja Simon enkelit", "overview": "Mathematician Mauno Mutikainen is accidentally pronounced dead as a result of an operation where a splinter is being removed from his finger (which he got by scratching his head). He is then cloned into a test-tube adult (a play on the phrase test-tube child) named Richard Ilyevitch Jyr\u00e4 by his creator (father and mother) Dr. Jyr\u00e4 (his name is intended to appeal to both American and Soviet sensibilities). Loiri and Ahonen play the roles of gangster attempting to kidnap Jyr\u00e4 and/or Mutikainen, thinking they are the same person. Both would reprise their roles for 1980's Tup-akka-lakko. Additionally Loiri portrays a slew of characters such as a drunk hockey-fan attempting to get to Moscow and making a guest-appearance as Uuno Turhapuro at the end. Simo Salminen once more plays a character named after himself who is the head of a detective agency called Simon Enkelit (an obvious take on Charlie's Angels).", "poster_path": "/a7RSwmSHQCPpbVBGxDcjQ1aCfqj.jpg", "release_date": "1979-10-12", "title": "The Test-tube Adult and Simo's Angels", "video": false, "vote_average": 6.4, "vote_count": 5, "popularity": 1.067}, {"adult": false, "backdrop_path": null, "genre_ids": [28, 878], "id": 148591, "original_language": "fi", "original_title": "Ukkonen", "overview": "Ukkonen (means Thunder) is a short film about a man called Ukkonen who was turned into a radioactive man in an accident in the Generator Corporation research plant, company secretly designing radioactive weapons with an energy business as a cover. Ukkonen starts his crusade to bring the company down and get his revenge.  Nice quality for an independent production, even some special effects and some funny, overdramatic monologue by Ukkonen. Unfortunately the film is very short, lasting only about 20 minutes.  Worth checking out if you somehow find this film.", "poster_path": "/2049dApYX6UHgceTnwZPi5WBAIG.jpg", "release_date": "2001-09-24", "title": "Ukkonen", "video": false, "vote_average": 5.3, "vote_count": 7, "popularity": 1.4}, {"adult": false, "backdrop_path": "/oT44DiDuAGMOiu3hZ4ayPwIU7l6.jpg", "genre_ids": [35], "id": 55756, "original_language": "fi", "original_title": "V\u00e4\u00e4peli K\u00f6rmy ja marsalkan sauva", "overview": "The colonel's wife's tin pints need to be cleaned up, and Sergeant First Class K\u00f6rmy tasks two privates to do so.", "poster_path": "/mfO2dyaYhI9zE9Pdo2kljM78IJ4.jpg", "release_date": "1990-11-02", "title": "Sergeant K\u00f6rmy and the Marshall's Stick", "video": false, "vote_average": 4.5, "vote_count": 6, "popularity": 1.96}, {"adult": false, "backdrop_path": "/pMFwM7PMPIlC79iexSuEYoBmQnR.jpg", "genre_ids": [], "id": 362204, "original_language": "fi", "original_title": "Kun Hunttalan Matti Suomen osti", "overview": "", "poster_path": "/869uOLY40U6crMJwIecq9TPZ3xQ.jpg", "release_date": "1984-10-25", "title": "Kun Hunttalan Matti Suomen osti", "video": false, "vote_average": 5.0, "vote_count": 3, "popularity": 1.683}, {"adult": false, "backdrop_path": "/kqWFRQLYKhSy0oMK1EhfkPwIGYD.jpg", "genre_ids": [18], "id": 71913, "original_language": "en", "original_title": "Erottamattomat", "overview": "Taru el\u00e4\u00e4 ratsutilalla harmonista el\u00e4m\u00e4\u00e4 miehens\u00e4 Harrin ja tyt\u00e4rpuolensa Ninnin kanssa. Kaikki muuttuu, kun Ninni loukkaantuu hevosonnettomuudessa. Kymmenen vuotta sitten Ruotsiin l\u00e4htenyt Ninnin biologinen \u00e4iti Eve kutsutaan paikalle Tarun pyynn\u00f6st\u00e4. Even pikaiseksi kuviteltu k\u00e4ynti muuttuu pidemm\u00e4ksi vierailuksi, kun Eve tajuaa, ett\u00e4 h\u00e4n haluaa menetetyt kymmenen vuotta el\u00e4m\u00e4st\u00e4\u00e4n takaisin. Kauan kytenyt kaipaus Ninni-tyt\u00e4rt\u00e4 kohtaan nousee pintaan. V\u00e4h\u00e4 v\u00e4h\u00e4lt\u00e4 Eve alkaa vallata tilaa perheest\u00e4 takaisin itselleen, jolloin Taru menett\u00e4\u00e4 el\u00e4m\u00e4ns\u00e4 hallinnan. Esiin nousee syyllisyytt\u00e4 ja muistoja - rakkaitakin, vihaa ja tarvitsevuutta. Kaikki mink\u00e4 Taru luuli olevan ehj\u00e4\u00e4 ja hallinnassa, kyseenalaistuu. Kymmenen vuotta puhumattomana olleet asiat vaativat selvitt\u00e4mist\u00e4 ja kaikki nelj\u00e4 joutuvat etsim\u00e4\u00e4n oman paikkansa uudessa tilanteessa.", "poster_path": "/eKJolH3X1BjmH5cbfmXACPsnuhr.jpg", "release_date": "2008-09-05", "title": "Sisters Apart", "video": false, "vote_average": 6.0, "vote_count": 3, "popularity": 1.735}, {"adult": false, "backdrop_path": "/m8noP5ckub2JJf9Ofujqhi31e3o.jpg", "genre_ids": [35], "id": 61070, "original_language": "fi", "original_title": "Pekka ja P\u00e4tk\u00e4 lumimiehen j\u00e4ljill\u00e4", "overview": "", "poster_path": "/95A4FwBcujUJWa5GuKda8wJ6BpQ.jpg", "release_date": "1954-07-30", "title": "Pekka ja P\u00e4tk\u00e4 lumimiehen j\u00e4ljill\u00e4", "video": false, "vote_average": 4.8, "vote_count": 4, "popularity": 1.4}, {"adult": false, "backdrop_path": "/nWHgNih7fPVbsyjO7hhm9FHQ6Bm.jpg", "genre_ids": [18, 35], "id": 112383, "original_language": "fi", "original_title": "Lampaansy\u00f6j\u00e4t", "overview": "Valtteri and Sepe, two ordinary white-collar guys from southern Finland drive up north to implement a plan they've been hatching for months. Because they simply love the taste of lamb, baked \"robber-style\" in a hole dug under a campfire, they forge their car's number plates and other important documents just to be able to poach sheep grazing on the roadside without getting caught. Lots of man talk around the campfire, aided by lots of booze. The summer may be wet, but the vodka is definitely dry.", "poster_path": "/n0QumHGyGL3uAyDNeGQhpAHqICS.jpg", "release_date": "1972-11-17", "title": "The Sheep Eaters", "video": false, "vote_average": 5.0, "vote_count": 3, "popularity": 1.424}, {"adult": false, "backdrop_path": "/pjxGILi4tOm1ghoH9BXK8Q6gtTg.jpg", "genre_ids": [35], "id": 36769, "original_language": "fi", "original_title": "Uuno Epsanjassa", "overview": "Uuno Turhapuro is searching for a job and takes a correspondence course in tour guiding. Eventually he gets a job in a small travel agency and takes a group of Finnish tourists to Marbella, Spain. Unfortunately Uuno's father-in-law Tuura is in the group, too, with his wife and daughter, Uuno's wife Elisabet. Tuura tries to get a signature to an important paper from a minister who's having a holiday in the area. Meanwhile, Uuno just relaxes and enjoys the sun.", "poster_path": "/4EsFMtAKTJyrHDBmfvPkry09Eei.jpg", "release_date": "1985-09-27", "title": "Uuno Epsanjassa", "video": false, "vote_average": 6.8, "vote_count": 8, "popularity": 2.849}, {"adult": false, "backdrop_path": "/w9ojHNlo8nB5XlA5GhZptcIcDw0.jpg", "genre_ids": [18], "id": 102249, "original_language": "fi", "original_title": "Veturimiehet heiluttaa", "overview": "Veturimiehet heiluttaa on 4. syyskuuta 1992 ensi-iltansa saanut suomalainen elokuva. Elokuva on kuvattu suurimmaksi osaksi Porissa. Veturimiehet heiluttaa sai ensi-iltansa Ruotsissa 26. maaliskuuta 1993.", "poster_path": "/v1plgUtYD66SNiLiT94g1kS9yHK.jpg", "release_date": "1992-09-04", "title": "Goodbye Trainmen", "video": false, "vote_average": 7.0, "vote_count": 8, "popularity": 2.108}, {"adult": false, "backdrop_path": "/wQpkwm5PJdpx9vvA3oOS8d91w1x.jpg", "genre_ids": [35], "id": 76677, "original_language": "fi", "original_title": "Pekka ja P\u00e4tk\u00e4 ketjukolarissa", "overview": "", "poster_path": "/pA9Tei197jfuIAfrn4cghnBiWyp.jpg", "release_date": "1957-03-01", "title": "Pete and Runt in a Chain Collision", "video": false, "vote_average": 4.8, "vote_count": 4, "popularity": 1.687}, {"adult": false, "backdrop_path": "/cZTfycTOlU4NyuJerGnP1VlwNSY.jpg", "genre_ids": [28, 35], "id": 88126, "original_language": "fi", "original_title": "Romanovin kivet", "overview": "This action packed Finnish thriller tells the tale of two friends who get their revenge against the millionaire who double-crossed them. Patrick and Tony are hired by the wealthy gambler to steal the priceless Romanov stones, Russian jewels. They do it, but almost lose their lives when he double-crosses them. They turn around and get revenge, his money, his wife, and his daughter.", "poster_path": "/6SuXdsf5gKStRXGW7DkWEhPDGIL.jpg", "release_date": "1993-11-26", "title": "Romanovin kivet", "video": false, "vote_average": 5.0, "vote_count": 9, "popularity": 1.4}, {"adult": false, "backdrop_path": "/z0xrLsbpn7ZulewuhHffbgy8SKK.jpg", "genre_ids": [35], "id": 140036, "original_language": "fi", "original_title": "Loma", "overview": "After a mixup at the check-in, Aimo Niemi boards a charter plane bound for the sunny island of Rhodes, Greece, instead of the Innsbruck Winter Olympics he's packed for. It's the early days of package tourism, and he is too shy and clueless to really sort out any of his problems \u2014 a suitcase filled with women's clothes, a flirtatious female roommate, and no money to buy food since he was prepared for full room &amp; board in Austria.", "poster_path": "/rgHaHLZFbru8xh33a4Xe4hcPTOT.jpg", "release_date": "1976-12-17", "title": "Olympian Holiday", "video": false, "vote_average": 6.3, "vote_count": 4, "popularity": 1.4}], "total_pages": 1, "total_results": 15}, "credits": {"cast": [{"cast_id": 2, "character": "V\u00e4\u00e4peli K\u00f6rmy", "credit_id": "52fe48dec3a36847f817dccb", "gender": 2, "id": 147771, "name": "Heikki Kinnunen", "order": 0, "profile_path": "/aZPhhdpjHXziNLER3xvxuKtDiYj.jpg"}, {"cast_id": 3, "character": "Kapteeni Kuortti", "credit_id": "52fe48dec3a36847f817dccf", "gender": 2, "id": 53509, "name": "Vesa Vierikko", "order": 1, "profile_path": "/5Obcvueb6CtzPFVOTYSf555OLKw.jpg"}, {"cast_id": 4, "character": "V\u00e4nrikki Nappula", "credit_id": "52fe48dec3a36847f817dcd3", "gender": 0, "id": 223073, "name": "Tom P\u00f6ysti", "order": 2, "profile_path": null}, {"cast_id": 5, "character": "Kenraali Gustafson", "credit_id": "52fe48dec3a36847f817dcd7", "gender": 2, "id": 223074, "name": "Kalevi Kahra", "order": 3, "profile_path": "/dJqxOPr81oTxfVg5bCt2744ZRSS.jpg"}, {"cast_id": 6, "character": "Eversti", "credit_id": "52fe48dec3a36847f817dcdb", "gender": 2, "id": 89502, "name": "Martti Suosalo", "order": 4, "profile_path": "/15F757Yp3CNcBHsD8tJ4HG4l5O0.jpg"}, {"cast_id": 7, "character": "Luutnantti Sirola-Kuortti", "credit_id": "52fe48dec3a36847f817dcdf", "gender": 0, "id": 223077, "name": "Mari Vainio", "order": 5, "profile_path": null}, {"cast_id": 8, "character": "Alikersantti Friman", "credit_id": "52fe48dec3a36847f817dce3", "gender": 0, "id": 143125, "name": "Jukka Puotila", "order": 6, "profile_path": "/wWnxxCCCRrw683AyxcAfUw8v7Tf.jpg"}, {"cast_id": 9, "character": "Alikersantti T\u00f6r\u00f6nen", "credit_id": "52fe48dec3a36847f817dce7", "gender": 0, "id": 148019, "name": "Kari-Pekka Toivonen", "order": 7, "profile_path": "/ohraNBmFtPWwJJQOzutmRnJshZe.jpg"}, {"cast_id": 17, "character": "Porttivahti R\u00e4ikk\u00f6nen", "credit_id": "588612a29251413b7200001c", "gender": 2, "id": 88856, "name": "Jani Volanen", "order": 8, "profile_path": "/wbERJ4e09APzsb1uppXusZGpfD2.jpg"}, {"cast_id": 11, "character": "Alikersantti Hakkarainen", "credit_id": "52fe48dec3a36847f817dcef", "gender": 2, "id": 89511, "name": "Pekka Huotari", "order": 10, "profile_path": "/stXHvMH86HKPitqqiarKNnVGVxI.jpg"}, {"cast_id": 12, "character": "Alikersantti Sulonen", "credit_id": "52fe48dec3a36847f817dcf3", "gender": 0, "id": 108853, "name": "Pertti Koivula", "order": 11, "profile_path": "/k3M4kWrvWj65Yu8J5O8vJxEFPC6.jpg"}, {"cast_id": 13, "character": "Alikersantti H\u00f6n\u00f6", "credit_id": "52fe48dec3a36847f817dcf7", "gender": 0, "id": 125587, "name": "Santeri Kinnunen", "order": 12, "profile_path": "/jt5NqtiCWh0QXhNJkVzXsKYyfc2.jpg"}, {"cast_id": 14, "character": "Alikersantti", "credit_id": "52fe48dfc3a36847f817dcfb", "gender": 0, "id": 147737, "name": "Eero Saarinen", "order": 13, "profile_path": null}, {"cast_id": 15, "character": "#1 naisveteraani", "credit_id": "52fe48dfc3a36847f817dcff", "gender": 1, "id": 222317, "name": "Kristiina Halkola", "order": 14, "profile_path": "/qR6yvhHnD1SAKlyZ0JyxwEvTzYF.jpg"}, {"cast_id": 16, "character": "#3 naisveteraani", "credit_id": "52fe48dfc3a36847f817dd03", "gender": 1, "id": 148323, "name": "Titta Jokinen", "order": 15, "profile_path": "/xRflBvBIjqizNVMdBCa1GVUGHhg.jpg"}], "crew": [{"credit_id": "52fe48dec3a36847f817dcc7", "department": "Directing", "gender": 2, "id": 116155, "job": "Director", "name": "Ere Kokkonen", "profile_path": "/bMkMefmjTlaYVWIwGH0eR5zpklj.jpg"}, {"credit_id": "588612fc9251413b6e000094", "department": "Writing", "gender": 2, "id": 116155, "job": "Writer", "name": "Ere Kokkonen", "profile_path": "/bMkMefmjTlaYVWIwGH0eR5zpklj.jpg"}]}}