{"adult": false, "backdrop_path": null, "belongs_to_collection": null, "budget": 20000, "genres": [{"id": 878, "name": "Science Fiction"}], "homepage": "https://starwarsdresca.com/", "id": 557891, "imdb_id": "tt8231960", "original_language": "en", "original_title": "Star Wars: Dresca", "overview": "When Dresca - an injured Imperial pilot - is rescued by rebels after the Battle of Endor, she must choose between her loyalty to the Empire and the kindness of strangers she once thought of as monsters.", "popularity": 0.6, "poster_path": "/v100TPcl72RlvJ31FXUdGMQYEVW.jpg", "production_companies": [], "production_countries": [], "release_date": "", "revenue": 0, "runtime": 7, "spoken_languages": [{"iso_639_1": "en", "name": "English"}], "status": "Released", "tagline": "When one war ends, another begins.", "title": "Star Wars: Dresca", "video": false, "vote_average": 8.0, "vote_count": 2, "keywords": {"keywords": [{"id": 189978, "name": "fan film"}, {"id": 248859, "name": "dresca"}]}, "similar": {"page": 1, "results": [{"id": 1894, "video": false, "vote_count": 8118, "vote_average": 6.5, "title": "Star Wars: Episode II - Attack of the Clones", "release_date": "2002-05-15", "original_language": "en", "original_title": "Star Wars: Episode II - Attack of the Clones", "genre_ids": [28, 12, 878], "backdrop_path": "/vovhXw10DSsRS9yoVbZqb60pXyX.jpg", "adult": false, "overview": "Following an assassination attempt on Senator Padm\u00e9 Amidala, Jedi Knights Anakin Skywalker and Obi-Wan Kenobi investigate a mysterious plot that could change the galaxy forever.", "poster_path": "/2vcNFtrZXNwIcBgH5e2xXCmVR8t.jpg", "popularity": 23.371}, {"id": 11, "video": false, "vote_count": 12747, "vote_average": 8.2, "title": "Star Wars", "release_date": "1977-05-25", "original_language": "en", "original_title": "Star Wars", "genre_ids": [28, 12, 878], "backdrop_path": "/4iJfYYoQzZcONB9hNzg0J0wWyPH.jpg", "adult": false, "overview": "Princess Leia is captured and held hostage by the evil Imperial forces in their effort to take over the galactic Empire. Venturesome Luke Skywalker and dashing captain Han Solo team together with the loveable robot duo R2-D2 and C-3PO to rescue the beautiful princess and restore peace and justice in the Empire.", "poster_path": "/btTdmkgIvOi0FFip1sPuZI2oQG6.jpg", "popularity": 57.029}, {"id": 140607, "video": false, "vote_count": 13675, "vote_average": 7.4, "title": "Star Wars: The Force Awakens", "release_date": "2015-12-15", "original_language": "en", "original_title": "Star Wars: The Force Awakens", "genre_ids": [28, 12, 14, 878], "backdrop_path": "/c2Ax8Rox5g6CneChwy1gmu4UbSb.jpg", "adult": false, "overview": "Thirty years after defeating the Galactic Empire, Han Solo and his allies face a new threat from the evil Kylo Ren and his army of Stormtroopers.", "poster_path": "/weUSwMdQIa3NaXVzwUoIIcAi85d.jpg", "popularity": 37.271}, {"id": 1891, "video": false, "vote_count": 10794, "vote_average": 8.4, "title": "The Empire Strikes Back", "release_date": "1980-05-20", "original_language": "en", "original_title": "The Empire Strikes Back", "genre_ids": [28, 12, 878], "backdrop_path": "/amYkOxCwHiVTFKendcIW0rSrRlU.jpg", "adult": false, "overview": "The epic saga continues as Luke Skywalker, in hopes of defeating the evil Galactic Empire, learns the ways of the Jedi from aging master Yoda. But Darth Vader is more determined than ever to capture Luke. Meanwhile, rebel leader Princess Leia, cocky Han Solo, Chewbacca, and droids C-3PO and R2-D2 are thrown into various stages of capture, betrayal and despair.", "poster_path": "/9SKDSFbaM6LuGqG1aPWN3wYGEyD.jpg", "popularity": 25.562}, {"id": 1892, "video": false, "vote_count": 8971, "vote_average": 8.0, "title": "Return of the Jedi", "release_date": "1983-05-23", "original_language": "en", "original_title": "Return of the Jedi", "genre_ids": [28, 12, 878], "backdrop_path": "/koE7aMeR2ATivI18mCbscLsI0Nm.jpg", "adult": false, "overview": "Luke Skywalker leads a mission to rescue his friend Han Solo from the clutches of Jabba the Hutt, while the Emperor seeks to destroy the Rebellion once and for all with a second dreaded Death Star.", "poster_path": "/lrJWyjOVjPhghl4KyAMtOepAxs.jpg", "popularity": 31.676}, {"id": 1895, "video": false, "vote_count": 8394, "vote_average": 7.3, "title": "Star Wars: Episode III - Revenge of the Sith", "release_date": "2005-05-17", "original_language": "en", "original_title": "Star Wars: Episode III - Revenge of the Sith", "genre_ids": [28, 12, 878], "backdrop_path": "/wUYTfFbfPiZC6Lcyt1nonr69ZmK.jpg", "adult": false, "overview": "The evil Darth Sidious enacts his final plan for unlimited power -- and the heroic Jedi Anakin Skywalker must choose a side.", "poster_path": "/tgr5Pdy7ehZYBqBkN2K7Q02xgOb.jpg", "popularity": 21.514}, {"id": 181808, "video": false, "vote_count": 9718, "vote_average": 7.0, "title": "Star Wars: The Last Jedi", "release_date": "2017-12-13", "original_language": "en", "original_title": "Star Wars: The Last Jedi", "genre_ids": [28, 12, 14, 878], "backdrop_path": "/5Iw7zQTHVRBOYpA0V6z0yypOPZh.jpg", "adult": false, "overview": "Rey develops her newly discovered abilities with the guidance of Luke Skywalker, who is unsettled by the strength of her powers. Meanwhile, the Resistance prepares to do battle with the First Order.", "poster_path": "/kOVEVeg59E0wsnXmF9nrh6OmWII.jpg", "popularity": 54.85}, {"id": 12180, "video": false, "vote_count": 938, "vote_average": 5.9, "title": "Star Wars: The Clone Wars", "release_date": "2008-08-05", "original_language": "en", "original_title": "Star Wars: The Clone Wars", "genre_ids": [28, 12, 16, 878], "backdrop_path": "/gmLMaDXi4lFWG8WitaCYOJS5GtL.jpg", "adult": false, "overview": "Set between Episode II and III the Clone Wars is the first computer animated Star Wars film. Anakin and Obi Wan must find out who kidnapped Jabba the Hutts son and return him safely. The Seperatists will try anything to stop them and ruin any chance of a diplomatic agreement between the Hutt's and the Republic.", "poster_path": "/xd6yhmtS6mEURZLwUDT5raEMbf.jpg", "popularity": 13.626}, {"id": 181812, "video": false, "vote_count": 2569, "vote_average": 6.6, "title": "Star Wars: The Rise of Skywalker", "release_date": "2019-12-18", "original_language": "en", "original_title": "Star Wars: The Rise of Skywalker", "genre_ids": [28, 12, 878], "backdrop_path": "/jOzrELAzFxtMx2I4uDGHOotdfsS.jpg", "adult": false, "overview": "The surviving Resistance faces the First Order once again as the journey of Rey, Finn and Poe Dameron continues. With the power and knowledge of generations behind them, the final battle begins.", "poster_path": "/db32LaOibwEliAmSL2jjDF6oDdj.jpg", "popularity": 192.27}, {"id": 1893, "video": false, "vote_count": 8962, "vote_average": 6.4, "title": "Star Wars: Episode I - The Phantom Menace", "release_date": "1999-05-19", "original_language": "en", "original_title": "Star Wars: Episode I - The Phantom Menace", "genre_ids": [28, 12, 878], "backdrop_path": "/oFmzoKDMedABPpRBDVwr0aynSK1.jpg", "adult": false, "overview": "Anakin Skywalker, a young slave strong with the Force, is discovered on Tatooine. Meanwhile, the evil Sith have returned, enacting their plot for revenge against the Jedi.", "poster_path": "/n8V09dDc02KsSN6Q4hC2BX6hN8X.jpg", "popularity": 26.672}, {"id": 330459, "video": false, "vote_count": 10231, "vote_average": 7.5, "title": "Rogue One: A Star Wars Story", "release_date": "2016-12-14", "original_language": "en", "original_title": "Rogue One: A Star Wars Story", "genre_ids": [28, 12, 878], "backdrop_path": "/tZjVVIYXACV4IIIhXeIM59ytqwS.jpg", "adult": false, "overview": "A rogue band of resistance fighters unite for a mission to steal the Death Star plans and bring a new hope to the galaxy.", "poster_path": "/qjiskwlV1qQzRCjpV0cL9pEMF9a.jpg", "popularity": 29.289}, {"id": 54138, "video": false, "vote_count": 6599, "vote_average": 7.3, "title": "Star Trek Into Darkness", "release_date": "2013-05-05", "original_language": "en", "original_title": "Star Trek Into Darkness", "genre_ids": [28, 12, 878], "backdrop_path": "/ns0IojuqJe24AHTxe8RVcWJUCDM.jpg", "adult": false, "overview": "When the crew of the Enterprise is called back home, they find an unstoppable force of terror from within their own organization has detonated the fleet and everything it stands for, leaving our world in a state of crisis.  With a personal score to settle, Captain Kirk leads a manhunt to a war-zone world to capture a one man weapon of mass destruction. As our heroes are propelled into an epic chess game of life and death, love will be challenged, friendships will be torn apart, and sacrifices must be made for the only family Kirk has left: his crew.", "poster_path": "/41mhrXASAW3sdn7LBWF49uCX0xi.jpg", "popularity": 22.476}, {"id": 13475, "video": false, "vote_count": 6839, "vote_average": 7.4, "title": "Star Trek", "release_date": "2009-05-06", "original_language": "en", "original_title": "Star Trek", "genre_ids": [28, 12, 878], "backdrop_path": "/1XOSh6BFZbQ0xN75m4avqgzClyG.jpg", "adult": false, "overview": "The fate of the galaxy rests in the hands of bitter rivals. One, James Kirk, is a delinquent, thrill-seeking Iowa farm boy. The other, Spock, a Vulcan, was raised in a logic-based society that rejects all emotion. As fiery instinct clashes with calm reason, their unlikely but powerful partnership is the only thing capable of leading their crew through unimaginable danger, boldly going where no one has gone before. The human adventure has begun again.", "poster_path": "/xPihqTMhCh6b8DHYzE61jrIiNMS.jpg", "popularity": 25.759}, {"id": 201, "video": false, "vote_count": 773, "vote_average": 6.2, "title": "Star Trek: Nemesis", "release_date": "2002-12-13", "original_language": "en", "original_title": "Star Trek: Nemesis", "genre_ids": [28, 12, 878, 53], "backdrop_path": "/1SLR0LqYPU3ahXyPK9RZISjI3B7.jpg", "adult": false, "overview": "En route to the honeymoon of William Riker to Deanna Troi on her home planet of Betazed, Captain Jean-Luc Picard and the crew of the U.S.S. Enterprise receives word from Starfleet that a coup has resulted in the installation of a new Romulan political leader, Shinzon, who claims to seek peace with the human-backed United Federation of Planets. Once in enemy territory, the captain and his crew make a startling discovery: Shinzon is human, a slave from the Romulan sister planet of Remus, and has a secret, shocking relationship to Picard himself.", "poster_path": "/n4TpLWPi062AofIq4kwmaPNBSvA.jpg", "popularity": 13.578}, {"id": 188927, "video": false, "vote_count": 4576, "vote_average": 6.7, "title": "Star Trek Beyond", "release_date": "2016-07-07", "original_language": "en", "original_title": "Star Trek Beyond", "genre_ids": [28, 12, 878], "backdrop_path": "/6uBlEXZCUHM15UNZqNig17VdN4m.jpg", "adult": false, "overview": "The USS Enterprise crew explores the furthest reaches of uncharted space, where they encounter a mysterious new enemy who puts them and everything the Federation stands for to the test.", "poster_path": "/mLrQMqyZgLeP8FrT5LCobKAiqmK.jpg", "popularity": 19.974}, {"adult": false, "backdrop_path": "/vgnrUb8KbV3S8gVUcq6rXng9cnz.jpg", "genre_ids": [28, 12, 878], "id": 2164, "original_language": "en", "original_title": "Stargate", "overview": "An interstellar teleportation device, found in Egypt, leads to a planet with humans resembling ancient Egyptians who worship the god Ra.", "poster_path": "/39WsfbB5BshvdbPAYRFXdsjC481.jpg", "release_date": "1994-10-27", "title": "Stargate", "video": false, "vote_average": 6.9, "vote_count": 1833, "popularity": 20.776}, {"id": 7453, "video": false, "vote_count": 2556, "vote_average": 6.7, "title": "The Hitchhiker's Guide to the Galaxy", "release_date": "2005-04-28", "original_language": "en", "original_title": "The Hitchhiker's Guide to the Galaxy", "genre_ids": [12, 35, 878, 10751], "backdrop_path": "/kMf3ewax3ZeiSESaPQxBAReQzDD.jpg", "adult": false, "overview": "Mere seconds before the Earth is to be demolished by an alien construction crew, Arthur Dent is swept off the planet by his friend Ford Prefect, a researcher penning a new edition of \"The Hitchhiker's Guide to the Galaxy.\"", "poster_path": "/fOb4cJMhnZ11BoHNUii3Vcfo3XU.jpg", "popularity": 23.951}, {"id": 18, "video": false, "vote_count": 6836, "vote_average": 7.5, "title": "The Fifth Element", "release_date": "1997-05-02", "original_language": "en", "original_title": "The Fifth Element", "genre_ids": [28, 12, 14, 878, 53], "backdrop_path": "/qlGoGQSVMzIjGbpvXzZUOH1FjNu.jpg", "adult": false, "overview": "In 2257, a taxi driver is unintentionally given the task of saving a young girl who is part of the key that will ensure the survival of humanity.", "poster_path": "/zaFa1NRZEnFgRTv5OVXkNIZO78O.jpg", "popularity": 46.446}, {"id": 339964, "video": false, "vote_count": 4615, "vote_average": 6.6, "title": "Valerian and the City of a Thousand Planets", "release_date": "2017-07-20", "original_language": "en", "original_title": "Valerian and the City of a Thousand Planets", "genre_ids": [28, 12, 878], "backdrop_path": "/5rYnygKCkmqWuMv1O5yAnzGF8gV.jpg", "adult": false, "overview": "In the 28th century, Valerian and Laureline are special operatives charged with keeping order throughout the human territories. On assignment from the Minister of Defense, the two undertake a mission to Alpha, an ever-expanding metropolis where species from across the universe have converged over centuries to share knowledge, intelligence, and cultures. At the center of Alpha is a mysterious dark force which threatens the peaceful existence of the City of a Thousand Planets, and Valerian and Laureline must race to identify the menace and safeguard not just Alpha, but the future of the universe.", "poster_path": "/jfIpMh79fGRqYJ6PwZLCntzgxlF.jpg", "popularity": 40.036}, {"adult": false, "backdrop_path": "/rkaP7dnHenOr2n2IqMxip6rtT4W.jpg", "genre_ids": [878, 9648, 12], "id": 62, "original_language": "en", "original_title": "2001: A Space Odyssey", "overview": "Humanity finds a mysterious object buried beneath the lunar surface and sets off to find its origins with the help of HAL 9000, the world's most advanced super computer.", "poster_path": "/90T7b2LIrL07ndYQBmSm09yqVEH.jpg", "release_date": "1968-04-09", "title": "2001: A Space Odyssey", "video": false, "vote_average": 8.1, "vote_count": 6599, "popularity": 29.833}], "total_pages": 12, "total_results": 239}, "recommendations": {"page": 1, "results": [], "total_pages": 1, "total_results": 0}, "credits": {"cast": [{"cast_id": 0, "character": "Dresca", "credit_id": "5bd8bfaf9251417f640139b2", "gender": 0, "id": 2164960, "name": "Meleane Kefi Maile", "order": 1, "profile_path": null}, {"cast_id": 1, "character": "Doctor Merra Cray", "credit_id": "5bd8bfc89251417f5a012159", "gender": 0, "id": 1117264, "name": "Alesandra Durham", "order": 2, "profile_path": null}, {"cast_id": 2, "character": "Commander Var", "credit_id": "5bd8bfdd9251417f680129c1", "gender": 0, "id": 2164963, "name": "Paul Anthony Sonnier Jr.", "order": 3, "profile_path": null}, {"cast_id": 3, "character": "Travin Parlee", "credit_id": "5bd8bff0c3a3682146013f9b", "gender": 0, "id": 1731115, "name": "Sterling Evans", "order": 4, "profile_path": null}, {"cast_id": 4, "character": "Pilot", "credit_id": "5bd8bffbc3a3682146013fb8", "gender": 0, "id": 2164964, "name": "Mitchell Jones", "order": 5, "profile_path": null}, {"cast_id": 5, "character": "Pilot", "credit_id": "5bd8c0030e0a262c93013e08", "gender": 0, "id": 2164965, "name": "Andrew Bramble", "order": 6, "profile_path": null}, {"cast_id": 6, "character": "Pilot", "credit_id": "5bd8c00c0e0a262c9a013913", "gender": 0, "id": 2164966, "name": "Matt Champneys", "order": 7, "profile_path": null}, {"cast_id": 7, "character": "Pilot", "credit_id": "5bd8c019c3a36821540132b6", "gender": 0, "id": 2164968, "name": "Tom Clark", "order": 8, "profile_path": null}], "crew": [{"credit_id": "5bd8c04ac3a368214f013622", "department": "Production", "gender": 0, "id": 2164971, "job": "Producer", "name": "Jessica Champneys", "profile_path": null}, {"credit_id": "5bd8c056c3a3682142014d54", "department": "Directing", "gender": 0, "id": 2164971, "job": "Director", "name": "Jessica Champneys", "profile_path": null}, {"credit_id": "5bd8c0619251417f74010cec", "department": "Writing", "gender": 0, "id": 2164971, "job": "Writer", "name": "Jessica Champneys", "profile_path": null}, {"credit_id": "5bd8c0799251417f770117f8", "department": "Sound", "gender": 0, "id": 2164976, "job": "Music", "name": "Sebastiano Zuchelli", "profile_path": null}, {"credit_id": "5bd8c0859251417f68012be7", "department": "Crew", "gender": 0, "id": 2164977, "job": "Cinematography", "name": "David A. Skousen", "profile_path": null}, {"credit_id": "5bd8c093c3a368213d012c08", "department": "Editing", "gender": 0, "id": 2164971, "job": "Editor", "name": "Jessica Champneys", "profile_path": null}, {"credit_id": "5bd8c09dc3a368213d012c1b", "department": "Crew", "gender": 0, "id": 2164980, "job": "Scenic Artist", "name": "Kayli Champneys", "profile_path": null}, {"credit_id": "5bd8c0b49251417f71011e2c", "department": "Art", "gender": 0, "id": 2164966, "job": "Set Decoration", "name": "Matt Champneys", "profile_path": null}, {"credit_id": "5bd8c0c6c3a368214a0143fa", "department": "Costume & Make-Up", "gender": 0, "id": 2164982, "job": "Makeup Artist", "name": "Melina Burrage", "profile_path": null}, {"credit_id": "5bd8c0dd0e0a262c93014033", "department": "Costume & Make-Up", "gender": 0, "id": 2164980, "job": "Makeup Effects Designer", "name": "Kayli Champneys", "profile_path": null}, {"credit_id": "5bd8c0f20e0a262ca70135b7", "department": "Costume & Make-Up", "gender": 0, "id": 1117264, "job": "Makeup & Hair Assistant", "name": "Alesandra Durham", "profile_path": null}, {"credit_id": "5bd8c0fd9251417f64013bd4", "department": "Costume & Make-Up", "gender": 0, "id": 2164984, "job": "Makeup Effects Designer", "name": "Clark Schaffer", "profile_path": null}, {"credit_id": "5bd8c10cc3a368214f0137a9", "department": "Directing", "gender": 0, "id": 1322096, "job": "Assistant Director", "name": "Thomas Gomez Durham", "profile_path": null}, {"credit_id": "5bd8c11b9251417f68012ca7", "department": "Sound", "gender": 0, "id": 2164985, "job": "Sound Assistant", "name": "Lamar Guest", "profile_path": null}, {"credit_id": "5bd8c1289251417f68012cb6", "department": "Sound", "gender": 0, "id": 2164986, "job": "Sound", "name": "Chase Roosendaal", "profile_path": null}, {"credit_id": "5bd8c1370e0a262caa012869", "department": "Visual Effects", "gender": 0, "id": 2164971, "job": "Visual Effects", "name": "Jessica Champneys", "profile_path": null}, {"credit_id": "5bd8c14bc3a3682132012c09", "department": "Visual Effects", "gender": 0, "id": 2164987, "job": "Visual Effects", "name": "Matt Hoffman", "profile_path": null}, {"credit_id": "5bd8c1610e0a262c8a013b38", "department": "Crew", "gender": 0, "id": 2164989, "job": "Stunt Driver", "name": "Ben Alexander", "profile_path": null}, {"credit_id": "5bd8c16ec3a3682142014f10", "department": "Crew", "gender": 0, "id": 2164990, "job": "Stunt Coordinator", "name": "Duy Beck", "profile_path": null}, {"credit_id": "5bd8c17f0e0a262c9301410e", "department": "Production", "gender": 0, "id": 1322096, "job": "Associate Producer", "name": "Thomas Gomez Durham", "profile_path": null}, {"credit_id": "5bd8c1950e0a262ca7013644", "department": "Camera", "gender": 0, "id": 1322096, "job": "Grip", "name": "Thomas Gomez Durham", "profile_path": null}, {"credit_id": "5bd8c19fc3a368214a014529", "department": "Camera", "gender": 0, "id": 2164991, "job": "Grip", "name": "Travis Babcock", "profile_path": null}, {"credit_id": "5bd8c1bfc3a368214601421b", "department": "Camera", "gender": 0, "id": 2164966, "job": "Grip", "name": "Matt Champneys", "profile_path": null}, {"credit_id": "5bd8c1d09251417f6e0115c1", "department": "Camera", "gender": 0, "id": 2164992, "job": "Assistant Camera", "name": "Paul Green", "profile_path": null}, {"credit_id": "5bd8c1d89251417f74010e82", "department": "Camera", "gender": 0, "id": 2164993, "job": "Grip", "name": "Shane B. Jackson", "profile_path": null}, {"credit_id": "5bd8c1ea0e0a262caa012935", "department": "Costume & Make-Up", "gender": 0, "id": 2164995, "job": "Wardrobe Designer", "name": "Mattilyn Champneys", "profile_path": null}, {"credit_id": "5bd8c1f50e0a262c9301417b", "department": "Editing", "gender": 0, "id": 2164977, "job": "Colorist", "name": "David A. Skousen", "profile_path": null}, {"credit_id": "5bd8c203c3a368214f013899", "department": "Visual Effects", "gender": 0, "id": 2164996, "job": "3D Modeller", "name": "Abdou Bouam", "profile_path": null}, {"credit_id": "5bd8c20f0e0a262c91013dac", "department": "Production", "gender": 0, "id": 2164965, "job": "Production Assistant", "name": "Andrew Bramble", "profile_path": null}, {"credit_id": "5bd8c21bc3a368214f0138bb", "department": "Production", "gender": 0, "id": 2164997, "job": "Production Coordinator", "name": "Koren Butkovich", "profile_path": null}, {"credit_id": "5bd8c2429251417f6e011636", "department": "Visual Effects", "gender": 0, "id": 2164966, "job": "3D Modeller", "name": "Matt Champneys", "profile_path": null}, {"credit_id": "5bd8c2639251417f64013d76", "department": "Visual Effects", "gender": 0, "id": 2164966, "job": "3D Animator", "name": "Matt Champneys", "profile_path": null}, {"credit_id": "5bd8c26d9251417f77011a0d", "department": "Production", "gender": 0, "id": 2164966, "job": "Production Assistant", "name": "Matt Champneys", "profile_path": null}, {"credit_id": "5bd8c27a0e0a262c8a013ccd", "department": "Visual Effects", "gender": 0, "id": 2164998, "job": "3D Modeller", "name": "David Gibb", "profile_path": null}, {"credit_id": "5bd8c2850e0a262c9a013c28", "department": "Visual Effects", "gender": 0, "id": 2164998, "job": "3D Animator", "name": "David Gibb", "profile_path": null}, {"credit_id": "5bd8c292c3a36821420150ab", "department": "Production", "gender": 0, "id": 2164993, "job": "Production Assistant", "name": "Shane B. Jackson", "profile_path": null}, {"credit_id": "5bd8c29c0e0a262c91013e47", "department": "Production", "gender": 0, "id": 2164999, "job": "Production Assistant", "name": "Angie Shuman", "profile_path": null}, {"credit_id": "5bd8c2a90e0a262c9301422d", "department": "Production", "gender": 0, "id": 2165000, "job": "Production Assistant", "name": "Gerardo Soto", "profile_path": null}]}}