{"adult": false, "backdrop_path": "/C47QTATig9RHxWyGt5xVv456Rk.jpg", "belongs_to_collection": null, "budget": 0, "genres": [{"id": 53, "name": "Thriller"}], "homepage": "", "id": 55943, "imdb_id": "tt0058401", "original_language": "en", "original_title": "Night Must Fall", "overview": "A psychotic killer gets in the good graces of his aging invalid employer, and worms his way into the affection of her beautiful daughter, with unpleasant results for all.", "popularity": 3.433, "poster_path": "/fTCNmcmGEZ6Y0ZFDGy5F1NrLnqX.jpg", "production_companies": [{"id": 5579, "logo_path": null, "name": "Metro-Goldwyn-Mayer British Studios", "origin_country": ""}, {"id": 23843, "logo_path": null, "name": "Lawrence P. Bachmann Productions", "origin_country": ""}], "production_countries": [{"iso_3166_1": "GB", "name": "United Kingdom"}], "release_date": "1964-03-18", "revenue": 0, "runtime": 92, "spoken_languages": [{"iso_639_1": "en", "name": "English"}], "status": "Released", "tagline": "", "title": "Night Must Fall", "video": false, "vote_average": 7.4, "vote_count": 9, "keywords": {"keywords": [{"id": 6844, "name": "stalker"}, {"id": 10481, "name": "tension"}, {"id": 10714, "name": "serial killer"}, {"id": 15127, "name": "killer"}]}, "similar": {"page": 1, "results": [{"adult": false, "backdrop_path": "/7QjoyyGdBV32x1sEh64dAnNjwg2.jpg", "genre_ids": [53, 35, 27], "id": 12521, "original_language": "en", "original_title": "Shocker", "overview": "After being sent to the electric chair, a serial killer uses electricity to come back from the dead and carry out his vengeance on the football player who turned him in to the police.", "poster_path": "/xEDmOhNGCKlWlS3mCiqLCVzBXVA.jpg", "release_date": "1989-10-27", "title": "Shocker", "video": false, "vote_average": 5.5, "vote_count": 176, "popularity": 10.495}, {"adult": false, "backdrop_path": "/coLGEhak0KhPpMYABmZdDnZbnSv.jpg", "genre_ids": [53, 27, 9648], "id": 39874, "original_language": "en", "original_title": "My Bloody Valentine", "overview": "Twenty years ago in the sleepy mining town of Valentine Bluffs, a fatal mining disaster occurred on Valentine's Day while some of the crew was decorating for a party. The sole survivor of the accident killed the remaining crewmembers and warned the town not to celebrate Valentine's Day again. When a group of teenagers decides to defy that order, a murderous maniac in mining gear begins dispatching townsfolk in bloody and creative ways.", "poster_path": "/kl3mewFceFtYIavvGts2atzB0e0.jpg", "release_date": "1981-02-11", "title": "My Bloody Valentine", "video": false, "vote_average": 6.3, "vote_count": 162, "popularity": 11.496}, {"adult": false, "backdrop_path": "/o4psXh7IVD6GFKvBSHjHLzjL2lV.jpg", "genre_ids": [27, 53], "id": 10781, "original_language": "en", "original_title": "The Texas Chainsaw Massacre: The Beginning", "overview": "Chrissie and her friends set out on a road trip for a final fling before one is shipped off to Vietnam. Along the way, bikers harass the foursome and cause an accident that throws Chrissie from the vehicle. The lawman who arrives on the scene kills one of the bikers and brings Chrissie's friends to the Hewitt homestead, where young Leatherface is learning the tools of terror.", "poster_path": "/9elCJIG1TOJ0wew3JVx5ZMkHq5w.jpg", "release_date": "2006-10-06", "title": "The Texas Chainsaw Massacre: The Beginning", "video": false, "vote_average": 6.0, "vote_count": 936, "popularity": 19.211}, {"adult": false, "backdrop_path": "/qqdVRlVCvVWdmSBYrEHwQuC3GBd.jpg", "genre_ids": [27, 53], "id": 371608, "original_language": "en", "original_title": "The Strangers: Prey at Night", "overview": "A family\u2019s road trip takes a dangerous turn when they arrive at a secluded mobile home park to stay with some relatives and find it mysteriously deserted. Under the cover of darkness, three masked psychopaths pay them a visit to test the family\u2019s every limit as they struggle to survive.", "poster_path": "/vdxLpPsZkPZdFrREp7eSeSzcimj.jpg", "release_date": "2018-03-07", "title": "The Strangers: Prey at Night", "video": false, "vote_average": 5.4, "vote_count": 758, "popularity": 16.815}, {"adult": false, "backdrop_path": "/t3OZS8yMs0NL4YgWWc04eXHTn1X.jpg", "genre_ids": [28, 80, 53], "id": 984, "original_language": "en", "original_title": "Dirty Harry", "overview": "When a madman dubbed 'Scorpio' terrorizes San Francisco, hard-nosed cop, Harry Callahan \u2013 famous for his take-no-prisoners approach to law enforcement \u2013 is tasked with hunting down the psychopath. Harry eventually collars Scorpio in the process of rescuing a kidnap victim, only to see him walk on technicalities. Now, the maverick detective is determined to nail the maniac himself.", "poster_path": "/2TADKc4GMMPdMrLXj0xJVgTvZJM.jpg", "release_date": "1971-12-21", "title": "Dirty Harry", "video": false, "vote_average": 7.5, "vote_count": 1173, "popularity": 18.839}, {"adult": false, "backdrop_path": "/4L1MSZo8dQ20x4AhBDKfDs1cOjs.jpg", "genre_ids": [27, 53], "id": 9728, "original_language": "en", "original_title": "Friday the 13th Part III", "overview": "An idyllic summer turns into a nightmare of unspeakable terror for yet another group of naive counselors. Ignoring Camp Crystal Lake's bloody legacy, one by one they fall victim to the maniacal Jason who stalks them at every turn.", "poster_path": "/5wg2NZyIhcMbIBAahBODXHyJ54S.jpg", "release_date": "1982-08-13", "title": "Friday the 13th Part III", "video": false, "vote_average": 5.8, "vote_count": 634, "popularity": 15.501}, {"adult": false, "backdrop_path": "/lnxiNlbStoBT4CDMqPAdprS5pwN.jpg", "genre_ids": [28, 53], "id": 1991, "original_language": "en", "original_title": "Death Proof", "overview": "Austin's hottest DJ, Jungle Julia, sets out into the night to unwind with her two friends Shanna and Arlene. Covertly tracking their moves is Stuntman Mike, a scarred rebel leering from behind the wheel of his muscle car, revving just feet away.", "poster_path": "/nyQBcpxqS4im2akQlWG9Y1oeM2V.jpg", "release_date": "2007-05-21", "title": "Death Proof", "video": false, "vote_average": 6.8, "vote_count": 2821, "popularity": 17.718}, {"id": 948, "video": false, "vote_count": 2727, "vote_average": 7.5, "title": "Halloween", "release_date": "1978-10-24", "original_language": "en", "original_title": "Halloween", "genre_ids": [27, 53], "backdrop_path": "/6Io0gvfEVpMQsB46yXOKCpSJOoJ.jpg", "adult": false, "overview": "Fifteen years after murdering his sister on Halloween Night 1963, Michael Myers escapes from a mental hospital and returns to the small town of Haddonfield, Illinois to kill again.", "poster_path": "/vjoOFOTBJcJvA1weJejlZ92LZD4.jpg", "popularity": 16.369}, {"id": 9792, "video": false, "vote_count": 1554, "vote_average": 6.3, "title": "The Hills Have Eyes", "release_date": "2006-03-10", "original_language": "en", "original_title": "The Hills Have Eyes", "genre_ids": [27, 53], "backdrop_path": "/7JmFtKtvgVD0zQ2xPQdUKtTXdeA.jpg", "adult": false, "overview": "Based on Wes Craven's 1977 suspenseful cult classic, The Hills Have Eyes is the story of a family road trip that goes terrifyingly awry when the travelers become stranded in a government atomic zone. Miles from nowhere, the Carter family soon realizes the seemingly uninhabited wasteland is actually the breeding ground of a blood-thirsty mutant family...and they are the prey.", "poster_path": "/hNuqY8h1oBGTnEQK75AH4IwuiPG.jpg", "popularity": 15.649}, {"adult": false, "backdrop_path": "/arcpWGGnUkGkakOwZo7xfPsaz7h.jpg", "genre_ids": [9648, 53], "id": 2832, "original_language": "en", "original_title": "Identity", "overview": "Complete strangers stranded at a remote desert motel during a raging storm soon find themselves the target of a deranged murderer. As their numbers thin out, the travelers begin to turn on each other, as each tries to figure out who the killer is.", "poster_path": "/xSNSp2wmCUwFavxdkMF417hBc39.jpg", "release_date": "2003-04-25", "title": "Identity", "video": false, "vote_average": 7.2, "vote_count": 2091, "popularity": 19.629}, {"adult": false, "backdrop_path": "/8DkJrxEyRN8gTseEhajybpC5smK.jpg", "genre_ids": [27], "id": 10585, "original_language": "en", "original_title": "Child's Play", "overview": "A single mother gives her son a beloved doll for his birthday, only to discover that it is possessed by the soul of a serial killer.", "poster_path": "/dSX9i2buibfyKFRpK2kOe6rtl5R.jpg", "release_date": "1988-11-08", "title": "Child's Play", "video": false, "vote_average": 6.5, "vote_count": 1416, "popularity": 20.547}, {"id": 9373, "video": false, "vote_count": 1414, "vote_average": 6.1, "title": "The Texas Chainsaw Massacre", "release_date": "2003-05-21", "original_language": "en", "original_title": "The Texas Chainsaw Massacre", "genre_ids": [27], "backdrop_path": "/3rTsJ7tIC3LUSRr80PfeLbbCfBA.jpg", "adult": false, "overview": "After picking up a traumatized young hitchhiker, five friends find themselves stalked and hunted by a deformed chainsaw-wielding killer and his family of equally psychopathic killers.", "poster_path": "/gx7FCIOFGxqNyplF3t7qtmUv55g.jpg", "popularity": 19.117}, {"adult": false, "backdrop_path": "/fmo48Lt8XtMWeHeXJzi5SbPCJud.jpg", "genre_ids": [18, 27, 80], "id": 1696, "original_language": "en", "original_title": "The Devil's Rejects", "overview": "The sequel to House of 1000 Corpses \u2013 the Firefly family are ambushed at their isolated home by Sheriff Wydell and a squad of armed men guns blazing \u2013 yet only Otis and his sister, Baby, manage to escape the barrage of bullets unharmed. Hiding out in a backwater motel, the wanted siblings wait to rendezvous with their errant father, Captain Spaulding, killing whoever happens to stand in their way.", "poster_path": "/fj4rrpUlBpFjPaJecpjID6yqacx.jpg", "release_date": "2005-07-22", "title": "The Devil's Rejects", "video": false, "vote_average": 6.7, "vote_count": 720, "popularity": 14.155}, {"adult": false, "backdrop_path": "/rH6NsvJg5hYyRigUZhOWDiahUPV.jpg", "genre_ids": [27, 53], "id": 9877, "original_language": "en", "original_title": "Urban Legend", "overview": "There's a campus killer on the loose who's making urban legends, like the one about eating pop rocks and soda at the same time will make your stomach explode and the one about a psycho with an axe stepping into the backseat of your car at the gas station when not looking, into reality.", "poster_path": "/2oIf0ibr0zlhuhgbOwFSHimh7P6.jpg", "release_date": "1998-09-25", "title": "Urban Legend", "video": false, "vote_average": 5.7, "vote_count": 633, "popularity": 10.225}, {"adult": false, "backdrop_path": "/7MJNhkXpbsoE8BuxwJLuTPcjYvH.jpg", "genre_ids": [27, 9648, 53], "id": 36599, "original_language": "en", "original_title": "Prom Night", "overview": "This slasher movie follows a relentless killer who is out to avenge the death of a young girl who died after being bullied and teased by four of her classmates. Now high-school students, the guilt-ridden kids have kept their involvement a secret, but when they start being murdered, one by one, it's clear that someone knows the truth. Also coping with the past are members of the dead girl's family, most notably her prom-queen sister, Kim Hammond (Jamie Lee Curtis).", "poster_path": "/3KIy1qFmdLMwUrSlRAiovX5anhR.jpg", "release_date": "1980-07-18", "title": "Prom Night", "video": false, "vote_average": 5.6, "vote_count": 169, "popularity": 10.34}, {"id": 11974, "video": false, "vote_count": 611, "vote_average": 6.8, "title": "The 'Burbs", "release_date": "1989-02-17", "original_language": "en", "original_title": "The 'Burbs", "genre_ids": [35, 27, 53], "backdrop_path": "/yCOTJnV7I0UcusTycv5bGEDQ5ll.jpg", "adult": false, "overview": "When secretive new neighbors move in next door, suburbanite Ray Peterson and his friends let their paranoia get the best of them as they start to suspect the newcomers of evildoings and commence an investigation. But it's hardly how Ray, who much prefers drinking beer, reading his newspaper and watching a ball game on the tube expected to spend his vacation.", "poster_path": "/zPEECSo5ZOBr9oEmBLSVXcqndTO.jpg", "popularity": 13.086}, {"id": 397278, "video": false, "vote_count": 52, "vote_average": 5.2, "title": "Fender Bender", "release_date": "2016-05-23", "original_language": "en", "original_title": "Fender Bender", "genre_ids": [27, 53], "backdrop_path": "/n1f7Toca3h01tAL6MIXOywyZPXa.jpg", "adult": false, "overview": "In a small New Mexico town, a 17-year-old high school girl who just got her driver\u2019s license gets into her first Fender Bender, innocently exchanging her personal information with an apologetic stranger.  Later that stormy night, she is joined in her desolate suburban home by a couple of her school friends who try their best to make a night out of it, only to be visited by the stranger she so willingly handed all of her information to \u2014 a terrifying and bizarre serial killer who stalks the country\u2019s endless miles of roads and streets with his old rusty car, hungrily searching for his next unsuspecting victim.", "poster_path": "/92VjZqSkaUDpXvrAiMZRGIxBFLU.jpg", "popularity": 7.71}, {"adult": false, "backdrop_path": "/shNOTvaMz7C05LxBOWpakfJVWHc.jpg", "genre_ids": [27, 53], "id": 10987, "original_language": "en", "original_title": "Halloween: The Curse of Michael Myers", "overview": "Six years ago, Michael Myers terrorized the town of Haddonfield, Illinois. He and his niece, Jamie Lloyd, have disappeared. Jamie was kidnapped by a bunch of evil druids who protect Michael Myers. And now, six years later, Jamie has escaped after giving birth to Michael's child. She runs to Haddonfield to get Dr. Loomis to help her again.", "poster_path": "/8Tw5IttoEATGD2FHhcG9bDzqwbi.jpg", "release_date": "1995-09-29", "title": "Halloween: The Curse of Michael Myers", "video": false, "vote_average": 5.0, "vote_count": 471, "popularity": 14.084}, {"id": 40969, "video": false, "vote_count": 97, "vote_average": 6.1, "title": "Terror Train", "release_date": "1980-10-03", "original_language": "en", "original_title": "Terror Train", "genre_ids": [27, 53], "backdrop_path": "/myzTzctRnRHjJx9w1zBJsLGvHL6.jpg", "adult": false, "overview": "A masked killer targets six college kids responsible for a prank gone wrong three years earlier and who are currently throwing a large New Year's Eve costume party aboard a moving train.", "poster_path": "/lBfEvRUsP8WqoS075i3mlTEmBHH.jpg", "popularity": 7.183}, {"adult": false, "backdrop_path": "/oni8CXvEg56JhrfVdVUrQYOuhP0.jpg", "genre_ids": [80, 28, 53], "id": 55846, "original_language": "en", "original_title": "Blitz", "overview": "A tough, renegade cop with a gay sidekick is dispatched to take down a serial killer who has been targeting police officers.", "poster_path": "/woY0qY4DR6bPOQ7cBwyblePsYky.jpg", "release_date": "2011-05-20", "title": "Blitz", "video": false, "vote_average": 6.0, "vote_count": 862, "popularity": 18.232}], "total_pages": 253, "total_results": 5057}, "recommendations": {"page": 1, "results": [{"adult": false, "backdrop_path": "/vwJyTMBFvM7H5AnO13WBlWPrWH5.jpg", "genre_ids": [9648, 10749, 53], "id": 54946, "original_language": "en", "original_title": "They Met in the Dark", "overview": "A Royal navy Commander is tricked by a pretty girl who is working for the Nazis. She tricks him into revealing some military secrets and he is court martial. He vows to track her and her accomplices down.", "poster_path": "/zXMt8L2iHn1YLiYDyBdCH9PFwW3.jpg", "release_date": "1943-01-01", "title": "They Met in the Dark", "video": false, "vote_average": 6.3, "vote_count": 4, "popularity": 2.301}, {"adult": false, "backdrop_path": "/eKroUONWoLNSWzGU7TT6RprrYXY.jpg", "genre_ids": [53], "id": 106210, "original_language": "en", "original_title": "A Life in the Balance", "overview": "A widower's (Ricardo Montalban) little boy leads the police to a killer of sinners (Lee Marvin) in Mexico City.", "poster_path": "/zYi9xh8BSLRcduQROdk894SKwLL.jpg", "release_date": "1955-07-01", "title": "A Life in the Balance", "video": false, "vote_average": 6.2, "vote_count": 3, "popularity": 1.955}, {"adult": false, "backdrop_path": null, "genre_ids": [10752], "id": 224766, "original_language": "en", "original_title": "The Volunteer", "overview": "World War II propaganda film.", "poster_path": "/aXq5yX9j2tQhYXwe0V0ywNKXtZB.jpg", "release_date": "1944-01-10", "title": "The Volunteer", "video": false, "vote_average": 4.8, "vote_count": 4, "popularity": 2.13}, {"id": 96828, "video": false, "vote_count": 5, "vote_average": 6.3, "title": "A Touch of Larceny", "release_date": "1960-02-04", "original_language": "en", "original_title": "A Touch of Larceny", "genre_ids": [35], "backdrop_path": "/5Nl4WrJn6ADVY1Rgzf3pyfkXn0X.jpg", "adult": false, "overview": "After falling in love with an American woman, Virginia Killain, who is engaged to another man, British Naval Commander Max Easton, hatches a plan that will get him enough money to support Virginia in the lifestyle she is accustomed to. Easton's plan is to disappear for a time making it seem that he has defected to the Soviets taking important Naval secrets from his job at the Admiralty and to return and sue the newspapers for slander. Not everything goes as planned for Commander Easton.", "poster_path": "/wGWDST6lv6vNrlhoHuT5Xqn8uh9.jpg", "popularity": 4.109}, {"adult": false, "backdrop_path": "/2lAbuGxptVNqylPefUsClL220ir.jpg", "genre_ids": [18, 9648], "id": 80639, "original_language": "en", "original_title": "They Won't Forget", "overview": "A southern town is rocked by scandal when teenager Mary Clay is murdered on Confederate Decoration Day. Andrew Griffin, a small-time lawyer with political ambitions, sees the crime as his ticket to the Senate if he can find the right victim to finger for the crime. He sets out to convict Robert Hale, a transplanted northerner who was Mary's teacher at the business school where she was killed. Despite the fact that all the evidence against Hale is circumstantial, Griffin works with a ruthless reporter to create a media frenzy of prejudice and hate against the teacher.", "poster_path": "/fTnLZXvRT0aep48FvRKIAvm3RWg.jpg", "release_date": "1937-07-14", "title": "They Won't Forget", "video": false, "vote_average": 5.1, "vote_count": 8, "popularity": 4.738}, {"id": 54139, "video": false, "vote_count": 16, "vote_average": 6.9, "title": "Fourteen Hours", "release_date": "1951-04-01", "original_language": "en", "original_title": "Fourteen Hours", "genre_ids": [18, 53], "backdrop_path": "/lX0PAZCmHk6TrTwf8QaR8y1REIH.jpg", "adult": false, "overview": "A young man, morally destroyed by his parents not loving him and by the fear of being not capable to make his girlfriend happy, rises on the ledge of a building with the intention of committing suicide. A policeman makes every effort to argue him out of it.", "poster_path": "/eoD9MoQjMy6cB68lnRDQnDGjiWB.jpg", "popularity": 3.964}, {"adult": false, "backdrop_path": null, "genre_ids": [12, 18, 28], "id": 445693, "original_language": "en", "original_title": "The Diplomatic Corpse", "overview": "London police and reporters from a local newspaper go after a gang of foreign criminals.", "poster_path": "/5SkJMLEL2bjs3yuBB0M3wXHIg61.jpg", "release_date": "1958-01-01", "title": "The Diplomatic Corpse", "video": false, "vote_average": 6.0, "vote_count": 3, "popularity": 1.563}, {"adult": false, "backdrop_path": "/g5YTpFR6xAESK2Mw8oEclsq8dIQ.jpg", "genre_ids": [18], "id": 120526, "original_language": "en", "original_title": "Of Human Bondage", "overview": "Medical student Philip fall in love with Mildred, a waitress. Although she is a flirt, they have a love affair. But when Philip is told about her constant infideliy, they break up. Mildred quits her job and becomes a prostitute. But Philip is still in love with her.", "poster_path": "/2fwYTrVaAlWO3cybsMeVlhWiIw3.jpg", "release_date": "1964-09-23", "title": "Of Human Bondage", "video": false, "vote_average": 8.3, "vote_count": 5, "popularity": 2.781}, {"adult": false, "backdrop_path": "/cdFvbvdvQbnUPg1ISjSmOge7A0w.jpg", "genre_ids": [18], "id": 151138, "original_language": "en", "original_title": "The Visit", "overview": "Carla Zachanassian had a child by Serge Miller as a teenager. When Serge refused to marry her, she was driven out of town. By her own wit and cunning, she has returned as a multi-millionaire for a visit. The town lays out the red carpet expecting big things from Carla, only to learn that her sole purpose is to see Serge Miller killed...", "poster_path": "/6VESwh2OOlmhPVlRsXYH3XytVps.jpg", "release_date": "1964-05-06", "title": "The Visit", "video": false, "vote_average": 6.9, "vote_count": 13, "popularity": 6.756}, {"id": 19618, "video": false, "vote_count": 20, "vote_average": 6.7, "title": "Crime Wave", "release_date": "1953-10-22", "original_language": "en", "original_title": "Crime Wave", "genre_ids": [80], "backdrop_path": "/xo5CBMuAkbXA4B6xsWhVmhMNEKj.jpg", "adult": false, "overview": "Reformed parolee Steve Lacey is caught in the middle when a wounded former cellmate seeks him out for shelter. The other two former cellmates then attempt to force him into doing a bank job.", "poster_path": "/pGuqh39l0KAuOe7MEmYzPjFfWAv.jpg", "popularity": 5.977}, {"adult": false, "backdrop_path": "/cA46Zv5Q5bfwhqEjm7CetSeJ2Mm.jpg", "genre_ids": [18], "id": 114083, "original_language": "en", "original_title": "Trial", "overview": "The story of a murder trial where a Mexican boy is accused of the death of a Caucasian girl. The two-faced attorney (Arthur Kennedy) who takes the boy's case is only interested in defending him so he can exploit his Communist-backed organization for their own underhanded purposes. He and his organization bring in an idealistic law professor (Glenn Ford) who agrees to represent the boy in court.", "poster_path": "/dybVUVMXdMXVzpi2p0ld7TuGKaG.jpg", "release_date": "1955-10-07", "title": "Trial", "video": false, "vote_average": 7.5, "vote_count": 8, "popularity": 3.585}, {"id": 140472, "video": false, "vote_count": 4, "vote_average": 5.9, "title": "Bulldog Drummond's Revenge", "release_date": "1937-12-16", "original_language": "en", "original_title": "Bulldog Drummond's Revenge", "genre_ids": [12, 9648], "backdrop_path": "/zLkAIKQem0jxry7zWJFb712UHWE.jpg", "adult": false, "overview": "Captain Drummond is travelling to Switzerland to marry his girlfriend. However, when a cargo containing dangerous explosives goes missing from its place, Drummond is forced to delay his plans.", "poster_path": "/tE6LHJCo8EbpyTIbu9hVDejpKi5.jpg", "popularity": 1.852}, {"adult": false, "backdrop_path": null, "genre_ids": [18, 10749, 10752], "id": 54391, "original_language": "en", "original_title": "Millions Like Us", "overview": "Millions Like Us is a 1943 British propaganda film, showing life in a wartime aircraft factory in documentary detail. It stars Patricia Roc, Eric Portman, Megs Jenkins, and Anne Crawford, was written by Sidney Gilliat, and directed by Gilliat and Frank Launder. It was filmed at Gainsborough Studios. When Celia Crowson (Roc) is called up for war service, she hopes for a glamorous job in one of the services, but as a single girl she is directed into a factory making aircraft parts. Here she meets other girls from all different walks of life, and begins a relationship with a young airman.", "poster_path": "/Z3W36l7JOGa9TGeDuU6Qr6WdLj.jpg", "release_date": "1943-06-01", "title": "Millions Like Us", "video": false, "vote_average": 5.1, "vote_count": 7, "popularity": 2.862}, {"id": 51136, "video": false, "vote_count": 6, "vote_average": 6.4, "title": "Five Days", "release_date": "1954-06-25", "original_language": "en", "original_title": "Five Days", "genre_ids": [80, 53], "backdrop_path": "/6UzeMUYCyFLbW94bKyLeRTa0OTE.jpg", "adult": false, "overview": "A man pays a hitman to kill him. Circumstances change and he tries to call off the hit but he has trouble getting the deal killed.", "poster_path": "/8tz2P5PkdgpLoizO3zg7L0ODYmu.jpg", "popularity": 2.378}, {"adult": false, "backdrop_path": null, "genre_ids": [18], "id": 356176, "original_language": "en", "original_title": "The Steel Fist", "overview": "In an Iron Curtain country an idealistic student goes on the run from the Communist authorities.", "poster_path": "/h6TMTHlAAIcdFdcu75pTgXdeZ9r.jpg", "release_date": "1952-01-06", "title": "The Steel Fist", "video": false, "vote_average": 5.0, "vote_count": 3, "popularity": 1.582}, {"id": 149119, "video": false, "vote_count": 4, "vote_average": 6.6, "title": "Signpost to Murder", "release_date": "1964-12-04", "original_language": "en", "original_title": "Signpost to Murder", "genre_ids": [80, 53], "backdrop_path": null, "adult": false, "overview": "An escaped mental patient, reported to be homicidal, hides out in a woman's rural home. Director George Englund's 1965 thriller stars Joanne Woodward, Stuart Whitman, Edward Mulhare and Alan Napier.", "poster_path": "/6MDWrbbKjtq50eC1hiOxZgSPUrY.jpg", "popularity": 1.361}, {"id": 125873, "video": false, "vote_count": 6, "vote_average": 5.1, "title": "Bulldog Drummond in Africa", "release_date": "1938-08-05", "original_language": "en", "original_title": "Bulldog Drummond in Africa", "genre_ids": [28, 12], "backdrop_path": "/5xJqcjXKgHjBomLKAnpXH8TrLD.jpg", "adult": false, "overview": "Drummond has to leave for Morocco on his wedding day with his fiancee and trusted friends to rescue his friend Nielsen who is kidnapped by an international criminal.", "poster_path": "/v1TgTUHR5gqRp9IFDnTyfhiYZCL.jpg", "popularity": 2.588}, {"adult": false, "backdrop_path": null, "genre_ids": [80, 18], "id": 124530, "original_language": "en", "original_title": "Third Party Risk", "overview": "Vacationing at a resort hotel in Spain, a man discovers he is the only one not mixed up one way or another in murder, drugs and microfilm smuggling. But, the police are after him!", "poster_path": "/rClLIiwtSUanAXVVfugLDWi2hGe.jpg", "release_date": "1954-10-08", "title": "Third Party Risk", "video": false, "vote_average": 4.5, "vote_count": 3, "popularity": 1.68}, {"adult": false, "backdrop_path": "/vFsnPq5WIS4rCGlPaIJtgANJEj8.jpg", "genre_ids": [18, 10749, 53, 10752], "id": 79730, "original_language": "en", "original_title": "Sea Wife", "overview": "In 1942, a cargo ship jammed with British evacuees from Singapore is sunk by a Japanese sub. A small lifeboat carries a beautiful woman, an army officer, a bigoted administrator, and a black seaman. Only the seaman knows the woman is a nun. The men reveal their true selves under the hardships of survival. Told in a too-long flashback frame.", "poster_path": "/pagK8uHnwXr9ZYNYGAH231izKiA.jpg", "release_date": "1957-10-16", "title": "Sea Wife", "video": false, "vote_average": 5.6, "vote_count": 4, "popularity": 3.091}, {"adult": false, "backdrop_path": null, "genre_ids": [], "id": 46100, "original_language": "ja", "original_title": "\u58c1\u306e\u4e2d\u306e\u79d8\u4e8b", "overview": "In a housing complex, a college prep student is spying on his neighbor, a former peace activist, who now leads an ordinary life as a housewife, having a secret affair with an ex-lover.", "poster_path": "/wfY0a3pjFV8rRaqHv0TDmz8Cdb1.jpg", "release_date": "1965-06-01", "title": "Secrets Behind the Wall", "video": false, "vote_average": 7.3, "vote_count": 6, "popularity": 0.6}], "total_pages": 2, "total_results": 40}, "credits": {"cast": [{"cast_id": 4, "character": "Danny", "credit_id": "52fe48e7c3a36847f817fae3", "gender": 2, "id": 3926, "name": "Albert Finney", "order": 0, "profile_path": "/rOgeE7s5URvfGNPOdoouuus1cYI.jpg"}, {"cast_id": 5, "character": "Mrs. Bramson", "credit_id": "52fe48e7c3a36847f817fae7", "gender": 1, "id": 89895, "name": "Mona Washbourne", "order": 1, "profile_path": "/dYMq56N0O2r1zHM2qJ1ir4FyyIb.jpg"}, {"cast_id": 6, "character": "Olivia Greyne", "credit_id": "52fe48e7c3a36847f817faeb", "gender": 1, "id": 29703, "name": "Susan Hampshire", "order": 2, "profile_path": "/xlPzr44WXWWROMzv1JbdoJcCy4A.jpg"}, {"cast_id": 7, "character": "Dora Parkoe", "credit_id": "52fe48e7c3a36847f817faef", "gender": 1, "id": 93839, "name": "Sheila Hancock", "order": 3, "profile_path": "/zX7dSYUmnoRonh64Qhl9stIQ0Qq.jpg"}, {"cast_id": 8, "character": "Derek", "credit_id": "52fe48e7c3a36847f817faf3", "gender": 2, "id": 29307, "name": "Michael Medwin", "order": 4, "profile_path": "/xsRYejVFgWxi0GBbd8g87gEPEax.jpg"}, {"cast_id": 9, "character": "Dodge", "credit_id": "52fe48e7c3a36847f817faf7", "gender": 2, "id": 198560, "name": "Joe Gladwin", "order": 5, "profile_path": "/8ArI5KZfK4tLWMSRooud0s8in4f.jpg"}, {"cast_id": 10, "character": "Inspector Willett", "credit_id": "52fe48e7c3a36847f817fafb", "gender": 2, "id": 153197, "name": "Martin Wyldeck", "order": 6, "profile_path": "/7wg93WZtDf5WMz6LpYChNkFY2Ft.jpg"}, {"cast_id": 11, "character": "Foster", "credit_id": "52fe48e7c3a36847f817faff", "gender": 2, "id": 183155, "name": "John Gill", "order": 7, "profile_path": null}], "crew": [{"credit_id": "52fe48e7c3a36847f817fadf", "department": "Writing", "gender": 0, "id": 58211, "job": "Writer", "name": "Clive Exton", "profile_path": null}, {"credit_id": "52fe48e7c3a36847f817fad9", "department": "Writing", "gender": 2, "id": 66884, "job": "Theatre Play", "name": "Emlyn Williams", "profile_path": "/d4FsEe87cEY1AQAeedVmSU7SarO.jpg"}, {"credit_id": "52fe48e7c3a36847f817fad3", "department": "Directing", "gender": 2, "id": 72709, "job": "Director", "name": "Karel Reisz", "profile_path": "/i7eF9OIZGS2GwTAgpbX3JPvdOBq.jpg"}, {"credit_id": "5c7e6c0cc3a3684e8fd18828", "department": "Editing", "gender": 2, "id": 2217118, "job": "Editor", "name": "Philip Barnikel", "profile_path": null}]}}