{"adult": false, "backdrop_path": "/42LlduRyePcYQ5qo2kMr1qW1bv4.jpg", "belongs_to_collection": null, "budget": 9260980, "genres": [{"id": 35, "name": "Comedy"}, {"id": 10751, "name": "Family"}, {"id": 16, "name": "Animation"}, {"id": 12, "name": "Adventure"}, {"id": 9648, "name": "Mystery"}], "homepage": null, "id": 560066, "imdb_id": "tt9260980", "original_language": "en", "original_title": "Scooby-Doo! and the Curse of the 13th Ghost", "overview": "Mystery Inc. withdraws from solving crimes after botching a case. When Vincent Van Ghoul contacts the gang about an unfinished investigation from Daphne, Shaggy and Scooby's past, the gang springs into action to finish the job that involves catching the 13th Ghost that escaped from the Chest of Demons and is still at large.", "popularity": 10.033, "poster_path": "/lGFtGPBKS4npO9wEUhdiKCWVbKe.jpg", "production_companies": [{"id": 1353, "logo_path": "/yXhCcOFK5Fy3ZBQwhBYx8Zu9ZIw.png", "name": "Hanna-Barbera Productions", "origin_country": "US"}, {"id": 2785, "logo_path": "/l5zW8jjmQOCx2dFmvnmbYmqoBmL.png", "name": "Warner Bros. Animation", "origin_country": "US"}], "production_countries": [{"iso_3166_1": "US", "name": "United States of America"}], "release_date": "2019-02-05", "revenue": 0, "runtime": 82, "spoken_languages": [{"iso_639_1": "en", "name": "English"}], "status": "Released", "tagline": "", "title": "Scooby-Doo! and the Curse of the 13th Ghost", "video": false, "vote_average": 7.5, "vote_count": 39, "keywords": {"keywords": [{"id": 162846, "name": "ghost"}, {"id": 251387, "name": "vincent price"}]}, "similar": {"page": 1, "results": [{"adult": false, "backdrop_path": "/kQOLgJGvFjQ7EwGfaPkW9dlGFXJ.jpg", "genre_ids": [27, 9648], "id": 565, "original_language": "en", "original_title": "The Ring", "overview": "It sounded like just another urban legend: A videotape filled with nightmarish images, leading to a phone call foretelling the viewer's death in exactly seven days. As a newspaper reporter, Rachel Keller was naturally skeptical of the story, until four teenagers all met with mysterious deaths exactly one week after watching just such a tape. Allowing her investigative curiosity to get the better of her, Rachel tracks down the video... and watches it. Now she has just seven days to unravel the mystery of the Ring.", "poster_path": "/zHJFdhqEXZJxG653oZvOM3PmNON.jpg", "release_date": "2002-10-18", "title": "The Ring", "video": false, "vote_average": 6.6, "vote_count": 3616, "popularity": 12.821}, {"id": 620, "video": false, "vote_count": 5187, "vote_average": 7.4, "title": "Ghostbusters", "release_date": "1984-06-08", "original_language": "en", "original_title": "Ghostbusters", "genre_ids": [35, 14], "backdrop_path": "/qmDy6Rdom8d8UFj9GeAAtVIjTRT.jpg", "adult": false, "overview": "After losing their academic posts at a prestigious university, a team of parapsychologists goes into business as proton-pack-toting \"ghostbusters\" who exterminate ghouls, hobgoblins and supernatural pests of all stripes. An ad campaign pays off when a knockout cellist hires the squad to purge her swanky digs of demons that appear to be living in her refrigerator.", "poster_path": "/3FS3oBdorgczgfCkFi2u8ZTFfpS.jpg", "popularity": 24.995}, {"id": 10014, "video": false, "vote_count": 874, "vote_average": 5.8, "title": "A Nightmare on Elm Street Part 2: Freddy's Revenge", "release_date": "1985-10-31", "original_language": "en", "original_title": "A Nightmare on Elm Street Part 2: Freddy's Revenge", "genre_ids": [27], "backdrop_path": "/tJTrNDt1242xe4zlatlZfDMvWjg.jpg", "adult": false, "overview": "A new family moves into the house on Elm Street, and before long, the kids are again having nightmares about deceased child murderer Freddy Krueger. This time, Freddy attempts to possess a teenage boy to cause havoc in the real world, and can only be overcome if the boy's sweetheart can master her fear.", "poster_path": "/seEMZxo6bhHWbWPNcBQfsMAk39F.jpg", "popularity": 16.661}, {"id": 4011, "video": false, "vote_count": 3507, "vote_average": 7.3, "title": "Beetlejuice", "release_date": "1988-02-29", "original_language": "en", "original_title": "Beetlejuice", "genre_ids": [35, 14], "backdrop_path": "/upAwc1kPQJU1ZWeMgEWV8Lp6CWb.jpg", "adult": false, "overview": "Thanks to an untimely demise via drowning, a young couple end up as poltergeists in their New England farmhouse, where they fail to meet the challenge of scaring away the insufferable new owners, who want to make drastic changes. In desperation, the undead newlyweds turn to an expert frightmeister, but he's got a diabolical agenda of his own.", "poster_path": "/gWnW7vxm8yr01TVLQhL4aI02orp.jpg", "popularity": 34.958}, {"id": 17979, "video": false, "vote_count": 2815, "vote_average": 6.8, "title": "A Christmas Carol", "release_date": "2009-11-04", "original_language": "en", "original_title": "A Christmas Carol", "genre_ids": [16, 10751], "backdrop_path": "/GtwSStViUdhKGf0d7tCkR7alKV.jpg", "adult": false, "overview": "Miser Ebenezer Scrooge is awakened on Christmas Eve by spirits who reveal to him his own miserable existence, what opportunities he wasted in his youth, his current cruelties, and the dire fate that awaits him if he does not change his ways. Scrooge is faced with his own story of growing bitterness and meanness, and must decide what his own future will hold: death or redemption.", "poster_path": "/jeOCcjUAcSYleVwhsaKEPT4CYwF.jpg", "popularity": 19.945}, {"adult": false, "backdrop_path": "/w4w8CTEe4isWO2TzDSQ3MV3br9l.jpg", "genre_ids": [14, 35, 10751], "id": 8839, "original_language": "en", "original_title": "Casper", "overview": "Furious that her late father only willed her his gloomy-looking mansion rather than his millions, Carrigan Crittenden is ready to burn the place to the ground when she discovers a map to a treasure hidden in the house. But when she enters the rickety mansion to seek her claim, she is frightened away by a wicked wave of ghosts. Determined to get her hands on this hidden fortune, she hires afterlife therapist Dr. James Harvey to exorcise the ghosts from the mansion. Harvey and his daughter Kat move in, and soon Kat meets Casper, the ghost of a young boy who's \"the friendliest ghost you know.\" But not so friendly are Casper's uncles--Stretch, Fatso and Stinkie--who are determined to drive all \"fleshies\" away.", "poster_path": "/1WeumvndgPE3hopKQqXbCKO26oH.jpg", "release_date": "1995-05-26", "title": "Casper", "video": false, "vote_average": 6.2, "vote_count": 2788, "popularity": 25.596}, {"id": 14813, "video": false, "vote_count": 456, "vote_average": 7.6, "title": "Mickey's Christmas Carol", "release_date": "1983-10-19", "original_language": "en", "original_title": "Mickey's Christmas Carol", "genre_ids": [16, 10751], "backdrop_path": "/fDK3xeAcQfQ40ZUULgZshElkspa.jpg", "adult": false, "overview": "It is an adaptation of the Charles Dickens classic A Christmas Carol, featuring Scrooge McDuck as his namesake and inspiration Ebenezer Scrooge and Mickey Mouse as Bob Cratchit. This film was based on a 1972 audio musical entitled Disney's A Christmas Carol. It is a twenty-four minute animated short film produced by Walt Disney Productions as an accompaniment to a re-release of The Rescuers.", "poster_path": "/29iF1IiC3ZyJQ1kmTf4LD8p8oro.jpg", "popularity": 14.7}, {"adult": false, "backdrop_path": "/2F8cwDiU43qYYmRVCyv2Lx5E36C.jpg", "genre_ids": [14, 18], "id": 13188, "original_language": "en", "original_title": "Scrooge", "overview": "Ebenezer Scrooge (Alastair Sim) malcontentedly shuffles through life as a cruel miserly businessman until one fateful Christmas Eve when he is visited by three spirits, sent show him how his unhappy childhood and maladaptive adult behavior over has let him a selfish, lonely, bitter old man.  Released in the USA as \"A Christmas Carol\".", "poster_path": "/vIgQuTnJljMIwzdM94D3rnIgzlx.jpg", "release_date": "1951-11-28", "title": "Scrooge", "video": false, "vote_average": 7.5, "vote_count": 139, "popularity": 10.803}, {"adult": false, "backdrop_path": "/59baGxEztxeXW1oFjs8EBgXxTXk.jpg", "genre_ids": [27, 53], "id": 91586, "original_language": "en", "original_title": "Insidious: Chapter 2", "overview": "The haunted Lambert family seeks to uncover the mysterious childhood secret that has left them dangerously connected to the spirit world.", "poster_path": "/vmWgw1Lsc6bHThA6S2k8fPsROaI.jpg", "release_date": "2013-09-12", "title": "Insidious: Chapter 2", "video": false, "vote_average": 6.6, "vote_count": 2515, "popularity": 21.591}, {"adult": false, "backdrop_path": "/zZAJke7HMmQfc52L1AzvQkmMR3e.jpg", "genre_ids": [53, 27, 18], "id": 288158, "original_language": "en", "original_title": "The Woman in Black 2: Angel of Death", "overview": "40 years after the first haunting at Eel Marsh House, a group of children evacuated from WWII London arrive, awakening the house's darkest inhabitant.", "poster_path": "/kzWRtyMtazWA22LJXA64KKZ3slY.jpg", "release_date": "2014-12-30", "title": "The Woman in Black 2: Angel of Death", "video": false, "vote_average": 5.1, "vote_count": 681, "popularity": 9.114}, {"id": 416234, "video": false, "vote_count": 1007, "vote_average": 5.8, "title": "Winchester", "release_date": "2018-02-02", "original_language": "en", "original_title": "Winchester", "genre_ids": [14, 27, 9648, 53], "backdrop_path": "/d4wnMDSrQonB9iArMzd90WqaoJ4.jpg", "adult": false, "overview": "San Jose, California, 1906. Isolated in her labyrinthine mansion, eccentric firearm heiress Sarah Winchester believes that she is being haunted by the souls of those killed by the guns manufactured by her company.", "poster_path": "/tHDtskokZeO9B3JBdR1dSH0uqad.jpg", "popularity": 13.27}, {"adult": false, "backdrop_path": "/w8jINuXklxghTAHNxt0NQYaAN1C.jpg", "genre_ids": [27], "id": 242512, "original_language": "en", "original_title": "Ouija", "overview": "A group of friends must confront their most terrifying fears when they awaken the dark powers of an ancient spirit board.", "poster_path": "/vHTXN00kJktCbSLV50Vbk9siNiX.jpg", "release_date": "2014-10-24", "title": "Ouija", "video": false, "vote_average": 5.1, "vote_count": 1835, "popularity": 21.913}, {"adult": false, "backdrop_path": "/3uwyXMZN93PRkShUxvLrufwVAc2.jpg", "genre_ids": [80, 18, 27, 9648, 53], "id": 452507, "original_language": "en", "original_title": "1922", "overview": "A simple yet proud rancher conspires to murder his wife for financial gain, convincing his teenage son to participate.", "poster_path": "/q4FQOiSRhTLWulHl5Vpg37FMArH.jpg", "release_date": "2017-10-20", "title": "1922", "video": false, "vote_average": 5.9, "vote_count": 1491, "popularity": 14.757}, {"id": 493922, "video": false, "vote_count": 3302, "vote_average": 7.1, "title": "Hereditary", "release_date": "2018-06-07", "original_language": "en", "original_title": "Hereditary", "genre_ids": [27, 9648, 53], "backdrop_path": "/4DUoPZOHdPuROP4nyEIsPaMIiQl.jpg", "adult": false, "overview": "When Ellen, the matriarch of the Graham family, passes away, her daughter\u2019s family begins to unravel cryptic and increasingly terrifying secrets about their ancestry.", "poster_path": "/lHV8HHlhwNup2VbpiACtlKzaGIQ.jpg", "popularity": 26.426}, {"id": 9647, "video": false, "vote_count": 786, "vote_average": 6.9, "title": "Scrooged", "release_date": "1988-11-22", "original_language": "en", "original_title": "Scrooged", "genre_ids": [35, 18, 14], "backdrop_path": "/6xezVJoUp0cZUBQeIDpW6lFuhcd.jpg", "adult": false, "overview": "In this modern take on Charles Dickens' \"A Christmas Carol,\" Frank Cross (Bill Murray) is a wildly successful television executive whose cold ambition and curmudgeonly nature has driven away the love of his life, Claire Phillips (Karen Allen). But after firing a staff member, Eliot Loudermilk (Bobcat Goldthwait), on Christmas Eve, Frank is visited by a series of ghosts who give him a chance to re-evaluate his actions and right the wrongs of his past.", "poster_path": "/uO0znfB2ZzTXA1IS7jkrjNbpkYK.jpg", "popularity": 17.767}, {"id": 625719, "video": false, "vote_count": 1, "vote_average": 3.0, "title": "Martin's Close", "release_date": "2019-12-24", "original_language": "en", "original_title": "Martin's Close", "genre_ids": [27, 10770], "backdrop_path": "/gcccicGB2eKpE8K50wGXa9GJY3M.jpg", "adult": false, "overview": "Part of the long running tradition of 'A Ghost Story For Christmas' on BBC Four in the UK, and the third instalment presented by Mark Gatiss. A young squire accused of murdering a young girl that did not return his feelings of love reveals a supernatural secret at his trial.", "poster_path": "/ArhYVKnfILuWERuUyuvWJd1jqRm.jpg", "popularity": 6.706}, {"id": 448095, "video": false, "vote_count": 308, "vote_average": 6.8, "title": "I Still See You", "release_date": "2018-09-27", "original_language": "en", "original_title": "I Still See You", "genre_ids": [14, 53], "backdrop_path": "/7rqpB7coXaNvTVMWb5vL8qU0pBp.jpg", "adult": false, "overview": "A spellbinding and romantic supernatural thriller. Ten years after an apocalyptic event left the world haunted by ghosts, Roni receives a threatening message from beyond the grave. Joining forces with a mysterious classmate, Kirk, Roni descends into a shadow world that blurs the bounds of the living and the dead-and begins a desperate race against time to stop a cunning killer.", "poster_path": "/9fqzZs922V8OmwgO11Eqclof2mQ.jpg", "popularity": 16.612}, {"adult": false, "backdrop_path": "/yjorFsCy0DsSiK0HwABu0SHQv1P.jpg", "genre_ids": [27], "id": 157547, "original_language": "en", "original_title": "Oculus", "overview": "A woman tries to exonerate her brother's murder conviction by proving that the crime was committed by a supernatural phenomenon.", "poster_path": "/ic8C94ylSfcoLkXqPOKzL6DqPcH.jpg", "release_date": "2014-04-03", "title": "Oculus", "video": false, "vote_average": 6.4, "vote_count": 1917, "popularity": 11.973}, {"adult": false, "backdrop_path": "/h6NQoXBxD0uaIrpuk9FFV89vITT.jpg", "genre_ids": [10402, 35, 10751, 14, 18], "id": 10437, "original_language": "en", "original_title": "The Muppet Christmas Carol", "overview": "A retelling of the classic Dickens tale of Ebenezer Scrooge, miser extraordinaire. He is held accountable for his dastardly ways during night-time visitations by the Ghosts of Christmas Past, Present, and future.", "poster_path": "/fe4nLJkDNXhyuMnrZ60MfoSpPes.jpg", "release_date": "1992-12-10", "title": "The Muppet Christmas Carol", "video": false, "vote_average": 7.4, "vote_count": 497, "popularity": 10.24}, {"id": 166426, "video": false, "vote_count": 7553, "vote_average": 6.6, "title": "Pirates of the Caribbean: Dead Men Tell No Tales", "release_date": "2017-05-23", "original_language": "en", "original_title": "Pirates of the Caribbean: Dead Men Tell No Tales", "genre_ids": [28, 12, 35, 14], "backdrop_path": "/7C921eWK06n12c1miRXnYoEu5Yv.jpg", "adult": false, "overview": "Thrust into an all-new adventure, a down-on-his-luck Capt. Jack Sparrow feels the winds of ill-fortune blowing even more strongly when deadly ghost sailors led by his old nemesis, the evil Capt. Salazar, escape from the Devil's Triangle. Jack's only hope of survival lies in seeking out the legendary Trident of Poseidon, but to find it, he must forge an uneasy alliance with a brilliant and beautiful astronomer and a headstrong young man in the British navy.", "poster_path": "/xbpSDU3p7YUGlu9Mr6Egg2Vweto.jpg", "popularity": 31.346}], "total_pages": 90, "total_results": 1791}, "recommendations": {"page": 1, "results": [{"id": 615774, "video": false, "vote_count": 29, "vote_average": 5.9, "title": "Scooby-Doo! Return to Zombie Island", "release_date": "2019-07-21", "original_language": "en", "original_title": "Scooby-Doo! Return to Zombie Island", "genre_ids": [16, 35, 14, 10751], "backdrop_path": "/hlvdUOh0eqdEm2TnLzziEM3eq8Z.jpg", "adult": false, "overview": "Scooby-Doo and his pals win an all-expense paid vacation and embark on a trip of a lifetime to a tropical paradise. Their destination however, turns out to be Zombie Island. As soon as they arrive, they realize the place looks strangely familiar and is reminiscent of a trip they took years ago, in which they became wrapped up in a mystery involving zombies. The gang soon learns that their trip to paradise comes with a price when the zombies re-emerge and attack their hotel. Will Scooby-Doo and the Mystery Inc. gang finally solve the mystery behind Zombie Island?", "poster_path": "/vd0oIoWhEm8o7EpS0kV7RaV0Flf.jpg", "popularity": 10.881}, {"id": 533592, "video": false, "vote_count": 19, "vote_average": 6.6, "title": "Scooby-Doo! and the Gourmet Ghost", "release_date": "2018-08-28", "original_language": "en", "original_title": "Scooby-Doo! and the Gourmet Ghost", "genre_ids": [12, 16, 80], "backdrop_path": "/n2G5VC8KKzWX7bLwvGAwZIfO4HD.jpg", "adult": false, "overview": "The Scooby gang visits a culinary resort run by Fred's uncle, Bobby Flay. While enjoying the sights, a ghost attacks the guests and destroys the resort, leaving the gang to put a stop to its threat.", "poster_path": "/AtHngeqD4K1Oj01ulWc1aDJhU8H.jpg", "popularity": 7.284}], "total_pages": 1, "total_results": 2}, "credits": {"cast": [{"cast_id": 0, "character": "Scooby-Doo (voice) / Fred Jones (voice)", "credit_id": "5be332420e0a2614c301a7cd", "gender": 2, "id": 15831, "name": "Frank Welker", "order": 0, "profile_path": "/b3gImArbw13mMKJIe9leFc9YYb7.jpg"}, {"cast_id": 8, "character": "Daphne Blake (voice)", "credit_id": "5c52626792514151a95dc375", "gender": 1, "id": 15761, "name": "Grey DeLisle", "order": 1, "profile_path": "/b2Viqswr0mAULRfPqeA0J40icyy.jpg"}, {"cast_id": 2, "character": "Shaggy Rogers (voice)", "credit_id": "5be332640e0a2614ae019073", "gender": 2, "id": 26457, "name": "Matthew Lillard", "order": 2, "profile_path": "/gJsQkX20g0ABquHqVpBJzMXR2JF.jpg"}, {"cast_id": 3, "character": "Velma Dinkley (voice)", "credit_id": "5be332730e0a2614b60194b9", "gender": 1, "id": 132354, "name": "Kate Micucci", "order": 3, "profile_path": "/10FRMebTRHAgkxqhJ3Egq1liICF.jpg"}, {"cast_id": 4, "character": "Vincent Van Ghoul (voice) / Bernie Alan (voice) / Vance Linklater (voice)", "credit_id": "5be332830e0a2614c301a824", "gender": 2, "id": 34521, "name": "Maurice LaMarche", "order": 4, "profile_path": "/zanuPXm0BYAsARbsrDMjLmct7Fq.jpg"}, {"cast_id": 17, "character": "Benny / Flim Flam (voice)", "credit_id": "5c59faff9251415448690007", "gender": 0, "id": 1703156, "name": "Noshir Dalal", "order": 5, "profile_path": null}, {"cast_id": 18, "character": "Asmodeus (voice) / Mortifer (voice) / Farmer Morgan (voice)", "credit_id": "5c59fc5b92514151a96963e7", "gender": 2, "id": 19508, "name": "Nolan North", "order": 6, "profile_path": "/3mCPGjyH6bzSZ6yYE4Um1ntsz6x.jpg"}, {"cast_id": 19, "character": "Sheriff (voice)", "credit_id": "5c59fc740e0a26185acbdec8", "gender": 2, "id": 52794, "name": "David Herman", "order": 7, "profile_path": "/rMY168K2qAk5eBg368WK3y2yOEI.jpg"}], "crew": [{"credit_id": "5be3329b9251415c72018562", "department": "Production", "gender": 2, "id": 141043, "job": "Executive Producer", "name": "Sam Register", "profile_path": "/9K1RTX51GDbegrAhMeLQLSGyF3B.jpg"}, {"credit_id": "5be332a9c3a36810c4019a1c", "department": "Writing", "gender": 0, "id": 1670142, "job": "Writer", "name": "Tim Sheridan", "profile_path": null}, {"credit_id": "5be332b89251415c82016f6b", "department": "Directing", "gender": 1, "id": 1659094, "job": "Director", "name": "Cecilia Aranovich", "profile_path": null}, {"credit_id": "5c59f8ad9251415e346cebeb", "department": "Editing", "gender": 0, "id": 2235513, "job": "Editor", "name": "Robert Ehrenreich", "profile_path": null}, {"credit_id": "5c59f8c90e0a265e19da40a8", "department": "Editing", "gender": 0, "id": 2235514, "job": "Editor", "name": "Robby Wells", "profile_path": null}, {"credit_id": "5c59f8da92514157df554d31", "department": "Production", "gender": 0, "id": 1641642, "job": "Casting", "name": "Wes Gleason", "profile_path": null}, {"credit_id": "5c59f8ee92514151a9695666", "department": "Sound", "gender": 2, "id": 1322323, "job": "Music", "name": "Robert J. Kral", "profile_path": null}, {"credit_id": "5c59f90b92514116fc5d3bf5", "department": "Production", "gender": 2, "id": 150856, "job": "Co-Producer", "name": "James Krieg", "profile_path": null}, {"credit_id": "5c59f928c3a368478ca6af40", "department": "Production", "gender": 1, "id": 1574229, "job": "Producer", "name": "Jennifer Coyle", "profile_path": null}, {"credit_id": "5c59f93ec3a368719989cc03", "department": "Production", "gender": 0, "id": 1964180, "job": "Producer", "name": "Amy McKenna", "profile_path": null}, {"credit_id": "5c5a0bea92514135b054d26a", "department": "Visual Effects", "gender": 2, "id": 1176752, "job": "Character Designer", "name": "Dan Haskett", "profile_path": null}, {"credit_id": "5c5a0bffc3a36805e889cd41", "department": "Visual Effects", "gender": 0, "id": 2104087, "job": "Character Designer", "name": "Jon Suzuki", "profile_path": null}, {"credit_id": "5c5a0cbcc3a36830288b0185", "department": "Production", "gender": 0, "id": 81618, "job": "Executive In Charge Of Production", "name": "Jay Bastian", "profile_path": null}]}}