{"adult": false, "backdrop_path": "/y52a7VgBptKeQ9tJfL5Wl0FbKvy.jpg", "belongs_to_collection": null, "budget": 3000000, "genres": [{"id": 18, "name": "Drama"}, {"id": 10751, "name": "Family"}], "homepage": null, "id": 564766, "imdb_id": "tt7784788", "original_language": "en", "original_title": "Orphan Horse", "overview": "A retired horse trainer finds a young runaway girl in his barn. Skeptic at first, he let's her stay and a friendship develops while he discovers her heart and talent for horses.", "popularity": 5.807, "poster_path": "/yvixSUib5pG0kVAcpNr91xWllfC.jpg", "production_companies": [{"id": 3235, "logo_path": null, "name": "Brookwell-McNamara Entertainment", "origin_country": ""}, {"id": 78306, "logo_path": null, "name": "SP Entertainments", "origin_country": ""}], "production_countries": [{"iso_3166_1": "US", "name": "United States of America"}], "release_date": "2018-11-20", "revenue": 0, "runtime": 101, "spoken_languages": [{"iso_639_1": "en", "name": "English"}], "status": "Released", "tagline": "", "title": "Orphan Horse", "video": false, "vote_average": 8.9, "vote_count": 9, "keywords": {"keywords": [{"id": 708, "name": "runaway"}, {"id": 3875, "name": "barn"}, {"id": 18115, "name": "retired"}, {"id": 18252, "name": "young girl"}, {"id": 190883, "name": "horse trainer"}]}, "similar": {"page": 1, "results": [{"adult": false, "backdrop_path": "/wcyLZBgMlUXi4CQ8IVAO31rqNih.jpg", "genre_ids": [18, 36, 53], "id": 1852, "original_language": "en", "original_title": "World Trade Center", "overview": "On September, 11th 2001, after the terrorist attack to the World Trade Center, the building collapses over the rescue team from the Port Authority Police Department. Will Jimeno and his sergeant John McLoughlin are found alive trapped under the wreckage while the rescue teams fight to save them.", "poster_path": "/hYbKIxMGqm0YaxGBYW52NbkYNAx.jpg", "release_date": "2006-08-09", "title": "World Trade Center", "video": false, "vote_average": 6.1, "vote_count": 883, "popularity": 19.632}, {"adult": false, "backdrop_path": "/9zAAR78OTNBZxQYVojDj4pLHOWz.jpg", "genre_ids": [28, 12, 18], "id": 664, "original_language": "en", "original_title": "Twister", "overview": "TV weatherman Bill Harding is trying to get his tornado-hunter wife, Jo, to sign divorce papers so he can marry his girlfriend Melissa. But Mother Nature, in the form of a series of intense storms sweeping across Oklahoma, has other plans. Soon the three have joined the team of stormchasers as they attempt to insert a revolutionary measuring device into the very heart of several extremely violent tornados.", "poster_path": "/tKdDCkmb6obEhWEMLgGUUz5nDNs.jpg", "release_date": "1996-05-10", "title": "Twister", "video": false, "vote_average": 6.3, "vote_count": 1761, "popularity": 20.529}, {"id": 539892, "video": false, "vote_count": 119, "vote_average": 6.7, "title": "Freaks", "release_date": "2019-09-13", "original_language": "en", "original_title": "Freaks", "genre_ids": [18, 878, 53], "backdrop_path": "/mPeyCA2625dLDbPSDjfxpNKL8Uv.jpg", "adult": false, "overview": "Kept locked inside the house by her father, 7-year-old Chloe lives in fear and fascination of the outside world, where Abnormals create a constant threat - or so she believes. When a mysterious stranger offers her a glimpse of what's really happening outside, Chloe soon finds that while the truth isn't so simple, the danger is very real.", "poster_path": "/kc2cvuqESIiRX5QoZOoMTBq18kQ.jpg", "popularity": 32.793}, {"id": 463257, "video": false, "vote_count": 195, "vote_average": 7.3, "title": "The Peanut Butter Falcon", "release_date": "2019-08-09", "original_language": "en", "original_title": "The Peanut Butter Falcon", "genre_ids": [12, 35, 18], "backdrop_path": "/4NJ9Wbib4YfvnZyyvV8WSLOAQUh.jpg", "adult": false, "overview": "A down-on-his-luck crab fisherman embarks on a journey to get a young man with Down syndrome to a professional wrestling school in rural North Carolina and away from the retirement home where he\u2019s lived for the past two and a half years.", "poster_path": "/qyQcRGvdW3VtxHR4fSDgPOePEip.jpg", "popularity": 21.937}, {"adult": false, "backdrop_path": "/np7OqT3CPlm5FF0wMKIKAFqIfFn.jpg", "genre_ids": [35, 18], "id": 338768, "original_language": "en", "original_title": "Please Stand By", "overview": "A young autistic woman runs away from her caregiver in order to boldly go and deliver her 500-page Star Trek script to a writing competition in Hollywood. On an adventure full of laughter and tears, Wendy follows the guiding spirit of Mr. Spock on her journey into the unknown.", "poster_path": "/yKhrjxmbdCjdxROc7lJhmfZ9trx.jpg", "release_date": "2018-01-26", "title": "Please Stand By", "video": false, "vote_average": 6.8, "vote_count": 222, "popularity": 8.739}, {"adult": false, "backdrop_path": "/sDSwD63e0qfNE1YvH8aczFoSGTt.jpg", "genre_ids": [80, 18, 53], "id": 11826, "original_language": "en", "original_title": "Sexy Beast", "overview": "The idyllic life of retired safecracker Gal is put at risk when a psychotic gangster from his past arrives at his villa in southern Spain, intent on bringing him out of retirement for one last job.", "poster_path": "/rpo9njGpJVLPqRrdM6R7wIqiQ7K.jpg", "release_date": "2001-01-12", "title": "Sexy Beast", "video": false, "vote_average": 7.0, "vote_count": 391, "popularity": 9.281}, {"id": 523576, "video": false, "vote_count": 13, "vote_average": 4.4, "title": "Wildwitch", "release_date": "2018-11-01", "original_language": "da", "original_title": "Vildheks", "genre_ids": [14, 10751], "backdrop_path": "/18bEfXCf9WC3zUjcbtFoCm6h6KO.jpg", "adult": false, "overview": "12-year-old Clara is just like any other girl until one day a mysterious black cat scratches her. Clara soon discovers that she can communicate with the cat and that she belongs to a family of Wild Witches with a strong connection to nature and animals. It turns out that Clara is a very special Wild Witch and that her blood can set free the ancient and evil witch, Bravita Bloodyoung. Together with her mentor aunt Isa and her friends, Kahla and Oscar, Clara must face her destiny and embark on a dangerous journey in order to save herself and the Wild World.", "poster_path": "/gWyJOtXmYioZ3U8rK8Aa9rWANg5.jpg", "popularity": 6.134}, {"id": 254904, "video": false, "vote_count": 931, "vote_average": 6.1, "title": "The November Man", "release_date": "2014-08-27", "original_language": "en", "original_title": "The November Man", "genre_ids": [28, 80, 53], "backdrop_path": "/hSvpWAVXC781u5rOgI44799p2WL.jpg", "adult": false, "overview": "An ex- CIA operative is brought back in on a very personal mission and finds himself pitted against his former pupil in a deadly game involving high level CIA officials and the Russian president-elect.", "poster_path": "/lcg1bkriMVvc8m0jz5zk0yvzVTA.jpg", "popularity": 18.728}, {"id": 245891, "video": false, "vote_count": 11535, "vote_average": 7.2, "title": "John Wick", "release_date": "2014-10-22", "original_language": "en", "original_title": "John Wick", "genre_ids": [28, 53], "backdrop_path": "/iJlGxN0p1suzloBGvvBu3QSSlhT.jpg", "adult": false, "overview": "Ex-hitman John Wick comes out of retirement to track down the gangsters that took everything from him.", "poster_path": "/5vHssUeVe25bMrof1HyaPyWgaP.jpg", "popularity": 63.785}, {"id": 39514, "video": false, "vote_count": 4481, "vote_average": 6.6, "title": "RED", "release_date": "2010-10-13", "original_language": "en", "original_title": "RED", "genre_ids": [28, 12, 35, 80, 53], "backdrop_path": "/1TFEtFxD1M9OvMGlGcSAR5Pg53I.jpg", "adult": false, "overview": "When his peaceful life is threatened by a high-tech assassin, former black-ops agent, Frank Moses reassembles his old team in a last ditch effort to survive and uncover his assailants.", "poster_path": "/q2mwTRKrq1etP9S4SZVDIJq0wI2.jpg", "popularity": 25.801}, {"id": 353070, "video": false, "vote_count": 1507, "vote_average": 6.6, "title": "Going in Style", "release_date": "2017-04-06", "original_language": "en", "original_title": "Going in Style", "genre_ids": [35, 80], "backdrop_path": "/y6tKHt7iwcYwqckk3iOZV0vWKRM.jpg", "adult": false, "overview": "Desperate to pay the bills and come through for their loved ones, three lifelong pals risk it all by embarking on a daring bid to knock off the very bank that absconded with their money.", "poster_path": "/4nfWsdsJfO5srRZgxiWC9xHub0W.jpg", "popularity": 10.914}, {"id": 291870, "video": false, "vote_count": 2886, "vote_average": 5.8, "title": "Dirty Grandpa", "release_date": "2016-01-21", "original_language": "en", "original_title": "Dirty Grandpa", "genre_ids": [35], "backdrop_path": "/ivm52GLofIbvTb4dp4S4zbPO6II.jpg", "adult": false, "overview": "Jason Kelly is one week away from marrying his boss's uber-controlling daughter, putting him on the fast track for a partnership at the law firm. However, when the straight-laced Jason is tricked into driving his foul-mouthed grandfather, Dick, to Daytona for spring break, his pending nuptials are suddenly in jeopardy. Between riotous frat parties, bar fights, and an epic night of karaoke, Dick is on a quest to live his life to the fullest and bring Jason along for the ride.", "poster_path": "/cZEx6mB5Ftnt7LvlDjTKXcrTvyg.jpg", "popularity": 20.13}, {"id": 241254, "video": false, "vote_count": 332, "vote_average": 4.8, "title": "The Prince", "release_date": "2014-08-22", "original_language": "en", "original_title": "The Prince", "genre_ids": [28, 53], "backdrop_path": "/bnACOELViX2XwXjqzC8V5TclrPY.jpg", "adult": false, "overview": "A family man who turns out to be a retired mob enforcer must travel across the country to find his daughter who has gone missing.", "poster_path": "/tE098YTWDMUIMny6H9TMplZuX6W.jpg", "popularity": 27.66}, {"id": 24150, "video": false, "vote_count": 673, "vote_average": 5.3, "title": "Halloween II", "release_date": "2009-08-28", "original_language": "en", "original_title": "Halloween II", "genre_ids": [27], "backdrop_path": "/1ucA7DaevpJWIsb291hYNXyy73M.jpg", "adult": false, "overview": "Laurie Strode struggles to come to terms with her brother Michael's deadly return to Haddonfield, Illinois. Meanwhile, Michael prepares for another reunion with his sister.", "poster_path": "/vSHPM4LQDpWdQrD5KZWK6wNqSOD.jpg", "popularity": 13.116}, {"adult": false, "backdrop_path": "/e7Mb4AWXN4O58yrsZKBTXznazHj.jpg", "genre_ids": [16, 18], "id": 242828, "original_language": "ja", "original_title": "\u601d\u3044\u51fa\u306e\u30de\u30fc\u30cb\u30fc", "overview": "Upon being sent to live with relatives in the countryside due to an illness, an emotionally distant adolescent girl becomes obsessed with an abandoned mansion and infatuated with a girl who lives there - a girl who may or may not be real.", "poster_path": "/wiEzIu4bw15RhB3NT58mCbPgv3R.jpg", "release_date": "2014-07-19", "title": "When Marnie Was There", "video": false, "vote_average": 7.9, "vote_count": 765, "popularity": 13.192}, {"adult": false, "backdrop_path": "/ybMxs1mGYzSEkgqLvdHOMHXh8xL.jpg", "genre_ids": [35, 10751, 14], "id": 9986, "original_language": "en", "original_title": "Charlotte's Web", "overview": "Wilbur the pig is scared of the end of the season, because he knows that come that time, he will end up on the dinner table. He hatches a plan with Charlotte, a spider that lives in his pen, to ensure that this will never happen.", "poster_path": "/zmfPv26TJrMeE9ngSEpBG44uePa.jpg", "release_date": "2006-12-07", "title": "Charlotte's Web", "video": false, "vote_average": 6.0, "vote_count": 721, "popularity": 12.317}, {"id": 4464, "video": false, "vote_count": 458, "vote_average": 7.0, "title": "Seabiscuit", "release_date": "2003-07-22", "original_language": "en", "original_title": "Seabiscuit", "genre_ids": [18, 36], "backdrop_path": "/z7qXjCwD2q0nF5TWTkUuuEDsuXJ.jpg", "adult": false, "overview": "True story of the undersized Depression-era racehorse whose victories lifted not only the spirits of the team behind it but also those of their nation.", "poster_path": "/xzYOaFGZBNAciQXRasQQ8sYxBSi.jpg", "popularity": 11.359}, {"id": 11361, "video": false, "vote_count": 503, "vote_average": 5.2, "title": "Halloween 5: The Revenge of Michael Myers", "release_date": "1989-10-12", "original_language": "en", "original_title": "Halloween 5: The Revenge of Michael Myers", "genre_ids": [27, 53], "backdrop_path": "/qJgqmS7F52lJUJKoenfzGEACSUq.jpg", "adult": false, "overview": "Presumed dead after a shoot-out with the Haddonfield police, Michael Myers is secretly nursed back to health -- and returns a year later to kill again and once more targets his young niece, Jamie. Jamie is now recovering in the local children's hospital after attacking her stepmother and losing her voice. Her mental link with her evil uncle may be the key to uprooting her family tree.", "poster_path": "/gQwN6KXBuO94kaYpeX3uaueszkd.jpg", "popularity": 13.338}, {"id": 3980, "video": false, "vote_count": 424, "vote_average": 6.1, "title": "Critters", "release_date": "1986-04-11", "original_language": "en", "original_title": "Critters", "genre_ids": [28, 35, 27, 878, 53], "backdrop_path": "/dqUw5SO18T8qFs8A0NVq85M5Of3.jpg", "adult": false, "overview": "A massive ball of furry creatures from another world eat their way through a small mid-western town followed by intergalactic bounty hunters opposed only by militant townspeople.", "poster_path": "/zLL6nX13AfigvvNQ9GyNXhKVrmg.jpg", "popularity": 14.34}, {"adult": false, "backdrop_path": "/cN7dCe6ig4ZVbBbGqO5m4oZvink.jpg", "genre_ids": [35, 18], "id": 156700, "original_language": "en", "original_title": "The Kings of Summer", "overview": "Joe Toy, on the verge of adolescence, finds himself increasingly frustrated by his single father, Frank's attempts to manage his life. Declaring his freedom once and for all, he escapes to a clearing in the woods with his best friend, Patrick, and a strange kid named Biaggio. He announces that they are going to build a house there, free from responsibility and parents. Once their makeshift abode is finished, the three young men find themselves masters of their own destiny, alone in the woods.", "poster_path": "/4HGYmH5mYcBBTIMHhbOBdT1Antl.jpg", "release_date": "2013-01-19", "title": "The Kings of Summer", "video": false, "vote_average": 7.0, "vote_count": 727, "popularity": 13.252}], "total_pages": 10, "total_results": 186}, "recommendations": {"page": 1, "results": [{"id": 552376, "video": false, "vote_count": 4, "vote_average": 6.5, "title": "Robowar", "release_date": "2018-10-11", "original_language": "en", "original_title": "Robowar", "genre_ids": [28, 878], "backdrop_path": null, "adult": false, "overview": "After nuclear warfare has decimated Earth, tyrants using service robots to enslave the population are met with a rebellion.", "poster_path": "/8O3hX4LmqzV40JCJoyfr6tgBAXZ.jpg", "popularity": 2.865}, {"adult": false, "backdrop_path": null, "genre_ids": [10751], "id": 619141, "original_language": "en", "original_title": "All Good Things", "overview": "Two big-city teenage sisters are sent to their grandparents' farm for Christmas break against their wishes. While there, the sisters connect to their roots and help save the farm from foreclosure.", "poster_path": "/I0KpchjTwoh4x8YYFoqEI3ly7l.jpg", "release_date": "2019-07-29", "title": "All Good Things", "video": false, "vote_average": 8.1, "vote_count": 7, "popularity": 1.519}], "total_pages": 1, "total_results": 2}, "credits": {"cast": [{"cast_id": 0, "character": "Ben Crowley", "credit_id": "5bfc64760e0a2636ce01b181", "gender": 2, "id": 10127, "name": "Jon Voight", "order": 1, "profile_path": "/oxLsItDwLddXu8YYJCfkddYNejL.jpg"}, {"cast_id": 1, "character": "Shelly", "credit_id": "5bfc648d9251411116017dc4", "gender": 1, "id": 1540602, "name": "Alexa Nisenson", "order": 2, "profile_path": "/j9L9KLdo263svx8BMlYl2avi6l6.jpg"}, {"cast_id": 6, "character": "Caroline Crowley", "credit_id": "5c04aae7c3a36861f90cd8a8", "gender": 1, "id": 139745, "name": "Vail Bloom", "order": 3, "profile_path": "/xoiNemZzBD5EShofmxrv5PPpwkz.jpg"}, {"cast_id": 7, "character": "Marta Jenkins", "credit_id": "5c04ab0b92514113290b7b75", "gender": 1, "id": 121769, "name": "Eva LaRue", "order": 4, "profile_path": "/eTaPs2LzZELjc8psM5wF28qeWj0.jpg"}, {"cast_id": 8, "character": "Sheriff Jake Givens", "credit_id": "5c04ab2bc3a36861f90cd907", "gender": 2, "id": 58881, "name": "Philip Boyd", "order": 5, "profile_path": "/9NkySu12ql1OeYiNbrivtY4zgDo.jpg"}, {"cast_id": 9, "character": "Gerald Jenkins", "credit_id": "5c04ab460e0a2629ce0baa36", "gender": 0, "id": 1391810, "name": "Scott Summitt", "order": 6, "profile_path": null}], "crew": [{"credit_id": "5bfc674f0e0a26388801bdf4", "department": "Directing", "gender": 2, "id": 129952, "job": "Director", "name": "Sean McNamara", "profile_path": "/cJqKChoJhnyCdtkMCRo69fofxgD.jpg"}, {"credit_id": "5bfc676ac3a36861f901d625", "department": "Writing", "gender": 2, "id": 1251760, "job": "Writer", "name": "Mark Hefti", "profile_path": "/iXNG331Ldz6um20E8PmtP0T9PkF.jpg"}, {"credit_id": "5c04aab7c3a36869ae0c1955", "department": "Writing", "gender": 2, "id": 16838, "job": "Story", "name": "Steven Paul", "profile_path": "/r3QqlY7B8sefjiCUAJhREuA5NJB.jpg"}]}}