{"adult": false, "backdrop_path": "/hARfzBSEnkul5EBEzof2Y5y4YAg.jpg", "belongs_to_collection": null, "budget": 0, "genres": [{"id": 99, "name": "Documentary"}], "homepage": "http://knockdownthehouse.com/", "id": 565312, "imdb_id": "tt9358052", "original_language": "en", "original_title": "Knock Down the House", "overview": "In 2018, a young bartender in the Bronx, a coal miner\u2019s daughter in West Virginia, a grieving mother in Nevada and a registered nurse in Missouri join a movement of insurgent candidates challenging powerful incumbents in Congress. Without political experience or corporate money, these four women are attempting to do what many consider impossible.", "popularity": 7.94, "poster_path": "/uAfixuZIFVbWIsWytzROJDY85D7.jpg", "production_companies": [{"id": 34526, "logo_path": "/wB84SoAeyNC1MKOU4Gvz8Bc4jKu.png", "name": "Atlas Films", "origin_country": "US"}, {"id": 66478, "logo_path": "/u7WmMkfo9MqsqfD5cuDAbd0u1qY.png", "name": "Artemis Rising", "origin_country": "US"}], "production_countries": [{"iso_3166_1": "US", "name": "United States of America"}], "release_date": "2019-01-27", "revenue": 0, "runtime": 86, "spoken_languages": [{"iso_639_1": "en", "name": "English"}], "status": "Released", "tagline": "", "title": "Knock Down the House", "video": false, "vote_average": 7.4, "vote_count": 69, "keywords": {"keywords": [{"id": 240, "name": "underdog"}, {"id": 6085, "name": "election campaign"}, {"id": 33483, "name": "u.s. congress"}, {"id": 181656, "name": "political candidate"}, {"id": 206515, "name": "usa politics"}]}, "similar": {"page": 1, "results": [{"id": 1366, "video": false, "vote_count": 4244, "vote_average": 7.7, "title": "Rocky", "release_date": "1976-11-21", "original_language": "en", "original_title": "Rocky", "genre_ids": [18], "backdrop_path": "/2kkyt0FLROrXt41IgSdE7goCFNQ.jpg", "adult": false, "overview": "When world heavyweight boxing champion, Apollo Creed wants to give an unknown fighter a shot at the title as a publicity stunt, his handlers choose palooka Rocky Balboa, an uneducated collector for a Philadelphia loan shark. Rocky teams up with trainer  Mickey Goldmill to make the most of this once in a lifetime break.", "poster_path": "/9TUR3s1PMJHwDRbpm7PWQ0S7IRy.jpg", "popularity": 31.646}, {"adult": false, "backdrop_path": "/39iGTAyo60mk3KcMay2yYcLsUyP.jpg", "genre_ids": [53], "id": 11644, "original_language": "en", "original_title": "Blow Out", "overview": "Jack Terry is a master sound recordist who works on grade-B horror movies. Late one evening, he is recording sounds for use in his movies when he hears something unexpected through his sound equipment and records it. Curiosity gets the better of him when the media become involved, and he begins to unravel the pieces of a nefarious conspiracy. As he struggles to survive against his shadowy enemies and expose the truth, he does not know whom he can trust.", "poster_path": "/vt5d1gGPgkAKoKp127WPHjSJF3P.jpg", "release_date": "1981-07-24", "title": "Blow Out", "video": false, "vote_average": 7.4, "vote_count": 579, "popularity": 12.416}, {"id": 312221, "video": false, "vote_count": 4401, "vote_average": 7.4, "title": "Creed", "release_date": "2015-11-25", "original_language": "en", "original_title": "Creed", "genre_ids": [18], "backdrop_path": "/fs2yhdSCzMVlNECrN84WuCkgXov.jpg", "adult": false, "overview": "The former World Heavyweight Champion Rocky Balboa serves as a trainer and mentor to Adonis Johnson, the son of his late friend and former rival Apollo Creed.", "poster_path": "/hKzhV274pkZBSpXfCjUyzbyYKLl.jpg", "popularity": 17.844}, {"adult": false, "backdrop_path": "/uYusKBIK023fGZm5QycSpcfYbR4.jpg", "genre_ids": [18], "id": 2567, "original_language": "en", "original_title": "The Aviator", "overview": "A biopic depicting the life of filmmaker and aviation pioneer Howard Hughes from 1927 to 1947, during which time he became a successful film producer and an aviation magnate, while simultaneously growing more unstable due to severe obsessive-compulsive disorder.", "poster_path": "/3MKBQgIHI5DPVNvryiTesskS5mf.jpg", "release_date": "2004-12-17", "title": "The Aviator", "video": false, "vote_average": 7.2, "vote_count": 3055, "popularity": 21.267}, {"id": 77950, "video": false, "vote_count": 1943, "vote_average": 6.1, "title": "Turbo", "release_date": "2013-07-11", "original_language": "en", "original_title": "Turbo", "genre_ids": [16, 10751], "backdrop_path": "/dvdKrICCKP8Uh1Xqkn60oQXnYer.jpg", "adult": false, "overview": "The tale of an ordinary garden snail who dreams of winning the Indy 500.", "poster_path": "/kajPlPUgobxci8ME5oqvzjN430q.jpg", "popularity": 17.728}, {"id": 429197, "video": false, "vote_count": 1765, "vote_average": 7.1, "title": "Vice", "release_date": "2018-12-25", "original_language": "en", "original_title": "Vice", "genre_ids": [35, 18, 36], "backdrop_path": "/n49difnnZ8e0CZTvulnMRoURdQj.jpg", "adult": false, "overview": "George W. Bush picks Dick Cheney, the CEO of Halliburton Co., to be his Republican running mate in the 2000 presidential election. No stranger to politics, Cheney's impressive r\u00e9sum\u00e9 includes stints as White House chief of staff, House Minority Whip and defense secretary. When Bush wins by a narrow margin, Cheney begins to use his newfound power to help reshape the country and the world.", "poster_path": "/seqLrPNbWJdcX6PeEhBNkmxjz6h.jpg", "popularity": 20.026}, {"adult": false, "backdrop_path": "/5cU4aQsBVCAnDarJHGYmi6RRRGC.jpg", "genre_ids": [12, 37], "id": 576, "original_language": "en", "original_title": "The Wild Bunch", "overview": "Aging outlaw, Pike Bishop prepares to retire after one final robbery. Joined by his gang, Dutch Engstrom and brothers Lyle and Tector Gorch, Bishop discovers the heist is a setup orchestrated in part by a former partner, Deke Thornton. As the remaining gang takes refuge in Mexican territory, Thornton trails them\u2014resulting in fierce gunfights with plenty of casualties.", "poster_path": "/zZhp7p8qvfVrSLKpOFHcKjpEj8f.jpg", "release_date": "1969-06-17", "title": "The Wild Bunch", "video": false, "vote_average": 7.7, "vote_count": 556, "popularity": 12.511}, {"id": 8328, "video": false, "vote_count": 1486, "vote_average": 6.6, "title": "Step Up 2: The Streets", "release_date": "2008-02-14", "original_language": "en", "original_title": "Step Up 2: The Streets", "genre_ids": [18, 10402, 10749], "backdrop_path": "/fGq48GZp2PLVgx9IwW5lBf4DBYJ.jpg", "adult": false, "overview": "When rebellious street dancer Andie lands at the elite Maryland School of the Arts, she finds herself fighting to fit in while also trying to hold onto her old life. When she joins forces with the schools hottest dancer, Chase, to form a crew of classmate outcasts to compete in Baltimore s underground dance battle The Streets.", "poster_path": "/5SwoeOUyfkS8s6aGB2bLYAL5jKR.jpg", "popularity": 18.121}, {"adult": false, "backdrop_path": "/bWoNwo04ZfZoEvEF8gliyB1EAyS.jpg", "genre_ids": [35, 18], "id": 586, "original_language": "en", "original_title": "Wag the Dog", "overview": "During the final weeks of a presidential race, the President is accused of sexual misconduct. To distract the public until the election, the President's adviser hires a Hollywood producer to help him stage a fake war.", "poster_path": "/cGatilylRyJiCoOu5T5sAB17HKR.jpg", "release_date": "1997-12-25", "title": "Wag the Dog", "video": false, "vote_average": 6.9, "vote_count": 490, "popularity": 13.041}, {"adult": false, "backdrop_path": "/uSWzHRan14Kxe7AgbA43CSN1fXw.jpg", "genre_ids": [18, 80], "id": 4982, "original_language": "en", "original_title": "American Gangster", "overview": "Following the death of his employer and mentor, Bumpy Johnson, Frank Lucas establishes himself as the number one importer of heroin in the Harlem district of Manhattan. He does so by buying heroin directly from the source in South East Asia and he comes up with a unique way of importing the drugs into the United States. Partly based on a true story.", "poster_path": "/uDSP5H5akJ85xMGSHRtaqHGBRLD.jpg", "release_date": "2007-11-02", "title": "American Gangster", "video": false, "vote_average": 7.6, "vote_count": 3004, "popularity": 18.946}, {"adult": false, "backdrop_path": "/jSL39cn3irkniMXthexHksr0ksA.jpg", "genre_ids": [14, 18, 10749], "id": 162, "original_language": "en", "original_title": "Edward Scissorhands", "overview": "A small suburban town receives a visit from a castaway unfinished science experiment named Edward.", "poster_path": "/kgLTB53HinftRRwhft7yrUOclDC.jpg", "release_date": "1990-12-05", "title": "Edward Scissorhands", "video": false, "vote_average": 7.7, "vote_count": 8174, "popularity": 30.349}, {"adult": false, "backdrop_path": "/pyopmpNMW3mTBz0ZqInyGYDEgb6.jpg", "genre_ids": [18, 53], "id": 11062, "original_language": "en", "original_title": "City Hall", "overview": "The accidental shooting of a boy in New York leads to an investigation by the Deputy Mayor, and unexpectedly far-reaching consequences.", "poster_path": "/ttdjD9NpxXsTJidPT3o1Gk0oTkG.jpg", "release_date": "1996-02-16", "title": "City Hall", "video": false, "vote_average": 6.1, "vote_count": 123, "popularity": 8.487}, {"id": 9472, "video": false, "vote_count": 2070, "vote_average": 6.2, "title": "DodgeBall: A True Underdog Story", "release_date": "2004-06-18", "original_language": "en", "original_title": "DodgeBall: A True Underdog Story", "genre_ids": [35], "backdrop_path": "/yM4k71Y6bEuVl7EX46OJ2fvyFHV.jpg", "adult": false, "overview": "When megalomaniacal White Goodman, the owner of a trendy, high-end fitness center, makes a move to take over the struggling local gym run by happy-go-lucky Pete La Fleur, there's only one way for La Fleur to fight back: dodgeball. Aided by a dodgeball guru and Goodman's attorney, La Fleur and his rag-tag team of underdogs launch a knock-down, drag-out battle in which the winner takes all.", "poster_path": "/c7biFO9cEl5hOSvZRMuuJohH5f3.jpg", "popularity": 21.78}, {"adult": false, "backdrop_path": "/1UuKU8fhAEKPkZzXZvpg15QIVnT.jpg", "genre_ids": [18], "id": 300693, "original_language": "en", "original_title": "Truth", "overview": "As a renowned producer and close associate of Dan Rather, Mary Mapes believes she\u2019s broken the biggest story of the 2004 election: revelations of a sitting U.S. President\u2019s military service. But when allegations come pouring in, sources change their stories, document authenticity is questioned, and the casualties begin to mount.", "poster_path": "/qmpMRABYbQjgtxwJ6xMPc8KskzA.jpg", "release_date": "2015-10-16", "title": "Truth", "video": false, "vote_average": 6.6, "vote_count": 293, "popularity": 9.426}, {"id": 11397, "video": false, "vote_count": 1033, "vote_average": 5.5, "title": "Not Another Teen Movie", "release_date": "2001-12-07", "original_language": "en", "original_title": "Not Another Teen Movie", "genre_ids": [35], "backdrop_path": "/4HjjbLhpcnPSYSlkYHM5SjbBVai.jpg", "adult": false, "overview": "On a bet, a gridiron hero at John Hughes High School sets out to turn a bespectacled plain Jane into a beautiful and popular prom queen in this outrageous send-up of the teen movie genre.", "poster_path": "/lUUyU80dWllaya1WhskDZKW6uHq.jpg", "popularity": 13.821}, {"id": 982, "video": false, "vote_count": 320, "vote_average": 7.8, "title": "The Manchurian Candidate", "release_date": "1962-10-24", "original_language": "en", "original_title": "The Manchurian Candidate", "genre_ids": [18, 53], "backdrop_path": "/zEMzPzNzYACzN3UdDhbHCG3xZTb.jpg", "adult": false, "overview": "Near the end of the Korean War, a platoon of U.S. soldiers is captured by communists and brainwashed. Following the war, the platoon is returned home, and Sergeant Raymond Shaw is lauded as a hero by the rest of his platoon. However, the platoon commander, Captain Bennett Marco, finds himself plagued by strange nightmares and soon races to uncover a terrible plot.", "poster_path": "/h0mkK00GjBCJoBYm3yvPdkzlIyV.jpg", "popularity": 12.109}, {"id": 3083, "video": false, "vote_count": 516, "vote_average": 8.0, "title": "Mr. Smith Goes to Washington", "release_date": "1939-10-19", "original_language": "en", "original_title": "Mr. Smith Goes to Washington", "genre_ids": [35, 18], "backdrop_path": "/dwy7iMMePSfSNXvahTQPmygot1g.jpg", "adult": false, "overview": "Naive and idealistic Jefferson Smith, leader of the Boy Rangers, is appointed to the United States Senate by the puppet governor of his state. He soon discovers, upon going to Washington, many shortcomings of the political process as his earnest goal of a national boys' camp leads to a conflict with the state political boss.", "poster_path": "/5Z7WhbH9yinIcvEDtUUbbMUQHRY.jpg", "popularity": 10.07}, {"id": 11081, "video": false, "vote_count": 780, "vote_average": 6.2, "title": "Taking Lives", "release_date": "2004-03-19", "original_language": "en", "original_title": "Taking Lives", "genre_ids": [28, 80, 18, 9648, 53], "backdrop_path": "/qcjTmSVyYqGMCVRH7FjXwMdan40.jpg", "adult": false, "overview": "Recruited to assist Montreal police in their desperate search for a serial killer who assumes the identities of his victims, FBI profiler Illeana Scott knows it's only a matter of time before the killer strikes again. Her most promising lead is a museum employee who might be the killer's only eyewitness.", "poster_path": "/xO14kWYB9ZhiBw5KqGK9oIl5YoQ.jpg", "popularity": 14.819}, {"adult": false, "backdrop_path": "/86UvnqQsefvHfBX6F65PUQHjVPc.jpg", "genre_ids": [18], "id": 881, "original_language": "en", "original_title": "A Few Good Men", "overview": "When cocky military lawyer Lt. Daniel Kaffee and his co-counsel, Lt. Cmdr. JoAnne Galloway, are assigned to a murder case, they uncover a hazing ritual that could implicate high-ranking officials such as shady Col. Nathan Jessep.", "poster_path": "/WgWLwk55YaXFZdlMnPJTKlxGcz.jpg", "release_date": "1992-12-11", "title": "A Few Good Men", "video": false, "vote_average": 7.4, "vote_count": 1796, "popularity": 19.742}, {"adult": false, "backdrop_path": "/wrmr8lCW7EPHLbFe1GjnyZZecGL.jpg", "genre_ids": [28, 18, 53, 80, 9648], "id": 9386, "original_language": "en", "original_title": "In the Line of Fire", "overview": "Veteran Secret Service agent Frank Horrigan is a man haunted by his failure to save President Kennedy while serving protection detail in Dallas. Thirty years later, a man calling himself \"Booth\" threatens the life of the current President, forcing Horrigan to come back to protection detail to confront the ghosts from his past.", "poster_path": "/bmeD5LdQiRaZmVHbySXw6WJgAVA.jpg", "release_date": "1993-07-08", "title": "In the Line of Fire", "video": false, "vote_average": 6.9, "vote_count": 753, "popularity": 10.664}], "total_pages": 14, "total_results": 271}, "recommendations": {"page": 1, "results": [{"adult": false, "backdrop_path": "/AgXs2Eswupt2ESt18y7hpPe0Dt9.jpg", "genre_ids": [99], "id": 592303, "original_language": "ko", "original_title": "\ubd80\uc7ac\uc758 \uae30\uc5b5", "overview": "When the MV Sewol ferry sank off the coast of South Korea in 2014, over three hundred people lost their lives, most of them schoolchildren. Years later, the victims\u2019 families and survivors are still demanding justice from national authorities.", "poster_path": "/A91I9e4G241ikqn3pwahcIUhqDA.jpg", "release_date": "2018-11-09", "title": "In the Absence", "video": false, "vote_average": 7.8, "vote_count": 7, "popularity": 3.335}, {"adult": false, "backdrop_path": "/9khLvvOu4afD2WJ2uFm9Q8BRFwr.jpg", "genre_ids": [99], "id": 380592, "original_language": "sv", "original_title": "Hopptornet", "overview": "10 Meter Tower is a short film taking place in a swimming pool with 6 cameras aimed at the tallest diving tower. All focus is on the 43 people between 9 and 78 years old. They have one thing in common, this is the first time in their lives they climb up to the platform to make the decision whether to jump or not. The situation itself highlights a dilemma: to weigh the instinctive fear of taking the step out against the humiliation of having to climb down.", "poster_path": "/8iKaIHA4wHQqfc1e4nRgsyy9aWO.jpg", "release_date": "2016-01-29", "title": "Ten Meter Tower", "video": false, "vote_average": 7.1, "vote_count": 7, "popularity": 1.261}, {"id": 565716, "video": false, "vote_count": 69, "vote_average": 7.1, "title": "American Factory", "release_date": "2019-08-21", "original_language": "en", "original_title": "American Factory", "genre_ids": [99], "backdrop_path": "/r1QbTeE3qMXgKkGgFcHJCwDQrMg.jpg", "adult": false, "overview": "In post-industrial Ohio, a Chinese billionaire opens a new factory in the husk of an abandoned General Motors plant, hiring two thousand blue-collar Americans. Early days of hope and optimism give way to setbacks as high-tech China clashes with working-class America.", "poster_path": "/7jH3dQOJ3CHMrp9tWsI3rRCDiaD.jpg", "popularity": 13.215}, {"adult": false, "backdrop_path": "/uvDYzjLIJmajTCRuepo3W6fXoFj.jpg", "genre_ids": [99], "id": 40862, "original_language": "en", "original_title": "Iraq for Sale: The War Profiteers", "overview": "Documentary portraying the actions of U.S. corporate contractors in the U.S.-Iraq war. Interviews with employees and former employees of such companies as Halliburton, CACI, and KBR suggest that government cronyism is behind apparent \"sweetheart\" deals that give such contractors enormous freedom to profit from supplying support and material to American troops while providing little oversight. Survivors of employees who were killed discuss the claim that the companies cared more for profit than for the welfare of their own workers, and soldiers indicate that the quality of services provided is sub-standard and severely in contradiction to the comparatively huge profits being generated. Also depicted are the unsuccessful attempts by the filmmakers to get company spokesmen to respond to the charges made by the interviewees.", "poster_path": "/t4gyeCWnBsTimm1ZzeWrQxK2MlA.jpg", "release_date": "2006-01-01", "title": "Iraq for Sale: The War Profiteers", "video": false, "vote_average": 8.4, "vote_count": 14, "popularity": 2.779}, {"adult": false, "backdrop_path": null, "genre_ids": [99], "id": 114516, "original_language": "en", "original_title": "Genocide", "overview": "The mass murder of Jewish people by the Nazi regime is chronicled, with a warning that anti-Semitism is on the rise and the events of the Holocaust could happen again. The history of European Jewish culture and events before and during the Holocaust are seen in newsreels, photographs, and animated segments. The words of the victims of the era are read, and footage from the liberation os a concentration camp is shown.", "poster_path": "/wiEDf2FwdjKQOLa0nogHfcWkTVp.jpg", "release_date": "1982-03-14", "title": "Genocide", "video": false, "vote_average": 7.5, "vote_count": 4, "popularity": 1.396}, {"adult": false, "backdrop_path": "/1GaQIUDfx6pKHnlmWmRzKuGYOq8.jpg", "genre_ids": [99], "id": 532100, "original_language": "en", "original_title": "Merata: How Mum Decolonised the Screen", "overview": "New Zealand film archivist Heperi Mita traces the cinematic legacy of his mother and trailblazing Maori filmmaker Merata Mita.", "poster_path": "/5cKMfbI8A5hDty0SJzFwKLp1qqk.jpg", "release_date": "2019-02-10", "title": "Merata: How Mum Decolonised the Screen", "video": false, "vote_average": 7.3, "vote_count": 4, "popularity": 1.984}, {"adult": false, "backdrop_path": "/tUr1ewiyvMf33KAe7gKpFluHu0Y.jpg", "genre_ids": [99], "id": 15320, "original_language": "en", "original_title": "I.O.U.S.A.", "overview": "With the country's debt growing out of control, Americans by and large are unaware of the looming financial crisis. This documentary examines several of the ways America can get its economy back on the right track. In addition to looking at the federal deficit and trade deficit, the film also closely explores the challenges of funding national entitlement programs such as Social Security, Medicare and Medicaid.", "poster_path": "/wd0ZtNMjGvvcvwmhE14h0XAHl4N.jpg", "release_date": "2008-01-19", "title": "I.O.U.S.A.", "video": false, "vote_average": 6.9, "vote_count": 24, "popularity": 4.572}, {"adult": false, "backdrop_path": "/wQbVjFIMzActKlz2a0fyh2fcTUx.jpg", "genre_ids": [99], "id": 250902, "original_language": "en", "original_title": "The Image Revolution", "overview": "Twenty years ago, seven superstar artists left Marvel Comics to create their own company, Image Comics, a company that continues to influence mainstream comics and pop culture to this day. Image began as more than just a publisher - it was a response to years of creator mistreatment, and changed comics forever. The Image Revolution tells the story of Image Comics, from its founders' work at Marvel, through Image's early success, company difficulties during the comics market implosion, and ultimately the publisher's new generation of properties like The Walking Dead. Filled with colorful characters, the film is a clarion call to artists to take control of their destiny.", "poster_path": "/cM54OfO87jStyYCX98OtY0gpP1b.jpg", "release_date": "2013-11-21", "title": "The Image Revolution", "video": false, "vote_average": 6.5, "vote_count": 6, "popularity": 3.182}, {"adult": false, "backdrop_path": "/5pOLJixGzjcmaJnpedSL8jNUOM.jpg", "genre_ids": [99], "id": 343887, "original_language": "en", "original_title": "The Last Laugh", "overview": "Feature documentary about humor and the Holocaust, examining whether it is ever acceptable to use humor in connection with a tragedy of that scale, and the implications for other seemingly off-limits topics in a society that prizes free speech.", "poster_path": "/aSx9GuubOqbCUWAJjt62UogsES2.jpg", "release_date": "2016-04-18", "title": "The Last Laugh", "video": false, "vote_average": 7.3, "vote_count": 10, "popularity": 3.697}, {"adult": false, "backdrop_path": "/ha0tTXTpfM7SC6YZGXcUaklWch4.jpg", "genre_ids": [99], "id": 30312, "original_language": "en", "original_title": "Outrage", "overview": "An indictment of closeted politicians who lobby for anti-gay legislation in the U.S.", "poster_path": "/rHcjtC8ObuJ092ZY1mntDeIV9AH.jpg", "release_date": "2009-01-01", "title": "Outrage", "video": false, "vote_average": 7.5, "vote_count": 16, "popularity": 2.891}, {"adult": false, "backdrop_path": "/y5KOiOO8fxiZ8QoXkHYmthWrcS6.jpg", "genre_ids": [99], "id": 502154, "original_language": "en", "original_title": "Alt-Right: Age of Rage", "overview": "In the first year of Trump\u2019s Presidency, Daryle Lamont Jenkins, an Antifa activist, combats the rise of the Alt-Right movement, while Richard Spencer, an Alt-Right leader, fights to gain ground, culminating in a tragic showdown in Charlottesville.", "poster_path": "/2AE60rfn58elDPfim1ZRu0Zj94t.jpg", "release_date": "2018-03-09", "title": "Alt-Right: Age of Rage", "video": false, "vote_average": 6.1, "vote_count": 7, "popularity": 2.253}, {"id": 576334, "video": false, "vote_count": 9, "vote_average": 6.1, "title": "The Brink", "release_date": "2019-03-29", "original_language": "en", "original_title": "The Brink", "genre_ids": [99], "backdrop_path": "/5CO6L8FtD1PXAzSUYvFSoR3suU2.jpg", "adult": false, "overview": "Now unconstrained by an official post, Steve Bannon is free to peddle influence as a perceived kingmaker, who some say still has a direct line to the White House. After anointing himself leader of the \u201cpopulist movement,\u201d he travels around the U.S. and the world spreading his hard-line anti-immigration message.", "poster_path": "/sMDoEMjnALRMA2oa9pl4QVjwsXZ.jpg", "popularity": 3.911}, {"adult": false, "backdrop_path": null, "genre_ids": [99], "id": 373470, "original_language": "en", "original_title": "Uncle Howard", "overview": "When Howard Brookner lost his life to AIDS in 1989, the 35-year-old director had completed two feature documentaries and was in post-production on his narrative debut, Bloodhounds of Broadway. Twenty-five years later, his nephew, Aaron, sets out on a quest to find the lost negative of Burroughs: The Movie, his uncle's critically-acclaimed portrait of legendary author William S. Burroughs. When Aaron uncovers Howard's extensive archive in Burroughs\u2019 bunker, it not only revives the film for a new generation, but also opens a vibrant window on New York City\u2019s creative culture from the 1970s and \u201880s, and inspires a wide-ranging exploration of his beloved uncle's legacy.", "poster_path": "/qEiCXG0pF58EvnQIb7pn14tyUqf.jpg", "release_date": "2017-03-10", "title": "Uncle Howard", "video": false, "vote_average": 6.6, "vote_count": 8, "popularity": 1.736}, {"adult": false, "backdrop_path": "/iey1QyHkcQ3l8okxv9GN6vcSGAl.jpg", "genre_ids": [99], "id": 490785, "original_language": "en", "original_title": "Hale County This Morning, This Evening", "overview": "Composed of intimate and unencumbered moments of people in a community, this film is constructed in a form that allows the viewer an emotive impression of the Historic South - trumpeting the beauty of life and consequences of the social construction of race, while simultaneously a testament to dreaming.", "poster_path": "/yzso3kOTsilpu25bnDhAkxPWoTT.jpg", "release_date": "2018-01-19", "title": "Hale County This Morning, This Evening", "video": false, "vote_average": 6.3, "vote_count": 27, "popularity": 4.082}, {"adult": false, "backdrop_path": "/6K7qzg1BsmqW87K6NmCXmxNE0nJ.jpg", "genre_ids": [99], "id": 127878, "original_language": "en", "original_title": "Casting By", "overview": "This essential new documentary pays tribute to the legacy of the late, legendary casting director Marion Dougherty and shines a light on one of the most overlooked and least understood crafts in filmmaking.", "poster_path": "/6e4BkMnt42OCzH5e3xOXgWVYh2v.jpg", "release_date": "2012-09-09", "title": "Casting By", "video": false, "vote_average": 7.5, "vote_count": 21, "popularity": 4.875}, {"id": 565341, "video": false, "vote_count": 10, "vote_average": 6.4, "title": "The Sound of Silence", "release_date": "2019-09-13", "original_language": "en", "original_title": "The Sound of Silence", "genre_ids": [18], "backdrop_path": "/mrH2HxDl0p7evhNqSGN7SIYpVRG.jpg", "adult": false, "overview": "A successful \"house tuner\" in New York City, who calibrates the sound in people's homes in order to adjust their moods, meets a client with a problem he can't solve.", "poster_path": "/dXkv8lkX9gdJyUxxrulJ2PWzidI.jpg", "popularity": 7.619}], "total_pages": 1, "total_results": 16}, "credits": {"cast": [{"cast_id": 3, "character": "Herself", "credit_id": "5c56fc3dc3a3680b578738ae", "gender": 1, "id": 2073292, "name": "Alexandria Ocasio-Cortez", "order": 1, "profile_path": "/utcpAmd5LKqifepfmKF37U7cm6M.jpg"}, {"cast_id": 4, "character": "", "credit_id": "5c56fc8792514116fc5822dc", "gender": 1, "id": 2233895, "name": "Cori Bush", "order": 2, "profile_path": null}, {"cast_id": 5, "character": "", "credit_id": "5c56fcf5925141544863a2f9", "gender": 2, "id": 2233897, "name": "Joe Crowley", "order": 3, "profile_path": null}, {"cast_id": 6, "character": "", "credit_id": "5c56fd05c3a3680b5787395d", "gender": 1, "id": 2233898, "name": "Paula Jean Swearingen", "order": 4, "profile_path": null}, {"cast_id": 7, "character": "", "credit_id": "5c56fd1592514116fc58237c", "gender": 1, "id": 2233899, "name": "Amy Vilela", "order": 5, "profile_path": null}, {"cast_id": 19, "character": "Herself (archive footage)", "credit_id": "5d101e139251417099beb7de", "gender": 1, "id": 984100, "name": "Nancy Pelosi", "order": 6, "profile_path": "/hNJL7uyqIt1Z5Cjgdwk9KerxM7p.jpg"}], "crew": [{"credit_id": "5c1815df0e0a2603783e8194", "department": "Directing", "gender": 1, "id": 1387584, "job": "Director", "name": "Rachel Lears", "profile_path": null}, {"credit_id": "5c1815fc0e0a2603753e76c8", "department": "Camera", "gender": 1, "id": 1387584, "job": "Director of Photography", "name": "Rachel Lears", "profile_path": null}, {"credit_id": "5c59bbdec3a368478ca62a7b", "department": "Production", "gender": 1, "id": 126148, "job": "Producer", "name": "Sarah Olson", "profile_path": null}, {"credit_id": "5c59bbfb9251415448687292", "department": "Editing", "gender": 2, "id": 1387580, "job": "Editor", "name": "Robin Blotnick", "profile_path": null}, {"credit_id": "5c59bc0d92514116fc5ccb20", "department": "Sound", "gender": 2, "id": 1387583, "job": "Original Music Composer", "name": "Ryan Blotnick", "profile_path": null}, {"credit_id": "5cbf1451c3a368596a811e92", "department": "Production", "gender": 1, "id": 1387584, "job": "Producer", "name": "Rachel Lears", "profile_path": null}, {"credit_id": "5cbf145692514151cafb4215", "department": "Writing", "gender": 1, "id": 1387584, "job": "Writer", "name": "Rachel Lears", "profile_path": null}, {"credit_id": "5cbf147f92514108d80110cd", "department": "Writing", "gender": 2, "id": 1387583, "job": "Writer", "name": "Ryan Blotnick", "profile_path": null}, {"credit_id": "5cbf14a592514151cafb4291", "department": "Production", "gender": 1, "id": 1147955, "job": "Executive Producer", "name": "Regina Kulik Scully", "profile_path": null}, {"credit_id": "5cbf14bcc3a368776c89850d", "department": "Editing", "gender": 2, "id": 1193309, "job": "Consulting Editor", "name": "David Teague", "profile_path": null}, {"credit_id": "5cbf14d1925141097dfb1708", "department": "Production", "gender": 0, "id": 126137, "job": "Executive Producer", "name": "Stephanie Soechtig", "profile_path": "/dgQITHQLP2KilyFUfCD2XztHryQ.jpg"}, {"credit_id": "5cbf14e1c3a368776c898586", "department": "Production", "gender": 1, "id": 1932266, "job": "Executive Producer", "name": "Kristin Lazure", "profile_path": null}, {"credit_id": "5cbf1528925141066efb39c4", "department": "Sound", "gender": 2, "id": 1408770, "job": "Sound Recordist", "name": "Rodrigo Salvatierra", "profile_path": null}]}}