{"adult": false, "backdrop_path": "/ivxJO7AOA82TMb7nWTmyhDC4Ysl.jpg", "belongs_to_collection": null, "budget": 25400000, "genres": [{"id": 14, "name": "Fantasy"}, {"id": 16, "name": "Animation"}, {"id": 10751, "name": "Family"}], "homepage": "http://legendofsecretpass.com", "id": 56672, "imdb_id": "tt0765465", "original_language": "en", "original_title": "The Legend of Secret Pass", "overview": "A Native American teenager named Manu spends the summer with his grandfather high in the desert mountains. As a terrifying doom approaches, Manu must embrace his remarkable destiny and take on an incredible responsibility if he and his family are to thrive and survive.", "popularity": 7.074, "poster_path": "/dFC6tJmIeAAR6RrPGqVR3fyPQeO.jpg", "production_companies": [{"id": 113731, "logo_path": null, "name": "JC2 Animated Entertainment", "origin_country": ""}, {"id": 113732, "logo_path": null, "name": "Lords Productions", "origin_country": ""}, {"id": 113733, "logo_path": null, "name": "Strategic Dreamers", "origin_country": ""}, {"id": 113734, "logo_path": null, "name": "310 Studios", "origin_country": ""}, {"id": 113735, "logo_path": null, "name": "Arkwatch Holdings", "origin_country": ""}], "production_countries": [{"iso_3166_1": "US", "name": "United States of America"}], "release_date": "2019-01-15", "revenue": 0, "runtime": 92, "spoken_languages": [{"iso_639_1": "en", "name": "English"}], "status": "Released", "tagline": "As the forces of Darkness and Light collide, a child holds the key...to the Secret Pass.", "title": "The Legend of Secret Pass", "video": false, "vote_average": 6.0, "vote_count": 5, "keywords": {"keywords": [{"id": 1262, "name": "mountain"}, {"id": 2035, "name": "mythology"}, {"id": 2343, "name": "magic"}, {"id": 18165, "name": "animal"}, {"id": 161155, "name": "kids"}, {"id": 207560, "name": "thunderbirds"}, {"id": 249077, "name": "american indian"}]}, "similar": {"page": 1, "results": [{"id": 11527, "video": false, "vote_count": 499, "vote_average": 7.0, "title": "Excalibur", "release_date": "1981-04-10", "original_language": "en", "original_title": "Excalibur", "genre_ids": [12, 14], "backdrop_path": "/9IbRRZbQSwFdu026I8GkfrzRRNY.jpg", "adult": false, "overview": "A surreal adaptation of Sir Thomas Malory's \"Le Morte d'Arthur\", chronicling Arthur Pendragon's conception, his rise to the throne, the search by his Knights of the Round Table for the Holy Grail, and ultimately his death.", "poster_path": "/j8UmbdA1TrIVY4FANymwBSmUuCH.jpg", "popularity": 14.629}, {"id": 68728, "video": false, "vote_count": 5072, "vote_average": 5.8, "title": "Oz the Great and Powerful", "release_date": "2013-03-07", "original_language": "en", "original_title": "Oz the Great and Powerful", "genre_ids": [12, 14, 10751], "backdrop_path": "/4cCQkOv4GfQoTtDzHl54KS3S39N.jpg", "adult": false, "overview": "Oscar Diggs, a small-time circus illusionist and con-artist, is whisked from Kansas to the Land of Oz where the inhabitants assume he's the great wizard of prophecy, there to save Oz from the clutches of evil.", "poster_path": "/7qzLIcYR7ev7iXngY8NKHBZHwwT.jpg", "popularity": 15.187}, {"id": 767, "video": false, "vote_count": 11644, "vote_average": 7.7, "title": "Harry Potter and the Half-Blood Prince", "release_date": "2009-07-07", "original_language": "en", "original_title": "Harry Potter and the Half-Blood Prince", "genre_ids": [12, 14], "backdrop_path": "/kRyojLYtWPsBKfDhphhhl1FdM5a.jpg", "adult": false, "overview": "As Harry begins his sixth year at Hogwarts, he discovers an old book marked as 'Property of the Half-Blood Prince', and begins to learn more about Lord Voldemort's dark past.", "poster_path": "/bFXys2nhALwDvpkF3dP3Vvdfn8b.jpg", "popularity": 35.059}, {"id": 671, "video": false, "vote_count": 15480, "vote_average": 7.8, "title": "Harry Potter and the Philosopher's Stone", "release_date": "2001-11-16", "original_language": "en", "original_title": "Harry Potter and the Philosopher's Stone", "genre_ids": [12, 14, 10751], "backdrop_path": "/hziiv14OpD73u9gAak4XDDfBKa2.jpg", "adult": false, "overview": "Harry Potter has lived under the stairs at his aunt and uncle's house his whole life. But on his 11th birthday, he learns he's a powerful wizard -- with a place waiting for him at the Hogwarts School of Witchcraft and Wizardry. As he learns to harness his newfound powers with the help of the school's kindly headmaster, Harry uncovers the truth about his parents' deaths -- and about the villain who's to blame.", "poster_path": "/gHPtCmMeDqjaGqnMrWGDmD3nKd2.jpg", "popularity": 58.781}, {"id": 11976, "video": false, "vote_count": 588, "vote_average": 6.2, "title": "Legend", "release_date": "1985-07-19", "original_language": "en", "original_title": "Legend", "genre_ids": [12, 14], "backdrop_path": "/kiTjtGWfQNuwz8YMyzicn4wDkET.jpg", "adult": false, "overview": "Set in a timeless mythical forest inhabited by fairies, goblins, unicorns and mortals, this fantastic story follows a mystical forest dweller, chosen by fate, to undertake a heroic quest. He must save the beautiful Princess  Lili and defeat the demonic Lord of Darkness, or the world will be plunged into a never-ending ice age.", "poster_path": "/xNWs9LM46vJWwf1q0VGPOccTKg4.jpg", "popularity": 13.92}, {"id": 2284, "video": false, "vote_count": 767, "vote_average": 6.2, "title": "Mr. Magorium's Wonder Emporium", "release_date": "2007-11-14", "original_language": "en", "original_title": "Mr. Magorium's Wonder Emporium", "genre_ids": [35, 14, 10751], "backdrop_path": "/icq8EO55IEvDo7OGCQfFXZ8l3Sv.jpg", "adult": false, "overview": "Molly Mahoney is the awkward and insecure manager of Mr. Magorium's Wonder Emporium\u2014the strangest, most fantastic and most wonderful toy store in the world. After Mr. Magorium bequeaths the store to her, a dark and ominous change begins to take over the once-remarkable Emporium.", "poster_path": "/75m4IBZE6gUrltcDgTSBTFg68QT.jpg", "popularity": 11.549}, {"id": 27022, "video": false, "vote_count": 3219, "vote_average": 6.0, "title": "The Sorcerer's Apprentice", "release_date": "2010-07-13", "original_language": "en", "original_title": "The Sorcerer's Apprentice", "genre_ids": [28, 12, 35, 18, 14], "backdrop_path": "/v0o9M1us65w1kDQp8Q6KnB5a11s.jpg", "adult": false, "overview": "Balthazar Blake is a master sorcerer in modern-day Manhattan trying to defend the city from his arch-nemesis, Maxim Horvath. Balthazar can't do it alone, so he recruits Dave Stutler, a seemingly average guy who demonstrates hidden potential, as his reluctant prot\u00e9g\u00e9. The sorcerer gives his unwilling accomplice a crash course in the art and science of magic, and together, these unlikely partners work to stop the forces of darkness.", "poster_path": "/ZNSrRpdJ6FjMy4Iu6JpRTJ5Q87.jpg", "popularity": 24.096}, {"id": 37430, "video": false, "vote_count": 1122, "vote_average": 5.2, "title": "Conan the Barbarian", "release_date": "2011-08-17", "original_language": "en", "original_title": "Conan the Barbarian", "genre_ids": [28, 12, 14], "backdrop_path": "/381rd4LVvy6AkSB9tqHNu81ftyR.jpg", "adult": false, "overview": "A quest that begins as a personal vendetta for the fierce Cimmerian warrior soon turns into an epic battle against hulking rivals, horrific monsters, and impossible odds, as Conan (Jason Momoa) realizes he is the only hope of saving the great nations of Hyboria from an encroaching reign of supernatural evil.", "poster_path": "/fQ0lcaOpn2WozSnL5hfAhH6tYOA.jpg", "popularity": 20.99}, {"id": 12445, "video": false, "vote_count": 12730, "vote_average": 8.1, "title": "Harry Potter and the Deathly Hallows: Part 2", "release_date": "2011-07-07", "original_language": "en", "original_title": "Harry Potter and the Deathly Hallows: Part 2", "genre_ids": [12, 14], "backdrop_path": "/n5A7brJCjejceZmHyujwUTVgQNC.jpg", "adult": false, "overview": "Harry, Ron and Hermione continue their quest to vanquish the evil Voldemort once and for all. Just as things begin to look hopeless for the young wizards, Harry discovers a trio of magical objects that endow him with powers to rival Voldemort's formidable skills.", "poster_path": "/fTplI1NCSuEDP4ITLcTps739fcC.jpg", "popularity": 48.576}, {"id": 6435, "video": false, "vote_count": 754, "vote_average": 6.5, "title": "Practical Magic", "release_date": "1998-10-16", "original_language": "en", "original_title": "Practical Magic", "genre_ids": [35, 14, 10749], "backdrop_path": "/2csru6TjDXExFgx5OXxJmRHujVs.jpg", "adult": false, "overview": "Sally and Gillian Owens, born into a magical family, have mostly avoided witchcraft themselves. But when Gillian's vicious boyfriend, Jimmy Angelov, dies unexpectedly, the Owens sisters give themselves a crash course in hard magic. With policeman Gary Hallet growing suspicious, the girls struggle to resurrect Angelov -- and unwittingly inject his corpse with an evil spirit that threatens to end their family line.", "poster_path": "/AwmToSgf2IL3aHv0QRVsR5KvChv.jpg", "popularity": 11.491}, {"id": 674, "video": false, "vote_count": 12268, "vote_average": 7.8, "title": "Harry Potter and the Goblet of Fire", "release_date": "2005-11-16", "original_language": "en", "original_title": "Harry Potter and the Goblet of Fire", "genre_ids": [12, 14, 10751], "backdrop_path": "/gzKW3emulMxIHzuXxZoyDB1lei9.jpg", "adult": false, "overview": "Harry starts his fourth year at Hogwarts, competes in the treacherous Triwizard Tournament and faces the evil Lord Voldemort. Ron and Hermione help Harry manage the pressure \u2013 but Voldemort lurks, awaiting his chance to destroy Harry and all that he stands for.", "poster_path": "/fECBtHlr0RB3foNHDiCBXeg9Bv9.jpg", "popularity": 37.055}, {"adult": false, "backdrop_path": "/aoHrTDANGQ05ygmLX49OXhTn9jA.jpg", "genre_ids": [12, 14, 28], "id": 9610, "original_language": "en", "original_title": "Conan the Destroyer", "overview": "Conan is commissioned by the evil queen Taramis to safely escort a teen princess and her powerful bodyguard to a far away castle to retrieve the magic Horn of Dagon. Unknown to Conan, the queen plans to sacrifice the princess when she returns and inherit her kingdom after the bodyguard kills Conan. The queen's plans fail to take into consideration Conan's strength and cunning and the abilities of his sidekicks: the eccentric wizard Akiro, the wild woman Zula, and the inept Malak. Together the hero and his allies must defeat both mortal and supernatural foes in this voyage to sword-and-sorcery land.", "poster_path": "/wLIpIZ0KBopuAsvPBQRSGNjjFVT.jpg", "release_date": "1984-06-29", "title": "Conan the Destroyer", "video": false, "vote_average": 6.0, "vote_count": 765, "popularity": 16.835}, {"id": 76492, "video": false, "vote_count": 5547, "vote_average": 6.9, "title": "Hotel Transylvania", "release_date": "2012-09-20", "original_language": "en", "original_title": "Hotel Transylvania", "genre_ids": [16, 35, 14, 10751], "backdrop_path": "/sETTal2HPPkUC3lWc27HL1AFu9C.jpg", "adult": false, "overview": "Welcome to Hotel Transylvania, Dracula's lavish five-stake resort, where monsters and their families can live it up and no humans are allowed. One special weekend, Dracula has invited all his best friends to celebrate his beloved daughter Mavis's 118th birthday. For Dracula catering to all of these legendary monsters is no problem but the party really starts when one ordinary guy stumbles into the hotel and changes everything!", "poster_path": "/9qugesYpAWHUpdrw2w8URSGkAPt.jpg", "popularity": 31.161}, {"adult": false, "backdrop_path": "/sG3Du3Ha6rGeSzFfXme1nh8S2Jl.jpg", "genre_ids": [18, 10751, 14, 12], "id": 34584, "original_language": "en", "original_title": "Die unendliche Geschichte", "overview": "While hiding from bullies in his school's attic, a young boy discovers the extraordinary land of Fantasia, through a magical book called The Neverending Story. The book tells the tale of Atreyu, a young warrior who, with the help of a luck dragon named Falkor, must save Fantasia from the destruction of The Nothing.", "poster_path": "/ddYCa91iDXfJCxaqSYzwi2fjfnl.jpg", "release_date": "1984-04-05", "title": "The NeverEnding Story", "video": false, "vote_average": 7.1, "vote_count": 2201, "popularity": 19.789}, {"id": 385448, "video": false, "vote_count": 575, "vote_average": 4.9, "title": "The Little Mermaid", "release_date": "2018-08-02", "original_language": "en", "original_title": "The Little Mermaid", "genre_ids": [12, 18, 14, 10749, 10751], "backdrop_path": "/1VA29YsS3JqEfmUr9QolY3La7xi.jpg", "adult": false, "overview": "A young reporter and his niece discover a beautiful and enchanting creature they believe to be the real little mermaid.", "poster_path": "/7Ax9O1wlFL0Cjl8YLwuXDGthovf.jpg", "popularity": 17.827}, {"adult": false, "backdrop_path": "/LXNMeisGBRDMERehjNQDnz9qKI.jpg", "genre_ids": [12, 14, 28], "id": 49051, "original_language": "en", "original_title": "The Hobbit: An Unexpected Journey", "overview": "Bilbo Baggins, a hobbit enjoying his quiet life, is swept into an epic quest by Gandalf the Grey and thirteen dwarves who seek to reclaim their mountain home from Smaug, the dragon.", "poster_path": "/h1XjBJoWdOh8aegBoVYKgABQZSL.jpg", "release_date": "2012-11-26", "title": "The Hobbit: An Unexpected Journey", "video": false, "vote_average": 7.2, "vote_count": 12886, "popularity": 36.93}, {"adult": false, "backdrop_path": "/5SX2rgKXZ7NVmAJR5z5LprqSXKa.jpg", "genre_ids": [28, 12, 14], "id": 68735, "original_language": "en", "original_title": "Warcraft", "overview": "The peaceful realm of Azeroth stands on the brink of war as its civilization faces a fearsome race of invaders: orc warriors fleeing their dying home to colonize another. As a portal opens to connect the two worlds, one army faces destruction and the other faces extinction. From opposing sides, two heroes are set on a collision course that will decide the fate of their family, their people, and their home.", "poster_path": "/ckrTPz6FZ35L5ybjqvkLWzzSLO7.jpg", "release_date": "2016-05-25", "title": "Warcraft", "video": false, "vote_average": 6.3, "vote_count": 4439, "popularity": 18.932}, {"id": 675, "video": false, "vote_count": 11931, "vote_average": 7.6, "title": "Harry Potter and the Order of the Phoenix", "release_date": "2007-06-28", "original_language": "en", "original_title": "Harry Potter and the Order of the Phoenix", "genre_ids": [12, 14, 9648], "backdrop_path": "/gGt4ePOhD8ilxd3FYhKB06L2CyG.jpg", "adult": false, "overview": "Returning for his fifth year of study at Hogwarts, Harry is stunned to find that his warnings about the return of Lord Voldemort have been ignored. Left with no choice, Harry takes matters into his own hands, training a small group of students \u2013 dubbed 'Dumbledore's Army' \u2013 to defend themselves against the dark arts.", "poster_path": "/4YnLxYLHhT4UQ8i9jxAXWy46Xuw.jpg", "popularity": 42.537}, {"id": 10439, "video": false, "vote_count": 1297, "vote_average": 6.8, "title": "Hocus Pocus", "release_date": "1993-07-16", "original_language": "en", "original_title": "Hocus Pocus", "genre_ids": [35, 14, 27, 10751], "backdrop_path": "/2gNbeYvgUJmANhBxVZ7eo4ojeun.jpg", "adult": false, "overview": "After 300 years of slumber, three sister witches are accidentally resurrected in Salem on Halloween night, and it is up to three kids and their newfound feline friend to put an end to the witches' reign of terror once and for all.", "poster_path": "/4boIuVTbEYv9pynSj99jK5EezfA.jpg", "popularity": 15.602}, {"id": 120, "video": false, "vote_count": 15878, "vote_average": 8.3, "title": "The Lord of the Rings: The Fellowship of the Ring", "release_date": "2001-12-18", "original_language": "en", "original_title": "The Lord of the Rings: The Fellowship of the Ring", "genre_ids": [28, 12, 14], "backdrop_path": "/pIUvQ9Ed35wlWhY2oU6OmwEsmzG.jpg", "adult": false, "overview": "Young hobbit Frodo Baggins, after inheriting a mysterious ring from his uncle Bilbo, must leave his home in order to keep it from falling into the hands of its evil creator. Along the way, a fellowship is formed to protect the ringbearer and make sure that the ring arrives at its final destination: Mt. Doom, the only place where it can be destroyed.", "poster_path": "/56zTpe2xvaA4alU51sRWPoKPYZy.jpg", "popularity": 46.673}], "total_pages": 11, "total_results": 213}, "recommendations": {"page": 1, "results": [], "total_pages": 1, "total_results": 0}, "credits": {"cast": [{"cast_id": 3, "character": "Manu (voice)", "credit_id": "52fe490cc3a36847f8186cb7", "gender": 2, "id": 51391, "name": "Frankie Muniz", "order": 0, "profile_path": "/tBckW8eJHv4vz8B3DJYH1rLAtyN.jpg"}, {"cast_id": 1, "character": "Parker (voice)", "credit_id": "52fe490cc3a36847f8186caf", "gender": 2, "id": 2372, "name": "Ron Perlman", "order": 1, "profile_path": "/xZyrXT2iEmSOokQRc1hedmxrbTi.jpg"}, {"cast_id": 2, "character": "Chuckster (voice)", "credit_id": "52fe490cc3a36847f8186cb3", "gender": 2, "id": 532, "name": "Joe Pantoliano", "order": 2, "profile_path": "/zBvDX2HWepvW9im6ikgoyOL2Xj0.jpg"}, {"cast_id": 4, "character": "Loo (voice)", "credit_id": "52fe490cc3a36847f8186cbb", "gender": 2, "id": 212, "name": "David Cross", "order": 3, "profile_path": "/bQemK8gYHSbxBtYb7FtHstAgLgA.jpg"}, {"cast_id": 5, "character": "Nitika (voice)", "credit_id": "52fe490cc3a36847f8186cbf", "gender": 1, "id": 57854, "name": "Cheryl Hines", "order": 4, "profile_path": "/iCxUHhKisQoyOZ4v3nOZeDc1YHk.jpg"}, {"cast_id": 6, "character": "Nica (voice)", "credit_id": "52fe490cc3a36847f8186cc3", "gender": 1, "id": 76241, "name": "Christy Carlson Romano", "order": 5, "profile_path": "/iAg6Tg32R04AXeeigur6A6vN4wH.jpg"}, {"cast_id": 7, "character": "Calabar (voice)", "credit_id": "52fe490cc3a36847f8186cc7", "gender": 2, "id": 19654, "name": "Michael Chiklis", "order": 6, "profile_path": "/fkJnjCERaqOky0gJrSHmwjQ9oOZ.jpg"}, {"cast_id": 8, "character": "Granpa (voice)", "credit_id": "52fe490cc3a36847f8186ccb", "gender": 2, "id": 6804, "name": "Graham Greene", "order": 7, "profile_path": "/2FxWI8Lv5Y2Qx0rxIynULlxLiF2.jpg"}, {"cast_id": 9, "character": "Ira (voice)", "credit_id": "52fe490cc3a36847f8186ccf", "gender": 2, "id": 10403, "name": "Shelley Berman", "order": 8, "profile_path": "/ka7bIOts2wVNqcdAvR8k24Z5d7h.jpg"}, {"cast_id": 10, "character": "Shelby (voice)", "credit_id": "52fe490cc3a36847f8186cd3", "gender": 1, "id": 73016, "name": "Debi Derryberry", "order": 9, "profile_path": "/mfmF3MjoL7sV76BSElFkVgDgA30.jpg"}, {"cast_id": 11, "character": "Qui Qui (voice)", "credit_id": "52fe490cc3a36847f8186cd7", "gender": 1, "id": 190352, "name": "Kim Mai Guest", "order": 10, "profile_path": "/9l8HiJXRamYVgTYUkTS2aBqAj11.jpg"}, {"cast_id": 17, "character": "Barth (voice)", "credit_id": "58eeca07c3a368601500206d", "gender": 0, "id": 1794967, "name": "Billy Jones", "order": 11, "profile_path": null}], "crew": [{"credit_id": "535d6dec0e0a264fde0052ac", "department": "Writing", "gender": 2, "id": 77544, "job": "Screenplay", "name": "Karl Geurs", "profile_path": null}, {"credit_id": "535d6ddd0e0a264feb00512b", "department": "Directing", "gender": 0, "id": 142007, "job": "Director", "name": "Steve Trenbirth", "profile_path": null}, {"credit_id": "535d6e000e0a264fe100521b", "department": "Writing", "gender": 0, "id": 1292063, "job": "Screenplay", "name": "James M. Costello", "profile_path": null}, {"credit_id": "5c44d6279251410e0e4ce20c", "department": "Writing", "gender": 0, "id": 1292063, "job": "Story", "name": "James M. Costello", "profile_path": null}, {"credit_id": "535d6e140e0a264fe100521e", "department": "Sound", "gender": 0, "id": 1314288, "job": "Music", "name": "Peter Kater", "profile_path": null}, {"credit_id": "5c44d6960e0a264965c58b75", "department": "Writing", "gender": 0, "id": 2222571, "job": "Screenplay", "name": "Erik Shein", "profile_path": null}, {"credit_id": "5c44d6779251410e144ce1e2", "department": "Writing", "gender": 0, "id": 2222571, "job": "Story", "name": "Erik Shein", "profile_path": null}]}}