{"adult": false, "backdrop_path": "/ovetvy3PEWMaovd2isXHOavbnfb.jpg", "belongs_to_collection": null, "budget": 710000, "genres": [{"id": 35, "name": "Comedy"}], "homepage": null, "id": 56836, "imdb_id": "tt0307681", "original_language": "zh", "original_title": "\u5c0f\u5b69\u4e0d\u7b28", "overview": "Kok Pin, Boon Hock and Terry are classmates in \"EM3\" stream. In Singapore, that means that at the age of 12, the government has decided that they are not as academically inclined as their peers. Kok Pin is creative and a born artist but his parents would rather he focus on his Maths and Sciences. Boon Hock comes from a low-income family and needs to balance school and helping out at the food stall. Terry, a spoilt brat is just too lazy a student. While the three children suffer from the pressure of school, their parents have another set of problems - their jobs and careers", "popularity": 2.88, "poster_path": "/ie2iIGMYj64WEyLwJYnwCOYMWn2.jpg", "production_companies": [{"id": 3405, "logo_path": null, "name": "MediaCorp Raintree Pictures", "origin_country": "SG"}], "production_countries": [{"iso_3166_1": "SG", "name": "Singapore"}], "release_date": "2002-02-09", "revenue": 2700000, "runtime": 105, "spoken_languages": [{"iso_639_1": "en", "name": "English"}, {"iso_639_1": "zh", "name": "\u666e\u901a\u8bdd"}], "status": "Released", "tagline": "", "title": "I Not Stupid", "video": false, "vote_average": 7.0, "vote_count": 9, "keywords": {"keywords": [{"id": 6733, "name": "bullying"}, {"id": 160246, "name": "childhood friends"}, {"id": 189156, "name": "primary school"}]}, "similar": {"page": 1, "results": [{"id": 258230, "video": false, "vote_count": 2101, "vote_average": 7.2, "title": "A Monster Calls", "release_date": "2016-10-07", "original_language": "en", "original_title": "A Monster Calls", "genre_ids": [18, 14], "backdrop_path": "/xVW8REyVqKwxAtUYY07UGlZH43L.jpg", "adult": false, "overview": "A boy imagines a monster that helps him deal with his difficult life and see the world in a different way.", "poster_path": "/oqZ0MBWxNrArZpyVqk3QGAA37QL.jpg", "popularity": 18.303}, {"id": 13310, "video": false, "vote_count": 1712, "vote_average": 7.5, "title": "Let the Right One In", "release_date": "2008-01-26", "original_language": "sv", "original_title": "L\u00e5t den r\u00e4tte komma in", "genre_ids": [18, 27], "backdrop_path": "/wMRVKIIIn5035KIY0J793aHWVOj.jpg", "adult": false, "overview": "Set in 1982 in the suburb of Blackeberg, Stockholm, twelve-year-old Oskar is a lonely outsider, bullied at school by his classmates; at home, Oskar dreams of revenge against a trio of bullies. He befriends his twelve-year-old, next-door neighbor Eli, who only appears at night in the snow-covered playground outside their building.", "poster_path": "/9FGpMfbpKjN7i2jF2gQpvQvK9VB.jpg", "popularity": 14.267}, {"id": 449176, "video": false, "vote_count": 3691, "vote_average": 8.1, "title": "Love, Simon", "release_date": "2018-02-16", "original_language": "en", "original_title": "Love, Simon", "genre_ids": [35, 18, 10749], "backdrop_path": "/rqMEeajyzSF4PpJtdCB816Iz8Vr.jpg", "adult": false, "overview": "Everyone deserves a great love story. But for seventeen-year old Simon Spier it's a little more complicated: he's yet to tell his family or friends he's gay and he doesn't know the identity of the anonymous classmate he's fallen for online.", "poster_path": "/5YUYg5q7QfC4IoNwNUtiwdiYKPr.jpg", "popularity": 17.201}, {"id": 9906, "video": false, "vote_count": 795, "vote_average": 5.6, "title": "The Ant Bully", "release_date": "2006-07-28", "original_language": "en", "original_title": "The Ant Bully", "genre_ids": [12, 16, 35, 14, 10751], "backdrop_path": "/gQ1MQIbEjBKTH5TBsnfv2vkMrJb.jpg", "adult": false, "overview": "Fed up with being targeted by the neighborhood bully, 10-year-old Lucas Nickle vents his frustrations on the anthill in his front yard ... until the insects shrink him to the size of a bug with a magic elixir. Convicted of \"crimes against the colony,\" Lucas can only regain his freedom by living with the ants and learning their ways.", "poster_path": "/tBUlwDCdvYC5aP7DzgcmDgrbfec.jpg", "popularity": 12.439}, {"id": 9340, "video": false, "vote_count": 3241, "vote_average": 7.5, "title": "The Goonies", "release_date": "1985-06-07", "original_language": "en", "original_title": "The Goonies", "genre_ids": [12, 35, 10751], "backdrop_path": "/qKeyO9gXaaK0g87tvvqOPK1siwc.jpg", "adult": false, "overview": "A young teenager named Mikey Walsh finds an old treasure map in his father's attic. Hoping to save their homes from demolition, Mikey and his friends Data Wang, Chunk Cohen, and Mouth Devereaux run off on a big quest to find the secret stash of Pirate One-Eyed Willie.", "poster_path": "/bZUbpjwnarSHJK40W9sGpyedWhx.jpg", "popularity": 26.375}, {"id": 296100, "video": false, "vote_count": 1047, "vote_average": 6.1, "title": "The Night Before", "release_date": "2015-11-20", "original_language": "en", "original_title": "The Night Before", "genre_ids": [12, 35, 14], "backdrop_path": "/oU2QnkVNHyT2bP1EAxRvKz6S5ga.jpg", "adult": false, "overview": "In New York City for their annual tradition of Christmas Eve debauchery, three lifelong best friends set out to find the Holy Grail of Christmas parties since their yearly reunion might be coming to an end.", "poster_path": "/eEGZgNZgN3sZWwoSaL1u2rTGlzj.jpg", "popularity": 11.499}, {"id": 82690, "video": false, "vote_count": 8488, "vote_average": 7.3, "title": "Wreck-It Ralph", "release_date": "2012-11-01", "original_language": "en", "original_title": "Wreck-It Ralph", "genre_ids": [12, 16, 35, 10751], "backdrop_path": "/1LbX3KV6qv6NoH4zKLGM7Sgtwmg.jpg", "adult": false, "overview": "Wreck-It Ralph is the 9-foot-tall, 643-pound villain of an arcade video game named Fix-It Felix Jr., in which the game's titular hero fixes buildings that Ralph destroys. Wanting to prove he can be a good guy and not just a villain, Ralph escapes his game and lands in Hero's Duty, a first-person shooter where he helps the game's hero battle against alien invaders. He later enters Sugar Rush, a kart racing game set on tracks made of candies, cookies and other sweets. There, Ralph meets Vanellope von Schweetz who has learned that her game is faced with a dire threat that could affect the entire arcade, and one that Ralph may have inadvertently started.", "poster_path": "/j8M1kHBAXa6KFNzGnWtdsVsLUro.jpg", "popularity": 30.267}, {"id": 269149, "video": false, "vote_count": 10912, "vote_average": 7.7, "title": "Zootopia", "release_date": "2016-02-11", "original_language": "en", "original_title": "Zootopia", "genre_ids": [12, 16, 35, 10751], "backdrop_path": "/mhdeE1yShHTaDbJVdWyTlzFvNkr.jpg", "adult": false, "overview": "Determined to prove herself, Officer Judy Hopps, the first bunny on Zootopia's police force, jumps at the chance to crack her first case - even if it means partnering with scam-artist fox Nick Wilde to solve the mystery.", "poster_path": "/sM33SANp9z6rXW8Itn7NnG1GOEs.jpg", "popularity": 51.293}, {"adult": false, "backdrop_path": "/dji4Fm0gCDVb9DQQMRvAI8YNnTz.jpg", "genre_ids": [16, 35, 10751], "id": 862, "original_language": "en", "original_title": "Toy Story", "overview": "Led by Woody, Andy's toys live happily in his room until Andy's birthday brings Buzz Lightyear onto the scene. Afraid of losing his place in Andy's heart, Woody plots against Buzz. But when circumstances separate Buzz and Woody from their owner, the duo eventually learns to put aside their differences.", "poster_path": "/rhIRbceoE9lR4veEXuwCC2wARtG.jpg", "release_date": "1995-10-30", "title": "Toy Story", "video": false, "vote_average": 7.9, "vote_count": 11534, "popularity": 27.319}, {"id": 311, "video": false, "vote_count": 2595, "vote_average": 8.4, "title": "Once Upon a Time in America", "release_date": "1984-05-23", "original_language": "en", "original_title": "Once Upon a Time in America", "genre_ids": [80, 18], "backdrop_path": "/vnT6HzjLSDrAweHn9xWykb8Ii6T.jpg", "adult": false, "overview": "A former Prohibition-era Jewish gangster returns to the Lower East Side of Manhattan over thirty years later, where he once again must confront the ghosts and regrets of his old life.", "poster_path": "/x733R4ISI0RbKeHhVkXdTMFmTFr.jpg", "popularity": 22.233}, {"id": 1265, "video": false, "vote_count": 2709, "vote_average": 7.2, "title": "Bridge to Terabithia", "release_date": "2007-02-16", "original_language": "en", "original_title": "Bridge to Terabithia", "genre_ids": [12, 18, 10751], "backdrop_path": "/t45osFg8w2Kh7BzgYl1iYgi8IxF.jpg", "adult": false, "overview": "Jesse Aarons trained all summer to become the fastest runner in school, so he's very upset when newcomer Leslie Burke outruns him and everyone else. Despite this and other differences, including that she's rich, he's poor, and she's a city girl, he's a country boy, the two become fast friends. Together, they create Terabithia, a land of monsters, trolls, ogres, and giants and rule as king and queen.", "poster_path": "/gihMBO2SmUprI1ecYe7Eo7Eg1yq.jpg", "popularity": 24.489}, {"id": 406997, "video": false, "vote_count": 4524, "vote_average": 8.2, "title": "Wonder", "release_date": "2017-11-13", "original_language": "en", "original_title": "Wonder", "genre_ids": [18, 10751], "backdrop_path": "/4rsrxYDfIzvtAsIE9wevxPRXAk4.jpg", "adult": false, "overview": "The story of August Pullman \u2013 a boy with facial differences \u2013 who enters fifth grade, attending a mainstream elementary school for the first time.", "poster_path": "/ouYgAatYH4JzIThj6FI3UYf31RI.jpg", "popularity": 32.048}, {"adult": false, "backdrop_path": "/sG3Du3Ha6rGeSzFfXme1nh8S2Jl.jpg", "genre_ids": [18, 10751, 14, 12], "id": 34584, "original_language": "en", "original_title": "Die unendliche Geschichte", "overview": "While hiding from bullies in his school's attic, a young boy discovers the extraordinary land of Fantasia, through a magical book called The Neverending Story. The book tells the tale of Atreyu, a young warrior who, with the help of a luck dragon named Falkor, must save Fantasia from the destruction of The Nothing.", "poster_path": "/ddYCa91iDXfJCxaqSYzwi2fjfnl.jpg", "release_date": "1984-04-05", "title": "The NeverEnding Story", "video": false, "vote_average": 7.1, "vote_count": 2201, "popularity": 19.789}, {"id": 339877, "video": false, "vote_count": 1418, "vote_average": 8.2, "title": "Loving Vincent", "release_date": "2017-06-22", "original_language": "en", "original_title": "Loving Vincent", "genre_ids": [16, 18, 9648], "backdrop_path": "/adFgBkl35kdI0bSrWZO2xury1JB.jpg", "adult": false, "overview": "The film brings the paintings of Vincent van Gogh to life to tell his remarkable story. Every one of the 65,000 frames of the film is an oil-painting hand-painted by 125 professional oil-painters who travelled from all across the world to the Loving Vincent studios in Poland and Greece to be a part of the production. As remarkable as Vincent\u2019s brilliant paintings are his passionate and ill-fated life and mysterious death.", "poster_path": "/56sq57kDm7XgyXBYrgJLumo0Jac.jpg", "popularity": 11.223}, {"id": 346364, "video": false, "vote_count": 12548, "vote_average": 7.2, "title": "It", "release_date": "2017-09-06", "original_language": "en", "original_title": "It", "genre_ids": [27], "backdrop_path": "/tcheoA2nPATCm2vvXw2hVQoaEFD.jpg", "adult": false, "overview": "In a small town in Maine, seven children known as The Losers Club come face to face with life problems, bullies and a monster that takes the shape of a clown called Pennywise.", "poster_path": "/9E2y5Q7WlCVNEhP5GiVTjhEhx1o.jpg", "popularity": 27.289}, {"id": 400710, "video": false, "vote_count": 1437, "vote_average": 5.7, "title": "Flatliners", "release_date": "2017-09-28", "original_language": "en", "original_title": "Flatliners", "genre_ids": [18, 878], "backdrop_path": "/uyIYcarxZuUD1m77SRcrUcp47vN.jpg", "adult": false, "overview": "Five medical students, hoping to gain insight into the mystery of what lies beyond the confines of life, embark on a daring and dangerous experiment. By stopping their hearts for short periods of time, each triggers a near-death experience. As the investigation becomes more and more perilous, they are forced to confront the sins of their pasts, as well as contend with the paranormal consequences of trespassing to the other side.", "poster_path": "/e9NHATN0TJW6ZZPLLWFsKdilVl1.jpg", "popularity": 18.664}, {"adult": false, "backdrop_path": "/8UxYHvKBNFnoyfHjgjMwzj4zOuy.jpg", "genre_ids": [16, 35, 18], "id": 24238, "original_language": "en", "original_title": "Mary and Max", "overview": "A tale of friendship between two unlikely pen pals: Mary, a lonely, eight-year-old girl living in the suburbs of Melbourne, and Max, a forty-four-year old, severely obese man living in New York. In the mid-1970's, a homely, friendless Australian girl of 8 picks a name out of a Manhattan phone book and writes to him; she includes a chocolate bar. He writes back, with chocolate. Thus begins a 20-year correspondence. Will the two ever meet face to face?", "poster_path": "/k0lQISUC4NuvKYasJn59JHc2rla.jpg", "release_date": "2009-02-09", "title": "Mary and Max", "video": false, "vote_average": 7.8, "vote_count": 1066, "popularity": 11.847}, {"adult": false, "backdrop_path": "/5mDCKKS7M8aUZKdShnCa7lLbzmH.jpg", "genre_ids": [16, 10751], "id": 62211, "original_language": "en", "original_title": "Monsters University", "overview": "A look at the relationship between Mike and Sulley during their days at Monsters University \u2014 when they weren't necessarily the best of friends.", "poster_path": "/a05xQU9huY3P5uurLcGGHmsf2Vh.jpg", "release_date": "2013-06-20", "title": "Monsters University", "video": false, "vote_average": 7.0, "vote_count": 6945, "popularity": 23.536}, {"adult": false, "backdrop_path": "/pOjPWFIBlHtyNsivnzg2X6bC8JB.jpg", "genre_ids": [53, 9648, 18], "id": 328425, "original_language": "en", "original_title": "The Gift", "overview": "A husband and wife try to reinvigorate their relationship but their lives are threatened by a \"friend\" from the husband's past who holds a horrifying secret about him, sending their world into a tailspin.", "poster_path": "/chrYVlwpBjlYM80w4bQDZzfNQZf.jpg", "release_date": "2015-07-30", "title": "The Gift", "video": false, "vote_average": 6.7, "vote_count": 1973, "popularity": 16.474}, {"adult": false, "backdrop_path": "/oKfBGEOxgobdaq0AhX7Qd7JRS7v.jpg", "genre_ids": [80, 18], "id": 9517, "original_language": "en", "original_title": "Bully", "overview": "After finding himself at the constant abuse of his best friend Bobby, Marty has become fed up with his friend's twisted ways. His girlfriend, a victim of Bobby's often cruel ways, couldn't agree more and they strategize murdering Bobby.", "poster_path": "/3l2mMLVj2CFjaRe6EqbGPPYjuaT.jpg", "release_date": "2001-09-28", "title": "Bully", "video": false, "vote_average": 6.6, "vote_count": 227, "popularity": 11.531}], "total_pages": 18, "total_results": 352}, "recommendations": {"page": 1, "results": [{"adult": false, "backdrop_path": "/1fKbzVtgyuEnd9d3nSeYOFzGW2g.jpg", "genre_ids": [18], "id": 59275, "original_language": "zh", "original_title": "\u5c0f\u5b69\u4e0d\u7b28 2", "overview": "A 2006 Singaporean film and the sequel to the 2002 film, I Not Stupid. A satirical comedy, I Not Stupid Too portrays the lives, struggles and adventures of three Singaporean youths - 15-year-old Tom, his 8-year-old brother Jerry and their 15-year-old friend Chengcai - who have a strained relationship with their parents. The film explores the issue of poor parent-child communication.", "poster_path": "/r6Op2P9cK3X6ssp3KlJJqy5gB8L.jpg", "release_date": "2006-01-26", "title": "I Not Stupid Too", "video": false, "vote_average": 7.4, "vote_count": 5, "popularity": 1.405}, {"adult": false, "backdrop_path": null, "genre_ids": [10749, 35, 18], "id": 122611, "original_language": "zh", "original_title": "\u59e8\u5abd\u7684\u5f8c\u73fe\u4ee3\u751f\u6d3b", "overview": "Ye Rutang (Siqin Gaowa), a single-living woman in her late fifties, struggles to maintain a dignified life amid the dangers of Shanghai.", "poster_path": "/6yLz1PhXoGLjD2Q8nvGPMHWriz.jpg", "release_date": "2007-08-03", "title": "The Postmodern Life of My Aunt", "video": false, "vote_average": 5.8, "vote_count": 5, "popularity": 2.145}, {"adult": false, "backdrop_path": "/strgLa8W4YmUmDveGIWpwZwAdjH.jpg", "genre_ids": [35, 18], "id": 44423, "original_language": "zh", "original_title": "881", "overview": "Two Singaporean girls join together to form the Papaya Sisters, a getai group that sings at performances during the seventh lunar month. Big Papaya is estranged from her mother, who disapproves of her performances, whilst Little Papaya is an orphan who suffers from terminal cancer. The two are assisted by Auntie Ling and her son, Guan Yin. The two soon rise to the top of the Singaporean getai scene singing traditional Hokkien songs, but their fame brings along with it the enmity of the Durian Sisters, a rival group of techno-singing Eurasian girls.", "poster_path": "/hnOZSMRtim60MxhhCajrU7MnHHf.jpg", "release_date": "2007-08-09", "title": "881", "video": false, "vote_average": 6.3, "vote_count": 6, "popularity": 1.224}, {"adult": false, "backdrop_path": "/ke4vrTRSbuDJ8oyWkZBLkRlHIww.jpg", "genre_ids": [18, 35, 10749], "id": 52768, "original_language": "cn", "original_title": "\u5f97\u9592\u7092\u98ef", "overview": "After being separated for years, former lovers Macy (Sandra Ng) and Anita (Vivian Chow) are reunited at a pregnancy seminar. After sharing the accidental circumstances that led to their respective pregnancies, the two fall back in love. However, to add to the trouble caused by the fathers of their babies (Eddie Cheung and William Chan), Anita also finds herself the victim of gender discrimination at work due to her pregnancy. Will Macy and Anita make it through the obstacles in the way of their reunion, and what roles will the two to-be-fathers end up playing in the women's lives?", "poster_path": "/jGaC8dbaARKAHibSYunQkug1c0e.jpg", "release_date": "2010-08-26", "title": "All About Love", "video": false, "vote_average": 5.8, "vote_count": 7, "popularity": 2.632}, {"id": 183410, "video": false, "vote_count": 6, "vote_average": 7.3, "title": "7 Days in Heaven", "release_date": "2010-08-27", "original_language": "zh", "original_title": "\u7236\u5f8c\u4e03\u65e5", "genre_ids": [], "backdrop_path": "/5WEJQxQ6OQtFc3lDzy8pdydL0jb.jpg", "adult": false, "overview": "\"Seven Days in Heaven\" covers the 7 days of the Taoist morning ritual after the death of Lin Guo Yuan (Po Tai). The movie examines the effects of his death on his children, nephew, and sister-in-law ...", "poster_path": "/3AmqnvuTJclUsytR2VvTST0TwlS.jpg", "popularity": 1.821}, {"adult": false, "backdrop_path": "/krq1uJCCl1oUGVP8jBHLTyovFdY.jpg", "genre_ids": [10749, 35, 18, 80], "id": 360635, "original_language": "ja", "original_title": "HERO", "overview": "Prosecutor Kohei Kuryu (Takuya Kimura) takes charge of a case with a foreign embassy possessing the key to solve the case. Due to the extraterritoriality involving the case, the investigation has not gone anywhere. A crisis then ensues. Kohei Kuryu and his office attempt to extract the truth behind the wall of the embassy.", "poster_path": "/pcnjUHvKTrdpaA3F3yiaK7XaP5N.jpg", "release_date": "2015-07-18", "title": "HERO", "video": false, "vote_average": 6.0, "vote_count": 10, "popularity": 2.429}, {"id": 19939, "video": false, "vote_count": 23, "vote_average": 6.7, "title": "Cape No. 7", "release_date": "2008-08-22", "original_language": "zh", "original_title": "\u6d77\u89d2\u4e03\u865f", "genre_ids": [35, 18, 10749], "backdrop_path": "/dMdHcHDG08KBtjcPvDbO2BLulbG.jpg", "adult": false, "overview": "Aga, a band singer, returns to Hengchun with frustration. Tomoko is a Japanese model assigned to organize a local warm-up band for the Japanese super star beach concert. Together with other five ordinary Hengchun residents who were not expected to be great or anything, they formed an impossible band.", "poster_path": "/7LUTL0OJcDiF9NbXgVQkCVJlEMc.jpg", "popularity": 4.308}], "total_pages": 1, "total_results": 7}, "credits": {"cast": [{"cast_id": 1003, "character": "Mr. Liu", "credit_id": "52fe4915c3a36847f8188577", "gender": 0, "id": 225055, "name": "Jack Neo", "order": 0, "profile_path": "/22jlcaHy6eZpkOwN4YdshYFx6v4.jpg"}, {"cast_id": 1004, "character": "Mrs. Liu", "credit_id": "52fe4915c3a36847f818857b", "gender": 0, "id": 225058, "name": "Xiang Yun", "order": 1, "profile_path": null}, {"cast_id": 1005, "character": "Mr. Khoo", "credit_id": "52fe4915c3a36847f818857f", "gender": 2, "id": 225059, "name": "Richard Low", "order": 2, "profile_path": "/6CPRyMb2k40rsez6o93eTi2uHaH.jpg"}, {"cast_id": 1006, "character": "Mrs. Khoo", "credit_id": "52fe4915c3a36847f8188583", "gender": 1, "id": 225060, "name": "Selena Tan", "order": 3, "profile_path": "/oH16MYJqw2PTn9QZXmDFnbI4UsV.jpg"}, {"cast_id": 1007, "character": "Liu Kok Pin", "credit_id": "52fe4915c3a36847f8188587", "gender": 0, "id": 225061, "name": "Shawn Lee", "order": 4, "profile_path": null}, {"cast_id": 1008, "character": "Ang Boon Hock", "credit_id": "52fe4915c3a36847f818858b", "gender": 0, "id": 225062, "name": "Joshua Ang", "order": 5, "profile_path": null}, {"cast_id": 1009, "character": "Terry Khoo", "credit_id": "52fe4915c3a36847f818858f", "gender": 0, "id": 225063, "name": "Huang Po Ju", "order": 6, "profile_path": null}, {"cast_id": 1010, "character": "Selena Khoo", "credit_id": "52fe4915c3a36847f8188593", "gender": 0, "id": 225064, "name": "Cheryl Chan", "order": 7, "profile_path": null}, {"cast_id": 1012, "character": "Ah Beng", "credit_id": "5e120a0d9020120015b5b74b", "gender": 2, "id": 1000725, "name": "Marcus Chin", "order": 8, "profile_path": null}], "crew": [{"credit_id": "52fe4915c3a36847f8188567", "department": "Directing", "gender": 0, "id": 225055, "job": "Director", "name": "Jack Neo", "profile_path": "/22jlcaHy6eZpkOwN4YdshYFx6v4.jpg"}, {"credit_id": "52fe4915c3a36847f818856d", "department": "Production", "gender": 0, "id": 225056, "job": "Producer", "name": "David Leong", "profile_path": null}, {"credit_id": "52fe4915c3a36847f8188573", "department": "Production", "gender": 0, "id": 225057, "job": "Producer", "name": "Chan Pui Yin", "profile_path": null}, {"credit_id": "52fe4915c3a36847f8188599", "department": "Writing", "gender": 0, "id": 225055, "job": "Writer", "name": "Jack Neo", "profile_path": "/22jlcaHy6eZpkOwN4YdshYFx6v4.jpg"}]}}