{"adult": false, "backdrop_path": "/whwT00LeM47S9stDauC89gTVVKk.jpg", "belongs_to_collection": null, "budget": 0, "genres": [{"id": 99, "name": "Documentary"}], "homepage": null, "id": 569454, "imdb_id": "tt9482858", "original_language": "fr", "original_title": "Le Monde selon Xi Jinping", "overview": "", "popularity": 2.1, "poster_path": "/dD5yPst1qFAwUUBIMY2Vegr7SKm.jpg", "production_companies": [{"id": 201, "logo_path": "/6UIpEURdjnmcJPwgTDRzVRuwADr.png", "name": "ARTE", "origin_country": "FR"}, {"id": 58769, "logo_path": null, "name": "Ill\u00e9gitime D\u00e9fense", "origin_country": ""}], "production_countries": [{"iso_3166_1": "FR", "name": "France"}], "release_date": "2018-12-13", "revenue": 0, "runtime": null, "spoken_languages": [{"iso_639_1": "en", "name": "English"}, {"iso_639_1": "fr", "name": "Fran\u00e7ais"}, {"iso_639_1": "zh", "name": "\u666e\u901a\u8bdd"}, {"iso_639_1": "de", "name": "Deutsch"}], "status": "Released", "tagline": "", "title": "The World According to Xi Jinping", "video": false, "vote_average": 6.0, "vote_count": 1, "keywords": {"keywords": [{"id": 478, "name": "china"}, {"id": 6078, "name": "politics"}, {"id": 14737, "name": "economics"}, {"id": 18339, "name": "human rights"}, {"id": 18420, "name": "surveillance"}, {"id": 189435, "name": "communist party"}, {"id": 211362, "name": "political repression"}, {"id": 250066, "name": "xi jinping"}]}, "similar": {"page": 1, "results": [{"adult": false, "backdrop_path": "/4HA3MLBmTf0sDqnw4BZlVDiOwG5.jpg", "genre_ids": [99], "id": 44639, "original_language": "en", "original_title": "Inside Job", "overview": "A film that exposes the shocking truth behind the economic crisis of 2008. The global financial meltdown, at a cost of over $20 trillion, resulted in millions of people losing their homes and jobs. Through extensive research and interviews with major financial insiders, politicians and journalists, Inside Job traces the rise of a rogue industry and unveils the corrosive relationships which have corrupted politics, regulation and academia.", "poster_path": "/gy1CzwHUrb46gou2NO0wkjNFO6f.jpg", "release_date": "2010-10-08", "title": "Inside Job", "video": false, "vote_average": 7.8, "vote_count": 506, "popularity": 10.752}, {"id": 650755, "video": false, "vote_count": 0, "vote_average": 0.0, "title": "Atordoado, Eu Permane\u00e7o Atento", "release_date": "2020-01-15", "original_language": "pt", "original_title": "Atordoado, Eu Permane\u00e7o Atento", "genre_ids": [99], "backdrop_path": null, "adult": false, "overview": "", "poster_path": "/exbM8qk6f6T44olJXcM8ix1sunL.jpg", "popularity": 5.092}, {"id": 22074, "video": false, "vote_count": 319, "vote_average": 7.2, "title": "Capitalism: A Love Story", "release_date": "2009-09-06", "original_language": "en", "original_title": "Capitalism: A Love Story", "genre_ids": [99], "backdrop_path": "/vI1RY1JYAS1m94izWO9AFeIQ2xv.jpg", "adult": false, "overview": "Michael Moore comes home to the issue he's been examining throughout his career: the disastrous impact of corporate dominance on the everyday lives of Unitedstatians (and by default, the rest of the world).", "poster_path": "/4do1m6EathXZAegiGlS9CfjXpWC.jpg", "popularity": 7.81}, {"id": 401469, "video": false, "vote_count": 1261, "vote_average": 6.5, "title": "Widows", "release_date": "2018-11-06", "original_language": "en", "original_title": "Widows", "genre_ids": [80, 53], "backdrop_path": "/tkri1hMrb1FhWfb2bWpprsvq9Sd.jpg", "adult": false, "overview": "A police shootout leaves four thieves dead during an explosive armed robbery attempt in Chicago. Their widows have nothing in common except a debt left behind by their spouses' criminal activities. Hoping to forge a future on their own terms, they join forces to pull off a heist.", "poster_path": "/d31SGJSaX29ba5ZUbZcesGoDE7I.jpg", "popularity": 16.285}, {"id": 11420, "video": false, "vote_count": 148, "vote_average": 7.8, "title": "The Corporation", "release_date": "2003-09-10", "original_language": "en", "original_title": "The Corporation", "genre_ids": [99], "backdrop_path": "/qOpNpDLNEjeOvN3q7rhJLFY41MT.jpg", "adult": false, "overview": "Since the late 18th century American legal decision that the business corporation organizational model is legally a person, it has become a dominant economic, political and social force around the globe. This film takes an in-depth psychological examination of the organization model through various case studies. What the study illustrates is that in the its behaviour, this type of \"person\" typically acts like a dangerously destructive psychopath without conscience. Furthermore, we see the profound threat this psychopath has for our world and our future, but also how the people with courage, intelligence and determination can do to stop it.", "poster_path": "/7S5rkHsVfMAQEHFQavx3nm74hNH.jpg", "popularity": 8.156}, {"id": 9798, "video": false, "vote_count": 2138, "vote_average": 6.9, "title": "Enemy of the State", "release_date": "1998-11-20", "original_language": "en", "original_title": "Enemy of the State", "genre_ids": [28, 18, 53], "backdrop_path": "/5zIxXANoUCVMFu9YFhHejmnSmhY.jpg", "adult": false, "overview": "A hotshot Washington criminal lawyer becomes the target of a rogue security executive videotaped in the act of murdering a congressman when the incriminating tape is surreptitiously slipped into his shopping bag by the videographer, who is fleeing the executive's assassins.", "poster_path": "/2B0vLBo6gJbnzke4Enc77GCxKrz.jpg", "popularity": 17.543}, {"adult": false, "backdrop_path": "/jkpTcreM7YOUF4RaDTgTAy9aMJZ.jpg", "genre_ids": [99], "id": 13020, "original_language": "en", "original_title": "Enron: The Smartest Guys in the Room", "overview": "A documentary about the Enron corporation, its faulty and corrupt business practices, and how they led to its fall.", "poster_path": "/d1oHF7nFAxC6X5ZNRn1SCSTJYDW.jpg", "release_date": "2005-04-22", "title": "Enron: The Smartest Guys in the Room", "video": false, "vote_average": 7.2, "vote_count": 147, "popularity": 11.797}, {"id": 1779, "video": false, "vote_count": 168, "vote_average": 7.3, "title": "Roger & Me", "release_date": "1989-09-01", "original_language": "en", "original_title": "Roger & Me", "genre_ids": [35, 99, 36], "backdrop_path": "/1TFrt5rlgbAS7WdHfCp142NPt4s.jpg", "adult": false, "overview": "A documentary about the closure of General Motors' plant at Flint, Michigan, which resulted in the loss of 30,000 jobs. Details the attempts of filmmaker Michael Moore to get an interview with GM CEO Roger Smith.", "poster_path": "/kTaqM1mxJCgDq7nhc7zHvtR3LPk.jpg", "popularity": 9.573}, {"id": 9388, "video": false, "vote_count": 1252, "vote_average": 7.2, "title": "Thank You for Smoking", "release_date": "2005-03-17", "original_language": "en", "original_title": "Thank You for Smoking", "genre_ids": [35, 18], "backdrop_path": "/D1VqMoYT4K2aFcywu3kGnycD6n.jpg", "adult": false, "overview": "Nick Naylor is a charismatic spin-doctor for Big Tobacco who'll fight to protect America's right to smoke -- even if it kills him -- while still remaining a role model for his 12-year old son. When he incurs the wrath of a senator bent on snuffing out cigarettes, Nick's powers of \"filtering the truth\" will be put to the test.", "poster_path": "/v8PKsbAGIvAhKbbRUjdQ3jgFD2S.jpg", "popularity": 14.661}, {"id": 7512, "video": false, "vote_count": 1458, "vote_average": 6.2, "title": "Idiocracy", "release_date": "2006-09-01", "original_language": "en", "original_title": "Idiocracy", "genre_ids": [12, 35, 878], "backdrop_path": "/crwNKUOVf24JdNbPdVAZVbt6q9X.jpg", "adult": false, "overview": "To test its top-secret Human Hibernation Project, the Pentagon picks the most average Americans it can find - an Army private and a prostitute - and sends them to the year 2505 after a series of freak events. But when they arrive, they find a civilization so dumbed-down that they're the smartest people around.", "poster_path": "/fPAhLmWdXDuwDPb37ccc6DqkJiw.jpg", "popularity": 18.186}, {"id": 476764, "video": false, "vote_count": 173, "vote_average": 6.0, "title": "The Front Runner", "release_date": "2018-11-06", "original_language": "en", "original_title": "The Front Runner", "genre_ids": [18, 36], "backdrop_path": "/kQVo5ECXrTcoMtj8hWbdiqpfPms.jpg", "adult": false, "overview": "Gary Hart, former Senator of Colorado, becomes the front-runner for the Democratic presidential nomination in 1987. Hart's intelligence, charisma and idealism makes him popular with young voters, leaving him with a seemingly clear path to the White House. All that comes crashing down when allegations of an extramarital affair surface in the media, forcing the candidate to address a scandal that threatens to derail his campaign and personal life.", "poster_path": "/7iMNvhINYaYwsF1jC5VaDeQ1V70.jpg", "popularity": 12.182}, {"id": 10139, "video": false, "vote_count": 1269, "vote_average": 7.3, "title": "Milk", "release_date": "2008-11-05", "original_language": "en", "original_title": "Milk", "genre_ids": [18, 36], "backdrop_path": "/i8NcYenVqMzB95pVz8YOPIqmGj8.jpg", "adult": false, "overview": "The true story of Harvey Milk, the first openly gay man ever elected to public office. In San Francisco in the late 1970s, Harvey Milk becomes an activist for gay rights and inspires others to join him in his fight for equal rights that should be available to all Americans.", "poster_path": "/aTbhbnq9YnKJM6wGIiedfJaoV6m.jpg", "popularity": 13.064}, {"adult": false, "backdrop_path": "/8K8EwDzFA5fRZdAfldBnVktE7O3.jpg", "genre_ids": [18, 53], "id": 5125, "original_language": "en", "original_title": "Rendition", "overview": "When an Egyptian terrorism suspect \"disappears\" on a flight from Africa to Washington DC, his American wife and a CIA analyst find themselves caught up in a struggle to secure his release from a secret detention facility somewhere outside the US.", "poster_path": "/5vsEosyU3c5pCkjygaFnhilkng4.jpg", "release_date": "2007-09-07", "title": "Rendition", "video": false, "vote_average": 6.4, "vote_count": 372, "popularity": 11.805}, {"id": 25430, "video": false, "vote_count": 96, "vote_average": 7.1, "title": "All the King's Men", "release_date": "1949-11-08", "original_language": "en", "original_title": "All the King's Men", "genre_ids": [18], "backdrop_path": "/lVjZnM9JuRYC1PUnJUBVEksmoLc.jpg", "adult": false, "overview": "All The King's Men is the story of the rise of politician Willie Stark from a rural county seat to the governor's mansion.", "poster_path": "/flvbh5w7AyIVvtp8trkzyG2j5k4.jpg", "popularity": 11.913}, {"id": 77953, "video": false, "vote_count": 1085, "vote_average": 5.8, "title": "The Campaign", "release_date": "2012-08-09", "original_language": "en", "original_title": "The Campaign", "genre_ids": [35], "backdrop_path": "/8mKomlkHvO753Wc9w2Q25ffc4UC.jpg", "adult": false, "overview": "Two rival politicians compete to win an election to represent their small North Carolina congressional district in the United States House of Representatives.", "poster_path": "/6uH8BOWN60mu2Vd5z4jCaVWb2ix.jpg", "popularity": 8.696}, {"adult": false, "backdrop_path": "/A9NDglBlTxLyKbTiKmgfh5MCrHj.jpg", "genre_ids": [18], "id": 17185, "original_language": "en", "original_title": "Advise & Consent", "overview": "A Senate investigation into the President's newly-nominated Secretary of State gives light to a secret from the past, which may not only ruin the candidate, but the President's character as well.", "poster_path": "/4fW4lM5iVVInFnV27OdXeSLUWFH.jpg", "release_date": "1962-06-06", "title": "Advise & Consent", "video": false, "vote_average": 7.4, "vote_count": 40, "popularity": 5.73}, {"adult": false, "backdrop_path": "/eiSRZDOA0d5gKEISvknhQGgwHpk.jpg", "genre_ids": [9648, 18, 10749], "id": 37722, "original_language": "en", "original_title": "Waking the Dead", "overview": "A congressional candidate questions his sanity after seeing the love of his life, presumed dead, suddenly emerge.", "poster_path": "/knPjLo050qU82PPuGpDMhT6VICV.jpg", "release_date": "2000-03-24", "title": "Waking the Dead", "video": false, "vote_average": 6.8, "vote_count": 42, "popularity": 4.591}, {"adult": false, "backdrop_path": "/mdK1sZy7maFpTXT2cmOLC0Fu9BS.jpg", "genre_ids": [18, 36, 10770], "id": 14050, "original_language": "en", "original_title": "Recount", "overview": "A chronicle of the weeks after the 2000 U.S. presidential election and the subsequent recounts in Florida.", "poster_path": "/7qTLgpaMlaxsZlJpDWFQrJ2u3Iy.jpg", "release_date": "2008-05-28", "title": "Recount", "video": false, "vote_average": 6.9, "vote_count": 84, "popularity": 6.515}, {"adult": false, "backdrop_path": "/3wFeNr1TBXeGNnjKWDZVxXNVY4J.jpg", "genre_ids": [99], "id": 29595, "original_language": "en", "original_title": "Wal-Mart: The High Cost of Low Price", "overview": "This documentary takes the viewer on a deeply personal journey into the everyday lives of families struggling to fight Goliath. From a family business owner in the Midwest to a preacher in California, from workers in Florida to a poet in Mexico, dozens of film crews on three continents bring the intensely personal stories of an assault on families and American values.", "poster_path": "/6jh2yA236Dh6TX7hya0qbrnAQtK.jpg", "release_date": "2005-11-04", "title": "Wal-Mart: The High Cost of Low Price", "video": false, "vote_average": 6.5, "vote_count": 45, "popularity": 5.571}, {"id": 412094, "video": false, "vote_count": 66, "vote_average": 7.1, "title": "The Net", "release_date": "2016-10-06", "original_language": "ko", "original_title": "Geumul", "genre_ids": [18], "backdrop_path": "/c9X1HSLMT6CU6FdPQPjtNcBK5Va.jpg", "adult": false, "overview": "A poor North Korean fisherman finds himself an accidental defector, and is groomed to be a spy by an ambitious South Korean military officer.", "poster_path": "/79TN7URI1rGMnE0PFOI8vmX3zUW.jpg", "popularity": 5.606}], "total_pages": 7, "total_results": 121}, "recommendations": {"page": 1, "results": [], "total_pages": 1, "total_results": 0}, "credits": {"cast": [{"cast_id": 4, "character": "Himself", "credit_id": "5d10354bc3a36809b21e98d1", "gender": 2, "id": 2342141, "name": "Xi Jinping", "order": 1, "profile_path": "/kw0UwTQtDBdKKGUoHvRaWEvmX8T.jpg"}], "crew": [{"credit_id": "5c193d35925141266fa41f8a", "department": "Directing", "gender": 0, "id": 2197888, "job": "Director", "name": "Sophie Lepault", "profile_path": null}, {"credit_id": "5c193d4c0e0a26578ada60b6", "department": "Directing", "gender": 0, "id": 2197889, "job": "Director", "name": "Romain Franklin", "profile_path": null}, {"credit_id": "5c1d7df792514167fdbe77bb", "department": "Directing", "gender": 0, "id": 2199530, "job": "Director", "name": "Louise Muller", "profile_path": null}]}}