{"adult": false, "backdrop_path": "/wGVMNOxWKHr6tijtXpNJd15O9Jq.jpg", "belongs_to_collection": null, "budget": 1800000, "genres": [{"id": 18, "name": "Drama"}, {"id": 10749, "name": "Romance"}], "homepage": null, "id": 56948, "imdb_id": "tt1003023", "original_language": "es", "original_title": "M\u00e1ncora", "overview": "Following the suicide of his father, haunted by inner demons and his hatred for the world, Santiago decides to escape from Lima and take refuge in M\u00e1ncora, a beach to the north of Peru where it is always summer.", "popularity": 1.856, "poster_path": "/2v2K6FXvEDLjvAynz3FA1Xs274X.jpg", "production_companies": [{"id": 63314, "logo_path": null, "name": "Hispafilms", "origin_country": ""}, {"id": 123419, "logo_path": null, "name": "Napoli Pictures", "origin_country": ""}], "production_countries": [{"iso_3166_1": "PE", "name": "Peru"}, {"iso_3166_1": "ES", "name": "Spain"}], "release_date": "2008-09-02", "revenue": 0, "runtime": 100, "spoken_languages": [{"iso_639_1": "es", "name": "Espa\u00f1ol"}], "status": "Released", "tagline": "", "title": "M\u00e1ncora", "video": false, "vote_average": 6.1, "vote_count": 8, "keywords": {"keywords": [{"id": 236, "name": "suicide"}, {"id": 596, "name": "adultery"}, {"id": 966, "name": "beach"}, {"id": 5967, "name": "peru"}, {"id": 6876, "name": "vacation"}]}, "similar": {"page": 1, "results": [{"adult": false, "backdrop_path": "/tkHlTVLylEIBpUypq0z3ZbtxUKc.jpg", "genre_ids": [35, 18, 10749], "id": 11931, "original_language": "en", "original_title": "In Her Shoes", "overview": "Irresponsible party girl, Maggie is kicked out of her father's and stepmother's home\u2014where she lives for free\u2014and is taken in by her hard-working sister, Philadelphia lawyer, Rose. After Maggie's disruptive ways ruin her sister's love life, Rose turns her out as well. But when their grandmother, who they never knew existed, comes into their lives, the sisters face some complicated truths about themselves and their family.", "poster_path": "/4jqnazZX2bh8UMUS8rl4nHWWtyb.jpg", "release_date": "2005-10-07", "title": "In Her Shoes", "video": false, "vote_average": 6.0, "vote_count": 785, "popularity": 11.9}, {"adult": false, "backdrop_path": "/bYbnlh6VXFRtcSX82UMDsBDLB5j.jpg", "genre_ids": [18, 10749], "id": 28468, "original_language": "it", "original_title": "La chiave", "overview": "After twenty years of marriage, art professor Nino Rolfe attempts to break down his wife Teresa's conventional modesty. Noticing her affection for their daughter's fianc\u00e9, Nino instigates her sexual interest in him as well. This sets off a chain of unexpected events and emotional complications, as Nino and his unpredictable fascist daughter find that they both enjoy being jealous.", "poster_path": "/e6g2geNLgFzMbriH6EvSJZD78nx.jpg", "release_date": "1983-10-18", "title": "The Key", "video": false, "vote_average": 5.0, "vote_count": 128, "popularity": 15.363}, {"id": 12531, "video": false, "vote_count": 91, "vote_average": 6.9, "title": "The Apartment", "release_date": "1996-07-27", "original_language": "fr", "original_title": "L'Appartement", "genre_ids": [18, 9648, 10749], "backdrop_path": "/64qyT8m4JQ6YODvXxtbHgKmXBX7.jpg", "adult": false, "overview": "A stylish suspense thriller that confounds the audience while presenting them with an extraordinary and elusive mystery. Max is a former playboy who has decided to settle down by marrying his current love, Muriel. However, during a business trip, Max catches a glimpse of the great lost love of his life, reviving his wanderlust and sending him off on a chase of the elusive Lisa, whom he had overheard suggesting to a friend that her lover, Daniel, had killed someone for her. Soon, Max is trying to unravel the mystery behind the suspicious death of Daniel's wife, which he hopes will lead him closer to Lisa.", "poster_path": "/1sqrQdQTn8jKLhUcPKfRVj639zA.jpg", "popularity": 19.17}, {"id": 263472, "video": false, "vote_count": 1669, "vote_average": 5.0, "title": "Knock Knock", "release_date": "2015-06-26", "original_language": "en", "original_title": "Knock Knock", "genre_ids": [18, 53], "backdrop_path": "/gJduaRau3X2oE3xkmjs1FufT2GE.jpg", "adult": false, "overview": "When a devoted husband and father is left home alone for the weekend, two stranded young women unexpectedly knock on his door for help. What starts out as a kind gesture results in a dangerous seduction and a deadly game of cat and mouse.", "poster_path": "/eynMtjBB1fXsB5vsQylVmsDLmvw.jpg", "popularity": 19.205}, {"adult": false, "backdrop_path": "/98ahnrena4PwLth7HFYGLf9yssH.jpg", "genre_ids": [35, 18, 10749], "id": 22705, "original_language": "it", "original_title": "Tra(sgre)dire", "overview": "While scouting out apartments in London for her Venetian boyfriend, Carla rents an apartment that overlooks the Thames. There she meet the lesbian hyper-horny real estate agent Moira.", "poster_path": "/kZITrLEiTfzzJhtwtXhQUl3ImCQ.jpg", "release_date": "2000-01-28", "title": "Cheeky", "video": false, "vote_average": 5.7, "vote_count": 92, "popularity": 30.42}, {"adult": false, "backdrop_path": "/qK77FcPjWwJDmJTwlZc8L31o8En.jpg", "genre_ids": [18, 878], "id": 62215, "original_language": "da", "original_title": "Melancholia", "overview": "Two sisters find their already strained relationship challenged as a mysterious new planet threatens to collide with Earth.", "poster_path": "/eCjATHunhgLl9ARKUFtmKguaWDJ.jpg", "release_date": "2011-05-26", "title": "Melancholia", "video": false, "vote_average": 7.2, "vote_count": 1841, "popularity": 19.144}, {"id": 146015, "video": false, "vote_count": 598, "vote_average": 6.6, "title": "The Double", "release_date": "2014-04-04", "original_language": "en", "original_title": "The Double", "genre_ids": [18, 53], "backdrop_path": "/gSNqUnQSgYWxsFQ59xH077dW1Zx.jpg", "adult": false, "overview": "An awkward office drone becomes increasingly unhinged after a charismatic and confident look-alike takes a job at his workplace and seduces the woman he desires.", "poster_path": "/hN6bP9XWKHI8JhlZpk8ieF1lcyG.jpg", "popularity": 11.771}, {"id": 284276, "video": false, "vote_count": 615, "vote_average": 6.3, "title": "Cake", "release_date": "2014-09-07", "original_language": "en", "original_title": "Cake", "genre_ids": [18], "backdrop_path": "/iGRutrtJcsdk5y3xvVU8WewSowZ.jpg", "adult": false, "overview": "After having visions of a member of her support group who killed herself, a woman who also suffers with chronic pain seeks out the widower of the suicide.", "poster_path": "/wnX7WTcrwi30DyBusT1qJpQ8LzG.jpg", "popularity": 12.919}, {"adult": false, "backdrop_path": "/yIszPJawrrp6zcb62d7XJnaxAmw.jpg", "genre_ids": [18], "id": 13078, "original_language": "en", "original_title": "The Babysitters", "overview": "Seventeen-year-old Shirley is a good student who works as a babysitter in order to make money for college. One night Michael, a father Shirley works for, confesses he's unhappy with married life. Shirley has a crush on Michael, and seizes this moment to kiss him. Michael is so happy he presents Shirley with a big tip, which gives her an idea. Shirley plans to make extra money by setting up her teenage friends with other unhappy fathers.", "poster_path": "/nsrNUqGXI95unRKZEu8BJ584xWn.jpg", "release_date": "2007-09-11", "title": "The Babysitters", "video": false, "vote_average": 5.3, "vote_count": 153, "popularity": 15.673}, {"adult": false, "backdrop_path": "/ecREZ3vYCqethftSDWK4we0X498.jpg", "genre_ids": [35, 18, 10749], "id": 4507, "original_language": "es", "original_title": "Jam\u00f3n, jam\u00f3n", "overview": "Jose Luis is an executive at his parents underwear factory where his girlfriend Sylvia works on the shop floor. When Sylvia becomes pregnant, Jose Luis promises her that he will marry her, most likely against the wishes of his parents. Jose Luis' mother is determined to break her son's engagement to a girl from a lower-class family, and hires Raul, a potential underwear model and would-be bullfighter to seduce Sylvia.", "poster_path": "/v5Fq01ZtYnA2Grxdd3g8CuGZARg.jpg", "release_date": "1992-09-03", "title": "Jamon Jamon", "video": false, "vote_average": 6.1, "vote_count": 143, "popularity": 13.381}, {"id": 1391, "video": false, "vote_count": 688, "vote_average": 7.4, "title": "Y Tu Mam\u00e1 Tambi\u00e9n", "release_date": "2001-06-08", "original_language": "es", "original_title": "Y tu mam\u00e1 tambi\u00e9n", "genre_ids": [18, 10749], "backdrop_path": "/5jXzf6VCxmRAbQYYOuoPgGZRbRp.jpg", "adult": false, "overview": "In Mexico, two teenage boys and an attractive older woman embark on a road trip and learn a thing or two about life, friendship, sex, and each other.", "poster_path": "/4n6lnr7q3Ysz4rKz3raxkltbHgr.jpg", "popularity": 16.073}, {"adult": false, "backdrop_path": "/Ao2bnJMmcFepMVw1BUay25tt7TM.jpg", "genre_ids": [18, 10749], "id": 1259, "original_language": "en", "original_title": "Notes on a Scandal", "overview": "A veteran high school teacher befriends a younger art teacher, who is having an affair with one of her 15-year-old students. However, her intentions with this new \"friend\" also go well beyond platonic friendship.", "poster_path": "/lXZa1mHZ8eD0VOpNaLfvM9tSpAj.jpg", "release_date": "2006-12-25", "title": "Notes on a Scandal", "video": false, "vote_average": 7.1, "vote_count": 463, "popularity": 12.753}, {"adult": false, "backdrop_path": "/cdccKL6nLs21Ak27BWpryPrxqie.jpg", "genre_ids": [14, 18], "id": 422, "original_language": "it", "original_title": "8\u00bd", "overview": "Guido Anselmi, a film director, finds himself creatively barren at the peak of his career. Urged by his doctors to rest, Anselmi heads for a luxurious resort, but a sorry group gathers\u2014his producer, staff, actors, wife, mistress, and relatives\u2014each one begging him to get on with the show. In retreat from their dependency, he fantasizes about past women and dreams of his childhood.", "poster_path": "/5pQlc8dp5dXzWg1yM70DZrsDpOl.jpg", "release_date": "1963-02-14", "title": "8\u00bd", "video": false, "vote_average": 8.2, "vote_count": 1028, "popularity": 20.33}, {"id": 659, "video": false, "vote_count": 193, "vote_average": 7.1, "title": "The Tin Drum", "release_date": "1979-05-02", "original_language": "de", "original_title": "Die Blechtrommel", "genre_ids": [18, 36, 10752], "backdrop_path": "/uZJjc4hMgckb3H3tVkTmbmcBhIT.jpg", "adult": false, "overview": "Oskar is born in Germany in 1924 with an advanced intellect. Repulsed by the hypocrisy of adults and the irresponsibility of society, he refuses to grow older after his third birthday.", "poster_path": "/bHKwTyB7iAsXt0EpZN1iNA34bPs.jpg", "popularity": 10.367}, {"adult": false, "backdrop_path": "/84kMxZoaw958LrBNqSQqxFJEDXI.jpg", "genre_ids": [18, 10749], "id": 27066, "original_language": "it", "original_title": "L'uomo che guarda", "overview": "At a college in Rome, a professor, nicknamed \"Dodo\" is in a deep depression. His stunningly beautiful wife has just left him for another man. Dodo wants her back very badly and has erotic daydreams about her. A beautiful young student in his class asks him for a ride home and seduces the lucky man, but still he wonders about his wife and her lover.", "poster_path": "/ndMErDbUC7lSiKoWeUfzdMs3OpV.jpg", "release_date": "1994-01-27", "title": "The Voyeur", "video": false, "vote_average": 4.4, "vote_count": 82, "popularity": 11.247}, {"id": 291270, "video": false, "vote_count": 1031, "vote_average": 7.1, "title": "Anomalisa", "release_date": "2015-12-30", "original_language": "en", "original_title": "Anomalisa", "genre_ids": [16, 35, 18, 10749], "backdrop_path": "/7gXheUIaNCGsp6kwhKqpLCBeqBm.jpg", "adult": false, "overview": "An inspirational speaker becomes reinvigorated after meeting a lively woman who shakes up his mundane existence.", "poster_path": "/5DpDEEb6UJUiSaXyNegYlCqsZdd.jpg", "popularity": 10.491}, {"adult": false, "backdrop_path": "/wm7TBeMeuomoXW4kkDnsY2Na8pW.jpg", "genre_ids": [18, 10749], "id": 261, "original_language": "en", "original_title": "Cat on a Hot Tin Roof", "overview": "An alcoholic ex-football player drinks his days away hving failed to come to terms with his sexuality and his real feelings for his football buddy who died after an ambiguous accident. His wife is crucified by her desperation to make him desire her: but he resists the affections of his wife. His reunion with his father\u2014who is dying of cancer\u2014jogs a host of memories and revelations for both father and son.", "poster_path": "/vWf1AR8rC6WjGKELlmLv2VAUZJB.jpg", "release_date": "1958-02-17", "title": "Cat on a Hot Tin Roof", "video": false, "vote_average": 7.8, "vote_count": 367, "popularity": 18.028}, {"adult": false, "backdrop_path": "/fODNcRUif6WCYpPCJeL3q3zo7lc.jpg", "genre_ids": [18, 53, 10749], "id": 4823, "original_language": "en", "original_title": "Final Analysis", "overview": "Barr is a psychiatrist who falls in love with the sister of one of his clients. She's beautiful and married to a gangster. She hates her husband but is unable to escape from him.", "poster_path": "/e8fXQhLhgSbPd9zKNQPiAS8O8qW.jpg", "release_date": "1992-02-07", "title": "Final Analysis", "video": false, "vote_average": 5.6, "vote_count": 123, "popularity": 11.463}, {"id": 9962, "video": false, "vote_count": 314, "vote_average": 6.0, "title": "The Good Girl", "release_date": "2002-01-12", "original_language": "en", "original_title": "The Good Girl", "genre_ids": [35, 18, 10749], "backdrop_path": "/gY2qB8EFgiCZTQSgcWoZov3w7eH.jpg", "adult": false, "overview": "A discount store clerk strikes up an affair with a stock boy who considers himself the incarnation of Holden Caulfield.", "poster_path": "/21AacCArwM5hQ8fYPRA0WKZviiN.jpg", "popularity": 10.13}, {"id": 11004, "video": false, "vote_count": 305, "vote_average": 7.0, "title": "Wonder Boys", "release_date": "2000-02-22", "original_language": "en", "original_title": "Wonder Boys", "genre_ids": [35, 18], "backdrop_path": "/v0JeytwjJlpbgXNzIZFtGzQ1los.jpg", "adult": false, "overview": "Grady is a 50-ish English professor who hasn't had a thing published in years -- not since he wrote his award winning \"Great American Novel\" 7 years ago. This weekend proves even worse than he could imagine as he finds himself reeling from one misadventure to another in the company of a new wonder boy author.", "poster_path": "/aajFu5pK4YqBLKEkZzSBpJjoG68.jpg", "popularity": 11.204}], "total_pages": 16, "total_results": 307}, "recommendations": {"page": 1, "results": [{"adult": false, "backdrop_path": "/bML82gOWxzhDqsUlYTNMGYFPTgd.jpg", "genre_ids": [18, 35, 10749], "id": 18290, "original_language": "en", "original_title": "Arranged", "overview": "ARRANGED centers on the friendship between an Orthodox Jewish woman and a Muslim woman who meet as first-year teachers at a public school in Brooklyn. Over the course of the year they learn they share much in common - not least of which is that they are both going through the process of arranged marriages.", "poster_path": "/vfpDtJIwlpgfsrirYtwN30abf9Y.jpg", "release_date": "2007-03-10", "title": "Arranged", "video": false, "vote_average": 6.0, "vote_count": 15, "popularity": 3.925}, {"id": 172469, "video": false, "vote_count": 15, "vote_average": 5.0, "title": "Love & Air Sex", "release_date": "2014-02-07", "original_language": "en", "original_title": "Love & Air Sex", "genre_ids": [35], "backdrop_path": "/ywUZFLki9T9PFYMgm0NVWwMug0S.jpg", "adult": false, "overview": "When brokenhearted Stan flies to Austin for the weekend in hopes of \"accidentally\" running into his ex-girlfriend Cathy, he arrives to find their best friends Jeff and Kara in the middle of their own vicious breakup. Before too long, battle lines are drawn \u2013 and with the Air Sex World Championships in town, anything can go down.", "poster_path": "/mqvf2qhMvZdApYObih2fiJszA0E.jpg", "popularity": 5.107}, {"id": 24424, "video": false, "vote_count": 39, "vote_average": 7.3, "title": "Ajami", "release_date": "2009-09-17", "original_language": "he", "original_title": "Ajami", "genre_ids": [80, 18], "backdrop_path": "/ozL15LK5lmz7wVUQ2pKfpFW8ctd.jpg", "adult": false, "overview": "Ajami is an area of Tel Aviv in Israel where Arabs, Palestinians, Jews and Christians live together in a tense atmosphere. Omar, an Israeli Arab, struggles to save his family from a gang of extortionists. He also courts a beautiful Christian girl: Hadir. Malek, an illegal Palestinian worker, tries to collect enough money to pay for his mother's operation. Dando, an Israeli cop, does his utmost to find his missing brother who may have been killed by Palestinians.", "poster_path": "/tJ6oxcefOydh5bQ8K7ryrz09f7e.jpg", "popularity": 2.5}], "total_pages": 1, "total_results": 3}, "credits": {"cast": [{"cast_id": 2, "character": "Santiago Pautrat", "credit_id": "52fe491cc3a36847f8189983", "gender": 2, "id": 933264, "name": "Jason Day", "order": 0, "profile_path": null}, {"cast_id": 3, "character": "Ximena Saavedra", "credit_id": "52fe491cc3a36847f8189987", "gender": 1, "id": 73269, "name": "Elsa Pataky", "order": 1, "profile_path": "/wnsNe0dkT9hvCszAM3k2lE10qy0.jpg"}, {"cast_id": 4, "character": "I\u00f1igo", "credit_id": "52fe491cc3a36847f818998b", "gender": 2, "id": 12798, "name": "Enrique Murciano", "order": 2, "profile_path": "/1gMK90neTsEDxwW7p0qDIBdqXIx.jpg"}, {"cast_id": 5, "character": "Bat\u00fa", "credit_id": "52fe491dc3a36847f818998f", "gender": 2, "id": 8597, "name": "Phellipe Haagensen", "order": 3, "profile_path": "/8L5lBj4ofetMHS8IRdiH3LlRobY.jpg"}, {"cast_id": 6, "character": "La mexicana", "credit_id": "52fe491dc3a36847f8189993", "gender": 1, "id": 562279, "name": "Liz Gallardo", "order": 4, "profile_path": "/pfVzRK4ILlMLwcoq8MQwLlcToTa.jpg"}, {"cast_id": 7, "character": "Chester Creek", "credit_id": "52fe491dc3a36847f8189997", "gender": 0, "id": 229745, "name": "Andres Arellano", "order": 5, "profile_path": null}, {"cast_id": 8, "character": "Ana Maria", "credit_id": "52fe491dc3a36847f818999b", "gender": 1, "id": 933265, "name": "Anah\u00ed de C\u00e1rdenas", "order": 6, "profile_path": "/8PJBjFnHoHTxgwvKdkbwGjIgGBs.jpg"}, {"cast_id": 9, "character": "Cuchi Cuchi", "credit_id": "52fe491dc3a36847f818999f", "gender": 0, "id": 933266, "name": "Lucia Ojeda", "order": 7, "profile_path": null}, {"cast_id": 10, "character": "Jean Pautrat", "credit_id": "52fe491dc3a36847f81899a3", "gender": 0, "id": 933267, "name": "Ramsay Ross", "order": 8, "profile_path": "/qUoTTrQfmCof7Ya64n3rncG4K8m.jpg"}, {"cast_id": 11, "character": "Secretary", "credit_id": "52fe491dc3a36847f81899a7", "gender": 0, "id": 933268, "name": "Angelita Vel\u00e1squez", "order": 9, "profile_path": null}], "crew": [{"credit_id": "52fe491cc3a36847f818997f", "department": "Directing", "gender": 2, "id": 132364, "job": "Director", "name": "Ricardo de Montreuil", "profile_path": null}, {"credit_id": "52fe491dc3a36847f81899ad", "department": "Writing", "gender": 2, "id": 145063, "job": "Writer", "name": "Oscar Orlando Torres", "profile_path": "/zMmpBtork1Jm72M6oi7dR6Ek39W.jpg"}, {"credit_id": "52fe491dc3a36847f81899b3", "department": "Writing", "gender": 2, "id": 132364, "job": "Writer", "name": "Ricardo de Montreuil", "profile_path": null}, {"credit_id": "57f56fb59251410e360007c1", "department": "Art", "gender": 0, "id": 1689780, "job": "Production Design", "name": "Miguel \u00c1ngel \u00c1lvarez", "profile_path": null}]}}