{"adult": false, "backdrop_path": null, "belongs_to_collection": null, "budget": 0, "genres": [{"id": 99, "name": "Documentary"}, {"id": 28, "name": "Action"}, {"id": 10752, "name": "War"}, {"id": 36, "name": "History"}], "homepage": "", "id": 5707, "imdb_id": "tt0250730", "original_language": "en", "original_title": "Shooting War", "overview": "A remarkable film that takes a special look at the first war to be truly reported and recorded by one of the more unsung heroes of World War II: the combat photographer. Through the unflinching eye of their camera's lenses, these courageous soldiers continually risked their lives in their brave attempts to capture history.", "popularity": 3.291, "poster_path": "/4CwBCwswRShW8IeeFd8etV5h2IC.jpg", "production_companies": [{"id": 3486, "logo_path": null, "name": "DreamWorks Home Entertainment", "origin_country": ""}, {"id": 14773, "logo_path": null, "name": "Lorac Productions", "origin_country": "US"}], "production_countries": [{"iso_3166_1": "US", "name": "United States of America"}], "release_date": "2000-12-07", "revenue": 0, "runtime": 88, "spoken_languages": [{"iso_639_1": "en", "name": "English"}], "status": "Released", "tagline": "", "title": "Shooting War", "video": false, "vote_average": 5.3, "vote_count": 2, "keywords": {"keywords": [{"id": 1956, "name": "world war ii"}]}, "similar": {"page": 1, "results": [{"adult": false, "backdrop_path": "/pKawqrtCBMmxarft7o1LbEynys7.jpg", "genre_ids": [10752, 18, 28], "id": 228150, "original_language": "en", "original_title": "Fury", "overview": "In the last months of World War II, as the Allies make their final push in the European theatre, a battle-hardened U.S. Army sergeant named 'Wardaddy' commands a Sherman tank called 'Fury' and its five-man crew on a deadly mission behind enemy lines. Outnumbered and outgunned, Wardaddy and his men face overwhelming odds in their heroic attempts to strike at the heart of Nazi Germany.", "poster_path": "/fa4PxEPRKWRyjzYje1jM4m30qzd.jpg", "release_date": "2014-10-15", "title": "Fury", "video": false, "vote_average": 7.4, "vote_count": 7301, "popularity": 56.882}, {"id": 424, "video": false, "vote_count": 8985, "vote_average": 8.6, "title": "Schindler's List", "release_date": "1993-11-30", "original_language": "en", "original_title": "Schindler's List", "genre_ids": [18, 36, 10752], "backdrop_path": "/cTNYRUTXkBgPH3wP3kmPUB5U6dA.jpg", "adult": false, "overview": "The true story of how businessman Oskar Schindler saved over a thousand Jewish lives from the Nazis while they worked as slaves in his factory during World War II.", "poster_path": "/yPisjyLweCl1tbgwgtzBCNCBle.jpg", "popularity": 31.046}, {"id": 293982, "video": false, "vote_count": 119, "vote_average": 6.9, "title": "Warsaw 44", "release_date": "2014-07-30", "original_language": "pl", "original_title": "Miasto 44", "genre_ids": [18, 36, 10749, 10752], "backdrop_path": "/wv4kNz9aJPO200vndn5Paczh12K.jpg", "adult": false, "overview": "City of Warsaw, Poland, August 1, 1944. Citizens have experienced inhuman acts of terror and violence during five long years of Nazi occupation. As the Soviet Army relentlessly approaches, the youngest and bravest among them rise up as one and face tyranny fighting street by street, but the price to pay will be high and hard the way to freedom.", "poster_path": "/k9WOOkVur2Gwo93wuiKzJDm2mUK.jpg", "popularity": 7.952}, {"id": 369885, "video": false, "vote_count": 3048, "vote_average": 6.7, "title": "Allied", "release_date": "2016-11-17", "original_language": "en", "original_title": "Allied", "genre_ids": [28, 18, 53, 10749, 10752], "backdrop_path": "/tC0tVH5KQhCwMlddnyA3iWOSuBA.jpg", "adult": false, "overview": "In 1942, an intelligence officer in North Africa encounters a female French Resistance fighter on a deadly mission behind enemy lines. When they reunite in London, their relationship is tested by the pressures of war.", "poster_path": "/nzXzLFTnd0Zb3ExfhOxlQgizgSu.jpg", "popularity": 32.359}, {"id": 11046, "video": false, "vote_count": 433, "vote_average": 7.6, "title": "Where Eagles Dare", "release_date": "1968-12-04", "original_language": "en", "original_title": "Where Eagles Dare", "genre_ids": [28, 12, 18, 36, 10752], "backdrop_path": "/aAFq5jVHV6RZpLcRXATskNBuEbM.jpg", "adult": false, "overview": "World War II is raging, and an American general has been captured and is being held hostage in the Schloss Adler, a Bavarian castle that's nearly impossible to breach. It's up to a group of skilled Allied soldiers to liberate the general before it's too late.", "poster_path": "/991u0tSWGTVXCYkgC6ftaGE4bkQ.jpg", "popularity": 16.468}, {"id": 11422, "video": false, "vote_count": 132, "vote_average": 6.5, "title": "Midway", "release_date": "1976-06-18", "original_language": "en", "original_title": "Midway", "genre_ids": [28, 18, 36, 10752], "backdrop_path": "/6jeTEV03QLsjkEomKM6XhjoVJch.jpg", "adult": false, "overview": "This war drama depicts the U.S. and Japanese forces in the naval Battle of Midway, which became a turning point for Americans during World War II.", "poster_path": "/dCUVG2po7DsBvnxfe7WGcJsUn9T.jpg", "popularity": 19.326}, {"id": 522162, "video": false, "vote_count": 206, "vote_average": 6.7, "title": "Midway", "release_date": "2019-11-06", "original_language": "en", "original_title": "Midway", "genre_ids": [28, 18, 36, 10752], "backdrop_path": "/xjP88DFPCQ81mbZHXFscyYtGskT.jpg", "adult": false, "overview": "MIDWAY centers on the Battle of Midway, a clash between the American fleet and the Imperial Japanese Navy which marked a pivotal turning point in the Pacific Theater during WWII. The film, based on the real-life events of this heroic feat, tells the story of the leaders and soldiers who used their instincts, fortitude and bravery to overcome the odds.", "poster_path": "/hj8pyoNnynGeJTAbl7jcLZO8Uhx.jpg", "popularity": 61.847}, {"adult": false, "backdrop_path": "/sn0HQZthLpYamYb8VSPbEAWT4kF.jpg", "genre_ids": [18, 36, 10752], "id": 8741, "original_language": "en", "original_title": "The Thin Red Line", "overview": "Based on the graphic novel by James Jones, The Thin Red Line tells the story of a group of men, an Army Rifle company called C-for-Charlie, who change, suffer, and ultimately make essential discoveries about themselves during the fierce World War II battle of Guadalcanal. It follows their journey, from the surprise of an unopposed landing, through the bloody and exhausting battles that follow, to the ultimate departure of those who survived. A powerful frontline cast - including Sean Penn, Nick Nolte, Woody Harrelson and George Clooney - explodes into action in this hauntingly realistic view of military and moral chaos in the Pacific during World War II.", "poster_path": "/g4ApW90svay7veAPgxU8OsNMEOB.jpg", "release_date": "1998-12-25", "title": "The Thin Red Line", "video": false, "vote_average": 7.4, "vote_count": 1576, "popularity": 17.624}, {"adult": false, "backdrop_path": "/iMiKWZFILSbzwFWdp30mS1HciT7.jpg", "genre_ids": [28, 18, 10752], "id": 1251, "original_language": "en", "original_title": "Letters from Iwo Jima", "overview": "The story of the battle of Iwo Jima between the United States and Imperial Japan during World War II, as told from the perspective of the Japanese who fought it.", "poster_path": "/nWJJqOryTQOmVXvKUkLcEETUHgT.jpg", "release_date": "2006-12-19", "title": "Letters from Iwo Jima", "video": false, "vote_average": 7.5, "vote_count": 1075, "popularity": 14.06}, {"adult": false, "backdrop_path": "/qtD2lFLG5T7L8flbKSEIoSqcslI.jpg", "genre_ids": [18, 10752], "id": 7862, "original_language": "de", "original_title": "Die F\u00e4lscher", "overview": "The story Jewish counterfeiter, Salomon Sorowitsch, coerced into assisting the Nazi operation of the Sachsenhausen concentration camp during World War II.", "poster_path": "/bRQddrgVemZtFdnrPy9AxTpkhpj.jpg", "release_date": "2007-02-09", "title": "The Counterfeiters", "video": false, "vote_average": 7.4, "vote_count": 261, "popularity": 8.902}, {"adult": false, "backdrop_path": "/4uZZC82s0MDg6Om9AkQGDt4z0Xd.jpg", "genre_ids": [12, 18, 28, 53, 10752], "id": 11372, "original_language": "en", "original_title": "The Eagle Has Landed", "overview": "When the Nazi high command learns in late 1943 that Winston Churchill will be spending time at a country estate in Norfolk, it hatches an audacious scheme to kidnap the prime minister and spirit him to Germany for enforced negotiations with Hitler.", "poster_path": "/o22XW3pFNhUy9jPzBTLipKhUg5t.jpg", "release_date": "1976-12-24", "title": "The Eagle Has Landed", "video": false, "vote_average": 6.5, "vote_count": 149, "popularity": 17.548}, {"adult": false, "backdrop_path": "/plINQ1WJvnhjlxS5GUGCGKqZrMz.jpg", "genre_ids": [36, 99, 10752], "id": 803, "original_language": "fr", "original_title": "Nuit et brouillard", "overview": "Filmmaker Alain Resnais documents the atrocities behind the walls of Hitler's concentration camps.", "poster_path": "/xJc21xCemQirc1rHOJ8QLpUj1jA.jpg", "release_date": "1960-10-20", "title": "Night and Fog", "video": false, "vote_average": 8.3, "vote_count": 209, "popularity": 11.736}, {"id": 438799, "video": false, "vote_count": 1393, "vote_average": 6.6, "title": "Overlord", "release_date": "2018-11-01", "original_language": "en", "original_title": "Overlord", "genre_ids": [27, 878, 10752], "backdrop_path": "/sHNC8hjAu4ZKXYhG3cp8ghRZ02B.jpg", "adult": false, "overview": "France, June 1944. On the eve of D-Day, some American paratroopers fall behind enemy lines after their aircraft crashes while on a mission to destroy a radio tower in a small village near the beaches of Normandy. After reaching their target, the surviving paratroopers realise that, in addition to fighting the Nazi troops that patrol the village, they also must fight against something else.", "poster_path": "/l76Rgp32z2UxjULApxGXAPpYdAP.jpg", "popularity": 21.089}, {"id": 1771, "video": false, "vote_count": 14031, "vote_average": 6.9, "title": "Captain America: The First Avenger", "release_date": "2011-07-22", "original_language": "en", "original_title": "Captain America: The First Avenger", "genre_ids": [28, 12, 878], "backdrop_path": "/pmZtj1FKvQqISS6iQbkiLg5TAsr.jpg", "adult": false, "overview": "During World War II, Steve Rogers is a sickly man from Brooklyn who's transformed into super-soldier Captain America to aid in the war effort. Rogers must stop the Red Skull \u2013 Adolf Hitler's ruthless head of weaponry, and the leader of an organization that intends to use a mysterious device of untold powers for world domination.", "poster_path": "/vSNxAJTlD0r02V9sPYpOjqDZXUK.jpg", "popularity": 22.016}, {"id": 637, "video": false, "vote_count": 8080, "vote_average": 8.5, "title": "Life Is Beautiful", "release_date": "1997-12-20", "original_language": "it", "original_title": "La vita \u00e8 bella", "genre_ids": [35, 18], "backdrop_path": "/bORe0eI72D874TMawOOFvqWS6Xe.jpg", "adult": false, "overview": "A touching story of an Italian book seller of Jewish ancestry who lives in his own little fairy tale. His creative and happy life would come to an abrupt halt when his entire family is deported to a concentration camp during World War II. While locked up he tries to convince his son that the whole thing is just a game.", "poster_path": "/f7DImXDebOs148U4uPjI61iDvaK.jpg", "popularity": 33.768}, {"id": 423, "video": false, "vote_count": 4648, "vote_average": 8.3, "title": "The Pianist", "release_date": "2002-09-17", "original_language": "en", "original_title": "The Pianist", "genre_ids": [18, 10752], "backdrop_path": "/xUR95VFV1UTyzS1C8Lj06hi2n2M.jpg", "adult": false, "overview": "The true story of pianist W\u0142adys\u0142aw Szpilman's experiences in Warsaw during the Nazi occupation. When the Jews of the city find themselves forced into a ghetto, Szpilman finds work playing in a caf\u00e9; and when his family is deported in 1942, he stays behind, works for a while as a laborer, and eventually goes into hiding in the ruins of the war-torn city.", "poster_path": "/hfMeo073RxKKjZZV4gSGema1yog.jpg", "popularity": 26.63}, {"id": 489176, "video": false, "vote_count": 7, "vote_average": 4.9, "title": "The Birdcatcher", "release_date": "2017-03-29", "original_language": "en", "original_title": "The Birdcatcher", "genre_ids": [18, 36, 53, 10752], "backdrop_path": "/Wb6y1b2uOTUDhaBmrP7eqtuSjK.jpg", "adult": false, "overview": "Norway, 1942, during World War II. After being separated from her family, Esther, a young Jewish girl from Trondheim, arrives at an isolated farm where she must assume a new identity in order to survive the Nazi persecution\u2026", "poster_path": "/l9dmHphfmhmIZ4h8zRvhnSvuq0A.jpg", "popularity": 11.333}, {"id": 613, "video": false, "vote_count": 1991, "vote_average": 7.8, "title": "Downfall", "release_date": "2004-09-08", "original_language": "de", "original_title": "Der Untergang", "genre_ids": [18, 36, 10752], "backdrop_path": "/d3AmCJXvsP818di5KcCj4fNi36.jpg", "adult": false, "overview": "In April of 1945, Germany stands at the brink of defeat with the Russian Army closing in from the east and the Allied Expeditionary Force attacking from the west. In Berlin, capital of the Third Reich, Adolf Hitler proclaims that Germany will still achieve victory and orders his generals and advisers to fight to the last man. When the end finally does come, and Hitler lies dead by his own hand, what is left of his military must find a way to end the killing that is the Battle of Berlin, and lay down their arms in surrender.", "poster_path": "/2QmpblYvUThzBQ4ArdT1Kp43DZi.jpg", "popularity": 13.838}, {"id": 853, "video": false, "vote_count": 1912, "vote_average": 7.3, "title": "Enemy at the Gates", "release_date": "2001-03-14", "original_language": "en", "original_title": "Enemy at the Gates", "genre_ids": [28, 18, 36, 10749, 10752], "backdrop_path": "/70G2k5LYyvatd87Rai7DJM0DcYj.jpg", "adult": false, "overview": "A Russian and a German sniper play a game of cat-and-mouse during the Battle of Stalingrad in WWII.", "poster_path": "/9cSoNnB31hGY2mL78VT8mAbz6nR.jpg", "popularity": 18.297}, {"adult": false, "backdrop_path": "/1RKpaOeY60gCNbkW2xGBrXYkZUg.jpg", "genre_ids": [18, 36, 10752], "id": 25237, "original_language": "ru", "original_title": "\u0418\u0434\u0438 \u0438 \u0441\u043c\u043e\u0442\u0440\u0438", "overview": "The invasion of a village in Byelorussia by German forces sends young Florya into the forest to join the weary Resistance fighters, against his family's wishes. There he meets a girl, Glasha, who accompanies him back to his village. On returning home, Florya finds his family and fellow peasants massacred. His continued survival amidst the brutal debris of war becomes increasingly nightmarish, a battle between despair and hope.", "poster_path": "/8MYIwgpXnc5x98dmidmJFD68MY6.jpg", "release_date": "1985-07-01", "title": "Come and See", "video": false, "vote_average": 8.3, "vote_count": 396, "popularity": 12.854}], "total_pages": 109, "total_results": 2179}, "recommendations": {"page": 1, "results": [], "total_pages": 1, "total_results": 0}, "credits": {"cast": [{"cast_id": 9, "character": "Narrator", "credit_id": "52fe441ac3a36847f8082507", "gender": 2, "id": 31, "name": "Tom Hanks", "order": 0, "profile_path": "/xxPMucou2wRDxLrud8i2D4dsywh.jpg"}, {"cast_id": 10, "character": "himself", "credit_id": "52fe441ac3a36847f808250b", "gender": 2, "id": 44953, "name": "Stephen Ambrose", "order": 1, "profile_path": null}, {"cast_id": 11, "character": "himself", "credit_id": "52fe441ac3a36847f808250f", "gender": 2, "id": 4590, "name": "Russ Meyer", "order": 2, "profile_path": "/zNVAAdgIk9q3SQadZuQKr6wHlXM.jpg"}, {"cast_id": 12, "character": "himself", "credit_id": "52fe441ac3a36847f8082513", "gender": 2, "id": 8500, "name": "John Ford", "order": 3, "profile_path": "/dEOu7wZjE9BH4kdADWh9eTM10U.jpg"}], "crew": [{"credit_id": "52fe4419c3a36847f8082503", "department": "Editing", "gender": 2, "id": 488, "job": "Editor", "name": "Steven Spielberg", "profile_path": "/pOK15UNaw75Bzj7BQO1ulehbPPm.jpg"}, {"credit_id": "593f2575c3a3680369002417", "department": "Production", "gender": 2, "id": 488, "job": "Producer", "name": "Steven Spielberg", "profile_path": "/pOK15UNaw75Bzj7BQO1ulehbPPm.jpg"}, {"credit_id": "52fe4419c3a36847f80824eb", "department": "Sound", "gender": 2, "id": 12845, "job": "Original Music Composer", "name": "Arthur B. Rubinstein", "profile_path": null}, {"credit_id": "52fe4419c3a36847f80824f7", "department": "Camera", "gender": 1, "id": 17048, "job": "Director of Photography", "name": "Nancy Schreiber", "profile_path": null}, {"credit_id": "52fe4419c3a36847f80824df", "department": "Writing", "gender": 2, "id": 44950, "job": "Screenplay", "name": "Richard Schickel", "profile_path": "/eQttg85w85ZQATFicNZhTXWDDbg.jpg"}, {"credit_id": "52fe4419c3a36847f80824d9", "department": "Directing", "gender": 2, "id": 44950, "job": "Director", "name": "Richard Schickel", "profile_path": "/eQttg85w85ZQATFicNZhTXWDDbg.jpg"}, {"credit_id": "52fe4419c3a36847f80824e5", "department": "Production", "gender": 2, "id": 44950, "job": "Producer", "name": "Richard Schickel", "profile_path": "/eQttg85w85ZQATFicNZhTXWDDbg.jpg"}, {"credit_id": "52fe4419c3a36847f80824f1", "department": "Camera", "gender": 2, "id": 44951, "job": "Director of Photography", "name": "Rob Goldie", "profile_path": null}, {"credit_id": "52fe4419c3a36847f80824fd", "department": "Editing", "gender": 2, "id": 44952, "job": "Editor", "name": "Bryan McKenzie", "profile_path": null}]}}