{"adult": false, "backdrop_path": "/dSG2Uv0SsyOm6rNkZOuJ1P92ICw.jpg", "belongs_to_collection": null, "budget": 0, "genres": [{"id": 53, "name": "Thriller"}, {"id": 18, "name": "Drama"}], "homepage": null, "id": 571689, "imdb_id": "tt9514970", "original_language": "da", "original_title": "Danmarks S\u00f8nner", "overview": "Denmark 2025. One year after a major bomb attack in Copenhagen, radicalisation around the country has intensified and ethnic tensions are running high. The next parliamentary election is near, and the extremely nationalist political leader Martin Nordahl is set for a landslide victory. 19-year-old Zakaria gets involved in a radical organisation, where he forms a bond with Ali. The two men cannot agree with the current state of the country, which is turning on its own citizens because of their migration background, and decide to act. However, they are both just tools in the hands of people with power. As the men try to make their mark, their brotherhood will be tested and their actions will have grave consequences on their lives.", "popularity": 2.61, "poster_path": "/bkPTOmYRXLSmvaUQ8mRN42xoaZ0.jpg", "production_companies": [{"id": 119770, "logo_path": null, "name": "Hy\u00e6ne Film", "origin_country": ""}, {"id": 118, "logo_path": "/AiBorgNTCS1lT1FdFPYheax9jfF.png", "name": "Det Danske Filminstitut", "origin_country": "DK"}, {"id": 25220, "logo_path": null, "name": "New Danish Screen", "origin_country": ""}], "production_countries": [{"iso_3166_1": "DK", "name": "Denmark"}], "release_date": "2019-04-11", "revenue": 0, "runtime": 118, "spoken_languages": [{"iso_639_1": "ar", "name": "\u0627\u0644\u0639\u0631\u0628\u064a\u0629"}, {"iso_639_1": "da", "name": "Dansk"}], "status": "Released", "tagline": "", "title": "Sons of Denmark", "video": false, "vote_average": 6.0, "vote_count": 8, "keywords": {"keywords": [{"id": 509, "name": "denmark"}, {"id": 792, "name": "copenhagen"}, {"id": 3230, "name": "male friendship"}, {"id": 206544, "name": "bomb attack"}, {"id": 228437, "name": "political fiction"}, {"id": 232675, "name": "domestic terrorism"}, {"id": 240237, "name": "mother son relationship"}, {"id": 248527, "name": "jihadist terrorist"}, {"id": 256073, "name": "right-wing politician"}, {"id": 256074, "name": "far-right organization"}]}, "similar": {"page": 1, "results": [{"id": 479226, "video": false, "vote_count": 146, "vote_average": 7.4, "title": "The Purity of Vengeance", "release_date": "2018-10-04", "original_language": "da", "original_title": "Journal 64", "genre_ids": [80, 18, 9648, 53], "backdrop_path": "/oCQyGN3Tntslag1opXUZpuT16NM.jpg", "adult": false, "overview": "Copenhagen, Denmark, 2018. A frightening discovery is made in an old apartment. The subsequent investigation of Department Q members leads them to an infamous institution for girls that was suddenly closed in the early sixties.", "poster_path": "/uTdaeGpznkLfyhAzLlrdssD621R.jpg", "popularity": 14.148}, {"id": 348668, "video": false, "vote_count": 275, "vote_average": 7.0, "title": "A Conspiracy of Faith", "release_date": "2016-03-03", "original_language": "da", "original_title": "Flaskepost fra P", "genre_ids": [80, 18, 9648, 53], "backdrop_path": "/hhHzI8Ma2gmd7jWotOhFI5Ao78s.jpg", "adult": false, "overview": "Denmark, 2016. A blurred note is found in a bottle that has traveled across the ocean for a long time. After deciphering the cryptic note, Department Q members follow a sinister trail that leads them to investigate a case occurred in 2008. At the same time, new tragic events take place that test their faith and deepest beliefs.", "poster_path": "/y6VRJI7zTQj5miEsxi2P7oakbjL.jpg", "popularity": 12.512}, {"id": 254201, "video": false, "vote_count": 308, "vote_average": 7.2, "title": "The Absent One", "release_date": "2014-10-02", "original_language": "da", "original_title": "Fasandr\u00e6berne", "genre_ids": [80, 18, 9648, 53], "backdrop_path": "/n7LyLdE0EsKdZmgoZy9m4GUIoJp.jpg", "adult": false, "overview": "Denmark, 2014. A former police officer asks Carl M\u00f8rck, head of Department Q, to find out who brutally killed his young twins in 1994. Although a local inhabitant confessed and was convicted of murder, Carl and his partner Assad soon realize that there is something in the case resolution that is terribly wrong.", "poster_path": "/spvWPsvCi4g3UVDypnQstzPx9Or.jpg", "popularity": 13.664}, {"adult": false, "backdrop_path": "/xhstSJACJF7QiO4zAsqAPXE1PbQ.jpg", "genre_ids": [18], "id": 306819, "original_language": "en", "original_title": "The Danish Girl", "overview": "When Gerda Wegener asks her husband Einar to fill in as a portrait model, Einar discovers the person she's meant to be and begins living her life as Lili Elbe. Having realized her true self and with Gerda's love and support, Lili embarks on a groundbreaking journey as a transgender pioneer.", "poster_path": "/seWQ6UKCrhGH0eP7dFZvmIBQtKF.jpg", "release_date": "2015-11-27", "title": "The Danish Girl", "video": false, "vote_average": 7.7, "vote_count": 4035, "popularity": 18.351}, {"id": 461130, "video": false, "vote_count": 222, "vote_average": 6.0, "title": "Code 8", "release_date": "2019-12-06", "original_language": "en", "original_title": "Code 8", "genre_ids": [28, 80, 18, 878, 53], "backdrop_path": "/raspMdRYIj0cCF6SQH8NQ1lLLMB.jpg", "adult": false, "overview": "In Lincoln City, some inhabitants have extraordinary abilities. Most live below the poverty line, under the close surveillance of a heavily militarized police force. Connor, a construction worker with powers, involves with a criminal gang to help his ailing mother. (Based on the short film \u201cCode 8,\u201d 2016.)", "poster_path": "/mz3pXqYkajrHFl1RbuXJZ1GzSsu.jpg", "popularity": 56.287}, {"adult": false, "backdrop_path": "/ekgGLq05SuSnaxLtDjhcQQP6m1V.jpg", "genre_ids": [53, 9648, 80], "id": 196024, "original_language": "da", "original_title": "Kvinden i buret", "overview": "Denmark, 2013. Police officers Carl M\u00f8rck and Hafez el-Assad, sole members of Department Q, which is focused on closing cold cases, investigate the disappearance of politician Merete Lynggaard, vanished when she and her brother were traveling aboard a ferry five years ago.", "poster_path": "/ofeNuSDSn3jqboHnpzO55EUph6F.jpg", "release_date": "2013-10-03", "title": "The Keeper of Lost Causes", "video": false, "vote_average": 7.2, "vote_count": 369, "popularity": 9.953}, {"id": 494974, "video": false, "vote_count": 126, "vote_average": 6.5, "title": "Red Joan", "release_date": "2018-09-13", "original_language": "en", "original_title": "Red Joan", "genre_ids": [36, 53], "backdrop_path": "/1Ec2AdlvpLKkfgnjlTcG9lV52IT.jpg", "adult": false, "overview": "London, England, May 2000. The peaceful life of elderly Joan Stanley is suddenly disrupted when she is arrested by the British Intelligence Service and accused of providing information to communist Russia during the forties.", "poster_path": "/pTZWmUWJ0yIb49RaIzQUh4LrBlq.jpg", "popularity": 11.896}, {"adult": false, "backdrop_path": "/1NGFwLyUo6YYLYD6jUaiWXgxh6n.jpg", "genre_ids": [53], "id": 455957, "original_language": "en", "original_title": "Domino", "overview": "Seeking justice for his partner\u2019s murder by an ISIS member, a Copenhagen police officer finds himself caught in a cat and mouse game with a duplicitous CIA agent who is using the killer as a pawn to trap other ISIS members.", "poster_path": "/4ExrDZRhhmZkveXMjUzywc6266q.jpg", "release_date": "2019-05-31", "title": "Domino", "video": false, "vote_average": 4.6, "vote_count": 75, "popularity": 10.098}, {"adult": false, "backdrop_path": "/lD6JhXP1MGeRNdkdTpid1ClfiIS.jpg", "genre_ids": [18, 35, 10749], "id": 10609, "original_language": "en", "original_title": "The Life and Death of Peter Sellers", "overview": "The turbulent personal and professional life of actor Peter Sellers (1925-1980), from his beginnings as a comic performer on BBC Radio to his huge success as one of the greatest film comedians of all time; an obsessive artist so dedicated to his work that neglected his loved ones and sacrificed part of his own personality to convincingly create that of his many memorable characters.", "poster_path": "/lf8OoO2T6X0O7jGa49icIqf8Gm5.jpg", "release_date": "2004-10-01", "title": "The Life and Death of Peter Sellers", "video": false, "vote_average": 6.7, "vote_count": 93, "popularity": 6.958}, {"adult": false, "backdrop_path": "/i6jAASGhzxqtXTWTm8RunLJIhi1.jpg", "genre_ids": [28, 35, 80], "id": 10180, "original_language": "da", "original_title": "Blinkende lygter", "overview": "Four small gangsters from Copenhagen trick a gangster boss: they take over 4,000,000 kroner which they were supposed to bring him. Trying to escape to Barcelona they are forced to stop in the countryside, in an old, wrecked house, hiding there for several weeks. Slowly, one after another, they realize, that they would like to stay there, start a new life.", "poster_path": "/dGVHnZw0T7B5idyPk3LwurPSLbQ.jpg", "release_date": "2000-11-03", "title": "Flickering Lights", "video": false, "vote_average": 7.3, "vote_count": 90, "popularity": 10.632}, {"adult": false, "backdrop_path": "/89tNMOGgOEdbp2I6EdMLCwf5qDV.jpg", "genre_ids": [35, 12, 10751], "id": 198436, "original_language": "da", "original_title": "Antboy", "overview": "12-year-old Pelle accidentally gets bitten by an ant and develops unimaginable superpowers. With help from his friend, comic book nerd Wilhelm, Pelle creates a secret identity as the superhero Antboy. Slowly things start to happen in the surburban community, and when a scary and crazy supervillain, Flea, enters the scene, Antboy must step up to the challenge.  The first Danish superhero-movie. Based on the books by Kenneth B\u00f8gh Andersen.", "poster_path": "/7uWljgIRzP9u5HXS7ZJq8N666WY.jpg", "release_date": "2013-09-07", "title": "Antboy", "video": false, "vote_average": 5.2, "vote_count": 75, "popularity": 8.489}, {"id": 581791, "video": false, "vote_count": 12, "vote_average": 7.9, "title": "The Blonde One", "release_date": "2019-02-26", "original_language": "es", "original_title": "Un Rubio", "genre_ids": [18, 10749], "backdrop_path": "/lXajaGvX9fZXEFZ7yd4CgsPWkav.jpg", "adult": false, "overview": "Gabriel rents a room in Juan\u2019s House. They work together in a Woodwork place. Gabriel is a very quiet guy and has a little daughter. Juan is a party boy who has a lots of girls around. Inadvertently the sexual tension starts to grow between them. It opens a new hidden forbidden world they have to deal with.", "poster_path": "/wnuvOKLr6qAtQYVru5gJnHeBKlo.jpg", "popularity": 3.043}, {"adult": false, "backdrop_path": "/2e759fX1LvzQOqXeyZmSOvLxrT2.jpg", "genre_ids": [53], "id": 15961, "original_language": "da", "original_title": "Kongekabale", "overview": "Starting a new job as a political journalist at a leading newspaper, Ulrik Torp witnesses a brutal struggle for power in the Midparty's ranks -- a struggle that coincides with the charismatic party leader's involvement in a near fatal car accident. A flurry of lies and media speculation surrounds the incident. Gradually, Ulrik unearths a ruthless conspiracy involving the incumbent prime minister.", "poster_path": "/h3hUu80dYIwusnnU9mYA7lrLIf.jpg", "release_date": "2004-08-10", "title": "King's Game", "video": false, "vote_average": 7.1, "vote_count": 21, "popularity": 3.204}, {"adult": false, "backdrop_path": "/1vBGszTB4lz88l8aTdkKxOOaGE1.jpg", "genre_ids": [18], "id": 646504, "original_language": "da", "original_title": "The Danish Boys", "overview": "In a Copenhagen motel, a politician's hookup doesn't go to plan. Meanwhile at a nightclub, a mother and son are connected via song. Whereas in the suburbs, a football team prepares for the big outing - of one of its players.", "poster_path": "/A6KG5M7r8OS2qGRkiO4vrq15BpD.jpg", "release_date": "2019-11-01", "title": "The Danish Boys", "video": false, "vote_average": 8.0, "vote_count": 1, "popularity": 2.122}, {"adult": false, "backdrop_path": "/gdpXGxloAuqBp7sTL7DmWrkkh8W.jpg", "genre_ids": [18], "id": 25541, "original_language": "da", "original_title": "Broderskab", "overview": "Former Danish servicemen Lars and Jimmy are thrown together while training in a neo-Nazi group. Moving from hostility through grudging admiration to friendship and finally passion, events take a darker turn when their illicit relationship is uncovered.", "poster_path": "/7o9gJZ4Qe2D5yi6fl66GmcZa8nx.jpg", "release_date": "2009-10-21", "title": "Brotherhood", "video": false, "vote_average": 7.5, "vote_count": 36, "popularity": 4.234}, {"adult": false, "backdrop_path": "/lcM49Au2DtDIigd0G51zOqYqckj.jpg", "genre_ids": [18, 35, 10749], "id": 139, "original_language": "da", "original_title": "Mifunes sidste sang", "overview": "Kresten, newly wed, is on the threshold of a great career success in his father-in-law\u00b4s company. But when the death of his own father takes him back to his poverty-stricken childhood home, far out in the country, his career plans fall apart. For one thing he has to deal with his loveable, backward brother, who is now all alone; for another, he meets a stunning woman who comes to the farm as a housekeeper, in disguise of her real profession as a call-girl.", "poster_path": "/962ZZDr4FV3L46ZnurqIaZveL60.jpg", "release_date": "1999-03-12", "title": "Mifune", "video": false, "vote_average": 7.0, "vote_count": 33, "popularity": 4.53}, {"adult": false, "backdrop_path": "/vuAE7H2T52TUtjmu02g0a46wbG.jpg", "genre_ids": [10751, 35, 80], "id": 12592, "original_language": "da", "original_title": "Olsen-banden g\u00e5r i krig", "overview": "Some criminal EU ministers plan to turn Denmark into a gigantic fair ground and holiday paradise. Egon gets his hand at some important documents which could both make him rich and take care of Denmark's future.", "poster_path": "/u8cmLMyDgTju7Kxqtf0Yb7QIdzh.jpg", "release_date": "1978-10-06", "title": "The Olsen Gang Goes to War", "video": false, "vote_average": 6.7, "vote_count": 21, "popularity": 2.854}, {"adult": false, "backdrop_path": "/a2UCegD8GxHEun9Dw2N8GAyI42T.jpg", "genre_ids": [18, 10749, 53], "id": 165027, "original_language": "de", "original_title": "R\u00fcckenwind", "overview": "Johann and Robin, a young gay couple, travel to the countryside to get to know each other better. After several days of hiking, they arrive at an old farmhouse inhabited by a woman and her adolescent son, and take refuge with the welcoming family.", "poster_path": "/wzLjy6mXKEX0j3aHJGNfGnDFJS6.jpg", "release_date": "2009-06-04", "title": "Light Gradient", "video": false, "vote_average": 6.0, "vote_count": 12, "popularity": 3.405}, {"id": 413666, "video": false, "vote_count": 31, "vote_average": 7.4, "title": "Taekwondo", "release_date": "2016-08-18", "original_language": "es", "original_title": "Taekwondo", "genre_ids": [18, 10749], "backdrop_path": "/49a7PAJDE8WA87xa4vUof3l1QLP.jpg", "adult": false, "overview": "Fernando is on holiday with his closest male friends in a beautiful country house in a suburb of Buenos Aries. On their own without their girlfriends in a \u201cmen only\u201d environment, the hunky young studs bask in the hot sun, play in the pool, smoke pot, and drink, most often semi-clad or naked. In this freewheeling and testosterone-infused environment, they talk of their desires and strengthen their individual bonds.", "poster_path": "/nc5dO2rWhUpmc8hdVaOmo4QGQCH.jpg", "popularity": 4.158}, {"id": 571603, "video": false, "vote_count": 5, "vote_average": 7.4, "title": "Juror 8", "release_date": "2019-05-15", "original_language": "ko", "original_title": "\ubc30\uc2ec\uc6d0\ub4e4", "genre_ids": [18], "backdrop_path": "/tseYcE382x1goVptRC62AHUG9xX.jpg", "adult": false, "overview": "Seoul, South Korea, September 21st, 2008. Eight citizens, the first to intervene as jurors in the country's legal history, are randomly selected to examine a matricide case that appears to have been resolved due to the existence of apparently conclusive evidence.", "poster_path": "/hNbbdoGVNzwOu22VW2sfiyxDtcK.jpg", "popularity": 2.108}], "total_pages": 3, "total_results": 41}, "recommendations": {"page": 1, "results": [], "total_pages": 1, "total_results": 0}, "credits": {"cast": [{"cast_id": 6, "character": "Malik", "credit_id": "5c28f1930e0a26541c365d29", "gender": 0, "id": 2204705, "name": "Zaki Youssef", "order": 0, "profile_path": null}, {"cast_id": 8, "character": "Zakaria", "credit_id": "5c28f1b2c3a3683a70d47c7f", "gender": 0, "id": 2204708, "name": "Mohammed Ismail Mohammed", "order": 1, "profile_path": null}, {"cast_id": 3, "character": "Martin Nordahl", "credit_id": "5c28f17d92514138c8c0c6ef", "gender": 2, "id": 98065, "name": "Rasmus Bjerg", "order": 2, "profile_path": "/iInxa23iTFhlvjNzzVeOqhcSgbz.jpg"}, {"cast_id": 7, "character": "Hassan", "credit_id": "5c28f19c92514138e1c0ba1f", "gender": 0, "id": 2204706, "name": "Imad Abul-Foul", "order": 3, "profile_path": null}, {"cast_id": 9, "character": "Jon Frederiksen", "credit_id": "5c45e1949251415e344dfa3c", "gender": 2, "id": 1366062, "name": "Olaf Johannessen", "order": 4, "profile_path": "/tU2tn19BlV1wQNj0lqPUsxpqDIw.jpg"}, {"cast_id": 24, "character": "Zakarias' Mother", "credit_id": "5d2b5f764b9bae001259bf34", "gender": 0, "id": 2361845, "name": "Shirin Habib Shukr", "order": 5, "profile_path": null}, {"cast_id": 19, "character": "Zakarias' Little Brother", "credit_id": "5d2b5cfca294f00012332b5a", "gender": 0, "id": 2361840, "name": "Ivan Ala Ali", "order": 6, "profile_path": null}, {"cast_id": 5, "character": "Mariam", "credit_id": "5c28f18cc3a3684a15d14aba", "gender": 1, "id": 141234, "name": "\u00d6zlem Sa\u011flanmak", "order": 7, "profile_path": null}, {"cast_id": 4, "character": "Christian", "credit_id": "5c28f185c3a3683a7ad47811", "gender": 2, "id": 591209, "name": "Morten Holst", "order": 8, "profile_path": "/rNKT9Hhso9Hhb9D55VuKr5EYA1R.jpg"}, {"cast_id": 20, "character": "Malik's Son", "credit_id": "5d2b5daebe4b3612f5abbf89", "gender": 0, "id": 2361841, "name": "Ali Hossein Al-Khudri", "order": 9, "profile_path": null}, {"cast_id": 21, "character": "Silje Nordahl", "credit_id": "5d2b5e08be4b3632c4a76abe", "gender": 1, "id": 1366059, "name": "Stine Pr\u00e6torius", "order": 10, "profile_path": null}, {"cast_id": 22, "character": "Martin Nordahl's Son", "credit_id": "5d2b5e4abe4b3632c4a76b60", "gender": 0, "id": 2361842, "name": "Mikkel Derby Kragh", "order": 11, "profile_path": null}, {"cast_id": 23, "character": "PET Agent", "credit_id": "5d2b5e99caab6d19c5993203", "gender": 0, "id": 2361843, "name": "Morten Burian", "order": 12, "profile_path": null}, {"cast_id": 2, "character": "Young Man", "credit_id": "5c28f17692514138cbc0a5cb", "gender": 2, "id": 1357455, "name": "Elliott Crosset Hove", "order": 13, "profile_path": "/dGBMaetF0JeyXpyp3cleyCgN46M.jpg"}, {"cast_id": 25, "character": "Sons of Denmark's Voice (voice)", "credit_id": "5d2b6085a294f00010331709", "gender": 0, "id": 2361856, "name": "Ari Alexander", "order": 14, "profile_path": null}, {"cast_id": 26, "character": "Man in F\u00f8tex Supermarket", "credit_id": "5d2b622ea294f000123339d0", "gender": 0, "id": 2361858, "name": "Carsten Bak Meisner", "order": 15, "profile_path": null}], "crew": [{"credit_id": "5c28f16c92514138d7c0a420", "department": "Directing", "gender": 0, "id": 1894748, "job": "Director", "name": "Ulaa Salim", "profile_path": null}, {"credit_id": "5d2b37b8a294f042db2c6722", "department": "Writing", "gender": 0, "id": 1894748, "job": "Screenplay", "name": "Ulaa Salim", "profile_path": null}, {"credit_id": "5d2b5ad0be4b3632c4a76039", "department": "Production", "gender": 0, "id": 2361833, "job": "Producer", "name": "Daniel M\u00fchlendorph", "profile_path": null}, {"credit_id": "5d2b5aefcaab6d4b3c99796e", "department": "Camera", "gender": 0, "id": 2361834, "job": "Director of Photography", "name": "Eddie Klint", "profile_path": null}, {"credit_id": "5d2b5b0d4b9bae111559b080", "department": "Art", "gender": 0, "id": 2361836, "job": "Production Design", "name": "Silje Aune Dammen", "profile_path": null}, {"credit_id": "5d2b5b3dcaab6d4b3c997a1f", "department": "Editing", "gender": 0, "id": 2361837, "job": "Editor", "name": "Jenna Mangulad", "profile_path": null}, {"credit_id": "5d2b5b65be4b36153f9dcd32", "department": "Sound", "gender": 0, "id": 1640035, "job": "Sound Designer", "name": "Rune Kristiansen", "profile_path": null}, {"credit_id": "5d2b5beca294f03e8829e9e5", "department": "Production", "gender": 0, "id": 2361838, "job": "Line Producer", "name": "Mia Elvstr\u00f8m Myr\u00e4lf", "profile_path": null}, {"credit_id": "5d2b62b5be4b3632c4a77576", "department": "Camera", "gender": 0, "id": 2312333, "job": "Still Photographer", "name": "Henrik Oshten", "profile_path": null}, {"credit_id": "5d2b6301a294f03e8829fdda", "department": "Costume & Make-Up", "gender": 0, "id": 2361859, "job": "Costume Designer", "name": "Juan Bastias", "profile_path": null}, {"credit_id": "5d2b6335be4b36756aa75768", "department": "Costume & Make-Up", "gender": 0, "id": 2361860, "job": "Makeup Designer", "name": "Malaika Boserup", "profile_path": null}, {"credit_id": "5d2b6405a294f03e8829ffc6", "department": "Sound", "gender": 0, "id": 2361861, "job": "Original Music Composer", "name": "Turkman Souljah", "profile_path": null}]}}