{"adult": false, "backdrop_path": "/zKNSt8IYJ4QEw8CdC3azIjtZQiG.jpg", "belongs_to_collection": null, "budget": 0, "genres": [{"id": 35, "name": "Comedy"}], "homepage": null, "id": 573915, "imdb_id": "tt9169592", "original_language": "en", "original_title": "Wanda Sykes: Not Normal", "overview": "Wanda Sykes tackles politics, reality TV, racism and the secret she'd take to the grave in this rollicking, no-holds-barred stand-up special.", "popularity": 4.815, "poster_path": "/dvYaocVfXaKX620wT5DA8JfQrF9.jpg", "production_companies": [{"id": 82830, "logo_path": null, "name": "Push It Productions", "origin_country": ""}], "production_countries": [{"iso_3166_1": "US", "name": "United States of America"}], "release_date": "2019-05-21", "revenue": 0, "runtime": 66, "spoken_languages": [{"iso_639_1": "en", "name": "English"}], "status": "Released", "tagline": "", "title": "Wanda Sykes: Not Normal", "video": false, "vote_average": 7.0, "vote_count": 28, "keywords": {"keywords": [{"id": 9716, "name": "stand-up comedy"}]}, "similar": {"page": 1, "results": [{"id": 444705, "video": false, "vote_count": 131, "vote_average": 7.9, "title": "Dave Chappelle: The Age of Spin", "release_date": "2017-03-21", "original_language": "en", "original_title": "Dave Chappelle: The Age of Spin", "genre_ids": [35], "backdrop_path": "/xlwFzTxkqoBm3dLkfPSZU0rWS9L.jpg", "adult": false, "overview": "Comedy icon Dave Chappelle makes his triumphant return to the screen with a pair of blistering, fresh stand-up specials. Filmed at The Palladium in Los Angeles, California, in March 2016.", "poster_path": "/lFGP9COk4X3sBqrkUpbQ78GdnZm.jpg", "popularity": 10.751}, {"adult": false, "backdrop_path": "/wggEfOyXd356KAKyYeiWXGr7mYs.jpg", "genre_ids": [35], "id": 35595, "original_language": "en", "original_title": "Dave Chappelle: HBO Comedy Half-Hour", "overview": "Dave gets his own HBO special, filmed in San Francisco", "poster_path": "/AuQLSJRADu0ZnftllkSYpjRwn4U.jpg", "release_date": "1998-01-09", "title": "Dave Chappelle: HBO Comedy Half-Hour", "video": false, "vote_average": 6.8, "vote_count": 21, "popularity": 2.876}, {"id": 52345, "video": false, "vote_count": 221, "vote_average": 7.8, "title": "Lisbela and the Prisoner", "release_date": "2003-08-22", "original_language": "pt", "original_title": "Lisbela e o Prisioneiro", "genre_ids": [35, 10749], "backdrop_path": "/4KDlC0cZvR5LtszqjFhZcMzdiUD.jpg", "adult": false, "overview": "Lisbela is a young woman who loves going to the movies. Lel\u00e9u is a con man, going from town to town selling all sort of things and performing as master of ceremonies for some cheesy numbers, such as the woman who gets transformed into a gorilla. He gets involved with Linaura, a sexy and beautiful woman who happens to be the wife of the most frightening hitman of the place. The hitman finds out his wife's affair and goes after Lel\u00e9u, who has to leave in a hurry. In another town, he meets and falls instantly in love with Lisbela, who is engaged to Douglas, a hillbilly who tries hard to pass for a cosmopolitan Rio de Janeiro dweller.", "poster_path": "/9nlaRxQeYaMrVVANMppagFohCRP.jpg", "popularity": 1.042}, {"adult": false, "backdrop_path": null, "genre_ids": [35], "id": 637573, "original_language": "en", "original_title": "Daniel Sloss: X", "overview": "A new comedy special performed by Daniel Sloss.", "poster_path": "/b3DxLUvcp5hRXtTa4pv2wRAuY4P.jpg", "release_date": "2019-11-02", "title": "Daniel Sloss: X", "video": false, "vote_average": 10.0, "vote_count": 1, "popularity": 2.906}, {"id": 49013, "video": false, "vote_count": 4530, "vote_average": 5.9, "title": "Cars 2", "release_date": "2011-06-11", "original_language": "en", "original_title": "Cars 2", "genre_ids": [12, 16, 35, 10751], "backdrop_path": "/jEcmZhtJkZQc6ta2vzBd9CU7GIx.jpg", "adult": false, "overview": "Star race car Lightning McQueen and his pal Mater head overseas to compete in the World Grand Prix race. But the road to the championship becomes rocky as Mater gets caught up in an intriguing adventure of his own: international espionage.", "poster_path": "/AblhtULOVtrkSnFxRPQ8gBemxw9.jpg", "popularity": 25.278}, {"adult": false, "backdrop_path": "/fBYnaVOcc2Ghfkv473z0xdBRQ0m.jpg", "genre_ids": [10751, 16, 12, 35], "id": 270946, "original_language": "en", "original_title": "Penguins of Madagascar", "overview": "Skipper, Kowalski, Rico and Private join forces with undercover organization The North Wind to stop the villainous Dr. Octavius Brine from destroying the world as we know it.", "poster_path": "/pRer59eyY4rjkLPeKXKo7fPxCHH.jpg", "release_date": "2014-11-22", "title": "Penguins of Madagascar", "video": false, "vote_average": 6.4, "vote_count": 2485, "popularity": 27.36}, {"id": 9647, "video": false, "vote_count": 786, "vote_average": 6.9, "title": "Scrooged", "release_date": "1988-11-22", "original_language": "en", "original_title": "Scrooged", "genre_ids": [35, 18, 14], "backdrop_path": "/6xezVJoUp0cZUBQeIDpW6lFuhcd.jpg", "adult": false, "overview": "In this modern take on Charles Dickens' \"A Christmas Carol,\" Frank Cross (Bill Murray) is a wildly successful television executive whose cold ambition and curmudgeonly nature has driven away the love of his life, Claire Phillips (Karen Allen). But after firing a staff member, Eliot Loudermilk (Bobcat Goldthwait), on Christmas Eve, Frank is visited by a series of ghosts who give him a chance to re-evaluate his actions and right the wrongs of his past.", "poster_path": "/uO0znfB2ZzTXA1IS7jkrjNbpkYK.jpg", "popularity": 17.767}, {"adult": false, "backdrop_path": "/c42tFwWNHc8jJ49Zb0yqSAqr5TM.jpg", "genre_ids": [12, 35, 10751, 14, 16], "id": 228165, "original_language": "en", "original_title": "The SpongeBob Movie: Sponge Out of Water", "overview": "Burger Beard is a pirate who is in search of the final page of a magical book that makes any evil plan he writes in it come true, which happens to be the Krabby Patty secret formula. When the entire city of Bikini Bottom is put in danger, SpongeBob, Patrick, Mr. Krabs, Squidward, Sandy, and Plankton need to go on a quest that takes them to the surface. In order to get back the recipe and save their city, the gang must retrieve the book and transform themselves into superheroes.", "poster_path": "/9wChSuUoQDiBKUnGTcYMkzRha60.jpg", "release_date": "2015-01-28", "title": "The SpongeBob Movie: Sponge Out of Water", "video": false, "vote_average": 5.8, "vote_count": 1273, "popularity": 28.626}, {"id": 11072, "video": false, "vote_count": 1036, "vote_average": 7.3, "title": "Blazing Saddles", "release_date": "1974-02-07", "original_language": "en", "original_title": "Blazing Saddles", "genre_ids": [35, 37], "backdrop_path": "/tCitxLKMzCxexGlSg4g4IDVC3RM.jpg", "adult": false, "overview": "A town\u2014where everyone seems to be named Johnson\u2014stands in the way of the railroad. In order to grab their land, robber baron Hedley Lemar sends his henchmen to make life in the town unbearable. After the sheriff is killed, the town demands a new sheriff from the Governor, so Hedley convinces him to send the town the first black sheriff in the west.", "poster_path": "/yccgwPNVaqtgS1d0U5jjM6Mnza8.jpg", "popularity": 16.616}, {"id": 703, "video": false, "vote_count": 2272, "vote_average": 7.8, "title": "Annie Hall", "release_date": "1977-04-19", "original_language": "en", "original_title": "Annie Hall", "genre_ids": [35, 18, 10749], "backdrop_path": "/8iNt5LGxpX9XeNWJgjx17xfTT7u.jpg", "adult": false, "overview": "New York comedian Alvy Singer falls in love with the ditsy Annie Hall.", "poster_path": "/bK9bLXwxWuXX5mbq75PZqjvAtfG.jpg", "popularity": 14.556}, {"id": 528888, "video": false, "vote_count": 353, "vote_average": 7.1, "title": "Dolemite Is My Name", "release_date": "2019-10-04", "original_language": "en", "original_title": "Dolemite Is My Name", "genre_ids": [35, 18, 36], "backdrop_path": "/8FuiFasbeFQj24Vqx6JqSCqj5lO.jpg", "adult": false, "overview": "The story of Rudy Ray Moore, who created the iconic big screen pimp character Dolemite in the 1970s.", "poster_path": "/uoAqJg7ZSmftnBGOkupU1ySZQU0.jpg", "popularity": 37.46}, {"adult": false, "backdrop_path": "/oKUzgU9BWw218fT8SFGPrhRwcbf.jpg", "genre_ids": [35, 99], "id": 32930, "original_language": "en", "original_title": "Bill Maher... But I'm Not Wrong", "overview": "In front of a live audience at the Raleigh Memorial Auditorium at the Progress Energy Center for the Performing Arts in Raleigh, North Carolina, the Emmy-nominated host of Real Time with Bill Maher performs an all-new hour of stand-up comedy.  Among the topics Bill discusses in his ninth HBO solo special are: Whether the \"Great Recession\" is really over; the fake patriotism of the right wing; what goes on in the mind of a terrorist; why Obama needs a posse instead of the secret service; the drug war; Michael Jackson; getting out of Iraq and Afghanistan; racism; the Teabagger movement; religion; the health-care fight; why Gov. Mark Sanford will come out looking good, and how silly it is to ask \"Why do men cheat?\"; and why comedy most definitely didn't die when George Bush left office.", "poster_path": "/dAPT89WS1Lx81tfqHQMNqxlQKJx.jpg", "release_date": "2010-02-18", "title": "Bill Maher... But I'm Not Wrong", "video": false, "vote_average": 6.7, "vote_count": 17, "popularity": 4.291}, {"id": 394741, "video": false, "vote_count": 498, "vote_average": 7.0, "title": "Stan & Ollie", "release_date": "2018-12-28", "original_language": "en", "original_title": "Stan & Ollie", "genre_ids": [35, 18], "backdrop_path": "/bH7ax3A4Pxlh5ddG4d3HNDMlhK4.jpg", "adult": false, "overview": "With their golden era long behind them, comedy duo Stan Laurel and Oliver Hardy embark on a variety hall tour of Britain and Ireland. Despite the pressures of a hectic schedule, and with the support of their wives Lucille and Ida \u2013 a formidable double act in their own right \u2013 the pair's love of performing, as well as for each other, endures as they secure their place in the hearts of their adoring public", "poster_path": "/8qDBDXA8Od8gc4IQMnoXUKyj8Pf.jpg", "popularity": 14.809}, {"adult": false, "backdrop_path": "/bQW1TnxHlmkWof0vsALj4HBkoxj.jpg", "genre_ids": [18, 10749], "id": 51828, "original_language": "en", "original_title": "One Day", "overview": "A romantic comedy centered on Dexter and Emma, who first meet during their graduation in 1988 and proceed to keep in touch regularly. The film follows what they do on July 15 annually, usually doing something together.", "poster_path": "/xzOz17yC3K6SZWtWylXimcHUqpD.jpg", "release_date": "2011-03-02", "title": "One Day", "video": false, "vote_average": 7.2, "vote_count": 2343, "popularity": 16.744}, {"id": 23483, "video": false, "vote_count": 8165, "vote_average": 7.1, "title": "Kick-Ass", "release_date": "2010-03-22", "original_language": "en", "original_title": "Kick-Ass", "genre_ids": [28, 80], "backdrop_path": "/ngPkB9K8ZpIjv8HpIC8ExqAfG6H.jpg", "adult": false, "overview": "Dave Lizewski is an unnoticed high school student and comic book fan who one day decides to become a super-hero, even though he has no powers, training or meaningful reason to do so.", "poster_path": "/gtfggr5n3ED1neoTqVYmsVCoSS.jpg", "popularity": 24.282}, {"adult": false, "backdrop_path": "/7ApilgVwA0rjhl92GFTzW0FLGBG.jpg", "genre_ids": [10749, 10770], "id": 427045, "original_language": "en", "original_title": "A December Bride", "overview": "Aspiring interior designer Layla is dreading the Christmastime wedding of her cousin who\u2019s marrying Layla\u2019s ex-fianc\u00e9. Although Seth is the one responsible for introducing the bride and groom, she begrudgingly accepts his offer to be her date as she\u2019s out of options. Seth gets carried away at the reception and announces they\u2019re engaged, forcing a mortified Layla to keep up the pretense.", "poster_path": "/o1jAel6EasQkLPUj0TcDOJB2btE.jpg", "release_date": "2016-11-20", "title": "A December Bride", "video": false, "vote_average": 6.5, "vote_count": 66, "popularity": 9.01}, {"id": 67308, "video": false, "vote_count": 44, "vote_average": 4.8, "title": "3-D Sex and Zen: Extreme Ecstasy", "release_date": "2011-04-14", "original_language": "cn", "original_title": "3D\u8089\u84b2\u5718\u4e4b\u6975\u6a02\u5bf6\u9451", "genre_ids": [12, 18, 10749], "backdrop_path": "/xHsqBcDy5VvV4MuI974HuIoRRQc.jpg", "adult": false, "overview": "Loosely based on a 17th century erotic Chinese story named The Carnal Prayer Mat, the story follows a young scholar named Yangsheng who gets married to the beautiful daughter of a local merchant. When their sex life proves unsatisfactory, Yangsheng leaves home and journeys to the Pavilion of Ultimate Bliss.", "poster_path": "/dEb0Kb0xmUuHmO1Dk4WKHuaw5Cw.jpg", "popularity": 27.871}, {"adult": false, "backdrop_path": "/5OeY4U2rzePxWq2rkqMajUx2gz7.jpg", "genre_ids": [16, 10751, 12, 14, 10749], "id": 812, "original_language": "en", "original_title": "Aladdin", "overview": "Princess Jasmine grows tired of being forced to remain in the palace, so she sneaks out into the marketplace, in disguise, where she meets street-urchin Aladdin.  The couple falls in love, although Jasmine may only marry a prince.  After being thrown in jail, Aladdin becomes embroiled in a plot to find a mysterious lamp, with which the evil Jafar hopes to rule the land.", "poster_path": "/mjKozYRuHc9j7SmiXmbVmCiAM0A.jpg", "release_date": "1992-11-25", "title": "Aladdin", "video": false, "vote_average": 7.6, "vote_count": 7289, "popularity": 35.494}, {"id": 475557, "video": false, "vote_count": 8109, "vote_average": 8.3, "title": "Joker", "release_date": "2019-10-02", "original_language": "en", "original_title": "Joker", "genre_ids": [80, 18, 53], "backdrop_path": "/n6bUvigpRFqSwmPp1m2YADdbRBc.jpg", "adult": false, "overview": "During the 1980s, a failed stand-up comedian is driven insane and turns to a life of crime and chaos in Gotham City while becoming an infamous psychopathic crime figure.", "poster_path": "/udDclJoHjfjb8Ekgsd4FDteOkCU.jpg", "popularity": 231.13}, {"id": 16290, "video": false, "vote_count": 736, "vote_average": 6.3, "title": "Jackass 3D", "release_date": "2010-10-15", "original_language": "en", "original_title": "Jackass 3D", "genre_ids": [28, 35, 99], "backdrop_path": "/9g907Zc9ezEF28TGyDcnMEpyzxz.jpg", "adult": false, "overview": "Jackass 3D is a 3-D film and the third movie of the Jackass series. It follows the same premise as the first two movies, as well as the TV series. It is a compilation of various pranks, stunts and skits. Before the movie begins, a brief introduction is made by Beavis and Butt-head explaining the 3D technology behind the movie. The intro features the cast lining up and then being attacked by various objects in slow-motion. The movie marks the 10th anniversary of the franchise, started in 2000.", "poster_path": "/5j9VFEVjYn0FtqZGqDcmMPYSVoY.jpg", "popularity": 18.349}], "total_pages": 137, "total_results": 2736}, "recommendations": {"page": 1, "results": [{"adult": false, "backdrop_path": "/cra16c3bn0joSluAwScH5qPwoxY.jpg", "genre_ids": [35], "id": 26250, "original_language": "en", "original_title": "Wanda Sykes: I'ma Be Me", "overview": "Smart. Outspoken. Opinionated. Three-time Emmy Award winner Wanda Sykes is back! Reigning over everything from television sitcoms to feature films, this comedienne extraordinaire has returned in her second solo HBO comedy special, I\u2019MA BE ME. Live from Washington, D.C. and edgier than ever, Wanda holds nothing back as she riffs on the perks of having a Black president, coming out, getting married, motherhood, aging, and twenty-first century pirates. With her trademark wit, Wanda shocks and astonishes at every turn in this feature-length special.", "poster_path": "/hAiesqFKmDoAz1EEx3D5fknF7Pt.jpg", "release_date": "2009-10-10", "title": "Wanda Sykes: I'ma Be Me", "video": false, "vote_average": 7.6, "vote_count": 8, "popularity": 3.164}, {"adult": false, "backdrop_path": "/8TWbQw4U4eKfdxM8FXvJznD9d0a.jpg", "genre_ids": [35], "id": 26251, "original_language": "en", "original_title": "Wanda Sykes: Sick and Tired", "overview": "Wanda Sykes has been called \"one of the funniest stand up comics\" by her peers and ranks among Entertainment Weekly's 25 Funniest People in America. She won an Emmy in 2003 for her work on Inside the NFL and was showcased for 5 years on HBO's The Chis Rock Show and Curb Your Enthusiasm. Now catch her hilarious stand up skills in this side-splitting program where she serves up comic truth and turns common sense into thought-provoking humor.", "poster_path": "/pfhq1mYPvMFQj8JJQMLZHv7b5KJ.jpg", "release_date": "2006-10-14", "title": "Wanda Sykes: Sick and Tired", "video": false, "vote_average": 8.5, "vote_count": 6, "popularity": 2.541}, {"adult": false, "backdrop_path": "/pZ85606c5RFw0S5n1VFgD4H6Lkq.jpg", "genre_ids": [35], "id": 355177, "original_language": "en", "original_title": "Tig Notaro: Boyish Girl Interrupted", "overview": "Known for her distinctive storytelling and offbeat sense of humor, Tig Notaro often draws on her highly personal experiences with no-holds-barred honesty. Over the course of her one-hour show, Notaro tells stories about a number of subjects, including: the search for the perfect Santa Claus; her favorite laugh noises; bringing her fianc\u00e9e to meet her Mississippi family; TSA screening; flying in small planes; unusual public signs; and more.", "poster_path": "/7e25eDcBOflEBaa6eUooJsNbDMD.jpg", "release_date": "2015-08-22", "title": "Tig Notaro: Boyish Girl Interrupted", "video": false, "vote_average": 6.3, "vote_count": 11, "popularity": 3.524}, {"adult": false, "backdrop_path": "/v9MDLsU0KhEXWJNJoUXklgYsZV0.jpg", "genre_ids": [35], "id": 544295, "original_language": "en", "original_title": "D.L. Hughley: Contrarian", "overview": "Comedian D.L. Hughley riffs on politics, \"Black Panther,\" his upbringing and more in a rapid-fire stand-up show at Philadelphia's Merriam Theater.", "poster_path": "/kpDddo9DobOHp0VkHEsEkkbF6vw.jpg", "release_date": "2018-09-18", "title": "D.L. Hughley: Contrarian", "video": false, "vote_average": 5.8, "vote_count": 6, "popularity": 2.328}, {"adult": false, "backdrop_path": "/bGaSAIVSodMrb8yGomt9jyUKVSp.jpg", "genre_ids": [35], "id": 610619, "original_language": "en", "original_title": "Mike Epps: Only One Mike", "overview": "In a raw stand-up comedy special, Mike Epps mixes it up as he tackles sexual misconduct, special ed, aging body parts and much more.", "poster_path": "/QxQmeKnyzo0X4vBAMCjS7Mgm1N.jpg", "release_date": "2019-06-25", "title": "Mike Epps: Only One Mike", "video": false, "vote_average": 6.5, "vote_count": 6, "popularity": 4.54}, {"adult": false, "backdrop_path": "/zTHX4laTT7w0l9SKV4M9b4dSv8s.jpg", "genre_ids": [35], "id": 369820, "original_language": "en", "original_title": "Brent Morin: I'm Brent Morin", "overview": "In a witty solo show, Brent Morin serves up infectious laughs on the agony of puberty, hot guy problems and the time a girl dumped him for a magician.", "poster_path": "/qf4CZxscC5yBbOWoCl5Ilf9LtWu.jpg", "release_date": "2015-12-01", "title": "Brent Morin: I'm Brent Morin", "video": false, "vote_average": 7.2, "vote_count": 19, "popularity": 4.994}, {"adult": false, "backdrop_path": "/6Hg6TOdCjkHCLJxwCNhgdsmhgar.jpg", "genre_ids": [35], "id": 418992, "original_language": "en", "original_title": "Lewis Black: Black to the Future", "overview": "Lewis Black taps into his signature outrage and frustration as he tackles the economy, local government, and the 2016 Presidential election.", "poster_path": "/esDWE22EdTq6fOiS0y9ZSDewjGM.jpg", "release_date": "2016-10-07", "title": "Lewis Black: Black to the Future", "video": false, "vote_average": 6.4, "vote_count": 9, "popularity": 2.688}, {"adult": false, "backdrop_path": "/d1gcjABhGcShmb5GXC9AkZv14H3.jpg", "genre_ids": [35, 99], "id": 637627, "original_language": "en", "original_title": "Jenny Slate: Stage Fright", "overview": "Jenny Slate's first stand-up special is a mix of stage time, funny stories about adulthood and conversations with family in her childhood home.", "poster_path": "/4Kj45z9IbjP7YmokbEogHQX19Ky.jpg", "release_date": "2019-10-22", "title": "Jenny Slate: Stage Fright", "video": false, "vote_average": 6.0, "vote_count": 13, "popularity": 6.444}, {"adult": false, "backdrop_path": "/lsEXac8RiysoIIRFYUX8980wTbA.jpg", "genre_ids": [35, 10770], "id": 573910, "original_language": "en", "original_title": "Ray Romano: Right Here, Around the Corner", "overview": "Ray Romano cut his stand-up teeth at the Comedy Cellar in New York. Now, in his first comedy special in 23 years, he returns to where it all began.", "poster_path": "/lqQjWdZeh3lpCn5KgmiNZFU1ViX.jpg", "release_date": "2019-02-05", "title": "Ray Romano: Right Here, Around the Corner", "video": false, "vote_average": 6.5, "vote_count": 17, "popularity": 4.265}, {"adult": false, "backdrop_path": "/pISqDL70KzEiutMzWGruVN6DkjL.jpg", "genre_ids": [35, 10770], "id": 609660, "original_language": "en", "original_title": "Adam Devine: Best Time of Our Lives", "overview": "Critically acclaimed comedian, Adam Devine, knows that growing up sucks and is here to tell you why. Filmed in front of a packed house at The Orpheum Theater in his hometown of Omaha, Nebraska, Devine's new Netflix comedy special will give a comedic take on the worst parts of growing up including puberty, parental judgment, and almost dying on your 21st birthday.", "poster_path": "/pRAO7s2Kv4Qs75VUI7Ffx94GTTC.jpg", "release_date": "2019-06-17", "title": "Adam Devine: Best Time of Our Lives", "video": false, "vote_average": 6.3, "vote_count": 14, "popularity": 4.028}, {"id": 604130, "video": false, "vote_count": 7, "vote_average": 6.9, "title": "Jo Koy: Comin\u2019 In Hot", "release_date": "2019-06-12", "original_language": "en", "original_title": "Jo Koy: Comin\u2019 In Hot", "genre_ids": [35], "backdrop_path": "/9LgFODicoHRBWBStsw53A4nLFXt.jpg", "adult": false, "overview": "Comedian Jo Koy takes center stage in Hawaii and shares his honest take on island life, ethnicity, fatherhood and more.", "poster_path": "/qIrKVEwcw47IKVlyoMeDwiHBNI2.jpg", "popularity": 3.245}, {"id": 642203, "video": false, "vote_count": 26, "vote_average": 7.3, "title": "Seth Meyers: Lobby Baby", "release_date": "2019-11-05", "original_language": "en", "original_title": "Seth Meyers: Lobby Baby", "genre_ids": [35], "backdrop_path": "/5NTE4ZyckTSKLjEMxRClKcqe2yK.jpg", "adult": false, "overview": "SNL alumnus and subversive master of late-night Seth Meyers comes out from behind the desk to share some lighthearted stories from his own life.", "poster_path": "/i8g5RDvLwIjU3ui1r3CSoIJlqza.jpg", "popularity": 3.844}, {"id": 580846, "video": false, "vote_count": 14, "vote_average": 6.8, "title": "Katherine Ryan: Glitter Room", "release_date": "2019-07-01", "original_language": "en", "original_title": "Katherine Ryan: Glitter Room", "genre_ids": [35], "backdrop_path": "/d1VUAW26Xkka5RQpWmsOe5ZEGWt.jpg", "adult": false, "overview": "Fresh from a tour, comedian Katherine Ryan shares shrewd observations about school bullies, revenge bodies and raising a very fancy child.", "poster_path": "/sbjPjknkrpxAQb4aFJJqRVG6yA7.jpg", "popularity": 4.333}, {"id": 573917, "video": false, "vote_count": 32, "vote_average": 6.2, "title": "Ken Jeong: You Complete Me, Ho", "release_date": "2019-02-14", "original_language": "en", "original_title": "Ken Jeong: You Complete Me, Ho", "genre_ids": [35, 10770], "backdrop_path": "/unqSQccsMQnnO2lVnxSAhYVnQVb.jpg", "adult": false, "overview": "In his first-ever stand-up special, Ken Jeong shares hilarious stories from his Hollywood career -- and reveals how \"The Hangover\" saved his life.", "poster_path": "/hAJJwaHuEj8dF82Bb0VSwigvCw1.jpg", "popularity": 3.881}, {"id": 625128, "video": false, "vote_count": 36, "vote_average": 7.3, "title": "Bill Burr: Paper Tiger", "release_date": "2019-09-10", "original_language": "en", "original_title": "Bill Burr: Paper Tiger", "genre_ids": [35], "backdrop_path": "/duaRjNWKR3QjZOaWhHKxk9ZDIz3.jpg", "adult": false, "overview": "Comedian Bill Burr talks male feminists, outrage culture, robot sex, and cultural appropriation in this standup comedy special shot in London.", "poster_path": "/lgMykFh36wwlxkAvoIbB0utdvf5.jpg", "popularity": 5.193}, {"adult": false, "backdrop_path": "/hDd2RWYR0mwGeF5oms5Ulr9zrhh.jpg", "genre_ids": [35, 10770], "id": 558341, "original_language": "en", "original_title": "Trevor Noah: Son of Patricia", "overview": "Trevor Noah gets out from behind the \"Daily Show\" desk and takes the stage for a stand-up special that touches on racism, immigration, camping and more.", "poster_path": "/dmhDeV3RYq4jMwgIMmo0W05uH8L.jpg", "release_date": "2018-11-20", "title": "Trevor Noah: Son of Patricia", "video": false, "vote_average": 7.2, "vote_count": 50, "popularity": 6.0}, {"adult": false, "backdrop_path": "/LamhR4nZMWsgopji5UAURDTuO9.jpg", "genre_ids": [35, 10770, 35, 99], "id": 613999, "original_language": "en", "original_title": "Aziz Ansari: Right Now", "overview": "In a comedy special directed by Spike Jonze, Aziz Ansari shares deep personal insights and hilarious takes on wokeness, family and the social climate.", "poster_path": "/d0h2VVqn9UFnlAFWgbydM4646Qb.jpg", "release_date": "2019-07-09", "title": "Aziz Ansari: Right Now", "video": false, "vote_average": 7.7, "vote_count": 49, "popularity": 4.814}, {"adult": false, "backdrop_path": "/n8ODmEUzv6iO0dBuVbKsat16DPj.jpg", "genre_ids": [35], "id": 456210, "original_language": "en", "original_title": "Tracy Morgan: Staying Alive", "overview": "In his first special since his serious car accident, Tracy Morgan cracks jokes about life in a coma, his second marriage and his family's dark side.", "poster_path": "/khMAxp24RhZeZYgLup0uSgRlU58.jpg", "release_date": "2017-05-16", "title": "Tracy Morgan: Staying Alive", "video": false, "vote_average": 6.5, "vote_count": 24, "popularity": 4.915}, {"id": 497522, "video": false, "vote_count": 23, "vote_average": 5.3, "title": "Katt Williams: Great America", "release_date": "2018-01-16", "original_language": "en", "original_title": "Katt Williams: Great America", "genre_ids": [35], "backdrop_path": "/hXQGpo7TKpOy8aA7toYc5SRag3j.jpg", "adult": false, "overview": "The king of underground comedy takes the stage in Jacksonville with unflinching riffs on American politics and the raunchy perils of getting old.", "poster_path": "/6p9W1Ppd8YEVcNHrSWnGcQoqXil.jpg", "popularity": 3.403}, {"adult": false, "backdrop_path": "/4xzHg1P7HYiubFmN9F3zkGq8TRR.jpg", "genre_ids": [35], "id": 535358, "original_language": "en", "original_title": "Ellen DeGeneres: Relatable", "overview": "In her first special since 2003, Ellen revisits her road to stardom and details the heartfelt -- and hilarious -- lessons she's learned along the way.", "poster_path": "/2mWdVy4X113rcs5SHu1373YSO22.jpg", "release_date": "2018-12-18", "title": "Ellen DeGeneres: Relatable", "video": false, "vote_average": 6.7, "vote_count": 110, "popularity": 5.902}], "total_pages": 1, "total_results": 20}, "credits": {"cast": [{"cast_id": 1, "character": "Herself", "credit_id": "5c3639f60e0a265a807c9e8d", "gender": 1, "id": 27102, "name": "Wanda Sykes", "order": 1, "profile_path": "/pQ2Dw07FNLCurDxkkMrelqQhm0B.jpg"}], "crew": [{"credit_id": "5c3639fe92514122eaeac5ce", "department": "Writing", "gender": 1, "id": 27102, "job": "Writer", "name": "Wanda Sykes", "profile_path": "/pQ2Dw07FNLCurDxkkMrelqQhm0B.jpg"}, {"credit_id": "5ce3f3839251412cecbf2929", "department": "Directing", "gender": 1, "id": 1214860, "job": "Director", "name": "Linda Mendoza", "profile_path": "/ejestneSkx1ayJI1P44OihTEjWV.jpg"}, {"credit_id": "5ce3f3a40e0a265ac0caa7bc", "department": "Production", "gender": 0, "id": 1242843, "job": "Executive Producer", "name": "Page Hurwitz", "profile_path": null}, {"credit_id": "5ce3f3b00e0a262573ca99ea", "department": "Art", "gender": 0, "id": 555660, "job": "Production Design", "name": "Tom Lenz", "profile_path": null}, {"credit_id": "5ce3f3bcc3a3686a1c1ec5b6", "department": "Art", "gender": 0, "id": 1838921, "job": "Art Direction", "name": "Mel Lovric", "profile_path": null}, {"credit_id": "5ce3f3cbc3a368652b1ede9d", "department": "Lighting", "gender": 0, "id": 552430, "job": "Lighting Design", "name": "Alan Adelman", "profile_path": null}, {"credit_id": "5ce406e70e0a265ac0cace1c", "department": "Production", "gender": 1, "id": 27102, "job": "Executive Producer", "name": "Wanda Sykes", "profile_path": "/pQ2Dw07FNLCurDxkkMrelqQhm0B.jpg"}, {"credit_id": "5ce4078a0e0a266f81d1a225", "department": "Camera", "gender": 0, "id": 1417964, "job": "Director of Photography", "name": "Jay Lafayette", "profile_path": null}, {"credit_id": "5ce407ce9251414923b9347e", "department": "Editing", "gender": 0, "id": 1847744, "job": "Editor", "name": "Angel Gamboa", "profile_path": null}, {"credit_id": "5ce4080dc3a3683fd51e3ae0", "department": "Costume & Make-Up", "gender": 0, "id": 2318006, "job": "Makeup Artist", "name": "Jane Dispersio-Murphy", "profile_path": null}, {"credit_id": "5ce40845c3a3683fd51e3b8f", "department": "Costume & Make-Up", "gender": 1, "id": 65917, "job": "Wardrobe Designer", "name": "Amanda Sanders", "profile_path": null}, {"credit_id": "5ce408639251414bbab93201", "department": "Costume & Make-Up", "gender": 0, "id": 1781549, "job": "Hairstylist", "name": "Lisa Deveux", "profile_path": null}]}}