{"adult": false, "backdrop_path": "/lsEXac8RiysoIIRFYUX8980wTbA.jpg", "belongs_to_collection": null, "budget": 0, "genres": [{"id": 35, "name": "Comedy"}, {"id": 10770, "name": "TV Movie"}], "homepage": "https://www.netflix.com/title/80216779", "id": 573910, "imdb_id": "tt8101766", "original_language": "en", "original_title": "Ray Romano: Right Here, Around the Corner", "overview": "Ray Romano cut his stand-up teeth at the Comedy Cellar in New York. Now, in his first comedy special in 23 years, he returns to where it all began.", "popularity": 4.265, "poster_path": "/lqQjWdZeh3lpCn5KgmiNZFU1ViX.jpg", "production_companies": [], "production_countries": [{"iso_3166_1": "US", "name": "United States of America"}], "release_date": "2019-02-05", "revenue": 0, "runtime": 58, "spoken_languages": [{"iso_639_1": "en", "name": "English"}], "status": "Released", "tagline": "", "title": "Ray Romano: Right Here, Around the Corner", "video": false, "vote_average": 6.5, "vote_count": 17, "keywords": {"keywords": [{"id": 9716, "name": "stand-up comedy"}, {"id": 33731, "name": "stand-up comedian"}]}, "similar": {"page": 1, "results": [{"id": 444705, "video": false, "vote_count": 131, "vote_average": 7.9, "title": "Dave Chappelle: The Age of Spin", "release_date": "2017-03-21", "original_language": "en", "original_title": "Dave Chappelle: The Age of Spin", "genre_ids": [35], "backdrop_path": "/xlwFzTxkqoBm3dLkfPSZU0rWS9L.jpg", "adult": false, "overview": "Comedy icon Dave Chappelle makes his triumphant return to the screen with a pair of blistering, fresh stand-up specials. Filmed at The Palladium in Los Angeles, California, in March 2016.", "poster_path": "/lFGP9COk4X3sBqrkUpbQ78GdnZm.jpg", "popularity": 10.751}, {"adult": false, "backdrop_path": "/wggEfOyXd356KAKyYeiWXGr7mYs.jpg", "genre_ids": [35], "id": 35595, "original_language": "en", "original_title": "Dave Chappelle: HBO Comedy Half-Hour", "overview": "Dave gets his own HBO special, filmed in San Francisco", "poster_path": "/AuQLSJRADu0ZnftllkSYpjRwn4U.jpg", "release_date": "1998-01-09", "title": "Dave Chappelle: HBO Comedy Half-Hour", "video": false, "vote_average": 6.8, "vote_count": 21, "popularity": 2.876}, {"id": 52345, "video": false, "vote_count": 221, "vote_average": 7.8, "title": "Lisbela and the Prisoner", "release_date": "2003-08-22", "original_language": "pt", "original_title": "Lisbela e o Prisioneiro", "genre_ids": [35, 10749], "backdrop_path": "/4KDlC0cZvR5LtszqjFhZcMzdiUD.jpg", "adult": false, "overview": "Lisbela is a young woman who loves going to the movies. Lel\u00e9u is a con man, going from town to town selling all sort of things and performing as master of ceremonies for some cheesy numbers, such as the woman who gets transformed into a gorilla. He gets involved with Linaura, a sexy and beautiful woman who happens to be the wife of the most frightening hitman of the place. The hitman finds out his wife's affair and goes after Lel\u00e9u, who has to leave in a hurry. In another town, he meets and falls instantly in love with Lisbela, who is engaged to Douglas, a hillbilly who tries hard to pass for a cosmopolitan Rio de Janeiro dweller.", "poster_path": "/9nlaRxQeYaMrVVANMppagFohCRP.jpg", "popularity": 1.042}, {"adult": false, "backdrop_path": null, "genre_ids": [35], "id": 637573, "original_language": "en", "original_title": "Daniel Sloss: X", "overview": "A new comedy special performed by Daniel Sloss.", "poster_path": "/b3DxLUvcp5hRXtTa4pv2wRAuY4P.jpg", "release_date": "2019-11-02", "title": "Daniel Sloss: X", "video": false, "vote_average": 10.0, "vote_count": 1, "popularity": 2.906}, {"id": 49013, "video": false, "vote_count": 4530, "vote_average": 5.9, "title": "Cars 2", "release_date": "2011-06-11", "original_language": "en", "original_title": "Cars 2", "genre_ids": [12, 16, 35, 10751], "backdrop_path": "/jEcmZhtJkZQc6ta2vzBd9CU7GIx.jpg", "adult": false, "overview": "Star race car Lightning McQueen and his pal Mater head overseas to compete in the World Grand Prix race. But the road to the championship becomes rocky as Mater gets caught up in an intriguing adventure of his own: international espionage.", "poster_path": "/AblhtULOVtrkSnFxRPQ8gBemxw9.jpg", "popularity": 25.278}, {"id": 703, "video": false, "vote_count": 2272, "vote_average": 7.8, "title": "Annie Hall", "release_date": "1977-04-19", "original_language": "en", "original_title": "Annie Hall", "genre_ids": [35, 18, 10749], "backdrop_path": "/8iNt5LGxpX9XeNWJgjx17xfTT7u.jpg", "adult": false, "overview": "New York comedian Alvy Singer falls in love with the ditsy Annie Hall.", "poster_path": "/bK9bLXwxWuXX5mbq75PZqjvAtfG.jpg", "popularity": 14.556}, {"id": 11072, "video": false, "vote_count": 1036, "vote_average": 7.3, "title": "Blazing Saddles", "release_date": "1974-02-07", "original_language": "en", "original_title": "Blazing Saddles", "genre_ids": [35, 37], "backdrop_path": "/tCitxLKMzCxexGlSg4g4IDVC3RM.jpg", "adult": false, "overview": "A town\u2014where everyone seems to be named Johnson\u2014stands in the way of the railroad. In order to grab their land, robber baron Hedley Lemar sends his henchmen to make life in the town unbearable. After the sheriff is killed, the town demands a new sheriff from the Governor, so Hedley convinces him to send the town the first black sheriff in the west.", "poster_path": "/yccgwPNVaqtgS1d0U5jjM6Mnza8.jpg", "popularity": 16.616}, {"adult": false, "backdrop_path": "/7ApilgVwA0rjhl92GFTzW0FLGBG.jpg", "genre_ids": [10749, 10770], "id": 427045, "original_language": "en", "original_title": "A December Bride", "overview": "Aspiring interior designer Layla is dreading the Christmastime wedding of her cousin who\u2019s marrying Layla\u2019s ex-fianc\u00e9. Although Seth is the one responsible for introducing the bride and groom, she begrudgingly accepts his offer to be her date as she\u2019s out of options. Seth gets carried away at the reception and announces they\u2019re engaged, forcing a mortified Layla to keep up the pretense.", "poster_path": "/o1jAel6EasQkLPUj0TcDOJB2btE.jpg", "release_date": "2016-11-20", "title": "A December Bride", "video": false, "vote_average": 6.5, "vote_count": 66, "popularity": 9.01}, {"id": 9647, "video": false, "vote_count": 786, "vote_average": 6.9, "title": "Scrooged", "release_date": "1988-11-22", "original_language": "en", "original_title": "Scrooged", "genre_ids": [35, 18, 14], "backdrop_path": "/6xezVJoUp0cZUBQeIDpW6lFuhcd.jpg", "adult": false, "overview": "In this modern take on Charles Dickens' \"A Christmas Carol,\" Frank Cross (Bill Murray) is a wildly successful television executive whose cold ambition and curmudgeonly nature has driven away the love of his life, Claire Phillips (Karen Allen). But after firing a staff member, Eliot Loudermilk (Bobcat Goldthwait), on Christmas Eve, Frank is visited by a series of ghosts who give him a chance to re-evaluate his actions and right the wrongs of his past.", "poster_path": "/uO0znfB2ZzTXA1IS7jkrjNbpkYK.jpg", "popularity": 17.767}, {"adult": false, "backdrop_path": "/c42tFwWNHc8jJ49Zb0yqSAqr5TM.jpg", "genre_ids": [12, 35, 10751, 14, 16], "id": 228165, "original_language": "en", "original_title": "The SpongeBob Movie: Sponge Out of Water", "overview": "Burger Beard is a pirate who is in search of the final page of a magical book that makes any evil plan he writes in it come true, which happens to be the Krabby Patty secret formula. When the entire city of Bikini Bottom is put in danger, SpongeBob, Patrick, Mr. Krabs, Squidward, Sandy, and Plankton need to go on a quest that takes them to the surface. In order to get back the recipe and save their city, the gang must retrieve the book and transform themselves into superheroes.", "poster_path": "/9wChSuUoQDiBKUnGTcYMkzRha60.jpg", "release_date": "2015-01-28", "title": "The SpongeBob Movie: Sponge Out of Water", "video": false, "vote_average": 5.8, "vote_count": 1273, "popularity": 28.626}, {"adult": false, "backdrop_path": "/fBYnaVOcc2Ghfkv473z0xdBRQ0m.jpg", "genre_ids": [10751, 16, 12, 35], "id": 270946, "original_language": "en", "original_title": "Penguins of Madagascar", "overview": "Skipper, Kowalski, Rico and Private join forces with undercover organization The North Wind to stop the villainous Dr. Octavius Brine from destroying the world as we know it.", "poster_path": "/pRer59eyY4rjkLPeKXKo7fPxCHH.jpg", "release_date": "2014-11-22", "title": "Penguins of Madagascar", "video": false, "vote_average": 6.4, "vote_count": 2485, "popularity": 27.36}, {"id": 528888, "video": false, "vote_count": 353, "vote_average": 7.1, "title": "Dolemite Is My Name", "release_date": "2019-10-04", "original_language": "en", "original_title": "Dolemite Is My Name", "genre_ids": [35, 18, 36], "backdrop_path": "/8FuiFasbeFQj24Vqx6JqSCqj5lO.jpg", "adult": false, "overview": "The story of Rudy Ray Moore, who created the iconic big screen pimp character Dolemite in the 1970s.", "poster_path": "/uoAqJg7ZSmftnBGOkupU1ySZQU0.jpg", "popularity": 37.46}, {"adult": false, "backdrop_path": "/oKUzgU9BWw218fT8SFGPrhRwcbf.jpg", "genre_ids": [35, 99], "id": 32930, "original_language": "en", "original_title": "Bill Maher... But I'm Not Wrong", "overview": "In front of a live audience at the Raleigh Memorial Auditorium at the Progress Energy Center for the Performing Arts in Raleigh, North Carolina, the Emmy-nominated host of Real Time with Bill Maher performs an all-new hour of stand-up comedy.  Among the topics Bill discusses in his ninth HBO solo special are: Whether the \"Great Recession\" is really over; the fake patriotism of the right wing; what goes on in the mind of a terrorist; why Obama needs a posse instead of the secret service; the drug war; Michael Jackson; getting out of Iraq and Afghanistan; racism; the Teabagger movement; religion; the health-care fight; why Gov. Mark Sanford will come out looking good, and how silly it is to ask \"Why do men cheat?\"; and why comedy most definitely didn't die when George Bush left office.", "poster_path": "/dAPT89WS1Lx81tfqHQMNqxlQKJx.jpg", "release_date": "2010-02-18", "title": "Bill Maher... But I'm Not Wrong", "video": false, "vote_average": 6.7, "vote_count": 17, "popularity": 4.291}, {"id": 394741, "video": false, "vote_count": 498, "vote_average": 7.0, "title": "Stan & Ollie", "release_date": "2018-12-28", "original_language": "en", "original_title": "Stan & Ollie", "genre_ids": [35, 18], "backdrop_path": "/bH7ax3A4Pxlh5ddG4d3HNDMlhK4.jpg", "adult": false, "overview": "With their golden era long behind them, comedy duo Stan Laurel and Oliver Hardy embark on a variety hall tour of Britain and Ireland. Despite the pressures of a hectic schedule, and with the support of their wives Lucille and Ida \u2013 a formidable double act in their own right \u2013 the pair's love of performing, as well as for each other, endures as they secure their place in the hearts of their adoring public", "poster_path": "/8qDBDXA8Od8gc4IQMnoXUKyj8Pf.jpg", "popularity": 14.809}, {"adult": false, "backdrop_path": "/bQW1TnxHlmkWof0vsALj4HBkoxj.jpg", "genre_ids": [18, 10749], "id": 51828, "original_language": "en", "original_title": "One Day", "overview": "A romantic comedy centered on Dexter and Emma, who first meet during their graduation in 1988 and proceed to keep in touch regularly. The film follows what they do on July 15 annually, usually doing something together.", "poster_path": "/xzOz17yC3K6SZWtWylXimcHUqpD.jpg", "release_date": "2011-03-02", "title": "One Day", "video": false, "vote_average": 7.2, "vote_count": 2343, "popularity": 16.744}, {"adult": false, "backdrop_path": "/5OeY4U2rzePxWq2rkqMajUx2gz7.jpg", "genre_ids": [16, 10751, 12, 14, 10749], "id": 812, "original_language": "en", "original_title": "Aladdin", "overview": "Princess Jasmine grows tired of being forced to remain in the palace, so she sneaks out into the marketplace, in disguise, where she meets street-urchin Aladdin.  The couple falls in love, although Jasmine may only marry a prince.  After being thrown in jail, Aladdin becomes embroiled in a plot to find a mysterious lamp, with which the evil Jafar hopes to rule the land.", "poster_path": "/mjKozYRuHc9j7SmiXmbVmCiAM0A.jpg", "release_date": "1992-11-25", "title": "Aladdin", "video": false, "vote_average": 7.6, "vote_count": 7289, "popularity": 35.494}, {"id": 67308, "video": false, "vote_count": 44, "vote_average": 4.8, "title": "3-D Sex and Zen: Extreme Ecstasy", "release_date": "2011-04-14", "original_language": "cn", "original_title": "3D\u8089\u84b2\u5718\u4e4b\u6975\u6a02\u5bf6\u9451", "genre_ids": [12, 18, 10749], "backdrop_path": "/xHsqBcDy5VvV4MuI974HuIoRRQc.jpg", "adult": false, "overview": "Loosely based on a 17th century erotic Chinese story named The Carnal Prayer Mat, the story follows a young scholar named Yangsheng who gets married to the beautiful daughter of a local merchant. When their sex life proves unsatisfactory, Yangsheng leaves home and journeys to the Pavilion of Ultimate Bliss.", "poster_path": "/dEb0Kb0xmUuHmO1Dk4WKHuaw5Cw.jpg", "popularity": 27.871}, {"id": 23483, "video": false, "vote_count": 8165, "vote_average": 7.1, "title": "Kick-Ass", "release_date": "2010-03-22", "original_language": "en", "original_title": "Kick-Ass", "genre_ids": [28, 80], "backdrop_path": "/ngPkB9K8ZpIjv8HpIC8ExqAfG6H.jpg", "adult": false, "overview": "Dave Lizewski is an unnoticed high school student and comic book fan who one day decides to become a super-hero, even though he has no powers, training or meaningful reason to do so.", "poster_path": "/gtfggr5n3ED1neoTqVYmsVCoSS.jpg", "popularity": 24.282}, {"id": 475557, "video": false, "vote_count": 8109, "vote_average": 8.3, "title": "Joker", "release_date": "2019-10-02", "original_language": "en", "original_title": "Joker", "genre_ids": [80, 18, 53], "backdrop_path": "/n6bUvigpRFqSwmPp1m2YADdbRBc.jpg", "adult": false, "overview": "During the 1980s, a failed stand-up comedian is driven insane and turns to a life of crime and chaos in Gotham City while becoming an infamous psychopathic crime figure.", "poster_path": "/udDclJoHjfjb8Ekgsd4FDteOkCU.jpg", "popularity": 231.13}, {"id": 16290, "video": false, "vote_count": 736, "vote_average": 6.3, "title": "Jackass 3D", "release_date": "2010-10-15", "original_language": "en", "original_title": "Jackass 3D", "genre_ids": [28, 35, 99], "backdrop_path": "/9g907Zc9ezEF28TGyDcnMEpyzxz.jpg", "adult": false, "overview": "Jackass 3D is a 3-D film and the third movie of the Jackass series. It follows the same premise as the first two movies, as well as the TV series. It is a compilation of various pranks, stunts and skits. Before the movie begins, a brief introduction is made by Beavis and Butt-head explaining the 3D technology behind the movie. The intro features the cast lining up and then being attacked by various objects in slow-motion. The movie marks the 10th anniversary of the franchise, started in 2000.", "poster_path": "/5j9VFEVjYn0FtqZGqDcmMPYSVoY.jpg", "popularity": 18.349}], "total_pages": 137, "total_results": 2736}, "recommendations": {"page": 1, "results": [{"id": 567525, "video": false, "vote_count": 11, "vote_average": 7.1, "title": "Sebastian Maniscalco: Stay Hungry", "release_date": "2019-01-15", "original_language": "en", "original_title": "Sebastian Maniscalco: Stay Hungry", "genre_ids": [35, 10770], "backdrop_path": "/gTD7f44rpn42qRSAoGcm8JlUATn.jpg", "adult": false, "overview": "Sebastian Maniscalco brings an acerbically unique approach to peacocks on planes, life hacks, rich in-laws and life's annoyances in this comedy special.", "poster_path": "/ewzJ918NPApQI9gUMacNhJFDInB.jpg", "popularity": 3.419}, {"adult": false, "backdrop_path": "/j6GGIi072fSNPoqX5N1o1ROoxtz.jpg", "genre_ids": [35], "id": 519804, "original_language": "en", "original_title": "Kevin James: Never Don't Give Up", "overview": "Kevin James makes his long-awaited return to stand-up in this family-friendly special, dishing on fatherhood, fans, his disdain for allergies and more.", "poster_path": "/yqZ7QkRBFiURtVWuGNhGagjRRDe.jpg", "release_date": "2018-04-24", "title": "Kevin James: Never Don't Give Up", "video": false, "vote_average": 6.4, "vote_count": 21, "popularity": 3.527}, {"id": 550248, "video": false, "vote_count": 27, "vote_average": 7.5, "title": "Joe Rogan: Strange Times", "release_date": "2018-10-02", "original_language": "en", "original_title": "Joe Rogan: Strange Times", "genre_ids": [35], "backdrop_path": "/sgiL650geWsP90TIamFK25jTGOH.jpg", "adult": false, "overview": "Outspoken as ever, comedian Joe Rogan takes on politics, pro wrestling, pot laws, cats, vegans and much more in a stand-up special shot in Boston.", "poster_path": "/9RyH7RTd3EV3biEfitrVdtvLa9D.jpg", "popularity": 4.971}, {"adult": false, "backdrop_path": "/eUe7rQA0QicOiGHCEOvdeq6MjG3.jpg", "genre_ids": [99], "id": 509361, "original_language": "en", "original_title": "Billy Graham: An Extraordinary Journey", "overview": "An inside look at the life of Billy Graham, whose message of the Gospel of Christ helped change millions of lives over his nearly seven decades of evangelism.", "poster_path": "/tNNCikrb4qObkzfMHQ9OQ2t6YW7.jpg", "release_date": "2018-03-04", "title": "Billy Graham: An Extraordinary Journey", "video": false, "vote_average": 7.2, "vote_count": 5, "popularity": 2.791}, {"id": 587682, "video": false, "vote_count": 21, "vote_average": 7.0, "title": "Jimmy Carr: The Best of Ultimate Gold Greatest Hits", "release_date": "2019-03-12", "original_language": "en", "original_title": "Jimmy Carr: The Best of Ultimate Gold Greatest Hits", "genre_ids": [35], "backdrop_path": "/zekTTB0w7YELBOpasUvuicC2vsU.jpg", "adult": false, "overview": "Nothing is off limits as Jimmy Carr serves up the most outrageous jokes from his stand-up career in a special that's not for the faint of heart.", "poster_path": "/pzNG1XWjYTnWUtNXxGMmXc6kjRi.jpg", "popularity": 6.203}, {"adult": false, "backdrop_path": "/xVZWdrTLM4aPk78Wk44qyNbyMJn.jpg", "genre_ids": [35], "id": 497520, "original_language": "en", "original_title": "Tom Segura: Disgraceful", "overview": "Tom Segura gives voice to the sordid thoughts you'd never say out loud, with blunt musings on porn, parking lot power struggles, parenthood and more.", "poster_path": "/ll5QVhDsp6MbNWWZAGXc8vFu6Y9.jpg", "release_date": "2018-01-12", "title": "Tom Segura: Disgraceful", "video": false, "vote_average": 7.2, "vote_count": 23, "popularity": 3.497}, {"adult": false, "backdrop_path": "/wh8iP6nH0TEO3gNuGANa0eKkq6H.jpg", "genre_ids": [35], "id": 415725, "original_language": "en", "original_title": "Doug Stanhope: No Place Like Home", "overview": "Doug Stanhope performs live in his hometown of Bisbee, Arizona, tackling an assortment of hard-hitting issues, from caring for the mentally-ill, to Vietnam vets, being locked up abroad and why everyone should kick like they kick. Watch him battle ISIS for the disenfranchised, angry youth.", "poster_path": "/bTZJEzXXM1izdwqhbbq9x8D8yCU.jpg", "release_date": "2016-09-15", "title": "Doug Stanhope: No Place Like Home", "video": false, "vote_average": 6.2, "vote_count": 11, "popularity": 2.034}, {"id": 573917, "video": false, "vote_count": 32, "vote_average": 6.2, "title": "Ken Jeong: You Complete Me, Ho", "release_date": "2019-02-14", "original_language": "en", "original_title": "Ken Jeong: You Complete Me, Ho", "genre_ids": [35, 10770], "backdrop_path": "/unqSQccsMQnnO2lVnxSAhYVnQVb.jpg", "adult": false, "overview": "In his first-ever stand-up special, Ken Jeong shares hilarious stories from his Hollywood career -- and reveals how \"The Hangover\" saved his life.", "poster_path": "/hAJJwaHuEj8dF82Bb0VSwigvCw1.jpg", "popularity": 3.881}, {"id": 505159, "video": false, "vote_count": 74, "vote_average": 6.6, "title": "Chris Rock: Tamborine", "release_date": "2018-02-14", "original_language": "en", "original_title": "Chris Rock: Tamborine", "genre_ids": [35], "backdrop_path": "/5lSF2ZlhzX5LEPUvAwCe6Hbv9Nh.jpg", "adult": false, "overview": "Chris Rock takes the stage for his first comedy special in 10 years, filled with searing observations on fatherhood, infidelity and American politics.", "poster_path": "/7Pf9fQsDY2HvCsSQ6ObYBkMsdo5.jpg", "popularity": 6.539}, {"adult": false, "backdrop_path": "/gHUDHuwEOnHrMihVB0oW8TCnBGF.jpg", "genre_ids": [35], "id": 473812, "original_language": "en", "original_title": "Jerry Before Seinfeld", "overview": "Jerry Seinfeld returns to the club that gave him his start in the 1970s, mixing iconic jokes with stories from his childhood and early days in comedy.", "poster_path": "/1HsldceVUztgRztwp3pOaVRJVlp.jpg", "release_date": "2017-09-19", "title": "Jerry Before Seinfeld", "video": false, "vote_average": 7.0, "vote_count": 67, "popularity": 6.339}, {"adult": false, "backdrop_path": "/4rbxhmDX8UqeyKryTBHMvyvPB33.jpg", "genre_ids": [35], "id": 437752, "original_language": "en", "original_title": "Bill Burr: Walk Your Way Out", "overview": "No-nonsense comic Bill Burr takes the stage in Nashville and riffs on fast food, overpopulation, dictators and gorilla sign language.", "poster_path": "/wQpJbMzfmzwb14MiUVC991LEyTV.jpg", "release_date": "2017-01-31", "title": "Bill Burr: Walk Your Way Out", "video": false, "vote_average": 6.9, "vote_count": 63, "popularity": 5.555}, {"adult": false, "backdrop_path": "/lWN2yNzlUoItuZkc6mFtRPo5Cj7.jpg", "genre_ids": [35], "id": 474155, "original_language": "en", "original_title": "Marc Maron: Too Real", "overview": "Battle-scarred stand-up comedian Marc Maron unleashes a storm of ideas about meditation, mortality, documentary films and our weird modern world.", "poster_path": "/pm1Zkg1cAKSGtTb0mxTylNUazxM.jpg", "release_date": "2017-09-05", "title": "Marc Maron: Too Real", "video": false, "vote_average": 7.1, "vote_count": 21, "popularity": 4.874}, {"adult": false, "backdrop_path": "/hDd2RWYR0mwGeF5oms5Ulr9zrhh.jpg", "genre_ids": [35, 10770], "id": 558341, "original_language": "en", "original_title": "Trevor Noah: Son of Patricia", "overview": "Trevor Noah gets out from behind the \"Daily Show\" desk and takes the stage for a stand-up special that touches on racism, immigration, camping and more.", "poster_path": "/dmhDeV3RYq4jMwgIMmo0W05uH8L.jpg", "release_date": "2018-11-20", "title": "Trevor Noah: Son of Patricia", "video": false, "vote_average": 7.2, "vote_count": 50, "popularity": 6.0}, {"adult": false, "backdrop_path": "/rdaHUEeRSKeeL7tHc7Ry6oV0wif.jpg", "genre_ids": [35], "id": 593489, "original_language": "en", "original_title": "Anthony Jeselnik: Fire in the Maternity Ward", "overview": "Forging his own comedic boundaries, Anthony Jeselnik revels in getting away with saying things others can't in this stand-up special shot in New York.", "poster_path": "/10EkzjVA0AWUArKnE53Nzf2pigj.jpg", "release_date": "2019-04-30", "title": "Anthony Jeselnik: Fire in the Maternity Ward", "video": false, "vote_average": 7.3, "vote_count": 32, "popularity": 3.543}, {"adult": false, "backdrop_path": "/wFzoC6dgiLHzFYzFPOpGqTBvraC.jpg", "genre_ids": [35], "id": 538523, "original_language": "en", "original_title": "Demetri Martin: The Overthinker", "overview": "With his signature one-liners and drawings, Demetri Martin muses on doughnut holes, dogs, sports bars, the alphabet's most aggressive letters and more.", "poster_path": "/h8PafIg6XlvgR9NO6njX8i3PkqT.jpg", "release_date": "2018-08-10", "title": "Demetri Martin: The Overthinker", "video": false, "vote_average": 7.3, "vote_count": 28, "popularity": 5.566}, {"adult": false, "backdrop_path": "/9Whs3os2OrE4X5lQ69RAwJv7CSY.jpg", "genre_ids": [35], "id": 435351, "original_language": "en", "original_title": "Neal Brennan: 3 Mics", "overview": "Wicked one-liners and soul-baring confessions converge in this uniquely intimate stand-up special from \"Chappelle's Show\" co-creator Neal Brennan.", "poster_path": "/8IfHaFGrW6MzTxgith9r2ulrxE.jpg", "release_date": "2017-01-17", "title": "Neal Brennan: 3 Mics", "video": false, "vote_average": 7.5, "vote_count": 32, "popularity": 4.55}, {"adult": false, "backdrop_path": "/9CohNQtPFU2smL7zrH4tqT0EHLQ.jpg", "genre_ids": [35], "id": 22975, "original_language": "en", "original_title": "Richard Pryor: Live in Concert", "overview": "Richard Pryor delivers monologues on race, sex, family and his favorite target\u2014himself, live at the Terrace Theatre in Long Beach, California.", "poster_path": "/oatTbX7TvMV8ZIdxdHSPdbNUWm2.jpg", "release_date": "1979-01-26", "title": "Richard Pryor: Live in Concert", "video": false, "vote_average": 7.7, "vote_count": 63, "popularity": 3.763}, {"id": 46967, "video": false, "vote_count": 52, "vote_average": 7.9, "title": "Bill Burr: Let It Go", "release_date": "2010-09-18", "original_language": "en", "original_title": "Bill Burr: Let It Go", "genre_ids": [35], "backdrop_path": "/2aLKaLPysTNZbkm1orhaKwomdyq.jpg", "adult": false, "overview": "It\u2019s always been a dream of mine to do a show at the Fillmore. The name itself is synonymous with legendary performances. Countless iconic musicians and comedians have been on that stage. To be a part of that history was something I\u2019ll never forget. As much as I was trying to keep my head together before the show, I couldn\u2019t help but feel like a tourist or just some random dude who won a contest. LET IT GO represents the culmination of material I developed on the road from 2008-2009. As always thanks to everyone who came out to my shows, laughed at the funny stuff and stared during the bombing. I hope you enjoy it. \u2013 Bill Burr", "poster_path": "/9DKunkJiOxInOXZsk22bULt1428.jpg", "popularity": 4.356}, {"adult": false, "backdrop_path": "/usFa3lrFFMMsnq3a3WhrGJMMNHG.jpg", "genre_ids": [35], "id": 191489, "original_language": "en", "original_title": "Bill Burr: You People Are All The Same", "overview": "Taking the stage in Washington, D.C., funnyman Bill Burr brings his stinging brand of humor to the spotlight, uncorking a profanity-laced, incisive routine that pokes fun at plastic surgery, reality TV, gold diggers and more.", "poster_path": "/1A5XK4avppRzUoIKcVaacE2P9Cu.jpg", "release_date": "2012-08-16", "title": "Bill Burr: You People Are All The Same", "video": false, "vote_average": 7.9, "vote_count": 60, "popularity": 5.666}, {"id": 31981, "video": false, "vote_count": 49, "vote_average": 7.1, "title": "Jim Jefferies: I Swear to God", "release_date": "2009-05-16", "original_language": "en", "original_title": "Jim Jefferies: I Swear to God", "genre_ids": [35], "backdrop_path": "/5grXHJoH24MCDuA66qZjH6pSuQN.jpg", "adult": false, "overview": "Jim Jefferies: I Swear to God: The easily offended might do best to avoid Jim Jefferies\u2019 raunchy, rude humor (or at least imbibe the two-drink minimum beforehand), but the Australian-born comedian provides plenty of laughs for everyone else in this HBO special. In I Swear to God, Jefferies continues his patented brand of comedy that once got him punched by an audience member, discussing the idiocy of no-smoking signs, sluts vs. studs, and his father\u2019s Holocaust jokes.", "poster_path": "/8GyTQCTnXE5JExI9Z8lncyRCpoO.jpg", "popularity": 5.366}], "total_pages": 2, "total_results": 22}, "credits": {"cast": [{"cast_id": 1, "character": "Himself", "credit_id": "5c36353b92514122f1eac68c", "gender": 2, "id": 15757, "name": "Ray Romano", "order": 1, "profile_path": "/zWT03QvuVYySlrjmHCojKrNYjoC.jpg"}], "crew": [{"credit_id": "5c363543c3a36827391c30f6", "department": "Writing", "gender": 2, "id": 15757, "job": "Writer", "name": "Ray Romano", "profile_path": "/zWT03QvuVYySlrjmHCojKrNYjoC.jpg"}, {"credit_id": "5c36354e0e0a265a6f7c8791", "department": "Directing", "gender": 2, "id": 22215, "job": "Director", "name": "Michael Showalter", "profile_path": "/jV11KkwYNnOjrEONhK2on82Lm24.jpg"}]}}