{"adult": false, "backdrop_path": null, "belongs_to_collection": null, "budget": 0, "genres": [{"id": 99, "name": "Documentary"}], "homepage": null, "id": 576561, "imdb_id": "tt9617506", "original_language": "en", "original_title": "Vision Portraits", "overview": "Filmmaker Rodney Evans embarks on a scientific and artistic journey, questioning how his loss of vision might impact his creative future. Through illuminating portraits of three artists: a photographer (John Dugdale), a dancer (Kayla Hamilton), and a writer (Ryan Knighton), the film looks at the ways each artist was affected by the loss of their vision and the ways in which their creative process has changed or adapted.", "popularity": 2.581, "poster_path": "/bzj7fk1FovC3Xuih777wsRa17EN.jpg", "production_companies": [], "production_countries": [{"iso_3166_1": "CA", "name": "Canada"}, {"iso_3166_1": "DE", "name": "Germany"}, {"iso_3166_1": "US", "name": "United States of America"}], "release_date": "2019-03-09", "revenue": 0, "runtime": 78, "spoken_languages": [{"iso_639_1": "en", "name": "English"}], "status": "Released", "tagline": "", "title": "Vision Portraits", "video": false, "vote_average": 0.0, "vote_count": 0, "keywords": {"keywords": [{"id": 733, "name": "dancer"}, {"id": 1003, "name": "photographer"}, {"id": 1741, "name": "blindness and impaired vision"}, {"id": 13028, "name": "writer"}, {"id": 172740, "name": "visually impaired person"}]}, "similar": {"page": 1, "results": [{"adult": false, "backdrop_path": "/bQW1TnxHlmkWof0vsALj4HBkoxj.jpg", "genre_ids": [18, 10749], "id": 51828, "original_language": "en", "original_title": "One Day", "overview": "A romantic comedy centered on Dexter and Emma, who first meet during their graduation in 1988 and proceed to keep in touch regularly. The film follows what they do on July 15 annually, usually doing something together.", "poster_path": "/xzOz17yC3K6SZWtWylXimcHUqpD.jpg", "release_date": "2011-03-02", "title": "One Day", "video": false, "vote_average": 7.2, "vote_count": 2343, "popularity": 16.744}, {"adult": false, "backdrop_path": "/fJQ5kjLx4UdK05MC323Vlzwr6S8.jpg", "genre_ids": [35, 18, 36], "id": 140823, "original_language": "en", "original_title": "Saving Mr. Banks", "overview": "Author P.L. Travers travels from London to Hollywood as Walt Disney Pictures adapts her novel Mary Poppins for the big screen.", "poster_path": "/mvs3reS18RP6IhjLwwLeVtkoeg0.jpg", "release_date": "2013-11-16", "title": "Saving Mr. Banks", "video": false, "vote_average": 7.4, "vote_count": 2230, "popularity": 11.476}, {"adult": false, "backdrop_path": "/mrvlpJFAzKwZZkLm9VD7Rh2VECi.jpg", "genre_ids": [12, 35, 18, 14], "id": 116745, "original_language": "en", "original_title": "The Secret Life of Walter Mitty", "overview": "A timid magazine photo manager who lives life vicariously through daydreams embarks on a true-life adventure when a negative goes missing.", "poster_path": "/b0nIj7dr2bcLAn3erYhql7f6aUm.jpg", "release_date": "2013-12-18", "title": "The Secret Life of Walter Mitty", "video": false, "vote_average": 7.1, "vote_count": 5241, "popularity": 14.477}, {"adult": false, "backdrop_path": "/ry3ov4M7rs3jKObMjELOqd5S0K3.jpg", "genre_ids": [35, 10749], "id": 271718, "original_language": "en", "original_title": "Trainwreck", "overview": "Having thought that monogamy was never possible, a commitment-phobic career woman may have to face her fears when she meets a good guy.", "poster_path": "/2USk7mhiCXRkU9NzttXCzOjg2iV.jpg", "release_date": "2015-07-17", "title": "Trainwreck", "video": false, "vote_average": 5.8, "vote_count": 1864, "popularity": 33.081}, {"adult": false, "backdrop_path": "/9DlrsXH9LOgPeuF6Hljmx8GQNlM.jpg", "genre_ids": [18, 28], "id": 7549, "original_language": "zh", "original_title": "\u970d\u5143\u7532", "overview": "Huo Yuan Jia became the most famous martial arts fighter in all of China at the turn of the 20th Century. Huo faced personal tragedy but ultimately fought his way out of darkness, defining the true spirit of martial arts and also inspiring his nation. The son of a great fighter who didn't wish for his child to follow in his footsteps, Huo resolves to teach himself how to fight - and win.", "poster_path": "/nPku02hVAFPsAd1pJr81OkdBidw.jpg", "release_date": "2006-01-26", "title": "Fearless", "video": false, "vote_average": 7.4, "vote_count": 648, "popularity": 12.897}, {"id": 44214, "video": false, "vote_count": 9192, "vote_average": 7.6, "title": "Black Swan", "release_date": "2010-12-03", "original_language": "en", "original_title": "Black Swan", "genre_ids": [18, 27, 53], "backdrop_path": "/t8jFs6cOl1YVSfXXZivWtEb14tF.jpg", "adult": false, "overview": "A journey through the psyche of a young ballerina whose starring role as the duplicitous swan queen turns out to be a part for which she becomes frighteningly perfect.", "poster_path": "/dQ7uxvsVTspVIsqjfgQj8usJpwX.jpg", "popularity": 24.558}, {"id": 72113, "video": false, "vote_count": 1665, "vote_average": 7.2, "title": "Carnage", "release_date": "2011-09-16", "original_language": "en", "original_title": "Carnage", "genre_ids": [35, 18], "backdrop_path": "/9KGWIK8dylbvQTa4LeB2ESKH8FC.jpg", "adult": false, "overview": "After 11-year-old Zachary Cowan strikes his classmate across the face with a stick after an argument, the victim's parents invite Zachary's parents to their Brooklyn apartment to deal with the incident in a civilized manner.", "poster_path": "/1nhY2l0SffJ5nK8FaeiRaMblN3d.jpg", "popularity": 17.094}, {"id": 120467, "video": false, "vote_count": 8930, "vote_average": 8.0, "title": "The Grand Budapest Hotel", "release_date": "2014-02-26", "original_language": "en", "original_title": "The Grand Budapest Hotel", "genre_ids": [35, 18], "backdrop_path": "/5FPUoQtnNC0C0YZ7sUeTLq6eZqa.jpg", "adult": false, "overview": "The Grand Budapest Hotel tells of a legendary concierge at a famous European hotel between the wars and his friendship with a young employee who becomes his trusted prot\u00e9g\u00e9. The story involves the theft and recovery of a priceless Renaissance painting, the battle for an enormous family fortune and the slow and then sudden upheavals that transformed Europe during the first half of the 20th century.", "poster_path": "/nX5XotM9yprCKarRH4fzOq1VM1J.jpg", "popularity": 24.31}, {"id": 407655, "video": false, "vote_count": 421, "vote_average": 6.8, "title": "A Cinderella Story: If the Shoe Fits", "release_date": "2016-08-02", "original_language": "en", "original_title": "A Cinderella Story: If the Shoe Fits", "genre_ids": [35, 14, 10402, 10751], "backdrop_path": "/svYzELCLW0NGVEuvNraA4W7Hmm9.jpg", "adult": false, "overview": "A contemporary musical version of the classic Cinderella story in which the servant step daughter hope to compete in a musical competition for a famous pop star.", "poster_path": "/prZSNnK5dkYcflsbdOsVVvqasZ5.jpg", "popularity": 19.825}, {"id": 51876, "video": false, "vote_count": 6911, "vote_average": 7.2, "title": "Limitless", "release_date": "2011-03-08", "original_language": "en", "original_title": "Limitless", "genre_ids": [9648, 878, 53], "backdrop_path": "/9ISArgiVBdNLASKmvflRDMOYYMj.jpg", "adult": false, "overview": "A paranoia-fueled action thriller about an unsuccessful writer whose life is transformed by a top-secret \"smart drug\" that allows him to use 100% of his brain and become a perfect version of himself. His enhanced abilities soon attract shadowy forces that threaten his new life in this darkly comic and provocative film.", "poster_path": "/bQfOFEeXxi51ijQrbQY9qvMtYhZ.jpg", "popularity": 22.32}, {"adult": false, "backdrop_path": "/nlwzLx5WVZPZDwXvexGGfaktts7.jpg", "genre_ids": [878, 53, 10749], "id": 38050, "original_language": "en", "original_title": "The Adjustment Bureau", "overview": "A man glimpses the future Fate has planned for him \u2013 and chooses to fight for his own destiny. Battling the powerful Adjustment Bureau across, under and through the streets of New York, he risks his destined greatness to be with the only woman he's ever loved.", "poster_path": "/g87PqGH9Oo3d3Tbczcfk7ZMAIEk.jpg", "release_date": "2011-03-03", "title": "The Adjustment Bureau", "video": false, "vote_average": 6.7, "vote_count": 2861, "popularity": 15.293}, {"adult": false, "backdrop_path": "/3WgaU6OjTlvjOhbq5C0UmKYQGoW.jpg", "genre_ids": [18, 10749], "id": 26338, "original_language": "fr", "original_title": "Romance", "overview": "Although deeply in love with her boyfriend - and indeed sleeping in the same bed with him - a schoolteacher cannot handle the almost complete lack of intimacy he will allow. Increasingly frustrated, she gradually finds her sexual appetites leading her into ever more risky situations, including a developing one with the headmaster.", "poster_path": "/lcDSXXnZok1qyv4TQ14iZ8g8OHf.jpg", "release_date": "1999-04-13", "title": "Romance", "video": false, "vote_average": 5.3, "vote_count": 101, "popularity": 18.89}, {"adult": false, "backdrop_path": "/k4BAPrE5WkNLvpsPsiMfu8W4Zyi.jpg", "genre_ids": [18, 80], "id": 598, "original_language": "pt", "original_title": "Cidade de Deus", "overview": "Cidade de Deus is a shantytown that started during the 1960s and became one of Rio de Janeiro\u2019s most dangerous places in the beginning of the 1980s. To tell the story of this place, the movie describes the life of various characters, all seen by the point of view of the narrator, Buscap\u00e9. Buscap\u00e9 was raised in a very violent environment. Despite the feeling that all odds were against him, he finds out that life can be seen with other eyes...", "poster_path": "/4YEX7qUfg6kN2tHm84CMt2CEq9n.jpg", "release_date": "2002-02-05", "title": "City of God", "video": false, "vote_average": 8.4, "vote_count": 3792, "popularity": 18.508}, {"adult": false, "backdrop_path": "/ojsY0XyCSsJvm0n7YTwumQcvBqT.jpg", "genre_ids": [9648, 53], "id": 1586, "original_language": "en", "original_title": "Secret Window", "overview": "Mort Rainey, a writer just emerging from a painful divorce with his ex-wife, is stalked at his remote lake house by a psychotic stranger and would-be scribe who claims Rainey swiped his best story idea. But as Rainey endeavors to prove his innocence, he begins to question his own sanity.", "poster_path": "/f5t7Df50xjniLlE80ty2dYsZBqI.jpg", "release_date": "2004-03-12", "title": "Secret Window", "video": false, "vote_average": 6.5, "vote_count": 2126, "popularity": 19.288}, {"id": 401847, "video": false, "vote_count": 664, "vote_average": 6.8, "title": "Can You Ever Forgive Me?", "release_date": "2018-10-19", "original_language": "en", "original_title": "Can You Ever Forgive Me?", "genre_ids": [35, 80, 18], "backdrop_path": "/shIOFWkjTn2NRvq5r4Mn2xLdZeJ.jpg", "adult": false, "overview": "When a bestselling celebrity biographer is no longer able to get published because she has fallen out of step with current tastes, she turns her art form to deception.", "poster_path": "/hPuZR2bFoV0kuBrA98exWyvTf40.jpg", "popularity": 16.339}, {"id": 513409, "video": false, "vote_count": 156, "vote_average": 5.8, "title": "Earthquake Bird", "release_date": "2019-11-01", "original_language": "en", "original_title": "Earthquake Bird", "genre_ids": [18, 9648, 53, 10749], "backdrop_path": "/n0Yk3pEix6EvMfcFxpTQKMUtl6V.jpg", "adult": false, "overview": "Tokyo, Japan, 1989. Lucy Fly, a foreigner who works as a translator, begins a passionate relationship with Teiji, a mysterious man obsessed with photography.", "poster_path": "/oyKnosHXQ7kkhlGwqsWOvn4RgKR.jpg", "popularity": 19.478}, {"id": 567, "video": false, "vote_count": 3303, "vote_average": 8.3, "title": "Rear Window", "release_date": "1954-08-01", "original_language": "en", "original_title": "Rear Window", "genre_ids": [18, 9648, 53], "backdrop_path": "/8hknli2ljweYPkdEgl33vtJBf2U.jpg", "adult": false, "overview": "Professional photographer L.B. 'Jeff' Jeffries breaks his leg while getting an action shot at an auto race. Confined to his New York apartment, he spends his time looking out of the rear window observing the neighbors. When he begins to suspect that a man across the courtyard may have murdered his wife, Jeff enlists the help of his high society fashion-consultant girlfriend and his visiting nurse to investigate.", "poster_path": "/oXbT7vlLmZ76kWoHe5XJYuyJUgp.jpg", "popularity": 25.05}, {"id": 901, "video": false, "vote_count": 1026, "vote_average": 8.4, "title": "City Lights", "release_date": "1931-02-01", "original_language": "xx", "original_title": "City Lights", "genre_ids": [35, 18, 10749], "backdrop_path": "/vT6ux2rdyg2kexuLisO5Ygz7pHg.jpg", "adult": false, "overview": "City Lights is the first silent film that Charlie Chaplin directed after he established himself with sound accompanied films. The film is about a penniless man who falls in love with a flower girl.", "poster_path": "/bXNvzjULc9jrOVhGfjcc64uKZmZ.jpg", "popularity": 14.645}, {"id": 1398, "video": false, "vote_count": 866, "vote_average": 8.3, "title": "Stalker", "release_date": "1979-05-25", "original_language": "ru", "original_title": "\u0421\u0442\u0430\u043b\u043a\u0435\u0440", "genre_ids": [18, 878], "backdrop_path": "/m7yrs7Sw5WpUNJdqDjEhkNJVpxt.jpg", "adult": false, "overview": "Near a gray and unnamed city is the Zone, a place guarded by barbed wire and soldiers, and where the normal laws of physics are victim to frequent anomalies. A stalker guides two men into the Zone, specifically to an area in which deep-seated desires are granted.", "poster_path": "/lUE0Bp7wH0EterJ44qMRsqtKFnp.jpg", "popularity": 19.11}, {"adult": false, "backdrop_path": "/r8pjTYuz3fDOFAhHNrhrsrh9lNa.jpg", "genre_ids": [18], "id": 294016, "original_language": "en", "original_title": "Trumbo", "overview": "The career of screenwriter Dalton Trumbo is halted by a witch hunt in the late 1940s when he defies the anti-communist HUAC committee and is blacklisted.", "poster_path": "/zShoKppVxFtRP8pIVeVQ4j2DEkz.jpg", "release_date": "2015-10-27", "title": "Trumbo", "video": false, "vote_average": 7.2, "vote_count": 971, "popularity": 11.721}], "total_pages": 67, "total_results": 1331}, "recommendations": {"page": 1, "results": [], "total_pages": 1, "total_results": 0}, "credits": {"cast": [{"cast_id": 2, "character": "", "credit_id": "5d0fad240e0a2602a1ce5253", "gender": 0, "id": 2114259, "name": "John Dugdale", "order": 1, "profile_path": null}, {"cast_id": 3, "character": "", "credit_id": "5d0fad2bc3a36822c320c50e", "gender": 0, "id": 1072698, "name": "Rodney Evans", "order": 2, "profile_path": null}, {"cast_id": 4, "character": "", "credit_id": "5d0fad36925141524dbd1241", "gender": 0, "id": 2345997, "name": "Kayla Hamilton", "order": 3, "profile_path": null}, {"cast_id": 5, "character": "", "credit_id": "5d0fad410e0a26378dccc9f6", "gender": 0, "id": 1121879, "name": "Ryan Knighton", "order": 4, "profile_path": null}], "crew": [{"credit_id": "5c449c150e0a266d5ad3a9dd", "department": "Directing", "gender": 0, "id": 1072698, "job": "Director", "name": "Rodney Evans", "profile_path": null}]}}