{"adult": false, "backdrop_path": "/3vT8p9VgvTZcmPPW7mS1F4cVIXo.jpg", "belongs_to_collection": null, "budget": 0, "genres": [{"id": 35, "name": "Comedy"}], "homepage": null, "id": 58074, "imdb_id": "tt0049865", "original_language": "it", "original_title": "Tot\u00f2, Peppino e i fuorilegge", "overview": "", "popularity": 3.739, "poster_path": "/wlkvpa0YyvjneigNMvUHmgUqh1g.jpg", "production_companies": [{"id": 9387, "logo_path": null, "name": "Cineriz", "origin_country": ""}], "production_countries": [{"iso_3166_1": "IT", "name": "Italy"}], "release_date": "1956-12-21", "revenue": 0, "runtime": null, "spoken_languages": [{"iso_639_1": "it", "name": "Italiano"}], "status": "Released", "tagline": "", "title": "Tot\u00f2, Peppino e i fuorilegge", "video": false, "vote_average": 7.7, "vote_count": 59, "keywords": {"keywords": [{"id": 924, "name": "italian"}]}, "similar": {"page": 1, "results": [{"adult": false, "backdrop_path": "/nAR8LgJERdTAc2mqX1LPVCBGs8E.jpg", "genre_ids": [35], "id": 57600, "original_language": "it", "original_title": "Abbronzatissimi", "overview": "On the Adriatic Riviera the destinies of a variety of characters cross. A piano player is the lover of a rich woman who wants him to become a killer, a call girl is looking for her true love, two workers want to marry two old billionaires.", "poster_path": "/5XWcUrEoOJcdcFNuhgvqrszi6We.jpg", "release_date": "1991-12-19", "title": "Abbronzatissimi", "video": false, "vote_average": 4.7, "vote_count": 49, "popularity": 4.545}, {"adult": false, "backdrop_path": "/4AgJ8gbjyQ0xg4Q5wjZHu00HOn4.jpg", "genre_ids": [35], "id": 127746, "original_language": "it", "original_title": "La dottoressa ci sta col Colonnello", "overview": "Colonel Anacleto Punch, military doctor, falls in love with the beautiful and sensual South African Dr. Eve Russell, specializing in transplants. Thinking that his manhood is not adequate for the beautiful colleague, decides to do a transplant with the unsuspecting nurse prawn, that with women has always been successful. But the end result will not be as anticipated.", "poster_path": "/4FsXIBLdXcmuWAl9uHAcvN87lHR.jpg", "release_date": "1980-11-11", "title": "La dottoressa ci sta col Colonnello", "video": false, "vote_average": 5.1, "vote_count": 21, "popularity": 5.008}, {"adult": false, "backdrop_path": "/nnRJ5fwbtLxHU4ii9X1REB7Utir.jpg", "genre_ids": [35], "id": 151027, "original_language": "it", "original_title": "La professoressa di scienze naturali", "overview": "When the local science teacher hurts herself during a failed experiment and ends up in hospital, she is replaced by young and sexy Stevania Marini. Barely out of school herself, Stefania finds herself the object of affection for several men, including a young baron and and even most of her male students. One of these, Andrea Balsamo is part of the family with whom Stefania is staying and as such has a stronger foothold than most of the other men in town", "poster_path": "/vxABWlbNeJP0L5jJhCJRstXbsD7.jpg", "release_date": "1976-08-10", "title": "School Days", "video": false, "vote_average": 3.8, "vote_count": 6, "popularity": 2.444}, {"adult": false, "backdrop_path": "/tL71xnsh9QewROs2hMiV56bmemw.jpg", "genre_ids": [35], "id": 106992, "original_language": "it", "original_title": "L'insegnante va in collegio", "overview": "Edwige Fenech stars in this Italian sex-comedy as the new teacher in all-boys Catholic school. All of the boys desire for the chance to \"learn\" more about their new teacher, but only 1 student gets the opportunity.", "poster_path": "/l2uwLyEEH5LHLBPP8RYnLmaWuj7.jpg", "release_date": "1978-03-01", "title": "School Teacher in College", "video": false, "vote_average": 5.0, "vote_count": 22, "popularity": 5.634}, {"adult": false, "backdrop_path": "/q8ven1jdRy4hqMe7eQqnnUjRyXZ.jpg", "genre_ids": [35], "id": 138857, "original_language": "it", "original_title": "La moglie vergine", "overview": "Valentina and Giovannino have just got married, but the Honeymoon has gone by and nothing happened between the two. Tension grows and they are about to break up the marriage, until a French tourist satisfies Valentina, while Giovannino regains his virility with his mother in law.", "poster_path": "/eYUhQ0ltxtXLvxaxLz30oYLz4Gu.jpg", "release_date": "1975-06-06", "title": "Valentina... The Virgin Wife", "video": false, "vote_average": 5.1, "vote_count": 5, "popularity": 5.845}, {"adult": false, "backdrop_path": "/qG622o3WNwoOWXtPetslCopT5pq.jpg", "genre_ids": [35], "id": 219314, "original_language": "it", "original_title": "La Dottoressa sotto il lenzuolo", "overview": "Three medical students who are reluctant to hit the books and unwilling to work are much more enthusiastic about creating pranks and targeting a thriving confidential, female doctor.", "poster_path": "/fq2EodxfLjmoSWT6e4LcMqOmEal.jpg", "release_date": "1976-05-20", "title": "Under the Sheets", "video": false, "vote_average": 4.5, "vote_count": 5, "popularity": 3.339}, {"adult": false, "backdrop_path": "/sAQ4yos73kMaA6RmBmjNZxDHTs4.jpg", "genre_ids": [35], "id": 197343, "original_language": "it", "original_title": "Sesso e volentieri", "overview": "Episodic film. \"The Princess and the waiter\": after managing to get into the good graces of a beautiful princess, a waiter is constantly disturbed by his bodyguards. \"Lady Jane\": a suitor seeks to remove from the troubles the wife of a minister petomane. \"Sunday in\" many viewers remain with his hands clasped over his head, a result of the experiment unsuccessful Giucas Casella. And then \"The new Marisa\" (which would be a prostitute), \"Radio Taxi\", \"Razor old\" (a barber jealous), \"Weapon nda and violinist\", \"Honeymoon\" (a sheikh seduces her husband of a young couple).", "poster_path": "/soBGmAFD96LmIGQbIhRYV7mlLwT.jpg", "release_date": "1982-10-14", "title": "Sesso e volentieri", "video": false, "vote_average": 4.9, "vote_count": 4, "popularity": 2.04}, {"adult": false, "backdrop_path": "/jNiGUDUJOjrYdY5KE2f5ClYqgUD.jpg", "genre_ids": [35, 18], "id": 290133, "original_language": "it", "original_title": "Il solco di pesca", "overview": "A former priest has become bored to the point of impotence by the easy availability of beautiful women. He misses the shame of the priesthood which made sex more enjoyable, and this leads to his strange fascination with photographing asses. He gets involved with a sexy married woman, but he is more interested in her virginal maid.", "poster_path": "/plPr1a4Drv2QsDT4l8PUfdSkLEY.jpg", "release_date": "1975-01-01", "title": "Il solco di pesca", "video": false, "vote_average": 5.1, "vote_count": 5, "popularity": 1.819}, {"adult": false, "backdrop_path": null, "genre_ids": [35], "id": 327835, "original_language": "it", "original_title": "La collegiale", "overview": "The sexually naive Daniela returns home from boarding school only to realize that her family is involved in an excess of bed-hopping and sexual perversion.", "poster_path": "/fPQjeLGoVL88FrgvrD2UhJQ2kvX.jpg", "release_date": "1975-01-01", "title": "La collegiale", "video": false, "vote_average": 6.5, "vote_count": 3, "popularity": 2.227}, {"adult": false, "backdrop_path": null, "genre_ids": [35], "id": 131173, "original_language": "it", "original_title": "Decameroticus", "overview": "Another Decamerotic comedy , this time with Orchidea de Santis ,Krista Nell and other nice girls.", "poster_path": "/geh6F5V1nHnqYTHYT7yLhEN29Qc.jpg", "release_date": "1972-01-01", "title": "Decameroticus", "video": false, "vote_average": 5.8, "vote_count": 3, "popularity": 1.575}, {"adult": false, "backdrop_path": "/wanWffkznXbZrWSAYi5NEgkYU6C.jpg", "genre_ids": [35], "id": 391075, "original_language": "it", "original_title": "La bolognese", "overview": "Softcore melodrama about a young woman who becomes a prostitute with the hopes of raising enough money to start a career as a model for romantic fumetti books", "poster_path": "/tWIAqQliYFREJIu2o4FVEWwJDaR.jpg", "release_date": "1975-04-03", "title": "La bolognese", "video": false, "vote_average": 0.0, "vote_count": 0, "popularity": 1.13}, {"adult": false, "backdrop_path": null, "genre_ids": [35], "id": 290134, "original_language": "it", "original_title": "Scandalo in Famiglia", "overview": "A rich older man dies during a massage (you see, uh--never mind). His young widow (Lucrezia Love) decides she needs some male help in managing her deceased husband's estate (for some reason she doesn't ask the family lawyer who she spends all her time rolling around in the hay with), so she summons her younger step-brother to come stay with her and her \"little stepdaughter\" (Gloria Guida). Of course, Guida's character ends up being attracted to her new \"uncle\" and plots to get \"his bird in her bush\" by, among other things, arranging for him to witness a steamy lesbian encounter between her and a friend in a, uh, steam room. To resist this temptation, the \"uncle\" marries Guida off to another guy while he in turn marries her friend, but they still can't resist each other.", "poster_path": "/jP6N8RlFgTPlartv8aqV6qhyu1x.jpg", "release_date": "1976-05-26", "title": "Scandalo in Famiglia", "video": false, "vote_average": 6.5, "vote_count": 1, "popularity": 1.802}, {"id": 2770, "video": false, "vote_count": 2941, "vote_average": 6.1, "title": "American Pie 2", "release_date": "2001-08-10", "original_language": "en", "original_title": "American Pie 2", "genre_ids": [35, 10749], "backdrop_path": "/1C1d3Tpesm8Vn3BRqsQZt0LfZcG.jpg", "adult": false, "overview": "The whole gang are back and as close as ever. They decide to get even closer by spending the summer together at a beach house. They decide to hold the biggest party ever to be seen, even if the preparation doesn't always go to plan. Especially when Stifler, Finch and Jim become more close to each other than they ever want to be and when Jim mistakes super glue for lubricant...", "poster_path": "/q4LNgUnRfltxzp3gf1MAGiK5LhV.jpg", "popularity": 20.359}, {"adult": false, "backdrop_path": "/98ahnrena4PwLth7HFYGLf9yssH.jpg", "genre_ids": [35, 18, 10749], "id": 22705, "original_language": "it", "original_title": "Tra(sgre)dire", "overview": "While scouting out apartments in London for her Venetian boyfriend, Carla rents an apartment that overlooks the Thames. There she meet the lesbian hyper-horny real estate agent Moira.", "poster_path": "/kZITrLEiTfzzJhtwtXhQUl3ImCQ.jpg", "release_date": "2000-01-28", "title": "Cheeky", "video": false, "vote_average": 5.7, "vote_count": 92, "popularity": 30.42}, {"id": 291870, "video": false, "vote_count": 2886, "vote_average": 5.8, "title": "Dirty Grandpa", "release_date": "2016-01-21", "original_language": "en", "original_title": "Dirty Grandpa", "genre_ids": [35], "backdrop_path": "/ivm52GLofIbvTb4dp4S4zbPO6II.jpg", "adult": false, "overview": "Jason Kelly is one week away from marrying his boss's uber-controlling daughter, putting him on the fast track for a partnership at the law firm. However, when the straight-laced Jason is tricked into driving his foul-mouthed grandfather, Dick, to Daytona for spring break, his pending nuptials are suddenly in jeopardy. Between riotous frat parties, bar fights, and an epic night of karaoke, Dick is on a quest to live his life to the fullest and bring Jason along for the ride.", "poster_path": "/cZEx6mB5Ftnt7LvlDjTKXcrTvyg.jpg", "popularity": 20.13}, {"adult": false, "backdrop_path": "/rTxVvB9snqgEBI2BPLdw4iwvK2E.jpg", "genre_ids": [35, 10749], "id": 6957, "original_language": "en", "original_title": "The 40 Year Old Virgin", "overview": "Andy Stitzer has a pleasant life with a nice apartment and a job stamping invoices at an electronics store. But at age 40, there's one thing Andy hasn't done, and it's really bothering his sex-obsessed male co-workers: Andy is still a virgin. Determined to help Andy get laid, the guys make it their mission to de-virginize him. But it all seems hopeless until Andy meets small business owner Trish, a single mom.", "poster_path": "/5WTywBaFoQhjHTaztkKAfcVmxZn.jpg", "release_date": "2005-08-11", "title": "The 40 Year Old Virgin", "video": false, "vote_average": 6.3, "vote_count": 4101, "popularity": 20.15}, {"adult": false, "backdrop_path": "/dMed7Z1gaGHaDrgxrKkBJ8V0692.jpg", "genre_ids": [35], "id": 290136, "original_language": "en", "original_title": "Maschio latino cercasi", "overview": "t Happened in Naples . - A tourist, duped by Carmine thinks of buying a fourteen year old virgin and is sold at a homosexual. Tonight or Never - The rich ing. Bislecchi , rejected by Gigia maintained , it does \" rejuvenated \" by dr. Himler and becomes a robot. The amnesty . - Milcare , with the excuse to see a good lawyer , possesses under the eyes of her husband Colonel sure to enjoy then of an impending amnesty . Gennarino the emigrant . - In Germany with his wife Anna , Gennaro works as a stallion for the lowest category of porn movies . Only when he's in front of his wife as partner reaches record performance . Exchange made \u200b\u200bin Germany. - Nicola and Sisina , Sicilian barons , go to Germany for an \"exchange of couples\" , Sisina is reluctant ; Then , when her husband fails to disinibirla , beats him by far.", "poster_path": "/psvc7UhNby5pwyHlLMXzt2DZIg4.jpg", "release_date": "1977-02-28", "title": "Maschio latino cercasi", "video": false, "vote_average": 6.0, "vote_count": 1, "popularity": 1.441}, {"adult": false, "backdrop_path": "/vXT5Gw09k99o9XXqqxBPz9NKgsa.jpg", "genre_ids": [35, 12], "id": 9285, "original_language": "en", "original_title": "Road Trip", "overview": "Four friends take off on an 1800 mile road trip to retrieve an illicit tape mistakenly mailed to a girl friend.", "poster_path": "/DCoZVnHVvtKTYwfM00dfVRbfUQ.jpg", "release_date": "2000-05-19", "title": "Road Trip", "video": false, "vote_average": 6.0, "vote_count": 1018, "popularity": 20.323}, {"adult": false, "backdrop_path": "/1vYmxoOGhRqzL3OHRHkx6eM4okH.jpg", "genre_ids": [35], "id": 405472, "original_language": "it", "original_title": "...e si salv\u00f2 solo l'Aretino Pietro, con una mano davanti e l'altra dietro...", "overview": "The three daughters of Madonna Violante: Nanna, Concetta Fiorenza and have only one thought, to have a good time as much as possible with men. Learning that one of the peasants of the family, Torello, is powerful, attractive, and very handsome, Concetta he brings it into the house. Meanwhile Fiorenza, believing her husband to be out of town for penance, enjoys the favors of a friar.", "poster_path": "/Aqf8zjIZsPCafBXyFVzbhEiI9jE.jpg", "release_date": "1972-07-09", "title": "Aretino's Stories of the Three Lustful Daughters", "video": false, "vote_average": 4.5, "vote_count": 2, "popularity": 1.189}, {"adult": false, "backdrop_path": null, "genre_ids": [35], "id": 411546, "original_language": "it", "original_title": "Una grande voglia d'amore", "overview": "In a ski center of Apennines lives young Paolo Antonelli and the rich Daniela. Paolo feels constrained by his marriage to Daniela as he was only interested in her for her money, so he begins an affair between two tourists who have come to visit the ski resort. Predictably it becomes increasingly more difficult for Paolo to juggle his romance between the two women whilst keeping it hidden from his wife.", "poster_path": "/4ElrDhV85f5hX9ESd4xdVahl3Oo.jpg", "release_date": "1994-01-15", "title": "Una grande voglia d'amore", "video": false, "vote_average": 0.0, "vote_count": 0, "popularity": 0.628}], "total_pages": 18, "total_results": 349}, "recommendations": {"page": 1, "results": [{"adult": false, "backdrop_path": "/szD3IQofvX0hruGjS19CVVKcaSk.jpg", "genre_ids": [35], "id": 48252, "original_language": "it", "original_title": "Tot\u00f2 e le Donne", "overview": "Antonio Scaparro (Toto) is obsessed for women. He invents his own way to hide from them - in the attic of his house.", "poster_path": "/pSHIZf5uHXSWxRynd4AfGPxPV3U.jpg", "release_date": "1952-12-06", "title": "Toto and the Women", "video": false, "vote_average": 6.9, "vote_count": 29, "popularity": 2.96}, {"adult": false, "backdrop_path": "/jH75SmIP0W59qMQmeKuttvHxAtN.jpg", "genre_ids": [35], "id": 66177, "original_language": "it", "original_title": "Tot\u00f2, lascia o raddoppia?", "overview": "The penniless Duke decides to participate in \"Lascia o raddoppia\", a TV quiz show, in order to win five million lira. Then two gangsters bet between themselves on his success and, alas, the Duke is kidnapped.", "poster_path": "/hfJePGvmJJ7mEP74aAeLjBrhzfi.jpg", "release_date": "1956-01-01", "title": "Tot\u00f2, lascia o raddoppia?", "video": false, "vote_average": 7.2, "vote_count": 37, "popularity": 2.017}, {"adult": false, "backdrop_path": "/JIyxRdFbvm6diKEDt8GubSZgJ.jpg", "genre_ids": [35], "id": 57998, "original_language": "it", "original_title": "Tot\u00f2truffa '62", "overview": "", "poster_path": "/bhMrAVa7NPII7ufv4ycuMT5jmSn.jpg", "release_date": "1961-08-12", "title": "Tot\u00f2truffa '62", "video": false, "vote_average": 7.8, "vote_count": 65, "popularity": 4.116}, {"id": 63178, "video": false, "vote_count": 46, "vote_average": 7.4, "title": "Toto in Color", "release_date": "1953-05-21", "original_language": "it", "original_title": "Tot\u00f2 in color", "genre_ids": [35], "backdrop_path": "/2QPkg1jqEFL3qRm5smRPKM40Wbn.jpg", "adult": false, "overview": "'Tot\u00f2 a colori' was the first Italian movie to be shot with a colour film, but the sensitivity was very low (6 asa!) so the actors had to act under a very strong lighting and high temperature.", "poster_path": "/1iEcVrdI4v74U0LP9BfqwnyTFDM.jpg", "popularity": 3.148}, {"adult": false, "backdrop_path": "/kiASUlmtOgoX2kz01YY9clEuwab.jpg", "genre_ids": [10749, 35], "id": 56260, "original_language": "it", "original_title": "Tot\u00f2, Fabrizi e i giovani d'oggi", "overview": "", "poster_path": "/6BHVWb6jZyfKyWWiMOajv2cSyY1.jpg", "release_date": "1960-08-18", "title": "Tot\u00f2, Fabrizi e i giovani d'oggi", "video": false, "vote_average": 7.4, "vote_count": 36, "popularity": 3.172}, {"id": 56068, "video": false, "vote_count": 111, "vote_average": 8.0, "title": "The Band of Honest Men", "release_date": "1956-04-12", "original_language": "it", "original_title": "La Banda degli Onesti", "genre_ids": [35], "backdrop_path": "/xF7GTX2dDth6abKwmeWSwzuRCwj.jpg", "adult": false, "overview": "Italy, mid '60s. Three guys from a poor neighbourhood try to get rich by printing fake money using the fact that one of them works as a typographer. The story unravels around their embarrassed efforts to spend the money, their little family issues and ends with a surprise.", "poster_path": "/puvBqV0vLkovO5clUWB7RMqqdQQ.jpg", "popularity": 6.342}, {"adult": false, "backdrop_path": "/lV41by5uBXqTss77LopctG6EpPs.jpg", "genre_ids": [35], "id": 63179, "original_language": "it", "original_title": "Tot\u00f2 Sceicco", "overview": "", "poster_path": "/kNGN7cIgEAZeRSJXIEQs3o5fWbf.jpg", "release_date": "1950-11-30", "title": "Toto the Sheik", "video": false, "vote_average": 6.8, "vote_count": 32, "popularity": 3.459}, {"adult": false, "backdrop_path": "/zUHjvV1OmnBqbGcvkxg4mgMvnjP.jpg", "genre_ids": [35], "id": 55960, "original_language": "it", "original_title": "Tot\u00f2, Peppino e... la malafemmina", "overview": "Antonio, Peppino and Lucia are three brothers who live in the country near Naples. Lucia's son, Gianni, goes to Naples to study medicine, but there he knows a ballet dancer. They fall in love and, when she goes to Milan, Gianni follows her. Informed of this and afraid that their nephew will stop studying, the three Caponi brothers leave for Milan to persuade Gianni to come back and continue studying and abandon the \"Malafemmina\" (bad girl).", "poster_path": "/qZG09A8pvo357tzA9oF67aLLZNf.jpg", "release_date": "1956-08-14", "title": "Toto, Peppino, and the Hussy", "video": false, "vote_average": 8.3, "vote_count": 179, "popularity": 7.124}, {"adult": false, "backdrop_path": "/fUocDlW6f9kTgOr8hOdxJfUlitN.jpg", "genre_ids": [35], "id": 67063, "original_language": "it", "original_title": "Signori si nasce", "overview": "", "poster_path": "/hDgKYBmrx6aa4jK9yhzDBmA0M6Y.jpg", "release_date": "1960-04-28", "title": "Signori si nasce", "video": false, "vote_average": 7.0, "vote_count": 43, "popularity": 3.106}, {"adult": false, "backdrop_path": "/oChPZoxbKm43VcZKs8lxPurNeEj.jpg", "genre_ids": [35], "id": 74341, "original_language": "it", "original_title": "Tot\u00f2 le Mok\u00f2", "overview": "", "poster_path": "/4mArGaBQvOB7EUZg5iHbs4P5uL3.jpg", "release_date": "1949-12-20", "title": "Tot\u00f2 le Mok\u00f2", "video": false, "vote_average": 6.8, "vote_count": 46, "popularity": 3.994}, {"id": 58007, "video": false, "vote_count": 131, "vote_average": 8.2, "title": "Poverty and Nobility", "release_date": "1954-01-01", "original_language": "it", "original_title": "Miseria e Nobilt\u00e0", "genre_ids": [35], "backdrop_path": "/idseJDUwZyCDuXttkRL0LrhjyKV.jpg", "adult": false, "overview": "Eugene, a young nobleman, asks two penniless idlers to impersonate his noble relatives to help him marry Gemma, the daughter of an enriched cook. From the homonymous comedy by Eduardo Scarpetta", "poster_path": "/g7PBVGOZEK87QVxL69bSpapOFdR.jpg", "popularity": 5.758}, {"adult": false, "backdrop_path": "/yUuVVDJ5TSbzpjHtdgfE935BrQE.jpg", "genre_ids": [35], "id": 56920, "original_language": "it", "original_title": "Tot\u00f2 diabolicus", "overview": "The marquis Galeazzo di Torre Alta is murdered by a mysterious killer who calls himself Diabolicus. His heirs are his three brothers and a sister, but all of them, with the exception of Monsignor Antonino di Torre Alta, are killed by Diabolicus. The police are unable to solve the case, but when Antonino gives his inheritance to Pasquale Bonocore, illegitimate son of his father and Pasquale is in prison and therefore can't be the killer, all the clues are in the hand of the police.", "poster_path": "/hZVeuokHPlWt28Nywox5dpGCDEg.jpg", "release_date": "1962-04-06", "title": "Tot\u00f2 diabolicus", "video": false, "vote_average": 7.3, "vote_count": 35, "popularity": 2.919}, {"adult": false, "backdrop_path": "/gEBCm5ZO0TZgBWXCA7t1CQYG2hB.jpg", "genre_ids": [35], "id": 50190, "original_language": "it", "original_title": "Il Monaco di Monza", "overview": "Pasquale takes all of his 12 children and runs away from Monza, looking for a house of a wealthy and generous awning. Having met on the way impoverished peasant, Pasquale takes him also, having granted the rank of \"Half-Monk\" and thus having gained rustic, but a reliable friend.", "poster_path": "/eJwVqP8U4VJ2OdMa93ZDpZpUmmY.jpg", "release_date": "1963-12-01", "title": "The Monk of Monza", "video": false, "vote_average": 7.5, "vote_count": 31, "popularity": 4.489}, {"adult": false, "backdrop_path": "/5szFtrDnVKHEoRbVjwXrmWdmXKi.jpg", "genre_ids": [35], "id": 74242, "original_language": "it", "original_title": "L'imperatore di Capri", "overview": "", "poster_path": "/6ixLFOa8oHlpRzmBIN9ASC6SyQW.jpg", "release_date": "1949-12-16", "title": "L'imperatore di Capri", "video": false, "vote_average": 6.7, "vote_count": 20, "popularity": 1.757}, {"adult": false, "backdrop_path": "/2L0VFLQPHA0ETX1Ce83oo5dczzu.jpg", "genre_ids": [35], "id": 57996, "original_language": "it", "original_title": "Un turco napoletano", "overview": "Naples/Sorrento, mid 20s. A couple of small thieves conceive a scam whereby one of them dresses up as a eunuch Turk to care for the women of the family of a wealthy man. They end up messing everything up, with lots of gags and funny events in the meantime.", "poster_path": "/hLvdo2ohMwKhg0nscKAwnrnY9fr.jpg", "release_date": "1953-09-16", "title": "Neapolitan Turk", "video": false, "vote_average": 7.2, "vote_count": 57, "popularity": 3.032}, {"adult": false, "backdrop_path": "/mvSHG9MPJhOkMdtXyNje9fS3Fxg.jpg", "genre_ids": [35], "id": 71133, "original_language": "it", "original_title": "Tot\u00f2, Peppino e la dolce vita", "overview": "Antonio goes to Rome to represent his fellow peasants, to request a highway that will be built in their region. But the guy is mastered by 'la dolce vita' and wastes the money entrusted to him for his mission. When Peppino is sent to to find out what happened, he lets himself be trapped by the gentle grip of 'la dolce vita'", "poster_path": "/fYroq6GktrNzvsm6yaKVpiprZrK.jpg", "release_date": "1961-03-23", "title": "Tot\u00f2, Peppino and... the Sweet Life", "video": false, "vote_average": 7.0, "vote_count": 25, "popularity": 1.824}, {"adult": false, "backdrop_path": "/zCK1orRlkOHrHO2kDrrU1BcKleP.jpg", "genre_ids": [35], "id": 49930, "original_language": "it", "original_title": "Tot\u00f2 cerca casa", "overview": "", "poster_path": "/oyKdTUqaqwmAkImisd6MoC5SAxL.jpg", "release_date": "1949-01-01", "title": "Tot\u00f2 cerca casa", "video": false, "vote_average": 6.9, "vote_count": 41, "popularity": 3.053}, {"adult": false, "backdrop_path": "/b6IXvIut23s1YLaJNbiN3spibUX.jpg", "genre_ids": [35], "id": 57522, "original_language": "it", "original_title": "47 morto che parla", "overview": "Greedy Baron Antonio Peletti (Tot\u00f2) refuses to give to his town the heredity left by his father, a box full of precious jewels, which he keeps for himself. The major and the rest of the townspeople therefore organize a trick at his expense: they'll make him believe he is dead, and, in a fake \"afterlife\", they'll try to convince him to finally show them where the money is hidden to save his soul.", "poster_path": "/wSXXQUnrhomCY9tlxxQMx6QL0az.jpg", "release_date": "1952-09-30", "title": "47 morto che parla", "video": false, "vote_average": 7.2, "vote_count": 36, "popularity": 2.595}, {"adult": false, "backdrop_path": "/2QCdrRzwbrvWcViaNouvCuIC34i.jpg", "genre_ids": [35], "id": 61800, "original_language": "it", "original_title": "Chi si ferma \u00e8 perduto", "overview": "", "poster_path": "/dYMpPv18x9tzUraY6fwTigICJr9.jpg", "release_date": "1960-12-16", "title": "Chi si ferma \u00e8 perduto", "video": false, "vote_average": 7.0, "vote_count": 25, "popularity": 1.882}, {"adult": false, "backdrop_path": "/94lsjiIg6FdvMGxLqsQckaXzOIB.jpg", "genre_ids": [35], "id": 82369, "original_language": "it", "original_title": "Tot\u00f2 - Il medico dei pazzi", "overview": "", "poster_path": "/k5OjZThSWpTeGgM1ScxzBi7j34n.jpg", "release_date": "1954-09-13", "title": "Tot\u00f2 - Il medico dei pazzi", "video": false, "vote_average": 7.2, "vote_count": 31, "popularity": 3.344}], "total_pages": 2, "total_results": 40}, "credits": {"cast": [{"cast_id": 2, "character": "", "credit_id": "52fe4953c3a36847f8194763", "gender": 2, "id": 132190, "name": "Tot\u00f2", "order": 0, "profile_path": "/qa1uWpfz20ifMx6Km93nXgWNYOI.jpg"}, {"cast_id": 3, "character": "Peppino", "credit_id": "52fe4953c3a36847f8194767", "gender": 0, "id": 94418, "name": "Peppino De Filippo", "order": 1, "profile_path": "/2OqG83QKVNbW9N7G59jwigwgu13.jpg"}, {"cast_id": 4, "character": "Titina", "credit_id": "52fe4953c3a36847f819476b", "gender": 1, "id": 225483, "name": "Titina De Filippo", "order": 2, "profile_path": "/yAjdwG7OqwYoUlMrpAhDO8BsGfN.jpg"}, {"cast_id": 5, "character": "Ignazio", "credit_id": "52fe4953c3a36847f819476f", "gender": 2, "id": 12341, "name": "Memmo Carotenuto", "order": 3, "profile_path": "/22yOc8UbcpwNXtxUUgD8C7LwMci.jpg"}, {"cast_id": 6, "character": "Valeria", "credit_id": "52fe4953c3a36847f8194773", "gender": 1, "id": 125357, "name": "Dorian Gray", "order": 4, "profile_path": "/xJVHURwUezEwPkVTovD9IpxfiNy.jpg"}, {"cast_id": 7, "character": "Alberto", "credit_id": "52fe4953c3a36847f8194777", "gender": 2, "id": 71140, "name": "Franco Interlenghi", "order": 5, "profile_path": "/jjB7ENRnUAALmBNcU8rH8MBBUMO.jpg"}, {"cast_id": 8, "character": "", "credit_id": "52fe4953c3a36847f819477b", "gender": 2, "id": 227385, "name": "Teddy Reno", "order": 6, "profile_path": "/y92oMmevDYz2lSgNb7qeJMpsfJy.jpg"}], "crew": [{"credit_id": "52fe4953c3a36847f819475f", "department": "Directing", "gender": 2, "id": 223708, "job": "Director", "name": "Camillo Mastrocinque", "profile_path": null}]}}