{"adult": false, "backdrop_path": null, "belongs_to_collection": null, "budget": 0, "genres": [{"id": 27, "name": "Horror"}], "homepage": null, "id": 585997, "imdb_id": "tt9866700", "original_language": "fr", "original_title": "Paranormal Investigation", "overview": "When a young man becomes possessed after playing an Ouija game, a ghost hunter investigates the evil spirit dwelling within him.", "popularity": 1.893, "poster_path": "/zwUgvpWP6Xu3EggeBOLq6wbCeYh.jpg", "production_companies": [{"id": 116059, "logo_path": null, "name": "Baril Productions", "origin_country": ""}, {"id": 116060, "logo_path": null, "name": "Vall\u00e9e Cin\u00e9ma", "origin_country": ""}], "production_countries": [{"iso_3166_1": "FR", "name": "France"}], "release_date": "2018-04-13", "revenue": 0, "runtime": 92, "spoken_languages": [{"iso_639_1": "fr", "name": "Fran\u00e7ais"}], "status": "Released", "tagline": "", "title": "Paranormal Investigation", "video": false, "vote_average": 4.5, "vote_count": 18, "keywords": {"keywords": [{"id": 10111, "name": "ouija"}, {"id": 172808, "name": "paranormal activity"}]}, "similar": {"page": 1, "results": [{"adult": false, "backdrop_path": "/w8jINuXklxghTAHNxt0NQYaAN1C.jpg", "genre_ids": [27], "id": 242512, "original_language": "en", "original_title": "Ouija", "overview": "A group of friends must confront their most terrifying fears when they awaken the dark powers of an ancient spirit board.", "poster_path": "/vHTXN00kJktCbSLV50Vbk9siNiX.jpg", "release_date": "2014-10-24", "title": "Ouija", "video": false, "vote_average": 5.1, "vote_count": 1835, "popularity": 21.913}, {"id": 40446, "video": false, "vote_count": 29, "vote_average": 5.1, "title": "Sorority House Massacre II", "release_date": "1990-10-05", "original_language": "en", "original_title": "Sorority House Massacre II", "genre_ids": [35, 27, 53], "backdrop_path": "/1xUXtX9WaznIq0tJpUBny1zEEfH.jpg", "adult": false, "overview": "Five college women buy the old Hokstedter place for their new sorority house. They got it cheap because of the bloody incidents from five years before. They decide to stay in it for the night so they can meet the movers in the morning, but begin to get the creeps when the weird neighbor Orville Ketchum starts poking around. Shortly after the women take showers and consult a Ouija board they begin experiencing an attrition problem.", "poster_path": "/h6cCCjnU2MsvMYucg3VQwvyUnqE.jpg", "popularity": 5.192}, {"id": 17994, "video": false, "vote_count": 89, "vote_average": 5.9, "title": "Witchboard", "release_date": "1986-12-31", "original_language": "en", "original_title": "Witchboard", "genre_ids": [27, 9648, 53], "backdrop_path": "/AjBYditJbqIwGiyOTQfiMk7ab8J.jpg", "adult": false, "overview": "Playing around with a Ouija board, a trio of friends succeeds in contacting the spirit of a young boy. Trouble begins when the evil spirit, Malfeitor, takes over one of their bodies.", "poster_path": "/49wKgCh7K0nPe47vN6z824dhoEF.jpg", "popularity": 7.526}, {"adult": false, "backdrop_path": "/xcjJ5khg2yzOa282mza39Lbrm7j.jpg", "genre_ids": [27], "id": 9552, "original_language": "en", "original_title": "The Exorcist", "overview": "12-year-old Regan MacNeil begins to adapt an explicit new personality as strange events befall the local area of Georgetown. Her mother becomes torn between science and superstition in a desperate bid to save her daughter, and ultimately turns to her last hope: Father Damien Karras, a troubled priest who is struggling with his own faith.", "poster_path": "/4ucLGcXVVSVnsfkGtbLY4XAius8.jpg", "release_date": "1973-12-26", "title": "The Exorcist", "video": false, "vote_average": 7.6, "vote_count": 4359, "popularity": 21.597}, {"id": 41436, "video": false, "vote_count": 1495, "vote_average": 5.7, "title": "Paranormal Activity 2", "release_date": "2010-10-20", "original_language": "en", "original_title": "Paranormal Activity 2", "genre_ids": [27, 53], "backdrop_path": "/ePa0OVXb4HargT4r1vxSe7AB96b.jpg", "adult": false, "overview": "Days after welcoming a newborn baby, Dan and Kristi Rey return home one day to find their house ransacked with seemingly no explanation. Their fear forces them to put in security cameras, which begin to capture strange activity around the house.", "poster_path": "/hFMMrqDR16yNRf77plyvbkxohg6.jpg", "popularity": 12.242}, {"id": 11618, "video": false, "vote_count": 758, "vote_average": 5.3, "title": "The Haunting", "release_date": "1999-07-23", "original_language": "en", "original_title": "The Haunting", "genre_ids": [14, 27, 9648, 53], "backdrop_path": "/mNfJH1O2QhcsfXB5xbiWPW8RULv.jpg", "adult": false, "overview": "Dr. David Marrow invites Nell Vance, and Theo and Luke Sanderson to the eerie and isolated Hill House to be subjects for a sleep disorder study. The unfortunate guests discover that Marrow is far more interested in the sinister mansion itself \u2013 and they soon see the true nature of its horror.", "poster_path": "/6cZp6bho46sCGKJ3by3hnhCs5TD.jpg", "popularity": 16.51}, {"adult": false, "backdrop_path": "/qWNFwjDJOMDOnx5JRQSA6xqiTQP.jpg", "genre_ids": [27, 53], "id": 335796, "original_language": "en", "original_title": "Ouija: Origin of Evil", "overview": "In 1965 Los Angeles, a widowed mother and her two daughters add a new stunt to bolster their s\u00e9ance scam business and unwittingly invite authentic evil into their home. When the youngest daughter is overtaken by the merciless spirit, this small family confronts unthinkable fears to save her and send her possessor back to the other side.", "poster_path": "/pzhGcMGuOxxnq9ePtQPY80Wp0BG.jpg", "release_date": "2016-10-20", "title": "Ouija: Origin of Evil", "video": false, "vote_average": 6.0, "vote_count": 1566, "popularity": 15.879}, {"adult": false, "backdrop_path": "/4Go5HxldJxtoNAMEm1ZPkxG6ADl.jpg", "genre_ids": [27], "id": 441701, "original_language": "es", "original_title": "Ver\u00f3nica", "overview": "Madrid, June 1991. After celebrating a session of Ouija with her friends, Ver\u00f3nica is besieged by dangerous supernatural presences that threaten to harm her entire family.", "poster_path": "/jXcTF45BwAGVVfybWb3AlFqcuUc.jpg", "release_date": "2017-08-25", "title": "Veronica", "video": false, "vote_average": 6.1, "vote_count": 951, "popularity": 10.052}, {"adult": false, "backdrop_path": "/fsvNX21XyTfhAvKyStzAxHanlPn.jpg", "genre_ids": [27, 53], "id": 28485, "original_language": "es", "original_title": "Escalofr\u00edo", "overview": "Andy and Thelma, an urbanite couple living in Madrid, leave their apartment for a pleasant day around the city with their dog. They cross paths with Bruno and Anne, a strange couple who invite them to their foreboding country estate. A storm hits that evening and the two stay overnight. The couples engage in a bit of harmless communication with spirits via ouija board, but soon past conflicts arise Thelma had an affair with Andy's brother, and Anne criticizes Bruno over his attempted suicide. This is only the beginning of all the horrors that will haunt them in the house.", "poster_path": "/y8oVjm9lUtfrFdR151opr6eScGf.jpg", "release_date": "1978-08-12", "title": "Satan's Blood", "video": false, "vote_average": 6.5, "vote_count": 13, "popularity": 4.28}, {"id": 2655, "video": false, "vote_count": 1018, "vote_average": 6.4, "title": "What Lies Beneath", "release_date": "2000-07-21", "original_language": "en", "original_title": "What Lies Beneath", "genre_ids": [18, 27, 9648, 53], "backdrop_path": "/h3A6QXt8t35YQrSvbF9hOkKeeB9.jpg", "adult": false, "overview": "When Claire Spencer starts hearing ghostly voices and seeing spooky images, she wonders if an otherworldly spirit is trying to contact her. All the while, her husband tries to reassure her by telling her it's all in her head. But as Claire investigates, she discovers that the man she loves might know more than he's letting on.", "poster_path": "/A1mrfm8LEv7L28q50ld8QI5z9Iu.jpg", "popularity": 15.628}, {"adult": false, "backdrop_path": "/fNLVYtHuN3QsmG1B0F2xbFACwj7.jpg", "genre_ids": [27], "id": 134366, "original_language": "en", "original_title": "Grave Encounters 2", "overview": "Tortured by the ghosts of the demonized insane asylum that killed the crew of GRAVE ENCOUNTERS, film students fight to escape death as their own paranormal investigation goes terribly wrong in this horrifying sequel.", "poster_path": "/kzx8h6mDnFULOKHWbG9w5x58YU7.jpg", "release_date": "2012-10-12", "title": "Grave Encounters 2", "video": false, "vote_average": 5.4, "vote_count": 481, "popularity": 13.075}, {"id": 27259, "video": false, "vote_count": 65, "vote_average": 5.1, "title": "Long Time Dead", "release_date": "2002-01-18", "original_language": "en", "original_title": "Long Time Dead", "genre_ids": [27, 53], "backdrop_path": "/aCbm1vT0otet6MNn10pDg5L3LYA.jpg", "adult": false, "overview": "A group of British students embark on summoning spirits on a Ouija board after a night of clubbing. But someone breaks the link before they have finished and now a demon is trapped in their world and the only way to banish it, is for all the people who summoned it to die.", "poster_path": "/1m2oulBX0QxmhMyj6MjTiVgG0ci.jpg", "popularity": 8.486}, {"id": 29756, "video": false, "vote_count": 62, "vote_average": 5.8, "title": "13 Ghosts", "release_date": "1960-08-05", "original_language": "en", "original_title": "13 Ghosts", "genre_ids": [27], "backdrop_path": "/ruMcEBj1IpwdzXbeG7WAzjygAPN.jpg", "adult": false, "overview": "Reclusive Dr. Zorba has died and left his mansion to his nephew Cyrus and his family. They will need to search the house to find the doctor's fortune, but along with the property they have also inherited the occultist's collection of 13 ghosts.", "poster_path": "/jnucNqGoTjDQtIAq1thx7NqGz3F.jpg", "popularity": 6.71}, {"adult": false, "backdrop_path": "/eYkUTYo6QDvyCR9hwmQFLKwnDBH.jpg", "genre_ids": [27, 35], "id": 277688, "original_language": "en", "original_title": "Suburban Gothic", "overview": "An awkward, unemployed man who can talk to the dead teams up with a rebellious bartender to find the vengeful ghost that's been terrorizing their town.", "poster_path": "/2mxQyJw6d3iNWYV31jwh7ytZYDf.jpg", "release_date": "2014-07-19", "title": "Suburban Gothic", "video": false, "vote_average": 5.5, "vote_count": 68, "popularity": 8.095}, {"id": 59429, "video": false, "vote_count": 206, "vote_average": 5.8, "title": "Paranormal Activity: Tokyo Night", "release_date": "2010-11-20", "original_language": "ja", "original_title": "\u30d1\u30e9\u30ce\u30fc\u30de\u30eb\u30fb\u30a2\u30af\u30c6\u30a3\u30d3\u30c6\u30a3 \u7b2c2\u7ae0 TOKYO NIGHT", "genre_ids": [27, 53], "backdrop_path": "/u6v0puLnaAexMVudOXsCeRTqWze.jpg", "adult": false, "overview": "This Japan production spins-off the story of the first Paranormal Activity film by having the ghost from the first film follow a student back to her homeland after a visit to San Diego where she is tragically injured during a car accident. Back home in Japan, she is cared for by her brother, Koichi, who begins to suspect that something is amiss when his sister's wheelchair begins to move on its own. From there, the picture takes on the usual candid cam shocks of the series. Tokyo Night is notable for being an official part of the franchise (it was released in Japan two days before Paranormal Activity 2's release in the States), even though the U.S. has yet to see an official release.", "poster_path": "/suAqIz84mvAkX20JWbeLcZ7MTp4.jpg", "popularity": 6.697}, {"adult": false, "backdrop_path": "/ObT3kCNFxqkJRkrOqmjJrLGFVi.jpg", "genre_ids": [27], "id": 501851, "original_language": "en", "original_title": "Ouija House", "overview": "A graduate student, who is trying to finish the last of her research on a book project that she hopes will help her down-on-her-luck mother, brings friends to a house with a dark past, where they soon unwittingly summon an evil entity who makes the house part of its game\u2026", "poster_path": "/qzIieLNegNXZRzYLGgf8pYXp74X.jpg", "release_date": "2018-05-05", "title": "Ouija House", "video": false, "vote_average": 4.6, "vote_count": 14, "popularity": 3.308}, {"adult": false, "backdrop_path": null, "genre_ids": [27], "id": 84387, "original_language": "en", "original_title": "Don't Panic", "overview": "On his seventeenth birthday, Michael is given a present of a Ouija board by Tony his best friend. At a session, Tony using a medium known to him only as \"Virgil\", unwittingly unlocks the evil forces of the board. Soon there is a wave of violent killings and the chief suspect appears to be Michael. He has been witness to all the killings via premonitions and out of body experiences. Is Michael the killer? Can he prove his innocence or is someone else being possessed by the evil spirit\u2026?", "poster_path": "/gNAvO0x3EtDE6m2nAdIrtnUOqjO.jpg", "release_date": "1989-03-02", "title": "Don't Panic", "video": false, "vote_average": 4.4, "vote_count": 7, "popularity": 2.512}, {"adult": false, "backdrop_path": "/ulfQEW4oeIUlV6hh8KWANLpx1aU.jpg", "genre_ids": [27], "id": 32173, "original_language": "ko", "original_title": "\ubd84\uc2e0\uc0ac\ubc14", "overview": "Yu-jin and her blind mother move to a small village from Seoul. On her first day at the new school, Yu-jin gets picked on by her classmates. Along with other victims of hatred, Yu-jin puts a curse on the four girls tormenting them through a Ouija Board. On her second day at school, one of the spellbound bursts into flames and dies just as she sits down where Yu-jin used the board. The next day, another victim burns to death, and now the school is enclosed by horror.", "poster_path": "/lEmfoNPVrpxTpNZoOw3r1mcDN0M.jpg", "release_date": "2004-08-05", "title": "Bunshinsaba: Ouija Board", "video": false, "vote_average": 5.7, "vote_count": 33, "popularity": 6.922}, {"adult": false, "backdrop_path": "/lkFfMQzl6PZV2O4Yeak50c3MGll.jpg", "genre_ids": [53, 27], "id": 22060, "original_language": "en", "original_title": "Spirit Trap", "overview": "When five young students move into an old unoccupied mansion an inexplicable chain of events is set into motion as a mysterious spirit clock begins to tick again. As the story unfolds, revealing each student's dark secrets, the boundary between the real world and the afterlife is no longer clear. Will they find a way to escape or will they be trapped with the spirits forever?", "poster_path": "/qIlQciLkPi9s7BfTKmqZt4ExdR6.jpg", "release_date": "2005-08-12", "title": "Spirit Trap", "video": false, "vote_average": 4.3, "vote_count": 13, "popularity": 2.78}, {"id": 203186, "video": false, "vote_count": 17, "vote_average": 3.7, "title": "The Mine", "release_date": "2013-08-15", "original_language": "en", "original_title": "The Mine", "genre_ids": [12, 27, 9648, 53], "backdrop_path": "/2GLQ4nPyCzMGLAjS044JDOlIQuN.jpg", "adult": false, "overview": "Five school friends seek adventure on Halloween night in an abandoned, haunted mine, only to find to their horror that the ghostly rumors may be true as they fight for survival.", "poster_path": "/rHhTN8U02puLXp40ikUMym5RP9m.jpg", "popularity": 5.211}], "total_pages": 3, "total_results": 56}, "recommendations": {"page": 1, "results": [{"adult": false, "backdrop_path": "/mUJAvwIgrrxLW8enZvvtXRVU4SL.jpg", "genre_ids": [18, 27, 9648], "id": 381961, "original_language": "en", "original_title": "Araromire", "overview": "The synopsis of Figurine (Araromire) shows that it is a story of two buddies and a girl...all down on their luck have their lives changed when one of them discovers 'Araromire' a mysterious figurine in an abandoned shrine which, according to legend bestows seven years of good luck. But no one told them about the next seven years...  - Written by kunle Afolayan  Synopsis", "poster_path": "/5UAzFRadydT9lw6frSr010tla6u.jpg", "release_date": "2009-10-02", "title": "The Figurine", "video": false, "vote_average": 4.8, "vote_count": 6, "popularity": 1.589}, {"id": 484436, "video": false, "vote_count": 48, "vote_average": 5.2, "title": "Animas", "release_date": "2018-10-05", "original_language": "es", "original_title": "\u00c1nimas", "genre_ids": [18, 27, 53], "backdrop_path": "/qsHpl73uTdlMcpwROZrXlniQXjP.jpg", "adult": false, "overview": "Abraham and his female friend \u00c1lex have a close relationship; they share both secrets and fears. When Abraham starts going out with Anchi, he begins to distance himself from \u00c1lex, who gradually dives into a living hell where she encounters strange apparitions, nightmarish visions and extreme situations.", "poster_path": "/2pOIMOAsi2zPAWzf0sy2Zk9BSTp.jpg", "popularity": 4.33}, {"id": 355193, "video": false, "vote_count": 94, "vote_average": 4.7, "title": "Devil's Gate", "release_date": "2017-04-24", "original_language": "en", "original_title": "Devil's Gate", "genre_ids": [27, 878, 53], "backdrop_path": "/cdDwJcE2fH9wEiuswJ0GkPR6hIG.jpg", "adult": false, "overview": "Set in the small town of Devil's Gate, North Dakota, the film examines the disappearance of a local woman and her young son. Schull plays an FBI agent who helps the local sheriff search for answers. Partnering with a deputy , they track down the missing woman's husband and find that nothing is as it seems.", "poster_path": "/qlguwriLf7PkG6jAzpnClkZKmHi.jpg", "popularity": 12.654}], "total_pages": 1, "total_results": 3}, "credits": {"cast": [{"cast_id": 2, "character": "Dylan", "credit_id": "5c8fdd249251410fe7a42fdb", "gender": 2, "id": 1639302, "name": "Jean-Baptiste Heuet", "order": 1, "profile_path": null}, {"cast_id": 3, "character": "Andrei", "credit_id": "5c8fdd5c0e0a261304596ec8", "gender": 2, "id": 2267879, "name": "Andrei Indreies", "order": 2, "profile_path": null}], "crew": [{"credit_id": "5c7db8dcc3a36850b2193e91", "department": "Directing", "gender": 0, "id": 2221123, "job": "Director", "name": "Franck Phelizon", "profile_path": null}]}}