{"adult": false, "backdrop_path": "/r3qg1VchLdVTBwybu7EN5aQLXR8.jpg", "belongs_to_collection": null, "budget": 0, "genres": [{"id": 28, "name": "Action"}, {"id": 53, "name": "Thriller"}], "homepage": "", "id": 58787, "imdb_id": "tt0106303", "original_language": "en", "original_title": "Arctic Blue", "overview": "An environmentalist gets involved in transporting an accused killer (Ben) from an isolated Alaskan town to the authorities. Ben is determined to escape, and his fellow trappers are ready to help", "popularity": 4.146, "poster_path": "/xKOWWvS0aeYpshJoRgMj1SoraXj.jpg", "production_companies": [{"id": 37586, "logo_path": null, "name": "New City Productions", "origin_country": ""}], "production_countries": [{"iso_3166_1": "CA", "name": "Canada"}, {"iso_3166_1": "US", "name": "United States of America"}], "release_date": "1993-01-01", "revenue": 0, "runtime": 95, "spoken_languages": [{"iso_639_1": "en", "name": "English"}], "status": "Released", "tagline": "In Alaska, when the nights get longer... People get crazy.", "title": "Arctic Blue", "video": false, "vote_average": 4.1, "vote_count": 12, "keywords": {"keywords": [{"id": 3713, "name": "chase"}, {"id": 9826, "name": "murder"}, {"id": 9880, "name": "alaska"}, {"id": 10794, "name": "snow"}, {"id": 154815, "name": "environmentalist"}, {"id": 208382, "name": "accused killer"}]}, "similar": {"page": 1, "results": [{"adult": false, "backdrop_path": "/t3OZS8yMs0NL4YgWWc04eXHTn1X.jpg", "genre_ids": [28, 80, 53], "id": 984, "original_language": "en", "original_title": "Dirty Harry", "overview": "When a madman dubbed 'Scorpio' terrorizes San Francisco, hard-nosed cop, Harry Callahan \u2013 famous for his take-no-prisoners approach to law enforcement \u2013 is tasked with hunting down the psychopath. Harry eventually collars Scorpio in the process of rescuing a kidnap victim, only to see him walk on technicalities. Now, the maverick detective is determined to nail the maniac himself.", "poster_path": "/2TADKc4GMMPdMrLXj0xJVgTvZJM.jpg", "release_date": "1971-12-21", "title": "Dirty Harry", "video": false, "vote_average": 7.5, "vote_count": 1173, "popularity": 18.839}, {"adult": false, "backdrop_path": "/pA64Ov7lDpwXBu33yq0KpmAOYJL.jpg", "genre_ids": [27, 53], "id": 357096, "original_language": "en", "original_title": "I Spit on Your Grave III: Vengeance is Mine", "overview": "Jennifer Hills is still tormented by the brutal sexual assault she endured years ago. She\u2019s changed identities and cities, reluctantly joining a support group where she begins to piece together a new life. But when her new friend\u2019s murderer goes free and the tales of serial rapists haunt her, Jennifer will hunt down the men responsible and do what the system won\u2019t \u2013 make them pay for their crimes in the most horrific ways imaginable. Only this time, no jury may be able to save her.", "poster_path": "/6SnOlgrUoC5jqmgcYIM5lde5zYq.jpg", "release_date": "2015-10-01", "title": "I Spit on Your Grave III: Vengeance is Mine", "video": false, "vote_average": 5.3, "vote_count": 437, "popularity": 20.366}, {"id": 15069, "video": false, "vote_count": 75, "vote_average": 5.4, "title": "W\u0394Z", "release_date": "2007-05-19", "original_language": "en", "original_title": "W\u0394Z", "genre_ids": [80, 18, 27, 53], "backdrop_path": "/nVwdXjnbfulc6cymFgOQJctpspr.jpg", "adult": false, "overview": "There is something horribly wrong with the bodies found in the dark city streets. Some are mutilated while others have the Price equation (w\u0394z = Cov (w,z) = \u03b2wzVz) carved into their flesh. Detective Eddie Argo and his new partner Helen Westcott unearth the meaning of the odd equation and realise each victim is being offered a gruesome choice: kill your loved ones, or be killed. Before long it becomes clear that the perpetrator has suffered a similar fate and is now coping by seeking a way to solve this philosophical dilemma.", "poster_path": "/8lPZ59iQRqUELprKuB0myy7u6Zm.jpg", "popularity": 7.935}, {"id": 37645, "video": false, "vote_count": 575, "vote_average": 6.5, "title": "22 Bullets", "release_date": "2010-03-23", "original_language": "fr", "original_title": "L'Immortel", "genre_ids": [28, 80, 53], "backdrop_path": "/mU8zfCOTbahNGH0ZBTCuNdX16gj.jpg", "adult": false, "overview": "Charly Mattei\u0308 has turned his back on his life as an outlaw. For the last three years, he's led a peaceful life devoting himself to his wife and two children. Then, one winter morning, he's left for dead in the parking garage in Marseille's Old Port, with 22 bullets in his body. Against all the odds, he doesn't die...", "poster_path": "/wTYZjPq4YA2wC99MdHZTFQuxFpd.jpg", "popularity": 12.785}, {"id": 8090, "video": false, "vote_count": 448, "vote_average": 6.1, "title": "Untraceable", "release_date": "2008-01-22", "original_language": "en", "original_title": "Untraceable", "genre_ids": [9648, 53], "backdrop_path": "/eXuIPt9I1xuaVddlgzEQRC2EMnJ.jpg", "adult": false, "overview": "Special Agent Jennifer Marsh (Diane Lane) works in an elite division of the FBI dedicated to fighting cybercrime. She thinks she has seen it all, until a particularly sadistic criminal arises on the Internet. This tech-savvy killer posts live feeds of his crimes on his website; the more hits the site gets, the faster the victim dies. Marsh and her team must find the elusive killer before time runs out.", "poster_path": "/ySUwDRDEn01lKIMPQorpFCMLWqE.jpg", "popularity": 14.431}, {"id": 75780, "video": false, "vote_count": 4451, "vote_average": 6.4, "title": "Jack Reacher", "release_date": "2012-12-20", "original_language": "en", "original_title": "Jack Reacher", "genre_ids": [28, 80, 18, 53], "backdrop_path": "/ezXodpP429qK0Av89pVNlaXWJkQ.jpg", "adult": false, "overview": "When a gunman takes five lives with six shots, all evidence points to the suspect in custody. On interrogation, the suspect offers up a single note: \"Get Jack Reacher!\" So begins an extraordinary chase for the truth, pitting Jack Reacher against an unexpected enemy, with a skill for violence and a secret to keep.", "poster_path": "/mt0ELw83HIRgaKaDzhsDcIi0RnW.jpg", "popularity": 15.945}, {"id": 807, "video": false, "vote_count": 11937, "vote_average": 8.3, "title": "Se7en", "release_date": "1995-09-22", "original_language": "en", "original_title": "Se7en", "genre_ids": [80, 9648, 53], "backdrop_path": "/A0WKbRIojF9DUWG4XLCmg5JK6I5.jpg", "adult": false, "overview": "Two homicide detectives are on a desperate hunt for a serial killer whose crimes are based on the \"seven deadly sins\" in this dark and haunting film that takes viewers from the tortured remains of one victim to the next. The seasoned Det. Sommerset researches each sin in an effort to get inside the killer's mind, while his novice partner, Mills, scoffs at his efforts to unravel the case.", "poster_path": "/8zw8IL4zEPjkh8Aysdcd0FwGMb0.jpg", "popularity": 34.018}, {"adult": false, "backdrop_path": "/8UkJSL5hlwGh3uSC5tyoaqhHQh7.jpg", "genre_ids": [80, 18, 53], "id": 18587, "original_language": "en", "original_title": "10 to Midnight", "overview": "Based on the real-life Richard Speck murders. After his bizarre behavior results in rejection from countless women, Warren Stacy begins murdering women, always while he is naked, which minimizes any physical evidence left behind. Detective Leo Kessler is convinced of Stacy\u2019s guilt and, over the objections of his partner, plants evidence to get him behind bars. When Stacy is released on a technicality, he threatens to go after Kessler and his family, leaving Kessler to defend himself with little help from the police.", "poster_path": "/bJiLyz6g8vsFgJ5oAdMWlQAWY4T.jpg", "release_date": "1983-03-11", "title": "10 to Midnight", "video": false, "vote_average": 6.0, "vote_count": 73, "popularity": 9.514}, {"adult": false, "backdrop_path": "/uUYCUbgI5VxsUflTMI4Y9L2Y6vb.jpg", "genre_ids": [80, 18, 53], "id": 11423, "original_language": "ko", "original_title": "\uc0b4\uc778\uc758 \ucd94\uc5b5", "overview": "1986 Gyunggi Province. The body of a young woman is found brutally raped and murdered. Two months later, a series of rapes and murders commences under similar circumstances. And in a country that had never known such crimes, the dark whispers about a serial murderer grow louder. A special task force is set up in the area, with two local detectives Park Doo-Man and Jo Young-Goo joined by a detective from Seoul who requested to be assigned to the case.", "poster_path": "/gawnVe9cFowdoDLo9Pok12NTw39.jpg", "release_date": "2003-05-02", "title": "Memories of Murder", "video": false, "vote_average": 8.1, "vote_count": 1093, "popularity": 13.452}, {"adult": false, "backdrop_path": "/v761yOHKO3p6Yr7LDCjud6tUL5G.jpg", "genre_ids": [28, 80, 53], "id": 10651, "original_language": "en", "original_title": "The Dead Pool", "overview": "Dirty Harry Callahan returns for his final film adventure. Together with his partner Al Quan, he must investigate the systematic murder of actors and musicians. By the time Harry learns that the murders are a part of a sick game to predict the deaths of celebrities before they happen, it may be too late...", "poster_path": "/9ZUSqox9lIxN4xaYBac2QXMFcZj.jpg", "release_date": "1988-07-12", "title": "The Dead Pool", "video": false, "vote_average": 6.4, "vote_count": 389, "popularity": 10.626}, {"adult": false, "backdrop_path": "/xBhRhY8KimSrPx6AMJXigpzlGQ2.jpg", "genre_ids": [28, 35, 80], "id": 96, "original_language": "en", "original_title": "Beverly Hills Cop II", "overview": "Axel heads for the land of sunshine and palm trees to find out who shot police Captain Andrew Bogomil. Thanks to a couple of old friends, Axel's investigation uncovers a series of robberies masterminded by a heartless weapons kingpin\u2014and the chase is on.", "poster_path": "/2y1z1baxKT0coTTRlnkI6McnR9f.jpg", "release_date": "1987-05-18", "title": "Beverly Hills Cop II", "video": false, "vote_average": 6.4, "vote_count": 1235, "popularity": 13.336}, {"adult": false, "backdrop_path": "/3TCPWrxQkfon82xPNtmpweOSVJc.jpg", "genre_ids": [18, 80, 9648, 10749, 53], "id": 12150, "original_language": "en", "original_title": "Sea of Love", "overview": "Seen-it-all New York detective Frank Keller is unsettled - he has done twenty years on the force and could retire, and he hasn't come to terms with his wife leaving him for a colleague. Joining up with an officer from another part of town to investigate a series of murders linked by the lonely hearts columns he finds he is getting seriously and possibly dangerously involved with Helen, one of the main suspects.", "poster_path": "/7DkkTHIX3hUqvsRv5sDmJAkCfKK.jpg", "release_date": "1989-09-15", "title": "Sea of Love", "video": false, "vote_average": 6.7, "vote_count": 290, "popularity": 10.636}, {"adult": false, "backdrop_path": "/xdha8DvElblfBbNnkpGsF42lAyv.jpg", "genre_ids": [28, 80, 53], "id": 2749, "original_language": "en", "original_title": "15 Minutes", "overview": "When Eastern European criminals Oleg and Emil come to New York City to pick up their share of a heist score, Oleg steals a video camera and starts filming their activities, both legal and illegal. When they learn how the American media circus can make a remorseless killer look like the victim and make them rich, they target media-savvy NYPD Homicide Detective Eddie Flemming and media-naive FDNY Fire Marshal Jordy Warsaw, the cops investigating their murder and torching of their former criminal partner, filming everything to sell to the local tabloid TV show \"Top Story.\"", "poster_path": "/qqqleHV8y7NLKt7isSZAvOwVPH6.jpg", "release_date": "2001-03-01", "title": "15 Minutes", "video": false, "vote_average": 5.8, "vote_count": 372, "popularity": 14.636}, {"id": 60670, "video": false, "vote_count": 765, "vote_average": 6.9, "title": "The Crimson Rivers", "release_date": "2000-09-26", "original_language": "fr", "original_title": "Les Rivi\u00e8res pourpres", "genre_ids": [80, 9648, 53], "backdrop_path": "/pXmMiqordTEbRTDNlKPnyielNVA.jpg", "adult": false, "overview": "Two French policemen, one investigating a grisly murder at a remote mountain college, the other working on the desecration of a young girl's grave by skinheads, are brought together by the clues from their respective cases. Soon after they start working together, more murders are committed, and the pair begin to discover just what dark secrets are behind the killings.", "poster_path": "/kkRgQST0bEdEgqpPZMGaUB1twsQ.jpg", "popularity": 11.569}, {"adult": false, "backdrop_path": "/iNuvbrHGNtrUwlm48u4KnQhhMKp.jpg", "genre_ids": [80, 18, 53], "id": 26390, "original_language": "en", "original_title": "Brooklyn's Finest", "overview": "Enforcing the law within the notoriously rough Brownsville section of the city and especially within the Van Dyke housing projects is the NYPD's sixty-fifth precinct. Three police officers struggle with the sometimes fine line between right and wrong.", "poster_path": "/jKSBk0LtZgXxG56uvwiAtYf6ttF.jpg", "release_date": "2009-01-16", "title": "Brooklyn's Finest", "video": false, "vote_average": 6.4, "vote_count": 500, "popularity": 11.822}, {"adult": false, "backdrop_path": "/3naOwcmYNZfd80kC1OXmembjc8j.jpg", "genre_ids": [53, 28, 18], "id": 445954, "original_language": "en", "original_title": "Acts of Vengeance", "overview": "A fast-talking lawyer transforms his body and takes a vow of silence, not to be broken until he finds out who killed his wife and daughter and has his revenge.", "poster_path": "/r5o6vWPYOQs6bv91gQ8kQs2zQYl.jpg", "release_date": "2017-10-27", "title": "Acts of Vengeance", "video": false, "vote_average": 5.7, "vote_count": 234, "popularity": 17.934}, {"id": 276488, "video": false, "vote_count": 162, "vote_average": 5.7, "title": "Let Us Prey", "release_date": "2014-04-17", "original_language": "en", "original_title": "Let Us Prey", "genre_ids": [27, 53], "backdrop_path": "/6y5s5XboARsaZARPBO9L3oYM9Bl.jpg", "adult": false, "overview": "Rachel, a rookie cop, is about to begin her first night shift in a neglected police station in a Scottish, backwater town. The kind of place where the tide has gone out and stranded a motley bunch of the aimless, the forgotten, the bitter-and-twisted who all think that, really, they deserve to be somewhere else. They all think they're there by accident and that, with a little luck, life is going to get better. Wrong, on both counts. Six is about to arrive - and All Hell Will Break Loose!", "poster_path": "/yQgKyDXbV8XQKKarJ8ph5Y9dpQe.jpg", "popularity": 9.209}, {"id": 4638, "video": false, "vote_count": 4429, "vote_average": 7.5, "title": "Hot Fuzz", "release_date": "2007-02-14", "original_language": "en", "original_title": "Hot Fuzz", "genre_ids": [28, 35, 80], "backdrop_path": "/zuskekrfW3gj9ttXNVhfdHe5n22.jpg", "adult": false, "overview": "As a former London constable, Nicholas Angel finds it difficult to adapt to his new assignment in the sleepy British village of Sandford. Not only does he miss the excitement of the big city, but he also has a well-meaning oaf for a partner. However, when a series of grisly accidents rocks Sandford, Angel smells something rotten in the idyllic village.", "poster_path": "/5Jx6s6VXnunh8wCLgR0YgjwSgjh.jpg", "popularity": 22.387}, {"adult": false, "backdrop_path": "/7RRuRcGuWkZGuRyYugfXn0Fgrrr.jpg", "genre_ids": [28, 80, 18, 53], "id": 949, "original_language": "en", "original_title": "Heat", "overview": "Obsessive master thief, Neil McCauley leads a top-notch crew on various daring heists throughout Los Angeles while determined detective, Vincent Hanna pursues him without rest. Each man recognizes and respects the ability and the dedication of the other even though they are aware their cat-and-mouse game may end in violence.", "poster_path": "/6pmLVffM9jEYK7VqDJqPblMxfEY.jpg", "release_date": "1995-12-15", "title": "Heat", "video": false, "vote_average": 7.8, "vote_count": 3615, "popularity": 21.973}, {"adult": false, "backdrop_path": "/arcpWGGnUkGkakOwZo7xfPsaz7h.jpg", "genre_ids": [9648, 53], "id": 2832, "original_language": "en", "original_title": "Identity", "overview": "Complete strangers stranded at a remote desert motel during a raging storm soon find themselves the target of a deranged murderer. As their numbers thin out, the travelers begin to turn on each other, as each tries to figure out who the killer is.", "poster_path": "/xSNSp2wmCUwFavxdkMF417hBc39.jpg", "release_date": "2003-04-25", "title": "Identity", "video": false, "vote_average": 7.2, "vote_count": 2091, "popularity": 19.629}], "total_pages": 72, "total_results": 1426}, "recommendations": {"page": 1, "results": [{"adult": false, "backdrop_path": "/tPF7GCT75ozNP9YZnfGpD4Oolv3.jpg", "genre_ids": [18], "id": 44355, "original_language": "en", "original_title": "Boys Beware", "overview": "Film targeted at teenage boys, urging them to avoid encounters with potential male molesters.", "poster_path": "/scUiZ0b9mybftw9YC2zBG74K4e7.jpg", "release_date": "1961-01-01", "title": "Boys Beware", "video": false, "vote_average": 4.1, "vote_count": 9, "popularity": 2.095}, {"adult": false, "backdrop_path": "/1h5frYqHqE1aOHLyZsCaTx0RyVc.jpg", "genre_ids": [80, 28, 18], "id": 110093, "original_language": "en", "original_title": "Donato and Daughter", "overview": "Though emotionally estranged, a father and daughter team of Los Angeles police detectives must work together to stop a serial killer. Along the way, the two find themselves forced to deal with a number of painful secrets from their past.", "poster_path": "/oXc9tLySXs3umRGplIvxbx339zX.jpg", "release_date": "1993-09-21", "title": "Donato and Daughter", "video": false, "vote_average": 5.4, "vote_count": 9, "popularity": 4.417}, {"adult": false, "backdrop_path": "/oqE8SL80ppQpi2mvsHKG7dHU1TY.jpg", "genre_ids": [28, 53, 80, 18], "id": 106968, "original_language": "en", "original_title": "The Road Killers", "overview": "After a young boy is almost runover by a maniac on a highway, a re-encounter and confrontation by the boy's father with the driver sets off conflicts with a carful of maniacs.", "poster_path": "/yiAzM6NSQEOmsrI1kVXkaIqWgkz.jpg", "release_date": "1994-05-07", "title": "The Road Killers", "video": false, "vote_average": 5.4, "vote_count": 12, "popularity": 4.123}, {"adult": false, "backdrop_path": null, "genre_ids": [], "id": 79738, "original_language": "en", "original_title": "Beverly Hills Family Robinson", "overview": "Marsha Robinson, host of a TV cooking show, takes her family on a working vacation to a South Seas Island, but their yacht is hijacked by pirates, and then shipwrecked, and the Robinsons must survive Marsha's complaints while they build a treehouse, meet a handsome carpenter, bond together as a family and fight off the pirates", "poster_path": "/erZZMrIc8uMSXieoauWk7xL7K8c.jpg", "release_date": "1997-01-25", "title": "Beverly Hills Family Robinson", "video": false, "vote_average": 3.4, "vote_count": 11, "popularity": 1.739}], "total_pages": 1, "total_results": 4}, "credits": {"cast": [{"cast_id": 2, "character": "Ben Corbett", "credit_id": "52fe4973c3a36847f819abd3", "gender": 2, "id": 585, "name": "Rutger Hauer", "order": 0, "profile_path": "/2x1S2VAUvZXZuDjZ4E9iEKINvNu.jpg"}, {"cast_id": 3, "character": "Eric Desmond", "credit_id": "52fe4973c3a36847f819abd7", "gender": 2, "id": 21043, "name": "Dylan Walsh", "order": 1, "profile_path": "/6rOQgNjIJUqXDiM06K2hrL68Eky.jpg"}, {"cast_id": 4, "character": "Anne Marie", "credit_id": "52fe4973c3a36847f819abdb", "gender": 1, "id": 58724, "name": "Rya Kihlstedt", "order": 2, "profile_path": "/8oxVezLBoT1MGZthW8sABKzUclL.jpg"}, {"cast_id": 5, "character": "Lemalle", "credit_id": "52fe4973c3a36847f819abdf", "gender": 2, "id": 592872, "name": "Johnny Cuthbert", "order": 3, "profile_path": "/y7IAv58F1gWVKwGKurEAnjLUmFQ.jpg"}, {"cast_id": 9, "character": "Wilder", "credit_id": "545be052c3a3685368001de5", "gender": 2, "id": 1272, "name": "Richard Bradford", "order": 6, "profile_path": "/oxLUtBUC5V0Uws7hvrBAwTBXQ38.jpg"}, {"cast_id": 11, "character": "Mitchell", "credit_id": "56fa5d5a9251414df10021b9", "gender": 2, "id": 1237724, "name": "John Bear Curtis", "order": 7, "profile_path": "/7epECzCm1y34AMPmJ16T3vQRBMa.jpg"}, {"cast_id": 12, "character": "'Viking' Bob Corbett", "credit_id": "56fa5ec0c3a3681930002457", "gender": 2, "id": 1235532, "name": "Bill Croft", "order": 8, "profile_path": "/qt3WWzBCq8XZ5WAeiwQfxuh5Wqr.jpg"}, {"cast_id": 13, "character": "Meyerling", "credit_id": "56fa5ed99251414ddf0021de", "gender": 2, "id": 25711, "name": "Kevin Cooney", "order": 9, "profile_path": "/3z2Rte6xznb5Bth6mar42waHc59.jpg"}, {"cast_id": 14, "character": "Earl Kenai", "credit_id": "56fa5ef0c3a368192e002567", "gender": 2, "id": 1313853, "name": "Michael Lawrenchuk", "order": 10, "profile_path": "/841wwN1LsxXfhcsFINWFOOCtlsP.jpg"}, {"cast_id": 15, "character": "Arthur Neff", "credit_id": "56fa5f76c3a368194300259b", "gender": 2, "id": 75467, "name": "Stephen E. Miller", "order": 11, "profile_path": "/d06RqoXxwaR0E6ZvVkthxy6RIpw.jpg"}], "crew": [{"credit_id": "54f07067c3a3686d5e007913", "department": "Directing", "gender": 2, "id": 71732, "job": "Director", "name": "Peter Masterson", "profile_path": "/wGha0amyeXy91LRnf7pedI9AOS2.jpg"}, {"credit_id": "545be041c3a368536b001d6d", "department": "Writing", "gender": 2, "id": 21634, "job": "Screenplay", "name": "Ross LaManna", "profile_path": null}]}}