{"adult": false, "backdrop_path": "/2YGYp1CPfOiq7Uzz7gUV2AilkW8.jpg", "belongs_to_collection": null, "budget": 0, "genres": [{"id": 12, "name": "Adventure"}, {"id": 18, "name": "Drama"}, {"id": 28, "name": "Action"}], "homepage": null, "id": 58995, "imdb_id": "tt0082810", "original_language": "en", "original_title": "Night Crossing", "overview": "Two men want to escape from East Germany (under Communist rule) but they will only go if they can take their families with them. Based on a true story.", "popularity": 3.045, "poster_path": "/jpYrijcfIHSvhJd5PnuwSRTA2uS.jpg", "production_companies": [{"id": 3166, "logo_path": "/vyyv4Gy9nPqAZKElPm2izLlEaVS.png", "name": "Walt Disney Productions", "origin_country": "US"}, {"id": 1704, "logo_path": null, "name": "Bavaria Film", "origin_country": "DE"}], "production_countries": [{"iso_3166_1": "GB", "name": "United Kingdom"}], "release_date": "1982-02-05", "revenue": 0, "runtime": 107, "spoken_languages": [{"iso_639_1": "en", "name": "English"}], "status": "Released", "tagline": "", "title": "Night Crossing", "video": false, "vote_average": 5.7, "vote_count": 15, "keywords": {"keywords": [{"id": 1228, "name": "1970s"}, {"id": 9672, "name": "based on a true story"}, {"id": 156026, "name": "east germany"}]}, "similar": {"page": 1, "results": [{"id": 398978, "video": false, "vote_count": 2174, "vote_average": 7.8, "title": "The Irishman", "release_date": "2019-11-01", "original_language": "en", "original_title": "The Irishman", "genre_ids": [80, 18, 36], "backdrop_path": "/iLLDiO4dbUfFEnRug8DuvFEl1NB.jpg", "adult": false, "overview": "Pennsylvania, 1956. Frank Sheeran, a war veteran of Irish origin who works as a truck driver, accidentally meets mobster Russell Bufalino. Once Frank becomes his trusted man, Bufalino sends him to Chicago with the task of helping Jimmy Hoffa, a powerful union leader related to organized crime, with whom Frank will maintain a close friendship for nearly twenty years.", "poster_path": "/mbm8k3GFhXS0ROd9AD1gqYbIFbM.jpg", "popularity": 75.227}, {"id": 1949, "video": false, "vote_count": 5158, "vote_average": 7.5, "title": "Zodiac", "release_date": "2007-03-02", "original_language": "en", "original_title": "Zodiac", "genre_ids": [80, 18, 9648, 53], "backdrop_path": "/jP2htGBHE7vKq4MLeC75UeC0sZH.jpg", "adult": false, "overview": "The true story of the investigation of the \"Zodiac Killer\", a serial killer who terrified the San Francisco Bay Area, taunting police with his ciphers and letters. The case becomes an obsession for three men as their lives and careers are built and destroyed by the endless trail of clues.", "poster_path": "/bgLyOROfFQI3FqYL7jQbiaV8lkN.jpg", "popularity": 21.354}, {"id": 508664, "video": false, "vote_count": 31, "vote_average": 6.7, "title": "Danger Close", "release_date": "2019-08-08", "original_language": "en", "original_title": "Danger Close: The Battle of Long Tan", "genre_ids": [28, 18, 36, 10752], "backdrop_path": "/7uacpbrJd9g9xSTLgfyg1NwkAiu.jpg", "adult": false, "overview": "Vietnam War, 1966. Australia and New Zealand send troops to support the United States and South Vietnamese in their fight against the communist North. Soldiers are very young men, recruits and volunteers who have never been involved in a combat. On August 18th, members of Delta Company will face the true horror of a ruthless battle among the trees of a rubber plantation called Long T\u00e2n. They are barely a hundred. The enemy is a human wave ready to destroy them.", "poster_path": "/aB1rCWGMsM2mm1kBDleaPkqUCFo.jpg", "popularity": 18.199}, {"id": 424694, "video": false, "vote_count": 9721, "vote_average": 8.0, "title": "Bohemian Rhapsody", "release_date": "2018-10-24", "original_language": "en", "original_title": "Bohemian Rhapsody", "genre_ids": [18, 10402], "backdrop_path": "/93xA62uLd5CwMOAs37eQ7vPc1iV.jpg", "adult": false, "overview": "Singer Freddie Mercury, guitarist Brian May, drummer Roger Taylor and bass guitarist John Deacon take the music world by storm when they form the rock 'n' roll band Queen in 1970. Hit songs become instant classics. When Mercury's increasingly wild lifestyle starts to spiral out of control, Queen soon faces its greatest challenge yet \u2013 finding a way to keep the band together amid the success and excess.", "poster_path": "/lHu1wtNaczFPGFDTrjCSzeLPTKN.jpg", "popularity": 40.186}, {"adult": false, "backdrop_path": "/uCjCNaxLyLkcwBq4aOHOeiKKwPE.jpg", "genre_ids": [35, 10749, 80, 18, 9648], "id": 171274, "original_language": "en", "original_title": "Inherent Vice", "overview": "In Los Angeles at the turn of the 1970s, drug-fueled detective Larry \"Doc\" Sportello investigates the disappearance of an ex-girlfriend.", "poster_path": "/2fCg6FORkgRLpFIKlUg4gULIn1u.jpg", "release_date": "2014-12-25", "title": "Inherent Vice", "video": false, "vote_average": 6.6, "vote_count": 1534, "popularity": 25.677}, {"id": 575452, "video": false, "vote_count": 399, "vote_average": 7.9, "title": "The Traitor", "release_date": "2019-05-23", "original_language": "it", "original_title": "Il traditore", "genre_ids": [80, 18], "backdrop_path": "/y8lEIjYZCi2VFP4ixtHSn2klpth.jpg", "adult": false, "overview": "Palermo, Sicily, 1980. Mafia member Tommaso Buscetta decides to move to Brazil with his family fleeing the constant war between the different clans of the criminal organization. But when, after living several misfortunes, he is forced to return to Italy, he makes a bold decision that will change his life and the destiny of Cosa Nostra forever.", "poster_path": "/bjb1zKlyw85hYwDXzz2UM6XqjUU.jpg", "popularity": 20.5}, {"id": 504608, "video": false, "vote_count": 1661, "vote_average": 7.4, "title": "Rocketman", "release_date": "2019-05-22", "original_language": "en", "original_title": "Rocketman", "genre_ids": [18, 10402], "backdrop_path": "/sZZJ42GrWKxSOfcrpI2TSFQa0AQ.jpg", "adult": false, "overview": "The story of Elton John's life, from his years as a prodigy at the Royal Academy of Music through his influential and enduring musical partnership with Bernie Taupin.", "poster_path": "/f4FF18ia7yTvHf2izNrHqBmgH8U.jpg", "popularity": 26.576}, {"adult": false, "backdrop_path": "/j1pLMvLiXRyeeHyTZO79a4t3Qao.jpg", "genre_ids": [36, 18], "id": 10858, "original_language": "en", "original_title": "Nixon", "overview": "An all-star cast powers this epic look at American President Richard M. Nixon, a man carrying the fate of the world on his shoulders while battling the self-destructive demands from within. Spanning his troubled boyhood in California to the shocking Watergate scandal that would end his presidency.", "poster_path": "/cICkmCEiXRhvZmbuAlsA5D9B2rK.jpg", "release_date": "1995-12-22", "title": "Nixon", "video": false, "vote_average": 7.0, "vote_count": 156, "popularity": 9.948}, {"id": 239566, "video": false, "vote_count": 271, "vote_average": 6.7, "title": "Get on Up", "release_date": "2014-08-01", "original_language": "en", "original_title": "Get on Up", "genre_ids": [18, 10402], "backdrop_path": "/uXY6UyQZGjnkyKfI5CUjZee58bv.jpg", "adult": false, "overview": "A chronicle of James Brown's rise from extreme poverty to become one of the most influential musicians in history.", "poster_path": "/n1jw04rLk8YRVEJ9D6gQWIiDtfi.jpg", "popularity": 8.512}, {"id": 446354, "video": false, "vote_count": 2836, "vote_average": 7.0, "title": "The Post", "release_date": "2017-12-22", "original_language": "en", "original_title": "The Post", "genre_ids": [18, 36], "backdrop_path": "/8sb4aBST28vN3rBz704XJczS0Ld.jpg", "adult": false, "overview": "A cover-up that spanned four U.S. Presidents pushed the country's first female newspaper publisher and a hard-driving editor to join an unprecedented battle between journalist and government. Inspired by true events.", "poster_path": "/h4XG3g6uMMPIBPjAoQhC2QIMdkl.jpg", "popularity": 20.824}, {"id": 2604, "video": false, "vote_count": 844, "vote_average": 7.0, "title": "Born on the Fourth of July", "release_date": "1989-12-20", "original_language": "en", "original_title": "Born on the Fourth of July", "genre_ids": [18, 10752], "backdrop_path": "/t9MrNY0xM9U5JSe5vHN9z08UYty.jpg", "adult": false, "overview": "The biography of Ron Kovic. Paralyzed in the Vietnam war, he becomes an anti-war and pro-human rights political activist after feeling betrayed by the country he fought for.", "poster_path": "/iAUSzQNpxf9fX1EvhNbeguo6aVA.jpg", "popularity": 14.729}, {"id": 326285, "video": false, "vote_count": 379, "vote_average": 6.1, "title": "American Pastoral", "release_date": "2016-10-20", "original_language": "en", "original_title": "American Pastoral", "genre_ids": [80, 18], "backdrop_path": "/jUA6DRV3aGqwPFyiDqPD3idAFw1.jpg", "adult": false, "overview": "Set in postwar America, a man watches his seemingly perfect life fall apart as his daughter's new political affiliation threatens to destroy their family.", "poster_path": "/5RSZR8clQh6170hRODWH5yS9nHS.jpg", "popularity": 12.473}, {"adult": false, "backdrop_path": "/2nLOJ8gtattGzYzwlYM8PrcgknH.jpg", "genre_ids": [28, 53, 18], "id": 399248, "original_language": "en", "original_title": "Beirut", "overview": "In 1980s Beirut, Mason Skiles is a former U.S. diplomat who is called back into service to save a colleague from the group that is possibly responsible for his own family's death. Meanwhile, a CIA field agent who is working under cover at the American embassy is tasked with keeping Mason alive and ensuring that the mission is a success.", "poster_path": "/s2qIeFsI9TskZr1LkSwljQDh5nl.jpg", "release_date": "2018-04-11", "title": "Beirut", "video": false, "vote_average": 6.2, "vote_count": 250, "popularity": 12.112}, {"id": 524, "video": false, "vote_count": 2854, "vote_average": 8.0, "title": "Casino", "release_date": "1995-11-22", "original_language": "en", "original_title": "Casino", "genre_ids": [80], "backdrop_path": "/eP41pD4YfyVOjdpEaTmoNrL9DGx.jpg", "adult": false, "overview": "In early-1970s Las Vegas, low-level mobster Sam \"Ace\" Rothstein gets tapped by his bosses to head the Tangiers Casino. At first, he's a great success in the job, but over the years, problems with his loose-cannon enforcer Nicky Santoro, his ex-hustler wife Ginger, her con-artist ex Lester Diamond and a handful of corrupt politicians put Sam in ever-increasing danger.", "poster_path": "/jC0dqpkRMwh3A1X2PHahTxOaLbp.jpg", "popularity": 21.281}, {"adult": false, "backdrop_path": "/uyM09BML2F05VpJoXtf0tza44A4.jpg", "genre_ids": [53], "id": 446021, "original_language": "en", "original_title": "Bad Times at the El Royale", "overview": "Lake Tahoe, 1969. Seven strangers, each one with a secret to bury, meet at El Royale, a decadent motel with a dark past. In the course of a fateful night, everyone will have one last shot at redemption.", "poster_path": "/eBXFMpewhnmWLLQqg1EJWJwSw7a.jpg", "release_date": "2018-10-04", "title": "Bad Times at the El Royale", "video": false, "vote_average": 6.8, "vote_count": 1918, "popularity": 19.118}, {"id": 571495, "video": false, "vote_count": 205, "vote_average": 6.2, "title": "The Ruthless", "release_date": "2019-04-08", "original_language": "it", "original_title": "Lo spietato", "genre_ids": [80, 18], "backdrop_path": "/8m3svWYCEp6EFDagkJJ3degceYr.jpg", "adult": false, "overview": "Milan, Italy, 1967. Santo Russo, a boy of Calabrian origin, arrives north with his parents and younger brother to find better living conditions. Due to an absurd misunderstanding and his father's contempt, Santo ends up in prison, where he gets a \u201ctrue education.\u201d In 1978, he and his friends Slim and Mario embark on a 15-year criminal career, a successful and ruthless spiral of robberies, kidnappings, murders and heroin smuggling.", "poster_path": "/4dmWp12lQua3Bpqu8CwsaGKNVUE.jpg", "popularity": 12.455}, {"id": 60308, "video": false, "vote_count": 2515, "vote_average": 7.2, "title": "Moneyball", "release_date": "2011-09-22", "original_language": "en", "original_title": "Moneyball", "genre_ids": [18], "backdrop_path": "/T9a9Q6Pin6Pra7dNMwWzAibxkk.jpg", "adult": false, "overview": "The story of Oakland Athletics general manager Billy Beane's successful attempt to put together a baseball team on a budget, by employing computer-generated analysis to draft his players.", "poster_path": "/3oAa8mJJ97CH9AeGEY6vjAxqcvZ.jpg", "popularity": 16.135}, {"adult": false, "backdrop_path": "/cPg2OJ56J6p0da12Hez5u5iiFd6.jpg", "genre_ids": [80, 18, 53], "id": 241239, "original_language": "en", "original_title": "A Most Violent Year", "overview": "A thriller set in New York City during the winter of 1981, statistically one of the most violent years in the city's history, and centered on a the lives of an immigrant and his family trying to expand their business and capitalize on opportunities as the rampant violence, decay, and corruption of the day drag them in and threaten to destroy all they have built.", "poster_path": "/7xvfhwi1RjF27z3TfaJFAsIaO3x.jpg", "release_date": "2014-12-30", "title": "A Most Violent Year", "video": false, "vote_average": 6.6, "vote_count": 856, "popularity": 15.322}, {"adult": false, "backdrop_path": "/4bHX7nAmjMiZO9eotJITyro0raw.jpg", "genre_ids": [18], "id": 376866, "original_language": "en", "original_title": "Jackie", "overview": "An account of the days of First Lady, Jacqueline Kennedy, in the immediate aftermath of John F. Kennedy's assassination in 1963.", "poster_path": "/iMkl2Akc1f4CSJCieVwczM4KjZR.jpg", "release_date": "2016-12-02", "title": "Jackie", "video": false, "vote_average": 6.5, "vote_count": 1554, "popularity": 12.598}, {"adult": false, "backdrop_path": "/urnGzQvP8fwWWGkn1k809KqIjbm.jpg", "genre_ids": [18], "id": 87093, "original_language": "en", "original_title": "Big Eyes", "overview": "The story of the awakening of painter, Margaret Keane, her phenomenal success in the 1950s, and the subsequent legal difficulties she had with her husband, who claimed credit for her works in the 1960s.", "poster_path": "/z2tqzprHojhgEGYKQepjU28oQg6.jpg", "release_date": "2014-12-24", "title": "Big Eyes", "video": false, "vote_average": 7.0, "vote_count": 2348, "popularity": 12.107}], "total_pages": 59, "total_results": 1173}, "recommendations": {"page": 1, "results": [{"adult": false, "backdrop_path": null, "genre_ids": [12, 10751], "id": 290163, "original_language": "en", "original_title": "Mustang", "overview": "Pechudo is a magnificent jet-black stallion who epitomizes the adjective, \"freedom.\" Running wild in Mexico, Pechudo and his running mates are constantly being sought out and captured by ranchers. Time and again, however, Pechudo would elude capture, then return and seek out his fellow mustangs and free them, and the adventure would repeat itself.", "poster_path": "/akoULm9w5xm4o6rCTlXsrSA0G12.jpg", "release_date": "1973-10-07", "title": "Mustang", "video": false, "vote_average": 7.0, "vote_count": 3, "popularity": 2.071}, {"adult": false, "backdrop_path": null, "genre_ids": [10751, 12], "id": 400400, "original_language": "en", "original_title": "The Boy Who Talked to Badgers", "overview": "A young boy gets along better with the animals he befriends around his family's Canadian farm than with the people he lives with.", "poster_path": "/jOsF24i6oFsubE5XjYZgvqogGen.jpg", "release_date": "1975-09-14", "title": "The Boy Who Talked to Badgers", "video": false, "vote_average": 6.0, "vote_count": 3, "popularity": 2.047}, {"adult": false, "backdrop_path": "/29RfFxYQ5ZXXLONajd7d23vNPF0.jpg", "genre_ids": [12, 10751], "id": 290164, "original_language": "en", "original_title": "A Tale of Two Critters", "overview": "A bear cub and a raccoon become fast friends when they're swept away down a river, away from their families.", "poster_path": "/wjd8kx6Dmnx0or9MQrdWmAkENda.jpg", "release_date": "1977-06-22", "title": "A Tale of Two Critters", "video": false, "vote_average": 7.0, "vote_count": 3, "popularity": 2.908}, {"adult": false, "backdrop_path": null, "genre_ids": [10751, 12], "id": 290162, "original_language": "en", "original_title": "Chandar, the Black Leopard of Ceylon", "overview": "Chandar is a black leopard who lives near the beach of Ceylon (Sri Lanka) together with his mother and his sister.", "poster_path": "/xcrYwVN5OfMovSnKMy7Qceh5wQO.jpg", "release_date": "1972-11-26", "title": "Chandar, the Black Leopard of Ceylon", "video": false, "vote_average": 6.0, "vote_count": 3, "popularity": 2.705}, {"adult": false, "backdrop_path": "/yQQ47czcfyLjJOK8145OKWZpZyC.jpg", "genre_ids": [35, 10751, 10770], "id": 6558, "original_language": "en", "original_title": "Mail To The Chief", "overview": "A humorous and inspiring adventure about an ordinary middle school student who strikes up an online friendship with someone bearing the screen name Average Joe, only to discover that he's been corresponding with and giving political advice to the President of the United States.", "poster_path": "/970JAeX2zbM1JkUuwICfmgNFPoL.jpg", "release_date": "2000-04-02", "title": "Mail To The Chief", "video": false, "vote_average": 4.8, "vote_count": 4, "popularity": 3.777}, {"adult": false, "backdrop_path": "/oTqvZxE4QKUv3Q5zZ0lQowqLO3l.jpg", "genre_ids": [12, 37], "id": 64862, "original_language": "en", "original_title": "Westward Ho, The Wagons!", "overview": "The pioneering trail to Oregon was littered with constant danger. Yet, the hope of the \"promised land\" keeps American families westward bound despite overwhelming odds. A calm, clear-thinking pioneer attempts to lead a wagon train through territory occupied by Pawnees and Sioux. Along the way, the hardy settlers face horse thieves, kidnappers, and unpredictable Indian attacks in their push to establish a new life in the rugged West.", "poster_path": "/u53HQ94A76APoXXh5vtzJY5jOAe.jpg", "release_date": "1956-12-20", "title": "Westward Ho, The Wagons!", "video": false, "vote_average": 5.9, "vote_count": 4, "popularity": 3.341}, {"adult": false, "backdrop_path": null, "genre_ids": [10751], "id": 98348, "original_language": "en", "original_title": "King of the Grizzlies", "overview": "Moki (John Yesno), a Cree Indian, is made foreman of a sprawling cattle ranch owned by his former army commander. But he carries with him through life the lore of his own people. When he rescues a bear cub, Wahb, he feels a mystical connection between himself and the magnificent creature. Later, Wahb, now a 1,300-pound bear, returns from the wild to wreak havoc on the cattle ranch, and Moki must face this fearsome grizzly. This spectacular film depicts a territorial battle over a country of breathtaking beauty.", "poster_path": "/b3PQqT64u2P0LNojvIBFDxjIqdP.jpg", "release_date": "1970-02-11", "title": "King of the Grizzlies", "video": false, "vote_average": 6.5, "vote_count": 4, "popularity": 3.066}, {"adult": false, "backdrop_path": null, "genre_ids": [37, 35, 18, 10751], "id": 104297, "original_language": "en", "original_title": "Scandalous John", "overview": "A crotchety old ranch owner fights to be able to live his life the way he wants to, and not the way other people--and the law--tell him he has to.", "poster_path": "/8KbITraPK0evQWPvrji0obNhmRB.jpg", "release_date": "1971-06-22", "title": "Scandalous John", "video": false, "vote_average": 6.5, "vote_count": 4, "popularity": 3.095}, {"adult": false, "backdrop_path": null, "genre_ids": [18, 36, 10751, 10770], "id": 206321, "original_language": "en", "original_title": "Love Leads the Way: A True Story", "overview": "Based on the true story of Morris Frank and the first U.S. Seeing Eye Dog, Buddy.", "poster_path": "/5eTMZwwN9wrdGIaAtFOS4kEW2GZ.jpg", "release_date": "1984-10-07", "title": "Love Leads the Way: A True Story", "video": false, "vote_average": 7.0, "vote_count": 4, "popularity": 3.362}, {"adult": false, "backdrop_path": "/6AmGG6obZ6j2628XWV5T9rNIw5d.jpg", "genre_ids": [37], "id": 132074, "original_language": "en", "original_title": "Smith!", "overview": "When the Indian Jimmyboy is accused of murder of a white man, he flees onto the ranch of Smith, who's well known for his tolerance for Indians, since he was raised by the old Indian Antoine. Smith helps Jimmyboy against the mean Sheriff and promises to speak for him in court, thus persuading him to surrender himself to the police.", "poster_path": "/uhcTtnFrUo1WCTVABzfEA60v0bg.jpg", "release_date": "1969-03-21", "title": "Smith!", "video": false, "vote_average": 6.5, "vote_count": 4, "popularity": 2.652}, {"adult": false, "backdrop_path": "/hkORutoJMSjZHq9oXX3YvBMaS9i.jpg", "genre_ids": [12, 37], "id": 231259, "original_language": "en", "original_title": "Ten Who Dared", "overview": "The John Wesley Powell expedition of 1869 explores the dangerous Colorado River, withstands internal dissension, and finally discovers the Grand Canyon.", "poster_path": "/fxzrHwnguRhcLMVcFJxvvBDwsn4.jpg", "release_date": "1960-11-01", "title": "Ten Who Dared", "video": false, "vote_average": 5.8, "vote_count": 4, "popularity": 3.545}, {"id": 103711, "video": false, "vote_count": 6, "vote_average": 5.3, "title": "Charley and the Angel", "release_date": "1973-03-23", "original_language": "en", "original_title": "Charley and the Angel", "genre_ids": [35, 14, 10751], "backdrop_path": "/3k3GzIZ6kC2lE8zddK7LExkUxO4.jpg", "adult": false, "overview": "Charley is a workaholic family man that finds out from an angel that his \"number's up\" and he will be dying soon so he tries to change his ways and be a better husband and father with the time he has left.", "poster_path": "/mvL0ioyVJovVV8Al0u1gEvwCOoG.jpg", "popularity": 3.966}, {"adult": false, "backdrop_path": "/quseiuHZWKbKX9Vahq2GYHt14l3.jpg", "genre_ids": [10751, 35, 37], "id": 45827, "original_language": "en", "original_title": "One Little Indian", "overview": "An Army deserter (James Garner) flees by camel across the desert with a white boy (Clay O'Brien) raised by Indians.", "poster_path": "/9wvojM2AKUtzXXIaZObUVNp1Ykw.jpg", "release_date": "1973-06-20", "title": "One Little Indian", "video": false, "vote_average": 6.6, "vote_count": 9, "popularity": 4.374}, {"id": 103698, "video": false, "vote_count": 5, "vote_average": 6.0, "title": "The Bears and I", "release_date": "1974-07-31", "original_language": "en", "original_title": "The Bears and I", "genre_ids": [12, 18, 10751], "backdrop_path": "/cGCAI1JgKG65cGwd6mNKYW9e8Zf.jpg", "adult": false, "overview": "When a man adopts three black bear cubs, he faces one of the hardest decisions of his life. Set in the wilderness of British Columbia, Canada, Robert Leslie struggles to keep is bears safe and maintain relations with native Americans and park rangers.", "poster_path": "/n9E08BodtexovtJUH6tPzX0sRBG.jpg", "popularity": 3.767}, {"id": 56067, "video": false, "vote_count": 8, "vote_average": 5.6, "title": "The Biscuit Eater", "release_date": "1972-03-22", "original_language": "en", "original_title": "The Biscuit Eater", "genre_ids": [18, 10751], "backdrop_path": "/fckHPyRcf1uZPkzNJJjLBcNzNLt.jpg", "adult": false, "overview": "Nothing warms the heart like the story of a boy and his dog. Lonnie (Johnny Whitaker) and Text (George Spell) are two friends determined, against all odds, to turn a misfit hound into a hero. Tennessee farmer and dog trainer Harve McNeil (Earl Holliman) tells his son Lonnie that his dog, Moreover, is a good-for-nothing \"biscuit eater.\"", "poster_path": "/ej4XBo3Hvdm8fVSaPhp8DVDf0S6.jpg", "popularity": 3.111}, {"id": 18506, "video": false, "vote_count": 12, "vote_average": 6.0, "title": "Once Upon A Mattress", "release_date": "2005-12-18", "original_language": "en", "original_title": "Once Upon A Mattress", "genre_ids": [35, 10402, 10749], "backdrop_path": "/ySHcUvtYEcDe5thwOun66ZbIBHi.jpg", "adult": false, "overview": "Queen Aggravain has ruled that none may marry until her son, Prince Dauntless marries. However, she has managed to sabotage every princess that come along. When Sir Harry and Lady Larken learn that they are going to be parents, wed or not, he goes off to the swamps and brings back Princess Winnifred (\"Fred\" to her friends).", "poster_path": "/yE6V68cs26jlz0nie7ouy8fSL9h.jpg", "popularity": 5.595}, {"id": 275604, "video": false, "vote_count": 6, "vote_average": 4.7, "title": "Super Sleuth Christmas Movie", "release_date": "2007-11-12", "original_language": "en", "original_title": "Super Sleuth Christmas Movie", "genre_ids": [16, 10751], "backdrop_path": null, "adult": false, "overview": "Pooh and his friends work together to rescue Santa's lost reindeer-trainee, Holly.", "poster_path": "/3e5DjwkKWfFcIvHjq67ludzod1Y.jpg", "popularity": 3.875}, {"id": 33331, "video": false, "vote_count": 13, "vote_average": 5.5, "title": "The World's Greatest Athlete", "release_date": "1973-02-14", "original_language": "en", "original_title": "The World's Greatest Athlete", "genre_ids": [35, 10751], "backdrop_path": "/pCLYQ36zZppbMWG21GC0iDIwL9g.jpg", "adult": false, "overview": "Stuck with a feeble sports department, college coach Sam Archer (John Amos) faces the ax unless he can reverse the school's athletic fortunes. An African vacation with his assistant (Tim Conway) answers Archer's prayers when he spots the athletically gifted Nanu (Jan-Michael Vincent). Sam counts on Nanu's remarkable abilities to put the team back on the winning track. This upbeat farce boasts an impressive cast of comedians.", "poster_path": "/di58lxo5HPzC3OBQE2U8bQsIDYy.jpg", "popularity": 4.825}, {"id": 236833, "video": false, "vote_count": 9, "vote_average": 6.2, "title": "Tigger & Pooh and a Musical Too", "release_date": "2009-04-07", "original_language": "en", "original_title": "Tigger & Pooh and a Musical Too", "genre_ids": [16, 10751], "backdrop_path": "/dExxW8jdHTYyCXaFEL5zHIEzLsq.jpg", "adult": false, "overview": "When Rabbit is named Mayor of the Hundred Acre Wood, the position goes to his head and he starts making crazy rules, including one that forbids Tigger from bouncing. Everyone in the wood must choose sides, until a little girl loses her dog Buster and everyone must join together to find him.", "poster_path": "/zMGyTLglovX3xBpIbY77Xtpne3x.jpg", "popularity": 6.713}, {"id": 64875, "video": false, "vote_count": 6, "vote_average": 6.5, "title": "The Fighting Prince of Donegal", "release_date": "1966-10-01", "original_language": "en", "original_title": "The Fighting Prince of Donegal", "genre_ids": [28, 12], "backdrop_path": "/gMauz5D14F8qgB8KFffrNgieeEF.jpg", "adult": false, "overview": "Ireland 1587. Hugh O'Donnell inherits the title of The O'Donnell, the prince of Donegal, and tries to unite Ireland to make war on England. But then Hugh is kidnapped and imprisoned by the Viceroy of Ireland and held ransom for the Clans' good behavior. Hugh must escape prison and the Viceroy's villainous henchman, Captain Leeds, before he can fight.", "poster_path": "/cRhCbKHJM2giFyad3D9Omn6vZjC.jpg", "popularity": 3.061}], "total_pages": 2, "total_results": 40}, "credits": {"cast": [{"cast_id": 3, "character": "Peter Strelzyk", "credit_id": "52fe497cc3a36847f819cb1d", "gender": 2, "id": 5049, "name": "John Hurt", "order": 0, "profile_path": "/rpuH2YRLpxJjMxHq4T1QdOSVtlN.jpg"}, {"cast_id": 4, "character": "Doris Strelzyk", "credit_id": "52fe497cc3a36847f819cb21", "gender": 1, "id": 13724, "name": "Jane Alexander", "order": 1, "profile_path": "/vihwceZs25nbbNhNOO30wp6UkfO.jpg"}, {"cast_id": 5, "character": "Guenter Wetzel", "credit_id": "52fe497cc3a36847f819cb25", "gender": 2, "id": 2222, "name": "Beau Bridges", "order": 2, "profile_path": "/xv6sDCHxHvBgCK4y96H32kxgcdr.jpg"}, {"cast_id": 6, "character": "Petra Wetzel", "credit_id": "52fe497cc3a36847f819cb29", "gender": 1, "id": 59962, "name": "Glynnis O'Connor", "order": 3, "profile_path": "/y1CXIC9Zxg3qIvWrFC18Pj03lVB.jpg"}, {"cast_id": 8, "character": "Schmolk", "credit_id": "57ffc346c3a3681544000f49", "gender": 2, "id": 9927, "name": "Klaus L\u00f6witsch", "order": 4, "profile_path": "/yYXgYmh4HxSGsUO8q3ijWnOlf6d.jpg"}, {"cast_id": 9, "character": "Ziegler", "credit_id": "57ffc354c3a368153d000ffd", "gender": 2, "id": 5012, "name": "Sky du Mont", "order": 5, "profile_path": "/8BEBOXP0BToOi4m9KBWAcWPGPlr.jpg"}, {"cast_id": 10, "character": "Major Koerner", "credit_id": "583f0dd0925141153000d7cb", "gender": 2, "id": 3617, "name": "G\u00fcnter Meisner", "order": 6, "profile_path": "/ratLVv6yrmsyViUECpBGWKaY78r.jpg"}], "crew": [{"credit_id": "5649b49d9251413e7f00a43e", "department": "Sound", "gender": 2, "id": 1760, "job": "Original Music Composer", "name": "Jerry Goldsmith", "profile_path": "/e6sd10VuwFXkgRFrCTCygbhMq2q.jpg"}, {"credit_id": "52fe497cc3a36847f819cb13", "department": "Directing", "gender": 2, "id": 67451, "job": "Director", "name": "Delbert Mann", "profile_path": "/og3XZHwLtTjoxD2hNdORK2vXT67.jpg"}, {"credit_id": "52fe497cc3a36847f819cb19", "department": "Writing", "gender": 2, "id": 101900, "job": "Writer", "name": "John McGreevey", "profile_path": null}]}}