{"adult": false, "backdrop_path": "/m0NEfLsC02H6AzgyvXjaYeiluQr.jpg", "belongs_to_collection": null, "budget": 2500000, "genres": [{"id": 18, "name": "Drama"}, {"id": 10749, "name": "Romance"}], "homepage": "http://www.sonyclassics.com/themother/", "id": 59210, "imdb_id": "tt0323298", "original_language": "en", "original_title": "The Mother", "overview": "A grandmother has a passionate affair with a man half her age, who is also sleeping with her daughter.", "popularity": 4.513, "poster_path": "/kMwUYz8sxwRX5sNo7LGrWo3584s.jpg", "production_companies": [], "production_countries": [], "release_date": "2003-01-01", "revenue": 1062253, "runtime": 112, "spoken_languages": [{"iso_639_1": "en", "name": "English"}], "status": "Released", "tagline": "It can take a lifetime to feel alive.", "title": "The Mother", "video": false, "vote_average": 6.3, "vote_count": 26, "keywords": {"keywords": [{"id": 970, "name": "parent child relationship"}, {"id": 14720, "name": "love affair"}, {"id": 157799, "name": "older woman younger man relationship"}]}, "similar": {"page": 1, "results": [{"id": 8204, "video": false, "vote_count": 1536, "vote_average": 6.5, "title": "The Spiderwick Chronicles", "release_date": "2008-02-14", "original_language": "en", "original_title": "The Spiderwick Chronicles", "genre_ids": [12, 18, 14, 10751], "backdrop_path": "/2Uwv3eUDRJ9UcjN8AlSg4GDm6TN.jpg", "adult": false, "overview": "Upon moving into the run-down Spiderwick Estate with their mother, twin brothers Jared and Simon Grace, along with their sister Mallory, find themselves pulled into an alternate world full of faeries and other creatures.", "poster_path": "/nSLjsBDzwsIpQL534CNfAKidyAm.jpg", "popularity": 19.108}, {"id": 1257, "video": false, "vote_count": 407, "vote_average": 6.0, "title": "Because I Said So", "release_date": "2007-02-02", "original_language": "en", "original_title": "Because I Said So", "genre_ids": [35, 10749], "backdrop_path": "/am5mEE7bEHJQZLFmuXP8ytMHB3v.jpg", "adult": false, "overview": "In an effort to prevent family history from repeating itself, meddlesome mom Daphne Wilder attempts to set up her youngest daughter, Milly, with Mr. Right. Meanwhile, her other daughters try to keep their mom's good intentions under control.", "poster_path": "/a7fBuvCoPPP5RQMZuPN25OT4rk9.jpg", "popularity": 9.41}, {"adult": false, "backdrop_path": "/hD8DQM72Xacg1d3mFqS0eN8vKYw.jpg", "genre_ids": [18], "id": 8272, "original_language": "en", "original_title": "The Savages", "overview": "A sister and brother face the realities of familial responsibility as they begin to care for their ailing father.", "poster_path": "/nY54gSmTOmSXlQpWDB7DWp4u8a7.jpg", "release_date": "2007-01-19", "title": "The Savages", "video": false, "vote_average": 6.9, "vote_count": 192, "popularity": 13.094}, {"adult": false, "backdrop_path": "/oT79THuFrcBzrhlf4fiCddwZBCQ.jpg", "genre_ids": [18, 10402, 10749], "id": 69, "original_language": "en", "original_title": "Walk the Line", "overview": "A chronicle of country music legend Johnny Cash's life, from his early days on an Arkansas cotton farm to his rise to fame with Sun Records in Memphis, where he recorded alongside Elvis Presley, Jerry Lee Lewis and Carl Perkins.", "poster_path": "/wdxL3Zyh3O5MIbmsSiZEevJAjtQ.jpg", "release_date": "2005-09-13", "title": "Walk the Line", "video": false, "vote_average": 7.5, "vote_count": 1544, "popularity": 18.235}, {"id": 1375, "video": false, "vote_count": 1669, "vote_average": 5.6, "title": "Rocky V", "release_date": "1990-10-18", "original_language": "en", "original_title": "Rocky V", "genre_ids": [18], "backdrop_path": "/dr5pdEDOdCvelCQqP32UZubiSgE.jpg", "adult": false, "overview": "A lifetime of taking shots has ended Rocky\u2019s career, and a crooked accountant has left him broke. Inspired by the memory of his trainer, however, Rocky finds glory in training and takes on an up-and-coming boxer.", "poster_path": "/5P2RiuLt31mWyb6duww8qlAhs6G.jpg", "popularity": 16.084}, {"adult": false, "backdrop_path": "/51fjuzYoJKvGW43j32nBpWW6Tm1.jpg", "genre_ids": [28, 80, 18, 53], "id": 111, "original_language": "en", "original_title": "Scarface", "overview": "After getting a green card in exchange for assassinating a Cuban government official, Tony Montana stakes a claim on the drug trade in Miami. Viciously murdering anyone who stands in his way, Tony eventually becomes the biggest drug lord in the state, controlling nearly all the cocaine that comes through Miami. But increased pressure from the police, wars with Colombian drug cartels and his own drug-fueled paranoia serve to fuel the flames of his eventual downfall.", "poster_path": "/zr2p353wrd6j3wjLgDT4TcaestB.jpg", "release_date": "1983-12-08", "title": "Scarface", "video": false, "vote_average": 8.1, "vote_count": 6140, "popularity": 28.483}, {"adult": false, "backdrop_path": "/eB43LYncKDJS3p5xYSUN9dUrL2A.jpg", "genre_ids": [18], "id": 205587, "original_language": "en", "original_title": "The Judge", "overview": "A successful lawyer returns to his hometown for his mother's funeral only to discover that his estranged father, the town's judge, is suspected of murder.", "poster_path": "/v6s65U6qisvxWgO3cNnreaaaite.jpg", "release_date": "2014-10-08", "title": "The Judge", "video": false, "vote_average": 7.3, "vote_count": 2562, "popularity": 16.888}, {"adult": false, "backdrop_path": "/avhG8fITuG78IkKPk28CcBBHPOp.jpg", "genre_ids": [35, 18], "id": 112160, "original_language": "fr", "original_title": "Chroniques sexuelles d'une famille d'aujourd'hui", "overview": "Three generations of a French family open up about their sexual experiences and desires after young Romain is caught masturbating in his biology class.", "poster_path": "/pU2nD3Llaz3Taq5FAaQUg00uJYD.jpg", "release_date": "2012-05-09", "title": "Sexual Chronicles of a French Family", "video": false, "vote_average": 4.4, "vote_count": 169, "popularity": 29.133}, {"id": 13, "video": false, "vote_count": 16601, "vote_average": 8.4, "title": "Forrest Gump", "release_date": "1994-07-06", "original_language": "en", "original_title": "Forrest Gump", "genre_ids": [35, 18, 10749], "backdrop_path": "/wMgbnUVS9wbRGAdki8fqxKU1O0N.jpg", "adult": false, "overview": "A man with a low IQ has accomplished great things in his life and been present during significant historic events\u2014in each case, far exceeding what anyone imagined he could do. But despite all he has achieved, his one true love eludes him.", "poster_path": "/yE5d3BUhE8hCnkMUJOo1QDoOGNz.jpg", "popularity": 46.241}, {"adult": false, "backdrop_path": "/txtRue33MaXv5HQpTiHPOmOcDxE.jpg", "genre_ids": [35, 10749], "id": 11631, "original_language": "en", "original_title": "Mamma Mia!", "overview": "An independent, single mother who owns a small hotel on a Greek island is about to marry off the spirited young daughter she's raised alone. But, the daughter has secretly invited three of her mother's ex-lovers in the hopes of finding her biological father.", "poster_path": "/gOm2iMMbC6EonrFzmSQ8xvCa4Ei.jpg", "release_date": "2008-07-02", "title": "Mamma Mia!", "video": false, "vote_average": 6.9, "vote_count": 4120, "popularity": 16.652}, {"id": 745, "video": false, "vote_count": 6952, "vote_average": 7.9, "title": "The Sixth Sense", "release_date": "1999-08-06", "original_language": "en", "original_title": "The Sixth Sense", "genre_ids": [18, 9648, 53], "backdrop_path": "/1X6F9OvfaWl6AGcCdqYl8icxG9z.jpg", "adult": false, "overview": "A psychological thriller about an eight year old boy named Cole Sear who believes he can see into the world of the dead. A child psychologist named Malcolm Crowe comes to Cole to help him deal with his problem, learning that he really can see ghosts of dead people.", "poster_path": "/imps263dHNe3SuoaAJORZyNTdDT.jpg", "popularity": 18.733}, {"adult": false, "backdrop_path": "/tUGSLoMcxNWZ0OIRSqDaB2jNbdE.jpg", "genre_ids": [12, 28, 18, 53], "id": 503, "original_language": "en", "original_title": "Poseidon", "overview": "A packed cruise ship traveling the Atlantic is hit and overturned by a massive wave, compelling the passengers to begin a dramatic fight for their lives.", "poster_path": "/yeiCuwMSHLmf7NoYzxiEAjkJHkg.jpg", "release_date": "2006-05-10", "title": "Poseidon", "video": false, "vote_average": 5.7, "vote_count": 1144, "popularity": 15.258}, {"id": 334, "video": false, "vote_count": 1847, "vote_average": 7.7, "title": "Magnolia", "release_date": "1999-12-10", "original_language": "en", "original_title": "Magnolia", "genre_ids": [18], "backdrop_path": "/9In3XGQSdr2yfgUoEdCpqxEGAOO.jpg", "adult": false, "overview": "An epic mosaic of many interrelated characters in search of happiness, forgiveness, and meaning in the San Fernando Valley.", "poster_path": "/jxkHxPiMfGiFvxSOduNV4oIKJI5.jpg", "popularity": 17.348}, {"adult": false, "backdrop_path": "/2lZYvShWuVThLM6Oo8zfakdBMqw.jpg", "genre_ids": [18, 10749], "id": 1365, "original_language": "en", "original_title": "Monster's Ball", "overview": "Set in the southern USA, a racist white man, Hank, falls in love with a black woman named Leticia. Ironically, Hank is a prison guard working on Death Row who executed Leticia's husband. Hank and Leticia's inter-racial affair leads to confusion and new ideas for the two unlikely lovers.", "poster_path": "/s7o0AyOFIYNjTe008pV6EZMI2IP.jpg", "release_date": "2001-11-11", "title": "Monster's Ball", "video": false, "vote_average": 6.7, "vote_count": 500, "popularity": 12.026}, {"id": 39254, "video": false, "vote_count": 4971, "vote_average": 6.8, "title": "Real Steel", "release_date": "2011-09-28", "original_language": "en", "original_title": "Real Steel", "genre_ids": [28, 18, 878], "backdrop_path": "/bwaMcX2zjfc3C7YLBWRnBnHEDHW.jpg", "adult": false, "overview": "Charlie Kenton is a washed-up fighter who retired from the ring when robots took over the sport. After his robot is trashed, he reluctantly teams up with his estranged son to rebuild and train an unlikely contender.", "poster_path": "/drtXi58nN6P3zcoLh6wUlsZAYqh.jpg", "popularity": 23.011}, {"id": 4787, "video": false, "vote_count": 435, "vote_average": 6.2, "title": "Cassandra's Dream", "release_date": "2007-06-18", "original_language": "en", "original_title": "Cassandra's Dream", "genre_ids": [35, 80, 18, 9648, 53], "backdrop_path": "/avvSX8GIm9lFGfKi31Vu1lKuvrs.jpg", "adult": false, "overview": "The tale of two brothers with serious financial woes. When a third party proposes they turn to crime, things go bad and the two become enemies.", "poster_path": "/lRzD1AKV8PPJO7ljut59fPThVdH.jpg", "popularity": 12.035}, {"id": 277216, "video": false, "vote_count": 2188, "vote_average": 7.7, "title": "Straight Outta Compton", "release_date": "2015-08-13", "original_language": "en", "original_title": "Straight Outta Compton", "genre_ids": [18, 10402], "backdrop_path": "/fdDTA06o5e7MRXnTGAf4EygL2MJ.jpg", "adult": false, "overview": "In 1987, five young men, using brutally honest rhymes and hardcore beats, put their frustration and anger about life in the most dangerous place in America into the most powerful weapon they had: their music.  Taking us back to where it all began, Straight Outta Compton tells the true story of how these cultural rebels\u2014armed only with their lyrics, swagger, bravado and raw talent\u2014stood up to the authorities that meant to keep them down and formed the world\u2019s most dangerous group, N.W.A.  And as they spoke the truth that no one had before and exposed life in the hood, their voice ignited a social revolution that is still reverberating today.", "poster_path": "/X7S1RtotXOZNV7OlgCfh5VKZSB.jpg", "popularity": 21.041}, {"id": 4347, "video": false, "vote_count": 2233, "vote_average": 7.6, "title": "Atonement", "release_date": "2007-08-29", "original_language": "en", "original_title": "Atonement", "genre_ids": [18, 10749], "backdrop_path": "/6WZFwJOKyitCqWkIj52HB34wddU.jpg", "adult": false, "overview": "As a 13-year-old, fledgling writer Briony Tallis irrevocably changes the course of several lives when she accuses her older sister's lover of a crime he did not commit.", "poster_path": "/quaWuwYZd8IbZMCOhW3CZEvyCWJ.jpg", "popularity": 23.857}, {"id": 319, "video": false, "vote_count": 1438, "vote_average": 7.5, "title": "True Romance", "release_date": "1993-09-09", "original_language": "en", "original_title": "True Romance", "genre_ids": [28, 80, 53, 10749], "backdrop_path": "/f0qqTEyVmmztypEMV3THRdnBjFj.jpg", "adult": false, "overview": "Clarence marries hooker Alabama, steals cocaine from her pimp, and tries to sell it in Hollywood, while the owners of the coke try to reclaim it.", "poster_path": "/xBO8R3CZfrJ9rrwrZoJ68PgJyAR.jpg", "popularity": 20.562}, {"adult": false, "backdrop_path": "/tBs9alJ2weUkOW83RkuBlz8Nlw6.jpg", "genre_ids": [18, 14], "id": 8967, "original_language": "en", "original_title": "The Tree of Life", "overview": "The impressionistic story of a Texas family in the 1950s. The film follows the life journey of the eldest son, Jack, through the innocence of childhood to his disillusioned adult years as he tries to reconcile a complicated relationship with his father. Jack finds himself a lost soul in the modern world, seeking answers to the origins and meaning of life while questioning the existence of faith.", "poster_path": "/ptDOdfOg0srtk4TGdeYbLqxv2nd.jpg", "release_date": "2011-05-18", "title": "The Tree of Life", "video": false, "vote_average": 6.6, "vote_count": 1905, "popularity": 14.646}], "total_pages": 139, "total_results": 2766}, "recommendations": {"page": 1, "results": [{"id": 146030, "video": false, "vote_count": 5, "vote_average": 6.4, "title": "Summer", "release_date": "1976-05-10", "original_language": "et", "original_title": "Suvi", "genre_ids": [35, 18], "backdrop_path": "/uzD5Q660vEKJQxa07vHrhYMM1Fp.jpg", "adult": false, "overview": "Characters familiar from Kevade are now in their 20s. In the beginning of the 20th century, Joosep Toots has returned from Russia, where he learned agriculture. He wants to start reforming his father's farm, \u00dclesoo. At the same time, he's competing with Kiir to win the love of Teele. Teele has stated that she agrees to marry with a farmer only. So Kiir decides to go to Russia to learn agriculture too.", "poster_path": "/zZlgmEtaj0oHciHpsTKonB4AHkS.jpg", "popularity": 0.613}, {"adult": false, "backdrop_path": "/mJ8AimjSkFfmRCKVZNCkmtOmQPO.jpg", "genre_ids": [99], "id": 250667, "original_language": "en", "original_title": "Private Violence", "overview": "One in four women experience violence in their homes. Have you ever asked, \u201cWhy doesn't she just leave?\u201d Private Violence shatters the brutality of our logic and intimately reveals the stories of two women: Deanna Walters, who transforms from victim to survivor, and Kit Gruelle, who advocates for justice.", "poster_path": "/rg7a2U0VzrcRhF6DbxfFcuDIaXy.jpg", "release_date": "2014-01-19", "title": "Private Violence", "video": false, "vote_average": 7.0, "vote_count": 4, "popularity": 2.286}, {"id": 46860, "video": false, "vote_count": 6, "vote_average": 6.4, "title": "Georgica", "release_date": "1998-10-14", "original_language": "en", "original_title": "Georgica", "genre_ids": [18], "backdrop_path": "/m4pLttuwiIWp4bd1N5sFlW9swaQ.jpg", "adult": false, "overview": "Quiet Tarkovskian drama about an old man who lives alone on a deserted island which the Soviet fighter planes use for nighttime target practicing. A young mute boy is sent from the mainland to keep him company. Both are haunted by memories, the boy about his mother and the old man about his younger days as a missionary in Africa.", "poster_path": "/bj5MIeUHReP92oDwm3gLW8ntk3e.jpg", "popularity": 2.204}, {"adult": false, "backdrop_path": null, "genre_ids": [18, 53], "id": 157909, "original_language": "en", "original_title": "Show Me", "overview": "When two squeegee kids descend upon Sarah and her luxury sedan, the fuse is lit on a tense cat and mouse tale of captors and captives. Sarah is forced to continue her trip to an isolated cottage where the twisted trio bait and entice one another in a reckless search for truth.", "poster_path": "/jWCzOcMVmVCGwsK5tHsUIsFd2Ic.jpg", "release_date": "2004-09-23", "title": "Show Me", "video": false, "vote_average": 5.6, "vote_count": 4, "popularity": 2.74}, {"adult": false, "backdrop_path": "/cNDzFcjWwPuACp4YmOWDQUWomJ4.jpg", "genre_ids": [10749, 18, 35], "id": 37079, "original_language": "en", "original_title": "God's Little Acre", "overview": "In the 1950s, a poor Georgia cotton farmer and his sons search for the gold presumably buried on the farm by their grandfather but problems related to poverty, marital infidelity, unemployment and booze threaten to destroy their family.", "poster_path": "/3X0IKivOxtWFfwFKmp3SS5MAVzo.jpg", "release_date": "1958-09-23", "title": "God's Little Acre", "video": false, "vote_average": 6.2, "vote_count": 10, "popularity": 4.205}, {"adult": false, "backdrop_path": null, "genre_ids": [18, 10751], "id": 280219, "original_language": "et", "original_title": "Naerata ometi", "overview": "Well, Come On, Smile focuses on a girl who runs from an orphanage. The film presents a sobering depiction of newly built urban environs and addresses formerly taboo problems such as alcoholism.", "poster_path": "/k6VVwsRLQDwAnrjkNTB281wXci9.jpg", "release_date": "1985-01-01", "title": "Well, Come On, Smile", "video": false, "vote_average": 9.0, "vote_count": 3, "popularity": 1.021}, {"adult": false, "backdrop_path": "/2E27m5d7hAAlPZGldvXXCfXOVEw.jpg", "genre_ids": [18], "id": 63367, "original_language": "en", "original_title": "In Our Name", "overview": "Suzy's a British soldier, born and bred, but fitting back into civilian life after fighting in Iraq isn't easy. Haunted by the responsibility she feels for the death of an Iraqi child, she becomes obsessed with the safety of her own daughter, feeling the need to protect her against a threat that doesn't seem to exist. As Suzy's paranoia builds, her behaviour becomes more and more erratic, until finally, she puts her own child in serious danger.", "poster_path": "/hA0FZTZAE4o4FqQULZXgSAjlanZ.jpg", "release_date": "2010-09-10", "title": "In Our Name", "video": false, "vote_average": 5.4, "vote_count": 7, "popularity": 2.474}, {"id": 47150, "video": false, "vote_count": 6, "vote_average": 7.1, "title": "The Last Relic", "release_date": "1969-01-01", "original_language": "et", "original_title": "Viimne reliikvia", "genre_ids": [12, 36, 10749], "backdrop_path": "/1NsCoT57vKg9q3wM18s3D07sCM6.jpg", "adult": false, "overview": "A medieval love story with lots of adventures. The times are troubled - there's a revolt of peasants going on. To secure its safety a monastery chases for a relics of a holy Brigitte. A nobleman promises to get it if he gets beautiful Agnes as a reward. But she fells in love with a handsome adventurer. The monastery has to act shrewd now and play double game. The movie is still the best achievement of the Estonian cinema. Based on a novel.", "poster_path": "/fRoFU97pWHDD7DYyPmLfIFSCnhM.jpg", "popularity": 3.097}, {"id": 46809, "video": false, "vote_count": 11, "vote_average": 7.0, "title": "Spring", "release_date": "1969-12-20", "original_language": "et", "original_title": "Kevade", "genre_ids": [35, 18], "backdrop_path": "/o11VF3ZKp4gSwb9Ia6CylkMjScj.jpg", "adult": false, "overview": "Semi-autobiographical story by Oskar Luts about friendship, love and life in a small Estonian country boarding school in the late 1800s. Followed by Suvi (1976) and S\u00fcgis (1990).", "poster_path": "/pR4WgogBEjvlxIrjFToiInWEXhQ.jpg", "popularity": 2.672}, {"adult": false, "backdrop_path": "/jdd0GyyLRzY3gtNatlhhxdf6uqB.jpg", "genre_ids": [18, 10749], "id": 84847, "original_language": "en", "original_title": "Cinderella Liberty", "overview": "A lonely Navy sailor falls in love with a hooker and becomes a surrogate father figure for her son during an extended liberty due to his service records being lost.", "poster_path": "/9aHpiMBu25K7LcA4VWPu7wt8vOO.jpg", "release_date": "1973-12-18", "title": "Cinderella Liberty", "video": false, "vote_average": 7.4, "vote_count": 8, "popularity": 2.984}, {"adult": false, "backdrop_path": "/4NN2KTdzw3AUrH93cr5t3x7anqV.jpg", "genre_ids": [35, 18], "id": 46900, "original_language": "en", "original_title": "Stiilipidu", "overview": "Three women start a costume renting company after losing their jobs.", "poster_path": "/wqM1sKBZMK9aQi1jrAjvLOmsKU6.jpg", "release_date": "2005-04-14", "title": "Shop of Dreams", "video": false, "vote_average": 5.5, "vote_count": 5, "popularity": 2.295}, {"adult": false, "backdrop_path": "/cM5RAwQ5o46EgZFKTsfeyLrj1pZ.jpg", "genre_ids": [18], "id": 49969, "original_language": "en", "original_title": "High Tide", "overview": "Story about a backup singer for an Elvis impersonator who re-enters her past when she leaves a tour in a small town and finds her daughter in a mobile home park.", "poster_path": "/52g186f0h4vpm0gMWJPfAuEjlsm.jpg", "release_date": "1987-07-30", "title": "High Tide", "video": false, "vote_average": 7.1, "vote_count": 7, "popularity": 1.751}, {"adult": false, "backdrop_path": "/vKu1PYI551ajAiYRbE7iWUB460R.jpg", "genre_ids": [12, 35, 10751], "id": 70179, "original_language": "et", "original_title": "Lammas all paremas nurgas", "overview": "A warm movie about two boys, who discover a secret of a painting that was considered to be lost. The adventures begin, when a boss of a bunch of criminals finds out about the painting.", "poster_path": "/lARIpW5l6KjUlgWBBf5jkRAm0c5.jpg", "release_date": "1992-12-18", "title": "Lamb in the Down Right Corner", "video": false, "vote_average": 7.5, "vote_count": 4, "popularity": 1.4}, {"id": 35275, "video": false, "vote_count": 13, "vote_average": 6.4, "title": "Mame", "release_date": "1974-03-07", "original_language": "en", "original_title": "Mame", "genre_ids": [35, 10402], "backdrop_path": "/jqDIeGM1s12DXGvPruuAtG7xSBx.jpg", "adult": false, "overview": "The film focuses on eccentric Mame Dennis, whose madcap life is disrupted when her deceased brother's son Patrick is entrusted to her care.", "poster_path": "/blGXZvYZ58pXmPx6cBylmgtRM3Z.jpg", "popularity": 3.53}, {"adult": false, "backdrop_path": "/hELR1WybcUbzFVihOYrRzgkarEv.jpg", "genre_ids": [18, 9648], "id": 47944, "original_language": "en", "original_title": "Without a Trace", "overview": "Based on the case of young New Yorker Etan Patz, who disappeared in the early 1980s, this film casts Kate Nelligan as the distraught mother who lashes out at the police (in the person of a relentless detective played by Judd Hirsch), who make her and her husband suspects, even as she hounds them to find her child and drives away her husband (David Dukes) and friends (including Stockard Channing) with her intensity and single-mindedness. Squandered on a Hollywood ending that doesn't square with the real case: Etan Patz was never found.", "poster_path": "/clxUXfBiFphYVYEINUOolKc2rwX.jpg", "release_date": "1983-02-04", "title": "Without a Trace", "video": false, "vote_average": 5.5, "vote_count": 13, "popularity": 5.678}, {"id": 260026, "video": false, "vote_count": 6, "vote_average": 7.8, "title": "Bumpy", "release_date": "1981-01-01", "original_language": "et", "original_title": "Nukitsamees", "genre_ids": [14, 10402, 10751], "backdrop_path": "/psmuU5noDFXB8sePi8oUSnfkvsh.jpg", "adult": false, "overview": "Nukitsamees is a family musical somewhat echoing the fairy tale of Hansel and Gretel. Brother and sister (Kusti and Iti) get lost in a forest while picking strawberries and are captured by an evil forest hag. They are made to work for him. The hag has a son called Bumpy whom Iti befriends. They get a chance to escape, taking Bumpy with them.", "poster_path": "/yewMDgxJyVeQhndL9NUIBhsQq2k.jpg", "popularity": 1.453}, {"id": 40029, "video": false, "vote_count": 7, "vote_average": 5.3, "title": "The Bamboo House of Dolls", "release_date": "1973-12-21", "original_language": "zh", "original_title": "\u5973\u96c6\u4e2d\u8425", "genre_ids": [28, 18, 27, 10752], "backdrop_path": "/rydB39mATwyd6rnvwbpuoUfmWXu.jpg", "adult": false, "overview": "A nurse in a Japanese women's POW camp during World War II masterminds an escapee.", "poster_path": "/nh6ogIysyaL3zsf26I49me530eN.jpg", "popularity": 10.061}], "total_pages": 1, "total_results": 17}, "credits": {"cast": [{"cast_id": 2, "character": "May", "credit_id": "52fe4985c3a36847f819eb0d", "gender": 1, "id": 77287, "name": "Anne Reid", "order": 0, "profile_path": "/6YgtxvIE1NXZCLMJs4ryQjCiZPI.jpg"}, {"cast_id": 6, "character": "Darren", "credit_id": "52fe4985c3a36847f819eb1d", "gender": 2, "id": 8784, "name": "Daniel Craig", "order": 1, "profile_path": "/vnfJWpeFKbjwfqcpRWoVPZIkltY.jpg"}, {"cast_id": 3, "character": "Toots", "credit_id": "52fe4985c3a36847f819eb11", "gender": 2, "id": 386, "name": "Peter Vaughan", "order": 2, "profile_path": "/z9ZplbTA1ojYhgZ8kJUKKhsJ7Gs.jpg"}, {"cast_id": 4, "character": "Bobby", "credit_id": "52fe4985c3a36847f819eb15", "gender": 2, "id": 978, "name": "Steven Mackintosh", "order": 3, "profile_path": "/3TQVLNfMiiBAcoaCbmWckxXqagN.jpg"}, {"cast_id": 5, "character": "Paula", "credit_id": "52fe4985c3a36847f819eb19", "gender": 2, "id": 75063, "name": "Cathryn Bradshaw", "order": 4, "profile_path": null}, {"cast_id": 7, "character": "Helen", "credit_id": "58a826e7c3a36866410064f9", "gender": 1, "id": 145632, "name": "Anna Wilson-Jones", "order": 5, "profile_path": "/Anj9obNL0R8PTD1gVcYDWAfZlSv.jpg"}, {"cast_id": 8, "character": "Au Pair", "credit_id": "58a82704925141565d006f8e", "gender": 0, "id": 1760359, "name": "Danira Govich", "order": 6, "profile_path": null}, {"cast_id": 9, "character": "Polish Cleaner", "credit_id": "58a8271492514156690065e5", "gender": 1, "id": 32060, "name": "Izabella Telezynska", "order": 7, "profile_path": "/4qBsAapAXkRBb2MRywd6QoS4Pbv.jpg"}, {"cast_id": 10, "character": "Bruce", "credit_id": "58a82723925141565d006fb1", "gender": 2, "id": 31923, "name": "Oliver Ford Davies", "order": 8, "profile_path": "/7fpNxQYZ85oRdnKWxPzQfURFkFT.jpg"}, {"cast_id": 11, "character": "Estate Agent", "credit_id": "58a8273ac3a3686660006f97", "gender": 0, "id": 1413045, "name": "Jonah Coombes", "order": 9, "profile_path": null}], "crew": [{"credit_id": "52fe4985c3a36847f819eb09", "department": "Directing", "gender": 2, "id": 7017, "job": "Director", "name": "Roger Michell", "profile_path": "/zDjSgsAY44QJljrvzIZWnWauqlg.jpg"}]}}