{"adult": false, "backdrop_path": "/jl2WoGLqAMQI8ornrIk6U9kMnCm.jpg", "belongs_to_collection": null, "budget": 0, "genres": [{"id": 80, "name": "Crime"}, {"id": 18, "name": "Drama"}, {"id": 53, "name": "Thriller"}], "homepage": null, "id": 60033, "imdb_id": "tt0117898", "original_language": "en", "original_title": "This World, Then the Fireworks", "overview": "Marty Lakewood is a reporter forced to leave Chicago and his family because he had uncovered too much police corruption. He returns to his small home town on the California coast to his ailing mother and prostitute sister, with whom he had an incestuous affair. Being short of money, he seduces a woman cop in order to sell her house.", "popularity": 3.905, "poster_path": "/vXO9T4rbJFVRF6BbABHe7VKJdj9.jpg", "production_companies": [], "production_countries": [{"iso_3166_1": "US", "name": "United States of America"}], "release_date": "1997-07-11", "revenue": 51618, "runtime": 100, "spoken_languages": [{"iso_639_1": "en", "name": "English"}], "status": "Released", "tagline": "Meet Marty and Carol. Two people who are very good at being bad.", "title": "This World, Then the Fireworks", "video": false, "vote_average": 4.0, "vote_count": 4, "keywords": {"keywords": [{"id": 207268, "name": "neo-noir"}]}, "similar": {"page": 1, "results": [{"id": 949, "video": false, "vote_count": 3610, "vote_average": 7.8, "title": "Heat", "release_date": "1995-12-15", "original_language": "en", "original_title": "Heat", "genre_ids": [28, 80, 18, 53], "backdrop_path": "/7RRuRcGuWkZGuRyYugfXn0Fgrrr.jpg", "adult": false, "overview": "Obsessive master thief, Neil McCauley leads a top-notch crew on various daring heists throughout Los Angeles while determined detective, Vincent Hanna pursues him without rest. Each man recognizes and respects the ability and the dedication of the other even though they are aware their cat-and-mouse game may end in violence.", "poster_path": "/6pmLVffM9jEYK7VqDJqPblMxfEY.jpg", "popularity": 21.48}, {"adult": false, "backdrop_path": "/uCjCNaxLyLkcwBq4aOHOeiKKwPE.jpg", "genre_ids": [35, 10749, 80, 18, 9648], "id": 171274, "original_language": "en", "original_title": "Inherent Vice", "overview": "In Los Angeles at the turn of the 1970s, drug-fueled detective Larry \"Doc\" Sportello investigates the disappearance of an ex-girlfriend.", "poster_path": "/2fCg6FORkgRLpFIKlUg4gULIn1u.jpg", "release_date": "2014-12-25", "title": "Inherent Vice", "video": false, "vote_average": 6.6, "vote_count": 1534, "popularity": 25.677}, {"id": 5236, "video": false, "vote_count": 1560, "vote_average": 7.2, "title": "Kiss Kiss Bang Bang", "release_date": "2005-09-05", "original_language": "en", "original_title": "Kiss Kiss Bang Bang", "genre_ids": [28, 35, 80], "backdrop_path": "/wGoyTXBDWHh2V7Jft0R9A0HdKHA.jpg", "adult": false, "overview": "A petty thief posing as an actor is brought to Los Angeles for an unlikely audition and finds himself in the middle of a murder investigation along with his high school dream girl and a detective who's been training him for his upcoming role...", "poster_path": "/5Lif1qGiyaF8OqG9lR3eqzeEC3S.jpg", "popularity": 13.967}, {"id": 1847, "video": false, "vote_count": 259, "vote_average": 7.4, "title": "The Long Goodbye", "release_date": "1973-03-07", "original_language": "en", "original_title": "The Long Goodbye", "genre_ids": [80, 18, 9648, 53], "backdrop_path": "/brm75bRffmi2SlsUmsHUxUVI1Hg.jpg", "adult": false, "overview": "Detective Philip Marlowe tries to help a friend who is accused of murdering his wife.", "poster_path": "/oBhUK54yBJ0aH6u9zCzSV5iV7OP.jpg", "popularity": 10.68}, {"id": 320, "video": false, "vote_count": 2528, "vote_average": 6.9, "title": "Insomnia", "release_date": "2002-05-24", "original_language": "en", "original_title": "Insomnia", "genre_ids": [80, 9648, 53], "backdrop_path": "/p8UHSddGu2frGk0nCkuPjDemjka.jpg", "adult": false, "overview": "Two Los Angeles homicide detectives are dispatched to a northern town where the sun doesn't set to investigate the methodical murder of a local teen.", "poster_path": "/zb0D3vfjcPFvuyHp1mFPOIcYJWH.jpg", "popularity": 17.55}, {"id": 2153, "video": false, "vote_count": 176, "vote_average": 7.2, "title": "The Driver", "release_date": "1978-06-08", "original_language": "en", "original_title": "The Driver", "genre_ids": [28, 80, 18, 53], "backdrop_path": "/9s76McxDHYsfh66bIv7LLvl5fD2.jpg", "adult": false, "overview": "The Driver specializes in driving getaway cars for robberies. His exceptional talent has prevented him from being caught yet. After another successful flight from the police a self-assured detective makes it his primary goal to catch the Driver. He promises pardons to a gang if they help to convict him in a set-up robbery. The Driver seeks help from The Player to mislead the detective.", "poster_path": "/sf2hoHenR9lBP5wKVUAkZFAsXgp.jpg", "popularity": 9.13}, {"adult": false, "backdrop_path": "/pPKAcvCYcQWx4slftwnAssvEuBw.jpg", "genre_ids": [12, 9648, 10749, 53], "id": 513285, "original_language": "en", "original_title": "Trouble Is My Business", "overview": "Private eye Roland Drake cracks cases and romances femme fatales in 1940's Los Angeles while corrupt cop Det Barry Tate rules the city. A tale told in the classic style of film noir. Drake has fallen on hard times in a harsh world. He has been evicted from his office and disgraced by a missing persons case. Ruined in the public eye and with the police. it seems like it's all over for Roland Drake. Then, redemption walks in - with curves. The owner of those curves is a sexy, dark haired beauty named Katherine Montemar. She wants his help. The chemistry is immediate and her concern for the disappearance of her family members pulls him into her case - and into bed.", "poster_path": "/2o4z89Q6YsEniOboIvRDKVNnuPw.jpg", "release_date": "2018-04-03", "title": "Trouble Is My Business", "video": false, "vote_average": 7.8, "vote_count": 6, "popularity": 4.598}, {"id": 77, "video": false, "vote_count": 8682, "vote_average": 8.2, "title": "Memento", "release_date": "2000-10-11", "original_language": "en", "original_title": "Memento", "genre_ids": [9648, 53], "backdrop_path": "/q2CtXYjp9IlnfBcPktNkBPsuAEO.jpg", "adult": false, "overview": "Leonard Shelby is tracking down the man who raped and murdered his wife. The difficulty of locating his wife's killer, however, is compounded by the fact that he suffers from a rare, untreatable form of short-term memory loss. Although he can recall details of life before his accident, Leonard cannot remember what happened fifteen minutes ago, where he's going, or why.", "poster_path": "/fQMSaP88cf1nz4qwuNEEFtazuDM.jpg", "popularity": 23.818}, {"adult": false, "backdrop_path": "/t3OZS8yMs0NL4YgWWc04eXHTn1X.jpg", "genre_ids": [28, 80, 53], "id": 984, "original_language": "en", "original_title": "Dirty Harry", "overview": "When a madman dubbed 'Scorpio' terrorizes San Francisco, hard-nosed cop, Harry Callahan \u2013 famous for his take-no-prisoners approach to law enforcement \u2013 is tasked with hunting down the psychopath. Harry eventually collars Scorpio in the process of rescuing a kidnap victim, only to see him walk on technicalities. Now, the maverick detective is determined to nail the maniac himself.", "poster_path": "/2TADKc4GMMPdMrLXj0xJVgTvZJM.jpg", "release_date": "1971-12-21", "title": "Dirty Harry", "video": false, "vote_average": 7.5, "vote_count": 1172, "popularity": 15.928}, {"id": 856, "video": false, "vote_count": 3247, "vote_average": 7.4, "title": "Who Framed Roger Rabbit", "release_date": "1988-06-21", "original_language": "en", "original_title": "Who Framed Roger Rabbit", "genre_ids": [16, 35, 80, 14, 10751], "backdrop_path": "/9podqGmd36AJHO13HQIQHQZRTJC.jpg", "adult": false, "overview": "'Toon star Roger is worried that his wife Jessica is playing pattycake with someone else, so the studio hires detective Eddie Valiant to snoop on her. But the stakes are quickly raised when Marvin Acme is found dead and Roger is the prime suspect.", "poster_path": "/lYfRc57Kx9VgLZ48iulu0HKnM15.jpg", "popularity": 22.366}, {"id": 78, "video": false, "vote_count": 8361, "vote_average": 7.9, "title": "Blade Runner", "release_date": "1982-06-25", "original_language": "en", "original_title": "Blade Runner", "genre_ids": [18, 878, 53], "backdrop_path": "/eIi3klFf7mp3oL5EEF4mLIDs26r.jpg", "adult": false, "overview": "In the smog-choked dystopian Los Angeles of 2019, blade runner Rick Deckard is called out of retirement to terminate a quartet of replicants who have escaped to Earth seeking their creator for a way to extend their short life spans.", "poster_path": "/vfzE3pjE5G7G7kcZWrA3fnbZo7V.jpg", "popularity": 34.149}, {"adult": false, "backdrop_path": "/cLGKawjQ5tUJCuDyR0OnGYT4fyf.jpg", "genre_ids": [18, 53, 80], "id": 146233, "original_language": "en", "original_title": "Prisoners", "overview": "When Keller Dover's daughter and her friend go missing, he takes matters into his own hands as the police pursue multiple leads and the pressure mounts. But just how far will this desperate father go to protect his family?", "poster_path": "/yAhqW57pwMAsCgmZpM5zSIVQVTh.jpg", "release_date": "2013-09-18", "title": "Prisoners", "video": false, "vote_average": 8.0, "vote_count": 6408, "popularity": 22.476}, {"id": 242582, "video": false, "vote_count": 6506, "vote_average": 7.7, "title": "Nightcrawler", "release_date": "2014-10-23", "original_language": "en", "original_title": "Nightcrawler", "genre_ids": [80, 18, 53], "backdrop_path": "/gktL2rfE7d1xrwPSSTohxLOjLSs.jpg", "adult": false, "overview": "When Lou Bloom, desperate for work, muscles into the world of L.A. crime journalism, he blurs the line between observer and participant to become the star of his own story. Aiding him in his effort is Nina, a TV-news veteran.", "poster_path": "/8oPY6ULFOTbAEskySNhgsUIN4fW.jpg", "popularity": 35.295}, {"adult": false, "backdrop_path": "/kQYBOmJHSUzxeY7VnUXo4t4WIl7.jpg", "genre_ids": [80, 18, 9648, 53], "id": 829, "original_language": "en", "original_title": "Chinatown", "overview": "Private eye Jake Gittes lives off of the murky moral climate of sunbaked, pre-World War II Southern California. Hired by a beautiful socialite to investigate her husband's extra-marital affair, Gittes is swept into a maelstrom of double dealings and deadly deceits, uncovering a web of personal and political scandals that come crashing together.", "poster_path": "/iIHO6FzF6lL4mA90rrmk3Y705XS.jpg", "release_date": "1974-06-20", "title": "Chinatown", "video": false, "vote_average": 7.9, "vote_count": 2005, "popularity": 18.348}, {"adult": false, "backdrop_path": "/77ElMccPnTMPouRxSdbJ4nEjf69.jpg", "genre_ids": [35, 80], "id": 115, "original_language": "en", "original_title": "The Big Lebowski", "overview": "Jeffrey \"The Dude\" Lebowski, a Los Angeles slacker who only wants to bowl and drink White Russians, is mistaken for another Jeffrey Lebowski, a wheelchair-bound millionaire, and finds himself dragged into a strange series of events involving nihilists, adult film producers, ferrets, errant toes, and large sums of money.", "poster_path": "/qiE3ovg9TPylHReZjizQ40LsKZV.jpg", "release_date": "1998-03-06", "title": "The Big Lebowski", "video": false, "vote_average": 7.9, "vote_count": 6427, "popularity": 26.91}, {"id": 2118, "video": false, "vote_count": 2558, "vote_average": 7.8, "title": "L.A. Confidential", "release_date": "1997-09-19", "original_language": "en", "original_title": "L.A. Confidential", "genre_ids": [80, 9648], "backdrop_path": "/hNIzJtfkidpgER4jDQbmuK8Ebgn.jpg", "adult": false, "overview": "Three detectives in the corrupt and brutal L.A. police force of the 1950s use differing methods to uncover a conspiracy behind the shotgun slayings of the patrons at an all-night diner.", "poster_path": "/rIXzJCAvyd3Ci8ipylDQ5wUKqwh.jpg", "popularity": 15.929}, {"id": 449443, "video": false, "vote_count": 1469, "vote_average": 6.6, "title": "Den of Thieves", "release_date": "2018-01-18", "original_language": "en", "original_title": "Den of Thieves", "genre_ids": [28, 80, 53], "backdrop_path": "/s3FDBLH4qc1IcjexB05Qvbn3wxO.jpg", "adult": false, "overview": "A gritty crime saga which follows the lives of an elite unit of the LA County Sheriff\u2019s Dept. and the state\u2019s most successful bank robbery crew as the outlaws plan a seemingly impossible heist on the Federal Reserve Bank.", "poster_path": "/AfybH6GbGFw1F9bcETe2yu25mIE.jpg", "popularity": 30.821}, {"id": 807, "video": false, "vote_count": 11928, "vote_average": 8.3, "title": "Se7en", "release_date": "1995-09-22", "original_language": "en", "original_title": "Se7en", "genre_ids": [80, 9648, 53], "backdrop_path": "/A0WKbRIojF9DUWG4XLCmg5JK6I5.jpg", "adult": false, "overview": "Two homicide detectives are on a desperate hunt for a serial killer whose crimes are based on the \"seven deadly sins\" in this dark and haunting film that takes viewers from the tortured remains of one victim to the next. The seasoned Det. Sommerset researches each sin in an effort to get inside the killer's mind, while his novice partner, Mills, scoffs at his efforts to unravel the case.", "poster_path": "/8zw8IL4zEPjkh8Aysdcd0FwGMb0.jpg", "popularity": 39.113}, {"id": 535292, "video": false, "vote_count": 109, "vote_average": 6.5, "title": "21 Bridges", "release_date": "2019-10-24", "original_language": "en", "original_title": "21 Bridges", "genre_ids": [28, 80, 18, 53], "backdrop_path": "/blUCzzkFNWrur18J0BvIYBdbquv.jpg", "adult": false, "overview": "A disgraced NYPD detective after being thrust into a citywide manhunt for a cop killer, is given a shot at redemption.", "poster_path": "/bSN9SysoRBMwJKNkfOlQlCw2YQO.jpg", "popularity": 30.138}, {"id": 402, "video": false, "vote_count": 1774, "vote_average": 6.7, "title": "Basic Instinct", "release_date": "1992-03-20", "original_language": "en", "original_title": "Basic Instinct", "genre_ids": [9648, 53], "backdrop_path": "/bKdxJMqvr4wltzAQaieA6CTkaa9.jpg", "adult": false, "overview": "A police detective is in charge of the investigation of a brutal murder, in which a beautiful and seductive woman could be involved.", "poster_path": "/p1DHOfLFZmM567ePKfFNMV4mY92.jpg", "popularity": 22.419}], "total_pages": 70, "total_results": 1386}, "recommendations": {"page": 1, "results": [{"adult": false, "backdrop_path": "/w67d4saVd5CezcHDehx5K1m5DMo.jpg", "genre_ids": [99], "id": 147923, "original_language": "en", "original_title": "(A)sexual", "overview": "Facing a sex obsessed culture, a mountain of stereotypes and misconceptions, and a lack of social or scientific research, asexuals - people who experience no sexual attraction - struggle to claim their identity.", "poster_path": "/eSZjsHSPfGmjDyIOTrBckc2seM2.jpg", "release_date": "2011-01-01", "title": "(A)sexual", "video": false, "vote_average": 5.3, "vote_count": 13, "popularity": 3.095}], "total_pages": 1, "total_results": 1}, "credits": {"cast": [{"cast_id": 15, "character": "Marty Lakewood", "credit_id": "52fe4615c3a368484e07dc63", "gender": 2, "id": 1954, "name": "Billy Zane", "order": 0, "profile_path": "/lkwvmo7vVL8TpMCDLRoHjZIkJQ4.jpg"}, {"cast_id": 22, "character": "Carol Lakewood Morton", "credit_id": "52fe4615c3a368484e07dc7f", "gender": 1, "id": 11150, "name": "Gina Gershon", "order": 1, "profile_path": "/7Y6WzhtQafT4zeOdWllxc1uf33b.jpg"}, {"cast_id": 7, "character": "Marty Lakewood's Father", "credit_id": "52fe4614c3a368484e07dc43", "gender": 2, "id": 27321, "name": "Philip Locke", "order": 2, "profile_path": "/2vDIZPm3XB8GLlbkl8fTSf8Ilbr.jpg"}, {"cast_id": 8, "character": "Neighbour's wife (as Elisabeth Imboden)", "credit_id": "52fe4615c3a368484e07dc47", "gender": 0, "id": 545570, "name": "Elis Imboden", "order": 3, "profile_path": null}, {"cast_id": 9, "character": "Little Marty Lakewood", "credit_id": "52fe4615c3a368484e07dc4b", "gender": 2, "id": 174203, "name": "Christian Durango", "order": 4, "profile_path": "/5Sh3unzCNYYxr98XZuPhll9tlEW.jpg"}, {"cast_id": 10, "character": "Little Carol Lakewood", "credit_id": "52fe4615c3a368484e07dc4f", "gender": 0, "id": 545571, "name": "Sloan Cobb", "order": 5, "profile_path": null}, {"cast_id": 11, "character": "Younger Mom Lakewood", "credit_id": "52fe4615c3a368484e07dc53", "gender": 0, "id": 545572, "name": "Roberta Hanley", "order": 6, "profile_path": null}, {"cast_id": 12, "character": "Lou", "credit_id": "52fe4615c3a368484e07dc57", "gender": 2, "id": 91832, "name": "Robert Pentz", "order": 7, "profile_path": null}, {"cast_id": 13, "character": "Glenda", "credit_id": "52fe4615c3a368484e07dc5b", "gender": 0, "id": 545573, "name": "Marianna Alacchi", "order": 8, "profile_path": null}, {"cast_id": 14, "character": "Eugene", "credit_id": "52fe4615c3a368484e07dc5f", "gender": 0, "id": 545574, "name": "Orson Oblowitz", "order": 9, "profile_path": null}, {"cast_id": 16, "character": "Blues Musician", "credit_id": "52fe4615c3a368484e07dc67", "gender": 0, "id": 545575, "name": "Willy Cobbs", "order": 10, "profile_path": null}, {"cast_id": 17, "character": "Joe", "credit_id": "52fe4615c3a368484e07dc6b", "gender": 2, "id": 6396, "name": "Richard Edson", "order": 11, "profile_path": "/7YegwxrBppretnwGEEMxEI453Ef.jpg"}, {"cast_id": 18, "character": "Thug #1", "credit_id": "52fe4615c3a368484e07dc6f", "gender": 2, "id": 545576, "name": "Norman Max Maxwell", "order": 12, "profile_path": "/axTGrLHFH4jlWla9jIJAYWasHWJ.jpg"}, {"cast_id": 19, "character": "Thug #2", "credit_id": "52fe4615c3a368484e07dc73", "gender": 0, "id": 79651, "name": "Matt O'Toole", "order": 13, "profile_path": "/kNWX5D3SU9Z666M8OcOy5QUF3my.jpg"}, {"cast_id": 20, "character": "Bus Driver", "credit_id": "52fe4615c3a368484e07dc77", "gender": 2, "id": 176442, "name": "Mert Hatfield", "order": 14, "profile_path": null}, {"cast_id": 21, "character": "Mom Lakewood", "credit_id": "52fe4615c3a368484e07dc7b", "gender": 1, "id": 41689, "name": "Rue McClanahan", "order": 15, "profile_path": "/gYNGpRNqpnjDIUe7oaCFkPrYyZ2.jpg"}, {"cast_id": 23, "character": "Young Carol Lakewood", "credit_id": "52fe4615c3a368484e07dc83", "gender": 0, "id": 545577, "name": "Megan Leigh Brown", "order": 16, "profile_path": null}, {"cast_id": 24, "character": "Cousin Lyle", "credit_id": "52fe4615c3a368484e07dc87", "gender": 0, "id": 545578, "name": "Tom Keeley", "order": 17, "profile_path": null}, {"cast_id": 26, "character": "Tim", "credit_id": "52fe4615c3a368484e07dc8b", "gender": 0, "id": 174175, "name": "Thad Mace", "order": 18, "profile_path": null}, {"cast_id": 27, "character": "Ben", "credit_id": "52fe4615c3a368484e07dc8f", "gender": 0, "id": 174118, "name": "Jonathan Taylor Luthren", "order": 19, "profile_path": null}, {"cast_id": 28, "character": "Lois Archer", "credit_id": "52fe4615c3a368484e07dc93", "gender": 1, "id": 6726, "name": "Sheryl Lee", "order": 20, "profile_path": "/6mUGpZGzDiYevpWLM7AjlTN8UgV.jpg"}, {"cast_id": 29, "character": "Spindly Man (as Brian Gamble)", "credit_id": "52fe4615c3a368484e07dc97", "gender": 0, "id": 79230, "name": "Brian Keith Gamble", "order": 21, "profile_path": null}, {"cast_id": 30, "character": "Detective Harris", "credit_id": "52fe4615c3a368484e07dc9b", "gender": 2, "id": 5950, "name": "Seymour Cassel", "order": 22, "profile_path": "/atWyQvsLNjmXP5dxsOiaf5Qg9j.jpg"}, {"cast_id": 31, "character": "Minister", "credit_id": "52fe4615c3a368484e07dc9f", "gender": 0, "id": 545579, "name": "Terry Nienhuis", "order": 23, "profile_path": null}, {"cast_id": 32, "character": "Lt. Morgan", "credit_id": "52fe4615c3a368484e07dca3", "gender": 2, "id": 883, "name": "Will Patton", "order": 24, "profile_path": "/qpycaaWP1oUx1Wd2lMBfQtR7qDO.jpg"}, {"cast_id": 33, "character": "Mexican Doctor (as Val DeVargas)", "credit_id": "52fe4615c3a368484e07dca7", "gender": 2, "id": 94892, "name": "Valentin de Vargas", "order": 25, "profile_path": "/pbbUyCyMNnBX7OQDu6lyhtGQszI.jpg"}, {"cast_id": 34, "character": "Marine", "credit_id": "52fe4615c3a368484e07dcab", "gender": 0, "id": 91836, "name": "Dean Mumford", "order": 26, "profile_path": null}, {"cast_id": 35, "character": "Young Marty Lakewood", "credit_id": "52fe4615c3a368484e07dcaf", "gender": 2, "id": 1019727, "name": "Christopher Jones", "order": 27, "profile_path": "/2EuDwtnOIJgLlBZWwpWYia0rxz3.jpg"}], "crew": [{"credit_id": "52fe4614c3a368484e07dc21", "department": "Writing", "gender": 2, "id": 1725, "job": "Screenplay", "name": "Larry Gross", "profile_path": null}, {"credit_id": "5c01ef70c3a36865bc08ccd3", "department": "Production", "gender": 2, "id": 1725, "job": "Producer", "name": "Larry Gross", "profile_path": null}, {"credit_id": "5c01efedc3a3685a4b0813a5", "department": "Production", "gender": 2, "id": 1954, "job": "Executive Producer", "name": "Billy Zane", "profile_path": "/lkwvmo7vVL8TpMCDLRoHjZIkJQ4.jpg"}, {"credit_id": "5c01f083c3a368637008f5b5", "department": "Production", "gender": 1, "id": 5914, "job": "Casting", "name": "Mary Vernieu", "profile_path": "/rluDG0SLCvh3rVkMMp44C31iHIN.jpg"}, {"credit_id": "5c01efd19251410b92082135", "department": "Production", "gender": 1, "id": 5914, "job": "Associate Producer", "name": "Mary Vernieu", "profile_path": "/rluDG0SLCvh3rVkMMp44C31iHIN.jpg"}, {"credit_id": "52fe4614c3a368484e07dc27", "department": "Writing", "gender": 2, "id": 3335, "job": "Story", "name": "Jim Thompson", "profile_path": "/qPx9lEJkSrnP6n0Zvk8FWkqLMS5.jpg"}, {"credit_id": "5c01f0900e0a26360e08ba9c", "department": "Production", "gender": 1, "id": 5507, "job": "Casting", "name": "Ronnie Yeskel", "profile_path": null}, {"credit_id": "5c01efdf925141111607b016", "department": "Production", "gender": 2, "id": 6887, "job": "Producer", "name": "Brad Wyman", "profile_path": "/7J6N93GqMLfbbaQcoRAENsUct5M.jpg"}, {"credit_id": "5c01f0e10e0a2633a6087ae2", "department": "Costume & Make-Up", "gender": 0, "id": 6924, "job": "Costume Design", "name": "Dan Moore", "profile_path": null}, {"credit_id": "5c01f018925141111607b04d", "department": "Editing", "gender": 0, "id": 13223, "job": "Color Timer", "name": "Jim Passon", "profile_path": null}, {"credit_id": "52fe4614c3a368484e07dc39", "department": "Camera", "gender": 0, "id": 13931, "job": "Director of Photography", "name": "Tom Priestley Jr.", "profile_path": null}, {"credit_id": "5c01ef7fc3a3685c370826ba", "department": "Production", "gender": 2, "id": 17231, "job": "Producer", "name": "Chris Hanley", "profile_path": null}, {"credit_id": "5c01f0aa925141165408a070", "department": "Art", "gender": 0, "id": 37040, "job": "Production Design", "name": "Maia Javan", "profile_path": null}, {"credit_id": "5c01ef910e0a2629ce083b22", "department": "Production", "gender": 2, "id": 52134, "job": "Co-Producer", "name": "Frank K. Isaac", "profile_path": null}, {"credit_id": "52fe4614c3a368484e07dc3f", "department": "Editing", "gender": 1, "id": 57087, "job": "Editor", "name": "Emma E. Hickox", "profile_path": null}, {"credit_id": "5c01f076c3a368647609e90e", "department": "Production", "gender": 1, "id": 60503, "job": "Casting", "name": "Lisa Mae Fincannon", "profile_path": null}, {"credit_id": "5c01efb2925141111607afe5", "department": "Production", "gender": 0, "id": 60704, "job": "Executive Producer", "name": "Barr B. Potter", "profile_path": null}, {"credit_id": "5c01ef5d0e0a26360e08b8ab", "department": "Production", "gender": 0, "id": 77812, "job": "Co-Producer", "name": "Albert T. Dickerson III", "profile_path": "/wWqUN78FHZJ6ETxrckNXPDG9rfH.jpg"}, {"credit_id": "5c01f0280e0a265b2808e3cd", "department": "Editing", "gender": 0, "id": 80804, "job": "Assistant Editor", "name": "Carl Pedregal", "profile_path": null}, {"credit_id": "52fe4614c3a368484e07dc2d", "department": "Directing", "gender": 2, "id": 82829, "job": "Director", "name": "Michael Oblowitz", "profile_path": null}, {"credit_id": "52fe4614c3a368484e07dc33", "department": "Sound", "gender": 2, "id": 545569, "job": "Original Music Composer", "name": "Pete Rugolo", "profile_path": null}, {"credit_id": "5c01efc20e0a2636ce08ed7d", "department": "Production", "gender": 0, "id": 937527, "job": "Line Producer", "name": "Jeff Tanner", "profile_path": null}, {"credit_id": "5c01f156c3a368637008f680", "department": "Crew", "gender": 0, "id": 1196728, "job": "Post Production Supervisor", "name": "Stephen Eckelberry", "profile_path": null}, {"credit_id": "5c01f13fc3a36865bc08cf14", "department": "Crew", "gender": 0, "id": 1412766, "job": "Makeup Effects", "name": "Rick Pour", "profile_path": null}, {"credit_id": "5c01f127c3a368647609e9e3", "department": "Costume & Make-Up", "gender": 2, "id": 1419906, "job": "Prosthetics", "name": "Jeff Goodwin", "profile_path": null}, {"credit_id": "5c01f0fe9251411080086fe1", "department": "Costume & Make-Up", "gender": 0, "id": 1530857, "job": "Key Hair Stylist", "name": "Andre Blaise", "profile_path": null}, {"credit_id": "5c15296792514132c60acbd8", "department": "Art", "gender": 2, "id": 1648134, "job": "Title Designer", "name": "Dan Perri", "profile_path": null}, {"credit_id": "5c01efa0c3a368647609e7bd", "department": "Production", "gender": 0, "id": 1825347, "job": "Associate Producer", "name": "David Norton", "profile_path": null}, {"credit_id": "5c01f0b992514169ad08219c", "department": "Art", "gender": 0, "id": 2080015, "job": "Art Direction", "name": "Alison Sadler", "profile_path": null}, {"credit_id": "5c01f0cb9251411329081d07", "department": "Art", "gender": 0, "id": 2186465, "job": "Set Decoration", "name": "Chester A. Spier", "profile_path": null}, {"credit_id": "5c01f10c925141165408a111", "department": "Costume & Make-Up", "gender": 0, "id": 2186466, "job": "Makeup Artist", "name": "Brad Boles", "profile_path": null}]}}