{"adult": false, "backdrop_path": "/eLR66GKAZEg6O5ZxUjat8dzL96l.jpg", "belongs_to_collection": null, "budget": 0, "genres": [{"id": 99, "name": "Documentary"}, {"id": 36, "name": "History"}], "homepage": "https://www.history.com/specials/secrets-in-the-sky-the-untold-story-of-skunk-works", "id": 607847, "imdb_id": "tt10452178", "original_language": "en", "original_title": "Secrets in the Sky: The Untold Story of Skunk Works", "overview": "In 1943, in a circus tent in Burbank, CA, a bunch of revolutionary thinkers first gathered together in secrecy to build America's first jet fighter. They were rule benders, chance takers, corner cutters-people who believed that nothing was impossible. I", "popularity": 5.581, "poster_path": "/lWmr7tjnYkZv3srFclCzp2gnomc.jpg", "production_companies": [{"id": 105288, "logo_path": null, "name": "History (US)", "origin_country": ""}, {"id": 55062, "logo_path": null, "name": "First Row Films", "origin_country": ""}], "production_countries": [{"iso_3166_1": "US", "name": "United States of America"}], "release_date": "2019-06-09", "revenue": 0, "runtime": 90, "spoken_languages": [{"iso_639_1": "en", "name": "English"}], "status": "Released", "tagline": "", "title": "Secrets in the Sky: The Untold Story of Skunk Works", "video": false, "vote_average": 6.0, "vote_count": 1, "keywords": {"keywords": [{"id": 9682, "name": "history"}]}, "similar": {"page": 1, "results": [{"id": 300671, "video": false, "vote_count": 1700, "vote_average": 7.1, "title": "13 Hours: The Secret Soldiers of Benghazi", "release_date": "2016-01-13", "original_language": "en", "original_title": "13 Hours: The Secret Soldiers of Benghazi", "genre_ids": [28, 18, 36, 53, 10752], "backdrop_path": "/hY8myWhjSOUeeiPskhOfwwgaCwc.jpg", "adult": false, "overview": "An American Ambassador is killed during an attack at a U.S. compound in Libya as a security team struggles to make sense out of the chaos.", "poster_path": "/4gpW4MkRI0BB17GHOJzXq0WamDP.jpg", "popularity": 20.173}, {"id": 577332, "video": false, "vote_count": 7, "vote_average": 8.3, "title": "Panipat", "release_date": "2019-12-05", "original_language": "hi", "original_title": "P\u092a\u093e\u0928\u0940\u092a\u091f", "genre_ids": [28, 18, 36, 10752], "backdrop_path": "/jAubfxS4QpGI9nfNHckxa4Faitu.jpg", "adult": false, "overview": "During 18th century India, the Marathas emerged as the most powerful empire in the nation until the Afghan King Ahmad Shah Abdali plans to take over India. Sadashiv Rao Bhau is brought in to save the empire from the king which then leads to the third battle of Panipat.", "poster_path": "/z59Vr7l2ZFQPh76ooSQdXjW3YRo.jpg", "popularity": 6.956}, {"id": 369972, "video": false, "vote_count": 3001, "vote_average": 7.1, "title": "First Man", "release_date": "2018-10-11", "original_language": "en", "original_title": "First Man", "genre_ids": [18, 36], "backdrop_path": "/jrudoaXcoLyHRPdolyOGemXgPEs.jpg", "adult": false, "overview": "A look at the life of the astronaut, Neil Armstrong, and the legendary space mission that led him to become the first man to walk on the Moon on July 20, 1969.", "poster_path": "/i91mfvFcPPlaegcbOyjGgiWfZzh.jpg", "popularity": 27.464}, {"adult": false, "backdrop_path": "/3BY2I6iLunYRkkl8Hb3hZl8O9MQ.jpg", "genre_ids": [18, 36], "id": 76203, "original_language": "en", "original_title": "12 Years a Slave", "overview": "In the pre-Civil War United States, Solomon Northup, a free black man from upstate New York, is abducted and sold into slavery. Facing cruelty as well as unexpected kindnesses Solomon struggles not only to stay alive, but to retain his dignity. In the twelfth year of his unforgettable odyssey, Solomon\u2019s chance meeting with a Canadian abolitionist will forever alter his life.", "poster_path": "/kb3X943WMIJYVg4SOAyK0pmWL5D.jpg", "release_date": "2013-10-18", "title": "12 Years a Slave", "video": false, "vote_average": 7.9, "vote_count": 7315, "popularity": 21.97}, {"id": 665, "video": false, "vote_count": 1332, "vote_average": 7.7, "title": "Ben-Hur", "release_date": "1959-12-26", "original_language": "en", "original_title": "Ben-Hur", "genre_ids": [12, 36], "backdrop_path": "/uOQPSUGG3ZHiDg9ecN8irQNZ4T1.jpg", "adult": false, "overview": "Judah Ben-Hur, a Palestinian Jew, is battling the Roman empire at the time of Christ. His actions send him and his family into slavery, but an inspirational encounter with Jesus changes everything. He finally meets his rival in a justly famous chariot race and rescues his suffering family.", "poster_path": "/m4WQ1dBIrEIHZNCoAjdpxwSKWyH.jpg", "popularity": 19.591}, {"id": 676, "video": false, "vote_count": 3795, "vote_average": 6.8, "title": "Pearl Harbor", "release_date": "2001-05-21", "original_language": "en", "original_title": "Pearl Harbor", "genre_ids": [18, 36, 10749, 10752], "backdrop_path": "/cDctk61tUeQz4LX7tTFPknI28ea.jpg", "adult": false, "overview": "The lifelong friendship between Rafe McCawley and Danny Walker is put to the ultimate test when the two ace fighter pilots become entangled in a love triangle with beautiful Naval nurse Evelyn Johnson. But the rivalry between the friends-turned-foes is immediately put on hold when they find themselves at the center of Japan's devastating attack on Pearl Harbor on Dec. 7, 1941.", "poster_path": "/gzjMpcyV1RksWonaA87DZ8wQTH0.jpg", "popularity": 26.975}, {"id": 335578, "video": false, "vote_count": 769, "vote_average": 7.8, "title": "Land of Mine", "release_date": "2015-12-03", "original_language": "da", "original_title": "Under sandet", "genre_ids": [18, 36, 10752], "backdrop_path": "/vkzeh2G7Gwapo4J1eqGWRph2hCs.jpg", "adult": false, "overview": "In the days following the surrender of Germany in May 1945, a group of young German prisoners of war is handed over to the Danish authorities and subsequently sent to the West Coast, where they are ordered to remove the more than two million mines that the Germans had placed in the sand along the coast. With their bare hands, crawling around in the sand, the boys are forced to perform the dangerous work under the leadership of a Danish sergeant.", "poster_path": "/7TOYH2VDnYbXpBKlrkdQZUSC3Du.jpg", "popularity": 11.694}, {"id": 549559, "video": false, "vote_count": 205, "vote_average": 8.1, "title": "Apollo 11", "release_date": "2019-03-01", "original_language": "en", "original_title": "Apollo 11", "genre_ids": [99, 36], "backdrop_path": "/cRW5341t1y61XK7mrhTvwoodZz6.jpg", "adult": false, "overview": "A look at the Apollo 11 mission to land on the moon led by commander Neil Armstrong and pilot Buzz Aldrin.", "poster_path": "/woLMRroHyoTGoXyxdEeBJEYBFtu.jpg", "popularity": 16.318}, {"id": 324786, "video": false, "vote_count": 7336, "vote_average": 8.1, "title": "Hacksaw Ridge", "release_date": "2016-10-07", "original_language": "en", "original_title": "Hacksaw Ridge", "genre_ids": [18, 36, 10752], "backdrop_path": "/zBK4QZONMQXhcgaJv1YYTdCW7q9.jpg", "adult": false, "overview": "WWII American Army Medic Desmond T. Doss, who served during the Battle of Okinawa, refuses to kill people and becomes the first Conscientious Objector in American history to receive the Congressional Medal of Honor.", "poster_path": "/bndiUFfJxNd2fYx8XO610L9a07m.jpg", "popularity": 23.616}, {"id": 891, "video": false, "vote_count": 889, "vote_average": 7.8, "title": "All the President's Men", "release_date": "1976-04-04", "original_language": "en", "original_title": "All the President's Men", "genre_ids": [18, 36, 9648, 53], "backdrop_path": "/rqM0Uq57NNOpEx7BBk7FqBfGqzc.jpg", "adult": false, "overview": "In the run-up to the 1972 elections, Washington Post reporter Bob Woodward covers what seems to be a minor break-in at the Democratic Party National Headquarters. He is surprised to find top lawyers already on the defense case, and the discovery of names and addresses of Republican fund organizers on the accused further arouses his suspicions. After the editor of the Post runs with the story and assigns Woodward and Carl Bernstein to it, they find the trail leading higher and higher in the Republican Party\u2014and eventually into the White House itself.", "poster_path": "/jvXiGgWyBYDfQb44spH9JPTOmAZ.jpg", "popularity": 28.872}, {"id": 522162, "video": false, "vote_count": 208, "vote_average": 6.7, "title": "Midway", "release_date": "2019-11-06", "original_language": "en", "original_title": "Midway", "genre_ids": [28, 18, 36, 10752], "backdrop_path": "/xjP88DFPCQ81mbZHXFscyYtGskT.jpg", "adult": false, "overview": "MIDWAY centers on the Battle of Midway, a clash between the American fleet and the Imperial Japanese Navy which marked a pivotal turning point in the Pacific Theater during WWII. The film, based on the real-life events of this heroic feat, tells the story of the leaders and soldiers who used their instincts, fortitude and bravery to overcome the odds.", "poster_path": "/hj8pyoNnynGeJTAbl7jcLZO8Uhx.jpg", "popularity": 61.116}, {"id": 947, "video": false, "vote_count": 1588, "vote_average": 8.0, "title": "Lawrence of Arabia", "release_date": "1962-12-10", "original_language": "en", "original_title": "Lawrence of Arabia", "genre_ids": [12, 18, 36, 10752], "backdrop_path": "/lENerYvUcfl9GlolqA1emj5gb4k.jpg", "adult": false, "overview": "The story of British officer T.E. Lawrence's mission to aid the Arab tribes in their revolt against the Ottoman Empire during the First World War. Lawrence becomes a flamboyant, messianic figure in the cause of Arab unity but his psychological instability threatens to undermine his achievements.", "poster_path": "/j21UXCOq0EbV8EPTtmPn1CGePfB.jpg", "popularity": 17.37}, {"adult": false, "backdrop_path": "/9alS7FBSf8rvDLskpCRuKqAI2h5.jpg", "genre_ids": [18, 36], "id": 746, "original_language": "en", "original_title": "The Last Emperor", "overview": "A dramatic history of Pu Yi, the last of the Emperors of China, from his lofty birth and brief reign in the Forbidden City, the object of worship by half a billion people; through his abdication, his decline and dissolute lifestyle; his exploitation by the invading Japanese, and finally to his obscure existence as just another peasant worker in the People's Republic.", "poster_path": "/KTirnfG6FZLKWbm8Am3EEKmZDx.jpg", "release_date": "1987-10-21", "title": "The Last Emperor", "video": false, "vote_average": 7.6, "vote_count": 774, "popularity": 13.039}, {"id": 12698, "video": false, "vote_count": 132, "vote_average": 7.9, "title": "The Fog of War", "release_date": "2003-12-09", "original_language": "en", "original_title": "The Fog of War", "genre_ids": [99, 36, 10752], "backdrop_path": "/5Jsgx8bQ5430kshplPqhX7CYqmc.jpg", "adult": false, "overview": "Using archival footage, United States Cabinet conversation recordings, and an interview of the 85-year-old Robert McNamara, THE FOG OF WAR depicts his life, from working as a WWII whiz kid military officer, to being the Ford Motor Company's president, to managing the American Vietnam War, as defense secretary for presidents Kennedy and Johnson.", "poster_path": "/lvC97woqbzFbL6nS8v19LU8zfxh.jpg", "popularity": 9.43}, {"id": 446354, "video": false, "vote_count": 2839, "vote_average": 7.0, "title": "The Post", "release_date": "2017-12-22", "original_language": "en", "original_title": "The Post", "genre_ids": [18, 36], "backdrop_path": "/8sb4aBST28vN3rBz704XJczS0Ld.jpg", "adult": false, "overview": "A cover-up that spanned four U.S. Presidents pushed the country's first female newspaper publisher and a hard-driving editor to join an unprecedented battle between journalist and government. Inspired by true events.", "poster_path": "/h4XG3g6uMMPIBPjAoQhC2QIMdkl.jpg", "popularity": 19.347}, {"adult": false, "backdrop_path": "/4bHX7nAmjMiZO9eotJITyro0raw.jpg", "genre_ids": [18], "id": 376866, "original_language": "en", "original_title": "Jackie", "overview": "An account of the days of First Lady, Jacqueline Kennedy, in the immediate aftermath of John F. Kennedy's assassination in 1963.", "poster_path": "/iMkl2Akc1f4CSJCieVwczM4KjZR.jpg", "release_date": "2016-12-02", "title": "Jackie", "video": false, "vote_average": 6.5, "vote_count": 1554, "popularity": 17.637}, {"id": 8916, "video": false, "vote_count": 2873, "vote_average": 6.1, "title": "Antz", "release_date": "1998-10-02", "original_language": "en", "original_title": "Antz", "genre_ids": [12, 16, 35, 10751], "backdrop_path": "/kMfLkbVTsALj5eIu72jtwzDhVsV.jpg", "adult": false, "overview": "In this animated hit, a neurotic worker ant in love with a rebellious princess rises to unlikely stardom when he switches places with a soldier. Signing up to march in a parade, he ends up under the command of a bloodthirsty general. But he's actually been enlisted to fight against a termite army.", "poster_path": "/3biVcPu5hrfKUMC73sTFq17dmmS.jpg", "popularity": 19.964}, {"adult": false, "backdrop_path": "/xStFRUQtjdQWiZEGN80rgkhN0Kh.jpg", "genre_ids": [18, 878], "id": 11864, "original_language": "en", "original_title": "Enemy Mine", "overview": "A soldier from Earth crashlands on an alien world after sustaining battle damage. Eventually he encounters another survivor, but from the enemy species he was fighting; they band together to survive on this hostile world. In the end the human finds himself caring for his enemy in a completely unexpected way.", "poster_path": "/rOGOW5BnkT0Ccg7XEDmdBUBuw0K.jpg", "release_date": "1985-12-12", "title": "Enemy Mine", "video": false, "vote_average": 6.8, "vote_count": 456, "popularity": 12.134}, {"adult": false, "backdrop_path": "/pKawqrtCBMmxarft7o1LbEynys7.jpg", "genre_ids": [10752, 18, 28], "id": 228150, "original_language": "en", "original_title": "Fury", "overview": "In the last months of World War II, as the Allies make their final push in the European theatre, a battle-hardened U.S. Army sergeant named 'Wardaddy' commands a Sherman tank called 'Fury' and its five-man crew on a deadly mission behind enemy lines. Outnumbered and outgunned, Wardaddy and his men face overwhelming odds in their heroic attempts to strike at the heart of Nazi Germany.", "poster_path": "/fa4PxEPRKWRyjzYje1jM4m30qzd.jpg", "release_date": "2014-10-15", "title": "Fury", "video": false, "vote_average": 7.4, "vote_count": 7302, "popularity": 53.985}, {"adult": false, "backdrop_path": "/39iGTAyo60mk3KcMay2yYcLsUyP.jpg", "genre_ids": [53], "id": 11644, "original_language": "en", "original_title": "Blow Out", "overview": "Jack Terry is a master sound recordist who works on grade-B horror movies. Late one evening, he is recording sounds for use in his movies when he hears something unexpected through his sound equipment and records it. Curiosity gets the better of him when the media become involved, and he begins to unravel the pieces of a nefarious conspiracy. As he struggles to survive against his shadowy enemies and expose the truth, he does not know whom he can trust.", "poster_path": "/vt5d1gGPgkAKoKp127WPHjSJF3P.jpg", "release_date": "1981-07-24", "title": "Blow Out", "video": false, "vote_average": 7.4, "vote_count": 579, "popularity": 12.416}], "total_pages": 177, "total_results": 3535}, "recommendations": {"page": 1, "results": [], "total_pages": 1, "total_results": 0}, "credits": {"cast": [{"cast_id": 1, "character": "Kelly Johnson", "credit_id": "5cff90a4c3a3684f1b1f302c", "gender": 2, "id": 6065, "name": "Dennis Quaid", "order": 1, "profile_path": "/fSnnQg8y1LB9yHbn2WuEcUb8i9Y.jpg"}], "crew": [{"credit_id": "5cff90c8c3a3680cac212a42", "department": "Directing", "gender": 0, "id": 151052, "job": "Director", "name": "Rory Karpf", "profile_path": null}, {"credit_id": "5cff913b92514162bcb9ab7a", "department": "Production", "gender": 0, "id": 151052, "job": "Executive Producer", "name": "Rory Karpf", "profile_path": null}, {"credit_id": "5cff90d19251416f8ec14447", "department": "Writing", "gender": 0, "id": 151052, "job": "Writer", "name": "Rory Karpf", "profile_path": null}, {"credit_id": "5cff9115c3a3684adb1f4553", "department": "Production", "gender": 2, "id": 1222939, "job": "Executive Producer", "name": "Zachary Behr", "profile_path": null}, {"credit_id": "5cff91470e0a262576ccd52f", "department": "Production", "gender": 0, "id": 1257975, "job": "Executive Producer", "name": "Kristine Sabat", "profile_path": null}, {"credit_id": "5cff90fb92514142cabb2cd2", "department": "Camera", "gender": 0, "id": 1270948, "job": "Director of Photography", "name": "Al Francesco", "profile_path": null}, {"credit_id": "5cff90e80e0a263f96caf442", "department": "Editing", "gender": 0, "id": 1270949, "job": "Editor", "name": "Sol Horner", "profile_path": null}, {"credit_id": "5cff912d92514173ecbb2035", "department": "Production", "gender": 0, "id": 1281761, "job": "Producer", "name": "Rob Harvell", "profile_path": null}, {"credit_id": "5cff91210e0a26785ccceef9", "department": "Production", "gender": 0, "id": 1593848, "job": "Executive Producer", "name": "Jessica Conway", "profile_path": null}, {"credit_id": "5cff90b792514142cabb2c59", "department": "Directing", "gender": 0, "id": 1776974, "job": "Director", "name": "Jeff Cvitkovic", "profile_path": null}, {"credit_id": "5cff90df925141517fbb33b2", "department": "Editing", "gender": 0, "id": 1776974, "job": "Editor", "name": "Jeff Cvitkovic", "profile_path": null}, {"credit_id": "5cff91930e0a26785cccef4f", "department": "Production", "gender": 0, "id": 2106745, "job": "Production Designer", "name": "Jeffrey J. Barrows", "profile_path": null}, {"credit_id": "5cff910a92514173ecbb1ff8", "department": "Production", "gender": 0, "id": 2217829, "job": "Executive Producer", "name": "Steve Ascher", "profile_path": null}, {"credit_id": "5cff91830e0a262576ccd5d8", "department": "Art", "gender": 2, "id": 2335207, "job": "Art Direction", "name": "Adam Stroncone", "profile_path": null}]}}