{"adult": false, "backdrop_path": null, "belongs_to_collection": null, "budget": 0, "genres": [{"id": 35, "name": "Comedy"}, {"id": 18, "name": "Drama"}, {"id": 10749, "name": "Romance"}], "homepage": null, "id": 61148, "imdb_id": "tt0171576", "original_language": "en", "original_title": "No Vacancy", "overview": "Lillian is a 21-year-old drifter engaged to a philandering loser and locked in her room with a strange man. She lives next to a failed violinist who won't stop playing his instrument. He lives next to a New Age fanatic who's into colonic treatments; she lives next to two drug addicts who mess with the wrong prostitutes and end up answering to a pimp named Mr. Tangerine. In a barrage of head-spinning vignettes, we are sucked into a surreal motel fantasy-land where society's riffraff dwell in that awkward place between freedom and desperation.", "popularity": 1.812, "poster_path": "/7jWbWai39fNZrroUiJexfFRp0Xd.jpg", "production_companies": [], "production_countries": [], "release_date": "1999-12-12", "revenue": 0, "runtime": 84, "spoken_languages": [], "status": "Released", "tagline": "", "title": "No Vacancy", "video": false, "vote_average": 5.5, "vote_count": 4, "keywords": {"keywords": [{"id": 572, "name": "sex"}, {"id": 2669, "name": "motel"}, {"id": 10183, "name": "independent film"}]}, "similar": {"page": 1, "results": [{"adult": false, "backdrop_path": "/rPfyX0pkmn8Ea4gh3DfsmzFUf05.jpg", "genre_ids": [18, 27, 80], "id": 74997, "original_language": "en", "original_title": "The Human Centipede 2 (Full Sequence)", "overview": "Inspired by the fictional Dr. Heiter, disturbed loner Martin dreams of creating a 12-person centipede and sets out to realize his sick fantasy.", "poster_path": "/kFtAdkCO0vXN2RWu2oMcR9GZ9Hi.jpg", "release_date": "2011-10-06", "title": "The Human Centipede 2 (Full Sequence)", "video": false, "vote_average": 4.5, "vote_count": 674, "popularity": 14.216}, {"adult": false, "backdrop_path": "/yIszPJawrrp6zcb62d7XJnaxAmw.jpg", "genre_ids": [18], "id": 13078, "original_language": "en", "original_title": "The Babysitters", "overview": "Seventeen-year-old Shirley is a good student who works as a babysitter in order to make money for college. One night Michael, a father Shirley works for, confesses he's unhappy with married life. Shirley has a crush on Michael, and seizes this moment to kiss him. Michael is so happy he presents Shirley with a big tip, which gives her an idea. Shirley plans to make extra money by setting up her teenage friends with other unhappy fathers.", "poster_path": "/nsrNUqGXI95unRKZEu8BJ584xWn.jpg", "release_date": "2007-09-11", "title": "The Babysitters", "video": false, "vote_average": 5.3, "vote_count": 153, "popularity": 15.673}, {"id": 339692, "video": false, "vote_count": 1166, "vote_average": 6.9, "title": "Shot Caller", "release_date": "2017-07-13", "original_language": "en", "original_title": "Shot Caller", "genre_ids": [80, 18, 53], "backdrop_path": "/hehboYLXB3m90x9ybiBsupwuifL.jpg", "adult": false, "overview": "A newly-released prison gangster is forced by the leaders of his gang to orchestrate a major crime with a brutal rival gang on the streets of Southern California.", "poster_path": "/qLmLz2wtyYvmW8Ult3l2ngOnW8v.jpg", "popularity": 22.37}, {"id": 1632, "video": false, "vote_count": 770, "vote_average": 7.6, "title": "Mississippi Burning", "release_date": "1988-12-08", "original_language": "en", "original_title": "Mississippi Burning", "genre_ids": [80, 18, 53], "backdrop_path": "/4ypwob4uxh0q1osOFq2Wh7zdopT.jpg", "adult": false, "overview": "Two FBI agents investigating the murder of civil rights workers during the 60s seek to breach the conspiracy of silence in a small Southern town where segregation divides black and white. The younger agent trained in FBI school runs up against the small town ways of his partner, a former sheriff.", "poster_path": "/uSukdUQwx0l4rRuMXNqugR1tu4n.jpg", "popularity": 16.862}, {"id": 4771, "video": false, "vote_count": 2134, "vote_average": 7.3, "title": "Gone Baby Gone", "release_date": "2007-09-18", "original_language": "en", "original_title": "Gone Baby Gone", "genre_ids": [80, 18, 9648], "backdrop_path": "/sogh5NXPbKFajjYKBlfIBfCWgbq.jpg", "adult": false, "overview": "When 4 year old Amanda McCready disappears from her home and the police make little headway in solving the case, the girl's aunt, Beatrice McCready hires two private detectives, Patrick Kenzie and Angie Gennaro. The detectives freely admit that they have little experience with this type of case, but the family wants them for two reasons - they're not cops and they know the tough neighborhood in which they all live. As the case progresses, Kenzie and Gennaro face drug dealers, gangs and pedophiles. When they are about to solve the case, they are faced with a moral dilemma that tears them apart.", "poster_path": "/dXXMPxGiRegd7NNCtE5uchAKRAG.jpg", "popularity": 16.498}, {"adult": false, "backdrop_path": "/714WM8GntrZIiJsXUUfeYFCWWhe.jpg", "genre_ids": [28, 80, 18, 53], "id": 507, "original_language": "en", "original_title": "Killing Zoe", "overview": "Zed (Eric Stoltz) is an American vault-cracker who travels to Paris to meet up with his old friend Eric (Jean-Hugues Anglade). Eric and his gang have planned to raid the only bank in the city which is open on Bastille day. After offering his services, Zed soon finds himself trapped in a situation beyond his control when heroin abuse, poor planning and a call-girl named Zoe all conspire to turn the robbery into a very bloody siege.", "poster_path": "/xhGpPx5o4ngIbXKUs8ogn24hrBL.jpg", "release_date": "1993-10-01", "title": "Killing Zoe", "video": false, "vote_average": 6.2, "vote_count": 182, "popularity": 9.13}, {"adult": false, "backdrop_path": "/7QjoyyGdBV32x1sEh64dAnNjwg2.jpg", "genre_ids": [53, 35, 27], "id": 12521, "original_language": "en", "original_title": "Shocker", "overview": "After being sent to the electric chair, a serial killer uses electricity to come back from the dead and carry out his vengeance on the football player who turned him in to the police.", "poster_path": "/xEDmOhNGCKlWlS3mCiqLCVzBXVA.jpg", "release_date": "1989-10-27", "title": "Shocker", "video": false, "vote_average": 5.5, "vote_count": 176, "popularity": 10.495}, {"adult": false, "backdrop_path": "/a0UYovVNPVfWILYT7TzD10xBX3q.jpg", "genre_ids": [18, 53, 80, 9648], "id": 979, "original_language": "fr", "original_title": "Irr\u00e9versible", "overview": "Events over the course of one traumatic night in Paris unfold in reverse-chronological order as the beautiful Alex is brutally raped and beaten by a stranger in the underpass. Her boyfriend and ex-lover take matters into their own hands by hiring two criminals to help them find the rapist so that they can exact revenge. A simultaneously beautiful and terrible examination of the destructive nature of cause and effect, and how time destroys everything.", "poster_path": "/rxeDxo8FvZpLu6iplNpxdtAVnfu.jpg", "release_date": "2002-05-22", "title": "Irreversible", "video": false, "vote_average": 7.1, "vote_count": 1216, "popularity": 20.416}, {"adult": false, "backdrop_path": "/g1BfxcnplYEveGqS1ttfhdRBgbR.jpg", "genre_ids": [35, 53, 80], "id": 8012, "original_language": "en", "original_title": "Get Shorty", "overview": "Chili Palmer is a Miami mobster who gets sent by his boss, the psychopathic \"Bones\" Barboni, to collect a bad debt from Harry Zimm, a Hollywood producer who specializes in cheesy horror films. When Chili meets Harry's leading lady, the romantic sparks fly. After pitching his own life story as a movie idea, Chili learns that being a mobster and being a Hollywood producer really aren't all that different.", "poster_path": "/vWtDUUgQAsVyvRW4mE75LBgVm2e.jpg", "release_date": "1995-10-20", "title": "Get Shorty", "video": false, "vote_average": 6.5, "vote_count": 543, "popularity": 12.726}, {"id": 9962, "video": false, "vote_count": 314, "vote_average": 6.0, "title": "The Good Girl", "release_date": "2002-01-12", "original_language": "en", "original_title": "The Good Girl", "genre_ids": [35, 18, 10749], "backdrop_path": "/gY2qB8EFgiCZTQSgcWoZov3w7eH.jpg", "adult": false, "overview": "A discount store clerk strikes up an affair with a stock boy who considers himself the incarnation of Holden Caulfield.", "poster_path": "/21AacCArwM5hQ8fYPRA0WKZviiN.jpg", "popularity": 10.13}, {"adult": false, "backdrop_path": "/ltq1i8ienPm7OSdOXl3o8ROgmKc.jpg", "genre_ids": [28, 80, 18], "id": 2142, "original_language": "en", "original_title": "Cop Land", "overview": "Freddy Heflin is the sheriff of a place everyone calls \u201cCop Land\u201d \u2014 a small and seemingly peaceful town populated by the big city police officers he\u2019s long admired. Yet something ugly is taking place behind the town\u2019s peaceful facade. And when Freddy uncovers a massive, deadly conspiracy among these local residents, he is forced to take action and make a dangerous choice between protecting his idols and upholding the law.", "poster_path": "/th2UDVewgUAfIXFUaWGWWBxCM91.jpg", "release_date": "1997-08-15", "title": "Cop Land", "video": false, "vote_average": 6.7, "vote_count": 757, "popularity": 14.45}, {"adult": false, "backdrop_path": "/xbW1nnvCCs7eSjf9fTeB4sjbHU9.jpg", "genre_ids": [18], "id": 23949, "original_language": "en", "original_title": "Tape", "overview": "Three old high school friends meet in a Michigan motel room to dissect painful memories from their past.", "poster_path": "/oA9XBHIYFZY2FiYlC9fWtbMt9gG.jpg", "release_date": "2001-11-02", "title": "Tape", "video": false, "vote_average": 7.0, "vote_count": 108, "popularity": 8.788}, {"id": 398181, "video": false, "vote_count": 1302, "vote_average": 6.6, "title": "You Were Never Really Here", "release_date": "2017-11-08", "original_language": "en", "original_title": "You Were Never Really Here", "genre_ids": [53], "backdrop_path": "/h4Lk8Cgfvlzz0hcnSJBTAOwNDia.jpg", "adult": false, "overview": "A traumatised veteran, unafraid of violence, tracks down missing girls for a living. When a job spins out of control, Joe's nightmares overtake him as a conspiracy is uncovered leading to what may be his death trip or his awakening.", "poster_path": "/ktPbjD6nYg5NxmeTt72Iqaw5GD0.jpg", "popularity": 16.619}, {"id": 298312, "video": false, "vote_count": 2924, "vote_average": 6.2, "title": "The Visit", "release_date": "2015-09-10", "original_language": "en", "original_title": "The Visit", "genre_ids": [27, 9648, 53], "backdrop_path": "/gbJlEeALVGo7kx8bC2q4EFWX1Xy.jpg", "adult": false, "overview": "The terrifying story of a brother and sister who are sent to their grandparents' remote Pennsylvania farm for a weeklong trip. Once the children discover that the elderly couple is involved in something deeply disturbing, they see their chances of getting back home are growing smaller every day.", "poster_path": "/32tNtTEQ1vIOLm1hEOSFkVwJT5D.jpg", "popularity": 24.632}, {"adult": false, "backdrop_path": "/3mEfawlJnuu4OmUlAOesrAMsWv6.jpg", "genre_ids": [53, 27], "id": 9540, "original_language": "en", "original_title": "Dead Ringers", "overview": "Elliot, a successful gynecologist, works at the same practice as his identical twin, Beverly. Elliot is attracted to many of his patients and has affairs with them. When he inevitably loses interest, he will give the woman over to Beverly, the meeker of the two, without the woman knowing the difference. Beverly falls hard for one of the patients, Claire, but when she inadvertently deceives him, he slips into a state of madness.", "poster_path": "/9ZGBwiWIvN9KmHaLeSS5it44G21.jpg", "release_date": "1988-09-23", "title": "Dead Ringers", "video": false, "vote_average": 7.2, "vote_count": 388, "popularity": 10.111}, {"adult": false, "backdrop_path": "/tvTyRu9eKfymkje8d9VoWJEoyUv.jpg", "genre_ids": [18], "id": 53932, "original_language": "es", "original_title": "Las edades de Lul\u00fa", "overview": "Fifteen-year-old Lulu has never known any affection from her family. But when she goes to a rock concert with Pablo, a friend of the family, he introduces Lulu to her first sexual experience. Years later, Pablo and Lulu have married; Pablo has created a sheltered, private world for Lulu, into which nothing intrudes. However, Lulu tires of her cloistered existence, and begins hanging out in shady bars, looking for vicarious thrills and danger.", "poster_path": "/5PK5MAN84o0ESgzeW9euozOLIEe.jpg", "release_date": "1990-12-13", "title": "The Ages of Lulu", "video": false, "vote_average": 5.7, "vote_count": 64, "popularity": 24.141}, {"adult": false, "backdrop_path": "/bYbnlh6VXFRtcSX82UMDsBDLB5j.jpg", "genre_ids": [18, 10749], "id": 28468, "original_language": "it", "original_title": "La chiave", "overview": "After twenty years of marriage, art professor Nino Rolfe attempts to break down his wife Teresa's conventional modesty. Noticing her affection for their daughter's fianc\u00e9, Nino instigates her sexual interest in him as well. This sets off a chain of unexpected events and emotional complications, as Nino and his unpredictable fascist daughter find that they both enjoy being jealous.", "poster_path": "/e6g2geNLgFzMbriH6EvSJZD78nx.jpg", "release_date": "1983-10-18", "title": "The Key", "video": false, "vote_average": 5.0, "vote_count": 128, "popularity": 15.363}, {"adult": false, "backdrop_path": "/98ahnrena4PwLth7HFYGLf9yssH.jpg", "genre_ids": [35, 18, 10749], "id": 22705, "original_language": "it", "original_title": "Tra(sgre)dire", "overview": "While scouting out apartments in London for her Venetian boyfriend, Carla rents an apartment that overlooks the Thames. There she meet the lesbian hyper-horny real estate agent Moira.", "poster_path": "/kZITrLEiTfzzJhtwtXhQUl3ImCQ.jpg", "release_date": "2000-01-28", "title": "Cheeky", "video": false, "vote_average": 5.7, "vote_count": 92, "popularity": 30.42}, {"adult": false, "backdrop_path": "/kiWvoV78Cc3fUwkOHKzyBgVdrDD.jpg", "genre_ids": [37, 18, 12], "id": 281957, "original_language": "en", "original_title": "The Revenant", "overview": "In the 1820s, a frontiersman, Hugh Glass, sets out on a path of vengeance against those who left him for dead after a bear mauling.", "poster_path": "/oXUWEc5i3wYyFnL1Ycu8ppxxPvs.jpg", "release_date": "2015-12-25", "title": "The Revenant", "video": false, "vote_average": 7.5, "vote_count": 12127, "popularity": 24.135}, {"id": 263472, "video": false, "vote_count": 1669, "vote_average": 5.0, "title": "Knock Knock", "release_date": "2015-06-26", "original_language": "en", "original_title": "Knock Knock", "genre_ids": [18, 53], "backdrop_path": "/gJduaRau3X2oE3xkmjs1FufT2GE.jpg", "adult": false, "overview": "When a devoted husband and father is left home alone for the weekend, two stranded young women unexpectedly knock on his door for help. What starts out as a kind gesture results in a dangerous seduction and a deadly game of cat and mouse.", "poster_path": "/eynMtjBB1fXsB5vsQylVmsDLmvw.jpg", "popularity": 19.205}], "total_pages": 484, "total_results": 9664}, "recommendations": {"page": 1, "results": [], "total_pages": 1, "total_results": 0}, "credits": {"cast": [{"cast_id": 2, "character": "Lilian", "credit_id": "52fe4647c3a368484e088065", "gender": 1, "id": 6886, "name": "Christina Ricci", "order": 0, "profile_path": "/dzB58d6fNrTEi7nBAU1tySJc2at.jpg"}, {"cast_id": 3, "character": "Constance", "credit_id": "52fe4647c3a368484e088069", "gender": 1, "id": 12139, "name": "Lolita Davidovich", "order": 1, "profile_path": "/vQlk518qlef94XXJqtrkIqS3izo.jpg"}, {"cast_id": 4, "character": "Leonard", "credit_id": "52fe4647c3a368484e08806d", "gender": 2, "id": 53573, "name": "Olek Krupa", "order": 2, "profile_path": "/nv44QkTPkymcd7MiB1K69RsG4B1.jpg"}, {"cast_id": 5, "character": "Luke", "credit_id": "52fe4647c3a368484e088071", "gender": 2, "id": 18082, "name": "Timothy Olyphant", "order": 3, "profile_path": "/qPqm3mx3xzROFjlSGvh5dqR0XtV.jpg"}, {"cast_id": 6, "character": "Reynaldo", "credit_id": "52fe4647c3a368484e088075", "gender": 2, "id": 22462, "name": "Joaquim de Almeida", "order": 4, "profile_path": "/AiBNELVvARLrTFdOgEgMZQRiqvA.jpg"}], "crew": [{"credit_id": "5acefd7b9251410c48034dd8", "department": "Writing", "gender": 2, "id": 67361, "job": "Screenplay", "name": "Marius Balchunas", "profile_path": "/x3pQbN6Jn5dIoCofovYRB8OyNM1.jpg"}, {"credit_id": "52fe4647c3a368484e088061", "department": "Directing", "gender": 2, "id": 67361, "job": "Director", "name": "Marius Balchunas", "profile_path": "/x3pQbN6Jn5dIoCofovYRB8OyNM1.jpg"}]}}