{"adult": false, "backdrop_path": "/pmGGB2G6gS2oRzKVCgyO66RELG5.jpg", "belongs_to_collection": null, "budget": 0, "genres": [{"id": 35, "name": "Comedy"}], "homepage": null, "id": 61151, "imdb_id": "tt0038773", "original_language": "en", "original_title": "Never Say Goodbye", "overview": "Phil and Ellen Gayley have been divorced for a year, and their 8-year old daughter, Flip, is very unhappy that her parents are not together. Flip starts a correspondence with a marine, sending a picture of her beautiful mother as the author of Flip's flirtatious letters. When the marine shows up to meet his pen pal, Ellen takes the opportunity to make her ex-husband jealous.", "popularity": 3.579, "poster_path": "/ad8YBYyxKXylSF4HYfP4Gx7X9ry.jpg", "production_companies": [{"id": 174, "logo_path": "/IuAlhI9eVC9Z8UQWOIDdWRKSEJ.png", "name": "Warner Bros. Pictures", "origin_country": "US"}], "production_countries": [{"iso_3166_1": "US", "name": "United States of America"}], "release_date": "1946-11-09", "revenue": 0, "runtime": 97, "spoken_languages": [{"iso_639_1": "en", "name": "English"}], "status": "Released", "tagline": "Surely not Shirley, but better!!", "title": "Never Say Goodbye", "video": false, "vote_average": 5.9, "vote_count": 4, "keywords": {"keywords": [{"id": 5600, "name": "daughter"}, {"id": 14512, "name": "new york city, usa"}, {"id": 207317, "name": "christmas"}]}, "similar": {"page": 1, "results": [{"id": 11395, "video": false, "vote_count": 1133, "vote_average": 6.3, "title": "The Santa Clause", "release_date": "1994-11-10", "original_language": "en", "original_title": "The Santa Clause", "genre_ids": [35, 18, 14, 10751], "backdrop_path": "/rcQZmnhcb6P4mkgJAHnCYp3c1gp.jpg", "adult": false, "overview": "Scott Calvin is an ordinary man, who accidentally causes Santa Claus to fall from his roof on Christmas Eve and is knocked unconscious. When he and his young son finish Santa's trip and deliveries, they go to the North Pole, where Scott learns he must become the new Santa and convince those he loves that he is indeed, Father Christmas.", "poster_path": "/4LtaCHxAwfrXNhujGsNQpLbs8wr.jpg", "popularity": 14.808}, {"id": 8871, "video": false, "vote_count": 4088, "vote_average": 6.6, "title": "How the Grinch Stole Christmas", "release_date": "2000-11-17", "original_language": "en", "original_title": "How the Grinch Stole Christmas", "genre_ids": [35, 14, 10751], "backdrop_path": "/wWPJpoCGNq3cDYbFqPTWtvJSzqs.jpg", "adult": false, "overview": "Inside a snowflake exists the magical land of Whoville. In Whoville, live the Whos, an almost mutated sort of Munchkin-like people. All the Whos love Christmas, yet just outside of their beloved Whoville lives the Grinch. The Grinch is a nasty creature that hates Christmas, and plots to steal it away from the Whos, whom he equally abhors. Yet a small child, Cindy Lou Who, decides to try befriending the Grinch.", "poster_path": "/vQfgNHbcIWS2j3AAAzLOtPUGVmB.jpg", "popularity": 26.624}, {"id": 9647, "video": false, "vote_count": 786, "vote_average": 6.9, "title": "Scrooged", "release_date": "1988-11-22", "original_language": "en", "original_title": "Scrooged", "genre_ids": [35, 18, 14], "backdrop_path": "/6xezVJoUp0cZUBQeIDpW6lFuhcd.jpg", "adult": false, "overview": "In this modern take on Charles Dickens' \"A Christmas Carol,\" Frank Cross (Bill Murray) is a wildly successful television executive whose cold ambition and curmudgeonly nature has driven away the love of his life, Claire Phillips (Karen Allen). But after firing a staff member, Eliot Loudermilk (Bobcat Goldthwait), on Christmas Eve, Frank is visited by a series of ghosts who give him a chance to re-evaluate his actions and right the wrongs of his past.", "poster_path": "/uO0znfB2ZzTXA1IS7jkrjNbpkYK.jpg", "popularity": 17.767}, {"id": 296100, "video": false, "vote_count": 1047, "vote_average": 6.1, "title": "The Night Before", "release_date": "2015-11-20", "original_language": "en", "original_title": "The Night Before", "genre_ids": [12, 35, 14], "backdrop_path": "/oU2QnkVNHyT2bP1EAxRvKz6S5ga.jpg", "adult": false, "overview": "In New York City for their annual tradition of Christmas Eve debauchery, three lifelong best friends set out to find the Holy Grail of Christmas parties since their yearly reunion might be coming to an end.", "poster_path": "/eEGZgNZgN3sZWwoSaL1u2rTGlzj.jpg", "popularity": 16.586}, {"adult": false, "backdrop_path": "/h6NQoXBxD0uaIrpuk9FFV89vITT.jpg", "genre_ids": [10402, 35, 10751, 14, 18], "id": 10437, "original_language": "en", "original_title": "The Muppet Christmas Carol", "overview": "A retelling of the classic Dickens tale of Ebenezer Scrooge, miser extraordinaire. He is held accountable for his dastardly ways during night-time visitations by the Ghosts of Christmas Past, Present, and future.", "poster_path": "/fe4nLJkDNXhyuMnrZ60MfoSpPes.jpg", "release_date": "1992-12-10", "title": "The Muppet Christmas Carol", "video": false, "vote_average": 7.4, "vote_count": 497, "popularity": 10.24}, {"adult": false, "backdrop_path": "/9SNO9BglZJgGTMOB5K4NVgecgX1.jpg", "genre_ids": [10751, 35], "id": 9279, "original_language": "en", "original_title": "Jingle All the Way", "overview": "Meet Howard Langston, a salesman for a mattress company is constantly busy at his job, and he also constantly disappoints his son, after he misses his son's karate exposition, his son tells Howard that he wants for Christmas is an action figure of his son's television hero, he tries hard to to make it up to him. Unfortunately for Howard, it is Christmas Eve, and every store is sold out of Turbo Man, now Howard must travel all over town and compete with everybody else to find a Turbo Man action figure.", "poster_path": "/aaVkNhUONnkSv5ijPjq7pEmmWyE.jpg", "release_date": "1996-11-15", "title": "Jingle All the Way", "video": false, "vote_average": 5.7, "vote_count": 1359, "popularity": 14.421}, {"id": 13673, "video": false, "vote_count": 519, "vote_average": 5.7, "title": "Christmas with the Kranks", "release_date": "2004-11-24", "original_language": "en", "original_title": "Christmas with the Kranks", "genre_ids": [35, 10751], "backdrop_path": "/cuH95R2FJ2gxZBj8lEUElxShy15.jpg", "adult": false, "overview": "Luther Krank is fed up with the commerciality of Christmas; he decides to skip the holiday and go on a vacation with his wife instead. But when his daughter decides at the last minute to come home, he must put together a holiday celebration.", "poster_path": "/6sH8XfDDfTVT8AKZ0UNhnFTsyzJ.jpg", "popularity": 14.167}, {"id": 13377, "video": false, "vote_count": 587, "vote_average": 7.4, "title": "How the Grinch Stole Christmas!", "release_date": "1966-12-18", "original_language": "en", "original_title": "How the Grinch Stole Christmas!", "genre_ids": [16, 35, 10751], "backdrop_path": "/3kuQVBTd4c5dfdj2BFJKWJ0ZWA6.jpg", "adult": false, "overview": "Bitter and hateful, the Grinch is irritated at the thought of a nearby village having a happy time celebrating Christmas. Disguised as Santa Claus, with his dog made to look like a reindeer, he decides to raid the village to steal all the Christmas things.", "poster_path": "/7ir0iRuPK9OEuH569cp0nF5CJce.jpg", "popularity": 11.735}, {"id": 9021, "video": false, "vote_count": 705, "vote_average": 5.7, "title": "The Santa Clause 2", "release_date": "2002-10-31", "original_language": "en", "original_title": "The Santa Clause 2", "genre_ids": [35, 14, 10751], "backdrop_path": "/tftsh2e2IDGW3601QYixa9fnHFm.jpg", "adult": false, "overview": "Better watch out! The big guy in red is coming to town once again. This time, Scott Calvin -- also known as Santa Claus -- finds out there's an obscure clause in his contract requiring him to take on a wife. He has to leave the North Pole to fulfill his obligations, or else he'll be forced to give up his Yuletide gig.", "poster_path": "/i7tbiDPIaa4VsQh1wWmbkY4zTRX.jpg", "popularity": 12.724}, {"id": 9745, "video": false, "vote_count": 644, "vote_average": 5.9, "title": "Jack Frost", "release_date": "1998-12-10", "original_language": "en", "original_title": "Jack Frost", "genre_ids": [35, 18, 14, 10751], "backdrop_path": "/15FdBioriLIBiJqG3MFBlNGgHzp.jpg", "adult": false, "overview": "A father, who can't keep his promises, dies in a car accident. One year later, he returns as a snowman, who has the final chance to put things right with his son before he is gone forever.", "poster_path": "/cPmO5VZhqN4ocrgxjGaFmLeMREv.jpg", "popularity": 14.091}, {"id": 772, "video": false, "vote_count": 5556, "vote_average": 6.5, "title": "Home Alone 2: Lost in New York", "release_date": "1992-11-19", "original_language": "en", "original_title": "Home Alone 2: Lost in New York", "genre_ids": [12, 35, 80, 10751], "backdrop_path": "/1uHTuwx5h9T3XzsXijMMKybDFvZ.jpg", "adult": false, "overview": "Instead of flying to Florida with his folks, Kevin ends up alone in New York, where he gets a hotel room with his dad's credit card\u2014despite problems from a clerk and meddling bellboy. But when Kevin runs into his old nemeses, the Wet Bandits, he's determined to foil their plans to rob a toy store on Christmas eve.", "poster_path": "/ezGcLFTvwR64I3Z7RqHnXRFet4r.jpg", "popularity": 28.414}, {"id": 10719, "video": false, "vote_count": 2252, "vote_average": 6.6, "title": "Elf", "release_date": "2003-10-09", "original_language": "en", "original_title": "Elf", "genre_ids": [35, 14, 10751], "backdrop_path": "/jRzrQ7Thcjpetr0n8B6w980eZet.jpg", "adult": false, "overview": "When young Buddy falls into Santa's gift sack on Christmas Eve, he's transported back to the North Pole and raised as a toy-making elf by Santa's helpers. But as he grows into adulthood, he can't shake the nagging feeling that he doesn't belong. Buddy vows to visit Manhattan and find his real dad, a workaholic publisher.", "poster_path": "/9jChHqqcpe0zHNTqkNqWZkwkgil.jpg", "popularity": 14.355}, {"id": 287903, "video": false, "vote_count": 1172, "vote_average": 6.0, "title": "Krampus", "release_date": "2015-11-26", "original_language": "en", "original_title": "Krampus", "genre_ids": [35, 14, 27], "backdrop_path": "/5GsJuYZuG1bkuSI8FeWol5nvR9S.jpg", "adult": false, "overview": "A horror comedy based on the ancient legend about a pagan creature who punishes children on Christmas.", "poster_path": "/27SiV4EBHcTBMz4IKANjhX5iIoX.jpg", "popularity": 11.56}, {"id": 527435, "video": false, "vote_count": 959, "vote_average": 7.1, "title": "The Christmas Chronicles", "release_date": "2018-11-22", "original_language": "en", "original_title": "The Christmas Chronicles", "genre_ids": [12, 35, 14, 10751], "backdrop_path": "/brENMyyhk13WLzKHBK20rBKx0u7.jpg", "adult": false, "overview": "Siblings Kate and Teddy try to prove Santa Claus is real, but when they accidentally cause his sleigh to crash, they have to save Christmas.", "poster_path": "/5Il2EMSF2KecrUKZPuen6BZmaCP.jpg", "popularity": 13.086}, {"id": 5375, "video": false, "vote_count": 486, "vote_average": 5.6, "title": "Fred Claus", "release_date": "2007-11-03", "original_language": "en", "original_title": "Fred Claus", "genre_ids": [28, 35, 18], "backdrop_path": "/r0jEOEzIJFdyaxVa7bsFocUuQ1t.jpg", "adult": false, "overview": "Fred Claus and Santa Claus have been estranged brothers for many years. Now Fred must reconcile his differences with his brother whom he believes overshadows him. When an efficiency expert assesses the workings at the North Pole and threatens to shut Santa down, Fred must help his brother to save Christmas.", "poster_path": "/vFniWmciRi4tAjAYGp2wrK0P8dJ.jpg", "popularity": 12.098}, {"id": 11881, "video": false, "vote_count": 342, "vote_average": 7.4, "title": "Miracle on 34th Street", "release_date": "1947-06-11", "original_language": "en", "original_title": "Miracle on 34th Street", "genre_ids": [35, 18, 10751], "backdrop_path": "/i90947b0zLbH1P4qjAxqiQdRfiZ.jpg", "adult": false, "overview": "Kris Kringle, seemingly the embodiment of Santa Claus, is asked to portray the jolly old fellow at Macy's following his performance in the Thanksgiving Day parade. His portrayal is so complete that many begin to question if he truly is Santa Claus, while others question his sanity.", "poster_path": "/h8kkqroLwxvAHxWGIStEZaNd4wr.jpg", "popularity": 18.855}, {"id": 1581, "video": false, "vote_count": 2900, "vote_average": 7.0, "title": "The Holiday", "release_date": "2006-12-08", "original_language": "en", "original_title": "The Holiday", "genre_ids": [35, 10749], "backdrop_path": "/9TP7FGdo9ppnuXX3DbB9RtzYKkh.jpg", "adult": false, "overview": "Two women, one from the United States and one from the United Kingdom, swap homes at Christmastime after bad breakups with their boyfriends. Each woman finds romance with a local man but realizes that the imminent return home may end the relationship.", "poster_path": "/ixNtpuq8OVp4IckgzkSJIflFDkw.jpg", "popularity": 18.889}, {"adult": false, "backdrop_path": "/kJwJfSQht3QwpWka8JBnQ18IyDT.jpg", "genre_ids": [18, 16, 10751, 35], "id": 51052, "original_language": "en", "original_title": "Arthur Christmas", "overview": "Each Christmas, Santa and his vast army of highly trained elves produce gifts and distribute them around the world in one night. However, when one of 600 million children to receive a gift from Santa on Christmas Eve is missed, it is deemed \u2018acceptable\u2019 to all but one \u2013 Arthur. Arthur Claus is Santa\u2019s misfit son who executes an unauthorized rookie mission to get the last present half way around the globe before dawn on Christmas morning.", "poster_path": "/crjzhg2T1sPL9yE7bFHkYp0OfXG.jpg", "release_date": "2011-11-10", "title": "Arthur Christmas", "video": false, "vote_average": 6.7, "vote_count": 800, "popularity": 18.417}, {"adult": false, "backdrop_path": "/npClMhFGn4XUkwu6coq5oKAEu6L.jpg", "genre_ids": [35, 10749, 18], "id": 634, "original_language": "en", "original_title": "Bridget Jones's Diary", "overview": "A chaotic Bridget Jones meets a snobbish lawyer, and he soon enters her world of imperfections.", "poster_path": "/ym6kjFFZg6boC0QHBVw6hqJLbxv.jpg", "release_date": "2001-04-13", "title": "Bridget Jones's Diary", "video": false, "vote_average": 6.7, "vote_count": 3080, "popularity": 19.453}, {"adult": false, "backdrop_path": "/jRFC2W21pWAwKUqbEmvG5mVbcle.jpg", "genre_ids": [35], "id": 10872, "original_language": "en", "original_title": "The Ref", "overview": "Caroline and Lloyd are a married couple constantly at each other's throats, masters at crafting acid-tongued barbs at the other's expense. Indeed, they are so obsessed with belittling each other that they never stop -- not even at gunpoint. The gunman is Gus, a thief on the run from the police, who kidnaps the couple as an insurance policy, planning to use their home as a hideout. But their incessant bickering proves more than Gus bargained for, forcing him -- for the sake of his own sanity -- into the unenviable role of peacemaker. To make things even worse for Gus, he discovers that he has taken the couple hostage the night of their big Christmas party, and the guests are already on the way. Not wanting to leave Lloyd and Caroline unattended, Gus opts to attend the party, pretending to be the couple's marriage counselor. This naturally leads to a series of comic confusions, as the hostage crisis and marital tensions head towards their inevitable conclusion.", "poster_path": "/njp8Vyx77uCJsGIwnIfu4zfBwFR.jpg", "release_date": "1994-03-09", "title": "The Ref", "video": false, "vote_average": 6.8, "vote_count": 170, "popularity": 9.791}], "total_pages": 135, "total_results": 2693}, "recommendations": {"page": 1, "results": [], "total_pages": 1, "total_results": 0}, "credits": {"cast": [{"cast_id": 2, "character": "Phil Gayley", "credit_id": "52fe4648c3a368484e088109", "gender": 2, "id": 8724, "name": "Errol Flynn", "order": 0, "profile_path": "/2fd8ZORZMGFJQqMcnoNgSnTOpPS.jpg"}, {"cast_id": 3, "character": "Ellen Gayley", "credit_id": "52fe4648c3a368484e08810d", "gender": 1, "id": 7331, "name": "Eleanor Parker", "order": 1, "profile_path": "/pmauDYeIjoaGtZCy1PdY7lwXZ96.jpg"}, {"cast_id": 4, "character": "Mrs. Hamilton", "credit_id": "52fe4648c3a368484e088111", "gender": 1, "id": 83260, "name": "Lucile Watson", "order": 2, "profile_path": "/lph8cxn8qWFyt39tG68mfO2AyY8.jpg"}, {"cast_id": 5, "character": "Luigi Restaurateur (as S.Z. 'Cuddles' Sakall)", "credit_id": "52fe4648c3a368484e088115", "gender": 2, "id": 94110, "name": "S.Z. Sakall", "order": 3, "profile_path": "/jBp6orDZiX5ay9tyaHQOpcFJAqd.jpg"}, {"cast_id": 6, "character": "Cpl. Fenwick 'Wickie' Lonkowski", "credit_id": "52fe4648c3a368484e088119", "gender": 2, "id": 41214, "name": "Forrest Tucker", "order": 4, "profile_path": "/yqdE1cqCXWhLTgIRHDgqHJMrJlY.jpg"}, {"cast_id": 7, "character": "Rex DeVallon", "credit_id": "52fe4648c3a368484e08811d", "gender": 2, "id": 118022, "name": "Donald Woods", "order": 5, "profile_path": "/A9PoBFa8pDZbVLaxhxgNl8Gi898.jpg"}, {"cast_id": 8, "character": "Nancy Graham", "credit_id": "52fe4648c3a368484e088121", "gender": 1, "id": 13978, "name": "Peggy Knudsen", "order": 6, "profile_path": "/tgo5Yo5otADYNWs00z4jUpmAAtv.jpg"}, {"cast_id": 9, "character": "Jack Gordon", "credit_id": "52fe4648c3a368484e088125", "gender": 2, "id": 94334, "name": "Tom D'Andrea", "order": 7, "profile_path": "/j3isvSszUUL2LBrDGZRI1v9Gv9E.jpg"}, {"cast_id": 10, "character": "Cozy", "credit_id": "52fe4648c3a368484e088129", "gender": 1, "id": 11498, "name": "Hattie McDaniel", "order": 8, "profile_path": "/y3QtJ1qZD7Ms0IAzRbgOunMp97h.jpg"}, {"cast_id": 11, "character": "Phillippa 'Flip' Gayley", "credit_id": "52fe4648c3a368484e08812d", "gender": 1, "id": 1103870, "name": "Patti Brady", "order": 9, "profile_path": "/AdRoDfOubEsDcdb9bqOk4fZsrTC.jpg"}, {"cast_id": 37, "character": "Messenger Boy (uncredited)", "credit_id": "58978ae4c3a368627c0189c9", "gender": 2, "id": 1263061, "name": "William Benedict", "order": 10, "profile_path": "/uOmA9EUJIW18nBZDvU06yhSQxcM.jpg"}, {"cast_id": 28, "character": "Policeman (uncredited)", "credit_id": "5848157ac3a3681414008c44", "gender": 2, "id": 90074, "name": "Monte Blue", "order": 11, "profile_path": "/u5eHdofzXRQu08r0YFS5LwXoc3E.jpg"}, {"cast_id": 14, "character": "Phil's Bogart Impression (voice) (uncredited)", "credit_id": "5486059f9251416a6300349b", "gender": 2, "id": 4110, "name": "Humphrey Bogart", "order": 12, "profile_path": "/pxJrZluJHhbWRo2QXAG99FvXUi7.jpg"}, {"cast_id": 15, "character": "Mary Scott (uncredited)", "credit_id": "566ddd9a925141664f00c347", "gender": 1, "id": 1185412, "name": "Jane Harker", "order": 13, "profile_path": null}, {"cast_id": 29, "character": "Policeman (uncredited)", "credit_id": "584815b1c3a3681414008c54", "gender": 2, "id": 103499, "name": "Fred Kelsey", "order": 14, "profile_path": "/zL72rPOHhoorp2vyJLujWZkowHs.jpg"}, {"cast_id": 30, "character": "Porter (uncredited)", "credit_id": "584815cac3a3681408007374", "gender": 2, "id": 213830, "name": "Sam McDaniel", "order": 15, "profile_path": "/q1yRiwq7ylRxy9H70vR9vRDqkbs.jpg"}, {"cast_id": 31, "character": "Cab Driver (uncredited)", "credit_id": "584815e192514119bf00828c", "gender": 2, "id": 112009, "name": "Ralph Sanford", "order": 16, "profile_path": "/yMr8GgEqm2LrD2mI8LitFt39jw8.jpg"}, {"cast_id": 32, "character": "McCarthy (uncredited)", "credit_id": "584815fbc3a368140e008c94", "gender": 2, "id": 22603, "name": "Arthur Shields", "order": 17, "profile_path": "/mpdhGz7aExU8HP3WkiEr51PU195.jpg"}, {"cast_id": 33, "character": "Policeman (uncredited)", "credit_id": "58481619c3a368140a00885a", "gender": 2, "id": 120473, "name": "Brick Sullivan", "order": 18, "profile_path": null}, {"cast_id": 34, "character": "Policeman (uncredited)", "credit_id": "5848162f92514119b30082d0", "gender": 2, "id": 14970, "name": "Tom Tyler", "order": 19, "profile_path": "/9NHCjVNUuZTfjk3qFrkU6FLfrRR.jpg"}], "crew": [{"credit_id": "52fe4648c3a368484e088105", "department": "Directing", "gender": 2, "id": 153245, "job": "Director", "name": "James V. Kern", "profile_path": null}, {"credit_id": "5486056bc3a3680b48002d5c", "department": "Writing", "gender": 2, "id": 153245, "job": "Screenplay", "name": "James V. Kern", "profile_path": null}, {"credit_id": "5840f418c3a36865c9002a66", "department": "Production", "gender": 2, "id": 95944, "job": "Producer", "name": "William Jacobs", "profile_path": null}, {"credit_id": "5840f42ac3a36865c6002613", "department": "Sound", "gender": 2, "id": 2916, "job": "Original Music Composer", "name": "Friedrich Hollaender", "profile_path": null}, {"credit_id": "5840f431c3a36865b6002dfb", "department": "Camera", "gender": 2, "id": 2005, "job": "Director of Photography", "name": "Arthur Edeson", "profile_path": "/6sjR4iLB5yKlJDPfIxdEey4yVp2.jpg"}, {"credit_id": "5840f43a9251417d53002c15", "department": "Editing", "gender": 2, "id": 4309, "job": "Editor", "name": "Folmar Blangsted", "profile_path": null}, {"credit_id": "5840f4459251417d4d002b52", "department": "Art", "gender": 2, "id": 32999, "job": "Art Direction", "name": "Anton Grot", "profile_path": null}, {"credit_id": "5840f44b9251417d59002c4a", "department": "Art", "gender": 0, "id": 1309577, "job": "Supervising Art Director", "name": "Bertram Tuttle", "profile_path": null}, {"credit_id": "5840f451c3a36865c9002a89", "department": "Art", "gender": 0, "id": 1717230, "job": "Set Decoration", "name": "Budd Friend", "profile_path": null}, {"credit_id": "5840f4769251417d62002b67", "department": "Costume & Make-Up", "gender": 2, "id": 4128, "job": "Makeup Artist", "name": "Perc Westmore", "profile_path": null}, {"credit_id": "5840f482c3a36865af00336a", "department": "Directing", "gender": 2, "id": 1380404, "job": "Assistant Director", "name": "Philip Quinn", "profile_path": null}, {"credit_id": "5848166c92514119b90085d3", "department": "Writing", "gender": 0, "id": 92720, "job": "Story", "name": "Ben Barzman", "profile_path": null}, {"credit_id": "5848167fc3a368141100828c", "department": "Writing", "gender": 0, "id": 119463, "job": "Story", "name": "Norma Barzman", "profile_path": null}, {"credit_id": "59fce174c3a3682ed8001fbe", "department": "Writing", "gender": 2, "id": 3147, "job": "Screenplay", "name": "I. A. L. Diamond", "profile_path": "/tm4mgbRqYYQMqbIps8F6iKmOBM9.jpg"}, {"credit_id": "5b92f08d9251416566007d78", "department": "Production", "gender": 2, "id": 2663, "job": "Executive Producer", "name": "Jack L. Warner", "profile_path": "/I8UijyhvGPOaeiPTmxgcYCa8td.jpg"}, {"credit_id": "5bd281af9251415acd003c48", "department": "Writing", "gender": 2, "id": 30207, "job": "Adaptation", "name": "Lewis R. Foster", "profile_path": null}]}}