{"adult": false, "backdrop_path": "/gkyvKMQegElBVarsAtIloD5hIKy.jpg", "belongs_to_collection": null, "budget": 0, "genres": [{"id": 28, "name": "Action"}, {"id": 12, "name": "Adventure"}, {"id": 18, "name": "Drama"}], "homepage": null, "id": 61411, "imdb_id": "tt0064158", "original_language": "en", "original_title": "Che!", "overview": "Biography of Argentinian revolutionary Ernesto \"Che\" Guevara, who helped Fidel Castro in his struggle against the corrupt Batista regime, eventually resulting in the overthrow of that government and Castro's taking over of Cuba. The film covers Guevara's life from when he first landed in Cuba in 1956 to his death in an ambush by government troops in the mountains of Bolivia in 1967.", "popularity": 2.989, "poster_path": "/9UIMyqQyG0h1xi19LVn3JiS1IoY.jpg", "production_companies": [{"id": 25, "logo_path": "/qZCc1lty5FzX30aOCVRBLzaVmcp.png", "name": "20th Century Fox", "origin_country": "US"}], "production_countries": [{"iso_3166_1": "US", "name": "United States of America"}], "release_date": "1969-06-27", "revenue": 0, "runtime": 96, "spoken_languages": [{"iso_639_1": "en", "name": "English"}, {"iso_639_1": "es", "name": "Espa\u00f1ol"}], "status": "Released", "tagline": "Che Guevara...The Doctor Turned Fighter. The Fighter Turned Revolutionary. The Revolutionary Turned Martyr To Some, Murderer To Others.", "title": "Che!", "video": false, "vote_average": 5.1, "vote_count": 5, "keywords": {"keywords": [{"id": 2020, "name": "revolution"}, {"id": 5565, "name": "biography"}, {"id": 18263, "name": "revolutionary"}]}, "similar": {"page": 1, "results": [{"adult": false, "backdrop_path": "/nU6DDTabbMkd3649WYtSiOdHCMC.jpg", "genre_ids": [18, 10749], "id": 332283, "original_language": "en", "original_title": "Mary Shelley", "overview": "The love affair between poet Percy Shelley and Mary Wollstonecraft Godwin resulted in the creation of an immortal novel, \u201cFrankenstein; or, The Modern Prometheus.\u201d", "poster_path": "/gKHJTsrfxJtfFNPQJn2hDNEMtFf.jpg", "release_date": "2018-04-22", "title": "Mary Shelley", "video": false, "vote_average": 7.1, "vote_count": 516, "popularity": 11.335}, {"adult": false, "backdrop_path": "/jK3EAFk3GdOaQfUDCOiTujzMpwH.jpg", "genre_ids": [18], "id": 389015, "original_language": "en", "original_title": "I, Tonya", "overview": "Competitive ice skater Tonya Harding rises amongst the ranks at the U. S. Figure Skating Championships, but her future in the sport is thrown into doubt when her ex-husband intervenes.", "poster_path": "/6gNXwSHxaksR1PjVZRqNapmkgj3.jpg", "release_date": "2017-12-08", "title": "I, Tonya", "video": false, "vote_average": 7.5, "vote_count": 3327, "popularity": 19.513}, {"adult": false, "backdrop_path": "/9alS7FBSf8rvDLskpCRuKqAI2h5.jpg", "genre_ids": [18, 36], "id": 746, "original_language": "en", "original_title": "The Last Emperor", "overview": "A dramatic history of Pu Yi, the last of the Emperors of China, from his lofty birth and brief reign in the Forbidden City, the object of worship by half a billion people; through his abdication, his decline and dissolute lifestyle; his exploitation by the invading Japanese, and finally to his obscure existence as just another peasant worker in the People's Republic.", "poster_path": "/KTirnfG6FZLKWbm8Am3EEKmZDx.jpg", "release_date": "1987-10-21", "title": "The Last Emperor", "video": false, "vote_average": 7.6, "vote_count": 774, "popularity": 15.26}, {"id": 266856, "video": false, "vote_count": 6973, "vote_average": 7.9, "title": "The Theory of Everything", "release_date": "2014-11-26", "original_language": "en", "original_title": "The Theory of Everything", "genre_ids": [18, 10749], "backdrop_path": "/geAe08WmchATnZF461WffQBqJk1.jpg", "adult": false, "overview": "The Theory of Everything is the extraordinary story of one of the world\u2019s greatest living minds, the renowned astrophysicist Stephen Hawking, who falls deeply in love with fellow Cambridge student Jane Wilde.", "poster_path": "/4jspr8hLLuju59bCnMiefzRW4p0.jpg", "popularity": 24.853}, {"id": 451915, "video": false, "vote_count": 816, "vote_average": 7.6, "title": "Beautiful Boy", "release_date": "2018-10-12", "original_language": "en", "original_title": "Beautiful Boy", "genre_ids": [18], "backdrop_path": "/sOhtC4cmaYPOlcjXCWxxrx2NKKn.jpg", "adult": false, "overview": "After he and his first wife separate, journalist David Sheff struggles to help their teenage son, who goes from experimenting with drugs to becoming devastatingly addicted to methamphetamine.", "poster_path": "/i7gsLrNxpSf8NF5IZIrcOEfMyA3.jpg", "popularity": 19.006}, {"id": 228970, "video": false, "vote_count": 1565, "vote_average": 7.0, "title": "Wild", "release_date": "2014-12-05", "original_language": "en", "original_title": "Wild", "genre_ids": [18], "backdrop_path": "/pl6mEeLTI4IRnjbBGTMrJSBoYsU.jpg", "adult": false, "overview": "A woman with a tragic past decides to start her new life by hiking for one thousand miles on the Pacific Crest Trail.", "poster_path": "/zpdwj7Q8ZdTX2bWbltCFjVwugJu.jpg", "popularity": 12.766}, {"id": 1955, "video": false, "vote_count": 1711, "vote_average": 8.1, "title": "The Elephant Man", "release_date": "1980-10-02", "original_language": "en", "original_title": "The Elephant Man", "genre_ids": [18, 36], "backdrop_path": "/rR479zn26lJp4vNxXKjfBVCHLAW.jpg", "adult": false, "overview": "A Victorian surgeon rescues a heavily disfigured man being mistreated by his \"owner\" as a side-show freak. Behind his monstrous fa\u00e7ade, there is revealed a person of great intelligence and sensitivity. Based on the true story of Joseph Merrick (called John Merrick in the film), a severely deformed man in 19th century London.", "poster_path": "/lDXJUmLQsViSKLbil2luD91l2kE.jpg", "popularity": 14.222}, {"id": 363676, "video": false, "vote_count": 4333, "vote_average": 7.1, "title": "Sully", "release_date": "2016-09-07", "original_language": "en", "original_title": "Sully", "genre_ids": [18, 36], "backdrop_path": "/vC9H1ZVdXi1KjH4aPfGB54mvDNh.jpg", "adult": false, "overview": "On 15 January 2009, the world witnessed the 'Miracle on the Hudson' when Captain 'Sully' Sullenberger glided his disabled plane onto the frigid waters of the Hudson River, saving the lives of all 155 aboard. However, even as Sully was being heralded by the public and the media for his unprecedented feat of aviation skill, an investigation was unfolding that threatened to destroy his reputation and career.", "poster_path": "/h6O5OE3ueRVdCc7V7cwTiQocI7D.jpg", "popularity": 23.083}, {"adult": false, "backdrop_path": "/3fcBsj9JMQQ27Wuk3LVrEwVZ2VT.jpg", "genre_ids": [28, 18], "id": 323677, "original_language": "en", "original_title": "Race", "overview": "Based on the story of Jesse Owens, the athlete whose quest to become the greatest track and field athlete in history thrusts him onto the world stage of the 1936 Olympics, where he faces off against Adolf Hitler's vision of Aryan supremacy.", "poster_path": "/szLfTQ2vLFQkNbP3dc0pnco1rje.jpg", "release_date": "2016-02-19", "title": "Race", "video": false, "vote_average": 7.3, "vote_count": 989, "popularity": 11.176}, {"id": 369192, "video": false, "vote_count": 1153, "vote_average": 6.9, "title": "Battle of the Sexes", "release_date": "2017-09-05", "original_language": "en", "original_title": "Battle of the Sexes", "genre_ids": [35, 18, 36], "backdrop_path": "/wCHJuJwEfOrrykgDas8T4m79Bzs.jpg", "adult": false, "overview": "The true story of the 1973 tennis match between World number one Billie Jean King and ex-champ and serial hustler Bobby Riggs.", "poster_path": "/fWy0A3VojTCb0S2MKtEJjpquubF.jpg", "popularity": 9.413}, {"adult": false, "backdrop_path": "/nNcZFJYLEzRa4rlYUCeWS849k6l.jpg", "genre_ids": [18], "id": 3558, "original_language": "en", "original_title": "Girl, Interrupted", "overview": "Set in the changing world of the late 1960s, Susanna Kaysen's prescribed \"short rest\" from a psychiatrist she had met only once becomes a strange, unknown journey into Alice's Wonderland, where she struggles with the thin line between normal and crazy. Susanna soon realizes how hard it is to get out once she has been committed, and she ultimately has to choose between the world of people who belong inside or the difficult world of reality outside.", "poster_path": "/vp46lgVDiFdT4Hw5WIISOPwnMaH.jpg", "release_date": "1999-12-21", "title": "Girl, Interrupted", "video": false, "vote_average": 7.6, "vote_count": 1911, "popularity": 18.24}, {"adult": false, "backdrop_path": "/mYKP6qcDUimVMAHQWLOuDHjO19S.jpg", "genre_ids": [35], "id": 445629, "original_language": "en", "original_title": "Fighting with My Family", "overview": "Born into a tight-knit wrestling family, Paige and her brother Zak are ecstatic when they get the once-in-a-lifetime opportunity to try out for the WWE. But when only Paige earns a spot in the competitive training program, she must leave her loved ones behind and face this new cutthroat world alone. Paige's journey pushes her to dig deep and ultimately prove to the world that what makes her different is the very thing that can make her a star.", "poster_path": "/cVhe15rJLRjolunSWLBN6xQLyGU.jpg", "release_date": "2019-02-14", "title": "Fighting with My Family", "video": false, "vote_average": 6.7, "vote_count": 642, "popularity": 23.641}, {"id": 487558, "video": false, "vote_count": 4017, "vote_average": 7.6, "title": "BlacKkKlansman", "release_date": "2018-07-30", "original_language": "en", "original_title": "BlacKkKlansman", "genre_ids": [80], "backdrop_path": "/wKRrldOtg6HVeGqGLls6iT9XO7I.jpg", "adult": false, "overview": "Colorado Springs, late 1970s. Ron Stallworth, an African American police officer, and Flip Zimmerman, his Jewish colleague, run an undercover operation to infiltrate the Ku Klux Klan.", "poster_path": "/8jxqAvSDoneSKRczaK8v9X5gqBp.jpg", "popularity": 30.098}, {"id": 317557, "video": false, "vote_count": 250, "vote_average": 7.1, "title": "Queen of Katwe", "release_date": "2016-09-23", "original_language": "en", "original_title": "Queen of Katwe", "genre_ids": [18], "backdrop_path": "/awZwLXuPAGZEARF3y18S3qWt5LH.jpg", "adult": false, "overview": "A young girl overcomes her disadvantaged upbringing in the slums of Uganda to become a Chess master.", "poster_path": "/8nIIoHuV1c8orDNCyTcHuDhoc4q.jpg", "popularity": 9.081}, {"adult": false, "backdrop_path": "/urnGzQvP8fwWWGkn1k809KqIjbm.jpg", "genre_ids": [18], "id": 87093, "original_language": "en", "original_title": "Big Eyes", "overview": "The story of the awakening of painter, Margaret Keane, her phenomenal success in the 1950s, and the subsequent legal difficulties she had with her husband, who claimed credit for her works in the 1960s.", "poster_path": "/z2tqzprHojhgEGYKQepjU28oQg6.jpg", "release_date": "2014-12-24", "title": "Big Eyes", "video": false, "vote_average": 7.0, "vote_count": 2348, "popularity": 12.107}, {"id": 5915, "video": false, "vote_count": 6281, "vote_average": 7.8, "title": "Into the Wild", "release_date": "2007-09-11", "original_language": "en", "original_title": "Into the Wild", "genre_ids": [12, 18], "backdrop_path": "/9yJehIjvR7ULOLxeDJoth4kDDNe.jpg", "adult": false, "overview": "After graduating from Emory University in 1992, top student and athlete Christopher McCandless abandons his possessions, gives his entire $24,000 savings account to charity, and hitchhikes to Alaska to live in the wilderness.", "poster_path": "/lHyYgaocXR6KcJLxVmxZDj115hH.jpg", "popularity": 16.336}, {"id": 205775, "video": false, "vote_count": 2361, "vote_average": 6.6, "title": "In the Heart of the Sea", "release_date": "2015-11-20", "original_language": "en", "original_title": "In the Heart of the Sea", "genre_ids": [28, 12, 18, 36, 53], "backdrop_path": "/aZoZ0NglXgiBMToem9HhTAYYamw.jpg", "adult": false, "overview": "In the winter of 1820, the New England whaling ship Essex is assaulted by something no one could believe\u2014a whale of mammoth size and will, and an almost human sense of vengeance.", "poster_path": "/zVmWh0Zfg4UhbvdGI8LQrn1lQZJ.jpg", "popularity": 19.825}, {"id": 457799, "video": false, "vote_count": 1569, "vote_average": 7.0, "title": "Extremely Wicked, Shockingly Evil and Vile", "release_date": "2019-05-02", "original_language": "en", "original_title": "Extremely Wicked, Shockingly Evil and Vile", "genre_ids": [80, 18, 53], "backdrop_path": "/uRoA67sM5vvCI4cplxhl67BTPly.jpg", "adult": false, "overview": "A chronicle of the crimes of Ted Bundy, from the perspective of his longtime girlfriend, Elizabeth Kloepfer, who refused to believe the truth about him for years.", "poster_path": "/zSuJ3r5zr5T26tTxyygHhgkUAIM.jpg", "popularity": 20.961}, {"adult": false, "backdrop_path": "/w41zFKYTsq4wf5QnQJWMXuzWl2F.jpg", "genre_ids": [18, 28], "id": 96721, "original_language": "en", "original_title": "Rush", "overview": "A biographical drama centered on the rivalry between Formula 1 drivers James Hunt and Niki Lauda during the 1976 Formula One motor-racing season.", "poster_path": "/cjEepHZOZAwmK6nAj5jis6HV75E.jpg", "release_date": "2013-09-02", "title": "Rush", "video": false, "vote_average": 7.7, "vote_count": 4275, "popularity": 16.446}, {"id": 396371, "video": false, "vote_count": 1968, "vote_average": 7.1, "title": "Molly's Game", "release_date": "2017-12-25", "original_language": "en", "original_title": "Molly's Game", "genre_ids": [80, 18], "backdrop_path": "/rHcBZ6ZKCe4FalWHyvBGsyMsh0k.jpg", "adult": false, "overview": "Molly Bloom, a young skier and former Olympic hopeful becomes a successful entrepreneur (and a target of an FBI investigation) when she establishes a high-stakes, international poker game.", "poster_path": "/in43bQ7k0ttr666IPP94IlbQbTR.jpg", "popularity": 18.118}], "total_pages": 334, "total_results": 6675}, "recommendations": {"page": 1, "results": [], "total_pages": 1, "total_results": 0}, "credits": {"cast": [{"cast_id": 2, "character": "Che Guevara", "credit_id": "52fe4651c3a368484e08a28f", "gender": 2, "id": 5004, "name": "Omar Sharif", "order": 0, "profile_path": "/yDUBIJa5BdktDzSgCkKEZLz7KxH.jpg"}, {"cast_id": 3, "character": "Fidel Castro", "credit_id": "52fe4651c3a368484e08a293", "gender": 2, "id": 3785, "name": "Jack Palance", "order": 1, "profile_path": "/9TovoWi3lbI7HIVjppgSH2fYPf5.jpg"}, {"cast_id": 14, "character": "Guillermo", "credit_id": "57c20b6fc3a36865ac00852f", "gender": 2, "id": 4963, "name": "Woody Strode", "order": 2, "profile_path": "/hL6mQBnCxBxhUeG5rjx9SfO7AXM.jpg"}, {"cast_id": 15, "character": "Ramon Valdez", "credit_id": "57c20b82c3a36806fa003b51", "gender": 2, "id": 2558, "name": "Cesare Danova", "order": 3, "profile_path": "/iUY8056x5J9WG2aH5GBbv6CAnS7.jpg"}, {"cast_id": 16, "character": "Monte", "credit_id": "592a435ac3a368782d0531f5", "gender": 2, "id": 24827, "name": "Rodolfo Acosta", "order": 4, "profile_path": "/m7lQ5rATvSUtamHOj6qtfZJGDHr.jpg"}, {"cast_id": 17, "character": "Anita Marquez", "credit_id": "597b332ac3a368370800f856", "gender": 1, "id": 15950, "name": "BarBara Luna", "order": 5, "profile_path": "/draNixN33Zqsqab6ZxMpshqM2eD.jpg"}, {"cast_id": 18, "character": "Goatherd", "credit_id": "597b3345925141363b010a37", "gender": 2, "id": 19217, "name": "Frank Silvera", "order": 6, "profile_path": "/d44sP5M05M1NGsLrtha0X1xs6LU.jpg"}, {"cast_id": 19, "character": "Faustino Morales", "credit_id": "597b335fc3a36836c0010d23", "gender": 2, "id": 1162, "name": "Robert Loggia", "order": 7, "profile_path": "/i2h163BYdLkmXTlW5QgkxMmbIFo.jpg"}, {"cast_id": 20, "character": "Capt. Vasquez", "credit_id": "597b337dc3a368370800f8d1", "gender": 2, "id": 14736, "name": "Albert Paulsen", "order": 8, "profile_path": "/cPZ9YDU1pv4SUWTxs7mUBBWB7Po.jpg"}, {"cast_id": 21, "character": "Tania", "credit_id": "597b4378925141364e011446", "gender": 1, "id": 160737, "name": "Linda Marsh", "order": 9, "profile_path": "/u7DelNd3me6PlEi7eMmn9zeB49q.jpg"}, {"cast_id": 22, "character": "Felipe Mu\u00f1oz", "credit_id": "597b4386925141368101151c", "gender": 2, "id": 6466, "name": "Tom Troupe", "order": 10, "profile_path": null}, {"cast_id": 23, "character": "Willy", "credit_id": "597b43949251413681011531", "gender": 2, "id": 123631, "name": "Rudy Diaz", "order": 11, "profile_path": null}, {"cast_id": 24, "character": "Rolando", "credit_id": "597b43a6c3a36836c00120ef", "gender": 2, "id": 12295, "name": "Perry Lopez", "order": 12, "profile_path": "/bpw3oCVkAasOd8A2uwy60pnSXoD.jpg"}, {"cast_id": 25, "character": "Pablo Rojas", "credit_id": "597b43bd925141364e0114ab", "gender": 2, "id": 135066, "name": "Abraham Sofaer", "order": 13, "profile_path": "/uCkrpe6pewrGhDYcuGivTNQXzxT.jpg"}, {"cast_id": 26, "character": "Col. Salazar", "credit_id": "597b43d4c3a36860070040cd", "gender": 2, "id": 122007, "name": "Richard Angarola", "order": 14, "profile_path": "/VoyeQP3xKNuYnV7aaHxjBRwQ91.jpg"}, {"cast_id": 27, "character": "Celia Sanchez", "credit_id": "597b43e5925141364e0114e3", "gender": 0, "id": 1859631, "name": "Sarita Vara", "order": 15, "profile_path": null}, {"cast_id": 28, "character": "Raul Castro", "credit_id": "597b4406c3a3686007004107", "gender": 2, "id": 161750, "name": "Paul Bertoya", "order": 16, "profile_path": null}, {"cast_id": 29, "character": "Antonio", "credit_id": "597b4412925141363f011cac", "gender": 2, "id": 5695, "name": "Sid Haig", "order": 17, "profile_path": "/gi3AjgRi6WySyzUFRjIiB6IYEZ4.jpg"}, {"cast_id": 30, "character": "Juan Almeida", "credit_id": "597b4420925141364a0117ad", "gender": 2, "id": 13313, "name": "Adolph Caesar", "order": 18, "profile_path": "/gTIq4VcFzdu9qi51ddvgW4392uf.jpg"}, {"cast_id": 31, "character": "Hector", "credit_id": "597b442dc3a368374c011c2f", "gender": 2, "id": 78309, "name": "Paul Picerni", "order": 19, "profile_path": "/gKafN24wJ5zfdmxhud0fe9GVcTI.jpg"}, {"cast_id": 32, "character": "Camilo Cienfuegos", "credit_id": "597b4446c3a3686007004153", "gender": 0, "id": 1859633, "name": "Ray Martel", "order": 20, "profile_path": null}], "crew": [{"credit_id": "52fe4651c3a368484e08a28b", "department": "Directing", "gender": 2, "id": 2087, "job": "Director", "name": "Richard Fleischer", "profile_path": "/yofiXdiD2AaK2M4RgXQFeO8qQgD.jpg"}, {"credit_id": "575df89a9251415dd2004854", "department": "Art", "gender": 2, "id": 9061, "job": "Art Direction", "name": "Jack Martin Smith", "profile_path": null}, {"credit_id": "575df87d9251415dd2004845", "department": "Sound", "gender": 2, "id": 9217, "job": "Original Music Composer", "name": "Lalo Schifrin", "profile_path": "/zYz8R5xJGdO4Rq2FrcagMoG1UxD.jpg"}, {"credit_id": "575df8a89251411bfe00020b", "department": "Art", "gender": 2, "id": 9587, "job": "Set Decoration", "name": "Walter M. Scott", "profile_path": null}, {"credit_id": "575df8959251411c4d0001d1", "department": "Art", "gender": 2, "id": 9798, "job": "Art Direction", "name": "Arthur Lonergan", "profile_path": null}, {"credit_id": "575df8a0c3a36805be000c8c", "department": "Art", "gender": 2, "id": 9799, "job": "Set Decoration", "name": "Stuart A. Reiss", "profile_path": null}, {"credit_id": "575df8849251411c4d0001c3", "department": "Camera", "gender": 2, "id": 12119, "job": "Director of Photography", "name": "Charles F. Wheeler", "profile_path": null}, {"credit_id": "575df88ec3a368373100186f", "department": "Editing", "gender": 1, "id": 18651, "job": "Editor", "name": "Marion Rothman", "profile_path": null}, {"credit_id": "575df85cc3a3680470000db6", "department": "Writing", "gender": 2, "id": 19532, "job": "Story", "name": "David Karp", "profile_path": null}, {"credit_id": "575df873c3a3687bbc000244", "department": "Production", "gender": 2, "id": 69105, "job": "Producer", "name": "Sy Bartlett", "profile_path": null}, {"credit_id": "575df8649251411bc50001d1", "department": "Writing", "gender": 2, "id": 69105, "job": "Story", "name": "Sy Bartlett", "profile_path": null}]}}