{"adult": false, "backdrop_path": "/293StC9N7IZh155N1p4IL3bF9hf.jpg", "belongs_to_collection": null, "budget": 0, "genres": [{"id": 35, "name": "Comedy"}, {"id": 14, "name": "Fantasy"}, {"id": 10749, "name": "Romance"}], "homepage": null, "id": 61541, "imdb_id": "tt0027914", "original_language": "en", "original_title": "Love on the Run", "overview": "A runaway bride and an undercover reporter get caught up in political intrigue as they lead a merry chase across Europe and uncover a spy plot.", "popularity": 2.624, "poster_path": "/zpatkRKw0MlKPvZ0TKTC17uGOXz.jpg", "production_companies": [{"id": 21, "logo_path": "/mjofSXiHpG5t6KYmU4l4FrUhT7m.png", "name": "Metro-Goldwyn-Mayer", "origin_country": "US"}], "production_countries": [{"iso_3166_1": "US", "name": "United States of America"}], "release_date": "1936-11-20", "revenue": 0, "runtime": 80, "spoken_languages": [{"iso_639_1": "en", "name": "English"}], "status": "Released", "tagline": "", "title": "Love on the Run", "video": false, "vote_average": 7.3, "vote_count": 3, "keywords": {"keywords": [{"id": 470, "name": "spy"}, {"id": 3071, "name": "prince"}, {"id": 12193, "name": "reporter"}]}, "similar": {"page": 1, "results": [{"adult": false, "backdrop_path": "/tjQHn6xW5BiB1RJ3OZIPDzIOSkF.jpg", "genre_ids": [12, 28, 53], "id": 954, "original_language": "en", "original_title": "Mission: Impossible", "overview": "When Ethan Hunt, the leader of a crack espionage team whose perilous operation has gone awry with no explanation, discovers that a mole has penetrated the CIA, he's surprised to learn that he's the No. 1 suspect. To clear his name, Hunt now must ferret out the real double agent and, in the process, even the score.", "poster_path": "/1PVKS17pIBFsIhgFws2uagPDNLW.jpg", "release_date": "1996-05-22", "title": "Mission: Impossible", "video": false, "vote_average": 6.9, "vote_count": 5216, "popularity": 25.737}, {"id": 9008, "video": false, "vote_count": 953, "vote_average": 7.4, "title": "The Insider", "release_date": "1999-10-28", "original_language": "en", "original_title": "The Insider", "genre_ids": [18, 53], "backdrop_path": "/7oq51chQ7MW7RVKqhL4ivxhrwGf.jpg", "adult": false, "overview": "Tells the true story of a 60 Minutes television series expos\u00e9 of the tobacco industry, as seen through the eyes of a real tobacco executive, Jeffrey Wigand.", "poster_path": "/sYQsmMl4oG56NtFaNkDxuJhhODa.jpg", "popularity": 16.427}, {"id": 224141, "video": false, "vote_count": 3144, "vote_average": 5.7, "title": "Into the Woods", "release_date": "2014-12-24", "original_language": "en", "original_title": "Into the Woods", "genre_ids": [35, 14], "backdrop_path": "/lzJzB0QfkjpGCm9qUC4XpEIB6pm.jpg", "adult": false, "overview": "In a woods filled with magic and fairy tale characters, a baker and his wife set out to end the curse put on them by their neighbor, a spiteful witch.", "poster_path": "/5h91odPFNlBuJbRBj5N4MEBfXDE.jpg", "popularity": 29.368}, {"adult": false, "backdrop_path": "/yDmyqO3xHTVxtyM0CuqobSX3Hjr.jpg", "genre_ids": [16, 10751, 14], "id": 10144, "original_language": "en", "original_title": "The Little Mermaid", "overview": "This colorful adventure tells the story of an impetuous mermaid princess named Ariel who falls in love with the very human Prince Eric and puts everything on the line for the chance to be with him. Memorable songs and characters -- including the villainous sea witch Ursula.", "poster_path": "/6aXMusULuKFAK0ZRUlv7RJ9zHTc.jpg", "release_date": "1989-11-17", "title": "The Little Mermaid", "video": false, "vote_average": 7.3, "vote_count": 4669, "popularity": 25.992}, {"id": 10882, "video": false, "vote_count": 3219, "vote_average": 6.9, "title": "Sleeping Beauty", "release_date": "1959-01-28", "original_language": "en", "original_title": "Sleeping Beauty", "genre_ids": [16, 14, 10749, 10751], "backdrop_path": "/oHZIobyIG0YzWntyPCTSJDOk9qB.jpg", "adult": false, "overview": "A beautiful princess born in a faraway kingdom is destined by a terrible curse to prick her finger on the spindle of a spinning wheel and fall into a deep sleep that can only be awakened by true love's first kiss. Determined to protect her, her parents ask three fairies to raise her in hiding. But the evil Maleficent is just as determined to seal the princess's fate.", "poster_path": "/j4YBuAe8D1jDSiitpq69og9x3Yl.jpg", "popularity": 29.356}, {"adult": false, "backdrop_path": "/3mhNnNmfCGrjyVEZhjWRVcjMOSi.jpg", "genre_ids": [14, 16, 10749, 10751], "id": 54113, "original_language": "en", "original_title": "The Swan Princess: Escape from Castle Mountain", "overview": "The first wedding anniversary of Princess Odette and Prince Derek is distracted by field fires set by Knuckles. His master Clavius, wants to conquer the world, and he needs to capture a giant orb to do that. Clavius kidnaps Queen Uberta and Odette with Derek have to save her.", "poster_path": "/oTEgvTpAIugS7OH6oIoVZkmV3C3.jpg", "release_date": "1997-01-01", "title": "The Swan Princess: Escape from Castle Mountain", "video": false, "vote_average": 6.0, "vote_count": 198, "popularity": 11.608}, {"id": 354279, "video": false, "vote_count": 86, "vote_average": 6.3, "title": "Charming", "release_date": "2018-04-20", "original_language": "en", "original_title": "Charming", "genre_ids": [16, 35, 10402, 10751], "backdrop_path": "/rTefIDfreT1kcjuld8K1wgI3ifp.jpg", "adult": false, "overview": "Three fairy tale princesses find themselves engaged to the same guy, Prince Charming.", "poster_path": "/xizxQjNw7gbstkU9YIi2NaZIXW3.jpg", "popularity": 15.747}, {"adult": false, "backdrop_path": "/wQraxOsaq0NwTO9rSwLo4Nc8hVG.jpg", "genre_ids": [10751, 14, 16, 10749], "id": 11224, "original_language": "en", "original_title": "Cinderella", "overview": "Cinderella has faith her dreams of a better life will come true. With help from her loyal mice friends and a wave of her Fairy Godmother's wand, Cinderella's rags are magically turned into a glorious gown and off she goes to the Royal Ball. But when the clock strikes midnight, the spell is broken, leaving a single glass slipper... the only key to the ultimate fairy-tale ending!", "poster_path": "/avz6S9HYWs4O8Oe4PenBFNX4uDi.jpg", "release_date": "1950-03-04", "title": "Cinderella", "video": false, "vote_average": 7.0, "vote_count": 4104, "popularity": 34.424}, {"id": 808, "video": false, "vote_count": 9704, "vote_average": 7.6, "title": "Shrek", "release_date": "2001-05-16", "original_language": "en", "original_title": "Shrek", "genre_ids": [12, 16, 35, 14, 10751], "backdrop_path": "/2l5UHZBcp9cx1PwKLdisJ0gV9jB.jpg", "adult": false, "overview": "It ain't easy bein' green -- especially if you're a likable (albeit smelly) ogre named Shrek. On a mission to retrieve a gorgeous princess from the clutches of a fire-breathing dragon, Shrek teams up with an unlikely compatriot -- a wisecracking donkey.", "poster_path": "/140ewbWv8qHStD3mlBDvvGd0Zvu.jpg", "popularity": 29.933}, {"id": 809, "video": false, "vote_count": 6985, "vote_average": 7.0, "title": "Shrek 2", "release_date": "2004-05-19", "original_language": "en", "original_title": "Shrek 2", "genre_ids": [12, 16, 35, 14, 10751], "backdrop_path": "/gdFAYLb5NR5HqcEKnPloOM6fX4B.jpg", "adult": false, "overview": "Shrek, Fiona and Donkey set off to Far, Far Away to meet Fiona's mother and father. But not everyone is happy. Shrek and the King find it hard to get along, and there's tension in the marriage. The fairy godmother discovers that Shrek has married Fiona instead of her Son Prince Charming and sets about destroying their marriage.", "poster_path": "/pSQvRqxwRa2IcDJHGY1d3TdKy2q.jpg", "popularity": 28.714}, {"id": 818, "video": false, "vote_count": 1920, "vote_average": 5.9, "title": "Austin Powers in Goldmember", "release_date": "2002-07-26", "original_language": "en", "original_title": "Austin Powers in Goldmember", "genre_ids": [35, 80, 878], "backdrop_path": "/mzZraP6PV34eVjB8giKbKIMXVeW.jpg", "adult": false, "overview": "The world's most shagadelic spy continues his fight against Dr. Evil. This time, the diabolical doctor and his clone, Mini-Me, team up with a new foe -- '70s kingpin Goldmember. While pursuing the team of villains to stop them from world domination, Austin gets help from his dad and an old girlfriend.", "poster_path": "/tFR7dTbX5BsmoUwKHfa2cWoZbwK.jpg", "popularity": 23.167}, {"id": 10020, "video": false, "vote_count": 6340, "vote_average": 7.7, "title": "Beauty and the Beast", "release_date": "1991-11-13", "original_language": "en", "original_title": "Beauty and the Beast", "genre_ids": [16, 14, 10749, 10751], "backdrop_path": "/4BE0Fb95KY6yoy5a7QWmvNtYes4.jpg", "adult": false, "overview": "Follow the adventures of Belle, a bright young woman who finds herself in the castle of a prince who's been turned into a mysterious beast. With the help of the castle's enchanted staff, Belle soon learns the most important lesson of all -- that true beauty comes from within.", "poster_path": "/b9QJr2oblOu1grgOMUZF1xkUJdh.jpg", "popularity": 39.745}, {"id": 37834, "video": false, "vote_count": 2737, "vote_average": 6.1, "title": "Knight and Day", "release_date": "2010-06-15", "original_language": "en", "original_title": "Knight and Day", "genre_ids": [28, 35], "backdrop_path": "/clq0YPDQYCql9ekC17YFklk8FwX.jpg", "adult": false, "overview": "A fugitive couple goes on a glamorous and sometimes deadly adventure where nothing and no one \u2013 even themselves \u2013 are what they seem. Amid shifting alliances and unexpected betrayals, they race across the globe, with their survival ultimately hinging on the battle of truth vs. trust.", "poster_path": "/aHEpzwXvMtIEMBE13tWXS5oHZ7d.jpg", "popularity": 17.619}, {"id": 207703, "video": false, "vote_count": 11141, "vote_average": 7.6, "title": "Kingsman: The Secret Service", "release_date": "2014-12-13", "original_language": "en", "original_title": "Kingsman: The Secret Service", "genre_ids": [28, 12, 35, 80], "backdrop_path": "/7McaexSsSTLD8V17UgaZAfI0Cu9.jpg", "adult": false, "overview": "The story of a super-secret spy organization that recruits an unrefined but promising street kid into the agency's ultra-competitive training program just as a global threat emerges from a twisted tech genius.", "poster_path": "/8x7ej0LnHdKUqilNNJXYOeyB6L9.jpg", "popularity": 26.232}, {"adult": false, "backdrop_path": "/zaGmoSackrRF7w6NieQ0FWY0M7k.jpg", "genre_ids": [28, 35, 9648], "id": 302699, "original_language": "en", "original_title": "Central Intelligence", "overview": "After he reunites with an old pal through Facebook, a mild-mannered accountant is lured into the world of international espionage.", "poster_path": "/9M5ibpQUjoVFjjnP2AdLcof4hAk.jpg", "release_date": "2016-06-15", "title": "Central Intelligence", "video": false, "vote_average": 6.3, "vote_count": 3490, "popularity": 15.246}, {"id": 9486, "video": false, "vote_count": 2000, "vote_average": 6.2, "title": "Johnny English", "release_date": "2003-03-14", "original_language": "en", "original_title": "Johnny English", "genre_ids": [28, 12, 35], "backdrop_path": "/wNEsGAHws1UATmZfnjNBRi2Ln5.jpg", "adult": false, "overview": "A lowly pencil pusher working for MI7, Johnny English is suddenly promoted to super spy after Agent One is assassinated and every other agent is blown up at his funeral. When a billionaire entrepreneur sponsors the exhibition of the Crown Jewels\u2014and the valuable gems disappear on the opening night and on English's watch\u2014the newly-designated agent must jump into action to find the thief and recover the missing gems.", "poster_path": "/fvFOJFDwgtINOxxtrFFiCMUrGdR.jpg", "popularity": 25.499}, {"adult": false, "backdrop_path": "/gRY30dvyLhydkblpE0v3NiXt0Nj.jpg", "genre_ids": [35, 10749], "id": 6557, "original_language": "en", "original_title": "27 Dresses", "overview": "Altruistic Jane finds herself facing her worst nightmare as her younger sister announces her engagement to the man Jane secretly adores.", "poster_path": "/zzJtHNzi1D4CPwRlPHV1TRQNXD2.jpg", "release_date": "2008-01-10", "title": "27 Dresses", "video": false, "vote_average": 6.3, "vote_count": 2137, "popularity": 14.081}, {"id": 47971, "video": false, "vote_count": 2661, "vote_average": 5.6, "title": "xXx: Return of Xander Cage", "release_date": "2017-01-13", "original_language": "en", "original_title": "xXx: Return of Xander Cage", "genre_ids": [28, 12, 80], "backdrop_path": "/zv4acOMTPoplVLKo4FaoqAseSDx.jpg", "adult": false, "overview": "Extreme athlete turned government operative Xander Cage comes out of self-imposed exile, thought to be long dead, and is set on a collision course with deadly alpha warrior Xiang and his team in a race to recover a sinister and seemingly unstoppable weapon known as Pandora's Box. Recruiting an all-new group of thrill-seeking cohorts, Xander finds himself enmeshed in a deadly conspiracy that points to collusion at the highest levels of world governments.", "poster_path": "/yNsdyNbQqaKN0TQxkHMws2KLTJ6.jpg", "popularity": 34.363}, {"id": 1949, "video": false, "vote_count": 5165, "vote_average": 7.5, "title": "Zodiac", "release_date": "2007-03-02", "original_language": "en", "original_title": "Zodiac", "genre_ids": [80, 18, 9648, 53], "backdrop_path": "/jP2htGBHE7vKq4MLeC75UeC0sZH.jpg", "adult": false, "overview": "The true story of the investigation of the \"Zodiac Killer\", a serial killer who terrified the San Francisco Bay Area, taunting police with his ciphers and letters. The case becomes an obsession for three men as their lives and careers are built and destroyed by the endless trail of clues.", "poster_path": "/bgLyOROfFQI3FqYL7jQbiaV8lkN.jpg", "popularity": 24.455}, {"id": 681, "video": false, "vote_count": 1040, "vote_average": 6.4, "title": "Diamonds Are Forever", "release_date": "1971-12-13", "original_language": "en", "original_title": "Diamonds Are Forever", "genre_ids": [28, 12, 53], "backdrop_path": "/gIGLXXvsljHK1jdDNaIXsjhZnnH.jpg", "adult": false, "overview": "Diamonds are stolen only to be sold again in the international market. James Bond infiltrates a smuggling mission to find out who\u2019s guilty. The mission takes him to Las Vegas where Bond meets his archenemy Blofeld.", "poster_path": "/viPjZ3JCOahcfNCcVhiPExusJoZ.jpg", "popularity": 18.532}], "total_pages": 75, "total_results": 1498}, "recommendations": {"page": 1, "results": [{"adult": false, "backdrop_path": "/1wxg5V2FHMnCKbxRF7EGcB1Xe0A.jpg", "genre_ids": [18, 10749], "id": 50079, "original_language": "en", "original_title": "Chained", "overview": "Richard, a millionaire in love with his secretary, Diane, is dispirited when his wife refuses to divorce him. Concerned that Diane will now lose interest, Richard offers her an all-expense-paid cruise to Argentina so that she can think it over. While traveling, however, Diane falls in love with fellow traveler Mike. She resolves to come clean to Richard, but upon return she becomes conflicted when she finds out he was able to get divorced after all.", "poster_path": "/pyBGOZgNf1PeSsmuTFkw4Q3vd3f.jpg", "release_date": "1934-08-31", "title": "Chained", "video": false, "vote_average": 7.0, "vote_count": 4, "popularity": 2.61}], "total_pages": 1, "total_results": 1}, "credits": {"cast": [{"cast_id": 2, "character": "Sally Parker", "credit_id": "52fe4656c3a368484e08b539", "gender": 1, "id": 31550, "name": "Joan Crawford", "order": 0, "profile_path": "/49huAjeGwSURLbUfhmkxjUBziL7.jpg"}, {"cast_id": 3, "character": "Michael Anthony", "credit_id": "52fe4656c3a368484e08b53d", "gender": 2, "id": 11492, "name": "Clark Gable", "order": 1, "profile_path": "/qD6WJzydym7n7fCeL9PGnHe1aEV.jpg"}, {"cast_id": 4, "character": "Barnabus Pells", "credit_id": "52fe4657c3a368484e08b541", "gender": 2, "id": 72059, "name": "Franchot Tone", "order": 2, "profile_path": "/140grYtawkKzF3ruaFjHVnlaUes.jpg"}, {"cast_id": 5, "character": "Baron Otto Spandermann", "credit_id": "52fe4657c3a368484e08b545", "gender": 2, "id": 5832, "name": "Reginald Owen", "order": 3, "profile_path": "/bgtpAl7ICrDyJQzjglLiVY6tlMw.jpg"}, {"cast_id": 6, "character": "Baroness Hilda Spandermann", "credit_id": "52fe4657c3a368484e08b549", "gender": 0, "id": 101995, "name": "Mona Barrie", "order": 4, "profile_path": "/fY5mh4iUid3eeqUQcLQ2znJZYQ5.jpg"}, {"cast_id": 16, "character": "Igor", "credit_id": "53f5ccd1c3a3683407003513", "gender": 0, "id": 121333, "name": "Ivan Lebedeff", "order": 5, "profile_path": "/mxbIxEESR0DrM4z1SKeN6a7bkMf.jpg"}, {"cast_id": 17, "character": "Lieutenant of Police", "credit_id": "53f5cceac3a36834030035d0", "gender": 2, "id": 96053, "name": "Charles Judels", "order": 6, "profile_path": "/tJr3v1i6KEwEfZJTOM68RcleZxN.jpg"}, {"cast_id": 18, "character": "Editor", "credit_id": "53f5cd01c3a36834030035d3", "gender": 2, "id": 21510, "name": "William Demarest", "order": 7, "profile_path": "/46bHaVaiR9Lfi56I7w2Fxq8dSvZ.jpg"}, {"cast_id": 19, "character": "Caretaker", "credit_id": "53f5cd17c3a36833fa003673", "gender": 2, "id": 14968, "name": "Donald Meek", "order": 8, "profile_path": "/zKB7cWdaXAi12lDOMlc85m1HiqV.jpg"}, {"cast_id": 20, "character": "Sergeant of Police (uncredited)", "credit_id": "53f5cd38c3a36834030035da", "gender": 2, "id": 120701, "name": "George Davis", "order": 9, "profile_path": "/bYZ6eVY8RTYZHuWORH2mKrtQ5RK.jpg"}], "crew": [{"credit_id": "57191d239251416e7b0008aa", "department": "Sound", "gender": 2, "id": 8619, "job": "Original Music Composer", "name": "Franz Waxman", "profile_path": "/n48TLDTHMqC84UpyIM6xO6ZqyLE.jpg"}, {"credit_id": "53f5cc84c3a36834030035ca", "department": "Art", "gender": 2, "id": 9062, "job": "Art Direction", "name": "Cedric Gibbons", "profile_path": "/w8tc9iVH87Iu1KKFDZ9B99NhnBc.jpg"}, {"credit_id": "53f5cc9ac3a368340b0037d5", "department": "Costume & Make-Up", "gender": 2, "id": 9064, "job": "Costume Design", "name": "Adrian", "profile_path": "/fnsEX7RnTRGuh32x8WmHrtz25D5.jpg"}, {"credit_id": "53f5cc38c3a368340700350a", "department": "Production", "gender": 2, "id": 10601, "job": "Producer", "name": "Joseph L. Mankiewicz", "profile_path": "/1zqHOZQlevCE2ld15qUt24Nxr7u.jpg"}, {"credit_id": "53f5cc6fc3a36833fa003669", "department": "Editing", "gender": 2, "id": 14679, "job": "Editor", "name": "Frank Sullivan", "profile_path": null}, {"credit_id": "52fe4657c3a368484e08b54f", "department": "Writing", "gender": 2, "id": 29618, "job": "Screenplay", "name": "John Lee Mahin", "profile_path": null}, {"credit_id": "52fe4656c3a368484e08b535", "department": "Directing", "gender": 2, "id": 32427, "job": "Director", "name": "W.S. Van Dyke", "profile_path": "/npK68MUyjJD3gZHhF04xBaXnuqd.jpg"}, {"credit_id": "55534451c3a368635500181b", "department": "Camera", "gender": 2, "id": 127523, "job": "Director of Photography", "name": "Oliver T. Marsh", "profile_path": null}, {"credit_id": "52fe4657c3a368484e08b55b", "department": "Writing", "gender": 1, "id": 132255, "job": "Screenplay", "name": "Gladys Hurlbut", "profile_path": "/h1LA7VzIEE8yD9RWoJzgYsil2Kh.jpg"}, {"credit_id": "52fe4657c3a368484e08b555", "department": "Writing", "gender": 0, "id": 138466, "job": "Screenplay", "name": "Manuel Seff", "profile_path": null}]}}