{"adult": false, "backdrop_path": "/hoF1Ks4z7wP3tr4ILLUsLSH0cJt.jpg", "belongs_to_collection": null, "budget": 0, "genres": [{"id": 35, "name": "Comedy"}], "homepage": null, "id": 61622, "imdb_id": "tt0067738", "original_language": "en", "original_title": "A Severed Head", "overview": "Antonia, the pampered wife of Martin Lynch-Gibbon, an upper class wine merchant, tells her husband that she is in love with their best friend, the psychiatrist Palmer Anderson. Palmer and Antonia want to deal with the situation in a civilized way, by remaining friends with Martin. Meanwhile Martin tries to keep his mistress, Georgie Hands, a secret, but Palmer's sister, Honor Klein, who taught Georgie at Oxford, tells Palmer and Antonia about her. Furthermore, Honor introduces Georgie to Martin's womanizing brother, Alexander. This is just the beginning of the various liaisons.", "popularity": 2.815, "poster_path": "/nGTw7rHEL8dpxthy646r98xQ2bY.jpg", "production_companies": [{"id": 13721, "logo_path": null, "name": "Winkast Film Productions", "origin_country": ""}], "production_countries": [{"iso_3166_1": "GB", "name": "United Kingdom"}], "release_date": "1970-12-01", "revenue": 0, "runtime": 98, "spoken_languages": [{"iso_639_1": "en", "name": "English"}], "status": "Released", "tagline": "A Severed Head is not a horror story ... It's something else!", "title": "A Severed Head", "video": false, "vote_average": 7.8, "vote_count": 3, "keywords": {"keywords": [{"id": 1326, "name": "infidelity"}, {"id": 2587, "name": "married couple"}, {"id": 10061, "name": "dysfunctional marriage"}]}, "similar": {"page": 1, "results": [{"adult": false, "backdrop_path": "/zA1Tv2C2wXeDSWfn3S8XdElqDFG.jpg", "genre_ids": [35, 18], "id": 37265, "original_language": "it", "original_title": "Cos\u00ec fan tutte", "overview": "Diana is a Roman wife happily married to sympathetic Paolo but she is keen on playing benign games of seduction with other men while resisting the advances of chic lingerie shop owner Silvio. She narrates her adventures to Paolo in order to stimulate their otherwise monotonous sexual life. However, under the influence of her lesbian friend Antonietta and raunchy sister Nadia, Diana starts to move the ongoings further while Paolo is still prone to believing that events narrated by her are merely fantasies.", "poster_path": "/h5xsSUCkXCd0696K5A9hkmgaERE.jpg", "release_date": "1992-02-21", "title": "All Ladies Do It", "video": false, "vote_average": 4.2, "vote_count": 207, "popularity": 9.964}, {"adult": false, "backdrop_path": "/ecREZ3vYCqethftSDWK4we0X498.jpg", "genre_ids": [35, 18, 10749], "id": 4507, "original_language": "es", "original_title": "Jam\u00f3n, jam\u00f3n", "overview": "Jose Luis is an executive at his parents underwear factory where his girlfriend Sylvia works on the shop floor. When Sylvia becomes pregnant, Jose Luis promises her that he will marry her, most likely against the wishes of his parents. Jose Luis' mother is determined to break her son's engagement to a girl from a lower-class family, and hires Raul, a potential underwear model and would-be bullfighter to seduce Sylvia.", "poster_path": "/v5Fq01ZtYnA2Grxdd3g8CuGZARg.jpg", "release_date": "1992-09-03", "title": "Jamon Jamon", "video": false, "vote_average": 6.1, "vote_count": 143, "popularity": 13.381}, {"adult": false, "backdrop_path": "/fAA0S3rM3o5Sp8TIdS0MvWOGsCQ.jpg", "genre_ids": [18, 10749], "id": 843, "original_language": "cn", "original_title": "\u82b1\u6a23\u5e74\u83ef", "overview": "Taking place in Hong Kong of 1962, a melancholy story about the love between a woman and a man who live in the same building and one day find out that their husband and wife had an affair with each other.", "poster_path": "/unOW3SxFxBdd7LMWjmRONdHWKPb.jpg", "release_date": "2000-05-22", "title": "In the Mood for Love", "video": false, "vote_average": 8.1, "vote_count": 963, "popularity": 21.272}, {"id": 787, "video": false, "vote_count": 6331, "vote_average": 6.6, "title": "Mr. & Mrs. Smith", "release_date": "2005-06-07", "original_language": "en", "original_title": "Mr. & Mrs. Smith", "genre_ids": [28, 35, 18, 53], "backdrop_path": "/fAwYX0Fha35CaYYUJ06VTN3bEeh.jpg", "adult": false, "overview": "After five (or six) years of vanilla-wedded bliss, ordinary suburbanites John and Jane Smith are stuck in a huge rut. Unbeknownst to each other, they are both coolly lethal, highly-paid assassins working for rival organisations. When they discover they're each other's next target, their secret lives collide in a spicy, explosive mix of wicked comedy, pent-up passion, nonstop action and high-tech weaponry.", "poster_path": "/dqs5BmwSULtB28Kls3IB6khTQwp.jpg", "popularity": 36.487}, {"adult": false, "backdrop_path": "/bYbnlh6VXFRtcSX82UMDsBDLB5j.jpg", "genre_ids": [18, 10749], "id": 28468, "original_language": "it", "original_title": "La chiave", "overview": "After twenty years of marriage, art professor Nino Rolfe attempts to break down his wife Teresa's conventional modesty. Noticing her affection for their daughter's fianc\u00e9, Nino instigates her sexual interest in him as well. This sets off a chain of unexpected events and emotional complications, as Nino and his unpredictable fascist daughter find that they both enjoy being jealous.", "poster_path": "/e6g2geNLgFzMbriH6EvSJZD78nx.jpg", "release_date": "1983-10-18", "title": "The Key", "video": false, "vote_average": 5.0, "vote_count": 128, "popularity": 15.363}, {"adult": false, "backdrop_path": "/84kMxZoaw958LrBNqSQqxFJEDXI.jpg", "genre_ids": [18, 10749], "id": 27066, "original_language": "it", "original_title": "L'uomo che guarda", "overview": "At a college in Rome, a professor, nicknamed \"Dodo\" is in a deep depression. His stunningly beautiful wife has just left him for another man. Dodo wants her back very badly and has erotic daydreams about her. A beautiful young student in his class asks him for a ride home and seduces the lucky man, but still he wonders about his wife and her lover.", "poster_path": "/ndMErDbUC7lSiKoWeUfzdMs3OpV.jpg", "release_date": "1994-01-27", "title": "The Voyeur", "video": false, "vote_average": 4.4, "vote_count": 82, "popularity": 11.247}, {"adult": false, "backdrop_path": "/nSiVPE0VAzwCLkb94a0voX2GseN.jpg", "genre_ids": [35, 18, 10749], "id": 258, "original_language": "fr", "original_title": "Domicile conjugal", "overview": "Parisian everyman Antoine Doinel has married his sweetheart Christine Darbon, and the newlyweds have set up a cozy domestic life of selling flowers and giving violin lessons while Antoine fitfully works on his long-gestating novel. As Christine becomes pregnant with the couple's first child, Antoine finds himself enraptured with a young Japanese beauty. The complications change the course of their relationship forever.", "poster_path": "/zyEyzWZlTYQSizZ9UKYa61CHudu.jpg", "release_date": "1970-08-31", "title": "Bed and Board", "video": false, "vote_average": 7.4, "vote_count": 74, "popularity": 8.91}, {"adult": false, "backdrop_path": "/tMxCVvecIGr2mxpFt6XISKQTghD.jpg", "genre_ids": [18, 10749, 53], "id": 36630, "original_language": "en", "original_title": "Zandalee", "overview": "Bored with her marriage to burnt out poet turned corporate executive Thierry, Zandalee falls prey to an old friend of her husband, the manipulative and egotistical Johhny and becomes enmeshed in a sensual, passionate and destructive affair.", "poster_path": "/2htCUPJ6IsosO44lbN5XLfjDDhR.jpg", "release_date": "1991-05-09", "title": "Zandalee", "video": false, "vote_average": 4.2, "vote_count": 36, "popularity": 9.206}, {"id": 263472, "video": false, "vote_count": 1669, "vote_average": 5.0, "title": "Knock Knock", "release_date": "2015-06-26", "original_language": "en", "original_title": "Knock Knock", "genre_ids": [18, 53], "backdrop_path": "/gJduaRau3X2oE3xkmjs1FufT2GE.jpg", "adult": false, "overview": "When a devoted husband and father is left home alone for the weekend, two stranded young women unexpectedly knock on his door for help. What starts out as a kind gesture results in a dangerous seduction and a deadly game of cat and mouse.", "poster_path": "/eynMtjBB1fXsB5vsQylVmsDLmvw.jpg", "popularity": 19.205}, {"adult": false, "backdrop_path": "/eHhtUoazdml8CMvzWtpunIyqrZS.jpg", "genre_ids": [18, 53, 10749], "id": 884, "original_language": "en", "original_title": "Crash", "overview": "After getting into a serious car accident, a TV director discovers an underground sub-culture of scarred, omnisexual car-crash victims who use car accidents and the raw sexual energy they produce to try to rejuvenate his sex life with his wife.", "poster_path": "/4PDLGJsS5uVBQlYjLMZ7t85dU0P.jpg", "release_date": "1996-07-17", "title": "Crash", "video": false, "vote_average": 6.5, "vote_count": 438, "popularity": 14.59}, {"adult": false, "backdrop_path": "/98ahnrena4PwLth7HFYGLf9yssH.jpg", "genre_ids": [35, 18, 10749], "id": 22705, "original_language": "it", "original_title": "Tra(sgre)dire", "overview": "While scouting out apartments in London for her Venetian boyfriend, Carla rents an apartment that overlooks the Thames. There she meet the lesbian hyper-horny real estate agent Moira.", "poster_path": "/kZITrLEiTfzzJhtwtXhQUl3ImCQ.jpg", "release_date": "2000-01-28", "title": "Cheeky", "video": false, "vote_average": 5.7, "vote_count": 92, "popularity": 30.42}, {"adult": false, "backdrop_path": "/plnmzCMPAb3suBAUJ4Yi2NC1APA.jpg", "genre_ids": [35], "id": 35056, "original_language": "en", "original_title": "Date Night", "overview": "Phil and Claire Foster fear that their mild-mannered relationship may be falling into a stale rut. During their weekly date night, their dinner reservation leads to their being mistaken for a couple of thieves\u2014and now a number of unsavoury characters want Phil and Claire killed.", "poster_path": "/fzzPht9KId6Ollow30jYtABhDY3.jpg", "release_date": "2010-04-08", "title": "Date Night", "video": false, "vote_average": 6.0, "vote_count": 1888, "popularity": 14.813}, {"adult": false, "backdrop_path": "/avhG8fITuG78IkKPk28CcBBHPOp.jpg", "genre_ids": [35, 18], "id": 112160, "original_language": "fr", "original_title": "Chroniques sexuelles d'une famille d'aujourd'hui", "overview": "Three generations of a French family open up about their sexual experiences and desires after young Romain is caught masturbating in his biology class.", "poster_path": "/pU2nD3Llaz3Taq5FAaQUg00uJYD.jpg", "release_date": "2012-05-09", "title": "Sexual Chronicles of a French Family", "video": false, "vote_average": 4.4, "vote_count": 169, "popularity": 26.875}, {"adult": false, "backdrop_path": "/npClMhFGn4XUkwu6coq5oKAEu6L.jpg", "genre_ids": [35, 10749, 18], "id": 634, "original_language": "en", "original_title": "Bridget Jones's Diary", "overview": "A chaotic Bridget Jones meets a snobbish lawyer, and he soon enters her world of imperfections.", "poster_path": "/ym6kjFFZg6boC0QHBVw6hqJLbxv.jpg", "release_date": "2001-04-13", "title": "Bridget Jones's Diary", "video": false, "vote_average": 6.7, "vote_count": 3080, "popularity": 19.453}, {"adult": false, "backdrop_path": "/vVK04ayDtN2186jgkCtFjvw8IlN.jpg", "genre_ids": [18, 10749], "id": 4148, "original_language": "en", "original_title": "Revolutionary Road", "overview": "A young couple living in a Connecticut suburb during the mid-1950s struggle to come to terms with their personal problems while trying to raise their two children. Based on a novel by Richard Yates.", "poster_path": "/bnOK1lmdlqdy2HX6IgKx9TQD7Ax.jpg", "release_date": "2008-12-19", "title": "Revolutionary Road", "video": false, "vote_average": 6.9, "vote_count": 2092, "popularity": 19.466}, {"id": 10653, "video": false, "vote_count": 419, "vote_average": 7.1, "title": "The Seven Year Itch", "release_date": "1955-06-01", "original_language": "en", "original_title": "The Seven Year Itch", "genre_ids": [35, 10749], "backdrop_path": "/mX8Hfs2QfY3ZJwDsk4DxP4tL3OU.jpg", "adult": false, "overview": "With his family away for their annual summer holiday, Richard Sherman decides he has the opportunity to live a bachelor's life. The beautiful but ditzy blonde from the apartment above catches his eye and they soon start spending time together - maybe a little too much time!", "poster_path": "/4oLqx0QbjWFzWtkxRmDLGH47CUJ.jpg", "popularity": 12.007}, {"id": 35685, "video": false, "vote_count": 30, "vote_average": 5.3, "title": "Lady Chatterley's Lover", "release_date": "1981-06-29", "original_language": "en", "original_title": "Lady Chatterley's Lover", "genre_ids": [18, 10749], "backdrop_path": "/xVJ9VCXvRIwWWjt1x0GvMV0bV3e.jpg", "adult": false, "overview": "A film adaptation of D.H. Lawrence's novel. After a crippling injury leaves her husband impotent, Lady Chatterly is torn between her love for her husband and her physical desires. With her husband's consent, she seeks out other means of fulfilling her needs.", "poster_path": "/kUfYxFkRotm3frocEf0A25rXawV.jpg", "popularity": 9.336}, {"adult": false, "backdrop_path": "/Ao2bnJMmcFepMVw1BUay25tt7TM.jpg", "genre_ids": [18, 10749], "id": 1259, "original_language": "en", "original_title": "Notes on a Scandal", "overview": "A veteran high school teacher befriends a younger art teacher, who is having an affair with one of her 15-year-old students. However, her intentions with this new \"friend\" also go well beyond platonic friendship.", "poster_path": "/lXZa1mHZ8eD0VOpNaLfvM9tSpAj.jpg", "release_date": "2006-12-25", "title": "Notes on a Scandal", "video": false, "vote_average": 7.1, "vote_count": 463, "popularity": 12.753}, {"id": 193610, "video": false, "vote_count": 2466, "vote_average": 6.3, "title": "The Other Woman", "release_date": "2014-04-16", "original_language": "en", "original_title": "The Other Woman", "genre_ids": [35, 10749], "backdrop_path": "/vWiwrW8OArlBcdEK4RzhPCIYi4r.jpg", "adult": false, "overview": "After discovering her boyfriend is married, Carly soon meets the wife he's been cheating on. And when yet another affair is discovered, all three women team up to plot mutual revenge on the three-timing SOB.", "poster_path": "/fu7K3rPwJcScizlXbxWAR7ZoUxt.jpg", "popularity": 16.146}, {"id": 11467, "video": false, "vote_count": 487, "vote_average": 5.7, "title": "America's Sweethearts", "release_date": "2001-07-17", "original_language": "en", "original_title": "America's Sweethearts", "genre_ids": [35, 10749], "backdrop_path": "/wFIg3BjUPwI58XMeouDEHtQYUDW.jpg", "adult": false, "overview": "In the midst of a nasty public breakup of married movie stars, a studio publicist scrambles to put a cap on the escalating situation as the couple's latest film has found it's only print kidnapped by the director.", "poster_path": "/zggrMP2Jay25WwzZJxDSRV3OPZX.jpg", "popularity": 9.923}], "total_pages": 157, "total_results": 3136}, "recommendations": {"page": 1, "results": [], "total_pages": 1, "total_results": 0}, "credits": {"cast": [{"cast_id": 2, "character": "Antonia Lynch-Gibbon", "credit_id": "52fe465ac3a368484e08c137", "gender": 1, "id": 855, "name": "Lee Remick", "order": 0, "profile_path": "/pfFQpcDDMLiwPa90GfEJWpMF1gS.jpg"}, {"cast_id": 3, "character": "Palmer Anderson", "credit_id": "52fe465ac3a368484e08c13b", "gender": 2, "id": 4786, "name": "Richard Attenborough", "order": 1, "profile_path": "/Abo8fAcdruACs344ut6PNSKH7N4.jpg"}, {"cast_id": 4, "character": "Martin Lynch-Gibbon", "credit_id": "52fe465ac3a368484e08c13f", "gender": 2, "id": 65, "name": "Ian Holm", "order": 2, "profile_path": "/w10RqtxwPV3alOhh0ngR0EJvIB1.jpg"}, {"cast_id": 5, "character": "Honor Klein", "credit_id": "52fe465ac3a368484e08c143", "gender": 1, "id": 29545, "name": "Claire Bloom", "order": 3, "profile_path": "/4x0Cfh1g8apqOPio8AJx9oUV9mK.jpg"}, {"cast_id": 6, "character": "Georgie Hands", "credit_id": "52fe465ac3a368484e08c147", "gender": 1, "id": 95692, "name": "Jennie Linden", "order": 4, "profile_path": "/fsWr9YLsC0N9uUKaOPquZnqL8p5.jpg"}, {"cast_id": 7, "character": "Alexander Lynch-Gibbon", "credit_id": "52fe465ac3a368484e08c14b", "gender": 2, "id": 20128, "name": "Clive Revill", "order": 5, "profile_path": "/5o1d59FBQ9i8xtd1aWZClDdzZ3E.jpg"}, {"cast_id": 8, "character": "Rosemary Lynch-Gibbon", "credit_id": "52fe465ac3a368484e08c14f", "gender": 1, "id": 17161, "name": "Ann Firbank", "order": 6, "profile_path": "/xFCoMlE02MUrc1bD26ef0q5jAn4.jpg"}, {"cast_id": 9, "character": "Miss Seelhaft", "credit_id": "52fe465ac3a368484e08c153", "gender": 1, "id": 93167, "name": "Rosamund Greenwood", "order": 7, "profile_path": null}, {"cast_id": 20, "character": "", "credit_id": "5cba44a90e0a266b98f3eede", "gender": 1, "id": 134700, "name": "Nerys Hughes", "order": 8, "profile_path": "/9KiI75zKw9yyhgCo4jfiZ6oNLoo.jpg"}], "crew": [{"credit_id": "593f2eaf9251414b02002e79", "department": "Writing", "gender": 2, "id": 5014, "job": "Screenplay", "name": "Frederic Raphael", "profile_path": null}, {"credit_id": "593f30ddc3a36803b4003544", "department": "Editing", "gender": 2, "id": 5057, "job": "Editor", "name": "Peter Weatherley", "profile_path": null}, {"credit_id": "52fe465ac3a368484e08c133", "department": "Directing", "gender": 2, "id": 18910, "job": "Director", "name": "Dick Clement", "profile_path": "/nr0TAbwYMUy7ek4XHigfqzXUwKr.jpg"}, {"credit_id": "593f30e4c3a36803f60033f8", "department": "Art", "gender": 2, "id": 11061, "job": "Production Design", "name": "Richard Macdonald", "profile_path": null}, {"credit_id": "593f2ec79251414af6002e66", "department": "Sound", "gender": 2, "id": 40150, "job": "Original Music Composer", "name": "Stanley Myers", "profile_path": null}, {"credit_id": "593f2ebe9251414aee0030f9", "department": "Writing", "gender": 0, "id": 103736, "job": "Theatre Play", "name": "J.B. Priestley", "profile_path": null}, {"credit_id": "593f2ece9251414afb002fc4", "department": "Camera", "gender": 2, "id": 959727, "job": "Director of Photography", "name": "Austin Dempster", "profile_path": null}, {"credit_id": "593f30f89251414b45003410", "department": "Costume & Make-Up", "gender": 1, "id": 960135, "job": "Costume Design", "name": "Sue Yelland", "profile_path": null}, {"credit_id": "593f30eec3a36803e600343d", "department": "Art", "gender": 2, "id": 1832563, "job": "Art Direction", "name": "John Clark", "profile_path": null}, {"credit_id": "593f2ea89251414af6002e40", "department": "Writing", "gender": 0, "id": 1832566, "job": "Novel", "name": "Iris Murdoch", "profile_path": null}, {"credit_id": "593f2eb79251414afb002fa8", "department": "Writing", "gender": 0, "id": 1832566, "job": "Theatre Play", "name": "Iris Murdoch", "profile_path": null}]}}