{"adult": false, "backdrop_path": "/5qy4PGnEzZajJNzPZ2jxiqUIBON.jpg", "belongs_to_collection": null, "budget": 0, "genres": [{"id": 35, "name": "Comedy"}], "homepage": "", "id": 6166, "imdb_id": "tt0121210", "original_language": "en", "original_title": "Dinner for One", "overview": "A very old woman wants to have dinner with her friends. As they are all dead, the butler has to play the role of every guest.", "popularity": 6.229, "poster_path": "/2uzk4IIwOrRQHn816IsEngYn8mp.jpg", "production_companies": [{"id": 18499, "logo_path": null, "name": "Schweizer Fernsehen (SF)", "origin_country": ""}, {"id": 7201, "logo_path": "/ljV8ZT3CIYCEIEDlTyBliXJVCZr.png", "name": "NDR", "origin_country": "DE"}], "production_countries": [{"iso_3166_1": "CH", "name": "Switzerland"}, {"iso_3166_1": "DE", "name": "Germany"}], "release_date": "1963-06-08", "revenue": 0, "runtime": 18, "spoken_languages": [{"iso_639_1": "en", "name": "English"}, {"iso_639_1": "de", "name": "Deutsch"}], "status": "Released", "tagline": "", "title": "Dinner for One", "video": false, "vote_average": 7.4, "vote_count": 73, "keywords": {"keywords": [{"id": 613, "name": "new year's eve"}, {"id": 214549, "name": "short"}]}, "similar": {"page": 1, "results": [{"id": 150540, "video": false, "vote_count": 13953, "vote_average": 7.9, "title": "Inside Out", "release_date": "2015-06-09", "original_language": "en", "original_title": "Inside Out", "genre_ids": [16, 35, 18, 10751], "backdrop_path": "/szytSpLAyBh3ULei3x663mAv5ZT.jpg", "adult": false, "overview": "Growing up can be a bumpy road, and it's no exception for Riley, who is uprooted from her Midwest life when her father starts a new job in San Francisco. Riley's guiding emotions\u2014 Joy, Fear, Anger, Disgust and Sadness\u2014live in Headquarters, the control centre inside Riley's mind, where they help advise her through everyday life and tries to keep things positive, but the emotions conflict on how best to navigate a new city, house and school.", "poster_path": "/aAmfIX3TT40zUHGcCKrlOZRKC7u.jpg", "popularity": 47.351}, {"id": 21385, "video": false, "vote_count": 455, "vote_average": 6.4, "title": "Mickey, Donald, Goofy: The Three Musketeers", "release_date": "2004-08-04", "original_language": "en", "original_title": "Mickey, Donald, Goofy: The Three Musketeers", "genre_ids": [12, 16, 35, 10751], "backdrop_path": "/8WodHELOg5guFPMIQf0M88IQhNE.jpg", "adult": false, "overview": "In Disney's take on the Alexander Dumas tale, Mickey Mouse, Donald Duck and Goofy want nothing more than to perform brave deeds on behalf of their queen (Minnie Mouse), but they're stymied by the head Musketeer, Pete. Pete secretly wants to get rid of the queen, so he appoints Mickey and his bumbling friends as guardians to Minnie, thinking such a maneuver will ensure his scheme's success. The score features songs based on familiar classical melodies.", "poster_path": "/uDvv54as7hLH7aWHwPyIVvoNb9K.jpg", "popularity": 27.868}, {"id": 621733, "video": false, "vote_count": 0, "vote_average": 0.0, "title": "A Trip to the Seaside", "release_date": "2019-08-30", "original_language": "en", "original_title": "A Trip to the Seaside", "genre_ids": [99], "backdrop_path": null, "adult": false, "overview": "Experimental short film on the excitement and rush of a day trip", "poster_path": "/AuZVhpoJ4jm2LWDhoJKfxQfhDAi.jpg", "popularity": 1.324}, {"id": 14813, "video": false, "vote_count": 456, "vote_average": 7.6, "title": "Mickey's Christmas Carol", "release_date": "1983-10-19", "original_language": "en", "original_title": "Mickey's Christmas Carol", "genre_ids": [16, 10751], "backdrop_path": "/fDK3xeAcQfQ40ZUULgZshElkspa.jpg", "adult": false, "overview": "It is an adaptation of the Charles Dickens classic A Christmas Carol, featuring Scrooge McDuck as his namesake and inspiration Ebenezer Scrooge and Mickey Mouse as Bob Cratchit. This film was based on a 1972 audio musical entitled Disney's A Christmas Carol. It is a twenty-four minute animated short film produced by Walt Disney Productions as an accompaniment to a re-release of The Rescuers.", "poster_path": "/29iF1IiC3ZyJQ1kmTf4LD8p8oro.jpg", "popularity": 18.001}, {"adult": false, "backdrop_path": "/4brEMzPazQE3hv3mogj6k1a29RP.jpg", "genre_ids": [10749, 14, 16], "id": 3933, "original_language": "en", "original_title": "Corpse Bride", "overview": "Set in a 19th-century european village, this stop-motion animation feature follows the story of Victor, a young man whisked away to the underworld and wed to a mysterious corpse bride, while his real bride Victoria waits bereft in the land of the living.", "poster_path": "/o9GbcdP7rOg2m1NyUnUR3ZwNcTE.jpg", "release_date": "2005-09-12", "title": "Corpse Bride", "video": false, "vote_average": 7.4, "vote_count": 4926, "popularity": 16.93}, {"id": 326359, "video": false, "vote_count": 1179, "vote_average": 6.8, "title": "Frozen Fever", "release_date": "2015-03-09", "original_language": "en", "original_title": "Frozen Fever", "genre_ids": [12, 16, 10751], "backdrop_path": "/ubioPGniCfDiASmYYpeJs5RRNaC.jpg", "adult": false, "overview": "On Anna's birthday, Elsa and Kristoff are determined to give her the best celebration ever, but Elsa's icy powers may put more than just the party at risk.", "poster_path": "/lKJiVPzsAO9IJ4LKWXZ8vkR2bg4.jpg", "popularity": 17.061}, {"adult": false, "backdrop_path": "/5OeY4U2rzePxWq2rkqMajUx2gz7.jpg", "genre_ids": [16, 10751, 12, 14, 10749], "id": 812, "original_language": "en", "original_title": "Aladdin", "overview": "Princess Jasmine grows tired of being forced to remain in the palace, so she sneaks out into the marketplace, in disguise, where she meets street-urchin Aladdin.  The couple falls in love, although Jasmine may only marry a prince.  After being thrown in jail, Aladdin becomes embroiled in a plot to find a mysterious lamp, with which the evil Jafar hopes to rule the land.", "poster_path": "/mjKozYRuHc9j7SmiXmbVmCiAM0A.jpg", "release_date": "1992-11-25", "title": "Aladdin", "video": false, "vote_average": 7.6, "vote_count": 7288, "popularity": 46.629}, {"id": 9479, "video": false, "vote_count": 5315, "vote_average": 7.8, "title": "The Nightmare Before Christmas", "release_date": "1993-10-09", "original_language": "en", "original_title": "The Nightmare Before Christmas", "genre_ids": [16, 14, 10751], "backdrop_path": "/16lk65YfrDFIr6evkWRjSeOOSws.jpg", "adult": false, "overview": "Tired of scaring humans every October 31 with the same old bag of tricks, Jack Skellington, the spindly king of Halloween Town, kidnaps Santa Claus and plans to deliver shrunken heads and other ghoulish gifts to children on Christmas morning. But as Christmas approaches, Jack's rag-doll girlfriend, Sally, tries to foil his misguided plans.", "poster_path": "/6oxkO1VgKCq74fNILKAg6t2dVEt.jpg", "popularity": 20.34}, {"id": 650755, "video": false, "vote_count": 0, "vote_average": 0.0, "title": "Atordoado, Eu Permane\u00e7o Atento", "release_date": "2020-01-15", "original_language": "pt", "original_title": "Atordoado, Eu Permane\u00e7o Atento", "genre_ids": [99], "backdrop_path": null, "adult": false, "overview": "", "poster_path": "/exbM8qk6f6T44olJXcM8ix1sunL.jpg", "popularity": 7.153}, {"id": 533, "video": false, "vote_count": 1440, "vote_average": 6.9, "title": "Wallace & Gromit: The Curse of the Were-Rabbit", "release_date": "2005-09-04", "original_language": "en", "original_title": "Wallace & Gromit: The Curse of the Were-Rabbit", "genre_ids": [12, 16, 35, 10751], "backdrop_path": "/v45E1vDhPp2hc1dEZx5KZuRsSxX.jpg", "adult": false, "overview": "Cheese-loving eccentric Wallace and his cunning canine pal, Gromit, investigate a mystery in Nick Park's animated adventure, in which the lovable inventor and his intrepid pup run a business ridding the town of garden pests. Using only humane methods that turn their home into a halfway house for evicted vermin, the pair stumble upon a mystery involving a voracious vegetarian monster that threatens to ruin the annual veggie-growing contest.", "poster_path": "/tLryx0x9TDV5rifA9W8yUvDZFHB.jpg", "popularity": 23.185}, {"id": 856, "video": false, "vote_count": 3247, "vote_average": 7.4, "title": "Who Framed Roger Rabbit", "release_date": "1988-06-21", "original_language": "en", "original_title": "Who Framed Roger Rabbit", "genre_ids": [16, 35, 80, 14, 10751], "backdrop_path": "/9podqGmd36AJHO13HQIQHQZRTJC.jpg", "adult": false, "overview": "'Toon star Roger is worried that his wife Jessica is playing pattycake with someone else, so the studio hires detective Eddie Valiant to snoop on her. But the stakes are quickly raised when Marvin Acme is found dead and Roger is the prime suspect.", "poster_path": "/lYfRc57Kx9VgLZ48iulu0HKnM15.jpg", "popularity": 22.366}, {"id": 77931, "video": false, "vote_count": 1335, "vote_average": 5.7, "title": "The Smurfs 2", "release_date": "2013-07-30", "original_language": "en", "original_title": "The Smurfs 2", "genre_ids": [16, 35, 14, 10751], "backdrop_path": "/xqfnJn8ApELIa1zGLOa3W9q2Ztn.jpg", "adult": false, "overview": "The evil wizard Gargamel creates a couple of mischievous Smurf-like creatures called the Naughties that he hopes will let him harness the all-powerful, magical Smurf-essence. But when he discovers that only a real Smurf can give him what he wants, and only a secret spell that Smurfette knows can turn the Naughties into real Smurfs, Gargamel kidnaps Smurfette and brings her to Paris, where he has been winning the adoration of millions as the world\u00b9s greatest sorcerer. It's up to Papa, Clumsy, Grouchy, and Vanity to return to our world, reunite with their human friends Patrick and Grace Winslow, and rescue her! Will Smurfette, who has always felt different from the other Smurfs, find a new connection with the Naughties Vexy and Hackus or will the Smurfs convince her that their love for her is True Blue?", "poster_path": "/mF2FXzZ3EktWoagU4fzoabNsK6J.jpg", "popularity": 20.374}, {"id": 399174, "video": false, "vote_count": 2440, "vote_average": 7.9, "title": "Isle of Dogs", "release_date": "2018-03-23", "original_language": "en", "original_title": "Isle of Dogs", "genre_ids": [12, 16, 35], "backdrop_path": "/5YtXsLG9ncjjFyGZjoeV31CGf01.jpg", "adult": false, "overview": "In the future, an outbreak of canine flu leads the mayor of a Japanese city to banish all dogs to an island that's a garbage dump. The outcasts must soon embark on an epic journey when a 12-year-old boy arrives on the island to find his beloved pet.", "poster_path": "/c0nUX6Q1ZB0P2t1Jo6EeFSVnOGQ.jpg", "popularity": 16.915}, {"adult": false, "backdrop_path": "/9l5Nzo1qbEslfCu2NYWimpZ1Vkc.jpg", "genre_ids": [35, 10751, 14, 10749], "id": 4523, "original_language": "en", "original_title": "Enchanted", "overview": "The beautiful princess Giselle is banished by an evil queen from her magical, musical animated land and finds herself in the gritty reality of the streets of modern-day Manhattan. Shocked by this strange new environment that doesn't operate on a \"happily ever after\" basis, Giselle is now adrift in a chaotic world badly in need of enchantment. But when Giselle begins to fall in love with a charmingly flawed divorce lawyer who has come to her aid - even though she is already promised to a perfect fairy tale prince back home - she has to wonder: Can a storybook view of romance survive in the real world?", "poster_path": "/65EfHNQ6NCeAoRPNLRhTyLqNZmU.jpg", "release_date": "2007-11-20", "title": "Enchanted", "video": false, "vote_average": 6.7, "vote_count": 3505, "popularity": 20.256}, {"id": 62177, "video": false, "vote_count": 8930, "vote_average": 6.9, "title": "Brave", "release_date": "2012-06-21", "original_language": "en", "original_title": "Brave", "genre_ids": [28, 12, 16, 35, 14, 10751], "backdrop_path": "/sfRCA9g3CunpnZO3QurHSIRcsUq.jpg", "adult": false, "overview": "Brave is set in the mystical Scottish Highlands, where M\u00e9rida is the princess of a kingdom ruled by King Fergus and Queen Elinor. An unruly daughter and an accomplished archer, M\u00e9rida one day defies a sacred custom of the land and inadvertently brings turmoil to the kingdom. In an attempt to set things right, M\u00e9rida seeks out an eccentric old Wise Woman and is granted an ill-fated wish. Also figuring into M\u00e9rida\u2019s quest \u2014 and serving as comic relief \u2014 are the kingdom\u2019s three lords: the enormous Lord MacGuffin, the surly Lord Macintosh, and the disagreeable Lord Dingwall.", "poster_path": "/qhABv2d4NZLhsOOA4iBFM4rfuJC.jpg", "popularity": 41.81}, {"id": 10258, "video": false, "vote_count": 148, "vote_average": 6.6, "title": "The Madagascar Penguins in a Christmas Caper", "release_date": "2005-09-23", "original_language": "en", "original_title": "The Madagascar Penguins in a Christmas Caper", "genre_ids": [16, 35, 10751], "backdrop_path": "/gdJ6j1hmt6dQgObWxDJAHUb58o6.jpg", "adult": false, "overview": "During the holiday season, when the animals of the Central Park Zoo are preparing for Christmas, Private, the youngest of the penguins notices that the Polar Bear is all alone. Assured that nobody should have to spend Christmas alone, Private goes into the city for some last-minute Christmas shopping. Along the way, he gets stuffed into a stocking", "poster_path": "/r8QtfGSjDaY6vICRVyYvZvTkjxc.jpg", "popularity": 15.199}, {"id": 920, "video": false, "vote_count": 8600, "vote_average": 6.7, "title": "Cars", "release_date": "2006-06-08", "original_language": "en", "original_title": "Cars", "genre_ids": [12, 16, 35, 10751], "backdrop_path": "/a1MlbLBk5Sy6YvMbSuKfwGlDVlb.jpg", "adult": false, "overview": "Lightning McQueen, a hotshot rookie race car driven to succeed, discovers that life is about the journey, not the finish line, when he finds himself unexpectedly detoured in the sleepy Route 66 town of Radiator Springs. On route across the country to the big Piston Cup Championship in California to compete against two seasoned pros, McQueen gets to know the town's offbeat characters.", "poster_path": "/jpfkzbIXgKZqCZAkEkFH2VYF63s.jpg", "popularity": 89.03}, {"adult": false, "backdrop_path": "/3nG6BBIxgqbIM5p1iO61RyKzUkZ.jpg", "genre_ids": [16, 10751, 14, 12, 35, 10749], "id": 11970, "original_language": "en", "original_title": "Hercules", "overview": "Bestowed with superhuman strength, a young mortal named Hercules sets out to prove himself a hero in the eyes of his father, the great god Zeus. Along with his friends Pegasus, a flying horse, and Phil, a personal trainer, Hercules is tricked by the hilarious, hotheaded villain Hades, who's plotting to take over Mount Olympus!", "poster_path": "/eFlBFMAifj436QctX3akDkUnhlk.jpg", "release_date": "1997-06-20", "title": "Hercules", "video": false, "vote_average": 7.5, "vote_count": 4316, "popularity": 27.252}, {"id": 901, "video": false, "vote_count": 1026, "vote_average": 8.4, "title": "City Lights", "release_date": "1931-02-01", "original_language": "xx", "original_title": "City Lights", "genre_ids": [35, 18, 10749], "backdrop_path": "/vT6ux2rdyg2kexuLisO5Ygz7pHg.jpg", "adult": false, "overview": "City Lights is the first silent film that Charlie Chaplin directed after he established himself with sound accompanied films. The film is about a penniless man who falls in love with a flower girl.", "poster_path": "/bXNvzjULc9jrOVhGfjcc64uKZmZ.jpg", "popularity": 14.294}, {"adult": false, "backdrop_path": "/tr6OExnBfjLADi9OyZoW308mPAp.jpg", "genre_ids": [18, 35, 10749], "id": 74643, "original_language": "en", "original_title": "The Artist", "overview": "Hollywood, 1927: As silent movie star George Valentin wonders if the arrival of talking pictures will cause him to fade into oblivion, he sparks with Peppy Miller, a young dancer set for a big break.", "poster_path": "/i0mpvMIIjyubXsVKug9vX0lYpnd.jpg", "release_date": "2011-06-26", "title": "The Artist", "video": false, "vote_average": 7.4, "vote_count": 1977, "popularity": 12.71}], "total_pages": 917, "total_results": 18325}, "recommendations": {"page": 1, "results": [{"adult": false, "backdrop_path": "/l66G3Xj6kPTHZuJNgwraL4aoV8I.jpg", "genre_ids": [16, 35], "id": 32529, "original_language": "en", "original_title": "Ah, L'Amour", "overview": "A guy keeps getting painfully rejected (bodily harm) when he asks girls out.", "poster_path": "/qXMs9mVC73zX1lrELO0BVPzxZom.jpg", "release_date": "1995-01-01", "title": "Ah, L'Amour", "video": false, "vote_average": 6.6, "vote_count": 22, "popularity": 3.213}, {"adult": false, "backdrop_path": null, "genre_ids": [99], "id": 178752, "original_language": "fr", "original_title": "Basse-cour", "overview": "Two girls do one of their chores. Standing alongside a tree-lined farmhouse, two children who are about ten and four years old toss grain to a flock of about 50 domesticated ducks. A woman watches them briefly and then moves on. The older girl has her grain in a bucket, the younger one's grain is in her apron. The children stay in one spot, as does the camera; it's the ducks that move around. Chickens are in the background; only one braves the ducks' territory.", "poster_path": "/9mVgVtp7pQmTSy3bBwO46SXIAt5.jpg", "release_date": "1896-01-01", "title": "Poultry-Yard", "video": false, "vote_average": 4.3, "vote_count": 9, "popularity": 1.4}, {"adult": false, "backdrop_path": null, "genre_ids": [16], "id": 219255, "original_language": "en", "original_title": "The Calligrapher", "overview": "With harpsichord music in the background, a dandy, seated at a table, plucks a quill pen from a ceiling full of them above him, dips it in ink, thinks, then draws a straight line down the page in front of him, out of which sprout six more quill pens, each held by a hand. The calligrapher moves all the hands and pens in unison, drawing an elaborate feathered wing, which comes to live, peeling off the page, and, now a quill pen, slips in to his hand. He tucks it behind his left ear.", "poster_path": "/zQxevOimb7xZF6ddNjp8XLCNQNQ.jpg", "release_date": "1991-01-01", "title": "The Calligrapher", "video": false, "vote_average": 6.1, "vote_count": 8, "popularity": 1.33}, {"id": 224138, "video": false, "vote_count": 7, "vote_average": 3.4, "title": "Sodoma", "release_date": "1970-09-20", "original_language": "de", "original_title": "Sodoma", "genre_ids": [18], "backdrop_path": null, "adult": false, "overview": "The Austrian avant-gardist Otto Muehl may well be the most scandalous filmmaker to ever work in cinema, and Sodoma stands as his most famous work. This creation takes the experiments a bit further down the road.", "poster_path": "/qO7HSJngwq0HcTQ4ZnU5Lgi4k2A.jpg", "popularity": 0.838}, {"id": 53228, "video": false, "vote_count": 22, "vote_average": 7.2, "title": "Zapruder Film of Kennedy Assassination", "release_date": "1963-11-22", "original_language": "en", "original_title": "Zapruder Film of Kennedy Assassination", "genre_ids": [80, 99, 36], "backdrop_path": null, "adult": false, "overview": "President John F. Kennedy is shown riding in an open-top car with his wife and several others, waving at crowds on the sidewalk. He is hit by a bullet and clutches his throat as the others react with surprise. Another shot hits Kennedy in the head and he collapses. A Secret Service agent runs up to the car, and Mrs. Kennedy climbs onto the trunk to pull him aboard as the car speeds away.", "poster_path": "/lCobGDqQSVaJQYaxfrQzQs6Ug7M.jpg", "popularity": 1.719}, {"adult": false, "backdrop_path": null, "genre_ids": [16, 35], "id": 366722, "original_language": "en", "original_title": "Bring Me the Head of Charlie Brown", "overview": "The Great Pumpkin puts a bounty on Charlie Brown's head, prompting the entire Peanuts cast to try to kill him. Lucy tries to get Charlie Brown to kick a bomb disguised as a football, Schroeder dumps his (full-sized, not toy) piano on Charlie Brown's head, Snoopy bites off his hand (which gushes blood), the Kite Eating Tree falls on him, and Linus strangles him with his blanket (which he had turned into a makeshift Garroting Wire).", "poster_path": "/55Mws1u5uxZx1gvkfb4qyvGiSMd.jpg", "release_date": "1986-01-01", "title": "Bring Me the Head of Charlie Brown", "video": false, "vote_average": 5.4, "vote_count": 8, "popularity": 2.796}, {"adult": false, "backdrop_path": null, "genre_ids": [99, 35, 18], "id": 110275, "original_language": "en", "original_title": "I, an Actress", "overview": "An actress and a director run through a melodramatic scene, speaking to a mannequin.", "poster_path": "/irdMcW8ODt3imawgWtYF7oMQXDW.jpg", "release_date": "1977-12-09", "title": "I, an Actress", "video": false, "vote_average": 5.8, "vote_count": 12, "popularity": 1.58}, {"adult": false, "backdrop_path": null, "genre_ids": [16], "id": 18953, "original_language": "cs", "original_title": "Et Cetera", "overview": "A small, animated figure learns how to use a whip, a pair of wings and a house.", "poster_path": null, "release_date": "1966-07-01", "title": "Et Cetera", "video": false, "vote_average": 6.0, "vote_count": 15, "popularity": 1.67}, {"adult": false, "backdrop_path": "/ziUPHQ0WEyG4dzmqLsUaWrUwaIZ.jpg", "genre_ids": [16, 35], "id": 9497, "original_language": "de", "original_title": "Kleines Arschloch - Der Film", "overview": "", "poster_path": "/sO9pym88faiO4gljBNRrcodMm4L.jpg", "release_date": "1997-03-06", "title": "Kleines Arschloch - Der Film", "video": false, "vote_average": 5.2, "vote_count": 37, "popularity": 4.877}, {"adult": false, "backdrop_path": "/pndoMHi2eALfms6lCu2yQMaPG1T.jpg", "genre_ids": [99], "id": 364935, "original_language": "de", "original_title": "Cinema Perverso - Die wunderbare und kaputte Welt des Bahnhofskinos", "overview": "A documentary directed by Oliver Schwehm.", "poster_path": "/upkOVc3zxkPIjK3PHNVTbgg2HFr.jpg", "release_date": "2015-10-14", "title": "Cinema Perverso", "video": false, "vote_average": 6.9, "vote_count": 10, "popularity": 3.278}, {"adult": false, "backdrop_path": null, "genre_ids": [], "id": 48277, "original_language": "en", "original_title": "Closed Mondays", "overview": "A man visiting a museum sees the works of art come to life.", "poster_path": "/rfPcTFY6eBW6zuRZH9aAELQU0IZ.jpg", "release_date": "1974-10-01", "title": "Closed Mondays", "video": false, "vote_average": 6.3, "vote_count": 13, "popularity": 4.02}, {"adult": false, "backdrop_path": "/hdA5pch3eulD7ARxBSCfxNap2Nt.jpg", "genre_ids": [35, 16, 878], "id": 103158, "original_language": "fr", "original_title": "Les Astronautes", "overview": "Les Astronautes tells the story of an inventor who builds a homemade spacecraft, and uses it to have various adventures, including peeping at women, visiting \u2018human\u2019 planets, and becoming involved in intergalactic warfare.", "poster_path": "/xLdTHkaZXvYB66zkzqwXdg5wwqx.jpg", "release_date": "1959-01-01", "title": "The Astronauts", "video": false, "vote_average": 6.0, "vote_count": 20, "popularity": 3.02}, {"adult": false, "backdrop_path": "/5yfyRZC7md9fWCopGkcblcHPfWC.jpg", "genre_ids": [18], "id": 36871, "original_language": "ja", "original_title": "\u6669\u83ca", "overview": "What is the life of a Geisha like once her beauty has faded and she has retired? Kin has saved her money, and has become a wealthy money-lender, spending her days cold-heartedly collecting debts. Even her best friends, Tomi, Nobu, and Tamae, who were her fellow Geisha, are now indebted to her. For all of them, the glamor of their young lives has passed; Tomi and Tamae have children, but their children have disappointed them. Kin has two former lovers who still pursue her; one she wants to see, and the other she doesn't. But even the one she remembers fondly, when he shows up, proves to be a disappointment.", "poster_path": "/urxbIYMznvPFC4UuQJ5FIbYn6W.jpg", "release_date": "1954-06-15", "title": "Late Chrysanthemums", "video": false, "vote_average": 7.2, "vote_count": 16, "popularity": 3.91}, {"adult": false, "backdrop_path": null, "genre_ids": [99], "id": 148908, "original_language": "en", "original_title": "In the Street", "overview": "Images of street life in New York's Spanish Harlem during the 1940s.", "poster_path": "/qegJ2ax7YkEkpxaAgy7p8lJpN7D.jpg", "release_date": "1948-12-31", "title": "In the Street", "video": false, "vote_average": 6.3, "vote_count": 8, "popularity": 1.775}, {"adult": false, "backdrop_path": null, "genre_ids": [27, 18], "id": 267587, "original_language": "en", "original_title": "Ursula", "overview": "Young Ursula plays in a tree and ruins her fancy dress. Her elderly mother teaches her a cruel lesson about whether things can ever be mended; what Ursula learns about how to behave may not be what her mother intended.", "poster_path": "/wc36svG6v7Dd9HaJVI1RoEqp7kd.jpg", "release_date": "1961-04-29", "title": "Ursula", "video": false, "vote_average": 5.6, "vote_count": 7, "popularity": 2.505}, {"adult": false, "backdrop_path": null, "genre_ids": [10770, 27], "id": 292523, "original_language": "en", "original_title": "Whistle and I'll Come to You", "overview": "A university professor, confident that everything which occurs in life has a rational explanation, finds his beliefs severely challenged when, during a vacation to a remote coastal village in Norfolk, he blows through an ancient whistle discovered on a beach, awakening horrors beyond human understanding.", "poster_path": "/4xEEqlG2vLQvd9s8ljUBHD1OPaK.jpg", "release_date": "1968-05-07", "title": "Whistle and I'll Come to You", "video": false, "vote_average": 7.0, "vote_count": 12, "popularity": 3.792}, {"adult": false, "backdrop_path": null, "genre_ids": [], "id": 48712, "original_language": "en", "original_title": "78 Tours", "overview": "A waltz played with an accordion starts a short story about the running time.", "poster_path": "/jY4uW1mF9BlwEnfgeCfT8Z9fDkc.jpg", "release_date": "1985-01-01", "title": "78 Tours", "video": false, "vote_average": 6.5, "vote_count": 14, "popularity": 1.96}, {"adult": false, "backdrop_path": null, "genre_ids": [18], "id": 143801, "original_language": "en", "original_title": "The Sick Kitten", "overview": "A simple scene of two rather flamboyantly-dressed Edwardian children attempting to feed a spoonful of medicine to a sick kitten. The film is important for being one of the earliest films to cut to a close-up, then back again to the same medium shot as before.", "poster_path": "/jhwPJneWQGAra9d9tMxBKLbdCbc.jpg", "release_date": "1903-12-31", "title": "The Sick Kitten", "video": false, "vote_average": 5.3, "vote_count": 21, "popularity": 2.952}, {"adult": false, "backdrop_path": "/AlPIhEdDUzsRdiwspvjHPzspDl2.jpg", "genre_ids": [16, 35, 14], "id": 37060, "original_language": "de", "original_title": "Das Rad", "overview": "The stone-people Hew and Kew have seen a lot in their everlasting lives on top of their mountain. Therefore they're only mildly amazed by the ongoings in the valley below, they've got their own little problems to deal with - But all of a sudden, Mankind is discovering and inventing, instead of just woozeling, and this new behavior starts to threaten Hew's and Kew's stoic peacefulness...", "poster_path": "/3d9oNZDQU2SXYGrU6xP5Pf8aI3A.jpg", "release_date": "2003-06-05", "title": "Rocks", "video": false, "vote_average": 7.3, "vote_count": 25, "popularity": 2.814}, {"id": 46780, "video": false, "vote_count": 26, "vote_average": 6.2, "title": "Kustom Kar Kommandos", "release_date": "1965-07-31", "original_language": "en", "original_title": "Kustom Kar Kommandos", "genre_ids": [10402], "backdrop_path": "/18NGsyCsrwaHbhE9wHYyjkSsJQR.jpg", "adult": false, "overview": "A man in tight jeans buffs his car to the strains of The Paris Sisters\u2019 \u201cDream Lover\u201d.", "poster_path": "/2dS06modSGSL5KA7HKKpLFjmwub.jpg", "popularity": 4.476}], "total_pages": 2, "total_results": 40}, "credits": {"cast": [{"cast_id": 4, "character": "James the Butler", "credit_id": "52fe4442c3a36847f808b8a1", "gender": 2, "id": 48327, "name": "Freddie Frinton", "order": 0, "profile_path": "/xLBgaXxnsYJOpuqVi74vpNenWmw.jpg"}, {"cast_id": 5, "character": "Miss Sophie", "credit_id": "52fe4442c3a36847f808b8a5", "gender": 1, "id": 48328, "name": "May Warden", "order": 1, "profile_path": "/bMhpCHcQS5pK1IlTXHujyCT0yrg.jpg"}, {"cast_id": 6, "character": "Narrator", "credit_id": "52fe4442c3a36847f808b8a9", "gender": 2, "id": 48329, "name": "Heinz Piper", "order": 2, "profile_path": "/kN9YgE5f3JE1yH9pfsEfXejSizd.jpg"}], "crew": [{"credit_id": "52fe4442c3a36847f808b891", "department": "Directing", "gender": 2, "id": 48325, "job": "Director", "name": "Heinz Dunkhase", "profile_path": null}, {"credit_id": "52fe4442c3a36847f808b897", "department": "Art", "gender": 2, "id": 48326, "job": "Production Design", "name": "Herbert Lerche", "profile_path": null}, {"credit_id": "52fe4442c3a36847f808b89d", "department": "Camera", "gender": 2, "id": 48182, "job": "Director of Photography", "name": "Frank A. Banuscher", "profile_path": null}, {"credit_id": "592b0198c3a36877ee0647c2", "department": "Directing", "gender": 2, "id": 1494113, "job": "Director", "name": "Franco Marazzi", "profile_path": null}, {"credit_id": "592b01aac3a368787005c3b4", "department": "Writing", "gender": 2, "id": 48327, "job": "Adaptation", "name": "Freddie Frinton", "profile_path": "/xLBgaXxnsYJOpuqVi74vpNenWmw.jpg"}, {"credit_id": "592b01b79251413b8a061b7e", "department": "Production", "gender": 2, "id": 48325, "job": "Producer", "name": "Heinz Dunkhase", "profile_path": null}]}}