{"adult": false, "backdrop_path": null, "belongs_to_collection": null, "budget": 0, "genres": [{"id": 99, "name": "Documentary"}, {"id": 10752, "name": "War"}], "homepage": null, "id": 61777, "imdb_id": "tt0092851", "original_language": "en", "original_title": "Dear America: Letters Home from Vietnam", "overview": "Feature-length documentary film featuring real-life letters written by American soldiers, sailors, airmen, and Marines during the Vietnam War to their families and friends back home. Archive footage of the war and news coverage thereof augment the first-person \"narrative\" by men and women who were in the war, some of whom did not survive it. Written by Jim Beaver", "popularity": 2.537, "poster_path": "/mxtyyPSPcuCn1aNCzpkGfV4eLi.jpg", "production_companies": [{"id": 7031, "logo_path": null, "name": "Dear America", "origin_country": ""}, {"id": 7032, "logo_path": null, "name": "GBA", "origin_country": ""}], "production_countries": [{"iso_3166_1": "US", "name": "United States of America"}], "release_date": "1987-10-01", "revenue": 0, "runtime": 83, "spoken_languages": [{"iso_639_1": "en", "name": "English"}], "status": "Released", "tagline": "Addressed to the heart of America.", "title": "Dear America: Letters Home from Vietnam", "video": false, "vote_average": 7.3, "vote_count": 10, "keywords": {"keywords": [{"id": 2957, "name": "vietnam war"}, {"id": 3344, "name": "letter"}]}, "similar": {"page": 1, "results": [{"id": 1369, "video": false, "vote_count": 1901, "vote_average": 6.5, "title": "Rambo: First Blood Part II", "release_date": "1985-05-21", "original_language": "en", "original_title": "Rambo: First Blood Part II", "genre_ids": [28, 12, 53, 10752], "backdrop_path": "/tqrN6ZVA2lXeyqSi58kWvNdnzzA.jpg", "adult": false, "overview": "John Rambo is released from prison by the government for a top-secret covert mission to the last place on Earth he'd want to return - the jungles of Vietnam.", "poster_path": "/l6zUaYqaQ5TFokesv3BPzBvSN0.jpg", "popularity": 26.017}, {"adult": false, "backdrop_path": "/xiBsA8Qj5KhO4cUKz6RHDtKpBGs.jpg", "genre_ids": [28, 12, 53, 10752], "id": 1368, "original_language": "en", "original_title": "First Blood", "overview": "When former Green Beret John Rambo is harassed by local law enforcement and arrested for vagrancy, the Vietnam vet snaps, runs for the hills and rat-a-tat-tats his way into the action-movie hall of fame. Hounded by a relentless sheriff, Rambo employs heavy-handed guerilla tactics to shake the cops off his tail.", "poster_path": "/wOsPbJixVc80iilfcByLKPAKz6G.jpg", "release_date": "1982-10-22", "title": "First Blood", "video": false, "vote_average": 7.4, "vote_count": 3235, "popularity": 30.68}, {"adult": false, "backdrop_path": "/oeL7puw0nKoqJhzpVB0LhzLF5m7.jpg", "genre_ids": [28, 12, 18, 53, 10752], "id": 9967, "original_language": "en", "original_title": "Uncommon Valor", "overview": "A group of Vietnam War veterans re-unite to rescue one of their own left behind and taken prisoner by the Vietnamese...", "poster_path": "/hlma8Y8eUaDbbpGdzeWwDxfmwuC.jpg", "release_date": "1983-12-16", "title": "Uncommon Valor", "video": false, "vote_average": 6.2, "vote_count": 81, "popularity": 8.512}, {"adult": false, "backdrop_path": "/oh9MdyIu333sC1biBeEgPqgSpVW.jpg", "genre_ids": [18, 10752], "id": 28, "original_language": "en", "original_title": "Apocalypse Now", "overview": "At the height of the Vietnam war, Captain Benjamin Willard is sent on a dangerous mission that, officially, \"does not exist, nor will it ever exist.\" His goal is to locate - and eliminate - a mysterious Green Beret Colonel named Walter Kurtz, who has been leading his personal army on illegal guerrilla missions into enemy territory.", "poster_path": "/jcvJ2xcVWU9Wh0hZAxcs103s8nN.jpg", "release_date": "1979-08-15", "title": "Apocalypse Now", "video": false, "vote_average": 8.3, "vote_count": 4467, "popularity": 27.963}, {"id": 2604, "video": false, "vote_count": 844, "vote_average": 7.0, "title": "Born on the Fourth of July", "release_date": "1989-12-20", "original_language": "en", "original_title": "Born on the Fourth of July", "genre_ids": [18, 10752], "backdrop_path": "/t9MrNY0xM9U5JSe5vHN9z08UYty.jpg", "adult": false, "overview": "The biography of Ron Kovic. Paralyzed in the Vietnam war, he becomes an anti-war and pro-human rights political activist after feeling betrayed by the country he fought for.", "poster_path": "/iAUSzQNpxf9fX1EvhNbeguo6aVA.jpg", "popularity": 14.729}, {"id": 10590, "video": false, "vote_count": 982, "vote_average": 6.9, "title": "We Were Soldiers", "release_date": "2002-03-01", "original_language": "en", "original_title": "We Were Soldiers", "genre_ids": [28, 36, 10752], "backdrop_path": "/8ikyF16LecHlHkkMmuZJDV9GWa7.jpg", "adult": false, "overview": "The story of the first major battle of the American phase of the Vietnam War and the soldiers on both sides that fought it.", "poster_path": "/kjG02l5Nqcgd3ZOb7aMBb9CIIIi.jpg", "popularity": 17.297}, {"id": 11778, "video": false, "vote_count": 1973, "vote_average": 8.0, "title": "The Deer Hunter", "release_date": "1978-12-08", "original_language": "en", "original_title": "The Deer Hunter", "genre_ids": [18, 10752], "backdrop_path": "/b6XsiYIRBT2FisQ5FdgHo8L1meg.jpg", "adult": false, "overview": "A group of working-class friends decides to enlist in the Army during the Vietnam War and finds it to be hellish chaos -- not the noble venture they imagined. Before they left, Steven married his pregnant girlfriend -- and Michael and Nick were in love with the same woman. But all three are different men upon their return.", "poster_path": "/slNJESItHPqp1CENEJQUPw8d7WE.jpg", "popularity": 19.666}, {"adult": false, "backdrop_path": "/a9YuNPeo60F3HPDxv8NKK6EsfOL.jpg", "genre_ids": [10752, 36, 18], "id": 31344, "original_language": "fr", "original_title": "La 317\u00e8me section", "overview": "In Vietnam, 1954, a French platoon isolated behind enemy lines tries to come back. It is led by the inexperienced, idealistic sous-lieutenant Torrens, and by adjutant Willsdorf, a WWII veteran of the Werhmacht.", "poster_path": "/9d5JNjBwWu5L4NRaHEOMhakxHhH.jpg", "release_date": "1965-03-31", "title": "The 317th Platoon", "video": false, "vote_average": 7.0, "vote_count": 25, "popularity": 4.012}, {"id": 48457, "video": false, "vote_count": 17, "vote_average": 5.4, "title": "Platoon Leader", "release_date": "1988-10-01", "original_language": "en", "original_title": "Platoon Leader", "genre_ids": [18, 10752], "backdrop_path": "/2ILswV0vtFHRBQW840BOOhZ9ku5.jpg", "adult": false, "overview": "West Point graduate lieutenant Jeff Knight meets cynicism when taking command of sergeant Michael McNamara's tour veterans platoon in a Vietnamese trench camp. Unlike his predecessor, who hid till the end of his tour, Jeff takes charge, experiences the manual doesn't allow coping with all realities and gets wounded. He returns, now fully respect by men and superiors. Besides the Vietcong, the platoon wrestles with the inscrutable villagers, which the G.I.'s officially protect, but also fear as some collaborate with them, other covertly with the Cong, either way subject to bloody reprisals.", "poster_path": "/cf2UMnubxH4w3FLUlxY2wjabz6x.jpg", "popularity": 7.338}, {"id": 801, "video": false, "vote_count": 1384, "vote_average": 7.3, "title": "Good Morning, Vietnam", "release_date": "1987-12-23", "original_language": "en", "original_title": "Good Morning, Vietnam", "genre_ids": [35, 18, 10752], "backdrop_path": "/5HdzBJBdvaqpPHjbH3qcSqHPJ0S.jpg", "adult": false, "overview": "Radio funny man Adrian Cronauer is sent to Vietnam to bring a little comedy back into the lives of the soldiers. After setting up shop, Cronauer delights the G.I.s but shocks his superior officer, Sergeant Major Dickerson, with his irreverent take on the war. While Dickerson attempts to censor Cronauer's broadcasts, Cronauer pursues a relationship with a Vietnamese girl named Trinh, who shows him the horrors of war first-hand.", "poster_path": "/62Ve2yREvobU0qo4DxdSrShh1YO.jpg", "popularity": 12.923}, {"id": 10266, "video": false, "vote_count": 5, "vote_average": 4.1, "title": "The Veteran", "release_date": "2006-01-01", "original_language": "en", "original_title": "The Veteran", "genre_ids": [18, 10752, 10770], "backdrop_path": "/giOW7CgtzEJltDbj6FUMtLt93q.jpg", "adult": false, "overview": "Sidney J. Furie's The Veteran is a respectable straight-to-DVD movie that was headed for the \"pleasant surprise\" category before self-destructing with a terrible, out-of-the-blue ending.", "poster_path": "/qTRAWohDlSviegARU4fW8lyb4jK.jpg", "popularity": 6.528}, {"id": 13, "video": false, "vote_count": 16601, "vote_average": 8.4, "title": "Forrest Gump", "release_date": "1994-07-06", "original_language": "en", "original_title": "Forrest Gump", "genre_ids": [35, 18, 10749], "backdrop_path": "/wMgbnUVS9wbRGAdki8fqxKU1O0N.jpg", "adult": false, "overview": "A man with a low IQ has accomplished great things in his life and been present during significant historic events\u2014in each case, far exceeding what anyone imagined he could do. But despite all he has achieved, his one true love eludes him.", "poster_path": "/yE5d3BUhE8hCnkMUJOo1QDoOGNz.jpg", "popularity": 46.241}, {"adult": false, "backdrop_path": "/wK9KMT9ERHqvgBnLDU2hpxfnGD1.jpg", "genre_ids": [36, 10752, 28, 18], "id": 31642, "original_language": "en", "original_title": "Heaven & Earth", "overview": "Le Ly lives in a small Vietnamese village whose serenity is shattered when war breaks out. Caught between the Viet Cong and the South Vietnamese army, the village is all but destroyed. After being both brutalized and raped, Le Ly resolves to flee. She leaves for the city, surviving desperate situations, but surviving nonetheless. Eventually she meets a U.S. Marine named Steve Butler who treats her kindly and tells her he would like to be married -- maybe to her.", "poster_path": "/hXSUatA39pbfwaqOGFHFdwswAXc.jpg", "release_date": "1993-12-24", "title": "Heaven & Earth", "video": false, "vote_average": 6.6, "vote_count": 95, "popularity": 7.932}, {"adult": false, "backdrop_path": "/70h14yIq4UQ52dSuCD7eLDgpnDs.jpg", "genre_ids": [10752, 53, 80], "id": 31941, "original_language": "en", "original_title": "Who'll Stop the Rain", "overview": "John, a disillusioned Vietnam War journalist, turns to heroin smuggling. He cons Ray, an equally burnt out veteran into delivering the drugs stateside to his wife. Everything soon falls apart and Ray ends up on the run with John's wife trying to evade crooked narcotics agents.", "poster_path": "/AexCYBIfZnPonWBwKREoauPzXEm.jpg", "release_date": "1978-08-02", "title": "Who'll Stop the Rain", "video": false, "vote_average": 6.5, "vote_count": 24, "popularity": 5.839}, {"adult": false, "backdrop_path": "/3AoRqACwhEA8If6SyYoMBfsPs8W.jpg", "genre_ids": [99], "id": 57976, "original_language": "en", "original_title": "Little Dieter Needs to Fly", "overview": "In 1966, Dieter Dengler was shot down over Laos, captured, and, down to 85 pounds, escaped. Barefoot, surviving monsoons, leeches, and machete-wielding villagers, he was rescued. Now, near 60, living on Mt. Tamalpais, Dengler tells his story: a German lad surviving Allied bombings in World War II, postwar poverty, apprenticed to a smith, beaten regularly. At 18, he emigrates and peels potatoes in the U.S. Air Force. He leaves for California and college, then enlistment in the Navy to learn to fly. A quiet man of sorrows tells his story: war, capture, harrowing conditions, escape, and miraculous rescue. Where did he find the strength; how does he now live with his memories?", "poster_path": "/2sLpyYytu0Dbymzs3skxOCRHKkl.jpg", "release_date": "1997-12-01", "title": "Little Dieter Needs to Fly", "video": false, "vote_average": 7.8, "vote_count": 43, "popularity": 6.176}, {"id": 15379, "video": false, "vote_count": 213, "vote_average": 5.5, "title": "Missing in Action", "release_date": "1984-11-16", "original_language": "en", "original_title": "Missing in Action", "genre_ids": [28, 12, 53, 10752], "backdrop_path": "/3veOJjrDpkGfdOJhsjPJuwYGF3z.jpg", "adult": false, "overview": "American servicemen are still being held captive in Vietnam and it's up to one man to bring them home in this blistering, fast-paced action/adventure starring martial arts superstar Chuck Norris.Following a daring escape from a Vietnamese POW camp, Special Forces Colonel James Braddock (Norris) is on a mission to locate and save remaining MIAs.", "poster_path": "/AonSSoJOFIbOubZt0gMBIZvw9MH.jpg", "popularity": 12.35}, {"id": 10142, "video": false, "vote_count": 378, "vote_average": 7.1, "title": "Casualties of War", "release_date": "1989-08-18", "original_language": "en", "original_title": "Casualties of War", "genre_ids": [18, 36, 10752], "backdrop_path": "/hbBGS3b2yYEFStcrX1agUj3jlXq.jpg", "adult": false, "overview": "During the Vietnam War, a soldier finds himself the outsider of his own squad when they unnecessarily kidnap a female villager. Based on the actual events of an incident on Hill 192 in November, 1966.", "poster_path": "/vwIkjKYMrlewvxjLICR4v4cfGPN.jpg", "popularity": 10.21}, {"id": 7446, "video": false, "vote_count": 3473, "vote_average": 6.5, "title": "Tropic Thunder", "release_date": "2008-08-09", "original_language": "en", "original_title": "Tropic Thunder", "genre_ids": [28, 12, 35, 10752], "backdrop_path": "/pr8sj9FozsiT45TMtkwFRWONNII.jpg", "adult": false, "overview": "Vietnam veteran 'Four Leaf' Tayback's memoir, Tropic Thunder, is being made into a film, but Director Damien Cockburn can\u2019t control the cast of prima donnas. Behind schedule and over budget, Cockburn is ordered by a studio executive to get filming back on track, or risk its cancellation. On Tayback's advice, Cockburn drops the actors into the middle of the jungle to film the remaining scenes but, unbeknownst to the actors and production, the group have been dropped in the middle of the Golden Triangle, the home of heroin-producing gangs.", "poster_path": "/ue9QdvhpcNPvKQyLY5a5Pd0tagS.jpg", "popularity": 21.478}, {"adult": false, "backdrop_path": "/nfm6JCKUaM6dT0mATmShLY6cpmc.jpg", "genre_ids": [18, 10752], "id": 600, "original_language": "en", "original_title": "Full Metal Jacket", "overview": "A pragmatic U.S. Marine observes the dehumanizing effects the U.S.-Vietnam War has on his fellow recruits from their brutal boot camp training to the bloody street fighting in Hue.", "poster_path": "/29veIwD38rVL2qY74emXQw4y25H.jpg", "release_date": "1987-06-26", "title": "Full Metal Jacket", "video": false, "vote_average": 8.1, "vote_count": 5892, "popularity": 25.71}, {"adult": false, "backdrop_path": "/ufqPsRItWyFzdFz3MevDkxRF8pT.jpg", "genre_ids": [18, 10752, 28], "id": 792, "original_language": "en", "original_title": "Platoon", "overview": "As a young and naive recruit in Vietnam, Chris Taylor faces a moral crisis when confronted with the horrors of war and the duality of man.", "poster_path": "/8hDlxJZYCJJLRHbSk7hsRQ9SNp7.jpg", "release_date": "1986-12-19", "title": "Platoon", "video": false, "vote_average": 7.7, "vote_count": 2386, "popularity": 17.596}], "total_pages": 24, "total_results": 464}, "recommendations": {"page": 1, "results": [{"adult": false, "backdrop_path": "/432rHJg92T5eLSk5cuLruxgwShm.jpg", "genre_ids": [99, 10770], "id": 314279, "original_language": "en", "original_title": "Garbo", "overview": "An original (2005) documentary from Turner Classic Movies narrated by Julie Christie.", "poster_path": "/nsXo8ulFkaQFran24MgbkO80EZt.jpg", "release_date": "2005-07-04", "title": "Garbo", "video": false, "vote_average": 8.0, "vote_count": 3, "popularity": 2.619}], "total_pages": 1, "total_results": 1}, "credits": {"cast": [{"cast_id": 2, "character": "Mrs. Stocks (voice)", "credit_id": "52fe4662c3a368484e08dca1", "gender": 1, "id": 9560, "name": "Ellen Burstyn", "order": 0, "profile_path": "/kxWFljG3JjJMbOMCLm0SkrPQjhf.jpg"}, {"cast_id": 3, "character": "(voice)", "credit_id": "52fe4662c3a368484e08dca5", "gender": 2, "id": 13022, "name": "Tom Berenger", "order": 1, "profile_path": "/frtGi6YqNNKy6YfVfqd5qFPU4d8.jpg"}, {"cast_id": 4, "character": "(voice)", "credit_id": "52fe4662c3a368484e08dca9", "gender": 2, "id": 97944, "name": "J. Kenneth Campbell", "order": 2, "profile_path": "/iTdMiC7DDcFa1vVJs5qMky5m6cl.jpg"}, {"cast_id": 5, "character": "(voice)", "credit_id": "52fe4662c3a368484e08dcad", "gender": 2, "id": 1106, "name": "Richard Chaves", "order": 3, "profile_path": "/5vt3CgYIAPFXwYvFXea4p2GlhIH.jpg"}, {"cast_id": 6, "character": "(voice)", "credit_id": "52fe4662c3a368484e08dcb1", "gender": 2, "id": 4665, "name": "Josh Cruze", "order": 4, "profile_path": "/v3QrQzH0uGV9pd1dNR5Ue6a74qO.jpg"}, {"cast_id": 7, "character": "Elephant grass (voice)", "credit_id": "52fe4662c3a368484e08dcb5", "gender": 2, "id": 5293, "name": "Willem Dafoe", "order": 5, "profile_path": "/xM5lhOR5tWWdIlFpBDeZJx9opIP.jpg"}, {"cast_id": 8, "character": "Great sewer (voice)", "credit_id": "52fe4662c3a368484e08dcb9", "gender": 2, "id": 380, "name": "Robert De Niro", "order": 6, "profile_path": "/8Bgdfv1oN9Mw0YuMHP6fw8KzDkc.jpg"}, {"cast_id": 9, "character": "(voice)", "credit_id": "52fe4662c3a368484e08dcbd", "gender": 2, "id": 6197, "name": "Brian Dennehy", "order": 7, "profile_path": "/3xauJUPivBQAqAbfnbwcj6vHKYz.jpg"}, {"cast_id": 10, "character": "Jack (voice)", "credit_id": "52fe4662c3a368484e08dcc1", "gender": 2, "id": 6863, "name": "Kevin Dillon", "order": 8, "profile_path": "/uAJsJxnbTWOpkBjRRBNtyRDt8qW.jpg"}, {"cast_id": 11, "character": "Mike? (voice)", "credit_id": "52fe4662c3a368484e08dcc5", "gender": 2, "id": 2876, "name": "Matt Dillon", "order": 9, "profile_path": "/wVoSUexYH79igPgxIXKWRlV2uBk.jpg"}, {"cast_id": 12, "character": "(voice)", "credit_id": "52fe4662c3a368484e08dcc9", "gender": 2, "id": 3223, "name": "Robert Downey Jr.", "order": 10, "profile_path": "/1YjdSym1jTG7xjHSI0yGGWEsw5i.jpg"}, {"cast_id": 13, "character": "Pfc. Raymond Griffiths (voice)", "credit_id": "52fe4662c3a368484e08dccd", "gender": 2, "id": 521, "name": "Michael J. Fox", "order": 11, "profile_path": "/bGUjr2FSbhvCJeu6J8NPMASiH4S.jpg"}, {"cast_id": 14, "character": "(voice)", "credit_id": "52fe4662c3a368484e08dcd1", "gender": 2, "id": 19728, "name": "Mark Harmon", "order": 12, "profile_path": "/vzthrZ2QidVi1iMMOYFzAohhVpj.jpg"}, {"cast_id": 15, "character": "Johnny Boy? (voice)", "credit_id": "52fe4662c3a368484e08dcd5", "gender": 2, "id": 11512, "name": "John Heard", "order": 13, "profile_path": "/nskqE0532LDluEwliY6tarns1xw.jpg"}], "crew": [{"credit_id": "54e07eca925141195a004f1a", "department": "Camera", "gender": 0, "id": 95843, "job": "Still Photographer", "name": "John Armstrong", "profile_path": null}, {"credit_id": "52fe4662c3a368484e08dcdb", "department": "Directing", "gender": 2, "id": 116103, "job": "Director", "name": "Bill Couturi\u00e9", "profile_path": null}, {"credit_id": "52fe4662c3a368484e08dce1", "department": "Writing", "gender": 0, "id": 234367, "job": "Writer", "name": "Richard Dewhurst", "profile_path": null}]}}