{"adult": false, "backdrop_path": "/cNquzdCPcSOmeMU2pOsji3gjnbD.jpg", "belongs_to_collection": null, "budget": 0, "genres": [{"id": 18, "name": "Drama"}], "homepage": null, "id": 62186, "imdb_id": "tt0035195", "original_language": "en", "original_title": "Pittsburgh", "overview": "Charles 'Pittsburgh' Markham rides roughshod over his friends, his lovers, and his ideals in his trek toward financial success in the Pittsburgh steel industry, only to find himself deserted and lonely at the top. When his crash comes, he finds that fate has dealt him a second chance.", "popularity": 3.846, "poster_path": "/rZDfA3mpSdX6gu3q1No0YEQJhdI.jpg", "production_companies": [{"id": 33, "logo_path": "/8lvHyhjr8oUKOOy2dKXoALWKdp0.png", "name": "Universal Pictures", "origin_country": "US"}], "production_countries": [{"iso_3166_1": "US", "name": "United States of America"}], "release_date": "1942-12-11", "revenue": 0, "runtime": 91, "spoken_languages": [{"iso_639_1": "en", "name": "English"}], "status": "Released", "tagline": "BIG! BRAWNY! BOLD!", "title": "Pittsburgh", "video": false, "vote_average": 6.9, "vote_count": 8, "keywords": {"keywords": [{"id": 5572, "name": "fistfight"}, {"id": 193594, "name": "pittsburgh"}, {"id": 197997, "name": "steel town"}]}, "similar": {"page": 1, "results": [{"id": 70006, "video": false, "vote_count": 288, "vote_average": 6.1, "title": "Never Back Down 2: The Beatdown", "release_date": "2011-09-13", "original_language": "en", "original_title": "Never Back Down 2: The Beatdown", "genre_ids": [28, 18], "backdrop_path": "/lSFqtjxMfAHa58TBDDBELKeq2DH.jpg", "adult": false, "overview": "Four fighters different backgrounds come together to train under an ex MMA rising star and then ultimately have to fight each other and the traitor in heir midst.", "poster_path": "/qeISu4rUk9l9sQTMs86fAoxSx8p.jpg", "popularity": 20.91}, {"id": 84892, "video": false, "vote_count": 6548, "vote_average": 7.7, "title": "The Perks of Being a Wallflower", "release_date": "2012-09-20", "original_language": "en", "original_title": "The Perks of Being a Wallflower", "genre_ids": [18], "backdrop_path": "/uhLcaTPeBpUNgYhZXhDWkj7gMkp.jpg", "adult": false, "overview": "15-year-old freshman Charlie is a wallflower, always watching life from the sidelines, until two charismatic senior students become his mentors. Free-spirited Sam and her stepbrother Patrick help Charlie discover the joys of friendship, first love, music and more, while a teacher sparks Charlie's dreams of becoming a writer.", "poster_path": "/cyNQLnHnXZcTUDXVVSEYmquOTOI.jpg", "popularity": 19.873}, {"id": 393457, "video": false, "vote_count": 1617, "vote_average": 6.8, "title": "Fences", "release_date": "2016-12-16", "original_language": "en", "original_title": "Fences", "genre_ids": [18], "backdrop_path": "/jNlCIAcheh0iOuL3kz9x1Wq9WLG.jpg", "adult": false, "overview": "In 1950s Pittsburgh, a frustrated African-American father struggles with the constraints of poverty, racism, and his own inner demons as he tries to raise a family.", "poster_path": "/yZFBqealET1TunuVvu4YzcM1orT.jpg", "popularity": 15.297}, {"id": 12501, "video": false, "vote_count": 136, "vote_average": 7.8, "title": "The Big Country", "release_date": "1958-09-30", "original_language": "en", "original_title": "The Big Country", "genre_ids": [18, 37, 10749], "backdrop_path": "/ycf2cv0gEH0t3XmY0bD6AA8bpWV.jpg", "adult": false, "overview": "Retired wealthy sea captain Jim McKay arrives in the vast expanse of the West to marry fianc\u00e9e Pat Terrill. McKay is a man whose values and approach to life are a mystery to the ranchers and ranch foreman Steve Leech takes an immediate dislike to him. Pat is spoiled, selfish and controlled by her wealthy father, Major Henry Terrill. The Major is involved in a ruthless civil war, over watering rights for cattle, with a rough hewn clan led by Rufus Hannassey. The land in question is owned by Julie Maragon and both Terrill and Hannassey want it.", "poster_path": "/udSibhOkN5dT4NZy9oN9EGprAmZ.jpg", "popularity": 12.313}, {"id": 1578, "video": false, "vote_count": 2156, "vote_average": 8.0, "title": "Raging Bull", "release_date": "1980-11-14", "original_language": "en", "original_title": "Raging Bull", "genre_ids": [18], "backdrop_path": "/yt88nEyDJLN8gOg1FTvCcXCM672.jpg", "adult": false, "overview": "When Jake LaMotta steps into a boxing ring and obliterates his opponent, he's a prizefighter. But when he treats his family and friends the same way, he's a ticking time bomb, ready to go off at any moment. Though LaMotta wants his family's love, something always seems to come between them. Perhaps it's his violent bouts of paranoia and jealousy. This kind of rage helped make him a champ, but in real life, he winds up in the ring alone.", "poster_path": "/3cgzzWsUOBlNjmA5m4qs9BGkezC.jpg", "popularity": 16.181}, {"adult": false, "backdrop_path": "/wEo4UtBAWdB4aOmQ9wRjI1aS7Dt.jpg", "genre_ids": [35, 18], "id": 10098, "original_language": "en", "original_title": "The Kid", "overview": "A tramp cares for a boy after he's abandoned as a newborn by his mother. Later the mother has a change of heart and aches to be reunited with her son.", "poster_path": "/drgMcyTsySQBnUPGaBThCHGdlWT.jpg", "release_date": "1921-02-06", "title": "The Kid", "video": false, "vote_average": 8.3, "vote_count": 976, "popularity": 12.296}, {"adult": false, "backdrop_path": "/kSTvteM3ekuoeO7u7GJtZQkZuom.jpg", "genre_ids": [28, 53, 80], "id": 1948, "original_language": "en", "original_title": "Crank", "overview": "Professional assassin Chev Chelios learns his rival has injected him with a poison that will kill him if his heart rate drops.", "poster_path": "/6RnD3Zfh0tO0cD2vroWyH0F98Ej.jpg", "release_date": "2006-08-31", "title": "Crank", "video": false, "vote_average": 6.6, "vote_count": 2119, "popularity": 24.741}, {"adult": false, "backdrop_path": "/ysLIi9nzMbUqi4dQh3tqblUb27o.jpg", "genre_ids": [878, 28, 27, 53, 12, 14], "id": 36648, "original_language": "en", "original_title": "Blade: Trinity", "overview": "For years, Blade has fought against the vampires in the cover of the night. But now, after falling into the crosshairs of the FBI, he is forced out into the daylight, where he is driven to join forces with a clan of human vampire hunters he never knew existed\u2014The Nightstalkers. Together with Abigail and Hannibal, two deftly trained Nightstalkers, Blade follows a trail of blood to the ancient creature that is also hunting him\u2014the original vampire, Dracula.", "poster_path": "/4WinsdHQBdh5aTt7Bd7T7dbUXbb.jpg", "release_date": "2004-12-08", "title": "Blade: Trinity", "video": false, "vote_average": 5.8, "vote_count": 2277, "popularity": 21.038}, {"adult": false, "backdrop_path": "/siLeWQthKbUef4PKhR57BbReGnC.jpg", "genre_ids": [28, 80, 878, 53], "id": 754, "original_language": "en", "original_title": "Face/Off", "overview": "An antiterrorism agent goes under the knife to acquire the likeness of a terrorist and gather details about a bombing plot. When the terrorist escapes custody, he undergoes surgery to look like the agent so he can get close to the agent's family.", "poster_path": "/q1i8QHiHZ1cukG5iOxai8pydmoa.jpg", "release_date": "1997-06-27", "title": "Face/Off", "video": false, "vote_average": 6.9, "vote_count": 2960, "popularity": 19.404}, {"id": 27205, "video": false, "vote_count": 24276, "vote_average": 8.3, "title": "Inception", "release_date": "2010-07-15", "original_language": "en", "original_title": "Inception", "genre_ids": [28, 12, 878], "backdrop_path": "/s2bT29y0ngXxxu2IA8AOzzXTRhd.jpg", "adult": false, "overview": "Cobb, a skilled thief who commits corporate espionage by infiltrating the subconscious of his targets is offered a chance to regain his old life as payment for a task considered to be impossible: \"inception\", the implantation of another person's idea into a target's subconscious.", "poster_path": "/qmDpIHrmpJINaRKAfWQfftjCdyi.jpg", "popularity": 57.783}, {"adult": false, "backdrop_path": "/2p5rA1NRoyyAFfzdHl1Ab1RN3qr.jpg", "genre_ids": [80, 28, 878], "id": 9739, "original_language": "en", "original_title": "Demolition Man", "overview": "Simon Phoenix, a violent criminal cryogenically frozen in 1996, escapes during a parole hearing in 2032 in the utopia of San Angeles. Police are incapable of dealing with his violent ways and turn to his captor, who had also been cryogenically frozen after being wrongfully accused of killing 30 innocent people while apprehending Phoenix.", "poster_path": "/k0PN3Ho12cGGIVJW7SCS7apLYaP.jpg", "release_date": "1993-10-08", "title": "Demolition Man", "video": false, "vote_average": 6.5, "vote_count": 1913, "popularity": 17.018}, {"adult": false, "backdrop_path": "/aJCEQFFXNcfg5YneJzTG15qzxF7.jpg", "genre_ids": [28, 53], "id": 1572, "original_language": "en", "original_title": "Die Hard: With a Vengeance", "overview": "New York detective John McClane is back and kicking bad-guy butt in the third installment of this action-packed series, which finds him teaming with civilian Zeus Carver to prevent the loss of innocent lives. McClane thought he'd seen it all, until a genius named Simon engages McClane, his new \"partner\" -- and his beloved city -- in a deadly game that demands their concentration.", "poster_path": "/ivpXGcsPZglyYrN65THWSD7JM3q.jpg", "release_date": "1995-05-19", "title": "Die Hard: With a Vengeance", "video": false, "vote_average": 7.1, "vote_count": 3600, "popularity": 29.93}, {"adult": false, "backdrop_path": "/fgkgab4Rel0nOI3B3scHeNB4Mn6.jpg", "genre_ids": [28, 53], "id": 1573, "original_language": "en", "original_title": "Die Hard 2", "overview": "Off-duty cop John McClane is gripped with a feeling of d\u00e9j\u00e0 vu when, on a snowy Christmas Eve in the nation\u2019s capital, terrorists seize a major international airport, holding thousands of holiday travelers hostage. Renegade military commandos led by a murderous rogue officer plot to rescue a drug lord from justice and are prepared for every contingency except one: McClane\u2019s smart-mouthed heroics.", "poster_path": "/zSgL998DXaljsCmwQuwDM8Ak4rV.jpg", "release_date": "1990-07-02", "title": "Die Hard 2", "video": false, "vote_average": 6.8, "vote_count": 3293, "popularity": 28.385}, {"id": 1487, "video": false, "vote_count": 4488, "vote_average": 6.6, "title": "Hellboy", "release_date": "2004-04-02", "original_language": "en", "original_title": "Hellboy", "genre_ids": [28, 14], "backdrop_path": "/13DIK3beAoroeJSdrcYm66s6hal.jpg", "adult": false, "overview": "In the final days of World War II, the Nazis attempt to use black magic to aid their dying cause. The Allies raid the camp where the ceremony is taking place, but not before a demon\u2014Hellboy\u2014has already been conjured. Joining the Allied forces, Hellboy eventually grows to adulthood, serving the cause of good rather than evil.", "poster_path": "/buAYSdNVKMgNhdcuKHIwelSQxPe.jpg", "popularity": 21.315}, {"adult": false, "backdrop_path": "/yNBcIGxAjvtsf4dQaVgyNy27qnp.jpg", "genre_ids": [35, 18, 37, 10402], "id": 16563, "original_language": "en", "original_title": "Seven Brides for Seven Brothers", "overview": "In 1850 Oregon, when a backwoodsman brings a wife home to his farm, his six brothers decide that they want to get married too.", "poster_path": "/42uIMPDWlJLexVGhj7zXYP1fchQ.jpg", "release_date": "1954-07-22", "title": "Seven Brides for Seven Brothers", "video": false, "vote_average": 7.3, "vote_count": 289, "popularity": 11.187}, {"id": 288, "video": false, "vote_count": 708, "vote_average": 7.7, "title": "High Noon", "release_date": "1952-03-27", "original_language": "en", "original_title": "High Noon", "genre_ids": [37], "backdrop_path": "/6AH0BpiEaLz3NMTaBhqgHdA4YJ6.jpg", "adult": false, "overview": "Will Kane, the sheriff of a small town in New Mexico, learns a notorious outlaw he put in jail has been freed, and will be arriving on the noon train. Knowing the outlaw and his gang are coming to kill him, Kane is determined to stand his ground, so he gathers a posse from among the local townspeople.", "poster_path": "/nUSLv12qQWhHB60PqXDBRP1wmJa.jpg", "popularity": 12.393}, {"id": 11004, "video": false, "vote_count": 305, "vote_average": 7.0, "title": "Wonder Boys", "release_date": "2000-02-22", "original_language": "en", "original_title": "Wonder Boys", "genre_ids": [35, 18], "backdrop_path": "/v0JeytwjJlpbgXNzIZFtGzQ1los.jpg", "adult": false, "overview": "Grady is a 50-ish English professor who hasn't had a thing published in years -- not since he wrote his award winning \"Great American Novel\" 7 years ago. This weekend proves even worse than he could imagine as he finds himself reeling from one misadventure to another in the company of a new wonder boy author.", "poster_path": "/aajFu5pK4YqBLKEkZzSBpJjoG68.jpg", "popularity": 11.352}, {"id": 8697, "video": false, "vote_count": 325, "vote_average": 6.8, "title": "Who Am I?", "release_date": "1998-01-17", "original_language": "cn", "original_title": "\u6211\u662f\u8ab0", "genre_ids": [28, 12, 35, 53], "backdrop_path": "/noLtkNa2WkmWyKqxygmlXl4l38y.jpg", "adult": false, "overview": "A group of covert CIA operatives trailing a potential new energy source are double-crossed by corrupt agent Morgan, who causes a helicopter crash in remote South Africa. The sole survivor, suffering severe amnesia, is nursed to recovery by a kindly native tribe who call him \"Whoami\" after the question he keeps asking. With the help of a mysterious reporter Christine, Whoami pieces together his past and tracks the turncoat agent and his criminal cohorts.", "poster_path": "/napuGVPKtyGlctXDJklrLgqiCTC.jpg", "popularity": 22.956}, {"adult": false, "backdrop_path": "/pi0Z4gmbvwl6j7tKbwMj8elSzzT.jpg", "genre_ids": [28], "id": 9208, "original_language": "en", "original_title": "Broken Arrow", "overview": "When rogue stealth-fighter pilot Vic Deakins deliberately drops off the radar while on maneuvers, the Air Force ends up with two stolen nuclear warheads -- and Deakins's co-pilot, Riley Hale, is the military's only hope for getting them back. Traversing the deserted canyons of Utah, Hale teams with park ranger Terry Carmichael to put Deakins back in his box.", "poster_path": "/avqUG5RYB93rwSUNL5r16Vtbc9g.jpg", "release_date": "1996-02-09", "title": "Broken Arrow", "video": false, "vote_average": 5.9, "vote_count": 792, "popularity": 13.4}, {"adult": false, "backdrop_path": "/pCGZ8707SsPvbgaqy78eahOX4e0.jpg", "genre_ids": [35, 80, 10749, 18], "id": 10433, "original_language": "en", "original_title": "Mad Dog and Glory", "overview": "Wayne Dobie is a shy cop whose low-key demeanor has earned him the affectionate nickname \"Mad Dog.\" After Mad Dog saves the life of Frank Milo, a crime boss and aspiring stand-up comedian, he's offered the company of an attractive young waitress named Glory for a week. At first both are uneasy about the arrangement, but they eventually fall in love. However, the situation becomes complicated when Milo demands Glory back.", "poster_path": "/xZlVITyuTxI3Olu9h64xYPdpZyP.jpg", "release_date": "1993-03-05", "title": "Mad Dog and Glory", "video": false, "vote_average": 5.8, "vote_count": 155, "popularity": 10.822}], "total_pages": 6, "total_results": 107}, "recommendations": {"page": 1, "results": [{"adult": false, "backdrop_path": "/wzsVKKaEL3HPegZgwBwu2bOsrgA.jpg", "genre_ids": [18, 10749], "id": 133119, "original_language": "en", "original_title": "Torch Song", "overview": "Jenny Stewart is a tough Broadway musical star who doesn't take criticism from anyone. Yet there is one individual, Tye Graham, a blind pianist who may be able to break through her tough exterior.", "poster_path": "/lFbE9SNZw9ZBKP6OAmtv9fmZfzB.jpg", "release_date": "1953-10-01", "title": "Torch Song", "video": false, "vote_average": 6.2, "vote_count": 9, "popularity": 3.168}, {"id": 83360, "video": false, "vote_count": 11, "vote_average": 6.7, "title": "North West Mounted Police", "release_date": "1940-10-22", "original_language": "en", "original_title": "North West Mounted Police", "genre_ids": [12, 18, 36, 37, 10749], "backdrop_path": "/uXyEgnosi5QJmezSWOl9LGt6uVu.jpg", "adult": false, "overview": "Texas Ranger Dusty Rivers (\"Isn't that a contradiction in terms?\", another character asks him) travels to Canada in the 1880s in search of Jacques Corbeau, who is wanted for murder. He wanders into the midst of the Riel Rebellion, in which M\u00e9tis (people of French and Native heritage) and Natives want a separate nation. Dusty falls for nurse April Logan, who is also loved by Mountie Jim Brett. April's brother is involved with Courbeau's daughter Louvette, which leads to trouble during the battles between the rebels and the Mounties. Through it all Dusty is determined to bring Corbeau back to Texas (and April, too, if he can manage it.)", "poster_path": "/vJLMB9MQ1W4LgBThNRQL3Bmh14N.jpg", "popularity": 3.84}, {"adult": false, "backdrop_path": "/hnYAsXDSnq7v4I8c98fxhNwdt1B.jpg", "genre_ids": [28, 37], "id": 23391, "original_language": "en", "original_title": "Riders of Destiny", "overview": "John Wayne portrays Singin' Sandy Saunders and has a reputation as the most notorious gunman since Billy the Kid. That's somewhat ironic though, since it's later revealed that he's a special Secret Service agent sent from Washington to investigate a land swindle scheme under the direction of town boss James Kincaid (Forrest Taylor).", "poster_path": "/beU6yj39WrwKig2kGNL8xk6hxg6.jpg", "release_date": "1933-10-10", "title": "Riders of Destiny", "video": false, "vote_average": 5.6, "vote_count": 13, "popularity": 4.688}, {"adult": false, "backdrop_path": "/sUHyERNvONWJmIiNGmumOyQB4We.jpg", "genre_ids": [28, 37], "id": 48564, "original_language": "en", "original_title": "Villa Rides", "overview": "Pulled into the Mexican Revolution by his own greed, Texas gunrunner &amp; pilot Lee Arnold joins bandit-turned-patriot Pancho Villa &amp; his band of dedicated men in a march across Mexico battling the Colorados &amp; stealing women's hearts as they go. But each has a nemesis among his friends: Arnold is tormented by Fierro, Villa's right-hand-man; and Villa must face possible betrayal by his own president's naivet\u00e9", "poster_path": "/kPyoM8HJ2yY8A8Q1hBOfJ0VWCWz.jpg", "release_date": "1968-05-29", "title": "Villa Rides", "video": false, "vote_average": 6.5, "vote_count": 21, "popularity": 4.52}, {"adult": false, "backdrop_path": "/1YOfzBBY6aVCPwTzfW0UfA3eFSg.jpg", "genre_ids": [28, 12, 18, 37], "id": 38107, "original_language": "en", "original_title": "The Star Packer", "overview": "John Travers and Yak, his faithful Indian sidekick, pick up where a murdered sheriff leaves off, and try to nab the mysterious Shadow.", "poster_path": "/2xTPMbvwH76Zlz7eKqYKLL8heYO.jpg", "release_date": "1934-07-30", "title": "The Star Packer", "video": false, "vote_average": 4.1, "vote_count": 16, "popularity": 4.091}, {"adult": false, "backdrop_path": "/oqt7YeyBCF1uevRdtKlQCVIY7dE.jpg", "genre_ids": [10752, 18], "id": 43488, "original_language": "en", "original_title": "A Walk in the Sun", "overview": "In the 1943 invasion of Italy, one American platoon lands, digs in, then makes its way inland to attempt to take a fortified farmhouse, as tension and casualties mount. Unusually realistic picture of war as long quiet stretches of talk, punctuated by sharp, random bursts of violent action whose relevance to the big picture is often unknown to the soldiers.", "poster_path": "/dYy9p3zvL3EhJXHv7QRX5WmUDlC.jpg", "release_date": "1945-12-25", "title": "A Walk in the Sun", "video": false, "vote_average": 5.7, "vote_count": 22, "popularity": 4.978}, {"adult": false, "backdrop_path": "/y7bNvayEr7cFSCyEwNCeTTIihuB.jpg", "genre_ids": [10749, 37], "id": 43785, "original_language": "en", "original_title": "The Spoilers", "overview": "When honest ship captain Roy Glennister gets swindled out of his mine claim, he turns to saloon singer Cherry Malotte for assistance in his battle with no-good town kingpin Alexander McNamara.", "poster_path": "/tNrsmTHpjxtnag30UtFCcuvf49S.jpg", "release_date": "1942-06-11", "title": "The Spoilers", "video": false, "vote_average": 6.7, "vote_count": 25, "popularity": 6.283}], "total_pages": 1, "total_results": 7}, "credits": {"cast": [{"cast_id": 2, "character": "Josie 'Hunky' Winters", "credit_id": "52fe4674c3a368484e091ac7", "gender": 1, "id": 2896, "name": "Marlene Dietrich", "order": 0, "profile_path": "/eZFuvNCV0kkI9MHFKxTKYegAfIK.jpg"}, {"cast_id": 3, "character": "Cash Evans", "credit_id": "52fe4674c3a368484e091acb", "gender": 2, "id": 1009, "name": "Randolph Scott", "order": 1, "profile_path": "/qM2DNQ7kI9oZqAYfhzgKaGURCnm.jpg"}, {"cast_id": 1, "character": "Charles 'Pittsburgh' Markham", "credit_id": "52fe4674c3a368484e091ac3", "gender": 2, "id": 4165, "name": "John Wayne", "order": 2, "profile_path": "/iw9gHSQj1l3TQeiJb5tNK2N8k2w.jpg"}, {"cast_id": 5, "character": "J.M. 'Doc' Powers", "credit_id": "52fe4674c3a368484e091ad5", "gender": 2, "id": 107684, "name": "Frank Craven", "order": 3, "profile_path": "/7Oy0YsZta8giSvrGOqYaa9ixuXx.jpg"}, {"cast_id": 6, "character": "Shannon Prentiss Markham", "credit_id": "52fe4674c3a368484e091ad9", "gender": 1, "id": 95312, "name": "Louise Allbritton", "order": 4, "profile_path": "/szDzprAM1sSaCKQDkNDgoREb3JN.jpg"}, {"cast_id": 7, "character": "Shorty (the tailor)", "credit_id": "52fe4674c3a368484e091add", "gender": 2, "id": 13967, "name": "Shemp Howard", "order": 5, "profile_path": "/b6L3kV2qnputHSsd7uYirjKEMBC.jpg"}, {"cast_id": 8, "character": "Joe Malneck (miners union president)", "credit_id": "52fe4674c3a368484e091ae1", "gender": 2, "id": 18646, "name": "Thomas Gomez", "order": 6, "profile_path": "/7CNFFi9FG1Jc6ngmnZY3MGcK4zx.jpg"}, {"cast_id": 9, "character": "Dr. Grazlich (Doc Powers' partner)", "credit_id": "52fe4674c3a368484e091ae5", "gender": 2, "id": 31209, "name": "Ludwig St\u00f6ssel", "order": 7, "profile_path": "/7qFEZlL8vkrm4E3aJZy1rVWVK9m.jpg"}, {"cast_id": 10, "character": "Morgan Prestiss (president, Prentiss Steel)", "credit_id": "52fe4674c3a368484e091ae9", "gender": 2, "id": 17756, "name": "Samuel S. Hinds", "order": 8, "profile_path": "/3VrGfCOsIdEvsbJPodAEqHRsmp1.jpg"}, {"cast_id": 11, "character": "Burnside (mine operator)", "credit_id": "52fe4674c3a368484e091aed", "gender": 2, "id": 8496, "name": "Paul Fix", "order": 9, "profile_path": "/5uySf96UVra95Ru24YvbjLuiBS5.jpg"}, {"cast_id": 12, "character": "Johnny (miner)", "credit_id": "52fe4674c3a368484e091af1", "gender": 0, "id": 120309, "name": "William Haade", "order": 10, "profile_path": "/4u5EXYEvuR9eqv1OVw6diL6U2na.jpg"}, {"cast_id": 13, "character": "Mike (Markham's Butler)", "credit_id": "52fe4674c3a368484e091af5", "gender": 2, "id": 544585, "name": "Charles Coleman", "order": 11, "profile_path": "/an91KUlUCmPPrutfN95cGP7gyoK.jpg"}, {"cast_id": 14, "character": "Barney, Cafe Proprietor", "credit_id": "52fe4674c3a368484e091af9", "gender": 2, "id": 56924, "name": "Nestor Paiva", "order": 12, "profile_path": "/9QB3l3jN6npImyMvCHKWTMd7H8Y.jpg"}, {"cast_id": 15, "character": "Wedding party guest", "credit_id": "52fe4674c3a368484e091afd", "gender": 1, "id": 121323, "name": "Bess Flowers", "order": 13, "profile_path": "/akbW8jJl8GSXFpixFaobMOqvNv4.jpg"}], "crew": [{"credit_id": "52fe4674c3a368484e091b09", "department": "Writing", "gender": 0, "id": 34569, "job": "Screenplay", "name": "Tom Reed", "profile_path": null}, {"credit_id": "52fe4674c3a368484e091ad1", "department": "Directing", "gender": 2, "id": 84641, "job": "Director", "name": "Lewis Seiler", "profile_path": null}, {"credit_id": "52fe4674c3a368484e091b03", "department": "Writing", "gender": 2, "id": 103674, "job": "Screenplay", "name": "Kenneth Gamet", "profile_path": null}, {"credit_id": "57370ba09251410b2100358d", "department": "Writing", "gender": 0, "id": 1018785, "job": "Story", "name": "George Owen", "profile_path": null}]}}