{"adult": false, "backdrop_path": null, "belongs_to_collection": null, "budget": 0, "genres": [{"id": 28, "name": "Action"}, {"id": 35, "name": "Comedy"}, {"id": 10749, "name": "Romance"}], "homepage": null, "id": 62880, "imdb_id": "tt0083097", "original_language": "en", "original_title": "Smokey Bites the Dust", "overview": "Follows the rivalry between a small-town Southern sheriff and a small-town delinquent who steals cars and then destroys them with the sheriff\u2019s daughter by his side.", "popularity": 1.409, "poster_path": "/fLuUnVQZX3ooZMGb1bZ7GHiS4VA.jpg", "production_companies": [{"id": 1950, "logo_path": null, "name": "New World Pictures", "origin_country": ""}], "production_countries": [{"iso_3166_1": "US", "name": "United States of America"}, {"iso_3166_1": "GB", "name": "United Kingdom"}], "release_date": "1981-10-01", "revenue": 0, "runtime": 87, "spoken_languages": [{"iso_639_1": "en", "name": "English"}], "status": "Released", "tagline": "", "title": "Smokey Bites the Dust", "video": false, "vote_average": 4.5, "vote_count": 2, "keywords": {"keywords": [{"id": 798, "name": "sheriff"}, {"id": 1415, "name": "small town"}]}, "similar": {"page": 1, "results": [{"adult": false, "backdrop_path": "/pGOkfCqtP09QbaFSRxrmF2BxZJj.jpg", "genre_ids": [37, 18], "id": 301, "original_language": "en", "original_title": "Rio Bravo", "overview": "The sheriff of a small town in southwest Texas must keep custody of a murderer whose brother, a powerful rancher, is trying to help him escape. After a friend is killed trying to muster support for him, he and his deputies - a disgraced drunk and a cantankerous old cripple - must find a way to hold out against the rancher's hired guns until the marshal arrives. In the meantime, matters are complicated by the presence of a young gunslinger - and a mysterious beauty who just came in on the last stagecoach.", "poster_path": "/5hFxzqpucuT3AjnvcO1pHkR122S.jpg", "release_date": "1959-03-17", "title": "Rio Bravo", "video": false, "vote_average": 7.9, "vote_count": 559, "popularity": 13.657}, {"id": 11967, "video": false, "vote_count": 471, "vote_average": 6.7, "title": "Young Guns", "release_date": "1988-08-12", "original_language": "en", "original_title": "Young Guns", "genre_ids": [28, 12, 80, 18, 37], "backdrop_path": "/llVClV0i94ELiR9dO47fJkPwbq6.jpg", "adult": false, "overview": "A group of young gunmen, led by Billy the Kid, become deputies to avenge the murder of the rancher who became their benefactor. But when Billy takes their authority too far, they become the hunted.", "poster_path": "/wkGbwWHIM23BkmMBm7GQHaCZan8.jpg", "popularity": 12.556}, {"id": 10779, "video": false, "vote_count": 773, "vote_average": 6.8, "title": "The Frighteners", "release_date": "1996-07-18", "original_language": "en", "original_title": "The Frighteners", "genre_ids": [35, 27], "backdrop_path": "/naGsxof4OVpWQJn1qd9sTwUvYPI.jpg", "adult": false, "overview": "Once an architect, Frank Bannister now passes himself off as an exorcist of evil spirits. To bolster his facade, he claims his \"special\" gift is the result of a car accident that killed his wife. But what he does not count on is more people dying in the small town where he lives. As he tries to piece together the supernatural mystery of these killings, he falls in love with the wife of one of the victims and deals with a crazy FBI agent.", "poster_path": "/cS3QPtMsE1jsEWUww5WsPE275Jb.jpg", "popularity": 12.799}, {"id": 473149, "video": false, "vote_count": 195, "vote_average": 5.9, "title": "Traffik", "release_date": "2018-04-20", "original_language": "en", "original_title": "Traffik", "genre_ids": [27, 53], "backdrop_path": "/wbk9VvJ8lkUF0ElpfRm3dFIzMJf.jpg", "adult": false, "overview": "A couple off for a romantic weekend in the mountains are accosted by a biker gang. Alone in the mountains, Brea and John must defend themselves against the gang, who will stop at nothing to protect their secrets.", "poster_path": "/e2Z466e9402RFP6wxRMfXYYiJHA.jpg", "popularity": 31.63}, {"id": 49849, "video": false, "vote_count": 3363, "vote_average": 5.5, "title": "Cowboys & Aliens", "release_date": "2011-07-29", "original_language": "en", "original_title": "Cowboys & Aliens", "genre_ids": [28, 878, 53, 37], "backdrop_path": "/gTDwoJBCu7scwYQoykIlLNpkCes.jpg", "adult": false, "overview": "A stranger stumbles into the desert town of Absolution with no memory of his past and a futuristic shackle around his wrist. With the help of mysterious beauty Ella and the iron-fisted Colonel Dolarhyde, he finds himself leading an unlikely posse of cowboys, outlaws, and Apache warriors against a common enemy from beyond this world in an epic showdown for survival.", "poster_path": "/9uZsGCP4rvOHVGCpMpYq5gNCuNI.jpg", "popularity": 21.609}, {"id": 273481, "video": false, "vote_count": 4912, "vote_average": 7.3, "title": "Sicario", "release_date": "2015-09-17", "original_language": "en", "original_title": "Sicario", "genre_ids": [28, 80, 53], "backdrop_path": "/zAHozevwbbsB2epEVpCkzqVccWW.jpg", "adult": false, "overview": "An idealistic FBI agent is enlisted by a government task force to aid in the escalating war against drugs at the border area between the U.S. and Mexico.", "poster_path": "/p2SdfGmQRaw8xhFbexlHL7srMM8.jpg", "popularity": 30.863}, {"adult": false, "backdrop_path": "/fX6o5DCdGVEEZ1OT1IourOUkQMb.jpg", "genre_ids": [16, 35, 10751, 37, 12], "id": 44896, "original_language": "en", "original_title": "Rango", "overview": "When Rango, a lost family pet, accidentally winds up in the gritty, gun-slinging town of Dirt, the less-than-courageous lizard suddenly finds he stands out. Welcomed as the last hope the town has been waiting for, new Sheriff Rango is forced to play his new role to the hilt.", "poster_path": "/afxRbCwwKjrWgGJtsVNs1BW1Dk5.jpg", "release_date": "2011-03-02", "title": "Rango", "video": false, "vote_average": 6.6, "vote_count": 3768, "popularity": 20.053}, {"id": 196, "video": false, "vote_count": 6115, "vote_average": 7.4, "title": "Back to the Future Part III", "release_date": "1990-05-25", "original_language": "en", "original_title": "Back to the Future Part III", "genre_ids": [12, 35, 878], "backdrop_path": "/pP2a4MBQbIeZMbErBWMjxTT5Npb.jpg", "adult": false, "overview": "The final installment of the Back to the Future trilogy finds Marty digging the trusty DeLorean out of a mineshaft and looking for Doc in the Wild West of 1885. But when their time machine breaks down, the travelers are stranded in a land of spurs. More problems arise when Doc falls for pretty schoolteacher Clara Clayton, and Marty tangles with Buford Tannen.", "poster_path": "/6DmgPTZYaug7QNDjOhUDWyjOQDl.jpg", "popularity": 17.871}, {"id": 1632, "video": false, "vote_count": 770, "vote_average": 7.6, "title": "Mississippi Burning", "release_date": "1988-12-08", "original_language": "en", "original_title": "Mississippi Burning", "genre_ids": [80, 18, 53], "backdrop_path": "/4ypwob4uxh0q1osOFq2Wh7zdopT.jpg", "adult": false, "overview": "Two FBI agents investigating the murder of civil rights workers during the 60s seek to breach the conspiracy of silence in a small Southern town where segregation divides black and white. The younger agent trained in FBI school runs up against the small town ways of his partner, a former sheriff.", "poster_path": "/uSukdUQwx0l4rRuMXNqugR1tu4n.jpg", "popularity": 16.862}, {"adult": false, "backdrop_path": "/sgcgfrlOOB6lVXbfl75YTszF4jI.jpg", "genre_ids": [28, 12, 37], "id": 57201, "original_language": "en", "original_title": "The Lone Ranger", "overview": "The Texas Rangers chase down a gang of outlaws led by Butch Cavendish, but the gang ambushes the Rangers, seemingly killing them all. One survivor is found, however, by an American Indian named Tonto, who nurses him back to health. The Ranger, donning a mask and riding a white stallion named Silver, teams up with Tonto to bring the unscrupulous gang and others of that ilk to justice.", "poster_path": "/b4vil5ueYJNBNypHmo1tpuevh4z.jpg", "release_date": "2013-07-03", "title": "The Lone Ranger", "video": false, "vote_average": 6.0, "vote_count": 4109, "popularity": 18.929}, {"id": 475, "video": false, "vote_count": 791, "vote_average": 7.6, "title": "Bonnie and Clyde", "release_date": "1967-07-18", "original_language": "en", "original_title": "Bonnie and Clyde", "genre_ids": [80, 18], "backdrop_path": "/lQPMBJ1rm9Qk0cHd1C1lAbJcXJj.jpg", "adult": false, "overview": "In the 1930s, bored waitress Bonnie Parker falls in love with an ex-con named Clyde Barrow and together they start a violent crime spree through the country, stealing cars and robbing banks.", "poster_path": "/3tX1FJiXnk515NtRuF18PFC4CVy.jpg", "popularity": 18.072}, {"id": 346364, "video": false, "vote_count": 12548, "vote_average": 7.2, "title": "It", "release_date": "2017-09-06", "original_language": "en", "original_title": "It", "genre_ids": [27], "backdrop_path": "/tcheoA2nPATCm2vvXw2hVQoaEFD.jpg", "adult": false, "overview": "In a small town in Maine, seven children known as The Losers Club come face to face with life problems, bullies and a monster that takes the shape of a clown called Pennywise.", "poster_path": "/9E2y5Q7WlCVNEhP5GiVTjhEhx1o.jpg", "popularity": 27.289}, {"adult": false, "backdrop_path": "/bJLJAtGjBj836UjJZNOwgrfe5Ps.jpg", "genre_ids": [80, 18], "id": 359940, "original_language": "en", "original_title": "Three Billboards Outside Ebbing, Missouri", "overview": "After seven months have passed without a culprit in her daughter's murder case, Mildred Hayes makes a bold move, painting three signs leading into her town with a controversial message directed at Bill Willoughby, the town's revered chief of police. When his second-in-command Officer Jason Dixon, an immature mother's boy with a penchant for violence, gets involved, the battle between Mildred and Ebbing's law enforcement is only exacerbated.", "poster_path": "/vgvw6w1CtcFkuXXn004S5wQsHRl.jpg", "release_date": "2017-11-10", "title": "Three Billboards Outside Ebbing, Missouri", "video": false, "vote_average": 8.2, "vote_count": 6122, "popularity": 26.303}, {"id": 1427, "video": false, "vote_count": 2511, "vote_average": 7.2, "title": "Perfume: The Story of a Murderer", "release_date": "2006-09-13", "original_language": "en", "original_title": "Perfume: The Story of a Murderer", "genre_ids": [80, 18, 14], "backdrop_path": "/3i8bJa5yvLZW2k4sg2Cd1Yy0a1x.jpg", "adult": false, "overview": "Jean-Baptiste Grenouille, born in the stench of 18th century Paris, develops a superior olfactory sense, which he uses to create the world's finest perfumes. However, his work takes a dark turn as he tries to preserve scents in the search for the ultimate perfume.", "poster_path": "/zC9JHS6NlkJKPYFxOOqBl7fQCjT.jpg", "popularity": 20.263}, {"id": 6977, "video": false, "vote_count": 6625, "vote_average": 7.9, "title": "No Country for Old Men", "release_date": "2007-11-08", "original_language": "en", "original_title": "No Country for Old Men", "genre_ids": [80, 18, 53], "backdrop_path": "/7hx7ANh11TbbvHLDXUuywYkg5rK.jpg", "adult": false, "overview": "Llewelyn Moss stumbles upon dead bodies, $2 million and a hoard of heroin in a Texas desert, but methodical killer Anton Chigurh comes looking for it, with local sheriff Ed Tom Bell hot on his trail. The roles of prey and predator blur as the violent pursuit of money and justice collide.", "poster_path": "/nBaqryObPuxmuAndWUjDE5rriTd.jpg", "popularity": 26.075}, {"adult": false, "backdrop_path": "/fmo48Lt8XtMWeHeXJzi5SbPCJud.jpg", "genre_ids": [18, 27, 80], "id": 1696, "original_language": "en", "original_title": "The Devil's Rejects", "overview": "The sequel to House of 1000 Corpses \u2013 the Firefly family are ambushed at their isolated home by Sheriff Wydell and a squad of armed men guns blazing \u2013 yet only Otis and his sister, Baby, manage to escape the barrage of bullets unharmed. Hiding out in a backwater motel, the wanted siblings wait to rendezvous with their errant father, Captain Spaulding, killing whoever happens to stand in their way.", "poster_path": "/fj4rrpUlBpFjPaJecpjID6yqacx.jpg", "release_date": "2005-07-22", "title": "The Devil's Rejects", "video": false, "vote_average": 6.7, "vote_count": 720, "popularity": 14.155}, {"id": 300665, "video": false, "vote_count": 648, "vote_average": 5.3, "title": "Leatherface", "release_date": "2017-09-14", "original_language": "en", "original_title": "Leatherface", "genre_ids": [27, 9648, 53], "backdrop_path": "/ziSXgkBQbB2NUnXgaDqKUWsiPlv.jpg", "adult": false, "overview": "A young nurse is kidnapped by a group of violent teens who escape from a mental hospital and take her on the road trip from hell. Pursued by an equally deranged lawman out for revenge, one of the teens is destined for tragedy and horrors that will destroy his mind, moulding him into a monster named Leatherface.", "poster_path": "/nV7LPlyhUxKn5y0nuItCr8D1OSu.jpg", "popularity": 23.018}, {"id": 76640, "video": false, "vote_count": 1826, "vote_average": 5.9, "title": "The Last Stand", "release_date": "2013-01-12", "original_language": "en", "original_title": "The Last Stand", "genre_ids": [28, 80, 53], "backdrop_path": "/p4Xazn7f63Sqwslw8va7IqDQBki.jpg", "adult": false, "overview": "Ray Owens is sheriff of the quiet US border town of Sommerton Junction after leaving the LAPD following a bungled operation. Following his escape from the FBI, a notorious drug baron, his gang, and a hostage are heading toward Sommerton Junction where the police are preparing to make a last stand to intercept them before they cross the border. Owens is reluctant to become involved but ultimately joins in with the law enforcement efforts", "poster_path": "/eOfpuaNcCcitHi3HOik7XFavRP4.jpg", "popularity": 19.38}, {"adult": false, "backdrop_path": "/9q5X0G5zUxLZNwGKT49ZpB0AqNC.jpg", "genre_ids": [27, 35, 28, 878, 53], "id": 9825, "original_language": "en", "original_title": "Lake Placid", "overview": "When a man is eaten alive by an unknown creature, the local Game Warden teams up with a paleontologist from New York to find the beast. Add to the mix an eccentric philanthropist with a penchant for \"Crocs\", and here we go! This quiet, remote lake is suddenly the focus of an intense search for a crocodile with a taste for live animals...and people!", "poster_path": "/6lE0EahK7xDOYWRH6On5uKPnwQZ.jpg", "release_date": "1999-07-15", "title": "Lake Placid", "video": false, "vote_average": 5.6, "vote_count": 511, "popularity": 14.163}, {"id": 260346, "video": false, "vote_count": 3704, "vote_average": 6.2, "title": "Taken 3", "release_date": "2014-12-16", "original_language": "en", "original_title": "Taken 3", "genre_ids": [28, 53], "backdrop_path": "/cU6R5EgOEmiIVKommjnU89hsvcD.jpg", "adult": false, "overview": "Ex-government operative Bryan Mills finds his life is shattered when he's falsely accused of a murder that hits close to home. As he's pursued by a savvy police inspector, Mills employs his particular set of skills to track the real killer and exact his unique brand of justice.", "poster_path": "/ikDwR3i2bczqnRf1urJTy77YTFf.jpg", "popularity": 34.357}], "total_pages": 241, "total_results": 4804}, "recommendations": {"page": 1, "results": [], "total_pages": 1, "total_results": 0}, "credits": {"cast": [{"cast_id": 5, "character": "Roscoe Wilton", "credit_id": "52fe4691c3a368484e097f27", "gender": 0, "id": 236180, "name": "Jimmy McNichol", "order": 0, "profile_path": "/z3HoNTgRkSaozZrYx2PjwRP1vx4.jpg"}, {"cast_id": 4, "character": "Peggy Sue Turner", "credit_id": "52fe4691c3a368484e097f23", "gender": 1, "id": 59109, "name": "Janet Julian", "order": 1, "profile_path": "/tw4MThZtFSbQdD8fNQvL3NsOsAS.jpg"}, {"cast_id": 6, "character": "Sheriff Turner", "credit_id": "52fe4691c3a368484e097f2b", "gender": 2, "id": 33544, "name": "Walter Barnes", "order": 2, "profile_path": "/m7OtPTdxtRSRFJeAYnBSTFjINgX.jpg"}, {"cast_id": 7, "character": "Harold", "credit_id": "52fe4691c3a368484e097f2f", "gender": 2, "id": 99744, "name": "John Blyth Barrymore", "order": 3, "profile_path": "/uTHQIsoA5wJwiY1B5jMYmvYAyIG.jpg"}, {"cast_id": 8, "character": "Principal Stark", "credit_id": "52fe4691c3a368484e097f33", "gender": 2, "id": 79590, "name": "Robert Beecher", "order": 4, "profile_path": "/8uYs1ZA7aQhx5UneheV19QkMv89.jpg"}, {"cast_id": 9, "character": "Lester", "credit_id": "52fe4691c3a368484e097f37", "gender": 0, "id": 51765, "name": "Patrick Campbell", "order": 5, "profile_path": "/kmGfq0wob5CYjQf98zALxZxsSdA.jpg"}, {"cast_id": 10, "character": "Kenny", "credit_id": "52fe4691c3a368484e097f3b", "gender": 2, "id": 4520, "name": "William Forsythe", "order": 6, "profile_path": "/3oaz2y7hIm3r3OyDKvQ1i2D8cLR.jpg"}, {"cast_id": 11, "character": "Car Wash Owner", "credit_id": "52fe4691c3a368484e097f3f", "gender": 0, "id": 236181, "name": "Ben Frome", "order": 7, "profile_path": null}, {"cast_id": 12, "character": "Cigarette smoking brat", "credit_id": "52fe4691c3a368484e097f43", "gender": 0, "id": 142361, "name": "Jessica Griffiths", "order": 8, "profile_path": "/3R9uDt8A0ZOXHPcRglvUw0InP5b.jpg"}, {"cast_id": 13, "character": "Football Coach", "credit_id": "52fe4691c3a368484e097f47", "gender": 2, "id": 22250, "name": "Rance Howard", "order": 9, "profile_path": "/i7tkpb7GLJXjwUNyrpOy63FiStt.jpg"}, {"cast_id": 14, "character": "Sheriff Lamar", "credit_id": "52fe4691c3a368484e097f4b", "gender": 2, "id": 160616, "name": "Charles Howerton", "order": 10, "profile_path": null}, {"cast_id": 15, "character": "Turk", "credit_id": "52fe4691c3a368484e097f4f", "gender": 2, "id": 16643, "name": "Gene LeBell", "order": 11, "profile_path": "/2hLfLgP3B2F99sdO06vlWVcrA7p.jpg"}, {"cast_id": 17, "character": "Owner of Vehicle", "credit_id": "52fe4691c3a368484e097f57", "gender": 2, "id": 102441, "name": "Dick Miller", "order": 13, "profile_path": "/zyQXh8BkLg0DDo23pxJN2dy6Bqj.jpg"}, {"cast_id": 18, "character": "Harold's Mother", "credit_id": "52fe4691c3a368484e097f5b", "gender": 1, "id": 91842, "name": "Nancy Parsons", "order": 14, "profile_path": "/pQUaImbKVF3TicftBdCpMSP29FM.jpg"}, {"cast_id": 20, "character": "Cindy", "credit_id": "5966b1cb9251410a5912ff22", "gender": 1, "id": 111705, "name": "Kari Lizer", "order": 15, "profile_path": null}], "crew": [{"credit_id": "5883fe43c3a368064a01030c", "department": "Production", "gender": 1, "id": 869, "job": "Co-Producer", "name": "Gale Anne Hurd", "profile_path": "/zQtqYXqna1DyIMX3TrY0UytNgoO.jpg"}, {"credit_id": "52fe4691c3a368484e097f13", "department": "Directing", "gender": 2, "id": 52140, "job": "Director", "name": "Charles B. Griffith", "profile_path": "/tLDw8ioMJysFcl5jgSW2u0u95yQ.jpg"}, {"credit_id": "52fe4691c3a368484e097f19", "department": "Writing", "gender": 0, "id": 134762, "job": "Screenplay", "name": "Max Apple", "profile_path": null}, {"credit_id": "52fe4691c3a368484e097f1f", "department": "Writing", "gender": 0, "id": 192125, "job": "Story", "name": "Brian Williams", "profile_path": null}]}}