{"adult": false, "backdrop_path": "/vJWL7Os47l560maTyMzOkUxfQ2K.jpg", "belongs_to_collection": null, "budget": 0, "genres": [{"id": 35, "name": "Comedy"}, {"id": 10749, "name": "Romance"}, {"id": 18, "name": "Drama"}], "homepage": null, "id": 62958, "imdb_id": "tt0215993", "original_language": "ja", "original_title": "\u30e1\u30c3\u30bb\u30f3\u30b8\u30e3\u30fc", "overview": "Naomi Shimizu is a young career woman working for Enrico Dandolo, an Italian fashion house. That is until one day the company declares bankruptcy. Accustomed to living in luxury she tries to make a run for it with the last remaining company asset, a red Alpha Romeo sports car. Unfortunately she recklessly collides with an bicycle messenger. Lacking any funds to pay for a settlement, she end up having to work as a bicycle messenger.", "popularity": 1.658, "poster_path": "/djqtZB8YI2D7DME9p1ahGHNpBHP.jpg", "production_companies": [{"id": 31059, "logo_path": null, "name": "Pony Canyon", "origin_country": ""}], "production_countries": [{"iso_3166_1": "JP", "name": "Japan"}], "release_date": "1999-08-21", "revenue": 0, "runtime": 118, "spoken_languages": [{"iso_639_1": "ja", "name": "\u65e5\u672c\u8a9e"}], "status": "Released", "tagline": "When the going gets tough, try to overtake...", "title": "Messengers", "video": false, "vote_average": 5.2, "vote_count": 8, "keywords": {"keywords": [{"id": 180491, "name": "cycling"}]}, "similar": {"page": 1, "results": [{"id": 15008, "video": false, "vote_count": 26, "vote_average": 6.8, "title": "The Flying Scotsman", "release_date": "2006-08-16", "original_language": "en", "original_title": "The Flying Scotsman", "genre_ids": [18], "backdrop_path": "/trslR2V7kdSwZ76L2bRxO5ilMqJ.jpg", "adult": false, "overview": "Based on the incredible true story of amateur cyclist Graeme Obree, who breaks the world one-hour record on a bike he made out of washing machine parts.", "poster_path": "/wyfs641iqLAXObNZvYR2dSMkVhr.jpg", "popularity": 4.299}, {"id": 20283, "video": false, "vote_count": 131, "vote_average": 7.3, "title": "Breaking Away", "release_date": "1979-05-24", "original_language": "en", "original_title": "Breaking Away", "genre_ids": [35, 18], "backdrop_path": "/t1Grxk1h11H2yuDMSFief7J5ZFd.jpg", "adult": false, "overview": "Dave, nineteen, has just graduated high school, with his 3 friends, The comical Cyril, the warm hearted but short-tempered Moocher, and the athletic, spiteful but good-hearted Mike. Now, Dave enjoys racing bikes and hopes to race the Italians one day, and even takes up the Italian culture, much to his friends and parents annoyance.", "poster_path": "/6fyhA7Imqxm7SftTqd4RGcayWfn.jpg", "popularity": 10.38}, {"adult": false, "backdrop_path": "/pJoqEfOM9ZBI2AbYCJRUUSVehzL.jpg", "genre_ids": [10749, 53], "id": 209419, "original_language": "ml", "original_title": "\u0d28\u0d40\u0d32\u0d3e\u0d15\u0d3e\u0d36\u0d02 \u0d2a\u0d1a\u0d4d\u0d1a\u0d15\u0d4d\u0d15\u0d1f\u0d7d \u0d1a\u0d41\u0d35\u0d28\u0d4d\u0d28 \u0d2d\u0d42\u0d2e\u0d3f", "overview": "Kasi and Suni are close friends who studied together in an engineering college. Assi, who comes to Kerala to study engineering under the North East quota falls in love with Kasi. Certain incidents that follow set Kasi and Suni on a road trip to Nagaland on two motorcycles. The incidents that happen during this road adventure forms the film.", "poster_path": "/r1TQ6CeTCPmKtCa7UY6yonZlevt.jpg", "release_date": "2013-08-09", "title": "Neelakasham Pachakadal Chuvanna Bhoomi", "video": false, "vote_average": 7.2, "vote_count": 22, "popularity": 9.36}, {"adult": false, "backdrop_path": "/m83O9TqAiZo3F2YgxMpuA5kxGZP.jpg", "genre_ids": [35, 10749], "id": 50124, "original_language": "it", "original_title": "Monella", "overview": "The story takes place in northern Italy in the 1950's. Lola and Masetto are about to get married. Masetto wants to keep Lola as a virgin until they are married. But Lola is impatient to remain in chastity until the wedding night. She wants to be sure that Masetto is a good lover, before she commits herself into marriage. She does everything to trick Masetto into breaking the moral tradition.", "poster_path": "/2mlv1R8MlhlGw4dZ0tXy0K6u7ew.jpg", "release_date": "1998-01-21", "title": "Frivolous Lola", "video": false, "vote_average": 4.3, "vote_count": 85, "popularity": 10.199}, {"id": 14139, "video": false, "vote_count": 589, "vote_average": 7.0, "title": "Timecrimes", "release_date": "2007-10-05", "original_language": "es", "original_title": "Los cronocr\u00edmenes", "genre_ids": [878, 53], "backdrop_path": "/4bnk6fY6By5em5tFDiESo6gz5ln.jpg", "adult": false, "overview": "A man accidentally gets into a time machine and travels back in time nearly an hour. Finding himself will be the first of a series of disasters of unforeseeable consequences.", "poster_path": "/yaPwrv8c2ZKVHdUicUUnA9LvCCh.jpg", "popularity": 10.78}, {"id": 7859, "video": false, "vote_count": 467, "vote_average": 6.7, "title": "Half Nelson", "release_date": "2006-08-11", "original_language": "en", "original_title": "Half Nelson", "genre_ids": [18], "backdrop_path": "/aJjv8ilvaf7kmN4Fy0Q1d0Ga2pq.jpg", "adult": false, "overview": "Despite his dedication to the junior-high students who fill his classroom, idealistic teacher Dan Dunne leads a secret life of addiction that the majority of his students will never know. But things change when a troubled student Drey makes a startling discovery of his secret life, causing a tenuous bond between the two that could either end disastrously or provide a catalyst of hope.", "poster_path": "/eWkthzAl4NSEFlKHo3FU36O6NYk.jpg", "popularity": 8.705}, {"id": 595931, "video": false, "vote_count": 0, "vote_average": 0.0, "title": "The Climb", "release_date": "2020-03-20", "original_language": "en", "original_title": "The Climb", "genre_ids": [35, 18], "backdrop_path": null, "adult": false, "overview": "A look at the friendship between two guys that spans over many years.", "poster_path": "/3gTC706L95UfJ7MCl7yryIiOer1.jpg", "popularity": 2.456}, {"id": 49526, "video": false, "vote_count": 1336, "vote_average": 6.3, "title": "Premium Rush", "release_date": "2012-08-24", "original_language": "en", "original_title": "Premium Rush", "genre_ids": [28, 80, 53], "backdrop_path": "/Yavh2wmlZKFcqT4VIr2i4OZ4lZ.jpg", "adult": false, "overview": "In Manhattan, a bike messenger picks up an envelope that attracts the interest of a dirty cop, who pursues the cyclist throughout the city.", "poster_path": "/khfyc8Yeub0JvD9kk29vqYsPsIi.jpg", "popularity": 11.224}, {"adult": false, "backdrop_path": "/iGDiVgC05xjlOXuTkEOEJqG6gAx.jpg", "genre_ids": [35, 18], "id": 147773, "original_language": "en", "original_title": "The Way Way Back", "overview": "Over the course of his summer break, a teenager comes into his own thanks in part to the friendship he strikes up with one of the park's managers.", "poster_path": "/cCA0ZPetEWYn7dbe6MHDwjue4UZ.jpg", "release_date": "2013-06-06", "title": "The Way Way Back", "video": false, "vote_average": 7.1, "vote_count": 1114, "popularity": 13.28}, {"id": 9662, "video": false, "vote_count": 503, "vote_average": 7.4, "title": "The Triplets of Belleville", "release_date": "2003-06-11", "original_language": "fr", "original_title": "Les Triplettes de Belleville", "genre_ids": [16, 35, 18], "backdrop_path": "/qBRwRxhUszKvcHQxMiimuax6U2e.jpg", "adult": false, "overview": "When her grandson is kidnapped during the Tour de France, Madame Souza and her beloved pooch Bruno team up with the Belleville Sisters--an aged song-and-dance team from the days of Fred Astaire--to rescue him.", "poster_path": "/A8aSp63Xi4cnip3wAhk7Jml1uWG.jpg", "popularity": 9.672}, {"id": 28162, "video": false, "vote_count": 165, "vote_average": 8.0, "title": "A Matter of Life and Death", "release_date": "1946-08-22", "original_language": "en", "original_title": "A Matter of Life and Death", "genre_ids": [35, 18, 14, 10749], "backdrop_path": "/buyOmAyKiJt1bMbyF9GB0lFiht0.jpg", "adult": false, "overview": "When a young airman miraculously survives bailing out of his aeroplane without a parachute, he falls in love with an American radio operator. But the officials in the other world realise their mistake, and despatch an angel to collect him.", "poster_path": "/diYVom5WuqNzhlRceem8onA197e.jpg", "popularity": 10.254}, {"adult": false, "backdrop_path": "/1zDvDOZSUw1nWLggz4G3VmC3PRm.jpg", "genre_ids": [18], "id": 14040, "original_language": "en", "original_title": "American Flyers", "overview": "When Dr. Marcus Sommers realizes that he and his troubled, estranged brother David may be prone a fatal brain disease that runs in their family, he decides to make peace with his sibling, and invites him on a trip to the Rockies. There, the brothers bond over their shared enthusiasm for cycling and decide to enter a grueling bike race through the mountains. However, Marcus' health soon begins to fail, and David must compete without his brother at his side.", "poster_path": "/cK2W0rjWXTC07IckhSB06GCVUVt.jpg", "release_date": "1985-08-16", "title": "American Flyers", "video": false, "vote_average": 6.2, "vote_count": 49, "popularity": 5.409}, {"adult": false, "backdrop_path": "/6LGlXuwUNX7YNwgUyzxfvU7nECC.jpg", "genre_ids": [12, 80, 18], "id": 17381, "original_language": "en", "original_title": "BMX Bandits", "overview": "Teens P.J. and Goose get their thrills on BMX bikes, performing hair-raising tricks all across Sydney, Australia. Along with their new friend Judy, they discover a box of walkie-talkies -- and find out that a gang of criminals intends to use them to monitor police signals during a bank robbery. When the young trio snatches the devices, it propels them on a hair-raising adventure in which their pedaling skills might just save their necks.", "poster_path": "/8cw5DA1rhiEnal1e2Kb8PxZOLER.jpg", "release_date": "1983-12-29", "title": "BMX Bandits", "video": false, "vote_average": 5.7, "vote_count": 60, "popularity": 7.622}, {"id": 271736, "video": false, "vote_count": 316, "vote_average": 6.4, "title": "The Program", "release_date": "2015-09-16", "original_language": "en", "original_title": "The Program", "genre_ids": [18], "backdrop_path": "/8lH87ItT54PD3SINsGR78lxJNw8.jpg", "adult": false, "overview": "An Irish sports journalist becomes convinced that Lance Armstrong's performances during the Tour de France victories are fueled by banned substances. With this conviction, he starts hunting for evidence that will expose Armstrong.", "poster_path": "/w8sBqGSko8OBsKbK6z7gPvRfp7F.jpg", "popularity": 8.491}, {"id": 10503, "video": false, "vote_count": 229, "vote_average": 6.5, "title": "Happy-Go-Lucky", "release_date": "2008-04-18", "original_language": "en", "original_title": "Happy-Go-Lucky", "genre_ids": [35, 18], "backdrop_path": "/vVEkfmBNRdkdbuspF7tMnK4ozM8.jpg", "adult": false, "overview": "A look at a few chapters in the life of Poppy, a cheery, colorful, North London schoolteacher whose optimism tends to exasperate those around her.", "poster_path": "/sO9ZZsqDfreFxiCPrUuBYeqsAHi.jpg", "popularity": 12.349}, {"id": 63831, "video": false, "vote_count": 217, "vote_average": 7.2, "title": "The Kid with a Bike", "release_date": "2011-05-18", "original_language": "fr", "original_title": "Le Gamin au v\u00e9lo", "genre_ids": [18], "backdrop_path": "/47enMtYNKLF8PaEQIbOnTFQdSX1.jpg", "adult": false, "overview": "Abandoned by his father, a young boy is left in the hands of an unqualified childcare provider.", "poster_path": "/6xQBCewA6BhRY4CXdT5uxOn0LIB.jpg", "popularity": 6.576}, {"id": 117974, "video": false, "vote_count": 288, "vote_average": 6.4, "title": "Sightseers", "release_date": "2012-11-30", "original_language": "en", "original_title": "Sightseers", "genre_ids": [12, 35, 80], "backdrop_path": "/xSW4TN3AnzlFBtNGF7XQrTTRjdO.jpg", "adult": false, "overview": "Chris wants to show girlfriend Tina his world, but events soon conspire against the couple and their dream caravan holiday takes a very wrong turn.", "poster_path": "/zyXbeDmxPMbEhoOtzyIBPmGMe8x.jpg", "popularity": 8.16}, {"adult": false, "backdrop_path": "/gevbjFnbFtxv0T6ubF1RLt6rj0L.jpg", "genre_ids": [80, 18, 53], "id": 72083, "original_language": "es", "original_title": "Muerte de un ciclista", "overview": "A couple having an affair strike a bicyclist with their car and do not offer aid out of fear of their relationship being exposed.", "poster_path": "/3hwjBqHR63FoQgU7XaFz2rDYwUC.jpg", "release_date": "1955-05-08", "title": "Death of a Cyclist", "video": false, "vote_average": 7.3, "vote_count": 41, "popularity": 4.062}, {"adult": false, "backdrop_path": "/rwN5q2g87mlNI4EL12QgwezymPG.jpg", "genre_ids": [35, 53, 9648], "id": 38087, "original_language": "en", "original_title": "Mystery Team", "overview": "A group of former Encyclopedia Brown-style child-detectives struggle to solve an adult mystery.", "poster_path": "/xibpvk7G7jcqutcam8eqgFOutJP.jpg", "release_date": "2009-08-28", "title": "Mystery Team", "video": false, "vote_average": 6.4, "vote_count": 80, "popularity": 6.203}, {"id": 161594, "video": false, "vote_count": 15, "vote_average": 5.2, "title": "Buffalo Dreams", "release_date": "2005-09-12", "original_language": "en", "original_title": "Buffalo Dreams", "genre_ids": [18, 10751, 10770], "backdrop_path": "/tF8qRpjpkUzdw4GSrXSTgy5Qs7F.jpg", "adult": false, "overview": "Josh Townsend finds himself living in New Mexico after his father's new job requires the family to move from their home in Utah. While acclimating to his new surroundings, Josh becomes involved with a group of teens attempting to preserve the buffalo and Navajo traditions. Along the way he makes friends and learns important lessons about life in this Disney Channel Original movie.", "poster_path": "/2JHHAruNoAGc0iaM5GHNtIA5i3g.jpg", "popularity": 4.533}], "total_pages": 14, "total_results": 261}, "recommendations": {"page": 1, "results": [{"adult": false, "backdrop_path": "/lqQda7q7EpiB7Xge3Cw1rrpSGtZ.jpg", "genre_ids": [18], "id": 21551, "original_language": "ja", "original_title": "\u6df1\u547c\u5438\u306e\u5fc5\u8981", "overview": "Breathe In, Breathe Out centers on six, later seven, individuals who have gotten jobs harvesting sugarcane on a small Okinawa island. Each worker has their own unique personality as well as their own issues as they learn to work together...", "poster_path": "/yvsO9KHEKAnMu5rn8DA8s5JZTyg.jpg", "release_date": "2004-05-29", "title": "Breathe In, Breathe Out", "video": false, "vote_average": 7.3, "vote_count": 5, "popularity": 0.691}, {"adult": false, "backdrop_path": "/zZiB4DzVHJ8ttbwAwRItSGkEgye.jpg", "genre_ids": [18], "id": 184972, "original_language": "ja", "original_title": "\u304c\u3093\u3070\u3063\u3066\u3044\u304d\u307e\u3063\u3057\u3087\u3044", "overview": "Etsuko - a typical Japanese high school student, who's unlucky in love, an academic failure, and plain bored with life. That's until one day, the view of a boat gliding gracefully in the sea inspires her to take up the oar. Since she's rejected by her school's all-male rowing team, she decides to form her own all-women team. Nothing will ever be the same again.", "poster_path": "/iWGtDYnie0PhDQpmdA50ESct8a5.jpg", "release_date": "1998-10-09", "title": "Give It All", "video": false, "vote_average": 5.9, "vote_count": 4, "popularity": 0.949}, {"adult": false, "backdrop_path": "/nHS7DdmcT2TGcYw2UG0puZ9tLlo.jpg", "genre_ids": [35, 18], "id": 116303, "original_language": "ja", "original_title": "\u30ec\u30f3\u30bf\u30cd\u30b3", "overview": "A single woman runs a rent-a-cat service to provide companions for lonely people.", "poster_path": "/tXbeyJkUuDjrKOehzialaDZskAY.jpg", "release_date": "2012-05-12", "title": "Rent-a-Cat", "video": false, "vote_average": 6.9, "vote_count": 17, "popularity": 1.819}, {"adult": false, "backdrop_path": "/viV9Nlhkw4PdrMilAy6N2NYHSew.jpg", "genre_ids": [18], "id": 229173, "original_language": "ja", "original_title": "\u7956\u8c37\u7269\u8a9e -\u304a\u304f\u306e\u3072\u3068-", "overview": "It was summer when a stranger from Tokyo arrived at \u201cIya\u201d, where the riches of nature still abound. This young man, named Kudo, was willing to live his new, self-sufficient life. He was exhausted by city life, and believed this beautiful land would give him some rest. On the contrary, the reality was not as easy as he thought. There was a confliction between a local construction company and a group of nature conservationists. Farmers are trying to save their harvests from harmful animals such as deer and monkeys. People are fighting for their own purposes: to get their job, to save the environment, or to survive.", "poster_path": "/6SK7iNDKDnf18CZqCs4fo5bBDon.jpg", "release_date": "2013-10-22", "title": "The Tale of Iya", "video": false, "vote_average": 6.9, "vote_count": 11, "popularity": 2.037}, {"adult": false, "backdrop_path": "/cp0iIoZaMQ1tbb9DwpLy8o9LM35.jpg", "genre_ids": [35, 18, 10749], "id": 83214, "original_language": "ja", "original_title": "\u5929\u7136\u30b3\u30b1\u30c3\u30b3\u30fc", "overview": "Based on a popular manga, the film is a tender coming-of-age love story set deep in Japan's countryside. When eighth grade cool guy Hiromi transfers from Tokyo to a small elementary/middle school with only six kids enrolled, wholesome and honest Soyo becomes enthralled with his sophisticated world.", "poster_path": "/TzqoivR7ALUx7fM3TnQi5RHQWj.jpg", "release_date": "2007-08-04", "title": "A Gentle Breeze in the Village", "video": false, "vote_average": 7.0, "vote_count": 22, "popularity": 4.677}, {"adult": false, "backdrop_path": "/7ujADiV8gHdEaCq13Cl7H4b9Azl.jpg", "genre_ids": [35, 80, 53], "id": 33253, "original_language": "th", "original_title": "\u0e40\u0e23\u0e37\u0e48\u0e2d\u0e07\u0e15\u0e25\u0e01 69", "overview": "A woman, fired from a financial corporation during the Asia crisis, returns home with no money. However, she finds a box with a fortune in front of her door, and decides to keep it. However, the people that left it there soon want it back.", "poster_path": "/bkxhceiETR2HHlub62bK0WkQO44.jpg", "release_date": "1999-11-19", "title": "6ixtynin9", "video": false, "vote_average": 6.6, "vote_count": 21, "popularity": 3.244}], "total_pages": 1, "total_results": 6}, "credits": {"cast": [{"cast_id": 1, "character": "Naomi Shimizu", "credit_id": "52fe4695c3a368484e0988a1", "gender": 0, "id": 107569, "name": "Naoko Iijima", "order": 0, "profile_path": "/q9oBMjTQZZaIvThsk6NH6cx8OCm.jpg"}, {"cast_id": 2, "character": "Hironori Suzuki", "credit_id": "52fe4695c3a368484e0988a5", "gender": 2, "id": 80753, "name": "Tsuyoshi Kusanagi", "order": 1, "profile_path": "/ik1bgeRgFMSRb0ZV0NPRlhoTvBD.jpg"}, {"cast_id": 3, "character": "Shigekazu Yokota", "credit_id": "52fe4695c3a368484e0988a9", "gender": 0, "id": 236311, "name": "Hiroyuki Yabe", "order": 2, "profile_path": null}, {"cast_id": 4, "character": "Hiroshi Okano", "credit_id": "52fe4695c3a368484e0988ad", "gender": 0, "id": 236313, "name": "Yumiko Abe", "order": 3, "profile_path": null}, {"cast_id": 5, "character": "Hiroshi Okano", "credit_id": "52fe4695c3a368484e0988b1", "gender": 0, "id": 21564, "name": "Tetsuya Bessho", "order": 4, "profile_path": "/hm0Qpk3CcpZHuxwO7ZjtJWGDKFQ.jpg"}, {"cast_id": 6, "character": "Yoshihisa Ota", "credit_id": "52fe4695c3a368484e0988b5", "gender": 2, "id": 18059, "name": "Shigemitsu Ogi", "order": 5, "profile_path": "/g3Q6cJWsLBfVdJmwsxzVIK2gvKY.jpg"}, {"cast_id": 7, "character": "Noriyuki Hattori", "credit_id": "52fe4695c3a368484e0988b9", "gender": 0, "id": 236315, "name": "Shinsuke Aoki", "order": 6, "profile_path": null}, {"cast_id": 8, "character": "Mamiko Maekawa", "credit_id": "52fe4695c3a368484e0988bd", "gender": 0, "id": 236316, "name": "Y\u00fbko It\u00f4", "order": 7, "profile_path": null}, {"cast_id": 9, "character": "Makoto Shimano", "credit_id": "52fe4695c3a368484e0988c1", "gender": 2, "id": 33764, "name": "Y\u00fbz\u00f4 Kayama", "order": 8, "profile_path": "/oiyhZCBhvkidUNIiuKBmZmUavRt.jpg"}], "crew": [{"credit_id": "5698161892514125310009a3", "department": "Directing", "gender": 0, "id": 1117069, "job": "Director", "name": "Yasuo Baba", "profile_path": null}, {"credit_id": "5698162c9251412536000999", "department": "Writing", "gender": 0, "id": 93514, "job": "Writer", "name": "Masashi Todayama", "profile_path": null}, {"credit_id": "56981691925141253d0009b4", "department": "Editing", "gender": 0, "id": 43660, "job": "Editor", "name": "Takuya Taguchi", "profile_path": null}, {"credit_id": "569816a99251412534000a80", "department": "Crew", "gender": 0, "id": 566691, "job": "Visual Effects Design Consultant", "name": "Michael E. Phillips", "profile_path": null}, {"credit_id": "5c21656f0e0a264dedee6de6", "department": "Sound", "gender": 0, "id": 555544, "job": "Original Music Composer", "name": "Yusuke Honma", "profile_path": null}, {"credit_id": "5c4cb9029251410e245b3afc", "department": "Camera", "gender": 2, "id": 1199753, "job": "Director of Photography", "name": "Motokichi Hasegawa", "profile_path": null}]}}