{"adult": false, "backdrop_path": "/2iAJUXYjTQVsXL3H9TyB64k71ld.jpg", "belongs_to_collection": null, "budget": 0, "genres": [{"id": 18, "name": "Drama"}, {"id": 14, "name": "Fantasy"}, {"id": 10749, "name": "Romance"}], "homepage": "", "id": 63004, "imdb_id": "tt0113992", "original_language": "es", "original_title": "No te mueras sin decirme ad\u00f3nde vas", "overview": "It is the fantastic story of Leopoldo, a lonely film projectionist who has invented a machine to record his dreams. Through a series of odd events, Leopoldo discovers that he is the reincarnation of one of the inventors of cinema, and that a woman he sees in his dreams is his eternal companion on a trip through centuries.", "popularity": 1.981, "poster_path": "/lh7tw59GgRny3wNw6UeO9StMrW8.jpg", "production_companies": [{"id": 90187, "logo_path": "/wjEQWCBx2tZHBxsLgOGAwddOXWe.png", "name": "Artear", "origin_country": "AR"}, {"id": 6458, "logo_path": "/BrkmIPGDoj15uaYwfPqUNde2Cc.png", "name": "Instituto Nacional de Cine y Artes Audiovisuales", "origin_country": "AR"}], "production_countries": [{"iso_3166_1": "AR", "name": "Argentina"}], "release_date": "1995-05-04", "revenue": 0, "runtime": 130, "spoken_languages": [{"iso_639_1": "es", "name": "Espa\u00f1ol"}], "status": "Released", "tagline": "", "title": "Don't Die Without Telling Me Where You're Going", "video": false, "vote_average": 6.9, "vote_count": 4, "keywords": {"keywords": [{"id": 2343, "name": "magic"}]}, "similar": {"page": 1, "results": [{"id": 27022, "video": false, "vote_count": 3219, "vote_average": 6.0, "title": "The Sorcerer's Apprentice", "release_date": "2010-07-13", "original_language": "en", "original_title": "The Sorcerer's Apprentice", "genre_ids": [28, 12, 35, 18, 14], "backdrop_path": "/v0o9M1us65w1kDQp8Q6KnB5a11s.jpg", "adult": false, "overview": "Balthazar Blake is a master sorcerer in modern-day Manhattan trying to defend the city from his arch-nemesis, Maxim Horvath. Balthazar can't do it alone, so he recruits Dave Stutler, a seemingly average guy who demonstrates hidden potential, as his reluctant prot\u00e9g\u00e9. The sorcerer gives his unwilling accomplice a crash course in the art and science of magic, and together, these unlikely partners work to stop the forces of darkness.", "poster_path": "/ZNSrRpdJ6FjMy4Iu6JpRTJ5Q87.jpg", "popularity": 24.096}, {"id": 37430, "video": false, "vote_count": 1122, "vote_average": 5.2, "title": "Conan the Barbarian", "release_date": "2011-08-17", "original_language": "en", "original_title": "Conan the Barbarian", "genre_ids": [28, 12, 14], "backdrop_path": "/381rd4LVvy6AkSB9tqHNu81ftyR.jpg", "adult": false, "overview": "A quest that begins as a personal vendetta for the fierce Cimmerian warrior soon turns into an epic battle against hulking rivals, horrific monsters, and impossible odds, as Conan (Jason Momoa) realizes he is the only hope of saving the great nations of Hyboria from an encroaching reign of supernatural evil.", "poster_path": "/fQ0lcaOpn2WozSnL5hfAhH6tYOA.jpg", "popularity": 20.99}, {"id": 12445, "video": false, "vote_count": 12730, "vote_average": 8.1, "title": "Harry Potter and the Deathly Hallows: Part 2", "release_date": "2011-07-07", "original_language": "en", "original_title": "Harry Potter and the Deathly Hallows: Part 2", "genre_ids": [12, 14], "backdrop_path": "/n5A7brJCjejceZmHyujwUTVgQNC.jpg", "adult": false, "overview": "Harry, Ron and Hermione continue their quest to vanquish the evil Voldemort once and for all. Just as things begin to look hopeless for the young wizards, Harry discovers a trio of magical objects that endow him with powers to rival Voldemort's formidable skills.", "poster_path": "/fTplI1NCSuEDP4ITLcTps739fcC.jpg", "popularity": 48.576}, {"id": 767, "video": false, "vote_count": 11644, "vote_average": 7.7, "title": "Harry Potter and the Half-Blood Prince", "release_date": "2009-07-07", "original_language": "en", "original_title": "Harry Potter and the Half-Blood Prince", "genre_ids": [12, 14], "backdrop_path": "/kRyojLYtWPsBKfDhphhhl1FdM5a.jpg", "adult": false, "overview": "As Harry begins his sixth year at Hogwarts, he discovers an old book marked as 'Property of the Half-Blood Prince', and begins to learn more about Lord Voldemort's dark past.", "poster_path": "/bFXys2nhALwDvpkF3dP3Vvdfn8b.jpg", "popularity": 35.059}, {"adult": false, "backdrop_path": "/5SX2rgKXZ7NVmAJR5z5LprqSXKa.jpg", "genre_ids": [28, 12, 14], "id": 68735, "original_language": "en", "original_title": "Warcraft", "overview": "The peaceful realm of Azeroth stands on the brink of war as its civilization faces a fearsome race of invaders: orc warriors fleeing their dying home to colonize another. As a portal opens to connect the two worlds, one army faces destruction and the other faces extinction. From opposing sides, two heroes are set on a collision course that will decide the fate of their family, their people, and their home.", "poster_path": "/ckrTPz6FZ35L5ybjqvkLWzzSLO7.jpg", "release_date": "2016-05-25", "title": "Warcraft", "video": false, "vote_average": 6.3, "vote_count": 4439, "popularity": 18.932}, {"id": 675, "video": false, "vote_count": 11931, "vote_average": 7.6, "title": "Harry Potter and the Order of the Phoenix", "release_date": "2007-06-28", "original_language": "en", "original_title": "Harry Potter and the Order of the Phoenix", "genre_ids": [12, 14, 9648], "backdrop_path": "/gGt4ePOhD8ilxd3FYhKB06L2CyG.jpg", "adult": false, "overview": "Returning for his fifth year of study at Hogwarts, Harry is stunned to find that his warnings about the return of Lord Voldemort have been ignored. Left with no choice, Harry takes matters into his own hands, training a small group of students \u2013 dubbed 'Dumbledore's Army' \u2013 to defend themselves against the dark arts.", "poster_path": "/4YnLxYLHhT4UQ8i9jxAXWy46Xuw.jpg", "popularity": 42.537}, {"id": 671, "video": false, "vote_count": 15480, "vote_average": 7.8, "title": "Harry Potter and the Philosopher's Stone", "release_date": "2001-11-16", "original_language": "en", "original_title": "Harry Potter and the Philosopher's Stone", "genre_ids": [12, 14, 10751], "backdrop_path": "/hziiv14OpD73u9gAak4XDDfBKa2.jpg", "adult": false, "overview": "Harry Potter has lived under the stairs at his aunt and uncle's house his whole life. But on his 11th birthday, he learns he's a powerful wizard -- with a place waiting for him at the Hogwarts School of Witchcraft and Wizardry. As he learns to harness his newfound powers with the help of the school's kindly headmaster, Harry uncovers the truth about his parents' deaths -- and about the villain who's to blame.", "poster_path": "/gHPtCmMeDqjaGqnMrWGDmD3nKd2.jpg", "popularity": 58.781}, {"adult": false, "backdrop_path": "/6fsTmiVUDKHj303iQoyBd0NT8OP.jpg", "genre_ids": [14], "id": 848, "original_language": "en", "original_title": "Dragonslayer", "overview": "The sorcerer and his apprentice Galen are on a mission to kill an evil dragon in order to save the King\u2019s daughter from being sacrificed in accordance to a pact that the King himself made with the dragon to protect his kingdom. A fantasy film from Disney Studios that exhausted all possible visual effects of the time.", "poster_path": "/tceaiNtwktGKzw4AIrZ2Hz6iK9u.jpg", "release_date": "1981-06-26", "title": "Dragonslayer", "video": false, "vote_average": 6.5, "vote_count": 133, "popularity": 11.584}, {"id": 68728, "video": false, "vote_count": 5072, "vote_average": 5.8, "title": "Oz the Great and Powerful", "release_date": "2013-03-07", "original_language": "en", "original_title": "Oz the Great and Powerful", "genre_ids": [12, 14, 10751], "backdrop_path": "/4cCQkOv4GfQoTtDzHl54KS3S39N.jpg", "adult": false, "overview": "Oscar Diggs, a small-time circus illusionist and con-artist, is whisked from Kansas to the Land of Oz where the inhabitants assume he's the great wizard of prophecy, there to save Oz from the clutches of evil.", "poster_path": "/7qzLIcYR7ev7iXngY8NKHBZHwwT.jpg", "popularity": 15.187}, {"id": 6435, "video": false, "vote_count": 754, "vote_average": 6.5, "title": "Practical Magic", "release_date": "1998-10-16", "original_language": "en", "original_title": "Practical Magic", "genre_ids": [35, 14, 10749], "backdrop_path": "/2csru6TjDXExFgx5OXxJmRHujVs.jpg", "adult": false, "overview": "Sally and Gillian Owens, born into a magical family, have mostly avoided witchcraft themselves. But when Gillian's vicious boyfriend, Jimmy Angelov, dies unexpectedly, the Owens sisters give themselves a crash course in hard magic. With policeman Gary Hallet growing suspicious, the girls struggle to resurrect Angelov -- and unwittingly inject his corpse with an evil spirit that threatens to end their family line.", "poster_path": "/AwmToSgf2IL3aHv0QRVsR5KvChv.jpg", "popularity": 11.491}, {"id": 674, "video": false, "vote_count": 12268, "vote_average": 7.8, "title": "Harry Potter and the Goblet of Fire", "release_date": "2005-11-16", "original_language": "en", "original_title": "Harry Potter and the Goblet of Fire", "genre_ids": [12, 14, 10751], "backdrop_path": "/gzKW3emulMxIHzuXxZoyDB1lei9.jpg", "adult": false, "overview": "Harry starts his fourth year at Hogwarts, competes in the treacherous Triwizard Tournament and faces the evil Lord Voldemort. Ron and Hermione help Harry manage the pressure \u2013 but Voldemort lurks, awaiting his chance to destroy Harry and all that he stands for.", "poster_path": "/fECBtHlr0RB3foNHDiCBXeg9Bv9.jpg", "popularity": 37.055}, {"adult": false, "backdrop_path": "/aoHrTDANGQ05ygmLX49OXhTn9jA.jpg", "genre_ids": [12, 14, 28], "id": 9610, "original_language": "en", "original_title": "Conan the Destroyer", "overview": "Conan is commissioned by the evil queen Taramis to safely escort a teen princess and her powerful bodyguard to a far away castle to retrieve the magic Horn of Dagon. Unknown to Conan, the queen plans to sacrifice the princess when she returns and inherit her kingdom after the bodyguard kills Conan. The queen's plans fail to take into consideration Conan's strength and cunning and the abilities of his sidekicks: the eccentric wizard Akiro, the wild woman Zula, and the inept Malak. Together the hero and his allies must defeat both mortal and supernatural foes in this voyage to sword-and-sorcery land.", "poster_path": "/wLIpIZ0KBopuAsvPBQRSGNjjFVT.jpg", "release_date": "1984-06-29", "title": "Conan the Destroyer", "video": false, "vote_average": 6.0, "vote_count": 765, "popularity": 16.835}, {"id": 57158, "video": false, "vote_count": 8375, "vote_average": 7.6, "title": "The Hobbit: The Desolation of Smaug", "release_date": "2013-12-11", "original_language": "en", "original_title": "The Hobbit: The Desolation of Smaug", "genre_ids": [28, 12, 14], "backdrop_path": "/hyR7Fs6Tepgu3yCQGtgO4Ilz9tY.jpg", "adult": false, "overview": "The Dwarves, Bilbo and Gandalf have successfully escaped the Misty Mountains, and Bilbo has gained the One Ring. They all continue their journey to get their gold back from the Dragon, Smaug.", "poster_path": "/gQCiuxGsfiXH1su6lp9n0nd0UeH.jpg", "popularity": 29.574}, {"id": 284052, "video": false, "vote_count": 13953, "vote_average": 7.4, "title": "Doctor Strange", "release_date": "2016-10-25", "original_language": "en", "original_title": "Doctor Strange", "genre_ids": [28, 12, 14, 878], "backdrop_path": "/tFI8VLMgSTTU38i8TIsklfqS9Nl.jpg", "adult": false, "overview": "After his career is destroyed, a brilliant but arrogant surgeon gets a new lease on life when a sorcerer takes him under her wing and trains him to defend the world against evil.", "poster_path": "/4PiiNGXj1KENTmCBHeN6Mskj2Fq.jpg", "popularity": 47.105}, {"id": 338952, "video": false, "vote_count": 5995, "vote_average": 6.8, "title": "Fantastic Beasts: The Crimes of Grindelwald", "release_date": "2018-11-14", "original_language": "en", "original_title": "Fantastic Beasts: The Crimes of Grindelwald", "genre_ids": [12, 14, 10751], "backdrop_path": "/qrtRKRzoNkf5vemO9tJ2Y4DrHxQ.jpg", "adult": false, "overview": "Gellert Grindelwald has escaped imprisonment and has begun gathering followers to his cause\u2014elevating wizards above all non-magical beings. The only one capable of putting a stop to him is the wizard he once called his closest friend, Albus Dumbledore. However, Dumbledore will need to seek help from the wizard who had thwarted Grindelwald once before, his former student Newt Scamander, who agrees to help, unaware of the dangers that lie ahead. Lines are drawn as love and loyalty are tested, even among the truest friends and family, in an increasingly divided wizarding world.", "poster_path": "/fMMrl8fD9gRCFJvsx0SuFwkEOop.jpg", "popularity": 46.09}, {"id": 259316, "video": false, "vote_count": 13202, "vote_average": 7.4, "title": "Fantastic Beasts and Where to Find Them", "release_date": "2016-11-16", "original_language": "en", "original_title": "Fantastic Beasts and Where to Find Them", "genre_ids": [12, 14, 10751], "backdrop_path": "/7GrpqAs0oDcFcwFwyygnUI7BrZA.jpg", "adult": false, "overview": "In 1926, Newt Scamander arrives at the Magical Congress of the United States of America with a magically expanded briefcase, which houses a number of dangerous creatures and their habitats. When the creatures escape from the briefcase, it sends the American wizarding authorities after Newt, and threatens to strain even further the state of magical and non-magical relations.", "poster_path": "/1M91Bt3oGspda75H9eLqYZkJzgO.jpg", "popularity": 41.774}, {"id": 672, "video": false, "vote_count": 13072, "vote_average": 7.7, "title": "Harry Potter and the Chamber of Secrets", "release_date": "2002-11-13", "original_language": "en", "original_title": "Harry Potter and the Chamber of Secrets", "genre_ids": [12, 14], "backdrop_path": "/avqzwKn89VetTEvAlBePt3Us6Al.jpg", "adult": false, "overview": "Cars fly, trees fight back, and a mysterious house-elf comes to warn Harry Potter at the start of his second year at Hogwarts. Adventure and danger await when bloody writing on a wall announces: The Chamber Of Secrets Has Been Opened. To save Hogwarts will require all of Harry, Ron and Hermione\u2019s magical abilities and courage.", "poster_path": "/sdEOH0992YZ0QSxgXNIGLq1ToUi.jpg", "popularity": 51.103}, {"id": 30144, "video": false, "vote_count": 59, "vote_average": 5.4, "title": "Lilly the Witch The Dragon and the Magic Book", "release_date": "2009-02-12", "original_language": "de", "original_title": "Hexe Lilli - Der Drache und das magische Buch", "genre_ids": [35, 14, 10751], "backdrop_path": "/rkrnym7C4psax45bbgyW0VLWW1T.jpg", "adult": false, "overview": "Lilly was a normal girl with a healthy sense of adventure. That is, until she finds a magical book, complete with a funny little dragon, \"Hector\". With the help of her new friend and the book, Lilly has the ability to time-travel and truly satisfy her adventure- lust!.", "poster_path": "/6vtNQdI4RLXvO2VlmKEMcojYgwH.jpg", "popularity": 7.049}, {"adult": false, "backdrop_path": "/7GauLmcFx3tzic3B7DxvRM9Y7cN.jpg", "genre_ids": [12, 14, 16, 878], "id": 37933, "original_language": "ja", "original_title": "\u30b2\u30c9\u6226\u8a18", "overview": "Something bizarre has come over the land. The kingdom is deteriorating. People are beginning to act strange... What's even more strange is that people are beginning to see dragons, which shouldn't enter the world of humans. Due to all these bizarre events, Ged, a wandering wizard, is investigating the cause. During his journey, he meets Prince Arren, a young distraught teenage boy. While Arren may look like a shy young teen, he has a severe dark side, which grants him strength, hatred, ruthlessness and has no mercy, especially when it comes to protecting Teru. For the witch Kumo this is a perfect opportunity. She can use the boy's \"fears\" against the very one who would help him, Ged.", "poster_path": "/deB7rfqZXpVxdRinyaCeyhwNPbg.jpg", "release_date": "2006-07-29", "title": "Tales from Earthsea", "video": false, "vote_average": 6.6, "vote_count": 565, "popularity": 14.769}, {"id": 11976, "video": false, "vote_count": 588, "vote_average": 6.2, "title": "Legend", "release_date": "1985-07-19", "original_language": "en", "original_title": "Legend", "genre_ids": [12, 14], "backdrop_path": "/kiTjtGWfQNuwz8YMyzicn4wDkET.jpg", "adult": false, "overview": "Set in a timeless mythical forest inhabited by fairies, goblins, unicorns and mortals, this fantastic story follows a mystical forest dweller, chosen by fate, to undertake a heroic quest. He must save the beautiful Princess  Lili and defeat the demonic Lord of Darkness, or the world will be plunged into a never-ending ice age.", "poster_path": "/xNWs9LM46vJWwf1q0VGPOccTKg4.jpg", "popularity": 13.92}], "total_pages": 54, "total_results": 1071}, "recommendations": {"page": 1, "results": [], "total_pages": 1, "total_results": 0}, "credits": {"cast": [{"cast_id": 2, "character": "Leopoldo", "credit_id": "52fe4697c3a368484e098f3d", "gender": 2, "id": 3618, "name": "Dar\u00edo Grandinetti", "order": 0, "profile_path": "/l5FNSMU0ZmEeeob71izhosfBzPb.jpg"}, {"cast_id": 3, "character": "Raquel", "credit_id": "52fe4697c3a368484e098f41", "gender": 1, "id": 236377, "name": "Mariana Arias", "order": 1, "profile_path": "/3wNIRNzIGpmntMESEkXdPCQKiQG.jpg"}, {"cast_id": 5, "character": "Oscar", "credit_id": "5b915bce0e0a26404f0006a0", "gender": 0, "id": 1457004, "name": "Oscar Mart\u00ednez", "order": 2, "profile_path": "/9626tXWWeTYmCfyspeOkBSZElMZ.jpg"}, {"cast_id": 6, "character": "Susana", "credit_id": "5b915be4c3a3687adf0008fc", "gender": 1, "id": 267827, "name": "M\u00f3nica Gal\u00e1n", "order": 3, "profile_path": "/umeCH5zEMsKlhccsYXH2FCg6jfF.jpg"}, {"cast_id": 7, "character": "Don Mario", "credit_id": "5b915bfd0e0a26404a0006e6", "gender": 2, "id": 984900, "name": "Tincho Zabala", "order": 4, "profile_path": "/cbDidmJQowzdvIkoAdvItxSqHLT.jpg"}, {"cast_id": 8, "character": "Pablo", "credit_id": "5b915c140e0a26403e000763", "gender": 2, "id": 19803, "name": "Leonardo Sbaraglia", "order": 5, "profile_path": "/nMaQ61zgfYFTmHVdw5KhdnFNj86.jpg"}], "crew": [{"credit_id": "52fe4697c3a368484e098f39", "department": "Directing", "gender": 2, "id": 81116, "job": "Director", "name": "Eliseo Subiela", "profile_path": "/VnJ7QQwEjNrLXC1rJBKXaZwxx8.jpg"}, {"credit_id": "5b915ba69251412d3a000772", "department": "Writing", "gender": 2, "id": 81116, "job": "Writer", "name": "Eliseo Subiela", "profile_path": "/VnJ7QQwEjNrLXC1rJBKXaZwxx8.jpg"}]}}