{"adult": false, "backdrop_path": "/jUx14l104wcyvrYNflLBnmgRvFW.jpg", "belongs_to_collection": null, "budget": 0, "genres": [{"id": 80, "name": "Crime"}, {"id": 35, "name": "Comedy"}, {"id": 18, "name": "Drama"}], "homepage": null, "id": 63071, "imdb_id": "tt0146289", "original_language": "it", "original_title": "La stanza del vescovo", "overview": "Mario, a rich and eccentric war hero befriends Marco, a loner with a sailboat, and takes him home to meet his estranged wife Cleofe and sexually repressed sister in law Matilde. Mario confesses his love for Matilde and so ensues a love triangle.", "popularity": 2.262, "poster_path": "/nI0CHzkOEQPLvdEUrSamunbCR6o.jpg", "production_companies": [{"id": 1137, "logo_path": null, "name": "S.N. Prodis", "origin_country": ""}, {"id": 50707, "logo_path": null, "name": "Carlton Film Exports", "origin_country": ""}, {"id": 29682, "logo_path": null, "name": "Merope", "origin_country": ""}], "production_countries": [{"iso_3166_1": "FR", "name": "France"}, {"iso_3166_1": "IT", "name": "Italy"}], "release_date": "1977-01-01", "revenue": 0, "runtime": 110, "spoken_languages": [{"iso_639_1": "it", "name": "Italiano"}], "status": "Released", "tagline": "", "title": "The Bishop's Bedroom", "video": false, "vote_average": 6.2, "vote_count": 10, "keywords": {"keywords": [{"id": 131, "name": "italy"}, {"id": 572, "name": "sex"}, {"id": 818, "name": "based on novel or book"}, {"id": 1422, "name": "boat"}, {"id": 3342, "name": "yacht"}, {"id": 14527, "name": "storm"}, {"id": 164181, "name": "sister-in-law"}, {"id": 170827, "name": "sex comedy"}]}, "similar": {"page": 1, "results": [{"adult": false, "backdrop_path": "/fwreQBx5CD55c1DpH117cS8915P.jpg", "genre_ids": [18, 53], "id": 867, "original_language": "en", "original_title": "Sliver", "overview": "A woman moves into an apartment in Manhattan and learns that the previous tenant's life ended mysteriously after they fell from the balcony.", "poster_path": "/av21Dfu31DQPtp5jkorMMS58rQC.jpg", "release_date": "1993-05-21", "title": "Sliver", "video": false, "vote_average": 5.3, "vote_count": 288, "popularity": 19.094}, {"id": 207932, "video": false, "vote_count": 4175, "vote_average": 5.9, "title": "Inferno", "release_date": "2016-10-13", "original_language": "en", "original_title": "Inferno", "genre_ids": [18, 9648, 53], "backdrop_path": "/ulzy4NDp7SzVkpUSDR67vawFCCT.jpg", "adult": false, "overview": "After waking up in a hospital with amnesia, professor Robert Langdon and a doctor must race against time to foil a deadly global plot.", "poster_path": "/oFOG2yIRcluKfTtYbzz71Vj9bgz.jpg", "popularity": 19.051}, {"adult": false, "backdrop_path": "/tk6QB32plylH41eo2Pbv4sIVljO.jpg", "genre_ids": [18], "id": 50270, "original_language": "it", "original_title": "Paprika", "overview": "A young country girl comes to town and works in a brothel in order to help her fiance get the money to start his own business. \"Paprika\" is the name given to her by the madam.", "poster_path": "/6QthFTJvUheocw3fcKklnsMcGib.jpg", "release_date": "1991-02-13", "title": "Paprika", "video": false, "vote_average": 5.9, "vote_count": 81, "popularity": 19.933}, {"adult": false, "backdrop_path": "/rXBB8F6XpHAwci2dihBCcixIHrK.jpg", "genre_ids": [18, 10749], "id": 341174, "original_language": "en", "original_title": "Fifty Shades Darker", "overview": "When a wounded Christian Grey tries to entice a cautious Ana Steele back into his life, she demands a new arrangement before she will give him another chance. As the two begin to build trust and find stability, shadowy figures from Christian\u2019s past start to circle the couple, determined to destroy their hopes for a future together.", "poster_path": "/wnVHDbGz7RvDAHFAsVVT88FxhrP.jpg", "release_date": "2017-02-08", "title": "Fifty Shades Darker", "video": false, "vote_average": 6.2, "vote_count": 4800, "popularity": 16.061}, {"adult": false, "backdrop_path": "/sRJjliXA7ZqHCr7HCK0ZB83xxjr.jpg", "genre_ids": [12, 28, 878], "id": 101299, "original_language": "en", "original_title": "The Hunger Games: Catching Fire", "overview": "Katniss Everdeen has returned home safe after winning the 74th Annual Hunger Games along with fellow tribute Peeta Mellark. Winning means that they must turn around and leave their family and close friends, embarking on a \"Victor's Tour\" of the districts. Along the way Katniss senses that a rebellion is simmering, but the Capitol is still very much in control as President Snow prepares the 75th Annual Hunger Games (The Quarter Quell) - a competition that could change Panem forever.", "poster_path": "/Hn0KgefVEp0GkdTexS6gfKTMfi.jpg", "release_date": "2013-11-15", "title": "The Hunger Games: Catching Fire", "video": false, "vote_average": 7.4, "vote_count": 12031, "popularity": 22.164}, {"id": 294254, "video": false, "vote_count": 6849, "vote_average": 6.6, "title": "Maze Runner: The Scorch Trials", "release_date": "2015-09-09", "original_language": "en", "original_title": "Maze Runner: The Scorch Trials", "genre_ids": [28, 878, 53], "backdrop_path": "/iapRFMGKvN9tsjqPlN7MIDTCezG.jpg", "adult": false, "overview": "Thomas and his fellow Gladers face their greatest challenge yet: searching for clues about the mysterious and powerful organization known as WCKD. Their journey takes them to the Scorch, a desolate landscape filled with unimaginable obstacles. Teaming up with resistance fighters, the Gladers take on WCKD\u2019s vastly superior forces and uncover its shocking plans for them all.", "poster_path": "/vlTPQANjLYTebzFJM1G4KeON0cb.jpg", "popularity": 28.283}, {"adult": false, "backdrop_path": "/bvbyidkMaBls1LTaIWYY6UmYTaL.jpg", "genre_ids": [28, 878], "id": 336843, "original_language": "en", "original_title": "Maze Runner: The Death Cure", "overview": "Thomas leads his group of escaped Gladers on their final and most dangerous mission yet. To save their friends, they must break into the legendary Last City, a WCKD-controlled labyrinth that may turn out to be the deadliest maze of all. Anyone who makes it out alive will get answers to the questions the Gladers have been asking since they first arrived in the maze.", "poster_path": "/2zYfzA3TBwrMC8tfFbpiTLODde0.jpg", "release_date": "2018-01-10", "title": "Maze Runner: The Death Cure", "video": false, "vote_average": 7.0, "vote_count": 4396, "popularity": 25.259}, {"adult": false, "backdrop_path": "/3mEfawlJnuu4OmUlAOesrAMsWv6.jpg", "genre_ids": [53, 27], "id": 9540, "original_language": "en", "original_title": "Dead Ringers", "overview": "Elliot, a successful gynecologist, works at the same practice as his identical twin, Beverly. Elliot is attracted to many of his patients and has affairs with them. When he inevitably loses interest, he will give the woman over to Beverly, the meeker of the two, without the woman knowing the difference. Beverly falls hard for one of the patients, Claire, but when she inadvertently deceives him, he slips into a state of madness.", "poster_path": "/9ZGBwiWIvN9KmHaLeSS5it44G21.jpg", "release_date": "1988-09-23", "title": "Dead Ringers", "video": false, "vote_average": 7.2, "vote_count": 388, "popularity": 10.111}, {"adult": false, "backdrop_path": "/tvTyRu9eKfymkje8d9VoWJEoyUv.jpg", "genre_ids": [18], "id": 53932, "original_language": "es", "original_title": "Las edades de Lul\u00fa", "overview": "Fifteen-year-old Lulu has never known any affection from her family. But when she goes to a rock concert with Pablo, a friend of the family, he introduces Lulu to her first sexual experience. Years later, Pablo and Lulu have married; Pablo has created a sheltered, private world for Lulu, into which nothing intrudes. However, Lulu tires of her cloistered existence, and begins hanging out in shady bars, looking for vicarious thrills and danger.", "poster_path": "/5PK5MAN84o0ESgzeW9euozOLIEe.jpg", "release_date": "1990-12-13", "title": "The Ages of Lulu", "video": false, "vote_average": 5.7, "vote_count": 64, "popularity": 24.141}, {"adult": false, "backdrop_path": "/kiWvoV78Cc3fUwkOHKzyBgVdrDD.jpg", "genre_ids": [37, 18, 12], "id": 281957, "original_language": "en", "original_title": "The Revenant", "overview": "In the 1820s, a frontiersman, Hugh Glass, sets out on a path of vengeance against those who left him for dead after a bear mauling.", "poster_path": "/oXUWEc5i3wYyFnL1Ycu8ppxxPvs.jpg", "release_date": "2015-12-25", "title": "The Revenant", "video": false, "vote_average": 7.5, "vote_count": 12127, "popularity": 24.135}, {"adult": false, "backdrop_path": "/mAXgaPxxUQg6U446yz8KPRYSUT.jpg", "genre_ids": [12, 18, 10751], "id": 44826, "original_language": "en", "original_title": "Hugo", "overview": "Orphaned and alone except for an uncle, Hugo Cabret lives in the walls of a train station in 1930s Paris. Hugo's job is to oil and maintain the station's clocks, but to him, his more important task is to protect a broken automaton and notebook left to him by his late father. Accompanied by the goddaughter of an embittered toy merchant, Hugo embarks on a quest to solve the mystery of the automaton and find a place he can call home.", "poster_path": "/rSmmVKeW3nsP86V2S6R7ePs4CFw.jpg", "release_date": "2011-11-22", "title": "Hugo", "video": false, "vote_average": 7.1, "vote_count": 4578, "popularity": 20.1}, {"adult": false, "backdrop_path": "/hm4vpIhBW75bTIDTurq2d4rLZy1.jpg", "genre_ids": [53, 18, 27], "id": 3511, "original_language": "en", "original_title": "The Broken", "overview": "The life of a successful radiologist spirals out of control when she sees the spitting image of herself driving down a London street. While attempting to uncover who the imposter could be, she stumbles into a terrifying mystery that her family and closest friends are somehow involved in, leaving her with no one to trust.", "poster_path": "/nGTUsccLUZhF9Bb5fjvL7KrogvC.jpg", "release_date": "2008-01-18", "title": "The Broken", "video": false, "vote_average": 5.5, "vote_count": 113, "popularity": 10.122}, {"id": 466282, "video": false, "vote_count": 5270, "vote_average": 7.9, "title": "To All the Boys I've Loved Before", "release_date": "2018-08-16", "original_language": "en", "original_title": "To All the Boys I've Loved Before", "genre_ids": [35, 10749], "backdrop_path": "/uZTtVdOEIwPA6vwVRI3217DoPM.jpg", "adult": false, "overview": "Lara Jean's love life goes from imaginary to out of control when her secret letters to every boy she's ever fallen for are mysteriously mailed out.", "poster_path": "/hKHZhUbIyUAjcSrqJThFGYIR6kI.jpg", "popularity": 35.427}, {"id": 2770, "video": false, "vote_count": 2941, "vote_average": 6.1, "title": "American Pie 2", "release_date": "2001-08-10", "original_language": "en", "original_title": "American Pie 2", "genre_ids": [35, 10749], "backdrop_path": "/1C1d3Tpesm8Vn3BRqsQZt0LfZcG.jpg", "adult": false, "overview": "The whole gang are back and as close as ever. They decide to get even closer by spending the summer together at a beach house. They decide to hold the biggest party ever to be seen, even if the preparation doesn't always go to plan. Especially when Stifler, Finch and Jim become more close to each other than they ever want to be and when Jim mistakes super glue for lubricant...", "poster_path": "/q4LNgUnRfltxzp3gf1MAGiK5LhV.jpg", "popularity": 20.359}, {"id": 84892, "video": false, "vote_count": 6553, "vote_average": 7.7, "title": "The Perks of Being a Wallflower", "release_date": "2012-09-20", "original_language": "en", "original_title": "The Perks of Being a Wallflower", "genre_ids": [18], "backdrop_path": "/uhLcaTPeBpUNgYhZXhDWkj7gMkp.jpg", "adult": false, "overview": "15-year-old freshman Charlie is a wallflower, always watching life from the sidelines, until two charismatic senior students become his mentors. Free-spirited Sam and her stepbrother Patrick help Charlie discover the joys of friendship, first love, music and more, while a teacher sparks Charlie's dreams of becoming a writer.", "poster_path": "/cyNQLnHnXZcTUDXVVSEYmquOTOI.jpg", "popularity": 19.486}, {"adult": false, "backdrop_path": "/2J283YNxKhxAqHeVegUJ5mzLfGb.jpg", "genre_ids": [80, 18, 9648], "id": 392044, "original_language": "en", "original_title": "Murder on the Orient Express", "overview": "Genius Belgian detective Hercule Poirot investigates the murder of an American tycoon aboard the Orient Express train.", "poster_path": "/iBlfxlw8qwtUS0R8YjIU7JtM6LM.jpg", "release_date": "2017-11-03", "title": "Murder on the Orient Express", "video": false, "vote_average": 6.7, "vote_count": 6050, "popularity": 27.701}, {"id": 181283, "video": false, "vote_count": 988, "vote_average": 6.2, "title": "Child 44", "release_date": "2015-03-15", "original_language": "en", "original_title": "Child 44", "genre_ids": [80, 53], "backdrop_path": "/A2WK7mdiKHaxgE4hRyKuDIM4KGg.jpg", "adult": false, "overview": "Set in Stalin-era Soviet Union, a disgraced MGB agent is dispatched to investigate a series of child murders -- a case that begins to connect with the very top of party leadership.", "poster_path": "/nzXwfnBcsmREzHlem6fkStN1RUH.jpg", "popularity": 17.414}, {"id": 75780, "video": false, "vote_count": 4451, "vote_average": 6.4, "title": "Jack Reacher", "release_date": "2012-12-20", "original_language": "en", "original_title": "Jack Reacher", "genre_ids": [28, 80, 18, 53], "backdrop_path": "/ezXodpP429qK0Av89pVNlaXWJkQ.jpg", "adult": false, "overview": "When a gunman takes five lives with six shots, all evidence points to the suspect in custody. On interrogation, the suspect offers up a single note: \"Get Jack Reacher!\" So begins an extraordinary chase for the truth, pitting Jack Reacher against an unexpected enemy, with a skill for violence and a secret to keep.", "poster_path": "/mt0ELw83HIRgaKaDzhsDcIi0RnW.jpg", "popularity": 15.945}, {"id": 454983, "video": false, "vote_count": 3909, "vote_average": 7.2, "title": "The Kissing Booth", "release_date": "2018-05-11", "original_language": "en", "original_title": "The Kissing Booth", "genre_ids": [35, 10749], "backdrop_path": "/xEKx7zPEjN6meomZ7OhV82Mm2jm.jpg", "adult": false, "overview": "When teenager Elle's first kiss leads to a forbidden romance with the hottest boy in high school, she risks her relationship with her best friend.", "poster_path": "/7Dktk2ST6aL8h9Oe5rpk903VLhx.jpg", "popularity": 28.208}, {"adult": false, "backdrop_path": "/98ahnrena4PwLth7HFYGLf9yssH.jpg", "genre_ids": [35, 18, 10749], "id": 22705, "original_language": "it", "original_title": "Tra(sgre)dire", "overview": "While scouting out apartments in London for her Venetian boyfriend, Carla rents an apartment that overlooks the Thames. There she meet the lesbian hyper-horny real estate agent Moira.", "poster_path": "/kZITrLEiTfzzJhtwtXhQUl3ImCQ.jpg", "release_date": "2000-01-28", "title": "Cheeky", "video": false, "vote_average": 5.7, "vote_count": 92, "popularity": 30.42}], "total_pages": 34, "total_results": 673}, "recommendations": {"page": 1, "results": [{"id": 68813, "video": false, "vote_count": 6, "vote_average": 7.0, "title": "I See Naked", "release_date": "1969-04-17", "original_language": "it", "original_title": "Vedo nudo", "genre_ids": [35], "backdrop_path": "/cxMrYHXm52m2YHqovBeSgUomLvp.jpg", "adult": false, "overview": "Seven sketches including the title sketch \"I See Naked\" in which a fashion editor begins to see naked women everywhere he goes.", "poster_path": "/rY7Wx2RDfurzZKSzsm8TQj8hvMr.jpg", "popularity": 2.563}, {"id": 540002, "video": false, "vote_count": 10, "vote_average": 6.5, "title": "Il bene mio", "release_date": "2018-09-14", "original_language": "it", "original_title": "Il bene mio", "genre_ids": [35, 18], "backdrop_path": "/OAwVnqVnfXDGHdPGDsQgv6mN6W.jpg", "adult": false, "overview": "", "poster_path": "/eBCMm1IOVSuqcPcXitHXK7ID1Uz.jpg", "popularity": 1.516}, {"adult": false, "backdrop_path": "/uB60CpOHMncIHtVjZfF5WTbzOYY.jpg", "genre_ids": [10749, 35], "id": 68882, "original_language": "it", "original_title": "Quelle strane occasioni", "overview": "Three sexy and comic episodes.", "poster_path": "/78kp4IDGYFM3bpgePNU9agZ8zvN.jpg", "release_date": "1976-12-23", "title": "Strange Occasion", "video": false, "vote_average": 5.8, "vote_count": 8, "popularity": 2.521}, {"adult": false, "backdrop_path": "/7IjHTQjNT5eKHsI68PUKGj523jD.jpg", "genre_ids": [35], "id": 56369, "original_language": "it", "original_title": "Straziami, ma di baci saziami", "overview": "The young hairdresser Marino meets charming Marisa - this is love at first sight. However, the bride's father is against their marriage. And this is not the only obstacle: it seems that the whole world has turned against them.", "poster_path": "/4g0Nx1ekn3rYz8DnKSRdBElNd9w.jpg", "release_date": "1968-10-04", "title": "Torture Me But Kill Me with Kisses", "video": false, "vote_average": 6.9, "vote_count": 24, "popularity": 2.271}, {"adult": false, "backdrop_path": "/p1nt62bZs6Y8uQrnzlkKbAb6Cw.jpg", "genre_ids": [], "id": 158275, "original_language": "it", "original_title": "Arrivano I Gatti", "overview": "", "poster_path": "/1l5sn32m0gZCJ9aEiS9HVbSnB8b.jpg", "release_date": "1980-02-13", "title": "Arrivano I Gatti", "video": false, "vote_average": 4.3, "vote_count": 8, "popularity": 1.584}, {"adult": false, "backdrop_path": "/ixqmh8hYlEgWlD09mDOS6vlXWgy.jpg", "genre_ids": [35, 18], "id": 48953, "original_language": "it", "original_title": "Tutti Dentro", "overview": "The incorruptible judge Annibale Salvemini, starts investigating over a classic Italian business/politics/corruption affair. He start to operate, as usual, very strongly. He orders numberless arrests. But the reaction of counterparts won't take long. In fact his strong energetic manners, drive him unintentionally on the opposite situation. Who is the real guilty the judge or the corrupted Italian society?", "poster_path": "/lUsZWQovrPSBn5R2rXdml7bG3Ji.jpg", "release_date": "1984-12-19", "title": "All for the Moral Majority!", "video": false, "vote_average": 5.5, "vote_count": 15, "popularity": 2.353}, {"adult": false, "backdrop_path": "/1NyIzhpIZapyzgYO3xInBf8rHJz.jpg", "genre_ids": [35], "id": 50188, "original_language": "it", "original_title": "Ecco noi per esempio...", "overview": "Poet Palmambrogio Guanziroli loses his wallet mere moments after arriving in Milan. He locates the culprit, a photographer nicknamed 'Click' and takes up residence with him until he either gets his money back or his poetry published.", "poster_path": "/g17GtEgH9Jh1kCE2scKelVou8PN.jpg", "release_date": "1977-10-28", "title": "Here We for Example...", "video": false, "vote_average": 5.4, "vote_count": 13, "popularity": 3.375}, {"id": 81803, "video": false, "vote_count": 9, "vote_average": 5.9, "title": "First Love", "release_date": "1978-11-10", "original_language": "it", "original_title": "Primo amore", "genre_ids": [18, 10749], "backdrop_path": "/jeAeCMkDqIoJTBKZN7usOmt6nbN.jpg", "adult": false, "overview": "Ugo is an old actor who feels too young to be in an \"old actor's house\". He just can't stand the rules of the other old people so he escapes with a young girl.", "poster_path": "/zYlWFer4c6qEEKtlKw8eKj5WvEG.jpg", "popularity": 1.474}, {"id": 50193, "video": false, "vote_count": 15, "vote_average": 5.3, "title": "Joan Lui", "release_date": "1985-12-25", "original_language": "it", "original_title": "Joan Lui - ma un giorno nel paese arrivo io di luned\u00ec", "genre_ids": [35, 18, 10402], "backdrop_path": "/sCf9ByGfY8qc1fxqTHjKyYCz16K.jpg", "adult": false, "overview": "In a world ravaged by violence, and other serious social problems, Joan - a character that alludes to Christ (which represents the return to Earth) arrives to Italy by train and preaching for the salvation of mankind, condemning the hypocrisy and hedonism.", "poster_path": "/jaBYvJNS2DSxhiPU1IXW7pTBpKx.jpg", "popularity": 1.712}, {"adult": false, "backdrop_path": "/ikJ3mvPtccYjzUwkgxQNi56JrPU.jpg", "genre_ids": [35], "id": 72894, "original_language": "it", "original_title": "Il comune senso del pudore", "overview": "A three novels about an ordinary people discovering erotic movies.", "poster_path": "/kx9ajkQEEHSLYhTEf5Z4wpxmLiA.jpg", "release_date": "1976-03-09", "title": "A Common Sense of Modesty", "video": false, "vote_average": 6.2, "vote_count": 13, "popularity": 2.398}, {"adult": false, "backdrop_path": "/xSt5mRs6gsAkDvPtXHxn2Gu56Zw.jpg", "genre_ids": [10749, 35, 10402], "id": 1589, "original_language": "en", "original_title": "The Boys from County Clare", "overview": "In Ireland in the mid 1960s, two feuding brothers and their respective Ceilidh bands compete at a music festival.", "poster_path": "/zHFYubK4XoG9L2rdWjNf4ODWvo8.jpg", "release_date": "2003-09-12", "title": "The Boys from County Clare", "video": false, "vote_average": 7.1, "vote_count": 8, "popularity": 5.252}, {"adult": false, "backdrop_path": "/kCHENOFBWX0LGgQfpKOTGlTToxk.jpg", "genre_ids": [35], "id": 71778, "original_language": "it", "original_title": "Il malato immaginario", "overview": "An eccentric recluse deals with his unfaithful wife, estranged daughter and doctor.", "poster_path": "/jwOcBOileQfTYhyKWRl0fBtFywA.jpg", "release_date": "1979-12-20", "title": "Hypochondriac", "video": false, "vote_average": 6.4, "vote_count": 19, "popularity": 1.971}, {"adult": false, "backdrop_path": "/wan23lBWpZRFqkoAYF3BD1IwmYc.jpg", "genre_ids": [35], "id": 68825, "original_language": "it", "original_title": "Io e Caterina", "overview": "Enrico has a troubled relationship with his wife, daughter and lover. For this reason he decide to download all of them and to dedicate himself to peace. In fact he has been attracted by the waiter-robot of a friend, and so Enrico asks him to sell it. The robot is called Catherine (Caterina) and serves Enrico to perfection, but he ends up falling in love with him, and so it equally happens to Catherine, who becomes infatuated with his master. Howeve, the different nature of the two prevents the relationship", "poster_path": "/5vXGicGIjFxFxpROurdZE9s8BxS.jpg", "release_date": "1980-12-19", "title": "Catherine and I", "video": false, "vote_average": 5.6, "vote_count": 15, "popularity": 2.304}], "total_pages": 1, "total_results": 13}, "credits": {"cast": [{"cast_id": 4, "character": "Orimbelli", "credit_id": "52fe469ac3a368484e099a93", "gender": 2, "id": 32312, "name": "Ugo Tognazzi", "order": 0, "profile_path": "/3CKdR5x869QViYxjv4tp92JcfHT.jpg"}, {"cast_id": 5, "character": "Marco Maffei", "credit_id": "52fe469ac3a368484e099a97", "gender": 2, "id": 34581, "name": "Patrick Dewaere", "order": 1, "profile_path": "/ytZv7q55p8FgWAi3HgtqDwgc20E.jpg"}, {"cast_id": 6, "character": "Matilde", "credit_id": "52fe469ac3a368484e099a9b", "gender": 1, "id": 27163, "name": "Ornella Muti", "order": 2, "profile_path": "/a6shpjgLMJdRhMRpLviH6poKxmI.jpg"}, {"cast_id": 7, "character": "Landina", "credit_id": "52fe469ac3a368484e099a9f", "gender": 0, "id": 1089658, "name": "Lia Tanzi", "order": 3, "profile_path": "/6hqTBk7MO420gzTNTcEo8Omjc1x.jpg"}, {"cast_id": 8, "character": "Cleofe", "credit_id": "52fe469ac3a368484e099aa3", "gender": 0, "id": 50746, "name": "Gabriella Giacobbe", "order": 4, "profile_path": "/ypUbpHDXWl8eWgMLFBTR3FcuA6B.jpg"}, {"cast_id": 9, "character": "Charlotte", "credit_id": "52fe469ac3a368484e099aa7", "gender": 1, "id": 32094, "name": "Katia Tchenko", "order": 5, "profile_path": "/xIDwaKza9Y7cN7oy04d7VK7iE0x.jpg"}, {"cast_id": 10, "character": "Germaine", "credit_id": "52fe469ac3a368484e099aab", "gender": 0, "id": 568141, "name": "Karina Verlier", "order": 6, "profile_path": null}, {"cast_id": 11, "character": "Angelo", "credit_id": "52fe469ac3a368484e099aaf", "gender": 0, "id": 1108106, "name": "Marcello Turilli", "order": 7, "profile_path": null}, {"cast_id": 12, "character": "Mazzoleni - the Examining Magistrate", "credit_id": "552409cac3a368333a007031", "gender": 0, "id": 1451070, "name": "Franco Sangermano", "order": 8, "profile_path": null}, {"cast_id": 13, "character": "Brighenti", "credit_id": "552409ea9251416d4a004bda", "gender": 0, "id": 129619, "name": "Piero Mazzarella", "order": 9, "profile_path": "/241gGzyLyZ0ySD1SlYgsXWycXl9.jpg"}, {"cast_id": 14, "character": "Warrant Officer Gambino", "credit_id": "55240a03c3a3684dda009aff", "gender": 0, "id": 144617, "name": "Renzo Ozzano", "order": 10, "profile_path": "/oYvPrWOoHFd1dGYbd509zm3Wp2b.jpg"}, {"cast_id": 15, "character": "Martina", "credit_id": "55240a1cc3a368333a007037", "gender": 0, "id": 1451071, "name": "Francesca Juvara", "order": 11, "profile_path": null}, {"cast_id": 16, "character": "", "credit_id": "55240a2bc3a36847c80030d2", "gender": 0, "id": 1451072, "name": "Giuseppe Brugnarolo", "order": 12, "profile_path": null}], "crew": [{"credit_id": "52fe469ac3a368484e099a83", "department": "Directing", "gender": 0, "id": 57641, "job": "Director", "name": "Dino Risi", "profile_path": "/fjb97ThOAJ6ZTJZaV3ZZMLWbmdF.jpg"}, {"credit_id": "52fe469ac3a368484e099a89", "department": "Writing", "gender": 0, "id": 4664, "job": "Screenplay", "name": "Leonardo Benvenuti", "profile_path": null}, {"credit_id": "52fe469ac3a368484e099a8f", "department": "Writing", "gender": 0, "id": 236449, "job": "Novel", "name": "Piero Chiara", "profile_path": null}, {"credit_id": "55240a5492514171cb00689b", "department": "Production", "gender": 0, "id": 55759, "job": "Producer", "name": "Giovanni Bertolucci", "profile_path": null}, {"credit_id": "55240a729251417096006907", "department": "Production", "gender": 0, "id": 1438865, "job": "Executive Producer", "name": "Enrico Lucherini", "profile_path": null}, {"credit_id": "55240a89c3a3684dc1008f75", "department": "Sound", "gender": 2, "id": 30634, "job": "Music", "name": "Armando Trovaioli", "profile_path": "/b4lJkDOR1K63eireNVixZh3rUY4.jpg"}, {"credit_id": "55240aa592514166c1003226", "department": "Crew", "gender": 0, "id": 66641, "job": "Cinematography", "name": "Franco Di Giacomo", "profile_path": null}, {"credit_id": "55240ac2c3a3680bb600311d", "department": "Editing", "gender": 0, "id": 25824, "job": "Editor", "name": "Alberto Gallitti", "profile_path": null}, {"credit_id": "55240ae19251417be2008424", "department": "Art", "gender": 2, "id": 95237, "job": "Production Design", "name": "Luigi Scaccianoce", "profile_path": null}, {"credit_id": "55240afec3a36828d1006b95", "department": "Art", "gender": 0, "id": 23956, "job": "Art Direction", "name": "Paolo Biagetti", "profile_path": null}]}}