{"adult": false, "backdrop_path": "/duGvXeZ2bu52cz6o1U5Sm7Wiw7m.jpg", "belongs_to_collection": null, "budget": 0, "genres": [{"id": 80, "name": "Crime"}, {"id": 9648, "name": "Mystery"}, {"id": 53, "name": "Thriller"}], "homepage": null, "id": 63112, "imdb_id": "tt0074451", "original_language": "it", "original_title": "...e tanta paura", "overview": "Plot of Fear tells the story of a decadent weekend party full of orgies and drugs on the outskirts of Milan. After two deaths occur Inspector Lomenzo (Michele Placido) interrogates one of the guests, a fashion model (Corninne Clery) who becomes his informant, as well as his lover. Clery reveals that after a \u201cwildlife orgy\u201done of the hosts tried to jokingly feed one of the prostitutes to a tiger but she got so frightened that she died of heart attack. In his attempt to find a connection between the victims, he investigates a cutting-edge security and surveillance firm whose director (Eli Wallach) has secrets of his own to hide.", "popularity": 2.317, "poster_path": "/2CwwhpJB8evfLVDsH4cXTdXylkZ.jpg", "production_companies": [{"id": 20598, "logo_path": null, "name": "Centro Produzioni Cinematografiche Citt\u00e0 di Milano", "origin_country": ""}, {"id": 20599, "logo_path": null, "name": "G.P.E. Enterprises", "origin_country": ""}], "production_countries": [{"iso_3166_1": "IT", "name": "Italy"}], "release_date": "1976-01-01", "revenue": 0, "runtime": 98, "spoken_languages": [{"iso_639_1": "cs", "name": "\u010cesk\u00fd"}, {"iso_639_1": "en", "name": "English"}, {"iso_639_1": "it", "name": "Italiano"}], "status": "Released", "tagline": "", "title": "Plot of Fear", "video": false, "vote_average": 6.1, "vote_count": 7, "keywords": {"keywords": [{"id": 7098, "name": "sexual murder"}, {"id": 10975, "name": "high tech surveillance"}, {"id": 12570, "name": "whodunit"}, {"id": 184297, "name": "mystery killer"}, {"id": 217311, "name": "sex party"}]}, "similar": {"page": 1, "results": [{"adult": false, "backdrop_path": "/2J283YNxKhxAqHeVegUJ5mzLfGb.jpg", "genre_ids": [80, 18, 9648], "id": 392044, "original_language": "en", "original_title": "Murder on the Orient Express", "overview": "Genius Belgian detective Hercule Poirot investigates the murder of an American tycoon aboard the Orient Express train.", "poster_path": "/iBlfxlw8qwtUS0R8YjIU7JtM6LM.jpg", "release_date": "2017-11-03", "title": "Murder on the Orient Express", "video": false, "vote_average": 6.7, "vote_count": 6044, "popularity": 24.868}, {"id": 4886, "video": false, "vote_count": 123, "vote_average": 6.9, "title": "And Then There Were None", "release_date": "1945-10-31", "original_language": "en", "original_title": "And Then There Were None", "genre_ids": [80, 18, 9648], "backdrop_path": "/dZltsJXhmck8KquhCVenRu5sHLx.jpg", "adult": false, "overview": "Ten strangers are summoned to a remote island and while they are waiting for the mysterious host to appear, a recording levels serious accusations at each of the guests. Soon they start being murdered, one by one. As the survivors try to keep their wits, they reach a disturbing conclusion: one of them must be the killer.", "poster_path": "/jWmloybJyoQsMXPatbGKcur4Pho.jpg", "popularity": 8.744}, {"id": 28055, "video": false, "vote_count": 131, "vote_average": 7.4, "title": "Blood and Black Lace", "release_date": "1964-04-10", "original_language": "it", "original_title": "Sei donne per l'assassino", "genre_ids": [27, 9648, 53], "backdrop_path": "/cda6qlzxf3MjICuonQvS9Tf5WQa.jpg", "adult": false, "overview": "Inspector Sylvester is assigned to investigate the violent murder of a fashion house model Isabella, by a masked assailant. As the investigation proceeds all of the house\u2019s various sins, including corruption, abortions, blackmail and drug addiction, begin to come to light. It turns out that Isabella had kept a diary detailing these vices, and now almost every employee becomes nervous.", "poster_path": "/2a209qWhEaDt0WxzaUjZOJejnvU.jpg", "popularity": 7.481}, {"adult": false, "backdrop_path": "/h45LDCoPWmFMTTb7taGhOPBIGKJ.jpg", "genre_ids": [878, 53], "id": 476926, "original_language": "en", "original_title": "The Titan", "overview": "On a bleak future Earth, a soldier endures a radical genetic transformation to save humanity. But his wife fears he's becoming more creature than man.", "poster_path": "/qRmQazyIBZR4pQIk9VruiZul0Au.jpg", "release_date": "2018-03-30", "title": "The Titan", "video": false, "vote_average": 5.3, "vote_count": 734, "popularity": 10.537}, {"adult": false, "backdrop_path": "/8nvayG5l0urcjvvpszoECDqLWzD.jpg", "genre_ids": [18, 53, 80, 9648], "id": 186, "original_language": "en", "original_title": "Lucky Number Slevin", "overview": "Slevin is mistakenly put in the middle of a personal war between the city\u2019s biggest criminal bosses. Under constant watch, Slevin must try not to get killed by an infamous assassin and come up with an idea of how to get out of his current dilemma. A film with many twists and turns.", "poster_path": "/jtKq0EtothAzWlnRBBWGCA8uFuu.jpg", "release_date": "2006-02-24", "title": "Lucky Number Slevin", "video": false, "vote_average": 7.5, "vote_count": 2480, "popularity": 14.28}, {"id": 260346, "video": false, "vote_count": 3700, "vote_average": 6.2, "title": "Taken 3", "release_date": "2014-12-16", "original_language": "en", "original_title": "Taken 3", "genre_ids": [28, 53], "backdrop_path": "/cU6R5EgOEmiIVKommjnU89hsvcD.jpg", "adult": false, "overview": "Ex-government operative Bryan Mills finds his life is shattered when he's falsely accused of a murder that hits close to home. As he's pursued by a savvy police inspector, Mills employs his particular set of skills to track the real killer and exact his unique brand of justice.", "poster_path": "/ikDwR3i2bczqnRf1urJTy77YTFf.jpg", "popularity": 36.883}, {"adult": false, "backdrop_path": "/rSf0RYkPiMo9TyjHs2vI8rHlmfF.jpg", "genre_ids": [28, 18, 53], "id": 241554, "original_language": "en", "original_title": "Run All Night", "overview": "Brooklyn mobster and prolific hit man Jimmy Conlon has seen better days. Longtime best friend of a mob boss, Jimmy is haunted by the sins of his past\u2014as well as a dogged police detective who\u2019s been one step behind Jimmy for 30 years. But when Jimmy\u2019s estranged son becomes a target, Jimmy must make a choice between the crime family he chose and the real family he abandoned long ago. Now, with nowhere safe to turn, Jimmy has just one night to figure out exactly where his loyalties lie and to see if he can finally make things right.", "poster_path": "/aqNJrAxudMRNo8jg3HOUQqdl2xr.jpg", "release_date": "2015-03-11", "title": "Run All Night", "video": false, "vote_average": 6.4, "vote_count": 1820, "popularity": 30.086}, {"id": 1949, "video": false, "vote_count": 5165, "vote_average": 7.5, "title": "Zodiac", "release_date": "2007-03-02", "original_language": "en", "original_title": "Zodiac", "genre_ids": [80, 18, 9648, 53], "backdrop_path": "/jP2htGBHE7vKq4MLeC75UeC0sZH.jpg", "adult": false, "overview": "The true story of the investigation of the \"Zodiac Killer\", a serial killer who terrified the San Francisco Bay Area, taunting police with his ciphers and letters. The case becomes an obsession for three men as their lives and careers are built and destroyed by the endless trail of clues.", "poster_path": "/bgLyOROfFQI3FqYL7jQbiaV8lkN.jpg", "popularity": 24.455}, {"adult": false, "backdrop_path": "/arcpWGGnUkGkakOwZo7xfPsaz7h.jpg", "genre_ids": [9648, 53], "id": 2832, "original_language": "en", "original_title": "Identity", "overview": "Complete strangers stranded at a remote desert motel during a raging storm soon find themselves the target of a deranged murderer. As their numbers thin out, the travelers begin to turn on each other, as each tries to figure out who the killer is.", "poster_path": "/xSNSp2wmCUwFavxdkMF417hBc39.jpg", "release_date": "2003-04-25", "title": "Identity", "video": false, "vote_average": 7.2, "vote_count": 2091, "popularity": 19.629}, {"adult": false, "backdrop_path": "/jQR6de9dwOjvx91wC4tqpTlMqCD.jpg", "genre_ids": [53, 80, 18], "id": 109421, "original_language": "en", "original_title": "Side Effects", "overview": "A woman turns to prescription medication as a way of handling her anxiety concerning her husband's upcoming release from prison.", "poster_path": "/ttD69Yhh2BV1WVqr27NRbF8ubOW.jpg", "release_date": "2013-02-07", "title": "Side Effects", "video": false, "vote_average": 6.5, "vote_count": 2035, "popularity": 11.74}, {"adult": false, "backdrop_path": "/7RRuRcGuWkZGuRyYugfXn0Fgrrr.jpg", "genre_ids": [28, 80, 18, 53], "id": 949, "original_language": "en", "original_title": "Heat", "overview": "Obsessive master thief, Neil McCauley leads a top-notch crew on various daring heists throughout Los Angeles while determined detective, Vincent Hanna pursues him without rest. Each man recognizes and respects the ability and the dedication of the other even though they are aware their cat-and-mouse game may end in violence.", "poster_path": "/6pmLVffM9jEYK7VqDJqPblMxfEY.jpg", "release_date": "1995-12-15", "title": "Heat", "video": false, "vote_average": 7.8, "vote_count": 3615, "popularity": 21.973}, {"adult": false, "backdrop_path": "/hm4vpIhBW75bTIDTurq2d4rLZy1.jpg", "genre_ids": [53, 18, 27], "id": 3511, "original_language": "en", "original_title": "The Broken", "overview": "The life of a successful radiologist spirals out of control when she sees the spitting image of herself driving down a London street. While attempting to uncover who the imposter could be, she stumbles into a terrifying mystery that her family and closest friends are somehow involved in, leaving her with no one to trust.", "poster_path": "/nGTUsccLUZhF9Bb5fjvL7KrogvC.jpg", "release_date": "2008-01-18", "title": "The Broken", "video": false, "vote_average": 5.5, "vote_count": 113, "popularity": 10.122}, {"id": 311, "video": false, "vote_count": 2595, "vote_average": 8.4, "title": "Once Upon a Time in America", "release_date": "1984-05-23", "original_language": "en", "original_title": "Once Upon a Time in America", "genre_ids": [80, 18], "backdrop_path": "/vnT6HzjLSDrAweHn9xWykb8Ii6T.jpg", "adult": false, "overview": "A former Prohibition-era Jewish gangster returns to the Lower East Side of Manhattan over thirty years later, where he once again must confront the ghosts and regrets of his old life.", "poster_path": "/x733R4ISI0RbKeHhVkXdTMFmTFr.jpg", "popularity": 22.233}, {"adult": false, "backdrop_path": "/4L1MSZo8dQ20x4AhBDKfDs1cOjs.jpg", "genre_ids": [27, 53], "id": 9728, "original_language": "en", "original_title": "Friday the 13th Part III", "overview": "An idyllic summer turns into a nightmare of unspeakable terror for yet another group of naive counselors. Ignoring Camp Crystal Lake's bloody legacy, one by one they fall victim to the maniacal Jason who stalks them at every turn.", "poster_path": "/5wg2NZyIhcMbIBAahBODXHyJ54S.jpg", "release_date": "1982-08-13", "title": "Friday the 13th Part III", "video": false, "vote_average": 5.8, "vote_count": 634, "popularity": 15.501}, {"adult": false, "backdrop_path": "/zfs9QuKkZL6ZCluGvjo5Pk49aMv.jpg", "genre_ids": [27, 9648, 53], "id": 16938, "original_language": "en", "original_title": "Black Christmas", "overview": "A sorority house is terrorized by a stranger who makes frightening phone calls and then murders the sorority sisters during Christmas break.", "poster_path": "/qqO98sdPgptFgCua3Z4uZDuPcmP.jpg", "release_date": "1974-10-11", "title": "Black Christmas", "video": false, "vote_average": 6.9, "vote_count": 307, "popularity": 10.097}, {"id": 4638, "video": false, "vote_count": 4429, "vote_average": 7.5, "title": "Hot Fuzz", "release_date": "2007-02-14", "original_language": "en", "original_title": "Hot Fuzz", "genre_ids": [28, 35, 80], "backdrop_path": "/zuskekrfW3gj9ttXNVhfdHe5n22.jpg", "adult": false, "overview": "As a former London constable, Nicholas Angel finds it difficult to adapt to his new assignment in the sleepy British village of Sandford. Not only does he miss the excitement of the big city, but he also has a well-meaning oaf for a partner. However, when a series of grisly accidents rocks Sandford, Angel smells something rotten in the idyllic village.", "poster_path": "/5Jx6s6VXnunh8wCLgR0YgjwSgjh.jpg", "popularity": 22.387}, {"id": 245891, "video": false, "vote_count": 11528, "vote_average": 7.2, "title": "John Wick", "release_date": "2014-10-22", "original_language": "en", "original_title": "John Wick", "genre_ids": [28, 53], "backdrop_path": "/iJlGxN0p1suzloBGvvBu3QSSlhT.jpg", "adult": false, "overview": "Ex-hitman John Wick comes out of retirement to track down the gangsters that took everything from him.", "poster_path": "/5vHssUeVe25bMrof1HyaPyWgaP.jpg", "popularity": 71.02}, {"adult": false, "backdrop_path": "/zWGAnbxjjwY3xFGuOeR26LGbBlG.jpg", "genre_ids": [27, 53], "id": 238636, "original_language": "en", "original_title": "The Purge: Anarchy", "overview": "One night per year, the government sanctions a 12-hour period in which citizens can commit any crime they wish -- including murder -- without fear of punishment or imprisonment. Leo, a sergeant who lost his son, plans a vigilante mission of revenge during the mayhem. However, instead of a death-dealing avenger, he becomes the unexpected protector of four innocent strangers who desperately need his help if they are to survive the night.", "poster_path": "/l1DRl40x2OWUoPP42v8fjKdS1Z3.jpg", "release_date": "2014-07-17", "title": "The Purge: Anarchy", "video": false, "vote_average": 6.6, "vote_count": 4141, "popularity": 32.533}, {"id": 273481, "video": false, "vote_count": 4907, "vote_average": 7.3, "title": "Sicario", "release_date": "2015-09-17", "original_language": "en", "original_title": "Sicario", "genre_ids": [28, 80, 53], "backdrop_path": "/zAHozevwbbsB2epEVpCkzqVccWW.jpg", "adult": false, "overview": "An idealistic FBI agent is enlisted by a government task force to aid in the escalating war against drugs at the border area between the U.S. and Mexico.", "poster_path": "/p2SdfGmQRaw8xhFbexlHL7srMM8.jpg", "popularity": 29.022}, {"id": 956, "video": false, "vote_count": 3963, "vote_average": 6.6, "title": "Mission: Impossible III", "release_date": "2006-05-03", "original_language": "en", "original_title": "Mission: Impossible III", "genre_ids": [28, 12, 53], "backdrop_path": "/kOELgNnVt6EGCjtDXx85YUw6p8X.jpg", "adult": false, "overview": "Retired from active duty to train new IMF agents, Ethan Hunt is called back into action to confront sadistic arms dealer, Owen Davian. Hunt must try to protect his girlfriend while working with his new team to complete the mission.", "poster_path": "/qjy8ABAbWooV4jLG6UjzDHlv4RB.jpg", "popularity": 27.756}], "total_pages": 185, "total_results": 3683}, "recommendations": {"page": 1, "results": [], "total_pages": 1, "total_results": 0}, "credits": {"cast": [{"cast_id": 4, "character": "Jeanne", "credit_id": "52fe469cc3a368484e09a2f5", "gender": 1, "id": 10476, "name": "Corinne Cl\u00e9ry", "order": 0, "profile_path": "/oNkBqfWJ3oVxNU0DswS3iBXwXx7.jpg"}, {"cast_id": 5, "character": "Inspector Gaspare Lomenzo", "credit_id": "52fe469cc3a368484e09a2f9", "gender": 2, "id": 25819, "name": "Michele Placido", "order": 1, "profile_path": "/j8krw9CE6VYP9BSiS86lQPMb8DM.jpg"}, {"cast_id": 8, "character": "Angelo Scanavini", "credit_id": "52fe469cc3a368484e09a305", "gender": 2, "id": 236519, "name": "Quinto Parmeggiani", "order": 2, "profile_path": "/9vXnxfKmMSwW6F1zCj6tCibYddA.jpg"}, {"cast_id": 16, "character": "Fulvio Colaianni", "credit_id": "58aac03d92514141a0001a16", "gender": 0, "id": 1330867, "name": "Edoardo Faieta", "order": 3, "profile_path": null}, {"cast_id": 6, "character": "Hoffmann", "credit_id": "52fe469cc3a368484e09a2fd", "gender": 2, "id": 26700, "name": "John Steiner", "order": 4, "profile_path": "/9F6hrAh4EBD05CQSPRvFMEYIZPb.jpg"}, {"cast_id": 17, "character": "Pandolfi", "credit_id": "58aac056925141418a001a5d", "gender": 2, "id": 6784, "name": "Jacques Herlin", "order": 5, "profile_path": "/ztGRlFmz3GEIWpNb9uIX7TtAiFF.jpg"}, {"cast_id": 18, "character": "Woman at Villa Hoffmann", "credit_id": "58aac062c3a3686f0f001a8f", "gender": 0, "id": 1184388, "name": "Cecilia Polizzi", "order": 6, "profile_path": "/gfk4jziWnP6TbseRR4A5bYSThKw.jpg"}, {"cast_id": 19, "character": "Laura Falconieri", "credit_id": "58aac073c3a3686ef10018bc", "gender": 1, "id": 1183180, "name": "Greta Vayan", "order": 7, "profile_path": "/5qIPnpagsal6UMudMmlpeWZfVOg.jpg"}, {"cast_id": 20, "character": "Rosa Catena", "credit_id": "58aac082c3a3686f1a001915", "gender": 0, "id": 1287841, "name": "Sarah Crespi", "order": 8, "profile_path": null}, {"cast_id": 21, "character": "Lomenzo's Assistant", "credit_id": "58aac08cc3a3686ee9001749", "gender": 0, "id": 120189, "name": "Enrico Oldoini", "order": 9, "profile_path": "/14A2Xr4SbJiSYK7czDtCTucxMZ4.jpg"}, {"cast_id": 9, "character": "Chief Inspector", "credit_id": "52fe469cc3a368484e09a309", "gender": 2, "id": 4139, "name": "Tom Skerritt", "order": 10, "profile_path": "/m4KNYlzzV5PCpOqBU5x9ydab0aR.jpg"}, {"cast_id": 7, "character": "Peter Struwwel", "credit_id": "52fe469cc3a368484e09a301", "gender": 2, "id": 3265, "name": "Eli Wallach", "order": 11, "profile_path": "/cjOzKNXOrwc8ZgGWmJEM8A3HZ19.jpg"}, {"cast_id": 22, "character": "", "credit_id": "58aac0b192514141c600196e", "gender": 0, "id": 1123153, "name": "Giorgio Gargiullo", "order": 12, "profile_path": null}, {"cast_id": 23, "character": "", "credit_id": "58aac0b8c3a3686efe0019a7", "gender": 0, "id": 1368440, "name": "Eleonora Vivaldi", "order": 13, "profile_path": null}, {"cast_id": 24, "character": "", "credit_id": "58aac0be9251414190001a20", "gender": 0, "id": 25801, "name": "Guidarino Guidi", "order": 14, "profile_path": null}, {"cast_id": 25, "character": "Client with unfaithful wife", "credit_id": "58aac0ccc3a3686f1a001945", "gender": 2, "id": 122022, "name": "Enzo Robutti", "order": 15, "profile_path": "/e5YOH2MwKCXml0S1p3jaryge85o.jpg"}, {"cast_id": 26, "character": "Ruth", "credit_id": "58aac0d5c3a3686f1a001949", "gender": 0, "id": 1761794, "name": "Mary Ruth League", "order": 16, "profile_path": null}, {"cast_id": 27, "character": "", "credit_id": "58aac0db9251414195001af5", "gender": 0, "id": 1446455, "name": "Susanna Radaelli", "order": 17, "profile_path": null}, {"cast_id": 28, "character": "", "credit_id": "58aac0e5c3a3686efe0019be", "gender": 0, "id": 1761795, "name": "Daniela Grassini", "order": 18, "profile_path": null}, {"cast_id": 29, "character": "", "credit_id": "58aac0eb92514141ac001ae9", "gender": 0, "id": 1761796, "name": "Bianca Toso", "order": 19, "profile_path": null}, {"cast_id": 30, "character": "Agostino Farundi", "credit_id": "58aac0f7c3a3686ef10018f8", "gender": 0, "id": 1089890, "name": "Claudio Zucchet", "order": 20, "profile_path": "/xTKN6Q2LqqBLLzNQOGOIvfBOmUa.jpg"}, {"cast_id": 31, "character": "", "credit_id": "58aac0fd925141418a001abc", "gender": 0, "id": 1761797, "name": "Mirella Giraldi", "order": 21, "profile_path": null}, {"cast_id": 32, "character": "", "credit_id": "58aac103c3a3686f0f001af2", "gender": 0, "id": 1761798, "name": "Maria Rosa La Fauci", "order": 22, "profile_path": null}, {"cast_id": 33, "character": "Angelo Scanavini's mother", "credit_id": "58aac10dc3a3686ee900178f", "gender": 1, "id": 1108286, "name": "Maria Tedeschi", "order": 23, "profile_path": "/6e5xuLKh4H5AqqxfLWtKVI1A8P6.jpg"}, {"cast_id": 34, "character": "Mario Lombardozzi", "credit_id": "58aac11ac3a3686f0f001b02", "gender": 0, "id": 1704208, "name": "Mario Mercalli", "order": 24, "profile_path": null}, {"cast_id": 35, "character": "", "credit_id": "58aac120c3a3686ef1001914", "gender": 0, "id": 1761799, "name": "Giuseppe Rodolfo Dal Pra", "order": 25, "profile_path": null}, {"cast_id": 36, "character": "Colaianni's Employee (uncredited)", "credit_id": "58aac12fc3a3686ed9001b34", "gender": 2, "id": 120027, "name": "Ennio Antonelli", "order": 26, "profile_path": "/pdNFyTykA9Bt25Z0W59GkzxqwTL.jpg"}, {"cast_id": 37, "character": "Private Eye (uncredited)", "credit_id": "58aac13ac3a3686e8c001b0f", "gender": 0, "id": 1759222, "name": "Marcello Meconizzi", "order": 27, "profile_path": null}, {"cast_id": 38, "character": "Policeman (uncredited)", "credit_id": "58aac14492514141ac001b1b", "gender": 0, "id": 1710176, "name": "Tino Polenghi", "order": 28, "profile_path": null}], "crew": [{"credit_id": "58aac3a79251414195001c8d", "department": "Camera", "gender": 2, "id": 24287, "job": "Camera Operator", "name": "Giuseppe Lanci", "profile_path": null}, {"credit_id": "531779d39251417b0a00010b", "department": "Sound", "gender": 0, "id": 31543, "job": "Music", "name": "Daniele Patucchi", "profile_path": null}, {"credit_id": "531779f29251417aca0000e4", "department": "Editing", "gender": 2, "id": 32310, "job": "Editor", "name": "Sergio Montanari", "profile_path": null}, {"credit_id": "53177a039251417b00000102", "department": "Art", "gender": 0, "id": 32350, "job": "Production Design", "name": "Franco Fumagalli", "profile_path": null}, {"credit_id": "531779e39251417ac10000fe", "department": "Crew", "gender": 0, "id": 66641, "job": "Cinematography", "name": "Franco Di Giacomo", "profile_path": null}, {"credit_id": "531779bd9251417b200000d8", "department": "Writing", "gender": 2, "id": 67884, "job": "Writer", "name": "Bernardino Zapponi", "profile_path": null}, {"credit_id": "58aac3b5c3a3686f0f001c58", "department": "Camera", "gender": 0, "id": 68453, "job": "Camera Supervisor", "name": "Gianfranco Transunto", "profile_path": null}, {"credit_id": "52fe469cc3a368484e09a2e5", "department": "Directing", "gender": 2, "id": 100336, "job": "Director", "name": "Paolo Cavara", "profile_path": null}, {"credit_id": "52fe469cc3a368484e09a2eb", "department": "Writing", "gender": 2, "id": 100336, "job": "Story", "name": "Paolo Cavara", "profile_path": null}, {"credit_id": "52fe469cc3a368484e09a2f1", "department": "Writing", "gender": 0, "id": 120189, "job": "Screenplay", "name": "Enrico Oldoini", "profile_path": "/14A2Xr4SbJiSYK7czDtCTucxMZ4.jpg"}, {"credit_id": "58aac357c3a3686eab001b69", "department": "Crew", "gender": 2, "id": 556761, "job": "Stunts", "name": "Sergio Testori", "profile_path": "/qEpm0mRHvAVVYHcPzK3pUwQEqre.jpg"}, {"credit_id": "58aac24a92514141e2001a7d", "department": "Production", "gender": 2, "id": 961284, "job": "Producer", "name": "Guy Luongo", "profile_path": null}, {"credit_id": "58aac2cac3a3686ef1001a16", "department": "Costume & Make-Up", "gender": 0, "id": 1001014, "job": "Makeup Artist", "name": "Otello Sisi", "profile_path": null}, {"credit_id": "58aac345c3a3686ef1001a67", "department": "Sound", "gender": 0, "id": 1082658, "job": "Sound", "name": "Pietro Spadoni", "profile_path": null}, {"credit_id": "58aac2fac3a3686ef1001a3c", "department": "Directing", "gender": 0, "id": 1353995, "job": "Assistant Director", "name": "Roberto Palmerini", "profile_path": null}, {"credit_id": "58aac3e0c3a3686ef1001ab9", "department": "Editing", "gender": 0, "id": 1471334, "job": "Assistant Editor", "name": "Bruno Sarandrea", "profile_path": null}, {"credit_id": "58aac23e92514141ac001ba3", "department": "Production", "gender": 0, "id": 1495137, "job": "Producer", "name": "Ermanno Curti", "profile_path": null}, {"credit_id": "58aac2e2c3a3686eab001b2e", "department": "Production", "gender": 0, "id": 1586015, "job": "Production Manager", "name": "Roberto Cocco", "profile_path": null}, {"credit_id": "58aac2d692514141ac001c02", "department": "Production", "gender": 0, "id": 1591175, "job": "Unit Manager", "name": "Piero Amati", "profile_path": null}, {"credit_id": "58aac2aac3a3686e8c001bd6", "department": "Costume & Make-Up", "gender": 0, "id": 1606261, "job": "Costume Design", "name": "Marisa Crimi", "profile_path": null}, {"credit_id": "58aac388c3a3686f0f001c47", "department": "Camera", "gender": 0, "id": 1659253, "job": "Camera Supervisor", "name": "Enrico Fontana", "profile_path": null}, {"credit_id": "58aac32992514141a0001ba8", "department": "Sound", "gender": 0, "id": 1707530, "job": "Sound Mixer", "name": "Danilo Moroni", "profile_path": null}, {"credit_id": "58aac402c3a3686e8c001c85", "department": "Production", "gender": 0, "id": 1709071, "job": "Production Office Coordinator", "name": "Giancarlo Funaro", "profile_path": null}, {"credit_id": "58aac2b392514141c6001a81", "department": "Costume & Make-Up", "gender": 0, "id": 1713105, "job": "Hairstylist", "name": "Iolanda Conti", "profile_path": null}, {"credit_id": "58aac339c3a3686efe001aff", "department": "Sound", "gender": 0, "id": 1739238, "job": "Boom Operator", "name": "Angelo Spadoni", "profile_path": null}, {"credit_id": "58aac3609251414190001b9c", "department": "Camera", "gender": 2, "id": 1758925, "job": "Still Photographer", "name": "Divo Cavicchioli", "profile_path": null}, {"credit_id": "58aac257c3a3686eab001ada", "department": "Production", "gender": 0, "id": 1761800, "job": "Producer", "name": "Rodolfo Puttignani", "profile_path": null}, {"credit_id": "58aac2a0c3a3686e8c001bd0", "department": "Art", "gender": 0, "id": 1761801, "job": "Art Direction", "name": "Tommaso Barbi", "profile_path": null}, {"credit_id": "58aac2c19251414195001c1f", "department": "Costume & Make-Up", "gender": 0, "id": 1761802, "job": "Makeup Artist", "name": "Alfio Meniconi", "profile_path": null}, {"credit_id": "58aac2edc3a3686e8c001bf2", "department": "Production", "gender": 0, "id": 1761803, "job": "Production Supervisor", "name": "Pierluigi Ottina", "profile_path": null}, {"credit_id": "58aac31c92514141c6001ace", "department": "Crew", "gender": 0, "id": 1761804, "job": "Prop Maker", "name": "Raffaele Vincenti", "profile_path": null}, {"credit_id": "58aac3129251414195001c45", "department": "Art", "gender": 0, "id": 1761804, "job": "Prop Designer", "name": "Raffaele Vincenti", "profile_path": null}, {"credit_id": "58aac34fc3a3686ed9001c64", "department": "Crew", "gender": 0, "id": 1761805, "job": "Special Effects", "name": "Giovanni Cappelli", "profile_path": null}, {"credit_id": "58aac369c3a3686ed9001c7b", "department": "Camera", "gender": 0, "id": 1761806, "job": "Key Grip", "name": "Gastone Coppa", "profile_path": null}, {"credit_id": "58aac39d9251414195001c86", "department": "Lighting", "gender": 0, "id": 1761807, "job": "Electrician", "name": "Valerio Garzia", "profile_path": null}, {"credit_id": "58aac3c0c3a3686ed9001ca7", "department": "Costume & Make-Up", "gender": 0, "id": 1761808, "job": "Seamstress", "name": "Giselda Demonicucci", "profile_path": null}, {"credit_id": "58aac3d5c3a3686ee90018ec", "department": "Editing", "gender": 0, "id": 1761809, "job": "Assistant Editor", "name": "Fabrizio Di Blasi", "profile_path": null}, {"credit_id": "58aac40d92514141c6001b3f", "department": "Production", "gender": 0, "id": 1761812, "job": "Administration", "name": "Aureliano Lalli-Persiani", "profile_path": null}, {"credit_id": "58aac419c3a3686ee900190b", "department": "Crew", "gender": 0, "id": 1761814, "job": "Unit Publicist", "name": "Tonino Pinto", "profile_path": null}, {"credit_id": "58aac426c3a3686e8c001c96", "department": "Directing", "gender": 0, "id": 1761815, "job": "Script Supervisor", "name": "Daniela Puccini", "profile_path": null}]}}