{"adult": false, "backdrop_path": "/izVa8p54MDV2qTpd4B9UIx6HWJ5.jpg", "belongs_to_collection": null, "budget": 0, "genres": [{"id": 18, "name": "Drama"}], "homepage": null, "id": 63139, "imdb_id": "tt1606390", "original_language": "en", "original_title": "All Things Fall Apart", "overview": "50 Cent stars as gifted college running back Deon in this touching drama. Deon's world turns upside down when an unexpected crisis jeopardizes his professional ambitions -- and causes him to look at himself and his life in a new way.", "popularity": 6.226, "poster_path": "/ro7keqOD8XqtBSw5cQhmbyyQNvk.jpg", "production_companies": [{"id": 5830, "logo_path": null, "name": "Cheetah Vision", "origin_country": ""}], "production_countries": [{"iso_3166_1": "US", "name": "United States of America"}], "release_date": "2011-03-05", "revenue": 0, "runtime": 106, "spoken_languages": [{"iso_639_1": "en", "name": "English"}], "status": "Released", "tagline": "He won the game. Now he must fight the battle.", "title": "All Things Fall Apart", "video": false, "vote_average": 5.7, "vote_count": 35, "keywords": {"keywords": [{"id": 6075, "name": "sport"}]}, "similar": {"page": 1, "results": [{"id": 245913, "video": false, "vote_count": 511, "vote_average": 7.3, "title": "Pel\u00e9: Birth of a Legend", "release_date": "2016-05-06", "original_language": "en", "original_title": "Pel\u00e9: Birth of a Legend", "genre_ids": [18, 36], "backdrop_path": "/mmKn7ECMiCUGFhIhoX2t9SYrTQn.jpg", "adult": false, "overview": "The life story of Brazilian football legend, Pele.", "poster_path": "/7AQFHlPohPiAYKTd1C35Q61z0eD.jpg", "popularity": 15.163}, {"adult": false, "backdrop_path": "/qVjKZMB0IdOc2JlwiiGsuKTvTJs.jpg", "genre_ids": [18], "id": 22881, "original_language": "en", "original_title": "The Blind Side", "overview": "The story of Michael Oher, a homeless and traumatized boy who became an All American football player and first round NFL draft pick with the help of a caring woman and her family", "poster_path": "/wEGFSgPebLk6g1ngKsJ6a46PYLV.jpg", "release_date": "2009-11-20", "title": "The Blind Side", "video": false, "vote_average": 7.5, "vote_count": 3212, "popularity": 30.144}, {"adult": false, "backdrop_path": "/jK3EAFk3GdOaQfUDCOiTujzMpwH.jpg", "genre_ids": [18], "id": 389015, "original_language": "en", "original_title": "I, Tonya", "overview": "Competitive ice skater Tonya Harding rises amongst the ranks at the U. S. Figure Skating Championships, but her future in the sport is thrown into doubt when her ex-husband intervenes.", "poster_path": "/6gNXwSHxaksR1PjVZRqNapmkgj3.jpg", "release_date": "2017-12-08", "title": "I, Tonya", "video": false, "vote_average": 7.5, "vote_count": 3327, "popularity": 19.513}, {"id": 8923, "video": false, "vote_count": 1358, "vote_average": 7.2, "title": "Green Street Hooligans", "release_date": "2005-09-09", "original_language": "en", "original_title": "Green Street Hooligans", "genre_ids": [80, 18], "backdrop_path": "/oasVTD3UpTEjhTAVx9ZCy1k19Qv.jpg", "adult": false, "overview": "After being wrongfully expelled from Harvard University, American Matt Buckner flees to his sister's home in England. Once there, he is befriended by her charming and dangerous brother-in-law, Pete Dunham, and introduced to the underworld of British football hooliganism. Matt learns to stand his ground through a friendship that develops against the backdrop of this secret and often violent world. 'Green Street Hooligans' is a story of loyalty, trust and the sometimes brutal consequences of living close to the edge.", "poster_path": "/z3LC4kI8azbeuHRGgDdWo6VBCdX.jpg", "popularity": 14.424}, {"adult": false, "backdrop_path": "/n1Gh3MJAVvXmkgSDf3SOLlPCjag.jpg", "genre_ids": [35, 18, 10749], "id": 9390, "original_language": "en", "original_title": "Jerry Maguire", "overview": "Jerry Maguire used to be a typical sports agent: willing to do just about anything he could to get the biggest possible contracts for his clients, plus a nice commission for himself. Then, one day, he suddenly has second thoughts about what he's really doing. When he voices these doubts, he ends up losing his job and all of his clients, save Rod Tidwell, an egomaniacal football player.", "poster_path": "/99YTEdKOKDRClsscOpJfdkbaTrQ.jpg", "release_date": "1996-12-13", "title": "Jerry Maguire", "video": false, "vote_average": 6.9, "vote_count": 1794, "popularity": 16.867}, {"id": 14292, "video": false, "vote_count": 319, "vote_average": 7.1, "title": "Miracle", "release_date": "2004-02-06", "original_language": "en", "original_title": "Miracle", "genre_ids": [18, 36], "backdrop_path": "/vvOT6lEBmhbs3uohk9BO2bPpdEj.jpg", "adult": false, "overview": "When college coach Herb Brooks is hired to helm the 1980 U.S. men's Olympic hockey team, he brings a unique and brash style to the ice. After assembling a team of hot-headed college all-stars, who are humiliated in an early match, Brooks unites his squad against a common foe: the heavily-favored Soviet team.", "poster_path": "/82ls9NVXnoE5ZQM5yCZNmpbSVQN.jpg", "popularity": 9.689}, {"adult": false, "backdrop_path": "/kmrSb8Gu0s6fGkm3zHJnHh25F4J.jpg", "genre_ids": [18, 10752], "id": 17360, "original_language": "en", "original_title": "Escape to Victory", "overview": "A group of POWs in a German prison camp during World War II play the German National Soccer Team in this powerful film depicting the role of prisoners during wartime.", "poster_path": "/tKFWYW9vDVKrBupSQydptyYVkXi.jpg", "release_date": "1981-06-17", "title": "Escape to Victory", "video": false, "vote_average": 6.8, "vote_count": 419, "popularity": 11.91}, {"adult": false, "backdrop_path": "/9lrM0o89ASyHmDgMLfCbU5qdsAm.jpg", "genre_ids": [35, 18], "id": 9291, "original_language": "en", "original_title": "The Longest Yard", "overview": "Pro quarter-back, Paul Crewe and former college champion and coach, Nate Scarboro are doing time in the same prison. Asked to put together a team of inmates to take on the guards, Crewe enlists the help of Scarboro to coach the inmates to victory in a football game 'fixed' to turn out quite another way.", "poster_path": "/ag6q9euZABqbHtbDhoRT9xEYltP.jpg", "release_date": "2005-05-27", "title": "The Longest Yard", "video": false, "vote_average": 6.4, "vote_count": 1764, "popularity": 17.65}, {"adult": false, "backdrop_path": "/kBTdPNTAzagAY6UiwY957KCDGuu.jpg", "genre_ids": [16, 35, 10751], "id": 2300, "original_language": "en", "original_title": "Space Jam", "overview": "Swackhammer, an evil alien theme park owner, needs a new attraction at Moron Mountain. When his gang, the Nerdlucks, heads to Earth to kidnap Bugs Bunny and the Looney Tunes, Bugs challenges them to a basketball game to determine their fate. The aliens agree, but they steal the powers of NBA basketball players, including Larry Bird and Charles Barkley -- so Bugs gets some help from superstar Michael Jordan.", "poster_path": "/xI9AwhOWtsbFlS8tYD2PXa80p7u.jpg", "release_date": "1996-11-15", "title": "Space Jam", "video": false, "vote_average": 6.7, "vote_count": 3179, "popularity": 15.582}, {"adult": false, "backdrop_path": "/zu3zLkJeRtGJq4I6D7ONMWmFOLh.jpg", "genre_ids": [28, 18], "id": 9766, "original_language": "en", "original_title": "Gridiron Gang", "overview": "Teenagers at a juvenile detention center, under the leadership of their counselor, gain self-esteem by playing football together.", "poster_path": "/8UlDsCPjAfg15L5Sgkcmy8rv1rg.jpg", "release_date": "2006-09-15", "title": "Gridiron Gang", "video": false, "vote_average": 6.7, "vote_count": 431, "popularity": 14.948}, {"id": 60308, "video": false, "vote_count": 2515, "vote_average": 7.2, "title": "Moneyball", "release_date": "2011-09-22", "original_language": "en", "original_title": "Moneyball", "genre_ids": [18], "backdrop_path": "/T9a9Q6Pin6Pra7dNMwWzAibxkk.jpg", "adult": false, "overview": "The story of Oakland Athletics general manager Billy Beane's successful attempt to put together a baseball team on a budget, by employing computer-generated analysis to draft his players.", "poster_path": "/3oAa8mJJ97CH9AeGEY6vjAxqcvZ.jpg", "popularity": 16.135}, {"adult": false, "backdrop_path": "/3fcBsj9JMQQ27Wuk3LVrEwVZ2VT.jpg", "genre_ids": [28, 18], "id": 323677, "original_language": "en", "original_title": "Race", "overview": "Based on the story of Jesse Owens, the athlete whose quest to become the greatest track and field athlete in history thrusts him onto the world stage of the 1936 Olympics, where he faces off against Adolf Hitler's vision of Aryan supremacy.", "poster_path": "/szLfTQ2vLFQkNbP3dc0pnco1rje.jpg", "release_date": "2016-02-19", "title": "Race", "video": false, "vote_average": 7.3, "vote_count": 989, "popularity": 11.176}, {"adult": false, "backdrop_path": "/20IgqkdFw5kuItqDCJtidSESP0t.jpg", "genre_ids": [27, 18], "id": 10066, "original_language": "en", "original_title": "House of Wax", "overview": "A group of unwitting teens are stranded near a strange wax museum and soon must fight to survive and keep from becoming the next exhibit.", "poster_path": "/uM1RebQywM5PPYsauayefpXGxVk.jpg", "release_date": "2005-04-30", "title": "House of Wax", "video": false, "vote_average": 5.7, "vote_count": 1531, "popularity": 21.972}, {"id": 307081, "video": false, "vote_count": 3699, "vote_average": 7.4, "title": "Southpaw", "release_date": "2015-03-24", "original_language": "en", "original_title": "Southpaw", "genre_ids": [28, 18], "backdrop_path": "/tTt1cdEEkKMJ1R4VBTe5vbE3bWO.jpg", "adult": false, "overview": "Billy \"The Great\" Hope, the reigning junior middleweight boxing champion, has an impressive career, a loving wife and daughter, and a lavish lifestyle. However, when tragedy strikes, Billy hits rock bottom, losing his family, his house and his manager. He soon finds an unlikely savior in Tick Willis, a former fighter who trains the city's toughest amateur boxers. With his future on the line, Hope fights to reclaim the trust of those he loves the most.", "poster_path": "/50d0XQQETSyg3bwBXhC7K33pKgc.jpg", "popularity": 24.057}, {"id": 651, "video": false, "vote_count": 478, "vote_average": 7.1, "title": "M*A*S*H", "release_date": "1970-01-24", "original_language": "en", "original_title": "M*A*S*H", "genre_ids": [35, 18, 10752], "backdrop_path": "/l5YH6TCYi2mgZwXbDjF71iA9UBP.jpg", "adult": false, "overview": "The staff of a Korean War field hospital use humor and high jinks to keep their sanity in the face of the horror of war.", "poster_path": "/cscyvJ4nDgbqewrttPXZ5EYOdwa.jpg", "popularity": 11.845}, {"id": 70006, "video": false, "vote_count": 288, "vote_average": 6.1, "title": "Never Back Down 2: The Beatdown", "release_date": "2011-09-13", "original_language": "en", "original_title": "Never Back Down 2: The Beatdown", "genre_ids": [28, 18], "backdrop_path": "/lSFqtjxMfAHa58TBDDBELKeq2DH.jpg", "adult": false, "overview": "Four fighters different backgrounds come together to train under an ex MMA rising star and then ultimately have to fight each other and the traitor in heir midst.", "poster_path": "/qeISu4rUk9l9sQTMs86fAoxSx8p.jpg", "popularity": 20.91}, {"id": 391757, "video": false, "vote_count": 185, "vote_average": 6.5, "title": "Never Back Down: No Surrender", "release_date": "2016-06-07", "original_language": "en", "original_title": "Never Back Down: No Surrender", "genre_ids": [28, 18], "backdrop_path": "/pzjnObK3uiHcKwiir9OPPWzbW8f.jpg", "adult": false, "overview": "Picking up after the events of Never Back Down 2, former MMA champion Case Walker is on the comeback trail to become champion once again.", "poster_path": "/dYNS4o4Q4DDLiKRAAvZ9KcrhHuy.jpg", "popularity": 16.224}, {"adult": false, "backdrop_path": "/w41zFKYTsq4wf5QnQJWMXuzWl2F.jpg", "genre_ids": [18, 28], "id": 96721, "original_language": "en", "original_title": "Rush", "overview": "A biographical drama centered on the rivalry between Formula 1 drivers James Hunt and Niki Lauda during the 1976 Formula One motor-racing season.", "poster_path": "/cjEepHZOZAwmK6nAj5jis6HV75E.jpg", "release_date": "2013-09-02", "title": "Rush", "video": false, "vote_average": 7.7, "vote_count": 4275, "popularity": 16.446}, {"id": 1375, "video": false, "vote_count": 1669, "vote_average": 5.6, "title": "Rocky V", "release_date": "1990-10-18", "original_language": "en", "original_title": "Rocky V", "genre_ids": [18], "backdrop_path": "/dr5pdEDOdCvelCQqP32UZubiSgE.jpg", "adult": false, "overview": "A lifetime of taking shots has ended Rocky\u2019s career, and a crooked accountant has left him broke. Inspired by the memory of his trainer, however, Rocky finds glory in training and takes on an up-and-coming boxer.", "poster_path": "/5P2RiuLt31mWyb6duww8qlAhs6G.jpg", "popularity": 16.084}, {"id": 396371, "video": false, "vote_count": 1968, "vote_average": 7.1, "title": "Molly's Game", "release_date": "2017-12-25", "original_language": "en", "original_title": "Molly's Game", "genre_ids": [80, 18], "backdrop_path": "/rHcBZ6ZKCe4FalWHyvBGsyMsh0k.jpg", "adult": false, "overview": "Molly Bloom, a young skier and former Olympic hopeful becomes a successful entrepreneur (and a target of an FBI investigation) when she establishes a high-stakes, international poker game.", "poster_path": "/in43bQ7k0ttr666IPP94IlbQbTR.jpg", "popularity": 18.118}], "total_pages": 182, "total_results": 3632}, "recommendations": {"page": 1, "results": [{"adult": false, "backdrop_path": "/wfzVG6U5Am9itLJAiiFUFJl2C5b.jpg", "genre_ids": [16], "id": 110038, "original_language": "en", "original_title": "The Chase", "overview": "A simple hitman job. Things don't go as expected.", "poster_path": "/9AIHM4aRne9HY5xPAm23Aq092lM.jpg", "release_date": "2012-02-20", "title": "The Chase", "video": false, "vote_average": 5.1, "vote_count": 5, "popularity": 0.772}, {"adult": false, "backdrop_path": "/6vlafA89UBgICLarDItNPQV3Lut.jpg", "genre_ids": [18], "id": 31605, "original_language": "en", "original_title": "The Last American Hero", "overview": "A backwoods bootlegger decides to put the driving skills he developed evading the law to good use. He becomes a race car driver, and eventually, one of the fastest drivers in history. Also known as\u00a0\"Hard Driver\".", "poster_path": "/1PEOlAC6KDaj0WxWPw87kan3Kmp.jpg", "release_date": "1973-01-01", "title": "The Last American Hero", "video": false, "vote_average": 5.6, "vote_count": 13, "popularity": 3.956}, {"adult": false, "backdrop_path": null, "genre_ids": [28, 37, 53], "id": 69396, "original_language": "en", "original_title": "A Cold Day in Hell", "overview": "Sierra Nevada Mountains, 1887: William Drayton, once a crack sharpshooter in the Civil War, has lost his wife and home. He has ascended to the high country, wanting never to be heard from again.", "poster_path": "/t0ysmEdakDj7yhwQGeauHjlMWDC.jpg", "release_date": "2011-01-05", "title": "A Cold Day in Hell", "video": false, "vote_average": 3.6, "vote_count": 7, "popularity": 3.022}, {"adult": false, "backdrop_path": "/lvw7RHO90gBp54HIOa06YqV97JC.jpg", "genre_ids": [18], "id": 19083, "original_language": "en", "original_title": "Strays", "overview": "Rick (Diesel) is frustrated by the repetitious grind of one-night stands and aimless hustling. Whilst looking for more to his life he meets Heather (Lanza), a neighbour. Rick takes the opportunity to escape his boring life style with her, but soon finds that his volatile behaviour threatens to finish their relationship before it even really begins.", "poster_path": "/jb7nKUY3MgO60QIi3s7iMTf21R1.jpg", "release_date": "1997-01-18", "title": "Strays", "video": false, "vote_average": 4.7, "vote_count": 18, "popularity": 5.34}, {"id": 4644, "video": false, "vote_count": 12, "vote_average": 4.3, "title": "The Year of Getting to Know Us", "release_date": "2008-01-24", "original_language": "en", "original_title": "The Year of Getting to Know Us", "genre_ids": [35, 18], "backdrop_path": "/eICwnaFzbo4QlKgocV4GEn3fQN1.jpg", "adult": false, "overview": "A commitment-phobic man reunites with his estranged, ailing father and comes to terms with his own childhood.", "poster_path": "/ziTYD21ST2EDKuFCrnV0bfXOpFk.jpg", "popularity": 3.997}, {"adult": false, "backdrop_path": "/xKtkFgefgheTZgTlmMeZrOP84UY.jpg", "genre_ids": [35, 28], "id": 70863, "original_language": "en", "original_title": "Poolboy - Drowning Out the Fury", "overview": "In this unearthed lost movie from 1990 that the studio deemed too terrible to release, a Vietnam Veteran Sal Bando(Sorbo), tortured by his past as a Poolboy returns home to Van Nuys, California, and a country he doesn't recognize, in which it seems only Mexicans run pool-cleaning companies. Bando sets off on a brutal mission to reclaim his \"rightful\" vocation and enact revenge on the man(Trejo) who killed his wife and son.", "poster_path": "/110wCwfzRRiGVdXtpAptgTPK3JJ.jpg", "release_date": "2011-07-22", "title": "Poolboy - Drowning Out the Fury", "video": false, "vote_average": 5.6, "vote_count": 18, "popularity": 4.972}, {"adult": false, "backdrop_path": "/q7cDDu8PwA0rZZATwwokMwqnhJI.jpg", "genre_ids": [18, 53], "id": 45568, "original_language": "en", "original_title": "Legacy", "overview": "Taking refuge in a shabby Brooklyn motel after narrowly surviving a failed mission in Eastern Europe, Black Ops soldier Malcolm Gray (Idris Elba) begins to disintegrate mentally as he broods over the legacy of his actions in this taut psychological thriller. Haunted by his demons while holed up in his room, Malcolm ponders the ascent of his brother (Eamonn Walker), an ambitious senator with designs on the presidency.", "poster_path": "/dAUESoyEHJXcpEDBVEen0y19Hfn.jpg", "release_date": "2010-10-15", "title": "Legacy", "video": false, "vote_average": 5.2, "vote_count": 12, "popularity": 3.682}, {"adult": false, "backdrop_path": "/2CvHi6a3YPBhpFs3OC7XPxMB67a.jpg", "genre_ids": [27, 53], "id": 143928, "original_language": "en", "original_title": "Hellgate", "overview": "A western businessman, his Thai wife and son experience a horrible accident while visiting Bangkok. In the aftermath, they find there is a shadow world between life and death where endless darkness lies.", "poster_path": "/ArF8t5MPDImcTJWu3T6YCGUc7mX.jpg", "release_date": "2011-11-05", "title": "Hellgate", "video": false, "vote_average": 4.7, "vote_count": 14, "popularity": 3.093}, {"id": 39467, "video": false, "vote_count": 13, "vote_average": 5.3, "title": "Still Breathing", "release_date": "1997-09-01", "original_language": "en", "original_title": "Still Breathing", "genre_ids": [35, 18, 10749], "backdrop_path": "/bjcHQODig5eRKuHZ42PVILgkXHt.jpg", "adult": false, "overview": "Two lost souls: she a con-artist in L.A.; he a puppeteer in San Antonio have the same dream linking each with the other. He travels to L.A. to find this woman he has become obsessed with. She resists, afraid of his kooky ideas until she travels with him to San Antonio and meets his wise grandmother. Story of two disparate people linked by \"fate\" gets increasingly interesting as it rolls along.", "poster_path": "/w9iW8dQ8OM61lxH01q4PNTmQ6sK.jpg", "popularity": 2.313}, {"adult": false, "backdrop_path": "/rQuSj6ZnvblW86ApJVn4uzkrIwc.jpg", "genre_ids": [28, 12, 18], "id": 14351, "original_language": "en", "original_title": "Crossover", "overview": "The clock strikes midnight, money changes hands, the crowd is on their feet, and the court is alive with fast-paced razzle-dazzle basketball. These players don't play for a school or a pro team. They play for the street and it's underground...way underground.", "poster_path": "/jMShqkxESzjcXWdhGJz65CPWi8L.jpg", "release_date": "2006-09-01", "title": "Crossover", "video": false, "vote_average": 4.0, "vote_count": 21, "popularity": 5.515}, {"adult": false, "backdrop_path": "/fvDiiXJrCMtsCJOsnCsCTdWnPDr.jpg", "genre_ids": [18], "id": 14066, "original_language": "en", "original_title": "Romulus, My Father", "overview": "It tells the story of Romulus, his beautiful wife, Christina, and their struggle in the face of great adversity to bring up their son, Raimond. It is a story of impossible love that ultimately celebrates the unbreakable bond between father and son.", "poster_path": "/s7KVtK64vxn0Bm601iivbxoKvS9.jpg", "release_date": "2007-05-19", "title": "Romulus, My Father", "video": false, "vote_average": 6.0, "vote_count": 22, "popularity": 4.32}, {"adult": false, "backdrop_path": "/k35WjMX7nrEN4qTPsbxhkiZ6Na7.jpg", "genre_ids": [35], "id": 15581, "original_language": "en", "original_title": "Who's Your Caddy?", "overview": "When \"street smart\" rapper Christopher \"C-Note\" Hawkins (Big Boi) applies for a membership to all-white Carolina Pines Country Club, the establishment's proprietors are hardly ready to oblige him.", "poster_path": "/hMkZcwd6OpoyYdNurvKohSlSXX2.jpg", "release_date": "2007-07-27", "title": "Who's Your Caddy?", "video": false, "vote_average": 4.0, "vote_count": 33, "popularity": 4.717}, {"adult": false, "backdrop_path": "/5RJGnXz3wIxSAmAQxCOWlZoIdOH.jpg", "genre_ids": [27], "id": 106427, "original_language": "en", "original_title": "The Dead Want Women", "overview": "Beginning at a stylish mansion in the roaring 1920's, a socialite, flappers, and the men who love them come to their ultimate demise. These ghosts continue to haunt the mansion throughout the decade. Now they've come back to haunt and chase after a new generation of beautiful girls. The Dead Want Women!", "poster_path": "/dKAZxZo3vxc7QDhxoaJ6BET1AQF.jpg", "release_date": "2012-05-01", "title": "The Dead Want Women", "video": false, "vote_average": 2.9, "vote_count": 13, "popularity": 3.955}, {"id": 35656, "video": false, "vote_count": 17, "vote_average": 4.9, "title": "As Good As Dead", "release_date": "2010-01-25", "original_language": "en", "original_title": "As Good As Dead", "genre_ids": [28, 12, 53], "backdrop_path": "/hHTKM1tVpnML25GkP6qma1lPrT3.jpg", "adult": false, "overview": "Seeking revenge for the murder of their religious leader, fundamental loyalists kidnap and torture the man they believe responsible, but the ensuing clash of right vs. left ideologies quickly reveals that they may have the wrong man, which puts them on a path toward a shocking twist", "poster_path": "/410wkV3ERRSkrZDcO9YWMsTiVHB.jpg", "popularity": 3.466}, {"adult": false, "backdrop_path": "/o9W8xGfyer3O1fk5pP3f7Ofd3nu.jpg", "genre_ids": [27, 53], "id": 62105, "original_language": "en", "original_title": "Re-Cut", "overview": "When twin girls are found dead in their family\u2019s barn, reality star turned TV-reporter Meredith Phillips and her de-facto camera crew are dispatched to rural Wisconsin to investigate the gruesome deaths. In their relentless drive to break the story, the reporters become entangled in a deadly mystery and uncover the small town\u2019s shocking secret. Edited together from the crew\u2019s multiple cameras, the film documents their struggle to survive the most terrifying night of their lives and becomes the only evidence of a crime too horrific to imagine.", "poster_path": "/67Bq6wEOXQ3usGFoy8cCksxMcne.jpg", "release_date": "2010-01-04", "title": "Re-Cut", "video": false, "vote_average": 3.8, "vote_count": 10, "popularity": 4.516}], "total_pages": 1, "total_results": 15}, "credits": {"cast": [{"cast_id": 1, "character": "Dr. Brintall", "credit_id": "52fe469cc3a368484e09a3d9", "gender": 2, "id": 11477, "name": "Ray Liotta", "order": 0, "profile_path": "/o4jJSH3sri9dSIJwsCgT4de1535.jpg"}, {"cast_id": 2, "character": "Deon", "credit_id": "52fe469cc3a368484e09a3dd", "gender": 2, "id": 62644, "name": "50 Cent", "order": 1, "profile_path": "/gsEwsWWtC5xwFCzL2CnPmc24uIO.jpg"}, {"cast_id": 3, "character": "Eric", "credit_id": "52fe469cc3a368484e09a3e1", "gender": 2, "id": 16214, "name": "Mario Van Peebles", "order": 2, "profile_path": "/ciIe7kUrTA2nL8dPDA4L88DcBZX.jpg"}, {"cast_id": 4, "character": "Bee", "credit_id": "52fe469cc3a368484e09a3e5", "gender": 1, "id": 16217, "name": "Lynn Whitfield", "order": 3, "profile_path": "/6bHDOrk7DNtpEeLoXKpGx23eN91.jpg"}, {"cast_id": 5, "character": "Sherry", "credit_id": "52fe469cc3a368484e09a3e9", "gender": 1, "id": 75330, "name": "Ambyr Childers", "order": 4, "profile_path": "/boFipGlGLBVQ9xTW69wXzWW6OAD.jpg"}, {"cast_id": 18, "character": "Paramedic", "credit_id": "5876a851c3a3682d20001f3a", "gender": 2, "id": 77109, "name": "Corey Large", "order": 5, "profile_path": "/a5fUescZlSJ8xbMdSk2BQ7a1onU.jpg"}, {"cast_id": 19, "character": "Mrs. Lopez", "credit_id": "58e2feb792514127f6015569", "gender": 1, "id": 65421, "name": "Elizabeth Rodriguez", "order": 6, "profile_path": "/qRjILnH4HrfYavVMbjQYjhZtpq3.jpg"}], "crew": [{"credit_id": "553cc265c3a36820ec00350e", "department": "Production", "gender": 1, "id": 13585, "job": "Casting", "name": "Nancy Nayor", "profile_path": "/43LHN7kjcpvsSBBoshm4C1GUouP.jpg"}, {"credit_id": "52fe469cc3a368484e09a3ef", "department": "Directing", "gender": 2, "id": 16214, "job": "Director", "name": "Mario Van Peebles", "profile_path": "/ciIe7kUrTA2nL8dPDA4L88DcBZX.jpg"}, {"credit_id": "553cc212c3a3683e1400556b", "department": "Sound", "gender": 2, "id": 50216, "job": "Music", "name": "Tree Adams", "profile_path": null}, {"credit_id": "553cc1e8c3a368784500c453", "department": "Production", "gender": 2, "id": 17211, "job": "Producer", "name": "Randall Emmett", "profile_path": null}, {"credit_id": "553cc2279251416874005343", "department": "Camera", "gender": 2, "id": 37004, "job": "Director of Photography", "name": "Matthew Irving", "profile_path": null}, {"credit_id": "553cc251c3a368066d001009", "department": "Editing", "gender": 0, "id": 62813, "job": "Editor", "name": "Kirk M. Morri", "profile_path": null}, {"credit_id": "553cc1fb925141125600b6fe", "department": "Production", "gender": 2, "id": 62644, "job": "Producer", "name": "50 Cent", "profile_path": "/gsEwsWWtC5xwFCzL2CnPmc24uIO.jpg"}, {"credit_id": "52fe469cc3a368484e09a3f5", "department": "Writing", "gender": 2, "id": 62644, "job": "Writer", "name": "50 Cent", "profile_path": "/gsEwsWWtC5xwFCzL2CnPmc24uIO.jpg"}, {"credit_id": "553cc23dc3a3683c48003d62", "department": "Editing", "gender": 2, "id": 125326, "job": "Editor", "name": "Bob Mori", "profile_path": null}, {"credit_id": "52fe469cc3a368484e09a3fb", "department": "Writing", "gender": 2, "id": 1024823, "job": "Writer", "name": "Brian A. Miller", "profile_path": "/8uc10NUQVOdFFgf4gymL3UeDhos.jpg"}, {"credit_id": "553cc291c3a3683c48003d72", "department": "Directing", "gender": 0, "id": 1459243, "job": "Script Supervisor", "name": "Kalyn Karnan", "profile_path": null}, {"credit_id": "553cc2a5c3a3683e1400557f", "department": "Directing", "gender": 0, "id": 1459244, "job": "Script Supervisor", "name": "Kathleen Soltysiak", "profile_path": null}]}}