{"adult": false, "backdrop_path": "/7PaN1KKKkRihdjzlV77ChGpBkq9.jpg", "belongs_to_collection": null, "budget": 0, "genres": [{"id": 18, "name": "Drama"}], "homepage": null, "id": 63483, "imdb_id": "tt0457270", "original_language": "en", "original_title": "Cyber Seduction: His Secret Life", "overview": "A high school kid (Sumpter) develops an addiction to Internet porn so intense that it begins to destroy his life and tear his family apart.", "popularity": 4.305, "poster_path": "/9y03JxYnQpqpEXfbOlBkqasvj1W.jpg", "production_companies": [], "production_countries": [], "release_date": "2005-06-20", "revenue": 0, "runtime": 87, "spoken_languages": [], "status": "Released", "tagline": "What happens when simple curiosity turns into addiction?", "title": "Cyber Seduction: His Secret Life", "video": false, "vote_average": 3.3, "vote_count": 23, "keywords": {"keywords": [{"id": 5906, "name": "sex addiction"}, {"id": 6054, "name": "friendship"}, {"id": 11615, "name": "internet"}, {"id": 11827, "name": "swimmer"}]}, "similar": {"page": 1, "results": [{"adult": false, "backdrop_path": "/w2KDvs7D0E6yDGESrAeJ0tzimSA.jpg", "genre_ids": [35, 18], "id": 44564, "original_language": "en", "original_title": "The Dilemma", "overview": "Longtime friends Ronny and Nick are partners in an auto-design firm. They are hard at work on a presentation for a dream project that would really launch their company. Then Ronny spots Nick's wife out with another man, and in the process of investigating the possible affair, he learns that Nick has a few secrets of his own. As the presentation nears, Ronny agonizes over what might happen if the truth gets out.", "poster_path": "/wMwKQBOrlz3KN3QLIFj65hyJw9B.jpg", "release_date": "2011-01-13", "title": "The Dilemma", "video": false, "vote_average": 5.4, "vote_count": 542, "popularity": 10.815}, {"id": 77338, "video": false, "vote_count": 10879, "vote_average": 8.2, "title": "The Intouchables", "release_date": "2011-11-02", "original_language": "fr", "original_title": "Intouchables", "genre_ids": [35, 18], "backdrop_path": "/ihWaJZCUIon2dXcosjQG2JHJAPN.jpg", "adult": false, "overview": "A true story of two men who should never have met \u2013 a quadriplegic aristocrat who was injured in a paragliding accident and a young man from the projects.", "poster_path": "/4mFsNQwbD0F237Tx7gAPotd0nbJ.jpg", "popularity": 21.193}, {"id": 68718, "video": false, "vote_count": 17255, "vote_average": 8.1, "title": "Django Unchained", "release_date": "2012-12-25", "original_language": "en", "original_title": "Django Unchained", "genre_ids": [18, 37], "backdrop_path": "/qUcmEqnzIwlwZxSyTf3WliSfAjJ.jpg", "adult": false, "overview": "With the help of a German bounty hunter, a freed slave sets out to rescue his wife from a brutal Mississippi plantation owner.", "poster_path": "/eCt596Z4zkqxW5AHz1HEhGm1eif.jpg", "popularity": 39.475}, {"id": 40807, "video": false, "vote_count": 2337, "vote_average": 7.1, "title": "50/50", "release_date": "2011-09-30", "original_language": "en", "original_title": "50/50", "genre_ids": [35, 18], "backdrop_path": "/kGac26bIqfwm8eqbP1RjKP70brE.jpg", "adult": false, "overview": "Inspired by a true story, a comedy centered on a 27-year-old guy who learns of his cancer diagnosis, and his subsequent struggle to beat the disease.", "poster_path": "/uDKmnFHqE3rQ9r6ErQsOZWuzXN8.jpg", "popularity": 13.937}, {"id": 23168, "video": false, "vote_count": 2676, "vote_average": 7.2, "title": "The Town", "release_date": "2010-09-15", "original_language": "en", "original_title": "The Town", "genre_ids": [80, 18, 53], "backdrop_path": "/asMylckPVBXViRqxjDTzik0TpOh.jpg", "adult": false, "overview": "Doug MacRay is a longtime thief, who, smarter than the rest of his crew, is looking for his chance to exit the game. When a bank job leads to the group kidnapping an attractive branch manager, he takes on the role of monitoring her \u2013 but their burgeoning relationship threatens to unveil the identities of Doug and his crew to the FBI Agent who is on their case.", "poster_path": "/zX4fKmDXKGt4hlzhAJirdlRKFgO.jpg", "popularity": 22.874}, {"id": 19913, "video": false, "vote_count": 6208, "vote_average": 7.2, "title": "(500) Days of Summer", "release_date": "2009-07-17", "original_language": "en", "original_title": "(500) Days of Summer", "genre_ids": [35, 18, 10749], "backdrop_path": "/yYw9cVdRJ4zzwxM2cTDXfT6JI6E.jpg", "adult": false, "overview": "Tom, greeting-card writer and hopeless romantic, is caught completely off-guard when his girlfriend, Summer, suddenly dumps him. He reflects on their 500 days together to try to figure out where their love affair went sour, and in doing so, Tom rediscovers his true passions in life.", "poster_path": "/5SjtNPD1bb182vzQccvEUpXHFjN.jpg", "popularity": 20.487}, {"id": 13, "video": false, "vote_count": 16610, "vote_average": 8.4, "title": "Forrest Gump", "release_date": "1994-07-06", "original_language": "en", "original_title": "Forrest Gump", "genre_ids": [35, 18, 10749], "backdrop_path": "/wMgbnUVS9wbRGAdki8fqxKU1O0N.jpg", "adult": false, "overview": "A man with a low IQ has accomplished great things in his life and been present during significant historic events\u2014in each case, far exceeding what anyone imagined he could do. But despite all he has achieved, his one true love eludes him.", "poster_path": "/yE5d3BUhE8hCnkMUJOo1QDoOGNz.jpg", "popularity": 41.886}, {"id": 28178, "video": false, "vote_count": 3997, "vote_average": 8.0, "title": "Hachi: A Dog's Tale", "release_date": "2009-06-13", "original_language": "en", "original_title": "Hachi: A Dog's Tale", "genre_ids": [18, 10751], "backdrop_path": "/m87xptCZD6J15HcioOOX4kfEdeD.jpg", "adult": false, "overview": "A drama based on the true story of a college professor's bond with the abandoned dog he takes into his home.", "poster_path": "/3MpVmIg6CgOCUrZ2TZ2P0yitCbM.jpg", "popularity": 38.97}, {"id": 61979, "video": false, "vote_count": 1062, "vote_average": 7.4, "title": "Three Steps Above Heaven", "release_date": "2010-12-03", "original_language": "es", "original_title": "Tres metros sobre el cielo", "genre_ids": [18, 10749], "backdrop_path": "/tBIUBCP6x5rOSyvytX2oVSp1gQ9.jpg", "adult": false, "overview": "Story of two young people who belong to different worlds. It is the chronicle of a love improbable, almost impossible but inevitable dragging in a frantic journey they discover the first great love. Babi (Maria Valverde) is a girl from upper-middle class that is educated in goodness and innocence . Hache (Mario Casas) is a rebellious boy, impulsive, unconscious, has a appetite for risk and danger embodied in endless fights and illegal motorbike races, the limit of common sense", "poster_path": "/57D3h8wb3LMURTyG0dv2VtHfvCM.jpg", "popularity": 17.308}, {"id": 50544, "video": false, "vote_count": 5179, "vote_average": 6.6, "title": "Friends with Benefits", "release_date": "2011-07-21", "original_language": "en", "original_title": "Friends with Benefits", "genre_ids": [35, 10749], "backdrop_path": "/liq5ljqURqLiBUgMkNiR388ZuSH.jpg", "adult": false, "overview": "Dylan and Jamie think it's going to be easy to add the simple act of sex to their friendship, despite what Hollywood romantic comedies would have them believe. They soon discover however that getting physical really does always lead to complications.", "poster_path": "/nKhhDFCdzxeJ3GUunQ570LDpUkz.jpg", "popularity": 19.488}, {"id": 489, "video": false, "vote_count": 6675, "vote_average": 8.1, "title": "Good Will Hunting", "release_date": "1997-12-05", "original_language": "en", "original_title": "Good Will Hunting", "genre_ids": [18], "backdrop_path": "/8vA6dxBzRqSajvqdmTLtoguAa3T.jpg", "adult": false, "overview": "Will Hunting has a genius-level IQ but chooses to work as a janitor at MIT. When he solves a difficult graduate-level math problem, his talents are discovered by Professor Gerald Lambeau, who decides to help the misguided youth reach his potential. When Will is arrested for attacking a police officer, Professor Lambeau makes a deal to get leniency for him if he will get treatment from therapist Sean Maguire.", "poster_path": "/jq8LjngZ7XZEQge5JFTdOGMrHyZ.jpg", "popularity": 16.686}, {"adult": false, "backdrop_path": "/7B3I7S9a4bLonbYw6XVcoDzW8RT.jpg", "genre_ids": [18, 10749], "id": 109689, "original_language": "es", "original_title": "Tengo ganas de ti", "overview": "Sequel to \"Three Steps Above Heaven\". The sexy Gin is the new love of Hache, but this can not forget his former girlfriend, so the love triangle is inevitable.", "poster_path": "/z13I3sWzOoKBDAEpJ7iK9bSznQn.jpg", "release_date": "2012-06-22", "title": "I Want You", "video": false, "vote_average": 6.7, "vote_count": 694, "popularity": 17.432}, {"adult": false, "backdrop_path": "/qmERQjNTQ8HhBi5dxwv8BNzrOX.jpg", "genre_ids": [18, 10749], "id": 38684, "original_language": "en", "original_title": "Jane Eyre", "overview": "After a bleak childhood, Jane Eyre goes out into the world to become a governess. As she lives happily in her new position at Thornfield Hall, she meet the dark, cold, and abrupt master of the house, Mr. Rochester. Jane and her employer grow close in friendship and she soon finds herself falling in love with him. Happiness seems to have found Jane at last, but could Mr. Rochester's terrible secret be about to destroy it forever?", "poster_path": "/oC7wvdrBA0RgbXaJZwcxsl1zKBR.jpg", "release_date": "2011-03-11", "title": "Jane Eyre", "video": false, "vote_average": 7.1, "vote_count": 855, "popularity": 10.868}, {"adult": false, "backdrop_path": "/74Jh5SIWnKDwtusPfDP51EeCFHt.jpg", "genre_ids": [35, 10749], "id": 9576, "original_language": "en", "original_title": "Tootsie", "overview": "When struggling, out of work actor Michael Dorsey secretly adopts a female alter ego - Dorothy Michaels - in order to land a part in a daytime drama, he unwittingly becomes a feminist icon and ends up in a romantic pickle.", "poster_path": "/ngyCzZwb9y5sMUCig5JQT4Y33Q.jpg", "release_date": "1982-12-16", "title": "Tootsie", "video": false, "vote_average": 7.2, "vote_count": 915, "popularity": 9.882}, {"id": 10991, "video": false, "vote_count": 333, "vote_average": 6.3, "title": "Pok\u00e9mon 3: The Movie - Spell of the Unown", "release_date": "2000-07-08", "original_language": "ja", "original_title": "\u5287\u5834\u7248\u30dd\u30b1\u30c3\u30c8\u30e2\u30f3\u30b9\u30bf\u30fc \u7d50\u6676\u5854\u306e\u5e1d\u738b ENTEI", "genre_ids": [28, 12, 16, 14, 10751], "backdrop_path": "/dLGQo5Xq6H18vPx00Czot8VHi3K.jpg", "adult": false, "overview": "When Me Snowdon's sadness of her father's disappearance get to her, she unknowingly uses the Unknown to create her own dream world along with Entei, who she believes to be her father. When Entei kidnaps Satoshi's mother, Satoshi along with Kasumi & Takeshi invade the mansion looking for his mom and trying to stop the mysteries of Me's Dream World and Entei!", "poster_path": "/5ILjS6XB5deiHop8SXPsYxXWVPE.jpg", "popularity": 14.6}, {"adult": false, "backdrop_path": "/jxWA2lDLidicmmDymnxlz53zAb9.jpg", "genre_ids": [16, 35, 10751], "id": 1267, "original_language": "en", "original_title": "Meet the Robinsons", "overview": "In this animated adventure, brilliant preteen inventor Lewis creates a memory scanner to retrieve his earliest recollections and find out why his mother gave him up for adoption. But when the villainous Bowler Hat Guy steals the machine, Lewis is ready to give up on his quest until the mysterious Wilbur Robinson shows up on the scene, whisking Lewis to the future to find the scanner and his mom.", "poster_path": "/oe7w9SxGmpSW1dlz5QaVVKWBEVz.jpg", "release_date": "2007-03-23", "title": "Meet the Robinsons", "video": false, "vote_average": 6.8, "vote_count": 1665, "popularity": 21.108}, {"adult": false, "backdrop_path": "/w4w8CTEe4isWO2TzDSQ3MV3br9l.jpg", "genre_ids": [14, 35, 10751], "id": 8839, "original_language": "en", "original_title": "Casper", "overview": "Furious that her late father only willed her his gloomy-looking mansion rather than his millions, Carrigan Crittenden is ready to burn the place to the ground when she discovers a map to a treasure hidden in the house. But when she enters the rickety mansion to seek her claim, she is frightened away by a wicked wave of ghosts. Determined to get her hands on this hidden fortune, she hires afterlife therapist Dr. James Harvey to exorcise the ghosts from the mansion. Harvey and his daughter Kat move in, and soon Kat meets Casper, the ghost of a young boy who's \"the friendliest ghost you know.\" But not so friendly are Casper's uncles--Stretch, Fatso and Stinkie--who are determined to drive all \"fleshies\" away.", "poster_path": "/1WeumvndgPE3hopKQqXbCKO26oH.jpg", "release_date": "1995-05-26", "title": "Casper", "video": false, "vote_average": 6.2, "vote_count": 2788, "popularity": 25.596}, {"id": 177572, "video": false, "vote_count": 11024, "vote_average": 7.8, "title": "Big Hero 6", "release_date": "2014-10-24", "original_language": "en", "original_title": "Big Hero 6", "genre_ids": [28, 12, 16, 35, 10751], "backdrop_path": "/wXBCE6sS94zb8IlnQ51OPApgfhC.jpg", "adult": false, "overview": "The special bond that develops between plus-sized inflatable robot Baymax, and prodigy Hiro Hamada, who team up with a group of friends to form a band of high-tech heroes.", "poster_path": "/9gLu47Zw5ertuFTZaxXOvNfy78T.jpg", "popularity": 51.374}, {"id": 72105, "video": false, "vote_count": 8343, "vote_average": 6.3, "title": "Ted", "release_date": "2012-06-29", "original_language": "en", "original_title": "Ted", "genre_ids": [35, 14], "backdrop_path": "/sPiFgbWMSQxVMO6TuRFrkeWwarI.jpg", "adult": false, "overview": "John Bennett, a man whose childhood wish of bringing his teddy bear to life came true, now must decide between keeping the relationship with the bear or his girlfriend, Lori.", "poster_path": "/5ExgYTRafm4kFRwHp2jH6C23Yl4.jpg", "popularity": 20.996}, {"adult": false, "backdrop_path": "/dji4Fm0gCDVb9DQQMRvAI8YNnTz.jpg", "genre_ids": [16, 35, 10751], "id": 862, "original_language": "en", "original_title": "Toy Story", "overview": "Led by Woody, Andy's toys live happily in his room until Andy's birthday brings Buzz Lightyear onto the scene. Afraid of losing his place in Andy's heart, Woody plots against Buzz. But when circumstances separate Buzz and Woody from their owner, the duo eventually learns to put aside their differences.", "poster_path": "/rhIRbceoE9lR4veEXuwCC2wARtG.jpg", "release_date": "1995-10-30", "title": "Toy Story", "video": false, "vote_average": 7.9, "vote_count": 11534, "popularity": 27.319}], "total_pages": 164, "total_results": 3263}, "recommendations": {"page": 1, "results": [{"adult": false, "backdrop_path": null, "genre_ids": [18], "id": 471155, "original_language": "es", "original_title": "Vestido nuevo", "overview": "This is the story of Mario, an 8 year old boy, who comes to his class dressed as a girl.", "poster_path": "/78xe5NUfvb63zZDeWKVVUbit0FF.jpg", "release_date": "2007-10-06", "title": "Vestido nuevo", "video": false, "vote_average": 8.0, "vote_count": 5, "popularity": 1.96}, {"adult": false, "backdrop_path": "/4R6WbxtSeOI9sd6x6XvyvMRQygU.jpg", "genre_ids": [18, 10749], "id": 499802, "original_language": "es", "original_title": "L\u00ednea 9", "overview": "In a city with constant movement like the subway rides, the paths of Andr\u00e9s and Miguel are crossing. It seems like the beginning of a new Romance but Andr\u00e9s doesn't know which direction to take.", "poster_path": "/4mUdPrT5KE9Bb6xoWOnz0epPVhr.jpg", "release_date": "2017-07-09", "title": "Line 9", "video": false, "vote_average": 7.2, "vote_count": 5, "popularity": 1.119}, {"adult": false, "backdrop_path": null, "genre_ids": [], "id": 172539, "original_language": "en", "original_title": "My Uncle Mario", "overview": "A young boy delivers food in the summer vacation for this mother, who has some sort of a restaurant. Suddenly his uncle Mario, who lives in Italy, visits them by surprise. The boy's life changes when he follows his uncle one night to an appointment. After that night things will never be the same.", "poster_path": "/w0q49rCVVVtpt9gR4EuvDEHFgWS.jpg", "release_date": "2004-07-01", "title": "My Uncle Mario", "video": false, "vote_average": 9.2, "vote_count": 5, "popularity": 2.514}, {"adult": false, "backdrop_path": "/nBXCrRYcBb2KUww6gKUKJ1zcOny.jpg", "genre_ids": [18], "id": 177906, "original_language": "he", "original_title": "\u05d5\u05d0\u05d4\u05d1\u05ea", "overview": "Ohad, the protagonist, is serving in the Israel Defense Forces as a Hesder student. He has not told anyone that he is gay. He tries various ways of dealing with the conflict between his religious beliefs and his sexual orientation, including Atzat Nefesh. He is told to spend forty days fasting and repenting to help rid him of his homosexual inclinations. He does this and believes himself to be cured.  After this, his best friend, Nir, returns from leave. Ohed is torn between his homosexuality and his religion. The film deals with the struggles Ohed faces when it comes to loving God and loving Nir.", "poster_path": "/ic32WOiy6yGCygnnI7G600orlU6.jpg", "release_date": "2007-01-01", "title": "And Thou Shalt Love", "video": false, "vote_average": 5.2, "vote_count": 6, "popularity": 1.165}, {"adult": false, "backdrop_path": "/m2gc8a8PWkV5V5SBrVVoxQXQJSE.jpg", "genre_ids": [18], "id": 412199, "original_language": "es", "original_title": "La mujer del animal", "overview": "Colombian director V\u00edctor Gaviria melds stark realism with nail-biting thrills in this story about a teenage girl who is kidnapped and forced into marriage with a ferocious shantytown thug.", "poster_path": "/cTX6hl7gTX6jRkhb4Rat3w18gpc.jpg", "release_date": "2016-05-01", "title": "The Animal's Wife", "video": false, "vote_average": 7.6, "vote_count": 12, "popularity": 1.7}, {"adult": false, "backdrop_path": "/3QDIICROOAMu85KInnL2gWSKgkX.jpg", "genre_ids": [18], "id": 184801, "original_language": "fr", "original_title": "Le silence des \u00e9glises", "overview": "At the age of 12, Gabriel was sexually abused by Father Vincey, his headmaster. Fifteen years later, he is still traumatized. Constantly racked by this wrong that he has kept secret, Gabriel buys a gun and moves in near the boarding school where the priest is still headmaster...", "poster_path": "/twsBOWazG27zbFpkKmqhgdQnI84.jpg", "release_date": "2013-04-10", "title": "Le silence des \u00e9glises", "video": false, "vote_average": 7.1, "vote_count": 7, "popularity": 2.327}, {"adult": false, "backdrop_path": "/hKO2HTNq8LX2LpdLXiQzOfl77Aw.jpg", "genre_ids": [35, 10751], "id": 306562, "original_language": "en", "original_title": "Por mis Bigotes", "overview": "Though it sounds incredible, little Ulises with only nine years old, from one day to another grows an enourmous mustache. This situation, appearing to be ordinary, starts a series of extraordinary events for him, his mother and his best friends. From this moment onward with the company of a bunch of very curious characters they will have to face this hairy adventure.", "poster_path": "/jJfZQIuNBtpMOdIctgyTiwM1pVb.jpg", "release_date": "2014-12-10", "title": "Ulises and the 10,000 moustaches", "video": false, "vote_average": 6.6, "vote_count": 7, "popularity": 3.661}, {"id": 269572, "video": false, "vote_count": 12, "vote_average": 3.3, "title": "Almost Thirty", "release_date": "2013-10-04", "original_language": "es", "original_title": "Casi treinta", "genre_ids": [35], "backdrop_path": "/jwhGFbJIUZHYzaoGnVFVhsGHExw.jpg", "adult": false, "overview": "Hilarious romantic comedy which main essence is based on the maturation process that young people face when entering their thirties. When their options come to settling down and starting a family or pursuing and achieving what they've always dreamed of, even though this could become a risk for their economic and emotional stability.", "poster_path": "/4udSnM84ocWoPx3ApcX8S4ifTDc.jpg", "popularity": 1.293}, {"adult": false, "backdrop_path": null, "genre_ids": [10749], "id": 346638, "original_language": "pt", "original_title": "Antes de Palavras", "overview": "Fragments of the approximation between two boys shows the naive curiosity of Celio for Dario, the assumption of Sofia by this approximation and the previous interest of Dario for Celio.", "poster_path": "/9xrsFlVzJIV1lfCW6hFGGFPDugx.jpg", "release_date": "2013-09-25", "title": "Before Words", "video": false, "vote_average": 6.7, "vote_count": 7, "popularity": 1.676}, {"adult": false, "backdrop_path": null, "genre_ids": [35, 27, 10402], "id": 98209, "original_language": "en", "original_title": "Nudist Colony of the Dead", "overview": "Judge Rhinehole orders the Sunny Buttocks Nudist Camp closed down as an affront to the community. The members of the camp enter into a suicide pact, but vow to return for vengeance. Five years later, a group of campers on a retreat argue with each other about religion and sing big production numbers as the group begins experiencing an attrition problem.", "poster_path": "/cEWo3ccknl4fIbIqgflF5mRujfq.jpg", "release_date": "1991-08-05", "title": "Nudist Colony of the Dead", "video": false, "vote_average": 5.6, "vote_count": 7, "popularity": 2.25}, {"adult": false, "backdrop_path": "/ip6Hx0BUcs8PkDejt2TTFPKmdW7.jpg", "genre_ids": [99], "id": 345661, "original_language": "en", "original_title": "Salam Neighbor", "overview": "Two Americans deliberately head to the edge of war, just seven miles from the Syrian border, to live among 80,000 uprooted refugees in Jordan's Za'atari refugee camp.", "poster_path": "/uJW3RlaXeR8TGtbO5nHqwHfV1am.jpg", "release_date": "2015-06-20", "title": "Salam Neighbor", "video": false, "vote_average": 7.2, "vote_count": 10, "popularity": 2.899}, {"adult": false, "backdrop_path": "/cq2L6uo2fpUJUXkrnY8wQ7A3mkA.jpg", "genre_ids": [18], "id": 228302, "original_language": "fr", "original_title": "13 ans", "overview": "Jonathan is in love with Julie, the most beautiful girl of his school... However, Julie doesn't even know him. He becomes friend with Charles, Julie's brother. One day, he sneaks in Julie's room to steal her diary. Back home, he finds in the diary a drawn heart, with the quote \"I love Jonathan\"... Back to his new friend Charles' home, he realizes that the diary belongs to Charles, himself...", "poster_path": "/oAPya6oHqitViceuUVKViRqvUVx.jpg", "release_date": "2008-02-04", "title": "My 13", "video": false, "vote_average": 9.3, "vote_count": 7, "popularity": 1.208}, {"adult": false, "backdrop_path": "/2RVXBt0DwStN4LP56V2XxIHkdnU.jpg", "genre_ids": [18], "id": 337101, "original_language": "es", "original_title": "El bosque de Karadima", "overview": "Based on true events, involving powerful Catholic priest Fernando Karadima, who committed crimes of child abuse and pedophile between 1980's-2000's. The struggle of his victims, to be able to reveal the truth and look for justice.", "poster_path": "/xjmipY93H5HRk4BS79cDSYpGTRu.jpg", "release_date": "2015-04-23", "title": "Karadima Forest", "video": false, "vote_average": 7.5, "vote_count": 15, "popularity": 1.925}, {"adult": false, "backdrop_path": null, "genre_ids": [9648, 80, 18, 10770], "id": 295237, "original_language": "en", "original_title": "The Assault", "overview": "After a cheerleader is sexually assaulted by the high school football team, she must overcome her shame and use the evidence gathered from the subsequent social media firestorm to piece together the night that she can't remember in her fight for justice. Based on the true story of the Steubenville, Ohio rape case.", "poster_path": "/mAjxnYo5bnNuFMjyJptTqy7yXyK.jpg", "release_date": "2014-09-20", "title": "The Assault", "video": false, "vote_average": 6.5, "vote_count": 10, "popularity": 4.439}, {"adult": false, "backdrop_path": "/ifpif7Iqdk1YNs8mUPAO3XLpWIv.jpg", "genre_ids": [10749], "id": 400001, "original_language": "es", "original_title": "Tr\u00e9mulo", "overview": "Carlos sweeps and mops the floor of an old-time barbershop. The day before Independence Day, among the customers is Julio. Their eyes meet, and when the barbershop closes Julio comes back for Carlos. They spend the night together, eating, chatting and even dancing, knowing full well that this encounter will be brief and short-lived.", "poster_path": "/aEE1PjQHjAs3t3lTsHWWNDlbwDQ.jpg", "release_date": "2015-03-08", "title": "Tr\u00e9mulo", "video": false, "vote_average": 7.4, "vote_count": 19, "popularity": 2.973}, {"id": 430448, "video": false, "vote_count": 39, "vote_average": 6.4, "title": "I Am Jane Doe", "release_date": "2017-02-10", "original_language": "en", "original_title": "I Am Jane Doe", "genre_ids": [80, 99], "backdrop_path": "/bGDr4FcQzzcWlJEPVdUosZTxMCv.jpg", "adult": false, "overview": "Chronicles the epic battle that several American mothers are waging on behalf of their middle-school daughters, victims of sex-trafficking on Backpage.com, the adult classifieds section that for years was part of the Village Voice.", "poster_path": "/cQw2jh60Ey3zY90B8965JRclKQ2.jpg", "popularity": 5.98}, {"adult": false, "backdrop_path": null, "genre_ids": [99], "id": 344900, "original_language": "en", "original_title": "Oriented", "overview": "Documentary of three gay men living in the Palestine-Israel region trade reflections on their situation and that of the region they live.", "poster_path": "/6H2Yrh8oJsqHktVgft3jHNnF83X.jpg", "release_date": "2015-06-06", "title": "Oriented", "video": false, "vote_average": 5.3, "vote_count": 13, "popularity": 3.528}, {"adult": false, "backdrop_path": "/bm9cdqkmvsbNhIuxhDtrhbQ7UaQ.jpg", "genre_ids": [18, 53, 9648], "id": 231242, "original_language": "en", "original_title": "Taken: The Search for Sophie Parker", "overview": "After her daughter is abducted in Russia, an NYPD detective goes out of her way to find and save her.", "poster_path": "/4Ydywqdlx9Vu7t9rtqHpuAWoXhv.jpg", "release_date": "2013-09-21", "title": "Taken: The Search for Sophie Parker", "video": false, "vote_average": 5.1, "vote_count": 12, "popularity": 3.281}, {"id": 395940, "video": false, "vote_count": 18, "vote_average": 8.3, "title": "For My Brother", "release_date": "2014-12-08", "original_language": "da", "original_title": "For Min Brors Skyld", "genre_ids": [18], "backdrop_path": "/oD8xZChOxvUfRyV1kVhJvZff2Tw.jpg", "adult": false, "overview": "The two brothers Aske and Bastian live with their father, Lasse, in a world of fear, violence and alcohol but the brothers' strong and close relationship means everything. Aske must serve his father's sexual needs, as well as paying customers and his father's friend, Hans. Aske tries everything to keep his little brother out of it all so that he won't experience the same as himself. But one day Bastian is abused by their father. The brothers choose to move to Norway, far away in the beautiful mountains. Their friendship outshines everything! They are together and far away from their evil father...", "poster_path": "/xm9YypsAZkZUqp8GIPsGKiOk7nE.jpg", "popularity": 5.725}, {"id": 329687, "video": false, "vote_count": 19, "vote_average": 7.3, "title": "Sara", "release_date": "2014-11-21", "original_language": "cn", "original_title": "\u96db\u5993", "genre_ids": [18], "backdrop_path": "/2e5amtYBtPYtdUkEjQqOqp9fiPI.jpg", "adult": false, "overview": "Journalist Sara has just spent four months completing an in-depth investigation piece. Her editor-in-chief, afraid of offending powerful politicians and business moguls, refuses to run it. Sara\u2019s boyfriend, who works for the same magazine, chooses not to warn her and even sides with the editor-in-chief. In just one moment, Sara is turned off by her work, her love relationship, and even about life.At this low point in her life, Sara exiles herself to Chiang Mai, Thailand. One evening, while at a bar, Sara meets child prostitute Dok-My. During her time getting to know Dok-My and through the process of rescuing her, Sara becomes haunted by the memories of her own past\u2026", "poster_path": "/2cacos6D9vJKmTQg784VqlR2m1d.jpg", "popularity": 4.988}], "total_pages": 2, "total_results": 23}, "credits": {"cast": [{"cast_id": 1, "character": "Justin Petersen", "credit_id": "52fe46adc3a368484e09db5d", "gender": 2, "id": 65838, "name": "Jeremy Sumpter", "order": 0, "profile_path": "/tGztsn5Ir54Wh9Tg4yjOg4i46qx.jpg"}, {"cast_id": 2, "character": "Amy", "credit_id": "52fe46adc3a368484e09db61", "gender": 1, "id": 116882, "name": "Lyndsy Fonseca", "order": 1, "profile_path": "/3d3MkcCmo3Ssf65xFpnXQRyfWcc.jpg"}, {"cast_id": 3, "character": "Richard Peterson", "credit_id": "52fe46adc3a368484e09db65", "gender": 0, "id": 206188, "name": "John Robinson", "order": 2, "profile_path": null}, {"cast_id": 4, "character": "Diane Petersen", "credit_id": "52fe46adc3a368484e09db69", "gender": 1, "id": 6473, "name": "Kelly Lynch", "order": 3, "profile_path": "/tVzDmFjVOCsHqS71asdW84Zfrhc.jpg"}, {"cast_id": 5, "character": "Beth", "credit_id": "52fe46adc3a368484e09db6d", "gender": 0, "id": 115665, "name": "Briony Glassco", "order": 4, "profile_path": "/gnrbMFwCREQzVfKdzZ5Nf3Mryhz.jpg"}, {"cast_id": 7, "character": "Nolan Mitchell", "credit_id": "5a0851df9251414c19017210", "gender": 2, "id": 168751, "name": "Michael Seater", "order": 5, "profile_path": "/eo1PthY0fPCbgcFQmrGOYaTCJ27.jpg"}], "crew": [{"credit_id": "538b31d9c3a368714e000f07", "department": "Directing", "gender": 2, "id": 63550, "job": "Director", "name": "Tom McLoughlin", "profile_path": "/p9H02MZsKos8I9RREyeMty89oGN.jpg"}]}}