{"adult": false, "backdrop_path": "/cUvmDlnRxpeWuy5Z6F2oXodiDZW.jpg", "belongs_to_collection": null, "budget": 0, "genres": [{"id": 99, "name": "Documentary"}], "homepage": "http://www.bbc.co.uk/programmes/b007clvf", "id": 63581, "imdb_id": "tt1000764", "original_language": "en", "original_title": "Louis Theroux: The Most Hated Family in America", "overview": "Louis meets the Phelps family \u2014 the people at the heart of the controversial Westboro Baptist Church. The Phelps have rabid anti-homosexual beliefs, and often campaign at the funerals of American soldiers. They believe that every tragedy in the world is God's punishment for homosexuality.", "popularity": 6.458, "poster_path": "/skdJKECKh77w3rt9QgeBTipw9ul.jpg", "production_companies": [{"id": 3324, "logo_path": "/16fY7pucCzn7WSOYxOGRHlAayL3.png", "name": "BBC", "origin_country": "GB"}], "production_countries": [{"iso_3166_1": "GB", "name": "United Kingdom"}], "release_date": "2007-04-24", "revenue": 0, "runtime": 60, "spoken_languages": [{"iso_639_1": "en", "name": "English"}], "status": "Released", "tagline": "Meet the Westboro Baptist Church", "title": "Louis Theroux: The Most Hated Family in America", "video": false, "vote_average": 7.7, "vote_count": 39, "keywords": {"keywords": [{"id": 3036, "name": "bible"}, {"id": 4108, "name": "protest"}, {"id": 9649, "name": "god"}, {"id": 10180, "name": "homosexuality"}, {"id": 10182, "name": "southern baptist"}, {"id": 10867, "name": "biblical code"}, {"id": 11110, "name": "dead soldier"}]}, "similar": {"page": 1, "results": [{"id": 21634, "video": false, "vote_count": 250, "vote_average": 7.9, "title": "Prayers for Bobby", "release_date": "2009-02-27", "original_language": "en", "original_title": "Prayers for Bobby", "genre_ids": [18, 36, 10770], "backdrop_path": "/pSjGsbqyKUzF8rHzL0vtVWV1pS6.jpg", "adult": false, "overview": "Bobby Griffith was his mother's favorite son, the perfect all-American boy growing up under deeply religious influences in Walnut Creek, California. Bobby was also gay. Struggling with a conflict no one knew of much less understood Bobby finally came out to his family.", "poster_path": "/d9TGJxEMkLTEF5lWAx1PLNDNpA0.jpg", "popularity": 11.874}, {"adult": false, "backdrop_path": "/qbrmEfBEcdrzHSAHgazJWmz3TSU.jpg", "genre_ids": [18], "id": 616229, "original_language": "en", "original_title": "The Male Gaze: The Heat of the Night", "overview": "When darkness falls, temperatures rise in these six stories about late night confessions, intimacy for sale, high speed hookups and full moon frissons. But when the sun comes up and reality reveals itself, will it have all been worth it?", "poster_path": "/e1gNLO829rkE73sBJ3aClZJHNXd.jpg", "release_date": "2019-07-15", "title": "The Male Gaze: The Heat of the Night", "video": false, "vote_average": 3.3, "vote_count": 3, "popularity": 13.056}, {"adult": false, "backdrop_path": "/useuHJQ5HOoEWkAvEjL1FW1sUfe.jpg", "genre_ids": [18], "id": 376867, "original_language": "en", "original_title": "Moonlight", "overview": "The tender, heartbreaking story of a young man\u2019s struggle to find himself, told across three defining chapters in his life as he experiences the ecstasy, pain, and beauty of falling in love, while grappling with his own sexuality.", "poster_path": "/qAwFbszz0kRyTuXmMeKQZCX3Q2O.jpg", "release_date": "2016-10-21", "title": "Moonlight", "video": false, "vote_average": 7.4, "vote_count": 4406, "popularity": 27.348}, {"id": 449176, "video": false, "vote_count": 3690, "vote_average": 8.1, "title": "Love, Simon", "release_date": "2018-02-16", "original_language": "en", "original_title": "Love, Simon", "genre_ids": [35, 18, 10749], "backdrop_path": "/rqMEeajyzSF4PpJtdCB816Iz8Vr.jpg", "adult": false, "overview": "Everyone deserves a great love story. But for seventeen-year old Simon Spier it's a little more complicated: he's yet to tell his family or friends he's gay and he doesn't know the identity of the anonymous classmate he's fallen for online.", "poster_path": "/5YUYg5q7QfC4IoNwNUtiwdiYKPr.jpg", "popularity": 24.849}, {"id": 615, "video": false, "vote_count": 1932, "vote_average": 7.1, "title": "The Passion of the Christ", "release_date": "2004-02-25", "original_language": "en", "original_title": "The Passion of the Christ", "genre_ids": [18], "backdrop_path": "/clVnEHURb8Ot3twaLmf7N1lNym1.jpg", "adult": false, "overview": "A graphic portrayal of the last twelve hours of Jesus of Nazareth's life.", "poster_path": "/oFuLM1EaKhi1WNWiTjQ1HKIZ1Eg.jpg", "popularity": 18.285}, {"id": 424694, "video": false, "vote_count": 9721, "vote_average": 8.0, "title": "Bohemian Rhapsody", "release_date": "2018-10-24", "original_language": "en", "original_title": "Bohemian Rhapsody", "genre_ids": [18, 10402], "backdrop_path": "/93xA62uLd5CwMOAs37eQ7vPc1iV.jpg", "adult": false, "overview": "Singer Freddie Mercury, guitarist Brian May, drummer Roger Taylor and bass guitarist John Deacon take the music world by storm when they form the rock 'n' roll band Queen in 1970. Hit songs become instant classics. When Mercury's increasingly wild lifestyle starts to spiral out of control, Queen soon faces its greatest challenge yet \u2013 finding a way to keep the band together amid the success and excess.", "poster_path": "/lHu1wtNaczFPGFDTrjCSzeLPTKN.jpg", "popularity": 40.186}, {"adult": false, "backdrop_path": "/3Z0GbJ3NKBEbotdHxsllRBKRMmj.jpg", "genre_ids": [18], "id": 472451, "original_language": "en", "original_title": "Boy Erased", "overview": "Jared, the son of a Baptist pastor in a small American town, is outed to his parents at age 19. Jared is faced with an ultimatum: attend a gay conversion therapy program \u2013 or be permanently exiled and shunned by his family, friends, and faith.", "poster_path": "/oZbhTdi0ZQY7iiSQ0L7h3ya6NDF.jpg", "release_date": "2018-09-24", "title": "Boy Erased", "video": false, "vote_average": 7.2, "vote_count": 653, "popularity": 13.81}, {"id": 205596, "video": false, "vote_count": 11343, "vote_average": 8.1, "title": "The Imitation Game", "release_date": "2014-11-14", "original_language": "en", "original_title": "The Imitation Game", "genre_ids": [18, 36, 53, 10752], "backdrop_path": "/qcb6z1HpokTOKdjqDTsnjJk0Xvg.jpg", "adult": false, "overview": "Based on the real life story of legendary cryptanalyst Alan Turing, the film portrays the nail-biting race against time by Turing and his brilliant team of code-breakers at Britain's top-secret Government Code and Cypher School at Bletchley Park, during the darkest days of World War II.", "poster_path": "/noUp0XOqIcmgefRnRZa1nhtRvWO.jpg", "popularity": 40.743}, {"adult": false, "backdrop_path": "/4BMel8xxSed1pCkPSGc9R3jsUtC.jpg", "genre_ids": [18, 10749], "id": 142, "original_language": "en", "original_title": "Brokeback Mountain", "overview": "Two modern-day cowboys meet on a shepherding job in the summer of '63, the two share a raw and powerful summer together that turns into a lifelong relationship conflicting with the lives they are supposed to live.", "poster_path": "/z2DqVxj17aW6xpimRlCLfhKSfUm.jpg", "release_date": "2005-09-10", "title": "Brokeback Mountain", "video": false, "vote_average": 7.8, "vote_count": 3787, "popularity": 19.947}, {"id": 310, "video": false, "vote_count": 6933, "vote_average": 6.6, "title": "Bruce Almighty", "release_date": "2003-05-23", "original_language": "en", "original_title": "Bruce Almighty", "genre_ids": [35, 14], "backdrop_path": "/bhEudqWbWsiEBdnl0kCIwFp5Hay.jpg", "adult": false, "overview": "Bruce Nolan toils as a 'human interest' television reporter in Buffalo, N.Y., but despite his high ratings and the love of his beautiful girlfriend, Bruce remains unfulfilled. At the end of the worst day in his life, he angrily ridicules God\u2014and the Almighty responds, endowing Bruce with all of His divine powers.", "poster_path": "/lgYKHifMMLT8OxYObMKa8b4STsr.jpg", "popularity": 33.694}, {"id": 84892, "video": false, "vote_count": 6548, "vote_average": 7.7, "title": "The Perks of Being a Wallflower", "release_date": "2012-09-20", "original_language": "en", "original_title": "The Perks of Being a Wallflower", "genre_ids": [18], "backdrop_path": "/uhLcaTPeBpUNgYhZXhDWkj7gMkp.jpg", "adult": false, "overview": "15-year-old freshman Charlie is a wallflower, always watching life from the sidelines, until two charismatic senior students become his mentors. Free-spirited Sam and her stepbrother Patrick help Charlie discover the joys of friendship, first love, music and more, while a teacher sparks Charlie's dreams of becoming a writer.", "poster_path": "/cyNQLnHnXZcTUDXVVSEYmquOTOI.jpg", "popularity": 19.873}, {"adult": false, "backdrop_path": "/gZeJziVigmRqbkEZwKAtSqlLQ6s.jpg", "genre_ids": [18, 10749], "id": 370663, "original_language": "en", "original_title": "Below Her Mouth", "overview": "An unexpected affair quickly escalates into a heart-stopping reality for two women whose passionate connection changes their lives forever.", "poster_path": "/nTGbq37hYLuNy7YgMg0gVLma0NS.jpg", "release_date": "2016-09-10", "title": "Below Her Mouth", "video": false, "vote_average": 6.2, "vote_count": 456, "popularity": 22.676}, {"adult": false, "backdrop_path": "/xhstSJACJF7QiO4zAsqAPXE1PbQ.jpg", "genre_ids": [18], "id": 306819, "original_language": "en", "original_title": "The Danish Girl", "overview": "When Gerda Wegener asks her husband Einar to fill in as a portrait model, Einar discovers the person she's meant to be and begins living her life as Lili Elbe. Having realized her true self and with Gerda's love and support, Lili embarks on a groundbreaking journey as a transgender pioneer.", "poster_path": "/seWQ6UKCrhGH0eP7dFZvmIBQtKF.jpg", "release_date": "2015-11-27", "title": "The Danish Girl", "video": false, "vote_average": 7.7, "vote_count": 4034, "popularity": 14.603}, {"id": 474392, "video": false, "vote_count": 88, "vote_average": 5.3, "title": "Samson", "release_date": "2018-02-16", "original_language": "en", "original_title": "Samson", "genre_ids": [28, 12, 18], "backdrop_path": "/yR6952VuJ2OchliEj0vyRxFZiBT.jpg", "adult": false, "overview": "After losing the love of his life to a cruel Philistine prince, a young Hebrew with Supernatural strength defends his people, sacrificing everything to avenge his love, his people, and his God.", "poster_path": "/v7Zaj1IEzMMB7KzfglpxdXWB66u.jpg", "popularity": 15.598}, {"adult": false, "backdrop_path": "/t3Oea7KbSpOvuqddMnlFtZ4WHn.jpg", "genre_ids": [18, 53, 36], "id": 314365, "original_language": "en", "original_title": "Spotlight", "overview": "In 2001, editor Marty Baron of The Boston Globe assigns a team of journalists to investigate allegations against John Geoghan, an unfrocked priest accused of molesting more than 80 boys. Led by editor Walter \"Robby\" Robinson, reporters Michael Rezendes, Matt Carroll and Sacha Pfeiffer interview victims and try to unseal sensitive documents. The reporters make it their mission to provide proof of a cover-up of sexual abuse within the Roman Catholic Church.", "poster_path": "/ngKxbvsn9Si5TYVJfi1EGAGwThU.jpg", "release_date": "2015-11-06", "title": "Spotlight", "video": false, "vote_average": 7.8, "vote_count": 5408, "popularity": 22.049}, {"id": 9800, "video": false, "vote_count": 2301, "vote_average": 7.7, "title": "Philadelphia", "release_date": "1993-12-22", "original_language": "en", "original_title": "Philadelphia", "genre_ids": [18], "backdrop_path": "/eRlkgrUeaX8LsVMjqN9f6YYw9Dw.jpg", "adult": false, "overview": "Two competing lawyers join forces to sue a prestigious law firm for AIDS discrimination. As their unlikely friendship develops their courage overcomes the prejudice and corruption of their powerful adversaries.", "poster_path": "/nE9DLSKHDmfG7FvYvDW437n8txq.jpg", "popularity": 14.464}, {"adult": false, "backdrop_path": "/cLOekK7EmHB1beYUYEXIlcr6mpS.jpg", "genre_ids": [10752, 36, 28, 12, 18, 10749], "id": 1966, "original_language": "en", "original_title": "Alexander", "overview": "Alexander, the King of Macedonia, leads his legions against the giant Persian Empire. After defeating the Persians, he leads his army across the then known world, venturing farther than any westerner had ever gone, all the way to India.", "poster_path": "/cJrnmbsFm5cEt0pHZZ2a1ueH5aT.jpg", "release_date": "2004-11-21", "title": "Alexander", "video": false, "vote_average": 5.8, "vote_count": 1987, "popularity": 24.267}, {"id": 490132, "video": false, "vote_count": 5172, "vote_average": 8.3, "title": "Green Book", "release_date": "2018-11-16", "original_language": "en", "original_title": "Green Book", "genre_ids": [35, 18], "backdrop_path": "/78PjwaykLY2QqhMfWRDvmfbC6EV.jpg", "adult": false, "overview": "Tony Lip, a bouncer in 1962, is hired to drive pianist Don Shirley on a tour through the Deep South in the days when African Americans, forced to find alternate accommodations and services due to segregation laws below the Mason-Dixon Line, relied on a guide called The Negro Motorist Green Book.", "poster_path": "/7BsvSuDQuoqhWmU2fL7W2GOcZHU.jpg", "popularity": 35.522}, {"id": 86834, "video": false, "vote_count": 4274, "vote_average": 5.6, "title": "Noah", "release_date": "2014-03-07", "original_language": "en", "original_title": "Noah", "genre_ids": [12, 18], "backdrop_path": "/jnoJgpITphPoqA3e7JnNC4mtAVX.jpg", "adult": false, "overview": "A man who suffers visions of an apocalyptic deluge takes measures to protect his family from the coming flood.", "poster_path": "/5wioUjzwr91fvq7ydunxK2CPSxi.jpg", "popularity": 13.337}, {"id": 9946, "video": false, "vote_count": 931, "vote_average": 5.7, "title": "End of Days", "release_date": "1999-11-24", "original_language": "en", "original_title": "End of Days", "genre_ids": [28, 14, 27, 9648], "backdrop_path": "/q5KcZBMc4Vs5SQelnSdY3ICm56M.jpg", "adult": false, "overview": "On 28 December 1999, the citizens of New York City are getting ready for the turn of the millennium. However, the Devil decides to crash the party by coming to the city, inhabiting a man's body, and searching for his chosen bride\u2014a 20-year-old woman named Christine York. The world will end, and the only hope lies within an atheist named Jericho Cane.", "poster_path": "/bEIjH6GroeWaBkn6o7MVpMNbuyw.jpg", "popularity": 23.346}], "total_pages": 41, "total_results": 816}, "recommendations": {"page": 1, "results": [{"adult": false, "backdrop_path": "/zO79vHOkrUtSWeJbu194vrT8o3F.jpg", "genre_ids": [99], "id": 206953, "original_language": "en", "original_title": "Louis Theroux: America's Most Hated Family in Crisis", "overview": "Following up on his 2007 documentary, The Most Hated Family in America, Louis Theroux returns to Topeka, Kansas, for a week-long visit with the Westboro Baptist Church. He again joins the Phelps family on their controversial pickets where they try to antagonise communities with offensive slogans and anti-gay placards. But four years on from Louis's last visit, there are signs of disarray in the Phelps clan. A series of defections of family members has shaken up the church.", "poster_path": "/y6BmTusIQbriwaDJ0YytOGJcNwk.jpg", "release_date": "2011-08-14", "title": "Louis Theroux: America's Most Hated Family in Crisis", "video": false, "vote_average": 7.5, "vote_count": 31, "popularity": 3.938}, {"adult": false, "backdrop_path": "/drAmNS4zSy8fOot0Iko4HsSUqT1.jpg", "genre_ids": [99], "id": 112722, "original_language": "en", "original_title": "Louis Theroux: Behind Bars", "overview": "For two weeks, Theroux visits the San Quentin State Prison.", "poster_path": "/uCafR0HPLhNIzM6244Aue7SFgx0.jpg", "release_date": "2008-01-13", "title": "Louis Theroux: Behind Bars", "video": false, "vote_average": 7.6, "vote_count": 23, "popularity": 3.741}, {"adult": false, "backdrop_path": "/dDUbm9rNF0CkulMEU2kK61VXBSN.jpg", "genre_ids": [99], "id": 115189, "original_language": "en", "original_title": "Louis Theroux: Twilight of the Porn Stars", "overview": "In 1997, Louis Theroux made a documentary about the world of male porn performers in Los Angeles. 15 years later, he returns to find a business struggling with the deluge of free porn on the internet. Louis revisits some of the original programme's contributors as well as meeting the latest crop of porn performers dreaming of porn stardom.", "poster_path": "/thzHHzTrxyJvF4ksswkYraEzZbp.jpg", "release_date": "2012-06-10", "title": "Louis Theroux: Twilight of the Porn Stars", "video": false, "vote_average": 7.1, "vote_count": 17, "popularity": 4.65}, {"adult": false, "backdrop_path": "/tZC8bvuWzJPsIEM8qc1OGOBr6vZ.jpg", "genre_ids": [], "id": 171711, "original_language": "en", "original_title": "Louis Theroux: Louis and the Nazis", "overview": "Louis Theroux travels to California to meet the man dubbed \"the most dangerous racist in America\"; Tom Metzger. Louis meets him, his family and his publicity manager as well as following him to skinhead rallies and on a visit to Mexico.", "poster_path": "/hAbfo5g86qTR30C83wMitGhAH0n.jpg", "release_date": "2003-12-21", "title": "Louis Theroux: Louis and the Nazis", "video": false, "vote_average": 7.5, "vote_count": 23, "popularity": 2.791}, {"adult": false, "backdrop_path": "/fyEfsZAL18dgaOUYlOwgu8vcZvD.jpg", "genre_ids": [99], "id": 68208, "original_language": "en", "original_title": "Louis Theroux: A Place for Paedophiles", "overview": "Louis has gained access to Coalinga Mental Hospital in California, which houses more than 500 of the most disturbed criminals in America, convicted paedophiles. Most have already served lengthy prison sentences, but have been deemed unsafe for release. Instead, they have been sent here for an indefinite time. Spending time with those undergoing treatment, Louis wrestles with whether he can ever allow himself to believe men whose whole history is defined by deception and deceit.", "poster_path": "/ao6VlULmdX8cTTE8D5ggTv4eCdT.jpg", "release_date": "2009-07-07", "title": "Louis Theroux: A Place for Paedophiles", "video": false, "vote_average": 7.1, "vote_count": 29, "popularity": 2.848}, {"adult": false, "backdrop_path": "/j91CRYLq2ijcrGJxfO33y0Cg6lT.jpg", "genre_ids": [99], "id": 143481, "original_language": "en", "original_title": "Louis Theroux: Louis and the Brothel", "overview": "Louis stays with the residents of a soon to open brothel in Nevada for a few weeks.", "poster_path": "/zuHzrqDqnyHN1DUIp3VJfWFPhp9.jpg", "release_date": "2003-11-09", "title": "Louis Theroux: Louis and the Brothel", "video": false, "vote_average": 7.6, "vote_count": 21, "popularity": 3.202}, {"adult": false, "backdrop_path": "/sbm2x1UcN2LZY3BK5ooSx1TMgIc.jpg", "genre_ids": [99], "id": 210250, "original_language": "en", "original_title": "Louis Theroux: Gambling in Las Vegas", "overview": "Louis heads to Las Vegas, to reveal the world behind the myths of casino culture. Among the people he meets are two of the casino's 'high-rollers' and an employee who looks after them as well as a retired doctor who says she has gambled away $4million in seven years.", "poster_path": "/zIZdhYh2oot1SZPeRUl7S2cJlks.jpg", "release_date": "2007-02-20", "title": "Louis Theroux: Gambling in Las Vegas", "video": false, "vote_average": 6.8, "vote_count": 19, "popularity": 1.997}, {"adult": false, "backdrop_path": "/mqOLQYTy2nF4Br0tQm3PY9PhQbq.jpg", "genre_ids": [], "id": 241619, "original_language": "en", "original_title": "Louis Theroux: Law and Disorder in Philadelphia", "overview": "Louis visits on of America\u2019s most crime-ridden cities in this installment of Law and Disorder.", "poster_path": "/pKPdy9KnsteQjmxF5SXsQicsVnx.jpg", "release_date": "2008-10-30", "title": "Louis Theroux: Law and Disorder in Philadelphia", "video": false, "vote_average": 7.5, "vote_count": 17, "popularity": 1.547}, {"adult": false, "backdrop_path": "/eCGalPRsOWdlhdEycp7GYc9eViZ.jpg", "genre_ids": [99], "id": 68213, "original_language": "en", "original_title": "Louis Theroux: America's Medicated Kids", "overview": "Faced with the challenging behaviour of their kids, more and more parents in America are turning to psychoactive medication to help them cope, even though the drugs, and sometimes the diagnoses, remain controversial. Louis travels to one of America's leading children's psychiatric treatment centres, in Pittsburgh, Pennsylvania, to get to know the diagnosed children and hoping to understand what drives parents to put their kids on drugs.", "poster_path": "/6YSYj6zTRSoAX500yoXvmUp1L1W.jpg", "release_date": "2010-04-18", "title": "Louis Theroux: America's Medicated Kids", "video": false, "vote_average": 7.0, "vote_count": 23, "popularity": 4.761}, {"adult": false, "backdrop_path": "/vE05Ag5WWODFMO8kbGfxFmvLouf.jpg", "genre_ids": [99], "id": 238997, "original_language": "en", "original_title": "Louis Theroux: America's Most Dangerous Pets", "overview": "The programme follows Theroux as he travels to the United States to meet people who own animals normally found in Africa and Asia, including big cats and dangerous primates. In the programme, Theroux visits GW Exotic Animal Foundation in Oklahoma.", "poster_path": "/cgpnsSOtqJsym0YdiWiY3O10c9c.jpg", "release_date": "2011-10-30", "title": "Louis Theroux: America's Most Dangerous Pets", "video": false, "vote_average": 7.4, "vote_count": 9, "popularity": 1.605}, {"adult": false, "backdrop_path": "/hvIe4BYq5phLl62yfQQeoKrW1DN.jpg", "genre_ids": [99], "id": 68363, "original_language": "en", "original_title": "Louis Theroux: The City Addicted to Crystal Meth", "overview": "Join Louis Theroux as he investigates the affect crystal meth addiction is having on the local community of Fresno in California's Central Valley.", "poster_path": "/pPqjFBBR0ubZwsCBxOURxjewOnj.jpg", "release_date": "2009-08-09", "title": "Louis Theroux: The City Addicted to Crystal Meth", "video": false, "vote_average": 6.8, "vote_count": 19, "popularity": 3.691}, {"adult": false, "backdrop_path": "/rdtuC9gPPINy0ezoImtEQxB0pHi.jpg", "genre_ids": [10770, 99], "id": 143431, "original_language": "en", "original_title": "Louis Theroux's African Hunting Holiday", "overview": "Louis goes to South Africa where American tourists pay to hunt wild animals in privately owned reserves.", "poster_path": "/ekIEKxGLHxG1m3sfBV4f7KSQwlJ.jpg", "release_date": "2008-04-06", "title": "Louis Theroux's African Hunting Holiday", "video": false, "vote_average": 7.2, "vote_count": 15, "popularity": 2.814}, {"adult": false, "backdrop_path": "/quufvfshE1BqbEDdaDHfToIjazZ.jpg", "genre_ids": [99], "id": 182979, "original_language": "en", "original_title": "Louis Theroux: Under the Knife", "overview": "Louis Theroux: Under the Knife is a TV documentary written and presented by Louis Theroux about the people and doctors involved in plastic surgery operations. Filmed mostly in the USA, in the programme, Louis himself ends up getting liposuction.", "poster_path": "/yncJITIeoJtSh4ELelazplGZ2wd.jpg", "release_date": "2007-10-07", "title": "Louis Theroux: Under the Knife", "video": false, "vote_average": 7.0, "vote_count": 15, "popularity": 3.85}, {"adult": false, "backdrop_path": "/5ayZY1OrSBKXUpcUBsin9ZVUDP4.jpg", "genre_ids": [99], "id": 86522, "original_language": "en", "original_title": "Louis Theroux: The Ultra Zionists", "overview": "Louis Theroux spends time with a small and very committed subculture of ultra-nationalist Jewish settlers. He discovers a group of people who consider it their religious and political obligation to populate some of the most sensitive areas of the West Bank, especially those with a spiritual significance dating back to the Bible.  Throughout his journey, Louis gets close to the people most involved with driving the extreme end of the Jewish settler movement - finding them warm, friendly, humorous, and deeply troubling.", "poster_path": "/hQ0nCQ7WaGCE7zoNVtBdykgfmCH.jpg", "release_date": "2011-02-03", "title": "Louis Theroux: The Ultra Zionists", "video": false, "vote_average": 7.0, "vote_count": 16, "popularity": 2.718}, {"adult": false, "backdrop_path": "/l53Qjvpl3714yGfo4Olg1wZmzcM.jpg", "genre_ids": [99], "id": 394528, "original_language": "en", "original_title": "Louis Theroux: Drinking to Oblivion", "overview": "Louis spends time at King's College Hospital in London where he immerses himself in the lives of patients in the grips of alcohol addiction and the medical staff trying to make them better.", "poster_path": "/vAW09mTq1oF87D1fGrDLuaDQQ7s.jpg", "release_date": "2016-04-24", "title": "Louis Theroux: Drinking to Oblivion", "video": false, "vote_average": 7.5, "vote_count": 10, "popularity": 4.341}, {"adult": false, "backdrop_path": "/zInDharbT6MMQrMLYAggE2zFOCN.jpg", "genre_ids": [], "id": 241620, "original_language": "en", "original_title": "Louis Theroux: Law and Disorder in Johannesburg", "overview": "Louis Theroux travels to Johannesburg, where the residents find themselves increasingly besieged by crime as he looks at the issue of law and disorder.", "poster_path": "/rNdTC0Buhf97At8F1d0FJncMyqH.jpg", "release_date": "2008-12-07", "title": "Louis Theroux: Law and Disorder in Johannesburg", "video": false, "vote_average": 7.4, "vote_count": 15, "popularity": 1.268}, {"adult": false, "backdrop_path": null, "genre_ids": [99], "id": 419147, "original_language": "en", "original_title": "Louis Theroux: Savile", "overview": "Sixteen years after his documentary When Louis Met Jimmy, Theroux seeks to understand how he was tricked by a man who became his friend", "poster_path": "/jgFG8kYRowysMaobz0AiX9adCtw.jpg", "release_date": "2016-10-02", "title": "Louis Theroux: Savile", "video": false, "vote_average": 7.3, "vote_count": 19, "popularity": 4.269}, {"adult": false, "backdrop_path": "/t1bKIuxALc1MHe0Ci9t4qt5hIsE.jpg", "genre_ids": [], "id": 241618, "original_language": "en", "original_title": "Louis Theroux: Law and Disorder in Lagos", "overview": "In the fourth installment of his Law and Disorder series, Louis goes to through Lagos, Nigeria, and follows the KAI (Kick Against Indiscipline) task force and union leader MC as well as other gang members.", "poster_path": "/98VsTTEhY3jZ75EwNK0sJesodV8.jpg", "release_date": "2010-10-10", "title": "Louis Theroux: Law and Disorder in Lagos", "video": false, "vote_average": 7.1, "vote_count": 11, "popularity": 1.681}, {"id": 334534, "video": false, "vote_count": 9, "vote_average": 7.1, "title": "Louis Theroux: Transgender Kids", "release_date": "2015-04-05", "original_language": "en", "original_title": "Louis Theroux: Transgender Kids", "genre_ids": [99], "backdrop_path": "/y6MOnabPnWUmfWbBJVvW2PlSEvO.jpg", "adult": false, "overview": "Louis Theroux travels to San Francisco where a group of pioneering medical professionals help children who say they were born in the wrong body transition from boy to girl or girl to boy at ever younger ages.", "poster_path": "/wfUR10PlKdll7UfNYL7AmOEp8bH.jpg", "popularity": 4.16}, {"adult": false, "backdrop_path": "/zYwxisLdF80B1lNGx1mqbwAkAco.jpg", "genre_ids": [99], "id": 26818, "original_language": "en", "original_title": "Searching for the Wrong-Eyed Jesus", "overview": "A captivating and compelling road trip through the creative spirit of the the South of the USA. Director Andrew Douglas's film follows \"Alt\" Country singer through a gritty terrain of churches, prisons, truck stops, biker bars and coalmines. This journey takes you through a very real contemporary Southern America,a world of marginalized white people and their unique and homemade culture.", "poster_path": "/mXuumBPdDtd2zV2APKfHoWD7vhe.jpg", "release_date": "2003-01-01", "title": "Searching for the Wrong-Eyed Jesus", "video": false, "vote_average": 7.4, "vote_count": 5, "popularity": 2.52}], "total_pages": 2, "total_results": 40}, "credits": {"cast": [{"cast_id": 1001, "character": "Himself - Presenter", "credit_id": "52fe46b2c3a368484e09eb97", "gender": 2, "id": 219396, "name": "Louis Theroux", "order": 0, "profile_path": "/nFW75gibtOMzIJtM6cWMRlR6oXW.jpg"}, {"cast_id": 1002, "character": "Himself", "credit_id": "52fe46b2c3a368484e09eb9b", "gender": 0, "id": 237518, "name": "Fred Phelps", "order": 1, "profile_path": null}], "crew": [{"credit_id": "52fe46b2c3a368484e09eb93", "department": "Directing", "gender": 0, "id": 237517, "job": "Director", "name": "Geoffrey O'Connor", "profile_path": null}, {"credit_id": "532b64a99251416e9f0000b1", "department": "Writing", "gender": 2, "id": 219396, "job": "Writer", "name": "Louis Theroux", "profile_path": "/nFW75gibtOMzIJtM6cWMRlR6oXW.jpg"}, {"credit_id": "532b64c89251416e89000091", "department": "Production", "gender": 0, "id": 237517, "job": "Producer", "name": "Geoffrey O'Connor", "profile_path": null}]}}