{"adult": false, "backdrop_path": "/wG8e9GYAQnz5Jg0j2pfL6T3KNzM.jpg", "belongs_to_collection": null, "budget": 0, "genres": [{"id": 18, "name": "Drama"}], "homepage": null, "id": 63618, "imdb_id": "tt0048291", "original_language": "en", "original_title": "The Left Hand of God", "overview": "A man in priestly robes, seemingly the long-awaited Father O'Shea, arrives at a little-frequented Catholic mission in 1947 China. Though the man seems curiously uncomfortable with his priestly duties, his tough tactics prove very successful in the Seven Villages, as around them China disintegrates in civil war and revolution. But he has a secret, and his friendship with mission nurse Anne (an attractive war widow) seems to be taking on an unpriestly tone.", "popularity": 4.533, "poster_path": "/smrY56mw53AEf7EryjzeyqLZKpS.jpg", "production_companies": [{"id": 25, "logo_path": "/qZCc1lty5FzX30aOCVRBLzaVmcp.png", "name": "20th Century Fox", "origin_country": "US"}], "production_countries": [{"iso_3166_1": "US", "name": "United States of America"}], "release_date": "1955-09-02", "revenue": 0, "runtime": 87, "spoken_languages": [{"iso_639_1": "en", "name": "English"}], "status": "Released", "tagline": "THE STRANGEST COVENANT BETWEEN GOD AND MAN EVER MADE!", "title": "The Left Hand of God", "video": false, "vote_average": 6.3, "vote_count": 14, "keywords": {"keywords": [{"id": 478, "name": "china"}, {"id": 818, "name": "based on novel or book"}, {"id": 10093, "name": "priest"}, {"id": 10364, "name": "mission"}, {"id": 172391, "name": "catholic priest"}]}, "similar": {"page": 1, "results": [{"adult": false, "backdrop_path": "/kiWvoV78Cc3fUwkOHKzyBgVdrDD.jpg", "genre_ids": [37, 18, 12], "id": 281957, "original_language": "en", "original_title": "The Revenant", "overview": "In the 1820s, a frontiersman, Hugh Glass, sets out on a path of vengeance against those who left him for dead after a bear mauling.", "poster_path": "/oXUWEc5i3wYyFnL1Ycu8ppxxPvs.jpg", "release_date": "2015-12-25", "title": "The Revenant", "video": false, "vote_average": 7.5, "vote_count": 12122, "popularity": 30.491}, {"adult": false, "backdrop_path": "/sw7mordbZxgITU877yTpZCud90M.jpg", "genre_ids": [18, 80], "id": 769, "original_language": "en", "original_title": "GoodFellas", "overview": "The true story of Henry Hill, a half-Irish, half-Sicilian Brooklyn kid who is adopted by neighbourhood gangsters at an early age and climbs the ranks of a Mafia family under the guidance of Jimmy Conway.", "poster_path": "/pwpGfTImTGifEGgLb3s6LRPd4I6.jpg", "release_date": "1990-09-12", "title": "GoodFellas", "video": false, "vote_average": 8.4, "vote_count": 6553, "popularity": 33.23}, {"adult": false, "backdrop_path": "/jArl1j9sL2mYjRW23EaZKWAr2E8.jpg", "genre_ids": [18, 36], "id": 399121, "original_language": "fr", "original_title": "J\u2019accuse", "overview": "In 1894, French Captain Alfred Dreyfus is wrongfully convicted of treason and sentenced to life imprisonment at Devil's Island.", "poster_path": "/xMCJhioKlEBoWAJM9aCBKR8J3BT.jpg", "release_date": "2019-09-30", "title": "An Officer and a Spy", "video": false, "vote_average": 7.4, "vote_count": 275, "popularity": 12.138}, {"adult": false, "backdrop_path": "/sRJjliXA7ZqHCr7HCK0ZB83xxjr.jpg", "genre_ids": [12, 28, 878], "id": 101299, "original_language": "en", "original_title": "The Hunger Games: Catching Fire", "overview": "Katniss Everdeen has returned home safe after winning the 74th Annual Hunger Games along with fellow tribute Peeta Mellark. Winning means that they must turn around and leave their family and close friends, embarking on a \"Victor's Tour\" of the districts. Along the way Katniss senses that a rebellion is simmering, but the Capitol is still very much in control as President Snow prepares the 75th Annual Hunger Games (The Quarter Quell) - a competition that could change Panem forever.", "poster_path": "/Hn0KgefVEp0GkdTexS6gfKTMfi.jpg", "release_date": "2013-11-15", "title": "The Hunger Games: Catching Fire", "video": false, "vote_average": 7.4, "vote_count": 12024, "popularity": 30.047}, {"adult": false, "backdrop_path": "/bvbyidkMaBls1LTaIWYY6UmYTaL.jpg", "genre_ids": [28, 878], "id": 336843, "original_language": "en", "original_title": "Maze Runner: The Death Cure", "overview": "Thomas leads his group of escaped Gladers on their final and most dangerous mission yet. To save their friends, they must break into the legendary Last City, a WCKD-controlled labyrinth that may turn out to be the deadliest maze of all. Anyone who makes it out alive will get answers to the questions the Gladers have been asking since they first arrived in the maze.", "poster_path": "/2zYfzA3TBwrMC8tfFbpiTLODde0.jpg", "release_date": "2018-01-10", "title": "Maze Runner: The Death Cure", "video": false, "vote_average": 7.0, "vote_count": 4393, "popularity": 24.242}, {"adult": false, "backdrop_path": "/dLAPTvBwEdP4h7a14isNc0HwmOj.jpg", "genre_ids": [18, 10749], "id": 250734, "original_language": "en", "original_title": "Far from the Madding Crowd", "overview": "Based on the literary classic by Thomas Hardy. Bathsheba Everdene, attracts three very different suitors: Gabriel Oak, a sheep farmer, captivated by her fetching willfulness; Frank Troy, a handsome and reckless Sergeant; and William Boldwood, a prosperous and mature bachelor. This timeless story of Bathsheba's choices and passions explores the nature of relationships and love \u2013 as well as the human ability to overcome hardships through resilience and perseverance.", "poster_path": "/6v1DEaO2TZzrqcaGohUf1K7BXkU.jpg", "release_date": "2015-04-23", "title": "Far from the Madding Crowd", "video": false, "vote_average": 7.0, "vote_count": 643, "popularity": 14.468}, {"id": 205775, "video": false, "vote_count": 2361, "vote_average": 6.6, "title": "In the Heart of the Sea", "release_date": "2015-11-20", "original_language": "en", "original_title": "In the Heart of the Sea", "genre_ids": [28, 12, 18, 36, 53], "backdrop_path": "/aZoZ0NglXgiBMToem9HhTAYYamw.jpg", "adult": false, "overview": "In the winter of 1820, the New England whaling ship Essex is assaulted by something no one could believe\u2014a whale of mammoth size and will, and an almost human sense of vengeance.", "poster_path": "/zVmWh0Zfg4UhbvdGI8LQrn1lQZJ.jpg", "popularity": 19.825}, {"id": 75780, "video": false, "vote_count": 4450, "vote_average": 6.4, "title": "Jack Reacher", "release_date": "2012-12-20", "original_language": "en", "original_title": "Jack Reacher", "genre_ids": [28, 80, 18, 53], "backdrop_path": "/ezXodpP429qK0Av89pVNlaXWJkQ.jpg", "adult": false, "overview": "When a gunman takes five lives with six shots, all evidence points to the suspect in custody. On interrogation, the suspect offers up a single note: \"Get Jack Reacher!\" So begins an extraordinary chase for the truth, pitting Jack Reacher against an unexpected enemy, with a skill for violence and a secret to keep.", "poster_path": "/mt0ELw83HIRgaKaDzhsDcIi0RnW.jpg", "popularity": 19.929}, {"id": 457799, "video": false, "vote_count": 1569, "vote_average": 7.0, "title": "Extremely Wicked, Shockingly Evil and Vile", "release_date": "2019-05-02", "original_language": "en", "original_title": "Extremely Wicked, Shockingly Evil and Vile", "genre_ids": [80, 18, 53], "backdrop_path": "/uRoA67sM5vvCI4cplxhl67BTPly.jpg", "adult": false, "overview": "A chronicle of the crimes of Ted Bundy, from the perspective of his longtime girlfriend, Elizabeth Kloepfer, who refused to believe the truth about him for years.", "poster_path": "/zSuJ3r5zr5T26tTxyygHhgkUAIM.jpg", "popularity": 20.961}, {"id": 169917, "video": false, "vote_count": 1811, "vote_average": 6.3, "title": "A Walk Among the Tombstones", "release_date": "2014-09-18", "original_language": "en", "original_title": "A Walk Among the Tombstones", "genre_ids": [80, 18, 9648, 53], "backdrop_path": "/e56QsaJy1weAUukiK2ZmIGVUALF.jpg", "adult": false, "overview": "Private investigator Matthew Scudder is hired by a drug kingpin to find out who kidnapped and murdered his wife.", "poster_path": "/xxe77USOk2tPnq7G4cL42gf1OxQ.jpg", "popularity": 26.185}, {"adult": false, "backdrop_path": "/oh9MdyIu333sC1biBeEgPqgSpVW.jpg", "genre_ids": [18, 10752], "id": 28, "original_language": "en", "original_title": "Apocalypse Now", "overview": "At the height of the Vietnam war, Captain Benjamin Willard is sent on a dangerous mission that, officially, \"does not exist, nor will it ever exist.\" His goal is to locate - and eliminate - a mysterious Green Beret Colonel named Walter Kurtz, who has been leading his personal army on illegal guerrilla missions into enemy territory.", "poster_path": "/jcvJ2xcVWU9Wh0hZAxcs103s8nN.jpg", "release_date": "1979-08-15", "title": "Apocalypse Now", "video": false, "vote_average": 8.3, "vote_count": 4467, "popularity": 27.963}, {"id": 123553, "video": false, "vote_count": 3198, "vote_average": 6.3, "title": "The Mortal Instruments: City of Bones", "release_date": "2013-08-21", "original_language": "en", "original_title": "The Mortal Instruments: City of Bones", "genre_ids": [28, 12, 18, 14, 9648, 10749], "backdrop_path": "/xIisiN3GxiOMpYQOYarzWlgpDNT.jpg", "adult": false, "overview": "In New York City, Clary Fray, a seemingly ordinary teenager, learns that she is descended from a line of Shadowhunters \u2014 half-angel warriors who protect humanity from evil forces. After her mother disappears, Clary joins forces with a group of Shadowhunters and enters Downworld, an alternate realm filled with demons, vampires, and a host of other creatures. Clary and her companions must find and protect an ancient cup that holds the key to her mother's future.", "poster_path": "/xOBuyMuqc5lDNfxz6ipFjrxd38X.jpg", "popularity": 23.503}, {"id": 84892, "video": false, "vote_count": 6548, "vote_average": 7.7, "title": "The Perks of Being a Wallflower", "release_date": "2012-09-20", "original_language": "en", "original_title": "The Perks of Being a Wallflower", "genre_ids": [18], "backdrop_path": "/uhLcaTPeBpUNgYhZXhDWkj7gMkp.jpg", "adult": false, "overview": "15-year-old freshman Charlie is a wallflower, always watching life from the sidelines, until two charismatic senior students become his mentors. Free-spirited Sam and her stepbrother Patrick help Charlie discover the joys of friendship, first love, music and more, while a teacher sparks Charlie's dreams of becoming a writer.", "poster_path": "/cyNQLnHnXZcTUDXVVSEYmquOTOI.jpg", "popularity": 19.873}, {"adult": false, "backdrop_path": "/nEdBHjvRkKwEPD1Ps5A3rRiiLVN.jpg", "genre_ids": [14, 18, 10749], "id": 8966, "original_language": "en", "original_title": "Twilight", "overview": "When Bella Swan moves to a small town in the Pacific Northwest to live with her father, she meets the reclusive Edward Cullen, a mysterious classmate who reveals himself to be a 108-year-old vampire. Despite Edward's repeated cautions, Bella can't help but fall in love with him, a fatal move that endangers her own life when a coven of bloodsuckers try to challenge the Cullen clan.", "poster_path": "/lcMp3AONdNhjYE9MmTtMMTOiRDP.jpg", "release_date": "2008-11-20", "title": "Twilight", "video": false, "vote_average": 6.0, "vote_count": 8146, "popularity": 31.98}, {"id": 369972, "video": false, "vote_count": 2999, "vote_average": 7.1, "title": "First Man", "release_date": "2018-10-11", "original_language": "en", "original_title": "First Man", "genre_ids": [18, 36], "backdrop_path": "/jrudoaXcoLyHRPdolyOGemXgPEs.jpg", "adult": false, "overview": "A look at the life of the astronaut, Neil Armstrong, and the legendary space mission that led him to become the first man to walk on the Moon on July 20, 1969.", "poster_path": "/i91mfvFcPPlaegcbOyjGgiWfZzh.jpg", "popularity": 33.506}, {"id": 470044, "video": false, "vote_count": 909, "vote_average": 8.3, "title": "The Hate U Give", "release_date": "2018-10-19", "original_language": "en", "original_title": "The Hate U Give", "genre_ids": [80, 18], "backdrop_path": "/5AijK8OxcTzuT8z6aEcc3kO96eG.jpg", "adult": false, "overview": "Raised in a poverty-stricken slum, a 16-year-old girl named Starr now attends a suburban prep school. After she witnesses a police officer shoot her unarmed best friend, she's torn between her two very different worlds as she tries to speak her truth.", "poster_path": "/2icwBom0t5nmOuZI9FVXF3gkMK0.jpg", "popularity": 42.192}, {"id": 449176, "video": false, "vote_count": 3690, "vote_average": 8.1, "title": "Love, Simon", "release_date": "2018-02-16", "original_language": "en", "original_title": "Love, Simon", "genre_ids": [35, 18, 10749], "backdrop_path": "/rqMEeajyzSF4PpJtdCB816Iz8Vr.jpg", "adult": false, "overview": "Everyone deserves a great love story. But for seventeen-year old Simon Spier it's a little more complicated: he's yet to tell his family or friends he's gay and he doesn't know the identity of the anonymous classmate he's fallen for online.", "poster_path": "/5YUYg5q7QfC4IoNwNUtiwdiYKPr.jpg", "popularity": 24.849}, {"adult": false, "backdrop_path": "/nb70B4EXuoegiQ0C5N1fNVHIaYc.jpg", "genre_ids": [12, 18, 36, 53, 10752], "id": 5925, "original_language": "en", "original_title": "The Great Escape", "overview": "The Nazis, exasperated at the number of escapes from their prison camps by a relatively small number of Allied prisoners, relocates them to a high-security 'escape-proof' camp to sit out the remainder of the war. Undaunted, the prisoners plan one of the most ambitious escape attempts of World War II. Based on a true story.", "poster_path": "/qhy4HgUqhEbwQ1ekKTv7yEB3b0e.jpg", "release_date": "1963-06-20", "title": "The Great Escape", "video": false, "vote_average": 8.0, "vote_count": 1358, "popularity": 17.61}, {"adult": false, "backdrop_path": "/sG3Du3Ha6rGeSzFfXme1nh8S2Jl.jpg", "genre_ids": [18, 10751, 14, 12], "id": 34584, "original_language": "en", "original_title": "Die unendliche Geschichte", "overview": "While hiding from bullies in his school's attic, a young boy discovers the extraordinary land of Fantasia, through a magical book called The Neverending Story. The book tells the tale of Atreyu, a young warrior who, with the help of a luck dragon named Falkor, must save Fantasia from the destruction of The Nothing.", "poster_path": "/ddYCa91iDXfJCxaqSYzwi2fjfnl.jpg", "release_date": "1984-04-05", "title": "The NeverEnding Story", "video": false, "vote_average": 7.1, "vote_count": 2201, "popularity": 16.928}, {"id": 411728, "video": false, "vote_count": 342, "vote_average": 7.2, "title": "The Professor and the Madman", "release_date": "2019-03-07", "original_language": "en", "original_title": "The Professor and the Madman", "genre_ids": [18, 36, 9648, 53], "backdrop_path": "/zhNfM1CSQqJtIqelwlK9iKtSd9P.jpg", "adult": false, "overview": "Professor James Murray begins work compiling words for the first edition of the Oxford English Dictionary in the mid 19th century, and receives over 10,000 entries from a patient at Broadmoor Criminal Lunatic Asylum, Dr. William Minor.", "poster_path": "/gtGCDLhfjW96qVarwctnuTpGOtD.jpg", "popularity": 14.972}], "total_pages": 421, "total_results": 8407}, "recommendations": {"page": 1, "results": [{"id": 131764, "video": false, "vote_count": 6, "vote_average": 5.4, "title": "Frenchman's Creek", "release_date": "1944-09-20", "original_language": "en", "original_title": "Frenchman's Creek", "genre_ids": [12, 10749], "backdrop_path": "/uuY2UBoBlrDv5AwLpV4pdVYNFpo.jpg", "adult": false, "overview": "An English lady falls madly in love with a French Pirate after he kidnaps her from her ancestral home on the coast of Cornwall.", "poster_path": "/n0pU0U8ZTlQnF6gmgqyPaZb7ubD.jpg", "popularity": 2.6}, {"id": 43852, "video": false, "vote_count": 13, "vote_average": 6.1, "title": "The Drum", "release_date": "1938-09-29", "original_language": "en", "original_title": "The Drum", "genre_ids": [12, 10752], "backdrop_path": "/aqoYZniUPLOZPN259W4h1Rd3bOU.jpg", "adult": false, "overview": "Set in the India of the British Raj, the evil and untrustworthy Prince Guhl (Raymond Massey) plans to wipe out the British troops as they enjoy the hospitality of Guhl's spacious palace. It's up to the loyal young Prince Azim (Sabu) to warn the troops of Guhl's treachery by tapping out a message on his drum.", "poster_path": "/7Opkwzeohwz2II4nMvYvbSqucFj.jpg", "popularity": 2.84}, {"id": 51601, "video": false, "vote_count": 8, "vote_average": 6.5, "title": "San Quentin", "release_date": "1937-05-24", "original_language": "en", "original_title": "San Quentin", "genre_ids": [28, 18], "backdrop_path": "/ja4r8yQ2W5iOHXeWZJ5uCkVvp86.jpg", "adult": false, "overview": "Ex-Army officer Jameson takes a job a prison guard at San Quentin. Joe, the brother of his new girlfriend May, is sentenced to the prison for robbery. When Jameson tries to separate lawbreakers from hardened criminals, badguy Hansen tries to stir up trouble by telling Joe about Jameson's interest in his sister.", "poster_path": "/lXRZYZYj31naoTDNbE6tQZN6nVV.jpg", "popularity": 4.381}, {"adult": false, "backdrop_path": "/3QYUIyigGHLa3p7MefUSUe2btyd.jpg", "genre_ids": [878, 12, 27], "id": 89662, "original_language": "en", "original_title": "Curse of the Faceless Man", "overview": "A stone-encrusted body is unearthed at Pompeii, and people left alone with it keep dying of crushed skulls...", "poster_path": "/spOquowSZMTt1Jj5KNFHUU8WuOV.jpg", "release_date": "1958-08-14", "title": "Curse of the Faceless Man", "video": false, "vote_average": 6.0, "vote_count": 8, "popularity": 3.298}, {"adult": false, "backdrop_path": "/jgAUQ5IjUGgBwjvySmBBr6TgXOV.jpg", "genre_ids": [18, 35, 80], "id": 296104, "original_language": "en", "original_title": "I Was an Adventuress", "overview": "Posing as the fabulously glamorous Countess Tanya Vronsky, a poor young ballet dancer and her two accomplices are really a team of skilled con artists! They mingle with Europe's high society, always looking for the next wealthy victim to fleece with their fake jewellery scam... Then Tanya meets the dashing young Paul Vernay. At first she wants to rob him. Then she decides she wants to marry him and to leave her criminal past behind her. Her accomplices agree but only if she'll join them in one last, big swindle...", "poster_path": "/sOmLVXeKxeQieJfypa9X4jpQtxH.jpg", "release_date": "1940-05-10", "title": "I Was an Adventuress", "video": false, "vote_average": 5.9, "vote_count": 4, "popularity": 1.557}, {"adult": false, "backdrop_path": "/uMsfvqqglFGLFeRe3QmlpeNUDyr.jpg", "genre_ids": [18, 35, 10749], "id": 72613, "original_language": "en", "original_title": "What Price Glory", "overview": "Two military men, Captain Flagg and Sergeant Quirt, who are rivals to begin with, grow more at odds with each other when Quirt is made Flagg's top sergeant. And when a local beauty comes between them, their rivalry escalates even further. But when they discover that the woman has marriage in mind, they now compete to try to avoid marching down the aisle - that is, until they are called upon to march into battle.", "poster_path": "/aHl9LyKWVrs0dGZbduIoV0anC7n.jpg", "release_date": "1952-08-22", "title": "What Price Glory", "video": false, "vote_average": 6.3, "vote_count": 6, "popularity": 3.931}, {"adult": false, "backdrop_path": "/tkXxkvhnVrv7nXJ7y1UQi0P1cqL.jpg", "genre_ids": [27], "id": 43045, "original_language": "en", "original_title": "The Hypnotic Eye", "overview": "A stage hypnotist's (Jacques Bergerac) ugly helper (Allison Hayes) suggests terrible things to spellbound beauties.", "poster_path": "/vxtihIDZiGxvgIT3iIfN2uh3PPy.jpg", "release_date": "1960-02-27", "title": "The Hypnotic Eye", "video": false, "vote_average": 6.2, "vote_count": 10, "popularity": 3.329}, {"adult": false, "backdrop_path": "/u5DurvCHtzAB07hMRBhyhaDUmQn.jpg", "genre_ids": [18], "id": 113843, "original_language": "en", "original_title": "Woman's World", "overview": "Needing to fill the position of general manager of his company, and believing that an executive's wife is crucial to her husband's success, auto industry mogul Gifford brings three couples to New York to size up: Jerry and Carol: he hard-driven and self-reliant, she willing to use her beauty to further her husband's career; Sid and Elizabeth, he ulcer-ridden and torn between achieving success and restoring their troubled marriage, she positive that his job will kill him, but gamely agreeing to play the good wife for the duration; and down-to-earth Bill, whose good-natured Katie fears that his promotion would spell the end of their idyllic familiy existence.", "poster_path": "/cBRWZyvbOSCAQTODb6x5bbEdqT9.jpg", "release_date": "1954-09-30", "title": "Woman's World", "video": false, "vote_average": 7.9, "vote_count": 7, "popularity": 3.21}, {"adult": false, "backdrop_path": "/iuJcjhaQVYkFuHAlNVVGNlytYjH.jpg", "genre_ids": [80, 18], "id": 118139, "original_language": "en", "original_title": "The Hatchet Man", "overview": "When he's forced to kill his best friend, a Chinese hit man adopts the man's daughter.", "poster_path": "/qgS3KIMO6Ill7t1Ha7hVXeQcs2W.jpg", "release_date": "1932-02-06", "title": "The Hatchet Man", "video": false, "vote_average": 6.4, "vote_count": 4, "popularity": 2.79}, {"adult": false, "backdrop_path": "/rnYXaHwnefCJItAa38xDhNxnMqG.jpg", "genre_ids": [80, 18], "id": 41214, "original_language": "en", "original_title": "Knock on Any Door", "overview": "Bogart plays a crusading lawyer fighting to save a juvenile delinquent charged with murder.", "poster_path": "/753n2DOmgUJcLCdbEwbFkb6eQNr.jpg", "release_date": "1949-01-01", "title": "Knock on Any Door", "video": false, "vote_average": 6.1, "vote_count": 20, "popularity": 4.76}, {"adult": false, "backdrop_path": "/du0NkKLV7BqydXPTeGIHFKu7c2n.jpg", "genre_ids": [18, 10749], "id": 123295, "original_language": "en", "original_title": "My Reputation", "overview": "Tongues begin to wag when a lonely widow becomes romantically involved with a military man. Problems arise when the gossip is filtered down to her own children.", "poster_path": "/i5k8SEkbqaYtnGNabIAeQfyzwOh.jpg", "release_date": "1946-01-26", "title": "My Reputation", "video": false, "vote_average": 7.6, "vote_count": 9, "popularity": 4.201}, {"adult": false, "backdrop_path": "/ajw69lmVwUadclGNMJjT6cvZ9uo.jpg", "genre_ids": [12, 35, 53], "id": 61221, "original_language": "en", "original_title": "13 Frightened Girls", "overview": "While attending a Swiss school for diplomats' daughters, the teenage daughter of the American ambassador uses her access to various embassies to engage in espionage.", "poster_path": "/isFAqTNmxg2DL0iDYYiv8Vf6k3r.jpg", "release_date": "1963-09-11", "title": "13 Frightened Girls", "video": false, "vote_average": 5.8, "vote_count": 8, "popularity": 3.958}, {"adult": false, "backdrop_path": "/6mc6iHxYakoE9ilRttxVqZ4Y8yO.jpg", "genre_ids": [12], "id": 38662, "original_language": "en", "original_title": "The Hurricane Express", "overview": "The Wrecker wrecks trains on the L & R Railroad. One of his victims is Larry Baker's father. Baker wants to find the evildoer, among a host of suspects, but it will be difficult since the Wrecker can disguise himself to look like almost anyone", "poster_path": "/hlEV7CF74V72HVp2ZLW3OUYL3dx.jpg", "release_date": "1932-08-01", "title": "The Hurricane Express", "video": false, "vote_average": 5.6, "vote_count": 7, "popularity": 3.357}, {"id": 35986, "video": false, "vote_count": 10, "vote_average": 6.1, "title": "No Orchids for Miss Blandish", "release_date": "1948-04-13", "original_language": "en", "original_title": "No Orchids for Miss Blandish", "genre_ids": [80], "backdrop_path": "/2uTzDfyWibBTCKz4UNwzHQuVQxh.jpg", "adult": false, "overview": "Filmed in England but set in New York, No Orchids For Miss Blandish tells of a sheltered heiress (Linden Travers) who is abducted on her wedding night by a trio of cheap hoods, in what starts out as a jewel robbery and turns into a kidnapping/murder when one of them (Richard Nielson) kills the bridegroom. More mayhem ensues as the three kidnappers soon end up dead.", "poster_path": "/rUyfnCEmnCLLRmr0VdlUhYoobTX.jpg", "popularity": 4.511}, {"id": 89573, "video": false, "vote_count": 11, "vote_average": 6.3, "title": "Chandu the Magician", "release_date": "1932-09-18", "original_language": "en", "original_title": "Chandu the Magician", "genre_ids": [28, 12, 14, 27, 878, 53], "backdrop_path": "/3bSVI8DWbWL5TJd8jgQhCHZvqlD.jpg", "adult": false, "overview": "When delusional madman Roxor kidnaps a scientist in hopes of using his death ray to achieve world dominance, he is opposed by Chandu, a powerful hypnotist and yogi.", "poster_path": "/ArAFMn5djTWNRV5YN2JniAO4upE.jpg", "popularity": 3.362}, {"adult": false, "backdrop_path": "/qk9pIFlAD1Bg5l95Oh6rzggTQSJ.jpg", "genre_ids": [12, 14, 27, 878], "id": 29570, "original_language": "en", "original_title": "Journey to the Seventh Planet", "overview": "A space expedition to Uranus is menaced by a giant brain that can make illusions come true.", "poster_path": "/teVKcwWifphk2jDzFEuVMJlBiLz.jpg", "release_date": "1962-03-10", "title": "Journey to the Seventh Planet", "video": false, "vote_average": 4.6, "vote_count": 22, "popularity": 3.63}, {"adult": false, "backdrop_path": "/6Xy3D2sNEWSHayoKxwrfTqb4Y14.jpg", "genre_ids": [12, 18], "id": 57993, "original_language": "en", "original_title": "The Mountain", "overview": "Selfish Chris Teller pressures his older brother, a retired climber, to accompany him on a treacherous Alpine climb to loot the bodies of plane crash victims.", "poster_path": "/4gwfOj70puVj9BT6dVwRsWXHd46.jpg", "release_date": "1956-11-14", "title": "The Mountain", "video": false, "vote_average": 7.1, "vote_count": 19, "popularity": 4.366}, {"adult": false, "backdrop_path": "/9p1HR2lRvNJgDl34ZwDD0eLccDc.jpg", "genre_ids": [35, 53], "id": 79693, "original_language": "en", "original_title": "Orders Are Orders", "overview": "Movie company wants to shoot a science-fiction film using an Army barracks as location, and its soldiers as actors. Of course, the Commander doesn't like it a bit, and persuades the crew to use a nearby haunted house instead.", "poster_path": "/VJrcYmmIQDaqZTcpygPdhXFsom.jpg", "release_date": "1954-10-01", "title": "Orders Are Orders", "video": false, "vote_average": 6.9, "vote_count": 5, "popularity": 2.056}, {"id": 44692, "video": false, "vote_count": 14, "vote_average": 5.8, "title": "The Magnetic Monster", "release_date": "1953-02-18", "original_language": "en", "original_title": "The Magnetic Monster", "genre_ids": [878], "backdrop_path": "/pWmn8bgA8hWSDtWFNDXABydkHfK.jpg", "adult": false, "overview": "A young scientist's experiment goes awry when he creates a monster from a radioactive isotope and finds that the creature consumes energy to grow in size and terrorize the nearby town.", "poster_path": "/ffgcz7T7JC9NRfLFxTgmlE48OHw.jpg", "popularity": 4.785}], "total_pages": 1, "total_results": 19}, "credits": {"cast": [{"cast_id": 4, "character": "James 'Jim' Carmody", "credit_id": "52fe46b3c3a368484e09f0ef", "gender": 2, "id": 4110, "name": "Humphrey Bogart", "order": 0, "profile_path": "/pxJrZluJHhbWRo2QXAG99FvXUi7.jpg"}, {"cast_id": 5, "character": "Anne 'Scotty' Scott", "credit_id": "52fe46b3c3a368484e09f0f3", "gender": 1, "id": 20124, "name": "Gene Tierney", "order": 1, "profile_path": "/vaIZ0zvgf9yru5etvxlDwkcpUdf.jpg"}, {"cast_id": 6, "character": "Mieh Yang", "credit_id": "52fe46b3c3a368484e09f0f7", "gender": 2, "id": 5248, "name": "Lee J. Cobb", "order": 2, "profile_path": "/535dOk8eUI97esLMunIXdG58jUu.jpg"}, {"cast_id": 7, "character": "Beryl Sigman", "credit_id": "52fe46b3c3a368484e09f0fb", "gender": 1, "id": 11025, "name": "Agnes Moorehead", "order": 3, "profile_path": "/ajpbxYhFVcpGAGMnux9zCwzRYlo.jpg"}, {"cast_id": 8, "character": "Dr. David Sigman", "credit_id": "52fe46b3c3a368484e09f0ff", "gender": 2, "id": 5249, "name": "E.G. Marshall", "order": 4, "profile_path": "/iQnivIob2OiXuVCepECf72xS2tQ.jpg"}, {"cast_id": 9, "character": "Mary Yin", "credit_id": "52fe46b3c3a368484e09f103", "gender": 1, "id": 120549, "name": "Jean Porter", "order": 5, "profile_path": "/8cv0Ku8xA9eq4rxaVDC8E6BOucu.jpg"}, {"cast_id": 10, "character": "Father Cornelius", "credit_id": "52fe46b3c3a368484e09f107", "gender": 2, "id": 81180, "name": "Carl Benton Reid", "order": 6, "profile_path": "/chrIve3bPl3eBpq0W1J47z1T2lm.jpg"}, {"cast_id": 11, "character": "John Wong", "credit_id": "52fe46b3c3a368484e09f10b", "gender": 2, "id": 82385, "name": "Victor Sen Yung", "order": 7, "profile_path": "/bb96v3LI3reb6ojs6Ac6Mjehg3l.jpg"}, {"cast_id": 12, "character": "Jan Teng", "credit_id": "52fe46b3c3a368484e09f10f", "gender": 2, "id": 95014, "name": "Philip Ahn", "order": 8, "profile_path": "/pVJZ47pTD15MntJUlFe458Mcuhc.jpg"}, {"cast_id": 13, "character": "Chun Tien", "credit_id": "52fe46b3c3a368484e09f113", "gender": 2, "id": 91254, "name": "Benson Fong", "order": 9, "profile_path": "/scGvvWLDaxHwRsNVmDaOzwGAidX.jpg"}], "crew": [{"credit_id": "52fe46b3c3a368484e09f11f", "department": "Camera", "gender": 2, "id": 1940, "job": "Director of Photography", "name": "Franz Planer", "profile_path": null}, {"credit_id": "52fe46b3c3a368484e09f125", "department": "Sound", "gender": 2, "id": 26026, "job": "Original Music Composer", "name": "Victor Young", "profile_path": null}, {"credit_id": "52fe46b3c3a368484e09f0df", "department": "Directing", "gender": 2, "id": 64114, "job": "Director", "name": "Edward Dmytryk", "profile_path": "/rEW1tLWUsWpSikOoY3WIzeEhVN9.jpg"}, {"credit_id": "52fe46b3c3a368484e09f0e5", "department": "Writing", "gender": 2, "id": 87668, "job": "Screenplay", "name": "Alfred Hayes", "profile_path": null}, {"credit_id": "52fe46b3c3a368484e09f119", "department": "Production", "gender": 2, "id": 116849, "job": "Producer", "name": "Buddy Adler", "profile_path": "/pySEiex54LuqSk28jce4Qa8AwyR.jpg"}, {"credit_id": "52fe46b3c3a368484e09f0eb", "department": "Writing", "gender": 0, "id": 133574, "job": "Novel", "name": "William E. Barrett", "profile_path": null}]}}