{"adult": false, "backdrop_path": "/zVb43llF8zBBpCE7nHIbTJmaiCp.jpg", "belongs_to_collection": null, "budget": 0, "genres": [{"id": 35, "name": "Comedy"}, {"id": 10751, "name": "Family"}, {"id": 14, "name": "Fantasy"}, {"id": 10402, "name": "Music"}], "homepage": null, "id": 63859, "imdb_id": "tt0066256", "original_language": "en", "original_title": "Pufnstuf", "overview": "Jimmy (Jack Wild) ventures to Living Island with his magical, talking flute, Freddy. Once there, he befriends many of the island's inhabitants, but the evil Witchiepoo (Billie Hayes) is determined to steal Freddy the flute away from the boy to impress the visiting witches council and win the Witch of the Year Award.", "popularity": 4.009, "poster_path": "/tggybaI8SITtRHSvAR7uGGf416M.jpg", "production_companies": [{"id": 66722, "logo_path": null, "name": "Sid and Marty Krofft Enterprises", "origin_country": ""}], "production_countries": [{"iso_3166_1": "US", "name": "United States of America"}], "release_date": "1970-05-03", "revenue": 0, "runtime": 94, "spoken_languages": [{"iso_639_1": "en", "name": "English"}], "status": "Released", "tagline": "A musical adventure of Double-Stuffed proportions!", "title": "Pufnstuf", "video": false, "vote_average": 5.9, "vote_count": 11, "keywords": {"keywords": [{"id": 616, "name": "witch"}, {"id": 2041, "name": "island"}, {"id": 2343, "name": "magic"}, {"id": 10988, "name": "based on tv series"}, {"id": 12554, "name": "dragon"}, {"id": 164532, "name": "flute"}]}, "similar": {"page": 1, "results": [{"id": 27022, "video": false, "vote_count": 3219, "vote_average": 6.0, "title": "The Sorcerer's Apprentice", "release_date": "2010-07-13", "original_language": "en", "original_title": "The Sorcerer's Apprentice", "genre_ids": [28, 12, 35, 18, 14], "backdrop_path": "/v0o9M1us65w1kDQp8Q6KnB5a11s.jpg", "adult": false, "overview": "Balthazar Blake is a master sorcerer in modern-day Manhattan trying to defend the city from his arch-nemesis, Maxim Horvath. Balthazar can't do it alone, so he recruits Dave Stutler, a seemingly average guy who demonstrates hidden potential, as his reluctant prot\u00e9g\u00e9. The sorcerer gives his unwilling accomplice a crash course in the art and science of magic, and together, these unlikely partners work to stop the forces of darkness.", "poster_path": "/ZNSrRpdJ6FjMy4Iu6JpRTJ5Q87.jpg", "popularity": 24.096}, {"id": 68728, "video": false, "vote_count": 5072, "vote_average": 5.8, "title": "Oz the Great and Powerful", "release_date": "2013-03-07", "original_language": "en", "original_title": "Oz the Great and Powerful", "genre_ids": [12, 14, 10751], "backdrop_path": "/4cCQkOv4GfQoTtDzHl54KS3S39N.jpg", "adult": false, "overview": "Oscar Diggs, a small-time circus illusionist and con-artist, is whisked from Kansas to the Land of Oz where the inhabitants assume he's the great wizard of prophecy, there to save Oz from the clutches of evil.", "poster_path": "/7qzLIcYR7ev7iXngY8NKHBZHwwT.jpg", "popularity": 15.187}, {"id": 10882, "video": false, "vote_count": 3219, "vote_average": 6.9, "title": "Sleeping Beauty", "release_date": "1959-01-28", "original_language": "en", "original_title": "Sleeping Beauty", "genre_ids": [16, 14, 10749, 10751], "backdrop_path": "/oHZIobyIG0YzWntyPCTSJDOk9qB.jpg", "adult": false, "overview": "A beautiful princess born in a faraway kingdom is destined by a terrible curse to prick her finger on the spindle of a spinning wheel and fall into a deep sleep that can only be awakened by true love's first kiss. Determined to protect her, her parents ask three fairies to raise her in hiding. But the evil Maleficent is just as determined to seal the princess's fate.", "poster_path": "/j4YBuAe8D1jDSiitpq69og9x3Yl.jpg", "popularity": 29.356}, {"id": 6435, "video": false, "vote_count": 754, "vote_average": 6.5, "title": "Practical Magic", "release_date": "1998-10-16", "original_language": "en", "original_title": "Practical Magic", "genre_ids": [35, 14, 10749], "backdrop_path": "/2csru6TjDXExFgx5OXxJmRHujVs.jpg", "adult": false, "overview": "Sally and Gillian Owens, born into a magical family, have mostly avoided witchcraft themselves. But when Gillian's vicious boyfriend, Jimmy Angelov, dies unexpectedly, the Owens sisters give themselves a crash course in hard magic. With policeman Gary Hallet growing suspicious, the girls struggle to resurrect Angelov -- and unwittingly inject his corpse with an evil spirit that threatens to end their family line.", "poster_path": "/AwmToSgf2IL3aHv0QRVsR5KvChv.jpg", "popularity": 11.491}, {"id": 671, "video": false, "vote_count": 15480, "vote_average": 7.8, "title": "Harry Potter and the Philosopher's Stone", "release_date": "2001-11-16", "original_language": "en", "original_title": "Harry Potter and the Philosopher's Stone", "genre_ids": [12, 14, 10751], "backdrop_path": "/hziiv14OpD73u9gAak4XDDfBKa2.jpg", "adult": false, "overview": "Harry Potter has lived under the stairs at his aunt and uncle's house his whole life. But on his 11th birthday, he learns he's a powerful wizard -- with a place waiting for him at the Hogwarts School of Witchcraft and Wizardry. As he learns to harness his newfound powers with the help of the school's kindly headmaster, Harry uncovers the truth about his parents' deaths -- and about the villain who's to blame.", "poster_path": "/gHPtCmMeDqjaGqnMrWGDmD3nKd2.jpg", "popularity": 58.781}, {"id": 809, "video": false, "vote_count": 6985, "vote_average": 7.0, "title": "Shrek 2", "release_date": "2004-05-19", "original_language": "en", "original_title": "Shrek 2", "genre_ids": [12, 16, 35, 14, 10751], "backdrop_path": "/gdFAYLb5NR5HqcEKnPloOM6fX4B.jpg", "adult": false, "overview": "Shrek, Fiona and Donkey set off to Far, Far Away to meet Fiona's mother and father. But not everyone is happy. Shrek and the King find it hard to get along, and there's tension in the marriage. The fairy godmother discovers that Shrek has married Fiona instead of her Son Prince Charming and sets about destroying their marriage.", "poster_path": "/pSQvRqxwRa2IcDJHGY1d3TdKy2q.jpg", "popularity": 28.714}, {"id": 808, "video": false, "vote_count": 9704, "vote_average": 7.6, "title": "Shrek", "release_date": "2001-05-16", "original_language": "en", "original_title": "Shrek", "genre_ids": [12, 16, 35, 14, 10751], "backdrop_path": "/2l5UHZBcp9cx1PwKLdisJ0gV9jB.jpg", "adult": false, "overview": "It ain't easy bein' green -- especially if you're a likable (albeit smelly) ogre named Shrek. On a mission to retrieve a gorgeous princess from the clutches of a fire-breathing dragon, Shrek teams up with an unlikely compatriot -- a wisecracking donkey.", "poster_path": "/140ewbWv8qHStD3mlBDvvGd0Zvu.jpg", "popularity": 29.933}, {"id": 30144, "video": false, "vote_count": 59, "vote_average": 5.4, "title": "Lilly the Witch The Dragon and the Magic Book", "release_date": "2009-02-12", "original_language": "de", "original_title": "Hexe Lilli - Der Drache und das magische Buch", "genre_ids": [35, 14, 10751], "backdrop_path": "/rkrnym7C4psax45bbgyW0VLWW1T.jpg", "adult": false, "overview": "Lilly was a normal girl with a healthy sense of adventure. That is, until she finds a magical book, complete with a funny little dragon, \"Hector\". With the help of her new friend and the book, Lilly has the ability to time-travel and truly satisfy her adventure- lust!.", "poster_path": "/6vtNQdI4RLXvO2VlmKEMcojYgwH.jpg", "popularity": 7.049}, {"id": 37430, "video": false, "vote_count": 1122, "vote_average": 5.2, "title": "Conan the Barbarian", "release_date": "2011-08-17", "original_language": "en", "original_title": "Conan the Barbarian", "genre_ids": [28, 12, 14], "backdrop_path": "/381rd4LVvy6AkSB9tqHNu81ftyR.jpg", "adult": false, "overview": "A quest that begins as a personal vendetta for the fierce Cimmerian warrior soon turns into an epic battle against hulking rivals, horrific monsters, and impossible odds, as Conan (Jason Momoa) realizes he is the only hope of saving the great nations of Hyboria from an encroaching reign of supernatural evil.", "poster_path": "/fQ0lcaOpn2WozSnL5hfAhH6tYOA.jpg", "popularity": 20.99}, {"id": 26643, "video": false, "vote_count": 18, "vote_average": 3.6, "title": "The Magic Sword", "release_date": "1962-04-01", "original_language": "en", "original_title": "The Magic Sword", "genre_ids": [28, 12, 18, 14, 10751], "backdrop_path": "/xacoxtFWZ5oaaMkXLrE8zmvvHkU.jpg", "adult": false, "overview": "The son of a sorceress, armed with weapons, armour and six magically summoned knights, goes on a quest to save a princess from a vengeful wizard.", "poster_path": "/cL4cQaShy3mRm4ixpHstsOzNxYo.jpg", "popularity": 5.403}, {"id": 38319, "video": false, "vote_count": 801, "vote_average": 5.3, "title": "Your Highness", "release_date": "2011-04-08", "original_language": "en", "original_title": "Your Highness", "genre_ids": [12, 35, 14], "backdrop_path": "/MCWdmUJCJFVrbApimgUmORroeS.jpg", "adult": false, "overview": "A fantasy movie about an arrogant, lazy prince and his more heroic brother who must complete a quest in order to save their father's kingdom.", "poster_path": "/d0P3WWy3Fc3JuORpdkkHhPrhlVc.jpg", "popularity": 12.919}, {"id": 57158, "video": false, "vote_count": 8375, "vote_average": 7.6, "title": "The Hobbit: The Desolation of Smaug", "release_date": "2013-12-11", "original_language": "en", "original_title": "The Hobbit: The Desolation of Smaug", "genre_ids": [28, 12, 14], "backdrop_path": "/hyR7Fs6Tepgu3yCQGtgO4Ilz9tY.jpg", "adult": false, "overview": "The Dwarves, Bilbo and Gandalf have successfully escaped the Misty Mountains, and Bilbo has gained the One Ring. They all continue their journey to get their gold back from the Dragon, Smaug.", "poster_path": "/gQCiuxGsfiXH1su6lp9n0nd0UeH.jpg", "popularity": 29.574}, {"adult": false, "backdrop_path": "/5SX2rgKXZ7NVmAJR5z5LprqSXKa.jpg", "genre_ids": [28, 12, 14], "id": 68735, "original_language": "en", "original_title": "Warcraft", "overview": "The peaceful realm of Azeroth stands on the brink of war as its civilization faces a fearsome race of invaders: orc warriors fleeing their dying home to colonize another. As a portal opens to connect the two worlds, one army faces destruction and the other faces extinction. From opposing sides, two heroes are set on a collision course that will decide the fate of their family, their people, and their home.", "poster_path": "/ckrTPz6FZ35L5ybjqvkLWzzSLO7.jpg", "release_date": "2016-05-25", "title": "Warcraft", "video": false, "vote_average": 6.3, "vote_count": 4439, "popularity": 18.932}, {"adult": false, "backdrop_path": "/aoHrTDANGQ05ygmLX49OXhTn9jA.jpg", "genre_ids": [12, 14, 28], "id": 9610, "original_language": "en", "original_title": "Conan the Destroyer", "overview": "Conan is commissioned by the evil queen Taramis to safely escort a teen princess and her powerful bodyguard to a far away castle to retrieve the magic Horn of Dagon. Unknown to Conan, the queen plans to sacrifice the princess when she returns and inherit her kingdom after the bodyguard kills Conan. The queen's plans fail to take into consideration Conan's strength and cunning and the abilities of his sidekicks: the eccentric wizard Akiro, the wild woman Zula, and the inept Malak. Together the hero and his allies must defeat both mortal and supernatural foes in this voyage to sword-and-sorcery land.", "poster_path": "/wLIpIZ0KBopuAsvPBQRSGNjjFVT.jpg", "release_date": "1984-06-29", "title": "Conan the Destroyer", "video": false, "vote_average": 6.0, "vote_count": 765, "popularity": 16.835}, {"id": 767, "video": false, "vote_count": 11644, "vote_average": 7.7, "title": "Harry Potter and the Half-Blood Prince", "release_date": "2009-07-07", "original_language": "en", "original_title": "Harry Potter and the Half-Blood Prince", "genre_ids": [12, 14], "backdrop_path": "/kRyojLYtWPsBKfDhphhhl1FdM5a.jpg", "adult": false, "overview": "As Harry begins his sixth year at Hogwarts, he discovers an old book marked as 'Property of the Half-Blood Prince', and begins to learn more about Lord Voldemort's dark past.", "poster_path": "/bFXys2nhALwDvpkF3dP3Vvdfn8b.jpg", "popularity": 35.059}, {"id": 675, "video": false, "vote_count": 11931, "vote_average": 7.6, "title": "Harry Potter and the Order of the Phoenix", "release_date": "2007-06-28", "original_language": "en", "original_title": "Harry Potter and the Order of the Phoenix", "genre_ids": [12, 14, 9648], "backdrop_path": "/gGt4ePOhD8ilxd3FYhKB06L2CyG.jpg", "adult": false, "overview": "Returning for his fifth year of study at Hogwarts, Harry is stunned to find that his warnings about the return of Lord Voldemort have been ignored. Left with no choice, Harry takes matters into his own hands, training a small group of students \u2013 dubbed 'Dumbledore's Army' \u2013 to defend themselves against the dark arts.", "poster_path": "/4YnLxYLHhT4UQ8i9jxAXWy46Xuw.jpg", "popularity": 42.537}, {"id": 27793, "video": false, "vote_count": 212, "vote_average": 4.3, "title": "The NeverEnding Story III", "release_date": "1994-10-26", "original_language": "en", "original_title": "The NeverEnding Story III", "genre_ids": [14, 10751], "backdrop_path": "/qJSluTZn0roCJ6EaxFo52w8OUVO.jpg", "adult": false, "overview": "A young boy must restore order when a group of bullies steal the magical book that acts as a portal between Earth and the imaginary world of Fantasia.", "poster_path": "/qWvj3Ls7PQtz5L1eZpfoj5058Yz.jpg", "popularity": 13.735}, {"id": 2284, "video": false, "vote_count": 767, "vote_average": 6.2, "title": "Mr. Magorium's Wonder Emporium", "release_date": "2007-11-14", "original_language": "en", "original_title": "Mr. Magorium's Wonder Emporium", "genre_ids": [35, 14, 10751], "backdrop_path": "/icq8EO55IEvDo7OGCQfFXZ8l3Sv.jpg", "adult": false, "overview": "Molly Mahoney is the awkward and insecure manager of Mr. Magorium's Wonder Emporium\u2014the strangest, most fantastic and most wonderful toy store in the world. After Mr. Magorium bequeaths the store to her, a dark and ominous change begins to take over the once-remarkable Emporium.", "poster_path": "/75m4IBZE6gUrltcDgTSBTFg68QT.jpg", "popularity": 11.549}, {"id": 76492, "video": false, "vote_count": 5547, "vote_average": 6.9, "title": "Hotel Transylvania", "release_date": "2012-09-20", "original_language": "en", "original_title": "Hotel Transylvania", "genre_ids": [16, 35, 14, 10751], "backdrop_path": "/sETTal2HPPkUC3lWc27HL1AFu9C.jpg", "adult": false, "overview": "Welcome to Hotel Transylvania, Dracula's lavish five-stake resort, where monsters and their families can live it up and no humans are allowed. One special weekend, Dracula has invited all his best friends to celebrate his beloved daughter Mavis's 118th birthday. For Dracula catering to all of these legendary monsters is no problem but the party really starts when one ordinary guy stumbles into the hotel and changes everything!", "poster_path": "/9qugesYpAWHUpdrw2w8URSGkAPt.jpg", "popularity": 31.161}, {"adult": false, "backdrop_path": "/5OeY4U2rzePxWq2rkqMajUx2gz7.jpg", "genre_ids": [16, 10751, 12, 14, 10749], "id": 812, "original_language": "en", "original_title": "Aladdin", "overview": "Princess Jasmine grows tired of being forced to remain in the palace, so she sneaks out into the marketplace, in disguise, where she meets street-urchin Aladdin.  The couple falls in love, although Jasmine may only marry a prince.  After being thrown in jail, Aladdin becomes embroiled in a plot to find a mysterious lamp, with which the evil Jafar hopes to rule the land.", "poster_path": "/mjKozYRuHc9j7SmiXmbVmCiAM0A.jpg", "release_date": "1992-11-25", "title": "Aladdin", "video": false, "vote_average": 7.6, "vote_count": 7289, "popularity": 35.494}], "total_pages": 88, "total_results": 1758}, "recommendations": {"page": 1, "results": [{"adult": false, "backdrop_path": "/50U7L0BSXYazp8QpCvBbl1fNL7K.jpg", "genre_ids": [35, 27], "id": 3486, "original_language": "en", "original_title": "The Fiendish Plot of Dr. Fu Manchu", "overview": "Fu Manchu's 168th birthday celebration is dampened when a hapless flunky spills Fu's age-regressing elixir vitae. Fu sends his lackeys to round up ingredients for a new batch of elixir, starting with the Star of Leningrad diamond, nabbed from a Soviet exhibition in Washington. The FBI sends agents Capone and Williams to England to confer with Nayland Smith, an expert on Fu.", "poster_path": "/cl1YGv5RQCWs8Tsc5SwBfPIfvMP.jpg", "release_date": "1980-08-08", "title": "The Fiendish Plot of Dr. Fu Manchu", "video": false, "vote_average": 4.6, "vote_count": 14, "popularity": 6.033}, {"id": 4988, "video": false, "vote_count": 16, "vote_average": 5.5, "title": "Semi-Tough", "release_date": "1977-11-18", "original_language": "en", "original_title": "Semi-Tough", "genre_ids": [35, 18, 10749], "backdrop_path": "/r5ihBdwM0eXnNtbxSIKpqO9p1jX.jpg", "adult": false, "overview": "A three-way friendship between two free-spirited professional football players and the owner's daughter becomes compromised when two of them become romantically involved.", "poster_path": "/u644eGncQd8DnYNNBnYUbOdygfv.jpg", "popularity": 5.913}, {"adult": false, "backdrop_path": "/33px8Yh9avMgPmqgt121kuEDogr.jpg", "genre_ids": [53], "id": 32665, "original_language": "en", "original_title": "The Jigsaw Man", "overview": "Philip Kimberly, the former head of the British Secret Service who defected to Russia, is given plastic surgery and sent back to Britain by the KGB to retrieve some vital documents. With the documents in hand, he instead plays off MI6 and the KGB against each other.", "poster_path": "/1MdVMdr0lNC36MJ2yJPgtM32pSX.jpg", "release_date": "1984-08-24", "title": "The Jigsaw Man", "video": false, "vote_average": 4.8, "vote_count": 14, "popularity": 4.754}, {"id": 75552, "video": false, "vote_count": 20, "vote_average": 5.9, "title": "The Mountain Men", "release_date": "1980-05-01", "original_language": "it", "original_title": "The Mountain Men", "genre_ids": [12, 37], "backdrop_path": "/73NAqTIfUTn44QEnlAJ4hE8jyx7.jpg", "adult": false, "overview": "The story concerns two grizzled mountain men -- Bill Tyler and Henry Frapp -- during the dying days of the fur-trapping era. The plot begins when Running Moon runs away from her abusive husband Heavy Eagle and comes across the two seedy fur trappers. The mountain men take her in, unaware that Heavy Eagle has dispatched an army of Indian braves to reclaim her.", "poster_path": "/9AUrZnBFv5o59RCwUGKXyuBk4fP.jpg", "popularity": 4.31}, {"id": 33762, "video": false, "vote_count": 26, "vote_average": 6.8, "title": "Band of the Hand", "release_date": "1986-04-11", "original_language": "en", "original_title": "Band of the Hand", "genre_ids": [28, 80, 18], "backdrop_path": "/6z0QWVoETHo0XzYDIqhtDHceq9x.jpg", "adult": false, "overview": "An Indian Vietnam veteran trains five street punks in the Everglades to fight vice in Miami.", "poster_path": "/6WqXmHvArVb3hMQvIRGS9PZ5RVp.jpg", "popularity": 3.486}, {"adult": false, "backdrop_path": "/v99fKeCkgaEUQslt4SUG5gh5TSn.jpg", "genre_ids": [28, 12, 18, 9648], "id": 36642, "original_language": "en", "original_title": "Murderers' Row", "overview": "The handsome top agent Matt dies a tragic death in his bath tub - the women mourn about the loss. However it's just faked for his latest top-secret mission: He shall find Dr. Solaris, inventor of the Helium laser beam, powerful enough to destroy a whole continent. It seems Dr. Solaris has been kidnapped by a criminal organization. The trace leads to the Cote D'Azur.", "poster_path": "/hxNtyWrC7n6UFQh0urp0UGjEMTs.jpg", "release_date": "1966-12-20", "title": "Murderers' Row", "video": false, "vote_average": 6.4, "vote_count": 18, "popularity": 7.681}, {"adult": false, "backdrop_path": "/bhByzWv5aVbFyZ39Zrl4xfTqSYm.jpg", "genre_ids": [35, 878], "id": 24214, "original_language": "en", "original_title": "The President's Analyst", "overview": "At first, Dr. Sidney Schaefer feels honored and thrilled to be offered the job of the President's Analyst. But then the stress of the job and the paranoid spies that come with a sensitive government position get to him, and he runs away. Now spies from all over the world are after him, either to get him for their own side or to kill him and prevent someone else from getting him.", "poster_path": "/8COOrbIRy3v2MB2gPj3XVdg63BV.jpg", "release_date": "1967-12-21", "title": "The President's Analyst", "video": false, "vote_average": 5.7, "vote_count": 17, "popularity": 3.719}, {"adult": false, "backdrop_path": "/tWRquOHOmZqp0SOkUUVzVgVbhFn.jpg", "genre_ids": [10751], "id": 38802, "original_language": "en", "original_title": "For the Love of Benji", "overview": "Benji gets lost after a flight overseas and becomes a stray in Athens, Greece. He then tries everyday to reunite with his family while mysterious people pursue him, in a race to get a code which was secretly tattooed on his paw at the airport. But who are the bad guys and who are the agents that can be trusted? Will Benji and his kids and their nanny ever get to enjoy their vacation?", "poster_path": "/wxBPO6HuRjhlOITSmxWBa0TneeR.jpg", "release_date": "1977-06-10", "title": "For the Love of Benji", "video": false, "vote_average": 5.3, "vote_count": 19, "popularity": 4.332}, {"id": 69292, "video": false, "vote_count": 12, "vote_average": 6.0, "title": "The Creation of the Humanoids", "release_date": "1962-07-03", "original_language": "en", "original_title": "The Creation of the Humanoids", "genre_ids": [878], "backdrop_path": "/u5MDteWbanc8bNtbGqxvwSiN9q3.jpg", "adult": false, "overview": "Many years after a nuclear war destroyed much of human kind, the survivors have created a new society where much of the work done by artificial beings referred to derisively by humans as \"clickers\". Humans are producing fewer and fewer children and are less than a year away from having more artificial beings than humans. Most vociferous about the evolving situation is the Order of Flesh and Blood, an organization that is out to ensure that humans remain dominant. Among them is Capt. Kenneth Cragis who becomes very concerned that his sister Esme has formed a relationship with one of the artificial beings. He quickly forms a close relationship with Esme's friend Maxine Megan. Soon, they learn a great secret that affects them both directly.", "poster_path": "/ieYURAk5Xuws7gEf46oi7TrpkwR.jpg", "popularity": 2.784}], "total_pages": 1, "total_results": 9}, "credits": {"cast": [{"cast_id": 0, "character": "Jimmy", "credit_id": "53be65d00e0a261589003dc0", "gender": 0, "id": 140029, "name": "Jack Wild", "order": 1, "profile_path": "/v7nUltSU88WUX1cPU9UsX1MGQ3b.jpg"}, {"cast_id": 3, "character": "Witchiepoo", "credit_id": "53be6728c3a3684ce9002da4", "gender": 1, "id": 112821, "name": "Billie Hayes", "order": 3, "profile_path": "/m4U7NuvbdYNqKJUOZu6r1ZCDPxa.jpg"}, {"cast_id": 5, "character": "", "credit_id": "57c2fad19251416a88000d85", "gender": 1, "id": 106572, "name": "Martha Raye", "order": 4, "profile_path": "/kvtKa4vrxzJVlYo9Td6v3S56ubw.jpg"}, {"cast_id": 6, "character": "", "credit_id": "57c2fadc925141412d001898", "gender": 1, "id": 1238882, "name": "Cass Elliot", "order": 5, "profile_path": "/pb31tRqi6dzRYgqg43drlELD2y3.jpg"}, {"cast_id": 7, "character": "", "credit_id": "57c2fb06c3a36829e1000c68", "gender": 2, "id": 12659, "name": "Billy Barty", "order": 6, "profile_path": "/h6Xf5csmdoIOUIFi8iRjtQMygQT.jpg"}, {"cast_id": 8, "character": "", "credit_id": "57c2fb0e9251416aaf000c6b", "gender": 0, "id": 1213231, "name": "Jane Dulo", "order": 7, "profile_path": "/7gvrPQOOIC9RUzRBv5RLzQlvUZG.jpg"}, {"cast_id": 9, "character": "", "credit_id": "57c2fb179251410ef80032e2", "gender": 1, "id": 93672, "name": "Allison McKay", "order": 8, "profile_path": null}, {"cast_id": 10, "character": "", "credit_id": "57c2fb1fc3a36829e1000c73", "gender": 2, "id": 33853, "name": "Felix Silla", "order": 9, "profile_path": "/blKYI3w0lf124hvCaHiVcjhQpZ5.jpg"}, {"cast_id": 11, "character": "", "credit_id": "57c2fb28c3a368299b000ba3", "gender": 2, "id": 41749, "name": "Johnny Silver", "order": 10, "profile_path": null}, {"cast_id": 12, "character": "", "credit_id": "57c2fb309251410ef80032ee", "gender": 2, "id": 13262, "name": "Lou Wagner", "order": 11, "profile_path": null}, {"cast_id": 13, "character": "H. R. Pufnstuf / Henrich Rat / Living Island Boat / Orville Pelican / Polka-Dotted Horse / Stupid Bat / West Wind (voice) (as Al Melvin)", "credit_id": "57c2fb3dc3a36829e1000c81", "gender": 2, "id": 153360, "name": "Allan Melvin", "order": 12, "profile_path": null}], "crew": [{"credit_id": "53be6803c3a3684cf9002dc2", "department": "Production", "gender": 2, "id": 55895, "job": "Producer", "name": "Si Rose", "profile_path": null}, {"credit_id": "53be66c0c3a3684cdf002c9f", "department": "Directing", "gender": 2, "id": 151748, "job": "Director", "name": "Hollingsworth Morse", "profile_path": null}, {"credit_id": "57c2fb559251414163001aa2", "department": "Sound", "gender": 2, "id": 50239, "job": "Music", "name": "Charles Fox", "profile_path": "/ekiudg0JEIfzEw5eproO01fGIpz.jpg"}, {"credit_id": "5c71361c0e0a262c1f7ab325", "department": "Art", "gender": 0, "id": 2242311, "job": "Props", "name": "Solly Martino", "profile_path": null}, {"credit_id": "5c96383b925141730f7818b9", "department": "Crew", "gender": 2, "id": 2265782, "job": "Choreographer", "name": "Paul Godkin", "profile_path": null}]}}