{"adult": false, "backdrop_path": "/zUmcIMpO4rcy5KzEPK1RO1weuu2.jpg", "belongs_to_collection": null, "budget": 0, "genres": [{"id": 18, "name": "Drama"}, {"id": 10402, "name": "Music"}, {"id": 10749, "name": "Romance"}], "homepage": null, "id": 63923, "imdb_id": "tt0844742", "original_language": "jv", "original_title": "Opera Jawa", "overview": "This is the story about Setyo, Siti and Ludiro, who were the performer of Javanese Ramayana's Wayang Wong. Setyo and Siti are spouse who live in a village by selling earthenware products. In the village, live as well Ludiro, the head of the stockyard, who is very wealthy and secretly in love with Siti. Conflicts arrived as Setyo's earthenware company is going bankrupt and Siti started to took notice in Ludiro's desire to win her love. These triangle love transform into a civil war in the village that brings not only extremity and injustice, but also the death of the loved ones.", "popularity": 1.578, "poster_path": "/eTKTC1k1Gi7074BaOQvvWtvyFtH.jpg", "production_companies": [{"id": 12381, "logo_path": null, "name": "Visions Sud Est", "origin_country": ""}, {"id": 72759, "logo_path": null, "name": "SET Film Workshop", "origin_country": ""}, {"id": 78242, "logo_path": null, "name": "New Crowned Hope", "origin_country": ""}], "production_countries": [{"iso_3166_1": "ID", "name": "Indonesia"}, {"iso_3166_1": "AT", "name": "Austria"}], "release_date": "2006-08-07", "revenue": 0, "runtime": 120, "spoken_languages": [{"iso_639_1": "id", "name": "Bahasa indonesia"}, {"iso_639_1": "jv", "name": ""}], "status": "Released", "tagline": "", "title": "Requiem from Java", "video": false, "vote_average": 5.7, "vote_count": 7, "keywords": {"keywords": [{"id": 941, "name": "tradition"}, {"id": 2199, "name": "opera"}, {"id": 7348, "name": "indonesia"}, {"id": 9673, "name": "love"}, {"id": 9748, "name": "revenge"}, {"id": 10183, "name": "independent film"}]}, "similar": {"page": 1, "results": [{"adult": false, "backdrop_path": "/kiWvoV78Cc3fUwkOHKzyBgVdrDD.jpg", "genre_ids": [37, 18, 12], "id": 281957, "original_language": "en", "original_title": "The Revenant", "overview": "In the 1820s, a frontiersman, Hugh Glass, sets out on a path of vengeance against those who left him for dead after a bear mauling.", "poster_path": "/oXUWEc5i3wYyFnL1Ycu8ppxxPvs.jpg", "release_date": "2015-12-25", "title": "The Revenant", "video": false, "vote_average": 7.5, "vote_count": 12122, "popularity": 30.491}, {"adult": false, "backdrop_path": "/a0UYovVNPVfWILYT7TzD10xBX3q.jpg", "genre_ids": [18, 53, 80, 9648], "id": 979, "original_language": "fr", "original_title": "Irr\u00e9versible", "overview": "Events over the course of one traumatic night in Paris unfold in reverse-chronological order as the beautiful Alex is brutally raped and beaten by a stranger in the underpass. Her boyfriend and ex-lover take matters into their own hands by hiring two criminals to help them find the rapist so that they can exact revenge. A simultaneously beautiful and terrible examination of the destructive nature of cause and effect, and how time destroys everything.", "poster_path": "/rxeDxo8FvZpLu6iplNpxdtAVnfu.jpg", "release_date": "2002-05-22", "title": "Irreversible", "video": false, "vote_average": 7.1, "vote_count": 1215, "popularity": 18.102}, {"id": 527, "video": false, "vote_count": 193, "vote_average": 7.6, "title": "Once Were Warriors", "release_date": "1994-09-02", "original_language": "en", "original_title": "Once Were Warriors", "genre_ids": [18], "backdrop_path": "/ninIdXC6iCDKuQRKFJw7nY4uRY2.jpg", "adult": false, "overview": "A drama about a Maori family living in Auckland, New Zealand. Lee Tamahori tells the story of Beth Heke\u2019s strong will to keep her family together during times of unemployment and abuse from her violent and alcoholic husband.", "poster_path": "/8QF48QS5lvtrhOclt22RFz3bSQm.jpg", "popularity": 10.255}, {"adult": false, "backdrop_path": "/iZOgAvUt6q356da1sfYz1UalNO.jpg", "genre_ids": [80, 18, 10749, 53], "id": 3134, "original_language": "fr", "original_title": "Baise-moi", "overview": "Manu has lived a difficult life. Abused and violently raped, she sets off to find herself only to meet Nadine, a prostitute who has encountered one too many injustices in the world. Angry at the world, they embark on a twisted, rage-filled road trip. They choose to have sex when they please and kill when they need. Leaving a trail of mischief and dead bodies in their wake. Generating a media blitz and manhunt, soon everyone is out to capture the young fugitives.", "poster_path": "/sLvsIgWMH9bV1IZnZOzY5dXKUHe.jpg", "release_date": "2000-06-28", "title": "Baise-moi", "video": false, "vote_average": 4.3, "vote_count": 173, "popularity": 20.226}, {"id": 395834, "video": false, "vote_count": 2754, "vote_average": 7.4, "title": "Wind River", "release_date": "2017-08-03", "original_language": "en", "original_title": "Wind River", "genre_ids": [80, 18, 9648, 53], "backdrop_path": "/6B8e784decj9vtKuNjbl9Fes2aZ.jpg", "adult": false, "overview": "An FBI agent teams with the town's veteran game tracker to investigate a murder that occurred on a Native American reservation.", "poster_path": "/pySivdR845Hom4u4T2WNkJxe6Ad.jpg", "popularity": 21.415}, {"id": 11121, "video": false, "vote_count": 146, "vote_average": 6.8, "title": "Tess", "release_date": "1979-10-06", "original_language": "en", "original_title": "Tess", "genre_ids": [18, 10749], "backdrop_path": "/rSaHcXMo4Mz6pXzE3y1PwwMDaqT.jpg", "adult": false, "overview": "A strong-willed peasant girl is sent by her father to the estate of some local aristocrats to capitalize on a rumor that their families are from the same line. This fateful visit commences an epic narrative of sex, class, betrayal, and revenge.", "poster_path": "/m2qx66UNTMg17CoFSGZWC7csG7M.jpg", "popularity": 11.783}, {"adult": false, "backdrop_path": "/a24i4Qw6qFTtkFLQsncv8WPwevj.jpg", "genre_ids": [53, 28, 80], "id": 345887, "original_language": "en", "original_title": "The Equalizer 2", "overview": "Robert McCall, who serves an unflinching justice for the exploited and oppressed, embarks on a relentless, globe-trotting quest for vengeance when a long-time girl friend is murdered.", "poster_path": "/cQvc9N6JiMVKqol3wcYrGshsIdZ.jpg", "release_date": "2018-07-19", "title": "The Equalizer 2", "video": false, "vote_average": 6.5, "vote_count": 2482, "popularity": 24.261}, {"id": 994, "video": false, "vote_count": 444, "vote_average": 7.2, "title": "Straw Dogs", "release_date": "1971-12-23", "original_language": "en", "original_title": "Straw Dogs", "genre_ids": [80, 18, 53], "backdrop_path": "/yL7uVOyvwZeP2U0zKIE3WQqoilA.jpg", "adult": false, "overview": "David Sumner, a mild-mannered academic from the United States, marries Amy, an Englishwoman. In order to escape a hectic stateside lifestyle, David and his wife relocate to the small town in rural Cornwall where Amy was raised. There, David is ostracized by the brutish men of the village, including Amy's old flame, Charlie. Eventually the taunts escalate, and two of the locals rape Amy. This sexual assault awakes a shockingly violent side of David.", "poster_path": "/yigkfHE1OhkxPPrjrV78Y9ibGEk.jpg", "popularity": 17.045}, {"adult": false, "backdrop_path": "/7Z9OmWJszjjvjh5N2Mv14uYmLoC.jpg", "genre_ids": [80, 53, 27, 18], "id": 18405, "original_language": "en", "original_title": "The Last House on the Left", "overview": "A group of teenage girls heading into the city hook up with a gang of drug-addled ne'er-do-wells and are brutally murdered. The killers find their way to the home of one of their victim's parents, where both father and mother exact a horrible revenge.", "poster_path": "/tpjP9MLDRq6aC1MTpFcJEOYOGtj.jpg", "release_date": "2009-03-13", "title": "The Last House on the Left", "video": false, "vote_average": 6.4, "vote_count": 901, "popularity": 13.947}, {"adult": false, "backdrop_path": "/nriBinb7Y3Bm6LdbmOC0mFxSm8d.jpg", "genre_ids": [80, 18], "id": 226, "original_language": "en", "original_title": "Boys Don't Cry", "overview": "Female born, Teena Brandon adopts his male identity of Brandon Teena and attempts to find himself and love in Nebraska.", "poster_path": "/6bqIZTEuJnUrgnxcymciszvOz8J.jpg", "release_date": "1999-09-02", "title": "Boys Don't Cry", "video": false, "vote_average": 7.5, "vote_count": 718, "popularity": 12.137}, {"adult": false, "backdrop_path": "/ltq1i8ienPm7OSdOXl3o8ROgmKc.jpg", "genre_ids": [28, 80, 18], "id": 2142, "original_language": "en", "original_title": "Cop Land", "overview": "Freddy Heflin is the sheriff of a place everyone calls \u201cCop Land\u201d \u2014 a small and seemingly peaceful town populated by the big city police officers he\u2019s long admired. Yet something ugly is taking place behind the town\u2019s peaceful facade. And when Freddy uncovers a massive, deadly conspiracy among these local residents, he is forced to take action and make a dangerous choice between protecting his idols and upholding the law.", "poster_path": "/th2UDVewgUAfIXFUaWGWWBxCM91.jpg", "release_date": "1997-08-15", "title": "Cop Land", "video": false, "vote_average": 6.7, "vote_count": 757, "popularity": 13.66}, {"adult": false, "backdrop_path": "/8cVSUI36ORfCJ6d4TP71wIrdD7h.jpg", "genre_ids": [18, 27], "id": 133805, "original_language": "en", "original_title": "Carrie", "overview": "A reimagining of the classic horror tale about Carrie White, a shy girl outcast by her peers and sheltered by her deeply religious mother, who unleashes telekinetic terror on her small town after being pushed too far at her senior prom.", "poster_path": "/j0999NYddCGcishJlxluDRQIn6k.jpg", "release_date": "2013-10-16", "title": "Carrie", "video": false, "vote_average": 5.9, "vote_count": 2912, "popularity": 14.003}, {"id": 400090, "video": false, "vote_count": 106, "vote_average": 7.3, "title": "The Nightingale", "release_date": "2019-08-02", "original_language": "en", "original_title": "The Nightingale", "genre_ids": [12, 18, 53], "backdrop_path": "/bwsANtJNaA5xDmxPp6z2JqEtfCI.jpg", "adult": false, "overview": "In 1825, Claire, a 21-year-old Irish convict, chases a British soldier through the rugged Tasmanian wilderness, bent on revenge for a terrible act of violence he committed against her family. She enlists the services of an Aboriginal tracker who is also marked by trauma from his own violence-filled past.", "poster_path": "/hWA8QwSM1kJYMoTANEPoqrqBapg.jpg", "popularity": 10.467}, {"adult": false, "backdrop_path": "/19qAk3bQZ6ulspbwhPw1A0bNpii.jpg", "genre_ids": [80, 27, 53], "id": 73861, "original_language": "sr", "original_title": "Srpski film", "overview": "Milos, a retired porn star, leads a normal family life trying to make ends meet. Presented with the opportunity of a lifetime to financially support his family for the rest of their lives, Milos must participate in one last mysterious film. From then on, Milos is drawn into a maelstrom of unbelievable cruelty and mayhem.", "poster_path": "/iB3ynCghwG63MrViBC6YyPzUIAn.jpg", "release_date": "2010-06-16", "title": "A Serbian Film", "video": false, "vote_average": 5.5, "vote_count": 898, "popularity": 15.06}, {"adult": false, "backdrop_path": "/zWGAnbxjjwY3xFGuOeR26LGbBlG.jpg", "genre_ids": [27, 53], "id": 238636, "original_language": "en", "original_title": "The Purge: Anarchy", "overview": "One night per year, the government sanctions a 12-hour period in which citizens can commit any crime they wish -- including murder -- without fear of punishment or imprisonment. Leo, a sergeant who lost his son, plans a vigilante mission of revenge during the mayhem. However, instead of a death-dealing avenger, he becomes the unexpected protector of four innocent strangers who desperately need his help if they are to survive the night.", "poster_path": "/l1DRl40x2OWUoPP42v8fjKdS1Z3.jpg", "release_date": "2014-07-17", "title": "The Purge: Anarchy", "video": false, "vote_average": 6.6, "vote_count": 4141, "popularity": 32.533}, {"id": 298312, "video": false, "vote_count": 2921, "vote_average": 6.2, "title": "The Visit", "release_date": "2015-09-10", "original_language": "en", "original_title": "The Visit", "genre_ids": [27, 9648, 53], "backdrop_path": "/gbJlEeALVGo7kx8bC2q4EFWX1Xy.jpg", "adult": false, "overview": "The terrifying story of a brother and sister who are sent to their grandparents' remote Pennsylvania farm for a weeklong trip. Once the children discover that the elderly couple is involved in something deeply disturbing, they see their chances of getting back home are growing smaller every day.", "poster_path": "/32tNtTEQ1vIOLm1hEOSFkVwJT5D.jpg", "popularity": 20.148}, {"adult": false, "backdrop_path": "/rPfyX0pkmn8Ea4gh3DfsmzFUf05.jpg", "genre_ids": [18, 27, 80], "id": 74997, "original_language": "en", "original_title": "The Human Centipede 2 (Full Sequence)", "overview": "Inspired by the fictional Dr. Heiter, disturbed loner Martin dreams of creating a 12-person centipede and sets out to realize his sick fantasy.", "poster_path": "/kFtAdkCO0vXN2RWu2oMcR9GZ9Hi.jpg", "release_date": "2011-10-06", "title": "The Human Centipede 2 (Full Sequence)", "video": false, "vote_average": 4.5, "vote_count": 674, "popularity": 18.07}, {"adult": false, "backdrop_path": "/scRw6gAoO3CfgQnZjHCh2ZgU4Z1.jpg", "genre_ids": [80, 18, 878, 53], "id": 281, "original_language": "en", "original_title": "Strange Days", "overview": "Set in the year 1999 during the last days of the old millennium, the movie tells the story of Lenny Nero, an ex-cop who now deals with data-discs containing recorded memories and emotions. One day he receives a disc which contains the memories of a murderer killing a prostitute. Lenny investigates and is pulled deeper and deeper in a whirl of blackmail, murder and rape. Will he survive and solve the case?", "poster_path": "/rXvy5hG9OeVmgnv9w4IhQxhqEKD.jpg", "release_date": "1995-10-13", "title": "Strange Days", "video": false, "vote_average": 7.0, "vote_count": 662, "popularity": 19.866}, {"adult": false, "backdrop_path": "/iNuvbrHGNtrUwlm48u4KnQhhMKp.jpg", "genre_ids": [80, 18, 53], "id": 26390, "original_language": "en", "original_title": "Brooklyn's Finest", "overview": "Enforcing the law within the notoriously rough Brownsville section of the city and especially within the Van Dyke housing projects is the NYPD's sixty-fifth precinct. Three police officers struggle with the sometimes fine line between right and wrong.", "poster_path": "/jKSBk0LtZgXxG56uvwiAtYf6ttF.jpg", "release_date": "2009-01-16", "title": "Brooklyn's Finest", "video": false, "vote_average": 6.4, "vote_count": 500, "popularity": 12.127}, {"id": 521, "video": false, "vote_count": 1257, "vote_average": 8.0, "title": "Dial M for Murder", "release_date": "1954-05-29", "original_language": "en", "original_title": "Dial M for Murder", "genre_ids": [80, 18, 9648, 53], "backdrop_path": "/jVMlfESb0TJ29w8CUDDofEprMmn.jpg", "adult": false, "overview": "An ex-tennis pro carries out a plot to have his wife murdered after discovering she is having an affair, and assumes she will soon leave him for the other man anyway. When things go wrong, he improvises a new plan\u2014to frame her for murder instead.", "poster_path": "/xrpK1PyckNWmRxU4kZURfaCyboS.jpg", "popularity": 34.566}], "total_pages": 61, "total_results": 1219}, "recommendations": {"page": 1, "results": [{"adult": false, "backdrop_path": null, "genre_ids": [99], "id": 178729, "original_language": "en", "original_title": "Universe", "overview": "A triumph of film art, creating on the screen a vast, awe-inspiring picture of the universe as it would appear to a voyager through space, this film was among the sources used by Stanley Kubrick in his 2001: A Space Odyssey. Realistic animation takes you into far regions of space, beyond the reach of the strongest telescope, past Moon, Sun, and Milky Way into galaxies yet unfathomed.", "poster_path": "/34f5i21GIYcw13fHxzKv4uHqgxY.jpg", "release_date": "1960-05-01", "title": "Universe", "video": false, "vote_average": 7.6, "vote_count": 5, "popularity": 2.472}, {"adult": false, "backdrop_path": null, "genre_ids": [], "id": 236578, "original_language": "en", "original_title": "1941", "overview": "Avant-garde short film. In December, 1941, using music by Stravinsky, this film provides a reaction to the Japanese attack on Pearl Harbor. An egg is smashed by a hammer; red color with white and then blue dominates the frame. Blue paint runs; small bulbs float. The dark colors spread. White, red, blue, and black dominate the frame. Then comes fire. The bulbs burn and break. A broken bulb's filaments are exposed.", "poster_path": "/py82INBB23kuulFLvdcu9pAqqCr.jpg", "release_date": "1941-11-14", "title": "1941", "video": false, "vote_average": 6.9, "vote_count": 7, "popularity": 1.644}, {"adult": false, "backdrop_path": null, "genre_ids": [], "id": 219452, "original_language": "en", "original_title": "Parabola", "overview": "Black and white animation from pioneer Mary Ellen Bute", "poster_path": "/5JchP2BOpyVZfaCewWrFdboCwB.jpg", "release_date": "1937-09-05", "title": "Parabola", "video": false, "vote_average": 8.0, "vote_count": 4, "popularity": 0.6}, {"adult": false, "backdrop_path": null, "genre_ids": [18], "id": 156530, "original_language": "en", "original_title": "Poem 8", "overview": "Independent film featuring modern dance in a forest, with the performers wearing white fabric costumes.", "poster_path": "/gUOYVfRhw6wFbiwWUB0LwK19wLQ.jpg", "release_date": "1932-04-17", "title": "Poem 8", "video": false, "vote_average": 7.0, "vote_count": 5, "popularity": 0.652}, {"adult": false, "backdrop_path": null, "genre_ids": [], "id": 184519, "original_language": "en", "original_title": "Synchromy No. 2", "overview": "Synchromy No. 2, synchronized to the \"Evening Star\" aria from Wagner's Tannh\u00e4user, uses a statue of Venus to represent the star.", "poster_path": "/3sAmtQI3K6jXYcz8PcSqPasmD5v.jpg", "release_date": "1935-04-09", "title": "Synchromy No. 2", "video": false, "vote_average": 9.0, "vote_count": 4, "popularity": 0.711}, {"adult": false, "backdrop_path": "/vWyfalpPSgZidLfQ0Hiv42VO7rz.jpg", "genre_ids": [18, 27], "id": 150196, "original_language": "en", "original_title": "The Telltale Heart", "overview": "An insane man first loves then grows to hate his neighbor, an old man whose penetrating gaze unnerves the insane man. He plans a perfect crime and executes it one night. The next day, two officers knock on the insane man's door, investigating a shriek heard in the night. The insane man invites them in, answers their questions, and submits to an examination of his eyes by one of the officers, who proclaims him innocent. The insane man invites them to stay and relax awhile, then regales them with his theories of crime. His heart begins to beat louder. Angles on the set are skewed to suggest the man's internal disarray.", "poster_path": "/iIoyOO5OEWRYJGFJXoh2xM8ITW4.jpg", "release_date": "1928-01-01", "title": "The Telltale Heart", "video": false, "vote_average": 7.0, "vote_count": 6, "popularity": 2.508}, {"adult": false, "backdrop_path": null, "genre_ids": [], "id": 184395, "original_language": "en", "original_title": "In Youth, Beside the Lonely Sea", "overview": "An early widescreen film that was told by cutting the two sides of the image off and replacing them with a different image.", "poster_path": "/fgHsXAYbNO3OEt5QMEQ8xRRT6vU.jpg", "release_date": "1925-04-09", "title": "In Youth, Beside the Lonely Sea", "video": false, "vote_average": 7.0, "vote_count": 5, "popularity": 1.366}, {"adult": false, "backdrop_path": null, "genre_ids": [10749, 18], "id": 156529, "original_language": "fr", "original_title": "La cartomancienne", "overview": "In a European seaside village, a maiden takes clean sheets down from the clothesline. Carrying her basket of linens home, she stops to consult a fortune teller, whose been napping the the sun. The cartomancienne sees love in the cards. The young woman pauses to reflect. We then see water, swirling, and into view swims a man, as if just appearing on earth. He arrives on shore - is he just in her mind's eye, or is he real? She weaves a garland of for her hair. Will they meet?", "poster_path": null, "release_date": "1932-04-17", "title": "La cartomancienne", "video": false, "vote_average": 6.8, "vote_count": 5, "popularity": 1.4}, {"adult": false, "backdrop_path": null, "genre_ids": [], "id": 191383, "original_language": "en", "original_title": "Moods of the Sea", "overview": "A recently unearthed experimental documentary of the crashing sea set to Mendelssohn's \"Fingal's Cave.\" An example of the filmmakers' \"new cinema\" theory which held that film should be more like music than literature. This film is based solely on its arrangement of images.", "poster_path": "/oipyX9mX3ZVJgTn5jRDAu6Z22lE.jpg", "release_date": "1942-01-02", "title": "Moods of the Sea", "video": false, "vote_average": 6.8, "vote_count": 10, "popularity": 1.758}, {"adult": false, "backdrop_path": null, "genre_ids": [], "id": 96941, "original_language": "en", "original_title": "The Love of Zero", "overview": "While playing his trombone one Sunday, the enthusiastic Zero sees Beatrix and falls in love. He returns the next week to express his feelings, and it's mutual. Over the next few months, they spoon, kiss, and find happiness. Then, she receives a letter from Kabul, demanding that she return to the palace of the grand vizier. The lovers part, heartbroken. Zero tries expressing himself to a woman on the street. He meets derision. Then, news of Beatrix. Does this romance end in smiles or tears?", "poster_path": "/ps8xkIU2dhg5huCRUoPrjRYmYm0.jpg", "release_date": "1928-01-01", "title": "The Love of Zero", "video": false, "vote_average": 6.3, "vote_count": 9, "popularity": 1.603}, {"adult": false, "backdrop_path": null, "genre_ids": [16], "id": 19011, "original_language": "de", "original_title": "Picknick mit Weissmann", "overview": "In one of Jan Svankmajer's many mind-blowing, deliberately weird short films, a picnic consists of a suit sunbathing, a phonograph playing records, a shovel digging holes, and a camera taking pictures.", "poster_path": "/75ybUIgxwaPt30xozeZ6zpqp57p.jpg", "release_date": "1968-01-02", "title": "Picnic with Weissmann", "video": false, "vote_average": 6.6, "vote_count": 11, "popularity": 1.4}, {"adult": false, "backdrop_path": null, "genre_ids": [80, 35], "id": 191595, "original_language": "en", "original_title": "The Impossible Convicts", "overview": "Four prisoners, in convicts' stripes, march backwards down stairs and, under the watchful eyes of guards, hop backwards into their cells. Later, one overpowers a guard and springs his three pals. But, will they be able to pull off an escape? Other guards come to the aid of their fallen comrade before all four felons can flee. Guards and convicts spring forward and backward out of cells, up and down stairs, and into and out of freedom.", "poster_path": "/lbZHAtnpKHEnHscDXNNKeVEzlhm.jpg", "release_date": "1906-01-27", "title": "The Impossible Convicts", "video": false, "vote_average": 5.7, "vote_count": 6, "popularity": 0.974}, {"adult": false, "backdrop_path": "/sIC6tZI4IoKTeQggzj057yiy8BF.jpg", "genre_ids": [10749, 35, 28], "id": 155677, "original_language": "ja", "original_title": "Asu no taiy\u00f4", "overview": "A playful short film made in the style of a trailer for a fictional feature film that seems to be a spoof of films that were popular in Japan at the time.", "poster_path": "/dFEkyBDfYk82H7V7iQekh4DfZeA.jpg", "release_date": "1959-01-01", "title": "Tomorrow's Sun", "video": false, "vote_average": 6.0, "vote_count": 4, "popularity": 1.4}], "total_pages": 1, "total_results": 13}, "credits": {"cast": [{"cast_id": 1001, "character": "Siti", "credit_id": "52fe46c1c3a368484e0a2037", "gender": 0, "id": 238193, "name": "Artika Sari Devi", "order": 0, "profile_path": null}, {"cast_id": 1002, "character": "Setyo", "credit_id": "52fe46c1c3a368484e0a203b", "gender": 2, "id": 238194, "name": "Martinus Miroto", "order": 1, "profile_path": null}, {"cast_id": 1003, "character": "Ludiro", "credit_id": "52fe46c1c3a368484e0a203f", "gender": 0, "id": 238195, "name": "Eko Supriyanto", "order": 2, "profile_path": null}, {"cast_id": 1004, "character": "Sukesi", "credit_id": "52fe46c1c3a368484e0a2043", "gender": 0, "id": 238196, "name": "Retno Maruti", "order": 3, "profile_path": null}, {"cast_id": 1005, "character": "Sure", "credit_id": "52fe46c1c3a368484e0a2047", "gender": 0, "id": 238197, "name": "I. Nyoman Sura", "order": 4, "profile_path": null}, {"cast_id": 1012, "character": "Anom", "credit_id": "5a0044be92514146f505f7a3", "gender": 0, "id": 1918461, "name": "Jecko Siompo Pui", "order": 5, "profile_path": null}, {"cast_id": 1013, "character": "Pewarte", "credit_id": "5a0044e5c3a3686844059aa9", "gender": 0, "id": 1918462, "name": "Slamet Gundono", "order": 6, "profile_path": null}, {"cast_id": 1014, "character": "Dukun Sumba", "credit_id": "5a0044ee925141471d062207", "gender": 0, "id": 1918463, "name": "Wenang Nggiku", "order": 7, "profile_path": null}, {"cast_id": 1015, "character": "Kusir Gerobak", "credit_id": "5a0044fbc3a3686835062f60", "gender": 0, "id": 1918464, "name": "Mugiyono", "order": 8, "profile_path": null}, {"cast_id": 1016, "character": "Ibu Tua", "credit_id": "5a00450592514146e805aae9", "gender": 0, "id": 1918465, "name": "Sutanti Sudarso", "order": 9, "profile_path": null}, {"cast_id": 1017, "character": "Penembang Tua", "credit_id": "5a004511c3a3686844059afc", "gender": 0, "id": 1918466, "name": "Wahono", "order": 10, "profile_path": null}, {"cast_id": 1018, "character": "Tukang Daging Prapto", "credit_id": "5a004519c3a36868a7054ddf", "gender": 0, "id": 1918467, "name": "Sukiatno", "order": 11, "profile_path": null}, {"cast_id": 1019, "character": "Srandul", "credit_id": "5a004524925141471d06225c", "gender": 0, "id": 1918468, "name": "Dahlan", "order": 12, "profile_path": null}, {"cast_id": 1020, "character": "Srandul", "credit_id": "5a00452dc3a368687e054a96", "gender": 0, "id": 1918469, "name": "Pawiro Wagimin", "order": 13, "profile_path": null}, {"cast_id": 1021, "character": "Srandul", "credit_id": "5a00453492514146f505f87a", "gender": 0, "id": 1918470, "name": "Subagyo", "order": 14, "profile_path": null}], "crew": [{"credit_id": "52fe46c1c3a368484e0a2033", "department": "Directing", "gender": 2, "id": 238192, "job": "Director", "name": "Garin Nugroho", "profile_path": "/hRqqJfEYsZAe71rcljujotHP60X.jpg"}, {"credit_id": "52fe46c1c3a368484e0a204d", "department": "Writing", "gender": 0, "id": 238198, "job": "Scenario Writer", "name": "Armantoro", "profile_path": null}, {"credit_id": "52fe46c1c3a368484e0a2053", "department": "Sound", "gender": 0, "id": 238199, "job": "Music", "name": "Rahayu Suppangah", "profile_path": null}, {"credit_id": "52fe46c1c3a368484e0a2059", "department": "Camera", "gender": 2, "id": 238200, "job": "Director of Photography", "name": "Gay Hian Teoh", "profile_path": null}, {"credit_id": "52fe46c1c3a368484e0a205f", "department": "Sound", "gender": 0, "id": 238201, "job": "Sound Director", "name": "Phalevi Indra C. Santoso", "profile_path": null}, {"credit_id": "57648724c3a368278a0000c1", "department": "Writing", "gender": 0, "id": 1120950, "job": "Writer", "name": "Aramantono", "profile_path": null}, {"credit_id": "5764872cc3a36827830000ae", "department": "Writing", "gender": 2, "id": 238192, "job": "Writer", "name": "Garin Nugroho", "profile_path": "/hRqqJfEYsZAe71rcljujotHP60X.jpg"}]}}