{"adult": false, "backdrop_path": "/unNpOgLzWxz78gPixE0xOzTIBEc.jpg", "belongs_to_collection": null, "budget": 0, "genres": [{"id": 18, "name": "Drama"}, {"id": 28, "name": "Action"}, {"id": 80, "name": "Crime"}], "homepage": null, "id": 64739, "imdb_id": "tt0082451", "original_language": "it", "original_title": "Il giorno del cobra", "overview": "An American narcotics agent is murdered in Italy. The head of the department decides to hire Larry Stanziani, 'The Cobra'. Larry, a former agent and now a third-rate private detective, uses the opportunity to get even with an old enemy, but soon he finds out he's facing a relentless organization", "popularity": 1.738, "poster_path": "/1PNaoS04Tmkk04NY9F5zN3ai20V.jpg", "production_companies": [{"id": 7171, "logo_path": null, "name": "Laser", "origin_country": ""}], "production_countries": [{"iso_3166_1": "IT", "name": "Italy"}], "release_date": "1980-08-12", "revenue": 0, "runtime": 95, "spoken_languages": [{"iso_639_1": "it", "name": "Italiano"}], "status": "Released", "tagline": "", "title": "Day of the Cobra", "video": false, "vote_average": 6.0, "vote_count": 5, "keywords": {"keywords": [{"id": 924, "name": "italian"}, {"id": 155790, "name": "private detective"}]}, "similar": {"page": 1, "results": [{"adult": false, "backdrop_path": "/jRNqzZZwYIpiukkblMQ4G2Vc5p7.jpg", "genre_ids": [9648, 80, 53], "id": 963, "original_language": "en", "original_title": "The Maltese Falcon", "overview": "A private detective takes on a case that involves him with three eccentric criminals, a beautiful liar, and their quest for a priceless statuette.", "poster_path": "/jQilmbgbKtpbHM9hw9hgmqomJ9.jpg", "release_date": "1941-10-18", "title": "The Maltese Falcon", "video": false, "vote_average": 7.8, "vote_count": 840, "popularity": 16.587}, {"adult": false, "backdrop_path": "/xe8eAG6khMJcSFctjkKRBporwSw.jpg", "genre_ids": [80, 9648, 18], "id": 28257, "original_language": "en", "original_title": "The Maltese Falcon", "overview": "A lovely dame with dangerous lies employs the services of a private detective, who is quickly caught up in the mystery and intrigue of a statuette known as the Maltese Falcon.", "poster_path": "/nGYYO0hmpMDFC69bNEXyAoJrCtn.jpg", "release_date": "1931-05-28", "title": "The Maltese Falcon", "video": false, "vote_average": 6.7, "vote_count": 25, "popularity": 3.837}, {"adult": false, "backdrop_path": "/98ahnrena4PwLth7HFYGLf9yssH.jpg", "genre_ids": [35, 18, 10749], "id": 22705, "original_language": "it", "original_title": "Tra(sgre)dire", "overview": "While scouting out apartments in London for her Venetian boyfriend, Carla rents an apartment that overlooks the Thames. There she meet the lesbian hyper-horny real estate agent Moira.", "poster_path": "/kZITrLEiTfzzJhtwtXhQUl3ImCQ.jpg", "release_date": "2000-01-28", "title": "Cheeky", "video": false, "vote_average": 5.7, "vote_count": 92, "popularity": 30.42}, {"id": 539, "video": false, "vote_count": 5674, "vote_average": 8.4, "title": "Psycho", "release_date": "1960-06-16", "original_language": "en", "original_title": "Psycho", "genre_ids": [18, 27, 53], "backdrop_path": "/3md49VBCeqY6MSNyAVY6d5eC6bA.jpg", "adult": false, "overview": "When larcenous real estate clerk Marion Crane goes on the lam with a wad of cash and hopes of starting a new life, she ends up at the notorious Bates Motel, where manager Norman Bates cares for his housebound mother. The place seems quirky, but fine\u2026 until Marion decides to take a shower.", "poster_path": "/81d8oyEFgj7FlxJqSDXWr8JH8kV.jpg", "popularity": 25.393}, {"id": 856, "video": false, "vote_count": 3249, "vote_average": 7.4, "title": "Who Framed Roger Rabbit", "release_date": "1988-06-21", "original_language": "en", "original_title": "Who Framed Roger Rabbit", "genre_ids": [16, 35, 80, 14, 10751], "backdrop_path": "/9podqGmd36AJHO13HQIQHQZRTJC.jpg", "adult": false, "overview": "'Toon star Roger is worried that his wife Jessica is playing pattycake with someone else, so the studio hires detective Eddie Valiant to snoop on her. But the stakes are quickly raised when Marvin Acme is found dead and Roger is the prime suspect.", "poster_path": "/lYfRc57Kx9VgLZ48iulu0HKnM15.jpg", "popularity": 20.755}, {"adult": false, "backdrop_path": "/kQYBOmJHSUzxeY7VnUXo4t4WIl7.jpg", "genre_ids": [80, 18, 9648, 53], "id": 829, "original_language": "en", "original_title": "Chinatown", "overview": "Private eye Jake Gittes lives off of the murky moral climate of sunbaked, pre-World War II Southern California. Hired by a beautiful socialite to investigate her husband's extra-marital affair, Gittes is swept into a maelstrom of double dealings and deadly deceits, uncovering a web of personal and political scandals that come crashing together.", "poster_path": "/iIHO6FzF6lL4mA90rrmk3Y705XS.jpg", "release_date": "1974-06-20", "title": "Chinatown", "video": false, "vote_average": 7.9, "vote_count": 2007, "popularity": 20.802}, {"id": 504562, "video": false, "vote_count": 198, "vote_average": 7.1, "title": "Motherless Brooklyn", "release_date": "2019-10-31", "original_language": "en", "original_title": "Motherless Brooklyn", "genre_ids": [18, 9648, 53], "backdrop_path": "/mJoZVYRTtPI6aMPb1UanuXFC1Zw.jpg", "adult": false, "overview": "Lionel Essrog, a private detective living with Tourette syndrome, ventures to solve the murder of his mentor and best friend \u2014 a mystery that carries him from the gin-soaked jazz clubs of Harlem to the slums of Brooklyn to the gilded halls of New York's power brokers.", "poster_path": "/jjMJy5OxJHpFIaboCklDIYdcfpD.jpg", "popularity": 88.388}, {"id": 291870, "video": false, "vote_count": 2886, "vote_average": 5.8, "title": "Dirty Grandpa", "release_date": "2016-01-21", "original_language": "en", "original_title": "Dirty Grandpa", "genre_ids": [35], "backdrop_path": "/ivm52GLofIbvTb4dp4S4zbPO6II.jpg", "adult": false, "overview": "Jason Kelly is one week away from marrying his boss's uber-controlling daughter, putting him on the fast track for a partnership at the law firm. However, when the straight-laced Jason is tricked into driving his foul-mouthed grandfather, Dick, to Daytona for spring break, his pending nuptials are suddenly in jeopardy. Between riotous frat parties, bar fights, and an epic night of karaoke, Dick is on a quest to live his life to the fullest and bring Jason along for the ride.", "poster_path": "/cZEx6mB5Ftnt7LvlDjTKXcrTvyg.jpg", "popularity": 20.13}, {"id": 2770, "video": false, "vote_count": 2941, "vote_average": 6.1, "title": "American Pie 2", "release_date": "2001-08-10", "original_language": "en", "original_title": "American Pie 2", "genre_ids": [35, 10749], "backdrop_path": "/1C1d3Tpesm8Vn3BRqsQZt0LfZcG.jpg", "adult": false, "overview": "The whole gang are back and as close as ever. They decide to get even closer by spending the summer together at a beach house. They decide to hold the biggest party ever to be seen, even if the preparation doesn't always go to plan. Especially when Stifler, Finch and Jim become more close to each other than they ever want to be and when Jim mistakes super glue for lubricant...", "poster_path": "/q4LNgUnRfltxzp3gf1MAGiK5LhV.jpg", "popularity": 20.359}, {"adult": false, "backdrop_path": "/rTxVvB9snqgEBI2BPLdw4iwvK2E.jpg", "genre_ids": [35, 10749], "id": 6957, "original_language": "en", "original_title": "The 40 Year Old Virgin", "overview": "Andy Stitzer has a pleasant life with a nice apartment and a job stamping invoices at an electronics store. But at age 40, there's one thing Andy hasn't done, and it's really bothering his sex-obsessed male co-workers: Andy is still a virgin. Determined to help Andy get laid, the guys make it their mission to de-virginize him. But it all seems hopeless until Andy meets small business owner Trish, a single mom.", "poster_path": "/5WTywBaFoQhjHTaztkKAfcVmxZn.jpg", "release_date": "2005-08-11", "title": "The 40 Year Old Virgin", "video": false, "vote_average": 6.3, "vote_count": 4101, "popularity": 20.15}, {"adult": false, "backdrop_path": "/vXT5Gw09k99o9XXqqxBPz9NKgsa.jpg", "genre_ids": [35, 12], "id": 9285, "original_language": "en", "original_title": "Road Trip", "overview": "Four friends take off on an 1800 mile road trip to retrieve an illicit tape mistakenly mailed to a girl friend.", "poster_path": "/DCoZVnHVvtKTYwfM00dfVRbfUQ.jpg", "release_date": "2000-05-19", "title": "Road Trip", "video": false, "vote_average": 6.0, "vote_count": 1018, "popularity": 20.323}, {"id": 416148, "video": false, "vote_count": 107, "vote_average": 5.8, "title": "Rocco", "release_date": "2016-11-30", "original_language": "en", "original_title": "Rocco", "genre_ids": [99], "backdrop_path": "/jelem3Rk7C6fgpJh8BqktdorDYK.jpg", "adult": false, "overview": "Rocco Siffredi is to pornography what Mike Tyson is to boxing or Mick Jagger is to rock\u2019n\u2019roll: a living legend. His mother wanted him to be a priest; with her blessing he became a hardcore performer, devoting his life to one God only: Desire. Rocco Siffredi reveals all, even if it sometimes means busting his own myth: his true story, beginnings, career, wife and children\u2026 and the ultimate revelation that will change his life forever.", "poster_path": "/wGVnyKJm37uXqL1wAeLfnGuYw0m.jpg", "popularity": 13.59}, {"id": 3049, "video": false, "vote_count": 3439, "vote_average": 6.5, "title": "Ace Ventura: Pet Detective", "release_date": "1994-02-04", "original_language": "en", "original_title": "Ace Ventura: Pet Detective", "genre_ids": [35, 9648], "backdrop_path": "/fAX6bvEKcWQmZMlB5NZzSoJkRuG.jpg", "adult": false, "overview": "He's Ace Ventura: Pet Detective. Jim Carrey is on the case to find the Miami Dolphins' missing mascot and quarterback Dan Marino. He goes eyeball to eyeball with a man-eating shark, stakes out the Miami Dolphins and woos and wows the ladies. Whether he's undercover, under fire or underwater, he always gets his man\u2026 or beast!", "poster_path": "/nZirljb8XYbKTWsRQTplDGhx39Q.jpg", "popularity": 19.584}, {"adult": false, "backdrop_path": "/1yJopDnHURAlQqnmwsh6eqkZkdf.jpg", "genre_ids": [35, 18], "id": 381341, "original_language": "it", "original_title": "Perfetti sconosciuti", "overview": "During a dinner, a group of friends decide to share whatever text message or phone call they will receive during the evening - and all hell breaks loose.", "poster_path": "/3wknM629Vryofb1HNo2YnLQnQyn.jpg", "release_date": "2016-02-11", "title": "Perfect Strangers", "video": false, "vote_average": 7.9, "vote_count": 2835, "popularity": 18.458}, {"id": 9319, "video": false, "vote_count": 936, "vote_average": 6.7, "title": "The Last Boy Scout", "release_date": "1991-12-11", "original_language": "en", "original_title": "The Last Boy Scout", "genre_ids": [28, 53], "backdrop_path": "/7crRVZFSGSrDk0wR3Lahxr1Fb7P.jpg", "adult": false, "overview": "When the girl that detective Joe Hallenback is protecting gets murdered, the boyfriend of the murdered girl attempts to investigate and solve the case. What they discover is that there is deep seated corruption going on between a crooked politician and the owner of a pro football team.", "poster_path": "/cTl2WqsERuZ5vYmAmtfsPIJBLr0.jpg", "popularity": 15.282}, {"adult": false, "backdrop_path": "/n3mOfQBLMPGO3AO0L5pgkf2DaEF.jpg", "genre_ids": [80, 9648, 53], "id": 910, "original_language": "en", "original_title": "The Big Sleep", "overview": "Private Investigator Philip Marlowe is hired by wealthy General Sternwood regarding a matter involving his youngest daughter Carmen. Before the complex case is over, Marlowe sees murder, blackmail, deception, and what might be love.", "poster_path": "/ttUJSTKBdu1dR8d24FaoS4S1GFJ.jpg", "release_date": "1946-08-23", "title": "The Big Sleep", "video": false, "vote_average": 7.7, "vote_count": 507, "popularity": 12.425}, {"id": 98357, "video": false, "vote_count": 892, "vote_average": 5.9, "title": "Broken City", "release_date": "2013-01-18", "original_language": "en", "original_title": "Broken City", "genre_ids": [80, 18, 53], "backdrop_path": "/5VsPAeiXGy7PhvYlbQFPO2FO3H4.jpg", "adult": false, "overview": "In a broken city rife with injustice, ex-cop Billy Taggart seeks redemption and revenge after being double-crossed and then framed by its most powerful figure, the mayor. Billy's relentless pursuit of justice, matched only by his streetwise toughness, makes him an unstoppable force - and the mayor's worst nightmare.", "poster_path": "/pYDj2b15p4YdNz88XvO7QmBoHgD.jpg", "popularity": 11.136}, {"id": 5156, "video": false, "vote_count": 1096, "vote_average": 8.2, "title": "Bicycle Thieves", "release_date": "1948-11-24", "original_language": "it", "original_title": "Ladri di biciclette", "genre_ids": [18], "backdrop_path": "/vyz8ZJpATpxWCvYe5caZyzdn9Zq.jpg", "adult": false, "overview": "Antonio, an unemployed man in the depressed post-WWII economy of Italy, at last finds a good job hanging up posters, the only requirement for which is that he must have his own bicycle. When Antonio\u2019s bicycle is stolen, he and his son are forced to walk the streets of Rome in search of it, or else face ruin.", "poster_path": "/7ZiSTZN5FWsphVmlwFVFfn5EOl.jpg", "popularity": 14.119}, {"adult": false, "backdrop_path": "/scRw6gAoO3CfgQnZjHCh2ZgU4Z1.jpg", "genre_ids": [80, 18, 878, 53], "id": 281, "original_language": "en", "original_title": "Strange Days", "overview": "Set in the year 1999 during the last days of the old millennium, the movie tells the story of Lenny Nero, an ex-cop who now deals with data-discs containing recorded memories and emotions. One day he receives a disc which contains the memories of a murderer killing a prostitute. Lenny investigates and is pulled deeper and deeper in a whirl of blackmail, murder and rape. Will he survive and solve the case?", "poster_path": "/rXvy5hG9OeVmgnv9w4IhQxhqEKD.jpg", "release_date": "1995-10-13", "title": "Strange Days", "video": false, "vote_average": 7.0, "vote_count": 663, "popularity": 17.431}, {"id": 2841, "video": false, "vote_count": 660, "vote_average": 7.3, "title": "A Very Long Engagement", "release_date": "2004-10-26", "original_language": "fr", "original_title": "Un long dimanche de fian\u00e7ailles", "genre_ids": [18, 10749, 10752], "backdrop_path": "/pvSoTwy7GCpj4PE3O2XarCvB6ct.jpg", "adult": false, "overview": "In 1919, Mathilde was 19 years old. Two years earlier, her fianc\u00e9 Manech left for the front at the Somme. Like millions of others he was \"killed on the field of battle.\" It's written in black and white on the official notice. But Mathilde refuses to believe it. If Manech had died, she would know. She hangs on to her intuition as tightly as she would onto the last thread of hope linking her to her lover. A former sergeant tells her in vain that Manech died in the no man's land of a trench named Bingo Crepescule, in the company of four other men condemned to die for self-inflicted wounds. Her path ahead is full of obstacles but Mathilde is not frightened. Anything is possible to someone who is willing to challenge fate...", "poster_path": "/jtE7Xrj8KKnhGI3p2yCgwrtUCnd.jpg", "popularity": 10.84}], "total_pages": 26, "total_results": 508}, "recommendations": {"page": 1, "results": [], "total_pages": 1, "total_results": 0}, "credits": {"cast": [{"cast_id": 1, "character": "Larry Stanziani", "credit_id": "52fe46e7c3a368484e0aa57d", "gender": 2, "id": 22383, "name": "Franco Nero", "order": 0, "profile_path": "/lwXfTQrFqAw4zcVjrhgq3THfWCg.jpg"}, {"cast_id": 2, "character": "Brenda", "credit_id": "52fe46e7c3a368484e0aa581", "gender": 1, "id": 29541, "name": "Sybil Danning", "order": 1, "profile_path": "/6WydVNd7JTYY0zbYtH2iwKGGo7k.jpg"}, {"cast_id": 17, "character": "Davide", "credit_id": "5c48db970e0a26495acd7564", "gender": 2, "id": 1074078, "name": "Mario Maranzana", "order": 2, "profile_path": "/AhWuuReltpgWeJfX2Ep4Mo9T09d.jpg"}, {"cast_id": 7, "character": "Lola Alberti", "credit_id": "52fe46e7c3a368484e0aa595", "gender": 1, "id": 127816, "name": "Licinia Lentini", "order": 3, "profile_path": "/w46vhb00cqGDPZUyjPFL9EkrXNH.jpg"}, {"cast_id": 5, "character": "Martino", "credit_id": "52fe46e7c3a368484e0aa58d", "gender": 2, "id": 128674, "name": "Ennio Girolami", "order": 4, "profile_path": "/pWGuciABYgcvr65LvrffDdfjbIz.jpg"}, {"cast_id": 6, "character": "Raul Papasian", "credit_id": "52fe46e7c3a368484e0aa591", "gender": 2, "id": 46418, "name": "Mickey Knox", "order": 5, "profile_path": "/5tyGEyr0PwKt9tFhDySAFekOj7S.jpg"}, {"cast_id": 3, "character": "Beltrame", "credit_id": "52fe46e7c3a368484e0aa585", "gender": 2, "id": 45580, "name": "Massimo Vanni", "order": 6, "profile_path": "/pfgO8kx64ONCh2CEfACIEdvIb5z.jpg"}, {"cast_id": 4, "character": "Blonde Assassin", "credit_id": "52fe46e7c3a368484e0aa589", "gender": 0, "id": 101202, "name": "Sasha D'Arc", "order": 7, "profile_path": "/yTKUAe40usjJpThUoib0py3d187.jpg"}, {"cast_id": 15, "character": "Silvestri", "credit_id": "52fe46e7c3a368484e0aa5bf", "gender": 2, "id": 102121, "name": "Romano Puppo", "order": 8, "profile_path": "/k2ExalQ56vsy6mjNMvGEFyMVnFb.jpg"}, {"cast_id": 18, "character": "Kandinsky Hitman", "credit_id": "5c48dbb692514105c151241b", "gender": 2, "id": 1026047, "name": "Angelo Ragusa", "order": 9, "profile_path": "/zbYSheDT9EvuKXsTuYamppo7WdW.jpg"}, {"cast_id": 19, "character": "Tim", "credit_id": "5c48dbc2c3a36847778992bc", "gender": 0, "id": 1157688, "name": "Carlo Gabriel Nero", "order": 10, "profile_path": null}, {"cast_id": 8, "character": "Jack Goldsmith", "credit_id": "52fe46e7c3a368484e0aa599", "gender": 2, "id": 102101, "name": "William Berger", "order": 11, "profile_path": "/ccCCzw4PTrLaePyuCL1jor9REM3.jpg"}, {"cast_id": 20, "character": "Smith", "credit_id": "5c48dbd60e0a26494dcd16e7", "gender": 2, "id": 144613, "name": "Rocco Lerro", "order": 12, "profile_path": "/bpT9yt4OY4PM85UQsSDJA43kUfq.jpg"}, {"cast_id": 21, "character": "Hitman", "credit_id": "5c48dbe1c3a368663485d806", "gender": 2, "id": 1281109, "name": "Franco Ukmar", "order": 13, "profile_path": "/tuIrNcc9zQP3M0EJVPFXZk8Ua4t.jpg"}, {"cast_id": 22, "character": "Guard at Nightclub", "credit_id": "5c48dbf40e0a260419ca21bf", "gender": 0, "id": 1091539, "name": "Giovanni Bonadonna", "order": 14, "profile_path": null}, {"cast_id": 14, "character": "Warehouse Thug (uncredited)", "credit_id": "52fe46e7c3a368484e0aa5bb", "gender": 2, "id": 50739, "name": "Enzo G. Castellari", "order": 15, "profile_path": "/3M6yGYo7SRpTqXOcXY2WdUiPIbe.jpg"}, {"cast_id": 16, "character": "Leo Kandinsky (uncredited)", "credit_id": "52fe46e7c3a368484e0aa5c3", "gender": 2, "id": 87680, "name": "Michele Soavi", "order": 16, "profile_path": "/bsHXw93qX1CGeWAduOFFQmN1tWD.jpg"}, {"cast_id": 23, "character": "Papasian's Secretary (uncredited)", "credit_id": "5c48dc0b92514151a94f39c7", "gender": 0, "id": 123968, "name": "Stefania Girolami Goodwin", "order": 17, "profile_path": "/7NXPjK1KTwNp5cYxzkWS5Ooy1QB.jpg"}, {"cast_id": 24, "character": "Warehouse Worker (uncredited)", "credit_id": "5c48dc200e0a26495acd75ee", "gender": 2, "id": 27412, "name": "Benito Pacifico", "order": 18, "profile_path": "/2FuGAZM22iS58nWpxqGYQTT8ncp.jpg"}, {"cast_id": 25, "character": "Hitman (uncredited)", "credit_id": "5c48dc47c3a368477789945a", "gender": 0, "id": 15913, "name": "Claudio Pacifico", "order": 19, "profile_path": "/55wkGd3D4gI70IwQQDgbW29zGDp.jpg"}], "crew": [{"credit_id": "5c48df66c3a368477a89edc8", "department": "Art", "gender": 0, "id": 5672, "job": "Production Design", "name": "Stefano Maria Ortolani", "profile_path": null}, {"credit_id": "5c48ded392514154484f2e4d", "department": "Crew", "gender": 0, "id": 15913, "job": "Stunts", "name": "Claudio Pacifico", "profile_path": "/55wkGd3D4gI70IwQQDgbW29zGDp.jpg"}, {"credit_id": "5c48dd2892514154484f2c72", "department": "Production", "gender": 2, "id": 33788, "job": "Producer", "name": "Turi Vasile", "profile_path": null}, {"credit_id": "52fe46e7c3a368484e0aa5ab", "department": "Writing", "gender": 2, "id": 41092, "job": "Screenplay", "name": "Aldo Lado", "profile_path": "/A2FZS1AKG6wmFAJzlcbO1lUVfKY.jpg"}, {"credit_id": "52fe46e7c3a368484e0aa5a5", "department": "Writing", "gender": 2, "id": 41092, "job": "Story", "name": "Aldo Lado", "profile_path": "/A2FZS1AKG6wmFAJzlcbO1lUVfKY.jpg"}, {"credit_id": "52fe46e7c3a368484e0aa59f", "department": "Directing", "gender": 2, "id": 50739, "job": "Director", "name": "Enzo G. Castellari", "profile_path": "/3M6yGYo7SRpTqXOcXY2WdUiPIbe.jpg"}, {"credit_id": "5c48dea492514154484f2dfb", "department": "Editing", "gender": 0, "id": 50750, "job": "Editor", "name": "Gianfranco Amicucci", "profile_path": null}, {"credit_id": "5c48dd170e0a26494fcd7e4c", "department": "Production", "gender": 2, "id": 53188, "job": "Executive Producer", "name": "Fabrizio De Angelis", "profile_path": "/eC6crqKdJ4gCOqhfrOnrahjbAWJ.jpg"}, {"credit_id": "52fe46e7c3a368484e0aa5b1", "department": "Writing", "gender": 2, "id": 81507, "job": "Screenplay", "name": "Fabio Carpi", "profile_path": null}, {"credit_id": "52fe46e7c3a368484e0aa5b7", "department": "Writing", "gender": 2, "id": 92928, "job": "Screenplay", "name": "Tito Carpi", "profile_path": null}, {"credit_id": "5c48debd92514105c1512901", "department": "Crew", "gender": 2, "id": 144613, "job": "Stunt Coordinator", "name": "Rocco Lerro", "profile_path": "/bpT9yt4OY4PM85UQsSDJA43kUfq.jpg"}, {"credit_id": "5c48de93c3a368478c89bf64", "department": "Camera", "gender": 0, "id": 402454, "job": "Director of Photography", "name": "Giovanni Bergamini", "profile_path": null}, {"credit_id": "5c48dec8c3a368478989342a", "department": "Crew", "gender": 2, "id": 1026047, "job": "Stunts", "name": "Angelo Ragusa", "profile_path": "/zbYSheDT9EvuKXsTuYamppo7WdW.jpg"}, {"credit_id": "5c48dd3892514105c15125f1", "department": "Sound", "gender": 0, "id": 1177194, "job": "Original Music Composer", "name": "Paolo Vasile", "profile_path": null}, {"credit_id": "5c48e0ecc3a3684789893714", "department": "Production", "gender": 0, "id": 1177194, "job": "Production Manager", "name": "Paolo Vasile", "profile_path": null}, {"credit_id": "5c48e1229251410e0a54331e", "department": "Costume & Make-Up", "gender": 0, "id": 1366268, "job": "Costume Designer", "name": "Carlo Carunchio", "profile_path": null}, {"credit_id": "5c48e14b92514151a94f4397", "department": "Crew", "gender": 0, "id": 1710185, "job": "Special Effects", "name": "Dino Galiano", "profile_path": null}, {"credit_id": "5c48e1370e0a260419ca3001", "department": "Costume & Make-Up", "gender": 0, "id": 1719808, "job": "Makeup Artist", "name": "Giovanni Morosi", "profile_path": null}, {"credit_id": "5c48e0fc0e0a26495acd7da8", "department": "Editing", "gender": 0, "id": 1745028, "job": "Assistant Editor", "name": "Roberto Amicucci", "profile_path": null}, {"credit_id": "5c48e10e92514151a94f4381", "department": "Editing", "gender": 0, "id": 2224842, "job": "Assistant Editor", "name": "Stefania Falsetti", "profile_path": null}]}}