{"adult": false, "backdrop_path": "/oSw1I6kaU16n6AU20Z24TodLSQM.jpg", "belongs_to_collection": null, "budget": 0, "genres": [{"id": 18, "name": "Drama"}], "homepage": null, "id": 64835, "imdb_id": "tt1886502", "original_language": "it", "original_title": "Corpo Celeste", "overview": "After growing up in Switzerland, 13-year-old Marta returns to a city in southern Italy with her mother and older sister. Independent and inquisitive, she joins a catechism class at a local church. However, the games and religious pop songs she encounters there do not nearly satisfy her interest in faith. Struggling to find her place, Marta pushes the boundaries of the class, the priest, and the church.", "popularity": 1.435, "poster_path": "/mVc2oIwMtl83fDi2BZ9QH0jKIoH.jpg", "production_companies": [{"id": 76129, "logo_path": "/wadqq2xlU1fWkRT2BSOb2VDyDVZ.png", "name": "Tempesta", "origin_country": "IT"}, {"id": 3883, "logo_path": null, "name": "JBA Production", "origin_country": "FR"}, {"id": 2715, "logo_path": null, "name": "Amka Films", "origin_country": "CH"}], "production_countries": [{"iso_3166_1": "FR", "name": "France"}, {"iso_3166_1": "IT", "name": "Italy"}, {"iso_3166_1": "CH", "name": "Switzerland"}], "release_date": "2011-05-20", "revenue": 0, "runtime": 100, "spoken_languages": [{"iso_639_1": "it", "name": "Italiano"}], "status": "Released", "tagline": "", "title": "Corpo Celeste", "video": false, "vote_average": 7.3, "vote_count": 25, "keywords": {"keywords": [{"id": 187056, "name": "woman director"}]}, "similar": {"page": 1, "results": [{"adult": false, "backdrop_path": "/cADbqsIoiDW7X3Myg9nz8eAuno5.jpg", "genre_ids": [18, 10749], "id": 10818, "original_language": "fr", "original_title": "Naissance des pieuvres", "overview": "Set during a sultry summer in a French suburb, Marie is desperate to join the local pool's synchronized swimming team, but is her interest solely for the sake of sport or for a chance to get close to Floriane, the bad girl of the team? Sciamma, and the two leads, capture the uncertainty of teenage sexuality with a sympathetic eye in this delicate drama of the angst of coming-of-age.", "poster_path": "/4jajELYrR4Xmv3CVoKnukRnALa2.jpg", "release_date": "2007-05-17", "title": "Water Lilies", "video": false, "vote_average": 6.1, "vote_count": 119, "popularity": 10.744}, {"adult": false, "backdrop_path": "/gZeJziVigmRqbkEZwKAtSqlLQ6s.jpg", "genre_ids": [18, 10749], "id": 370663, "original_language": "en", "original_title": "Below Her Mouth", "overview": "An unexpected affair quickly escalates into a heart-stopping reality for two women whose passionate connection changes their lives forever.", "poster_path": "/nTGbq37hYLuNy7YgMg0gVLma0NS.jpg", "release_date": "2016-09-10", "title": "Below Her Mouth", "video": false, "vote_average": 6.2, "vote_count": 456, "popularity": 22.676}, {"adult": false, "backdrop_path": "/dvQDRfv3qvfHNnVAR57ouVsuErf.jpg", "genre_ids": [10749, 18], "id": 28031, "original_language": "en", "original_title": "If These Walls Could Talk 2", "overview": "The stories of three lesbian couples -- who live in the same house at different periods of time -- who are at a crossroads in their lives. In 1961, Edith loses her lover, Abby, to a stroke. Linda and Amy struggle with feminist issues in 1972. And, in 2000, Kal and Fran try to have a baby with the help of sperm donor.", "poster_path": "/xs7ODbmYQXCDhvXNvz5tF17T59H.jpg", "release_date": "2000-03-05", "title": "If These Walls Could Talk 2", "video": false, "vote_average": 7.1, "vote_count": 55, "popularity": 8.062}, {"adult": false, "backdrop_path": "/knczzNAjBXzSYkeWxoT1u9VNmjR.jpg", "genre_ids": [10749, 18], "id": 258480, "original_language": "en", "original_title": "Carol", "overview": "In 1950s New York, a department-store clerk who dreams of a better life falls for an older, married woman.", "poster_path": "/AbKa7ANxmui0Jmhh7gV7OSELKIL.jpg", "release_date": "2015-11-20", "title": "Carol", "video": false, "vote_average": 7.4, "vote_count": 2182, "popularity": 14.185}, {"adult": false, "backdrop_path": "/fZ8oFcREAr6wgWcXISGql0xyxjB.jpg", "genre_ids": [35, 18], "id": 39781, "original_language": "en", "original_title": "The Kids Are All Right", "overview": "Two women, Nic and Jules, brought a son and daughter into the world through artificial insemination. When one of their children reaches age, both kids go behind their mothers' backs to meet with the donor. Life becomes so much more interesting when the father, two mothers and children start to become attached to each other.", "poster_path": "/fPDeK4MmoGfi2X0oWZev7LrbMqM.jpg", "release_date": "2010-07-09", "title": "The Kids Are All Right", "video": false, "vote_average": 6.6, "vote_count": 923, "popularity": 12.703}, {"adult": false, "backdrop_path": "/rf6G51j0SZL0tP57I8gnqHTRFEr.jpg", "genre_ids": [35, 18, 10749], "id": 273153, "original_language": "fr", "original_title": "La belle saison", "overview": "In 1971, Carole and Delphine meet and fall in love in Paris. When Carole follows Delphine back to her family farm in Limousin, the two find lesbianism and feminism are not as easy in the countryside.", "poster_path": "/evvAkNMO5VJiy5qIo1Hu7fUfvVI.jpg", "release_date": "2015-08-19", "title": "Summertime", "video": false, "vote_average": 6.6, "vote_count": 162, "popularity": 15.434}, {"adult": false, "backdrop_path": "/s12HEmmkJfI2mjltI61hGm5kubD.jpg", "genre_ids": [35, 18, 10749], "id": 20770, "original_language": "en", "original_title": "But I'm a Cheerleader", "overview": "Megan is an all-American girl. A cheerleader. She has a boyfriend. But Megan doesn't like kissing her boyfriend very much. And she's pretty touchy with her cheerleader friends. Her conservative parents worry that she must be a lesbian and send her off to \"sexual redirection\" school, where she must, with other lesbians and gays learn how to be straight.", "poster_path": "/eDGH7CHSdkrYcuUJV1e0WS9DlQL.jpg", "release_date": "1999-12-09", "title": "But I'm a Cheerleader", "video": false, "vote_average": 6.8, "vote_count": 246, "popularity": 10.067}, {"id": 9813, "video": false, "vote_count": 128, "vote_average": 6.1, "title": "The Quiet", "release_date": "2005-09-12", "original_language": "en", "original_title": "The Quiet", "genre_ids": [18, 53], "backdrop_path": "/6eyWAZA4CEidZW1xXnQ4vlYBXTP.jpg", "adult": false, "overview": "After her widowed father dies, deaf teenager Dot moves in with her godparents, Olivia and Paul Deer. The Deers' daughter, Nina, is openly hostile to Dot, but that does not prevent her from telling her secrets to her silent stepsister, including the fact that she wants to kill her lecherous father.", "poster_path": "/GEqIE9YlmygHVUfS64LW2cwAAM.jpg", "popularity": 13.948}, {"adult": false, "backdrop_path": "/tzqeuHWMFihFbiLGHdalPgAcSf6.jpg", "genre_ids": [18, 10749], "id": 18620, "original_language": "en", "original_title": "Go Fish", "overview": "Max is a trendy, pretty, young lesbian, who is having trouble finding love. A friend sets her up with Ely, whom Max likes, but Ely is frumpy, homely, and older. Nor do they have much in common. Can Max learn to look past the packaging?", "poster_path": "/qrEFYrwykaGsY8NULYuYLLI7zrM.jpg", "release_date": "1994-06-10", "title": "Go Fish", "video": false, "vote_average": 5.0, "vote_count": 11, "popularity": 2.626}, {"adult": false, "backdrop_path": "/6tern9vOEwwmkDYC1vRCuO64z0C.jpg", "genre_ids": [10749, 18], "id": 475888, "original_language": "en", "original_title": "Tell It to the Bees", "overview": "Dr. Jean Markham returns to the town she left as a teenager to take over her late father's medical practice. When a school-yard scuffle lands Charlie in her surgery, she invites him to visit the hives in her garden and tell his secrets to the bees, as she once did. The new friendship between the boy and the bee keeper brings his mother Lydia into Jean's world.", "poster_path": "/Rj6zpHhMU1zFW3v28U4PSRSRgP.jpg", "release_date": "2019-05-03", "title": "Tell It to the Bees", "video": false, "vote_average": 6.4, "vote_count": 53, "popularity": 15.113}, {"adult": false, "backdrop_path": "/baYbbMtKRDoDWYJeVWkbygAvAj8.jpg", "genre_ids": [18, 10749], "id": 31216, "original_language": "en", "original_title": "I Can't Think Straight", "overview": "I CAN'T THINK STRAIGHT is a 2007 romance movie about a London-based Jordanian of Palestinian descent, Tala, who is preparing for an elaborate wedding. A turn of events causes her to have an affair and subsequently fall in love with another woman, Leyla, a British Indian.", "poster_path": "/1kapga6rkM5wNuQBYw7sdE42CrA.jpg", "release_date": "2008-06-01", "title": "I Can't Think Straight", "video": false, "vote_average": 7.6, "vote_count": 109, "popularity": 8.749}, {"adult": false, "backdrop_path": "/lI5h8KaoeObu4NMTwzeRuUHzRwD.jpg", "genre_ids": [18, 9648, 53], "id": 401898, "original_language": "no", "original_title": "Thelma", "overview": "A college student starts to experience extreme seizures. She soon learns that the violent episodes are a symptom of inexplicable abilities.", "poster_path": "/yzSfG8TLAqw7nMQh2lxirQkQpgs.jpg", "release_date": "2017-09-15", "title": "Thelma", "video": false, "vote_average": 7.1, "vote_count": 418, "popularity": 12.235}, {"adult": false, "backdrop_path": "/tIFRPjIXQ3sYrmxbIeOu9K1JkUz.jpg", "genre_ids": [18, 10749], "id": 294, "original_language": "en", "original_title": "Desert Hearts", "overview": "The story of straight-edge literature professor Vivian who travels to Reno to get away from a relationship breakup when she falls in love with an attractive and unconventional girl named Cay.", "poster_path": "/b8JSmQSpYYJhctMtxNgqh0elENg.jpg", "release_date": "1985-10-01", "title": "Desert Hearts", "video": false, "vote_average": 7.3, "vote_count": 58, "popularity": 8.237}, {"id": 2255, "video": false, "vote_count": 772, "vote_average": 6.8, "title": "Chasing Amy", "release_date": "1997-04-04", "original_language": "en", "original_title": "Chasing Amy", "genre_ids": [35, 18, 10749], "backdrop_path": "/doKYVK61Vb8J1KUjlb9dNWkQNp6.jpg", "adult": false, "overview": "Holden and Banky are comic book artists. Everything is going good for them until they meet Alyssa, also a comic book artist. Holden falls for her, but his hopes are crushed when he finds out she's a lesbian.", "poster_path": "/4vFJileWrCGaBeobCmF0tXpQCUb.jpg", "popularity": 11.325}, {"adult": false, "backdrop_path": "/hD8DQM72Xacg1d3mFqS0eN8vKYw.jpg", "genre_ids": [18], "id": 8272, "original_language": "en", "original_title": "The Savages", "overview": "A sister and brother face the realities of familial responsibility as they begin to care for their ailing father.", "poster_path": "/nY54gSmTOmSXlQpWDB7DWp4u8a7.jpg", "release_date": "2007-01-19", "title": "The Savages", "video": false, "vote_average": 6.9, "vote_count": 192, "popularity": 13.094}, {"adult": false, "backdrop_path": "/g3LYarEY9LjB28Ct2trwFN72gqZ.jpg", "genre_ids": [35], "id": 437557, "original_language": "en", "original_title": "Blockers", "overview": "When three parents discover their daughters\u2019 pact to lose their virginity at prom, they launch a covert one-night operation to stop the teens from sealing the deal.", "poster_path": "/uvlUQXg0AlpGzKukO11K7QtW3Yu.jpg", "release_date": "2018-03-14", "title": "Blockers", "video": false, "vote_average": 6.2, "vote_count": 1153, "popularity": 18.075}, {"adult": false, "backdrop_path": "/zBB1mzmqnUuSrlTuf0SFFlI1EoJ.jpg", "genre_ids": [18], "id": 244772, "original_language": "en", "original_title": "The Skeleton Twins", "overview": "Estranged twins Maggie and Milo coincidentally cheat death on the same day, prompting them to reunite and confront the reasons their lives went so wrong. As the twins' reunion reinvigorates them, they realize the key to fixing their lives may just lie in repairing their relationship.", "poster_path": "/vvmv1R2jDXJeeeyYcGg0ypXc2XK.jpg", "release_date": "2014-09-12", "title": "The Skeleton Twins", "video": false, "vote_average": 6.7, "vote_count": 416, "popularity": 9.821}, {"adult": false, "backdrop_path": "/3YGy88nTV2e0wxZcKI1goiEN9oy.jpg", "genre_ids": [18, 10749], "id": 37636, "original_language": "en", "original_title": "High Art", "overview": "A young female intern at a small magazine company becomes involved with a drug-addicted lesbian photographer, both of whom seek to exploit each other for their respective careers, while slowly falling in love with each other.", "poster_path": "/qTg05RNJIvb9w4Z7XIcAZxuZmTn.jpg", "release_date": "1998-06-12", "title": "High Art", "video": false, "vote_average": 6.6, "vote_count": 61, "popularity": 7.27}, {"adult": false, "backdrop_path": "/caLMOD3ZJ3V7qjlxDXrzlJfBLgD.jpg", "genre_ids": [18, 10749], "id": 20, "original_language": "en", "original_title": "My Life Without Me", "overview": "A Pedro Almodovar production in which a fatally ill mother with only two months to live creates a list of things she wants to do before she dies with out telling her family of her illness.", "poster_path": "/vVj92VBFUBzjqzLvBiPVVlJDp78.jpg", "release_date": "2003-03-07", "title": "My Life Without Me", "video": false, "vote_average": 6.1, "vote_count": 220, "popularity": 9.208}, {"adult": false, "backdrop_path": "/useuHJQ5HOoEWkAvEjL1FW1sUfe.jpg", "genre_ids": [18], "id": 376867, "original_language": "en", "original_title": "Moonlight", "overview": "The tender, heartbreaking story of a young man\u2019s struggle to find himself, told across three defining chapters in his life as he experiences the ecstasy, pain, and beauty of falling in love, while grappling with his own sexuality.", "poster_path": "/qAwFbszz0kRyTuXmMeKQZCX3Q2O.jpg", "release_date": "2016-10-21", "title": "Moonlight", "video": false, "vote_average": 7.4, "vote_count": 4406, "popularity": 27.348}], "total_pages": 1446, "total_results": 28907}, "recommendations": {"page": 1, "results": [{"adult": false, "backdrop_path": "/9lXksdWVo8jhY9x7UwO6JPoUWpz.jpg", "genre_ids": [35, 18, 10749], "id": 252426, "original_language": "en", "original_title": "La Tigra, Chaco", "overview": "La Tigra, Chaco. A quiet town only 20 blocks long. Esteban returns after years of absence to the place where he spent his childhood summers. He returns looking for his father, Cacho, and to talk \"about Buenos Aires\". But Cacho, a truck driver who has started a new family in La Tigra, is often on the road and their encounter is postponed indefinitely. While he waits, Esteban meets Vero, a childhood friend that has grown into a beautiful woman. Each step together seems to take them back to the most precious moments of a shared memory. But their relationship is not a journey into the past; rather it holds the promise of a future. Federico Godfrid's and Juan Sasia\u00edn's first feature film transmits the warmth, honesty and sadness of this reunion, thanks to its mise en sc\u00e8ne and the performances of Ezequiel Tronconi and Guadalupe Docampo, who give their characters a rare spontaneity.", "poster_path": "/p3M3bqBA9kfMKE3MWIw7mPBM9tU.jpg", "release_date": "2009-09-24", "title": "La Tigra, Chaco", "video": false, "vote_average": 7.3, "vote_count": 3, "popularity": 1.4}, {"adult": false, "backdrop_path": "/oI1lyd4YunXUV96fg6aYJYeh8CV.jpg", "genre_ids": [18], "id": 440952, "original_language": "de", "original_title": "Die beste aller Welten", "overview": "Based on true events, seven year old Adrian is growing up in the underground drug scene of Salzburg, usually famous for culture and classical music. His mother Helga is torn between her drug addiction and her love for her son. Despite of this Adrian has a happy childhood, the best of all worlds. But it is tested to the limit when the authorities and child welfare services find out about Helga's addiction.", "poster_path": "/3yas4fIV647ElWCDTOU9e22w1gN.jpg", "release_date": "2017-09-28", "title": "The Best of All Worlds", "video": false, "vote_average": 8.1, "vote_count": 8, "popularity": 1.673}, {"adult": false, "backdrop_path": null, "genre_ids": [18, 35, 10749], "id": 86440, "original_language": "es", "original_title": "Voy a explotar", "overview": "Tale of a young couple who throw caution to the wind and set out in search of their true fate. Rom\u00e1n is the son of a contemptible, right-leaning congressman. Recently enrolled in a new high school, the rebellious teen clumsily attempts to hang himself on-stage at the big talent show. Maru is the sole member of the audience to applaud, earning both students a day of detention. After bonding during the course of their punishment, Rom\u00e1n and Maru grab daddy's gun, steal a Volkswagen, and hit the road bound for nowhere.", "poster_path": "/tZkgRz8xXPUwezzTOQyIY8CvUmV.jpg", "release_date": "2008-09-26", "title": "I'm Gonna Explode", "video": false, "vote_average": 8.3, "vote_count": 3, "popularity": 1.871}, {"adult": false, "backdrop_path": "/wDMMuomLDmeC9wM5csNqrXOINzA.jpg", "genre_ids": [18], "id": 119616, "original_language": "en", "original_title": "Mariposa negra", "overview": "A Peruvian schoolteacher conspires with a journalist to assassinate the official responsible for her fianc\u00e9's murder.", "poster_path": "/mYqyHr5ttgRWUpwXMRfEcxAML8Z.jpg", "release_date": "2006-11-01", "title": "Black Butterfly", "video": false, "vote_average": 6.2, "vote_count": 5, "popularity": 2.564}, {"adult": false, "backdrop_path": "/sjcUlrhJGHnr6KD0jw1JB8zqKhx.jpg", "genre_ids": [35, 18], "id": 30805, "original_language": "es", "original_title": "Maldeamores", "overview": "A three-part look at the ironies of love, with stories that involve a young boy, a hostage situation, and a divorced elderly couple caught in a love triangle.", "poster_path": "/rTvrUKbz0jyPIfpAH1bLrmDEjSH.jpg", "release_date": "2007-04-27", "title": "Maldeamores", "video": false, "vote_average": 7.7, "vote_count": 7, "popularity": 2.051}, {"adult": false, "backdrop_path": "/9oYrMHXGwuAV4VCxqkq0GU19Rca.jpg", "genre_ids": [80, 18, 10749, 9648], "id": 47200, "original_language": "en", "original_title": "Shiza", "overview": "A teen involved in the world of underground boxing vows to take care of a dead fighter's family.", "poster_path": "/ptcym26vLdPf7WCNFes72wfp8Ct.jpg", "release_date": "2004-01-01", "title": "Schizo", "video": false, "vote_average": 6.6, "vote_count": 5, "popularity": 2.58}, {"id": 49685, "video": false, "vote_count": 14, "vote_average": 7.8, "title": "I'm Going Home", "release_date": "2001-05-13", "original_language": "fr", "original_title": "Je rentre \u00e0 la maison", "genre_ids": [18], "backdrop_path": "/t6EcsBVW86vhw57zVUdR0zFpZGp.jpg", "adult": false, "overview": "The comfortable daily routines of aging Parisian actor Gilbert Valence, 76, are suddenly shaken when he learns that his wife, daughter, and son-in-law have been killed in a car crash. Having to take care of his now-orphaned grandson, he struggles to go on with his lifelong acting career like he's used to. But the roles he is offered -- a flashy TV show and a hectic last-minute replacement in an English-language film of Joyce's Ulysses -- finally convince him that it's time to retire.", "poster_path": "/5CQ5VzMh8s9hYsTHOQLMRCcqTM8.jpg", "popularity": 1.461}, {"adult": false, "backdrop_path": "/lWKeeXA6nHEDziFcFP5eUrEvMJo.jpg", "genre_ids": [18, 14, 10749], "id": 26232, "original_language": "en", "original_title": "Viva Cuba", "overview": "The friendship between two children is threatened by their parents\u2019 differences. Mal\u00fa is from a family that was upper-class before the Revolution and remains well-to-do through remittances from relatives overseas, and her single mother (Larisa Vega Alamar) does not want her to play with Jorgito, as she thinks his background coarse and commonplace. Jorgito\u2019s mother (Luisa Mar\u00eda Jim\u00e9nez Rodr\u00edguez),", "poster_path": "/2JheksOKgznqnXmQPPYmFh9muhV.jpg", "release_date": "2005-04-20", "title": "Viva Cuba", "video": false, "vote_average": 7.2, "vote_count": 11, "popularity": 3.609}, {"adult": false, "backdrop_path": null, "genre_ids": [10749, 18], "id": 105523, "original_language": "it", "original_title": "Porci con le ali", "overview": "Rome, 70s. Rocco and Antonia, high school students, meet during a political rally. The two young people share age, political ideas, dissatisfaction with their parents. Moreover, by attending, they realize they have fallen in love. It is the discovery of sex and passion. After some time, however, their relationship goes into crisis.", "poster_path": "/3r22hFbg0ZDhegWQqcq6Ygrivst.jpg", "release_date": "1977-01-01", "title": "Pigs Have Wings", "video": false, "vote_average": 4.4, "vote_count": 4, "popularity": 2.488}, {"adult": false, "backdrop_path": "/rWJr5sLFYtRYCf0pBmyt2a4xmZH.jpg", "genre_ids": [18, 35], "id": 54144, "original_language": "es", "original_title": "Abel", "overview": "When 9-year-old Abel assumes his absent father's role as man of the house, he garners his family's respect, and life resumes a comfortable rhythm -- until a man arrives at the house, claiming he's the long-lost patriarch", "poster_path": "/NrbvAbeEd7rMRM7S0tqEYyEKsf.jpg", "release_date": "2010-05-28", "title": "Abel", "video": false, "vote_average": 6.7, "vote_count": 11, "popularity": 2.366}, {"id": 17479, "video": false, "vote_count": 17, "vote_average": 6.5, "title": "Alexandra", "release_date": "2007-06-03", "original_language": "ru", "original_title": "\u0410\u043b\u0435\u043a\u0441\u0430\u043d\u0434\u0440\u0430", "genre_ids": [18, 10752], "backdrop_path": "/q2htpOVVJZdYmkbbFcNh2m5eBpo.jpg", "adult": false, "overview": "Elderly Aleksandra visits her Russian soldier grandson, Denis, at the Chechen war front, providing comfort as she tours his army. All the while, Denis ponders the reason for her unexpected appearance.", "poster_path": "/9POA9IsaXjMxNmiADcFLhg40c2B.jpg", "popularity": 2.421}, {"adult": false, "backdrop_path": "/1o5nN0zqhSAOnJfskim5owZmskT.jpg", "genre_ids": [18], "id": 42808, "original_language": "it", "original_title": "L'uomo che verr\u00e0", "overview": "A group of Italian villagers struggle to survive during a tumultuous time in 1943, debating how much assistance to give the partisans with the impending arrival of the Germans. Based on True Events.", "poster_path": "/erqqhIZ3MbIPy4rTKl6OBKPI0nb.jpg", "release_date": "2009-10-16", "title": "The Man Who Will Come", "video": false, "vote_average": 7.6, "vote_count": 35, "popularity": 2.961}, {"id": 53103, "video": false, "vote_count": 9, "vote_average": 6.3, "title": "My Queen Karo", "release_date": "2009-10-28", "original_language": "nl", "original_title": "My Queen Karo", "genre_ids": [18], "backdrop_path": "/p0fQD9o3K2UQSD2bl2JkMJLVA5g.jpg", "adult": false, "overview": "Nine-year-old Karo grows up with her parents in an Amsterdam commune in the Seventies. She leads a carefree existence in this utopia-for-adults. Everything is shared in the squat, but not everyone is able to honor these ideals. Karo gets confused because of the internal conflicts that start to divide the group. Karo slowly realizes that nothing can stay the same forever.", "poster_path": "/sXVCMy1xqzRYapNsfGj9OLQjR85.jpg", "popularity": 4.705}, {"adult": false, "backdrop_path": "/aaN1TSA8iGUwmVsXHC9pqnqaDgX.jpg", "genre_ids": [99], "id": 67381, "original_language": "fr", "original_title": "La danse - Le ballet de L'Op\u00e9ra de Paris", "overview": "A film by Frederick Wiseman following the ins and outs of 7 ballets by the Paris Opera Ballet.", "poster_path": "/5YKj0rCQX8xACNTduPIEJizXYPw.jpg", "release_date": "2009-10-07", "title": "La Danse: The Paris Opera Ballet", "video": false, "vote_average": 7.4, "vote_count": 8, "popularity": 2.125}, {"adult": false, "backdrop_path": "/paPmIDzqzMgu1wFUy6thdVah4n5.jpg", "genre_ids": [18, 35], "id": 6443, "original_language": "de", "original_title": "Der Wald vor lauter B\u00e4umen", "overview": "As an awkward idealistic high school teacher begins her first job in the city, things turn out to be much tougher than she had imagined.", "poster_path": "/5LHj5rVBsXGStCBCvnYwKRIldZT.jpg", "release_date": "2004-09-16", "title": "The Forest for the Trees", "video": false, "vote_average": 6.4, "vote_count": 20, "popularity": 2.806}, {"adult": false, "backdrop_path": "/o0JFS6lMiiIo6APedwPvcR8akQF.jpg", "genre_ids": [35, 18], "id": 158182, "original_language": "it", "original_title": "Un giorno devi andare", "overview": "Painful family events lead Augusta to leave Italy. On a small boat, immersed in the Amazon Forest grandness, she begins a travel between Indios villages. From the favela to the isolation in the Forest, Augusta will go in search of herself.", "poster_path": "/kDFoov2n1I9h45q8pRztHIhVRt8.jpg", "release_date": "2013-01-21", "title": "There Will Come a Day", "video": false, "vote_average": 6.3, "vote_count": 12, "popularity": 1.866}], "total_pages": 1, "total_results": 16}, "credits": {"cast": [{"cast_id": 1002, "character": "Marta", "credit_id": "52fe46ecc3a368484e0ab6cd", "gender": 0, "id": 239920, "name": "Yle Vianello", "order": 0, "profile_path": "/h2vwkczObMe8vn3LLu1VpiPn2zg.jpg"}, {"cast_id": 1004, "character": "Santa", "credit_id": "52fe46ecc3a368484e0ab6d5", "gender": 0, "id": 239922, "name": "Pasqualina Scuncia", "order": 2, "profile_path": null}, {"cast_id": 1005, "character": "Don Mario", "credit_id": "52fe46ecc3a368484e0ab6d9", "gender": 2, "id": 72785, "name": "Salvatore Cantalupo", "order": 3, "profile_path": "/lcYF2lNmqxIYNa6ZTFaXODLrid3.jpg"}, {"cast_id": 1006, "character": "Rita", "credit_id": "52fe46ecc3a368484e0ab6dd", "gender": 1, "id": 56844, "name": "Anita Caprioli", "order": 4, "profile_path": "/dfgklzb1kp6HseNw3LvBEqC7zhh.jpg"}, {"cast_id": 1010, "character": "Don Lorenzo", "credit_id": "55045d9ac3a36862e500104f", "gender": 0, "id": 35104, "name": "Renato Carpentieri", "order": 5, "profile_path": "/f6X1UbR80sslqmcjfkZ7tVm0BXk.jpg"}, {"cast_id": 1011, "character": "Deborah", "credit_id": "5a226fd50e0a264cbc0b84ca", "gender": 0, "id": 1933282, "name": "Maria Trunfio", "order": 6, "profile_path": null}, {"cast_id": 1012, "character": "Nino", "credit_id": "5a226ff092514103290b7126", "gender": 0, "id": 1853311, "name": "Gianni Federico", "order": 7, "profile_path": "/sbPmlagIzwyPNZ4AFpuVJ25nTcL.jpg"}, {"cast_id": 1013, "character": "Rosa", "credit_id": "5a226ff90e0a264ccd0b66a2", "gender": 1, "id": 1549542, "name": "Maria Luisa De Crescenzo", "order": 8, "profile_path": "/dkPeYPSd6w63E2nY3GfVNTJZUbb.jpg"}, {"cast_id": 1014, "character": "Alfri", "credit_id": "5a22700392514103390b3382", "gender": 0, "id": 1933284, "name": "Mario Canino", "order": 9, "profile_path": null}, {"cast_id": 1015, "character": "Donatella", "credit_id": "5a22701e0e0a264cbe0b1964", "gender": 0, "id": 1572391, "name": "Monia Alfieri", "order": 10, "profile_path": null}, {"cast_id": 1016, "character": "Flavia", "credit_id": "5a22702e0e0a264cc10b18c1", "gender": 0, "id": 1933285, "name": "Licia Amodeo", "order": 11, "profile_path": null}, {"cast_id": 1017, "character": "Ignazio", "credit_id": "5a2270360e0a264cd00b43f9", "gender": 0, "id": 1933286, "name": "Carmelo Giordano", "order": 12, "profile_path": null}, {"cast_id": 1018, "character": "Natale", "credit_id": "5a22703ec3a3680b930b4c28", "gender": 0, "id": 1933287, "name": "Natale Carriago", "order": 13, "profile_path": null}, {"cast_id": 1019, "character": "Federica", "credit_id": "5a227046925141032c0b52a1", "gender": 0, "id": 1933288, "name": "Federica Colonnetti", "order": 14, "profile_path": null}, {"cast_id": 1020, "character": "Jasmine", "credit_id": "5a227057925141032c0b52b2", "gender": 0, "id": 1933289, "name": "Ahlam Harmouch", "order": 15, "profile_path": null}, {"cast_id": 1021, "character": "Anna", "credit_id": "5a22705e0e0a264cc80ba2ae", "gender": 0, "id": 1933290, "name": "Silvia Licciardo", "order": 16, "profile_path": null}, {"cast_id": 1022, "character": "Gennaro", "credit_id": "5a22706b92514103360b51c7", "gender": 0, "id": 1933291, "name": "Gennaro Mallamaci", "order": 17, "profile_path": null}, {"cast_id": 1023, "character": "Giuliano", "credit_id": "5a22707392514103290b717d", "gender": 0, "id": 1933292, "name": "Giuliano Marra", "order": 18, "profile_path": null}, {"cast_id": 1024, "character": "Sara", "credit_id": "5a227093c3a3680b9a0bd15b", "gender": 0, "id": 1933294, "name": "Sara Morabito", "order": 19, "profile_path": null}], "crew": [{"credit_id": "52fe46ecc3a368484e0ab6e3", "department": "Directing", "gender": 1, "id": 931211, "job": "Director", "name": "Alice Rohrwacher", "profile_path": "/6Gvu0TH5Wx8TRc4JunyKzoWgwIZ.jpg"}, {"credit_id": "52fe46ecc3a368484e0ab6e9", "department": "Writing", "gender": 1, "id": 931211, "job": "Screenplay", "name": "Alice Rohrwacher", "profile_path": "/6Gvu0TH5Wx8TRc4JunyKzoWgwIZ.jpg"}, {"credit_id": "52fe46ecc3a368484e0ab6ef", "department": "Production", "gender": 0, "id": 1029114, "job": "Producer", "name": "Carlo Cresto-Dina", "profile_path": null}]}}