{"adult": false, "backdrop_path": "/ryuSTPz3EL9ygxoZI8n17KVIufD.jpg", "belongs_to_collection": null, "budget": 0, "genres": [{"id": 16, "name": "Animation"}, {"id": 18, "name": "Drama"}, {"id": 14, "name": "Fantasy"}, {"id": 10402, "name": "Music"}], "homepage": null, "id": 64847, "imdb_id": "tt0071203", "original_language": "ja", "original_title": "\u54c0\u3057\u307f\u306e\u30d9\u30e9\u30c9\u30f3\u30ca", "overview": "A peasant woman is banished from her village and makes a deal with the devil to gain magical powers.", "popularity": 7.737, "poster_path": "/lsgaGlGVIRXLj9xRqPQgzvlcffP.jpg", "production_companies": [{"id": 1598, "logo_path": null, "name": "Nippon Herald Films", "origin_country": ""}, {"id": 20327, "logo_path": null, "name": "Mushi Production", "origin_country": ""}], "production_countries": [{"iso_3166_1": "JP", "name": "Japan"}], "release_date": "1973-06-30", "revenue": 0, "runtime": 89, "spoken_languages": [{"iso_639_1": "ja", "name": "\u65e5\u672c\u8a9e"}], "status": "Released", "tagline": "", "title": "Belladonna of Sadness", "video": false, "vote_average": 7.6, "vote_count": 88, "keywords": {"keywords": [{"id": 5810, "name": "pact with the devil"}, {"id": 221080, "name": "unique visuals"}, {"id": 222029, "name": "loss of innocence"}]}, "similar": {"page": 1, "results": [{"id": 1636, "video": false, "vote_count": 972, "vote_average": 5.8, "title": "Bedazzled", "release_date": "2000-10-19", "original_language": "en", "original_title": "Bedazzled", "genre_ids": [35, 14, 10749], "backdrop_path": "/wWXpqD4DpYu8YYJXbdhc1xGvkN0.jpg", "adult": false, "overview": "Elliot Richardson, suicidal techno geek, is given seven wishes to turn his life around when he meets up with a very seductive Satan. The catch: his soul. Some of his wishes include a 7 foot basketball star, a rock star, and a hamburger. But, as could be expected, the Devil must put her own little twist on each his fantasies.", "poster_path": "/bgDOE1eyvi786a8vKV8rDwrAH6U.jpg", "popularity": 21.611}, {"adult": false, "backdrop_path": "/sABEfSEb3ZTu8eO0q20sixezbVY.jpg", "genre_ids": [27, 53, 14, 18], "id": 11586, "original_language": "en", "original_title": "Exorcist II: The Heretic", "overview": "Bizarre nightmares plague Regan MacNeil four years after her possession and exorcism. Has the demon returned? And if so, can the combined faith and knowledge of a Vatican investigator and a hypnotic research specialist free her from its grasp?", "poster_path": "/jIVYbxsp6y80wyfLlnKkRc9rI6Q.jpg", "release_date": "1977-06-17", "title": "Exorcist II: The Heretic", "video": false, "vote_average": 4.5, "vote_count": 296, "popularity": 10.908}, {"adult": false, "backdrop_path": "/xbTxvQ9dC7ci2tXM4EVj1qPufsY.jpg", "genre_ids": [18, 14, 27], "id": 10728, "original_language": "de", "original_title": "Faust \u2013 Eine deutsche Volkssage", "overview": "God and Satan war over earth; to settle things, they wager on the soul of Faust, a learned and prayerful alchemist.", "poster_path": "/qVm0rfvoT72pabRR87AE36kxmR0.jpg", "release_date": "1926-10-13", "title": "Faust", "video": false, "vote_average": 8.0, "vote_count": 136, "popularity": 8.105}, {"id": 1813, "video": false, "vote_count": 3056, "vote_average": 7.4, "title": "The Devil's Advocate", "release_date": "1997-10-17", "original_language": "en", "original_title": "The Devil's Advocate", "genre_ids": [18, 14, 27, 9648, 53], "backdrop_path": "/A6KRu9aQmf2bKpHjlaVXmiSA3iv.jpg", "adult": false, "overview": "A hotshot lawyer gets more than he bargained for when he learns his new boss is Lucifer himself.", "poster_path": "/eSivb4EyOAyEum70mOSHtAWiUe3.jpg", "popularity": 19.695}, {"id": 1649, "video": false, "vote_count": 558, "vote_average": 6.2, "title": "Bill & Ted's Bogus Journey", "release_date": "1991-07-19", "original_language": "en", "original_title": "Bill & Ted's Bogus Journey", "genre_ids": [12, 35, 14, 10402, 878], "backdrop_path": "/wLlCWH8TaoXYL7IurG0NCivZMRA.jpg", "adult": false, "overview": "Amiable slackers Bill and Ted are once again roped into a fantastical adventure when De Nomolos, a villain from the future, sends evil robot duplicates of the two lads to terminate and replace them. The robot doubles actually succeed in killing Bill and Ted, but the two are determined to escape the afterlife, challenging the Grim Reaper to a series of games in order to return to the land of the living.", "poster_path": "/q8ssJWstfsWHmmFdigDk4r3l5gM.jpg", "popularity": 15.256}, {"id": 622, "video": false, "vote_count": 1606, "vote_average": 6.4, "title": "The Ninth Gate", "release_date": "1999-08-25", "original_language": "en", "original_title": "The Ninth Gate", "genre_ids": [27, 9648, 53], "backdrop_path": "/7ikpBrx2YZyVZxFS5YTZUZoyIJu.jpg", "adult": false, "overview": "An all-expenses-paid international search for a rare copy of the book, 'The Nine Gates of the Shadow Kingdom' brings an unscrupulous book dealer deep into a world of murder, double-dealing and satanic worship.", "poster_path": "/uamhDQBebdW3UQqOaVmma3yW8pm.jpg", "popularity": 21.277}, {"id": 599975, "video": false, "vote_count": 196, "vote_average": 6.5, "title": "Countdown", "release_date": "2019-10-24", "original_language": "en", "original_title": "Countdown", "genre_ids": [27, 53], "backdrop_path": "/zETkzgle7c6wAeW11snnVUBp67S.jpg", "adult": false, "overview": "A young nurse downloads an app that tells her she only has three days to live. With time ticking away and a mysterious figure haunting her, she must find a way to save her life before time runs out.", "poster_path": "/qCDPKUMX5xrxxQY8XhGVCKO3fks.jpg", "popularity": 62.809}, {"id": 9946, "video": false, "vote_count": 932, "vote_average": 5.7, "title": "End of Days", "release_date": "1999-11-24", "original_language": "en", "original_title": "End of Days", "genre_ids": [28, 14, 27, 9648], "backdrop_path": "/q5KcZBMc4Vs5SQelnSdY3ICm56M.jpg", "adult": false, "overview": "On 28 December 1999, the citizens of New York City are getting ready for the turn of the millennium. However, the Devil decides to crash the party by coming to the city, inhabiting a man's body, and searching for his chosen bride\u2014a 20-year-old woman named Christine York. The world will end, and the only hope lies within an atheist named Jericho Cane.", "poster_path": "/bEIjH6GroeWaBkn6o7MVpMNbuyw.jpg", "popularity": 15.853}, {"id": 71676, "video": false, "vote_count": 2238, "vote_average": 4.8, "title": "Ghost Rider: Spirit of Vengeance", "release_date": "2011-12-10", "original_language": "en", "original_title": "Ghost Rider: Spirit of Vengeance", "genre_ids": [28, 14, 53], "backdrop_path": "/9w9UtpeRPK797GzT7xQXuVRSUSj.jpg", "adult": false, "overview": "When the devil resurfaces with aims to take over the world in human form, Johnny Blaze reluctantly comes out of hiding to transform into the flame-spewing supernatural hero Ghost Rider -- and rescue a 10-year-old boy from an unsavory end.", "poster_path": "/tqwWzmp5ISh64SJbNKQ9fyItnDj.jpg", "popularity": 18.398}, {"id": 10306, "video": false, "vote_count": 232, "vote_average": 4.9, "title": "Poltergeist III", "release_date": "1988-06-10", "original_language": "en", "original_title": "Poltergeist III", "genre_ids": [27, 53], "backdrop_path": "/exQwGehuaGAjqVwSoVfAA8sybna.jpg", "adult": false, "overview": "Carol Anne has been sent to live with her Aunt and Uncle in an effort to hide her from the clutches of the ghostly Reverend Kane, but he tracks her down and terrorises her in her relatives' appartment in a tall glass building. Will he finally achieve his target and capture Carol Anne again, or will Tangina be able, yet again, to thwart him?", "poster_path": "/rf2kPc5TOmK4zqqLcHPc5j2ViGB.jpg", "popularity": 9.039}, {"id": 2179, "video": false, "vote_count": 887, "vote_average": 6.7, "title": "Tenacious D in The Pick of Destiny", "release_date": "2006-11-22", "original_language": "en", "original_title": "Tenacious D in The Pick of Destiny", "genre_ids": [35, 10402], "backdrop_path": "/9mVTP2P5yvW4MgygJQMI7WA6B6h.jpg", "adult": false, "overview": "In Venice Beach, naive Midwesterner JB bonds with local slacker KG and they form the rock band Tenacious D. Setting out to become the world's greatest band is no easy feat, so they set out to steal what could be the answer to their prayers... a magical guitar pick housed in a rock-and-roll museum some 300 miles away.", "poster_path": "/gQThU8AftVJEBug4ToHUbQ3Lg7M.jpg", "popularity": 12.687}, {"id": 44040, "video": false, "vote_count": 1707, "vote_average": 5.9, "title": "Devil", "release_date": "2010-01-13", "original_language": "en", "original_title": "Devil", "genre_ids": [27, 9648, 53], "backdrop_path": "/yuGyks7DE9NrRfguRWYomN4KNcm.jpg", "adult": false, "overview": "A group of people are trapped in an elevator high above Philadelphia, and one of them is the devil.", "poster_path": "/m54c0mMcsQfNcRk2As2qH8Y5DQG.jpg", "popularity": 10.532}, {"adult": false, "backdrop_path": "/8bBcHGfwJYUrRZg9BoK7wowMYtx.jpg", "genre_ids": [14, 18, 35, 878, 10749], "id": 18727, "original_language": "en", "original_title": "Heaven Can Wait", "overview": "Spoiled playboy Henry van Cleve dies and arrives at the entrance to Hell, a final destination he is sure he deserves after living a life of profligacy. The devil, however, isn't so sure Henry meets Hell's standards. Convinced he is where he belongs, Henry recounts his life's deeds, both good and bad, including an act of indiscretion during his 25-year marriage to his wife, Martha, with the hope that \"His Excellency\" will arrive at the proper judgment.", "poster_path": "/tgehyNNVOD0sef6zJbQJKHxDNKH.jpg", "release_date": "1943-08-05", "title": "Heaven Can Wait", "video": false, "vote_average": 7.0, "vote_count": 81, "popularity": 7.497}, {"adult": false, "backdrop_path": "/yaF4JUgdNy3NKXVtptTkKawZtlB.jpg", "genre_ids": [18, 53, 27], "id": 48171, "original_language": "en", "original_title": "The Rite", "overview": "Seminary student Michael Kovak reluctantly attends exorcism school at the Vatican. While he\u2019s in Rome, Michael meets an unorthodox priest who introduces him to the darker side of his faith, uncovering the devil\u2019s reach even to one of the holiest places on Earth.", "poster_path": "/94jKSKAOfM3EU4bPsOPkVB9AOHT.jpg", "release_date": "2011-01-28", "title": "The Rite", "video": false, "vote_average": 6.0, "vote_count": 1112, "popularity": 11.214}, {"id": 11976, "video": false, "vote_count": 588, "vote_average": 6.2, "title": "Legend", "release_date": "1985-07-19", "original_language": "en", "original_title": "Legend", "genre_ids": [12, 14], "backdrop_path": "/kiTjtGWfQNuwz8YMyzicn4wDkET.jpg", "adult": false, "overview": "Set in a timeless mythical forest inhabited by fairies, goblins, unicorns and mortals, this fantastic story follows a mystical forest dweller, chosen by fate, to undertake a heroic quest. He must save the beautiful Princess  Lili and defeat the demonic Lord of Darkness, or the world will be plunged into a never-ending ice age.", "poster_path": "/xNWs9LM46vJWwf1q0VGPOccTKg4.jpg", "popularity": 13.92}, {"id": 11026, "video": false, "vote_count": 383, "vote_average": 5.1, "title": "Exorcist: The Beginning", "release_date": "2004-08-20", "original_language": "en", "original_title": "Exorcist: The Beginning", "genre_ids": [27, 9648, 53], "backdrop_path": "/nJeQbUwTPnFdy9OKgOgERttp16v.jpg", "adult": false, "overview": "Having lived through traumatizing events during WWII, Father Lankester Merrin takes a sabbatical from the Church to conduct archaeological excavations in British-administered East Africa. Merrin unearths an ancient Byzantine church believed have been built and then immediately buried to keep down evil from the crypt below. The natives are convinced that uncovering the church has unleashed a demon, and begin to violently clash with the British military troops. As the village rapidly disintegrates into chaos and war, Merrin must face-off with the demon which has taken possession of somebody close to him.", "poster_path": "/6ZX7GVR6uTTNzYPMNeECXjytAPa.jpg", "popularity": 11.489}, {"id": 10657, "video": false, "vote_count": 250, "vote_average": 6.1, "title": "Needful Things", "release_date": "1993-08-27", "original_language": "en", "original_title": "Needful Things", "genre_ids": [18, 27], "backdrop_path": "/oK0KyFrf41IUJTxnhFq8WXHKQt.jpg", "adult": false, "overview": "A mysterious new shop opens in a small town which always seems to stock the deepest desires of each shopper, with a price far heavier than expected.", "poster_path": "/hrWPjBPBA4d1O4raq6TE7ugTTIn.jpg", "popularity": 10.182}, {"adult": false, "backdrop_path": "/bVZNGCXhQMPpCCDr6HaYjqMULck.jpg", "genre_ids": [27, 53], "id": 9378, "original_language": "en", "original_title": "Thir13en Ghosts", "overview": "Arthur and his two children, Kathy and Bobby, inherit his Uncle Cyrus's estate: a glass house that serves as a prison to 12 ghosts. When the family, accompanied by Bobby's Nanny and an attorney, enter the house they find themselves trapped inside an evil machine \"designed by the devil and powered by the dead\" to open the Eye of Hell. Aided by Dennis, a ghost hunter, and his rival Kalina, a ghost rights activist out to set the ghosts free, the group must do what they can to get out of the house alive.", "poster_path": "/s4KZw4vmXfZGbPLBJB7RpWsiUxk.jpg", "release_date": "2001-10-26", "title": "Thir13en Ghosts", "video": false, "vote_average": 5.7, "vote_count": 906, "popularity": 14.036}, {"adult": false, "backdrop_path": "/zydSOaJk2qf9maONGsktK5Pyjw1.jpg", "genre_ids": [35, 18, 14], "id": 29451, "original_language": "en", "original_title": "All That Money Can Buy", "overview": "Farmer Jabez Stone, about to lose his land, agrees to sell his soul to the devil, known as Mr. Scratch, who gives Jabez seven years to enjoy the fruits of his sale before he collects. Over that time, Jabez pays off his debts and helps many neighboring farmers, then becomes an advocate for the upstanding Sen. Daniel Webster. When Jabez's contract with Mr. Scratch concludes, he desperately turns to Webster to represent him in a trial for his soul.", "poster_path": "/2GUZ0Yg3DKlZpc3HEF5qJz7KqD5.jpg", "release_date": "1941-10-17", "title": "All That Money Can Buy", "video": false, "vote_average": 7.2, "vote_count": 37, "popularity": 6.168}, {"adult": false, "backdrop_path": "/2zh06EWekQWzlxa4jpFKRuXEtgf.jpg", "genre_ids": [80, 18, 28, 53], "id": 9411, "original_language": "en", "original_title": "Fallen", "overview": "Homicide detective John Hobbes witnesses the execution of serial killer Edgar Reese. Soon after the execution the killings start again, and they are very similar to Reese's style.", "poster_path": "/v66GrbKcl1babq8BebUff0MI3m4.jpg", "release_date": "1998-01-16", "title": "Fallen", "video": false, "vote_average": 6.8, "vote_count": 674, "popularity": 15.448}], "total_pages": 10, "total_results": 183}, "recommendations": {"page": 1, "results": [{"id": 83667, "video": false, "vote_count": 13, "vote_average": 6.9, "title": "Payment on Demand", "release_date": "1951-02-03", "original_language": "en", "original_title": "Payment on Demand", "genre_ids": [18], "backdrop_path": "/jYhvCePLuZsI8dyH3KaMDE4wiQm.jpg", "adult": false, "overview": "Screen legend and Academy Award-winner Bette Davis (\"All About Eve,\" \"Dark Victory\") stars with Emmy-nominee Barry Sullivan (\"Rich Man, Poor Man\") in this compelling look at why people drift apart in marriage and seek divorce, with all its consequences.", "poster_path": "/nEWaCua11xhz6Ocvet3Y2uTGqmB.jpg", "popularity": 3.728}, {"adult": false, "backdrop_path": "/2GGZTTA6d2H0pVYNBndT9GEDVtE.jpg", "genre_ids": [18, 37], "id": 206039, "original_language": "en", "original_title": "The Squaw Man", "overview": "Jim Wyngate, an English aristocrat, comes to the American West under a cloud of suspicion for embezzlement actually committed by his cousin Lord Henry. In Wyoming, Wyngate runs afoul of cattle rustler Cash Hawkins by rescuing the Indian girl Naturich from Hawkins. Wyngate marries Naturich, but then learns that his cousin Lord Henry has been killed and has cleared his name before dying. As Wyngate has long loved Lady Diana, Lord Henry's wife, he is perplexed at his situation. But fate takes a hand and resolves matters as Wyngate could not have predicted.", "poster_path": "/jnPFnNF4AL0skhijBccRdpqV0J3.jpg", "release_date": "1931-09-04", "title": "The Squaw Man", "video": false, "vote_average": 6.2, "vote_count": 5, "popularity": 1.432}, {"adult": false, "backdrop_path": "/1QzIvJ32vJpPvuxvCTvuZlTxGF7.jpg", "genre_ids": [80, 10749], "id": 67220, "original_language": "en", "original_title": "Hard Contract", "overview": "A cold hearted American hit man goes to Europe for 'one last score'. His encounter with a beautiful young woman casts self doubt on his lifeblood, and influences him to resist carrying out the contract", "poster_path": "/8xBHI5XDq960JMQkJwSvsdn0qCf.jpg", "release_date": "1969-04-30", "title": "Hard Contract", "video": false, "vote_average": 5.0, "vote_count": 5, "popularity": 2.307}, {"id": 77964, "video": false, "vote_count": 6, "vote_average": 6.8, "title": "That Certain Woman", "release_date": "1937-08-30", "original_language": "en", "original_title": "That Certain Woman", "genre_ids": [18, 10749], "backdrop_path": "/npTgngJ7EH3mT49pcFPe0cRomsV.jpg", "adult": false, "overview": "A gangster's widow fights for love despite society's disapproval.", "poster_path": "/v2Qg5NWWjMTmzkORDrHpg7CoPY.jpg", "popularity": 2.844}, {"adult": false, "backdrop_path": "/iqrspDxvqjgmsIJoEDzgn9o80Tm.jpg", "genre_ids": [10752, 12, 18], "id": 177317, "original_language": "en", "original_title": "West Of Shanghai", "overview": "American businessmen and missionaries working in China are captured and held prisoner by a local warlord.", "poster_path": "/d3BS3Mdycyf3scS9nVi2Des9x7k.jpg", "release_date": "1937-10-30", "title": "West Of Shanghai", "video": false, "vote_average": 5.4, "vote_count": 5, "popularity": 2.434}, {"adult": false, "backdrop_path": "/1kadFt8nXj4Jna1XhlIgmVnLbv7.jpg", "genre_ids": [12, 18], "id": 166316, "original_language": "en", "original_title": "Danger Lights", "overview": "Head railroad man Dan is as ugly as he is honorable. When he spots a drifter who'd hopped a freight held up by a landslide, Dan offers the man a job; then he finds the man was a railroader, too, and takes him under his wing. Engaged to Mary, Dan doesn't notice the growing attraction between his prot\u00e9g\u00e9 and his intended, but focuses instead on running the railroad.", "poster_path": "/9Rd9Qg5MtQymcPSewUYxIHSXPGu.jpg", "release_date": "1930-08-21", "title": "Danger Lights", "video": false, "vote_average": 5.8, "vote_count": 8, "popularity": 2.75}, {"id": 67555, "video": false, "vote_count": 8, "vote_average": 6.4, "title": "The Gates of Paris", "release_date": "1957-09-27", "original_language": "fr", "original_title": "Porte des Lilas", "genre_ids": [35, 18], "backdrop_path": "/YFyFhRNGv5k1s3RkgWZjgzBGIq.jpg", "adult": false, "overview": "Juju, a drunken oaf who feels the need of being important to someone---anyone---and his friend The Artist are forced at gunpoint to house a fugitive, Pierre Barbier, in Juju's broken-down home. The urge for being needed is such in Juju that he gives up drinking and takes care of Pierre. But one day Juju finds out that Pierre has been making love to his girl Maria...", "poster_path": "/y3FSlNFMuk36KMTbaNUeO42AcfC.jpg", "popularity": 2.202}, {"adult": false, "backdrop_path": "/v57nut6Xvpg3Q8Ea0gEyUKzgzU2.jpg", "genre_ids": [35, 9648, 10749], "id": 100113, "original_language": "en", "original_title": "Counter-Espionage", "overview": "The Lone Wolf tracks down Nazi spies in London during the German bombing.", "poster_path": "/1zVBHcrcTy80ZmJW9yKlhR1CMcY.jpg", "release_date": "1942-09-03", "title": "Counter-Espionage", "video": false, "vote_average": 6.3, "vote_count": 5, "popularity": 2.813}, {"id": 153165, "video": false, "vote_count": 5, "vote_average": 4.6, "title": "Dr. Kildare's Strange Case", "release_date": "1940-04-12", "original_language": "en", "original_title": "Dr. Kildare's Strange Case", "genre_ids": [18], "backdrop_path": "/3zZUpOPOKjaWR7H8ZZlYuauuF5P.jpg", "adult": false, "overview": "Kildare (Lew Ayres) tries brain surgery, advised by Dr. Gillespie (Lionel Barrymore), and faces a rival for nurse Lamont (Laraine Day).", "poster_path": "/8fcrKlRGtyA6sKKpx9wsfrz3FhS.jpg", "popularity": 2.112}, {"adult": false, "backdrop_path": "/eQ7riOcU2D9g6wQiSdOIosuZmbK.jpg", "genre_ids": [10749, 80, 18], "id": 79399, "original_language": "en", "original_title": "Golden Salamander", "overview": "An archaeologist stumbles into the territory of an evil crime syndicate and struggles to set things right.", "poster_path": "/hFM4VtfQYJOYWGctP6QOIPUNUe6.jpg", "release_date": "1950-02-01", "title": "Golden Salamander", "video": false, "vote_average": 5.4, "vote_count": 8, "popularity": 2.718}, {"adult": false, "backdrop_path": "/utJ8BdYwGqFjnYPwpxzU2lEFQL.jpg", "genre_ids": [18], "id": 168228, "original_language": "en", "original_title": "Some Call It Loving", "overview": "A jazz musician falls in love with a comatose woman at a carny sideshow and takes her to his mansion to join his cabinet of sexual curiosities.", "poster_path": "/A3toUAFaiZq0hQjnHQh8ieGoCTk.jpg", "release_date": "1973-11-16", "title": "Some Call It Loving", "video": false, "vote_average": 4.3, "vote_count": 6, "popularity": 2.223}, {"adult": false, "backdrop_path": "/xbhRCiYMuQnzOJ8pK5Ww7rtYf3y.jpg", "genre_ids": [37], "id": 50104, "original_language": "en", "original_title": "The Texas Rangers", "overview": "Two down-on-their-luck former outlaws volunteer to be Texas Rangers and find themselves assigned to bring in an old friend, now a notorious outlaw.", "poster_path": "/jCTT44VmrtZO0dEbZtIxywpJ38M.jpg", "release_date": "1936-08-28", "title": "The Texas Rangers", "video": false, "vote_average": 7.0, "vote_count": 5, "popularity": 3.17}, {"id": 22943, "video": false, "vote_count": 26, "vote_average": 6.5, "title": "Tillie's Punctured Romance", "release_date": "1914-11-14", "original_language": "en", "original_title": "Tillie's Punctured Romance", "genre_ids": [35, 18, 10749], "backdrop_path": "/3lWI0EwLfs2UhBsBv1ptFcfYXo.jpg", "adult": false, "overview": "A womanizing city man meets Tillie in the country, after a fight with his girlfriend. When he sees that Tillie's father has a very large bankroll for his workers, he persuades her to elope with him.", "poster_path": "/cSHJ3i426ZdedU5tEAc7bVEf798.jpg", "popularity": 3.639}, {"adult": false, "backdrop_path": "/2saGe7EoPoTYLRtPLtWeHcH6CT7.jpg", "genre_ids": [80, 10749, 53], "id": 99691, "original_language": "en", "original_title": "The Devil Makes Three", "overview": "Director Andrew Marton's drama, set in post-WWII Germany, stars a non-dancing Gene Kelly as an American G.I. investigating a black market gang in Munich. Also starring Pier Angeli and Richard Egan.", "poster_path": "/qNsMUO5dH1Q2oKL6sRflFw4eIL1.jpg", "release_date": "1952-09-19", "title": "The Devil Makes Three", "video": false, "vote_average": 6.4, "vote_count": 8, "popularity": 3.241}, {"adult": false, "backdrop_path": "/Ck43hpDeScmPjl1UUvTRYbXXnN.jpg", "genre_ids": [878, 18], "id": 36832, "original_language": "en", "original_title": "Born in Flames", "overview": "In a future where a socialist government gains power, a group of women decides to organize and rebel.", "poster_path": "/wlqgE0FugqVsHpnSX2n4LTgRXKs.jpg", "release_date": "1983-11-03", "title": "Born in Flames", "video": false, "vote_average": 6.3, "vote_count": 12, "popularity": 2.617}, {"adult": false, "backdrop_path": "/bESbdnot49NOXC7Z7TJButqawdK.jpg", "genre_ids": [35, 10749, 10402], "id": 31515, "original_language": "en", "original_title": "The Boy Friend", "overview": "The assistant stage manager of a small-time theatrical company is forced to understudy for the leading lady at a matin\u00e9e performance at which an illustrious Hollywood director is in the audience scouting for actors to be in his latest \"all-talking, all-dancing, all-singing\" extravaganza.", "poster_path": "/4vhT6YOJ99YeFygYfx8WyzyVJxA.jpg", "release_date": "1971-12-16", "title": "The Boy Friend", "video": false, "vote_average": 6.2, "vote_count": 10, "popularity": 3.423}, {"adult": false, "backdrop_path": "/j6Ssq7WgOlxMzr35Yu8HEqNk3f5.jpg", "genre_ids": [18], "id": 136116, "original_language": "en", "original_title": "Hell's House", "overview": "A teenager lands in a brutal reform school for refusing to squeal on his bootlegger boss.", "poster_path": "/xf7oXfdwVxt7V6y2vtug3pmZ3oP.jpg", "release_date": "1932-01-30", "title": "Hell's House", "video": false, "vote_average": 5.1, "vote_count": 10, "popularity": 3.088}, {"id": 85514, "video": false, "vote_count": 14, "vote_average": 6.1, "title": "The Quiet American", "release_date": "1958-02-08", "original_language": "en", "original_title": "The Quiet American", "genre_ids": [18, 53, 10749, 10752], "backdrop_path": "/pO7uSiOOAlXCL4zTyfDtdcayHbO.jpg", "adult": false, "overview": "Cynical British journalist Fowler (Michael Redgrave) falls in love with a young Vietnamese woman, but is dismayed when a na\u00efve U.S. official (Audie Murphy) also begins vying for the girl\u2019s attention. In retaliation, Fowler informs the communists that the American is selling arms to their enemy. Director Joseph L. Mankiewicz's drama paints a rosier picture of U.S. involvement in French Indochina than Graham Greene\u2019s provocative 1955 novel.", "poster_path": "/jJIdlE9IaZuovI6olnqwghQDZtV.jpg", "popularity": 4.912}, {"adult": false, "backdrop_path": "/S1woYJv1UZewcQYhn5wXV5fU98.jpg", "genre_ids": [35, 10751, 18], "id": 158800, "original_language": "en", "original_title": "A Majority of One", "overview": "A gentle love story about a Japanese businessman and widower, and a Brooklyn widow. But before a happy ending can ensue, they must learn again the lessons of tolerance, kindness and forgiveness.", "poster_path": "/6wXtf2UH3mqQCwviTkJ3p6QzqnH.jpg", "release_date": "1961-12-27", "title": "A Majority of One", "video": false, "vote_average": 5.9, "vote_count": 8, "popularity": 2.675}, {"id": 38437, "video": false, "vote_count": 9, "vote_average": 6.0, "title": "Bulldog Drummond Escapes", "release_date": "1937-04-09", "original_language": "en", "original_title": "Bulldog Drummond Escapes", "genre_ids": [28, 12, 9648], "backdrop_path": "/7ogVHIaYsdLD4nJgpVs1I5SA70n.jpg", "adult": false, "overview": "Drummond manages to save a woman from jumping in front of his car but she runs away with his car. He traces her and she asks him to help her out of a dangerous situation.", "poster_path": "/cbcTt7obVBDsnyeYa1U6aQdqpcX.jpg", "popularity": 3.422}], "total_pages": 2, "total_results": 40}, "credits": {"cast": [{"cast_id": 1005, "character": "Jeanne / Belladonna", "credit_id": "553017bdc3a368187e000f29", "gender": 0, "id": 552675, "name": "Aiko Nagayama", "order": 1, "profile_path": null}, {"cast_id": 1006, "character": "The Devil", "credit_id": "553017cf9251410fab0014d5", "gender": 2, "id": 70131, "name": "Tatsuya Nakadai", "order": 2, "profile_path": "/3P6rX9NCFAwfKjAOj1fh1lk7I0H.jpg"}, {"cast_id": 1007, "character": "Jean", "credit_id": "553017e19251415b7a002dab", "gender": 0, "id": 1455165, "name": "Katsuyuki It\u00f4", "order": 3, "profile_path": null}, {"cast_id": 1008, "character": "The Lord", "credit_id": "553017fa9251415b2d0001a5", "gender": 2, "id": 43672, "name": "Masaya Takahashi", "order": 4, "profile_path": "/q0f7lBJxUUmWoJlh0DsT51E6Vlu.jpg"}, {"cast_id": 1009, "character": "The Lord's Mistress", "credit_id": "5530180ac3a36859510032d9", "gender": 1, "id": 1455166, "name": "Shigako Shimegi", "order": 5, "profile_path": null}, {"cast_id": 1010, "character": "The Witch", "credit_id": "5530182fc3a368618e00c71f", "gender": 0, "id": 1455167, "name": "Natsuka Yashiro", "order": 6, "profile_path": null}, {"cast_id": 1011, "character": "The Priest", "credit_id": "55301842c3a368187e000f33", "gender": 0, "id": 150320, "name": "Masakane Yonekura", "order": 7, "profile_path": null}], "crew": [{"credit_id": "55301865c3a36856cd002c40", "department": "Production", "gender": 2, "id": 58160, "job": "Producer", "name": "Osamu Tezuka", "profile_path": "/sDjWYdh8lPV2ZpX45i7VfYeqGdE.jpg"}, {"credit_id": "56fc2c43c3a36808d3003278", "department": "Visual Effects", "gender": 2, "id": 73121, "job": "Animation", "name": "Gisabur\u014d Sugii", "profile_path": "/yOp2bmomtcti0JCHmeVDp0FZgfO.jpg"}, {"credit_id": "5a2ab5dcc3a3680b9d1199ab", "department": "Writing", "gender": 0, "id": 224654, "job": "Writer", "name": "Yoshiyuki Fukuda", "profile_path": null}, {"credit_id": "52fe46edc3a368484e0ab963", "department": "Directing", "gender": 2, "id": 239934, "job": "Director", "name": "Eiichi Yamamoto", "profile_path": "/9uXwOCPMDvnIXZc8N8xNNtTUZGe.jpg"}, {"credit_id": "5a2ab5f2c3a3680b96126fcf", "department": "Writing", "gender": 2, "id": 239934, "job": "Writer", "name": "Eiichi Yamamoto", "profile_path": "/9uXwOCPMDvnIXZc8N8xNNtTUZGe.jpg"}, {"credit_id": "52fe46edc3a368484e0ab969", "department": "Writing", "gender": 0, "id": 1279016, "job": "Novel", "name": "Jules Michelet", "profile_path": null}, {"credit_id": "52fe46edc3a368484e0ab96f", "department": "Writing", "gender": 0, "id": 1279017, "job": "Musical", "name": "Masahiko Sato", "profile_path": null}]}}