{"adult": false, "backdrop_path": "/ms1rb18PdafPNSnGmiCSrcHagJ7.jpg", "belongs_to_collection": null, "budget": 0, "genres": [{"id": 18, "name": "Drama"}], "homepage": null, "id": 64942, "imdb_id": "tt0425236", "original_language": "en", "original_title": "Mary", "overview": "Following the shooting of a film on the life of Jesus called This Is My Blood, Marie Palesi (Juliette Binoche), the actress who plays Mary Magdalene takes refuge in Jerusalem in search of the truth behind the myth.\r The director of the film, Tony Childress (Matthew Modine), who also plays Jesus, can think of only one thing: self-promotion.\r In New York, television journalist Ted Younger (Forest Whitaker) presents a programme about the life of Jesus.", "popularity": 3.8, "poster_path": "/rAmE40RErUTBk0vgJb7cd3MbeVU.jpg", "production_companies": [{"id": 856, "logo_path": "/3tfzS2CrX6Ntbu927XzHXEPDA6y.png", "name": "Wild Bunch", "origin_country": "FR"}, {"id": 11990, "logo_path": null, "name": "Associated Film", "origin_country": ""}, {"id": 11258, "logo_path": null, "name": "Central Films", "origin_country": ""}, {"id": 11991, "logo_path": null, "name": "De Nigris Productions", "origin_country": ""}, {"id": 11992, "logo_path": null, "name": "Surreel", "origin_country": ""}], "production_countries": [{"iso_3166_1": "IT", "name": "Italy"}, {"iso_3166_1": "US", "name": "United States of America"}, {"iso_3166_1": "FR", "name": "France"}], "release_date": "2005-11-18", "revenue": 0, "runtime": 83, "spoken_languages": [{"iso_639_1": "de", "name": "Deutsch"}, {"iso_639_1": "fr", "name": "Fran\u00e7ais"}, {"iso_639_1": "he", "name": "\u05e2\u05b4\u05d1\u05b0\u05e8\u05b4\u05d9\u05ea"}, {"iso_639_1": "en", "name": "English"}, {"iso_639_1": "it", "name": "Italiano"}], "status": "Released", "tagline": "It takes courage to walk in the truth.", "title": "Mary", "video": false, "vote_average": 5.7, "vote_count": 19, "keywords": {"keywords": [{"id": 3575, "name": "jerusalem"}, {"id": 162708, "name": "mary magdalene"}]}, "similar": {"page": 1, "results": [{"id": 407439, "video": false, "vote_count": 251, "vote_average": 6.1, "title": "Mary Magdalene", "release_date": "2018-03-15", "original_language": "en", "original_title": "Mary Magdalene", "genre_ids": [18, 36], "backdrop_path": "/sDVjNezM9fU4x0O66zesw6zhpB4.jpg", "adult": false, "overview": "In the first century, free-spirited Mary Magdalene flees the marriage her family has arranged for her, finding refuge and a sense of purpose in a radical new movement led by the charismatic, rabble-rousing preacher named Jesus.", "poster_path": "/oLbqnVAmD8ISel1SLTY3Ek0TWz8.jpg", "popularity": 10.589}, {"id": 313369, "video": false, "vote_count": 11057, "vote_average": 7.9, "title": "La La Land", "release_date": "2016-11-29", "original_language": "en", "original_title": "La La Land", "genre_ids": [35, 18, 10402, 10749], "backdrop_path": "/fp6X6yhgcxzxCpmM0EVC6V9B8XB.jpg", "adult": false, "overview": "Mia, an aspiring actress, serves lattes to movie stars in between auditions and Sebastian, a jazz musician, scrapes by playing cocktail party gigs in dingy bars, but as success mounts they are faced with decisions that begin to fray the fragile fabric of their love affair, and the dreams they worked so hard to maintain in each other threaten to rip them apart.", "poster_path": "/ylXCdC106IKiarftHkcacasaAcb.jpg", "popularity": 30.693}, {"id": 72190, "video": false, "vote_count": 9915, "vote_average": 6.7, "title": "World War Z", "release_date": "2013-06-20", "original_language": "en", "original_title": "World War Z", "genre_ids": [28, 18, 27, 878, 53], "backdrop_path": "/xMOQVYLeIKBXenJ9KMeasj7S64y.jpg", "adult": false, "overview": "Life for former United Nations investigator Gerry Lane and his family seems content. Suddenly, the world is plagued by a mysterious infection turning whole human populations into rampaging mindless zombies. After barely escaping the chaos, Lane is persuaded to go on a mission to investigate this disease. What follows is a perilous trek around the world where Lane must brave horrific dangers and long odds to find answers before human civilization falls.", "poster_path": "/Ha5t0J21eyiq6Az1EXzx0iwsGH.jpg", "popularity": 29.165}, {"id": 797, "video": false, "vote_count": 884, "vote_average": 8.3, "title": "Persona", "release_date": "1966-10-18", "original_language": "sv", "original_title": "Persona", "genre_ids": [18], "backdrop_path": "/hqFN0gOmeXKmKP266CSjbHt9y05.jpg", "adult": false, "overview": "A young nurse, Alma, is put in charge of Elisabeth Vogler: an actress who is seemingly healthy in all respects, but will not talk. As they spend time together, Alma speaks to Elisabeth constantly, never receiving any answer. Alma eventually confesses her secrets to a seemingly sympathetic Elisabeth and finds that her own personality is being submerged into Elisabeth's persona.", "poster_path": "/cjAnlvCrp9ZY7atASUsxRrhve7o.jpg", "popularity": 14.909}, {"adult": false, "backdrop_path": "/gt7HbwIA5xS1s8jrjy18t3Pfnvz.jpg", "genre_ids": [18], "id": 705, "original_language": "en", "original_title": "All About Eve", "overview": "From the moment she glimpses her idol at the stage door, Eve Harrington is determined to take the reins of power away from the great actress Margo Channing. Eve maneuvers her way into Margo's Broadway role, becomes a sensation and even causes turmoil in the lives of Margo's director boyfriend, her playwright and his wife. Only the cynical drama critic sees through Eve, admiring her audacity and perfect pattern of deceit.", "poster_path": "/6numIZH6uR3NlJgY9m7nGH0jhs.jpg", "release_date": "1950-10-06", "title": "All About Eve", "video": false, "vote_average": 8.2, "vote_count": 783, "popularity": 14.777}, {"id": 947, "video": false, "vote_count": 1587, "vote_average": 8.0, "title": "Lawrence of Arabia", "release_date": "1962-12-10", "original_language": "en", "original_title": "Lawrence of Arabia", "genre_ids": [12, 18, 36, 10752], "backdrop_path": "/lENerYvUcfl9GlolqA1emj5gb4k.jpg", "adult": false, "overview": "The story of British officer T.E. Lawrence's mission to aid the Arab tribes in their revolt against the Ottoman Empire during the First World War. Lawrence becomes a flamboyant, messianic figure in the cause of Arab unity but his psychological instability threatens to undermine his achievements.", "poster_path": "/j21UXCOq0EbV8EPTtmPn1CGePfB.jpg", "popularity": 19.461}, {"id": 254, "video": false, "vote_count": 4693, "vote_average": 6.7, "title": "King Kong", "release_date": "2005-12-12", "original_language": "en", "original_title": "King Kong", "genre_ids": [28, 12, 18], "backdrop_path": "/lWnPz1EvXUWMvXK1plZMA1I2XMV.jpg", "adult": false, "overview": "In 1933 New York, an overly ambitious movie producer coerces his cast and hired ship crew to travel to mysterious Skull Island, where they encounter Kong, a giant ape who is immediately smitten with the leading lady.", "poster_path": "/iQYMVoI9QE2wQCOSrxhiBYd4v0w.jpg", "popularity": 22.992}, {"id": 116, "video": false, "vote_count": 2412, "vote_average": 7.3, "title": "Match Point", "release_date": "2005-10-26", "original_language": "en", "original_title": "Match Point", "genre_ids": [80, 18, 53, 10749], "backdrop_path": "/40gCaXoyT75wuLbz1t5BwpLm0w4.jpg", "adult": false, "overview": "Match Point is Woody Allen\u2019s satire of the British High Society and the ambition of a young tennis instructor to enter into it. Yet when he must decide between two women - one assuring him his place in high society, and the other that would take him far from it - palms start to sweat and a dark psychological match in his head begins.", "poster_path": "/zuSFZEbSs7hj9lfeu2k7a4bPxdE.jpg", "popularity": 13.645}, {"id": 99, "video": false, "vote_count": 866, "vote_average": 7.7, "title": "All About My Mother", "release_date": "1999-04-19", "original_language": "es", "original_title": "Todo sobre mi madre", "genre_ids": [35, 18], "backdrop_path": "/u2CvJwAWDNk9w63gbOifmqd4W9r.jpg", "adult": false, "overview": "A single mother in Madrid sees her only son die on his birthday as he runs to seek an actress' autograph. Beside herself with grief, she returns to Barcelona to tell the boy's father about the death of the son he never knew he had.", "poster_path": "/sQdalmBSUiaU0QCgZKBfy0l2vUR.jpg", "popularity": 13.457}, {"adult": false, "backdrop_path": "/74Jh5SIWnKDwtusPfDP51EeCFHt.jpg", "genre_ids": [35, 10749], "id": 9576, "original_language": "en", "original_title": "Tootsie", "overview": "When struggling, out of work actor Michael Dorsey secretly adopts a female alter ego - Dorothy Michaels - in order to land a part in a daytime drama, he unwittingly becomes a feminist icon and ends up in a romantic pickle.", "poster_path": "/ngyCzZwb9y5sMUCig5JQT4Y33Q.jpg", "release_date": "1982-12-16", "title": "Tootsie", "video": false, "vote_average": 7.2, "vote_count": 915, "popularity": 10.882}, {"id": 665, "video": false, "vote_count": 1331, "vote_average": 7.7, "title": "Ben-Hur", "release_date": "1959-12-26", "original_language": "en", "original_title": "Ben-Hur", "genre_ids": [12, 36], "backdrop_path": "/uOQPSUGG3ZHiDg9ecN8irQNZ4T1.jpg", "adult": false, "overview": "Judah Ben-Hur, a Palestinian Jew, is battling the Roman empire at the time of Christ. His actions send him and his family into slavery, but an inspirational encounter with Jesus changes everything. He finally meets his rival in a justly famous chariot race and rescues his suffering family.", "poster_path": "/m4WQ1dBIrEIHZNCoAjdpxwSKWyH.jpg", "popularity": 19.599}, {"id": 6538, "video": false, "vote_count": 711, "vote_average": 6.6, "title": "Charlie Wilson's War", "release_date": "2007-12-19", "original_language": "en", "original_title": "Charlie Wilson's War", "genre_ids": [35, 18, 36], "backdrop_path": "/fXWmuz2Z3Q6hyhhIDbrJn9r2Dag.jpg", "adult": false, "overview": "The true story of Texas congressman Charlie Wilson's covert dealings in Afghanistan, where his efforts to assist rebels in their war with the Soviets had some unforeseen and long-reaching effects.", "poster_path": "/uN9tN0ZDyol7VsTlugDZhGc11xQ.jpg", "popularity": 13.279}, {"id": 12537, "video": false, "vote_count": 97, "vote_average": 6.6, "title": "The French Lieutenant's Woman", "release_date": "1981-08-28", "original_language": "en", "original_title": "The French Lieutenant's Woman", "genre_ids": [18, 10749], "backdrop_path": "/5s9aShlYY3hWXByb3BdgzxNwYnZ.jpg", "adult": false, "overview": "In this story-within-a-story, Anna is an actress starring opposite Mike in a period piece about the forbidden love between their respective characters, Sarah and Charles. Both actors are involved in serious relationships, but the passionate nature of the script leads to an off-camera love affair as well. While attempting to maintain their composure and professionalism, Anna and Mike struggle to come to terms with their infidelity.", "poster_path": "/bNKL85XlkS7VLfBKELm1V0ltecZ.jpg", "popularity": 10.335}, {"adult": false, "backdrop_path": "/eWelH0cHonTsdP6ImrgilpbqdTK.jpg", "genre_ids": [18, 36], "id": 335778, "original_language": "en", "original_title": "Risen", "overview": "Clavius, a powerful Roman military tribune, and his aide, Lucius, are tasked with solving the mystery of what happened to Jesus in the weeks following the crucifixion, in order to disprove the rumors of a risen Messiah and prevent an uprising in Jerusalem.", "poster_path": "/uGZ1easTLqkNfDNHRLm5kvkfRw7.jpg", "release_date": "2016-02-18", "title": "Risen", "video": false, "vote_average": 5.9, "vote_count": 452, "popularity": 16.622}, {"id": 11051, "video": false, "vote_count": 488, "vote_average": 7.3, "title": "The Last Temptation of Christ", "release_date": "1988-08-12", "original_language": "en", "original_title": "The Last Temptation of Christ", "genre_ids": [18], "backdrop_path": "/rBqdcQeM1h05YjF9rFtPWnNaDO2.jpg", "adult": false, "overview": "Jesus, a humble Judean carpenter beginning to see that he is the son of God, is drawn into revolutionary action against the Roman occupiers by Judas -- despite his protestations that love, not violence, is the path to salvation. The burden of being the savior of mankind torments Jesus throughout his life, leading him to doubt. As he is put to death on the cross, Jesus is tempted by visions of an ordinary life married to Mary Magdalene.", "poster_path": "/dutPJWBeQgdfjRqeKojqmyIdXFd.jpg", "popularity": 12.627}, {"adult": false, "backdrop_path": "/ke4r46wgmL1WUac1cOgjSsHLqwE.jpg", "genre_ids": [12, 18, 27], "id": 244, "original_language": "en", "original_title": "King Kong", "overview": "A film crew discovers the \"eighth wonder of the world,\" a giant prehistoric ape, and brings him back to New York, where he wreaks havoc.", "poster_path": "/vXInYahVp31uL8wZORckaoHq565.jpg", "release_date": "1933-03-15", "title": "King Kong", "video": false, "vote_average": 7.6, "vote_count": 721, "popularity": 16.591}, {"id": 291328, "video": false, "vote_count": 290, "vote_average": 5.9, "title": "Rules Don't Apply", "release_date": "2016-11-23", "original_language": "en", "original_title": "Rules Don't Apply", "genre_ids": [35, 18, 10749], "backdrop_path": "/1e222v5OwpAKPkBKnPKnyBIz45D.jpg", "adult": false, "overview": "It's Hollywood, 1958. Small town beauty queen and devout Baptist virgin Marla Mabrey, under contract to the infamous Howard Hughes, arrives in Los Angeles. At the airport, she meets her driver Frank Forbes, who is engaged to be married to his seventh grade sweetheart and is a deeply religious Methodist. Their instant attraction not only puts their religious convictions to the test, but also defies Hughes' number one rule: No employee is allowed to have any relationship whatsoever with a contract actress. Hughes' behavior intersects with Marla and Frank in very separate and unexpected ways, and as they are drawn deeper into his bizarre world, their values are challenged and their lives are changed.", "poster_path": "/tODM3IervLotPDwUFNaJvjTcNpG.jpg", "popularity": 10.855}, {"id": 40161, "video": false, "vote_count": 142, "vote_average": 6.1, "title": "The Decoy Bride", "release_date": "2011-06-06", "original_language": "en", "original_title": "The Decoy Bride", "genre_ids": [35, 18, 10749], "backdrop_path": "/hASXURjpGIC41x7owhERwGPFYYV.jpg", "adult": false, "overview": "A local woman is hired to draw paparazzi away from a Hollywood actress who has come to Scotland to get married.", "poster_path": "/cLFecF4VfzuVXjQBnoo9sCDuTqW.jpg", "popularity": 9.254}, {"id": 246860, "video": false, "vote_count": 466, "vote_average": 6.7, "title": "Clouds of Sils Maria", "release_date": "2014-08-20", "original_language": "en", "original_title": "Clouds of Sils Maria", "genre_ids": [18], "backdrop_path": "/kzx4nxrcTBoSH9QMF1qcafVH0W.jpg", "adult": false, "overview": "A veteran actress comes face-to-face with an uncomfortable reflection of herself when she agrees to take part in a revival of the play that launched her career 20 years earlier.", "poster_path": "/nMntR8SXxDgU3pi0v1Gnx3tmr1L.jpg", "popularity": 9.851}, {"adult": false, "backdrop_path": "/i1DPN19CK8rTkwyMS9iy4D9iRAO.jpg", "genre_ids": [18], "id": 157851, "original_language": "en", "original_title": "Maps to the Stars", "overview": "Driven by an intense need for fame and validation, members of a dysfunctional Hollywood family are chasing celebrity, one another and the relentless ghosts of their pasts.", "poster_path": "/ciIFIMR78V9BMfLEylJGSwnlwm.jpg", "release_date": "2014-05-21", "title": "Maps to the Stars", "video": false, "vote_average": 6.1, "vote_count": 668, "popularity": 12.076}], "total_pages": 11, "total_results": 205}, "recommendations": {"page": 1, "results": [{"adult": false, "backdrop_path": "/361OkY8tg41sCEn2uM9GwD66hJU.jpg", "genre_ids": [53], "id": 78322, "original_language": "fr", "original_title": "Une aventure", "overview": "Cecile and Julien begin their new life together. Julien works long hours in a video library, a world full of pictures. Coming home late one night, he encounters a young, beautiful, disturbing woman in front of his building. She seems lost, as if in a dream. She mumbles something to him, like a call for help, and vanishes. Since this strange encounter, and maybe for the first time in his life, Julien is confused, becoming obsessed by the mystery surrounding this intriguing woman, Gabrielle. He discovers that she lives across the street with an intimidating, violent-looking man, Louis. Following her at night, Julien sees Gabrielle sleepwalking, perhaps a refugee from the distressful, dangerous world she must inhabit. Risking everything, including Cecile's love for him, Julien plunges into Gabrielle's strange but fascinating life, determined to save her from Louis, even herself, somehow hoping to avert the catastrophe that awaits her.", "poster_path": "/rIXA6Gpgc2Wa5nsRYu775cF15FQ.jpg", "release_date": "2005-08-31", "title": "Une aventure", "video": false, "vote_average": 3.9, "vote_count": 5, "popularity": 1.882}, {"adult": false, "backdrop_path": "/4BSaz7JqL9tYV2WyUz3QlWqMgIQ.jpg", "genre_ids": [18, 53, 9648], "id": 36069, "original_language": "en", "original_title": "Cette femme-l\u00e0", "overview": "A strange investigation doesn\u2019t erase the regrets of a grieving woman cop. Every four years, the past catches up with her. Every four years this woman is very afraid. Her fear is such that she feels it could kill her because in her dreams reality begins.", "poster_path": "/riME0cXo5Z5MOovLbIMcllJSF7m.jpg", "release_date": "2003-10-15", "title": "Hanging Offense", "video": false, "vote_average": 6.4, "vote_count": 5, "popularity": 2.871}, {"adult": false, "backdrop_path": "/jaC8kckVRWaucOOCDkT0lQkFSga.jpg", "genre_ids": [18, 53, 10749], "id": 50988, "original_language": "fi", "original_title": "Hymypoika", "overview": "Taavi,the enigmatic 18-year-old lead, has just inherited his long-deceased wealthy parents home and estate. It is high school graduation and Taavi's birthday, and after his fiends greet him au natural and are arrested, Taavi invites his friends to the mansion for a wild party. Taavi lives with a recording camera to his eye, a machine that allows his to keep interpersonal distance from everyone. Among his friends are Jere who considers himself a woman's man, Markus (who appears the well-adjusted one, and chubby, pierced Sami whose sexuality is ambiguous. The party gets wild, guests sleep around, and Taavi records it all!", "poster_path": "/bTtSOVBC4VIAbzhlsJXgcmbbZPg.jpg", "release_date": "2003-10-24", "title": "Young Gods", "video": false, "vote_average": 5.1, "vote_count": 11, "popularity": 2.617}, {"id": 47574, "video": false, "vote_count": 19, "vote_average": 4.6, "title": "The Monkey's Mask", "release_date": "2000-09-27", "original_language": "en", "original_title": "The Monkey's Mask", "genre_ids": [80, 53], "backdrop_path": "/dmUtKlX6a2ecbRHiwy6PPrn0uW3.jpg", "adult": false, "overview": "The Monkey's Mask is a 2000 thriller film directed by Samantha Lang. It stars Susie Porter and Kelly McGillis. Porter plays a lesbian private detective who falls in love with a suspect (McGillis) in the disappearance of a young woman. The film is based on the verse novel of the same name by Australian poet Dorothy Porter.", "poster_path": "/ndjld6gVqYxsdxG99hnNjwWVZDk.jpg", "popularity": 5.263}, {"adult": false, "backdrop_path": "/xJR8jhZC3zdTnwEDht3r9a5dAwj.jpg", "genre_ids": [18], "id": 71632, "original_language": "fr", "original_title": "Mauvaise passe", "overview": "A movie about a middle aged french man who after a family crisis travels on the spur of the moment to London only to get caught up in the male prostitution business and eventually drugs.", "poster_path": "/lWb81MXv8hCXC9Psz6twIqHEX0O.jpg", "release_date": "1999-11-17", "title": "The Escort", "video": false, "vote_average": 5.9, "vote_count": 7, "popularity": 3.746}, {"id": 24275, "video": false, "vote_count": 21, "vote_average": 5.1, "title": "Mojave Moon", "release_date": "1996-01-01", "original_language": "en", "original_title": "Mojave Moon", "genre_ids": [35, 53, 10749], "backdrop_path": "/p98VRomVosbv0xc5UIpM7HNvrQx.jpg", "adult": false, "overview": "Al McCord is hanging out at his favourite restaurant when he meets an attractive young woman (Ellie) who is looking for a ride from the city out into the Mojave Desert, where her mother lives. Little does he know that while Ellie is falling in love with him, he is falling for her mother (Julie), despite the nearby presence of Julie's boyfriend who seems likely to go berzerk at any moment. Even more strange, hilarious events follow and it's up to Al to find some explanation. His life may never again be the same.", "poster_path": "/bAG57RtZ1esLw2wuUyjbyhvnnD.jpg", "popularity": 10.286}, {"adult": false, "backdrop_path": "/sDWWxGihl9lBRsYUDkFOOPZhFD9.jpg", "genre_ids": [53, 9648, 80], "id": 25500, "original_language": "en", "original_title": "Feux rouges", "overview": "A cross-country trip turns out to be a nightmare for a troubled couple.", "poster_path": "/jdCpRWfPj3xt6LvSuXFyDYiidjF.jpg", "release_date": "2004-03-03", "title": "Red Lights", "video": false, "vote_average": 5.7, "vote_count": 14, "popularity": 3.304}], "total_pages": 1, "total_results": 7}, "credits": {"cast": [{"cast_id": 2, "character": "Marie Palesi / Mary Magdalene", "credit_id": "52fe46f2c3a368484e0acb3d", "gender": 1, "id": 1137, "name": "Juliette Binoche", "order": 0, "profile_path": "/3QtWKWVlhG1pixoPrQmb0AueAMt.jpg"}, {"cast_id": 3, "character": "Tony Childress / Jesus", "credit_id": "52fe46f2c3a368484e0acb41", "gender": 2, "id": 8654, "name": "Matthew Modine", "order": 1, "profile_path": "/tEQG1Us5IuoKYtufZe6waWtxfeg.jpg"}, {"cast_id": 4, "character": "Ted Younger", "credit_id": "52fe46f2c3a368484e0acb45", "gender": 2, "id": 2178, "name": "Forest Whitaker", "order": 2, "profile_path": "/fugyEeN6sisuYi07HSoxdVHm0CZ.jpg"}, {"cast_id": 5, "character": "", "credit_id": "52fe46f2c3a368484e0acb49", "gender": 0, "id": 240105, "name": "Kate Conner", "order": 3, "profile_path": null}, {"cast_id": 7, "character": "Apostle Andrew", "credit_id": "52fe46f2c3a368484e0acb4d", "gender": 0, "id": 141206, "name": "Ettore D'Alessandro", "order": 4, "profile_path": "/pzhz6EHjyPvfqnv5YgVdcfTqBCI.jpg"}, {"cast_id": 43, "character": "Brenda Sax", "credit_id": "53da4c2ac3a3681ee5001638", "gender": 1, "id": 15917, "name": "Stefania Rocca", "order": 5, "profile_path": "/3d1eM7BfixNOXLD4vLexip9yNeH.jpg"}, {"cast_id": 9, "character": "Matteo", "credit_id": "52fe46f2c3a368484e0acb55", "gender": 0, "id": 59269, "name": "Elio Germano", "order": 6, "profile_path": "/epKbq02VwTuayddefj7yDkcp4ry.jpg"}, {"cast_id": 10, "character": "Gretchen Mol", "credit_id": "52fe46f2c3a368484e0acb59", "gender": 1, "id": 8293, "name": "Marion Cotillard", "order": 7, "profile_path": "/qQZ6OuZxVjAamMy0lXnkI5oIEzs.jpg"}, {"cast_id": 34, "character": "Elizabeth Younger", "credit_id": "52fe46f3c3a368484e0acbe7", "gender": 1, "id": 69122, "name": "Heather Graham", "order": 8, "profile_path": "/rHIEhPAnZQn8BTbB1EVQ5ggEOX7.jpg"}, {"cast_id": 35, "character": "Apostle Peter", "credit_id": "52fe46f3c3a368484e0acbeb", "gender": 2, "id": 27643, "name": "Marco Leonardi", "order": 9, "profile_path": "/vyBWitXBSfFJpJRff14GrIZimta.jpg"}, {"cast_id": 36, "character": "Apostle Thomas", "credit_id": "52fe46f3c3a368484e0acbef", "gender": 2, "id": 8774, "name": "Luca Lionello", "order": 10, "profile_path": "/uihJcvguSrQZvixepdRePNy7dmo.jpg"}, {"cast_id": 37, "character": "Apostle James", "credit_id": "52fe46f3c3a368484e0acbf3", "gender": 2, "id": 1105263, "name": "Mario Opinato", "order": 11, "profile_path": "/cLBVj89IZWpY9vD9fGQP1uGLHmo.jpg"}, {"cast_id": 39, "character": "Johanna, Mary's Follower", "credit_id": "52fe46f3c3a368484e0acbfb", "gender": 0, "id": 1125483, "name": "Emanuela Iovannitti", "order": 13, "profile_path": null}, {"cast_id": 40, "character": "Salome", "credit_id": "52fe46f3c3a368484e0acbff", "gender": 0, "id": 1011906, "name": "Chiara Picchi", "order": 14, "profile_path": null}, {"cast_id": 41, "character": "Martha", "credit_id": "52fe46f3c3a368484e0acc03", "gender": 0, "id": 1125484, "name": "Angelica Di Majo", "order": 15, "profile_path": "/4NaJkl8FtNxA5c6QSI4ICR4zokR.jpg"}, {"cast_id": 42, "character": "Apostle Matthew", "credit_id": "52fe46f3c3a368484e0acc07", "gender": 0, "id": 1125485, "name": "Alex Grazioli", "order": 16, "profile_path": null}, {"cast_id": 44, "character": "Jerusalemite", "credit_id": "5b6ef2fcc3a368189419ec6e", "gender": 1, "id": 1012144, "name": "Shanyn Leigh", "order": 17, "profile_path": "/8fMDRnQwzBWhNEaAM5QETafw0KF.jpg"}], "crew": [{"credit_id": "5b6ef359c3a368189914590a", "department": "Costume & Make-Up", "gender": 0, "id": 7564, "job": "Costume Design", "name": "Silvia Nebiolo", "profile_path": null}, {"credit_id": "52fe46f2c3a368484e0acb39", "department": "Directing", "gender": 2, "id": 39104, "job": "Director", "name": "Abel Ferrara", "profile_path": "/spMsMgsJs8qwhLXgQO9VGNm9Rcn.jpg"}, {"credit_id": "52fe46f2c3a368484e0acb5f", "department": "Writing", "gender": 2, "id": 39104, "job": "Story", "name": "Abel Ferrara", "profile_path": "/spMsMgsJs8qwhLXgQO9VGNm9Rcn.jpg"}, {"credit_id": "52fe46f2c3a368484e0acb83", "department": "Production", "gender": 0, "id": 71332, "job": "Producer", "name": "Fernando Sulichin", "profile_path": "/ar6EopE5P0rULjYKkzyd6sDKuCK.jpg"}, {"credit_id": "5b6ef37392514168b60cf198", "department": "Sound", "gender": 2, "id": 137125, "job": "Sound Re-Recording Mixer", "name": "Chris David", "profile_path": null}, {"credit_id": "52fe46f3c3a368484e0acbad", "department": "Production", "gender": 0, "id": 139346, "job": "Executive Producer", "name": "Riccardo Neri", "profile_path": null}, {"credit_id": "52fe46f3c3a368484e0acbe3", "department": "Art", "gender": 0, "id": 162545, "job": "Production Design", "name": "Frank DeCurtis", "profile_path": null}, {"credit_id": "5b6ef34f0e0a267ef416226a", "department": "Costume & Make-Up", "gender": 0, "id": 162545, "job": "Costume Design", "name": "Frank DeCurtis", "profile_path": null}, {"credit_id": "52fe46f2c3a368484e0acb89", "department": "Production", "gender": 0, "id": 162545, "job": "Producer", "name": "Frank DeCurtis", "profile_path": null}, {"credit_id": "52fe46f2c3a368484e0acb9b", "department": "Production", "gender": 0, "id": 233192, "job": "Producer", "name": "Jean-Pierre Marois", "profile_path": null}, {"credit_id": "52fe46f2c3a368484e0acb71", "department": "Writing", "gender": 0, "id": 944511, "job": "Screenplay", "name": "Scott Pardo", "profile_path": null}, {"credit_id": "52fe46f2c3a368484e0acb8f", "department": "Production", "gender": 0, "id": 964477, "job": "Producer", "name": "David Hausen", "profile_path": null}, {"credit_id": "52fe46f3c3a368484e0acbd1", "department": "Editing", "gender": 0, "id": 967217, "job": "Editor", "name": "Langdon Page", "profile_path": null}, {"credit_id": "52fe46f3c3a368484e0acbd7", "department": "Editing", "gender": 0, "id": 992059, "job": "Editor", "name": "Yuka Ruell", "profile_path": null}, {"credit_id": "52fe46f3c3a368484e0acbbf", "department": "Editing", "gender": 0, "id": 993849, "job": "Editor", "name": "Patrizio Marone", "profile_path": null}, {"credit_id": "52fe46f3c3a368484e0acbdd", "department": "Production", "gender": 0, "id": 1011907, "job": "Casting", "name": "Matteo Mussoni", "profile_path": null}, {"credit_id": "52fe46f3c3a368484e0acbb9", "department": "Crew", "gender": 0, "id": 1051646, "job": "Cinematography", "name": "Stefano Falivene", "profile_path": null}, {"credit_id": "52fe46f3c3a368484e0acba7", "department": "Production", "gender": 0, "id": 1089479, "job": "Executive Producer", "name": "Jean Cazes", "profile_path": null}, {"credit_id": "52fe46f3c3a368484e0acbb3", "department": "Sound", "gender": 0, "id": 1095529, "job": "Original Music Composer", "name": "Francis Kuipers", "profile_path": null}, {"credit_id": "52fe46f2c3a368484e0acb65", "department": "Writing", "gender": 0, "id": 1125475, "job": "Story", "name": "Mario Isabella", "profile_path": null}, {"credit_id": "52fe46f2c3a368484e0acb6b", "department": "Writing", "gender": 0, "id": 1125476, "job": "Story", "name": "Simone Lageoles", "profile_path": null}, {"credit_id": "52fe46f2c3a368484e0acb77", "department": "Production", "gender": 0, "id": 1125477, "job": "Producer", "name": "Roberto De Nigris", "profile_path": null}, {"credit_id": "52fe46f2c3a368484e0acb7d", "department": "Production", "gender": 0, "id": 1125478, "job": "Producer", "name": "Francesco Di Silvio", "profile_path": null}, {"credit_id": "52fe46f2c3a368484e0acb95", "department": "Production", "gender": 0, "id": 1125479, "job": "Producer", "name": "Thierry Klemeniuk", "profile_path": null}, {"credit_id": "52fe46f3c3a368484e0acba1", "department": "Production", "gender": 0, "id": 1125480, "job": "Producer", "name": "Lewis Saul", "profile_path": null}, {"credit_id": "52fe46f3c3a368484e0acbc5", "department": "Editing", "gender": 0, "id": 1125481, "job": "Editor", "name": "Adam Mcclelland", "profile_path": null}, {"credit_id": "52fe46f3c3a368484e0acbcb", "department": "Editing", "gender": 2, "id": 1125482, "job": "Editor", "name": "Fabio Nunziata", "profile_path": null}, {"credit_id": "5b6ef33f925141404f132d9e", "department": "Art", "gender": 0, "id": 1404208, "job": "Art Direction", "name": "Monica Sallustio", "profile_path": null}, {"credit_id": "5b6ef3880e0a267ef6160031", "department": "Sound", "gender": 0, "id": 1573581, "job": "Sound Designer", "name": "Claudio Marani", "profile_path": null}, {"credit_id": "5b6ef3680e0a267ef81690d7", "department": "Sound", "gender": 0, "id": 1630072, "job": "Sound Re-Recording Mixer", "name": "Marco Coppolecchia", "profile_path": null}, {"credit_id": "5b6ef37ec3a368189419ecf7", "department": "Sound", "gender": 0, "id": 1766523, "job": "Sound Editor", "name": "Silvio Di Nicola", "profile_path": null}]}}