{"adult": false, "backdrop_path": null, "belongs_to_collection": null, "budget": 150000, "genres": [{"id": 53, "name": "Thriller"}], "homepage": null, "id": 65096, "imdb_id": "tt0398037", "original_language": "en", "original_title": "EMR", "overview": "Englishman Adam regains full consciousness after a seizure - tens of thousands of miles from home - only to discover that someone has surgically extracted one of his kidneys. All roads lead to a shady drug company called Phenal, which Adam believes is plotting against him, systematically. As Adam's paranoia builds, he realizes that no one around him can be fully trusted.", "popularity": 2.998, "poster_path": "/dJLdqgIB0EObZ6I0abYFRpyAOT7.jpg", "production_companies": [], "production_countries": [], "release_date": "2004-01-01", "revenue": 0, "runtime": 86, "spoken_languages": [{"iso_639_1": "en", "name": "English"}], "status": "Released", "tagline": "Swallow Your Fear", "title": "EMR", "video": false, "vote_average": 6.7, "vote_count": 3, "keywords": {"keywords": [{"id": 10183, "name": "independent film"}, {"id": 10410, "name": "conspiracy"}]}, "similar": {"page": 1, "results": [{"adult": false, "backdrop_path": "/9e5e7dJTMxQeF7zNx0CiJmxXE1I.jpg", "genre_ids": [27, 878, 53], "id": 11309, "original_language": "en", "original_title": "Hardware", "overview": "Mark 13 is a government-built killing machine programmed with artificial intelligence, able to repair and recharge itself from any energy source. Through a series of coincidences, the cyborg's head ends up in the home of a sculptress as a bizarre Christmas present from her boyfriend. Once inside its new home, the cyborg promptly reconstructs the rest of its body using a variety of household utensils and proceeds to go on a murderous rampage.", "poster_path": "/nsFm5xniViTVr1oVUpKmgvlAOEA.jpg", "release_date": "1990-09-14", "title": "Hardware", "video": false, "vote_average": 5.7, "vote_count": 145, "popularity": 11.259}, {"id": 2503, "video": false, "vote_count": 4834, "vote_average": 7.4, "title": "The Bourne Ultimatum", "release_date": "2007-08-03", "original_language": "en", "original_title": "The Bourne Ultimatum", "genre_ids": [28, 18, 9648, 53], "backdrop_path": "/6WpDOqkZFmhNJ0rwuLJiZVKlZi1.jpg", "adult": false, "overview": "Bourne is brought out of hiding once again by reporter Simon Ross who is trying to unveil Operation Blackbriar, an upgrade to Project Treadstone, in a series of newspaper columns. Information from the reporter stirs a new set of memories, and Bourne must finally uncover his dark past while dodging The Company's best efforts to eradicate him.", "poster_path": "/fHho6JYYY0nRcETWSoeI19iZsNF.jpg", "popularity": 17.539}, {"id": 298312, "video": false, "vote_count": 2921, "vote_average": 6.2, "title": "The Visit", "release_date": "2015-09-10", "original_language": "en", "original_title": "The Visit", "genre_ids": [27, 9648, 53], "backdrop_path": "/gbJlEeALVGo7kx8bC2q4EFWX1Xy.jpg", "adult": false, "overview": "The terrifying story of a brother and sister who are sent to their grandparents' remote Pennsylvania farm for a weeklong trip. Once the children discover that the elderly couple is involved in something deeply disturbing, they see their chances of getting back home are growing smaller every day.", "poster_path": "/32tNtTEQ1vIOLm1hEOSFkVwJT5D.jpg", "popularity": 20.148}, {"id": 12201, "video": false, "vote_count": 882, "vote_average": 6.3, "title": "Edge of Darkness", "release_date": "2010-01-28", "original_language": "en", "original_title": "Edge of Darkness", "genre_ids": [80, 18, 9648, 53], "backdrop_path": "/ksxr95M6fh2f2zgIlgGDDyfgOhC.jpg", "adult": false, "overview": "As a seasoned homicide detective, Thomas Craven has seen the bleakest side of humanity. But nothing prepares him for the toughest investigation of his life: the search for his only daughter Emma's killer. Now, he is on a personal mission to uncover the disturbing secrets surrounding her murder, including corporate corruption, government collusion and Emma's own mysterious life.", "poster_path": "/pvHjp1vEFmp5FquSCPQ2O95tIZJ.jpg", "popularity": 10.684}, {"adult": false, "backdrop_path": "/etybioibi04QJK9xxn3Rv5NLuKs.jpg", "genre_ids": [12, 28, 53, 878], "id": 8810, "original_language": "en", "original_title": "Mad Max 2", "overview": "Max Rockatansky returns as the heroic loner who drives the dusty roads of a postapocalyptic Australian Outback in an unending search for gasoline. Arrayed against him and the other scraggly defendants of a fuel-depot encampment are the bizarre warriors commanded by the charismatic Lord Humungus, a violent leader whose scruples are as barren as the surrounding landscape.", "poster_path": "/tVaClEA7n0MxaY8sb81nHwh6XNW.jpg", "release_date": "1981-12-24", "title": "Mad Max 2", "video": false, "vote_average": 7.4, "vote_count": 1898, "popularity": 20.303}, {"adult": false, "backdrop_path": "/7QjoyyGdBV32x1sEh64dAnNjwg2.jpg", "genre_ids": [53, 35, 27], "id": 12521, "original_language": "en", "original_title": "Shocker", "overview": "After being sent to the electric chair, a serial killer uses electricity to come back from the dead and carry out his vengeance on the football player who turned him in to the police.", "poster_path": "/xEDmOhNGCKlWlS3mCiqLCVzBXVA.jpg", "release_date": "1989-10-27", "title": "Shocker", "video": false, "vote_average": 5.5, "vote_count": 176, "popularity": 9.966}, {"adult": false, "backdrop_path": "/neSLpxwG5TWNzCPDUIZ9kbl2bOL.jpg", "genre_ids": [18, 53, 80], "id": 4836, "original_language": "en", "original_title": "Layer Cake", "overview": "When a seemingly straight-forward drug deal goes awry, XXXX has to break his die-hard rules and turn up the heat, not only to outwit the old regime and come out on top, but to save his own skin...", "poster_path": "/y6BzUkrx789OhVMDXZiBBVHu6OQ.jpg", "release_date": "2004-09-30", "title": "Layer Cake", "video": false, "vote_average": 7.0, "vote_count": 1028, "popularity": 15.863}, {"id": 4638, "video": false, "vote_count": 4426, "vote_average": 7.5, "title": "Hot Fuzz", "release_date": "2007-02-14", "original_language": "en", "original_title": "Hot Fuzz", "genre_ids": [28, 35, 80], "backdrop_path": "/zuskekrfW3gj9ttXNVhfdHe5n22.jpg", "adult": false, "overview": "As a former London constable, Nicholas Angel finds it difficult to adapt to his new assignment in the sleepy British village of Sandford. Not only does he miss the excitement of the big city, but he also has a well-meaning oaf for a partner. However, when a series of grisly accidents rocks Sandford, Angel smells something rotten in the idyllic village.", "poster_path": "/5Jx6s6VXnunh8wCLgR0YgjwSgjh.jpg", "popularity": 25.234}, {"adult": false, "backdrop_path": "/t4DO37tO3mhMX4DCdnI1EPsRi26.jpg", "genre_ids": [80, 18, 9648], "id": 3580, "original_language": "en", "original_title": "Changeling", "overview": "Christine Collins is overjoyed when her kidnapped son is brought back home. But when Christine suspects that the boy returned to her isn't her child, the police captain has her committed to an asylum.", "poster_path": "/qtte2n6ygA1zVG5kLrjUGui28TJ.jpg", "release_date": "2008-01-30", "title": "Changeling", "video": false, "vote_average": 7.5, "vote_count": 2321, "popularity": 16.435}, {"adult": false, "backdrop_path": "/7RRuRcGuWkZGuRyYugfXn0Fgrrr.jpg", "genre_ids": [28, 80, 18, 53], "id": 949, "original_language": "en", "original_title": "Heat", "overview": "Obsessive master thief, Neil McCauley leads a top-notch crew on various daring heists throughout Los Angeles while determined detective, Vincent Hanna pursues him without rest. Each man recognizes and respects the ability and the dedication of the other even though they are aware their cat-and-mouse game may end in violence.", "poster_path": "/6pmLVffM9jEYK7VqDJqPblMxfEY.jpg", "release_date": "1995-12-15", "title": "Heat", "video": false, "vote_average": 7.8, "vote_count": 3610, "popularity": 21.48}, {"adult": false, "backdrop_path": "/zWGAnbxjjwY3xFGuOeR26LGbBlG.jpg", "genre_ids": [27, 53], "id": 238636, "original_language": "en", "original_title": "The Purge: Anarchy", "overview": "One night per year, the government sanctions a 12-hour period in which citizens can commit any crime they wish -- including murder -- without fear of punishment or imprisonment. Leo, a sergeant who lost his son, plans a vigilante mission of revenge during the mayhem. However, instead of a death-dealing avenger, he becomes the unexpected protector of four innocent strangers who desperately need his help if they are to survive the night.", "poster_path": "/l1DRl40x2OWUoPP42v8fjKdS1Z3.jpg", "release_date": "2014-07-17", "title": "The Purge: Anarchy", "video": false, "vote_average": 6.6, "vote_count": 4141, "popularity": 32.533}, {"id": 339692, "video": false, "vote_count": 1163, "vote_average": 6.9, "title": "Shot Caller", "release_date": "2017-07-13", "original_language": "en", "original_title": "Shot Caller", "genre_ids": [80, 18, 53], "backdrop_path": "/hehboYLXB3m90x9ybiBsupwuifL.jpg", "adult": false, "overview": "A newly-released prison gangster is forced by the leaders of his gang to orchestrate a major crime with a brutal rival gang on the streets of Southern California.", "poster_path": "/qLmLz2wtyYvmW8Ult3l2ngOnW8v.jpg", "popularity": 25.016}, {"id": 442249, "video": false, "vote_count": 2156, "vote_average": 5.8, "title": "The First Purge", "release_date": "2018-07-04", "original_language": "en", "original_title": "The First Purge", "genre_ids": [28, 27, 878, 53], "backdrop_path": "/r4clWIxKeWoqrHspQP0XunuUmB7.jpg", "adult": false, "overview": "To push the crime rate below one percent for the rest of the year, the New Founding Fathers of America test a sociological theory that vents aggression for one night in one isolated community. But when the violence of oppressors meets the rage of the others, the contagion will explode from the trial-city borders and spread across the nation.", "poster_path": "/litjsBoiydO6JlO70uOX4N3WnNL.jpg", "popularity": 27.168}, {"adult": false, "backdrop_path": "/o4psXh7IVD6GFKvBSHjHLzjL2lV.jpg", "genre_ids": [27, 53], "id": 10781, "original_language": "en", "original_title": "The Texas Chainsaw Massacre: The Beginning", "overview": "Chrissie and her friends set out on a road trip for a final fling before one is shipped off to Vietnam. Along the way, bikers harass the foursome and cause an accident that throws Chrissie from the vehicle. The lawman who arrives on the scene kills one of the bikers and brings Chrissie's friends to the Hewitt homestead, where young Leatherface is learning the tools of terror.", "poster_path": "/9elCJIG1TOJ0wew3JVx5ZMkHq5w.jpg", "release_date": "2006-10-06", "title": "The Texas Chainsaw Massacre: The Beginning", "video": false, "vote_average": 6.0, "vote_count": 935, "popularity": 18.392}, {"id": 75780, "video": false, "vote_count": 4450, "vote_average": 6.4, "title": "Jack Reacher", "release_date": "2012-12-20", "original_language": "en", "original_title": "Jack Reacher", "genre_ids": [28, 80, 18, 53], "backdrop_path": "/ezXodpP429qK0Av89pVNlaXWJkQ.jpg", "adult": false, "overview": "When a gunman takes five lives with six shots, all evidence points to the suspect in custody. On interrogation, the suspect offers up a single note: \"Get Jack Reacher!\" So begins an extraordinary chase for the truth, pitting Jack Reacher against an unexpected enemy, with a skill for violence and a secret to keep.", "poster_path": "/mt0ELw83HIRgaKaDzhsDcIi0RnW.jpg", "popularity": 19.929}, {"adult": false, "backdrop_path": "/19qAk3bQZ6ulspbwhPw1A0bNpii.jpg", "genre_ids": [80, 27, 53], "id": 73861, "original_language": "sr", "original_title": "Srpski film", "overview": "Milos, a retired porn star, leads a normal family life trying to make ends meet. Presented with the opportunity of a lifetime to financially support his family for the rest of their lives, Milos must participate in one last mysterious film. From then on, Milos is drawn into a maelstrom of unbelievable cruelty and mayhem.", "poster_path": "/iB3ynCghwG63MrViBC6YyPzUIAn.jpg", "release_date": "2010-06-16", "title": "A Serbian Film", "video": false, "vote_average": 5.5, "vote_count": 898, "popularity": 15.06}, {"adult": false, "backdrop_path": "/ieJ5ImFoJILNULvnIpbulAln7Lr.jpg", "genre_ids": [12, 28, 53, 878], "id": 14869, "original_language": "en", "original_title": "G.I. Joe: The Rise of Cobra", "overview": "From the Egyptian desert to deep below the polar ice caps, the elite G.I. JOE team uses the latest in next-generation spy and military equipment to fight the corrupt arms dealer Destro and the growing threat of the mysterious Cobra organization to prevent them from plunging the world into chaos.", "poster_path": "/29eW5c5DaCFQejdt9V14RrA51yD.jpg", "release_date": "2009-08-04", "title": "G.I. Joe: The Rise of Cobra", "video": false, "vote_average": 5.7, "vote_count": 3081, "popularity": 24.573}, {"id": 398181, "video": false, "vote_count": 1301, "vote_average": 6.6, "title": "You Were Never Really Here", "release_date": "2017-11-08", "original_language": "en", "original_title": "You Were Never Really Here", "genre_ids": [53], "backdrop_path": "/h4Lk8Cgfvlzz0hcnSJBTAOwNDia.jpg", "adult": false, "overview": "A traumatised veteran, unafraid of violence, tracks down missing girls for a living. When a job spins out of control, Joe's nightmares overtake him as a conspiracy is uncovered leading to what may be his death trip or his awakening.", "poster_path": "/ktPbjD6nYg5NxmeTt72Iqaw5GD0.jpg", "popularity": 19.651}, {"id": 274855, "video": false, "vote_count": 2497, "vote_average": 5.8, "title": "Geostorm", "release_date": "2017-10-13", "original_language": "en", "original_title": "Geostorm", "genre_ids": [28, 878, 53], "backdrop_path": "/79X8JkGxzc1tJMi0KxUSaPLooVg.jpg", "adult": false, "overview": "After an unprecedented series of natural disasters threatened the planet, the world's leaders came together to create an intricate network of satellites to control the global climate and keep everyone safe. But now, something has gone wrong: the system built to protect Earth is attacking it, and it becomes a race against the clock to uncover the real threat before a worldwide geostorm wipes out everything and everyone along with it.", "poster_path": "/nrsx0jEaBgXq4PWo7SooSnYJTv.jpg", "popularity": 18.302}, {"id": 473149, "video": false, "vote_count": 194, "vote_average": 5.9, "title": "Traffik", "release_date": "2018-04-20", "original_language": "en", "original_title": "Traffik", "genre_ids": [27, 53], "backdrop_path": "/wbk9VvJ8lkUF0ElpfRm3dFIzMJf.jpg", "adult": false, "overview": "A couple off for a romantic weekend in the mountains are accosted by a biker gang. Alone in the mountains, Brea and John must defend themselves against the gang, who will stop at nothing to protect their secrets.", "poster_path": "/e2Z466e9402RFP6wxRMfXYYiJHA.jpg", "popularity": 22.593}], "total_pages": 479, "total_results": 9570}, "recommendations": {"page": 1, "results": [], "total_pages": 1, "total_results": 0}, "credits": {"cast": [{"cast_id": 22, "character": "Adam Jones", "credit_id": "53cc94f4c3a36877640020a3", "gender": 2, "id": 82738, "name": "Adam Leese", "order": 0, "profile_path": "/KmtMhCWU8jOG6QV42nF4xmywU8.jpg"}, {"cast_id": 6, "character": "Cyber Bunny Lilly", "credit_id": "53cc93060e0a265dfc00322b", "gender": 1, "id": 66555, "name": "Whitney Cummings", "order": 1, "profile_path": "/zGItiBP0mFIIPSaauW0PgYPuP8L.jpg"}, {"cast_id": 1, "character": "Paramedic", "credit_id": "53cc92810e0a265df000326c", "gender": 2, "id": 165263, "name": "Anthony Azizi", "order": 2, "profile_path": "/oRbmRcxF2PWS4ezuVVZRfSevZBb.jpg"}, {"cast_id": 19, "character": "Agent 6", "credit_id": "53cc942fc3a368776d002154", "gender": 0, "id": 63077, "name": "George Calil", "order": 3, "profile_path": null}, {"cast_id": 20, "character": "Paramedic", "credit_id": "53cc9488c3a368777100207d", "gender": 2, "id": 6575, "name": "Gil Bellows", "order": 4, "profile_path": "/msGHWcelT17HW70FDIXdjGmPmMK.jpg"}, {"cast_id": 26, "character": "Henry", "credit_id": "555d79029251417571000c83", "gender": 2, "id": 2524, "name": "Tom Hardy", "order": 5, "profile_path": "/gQbHq8Mz4KO3E8yT2EfgllpzIx2.jpg"}], "crew": [{"credit_id": "598cc6b99251414c1200016c", "department": "Directing", "gender": 2, "id": 195507, "job": "Director", "name": "James Erskine", "profile_path": null}, {"credit_id": "598cc6bfc3a3683a5500014f", "department": "Production", "gender": 2, "id": 195507, "job": "Producer", "name": "James Erskine", "profile_path": null}, {"credit_id": "598cc6c3c3a3683aaa00016e", "department": "Writing", "gender": 2, "id": 195507, "job": "Writer", "name": "James Erskine", "profile_path": null}, {"credit_id": "53cc95e2c3a368776d002188", "department": "Directing", "gender": 0, "id": 1344382, "job": "Director", "name": "Danny McCullough", "profile_path": null}]}}