{"adult": false, "backdrop_path": "/1sBiSgAX7uOyByDJ5Tm6P8Ecx9i.jpg", "belongs_to_collection": null, "budget": 0, "genres": [{"id": 35, "name": "Comedy"}, {"id": 18, "name": "Drama"}, {"id": 10749, "name": "Romance"}], "homepage": null, "id": 65326, "imdb_id": "tt0091642", "original_language": "en", "original_title": "Nobody's Fool", "overview": "Cassie has a miserable job in a bar, is lonely and depressed. Her boyfriend left her when she told him that she's pregnant. After several failed suicide attempts she'd given away her baby for adoption - and regrets it now. When a theater group from L.A. comes to the small town Buckeye, she meets stage technician Riley. Discreetly he starts wooing her... she likes him very much, but still has feelings for her former boyfriend Billy too.", "popularity": 1.747, "poster_path": "/uNlSJLKb3u0xtYRYcvdSb2HM0pO.jpg", "production_companies": [], "production_countries": [], "release_date": "1986-11-07", "revenue": 0, "runtime": 107, "spoken_languages": [{"iso_639_1": "en", "name": "English"}], "status": "Released", "tagline": "", "title": "Nobody's Fool", "video": false, "vote_average": 5.8, "vote_count": 4, "keywords": {"keywords": [{"id": 187056, "name": "woman director"}]}, "similar": {"page": 1, "results": [{"adult": false, "backdrop_path": "/cADbqsIoiDW7X3Myg9nz8eAuno5.jpg", "genre_ids": [18, 10749], "id": 10818, "original_language": "fr", "original_title": "Naissance des pieuvres", "overview": "Set during a sultry summer in a French suburb, Marie is desperate to join the local pool's synchronized swimming team, but is her interest solely for the sake of sport or for a chance to get close to Floriane, the bad girl of the team? Sciamma, and the two leads, capture the uncertainty of teenage sexuality with a sympathetic eye in this delicate drama of the angst of coming-of-age.", "poster_path": "/4jajELYrR4Xmv3CVoKnukRnALa2.jpg", "release_date": "2007-05-17", "title": "Water Lilies", "video": false, "vote_average": 6.1, "vote_count": 119, "popularity": 10.744}, {"adult": false, "backdrop_path": "/gZeJziVigmRqbkEZwKAtSqlLQ6s.jpg", "genre_ids": [18, 10749], "id": 370663, "original_language": "en", "original_title": "Below Her Mouth", "overview": "An unexpected affair quickly escalates into a heart-stopping reality for two women whose passionate connection changes their lives forever.", "poster_path": "/nTGbq37hYLuNy7YgMg0gVLma0NS.jpg", "release_date": "2016-09-10", "title": "Below Her Mouth", "video": false, "vote_average": 6.2, "vote_count": 456, "popularity": 22.676}, {"adult": false, "backdrop_path": "/dvQDRfv3qvfHNnVAR57ouVsuErf.jpg", "genre_ids": [10749, 18], "id": 28031, "original_language": "en", "original_title": "If These Walls Could Talk 2", "overview": "The stories of three lesbian couples -- who live in the same house at different periods of time -- who are at a crossroads in their lives. In 1961, Edith loses her lover, Abby, to a stroke. Linda and Amy struggle with feminist issues in 1972. And, in 2000, Kal and Fran try to have a baby with the help of sperm donor.", "poster_path": "/xs7ODbmYQXCDhvXNvz5tF17T59H.jpg", "release_date": "2000-03-05", "title": "If These Walls Could Talk 2", "video": false, "vote_average": 7.1, "vote_count": 55, "popularity": 8.062}, {"adult": false, "backdrop_path": "/knczzNAjBXzSYkeWxoT1u9VNmjR.jpg", "genre_ids": [10749, 18], "id": 258480, "original_language": "en", "original_title": "Carol", "overview": "In 1950s New York, a department-store clerk who dreams of a better life falls for an older, married woman.", "poster_path": "/AbKa7ANxmui0Jmhh7gV7OSELKIL.jpg", "release_date": "2015-11-20", "title": "Carol", "video": false, "vote_average": 7.4, "vote_count": 2182, "popularity": 14.185}, {"adult": false, "backdrop_path": "/fZ8oFcREAr6wgWcXISGql0xyxjB.jpg", "genre_ids": [35, 18], "id": 39781, "original_language": "en", "original_title": "The Kids Are All Right", "overview": "Two women, Nic and Jules, brought a son and daughter into the world through artificial insemination. When one of their children reaches age, both kids go behind their mothers' backs to meet with the donor. Life becomes so much more interesting when the father, two mothers and children start to become attached to each other.", "poster_path": "/fPDeK4MmoGfi2X0oWZev7LrbMqM.jpg", "release_date": "2010-07-09", "title": "The Kids Are All Right", "video": false, "vote_average": 6.6, "vote_count": 923, "popularity": 12.703}, {"adult": false, "backdrop_path": "/rf6G51j0SZL0tP57I8gnqHTRFEr.jpg", "genre_ids": [35, 18, 10749], "id": 273153, "original_language": "fr", "original_title": "La belle saison", "overview": "In 1971, Carole and Delphine meet and fall in love in Paris. When Carole follows Delphine back to her family farm in Limousin, the two find lesbianism and feminism are not as easy in the countryside.", "poster_path": "/evvAkNMO5VJiy5qIo1Hu7fUfvVI.jpg", "release_date": "2015-08-19", "title": "Summertime", "video": false, "vote_average": 6.6, "vote_count": 162, "popularity": 15.434}, {"adult": false, "backdrop_path": "/s12HEmmkJfI2mjltI61hGm5kubD.jpg", "genre_ids": [35, 18, 10749], "id": 20770, "original_language": "en", "original_title": "But I'm a Cheerleader", "overview": "Megan is an all-American girl. A cheerleader. She has a boyfriend. But Megan doesn't like kissing her boyfriend very much. And she's pretty touchy with her cheerleader friends. Her conservative parents worry that she must be a lesbian and send her off to \"sexual redirection\" school, where she must, with other lesbians and gays learn how to be straight.", "poster_path": "/eDGH7CHSdkrYcuUJV1e0WS9DlQL.jpg", "release_date": "1999-12-09", "title": "But I'm a Cheerleader", "video": false, "vote_average": 6.8, "vote_count": 246, "popularity": 10.067}, {"id": 9813, "video": false, "vote_count": 128, "vote_average": 6.1, "title": "The Quiet", "release_date": "2005-09-12", "original_language": "en", "original_title": "The Quiet", "genre_ids": [18, 53], "backdrop_path": "/6eyWAZA4CEidZW1xXnQ4vlYBXTP.jpg", "adult": false, "overview": "After her widowed father dies, deaf teenager Dot moves in with her godparents, Olivia and Paul Deer. The Deers' daughter, Nina, is openly hostile to Dot, but that does not prevent her from telling her secrets to her silent stepsister, including the fact that she wants to kill her lecherous father.", "poster_path": "/GEqIE9YlmygHVUfS64LW2cwAAM.jpg", "popularity": 13.948}, {"adult": false, "backdrop_path": "/g3LYarEY9LjB28Ct2trwFN72gqZ.jpg", "genre_ids": [35], "id": 437557, "original_language": "en", "original_title": "Blockers", "overview": "When three parents discover their daughters\u2019 pact to lose their virginity at prom, they launch a covert one-night operation to stop the teens from sealing the deal.", "poster_path": "/uvlUQXg0AlpGzKukO11K7QtW3Yu.jpg", "release_date": "2018-03-14", "title": "Blockers", "video": false, "vote_average": 6.2, "vote_count": 1153, "popularity": 18.075}, {"adult": false, "backdrop_path": "/tzqeuHWMFihFbiLGHdalPgAcSf6.jpg", "genre_ids": [18, 10749], "id": 18620, "original_language": "en", "original_title": "Go Fish", "overview": "Max is a trendy, pretty, young lesbian, who is having trouble finding love. A friend sets her up with Ely, whom Max likes, but Ely is frumpy, homely, and older. Nor do they have much in common. Can Max learn to look past the packaging?", "poster_path": "/qrEFYrwykaGsY8NULYuYLLI7zrM.jpg", "release_date": "1994-06-10", "title": "Go Fish", "video": false, "vote_average": 5.0, "vote_count": 11, "popularity": 2.626}, {"adult": false, "backdrop_path": "/6tern9vOEwwmkDYC1vRCuO64z0C.jpg", "genre_ids": [10749, 18], "id": 475888, "original_language": "en", "original_title": "Tell It to the Bees", "overview": "Dr. Jean Markham returns to the town she left as a teenager to take over her late father's medical practice. When a school-yard scuffle lands Charlie in her surgery, she invites him to visit the hives in her garden and tell his secrets to the bees, as she once did. The new friendship between the boy and the bee keeper brings his mother Lydia into Jean's world.", "poster_path": "/Rj6zpHhMU1zFW3v28U4PSRSRgP.jpg", "release_date": "2019-05-03", "title": "Tell It to the Bees", "video": false, "vote_average": 6.4, "vote_count": 53, "popularity": 15.113}, {"adult": false, "backdrop_path": "/xOGEw8iywxcFMolV6SF6YdTdJTb.jpg", "genre_ids": [10402, 10749], "id": 52371, "original_language": "nl", "original_title": "LelleBelle", "overview": "19-year old Belle practices playing the violin diligently, but is unable to impart her music with a sensitive undertone. Her life changes when she discovers that sexual desire stimulates passion in her music.", "poster_path": "/nJVPgIq3icZMQ26p5uWIFdUZJfL.jpg", "release_date": "2010-10-08", "title": "LelleBelle", "video": false, "vote_average": 4.7, "vote_count": 41, "popularity": 13.931}, {"adult": false, "backdrop_path": "/baYbbMtKRDoDWYJeVWkbygAvAj8.jpg", "genre_ids": [18, 10749], "id": 31216, "original_language": "en", "original_title": "I Can't Think Straight", "overview": "I CAN'T THINK STRAIGHT is a 2007 romance movie about a London-based Jordanian of Palestinian descent, Tala, who is preparing for an elaborate wedding. A turn of events causes her to have an affair and subsequently fall in love with another woman, Leyla, a British Indian.", "poster_path": "/1kapga6rkM5wNuQBYw7sdE42CrA.jpg", "release_date": "2008-06-01", "title": "I Can't Think Straight", "video": false, "vote_average": 7.6, "vote_count": 109, "popularity": 8.749}, {"adult": false, "backdrop_path": "/lI5h8KaoeObu4NMTwzeRuUHzRwD.jpg", "genre_ids": [18, 9648, 53], "id": 401898, "original_language": "no", "original_title": "Thelma", "overview": "A college student starts to experience extreme seizures. She soon learns that the violent episodes are a symptom of inexplicable abilities.", "poster_path": "/yzSfG8TLAqw7nMQh2lxirQkQpgs.jpg", "release_date": "2017-09-15", "title": "Thelma", "video": false, "vote_average": 7.1, "vote_count": 418, "popularity": 12.235}, {"adult": false, "backdrop_path": "/tIFRPjIXQ3sYrmxbIeOu9K1JkUz.jpg", "genre_ids": [18, 10749], "id": 294, "original_language": "en", "original_title": "Desert Hearts", "overview": "The story of straight-edge literature professor Vivian who travels to Reno to get away from a relationship breakup when she falls in love with an attractive and unconventional girl named Cay.", "poster_path": "/b8JSmQSpYYJhctMtxNgqh0elENg.jpg", "release_date": "1985-10-01", "title": "Desert Hearts", "video": false, "vote_average": 7.3, "vote_count": 58, "popularity": 8.237}, {"id": 520172, "video": false, "vote_count": 0, "vote_average": 0.0, "title": "Happiest Season", "release_date": "2020-11-20", "original_language": "en", "original_title": "Happiest Season", "genre_ids": [35, 10749], "backdrop_path": null, "adult": false, "overview": "A young woman's plans to propose to her girlfriend while at her family's annual holiday party are upended when she discovers her partner hasn't yet come out to her conservative parents.", "poster_path": null, "popularity": 6.436}, {"id": 2255, "video": false, "vote_count": 772, "vote_average": 6.8, "title": "Chasing Amy", "release_date": "1997-04-04", "original_language": "en", "original_title": "Chasing Amy", "genre_ids": [35, 18, 10749], "backdrop_path": "/doKYVK61Vb8J1KUjlb9dNWkQNp6.jpg", "adult": false, "overview": "Holden and Banky are comic book artists. Everything is going good for them until they meet Alyssa, also a comic book artist. Holden falls for her, but his hopes are crushed when he finds out she's a lesbian.", "poster_path": "/4vFJileWrCGaBeobCmF0tXpQCUb.jpg", "popularity": 11.325}, {"adult": false, "backdrop_path": "/hD8DQM72Xacg1d3mFqS0eN8vKYw.jpg", "genre_ids": [18], "id": 8272, "original_language": "en", "original_title": "The Savages", "overview": "A sister and brother face the realities of familial responsibility as they begin to care for their ailing father.", "poster_path": "/nY54gSmTOmSXlQpWDB7DWp4u8a7.jpg", "release_date": "2007-01-19", "title": "The Savages", "video": false, "vote_average": 6.9, "vote_count": 192, "popularity": 13.094}, {"adult": false, "backdrop_path": "/zBB1mzmqnUuSrlTuf0SFFlI1EoJ.jpg", "genre_ids": [18], "id": 244772, "original_language": "en", "original_title": "The Skeleton Twins", "overview": "Estranged twins Maggie and Milo coincidentally cheat death on the same day, prompting them to reunite and confront the reasons their lives went so wrong. As the twins' reunion reinvigorates them, they realize the key to fixing their lives may just lie in repairing their relationship.", "poster_path": "/vvmv1R2jDXJeeeyYcGg0ypXc2XK.jpg", "release_date": "2014-09-12", "title": "The Skeleton Twins", "video": false, "vote_average": 6.7, "vote_count": 416, "popularity": 9.821}, {"adult": false, "backdrop_path": "/3YGy88nTV2e0wxZcKI1goiEN9oy.jpg", "genre_ids": [18, 10749], "id": 37636, "original_language": "en", "original_title": "High Art", "overview": "A young female intern at a small magazine company becomes involved with a drug-addicted lesbian photographer, both of whom seek to exploit each other for their respective careers, while slowly falling in love with each other.", "poster_path": "/qTg05RNJIvb9w4Z7XIcAZxuZmTn.jpg", "release_date": "1998-06-12", "title": "High Art", "video": false, "vote_average": 6.6, "vote_count": 61, "popularity": 7.27}], "total_pages": 1446, "total_results": 28907}, "recommendations": {"page": 1, "results": [{"adult": false, "backdrop_path": null, "genre_ids": [], "id": 177229, "original_language": "en", "original_title": "The Computer Wore Tennis Shoes", "overview": "By accident, the content of a computer encyclopedia is transferred into the brain of Dexter Riley, a less than average college boy. Because of his newly acquired knowledge he competes in a quiz show between various universities, where he sweeps all the points. A wiz kid from another university finds out about his cheated wisdom and does everything to discredit Dexter.", "poster_path": "/rZ1R2IkHGCMdBVQuwlCQV2jmIYI.jpg", "release_date": "1995-01-18", "title": "The Computer Wore Tennis Shoes", "video": false, "vote_average": 4.0, "vote_count": 8, "popularity": 3.888}, {"adult": false, "backdrop_path": "/xwzNxGj6LnPNfVxCoIK3xcnzjxz.jpg", "genre_ids": [35], "id": 20468, "original_language": "en", "original_title": "The Big Tease", "overview": "Thinking he's competing in Los Angeles' hot Platinum Scissors contest, Scottish hairstylist Crawford (Craig Ferguson) leaves Glasgow with a film crew to capture the event. When he learns he's a mere audience member, Crawford must find a way to become the mane event. Abhorrent Norwegian Stig is his stiff-as-gel competition. Drew Carey and others make cameo appearances in this hysterical mockumentar", "poster_path": "/9MvsZOef1vndlv0UdnqOpgURW8M.jpg", "release_date": "1999-01-01", "title": "The Big Tease", "video": false, "vote_average": 6.1, "vote_count": 13, "popularity": 2.485}, {"adult": false, "backdrop_path": "/m648F9OUonNzU2PYKk2hzbAuVTu.jpg", "genre_ids": [28, 878, 53], "id": 64161, "original_language": "en", "original_title": "Cyborg Cop III", "overview": "A cop tries to stop a scientist's experiments to turn students into cyborg-mercenaries. Contains violence and strong language.", "poster_path": "/xPdlg3NmqtMvg0jjSc1mV9Zq4GR.jpg", "release_date": "1995-05-01", "title": "Cyborg Cop III", "video": false, "vote_average": 2.5, "vote_count": 8, "popularity": 3.464}, {"adult": false, "backdrop_path": "/8bS0NYHorKLXNTwHhJLT1pSVHkE.jpg", "genre_ids": [35, 878], "id": 31448, "original_language": "en", "original_title": "The Invisible Kid", "overview": "A nerdy teenage scientist discovers a formula for invisibility, and uses it to take revenge on all those who have wronged him--and also to spy on the girls' shower room.", "poster_path": "/kXgbL0nn5F9Ku0QmFDxJLWvedD9.jpg", "release_date": "1988-01-01", "title": "The Invisible Kid", "video": false, "vote_average": 5.1, "vote_count": 11, "popularity": 3.201}, {"adult": false, "backdrop_path": null, "genre_ids": [27, 53, 18], "id": 68665, "original_language": "en", "original_title": "Daddy's Girl", "overview": "A girl's bright smile masks a psychopathic soul that will eliminate anyone who comes between her and her doting father.", "poster_path": "/9WhFm8S5rBRnrFk8yNxcUWRirJS.jpg", "release_date": "1996-12-23", "title": "Daddy's Girl", "video": false, "vote_average": 3.9, "vote_count": 11, "popularity": 3.549}, {"adult": false, "backdrop_path": "/hoV1itzEKOdCyqnEwPIokZwxaTy.jpg", "genre_ids": [10752], "id": 59487, "original_language": "en", "original_title": "Return from the River Kwai", "overview": "A group of war prisoners has spilt blood, sweat and tears to construct a bridge over the river Kwai in Thailand. Just when the bridge is ready, an American bomber arrives and destroys it. Camp commander Tanaka wants to set an example and orders that some of the prisoners must be executed. Just in time major Harada arrives with orders that the healthiest prisoners must be transported to Japan by train and boat. A treacherous journey since the allied forces keep a close eye on railroads and practically own the seas.", "poster_path": "/eKsPZvjqUkI6YECGgaBR1D8n5mZ.jpg", "release_date": "1989-04-07", "title": "Return from the River Kwai", "video": false, "vote_average": 4.7, "vote_count": 14, "popularity": 4.072}, {"adult": false, "backdrop_path": "/o4wf8xrjuoZneYrKxmvOSySy6KX.jpg", "genre_ids": [35, 10749], "id": 19809, "original_language": "en", "original_title": "Copper Mountain", "overview": "Two friends travel to a ski resort, with one looking to hit the slopes, while the other spends time trying to pick up women.", "poster_path": "/ukCMAAzLzTSJVfYtyggMNJWhQid.jpg", "release_date": "1983-01-01", "title": "Copper Mountain", "video": false, "vote_average": 2.9, "vote_count": 15, "popularity": 5.457}, {"id": 36912, "video": false, "vote_count": 22, "vote_average": 4.5, "title": "The Sting II", "release_date": "1983-02-18", "original_language": "en", "original_title": "The Sting II", "genre_ids": [35, 80], "backdrop_path": "/cGOwGyXwzFqOa4MbhOwSP82RsXl.jpg", "adult": false, "overview": "Hooker and Gondorf pull a con on Macalinski, an especially nasty mob boss with the help of Veronica, a new grifter. They convince this new victim that Hooker is a somewhat dull boxer who is tired of taking dives for Gondorf. There is a ringer. Lonigan, their victim from the first movie, is setting them up to take the fall.", "poster_path": "/5DS3Jj8uSv48s0HjmbeNSIqd0vr.jpg", "popularity": 5.696}], "total_pages": 1, "total_results": 8}, "credits": {"cast": [{"cast_id": 1, "character": "Cassie", "credit_id": "52fe4706c3a368484e0b1045", "gender": 1, "id": 2165, "name": "Rosanna Arquette", "order": 0, "profile_path": "/rQMQYQUF9QzD6oDfkP6tsjmyZhS.jpg"}, {"cast_id": 2, "character": "Riley", "credit_id": "52fe4706c3a368484e0b1049", "gender": 2, "id": 21315, "name": "Eric Roberts", "order": 1, "profile_path": "/sZ6MiyrU6VWFavcArxOBhTMIyYq.jpg"}, {"cast_id": 5, "character": "Pat", "credit_id": "594682059251413fc202792c", "gender": 1, "id": 51544, "name": "Mare Winningham", "order": 2, "profile_path": "/hDaZAbMo9fLranbNDei5e0t8VjL.jpg"}, {"cast_id": 6, "character": "Billy", "credit_id": "59468216c3a368170f02a030", "gender": 2, "id": 3009, "name": "Jim Youngs", "order": 3, "profile_path": "/bBNbVAvf3bT7tF32uByAJ6OIm4p.jpg"}, {"cast_id": 7, "character": "Pearl", "credit_id": "594682229251413fbb028434", "gender": 1, "id": 7071, "name": "Louise Fletcher", "order": 4, "profile_path": "/A4Cn7LsuLlOXvOMKv5ez4ThyeZL.jpg"}, {"cast_id": 8, "character": "Shirley", "credit_id": "5946822f9251417e4c007cce", "gender": 1, "id": 30622, "name": "Gwen Welles", "order": 5, "profile_path": "/dVcFCl3PXZnzKVs2wN4ZHOMHsrZ.jpg"}, {"cast_id": 9, "character": "Kirk", "credit_id": "5946823d925141400d028f56", "gender": 2, "id": 537, "name": "Stephen Tobolowsky", "order": 6, "profile_path": "/fUodC7wMUZLAXnm4ONCxF5haCtC.jpg"}], "crew": [{"credit_id": "59468296c3a36816e402821e", "department": "Sound", "gender": 2, "id": 1213, "job": "Music", "name": "James Newton Howard", "profile_path": "/5UTEMYS7rydwe7ooOmj2dLRFuu2.jpg"}, {"credit_id": "594682a79251413fb602877f", "department": "Editing", "gender": 2, "id": 5584, "job": "Editor", "name": "Dennis Virkler", "profile_path": null}, {"credit_id": "5946825cc3a36816c5029588", "department": "Camera", "gender": 2, "id": 47947, "job": "Director of Photography", "name": "Mikhail Suslov", "profile_path": null}, {"credit_id": "594681c8c3a368111501644b", "department": "Writing", "gender": 1, "id": 100250, "job": "Writer", "name": "Beth Henley", "profile_path": null}, {"credit_id": "52fe4706c3a368484e0b104f", "department": "Directing", "gender": 1, "id": 586734, "job": "Director", "name": "Evelyn Purcell", "profile_path": null}]}}