{"adult": false, "backdrop_path": null, "belongs_to_collection": null, "budget": 0, "genres": [{"id": 18, "name": "Drama"}, {"id": 10770, "name": "TV Movie"}], "homepage": "", "id": 65575, "imdb_id": "tt0098352", "original_language": "en", "original_title": "Small Sacrifices", "overview": "A peculiar and disturbing case catches the attention of the police when a young mother and her children, all severely injured, show up in a hospital's emergency room.", "popularity": 2.178, "poster_path": "/Run9THez7uPCVtozJxTTZEAiJK.jpg", "production_companies": [], "production_countries": [], "release_date": "1989-01-01", "revenue": 0, "runtime": 159, "spoken_languages": [{"iso_639_1": "en", "name": "English"}], "status": "Released", "tagline": "", "title": "Small Sacrifices", "video": false, "vote_average": 8.3, "vote_count": 3, "keywords": {"keywords": [{"id": 9826, "name": "murder"}]}, "similar": {"page": 1, "results": [{"id": 15069, "video": false, "vote_count": 75, "vote_average": 5.4, "title": "W\u0394Z", "release_date": "2007-05-19", "original_language": "en", "original_title": "W\u0394Z", "genre_ids": [80, 18, 27, 53], "backdrop_path": "/nVwdXjnbfulc6cymFgOQJctpspr.jpg", "adult": false, "overview": "There is something horribly wrong with the bodies found in the dark city streets. Some are mutilated while others have the Price equation (w\u0394z = Cov (w,z) = \u03b2wzVz) carved into their flesh. Detective Eddie Argo and his new partner Helen Westcott unearth the meaning of the odd equation and realise each victim is being offered a gruesome choice: kill your loved ones, or be killed. Before long it becomes clear that the perpetrator has suffered a similar fate and is now coping by seeking a way to solve this philosophical dilemma.", "poster_path": "/8lPZ59iQRqUELprKuB0myy7u6Zm.jpg", "popularity": 7.935}, {"adult": false, "backdrop_path": "/uUYCUbgI5VxsUflTMI4Y9L2Y6vb.jpg", "genre_ids": [80, 18, 53], "id": 11423, "original_language": "ko", "original_title": "\uc0b4\uc778\uc758 \ucd94\uc5b5", "overview": "1986 Gyunggi Province. The body of a young woman is found brutally raped and murdered. Two months later, a series of rapes and murders commences under similar circumstances. And in a country that had never known such crimes, the dark whispers about a serial murderer grow louder. A special task force is set up in the area, with two local detectives Park Doo-Man and Jo Young-Goo joined by a detective from Seoul who requested to be assigned to the case.", "poster_path": "/gawnVe9cFowdoDLo9Pok12NTw39.jpg", "release_date": "2003-05-02", "title": "Memories of Murder", "video": false, "vote_average": 8.1, "vote_count": 1093, "popularity": 13.452}, {"adult": false, "backdrop_path": "/pA64Ov7lDpwXBu33yq0KpmAOYJL.jpg", "genre_ids": [27, 53], "id": 357096, "original_language": "en", "original_title": "I Spit on Your Grave III: Vengeance is Mine", "overview": "Jennifer Hills is still tormented by the brutal sexual assault she endured years ago. She\u2019s changed identities and cities, reluctantly joining a support group where she begins to piece together a new life. But when her new friend\u2019s murderer goes free and the tales of serial rapists haunt her, Jennifer will hunt down the men responsible and do what the system won\u2019t \u2013 make them pay for their crimes in the most horrific ways imaginable. Only this time, no jury may be able to save her.", "poster_path": "/6SnOlgrUoC5jqmgcYIM5lde5zYq.jpg", "release_date": "2015-10-01", "title": "I Spit on Your Grave III: Vengeance is Mine", "video": false, "vote_average": 5.3, "vote_count": 437, "popularity": 20.815}, {"adult": false, "backdrop_path": "/kiWvoV78Cc3fUwkOHKzyBgVdrDD.jpg", "genre_ids": [37, 18, 12], "id": 281957, "original_language": "en", "original_title": "The Revenant", "overview": "In the 1820s, a frontiersman, Hugh Glass, sets out on a path of vengeance against those who left him for dead after a bear mauling.", "poster_path": "/oXUWEc5i3wYyFnL1Ycu8ppxxPvs.jpg", "release_date": "2015-12-25", "title": "The Revenant", "video": false, "vote_average": 7.5, "vote_count": 12127, "popularity": 24.135}, {"adult": false, "backdrop_path": "/2J283YNxKhxAqHeVegUJ5mzLfGb.jpg", "genre_ids": [80, 18, 9648], "id": 392044, "original_language": "en", "original_title": "Murder on the Orient Express", "overview": "Genius Belgian detective Hercule Poirot investigates the murder of an American tycoon aboard the Orient Express train.", "poster_path": "/iBlfxlw8qwtUS0R8YjIU7JtM6LM.jpg", "release_date": "2017-11-03", "title": "Murder on the Orient Express", "video": false, "vote_average": 6.7, "vote_count": 6050, "popularity": 27.701}, {"id": 75780, "video": false, "vote_count": 4451, "vote_average": 6.4, "title": "Jack Reacher", "release_date": "2012-12-20", "original_language": "en", "original_title": "Jack Reacher", "genre_ids": [28, 80, 18, 53], "backdrop_path": "/ezXodpP429qK0Av89pVNlaXWJkQ.jpg", "adult": false, "overview": "When a gunman takes five lives with six shots, all evidence points to the suspect in custody. On interrogation, the suspect offers up a single note: \"Get Jack Reacher!\" So begins an extraordinary chase for the truth, pitting Jack Reacher against an unexpected enemy, with a skill for violence and a secret to keep.", "poster_path": "/mt0ELw83HIRgaKaDzhsDcIi0RnW.jpg", "popularity": 15.945}, {"id": 395834, "video": false, "vote_count": 2755, "vote_average": 7.4, "title": "Wind River", "release_date": "2017-08-03", "original_language": "en", "original_title": "Wind River", "genre_ids": [80, 18, 9648, 53], "backdrop_path": "/6B8e784decj9vtKuNjbl9Fes2aZ.jpg", "adult": false, "overview": "An FBI agent teams with the town's veteran game tracker to investigate a murder that occurred on a Native American reservation.", "poster_path": "/pySivdR845Hom4u4T2WNkJxe6Ad.jpg", "popularity": 16.931}, {"adult": false, "backdrop_path": "/8UkJSL5hlwGh3uSC5tyoaqhHQh7.jpg", "genre_ids": [80, 18, 53], "id": 18587, "original_language": "en", "original_title": "10 to Midnight", "overview": "Based on the real-life Richard Speck murders. After his bizarre behavior results in rejection from countless women, Warren Stacy begins murdering women, always while he is naked, which minimizes any physical evidence left behind. Detective Leo Kessler is convinced of Stacy\u2019s guilt and, over the objections of his partner, plants evidence to get him behind bars. When Stacy is released on a technicality, he threatens to go after Kessler and his family, leaving Kessler to defend himself with little help from the police.", "poster_path": "/bJiLyz6g8vsFgJ5oAdMWlQAWY4T.jpg", "release_date": "1983-03-11", "title": "10 to Midnight", "video": false, "vote_average": 6.0, "vote_count": 73, "popularity": 9.514}, {"id": 4771, "video": false, "vote_count": 2134, "vote_average": 7.3, "title": "Gone Baby Gone", "release_date": "2007-09-18", "original_language": "en", "original_title": "Gone Baby Gone", "genre_ids": [80, 18, 9648], "backdrop_path": "/sogh5NXPbKFajjYKBlfIBfCWgbq.jpg", "adult": false, "overview": "When 4 year old Amanda McCready disappears from her home and the police make little headway in solving the case, the girl's aunt, Beatrice McCready hires two private detectives, Patrick Kenzie and Angie Gennaro. The detectives freely admit that they have little experience with this type of case, but the family wants them for two reasons - they're not cops and they know the tough neighborhood in which they all live. As the case progresses, Kenzie and Gennaro face drug dealers, gangs and pedophiles. When they are about to solve the case, they are faced with a moral dilemma that tears them apart.", "poster_path": "/dXXMPxGiRegd7NNCtE5uchAKRAG.jpg", "popularity": 16.498}, {"adult": false, "backdrop_path": "/4AXlsl0azR9d9xjX9tDdfAeM8lt.jpg", "genre_ids": [80, 18, 9648, 10749], "id": 25376, "original_language": "es", "original_title": "El secreto de sus ojos", "overview": "A retired legal counselor writes a novel hoping to find closure for one of his past unresolved homicide cases and for his unreciprocated love with his superior - both of which still haunt him decades later.", "poster_path": "/z2mUzEqDi7DtA1E4mYzVjbzXnqE.jpg", "release_date": "2009-08-13", "title": "The Secret in Their Eyes", "video": false, "vote_average": 7.9, "vote_count": 1288, "popularity": 11.544}, {"adult": false, "backdrop_path": "/a0UYovVNPVfWILYT7TzD10xBX3q.jpg", "genre_ids": [18, 53, 80, 9648], "id": 979, "original_language": "fr", "original_title": "Irr\u00e9versible", "overview": "Events over the course of one traumatic night in Paris unfold in reverse-chronological order as the beautiful Alex is brutally raped and beaten by a stranger in the underpass. Her boyfriend and ex-lover take matters into their own hands by hiring two criminals to help them find the rapist so that they can exact revenge. A simultaneously beautiful and terrible examination of the destructive nature of cause and effect, and how time destroys everything.", "poster_path": "/rxeDxo8FvZpLu6iplNpxdtAVnfu.jpg", "release_date": "2002-05-22", "title": "Irreversible", "video": false, "vote_average": 7.1, "vote_count": 1216, "popularity": 20.416}, {"adult": false, "backdrop_path": "/t3OZS8yMs0NL4YgWWc04eXHTn1X.jpg", "genre_ids": [28, 80, 53], "id": 984, "original_language": "en", "original_title": "Dirty Harry", "overview": "When a madman dubbed 'Scorpio' terrorizes San Francisco, hard-nosed cop, Harry Callahan \u2013 famous for his take-no-prisoners approach to law enforcement \u2013 is tasked with hunting down the psychopath. Harry eventually collars Scorpio in the process of rescuing a kidnap victim, only to see him walk on technicalities. Now, the maverick detective is determined to nail the maniac himself.", "poster_path": "/2TADKc4GMMPdMrLXj0xJVgTvZJM.jpg", "release_date": "1971-12-21", "title": "Dirty Harry", "video": false, "vote_average": 7.5, "vote_count": 1173, "popularity": 18.839}, {"adult": false, "backdrop_path": "/3TCPWrxQkfon82xPNtmpweOSVJc.jpg", "genre_ids": [18, 80, 9648, 10749, 53], "id": 12150, "original_language": "en", "original_title": "Sea of Love", "overview": "Seen-it-all New York detective Frank Keller is unsettled - he has done twenty years on the force and could retire, and he hasn't come to terms with his wife leaving him for a colleague. Joining up with an officer from another part of town to investigate a series of murders linked by the lonely hearts columns he finds he is getting seriously and possibly dangerously involved with Helen, one of the main suspects.", "poster_path": "/7DkkTHIX3hUqvsRv5sDmJAkCfKK.jpg", "release_date": "1989-09-15", "title": "Sea of Love", "video": false, "vote_average": 6.7, "vote_count": 290, "popularity": 10.636}, {"adult": false, "backdrop_path": "/scRw6gAoO3CfgQnZjHCh2ZgU4Z1.jpg", "genre_ids": [80, 18, 878, 53], "id": 281, "original_language": "en", "original_title": "Strange Days", "overview": "Set in the year 1999 during the last days of the old millennium, the movie tells the story of Lenny Nero, an ex-cop who now deals with data-discs containing recorded memories and emotions. One day he receives a disc which contains the memories of a murderer killing a prostitute. Lenny investigates and is pulled deeper and deeper in a whirl of blackmail, murder and rape. Will he survive and solve the case?", "poster_path": "/rXvy5hG9OeVmgnv9w4IhQxhqEKD.jpg", "release_date": "1995-10-13", "title": "Strange Days", "video": false, "vote_average": 7.0, "vote_count": 663, "popularity": 17.431}, {"adult": false, "backdrop_path": "/iNuvbrHGNtrUwlm48u4KnQhhMKp.jpg", "genre_ids": [80, 18, 53], "id": 26390, "original_language": "en", "original_title": "Brooklyn's Finest", "overview": "Enforcing the law within the notoriously rough Brownsville section of the city and especially within the Van Dyke housing projects is the NYPD's sixty-fifth precinct. Three police officers struggle with the sometimes fine line between right and wrong.", "poster_path": "/jKSBk0LtZgXxG56uvwiAtYf6ttF.jpg", "release_date": "2009-01-16", "title": "Brooklyn's Finest", "video": false, "vote_average": 6.4, "vote_count": 500, "popularity": 11.822}, {"adult": false, "backdrop_path": "/iZOgAvUt6q356da1sfYz1UalNO.jpg", "genre_ids": [80, 18, 10749, 53], "id": 3134, "original_language": "fr", "original_title": "Baise-moi", "overview": "Manu has lived a difficult life. Abused and violently raped, she sets off to find herself only to meet Nadine, a prostitute who has encountered one too many injustices in the world. Angry at the world, they embark on a twisted, rage-filled road trip. They choose to have sex when they please and kill when they need. Leaving a trail of mischief and dead bodies in their wake. Generating a media blitz and manhunt, soon everyone is out to capture the young fugitives.", "poster_path": "/sLvsIgWMH9bV1IZnZOzY5dXKUHe.jpg", "release_date": "2000-06-28", "title": "Baise-moi", "video": false, "vote_average": 4.3, "vote_count": 173, "popularity": 14.535}, {"id": 8090, "video": false, "vote_count": 448, "vote_average": 6.1, "title": "Untraceable", "release_date": "2008-01-22", "original_language": "en", "original_title": "Untraceable", "genre_ids": [9648, 53], "backdrop_path": "/eXuIPt9I1xuaVddlgzEQRC2EMnJ.jpg", "adult": false, "overview": "Special Agent Jennifer Marsh (Diane Lane) works in an elite division of the FBI dedicated to fighting cybercrime. She thinks she has seen it all, until a particularly sadistic criminal arises on the Internet. This tech-savvy killer posts live feeds of his crimes on his website; the more hits the site gets, the faster the victim dies. Marsh and her team must find the elusive killer before time runs out.", "poster_path": "/ySUwDRDEn01lKIMPQorpFCMLWqE.jpg", "popularity": 14.431}, {"adult": false, "backdrop_path": "/3naOwcmYNZfd80kC1OXmembjc8j.jpg", "genre_ids": [53, 28, 18], "id": 445954, "original_language": "en", "original_title": "Acts of Vengeance", "overview": "A fast-talking lawyer transforms his body and takes a vow of silence, not to be broken until he finds out who killed his wife and daughter and has his revenge.", "poster_path": "/r5o6vWPYOQs6bv91gQ8kQs2zQYl.jpg", "release_date": "2017-10-27", "title": "Acts of Vengeance", "video": false, "vote_average": 5.7, "vote_count": 234, "popularity": 15.211}, {"id": 1949, "video": false, "vote_count": 5165, "vote_average": 7.5, "title": "Zodiac", "release_date": "2007-03-02", "original_language": "en", "original_title": "Zodiac", "genre_ids": [80, 18, 9648, 53], "backdrop_path": "/jP2htGBHE7vKq4MLeC75UeC0sZH.jpg", "adult": false, "overview": "The true story of the investigation of the \"Zodiac Killer\", a serial killer who terrified the San Francisco Bay Area, taunting police with his ciphers and letters. The case becomes an obsession for three men as their lives and careers are built and destroyed by the endless trail of clues.", "poster_path": "/bgLyOROfFQI3FqYL7jQbiaV8lkN.jpg", "popularity": 24.455}, {"adult": false, "backdrop_path": "/cLGKawjQ5tUJCuDyR0OnGYT4fyf.jpg", "genre_ids": [18, 53, 80], "id": 146233, "original_language": "en", "original_title": "Prisoners", "overview": "When Keller Dover's daughter and her friend go missing, he takes matters into his own hands as the police pursue multiple leads and the pressure mounts. But just how far will this desperate father go to protect his family?", "poster_path": "/yAhqW57pwMAsCgmZpM5zSIVQVTh.jpg", "release_date": "2013-09-18", "title": "Prisoners", "video": false, "vote_average": 8.0, "vote_count": 6410, "popularity": 24.427}], "total_pages": 425, "total_results": 8491}, "recommendations": {"page": 1, "results": [], "total_pages": 1, "total_results": 0}, "credits": {"cast": [{"cast_id": 3, "character": "Diane Downs", "credit_id": "52fe4710c3a368484e0b2f61", "gender": 1, "id": 28768, "name": "Farrah Fawcett", "order": 0, "profile_path": "/aUMdPKJVwIHJhZX8BZlFbroaRwP.jpg"}, {"cast_id": 4, "character": "Lew Lewiston", "credit_id": "52fe4710c3a368484e0b2f65", "gender": 2, "id": 31070, "name": "Ryan O'Neal", "order": 1, "profile_path": "/fTqIq5voXV1hQd3Ol4VtnUWy7j2.jpg"}, {"cast_id": 5, "character": "Detective Doug Welch", "credit_id": "52fe4710c3a368484e0b2f69", "gender": 2, "id": 26008, "name": "Gordon Clapp", "order": 2, "profile_path": "/wiNmcX6RnOAjFOV0jHYasZ6RYVf.jpg"}, {"cast_id": 6, "character": "Frank Joziak", "credit_id": "52fe4710c3a368484e0b2f6d", "gender": 2, "id": 78439, "name": "John Shea", "order": 3, "profile_path": "/tSgR1D3beLbYxV1gIL0wOLY1Gs6.jpg"}, {"cast_id": 7, "character": "Karen Downs", "credit_id": "52fe4710c3a368484e0b2f71", "gender": 1, "id": 64914, "name": "Emily Perkins", "order": 4, "profile_path": "/8XNbHBNy15SnAp4FSTVnFaT9rB.jpg"}, {"cast_id": 8, "character": "Robbie Downs", "credit_id": "52fe4710c3a368484e0b2f75", "gender": 0, "id": 543691, "name": "Christopher Caravalho", "order": 5, "profile_path": null}, {"cast_id": 9, "character": "Evelyn Slaven", "credit_id": "52fe4710c3a368484e0b2f79", "gender": 1, "id": 4568, "name": "Jayne Eastwood", "order": 6, "profile_path": "/wMeootcDpiid4MYKXLqkWyPgmZ4.jpg"}, {"cast_id": 10, "character": "Boyd Paul Downs", "credit_id": "5da47826cb30840013943a78", "gender": 2, "id": 26089, "name": "Garry Chalk", "order": 7, "profile_path": "/1estlif6pDM9uV7sgOsTU3WQeYw.jpg"}, {"cast_id": 11, "character": "Daryl Chapman", "credit_id": "5da47852afe2240018ee931d", "gender": 0, "id": 2432390, "name": "Ken James", "order": 8, "profile_path": null}, {"cast_id": 12, "character": "Russell Wells", "credit_id": "5da478908a88b20017c5bc7c", "gender": 0, "id": 2432392, "name": "Sean McCann", "order": 9, "profile_path": null}], "crew": [{"credit_id": "5da47922cb3084001194672d", "department": "Writing", "gender": 1, "id": 27147, "job": "Teleplay", "name": "Joyce Eliason", "profile_path": null}, {"credit_id": "52fe4710c3a368484e0b2f57", "department": "Directing", "gender": 2, "id": 37915, "job": "Director", "name": "David Greene", "profile_path": "/oGe6ewbnDUKv52jEYmftGIAbuBp.jpg"}, {"credit_id": "5da479eae860170014b27bb5", "department": "Production", "gender": 2, "id": 48806, "job": "Executive Producer", "name": "Charles W. Fries", "profile_path": null}, {"credit_id": "52fe4710c3a368484e0b2f5d", "department": "Writing", "gender": 1, "id": 543690, "job": "Novel", "name": "Ann Rule", "profile_path": "/eCw2P4N6nbIvOGU9K5tphnp1B0a.jpg"}, {"credit_id": "5da479d11967570013ad8ee1", "department": "Production", "gender": 0, "id": 1192283, "job": "Executive Producer", "name": "Louis Rudolph", "profile_path": null}, {"credit_id": "5da479791967570013ad8e13", "department": "Production", "gender": 0, "id": 1230729, "job": "Executive Producer", "name": "Suzanne de Passe", "profile_path": null}, {"credit_id": "5da4794f8a88b20017c5bf2a", "department": "Production", "gender": 0, "id": 2432393, "job": "Associate Producer", "name": "Brenda Antin", "profile_path": null}, {"credit_id": "5da47995cb308400169466f2", "department": "Production", "gender": 0, "id": 2432394, "job": "Producer", "name": "S. Brian Hickox", "profile_path": null}, {"credit_id": "5da479afe860170012b20d50", "department": "Production", "gender": 0, "id": 2432395, "job": "Associate Producer", "name": "Marty Miller", "profile_path": null}]}}