{"adult": false, "backdrop_path": "/eLFz5ZKIPZlvPWyxbGtsSRZwS4a.jpg", "belongs_to_collection": null, "budget": 0, "genres": [{"id": 18, "name": "Drama"}, {"id": 10749, "name": "Romance"}], "homepage": null, "id": 66597, "imdb_id": "tt0080714", "original_language": "en", "original_title": "Falling in Love Again", "overview": "Harry and Sue Lewis met in the 40s as teenagers living in the Bronx. He was an aspiring architect, she was the most beautiful girl in school, and both had a fondness for bran muffins. They fell in love, got married, moved to Los Angeles, and had two kids. While struggling with his midlife crisis, Harry receives an invitation for his high school's reunion back so he takes Sue and their teenage kids on a cross-country car trip back to the Big Apple. Will they see in the Bronx what they expected? Will the good memories from their past help rekindle their fading love? Is it too late to dream?", "popularity": 4.388, "poster_path": "/4UhjAWffhr1xsXTIHaT7axO6zEe.jpg", "production_companies": [{"id": 36174, "logo_path": null, "name": "O.T.A. Productions", "origin_country": ""}], "production_countries": [{"iso_3166_1": "US", "name": "United States of America"}], "release_date": "1980-11-21", "revenue": 0, "runtime": 103, "spoken_languages": [{"iso_639_1": "en", "name": "English"}], "status": "Released", "tagline": "", "title": "Falling in Love Again", "video": false, "vote_average": 6.1, "vote_count": 4, "keywords": {"keywords": [{"id": 9673, "name": "love"}, {"id": 9824, "name": "reunion"}, {"id": 10937, "name": "memory"}, {"id": 161213, "name": "high school reunion"}, {"id": 161307, "name": "bronx, new york city"}, {"id": 207883, "name": "1940s"}, {"id": 207964, "name": "aspiring architect"}]}, "similar": {"page": 1, "results": [{"id": 12531, "video": false, "vote_count": 91, "vote_average": 6.9, "title": "The Apartment", "release_date": "1996-07-27", "original_language": "fr", "original_title": "L'Appartement", "genre_ids": [18, 9648, 10749], "backdrop_path": "/64qyT8m4JQ6YODvXxtbHgKmXBX7.jpg", "adult": false, "overview": "A stylish suspense thriller that confounds the audience while presenting them with an extraordinary and elusive mystery. Max is a former playboy who has decided to settle down by marrying his current love, Muriel. However, during a business trip, Max catches a glimpse of the great lost love of his life, reviving his wanderlust and sending him off on a chase of the elusive Lisa, whom he had overheard suggesting to a friend that her lover, Daniel, had killed someone for her. Soon, Max is trying to unravel the mystery behind the suspicious death of Daniel's wife, which he hopes will lead him closer to Lisa.", "poster_path": "/1sqrQdQTn8jKLhUcPKfRVj639zA.jpg", "popularity": 21.259}, {"id": 38, "video": false, "vote_count": 8439, "vote_average": 8.1, "title": "Eternal Sunshine of the Spotless Mind", "release_date": "2004-03-19", "original_language": "en", "original_title": "Eternal Sunshine of the Spotless Mind", "genre_ids": [18, 878, 10749], "backdrop_path": "/1dXTsaFxHoF9cas08UjAqE8NqOW.jpg", "adult": false, "overview": "Joel Barish, heartbroken that his girlfriend underwent a procedure to erase him from her memory, decides to do the same. However, as he watches his memories of her fade away, he realises that he still loves her, and may be too late to correct his mistake.", "poster_path": "/7y3eYvTsGjxPYDtSnumCLIMDkrV.jpg", "popularity": 22.167}, {"id": 369885, "video": false, "vote_count": 3048, "vote_average": 6.7, "title": "Allied", "release_date": "2016-11-17", "original_language": "en", "original_title": "Allied", "genre_ids": [28, 18, 53, 10749, 10752], "backdrop_path": "/tC0tVH5KQhCwMlddnyA3iWOSuBA.jpg", "adult": false, "overview": "In 1942, an intelligence officer in North Africa encounters a female French Resistance fighter on a deadly mission behind enemy lines. When they reunite in London, their relationship is tested by the pressures of war.", "poster_path": "/nzXzLFTnd0Zb3ExfhOxlQgizgSu.jpg", "popularity": 32.359}, {"id": 20024, "video": false, "vote_count": 116, "vote_average": 6.7, "title": "The End of the Affair", "release_date": "1999-12-03", "original_language": "en", "original_title": "The End of the Affair", "genre_ids": [18], "backdrop_path": "/sUPWjskNXip394SxoknaBuyLuUL.jpg", "adult": false, "overview": "On a rainy London night in 1946, novelist Maurice Bendrix has a chance meeting with Henry Miles, husband of his ex-mistress Sarah, who abruptly ended their affair two years before. Bendrix's obsession with Sarah is rekindled; he succumbs to his own jealousy and arranges to have her followed.", "poster_path": "/a0FPMCXTtQSMsTtq7JvQQXHPNPi.jpg", "popularity": 14.493}, {"id": 853, "video": false, "vote_count": 1912, "vote_average": 7.3, "title": "Enemy at the Gates", "release_date": "2001-03-14", "original_language": "en", "original_title": "Enemy at the Gates", "genre_ids": [28, 18, 36, 10749, 10752], "backdrop_path": "/70G2k5LYyvatd87Rai7DJM0DcYj.jpg", "adult": false, "overview": "A Russian and a German sniper play a game of cat-and-mouse during the Battle of Stalingrad in WWII.", "poster_path": "/9cSoNnB31hGY2mL78VT8mAbz6nR.jpg", "popularity": 18.297}, {"adult": false, "backdrop_path": "/pKawqrtCBMmxarft7o1LbEynys7.jpg", "genre_ids": [10752, 18, 28], "id": 228150, "original_language": "en", "original_title": "Fury", "overview": "In the last months of World War II, as the Allies make their final push in the European theatre, a battle-hardened U.S. Army sergeant named 'Wardaddy' commands a Sherman tank called 'Fury' and its five-man crew on a deadly mission behind enemy lines. Outnumbered and outgunned, Wardaddy and his men face overwhelming odds in their heroic attempts to strike at the heart of Nazi Germany.", "poster_path": "/fa4PxEPRKWRyjzYje1jM4m30qzd.jpg", "release_date": "2014-10-15", "title": "Fury", "video": false, "vote_average": 7.4, "vote_count": 7301, "popularity": 56.882}, {"adult": false, "backdrop_path": "/hm4vpIhBW75bTIDTurq2d4rLZy1.jpg", "genre_ids": [53, 18, 27], "id": 3511, "original_language": "en", "original_title": "The Broken", "overview": "The life of a successful radiologist spirals out of control when she sees the spitting image of herself driving down a London street. While attempting to uncover who the imposter could be, she stumbles into a terrifying mystery that her family and closest friends are somehow involved in, leaving her with no one to trust.", "poster_path": "/nGTUsccLUZhF9Bb5fjvL7KrogvC.jpg", "release_date": "2008-01-18", "title": "The Broken", "video": false, "vote_average": 5.5, "vote_count": 113, "popularity": 9.129}, {"id": 521, "video": false, "vote_count": 1257, "vote_average": 8.0, "title": "Dial M for Murder", "release_date": "1954-05-29", "original_language": "en", "original_title": "Dial M for Murder", "genre_ids": [80, 18, 9648, 53], "backdrop_path": "/jVMlfESb0TJ29w8CUDDofEprMmn.jpg", "adult": false, "overview": "An ex-tennis pro carries out a plot to have his wife murdered after discovering she is having an affair, and assumes she will soon leave him for the other man anyway. When things go wrong, he improvises a new plan\u2014to frame her for murder instead.", "poster_path": "/xrpK1PyckNWmRxU4kZURfaCyboS.jpg", "popularity": 34.566}, {"id": 11046, "video": false, "vote_count": 433, "vote_average": 7.6, "title": "Where Eagles Dare", "release_date": "1968-12-04", "original_language": "en", "original_title": "Where Eagles Dare", "genre_ids": [28, 12, 18, 36, 10752], "backdrop_path": "/aAFq5jVHV6RZpLcRXATskNBuEbM.jpg", "adult": false, "overview": "World War II is raging, and an American general has been captured and is being held hostage in the Schloss Adler, a Bavarian castle that's nearly impossible to breach. It's up to a group of skilled Allied soldiers to liberate the general before it's too late.", "poster_path": "/991u0tSWGTVXCYkgC6ftaGE4bkQ.jpg", "popularity": 16.468}, {"adult": false, "backdrop_path": "/xC9cG6Wy6QbH2hoAx11xPPD995R.jpg", "genre_ids": [18, 10749], "id": 86331, "original_language": "fr", "original_title": "Q", "overview": "In a social context deteriorated by a countrywide economic crisis, the life of several people will be turned upside down after they meet Cecile, a character who symbolizes desire.", "poster_path": "/9Jg9s4yTEndNmy1SSXRF9jdxY9D.jpg", "release_date": "2011-09-14", "title": "Desire", "video": false, "vote_average": 4.7, "vote_count": 204, "popularity": 30.344}, {"id": 11422, "video": false, "vote_count": 132, "vote_average": 6.5, "title": "Midway", "release_date": "1976-06-18", "original_language": "en", "original_title": "Midway", "genre_ids": [28, 18, 36, 10752], "backdrop_path": "/6jeTEV03QLsjkEomKM6XhjoVJch.jpg", "adult": false, "overview": "This war drama depicts the U.S. and Japanese forces in the naval Battle of Midway, which became a turning point for Americans during World War II.", "poster_path": "/dCUVG2po7DsBvnxfe7WGcJsUn9T.jpg", "popularity": 19.326}, {"id": 10995, "video": false, "vote_count": 255, "vote_average": 6.6, "title": "The Lover", "release_date": "1992-02-22", "original_language": "fr", "original_title": "L'Amant", "genre_ids": [18, 10749], "backdrop_path": "/zRAgf1F0rRp0Tys8AnMWGBFJRZv.jpg", "adult": false, "overview": "A poor French teenage girl engages in an illicit affair with a wealthy Chinese heir in 1920s Saigon. For the first time in her young life she has control, and she wields it deftly over her besotted lover throughout a series of clandestine meetings and torrid encounters.", "poster_path": "/iey1UA4hav2cn60qGi1zgKxpPBl.jpg", "popularity": 12.739}, {"id": 676, "video": false, "vote_count": 3791, "vote_average": 6.8, "title": "Pearl Harbor", "release_date": "2001-05-21", "original_language": "en", "original_title": "Pearl Harbor", "genre_ids": [18, 36, 10749, 10752], "backdrop_path": "/cDctk61tUeQz4LX7tTFPknI28ea.jpg", "adult": false, "overview": "The lifelong friendship between Rafe McCawley and Danny Walker is put to the ultimate test when the two ace fighter pilots become entangled in a love triangle with beautiful Naval nurse Evelyn Johnson. But the rivalry between the friends-turned-foes is immediately put on hold when they find themselves at the center of Japan's devastating attack on Pearl Harbor on Dec. 7, 1941.", "poster_path": "/gzjMpcyV1RksWonaA87DZ8wQTH0.jpg", "popularity": 31.159}, {"id": 857, "video": false, "vote_count": 9339, "vote_average": 8.1, "title": "Saving Private Ryan", "release_date": "1998-07-24", "original_language": "en", "original_title": "Saving Private Ryan", "genre_ids": [18, 36, 10752], "backdrop_path": "/hjQp148VjWF4KjzhsD90OCMr11h.jpg", "adult": false, "overview": "As U.S. troops storm the beaches of Normandy, three brothers lie dead on the battlefield, with a fourth trapped behind enemy lines. Ranger captain John Miller and seven men are tasked with penetrating German-held territory and bringing the boy home.", "poster_path": "/35CMz4t7PuUiQqt5h4u5nbrXZlF.jpg", "popularity": 35.648}, {"id": 399404, "video": false, "vote_count": 3039, "vote_average": 7.3, "title": "Darkest Hour", "release_date": "2017-11-22", "original_language": "en", "original_title": "Darkest Hour", "genre_ids": [18, 36], "backdrop_path": "/zXwFJMwvQcJFitP9GcHZvHAHGe8.jpg", "adult": false, "overview": "A thrilling and inspiring true story begins on the eve of World War II as, within days of becoming Prime Minister of Great Britain, Winston Churchill must face one of his most turbulent and defining trials: exploring a negotiated peace treaty with Nazi Germany, or standing firm to fight for the ideals, liberty and freedom of a nation. As the unstoppable Nazi forces roll across Western Europe and the threat of invasion is imminent, and with an unprepared public, a skeptical King, and his own party plotting against him, Churchill must withstand his darkest hour, rally a nation, and attempt to change the course of world history.", "poster_path": "/z0K8uoNbrYKkbaP7wIeadJ4BmSL.jpg", "popularity": 27.654}, {"id": 522162, "video": false, "vote_count": 206, "vote_average": 6.7, "title": "Midway", "release_date": "2019-11-06", "original_language": "en", "original_title": "Midway", "genre_ids": [28, 18, 36, 10752], "backdrop_path": "/xjP88DFPCQ81mbZHXFscyYtGskT.jpg", "adult": false, "overview": "MIDWAY centers on the Battle of Midway, a clash between the American fleet and the Imperial Japanese Navy which marked a pivotal turning point in the Pacific Theater during WWII. The film, based on the real-life events of this heroic feat, tells the story of the leaders and soldiers who used their instincts, fortitude and bravery to overcome the odds.", "poster_path": "/hj8pyoNnynGeJTAbl7jcLZO8Uhx.jpg", "popularity": 61.847}, {"id": 515001, "video": false, "vote_count": 547, "vote_average": 8.0, "title": "Jojo Rabbit", "release_date": "2019-10-18", "original_language": "en", "original_title": "Jojo Rabbit", "genre_ids": [35, 18, 10752], "backdrop_path": "/agoBZfL1q5G79SD0npArSlJn8BH.jpg", "adult": false, "overview": "A World War II satire that follows a lonely German boy whose world view is turned upside down when he discovers his single mother is hiding a young Jewish girl in their attic. Aided only by his idiotic imaginary friend, Adolf Hitler, Jojo must confront his blind nationalism.", "poster_path": "/7GsM4mtM0worCtIVeiQt28HieeN.jpg", "popularity": 94.062}, {"adult": false, "backdrop_path": "/9alS7FBSf8rvDLskpCRuKqAI2h5.jpg", "genre_ids": [18, 36], "id": 746, "original_language": "en", "original_title": "The Last Emperor", "overview": "A dramatic history of Pu Yi, the last of the Emperors of China, from his lofty birth and brief reign in the Forbidden City, the object of worship by half a billion people; through his abdication, his decline and dissolute lifestyle; his exploitation by the invading Japanese, and finally to his obscure existence as just another peasant worker in the People's Republic.", "poster_path": "/KTirnfG6FZLKWbm8Am3EEKmZDx.jpg", "release_date": "1987-10-21", "title": "The Last Emperor", "video": false, "vote_average": 7.6, "vote_count": 774, "popularity": 15.26}, {"adult": false, "backdrop_path": "/Ao2bnJMmcFepMVw1BUay25tt7TM.jpg", "genre_ids": [18, 10749], "id": 1259, "original_language": "en", "original_title": "Notes on a Scandal", "overview": "A veteran high school teacher befriends a younger art teacher, who is having an affair with one of her 15-year-old students. However, her intentions with this new \"friend\" also go well beyond platonic friendship.", "poster_path": "/lXZa1mHZ8eD0VOpNaLfvM9tSpAj.jpg", "release_date": "2006-12-25", "title": "Notes on a Scandal", "video": false, "vote_average": 7.1, "vote_count": 463, "popularity": 10.007}, {"adult": false, "backdrop_path": "/xOGEw8iywxcFMolV6SF6YdTdJTb.jpg", "genre_ids": [10402, 10749], "id": 52371, "original_language": "nl", "original_title": "LelleBelle", "overview": "19-year old Belle practices playing the violin diligently, but is unable to impart her music with a sensitive undertone. Her life changes when she discovers that sexual desire stimulates passion in her music.", "poster_path": "/nJVPgIq3icZMQ26p5uWIFdUZJfL.jpg", "release_date": "2010-10-08", "title": "LelleBelle", "video": false, "vote_average": 4.7, "vote_count": 41, "popularity": 13.931}], "total_pages": 25, "total_results": 494}, "recommendations": {"page": 1, "results": [{"adult": false, "backdrop_path": "/ayfw25s0tKUJOfhkuCuAbzfCIPc.jpg", "genre_ids": [10751, 14], "id": 71750, "original_language": "en", "original_title": "Sleeping Beauty", "overview": "Feature-length, live-action musical version of the classic fairy tale by Charles Perrault.", "poster_path": "/36PAtkKgBJ7KSiLi8mC9yXL6CH4.jpg", "release_date": "1987-06-12", "title": "Sleeping Beauty", "video": false, "vote_average": 7.2, "vote_count": 7, "popularity": 3.787}], "total_pages": 1, "total_results": 1}, "credits": {"cast": [{"cast_id": 4, "character": "Harry Lewis (Present Day)", "credit_id": "52fe4743c3a368484e0bd79b", "gender": 2, "id": 827, "name": "Elliott Gould", "order": 0, "profile_path": "/bo5jSwWyFRsKVAkELT9n7AKQqMk.jpg"}, {"cast_id": 5, "character": "Sue Lewis (Present Day)", "credit_id": "52fe4743c3a368484e0bd79f", "gender": 1, "id": 13326, "name": "Susannah York", "order": 1, "profile_path": "/z21rG8L8RsDOEl2iG467cWPud3T.jpg"}, {"cast_id": 6, "character": "Mrs. Lewis (1940's)", "credit_id": "52fe4743c3a368484e0bd7a3", "gender": 1, "id": 121354, "name": "Kaye Ballard", "order": 2, "profile_path": "/y5LnBkH9cKQdRv5jf7u2AMCJCJV.jpg"}, {"cast_id": 7, "character": "'Pompadoure' (Young Harry Lewis) (1940's)", "credit_id": "52fe4743c3a368484e0bd7a7", "gender": 2, "id": 97705, "name": "Stuart Paul", "order": 3, "profile_path": null}, {"cast_id": 3, "character": "Sue Wellington (1940's)", "credit_id": "52fe4743c3a368484e0bd797", "gender": 1, "id": 1160, "name": "Michelle Pfeiffer", "order": 4, "profile_path": "/oGUmQBU87QXAsnaGleYaAjAXSlj.jpg"}, {"cast_id": 8, "character": "Mr. Lewis (1940's)", "credit_id": "52fe4743c3a368484e0bd7ab", "gender": 0, "id": 166066, "name": "Robert Hackman", "order": 5, "profile_path": null}, {"cast_id": 14, "character": "Mr. Wellington (1940's)", "credit_id": "5de3e1fa0cd446001939032b", "gender": 2, "id": 50573, "name": "Herbert Rudley", "order": 6, "profile_path": "/myl5ccynELeb0ebAS4tgoCVTA7W.jpg"}, {"cast_id": 9, "character": "Mrs. Wellington (1940's)", "credit_id": "52fe4743c3a368484e0bd7af", "gender": 1, "id": 109696, "name": "Marian McCargo", "order": 7, "profile_path": "/r6RPu1Sf4PLijcbkxJ5YtizQe8i.jpg"}, {"cast_id": 10, "character": "Stan the Con (1940's)", "credit_id": "52fe4743c3a368484e0bd7b3", "gender": 2, "id": 16838, "name": "Steven Paul", "order": 8, "profile_path": "/r3QqlY7B8sefjiCUAJhREuA5NJB.jpg"}, {"cast_id": 12, "character": "Hooker (Present Day)", "credit_id": "5de3e1a73faba000150dc0ae", "gender": 1, "id": 99840, "name": "Tallie Cochrane", "order": 9, "profile_path": null}, {"cast_id": 13, "character": "Pat the Cop (1940's)", "credit_id": "5de3e1ccc51acd0015fa3a39", "gender": 2, "id": 45615, "name": "Patrick Wright", "order": 10, "profile_path": null}, {"cast_id": 11, "character": "Hilary Lewis (Present Day)", "credit_id": "57262e56c3a3685899002e83", "gender": 1, "id": 1613708, "name": "Bonnie Paul", "order": 11, "profile_path": "/iaO27006qWUbDHmWBA24Eel6dZf.jpg"}, {"cast_id": 15, "character": "Donny Lewis (Present Day)", "credit_id": "5de3e20b3faba000150dc1d4", "gender": 2, "id": 102435, "name": "Tony O'Dell", "order": 12, "profile_path": "/2culRlSt9jIExS3LmSfORCJygWU.jpg"}, {"cast_id": 16, "character": "Cabbie #1 (Present Day)", "credit_id": "5de3e21a11386c00164ef637", "gender": 0, "id": 103455, "name": "Ben Frank", "order": 13, "profile_path": null}, {"cast_id": 17, "character": "Beaver (1940's)", "credit_id": "5de3e229a7e36300146b7a01", "gender": 2, "id": 4942, "name": "John Diehl", "order": 14, "profile_path": "/hDUvgqpIv753skoeRGjVw6gYp7A.jpg"}], "crew": [{"credit_id": "52fe4743c3a368484e0bd78d", "department": "Directing", "gender": 2, "id": 16838, "job": "Director", "name": "Steven Paul", "profile_path": "/r3QqlY7B8sefjiCUAJhREuA5NJB.jpg"}, {"credit_id": "52fe4743c3a368484e0bd793", "department": "Writing", "gender": 2, "id": 16838, "job": "Writer", "name": "Steven Paul", "profile_path": "/r3QqlY7B8sefjiCUAJhREuA5NJB.jpg"}]}}