{"adult": false, "backdrop_path": "/f8wJyERoBQgmptrue3xhMkC1Mjq.jpg", "belongs_to_collection": null, "budget": 53000, "genres": [{"id": 99, "name": "Documentary"}], "homepage": null, "id": 669, "imdb_id": "tt0013427", "original_language": "en", "original_title": "Nanook of the North", "overview": "This pioneering documentary film depicts the lives of the indigenous Inuit people of Canada's northern Quebec region. Although the production contains some fictional elements, it vividly shows how its resourceful subjects survive in such a harsh climate, revealing how they construct their igloo homes and find food by hunting and fishing. The film also captures the beautiful, if unforgiving, frozen landscape of the Great White North, far removed from conventional civilization.", "popularity": 7.784, "poster_path": "/aWmdeyP4rvOlQZCdjLCpJfJnHVT.jpg", "production_companies": [{"id": 397, "logo_path": null, "name": "R\u00e9villon Fr\u00e8res", "origin_country": ""}], "production_countries": [{"iso_3166_1": "FR", "name": "France"}, {"iso_3166_1": "US", "name": "United States of America"}], "release_date": "1922-06-11", "revenue": 0, "runtime": 79, "spoken_languages": [{"iso_639_1": "en", "name": "English"}], "status": "Released", "tagline": "A story of life and love in the actual Arctic.", "title": "Nanook of the North", "video": false, "vote_average": 7.1, "vote_count": 123, "keywords": {"keywords": [{"id": 1329, "name": "canada"}, {"id": 1442, "name": "winter"}, {"id": 1445, "name": "ice"}, {"id": 1495, "name": "fishing"}, {"id": 2220, "name": "polar zone"}, {"id": 3193, "name": "harpoon"}, {"id": 3355, "name": "inuit"}, {"id": 3356, "name": "quebec"}, {"id": 3360, "name": "husky"}, {"id": 3362, "name": "kayak"}, {"id": 7240, "name": "walrus"}, {"id": 8721, "name": "arctic"}, {"id": 154802, "name": "silent film"}]}, "similar": {"page": 1, "results": [{"id": 453755, "video": false, "vote_count": 422, "vote_average": 6.3, "title": "Arctic", "release_date": "2018-11-21", "original_language": "en", "original_title": "Arctic", "genre_ids": [12, 18], "backdrop_path": "/s75CDPm61dDM7C5STW884J6uFk1.jpg", "adult": false, "overview": "A man stranded in the Arctic is finally about to receive his long awaited rescue. However, after a tragic accident, his opportunity is lost and he must then decide whether to remain in the relative safety of his camp or embark on a deadly trek through the unknown for potential salvation.", "poster_path": "/dxRc0Y4IjSRLC2fYaguXQtJCI4e.jpg", "popularity": 14.534}, {"id": 9311, "video": false, "vote_count": 124, "vote_average": 6.4, "title": "Smilla's Sense of Snow", "release_date": "1997-02-28", "original_language": "en", "original_title": "Smilla's Sense of Snow", "genre_ids": [28, 80, 18, 9648, 53], "backdrop_path": "/xoS98USUf4KMwnEF84FPfl0Uzrq.jpg", "adult": false, "overview": "Smilla Jaspersen, half Danish, half Greenlander, attempts to understand the death of a small boy who falls from the roof of her apartment building. Suspecting wrongdoing, Smilla uncovers a trail of clues leading towards a secretive corporation that has made several mysterious expeditions to Greenland. Scenes from the film were shot in Copenhagen and western Greenland. The film was entered into the 47th Berlin International Film Festival, where director Bille August was nominated for the Golden Bear.", "poster_path": "/1G5AaHX7c5fXNoCLFlfdYOr0N3A.jpg", "popularity": 10.637}, {"id": 265177, "video": false, "vote_count": 1581, "vote_average": 8.3, "title": "Mommy", "release_date": "2014-05-22", "original_language": "en", "original_title": "Mommy", "genre_ids": [18], "backdrop_path": "/ktUKyHQwjY64JJPVbf51bVML9Qn.jpg", "adult": false, "overview": "A peculiar neighbor offers hope to a recent widow who is struggling to raise a teenager who is unpredictable and, sometimes, violent.", "poster_path": "/tpoaLlY0ZdVGDLToVwkGdWxLHRe.jpg", "popularity": 14.481}, {"id": 415010, "video": false, "vote_count": 151, "vote_average": 5.5, "title": "Ravenous", "release_date": "2017-09-23", "original_language": "fr", "original_title": "Les affam\u00e9s", "genre_ids": [18, 27, 878], "backdrop_path": "/cTqnn7KLlDV5eexwFM7gh2EwUFy.jpg", "adult": false, "overview": "In an isolated rural community of Quebec, Canada, some inhabitants attack other people, hungry for human flesh. A few survivors gather and go deep into the forest to escape them.", "poster_path": "/4VHUwd7GXHRi6m4exxJNEZdESwD.jpg", "popularity": 8.011}, {"adult": false, "backdrop_path": null, "genre_ids": [10402, 16], "id": 652507, "original_language": "en", "original_title": "Frog Dog Log: Live \u00e0 Laval", "overview": "Dog attempts to sleep in the hills of Laval, Qu\u00e9bec, Canada.", "poster_path": "/eEITVAjNACfbO3MEPI2GCNHmzHt.jpg", "release_date": "2019-12-12", "title": "Frog Dog Log: Live \u00e0 Laval", "video": false, "vote_average": 0.0, "vote_count": 0, "popularity": 0.6}, {"adult": false, "backdrop_path": "/lDliK5G67oQg5LxUweMmNmKNBUy.jpg", "genre_ids": [18], "id": 11421, "original_language": "fr", "original_title": "C.R.A.Z.Y.", "overview": "A story of two love affairs. A father's love for his five sons. And one son's love for his father, a love so strong it compels him to live a lie. That son is Zac Beaulieu, born on the 25th of December 1960, different from all his brothers, but desperate to fit in. During the next 20 years, life takes Zac on a surprising and unexpected journey that ultimately leads him to accept his true nature and, even more importantly, leads his father to love him for who he really is.", "poster_path": "/kzz4wY0q9KlzFQp6UpYP160eZjJ.jpg", "release_date": "2005-05-27", "title": "C.R.A.Z.Y.", "video": false, "vote_average": 7.7, "vote_count": 241, "popularity": 7.733}, {"adult": false, "backdrop_path": "/33zf3AIzCqHtOC5aCMUUVo66lpc.jpg", "genre_ids": [12, 18], "id": 14280, "original_language": "en", "original_title": "Never Cry Wolf", "overview": "This film dramatizes the true story of Farley Mowat, when he was sent to the Canadian tundra area to collect evidence of the grievous harm the wolf population was allegedly doing to the caribou herds. In his struggle to survive in that difficult environment he studies the wolves, and realizes that the old beliefs about wolves and their supposed threat are almost totally false. Furthermore, he learns that humans represent a far greater threat to the land, and also to the wolves, a species which plays an important role in the ecosystem of the north.", "poster_path": "/gl2ewbze5UAN3VPuewbzsJX9Sr9.jpg", "release_date": "1983-10-07", "title": "Never Cry Wolf", "video": false, "vote_average": 7.2, "vote_count": 60, "popularity": 7.449}, {"adult": false, "backdrop_path": "/fgKoKVw0f2X2ajilfoyra3LFrwo.jpg", "genre_ids": [35], "id": 23282, "original_language": "en", "original_title": "One Week", "overview": "The story involves two newlyweds, Keaton and Seely, who receive a build-it-yourself house as a wedding gift. The house can be built, supposedly, in \"one week.\" A rejected suitor secretly re-numbers packing crates. The movie recounts Keaton's struggle to assemble the house according to this new \"arrangement.\"", "poster_path": "/fNNznok8XCKveeXHDYpIWLc9BWo.jpg", "release_date": "1920-09-01", "title": "One Week", "video": false, "vote_average": 8.0, "vote_count": 109, "popularity": 7.151}, {"id": 366656, "video": false, "vote_count": 46, "vote_average": 5.8, "title": "Snowtime!", "release_date": "2015-11-12", "original_language": "fr", "original_title": "La guerre des tuques 3D", "genre_ids": [16, 35, 10751], "backdrop_path": "/teAHPJoaKUibRQOhKI3yQ1eUGNj.jpg", "adult": false, "overview": "To amuse themselves during the winter school break, the kids in a small village decide to have a massive snowball fight. Luke and Sophie, both 11 years old, become the leaders of the opposing sides. Sophie and her cohort defend an elaborate snow fort against the assault of Luke\u2019s horde. Whichever side occupies the fort at the end of the winter break, wins. But what starts out as pure youthful fun and enthusiasm deteriorates into a more serious conflict.  Joy is restored when all the children decide to attack the fort rather than each other and happily destroy every last bit of the snow fort.", "poster_path": "/dC1rjdwynUgeZIexSqOUGM3kNpX.jpg", "popularity": 5.572}, {"adult": false, "backdrop_path": "/WrjHKK3CzEAPBzIySOziskRPXz.jpg", "genre_ids": [18, 16], "id": 38580, "original_language": "en", "original_title": "The Little Matchgirl", "overview": "An animated short based on Hans Christian Andersen's tale about a poor young girl with a burning desire to find comfort and happiness in her life. Desperate to keep warm, the girl lights the matches she sells, and envisions a very different life for herself in the fiery flames filled with images of loving relatives, bountiful food, and a place to call home.", "poster_path": "/d3ecFUqD9IQZAi4M4xZlLJ2Y5e8.jpg", "release_date": "2006-09-07", "title": "The Little Matchgirl", "video": false, "vote_average": 7.7, "vote_count": 85, "popularity": 7.969}, {"id": 18045, "video": false, "vote_count": 46, "vote_average": 5.9, "title": "The Dark Hours", "release_date": "2005-03-11", "original_language": "en", "original_title": "The Dark Hours", "genre_ids": [27, 878, 53], "backdrop_path": "/zAzxUo9aKctB981h1gpYtL0beTE.jpg", "adult": false, "overview": "Dr. Samantha Goodman is a beautiful, young psychiatrist. Burnt out, she drives to the family\u2019s winter cottage to spend time with her husband and sister. A relaxing weekend is jarringly interrupted when a terrifying and unexpected guest arrives. What follows is an extraordinary night of terror and evil mind games where escape is not an option.", "poster_path": "/chMXoppNLuO1hjfdBnB3wQjeePt.jpg", "popularity": 5.295}, {"adult": false, "backdrop_path": "/wsNetBzFcFegJG5dUc3jnPRTIAZ.jpg", "genre_ids": [53], "id": 267852, "original_language": "en", "original_title": "Black Mountain Side", "overview": "A group of archaeologists uncover a strange structure in Northern Canada, dating over ten thousand years before the present. The team finds themselves isolated when their communication systems fail and it's not long before they begin to feel the effects of the solitude.", "poster_path": "/g5emUKrTqhdn8QFtbEuxie4oOJT.jpg", "release_date": "2016-01-26", "title": "Black Mountain Side", "video": false, "vote_average": 5.1, "vote_count": 52, "popularity": 5.303}, {"id": 126132, "video": false, "vote_count": 26, "vote_average": 6.2, "title": "The Act of Seeing with One's Own Eyes", "release_date": "1972-02-19", "original_language": "en", "original_title": "The Act of Seeing with One's Own Eyes", "genre_ids": [99], "backdrop_path": "/6jcxNQN3gW2FMGh32JtEsB0auqm.jpg", "adult": false, "overview": "At a morgue, forensic pathologists conduct autopsies of the corpses assigned.", "poster_path": "/qGLLXsbzR9IrZ1k62qwNv7rmDPb.jpg", "popularity": 4.919}, {"id": 67161, "video": false, "vote_count": 18, "vote_average": 5.2, "title": "Pluto's Dream House", "release_date": "1940-08-30", "original_language": "en", "original_title": "Pluto's Dream House", "genre_ids": [16, 10751], "backdrop_path": "/eqkeXAqCzniYJYNYu4RCOF5Pq7H.jpg", "adult": false, "overview": "Mickey Mouse is about to build Pluto a doghouse when Pluto digs up a magic lamp that speaks in black dialect. It offers to do Mickey's bidding. Mickey's first wish is for a doghouse, and the lamp starts to work. Suddenly, the saw, the planer, the paintbrush and other tools magically begin working on their own. Finally, Pluto has a magnificent doghouse. The second wish? Mickey asks the lamp to give Pluto a bath. But things go awry when Pluto accidentally breaks Mickey's radio. Now, all sorts of conflicting messages are coming out of the speaker as Mickey tries to fix it. The lamp assumes all the voices are Mickey's and obeys them. Pluto is rolled with a rolling pin, punched with boxing gloves, frozen in an aspic and is about to be cut into thin slices before all ends happily.", "poster_path": "/flhShlkels4UXFjqoGk4oAe0W96.jpg", "popularity": 5.131}, {"id": 94393, "video": false, "vote_count": 15, "vote_average": 7.0, "title": "The Savage Innocents", "release_date": "1960-03-20", "original_language": "en", "original_title": "The Savage Innocents", "genre_ids": [18], "backdrop_path": "/8j5jLV3JCr7u1by6wCWBJ1AEY4y.jpg", "adult": false, "overview": "An Eskimo who has had little contact with white men goes to a trading post where he accidentally kills a missionary and finds himself being pursued by the police.", "poster_path": "/yzqM23jBTKUNVjWkj45VntI3NNX.jpg", "popularity": 4.683}, {"id": 287935, "video": false, "vote_count": 44, "vote_average": 6.0, "title": "Midnight Sun", "release_date": "2014-09-01", "original_language": "en", "original_title": "Midnight Sun", "genre_ids": [12, 10751], "backdrop_path": "/iKycWUw9C8GB5Htign9iSRDaAiu.jpg", "adult": false, "overview": "In northern Canada, a young boy sets a goal for himself to to reunite an abandoned polar bear cub with its mother. Goran Visnjic joins the cast as Muktuk, a half Inuit and half Canadian, who knows the terrain where the polar bears live and who agrees to help the boy.", "poster_path": "/p2HD1Kg8TCKfA3ve7L7CtM260k.jpg", "popularity": 5.489}, {"adult": false, "backdrop_path": "/jFLbFOQ0ao4TB8s5ZX0u9ks52dS.jpg", "genre_ids": [35], "id": 2078, "original_language": "en", "original_title": "The Pawnshop", "overview": "A pawnbroker's assistant deals with his grumpy boss, his annoying co-worker and some eccentric customers as he flirts with the pawnbroker's daughter, until a perfidious crook with bad intentions arrives at the pawnshop.", "poster_path": "/gBKc0hxfrlLr2YQLnq16fzadusM.jpg", "release_date": "1916-10-02", "title": "The Pawnshop", "video": false, "vote_average": 6.9, "vote_count": 47, "popularity": 5.274}, {"id": 92837, "video": false, "vote_count": 12, "vote_average": 6.5, "title": "To the Arctic", "release_date": "2012-04-20", "original_language": "en", "original_title": "To the Arctic", "genre_ids": [99], "backdrop_path": "/9gLpDswEnKQnr6CgxcW4OFKzmLx.jpg", "adult": false, "overview": "A journey into the lives of a mother polar bear and her two seven-month-old cubs as they navigate the changing Arctic wilderness they call home.", "poster_path": "/8Z44Q4qgV62pGfdLog1peFm1QtW.jpg", "popularity": 4.004}, {"adult": false, "backdrop_path": null, "genre_ids": [99], "id": 129865, "original_language": "fr", "original_title": "D\u00e9molition d'un mur", "overview": "Auguste Lumi\u00e8re directs four workers in the demolition of an old wall at the Lumi\u00e8re factory. One worker is pressing the wall inwards with a jackscrew, while another is pushing it with a pick. When the wall hits the ground, a cloud of white dust whirls up. Three workers continue the demolition of the wall with picks.", "poster_path": "/e7WqAuaAMooTi6GgWsG7CSCwd3h.jpg", "release_date": "1896-03-06", "title": "Demolition of a Wall", "video": false, "vote_average": 6.4, "vote_count": 42, "popularity": 2.303}, {"adult": false, "backdrop_path": "/ukmh5KOYapcSaHIA63mp1NRzaoA.jpg", "genre_ids": [35], "id": 53416, "original_language": "en", "original_title": "The Floorwalker", "overview": "An impecunious customer creates chaos in a department store while the manager and his assistant plot to steal the money kept in the establishment's safe.", "poster_path": "/3nanSivrWLF9kiMppUAnEhOZPbJ.jpg", "release_date": "1916-05-15", "title": "The Floorwalker", "video": false, "vote_average": 6.5, "vote_count": 44, "popularity": 6.425}], "total_pages": 58, "total_results": 1153}, "recommendations": {"page": 1, "results": [{"adult": false, "backdrop_path": "/zc5vjonSbXUUazuQSi0R2bUfWNP.jpg", "genre_ids": [18], "id": 1405, "original_language": "en", "original_title": "Greed", "overview": "A lottery win of $5,000 forever changes the lives of a miner turned dentist and his wife.", "poster_path": "/eur2vc2BGiOocBuBLVPXySO7lRh.jpg", "release_date": "1925-01-26", "title": "Greed", "video": false, "vote_average": 7.6, "vote_count": 71, "popularity": 6.57}, {"adult": false, "backdrop_path": "/3DW3xHM7FgdE8XzpODbEfvlR9qR.jpg", "genre_ids": [18, 10749], "id": 899, "original_language": "en", "original_title": "Broken Blossoms", "overview": "The love story of an abused English girl and a Chinese Buddhist in a time when London was a brutal and harsh place to live.", "poster_path": "/sr5yZl89NOtkXiZEyvNx5uz9JvB.jpg", "release_date": "1919-05-13", "title": "Broken Blossoms", "video": false, "vote_average": 7.1, "vote_count": 97, "popularity": 8.277}, {"id": 5991, "video": false, "vote_count": 123, "vote_average": 7.8, "title": "The Last Laugh", "release_date": "1924-12-23", "original_language": "de", "original_title": "Der letzte Mann", "genre_ids": [18], "backdrop_path": "/oxtR7DxzQcwu9wAb2mglLD0gobh.jpg", "adult": false, "overview": "An aging doorman, after being fired from his prestigious job at a luxurious Hotel is forced to face the scorn of his friends, neighbours and society.", "poster_path": "/r1BZyJbBGNCJ7kRRevLsGDlMZmQ.jpg", "popularity": 7.501}, {"id": 26317, "video": false, "vote_count": 283, "vote_average": 8.0, "title": "Man with a Movie Camera", "release_date": "1929-01-08", "original_language": "ru", "original_title": "\u0427\u0435\u043b\u043e\u0432\u0435\u043a \u0441 \u043a\u0438\u043d\u043e\u0430\u043f\u043f\u0430\u0440\u0430\u0442\u043e\u043c", "genre_ids": [99], "backdrop_path": "/8mg8GZePag5LZVhveBTL92Ufh5W.jpg", "adult": false, "overview": "A cameraman wanders around Moscow, Kharkov, Kiev and Odessa with a camera slung over his shoulder, documenting urban life with dazzling invention.", "poster_path": "/Ded5Kl7MDZQTbFpoNI62tLVWUN.jpg", "popularity": 11.059}, {"adult": false, "backdrop_path": "/ao1V73JXBoPiRi5ScAKr5Dtn74i.jpg", "genre_ids": [18, 14, 27], "id": 58129, "original_language": "sv", "original_title": "K\u00f6rkarlen", "overview": "It's New Year's Eve. Three drunkards evoke a legend. The legend tells that the last person to die in a year, if he is a great sinner, will have to drive during the whole year the Phantom Chariot, that picks up the souls of the dead.", "poster_path": "/wjFmT2cIWBOYBSEOJvKGTFrqu2H.jpg", "release_date": "1921-01-01", "title": "The Phantom Carriage", "video": false, "vote_average": 8.0, "vote_count": 132, "popularity": 7.83}, {"id": 3059, "video": false, "vote_count": 141, "vote_average": 7.4, "title": "Intolerance: Love's Struggle Throughout the Ages", "release_date": "1916-09-04", "original_language": "en", "original_title": "Intolerance: Love's Struggle Throughout the Ages", "genre_ids": [18], "backdrop_path": "/9XksyoSydGAiMjDx7bVp0JdPsIl.jpg", "adult": false, "overview": "The story of a poor young woman, separated by prejudice from her husband and baby, is interwoven with tales of intolerance from throughout history.", "poster_path": "/mnjifw19X094HvG80CN7nyMSRsD.jpg", "popularity": 10.135}, {"id": 27503, "video": false, "vote_count": 68, "vote_average": 7.6, "title": "The Unknown", "release_date": "1927-06-03", "original_language": "en", "original_title": "The Unknown", "genre_ids": [18, 27, 10749], "backdrop_path": "/2UxtRnKVDg8UzQVXQurJwtM0Ggz.jpg", "adult": false, "overview": "A carnival knife thrower hopes to marry a scantily clad carnival girl.", "poster_path": "/yVMg0gzLy9xCTI6ayQ27b6AAGCE.jpg", "popularity": 4.857}, {"id": 885, "video": false, "vote_count": 40, "vote_average": 7.2, "title": "The Docks of New York", "release_date": "1928-09-16", "original_language": "en", "original_title": "The Docks of New York", "genre_ids": [18, 10749], "backdrop_path": "/d2Ew0cadPu6GNkY3rYyoYkpLvHq.jpg", "adult": false, "overview": "A blue-collar worker on New York's depressed waterfront finds his life changed after he saves a woman attempting suicide.", "poster_path": "/97LoOKfgGoWmOpS2FcPukOuTOsS.jpg", "popularity": 5.329}, {"id": 57283, "video": false, "vote_count": 138, "vote_average": 7.5, "title": "H\u00e4xan", "release_date": "1922-09-18", "original_language": "sv", "original_title": "H\u00e4xan", "genre_ids": [99, 27], "backdrop_path": "/ek9kwqeN0YjH2Wc2ZdROwMMHCL7.jpg", "adult": false, "overview": "Grave robbing, torture, possessed nuns, and a satanic Sabbath: Benjamin Christensen's legendary film uses a series of dramatic vignettes to explore the scientific hypothesis that the witches of the Middle Ages suffered the same hysteria as turn-of-the-century psychiatric patients. But the film itself is far from serious-- instead it's a witches' brew of the scary, gross, and darkly humorous.", "poster_path": "/v53aFWdXYwZJCiblIsC0ZqiS90r.jpg", "popularity": 11.955}, {"id": 43878, "video": false, "vote_count": 75, "vote_average": 7.4, "title": "A Day in the Country", "release_date": "1936-08-05", "original_language": "fr", "original_title": "Partie de campagne", "genre_ids": [18, 10749], "backdrop_path": "/bPQGyspXlGuzkps6jegCwLJOOGU.jpg", "adult": false, "overview": "The family of a Parisian shop-owner spends a day in the country. The daughter falls in love to a man at the inn, where they spend the day.", "poster_path": "/l3h1oUZdUfi1LrwkJN3qrLSlbur.jpg", "popularity": 6.063}, {"adult": false, "backdrop_path": "/4tbUsrndxsHcHsJE3jGNxVtlZj3.jpg", "genre_ids": [35, 10749], "id": 701, "original_language": "en", "original_title": "Our Hospitality", "overview": "A man returns to his Appalachian homestead. On the trip, he falls for a young woman. The only problem is her family has vowed to kill every member of his family.", "poster_path": "/wgqSMFkFQEdwFFAdbhCRi91iwXT.jpg", "release_date": "1923-11-19", "title": "Our Hospitality", "video": false, "vote_average": 7.6, "vote_count": 116, "popularity": 7.43}, {"id": 228, "video": false, "vote_count": 130, "vote_average": 7.5, "title": "The Blue Angel", "release_date": "1930-04-01", "original_language": "de", "original_title": "Der blaue Engel", "genre_ids": [18, 10402], "backdrop_path": "/5gZBGpKA2sHAfEdNZ2sAGsHqIAc.jpg", "adult": false, "overview": "Prim professor Immanuel Rath finds some of his students ogling racy photos of cabaret performer Lola Lola and visits a local club, The Blue Angel, in an attempt to catch them there. Seeing Lola perform, the teacher is filled with lust, eventually resigning his position at the school to marry the young woman. However, his marriage to a coquette -- whose job is to entice men -- proves to be more difficult than Rath imagined.", "poster_path": "/zzjwkKxcRWoW1K0FT8TOpjeVZSL.jpg", "popularity": 8.244}, {"adult": false, "backdrop_path": "/roog9nmIyArcI02RqPQ9JfWl9Y9.jpg", "genre_ids": [35, 18], "id": 44494, "original_language": "fr", "original_title": "Z\u00e9ro de conduite: jeunes diables au coll\u00e8ges", "overview": "In a repressive boarding school with rigid rules of behavior, four boys decide to rebel against the director on a celebration day.", "poster_path": "/oQcGB9BGj9LPTWcEdij47McotKY.jpg", "release_date": "1933-04-07", "title": "Zero for Conduct", "video": false, "vote_average": 7.0, "vote_count": 97, "popularity": 7.186}, {"adult": false, "backdrop_path": null, "genre_ids": [99], "id": 96948, "original_language": "en", "original_title": "Manhatta", "overview": "This groundbreaking silent documentary captures the beauty and majesty of the New York City in its streets, skyscrapers, bridges, rail yards and harbors.", "poster_path": "/rU2itqOXDh8yjVm2J8ev2BO3Rgj.jpg", "release_date": "1921-01-01", "title": "Manhatta", "video": false, "vote_average": 6.4, "vote_count": 30, "popularity": 3.027}, {"adult": false, "backdrop_path": "/l1VH0FCTMaeduwO1k78wQ1xBBm3.jpg", "genre_ids": [18], "id": 3061, "original_language": "en", "original_title": "The Crowd", "overview": "John, an ambitious but undisciplined New York City office worker, meets and marries Mary. They start a family, struggle to cope with marital stress, financial setbacks, and tragedy, all while lost amid the anonymous, pitiless throngs of the big city.", "poster_path": "/jftzHLCZLE2DOLQWY0mENOIPjxc.jpg", "release_date": "1928-02-18", "title": "The Crowd", "video": false, "vote_average": 7.6, "vote_count": 72, "popularity": 8.367}, {"id": 905, "video": false, "vote_count": 103, "vote_average": 7.7, "title": "Pandora's Box", "release_date": "1929-01-30", "original_language": "de", "original_title": "Die B\u00fcchse der Pandora", "genre_ids": [80, 18, 10749], "backdrop_path": "/f9QOgYQM1RzqF9FLcBc55mBEGnE.jpg", "adult": false, "overview": "Lulu is a young woman so beautiful and alluring that few can resist her siren charms. The men drawn into her web include respectable newspaper publisher Dr. Ludwig Sch\u00f6n, his musical producer son Alwa, circus performer Rodrigo Quast and Lulu's seedy old friend, Schigolch. When Lulu's charms inevitably lead to tragedy, the downward spiral encompasses them all.", "poster_path": "/keqscEvY0oZqbtiYf8odccmHlll.jpg", "popularity": 10.431}, {"id": 697, "video": false, "vote_count": 83, "vote_average": 7.0, "title": "October (Ten Days that Shook the World)", "release_date": "1928-01-20", "original_language": "ru", "original_title": "Oktyabr", "genre_ids": [99, 18], "backdrop_path": "/lcFVMnRPEVpvRDpXlxGfpuz0ik3.jpg", "adult": false, "overview": "October is Sergei M. Eisenstein's docu-drama about the 1917 October Revolution in Russia. Made ten years after the events and edited in Eisenstein's 'Soviet Montage' style, it re-enacts in celebratory terms several key scenes from the revolution.", "poster_path": "/tsfz9Ak1slSnxr6mSmRD3Wj7YZS.jpg", "popularity": 6.225}, {"adult": false, "backdrop_path": "/vaOk3rUHf2pn6eIolcvLE1lUOQN.jpg", "genre_ids": [18, 10749], "id": 77621, "original_language": "en", "original_title": "Within Our Gates", "overview": "Abandoned by her fianc\u00e9, an educated negro woman with a shocking past dedicates herself to helping a near bankrupt school for impoverished negro youths.", "poster_path": "/fpYu6zTCaAHMX0t8HGAD5q9syWz.jpg", "release_date": "1920-01-12", "title": "Within Our Gates", "video": false, "vote_average": 5.7, "vote_count": 30, "popularity": 3.294}, {"id": 42536, "video": false, "vote_count": 68, "vote_average": 7.9, "title": "Napoleon", "release_date": "1927-11-14", "original_language": "fr", "original_title": "Napol\u00e9on", "genre_ids": [18, 36], "backdrop_path": "/6t1KWdTufOgpmqr668h4eRSDOT9.jpg", "adult": false, "overview": "A massive 5 1/2 hour biopic of Napoleon, tracing his career from his schooldays (where a snowball fight is staged like a military campaign), his flight from Corsica, through the French Revolution (where a real storm is intercut with a political storm) and the Terror, culminating in his triumphant invasion of Italy in 1797 (the film stops there because it was intended to be part one of six, but director Abel Gance never raised the money to make the other five). The film's legendary reputation is due to the astonishing range of techniques that Gance uses to tell his story, culminating in the final twenty-minute triptych sequence, which alternates widescreen panoramas with complex multiple- image montages projected simultaneously on three screens.", "poster_path": "/5b1RQrA5qSfqCgVsErRKz9C9chU.jpg", "popularity": 6.475}, {"id": 31509, "video": false, "vote_count": 42, "vote_average": 6.9, "title": "Way Down East", "release_date": "1920-09-03", "original_language": "en", "original_title": "Way Down East", "genre_ids": [28, 18, 10749], "backdrop_path": "/o4TqDbx5y2WZriAgBNCobEzLhM1.jpg", "adult": false, "overview": "A naive country girl is tricked into a sham marriage by a wealthy womanizer, then must rebuild her life despite the taint of having borne a child out of wedlock.", "poster_path": "/urvrFNnneQcSsXkWvlPhV2J14vG.jpg", "popularity": 5.627}], "total_pages": 2, "total_results": 40}, "credits": {"cast": [{"cast_id": 7, "character": "Nanook", "credit_id": "52fe4267c3a36847f801bcf1", "gender": 0, "id": 10094, "name": "Allakariallak", "order": 0, "profile_path": null}, {"cast_id": 8, "character": "Nanook's wife, the smiling one", "credit_id": "52fe4267c3a36847f801bcf5", "gender": 0, "id": 10095, "name": "Nyla", "order": 1, "profile_path": null}, {"cast_id": 9, "character": "Nanook's wife", "credit_id": "52fe4267c3a36847f801bcf9", "gender": 0, "id": 10096, "name": "Cunayou", "order": 2, "profile_path": null}, {"cast_id": 10, "character": "Nanook's son", "credit_id": "52fe4267c3a36847f801bcfd", "gender": 0, "id": 10097, "name": "Allee", "order": 3, "profile_path": null}, {"cast_id": 11, "character": "Nanook's son", "credit_id": "52fe4267c3a36847f801bd01", "gender": 0, "id": 10098, "name": "Allegoo", "order": 4, "profile_path": null}], "crew": [{"credit_id": "52fe4267c3a36847f801bccf", "department": "Directing", "gender": 2, "id": 10092, "job": "Director", "name": "Robert J. Flaherty", "profile_path": "/gcpNwqzTZDzQ6GSQPQK48THeOvi.jpg"}, {"credit_id": "52fe4267c3a36847f801bcd5", "department": "Writing", "gender": 2, "id": 10092, "job": "Screenplay", "name": "Robert J. Flaherty", "profile_path": "/gcpNwqzTZDzQ6GSQPQK48THeOvi.jpg"}, {"credit_id": "52fe4267c3a36847f801bcdb", "department": "Production", "gender": 2, "id": 10092, "job": "Producer", "name": "Robert J. Flaherty", "profile_path": "/gcpNwqzTZDzQ6GSQPQK48THeOvi.jpg"}, {"credit_id": "52fe4267c3a36847f801bce1", "department": "Camera", "gender": 2, "id": 10092, "job": "Director of Photography", "name": "Robert J. Flaherty", "profile_path": "/gcpNwqzTZDzQ6GSQPQK48THeOvi.jpg"}, {"credit_id": "52fe4267c3a36847f801bce7", "department": "Editing", "gender": 2, "id": 10092, "job": "Editor", "name": "Robert J. Flaherty", "profile_path": "/gcpNwqzTZDzQ6GSQPQK48THeOvi.jpg"}, {"credit_id": "52fe4267c3a36847f801bced", "department": "Editing", "gender": 0, "id": 10093, "job": "Editor", "name": "Charles Gelb", "profile_path": null}]}}