{"adult": false, "backdrop_path": "/csng6azH8wpVFCi9ExSA736g6Xa.jpg", "belongs_to_collection": null, "budget": 0, "genres": [{"id": 35, "name": "Comedy"}, {"id": 18, "name": "Drama"}], "homepage": null, "id": 66944, "imdb_id": "tt1401672", "original_language": "hr", "original_title": "Sedamdeset i dva dana", "overview": "A family from isolated village in Lika makes a good living out of American pension earned by their late granddad Djuradj and received by his widow Nedja. The very existence of a family is threatened when Nedja dies, but the head of the family comes up with a cunning plan.", "popularity": 1.085, "poster_path": "/fTmRd9KCwVbQbbFy33Uz9EZcuJN.jpg", "production_companies": [{"id": 60759, "logo_path": "/xckuW02u69ZJEjXrpilj2g9AuSi.png", "name": "Interfilm", "origin_country": "HR"}, {"id": 20915, "logo_path": "/g0ZgDi0m0RubOnoUFYaHsa8M5To.png", "name": "Hrvatska Radiotelevizija", "origin_country": "HR"}, {"id": 36746, "logo_path": null, "name": "Vans", "origin_country": ""}], "production_countries": [{"iso_3166_1": "HR", "name": "Croatia"}, {"iso_3166_1": "RS", "name": "Serbia"}], "release_date": "2010-07-20", "revenue": 0, "runtime": 93, "spoken_languages": [{"iso_639_1": "hr", "name": "Hrvatski"}], "status": "Released", "tagline": "Sre\u0107o, laku no\u0107", "title": "Seventy-Two Days", "video": false, "vote_average": 6.5, "vote_count": 4, "keywords": {"keywords": [{"id": 1248, "name": "croatia"}, {"id": 6125, "name": "pension"}, {"id": 229394, "name": "pension fraud"}]}, "similar": {"page": 1, "results": [{"adult": false, "backdrop_path": "/lx9eC0e98ZrdU0y55LrydS8CMMp.jpg", "genre_ids": [28, 12, 80, 18, 9648, 53], "id": 9631, "original_language": "en", "original_title": "The Negotiator", "overview": "The police try to arrest expert hostage negotiator Danny Roman, who insists he's being framed for his partner's murder in what he believes is an elaborate conspiracy. Thinking there's evidence in the Internal Affairs offices that might clear him, he takes everyone in the office hostage and demands that another well-known negotiator be brought in to handle the situation and secretly investigate the conspiracy.", "poster_path": "/u4LQDr6QB5i7dz3sMuP8u3EOd3D.jpg", "release_date": "1998-07-29", "title": "The Negotiator", "video": false, "vote_average": 7.0, "vote_count": 1082, "popularity": 18.49}, {"id": 833, "video": false, "vote_count": 263, "vote_average": 8.1, "title": "Umberto D.", "release_date": "1952-01-20", "original_language": "it", "original_title": "Umberto D.", "genre_ids": [18], "backdrop_path": "/2xzwyXRkAxmrE66gq1AhhKh4whB.jpg", "adult": false, "overview": "When elderly pensioner Umberto Domenico Ferrari returns to his boarding house from a protest calling for a hike in old-age pensions, his landlady demands her 15,000-lire rent by the end of the month or he and his small dog will be turned out onto the street. Unable to get the money in time, Umberto fakes illness to get sent to a hospital, giving his beloved dog to the landlady's pregnant and abandoned maid for temporary safekeeping.", "poster_path": "/zwslsX98Hp4GyJGoVI4mZMU9mDO.jpg", "popularity": 10.817}, {"id": 807, "video": false, "vote_count": 11937, "vote_average": 8.3, "title": "Se7en", "release_date": "1995-09-22", "original_language": "en", "original_title": "Se7en", "genre_ids": [80, 9648, 53], "backdrop_path": "/A0WKbRIojF9DUWG4XLCmg5JK6I5.jpg", "adult": false, "overview": "Two homicide detectives are on a desperate hunt for a serial killer whose crimes are based on the \"seven deadly sins\" in this dark and haunting film that takes viewers from the tortured remains of one victim to the next. The seasoned Det. Sommerset researches each sin in an effort to get inside the killer's mind, while his novice partner, Mills, scoffs at his efforts to unravel the case.", "poster_path": "/8zw8IL4zEPjkh8Aysdcd0FwGMb0.jpg", "popularity": 34.018}, {"adult": false, "backdrop_path": "/j94b6d1DXRu0rmn8AvFrxwuqNsg.jpg", "genre_ids": [18], "id": 55044, "original_language": "en", "original_title": "Cisco Pike", "overview": "Cisco is an ex-rock star who has become a drug dealer. A corrupt cop blackmails Cisco to sell marijuana for him. Cisco has one weekend to sell it to his friends.", "poster_path": "/f8qRRIpHGVXxd6qrssH2OL7qZcb.jpg", "release_date": "1972-01-14", "title": "Cisco Pike", "video": false, "vote_average": 4.9, "vote_count": 7, "popularity": 3.211}, {"adult": false, "backdrop_path": "/5dsEBNhe2wbpcCldmnQoEt6nXn7.jpg", "genre_ids": [99], "id": 622165, "original_language": "hr", "original_title": "Mama Rosa", "overview": "Rosa is from Croatia and lives in Switzerland, with her husband who depends on her care. She takes care of everything. Her children have grown up and want to leave home. Rosa stays behind alone.", "poster_path": "/zCQg6ZwsV25M7cwUjFI3LsoUTSd.jpg", "release_date": "2019-08-10", "title": "Mama Rosa", "video": false, "vote_average": 0.0, "vote_count": 0, "popularity": 0.736}, {"adult": false, "backdrop_path": null, "genre_ids": [35], "id": 194941, "original_language": "hr", "original_title": "Mar\u0161al", "overview": "Stipan is a policeman who comes to small Adriatic island off the Croatian coast in order to investigate reported strange phenomena that had frightened the whole population. At first, nobody wants to co-operate with him, but he finally finds that the island is being allegedly haunted by the ghost of Josip Broz Tito, Communist leader of former Yugoslavia. For Luka, the mayor, this is the opportunity to turn entire island into Tito-themed amusement park. Tito's WW2 veterans, on the other hand, don't believe in ghosts; for them, the apparition is actually Tito himself, who had returned in order to lead them into a new revolution which would restore Communism. Written by Anonymous", "poster_path": "/4bgzqGtaN8ZFzdehpNolIGM2RKN.jpg", "release_date": "1999-01-05", "title": "Marshal Tito's Spirit", "video": false, "vote_average": 8.3, "vote_count": 3, "popularity": 0.6}, {"adult": false, "backdrop_path": "/A33ezwAbwShi1ykZEUuBlGR288x.jpg", "genre_ids": [18], "id": 120129, "original_language": "es", "original_title": "El coronel no tiene quien le escriba", "overview": "Every Friday, the Colonel puts on his only suit and goes to the dock to await a letter announcing the arrival of his pension. But the townsfolk all know that this pension will never come. His wife also knows it, and even he knows it. But he is still waiting, living with the pain of the death of his son.", "poster_path": "/hi2x2WowrwU5WpA7jTZ0qKdJzmU.jpg", "release_date": "1999-06-04", "title": "No One Writes to the Colonel", "video": false, "vote_average": 3.9, "vote_count": 6, "popularity": 2.258}, {"adult": false, "backdrop_path": null, "genre_ids": [35], "id": 497447, "original_language": "hr", "original_title": "Osmi povjerenik", "overview": "Sini\u0161a Mesjak, an arrogant and ambitious politician on the rise, finds himself in the middle of a scandal. To hide him from the public, the president appoints him as the commissioner of Croatian government on the furthest settled island Tre\u010di\u0107, where he is tasked with the organization of local elections. The previous seven commissioners haven't succeeded.", "poster_path": "/mDqYL1t93sfmLw2pRHAHMtQMGKx.jpg", "release_date": "2018-01-11", "title": "The Eighth Commissioner", "video": false, "vote_average": 7.5, "vote_count": 1, "popularity": 0.66}, {"adult": false, "backdrop_path": "/yAfKDSZsr6AibpWyCQPmxoUKNRy.jpg", "genre_ids": [35, 10752], "id": 40890, "original_language": "hr", "original_title": "Kako je po\u010deo rat na mom otoku", "overview": "At the beginning of 1991, Yugoslav army did not acknowledge Croatian's independence, and still holding few military barracks in Croatia. Gajski travels to an island to get his son out of the army. Locals have besieged the barracks and organized a festival to try with singing and recitals to get major Aleksa and his soldiers to surrender, but Aleksa has explosives thru the barracks and wants to blow up the island.", "poster_path": "/xkFyZ4G0bt4OGTrP2kJFM9QKnrz.jpg", "release_date": "1997-08-31", "title": "How the War Started on My Island", "video": false, "vote_average": 6.7, "vote_count": 9, "popularity": 1.4}, {"adult": false, "backdrop_path": "/1iqMNHPpuexa3xiFYffiQUuQkQM.jpg", "genre_ids": [35, 18, 10402], "id": 221244, "original_language": "hr", "original_title": "Tko pjeva zlo ne misli", "overview": "Set in pre-World War II Zagreb, the story is seen through the eyes of 6-year-old Perica \u0160afranek (played by Tomislav \u017dganec). A dandy from Zagreb, Mr Fulir (played by Relja Ba\u0161i\u0107), starts flirting with Perica's mother during a family picnic. At first, Perica's father doesn't notice anything, but wants to marry off Perica's aunt, so he invites the man to their residence. After multiple rendezvous, Perica's father becomes aware of Fulir's attempts to seduce his wife.", "poster_path": "/q3Z82275Wp1PjKMvwImlot6OYCl.jpg", "release_date": "1970-10-19", "title": "One Song a Day Takes Mischief Away", "video": false, "vote_average": 6.8, "vote_count": 8, "popularity": 2.128}, {"adult": false, "backdrop_path": "/e1FVcei9sjyZSjFH4PK8Axiu2tT.jpg", "genre_ids": [35], "id": 475429, "original_language": "sv", "original_title": "All Inclusive", "overview": "A trip to Croatia to celebrate Inger's 60th birthday. The whole thing sounded like a great idea until Inger caught her husband having an affair. When the plane takes off for Split the depressed Inger and her two daughters, much too sensible Malin (35) and chaotic Tove (32) are on board. Tove has to struggle to be included in Inger and Malin's circle, the sister's rivalry over their mother is so strong it quickly escalates into a competition of who can comfort Inger the best.", "poster_path": "/pfsESs3zqx1BXxmqGY4uXHfnalU.jpg", "release_date": "2017-11-10", "title": "All Inclusive", "video": false, "vote_average": 4.8, "vote_count": 8, "popularity": 1.812}, {"adult": false, "backdrop_path": "/uVcWyOzDe0b8VHLjvXbO8uwPoVn.jpg", "genre_ids": [28, 35], "id": 414222, "original_language": "hr", "original_title": "ZG80", "overview": "ZG80 is a prequel of Metastaze. The movie brings back its characters to prewar Yugoslavia where they, as part of Bad Blue Boys, go on a football match in Belgrade to see Dinamo play against Crvena Zvezda. They encounter guest fans, their arch rivals Delije, in a series of events that lead to football fans war on the streets of Belgrade.", "poster_path": "/f9Q2hiyiWZ8qsc6NPFeLHxfeI6k.jpg", "release_date": "2016-08-29", "title": "ZG80", "video": false, "vote_average": 8.1, "vote_count": 9, "popularity": 2.392}, {"adult": false, "backdrop_path": "/hpHDjP1LwtXWTvEPOds99RLkaZd.jpg", "genre_ids": [18, 35], "id": 71882, "original_language": "hi", "original_title": "\u091a\u0932\u093e \u092e\u0941\u0938\u0926\u094d\u0926\u0940...\u0911\u092b\u093f\u0938-\u0911\u092b\u093f\u0938", "overview": "Mussaddi Lal (Pankaj Kapoor), a retired school teacher goes on a pilgrimage for three months after his wife's death. When he returns, he finds his pension has been stopped and the pension office has declared him dead. What follows is his endless struggle against the petty corruption in the government office where the infamous gang of five -- Manoj Pahwa, Sanjay Mishra, Deven Bhojani, Hemant Pandey and Asawari Joshi -- are determined to fleece him till the very end.", "poster_path": "/11qV1xHXvjzDUSwJ7A5O9ymBQVd.jpg", "release_date": "2011-08-05", "title": "Chala Mussaddi - Office Office", "video": false, "vote_average": 6.8, "vote_count": 2, "popularity": 1.429}, {"adult": false, "backdrop_path": null, "genre_ids": [18, 10752], "id": 384607, "original_language": "hr", "original_title": "Vrijeme za...", "overview": "Maria lives with his son Darko in a Croatian village that was attacked by Serbian Chetniks one night. Them two manage to escape, and find hideout in the nearby town. Maria takes up job in the laundry, while Darko joins Croatian Defendors, much to his mother's opposition. After discovering that her son was killed, Maria sets off to the front so she could bury his body if nothing else.", "poster_path": "/dJazVBJ161wKdvf65fepQKTSrQn.jpg", "release_date": "1993-01-01", "title": "Time for...", "video": false, "vote_average": 0.0, "vote_count": 0, "popularity": 0.6}, {"adult": false, "backdrop_path": "/gPecy9nqDLye3M1CDpRUEzwuWON.jpg", "genre_ids": [18], "id": 531221, "original_language": "ko", "original_title": "\ub354 \ud39c\uc158", "overview": "The four stories that possibly or impossibly can be happened in the pension; The parents who lost their child go to the pension with poison where the killer stays with his family; The husband and wife on a trip who are growing tired of their married life and the wife\u2019s hidden secret reveals when they reach the pension; A woman who demands to stay a night at a particular suite to save her kidnapped child; A man who is asked to manage the pension for a night, he organizes fantastic night with his girlfriend, but things go wrong\u2026", "poster_path": "/quZRFepixjR02Hgw3qEhLtvQRDj.jpg", "release_date": "2018-06-21", "title": "The Pension", "video": false, "vote_average": 0.0, "vote_count": 0, "popularity": 0.62}, {"adult": false, "backdrop_path": "/e8JYvaFU9qzIvsJqFosbKlpuHTV.jpg", "genre_ids": [10749, 18], "id": 174686, "original_language": "en", "original_title": "Grand Old Girl", "overview": "An elderly schoolteacher is determined to rid her town of the local gambling den.", "poster_path": "/sK7C5hwQlZ94jB95JEuDcblTm3b.jpg", "release_date": "1935-01-15", "title": "Grand Old Girl", "video": false, "vote_average": 7.0, "vote_count": 1, "popularity": 0.994}, {"id": 259728, "video": false, "vote_count": 3, "vote_average": 7.3, "title": "Long Dark Night", "release_date": "2004-03-07", "original_language": "hr", "original_title": "Duga mra\u010dna no\u0107", "genre_ids": [18, 36, 10752], "backdrop_path": null, "adult": false, "overview": "\"Long Dark Night\" follows the life of the fictional character Iva Kolar: his experiences as a Croatian University student, his role as a Partisan fighting Hitler's troops during W.W. II, his involvement in his nation's post-war government, and his eventual downfall.", "poster_path": "/uyHbn00vhJtsqRRzU1YtGZFLEBP.jpg", "popularity": 1.252}, {"adult": false, "backdrop_path": "/t6PFoPdTJJWnGyTrAbJb6LkFh6n.jpg", "genre_ids": [12, 18, 10751], "id": 5701, "original_language": "de", "original_title": "Die rote Zora", "overview": "In this sun soaked adventure for the entire family, a group of five orphaned children form their own makeshift family while attempting to operate outside the rules of society. Though they must sometimes steal to survive, their loyalty to one another means that they will always have a brother or sister to count on.", "poster_path": "/uGXj9K43GUOfGxsZwwUdGfKjxDs.jpg", "release_date": "2008-01-23", "title": "Red Zora", "video": false, "vote_average": 5.3, "vote_count": 6, "popularity": 1.217}, {"id": 6960, "video": false, "vote_count": 3, "vote_average": 6.3, "title": "Was ist denn blo\u00df mit Willi los?", "release_date": "1970-07-17", "original_language": "de", "original_title": "Was ist denn blo\u00df mit Willi los?", "genre_ids": [35], "backdrop_path": "/5nyedFVpe1NsgPP4QJKDrkBOKNI.jpg", "adult": false, "overview": "No overview found.", "poster_path": "/h7V3Bi89YAjDOYtyqUTZ0oJtht6.jpg", "popularity": 1.123}, {"adult": false, "backdrop_path": null, "genre_ids": [18], "id": 373870, "original_language": "hr", "original_title": "Lov na jelene", "overview": "I. S. returns after many years to his hometown, from which he escaped after WW II, fearing that, as a civil clerk of the NDH, could suffer prosecution from the new government. He has been falsely accused to be a member of Ustasha movement.", "poster_path": "/srb1aiyb3kMxudkVXKCAZYVvg2z.jpg", "release_date": "1972-01-10", "title": "The Deer Hunt", "video": false, "vote_average": 8.0, "vote_count": 1, "popularity": 0.744}], "total_pages": 4, "total_results": 77}, "recommendations": {"page": 1, "results": [{"adult": false, "backdrop_path": null, "genre_ids": [18], "id": 102337, "original_language": "bs", "original_title": "Ljeto u zlatnoj dolini", "overview": "At the traditional Muslim funeral service for his father Fikret Varupa, sixteen year old boy from Sarajevo, learns that his father owes money to Hamid, a man he does not even know. The debt is considerable and Hamid does not want it to go to the grave with the body, so the debt automatically passes from the father to the son. Since in Bosnia this way of collecting debts, at a funeral, is considered to be utterly humiliating, it is never, ever applied. Fikret and his entire family become subjects of ridicule. Fikret, who is practically still a child, is decisive to \"redeem his father's soul\". Wishing to repay his father's debt and to secure the forgiveness, Fikret wanders into the real world of Sarajevo, the world that is ruled by post-war chaos, misery and poverty and becomes an ideal target for two corrupted policemen who wish to \"help\" him: they plant the kidnapped girl on him.", "poster_path": "/x4sO6qgscw1FQagGRrokUzjIAWB.jpg", "release_date": "2003-04-16", "title": "Summer in the Golden Valley", "video": false, "vote_average": 6.7, "vote_count": 6, "popularity": 1.678}, {"adult": false, "backdrop_path": "/i1p2R1mks2LrITRzfcnXxCx9MT.jpg", "genre_ids": [18], "id": 51128, "original_language": "sr", "original_title": "No\u017e", "overview": "In attempt to find out who he is and where his roots lie, Alija Osmanovic discovers something far deeper and more important. He slowly discovers an evil that follows him as his destiny regardless of what his ancestors were called.Trying to find the reasons for this evil, he finds himself in a vicious circle. Running away from an irrational fear within him, he finds the road to his faith...", "poster_path": "/rNPEXEc0TJTsK7WrPv7vQXnJpDT.jpg", "release_date": "1999-03-19", "title": "The Knife", "video": false, "vote_average": 5.5, "vote_count": 6, "popularity": 1.69}, {"adult": false, "backdrop_path": "/9jiMsJZjYcVIn4QpFNvZhtX3LA2.jpg", "genre_ids": [53, 18], "id": 10125, "original_language": "hr", "original_title": "Fine mrtve djevojke", "overview": "Iva and Maria, a young lesbian pair, rent a favorable, nice dwelling in a less good area of Zagreb, Croatia. But unfortunately, included in the rent are the neighbors, the neighbors from hell. The curious landlady, foreigners flogging nationalists, an old man, who live with his dead wife and a man, who beat his wife regularly, are just one part of this neighbourhood. When one of the neighbors falls in love with Iva, the situation escalates - with the result of three dead people at the end.", "poster_path": "/5897WssvDwtpu3pEolua4K2DCC3.jpg", "release_date": "2002-06-24", "title": "Fine Dead Girls", "video": false, "vote_average": 6.0, "vote_count": 13, "popularity": 3.158}, {"adult": false, "backdrop_path": "/k08p1WueZfjOxG1V6I0KfqszoNs.jpg", "genre_ids": [28, 35, 18], "id": 33591, "original_language": "hr", "original_title": "Karaula", "overview": "At a small border-post on the Yugoslav-Albanian border, yet another generation of soldiers suffering the usual amount of boredom awaits the end of their service, counting days to the moment when they should take their uniforms off for good. It is the spring of 1987 and the thought never even crosses their mind that they would, in fact, put them back on quite soon and go to war.", "poster_path": "/juRvO0e0zUSOfqjeXq9XnSWS2pH.jpg", "release_date": "2006-03-20", "title": "The Border Post", "video": false, "vote_average": 7.4, "vote_count": 15, "popularity": 2.5}, {"id": 55125, "video": false, "vote_count": 9, "vote_average": 6.2, "title": "Ivko's Feast", "release_date": "2005-11-03", "original_language": "sr", "original_title": "Ivkova slava", "genre_ids": [35], "backdrop_path": null, "adult": false, "overview": "The story takes place in Nis, towards the end of the nineteenth century, during the calm down of the stormy historic events which led to final liberation of southern Serbian parts from Turkish occupation. The comedy is about celebrating traditional saint's day feast, organized by Ivko and how his guests test the Serbian hospitality.", "poster_path": "/iaCzHEf62g0azKieVGy5N5txYvz.jpg", "popularity": 2.57}, {"adult": false, "backdrop_path": null, "genre_ids": [18, 14, 36, 27, 9648, 10752], "id": 71617, "original_language": "hr", "original_title": "\u017divi i mrtvi", "overview": "In 1943, group of Croatian soldiers overtake a strategically important point in western Bosnia with a goal to destroy a group of communist partisans. On the way they met some supernatural phenomena, and the action itself went very badly because the partisans ambushed them. The main character Martin inherits silver cigarette case from a dying soldier. This act connects to the story in 1993 when we meet Martins grandson Tomo. He is one of six soldiers of the Croatian army who have come to the same place in Bosnia to meet the same phenomena and similar fate.", "poster_path": "/1kjZyDZrST9oCaM5I8fF68eFq9d.jpg", "release_date": "2007-01-02", "title": "The Living and the Dead", "video": false, "vote_average": 5.7, "vote_count": 9, "popularity": 2.286}, {"id": 109587, "video": false, "vote_count": 14, "vote_average": 6.5, "title": "The Red Colored Grey Truck", "release_date": "2004-08-11", "original_language": "sr", "original_title": "Sivi kamion crvene boje", "genre_ids": [12, 35, 10749], "backdrop_path": "/loF1piHprb9hTX0fAoSc4SvOYRW.jpg", "adult": false, "overview": "Belgrade, the summer of 1991. Yugoslavia is falling apart. Gavran can't get a driving licence because he is color blind. He is a rural Bosnian introvert obsessed with trucks. So, as soon as he is released from prison, he steals a truck to go on a joyride. Suzana, a city girl, discovers she is pregnant, but until she's due for an abortion, she decides to go to Dubrovnik. She hitchikes and Gavran almost runs her over. She is unhurt, but she blackmails him to take her to Dubrovnik. Two people from different worlds, equally removed from the real one. For him she is the first woman he can talk to; for her he is just another idiot to add to the long list of them that she has so far compiled. But the pressure of danger and the intimations of war force them together. The world about them has become so absurd that they seem to each other the only sober people left.", "poster_path": "/eGJaWVzJY2k60a7kNSkw1iFVlmA.jpg", "popularity": 3.402}, {"adult": false, "backdrop_path": "/h7bLl60LrtkHlKgAPYMliBraC2z.jpg", "genre_ids": [35], "id": 55135, "original_language": "sr", "original_title": "Kad porastem bi\u0107u kengur", "overview": "The film consists of three parallel stories that are interwoven and played in Vozdovac. In the first story, Braca tries to seduce Iris, a model from the city center. Although they try not to be \"two worlds\" they certainly are. In another story, Dule i Somi, in the football match Ipswich - Manchester, they bet on Ipswich to win because it defends their classmate. The third story takes place on the roof of the skyscraper where Avaks and Hybrid, proponents of the philosophy of \"most cost effective when I'm sitting in the house - no income, but no expenses\", spending the day doing nothing, expecting something to happen. Something happened - an unusual occurrence Avaks saw in the sky...", "poster_path": "/cjaZaKLGKeZ7xY7FaSvOfuhWOWw.jpg", "release_date": "2004-03-25", "title": "When I Grow Up, I'll Be a Kangaroo", "video": false, "vote_average": 8.9, "vote_count": 16, "popularity": 3.49}, {"adult": false, "backdrop_path": "/zI5Tak0IoE9U4hNXhZV8KX0PSR0.jpg", "genre_ids": [80, 18], "id": 45341, "original_language": "hr", "original_title": "Metastaze", "overview": "Eliciting images of cancer, this drama explores the illnesses that plague modern Croatia. Four young junkies in Zagreb maturing in the wake of war reflect the petty hatreds, violence, prejudices and mood hanging over the country like a disease that spreads with no cure in sight.", "poster_path": "/a8tYwFXUuOoRSV4JHqDfO9qv4Jf.jpg", "release_date": "2009-03-30", "title": "Metastases", "video": false, "vote_average": 6.9, "vote_count": 16, "popularity": 1.527}, {"adult": false, "backdrop_path": "/kGAhhSq0JxpHcnKDFAzU1zy8B2M.jpg", "genre_ids": [35, 18], "id": 55130, "original_language": "sr", "original_title": "Profesionalac", "overview": "Till recently a University professor, a bohemian writer, a member of Belgrade's intellectual circles and a passionate opponent of the Milosevic's regime meets the man, unknown to him, but who knows every tiny detail of his life. Man tells him a story and plot unfolds unimaginably.", "poster_path": "/smfrkCYH3LTZaWV1qJiQwZ5piVE.jpg", "release_date": "2003-05-21", "title": "The Professional", "video": false, "vote_average": 7.6, "vote_count": 18, "popularity": 2.24}], "total_pages": 1, "total_results": 10}, "credits": {"cast": [{"cast_id": 1, "character": "Mane", "credit_id": "52fe4751c3a368484e0c0593", "gender": 2, "id": 1118, "name": "Rade \u0160erbed\u017eija", "order": 0, "profile_path": "/hbP9ku9cP8Q2cmdB9WIcpkPJaIL.jpg"}, {"cast_id": 15, "character": "Branko", "credit_id": "53a53a200e0a261445000c9d", "gender": 0, "id": 63881, "name": "Kre\u0161imir Miki\u0107", "order": 1, "profile_path": "/gsw9sFV0Su0ObGJy5SMiLQOHHs6.jpg"}, {"cast_id": 3, "character": "Joja", "credit_id": "52fe4751c3a368484e0c059b", "gender": 0, "id": 4641, "name": "Bogdan Dikli\u0107", "order": 2, "profile_path": "/eeBGTf9wabGxMoIXderNQS9LAiV.jpg"}, {"cast_id": 17, "character": "Todor", "credit_id": "59d02aacc3a368791600921e", "gender": 0, "id": 512565, "name": "\u017divko Ano\u010di\u0107", "order": 3, "profile_path": "/agXwi1qYMgo3HCaVSBB8yHVzJR9.jpg"}, {"cast_id": 5, "character": "Baba Nedja", "credit_id": "52fe4751c3a368484e0c05a3", "gender": 0, "id": 38004, "name": "Mira Banjac", "order": 4, "profile_path": "/c3FRLLrPOKMpJ8NPGho6XT9tYSs.jpg"}, {"cast_id": 6, "character": "Mile", "credit_id": "52fe4751c3a368484e0c05a7", "gender": 2, "id": 4640, "name": "Dejan A\u0107imovi\u0107", "order": 5, "profile_path": "/kCpX3KMWoRQCuGqMtOinpE3AXiJ.jpg"}, {"cast_id": 16, "character": "Lica", "credit_id": "59c4ce119251415b77026d25", "gender": 1, "id": 955006, "name": "Lucija Serbedzija", "order": 6, "profile_path": "/sUHGcIbjUqyYjzqaPVjt5o2U4G7.jpg"}, {"cast_id": 8, "character": "Policajac Dane", "credit_id": "52fe4751c3a368484e0c05af", "gender": 2, "id": 36651, "name": "Neboj\u0161a Glogovac", "order": 7, "profile_path": "/dNJ7hcjRPaqvZ12COudPZRzydW9.jpg"}, {"cast_id": 9, "character": "Postar Luka", "credit_id": "52fe4751c3a368484e0c05b3", "gender": 0, "id": 133020, "name": "Predrag 'Pre\u0111o' Vu\u0161ovi\u0107", "order": 8, "profile_path": "/guT54ChbIXovzuiFfBhmsIpDrbd.jpg"}, {"cast_id": 10, "character": "Kamatar 1", "credit_id": "52fe4751c3a368484e0c05b7", "gender": 2, "id": 38123, "name": "Dragan Nikoli\u0107", "order": 9, "profile_path": "/ydDrKZvNldL5ZZqvTQsXkVFlbdM.jpg"}, {"cast_id": 11, "character": "Kamatar 2", "credit_id": "52fe4751c3a368484e0c05bb", "gender": 0, "id": 545621, "name": "Petar Mo\u010dibob", "order": 10, "profile_path": null}, {"cast_id": 12, "character": "Pero", "credit_id": "52fe4751c3a368484e0c05bf", "gender": 0, "id": 545622, "name": "Marinko Prga", "order": 11, "profile_path": "/tujZov0S60ecxpqLalSFB5p0oEf.jpg"}, {"cast_id": 13, "character": "Nana", "credit_id": "52fe4751c3a368484e0c05c3", "gender": 0, "id": 545623, "name": "Mila Manojlovi\u0107", "order": 12, "profile_path": null}], "crew": [{"credit_id": "52fe4751c3a368484e0c05c9", "department": "Directing", "gender": 0, "id": 545624, "job": "Director", "name": "Danilo \u0160erbed\u017eija", "profile_path": null}]}}