{"adult": false, "backdrop_path": "/bBSMY0pc4aytYxgmmUi7lhZBCiF.jpg", "belongs_to_collection": null, "budget": 0, "genres": [{"id": 28, "name": "Action"}], "homepage": null, "id": 66977, "imdb_id": "tt0164360", "original_language": "cn", "original_title": "\u6e05\u5bae\u555f\u793a\u9304", "overview": "Veteran action actor and director Lu Chun-ku set his sights on a tale of Ching Dynasty royal intrigue as an excuse to hire his favorite action stars, gather three choreographers, and film one fight-filled conspiracy after another. Liu Hsueh-hua is the title character caught between battling princes. Then there's award-winning actor Ku Feng, \"Bastard Swordsman\" Hsu Shao-chiang, \"King of Shaw Brothers' Screen Villains\" Wang Lung-wei, \"Venom\" Sun Chien, and even the director shows up to get his kicks in this danger-fraught adventure.", "popularity": 1.837, "poster_path": "/50tPWkYJe3uLM9uGbwQJMeZXAPR.jpg", "production_companies": [{"id": 5798, "logo_path": "/tmuI9BGXgpWLmokhlxpnG3IGNQB.png", "name": "Shaw Brothers", "origin_country": "HK"}], "production_countries": [{"iso_3166_1": "HK", "name": "Hong Kong"}], "release_date": "1983-01-15", "revenue": 0, "runtime": 86, "spoken_languages": [{"iso_639_1": "cn", "name": "\u5e7f\u5dde\u8bdd / \u5ee3\u5dde\u8a71"}, {"iso_639_1": "zh", "name": "\u666e\u901a\u8bdd"}], "status": "Released", "tagline": "", "title": "The Lady Assassin", "video": false, "vote_average": 5.5, "vote_count": 3, "keywords": {"keywords": [{"id": 779, "name": "martial arts"}, {"id": 780, "name": "kung fu"}, {"id": 9725, "name": "sword fight"}, {"id": 9826, "name": "murder"}, {"id": 18432, "name": "female martial artist"}, {"id": 34038, "name": "intrigue"}]}, "similar": {"page": 1, "results": [{"adult": false, "backdrop_path": "/a24i4Qw6qFTtkFLQsncv8WPwevj.jpg", "genre_ids": [53, 28, 80], "id": 345887, "original_language": "en", "original_title": "The Equalizer 2", "overview": "Robert McCall, who serves an unflinching justice for the exploited and oppressed, embarks on a relentless, globe-trotting quest for vengeance when a long-time girl friend is murdered.", "poster_path": "/cQvc9N6JiMVKqol3wcYrGshsIdZ.jpg", "release_date": "2018-07-19", "title": "The Equalizer 2", "video": false, "vote_average": 6.5, "vote_count": 2483, "popularity": 21.271}, {"adult": false, "backdrop_path": "/fy1C5tM9L39i7JF0iw6DIycOO1j.jpg", "genre_ids": [18, 28, 53], "id": 11713, "original_language": "zh", "original_title": "\u7cbe\u6b66\u9580", "overview": "Chen Zhen returns to the international compound of China only to learn of his beloved teacher's death. This is compounded by the continual racist harassment by the Japanese population in the area. Unlike his friends, he confronts it head on with his mastery of martial arts while investigating his teacher's murder.", "poster_path": "/ld1kAfLJTgpZVm3jwT58bTxmXl7.jpg", "release_date": "1972-03-22", "title": "Fist of Fury", "video": false, "vote_average": 7.4, "vote_count": 406, "popularity": 16.304}, {"adult": false, "backdrop_path": "/t3OZS8yMs0NL4YgWWc04eXHTn1X.jpg", "genre_ids": [28, 80, 53], "id": 984, "original_language": "en", "original_title": "Dirty Harry", "overview": "When a madman dubbed 'Scorpio' terrorizes San Francisco, hard-nosed cop, Harry Callahan \u2013 famous for his take-no-prisoners approach to law enforcement \u2013 is tasked with hunting down the psychopath. Harry eventually collars Scorpio in the process of rescuing a kidnap victim, only to see him walk on technicalities. Now, the maverick detective is determined to nail the maniac himself.", "poster_path": "/2TADKc4GMMPdMrLXj0xJVgTvZJM.jpg", "release_date": "1971-12-21", "title": "Dirty Harry", "video": false, "vote_average": 7.5, "vote_count": 1173, "popularity": 18.839}, {"id": 4638, "video": false, "vote_count": 4429, "vote_average": 7.5, "title": "Hot Fuzz", "release_date": "2007-02-14", "original_language": "en", "original_title": "Hot Fuzz", "genre_ids": [28, 35, 80], "backdrop_path": "/zuskekrfW3gj9ttXNVhfdHe5n22.jpg", "adult": false, "overview": "As a former London constable, Nicholas Angel finds it difficult to adapt to his new assignment in the sleepy British village of Sandford. Not only does he miss the excitement of the big city, but he also has a well-meaning oaf for a partner. However, when a series of grisly accidents rocks Sandford, Angel smells something rotten in the idyllic village.", "poster_path": "/5Jx6s6VXnunh8wCLgR0YgjwSgjh.jpg", "popularity": 22.387}, {"id": 500664, "video": false, "vote_count": 1709, "vote_average": 7.3, "title": "Upgrade", "release_date": "2018-06-01", "original_language": "en", "original_title": "Upgrade", "genre_ids": [28, 27, 878, 53], "backdrop_path": "/qUAGip3XiaVN668WXF2iyukWgUu.jpg", "adult": false, "overview": "A brutal mugging leaves Grey Trace paralyzed in the hospital and his beloved wife dead. A billionaire inventor soon offers Trace a cure \u2014 an artificial intelligence implant called STEM that will enhance his body. Now able to walk, Grey finds that he also has superhuman strength and agility \u2014 skills he uses to seek revenge against the thugs who destroyed his life.", "poster_path": "/8fDtXi6gVw8WUMWGT9XFz7YwkuE.jpg", "popularity": 32.518}, {"id": 24, "video": false, "vote_count": 10676, "vote_average": 7.9, "title": "Kill Bill: Vol. 1", "release_date": "2003-10-10", "original_language": "en", "original_title": "Kill Bill: Vol. 1", "genre_ids": [28, 80], "backdrop_path": "/kkS8PKa8c134vXsj2fQkNqOaCXU.jpg", "adult": false, "overview": "An assassin is shot by her ruthless employer, Bill, and other members of their assassination circle \u2013 but she lives to plot her vengeance.", "poster_path": "/v7TaX8kXMXs5yFFGR41guUDNcnB.jpg", "popularity": 35.853}, {"adult": false, "backdrop_path": "/2p5rA1NRoyyAFfzdHl1Ab1RN3qr.jpg", "genre_ids": [80, 28, 878], "id": 9739, "original_language": "en", "original_title": "Demolition Man", "overview": "Simon Phoenix, a violent criminal cryogenically frozen in 1996, escapes during a parole hearing in 2032 in the utopia of San Angeles. Police are incapable of dealing with his violent ways and turn to his captor, who had also been cryogenically frozen after being wrongfully accused of killing 30 innocent people while apprehending Phoenix.", "poster_path": "/k0PN3Ho12cGGIVJW7SCS7apLYaP.jpg", "release_date": "1993-10-08", "title": "Demolition Man", "video": false, "vote_average": 6.5, "vote_count": 1913, "popularity": 16.803}, {"adult": false, "backdrop_path": "/tBWZkKMcrWdrpkOAA84FBlzE2XK.jpg", "genre_ids": [12, 28, 53], "id": 9053, "original_language": "en", "original_title": "DOA: Dead or Alive", "overview": "Four beautiful rivals at an invitation-only martial-arts tournament join forces against a sinister threat. Princess Kasumi is an aristocratic warrior trained by martial-arts masters. Tina Armstrong is a wrestling superstar. Helena Douglas is an athlete with a tragic past. Christie Allen earns her keep as a thief and an assassin-for-hire.", "poster_path": "/lZ6vZka2M0jtH1khYWa8j73E275.jpg", "release_date": "2006-09-07", "title": "DOA: Dead or Alive", "video": false, "vote_average": 4.9, "vote_count": 415, "popularity": 15.433}, {"adult": false, "backdrop_path": "/39jfRKSZZlHxfrdZOsR4R80gVoc.jpg", "genre_ids": [18, 28], "id": 8456, "original_language": "en", "original_title": "Never Back Down", "overview": "Rebellious Jake Tyler is lured into an ultimate underground fight Scene at his new high school, after receiving threats to the safety of his friends and family Jake decides to seek the mentoring of a veteran fighter who trains him for one final no-holds-barred elimination fight with his nemesis and local martial arts champion Ryan McCarthy.", "poster_path": "/6vT35MJ67U3llfi6W7MbM5r2dav.jpg", "release_date": "2008-03-04", "title": "Never Back Down", "video": false, "vote_average": 6.6, "vote_count": 1246, "popularity": 14.955}, {"adult": false, "backdrop_path": "/ct2r3CqnA0KtMfib4AvfBU1W9M2.jpg", "genre_ids": [28, 80, 53], "id": 398175, "original_language": "en", "original_title": "Brawl in Cell Block 99", "overview": "After working as a drug courier and getting into a brutal shootout with police, a former boxer finds himself at the mercy of his enemies as they force him to instigate violent acts that turn the prison he resides in into a battleground.", "poster_path": "/lGgIQ10NJ3d0X0uFbbUN4pRrMFZ.jpg", "release_date": "2017-09-23", "title": "Brawl in Cell Block 99", "video": false, "vote_average": 6.8, "vote_count": 605, "popularity": 13.011}, {"adult": false, "backdrop_path": "/ic450gLSYFUGb5Gxv39YXOqOGOP.jpg", "genre_ids": [28, 80, 53], "id": 11134, "original_language": "cn", "original_title": "\u8b66\u5bdf\u6545\u4e8b III\uff1a\u8d85\u7d1a\u8b66\u5bdf", "overview": "A Hong Kong detective teams up with his female Red Chinese counterpart to stop a Chinese drug czar.", "poster_path": "/sw94gRwWJf1O4uMFHmDyZNXJeIj.jpg", "release_date": "1992-07-04", "title": "Police Story 3: Super Cop", "video": false, "vote_average": 6.7, "vote_count": 210, "popularity": 11.796}, {"adult": false, "backdrop_path": "/2AWa7xe0GIYNKY0t8oZUxKu68Rz.jpg", "genre_ids": [12, 18, 28], "id": 246, "original_language": "ja", "original_title": "\u5ea7\u982d\u5e02", "overview": "Zatoichi is a 19th century blind nomad who makes his living as a gambler and masseur. However, behind this humble facade, he is a master swordsman gifted with a lightning-fast draw and breathtaking precision. While wandering, Zatoichi discovers a remote mountain village at the mercy of Ginzo, a ruthless gang-leader. Ginzo disposes of anyone who gets in his way, especially after hiring the mighty samurai ronin, Hattori, as a bodyguard. After a raucous night of gambling in town, Zatoichi encounters a pair of geishas--as dangerous as they are beautiful--who've come to avenge their parents' murder. As the paths of these and other colorful characters intertwine, Ginzo's henchmen are soon after Zatoichi. With his legendary cane sword at his side, the stage is set for a riveting showdown.", "poster_path": "/xNFaRG30R3IiVFMgX8X8kAFGxCP.jpg", "release_date": "2003-09-06", "title": "Zatoichi", "video": false, "vote_average": 7.3, "vote_count": 417, "popularity": 10.708}, {"adult": false, "backdrop_path": "/v761yOHKO3p6Yr7LDCjud6tUL5G.jpg", "genre_ids": [28, 80, 53], "id": 10651, "original_language": "en", "original_title": "The Dead Pool", "overview": "Dirty Harry Callahan returns for his final film adventure. Together with his partner Al Quan, he must investigate the systematic murder of actors and musicians. By the time Harry learns that the murders are a part of a sick game to predict the deaths of celebrities before they happen, it may be too late...", "poster_path": "/9ZUSqox9lIxN4xaYBac2QXMFcZj.jpg", "release_date": "1988-07-12", "title": "The Dead Pool", "video": false, "vote_average": 6.4, "vote_count": 389, "popularity": 10.626}, {"adult": false, "backdrop_path": "/oni8CXvEg56JhrfVdVUrQYOuhP0.jpg", "genre_ids": [80, 28, 53], "id": 55846, "original_language": "en", "original_title": "Blitz", "overview": "A tough, renegade cop with a gay sidekick is dispatched to take down a serial killer who has been targeting police officers.", "poster_path": "/woY0qY4DR6bPOQ7cBwyblePsYky.jpg", "release_date": "2011-05-20", "title": "Blitz", "video": false, "vote_average": 6.0, "vote_count": 862, "popularity": 18.232}, {"id": 37645, "video": false, "vote_count": 575, "vote_average": 6.5, "title": "22 Bullets", "release_date": "2010-03-23", "original_language": "fr", "original_title": "L'Immortel", "genre_ids": [28, 80, 53], "backdrop_path": "/mU8zfCOTbahNGH0ZBTCuNdX16gj.jpg", "adult": false, "overview": "Charly Mattei\u0308 has turned his back on his life as an outlaw. For the last three years, he's led a peaceful life devoting himself to his wife and two children. Then, one winter morning, he's left for dead in the parking garage in Marseille's Old Port, with 22 bullets in his body. Against all the odds, he doesn't die...", "poster_path": "/wTYZjPq4YA2wC99MdHZTFQuxFpd.jpg", "popularity": 12.785}, {"adult": false, "backdrop_path": "/s13r8sB2v0upTWZ9yeNtfPlfaPo.jpg", "genre_ids": [28, 80, 53], "id": 9056, "original_language": "cn", "original_title": "\u8b66\u5bdf\u6545\u4e8b", "overview": "A virtuous Hong Kong police officer must clear his name after he is framed for murder.", "poster_path": "/q8YfsyX59OmoSDirXT4CyThwN5f.jpg", "release_date": "1985-12-14", "title": "Police Story", "video": false, "vote_average": 7.4, "vote_count": 307, "popularity": 14.03}, {"id": 46957, "video": false, "vote_count": 6, "vote_average": 6.5, "title": "Intimate Confessions of a Chinese Courtesan", "release_date": "1972-07-09", "original_language": "zh", "original_title": "\u611b\u5974", "genre_ids": [28, 18], "backdrop_path": "/3y2BtcjEm4yhMystxeOh46u35dH.jpg", "adult": false, "overview": "18 year old Ainu (Lily Ho) is kidnapped and sold to a brothel. Her good looks and wild personality make her very popular with the lustful clients, but also draws the lesbian attentions of brothel madam Betty Tei Pei. Betty teaches Ainu the ways of lust and the ways of kung fu, and Ainu becomes more and more similar to her captor. But rage at her treatment is still burning inside her.", "poster_path": "/x9nmTjbAcxWL3WYGBhn22IhPQ6V.jpg", "popularity": 3.818}, {"id": 8090, "video": false, "vote_count": 448, "vote_average": 6.1, "title": "Untraceable", "release_date": "2008-01-22", "original_language": "en", "original_title": "Untraceable", "genre_ids": [9648, 53], "backdrop_path": "/eXuIPt9I1xuaVddlgzEQRC2EMnJ.jpg", "adult": false, "overview": "Special Agent Jennifer Marsh (Diane Lane) works in an elite division of the FBI dedicated to fighting cybercrime. She thinks she has seen it all, until a particularly sadistic criminal arises on the Internet. This tech-savvy killer posts live feeds of his crimes on his website; the more hits the site gets, the faster the victim dies. Marsh and her team must find the elusive killer before time runs out.", "poster_path": "/ySUwDRDEn01lKIMPQorpFCMLWqE.jpg", "popularity": 14.431}, {"adult": false, "backdrop_path": "/ltq1i8ienPm7OSdOXl3o8ROgmKc.jpg", "genre_ids": [28, 80, 18], "id": 2142, "original_language": "en", "original_title": "Cop Land", "overview": "Freddy Heflin is the sheriff of a place everyone calls \u201cCop Land\u201d \u2014 a small and seemingly peaceful town populated by the big city police officers he\u2019s long admired. Yet something ugly is taking place behind the town\u2019s peaceful facade. And when Freddy uncovers a massive, deadly conspiracy among these local residents, he is forced to take action and make a dangerous choice between protecting his idols and upholding the law.", "poster_path": "/th2UDVewgUAfIXFUaWGWWBxCM91.jpg", "release_date": "1997-08-15", "title": "Cop Land", "video": false, "vote_average": 6.7, "vote_count": 757, "popularity": 14.45}, {"id": 40805, "video": false, "vote_count": 2084, "vote_average": 5.5, "title": "The Green Hornet", "release_date": "2011-01-12", "original_language": "en", "original_title": "The Green Hornet", "genre_ids": [28, 35, 80], "backdrop_path": "/obqNqj4tBoUkWzufsMLmDABFLEL.jpg", "adult": false, "overview": "Britt Reid (Seth Rogen), the heir to the largest newspaper fortune in Los Angeles, is a spoiled playboy who has been, thus far, happy to lead an aimless life. After his father (Tom Wilkinson) dies, Britt meets Kato (Jay Chou), a resourceful company employee. Realizing that they have the talent and resources to make something of their lives, Britt and Kato join forces as costumed crime-fighters to bring down the city's most-powerful criminal, Chudnofsky (Christoph Waltz).", "poster_path": "/hZvTFnyqiTiQDO1FRsQvwhFNg3G.jpg", "popularity": 16.173}], "total_pages": 75, "total_results": 1481}, "recommendations": {"page": 1, "results": [{"adult": false, "backdrop_path": "/iI7VhQVUiOmxAm7xqUlyG62ZM4n.jpg", "genre_ids": [28], "id": 72121, "original_language": "en", "original_title": "\u5929\u8836\u8b8a", "overview": "Yun Fei Yang is the viciously bullied orphan who takes on the unpleasant tasks at a formidable kung-fu school. Constantly mocked by the other students of the school, Yen counts as his only friend the daughter of the resident master. Any internal wrangling between the various members is put to one side when a swordsman from a rival clan reminds the master of the duel he must take part in once a decade. Unfortunately the defending clan chief is well aware that his rival is more powerful than himself. The expected defeat is further complicated when a wandering swordsman arrives on the scene and joins himself to the injured party, immediately adding to Yen's woes.", "poster_path": "/zgWa75SSlIEbdTFKEi0AaNUkgQH.jpg", "release_date": "1983-09-14", "title": "The Bastard Swordsman", "video": false, "vote_average": 6.8, "vote_count": 7, "popularity": 4.58}, {"adult": false, "backdrop_path": "/3C84Ypg9tfOYxkarSd0LZewYh73.jpg", "genre_ids": [14, 28], "id": 74257, "original_language": "zh", "original_title": "\u6b66\u6797\u8056\u706b\u4ee4", "overview": "This internationally popular tale of a brother and sister seeking vengeance for the death of their parents through the mythical yin/yang Holy Flame technique is an eye-filling epic. Kuo Chue (a.k.a. Philip Kwok), famous as the star of Chang Cheh's internationally famous \"Venom\" film series, both co-stars and choreographs this impressive tale - leading to a vaunted \"action director\" career with both the 007 thriller Tomorrow Never Dies and the cult classic Brotherhood of the Wolf to his credit.", "poster_path": "/2HX1BjPNXMHRin7MatWNjaUUXa8.jpg", "release_date": "1983-06-10", "title": "Holy Flame of the  Martial World", "video": false, "vote_average": 6.6, "vote_count": 11, "popularity": 2.602}], "total_pages": 1, "total_results": 2}, "credits": {"cast": [{"cast_id": 1004, "character": "Yong Zheng/Fourth Prince", "credit_id": "52fe4753c3a368484e0c0beb", "gender": 2, "id": 240168, "name": "Tony Liu", "order": 0, "profile_path": "/cRjmYhu3ARHrXDSc5Z0JhJnusa4.jpg"}, {"cast_id": 1026, "character": "Lui Si Niang", "credit_id": "5cf605b2c3a3681e95210624", "gender": 1, "id": 1254217, "name": "Leanne Liu", "order": 1, "profile_path": null}, {"cast_id": 1008, "character": "14th Prince", "credit_id": "53fcfd55c3a3684c89000080", "gender": 2, "id": 65992, "name": "Max Mok Siu-Chung", "order": 2, "profile_path": "/6PbgvxM9jsBaMAi2DsON49mlTxr.jpg"}, {"cast_id": 1007, "character": "Min Geng Yiu", "credit_id": "52fe4753c3a368484e0c0bf7", "gender": 2, "id": 237256, "name": "Jason Pai Piao", "order": 3, "profile_path": "/tSDq8zPaI7iqcgEPcqdKyeonszJ.jpg"}, {"cast_id": 1011, "character": "Tsang Jing", "credit_id": "57bfb4ef92514106dc00373a", "gender": 2, "id": 70674, "name": "Norman Chu", "order": 4, "profile_path": "/jkBpEt6ia5EvWoUke8EtW3fttvY.jpg"}, {"cast_id": 1012, "character": "Lui Liu Liang", "credit_id": "57bfb519c3a3684d300035ca", "gender": 2, "id": 229302, "name": "Ku Feng", "order": 5, "profile_path": "/hT152F7T8BoiVMdAMszetr4Lp3F.jpg"}, {"cast_id": 1013, "character": "Pearl", "credit_id": "57bfb61192514111a300095e", "gender": 0, "id": 1670349, "name": "Cheung King-Yu", "order": 6, "profile_path": null}, {"cast_id": 1015, "character": "Pak Tai Koon", "credit_id": "57bfb71192514111e60009d2", "gender": 2, "id": 131728, "name": "Yuen Tak", "order": 7, "profile_path": null}, {"cast_id": 1016, "character": "Lord Chang Tieh Yue", "credit_id": "57bfb72f92514106d5003446", "gender": 2, "id": 576050, "name": "Kwan Fung", "order": 8, "profile_path": null}, {"cast_id": 1017, "character": "Lui's daughter", "credit_id": "57bfb754c3a36801d4000afb", "gender": 0, "id": 1135239, "name": "Wong Mei-Mei", "order": 9, "profile_path": "/18sicUv1nGG2PqrlEucUgViP8jQ.jpg"}, {"cast_id": 1018, "character": "Lord Loong Foh Do", "credit_id": "57bfb77ec3a3684d300036c9", "gender": 2, "id": 240174, "name": "Johnny Wang Lung-Wei", "order": 10, "profile_path": null}, {"cast_id": 1020, "character": "Kam Fung Chi", "credit_id": "57bfba2692514128a50000ec", "gender": 2, "id": 240151, "name": "Sun Chien", "order": 11, "profile_path": "/eg0D1GZ4KytDV4NwXjOeAfaI2FN.jpg"}, {"cast_id": 1021, "character": "Eunuch Wang", "credit_id": "57bfba42c3a36820f8000102", "gender": 2, "id": 1133986, "name": "Yeung Chi-Hing", "order": 12, "profile_path": "/cGIgkz9Qps0crf6Q9zkpFG2W1du.jpg"}, {"cast_id": 1022, "character": "Emperor", "credit_id": "57bfba62c3a36821810000f7", "gender": 2, "id": 544921, "name": "Cheng Miu", "order": 13, "profile_path": "/pJkI8tmkKoYVascjRHEw9Xi5RAz.jpg"}, {"cast_id": 1023, "character": "Ninja", "credit_id": "59c1e6dec3a3682cd1005cc7", "gender": 2, "id": 125391, "name": "Tony Liu Chun-Ku", "order": 14, "profile_path": "/mrlLVLvipJPfEMW05daBTc95vYU.jpg"}, {"cast_id": 1025, "character": "Jade", "credit_id": "5a62de9c9251410b2a006d76", "gender": 1, "id": 109304, "name": "Yeung Ching-Ching", "order": 15, "profile_path": null}], "crew": [{"credit_id": "55d5d61e92514102d20047eb", "department": "Editing", "gender": 2, "id": 43913, "job": "Editor", "name": "Chiang Hsing-Lung", "profile_path": null}, {"credit_id": "55d3612cc3a3683b8f00017d", "department": "Production", "gender": 1, "id": 70676, "job": "Producer", "name": "Mona Fong", "profile_path": null}, {"credit_id": "59c1eddcc3a3682caf005de3", "department": "Directing", "gender": 2, "id": 125391, "job": "Director", "name": "Tony Liu Chun-Ku", "profile_path": "/mrlLVLvipJPfEMW05daBTc95vYU.jpg"}]}}