{"adult": false, "backdrop_path": "/xHsqBcDy5VvV4MuI974HuIoRRQc.jpg", "belongs_to_collection": {"id": 395591, "name": "\u7389\u84b2\u5718\uff08\u7cfb\u5217\uff09", "poster_path": "/eXkW98iUUnh2X6O8RBzQLlxjpye.jpg", "backdrop_path": "/1vjPvq2znPJCcBSqgwhLsacH5DN.jpg"}, "budget": 0, "genres": [{"id": 18, "name": "Drama"}, {"id": 12, "name": "Adventure"}, {"id": 10749, "name": "Romance"}], "homepage": "", "id": 67308, "imdb_id": "tt1365048", "original_language": "cn", "original_title": "3D\u8089\u84b2\u5718\u4e4b\u6975\u6a02\u5bf6\u9451", "overview": "Loosely based on a 17th century erotic Chinese story named The Carnal Prayer Mat, the story follows a young scholar named Yangsheng who gets married to the beautiful daughter of a local merchant. When their sex life proves unsatisfactory, Yangsheng leaves home and journeys to the Pavilion of Ultimate Bliss.", "popularity": 27.871, "poster_path": "/dEb0Kb0xmUuHmO1Dk4WKHuaw5Cw.jpg", "production_companies": [{"id": 7688, "logo_path": null, "name": "One Dollar Production Limited", "origin_country": ""}, {"id": 7689, "logo_path": null, "name": "Local Production", "origin_country": "HK"}], "production_countries": [{"iso_3166_1": "HK", "name": "Hong Kong"}], "release_date": "2011-04-14", "revenue": 0, "runtime": 118, "spoken_languages": [{"iso_639_1": "cn", "name": "\u5e7f\u5dde\u8bdd / \u5ee3\u5dde\u8a71"}], "status": "Released", "tagline": "Sex and Zen: Extreme Ecstasy", "title": "3-D Sex and Zen: Extreme Ecstasy", "video": false, "vote_average": 4.8, "vote_count": 44, "keywords": {"keywords": [{"id": 190370, "name": "erotic movie"}]}, "similar": {"page": 1, "results": [{"adult": false, "backdrop_path": "/tk6QB32plylH41eo2Pbv4sIVljO.jpg", "genre_ids": [18], "id": 50270, "original_language": "it", "original_title": "Paprika", "overview": "A young country girl comes to town and works in a brothel in order to help her fiance get the money to start his own business. \"Paprika\" is the name given to her by the madam.", "poster_path": "/6QthFTJvUheocw3fcKklnsMcGib.jpg", "release_date": "1991-02-13", "title": "Paprika", "video": false, "vote_average": 5.9, "vote_count": 81, "popularity": 19.933}, {"adult": false, "backdrop_path": "/gPiurUCO9Aq5BoftzRjNlvbBrPg.jpg", "genre_ids": [18, 10749], "id": 24402, "original_language": "fr", "original_title": "Emmanuelle", "overview": "Emmanuelle, a svelte, naive young woman, is en route to Bangkok where she'll join her new husband. He works for the French Embassy and has a lovely home, several dedicated servants, and an expensive car at his disposal. Once Emmanuelle arrives, her husband and a few friends introduce her to a realm of sexual ecstasy she'd never imagined.", "poster_path": "/cSZ8MQIoec4w0liHP4x8FJH5BJK.jpg", "release_date": "1974-06-25", "title": "Emmanuelle", "video": false, "vote_average": 5.1, "vote_count": 135, "popularity": 24.885}, {"adult": false, "backdrop_path": "/bYbnlh6VXFRtcSX82UMDsBDLB5j.jpg", "genre_ids": [18, 10749], "id": 28468, "original_language": "it", "original_title": "La chiave", "overview": "After twenty years of marriage, art professor Nino Rolfe attempts to break down his wife Teresa's conventional modesty. Noticing her affection for their daughter's fianc\u00e9, Nino instigates her sexual interest in him as well. This sets off a chain of unexpected events and emotional complications, as Nino and his unpredictable fascist daughter find that they both enjoy being jealous.", "poster_path": "/e6g2geNLgFzMbriH6EvSJZD78nx.jpg", "release_date": "1983-10-18", "title": "The Key", "video": false, "vote_average": 5.0, "vote_count": 128, "popularity": 15.363}, {"adult": false, "backdrop_path": "/98ahnrena4PwLth7HFYGLf9yssH.jpg", "genre_ids": [35, 18, 10749], "id": 22705, "original_language": "it", "original_title": "Tra(sgre)dire", "overview": "While scouting out apartments in London for her Venetian boyfriend, Carla rents an apartment that overlooks the Thames. There she meet the lesbian hyper-horny real estate agent Moira.", "poster_path": "/kZITrLEiTfzzJhtwtXhQUl3ImCQ.jpg", "release_date": "2000-01-28", "title": "Cheeky", "video": false, "vote_average": 5.7, "vote_count": 92, "popularity": 30.42}, {"adult": false, "backdrop_path": "/xC9cG6Wy6QbH2hoAx11xPPD995R.jpg", "genre_ids": [18, 10749], "id": 86331, "original_language": "fr", "original_title": "Q", "overview": "In a social context deteriorated by a countrywide economic crisis, the life of several people will be turned upside down after they meet Cecile, a character who symbolizes desire.", "poster_path": "/9Jg9s4yTEndNmy1SSXRF9jdxY9D.jpg", "release_date": "2011-09-14", "title": "Desire", "video": false, "vote_average": 4.6, "vote_count": 204, "popularity": 25.756}, {"adult": false, "backdrop_path": "/c42tFwWNHc8jJ49Zb0yqSAqr5TM.jpg", "genre_ids": [12, 35, 10751, 14, 16], "id": 228165, "original_language": "en", "original_title": "The SpongeBob Movie: Sponge Out of Water", "overview": "Burger Beard is a pirate who is in search of the final page of a magical book that makes any evil plan he writes in it come true, which happens to be the Krabby Patty secret formula. When the entire city of Bikini Bottom is put in danger, SpongeBob, Patrick, Mr. Krabs, Squidward, Sandy, and Plankton need to go on a quest that takes them to the surface. In order to get back the recipe and save their city, the gang must retrieve the book and transform themselves into superheroes.", "poster_path": "/9wChSuUoQDiBKUnGTcYMkzRha60.jpg", "release_date": "2015-01-28", "title": "The SpongeBob Movie: Sponge Out of Water", "video": false, "vote_average": 5.8, "vote_count": 1273, "popularity": 28.626}, {"adult": false, "backdrop_path": "/m83O9TqAiZo3F2YgxMpuA5kxGZP.jpg", "genre_ids": [35, 10749], "id": 50124, "original_language": "it", "original_title": "Monella", "overview": "The story takes place in northern Italy in the 1950's. Lola and Masetto are about to get married. Masetto wants to keep Lola as a virgin until they are married. But Lola is impatient to remain in chastity until the wedding night. She wants to be sure that Masetto is a good lover, before she commits herself into marriage. She does everything to trick Masetto into breaking the moral tradition.", "poster_path": "/2mlv1R8MlhlGw4dZ0tXy0K6u7ew.jpg", "release_date": "1998-01-21", "title": "Frivolous Lola", "video": false, "vote_average": 4.3, "vote_count": 85, "popularity": 10.199}, {"id": 325346, "video": false, "vote_count": 160, "vote_average": 6.4, "title": "The Hollars", "release_date": "2016-08-25", "original_language": "en", "original_title": "The Hollars", "genre_ids": [35, 18, 10749], "backdrop_path": "/uHKD274QYWX4GORyADqHIbQ9Qwx.jpg", "adult": false, "overview": "Aspiring New York City artist, John Hollar returns to his Middle America hometown on the eve of his mother\u2019s brain surgery. Joined by his girlfriend, eight months pregnant with their first child, John is forced to navigate the crazy world he left behind.", "poster_path": "/9ybRAn6AoSuyMjfqbhgosdye2R5.jpg", "popularity": 8.707}, {"adult": false, "backdrop_path": "/rXBB8F6XpHAwci2dihBCcixIHrK.jpg", "genre_ids": [18, 10749], "id": 341174, "original_language": "en", "original_title": "Fifty Shades Darker", "overview": "When a wounded Christian Grey tries to entice a cautious Ana Steele back into his life, she demands a new arrangement before she will give him another chance. As the two begin to build trust and find stability, shadowy figures from Christian\u2019s past start to circle the couple, determined to destroy their hopes for a future together.", "poster_path": "/wnVHDbGz7RvDAHFAsVVT88FxhrP.jpg", "release_date": "2017-02-08", "title": "Fifty Shades Darker", "video": false, "vote_average": 6.2, "vote_count": 4800, "popularity": 16.061}, {"adult": false, "backdrop_path": "/qPCI9SZmHXmeG6OK367r9GvkuGl.jpg", "genre_ids": [35, 10749], "id": 41280, "original_language": "en", "original_title": "Private Lessons", "overview": "Phillip Filmore is a naive, 15-year-old, preoccupied with sex, who develops a crush on Nicole Mallow, the new 30-something, French housekeeper and sitter to look after him when Phillip's father is out of town for the summer on a \"business\" trip. But Mr. Filmore's unscrupulous chauffeur, Lester Lewis, takes advantage of Phillip's crush on Nicole to hire her to seduce the youth, then draws her into a plot to fake her own death in a blackmail scheme aimed to drain Phillip's trust fund.", "poster_path": "/azdrerXeyr2Aofr7p9osEWnz05g.jpg", "release_date": "1981-08-21", "title": "Private Lessons", "video": false, "vote_average": 5.8, "vote_count": 37, "popularity": 24.872}, {"adult": false, "backdrop_path": "/yl0siKWmGjnBcuCEacKyW0vHsWq.jpg", "genre_ids": [10749, 18], "id": 409387, "original_language": "ko", "original_title": "\uc815\uc0ac : \uacb0\ud63c \ub9d0\uace0 \uc5f0\uc560", "overview": "\"Getting married is crazy! I only want to be in relationships!\" The life story of a woman who doesn't want to settle for one man. Her mom nags at her to get married, her superior grills her to bring results and her boyfriend turns out to be married. Soo-kyeong comforts herself with some spicy food. One lonely birthday, she ends up having sex with the chef of the spicy food restaurant. They fit well mentally and physically so they get closer but Soo-kyeong rejects the chef's marriage proposal. The chef gets married with someone else and asks her, \"I got married with someone else like you said. Now will you have a relationship with me?\"", "poster_path": "/4hiv07Quj8A7J8onCIAjNCy62Er.jpg", "release_date": "2016-04-19", "title": "Sex: A Relationship and Not Marriage", "video": false, "vote_average": 7.7, "vote_count": 3, "popularity": 11.678}, {"adult": false, "backdrop_path": "/tvTyRu9eKfymkje8d9VoWJEoyUv.jpg", "genre_ids": [18], "id": 53932, "original_language": "es", "original_title": "Las edades de Lul\u00fa", "overview": "Fifteen-year-old Lulu has never known any affection from her family. But when she goes to a rock concert with Pablo, a friend of the family, he introduces Lulu to her first sexual experience. Years later, Pablo and Lulu have married; Pablo has created a sheltered, private world for Lulu, into which nothing intrudes. However, Lulu tires of her cloistered existence, and begins hanging out in shady bars, looking for vicarious thrills and danger.", "poster_path": "/5PK5MAN84o0ESgzeW9euozOLIEe.jpg", "release_date": "1990-12-13", "title": "The Ages of Lulu", "video": false, "vote_average": 5.7, "vote_count": 64, "popularity": 24.141}, {"id": 52345, "video": false, "vote_count": 221, "vote_average": 7.8, "title": "Lisbela and the Prisoner", "release_date": "2003-08-22", "original_language": "pt", "original_title": "Lisbela e o Prisioneiro", "genre_ids": [35, 10749], "backdrop_path": "/4KDlC0cZvR5LtszqjFhZcMzdiUD.jpg", "adult": false, "overview": "Lisbela is a young woman who loves going to the movies. Lel\u00e9u is a con man, going from town to town selling all sort of things and performing as master of ceremonies for some cheesy numbers, such as the woman who gets transformed into a gorilla. He gets involved with Linaura, a sexy and beautiful woman who happens to be the wife of the most frightening hitman of the place. The hitman finds out his wife's affair and goes after Lel\u00e9u, who has to leave in a hurry. In another town, he meets and falls instantly in love with Lisbela, who is engaged to Douglas, a hillbilly who tries hard to pass for a cosmopolitan Rio de Janeiro dweller.", "poster_path": "/9nlaRxQeYaMrVVANMppagFohCRP.jpg", "popularity": 1.042}, {"id": 12531, "video": false, "vote_count": 91, "vote_average": 6.9, "title": "The Apartment", "release_date": "1996-07-27", "original_language": "fr", "original_title": "L'Appartement", "genre_ids": [18, 9648, 10749], "backdrop_path": "/64qyT8m4JQ6YODvXxtbHgKmXBX7.jpg", "adult": false, "overview": "A stylish suspense thriller that confounds the audience while presenting them with an extraordinary and elusive mystery. Max is a former playboy who has decided to settle down by marrying his current love, Muriel. However, during a business trip, Max catches a glimpse of the great lost love of his life, reviving his wanderlust and sending him off on a chase of the elusive Lisa, whom he had overheard suggesting to a friend that her lover, Daniel, had killed someone for her. Soon, Max is trying to unravel the mystery behind the suspicious death of Daniel's wife, which he hopes will lead him closer to Lisa.", "poster_path": "/1sqrQdQTn8jKLhUcPKfRVj639zA.jpg", "popularity": 19.17}, {"adult": false, "backdrop_path": "/a8xpxCnvqKyshdrDNFGs6oy4r8N.jpg", "genre_ids": [18, 10749], "id": 1278, "original_language": "en", "original_title": "The Dreamers", "overview": "A young American studying in Paris in 1968 strikes up a friendship with a French brother and sister. Set against the background of the '68 Paris student riots.", "poster_path": "/7ABcfmXQZeCXl5sNrDuLS1URMPN.jpg", "release_date": "2003-09-01", "title": "The Dreamers", "video": false, "vote_average": 7.2, "vote_count": 1671, "popularity": 15.849}, {"adult": false, "backdrop_path": "/8FfD5WXHrJLx0r4expl9IIBMsOW.jpg", "genre_ids": [18, 9648], "id": 280960, "original_language": "pt", "original_title": "Catarina e os Outros", "overview": "Outside, the first sun rays break the dawn.  Sixteen years old Catarina can't fall asleep.  Inconsequently, in the big city adults are moved by desire...  Catarina found she is HIV positive. She wants to drag everyone else along.", "poster_path": "/swSEhrje6NDIqtxAqjBziCkXWU8.jpg", "release_date": "2011-03-01", "title": "Catarina and the others", "video": false, "vote_average": 4.5, "vote_count": 70, "popularity": 11.145}, {"id": 263472, "video": false, "vote_count": 1669, "vote_average": 5.0, "title": "Knock Knock", "release_date": "2015-06-26", "original_language": "en", "original_title": "Knock Knock", "genre_ids": [18, 53], "backdrop_path": "/gJduaRau3X2oE3xkmjs1FufT2GE.jpg", "adult": false, "overview": "When a devoted husband and father is left home alone for the weekend, two stranded young women unexpectedly knock on his door for help. What starts out as a kind gesture results in a dangerous seduction and a deadly game of cat and mouse.", "poster_path": "/eynMtjBB1fXsB5vsQylVmsDLmvw.jpg", "popularity": 19.205}, {"adult": false, "backdrop_path": "/uC54rlRdLMZ46fnrz5SoVYleNyv.jpg", "genre_ids": [18], "id": 4995, "original_language": "en", "original_title": "Boogie Nights", "overview": "Set in 1977, back when sex was safe, pleasure was a business and business was booming, idealistic porn producer Jack Horner aspires to elevate his craft to an art form. Horner discovers Eddie Adams, a hot young talent working as a busboy in a nightclub, and welcomes him into the extended family of movie-makers, misfits and hangers-on that are always around. Adams' rise from nobody to a celebrity adult entertainer is meteoric, and soon the whole world seems to know his porn alter ego, \"Dirk Diggler\". Now, when disco and drugs are in vogue, fashion is in flux and the party never seems to stop, Adams' dreams of turning sex into stardom are about to collide with cold, hard reality.", "poster_path": "/gTq6MPt7SeMiJ2miHeMoNEZTz4p.jpg", "release_date": "1997-10-07", "title": "Boogie Nights", "video": false, "vote_average": 7.6, "vote_count": 1660, "popularity": 21.563}, {"adult": false, "backdrop_path": "/hm4vpIhBW75bTIDTurq2d4rLZy1.jpg", "genre_ids": [53, 18, 27], "id": 3511, "original_language": "en", "original_title": "The Broken", "overview": "The life of a successful radiologist spirals out of control when she sees the spitting image of herself driving down a London street. While attempting to uncover who the imposter could be, she stumbles into a terrifying mystery that her family and closest friends are somehow involved in, leaving her with no one to trust.", "poster_path": "/nGTUsccLUZhF9Bb5fjvL7KrogvC.jpg", "release_date": "2008-01-18", "title": "The Broken", "video": false, "vote_average": 5.5, "vote_count": 113, "popularity": 10.122}, {"adult": false, "backdrop_path": "/bQW1TnxHlmkWof0vsALj4HBkoxj.jpg", "genre_ids": [18, 10749], "id": 51828, "original_language": "en", "original_title": "One Day", "overview": "A romantic comedy centered on Dexter and Emma, who first meet during their graduation in 1988 and proceed to keep in touch regularly. The film follows what they do on July 15 annually, usually doing something together.", "poster_path": "/xzOz17yC3K6SZWtWylXimcHUqpD.jpg", "release_date": "2011-03-02", "title": "One Day", "video": false, "vote_average": 7.2, "vote_count": 2343, "popularity": 16.744}], "total_pages": 317, "total_results": 6331}, "recommendations": {"page": 1, "results": [{"adult": false, "backdrop_path": "/y8EKAXLSFe3lC6zMSQ0y3TkAxpi.jpg", "genre_ids": [35, 18], "id": 76321, "original_language": "da", "original_title": "Uden en tr\u00e6vl", "overview": "When a high-school girl complains of her inability to reach sexual climax, her doctor suggests that she keep a diary of her sexual encounters. She does just that and soon finds herself caught up in a sexual merry-go-round that includes making a hardcore porno film in Sweden, an escapade with a German sadist and a lesbian encounter.", "poster_path": "/fferyxkYklChekrsmSOxHFz7bEc.jpg", "release_date": "1968-09-01", "title": "Without a Stitch", "video": false, "vote_average": 6.3, "vote_count": 6, "popularity": 2.585}, {"adult": false, "backdrop_path": "/hmsUstdFthG1NQhxJQJyDNhrjcf.jpg", "genre_ids": [18], "id": 138976, "original_language": "en", "original_title": "Treachery", "overview": "Treachery centers on a man (Biehn) who is reunited with his estranged son at a remote wedding party. When a storm strands the party, ugly truths are revealed.", "poster_path": "/6eND9Xr6f02ygcrsVb8femq6jbk.jpg", "release_date": "2013-05-16", "title": "Treachery", "video": false, "vote_average": 5.6, "vote_count": 7, "popularity": 3.051}, {"adult": false, "backdrop_path": "/iStijBCScMGm77NTrJOZPavv1Q3.jpg", "genre_ids": [35], "id": 292824, "original_language": "de", "original_title": "Die Nichten der Frau Oberst", "overview": "Frau Oberst has 2 young nieces who are very open with their sexuality. She hopes to find adequate lovers for her nieces and along the way finds herself in some precarious sexual situations. After a series of sexual encounters between just about everyone at the estate, the Countess drops by for a party where the nieces announce their wedding intentions.", "poster_path": "/t0QMyHYlV2ZcsGXvqufW8mlg4yy.jpg", "release_date": "1980-01-18", "title": "Secrets of a French Maid", "video": false, "vote_average": 5.1, "vote_count": 9, "popularity": 7.657}, {"id": 144069, "video": false, "vote_count": 8, "vote_average": 5.5, "title": "The Corruption", "release_date": "1986-04-17", "original_language": "it", "original_title": "La bonne", "genre_ids": [18, 10749], "backdrop_path": "/30GC760GAxls8TshvD8sIYetZvq.jpg", "adult": false, "overview": "The film takes place in Vicenza in 1956. Anna (Guerin), a beautiful lawyer's wife, feels abandoned by her husband and grows closer to their maid, Angela (Michelsen). The maid convinces Anna to try increasingly daring erotic games.", "poster_path": "/2ArrGtcFXLzdu8p2ICVAbDuujBE.jpg", "popularity": 5.705}, {"adult": false, "backdrop_path": null, "genre_ids": [18, 10749], "id": 150146, "original_language": "en", "original_title": "La spiaggia del desiderio", "overview": "Daniel is washed ashore after a shipwreck and discovers the beautiful Haydee in a tropical island paradise. However, Haydee's father and brother aren't as willing to accept their romance.", "poster_path": "/e5pR07bak3mREyx4avmcGtfNjUt.jpg", "release_date": "1976-07-01", "title": "Emmanuelle on Taboo Island", "video": false, "vote_average": 4.2, "vote_count": 5, "popularity": 2.145}, {"adult": false, "backdrop_path": null, "genre_ids": [], "id": 136681, "original_language": "en", "original_title": "Excision", "overview": "A neglected teen takes refuge in the dreams that used to haunt her and orchestrates a shocking plan to prove her worth to her disapproving parents.", "poster_path": "/uuYtjr2OyJttnzDUB6gsALlfS13.jpg", "release_date": "2008-09-20", "title": "Excision", "video": false, "vote_average": 6.7, "vote_count": 7, "popularity": 3.108}, {"id": 264959, "video": false, "vote_count": 6, "vote_average": 6.2, "title": "The Sex Adventures of the Three Musketeers", "release_date": "1971-02-16", "original_language": "de", "original_title": "Die Sex-Abenteuer der drei Musketiere", "genre_ids": [12, 35], "backdrop_path": "/kkMg2O6hbCxikKH4xKXb3CsnSpb.jpg", "adult": false, "overview": "An \"adults only\" retelling of the legend of the Three Musketeers.", "poster_path": "/q74Olk8Ks9FbPolkSpR9rHIeh3I.jpg", "popularity": 5.412}, {"id": 45491, "video": false, "vote_count": 22, "vote_average": 5.7, "title": "Sex and Zen", "release_date": "1991-11-30", "original_language": "cn", "original_title": "\u7389\u84b2\u5718\u4e4b\u5077\u60c5\u5bf6\u9451", "genre_ids": [12, 35, 18, 10749], "backdrop_path": "/8YrxvZChN64waghvFLxgQ4pyx7f.jpg", "adult": false, "overview": "A recently married scholar goes on a quest for knowledge of other people's wives, based on his philosophical differences with the Sack Monk. He encounters the Flying Thief, who agrees to help him find women, but only if he attains a penis as big as a horse's. The scholar has a surgeon attach said unit, and he's off and running on his mission, only to find that there are obstacles to his new lifestyle, such as jealous husbands and treacherous females.", "poster_path": "/daFhYoeefg81EPryY6D8u8zLcBt.jpg", "popularity": 10.282}, {"adult": false, "backdrop_path": "/jxZrwgX0IIwVBKz6ZeVVCmNoxS9.jpg", "genre_ids": [35], "id": 263132, "original_language": "cn", "original_title": "3D \u8c6a\u60c5", "overview": "An honors graduate in literature, Wyman is stuck writing cheap erotic fiction, but somehow ends up starring in an AV film. Suddenly a porn superstar in Japan, he discovers a whole new world fraught with pleasure, pain and more twists and turns than he or the audience expects.", "poster_path": "/b7GTYdZbDIlRqW7fXnPUiBiLSEy.jpg", "release_date": "2014-03-25", "title": "Naked Ambition 3D", "video": false, "vote_average": 5.3, "vote_count": 23, "popularity": 10.711}, {"adult": false, "backdrop_path": "/wehxwnu7v3Ckrjjg4sZllrz7Vf2.jpg", "genre_ids": [99], "id": 15087, "original_language": "en", "original_title": "Blue Planet", "overview": "From the unique vantage point of 200 miles above Earth's surface, we see how natural forces - volcanoes, earthquakes and hurricanes - affect our world, and how a powerful new force - humankind - has begun to alter the face of the planet. From Amazon rain forests to Serengeti grasslands, Blue Planet inspires a new appreciation of life on Earth, our only home.", "poster_path": "/xddijtieZxKOFZV4L2v6xIGgAw9.jpg", "release_date": "1990-01-01", "title": "Blue Planet", "video": false, "vote_average": 5.9, "vote_count": 15, "popularity": 4.925}], "total_pages": 1, "total_results": 10}, "credits": {"cast": [{"cast_id": 1005, "character": "Ruizhu", "credit_id": "52fe4760c3a368484e0c3b43", "gender": 1, "id": 122158, "name": "Saori Hara", "order": 0, "profile_path": "/jIaYlo0zMRG2qLwH5yiDkifRlo7.jpg"}, {"cast_id": 1008, "character": "Dongmei", "credit_id": "52fe4760c3a368484e0c3b4b", "gender": 1, "id": 548487, "name": "Yukiko Suo", "order": 1, "profile_path": "/cBOfY0v9nB0jBR5WqZUr0GCJoq2.jpg"}, {"cast_id": 1012, "character": "Prince of Ning", "credit_id": "57265172c3a3685871000634", "gender": 2, "id": 586484, "name": "Tony Ho", "order": 2, "profile_path": "/7BBUPwjEUkg2Yea58p05AP5DzKg.jpg"}, {"cast_id": 1011, "character": "The Elder of Bliss", "credit_id": "52fe4760c3a368484e0c3b57", "gender": 1, "id": 1163353, "name": "Vonnie Lui", "order": 3, "profile_path": null}, {"cast_id": 1006, "character": "Tie Yuxiang", "credit_id": "52fe4760c3a368484e0c3b47", "gender": 1, "id": 548485, "name": "Leni Lan Crazybarby", "order": 4, "profile_path": "/qAl4pPnu9pZ5wTxGiIpHyXPy59k.jpg"}, {"cast_id": 1010, "character": "Wei Yangsheng", "credit_id": "52fe4760c3a368484e0c3b53", "gender": 2, "id": 1039927, "name": "Hiro Hayama", "order": 5, "profile_path": null}, {"cast_id": 1013, "character": "Maid Xian Lan", "credit_id": "572651b19251411e9f004001", "gender": 0, "id": 1613813, "name": "Carina Chan", "order": 6, "profile_path": null}, {"cast_id": 1014, "character": "Scholar Shun Shang Guang", "credit_id": "572651e59251417744003a2f", "gender": 0, "id": 1613814, "name": "Jason Yiu", "order": 7, "profile_path": null}, {"cast_id": 1016, "character": "Dique", "credit_id": "5726528692514119ed0062d0", "gender": 2, "id": 1136808, "name": "Tenky Tin Kai-Man", "order": 9, "profile_path": "/jR3CpvD0uDu7GKchgUC5bFjfYTX.jpg"}, {"cast_id": 1017, "character": "Quan Laoshi", "credit_id": "5726528f9251417782003977", "gender": 0, "id": 1169040, "name": "Kirt Kishita", "order": 10, "profile_path": null}, {"cast_id": 1018, "character": "Tiancan", "credit_id": "57265298925141778200397c", "gender": 0, "id": 1613815, "name": "Mark Wu Yiu-Fai", "order": 11, "profile_path": null}, {"cast_id": 1019, "character": "Page", "credit_id": "572652a5c3a36851e50007c2", "gender": 0, "id": 1613817, "name": "Cliff Chan", "order": 12, "profile_path": null}, {"cast_id": 1020, "character": "Monk Budai", "credit_id": "572652fac3a368305a005581", "gender": 2, "id": 1139658, "name": "Wong Shu-Tong", "order": 13, "profile_path": null}, {"cast_id": 1021, "character": "Mayor", "credit_id": "57265303c3a3685871000675", "gender": 0, "id": 1319988, "name": "Lawrence Lau Sek-Yin", "order": 14, "profile_path": null}, {"cast_id": 1022, "character": "Mr Lam", "credit_id": "5b2e39d29251416e1b004263", "gender": 2, "id": 1132643, "name": "Justin Cheung", "order": 15, "profile_path": "/hqxOPdP5VqslC18uGJzozaOLKaZ.jpg"}], "crew": [{"credit_id": "5d24ec74bbd0b00010bb175a", "department": "Writing", "gender": 2, "id": 111294, "job": "Writer", "name": "Mark Wu", "profile_path": "/3aKRpGJ5Om4zCCf4R09JRfgfey9.jpg"}, {"credit_id": "5d24ec816d4c97465c768ac6", "department": "Writing", "gender": 0, "id": 235183, "job": "Novel", "name": "Yu Li", "profile_path": null}, {"credit_id": "5d24ec688741c4000f8b67f1", "department": "Writing", "gender": 2, "id": 235187, "job": "Writer", "name": "Stephen Shiu", "profile_path": "/cnpvrF8ZH3RMz2MUN0fRhM7GBL4.jpg"}, {"credit_id": "52fe4760c3a368484e0c3b2d", "department": "Directing", "gender": 0, "id": 548481, "job": "Director", "name": "Christopher Sun", "profile_path": "/9vjcvsYx33jvpUwdhmzxlGTp8jd.jpg"}]}}