{"adult": false, "backdrop_path": "/gRELaZ0QLRUBnBQbXTh9eisAnxy.jpg", "belongs_to_collection": null, "budget": 0, "genres": [{"id": 99, "name": "Documentary"}], "homepage": null, "id": 67404, "imdb_id": "tt1646958", "original_language": "ro", "original_title": "Autobiografia lui Nicolae Ceau\u0219escu", "overview": "The three-hour-long documentary covers 25 years in the life of Nicolae Ceau\u0219escu and was made using 1,000 hours of original footage from the National Archives of Romania.", "popularity": 1.948, "poster_path": "/fhBcXMx346RpsDdkoH3i7m3NpLe.jpg", "production_companies": [{"id": 43997, "logo_path": null, "name": "ICON production", "origin_country": ""}, {"id": 69462, "logo_path": "/qTfuW7oZZPSAOXD7HTfBaL5n9E8.png", "name": "Centrul National al Cinematografiei (CNC)", "origin_country": "RO"}], "production_countries": [{"iso_3166_1": "DE", "name": "Germany"}, {"iso_3166_1": "RO", "name": "Romania"}], "release_date": "2010-10-29", "revenue": 0, "runtime": 180, "spoken_languages": [{"iso_639_1": "ro", "name": "Rom\u00e2n\u0103"}], "status": "Released", "tagline": "", "title": "The Autobiography of Nicolae Ceausescu", "video": false, "vote_average": 7.1, "vote_count": 11, "keywords": {"keywords": [{"id": 7606, "name": "dictatorship"}, {"id": 179882, "name": "romania"}, {"id": 189435, "name": "communist party"}]}, "similar": {"page": 1, "results": [{"id": 439079, "video": false, "vote_count": 3337, "vote_average": 5.6, "title": "The Nun", "release_date": "2018-09-05", "original_language": "en", "original_title": "The Nun", "genre_ids": [27, 9648, 53], "backdrop_path": "/fgsHxz21B27hOOqQBiw9L6yWcM7.jpg", "adult": false, "overview": "When a young nun at a cloistered abbey in Romania takes her own life, a priest with a haunted past and a novitiate on the threshold of her final vows are sent by the Vatican to investigate. Together they uncover the order\u2019s unholy secret. Risking not only their lives but their faith and their very souls, they confront a malevolent force in the form of the same demonic nun that first terrorized audiences in \u201cThe Conjuring 2\u201d as the abbey becomes a horrific battleground between the living and the damned.", "poster_path": "/sFC1ElvoKGdHJIWRpNB3xWJ9lJA.jpg", "popularity": 29.576}, {"id": 586347, "video": false, "vote_count": 62, "vote_average": 5.4, "title": "The Hard Way", "release_date": "2019-03-05", "original_language": "en", "original_title": "The Hard Way", "genre_ids": [28], "backdrop_path": "/gbb2LvupX3rPOEYiQsxGRKSLg9b.jpg", "adult": false, "overview": "After learning of his brother's death during a mission in Romania, a former soldier joins two allies to hunt down a mysterious enemy and take his revenge.", "poster_path": "/z4UNeIfvuqUrbSANkZBzKyrr0tT.jpg", "popularity": 20.402}, {"id": 653, "video": false, "vote_count": 905, "vote_average": 7.7, "title": "Nosferatu", "release_date": "1922-02-17", "original_language": "de", "original_title": "Nosferatu, eine Symphonie des Grauens", "genre_ids": [18, 14, 27], "backdrop_path": "/B4SauS3u6akDAzufZsauFHTBwz.jpg", "adult": false, "overview": "Vampire Count Orlok is interested in a new residence and in his real estate agent\u2019s young wife. F.\u202fW. Murnau\u2019s unauthorized adaptation of Bram Stoker\u2019s \u201cDracula.\u201d", "poster_path": "/cD61HX8e80CtzHIq4BFGFg5TR0A.jpg", "popularity": 14.061}, {"id": 1523, "video": false, "vote_count": 1138, "vote_average": 7.5, "title": "The Last King of Scotland", "release_date": "2006-09-01", "original_language": "en", "original_title": "The Last King of Scotland", "genre_ids": [18], "backdrop_path": "/p7WgP9egrM3hEogrhrLiHA8QD1r.jpg", "adult": false, "overview": "Young Scottish doctor, Nicholas Garrigan decides it's time for an adventure after he finishes his formal education, so he decides to try his luck in Uganda, and arrives during the downfall of President Obote. General Idi Amin comes to power and asks Garrigan to become his personal doctor.", "poster_path": "/rgJa3DRf8L2EnYKr5ZRMpuQn0s2.jpg", "popularity": 14.816}, {"id": 9042, "video": false, "vote_count": 447, "vote_average": 5.2, "title": "The Cave", "release_date": "2005-08-26", "original_language": "en", "original_title": "The Cave", "genre_ids": [28, 12, 27, 53], "backdrop_path": "/tVhb5riMg1oqIkRhOqMjLAHqy2j.jpg", "adult": false, "overview": "After a group of biologists discovers a huge network of unexplored caves in Romania and, believing it to be an undisturbed eco-system that has produced a new species, they hire the best American team of underwater cave explorers in the world. While exploring deeper into the underwater caves, a rockslide blocks their exit, and they soon discover a larger carnivorous creature has added them to its food chain.", "poster_path": "/q7eyZY2Akj68ivnRZ86OduCUexy.jpg", "popularity": 14.315}, {"id": 168705, "video": false, "vote_count": 248, "vote_average": 3.9, "title": "BloodRayne", "release_date": "2005-10-22", "original_language": "en", "original_title": "BloodRayne", "genre_ids": [28, 12, 14, 27], "backdrop_path": "/al8CMQwZGEZp9Hcr24pdQirVBz2.jpg", "adult": false, "overview": "In the 18th century, a vampire escapes from the freak show she once participated in and teams up with a group of vampire slayers to kill the man who raped her mother.  Storyline  In the Eighteenth Century, Rayne is the half-human half-vampire Dhampir and the lead attraction in a carnival's freak-show in Romania. When she escapes, she meets a fortuneteller that tells that her mother was raped by the king of the vampires Kagan and she decides to destroy her father. In her journey for revenge, she meets Vladimir and Sebastian, the leaders of the fortress of vampire hunters Brimstone, and she joins their society. She seeks for powerful talismans to defeat Kagan, while the skilled warriors Vladimir and Sebastian train her to face the forces of Kagan and her human side falls in love with Sebastian. Written by Claudio Carvalho, Rio de Janeiro, Brazil", "poster_path": "/4Q94t0iGqlZqp9Sc3Sf5yIsr2Vn.jpg", "popularity": 12.203}, {"id": 566397, "video": false, "vote_count": 0, "vote_average": 0.0, "title": "The Man Standing Next", "release_date": "2020-01-22", "original_language": "ko", "original_title": "\ub0a8\uc0b0\uc758 \ubd80\uc7a5\ub4e4", "genre_ids": [28, 18], "backdrop_path": "/m0Zp6dlmjfpolhMWx6KHJvmFlOk.jpg", "adult": false, "overview": "In the 1970s, Korea is under the absolute control of the President Park who controls the KCIA, the organization with an edge over any branch of government. The director of KCIA, KIM Gyu-pyeong, is the seemingly most prospective second-in-command. In the midst of reign of fear, a former KCIA director, PARK Yong-gak who knows all about the government\u2019s obscure operations, exiles to the U.S. where the investigation of \u2018Koreagate\u2019 is underway. As the tension escalates, the stifling political maneuvering by the all second-in-command\u2019s unfolds.", "poster_path": "/irC14m9de5imarTX6br5op1xfqU.jpg", "popularity": 14.858}, {"adult": false, "backdrop_path": "/3LXRJNth2r3xRiqNeG7BPd2bMiW.jpg", "genre_ids": [18, 36, 53], "id": 6106, "original_language": "en", "original_title": "Salvador", "overview": "A second rated journalist from the US tries his luck in El Salvador during the military dictatorship in the 1980s.", "poster_path": "/1aNbLMXB2E7e00ko2rDPEyogI9A.jpg", "release_date": "1986-04-23", "title": "Salvador", "video": false, "vote_average": 7.2, "vote_count": 144, "popularity": 8.412}, {"id": 48186, "video": false, "vote_count": 145, "vote_average": 6.1, "title": "The Boy Who Cried Werewolf", "release_date": "2010-10-22", "original_language": "en", "original_title": "The Boy Who Cried Werewolf", "genre_ids": [14, 27, 10751, 10770], "backdrop_path": "/3UFKGPZLyScvmNExQG7DS4VkOwG.jpg", "adult": false, "overview": "A Californian family inherits a castle in Romania. This is especially exciting to the son, who is obsessed with monsters. And he is not disappointed.", "poster_path": "/tdP6isKH4692kEOVO90XyyC6lmf.jpg", "popularity": 11.231}, {"id": 10579, "video": false, "vote_count": 46, "vote_average": 4.2, "title": "Dracula III: Legacy", "release_date": "2005-07-12", "original_language": "en", "original_title": "Dracula III: Legacy", "genre_ids": [27], "backdrop_path": "/tbascnbWrNs0MlKbiOs6m5nduxK.jpg", "adult": false, "overview": "In the near future, Uffizi and Luke travel to the remote reaches of war torn Romania to rescue Elizabeth and finish the vampire once and for all. Along the way, they encounter TV news journalist and a corps of rebels trying to fight the vampire uprising which plagues their country.", "poster_path": "/vAFkxQ9LNncn5mR8oY809Yf1Nfe.jpg", "popularity": 10.064}, {"adult": false, "backdrop_path": "/jkxaueDwEOcF3TJ1jct7ikH6exj.jpg", "genre_ids": [53, 27], "id": 10832, "original_language": "fr", "original_title": "Ils", "overview": "Lucas and Clementine live peacefully in their isolated country house, but one night they wake up to strange noise. They're not alone... and a group of hooded assailants begin to terrorize them throughout the night.", "poster_path": "/A8NOBA3Zhb8RdEi1dBfX6pONs8n.jpg", "release_date": "2006-07-19", "title": "Them", "video": false, "vote_average": 6.2, "vote_count": 269, "popularity": 8.902}, {"id": 214597, "video": false, "vote_count": 130, "vote_average": 4.3, "title": "Fright Night 2: New Blood", "release_date": "2013-08-31", "original_language": "en", "original_title": "Fright Night 2: New Blood", "genre_ids": [35, 27], "backdrop_path": "/a92ApOZHk9gkJ6nS2j36jiD84fF.jpg", "adult": false, "overview": "By day Gerri Dandridge is a sexy professor, but by night she transforms into a real-life vampire with an unquenchable thirst for human blood. When a group of high school students travel abroad to study in Romania, they find themselves ensnared in her chilling web of lust and terror. Charlie and 'Evil' Ed must stop Gerri from drinking and bathing in the blood of a 'new moon virgin', who just so happens to be Charlie\u2019s ex-girlfriend.", "poster_path": "/cp2959zvia5B3wgsv4pOurHndvb.jpg", "popularity": 11.321}, {"adult": false, "backdrop_path": "/48S9ZkXmFxkBL8TD1UeoaCqHMsU.jpg", "genre_ids": [27, 53], "id": 37529, "original_language": "en", "original_title": "The Prophecy: Forsaken", "overview": "In Bucharest, Allison is protecting the mysterious bible, \"The Prophet Lexicon\", where the last chapter about the apocalypse, called Revelations, discloses the name of the Antichrist in its last page. Meanwhile, the evil and jealous leader of the renegade angels Thrones, Stark, forces the hit-man Dylan to kill Allison to get the information about the Antichrist, but Dylan mysteriously feels attracted by the woman, protecting her against the Thrones. Allison seeks John Reigart for help, but Satan tell her that he is interested in the apocalypse to gather millions of souls to Hell. Alone and betrayed, Allison discloses the truth about her origins, while protecting the Lexicon.", "poster_path": "/rLZNBe0mow2xbarF3gQJum5PzvW.jpg", "release_date": "2005-09-06", "title": "The Prophecy: Forsaken", "video": false, "vote_average": 4.4, "vote_count": 27, "popularity": 6.634}, {"adult": false, "backdrop_path": "/7hLq5EKhVnkXNRPI7EIalEM1C6T.jpg", "genre_ids": [18, 36, 9648, 53], "id": 15600, "original_language": "en", "original_title": "Missing", "overview": "Based on the real-life experiences of Ed Horman. A conservative American businessman travels to a South American country to investigate the sudden disappearance of his son after a right-wing military takeover. Accompanied by his son's wife he uncovers a trail of cover-ups that implicate the US State department which supports the right-wing dictatorship.", "poster_path": "/b7L4cl5OUHMr1aB2CUajWXJwAZy.jpg", "release_date": "1982-02-12", "title": "Missing", "video": false, "vote_average": 7.4, "vote_count": 155, "popularity": 8.741}, {"adult": false, "backdrop_path": "/ssh8zq0TFlOaNP1FjApD39k23l6.jpg", "genre_ids": [14, 18, 9648], "id": 7797, "original_language": "en", "original_title": "Youth Without Youth", "overview": "A love story wrapped in a mystery. Set in Europe before WWII, professor of language and philosophy Dominic Matei is struck by lightning and  ages backwards from 70 to 40 in a week, attracting the world and the Nazis. While on the run, the professor meets a young woman who has her own experience with a lightning storm. Not only does Dominic find love again, but her new abilities hold the key to his research.", "poster_path": "/5TmuzdAHSj2ShNJL2x50Y00xosI.jpg", "release_date": "2007-10-26", "title": "Youth Without Youth", "video": false, "vote_average": 6.4, "vote_count": 103, "popularity": 8.415}, {"id": 416149, "video": false, "vote_count": 36, "vote_average": 4.1, "title": "The Perfect Weapon", "release_date": "2016-09-09", "original_language": "en", "original_title": "The Perfect Weapon", "genre_ids": [28, 878], "backdrop_path": "/nhuSsCGddsFTn02mNCwHjYCUyf0.jpg", "adult": false, "overview": "In a not too distant future, a totalitarian state run by \u2018The Director\u201d (Seagal) controls all aspects of life. All enemies of the state are dealt in the harshest way. Most of them are executed by the secret government\u2019s assassins. The best operative is code-named \u201cCondor\u201d (Messner) \u2013 an elite agent and hit man for the government. However, in his latest assignment, \u201cCondor\u201d fails to kill an opposition leader, and finds himself on the run from the very same government agency that he works for. This sets in motion a chain of events with unforseen consequences for all involved.", "poster_path": "/am6eVYHSU3bORdz5Ukmc7XSiW5R.jpg", "popularity": 9.643}, {"id": 118737, "video": false, "vote_count": 72, "vote_average": 5.4, "title": "Interview with a Hitman", "release_date": "2012-07-20", "original_language": "en", "original_title": "Interview with a Hitman", "genre_ids": [28, 53], "backdrop_path": "/hFQc6YWhXbLMKnco4j2qKcQWRz.jpg", "adult": false, "overview": "An elite hitman returns to erase his past only to find that somebody has messed with his future.", "poster_path": "/hHHKhK6SyjVp5vbcaiIKn9QfXaW.jpg", "popularity": 9.173}, {"id": 110398, "video": false, "vote_count": 243, "vote_average": 7.2, "title": "No", "release_date": "2012-08-07", "original_language": "es", "original_title": "No", "genre_ids": [18, 36], "backdrop_path": "/92MsvjpGoaiujgg6prkwmFvggoP.jpg", "adult": false, "overview": "In 1988, Chilean military dictator Augusto Pinochet, due to international pressure, is forced to call a plebiscite on his presidency. The country will vote \u2018Yes\u2019 or \u2018No\u2019 to Pinochet extending his rule for another eight years. Opposition leaders for the \u2018No\u2019 vote persuade a brash young advertising executive, Rene Saavedra, to spearhead their campaign. Against all odds, with scant resources and while under scrutiny by the despot\u2019s minions, Saavedra and his team devise an audacious plan to win the election and set Chile free.", "poster_path": "/2WEog45eMBUFRgxhIbxx2nOaaMZ.jpg", "popularity": 5.864}, {"adult": false, "backdrop_path": "/kC7YmW69fEdM0cazeVIVdmj7644.jpg", "genre_ids": [18, 10749], "id": 103740, "original_language": "ro", "original_title": "Dup\u0103 dealuri", "overview": "A drama centered on the friendship between two young women who grew up in the same orphanage; one has found refuge at a convent in Romania and refuses to leave with her friend, who now lives in Germany.", "poster_path": "/lpsUuCP3cqvB35HjbiGZA1DQJvk.jpg", "release_date": "2012-09-12", "title": "Beyond the Hills", "video": false, "vote_average": 7.4, "vote_count": 92, "popularity": 6.147}, {"id": 47881, "video": false, "vote_count": 57, "vote_average": 5.3, "title": "My Giant", "release_date": "1998-04-10", "original_language": "en", "original_title": "My Giant", "genre_ids": [35, 18, 10751], "backdrop_path": "/ezBQ0qu2R2lKmTwvsnKlF8exnl4.jpg", "adult": false, "overview": "Billy Crystal plays a Hollywood agent who stumbles upon Max, a giant living in Romania, and tries to get him into the movies.", "poster_path": "/49ylsG7JJFjNRlKTOdMQTgcI7om.jpg", "popularity": 7.358}], "total_pages": 8, "total_results": 145}, "recommendations": {"page": 1, "results": [{"id": 117052, "video": false, "vote_count": 3, "vote_average": 6.3, "title": "Absolut Warhola", "release_date": "2001-11-09", "original_language": "sk", "original_title": "Absolut Warhola", "genre_ids": [99], "backdrop_path": null, "adult": false, "overview": "Absolut Warhola is a 2001 film directed by Stanislaw Mucha about Andy Warhol's extended family, whom he never met, from rural Slovakia.  The film follows the filmmakers as they travel through eastern Slovakia to interview Warhol's surviving relatives, ethnic-Ruthenians living near the Polish border in Mikov\u00e1, and to visit the Andy Warhol Museum of Modern Art in Medzilaborce. The museum is shown to be in a poor state, with the museum director and staff openly soliciting donations from the viewer and giving out the museum's bank account details.", "poster_path": null, "popularity": 1.4}, {"adult": false, "backdrop_path": "/1yfH4CeX2zPoXLDHXjV00AKvgJr.jpg", "genre_ids": [35], "id": 36821, "original_language": "en", "original_title": "The Perils of Pauline", "overview": "The Perils of Pauline is a motion picture serial shown in weekly installments featuring the actress Pearl White playing the title character. Pauline has often been cited as a famous example of a damsel in distress, although some analyses hold that her character was more resourceful and less helpless than the classic damsel stereotype.", "poster_path": "/sGS07aldd4gWCz1OnS7Y76x4Y7K.jpg", "release_date": "1914-03-31", "title": "The Perils of Pauline", "video": false, "vote_average": 6.1, "vote_count": 11, "popularity": 3.219}, {"id": 47758, "video": false, "vote_count": 10, "vote_average": 6.9, "title": "The Good Fairy", "release_date": "1935-02-18", "original_language": "en", "original_title": "The Good Fairy", "genre_ids": [35, 10749], "backdrop_path": "/5jMe1ZUODYgvcW7L324gNXl62EA.jpg", "adult": false, "overview": "In 1930s Budapest, na\u00efve orphan Luisa Ginglebuscher becomes an usherette at the local movie house, determined to succeed in her first job by doing good deeds for others and maintaining her purity. Luisa's well-meaning lies get her caught between a lecherous businessman, Konrad, and a decent but confused doctor, Max Sporum. When Luisa convinces Konrad that she's married to Max, Konrad tries everything he can to get rid of the baffled doctor.", "poster_path": "/24NthvKHD7AleSEh5Z0glrQiDri.jpg", "popularity": 2.869}, {"id": 40154, "video": false, "vote_count": 16, "vote_average": 7.4, "title": "In the Bleak Midwinter", "release_date": "1995-12-01", "original_language": "en", "original_title": "In the Bleak Midwinter", "genre_ids": [35], "backdrop_path": "/aIj2uPKXpGViZ4YUhVnfB1J0oi9.jpg", "adult": false, "overview": "Out of work actor Joe volunteers to help try and save his sister's local church for the community by putting on a Christmas production of Hamlet, somewhat against the advice of his agent Margaretta. As the cast he assembles are still available even at Christmas and are prepared to do it on a 'profit sharing' basis (that is, they may not get paid anything) he cannot expect - and does not get - the cream of the cream. But although they all bring their own problems and foibles along, something bigger starts to emerge in the perhaps aptly named village of Hope.", "poster_path": "/cl5WtKNYL7porHGCroRTAKCGlTM.jpg", "popularity": 4.403}], "total_pages": 1, "total_results": 4}, "credits": {"cast": [{"cast_id": 1001, "character": "Himself (archive footage)", "credit_id": "52fe4765c3a368484e0c49ab", "gender": 2, "id": 556762, "name": "Nicolae Ceausescu", "order": 0, "profile_path": null}, {"cast_id": 1002, "character": "Herself (archive footage)", "credit_id": "52fe4765c3a368484e0c49af", "gender": 0, "id": 556763, "name": "Elena Ceausescu", "order": 1, "profile_path": "/rzgNLoLVGMc7md95lPjYG1BnxKx.jpg"}, {"cast_id": 1003, "character": "Himself (archive footage)", "credit_id": "52fe4765c3a368484e0c49b3", "gender": 0, "id": 556764, "name": "Leonid Brezhnev", "order": 2, "profile_path": null}, {"cast_id": 1007, "character": "", "credit_id": "5a321e70925141547b010064", "gender": 2, "id": 230551, "name": "Mikhail Gorbachev", "order": 5, "profile_path": "/9WhKAfRi3dmCyMl8UfsovyUaWJH.jpg"}, {"cast_id": 1008, "character": "", "credit_id": "5a321e9392514103241948eb", "gender": 2, "id": 1534186, "name": "Kim Il-sung", "order": 6, "profile_path": "/3ts5uFsAODlL8XdBAEkrVDAZFni.jpg"}, {"cast_id": 1009, "character": "", "credit_id": "5a321eb7925141547e00fee9", "gender": 0, "id": 1940998, "name": "Ion Iliescu", "order": 7, "profile_path": null}], "crew": [{"credit_id": "52fe4765c3a368484e0c49a7", "department": "Directing", "gender": 0, "id": 550225, "job": "Director", "name": "Andrei Ujica", "profile_path": null}, {"credit_id": "58ff13b392514107cc0065b9", "department": "Writing", "gender": 0, "id": 550225, "job": "Writer", "name": "Andrei Ujica", "profile_path": null}, {"credit_id": "5a321edec3a3680b8819c75a", "department": "Editing", "gender": 1, "id": 20700, "job": "Editor", "name": "Dana Bunescu", "profile_path": "/eJVV6VgZME7R8qq9YHdLAZIUjAz.jpg"}, {"credit_id": "5a321efac3a368148f00f67a", "department": "Production", "gender": 0, "id": 1940999, "job": "Producer", "name": "Velvet Moraru", "profile_path": null}]}}