{"adult": false, "backdrop_path": "/3EfqWXuNC8s98wWnix9ZGFu4160.jpg", "belongs_to_collection": null, "budget": 0, "genres": [{"id": 12, "name": "Adventure"}, {"id": 14, "name": "Fantasy"}], "homepage": null, "id": 68058, "imdb_id": "tt0033489", "original_language": "it", "original_title": "La corona di ferro", "overview": "In the kingdom of Kindaor, traitor Sedesmondo kills his brother, the King of Kindaor, and becomes the tyrant of kingdom. He abandons the prince Arminio to beasts in the woods, but lions don't kill him and breed him as one of them.", "popularity": 1.442, "poster_path": "/8t5Ye0f6JDR2ut9z7LVAsTWqmsf.jpg", "production_companies": [{"id": 12663, "logo_path": null, "name": "Ente Nazionale Industrie Cinematografiche (ENIC)", "origin_country": ""}, {"id": 1679, "logo_path": null, "name": "Lux Film", "origin_country": "IT"}], "production_countries": [{"iso_3166_1": "IT", "name": "Italy"}], "release_date": "1941-01-01", "revenue": 0, "runtime": 108, "spoken_languages": [{"iso_639_1": "it", "name": "Italiano"}], "status": "Released", "tagline": "", "title": "The Iron Crown", "video": false, "vote_average": 6.6, "vote_count": 6, "keywords": {"keywords": [{"id": 128, "name": "love triangle"}, {"id": 5968, "name": "amazon"}, {"id": 7376, "name": "princess"}, {"id": 12380, "name": "tournament"}, {"id": 168297, "name": "tyrant"}, {"id": 184595, "name": "switched at birth"}, {"id": 204359, "name": "usurper"}, {"id": 237586, "name": "christian relic"}, {"id": 237587, "name": "boy raised by lions"}, {"id": 237589, "name": "escaped slaves"}]}, "similar": {"page": 1, "results": [{"adult": false, "backdrop_path": "/3mhNnNmfCGrjyVEZhjWRVcjMOSi.jpg", "genre_ids": [14, 16, 10749, 10751], "id": 54113, "original_language": "en", "original_title": "The Swan Princess: Escape from Castle Mountain", "overview": "The first wedding anniversary of Princess Odette and Prince Derek is distracted by field fires set by Knuckles. His master Clavius, wants to conquer the world, and he needs to capture a giant orb to do that. Clavius kidnaps Queen Uberta and Odette with Derek have to save her.", "poster_path": "/oTEgvTpAIugS7OH6oIoVZkmV3C3.jpg", "release_date": "1997-01-01", "title": "The Swan Princess: Escape from Castle Mountain", "video": false, "vote_average": 6.0, "vote_count": 198, "popularity": 11.608}, {"adult": false, "backdrop_path": "/yDmyqO3xHTVxtyM0CuqobSX3Hjr.jpg", "genre_ids": [16, 10751, 14], "id": 10144, "original_language": "en", "original_title": "The Little Mermaid", "overview": "This colorful adventure tells the story of an impetuous mermaid princess named Ariel who falls in love with the very human Prince Eric and puts everything on the line for the chance to be with him. Memorable songs and characters -- including the villainous sea witch Ursula.", "poster_path": "/6aXMusULuKFAK0ZRUlv7RJ9zHTc.jpg", "release_date": "1989-11-17", "title": "The Little Mermaid", "video": false, "vote_average": 7.3, "vote_count": 4669, "popularity": 25.992}, {"id": 10882, "video": false, "vote_count": 3219, "vote_average": 6.9, "title": "Sleeping Beauty", "release_date": "1959-01-28", "original_language": "en", "original_title": "Sleeping Beauty", "genre_ids": [16, 14, 10749, 10751], "backdrop_path": "/oHZIobyIG0YzWntyPCTSJDOk9qB.jpg", "adult": false, "overview": "A beautiful princess born in a faraway kingdom is destined by a terrible curse to prick her finger on the spindle of a spinning wheel and fall into a deep sleep that can only be awakened by true love's first kiss. Determined to protect her, her parents ask three fairies to raise her in hiding. But the evil Maleficent is just as determined to seal the princess's fate.", "poster_path": "/j4YBuAe8D1jDSiitpq69og9x3Yl.jpg", "popularity": 29.356}, {"id": 809, "video": false, "vote_count": 6985, "vote_average": 7.0, "title": "Shrek 2", "release_date": "2004-05-19", "original_language": "en", "original_title": "Shrek 2", "genre_ids": [12, 16, 35, 14, 10751], "backdrop_path": "/gdFAYLb5NR5HqcEKnPloOM6fX4B.jpg", "adult": false, "overview": "Shrek, Fiona and Donkey set off to Far, Far Away to meet Fiona's mother and father. But not everyone is happy. Shrek and the King find it hard to get along, and there's tension in the marriage. The fairy godmother discovers that Shrek has married Fiona instead of her Son Prince Charming and sets about destroying their marriage.", "poster_path": "/pSQvRqxwRa2IcDJHGY1d3TdKy2q.jpg", "popularity": 28.714}, {"adult": false, "backdrop_path": "/zrGPZc07huy9ApZs7GCrWj05Cy8.jpg", "genre_ids": [12, 14, 10749, 10751], "id": 2270, "original_language": "en", "original_title": "Stardust", "overview": "In a countryside town bordering on a magical land, a young man makes a promise to his beloved that he'll retrieve a fallen star by venturing into the magical realm. His journey takes him into a world beyond his wildest dreams and reveals his true identity.", "poster_path": "/A9gXvPOnMu961E36x5p3RT4FQ5E.jpg", "release_date": "2007-08-09", "title": "Stardust", "video": false, "vote_average": 7.2, "vote_count": 2402, "popularity": 20.44}, {"id": 224141, "video": false, "vote_count": 3144, "vote_average": 5.7, "title": "Into the Woods", "release_date": "2014-12-24", "original_language": "en", "original_title": "Into the Woods", "genre_ids": [35, 14], "backdrop_path": "/lzJzB0QfkjpGCm9qUC4XpEIB6pm.jpg", "adult": false, "overview": "In a woods filled with magic and fairy tale characters, a baker and his wife set out to end the curse put on them by their neighbor, a spiteful witch.", "poster_path": "/5h91odPFNlBuJbRBj5N4MEBfXDE.jpg", "popularity": 29.368}, {"id": 22586, "video": false, "vote_count": 585, "vote_average": 6.6, "title": "The Swan Princess", "release_date": "1994-11-18", "original_language": "en", "original_title": "The Swan Princess", "genre_ids": [12, 16, 35, 14, 10751], "backdrop_path": "/hP9dsGy8FR7eeTqzpOpP3tl3wFD.jpg", "adult": false, "overview": "The beautiful princess Odette is transformed into a swan by an evil sorcerer's spell. Held captive at an enchanted lake, she befriends Jean-Bob the frog, Speed the turtle and Puffin the bird. Despite their struggle to keep the princess safe, these good-natured creatures can do nothing about the sorcerer's spell, which can only be broken by a vow of everlasting love.", "poster_path": "/f5YvIPrkJ9HCsNbgzWJJyxXVNhj.jpg", "popularity": 13.035}, {"id": 10020, "video": false, "vote_count": 6340, "vote_average": 7.7, "title": "Beauty and the Beast", "release_date": "1991-11-13", "original_language": "en", "original_title": "Beauty and the Beast", "genre_ids": [16, 14, 10749, 10751], "backdrop_path": "/4BE0Fb95KY6yoy5a7QWmvNtYes4.jpg", "adult": false, "overview": "Follow the adventures of Belle, a bright young woman who finds herself in the castle of a prince who's been turned into a mysterious beast. With the help of the castle's enchanted staff, Belle soon learns the most important lesson of all -- that true beauty comes from within.", "poster_path": "/b9QJr2oblOu1grgOMUZF1xkUJdh.jpg", "popularity": 39.745}, {"id": 150689, "video": false, "vote_count": 4970, "vote_average": 6.7, "title": "Cinderella", "release_date": "2015-03-12", "original_language": "en", "original_title": "Cinderella", "genre_ids": [18, 14, 10749, 10751], "backdrop_path": "/gkuyOdCeuKLdOlwQIUF44SHsYCq.jpg", "adult": false, "overview": "When her father unexpectedly passes away, young Ella finds herself at the mercy of her cruel stepmother and her daughters. Never one to give up hope, Ella's fortunes begin to change after meeting a dashing stranger in the woods.", "poster_path": "/2i0JH5WqYFqki7WDhUW56Sg0obh.jpg", "popularity": 50.557}, {"adult": false, "backdrop_path": "/wQraxOsaq0NwTO9rSwLo4Nc8hVG.jpg", "genre_ids": [10751, 14, 16, 10749], "id": 11224, "original_language": "en", "original_title": "Cinderella", "overview": "Cinderella has faith her dreams of a better life will come true. With help from her loyal mice friends and a wave of her Fairy Godmother's wand, Cinderella's rags are magically turned into a glorious gown and off she goes to the Royal Ball. But when the clock strikes midnight, the spell is broken, leaving a single glass slipper... the only key to the ultimate fairy-tale ending!", "poster_path": "/avz6S9HYWs4O8Oe4PenBFNX4uDi.jpg", "release_date": "1950-03-04", "title": "Cinderella", "video": false, "vote_average": 7.0, "vote_count": 4104, "popularity": 34.424}, {"id": 808, "video": false, "vote_count": 9704, "vote_average": 7.6, "title": "Shrek", "release_date": "2001-05-16", "original_language": "en", "original_title": "Shrek", "genre_ids": [12, 16, 35, 14, 10751], "backdrop_path": "/2l5UHZBcp9cx1PwKLdisJ0gV9jB.jpg", "adult": false, "overview": "It ain't easy bein' green -- especially if you're a likable (albeit smelly) ogre named Shrek. On a mission to retrieve a gorgeous princess from the clutches of a fire-breathing dragon, Shrek teams up with an unlikely compatriot -- a wisecracking donkey.", "poster_path": "/140ewbWv8qHStD3mlBDvvGd0Zvu.jpg", "popularity": 29.933}, {"id": 10196, "video": false, "vote_count": 2382, "vote_average": 4.6, "title": "The Last Airbender", "release_date": "2010-06-30", "original_language": "en", "original_title": "The Last Airbender", "genre_ids": [28, 12, 14, 10751], "backdrop_path": "/hzPK7B5iyQTAfG7X92uKpAwLGZC.jpg", "adult": false, "overview": "The story follows the adventures of Aang, a young successor to a long line of Avatars, who must put his childhood ways aside and stop the Fire Nation from enslaving the Water, Earth and Air nations.", "poster_path": "/zgwRTYWEEPivTwjB9S03HtmMcbM.jpg", "popularity": 17.876}, {"id": 810, "video": false, "vote_count": 5379, "vote_average": 6.2, "title": "Shrek the Third", "release_date": "2007-05-17", "original_language": "en", "original_title": "Shrek the Third", "genre_ids": [12, 16, 35, 14, 10751], "backdrop_path": "/7fT1IogBbxM6S7SOIGSe7BXLEMq.jpg", "adult": false, "overview": "The King of Far Far Away has died and Shrek and Fiona are to become King & Queen. However, Shrek wants to return to his cozy swamp and live in peace and quiet, so when he finds out there is another heir to the throne, they set off to bring him back to rule the kingdom.", "poster_path": "/lA17Mlz8hXVZsW5Y3WuUa8KPilQ.jpg", "popularity": 25.166}, {"id": 354279, "video": false, "vote_count": 86, "vote_average": 6.3, "title": "Charming", "release_date": "2018-04-20", "original_language": "en", "original_title": "Charming", "genre_ids": [16, 35, 10402, 10751], "backdrop_path": "/rTefIDfreT1kcjuld8K1wgI3ifp.jpg", "adult": false, "overview": "Three fairy tale princesses find themselves engaged to the same guy, Prince Charming.", "poster_path": "/xizxQjNw7gbstkU9YIi2NaZIXW3.jpg", "popularity": 15.747}, {"adult": false, "backdrop_path": "/eMwWyxQMQQrlossNpZV38UliO95.jpg", "genre_ids": [12, 16, 35, 10751, 14], "id": 5393, "original_language": "en", "original_title": "Happily N'Ever After", "overview": "An alliance of evil-doers, led by Frieda, looks to take over Fairy Tale Land. But when Ella realizes her stepmother is out to ruin her storybook existence, she takes a dramatic turn and blossoms into the leader of the resistance effort.", "poster_path": "/pk80r0negE6P0zlBiuaeIESttXX.jpg", "release_date": "2006-09-14", "title": "Happily N'Ever After", "video": false, "vote_average": 4.8, "vote_count": 262, "popularity": 12.331}, {"id": 38319, "video": false, "vote_count": 801, "vote_average": 5.3, "title": "Your Highness", "release_date": "2011-04-08", "original_language": "en", "original_title": "Your Highness", "genre_ids": [12, 35, 14], "backdrop_path": "/MCWdmUJCJFVrbApimgUmORroeS.jpg", "adult": false, "overview": "A fantasy movie about an arrogant, lazy prince and his more heroic brother who must complete a quest in order to save their father's kingdom.", "poster_path": "/d0P3WWy3Fc3JuORpdkkHhPrhlVc.jpg", "popularity": 12.919}, {"id": 502259, "video": false, "vote_count": 22, "vote_average": 5.9, "title": "A Wizard's Tale", "release_date": "2018-03-01", "original_language": "en", "original_title": "A Wizard's Tale", "genre_ids": [12, 16, 35, 14, 10751], "backdrop_path": "/4h2kxmvadQ8yMqnoiXskrclN7VM.jpg", "adult": false, "overview": "Balloon kingdoms, dopey police dragons and happy wizards are exactly how Terry remembered his Grandmother's whacky fairy tales. Except they are real and it's definitely not as 'cheerful.'", "poster_path": "/gl3vhGEIQ6MuilrKGoZOSBlvoz1.jpg", "popularity": 7.412}, {"id": 168903, "video": false, "vote_count": 161, "vote_average": 6.2, "title": "Barbie in the Pink Shoes", "release_date": "2013-02-14", "original_language": "en", "original_title": "Barbie in the Pink Shoes", "genre_ids": [16, 10751], "backdrop_path": "/eMcya0Hi6O8bDROyX2Kd4Ut394k.jpg", "adult": false, "overview": "Dance your way to a magical adventure with Barbie as Kristyn, a ballerina with big dreams! When she tries on a pair of sparkling pink shoes, she and her best friend, Hailey, are whisked away to a fantastical ballet world. There, Kristyn discovers she must dance in her favorite ballets in order to defeat an evil Snow Queen. With performances to the legendary Giselle and Swan Lake ballets, it's a wonderful journey where if you dance with your heart, dreams come true!", "poster_path": "/1wBaiset3LLsbAarLlEkwlKyi5t.jpg", "popularity": 14.929}, {"id": 11527, "video": false, "vote_count": 499, "vote_average": 7.0, "title": "Excalibur", "release_date": "1981-04-10", "original_language": "en", "original_title": "Excalibur", "genre_ids": [12, 14], "backdrop_path": "/9IbRRZbQSwFdu026I8GkfrzRRNY.jpg", "adult": false, "overview": "A surreal adaptation of Sir Thomas Malory's \"Le Morte d'Arthur\", chronicling Arthur Pendragon's conception, his rise to the throne, the search by his Knights of the Round Table for the Holy Grail, and ultimately his death.", "poster_path": "/j8UmbdA1TrIVY4FANymwBSmUuCH.jpg", "popularity": 14.629}, {"adult": false, "backdrop_path": "/xYXj9gY7xKFaSTJ8FuSVn3Vc2Ha.jpg", "genre_ids": [16, 14, 28, 878, 10749], "id": 19738, "original_language": "ja", "original_title": "\u5c11\u5973\u9769\u547d\u30a6\u30c6\u30ca \u30a2\u30c9\u30a5\u30ec\u30bb\u30f3\u30b9\u9ed9\u793a\u9332", "overview": "In a loose retelling of the Revolutionary Girl Utena TV series, Utena Tenjou arrives at Ohtori Academy, only to be immediately swept up in a series of duels for the hand of her classmate Anthy Himemiya and the power she supposedly holds. At the same time, Utena reunites with Touga Kiryuu, a friend from her childhood who seems to know the secrets behind the duels. Utena must discover those secrets for herself, before the power that rules Ohtori claims her and her friends, new and old.", "poster_path": "/4gEuxmg7OTc9Nxbg5pj5cVTaKCh.jpg", "release_date": "1999-08-14", "title": "Revolutionary Girl Utena: The Adolescence of Utena", "video": false, "vote_average": 7.5, "vote_count": 23, "popularity": 7.173}], "total_pages": 3, "total_results": 60}, "recommendations": {"page": 1, "results": [], "total_pages": 1, "total_results": 0}, "credits": {"cast": [{"cast_id": 11, "character": "Sedemondo", "credit_id": "52fe4783c3a368484e0cb16b", "gender": 2, "id": 37191, "name": "Gino Cervi", "order": 0, "profile_path": "/dnArJe5KJvtHrEIc6Mtwgmic4tE.jpg"}, {"cast_id": 12, "character": "Arminio / King Licinio", "credit_id": "52fe4783c3a368484e0cb16f", "gender": 0, "id": 18340, "name": "Massimo Girotti", "order": 1, "profile_path": "/bz4jZxPSe00wKze4vF6aGpIcKn6.jpg"}, {"cast_id": 14, "character": "Tundra / Queen Kavaora", "credit_id": "52fe4783c3a368484e0cb177", "gender": 0, "id": 550293, "name": "Luisa Ferida", "order": 2, "profile_path": "/49ROlTFlF52Lv4knHMI9IkzedZ.jpg"}, {"cast_id": 15, "character": "Elsa / Elsa's Mother", "credit_id": "52fe4783c3a368484e0cb17b", "gender": 1, "id": 33636, "name": "Elisa Cegani", "order": 3, "profile_path": "/gGDVJyvJeStbvhUQ28w1HIxGnHl.jpg"}, {"cast_id": 13, "character": "", "credit_id": "52fe4783c3a368484e0cb173", "gender": 2, "id": 4962, "name": "Paolo Stoppa", "order": 4, "profile_path": "/clvCKNVh6NIMsTCFcgRWSCHuGwd.jpg"}], "crew": [{"credit_id": "52fe4783c3a368484e0cb155", "department": "Sound", "gender": 2, "id": 12331, "job": "Original Music Composer", "name": "Alessandro Cicognini", "profile_path": null}, {"credit_id": "52fe4783c3a368484e0cb13d", "department": "Writing", "gender": 2, "id": 20877, "job": "Screenplay", "name": "Renato Castellani", "profile_path": "/hSKVksuXIKBoORFmZ2n7Q9HTuoD.jpg"}, {"credit_id": "52fe4783c3a368484e0cb161", "department": "Camera", "gender": 2, "id": 38028, "job": "Director of Photography", "name": "V\u00e1clav V\u00edch", "profile_path": null}, {"credit_id": "52fe4783c3a368484e0cb137", "department": "Writing", "gender": 2, "id": 228338, "job": "Screenplay", "name": "Alessandro Blasetti", "profile_path": "/mxH0RKCT8jXhk0ARSeCa8vJhRVy.jpg"}, {"credit_id": "52fe4783c3a368484e0cb131", "department": "Directing", "gender": 2, "id": 228338, "job": "Director", "name": "Alessandro Blasetti", "profile_path": "/mxH0RKCT8jXhk0ARSeCa8vJhRVy.jpg"}, {"credit_id": "52fe4783c3a368484e0cb143", "department": "Writing", "gender": 0, "id": 550287, "job": "Screenplay", "name": "Corrado Pavolini", "profile_path": null}, {"credit_id": "52fe4783c3a368484e0cb149", "department": "Writing", "gender": 0, "id": 550288, "job": "Screenplay", "name": "Guglielmo Zorzi", "profile_path": null}, {"credit_id": "52fe4783c3a368484e0cb14f", "department": "Writing", "gender": 0, "id": 550289, "job": "Screenplay", "name": "Giuseppe Zucca", "profile_path": null}, {"credit_id": "52fe4783c3a368484e0cb15b", "department": "Camera", "gender": 0, "id": 550291, "job": "Director of Photography", "name": "Mario Craveri", "profile_path": null}, {"credit_id": "52fe4783c3a368484e0cb167", "department": "Costume & Make-Up", "gender": 0, "id": 550292, "job": "Costume Design", "name": "Gino Sensani", "profile_path": null}]}}