{"adult": false, "backdrop_path": "/vu0hILJbud6XkTleyg7Q89fgeT8.jpg", "belongs_to_collection": null, "budget": 0, "genres": [{"id": 12, "name": "Adventure"}, {"id": 99, "name": "Documentary"}], "homepage": "http://www.artofflightmovie.com", "id": 68450, "imdb_id": "tt1646967", "original_language": "en", "original_title": "The Art of Flight", "overview": "Iconic snowboarder Travis Rice and friends redefine what is possible in the mountains. Experience the highs, as new tricks are landed and new zones opened, alongside the lows, where avalanches, accidents, and wrong-turns strike.", "popularity": 10.231, "poster_path": "/jRW3h7vZ7Xf11yx5O7md1aHm5Ni.jpg", "production_companies": [{"id": 7724, "logo_path": "/6QV240fIM04sZXpyLUoqhKGhf7r.png", "name": "Red Bull Media House", "origin_country": "AT"}, {"id": 7725, "logo_path": "/crTqxLTvt9Qzt6psnQmVpwprdWA.png", "name": "Brain Farm Digital Cinema", "origin_country": "US"}], "production_countries": [{"iso_3166_1": "US", "name": "United States of America"}], "release_date": "2011-09-08", "revenue": 0, "runtime": 80, "spoken_languages": [{"iso_639_1": "en", "name": "English"}], "status": "Released", "tagline": "", "title": "The Art of Flight", "video": false, "vote_average": 8.1, "vote_count": 104, "keywords": {"keywords": [{"id": 6075, "name": "sport"}, {"id": 183493, "name": "snowboard"}]}, "similar": {"page": 1, "results": [{"adult": false, "backdrop_path": "/qVjKZMB0IdOc2JlwiiGsuKTvTJs.jpg", "genre_ids": [18], "id": 22881, "original_language": "en", "original_title": "The Blind Side", "overview": "The story of Michael Oher, a homeless and traumatized boy who became an All American football player and first round NFL draft pick with the help of a caring woman and her family", "poster_path": "/wEGFSgPebLk6g1ngKsJ6a46PYLV.jpg", "release_date": "2009-11-20", "title": "The Blind Side", "video": false, "vote_average": 7.5, "vote_count": 3212, "popularity": 30.144}, {"adult": false, "backdrop_path": "/jK3EAFk3GdOaQfUDCOiTujzMpwH.jpg", "genre_ids": [18], "id": 389015, "original_language": "en", "original_title": "I, Tonya", "overview": "Competitive ice skater Tonya Harding rises amongst the ranks at the U. S. Figure Skating Championships, but her future in the sport is thrown into doubt when her ex-husband intervenes.", "poster_path": "/6gNXwSHxaksR1PjVZRqNapmkgj3.jpg", "release_date": "2017-12-08", "title": "I, Tonya", "video": false, "vote_average": 7.5, "vote_count": 3327, "popularity": 19.513}, {"id": 8923, "video": false, "vote_count": 1358, "vote_average": 7.2, "title": "Green Street Hooligans", "release_date": "2005-09-09", "original_language": "en", "original_title": "Green Street Hooligans", "genre_ids": [80, 18], "backdrop_path": "/oasVTD3UpTEjhTAVx9ZCy1k19Qv.jpg", "adult": false, "overview": "After being wrongfully expelled from Harvard University, American Matt Buckner flees to his sister's home in England. Once there, he is befriended by her charming and dangerous brother-in-law, Pete Dunham, and introduced to the underworld of British football hooliganism. Matt learns to stand his ground through a friendship that develops against the backdrop of this secret and often violent world. 'Green Street Hooligans' is a story of loyalty, trust and the sometimes brutal consequences of living close to the edge.", "poster_path": "/z3LC4kI8azbeuHRGgDdWo6VBCdX.jpg", "popularity": 14.424}, {"adult": false, "backdrop_path": "/n1Gh3MJAVvXmkgSDf3SOLlPCjag.jpg", "genre_ids": [35, 18, 10749], "id": 9390, "original_language": "en", "original_title": "Jerry Maguire", "overview": "Jerry Maguire used to be a typical sports agent: willing to do just about anything he could to get the biggest possible contracts for his clients, plus a nice commission for himself. Then, one day, he suddenly has second thoughts about what he's really doing. When he voices these doubts, he ends up losing his job and all of his clients, save Rod Tidwell, an egomaniacal football player.", "poster_path": "/99YTEdKOKDRClsscOpJfdkbaTrQ.jpg", "release_date": "1996-12-13", "title": "Jerry Maguire", "video": false, "vote_average": 6.9, "vote_count": 1794, "popularity": 16.867}, {"adult": false, "backdrop_path": "/kBTdPNTAzagAY6UiwY957KCDGuu.jpg", "genre_ids": [16, 35, 10751], "id": 2300, "original_language": "en", "original_title": "Space Jam", "overview": "Swackhammer, an evil alien theme park owner, needs a new attraction at Moron Mountain. When his gang, the Nerdlucks, heads to Earth to kidnap Bugs Bunny and the Looney Tunes, Bugs challenges them to a basketball game to determine their fate. The aliens agree, but they steal the powers of NBA basketball players, including Larry Bird and Charles Barkley -- so Bugs gets some help from superstar Michael Jordan.", "poster_path": "/xI9AwhOWtsbFlS8tYD2PXa80p7u.jpg", "release_date": "1996-11-15", "title": "Space Jam", "video": false, "vote_average": 6.7, "vote_count": 3179, "popularity": 15.582}, {"adult": false, "backdrop_path": "/eD8PxfDsmWyUcj2LzQ9Ha2O7UvB.jpg", "genre_ids": [99], "id": 614423, "original_language": "en", "original_title": "Collingwood: From The Inside Out", "overview": "An  intimate look at Collingwood Football Club as it rebuilds itself and aims for glory over the course of the 2018 season.", "poster_path": "/dsJMvBJ7M2HvGkJdhW4nKNHEgDs.jpg", "release_date": "2019-08-15", "title": "Collingwood: From The Inside Out", "video": false, "vote_average": 1.0, "vote_count": 1, "popularity": 1.602}, {"id": 630633, "video": false, "vote_count": 0, "vote_average": 0.0, "title": "Varane : Destin de Champion", "release_date": "2019-09-23", "original_language": "fr", "original_title": "Varane : Destin de Champion", "genre_ids": [99], "backdrop_path": null, "adult": false, "overview": "", "poster_path": "/ecUI8DO8lfk5FUca0IF2SNgsgtn.jpg", "popularity": 1.106}, {"adult": false, "backdrop_path": "/nb70B4EXuoegiQ0C5N1fNVHIaYc.jpg", "genre_ids": [12, 18, 36, 53, 10752], "id": 5925, "original_language": "en", "original_title": "The Great Escape", "overview": "The Nazis, exasperated at the number of escapes from their prison camps by a relatively small number of Allied prisoners, relocates them to a high-security 'escape-proof' camp to sit out the remainder of the war. Undaunted, the prisoners plan one of the most ambitious escape attempts of World War II. Based on a true story.", "poster_path": "/qhy4HgUqhEbwQ1ekKTv7yEB3b0e.jpg", "release_date": "1963-06-20", "title": "The Great Escape", "video": false, "vote_average": 8.0, "vote_count": 1358, "popularity": 17.61}, {"id": 44833, "video": false, "vote_count": 3510, "vote_average": 5.6, "title": "Battleship", "release_date": "2012-04-11", "original_language": "en", "original_title": "Battleship", "genre_ids": [28, 12, 878, 53], "backdrop_path": "/rLhO767vwqRfUBmJOqvEmt5myIF.jpg", "adult": false, "overview": "When mankind beams a radio signal into space, a reply comes from \u2018Planet G\u2019, in the form of several alien crafts that splash down in the waters off Hawaii. Lieutenant Alex Hopper is a weapons officer assigned to the USS John Paul Jones, part of an international naval coalition which becomes the world's last hope for survival as they engage the hostile alien force of unimaginable strength. While taking on the invaders, Hopper must also try to live up to the potential that his brother, and his fianc\u00e9e's father, Admiral Shane, expect of him.", "poster_path": "/7hN6WtMepoMZyeHZU2DM21cEj3z.jpg", "popularity": 23.786}, {"adult": false, "backdrop_path": "/9SudvdR6HYtgTqMz17RYXdWuTUl.jpg", "genre_ids": [12, 28, 53], "id": 707, "original_language": "en", "original_title": "A View to a Kill", "overview": "A newly developed microchip designed by Zorin Industries for the British Government that can survive the electromagnetic radiation caused by a nuclear explosion has landed in the hands of the KGB. James Bond must find out how and why. His suspicions soon lead him to big industry leader Max Zorin.", "poster_path": "/veDMW7eX6tat86EapsvGEICJ8Tq.jpg", "release_date": "1985-05-24", "title": "A View to a Kill", "video": false, "vote_average": 6.2, "vote_count": 957, "popularity": 29.821}, {"id": 699, "video": false, "vote_count": 908, "vote_average": 6.5, "title": "For Your Eyes Only", "release_date": "1981-06-23", "original_language": "en", "original_title": "For Your Eyes Only", "genre_ids": [28, 12, 53], "backdrop_path": "/hg8ecg8LrR8ChvZh4aMETNUraGA.jpg", "adult": false, "overview": "A British spy ship has sunk and on board was a hi-tech encryption device. James Bond is sent to find the device that holds British launching instructions before the enemy Soviets get to it first.", "poster_path": "/vpZZZ2eq8z4I6PSeGxR2UWNciGG.jpg", "popularity": 24.031}, {"id": 387592, "video": false, "vote_count": 393, "vote_average": 6.0, "title": "Early Man", "release_date": "2018-01-26", "original_language": "en", "original_title": "Early Man", "genre_ids": [12, 16, 35, 10751], "backdrop_path": "/9m71RMP45mg599xtKPyjicyHn1a.jpg", "adult": false, "overview": "Dug, along with his sidekick Hognob, unite a cavemen tribe to save their hidden valley from being spoiled and, all together as a team, to face the menace of a mysterious and mighty enemy, on the turf of an ancient and sacred sport.", "poster_path": "/5iW2rntwLZoGlFCYYy8TjHyblbw.jpg", "popularity": 15.752}, {"adult": false, "backdrop_path": "/20IgqkdFw5kuItqDCJtidSESP0t.jpg", "genre_ids": [27, 18], "id": 10066, "original_language": "en", "original_title": "House of Wax", "overview": "A group of unwitting teens are stranded near a strange wax museum and soon must fight to survive and keep from becoming the next exhibit.", "poster_path": "/uM1RebQywM5PPYsauayefpXGxVk.jpg", "release_date": "2005-04-30", "title": "House of Wax", "video": false, "vote_average": 5.7, "vote_count": 1531, "popularity": 21.972}, {"adult": false, "backdrop_path": "/mYKP6qcDUimVMAHQWLOuDHjO19S.jpg", "genre_ids": [35], "id": 445629, "original_language": "en", "original_title": "Fighting with My Family", "overview": "Born into a tight-knit wrestling family, Paige and her brother Zak are ecstatic when they get the once-in-a-lifetime opportunity to try out for the WWE. But when only Paige earns a spot in the competitive training program, she must leave her loved ones behind and face this new cutthroat world alone. Paige's journey pushes her to dig deep and ultimately prove to the world that what makes her different is the very thing that can make her a star.", "poster_path": "/cVhe15rJLRjolunSWLBN6xQLyGU.jpg", "release_date": "2019-02-14", "title": "Fighting with My Family", "video": false, "vote_average": 6.7, "vote_count": 642, "popularity": 23.641}, {"adult": false, "backdrop_path": "/w41zFKYTsq4wf5QnQJWMXuzWl2F.jpg", "genre_ids": [18, 28], "id": 96721, "original_language": "en", "original_title": "Rush", "overview": "A biographical drama centered on the rivalry between Formula 1 drivers James Hunt and Niki Lauda during the 1976 Formula One motor-racing season.", "poster_path": "/cjEepHZOZAwmK6nAj5jis6HV75E.jpg", "release_date": "2013-09-02", "title": "Rush", "video": false, "vote_average": 7.7, "vote_count": 4275, "popularity": 16.446}, {"id": 1375, "video": false, "vote_count": 1669, "vote_average": 5.6, "title": "Rocky V", "release_date": "1990-10-18", "original_language": "en", "original_title": "Rocky V", "genre_ids": [18], "backdrop_path": "/dr5pdEDOdCvelCQqP32UZubiSgE.jpg", "adult": false, "overview": "A lifetime of taking shots has ended Rocky\u2019s career, and a crooked accountant has left him broke. Inspired by the memory of his trainer, however, Rocky finds glory in training and takes on an up-and-coming boxer.", "poster_path": "/5P2RiuLt31mWyb6duww8qlAhs6G.jpg", "popularity": 16.084}, {"id": 70006, "video": false, "vote_count": 288, "vote_average": 6.1, "title": "Never Back Down 2: The Beatdown", "release_date": "2011-09-13", "original_language": "en", "original_title": "Never Back Down 2: The Beatdown", "genre_ids": [28, 18], "backdrop_path": "/lSFqtjxMfAHa58TBDDBELKeq2DH.jpg", "adult": false, "overview": "Four fighters different backgrounds come together to train under an ex MMA rising star and then ultimately have to fight each other and the traitor in heir midst.", "poster_path": "/qeISu4rUk9l9sQTMs86fAoxSx8p.jpg", "popularity": 20.91}, {"id": 391757, "video": false, "vote_count": 185, "vote_average": 6.5, "title": "Never Back Down: No Surrender", "release_date": "2016-06-07", "original_language": "en", "original_title": "Never Back Down: No Surrender", "genre_ids": [28, 18], "backdrop_path": "/pzjnObK3uiHcKwiir9OPPWzbW8f.jpg", "adult": false, "overview": "Picking up after the events of Never Back Down 2, former MMA champion Case Walker is on the comeback trail to become champion once again.", "poster_path": "/dYNS4o4Q4DDLiKRAAvZ9KcrhHuy.jpg", "popularity": 16.224}, {"id": 396371, "video": false, "vote_count": 1968, "vote_average": 7.1, "title": "Molly's Game", "release_date": "2017-12-25", "original_language": "en", "original_title": "Molly's Game", "genre_ids": [80, 18], "backdrop_path": "/rHcBZ6ZKCe4FalWHyvBGsyMsh0k.jpg", "adult": false, "overview": "Molly Bloom, a young skier and former Olympic hopeful becomes a successful entrepreneur (and a target of an FBI investigation) when she establishes a high-stakes, international poker game.", "poster_path": "/in43bQ7k0ttr666IPP94IlbQbTR.jpg", "popularity": 18.118}, {"id": 107, "video": false, "vote_count": 5245, "vote_average": 7.8, "title": "Snatch", "release_date": "2000-09-01", "original_language": "en", "original_title": "Snatch", "genre_ids": [80, 53], "backdrop_path": "/cNLZ7YGRikb4IsLblrzu86ndZPw.jpg", "adult": false, "overview": "The second film from British director Guy Ritchie. Snatch tells an obscure story similar to his first fast-paced crazy character-colliding filled film \u201cLock, Stock and Two Smoking Barrels.\u201d There are two overlapping stories here \u2013 one is the search for a stolen diamond, and the other about a boxing promoter who\u2019s having trouble with a psychotic gangster.", "poster_path": "/on9JlbGEccLsYkjeEph2Whm1DIp.jpg", "popularity": 25.391}], "total_pages": 178, "total_results": 3558}, "recommendations": {"page": 1, "results": [{"adult": false, "backdrop_path": "/4YxQXkQeqROin9votOkhc6oK3sZ.jpg", "genre_ids": [35], "id": 26118, "original_language": "en", "original_title": "Dylan Moran: What It Is", "overview": "Unpredictable, bizarre, elegiac, often cruel but above all painfully funny, What It Is sees Dylan ponder the joys and disappointments of human existence with the sensibility and intense perception of a man teetering on the edge. Critically and publicly acclaimed around the world for his previous Monster and Like, Totally shows, What It Is is Dylan's finest live performance yet.", "poster_path": "/6GdfLTFDEXN71yTDS3OZ5kuzezK.jpg", "release_date": "2009-11-23", "title": "Dylan Moran: What It Is", "video": true, "vote_average": 7.7, "vote_count": 16, "popularity": 3.745}, {"adult": false, "backdrop_path": "/fj5BS9DBlqlxonYascf9hX03A8w.jpg", "genre_ids": [99], "id": 49837, "original_language": "en", "original_title": "South", "overview": "The story of the 1914-1916 Antarctic exploration mission of Sir Ernest Shackleton.", "poster_path": "/99TRhj3Qm3FNHLXkDbYHcGSAn9X.jpg", "release_date": "1919-01-01", "title": "South", "video": false, "vote_average": 6.9, "vote_count": 8, "popularity": 2.36}, {"id": 112162, "video": false, "vote_count": 16, "vote_average": 6.8, "title": "TimeScapes", "release_date": "2012-06-01", "original_language": "en", "original_title": "TimeScapes", "genre_ids": [99], "backdrop_path": "/6rFvIMjNNH14HPP1bwSd8egn7po.jpg", "adult": false, "overview": "Stunning slow-motion and timelapse cinematography of the landscapes, people and wildlife of the American South West.", "poster_path": "/fonM4CzA70ieNO07AmbLwkwp0z6.jpg", "popularity": 3.391}, {"adult": false, "backdrop_path": "/7Np1sxfPykPyhgESM9khwFLOPvv.jpg", "genre_ids": [99, 12, 18], "id": 133786, "original_language": "de", "original_title": "Where the Trail Ends", "overview": "\"Where the Trail Ends...\" is a film following the worlds' top freeride mountain bikers as they search for un-ridden terrain around the globe, ultimately shaping the future of big mountain freeriding.  This unparalleled story documents man's challenge of mother nature and himself showcased through a cast of colorful characters. This is the most progressive and ambitious mountain biking ever attempted resulting in an entertainment adventure unlike anything experienced before.", "poster_path": "/28siwjNzwvOkRkoEUoF9ok1neQe.jpg", "release_date": "2012-09-19", "title": "Where the Trail Ends", "video": false, "vote_average": 7.5, "vote_count": 19, "popularity": 5.253}, {"adult": false, "backdrop_path": "/gLUdcDFW9qGIC3hXAK8JTzYGjrt.jpg", "genre_ids": [99], "id": 217268, "original_language": "en", "original_title": "The Epic of Everest", "overview": "The official record of Mallory and Irvine's 1924 expedition. When George Mallory and Sandy Irvine attempted to reach the summit of Everest in 1924 they came closer than any previous attempt. Inspired by the work of Herbert Ponting (The Great White Silence) Captain Noel filmed in the harshest of conditions, with specially adapted equipment, to capture the drama of the fateful expedition.", "poster_path": "/pSm4T9KgiOFflAKKHq76mZbCdxh.jpg", "release_date": "1924-01-01", "title": "The Epic of Everest", "video": false, "vote_average": 7.0, "vote_count": 10, "popularity": 2.782}, {"adult": false, "backdrop_path": "/zCyCO9CGLlWwLDeWWLH5E1ifYmH.jpg", "genre_ids": [99], "id": 202927, "original_language": "de", "original_title": "Gangsterl\u00e4ufer", "overview": "A knife in the pocket, adrenaline in the blood and only one dream in mind: to be a gangster - and the biggest one at that. Yehya was 15 years old and close to realizing his dream when he met the filmmaker Christian Stahl in the stairwell. Yehya wasn't just the nice boy from next door, he was also \"the Boss of Sonnenallee\" - one of the gangster runners of the Berlin borough of Neuk\u00f6lln. And gangster runners want to make it in the gangster world. In the eyes of the authorities, he is an \"intensive offender\"; in his own eyes, Yehya is \"one of the top ten of Neuk\u00f6lln. I got my own prosecutor!\"", "poster_path": "/fVAkC7yfs5VwILc0EmXAALo9GeH.jpg", "release_date": "2011-11-26", "title": "Gangsterl\u00e4ufer", "video": false, "vote_average": 6.6, "vote_count": 4, "popularity": 1.238}, {"adult": false, "backdrop_path": "/xenL0akofJDy3DtNA02YV9kf2HR.jpg", "genre_ids": [99], "id": 45538, "original_language": "en", "original_title": "Shackleton's Antarctic Adventure", "overview": "Shackleton's Antarctic Adventure is a giant-screen film that tells the dramatic true story of explorer Sir Ernest Shackleton's now-legendary 1914-1916 British Imperial Trans-Antarctic Expedition. A testament to heroism and human endurance, the 28-man crew survived nearly two years in the Antarctic when its ship, the Endurance, was trapped and then crushed by pack ice.", "poster_path": "/iTVZCCTzLA1h2HheaDCEUAgiGj9.jpg", "release_date": "2001-02-05", "title": "Shackleton's Antarctic Adventure", "video": false, "vote_average": 5.9, "vote_count": 5, "popularity": 3.489}, {"adult": false, "backdrop_path": "/rcYMH0StYxkouDRbDGhG5vSETMA.jpg", "genre_ids": [10752, 18], "id": 46874, "original_language": "de", "original_title": "Hunde, wollt ihr ewig leben", "overview": "In the winter of 1943, against the background of battle scenes, a young German Lieutenant who increasingly distrusts the inhuman Nazi ideology struggles with the concept of war.", "poster_path": "/eCcNmvOg2QfYfWubx2iOEigSCdh.jpg", "release_date": "1959-04-07", "title": "Battle Inferno", "video": false, "vote_average": 7.1, "vote_count": 9, "popularity": 3.718}, {"adult": false, "backdrop_path": "/fNKSgxw7Ywgi5XYjnTTlrDo4jdQ.jpg", "genre_ids": [99], "id": 45615, "original_language": "en", "original_title": "Reindeerspotting \u2013 pako Joulumaasta", "overview": "Reindeerspotting is a documentary film of a group of young guys living in Rovaniemi, Arctic Circle, dabbling in petty crime and hard drugs. One of them, Jani, has lost five years of his life and two fingers to his debotators. He wants to leave Lapland and his old life behind. Robbing a supermarket is a start for his getaway. A few years back a documentarist, Joonas Neuvonen, was a young men living on social welfare, using drugs on daily basis. He started to film his friends and their life. This is the story of Jani.", "poster_path": "/zEuWamAwTG75UcG3J16g08gp2bd.jpg", "release_date": "2010-04-09", "title": "Reindeerspotting: Escape from Santaland", "video": false, "vote_average": 6.9, "vote_count": 20, "popularity": 3.462}, {"adult": false, "backdrop_path": "/1SvObkkPKGIlGH31oJBvIc3ooCx.jpg", "genre_ids": [35], "id": 13976, "original_language": "en", "original_title": "Dylan Moran: Monster", "overview": "Irish comedian Dylan Moran live at Vicar Street, Dublin.", "poster_path": "/2hMywV2M8cKcNgJP9prc38y6ALh.jpg", "release_date": "2004-11-15", "title": "Dylan Moran: Monster", "video": false, "vote_average": 8.1, "vote_count": 25, "popularity": 4.273}, {"adult": false, "backdrop_path": "/qBBY5tOvc8CABjpOKZPqxml8Suv.jpg", "genre_ids": [35], "id": 79133, "original_language": "en", "original_title": "Dylan Moran: Yeah, Yeah", "overview": "Dylan Moran, star of Black Books, Shaun of the Dead and Run Fat Boy Run is about to spread a little happiness with a brand new live DVD for 2011. Ageing, religion, kids and relationships intertwine with the general absurdities of life. Searing observations and sumptuous imagery, painted across a large fraying canvas with cruel, curmudgeonly 'Moranesque' brush strokes are all delivered with Dylan's renowned, shambolic charm\u2026 Simply unmissable.", "poster_path": "/tUuLPs5zuJM87hrXHWussMWwQOH.jpg", "release_date": "2011-11-14", "title": "Dylan Moran: Yeah, Yeah", "video": true, "vote_average": 8.0, "vote_count": 17, "popularity": 3.353}, {"adult": false, "backdrop_path": "/76CrXErFHVCD6YYOIk2prU3FMhx.jpg", "genre_ids": [35], "id": 32482, "original_language": "en", "original_title": "Denis Leary: Lock 'N Load", "overview": "Actor/comic Denis Leary discusses family life, coffee, religion, and other topics in this stand-up special.", "poster_path": "/bZOBfjzQsGaEnphHA4h5Uc1lDIz.jpg", "release_date": "1997-01-01", "title": "Denis Leary: Lock 'N Load", "video": false, "vote_average": 7.0, "vote_count": 8, "popularity": 4.87}, {"adult": false, "backdrop_path": "/pndoMHi2eALfms6lCu2yQMaPG1T.jpg", "genre_ids": [99], "id": 364935, "original_language": "de", "original_title": "Cinema Perverso - Die wunderbare und kaputte Welt des Bahnhofskinos", "overview": "A documentary directed by Oliver Schwehm.", "poster_path": "/upkOVc3zxkPIjK3PHNVTbgg2HFr.jpg", "release_date": "2015-10-14", "title": "Cinema Perverso", "video": false, "vote_average": 6.9, "vote_count": 10, "popularity": 3.278}, {"id": 130957, "video": false, "vote_count": 4, "vote_average": 4.8, "title": "The Sons of Great Bear", "release_date": "1966-02-18", "original_language": "de", "original_title": "Die S\u00f6hne der gro\u00dfen B\u00e4rin", "genre_ids": [18, 37], "backdrop_path": "/eXiBABUKYkD5AGC33h4mOazyQWy.jpg", "adult": false, "overview": "First DEFA \"western\" establishing Gojko Miti\u0107's stardom portraying Native Americans.", "poster_path": "/ykNSVmEreT7BOja04ZlGCqVp1lE.jpg", "popularity": 2.526}, {"adult": false, "backdrop_path": "/y7gilTOKhCY6Vmihz2OQiPFHFgW.jpg", "genre_ids": [35], "id": 17272, "original_language": "en", "original_title": "Ali G: Bling Bling", "overview": "Bling Bling is an assortment of Ali G's interviews; a couple of them with possibly the last people in Britain who didn't realise that someone was pulling their leg and several with American grandees of various sorts, including economist JK Galbraith and former CIA director Admiral Stansfield Turner. The real selling point, however, is Ali G's undeniably spectacular Comic Relief interview", "poster_path": "/qiikDNIick6riSlSSdDyn5ZsEdZ.jpg", "release_date": "2001-10-31", "title": "Ali G: Bling Bling", "video": false, "vote_average": 7.0, "vote_count": 17, "popularity": 2.92}, {"adult": false, "backdrop_path": "/mnh9kmT6vmkosWvoaEBDNGXZYWF.jpg", "genre_ids": [35], "id": 13586, "original_language": "en", "original_title": "Dylan Moran: Like, Totally...", "overview": "Dylan Moran returns with an all-new stand-up show. Unpredictable, startling, bizarre, elegiac, but above all brilliant and hilariously funny, Moran is a master of comedy.", "poster_path": "/lrZ0kSeVaZGNpCeb3NXCO3jYsvc.jpg", "release_date": "2006-11-27", "title": "Dylan Moran: Like, Totally...", "video": false, "vote_average": 7.8, "vote_count": 22, "popularity": 4.494}, {"adult": false, "backdrop_path": "/1thZpn3njyvRmc4WLOhdh7nEUPb.jpg", "genre_ids": [35], "id": 64372, "original_language": "en", "original_title": "Dana Carvey: Squatting Monkeys Tell No Lies", "overview": "As always, Carvey never crosses the line into mean-spiritedness, but easily glides in and out of every impression &amp; expression, reminding us of the huge talent we came to know and love before he left the scene due to his heart condition. It's a bittersweet irony that Dana Carvey is one comic who is ALL heart...", "poster_path": "/Agy6xuKGaiAyoxMI5GWf1m2PekJ.jpg", "release_date": "2008-06-14", "title": "Dana Carvey: Squatting Monkeys Tell No Lies", "video": false, "vote_average": 5.9, "vote_count": 7, "popularity": 2.06}, {"adult": false, "backdrop_path": "/hfjnbd1Vd5OwmOxmeiZ01wEzKyL.jpg", "genre_ids": [99], "id": 51410, "original_language": "en", "original_title": "Jens Pulver: Driven", "overview": "DRIVEN is a film about a universal human struggle, transcending loss, and overcoming hardship through the many fights we all share in our pursuit of greatness. It is, poignantly, a film about one man's drive, in an increasingly dire American psyche, to overcome the most trenchant of odds, and redefine his fate in a quest to provide a more solid future for self and family than his own meager inheritances would have allowed. Jens Pulver's story is everyone's story. And it is why Jens Pulver is so loved by fight fans around the world.", "poster_path": "/f9TNFI0XytFchIJr4c7evz23V4R.jpg", "release_date": "2011-07-01", "title": "Jens Pulver: Driven", "video": false, "vote_average": 7.1, "vote_count": 6, "popularity": 0.764}, {"adult": false, "backdrop_path": "/aYjHLTsoQ6QQqRFAhHNMi5A2ki2.jpg", "genre_ids": [], "id": 19078, "original_language": "en", "original_title": "UFC 101: Declaration", "overview": "UFC 101: Declaration was a mixed martial arts event held by the Ultimate Fighting Championship (UFC) on August 8, 2009 in Philadelphia, Pennsylvania.", "poster_path": "/13xeTdAVs9BZeyTtXpCpLOSSnde.jpg", "release_date": "2009-08-08", "title": "UFC 101: Declaration", "video": true, "vote_average": 7.1, "vote_count": 5, "popularity": 3.627}, {"id": 18242, "video": false, "vote_count": 18, "vote_average": 7.0, "title": "The Secret Adventures of Tom Thumb", "release_date": "1993-12-10", "original_language": "en", "original_title": "The Secret Adventures of Tom Thumb", "genre_ids": [16, 878], "backdrop_path": "/aA0dKsRIdOEpej1AvLYRu2P0Rv9.jpg", "adult": false, "overview": "A boy born the size of a small doll is kidnapped by a genetic lab and must find a way back to his father in this inventive adventure filmed using stop motion animation techniques.", "poster_path": "/8Hej4Og2LrpOlBq4tOXwiRqB07l.jpg", "popularity": 3.576}], "total_pages": 2, "total_results": 40}, "credits": {"cast": [{"cast_id": 1, "character": "Himself", "credit_id": "52fe4793c3a368484e0ce961", "gender": 0, "id": 81948, "name": "Travis Rice", "order": 0, "profile_path": "/gY740C15tRs0Fgp7RUJihqOVo9s.jpg"}, {"cast_id": 2, "character": "Himself", "credit_id": "52fe4793c3a368484e0ce965", "gender": 0, "id": 81945, "name": "Nicolas Muller", "order": 1, "profile_path": "/9gZuW0VN8TvjVjxvWkbJmPuhzsW.jpg"}, {"cast_id": 3, "character": "Himself", "credit_id": "52fe4793c3a368484e0ce969", "gender": 0, "id": 74462, "name": "Mark Landvik", "order": 2, "profile_path": "/r7fmGDa235eH7n9B9RIvt6J0goh.jpg"}, {"cast_id": 4, "character": "Himself", "credit_id": "52fe4793c3a368484e0ce96d", "gender": 0, "id": 570942, "name": "Jake Blauvelt", "order": 3, "profile_path": "/zjv0ul7bpRW8S6EVrouOcfS3tp3.jpg"}, {"cast_id": 5, "character": "Himself", "credit_id": "52fe4793c3a368484e0ce971", "gender": 0, "id": 368569, "name": "Pat Moore", "order": 4, "profile_path": "/pxFP6UCUIdhvTVm0Xdgivx452Xf.jpg"}, {"cast_id": 6, "character": "Himself", "credit_id": "52fe4793c3a368484e0ce975", "gender": 0, "id": 570943, "name": "David Carrier-Porcheron", "order": 5, "profile_path": "/2bUxzFuO4vz23EmS3bnhrvW9pYK.jpg"}, {"cast_id": 7, "character": "Himself", "credit_id": "52fe4793c3a368484e0ce979", "gender": 0, "id": 81943, "name": "Scotty Lago", "order": 6, "profile_path": "/fCIM0IQwAjgW2pfOOiNuTAyZqmV.jpg"}, {"cast_id": 8, "character": "Himself", "credit_id": "52fe4793c3a368484e0ce97d", "gender": 0, "id": 570944, "name": "Eero Niemela", "order": 7, "profile_path": null}, {"cast_id": 9, "character": "Himself", "credit_id": "52fe4793c3a368484e0ce981", "gender": 0, "id": 74461, "name": "John Jackson", "order": 8, "profile_path": "/AO69LNnTWqQUvGrvQjYIvAw0hn.jpg"}, {"cast_id": 10, "character": "Himself", "credit_id": "52fe4793c3a368484e0ce985", "gender": 2, "id": 74459, "name": "Jeremy Jones", "order": 9, "profile_path": "/vBMH3YJPkhxp4a13A3OmajWa1mE.jpg"}], "crew": [{"credit_id": "52fe4793c3a368484e0ce98b", "department": "Directing", "gender": 2, "id": 81950, "job": "Director", "name": "Curt Morgan", "profile_path": null}]}}