{"adult": false, "backdrop_path": "/aK3ywFBZsULPkUOiBlenS14xe5D.jpg", "belongs_to_collection": null, "budget": 0, "genres": [{"id": 80, "name": "Crime"}, {"id": 28, "name": "Action"}, {"id": 53, "name": "Thriller"}], "homepage": null, "id": 68623, "imdb_id": "tt0214555", "original_language": "cn", "original_title": "\u7206\u88c2\u5211\u8b66", "overview": "Plainclothes policemen Brian and Mike use an elderly woman's apartment for surveillance, hoping to catch a fugitive gangster. They develop a warm relationship with their hostess, whom they call \"granny.\" Meanwhile, each man develops a romantic relationship: Brian with a strange wandering teenage girl, and Mike with a pregnant woman at the dry cleaning shop. When the gangster returns to his flat, Brian and Mike are forced into an explosive confrontation.", "popularity": 1.805, "poster_path": "/fGx1uDbtqiJnAdsQiMOht87IQfo.jpg", "production_companies": [], "production_countries": [{"iso_3166_1": "HK", "name": "Hong Kong"}], "release_date": "1999-08-05", "revenue": 0, "runtime": 92, "spoken_languages": [{"iso_639_1": "cn", "name": "\u5e7f\u5dde\u8bdd / \u5ee3\u5dde\u8a71"}], "status": "Released", "tagline": "", "title": "Bullets Over Summer", "video": false, "vote_average": 6.7, "vote_count": 6, "keywords": {"keywords": [{"id": 11199, "name": "undercover cop"}, {"id": 18420, "name": "surveillance"}, {"id": 33632, "name": "apartment"}, {"id": 196340, "name": "triads"}]}, "similar": {"page": 1, "results": [{"id": 51876, "video": false, "vote_count": 6911, "vote_average": 7.2, "title": "Limitless", "release_date": "2011-03-08", "original_language": "en", "original_title": "Limitless", "genre_ids": [9648, 878, 53], "backdrop_path": "/9ISArgiVBdNLASKmvflRDMOYYMj.jpg", "adult": false, "overview": "A paranoia-fueled action thriller about an unsuccessful writer whose life is transformed by a top-secret \"smart drug\" that allows him to use 100% of his brain and become a perfect version of himself. His enhanced abilities soon attract shadowy forces that threaten his new life in this darkly comic and provocative film.", "poster_path": "/bQfOFEeXxi51ijQrbQY9qvMtYhZ.jpg", "popularity": 22.32}, {"adult": false, "backdrop_path": "/zWGAnbxjjwY3xFGuOeR26LGbBlG.jpg", "genre_ids": [27, 53], "id": 238636, "original_language": "en", "original_title": "The Purge: Anarchy", "overview": "One night per year, the government sanctions a 12-hour period in which citizens can commit any crime they wish -- including murder -- without fear of punishment or imprisonment. Leo, a sergeant who lost his son, plans a vigilante mission of revenge during the mayhem. However, instead of a death-dealing avenger, he becomes the unexpected protector of four innocent strangers who desperately need his help if they are to survive the night.", "poster_path": "/l1DRl40x2OWUoPP42v8fjKdS1Z3.jpg", "release_date": "2014-07-17", "title": "The Purge: Anarchy", "video": false, "vote_average": 6.6, "vote_count": 4145, "popularity": 36.766}, {"id": 156022, "video": false, "vote_count": 5468, "vote_average": 7.2, "title": "The Equalizer", "release_date": "2014-09-24", "original_language": "en", "original_title": "The Equalizer", "genre_ids": [28, 80, 53], "backdrop_path": "/vbl4ZVqelrrzJ16fdDOq9siWbpi.jpg", "adult": false, "overview": "McCall believes he has put his mysterious past behind him and dedicated himself to beginning a new, quiet life. But when he meets Teri, a young girl under the control of ultra-violent Russian gangsters, he can\u2019t stand idly by \u2013 he has to help her. Armed with hidden skills that allow him to serve vengeance against anyone who would brutalize the helpless, McCall comes out of his self-imposed retirement and finds his desire for justice reawakened. If someone has a problem, if the odds are stacked against them, if they have nowhere else to turn, McCall will help. He is The Equalizer.", "poster_path": "/2eQfjqlvPAxd9aLDs8DvsKLnfed.jpg", "popularity": 39.578}, {"id": 339692, "video": false, "vote_count": 1166, "vote_average": 6.9, "title": "Shot Caller", "release_date": "2017-07-13", "original_language": "en", "original_title": "Shot Caller", "genre_ids": [80, 18, 53], "backdrop_path": "/hehboYLXB3m90x9ybiBsupwuifL.jpg", "adult": false, "overview": "A newly-released prison gangster is forced by the leaders of his gang to orchestrate a major crime with a brutal rival gang on the streets of Southern California.", "poster_path": "/qLmLz2wtyYvmW8Ult3l2ngOnW8v.jpg", "popularity": 22.37}, {"id": 1493, "video": false, "vote_count": 2184, "vote_average": 6.4, "title": "Miss Congeniality", "release_date": "2000-12-14", "original_language": "en", "original_title": "Miss Congeniality", "genre_ids": [28, 35, 80], "backdrop_path": "/p25mxAO1ArY8bgZX6Y7B2r3vo0k.jpg", "adult": false, "overview": "When the local FBI office receives a letter from a terrorist known only as 'The Citizen', it's quickly determined that he's planning his next act at the Miss America beauty pageant. Because tough-as-nails Gracie Hart is the only female Agent at the office, she's chosen to go undercover as the contestant from New Jersey.", "poster_path": "/7ujgPH708pOGvl2Y5IYvXeAGPC2.jpg", "popularity": 20.787}, {"id": 72559, "video": false, "vote_count": 4091, "vote_average": 5.5, "title": "G.I. Joe: Retaliation", "release_date": "2013-03-26", "original_language": "en", "original_title": "G.I. Joe: Retaliation", "genre_ids": [28, 12, 878, 53], "backdrop_path": "/b9OVFl48ZV2oTLzACSwBpNrCUhJ.jpg", "adult": false, "overview": "Framed for crimes against the country, the G.I. Joe team is terminated by Presidential order. This forces the G.I. Joes into not only fighting their mortal enemy Cobra; they are forced to contend with threats from within the government that jeopardize their very existence.", "poster_path": "/iFWxbu2LLtfaWv6D1TSrY11huTe.jpg", "popularity": 23.132}, {"id": 187017, "video": false, "vote_count": 5552, "vote_average": 6.9, "title": "22 Jump Street", "release_date": "2014-06-05", "original_language": "en", "original_title": "22 Jump Street", "genre_ids": [28, 35, 80], "backdrop_path": "/9NmTVqQ9f2ltecPZgXIj4Bk2c6s.jpg", "adult": false, "overview": "After making their way through high school (twice), big changes are in store for officers Schmidt and Jenko when they go deep undercover at a local college. But when Jenko meets a kindred spirit on the football team, and Schmidt infiltrates the bohemian art major scene, they begin to question their partnership. Now they don't have to just crack the case - they have to figure out if they can have a mature relationship. If these two overgrown adolescents can grow from freshmen into real men, college might be the best thing that ever happened to them.", "poster_path": "/gNlV5FhDZ1PjxSv2aqTPS30GEon.jpg", "popularity": 14.014}, {"id": 487558, "video": false, "vote_count": 4020, "vote_average": 7.6, "title": "BlacKkKlansman", "release_date": "2018-07-30", "original_language": "en", "original_title": "BlacKkKlansman", "genre_ids": [80], "backdrop_path": "/wKRrldOtg6HVeGqGLls6iT9XO7I.jpg", "adult": false, "overview": "Colorado Springs, late 1970s. Ron Stallworth, an African American police officer, and Flip Zimmerman, his Jewish colleague, run an undercover operation to infiltrate the Ku Klux Klan.", "poster_path": "/8jxqAvSDoneSKRczaK8v9X5gqBp.jpg", "popularity": 25.597}, {"id": 567, "video": false, "vote_count": 3303, "vote_average": 8.3, "title": "Rear Window", "release_date": "1954-08-01", "original_language": "en", "original_title": "Rear Window", "genre_ids": [18, 9648, 53], "backdrop_path": "/8hknli2ljweYPkdEgl33vtJBf2U.jpg", "adult": false, "overview": "Professional photographer L.B. 'Jeff' Jeffries breaks his leg while getting an action shot at an auto race. Confined to his New York apartment, he spends his time looking out of the rear window observing the neighbors. When he begins to suspect that a man across the courtyard may have murdered his wife, Jeff enlists the help of his high society fashion-consultant girlfriend and his visiting nurse to investigate.", "poster_path": "/oXbT7vlLmZ76kWoHe5XJYuyJUgp.jpg", "popularity": 25.05}, {"id": 64688, "video": false, "vote_count": 7063, "vote_average": 6.8, "title": "21 Jump Street", "release_date": "2012-03-14", "original_language": "en", "original_title": "21 Jump Street", "genre_ids": [28, 35, 80], "backdrop_path": "/uOpFdld7CIifSEoGuRVgWqaeyFs.jpg", "adult": false, "overview": "In high school, Schmidt was a dork and Jenko was the popular jock. After graduation, both of them joined the police force and ended up as partners riding bicycles in the city park. Since they are young and look like high school students, they are assigned to an undercover unit to infiltrate a drug ring that is supplying high school students synthetic drugs.", "poster_path": "/mH6xazzfGdszadd1Xy9JgdZYvn1.jpg", "popularity": 19.177}, {"id": 302401, "video": false, "vote_count": 2712, "vote_average": 7.1, "title": "Snowden", "release_date": "2016-09-15", "original_language": "en", "original_title": "Snowden", "genre_ids": [80, 18, 36, 53], "backdrop_path": "/qzGFm7uF1HExPUAcAPwC3Hzk5WR.jpg", "adult": false, "overview": "CIA employee Edward Snowden leaks thousands of classified documents to the press.", "poster_path": "/mWOotrG1MMKP9iCy2uPepbu27jk.jpg", "popularity": 23.215}, {"id": 146015, "video": false, "vote_count": 598, "vote_average": 6.6, "title": "The Double", "release_date": "2014-04-04", "original_language": "en", "original_title": "The Double", "genre_ids": [18, 53], "backdrop_path": "/gSNqUnQSgYWxsFQ59xH077dW1Zx.jpg", "adult": false, "overview": "An awkward office drone becomes increasingly unhinged after a charismatic and confident look-alike takes a job at his workplace and seduces the woman he desires.", "poster_path": "/hN6bP9XWKHI8JhlZpk8ieF1lcyG.jpg", "popularity": 11.771}, {"adult": false, "backdrop_path": "/j7qWyikT1eKNezNKxqPkkC8lKz8.jpg", "genre_ids": [53], "id": 72784, "original_language": "en", "original_title": "The Loft", "overview": "For five men, the opportunity to share a penthouse in the city -- in which to carry on extramarital affairs -- is a dream come true, until the dead body of an unknown woman turns up. Realizing that her killer must be one of their group, the men are gripped by paranoia as each one suspects another. Friendships are tested, loyalties are questioned, and marriages crumble while fear and suspicion run rampant.", "poster_path": "/9hE6vesQoSREyvJha9z0g5OryHH.jpg", "release_date": "2014-10-14", "title": "The Loft", "video": false, "vote_average": 6.4, "vote_count": 837, "popularity": 19.836}, {"id": 137094, "video": false, "vote_count": 1851, "vote_average": 6.1, "title": "Jack Ryan: Shadow Recruit", "release_date": "2014-01-15", "original_language": "en", "original_title": "Jack Ryan: Shadow Recruit", "genre_ids": [28, 18, 53], "backdrop_path": "/7WURHOyx05AWAoNcBGp72clvB49.jpg", "adult": false, "overview": "Jack Ryan, as a young covert CIA analyst, uncovers a Russian plot to crash the U.S. economy with a terrorist attack.", "poster_path": "/jBibISmRBUO35p0Picv0nOo33sc.jpg", "popularity": 19.704}, {"id": 466081, "video": false, "vote_count": 68, "vote_average": 6.4, "title": "The Informer", "release_date": "2019-08-30", "original_language": "en", "original_title": "The Informer", "genre_ids": [80, 18, 53], "backdrop_path": "/98sIdYdvnh68Va1JLjcyAuFGZO5.jpg", "adult": false, "overview": "In New York, former convict Pete Koslow, related to the Polish mafia, must deal with both Klimek the General, his ruthless boss, and the twisted ambitions of two federal agents, as he tries to survive and protect the lives of his loved ones\u2026", "poster_path": "/pbGveUC8mk0QRkdXpERPLbMFnrg.jpg", "popularity": 22.567}, {"id": 1422, "video": false, "vote_count": 8816, "vote_average": 8.1, "title": "The Departed", "release_date": "2006-10-05", "original_language": "en", "original_title": "The Departed", "genre_ids": [80, 18, 53], "backdrop_path": "/8Od5zV7Q7zNOX0y9tyNgpTmoiGA.jpg", "adult": false, "overview": "To take down South Boston's Irish Mafia, the police send in one of their own to infiltrate the underworld, not realizing the syndicate has done likewise. While an undercover cop curries favor with the mob kingpin, a career criminal rises through the police ranks. But both sides soon discover there's a mole among them.", "poster_path": "/tGLO9zw5ZtCeyyEWgbYGgsFxC6i.jpg", "popularity": 25.529}, {"id": 2320, "video": false, "vote_count": 457, "vote_average": 6.2, "title": "Executive Decision", "release_date": "1996-03-15", "original_language": "en", "original_title": "Executive Decision", "genre_ids": [28, 12, 18, 53], "backdrop_path": "/bjVntRO9QkAwm1HzTfH1nn1nOpn.jpg", "adult": false, "overview": "Terrorists hijack a 747 inbound to Washington D.C., demanding the the release of their imprisoned leader. Intelligence expert David Grant (Kurt Russell) suspects another reason and he is soon the reluctant member of a special assault team that is assigned to intercept the plane and hijackers.", "poster_path": "/wmgkFuEr8bHRAgs1HS5U46Rzo0I.jpg", "popularity": 11.941}, {"id": 12531, "video": false, "vote_count": 91, "vote_average": 6.9, "title": "The Apartment", "release_date": "1996-07-27", "original_language": "fr", "original_title": "L'Appartement", "genre_ids": [18, 9648, 10749], "backdrop_path": "/64qyT8m4JQ6YODvXxtbHgKmXBX7.jpg", "adult": false, "overview": "A stylish suspense thriller that confounds the audience while presenting them with an extraordinary and elusive mystery. Max is a former playboy who has decided to settle down by marrying his current love, Muriel. However, during a business trip, Max catches a glimpse of the great lost love of his life, reviving his wanderlust and sending him off on a chase of the elusive Lisa, whom he had overheard suggesting to a friend that her lover, Daniel, had killed someone for her. Soon, Max is trying to unravel the mystery behind the suspicious death of Daniel's wife, which he hopes will lead him closer to Lisa.", "poster_path": "/1sqrQdQTn8jKLhUcPKfRVj639zA.jpg", "popularity": 19.17}, {"adult": false, "backdrop_path": "/a8xpxCnvqKyshdrDNFGs6oy4r8N.jpg", "genre_ids": [18, 10749], "id": 1278, "original_language": "en", "original_title": "The Dreamers", "overview": "A young American studying in Paris in 1968 strikes up a friendship with a French brother and sister. Set against the background of the '68 Paris student riots.", "poster_path": "/7ABcfmXQZeCXl5sNrDuLS1URMPN.jpg", "release_date": "2003-09-01", "title": "The Dreamers", "video": false, "vote_average": 7.2, "vote_count": 1671, "popularity": 15.849}, {"id": 592, "video": false, "vote_count": 754, "vote_average": 7.6, "title": "The Conversation", "release_date": "1974-04-07", "original_language": "en", "original_title": "The Conversation", "genre_ids": [80, 18, 9648], "backdrop_path": "/u8dMKtP9QShwJoMyu9tdOhashyn.jpg", "adult": false, "overview": "Surveillance expert Harry Caul is hired by a mysterious client's brusque aide to tail a young couple. Tracking the pair through San Francisco's Union Square, Caul and his associate Stan manage to record a cryptic conversation between them. Tormented by memories of a previous case that ended badly, Caul becomes obsessed with the resulting tape, trying to determine if the couple are in danger.", "poster_path": "/dhgW1uGaRj8vIgq54VnCP96X7Sv.jpg", "popularity": 13.194}], "total_pages": 16, "total_results": 304}, "recommendations": {"page": 1, "results": [{"adult": false, "backdrop_path": "/tQzRuVgbPltliaobwViN6OjvuY.jpg", "genre_ids": [18, 28], "id": 97531, "original_language": "ko", "original_title": "\ud53c\ub3c4 \ub208\ubb3c\ub3c4 \uc5c6\uc774", "overview": "Gyung-sun is a washed-up cab driver who has been trying to go straight after years in trouble with the law after being a big-time safecracker. Soo-jin wants to be a famous singer, but lives the life of a trophy girlfriend to her vicious gangster boyfriend. An unlikely situation cause these two different women to meet where they plan a daring solution to both their problems that will escalate and threaten the wrath of many powerful and corrupt people around them.", "poster_path": "/iAZr36bjj61baeaJDEgRK0XwR2y.jpg", "release_date": "2002-03-01", "title": "No Blood No Tears", "video": false, "vote_average": 6.1, "vote_count": 13, "popularity": 2.682}, {"adult": false, "backdrop_path": "/7ehbbcZBZJxkuB53tp3pv4NNXRS.jpg", "genre_ids": [14, 28, 35, 53], "id": 13970, "original_language": "ko", "original_title": "\uc544\ub77c\ud55c \uc7a5\ud48d \ub300\uc791\uc804", "overview": "Sang-hwan became a cop in order to help the downtrodden, but he doesn't get much respect. All that changes when he meets the Seven Masters.", "poster_path": "/98c0nyZOLW9xdGJwvkzWQMiAgBT.jpg", "release_date": "2004-04-30", "title": "Arahan", "video": false, "vote_average": 6.1, "vote_count": 53, "popularity": 6.292}, {"adult": false, "backdrop_path": "/5iAtGSBYYY4aYbIlGjZdBnUsD08.jpg", "genre_ids": [28, 80], "id": 18816, "original_language": "cn", "original_title": "\u731b\u9f99", "overview": "A team of Interpol agents arrive in the city to testify against a local crime lord. However on the way to court the vehicle carrying the Triad boss is attacked and the crime lord snatched, not by his own people but by another foe.", "poster_path": "/bG5psOQnLBiNR6HpGjSTEglWn6l.jpg", "release_date": "2005-11-10", "title": "Dragon Squad", "video": false, "vote_average": 5.6, "vote_count": 23, "popularity": 4.202}], "total_pages": 1, "total_results": 3}, "credits": {"cast": [{"cast_id": 2, "character": "Brian", "credit_id": "52fe479bc3a368484e0d03eb", "gender": 2, "id": 78875, "name": "Louis Koo", "order": 0, "profile_path": "/xFxfAv0NgSbR7INoIdcDMQiRJTX.jpg"}, {"cast_id": 3, "character": "Mike", "credit_id": "52fe479bc3a368484e0d03ef", "gender": 2, "id": 63584, "name": "Francis Ng", "order": 1, "profile_path": "/ktTYUIORqrKQxGYAHalZAOj73u3.jpg"}, {"cast_id": 4, "character": "Stone", "credit_id": "52fe479bc3a368484e0d03f3", "gender": 2, "id": 123654, "name": "Yiu-Cheung Lai", "order": 2, "profile_path": "/a6kXWE1Qfa7h9zT98I5fGFH1koz.jpg"}, {"cast_id": 5, "character": "Jennifer", "credit_id": "52fe479bc3a368484e0d03f7", "gender": 0, "id": 1178884, "name": "Stephanie Lam Mei-Jing", "order": 3, "profile_path": null}, {"cast_id": 7, "character": "Yen", "credit_id": "52fe479bc3a368484e0d03ff", "gender": 0, "id": 1178885, "name": "Michelle Saram", "order": 5, "profile_path": null}, {"cast_id": 16, "character": "", "credit_id": "54874392c3a3685807000131", "gender": 2, "id": 586484, "name": "Tony Ho", "order": 6, "profile_path": "/7BBUPwjEUkg2Yea58p05AP5DzKg.jpg"}, {"cast_id": 19, "character": "Granny", "credit_id": "5643dc149251410a4c003712", "gender": 1, "id": 548053, "name": "Helena Law Lan", "order": 7, "profile_path": "/y5xLHBC5XAvVu2UNqECheZE8Ex8.jpg"}, {"cast_id": 20, "character": "Suspect under surveilliance", "credit_id": "59869af3925141059d003965", "gender": 2, "id": 240155, "name": "Lo Meng", "order": 8, "profile_path": "/gNedk2BfzTARZcP15y2w4alXyUs.jpg"}], "crew": [{"credit_id": "52fe479bc3a368484e0d03e7", "department": "Directing", "gender": 2, "id": 63571, "job": "Director", "name": "Wilson Yip", "profile_path": "/wJHHLPt6oVvurN9Sk4ff1MFh7z6.jpg"}, {"credit_id": "52fe479bc3a368484e0d0411", "department": "Writing", "gender": 2, "id": 63571, "job": "Writer", "name": "Wilson Yip", "profile_path": "/wJHHLPt6oVvurN9Sk4ff1MFh7z6.jpg"}, {"credit_id": "52fe479bc3a368484e0d042f", "department": "Editing", "gender": 2, "id": 63574, "job": "Editor", "name": "Nick Cheung", "profile_path": null}, {"credit_id": "52fe479bc3a368484e0d0423", "department": "Sound", "gender": 2, "id": 63578, "job": "Original Music Composer", "name": "Tommy Wai", "profile_path": null}, {"credit_id": "52fe479bc3a368484e0d0405", "department": "Writing", "gender": 0, "id": 72735, "job": "Writer", "name": "Ben Cheung", "profile_path": null}, {"credit_id": "52fe479bc3a368484e0d040b", "department": "Writing", "gender": 2, "id": 92829, "job": "Writer", "name": "Matt Chow", "profile_path": null}, {"credit_id": "5490f7bec3a368465a00077b", "department": "Production", "gender": 2, "id": 588140, "job": "Producer", "name": "Joe Ma", "profile_path": "/po61pgkFNTgqfqTvUNYK7m4B6LT.jpg"}, {"credit_id": "5a11f318c3a368628f0567c0", "department": "Camera", "gender": 2, "id": 592152, "job": "Director of Photography", "name": "Lam Wah-Chuen", "profile_path": null}, {"credit_id": "52fe479bc3a368484e0d0417", "department": "Production", "gender": 0, "id": 1178886, "job": "Producer", "name": "Kuo Hsing Li", "profile_path": null}]}}