{"adult": false, "backdrop_path": null, "belongs_to_collection": null, "budget": 0, "genres": [{"id": 10770, "name": "TV Movie"}, {"id": 18, "name": "Drama"}], "homepage": null, "id": 69560, "imdb_id": "tt0119031", "original_language": "en", "original_title": "Dying to Belong", "overview": "When a girls friend is killed by a college hazing, she is the only one who can find out the truth.", "popularity": 2.786, "poster_path": "/r1hp0txnRXhUVCyC52RiTZ0yGNx.jpg", "production_companies": [{"id": 4056, "logo_path": null, "name": "Hallmark Entertainment", "origin_country": "US"}, {"id": 19237, "logo_path": null, "name": "Von Zerneck Sertner Films", "origin_country": ""}], "production_countries": [{"iso_3166_1": "US", "name": "United States of America"}], "release_date": "1997-02-24", "revenue": 0, "runtime": 120, "spoken_languages": [{"iso_639_1": "en", "name": "English"}], "status": "Released", "tagline": "Everything Seemed Perfect...", "title": "Dying to Belong", "video": false, "vote_average": 6.1, "vote_count": 8, "keywords": {"keywords": [{"id": 1253, "name": "roommate"}, {"id": 3616, "name": "college"}, {"id": 5340, "name": "investigation"}, {"id": 5360, "name": "degradation"}, {"id": 10058, "name": "sorority"}, {"id": 10519, "name": "freshman"}, {"id": 13160, "name": "university"}, {"id": 33740, "name": "humiliation"}, {"id": 34079, "name": "death"}, {"id": 41396, "name": "task"}, {"id": 156478, "name": "boyfriend"}, {"id": 187327, "name": "pledge"}]}, "similar": {"page": 1, "results": [{"id": 325133, "video": false, "vote_count": 3097, "vote_average": 5.7, "title": "Neighbors 2: Sorority Rising", "release_date": "2016-05-04", "original_language": "en", "original_title": "Neighbors 2: Sorority Rising", "genre_ids": [35], "backdrop_path": "/8HuO1RMDI3prfWDkF7t1y8EhLVO.jpg", "adult": false, "overview": "A sorority moves in next door to the home of Mac and Kelly Radner who have a young child. The Radner's enlist their former nemeses from the fraternity to help battle the raucous sisters.", "poster_path": "/bWUeJHbKIyT306WtJFRHoSzX9nk.jpg", "popularity": 17.21}, {"adult": false, "backdrop_path": "/ePqwTIoJeKJwShMABMst5duBcw9.jpg", "genre_ids": [35, 10402, 10749], "id": 114150, "original_language": "en", "original_title": "Pitch Perfect", "overview": "College student Beca knows she does not want to be part of a clique, but that's exactly where she finds herself after arriving at her new school. Thrust in among mean gals, nice gals and just plain weird gals, Beca finds that the only thing they have in common is how well they sing together. She takes the women of the group out of their comfort zone of traditional arrangements and into a world of amazing harmonic combinations in a fight to the top of college music competitions.", "poster_path": "/cLUMPdwCV0Dxd3P1ZkCXe7bVImI.jpg", "release_date": "2012-09-28", "title": "Pitch Perfect", "video": false, "vote_average": 7.3, "vote_count": 4622, "popularity": 16.878}, {"adult": false, "backdrop_path": "/rPfyX0pkmn8Ea4gh3DfsmzFUf05.jpg", "genre_ids": [18, 27, 80], "id": 74997, "original_language": "en", "original_title": "The Human Centipede 2 (Full Sequence)", "overview": "Inspired by the fictional Dr. Heiter, disturbed loner Martin dreams of creating a 12-person centipede and sets out to realize his sick fantasy.", "poster_path": "/kFtAdkCO0vXN2RWu2oMcR9GZ9Hi.jpg", "release_date": "2011-10-06", "title": "The Human Centipede 2 (Full Sequence)", "video": false, "vote_average": 4.5, "vote_count": 674, "popularity": 14.216}, {"id": 75780, "video": false, "vote_count": 4451, "vote_average": 6.4, "title": "Jack Reacher", "release_date": "2012-12-20", "original_language": "en", "original_title": "Jack Reacher", "genre_ids": [28, 80, 18, 53], "backdrop_path": "/ezXodpP429qK0Av89pVNlaXWJkQ.jpg", "adult": false, "overview": "When a gunman takes five lives with six shots, all evidence points to the suspect in custody. On interrogation, the suspect offers up a single note: \"Get Jack Reacher!\" So begins an extraordinary chase for the truth, pitting Jack Reacher against an unexpected enemy, with a skill for violence and a secret to keep.", "poster_path": "/mt0ELw83HIRgaKaDzhsDcIi0RnW.jpg", "popularity": 15.945}, {"adult": false, "backdrop_path": "/hm4vpIhBW75bTIDTurq2d4rLZy1.jpg", "genre_ids": [53, 18, 27], "id": 3511, "original_language": "en", "original_title": "The Broken", "overview": "The life of a successful radiologist spirals out of control when she sees the spitting image of herself driving down a London street. While attempting to uncover who the imposter could be, she stumbles into a terrifying mystery that her family and closest friends are somehow involved in, leaving her with no one to trust.", "poster_path": "/nGTUsccLUZhF9Bb5fjvL7KrogvC.jpg", "release_date": "2008-01-18", "title": "The Broken", "video": false, "vote_average": 5.5, "vote_count": 113, "popularity": 10.122}, {"adult": false, "backdrop_path": "/2J283YNxKhxAqHeVegUJ5mzLfGb.jpg", "genre_ids": [80, 18, 9648], "id": 392044, "original_language": "en", "original_title": "Murder on the Orient Express", "overview": "Genius Belgian detective Hercule Poirot investigates the murder of an American tycoon aboard the Orient Express train.", "poster_path": "/iBlfxlw8qwtUS0R8YjIU7JtM6LM.jpg", "release_date": "2017-11-03", "title": "Murder on the Orient Express", "video": false, "vote_average": 6.7, "vote_count": 6050, "popularity": 27.701}, {"adult": false, "backdrop_path": "/bRGtZsVj2Qq8r5CCsNYmQUPF4z4.jpg", "genre_ids": [80, 18, 878, 53], "id": 10559, "original_language": "en", "original_title": "Frequency", "overview": "When a rare phenomenon gives police officer John Sullivan the chance to speak to his father, 30 years in the past, he takes the opportunity to prevent his dad's tragic death.  After his actions inadvertently give rise to a series of brutal murders he and his father must find a way to fix the consequences of altering time.", "poster_path": "/n0QAAZmIaPPIShVkk8eiKwfGV9.jpg", "release_date": "2000-04-28", "title": "Frequency", "video": false, "vote_average": 7.1, "vote_count": 897, "popularity": 14.026}, {"id": 1427, "video": false, "vote_count": 2511, "vote_average": 7.2, "title": "Perfume: The Story of a Murderer", "release_date": "2006-09-13", "original_language": "en", "original_title": "Perfume: The Story of a Murderer", "genre_ids": [80, 18, 14], "backdrop_path": "/3i8bJa5yvLZW2k4sg2Cd1Yy0a1x.jpg", "adult": false, "overview": "Jean-Baptiste Grenouille, born in the stench of 18th century Paris, develops a superior olfactory sense, which he uses to create the world's finest perfumes. However, his work takes a dark turn as he tries to preserve scents in the search for the ultimate perfume.", "poster_path": "/zC9JHS6NlkJKPYFxOOqBl7fQCjT.jpg", "popularity": 20.263}, {"id": 395834, "video": false, "vote_count": 2755, "vote_average": 7.4, "title": "Wind River", "release_date": "2017-08-03", "original_language": "en", "original_title": "Wind River", "genre_ids": [80, 18, 9648, 53], "backdrop_path": "/6B8e784decj9vtKuNjbl9Fes2aZ.jpg", "adult": false, "overview": "An FBI agent teams with the town's veteran game tracker to investigate a murder that occurred on a Native American reservation.", "poster_path": "/pySivdR845Hom4u4T2WNkJxe6Ad.jpg", "popularity": 16.931}, {"adult": false, "backdrop_path": "/rH6NsvJg5hYyRigUZhOWDiahUPV.jpg", "genre_ids": [27, 53], "id": 9877, "original_language": "en", "original_title": "Urban Legend", "overview": "There's a campus killer on the loose who's making urban legends, like the one about eating pop rocks and soda at the same time will make your stomach explode and the one about a psycho with an axe stepping into the backseat of your car at the gas station when not looking, into reality.", "poster_path": "/2oIf0ibr0zlhuhgbOwFSHimh7P6.jpg", "release_date": "1998-09-25", "title": "Urban Legend", "video": false, "vote_average": 5.7, "vote_count": 633, "popularity": 10.225}, {"id": 311667, "video": false, "vote_count": 222, "vote_average": 6.1, "title": "Manhattan Night", "release_date": "2016-05-20", "original_language": "en", "original_title": "Manhattan Night", "genre_ids": [18, 9648, 53], "backdrop_path": "/7lsJgVw4mGHU69ZEQlAFiL1Qee0.jpg", "adult": false, "overview": "Porter Wren is a Manhattan tabloid writer with an appetite for scandal. On the beat he sells murder, tragedy, and anything that passes for the truth. At home, he is a dedicated husband and father. But when Caroline, a seductive stranger asks him to dig into the unsolved murder of her filmmaker husband Simon, he is drawn into a very nasty case of sexual obsession and blackmail--one that threatens his job, his marriage, and his life.", "poster_path": "/s8VsHs12GKX8uKdjtuoUakYAEbQ.jpg", "popularity": 10.604}, {"adult": false, "backdrop_path": "/4UIjazRJV5Q2D7gYg9NS1BGiFdU.jpg", "genre_ids": [80, 18, 53, 9648], "id": 1073, "original_language": "en", "original_title": "Arlington Road", "overview": "Threats from sinister foreign nationals aren't the only thing to fear. Bedraggled college professor Michael Faraday has been vexed (and increasingly paranoid) since his wife's accidental death in a botched FBI operation. But all that takes a backseat when a seemingly all-American couple set up house next door.", "poster_path": "/jMwDRI4qu5FrSAzf7BfNveuRVf9.jpg", "release_date": "1999-03-19", "title": "Arlington Road", "video": false, "vote_average": 7.1, "vote_count": 521, "popularity": 13.099}, {"id": 390051, "video": false, "vote_count": 419, "vote_average": 5.5, "title": "Aftermath", "release_date": "2017-02-28", "original_language": "en", "original_title": "Aftermath", "genre_ids": [18, 53], "backdrop_path": "/9HcXzYUnnwyFu9WSEM2IOxd2VhC.jpg", "adult": false, "overview": "A fatal plane crash changes the lives of Roman and Jake forever. Roman loses his wife and daughter in the accident, while Jake loses his mind\u2014as he happens to be the air traffic controller who failed to avert the nightmare. Rage and revenge engulfs Roman and Jake finds himself swamped with guilt and regret.", "poster_path": "/25oWTCGqIik4gUTMidx3L8DI4Bt.jpg", "popularity": 12.248}, {"id": 193893, "video": false, "vote_count": 1816, "vote_average": 6.3, "title": "Let's Be Cops", "release_date": "2014-08-13", "original_language": "en", "original_title": "Let's Be Cops", "genre_ids": [35], "backdrop_path": "/43GrPpAeBUOvOCZ8L1A3MLuDnkc.jpg", "adult": false, "overview": "It's the ultimate buddy cop movie except for one thing: they're not cops.  When two struggling pals dress as police officers for a costume party, they become neighborhood sensations.  But when these newly-minted \u201cheroes\u201d get tangled in a real life web of mobsters and dirty detectives, they must put their fake badges on the line.", "poster_path": "/ayYibwWAA9NxJPaD9GSybPShtvL.jpg", "popularity": 21.654}, {"id": 82507, "video": false, "vote_count": 3233, "vote_average": 6.8, "title": "Sinister", "release_date": "2012-03-29", "original_language": "en", "original_title": "Sinister", "genre_ids": [27, 9648, 53], "backdrop_path": "/lAdRfK0Clun517bq5V0meoIx7SG.jpg", "adult": false, "overview": "Found footage helps a true-crime novelist realize how and why a family was murdered in his new home, though his discoveries put his entire family in the path of a supernatural entity.", "poster_path": "/hrRYY7FcRc46Ue7h9jcKiW1xqJ3.jpg", "popularity": 11.548}, {"adult": false, "backdrop_path": "/zWGAnbxjjwY3xFGuOeR26LGbBlG.jpg", "genre_ids": [27, 53], "id": 238636, "original_language": "en", "original_title": "The Purge: Anarchy", "overview": "One night per year, the government sanctions a 12-hour period in which citizens can commit any crime they wish -- including murder -- without fear of punishment or imprisonment. Leo, a sergeant who lost his son, plans a vigilante mission of revenge during the mayhem. However, instead of a death-dealing avenger, he becomes the unexpected protector of four innocent strangers who desperately need his help if they are to survive the night.", "poster_path": "/l1DRl40x2OWUoPP42v8fjKdS1Z3.jpg", "release_date": "2014-07-17", "title": "The Purge: Anarchy", "video": false, "vote_average": 6.6, "vote_count": 4145, "popularity": 36.766}, {"id": 473149, "video": false, "vote_count": 195, "vote_average": 5.9, "title": "Traffik", "release_date": "2018-04-20", "original_language": "en", "original_title": "Traffik", "genre_ids": [27, 53], "backdrop_path": "/wbk9VvJ8lkUF0ElpfRm3dFIzMJf.jpg", "adult": false, "overview": "A couple off for a romantic weekend in the mountains are accosted by a biker gang. Alone in the mountains, Brea and John must defend themselves against the gang, who will stop at nothing to protect their secrets.", "poster_path": "/e2Z466e9402RFP6wxRMfXYYiJHA.jpg", "popularity": 31.63}, {"adult": false, "backdrop_path": "/txR74Uy6sYbUv4HQURQXNF8LXTf.jpg", "genre_ids": [35], "id": 8277, "original_language": "en", "original_title": "American Pie Presents: Beta House", "overview": "Erik, Ryan, and Cooze start college and pledge the Beta House fraternity, presided over by none other than legendary Dwight Stifler. But chaos ensues when a fraternity of geeks threatens to stop the debauchery and the Betas have to make a stand for their right to party.", "poster_path": "/xJeYprcFqBfov6dUpjJIxDeaZJr.jpg", "release_date": "2007-12-10", "title": "American Pie Presents: Beta House", "video": false, "vote_average": 5.5, "vote_count": 1087, "popularity": 16.688}, {"id": 440021, "video": false, "vote_count": 3799, "vote_average": 6.6, "title": "Happy Death Day", "release_date": "2017-10-12", "original_language": "en", "original_title": "Happy Death Day", "genre_ids": [27, 9648, 53], "backdrop_path": "/9bjHAkyi3aRRnfrIGhHPu7RATPR.jpg", "adult": false, "overview": "Caught in a bizarre and terrifying time warp, college student Tree finds herself repeatedly reliving the day of her murder, ultimately realizing that she must identify the killer and the reason for her death before her chances of survival run out.", "poster_path": "/cTaEIUYTt52ooq9quVbAQ7NpGwo.jpg", "popularity": 23.642}, {"id": 512196, "video": false, "vote_count": 1565, "vote_average": 6.2, "title": "Happy Death Day 2U", "release_date": "2019-02-13", "original_language": "en", "original_title": "Happy Death Day 2U", "genre_ids": [35, 27, 878], "backdrop_path": "/3KdQh3EsjXBSojVydtBQEh5TdAG.jpg", "adult": false, "overview": "Collegian Tree Gelbman wakes up in horror to learn that she's stuck in a parallel universe. Her boyfriend Carter is now with someone else, and her friends and fellow students seem to be completely different versions of themselves. When Tree discovers that Carter's roommate has been altering time, she finds herself once again the target of a masked killer. When the psychopath starts to go after her inner circle, Tree soon realizes that she must die over and over again to save everyone.", "poster_path": "/4tdnePOkOOzwuGPEOAHp8UA4vqx.jpg", "popularity": 23.857}], "total_pages": 18, "total_results": 349}, "recommendations": {"page": 1, "results": [{"id": 44880, "video": false, "vote_count": 9, "vote_average": 4.9, "title": "See Jane Date", "release_date": "2003-08-16", "original_language": "en", "original_title": "See Jane Date", "genre_ids": [35, 10749, 10770], "backdrop_path": "/vg3hTnEsUYyWhBruCtb8oc0FMtc.jpg", "adult": false, "overview": "Jane Grant has just received an invitation to her younger cousin's wedding, and it's engraved with two of the most dreaded words a perpetually available sing can encounter: \"plus guest.\" Come wedding day, Jane had better deliver. After all, she's already told everyone, including her meddlesome Aunt Ina and now-famous high school nemesis Natasha Nutley, that she's in a serious relationship. Now Jane has two months to find a guy to fit the lie, complete the guest list, and save face. If the series of miserable set-ups orchestrated by her well-meaning best friends Eloise and Amanda are any indication, Jane's in for big trouble. From the first date to blind date, from double date to last date, the match game is on - and with millions of men to pick from, Jane is sure to find Mr. Right, right?", "poster_path": "/mzQve2GHyCYvhqMlw6A1hnnezWR.jpg", "popularity": 5.032}, {"adult": false, "backdrop_path": "/5aWGZdiUMaLHliGwrllu4zzYcxM.jpg", "genre_ids": [18, 9648, 53], "id": 61420, "original_language": "en", "original_title": "The 19th Wife", "overview": "Fundamentalist sect member BeckyLyn is accused of killing her husband. Queenie, another wife in the polygamist sect, doesn't believe BeckyLyn is capable of such violence and desperate to prove her innocence reaches out to her excommunicated son Jordan for help in freeing his mother.", "poster_path": "/93MWRNScR11y0hBu5W5DTYON2TL.jpg", "release_date": "2010-09-13", "title": "The 19th Wife", "video": false, "vote_average": 4.5, "vote_count": 6, "popularity": 2.749}, {"adult": false, "backdrop_path": "/jb9ePBHLDUk5D5evG1MvWbTEbFK.jpg", "genre_ids": [18, 9648, 53, 10770], "id": 224916, "original_language": "en", "original_title": "The Good Mother", "overview": "After her best friend dies, a teen discovers that the girl's mother deliberately made her sick.", "poster_path": "/a33NbPYjw411TMC9xQ70B493t7T.jpg", "release_date": "2013-06-07", "title": "The Good Mother", "video": false, "vote_average": 5.3, "vote_count": 10, "popularity": 3.857}, {"id": 33314, "video": false, "vote_count": 17, "vote_average": 5.9, "title": "Nora Roberts' Midnight Bayou", "release_date": "2009-03-28", "original_language": "en", "original_title": "Nora Roberts' Midnight Bayou", "genre_ids": [18, 10749, 10770], "backdrop_path": "/eZD2AROswA7X7dAixTQEBYLlR25.jpg", "adult": false, "overview": "The new owner of a supposedly haunted New Orleans plantation manor uncovers a shocking secret that has been hidden for over 100 years.", "poster_path": "/xbFoRAGuxMk1cYGGz7iBfrDhGXm.jpg", "popularity": 4.575}], "total_pages": 1, "total_results": 4}, "credits": {"cast": [{"cast_id": 2, "character": "Lisa Connors", "credit_id": "52fe47cdc3a368484e0da511", "gender": 1, "id": 448, "name": "Hilary Swank", "order": 0, "profile_path": "/bX25sJZyxpOpCj4YvjuvVL2oZAb.jpg"}, {"cast_id": 3, "character": "Drea Davenport", "credit_id": "52fe47cdc3a368484e0da515", "gender": 1, "id": 49001, "name": "Sarah Chalke", "order": 1, "profile_path": "/ycwiu89cpjqCtSNC5FjbJggjj5R.jpg"}, {"cast_id": 4, "character": "Shelby Blake", "credit_id": "5450fb3d0e0a2642c20014b3", "gender": 1, "id": 265863, "name": "Jenna von Oy", "order": 2, "profile_path": "/okxkYRwM7qaDRovK4PEQMhd1dp5.jpg"}, {"cast_id": 5, "character": "Shannon", "credit_id": "5450fb4cc3a368023c0043eb", "gender": 1, "id": 18657, "name": "Laurel Holloman", "order": 3, "profile_path": "/y9zcbdvU5iBAkEXxUF5SMTFUR3d.jpg"}, {"cast_id": 7, "character": "Dean Curtis", "credit_id": "54525a7b0e0a262d46004714", "gender": 1, "id": 70241, "name": "Jennifer Warren", "order": 4, "profile_path": "/uX51ZwPiHVIc0nZfAwEfZIwVknf.jpg"}, {"cast_id": 8, "character": "Carl Ridgeley (as GregAlan Williams)", "credit_id": "54525a8ec3a368023c0069f9", "gender": 2, "id": 37937, "name": "Gregory Alan Williams", "order": 5, "profile_path": "/3IM9qtI4c4zgraPNtRI3kCPivAo.jpg"}, {"cast_id": 9, "character": "Kim Lessing", "credit_id": "58f0c88992514125b801172d", "gender": 1, "id": 12547, "name": "Tracy Middendorf", "order": 6, "profile_path": "/4B4MJMiLM3bDsLbkIQOPwmCOGxf.jpg"}, {"cast_id": 10, "character": "Gwen Connors", "credit_id": "58f0c8ea92514125a5010aaa", "gender": 1, "id": 108213, "name": "Isabella Hofmann", "order": 7, "profile_path": "/lqCEokh9id0n2HJwxhFU6F2nZYw.jpg"}, {"cast_id": 11, "character": "Steven Tyler", "credit_id": "58f0c94bc3a3686b21010f07", "gender": 2, "id": 19184, "name": "Mark-Paul Gosselaar", "order": 8, "profile_path": "/y5GHzu45UsMzIEOUeGM4jIurFr7.jpg"}, {"cast_id": 12, "character": "Terry", "credit_id": "58f0c97892514125c601137f", "gender": 1, "id": 1757855, "name": "Amanda Wilmshurst", "order": 9, "profile_path": "/At6Wo3wZS7QtlAdYIleW1QL1AYI.jpg"}, {"cast_id": 13, "character": "Sergeant Sands", "credit_id": "58f0c9b792514125b1010997", "gender": 2, "id": 7144, "name": "Michael Flynn", "order": 10, "profile_path": "/wKrYz7dO9dEbJBIVHTiNdzib8FD.jpg"}, {"cast_id": 14, "character": "Paige Tashman", "credit_id": "58f0c9fc92514125b10109e6", "gender": 0, "id": 222492, "name": "Melissa Pace", "order": 11, "profile_path": null}], "crew": [{"credit_id": "58f0cbacc3a3686b5d010e8b", "department": "Sound", "gender": 0, "id": 58289, "job": "Original Music Composer", "name": "Michael Tavera", "profile_path": null}, {"credit_id": "52fe47cdc3a368484e0da50d", "department": "Directing", "gender": 2, "id": 83467, "job": "Director", "name": "William A. Graham", "profile_path": null}, {"credit_id": "5450fb66c3a368023c0043ef", "department": "Writing", "gender": 2, "id": 132578, "job": "Writer", "name": "Ron McGee", "profile_path": null}, {"credit_id": "58f0cdb3c3a3686b4d0114ec", "department": "Sound", "gender": 2, "id": 137123, "job": "Sound Editor", "name": "Bob Costanza", "profile_path": null}, {"credit_id": "58f0cb3a92514125c601157c", "department": "Production", "gender": 0, "id": 544351, "job": "Producer", "name": "Randy Sutter", "profile_path": null}, {"credit_id": "58f0caefc3a3686b4d01122d", "department": "Production", "gender": 2, "id": 1185062, "job": "Producer", "name": "Gregory Prange", "profile_path": null}, {"credit_id": "58f0cc09c3a3686b5d010ee6", "department": "Editing", "gender": 0, "id": 1325041, "job": "Editor", "name": "Scott Powell", "profile_path": null}, {"credit_id": "58f0cd44c3a3686b9f0118db", "department": "Art", "gender": 0, "id": 1341333, "job": "Production Design", "name": "Roger Crandall", "profile_path": null}]}}