{"adult": false, "backdrop_path": null, "belongs_to_collection": null, "budget": 0, "genres": [{"id": 53, "name": "Thriller"}], "homepage": null, "id": 70302, "imdb_id": "tt0107179", "original_language": "en", "original_title": "I Love a Man in Uniform", "overview": "Henry Adler lives in Ontario by himself, regularly visits his gruff and critical father, and works in a bank; he's also an actor. He finds new purpose in life when he's cast as a cop in a realistic TV show. He gets into the part, borrowing the uniform from wardrobe, and walking around the city streets. Soon he's talking to bank customers as if he's a cop; this gets him in trouble with his boss, but Henry doesn't care. He falls for one of the actresses, Charlie, and they practice together. Henry's quirks and his intensity creep her out, though, and she breaks off all contact. He's desolate. Things come to a head when one of LA's finest mistakes Henry for a real cop.", "popularity": 2.381, "poster_path": "/46yJZgRcq85hG3ANUkDQUt1aX8U.jpg", "production_companies": [], "production_countries": [{"iso_3166_1": "CA", "name": "Canada"}], "release_date": "1993-09-10", "revenue": 93623, "runtime": 99, "spoken_languages": [{"iso_639_1": "en", "name": "English"}], "status": "Released", "tagline": "", "title": "I Love a Man in Uniform", "video": false, "vote_average": 7.3, "vote_count": 3, "keywords": {"keywords": []}, "similar": {"page": 1, "results": [{"adult": false, "backdrop_path": "/7RRuRcGuWkZGuRyYugfXn0Fgrrr.jpg", "genre_ids": [28, 80, 18, 53], "id": 949, "original_language": "en", "original_title": "Heat", "overview": "Obsessive master thief, Neil McCauley leads a top-notch crew on various daring heists throughout Los Angeles while determined detective, Vincent Hanna pursues him without rest. Each man recognizes and respects the ability and the dedication of the other even though they are aware their cat-and-mouse game may end in violence.", "poster_path": "/6pmLVffM9jEYK7VqDJqPblMxfEY.jpg", "release_date": "1995-12-15", "title": "Heat", "video": false, "vote_average": 7.8, "vote_count": 3615, "popularity": 21.973}, {"adult": false, "backdrop_path": "/khzRw7ZDE3NIrYpe0RYyB864FPT.jpg", "genre_ids": [80, 28, 53], "id": 189, "original_language": "en", "original_title": "Sin City: A Dame to Kill For", "overview": "Some of Sin City's most hard-boiled citizens cross paths with a few of its more reviled inhabitants.", "poster_path": "/k80qKrJ0qQ6ocVo5N932stNSg6j.jpg", "release_date": "2014-08-20", "title": "Sin City: A Dame to Kill For", "video": false, "vote_average": 6.3, "vote_count": 2422, "popularity": 25.256}, {"adult": false, "backdrop_path": "/4UIjazRJV5Q2D7gYg9NS1BGiFdU.jpg", "genre_ids": [80, 18, 53, 9648], "id": 1073, "original_language": "en", "original_title": "Arlington Road", "overview": "Threats from sinister foreign nationals aren't the only thing to fear. Bedraggled college professor Michael Faraday has been vexed (and increasingly paranoid) since his wife's accidental death in a botched FBI operation. But all that takes a backseat when a seemingly all-American couple set up house next door.", "poster_path": "/jMwDRI4qu5FrSAzf7BfNveuRVf9.jpg", "release_date": "1999-03-19", "title": "Arlington Road", "video": false, "vote_average": 7.1, "vote_count": 521, "popularity": 13.099}, {"adult": false, "backdrop_path": "/3TCPWrxQkfon82xPNtmpweOSVJc.jpg", "genre_ids": [18, 80, 9648, 10749, 53], "id": 12150, "original_language": "en", "original_title": "Sea of Love", "overview": "Seen-it-all New York detective Frank Keller is unsettled - he has done twenty years on the force and could retire, and he hasn't come to terms with his wife leaving him for a colleague. Joining up with an officer from another part of town to investigate a series of murders linked by the lonely hearts columns he finds he is getting seriously and possibly dangerously involved with Helen, one of the main suspects.", "poster_path": "/7DkkTHIX3hUqvsRv5sDmJAkCfKK.jpg", "release_date": "1989-09-15", "title": "Sea of Love", "video": false, "vote_average": 6.7, "vote_count": 290, "popularity": 10.636}, {"id": 1847, "video": false, "vote_count": 259, "vote_average": 7.4, "title": "The Long Goodbye", "release_date": "1973-03-07", "original_language": "en", "original_title": "The Long Goodbye", "genre_ids": [80, 18, 9648, 53], "backdrop_path": "/brm75bRffmi2SlsUmsHUxUVI1Hg.jpg", "adult": false, "overview": "Detective Philip Marlowe tries to help a friend who is accused of murdering his wife.", "poster_path": "/oBhUK54yBJ0aH6u9zCzSV5iV7OP.jpg", "popularity": 9.602}, {"adult": false, "backdrop_path": "/feZlULeOhSRLz23ZXUeDX3Dl2dS.jpg", "genre_ids": [80, 53, 9648], "id": 17494, "original_language": "en", "original_title": "Unlawful Entry", "overview": "After a break-in at their house, a couple gets help from one of the cops that answered their call. He helps them install the security system, and begins dropping by on short notice and unofficial patrol, and spends a lot of time discussing the couple's problems with the wife. The husband begins wondering if they're getting too much help.", "poster_path": "/sKUk1ca6gHaIopi8VqE8GoxJq6J.jpg", "release_date": "1992-06-26", "title": "Unlawful Entry", "video": false, "vote_average": 6.1, "vote_count": 121, "popularity": 10.241}, {"adult": false, "backdrop_path": "/o4psXh7IVD6GFKvBSHjHLzjL2lV.jpg", "genre_ids": [27, 53], "id": 10781, "original_language": "en", "original_title": "The Texas Chainsaw Massacre: The Beginning", "overview": "Chrissie and her friends set out on a road trip for a final fling before one is shipped off to Vietnam. Along the way, bikers harass the foursome and cause an accident that throws Chrissie from the vehicle. The lawman who arrives on the scene kills one of the bikers and brings Chrissie's friends to the Hewitt homestead, where young Leatherface is learning the tools of terror.", "poster_path": "/9elCJIG1TOJ0wew3JVx5ZMkHq5w.jpg", "release_date": "2006-10-06", "title": "The Texas Chainsaw Massacre: The Beginning", "video": false, "vote_average": 6.0, "vote_count": 936, "popularity": 19.211}, {"id": 180, "video": false, "vote_count": 5106, "vote_average": 7.3, "title": "Minority Report", "release_date": "2002-06-20", "original_language": "en", "original_title": "Minority Report", "genre_ids": [28, 9648, 878, 53], "backdrop_path": "/6HbOqP1GUElNLdX8Bx2uP542CIP.jpg", "adult": false, "overview": "John Anderton is a top 'Precrime' cop in the late-21st century, when technology can predict crimes before they're committed. But Anderton becomes the quarry when another investigator targets him for a murder charge.", "poster_path": "/dS5AHLt4DhZpisxryIxKJU6Urxb.jpg", "popularity": 21.222}, {"id": 521, "video": false, "vote_count": 1257, "vote_average": 8.0, "title": "Dial M for Murder", "release_date": "1954-05-29", "original_language": "en", "original_title": "Dial M for Murder", "genre_ids": [80, 18, 9648, 53], "backdrop_path": "/jVMlfESb0TJ29w8CUDDofEprMmn.jpg", "adult": false, "overview": "An ex-tennis pro carries out a plot to have his wife murdered after discovering she is having an affair, and assumes she will soon leave him for the other man anyway. When things go wrong, he improvises a new plan\u2014to frame her for murder instead.", "poster_path": "/xrpK1PyckNWmRxU4kZURfaCyboS.jpg", "popularity": 28.336}, {"id": 458723, "video": false, "vote_count": 3227, "vote_average": 7.0, "title": "Us", "release_date": "2019-03-14", "original_language": "en", "original_title": "Us", "genre_ids": [27, 9648, 53], "backdrop_path": "/18qxSxzAUs7UjZ3dKCkxAOv0yb1.jpg", "adult": false, "overview": "Husband and wife Gabe and Adelaide Wilson take their kids to their beach house expecting to unplug and unwind with friends. But as night descends, their serenity turns to tension and chaos when some shocking visitors arrive uninvited.", "poster_path": "/ux2dU1jQ2ACIMShzB3yP93Udpzc.jpg", "popularity": 32.148}, {"adult": false, "backdrop_path": "/j7qWyikT1eKNezNKxqPkkC8lKz8.jpg", "genre_ids": [53], "id": 72784, "original_language": "en", "original_title": "The Loft", "overview": "For five men, the opportunity to share a penthouse in the city -- in which to carry on extramarital affairs -- is a dream come true, until the dead body of an unknown woman turns up. Realizing that her killer must be one of their group, the men are gripped by paranoia as each one suspects another. Friendships are tested, loyalties are questioned, and marriages crumble while fear and suspicion run rampant.", "poster_path": "/9hE6vesQoSREyvJha9z0g5OryHH.jpg", "release_date": "2014-10-14", "title": "The Loft", "video": false, "vote_average": 6.4, "vote_count": 837, "popularity": 19.836}, {"id": 1018, "video": false, "vote_count": 3312, "vote_average": 7.8, "title": "Mulholland Drive", "release_date": "2001-09-08", "original_language": "en", "original_title": "Mulholland Drive", "genre_ids": [18, 9648, 53], "backdrop_path": "/91KNvuQXrWq5vehtQpciCOiOyJe.jpg", "adult": false, "overview": "Blonde Betty Elms has only just arrived in Hollywood to become a movie star when she meets an enigmatic brunette with amnesia. Meanwhile, as the two set off to solve the second woman's identity, filmmaker Adam Kesher runs into ominous trouble while casting his latest project.", "poster_path": "/tVxGt7uffLVhIIcwuldXOMpFBPX.jpg", "popularity": 22.494}, {"id": 59967, "video": false, "vote_count": 7205, "vote_average": 6.8, "title": "Looper", "release_date": "2012-09-26", "original_language": "en", "original_title": "Looper", "genre_ids": [28, 878, 53], "backdrop_path": "/vuHG8VlYnvw4gUKtS7GY5kZol69.jpg", "adult": false, "overview": "In the futuristic action thriller Looper, time travel will be invented but it will be illegal and only available on the black market. When the mob wants to get rid of someone, they will send their target 30 years into the past where a looper, a hired gun, like Joe is waiting to mop up. Joe is getting rich and life is good until the day the mob decides to close the loop, sending back Joe's future self for assassination.", "poster_path": "/sNjL6SqErDBE8OUZlrDLkexfsCj.jpg", "popularity": 24.08}, {"id": 1580, "video": false, "vote_count": 1268, "vote_average": 8.0, "title": "Rope", "release_date": "1948-08-26", "original_language": "en", "original_title": "Rope", "genre_ids": [80, 53], "backdrop_path": "/2RWBzG3DYGYmgbsazg3Fls0X02l.jpg", "adult": false, "overview": "Two men attempt to prove they committed the perfect crime by hosting a dinner party after strangling their former classmate to death.", "poster_path": "/tJlmMbaleBT8IwuidgI0ZvlLbWA.jpg", "popularity": 16.196}, {"adult": false, "backdrop_path": "/lx9eC0e98ZrdU0y55LrydS8CMMp.jpg", "genre_ids": [28, 12, 80, 18, 9648, 53], "id": 9631, "original_language": "en", "original_title": "The Negotiator", "overview": "The police try to arrest expert hostage negotiator Danny Roman, who insists he's being framed for his partner's murder in what he believes is an elaborate conspiracy. Thinking there's evidence in the Internal Affairs offices that might clear him, he takes everyone in the office hostage and demands that another well-known negotiator be brought in to handle the situation and secretly investigate the conspiracy.", "poster_path": "/u4LQDr6QB5i7dz3sMuP8u3EOd3D.jpg", "release_date": "1998-07-29", "title": "The Negotiator", "video": false, "vote_average": 7.0, "vote_count": 1082, "popularity": 18.49}, {"id": 1645, "video": false, "vote_count": 1050, "vote_average": 7.2, "title": "A Time to Kill", "release_date": "1996-07-24", "original_language": "en", "original_title": "A Time to Kill", "genre_ids": [80, 18, 53], "backdrop_path": "/b1cfBhhorGYNPbMVT6C9cHwxRr8.jpg", "adult": false, "overview": "A young lawyer defends a black man accused of murdering two men who raped his 10-year-old daughter, sparking a rebirth of the KKK.", "poster_path": "/1q2kU8NMGO446b0QAvVdY2v778x.jpg", "popularity": 16.279}, {"adult": false, "backdrop_path": "/2zh06EWekQWzlxa4jpFKRuXEtgf.jpg", "genre_ids": [80, 18, 28, 53], "id": 9411, "original_language": "en", "original_title": "Fallen", "overview": "Homicide detective John Hobbes witnesses the execution of serial killer Edgar Reese. Soon after the execution the killings start again, and they are very similar to Reese's style.", "poster_path": "/v66GrbKcl1babq8BebUff0MI3m4.jpg", "release_date": "1998-01-16", "title": "Fallen", "video": false, "vote_average": 6.8, "vote_count": 674, "popularity": 15.448}, {"adult": false, "backdrop_path": "/sDSwD63e0qfNE1YvH8aczFoSGTt.jpg", "genre_ids": [80, 18, 53], "id": 11826, "original_language": "en", "original_title": "Sexy Beast", "overview": "The idyllic life of retired safecracker Gal is put at risk when a psychotic gangster from his past arrives at his villa in southern Spain, intent on bringing him out of retirement for one last job.", "poster_path": "/rpo9njGpJVLPqRrdM6R7wIqiQ7K.jpg", "release_date": "2001-01-12", "title": "Sexy Beast", "video": false, "vote_average": 7.0, "vote_count": 391, "popularity": 9.281}, {"adult": false, "backdrop_path": "/tR1RXbnkSvZq0sgx0Gyh3GmgYoB.jpg", "genre_ids": [80, 18, 53], "id": 21734, "original_language": "en", "original_title": "Shadow of a Doubt", "overview": "A bored teen living in Santa Rosa, California, Charlotte \"Charlie\" Newton, is frustrated because nothing seems to be happening in her life and that of her family. Then, she receives wonderful news: her uncle (for whom she was named), Charlie Oakley, is arriving for a visit. But Uncle Charlie may not be the man he seems to be.", "poster_path": "/ptyWagbWE8jSGyV2tGEzAdVbRCj.jpg", "release_date": "1943-01-15", "title": "Shadow of a Doubt", "video": false, "vote_average": 7.7, "vote_count": 448, "popularity": 12.942}, {"adult": false, "backdrop_path": "/jRNqzZZwYIpiukkblMQ4G2Vc5p7.jpg", "genre_ids": [9648, 80, 53], "id": 963, "original_language": "en", "original_title": "The Maltese Falcon", "overview": "A private detective takes on a case that involves him with three eccentric criminals, a beautiful liar, and their quest for a priceless statuette.", "poster_path": "/jQilmbgbKtpbHM9hw9hgmqomJ9.jpg", "release_date": "1941-10-18", "title": "The Maltese Falcon", "video": false, "vote_average": 7.8, "vote_count": 840, "popularity": 16.587}], "total_pages": 291, "total_results": 5805}, "recommendations": {"page": 1, "results": [], "total_pages": 1, "total_results": 0}, "credits": {"cast": [{"cast_id": 3, "character": "Henry Adler", "credit_id": "52fe47f2c3a368484e0e1f51", "gender": 2, "id": 64712, "name": "Tom McCamus", "order": 0, "profile_path": "/rdKdNQedH350kWxwH2vbP8CFdsi.jpg"}, {"cast_id": 4, "character": "Charlie Warner", "credit_id": "52fe47f2c3a368484e0e1f55", "gender": 1, "id": 14607, "name": "Brigitte Bako", "order": 1, "profile_path": "/1D7yfHTpFEc8nQmsHHJiFE5yvwe.jpg"}, {"cast_id": 5, "character": "Frank", "credit_id": "52fe47f2c3a368484e0e1f59", "gender": 2, "id": 17770, "name": "Kevin Tighe", "order": 2, "profile_path": "/5Q1Z89xsrnLdQWdHLuiaraS89vV.jpg"}, {"cast_id": 6, "character": "Father", "credit_id": "52fe47f2c3a368484e0e1f5d", "gender": 2, "id": 58805, "name": "David Hemblen", "order": 3, "profile_path": null}, {"cast_id": 8, "character": "Mr. Pearson", "credit_id": "52fe47f2c3a368484e0e1f61", "gender": 2, "id": 199802, "name": "Graham McPherson", "order": 4, "profile_path": null}, {"cast_id": 9, "character": "Director", "credit_id": "52fe47f2c3a368484e0e1f65", "gender": 2, "id": 76627, "name": "Daniel MacIvor", "order": 5, "profile_path": "/eTKXLrZPACsapUjpWAlieDcU06k.jpg"}, {"cast_id": 10, "character": "Bruce", "credit_id": "52fe47f2c3a368484e0e1f69", "gender": 2, "id": 175206, "name": "Alex Karzis", "order": 6, "profile_path": "/uYlZb7cVzjQIc6XS3PCWFdv5LZH.jpg"}], "crew": [{"credit_id": "52fe47f2c3a368484e0e1f93", "department": "Art", "gender": 1, "id": 17235, "job": "Set Decoration", "name": "Megan Less", "profile_path": null}, {"credit_id": "52fe47f2c3a368484e0e1fc9", "department": "Camera", "gender": 2, "id": 21222, "job": "Director of Photography", "name": "David Franco", "profile_path": "/xp82WfpjYNLFKB2wg4FQE99dPmZ.jpg"}, {"credit_id": "52fe47f2c3a368484e0e1f8d", "department": "Art", "gender": 2, "id": 25017, "job": "Production Design", "name": "John Dondertman", "profile_path": "/srg3wLFr6x8f81Geg5t0G8BcOYA.jpg"}, {"credit_id": "52fe47f2c3a368484e0e1fb1", "department": "Production", "gender": 0, "id": 29205, "job": "Production Manager", "name": "Armand Leo", "profile_path": null}, {"credit_id": "52fe47f2c3a368484e0e1f81", "department": "Editing", "gender": 1, "id": 35332, "job": "Editor", "name": "Susan Shipton", "profile_path": null}, {"credit_id": "52fe47f2c3a368484e0e1f9f", "department": "Costume & Make-Up", "gender": 0, "id": 168214, "job": "Makeup Artist", "name": "Judy Murdock", "profile_path": null}, {"credit_id": "52fe47f2c3a368484e0e1f6f", "department": "Production", "gender": 2, "id": 170041, "job": "Producer", "name": "Paul Brown", "profile_path": null}, {"credit_id": "52fe47f2c3a368484e0e1f47", "department": "Directing", "gender": 2, "id": 222108, "job": "Director", "name": "David Wellington", "profile_path": "/uSiyGzGwrlZFZhFRWgBQd29fC0C.jpg"}, {"credit_id": "52fe47f2c3a368484e0e1f4d", "department": "Writing", "gender": 2, "id": 222108, "job": "Writer", "name": "David Wellington", "profile_path": "/uSiyGzGwrlZFZhFRWgBQd29fC0C.jpg"}, {"credit_id": "52fe47f2c3a368484e0e1f87", "department": "Production", "gender": 1, "id": 229989, "job": "Casting", "name": "Susan Forrest", "profile_path": null}, {"credit_id": "52fe47f2c3a368484e0e1f75", "department": "Production", "gender": 0, "id": 558223, "job": "Executive Producer", "name": "Alexandra Raffe", "profile_path": null}, {"credit_id": "52fe47f2c3a368484e0e1f7b", "department": "Sound", "gender": 0, "id": 558224, "job": "Original Music Composer", "name": "Ron Sures", "profile_path": null}, {"credit_id": "52fe47f2c3a368484e0e1f99", "department": "Costume & Make-Up", "gender": 1, "id": 558225, "job": "Costume Design", "name": "Beth Pasternak", "profile_path": null}, {"credit_id": "52fe47f2c3a368484e0e1fa5", "department": "Costume & Make-Up", "gender": 0, "id": 558226, "job": "Hairstylist", "name": "Lucy Orton", "profile_path": null}, {"credit_id": "52fe47f2c3a368484e0e1fab", "department": "Costume & Make-Up", "gender": 0, "id": 558227, "job": "Makeup Artist", "name": "Jordan Samuel", "profile_path": null}, {"credit_id": "52fe47f2c3a368484e0e1fb7", "department": "Crew", "gender": 0, "id": 558228, "job": "Second Unit", "name": "Cynthia Gillespie", "profile_path": null}, {"credit_id": "52fe47f2c3a368484e0e1fbd", "department": "Crew", "gender": 0, "id": 558229, "job": "Special Effects", "name": "Ted Ross", "profile_path": null}, {"credit_id": "52fe47f2c3a368484e0e1fc3", "department": "Sound", "gender": 2, "id": 558230, "job": "Music Editor", "name": "Alastair Gray", "profile_path": null}]}}