{"adult": false, "backdrop_path": "/y9tvQI6QJFU06ems5Mks9lGGkj5.jpg", "belongs_to_collection": {"id": 600361, "name": "Monster X Collection", "poster_path": "/f2sV5KyTY8iebOtmAm2bLXLRusx.jpg", "backdrop_path": null}, "budget": 0, "genres": [{"id": 35, "name": "Comedy"}, {"id": 878, "name": "Science Fiction"}], "homepage": null, "id": 70798, "imdb_id": "tt1190867", "original_language": "ja", "original_title": "\u30ae\u30e9\u30e9\u306e\u9006\u8972\u3000\u6d1e\u723a\u6e56\u30b5\u30df\u30c3\u30c8\u5371\u6a5f\u4e00\u767a", "overview": "When heads of state gather at the G8 summit in Japan, Guilala -- the intergalactic monster that had been banished from the earth in The X from Outer Space -- returns to ravage the Japanese countryside and threaten the world leaders. Military strikes prove futile against the beast, but a reporter learns that one rural community possesses a strange ritual that might influence the creature. Minoru Kawasaki directs this campy satire.", "popularity": 2.231, "poster_path": "/3oHsbIM42DhkSdmxN5J9wEFduUY.jpg", "production_companies": [], "production_countries": [{"iso_3166_1": "JP", "name": "Japan"}], "release_date": "2008-10-26", "revenue": 0, "runtime": 98, "spoken_languages": [{"iso_639_1": "ja", "name": "\u65e5\u672c\u8a9e"}], "status": "Released", "tagline": "", "title": "The Monster X Strikes Back: Attack the G8 Summit", "video": false, "vote_average": 4.3, "vote_count": 6, "keywords": {"keywords": [{"id": 161791, "name": "kaiju"}]}, "similar": {"page": 1, "results": [{"adult": false, "backdrop_path": "/5Hj5fPpmXbREYk8f1n7JFguSHHE.jpg", "genre_ids": [28, 14, 878], "id": 15766, "original_language": "ja", "original_title": "\u4e09\u5927\u602a\u7363\u3000\u5730\u7403\u6700\u5927\u306e\u6c7a\u6226", "overview": "The Princess Mas Selina Salno is seemingly assassinated as a mysterious meteorite lands in Kurobe Valley. When a scientific expedition examines the meteorite, they discover the rock is growing, producing heat and has a strong magnetic pull. Soon a prophetess, with a striking resemblance to the princess, warns of great calamity in the return of Godzilla, Rodan, and the arrival of King Ghidorah.", "poster_path": "/oW4QkHaFmkKHambxeatAqCLXkw8.jpg", "release_date": "1964-12-20", "title": "Ghidorah, the Three-Headed Monster", "video": false, "vote_average": 6.4, "vote_count": 72, "popularity": 9.269}, {"id": 15767, "video": false, "vote_count": 84, "vote_average": 6.7, "title": "Godzilla: Final Wars", "release_date": "2004-12-04", "original_language": "ja", "original_title": "\u30b4\u30b8\u30e9 \u30d5\u30a1\u30a4\u30ca\u30eb\u30a6\u30a9\u30fc\u30ba", "genre_ids": [28, 12, 14, 878, 53], "backdrop_path": "/nFHdB6f93ZZgpxqLtE4Rv2lgZBE.jpg", "adult": false, "overview": "Humanity final rids themselves of Godzilla, in-prisoning him in an icy tomb at the South Pole. Years later all is peaceful until various monsters emerge to lay waste to Earth's cities. Overwhelmed, humanity is seemingly saved by a race of benevolent aliens known as  Xiliens. But not all is what it seems with these bizarre visitors. If humanity wishes to survive they must reluctantly resurrect their most hated enemy, Godzilla.", "poster_path": "/unjWANFfc05ckUuwaSDLB3XfOWX.jpg", "popularity": 6.907}, {"adult": false, "backdrop_path": "/9sCWF0nYkyQQn5IofJVA41LsMaM.jpg", "genre_ids": [14, 878, 28, 12], "id": 1682, "original_language": "ja", "original_title": "\u30e2\u30b9\u30e9\u5bfe\u30b4\u30b8\u30e9", "overview": "A typhoon washes ashore a giant egg. Before it can be studied, the local villagers claim the egg and sell it to greedy  entrepreneurs. The Shobijin soon arrive to plead for the return of egg as it belongs to Mothra. At the same time Godzilla arises near Nagoya, washed ashore by the same typhoon. It is now up to Mothra defend its egg and Japan from Godzilla.", "poster_path": "/aezP1gozrPbdqtm1Eo3DZxaJHhJ.jpg", "release_date": "1964-04-29", "title": "Mothra vs. Godzilla", "video": false, "vote_average": 6.7, "vote_count": 80, "popularity": 8.383}, {"adult": false, "backdrop_path": "/jAfDrjH0tIqzsJpwmY6yTfP0Big.jpg", "genre_ids": [10749, 878, 28, 12], "id": 19545, "original_language": "ja", "original_title": "\u602a\u7363\u5927\u6226\u4e89", "overview": "Mysterious aliens known as Xiliens arrive from Planet X and ask Earth's people to help them save their world from \"Monster Zero\".  In exchange for borrowing Godzilla and Rodan, the Xiliens offer a cure for  cancer. Sent on the expedition are astronauts Glenn and Fuji who discover Monster Zero is none other than King Ghidorah.", "poster_path": "/nNX5PVGZj40vVCQHkn2kpnoq5mJ.jpg", "release_date": "1965-12-19", "title": "Invasion of Astro-Monster", "video": false, "vote_average": 6.4, "vote_count": 55, "popularity": 9.128}, {"id": 36243, "video": false, "vote_count": 64, "vote_average": 6.7, "title": "Godzilla, Mothra and King Ghidorah: Giant Monsters All-Out Attack", "release_date": "2001-12-15", "original_language": "ja", "original_title": "\u30b4\u30b8\u30e9\u30fb\u30e2\u30b9\u30e9\u30fb\u30ad\u30f3\u30b0\u30ae\u30c9\u30e9\u5927\u602a\u7363\u7dcf\u9032\u6483", "genre_ids": [28, 12, 18, 14, 878], "backdrop_path": "/5YtbehxJENoh8vXFAaRJhq3WOFs.jpg", "adult": false, "overview": "Godzilla has become a distant memory for most of Japan with nearly half a century of peace. However, the serenity is broken, when a US nuclear submarine is destroyed. As this occurs fictional documentarian Yuri Tachibana discovers the legend of the guardian monsters. The three ancient guardians must awaken to protect Japan against a vengeful Godzilla.", "poster_path": "/e9FNgP5RQzYSdJ1SHsFlzhQdklJ.jpg", "popularity": 9.355}, {"id": 373571, "video": false, "vote_count": 1966, "vote_average": 6.2, "title": "Godzilla: King of the Monsters", "release_date": "2019-05-29", "original_language": "en", "original_title": "Godzilla: King of the Monsters", "genre_ids": [28, 878], "backdrop_path": "/cNt14e43I2DDW6Xd9zFhrP8eOcA.jpg", "adult": false, "overview": "Follows the heroic efforts of the crypto-zoological agency Monarch as its members face off against a battery of god-sized monsters, including the mighty Godzilla, who collides with Mothra, Rodan, and his ultimate nemesis, the three-headed King Ghidorah. When these ancient super-species - thought to be mere myths - rise again, they all vie for supremacy, leaving humanity's very existence hanging in the balance.", "poster_path": "/fQ40gmFM4p03tXwMxQQKh2cCBW4.jpg", "popularity": 49.185}, {"id": 124905, "video": false, "vote_count": 5562, "vote_average": 6.1, "title": "Godzilla", "release_date": "2014-05-14", "original_language": "en", "original_title": "Godzilla", "genre_ids": [28, 18, 878], "backdrop_path": "/2WKcxQbTVkLUgoS5kPnHlecbj02.jpg", "adult": false, "overview": "Ford Brody, a Navy bomb expert, has just reunited with his family in San Francisco when he is forced to go to Japan to help his estranged father, Joe. Soon, both men are swept up in an escalating crisis when an ancient alpha predator arises from the sea to combat malevolent adversaries that threaten the survival of humanity. The creatures leave colossal destruction in their wake, as they make their way toward their final battleground: San Francisco.", "poster_path": "/szVwkB4H5yyOJBVuQ432b9boO0N.jpg", "popularity": 18.835}, {"id": 315011, "video": false, "vote_count": 400, "vote_average": 6.7, "title": "Shin Godzilla", "release_date": "2016-07-29", "original_language": "ja", "original_title": "\u30b7\u30f3\u30fb\u30b4\u30b8\u30e9", "genre_ids": [28, 27, 878], "backdrop_path": "/9nyToPG5mhfm4KiPGChu35jH9QZ.jpg", "adult": false, "overview": "When a massive, gilled monster emerges from the deep and tears through the city, the government scrambles to save its citizens.  A rag-tag team of volunteers cuts through a web of red tape to uncover the monster's weakness and its mysterious ties to a foreign superpower.  But time is not on their side - the greatest catastrophe to ever befall the world is about to evolve right before their very eyes.", "poster_path": "/8YWirGQidtZeSEmhqvQM5FrI6N1.jpg", "popularity": 14.527}, {"adult": false, "backdrop_path": "/3iXmO0ko2IR5gRYIsv18WCHGeYI.jpg", "genre_ids": [28, 12, 878], "id": 1680, "original_language": "ja", "original_title": "\u30ad\u30f3\u30b0\u30b3\u30f3\u30b0\u5bfe\u30b4\u30b8\u30e9", "overview": "Godzilla emerges from an iceberg and makes his way towards Japan. At the same time a pharmaceutical company captures King Kong and brings him to Japan.  When Kong escapes he heads on a collision course straight to Godzilla.", "poster_path": "/pyf3DWaSCy8nLHgUijCME8CkIIt.jpg", "release_date": "1962-08-11", "title": "King Kong vs. Godzilla", "video": false, "vote_average": 6.1, "vote_count": 99, "popularity": 8.498}, {"adult": false, "backdrop_path": "/AhxObJqssOpGKIOWtAyCN8DF9AH.jpg", "genre_ids": [28, 18, 27, 878, 53], "id": 39256, "original_language": "ja", "original_title": "Godzilla 1985", "overview": "Originally released in Japan as \"The Return of Godzilla\"  in 1984, this is the heavily re-edited, re-titled \"Godzilla 1985\".  Adding in new footage of Raymond Burr, this 16th Godzilla film ignores all previous sequels and serves as a direct follow-up to the 1956 \"Godzilla King of the Monsters\", which also featured scenes with Burr edited into 1954's \"Godzilla\". This film restores the darker tone of the original, as we witness the nuclear destruction of giant lizard terrorizing Japan.", "poster_path": "/wWQmEv8UiGckO4lHyNtOX8tSCQy.jpg", "release_date": "1985-08-23", "title": "Godzilla 1985", "video": false, "vote_average": 6.4, "vote_count": 63, "popularity": 6.486}, {"adult": false, "backdrop_path": "/nv5Ze389etXI8mcGfBlpgpLFC1J.jpg", "genre_ids": [14, 878, 10751], "id": 39462, "original_language": "ja", "original_title": "\u30b4\u30b8\u30e9\u30fb\u30df\u30cb\u30e9\u30fb\u30ac\u30d0\u30e9 \u30aa\u30fc\u30eb\u602a\u7363\u5927\u9032\u6483", "overview": "A bullied schoolboy dreams of traveling to Monster Island, where he befriends Godzilla's son, who is also having bully troubles.", "poster_path": "/rmcqrLl7zPh0co2m8h2IXbXRI0w.jpg", "release_date": "1969-12-20", "title": "All Monsters Attack", "video": false, "vote_average": 4.1, "vote_count": 41, "popularity": 5.385}, {"id": 587806, "video": false, "vote_count": 2, "vote_average": 5.5, "title": "Ultraman R/B The Movie: Select! The Crystal of Bond", "release_date": "2019-03-08", "original_language": "ja", "original_title": "\u5287\u5834\u7248 \u30a6\u30eb\u30c8\u30e9\u30de\u30f3R/B\u30eb\u30fc\u30d6 \u30bb\u30ec\u30af\u30c8! \u7d46\u306e\u30af\u30ea\u30b9\u30bf\u30eb", "genre_ids": [28, 878, 10751], "backdrop_path": "/ffBQc2WAI3TK6naDHkSXevDl63x.jpg", "adult": false, "overview": "The mysterious Ultraman, Tregear, has suddenly appeared in Ayaka City. Tregear asks what one would do to make their dreams come true, prompting Katsumi to search for his own dream. As a monster appears for the first time in a year, Ultraman Blu and Ultraman Rosso are joined by Ultraman Geed to face off against this new threat. Walking towards their dream with the heart of the Minato family in hand, Ultraman Gruebe is born.", "poster_path": "/rciJKm9nXeUtzaVPg79vwzubCtJ.jpg", "popularity": 9.09}, {"adult": false, "backdrop_path": "/9MimMBfcM8wXawQgf3EqVX3fzWy.jpg", "genre_ids": [878], "id": 19336, "original_language": "ja", "original_title": "\u5730\u7403\u653b\u6483\u547d\u4ee4 \u30b4\u30b8\u30e9\u5bfe\u30ac\u30a4\u30ac\u30f3", "overview": "Comic artist Gengo Kotaka lands a job with the World Children's Land amusement park. He soon becomes suspicious of the organization when a garbled message is discovered on tapes. Godzilla and Anguirus quickly decipher the message and begin a plan of action.", "poster_path": "/fPgXRYXUIEI2p0sj6uTTYC3h7IZ.jpg", "release_date": "1972-03-12", "title": "Godzilla vs. Gigan", "video": false, "vote_average": 5.7, "vote_count": 60, "popularity": 8.339}, {"id": 18983, "video": false, "vote_count": 95, "vote_average": 6.5, "title": "Godzilla, King of the Monsters!", "release_date": "1956-04-27", "original_language": "en", "original_title": "Godzilla, King of the Monsters!", "genre_ids": [27, 878], "backdrop_path": "/5opq3usPVRkA4NK5zJw1FgUSl2D.jpg", "adult": false, "overview": "A 400-foot (122-meter) dinosaur-like beast, awoken from undersea hibernation off the Japanese coast by atomic-bomb testing, attacks Tokyo.", "poster_path": "/nqLKIsVfi5BW1KuIbe02pMEDXiU.jpg", "popularity": 11.563}, {"id": 6593, "video": false, "vote_count": 60, "vote_average": 6.7, "title": "Godzilla vs. Mechagodzilla II", "release_date": "1993-12-11", "original_language": "ja", "original_title": "\u30b4\u30b8\u30e9vs\u30e1\u30ab\u30b4\u30b8\u30e9", "genre_ids": [28, 12, 18, 878], "backdrop_path": "/3MSnytu8RW5jpkAUc7rm9UQtpYU.jpg", "adult": false, "overview": "The U.N.G.C.C. (United Nations Godzilla Countermeasure Center) recovers the remains of Mecha-King Ghidorah and construct Mechagodzilla as a countermeasure against the nuclear menace.  Meanwhile, a giant egg is discovered alongside a new monster called Rodan. The egg is found to be an infant Godzillasaurus just as Godzilla emerges once more.", "poster_path": "/89uE2QQEWAiXgNBwMQX4PLKptN.jpg", "popularity": 6.996}, {"id": 268896, "video": false, "vote_count": 2611, "vote_average": 5.9, "title": "Pacific Rim: Uprising", "release_date": "2018-03-21", "original_language": "en", "original_title": "Pacific Rim: Uprising", "genre_ids": [28, 12, 14, 878], "backdrop_path": "/6pT73ACl5N1VekdK3wQI8PLfz1E.jpg", "adult": false, "overview": "It has been ten years since The Battle of the Breach and the oceans are still, but restless. Vindicated by the victory at the Breach, the Jaeger program has evolved into the most powerful global defense force in human history. The PPDC now calls upon the best and brightest to rise up and become the next generation of heroes when the Kaiju threat returns.", "poster_path": "/v5HlmJK9bdeHxN2QhaFP1ivjX3U.jpg", "popularity": 28.5}, {"id": 929, "video": false, "vote_count": 2179, "vote_average": 5.5, "title": "Godzilla", "release_date": "1998-05-20", "original_language": "en", "original_title": "Godzilla", "genre_ids": [28, 878, 53], "backdrop_path": "/d8aOyxSMD7oQGFsPORCU8AJ6EQ3.jpg", "adult": false, "overview": "When a freighter is viciously attacked in the Pacific Ocean, a team of experts -- including biologist Niko Tatopoulos and scientists Elsie Chapman and Mendel Craven -- concludes that an oversized reptile is the culprit. Before long, the giant lizard is loose in Manhattan, destroying everything within its reach. The team chases the monster to Madison Square Garden, where a brutal battle ensues.", "poster_path": "/5axr56XqJH2xqkzI4j5sjzgV1Hu.jpg", "popularity": 33.586}, {"adult": false, "backdrop_path": "/6kVVfNT0auG6fU5SFQ1zbayNWUC.jpg", "genre_ids": [28, 53, 878], "id": 7191, "original_language": "en", "original_title": "Cloverfield", "overview": "Five young New Yorkers throw their friend a going-away party the night that a monster the size of a skyscraper descends upon the city. Told from the point of view of their video camera, the film is a document of their attempt to survive the most surreal, horrifying event of their lives.", "poster_path": "/qIegUGJqyMMCRjkKV1s7A9MqdJ8.jpg", "release_date": "2008-01-15", "title": "Cloverfield", "video": false, "vote_average": 6.5, "vote_count": 4423, "popularity": 14.46}, {"id": 68726, "video": false, "vote_count": 8203, "vote_average": 6.8, "title": "Pacific Rim", "release_date": "2013-07-11", "original_language": "en", "original_title": "Pacific Rim", "genre_ids": [28, 12, 878], "backdrop_path": "/iB0RsWVoOXzicPi2Yy5xmTYMbho.jpg", "adult": false, "overview": "When legions of monstrous creatures, known as Kaiju, started rising from the sea, a war began that would take millions of lives and consume humanity's resources for years on end. To combat the giant Kaiju, a special type of weapon was devised: massive robots, called Jaegers, which are controlled simultaneously by two pilots whose minds are locked in a neural bridge. But even the Jaegers are proving nearly defenseless in the face of the relentless Kaiju. On the verge of defeat, the forces defending mankind have no choice but to turn to two unlikely heroes\u2014a washed-up former pilot (Charlie Hunnam) and an untested trainee (Rinko Kikuchi)\u2014who are teamed to drive a legendary but seemingly obsolete Jaeger from the past. Together, they stand as mankind's last hope against the mounting apocalypse.", "poster_path": "/sCJEwEShZvruTpQ2a4yiX3Q9EyZ.jpg", "popularity": 24.433}, {"id": 399566, "video": true, "vote_count": 0, "vote_average": 0.0, "title": "Godzilla vs. Kong", "release_date": "2020-11-19", "original_language": "en", "original_title": "Godzilla vs. Kong", "genre_ids": [28, 12, 878, 53], "backdrop_path": "/i3fCwWHPoFMpuSI7hsVueWDk0iC.jpg", "adult": false, "overview": "In a time when monsters walk the Earth, humanity\u2019s fight for its future sets Godzilla and Kong on a collision course that will see the two most powerful forces of nature on the planet clash in a spectacular battle for the ages. As Monarch embarks on a perilous mission into uncharted terrain and unearths clues to the Titans\u2019 origins, a human conspiracy threatens to wipe the creatures, both good and bad, from the face of the earth forever.", "poster_path": "/3zscXyYxlOEjkaVN4r9Dt2CA0p4.jpg", "popularity": 7.34}], "total_pages": 25, "total_results": 489}, "recommendations": {"page": 1, "results": [{"adult": false, "backdrop_path": "/sRZOeP4FcY8HbnNcRVcUP7hWIQW.jpg", "genre_ids": [53, 35], "id": 282800, "original_language": "ja", "original_title": "\u30e9\u30a4\u30f4", "overview": "One day, Naoto receives a package. Inside he finds a book, \u2018LIVE\u2019. At the same time, he receives an image on mobile phone of his mother being kidnapped and a call from a mysterious man. \u201cIf you don\u2019 t want us to inject the killer virus in your mother, find the hints hidden in the novel and head for the goal in the death race!\u201d Naoto starts running to save his mother with the book in his hand.", "poster_path": "/diyp4ecnbugLRq5DmCrBjjL9rd5.jpg", "release_date": "2014-05-10", "title": "Live", "video": false, "vote_average": 5.9, "vote_count": 4, "popularity": 1.06}], "total_pages": 1, "total_results": 1}, "credits": {"cast": [{"cast_id": 3, "character": "Sumire", "credit_id": "52fe4811c3a368484e0e7e9b", "gender": 1, "id": 1019016, "name": "Natsuki Kato", "order": 0, "profile_path": "/i7eBuZaEhCVgHgUt7sUACuDZ8H3.jpg"}, {"cast_id": 27, "character": "Sanpei", "credit_id": "569f63d8c3a36858dc00945e", "gender": 0, "id": 236720, "name": "Kazuki Kato", "order": 2, "profile_path": "/sa6HFaTBSkZwTFZSNY8a7iWaC8p.jpg"}, {"cast_id": 5, "character": "Translator", "credit_id": "52fe4811c3a368484e0e7ea3", "gender": 0, "id": 1123509, "name": "Kei Akazawa", "order": 3, "profile_path": null}, {"cast_id": 6, "character": "Former Prime minister Shinzo Abe", "credit_id": "52fe4811c3a368484e0e7ea7", "gender": 0, "id": 1123510, "name": "Hide Fukumoto", "order": 4, "profile_path": null}, {"cast_id": 7, "character": "Announcer", "credit_id": "52fe4811c3a368484e0e7eab", "gender": 0, "id": 1123511, "name": "Kon Arimura", "order": 5, "profile_path": null}, {"cast_id": 8, "character": "British pilot", "credit_id": "52fe4812c3a368484e0e7eaf", "gender": 0, "id": 1123512, "name": "Niclas Ericsson", "order": 6, "profile_path": null}, {"cast_id": 9, "character": "", "credit_id": "52fe4812c3a368484e0e7eb3", "gender": 2, "id": 123739, "name": "Lily Franky", "order": 7, "profile_path": "/8T3I7KQX0SH6twXsuqe12Sc7Hxr.jpg"}, {"cast_id": 10, "character": "", "credit_id": "52fe4812c3a368484e0e7eb7", "gender": 0, "id": 1073691, "name": "Bin Furuya", "order": 8, "profile_path": "/5q4JHvDo4AxFcemDCBbe7dQzx72.jpg"}, {"cast_id": 11, "character": "President Burger", "credit_id": "52fe4812c3a368484e0e7ebb", "gender": 0, "id": 1123513, "name": "Jon Heese", "order": 9, "profile_path": null}, {"cast_id": 12, "character": "Translator", "credit_id": "52fe4812c3a368484e0e7ebf", "gender": 0, "id": 1123514, "name": "Haruka Inoue", "order": 10, "profile_path": null}, {"cast_id": 14, "character": "Translator", "credit_id": "52fe4812c3a368484e0e7ec7", "gender": 0, "id": 1123515, "name": "Maiko Kawamura", "order": 12, "profile_path": null}, {"cast_id": 15, "character": "", "credit_id": "52fe4812c3a368484e0e7ecb", "gender": 2, "id": 545499, "name": "Eiichi Kikuchi", "order": 13, "profile_path": null}, {"cast_id": 16, "character": "", "credit_id": "52fe4812c3a368484e0e7ecf", "gender": 2, "id": 129509, "name": "Susumu Kurobe", "order": 14, "profile_path": "/iMRdCBvpP7KPpb9EVNFWcAoEyL2.jpg"}, {"cast_id": 17, "character": "Former Prime minister Junzaburo Ohizumi", "credit_id": "52fe4812c3a368484e0e7ed3", "gender": 0, "id": 1123516, "name": "Akira Matsushita", "order": 15, "profile_path": null}, {"cast_id": 18, "character": "Himself", "credit_id": "52fe4812c3a368484e0e7ed7", "gender": 0, "id": 1082699, "name": "Jun Miura", "order": 16, "profile_path": null}, {"cast_id": 19, "character": "Himself", "credit_id": "52fe4812c3a368484e0e7edb", "gender": 0, "id": 1123517, "name": "Haruo Mizuno", "order": 17, "profile_path": null}, {"cast_id": 20, "character": "Translator", "credit_id": "52fe4812c3a368484e0e7edf", "gender": 1, "id": 1123518, "name": "Yuri Morishita", "order": 18, "profile_path": "/vzqbr33G7EsoTeMnvVazQuAIEnV.jpg"}, {"cast_id": 21, "character": "", "credit_id": "52fe4812c3a368484e0e7ee3", "gender": 0, "id": 147416, "name": "Yakan Nabe", "order": 19, "profile_path": null}, {"cast_id": 22, "character": "Translator", "credit_id": "52fe4812c3a368484e0e7ee7", "gender": 0, "id": 1123519, "name": "Hikari Nagase", "order": 20, "profile_path": null}, {"cast_id": 23, "character": "", "credit_id": "52fe4812c3a368484e0e7eeb", "gender": 0, "id": 1123520, "name": "Takeshi Nakazawa", "order": 21, "profile_path": null}, {"cast_id": 25, "character": "", "credit_id": "52fe4812c3a368484e0e7eef", "gender": 2, "id": 554075, "name": "Shunya Wazaki", "order": 22, "profile_path": null}, {"cast_id": 26, "character": "", "credit_id": "52fe4812c3a368484e0e7ef3", "gender": 2, "id": 131201, "name": "Y\u014dsuke Natsuki", "order": 23, "profile_path": "/u3sriYzcA1AxFsX22ZtAaSaBR2t.jpg"}, {"cast_id": 28, "character": "Editor In Chief", "credit_id": "5e063dfcf495ee0014ea25ff", "gender": 2, "id": 1512693, "name": "Jun'ichi Inoue", "order": 24, "profile_path": null}], "crew": [{"credit_id": "52fe4811c3a368484e0e7e91", "department": "Directing", "gender": 2, "id": 132059, "job": "Director", "name": "Minoru Kawasaki", "profile_path": null}, {"credit_id": "52fe4811c3a368484e0e7e97", "department": "Writing", "gender": 0, "id": 132060, "job": "Screenplay", "name": "Masakazu Migita", "profile_path": null}]}}