{"adult": false, "backdrop_path": "/nIFlriKxL6bNItJxbE8dVNcCGHC.jpg", "belongs_to_collection": null, "budget": 0, "genres": [{"id": 35, "name": "Comedy"}], "homepage": null, "id": 71772, "imdb_id": "tt0027684", "original_language": "en", "original_title": "Go West Young Man", "overview": "Mavis Arden (Mae West) is a sensational movie star. Her following spans the world and her personal appearance tours prove her popularity. On her way home from one such appearance, Arden's car breaks down. She orders her publicity man (Warren William) to find her a place to stay, suspicious that he planned the break down to keep her away from a man. However, she soon finds herself mooning over an attractive repairman in town (Randolph Scott) and listening to his ideas about inventing equipment for film.", "popularity": 1.53, "poster_path": "/biZMx1G9fLZIL06jzFiEUufvIi2.jpg", "production_companies": [{"id": 4, "logo_path": "/fycMZt242LVjagMByZOLUGbCvv3.png", "name": "Paramount", "origin_country": "US"}, {"id": 57240, "logo_path": null, "name": "Emanuel Cohen Productions", "origin_country": ""}], "production_countries": [{"iso_3166_1": "US", "name": "United States of America"}], "release_date": "1936-11-18", "revenue": 0, "runtime": 82, "spoken_languages": [{"iso_639_1": "en", "name": "English"}], "status": "Released", "tagline": "", "title": "Go West Young Man", "video": false, "vote_average": 4.8, "vote_count": 5, "keywords": {"keywords": [{"id": 204950, "name": "innuendo"}, {"id": 233033, "name": "ribald humor"}]}, "similar": {"page": 1, "results": [{"adult": false, "backdrop_path": "/y3np80y9Pq2ZBh1vNLWirV1k9XA.jpg", "genre_ids": [35], "id": 19300, "original_language": "en", "original_title": "Carry On Behind", "overview": "Professors Vrooshka and Crump decide to visit an archaeological site to study the artifacts there. Lo and behold, it's right next to a caravan site where all manner of people are staying. With a randy Major owning the site, a snobbish mother, and the two professors' constant innuendos, the film ends with a sinking caravan site and a striptease performance as a replacement for the cabaret night.", "poster_path": "/rEwGaLVw562CB4FkHLXt6Ism3RI.jpg", "release_date": "1975-12-01", "title": "Carry On Behind", "video": false, "vote_average": 6.0, "vote_count": 27, "popularity": 4.106}, {"adult": false, "backdrop_path": "/vDtwfI1d60LbIJV41xPIX06w6Vt.jpg", "genre_ids": [35], "id": 24571, "original_language": "en", "original_title": "Carry On Matron", "overview": "A gang of thieves plan to make their fortune by stealing a shipment of contraceptive pills from Finisham maternity hospital. They assume disguises and infiltrate the hospital, but everything doesn't go according to plan. The hypochondriac consultant Sir Bernard Cutting, Matron and the doctors and nurses at Finisham have a habit of getting in the way.", "poster_path": "/bDcRkkDqyaMvePQFmHx5J3n1v4H.jpg", "release_date": "1972-05-05", "title": "Carry On Matron", "video": false, "vote_average": 6.5, "vote_count": 36, "popularity": 3.947}, {"adult": false, "backdrop_path": "/ghlsBfdtVT7y0MLpeEfiyV9lgey.jpg", "genre_ids": [12, 35, 36, 10749], "id": 24569, "original_language": "en", "original_title": "Carry On Henry", "overview": "Henry VIII has just married Marie of Normandy, and is eager to consummate their marriage. Unfortunately for Henry, she is always eating garlic, and refuses to stop. Deciding to get rid of her in his usual manner, Henry has to find some way of doing it without provoking war with Marie's cousin, the King of France. Perhaps if she had an affair...", "poster_path": "/y2bSkLBovQm1bjq9Y9DAyqYiHIW.jpg", "release_date": "1971-01-01", "title": "Carry On Henry", "video": false, "vote_average": 6.7, "vote_count": 28, "popularity": 4.164}, {"adult": false, "backdrop_path": "/utZ3DucvvcKtEajxK8Z3I6hoDbk.jpg", "genre_ids": [35], "id": 26327, "original_language": "en", "original_title": "Carry On Dick", "overview": "Dick Turpin is terrorising the countryside around Upper Dencher. Captain Fancey and Sergeant Jock Strapp plan to put an end to his escapades, and enlist the help of the Reverend Flasher. Little do they know that the priest leads a double life. Then Madame Desiree and her \"Birds of Paradise\" arrive in the village...", "poster_path": "/B61asEdNooWNaFIHm9cnVXjhRv.jpg", "release_date": "1974-02-01", "title": "Carry On Dick", "video": false, "vote_average": 6.4, "vote_count": 30, "popularity": 5.574}, {"adult": false, "backdrop_path": "/6gwBv0EAEvQ1NtK7SFaZkaBYIOh.jpg", "genre_ids": [10749, 35], "id": 24570, "original_language": "en", "original_title": "Carry On Loving", "overview": "The Wedded Bliss computer dating agency aims to bring together the lonely hearts of Much-Snoggin-in-the-Green. Its owner, Sidney Bliss, has enough complications in his own love life, but still produces a pamphlet called \"The Wit to Woo\". The strange collection of hopefuls lead to some outlandish matches, and jealousies are bound to lead to trouble", "poster_path": "/iNpcpjfyng5Sg1C9PKxcR4a7dEp.jpg", "release_date": "1970-09-20", "title": "Carry On Loving", "video": false, "vote_average": 6.3, "vote_count": 22, "popularity": 3.443}, {"adult": false, "backdrop_path": "/4umgP6ax4gP05hVHIeW1L360bAH.jpg", "genre_ids": [35, 18], "id": 84200, "original_language": "en", "original_title": "For a Good Time, Call...", "overview": "College \"frenemies\" Lauren and Katie move in together after losing a relationship and rent control, respectively. Sharing Katie's late grandmother's apartment in New York City, the girls bicker with each other until one fateful night, when Katie's noisy bedroom activities make Lauren barge in and discover a dirty little secret. This revelation brings them closer together, and Lauren (the brains) and Katie (the talent) concoct a wildly successful business venture. As profits swell, the girls reevaluate their hopes and dreams and realize that just because someone pees in your hair in college doesn't mean she won't be your best friend 10 years later.", "poster_path": "/vkdwzGV0IPK3i6qVV24PnkKP7Ej.jpg", "release_date": "2012-08-31", "title": "For a Good Time, Call...", "video": false, "vote_average": 5.9, "vote_count": 178, "popularity": 9.158}, {"id": 24568, "video": false, "vote_count": 25, "vote_average": 6.2, "title": "Carry On Follow That Camel", "release_date": "1967-09-01", "original_language": "en", "original_title": "Carry On Follow That Camel", "genre_ids": [35], "backdrop_path": "/nIygoFVtpSu3S4K9VksmAFmY4AJ.jpg", "adult": false, "overview": "Bertram Oliphant West (also known as Bo West) wants to clear his unjustly smeared reputation. He joins the Foreign Legion, with Simpson his manservant in tow. But the fort they get posted to is full of eccentric legionnaires, and there is trouble brewing with the locals too. Unbeknown to Bo, his lady love has followed him in disguise...", "poster_path": "/8nifhAeOQoTJReWuJTTnsUn2pBa.jpg", "popularity": 6.068}, {"adult": false, "backdrop_path": "/8A7PZ8gNnK2Qa1DeVm3GyFu0mwU.jpg", "genre_ids": [35], "id": 5064, "original_language": "en", "original_title": "Carry on Doctor", "overview": "Francis Bigger, a notorious charlatan who tours the country lecturing on the subject of mind over matter, slips off the platform in the middle of his performance and ends up in hospital under the care of Dr Tinkle. The hospital is about to enter a period of total chaos. The regular Carry On team is joined by Frankie Howerd as the fraudulent Francis in this 'bed-panorama of hospital life'.", "poster_path": "/dF7jXY65vFzCNO2VHHTVQ8VBk2d.jpg", "release_date": "1967-12-02", "title": "Carry on Doctor", "video": false, "vote_average": 6.9, "vote_count": 35, "popularity": 6.183}, {"adult": false, "backdrop_path": "/czZiiX5Nc9lCPJfGYgn5IwSIE02.jpg", "genre_ids": [35], "id": 19307, "original_language": "en", "original_title": "Carry On Camping", "overview": "Sid and Bernie keep having their amorous intentions snubbed by their girlfriends Joan and Anthea, so when they decide to take them on a holiday to Paradise Camp, they think they're off to a nudist colony - but they couldn't be more wrong, and meet up with the weirdest bunch of campers you can imagine! Coach-loads of sex-starved schoolgirls and a party of hippies all add to the laughs.", "poster_path": "/dyas4yIxnhGarAhkuD7gsRCR7eQ.jpg", "release_date": "1969-05-29", "title": "Carry On Camping", "video": false, "vote_average": 6.8, "vote_count": 45, "popularity": 5.616}, {"adult": false, "backdrop_path": "/qqD4PWg2tEKa8zVM6l7733H3SqR.jpg", "genre_ids": [35], "id": 21240, "original_language": "en", "original_title": "Carry On Constable", "overview": "With a flu epidemic running rife, three new bumbling recruits are assigned to Inspector Mills police station. With help from Special Constable Gorse, they manage to totally wreck the operations of the police force and let plenty of criminals get away, even before they arrive at the station. They all have to prove themselves or else they'll be out of a job and Sergeant Wilkins will be transferred. Sub-plots include romances between Wilkins and Moon, Constable and Passworthy.", "poster_path": "/65z5FOEdAb0o76hUSDAws19JWuZ.jpg", "release_date": "1960-02-22", "title": "Carry On Constable", "video": false, "vote_average": 6.8, "vote_count": 22, "popularity": 4.609}, {"adult": false, "backdrop_path": "/liphMCz8XZo74SOuGQIRdWJTsyg.jpg", "genre_ids": [35], "id": 32113, "original_language": "en", "original_title": "Carry On Teacher", "overview": "Prepare for Six of the Best as the Carry On team cause chaos in the school yard. When a well-loved headmaster decides to retire, his scheming pupils have other ideas. The cunning boys unleash a campaign of practical jokes, armed with gin, itching power and bombs! No one is safe from the classroom havoc in this Carry On starring all the regulars including the immortal Kenneth Williams, Charl", "poster_path": "/sB7TuieJrkplttoiGSr2BHvdEtN.jpg", "release_date": "1959-08-25", "title": "Carry On Teacher", "video": false, "vote_average": 6.7, "vote_count": 21, "popularity": 2.151}, {"adult": false, "backdrop_path": "/r1BgTOe5W26Oeok5YtTVy7SjS1z.jpg", "genre_ids": [35], "id": 19252, "original_language": "en", "original_title": "Carry On Abroad", "overview": "A group of holidaymakers head for the Spanish resort of Elsbels for a 4-day visit. When they get there, they find the Hotel still hasn't been finished being built, and the weather is awful. And there is something strange about the staff. They all look very similar. To top it all off, the weather seems to be having an adverse affect on the Hotel's foundations...", "poster_path": "/zMIfEFRgvmu6mF53TOQmtd0xChh.jpg", "release_date": "1972-12-01", "title": "Carry On Abroad", "video": false, "vote_average": 6.7, "vote_count": 40, "popularity": 4.568}, {"adult": false, "backdrop_path": "/jLohjFw8H581hF0TMQkjOTtB1iE.jpg", "genre_ids": [35, 27], "id": 5060, "original_language": "en", "original_title": "Carry On Screaming", "overview": "The sinister Dr Watt has an evil scheme going. He's kidnapping beautiful young women and turning them into mannequins to sell to local stores. Fortunately for Dr Watt, Detective-Sergeant Bung is on the case, and he doesn't have a clue! In this send up of the Hammer Horror movies, there are send-ups of all the horror greats from Frankenstein to Dr Jekyl and Mr Hyde.", "poster_path": "/sBggfJGLbEK9MqYkwiQ6WQyQ4pP.jpg", "release_date": "1966-05-20", "title": "Carry On Screaming", "video": false, "vote_average": 6.6, "vote_count": 58, "popularity": 5.622}, {"adult": false, "backdrop_path": "/cZgeljK0L5FqKaup6BGo6MjcO0E.jpg", "genre_ids": [35], "id": 19297, "original_language": "en", "original_title": "Carry On at Your Convenience", "overview": "This is the tale of industrial strife at WC Boggs' Lavatory factory. Vic Spanner is the union representative who calls a strike at the drop of a hat; eventually everyone has to get fed up with him. This is also the ideal opportunity for lots of lavatorial jokes...", "poster_path": "/jTXFbcwab784TaOkRxA8MZQTkrt.jpg", "release_date": "1971-12-10", "title": "Carry On at Your Convenience", "video": false, "vote_average": 6.3, "vote_count": 30, "popularity": 4.22}, {"id": 313867, "video": false, "vote_count": 64, "vote_average": 7.1, "title": "Roald Dahl's Esio Trot", "release_date": "2015-01-02", "original_language": "en", "original_title": "Roald Dahl's Esio Trot", "genre_ids": [35, 10749], "backdrop_path": "/iucckhzSCUCyQjg4hp1hiY0G9ma.jpg", "adult": false, "overview": "Mr. Hoppy is a shy old man who lives alone in an apartment building. For many years, he has been secretly in love with Mrs. Silver, a woman who lives below him.  Mr. Hoppy frequently leans over his balcony and exchanges polite conversation with Mrs. Silver, but he is too shy to disclose how he feels.  Mr. Hoppy longs to express his feelings to Mrs. Silver, but he can never bring his lips to form the words.  Mrs. Silver has a small pet tortoise, Alfie, whom she loves very much.  One morning, Mrs. Silver mentions to Mr. Hoppy that even though she has had Alfie for many years, her pet has only grown a tiny bit and has gained only 3 ounces in weight.  She confesses that she wishes she knew of some way to make her little Alfie grown into a larger, more dignified tortoise.  Mr. Hoppy suddenly thinks of a way to give Mrs. Silver her wish and win her affection.", "poster_path": "/uaz3IDv0AWJvzUuGucTQAFNbqxx.jpg", "popularity": 9.914}, {"adult": false, "backdrop_path": "/ppjf2RDN3vz0LV75OKsLw9gBeIP.jpg", "genre_ids": [35], "id": 5061, "original_language": "en", "original_title": "Carry On Don't Lose Your Head", "overview": "The time of the French revolution, and Citizen Robespierre is beheading the French aristocracy. When word gets to England, two noblemen, Sir Rodney Ffing and Lord Darcy take it upon themselves to aid their French counterparts. Sir Rodney is a master of disguise, and becomes \"the black fingernail\", scourge of Camembert and Bidet, leaders of the French secret police...", "poster_path": "/208mtNGraxhGxKHkG3vIeg5cTbm.jpg", "release_date": "1966-12-10", "title": "Carry On Don't Lose Your Head", "video": false, "vote_average": 7.0, "vote_count": 26, "popularity": 6.905}, {"adult": false, "backdrop_path": "/9Yyzlvy0JW7SSNwgibhcLLS0q86.jpg", "genre_ids": [35], "id": 32107, "original_language": "en", "original_title": "Carry On Nurse", "overview": "Set in Haven Hospital where a certain men's ward is causing more havoc than the whole hospital put together. The formidable Matron's debut gives the patients a chill every time she walks past, with only Reckitt standing up to her. There's a colonel who is a constant nuisance, a bumbling nurse, a romance between Ted York and Nurse Denton, and Bell who wants his bunion removed straight away, so after drinking alcohol, the men decide to remove the bunion themselves!", "poster_path": "/s2Zi9QCAakd7h8RSW9laKUv0XFO.jpg", "release_date": "1959-03-10", "title": "Carry On Nurse", "video": false, "vote_average": 6.5, "vote_count": 26, "popularity": 4.003}, {"id": 19725, "video": false, "vote_count": 20, "vote_average": 4.1, "title": "Carry On Columbus", "release_date": "1992-10-02", "original_language": "en", "original_title": "Carry On Columbus", "genre_ids": [35], "backdrop_path": "/pAnvYJjkh0XIqBWPSj1bE5y5l5M.jpg", "adult": false, "overview": "Christopher Columbus believes he can find an alternative route to the far East and persuades the King and Queen of Spain to finance his expedition...", "poster_path": "/kqOXT9vXdf5voHKA1wfVNSVj88z.jpg", "popularity": 4.72}, {"adult": false, "backdrop_path": "/1H7JfQPNL2hoMTTrnkZV2jYR7p9.jpg", "genre_ids": [35], "id": 26329, "original_language": "en", "original_title": "Carry On Girls", "overview": "Local councillor Sidney Fiddler persuades the Mayor to help improve the image of their rundown seaside town by holding a beauty contest. But formidable Councillor Prodworthy, head of the local women's liberation movement, has other ideas. It's open warfare as the women's lib attempt to sabotage the contest.", "poster_path": "/x4dDxut8AcB3pwFATYRaH0N05cv.jpg", "release_date": "1973-11-09", "title": "Carry On Girls", "video": false, "vote_average": 6.1, "vote_count": 32, "popularity": 7.394}, {"adult": false, "backdrop_path": "/g2nl88eMC3QTy5MqnHNE1k6aa1m.jpg", "genre_ids": [35], "id": 32109, "original_language": "en", "original_title": "Carry On Spying", "overview": "Carry On favourite Barbara Windsor makes her debut in this outrageous send-up of the James Bond movies. Fearless agent Desmond Simpkins and James Bind, aided and abetted by the comely Agent Honeybutt and Agent Crump, battle against the evil powers of international bad guys STENCH and their three cronies.", "poster_path": "/2IaDkGbT0WCGht7QMTOQICs4flu.jpg", "release_date": "1964-06-01", "title": "Carry On Spying", "video": false, "vote_average": 7.0, "vote_count": 26, "popularity": 3.129}], "total_pages": 3, "total_results": 46}, "recommendations": {"page": 1, "results": [{"adult": false, "backdrop_path": null, "genre_ids": [10749, 18], "id": 50469, "original_language": "en", "original_title": "Le secret d'Emmanuelle", "overview": "Another Emmanuelle movie, with Sylvia Kristal playing an older lady with memories of a younger life...", "poster_path": "/tia3hKKaYZgdmGXbpBjaMGdXeE.jpg", "release_date": "1993-09-10", "title": "Emmanuelle's Secret", "video": false, "vote_average": 3.6, "vote_count": 4, "popularity": 2.712}, {"id": 80605, "video": false, "vote_count": 8, "vote_average": 5.4, "title": "A Man in Love", "release_date": "1987-05-07", "original_language": "fr", "original_title": "Un homme amoureux", "genre_ids": [18, 10749], "backdrop_path": "/l9JFgfeeZpxoD0snhGa252WK0nP.jpg", "adult": false, "overview": "An American film-star and an unknown British actress meet on set in Rome. She is angry when he refuses to speak to her journalist father, but later they have a passionate relationship.", "poster_path": "/hmongXZxfF9ylzBq7UzMkgef1Qd.jpg", "popularity": 4.137}, {"adult": false, "backdrop_path": "/86whq876ye7aOqx60WLhdU1ZpOa.jpg", "genre_ids": [80, 18], "id": 162040, "original_language": "en", "original_title": "Too Hot to Handle", "overview": "In London's Soho, Johnny Solo runs the Pink Flamingo Club. He's tough to intimidate. So when he starts getting threats and demands for protection, he fights back. Behind the takeover plot is a competitor, Diamonds Dielli. Midnight Franklin, who's Johnny's girlfriend and one of the club's headliners, wants to get Johnny out of the business. In the background are a sadistic client, an underage chorus girl, a wisecracking siren who's not averse to rough trade, a visiting journalist, and a dancer who guards her past. Can Johnny win the struggle with Diamonds, and can Midnight get him out of harm's way?", "poster_path": "/yOielL8wSOgGqedtCx7lCcDqasS.jpg", "release_date": "1960-12-01", "title": "Too Hot to Handle", "video": false, "vote_average": 4.4, "vote_count": 9, "popularity": 3.367}, {"adult": false, "backdrop_path": "/ffwj04cbbOEoxFscU5vnqzXYf8y.jpg", "genre_ids": [35], "id": 80850, "original_language": "en", "original_title": "Goin' to Town", "overview": "Goin' to Town is the story of an ambitious woman named Cleo Borden (Mae West) who grew up in a saloon. She loves the men and the men love her, but her aspirations lead her to enter into a contract to marry a wealthy man (Fred Kohler). Fortunately for her, he dies and leaves her all of his fortune. She soon learns that although she has money, she is not yet a lady, so she embarks on a journey to become one. She has no desire to change herself, but the man she sets her sights on (Paul Cavanagh) does, so she obliges.", "poster_path": "/hozFvBaWCjCqk6lusSy9dwpkmuq.jpg", "release_date": "1935-04-25", "title": "Goin' to Town", "video": false, "vote_average": 5.2, "vote_count": 7, "popularity": 1.93}, {"adult": false, "backdrop_path": "/cMIv99W43RErVDhklLgF8uHRV5K.jpg", "genre_ids": [18], "id": 36520, "original_language": "en", "original_title": "Playgirl", "overview": "If you remember Shelley Winters from \"The Poseidon Adventure\" or \"Bloody Mama,\" you might tend to forget what a knockout she was early in her career. This film will give you the chance to see her as a sexy nightclub singer teaching her just-in-from-the-sticks friend Colleen Miller the ropes in New York City. When Winters finds out that her married boyfriend Barry Sullivan has fallen for Miller, the recriminations...and bullets...start to fly!", "poster_path": "/dNRidavRPYZFVzYXlz9soOmm9th.jpg", "release_date": "1954-04-21", "title": "Playgirl", "video": false, "vote_average": 4.3, "vote_count": 5, "popularity": 1.858}], "total_pages": 1, "total_results": 5}, "credits": {"cast": [{"cast_id": 2, "character": "Mavis Arden", "credit_id": "52fe4847c3a368484e0f0ea9", "gender": 1, "id": 103616, "name": "Mae West", "order": 0, "profile_path": "/vYadtnVE1t4X8cF8LA7WCNQXNbh.jpg"}, {"cast_id": 3, "character": "Morgan", "credit_id": "52fe4847c3a368484e0f0ead", "gender": 2, "id": 76974, "name": "Warren William", "order": 1, "profile_path": "/7SYBx7c5q9ftNtOSjEGBaIrjNJS.jpg"}, {"cast_id": 4, "character": "Bud Norton", "credit_id": "52fe4847c3a368484e0f0eb1", "gender": 2, "id": 1009, "name": "Randolph Scott", "order": 2, "profile_path": "/qM2DNQ7kI9oZqAYfhzgKaGURCnm.jpg"}, {"cast_id": 5, "character": "Mrs. Struthers", "credit_id": "52fe4847c3a368484e0f0eb5", "gender": 1, "id": 125841, "name": "Alice Brady", "order": 3, "profile_path": "/rE7HNowLzB11QwxEiNoZzRGLerq.jpg"}, {"cast_id": 6, "character": "Aunt Kate Barnaby", "credit_id": "52fe4847c3a368484e0f0eb9", "gender": 1, "id": 83237, "name": "Elizabeth Patterson", "order": 4, "profile_path": "/8seWJt9xJlcVhmtku25uCHuxc5t.jpg"}, {"cast_id": 7, "character": "Francis X. Harrigan", "credit_id": "52fe4847c3a368484e0f0ebd", "gender": 2, "id": 34119, "name": "Lyle Talbot", "order": 5, "profile_path": "/gHbCftyesSSHRCEClOQUOVjISV8.jpg"}, {"cast_id": 8, "character": "Gladys", "credit_id": "52fe4847c3a368484e0f0ec1", "gender": 1, "id": 33277, "name": "Isabel Jewell", "order": 6, "profile_path": "/a7DL3IbUiV2x8eiDCkijIi1m1qo.jpg"}, {"cast_id": 9, "character": "Joyce Struthers", "credit_id": "52fe4847c3a368484e0f0ec5", "gender": 0, "id": 590547, "name": "Margaret Perry", "order": 7, "profile_path": "/A2WZpHo7sOo00hI2Pbxy0Qpvykq.jpg"}, {"cast_id": 10, "character": "Prof. Herbert Rigby", "credit_id": "52fe4847c3a368484e0f0ec9", "gender": 2, "id": 104805, "name": "Etienne Girardot", "order": 8, "profile_path": "/sdzBtjX970HEgl0L5pWOm0U37rA.jpg"}, {"cast_id": 11, "character": "Clyde", "credit_id": "52fe4847c3a368484e0f0ecd", "gender": 2, "id": 590548, "name": "Maynard Holmes", "order": 9, "profile_path": "/6jlarVw4C3BFOVLY6d21zsK3Ftx.jpg"}, {"cast_id": 12, "character": "Chauffeur", "credit_id": "52fe4847c3a368484e0f0ed1", "gender": 0, "id": 115331, "name": "John Indrisano", "order": 10, "profile_path": "/p6WGIhWTeGQn7HXpQOvususcOiX.jpg"}, {"cast_id": 13, "character": "Jeanette (French maid)", "credit_id": "52fe4847c3a368484e0f0ed5", "gender": 1, "id": 227461, "name": "Alyce Ardell", "order": 11, "profile_path": null}, {"cast_id": 14, "character": "Nicodemus (as Nicodemus Stewart)", "credit_id": "52fe4847c3a368484e0f0ed9", "gender": 2, "id": 388960, "name": "Nick Stewart", "order": 12, "profile_path": "/dA7Vhz9JowxyqOTJVipvzff1Fph.jpg"}, {"cast_id": 15, "character": "Master of Ceremonies", "credit_id": "52fe4847c3a368484e0f0edd", "gender": 2, "id": 131612, "name": "Charles Irwin", "order": 13, "profile_path": null}, {"cast_id": 16, "character": "Andy Kelton", "credit_id": "52fe4847c3a368484e0f0ee1", "gender": 2, "id": 590550, "name": "Walter Walker", "order": 14, "profile_path": "/9RgAFUeUDjxnUsa4Y2dbGqpqH6E.jpg"}, {"cast_id": 17, "character": "Rico's Girlfriend in 'Drifting Lady'", "credit_id": "573ca06c9251413f5d0002ea", "gender": 1, "id": 30015, "name": "Raquel Torres", "order": 15, "profile_path": "/s8rZNHAiRks2IfMGzVSDtwZHlat.jpg"}, {"cast_id": 18, "character": "Orchestra Leader", "credit_id": "5a66ab53c3a3680cef002fde", "gender": 2, "id": 579763, "name": "Xavier Cugat", "order": 16, "profile_path": "/pZqbwaJrOK44EMrEpwKc6Dd5G9z.jpg"}], "crew": [{"credit_id": "5b04314e0e0a2623da029b56", "department": "Camera", "gender": 2, "id": 9081, "job": "Director of Photography", "name": "Karl Struss", "profile_path": "/bWIt5hnn3pV0p3M8MQcVibT3M6C.jpg"}, {"credit_id": "5b043178925141097302a526", "department": "Production", "gender": 2, "id": 13335, "job": "Executive Producer", "name": "Adolph Zukor", "profile_path": "/h4gkeIGlb8fybIxrPokalu23oFX.jpg"}, {"credit_id": "5b043157c3a3686c7d01f698", "department": "Sound", "gender": 2, "id": 13983, "job": "Original Music Composer", "name": "George Stoll", "profile_path": "/pWhrzMhBXhWEK9rr92E8OPDUghg.jpg"}, {"credit_id": "52fe4847c3a368484e0f0ea5", "department": "Directing", "gender": 0, "id": 37360, "job": "Director", "name": "Henry Hathaway", "profile_path": "/aHXD9EFWbtftnaBzPYfO2dkLLKd.jpg"}, {"credit_id": "5b0431880e0a2623e302804a", "department": "Art", "gender": 2, "id": 103507, "job": "Art Direction", "name": "Wiard B. Ihnen", "profile_path": "/nkwEf86vGJVQqNrAejvj83zzK3x.jpg"}, {"credit_id": "5b043180c3a3686c8903e7cc", "department": "Editing", "gender": 2, "id": 103497, "job": "Editor", "name": "Ray Curtiss", "profile_path": null}, {"credit_id": "5b04310e9251410948021624", "department": "Writing", "gender": 1, "id": 103616, "job": "Screenplay", "name": "Mae West", "profile_path": "/vYadtnVE1t4X8cF8LA7WCNQXNbh.jpg"}, {"credit_id": "5b0431ab9251410948021673", "department": "Production", "gender": 0, "id": 118315, "job": "Production Manager", "name": "Joseph H. Nadel", "profile_path": null}, {"credit_id": "5b0431a10e0a2623c902aaa6", "department": "Directing", "gender": 2, "id": 151748, "job": "Assistant Director", "name": "Hollingsworth Morse", "profile_path": null}, {"credit_id": "5b043169c3a3686c9201b807", "department": "Production", "gender": 2, "id": 1027221, "job": "Producer", "name": "Emanuel Cohen", "profile_path": null}, {"credit_id": "5b043143c3a3686c73039e6e", "department": "Writing", "gender": 0, "id": 1302257, "job": "Theatre Play", "name": "Lawrence Riley", "profile_path": null}, {"credit_id": "5b0431b90e0a2623e002a4f3", "department": "Sound", "gender": 2, "id": 1533682, "job": "Sound", "name": "Hugo Grenzbach", "profile_path": null}, {"credit_id": "5b043160c3a3686c7d01f69d", "department": "Sound", "gender": 0, "id": 1588371, "job": "Original Music Composer", "name": "Herbert Taylor", "profile_path": null}, {"credit_id": "5b04319492514109ab02752c", "department": "Costume & Make-Up", "gender": 0, "id": 2048231, "job": "Costume Design", "name": "Irene Jones", "profile_path": null}, {"credit_id": "5d4ac27a439be1001391f8d7", "department": "Production", "gender": 2, "id": 2375493, "job": "Production Assistant", "name": "John London", "profile_path": null}]}}