{"adult": false, "backdrop_path": "/3hmnN3WRjx8AdoTBVU5uMemT5XB.jpg", "belongs_to_collection": null, "budget": 0, "genres": [{"id": 35, "name": "Comedy"}], "homepage": null, "id": 71921, "imdb_id": "tt0063063", "original_language": "en", "original_title": "Here We Go Round the Mulberry Bush", "overview": "Jamie McGregor (Barry Evans) is a virginal sixth-former in suburbia delivering groceries for the local supermarket, but he is more interested in other matters - Mary, Linda, Paula and Caroline. He tries to seduce the girls of his dreams in the swinging sixties.", "popularity": 3.182, "poster_path": "/w4UIhf3ZqlIp3XUaQzonpuyMgsh.jpg", "production_companies": [{"id": 68488, "logo_path": null, "name": "Giant Film Production", "origin_country": ""}], "production_countries": [{"iso_3166_1": "GB", "name": "United Kingdom"}], "release_date": "1968-01-22", "revenue": 0, "runtime": 96, "spoken_languages": [{"iso_639_1": "en", "name": "English"}], "status": "Released", "tagline": "I am a Virgin", "title": "Here We Go Round the Mulberry Bush", "video": false, "vote_average": 6.1, "vote_count": 7, "keywords": {"keywords": [{"id": 392, "name": "england"}, {"id": 1523, "name": "obsession"}, {"id": 2389, "name": "virgin"}, {"id": 155762, "name": "swinging 60s"}, {"id": 170827, "name": "sex comedy"}]}, "similar": {"page": 1, "results": [{"adult": false, "backdrop_path": "/npClMhFGn4XUkwu6coq5oKAEu6L.jpg", "genre_ids": [35, 10749, 18], "id": 634, "original_language": "en", "original_title": "Bridget Jones's Diary", "overview": "A chaotic Bridget Jones meets a snobbish lawyer, and he soon enters her world of imperfections.", "poster_path": "/ym6kjFFZg6boC0QHBVw6hqJLbxv.jpg", "release_date": "2001-04-13", "title": "Bridget Jones's Diary", "video": false, "vote_average": 6.7, "vote_count": 3080, "popularity": 19.453}, {"adult": false, "backdrop_path": "/bYbnlh6VXFRtcSX82UMDsBDLB5j.jpg", "genre_ids": [18, 10749], "id": 28468, "original_language": "it", "original_title": "La chiave", "overview": "After twenty years of marriage, art professor Nino Rolfe attempts to break down his wife Teresa's conventional modesty. Noticing her affection for their daughter's fianc\u00e9, Nino instigates her sexual interest in him as well. This sets off a chain of unexpected events and emotional complications, as Nino and his unpredictable fascist daughter find that they both enjoy being jealous.", "poster_path": "/e6g2geNLgFzMbriH6EvSJZD78nx.jpg", "release_date": "1983-10-18", "title": "The Key", "video": false, "vote_average": 5.0, "vote_count": 128, "popularity": 15.363}, {"id": 657, "video": false, "vote_count": 1493, "vote_average": 7.1, "title": "From Russia with Love", "release_date": "1963-10-11", "original_language": "en", "original_title": "From Russia with Love", "genre_ids": [28, 12, 53], "backdrop_path": "/vemDErY5wkg2Yg5eTQ7ciPRuyqt.jpg", "adult": false, "overview": "Agent 007 is back in the second installment of the James Bond series, this time battling a secret crime organization known as SPECTRE. Russians Rosa Klebb and Kronsteen are out to snatch a decoding device known as the Lektor, using the ravishing Tatiana to lure Bond into helping them. Bond willingly travels to meet Tatiana in Istanbul, where he must rely on his wits to escape with his life in a series of deadly encounters with the enemy", "poster_path": "/fvIG285JwenrV1K6kVASi1TECJ0.jpg", "popularity": 20.662}, {"id": 708, "video": false, "vote_count": 845, "vote_average": 6.4, "title": "The Living Daylights", "release_date": "1987-06-29", "original_language": "en", "original_title": "The Living Daylights", "genre_ids": [28, 12, 53], "backdrop_path": "/gt0TafbcheJeT9SFewDLqYWk3Sd.jpg", "adult": false, "overview": "James Bond helps a Russian General escape into the west. He soon finds out that the KGB wants to kill him for helping the General. A little while later the General is kidnapped from the Secret Service leading 007 to be suspicious.", "poster_path": "/yEryMe58dx7zm1QBhQFeuYcv2aH.jpg", "popularity": 17.272}, {"adult": false, "backdrop_path": "/lHZ5H1jd4zVJYr1wfLKBdXYtZ17.jpg", "genre_ids": [12, 28, 53], "id": 714, "original_language": "en", "original_title": "Tomorrow Never Dies", "overview": "A deranged media mogul is staging international incidents to pit the world\u2019s superpowers against each other. Now 007 must take on this evil mastermind in an adrenaline-charged battle to end his reign of terror and prevent global pandemonium.", "poster_path": "/k3eI9q7ISgpDEu2CMwR2s6inJVp.jpg", "release_date": "1997-12-11", "title": "Tomorrow Never Dies", "video": false, "vote_average": 6.2, "vote_count": 1728, "popularity": 28.522}, {"adult": false, "backdrop_path": "/9QcYwm5af4JaUSOyuysVEYOyEXn.jpg", "genre_ids": [12, 28, 53], "id": 646, "original_language": "en", "original_title": "Dr. No", "overview": "In the film that launched the James Bond saga, Agent 007 battles mysterious Dr. No, a scientific genius bent on destroying the U.S. space program. As the countdown to disaster begins, Bond must go to Jamaica, where he encounters beautiful Honey Ryder, to confront a megalomaniacal villain in his massive island headquarters.", "poster_path": "/gRdfLVVf6FheOw6mw6wOsKhZG1l.jpg", "release_date": "1962-10-04", "title": "Dr. No", "video": false, "vote_average": 7.0, "vote_count": 1837, "popularity": 31.291}, {"id": 667, "video": false, "vote_count": 1033, "vote_average": 6.6, "title": "You Only Live Twice", "release_date": "1967-06-12", "original_language": "en", "original_title": "You Only Live Twice", "genre_ids": [28, 12, 53], "backdrop_path": "/jahBdYTAGMJaEove9l9hzYpDKJD.jpg", "adult": false, "overview": "A mysterious spacecraft captures Russian and American space capsules and brings the two superpowers to the brink of war. James Bond investigates the case in Japan and comes face to face with his archenemy Blofeld.", "poster_path": "/7dnsJZniZK1Hbc9mOFDYa5W0dHi.jpg", "popularity": 26.38}, {"adult": false, "backdrop_path": "/1N4CeQyy3kh1pqmTGvMU090sCvh.jpg", "genre_ids": [12, 28, 53], "id": 253, "original_language": "en", "original_title": "Live and Let Die", "overview": "James Bond must investigate a mysterious murder case of a British agent in New Orleans. Soon he finds himself up against a gangster boss named Mr. Big.", "poster_path": "/p34OScaro2KdISrT4EMfeh1aS0E.jpg", "release_date": "1973-07-05", "title": "Live and Let Die", "video": false, "vote_average": 6.5, "vote_count": 992, "popularity": 18.177}, {"id": 699, "video": false, "vote_count": 908, "vote_average": 6.5, "title": "For Your Eyes Only", "release_date": "1981-06-23", "original_language": "en", "original_title": "For Your Eyes Only", "genre_ids": [28, 12, 53], "backdrop_path": "/hg8ecg8LrR8ChvZh4aMETNUraGA.jpg", "adult": false, "overview": "A British spy ship has sunk and on board was a hi-tech encryption device. James Bond is sent to find the device that holds British launching instructions before the enemy Soviets get to it first.", "poster_path": "/vpZZZ2eq8z4I6PSeGxR2UWNciGG.jpg", "popularity": 18.605}, {"adult": false, "backdrop_path": "/98ahnrena4PwLth7HFYGLf9yssH.jpg", "genre_ids": [35, 18, 10749], "id": 22705, "original_language": "it", "original_title": "Tra(sgre)dire", "overview": "While scouting out apartments in London for her Venetian boyfriend, Carla rents an apartment that overlooks the Thames. There she meet the lesbian hyper-horny real estate agent Moira.", "poster_path": "/kZITrLEiTfzzJhtwtXhQUl3ImCQ.jpg", "release_date": "2000-01-28", "title": "Cheeky", "video": false, "vote_average": 5.7, "vote_count": 92, "popularity": 30.42}, {"adult": false, "backdrop_path": "/avhG8fITuG78IkKPk28CcBBHPOp.jpg", "genre_ids": [35, 18], "id": 112160, "original_language": "fr", "original_title": "Chroniques sexuelles d'une famille d'aujourd'hui", "overview": "Three generations of a French family open up about their sexual experiences and desires after young Romain is caught masturbating in his biology class.", "poster_path": "/pU2nD3Llaz3Taq5FAaQUg00uJYD.jpg", "release_date": "2012-05-09", "title": "Sexual Chronicles of a French Family", "video": false, "vote_average": 4.4, "vote_count": 169, "popularity": 26.875}, {"id": 2770, "video": false, "vote_count": 2941, "vote_average": 6.1, "title": "American Pie 2", "release_date": "2001-08-10", "original_language": "en", "original_title": "American Pie 2", "genre_ids": [35, 10749], "backdrop_path": "/1C1d3Tpesm8Vn3BRqsQZt0LfZcG.jpg", "adult": false, "overview": "The whole gang are back and as close as ever. They decide to get even closer by spending the summer together at a beach house. They decide to hold the biggest party ever to be seen, even if the preparation doesn't always go to plan. Especially when Stifler, Finch and Jim become more close to each other than they ever want to be and when Jim mistakes super glue for lubricant...", "poster_path": "/q4LNgUnRfltxzp3gf1MAGiK5LhV.jpg", "popularity": 20.359}, {"id": 146216, "video": false, "vote_count": 2566, "vote_average": 6.5, "title": "RED 2", "release_date": "2013-07-18", "original_language": "en", "original_title": "RED 2", "genre_ids": [28, 35, 80, 53], "backdrop_path": "/iOkkgY4byK8MBoF3Mexybu22J1I.jpg", "adult": false, "overview": "Retired C.I.A. agent Frank Moses reunites his unlikely team of elite operatives for a global quest to track down a missing portable nuclear device.", "poster_path": "/dvWITvEzlq8IaUbxUuBVKvXqfo6.jpg", "popularity": 23.213}, {"adult": false, "backdrop_path": "/rTxVvB9snqgEBI2BPLdw4iwvK2E.jpg", "genre_ids": [35, 10749], "id": 6957, "original_language": "en", "original_title": "The 40 Year Old Virgin", "overview": "Andy Stitzer has a pleasant life with a nice apartment and a job stamping invoices at an electronics store. But at age 40, there's one thing Andy hasn't done, and it's really bothering his sex-obsessed male co-workers: Andy is still a virgin. Determined to help Andy get laid, the guys make it their mission to de-virginize him. But it all seems hopeless until Andy meets small business owner Trish, a single mom.", "poster_path": "/5WTywBaFoQhjHTaztkKAfcVmxZn.jpg", "release_date": "2005-08-11", "title": "The 40 Year Old Virgin", "video": false, "vote_average": 6.3, "vote_count": 4101, "popularity": 20.15}, {"adult": false, "backdrop_path": "/by0WtpJ5UNxOy6ytIfPPTasbRoB.jpg", "genre_ids": [28, 12, 35, 18, 10751, 10402, 10749], "id": 17130, "original_language": "en", "original_title": "Crossroads", "overview": "Three friends get together and bury a box making a pact to open it at midnight at their high school graduation. In the little town in Georgia that they live in, things soon change. One is little miss perfect, one is an engaged prom queen, and the other is a pregnant outcast. The night of graduation, they open the box and they strike up a conversation. All of a sudden, one brings up the topic of her going to Los Angeles for a record contract audition. They all decide to go together and they leave. With a little money, they set out on the road with a guy named Ben. When one of them tells the other a rumor that he might be a homicidal maniac they are all scared of him. When they reach LA, Lucy falls in love with Ben and against her father's wishes, she stays and she goes to the audition.", "poster_path": "/egIs4cWxn0iBErFKrQ7STckjj49.jpg", "release_date": "2002-02-15", "title": "Crossroads", "video": false, "vote_average": 5.0, "vote_count": 334, "popularity": 14.197}, {"id": 691, "video": false, "vote_count": 939, "vote_average": 6.7, "title": "The Spy Who Loved Me", "release_date": "1977-07-07", "original_language": "en", "original_title": "The Spy Who Loved Me", "genre_ids": [28, 12, 53], "backdrop_path": "/2tCAEhE2rPONBmUOs4W73AlBWYg.jpg", "adult": false, "overview": "Russian and British submarines with nuclear missiles on board both vanish from sight without a trace. England and Russia both blame each other as James Bond tries to solve the riddle of the disappearing ships. But the KGB also has an agent on the case.", "poster_path": "/vYMgDqQDpqHDhz3enGkwBmTs7p7.jpg", "popularity": 16.084}, {"adult": false, "backdrop_path": "/vXT5Gw09k99o9XXqqxBPz9NKgsa.jpg", "genre_ids": [35, 12], "id": 9285, "original_language": "en", "original_title": "Road Trip", "overview": "Four friends take off on an 1800 mile road trip to retrieve an illicit tape mistakenly mailed to a girl friend.", "poster_path": "/DCoZVnHVvtKTYwfM00dfVRbfUQ.jpg", "release_date": "2000-05-19", "title": "Road Trip", "video": false, "vote_average": 6.0, "vote_count": 1018, "popularity": 20.323}, {"adult": false, "backdrop_path": "/tvTyRu9eKfymkje8d9VoWJEoyUv.jpg", "genre_ids": [18], "id": 53932, "original_language": "es", "original_title": "Las edades de Lul\u00fa", "overview": "Fifteen-year-old Lulu has never known any affection from her family. But when she goes to a rock concert with Pablo, a friend of the family, he introduces Lulu to her first sexual experience. Years later, Pablo and Lulu have married; Pablo has created a sheltered, private world for Lulu, into which nothing intrudes. However, Lulu tires of her cloistered existence, and begins hanging out in shady bars, looking for vicarious thrills and danger.", "poster_path": "/5PK5MAN84o0ESgzeW9euozOLIEe.jpg", "release_date": "1990-12-13", "title": "The Ages of Lulu", "video": false, "vote_average": 5.7, "vote_count": 64, "popularity": 24.141}, {"id": 12531, "video": false, "vote_count": 91, "vote_average": 6.9, "title": "The Apartment", "release_date": "1996-07-27", "original_language": "fr", "original_title": "L'Appartement", "genre_ids": [18, 9648, 10749], "backdrop_path": "/64qyT8m4JQ6YODvXxtbHgKmXBX7.jpg", "adult": false, "overview": "A stylish suspense thriller that confounds the audience while presenting them with an extraordinary and elusive mystery. Max is a former playboy who has decided to settle down by marrying his current love, Muriel. However, during a business trip, Max catches a glimpse of the great lost love of his life, reviving his wanderlust and sending him off on a chase of the elusive Lisa, whom he had overheard suggesting to a friend that her lover, Daniel, had killed someone for her. Soon, Max is trying to unravel the mystery behind the suspicious death of Daniel's wife, which he hopes will lead him closer to Lisa.", "poster_path": "/1sqrQdQTn8jKLhUcPKfRVj639zA.jpg", "popularity": 19.17}, {"id": 44214, "video": false, "vote_count": 9192, "vote_average": 7.6, "title": "Black Swan", "release_date": "2010-12-03", "original_language": "en", "original_title": "Black Swan", "genre_ids": [18, 27, 53], "backdrop_path": "/t8jFs6cOl1YVSfXXZivWtEb14tF.jpg", "adult": false, "overview": "A journey through the psyche of a young ballerina whose starring role as the duplicitous swan queen turns out to be a part for which she becomes frighteningly perfect.", "poster_path": "/dQ7uxvsVTspVIsqjfgQj8usJpwX.jpg", "popularity": 24.558}], "total_pages": 156, "total_results": 3120}, "recommendations": {"page": 1, "results": [{"adult": false, "backdrop_path": "/vNaCDLnIpOh5q5OfAG7pNtTMqqW.jpg", "genre_ids": [10749, 18], "id": 120386, "original_language": "en", "original_title": "The Stud", "overview": "Fontaine Khaled is the wife of a wealthy but boring businessman. She spends his money on her nightclub, The Hobo, and partying. She hires a manager, Tony, to run her club, but it is understood that his job security is dependent on him satisfying her nymphomaniac demands.", "poster_path": "/tTJvRFIXm5pIm3UCjXa165fcC8g.jpg", "release_date": "1978-08-17", "title": "The Stud", "video": false, "vote_average": 5.3, "vote_count": 10, "popularity": 4.258}, {"id": 197393, "video": false, "vote_count": 21, "vote_average": 7.5, "title": "David Bowie: Five Years", "release_date": "2013-05-25", "original_language": "en", "original_title": "David Bowie: Five Years", "genre_ids": [99, 10402], "backdrop_path": "/pK1ameO613Ens8lvMRl6Nq35lEu.jpg", "adult": false, "overview": "Featuring a wealth of previously unseen archive, this film looks at how Bowie continually evolved: from Ziggy Stardust to the Soul Star of Young Americans, to the \u2018Thin White Duke\u2019. It explores his regeneration in Berlin with the critically acclaimed album Heroes, his triumph with Scary Monsters and his global success with Let\u2019s Dance.  With interviews with all his closest collaborators, David Bowie - Five Years presents a unique account of why Bowie has become an \u2018icon of our times\u2019.", "poster_path": "/dSrDAnmKbgcwf3mpM0hYfvpiED9.jpg", "popularity": 4.651}, {"adult": false, "backdrop_path": "/bulq70idapgP2dPKzY95bGB0DVE.jpg", "genre_ids": [80, 35, 12], "id": 37193, "original_language": "en", "original_title": "Hue and Cry", "overview": "A gang of street boys foil a master crook who sends commands for robberies by cunningly altering a comic strip's wording each week, unknown to writer and printer. The first of the Ealing comedies.", "poster_path": "/ihBwuIACX3240158D5TkbFqcqzO.jpg", "release_date": "1947-02-01", "title": "Hue and Cry", "video": false, "vote_average": 6.4, "vote_count": 21, "popularity": 3.93}, {"adult": false, "backdrop_path": "/lGWH4TlMJLWUq2ZajY64leevM2h.jpg", "genre_ids": [35, 53], "id": 42633, "original_language": "en", "original_title": "No Way to Treat a Lady", "overview": "Christopher Gill is a psychotic killer who uses various disguises to trick and strangle his victims. Moe Brummel is a single and harassed New York City police detective who starts to get phone calls from the strangler and builds a strange alliance as a result. Kate Palmer is a swinging, hip tour guide who witnesses the strangler leaving her dead neighbor's apartment and sets her sights on the detective. Moe's live-in mother wishes her son would be a successful Jewish doctor like his big brother.", "poster_path": "/s7PNSefGqMsucSxPD9p8qD6lmEO.jpg", "release_date": "1968-03-20", "title": "No Way to Treat a Lady", "video": false, "vote_average": 6.6, "vote_count": 16, "popularity": 4.046}, {"adult": false, "backdrop_path": "/eigD0M1EgBZ1zrJ99TwYBfTs4PJ.jpg", "genre_ids": [35, 18], "id": 18125, "original_language": "en", "original_title": "Rita, Sue and Bob Too", "overview": "Realistic story of working class Yorkshire life. Two schoolgirls have a sexual fling with a married man. Serious and light-hearted by turns. Rita, Sue And Bob Too was adapted by Andrea Dunbar from two of her own controversial plays.  Rita (Siobhan Finneran) and Sue (Michelle Holmes) are two teenagers living on a run-down council estate in Bradford who both share a job babysitting for Bob (George Costigan) and Michelle's (Lesley Sharp) children.  Whilst giving them a lift home one night, Bob decides to take Rita and Sue up to a deserted, country-side landscape.  Clearly knowing what he has in mind, Rita and Sue are only too happy to oblige and both have a sexual encounter with him that becomes a regular occurrence.  Despite the blatant politically-incorrect nature of the film, this does emerge as a somewhat controversial, though enduringly amusing film that has a sharp, gritty undertone.", "poster_path": "/bNofq5QmwFeFTILeUOzwG9hPe1X.jpg", "release_date": "1987-05-20", "title": "Rita, Sue and Bob Too", "video": false, "vote_average": 6.3, "vote_count": 26, "popularity": 5.917}], "total_pages": 1, "total_results": 5}, "credits": {"cast": [{"cast_id": 1, "character": "Jamie McGregor", "credit_id": "52fe484fc3a368484e0f267f", "gender": 2, "id": 200318, "name": "Barry Evans", "order": 0, "profile_path": "/ppNiMm6tun4rnHGevYDuDZfybLU.jpg"}, {"cast_id": 2, "character": "Mary Gloucester", "credit_id": "52fe484fc3a368484e0f2683", "gender": 1, "id": 41234, "name": "Judy Geeson", "order": 1, "profile_path": "/6HXwztsdjeK4QbgKd1sHlheDfx3.jpg"}, {"cast_id": 3, "character": "Caroline Beauchamp", "credit_id": "52fe484fc3a368484e0f2687", "gender": 1, "id": 10171, "name": "Angela Scoular", "order": 2, "profile_path": "/1My9AjN4VoHUzsQrTnkhW60k1aH.jpg"}, {"cast_id": 4, "character": "Paula", "credit_id": "52fe484fc3a368484e0f268b", "gender": 1, "id": 110456, "name": "Sheila White", "order": 3, "profile_path": "/exBHwAMWCmXVaTOdejFLP7WLI9C.jpg"}, {"cast_id": 5, "character": "Linda", "credit_id": "52fe484fc3a368484e0f268f", "gender": 1, "id": 117549, "name": "Adrienne Posta", "order": 4, "profile_path": null}, {"cast_id": 6, "character": "Audrey", "credit_id": "52fe484fc3a368484e0f2693", "gender": 0, "id": 94800, "name": "Vanessa Howard", "order": 5, "profile_path": "/A8ETTF04qV9Gr4PGJdf2BUfBEsF.jpg"}, {"cast_id": 7, "character": "Claire", "credit_id": "52fe484fc3a368484e0f2697", "gender": 0, "id": 47858, "name": "Diane Keen", "order": 6, "profile_path": "/3oxYqrJZpv2kI4Z3KEN7x2tQxg6.jpg"}, {"cast_id": 8, "character": "Mrs. McGregor", "credit_id": "52fe484fc3a368484e0f269b", "gender": 1, "id": 117113, "name": "Moyra Fraser", "order": 7, "profile_path": "/8brGEcVk9yoblv4m3CE1OZIbuDT.jpg"}, {"cast_id": 9, "character": "Mr. McGregor", "credit_id": "52fe484fc3a368484e0f269f", "gender": 2, "id": 2267, "name": "Michael Bates", "order": 8, "profile_path": "/53ciikCHIcr1thlDFvQtzNNbFAd.jpg"}, {"cast_id": 10, "character": "Mrs. Beauchamp", "credit_id": "52fe484fc3a368484e0f26a3", "gender": 1, "id": 30141, "name": "Maxine Audley", "order": 9, "profile_path": "/1hsZ54YqubfXJcyGj8QFA1OcxPz.jpg"}, {"cast_id": 11, "character": "Mr. Beauchamp", "credit_id": "52fe484fc3a368484e0f26a7", "gender": 2, "id": 656, "name": "Denholm Elliott", "order": 10, "profile_path": "/jUXT98XzhWErwxythYj6KvQR7pL.jpg"}, {"cast_id": 12, "character": "Craig Foster", "credit_id": "52fe484fc3a368484e0f26ab", "gender": 2, "id": 2964, "name": "Nicky Henson", "order": 11, "profile_path": "/yM2V0vt7ksVRw8BPPPIpSkqoXoe.jpg"}, {"cast_id": 14, "character": "Joe McGregor", "credit_id": "52fe484fc3a368484e0f26b3", "gender": 0, "id": 190493, "name": "Allan Warren", "order": 13, "profile_path": null}, {"cast_id": 15, "character": "Arthur", "credit_id": "52fe484fc3a368484e0f26b7", "gender": 2, "id": 24709, "name": "Roy Holder", "order": 14, "profile_path": "/l6gcNmTp0mRF2SKj7BajDjipvh4.jpg"}, {"cast_id": 17, "character": "Spike", "credit_id": "5540d0119251414ae80018b7", "gender": 2, "id": 184990, "name": "Christopher Timothy", "order": 15, "profile_path": "/fdfkq2Hgd6Aas5EmfNUR9o8gLPe.jpg"}, {"cast_id": 18, "character": "Mrs Kelly", "credit_id": "59f2598592514148be02f3be", "gender": 1, "id": 106628, "name": "Marianne Stone", "order": 16, "profile_path": "/gEBNDVpg7fG8M7w65u16gxYvR7P.jpg"}], "crew": [{"credit_id": "52fe484fc3a368484e0f26bd", "department": "Directing", "gender": 2, "id": 33513, "job": "Director", "name": "Clive Donner", "profile_path": null}]}}