{"adult": false, "backdrop_path": "/1XkK4JpIczpKNqhaPuk9uLN93eZ.jpg", "belongs_to_collection": null, "budget": 0, "genres": [{"id": 37, "name": "Western"}], "homepage": null, "id": 72472, "imdb_id": "tt0044488", "original_language": "en", "original_title": "Carson City", "overview": "Mine owner William Sharon (Larry Keating) keeps having his gold shipments held up by a gang of bandits. Sharon hires banker Charles Crocker (Thurston Hall), who happens to have connections in the Central Pacific Railroad, to build a spur line from Virginia City to Carson City, so that the gold can be shipped by railroad. Silent Jeff Kincaid (Randolph Scott) is the railroad engineer. However there is opposition to the railroad, chiefly from another mine owner, Big Jack Davis (Raymond Massey).", "popularity": 2.516, "poster_path": "/iYctW2fNynJBzp9VJCk22FnJxZZ.jpg", "production_companies": [{"id": 174, "logo_path": "/IuAlhI9eVC9Z8UQWOIDdWRKSEJ.png", "name": "Warner Bros. Pictures", "origin_country": "US"}], "production_countries": [{"iso_3166_1": "US", "name": "United States of America"}], "release_date": "1952-06-13", "revenue": 0, "runtime": 87, "spoken_languages": [{"iso_639_1": "en", "name": "English"}], "status": "Released", "tagline": "He comes tearing in with a gun and a grin ... to carve a new notch in the Silver Belt of Nevada !", "title": "Carson City", "video": false, "vote_average": 4.8, "vote_count": 6, "keywords": {"keywords": [{"id": 1197, "name": "nevada"}, {"id": 3515, "name": "banker"}, {"id": 5721, "name": "engineer"}, {"id": 18044, "name": "railroad"}, {"id": 175428, "name": "adventurer"}]}, "similar": {"page": 1, "results": [{"id": 11072, "video": false, "vote_count": 1035, "vote_average": 7.3, "title": "Blazing Saddles", "release_date": "1974-02-07", "original_language": "en", "original_title": "Blazing Saddles", "genre_ids": [35, 37], "backdrop_path": "/tCitxLKMzCxexGlSg4g4IDVC3RM.jpg", "adult": false, "overview": "A town\u2014where everyone seems to be named Johnson\u2014stands in the way of the railroad. In order to grab their land, robber baron Hedley Lemar sends his henchmen to make life in the town unbearable. After the sheriff is killed, the town demands a new sheriff from the Governor, so Hedley convinces him to send the town the first black sheriff in the west.", "poster_path": "/yccgwPNVaqtgS1d0U5jjM6Mnza8.jpg", "popularity": 21.773}, {"adult": false, "backdrop_path": "/fX6o5DCdGVEEZ1OT1IourOUkQMb.jpg", "genre_ids": [16, 35, 10751, 37, 12], "id": 44896, "original_language": "en", "original_title": "Rango", "overview": "When Rango, a lost family pet, accidentally winds up in the gritty, gun-slinging town of Dirt, the less-than-courageous lizard suddenly finds he stands out. Welcomed as the last hope the town has been waiting for, new Sheriff Rango is forced to play his new role to the hilt.", "poster_path": "/afxRbCwwKjrWgGJtsVNs1BW1Dk5.jpg", "release_date": "2011-03-02", "title": "Rango", "video": false, "vote_average": 6.6, "vote_count": 3767, "popularity": 18.996}, {"id": 420814, "video": false, "vote_count": 1615, "vote_average": 7.4, "title": "Christopher Robin", "release_date": "2018-08-02", "original_language": "en", "original_title": "Christopher Robin", "genre_ids": [12, 35, 14, 10751], "backdrop_path": "/uDt8bQ4lGVlabEx5Gl2cPzvy6qz.jpg", "adult": false, "overview": "Christopher Robin, the boy who had countless adventures in the Hundred Acre Wood, has grown up and lost his way. Now it\u2019s up to his spirited and loveable stuffed animals, Winnie The Pooh, Tigger, Piglet, and the rest of the gang, to rekindle their friendship and remind him of endless days of childlike wonder and make-believe, when doing nothing was the very best something.", "poster_path": "/fQYgljzKgkeGEukezaJsMWp7oq1.jpg", "popularity": 16.706}, {"id": 118340, "video": false, "vote_count": 19553, "vote_average": 7.9, "title": "Guardians of the Galaxy", "release_date": "2014-07-30", "original_language": "en", "original_title": "Guardians of the Galaxy", "genre_ids": [28, 12, 878], "backdrop_path": "/kHex2XdOmGtazk1VfJjp4bl7BIc.jpg", "adult": false, "overview": "Light years from Earth, 26 years after being abducted, Peter Quill finds himself the prime target of a manhunt after discovering an orb wanted by Ronan the Accuser.", "poster_path": "/y31QB9kn3XSudA15tV7UWQ9XLuW.jpg", "popularity": 54.669}, {"id": 44115, "video": false, "vote_count": 4926, "vote_average": 7.0, "title": "127 Hours", "release_date": "2010-11-05", "original_language": "en", "original_title": "127 Hours", "genre_ids": [12, 18, 53], "backdrop_path": "/eHUoB8NbvrvKp7KQMNgvc7yLpzM.jpg", "adult": false, "overview": "The true story of mountain climber Aron Ralston's remarkable adventure to save himself after a fallen boulder crashes on his arm and traps him in an isolated canyon in Utah.", "poster_path": "/c6Nu7UjhGCQtV16WXabqOQfikK6.jpg", "popularity": 19.039}, {"adult": false, "backdrop_path": "/arcpWGGnUkGkakOwZo7xfPsaz7h.jpg", "genre_ids": [9648, 53], "id": 2832, "original_language": "en", "original_title": "Identity", "overview": "Complete strangers stranded at a remote desert motel during a raging storm soon find themselves the target of a deranged murderer. As their numbers thin out, the travelers begin to turn on each other, as each tries to figure out who the killer is.", "poster_path": "/xSNSp2wmCUwFavxdkMF417hBc39.jpg", "release_date": "2003-04-25", "title": "Identity", "video": false, "vote_average": 7.2, "vote_count": 2089, "popularity": 15.517}, {"id": 369972, "video": false, "vote_count": 2999, "vote_average": 7.1, "title": "First Man", "release_date": "2018-10-11", "original_language": "en", "original_title": "First Man", "genre_ids": [18, 36], "backdrop_path": "/jrudoaXcoLyHRPdolyOGemXgPEs.jpg", "adult": false, "overview": "A look at the life of the astronaut, Neil Armstrong, and the legendary space mission that led him to become the first man to walk on the Moon on July 20, 1969.", "poster_path": "/i91mfvFcPPlaegcbOyjGgiWfZzh.jpg", "popularity": 33.506}, {"id": 346648, "video": false, "vote_count": 1053, "vote_average": 7.5, "title": "Paddington 2", "release_date": "2017-11-09", "original_language": "en", "original_title": "Paddington 2", "genre_ids": [12, 35, 10751], "backdrop_path": "/mxIrSooBPUoPBukIRFBxjYudQoT.jpg", "adult": false, "overview": "Paddington, now happily settled with the Browns, picks up a series of odd jobs to buy the perfect present for his Aunt Lucy, but it is stolen.", "poster_path": "/zuXMvSQq9F7H29qzuUm0qyUqw6m.jpg", "popularity": 18.948}, {"adult": false, "backdrop_path": "/2J283YNxKhxAqHeVegUJ5mzLfGb.jpg", "genre_ids": [80, 18, 9648], "id": 392044, "original_language": "en", "original_title": "Murder on the Orient Express", "overview": "Genius Belgian detective Hercule Poirot investigates the murder of an American tycoon aboard the Orient Express train.", "poster_path": "/iBlfxlw8qwtUS0R8YjIU7JtM6LM.jpg", "release_date": "2017-11-03", "title": "Murder on the Orient Express", "video": false, "vote_average": 6.7, "vote_count": 6044, "popularity": 24.868}, {"adult": false, "backdrop_path": "/9EetaShpwcbSfrcvDmaFaNMtVyK.jpg", "genre_ids": [28, 27, 53], "id": 396535, "original_language": "ko", "original_title": "\ubd80\uc0b0\ud589", "overview": "Martial law is declared when a mysterious viral outbreak pushes Korea into a state of emergency. Those on an express train to Busan, a city that has successfully fended off the viral outbreak, must fight for their own survival\u2026", "poster_path": "/qWOkfCgioLEf3Km9OWva93RYWAc.jpg", "release_date": "2016-07-20", "title": "Train to Busan", "video": false, "vote_average": 7.7, "vote_count": 3019, "popularity": 24.144}, {"id": 110415, "video": false, "vote_count": 5358, "vote_average": 6.8, "title": "Snowpiercer", "release_date": "2013-08-01", "original_language": "ko", "original_title": "Snowpiercer", "genre_ids": [28, 18, 878], "backdrop_path": "/dUrRhiIb9sWckFsKmdNR39Ot1eG.jpg", "adult": false, "overview": "In a future where a failed global-warming experiment kills off most life on the planet, a class system evolves aboard the Snowpiercer, a train that travels around the globe via a perpetual-motion engine.", "poster_path": "/oP0ZWr6MsaQ1TV7xvnZJMKSfz0H.jpg", "popularity": 24.925}, {"id": 36557, "video": false, "vote_count": 6599, "vote_average": 7.4, "title": "Casino Royale", "release_date": "2006-11-14", "original_language": "en", "original_title": "Casino Royale", "genre_ids": [28, 12, 53], "backdrop_path": "/xq6hXdBpDPIXWjtmvbFmtLvBFJt.jpg", "adult": false, "overview": "Le Chiffre, a banker to the world's terrorists, is scheduled to participate in a high-stakes poker game in Montenegro, where he intends to use his winnings to establish his financial grip on the terrorist market. M sends Bond\u2014on his maiden mission as a 00 Agent\u2014to attend this game and prevent Le Chiffre from winning. With the help of Vesper Lynd and Felix Leiter, Bond enters the most important poker game in his already dangerous career.", "poster_path": "/zlWBxz2pTA9p45kUTrI8AQiKrHm.jpg", "popularity": 34.313}, {"id": 453201, "video": false, "vote_count": 939, "vote_average": 5.4, "title": "The 15:17 to Paris", "release_date": "2018-02-02", "original_language": "en", "original_title": "The 15:17 to Paris", "genre_ids": [18, 36, 53], "backdrop_path": "/gkkBhctHPGg8hrmtWbO3ySZoj4z.jpg", "adult": false, "overview": "In August 2015, an ISIS terrorist boarded train #9364 from Brussels to Paris. Armed with an AK-47 and enough ammo to kill more than 500 people, the terrorist might have succeeded except for three American friends who refused to give in to fear. One was a college student, one was a martial arts enthusiast and airman first class in the U.S. Air Force, and the other was a member of the Oregon National Guard, and all three pals proved fearless as they charged and ultimately overpowered the gunman after he emerged from a bathroom armed and ready to kill.", "poster_path": "/qxJQ0VBCuJkJhJmuWzxI408ngwd.jpg", "popularity": 11.705}, {"id": 424, "video": false, "vote_count": 8985, "vote_average": 8.6, "title": "Schindler's List", "release_date": "1993-11-30", "original_language": "en", "original_title": "Schindler's List", "genre_ids": [18, 36, 10752], "backdrop_path": "/cTNYRUTXkBgPH3wP3kmPUB5U6dA.jpg", "adult": false, "overview": "The true story of how businessman Oskar Schindler saved over a thousand Jewish lives from the Nazis while they worked as slaves in his factory during World War II.", "poster_path": "/yPisjyLweCl1tbgwgtzBCNCBle.jpg", "popularity": 31.046}, {"id": 399035, "video": false, "vote_count": 2684, "vote_average": 6.2, "title": "The Commuter", "release_date": "2018-01-11", "original_language": "en", "original_title": "The Commuter", "genre_ids": [28, 53], "backdrop_path": "/clmYuR1t4TtKcakIOvYIPrjyxDc.jpg", "adult": false, "overview": "A businessman, on his daily commute home, gets unwittingly caught up in a criminal conspiracy that threatens not only his life but the lives of those around him.", "poster_path": "/rDeGK6FIUfVcXmuBdEORPAGPMNg.jpg", "popularity": 31.363}, {"adult": false, "backdrop_path": "/yIszPJawrrp6zcb62d7XJnaxAmw.jpg", "genre_ids": [18], "id": 13078, "original_language": "en", "original_title": "The Babysitters", "overview": "Seventeen-year-old Shirley is a good student who works as a babysitter in order to make money for college. One night Michael, a father Shirley works for, confesses he's unhappy with married life. Shirley has a crush on Michael, and seizes this moment to kiss him. Michael is so happy he presents Shirley with a big tip, which gives her an idea. Shirley plans to make extra money by setting up her teenage friends with other unhappy fathers.", "poster_path": "/nsrNUqGXI95unRKZEu8BJ584xWn.jpg", "release_date": "2007-09-11", "title": "The Babysitters", "video": false, "vote_average": 5.3, "vote_count": 153, "popularity": 16.136}, {"id": 196, "video": false, "vote_count": 6110, "vote_average": 7.4, "title": "Back to the Future Part III", "release_date": "1990-05-25", "original_language": "en", "original_title": "Back to the Future Part III", "genre_ids": [12, 35, 878], "backdrop_path": "/pP2a4MBQbIeZMbErBWMjxTT5Npb.jpg", "adult": false, "overview": "The final installment of the Back to the Future trilogy finds Marty digging the trusty DeLorean out of a mineshaft and looking for Doc in the Wild West of 1885. But when their time machine breaks down, the travelers are stranded in a land of spurs. More problems arise when Doc falls for pretty schoolteacher Clara Clayton, and Marty tangles with Buford Tannen.", "poster_path": "/6DmgPTZYaug7QNDjOhUDWyjOQDl.jpg", "popularity": 17.191}, {"adult": false, "backdrop_path": "/pddDWflAgEUex06MOjfRmAl9ZWq.jpg", "genre_ids": [28, 53], "id": 44048, "original_language": "en", "original_title": "Unstoppable", "overview": "A runaway train, transporting deadly, toxic chemicals, is barreling down on Stanton, Pennsylvania,  and proves to be unstoppable until a veteran engineer and young conductor risk their lives to try and stop it with a switch engine.", "poster_path": "/b2uI9tSssC4D7vCgdES6IZJXuCs.jpg", "release_date": "2010-11-04", "title": "Unstoppable", "video": false, "vote_average": 6.4, "vote_count": 2086, "popularity": 16.765}, {"adult": false, "backdrop_path": "/zGutQCLUIQ5LakubDZtfM8s22eA.jpg", "genre_ids": [9648, 18], "id": 15, "original_language": "en", "original_title": "Citizen Kane", "overview": "Newspaper magnate, Charles Foster Kane is taken from his mother as a boy and made the ward of a rich industrialist. As a result, every well-meaning, tyrannical or self-destructive move he makes for the rest of his life appears in some way to be a reaction to that deeply wounding event.", "poster_path": "/sav0jxhqiH0bPr2vZFU0Kjt2nZL.jpg", "release_date": "1941-04-30", "title": "Citizen Kane", "video": false, "vote_average": 8.1, "vote_count": 2762, "popularity": 18.233}, {"adult": false, "backdrop_path": "/4h6c98SPvXCfmZ0Qn5TaCZisy2K.jpg", "genre_ids": [53, 28, 9648], "id": 59965, "original_language": "en", "original_title": "Abduction", "overview": "A young man sets out to uncover the truth about his life after finding his baby photo on a missing persons website.", "poster_path": "/cUT6NQP5LAJpmUoStGtXmvNt4zA.jpg", "release_date": "2011-09-22", "title": "Abduction", "video": false, "vote_average": 5.8, "vote_count": 1957, "popularity": 18.326}], "total_pages": 39, "total_results": 765}, "recommendations": {"page": 1, "results": [{"adult": false, "backdrop_path": "/3At9miJNY3FvjZHNSdsG8Q6bMfr.jpg", "genre_ids": [37], "id": 99886, "original_language": "en", "original_title": "The Oklahoman", "overview": "After his wife dies in childbirth, a doctor (Joel McCrea) settles down in the small Oklahoma town of Cherokee Wells to raise his newborn daughter. Unfortunately, not all the citizens there are hospitable, especially when the doctor hires a pretty Indian teenager (Gloria Talbott) as his child's nanny. Directed by Francis D. Lyon and released in 1957, this western also stars Barbara Hale, Brad Dexter, Verna Felton, Esther Dale, Douglas Dick, Michael Pate, Sheb Wooley, Ray Teal, Mimi Gibson and Anthony Caruso.", "poster_path": "/lu63tVUt9m7OEKdAuLsQ2FN03k0.jpg", "release_date": "1957-05-19", "title": "The Oklahoman", "video": false, "vote_average": 4.4, "vote_count": 7, "popularity": 4.52}, {"id": 35561, "video": false, "vote_count": 13, "vote_average": 5.1, "title": "Arizona", "release_date": "1940-12-25", "original_language": "en", "original_title": "Arizona", "genre_ids": [37], "backdrop_path": "/At0zkUE1pRtQD1ABy8fgUfzzibl.jpg", "adult": false, "overview": "Phoebe Titus is a tough, swaggering pioneer woman, but her ways become decidedly more feminine when she falls for California bound Peter Muncie. But Peter won't be distracted from his journey and Phoebe is left alone and plenty busy with villains Jefferson Carteret and Lazarus Ward plotting at every turn to destroy her freighting company. She has not seen the last of Peter, however.", "poster_path": "/6aZm35sWDtZGMGfO7VqHmjLPjfc.jpg", "popularity": 4.857}, {"adult": false, "backdrop_path": "/4KwfVz5wzzwot8U6XKVuUvLnDlE.jpg", "genre_ids": [28, 37], "id": 39558, "original_language": "en", "original_title": "Face of a Fugitive", "overview": "A man who was falsly accused for murder escapes the sheriffs and starts a new life in a town at the border of the States to Mexico. But he cannot settle in peace as his chasers are trying to find him.", "poster_path": "/oSW7DKN6ayxkosDX003JyCtWMsH.jpg", "release_date": "1959-05-01", "title": "Face of a Fugitive", "video": false, "vote_average": 3.8, "vote_count": 8, "popularity": 5.34}, {"adult": false, "backdrop_path": "/7zo7zTqe8qAUckAvygnyK9gPmW9.jpg", "genre_ids": [37], "id": 76868, "original_language": "en", "original_title": "Posse from Hell", "overview": "Murphy goes after bad guys who shot his friend the sheriff and abducted a local girl. In a plot reminiscent of High Noon, the posse of town blowhards gradually abandons Murphy; only tenderfoot banker Saxon remains, to prove his manhood. When they find the girl, obviously abused by her captors, Murphy shows her acceptance and sympathy whereas the others disply only revulsion.", "poster_path": "/3vGl992NB8pIEjNiiWvbQrrarH2.jpg", "release_date": "1961-05-01", "title": "Posse from Hell", "video": false, "vote_average": 5.0, "vote_count": 11, "popularity": 5.213}, {"adult": false, "backdrop_path": "/imYpLjpLsPrhmiTJb7dgOBD3IQy.jpg", "genre_ids": [37, 28], "id": 18807, "original_language": "en", "original_title": "Kansas Pacific", "overview": "Just before the Civil War (but after the South has seceded), Southern saboteurs try to prevent railroad construction from crossing Kansas to the frontier; army captain Nelson is sent out to oppose them. As the tracks push westward, Nelson must contend with increasingly violent sabotage, while trying to romance the foreman's pretty daughter Barbara.", "poster_path": "/cO4G1U2V8btb8qYoCUk5bvIYgox.jpg", "release_date": "1953-02-22", "title": "Kansas Pacific", "video": false, "vote_average": 4.5, "vote_count": 10, "popularity": 4.053}, {"id": 43380, "video": false, "vote_count": 28, "vote_average": 6.5, "title": "Rawhide", "release_date": "1951-03-25", "original_language": "en", "original_title": "Rawhide", "genre_ids": [37], "backdrop_path": "/1Evd52JBZ4aWwYIr2TozW8UsLp.jpg", "adult": false, "overview": "Not a Rowdy Yates in sight in this western set in a stop over for the California to St Louis mail stagecoach run. The two staff are warned that four dangerous outlaws are in the area, and together with a female stage passenger and her baby they wait patiently for the word to go round that these men have been caught. Can you guess where the outlaws decide to hide out while they plan a large gold robbery? What follows is a film that concentrates on small details (like attempts to slip a warning note to a passing stage, or to reach a hidden gun that the bad guys don't know about) as the captives try anything to get away from the outlaws.", "poster_path": "/llYAIeGyn78XlvSZzUKPoZFw7hY.jpg", "popularity": 5.892}], "total_pages": 1, "total_results": 6}, "credits": {"cast": [{"cast_id": 1, "character": "Silent Jeff Kincaid", "credit_id": "52fe486ec3a368484e0f7f37", "gender": 2, "id": 1009, "name": "Randolph Scott", "order": 0, "profile_path": "/qM2DNQ7kI9oZqAYfhzgKaGURCnm.jpg"}, {"cast_id": 8, "character": "Susan Mitchell", "credit_id": "52fe486ec3a368484e0f7f53", "gender": 0, "id": 1012992, "name": "Lucille Norman", "order": 1, "profile_path": "/yUfOca7md9L2C6KQUupyidHHpCd.jpg"}, {"cast_id": 9, "character": "Big Jack Davis", "credit_id": "52fe486ec3a368484e0f7f57", "gender": 2, "id": 2669, "name": "Raymond Massey", "order": 2, "profile_path": "/hGum9pfA0NOSD1CYXyG4TYc3upQ.jpg"}, {"cast_id": 10, "character": "Alan Kincaid", "credit_id": "52fe486ec3a368484e0f7f5b", "gender": 2, "id": 10161, "name": "Richard Webb", "order": 3, "profile_path": "/n5uFxSSi6mEzAarMNk6uDrdxKo3.jpg"}, {"cast_id": 11, "character": "Jim Squires", "credit_id": "52fe486ec3a368484e0f7f5f", "gender": 2, "id": 100945, "name": "James Millican", "order": 4, "profile_path": "/jRGu5a4dNfVYBty6UrlBgI81KFV.jpg"}, {"cast_id": 12, "character": "William Sharon", "credit_id": "52fe486ec3a368484e0f7f63", "gender": 2, "id": 113654, "name": "Larry Keating", "order": 5, "profile_path": "/fnPWT7akYTPoLCpOlbzlFaqmIIn.jpg"}, {"cast_id": 13, "character": "Henry Dodson", "credit_id": "52fe486ec3a368484e0f7f67", "gender": 2, "id": 32218, "name": "George Cleveland", "order": 6, "profile_path": "/pbfP5mephNymAfn3uqADdMTqny5.jpg"}, {"cast_id": 14, "character": "Hardrock Haggerty", "credit_id": "52fe486ec3a368484e0f7f6b", "gender": 0, "id": 120309, "name": "William Haade", "order": 7, "profile_path": "/4u5EXYEvuR9eqv1OVw6diL6U2na.jpg"}, {"cast_id": 15, "character": "Charles Crocker", "credit_id": "52fe486ec3a368484e0f7f6f", "gender": 2, "id": 30539, "name": "Don Beddoe", "order": 8, "profile_path": "/oxw6lijgT7ty3mmWMsGI7KefvNq.jpg"}, {"cast_id": 16, "character": "Charles Crocker", "credit_id": "52fe486ec3a368484e0f7f73", "gender": 2, "id": 34277, "name": "Thurston Hall", "order": 9, "profile_path": "/kRjCgZ5ylQACboFkcgzdJhHxIX.jpg"}, {"cast_id": 17, "character": "Henry", "credit_id": "52fe486ec3a368484e0f7f77", "gender": 2, "id": 13357, "name": "Vince Barnett", "order": 10, "profile_path": "/vOvZ6SSFHNKRwxGwVbp7bA2vX2l.jpg"}, {"cast_id": 20, "character": "Stagecoach Passenger (uncredited)", "credit_id": "53ee84f50e0a267ade0012b7", "gender": 1, "id": 108434, "name": "Ida Moore", "order": 11, "profile_path": "/oxEUALYcu7DdrOez0eAcT9TBsDt.jpg"}, {"cast_id": 21, "character": "Stagecoach Passenger (uncredited)", "credit_id": "53ee85040e0a26192e00276f", "gender": 1, "id": 85957, "name": "Sarah Edwards", "order": 12, "profile_path": "/rmSSO8YP31eEP9JYbmFRi7QsIon.jpg"}, {"cast_id": 22, "character": "Saloon Girl in Fight (uncredited)", "credit_id": "53ee85120e0a267a71001265", "gender": 1, "id": 34509, "name": "Iris Adrian", "order": 13, "profile_path": "/lLZZYHBg14NJ9aUt7BqeCQri36q.jpg"}], "crew": [{"credit_id": "52fe486ec3a368484e0f7f3d", "department": "Directing", "gender": 0, "id": 81799, "job": "Director", "name": "Andr\u00e9 De Toth", "profile_path": "/jnEkn2AUZknoXDeUiJdsQDvClaJ.jpg"}, {"credit_id": "52fe486ec3a368484e0f7f43", "department": "Writing", "gender": 2, "id": 184701, "job": "Story", "name": "Sloan Nibley", "profile_path": null}, {"credit_id": "52fe486ec3a368484e0f7f49", "department": "Writing", "gender": 2, "id": 30287, "job": "Screenplay", "name": "Winston Miller", "profile_path": null}, {"credit_id": "52fe486ec3a368484e0f7f4f", "department": "Sound", "gender": 2, "id": 17667, "job": "Original Music Composer", "name": "David Buttolph", "profile_path": null}, {"credit_id": "52fe486ec3a368484e0f7f7d", "department": "Production", "gender": 2, "id": 2766, "job": "Producer", "name": "David Weisbart", "profile_path": null}, {"credit_id": "52fe486ec3a368484e0f7f83", "department": "Camera", "gender": 2, "id": 1187871, "job": "Director of Photography", "name": "John W. Boyle", "profile_path": null}]}}