{"adult": false, "backdrop_path": "/9jOwJLIdQwD3XKvPphb9Et3uXMq.jpg", "belongs_to_collection": null, "budget": 0, "genres": [{"id": 18, "name": "Drama"}], "homepage": null, "id": 72819, "imdb_id": "tt1446130", "original_language": "ru", "original_title": "\u041f\u0430\u043b\u0430\u0442\u0430 N\u00b06", "overview": "Simultaneously nihilistic and heartening, Ward No. 6 is based on a story by Chekov, in which a psychiatric doctor becomes a patient in his own asylum. Updated to contemporary Russia, the film is a cocktail of anxieties and riddles, showcasing how easy it is to become what we fear most.", "popularity": 2.066, "poster_path": "/6LGWUN91a4LzKf2F4VNTkCKmC0w.jpg", "production_companies": [{"id": 344, "logo_path": "/xenuUvcunUNpbaDOYGhWZERaym7.png", "name": "Mosfilm", "origin_country": "RU"}], "production_countries": [{"iso_3166_1": "RU", "name": "Russia"}], "release_date": "2009-06-06", "revenue": 0, "runtime": 83, "spoken_languages": [{"iso_639_1": "ru", "name": "P\u0443\u0441\u0441\u043a\u0438\u0439"}], "status": "Released", "tagline": "", "title": "Ward No. 6", "video": false, "vote_average": 5.2, "vote_count": 5, "keywords": {"keywords": [{"id": 818, "name": "based on novel or book"}]}, "similar": {"page": 1, "results": [{"adult": false, "backdrop_path": "/kiWvoV78Cc3fUwkOHKzyBgVdrDD.jpg", "genre_ids": [37, 18, 12], "id": 281957, "original_language": "en", "original_title": "The Revenant", "overview": "In the 1820s, a frontiersman, Hugh Glass, sets out on a path of vengeance against those who left him for dead after a bear mauling.", "poster_path": "/oXUWEc5i3wYyFnL1Ycu8ppxxPvs.jpg", "release_date": "2015-12-25", "title": "The Revenant", "video": false, "vote_average": 7.5, "vote_count": 12127, "popularity": 24.135}, {"adult": false, "backdrop_path": "/2J283YNxKhxAqHeVegUJ5mzLfGb.jpg", "genre_ids": [80, 18, 9648], "id": 392044, "original_language": "en", "original_title": "Murder on the Orient Express", "overview": "Genius Belgian detective Hercule Poirot investigates the murder of an American tycoon aboard the Orient Express train.", "poster_path": "/iBlfxlw8qwtUS0R8YjIU7JtM6LM.jpg", "release_date": "2017-11-03", "title": "Murder on the Orient Express", "video": false, "vote_average": 6.7, "vote_count": 6050, "popularity": 27.701}, {"adult": false, "backdrop_path": "/GRyynLqafMrLFMHqvfGdUweavA.jpg", "genre_ids": [27, 18, 14], "id": 628, "original_language": "en", "original_title": "Interview with the Vampire", "overview": "A vampire relates his epic life story of love, betrayal, loneliness, and dark hunger to an over-curious reporter.", "poster_path": "/hldXwwViSfHJS0kIJr07KBGmHJI.jpg", "release_date": "1994-11-11", "title": "Interview with the Vampire", "video": false, "vote_average": 7.3, "vote_count": 3231, "popularity": 21.064}, {"adult": false, "backdrop_path": "/hm8Gux0946IfeJ1PZwztOo6lVHH.jpg", "genre_ids": [18, 36, 35], "id": 450322, "original_language": "en", "original_title": "The Man Who Invented Christmas", "overview": "In 1843, despite the fact that Dickens is a successful writer, the failure of his latest book puts his career at a crossroads, until the moment when, struggling with inspiration and confronting reality with his childhood memories, a new character is born in the depths of his troubled mind; an old, lonely, embittered man, so vivid, so human, that a whole world grows around him, a story so inspiring that changed the meaning of Christmas forever.", "poster_path": "/xYCuRgEKynGurSEooxDa9pQPF7n.jpg", "release_date": "2017-10-12", "title": "The Man Who Invented Christmas", "video": false, "vote_average": 6.7, "vote_count": 395, "popularity": 12.264}, {"id": 656968, "video": false, "vote_count": 23, "vote_average": 7.0, "title": "A Christmas Carol", "release_date": "2019-12-19", "original_language": "en", "original_title": "A Christmas Carol", "genre_ids": [18, 14], "backdrop_path": "/ubLsCmv36zUUt2zxhFSowYFe5uF.jpg", "adult": false, "overview": "London, 1843. Ebenezer Scrooge, a bitter old man, despises the Christmas holiday. Over the course of Christmas Eve night he is visited by three ghosts to show him his past, present and future.", "poster_path": "/tKW48tnZKaHLBIxxgoAf9BIpyRv.jpg", "popularity": 7.061}, {"adult": false, "backdrop_path": "/sw7mordbZxgITU877yTpZCud90M.jpg", "genre_ids": [18, 80], "id": 769, "original_language": "en", "original_title": "GoodFellas", "overview": "The true story of Henry Hill, a half-Irish, half-Sicilian Brooklyn kid who is adopted by neighbourhood gangsters at an early age and climbs the ranks of a Mafia family under the guidance of Jimmy Conway.", "poster_path": "/pwpGfTImTGifEGgLb3s6LRPd4I6.jpg", "release_date": "1990-09-12", "title": "GoodFellas", "video": false, "vote_average": 8.4, "vote_count": 6559, "popularity": 36.135}, {"adult": false, "backdrop_path": "/fewP7EsMEnfqqcx4qYHKSKebwkF.jpg", "genre_ids": [28, 18, 36], "id": 2669, "original_language": "en", "original_title": "The Bounty", "overview": "The familiar story of Lieutenant Bligh, whose cruelty leads to a mutiny on his ship. This version follows both the efforts of Fletcher Christian to get his men beyond the reach of British retribution, and the epic voyage of Lieutenant Bligh to get his loyalists safely to East Timor in a tiny lifeboat.", "poster_path": "/hXFXIc6F4NXI5emWCKcUwqEPjIZ.jpg", "release_date": "1984-05-04", "title": "The Bounty", "video": false, "vote_average": 6.7, "vote_count": 246, "popularity": 10.539}, {"id": 399019, "video": false, "vote_count": 1322, "vote_average": 5.7, "title": "The Beguiled", "release_date": "2017-06-23", "original_language": "en", "original_title": "The Beguiled", "genre_ids": [18, 37], "backdrop_path": "/5jq7TjRzmvkJsa8bF3zWqxbPtmw.jpg", "adult": false, "overview": "During the Civil War, at a Southern girls\u2019 boarding school, young women take in an injured enemy soldier. As they provide refuge and tend to his wounds, the house is taken over with sexual tension and dangerous rivalries, and taboos are broken in an unexpected turn of events.", "poster_path": "/uQxfqFAqAvNK5b1wD11b2ycDAVg.jpg", "popularity": 12.812}, {"adult": false, "backdrop_path": "/jArl1j9sL2mYjRW23EaZKWAr2E8.jpg", "genre_ids": [18, 36], "id": 399121, "original_language": "fr", "original_title": "J\u2019accuse", "overview": "In 1894, French Captain Alfred Dreyfus is wrongfully convicted of treason and sentenced to life imprisonment at Devil's Island.", "poster_path": "/xMCJhioKlEBoWAJM9aCBKR8J3BT.jpg", "release_date": "2019-09-30", "title": "An Officer and a Spy", "video": false, "vote_average": 7.4, "vote_count": 278, "popularity": 12.331}, {"adult": false, "backdrop_path": "/8cVSUI36ORfCJ6d4TP71wIrdD7h.jpg", "genre_ids": [18, 27], "id": 133805, "original_language": "en", "original_title": "Carrie", "overview": "A reimagining of the classic horror tale about Carrie White, a shy girl outcast by her peers and sheltered by her deeply religious mother, who unleashes telekinetic terror on her small town after being pushed too far at her senior prom.", "poster_path": "/j0999NYddCGcishJlxluDRQIn6k.jpg", "release_date": "2013-10-16", "title": "Carrie", "video": false, "vote_average": 5.9, "vote_count": 2914, "popularity": 15.756}, {"adult": false, "backdrop_path": "/neSLpxwG5TWNzCPDUIZ9kbl2bOL.jpg", "genre_ids": [18, 53, 80], "id": 4836, "original_language": "en", "original_title": "Layer Cake", "overview": "When a seemingly straight-forward drug deal goes awry, XXXX has to break his die-hard rules and turn up the heat, not only to outwit the old regime and come out on top, but to save his own skin...", "poster_path": "/y6BzUkrx789OhVMDXZiBBVHu6OQ.jpg", "release_date": "2004-09-30", "title": "Layer Cake", "video": false, "vote_average": 7.0, "vote_count": 1028, "popularity": 19.131}, {"adult": false, "backdrop_path": "/sRJjliXA7ZqHCr7HCK0ZB83xxjr.jpg", "genre_ids": [12, 28, 878], "id": 101299, "original_language": "en", "original_title": "The Hunger Games: Catching Fire", "overview": "Katniss Everdeen has returned home safe after winning the 74th Annual Hunger Games along with fellow tribute Peeta Mellark. Winning means that they must turn around and leave their family and close friends, embarking on a \"Victor's Tour\" of the districts. Along the way Katniss senses that a rebellion is simmering, but the Capitol is still very much in control as President Snow prepares the 75th Annual Hunger Games (The Quarter Quell) - a competition that could change Panem forever.", "poster_path": "/Hn0KgefVEp0GkdTexS6gfKTMfi.jpg", "release_date": "2013-11-15", "title": "The Hunger Games: Catching Fire", "video": false, "vote_average": 7.4, "vote_count": 12031, "popularity": 22.164}, {"adult": false, "backdrop_path": "/bvbyidkMaBls1LTaIWYY6UmYTaL.jpg", "genre_ids": [28, 878], "id": 336843, "original_language": "en", "original_title": "Maze Runner: The Death Cure", "overview": "Thomas leads his group of escaped Gladers on their final and most dangerous mission yet. To save their friends, they must break into the legendary Last City, a WCKD-controlled labyrinth that may turn out to be the deadliest maze of all. Anyone who makes it out alive will get answers to the questions the Gladers have been asking since they first arrived in the maze.", "poster_path": "/2zYfzA3TBwrMC8tfFbpiTLODde0.jpg", "release_date": "2018-01-10", "title": "Maze Runner: The Death Cure", "video": false, "vote_average": 7.0, "vote_count": 4396, "popularity": 25.259}, {"id": 6114, "video": false, "vote_count": 2611, "vote_average": 7.4, "title": "Dracula", "release_date": "1992-11-13", "original_language": "en", "original_title": "Dracula", "genre_ids": [27, 10749], "backdrop_path": "/hm2stwkNFAaXMEeetJS2RZ77zC1.jpg", "adult": false, "overview": "When Dracula leaves the captive Jonathan Harker and Transylvania for London in search of Mina Harker\u2014the reincarnation of Dracula's long-dead wife, Elisabeta\u2014obsessed vampire hunter Dr. Van Helsing sets out to end the madness.", "poster_path": "/ioHxm3D3JdSXR61LRhcVb8KdZOz.jpg", "popularity": 21.922}, {"adult": false, "backdrop_path": "/20IgqkdFw5kuItqDCJtidSESP0t.jpg", "genre_ids": [27, 18], "id": 10066, "original_language": "en", "original_title": "House of Wax", "overview": "A group of unwitting teens are stranded near a strange wax museum and soon must fight to survive and keep from becoming the next exhibit.", "poster_path": "/uM1RebQywM5PPYsauayefpXGxVk.jpg", "release_date": "2005-04-30", "title": "House of Wax", "video": false, "vote_average": 5.7, "vote_count": 1532, "popularity": 16.398}, {"adult": false, "backdrop_path": "/dLAPTvBwEdP4h7a14isNc0HwmOj.jpg", "genre_ids": [18, 10749], "id": 250734, "original_language": "en", "original_title": "Far from the Madding Crowd", "overview": "Based on the literary classic by Thomas Hardy. Bathsheba Everdene, attracts three very different suitors: Gabriel Oak, a sheep farmer, captivated by her fetching willfulness; Frank Troy, a handsome and reckless Sergeant; and William Boldwood, a prosperous and mature bachelor. This timeless story of Bathsheba's choices and passions explores the nature of relationships and love \u2013 as well as the human ability to overcome hardships through resilience and perseverance.", "poster_path": "/6v1DEaO2TZzrqcaGohUf1K7BXkU.jpg", "release_date": "2015-04-23", "title": "Far from the Madding Crowd", "video": false, "vote_average": 7.0, "vote_count": 643, "popularity": 13.429}, {"id": 457799, "video": false, "vote_count": 1572, "vote_average": 7.0, "title": "Extremely Wicked, Shockingly Evil and Vile", "release_date": "2019-05-02", "original_language": "en", "original_title": "Extremely Wicked, Shockingly Evil and Vile", "genre_ids": [80, 18, 53], "backdrop_path": "/uRoA67sM5vvCI4cplxhl67BTPly.jpg", "adult": false, "overview": "A chronicle of the crimes of Ted Bundy, from the perspective of his longtime girlfriend, Elizabeth Kloepfer, who refused to believe the truth about him for years.", "poster_path": "/zSuJ3r5zr5T26tTxyygHhgkUAIM.jpg", "popularity": 22.062}, {"adult": false, "backdrop_path": "/mAXgaPxxUQg6U446yz8KPRYSUT.jpg", "genre_ids": [12, 18, 10751], "id": 44826, "original_language": "en", "original_title": "Hugo", "overview": "Orphaned and alone except for an uncle, Hugo Cabret lives in the walls of a train station in 1930s Paris. Hugo's job is to oil and maintain the station's clocks, but to him, his more important task is to protect a broken automaton and notebook left to him by his late father. Accompanied by the goddaughter of an embittered toy merchant, Hugo embarks on a quest to solve the mystery of the automaton and find a place he can call home.", "poster_path": "/rSmmVKeW3nsP86V2S6R7ePs4CFw.jpg", "release_date": "2011-11-22", "title": "Hugo", "video": false, "vote_average": 7.1, "vote_count": 4578, "popularity": 20.1}, {"adult": false, "backdrop_path": "/hm4vpIhBW75bTIDTurq2d4rLZy1.jpg", "genre_ids": [53, 18, 27], "id": 3511, "original_language": "en", "original_title": "The Broken", "overview": "The life of a successful radiologist spirals out of control when she sees the spitting image of herself driving down a London street. While attempting to uncover who the imposter could be, she stumbles into a terrifying mystery that her family and closest friends are somehow involved in, leaving her with no one to trust.", "poster_path": "/nGTUsccLUZhF9Bb5fjvL7KrogvC.jpg", "release_date": "2008-01-18", "title": "The Broken", "video": false, "vote_average": 5.5, "vote_count": 113, "popularity": 10.122}, {"id": 84892, "video": false, "vote_count": 6553, "vote_average": 7.7, "title": "The Perks of Being a Wallflower", "release_date": "2012-09-20", "original_language": "en", "original_title": "The Perks of Being a Wallflower", "genre_ids": [18], "backdrop_path": "/uhLcaTPeBpUNgYhZXhDWkj7gMkp.jpg", "adult": false, "overview": "15-year-old freshman Charlie is a wallflower, always watching life from the sidelines, until two charismatic senior students become his mentors. Free-spirited Sam and her stepbrother Patrick help Charlie discover the joys of friendship, first love, music and more, while a teacher sparks Charlie's dreams of becoming a writer.", "poster_path": "/cyNQLnHnXZcTUDXVVSEYmquOTOI.jpg", "popularity": 19.486}], "total_pages": 458, "total_results": 9148}, "recommendations": {"page": 1, "results": [{"adult": false, "backdrop_path": null, "genre_ids": [80, 35], "id": 191595, "original_language": "en", "original_title": "The Impossible Convicts", "overview": "Four prisoners, in convicts' stripes, march backwards down stairs and, under the watchful eyes of guards, hop backwards into their cells. Later, one overpowers a guard and springs his three pals. But, will they be able to pull off an escape? Other guards come to the aid of their fallen comrade before all four felons can flee. Guards and convicts spring forward and backward out of cells, up and down stairs, and into and out of freedom.", "poster_path": "/lbZHAtnpKHEnHscDXNNKeVEzlhm.jpg", "release_date": "1906-01-27", "title": "The Impossible Convicts", "video": false, "vote_average": 5.7, "vote_count": 6, "popularity": 1.4}], "total_pages": 1, "total_results": 1}, "credits": {"cast": [{"cast_id": 3, "character": "Ragin", "credit_id": "52fe487fc3a368484e0fba75", "gender": 2, "id": 240563, "name": "Vladimir Ilin", "order": 0, "profile_path": "/4DJwGRrm5VuZw5gLTJCbjCC36U7.jpg"}, {"cast_id": 4, "character": "Gromov", "credit_id": "52fe487fc3a368484e0fba79", "gender": 2, "id": 548846, "name": "Alexey Vertkov", "order": 1, "profile_path": "/cFEdcdOlj2IvusTtNMLIaTnqPiG.jpg"}, {"cast_id": 5, "character": "Mikhail Averyanovich", "credit_id": "52fe487fc3a368484e0fba7d", "gender": 2, "id": 240543, "name": "Aleksandr Pankratov-Chyornyy", "order": 2, "profile_path": "/bdcTUrztgjnQ2ElL0tcQuqnyW7C.jpg"}, {"cast_id": 6, "character": "Khobotov", "credit_id": "52fe487fc3a368484e0fba81", "gender": 2, "id": 235097, "name": "Evgeniy Stychkin", "order": 3, "profile_path": "/A6l4ebUDXeBnPJUY6E9tEB7PXFD.jpg"}, {"cast_id": 7, "character": "Old chief physician", "credit_id": "52fe487fc3a368484e0fba85", "gender": 2, "id": 39792, "name": "Aleksei Zharkov", "order": 4, "profile_path": "/fVsugSmWdU1dVDG7f3C7QFYhc1T.jpg"}], "crew": [{"credit_id": "52fe487fc3a368484e0fba6b", "department": "Directing", "gender": 2, "id": 235417, "job": "Director", "name": "Karen Shakhnazarov", "profile_path": "/y0yzilBH1TisWu8tCFJXre2drNK.jpg"}, {"credit_id": "52fe487fc3a368484e0fba71", "department": "Directing", "gender": 0, "id": 567218, "job": "Director", "name": "Aleksandr Gornovsky", "profile_path": null}, {"credit_id": "534415470e0a2679ad005f11", "department": "Writing", "gender": 0, "id": 235054, "job": "Writer", "name": "Aleksandr Borodyanskiy", "profile_path": "/7R8maHFQdtttAzi47G8raQn5nHe.jpg"}, {"credit_id": "534415500e0a2679bf005da8", "department": "Writing", "gender": 2, "id": 235417, "job": "Writer", "name": "Karen Shakhnazarov", "profile_path": "/y0yzilBH1TisWu8tCFJXre2drNK.jpg"}, {"credit_id": "5344155e0e0a260be00000f8", "department": "Writing", "gender": 2, "id": 109469, "job": "Novel", "name": "Anton Chekhov", "profile_path": "/jQlZSJWHZTZrBvSfqb8me8S8peP.jpg"}, {"credit_id": "5aea19fe0e0a26291e000d51", "department": "Crew", "gender": 2, "id": 2034865, "job": "Cinematography", "name": "Alexandr Kuznetsov", "profile_path": "/bEovpA0xUQp9ROk4sfBI8A70hVo.jpg"}]}}