{"adult": false, "backdrop_path": "/txGSAqZuHM1l2qFPZqvjUIr4POl.jpg", "belongs_to_collection": null, "budget": 0, "genres": [{"id": 18, "name": "Drama"}], "homepage": "", "id": 73132, "imdb_id": "tt1671496", "original_language": "de", "original_title": "Wer wenn nicht wir", "overview": "In the early 60s, Bernward Vesper and fellow university student Gudrun Ensslin begin a passionate love in the stifling atmosphere of provincial West Germany. Dedicated to the power of the written word, Bernward and Gudrun found a publishing house whose first publication is, paradoxically to many, a controversial past work of Bernward's ostracized father, an infamous Nazi author. Bernward defends his father's writing ability, even if he is haunted by his father's suspicious past.", "popularity": 2.796, "poster_path": "/1mulu3ug9aaLygCkXOlTdncQeRq.jpg", "production_companies": [{"id": 16844, "logo_path": "/wy2JQsrqBGhDBg8d57SGIrZtMAh.png", "name": "Zero One Film", "origin_country": "DE"}, {"id": 6187, "logo_path": "/gtC63XG8fkFxszIuZIogffM1oY8.png", "name": "ARD/Degeto Film", "origin_country": "DE"}, {"id": 124, "logo_path": "/7MjDMOybX0D3fcIEpCyY9es5XZU.png", "name": "S\u00fcdwestrundfunk", "origin_country": "DE"}, {"id": 46, "logo_path": "/3xFdKHLXPGHEbrAkmsepGE8974Y.png", "name": "Westdeutscher Rundfunk", "origin_country": "DE"}], "production_countries": [{"iso_3166_1": "DE", "name": "Germany"}], "release_date": "2011-03-10", "revenue": 0, "runtime": 126, "spoken_languages": [{"iso_639_1": "de", "name": "Deutsch"}], "status": "Released", "tagline": "", "title": "If Not Us, Who?", "video": false, "vote_average": 6.0, "vote_count": 10, "keywords": {"keywords": [{"id": 738, "name": "sexuality"}, {"id": 3049, "name": "baader-meinhof group"}, {"id": 4004, "name": "cultural revolution"}, {"id": 4243, "name": "black panthers"}, {"id": 6588, "name": "west berlin"}, {"id": 10235, "name": "family relationships"}, {"id": 10827, "name": "open relationship"}, {"id": 208992, "name": "1960s"}, {"id": 213971, "name": "activism"}, {"id": 227148, "name": "anarchism"}, {"id": 232462, "name": "leftist radical"}, {"id": 232465, "name": "german history"}]}, "similar": {"page": 1, "results": [{"adult": false, "backdrop_path": "/avhG8fITuG78IkKPk28CcBBHPOp.jpg", "genre_ids": [35, 18], "id": 112160, "original_language": "fr", "original_title": "Chroniques sexuelles d'une famille d'aujourd'hui", "overview": "Three generations of a French family open up about their sexual experiences and desires after young Romain is caught masturbating in his biology class.", "poster_path": "/pU2nD3Llaz3Taq5FAaQUg00uJYD.jpg", "release_date": "2012-05-09", "title": "Sexual Chronicles of a French Family", "video": false, "vote_average": 4.4, "vote_count": 169, "popularity": 26.875}, {"id": 398978, "video": false, "vote_count": 2192, "vote_average": 7.8, "title": "The Irishman", "release_date": "2019-11-01", "original_language": "en", "original_title": "The Irishman", "genre_ids": [80, 18, 36], "backdrop_path": "/iLLDiO4dbUfFEnRug8DuvFEl1NB.jpg", "adult": false, "overview": "Pennsylvania, 1956. Frank Sheeran, a war veteran of Irish origin who works as a truck driver, accidentally meets mobster Russell Bufalino. Once Frank becomes his trusted man, Bufalino sends him to Chicago with the task of helping Jimmy Hoffa, a powerful union leader related to organized crime, with whom Frank will maintain a close friendship for nearly twenty years.", "poster_path": "/mbm8k3GFhXS0ROd9AD1gqYbIFbM.jpg", "popularity": 71.608}, {"adult": false, "backdrop_path": "/29DDoPM1qV6DqLUfNAY9jRhd7sR.jpg", "genre_ids": [10749, 18], "id": 43949, "original_language": "en", "original_title": "Flipped", "overview": "When Juli meets Bryce in the second grade, she knows it's true love. After spending six years trying to convince Bryce the same, she's ready to give up - until he starts to reconsider.", "poster_path": "/ndgk8EhgT6VxnscAaFV6SMewcQ6.jpg", "release_date": "2010-08-06", "title": "Flipped", "video": false, "vote_average": 7.4, "vote_count": 991, "popularity": 12.986}, {"id": 31439, "video": false, "vote_count": 105, "vote_average": 7.9, "title": "To Live", "release_date": "1994-05-26", "original_language": "zh", "original_title": "\u6d3b\u7740", "genre_ids": [18, 10749, 10752], "backdrop_path": "/peZyq9WQgTjTaWXV2gC0FcZomLN.jpg", "adult": false, "overview": "Fugui and Jiazhen endure tumultuous events in China as their personal fortunes move from wealthy landownership to peasantry.", "poster_path": "/kKZYobKNLPGoOt7p2pfTRggelgP.jpg", "popularity": 9.321}, {"adult": false, "backdrop_path": "/dvQDRfv3qvfHNnVAR57ouVsuErf.jpg", "genre_ids": [10749, 18], "id": 28031, "original_language": "en", "original_title": "If These Walls Could Talk 2", "overview": "The stories of three lesbian couples -- who live in the same house at different periods of time -- who are at a crossroads in their lives. In 1961, Edith loses her lover, Abby, to a stroke. Linda and Amy struggle with feminist issues in 1972. And, in 2000, Kal and Fran try to have a baby with the help of sperm donor.", "poster_path": "/xs7ODbmYQXCDhvXNvz5tF17T59H.jpg", "release_date": "2000-03-05", "title": "If These Walls Could Talk 2", "video": false, "vote_average": 7.1, "vote_count": 55, "popularity": 8.86}, {"adult": false, "backdrop_path": "/AdbQM7UrobM2RSjz2HAJq7qvCVw.jpg", "genre_ids": [35, 18], "id": 342672, "original_language": "en", "original_title": "4th Man Out", "overview": "After a night of drinking, Adam Hutcherson stumbles out of the closet to his three straight buddies.  A disruption to their dynamic which they now must try and overcome through alcohol, Tinder dates and forgiveness.", "poster_path": "/74CtR9ZNIyWM9zSHEib2OSnaETv.jpg", "release_date": "2015-05-26", "title": "4th Man Out", "video": false, "vote_average": 7.0, "vote_count": 225, "popularity": 8.273}, {"adult": false, "backdrop_path": "/14gO2STuh7qCPZkgvkp48GBrm1x.jpg", "genre_ids": [18], "id": 42984, "original_language": "ja", "original_title": "\u306b\u3063\u307d\u3093\u6606\u866b\u8a18", "overview": "A woman, Tome, is born to a lower class family in Japan in 1918. The title refers to an insect, repeating its mistakes, as in an infinite circle. Imamura, with this metaphor, introduces the life of Tome, who keeps trying to change her poor life.", "poster_path": "/jAhw4x0rVaReaVjm0vL8EZOCjUy.jpg", "release_date": "1963-11-16", "title": "The Insect Woman", "video": false, "vote_average": 7.5, "vote_count": 25, "popularity": 5.709}, {"id": 45999, "video": false, "vote_count": 28, "vote_average": 7.3, "title": "The Time to Live, the Time to Die", "release_date": "1985-08-03", "original_language": "zh", "original_title": "\u7ae5\u5e74\u5f80\u4e8b", "genre_ids": [18], "backdrop_path": "/6SO3WcfmoByOt0SBB7tOCmPtkVF.jpg", "adult": false, "overview": "The semi-autobiographical film on director Hou Hsiao-Hsien's childhood and adolescence, when he was growing up in Taiwan, living through the deaths of his father, mother and grandmother.", "poster_path": "/7yFSUy939rX5CncqieINpajnM3q.jpg", "popularity": 3.714}, {"id": 197033, "video": false, "vote_count": 93, "vote_average": 6.5, "title": "Geography Club", "release_date": "2013-05-22", "original_language": "en", "original_title": "Geography Club", "genre_ids": [35, 18, 10749], "backdrop_path": "/bTQJUoO6JuidBL8F9ay7gftUOzK.jpg", "adult": false, "overview": "A coming-of-age movie that tells a story unfolding in every high school around the country -- a story of kids hiding their true identities in plain sight, even as they feverishly pursue their hearts' desires.", "poster_path": "/oPwDoem41nOxe1tEI5p65tYTbpe.jpg", "popularity": 8.045}, {"adult": false, "backdrop_path": "/cTmdfAOYo4pOGrib78qzTzCoPhK.jpg", "genre_ids": [35, 18], "id": 382486, "original_language": "en", "original_title": "\u6211\u4eec\u7684\u6545\u4e8b", "overview": "The story spans from 1965 to the early 1970s. Heavily pregnant Zhao Di, the unwanted second wife of an older man, was chased out by her husband's family and forced to return to her own family. She gave birth to a pair of twins, Shun Fatt and Su-mei. As Su-mei had two moles on her face, which was said to be bad luck, she decided to give her up due to the pressure of wanting to build a better life for the rest of her family. Her father, under the advice of a match-maker, married her off to a coffee shop owner Xiao Qie, but after his unfortunate death, she was chased out the door with five young children to look after. With Zhao Di's indomitable spirit, and with the help of her family, they went through adversities, witnessed the changes through the years, and accompanied every step of the nation`s growth in its early years.", "poster_path": "/wlyeQvzKSkvocgQHVdVfOEa8aGS.jpg", "release_date": "2016-02-04", "title": "Long Long Time Ago", "video": false, "vote_average": 7.2, "vote_count": 6, "popularity": 2.228}, {"adult": false, "backdrop_path": "/sVXxox4KoksT24LxAMmSClU4BPm.jpg", "genre_ids": [18], "id": 21887, "original_language": "en", "original_title": "The Great Santini", "overview": "As he approaches manhood, Ben Meechum struggles to win the approval of his demanding alpha male father, an aggressively competitive, but frustrated marine pilot.", "poster_path": "/hmQ28zCwiXWEYJ6AJneELQ6NaKe.jpg", "release_date": "1979-10-26", "title": "The Great Santini", "video": false, "vote_average": 6.9, "vote_count": 30, "popularity": 5.081}, {"adult": false, "backdrop_path": "/eIM8AlQOalwA4dQXS4g8aweAidg.jpg", "genre_ids": [18], "id": 30533, "original_language": "en", "original_title": "The '60s", "overview": "The Herlihys are a working class family from Chicago whose three children take wildly divergent paths: Brian joins the Marines right out of High School and goes to Vietnam..", "poster_path": "/ghgE3SnguJmvIeIlhtTmSwjlujo.jpg", "release_date": "1999-02-07", "title": "The '60s", "video": true, "vote_average": 5.8, "vote_count": 15, "popularity": 6.251}, {"adult": false, "backdrop_path": null, "genre_ids": [99], "id": 455140, "original_language": "ar", "original_title": "The Perfumed Garden", "overview": "THE PERFUMED GARDEN is an exploration of the myths and realities of sensuality and sexuality in Arab society, a world of taboos and of erotic literature. Through interviews with men and women of all ages, classes, and sexual orientation, the film lifts a corner of the veil that usually shrouds discussion of this subject in the Arab world.  Made by an Algerian-French woman director, the film begins by looking at the record of a more permissive history, and ends with the experiences of contemporary lovers from mixed backgrounds. It examines the personal issues raised by the desire for pleasure, amidst societal pressures for chastity and virginity.  The film discusses pre-marital sex, courtship and marriage, familial pressures, private vs. public spaces, social taboos (and the desire to break them), and issues of language.", "poster_path": "/tsO5BOKUXV33eSwdlVo1j1GhGkH.jpg", "release_date": "2000-04-29", "title": "The Perfumed Garden", "video": false, "vote_average": 0.0, "vote_count": 0, "popularity": 0.841}, {"id": 17028, "video": false, "vote_count": 46, "vote_average": 6.3, "title": "Eating Out 2: Sloppy Seconds", "release_date": "2006-01-01", "original_language": "en", "original_title": "Eating Out 2: Sloppy Seconds", "genre_ids": [35, 10749], "backdrop_path": "/jegXrTgDmuI8F1tRuohQDTfHyXM.jpg", "adult": false, "overview": "How far would you go to get the person of your dreams? With the help of Gwen and Tiffani, Kyle pretends to be heterosexual in order to land Troy, the new guy (and nude model) who's turning the heads of both men and women. He soon finds himself joining the campus ex-gay support group and nabbing a girlfriend! Kyle's ex-boyfriend Marc is horrified at the plan and decides to pursue the confused Troy with his own tactic -- being his \"out\" gay self. Who will win Troy first?", "poster_path": "/cdx8BYlEcksri5pPtcHhI3U2vyZ.jpg", "popularity": 8.25}, {"adult": false, "backdrop_path": "/8GdJUzHZsTxvyWUKIF3svVqRVjR.jpg", "genre_ids": [35], "id": 347870, "original_language": "en", "original_title": "Slash", "overview": "Freshman Neil's Vanguard stories are all he cares about...until he meets the older Julia, who pushes him to put his own fan fic online. When the website's moderator takes a special interest in Neil's work, it opens up a whole new universe.", "poster_path": "/iuyQUiJ756WOctTXHIGRr1CiLQg.jpg", "release_date": "2016-03-13", "title": "Slash", "video": false, "vote_average": 6.5, "vote_count": 21, "popularity": 4.436}, {"adult": false, "backdrop_path": "/wEPqZHiK7nXcysPxBw4wWZcWEK3.jpg", "genre_ids": [18, 53], "id": 241944, "original_language": "en", "original_title": "Escape from East Berlin", "overview": "East Berlin, shortly after the construction of the Berlin Wall. Kurt Schr\u00f6der and his family dig a tunnel to escape to West Berlin as they struggle to overcome the obstacles blocking their underground path to freedom.", "poster_path": "/sCK0EnrVRxUk7rc4OeyWb9Pc0oQ.jpg", "release_date": "1962-10-22", "title": "Escape from East Berlin", "video": false, "vote_average": 5.8, "vote_count": 6, "popularity": 1.889}, {"id": 225935, "video": false, "vote_count": 10, "vote_average": 7.7, "title": "The Watsons Go to Birmingham", "release_date": "2013-09-20", "original_language": "en", "original_title": "The Watsons Go to Birmingham", "genre_ids": [10751, 10770], "backdrop_path": "/4T19NwraJTDpc3QV5tM6FPP25VV.jpg", "adult": false, "overview": "In the Summer of 1963, Flint, Michigan is home to the Watsons, a close knit family. When 15 year-old Byron\u2019s antics go over the top, his parents realize enough is enough and they decide the family needs a dose of Grandma Sands' no nonsense approach in Birmingham, Alabama.  So the Watsons load up their 1948 Plymouth Brown Bomber and head South. When they finally make it to Birmingham, they meet Grandma Sands and her friend, Mr. Robert and discover that life is very different there than in Flint. During that historic summer, the Watsons find themselves caught up in something far bigger than Byron\u2019s antics; something that will change their lives and country forever.", "poster_path": "/wP2vmxEG8PXB68EUEksmWY8iOMc.jpg", "popularity": 4.227}, {"adult": false, "backdrop_path": null, "genre_ids": [18, 10749], "id": 246115, "original_language": "en", "original_title": "Love Is All You Need?", "overview": "Ashley was raised in a picture perfect all-American family with two moms, two grandpas, two uncles, and a little brother. But Ashley has a problem, she has a crush on a boy at school, which is against everything this world has ever taught her.", "poster_path": "/q39gLZpfYgItbJUCdffeJqKhj38.jpg", "release_date": "2011-03-24", "title": "Love Is All You Need?", "video": false, "vote_average": 5.3, "vote_count": 14, "popularity": 2.947}, {"adult": false, "backdrop_path": "/ikOeRTBsaijwnnenVCtEm72H6YG.jpg", "genre_ids": [18, 35, 10749], "id": 25436, "original_language": "en", "original_title": "The Art of Being Straight", "overview": "Twenty-three-year-old John has just moved to L.A. from New York, ostensibly \"taking a break\" from his longtime girlfriend. He moves in with college bro Andy, whose pals incessantly do that kind of \"That is so gay\" banter that's essentially harmless - unless you're the only gay guy in the room.", "poster_path": "/A3hKJ3mwWvIZxjJDL5IoM71x863.jpg", "release_date": "2009-06-05", "title": "The Art of Being Straight", "video": false, "vote_average": 4.3, "vote_count": 13, "popularity": 3.053}, {"adult": false, "backdrop_path": null, "genre_ids": [99, 80], "id": 311430, "original_language": "en", "original_title": "Turned Out: Sexual Assault Behind Bars", "overview": "A look beyond the shock and inhumanity of prison rape to the intricate social hierarchy that keeps it alive. A filmmaker goes deep inside Alabama's infamous Limestone penitentiary to uncover the long-term causes and consequences of prison rape. With a startling lack of inhibition, five inmates reveal the workings of an elaborate inner society.", "poster_path": "/jEagP0GZig50ForS6aE5KeisQUB.jpg", "release_date": "2004-06-04", "title": "Turned Out: Sexual Assault Behind Bars", "video": false, "vote_average": 6.7, "vote_count": 3, "popularity": 1.341}], "total_pages": 2, "total_results": 30}, "recommendations": {"page": 1, "results": [{"adult": false, "backdrop_path": "/1ZoKueDrBgJDDm14vYlADgAY0UC.jpg", "genre_ids": [99], "id": 253311, "original_language": "en", "original_title": "Song from the Forest", "overview": "25 years ago, Louis Sarno, an American, heard a song on the radio and followed its melody into the Central Africa Jungle and stayed. He than recorded over 1000 hours of original BaAka music. Now he is part of the BaAka community and raises his pygmy son, Samedi. Fulfilling an old promise, Louis takes Samedi to America. On this journey Louis realizes he is not part of this globalized world anymore but globalization has also arrived in the rainforest. The BaAka depend on Louis for their survival. Father and son return to the melodies of the jungle but the question remains: How much longer will the songs of the forest be heard?", "poster_path": "/b9eRlkPgYwaABUnKe1KRaqPdnKb.jpg", "release_date": "2014-09-11", "title": "Song from the Forest", "video": false, "vote_average": 8.4, "vote_count": 5, "popularity": 3.901}, {"id": 235815, "video": false, "vote_count": 6, "vote_average": 7.3, "title": "Bastard", "release_date": "2011-10-25", "original_language": "de", "original_title": "Bastard", "genre_ids": [80, 18, 9648, 53], "backdrop_path": "/8ooFFPkY9qqnpa9juXORosKzeYN.jpg", "adult": false, "overview": "The nine-year-old Nikolas has been missing for days. The criminal psychologist Claudia Meinert notices contradictions in her conversation with the parents of the missing child. In particular Nikolas' mother appears to be hiding something. When a video of the missing Nikolas surfaces, showing him tied up in a cellar, the trail leads to his school. The 13-year-old Leon and Mathilda strike the psychologist as conspicuous and provocative. Shortly afterwards, Meinert encounters the children with Nikolas' parents at the local swimming pool and her suspicions are confirmed: the parents are entangled in an insidious father-mother-child game with the possible suspects Leon and Mathilda. Now it is up to the psychologist to resolve the dark mystery of Nikolas' disappearance and save the child.", "poster_path": "/ApzH0tl7KRcxgIDFvRTkO0ksUbE.jpg", "popularity": 2.5}, {"adult": false, "backdrop_path": "/eQnoes7NpH0lg9Plyuw8U4y4A1a.jpg", "genre_ids": [18], "id": 153774, "original_language": "it", "original_title": "Il futuro", "overview": "When their parents die, Bianca starts to smoke and Tomas is still a virgin. The orphans explore the dangerous streets of adulthood until Bianca finds Maciste, a retired Mr. Universe, and enters his dark mansion in search of a future.", "poster_path": "/6621plCrlLbjV5LfFOs3MPV217N.jpg", "release_date": "2013-09-06", "title": "The Future", "video": false, "vote_average": 5.8, "vote_count": 11, "popularity": 1.45}, {"adult": false, "backdrop_path": "/eaJwbAkvc4m299GAptpTvIiRfvR.jpg", "genre_ids": [18], "id": 72465, "original_language": "fr", "original_title": "\u00c9l\u00e8ve libre", "overview": "An aspiring tennis player is taken under the wing of an established player as his family life falls apart.", "poster_path": "/vdXdrc6naWxVGR7hQRLZSQy3uPM.jpg", "release_date": "2008-11-11", "title": "Private Lessons", "video": false, "vote_average": 5.2, "vote_count": 13, "popularity": 4.42}, {"adult": false, "backdrop_path": "/9hnR4l4vSSVLRWHh9FXBRPtnBnA.jpg", "genre_ids": [18], "id": 890, "original_language": "de", "original_title": "Schlafes Bruder", "overview": "Schlafes Bruder tells the story a few exceptionally talented individuals who grew up in a remote mountain town in the Alps. The film, based on an internationally successful novel by Robert Schneider of the same name, depicts the slow withering of their unique skills.", "poster_path": "/wjvaafRCIGKLTJYm45oWgB494gJ.jpg", "release_date": "1995-09-08", "title": "Brother of Sleep", "video": false, "vote_average": 6.9, "vote_count": 13, "popularity": 2.577}], "total_pages": 1, "total_results": 5}, "credits": {"cast": [{"cast_id": 2, "character": "Bernward Vesper", "credit_id": "52fe488dc3a368484e0fece1", "gender": 2, "id": 6091, "name": "August Diehl", "order": 0, "profile_path": "/7mVN7kQc41Rx1jR5RRycsgb1rHR.jpg"}, {"cast_id": 3, "character": "Gudrun Ensslin", "credit_id": "52fe488ec3a368484e0fece5", "gender": 1, "id": 588070, "name": "Lena Lauzemis", "order": 1, "profile_path": "/uoCZ5N5lwKG07LWoy4Pzco86xC5.jpg"}, {"cast_id": 4, "character": "Andreas Baader", "credit_id": "52fe488ec3a368484e0fece9", "gender": 2, "id": 31663, "name": "Alexander Fehling", "order": 2, "profile_path": "/h6nkEsHxdoV1gQAqJr5OfOp855k.jpg"}, {"cast_id": 7, "character": "Will Vesper", "credit_id": "536beb030e0a2647cb00c7f2", "gender": 2, "id": 8199, "name": "Thomas Thieme", "order": 3, "profile_path": "/izFcVDulGPf6lhV8zUbRtecCJu7.jpg"}, {"cast_id": 10, "character": "Rose Vesper", "credit_id": "53bd0001c3a3684cdf000f8a", "gender": 1, "id": 7153, "name": "Imogen Kogge", "order": 4, "profile_path": "/e0AcI08byJGZFx4wKTAlTPo667z.jpg"}, {"cast_id": 11, "character": "Helmut Ensslin", "credit_id": "53bd002bc3a3684cf4000e8d", "gender": 2, "id": 20266, "name": "Michael Wittenborn", "order": 5, "profile_path": null}, {"cast_id": 8, "character": "Ilse Ensslin", "credit_id": "536beb120e0a2647d800c762", "gender": 1, "id": 19123, "name": "Susanne Lothar", "order": 6, "profile_path": "/7Lbdxz43iVMlKrNTnc7AE6gfULs.jpg"}, {"cast_id": 9, "character": "Klaus Roehler", "credit_id": "536beb210e0a2647cb00c7fc", "gender": 2, "id": 6268, "name": "Sebastian Blomberg", "order": 7, "profile_path": "/cmWWEr76Yavj6I1mxZvONbiDnal.jpg"}, {"cast_id": 12, "character": "Ruth Ensslin", "credit_id": "53bd0047c3a3684cef000edf", "gender": 1, "id": 39249, "name": "Maria Dragus", "order": 8, "profile_path": "/6iSA3dCP9zKwX4yekhjhMxzjoYk.jpg"}, {"cast_id": 32, "character": "D\u00f6rte", "credit_id": "5a7d31779251415511000d41", "gender": 1, "id": 1080195, "name": "Vicky Krieps", "order": 9, "profile_path": "/AdcQCdKeZTJ3TYNOzUEEnjTRdmA.jpg"}, {"cast_id": 13, "character": "Verteidiger", "credit_id": "53bd0061c3a3684cef000ee6", "gender": 2, "id": 65054, "name": "Rainer Bock", "order": 10, "profile_path": "/ebmPZimivfRFKYnKp2ygazkJO9r.jpg"}, {"cast_id": 14, "character": "Anstaltsleiterin", "credit_id": "53bd0152c3a3684cf4000ea1", "gender": 0, "id": 48461, "name": "Susanne-Marie Wrage", "order": 11, "profile_path": null}, {"cast_id": 6, "character": "Walter Jens", "credit_id": "52fe488ec3a368484e0fecf3", "gender": 2, "id": 27419, "name": "Benjamin Sadler", "order": 12, "profile_path": "/9c9zOtcZOqB6v4WLXliqQtrwBt2.jpg"}, {"cast_id": 15, "character": "Ulrike", "credit_id": "53bd0173c3a3687e59000bb7", "gender": 0, "id": 1313028, "name": "Stephanie Stremler", "order": 13, "profile_path": "/abREjvKNV6mHRbrThPTvZgVkDWj.jpg"}, {"cast_id": 16, "character": "Verleger", "credit_id": "53ee54ed0e0a267a6f00105a", "gender": 2, "id": 147634, "name": "Peter Benedict", "order": 14, "profile_path": "/wOtlAdtrcZc05Z1G6JlFUADiYFL.jpg"}, {"cast_id": 17, "character": "junger Verleger", "credit_id": "562b784ac3a3681b5c0049e8", "gender": 0, "id": 1411011, "name": "Andreas D\u00f6hler", "order": 15, "profile_path": "/6RmlPgm6et55vb6pUKdLVBKKcsz.jpg"}, {"cast_id": 18, "character": "Vermieterin", "credit_id": "567ee866c3a36860750089ac", "gender": 1, "id": 37066, "name": "Bettina Redlich", "order": 16, "profile_path": "/fw2hHj0PMbLDTV0oMrYSsfKCDe6.jpg"}, {"cast_id": 19, "character": "Uli Ensslin", "credit_id": "567ee88fc3a368227b000afc", "gender": 2, "id": 5208, "name": "Hanno Koffler", "order": 17, "profile_path": "/mXHaEdSVP7H7FzAo4wvsHECgSuF.jpg"}, {"cast_id": 20, "character": "Gemeindeschwester", "credit_id": "567ee8cf92514132db0084c8", "gender": 1, "id": 10243, "name": "Carmen-Maja Antoni", "order": 18, "profile_path": "/mdiwoq1L7qAh1ulvMVbfUA1UsR7.jpg"}, {"cast_id": 21, "character": "Mentorin von Gudrun Ensslin", "credit_id": "567ee8de92514132db0084cb", "gender": 1, "id": 1008395, "name": "Heike Hanold-Lynch", "order": 19, "profile_path": "/eXd4pykz6jDov6pSj2I6AaGtep5.jpg"}, {"cast_id": 22, "character": "Kritiker", "credit_id": "567ee903c3a368227b000b0a", "gender": 2, "id": 1865, "name": "Hark Bohm", "order": 20, "profile_path": "/ptmIE7lSIiCS6mlXHOz3WgT7D43.jpg"}, {"cast_id": 23, "character": "Sekret\u00e4rin", "credit_id": "567ee91292514131df0082be", "gender": 0, "id": 6087, "name": "Claudia Geisler", "order": 21, "profile_path": "/Anf0GtRwZaI0Js0Bqg5mjkh3Qej.jpg"}, {"cast_id": 29, "character": "Johanna Ensslin", "credit_id": "5a7a4b649251414f9f000dad", "gender": 1, "id": 147944, "name": "Henriette Nagel", "order": 22, "profile_path": "/jYWJeaQjGX1yr5iBReOUk0SbPs7.jpg"}, {"cast_id": 30, "character": "Bernward Vesper - 10 Jahre", "credit_id": "5a7a4b760e0a263652000f04", "gender": 2, "id": 111757, "name": "Jonas H\u00e4mmerle", "order": 23, "profile_path": "/7ktWukcGXqQNVbTdZreycJxQxye.jpg"}, {"cast_id": 31, "character": "", "credit_id": "5a7a4b9ac3a3682192000d89", "gender": 2, "id": 4215, "name": "Manfred M\u00f6ck", "order": 24, "profile_path": null}], "crew": [{"credit_id": "574172e49251417179001d14", "department": "Editing", "gender": 2, "id": 5195, "job": "Editor", "name": "Hansj\u00f6rg Wei\u00dfbrich", "profile_path": null}, {"credit_id": "59699762c3a368764e00185c", "department": "Camera", "gender": 1, "id": 24076, "job": "Director of Photography", "name": "Judith Kaufmann", "profile_path": null}, {"credit_id": "5969976a92514136a000730d", "department": "Sound", "gender": 1, "id": 37084, "job": "Original Music Composer", "name": "Annette Focks", "profile_path": null}, {"credit_id": "52fe488ec3a368484e0fecef", "department": "Writing", "gender": 2, "id": 68002, "job": "Screenplay", "name": "Andres Veiel", "profile_path": null}, {"credit_id": "52fe488dc3a368484e0fecdd", "department": "Directing", "gender": 2, "id": 68002, "job": "Director", "name": "Andres Veiel", "profile_path": null}]}}