{"adult": false, "backdrop_path": "/4Q0dUsK9FHPDZzqcjIrKE8ms6mH.jpg", "belongs_to_collection": null, "budget": 0, "genres": [{"id": 18, "name": "Drama"}, {"id": 10749, "name": "Romance"}], "homepage": "", "id": 73600, "imdb_id": "tt0065484", "original_language": "en", "original_title": "Bombay Talkie", "overview": "An English novelist travels to Bombay to watch one of her novels translated to film. She chases after the Movie's leading man while the Screenwriter chases after her.", "popularity": 2.097, "poster_path": "/lzU3TrCSLjEdIFpLBigglbg2vrm.jpg", "production_companies": [{"id": 2370, "logo_path": null, "name": "Merchant Ivory Productions", "origin_country": "US"}], "production_countries": [{"iso_3166_1": "US", "name": "United States of America"}], "release_date": "1970-11-18", "revenue": 0, "runtime": 112, "spoken_languages": [{"iso_639_1": "en", "name": "English"}], "status": "Released", "tagline": "", "title": "Bombay Talkie", "video": false, "vote_average": 5.5, "vote_count": 2, "keywords": {"keywords": [{"id": 34094, "name": "extramarital affair"}, {"id": 194166, "name": "living abroad"}]}, "similar": {"page": 1, "results": [{"adult": false, "backdrop_path": "/fAA0S3rM3o5Sp8TIdS0MvWOGsCQ.jpg", "genre_ids": [18, 10749], "id": 843, "original_language": "cn", "original_title": "\u82b1\u6a23\u5e74\u83ef", "overview": "Taking place in Hong Kong of 1962, a melancholy story about the love between a woman and a man who live in the same building and one day find out that their husband and wife had an affair with each other.", "poster_path": "/unOW3SxFxBdd7LMWjmRONdHWKPb.jpg", "release_date": "2000-05-22", "title": "In the Mood for Love", "video": false, "vote_average": 8.1, "vote_count": 962, "popularity": 15.474}, {"adult": false, "backdrop_path": "/ecREZ3vYCqethftSDWK4we0X498.jpg", "genre_ids": [35, 18, 10749], "id": 4507, "original_language": "es", "original_title": "Jam\u00f3n, jam\u00f3n", "overview": "Jose Luis is an executive at his parents underwear factory where his girlfriend Sylvia works on the shop floor. When Sylvia becomes pregnant, Jose Luis promises her that he will marry her, most likely against the wishes of his parents. Jose Luis' mother is determined to break her son's engagement to a girl from a lower-class family, and hires Raul, a potential underwear model and would-be bullfighter to seduce Sylvia.", "poster_path": "/v5Fq01ZtYnA2Grxdd3g8CuGZARg.jpg", "release_date": "1992-09-03", "title": "Jamon Jamon", "video": false, "vote_average": 6.1, "vote_count": 143, "popularity": 14.21}, {"adult": false, "backdrop_path": "/bYbnlh6VXFRtcSX82UMDsBDLB5j.jpg", "genre_ids": [18, 10749], "id": 28468, "original_language": "it", "original_title": "La chiave", "overview": "After twenty years of marriage, art professor Nino Rolfe attempts to break down his wife Teresa's conventional modesty. Noticing her affection for their daughter's fianc\u00e9, Nino instigates her sexual interest in him as well. This sets off a chain of unexpected events and emotional complications, as Nino and his unpredictable fascist daughter find that they both enjoy being jealous.", "poster_path": "/e6g2geNLgFzMbriH6EvSJZD78nx.jpg", "release_date": "1983-10-18", "title": "The Key", "video": false, "vote_average": 5.0, "vote_count": 128, "popularity": 19.088}, {"id": 263472, "video": false, "vote_count": 1668, "vote_average": 5.0, "title": "Knock Knock", "release_date": "2015-06-26", "original_language": "en", "original_title": "Knock Knock", "genre_ids": [18, 53], "backdrop_path": "/gJduaRau3X2oE3xkmjs1FufT2GE.jpg", "adult": false, "overview": "When a devoted husband and father is left home alone for the weekend, two stranded young women unexpectedly knock on his door for help. What starts out as a kind gesture results in a dangerous seduction and a deadly game of cat and mouse.", "poster_path": "/eynMtjBB1fXsB5vsQylVmsDLmvw.jpg", "popularity": 21.643}, {"id": 14, "video": false, "vote_count": 7289, "vote_average": 8.0, "title": "American Beauty", "release_date": "1999-09-15", "original_language": "en", "original_title": "American Beauty", "genre_ids": [18], "backdrop_path": "/z5J18ByLeOZ68iORfMXmxeFuwyL.jpg", "adult": false, "overview": "Lester Burnham, a depressed suburban father in a mid-life crisis, decides to turn his hectic life around after developing an infatuation with his daughter's attractive friend.", "poster_path": "/or1MP8BZIAjqWYxPdPX724ydKar.jpg", "popularity": 34.256}, {"adult": false, "backdrop_path": "/npClMhFGn4XUkwu6coq5oKAEu6L.jpg", "genre_ids": [35, 10749, 18], "id": 634, "original_language": "en", "original_title": "Bridget Jones's Diary", "overview": "A chaotic Bridget Jones meets a snobbish lawyer, and he soon enters her world of imperfections.", "poster_path": "/ym6kjFFZg6boC0QHBVw6hqJLbxv.jpg", "release_date": "2001-04-13", "title": "Bridget Jones's Diary", "video": false, "vote_average": 6.7, "vote_count": 3079, "popularity": 16.678}, {"adult": false, "backdrop_path": "/Ao2bnJMmcFepMVw1BUay25tt7TM.jpg", "genre_ids": [18, 10749], "id": 1259, "original_language": "en", "original_title": "Notes on a Scandal", "overview": "A veteran high school teacher befriends a younger art teacher, who is having an affair with one of her 15-year-old students. However, her intentions with this new \"friend\" also go well beyond platonic friendship.", "poster_path": "/lXZa1mHZ8eD0VOpNaLfvM9tSpAj.jpg", "release_date": "2006-12-25", "title": "Notes on a Scandal", "video": false, "vote_average": 7.1, "vote_count": 463, "popularity": 10.007}, {"adult": false, "backdrop_path": "/cdccKL6nLs21Ak27BWpryPrxqie.jpg", "genre_ids": [14, 18], "id": 422, "original_language": "it", "original_title": "8\u00bd", "overview": "Guido Anselmi, a film director, finds himself creatively barren at the peak of his career. Urged by his doctors to rest, Anselmi heads for a luxurious resort, but a sorry group gathers\u2014his producer, staff, actors, wife, mistress, and relatives\u2014each one begging him to get on with the show. In retreat from their dependency, he fantasizes about past women and dreams of his childhood.", "poster_path": "/5pQlc8dp5dXzWg1yM70DZrsDpOl.jpg", "release_date": "1963-02-14", "title": "8\u00bd", "video": false, "vote_average": 8.2, "vote_count": 1025, "popularity": 14.529}, {"adult": false, "backdrop_path": "/84kMxZoaw958LrBNqSQqxFJEDXI.jpg", "genre_ids": [18, 10749], "id": 27066, "original_language": "it", "original_title": "L'uomo che guarda", "overview": "At a college in Rome, a professor, nicknamed \"Dodo\" is in a deep depression. His stunningly beautiful wife has just left him for another man. Dodo wants her back very badly and has erotic daydreams about her. A beautiful young student in his class asks him for a ride home and seduces the lucky man, but still he wonders about his wife and her lover.", "poster_path": "/ndMErDbUC7lSiKoWeUfzdMs3OpV.jpg", "release_date": "1994-01-27", "title": "The Voyeur", "video": false, "vote_average": 4.4, "vote_count": 82, "popularity": 15.246}, {"adult": false, "backdrop_path": "/h39p97Pn0b55PV63PislftZslhk.jpg", "genre_ids": [35, 18, 10749], "id": 255, "original_language": "fr", "original_title": "Baisers vol\u00e9s", "overview": "The third in a series of films featuring Fran\u00e7ois Truffaut's alter-ego, Antoine Doinel, the story resumes with Antoine being discharged from military service. His sweetheart Christine's father lands Antoine a job as a security guard, which he promptly loses. Stumbling into a position assisting a private detective, Antoine falls for his employers' seductive wife, Fabienne, and finds that he must choose between the older woman and Christine.", "poster_path": "/5qHh1Vp2TOOX5IaTVt4wyT8OTnR.jpg", "release_date": "1968-09-04", "title": "Stolen Kisses", "video": false, "vote_average": 7.5, "vote_count": 143, "popularity": 9.294}, {"adult": false, "backdrop_path": "/pHWPhvJDuIU97O0zJKdDlGr6tFV.jpg", "genre_ids": [18, 10749], "id": 283227, "original_language": "en", "original_title": "A Little Chaos", "overview": "A landscape gardener is hired by famous architect Le N\u00f4tre to construct the grand gardens at the palace of Versailles. As the two work on the palace, they find themselves drawn to each other and are thrown into rivalries within the court of King Louis XIV.", "poster_path": "/8Q8q0oBI99tfw3x5ozoKEtHKvO0.jpg", "release_date": "2015-03-26", "title": "A Little Chaos", "video": false, "vote_average": 6.3, "vote_count": 439, "popularity": 10.791}, {"id": 193610, "video": false, "vote_count": 2466, "vote_average": 6.3, "title": "The Other Woman", "release_date": "2014-04-16", "original_language": "en", "original_title": "The Other Woman", "genre_ids": [35, 10749], "backdrop_path": "/vWiwrW8OArlBcdEK4RzhPCIYi4r.jpg", "adult": false, "overview": "After discovering her boyfriend is married, Carly soon meets the wife he's been cheating on. And when yet another affair is discovered, all three women team up to plot mutual revenge on the three-timing SOB.", "poster_path": "/fu7K3rPwJcScizlXbxWAR7ZoUxt.jpg", "popularity": 17.594}, {"id": 284, "video": false, "vote_count": 1038, "vote_average": 8.2, "title": "The Apartment", "release_date": "1960-06-15", "original_language": "en", "original_title": "The Apartment", "genre_ids": [35, 18, 10749], "backdrop_path": "/vF4d4hAKMcrDE4Y6zLwUSijp32g.jpg", "adult": false, "overview": "Bud Baxter is a minor clerk in a huge New York insurance company, until he discovers a quick way to climb the corporate ladder. He lends out his apartment to the executives as a place to take their mistresses. Although he often has to deal with the aftermath of their visits, one night he's left with a major problem to solve.", "poster_path": "/8nrQKQjD6z0SJouKHQapXzmjFc6.jpg", "popularity": 15.832}, {"id": 5544, "video": false, "vote_count": 327, "vote_average": 8.0, "title": "Hiroshima Mon Amour", "release_date": "1959-06-10", "original_language": "fr", "original_title": "Hiroshima mon amour", "genre_ids": [18, 36, 10749], "backdrop_path": "/yqUc023vMheWlc6U8mkzYws169I.jpg", "adult": false, "overview": "The deep conversation between a Japanese architect and a French actress forms the basis of this celebrated French film, considered one of the vanguard productions of the French New Wave. Set in Hiroshima after the end of World War II, the couple -- lovers turned friends -- recount, over many hours, previous romances and life experiences. The two intertwine their stories about the past with pondering the devastation wrought by the atomic bomb dropped on the city.", "poster_path": "/fViod4QCEDm0Yhlk15LACPdaqZk.jpg", "popularity": 13.604}, {"adult": false, "backdrop_path": "/zPUzsnEFPkEhhcQJpwLK29pgTgW.jpg", "genre_ids": [10402, 35, 10749], "id": 9716, "original_language": "en", "original_title": "Everyone Says I Love You", "overview": "A New York girl sets her father up with a beautiful woman in a shaky marriage while her half sister gets engaged.", "poster_path": "/eCw5qDE5Jw1B9Cuzs8DJD4uwaZV.jpg", "release_date": "1996-12-06", "title": "Everyone Says I Love You", "video": false, "vote_average": 6.5, "vote_count": 323, "popularity": 10.718}, {"id": 1440, "video": false, "vote_count": 459, "vote_average": 7.3, "title": "Little Children", "release_date": "2006-10-06", "original_language": "en", "original_title": "Little Children", "genre_ids": [35, 18, 10749], "backdrop_path": "/5RYylTj1WAO0kVoaY0o3wDfZSpg.jpg", "adult": false, "overview": "The lives of two lovelorn spouses from separate marriages, a registered sex offender, and a disgraced ex-police officer intersect as they struggle to resist their vulnerabilities and temptations.", "poster_path": "/225OXhGllrBJ6FWaYyiosxDU1us.jpg", "popularity": 14.981}, {"id": 12531, "video": false, "vote_count": 91, "vote_average": 6.9, "title": "The Apartment", "release_date": "1996-07-27", "original_language": "fr", "original_title": "L'Appartement", "genre_ids": [18, 9648, 10749], "backdrop_path": "/64qyT8m4JQ6YODvXxtbHgKmXBX7.jpg", "adult": false, "overview": "A stylish suspense thriller that confounds the audience while presenting them with an extraordinary and elusive mystery. Max is a former playboy who has decided to settle down by marrying his current love, Muriel. However, during a business trip, Max catches a glimpse of the great lost love of his life, reviving his wanderlust and sending him off on a chase of the elusive Lisa, whom he had overheard suggesting to a friend that her lover, Daniel, had killed someone for her. Soon, Max is trying to unravel the mystery behind the suspicious death of Daniel's wife, which he hopes will lead him closer to Lisa.", "poster_path": "/1sqrQdQTn8jKLhUcPKfRVj639zA.jpg", "popularity": 21.259}, {"adult": false, "backdrop_path": "/eHhtUoazdml8CMvzWtpunIyqrZS.jpg", "genre_ids": [18, 53, 10749], "id": 884, "original_language": "en", "original_title": "Crash", "overview": "After getting into a serious car accident, a TV director discovers an underground sub-culture of scarred, omnisexual car-crash victims who use car accidents and the raw sexual energy they produce to try to rejuvenate his sex life with his wife.", "poster_path": "/4PDLGJsS5uVBQlYjLMZ7t85dU0P.jpg", "release_date": "1996-07-17", "title": "Crash", "video": false, "vote_average": 6.5, "vote_count": 438, "popularity": 15.592}, {"adult": false, "backdrop_path": "/oT79THuFrcBzrhlf4fiCddwZBCQ.jpg", "genre_ids": [18, 10402, 10749], "id": 69, "original_language": "en", "original_title": "Walk the Line", "overview": "A chronicle of country music legend Johnny Cash's life, from his early days on an Arkansas cotton farm to his rise to fame with Sun Records in Memphis, where he recorded alongside Elvis Presley, Jerry Lee Lewis and Carl Perkins.", "poster_path": "/wdxL3Zyh3O5MIbmsSiZEevJAjtQ.jpg", "release_date": "2005-09-13", "title": "Walk the Line", "video": false, "vote_average": 7.5, "vote_count": 1544, "popularity": 18.235}, {"id": 311, "video": false, "vote_count": 2593, "vote_average": 8.4, "title": "Once Upon a Time in America", "release_date": "1984-05-23", "original_language": "en", "original_title": "Once Upon a Time in America", "genre_ids": [80, 18], "backdrop_path": "/vnT6HzjLSDrAweHn9xWykb8Ii6T.jpg", "adult": false, "overview": "A former Prohibition-era Jewish gangster returns to the Lower East Side of Manhattan over thirty years later, where he once again must confront the ghosts and regrets of his old life.", "poster_path": "/x733R4ISI0RbKeHhVkXdTMFmTFr.jpg", "popularity": 23.555}], "total_pages": 72, "total_results": 1428}, "recommendations": {"page": 1, "results": [], "total_pages": 1, "total_results": 0}, "credits": {"cast": [{"cast_id": 4, "character": "Vikram", "credit_id": "52fe48a2c3a368484e103035", "gender": 2, "id": 88811, "name": "Shashi Kapoor", "order": 0, "profile_path": "/h8TNPQhh969wr1vzgAl0VESSabI.jpg"}, {"cast_id": 5, "character": "Lucia Lane", "credit_id": "52fe48a2c3a368484e103039", "gender": 1, "id": 1013092, "name": "Jennifer Kendal", "order": 1, "profile_path": "/vzfZ9BOh7CeMBV74vZlC7JeblIf.jpg"}, {"cast_id": 6, "character": "Hari", "credit_id": "52fe48a2c3a368484e10303d", "gender": 2, "id": 14373, "name": "Zia Mohyeddin", "order": 2, "profile_path": "/1oYap4c1e3yVa2iA3AKIISydnco.jpg"}, {"cast_id": 7, "character": "Mala", "credit_id": "52fe48a2c3a368484e103041", "gender": 1, "id": 125724, "name": "Aparna Sen", "order": 3, "profile_path": "/6y0ZQnUm9g3NaoxaqlJddqPU0xB.jpg"}], "crew": [{"credit_id": "5e24bb851dcb770014ca11a8", "department": "Camera", "gender": 2, "id": 12166, "job": "Director of Photography", "name": "Subrata Mitra", "profile_path": null}, {"credit_id": "52fe48a2c3a368484e103031", "department": "Writing", "gender": 2, "id": 54441, "job": "Screenplay", "name": "James Ivory", "profile_path": "/vj4PY2KciRCZWzT4eCdOoQfzoJs.jpg"}, {"credit_id": "52fe48a2c3a368484e103025", "department": "Directing", "gender": 2, "id": 54441, "job": "Director", "name": "James Ivory", "profile_path": "/vj4PY2KciRCZWzT4eCdOoQfzoJs.jpg"}, {"credit_id": "52fe48a2c3a368484e10302b", "department": "Writing", "gender": 1, "id": 54443, "job": "Screenplay", "name": "Ruth Prawer Jhabvala", "profile_path": null}, {"credit_id": "5aa31c29c3a3683366005bf5", "department": "Production", "gender": 2, "id": 54448, "job": "Producer", "name": "Ismail Merchant", "profile_path": "/8tL8R8eOhjEFQyEg8uXA8GBNwoA.jpg"}, {"credit_id": "5e24bae31bf2660014fba6a6", "department": "Sound", "gender": 2, "id": 86366, "job": "Playback Singer", "name": "Kishore Kumar", "profile_path": "/eQw24wxeXx50P6iiFJ94sEb8d8F.jpg"}, {"credit_id": "5e24badb5ed8e9001360a96d", "department": "Sound", "gender": 1, "id": 108938, "job": "Playback Singer", "name": "Asha Bhosle", "profile_path": "/vOIKyZIMNHYkeOeGNxEqq2vKc5A.jpg"}, {"credit_id": "5e24bbe2a894d600123a63f5", "department": "Editing", "gender": 0, "id": 589933, "job": "Editor", "name": "David Gladwell", "profile_path": null}, {"credit_id": "5e24bb178f26bc001179cc48", "department": "Sound", "gender": 0, "id": 593134, "job": "Original Music Composer", "name": "Shankar Jaikishan", "profile_path": null}, {"credit_id": "5e24bb591bf2660016fb4575", "department": "Writing", "gender": 0, "id": 927634, "job": "Lyricist", "name": "Hasrat Jaipuri", "profile_path": "/fCCpYQnUuI7Z8hcFJOyO2Z50siM.jpg"}, {"credit_id": "5d6a1edb9d8939001100de91", "department": "Sound", "gender": 1, "id": 1244561, "job": "Playback Singer", "name": "Usha Uthup", "profile_path": "/my2bXpLiJl3a3nmygIhnDulqqRf.jpg"}, {"credit_id": "5e24baef397df000169e78cf", "department": "Sound", "gender": 2, "id": 1608034, "job": "Playback Singer", "name": "Mohammed Rafi", "profile_path": "/yJxR84bzya3W8N6aezj8iu0aQmI.jpg"}]}}