{"adult": false, "backdrop_path": "/l15rFViSZSieMCgE6kOvTgy7Tm7.jpg", "belongs_to_collection": null, "budget": 0, "genres": [{"id": 35, "name": "Comedy"}], "homepage": null, "id": 73747, "imdb_id": "tt0049281", "original_language": "it", "original_title": "Guardia, Guardia Scelta, Brigadiere e Maresciallo", "overview": "", "popularity": 2.69, "poster_path": "/5z05m7boiMfefpMiAZcbDC4Ixra.jpg", "production_companies": [{"id": 5875, "logo_path": null, "name": "Imperial Films", "origin_country": ""}, {"id": 12663, "logo_path": null, "name": "Ente Nazionale Industrie Cinematografiche (ENIC)", "origin_country": ""}], "production_countries": [{"iso_3166_1": "IT", "name": "Italy"}], "release_date": "1956-01-01", "revenue": 0, "runtime": null, "spoken_languages": [{"iso_639_1": "it", "name": "Italiano"}], "status": "Released", "tagline": "", "title": "Guardia, Guardia Scelta, Brigadiere e Maresciallo", "video": false, "vote_average": 6.2, "vote_count": 11, "keywords": {"keywords": [{"id": 588, "name": "rome italy"}, {"id": 14632, "name": "suburb"}, {"id": 154781, "name": "traffic policeman"}, {"id": 208611, "name": "1950s"}]}, "similar": {"page": 1, "results": [{"id": 439, "video": false, "vote_count": 829, "vote_average": 8.1, "title": "La Dolce Vita", "release_date": "1960-02-05", "original_language": "it", "original_title": "La dolce vita", "genre_ids": [35, 18], "backdrop_path": "/b3ofp0vhkbKsrz2V44DimBRKkxf.jpg", "adult": false, "overview": "Episodic journey of an Italian journalist scouring Rome in search of love.", "poster_path": "/aU7WLwPVCOoonAPWOPBmZ8X0c3c.jpg", "popularity": 18.483}, {"adult": false, "backdrop_path": "/4psf8OdNFLVGz185HG2Z5vOYXmu.jpg", "genre_ids": [35, 10749, 18], "id": 804, "original_language": "en", "original_title": "Roman Holiday", "overview": "Overwhelmed by her suffocating schedule, touring European princess Ann takes off for a night while in Rome. When a sedative she took from her doctor kicks in, however, she falls asleep on a park bench and is found by an American reporter, Joe Bradley, who takes her back to his apartment for safety. At work the next morning, Joe finds out Ann's regal identity and bets his editor he can get exclusive interview with her, but romance soon gets in the way.", "poster_path": "/A0JKLHc5rS3uztYl9GDOMwXl1d3.jpg", "release_date": "1953-08-26", "title": "Roman Holiday", "video": false, "vote_average": 7.9, "vote_count": 1049, "popularity": 18.683}, {"adult": false, "backdrop_path": "/urnGzQvP8fwWWGkn1k809KqIjbm.jpg", "genre_ids": [18], "id": 87093, "original_language": "en", "original_title": "Big Eyes", "overview": "The story of the awakening of painter, Margaret Keane, her phenomenal success in the 1950s, and the subsequent legal difficulties she had with her husband, who claimed credit for her works in the 1960s.", "poster_path": "/z2tqzprHojhgEGYKQepjU28oQg6.jpg", "release_date": "2014-12-24", "title": "Big Eyes", "video": false, "vote_average": 7.0, "vote_count": 2349, "popularity": 14.024}, {"id": 167073, "video": false, "vote_count": 2097, "vote_average": 7.3, "title": "Brooklyn", "release_date": "2015-10-20", "original_language": "en", "original_title": "Brooklyn", "genre_ids": [18, 10749], "backdrop_path": "/7fXKVIM8UQBvQ9aQOzFqThlq7eN.jpg", "adult": false, "overview": "In 1950s Ireland and New York, young Eilis Lacey has to choose between two men and two countries.", "poster_path": "/dRpkyrSDrEMFRZDeFJG4EupqUfR.jpg", "popularity": 12.966}, {"id": 398978, "video": false, "vote_count": 2174, "vote_average": 7.8, "title": "The Irishman", "release_date": "2019-11-01", "original_language": "en", "original_title": "The Irishman", "genre_ids": [80, 18, 36], "backdrop_path": "/iLLDiO4dbUfFEnRug8DuvFEl1NB.jpg", "adult": false, "overview": "Pennsylvania, 1956. Frank Sheeran, a war veteran of Irish origin who works as a truck driver, accidentally meets mobster Russell Bufalino. Once Frank becomes his trusted man, Bufalino sends him to Chicago with the task of helping Jimmy Hoffa, a powerful union leader related to organized crime, with whom Frank will maintain a close friendship for nearly twenty years.", "poster_path": "/mbm8k3GFhXS0ROd9AD1gqYbIFbM.jpg", "popularity": 75.227}, {"id": 2604, "video": false, "vote_count": 844, "vote_average": 7.0, "title": "Born on the Fourth of July", "release_date": "1989-12-20", "original_language": "en", "original_title": "Born on the Fourth of July", "genre_ids": [18, 10752], "backdrop_path": "/t9MrNY0xM9U5JSe5vHN9z08UYty.jpg", "adult": false, "overview": "The biography of Ron Kovic. Paralyzed in the Vietnam war, he becomes an anti-war and pro-human rights political activist after feeling betrayed by the country he fought for.", "poster_path": "/iAUSzQNpxf9fX1EvhNbeguo6aVA.jpg", "popularity": 12.659}, {"id": 120467, "video": false, "vote_count": 8930, "vote_average": 8.0, "title": "The Grand Budapest Hotel", "release_date": "2014-02-26", "original_language": "en", "original_title": "The Grand Budapest Hotel", "genre_ids": [35, 18], "backdrop_path": "/5FPUoQtnNC0C0YZ7sUeTLq6eZqa.jpg", "adult": false, "overview": "The Grand Budapest Hotel tells of a legendary concierge at a famous European hotel between the wars and his friendship with a young employee who becomes his trusted prot\u00e9g\u00e9. The story involves the theft and recovery of a priceless Renaissance painting, the battle for an enormous family fortune and the slow and then sudden upheavals that transformed Europe during the first half of the 20th century.", "poster_path": "/nX5XotM9yprCKarRH4fzOq1VM1J.jpg", "popularity": 24.31}, {"id": 483411, "video": false, "vote_count": 48, "vote_average": 6.4, "title": "Ladies in Black", "release_date": "2018-10-18", "original_language": "en", "original_title": "Ladies in Black", "genre_ids": [35, 18], "backdrop_path": "/gIkqcEqz0rj6rK1knYAOoXpwA3y.jpg", "adult": false, "overview": "Adapted from the bestselling novel by Madeleine St John, Ladies in Black is an alluring and tender-hearted comedy drama about the lives of a group of department store employees in 1959 Sydney.", "poster_path": "/sIC0Y0dGLnxbdCksftZ38FZ2c61.jpg", "popularity": 7.026}, {"id": 2976, "video": false, "vote_count": 1691, "vote_average": 6.6, "title": "Hairspray", "release_date": "2007-07-13", "original_language": "en", "original_title": "Hairspray", "genre_ids": [35, 18, 10749], "backdrop_path": "/yafOInYuEuK6FOw1oK40Lggp0TV.jpg", "adult": false, "overview": "Pleasantly plump teenager Tracy Turnblad auditions to be on Baltimore's most popular dance show - The Corny Collins Show - and lands a prime spot. Through her newfound fame, she becomes determined to help her friends and end the racial segregation that has been a staple of the show.", "poster_path": "/ndOpIx4BXpFCRRIxgMoGHxZxlE9.jpg", "popularity": 30.447}, {"id": 651, "video": false, "vote_count": 478, "vote_average": 7.1, "title": "M*A*S*H", "release_date": "1970-01-24", "original_language": "en", "original_title": "M*A*S*H", "genre_ids": [35, 18, 10752], "backdrop_path": "/l5YH6TCYi2mgZwXbDjF71iA9UBP.jpg", "adult": false, "overview": "The staff of a Korean War field hospital use humor and high jinks to keep their sanity in the face of the horror of war.", "poster_path": "/cscyvJ4nDgbqewrttPXZ5EYOdwa.jpg", "popularity": 12.777}, {"adult": false, "backdrop_path": "/fJQ5kjLx4UdK05MC323Vlzwr6S8.jpg", "genre_ids": [35, 18, 36], "id": 140823, "original_language": "en", "original_title": "Saving Mr. Banks", "overview": "Author P.L. Travers travels from London to Hollywood as Walt Disney Pictures adapts her novel Mary Poppins for the big screen.", "poster_path": "/mvs3reS18RP6IhjLwwLeVtkoeg0.jpg", "release_date": "2013-11-16", "title": "Saving Mr. Banks", "video": false, "vote_average": 7.4, "vote_count": 2230, "popularity": 11.476}, {"adult": false, "backdrop_path": "/uCjCNaxLyLkcwBq4aOHOeiKKwPE.jpg", "genre_ids": [35, 10749, 80, 18, 9648], "id": 171274, "original_language": "en", "original_title": "Inherent Vice", "overview": "In Los Angeles at the turn of the 1970s, drug-fueled detective Larry \"Doc\" Sportello investigates the disappearance of an ex-girlfriend.", "poster_path": "/2fCg6FORkgRLpFIKlUg4gULIn1u.jpg", "release_date": "2014-12-25", "title": "Inherent Vice", "video": false, "vote_average": 6.6, "vote_count": 1536, "popularity": 20.663}, {"adult": false, "backdrop_path": "/bsYv9IFIGfpAV0oUbe7YTiyxhox.jpg", "genre_ids": [35, 18, 10749], "id": 83666, "original_language": "en", "original_title": "Moonrise Kingdom", "overview": "Set on an island off the coast of New England in the summer of 1965, Moonrise Kingdom tells the story of two twelve-year-olds who fall in love, make a secret pact, and run away together into the wilderness. As various authorities try to hunt them down, a violent storm is brewing off-shore \u2013 and the peaceful island community is turned upside down in more ways than anyone can handle.", "poster_path": "/ysTohGF7NY9Z6MYz9vLNYiyzh0r.jpg", "release_date": "2012-05-24", "title": "Moonrise Kingdom", "video": false, "vote_average": 7.7, "vote_count": 3401, "popularity": 15.87}, {"id": 7518, "video": false, "vote_count": 2671, "vote_average": 6.4, "title": "Over the Hedge", "release_date": "2006-05-17", "original_language": "en", "original_title": "Over the Hedge", "genre_ids": [16, 35, 10751], "backdrop_path": "/vZSJZZ178D40pwzRXkKqQKjLU7X.jpg", "adult": false, "overview": "A scheming raccoon fools a mismatched family of forest creatures into helping him repay a debt of food, by invading the new suburban sprawl that popped up while they were hibernating \u2013 and learns a lesson about family himself.", "poster_path": "/fGvoD6n6blbFprgbl3BJ2U8YHSF.jpg", "popularity": 27.309}, {"id": 10386, "video": false, "vote_count": 3141, "vote_average": 7.8, "title": "The Iron Giant", "release_date": "1999-08-06", "original_language": "en", "original_title": "The Iron Giant", "genre_ids": [12, 16, 35, 878, 10751], "backdrop_path": "/7FE4OF0nNGL3BFS7NygJzTSLy91.jpg", "adult": false, "overview": "In the small town of Rockwell, Maine in October 1957, a giant metal machine befriends a nine-year-old boy and ultimately finds its humanity by unselfishly saving people from their own fears and prejudices.", "poster_path": "/rdN6IjV4xlDDhrT8ewkkJfPvp2e.jpg", "popularity": 16.89}, {"id": 490132, "video": false, "vote_count": 5172, "vote_average": 8.3, "title": "Green Book", "release_date": "2018-11-16", "original_language": "en", "original_title": "Green Book", "genre_ids": [35, 18], "backdrop_path": "/78PjwaykLY2QqhMfWRDvmfbC6EV.jpg", "adult": false, "overview": "Tony Lip, a bouncer in 1962, is hired to drive pianist Don Shirley on a tour through the Deep South in the days when African Americans, forced to find alternate accommodations and services due to segregation laws below the Mason-Dixon Line, relied on a guide called The Negro Motorist Green Book.", "poster_path": "/7BsvSuDQuoqhWmU2fL7W2GOcZHU.jpg", "popularity": 35.522}, {"id": 466272, "video": false, "vote_count": 4091, "vote_average": 7.5, "title": "Once Upon a Time\u2026 in Hollywood", "release_date": "2019-07-25", "original_language": "en", "original_title": "Once Upon a Time\u2026 in Hollywood", "genre_ids": [35, 18, 53], "backdrop_path": "/yB2hTgz9CTVYjlMWPSl3LPx5nWj.jpg", "adult": false, "overview": "Los Angeles, 1969. TV star Rick Dalton, a struggling actor specializing in westerns, and stuntman Cliff Booth, his best friend, try to survive in a constantly changing movie industry. Dalton is the neighbor of the young and promising actress and model Sharon Tate, who has just married the prestigious Polish director Roman Polanski\u2026", "poster_path": "/8j58iEBw9pOXFD2L0nt0ZXeHviB.jpg", "popularity": 111.288}, {"id": 11086, "video": false, "vote_count": 381, "vote_average": 6.7, "title": "The Majestic", "release_date": "2001-12-21", "original_language": "en", "original_title": "The Majestic", "genre_ids": [35, 18, 10749], "backdrop_path": "/55gGvO7h1g1OZBiph0NRbqF8Gdj.jpg", "adult": false, "overview": "Set in 1951, a blacklisted Hollywood writer gets into a car accident, loses his memory and settles down in a small town where he is mistaken for a long-lost son.", "poster_path": "/A7P4oUpLl4tmgUn0oQjTb0nRjW4.jpg", "popularity": 8.234}, {"adult": false, "backdrop_path": "/uBuMVTfwFKhSUOHM94tSFIZM4lm.jpg", "genre_ids": [35, 18], "id": 403, "original_language": "en", "original_title": "Driving Miss Daisy", "overview": "The story of an old Jewish widow named Daisy Werthan and her relationship with her black chauffeur Hoke. From an initial mere work relationship grew in 25 years a strong friendship between the two very different characters in a time when those types of relationships where shunned upon. Oscar winning tragic comedy with a star-studded cast and based on a play of the same name by Alfred Uhry.", "poster_path": "/iaCzvcY42HihFxQBTZCTKMpsI0P.jpg", "release_date": "1989-12-13", "title": "Driving Miss Daisy", "video": false, "vote_average": 7.3, "vote_count": 761, "popularity": 11.117}, {"id": 394741, "video": false, "vote_count": 498, "vote_average": 7.0, "title": "Stan & Ollie", "release_date": "2018-12-28", "original_language": "en", "original_title": "Stan & Ollie", "genre_ids": [35, 18], "backdrop_path": "/bH7ax3A4Pxlh5ddG4d3HNDMlhK4.jpg", "adult": false, "overview": "With their golden era long behind them, comedy duo Stan Laurel and Oliver Hardy embark on a variety hall tour of Britain and Ireland. Despite the pressures of a hectic schedule, and with the support of their wives Lucille and Ida \u2013 a formidable double act in their own right \u2013 the pair's love of performing, as well as for each other, endures as they secure their place in the hearts of their adoring public", "poster_path": "/8qDBDXA8Od8gc4IQMnoXUKyj8Pf.jpg", "popularity": 18.424}], "total_pages": 42, "total_results": 836}, "recommendations": {"page": 1, "results": [{"adult": false, "backdrop_path": "/6DxZeGdkRNCDMOwiX1Glg5zZlZJ.jpg", "genre_ids": [35], "id": 82481, "original_language": "it", "original_title": "Lo scapolo", "overview": "Paolo Anselmi is a happily single man. He lives in a flat with a friend but is forced to leave when the friend gets married. He then goes to a boarding house where he flirts with a girl but ditches her when she proposes marriage. When he goes and visits his mother he finds out that she is also trying to find the right girl for him. Is he going to surrender this time?", "poster_path": "/4TsGOwg1bmbqZBpSEFiCYY1tsbg.jpg", "release_date": "1955-12-30", "title": "The Bachelor", "video": false, "vote_average": 6.4, "vote_count": 7, "popularity": 1.408}, {"adult": false, "backdrop_path": "/8OFeh9O4m74JpkWfiYvgI8Tpcip.jpg", "genre_ids": [35], "id": 68805, "original_language": "it", "original_title": "Ladro lui, ladra lei", "overview": "Cencio, a roman pilferer, periodically is in prison. He meets Cesira that soon become his partner in crime. With Cesira's help Cencio try the big hit to a jewelery. But the lucky break is over.", "poster_path": "/qzY0ANT4RHjRD9ofcF7Iuu9cd21.jpg", "release_date": "1958-03-01", "title": "Ladro lui, ladra lei", "video": false, "vote_average": 5.6, "vote_count": 7, "popularity": 1.259}, {"id": 193732, "video": false, "vote_count": 6, "vote_average": 6.8, "title": "Il successo", "release_date": "1963-09-24", "original_language": "it", "original_title": "Il successo", "genre_ids": [35], "backdrop_path": null, "adult": false, "overview": "", "poster_path": "/rk7cqaMF4sDCRavOunYl9qzKM57.jpg", "popularity": 1.771}, {"adult": false, "backdrop_path": "/stzwJhu8bAEyTvMOZKrMj2siCgG.jpg", "genre_ids": [35], "id": 197918, "original_language": "it", "original_title": "Dove vai tutta nuda?", "overview": "Young bank employee is very surprised by his bride behavior...", "poster_path": "/2Npbe3sA9myL5bT3zrEKBLM2bCq.jpg", "release_date": "1969-09-12", "title": "Where Are You Going All Naked?", "video": false, "vote_average": 6.1, "vote_count": 5, "popularity": 2.443}, {"adult": false, "backdrop_path": "/9E1hxndDEoEgMmCx7rXTjzVlqC4.jpg", "genre_ids": [35], "id": 82346, "original_language": "it", "original_title": "Bravissimo", "overview": "", "poster_path": "/caoQS69NoTsu3DmG0xmBgPBZWOe.jpg", "release_date": "1955-01-01", "title": "Bravissimo", "video": false, "vote_average": 6.2, "vote_count": 15, "popularity": 3.037}, {"adult": false, "backdrop_path": "/uQuOrqKzUbWhxI28gGqc1Akx7T6.jpg", "genre_ids": [35], "id": 196204, "original_language": "it", "original_title": "L'arcidiavolo", "overview": "Two devils from Hell are sent to Earth to cause trouble. Belfagor and his faithful sidekick Adramalek must start a war between Rome and Florence in 1478.", "poster_path": "/vOVkOvYFK0eh0Zlzh4tqyt7KbsO.jpg", "release_date": "1966-12-20", "title": "The Devil in Love", "video": false, "vote_average": 5.6, "vote_count": 6, "popularity": 1.835}, {"adult": false, "backdrop_path": "/1tjfMQ676q3wl73qPLg0b0lJX2w.jpg", "genre_ids": [35], "id": 74216, "original_language": "it", "original_title": "La mandragola", "overview": "A young man hatches a plan to sleep with another man's infertile wife. Based on the play by Machiavelli.", "poster_path": "/meG0QrKyIy8wWIW8EkXVc001e3y.jpg", "release_date": "1965-11-18", "title": "The Mandrake", "video": false, "vote_average": 6.1, "vote_count": 9, "popularity": 1.84}, {"adult": false, "backdrop_path": "/3Gs3GPxJ4Cb1w0EDHgJNbb8nPHp.jpg", "genre_ids": [35, 10749], "id": 50426, "original_language": "it", "original_title": "Due notti con Cleopatra", "overview": "Sophia Loren plays a dual role, as both the sultry Queen of the Nile with a \"man-a-night\" appetite and a beautiful slave girl who takes her place and is wooed by a bodyguard who thinks she's the real monarch.", "poster_path": "/yXaWIc9pxYTyCIf5f0SiNrzNsr3.jpg", "release_date": "1954-02-04", "title": "Two Nights with Cleopatra", "video": false, "vote_average": 5.7, "vote_count": 8, "popularity": 1.582}, {"adult": false, "backdrop_path": "/sG266KjhfoKMoKsOry20ZpWgrz9.jpg", "genre_ids": [], "id": 58006, "original_language": "it", "original_title": "Ferdinando I, re di Napoli", "overview": "The story of \"King Lazzarone\" Ferdinand I of Bourbon whose pastime was to neglect the government and disguise himself as a poor man and turn to the infamous city premises in search of love adventures. With the De Filippo brothers to complete.", "poster_path": "/iUuxJau6t2mXZWzse09frR0yF0t.jpg", "release_date": "1959-01-01", "title": "Ferdinando I, re di Napoli", "video": false, "vote_average": 6.1, "vote_count": 8, "popularity": 1.7}, {"adult": false, "backdrop_path": null, "genre_ids": [35, 14], "id": 62460, "original_language": "it", "original_title": "Questi fantasmi", "overview": "Pasquale and Maria, husband and wife, live in a palace supposedly haunted by ghosts and pay no rent. When Pasquale finds some food in the cupboard he thinks the ghosts are at work.", "poster_path": "/knEO2cxDEpa7O6epnUZe0k62w4.jpg", "release_date": "1967-01-01", "title": "Ghosts, Italian Style", "video": false, "vote_average": 7.1, "vote_count": 8, "popularity": 2.024}, {"id": 64043, "video": false, "vote_count": 10, "vote_average": 5.5, "title": "I due orfanelli", "release_date": "1947-01-01", "original_language": "it", "original_title": "I due orfanelli", "genre_ids": [35], "backdrop_path": "/ymzNxr8UuemS8nMWrc4f3vj7qKe.jpg", "adult": false, "overview": "", "poster_path": "/1fXBMWdKzxCyJeBG8Uvo8DxiQIF.jpg", "popularity": 2.597}, {"adult": false, "backdrop_path": null, "genre_ids": [10749, 35], "id": 61937, "original_language": "it", "original_title": "Cerasella", "overview": "Cerasella escapes just before his marriage with Alfredo and meets Bruno, the son of a wealthy industrialist. Subject by Ugo Pirro, inspired by a successful song.", "poster_path": "/iKgvA0Ii9AyPBggKWVBcCeB0QXg.jpg", "release_date": "1959-01-01", "title": "Cerasella", "video": false, "vote_average": 6.8, "vote_count": 8, "popularity": 1.552}, {"adult": false, "backdrop_path": "/iVIvxY1SMFikchHJwgKjaWB1vwq.jpg", "genre_ids": [35], "id": 127760, "original_language": "it", "original_title": "Uno contro l'altro, praticamente amici", "overview": "A Milanese industrialist goes to Rome to bribe a politician but he loses money. A thief helps him recover them. Milan and Rome in comparison in the duets of the couple Pozzetto-Milian.", "poster_path": "/yS52vKvQEiS6cXku9YaAllKD4nv.jpg", "release_date": "1981-04-11", "title": "Uno contro l'altro, praticamente amici", "video": false, "vote_average": 6.8, "vote_count": 15, "popularity": 1.023}, {"adult": false, "backdrop_path": "/25pgyx2aGJfzxBQO1tYSfB34BlZ.jpg", "genre_ids": [35], "id": 50195, "original_language": "it", "original_title": "Qua la mano", "overview": "Two episodes: A roman coachman fulfills the dream of his life and meets the Pope. A priest crazy about dancing wins the first prize in a contest.", "poster_path": "/iodggeR671Kf15HLBZhIf3przuA.jpg", "release_date": "1980-03-28", "title": "Give Me Five", "video": false, "vote_average": 6.0, "vote_count": 17, "popularity": 2.296}, {"adult": false, "backdrop_path": "/7ay4RwDDRzJEIHUHVfPAEmIyMPL.jpg", "genre_ids": [35], "id": 62457, "original_language": "it", "original_title": "La nonna Sabella", "overview": "Raffaele, a Neapolitan student, get the news that his beloved grandmother Sabella is dying. He immediately goes to Pollena to be beside her.", "poster_path": "/pTz2f7JadcJt4l72pw8RnMW1BAl.jpg", "release_date": "1957-07-21", "title": "Oh! Sabella", "video": false, "vote_average": 7.9, "vote_count": 10, "popularity": 1.407}, {"adult": false, "backdrop_path": "/4pq4qZ3zZEwBl6XyYYjyovbE2qt.jpg", "genre_ids": [35], "id": 81666, "original_language": "it", "original_title": "Sing Sing Cel", "overview": "Eduardo accidentally discovers that he is adopted. His real father is dying, but before his death he said that his mother was the \"Queen of England\", failing to clarify that this is the nickname of Italian prostitute. But Eduardo is already rushing to the capital of England...", "poster_path": "/2JbZhhWffCdlxghpaU0Nc2IO6aA.jpg", "release_date": "1983-10-15", "title": "Sing Sing Cel", "video": false, "vote_average": 5.5, "vote_count": 20, "popularity": 4.418}, {"adult": false, "backdrop_path": "/k44HdYX6mFPIENxF7m5ZZdMhdXJ.jpg", "genre_ids": [35, 10752], "id": 167854, "original_language": "it", "original_title": "Sturmtruppen", "overview": "", "poster_path": "/taTN1FCRfe0J5ORVuT6Wx2Y86D2.jpg", "release_date": "1976-12-20", "title": "Sturmtruppen", "video": false, "vote_average": 4.6, "vote_count": 14, "popularity": 3.401}, {"adult": false, "backdrop_path": "/r7hyMQ5q7M1o8xyF3hU7FAjXc8o.jpg", "genre_ids": [35], "id": 79025, "original_language": "it", "original_title": "Un eroe dei nostri tempi", "overview": "Alberto Menichetti lives with an aunt and an old housekeeper, Clotilde; he has a job in a firm and his boss is Mrs. De Ritis, a widow whose husband was killed during a wild boar hunt. She likes him but Alberto likes Marcella; she is under age and he is awaiting her birthday to declare his love. His greater traits are to be fearful of everything and to be selfish. This nature will get him into trouble..", "poster_path": "/sg37cGQlkTJdxQJKm4FptTebZkA.jpg", "release_date": "1955-01-01", "title": "A Hero of Our Times", "video": false, "vote_average": 6.9, "vote_count": 13, "popularity": 1.923}, {"id": 48937, "video": false, "vote_count": 19, "vote_average": 5.9, "title": "Venice, the Moon and You", "release_date": "1958-10-03", "original_language": "it", "original_title": "Venezia, la luna e tu", "genre_ids": [35], "backdrop_path": "/901oauTAVNpB3WhxzLPvcwgPSBZ.jpg", "adult": false, "overview": "The \"casanova\" gondolier Bepi struggles to accept his future monogamous life, being Venice a hub of attracting tourists.", "poster_path": "/jc3Tvi66zwFVSCjTk7aM6kuokSA.jpg", "popularity": 1.97}, {"adult": false, "backdrop_path": "/uBuuVbzsQ3SfdTEume9CjujZuo1.jpg", "genre_ids": [35], "id": 60195, "original_language": "it", "original_title": "Il conte Max", "overview": "", "poster_path": "/fi2V9Zkj2gfmkvVDPlK7H6DKA5O.jpg", "release_date": "1957-01-01", "title": "Il conte Max", "video": false, "vote_average": 7.0, "vote_count": 23, "popularity": 2.325}], "total_pages": 2, "total_results": 23}, "credits": {"cast": [{"cast_id": 1, "character": "Guardia Alberto Randolfi", "credit_id": "52fe48aac3a368484e1048d9", "gender": 2, "id": 45982, "name": "Alberto Sordi", "order": 0, "profile_path": "/qfrgQ551SxM2i4LMIFLX7kScUc7.jpg"}, {"cast_id": 2, "character": "Guardia Scelta Giuseppe Manganiello", "credit_id": "52fe48aac3a368484e1048dd", "gender": 0, "id": 94418, "name": "Peppino De Filippo", "order": 1, "profile_path": "/2OqG83QKVNbW9N7G59jwigwgu13.jpg"}, {"cast_id": 3, "character": "Brigadiere Pietro Spaziani", "credit_id": "52fe48aac3a368484e1048e1", "gender": 2, "id": 4420, "name": "Aldo Fabrizi", "order": 2, "profile_path": "/klWr6bFEp7hjNGziDMTCIFez3Jh.jpg"}, {"cast_id": 4, "character": "Maresciallo", "credit_id": "52fe48aac3a368484e1048e5", "gender": 2, "id": 37191, "name": "Gino Cervi", "order": 3, "profile_path": "/dnArJe5KJvtHrEIc6Mtwgmic4tE.jpg"}, {"cast_id": 6, "character": "Maria Spaziani - Pietro's Daughter", "credit_id": "54b68547925141675c001c0c", "gender": 1, "id": 544826, "name": "Valeria Moriconi", "order": 4, "profile_path": "/bTB4Z9yRNiTrnJRPOfFZpE596HG.jpg"}, {"cast_id": 7, "character": "Sandro", "credit_id": "54b68562925141675c001c0e", "gender": 2, "id": 1020091, "name": "Tiberio Mitri", "order": 5, "profile_path": "/kpXPIPgCHHddsjAKtSEUUZG6QJA.jpg"}, {"cast_id": 8, "character": "Paolo", "credit_id": "54b68579c3a36812d3000007", "gender": 2, "id": 37583, "name": "Nino Manfredi", "order": 6, "profile_path": "/6tbLLDaJfAdLRVVhvCccK8Vpl7p.jpg"}, {"cast_id": 9, "character": "Charlotte", "credit_id": "54b6859c9251414ee5000004", "gender": 1, "id": 22475, "name": "Alessandra Panaro", "order": 7, "profile_path": "/qBWWr1TyDLchhc3NGSPhznldrDd.jpg"}, {"cast_id": 10, "character": "Roberto Strinati", "credit_id": "54b685ccc3a36812d3000015", "gender": 0, "id": 1413563, "name": "Alvaro Strina", "order": 8, "profile_path": null}, {"cast_id": 11, "character": "French Tourist", "credit_id": "54b685ee9251414ed5000008", "gender": 2, "id": 144992, "name": "Ciccio Barbi", "order": 9, "profile_path": "/xYxetX5EDMlj7BMHbk6E0LgLhUO.jpg"}, {"cast_id": 12, "character": "Pietro's Sister", "credit_id": "54b6860dc3a36812c7000011", "gender": 0, "id": 1175386, "name": "Gina Amendola", "order": 10, "profile_path": null}, {"cast_id": 13, "character": "The Nun as a Car Driver", "credit_id": "54b68658c3a36812c1000022", "gender": 1, "id": 5406, "name": "Lidia Venturini", "order": 11, "profile_path": "/tBXL9HL0wHvGiRvVbFqh3XvWPSM.jpg"}, {"cast_id": 14, "character": "Madame Yolande (as Lidia Jonson)", "credit_id": "54b686ab9251414ee1000021", "gender": 0, "id": 1413565, "name": "Lydia Johnson", "order": 12, "profile_path": null}, {"cast_id": 15, "character": "The Provoking Pedestrian", "credit_id": "54b686c09251414ed5000023", "gender": 2, "id": 12341, "name": "Memmo Carotenuto", "order": 13, "profile_path": "/22yOc8UbcpwNXtxUUgD8C7LwMci.jpg"}, {"cast_id": 16, "character": "The Scooterist with his Family", "credit_id": "54b686e2c3a36812c700003a", "gender": 0, "id": 1413566, "name": "Oscar Blando", "order": 14, "profile_path": null}, {"cast_id": 17, "character": "The Colonel as an Examiner", "credit_id": "54b686f99251414edf000015", "gender": 2, "id": 99514, "name": "Mino Doro", "order": 15, "profile_path": "/xcfyahck5IWJjbfhNBwSMmIFf5N.jpg"}, {"cast_id": 18, "character": "Carmela", "credit_id": "54b68719c3a36812cd000032", "gender": 1, "id": 586395, "name": "Anita Durante", "order": 16, "profile_path": null}, {"cast_id": 20, "character": "The Driver into No-Parking Area", "credit_id": "54b68771c3a36812d3000037", "gender": 2, "id": 5968, "name": "Riccardo Garrone", "order": 18, "profile_path": "/a7Bo4IcnZ4qBwQFARhIPJYBUVnY.jpg"}, {"cast_id": 21, "character": "Tonino Spaziani", "credit_id": "54b687e09251414ee100003a", "gender": 0, "id": 1146199, "name": "Edoardo Nevola", "order": 19, "profile_path": "/pyBQ5YIxLAzGLZt54PdCVBIrPzO.jpg"}], "crew": [{"credit_id": "52fe48aac3a368484e1048eb", "department": "Directing", "gender": 2, "id": 227520, "job": "Director", "name": "Mauro Bolognini", "profile_path": "/A7UguXqU4FW5GPA0V3QTkQkSGJ3.jpg"}, {"credit_id": "54b688439251414ed2000047", "department": "Writing", "gender": 0, "id": 1413568, "job": "Story", "name": "Paolo Frasc\u00e0", "profile_path": null}, {"credit_id": "54b6885fc3a36812d3000046", "department": "Writing", "gender": 0, "id": 31892, "job": "Writer", "name": "Ruggero Maccari", "profile_path": null}, {"credit_id": "54b68877c3a36812cd000058", "department": "Writing", "gender": 0, "id": 1094532, "job": "Writer", "name": "Nicola Manzari", "profile_path": null}, {"credit_id": "54b68897c3a36812cd00005f", "department": "Writing", "gender": 2, "id": 31894, "job": "Writer", "name": "Ettore Scola", "profile_path": "/xfesZME8Wh2XaZ9xERxoBZLWUmF.jpg"}, {"credit_id": "54b68a09c3a36812d000004b", "department": "Sound", "gender": 2, "id": 29500, "job": "Music", "name": "Carlo Rustichelli", "profile_path": "/3LOPAqzUlWbyjzxYXMlJpJDrrrE.jpg"}]}}