{"adult": false, "backdrop_path": null, "belongs_to_collection": {"id": 608880, "name": "Indio Collection", "poster_path": null, "backdrop_path": null}, "budget": 0, "genres": [{"id": 28, "name": "Action"}, {"id": 12, "name": "Adventure"}, {"id": 10752, "name": "War"}], "homepage": null, "id": 74594, "imdb_id": "tt0102117", "original_language": "en", "original_title": "Indio 2 - La rivolta", "overview": "A corporation building a highway through the rainforest hires a gang of mercenaries to get rid of the local Indians, who don't want the highway built through their lands. The mercenaries resort to murder, massacres and enslavement to rid the company of its Indian problem. Sgt. Irons, a former Marine NCO, helps to unite the jungle tribes and leads them in their fight to protect their homes and their families.", "popularity": 1.768, "poster_path": "/mxpNp3brhZ3cGCOFwkoOdz9AUHQ.jpg", "production_companies": [{"id": 36288, "logo_path": null, "name": "R.P.A. International", "origin_country": ""}], "production_countries": [{"iso_3166_1": "IT", "name": "Italy"}], "release_date": "1991-04-17", "revenue": 0, "runtime": null, "spoken_languages": [{"iso_639_1": "en", "name": "English"}], "status": "Released", "tagline": "", "title": "Indio 2 - The Revolt", "video": false, "vote_average": 9.0, "vote_count": 1, "keywords": {"keywords": [{"id": 3070, "name": "mercenary"}, {"id": 10787, "name": "jungle"}, {"id": 180550, "name": "rainforest"}, {"id": 215162, "name": "indigenous peoples"}]}, "similar": {"page": 1, "results": [{"id": 11532, "video": false, "vote_count": 116, "vote_average": 6.9, "title": "The Emerald Forest", "release_date": "1985-06-26", "original_language": "en", "original_title": "The Emerald Forest", "genre_ids": [28, 12, 18], "backdrop_path": "/7TXuc6kYEVN3h8tWXBdhFc7dqKy.jpg", "adult": false, "overview": "For ten years, engineer Bill Markham has searched tirelessly for his son Tommy who disappeared from the edge of the Brazilian rainforest. Miraculously, he finds the boy living among the reclusive Amazon tribe who adopted him. And that's when Bill's adventure truly begins. For his son is now a grown tribesman who moves skillfully through this beautiful-but-dangerous terrain, fearful only of those who would exploit it. And as Bill attempts to \"rescue\" him from the savagery of the untamed jungle, Tommy challenges Bill's idea of true civilization and his notions about who needs rescuing.", "poster_path": "/aiO9s3kuhrViz9s78wS1bsesdmW.jpg", "popularity": 11.863}, {"id": 390062, "video": false, "vote_count": 930, "vote_average": 6.3, "title": "Jungle", "release_date": "2017-06-27", "original_language": "en", "original_title": "Jungle", "genre_ids": [12, 18, 53], "backdrop_path": "/tav8VVa6H6KooK5rFhAG2jT5ZNx.jpg", "adult": false, "overview": "In 1981, an enthusiastic young adventurer follows his dreams into the Bolivian Amazon jungle with two friends and a guide with a mysterious past. Their journey quickly turns into a terrifying ordeal as the darkest elements of human nature and the deadliest threats of the wilderness lead to an all-out fight for survival.", "poster_path": "/tDgxknTVwrScxpCYyGUjXSn5NRk.jpg", "popularity": 20.718}, {"id": 37135, "video": false, "vote_count": 4092, "vote_average": 7.4, "title": "Tarzan", "release_date": "1999-06-18", "original_language": "en", "original_title": "Tarzan", "genre_ids": [12, 16, 18, 10751], "backdrop_path": "/hCpRqibOM0ouOiqL0HMqZOF8bYe.jpg", "adult": false, "overview": "Tarzan was a small orphan who was raised by an ape named Kala since he was a child. He believed that this was his family, but on an expedition Jane Porter is rescued by Tarzan. He then finds out that he's human. Now Tarzan must make the decision as to which family he should belong to...", "poster_path": "/y6k0qn4tcDfbnrjJ2BUnoZYmMBk.jpg", "popularity": 22.572}, {"id": 258489, "video": false, "vote_count": 4393, "vote_average": 5.8, "title": "The Legend of Tarzan", "release_date": "2016-06-29", "original_language": "en", "original_title": "The Legend of Tarzan", "genre_ids": [28, 12], "backdrop_path": "/d9H2nXfKslf6B1cm7UtPBKhtUgA.jpg", "adult": false, "overview": "Tarzan, having acclimated to life in London, is called back to his former home in the jungle to investigate the activities at a mining encampment.", "poster_path": "/6FxOPJ9Ysilpq0IgkrMJ7PubFhq.jpg", "popularity": 21.616}, {"id": 171424, "video": false, "vote_count": 694, "vote_average": 5.3, "title": "The Green Inferno", "release_date": "2014-09-04", "original_language": "en", "original_title": "The Green Inferno", "genre_ids": [28, 12, 27, 53], "backdrop_path": "/gX2nkTe2RI2RCM9BsNe1yyNWKFa.jpg", "adult": false, "overview": "A group of student activists travel from New York City to the Amazon to save the rainforest.  However, once they arrive in this vast green landscape, they soon discover that they are not alone\u2026 and that no good deed goes unpunished.", "poster_path": "/prG32jWEgiZ2N8BpBPu1G0jMiv2.jpg", "popularity": 12.287}, {"id": 11416, "video": false, "vote_count": 688, "vote_average": 7.4, "title": "The Mission", "release_date": "1986-09-29", "original_language": "en", "original_title": "The Mission", "genre_ids": [28, 12, 18, 36], "backdrop_path": "/22GLW4Qgs7NycHLjsp8whRCuky4.jpg", "adult": false, "overview": "When a Spanish Jesuit goes into the South American wilderness to build a mission in the hope of converting the Indians of the region, a slave hunter is converted and joins his mission. When Spain sells the colony to Portugal, they are forced to defend all they have built against the Portugese aggressors.", "poster_path": "/oTU13XXz4WHisDWKX3X6dFWEjC0.jpg", "popularity": 11.33}, {"id": 9360, "video": false, "vote_count": 1328, "vote_average": 4.9, "title": "Anaconda", "release_date": "1997-04-11", "original_language": "en", "original_title": "Anaconda", "genre_ids": [12, 27, 53], "backdrop_path": "/uAnJipu2hzZ04fY68d2UoB9eAa6.jpg", "adult": false, "overview": "A \"National Geographic\" film crew is taken hostage by an insane hunter, who takes them along on his quest to capture the world's largest - and deadliest - snake.", "poster_path": "/yGku6UoX3MKbjnVbcUtrJcyghyi.jpg", "popularity": 18.682}, {"adult": false, "backdrop_path": "/4T2EpBzG4VyqDijObJFjWse8RaH.jpg", "genre_ids": [12, 35, 10751, 10749], "id": 10603, "original_language": "en", "original_title": "George of the Jungle", "overview": "After Baby George survives a plane crash in the jungle, he is rescued and then adopted by a wise ape. Years later, grown-up George saves a US noble woman, Ursula Stanhope while she is on a safari\u2014and takes her to the jungle to live with him. While Ursula's lover continues his search for Ursula and the one who took her, George slowly learns the rules of human relationships.", "poster_path": "/wTvuMi6YlO6bVe2Ax5mEL1dbVYv.jpg", "release_date": "1997-07-15", "title": "George of the Jungle", "video": false, "vote_average": 5.4, "vote_count": 1151, "popularity": 14.358}, {"id": 172385, "video": false, "vote_count": 1999, "vote_average": 6.4, "title": "Rio 2", "release_date": "2014-03-19", "original_language": "en", "original_title": "Rio 2", "genre_ids": [12, 16, 35, 10751], "backdrop_path": "/bRQPOVpvBmvep9WYnGcKguxjlg2.jpg", "adult": false, "overview": "It's a jungle out there for Blu, Jewel and their three kids after they're hurtled from Rio de Janeiro to the wilds of the Amazon. As Blu tries to fit in, he goes beak-to-beak with the vengeful Nigel, and meets the most fearsome adversary of all: his father-in-law.", "poster_path": "/jZcF7xZVvrX2A4qNOqeHpmtbdBT.jpg", "popularity": 19.292}, {"adult": false, "backdrop_path": "/kmcnv73Wn0nkPQ5zQH7amJh4rEJ.jpg", "genre_ids": [12, 18], "id": 9096, "original_language": "en", "original_title": "Medicine Man", "overview": "An eccentric scientist working for a large drug company is working on a research project in the Amazon jungle. He sends for a research assistant and a gas chromatograph because he's close to a cure for cancer. When the assistant turns out to be a \"mere woman,\" he rejects her help. Meanwhile the bulldozers get closer to the area in which they are conducting research, and they eventually learn to work together, and begin falling in love.", "poster_path": "/lQAvyFcppZhqbz5coICwfbgcylY.jpg", "release_date": "1992-02-07", "title": "Medicine Man", "video": false, "vote_average": 6.0, "vote_count": 198, "popularity": 9.206}, {"id": 2000, "video": false, "vote_count": 492, "vote_average": 7.6, "title": "Aguirre, the Wrath of God", "release_date": "1972-12-29", "original_language": "de", "original_title": "Aguirre, der Zorn Gottes", "genre_ids": [12, 18, 36], "backdrop_path": "/q9hBNsodUfQHhlJLImE9hqZJJxZ.jpg", "adult": false, "overview": "A few decades after the destruction of the Inca empire, a Spanish expedition leaves the mountains of Peru and goes down the Amazon river in search of gold and wealth. Soon, they come across great difficulties and Don Aguirre, a ruthless man who cares only about riches, becomes their leader. But will his quest lead them to \"the golden city\", or to certain destruction?", "poster_path": "/uHP3AtAnudp5w8d3jx2el1AtV6a.jpg", "popularity": 14.037}, {"adult": false, "backdrop_path": "/46y6EvnDveRFwtztyHVS0y2DipU.jpg", "genre_ids": [18, 53, 28], "id": 1372, "original_language": "en", "original_title": "Blood Diamond", "overview": "An ex-mercenary turned smuggler. A Mende fisherman. Amid the explosive civil war overtaking 1999 Sierra Leone, these men join for two desperate missions: recovering a rare pink diamond of immense value and rescuing the fisherman's son conscripted as a child soldier into the brutal rebel forces ripping a swath of torture and bloodshed countrywide.", "poster_path": "/wRamTzV6udKaMXrspxqOuo02zk0.jpg", "release_date": "2006-12-07", "title": "Blood Diamond", "video": false, "vote_average": 7.5, "vote_count": 4327, "popularity": 16.586}, {"adult": false, "backdrop_path": "/cTPS3ib89O4HSOtZDa3YXvaas5F.jpg", "genre_ids": [53, 878, 28, 12], "id": 307663, "original_language": "en", "original_title": "Vice", "overview": "Julian Michaels has designed the ultimate resort: VICE, where anything goes and the customers can play out their wildest fantasies with artificial inhabitants who look, think and feel like humans. When an artificial becomes self-aware and escapes, she finds herself caught in the crossfire between Julian's mercenaries and a cop who is hell-bent on shutting down Vice, and stopping the violence once and for all.", "poster_path": "/gwiY5RJFYSjsoSwoeeo6AbGYjpb.jpg", "release_date": "2015-01-16", "title": "Vice", "video": false, "vote_average": 4.3, "vote_count": 344, "popularity": 16.357}, {"adult": false, "backdrop_path": "/nfm6JCKUaM6dT0mATmShLY6cpmc.jpg", "genre_ids": [18, 10752], "id": 600, "original_language": "en", "original_title": "Full Metal Jacket", "overview": "A pragmatic U.S. Marine observes the dehumanizing effects the U.S.-Vietnam War has on his fellow recruits from their brutal boot camp training to the bloody street fighting in Hue.", "poster_path": "/29veIwD38rVL2qY74emXQw4y25H.jpg", "release_date": "1987-06-26", "title": "Full Metal Jacket", "video": false, "vote_average": 8.1, "vote_count": 5897, "popularity": 25.207}, {"adult": false, "backdrop_path": "/ufqPsRItWyFzdFz3MevDkxRF8pT.jpg", "genre_ids": [18, 10752, 28], "id": 792, "original_language": "en", "original_title": "Platoon", "overview": "As a young and naive recruit in Vietnam, Chris Taylor faces a moral crisis when confronted with the horrors of war and the duality of man.", "poster_path": "/8hDlxJZYCJJLRHbSk7hsRQ9SNp7.jpg", "release_date": "1986-12-19", "title": "Platoon", "video": false, "vote_average": 7.7, "vote_count": 2387, "popularity": 19.539}, {"id": 8393, "video": false, "vote_count": 510, "vote_average": 7.1, "title": "The Gods Must Be Crazy", "release_date": "1980-09-10", "original_language": "en", "original_title": "The Gods Must Be Crazy", "genre_ids": [28, 35], "backdrop_path": "/iVxo0Qy4FMIEF9LhBJtJwwvsuIU.jpg", "adult": false, "overview": "A Coca-Cola bottle dropped from an airplane raises havoc among a normally peaceful tribe of African bushmen who believe it to be a utensil of the gods.", "poster_path": "/yvD2BWOEM5N4S4f6Yj8IVVjoKQO.jpg", "popularity": 29.891}, {"id": 7446, "video": false, "vote_count": 3479, "vote_average": 6.5, "title": "Tropic Thunder", "release_date": "2008-08-09", "original_language": "en", "original_title": "Tropic Thunder", "genre_ids": [28, 12, 35, 10752], "backdrop_path": "/pr8sj9FozsiT45TMtkwFRWONNII.jpg", "adult": false, "overview": "Vietnam veteran 'Four Leaf' Tayback's memoir, Tropic Thunder, is being made into a film, but Director Damien Cockburn can\u2019t control the cast of prima donnas. Behind schedule and over budget, Cockburn is ordered by a studio executive to get filming back on track, or risk its cancellation. On Tayback's advice, Cockburn drops the actors into the middle of the jungle to film the remaining scenes but, unbeknownst to the actors and production, the group have been dropped in the middle of the Golden Triangle, the home of heroin-producing gangs.", "poster_path": "/ue9QdvhpcNPvKQyLY5a5Pd0tagS.jpg", "popularity": 28.425}, {"id": 293660, "video": false, "vote_count": 21628, "vote_average": 7.6, "title": "Deadpool", "release_date": "2016-02-09", "original_language": "en", "original_title": "Deadpool", "genre_ids": [28, 12, 35], "backdrop_path": "/n1y094tVDFATSzkTnFxoGZ1qNsG.jpg", "adult": false, "overview": "Deadpool tells the origin story of former Special Forces operative turned mercenary Wade Wilson, who after being subjected to a rogue experiment that leaves him with accelerated healing powers, adopts the alter ego Deadpool. Armed with his new abilities and a dark, twisted sense of humor, Deadpool hunts down the man who nearly destroyed his life.", "poster_path": "/inVq3FRqcYIRl2la8iZikYYxFNR.jpg", "popularity": 45.688}, {"id": 8078, "video": false, "vote_count": 2644, "vote_average": 6.0, "title": "Alien Resurrection", "release_date": "1997-11-12", "original_language": "en", "original_title": "Alien Resurrection", "genre_ids": [28, 27, 878], "backdrop_path": "/1F8KilfgVwWTB1tIzfwoKUvPqpl.jpg", "adult": false, "overview": "Two hundred years after Lt. Ripley died, a group of scientists clone her, hoping to breed the ultimate weapon. But the new Ripley is full of surprises \u2026 as are the new aliens. Ripley must team with a band of smugglers to keep the creatures from reaching Earth.", "poster_path": "/2mavulZivbQa8XZlRA6h3hmesl7.jpg", "popularity": 22.33}, {"id": 184315, "video": false, "vote_count": 2804, "vote_average": 5.7, "title": "Hercules", "release_date": "2014-07-23", "original_language": "en", "original_title": "Hercules", "genre_ids": [28, 12], "backdrop_path": "/pNPdcgHT1FpCmauzFWepyfDvDo9.jpg", "adult": false, "overview": "Fourteen hundred years ago, a tormented soul walked the earth that was neither man nor god. Hercules was the powerful son of the god king Zeus, for this he received nothing but suffering his entire life. After twelve arduous labors and the loss of his family, this dark, world-weary soul turned his back on the gods finding his only solace in bloody battle. Over the years he warmed to the company of six similar souls, their only bond being their love of fighting and presence of death. These men and woman never question where they go to fight or why or whom, just how much they will be paid. Now the King of Thrace has hired these mercenaries to train his men to become the greatest army of all time. It is time for this bunch of lost souls to finally have their eyes opened to how far they have fallen when they must train an army to become as ruthless and blood thirsty as their reputation has become.", "poster_path": "/wGAWxOnVjwXqvoiKX7Pf6XOWnPJ.jpg", "popularity": 31.25}], "total_pages": 55, "total_results": 1093}, "recommendations": {"page": 1, "results": [], "total_pages": 1, "total_results": 0}, "credits": {"cast": [{"cast_id": 1, "character": "Sgt. Iron", "credit_id": "52fe48d4c3a368484e10d157", "gender": 2, "id": 216149, "name": "Marvelous Marvin Hagler", "order": 0, "profile_path": "/6J4Q0u37p2Gpk6IPv9alKKErENK.jpg"}, {"cast_id": 7, "character": "Ugadi", "credit_id": "544bddf70e0a2608d000047a", "gender": 0, "id": 1377537, "name": "Frank Cuervo", "order": 1, "profile_path": "/hcvEAl3ft3Lmf9HfgGP11INbLBK.jpg"}, {"cast_id": 8, "character": "Vincent van Eyck", "credit_id": "544bde030e0a2608c500047f", "gender": 2, "id": 1237276, "name": "Dirk Galuba", "order": 2, "profile_path": null}, {"cast_id": 9, "character": "Father Leonard", "credit_id": "544bde10c3a36872b400047c", "gender": 0, "id": 1057236, "name": "Maurizio Fardo", "order": 3, "profile_path": "/1esY45d9no1upzaAg4qPcKzsvPL.jpg"}, {"cast_id": 10, "character": "Mama Lou", "credit_id": "544bde2ac3a36872b800049e", "gender": 0, "id": 1377539, "name": "Jacqueline Carol", "order": 4, "profile_path": null}, {"cast_id": 11, "character": "IMC President", "credit_id": "544bde39c3a36872c70003ec", "gender": 2, "id": 16119, "name": "Charles Napier", "order": 5, "profile_path": "/w16LEJlHDtqGWeFCk5a7a2GDeBK.jpg"}, {"cast_id": 13, "character": "Mrs. Morrell", "credit_id": "5a39467792514103241fe220", "gender": 1, "id": 77054, "name": "Tetchie Agbayani", "order": 6, "profile_path": "/zHZEpF3fEQfXGBbMVRvixL2hMTl.jpg"}, {"cast_id": 14, "character": "Photojournalist (uncredited)", "credit_id": "5a39469b0e0a264cd0201fbd", "gender": 0, "id": 1299604, "name": "David Brass", "order": 7, "profile_path": "/6GOsHTjuB6E87yfor67rGBqqP16.jpg"}, {"cast_id": 15, "character": "Pablo (uncredited)", "credit_id": "5a3946a80e0a264cc41f4f7f", "gender": 2, "id": 1275241, "name": "Kenneth Peerless", "order": 8, "profile_path": "/u0LAUN25SYIlw9cxhsTnpmzcneG.jpg"}, {"cast_id": 16, "character": "Gabriel Morrell (uncredited)", "credit_id": "5a3946c0c3a36814ae07a78f", "gender": 0, "id": 1944647, "name": "Andrew Camposano", "order": 9, "profile_path": null}, {"cast_id": 17, "character": "American Dancer (uncredited)", "credit_id": "5a394703925141547b0779a4", "gender": 0, "id": 1944648, "name": "Mark F. Hill", "order": 10, "profile_path": null}, {"cast_id": 18, "character": "Vincent's Aide (uncredited)", "credit_id": "5a3947250e0a264cca1fb125", "gender": 0, "id": 1483173, "name": "David Anderson", "order": 11, "profile_path": null}, {"cast_id": 19, "character": "IMC Officer (uncredited)", "credit_id": "5a39473e92514103241fe2c7", "gender": 2, "id": 107326, "name": "David Light", "order": 12, "profile_path": "/1dohy86cBL1z6ZhaEoGHDD0oNmP.jpg"}, {"cast_id": 20, "character": "IMC Officer (uncredited)", "credit_id": "5a39474e925141033620435e", "gender": 0, "id": 1944649, "name": "Willy Schober", "order": 13, "profile_path": null}, {"cast_id": 34, "character": "Mercenary (uncredited)", "credit_id": "5a489132925141030e00dd4f", "gender": 0, "id": 1949010, "name": "Philip Gordon", "order": 14, "profile_path": "/uZ6HAIvyO3Q4Kht9chFXAqjAMc0.jpg"}], "crew": [{"credit_id": "5a394835c3a3680b8d1fe438", "department": "Production", "gender": 2, "id": 949, "job": "Casting", "name": "Louis DiGiaimo", "profile_path": null}, {"credit_id": "544bddc3c3a36872bc0004a8", "department": "Directing", "gender": 0, "id": 5561, "job": "Director", "name": "Antonio Margheriti", "profile_path": "/mQE61ZpPTZqQFJ4wHy1WA0Iz8Te.jpg"}, {"credit_id": "5a394821c3a36814b90787ea", "department": "Sound", "gender": 2, "id": 14138, "job": "Original Music Composer", "name": "Pino Donaggio", "profile_path": null}, {"credit_id": "544bddce0e0a2608bb0004c0", "department": "Writing", "gender": 0, "id": 31606, "job": "Screenplay", "name": "Filiberto Bandini", "profile_path": null}, {"credit_id": "5a3947ed925141032c2041a1", "department": "Production", "gender": 0, "id": 31606, "job": "Producer", "name": "Filiberto Bandini", "profile_path": null}, {"credit_id": "544bddd40e0a2608d400040a", "department": "Writing", "gender": 0, "id": 31606, "job": "Story", "name": "Filiberto Bandini", "profile_path": null}, {"credit_id": "5a39480a0e0a264cc41f50c7", "department": "Editing", "gender": 0, "id": 31608, "job": "Editor", "name": "Angela Cipriani", "profile_path": null}, {"credit_id": "58bcd28992514160770476d6", "department": "Writing", "gender": 2, "id": 556752, "job": "Screenplay", "name": "Franco Bucceri", "profile_path": null}, {"credit_id": "5a3948800e0a264cc11fa049", "department": "Visual Effects", "gender": 2, "id": 935391, "job": "Special Effects Supervisor", "name": "Edoardo Margheriti", "profile_path": "/ysYttf5NRtucvWJzP8vBDooNJRR.jpg"}, {"credit_id": "5a394870c3a36814ab080c8a", "department": "Directing", "gender": 2, "id": 935391, "job": "First Assistant Director", "name": "Edoardo Margheriti", "profile_path": "/ysYttf5NRtucvWJzP8vBDooNJRR.jpg"}, {"credit_id": "5a3948180e0a265f77000984", "department": "Camera", "gender": 0, "id": 986957, "job": "Director of Photography", "name": "Roberto Benvenuti", "profile_path": null}, {"credit_id": "5a3947fbc3a36814ab080bfc", "department": "Production", "gender": 0, "id": 1084897, "job": "Executive Producer", "name": "Enrico Coletti", "profile_path": null}, {"credit_id": "5a394842c3a36814ae07a916", "department": "Costume & Make-Up", "gender": 1, "id": 1085025, "job": "Costume Design", "name": "Adriana Berselli", "profile_path": null}, {"credit_id": "5a3948c7925141032c204276", "department": "Sound", "gender": 0, "id": 1120228, "job": "Sound Editor", "name": "Cesare D'Amico", "profile_path": null}, {"credit_id": "5a3948520e0a264cbc208973", "department": "Production", "gender": 0, "id": 1547089, "job": "Unit Manager", "name": "Giuseppe Cioccarelli", "profile_path": null}, {"credit_id": "5a3948b9925141032c20426a", "department": "Sound", "gender": 2, "id": 1588262, "job": "Sound Editor", "name": "Nick Alexander", "profile_path": null}, {"credit_id": "5a39489392514154750764cf", "department": "Production", "gender": 0, "id": 1944636, "job": "Production Accountant", "name": "Luciano Tartaglia", "profile_path": null}]}}