{"adult": false, "backdrop_path": "/cUwNMNlnh9g0yHeJbpDeRZi8DpM.jpg", "belongs_to_collection": null, "budget": 0, "genres": [{"id": 18, "name": "Drama"}, {"id": 10402, "name": "Music"}], "homepage": "http://www.weekender-movie.co.uk/", "id": 74608, "imdb_id": "tt1706470", "original_language": "de", "original_title": "Weekender", "overview": "1990. The rave scene has arrived from Ibiza and warehouse parties are exploding across the UK bringing phenomenal wealth to the organisers. In Manchester, best mates Matt and Dylan are in their early 20's and long to be more than just punters. As the government moves to outlaw the scene, it's now or never and they quickly rise through the ranks to join the promoting elite. They are taken on a wild journey from the exclusive VIP rooms of London clubs to the outrageous parties in Ibiza super-villas and the hedonism of Amsterdam. It's everything they dreamed of and more. But as their success continues to grow, they attract a more dark and sinister world. Matt and Dylan start to drift apart as they are forced to question the dreams they set out to achieve and their once solid friendship.", "popularity": 2.607, "poster_path": "/wNiEBKSrlGWmbp2dpKct3P3siaV.jpg", "production_companies": [], "production_countries": [{"iso_3166_1": "GB", "name": "United Kingdom"}], "release_date": "2011-09-01", "revenue": 0, "runtime": 90, "spoken_languages": [{"iso_639_1": "en", "name": "English"}], "status": "Released", "tagline": "", "title": "Weekender", "video": false, "vote_average": 6.0, "vote_count": 13, "keywords": {"keywords": [{"id": 3221, "name": "rave"}]}, "similar": {"page": 1, "results": [{"id": 456646, "video": false, "vote_count": 2, "vote_average": 6.0, "title": "Wallflower", "release_date": "2019-10-04", "original_language": "en", "original_title": "Wallflower", "genre_ids": [18, 53], "backdrop_path": "/nYof5gb8FAwiqkR3UIavvbNecbi.jpg", "adult": false, "overview": "A man planning to commit a mass shooting at a rave is befriended by an eccentric group of partiers and finds himself conflicted about his intentions. Based on the real-life 2006 Capitol Hill Massacre in Seattle.", "poster_path": "/rTXyGqR0rBP13hRk8dneZVNCgd8.jpg", "popularity": 2.271}, {"id": 604, "video": false, "vote_count": 6344, "vote_average": 6.9, "title": "The Matrix Reloaded", "release_date": "2003-05-15", "original_language": "en", "original_title": "The Matrix Reloaded", "genre_ids": [28, 12, 878, 53], "backdrop_path": "/Fp3piEuHXxKnPBO5R0Wj4wjZHg.jpg", "adult": false, "overview": "Six months after the events depicted in The Matrix, Neo has proved to be a good omen for the free humans, as more and more humans are being freed from the matrix and brought to Zion, the one and only stronghold of the Resistance.  Neo himself has discovered his superpowers including super speed, ability to see the codes of the things inside the matrix and a certain degree of pre-cognition. But a nasty piece of news hits the human resistance: 250,000 machine sentinels are digging to Zion and would reach them in 72 hours. As Zion prepares for the ultimate war, Neo, Morpheus and Trinity are advised by the Oracle to find the Keymaker who would help them reach the Source.  Meanwhile Neo's recurrent dreams depicting Trinity's death have got him worried and as if it was not enough, Agent Smith has somehow escaped deletion, has become more powerful than before and has fixed Neo as his next target.", "poster_path": "/ezIurBz2fdUc68d98Fp9dRf5ihv.jpg", "popularity": 26.284}, {"adult": false, "backdrop_path": "/vhYPNslhcyL8PIRgLRWX6odr4RP.jpg", "genre_ids": [18, 10749, 10752], "id": 409, "original_language": "en", "original_title": "The English Patient", "overview": "In the 1930s, Count Alm\u00e1sy is a Hungarian map maker employed by the Royal Geographical Society to chart the vast expanses of the Sahara Desert along with several other prominent explorers. As World War II unfolds, Alm\u00e1sy enters into a world of love, betrayal, and politics.", "poster_path": "/yqaKkARc9Ku8mIENQt8bGVHaowJ.jpg", "release_date": "1996-11-05", "title": "The English Patient", "video": false, "vote_average": 7.2, "vote_count": 1109, "popularity": 17.351}, {"adult": false, "backdrop_path": null, "genre_ids": [35, 18], "id": 376131, "original_language": "en", "original_title": "Coming Down", "overview": "A group of friends come to Gary's flat after a hard night's clubbing, take more drugs and chill out until the next morning.", "poster_path": "/p0SuvdS2xtfVUx2IZspXjU9kAkb.jpg", "release_date": "1997-01-01", "title": "Coming Down", "video": false, "vote_average": 7.0, "vote_count": 1, "popularity": 1.514}, {"id": 352492, "video": false, "vote_count": 414, "vote_average": 5.9, "title": "XOXO", "release_date": "2016-08-26", "original_language": "en", "original_title": "XOXO", "genre_ids": [18, 10402], "backdrop_path": "/dP3bxMPEDc9eNN2nH9P5YyhS27p.jpg", "adult": false, "overview": "XOXO follows six strangers whose lives collide in one frenetic, dream-chasing, hopelessly romantic night.", "poster_path": "/3mCcVbVLz23MhCngELFihX2uSwb.jpg", "popularity": 10.826}, {"id": 11059, "video": false, "vote_count": 198, "vote_average": 2.9, "title": "House of the Dead", "release_date": "2003-04-11", "original_language": "en", "original_title": "House of the Dead", "genre_ids": [28, 27, 53], "backdrop_path": "/p7P8OPFQUSyT0i1jcymTSswumIi.jpg", "adult": false, "overview": "Set on an island off the coast, a techno rave party attracts a diverse group of college coeds and a Coast Guard officer. Soon, they discover that their X-laced escapades are to be interrupted by zombies and monsters that attack them on the ground, from the air, and in the sea, ruled by an evil entity in the House of the Dead... Prequel to the House of the Dead video games.", "poster_path": "/4Z1m6Q5n5GqZB3FcZqdZjPTl0vk.jpg", "popularity": 10.351}, {"id": 14457, "video": false, "vote_count": 97, "vote_average": 5.2, "title": "Reeker", "release_date": "2005-03-13", "original_language": "en", "original_title": "Reeker", "genre_ids": [27, 9648], "backdrop_path": "/ory7O7gBbWo2cHh1yW8hYwKcfDC.jpg", "adult": false, "overview": "Strangers trapped at an eerie travel oasis in the desert must unravel the mystery behind their visions of dying people while they are preyed upon by a decaying creature.", "poster_path": "/qLatxMV1II3D8JvmoyyZb6mnOKH.jpg", "popularity": 9.665}, {"id": 11129, "video": false, "vote_count": 173, "vote_average": 6.8, "title": "Human Traffic", "release_date": "1999-06-04", "original_language": "en", "original_title": "Human Traffic", "genre_ids": [35, 18], "backdrop_path": "/zGjyVVWkqF8ywo49ISp3bBhWmPo.jpg", "adult": false, "overview": "Five twenty-something friends spend a drug-fueled weekend in Cardiff, Wales.", "poster_path": "/64fkxIqfQCwdz3sPGcLeYDbDWR.jpg", "popularity": 8.846}, {"id": 14484, "video": false, "vote_count": 37, "vote_average": 5.2, "title": "Body Shots", "release_date": "1999-10-07", "original_language": "en", "original_title": "Body Shots", "genre_ids": [18, 10749], "backdrop_path": "/m2W4z695Eaht0r6Ci8Z1zT52gq.jpg", "adult": false, "overview": "The Los Angeles club scene is a place of booze-fueled decadence and debauchery. In a night full of possibilities, eight 20-somethings take to the clubs seeking good times, companionship and maybe a little sex. But in the harsh light of the morning after, their worlds are thrown into a spin of confusion when hungover Sara accuses hard-partying Mike of date rape. Loyalties are tested as each among them is forced to take sides.", "poster_path": "/o8nfIm54KWXnGBpLFMXgo5XrZpz.jpg", "popularity": 4.372}, {"id": 24939, "video": false, "vote_count": 42, "vote_average": 3.7, "title": "Return of the Living Dead: Rave to the Grave", "release_date": "2005-10-15", "original_language": "en", "original_title": "Return of the Living Dead: Rave to the Grave", "genre_ids": [35, 27], "backdrop_path": "/gcwe6gvegOAGi5sBFFfDW7Z3WpM.jpg", "adult": false, "overview": "A college student creates and sells a drug called 'Z' on campus which resurrects the living dead, who wreak havoc at a Halloween rave.", "poster_path": "/pKWR5x6JGSRgNGsiJmlGm0WxKXF.jpg", "popularity": 5.878}, {"adult": false, "backdrop_path": "/fvj1YnPl0W1mpDQCZBngZk06yMn.jpg", "genre_ids": [10749, 35, 80, 18], "id": 91902, "original_language": "en", "original_title": "Ecstasy", "overview": "ECSTASY is a dark romantic comedy, based on the controversial book, \u201cEcstasy\u201d, by Irvine Welsh. \u201cEcstasy\u201d, was translated into 20 languages and was a number one bestseller in over 20 countries. Mr. Welsh\u2019s first book, \u201cTrainspotting\u201d, published in 1993, (and voted by Waterstone, Europe\u2019s largest bookstore chain, as one of the Ten Best Books of the Century), sold over 1 million copies in the UK alone, and has its own Cinematic Cinderella success story.", "poster_path": "/xNow6mpgMUtrY2Q0mMKszD4KFLu.jpg", "release_date": "2011-09-10", "title": "Ecstasy", "video": false, "vote_average": 4.9, "vote_count": 20, "popularity": 6.198}, {"id": 493141, "video": false, "vote_count": 9, "vote_average": 6.7, "title": "Beats", "release_date": "2019-05-17", "original_language": "en", "original_title": "Beats", "genre_ids": [18], "backdrop_path": "/z5dvDa9LYH7du3aaaOQvQ4YNUP.jpg", "adult": false, "overview": "1994, a small town in central Scotland. Best mates Johnno and Spanner, despite being total opposites, have a deep bond. Now on the cusp of adulthood, life is destined to take them in different directions \u2013 Johnno\u2019s family are moving him to a new town and a better life, leaving Spanner behind to face a precarious future. But this summer is going to be different for them, and for the country. The explosion of the free party scene and the largest counter-cultural youth movement in recent history is happening across the UK.", "poster_path": "/ePdzn7taDXD1cR8uZjYF8qRT3IR.jpg", "popularity": 3.751}, {"adult": false, "backdrop_path": "/rtwqsm3OVADiVaXeRO1MF5JNUL.jpg", "genre_ids": [53, 18, 80], "id": 24909, "original_language": "en", "original_title": "The Young Americans", "overview": "Experienced New York Police Detective John Harris is sent to London to help a local task force investigate a series of gangster killings organized by a new player in town, an American.With the help of a young teen wronged by gangsters, Harris navigates London's seedy, drug-fueled underworld in order to take down its new criminal empire.", "poster_path": "/9mCCxKnVew8tZJ9uDSc8TjbsOSp.jpg", "release_date": "1993-10-08", "title": "The Young Americans", "video": false, "vote_average": 5.8, "vote_count": 21, "popularity": 4.073}, {"id": 21367, "video": false, "vote_count": 6, "vote_average": 5.5, "title": "A Midsummer Night's Rave", "release_date": "2002-01-01", "original_language": "en", "original_title": "A Midsummer Night's Rave", "genre_ids": [35, 18, 10749], "backdrop_path": null, "adult": false, "overview": "A Midsummer Night's Rave is a modern rave take on Shakespeare's A Midsummer Night's Dream released in 2002", "poster_path": "/bhzZn6IIMh2v69mW3jw40Ygktha.jpg", "popularity": 2.316}, {"adult": false, "backdrop_path": "/pdQ5jXvxx2N1QHn4Fp47VK0M2wy.jpg", "genre_ids": [10402], "id": 122798, "original_language": "en", "original_title": "1989: The Summer of Rave", "overview": "In the final days of the yuppie decade, the summer of \u201989 saw a new type of youth rebellion rip through the cultural landscape, with thousands of young people dancing at illegal Acid House parties in fields and aircraft hangars around the M25. Set against the backdrop of ten years of Thatcherism, it was a benign form of revolution, dubbed the Second Summer of Love \u2013 all the ravers wanted was the freedom to party\u2026 The rave scene, along with the drug Ecstasy, broke down social barriers and even football hooligans were \u2018loved up\u2019, solving a problem the government had never managed to crack. But lurid tabloid headlines and cat-and-mouse games with the police eventually turned the dream sour, as the gangster element moved in at the end of the summer.", "poster_path": "/2Cbf2CsYIl0XtaNTA3XhHTtjwtJ.jpg", "release_date": "1996-01-31", "title": "1989: The Summer of Rave", "video": false, "vote_average": 0.0, "vote_count": 0, "popularity": 0.6}, {"id": 461118, "video": false, "vote_count": 11, "vote_average": 7.5, "title": "What We Started", "release_date": "2018-03-23", "original_language": "en", "original_title": "What We Started", "genre_ids": [99, 10402], "backdrop_path": "/nRrBOsZsBUtUfzko62ppmNLReGV.jpg", "adult": false, "overview": "Bert Marcus and Cyrus Saidi present an informed and absorbing exploration of the history of EDM, boosted by an energetic soundtrack and anchored by the personal stories of legendary DJ Carl Cox and superstar newcomer Martin Garrix. Insights from numerous other DJs and musical talents like Moby, David Guetta, Paul Oakenfold and Usher help tell the often oppositional tales of old school vs. new school and mainstream vs. underground.", "poster_path": "/dw8lZlaur7YEgsqr6c2Zx2DWqOk.jpg", "popularity": 3.771}, {"adult": false, "backdrop_path": "/gw7ZEjkHo9OukoQa44APNPDPJaw.jpg", "genre_ids": [28, 878], "id": 215760, "original_language": "en", "original_title": "New Eden", "overview": "Prisoners are dumped on a sand planet dubbed Earth 21-523 where most are immediately killed by the sand people and the remainder struggle for existence. That is until a new prisoner arrives with ideas of providing irrigation of the desert. But he still must first fight the nomadic sand people. Written by John Sacksteder", "poster_path": "/ju6gadJFQT2JwuzWYwu8B1ya6zM.jpg", "release_date": "1994-11-28", "title": "New Eden", "video": false, "vote_average": 4.4, "vote_count": 9, "popularity": 1.714}, {"adult": false, "backdrop_path": "/f6lq7fvHlFKKwa5FS1SRhsyJ3P7.jpg", "genre_ids": [18, 28, 80], "id": 63006, "original_language": "hi", "original_title": "\u0926\u092e \u092e\u093e\u0930\u094b \u0926\u092e", "overview": "ACP Vishnu is sent on a mission to investigate and clean the underbelly of Goa. During his investigation, he uncovers a huge racket and discovers the involvement of various politicians.", "poster_path": "/uzqKhhSA6ypWwqsnZSwCs7C42sb.jpg", "release_date": "2011-04-22", "title": "Dum Maaro Dum", "video": false, "vote_average": 5.4, "vote_count": 16, "popularity": 1.578}, {"id": 65379, "video": false, "vote_count": 21, "vote_average": 4.0, "title": "Vampires: Out For Blood", "release_date": "2004-07-31", "original_language": "en", "original_title": "Vampires: Out For Blood", "genre_ids": [28, 12, 14, 27, 878, 53], "backdrop_path": "/wuDuLm2hwwswgRH43HuG7x1QFL2.jpg", "adult": false, "overview": "In the dark, throbbing world of underground raves, people are vanishing without a trace and Detective Hank Holten is the only one who knows the terrible truth. Vampires.", "poster_path": "/3qJMC3KhU9ZHn16uUTndkkKW49I.jpg", "popularity": 3.076}, {"adult": false, "backdrop_path": "/eX5tCQQTX5oHTz2W4CyJgO50zFc.jpg", "genre_ids": [27], "id": 80195, "original_language": "en", "original_title": "Underground", "overview": "A group of friends fight for their lives against the lethal and ravenous creatures lurking beneath the Earth's surface. The group finds themselves at the mercy of creatures genetically engineered by the military to be expendable in battle. Though they fought countless battles in Iraq, these friends never knew real fear until they went underground.", "poster_path": "/op0J80b0zpusiXn2aPnVJ5jVLte.jpg", "release_date": "2011-01-01", "title": "Underground", "video": false, "vote_average": 4.3, "vote_count": 13, "popularity": 4.787}], "total_pages": 3, "total_results": 47}, "recommendations": {"page": 1, "results": [{"id": 149445, "video": false, "vote_count": 9, "vote_average": 6.4, "title": "Harry and Walter Go to New York", "release_date": "1976-06-17", "original_language": "en", "original_title": "Harry and Walter Go to New York", "genre_ids": [35, 80], "backdrop_path": "/jhrRI9bALno5OAh8jXD061wY9uA.jpg", "adult": false, "overview": "Two hoplessly out of their class con-men attempt to pull off the largest bank heist of the l9th century\u2014by gaining the enmity of the most famous bank robber in the world and the affection of a crusading newspaperwoman.", "poster_path": "/8MBd6Uy96jbDUkMoVWB0vDOzSGV.jpg", "popularity": 3.535}, {"adult": false, "backdrop_path": "/tnMjBlSgsRzfHM9wfO4vfn0whn8.jpg", "genre_ids": [28, 10752, 37], "id": 112672, "original_language": "en", "original_title": "Ambush at Cimarron Pass", "overview": "A small Army patrol unit and a couple of former Confederates reluctantly throw in their lot together after being attacked by a band of Native Americans.", "poster_path": "/kqLS5Kg21UjG3TOYxLvghlrwpDX.jpg", "release_date": "1958-03-01", "title": "Ambush at Cimarron Pass", "video": false, "vote_average": 4.8, "vote_count": 5, "popularity": 4.587}, {"adult": false, "backdrop_path": "/3v3dgk3P5cbrvkwQFsjiho2NY2N.jpg", "genre_ids": [37], "id": 111942, "original_language": "en", "original_title": "Star in the Dust", "overview": "The sheriff of Gunlock is planning to hang Sam Hall, who shot three farmers found on cattle land, at sundown. At the casino, betting is 8 to 3 he won't make it. The cattlemen are set to rescue Sam; the farmers hope to lynch him before he can be rescued; and Hall schemes for escape with his girl Nellie. But Sheriff Jorden is most concerned with finding out who hired Hall: a leading suspect is the sheriff's future brother-in-law.", "poster_path": "/eIKcNVflGbkcZFYwfEHo5MCudXG.jpg", "release_date": "1956-06-13", "title": "Star in the Dust", "video": false, "vote_average": 3.9, "vote_count": 9, "popularity": 4.376}, {"adult": false, "backdrop_path": "/in7kDnzAFlNx5PbXNOtid5lHgAa.jpg", "genre_ids": [18, 27], "id": 54873, "original_language": "en", "original_title": "Pick-up", "overview": "Sexy hippie chicks Carol and Maureen get more than they bargained for when they hitch a ride with groovy hippie dude Chuck in his nifty mobile bus home. The trio get lost in the Florida Everglades following a fierce rain storm and embark on a startling spiritual journey of self-discovery.", "poster_path": "/hbCAs4UOzwFENZ0tL3R5HVppToe.jpg", "release_date": "1975-09-01", "title": "Pick-up", "video": false, "vote_average": 4.7, "vote_count": 12, "popularity": 4.227}, {"adult": false, "backdrop_path": "/kPhQN685slqtnhnFA7DuGe1ty2f.jpg", "genre_ids": [53, 878], "id": 63333, "original_language": "en", "original_title": "Gog", "overview": "A mechanical brain is programmed to sabotage the government's secret lab while working on the first space station.", "poster_path": "/beMHrXHnf2UC3AF05R1KggJlRGf.jpg", "release_date": "1954-06-04", "title": "Gog", "video": false, "vote_average": 5.5, "vote_count": 15, "popularity": 6.435}, {"adult": false, "backdrop_path": "/jfqcEcAnFnFkykuH0JhAdSXDQPM.jpg", "genre_ids": [18], "id": 81120, "original_language": "en", "original_title": "Love on the Dole", "overview": "Depressing and realistic family drama about the struggles of unemployment and poverty in 1930s Lancashire. The 20-year-old Kerr gives an emotionally charged performance as Hardcastle, one of the cotton workers trying to make life better. Interlaced with humour that brings a ray of sunshine to the pervasive bleakness, this remains a powerful social study of life between the wars, and was a rare problem picture to come out of Britain at the time.", "poster_path": "/nwt5buh544Ko5Thmdq7R47A2hFq.jpg", "release_date": "1941-06-28", "title": "Love on the Dole", "video": false, "vote_average": 6.0, "vote_count": 7, "popularity": 2.722}], "total_pages": 1, "total_results": 6}, "credits": {"cast": [{"cast_id": 7, "character": "Dylan", "credit_id": "52fe48d5c3a368484e10d36d", "gender": 2, "id": 85065, "name": "Jack O'Connell", "order": 0, "profile_path": "/tCzR4clrIkbkijuJBYsNoEuwRDa.jpg"}, {"cast_id": 3, "character": "Matt", "credit_id": "52fe48d5c3a368484e10d359", "gender": 2, "id": 513677, "name": "Henry Lloyd-Hughes", "order": 1, "profile_path": "/m8zSYF7KmQS0x0o7wnWSuWLc0LW.jpg"}, {"cast_id": 4, "character": "Claire", "credit_id": "52fe48d5c3a368484e10d35d", "gender": 1, "id": 15577, "name": "Emily Barclay", "order": 2, "profile_path": "/rXcA5i6pEG1s88pdamhpiAcqpUS.jpg"}, {"cast_id": 8, "character": "John Anderson", "credit_id": "565c2bba9251416920007399", "gender": 0, "id": 123496, "name": "Ben Batt", "order": 3, "profile_path": "/amrTsLHtXjaI1NkQ0ZA9l0ZYPCR.jpg"}, {"cast_id": 9, "character": "Gary Mac", "credit_id": "565c2bca925141691e0070e8", "gender": 2, "id": 69592, "name": "Stephen Wight", "order": 4, "profile_path": "/7aoCPM6Sc903KAuehxVcYAqWmXN.jpg"}, {"cast_id": 1, "character": "Sarah", "credit_id": "52fe48d5c3a368484e10d355", "gender": 1, "id": 118034, "name": "Zawe Ashton", "order": 5, "profile_path": "/zbxVfvhPhCfgpgmWTdtHWurNqYu.jpg"}, {"cast_id": 10, "character": "Captain Acid", "credit_id": "565c2bdc92514169200073aa", "gender": 2, "id": 1473776, "name": "Tom Meeten", "order": 6, "profile_path": "/2mIH4SHZL2uPUgz7LCZ5ErCEI1G.jpg"}, {"cast_id": 11, "character": "Maurice", "credit_id": "565c2be5925141691e0070f0", "gender": 2, "id": 563559, "name": "Sam Hazeldine", "order": 7, "profile_path": "/zyt5yR8hXMA9ZcwtL0yDadwvi4m.jpg"}, {"cast_id": 12, "character": "Craig", "credit_id": "565c2bfbc3a36850660071b6", "gender": 2, "id": 103352, "name": "Richard Riddell", "order": 8, "profile_path": "/2B4ZfIsoUXwiQQWC9LCLC05mbdZ.jpg"}, {"cast_id": 14, "character": "Sergeant Thompson", "credit_id": "565c2c1d9251416925007146", "gender": 2, "id": 58693, "name": "Dean Andrews", "order": 9, "profile_path": "/3Marg4SKrbXViv4IrV2pu2nXeNb.jpg"}, {"cast_id": 15, "character": "Peanut", "credit_id": "565c2c51c3a3685074007694", "gender": 2, "id": 1048868, "name": "Iain McKee", "order": 10, "profile_path": "/qJjOAuzmwI3XCiSLEXd2ONILKDg.jpg"}, {"cast_id": 16, "character": "Chris", "credit_id": "565c2c5cc3a3685081006f88", "gender": 2, "id": 1252526, "name": "Perry Fitzpatrick", "order": 11, "profile_path": null}, {"cast_id": 18, "character": "Briannna Murphy", "credit_id": "5aee3cf4c3a368078000227b", "gender": 0, "id": 2037091, "name": "Chelsea Matthews", "order": 12, "profile_path": null}, {"cast_id": 19, "character": "Tommy", "credit_id": "5aee3d06c3a368077d002c49", "gender": 2, "id": 1793922, "name": "Fergus O'Donnell", "order": 13, "profile_path": "/yFa2dJCIq3csYECKEvDWGYRzdqs.jpg"}, {"cast_id": 20, "character": "Stuart", "credit_id": "5aee3d1e92514119510012d0", "gender": 2, "id": 1169781, "name": "Kyle Summercorn", "order": 14, "profile_path": "/8UPwJW9QJ9k7IEOg2miELtngNa0.jpg"}, {"cast_id": 21, "character": "Bigfoot", "credit_id": "5aee3d320e0a261044001de5", "gender": 0, "id": 138384, "name": "Ali Craig", "order": 15, "profile_path": "/l3KB80wBifullsn8RCce26px7vY.jpg"}, {"cast_id": 22, "character": "Nigel", "credit_id": "5aee3d47c3a368078f001253", "gender": 2, "id": 1097457, "name": "Mark Sheals", "order": 16, "profile_path": "/eBzu6fvj0bmzzvoQyYRrQlkPk2m.jpg"}, {"cast_id": 24, "character": "Wee Man", "credit_id": "5aee3da40e0a261035001e5d", "gender": 0, "id": 1525321, "name": "Reuben Johnson", "order": 17, "profile_path": null}, {"cast_id": 23, "character": "Scally", "credit_id": "5aee3d5e0e0a261041001ec7", "gender": 0, "id": 1238447, "name": "David Judge", "order": 18, "profile_path": null}, {"cast_id": 25, "character": "Raver", "credit_id": "5aee3db7925141196400216a", "gender": 2, "id": 1098564, "name": "Jamie Dorrington", "order": 19, "profile_path": null}, {"cast_id": 13, "character": "Doorman", "credit_id": "565c2c0c925141692e007509", "gender": 0, "id": 1502475, "name": "Craig Izzard", "order": 20, "profile_path": null}], "crew": [{"credit_id": "52fe48d5c3a368484e10d363", "department": "Directing", "gender": 0, "id": 460317, "job": "Director", "name": "Karl Golden", "profile_path": null}, {"credit_id": "58a16a1cc3a3682920001669", "department": "Writing", "gender": 2, "id": 194863, "job": "Screenplay", "name": "Chris Coghill", "profile_path": "/fQYopflsxgBdlBcMsBY09csyy4O.jpg"}]}}