{"adult": false, "backdrop_path": "/gFq3mnbZfsc3eDqKMBL8Db8Yf05.jpg", "belongs_to_collection": null, "budget": 0, "genres": [{"id": 18, "name": "Drama"}, {"id": 35, "name": "Comedy"}], "homepage": "http://www.theliemovie.com/", "id": 74830, "imdb_id": "tt1531930", "original_language": "en", "original_title": "The Lie", "overview": "A man's life is altered unexpectedly after telling a lie to get out of work.", "popularity": 1.475, "poster_path": "/q4nfTGw0LtBXNa2yrFpHPRmmRHR.jpg", "production_companies": [], "production_countries": [], "release_date": "2011-11-18", "revenue": 0, "runtime": 80, "spoken_languages": [{"iso_639_1": "en", "name": "English"}], "status": "Released", "tagline": "He's about to have a moment of truth.", "title": "The Lie", "video": false, "vote_average": 5.5, "vote_count": 6, "keywords": {"keywords": [{"id": 1009, "name": "baby"}]}, "similar": {"page": 1, "results": [{"id": 95610, "video": false, "vote_count": 2004, "vote_average": 6.4, "title": "Bridget Jones's Baby", "release_date": "2016-09-14", "original_language": "en", "original_title": "Bridget Jones's Baby", "genre_ids": [35, 10749], "backdrop_path": "/w9VNDcQet0TUoLRWHg8JbT4QjpW.jpg", "adult": false, "overview": "Breaking up with Mark Darcy leaves Bridget Jones over 40 and single again. Feeling that she has everything under control, Jones decides to focus on her career as a top news producer. Suddenly, her love life comes back from the dead when she meets a dashing and handsome American named Jack. Things couldn't be better, until Bridget discovers that she is pregnant. Now, the befuddled mom-to-be must figure out if the proud papa is Mark or Jack.", "poster_path": "/j8di6S3mUuFe5Yz8etRG8yG5EeE.jpg", "popularity": 18.421}, {"adult": false, "backdrop_path": "/4Hsk6Rh2kpUTmlnsjxMiXWiPBSb.jpg", "genre_ids": [35, 18], "id": 400579, "original_language": "en", "original_title": "Tully", "overview": "Marlo, a mother of three, including a newborn, is gifted a night nanny by her brother. Hesitant at first, she quickly forms a bond with the thoughtful, surprising, and sometimes challenging nanny named Tully.", "poster_path": "/wDI4YXBXolMYi15Qx2kClvdSERM.jpg", "release_date": "2018-05-04", "title": "Tully", "video": false, "vote_average": 6.9, "vote_count": 766, "popularity": 18.984}, {"adult": false, "backdrop_path": "/wKQlgHjJwh5mGBZ37vDsXBx9zbh.jpg", "genre_ids": [35], "id": 11862, "original_language": "en", "original_title": "Father of the Bride Part II", "overview": "Just when George Banks has recovered from his daughter's wedding, he receives the news that she's pregnant ... and that George's wife, Nina, is expecting too. He was planning on selling their home, but that's a plan that -- like George -- will have to change with the arrival of both a grandchild and a kid of his own.", "poster_path": "/e64sOI48hQXyru7naBFyssKFxVd.jpg", "release_date": "1995-12-08", "title": "Father of the Bride Part II", "video": false, "vote_average": 6.2, "vote_count": 368, "popularity": 11.365}, {"id": 378, "video": false, "vote_count": 1075, "vote_average": 7.1, "title": "Raising Arizona", "release_date": "1987-03-01", "original_language": "en", "original_title": "Raising Arizona", "genre_ids": [35, 80], "backdrop_path": "/A9jMrrFyAHhbr0c7OwrFuL5Ay7E.jpg", "adult": false, "overview": "The Coen Brothers tell the story of an absurd yet likable family with an unproductive couple as the focal point. The couple has gotten themselves into some trouble while kidnapping a baby and give Hollywood one of the most memorable chase scenes to date.", "poster_path": "/jsBg2bhvbSncyezo9sMntMzBuy6.jpg", "popularity": 12.302}, {"id": 22345, "video": false, "vote_count": 195, "vote_average": 3.8, "title": "Baby Geniuses", "release_date": "1999-03-12", "original_language": "en", "original_title": "Baby Geniuses", "genre_ids": [35, 878, 10751], "backdrop_path": "/bkiITWsN6r0xI2fXtgAFHQoBZN5.jpg", "adult": false, "overview": "Scientist hold talking, super-intelligent babies captive, but things take a turn for the worse when a mix-up occurs between a baby genius and its twin.", "poster_path": "/jQfj2mST2uRbRbYG8qKcdqb6JCM.jpg", "popularity": 11.416}, {"id": 10564, "video": false, "vote_count": 394, "vote_average": 7.1, "title": "Where the Heart Is", "release_date": "2000-04-27", "original_language": "en", "original_title": "Where the Heart Is", "genre_ids": [35, 18, 10749], "backdrop_path": "/bcIaRLkPsVunpFUdR1FvBcMhKuL.jpg", "adult": false, "overview": "Novalee Nation is a 17-year-old Tennessee transient who has to grow up in a hurry when she's left pregnant and abandoned by her boyfriend on a roadside in Sequoyah, Okla., and takes refuge in the friendly aisles of Wal-Mart. In short order, some eccentric, kindly strangers \"adopt\" Novalee and her infant daughter, helping them buck the odds and build a new life.", "poster_path": "/rNP5NSdXzl6y5CuQ6Sh2JmEnvt5.jpg", "popularity": 9.93}, {"id": 9494, "video": false, "vote_count": 1260, "vote_average": 6.0, "title": "Look Who's Talking", "release_date": "1989-10-12", "original_language": "en", "original_title": "Look Who's Talking", "genre_ids": [35, 10749], "backdrop_path": "/m9TyWTTaaFUNMlNJ3b8Q0gkOiZY.jpg", "adult": false, "overview": "Mollie is a single working mother who's out to find the perfect father for her child. Her baby, Mikey, prefers James, a cab driver turned babysitter who has what it takes to make them both happy. But Mollie won't even consider James. It's going to take all the tricks a baby can think of to bring them together before it's too late", "poster_path": "/zyq8wUKk3FVfgkYnI1IVgmypOtG.jpg", "popularity": 12.265}, {"id": 41210, "video": false, "vote_count": 1113, "vote_average": 6.1, "title": "The Switch", "release_date": "2010-05-11", "original_language": "en", "original_title": "The Switch", "genre_ids": [35, 18, 10749], "backdrop_path": "/4UnmIN6aJhUiCIw8JlQuxUJ9vzR.jpg", "adult": false, "overview": "An unmarried 40-year-old woman turns to a turkey baster in order to become pregnant. Seven years later, she reunites with her best friend, who has been living with a secret: he replaced her preferred sperm sample with his own.", "poster_path": "/cikOGh4sUstWitAS3BTEpXsJ1vr.jpg", "popularity": 11.205}, {"id": 14444, "video": false, "vote_count": 311, "vote_average": 5.9, "title": "The Rugrats Movie", "release_date": "1998-11-20", "original_language": "en", "original_title": "The Rugrats Movie", "genre_ids": [16, 35, 10751], "backdrop_path": "/HHliyi5ZZw60IbXsgcz2FXa1RI.jpg", "adult": false, "overview": "Tommy faces responsibility when Dil, his new baby brother, is born. As with all newborns, the child becomes a bane to Tommy and the rest of his gang. They decide to return Dil to where he came from, the hospital, but they get lost along the way. Can they find their way home and can Tommy and Dil learn to get along?", "poster_path": "/sL7JLbcAbI3aeNxJI7BBhuiaR4G.jpg", "popularity": 12.378}, {"id": 6280, "video": false, "vote_count": 801, "vote_average": 4.9, "title": "Junior", "release_date": "1994-11-22", "original_language": "en", "original_title": "Junior", "genre_ids": [35, 10749, 10751], "backdrop_path": "/flDZQoz3u0DynAPuhu26pg4zqud.jpg", "adult": false, "overview": "As part of a fertility research project, a male scientist agrees to carry a pregnancy in his own body.", "poster_path": "/bwt2hkLGKo5KAVMCw4u1umUPhax.jpg", "popularity": 12.454}, {"adult": false, "backdrop_path": "/AtQGCV8719WlfGYGRapkupivzk.jpg", "genre_ids": [10749, 35], "id": 9356, "original_language": "en", "original_title": "Look Who's Talking Too", "overview": "Mollie and James are together and raising a family, which now consists of an older Mikey and his baby sister, Julie. Tension between the siblings arises, and as well with Mollie and James when Mollie's brother Stuart moves in. Mikey is also learning how to use the toilet for the first time.", "poster_path": "/7HtSFUYBPOUd9ylUXU0LyPsxpRm.jpg", "release_date": "1990-12-14", "title": "Look Who's Talking Too", "video": false, "vote_average": 5.2, "vote_count": 756, "popularity": 11.117}, {"id": 11472, "video": false, "vote_count": 347, "vote_average": 5.6, "title": "Nine Months", "release_date": "1995-07-12", "original_language": "en", "original_title": "Nine Months", "genre_ids": [35, 10749], "backdrop_path": "/q1EJHHcvi9ywsPFjEUY1dYcR8Yx.jpg", "adult": false, "overview": "When he finds out his longtime girlfriend is pregnant, a commitment-phobe realizes he might have to change his lifestyle for better or much, much worse.", "poster_path": "/l6HWwhtqmowlNqWYln011WTTm35.jpg", "popularity": 10.484}, {"adult": false, "backdrop_path": "/fEGYZoKIId7CNtHoORAeVdj54eO.jpg", "genre_ids": [35], "id": 91070, "original_language": "en", "original_title": "L!fe Happens", "overview": "A comedy centered on two best friends, Kim and Deena, who fight to maintain normalcy in their lives after Kim gets pregnant and has a baby.", "poster_path": "/xFq3IQEWCBBoPP7pCb4TarAi8tt.jpg", "release_date": "2011-06-18", "title": "L!fe Happens", "video": false, "vote_average": 5.4, "vote_count": 96, "popularity": 9.024}, {"adult": false, "backdrop_path": "/v2mKSoLewP3IrNcUZmdBvUnoSQQ.jpg", "genre_ids": [35, 10751], "id": 31117, "original_language": "en", "original_title": "Superbabies: Baby Geniuses 2", "overview": "Following on from the plot of the last movie, babies can communicate with each other using 'baby talk', and have an innate knowledge of the secrets of the universe. The baby geniuses become involved in a scheme by media mogul Bill Biscane (Jon Voight). Helping the geniuses is a legendary superbaby named Kahuna. He joins up with several other babies in an attempt to stop Biscane, who intends to use a state-of-the-art satellite system to control the world's population.", "poster_path": "/6hgyJmeFmoX3cSGbbPaUA7HnpCW.jpg", "release_date": "2004-08-27", "title": "Superbabies: Baby Geniuses 2", "video": false, "vote_average": 2.6, "vote_count": 77, "popularity": 9.936}, {"id": 11427, "video": false, "vote_count": 245, "vote_average": 6.5, "title": "Dead End", "release_date": "2003-01-30", "original_language": "en", "original_title": "Dead End", "genre_ids": [27, 9648, 53], "backdrop_path": "/mStA8L0tXViSfd89KeXatNIA5u8.jpg", "adult": false, "overview": "Christmas Eve. On his way to his in-laws with his family, Frank Harrington decides to try a shortcut, for the first time in 20 years. It turns out to be the biggest mistake of his life.", "poster_path": "/51JnZig26aAUZ7zA4l5MkFCQ9th.jpg", "popularity": 9.211}, {"adult": false, "backdrop_path": "/jnrvQO04kdoxYzxzIc7VM1meads.jpg", "genre_ids": [28, 12, 878, 53], "id": 9381, "original_language": "en", "original_title": "Babylon A.D.", "overview": "A veteran-turned-mercenary  is hired to take a young woman with a secret from post-apocalyptic Eastern Europe to New York City.", "poster_path": "/eeoB2u438Z8b14HJn8TVe8X9F1U.jpg", "release_date": "2008-08-20", "title": "Babylon A.D.", "video": false, "vote_average": 5.5, "vote_count": 1202, "popularity": 17.027}, {"adult": false, "backdrop_path": "/7jQ5uwFcMuRL7pmCVDjq7KpBwbU.jpg", "genre_ids": [27, 53], "id": 10160, "original_language": "en", "original_title": "A Nightmare on Elm Street: The Dream Child", "overview": "Alice, having survived the previous installment of the Nightmare series, finds the deadly dreams of Freddy Krueger starting once again. This time, the taunting murderer is striking through the sleeping mind of Alice's unborn child. His intention is to be \"born again\" into the real world. The only one who can stop Freddy is his dead mother, but can Alice free her spirit in time to save her own son?", "poster_path": "/vnorsG2pKAVqIMYsDJbKoOr4CsX.jpg", "release_date": "1989-08-11", "title": "A Nightmare on Elm Street: The Dream Child", "video": false, "vote_average": 5.4, "vote_count": 610, "popularity": 13.693}, {"adult": false, "backdrop_path": "/uPKBFk9Z1AVHJ4xcNgKpeva5i7L.jpg", "genre_ids": [35, 18], "id": 172785, "original_language": "en", "original_title": "Gus", "overview": "Lizzie's best friend, Andie, becomes pregnant and offers to give the baby to her. Lizzie's husband, Peter, reluctantly goes along with being the child's father, and Andie moves into the guest room for the remainder of the pregnancy.", "poster_path": "/yZ5i77ZUTjXvbeUJRtaghMu7UEc.jpg", "release_date": "2013-12-06", "title": "Expecting", "video": false, "vote_average": 5.2, "vote_count": 25, "popularity": 5.554}, {"id": 52794, "video": false, "vote_count": 24, "vote_average": 7.0, "title": "Baxter", "release_date": "1989-01-18", "original_language": "fr", "original_title": "Baxter", "genre_ids": [35, 18, 27], "backdrop_path": "/5l6WTykCiip8Md72N3CZtcHJ5Va.jpg", "adult": false, "overview": "A white Bull Terrier named Baxter is given to an elderly woman by her daughter. As time passes, the dog develops aggressive and murderous behavior in order to be adopted by another family.", "poster_path": "/gbSiQmWfBSirJvnXmqaI1zn4n6L.jpg", "popularity": 3.626}, {"adult": false, "backdrop_path": "/3WgaU6OjTlvjOhbq5C0UmKYQGoW.jpg", "genre_ids": [18, 10749], "id": 26338, "original_language": "fr", "original_title": "Romance", "overview": "Although deeply in love with her boyfriend - and indeed sleeping in the same bed with him - a schoolteacher cannot handle the almost complete lack of intimacy he will allow. Increasingly frustrated, she gradually finds her sexual appetites leading her into ever more risky situations, including a developing one with the headmaster.", "poster_path": "/lcDSXXnZok1qyv4TQ14iZ8g8OHf.jpg", "release_date": "1999-04-13", "title": "Romance", "video": false, "vote_average": 5.3, "vote_count": 101, "popularity": 15.928}], "total_pages": 33, "total_results": 659}, "recommendations": {"page": 1, "results": [{"id": 416304, "video": false, "vote_count": 7, "vote_average": 3.2, "title": "#FollowFriday", "release_date": "2016-07-01", "original_language": "en", "original_title": "#FollowFriday", "genre_ids": [53, 10770], "backdrop_path": "/ymVUtgvE8qpS6xD7OnWoJbsdciO.jpg", "adult": false, "overview": "Students and Faculty on a college campus are targeted by a killer using social media.", "poster_path": "/xSyTx8LydfywyEk8CQTD12FWs4E.jpg", "popularity": 3.38}], "total_pages": 1, "total_results": 1}, "credits": {"cast": [{"cast_id": 2, "character": "Seven", "credit_id": "52fe48e0c3a368484e10f8db", "gender": 1, "id": 61178, "name": "Alia Shawkat", "order": 0, "profile_path": "/3A9fLNoFLkbMlSpzoOCWlVIdKKw.jpg"}, {"cast_id": 3, "character": "Brianna", "credit_id": "52fe48e0c3a368484e10f8df", "gender": 1, "id": 17442, "name": "Kelli Garner", "order": 1, "profile_path": "/3AQGeuapFf2FbMBpw2pzPw9I5KC.jpg"}, {"cast_id": 4, "character": "Tank", "credit_id": "52fe48e0c3a368484e10f8e3", "gender": 2, "id": 4451, "name": "Mark Webber", "order": 2, "profile_path": "/s7QzjQ8qiaN7P2MSMa5NWkmefbd.jpg"}, {"cast_id": 5, "character": "Dr. Bentel", "credit_id": "52fe48e0c3a368484e10f8e7", "gender": 1, "id": 209, "name": "Jane Adams", "order": 3, "profile_path": "/HbQfL01xmV1psnh0WvldIBzDg3.jpg"}, {"cast_id": 6, "character": "Weasel", "credit_id": "59a02f3fc3a368481e012b7c", "gender": 2, "id": 5296, "name": "James Ransone", "order": 4, "profile_path": "/9j39UVIex7nIAOMaNqo0w9yJpSG.jpg"}, {"cast_id": 7, "character": "Lonnie", "credit_id": "59a02f4d925141779a012cfc", "gender": 2, "id": 26852, "name": "Joshua Leonard", "order": 5, "profile_path": "/5ixyAcgWAHH5yQvgbD8L1VKAI68.jpg"}, {"cast_id": 8, "character": "Clover", "credit_id": "5b1375130e0a263dbe00ccf8", "gender": 1, "id": 76999, "name": "Jess Weixler", "order": 6, "profile_path": "/tH6qsLYixRW4rQESu94cb2E1g0P.jpg"}, {"cast_id": 9, "character": "Radko", "credit_id": "5b1375310e0a263dca00c7a7", "gender": 2, "id": 76525, "name": "Gerry Bednob", "order": 7, "profile_path": "/dEEJY1UwIBxRzIT1kFOsA71uXCZ.jpg"}], "crew": [{"credit_id": "52fe48e0c3a368484e10f8d7", "department": "Directing", "gender": 2, "id": 26852, "job": "Director", "name": "Joshua Leonard", "profile_path": "/5ixyAcgWAHH5yQvgbD8L1VKAI68.jpg"}]}}