{"adult": false, "backdrop_path": "/oMfndnPfagXwT2tyLAkV8ACw5Ra.jpg", "belongs_to_collection": null, "budget": 0, "genres": [{"id": 99, "name": "Documentary"}], "homepage": null, "id": 74955, "imdb_id": "tt0461958", "original_language": "en", "original_title": "Gargandi snilld", "overview": "A documentary about the bustling Icelandic musical scene. This documentary covers some of Iceland's most talented and well-known musicians.", "popularity": 3.839, "poster_path": "/eciHZTnYfmUvLCMs6UqtD2RK5j6.jpg", "production_companies": [{"id": 21668, "logo_path": null, "name": "Ergis Filmproduction", "origin_country": ""}, {"id": 14938, "logo_path": null, "name": "Zik Zak Filmworks", "origin_country": "IS"}], "production_countries": [{"iso_3166_1": "IS", "name": "Iceland"}, {"iso_3166_1": "DK", "name": "Denmark"}, {"iso_3166_1": "NL", "name": "Netherlands"}], "release_date": "2005-04-30", "revenue": 0, "runtime": 84, "spoken_languages": [{"iso_639_1": "en", "name": "English"}, {"iso_639_1": "is", "name": "\u00cdslenska"}], "status": "Released", "tagline": "", "title": "Screaming Masterpiece", "video": false, "vote_average": 7.3, "vote_count": 4, "keywords": {"keywords": [{"id": 4344, "name": "musical"}]}, "similar": {"page": 1, "results": [{"id": 224141, "video": false, "vote_count": 3144, "vote_average": 5.7, "title": "Into the Woods", "release_date": "2014-12-24", "original_language": "en", "original_title": "Into the Woods", "genre_ids": [35, 14], "backdrop_path": "/lzJzB0QfkjpGCm9qUC4XpEIB6pm.jpg", "adult": false, "overview": "In a woods filled with magic and fairy tale characters, a baker and his wife set out to end the curse put on them by their neighbor, a spiteful witch.", "poster_path": "/5h91odPFNlBuJbRBj5N4MEBfXDE.jpg", "popularity": 29.368}, {"id": 872, "video": false, "vote_count": 1617, "vote_average": 8.2, "title": "Singin' in the Rain", "release_date": "1952-04-10", "original_language": "en", "original_title": "Singin' in the Rain", "genre_ids": [35, 10402, 10749], "backdrop_path": "/amW1YWQvcP8slDyDp1R652aVQZ7.jpg", "adult": false, "overview": "In 1927 Hollywood, a silent film production company and cast make a difficult transition to sound.", "poster_path": "/s39odBPtyutGBnEfBIpdm0fpRwv.jpg", "popularity": 17.295}, {"id": 504608, "video": false, "vote_count": 1666, "vote_average": 7.4, "title": "Rocketman", "release_date": "2019-05-22", "original_language": "en", "original_title": "Rocketman", "genre_ids": [18, 10402], "backdrop_path": "/sZZJ42GrWKxSOfcrpI2TSFQa0AQ.jpg", "adult": false, "overview": "The story of Elton John's life, from his years as a prodigy at the Royal Academy of Music through his influential and enduring musical partnership with Bernie Taupin.", "poster_path": "/f4FF18ia7yTvHf2izNrHqBmgH8U.jpg", "popularity": 27.709}, {"id": 18126, "video": false, "vote_count": 1217, "vote_average": 6.4, "title": "Hannah Montana: The Movie", "release_date": "2009-04-10", "original_language": "en", "original_title": "Hannah Montana: The Movie", "genre_ids": [35, 18, 10402, 10749, 10751], "backdrop_path": "/ezx3NkXNqf2KnJCP6Nfj1bfCFut.jpg", "adult": false, "overview": "As Hannah Montana's popularity begins to take over her life, Miley Stewart, on the urging from her father takes a trip to her hometown of Crowley Corners, Tennessee to get some perspective on what matters in life the most.", "poster_path": "/8pwbnmvshHj2yYPYlyJ8K8Yzecy.jpg", "popularity": 12.479}, {"id": 2005, "video": false, "vote_count": 1806, "vote_average": 6.7, "title": "Sister Act", "release_date": "1992-05-28", "original_language": "en", "original_title": "Sister Act", "genre_ids": [35, 10402], "backdrop_path": "/oaLqlJxt8TJSjsdfMpSkLexZ4l5.jpg", "adult": false, "overview": "A Reno singer witnesses a mob murder and the cops stash her in a nunnery to protect her from the mob's hitmen. The mother superior does not trust her, and takes steps to limit her influence on the other nuns. Eventually the singer rescues the failing choir and begins helping with community projects, which gets her an interview on TV\u2014and identification by the mob.", "poster_path": "/7wQxLtybiUbtC6tsJh9htFEmqq3.jpg", "popularity": 16.674}, {"id": 13004, "video": false, "vote_count": 436, "vote_average": 7.1, "title": "Barbie and the Diamond Castle", "release_date": "2008-01-01", "original_language": "en", "original_title": "Barbie and the Diamond Castle", "genre_ids": [16, 10751], "backdrop_path": "/yjImlENdW0SAT5yUvxCbbFdY0Sn.jpg", "adult": false, "overview": "Liana and Alexa (Barbie and Teresa) are best friends who share everything, including their love of singing. One day while walking through the forest home from the village, the girls meet an old beggar who gives them a magical mirror. As they clean the mirror and sing, a musical apprentice muse named Melody appears in the mirror's surface, and tells the girls about the secret of the Diamond Castle.", "poster_path": "/dvjFM3GgYm3gDZ6Ulw0JurDYs4r.jpg", "popularity": 33.508}, {"id": 194662, "video": false, "vote_count": 8621, "vote_average": 7.5, "title": "Birdman", "release_date": "2014-08-27", "original_language": "en", "original_title": "Birdman", "genre_ids": [35, 18], "backdrop_path": "/AsJVim0Hk3KbQPbfjyijfjqmaoZ.jpg", "adult": false, "overview": "A fading actor best known for his portrayal of a popular superhero attempts to mount a comeback by appearing in a Broadway play. As opening night approaches, his attempts to become more altruistic, rebuild his career, and reconnect with friends and family prove more difficult than expected.", "poster_path": "/rSZs93P0LLxqlVEbI001UKoeCQC.jpg", "popularity": 40.415}, {"id": 10545, "video": false, "vote_count": 3018, "vote_average": 7.0, "title": "The Hunchback of Notre Dame", "release_date": "1996-06-21", "original_language": "en", "original_title": "The Hunchback of Notre Dame", "genre_ids": [16, 18, 10751], "backdrop_path": "/oslaee3VX9kJAjVezbjZKlEJDzn.jpg", "adult": false, "overview": "When Quasimodo defies the evil Frollo and ventures out to the Festival of Fools, the cruel crowd jeers him. Rescued by fellow outcast the gypsy Esmeralda, Quasi soon finds himself battling to save the people and the city he loves.", "poster_path": "/r7V92gY3AMO6li17MmGTixAnFcv.jpg", "popularity": 28.041}, {"adult": false, "backdrop_path": "/ppDnBvf0f7vCZHRLtDjazpYHdTF.jpg", "genre_ids": [35, 10402, 10749], "id": 13368, "original_language": "en", "original_title": "White Christmas", "overview": "Two talented song-and-dance men team up after the war to become one of the hottest acts in show business. In time they befriend and become romantically involved with the beautiful Haynes sisters who comprise a sister act.", "poster_path": "/A5kBQsHKbIptxJyELEpHQJROCRj.jpg", "release_date": "1954-10-14", "title": "White Christmas", "video": false, "vote_average": 7.4, "vote_count": 250, "popularity": 10.494}, {"id": 252, "video": false, "vote_count": 1838, "vote_average": 7.5, "title": "Willy Wonka & the Chocolate Factory", "release_date": "1971-06-29", "original_language": "en", "original_title": "Willy Wonka & the Chocolate Factory", "genre_ids": [35, 14, 10751], "backdrop_path": "/nyqiCFF3pjcdwG2KmOwvM6CCLKA.jpg", "adult": false, "overview": "Eccentric candy man Willy Wonka prompts a worldwide frenzy when he announces that golden tickets hidden inside five of his delicious candy bars will admit their lucky holders into his top-secret confectionary. But does Wonka have an agenda hidden amid a world of Oompa Loompas and chocolate rivers?", "poster_path": "/b94qXd1FcIwgzv0NYMUe2bjrzJR.jpg", "popularity": 19.101}, {"id": 407655, "video": false, "vote_count": 421, "vote_average": 6.8, "title": "A Cinderella Story: If the Shoe Fits", "release_date": "2016-08-02", "original_language": "en", "original_title": "A Cinderella Story: If the Shoe Fits", "genre_ids": [35, 14, 10402, 10751], "backdrop_path": "/svYzELCLW0NGVEuvNraA4W7Hmm9.jpg", "adult": false, "overview": "A contemporary musical version of the classic Cinderella story in which the servant step daughter hope to compete in a musical competition for a famous pop star.", "poster_path": "/prZSNnK5dkYcflsbdOsVVvqasZ5.jpg", "popularity": 19.825}, {"adult": false, "backdrop_path": "/3mhNnNmfCGrjyVEZhjWRVcjMOSi.jpg", "genre_ids": [14, 16, 10749, 10751], "id": 54113, "original_language": "en", "original_title": "The Swan Princess: Escape from Castle Mountain", "overview": "The first wedding anniversary of Princess Odette and Prince Derek is distracted by field fires set by Knuckles. His master Clavius, wants to conquer the world, and he needs to capture a giant orb to do that. Clavius kidnaps Queen Uberta and Odette with Derek have to save her.", "poster_path": "/oTEgvTpAIugS7OH6oIoVZkmV3C3.jpg", "release_date": "1997-01-01", "title": "The Swan Princess: Escape from Castle Mountain", "video": false, "vote_average": 6.0, "vote_count": 198, "popularity": 11.608}, {"id": 11887, "video": false, "vote_count": 2347, "vote_average": 6.5, "title": "High School Musical 3: Senior Year", "release_date": "2008-10-11", "original_language": "en", "original_title": "High School Musical 3: Senior Year", "genre_ids": [35, 18, 10402, 10749, 10751], "backdrop_path": "/daSGxGZL2nNjGZKkAF5ain3lmOx.jpg", "adult": false, "overview": "It's almost graduation day for high school seniors Troy, Gabriella, Sharpay, Chad, Ryan and Taylor \u2015 and the thought of heading off in separate directions after leaving East High has these Wildcats thinking they need to do something they'll remember forever. Together with the rest of the Wildcats, they stage a spring musical reflecting their hopes and fears about the future and their unforgettable experiences growing up together. But with graduation approaching and college plans in question, what will become of the dreams, romances, and friendships of East High's senior Wildcats?", "poster_path": "/ewZpH2QIfPQ0VIn9lPf7MHbLbl4.jpg", "popularity": 14.748}, {"id": 332562, "video": false, "vote_count": 7182, "vote_average": 7.5, "title": "A Star Is Born", "release_date": "2018-10-03", "original_language": "en", "original_title": "A Star Is Born", "genre_ids": [18, 10402, 10749], "backdrop_path": "/mnDvPokXpvsdPcWSjNRPhiiLOKu.jpg", "adult": false, "overview": "Seasoned musician Jackson Maine discovers \u2014 and falls in love with \u2014 struggling artist Ally. She has just about given up on her dream to make it big as a singer \u2014 until Jack coaxes her into the spotlight. But even as Ally's career takes off, the personal side of their relationship is breaking down, as Jack fights an ongoing battle with his own internal demons.", "poster_path": "/wrFpXMNBRj2PBiN4Z5kix51XaIZ.jpg", "popularity": 37.528}, {"adult": false, "backdrop_path": "/5x0VEeFCnWzRBwU23KycKQRqEhN.jpg", "genre_ids": [10402, 35], "id": 15157, "original_language": "en", "original_title": "Another Cinderella Story", "overview": "A guy who danced with what could be the girl of his dreams at a costume ball only has one hint at her identity: the Zune she left behind as she rushed home in order to make her curfew. And with a once-in-a-lifetime opportunity in front of him, he sets out to find his masked beauty.", "poster_path": "/fLdCKCfHT8A6bnWybBsQFjC4fCo.jpg", "release_date": "2008-09-16", "title": "Another Cinderella Story", "video": false, "vote_average": 6.6, "vote_count": 1120, "popularity": 16.339}, {"id": 313369, "video": false, "vote_count": 11063, "vote_average": 7.9, "title": "La La Land", "release_date": "2016-11-29", "original_language": "en", "original_title": "La La Land", "genre_ids": [35, 18, 10402, 10749], "backdrop_path": "/fp6X6yhgcxzxCpmM0EVC6V9B8XB.jpg", "adult": false, "overview": "Mia, an aspiring actress, serves lattes to movie stars in between auditions and Sebastian, a jazz musician, scrapes by playing cocktail party gigs in dingy bars, but as success mounts they are faced with decisions that begin to fray the fragile fabric of their love affair, and the dreams they worked so hard to maintain in each other threaten to rip them apart.", "poster_path": "/ylXCdC106IKiarftHkcacasaAcb.jpg", "popularity": 39.654}, {"id": 606117, "video": false, "vote_count": 257, "vote_average": 6.8, "title": "A Cinderella Story: Christmas Wish", "release_date": "2019-10-15", "original_language": "en", "original_title": "A Cinderella Story: Christmas Wish", "genre_ids": [35, 14, 10402, 10749], "backdrop_path": "/h3kzgUaUOamInX7nsALsFmlw4qX.jpg", "adult": false, "overview": "Kat is an aspiring singer-songwriter who dreams of making it big. However, her dreams are stalled by her reality: a conniving and cruel stepfamily  and a demoralizing job working as a singing elf at billionaire Terrence Wintergarden\u2019s Santa Land.", "poster_path": "/ozBX0u5caaJFli9AssqJmARb5R.jpg", "popularity": 22.941}, {"id": 15969, "video": false, "vote_count": 1085, "vote_average": 5.8, "title": "The Return of Jafar", "release_date": "1994-12-15", "original_language": "en", "original_title": "The Return of Jafar", "genre_ids": [12, 16, 10749, 10751], "backdrop_path": "/sLF3zgqfFC6Vev84h9aK4U88M2C.jpg", "adult": false, "overview": "The evil Jafar escapes from the magic lamp as an all-powerful genie, ready to plot his revenge against Aladdin. From battling elusive villains atop winged horses, to dodging flames inside an exploding lava pit, it's up to Aladdin - with Princess Jasmine and the outrageously funny Genie by his side - to save the kingdom once and for all.", "poster_path": "/sC4wDVBMPMxmn5JJqPalMOhQ35U.jpg", "popularity": 22.698}, {"adult": false, "backdrop_path": "/6bnI08rrGXRkngRqJWCMXDZuJ1j.jpg", "genre_ids": [35, 10402], "id": 254470, "original_language": "en", "original_title": "Pitch Perfect 2", "overview": "The Bellas are back, and they are better than ever. After being humiliated in front of none other than the President of the United States of America, the Bellas are taken out of the Aca-Circuit. In order to clear their name, and regain their status, the Bellas take on a seemingly impossible task: winning an international competition no American team has ever won. In order to accomplish this monumental task, they need to strengthen the bonds of friendship and sisterhood and blow away the competition with their amazing aca-magic! With all new friends and old rivals tagging along for the trip, the Bellas can hopefully accomplish their dreams.", "poster_path": "/qSjruLiFB4uqRtz2xheQPxG8uaB.jpg", "release_date": "2015-05-07", "title": "Pitch Perfect 2", "video": false, "vote_average": 6.8, "vote_count": 3901, "popularity": 29.697}, {"adult": false, "backdrop_path": "/9l5Nzo1qbEslfCu2NYWimpZ1Vkc.jpg", "genre_ids": [35, 10751, 14, 10749], "id": 4523, "original_language": "en", "original_title": "Enchanted", "overview": "The beautiful princess Giselle is banished by an evil queen from her magical, musical animated land and finds herself in the gritty reality of the streets of modern-day Manhattan. Shocked by this strange new environment that doesn't operate on a \"happily ever after\" basis, Giselle is now adrift in a chaotic world badly in need of enchantment. But when Giselle begins to fall in love with a charmingly flawed divorce lawyer who has come to her aid - even though she is already promised to a perfect fairy tale prince back home - she has to wonder: Can a storybook view of romance survive in the real world?", "poster_path": "/65EfHNQ6NCeAoRPNLRhTyLqNZmU.jpg", "release_date": "2007-11-20", "title": "Enchanted", "video": false, "vote_average": 6.7, "vote_count": 3505, "popularity": 22.541}], "total_pages": 159, "total_results": 3180}, "recommendations": {"page": 1, "results": [], "total_pages": 1, "total_results": 0}, "credits": {"cast": [{"cast_id": 0, "character": "himself", "credit_id": "53479e4c0e0a265c7d000d36", "gender": 2, "id": 43528, "name": "Hilmar \u00d6rn Hilmarsson", "order": 1, "profile_path": null}, {"cast_id": 1, "character": "herself", "credit_id": "53479e560e0a265c6c000d4d", "gender": 1, "id": 47, "name": "Bj\u00f6rk", "order": 2, "profile_path": "/oV39BcGG2Cm7bozEgAHtalx9GfM.jpg"}, {"cast_id": 2, "character": "himself", "credit_id": "53479e600e0a265c69000d27", "gender": 0, "id": 64188, "name": "Damon Albarn", "order": 3, "profile_path": "/4Fnc0HICYe57bDEv5P2oOK0kUzl.jpg"}, {"cast_id": 3, "character": "himself", "credit_id": "53479e6b0e0a265c72000d20", "gender": 0, "id": 1308848, "name": "Bar\u00f0i J\u00f3hannsson", "order": 4, "profile_path": null}, {"cast_id": 4, "character": "himself", "credit_id": "53479e740e0a265c6c000d54", "gender": 0, "id": 1308849, "name": "Walter Durkacz", "order": 5, "profile_path": null}, {"cast_id": 5, "character": "himself", "credit_id": "53479e800e0a265c69000d2c", "gender": 0, "id": 1308850, "name": "\u00dalfur Eldj\u00e1rn", "order": 6, "profile_path": null}, {"cast_id": 6, "character": "himself", "credit_id": "53479e8b0e0a265c6f000d81", "gender": 0, "id": 1308851, "name": "H\u00f6r\u00f0ur Bragason", "order": 7, "profile_path": null}, {"cast_id": 7, "character": "himself", "credit_id": "53479e940e0a265c76000dc9", "gender": 0, "id": 1308852, "name": "Arnar Geir \u00d3marsson", "order": 8, "profile_path": null}, {"cast_id": 8, "character": "himself", "credit_id": "53479e9f0e0a265c6c000d5e", "gender": 0, "id": 1308853, "name": "Sighvatur \u00d3mar Kristinsson", "order": 9, "profile_path": null}, {"cast_id": 9, "character": "herself", "credit_id": "53479ea80e0a265c7d000d3e", "gender": 0, "id": 1308855, "name": "Eiv\u00f6r P\u00e1lsd\u00f3ttir", "order": 10, "profile_path": null}, {"cast_id": 10, "character": "himself", "credit_id": "53479eb80e0a265c66000de4", "gender": 2, "id": 117992, "name": "J\u00f3hann J\u00f3hannsson", "order": 11, "profile_path": "/eUYIMfC2UBd7FK8SHGhTqI4tXGJ.jpg"}, {"cast_id": 11, "character": "himself", "credit_id": "53479ec50e0a265c7a000d83", "gender": 2, "id": 18823, "name": "Dagur K\u00e1ri", "order": 12, "profile_path": "/rveB0C6qA4ZjVyuhTSqoyxp3Y2j.jpg"}, {"cast_id": 12, "character": "himself", "credit_id": "53479ed10e0a265c6f000d89", "gender": 0, "id": 1308860, "name": "\u00d6rvar \u00de\u00f3reyjarson Sm\u00e1rason", "order": 13, "profile_path": null}, {"cast_id": 13, "character": "herself", "credit_id": "53479edc0e0a265c7a000d87", "gender": 0, "id": 1308861, "name": "Krist\u00edn Anna Valt\u00fdsd\u00f3ttir", "order": 14, "profile_path": null}, {"cast_id": 14, "character": "himself", "credit_id": "53479ee50e0a265c7a000d8d", "gender": 0, "id": 1308862, "name": "Gunnar \u00d6rn Tynes", "order": 15, "profile_path": null}, {"cast_id": 19, "character": "himself", "credit_id": "53479fbc0e0a265c69000d53", "gender": 0, "id": 123286, "name": "Jon Thor Birgisson", "order": 16, "profile_path": "/suvH21wI85Ape4tVTRXyHNfpfqD.jpg"}, {"cast_id": 20, "character": "himself", "credit_id": "53479fcd0e0a265c7a000da5", "gender": 0, "id": 123294, "name": "Georg Holm", "order": 17, "profile_path": "/aXUh3E2RsBgtKTRQs1AvwxcUmqn.jpg"}, {"cast_id": 21, "character": "himself", "credit_id": "53479fda0e0a265c6f000d9f", "gender": 0, "id": 1308866, "name": "Orri P\u00e1ll D\u00fdrason", "order": 18, "profile_path": null}, {"cast_id": 22, "character": "himself", "credit_id": "53479ff30e0a265c6c000d7f", "gender": 2, "id": 123288, "name": "Kjartan Sveinsson", "order": 19, "profile_path": "/vf6lyp30Cslistpjni09xMqIU0l.jpg"}], "crew": [{"credit_id": "53479f770e0a265c72000d55", "department": "Production", "gender": 2, "id": 6590, "job": "Producer", "name": "Sigurj\u00f3n Sighvatsson", "profile_path": "/3flA6EUiOxnwnNnao61b0pRSXFu.jpg"}, {"credit_id": "5a8ab701c3a36862e1076890", "department": "Camera", "gender": 2, "id": 61440, "job": "Director of Photography", "name": "Lance Bangs", "profile_path": "/smkFj23FrTWrEb93m0IhoCTrfeU.jpg"}, {"credit_id": "5a8ab6f79251410a89074b7d", "department": "Camera", "gender": 2, "id": 79815, "job": "Director of Photography", "name": "Bergsteinn Bj\u00f6rg\u00falfsson", "profile_path": "/uQQlT9nxSSKRHkvWjA3GXAfOwik.jpg"}, {"credit_id": "53479ef60e0a265c72000d3d", "department": "Directing", "gender": 0, "id": 1308863, "job": "Director", "name": "Ari Alexander Ergis Magn\u00fasson", "profile_path": null}, {"credit_id": "53479f890e0a265c7d000d4f", "department": "Production", "gender": 0, "id": 1308863, "job": "Executive Producer", "name": "Ari Alexander Ergis Magn\u00fasson", "profile_path": null}, {"credit_id": "5bb882ae9251410a28008468", "department": "Writing", "gender": 0, "id": 1308863, "job": "Writer", "name": "Ari Alexander Ergis Magn\u00fasson", "profile_path": null}, {"credit_id": "57786473c3a3685f620003b8", "department": "Directing", "gender": 0, "id": 1644556, "job": "Assistant Director", "name": "\u00de\u00f3r Eldon", "profile_path": null}, {"credit_id": "57786495c3a3685e570004a1", "department": "Editing", "gender": 0, "id": 1644557, "job": "Editor", "name": "J\u00f3n Yngvi Gylfason", "profile_path": null}]}}