{"adult": false, "backdrop_path": "/lbklFZMAqqdgsm9zj8loWFALAu1.jpg", "belongs_to_collection": null, "budget": 6000000, "genres": [{"id": 18, "name": "Drama"}, {"id": 10749, "name": "Romance"}], "homepage": null, "id": 7547, "imdb_id": "tt0457308", "original_language": "en", "original_title": "Come Early Morning", "overview": "A thirty-something southern woman searches for love, despite the burdens she carries with her.", "popularity": 4.882, "poster_path": "/3YD7TQF4eLpOYqIYKBGcME7HDsS.jpg", "production_companies": [{"id": 21856, "logo_path": null, "name": "Holly Wiersma Productions", "origin_country": ""}, {"id": 2266, "logo_path": "/owzVs2mguyyJ3vIn7EbgowpUPnk.png", "name": "Bold Films", "origin_country": "US"}, {"id": 1838, "logo_path": null, "name": "Firm Films", "origin_country": ""}], "production_countries": [{"iso_3166_1": "US", "name": "United States of America"}], "release_date": "2006-01-10", "revenue": 0, "runtime": 97, "spoken_languages": [{"iso_639_1": "en", "name": "English"}], "status": "Released", "tagline": "Before you fall in love, you need to love yourself.", "title": "Come Early Morning", "video": false, "vote_average": 5.8, "vote_count": 20, "keywords": {"keywords": [{"id": 1010, "name": "bar"}, {"id": 2669, "name": "motel"}, {"id": 2864, "name": "one-night stand"}, {"id": 4552, "name": "beer"}, {"id": 6946, "name": "blonde"}, {"id": 15162, "name": "dog"}, {"id": 187056, "name": "woman director"}]}, "similar": {"page": 1, "results": [{"adult": false, "backdrop_path": "/fZ8oFcREAr6wgWcXISGql0xyxjB.jpg", "genre_ids": [35, 18], "id": 39781, "original_language": "en", "original_title": "The Kids Are All Right", "overview": "Two women, Nic and Jules, brought a son and daughter into the world through artificial insemination. When one of their children reaches age, both kids go behind their mothers' backs to meet with the donor. Life becomes so much more interesting when the father, two mothers and children start to become attached to each other.", "poster_path": "/fPDeK4MmoGfi2X0oWZev7LrbMqM.jpg", "release_date": "2010-07-09", "title": "The Kids Are All Right", "video": false, "vote_average": 6.6, "vote_count": 923, "popularity": 12.703}, {"id": 9813, "video": false, "vote_count": 128, "vote_average": 6.1, "title": "The Quiet", "release_date": "2005-09-12", "original_language": "en", "original_title": "The Quiet", "genre_ids": [18, 53], "backdrop_path": "/6eyWAZA4CEidZW1xXnQ4vlYBXTP.jpg", "adult": false, "overview": "After her widowed father dies, deaf teenager Dot moves in with her godparents, Olivia and Paul Deer. The Deers' daughter, Nina, is openly hostile to Dot, but that does not prevent her from telling her secrets to her silent stepsister, including the fact that she wants to kill her lecherous father.", "poster_path": "/GEqIE9YlmygHVUfS64LW2cwAAM.jpg", "popularity": 13.948}, {"adult": false, "backdrop_path": "/gZeJziVigmRqbkEZwKAtSqlLQ6s.jpg", "genre_ids": [18, 10749], "id": 370663, "original_language": "en", "original_title": "Below Her Mouth", "overview": "An unexpected affair quickly escalates into a heart-stopping reality for two women whose passionate connection changes their lives forever.", "poster_path": "/nTGbq37hYLuNy7YgMg0gVLma0NS.jpg", "release_date": "2016-09-10", "title": "Below Her Mouth", "video": false, "vote_average": 6.2, "vote_count": 456, "popularity": 22.676}, {"adult": false, "backdrop_path": "/by0WtpJ5UNxOy6ytIfPPTasbRoB.jpg", "genre_ids": [28, 12, 35, 18, 10751, 10402, 10749], "id": 17130, "original_language": "en", "original_title": "Crossroads", "overview": "Three friends get together and bury a box making a pact to open it at midnight at their high school graduation. In the little town in Georgia that they live in, things soon change. One is little miss perfect, one is an engaged prom queen, and the other is a pregnant outcast. The night of graduation, they open the box and they strike up a conversation. All of a sudden, one brings up the topic of her going to Los Angeles for a record contract audition. They all decide to go together and they leave. With a little money, they set out on the road with a guy named Ben. When one of them tells the other a rumor that he might be a homicidal maniac they are all scared of him. When they reach LA, Lucy falls in love with Ben and against her father's wishes, she stays and she goes to the audition.", "poster_path": "/egIs4cWxn0iBErFKrQ7STckjj49.jpg", "release_date": "2002-02-15", "title": "Crossroads", "video": false, "vote_average": 5.0, "vote_count": 334, "popularity": 12.973}, {"adult": false, "backdrop_path": "/6tern9vOEwwmkDYC1vRCuO64z0C.jpg", "genre_ids": [10749, 18], "id": 475888, "original_language": "en", "original_title": "Tell It to the Bees", "overview": "Dr. Jean Markham returns to the town she left as a teenager to take over her late father's medical practice. When a school-yard scuffle lands Charlie in her surgery, she invites him to visit the hives in her garden and tell his secrets to the bees, as she once did. The new friendship between the boy and the bee keeper brings his mother Lydia into Jean's world.", "poster_path": "/Rj6zpHhMU1zFW3v28U4PSRSRgP.jpg", "release_date": "2019-05-03", "title": "Tell It to the Bees", "video": false, "vote_average": 6.4, "vote_count": 53, "popularity": 15.113}, {"adult": false, "backdrop_path": "/xOGEw8iywxcFMolV6SF6YdTdJTb.jpg", "genre_ids": [10402, 10749], "id": 52371, "original_language": "nl", "original_title": "LelleBelle", "overview": "19-year old Belle practices playing the violin diligently, but is unable to impart her music with a sensitive undertone. Her life changes when she discovers that sexual desire stimulates passion in her music.", "poster_path": "/nJVPgIq3icZMQ26p5uWIFdUZJfL.jpg", "release_date": "2010-10-08", "title": "LelleBelle", "video": false, "vote_average": 4.7, "vote_count": 41, "popularity": 13.931}, {"adult": false, "backdrop_path": "/rf6G51j0SZL0tP57I8gnqHTRFEr.jpg", "genre_ids": [35, 18, 10749], "id": 273153, "original_language": "fr", "original_title": "La belle saison", "overview": "In 1971, Carole and Delphine meet and fall in love in Paris. When Carole follows Delphine back to her family farm in Limousin, the two find lesbianism and feminism are not as easy in the countryside.", "poster_path": "/evvAkNMO5VJiy5qIo1Hu7fUfvVI.jpg", "release_date": "2015-08-19", "title": "Summertime", "video": false, "vote_average": 6.6, "vote_count": 162, "popularity": 15.434}, {"id": 97630, "video": false, "vote_count": 2785, "vote_average": 6.9, "title": "Zero Dark Thirty", "release_date": "2012-12-19", "original_language": "en", "original_title": "Zero Dark Thirty", "genre_ids": [18, 36, 53], "backdrop_path": "/zy5hyStEkQyjZgYtvKzJQBr7MpJ.jpg", "adult": false, "overview": "A chronicle of the decade-long hunt for al-Qaeda terrorist leader Osama bin Laden after the September 2001 attacks, and his death at the hands of the Navy S.E.A.L. Team 6 in May, 2011.", "poster_path": "/yg6IDNucLAEj7E5loTyTnUW2pgb.jpg", "popularity": 26.313}, {"id": 370755, "video": false, "vote_count": 860, "vote_average": 7.1, "title": "Paterson", "release_date": "2016-11-17", "original_language": "en", "original_title": "Paterson", "genre_ids": [35, 18, 10749], "backdrop_path": "/drqgpsUrkGmTl5OlPY2O5XNgx4y.jpg", "adult": false, "overview": "A week in the life of Paterson, a poet bus driver, and his wife Laura, a very creative artist, who live in Paterson, New Jersey, hometown of many famous poets and artists.", "poster_path": "/AuJ1ZlfqwuAr9H5Qr1U9KILylse.jpg", "popularity": 14.001}, {"adult": false, "backdrop_path": "/gRY30dvyLhydkblpE0v3NiXt0Nj.jpg", "genre_ids": [35, 10749], "id": 6557, "original_language": "en", "original_title": "27 Dresses", "overview": "Altruistic Jane finds herself facing her worst nightmare as her younger sister announces her engagement to the man Jane secretly adores.", "poster_path": "/zzJtHNzi1D4CPwRlPHV1TRQNXD2.jpg", "release_date": "2008-01-10", "title": "27 Dresses", "video": false, "vote_average": 6.3, "vote_count": 2136, "popularity": 10.851}, {"id": 2928, "video": false, "vote_count": 322, "vote_average": 5.7, "title": "Michael", "release_date": "1996-12-25", "original_language": "en", "original_title": "Michael", "genre_ids": [35, 18, 14], "backdrop_path": "/kvTwGW1bdu46pP5FmizId07CazQ.jpg", "adult": false, "overview": "Tabloid reporters are sent by their editor to investigate after the paper recieves a letter from a woman claiming an angel is living with her.", "poster_path": "/xof1HmoI3NrSrmzHByjK6W7dU8E.jpg", "popularity": 10.781}, {"id": 616584, "video": false, "vote_count": 92, "vote_average": 7.5, "title": "K-12", "release_date": "2019-09-05", "original_language": "en", "original_title": "K-12", "genre_ids": [14, 27, 10402], "backdrop_path": "/fSlfaF0Ydfr2SK6hOYHvDsb7a9Z.jpg", "adult": false, "overview": "Cry Baby, a strong and sensitive girl, is sent off to a disturbing sleepaway school that\u2019s hidden underneath a grandiose fa\u00e7ade. Luckily, she has a sweet and unapologetic best friend who sticks up for her when she gets bullied by the other students whose brains are under control by the Principal and his wicked staff. With the help of the magical friends they meet along the way, as well as an Angelic Spirit Guide, they are able to gain the strength they need to fight off the school\u2019s belligerent patriarchal conditioning.", "poster_path": "/nVi0yBBPj5Z96JgGWVIg94kv7bR.jpg", "popularity": 18.105}, {"id": 326359, "video": false, "vote_count": 1179, "vote_average": 6.8, "title": "Frozen Fever", "release_date": "2015-03-09", "original_language": "en", "original_title": "Frozen Fever", "genre_ids": [12, 16, 10751], "backdrop_path": "/ubioPGniCfDiASmYYpeJs5RRNaC.jpg", "adult": false, "overview": "On Anna's birthday, Elsa and Kristoff are determined to give her the best celebration ever, but Elsa's icy powers may put more than just the party at risk.", "poster_path": "/lKJiVPzsAO9IJ4LKWXZ8vkR2bg4.jpg", "popularity": 17.061}, {"id": 71672, "video": false, "vote_count": 464, "vote_average": 5.4, "title": "Wrong Turn 4: Bloody Beginnings", "release_date": "2011-10-17", "original_language": "en", "original_title": "Wrong Turn 4: Bloody Beginnings", "genre_ids": [27, 53], "backdrop_path": "/lWU9q6992huj0TPi53kemgYGPo8.jpg", "adult": false, "overview": "Follows a group of friends that decide to go snowmobiling during their winter break. They make a \"wrong turn\", getting lost in a storm.", "poster_path": "/ogAYr3SdD5j2bFRX5briSOhe0Rw.jpg", "popularity": 19.64}, {"id": 297762, "video": false, "vote_count": 13717, "vote_average": 7.3, "title": "Wonder Woman", "release_date": "2017-05-30", "original_language": "en", "original_title": "Wonder Woman", "genre_ids": [28, 12, 14], "backdrop_path": "/6iUNJZymJBMXXriQyFZfLAKnjO6.jpg", "adult": false, "overview": "An Amazon princess comes to the world of Man in the grips of the First World War to confront the forces of evil and bring an end to human conflict.", "poster_path": "/gfJGlDaHuWimErCr5Ql0I8x9QSy.jpg", "popularity": 41.8}, {"id": 15417, "video": false, "vote_count": 224, "vote_average": 6.1, "title": "Every Which Way But Loose", "release_date": "1978-12-19", "original_language": "en", "original_title": "Every Which Way But Loose", "genre_ids": [28, 12, 35, 18, 10749], "backdrop_path": "/4YdEQTF7wZyl2kTKsRc567Lp3q3.jpg", "adult": false, "overview": "Philo Beddoe is your regular, easygoing, truck-driving guy. He's also the best bar-room brawler west of the Rockies. And he lives with a 165-pound orangutan named Clyde. Like other guys, Philo finally falls in love - with a flighty singer who leads him on a screwball chase across the American Southwest. Nothing's in the way except a motorcycle gang, and legendary brawler Tank Murdock.", "poster_path": "/6djws9dSOk8WquoB14LdZy71c37.jpg", "popularity": 15.613}, {"adult": false, "backdrop_path": "/aEUpiEjbNjGYG03zh1ObwRK6UZc.jpg", "genre_ids": [80, 18], "id": 157845, "original_language": "en", "original_title": "The Rover", "overview": "10 years after a global economic collapse, a hardened loner pursues the men who stole his car through the lawless wasteland of the Australian outback, aided by the brother of one of the thieves.", "poster_path": "/ugVbrbicJHfOw8e24RUYISKqgvf.jpg", "release_date": "2014-05-18", "title": "The Rover", "video": false, "vote_average": 6.3, "vote_count": 484, "popularity": 16.044}, {"adult": false, "backdrop_path": "/pBgGl3GfVxs84T7ZniUAz5FMMNx.jpg", "genre_ids": [35, 10751, 12, 14, 10749], "id": 11451, "original_language": "en", "original_title": "Herbie Fully Loaded", "overview": "Maggie Peyton, the new owner of Number 53 - the free-wheelin' Volkswagen bug with a mind of its own - puts the car through its paces on the road to becoming a NASCAR competitor.", "poster_path": "/7lTfTZ8CDfXw09eAv3OOvsbCVgs.jpg", "release_date": "2005-06-22", "title": "Herbie Fully Loaded", "video": false, "vote_average": 5.3, "vote_count": 1347, "popularity": 16.927}, {"adult": false, "backdrop_path": "/cADbqsIoiDW7X3Myg9nz8eAuno5.jpg", "genre_ids": [18, 10749], "id": 10818, "original_language": "fr", "original_title": "Naissance des pieuvres", "overview": "Set during a sultry summer in a French suburb, Marie is desperate to join the local pool's synchronized swimming team, but is her interest solely for the sake of sport or for a chance to get close to Floriane, the bad girl of the team? Sciamma, and the two leads, capture the uncertainty of teenage sexuality with a sympathetic eye in this delicate drama of the angst of coming-of-age.", "poster_path": "/4jajELYrR4Xmv3CVoKnukRnALa2.jpg", "release_date": "2007-05-17", "title": "Water Lilies", "video": false, "vote_average": 6.1, "vote_count": 119, "popularity": 10.744}, {"adult": false, "backdrop_path": "/fZoHTcEC1z8J5ZKgjcdKimXIQgC.jpg", "genre_ids": [35, 10751, 14], "id": 3050, "original_language": "en", "original_title": "Doctor Dolittle", "overview": "A successful physician and devoted family man, John Dolittle seems to have the world by the tail, until a long suppressed talent he possessed as a child, the ability to communicate with animals is suddenly reawakened with a vengeance! Now every creature within squawking distance wants the good doctor's advice, unleashing an outrageous chain of events that turns his world upside down!", "poster_path": "/ebomUCgc1QhtuxWiEHnmJlesv2g.jpg", "release_date": "1998-06-22", "title": "Doctor Dolittle", "video": false, "vote_average": 5.6, "vote_count": 1832, "popularity": 17.64}], "total_pages": 43, "total_results": 856}, "recommendations": {"page": 1, "results": [{"adult": false, "backdrop_path": "/iwAxyMAVLB3oW33sRcyNLgWm4Fb.jpg", "genre_ids": [10749, 35, 10751], "id": 127061, "original_language": "en", "original_title": "Lake Effects", "overview": "Sara and Lily grew up at Smith Mountain Lake. Sara became estranged from the family and without explanation moved to Los Angeles to study law. Her sister Lily, an artist, teaches locally and lives with their parents, Ray and Vivian, until Dad dies in an accident. Sara returns to help settle his estate, and all our ladies cross paths with an eclectic group of local oddballs, as they search for a Loch Ness-style monster they believe lurks in the lake's depths. A few real Smith Mountain Lake characters make appearances. The next week at the lake is filled with adventure, tears, and laughter as Vivian and her two daughters finally understand, through the guidance of Dad's spirit, if they still belong on the lake, even though Ray is gone. All paths converge at the Smith Mountain Lake Wine Festival, on course for a heart-warming and hilarious collision. Written by Mike McKay", "poster_path": "/1oXdL8DR6ptScLunOl8gW0zbbQh.jpg", "release_date": "2012-05-06", "title": "Lake Effects", "video": false, "vote_average": 4.3, "vote_count": 10, "popularity": 6.786}, {"adult": false, "backdrop_path": "/dYxB6WY9YqywgTlkyxJwURLICHg.jpg", "genre_ids": [18, 10749, 35], "id": 77925, "original_language": "en", "original_title": "Twinky", "overview": "A middle aged writer of pornographic novels meets and falls in love with a sixteen year old school girl. This alone is cause for concern but when the couple get married and move to America, the trouble (and fun) really begins.", "poster_path": "/ivnTzggV7Q64toeAtMSaUIBZeeB.jpg", "release_date": "1970-01-06", "title": "Lola", "video": false, "vote_average": 5.6, "vote_count": 9, "popularity": 4.012}, {"id": 8014, "video": false, "vote_count": 10, "vote_average": 7.1, "title": "Valley of Flowers", "release_date": "2006-07-15", "original_language": "en", "original_title": "Valley of Flowers", "genre_ids": [12, 18, 10749], "backdrop_path": "/mFiMOWcjU7jFniAmRv7BWcIzUpT.jpg", "adult": false, "overview": "A Himalayan legend of a love struggling against the inevitability of death, an astonishing tale spanning from the early 19th century mountain existence, to hectic, bustling modern day Tokyo.", "poster_path": "/pzjJpUWN7HNZgsfVRpxlKOWN9zA.jpg", "popularity": 4.819}, {"adult": false, "backdrop_path": "/yzS8BwDpJqQQpNXealXvKnbY4at.jpg", "genre_ids": [99], "id": 81790, "original_language": "en", "original_title": "Noord-Korea", "overview": "The winner of the 2001 International Emmy award for Best Documentary, Welcome to North Korea is a grotesquely surreal look at the all-too-real conditions in modern-day North Korea.", "poster_path": "/2r3fjuLcVsNXLoKv4C8zKL43IDY.jpg", "release_date": "2001-01-01", "title": "Welcome to North Korea", "video": false, "vote_average": 7.8, "vote_count": 5, "popularity": 0.991}, {"adult": false, "backdrop_path": "/YW29DFL51cpnH4kg36I9pIDWtN.jpg", "genre_ids": [10402, 18, 10749], "id": 18586, "original_language": "en", "original_title": "The Hottest State", "overview": "A young actor from Texas tries to make it in New York while struggling in his relationship with a beautiful singer/songwriter.", "poster_path": "/tek1OJ3sq6e1MM3g0fL3HGpuaW6.jpg", "release_date": "2006-09-02", "title": "The Hottest State", "video": false, "vote_average": 5.3, "vote_count": 13, "popularity": 5.062}, {"adult": false, "backdrop_path": "/3FxyKLM17qfr72kT0fNLL9kOYno.jpg", "genre_ids": [18, 10749], "id": 47889, "original_language": "en", "original_title": "Ruby in Paradise", "overview": "Reeling from her mother's recent death, Ruby Lee Gissing relocates to Florida to start anew. After finding a job at a souvenir store, Ruby becomes friends with the shop's owner, Mildred Chambers, and slowly acclimates to her new surroundings. Before long, she's juggling the affections of Mildred's Lothario son, Ricky, and the good-natured Mike. As she wavers between Ricky and Mike, Ruby also tries to come to terms with her past.", "poster_path": "/aq5pptsg3ywtnZduKT7IfwGs1t2.jpg", "release_date": "1993-10-08", "title": "Ruby in Paradise", "video": false, "vote_average": 6.2, "vote_count": 13, "popularity": 4.524}, {"adult": false, "backdrop_path": "/hmmibZNCgYqHYKLOvcCMSza3WVT.jpg", "genre_ids": [18, 53, 10749], "id": 33135, "original_language": "en", "original_title": "Fun", "overview": "Bonnie and Hillary are two young lost souls who meet one day and discover that they get along. They talk about their lives and run around and and keep getting really excited. Their day escalates into an eruption of violence and rage that can only be understood by the two girls.", "poster_path": "/qqZIu0bt2MAGgt21FOuMmgOZ4R2.jpg", "release_date": "1994-01-01", "title": "Fun", "video": false, "vote_average": 5.4, "vote_count": 11, "popularity": 4.06}, {"adult": false, "backdrop_path": "/8Kajfdz7nUeCgsfm3HwXo9uOh7b.jpg", "genre_ids": [14, 18, 27], "id": 16027, "original_language": "en", "original_title": "Vampire Diary", "overview": "Whilst making a documentary, filmmaker Holly meets the highly enigmatic and beautiful Vicki who claims she is a real-life vampire.", "poster_path": "/5HcYOxr5gQljPB04fZmoGFvHw5D.jpg", "release_date": "2007-01-01", "title": "Vampire Diary", "video": false, "vote_average": 4.3, "vote_count": 9, "popularity": 4.046}, {"adult": false, "backdrop_path": "/fzDxoU6uznackV3OeoeYXVuwhR8.jpg", "genre_ids": [18, 10749], "id": 20564, "original_language": "en", "original_title": "Nearing Grace", "overview": "Did you ever wish you could get the hottest girl in school? This is the story of how non-jock Henry (Gregory Smith) indeed gets the girl, Grace (Jordana Brewster), but not without complications.", "poster_path": "/f9rVhI1m4ChVvJmTXdfl4YgA2N8.jpg", "release_date": "2005-06-18", "title": "Nearing Grace", "video": false, "vote_average": 6.1, "vote_count": 11, "popularity": 3.672}, {"adult": false, "backdrop_path": null, "genre_ids": [10770, 18], "id": 229703, "original_language": "en", "original_title": "Escape from Polygamy", "overview": "Recently-widowed Leann and her 17-year-old daughter Julina move into an isolated polygamous compound, where the freethinking Julina meets like-minded Ryder, son of the religious compound\u2019s charismatic Prophet, Ervil.", "poster_path": "/hjI7FsPIUnwOmqnkXMWPdMMGCrI.jpg", "release_date": "2013-08-24", "title": "Escape from Polygamy", "video": false, "vote_average": 6.6, "vote_count": 21, "popularity": 5.425}, {"adult": false, "backdrop_path": "/xNzUKbPF9PuM1kMpgLizZUodyVE.jpg", "genre_ids": [35, 18], "id": 144881, "original_language": "en", "original_title": "Monkey Warfare", "overview": "Two ex-revolutionaries living underground have their lives turned upside down by a sexy young radical who goes from smashing SUVs to fighting gentrification with firebombs.", "poster_path": "/nGQIYdwgJrx2skwSNO16VGsdm5p.jpg", "release_date": "2006-09-10", "title": "Monkey Warfare", "video": false, "vote_average": 5.0, "vote_count": 3, "popularity": 1.569}], "total_pages": 1, "total_results": 11}, "credits": {"cast": [{"cast_id": 1, "character": "Lucy Fowler", "credit_id": "52fe4482c3a36847f809a5fb", "gender": 1, "id": 15852, "name": "Ashley Judd", "order": 0, "profile_path": "/3bgmRDt02iGFVjhqCqstVyEeiwG.jpg"}, {"cast_id": 4, "character": "Kim", "credit_id": "52fe4482c3a36847f809a607", "gender": 1, "id": 18974, "name": "Laura Prepon", "order": 1, "profile_path": "/7iRa28jqum5M1HuMs1yNVkTYpSY.jpg"}, {"cast_id": 13, "character": "Cal Percell", "credit_id": "52fe4482c3a36847f809a62b", "gender": 2, "id": 52886, "name": "Jeffrey Donovan", "order": 2, "profile_path": "/5i47zZDpnAjLBtQdlqhg5AIYCuT.jpg"}, {"cast_id": 19, "character": "Owen Allen", "credit_id": "574704cac3a368502b00116e", "gender": 2, "id": 825, "name": "Stacy Keach", "order": 3, "profile_path": "/9G0urAVBBP9FRX1wrxkdZCj3VCW.jpg"}, {"cast_id": 7, "character": "Lowell Fowler", "credit_id": "52fe4482c3a36847f809a613", "gender": 2, "id": 6914, "name": "Scott Wilson", "order": 4, "profile_path": "/uAPQD3zXThKHXaYELx3ePSzeWwM.jpg"}, {"cast_id": 8, "character": "Uncle Tim", "credit_id": "52fe4482c3a36847f809a617", "gender": 2, "id": 1462, "name": "Tim Blake Nelson", "order": 5, "profile_path": "/dcfdSmVmklb1HXHbB9kySdrl9Nq.jpg"}, {"cast_id": 5, "character": "Sue", "credit_id": "52fe4482c3a36847f809a60b", "gender": 1, "id": 52881, "name": "Christine Renee Ward", "order": 6, "profile_path": "/tgLnnFGUho1YDq5GzKvcmR2s8tS.jpg"}, {"cast_id": 6, "character": "Doll", "credit_id": "52fe4482c3a36847f809a60f", "gender": 1, "id": 52882, "name": "Candyce Hinkle", "order": 7, "profile_path": "/kg3cCCLQG6rx7FulnUcXxHFQZKX.jpg"}, {"cast_id": 9, "character": "Papa", "credit_id": "52fe4482c3a36847f809a61b", "gender": 2, "id": 52883, "name": "Pat Corley", "order": 8, "profile_path": "/ckUGATzdZ4XejPAfErMoWNx7Mbx.jpg"}, {"cast_id": 10, "character": "Nana", "credit_id": "52fe4482c3a36847f809a61f", "gender": 1, "id": 6587, "name": "Diane Ladd", "order": 9, "profile_path": "/lytopvGkXCyOVKmebHLigkZv4vm.jpg"}, {"cast_id": 11, "character": "Eli", "credit_id": "52fe4482c3a36847f809a623", "gender": 2, "id": 52884, "name": "Wally Welch", "order": 10, "profile_path": "/k22lWOyQgZTIgGgywLQRq8SO7IA.jpg"}, {"cast_id": 12, "character": "Bob", "credit_id": "52fe4482c3a36847f809a627", "gender": 2, "id": 52885, "name": "Ritchie Montgomery", "order": 11, "profile_path": "/znNRxqrYkOskK3jlm3ftHyAzJDg.jpg"}, {"cast_id": 14, "character": "Michelle", "credit_id": "52fe4482c3a36847f809a62f", "gender": 1, "id": 52887, "name": "Nancy Ellen Mills", "order": 12, "profile_path": "/cDyRrkxkCBNnMkkPECIDeMWoo7h.jpg"}, {"cast_id": 18, "character": "Toby", "credit_id": "574704a792514176940001bd", "gender": 2, "id": 1472, "name": "Ray McKinnon", "order": 13, "profile_path": "/gjZv4RQfPrOQEn0QRuR1G7HEz0D.jpg"}, {"cast_id": 20, "character": "Vet Receptionist", "credit_id": "574704e992514177b00010ef", "gender": 1, "id": 1310611, "name": "Ann Marie Hall", "order": 14, "profile_path": "/nlWyIugIYuiVZUwpOt82rZWiV2c.jpg"}, {"cast_id": 21, "character": "Mickey", "credit_id": "5748b329c3a368665e000177", "gender": 2, "id": 58733, "name": "Jason Davis", "order": 15, "profile_path": "/l1Vv7xhGGi9u2thzD4glDxzlm1L.jpg"}, {"cast_id": 2, "character": "Motel Man", "credit_id": "52fe4482c3a36847f809a5ff", "gender": 0, "id": 52879, "name": "Jason T. Davis", "order": 16, "profile_path": null}, {"cast_id": 3, "character": "Motel Clerk", "credit_id": "52fe4482c3a36847f809a603", "gender": 0, "id": 52880, "name": "Richard Lee Crow", "order": 17, "profile_path": null}, {"cast_id": 15, "character": "Man with Michelle", "credit_id": "52fe4482c3a36847f809a633", "gender": 2, "id": 24529, "name": "Chuck Borden", "order": 18, "profile_path": "/ethmbGjgOnT54QiILrN1z4C6Vpp.jpg"}], "crew": [{"credit_id": "52fe4482c3a36847f809a639", "department": "Directing", "gender": 1, "id": 16484, "job": "Director", "name": "Joey Lauren Adams", "profile_path": "/hQqqcyUvLQwnqBYCdpGZIfKOpmO.jpg"}, {"credit_id": "52fe4482c3a36847f809a63f", "department": "Writing", "gender": 1, "id": 16484, "job": "Author", "name": "Joey Lauren Adams", "profile_path": "/hQqqcyUvLQwnqBYCdpGZIfKOpmO.jpg"}]}}