{"adult": false, "backdrop_path": "/5SLc30aRxXPp4RMu44J26rGAONm.jpg", "belongs_to_collection": null, "budget": 2000, "genres": [{"id": 18, "name": "Drama"}], "homepage": null, "id": 76199, "imdb_id": "tt1975179", "original_language": "en", "original_title": "Hollow", "overview": "In the outskirts of the city, where crime is a way of life, the paths of four desperate people collide. Jordan Coleman, a local drug dealer, finds himself at a crossroads when his friend and mentor gets in too deep with a ruthless gangster and club owner. Chelsea Hammond, an exotic dancer, finds herself being pushed into the dark world of adult entertainment as she fights to regain control of her life. Narcotics detective Sam Riley struggles with an online addiction he has tried to keep hidden from his wife. Reformed street thug Harrison Green goes back to his old neighborhood to try and connect with a street brother he left behind. These four will face their ultimate test at the hands of Copernicus Jones, a ruthless gangster who will let nothing stand in his way.", "popularity": 1.154, "poster_path": "/uuUzG4rpCoIfQIm1Lxk6Ms3oXHl.jpg", "production_companies": [], "production_countries": [], "release_date": "2011-09-06", "revenue": 0, "runtime": 84, "spoken_languages": [{"iso_639_1": "en", "name": "English"}], "status": "Released", "tagline": "", "title": "Hollow", "video": false, "vote_average": 3.0, "vote_count": 2, "keywords": {"keywords": [{"id": 1803, "name": "drug addiction"}, {"id": 3149, "name": "gangster"}, {"id": 18314, "name": "internet porn"}]}, "similar": {"page": 1, "results": [{"adult": false, "backdrop_path": "/sw7mordbZxgITU877yTpZCud90M.jpg", "genre_ids": [18, 80], "id": 769, "original_language": "en", "original_title": "GoodFellas", "overview": "The true story of Henry Hill, a half-Irish, half-Sicilian Brooklyn kid who is adopted by neighbourhood gangsters at an early age and climbs the ranks of a Mafia family under the guidance of Jimmy Conway.", "poster_path": "/pwpGfTImTGifEGgLb3s6LRPd4I6.jpg", "release_date": "1990-09-12", "title": "GoodFellas", "video": false, "vote_average": 8.4, "vote_count": 6559, "popularity": 36.135}, {"id": 59967, "video": false, "vote_count": 7205, "vote_average": 6.8, "title": "Looper", "release_date": "2012-09-26", "original_language": "en", "original_title": "Looper", "genre_ids": [28, 878, 53], "backdrop_path": "/vuHG8VlYnvw4gUKtS7GY5kZol69.jpg", "adult": false, "overview": "In the futuristic action thriller Looper, time travel will be invented but it will be illegal and only available on the black market. When the mob wants to get rid of someone, they will send their target 30 years into the past where a looper, a hired gun, like Joe is waiting to mop up. Joe is getting rich and life is good until the day the mob decides to close the loop, sending back Joe's future self for assassination.", "poster_path": "/sNjL6SqErDBE8OUZlrDLkexfsCj.jpg", "popularity": 24.08}, {"adult": false, "backdrop_path": "/8nvayG5l0urcjvvpszoECDqLWzD.jpg", "genre_ids": [18, 53, 80, 9648], "id": 186, "original_language": "en", "original_title": "Lucky Number Slevin", "overview": "Slevin is mistakenly put in the middle of a personal war between the city\u2019s biggest criminal bosses. Under constant watch, Slevin must try not to get killed by an infamous assassin and come up with an idea of how to get out of his current dilemma. A film with many twists and turns.", "poster_path": "/jtKq0EtothAzWlnRBBWGCA8uFuu.jpg", "release_date": "2006-02-24", "title": "Lucky Number Slevin", "video": false, "vote_average": 7.5, "vote_count": 2480, "popularity": 14.28}, {"id": 154400, "video": false, "vote_count": 1342, "vote_average": 6.7, "title": "The Drop", "release_date": "2014-09-12", "original_language": "en", "original_title": "The Drop", "genre_ids": [80, 18], "backdrop_path": "/lI7TD9Z9TsASnc3GxkLbBBpXCac.jpg", "adult": false, "overview": "Bob Saginowski finds himself at the center of a robbery gone awry and entwined in an investigation that digs deep into the neighborhood's past where friends, families, and foes all work together to make a living - no matter the cost.", "poster_path": "/lj8AMCjWx0jU93XajzUEOUUNKZF.jpg", "popularity": 24.66}, {"id": 627, "video": false, "vote_count": 6006, "vote_average": 8.0, "title": "Trainspotting", "release_date": "1996-02-23", "original_language": "en", "original_title": "Trainspotting", "genre_ids": [80, 18], "backdrop_path": "/Aw0z8bUhGljT0ots6udf1MTLEMi.jpg", "adult": false, "overview": "Mark Renton, deeply immersed in the Edinburgh drug scene, tries to clean up and get out, despite the allure of the drugs and influence of friends.", "poster_path": "/p1O3eFsdb0GEIYu87xlwV7P4jM1.jpg", "popularity": 35.793}, {"adult": false, "backdrop_path": "/6xKCYgH16UuwEGAyroLU6p8HLIn.jpg", "genre_ids": [18, 80], "id": 238, "original_language": "en", "original_title": "The Godfather", "overview": "Spanning the years 1945 to 1955, a chronicle of the fictional Italian-American Corleone crime family. When organized crime family patriarch, Vito Corleone barely survives an attempt on his life, his youngest son, Michael steps in to take care of the would-be killers, launching a campaign of bloody revenge.", "poster_path": "/rPdtLWNsZmAtoZl9PK7S2wE3qiS.jpg", "release_date": "1972-03-14", "title": "The Godfather", "video": false, "vote_average": 8.6, "vote_count": 11276, "popularity": 47.035}, {"id": 1422, "video": false, "vote_count": 8816, "vote_average": 8.1, "title": "The Departed", "release_date": "2006-10-05", "original_language": "en", "original_title": "The Departed", "genre_ids": [80, 18, 53], "backdrop_path": "/8Od5zV7Q7zNOX0y9tyNgpTmoiGA.jpg", "adult": false, "overview": "To take down South Boston's Irish Mafia, the police send in one of their own to infiltrate the underworld, not realizing the syndicate has done likewise. While an undercover cop curries favor with the mob kingpin, a career criminal rises through the police ranks. But both sides soon discover there's a mole among them.", "poster_path": "/tGLO9zw5ZtCeyyEWgbYGgsFxC6i.jpg", "popularity": 25.529}, {"id": 339103, "video": false, "vote_count": 327, "vote_average": 5.3, "title": "Gotti", "release_date": "2018-06-14", "original_language": "en", "original_title": "Gotti", "genre_ids": [80, 18, 36, 53], "backdrop_path": "/yp6JNRU4PQEeWAVbTKG2E8pYGiP.jpg", "adult": false, "overview": "John Gotti rises to the top of the New York underworld to become the boss of the Gambino crime family. His life takes a tumultuous turn as he faces tragedy, multiple trials and a prison sentence.", "poster_path": "/cUCX6B0FGTsHC5D8L2CF0gJrQCm.jpg", "popularity": 13.921}, {"adult": false, "backdrop_path": "/fop31RWFi9sVL0xK5hAJGh7Fwkz.jpg", "genre_ids": [18, 80], "id": 261023, "original_language": "en", "original_title": "Black Mass", "overview": "The true story of Whitey Bulger, the brother of a state senator and the most infamous violent criminal in the history of South Boston, who became an FBI informant to take down a Mafia family invading his turf.", "poster_path": "/nSbpuyd2UySuW7kaoXzYUfes1Bl.jpg", "release_date": "2015-09-04", "title": "Black Mass", "video": false, "vote_average": 6.4, "vote_count": 2192, "popularity": 16.347}, {"id": 9470, "video": false, "vote_count": 1392, "vote_average": 7.3, "title": "Kung Fu Hustle", "release_date": "2004-02-10", "original_language": "cn", "original_title": "\u529f\u592b", "genre_ids": [28, 35, 80, 14], "backdrop_path": "/qpJWj6MI6VLRt9bGbJVZtmFvqWw.jpg", "adult": false, "overview": "Set in Canton, China in the 1940s, the story revolves in a town ruled by the Axe Gang, Sing who desperately wants to become a member. He stumbles into a slum ruled by eccentric landlords who turns out to be the greatest kung-fu masters in disguise. Sing's actions eventually cause the Axe Gang and the slumlords to engage in an explosive kung-fu battle. Only one side will win and only one hero will emerge as the greatest kung-fu master of all.", "poster_path": "/dZsfDrNLGWgsIUQL1vGhl8tbnqY.jpg", "popularity": 17.654}, {"id": 1051, "video": false, "vote_count": 854, "vote_average": 7.6, "title": "The French Connection", "release_date": "1971-10-09", "original_language": "en", "original_title": "The French Connection", "genre_ids": [28, 80, 53], "backdrop_path": "/hPlzjKzbO8KuCerm1lOxDtUjlHD.jpg", "adult": false, "overview": "Tough narcotics detective 'Popeye' Doyle is in hot pursuit of a suave French drug dealer who may be the key to a huge heroin-smuggling operation.", "poster_path": "/5XSGvIKl2yPvOkieFjc3rzLw7x0.jpg", "popularity": 13.205}, {"id": 156022, "video": false, "vote_count": 5468, "vote_average": 7.2, "title": "The Equalizer", "release_date": "2014-09-24", "original_language": "en", "original_title": "The Equalizer", "genre_ids": [28, 80, 53], "backdrop_path": "/vbl4ZVqelrrzJ16fdDOq9siWbpi.jpg", "adult": false, "overview": "McCall believes he has put his mysterious past behind him and dedicated himself to beginning a new, quiet life. But when he meets Teri, a young girl under the control of ultra-violent Russian gangsters, he can\u2019t stand idly by \u2013 he has to help her. Armed with hidden skills that allow him to serve vengeance against anyone who would brutalize the helpless, McCall comes out of his self-imposed retirement and finds his desire for justice reawakened. If someone has a problem, if the odds are stacked against them, if they have nowhere else to turn, McCall will help. He is The Equalizer.", "poster_path": "/2eQfjqlvPAxd9aLDs8DvsKLnfed.jpg", "popularity": 39.578}, {"id": 331781, "video": false, "vote_count": 769, "vote_average": 7.6, "title": "Amy", "release_date": "2015-07-03", "original_language": "en", "original_title": "Amy", "genre_ids": [99, 10402], "backdrop_path": "/ktivqGIKG8hk9nwwX2G2FgsBgaD.jpg", "adult": false, "overview": "A documentary on the life of Amy Winehouse, the immensely talented yet doomed songstress. We see her from her teen years, where she already showed her singing abilities, to her finding success and then her downward spiral into alcoholism and drugs.", "poster_path": "/hr0laiK7CVmsT87iQml153xs3Up.jpg", "popularity": 12.766}, {"adult": false, "backdrop_path": "/kR48L1E3OLOkQcnlmpi5wDj7ZZt.jpg", "genre_ids": [80, 18], "id": 180863, "original_language": "en", "original_title": "T2 Trainspotting", "overview": "After 20 years abroad, Mark Renton returns to Scotland and reunites with his old friends Sick Boy, Spud and Begbie.", "poster_path": "/fbHXfr2N4pI2j7i9RLYiddjotBl.jpg", "release_date": "2017-01-27", "title": "T2 Trainspotting", "video": false, "vote_average": 7.0, "vote_count": 1919, "popularity": 17.054}, {"adult": false, "backdrop_path": "/dBXAUuh4lJSsZTjOswIa5q3xFBi.jpg", "genre_ids": [80, 28, 35, 18], "id": 25074, "original_language": "cn", "original_title": "\u5947\u8e5f", "overview": "A country boy becomes the head of a gang through the purchase of some lucky roses from an old lady. He and a singer at the gang's nightclub try to do a good deed for the old lady when her daughter comes to visit.", "poster_path": "/7249iDDj0Vpi5TGTIojO76eMl9E.jpg", "release_date": "1989-06-15", "title": "Miracles", "video": false, "vote_average": 6.9, "vote_count": 63, "popularity": 10.958}, {"adult": false, "backdrop_path": "/r3xsFBD1VTUusk393bBc7SsDUJe.jpg", "genre_ids": [80, 18, 53], "id": 553, "original_language": "en", "original_title": "Dogville", "overview": "A barren soundstage is stylishly utilized to create a minimalist small-town setting in which a mysterious woman named Grace hides from the criminals who pursue her. The town is two-faced and offers to harbor Grace as long as she can make it worth their effort, so Grace works hard under the employ of various townspeople to win their favor. Tensions flare, however, and Grace's status as a helpless outsider provokes vicious contempt and abuse from the citizens of Dogville.", "poster_path": "/g1xLrof2RVgtHBB4fLvR5Xr8l5x.jpg", "release_date": "2003-05-19", "title": "Dogville", "video": false, "vote_average": 7.8, "vote_count": 1359, "popularity": 16.355}, {"id": 311, "video": false, "vote_count": 2595, "vote_average": 8.4, "title": "Once Upon a Time in America", "release_date": "1984-05-23", "original_language": "en", "original_title": "Once Upon a Time in America", "genre_ids": [80, 18], "backdrop_path": "/vnT6HzjLSDrAweHn9xWykb8Ii6T.jpg", "adult": false, "overview": "A former Prohibition-era Jewish gangster returns to the Lower East Side of Manhattan over thirty years later, where he once again must confront the ghosts and regrets of his old life.", "poster_path": "/x733R4ISI0RbKeHhVkXdTMFmTFr.jpg", "popularity": 22.233}, {"adult": false, "backdrop_path": "/rSf0RYkPiMo9TyjHs2vI8rHlmfF.jpg", "genre_ids": [28, 18, 53], "id": 241554, "original_language": "en", "original_title": "Run All Night", "overview": "Brooklyn mobster and prolific hit man Jimmy Conlon has seen better days. Longtime best friend of a mob boss, Jimmy is haunted by the sins of his past\u2014as well as a dogged police detective who\u2019s been one step behind Jimmy for 30 years. But when Jimmy\u2019s estranged son becomes a target, Jimmy must make a choice between the crime family he chose and the real family he abandoned long ago. Now, with nowhere safe to turn, Jimmy has just one night to figure out exactly where his loyalties lie and to see if he can finally make things right.", "poster_path": "/aqNJrAxudMRNo8jg3HOUQqdl2xr.jpg", "release_date": "2015-03-11", "title": "Run All Night", "video": false, "vote_average": 6.4, "vote_count": 1821, "popularity": 23.621}, {"id": 169917, "video": false, "vote_count": 1812, "vote_average": 6.3, "title": "A Walk Among the Tombstones", "release_date": "2014-09-18", "original_language": "en", "original_title": "A Walk Among the Tombstones", "genre_ids": [80, 18, 9648, 53], "backdrop_path": "/e56QsaJy1weAUukiK2ZmIGVUALF.jpg", "adult": false, "overview": "Private investigator Matthew Scudder is hired by a drug kingpin to find out who kidnapped and murdered his wife.", "poster_path": "/xxe77USOk2tPnq7G4cL42gf1OxQ.jpg", "popularity": 19.65}, {"adult": false, "backdrop_path": "/useuHJQ5HOoEWkAvEjL1FW1sUfe.jpg", "genre_ids": [18], "id": 376867, "original_language": "en", "original_title": "Moonlight", "overview": "The tender, heartbreaking story of a young man\u2019s struggle to find himself, told across three defining chapters in his life as he experiences the ecstasy, pain, and beauty of falling in love, while grappling with his own sexuality.", "poster_path": "/qAwFbszz0kRyTuXmMeKQZCX3Q2O.jpg", "release_date": "2016-10-21", "title": "Moonlight", "video": false, "vote_average": 7.4, "vote_count": 4410, "popularity": 21.716}], "total_pages": 80, "total_results": 1591}, "recommendations": {"page": 1, "results": [], "total_pages": 1, "total_results": 0}, "credits": {"cast": [{"cast_id": 9, "character": "Jordan Coleman", "credit_id": "52fe492bc3a368484e11ddd7", "gender": 0, "id": 1077486, "name": "Stephen Schmaltz", "order": 0, "profile_path": null}, {"cast_id": 10, "character": "Chelsea Hammond", "credit_id": "52fe492bc3a368484e11dddb", "gender": 0, "id": 1077487, "name": "Catrina Fagundes", "order": 1, "profile_path": null}, {"cast_id": 11, "character": "Detective Sam Riley", "credit_id": "52fe492bc3a368484e11dddf", "gender": 0, "id": 1077488, "name": "Peter Wayne Burke", "order": 2, "profile_path": null}, {"cast_id": 12, "character": "Harrison Green", "credit_id": "52fe492bc3a368484e11dde3", "gender": 0, "id": 1077489, "name": "Charles Upshaw", "order": 3, "profile_path": null}, {"cast_id": 13, "character": "Copernicus Jones", "credit_id": "52fe492bc3a368484e11dde7", "gender": 0, "id": 1077490, "name": "Kent Burrell", "order": 4, "profile_path": null}, {"cast_id": 14, "character": "Quincy Brown", "credit_id": "52fe492bc3a368484e11ddeb", "gender": 0, "id": 1077491, "name": "Ty Mays", "order": 5, "profile_path": null}, {"cast_id": 15, "character": "Detective Natalie Carlson", "credit_id": "52fe492bc3a368484e11ddef", "gender": 0, "id": 1077492, "name": "Rachel C. Mobley", "order": 6, "profile_path": null}, {"cast_id": 16, "character": "Sheila Riley", "credit_id": "52fe492bc3a368484e11ddf3", "gender": 0, "id": 1077493, "name": "Laura Grieve", "order": 7, "profile_path": null}, {"cast_id": 17, "character": "Connie Coleman", "credit_id": "52fe492bc3a368484e11ddf7", "gender": 0, "id": 1077494, "name": "Susanna Fuller", "order": 8, "profile_path": null}, {"cast_id": 18, "character": "Nichole Coleman", "credit_id": "52fe492bc3a368484e11ddfb", "gender": 0, "id": 1077495, "name": "Jessica Corey", "order": 9, "profile_path": null}], "crew": [{"credit_id": "52fe492bc3a368484e11dda9", "department": "Directing", "gender": 0, "id": 1077478, "job": "Director", "name": "Chris Corey", "profile_path": null}, {"credit_id": "52fe492bc3a368484e11ddaf", "department": "Writing", "gender": 0, "id": 1077479, "job": "Writer", "name": "Chris Corey", "profile_path": null}, {"credit_id": "52fe492bc3a368484e11ddb5", "department": "Production", "gender": 0, "id": 1077480, "job": "Producer", "name": "Chris Corey", "profile_path": null}, {"credit_id": "52fe492bc3a368484e11ddbb", "department": "Editing", "gender": 0, "id": 1077481, "job": "Editor", "name": "Chris Corey", "profile_path": null}, {"credit_id": "52fe492bc3a368484e11ddc1", "department": "Production", "gender": 0, "id": 1077482, "job": "Executive Producer", "name": "Antonio K. Aramburu", "profile_path": null}, {"credit_id": "52fe492bc3a368484e11ddc7", "department": "Production", "gender": 1, "id": 1077483, "job": "Executive Producer", "name": "Jennifer Corey", "profile_path": null}, {"credit_id": "52fe492bc3a368484e11ddcd", "department": "Sound", "gender": 0, "id": 1077484, "job": "Original Music Composer", "name": "Alex Berninato", "profile_path": null}, {"credit_id": "52fe492bc3a368484e11ddd3", "department": "Crew", "gender": 0, "id": 1077485, "job": "Cinematography", "name": "Jeff Warner", "profile_path": null}]}}