{"adult": false, "backdrop_path": "/bXiPaNFKkLD2dE22oOrXYBgYifH.jpg", "belongs_to_collection": null, "budget": 0, "genres": [{"id": 18, "name": "Drama"}], "homepage": null, "id": 76205, "imdb_id": "tt0099901", "original_language": "fr", "original_title": "Jours tranquilles \u00e0 Clichy", "overview": "Expatriate Henry Miller indulges in a variety of sexual escapades while struggling to establish himself as a serious writer in Paris.", "popularity": 3.169, "poster_path": "/2mueSzlsoWIvTNXH0mHdthTVnZe.jpg", "production_companies": [{"id": 1042, "logo_path": null, "name": "Cinecitt\u00e0", "origin_country": ""}, {"id": 12725, "logo_path": null, "name": "Italfrance Films", "origin_country": ""}, {"id": 25207, "logo_path": null, "name": "TV-Or", "origin_country": ""}, {"id": 25208, "logo_path": null, "name": "AZ Film Production", "origin_country": ""}, {"id": 25210, "logo_path": null, "name": "Direkt-Film", "origin_country": ""}], "production_countries": [{"iso_3166_1": "FR", "name": "France"}, {"iso_3166_1": "DE", "name": "Germany"}, {"iso_3166_1": "IT", "name": "Italy"}], "release_date": "1990-05-09", "revenue": 0, "runtime": 116, "spoken_languages": [{"iso_639_1": "fr", "name": "Fran\u00e7ais"}], "status": "Released", "tagline": "", "title": "Quiet Days in Clichy", "video": false, "vote_average": 4.4, "vote_count": 5, "keywords": {"keywords": [{"id": 1664, "name": "eroticism"}]}, "similar": {"page": 1, "results": [{"id": 345, "video": false, "vote_count": 3077, "vote_average": 7.4, "title": "Eyes Wide Shut", "release_date": "1999-07-16", "original_language": "en", "original_title": "Eyes Wide Shut", "genre_ids": [18, 9648, 53], "backdrop_path": "/nxJ05LTOxmbTKdOA7kXcnijC2K9.jpg", "adult": false, "overview": "After Dr. Bill Harford's wife, Alice, admits to having sexual fantasies about a man she met, Bill becomes obsessed with having a sexual encounter. He discovers an underground sexual group and attends one of their meetings -- and quickly discovers that he is in over his head.", "poster_path": "/3mcSzcjUZSDFIUtuJZ7hNNGJGW1.jpg", "popularity": 20.781}, {"id": 1378, "video": false, "vote_count": 256, "vote_average": 6.3, "title": "Shortbus", "release_date": "2006-05-20", "original_language": "en", "original_title": "Shortbus", "genre_ids": [35, 18, 10749], "backdrop_path": "/q0fWiFPHQy42g41mxNxci2QxTIW.jpg", "adult": false, "overview": "A group of New Yorkers caught up in their milieu converge at an underground salon infamous for its blend of art, music, politics, and carnality. The characters converge in a weekly Brooklyn social/artistic/sexual salon \"Shortbus\", loosely inspired by various underground NYC gatherings that took place in the early 2000's. Here, gay couple Jamie (P J DeBoy) and James (Paul Dawson) meet a young ex-model and aspiring singer Ceth (Jay Brannan).", "poster_path": "/iaS9XXoHW6ZVveu6wpLaTv1Bv29.jpg", "popularity": 13.824}, {"adult": false, "backdrop_path": "/tvTyRu9eKfymkje8d9VoWJEoyUv.jpg", "genre_ids": [18], "id": 53932, "original_language": "es", "original_title": "Las edades de Lul\u00fa", "overview": "Fifteen-year-old Lulu has never known any affection from her family. But when she goes to a rock concert with Pablo, a friend of the family, he introduces Lulu to her first sexual experience. Years later, Pablo and Lulu have married; Pablo has created a sheltered, private world for Lulu, into which nothing intrudes. However, Lulu tires of her cloistered existence, and begins hanging out in shady bars, looking for vicarious thrills and danger.", "poster_path": "/5PK5MAN84o0ESgzeW9euozOLIEe.jpg", "release_date": "1990-12-13", "title": "The Ages of Lulu", "video": false, "vote_average": 5.7, "vote_count": 64, "popularity": 24.141}, {"id": 10497, "video": false, "vote_count": 282, "vote_average": 7.0, "title": "Bitter Moon", "release_date": "1992-09-02", "original_language": "en", "original_title": "Bitter Moon", "genre_ids": [18, 53, 10749], "backdrop_path": "/aQEByvmVJHPcGXzdYYFJhSitaGW.jpg", "adult": false, "overview": "An embittered husband, paralyzed and in a wheelchair, buttonholes a complete stranger and begins to tell him the story of his marriage. The stranger would like to escape, but cannot. For one thing he grows fascinated by the story. For another he is mesmerized by the man's wife, who has perfected that trick of looking a man boldly in the eye until, by looking away, he concedes sexual supremacy.", "poster_path": "/hGvO7nzNc9S2qKaY2blBb3qHHkQ.jpg", "popularity": 15.264}, {"id": 1412, "video": false, "vote_count": 394, "vote_average": 6.9, "title": "sex, lies, and videotape", "release_date": "1989-08-18", "original_language": "en", "original_title": "sex, lies, and videotape", "genre_ids": [18], "backdrop_path": "/esCRA7XoKR95PmbzmcbrfhcXQNN.jpg", "adult": false, "overview": "A sexually repressed woman's husband is having an affair with her sister. The arrival of a visitor with a rather unusual fetish changes everything.", "poster_path": "/kOXATYKziiKmoMxgKA10JOO13JZ.jpg", "popularity": 14.045}, {"id": 64586, "video": false, "vote_count": 347, "vote_average": 5.3, "title": "Sleeping Beauty", "release_date": "2011-06-10", "original_language": "en", "original_title": "Sleeping Beauty", "genre_ids": [18, 10749], "backdrop_path": "/6V1a4GHhyjr5niyYCGkyVB9rT6F.jpg", "adult": false, "overview": "A haunting erotic fairytale about Lucy, a young University student drawn into a mysterious hidden world of beauty and desire.", "poster_path": "/9fc7K82At056IlrK9dOzPSQYhSY.jpg", "popularity": 11.37}, {"adult": false, "backdrop_path": "/3mEfawlJnuu4OmUlAOesrAMsWv6.jpg", "genre_ids": [53, 27], "id": 9540, "original_language": "en", "original_title": "Dead Ringers", "overview": "Elliot, a successful gynecologist, works at the same practice as his identical twin, Beverly. Elliot is attracted to many of his patients and has affairs with them. When he inevitably loses interest, he will give the woman over to Beverly, the meeker of the two, without the woman knowing the difference. Beverly falls hard for one of the patients, Claire, but when she inadvertently deceives him, he slips into a state of madness.", "poster_path": "/9ZGBwiWIvN9KmHaLeSS5it44G21.jpg", "release_date": "1988-09-23", "title": "Dead Ringers", "video": false, "vote_average": 7.2, "vote_count": 388, "popularity": 10.111}, {"adult": false, "backdrop_path": "/bYbnlh6VXFRtcSX82UMDsBDLB5j.jpg", "genre_ids": [18, 10749], "id": 28468, "original_language": "it", "original_title": "La chiave", "overview": "After twenty years of marriage, art professor Nino Rolfe attempts to break down his wife Teresa's conventional modesty. Noticing her affection for their daughter's fianc\u00e9, Nino instigates her sexual interest in him as well. This sets off a chain of unexpected events and emotional complications, as Nino and his unpredictable fascist daughter find that they both enjoy being jealous.", "poster_path": "/e6g2geNLgFzMbriH6EvSJZD78nx.jpg", "release_date": "1983-10-18", "title": "The Key", "video": false, "vote_average": 5.0, "vote_count": 128, "popularity": 15.363}, {"adult": false, "backdrop_path": "/xC9cG6Wy6QbH2hoAx11xPPD995R.jpg", "genre_ids": [18, 10749], "id": 86331, "original_language": "fr", "original_title": "Q", "overview": "In a social context deteriorated by a countrywide economic crisis, the life of several people will be turned upside down after they meet Cecile, a character who symbolizes desire.", "poster_path": "/9Jg9s4yTEndNmy1SSXRF9jdxY9D.jpg", "release_date": "2011-09-14", "title": "Desire", "video": false, "vote_average": 4.6, "vote_count": 204, "popularity": 25.756}, {"adult": false, "backdrop_path": "/eHhtUoazdml8CMvzWtpunIyqrZS.jpg", "genre_ids": [18, 53, 10749], "id": 884, "original_language": "en", "original_title": "Crash", "overview": "After getting into a serious car accident, a TV director discovers an underground sub-culture of scarred, omnisexual car-crash victims who use car accidents and the raw sexual energy they produce to try to rejuvenate his sex life with his wife.", "poster_path": "/4PDLGJsS5uVBQlYjLMZ7t85dU0P.jpg", "release_date": "1996-07-17", "title": "Crash", "video": false, "vote_average": 6.5, "vote_count": 438, "popularity": 14.59}, {"adult": false, "backdrop_path": "/fwreQBx5CD55c1DpH117cS8915P.jpg", "genre_ids": [18, 53], "id": 867, "original_language": "en", "original_title": "Sliver", "overview": "A woman moves into an apartment in Manhattan and learns that the previous tenant's life ended mysteriously after they fell from the balcony.", "poster_path": "/av21Dfu31DQPtp5jkorMMS58rQC.jpg", "release_date": "1993-05-21", "title": "Sliver", "video": false, "vote_average": 5.3, "vote_count": 288, "popularity": 19.094}, {"adult": false, "backdrop_path": "/tk6QB32plylH41eo2Pbv4sIVljO.jpg", "genre_ids": [18], "id": 50270, "original_language": "it", "original_title": "Paprika", "overview": "A young country girl comes to town and works in a brothel in order to help her fiance get the money to start his own business. \"Paprika\" is the name given to her by the madam.", "poster_path": "/6QthFTJvUheocw3fcKklnsMcGib.jpg", "release_date": "1991-02-13", "title": "Paprika", "video": false, "vote_average": 5.9, "vote_count": 81, "popularity": 19.933}, {"id": 2057, "video": false, "vote_count": 429, "vote_average": 5.9, "title": "Original Sin", "release_date": "2001-05-08", "original_language": "en", "original_title": "Original Sin", "genre_ids": [53], "backdrop_path": "/is3I5v8FwLiEWxaksfN8D4MLNGH.jpg", "adult": false, "overview": "A young man is plunged into a life of subterfuge, deceit and mistaken identity in pursuit of a femme fatale whose heart is never quite within his grasp", "poster_path": "/yGis1Mai4ivspEXdWtXLg0bZPkX.jpg", "popularity": 18.232}, {"id": 402, "video": false, "vote_count": 1776, "vote_average": 6.7, "title": "Basic Instinct", "release_date": "1992-03-20", "original_language": "en", "original_title": "Basic Instinct", "genre_ids": [9648, 53], "backdrop_path": "/bKdxJMqvr4wltzAQaieA6CTkaa9.jpg", "adult": false, "overview": "A police detective is in charge of the investigation of a brutal murder, in which a beautiful and seductive woman could be involved.", "poster_path": "/p1DHOfLFZmM567ePKfFNMV4mY92.jpg", "popularity": 23.513}, {"adult": false, "backdrop_path": "/g9Ug1tS5JT255V8VrpZBDx2EbVB.jpg", "genre_ids": [18, 10749], "id": 10068, "original_language": "en", "original_title": "Nine 1/2 Weeks", "overview": "An erotic story about a woman, the assistant of an art gallery, who gets involved in an impersonal affair with a man. She barely knows about his life, only about the sex games they play, so the relationship begins to get complicated.", "poster_path": "/6dQr0DYeWLUbvrPjXdfu0h6UEl1.jpg", "release_date": "1986-02-14", "title": "Nine 1/2 Weeks", "video": false, "vote_average": 5.9, "vote_count": 429, "popularity": 16.123}, {"id": 19173, "video": false, "vote_count": 148, "vote_average": 5.8, "title": "Diary of a Nymphomaniac", "release_date": "2008-10-14", "original_language": "es", "original_title": "Diario de una ninf\u00f3mana", "genre_ids": [18, 10749], "backdrop_path": "/xLLEnooX1nDTRrK7lFTBp1jWlXI.jpg", "adult": false, "overview": "A chronicle of the life of a middle-class French girl's sexual adventures, her then fall into prostitution, and her ultimate redemption.", "poster_path": "/elirjGAdeBGnABADayf6EtSsXzK.jpg", "popularity": 17.934}, {"id": 26648, "video": false, "vote_count": 114, "vote_average": 7.0, "title": "The Night Porter", "release_date": "1974-04-03", "original_language": "it", "original_title": "Il portiere di notte", "genre_ids": [18, 10749], "backdrop_path": "/xbQPQQ4VbzNM4GYSDiYzsVPX2LH.jpg", "adult": false, "overview": "A concentration camp survivor discovers her former torturer and lover working as a porter at a hotel in postwar Vienna. When the couple attempt to re-create their sadomasochistic relationship, his former SS comrades begin to stalk them.", "poster_path": "/qrUtVZB0yTCzfz4DdmsKRdmjtFQ.jpg", "popularity": 10.054}, {"id": 796, "video": false, "vote_count": 1736, "vote_average": 6.6, "title": "Cruel Intentions", "release_date": "1999-03-05", "original_language": "en", "original_title": "Cruel Intentions", "genre_ids": [18, 10749], "backdrop_path": "/74OOkCoNbMb5bDg1AVXQxmGUTex.jpg", "adult": false, "overview": "Slaking a thirst for dangerous games, Kathryn challenges her stepbrother, Sebastian, to deflower their headmaster's daughter before the summer ends. If he succeeds, the prize is the chance to bed Kathryn. But if he loses, Kathryn will claim his most prized possession.", "poster_path": "/6RQu0J2u7viDa34Nn98sKaHv5jD.jpg", "popularity": 13.854}, {"adult": false, "backdrop_path": "/yl0siKWmGjnBcuCEacKyW0vHsWq.jpg", "genre_ids": [10749, 18], "id": 409387, "original_language": "ko", "original_title": "\uc815\uc0ac : \uacb0\ud63c \ub9d0\uace0 \uc5f0\uc560", "overview": "\"Getting married is crazy! I only want to be in relationships!\" The life story of a woman who doesn't want to settle for one man. Her mom nags at her to get married, her superior grills her to bring results and her boyfriend turns out to be married. Soo-kyeong comforts herself with some spicy food. One lonely birthday, she ends up having sex with the chef of the spicy food restaurant. They fit well mentally and physically so they get closer but Soo-kyeong rejects the chef's marriage proposal. The chef gets married with someone else and asks her, \"I got married with someone else like you said. Now will you have a relationship with me?\"", "poster_path": "/4hiv07Quj8A7J8onCIAjNCy62Er.jpg", "release_date": "2016-04-19", "title": "Sex: A Relationship and Not Marriage", "video": false, "vote_average": 7.7, "vote_count": 3, "popularity": 11.678}, {"id": 12531, "video": false, "vote_count": 91, "vote_average": 6.9, "title": "The Apartment", "release_date": "1996-07-27", "original_language": "fr", "original_title": "L'Appartement", "genre_ids": [18, 9648, 10749], "backdrop_path": "/64qyT8m4JQ6YODvXxtbHgKmXBX7.jpg", "adult": false, "overview": "A stylish suspense thriller that confounds the audience while presenting them with an extraordinary and elusive mystery. Max is a former playboy who has decided to settle down by marrying his current love, Muriel. However, during a business trip, Max catches a glimpse of the great lost love of his life, reviving his wanderlust and sending him off on a chase of the elusive Lisa, whom he had overheard suggesting to a friend that her lover, Daniel, had killed someone for her. Soon, Max is trying to unravel the mystery behind the suspicious death of Daniel's wife, which he hopes will lead him closer to Lisa.", "poster_path": "/1sqrQdQTn8jKLhUcPKfRVj639zA.jpg", "popularity": 19.17}], "total_pages": 118, "total_results": 2351}, "recommendations": {"page": 1, "results": [], "total_pages": 1, "total_results": 0}, "credits": {"cast": [{"cast_id": 15, "character": "Henry Miller", "credit_id": "52fe492cc3a368484e11e0c7", "gender": 2, "id": 37041, "name": "Andrew McCarthy", "order": 0, "profile_path": "/bn6djJHhLF6dTIz5H3UvuCFoeLm.jpg"}, {"cast_id": 16, "character": "Alfred Perl\u00e8s", "credit_id": "52fe492cc3a368484e11e0cb", "gender": 2, "id": 53517, "name": "Nigel Havers", "order": 1, "profile_path": "/hZNkoh83CUAlOmqMwAz7i1jwWgi.jpg"}, {"cast_id": 17, "character": "Nys", "credit_id": "52fe492cc3a368484e11e0cf", "gender": 0, "id": 100055, "name": "Barbara De Rossi", "order": 2, "profile_path": "/5pZtRwN1wm5Y1NpQqT3kwSqNRLh.jpg"}, {"cast_id": 24, "character": "Colette Ducarouge", "credit_id": "595a1c07925141222b01d3cc", "gender": 1, "id": 1583509, "name": "St\u00e9phanie Tchou-Cotta", "order": 3, "profile_path": "/eAEm0zRrYaA7eqq2V28wbBxhTa2.jpg"}, {"cast_id": 23, "character": "Ernest Regentag", "credit_id": "52fe492cc3a368484e11e0e7", "gender": 2, "id": 10254, "name": "Mario Adorf", "order": 4, "profile_path": "/dCusK8NWuHzrI3Abf8nDNfe3DfA.jpg"}, {"cast_id": 22, "character": "Adrienne", "credit_id": "52fe492cc3a368484e11e0e3", "gender": 1, "id": 19092, "name": "St\u00e9phane Audran", "order": 5, "profile_path": "/nsDewAkYIclnQR06ZYuwb57Yiwm.jpg"}, {"cast_id": 20, "character": "Yvonne", "credit_id": "52fe492cc3a368484e11e0db", "gender": 1, "id": 103160, "name": "Eva Grimaldi", "order": 6, "profile_path": "/tSTHQ9c0Jizsa6m86ABc2i2v8xr.jpg"}, {"cast_id": 21, "character": "Edith", "credit_id": "52fe492cc3a368484e11e0df", "gender": 1, "id": 27391, "name": "Anna Galiena", "order": 7, "profile_path": "/958wVgr0CXvMu1pMWwIT8XpAa2U.jpg"}, {"cast_id": 19, "character": "Ania Regentag", "credit_id": "52fe492cc3a368484e11e0d7", "gender": 0, "id": 37345, "name": "Isolde Barth", "order": 8, "profile_path": "/yYjQDCoCYopMfaQg3xNpIu8Cpvs.jpg"}, {"cast_id": 25, "character": "prostituta (non accreditata)", "credit_id": "59dc9d34c3a368620d065739", "gender": 1, "id": 100425, "name": "M\u00f3nica Zanchi", "order": 9, "profile_path": "/gSXLlxNc93T4QW3Z4M7uze5NJp0.jpg"}, {"cast_id": 29, "character": "(as Margie Newton)", "credit_id": "5a75e8d70e0a266439039037", "gender": 1, "id": 588158, "name": "Margit Evelyn Newton", "order": 10, "profile_path": "/eSbGXJi43vDwTzINeaMzSHq7rFW.jpg"}, {"cast_id": 27, "character": "padre di Colette", "credit_id": "59dc9e4cc3a3686200074add", "gender": 0, "id": 1425954, "name": "Jacques Brunet", "order": 11, "profile_path": null}, {"cast_id": 28, "character": "madre di Colette", "credit_id": "59dc9e6292514124cd073181", "gender": 1, "id": 119178, "name": "B\u00e9atrice Kruger", "order": 12, "profile_path": null}, {"cast_id": 30, "character": "Gustave", "credit_id": "5cf71fa49251416737ba3d48", "gender": 2, "id": 13697, "name": "Dominique Zardi", "order": 13, "profile_path": "/oOvnUGvgDX9mVxOYwkuUk1pljIV.jpg"}], "crew": [{"credit_id": "52fe492cc3a368484e11e0ab", "department": "Sound", "gender": 2, "id": 4278, "job": "Original Music Composer", "name": "Jean-Michel Bernard", "profile_path": null}, {"credit_id": "52fe492cc3a368484e11e07b", "department": "Writing", "gender": 2, "id": 19069, "job": "Screenplay", "name": "Claude Chabrol", "profile_path": "/tsG0YNUREk7fGVaDKpwvuFBi59O.jpg"}, {"credit_id": "52fe492cc3a368484e11e075", "department": "Directing", "gender": 2, "id": 19069, "job": "Director", "name": "Claude Chabrol", "profile_path": "/tsG0YNUREk7fGVaDKpwvuFBi59O.jpg"}, {"credit_id": "52fe492cc3a368484e11e0bd", "department": "Camera", "gender": 2, "id": 19086, "job": "Director of Photography", "name": "Jean Rabier", "profile_path": "/29EbAiWCdqcvhjpcaNZZ93fF2mO.jpg"}, {"credit_id": "52fe492cc3a368484e11e0b7", "department": "Sound", "gender": 2, "id": 19167, "job": "Original Music Composer", "name": "Matthieu Chabrol", "profile_path": null}, {"credit_id": "52fe492cc3a368484e11e0c3", "department": "Editing", "gender": 1, "id": 19169, "job": "Editor", "name": "Monique Fardoulis", "profile_path": null}, {"credit_id": "52fe492cc3a368484e11e0a5", "department": "Production", "gender": 0, "id": 73631, "job": "Producer", "name": "Alfonso Sansone", "profile_path": null}, {"credit_id": "52fe492cc3a368484e11e09f", "department": "Production", "gender": 0, "id": 101570, "job": "Producer", "name": "Gabriel Rossini", "profile_path": null}, {"credit_id": "52fe492cc3a368484e11e08d", "department": "Production", "gender": 0, "id": 103118, "job": "Executive Producer", "name": "Pietro Innocenzi", "profile_path": null}, {"credit_id": "52fe492cc3a368484e11e087", "department": "Writing", "gender": 2, "id": 206299, "job": "Novel", "name": "Henry Miller", "profile_path": "/8PqO5UmzCtg3ujS6Pa6JV4uqAjN.jpg"}, {"credit_id": "52fe492cc3a368484e11e093", "department": "Production", "gender": 0, "id": 251135, "job": "Producer", "name": "Antonio Passalia", "profile_path": "/gcgorUQM3JHzPIlUH2zgDDZ3JgI.jpg"}, {"credit_id": "52fe492cc3a368484e11e081", "department": "Writing", "gender": 0, "id": 359254, "job": "Screenplay", "name": "Ugo Leonzio", "profile_path": null}, {"credit_id": "52fe492cc3a368484e11e0b1", "department": "Sound", "gender": 0, "id": 519846, "job": "Original Music Composer", "name": "Luigi Ceccarelli", "profile_path": null}, {"credit_id": "52fe492cc3a368484e11e099", "department": "Production", "gender": 0, "id": 578032, "job": "Producer", "name": "Juraj Chmel", "profile_path": null}]}}