{"adult": false, "backdrop_path": "/eZIx58b6dGyYnw86wbWMdv0xroW.jpg", "belongs_to_collection": null, "budget": 0, "genres": [{"id": 18, "name": "Drama"}, {"id": 12, "name": "Adventure"}], "homepage": null, "id": 76269, "imdb_id": "tt0048662", "original_language": "en", "original_title": "Storm Over the Nile", "overview": "Storm Over the Nile is a 1955 film adaptation of the novel The Four Feathers, directed by Terence Young. The film not only extensively used footage of the action scenes from the 1939 film version stretched into CinemaScope, but exactly the same screenplay, almost line-for-line also then directed by Zoltan Korda as well as several pieces of music by the original composer Miklos Rozsa. It featured Anthony Steel, Laurence Harvey, James Robertson Justice, Mary Ure, Ian Carmichael, Michael Horden and Christopher Lee.[2] The film was shot on location in the Sudan.", "popularity": 3.384, "poster_path": "/5IQh4H5tV2zrJkk25MfjuAVNWR4.jpg", "production_companies": [{"id": 659, "logo_path": null, "name": "London Film Productions", "origin_country": ""}, {"id": 25, "logo_path": "/qZCc1lty5FzX30aOCVRBLzaVmcp.png", "name": "20th Century Fox", "origin_country": "US"}], "production_countries": [{"iso_3166_1": "GB", "name": "United Kingdom"}], "release_date": "1955-12-26", "revenue": 0, "runtime": 107, "spoken_languages": [{"iso_639_1": "fr", "name": "Fran\u00e7ais"}, {"iso_639_1": "en", "name": "English"}], "status": "Released", "tagline": "", "title": "Storm Over the Nile", "video": false, "vote_average": 7.4, "vote_count": 4, "keywords": {"keywords": [{"id": 818, "name": "based on novel or book"}, {"id": 5951, "name": "sudan"}, {"id": 9714, "name": "remake"}, {"id": 207928, "name": "19th century"}, {"id": 254525, "name": "khartoum"}]}, "similar": {"page": 1, "results": [{"adult": false, "backdrop_path": "/kiWvoV78Cc3fUwkOHKzyBgVdrDD.jpg", "genre_ids": [37, 18, 12], "id": 281957, "original_language": "en", "original_title": "The Revenant", "overview": "In the 1820s, a frontiersman, Hugh Glass, sets out on a path of vengeance against those who left him for dead after a bear mauling.", "poster_path": "/oXUWEc5i3wYyFnL1Ycu8ppxxPvs.jpg", "release_date": "2015-12-25", "title": "The Revenant", "video": false, "vote_average": 7.5, "vote_count": 12122, "popularity": 30.491}, {"adult": false, "backdrop_path": "/dLAPTvBwEdP4h7a14isNc0HwmOj.jpg", "genre_ids": [18, 10749], "id": 250734, "original_language": "en", "original_title": "Far from the Madding Crowd", "overview": "Based on the literary classic by Thomas Hardy. Bathsheba Everdene, attracts three very different suitors: Gabriel Oak, a sheep farmer, captivated by her fetching willfulness; Frank Troy, a handsome and reckless Sergeant; and William Boldwood, a prosperous and mature bachelor. This timeless story of Bathsheba's choices and passions explores the nature of relationships and love \u2013 as well as the human ability to overcome hardships through resilience and perseverance.", "poster_path": "/6v1DEaO2TZzrqcaGohUf1K7BXkU.jpg", "release_date": "2015-04-23", "title": "Far from the Madding Crowd", "video": false, "vote_average": 7.0, "vote_count": 643, "popularity": 14.468}, {"adult": false, "backdrop_path": "/sRJjliXA7ZqHCr7HCK0ZB83xxjr.jpg", "genre_ids": [12, 28, 878], "id": 101299, "original_language": "en", "original_title": "The Hunger Games: Catching Fire", "overview": "Katniss Everdeen has returned home safe after winning the 74th Annual Hunger Games along with fellow tribute Peeta Mellark. Winning means that they must turn around and leave their family and close friends, embarking on a \"Victor's Tour\" of the districts. Along the way Katniss senses that a rebellion is simmering, but the Capitol is still very much in control as President Snow prepares the 75th Annual Hunger Games (The Quarter Quell) - a competition that could change Panem forever.", "poster_path": "/Hn0KgefVEp0GkdTexS6gfKTMfi.jpg", "release_date": "2013-11-15", "title": "The Hunger Games: Catching Fire", "video": false, "vote_average": 7.4, "vote_count": 12024, "popularity": 30.047}, {"adult": false, "backdrop_path": "/GRyynLqafMrLFMHqvfGdUweavA.jpg", "genre_ids": [27, 18, 14], "id": 628, "original_language": "en", "original_title": "Interview with the Vampire", "overview": "A vampire relates his epic life story of love, betrayal, loneliness, and dark hunger to an over-curious reporter.", "poster_path": "/hldXwwViSfHJS0kIJr07KBGmHJI.jpg", "release_date": "1994-11-11", "title": "Interview with the Vampire", "video": false, "vote_average": 7.3, "vote_count": 3229, "popularity": 20.093}, {"id": 8619, "video": false, "vote_count": 1674, "vote_average": 7.1, "title": "Master and Commander: The Far Side of the World", "release_date": "2003-11-14", "original_language": "en", "original_title": "Master and Commander: The Far Side of the World", "genre_ids": [12, 18, 10752], "backdrop_path": "/uuPbSNgk2dfhMH8l4cKSQUBBk6k.jpg", "adult": false, "overview": "After an abrupt and violent encounter with a French warship inflicts severe damage upon his ship, a captain of the British Royal Navy begins a chase over two oceans to capture or destroy the enemy, though he must weigh his commitment to duty and ferocious pursuit of glory against the safety of his devoted crew, including the ship's thoughtful surgeon, his best friend.", "poster_path": "/s1cVTQEZYn4nSjZLnFbzLP0j8y2.jpg", "popularity": 33.538}, {"adult": false, "backdrop_path": "/hm8Gux0946IfeJ1PZwztOo6lVHH.jpg", "genre_ids": [18, 36, 35], "id": 450322, "original_language": "en", "original_title": "The Man Who Invented Christmas", "overview": "In 1843, despite the fact that Dickens is a successful writer, the failure of his latest book puts his career at a crossroads, until the moment when, struggling with inspiration and confronting reality with his childhood memories, a new character is born in the depths of his troubled mind; an old, lonely, embittered man, so vivid, so human, that a whole world grows around him, a story so inspiring that changed the meaning of Christmas forever.", "poster_path": "/xYCuRgEKynGurSEooxDa9pQPF7n.jpg", "release_date": "2017-10-12", "title": "The Man Who Invented Christmas", "video": false, "vote_average": 6.7, "vote_count": 395, "popularity": 13.295}, {"adult": false, "backdrop_path": "/sw7mordbZxgITU877yTpZCud90M.jpg", "genre_ids": [18, 80], "id": 769, "original_language": "en", "original_title": "GoodFellas", "overview": "The true story of Henry Hill, a half-Irish, half-Sicilian Brooklyn kid who is adopted by neighbourhood gangsters at an early age and climbs the ranks of a Mafia family under the guidance of Jimmy Conway.", "poster_path": "/pwpGfTImTGifEGgLb3s6LRPd4I6.jpg", "release_date": "1990-09-12", "title": "GoodFellas", "video": false, "vote_average": 8.4, "vote_count": 6553, "popularity": 33.23}, {"adult": false, "backdrop_path": "/fewP7EsMEnfqqcx4qYHKSKebwkF.jpg", "genre_ids": [28, 18, 36], "id": 2669, "original_language": "en", "original_title": "The Bounty", "overview": "The familiar story of Lieutenant Bligh, whose cruelty leads to a mutiny on his ship. This version follows both the efforts of Fletcher Christian to get his men beyond the reach of British retribution, and the epic voyage of Lieutenant Bligh to get his loyalists safely to East Timor in a tiny lifeboat.", "poster_path": "/hXFXIc6F4NXI5emWCKcUwqEPjIZ.jpg", "release_date": "1984-05-04", "title": "The Bounty", "video": false, "vote_average": 6.7, "vote_count": 246, "popularity": 11.928}, {"adult": false, "backdrop_path": "/jArl1j9sL2mYjRW23EaZKWAr2E8.jpg", "genre_ids": [18, 36], "id": 399121, "original_language": "fr", "original_title": "J\u2019accuse", "overview": "In 1894, French Captain Alfred Dreyfus is wrongfully convicted of treason and sentenced to life imprisonment at Devil's Island.", "poster_path": "/xMCJhioKlEBoWAJM9aCBKR8J3BT.jpg", "release_date": "2019-09-30", "title": "An Officer and a Spy", "video": false, "vote_average": 7.4, "vote_count": 275, "popularity": 12.138}, {"id": 410117, "video": false, "vote_count": 321, "vote_average": 6.6, "title": "Lady Macbeth", "release_date": "2016-12-12", "original_language": "en", "original_title": "Lady Macbeth", "genre_ids": [18], "backdrop_path": "/wztoDoglCOuiEfzl1FS6mglBioF.jpg", "adult": false, "overview": "Rural England, 1865. Katherine, suffocated by her loveless marriage to a bitter man and restrained by his father's tyranny, unleashes an irresistible force within her, so powerful that she will stop at nothing to get what she wants.", "poster_path": "/xWTJbhTwSTJmhLlX5xAOxPhdnXc.jpg", "popularity": 14.129}, {"adult": false, "backdrop_path": "/bvbyidkMaBls1LTaIWYY6UmYTaL.jpg", "genre_ids": [28, 878], "id": 336843, "original_language": "en", "original_title": "Maze Runner: The Death Cure", "overview": "Thomas leads his group of escaped Gladers on their final and most dangerous mission yet. To save their friends, they must break into the legendary Last City, a WCKD-controlled labyrinth that may turn out to be the deadliest maze of all. Anyone who makes it out alive will get answers to the questions the Gladers have been asking since they first arrived in the maze.", "poster_path": "/2zYfzA3TBwrMC8tfFbpiTLODde0.jpg", "release_date": "2018-01-10", "title": "Maze Runner: The Death Cure", "video": false, "vote_average": 7.0, "vote_count": 4393, "popularity": 24.242}, {"id": 2454, "video": false, "vote_count": 3951, "vote_average": 6.5, "title": "The Chronicles of Narnia: Prince Caspian", "release_date": "2008-05-15", "original_language": "en", "original_title": "The Chronicles of Narnia: Prince Caspian", "genre_ids": [12, 14, 10751], "backdrop_path": "/eiET76GO3xECOic1rL8VcTLuy3L.jpg", "adult": false, "overview": "One year after their incredible adventures in the Lion, the Witch and the Wardrobe, Peter, Edmund, Lucy and Susan Pevensie return to Narnia to aid a young prince whose life has been threatened by the evil King Miraz. Now, with the help of a colorful cast of new characters, including Trufflehunter the badger and Nikabrik the dwarf, the Pevensie clan embarks on an incredible quest to ensure that Narnia is returned to its rightful heir.", "poster_path": "/kSSyzqw9C4wUggicG4D81XmptR1.jpg", "popularity": 20.084}, {"id": 50619, "video": false, "vote_count": 5591, "vote_average": 6.0, "title": "The Twilight Saga: Breaking Dawn - Part 1", "release_date": "2011-03-15", "original_language": "en", "original_title": "The Twilight Saga: Breaking Dawn - Part 1", "genre_ids": [12, 14, 10749], "backdrop_path": "/fwhRNjMmwqeGH35eQonSPmQs2ah.jpg", "adult": false, "overview": "The new found married bliss of Bella Swan and vampire Edward Cullen is cut short when a series of betrayals and misfortunes threatens to destroy their world.", "poster_path": "/dSSzv6JrlwS48pBeTNSswLJXOYF.jpg", "popularity": 21.972}, {"id": 457799, "video": false, "vote_count": 1569, "vote_average": 7.0, "title": "Extremely Wicked, Shockingly Evil and Vile", "release_date": "2019-05-02", "original_language": "en", "original_title": "Extremely Wicked, Shockingly Evil and Vile", "genre_ids": [80, 18, 53], "backdrop_path": "/uRoA67sM5vvCI4cplxhl67BTPly.jpg", "adult": false, "overview": "A chronicle of the crimes of Ted Bundy, from the perspective of his longtime girlfriend, Elizabeth Kloepfer, who refused to believe the truth about him for years.", "poster_path": "/zSuJ3r5zr5T26tTxyygHhgkUAIM.jpg", "popularity": 20.961}, {"id": 76285, "video": false, "vote_count": 3421, "vote_average": 5.9, "title": "Percy Jackson: Sea of Monsters", "release_date": "2013-08-07", "original_language": "en", "original_title": "Percy Jackson: Sea of Monsters", "genre_ids": [12, 14, 10751], "backdrop_path": "/3NK02PLJSs01SY1hsXUAcqbG3WP.jpg", "adult": false, "overview": "In their quest to confront the ultimate evil, Percy and his friends battle swarms of mythical creatures to find the mythical Golden Fleece and to stop an ancient evil from rising.", "poster_path": "/k1bhUW7XM5X0yD3iewAEvloFBEo.jpg", "popularity": 23.749}, {"adult": false, "backdrop_path": "/mAXgaPxxUQg6U446yz8KPRYSUT.jpg", "genre_ids": [12, 18, 10751], "id": 44826, "original_language": "en", "original_title": "Hugo", "overview": "Orphaned and alone except for an uncle, Hugo Cabret lives in the walls of a train station in 1930s Paris. Hugo's job is to oil and maintain the station's clocks, but to him, his more important task is to protect a broken automaton and notebook left to him by his late father. Accompanied by the goddaughter of an embittered toy merchant, Hugo embarks on a quest to solve the mystery of the automaton and find a place he can call home.", "poster_path": "/rSmmVKeW3nsP86V2S6R7ePs4CFw.jpg", "release_date": "2011-11-22", "title": "Hugo", "video": false, "vote_average": 7.1, "vote_count": 4577, "popularity": 19.298}, {"id": 68737, "video": false, "vote_count": 1669, "vote_average": 5.3, "title": "Seventh Son", "release_date": "2014-12-12", "original_language": "en", "original_title": "Seventh Son", "genre_ids": [12, 14], "backdrop_path": "/iAX8lPlDEeGHatw79k1LfGLbTi2.jpg", "adult": false, "overview": "John Gregory, who is a seventh son of a seventh son and also the local spook, has protected the country from witches, boggarts, ghouls and all manner of things that go bump in the night. However John is not young anymore, and has been seeking an apprentice to carry on his trade. Most have failed to survive. The last hope is a young farmer's son named Thomas Ward. Will he survive the training to become the spook that so many others couldn't?", "poster_path": "/zzfzErL8HIyNTRqBHqZAVvEKJ54.jpg", "popularity": 23.636}, {"id": 84892, "video": false, "vote_count": 6548, "vote_average": 7.7, "title": "The Perks of Being a Wallflower", "release_date": "2012-09-20", "original_language": "en", "original_title": "The Perks of Being a Wallflower", "genre_ids": [18], "backdrop_path": "/uhLcaTPeBpUNgYhZXhDWkj7gMkp.jpg", "adult": false, "overview": "15-year-old freshman Charlie is a wallflower, always watching life from the sidelines, until two charismatic senior students become his mentors. Free-spirited Sam and her stepbrother Patrick help Charlie discover the joys of friendship, first love, music and more, while a teacher sparks Charlie's dreams of becoming a writer.", "poster_path": "/cyNQLnHnXZcTUDXVVSEYmquOTOI.jpg", "popularity": 19.873}, {"adult": false, "backdrop_path": "/g6WT9zxATzTy9NVu2xwbxDAxvjd.jpg", "genre_ids": [28, 12, 878], "id": 157350, "original_language": "en", "original_title": "Divergent", "overview": "In a world divided into factions based on personality types, Tris learns that she's been classified as Divergent and won't fit in. When she discovers a plot to destroy Divergents, Tris and the mysterious Four must find out what makes Divergents dangerous before it's too late.", "poster_path": "/yTtx2ciqk4XdN1oKhMMDy3f5ue3.jpg", "release_date": "2014-03-14", "title": "Divergent", "video": false, "vote_average": 6.9, "vote_count": 8979, "popularity": 25.41}, {"id": 333339, "video": false, "vote_count": 8272, "vote_average": 7.6, "title": "Ready Player One", "release_date": "2018-03-28", "original_language": "en", "original_title": "Ready Player One", "genre_ids": [12, 878], "backdrop_path": "/q7fXcrDPJcf6t3rzutaNwTzuKP1.jpg", "adult": false, "overview": "When the creator of a popular video game system dies, a virtual contest is created to compete for his fortune.", "poster_path": "/pU1ULUq8D3iRxl1fdX2lZIzdHuI.jpg", "popularity": 39.295}], "total_pages": 398, "total_results": 7949}, "recommendations": {"page": 1, "results": [], "total_pages": 1, "total_results": 0}, "credits": {"cast": [{"cast_id": 3, "character": "John Durrance", "credit_id": "52fe492fc3a368484e11ea79", "gender": 2, "id": 14729, "name": "Laurence Harvey", "order": 0, "profile_path": "/iSKq4IsgLEDdzboqtthn2RWkJlv.jpg"}, {"cast_id": 4, "character": "Harry Faversham", "credit_id": "52fe492fc3a368484e11ea7d", "gender": 2, "id": 33547, "name": "Anthony Steel", "order": 1, "profile_path": "/o3ssUNAkfs223vu3aHYckZkDhlN.jpg"}, {"cast_id": 5, "character": "General Burroughs", "credit_id": "52fe492fc3a368484e11ea81", "gender": 2, "id": 11130, "name": "James Robertson Justice", "order": 2, "profile_path": "/4HlWt2MBP1R34CdCsQGQFi4TUrg.jpg"}, {"cast_id": 6, "character": "Mary Burroughs", "credit_id": "52fe492fc3a368484e11ea85", "gender": 1, "id": 67916, "name": "Mary Ure", "order": 3, "profile_path": "/jJGaum7cQyVh8obUUZbNfnZnMvp.jpg"}, {"cast_id": 7, "character": "Peter Burroughs", "credit_id": "57930d4692514169ab005f98", "gender": 2, "id": 35064, "name": "Ronald Lewis", "order": 4, "profile_path": "/f8nSCXE7M5bKU39tNnApBf460dC.jpg"}, {"cast_id": 8, "character": "General Faversham", "credit_id": "57930d53c3a3687c730081cf", "gender": 2, "id": 39741, "name": "Michael Hordern", "order": 5, "profile_path": "/bdnxQrWH4hM7jo8fzGpcqSQeCSq.jpg"}, {"cast_id": 9, "character": "Dr. Harraz", "credit_id": "57930d5dc3a3687c730081d5", "gender": 2, "id": 26557, "name": "Ferdy Mayne", "order": 6, "profile_path": "/cUfriRFlTJpP5XxITl5Y4KxTsfl.jpg"}, {"cast_id": 10, "character": "Karaga Pasha", "credit_id": "57930d69c3a36862cd0058bb", "gender": 2, "id": 113, "name": "Christopher Lee", "order": 7, "profile_path": "/yzE2U4sS46sVRyCUKpgs3lYZaMy.jpg"}, {"cast_id": 15, "character": "Tom Willoughby", "credit_id": "58655bf69251412b8a01fe21", "gender": 2, "id": 39025, "name": "Ian Carmichael", "order": 8, "profile_path": "/3d2U61Ab42bAyI1fCAhbtEz32AE.jpg"}, {"cast_id": 16, "character": "Colonel", "credit_id": "58655c0bc3a36852e0021ebc", "gender": 2, "id": 133872, "name": "Jack Lambert", "order": 9, "profile_path": null}, {"cast_id": 17, "character": "Colonel's Aide", "credit_id": "58655c16c3a36852e0021ed7", "gender": 2, "id": 1332399, "name": "Raymond Francis", "order": 10, "profile_path": null}, {"cast_id": 18, "character": "Dr. Sutton", "credit_id": "58655c1ec3a36852c0024260", "gender": 2, "id": 10462, "name": "Geoffrey Keen", "order": 11, "profile_path": "/cfl3AjlaS4beYAbxbmXUWgH337Y.jpg"}, {"cast_id": 19, "character": "Sergeant", "credit_id": "58655c319251412b84021011", "gender": 2, "id": 1729506, "name": "John Wynn", "order": 12, "profile_path": null}, {"cast_id": 20, "character": "Sergeant's Wife", "credit_id": "58655c389251412b8a01fe51", "gender": 1, "id": 247048, "name": "Avis Scott", "order": 13, "profile_path": null}, {"cast_id": 21, "character": "Native Spy", "credit_id": "58655c3f9251412b8701fd3c", "gender": 2, "id": 21607, "name": "Roger Delgado", "order": 14, "profile_path": "/bPtlbUq1lJwLHslk0fnFfGi1Wvb.jpg"}, {"cast_id": 22, "character": "Native Servant", "credit_id": "58655c489251412b8d0204da", "gender": 2, "id": 299082, "name": "Frank Singuineau", "order": 15, "profile_path": "/j5HEl6Y9SmhB95m0nXGmQlTreI9.jpg"}, {"cast_id": 23, "character": "Faversham's Butler", "credit_id": "58655c789251412b900215b5", "gender": 2, "id": 93578, "name": "Ben Williams", "order": 16, "profile_path": null}, {"cast_id": 24, "character": "Burroughs' Butler", "credit_id": "58655c80c3a36852e0021f28", "gender": 2, "id": 1107072, "name": "Vincent Holman", "order": 17, "profile_path": null}, {"cast_id": 25, "character": "Harry Faversham (as a boy)", "credit_id": "58655c899251412b7b021f9d", "gender": 2, "id": 1729586, "name": "Paul Streather", "order": 18, "profile_path": null}, {"cast_id": 26, "character": "Dervish", "credit_id": "58655c919251412b8d020512", "gender": 2, "id": 1729587, "name": "N. Al Basri", "order": 19, "profile_path": null}, {"cast_id": 27, "character": "Dervish", "credit_id": "58655c999251412b7b021fae", "gender": 2, "id": 1729588, "name": "M.H. Gadalla", "order": 20, "profile_path": null}, {"cast_id": 28, "character": "Dervish", "credit_id": "58655c9f9251412b84021050", "gender": 2, "id": 1729589, "name": "Michael Argy", "order": 21, "profile_path": null}, {"cast_id": 29, "character": "Dervish", "credit_id": "58655ca7c3a36852c3024271", "gender": 2, "id": 1729590, "name": "Edwin Cary", "order": 22, "profile_path": null}, {"cast_id": 30, "character": "British Soldier (uncredited)", "credit_id": "58655cb89251412b7d01f707", "gender": 2, "id": 1729591, "name": "Brian Cooper", "order": 23, "profile_path": null}, {"cast_id": 31, "character": "Joe (uncredited)", "credit_id": "58655cc6c3a36852c00242fa", "gender": 2, "id": 92011, "name": "Sam Kydd", "order": 24, "profile_path": "/h8MDMSf2NwojlzQezIfrU4bz0X4.jpg"}], "crew": [{"credit_id": "52fe492fc3a368484e11ea75", "department": "Directing", "gender": 2, "id": 9855, "job": "Director", "name": "Terence Young", "profile_path": "/vXufUCM2ybRgYggqxoV5479a03Y.jpg"}, {"credit_id": "58655bd9c3a36852c30241e8", "department": "Art", "gender": 2, "id": 12510, "job": "Assistant Art Director", "name": "Anthony Masters", "profile_path": "/32OGKBShuM420L7FxP1XfXfjqBz.jpg"}, {"credit_id": "5b7865f80e0a26472b014871", "department": "Crew", "gender": 2, "id": 53587, "job": "Stunts", "name": "Peter Diamond", "profile_path": "/rIf04LU2CsdzdvUJghFVVjdWcm6.jpg"}, {"credit_id": "58655bb1c3a36852e0021e7d", "department": "Writing", "gender": 2, "id": 56959, "job": "Novel", "name": "A.E.W. Mason", "profile_path": null}, {"credit_id": "52fe492fc3a368484e11ea6f", "department": "Directing", "gender": 2, "id": 65852, "job": "Director", "name": "Zoltan Korda", "profile_path": null}, {"credit_id": "58655bc29251412b8701fcf3", "department": "Production", "gender": 2, "id": 65852, "job": "Producer", "name": "Zoltan Korda", "profile_path": null}, {"credit_id": "58655bba9251412b8a01fdfb", "department": "Writing", "gender": 2, "id": 65854, "job": "Screenplay", "name": "R.C. Sherriff", "profile_path": null}, {"credit_id": "5b7865e70e0a264734016781", "department": "Directing", "gender": 2, "id": 153192, "job": "Assistant Director", "name": "Peter Maxwell", "profile_path": null}, {"credit_id": "5c3350260e0a2611b83ff2d1", "department": "Sound", "gender": 2, "id": 2202101, "job": "Boom Operator", "name": "Ken Ritchie", "profile_path": null}, {"credit_id": "5d5026a87c6de30f0ba4eb77", "department": "Sound", "gender": 1, "id": 2381055, "job": "Sound", "name": "Barbara Hopkins", "profile_path": null}]}}