{"adult": false, "backdrop_path": "/yBiIvbjQlosNcjLcsU59SjkWGwH.jpg", "belongs_to_collection": null, "budget": 0, "genres": [{"id": 10402, "name": "Music"}, {"id": 99, "name": "Documentary"}], "homepage": null, "id": 76330, "imdb_id": "tt0141986", "original_language": "en", "original_title": "Wild Man Blues", "overview": "Wild Man Blues is a 1998 documentary film directed by Barbara Kopple, about the musical avocation of actor/director/comic Woody Allen. The film takes its name from a jazz composition sometimes attributed to Jelly Roll Morton and sometimes to Louis Armstrong and recorded by both (among others). Allen's love of early 20th century New Orleans music is depicted through his 1996 tour of Europe with his New Orleans Jazz Band. Allen has played clarinet with this band for over 25 years. Although Allen's European tour is the film's primary focus, it was also notable as the first major public showcase for Allen's relationship with Soon-Yi Previn.", "popularity": 3.624, "poster_path": "/oRzV5cA6W1fW78dvkSNIp4JnHqm.jpg", "production_companies": [{"id": 7942, "logo_path": null, "name": "Cabin Creek Films", "origin_country": ""}], "production_countries": [{"iso_3166_1": "US", "name": "United States of America"}], "release_date": "1997-01-16", "revenue": 425788, "runtime": 105, "spoken_languages": [{"iso_639_1": "en", "name": "English"}, {"iso_639_1": "fr", "name": "Fran\u00e7ais"}, {"iso_639_1": "it", "name": "Italiano"}], "status": "Released", "tagline": "", "title": "Wild Man Blues", "video": false, "vote_average": 6.6, "vote_count": 17, "keywords": {"keywords": [{"id": 1416, "name": "jazz"}, {"id": 1808, "name": "lover (female)"}, {"id": 2560, "name": "paparazzi"}, {"id": 3282, "name": "gondola"}, {"id": 9935, "name": "travel"}, {"id": 187056, "name": "woman director"}]}, "similar": {"page": 1, "results": [{"id": 9813, "video": false, "vote_count": 128, "vote_average": 6.1, "title": "The Quiet", "release_date": "2005-09-12", "original_language": "en", "original_title": "The Quiet", "genre_ids": [18, 53], "backdrop_path": "/6eyWAZA4CEidZW1xXnQ4vlYBXTP.jpg", "adult": false, "overview": "After her widowed father dies, deaf teenager Dot moves in with her godparents, Olivia and Paul Deer. The Deers' daughter, Nina, is openly hostile to Dot, but that does not prevent her from telling her secrets to her silent stepsister, including the fact that she wants to kill her lecherous father.", "poster_path": "/GEqIE9YlmygHVUfS64LW2cwAAM.jpg", "popularity": 13.948}, {"id": 616584, "video": false, "vote_count": 92, "vote_average": 7.5, "title": "K-12", "release_date": "2019-09-05", "original_language": "en", "original_title": "K-12", "genre_ids": [14, 27, 10402], "backdrop_path": "/fSlfaF0Ydfr2SK6hOYHvDsb7a9Z.jpg", "adult": false, "overview": "Cry Baby, a strong and sensitive girl, is sent off to a disturbing sleepaway school that\u2019s hidden underneath a grandiose fa\u00e7ade. Luckily, she has a sweet and unapologetic best friend who sticks up for her when she gets bullied by the other students whose brains are under control by the Principal and his wicked staff. With the help of the magical friends they meet along the way, as well as an Angelic Spirit Guide, they are able to gain the strength they need to fight off the school\u2019s belligerent patriarchal conditioning.", "poster_path": "/nVi0yBBPj5Z96JgGWVIg94kv7bR.jpg", "popularity": 18.105}, {"adult": false, "backdrop_path": "/by0WtpJ5UNxOy6ytIfPPTasbRoB.jpg", "genre_ids": [28, 12, 35, 18, 10751, 10402, 10749], "id": 17130, "original_language": "en", "original_title": "Crossroads", "overview": "Three friends get together and bury a box making a pact to open it at midnight at their high school graduation. In the little town in Georgia that they live in, things soon change. One is little miss perfect, one is an engaged prom queen, and the other is a pregnant outcast. The night of graduation, they open the box and they strike up a conversation. All of a sudden, one brings up the topic of her going to Los Angeles for a record contract audition. They all decide to go together and they leave. With a little money, they set out on the road with a guy named Ben. When one of them tells the other a rumor that he might be a homicidal maniac they are all scared of him. When they reach LA, Lucy falls in love with Ben and against her father's wishes, she stays and she goes to the audition.", "poster_path": "/egIs4cWxn0iBErFKrQ7STckjj49.jpg", "release_date": "2002-02-15", "title": "Crossroads", "video": false, "vote_average": 5.0, "vote_count": 334, "popularity": 12.973}, {"adult": false, "backdrop_path": "/xOGEw8iywxcFMolV6SF6YdTdJTb.jpg", "genre_ids": [10402, 10749], "id": 52371, "original_language": "nl", "original_title": "LelleBelle", "overview": "19-year old Belle practices playing the violin diligently, but is unable to impart her music with a sensitive undertone. Her life changes when she discovers that sexual desire stimulates passion in her music.", "poster_path": "/nJVPgIq3icZMQ26p5uWIFdUZJfL.jpg", "release_date": "2010-10-08", "title": "LelleBelle", "video": false, "vote_average": 4.7, "vote_count": 41, "popularity": 13.931}, {"adult": false, "backdrop_path": "/caLMOD3ZJ3V7qjlxDXrzlJfBLgD.jpg", "genre_ids": [18, 10749], "id": 20, "original_language": "en", "original_title": "My Life Without Me", "overview": "A Pedro Almodovar production in which a fatally ill mother with only two months to live creates a list of things she wants to do before she dies with out telling her family of her illness.", "poster_path": "/vVj92VBFUBzjqzLvBiPVVlJDp78.jpg", "release_date": "2003-03-07", "title": "My Life Without Me", "video": false, "vote_average": 6.1, "vote_count": 220, "popularity": 9.208}, {"id": 326359, "video": false, "vote_count": 1179, "vote_average": 6.8, "title": "Frozen Fever", "release_date": "2015-03-09", "original_language": "en", "original_title": "Frozen Fever", "genre_ids": [12, 16, 10751], "backdrop_path": "/ubioPGniCfDiASmYYpeJs5RRNaC.jpg", "adult": false, "overview": "On Anna's birthday, Elsa and Kristoff are determined to give her the best celebration ever, but Elsa's icy powers may put more than just the party at risk.", "poster_path": "/lKJiVPzsAO9IJ4LKWXZ8vkR2bg4.jpg", "popularity": 17.061}, {"adult": false, "backdrop_path": "/k8H7ye6Sab7OrDJoo8Qp5WFGHGk.jpg", "genre_ids": [35, 10749, 18], "id": 244264, "original_language": "en", "original_title": "Laggies", "overview": "Overeducated and underemployed, 28 year old Megan is in the throes of a quarterlife crisis. Squarely into adulthood with no career prospects, no particular motivation to think about her future and no one to relate to, Megan is comfortable lagging a few steps behind - while her friends check off milestones and celebrate their new grown-up status. When her high-school sweetheart proposes, Megan panics and- given an unexpected opportunity to escape for a week - hides out in the home of her new friend, 16-year old Annika and Annika's world-weary single dad Craig.", "poster_path": "/dNcoXoRC7JHiqbe7k5Ufo6syiPP.jpg", "release_date": "2014-09-25", "title": "Laggies", "video": false, "vote_average": 6.1, "vote_count": 787, "popularity": 9.883}, {"adult": false, "backdrop_path": "/g3LYarEY9LjB28Ct2trwFN72gqZ.jpg", "genre_ids": [35], "id": 437557, "original_language": "en", "original_title": "Blockers", "overview": "When three parents discover their daughters\u2019 pact to lose their virginity at prom, they launch a covert one-night operation to stop the teens from sealing the deal.", "poster_path": "/uvlUQXg0AlpGzKukO11K7QtW3Yu.jpg", "release_date": "2018-03-14", "title": "Blockers", "video": false, "vote_average": 6.2, "vote_count": 1153, "popularity": 18.075}, {"id": 297762, "video": false, "vote_count": 13717, "vote_average": 7.3, "title": "Wonder Woman", "release_date": "2017-05-30", "original_language": "en", "original_title": "Wonder Woman", "genre_ids": [28, 12, 14], "backdrop_path": "/6iUNJZymJBMXXriQyFZfLAKnjO6.jpg", "adult": false, "overview": "An Amazon princess comes to the world of Man in the grips of the First World War to confront the forces of evil and bring an end to human conflict.", "poster_path": "/gfJGlDaHuWimErCr5Ql0I8x9QSy.jpg", "popularity": 41.8}, {"adult": false, "backdrop_path": "/gZeJziVigmRqbkEZwKAtSqlLQ6s.jpg", "genre_ids": [18, 10749], "id": 370663, "original_language": "en", "original_title": "Below Her Mouth", "overview": "An unexpected affair quickly escalates into a heart-stopping reality for two women whose passionate connection changes their lives forever.", "poster_path": "/nTGbq37hYLuNy7YgMg0gVLma0NS.jpg", "release_date": "2016-09-10", "title": "Below Her Mouth", "video": false, "vote_average": 6.2, "vote_count": 456, "popularity": 22.676}, {"adult": false, "backdrop_path": "/npClMhFGn4XUkwu6coq5oKAEu6L.jpg", "genre_ids": [35, 10749, 18], "id": 634, "original_language": "en", "original_title": "Bridget Jones's Diary", "overview": "A chaotic Bridget Jones meets a snobbish lawyer, and he soon enters her world of imperfections.", "poster_path": "/ym6kjFFZg6boC0QHBVw6hqJLbxv.jpg", "release_date": "2001-04-13", "title": "Bridget Jones's Diary", "video": false, "vote_average": 6.7, "vote_count": 3079, "popularity": 16.678}, {"adult": false, "backdrop_path": "/ojn7IYKmMt8HXRd6oLwY5pLGLVc.jpg", "genre_ids": [18, 10749], "id": 9587, "original_language": "en", "original_title": "Little Women", "overview": "With their father away as a chaplain in the Civil War, Jo, Meg, Beth and Amy grow up with their mother in somewhat reduced circumstances. They are a close family who inevitably have their squabbles and tragedies. But the bond holds even when, later, male friends start to become a part of the household.", "poster_path": "/tD9YDE8pjtSvvKUpkmooE6YDSm8.jpg", "release_date": "1994-12-21", "title": "Little Women", "video": false, "vote_average": 7.2, "vote_count": 574, "popularity": 24.712}, {"adult": false, "backdrop_path": "/txtRue33MaXv5HQpTiHPOmOcDxE.jpg", "genre_ids": [35, 10749], "id": 11631, "original_language": "en", "original_title": "Mamma Mia!", "overview": "An independent, single mother who owns a small hotel on a Greek island is about to marry off the spirited young daughter she's raised alone. But, the daughter has secretly invited three of her mother's ex-lovers in the hopes of finding her biological father.", "poster_path": "/gOm2iMMbC6EonrFzmSQ8xvCa4Ei.jpg", "release_date": "2008-07-02", "title": "Mamma Mia!", "video": false, "vote_average": 6.9, "vote_count": 4120, "popularity": 16.652}, {"id": 8913, "video": false, "vote_count": 1053, "vote_average": 6.5, "title": "Pet Sematary", "release_date": "1989-04-21", "original_language": "en", "original_title": "Pet Sematary", "genre_ids": [18, 27], "backdrop_path": "/sbm4pRbGNaqaHjx6fPXh1aQGTJO.jpg", "adult": false, "overview": "Dr. Louis Creed's family moves into the country house of their dreams and discover a pet cemetery at the back of their property. The cursed burial ground deep in the woods brings the dead back to life -- with \"minor\" problems. At first, only the family's cat makes the return trip, but an accident forces a heartbroken father to contemplate the unthinkable.", "poster_path": "/9zUax4pjRgoPIJla9CQejqNJofB.jpg", "popularity": 18.214}, {"adult": false, "backdrop_path": "/6tern9vOEwwmkDYC1vRCuO64z0C.jpg", "genre_ids": [10749, 18], "id": 475888, "original_language": "en", "original_title": "Tell It to the Bees", "overview": "Dr. Jean Markham returns to the town she left as a teenager to take over her late father's medical practice. When a school-yard scuffle lands Charlie in her surgery, she invites him to visit the hives in her garden and tell his secrets to the bees, as she once did. The new friendship between the boy and the bee keeper brings his mother Lydia into Jean's world.", "poster_path": "/Rj6zpHhMU1zFW3v28U4PSRSRgP.jpg", "release_date": "2019-05-03", "title": "Tell It to the Bees", "video": false, "vote_average": 6.4, "vote_count": 53, "popularity": 15.113}, {"adult": false, "backdrop_path": "/knczzNAjBXzSYkeWxoT1u9VNmjR.jpg", "genre_ids": [10749, 18], "id": 258480, "original_language": "en", "original_title": "Carol", "overview": "In 1950s New York, a department-store clerk who dreams of a better life falls for an older, married woman.", "poster_path": "/AbKa7ANxmui0Jmhh7gV7OSELKIL.jpg", "release_date": "2015-11-20", "title": "Carol", "video": false, "vote_average": 7.4, "vote_count": 2182, "popularity": 14.185}, {"adult": false, "backdrop_path": "/eSs0CkWB5ASQgcx8Dr0uai3IRjT.jpg", "genre_ids": [18], "id": 339984, "original_language": "en", "original_title": "Miracles from Heaven", "overview": "When Christy discovers her 10-year-old daughter Anna has a rare, incurable disease, she becomes a ferocious advocate for her daughter\u2019s healing as she searches for a solution. After Anna has a freak accident and falls three stories, a miracle unfolds in the wake of her dramatic rescue that leaves medical specialists mystified, her family restored and their community inspired.", "poster_path": "/hz9VF1TfaM0D04pYneSXUkNeOZv.jpg", "release_date": "2016-03-17", "title": "Miracles from Heaven", "video": false, "vote_average": 7.2, "vote_count": 568, "popularity": 14.303}, {"adult": false, "backdrop_path": "/fZ8oFcREAr6wgWcXISGql0xyxjB.jpg", "genre_ids": [35, 18], "id": 39781, "original_language": "en", "original_title": "The Kids Are All Right", "overview": "Two women, Nic and Jules, brought a son and daughter into the world through artificial insemination. When one of their children reaches age, both kids go behind their mothers' backs to meet with the donor. Life becomes so much more interesting when the father, two mothers and children start to become attached to each other.", "poster_path": "/fPDeK4MmoGfi2X0oWZev7LrbMqM.jpg", "release_date": "2010-07-09", "title": "The Kids Are All Right", "video": false, "vote_average": 6.6, "vote_count": 923, "popularity": 12.703}, {"id": 24684, "video": false, "vote_count": 794, "vote_average": 6.9, "title": "An Education", "release_date": "2009-10-29", "original_language": "en", "original_title": "An Education", "genre_ids": [18, 10749], "backdrop_path": "/4PD0Kc4BGYrYrziCwUPHnESSabZ.jpg", "adult": false, "overview": "Despite her sheltered upbringing, Jenny is a teen with a bright future; she's smart, pretty, and has aspirations of attending Oxford University. When David, a charming but much older suitor, motors into her life in a shiny automobile, Jenny gets a taste of adult life that she won't soon forget.", "poster_path": "/n0mH5BgPjlMWJLWKhjtf5MDRrm9.jpg", "popularity": 10.521}, {"adult": false, "backdrop_path": "/pBgGl3GfVxs84T7ZniUAz5FMMNx.jpg", "genre_ids": [35, 10751, 12, 14, 10749], "id": 11451, "original_language": "en", "original_title": "Herbie Fully Loaded", "overview": "Maggie Peyton, the new owner of Number 53 - the free-wheelin' Volkswagen bug with a mind of its own - puts the car through its paces on the road to becoming a NASCAR competitor.", "poster_path": "/7lTfTZ8CDfXw09eAv3OOvsbCVgs.jpg", "release_date": "2005-06-22", "title": "Herbie Fully Loaded", "video": false, "vote_average": 5.3, "vote_count": 1347, "popularity": 16.927}], "total_pages": 49, "total_results": 967}, "recommendations": {"page": 1, "results": [{"adult": false, "backdrop_path": null, "genre_ids": [18, 99], "id": 270521, "original_language": "en", "original_title": "Shake Hands with Danger", "overview": "A cautionary training film for those who operate and repair heavy equipment. We watch vignettes of men taking short cuts in their work, doing things they aren't trained for, neglecting to warn a less experienced worker, using the wrong tool or a tool that's in disrepair, ignoring proper safety practices, trying to appear macho in front of fellow workers, thinking their reflexes are quicker than they are, working while distracted, and generally putting themselves and others at risk. The film is punctuated by the song, \"Shakes Hands with Danger,\" the story of Three-Finger Joe. Filmed using Caterpillar equipment. \u2013IMdB", "poster_path": "/tYOkqXA8lRZAuzoQA60MJmZKZGO.jpg", "release_date": "1980-06-03", "title": "Shake Hands with Danger", "video": false, "vote_average": 3.7, "vote_count": 3, "popularity": 2.134}, {"adult": false, "backdrop_path": null, "genre_ids": [16, 99], "id": 324247, "original_language": "en", "original_title": "A Case of Spring Fever", "overview": "Advertising short for Chevrolet combining live action and animation. The film relates the story of Gilbert Willoughby, who, exasperated by his stubborn boxspring mattress, imprudently wishes for the disappearance of springs. Coily, the animated spring sprite, grants his wish, and Gilbert is bedeviled by once-familar appliances that no longer function. Apolo\u00adgizing to Coily, Gilbert acknowledges the contribution of springs to daily life, especially in the Chevrolet.", "poster_path": "/7zLShPpxy9WZhvEaSMPMFkXINoF.jpg", "release_date": "1940-02-03", "title": "A Case of Spring Fever", "video": false, "vote_average": 2.8, "vote_count": 5, "popularity": 1.93}, {"adult": false, "backdrop_path": "/63KX7Exe63f2eeoC8JUnqhFOu7s.jpg", "genre_ids": [18], "id": 36402, "original_language": "pl", "original_title": "Pr\u0119gi", "overview": "Following the death of his mother in '80s Poland, 12-year-old Wojciech has taken the brunt of his stressed father's frustrations with him; the boy frequently gets punished via belt. Wojciech's father occasionally tries to, instead, bond with him, but soon snaps back to his short-fused habits. Apart from Wojciech's friend Bartek, no one does anything to help. Jump to present day, Wojciech is a furrow-browed journalist who spends most of his spare time spelunking alone. Just like his father, he has serious anger management issues. Fellow caver Tania feels inexplicably attracted to him, but the love of a good woman may not be enough.", "poster_path": "/rq1apsWhYzpwcRJXpHES6YBs9NP.jpg", "release_date": "2004-10-08", "title": "The Welts", "video": false, "vote_average": 7.2, "vote_count": 9, "popularity": 2.479}, {"adult": false, "backdrop_path": "/ga3MN9cqHhvCSWNnBbwWbeI4CZ1.jpg", "genre_ids": [18], "id": 482590, "original_language": "zh", "original_title": "\u76f8\u7231\u76f8\u4eb2", "overview": "A mother intends to relocate Grandpa\u2019s grave from the countryside to the city, where he could be re-buried with Grandma. However, her decision sparks a conflict with Nana, Grandpa\u2019s first wife. Nana is childless, and all she has is her husband\u2019s grave. As a result, she fights flat out to stop Mother moving the grave. At first, Weiwei, caught between her mother and Nana, is turning the fight over the grave into a story on television, but after having spent time with Nana, she learns a new understanding of life. In the end, these three women of different generations, each facing her own problems in her love life, follow their hearts and make their decisions, which result in an unexpected ending to the incident.", "poster_path": "/qvFy72XV4n1YHmaMK7o19beJpnz.jpg", "release_date": "2017-10-27", "title": "Love Education", "video": false, "vote_average": 7.4, "vote_count": 7, "popularity": 1.45}, {"adult": false, "backdrop_path": "/8rrMcHKsHLEkdp5t67Ppnxx45H0.jpg", "genre_ids": [18], "id": 155939, "original_language": "pl", "original_title": "Pora Umiera\u0107", "overview": "An impressionistic, black-and-white portrait of the day-to-day of a nonagenarian woman as she experiences the final act of her life. Danuta Szaflarska stars as Aniela, who lives in a massive yet rapidly-deteriorating wooden house, filled with souvenirs and treasures of eras gone by. Aniela runs into conflict in her dealings with others, particularly a nasty neighbor who sees her property as an eyesore and wants to do everything in his reach to buy it up and tear it down, and her married adult son, who - though kindly - triggers paranoia within Aniela (she cannot help but believe that he is scheming and planning to wheedle the property away from her). Driven aback by these individuals, Aniela finds one of her only sources of comfort and reassurance in her daily talks with her dog, Fila - and develops a great affinity for spying on the neighbors' doings whenever boredom creeps in.", "poster_path": "/k1tPG9JZZMe1cFYLv0R4utx6D0d.jpg", "release_date": "2007-10-19", "title": "Time to Die", "video": false, "vote_average": 7.3, "vote_count": 8, "popularity": 2.948}, {"adult": false, "backdrop_path": "/u2Uvq0AVwjYlF04voQRTUHA6xvk.jpg", "genre_ids": [35], "id": 30518, "original_language": "ja", "original_title": "\u30ea\u30a2\u30ea\u30ba\u30e0\u306e\u5bbf", "overview": "Tsuboi and Kinoshita have just arrived at a desolate town. Both of them are amateur filmmakers. Tsuboi is a screenwriter and Kinoshita a director. They have come to this town because Funaki, an actor, has tempted them to come here, but he has yet to arrive. Tsuboi and Kinoshita start wandering around the town and happen to meet a young woman, Atsuko. The three of them go on a journey together and become friends. But one day, Atsuko disappears.", "poster_path": "/sWn8FScQJE6IbwuYTIuvt7BwR92.jpg", "release_date": "2003-09-10", "title": "Ramblers", "video": false, "vote_average": 6.8, "vote_count": 4, "popularity": 1.233}, {"adult": false, "backdrop_path": null, "genre_ids": [18], "id": 125882, "original_language": "sv", "original_title": "Oxen", "overview": "In desperation brought on by near-starvation, Helge Roos kills his master's ox and feeds it to his wife and baby daughter. No-one suspects anything until the meat is finished and Helge tries to sell the hide at a local market. He is spotted by the local vicar and, wracked with guilt, confesses. The vicar assures him that if he gives himself up, he'll be treated leniently, but Helge's sentence is far harsher than anyone predicted...", "poster_path": "/lYyzHX1fPI6vKJ79bYEJyZDKrYL.jpg", "release_date": "1991-11-22", "title": "The Ox", "video": false, "vote_average": 7.1, "vote_count": 5, "popularity": 1.554}, {"adult": false, "backdrop_path": "/zc7qiRxqFgnHxotuPPZ7cru0d9h.jpg", "genre_ids": [18, 35], "id": 11083, "original_language": "no", "original_title": "Salmer fra kj\u00f8kkenet", "overview": "Swedish efficiency researchers come to Norway for a study of Norwegian men, to optimize their use of their kitchen. Folke Nilsson (Tomas Norstr\u00f6m) is assigned to study the habits of Isak Bj\u00f8rvik (Joachim Calmeyer). By the rules of the research institute, Folke has to sit on an umpire's chair in Isak's kitchen and observe him from there, but never talk to him. Isak stops using his kitchen and observes Folke through a hole in the ceiling instead. However, the two lonely men slowly overcome the initial post-war Norwegian-Swede distrust and become friends.", "poster_path": "/srIgymX8L1uYlNkRUVbOEYfcGex.jpg", "release_date": "2003-01-01", "title": "Kitchen Stories", "video": false, "vote_average": 7.2, "vote_count": 46, "popularity": 4.535}, {"adult": false, "backdrop_path": "/dPaairVI6CDW7Lj7i8S99TWLLa1.jpg", "genre_ids": [35, 28, 12, 16, 878], "id": 213110, "original_language": "en", "original_title": "The Amazing Screw-On Head", "overview": "Based on the award-winning comic book by Mike Mignola (creator of Hellboy), The Amazing Screw-On Head chronicles the adventures of a Civil War-era secret agent with an extraordinary special power who serves under president Abraham Lincoln.", "poster_path": "/gTANNf43FKKxN5bEGNGIhBF9Wg2.jpg", "release_date": "2006-08-20", "title": "The Amazing Screw-On Head", "video": false, "vote_average": 8.0, "vote_count": 18, "popularity": 5.524}, {"adult": false, "backdrop_path": null, "genre_ids": [18], "id": 124630, "original_language": "en", "original_title": "Film ist a Girl & a Gun", "overview": "Fragments of several (mostly) silent films are shown. They're guided by quotes from, among others, Plato and Sappho and a soundtrack.", "poster_path": "/hyCmuo8XFHkLsDVgtceNWtCxpum.jpg", "release_date": "2009-12-04", "title": "Film Is a Girl & a Gun", "video": false, "vote_average": 6.7, "vote_count": 6, "popularity": 1.4}, {"adult": false, "backdrop_path": "/nMJ3ldzyCSOUEjOH9V0aLqYscEj.jpg", "genre_ids": [18], "id": 112531, "original_language": "pl", "original_title": "Ki", "overview": "Ki is a young woman who no longer wants to live with the father of her child. She moves into a house in which lives Miko, a serious man who does not care for distractions. The responsibility of raising a child on her own comes up against the need to work and the wish to live a carefree life.", "poster_path": "/y2xhzaY8mOAnxByrIzlGn0GjNgn.jpg", "release_date": "2011-09-30", "title": "My Name Is Ki", "video": false, "vote_average": 6.3, "vote_count": 6, "popularity": 1.924}, {"id": 162042, "video": false, "vote_count": 11, "vote_average": 2.3, "title": "Riding with Death", "release_date": "1976-01-01", "original_language": "en", "original_title": "Riding with Death", "genre_ids": [28, 878, 53, 10770], "backdrop_path": null, "adult": false, "overview": "Dimwitted, meaty guy foils criminals by turning invisible.", "poster_path": "/AeIrTwVdTNA6Y4kYQ9QMA1Goahe.jpg", "popularity": 3.173}, {"adult": false, "backdrop_path": null, "genre_ids": [99, 10751], "id": 300502, "original_language": "en", "original_title": "Drugs Are Like That", "overview": "[\u2026] Though the highs and lows of human experience are all here, it's often the gimcrack set design and fashion chops in these vintage clunkers that really wow \u2013 the pot-holder sweater vests, ponytails decorated with yarn, hippies with crumb-catching moustaches, banana-seat bikes and a hard rain of Quaaludes and amphetamines to illustrate the dangers of drug addiction. It is hard to believe anyone would buy the goofball cause-and-effect of that pill-popper's weather pattern in \"Drugs Are Like That\". Co-produced by the Miami Junior League and narrated by Anita Bryant in this cheery little hand-slapper, a kid stealing cookies from a cookie jar is implied to be headed down a bad road to Bowery bum rolls and LSD parties. (from: http://clatl.com/atlanta/av-geeks-greatest-hits-lessons-learned/Content?oid=1268313)", "poster_path": "/x1tJNroD9vBQ0I6tMTeIcfTpUtP.jpg", "release_date": "1969-01-01", "title": "Drugs Are Like That", "video": false, "vote_average": 2.0, "vote_count": 6, "popularity": 1.4}, {"adult": false, "backdrop_path": "/zxUcsr8FzCSJFmZ8PeetEz2T5AI.jpg", "genre_ids": [99], "id": 44443, "original_language": "en", "original_title": "Lynch", "overview": "With footage shot during a period of more than two years, this documentary is an intimate portrait of David Lynch's creative process as he completes his film INLAND EMPIRE (2006).", "poster_path": "/rlJ6agjTUxPVWdTlK3Vc2hoEC7x.jpg", "release_date": "2007-06-23", "title": "Lynch", "video": false, "vote_average": 6.1, "vote_count": 7, "popularity": 2.654}], "total_pages": 1, "total_results": 14}, "credits": {"cast": [{"cast_id": 1, "character": "himself, the Clarinetist", "credit_id": "52fe4932c3a368484e11f59b", "gender": 2, "id": 1243, "name": "Woody Allen", "order": 0, "profile_path": "/t6RBHxD32bxoePKOHoW7iTyJk1u.jpg"}, {"cast_id": 14, "character": "Herself, sister of Woody Allen", "credit_id": "52fe4932c3a368484e11f5cd", "gender": 1, "id": 1265, "name": "Letty Aronson", "order": 1, "profile_path": "/dZPK3d3TvgLEmjHQRObNZkv7OUY.jpg"}, {"cast_id": 3, "character": "herself", "credit_id": "52fe4932c3a368484e11f59f", "gender": 0, "id": 535801, "name": "Soon-Yi Previn", "order": 2, "profile_path": null}, {"cast_id": 4, "character": "himself, the trombonist", "credit_id": "52fe4932c3a368484e11f5a3", "gender": 0, "id": 401955, "name": "Dan Barrett", "order": 3, "profile_path": null}, {"cast_id": 5, "character": "himself, the trumpeter (as Simon Wettenthall)", "credit_id": "52fe4932c3a368484e11f5a7", "gender": 0, "id": 401763, "name": "Simon Wettenhall", "order": 4, "profile_path": null}, {"cast_id": 6, "character": "himself, the drummer and vocalist", "credit_id": "52fe4932c3a368484e11f5ab", "gender": 0, "id": 578365, "name": "John Gill", "order": 5, "profile_path": null}, {"cast_id": 7, "character": "himself, the bassist", "credit_id": "52fe4932c3a368484e11f5af", "gender": 2, "id": 242172, "name": "Greg Cohen", "order": 6, "profile_path": null}, {"cast_id": 8, "character": "herself, the pianist", "credit_id": "52fe4932c3a368484e11f5b3", "gender": 0, "id": 401764, "name": "Cynthia Sayer", "order": 7, "profile_path": null}, {"cast_id": 9, "character": "himself, the band director and banjoist", "credit_id": "52fe4932c3a368484e11f5b7", "gender": 0, "id": 401956, "name": "Eddy Davis", "order": 8, "profile_path": null}, {"cast_id": 10, "character": "herself, mother of Woody Allen", "credit_id": "52fe4932c3a368484e11f5bb", "gender": 0, "id": 578366, "name": "Nettie Konigsberg", "order": 9, "profile_path": null}, {"cast_id": 11, "character": "himself, father of Woody Allen", "credit_id": "52fe4932c3a368484e11f5bf", "gender": 0, "id": 578367, "name": "Martin Konigsberg", "order": 10, "profile_path": null}, {"cast_id": 12, "character": "himself, guest in hotel suite", "credit_id": "52fe4932c3a368484e11f5c3", "gender": 0, "id": 28006, "name": "John Doumanian", "order": 11, "profile_path": "/a29DCpIYuwAC21ErdCMTTPFMsnG.jpg"}], "crew": [{"credit_id": "52fe4932c3a368484e11f5c9", "department": "Directing", "gender": 1, "id": 22020, "job": "Director", "name": "Barbara Kopple", "profile_path": "/cQ8XyOiDPZGFdUrzKbBLEMwBPXi.jpg"}]}}