{"adult": false, "backdrop_path": "/7DtEllV60uvhJjDbucFXTdMDSfH.jpg", "belongs_to_collection": null, "budget": 0, "genres": [{"id": 10749, "name": "Romance"}, {"id": 18, "name": "Drama"}, {"id": 35, "name": "Comedy"}], "homepage": null, "id": 76703, "imdb_id": "tt0030642", "original_language": "fr", "original_title": "Quadrille", "overview": "", "popularity": 3.353, "poster_path": "/7vFKDh9azVIdO6X459KjZfpDzOE.jpg", "production_companies": [{"id": 1574, "logo_path": null, "name": "Les Films Modernes", "origin_country": ""}, {"id": 10651, "logo_path": null, "name": "Productions Emile Natan", "origin_country": ""}], "production_countries": [{"iso_3166_1": "FR", "name": "France"}], "release_date": "1938-01-29", "revenue": 0, "runtime": 95, "spoken_languages": [{"iso_639_1": "fr", "name": "Fran\u00e7ais"}], "status": "Released", "tagline": "", "title": "Quadrille", "video": false, "vote_average": 6.7, "vote_count": 5, "keywords": {"keywords": [{"id": 14708, "name": "tears"}, {"id": 156080, "name": "newspaper editor"}, {"id": 176016, "name": "editor"}]}, "similar": {"page": 1, "results": [{"adult": false, "backdrop_path": "/oXKzUfG4HPl1e3b87eFWV8Lr07a.jpg", "genre_ids": [35], "id": 42814, "original_language": "en", "original_title": "The Front Page", "overview": "Hildy Johnson is an investigative reporter is looking for a bigger paycheck. When an accused murderer escapes from custody, Hildy sees an opportunity for the story of a lifetime. But when he finds the criminal, he learns that the man may not be guilty. With the help of his editor, Hildy attempts to hide the convict, uncover the conspiracy and write the scoop of his career.", "poster_path": "/jlWhGpS6YFgb9dANRLl5Z40Y8c2.jpg", "release_date": "1931-04-04", "title": "The Front Page", "video": false, "vote_average": 6.8, "vote_count": 23, "popularity": 5.615}, {"adult": false, "backdrop_path": "/zffzhr30v7nCHRcyfnVr8PmNLbM.jpg", "genre_ids": [10749, 35, 18], "id": 11355, "original_language": "en", "original_title": "Never Been Kissed", "overview": "Josie Geller, a baby-faced junior copywriter at the Chicago Sun-Times, must pose as a student at her former high school to research contemporary teenage culture. With the help of her brother, Rob, Josie infiltrates the inner circle of the most popular clique on campus. But she hits a major snag in her investigation -- not to mention her own failed love life -- when she falls for her dreamy English teacher, Sam Coulson.", "poster_path": "/1F9EAhEQxa0I5Pa5Z10hWIBFS3r.jpg", "release_date": "1999-04-09", "title": "Never Been Kissed", "video": false, "vote_average": 6.0, "vote_count": 855, "popularity": 17.41}, {"id": 12280, "video": false, "vote_count": 87, "vote_average": 6.6, "title": "The Paper", "release_date": "1994-03-18", "original_language": "en", "original_title": "The Paper", "genre_ids": [35, 18], "backdrop_path": "/udRmW8n9CAh2LGE7sJFK9N9xQ0R.jpg", "adult": false, "overview": "Henry Hackett is the workaholic editor of a New York City tabloid. He loves his job, but the long hours and low pay are leading to discontent. Also, publisher Bernie White faces financial straits, and has hatchet-man Alicia Clark\u2014Henry's nemesis\u2014impose unpopular cutbacks.", "poster_path": "/3FMfcgvjwgmyoT6Pp89wALzSUHT.jpg", "popularity": 8.641}, {"id": 11036, "video": false, "vote_count": 6878, "vote_average": 7.9, "title": "The Notebook", "release_date": "2004-06-25", "original_language": "en", "original_title": "The Notebook", "genre_ids": [18, 10749], "backdrop_path": "/7BBG6Kq5psKQByX0xgyTzoGhT3v.jpg", "adult": false, "overview": "An epic love story centered around an older man who reads aloud to a woman with Alzheimer's. From a faded notebook, the old man's words bring to life the story about a couple who is separated by World War II, and is then passionately reunited, seven years later, after they have taken different paths.", "poster_path": "/gMfstesBXKdsHToAUXVPHujUDfb.jpg", "popularity": 22.12}, {"adult": false, "backdrop_path": "/fAA0S3rM3o5Sp8TIdS0MvWOGsCQ.jpg", "genre_ids": [18, 10749], "id": 843, "original_language": "cn", "original_title": "\u82b1\u6a23\u5e74\u83ef", "overview": "Taking place in Hong Kong of 1962, a melancholy story about the love between a woman and a man who live in the same building and one day find out that their husband and wife had an affair with each other.", "poster_path": "/unOW3SxFxBdd7LMWjmRONdHWKPb.jpg", "release_date": "2000-05-22", "title": "In the Mood for Love", "video": false, "vote_average": 8.1, "vote_count": 962, "popularity": 15.474}, {"id": 1949, "video": false, "vote_count": 5158, "vote_average": 7.5, "title": "Zodiac", "release_date": "2007-03-02", "original_language": "en", "original_title": "Zodiac", "genre_ids": [80, 18, 9648, 53], "backdrop_path": "/jP2htGBHE7vKq4MLeC75UeC0sZH.jpg", "adult": false, "overview": "The true story of the investigation of the \"Zodiac Killer\", a serial killer who terrified the San Francisco Bay Area, taunting police with his ciphers and letters. The case becomes an obsession for three men as their lives and careers are built and destroyed by the endless trail of clues.", "poster_path": "/bgLyOROfFQI3FqYL7jQbiaV8lkN.jpg", "popularity": 21.354}, {"adult": false, "backdrop_path": "/t3Oea7KbSpOvuqddMnlFtZ4WHn.jpg", "genre_ids": [18, 53, 36], "id": 314365, "original_language": "en", "original_title": "Spotlight", "overview": "In 2001, editor Marty Baron of The Boston Globe assigns a team of journalists to investigate allegations against John Geoghan, an unfrocked priest accused of molesting more than 80 boys. Led by editor Walter \"Robby\" Robinson, reporters Michael Rezendes, Matt Carroll and Sacha Pfeiffer interview victims and try to unseal sensitive documents. The reporters make it their mission to provide proof of a cover-up of sexual abuse within the Roman Catholic Church.", "poster_path": "/ngKxbvsn9Si5TYVJfi1EGAGwThU.jpg", "release_date": "2015-11-06", "title": "Spotlight", "video": false, "vote_average": 7.8, "vote_count": 5408, "popularity": 22.049}, {"adult": false, "backdrop_path": "/zGutQCLUIQ5LakubDZtfM8s22eA.jpg", "genre_ids": [9648, 18], "id": 15, "original_language": "en", "original_title": "Citizen Kane", "overview": "Newspaper magnate, Charles Foster Kane is taken from his mother as a boy and made the ward of a rich industrialist. As a result, every well-meaning, tyrannical or self-destructive move he makes for the rest of his life appears in some way to be a reaction to that deeply wounding event.", "poster_path": "/sav0jxhqiH0bPr2vZFU0Kjt2nZL.jpg", "release_date": "1941-04-30", "title": "Citizen Kane", "video": false, "vote_average": 8.1, "vote_count": 2762, "popularity": 18.233}, {"id": 891, "video": false, "vote_count": 888, "vote_average": 7.8, "title": "All the President's Men", "release_date": "1976-04-04", "original_language": "en", "original_title": "All the President's Men", "genre_ids": [18, 36, 9648, 53], "backdrop_path": "/rqM0Uq57NNOpEx7BBk7FqBfGqzc.jpg", "adult": false, "overview": "In the run-up to the 1972 elections, Washington Post reporter Bob Woodward covers what seems to be a minor break-in at the Democratic Party National Headquarters. He is surprised to find top lawyers already on the defense case, and the discovery of names and addresses of Republican fund organizers on the accused further arouses his suspicions. After the editor of the Post runs with the story and assigns Woodward and Carl Bernstein to it, they find the trail leading higher and higher in the Republican Party\u2014and eventually into the White House itself.", "poster_path": "/jvXiGgWyBYDfQb44spH9JPTOmAZ.jpg", "popularity": 30.144}, {"id": 539892, "video": false, "vote_count": 119, "vote_average": 6.7, "title": "Freaks", "release_date": "2019-09-13", "original_language": "en", "original_title": "Freaks", "genre_ids": [18, 878, 53], "backdrop_path": "/mPeyCA2625dLDbPSDjfxpNKL8Uv.jpg", "adult": false, "overview": "Kept locked inside the house by her father, 7-year-old Chloe lives in fear and fascination of the outside world, where Abnormals create a constant threat - or so she believes. When a mysterious stranger offers her a glimpse of what's really happening outside, Chloe soon finds that while the truth isn't so simple, the danger is very real.", "poster_path": "/kc2cvuqESIiRX5QoZOoMTBq18kQ.jpg", "popularity": 37.69}, {"id": 9008, "video": false, "vote_count": 950, "vote_average": 7.4, "title": "The Insider", "release_date": "1999-10-28", "original_language": "en", "original_title": "The Insider", "genre_ids": [18, 53], "backdrop_path": "/7oq51chQ7MW7RVKqhL4ivxhrwGf.jpg", "adult": false, "overview": "Tells the true story of a 60 Minutes television series expos\u00e9 of the tobacco industry, as seen through the eyes of a real tobacco executive, Jeffrey Wigand.", "poster_path": "/sYQsmMl4oG56NtFaNkDxuJhhODa.jpg", "popularity": 12.176}, {"id": 446354, "video": false, "vote_count": 2836, "vote_average": 7.0, "title": "The Post", "release_date": "2017-12-22", "original_language": "en", "original_title": "The Post", "genre_ids": [18, 36], "backdrop_path": "/8sb4aBST28vN3rBz704XJczS0Ld.jpg", "adult": false, "overview": "A cover-up that spanned four U.S. Presidents pushed the country's first female newspaper publisher and a hard-driving editor to join an unprecedented battle between journalist and government. Inspired by true events.", "poster_path": "/h4XG3g6uMMPIBPjAoQhC2QIMdkl.jpg", "popularity": 20.824}, {"id": 439, "video": false, "vote_count": 828, "vote_average": 8.1, "title": "La Dolce Vita", "release_date": "1960-02-05", "original_language": "it", "original_title": "La dolce vita", "genre_ids": [35, 18], "backdrop_path": "/b3ofp0vhkbKsrz2V44DimBRKkxf.jpg", "adult": false, "overview": "Episodic journey of an Italian journalist scouring Rome in search of love.", "poster_path": "/aU7WLwPVCOoonAPWOPBmZ8X0c3c.jpg", "popularity": 14.214}, {"adult": false, "backdrop_path": "/gRY30dvyLhydkblpE0v3NiXt0Nj.jpg", "genre_ids": [35, 10749], "id": 6557, "original_language": "en", "original_title": "27 Dresses", "overview": "Altruistic Jane finds herself facing her worst nightmare as her younger sister announces her engagement to the man Jane secretly adores.", "poster_path": "/zzJtHNzi1D4CPwRlPHV1TRQNXD2.jpg", "release_date": "2008-01-10", "title": "27 Dresses", "video": false, "vote_average": 6.3, "vote_count": 2136, "popularity": 10.851}, {"adult": false, "backdrop_path": "/yIj4Y2BXbjr8Qem6Ly8QJWt4PgL.jpg", "genre_ids": [35, 10749], "id": 31773, "original_language": "en", "original_title": "Libeled Lady", "overview": "When a major newspaper accuses wealthy socialite Connie Allenbury of being a home-wrecker, and she files a multi-million-dollar libel lawsuit, the publication's frazzled head editor, Warren Haggerty, must find a way to turn the tables on her. Soon Haggerty's harried fianc\u00e9e, Gladys Benton, and his dashing friend Bill Chandler are in on a scheme that aims to discredit Connie, with amusing and unexpected results.", "poster_path": "/kqFyuN4riFJz2JblUZZKYNiTt5p.jpg", "release_date": "1936-10-09", "title": "Libeled Lady", "video": false, "vote_average": 7.4, "vote_count": 45, "popularity": 6.659}, {"adult": false, "backdrop_path": "/k9dJ6wKKg1Ye8XCGuNOtPoTpRn9.jpg", "genre_ids": [35, 18, 10749], "id": 24807, "original_language": "en", "original_title": "Mr. Deeds Goes to Town", "overview": "Longfellow Deeds lives in a small town, leading a small town kind of life. When a relative dies and leaves Deeds a fortune, Longfellow moves to the big city where he becomes an instant target for everyone. Deeds outwits them all until Babe Bennett comes along. When small-town boy meets big-city girl anything can, and does, happen.", "poster_path": "/nWPUslg7us6CUjm5XtsnsuuGmNr.jpg", "release_date": "1936-04-09", "title": "Mr. Deeds Goes to Town", "video": false, "vote_average": 7.6, "vote_count": 147, "popularity": 12.611}, {"adult": false, "backdrop_path": "/wfFTStTBWo3zIciBW4Eob3sarSz.jpg", "genre_ids": [35, 10749], "id": 3078, "original_language": "en", "original_title": "It Happened One Night", "overview": "A renegade reporter and a crazy young heiress meet on a bus heading for New York, and end up stuck with each other when the bus leaves them behind at one of the stops.", "poster_path": "/k63JqnFvkIGWGhjsqRiksZw2OSs.jpg", "release_date": "1934-02-22", "title": "It Happened One Night", "video": false, "vote_average": 7.9, "vote_count": 563, "popularity": 13.497}, {"id": 267192, "video": false, "vote_count": 434, "vote_average": 6.5, "title": "Genius", "release_date": "2016-06-10", "original_language": "en", "original_title": "Genius", "genre_ids": [18, 36], "backdrop_path": "/5eovlgVfijObBm4TtW1QSaj32q3.jpg", "adult": false, "overview": "New York in the 1920s. Max Perkins, a literary editor is the first to sign such subsequent literary greats as Ernest Hemingway and F. Scott Fitzgerald. When a sprawling, chaotic 1,000-page manuscript by an unknown writer falls into his hands, Perkins is convinced he has discovered a literary genius.", "poster_path": "/nwnmZkRkXpu11Zfku8DUSRu7JWs.jpg", "popularity": 10.301}, {"adult": false, "backdrop_path": "/spFSZBt83uruCwedMN8HR2uFklI.jpg", "genre_ids": [28, 12, 878], "id": 11411, "original_language": "en", "original_title": "Superman IV: The Quest for Peace", "overview": "With global superpowers engaged in an increasingly hostile arms race, Superman leads a crusade to rid the world of nuclear weapons. But Lex Luthor, recently sprung from jail, is declaring war on the Man of Steel and his quest to save the planet. Using a strand of Superman's hair, Luthor synthesizes a powerful ally known as Nuclear Man and ignites an epic battle spanning Earth and space.", "poster_path": "/q1P6UHWdrtZNkmdnoprV0ILfLlr.jpg", "release_date": "1987-07-23", "title": "Superman IV: The Quest for Peace", "video": false, "vote_average": 4.3, "vote_count": 640, "popularity": 14.331}, {"id": 42861, "video": false, "vote_count": 51, "vote_average": 5.7, "title": "Cimarron", "release_date": "1931-02-09", "original_language": "en", "original_title": "Cimarron", "genre_ids": [18, 37], "backdrop_path": "/8DNyb9U2DAxKsg7dsYCs1E9598t.jpg", "adult": false, "overview": "When the government opens up the Oklahoma territory for settlement, restless Yancey Cravat claims a plot of the free land for himself and moves his family there from Wichita. A newspaperman, lawyer, and just about everything else, Cravat soon becomes a leading citizen of the boom town of Osage. Once the town is established, however, he begins to feel confined once again, and heads for the Cherokee Strip, leaving his family behind. During this and other absences, his wife Sabra must learn to take care of herself and soon becomes prominent in her own right.", "poster_path": "/o5TfT5lgfEfuf25S5kPG92dd8jm.jpg", "popularity": 5.379}], "total_pages": 10, "total_results": 188}, "recommendations": {"page": 1, "results": [], "total_pages": 1, "total_results": 0}, "credits": {"cast": [{"cast_id": 1, "character": "Philippe de Morannes", "credit_id": "52fe4949c3a368484e123d3d", "gender": 2, "id": 148082, "name": "Sacha Guitry", "order": 0, "profile_path": "/oS88TmvqUG3jnqeXpU5n8ozLzaa.jpg"}, {"cast_id": 2, "character": "Paulette Nanteuil", "credit_id": "52fe4949c3a368484e123d41", "gender": 1, "id": 238605, "name": "Gaby Morlay", "order": 1, "profile_path": "/xYLeJ6KNHWLypDrcYWxLvbVNL1M.jpg"}, {"cast_id": 3, "character": "Claudine Andr\u00e9", "credit_id": "52fe4949c3a368484e123d45", "gender": 0, "id": 237869, "name": "Jacqueline Delubac", "order": 2, "profile_path": "/ze8e0Mv8sZ7arI1zMfpGBbwac4Y.jpg"}, {"cast_id": 4, "character": "Carl Erickson", "credit_id": "52fe4949c3a368484e123d49", "gender": 0, "id": 258032, "name": "Georges Grey", "order": 3, "profile_path": null}, {"cast_id": 5, "character": "la domestique", "credit_id": "52fe4949c3a368484e123d4d", "gender": 1, "id": 543813, "name": "Pauline Carton", "order": 4, "profile_path": "/59YpqOppdLymi8UOupKm256LT0U.jpg"}, {"cast_id": 6, "character": "le docteur", "credit_id": "52fe4949c3a368484e123d51", "gender": 0, "id": 579795, "name": "Jacques Vitry", "order": 5, "profile_path": null}, {"cast_id": 7, "character": "Durmel", "credit_id": "52fe4949c3a368484e123d55", "gender": 0, "id": 579796, "name": "Louis Baldy", "order": 6, "profile_path": null}, {"cast_id": 8, "character": "le ma\u00eetre d'h\u00f4tel", "credit_id": "52fe4949c3a368484e123d59", "gender": 0, "id": 39496, "name": "Julien Rivi\u00e8re", "order": 7, "profile_path": null}, {"cast_id": 9, "character": "le chef de r\u00e9ception", "credit_id": "52fe4949c3a368484e123d5d", "gender": 0, "id": 579797, "name": "Louis Vonelly", "order": 8, "profile_path": null}, {"cast_id": 10, "character": "le concierge", "credit_id": "52fe4949c3a368484e123d61", "gender": 0, "id": 579798, "name": "Paul Alex", "order": 9, "profile_path": null}, {"cast_id": 11, "character": "un chasseur", "credit_id": "52fe4949c3a368484e123d65", "gender": 0, "id": 579799, "name": "Marc H\u00e9lin", "order": 10, "profile_path": null}, {"cast_id": 12, "character": "un valet de chambre", "credit_id": "52fe4949c3a368484e123d69", "gender": 0, "id": 579800, "name": "Pierre Huchet", "order": 11, "profile_path": null}, {"cast_id": 13, "character": "le r\u00e9gisseur", "credit_id": "52fe4949c3a368484e123d6d", "gender": 0, "id": 579801, "name": "Georges Lemaire", "order": 12, "profile_path": null}, {"cast_id": 14, "character": "une femme de chambre", "credit_id": "52fe4949c3a368484e123d71", "gender": 0, "id": 579802, "name": "Marie-Claire Pissaro", "order": 13, "profile_path": null}, {"cast_id": 15, "character": "une habilleuse", "credit_id": "52fe4949c3a368484e123d75", "gender": 0, "id": 579803, "name": "Clary Monthal", "order": 14, "profile_path": null}, {"cast_id": 16, "character": "Madame de Germond", "credit_id": "52fe4949c3a368484e123d79", "gender": 0, "id": 579777, "name": "Marguerite Templey", "order": 15, "profile_path": null}], "crew": [{"credit_id": "52fe4949c3a368484e123d7f", "department": "Directing", "gender": 2, "id": 148082, "job": "Director", "name": "Sacha Guitry", "profile_path": "/oS88TmvqUG3jnqeXpU5n8ozLzaa.jpg"}, {"credit_id": "52fe4949c3a368484e123d85", "department": "Writing", "gender": 2, "id": 148082, "job": "Writer", "name": "Sacha Guitry", "profile_path": "/oS88TmvqUG3jnqeXpU5n8ozLzaa.jpg"}, {"credit_id": "52fe4949c3a368484e123d8b", "department": "Production", "gender": 0, "id": 1093443, "job": "Producer", "name": "Emile Natan", "profile_path": null}, {"credit_id": "52fe4949c3a368484e123d91", "department": "Production", "gender": 0, "id": 41006, "job": "Producer", "name": "Joseph Spigler", "profile_path": null}, {"credit_id": "52fe4949c3a368484e123d97", "department": "Sound", "gender": 0, "id": 579790, "job": "Original Music Composer", "name": "Adolphe Borchard", "profile_path": null}, {"credit_id": "52fe4949c3a368484e123da3", "department": "Editing", "gender": 0, "id": 1093440, "job": "Editor", "name": "Myriam Borsoutsky", "profile_path": null}, {"credit_id": "534534c4c3a36825a0001538", "department": "Camera", "gender": 2, "id": 45479, "job": "Director of Photography", "name": "Robert Lefebvre", "profile_path": null}]}}