{"adult": false, "backdrop_path": null, "belongs_to_collection": null, "budget": 0, "genres": [{"id": 18, "name": "Drama"}], "homepage": null, "id": 77353, "imdb_id": "tt0268303", "original_language": "sv", "original_title": "Festival", "overview": "17 years old Lina goes to the Arvika Festival with her boyfriend Calle despite that her mother forbade her. At the festival she meets the singer Marc and they start to like each other but things are getting difficult.", "popularity": 0.6, "poster_path": "/p0CmvdRxpD73P9BNBCiS0zUE6HH.jpg", "production_companies": [{"id": 9334, "logo_path": "/2H3ezZEmLjr67ZeOSUJuqD80rCS.png", "name": "G\u00f6taFilm", "origin_country": "SE"}, {"id": 111219, "logo_path": null, "name": "Middle Earth Entertainment", "origin_country": ""}, {"id": 8136, "logo_path": "/1JrepkIG6EsdklWZ9tZbE0uRHvj.png", "name": "MTV", "origin_country": ""}, {"id": 12925, "logo_path": null, "name": "The Walt Disney Company Nordic", "origin_country": "SE"}, {"id": 2802, "logo_path": "/x3cLK4hmrDxBeoD7eWbfJL2dGxP.png", "name": "TV4", "origin_country": "SE"}], "production_countries": [{"iso_3166_1": "SE", "name": "Sweden"}], "release_date": "2001-02-16", "revenue": 0, "runtime": 96, "spoken_languages": [{"iso_639_1": "sv", "name": "svenska"}], "status": "Released", "tagline": "", "title": "Festival", "video": false, "vote_average": 5.0, "vote_count": 3, "keywords": {"keywords": [{"id": 160213, "name": "festival"}]}, "similar": {"page": 1, "results": [{"id": 10545, "video": false, "vote_count": 3018, "vote_average": 7.0, "title": "The Hunchback of Notre Dame", "release_date": "1996-06-21", "original_language": "en", "original_title": "The Hunchback of Notre Dame", "genre_ids": [16, 18, 10751], "backdrop_path": "/oslaee3VX9kJAjVezbjZKlEJDzn.jpg", "adult": false, "overview": "When Quasimodo defies the evil Frollo and ventures out to the Festival of Fools, the cruel crowd jeers him. Rescued by fellow outcast the gypsy Esmeralda, Quasi soon finds himself battling to save the people and the city he loves.", "poster_path": "/r7V92gY3AMO6li17MmGTixAnFcv.jpg", "popularity": 28.041}, {"id": 352492, "video": false, "vote_count": 414, "vote_average": 5.9, "title": "XOXO", "release_date": "2016-08-26", "original_language": "en", "original_title": "XOXO", "genre_ids": [18, 10402], "backdrop_path": "/dP3bxMPEDc9eNN2nH9P5YyhS27p.jpg", "adult": false, "overview": "XOXO follows six strangers whose lives collide in one frenetic, dream-chasing, hopelessly romantic night.", "poster_path": "/3mCcVbVLz23MhCngELFihX2uSwb.jpg", "popularity": 8.887}, {"id": 472226, "video": false, "vote_count": 84, "vote_average": 5.4, "title": "Blood Fest", "release_date": "2018-08-17", "original_language": "en", "original_title": "Blood Fest", "genre_ids": [35, 27], "backdrop_path": "/e4eeJjON17Cv7Cio3QEyC4xv5uZ.jpg", "adult": false, "overview": "Fans flock to a festival celebrating the most iconic horror movies, only to discover that the charismatic showman behind the event has a diabolical agenda. As attendees start dying off, three teenagers with more horror-film wits than real-world knowledge must band together and battle through every madman, monstrosity, and terrifying scenario if they have any hope of surviving.", "poster_path": "/iy6mJ8EvVQrrSrSblK7GRYFq1Mp.jpg", "popularity": 8.076}, {"adult": false, "backdrop_path": "/cMDrNf7QdDCqKwgIh2HSKbfn6EH.jpg", "genre_ids": [28, 18], "id": 198254, "original_language": "ml", "original_title": "\u0d06\u0d31\u0d3e\u0d02\u0d24\u0d2e\u0d4d\u0d2a\u0d41\u0d30\u0d3e\u0d28\u0d4d\u200d", "overview": "Jagannathan faces several challenges when he goes to stay in Kanimangalam village. He promises the villagers that he will help in the preparations for the annual temple festival, but will his enemies leave him in peace?", "poster_path": "/yExpzbpdW3ymmR5zG1ONTduEdvZ.jpg", "release_date": "1997-12-19", "title": "Aaram Thamburan", "video": false, "vote_average": 6.6, "vote_count": 10, "popularity": 8.33}, {"adult": false, "backdrop_path": "/6O2MUl8ikacsuCpTnF6LJMjvFP6.jpg", "genre_ids": [35, 18], "id": 38509, "original_language": "en", "original_title": "Polish Wedding", "overview": "The film centers on a big Polish family. Jadzia is the mother and the ruler of the Pzoniak family (she has five children). Though she's happily married to Bolek, she is also having a long-time affair with Roman. Her young daughter Hala is having an affair with neighbour cop Russell and becomes pregnant by him. Russell is pressed hard to marry Hala.", "poster_path": "/g7uRulFnicgUoKDVBmcRUgwr9Q0.jpg", "release_date": "1998-01-16", "title": "Polish Wedding", "video": false, "vote_average": 5.7, "vote_count": 21, "popularity": 4.816}, {"adult": false, "backdrop_path": "/w6gJNbhOxaxuzt9ZWru6fj0vS70.jpg", "genre_ids": [18], "id": 589958, "original_language": "es", "original_title": "Ojos negros", "overview": "Paula, a thirteen year old girl, starts to experience certain complications in the relationships with her family and friends. In order to be with her ill grandmother, which she barely knows, she spends the summer in Ojos Negros. There she will meet Alicia, a girl her age, who also stays in town for the summer. Together they will venture into the adult world through a stifling summer that never ends.", "poster_path": "/AobvdwdZT4EZYEbyWUaNXOSiL4f.jpg", "release_date": "2019-07-19", "title": "Dark Eyes", "video": false, "vote_average": 6.7, "vote_count": 3, "popularity": 0.98}, {"adult": false, "backdrop_path": "/cqHhxwW6aUx6cBbbQLbzW69BPXf.jpg", "genre_ids": [10749, 10770], "id": 549301, "original_language": "en", "original_title": "Christmas at Pemberley Manor", "overview": "As Christmas approaches, Elizabeth Bennett, a New York event planner is sent to a quaint, small town to organize a holiday festival. When she arrives, she finds William Darcy, a high-profile billionaire lacking in holiday spirit, in the process of selling the charming estate she hoped to use as a venue. Elizabeth persuades the reluctant Darcy to let her hold the festival on the historical estate and, before long, the unlikely pair begins falling for each other.", "poster_path": "/a9Dja61XK00gxXdl5pwFZUO0cYY.jpg", "release_date": "2018-10-27", "title": "Christmas at Pemberley Manor", "video": false, "vote_average": 6.2, "vote_count": 27, "popularity": 4.498}, {"id": 460048, "video": false, "vote_count": 57, "vote_average": 7.2, "title": "Heavy Trip", "release_date": "2018-03-09", "original_language": "fi", "original_title": "Hevi reissu", "genre_ids": [35, 10402], "backdrop_path": "/bFHBFsuWlJdeFlNFcGYiAwQQ11W.jpg", "adult": false, "overview": "Turo is stuck in a small village and the best thing in his life is being the lead vocalist for the amateur metal band Impaled Rektum. He and his bandmates have practiced for 12 years without playing a single gig. The guys get a surprise visitor from Norway -- the promoter for a huge heavy metal music festival -- and decide it's now or never. They steal a van, a corpse, and even a new drummer to make their dreams a reality.", "poster_path": "/iemwek3NFkcsEqTXGHg8xsjXzAk.jpg", "popularity": 7.966}, {"adult": false, "backdrop_path": "/q2JvhPl9WSUy02ZcnEIPhcrJi7u.jpg", "genre_ids": [16, 10751, 14, 10402], "id": 605829, "original_language": "en", "original_title": "The Swan Princess: Kingdom of Music", "overview": "Princess Odette is hosting a music competition to celebrate Princess Alise's birthday. Prince Li of Cathay has entered, but his sister Princess Mei Li has stowed away on his ship to seek help from Odette and Derek for Chen, who has been cursed to live as a dragon. Who will win the music festival and will Chen ever be free from his curse?", "poster_path": "/4pEkHSzxNHcEYseYWxR0MGiDRIf.jpg", "release_date": "2019-08-05", "title": "The Swan Princess: Kingdom of Music", "video": false, "vote_average": 7.5, "vote_count": 2, "popularity": 12.804}, {"id": 418109, "video": false, "vote_count": 4, "vote_average": 6.7, "title": "The Scythian Lamb", "release_date": "2018-02-03", "original_language": "ja", "original_title": "\u7f8a\u306e\u6728", "genre_ids": [80, 18], "backdrop_path": "/730eUqBKDGjgMTukQrf4zKO0txB.jpg", "adult": false, "overview": "Based on a manga written by Tatsuhiko Yamagami, the story is set in a former seaport town Uobuka, where 6 former criminals were sent to live there by the government, with the intention of re-socialising them. Aside from the few who know about the project, the general townsfolk has no idea of the former convicts' identities. Tsukisue is the pleasant and efficient municipal official put in charge of the programme. As he slowly learns about their past, a body is discovered.", "poster_path": "/9AGEsJGR6ywe1pDkDEpf6WlfQTt.jpg", "popularity": 2.911}, {"adult": false, "backdrop_path": null, "genre_ids": [35, 18, 10402], "id": 521768, "original_language": "en", "original_title": "On Such a Night", "overview": "An American tourist on a day trip to Sussex from London inadvertently finds himself at Glyndebourne Opera House in Sussex where he learns to appreciate Opera.", "poster_path": "/oRlxLP3uB1PC7aaCaihF4Q6nuS1.jpg", "release_date": "1956-02-01", "title": "On Such a Night", "video": false, "vote_average": 0.0, "vote_count": 0, "popularity": 1.22}, {"adult": false, "backdrop_path": null, "genre_ids": [99], "id": 66190, "original_language": "de", "original_title": "Jag Mandir: Das exzentrische Privattheater des Maharadscha von Udaipur", "overview": "Jag Mandir is a quiet and often overlooked film in the vast oeuvre of Werner Herzog. Apparently, 20 hours of footage was shot that covered the whole fest and the film hardly presents us a twentieth of that. A native walking into the film in between may well fail to immediately realize that it is his country that is being shown and these are figures from the mythology of various sections of his nation.", "poster_path": "/qN5CGS2U0r4lBuEprvt1FVOl1eB.jpg", "release_date": "1991-01-01", "title": "Jag Mandir", "video": false, "vote_average": 7.5, "vote_count": 2, "popularity": 2.582}, {"adult": false, "backdrop_path": null, "genre_ids": [18], "id": 327740, "original_language": "sr", "original_title": "Sok od \u0161ljiva", "overview": "DJ from a small town plans to organize a great artistic happening. His plans coincide with those by local bigwigs who desperately want to promote a local food company.", "poster_path": "/58kCptoWRxU6DItNhcXBxkpnG9A.jpg", "release_date": "1981-01-01", "title": "Plum Juice", "video": false, "vote_average": 0.0, "vote_count": 0, "popularity": 0.926}, {"adult": false, "backdrop_path": "/eymMfDdLw2oGR93PC6sNvTTov5e.jpg", "genre_ids": [18], "id": 354710, "original_language": "ja", "original_title": "\u6625\u99d2\u306e\u3046\u305f", "overview": "Hoshino Bunzo raises up his orphan grandson, Keiji whose right leg gets paralyzed when he was an infant. Bunzo loves Keiji so much that he does every thing to protect his grandson. Sonoda Keiko, a new young teacher comes to the school when a new term starts. She wants Keiji to go back to school. After two years absence from school, Keiji tries to attend the class but he cannot continue. All pupils hold an exhibition of Keiji\u2019s paintings in the village shrine to make him happy. He is very pleased and gives his paintings to them and to Keiko, he gives a painting entitled \"Spring Pony\". When this picture is awarded a prize in the National Friendship Painting Compettition, it is like a new beginning for Keiji\u2019s family.", "poster_path": "/msaS7nPTNjTlwJdeHuR5Cun9VCq.jpg", "release_date": "1985-03-22", "title": "Song of the Spring Pony", "video": false, "vote_average": 7.0, "vote_count": 1, "popularity": 0.87}, {"adult": false, "backdrop_path": "/5iiLnYPAQ1znmmw2oToAih3RiG4.jpg", "genre_ids": [18], "id": 432794, "original_language": "hr", "original_title": "Kratki izlet", "overview": "Stola has been spending his summer in the sweltering haze of festival parties. But one day, he runs into Roko, an old acquaintance, who is on a mission to discover medieval frescoes at a nearby monastery. Roko convinces Stola and a random group of partygoers to join him in his search. However, when their bus breaks down in the middle of nowhere, their brief excursion turns into an allegorical journey into the unknown.", "poster_path": "/5qNT5zJSJijFlG0I7ppaFtdRrKW.jpg", "release_date": "2017-01-28", "title": "A Brief Excursion", "video": false, "vote_average": 7.0, "vote_count": 1, "popularity": 0.6}, {"id": 474990, "video": false, "vote_count": 17, "vote_average": 4.6, "title": "Christmas Festival of Ice", "release_date": "2017-11-04", "original_language": "en", "original_title": "Christmas Festival of Ice", "genre_ids": [10749, 10770], "backdrop_path": "/h6J8J7us70Cbn9R9eRvXR4WIu6C.jpg", "adult": false, "overview": "A young woman faces her future as a lawyer in a small New England town where the annual Christmas ice sculpting competition in which she and her father have always competed has been cancelled. Working to save the festival, she meets a reluctant sculptor who reignites her passion, in more ways than one.", "poster_path": "/AnrR3CDahfjpuTM46vUzFwrsMuO.jpg", "popularity": 3.857}, {"adult": false, "backdrop_path": "/5WQ5hzGsX4v4a57BdbIkCSivAcw.jpg", "genre_ids": [53], "id": 73661, "original_language": "en", "original_title": "Munger Road", "overview": "On the eve of the annual Scarecrow Festival, two St. Charles police officers search for a return killer the same night four teenagers go missing on Munger Road", "poster_path": "/cJVIKMpL6PxjzAxC1KoJxjJFpN3.jpg", "release_date": "2011-09-30", "title": "Munger Road", "video": false, "vote_average": 4.4, "vote_count": 17, "popularity": 4.732}, {"adult": false, "backdrop_path": "/teZpC5SjI8VCL7NQBYJHNH0la3M.jpg", "genre_ids": [99, 10402], "id": 597965, "original_language": "en", "original_title": "The Show Must Go On: The Queen + Adam Lambert Story", "overview": "A documentary chronicling Queen and Lambert's incredible journey since they first shared the stage together on \"American Idol\" in 2009.", "poster_path": "/b2L91hIyRSpM59ArCCJk0U02XWv.jpg", "release_date": "2019-04-29", "title": "The Show Must Go On: The Queen + Adam Lambert Story", "video": false, "vote_average": 6.0, "vote_count": 3, "popularity": 4.653}, {"adult": false, "backdrop_path": "/l3CADEDk5MSzRd4f1vPHG6NBqce.jpg", "genre_ids": [10402], "id": 485528, "original_language": "en", "original_title": "Sam Smith at the BBC", "overview": "Sam Smith performs tracks from their latest album alongside some of their biggest hits, including Stay With Me and the Oscar-winning Writing's on the Wall, accompanied by their band and the BBC Concert Orchestra.", "poster_path": "/bOYmuiYW9dbGcvx3cSFHM1hCm0p.jpg", "release_date": "2017-11-09", "title": "Sam Smith at the BBC", "video": false, "vote_average": 8.0, "vote_count": 1, "popularity": 1.929}, {"adult": false, "backdrop_path": "/8a9Xue2OaPReWOeBR79toxeCHL3.jpg", "genre_ids": [35, 53], "id": 160649, "original_language": "ml", "original_title": "\u0d31\u0d4b\u0d2e\u0d28\u0d4d\u200d\u0d38\u0d4d", "overview": "Akash and Shibu are two jail birds who escape from a train while they are being transported to a jail. They end up in a village at the Kerala \u2013 Tamil Nadu border, where they are mistaken for a pair of priests expected at the local monastery. The duo masquerade as priests, and reopen a church which has been closed for years, thereby winning over the villagers. A series of events that take place after their arrival bring about a change in their outlook towards life and society.", "poster_path": "/3hzZP8huEFU5h2vrzvM24qZyObA.jpg", "release_date": "2013-01-16", "title": "Romans", "video": false, "vote_average": 6.8, "vote_count": 12, "popularity": 2.195}], "total_pages": 4, "total_results": 80}, "recommendations": {"page": 1, "results": [{"adult": false, "backdrop_path": "/kyqVS4JIvgKedUWQ7orVsGZiumG.jpg", "genre_ids": [18, 35], "id": 159480, "original_language": "sv", "original_title": "P\u00e5 Sista Versen - En Liten Film om D\u00f6den", "overview": "The documentary director KG Forsberg makes a film about his dying father.", "poster_path": "/pNl6mcqSouG39musbPhZsJRZc6d.jpg", "release_date": "1999-04-15", "title": "On the Last Verse - A Small Film About Death", "video": false, "vote_average": 3.7, "vote_count": 3, "popularity": 1.032}, {"adult": false, "backdrop_path": "/bkexgJ8Pe0LLmTT0lfNDxBSdJC2.jpg", "genre_ids": [35], "id": 44552, "original_language": "sv", "original_title": "Livet i 8 bitar", "overview": "The story of J whose goal is to be world master at playing Nintendo. He struggles with his traditional Jewish family and non-Jewish girlfriend who demand that he grow up and get a job. Real problems arise when he awakes to discover that his right hand is missing.", "poster_path": "/czAR9UpXtLeGPL1Kt9tQmqJJ9bT.jpg", "release_date": "2002-09-27", "title": "Bit by Bit", "video": false, "vote_average": 4.8, "vote_count": 5, "popularity": 1.445}], "total_pages": 1, "total_results": 2}, "credits": {"cast": [{"cast_id": 1000, "character": "Lina", "credit_id": "52fe4968c3a368484e129d57", "gender": 1, "id": 581732, "name": "Ebba Hultkvist", "order": 0, "profile_path": "/zuHMNkhzCcnVPxXk9qUmsIys4qt.jpg"}, {"cast_id": 1001, "character": "Marc", "credit_id": "52fe4968c3a368484e129d5b", "gender": 2, "id": 282708, "name": "Martin Aliaga", "order": 1, "profile_path": null}, {"cast_id": 1002, "character": "Calle", "credit_id": "52fe4968c3a368484e129d5f", "gender": 0, "id": 68567, "name": "Jesper Sal\u00e9n", "order": 2, "profile_path": "/4snr7kpyRAHmQrQzH6caQ4RI7Mp.jpg"}, {"cast_id": 1003, "character": "Milla", "credit_id": "52fe4968c3a368484e129d63", "gender": 0, "id": 74733, "name": "K\u00e4lla Bie", "order": 3, "profile_path": null}, {"cast_id": 1004, "character": "Lukas", "credit_id": "52fe4968c3a368484e129d67", "gender": 2, "id": 87663, "name": "Sverrir Gudnason", "order": 4, "profile_path": "/4nAiRDA3k53sCfWrR77mEm6s1af.jpg"}, {"cast_id": 1005, "character": "Ola", "credit_id": "52fe4968c3a368484e129d6b", "gender": 0, "id": 321214, "name": "David Boati", "order": 5, "profile_path": null}, {"cast_id": 1006, "character": "Theo", "credit_id": "52fe4968c3a368484e129d6f", "gender": 0, "id": 581733, "name": "Yankho Kamwendo", "order": 6, "profile_path": null}, {"cast_id": 1007, "character": "Linas mamma", "credit_id": "52fe4968c3a368484e129d73", "gender": 0, "id": 114189, "name": "Catherine Hansson", "order": 7, "profile_path": "/ceJ4t93laJAQ8fx6utC0dxIKLN2.jpg"}, {"cast_id": 1008, "character": "Calles pappa", "credit_id": "52fe4968c3a368484e129d77", "gender": 2, "id": 114580, "name": "Ralph Carlsson", "order": 8, "profile_path": "/dOrCf2eP4Na05klroiCmPhZk5l3.jpg"}, {"cast_id": 1009, "character": "Sophia", "credit_id": "52fe4968c3a368484e129d7b", "gender": 1, "id": 571547, "name": "Claudia Galli", "order": 9, "profile_path": "/wGK7dzuAKVHJ47jj9hX2dgaKRQI.jpg"}, {"cast_id": 1015, "character": "Bill", "credit_id": "5be9fbbe0e0a263c0a04a74e", "gender": 0, "id": 2174416, "name": "Cary Ylitalo", "order": 10, "profile_path": null}], "crew": [{"credit_id": "5be9fd1d0e0a263bf30495c9", "department": "Directing", "gender": 0, "id": 220330, "job": "First Assistant Director", "name": "Molly Hartleb", "profile_path": null}, {"credit_id": "5be9fd7092514143db045464", "department": "Crew", "gender": 2, "id": 557759, "job": "Stunt Coordinator", "name": "Kimmo Rajala", "profile_path": "/jkAWBWKOFQfdAMRqxTxGs7jmjJ7.jpg"}, {"credit_id": "5be9fd7d9251415828037866", "department": "Sound", "gender": 0, "id": 568058, "job": "Sound Re-Recording Mixer", "name": "Per Bostr\u00f6m", "profile_path": null}, {"credit_id": "5be9fcffc3a368174e0469b9", "department": "Crew", "gender": 0, "id": 852098, "job": "Post Production Supervisor", "name": "Olle Wirenhed", "profile_path": null}, {"credit_id": "5be9fb90c3a368174a04865e", "department": "Writing", "gender": 0, "id": 1086519, "job": "Writer", "name": "Marietta von Hausswolff von Baumgarten", "profile_path": null}, {"credit_id": "52fe4968c3a368484e129d81", "department": "Directing", "gender": 2, "id": 1206816, "job": "Director", "name": "Karl-Johan Larsson", "profile_path": "/67oHdNuOor23CUu9cqVdq1vXV0s.jpg"}, {"credit_id": "5be9fd390e0a263c0a04a89c", "department": "Art", "gender": 1, "id": 1311560, "job": "Props", "name": "Teresa Beale", "profile_path": null}, {"credit_id": "5be9fd66c3a368173a04b9b1", "department": "Visual Effects", "gender": 0, "id": 1346945, "job": "Digital Compositor", "name": "Andreas Hylander", "profile_path": null}, {"credit_id": "5be9fd0ec3a36876cf0196ff", "department": "Directing", "gender": 0, "id": 1499251, "job": "Second Unit Director", "name": "Patrik Dufwa", "profile_path": null}, {"credit_id": "5be9fcd892514143f2048d5f", "department": "Costume & Make-Up", "gender": 0, "id": 1530355, "job": "Costume Design", "name": "Maria Malmgren", "profile_path": null}, {"credit_id": "5be9fd9c925141582803787b", "department": "Sound", "gender": 0, "id": 1763962, "job": "Sound Assistant", "name": "Stefan Levin", "profile_path": null}, {"credit_id": "5be9fc7c92514143e2045924", "department": "Camera", "gender": 0, "id": 1800315, "job": "Director of Photography", "name": "Jens Jansson", "profile_path": null}, {"credit_id": "5be9fc650e0a263c0004a2cd", "department": "Sound", "gender": 0, "id": 1867584, "job": "Original Music Composer", "name": "Ulf Kjellberg", "profile_path": null}, {"credit_id": "5be9fc29c3a368173004b7fb", "department": "Production", "gender": 0, "id": 1919700, "job": "Executive Producer", "name": "Janne Wallin", "profile_path": null}, {"credit_id": "5be9fb6c0e0a263c020497f5", "department": "Writing", "gender": 0, "id": 2174412, "job": "Writer", "name": "Katali Jarefj\u00e4ll", "profile_path": null}, {"credit_id": "5be9fb760e0a263c02049804", "department": "Writing", "gender": 0, "id": 2174413, "job": "Writer", "name": "Henning Lindblad", "profile_path": null}, {"credit_id": "5be9fc19c3a368173a04b8b5", "department": "Production", "gender": 0, "id": 2174414, "job": "Executive Producer", "name": "Jan Palmblad", "profile_path": null}, {"credit_id": "5be9fb81c3a368173004b74e", "department": "Writing", "gender": 0, "id": 2174414, "job": "Writer", "name": "Jan Palmblad", "profile_path": null}, {"credit_id": "5be9fbe9c3a368174204bfc0", "department": "Production", "gender": 0, "id": 2174417, "job": "Line Producer", "name": "Peter Arnbert", "profile_path": null}, {"credit_id": "5be9fbf8c3a36876cf019600", "department": "Production", "gender": 0, "id": 2174418, "job": "Executive Producer", "name": "Jens Bohman", "profile_path": null}, {"credit_id": "5be9fc07c3a368173a04b8a7", "department": "Production", "gender": 0, "id": 2174419, "job": "Executive Producer", "name": "Eric Broberg", "profile_path": null}, {"credit_id": "5be9fc3b9251415828037762", "department": "Production", "gender": 0, "id": 2174420, "job": "Executive Producer", "name": "\u00d6rjan Woldoff", "profile_path": null}, {"credit_id": "5be9fc4692514143f2048cf4", "department": "Sound", "gender": 0, "id": 2174421, "job": "Original Music Composer", "name": "Joel Eriksson", "profile_path": null}, {"credit_id": "5be9fc57c3a368173004b838", "department": "Sound", "gender": 0, "id": 2174422, "job": "Original Music Composer", "name": "Martin Janson", "profile_path": null}, {"credit_id": "5be9fd920e0a263bf504a884", "department": "Sound", "gender": 0, "id": 2174422, "job": "Sound Editor", "name": "Martin Janson", "profile_path": null}, {"credit_id": "5be9fc6f92514143f2048d1d", "department": "Sound", "gender": 0, "id": 2174423, "job": "Original Music Composer", "name": "Gaili Schoen", "profile_path": null}, {"credit_id": "5be9fcaac3a368173a04b91a", "department": "Editing", "gender": 0, "id": 2174424, "job": "Editor", "name": "Pierre Laurent", "profile_path": null}, {"credit_id": "5be9fcbcc3a368174a04873f", "department": "Art", "gender": 0, "id": 2174425, "job": "Production Design", "name": "\u00c5sa Isacsson", "profile_path": null}, {"credit_id": "5be9fcc792514143f5045531", "department": "Costume & Make-Up", "gender": 0, "id": 2174426, "job": "Costume Design", "name": "Ir\u00e9ne Andersson", "profile_path": null}, {"credit_id": "5be9fce5c3a368173a04b94a", "department": "Costume & Make-Up", "gender": 0, "id": 2174427, "job": "Assistant Makeup Artist", "name": "Malena Alfg\u00e5rden", "profile_path": null}, {"credit_id": "5be9fcf00e0a263bf30495b0", "department": "Costume & Make-Up", "gender": 0, "id": 2174428, "job": "Makeup Artist", "name": "Lydia Gerlam", "profile_path": null}, {"credit_id": "5be9fd2d9251415828037839", "department": "Directing", "gender": 0, "id": 2174431, "job": "Second Assistant Director", "name": "Martin Hennung", "profile_path": null}, {"credit_id": "5be9fd459251415828037843", "department": "Art", "gender": 0, "id": 2174432, "job": "Graphic Designer", "name": "Joachim Ljunggren", "profile_path": null}, {"credit_id": "5be9fd500e0a263c06048c81", "department": "Art", "gender": 2, "id": 2174433, "job": "Props", "name": "Peder Svensk", "profile_path": null}, {"credit_id": "5be9fd88c3a36876cf019774", "department": "Sound", "gender": 0, "id": 2174434, "job": "Sound", "name": "Anders Hultberg", "profile_path": null}, {"credit_id": "5be9fdad0e0a263bf504a89b", "department": "Camera", "gender": 0, "id": 2174436, "job": "Assistant Camera", "name": "Rickard Andersson", "profile_path": null}]}}