{"adult": false, "backdrop_path": "/3zsyRuzncmSSYmKA60jXNsDWMbs.jpg", "belongs_to_collection": null, "budget": 0, "genres": [{"id": 27, "name": "Horror"}, {"id": 878, "name": "Science Fiction"}], "homepage": null, "id": 77361, "imdb_id": "tt0089002", "original_language": "en", "original_title": "Death Warmed Up", "overview": "A kid is hypnotized by a scientist to kill his parents and ends in a mental institution. As a grown up he returns to seek revenge over the scientist.", "popularity": 2.359, "poster_path": "/isV8EJK4EH5zRQAQybCcMLTGV5L.jpg", "production_companies": [{"id": 102160, "logo_path": null, "name": "Tucker Production Company", "origin_country": ""}, {"id": 294, "logo_path": "/3XuHM8TXG0gDdPM3xJI14gkZbQy.png", "name": "New Zealand Film Commission", "origin_country": "NZ"}], "production_countries": [{"iso_3166_1": "AU", "name": "Australia"}, {"iso_3166_1": "NZ", "name": "New Zealand"}], "release_date": "1985-01-01", "revenue": 0, "runtime": 78, "spoken_languages": [{"iso_639_1": "en", "name": "English"}], "status": "Released", "tagline": "", "title": "Death Warmed Up", "video": false, "vote_average": 3.8, "vote_count": 15, "keywords": {"keywords": [{"id": 2658, "name": "new zealand"}]}, "similar": {"page": 1, "results": [{"id": 527, "video": false, "vote_count": 193, "vote_average": 7.6, "title": "Once Were Warriors", "release_date": "1994-09-02", "original_language": "en", "original_title": "Once Were Warriors", "genre_ids": [18], "backdrop_path": "/ninIdXC6iCDKuQRKFJw7nY4uRY2.jpg", "adult": false, "overview": "A drama about a Maori family living in Auckland, New Zealand. Lee Tamahori tells the story of Beth Heke\u2019s strong will to keep her family together during times of unemployment and abuse from her violent and alcoholic husband.", "poster_path": "/8QF48QS5lvtrhOclt22RFz3bSQm.jpg", "popularity": 9.288}, {"adult": false, "backdrop_path": "/3qgqAUA1JQT3o3CUxUhKQ3qZXBY.jpg", "genre_ids": [27, 35], "id": 763, "original_language": "en", "original_title": "Braindead", "overview": "When a Sumatran rat-monkey bites Lionel Cosgrove's mother, she's transformed into a zombie and begins killing (and transforming) the entire town while Lionel races to keep things under control.", "poster_path": "/zzgn2fBeKmIMDEuX7FqS2l1WGfu.jpg", "release_date": "1992-08-13", "title": "Braindead", "video": false, "vote_average": 7.4, "vote_count": 813, "popularity": 17.58}, {"adult": false, "backdrop_path": "/k4AVaOboquMcd3zbFSSgCEbzabz.jpg", "genre_ids": [35, 27], "id": 246741, "original_language": "en", "original_title": "What We Do in the Shadows", "overview": "Vampire housemates try to cope with the complexities of modern life and show a newly turned hipster some of the perks of being undead.", "poster_path": "/4bqqrtzY9vVQeEcqyqWfTJWmpD9.jpg", "release_date": "2014-06-19", "title": "What We Do in the Shadows", "video": false, "vote_average": 7.6, "vote_count": 1866, "popularity": 19.487}, {"id": 623195, "video": false, "vote_count": 494, "vote_average": 6.5, "title": "Falling Inn Love", "release_date": "2019-09-04", "original_language": "en", "original_title": "Falling Inn Love", "genre_ids": [35, 10749], "backdrop_path": "/2ICDUsngquekHceFekbmYNkRSIF.jpg", "adult": false, "overview": "When a San Francisco exec wins a New Zealand inn, she ditches city life to remodel and flip the rustic property with help from a handsome contractor.", "poster_path": "/4bzu5k5vwLKgwap6pHXlCY8nlh3.jpg", "popularity": 13.557}, {"adult": false, "backdrop_path": "/dVDdABRCmQglgXod01GMHgtkS8k.jpg", "genre_ids": [18, 10749], "id": 713, "original_language": "en", "original_title": "The Piano", "overview": "After a long voyage from Scotland, pianist Ada McGrath and her young daughter, Flora, are left with all their belongings, including a piano, on a New Zealand beach. Ada, who has been mute since childhood, has been sold into marriage to a local man named Alisdair Stewart. Making little attempt to warm up to Alisdair, Ada soon becomes intrigued by his Maori-friendly acquaintance, George Baines, leading to tense, life-altering conflicts.", "poster_path": "/rx8RKXn8OtuS6lqloYsjyrGOUp4.jpg", "release_date": "1993-05-19", "title": "The Piano", "video": false, "vote_average": 7.4, "vote_count": 652, "popularity": 15.318}, {"adult": false, "backdrop_path": "/q9y3nnAAaQMjNHUYSlIypWeEo4F.jpg", "genre_ids": [18], "id": 9912, "original_language": "en", "original_title": "The World's Fastest Indian", "overview": "The life story of New Zealander Burt Munro, who spent years building a 1920 Indian motorcycle -- a bike which helped him set the land-speed world record at Utah's Bonneville Salt Flats in 1967.", "poster_path": "/h3xDXEEjppiyuRtMv6Cy5bcMTrG.jpg", "release_date": "2005-10-12", "title": "The World's Fastest Indian", "video": false, "vote_average": 7.5, "vote_count": 321, "popularity": 13.703}, {"id": 3603, "video": false, "vote_count": 358, "vote_average": 5.6, "title": "Black Sheep", "release_date": "2006-09-09", "original_language": "en", "original_title": "Black Sheep", "genre_ids": [35, 27], "backdrop_path": "/kCELrsJRoM0vqzWdgLIjwkjrAyt.jpg", "adult": false, "overview": "A genetic engineering experiment gone horribly awry turns a large flock of docile sheep into unrelenting killing machines in this rural horror comedy directed by Jonathan King and featuring special effects designed by Weta Workshop.", "poster_path": "/8YoL8WSHv7UKTq7iziI7SrRmdql.jpg", "popularity": 11.76}, {"adult": false, "backdrop_path": "/gk0gnxKDrRGa1J8cN6bYz1aHLW6.jpg", "genre_ids": [18, 10751], "id": 1088, "original_language": "en", "original_title": "Whale Rider", "overview": "On the east coast of New Zealand, the Whangara people believe their presence there dates back a thousand years or more to a single ancestor, Paikea, who escaped death when his canoe capsized by riding to shore on the back of a whale. From then on, Whangara chiefs, always the first-born, always male, have been considered Paikea's direct descendants. Pai, an 11-year-old girl in a patriarchal New Zealand tribe, believes she is destined to be the new chief. But her grandfather Koro is bound by tradition to pick a male leader. Pai loves Koro more than anyone in the world, but she must fight him and a thousand years of tradition to fulfill her destiny.", "poster_path": "/x6qMQ6LActtQSjuXidzuhqVW3AT.jpg", "release_date": "2003-01-30", "title": "Whale Rider", "video": false, "vote_average": 7.4, "vote_count": 192, "popularity": 10.243}, {"id": 371645, "video": false, "vote_count": 1045, "vote_average": 7.8, "title": "Hunt for the Wilderpeople", "release_date": "2016-03-31", "original_language": "en", "original_title": "Hunt for the Wilderpeople", "genre_ids": [12, 35, 18], "backdrop_path": "/1jvCKo7NOFKXRfpuifvG8tVZQsA.jpg", "adult": false, "overview": "Ricky is a defiant young city kid who finds himself on the run with his cantankerous foster uncle in the wild New Zealand bush. A national manhunt ensues, and the two are forced to put aside their differences and work together to survive.", "poster_path": "/2wxvvnHKdZRB31Drf7PbRzPb0mR.jpg", "popularity": 11.832}, {"id": 39356, "video": false, "vote_count": 169, "vote_average": 7.4, "title": "Boy", "release_date": "2010-02-14", "original_language": "en", "original_title": "Boy", "genre_ids": [35, 18], "backdrop_path": "/vFrXVHe9Wjwn60zWeL2uYvwZUgn.jpg", "adult": false, "overview": "It's 1984, and Michael Jackson is king - even in Waihau Bay, New Zealand. Here we meet Boy, an 11-year-old who lives on a farm with his gran, a goat, and his younger brother, Rocky (who thinks he has magic powers). Shortly after Gran leaves for a week, Boy's father, Alamein, appears out of the blue. Having imagined a heroic version of his father during his absence, Boy comes face to face with the real version-an incompetent hoodlum who has returned to find a bag of money he buried years before. This is where the goat enters.", "poster_path": "/jOcwOnCwTbCvJm7jAbeSo4Jgv0H.jpg", "popularity": 8.642}, {"adult": false, "backdrop_path": "/iZ1Iyh6pe0Igt3n95DxkJWBfwOD.jpg", "genre_ids": [35, 27, 10402], "id": 323373, "original_language": "en", "original_title": "Deathgasm", "overview": "Two teenage boys unwittingly summon an ancient evil entity known as The Blind One by delving into black magic while trying to escape their mundane lives.", "poster_path": "/cwy9sGEOAuzpZXzXBVln1PZ4vxn.jpg", "release_date": "2015-08-28", "title": "Deathgasm", "video": false, "vote_average": 6.2, "vote_count": 341, "popularity": 7.979}, {"id": 8748, "video": false, "vote_count": 152, "vote_average": 6.6, "title": "Eagle vs Shark", "release_date": "2007-07-15", "original_language": "en", "original_title": "Eagle vs Shark", "genre_ids": [35, 10749], "backdrop_path": "/a6GzCp5lZW9lkfw4YkwEHdMetmQ.jpg", "adult": false, "overview": "The New Zealand made \"Eagle vs Shark\" is the tale of two socially awkward misfits and the strange ways they try to find love; through revenge on high-school bullies, burgers, and video games.  Love blossoms for Lily over double Meaty Boy burgers at mid-day when uber-computer nerd Jarrod comes in and leaves with free extra large fries.  After gatecrashing Jarrod's party and proving her skills on the game console, Lily goes down to Jarrod's home town with him so he can settle an old score with a past school bully.", "poster_path": "/ybKgtpmn54tENqG1mbPiyXpPXVW.jpg", "popularity": 7.205}, {"adult": false, "backdrop_path": "/sg3Enbal9aQJa8T6j5qLO0A7eqC.jpg", "genre_ids": [28, 35, 27, 878], "id": 9964, "original_language": "en", "original_title": "Bad Taste", "overview": "A team from the intergalactic fast food chain Crumb's Crunchy Delights descends on Earth, planning to make human flesh the newest taste sensation. After they wipe out the New Zealand town Kaihoro, the country\u2019s Astro-Investigation and Defense Service (AIaDS) is called in to deal with the problem. Things are complicated due to Giles, an aid worker who comes to Kaihoro the same day to collect change from the residents. He is captured by the aliens, and AIaDS stages a rescue mission that quickly becomes an all-out assault on the aliens\u2019 headquarters.", "poster_path": "/wopLobnRKqvxA4yycQIvquMx1yn.jpg", "release_date": "1987-12-01", "title": "Bad Taste", "video": false, "vote_average": 6.5, "vote_count": 404, "popularity": 11.449}, {"id": 502143, "video": false, "vote_count": 125, "vote_average": 5.1, "title": "The Breaker Upperers", "release_date": "2018-05-03", "original_language": "en", "original_title": "The Breaker Upperers", "genre_ids": [35], "backdrop_path": "/oTRrUL4Qi7NoLuJr2UMZMHBWSZl.jpg", "adult": false, "overview": "Two women run a business breaking up couples for cash but when one develops a conscience their friendship unravels.", "poster_path": "/hcpbd6wfrsnpsNM0doGnBsX4bqd.jpg", "popularity": 7.321}, {"id": 2891, "video": false, "vote_count": 58, "vote_average": 7.2, "title": "An Angel at My Table", "release_date": "1990-09-05", "original_language": "en", "original_title": "An Angel at My Table", "genre_ids": [18], "backdrop_path": "/2V0BWE7WJWP627Yivsnfx4uKUCp.jpg", "adult": false, "overview": "Based on the autobiographical work of New Zealand writer Janet Frame, this production depicts the author at various stage of her life. Afflicted with mental and emotional issues, Frame grows up in an impoverished family and experiences numerous tragedies while still in her youth, including the deaths of two of her siblings. Portrayed as an adult by Kerry Fox, Frame finds acclaim for her writing while still in a mental institution, and her success helps her move on with her life.", "poster_path": "/sDICHxQRDkS4TvIDcUgO9URJxu1.jpg", "popularity": 8.193}, {"adult": false, "backdrop_path": null, "genre_ids": [16, 28], "id": 53215, "original_language": "en", "original_title": "Kiwi!", "overview": "The story of a Kiwi who spends his whole life working towards achieving his dream.", "poster_path": "/40mH1IMBWr7vlsGtlQMoiXimaVf.jpg", "release_date": "2006-01-01", "title": "Kiwi!", "video": false, "vote_average": 7.1, "vote_count": 94, "popularity": 6.6}, {"id": 640293, "video": false, "vote_count": 2, "vote_average": 4.5, "title": "Only Cloud Knows", "release_date": "2019-12-20", "original_language": "zh", "original_title": "\u53ea\u6709\u82b8\u77e5\u9053", "genre_ids": [18, 10749], "backdrop_path": "/rNfIjdGyOqPRHxNiFJeX8ahEa4W.jpg", "adult": false, "overview": "The film revolves around a Chinese man who returns to New Zealand following the death of his wife and begins to discover that she harbored a number of secrets.", "poster_path": "/meYkMv0tOWjwBnfnRF84jW7h6nU.jpg", "popularity": 3.292}, {"adult": false, "backdrop_path": "/bkXg6EZtlsqv4Z8xofpd9ucjzv7.jpg", "genre_ids": [18], "id": 13893, "original_language": "en", "original_title": "What Becomes of the Broken Hearted?", "overview": "5 Years have passed and Jake has turned his back on his family. He's still up to his usual tricks in McClutchy's Bar, unaware, as he downs his latest opponent, that his eldest son, Nig, Has died in a gang fight. The uncomfortable family reunion at Nig's funeral sparks a confrontations with second son Sonny, and sets Jake and Sonny on a downward spiral.", "poster_path": "/3gfQD9SkhigMA7M6qPnAs7Yxbb2.jpg", "release_date": "1999-05-27", "title": "What Becomes of the Broken Hearted?", "video": false, "vote_average": 6.2, "vote_count": 29, "popularity": 6.159}, {"id": 354924, "video": false, "vote_count": 64, "vote_average": 4.9, "title": "The Dead Room", "release_date": "2015-10-01", "original_language": "en", "original_title": "The Dead Room", "genre_ids": [27, 53], "backdrop_path": "/jhhbR5deawnkSM8KlUsEK0iUzrp.jpg", "adult": false, "overview": "When a terrified family flees a desolate southern New Zealand farmhouse, two cynical scientists and a young psychic are sent to investigate their claims of a haunting. There they encounter a powerful spirit that will protect the house's secrets at all costs.", "poster_path": "/778e779VdDJfZVcs1f897LgXlDE.jpg", "popularity": 6.203}, {"adult": false, "backdrop_path": "/q8lR8lPyGOkFFg2tbjgPA9PE8gR.jpg", "genre_ids": [14, 27, 53, 10752], "id": 70386, "original_language": "en", "original_title": "The Devil's Rock", "overview": "Set in the Channel Islands on the eve of D Day, two Kiwi commandos, sent to destroy German gun emplacements to distract Hitler's forces away from Normandy, discover a Nazi occult plot to unleash demonic forces to win the war.", "poster_path": "/12AeQQpwIrUFeHT42qKapXvLU8Q.jpg", "release_date": "2011-07-08", "title": "The Devil's Rock", "video": false, "vote_average": 5.9, "vote_count": 58, "popularity": 6.507}], "total_pages": 10, "total_results": 195}, "recommendations": {"page": 1, "results": [{"id": 113337, "video": false, "vote_count": 6, "vote_average": 3.6, "title": "The Astral Factor", "release_date": "1976-01-01", "original_language": "en", "original_title": "The Astral Factor", "genre_ids": [27, 9648, 878], "backdrop_path": "/qitKOX4hSFXA2HVIvI4m6l8UYeM.jpg", "adult": false, "overview": "Demonstrating that a little knowledge is a dangerous thing, a convicted strangler studies the paranormal and finds a way to render himself invisible. Once he escapes, he sets out to find and eliminate the five women who testified in his prosecution. A police lieutenant (Robert Foxworth) sets out to safeguard them, and bring the invisible killer to justice.", "poster_path": "/6OBkWd9JSrp6a8DHNJcVsVZIyTC.jpg", "popularity": 3.404}, {"adult": false, "backdrop_path": "/84hJyRwrk54B6UmGm6F9qVcURDx.jpg", "genre_ids": [18, 53, 878, 27], "id": 86939, "original_language": "en", "original_title": "The Brain Machine", "overview": "Several people volunteer for a scientific experiment about mind-reading and memory, but the experiment goes horribly wrong.", "poster_path": "/sgQkMc9pcORPrFX01V7RPMXvyPF.jpg", "release_date": "1977-01-01", "title": "The Brain Machine", "video": false, "vote_average": 2.4, "vote_count": 7, "popularity": 3.096}, {"adult": false, "backdrop_path": "/uxqHjbXikXjDDhxWEFyDjAFiZFI.jpg", "genre_ids": [18, 9648, 878], "id": 37521, "original_language": "en", "original_title": "The Disappearance of Flight 412", "overview": "Colonel Pete Moore (Glenn Ford) is commander of the Whitney Radar Test Group, which has been experiencing electrical difficulties aboard its aircraft. To ferret out the problem, he sends a four-man crew on Flight 412. Shortly into the test, the jet picks up three blips on radar, and subsequently, two fighters scramble and mysteriously disappear. At this point, Flight 412 is monitored and forced to land by Digger Control, a top-level, military intelligence group that debunks UFO information. The intrepid colonel, kept in the dark about his crew, decides to investigate the matter himself.", "poster_path": "/osiDh4EKEwNPkFWBxa5GWbNc9fb.jpg", "release_date": "1974-10-01", "title": "The Disappearance of Flight 412", "video": false, "vote_average": 4.3, "vote_count": 10, "popularity": 3.106}, {"id": 85157, "video": false, "vote_count": 11, "vote_average": 4.8, "title": "Open House", "release_date": "1987-10-01", "original_language": "en", "original_title": "Open House", "genre_ids": [27], "backdrop_path": null, "adult": false, "overview": "Someone is killing off nubile real estate agents. A psychologist doing a therapy talk show begins getting calls from the perpetrator, and cooperates with the police to try and stop him. Unfortunately, his lover is a real estate agent, and when it becomes clear that the madman is getting information for his kills from her discarded home listings, they both become endangered.", "poster_path": "/eA9sU9BG26gFVV4l8J6Gn8WZwto.jpg", "popularity": 2.897}, {"adult": false, "backdrop_path": null, "genre_ids": [9648, 14, 27], "id": 276746, "original_language": "en", "original_title": "The Enchanted", "overview": "Royce returns home to an American outback to look after a house that was once his late fathers. At first, welcomed back by a long family friend Booker T, Royce later falls in love with a mysterious woman from a strange family and Booker T warns Royce to be careful of how close he gets.", "poster_path": "/ikRb3hGCxhsjE9QD5wUoWY4KH7.jpg", "release_date": "1984-01-01", "title": "The Enchanted", "video": false, "vote_average": 5.8, "vote_count": 4, "popularity": 1.351}, {"adult": false, "backdrop_path": null, "genre_ids": [28, 18, 10770], "id": 86704, "original_language": "en", "original_title": "Cave In", "overview": "When a cave in threatens the lives of four miners, including a father and son, it becomes a fight for survival. The superintendent (Mimi Rogers) struggles against the ticking clock to save her crew and family from impending doom.", "poster_path": "/qCXihium0UXjifbzYJNizCIPNvr.jpg", "release_date": "2003-05-02", "title": "Cave In", "video": false, "vote_average": 3.6, "vote_count": 7, "popularity": 2.956}, {"adult": false, "backdrop_path": "/jivLFvuhHKfvYcvCKAGqaT4AByP.jpg", "genre_ids": [27, 878], "id": 29597, "original_language": "en", "original_title": "Mutator", "overview": "A beast gets loose in a laboratory, killing all in it's way. A former scientist, now working as a custodian tries to stop it.", "poster_path": "/9vHATCg3wd8U9jNVYKBYz2QTNsH.jpg", "release_date": "1989-05-15", "title": "Mutator", "video": false, "vote_average": 3.6, "vote_count": 7, "popularity": 3.788}, {"adult": false, "backdrop_path": null, "genre_ids": [27], "id": 103254, "original_language": "en", "original_title": "Cataclysm", "overview": "Police detective, Mitchell, investigating the death of a victim of a Nazi concentration camp discovers a nightclubbing playboy who has strange powers over women and is seemingly ageless.", "poster_path": "/e8tAa1sSjmAMpHn1YmV61FYrUfU.jpg", "release_date": "1980-01-01", "title": "Cataclysm", "video": false, "vote_average": 3.9, "vote_count": 8, "popularity": 3.643}, {"adult": false, "backdrop_path": "/z8DZOmwpSi725oUSP5A8UaJYNSJ.jpg", "genre_ids": [35, 27], "id": 160405, "original_language": "en", "original_title": "Nocturna", "overview": "Hard times have fallen on the Transylvanian House of Dracula. To help pay the taxes, Castle Dracula has been converted into the Hotel Transylvania. Dracula himself is aging and toothless, being cared for by his granddaughter Nocturna. When Nocturna books a disco group to play The Claret Room and winds up falling in love with one of the backup guitarists, a mortal named Jimmy, she notices that she is able to see her reflection when she dances, so she decides to follow Jimmy to New York in search of mortality.", "poster_path": "/iConnRayYRS0SiDzeOGx12slZiJ.jpg", "release_date": "1979-06-01", "title": "Nocturna", "video": false, "vote_average": 5.3, "vote_count": 4, "popularity": 2.089}, {"adult": false, "backdrop_path": "/49MhLMdQmVVsvqItcWKh9FZdOW0.jpg", "genre_ids": [27], "id": 41023, "original_language": "en", "original_title": "Dead Men Walk", "overview": "We meet Doctor Lloyd Clayton at the funeral of his twin brother, evil magician Elwyn. Zolarr, Elwyn's hunchbacked servant, acccuses Lloyd of Elwyn's murder, but Lloyd claims it was self-defense. Lloyd's niece Gayle and her fiance Harper soon find that Elwyn's evil influence is still at work.", "poster_path": "/6IPHzqg50sGd9BUkH9y15UsncZS.jpg", "release_date": "1943-04-12", "title": "Dead Men Walk", "video": false, "vote_average": 4.0, "vote_count": 11, "popularity": 2.653}, {"id": 92707, "video": false, "vote_count": 6, "vote_average": 2.6, "title": "Mirror, Mirror III: The Voyeur", "release_date": "1995-10-01", "original_language": "en", "original_title": "Mirror, Mirror III: The Voyeur", "genre_ids": [14, 27, 878], "backdrop_path": null, "adult": false, "overview": "A young man discovers a mysterious mirror and begins to have disturbing visions of forbidden passion and brutal murder. But when he also finds a beautiful woman back from the dead and a detective with a thirst for revenge, the real terror has only just begun. The mirror sees all...but what shocking secrets will it reveal?", "poster_path": "/yb6TcWFT5WPkpjN6QxsenOhJPJe.jpg", "popularity": 2.025}, {"id": 85170, "video": false, "vote_count": 14, "vote_average": 4.3, "title": "Memorial Valley Massacre", "release_date": "1988-01-01", "original_language": "en", "original_title": "Memorial Valley Massacre", "genre_ids": [27, 53], "backdrop_path": "/yoLq44QIpUct7PvILxT0icuYHhS.jpg", "adult": false, "overview": "Campers on a holiday are terrorized by an axe-wielding maniac.", "poster_path": "/3vK4mwQSmEvfKUCss1ZmqQVnvI7.jpg", "popularity": 3.416}, {"adult": false, "backdrop_path": "/jgM3wB7ansOorZzkt7lOvWJ6q6q.jpg", "genre_ids": [27], "id": 40463, "original_language": "en", "original_title": "Berserker", "overview": "Six young adults in the woods run afoul of a berserker, a viking warrior who dons the fur and snout of a bear, and are slain in turn by him.", "poster_path": "/sgCzukVYbMepwJTRFyxBAROqR4H.jpg", "release_date": "1987-07-04", "title": "Berserker", "video": false, "vote_average": 4.5, "vote_count": 8, "popularity": 2.4}, {"adult": false, "backdrop_path": "/b28PkFiGYE2fPjINaxwkJkQRVOz.jpg", "genre_ids": [27, 53], "id": 28380, "original_language": "en", "original_title": "Silent Scream", "overview": "Scotty moves into Mrs. Engels' seaside mansion where three other college students are boarding. Mrs. Engels prefers to stay in her room in the attic, but her son Mason helps the students get settled. Soon one of the students is killed. The policemen on the case begin uncovering the Engels family secret as the remaining students become endangered", "poster_path": "/3fkaqwqDzGEz9oScakh2yJe7PWk.jpg", "release_date": "1979-11-23", "title": "Silent Scream", "video": false, "vote_average": 5.9, "vote_count": 19, "popularity": 4.369}, {"adult": false, "backdrop_path": "/uTEgjhwJLlzPigCARvbQrWqeyz1.jpg", "genre_ids": [27, 878], "id": 69276, "original_language": "en", "original_title": "Nightwish", "overview": "A professor and four graduate students journey to a crumbling mansion to investigate paranormal activity and must battle ghosts, aliens and satanic entities.", "poster_path": "/t0W5nBrWvlIrXQu9gyBLNXNmGze.jpg", "release_date": "1989-12-05", "title": "Nightwish", "video": false, "vote_average": 4.8, "vote_count": 13, "popularity": 3.932}, {"adult": false, "backdrop_path": "/w8wCRC35bs76UqyElIwAWBlCrzt.jpg", "genre_ids": [27], "id": 83329, "original_language": "en", "original_title": "Home Sweet Home", "overview": "An escaped mental patient steals a station wagon and makes his way to the Bradleys' Thanksgiving celebration, where he plans to make them a little less thankful...", "poster_path": "/iRCp7qCmiDTV0e4Jnz5f93LebHP.jpg", "release_date": "1981-01-01", "title": "Home Sweet Home", "video": false, "vote_average": 4.3, "vote_count": 11, "popularity": 2.541}, {"adult": false, "backdrop_path": "/bjT7eI9xqSvYgqRrjkDaxNmrErq.jpg", "genre_ids": [27, 878], "id": 87706, "original_language": "en", "original_title": "The Dark", "overview": "At night the Mangler stalks the streets of Los Angeles, killing and mutilating random victims. On the trail are a TV reporter, the father of one of the victims, and a police detective, but despite their efforts only the mysterious psychic DeRenzy knows what the killer is and how to stop it.", "poster_path": "/c32dVjgoK3G40YzmP32dW1Q8rT5.jpg", "release_date": "1979-04-27", "title": "The Dark", "video": false, "vote_average": 4.5, "vote_count": 15, "popularity": 2.841}, {"adult": false, "backdrop_path": "/3jDLkYrhvBgAv3LbKLpgO5MTbJW.jpg", "genre_ids": [10770, 18, 14], "id": 54588, "original_language": "en", "original_title": "Sole Survivor", "overview": "This story is loosely based on the discovery of the B-24 \"Liberator\" bomber the \"Lady Be Good\" that was found in the Libyan desert after the crew got lost on their 1st bombing mission to Italy", "poster_path": "/ipb4EuqJp5GdY0TWJVnE7LnseDM.jpg", "release_date": "1970-01-09", "title": "Sole Survivor", "video": false, "vote_average": 6.1, "vote_count": 12, "popularity": 3.256}, {"adult": false, "backdrop_path": "/pnHFvsB2yj67pyHOqVSQzYGb4qh.jpg", "genre_ids": [28, 878], "id": 58419, "original_language": "it", "original_title": "Anno 2020 - I gladiatori del futuro", "overview": "In a post-apocalyptic Texas, a band of warriors fight against a fascist regime that is trying to take control of all surviving population.", "poster_path": "/HSmbkvvLnJQ6TrATZD37toNrk7.jpg", "release_date": "1983-01-01", "title": "2020 Texas Gladiators", "video": false, "vote_average": 4.2, "vote_count": 9, "popularity": 2.117}, {"adult": false, "backdrop_path": "/fM3TekhcW5h87cnxpalETJnKeKf.jpg", "genre_ids": [14, 53, 878], "id": 3030, "original_language": "en", "original_title": "End of the World", "overview": "After witnessing a man's death in a bizzare accident, Father Pergado goes on a spiritual retreat, where he encounters his alien double bent on world conquest.", "poster_path": "/gL8aFUP6nTd6aZ3yEQ7ejecdDo9.jpg", "release_date": "1977-08-01", "title": "End of the World", "video": false, "vote_average": 3.5, "vote_count": 8, "popularity": 3.728}], "total_pages": 2, "total_results": 26}, "credits": {"cast": [{"cast_id": 2, "character": "Michael Tucker", "credit_id": "52fe4968c3a368484e129ebf", "gender": 2, "id": 62573, "name": "Michael Hurst", "order": 0, "profile_path": "/cwcqJFDzDtyaNBkLrpw6cZl2cof.jpg"}, {"cast_id": 3, "character": "", "credit_id": "52fe4968c3a368484e129ec3", "gender": 0, "id": 135318, "name": "Margaret Umbers", "order": 1, "profile_path": null}, {"cast_id": 4, "character": "", "credit_id": "52fe4968c3a368484e129ec7", "gender": 2, "id": 273011, "name": "William Upjohn", "order": 2, "profile_path": null}, {"cast_id": 10, "character": "Jeannie", "credit_id": "52fe4968c3a368484e129ee9", "gender": 0, "id": 1057891, "name": "Norelle Scott", "order": 3, "profile_path": null}, {"cast_id": 11, "character": "Spider", "credit_id": "52fe4968c3a368484e129eed", "gender": 2, "id": 939852, "name": "David Letch", "order": 4, "profile_path": "/8Zj1z6f37CUo588jjv966aEUmwp.jpg"}, {"cast_id": 12, "character": "Jannings", "credit_id": "52fe4968c3a368484e129ef1", "gender": 2, "id": 173452, "name": "Geoff Snell", "order": 5, "profile_path": "/fnNK6JNNNbqwSimFtuaQDxupJPf.jpg"}, {"cast_id": 13, "character": "Dr. Archer Howell", "credit_id": "52fe4968c3a368484e129ef5", "gender": 2, "id": 164555, "name": "Gary Day", "order": 6, "profile_path": null}, {"cast_id": 14, "character": "Tex", "credit_id": "52fe4968c3a368484e129ef9", "gender": 2, "id": 64091, "name": "Bruno Lawrence", "order": 7, "profile_path": "/81phK45bhqY6S5YCYBCOo18E3L5.jpg"}, {"cast_id": 15, "character": "Bill", "credit_id": "52fe4968c3a368484e129efd", "gender": 2, "id": 11335, "name": "Ian Watkin", "order": 8, "profile_path": "/tRisacMchEHc1chzNO81x0qwZ7A.jpg"}], "crew": [{"credit_id": "52fe4968c3a368484e129ebb", "department": "Directing", "gender": 0, "id": 560163, "job": "Director", "name": "David Blyth", "profile_path": null}, {"credit_id": "52fe4968c3a368484e129ecd", "department": "Writing", "gender": 0, "id": 560163, "job": "Writer", "name": "David Blyth", "profile_path": null}, {"credit_id": "52fe4968c3a368484e129ed3", "department": "Writing", "gender": 2, "id": 3567, "job": "Writer", "name": "Michael Heath", "profile_path": "/iP9UriXKJSqocpeG64OnBmT02pN.jpg"}, {"credit_id": "52fe4968c3a368484e129ed9", "department": "Production", "gender": 0, "id": 1057889, "job": "Producer", "name": "Murray Newey", "profile_path": null}, {"credit_id": "52fe4968c3a368484e129edf", "department": "Sound", "gender": 0, "id": 1057890, "job": "Original Music Composer", "name": "Mark Nicholas", "profile_path": null}, {"credit_id": "52fe4968c3a368484e129ee5", "department": "Camera", "gender": 0, "id": 29080, "job": "Director of Photography", "name": "James Bartle", "profile_path": null}]}}