{"adult": false, "backdrop_path": null, "belongs_to_collection": null, "budget": 0, "genres": [{"id": 27, "name": "Horror"}], "homepage": null, "id": 77399, "imdb_id": "tt0065887", "original_language": "en", "original_title": "Incense for the Damned", "overview": "A group of friends search for a young English Oxford student who has disappeared whilst researching in Greece. They are shocked to find that, wherever he has been, certain unsolved murders have taken place. Not believing that their friend could be the perpetrator of such acts, they press on with their search, finding him under the spell of a beautiful Vampire, whose blood-sucking methods include the use of sado-masochism. Believing they have killed her, the group return home, unaware that their friend is now a Vampire.", "popularity": 1.529, "poster_path": "/rwHSZ97hsxAxwjZzRm8mmRiiPUq.jpg", "production_companies": [{"id": 15761, "logo_path": null, "name": "Lucinda Films", "origin_country": ""}], "production_countries": [{"iso_3166_1": "GB", "name": "United Kingdom"}, {"iso_3166_1": "GR", "name": "Greece"}], "release_date": "1970-12-11", "revenue": 0, "runtime": 87, "spoken_languages": [{"iso_639_1": "en", "name": "English"}], "status": "Released", "tagline": "", "title": "Incense for the Damned", "video": false, "vote_average": 3.5, "vote_count": 6, "keywords": {"keywords": [{"id": 1200, "name": "greece"}, {"id": 3133, "name": "vampire"}]}, "similar": {"page": 1, "results": [{"id": 7131, "video": false, "vote_count": 3395, "vote_average": 6.1, "title": "Van Helsing", "release_date": "2004-05-05", "original_language": "en", "original_title": "Van Helsing", "genre_ids": [28, 12, 27], "backdrop_path": "/sib4pGrwKQUbFRyHlhXv03HXoHj.jpg", "adult": false, "overview": "Famed monster slayer Gabriel Van Helsing is dispatched to Transylvania to assist the last of the Valerious bloodline in defeating Count Dracula. Anna Valerious reveals that Dracula has formed an unholy alliance with Dr. Frankenstein's monster and is hell-bent on exacting a centuries-old curse on her family.", "poster_path": "/s2OPT5CZsZBQYAIlO9Mv4AimHvV.jpg", "popularity": 19.526}, {"adult": false, "backdrop_path": "/ysLIi9nzMbUqi4dQh3tqblUb27o.jpg", "genre_ids": [878, 28, 27, 53, 12, 14], "id": 36648, "original_language": "en", "original_title": "Blade: Trinity", "overview": "For years, Blade has fought against the vampires in the cover of the night. But now, after falling into the crosshairs of the FBI, he is forced out into the daylight, where he is driven to join forces with a clan of human vampire hunters he never knew existed\u2014The Nightstalkers. Together with Abigail and Hannibal, two deftly trained Nightstalkers, Blade follows a trail of blood to the ancient creature that is also hunting him\u2014the original vampire, Dracula.", "poster_path": "/4WinsdHQBdh5aTt7Bd7T7dbUXbb.jpg", "release_date": "2004-12-08", "title": "Blade: Trinity", "video": false, "vote_average": 5.8, "vote_count": 2278, "popularity": 19.358}, {"id": 49017, "video": false, "vote_count": 4003, "vote_average": 6.3, "title": "Dracula Untold", "release_date": "2014-10-01", "original_language": "en", "original_title": "Dracula Untold", "genre_ids": [28, 18, 14, 27, 10752], "backdrop_path": "/gy5ItoprIPOT7Z1c2YhNhart39l.jpg", "adult": false, "overview": "Vlad Tepes is a great hero, but when he learns the Sultan is preparing for battle and needs to form an army of 1,000 boys, he vows to find a way to protect his family. Vlad turns to dark forces in order to get the power to destroy his enemies and agrees to go from hero to monster as he's turned into the mythological vampire, Dracula.", "poster_path": "/4oy4e0DP6LRwRszfx8NY8EYBj8V.jpg", "popularity": 32.104}, {"adult": false, "backdrop_path": "/99Z7mNsixJJTn10tHLCtu6XcY6E.jpg", "genre_ids": [53, 27], "id": 10577, "original_language": "en", "original_title": "Dracula 2000", "overview": "In the millenium version of this classic Gothic horror we find Abraham Van Helsing, who has tangled with Count Dracula in the past, working as an English antiques dealer. Simon is a vampire hunter in training under his apprenticeship.", "poster_path": "/6YF56U91zP1mQvle83KA1A7CPop.jpg", "release_date": "2000-12-22", "title": "Dracula 2000", "video": false, "vote_average": 4.7, "vote_count": 317, "popularity": 11.748}, {"adult": false, "backdrop_path": "/GRyynLqafMrLFMHqvfGdUweavA.jpg", "genre_ids": [27, 18, 14], "id": 628, "original_language": "en", "original_title": "Interview with the Vampire", "overview": "A vampire relates his epic life story of love, betrayal, loneliness, and dark hunger to an over-curious reporter.", "poster_path": "/hldXwwViSfHJS0kIJr07KBGmHJI.jpg", "release_date": "1994-11-11", "title": "Interview with the Vampire", "video": false, "vote_average": 7.3, "vote_count": 3231, "popularity": 21.064}, {"id": 36647, "video": false, "vote_count": 3460, "vote_average": 6.6, "title": "Blade", "release_date": "1998-08-21", "original_language": "en", "original_title": "Blade", "genre_ids": [28, 27], "backdrop_path": "/dGnDGHD5vmaRow4BzAiuJaGwIz3.jpg", "adult": false, "overview": "When Blade's mother was bitten by a vampire during pregnancy, she did not know that she gave her son a special gift while dying\u2014all the good vampire attributes in combination with the best human skills. Blade and his mentor battle an evil vampire rebel who plans to take over the outdated vampire council, capture Blade and resurrect a voracious blood god.", "poster_path": "/hEXJCBVZYWT8qBMwGJoSsvtnVhr.jpg", "popularity": 30.575}, {"id": 6114, "video": false, "vote_count": 2611, "vote_average": 7.4, "title": "Dracula", "release_date": "1992-11-13", "original_language": "en", "original_title": "Dracula", "genre_ids": [27, 10749], "backdrop_path": "/hm2stwkNFAaXMEeetJS2RZ77zC1.jpg", "adult": false, "overview": "When Dracula leaves the captive Jonathan Harker and Transylvania for London in search of Mina Harker\u2014the reincarnation of Dracula's long-dead wife, Elisabeta\u2014obsessed vampire hunter Dr. Van Helsing sets out to end the madness.", "poster_path": "/ioHxm3D3JdSXR61LRhcVb8KdZOz.jpg", "popularity": 21.922}, {"id": 9945, "video": false, "vote_count": 533, "vote_average": 6.1, "title": "Vampires", "release_date": "1998-10-30", "original_language": "en", "original_title": "Vampires", "genre_ids": [28, 18, 14, 27, 53, 37], "backdrop_path": "/rFCx9xDNgywf1A5hsBbic0C0ihd.jpg", "adult": false, "overview": "The church enlists a team of vampire-hunters to hunt down and destroy a group of vampires searching for an ancient relic that will allow them to exist in sunlight.", "poster_path": "/qHGawU64MeGvtU86s6V0MA7MqFV.jpg", "popularity": 9.529}, {"id": 12110, "video": false, "vote_count": 476, "vote_average": 5.9, "title": "Dracula: Dead and Loving It", "release_date": "1995-12-22", "original_language": "en", "original_title": "Dracula: Dead and Loving It", "genre_ids": [35, 14, 27], "backdrop_path": "/y7N276seR43H31xvDbWMWxEsDr.jpg", "adult": false, "overview": "When a lawyer shows up at the vampire's doorstep, he falls prey to his charms and joins him in his search for fresh blood. Enter Professor Van Helsing, who may be the only one able to vanquish the Count.", "poster_path": "/xve4cgfYItnOhtzLYoTwTVy5FGr.jpg", "popularity": 14.191}, {"id": 24021, "video": false, "vote_count": 5444, "vote_average": 6.1, "title": "The Twilight Saga: Eclipse", "release_date": "2010-06-23", "original_language": "en", "original_title": "The Twilight Saga: Eclipse", "genre_ids": [12, 18, 14, 10749], "backdrop_path": "/lKCZYVQQb7Agw6WR25WvQBFKJmK.jpg", "adult": false, "overview": "Bella once again finds herself surrounded by danger as Seattle is ravaged by a string of mysterious killings and a malicious vampire continues her quest for revenge. In the midst of it all, she is forced to choose between her love for Edward and her friendship with Jacob, knowing that her decision has the potential to ignite the ageless struggle between vampire and werewolf. With her graduation quickly approaching, Bella is confronted with the most important decision of her life.", "poster_path": "/sOpCY4by0bkEu9LbVXVCOpWWKzF.jpg", "popularity": 21.716}, {"id": 277, "video": false, "vote_count": 4160, "vote_average": 6.7, "title": "Underworld", "release_date": "2003-09-19", "original_language": "en", "original_title": "Underworld", "genre_ids": [28, 14, 53], "backdrop_path": "/cPhRPAJWK8BuuJqqf6PztzvOlnZ.jpg", "adult": false, "overview": "Vampires and werewolves have waged a nocturnal war against each other for centuries. But all bets are off when a female vampire warrior named Selene, who's famous for her strength and werewolf-hunting prowess, becomes smitten with a peace-loving male werewolf, Michael, who wants to end the war.", "poster_path": "/rdkxl5iXdpVU188cL1LLG3sy6z4.jpg", "popularity": 22.311}, {"id": 76492, "video": false, "vote_count": 5547, "vote_average": 6.9, "title": "Hotel Transylvania", "release_date": "2012-09-20", "original_language": "en", "original_title": "Hotel Transylvania", "genre_ids": [16, 35, 14, 10751], "backdrop_path": "/sETTal2HPPkUC3lWc27HL1AFu9C.jpg", "adult": false, "overview": "Welcome to Hotel Transylvania, Dracula's lavish five-stake resort, where monsters and their families can live it up and no humans are allowed. One special weekend, Dracula has invited all his best friends to celebrate his beloved daughter Mavis's 118th birthday. For Dracula catering to all of these legendary monsters is no problem but the party really starts when one ordinary guy stumbles into the hotel and changes everything!", "poster_path": "/9qugesYpAWHUpdrw2w8URSGkAPt.jpg", "popularity": 31.161}, {"id": 8698, "video": false, "vote_count": 2385, "vote_average": 5.8, "title": "The League of Extraordinary Gentlemen", "release_date": "2003-07-11", "original_language": "en", "original_title": "The League of Extraordinary Gentlemen", "genre_ids": [28, 14, 878, 53], "backdrop_path": "/wI4CxIcknJWLJ7v2csict0ZGSTH.jpg", "adult": false, "overview": "To prevent a world war from breaking out, famous characters from Victorian literature band together to do battle against a cunning villain.", "poster_path": "/AliSeCLFB6ZAkQIxosr8RAkFf6R.jpg", "popularity": 23.102}, {"id": 400155, "video": false, "vote_count": 1997, "vote_average": 6.8, "title": "Hotel Transylvania 3: Summer Vacation", "release_date": "2018-06-28", "original_language": "en", "original_title": "Hotel Transylvania 3: Summer Vacation", "genre_ids": [16, 35, 14, 10751], "backdrop_path": "/m03jul0YdVEOFXEQVUv6pOVQYGL.jpg", "adult": false, "overview": "Dracula, Mavis, Johnny and the rest of the Drac Pack take a vacation on a luxury Monster Cruise Ship, where Dracula falls in love with the ship\u2019s captain, Ericka, who\u2019s secretly a descendant of Abraham Van Helsing, the notorious monster slayer.", "poster_path": "/gjAFM4xhA5vyLxxKMz38ujlUfDL.jpg", "popularity": 34.278}, {"id": 38321, "video": false, "vote_count": 1300, "vote_average": 5.6, "title": "Priest", "release_date": "2011-05-05", "original_language": "en", "original_title": "Priest", "genre_ids": [28, 27, 53], "backdrop_path": "/7pCsrkl7yPNFU7wIuWy52wdAFQs.jpg", "adult": false, "overview": "In an alternate world, humanity and vampires have warred for centuries. After the last Vampire War, the veteran Warrior Priest lives in obscurity with other humans inside one of the Church's walled cities. When the Priest's niece is kidnapped by vampires, the Priest breaks his vows to hunt them down. He is accompanied by the niece's boyfriend, who is a wasteland sheriff, and a former Warrior Priestess.", "poster_path": "/pE28BDqICBPe3FgphsYSxtH6FcZ.jpg", "popularity": 14.86}, {"id": 102780, "video": false, "vote_count": 508, "vote_average": 6.2, "title": "Byzantium", "release_date": "2012-09-09", "original_language": "en", "original_title": "Byzantium", "genre_ids": [18, 14, 53], "backdrop_path": "/7ujUCqM0aFZfKqpZN4O5Zh2Q4ei.jpg", "adult": false, "overview": "Two mysterious women seek refuge in a run-down coastal resort. Clara meets lonely Noel, who provides shelter in his deserted guesthouse, Byzantium. Schoolgirl Eleanor befriends Frank and tells him their lethal secret\u2014they were born 200 years ago and survive on human blood. As knowledge of their secret spreads, their past catches up on them with deathly consequences.", "poster_path": "/pSnlpdh27luQ6GcchSkPomZ5fyr.jpg", "popularity": 10.144}, {"id": 19901, "video": false, "vote_count": 1112, "vote_average": 6.2, "title": "Daybreakers", "release_date": "2009-09-11", "original_language": "en", "original_title": "Daybreakers", "genre_ids": [28, 14, 27, 878], "backdrop_path": "/jjTK7kQS0LBU8GNZlUvlRK0dR1h.jpg", "adult": false, "overview": "In the year 2019, a plague has transformed almost every human into vampires. Faced with a dwindling blood supply, the fractured dominant race plots their survival; meanwhile, a researcher works with a covert band of vampires on a way to save humankind.", "poster_path": "/ilicCtkHIBb90PvTfXMeSeJ7b0o.jpg", "popularity": 16.844}, {"adult": false, "backdrop_path": "/2n0kjNEI3uF0ju9H5jiE3rBk5C0.jpg", "genre_ids": [14, 27, 28, 53], "id": 36586, "original_language": "en", "original_title": "Blade II", "overview": "A rare mutation has occurred within the vampire community - The Reaper. A vampire so consumed with an insatiable bloodlust that they prey on vampires as well as humans, transforming victims who are unlucky enough to survive into Reapers themselves. Blade is asked by the Vampire Nation for his help in preventing a nightmare plague that would wipe out both humans and vampires.", "poster_path": "/jlURNpXCMK830CsGRd939PJLh8c.jpg", "release_date": "2002-03-22", "title": "Blade II", "video": false, "vote_average": 6.4, "vote_count": 2814, "popularity": 29.742}, {"id": 13310, "video": false, "vote_count": 1712, "vote_average": 7.5, "title": "Let the Right One In", "release_date": "2008-01-26", "original_language": "sv", "original_title": "L\u00e5t den r\u00e4tte komma in", "genre_ids": [18, 27], "backdrop_path": "/wMRVKIIIn5035KIY0J793aHWVOj.jpg", "adult": false, "overview": "Set in 1982 in the suburb of Blackeberg, Stockholm, twelve-year-old Oskar is a lonely outsider, bullied at school by his classmates; at home, Oskar dreams of revenge against a trio of bullies. He befriends his twelve-year-old, next-door neighbor Eli, who only appears at night in the snow-covered playground outside their building.", "poster_path": "/9FGpMfbpKjN7i2jF2gQpvQvK9VB.jpg", "popularity": 14.267}, {"id": 52520, "video": false, "vote_count": 2773, "vote_average": 6.2, "title": "Underworld: Awakening", "release_date": "2012-01-19", "original_language": "en", "original_title": "Underworld: Awakening", "genre_ids": [28, 14, 27], "backdrop_path": "/8iNsXY3LPsuT0gnUiTBMoNuRZI7.jpg", "adult": false, "overview": "Having escaped years of imprisonment, vampire warrioress Selene finds herself in a changed world where humans have discovered the existence of both Vampire and Lycan clans and are conducting an all-out war to eradicate both immortal species. Now Selene must battle the humans and a frightening new breed of super Lycans to ensure the death dealers' survival.", "poster_path": "/ayazc5fQ2YAw7vjaE1WGlJWtGX9.jpg", "popularity": 15.03}], "total_pages": 59, "total_results": 1161}, "recommendations": {"page": 1, "results": [{"adult": false, "backdrop_path": null, "genre_ids": [27], "id": 239728, "original_language": "en", "original_title": "Legacy of Satan", "overview": "A satanic cult chooses an unwitting young girl as its new queen", "poster_path": "/qoCct0RCcTqSotpltRIBOGUUhyB.jpg", "release_date": "1974-04-01", "title": "Legacy of Satan", "video": false, "vote_average": 3.0, "vote_count": 5, "popularity": 1.854}, {"adult": false, "backdrop_path": "/y3eVWpD8nQ2nFd7bNSXTTyWQ6RY.jpg", "genre_ids": [35, 14, 10749], "id": 111960, "original_language": "en", "original_title": "Miranda", "overview": "A young married physician discovers a mermaid, and gives into her request to be taken to see London. Comedy and romantic entanglements ensue soon after.", "poster_path": "/1iHSVb8sKAfAJLY1aCdNUf3MPrx.jpg", "release_date": "1948-04-06", "title": "Miranda", "video": false, "vote_average": 7.1, "vote_count": 8, "popularity": 2.849}, {"id": 112837, "video": false, "vote_count": 6, "vote_average": 5.3, "title": "Condor", "release_date": "1986-08-10", "original_language": "en", "original_title": "Condor", "genre_ids": [878, 53], "backdrop_path": "/de4tnXKTNSaKJH9oPK9Et5Mzsis.jpg", "adult": false, "overview": "In futuristic Los Angeles, a crime-fighting organization known as Condor goes up against the Black Widow, a female master criminal. The Black Widow steals the national security code and threatens to blow up Hollywood unless her old enemy, Proctor, a Condor operative, is turned over to her.", "poster_path": "/kIPvGX5xXhe5zfeyZO5ExBq5agr.jpg", "popularity": 3.321}, {"id": 138544, "video": false, "vote_count": 13, "vote_average": 4.2, "title": "American Horror House", "release_date": "2012-10-13", "original_language": "en", "original_title": "American Horror House", "genre_ids": [27], "backdrop_path": "/1JLL9A12mjeQuX1rCOIDQx66Ryx.jpg", "adult": false, "overview": "On Halloween night, a sorority house is overrun with ghosts, while a vengeful housemother goes on a killing spree.", "poster_path": "/sZzJwqbrfKvGXTIhXGDwlJUEtM5.jpg", "popularity": 5.28}, {"adult": false, "backdrop_path": null, "genre_ids": [28], "id": 202968, "original_language": "en", "original_title": "Driving Force", "overview": "In the near future Steve takes a job as a tow truck driver that has to battle a gang of baddies led by Nelson.", "poster_path": "/i6ps8l86lRcyCNqfYXVDIFSTg6z.jpg", "release_date": "1988-01-01", "title": "Driving Force", "video": false, "vote_average": 4.6, "vote_count": 5, "popularity": 1.834}, {"adult": false, "backdrop_path": "/qdD8Un5UqDxf4B6Lavts9dmWh7l.jpg", "genre_ids": [27], "id": 98116, "original_language": "en", "original_title": "Pharaoh's Curse", "overview": "Archaeologists in Egypt find one of their crew has been turned into a blood sucking mummy after they have unleashed a three thousand year curse.", "poster_path": "/8G21SOkCr13eYjlvQhUivN5OJbR.jpg", "release_date": "1957-02-01", "title": "Pharaoh's Curse", "video": false, "vote_average": 4.3, "vote_count": 9, "popularity": 3.685}, {"adult": false, "backdrop_path": "/mn4a2VPNOAmAWZoBeuUEk4A6SsO.jpg", "genre_ids": [27], "id": 29129, "original_language": "fr", "original_title": "Le frisson des vampires", "overview": "A young honeymooning couple stop for the night at an ancient castle. Unbeknownst to them, the castle is home to a horde of vampires, who have their own plans for the couple.", "poster_path": "/113x6tzigRVZM7741C9oFgRPv8M.jpg", "release_date": "1971-04-21", "title": "The Shiver of the Vampires", "video": false, "vote_average": 4.7, "vote_count": 17, "popularity": 4.194}], "total_pages": 1, "total_results": 7}, "credits": {"cast": [{"cast_id": 3, "character": "Derek Longbow", "credit_id": "52fe496ac3a368484e12a359", "gender": 2, "id": 10662, "name": "Patrick Macnee", "order": 0, "profile_path": "/awLUXzzZxOXdeuJUPzOWT1Z7bDs.jpg"}, {"cast_id": 5, "character": "Dr. Holstrom", "credit_id": "52fe496ac3a368484e12a35d", "gender": 2, "id": 39188, "name": "Edward Woodward", "order": 1, "profile_path": "/2MWfWJsjCTeeuIRKhcIxj1vzuR6.jpg"}, {"cast_id": 6, "character": "Tony Seymore", "credit_id": "52fe496ac3a368484e12a361", "gender": 0, "id": 127914, "name": "Alexander Davion", "order": 2, "profile_path": "/x6kB0oD2y2Gx542UU1JpBmTGaKM.jpg"}, {"cast_id": 7, "character": "Dr. Walter Goodrich", "credit_id": "52fe496ac3a368484e12a365", "gender": 2, "id": 5, "name": "Peter Cushing", "order": 3, "profile_path": "/l0grZXcjqctESg7h6Jdp33pA3QG.jpg"}, {"cast_id": 8, "character": "Bob Kirby", "credit_id": "52fe496ac3a368484e12a369", "gender": 2, "id": 40530, "name": "Johnny Sekka", "order": 4, "profile_path": "/vhFkHei0V1oEjYRRU7jdDTku5j9.jpg"}, {"cast_id": 9, "character": "Penelope (as Madeline Hinde)", "credit_id": "52fe496ac3a368484e12a36d", "gender": 0, "id": 134232, "name": "Madeleine Hinde", "order": 5, "profile_path": null}, {"cast_id": 10, "character": "Marc Honeydew", "credit_id": "52fe496ac3a368484e12a371", "gender": 2, "id": 47391, "name": "William Mervyn", "order": 6, "profile_path": "/h1YXoTkwbaScl3eQJdwIPSKckNO.jpg"}, {"cast_id": 11, "character": "Richard Fountain", "credit_id": "52fe496ac3a368484e12a375", "gender": 2, "id": 95092, "name": "Patrick Mower", "order": 7, "profile_path": "/rCzZTSbFKVv1o2jRjVXGJkzxUMD.jpg"}, {"cast_id": 12, "character": "Colonel", "credit_id": "59c98369c3a3684d8500059b", "gender": 2, "id": 95125, "name": "David Lodge", "order": 8, "profile_path": "/bDpQN4iXuGRIhpFxmdkbBuLnTqQ.jpg"}, {"cast_id": 13, "character": "Chriseis", "credit_id": "59c98374c3a3684d950005b1", "gender": 0, "id": 113545, "name": "Imogen Hassall", "order": 9, "profile_path": "/lbJvXPhaeEv6HJao2I5Iipk0JEl.jpg"}, {"cast_id": 14, "character": "Don's Wife", "credit_id": "59c9837ec3a3684d950005c7", "gender": 0, "id": 114555, "name": "Valerie Van Ost", "order": 10, "profile_path": null}, {"cast_id": 15, "character": "Girl at Orgy (uncredited)", "credit_id": "59c98390925141778c00060f", "gender": 1, "id": 102940, "name": "Fran\u00e7oise Pascal", "order": 11, "profile_path": "/6eYFrCvEmIB662RodQIJ65uLaBV.jpg"}, {"cast_id": 16, "character": "Cheerful Lady at Party (uncredited)", "credit_id": "59c9839dc3a3684d68000567", "gender": 1, "id": 106628, "name": "Marianne Stone", "order": 12, "profile_path": "/gEBNDVpg7fG8M7w65u16gxYvR7P.jpg"}], "crew": [{"credit_id": "52fe496ac3a368484e12a34f", "department": "Directing", "gender": 2, "id": 97570, "job": "Director", "name": "Robert Hartford-Davis", "profile_path": null}, {"credit_id": "52fe496ac3a368484e12a355", "department": "Directing", "gender": 0, "id": 416868, "job": "Director", "name": "Julian More", "profile_path": null}]}}