{"adult": false, "backdrop_path": "/2Z3eCyCHVOrZk5VT68sx84gC1ru.jpg", "belongs_to_collection": null, "budget": 0, "genres": [{"id": 10749, "name": "Romance"}], "homepage": null, "id": 78256, "imdb_id": "tt0048034", "original_language": "en", "original_title": "The End of the Affair", "overview": "A civil servant's wife (Deborah Kerr) in wartime London vows to leave her injured lover (Van Johnson) if he recovers.", "popularity": 4.199, "poster_path": "/xGJzPsiz9kgDRaIq5DbI73ZdKhQ.jpg", "production_companies": [{"id": 13719, "logo_path": null, "name": "Coronado Productions", "origin_country": ""}, {"id": 5, "logo_path": "/71BqEFAF4V3qjjMPCpLuyJFB9A.png", "name": "Columbia Pictures", "origin_country": "US"}], "production_countries": [{"iso_3166_1": "GB", "name": "United Kingdom"}], "release_date": "1955-02-23", "revenue": 0, "runtime": 105, "spoken_languages": [{"iso_639_1": "en", "name": "English"}], "status": "Released", "tagline": "", "title": "The End of the Affair", "video": false, "vote_average": 6.5, "vote_count": 5, "keywords": {"keywords": [{"id": 212, "name": "london, england"}, {"id": 818, "name": "based on novel or book"}, {"id": 1326, "name": "infidelity"}, {"id": 1956, "name": "world war ii"}, {"id": 6001, "name": "speech"}, {"id": 8508, "name": "party"}, {"id": 165086, "name": "star crossed lovers"}, {"id": 206081, "name": "london blitz"}, {"id": 230960, "name": "unfaithful wife"}]}, "similar": {"page": 1, "results": [{"id": 369885, "video": false, "vote_count": 3048, "vote_average": 6.7, "title": "Allied", "release_date": "2016-11-17", "original_language": "en", "original_title": "Allied", "genre_ids": [28, 18, 53, 10749, 10752], "backdrop_path": "/tC0tVH5KQhCwMlddnyA3iWOSuBA.jpg", "adult": false, "overview": "In 1942, an intelligence officer in North Africa encounters a female French Resistance fighter on a deadly mission behind enemy lines. When they reunite in London, their relationship is tested by the pressures of war.", "poster_path": "/nzXzLFTnd0Zb3ExfhOxlQgizgSu.jpg", "popularity": 32.359}, {"adult": false, "backdrop_path": "/pKawqrtCBMmxarft7o1LbEynys7.jpg", "genre_ids": [10752, 18, 28], "id": 228150, "original_language": "en", "original_title": "Fury", "overview": "In the last months of World War II, as the Allies make their final push in the European theatre, a battle-hardened U.S. Army sergeant named 'Wardaddy' commands a Sherman tank called 'Fury' and its five-man crew on a deadly mission behind enemy lines. Outnumbered and outgunned, Wardaddy and his men face overwhelming odds in their heroic attempts to strike at the heart of Nazi Germany.", "poster_path": "/fa4PxEPRKWRyjzYje1jM4m30qzd.jpg", "release_date": "2014-10-15", "title": "Fury", "video": false, "vote_average": 7.4, "vote_count": 7301, "popularity": 56.882}, {"id": 11046, "video": false, "vote_count": 433, "vote_average": 7.6, "title": "Where Eagles Dare", "release_date": "1968-12-04", "original_language": "en", "original_title": "Where Eagles Dare", "genre_ids": [28, 12, 18, 36, 10752], "backdrop_path": "/aAFq5jVHV6RZpLcRXATskNBuEbM.jpg", "adult": false, "overview": "World War II is raging, and an American general has been captured and is being held hostage in the Schloss Adler, a Bavarian castle that's nearly impossible to breach. It's up to a group of skilled Allied soldiers to liberate the general before it's too late.", "poster_path": "/991u0tSWGTVXCYkgC6ftaGE4bkQ.jpg", "popularity": 16.468}, {"id": 438799, "video": false, "vote_count": 1393, "vote_average": 6.6, "title": "Overlord", "release_date": "2018-11-01", "original_language": "en", "original_title": "Overlord", "genre_ids": [27, 878, 10752], "backdrop_path": "/sHNC8hjAu4ZKXYhG3cp8ghRZ02B.jpg", "adult": false, "overview": "France, June 1944. On the eve of D-Day, some American paratroopers fall behind enemy lines after their aircraft crashes while on a mission to destroy a radio tower in a small village near the beaches of Normandy. After reaching their target, the surviving paratroopers realise that, in addition to fighting the Nazi troops that patrol the village, they also must fight against something else.", "poster_path": "/l76Rgp32z2UxjULApxGXAPpYdAP.jpg", "popularity": 21.089}, {"adult": false, "backdrop_path": "/nb70B4EXuoegiQ0C5N1fNVHIaYc.jpg", "genre_ids": [12, 18, 36, 53, 10752], "id": 5925, "original_language": "en", "original_title": "The Great Escape", "overview": "The Nazis, exasperated at the number of escapes from their prison camps by a relatively small number of Allied prisoners, relocates them to a high-security 'escape-proof' camp to sit out the remainder of the war. Undaunted, the prisoners plan one of the most ambitious escape attempts of World War II. Based on a true story.", "poster_path": "/qhy4HgUqhEbwQ1ekKTv7yEB3b0e.jpg", "release_date": "1963-06-20", "title": "The Great Escape", "video": false, "vote_average": 8.0, "vote_count": 1358, "popularity": 17.61}, {"id": 1771, "video": false, "vote_count": 14031, "vote_average": 6.9, "title": "Captain America: The First Avenger", "release_date": "2011-07-22", "original_language": "en", "original_title": "Captain America: The First Avenger", "genre_ids": [28, 12, 878], "backdrop_path": "/pmZtj1FKvQqISS6iQbkiLg5TAsr.jpg", "adult": false, "overview": "During World War II, Steve Rogers is a sickly man from Brooklyn who's transformed into super-soldier Captain America to aid in the war effort. Rogers must stop the Red Skull \u2013 Adolf Hitler's ruthless head of weaponry, and the leader of an organization that intends to use a mysterious device of untold powers for world domination.", "poster_path": "/vSNxAJTlD0r02V9sPYpOjqDZXUK.jpg", "popularity": 22.016}, {"id": 424, "video": false, "vote_count": 8985, "vote_average": 8.6, "title": "Schindler's List", "release_date": "1993-11-30", "original_language": "en", "original_title": "Schindler's List", "genre_ids": [18, 36, 10752], "backdrop_path": "/cTNYRUTXkBgPH3wP3kmPUB5U6dA.jpg", "adult": false, "overview": "The true story of how businessman Oskar Schindler saved over a thousand Jewish lives from the Nazis while they worked as slaves in his factory during World War II.", "poster_path": "/yPisjyLweCl1tbgwgtzBCNCBle.jpg", "popularity": 31.046}, {"id": 515001, "video": false, "vote_count": 547, "vote_average": 8.0, "title": "Jojo Rabbit", "release_date": "2019-10-18", "original_language": "en", "original_title": "Jojo Rabbit", "genre_ids": [35, 18, 10752], "backdrop_path": "/agoBZfL1q5G79SD0npArSlJn8BH.jpg", "adult": false, "overview": "A World War II satire that follows a lonely German boy whose world view is turned upside down when he discovers his single mother is hiding a young Jewish girl in their attic. Aided only by his idiotic imaginary friend, Adolf Hitler, Jojo must confront his blind nationalism.", "poster_path": "/7GsM4mtM0worCtIVeiQt28HieeN.jpg", "popularity": 94.062}, {"id": 50619, "video": false, "vote_count": 5591, "vote_average": 6.0, "title": "The Twilight Saga: Breaking Dawn - Part 1", "release_date": "2011-03-15", "original_language": "en", "original_title": "The Twilight Saga: Breaking Dawn - Part 1", "genre_ids": [12, 14, 10749], "backdrop_path": "/fwhRNjMmwqeGH35eQonSPmQs2ah.jpg", "adult": false, "overview": "The new found married bliss of Bella Swan and vampire Edward Cullen is cut short when a series of betrayals and misfortunes threatens to destroy their world.", "poster_path": "/dSSzv6JrlwS48pBeTNSswLJXOYF.jpg", "popularity": 21.972}, {"id": 454983, "video": false, "vote_count": 3905, "vote_average": 7.2, "title": "The Kissing Booth", "release_date": "2018-05-11", "original_language": "en", "original_title": "The Kissing Booth", "genre_ids": [35, 10749], "backdrop_path": "/xEKx7zPEjN6meomZ7OhV82Mm2jm.jpg", "adult": false, "overview": "When teenager Elle's first kiss leads to a forbidden romance with the hottest boy in high school, she risks her relationship with her best friend.", "poster_path": "/7Dktk2ST6aL8h9Oe5rpk903VLhx.jpg", "popularity": 31.203}, {"id": 853, "video": false, "vote_count": 1912, "vote_average": 7.3, "title": "Enemy at the Gates", "release_date": "2001-03-14", "original_language": "en", "original_title": "Enemy at the Gates", "genre_ids": [28, 18, 36, 10749, 10752], "backdrop_path": "/70G2k5LYyvatd87Rai7DJM0DcYj.jpg", "adult": false, "overview": "A Russian and a German sniper play a game of cat-and-mouse during the Battle of Stalingrad in WWII.", "poster_path": "/9cSoNnB31hGY2mL78VT8mAbz6nR.jpg", "popularity": 18.297}, {"id": 466282, "video": false, "vote_count": 5265, "vote_average": 7.9, "title": "To All the Boys I've Loved Before", "release_date": "2018-08-16", "original_language": "en", "original_title": "To All the Boys I've Loved Before", "genre_ids": [35, 10749], "backdrop_path": "/uZTtVdOEIwPA6vwVRI3217DoPM.jpg", "adult": false, "overview": "Lara Jean's love life goes from imaginary to out of control when her secret letters to every boy she's ever fallen for are mysteriously mailed out.", "poster_path": "/hKHZhUbIyUAjcSrqJThFGYIR6kI.jpg", "popularity": 39.96}, {"adult": false, "backdrop_path": "/ncERp0UvXuImUeJcf27kEANcf1r.jpg", "genre_ids": [35, 10751, 10749], "id": 9880, "original_language": "en", "original_title": "The Princess Diaries", "overview": "A socially awkward but very bright 15-year-old girl being raised by a single mom discovers that she is the princess of a small European country because of the recent death of her long-absent father, who, unknown to her, was the crown prince of Genovia. She must make a choice between continuing the life of a San Francisco teen or stepping up to the throne.", "poster_path": "/sxpvHk286sXLJWcFrBMNIsXbYsd.jpg", "release_date": "2001-08-03", "title": "The Princess Diaries", "video": false, "vote_average": 6.8, "vote_count": 2861, "popularity": 32.167}, {"id": 123553, "video": false, "vote_count": 3198, "vote_average": 6.3, "title": "The Mortal Instruments: City of Bones", "release_date": "2013-08-21", "original_language": "en", "original_title": "The Mortal Instruments: City of Bones", "genre_ids": [28, 12, 18, 14, 9648, 10749], "backdrop_path": "/xIisiN3GxiOMpYQOYarzWlgpDNT.jpg", "adult": false, "overview": "In New York City, Clary Fray, a seemingly ordinary teenager, learns that she is descended from a line of Shadowhunters \u2014 half-angel warriors who protect humanity from evil forces. After her mother disappears, Clary joins forces with a group of Shadowhunters and enters Downworld, an alternate realm filled with demons, vampires, and a host of other creatures. Clary and her companions must find and protect an ancient cup that holds the key to her mother's future.", "poster_path": "/xOBuyMuqc5lDNfxz6ipFjrxd38X.jpg", "popularity": 23.503}, {"id": 272693, "video": false, "vote_count": 3247, "vote_average": 6.8, "title": "The DUFF", "release_date": "2015-02-20", "original_language": "en", "original_title": "The DUFF", "genre_ids": [35, 10749], "backdrop_path": "/awGZf5T1hflis9Z2KvRMhp798xU.jpg", "adult": false, "overview": "Bianca's universe turns upside down when she learns that her high school refers to her as a \u2018DUFF' (Designated Ugly Fat Friend). Hoping to erase that label, she enlists the help of a charming jock and her favorite teacher. Together they'll face the school's mean girl and remind everyone that we are all someone's DUFF\u2026 and that's totally fine.", "poster_path": "/dBBgPTCN5Zze4POXWVVpwf3wkra.jpg", "popularity": 14.151}, {"adult": false, "backdrop_path": "/nEdBHjvRkKwEPD1Ps5A3rRiiLVN.jpg", "genre_ids": [14, 18, 10749], "id": 8966, "original_language": "en", "original_title": "Twilight", "overview": "When Bella Swan moves to a small town in the Pacific Northwest to live with her father, she meets the reclusive Edward Cullen, a mysterious classmate who reveals himself to be a 108-year-old vampire. Despite Edward's repeated cautions, Bella can't help but fall in love with him, a fatal move that endangers her own life when a coven of bloodsuckers try to challenge the Cullen clan.", "poster_path": "/lcMp3AONdNhjYE9MmTtMMTOiRDP.jpg", "release_date": "2008-11-20", "title": "Twilight", "video": false, "vote_average": 6.0, "vote_count": 8146, "popularity": 31.98}, {"id": 222935, "video": false, "vote_count": 7929, "vote_average": 7.6, "title": "The Fault in Our Stars", "release_date": "2014-05-16", "original_language": "en", "original_title": "The Fault in Our Stars", "genre_ids": [18, 10749], "backdrop_path": "/hZWp4W5aQvGm1WiiGFYIuBUOQ3K.jpg", "adult": false, "overview": "Despite the tumor-shrinking medical miracle that has bought her a few years, Hazel has never been anything but terminal, her final chapter inscribed upon diagnosis. But when a patient named Augustus Waters suddenly appears at Cancer Kid Support Group, Hazel's story is about to be completely rewritten.", "poster_path": "/sc6XLX6J714LDkVV3Ys3clgypQS.jpg", "popularity": 21.409}, {"id": 64682, "video": false, "vote_count": 7858, "vote_average": 7.4, "title": "The Great Gatsby", "release_date": "2013-05-10", "original_language": "en", "original_title": "The Great Gatsby", "genre_ids": [18, 10749], "backdrop_path": "/2mdDPszIVJEGZweDzwGyL36ZDC2.jpg", "adult": false, "overview": "An adaptation of F. Scott Fitzgerald's Long Island-set novel, where Midwesterner Nick Carraway is lured into the lavish world of his neighbor, Jay Gatsby. Soon enough, however, Carraway will see through the cracks of Gatsby's nouveau riche existence, where obsession, madness, and tragedy await.", "poster_path": "/oJpOYPpVWyPeunGbbDGH1KFvea0.jpg", "popularity": 22.054}, {"id": 449176, "video": false, "vote_count": 3690, "vote_average": 8.1, "title": "Love, Simon", "release_date": "2018-02-16", "original_language": "en", "original_title": "Love, Simon", "genre_ids": [35, 18, 10749], "backdrop_path": "/rqMEeajyzSF4PpJtdCB816Iz8Vr.jpg", "adult": false, "overview": "Everyone deserves a great love story. But for seventeen-year old Simon Spier it's a little more complicated: he's yet to tell his family or friends he's gay and he doesn't know the identity of the anonymous classmate he's fallen for online.", "poster_path": "/5YUYg5q7QfC4IoNwNUtiwdiYKPr.jpg", "popularity": 24.849}, {"adult": false, "backdrop_path": "/9YwwUNJKUsJ4mOERvUK9ITP0Qou.jpg", "genre_ids": [18, 35, 10749], "id": 245, "original_language": "en", "original_title": "About a Boy", "overview": "Will Freeman is a hip Londoner who one day realizes that his friends are all involved with the responsibilities of married life and that leaves him alone in the cold. Passing himself off as a single father, he starts to meet a string of single mums, confident in his ability to leave them behind when they start to ask for a commitment. But Will's hope of a continued bachelorhood is interrupted when he meets 12-year old Marcus, in many ways his complete opposite.", "poster_path": "/1kz4Q2v7cxwNnTfkjrujzWAVCne.jpg", "release_date": "2002-04-26", "title": "About a Boy", "video": false, "vote_average": 6.6, "vote_count": 1385, "popularity": 13.071}], "total_pages": 36, "total_results": 715}, "recommendations": {"page": 1, "results": [{"id": 106635, "video": false, "vote_count": 8, "vote_average": 6.7, "title": "It's Love I'm After", "release_date": "1937-10-08", "original_language": "en", "original_title": "It's Love I'm After", "genre_ids": [35], "backdrop_path": "/ayZxqMIyDQtW9JjDHf4yaIEoJc9.jpg", "adult": false, "overview": "An infatuated debutante renews a Shakespearean actor's running feud with his leading lady.", "poster_path": "/w68Ql5a5EthX4fOJJWG3FzKgqBu.jpg", "popularity": 3.653}, {"id": 106224, "video": false, "vote_count": 6, "vote_average": 7.8, "title": "The Inheritance", "release_date": "1976-10-21", "original_language": "it", "original_title": "L'eredit\u00e0 Ferramonti", "genre_ids": [18], "backdrop_path": "/pJZgdi4PgiFU5PxyZbk5SbXKJWS.jpg", "adult": false, "overview": "Rome, 1880. Gregorio Ferramonti (Anthony Quinn) has decided to close his bakery, the family business. Then he tells his sons Pippo (Gigi Proietti), Mario (Fabio Testi) and Teta that they will have to fend for themselves. But  Irene (Dominique Sanda), the wife of Pippo, a beautiful, calculating and ambitious young woman, wants to take over the inheritance. Acting on intelligence, weighing every step and its consequences, she manages to convince the brothers that they must prevent at all costs that his father falls in love again to avoid the risk of losing their inheritance.", "poster_path": "/rudLaeAh57606tm2zQmxJezJDkI.jpg", "popularity": 3.064}, {"adult": false, "backdrop_path": "/zQwWA1qMFsSuAVH7nVI04KegVpq.jpg", "genre_ids": [18, 10749], "id": 36731, "original_language": "en", "original_title": "The Roman Spring of Mrs. Stone", "overview": "Critics and the public say Karen Stone is too old -- as she approaches 50 -- for her role in a play she is about to take to Broadway. Her businessman husband, 20 years her senior, has been the angel for the play and gives her a way out: They are off to a holiday in Rome for his health. He suffers a fatal heart attack on the plane. Mrs. Stone stays in Rome. She leases a magnificent apartment with a view of the seven hills from the terrace. Then the contessa comes calling to introduce a young man named Paola to her. The contessa knows many presentable young men and lonely American widows.", "poster_path": "/wtrDkFd6px1Ya5asBKeu0kQ80Bl.jpg", "release_date": "1961-12-28", "title": "The Roman Spring of Mrs. Stone", "video": false, "vote_average": 7.4, "vote_count": 14, "popularity": 3.372}, {"adult": false, "backdrop_path": "/rMrAKsDXU1NUstcw4lWgvL7eU9E.jpg", "genre_ids": [35], "id": 121010, "original_language": "en", "original_title": "Take a Letter, Darling", "overview": "A struggling painter takes a job as a secretary to a female advertising executive. While working to obtain an account from a tobacco company, they end up falling in love.", "poster_path": "/wuyX5oKPoVH6LLHMzhblfd8sop7.jpg", "release_date": "1942-05-06", "title": "Take a Letter, Darling", "video": false, "vote_average": 6.8, "vote_count": 5, "popularity": 2.684}, {"adult": false, "backdrop_path": "/i1oSIwU5XcvEEBYK06GA7H0hQve.jpg", "genre_ids": [35], "id": 192938, "original_language": "en", "original_title": "The Affairs of Susan", "overview": "Susan is about to be married, but the wedding may get called off after her fiancee summons three former beaus. Each reveals a different portrait of Susan: one describes her as a naive country girl who reluctantly becomes an actress, another paints a picture of a gay party girl and and the third describes a serious intellectual. Which one is the real Susan?", "poster_path": "/pxwpg9hsMC8vclG622WO0jteDZ3.jpg", "release_date": "1945-03-28", "title": "The Affairs of Susan", "video": false, "vote_average": 6.1, "vote_count": 5, "popularity": 3.822}, {"adult": false, "backdrop_path": "/oKAYuChDR2LT2DyAksnHgUwoA2q.jpg", "genre_ids": [18, 10749, 10752], "id": 119926, "original_language": "en", "original_title": "Bridge to the Sun", "overview": "Tells the true story of Gwen Terasaki, who falls in love with, then marries a Japanese diplomat. When war breaks out they find animosity and trouble from both sides.", "poster_path": "/b54wIWguJiZroA0j9bBlPlaI4XD.jpg", "release_date": "1961-10-17", "title": "Bridge to the Sun", "video": false, "vote_average": 7.3, "vote_count": 6, "popularity": 2.959}, {"adult": false, "backdrop_path": "/amUEfs0xypaEdgYnQYS0Q5nidBR.jpg", "genre_ids": [35, 18], "id": 43820, "original_language": "en", "original_title": "Susan and God", "overview": "A flighty socialite neglects her family to promote a new religious group.", "poster_path": "/tAHCNhYbgoggJPuiMyBaJfFZLnk.jpg", "release_date": "1940-06-07", "title": "Susan and God", "video": false, "vote_average": 6.9, "vote_count": 4, "popularity": 3.099}, {"id": 43693, "video": false, "vote_count": 6, "vote_average": 5.7, "title": "The Barretts of Wimpole Street", "release_date": "1934-09-21", "original_language": "en", "original_title": "The Barretts of Wimpole Street", "genre_ids": [18, 10749], "backdrop_path": "/qQCeavi1xvhCcKws9DkWsoPTvrg.jpg", "adult": false, "overview": "Elizabeth Barrett's tyrannical father has forbidden any of his family to marry. Nevertheless, Elizabeth falls in love with the poet Robert Browning.", "poster_path": "/f43VU0K4CAkSIb5P9zRYQwstFT7.jpg", "popularity": 2.735}, {"id": 102293, "video": false, "vote_count": 8, "vote_average": 7.1, "title": "The Revolt of Mamie Stover", "release_date": "1956-05-11", "original_language": "en", "original_title": "The Revolt of Mamie Stover", "genre_ids": [18], "backdrop_path": "/s6WqROEwXwYXQJrALmoNoSpjBHJ.jpg", "adult": false, "overview": "Set in the early '40s, a San Francisco prostitute is run out of town just as the second World War has begun to intensify. Mamie settles down in Hawaii, hoping to start a new life. Though her prospects look good when she falls in love with a science-fiction writer who treats her with the respect she deserves, the dawning war and the fallacies of her previous lifestyle complicate their budding romance. Mamie cannot fully remove herself from her former profession, and provides some of her old services to the sailors stationed in town. Searching for another means of financial security, Mamie invests in several pieces of real estate and becomes quite wealthy, though her bad reputation has not been forgotten by the locals. Written by alfiehitchie", "poster_path": "/tBjgdyH89fXXkz7VOOSe5MOXY14.jpg", "popularity": 4.016}, {"adult": false, "backdrop_path": "/xMzYUgNUbE4Zq00r485X0AGyF4U.jpg", "genre_ids": [18, 10749], "id": 40985, "original_language": "en", "original_title": "Arch of Triumph", "overview": "In winter of 1938, Paris is crowded with refugees from the Nazis, who live in the black shadows of night, trying to evade deportation. One such is Dr. Ravic, who practices medicine illegally and stalks his old Nazi enemy Haake with murder in mind. One rainy night, Ravic meets Joan Madou, a kept woman cast adrift by her lover's sudden death. Against Ravic's better judgement, they become involved in a doomed affair.", "poster_path": "/5tdxQOcppJrYrnkK9sA2zJp1san.jpg", "release_date": "1948-02-17", "title": "Arch of Triumph", "video": false, "vote_average": 6.2, "vote_count": 13, "popularity": 8.083}, {"adult": false, "backdrop_path": "/nMLXGT2xrSUK3xGSj9fJwoHeh8o.jpg", "genre_ids": [35, 80, 10749], "id": 118534, "original_language": "en", "original_title": "A Scandal in Paris", "overview": "A smooth-talking French thief (George Sanders) wangles his way into an important position as prefect of police.", "poster_path": "/rTesURP2cJ99uFImWxhe5RFgD5V.jpg", "release_date": "1946-07-19", "title": "A Scandal in Paris", "video": false, "vote_average": 6.0, "vote_count": 11, "popularity": 3.105}, {"adult": false, "backdrop_path": "/xI9RzahNxe8mvdBnlXpMeikNVbT.jpg", "genre_ids": [18, 10749], "id": 90746, "original_language": "en", "original_title": "September Affair", "overview": "An industrialist (Joseph Cotton) and a pianist (Joan Fontaine) meet on a trip and fall in love. Through a quirk of fate, they are reported dead in a crash though they weren't on the plane. This gives them the opportunity to live together free from their previous lives. Unfortunately, this artificial arrangement leads to greater and greater stress. Eventually the situation collapses when they come to pursue their original, individual interests without choosing a common path.", "poster_path": "/2sbA9yTwQznprSgQmSAPaPz2sOR.jpg", "release_date": "1950-10-18", "title": "September Affair", "video": false, "vote_average": 6.6, "vote_count": 5, "popularity": 2.85}, {"adult": false, "backdrop_path": "/3jARug9r2NA8NaHksO5PRB2vcSN.jpg", "genre_ids": [18, 10749, 80], "id": 36656, "original_language": "en", "original_title": "The Damned Don't Cry", "overview": "Fed up with her small-town marriage, a woman goes after the big time and gets mixed up with the mob.", "poster_path": "/bSwt8yP1xfJI5mlklebIxohUPqg.jpg", "release_date": "1950-05-07", "title": "The Damned Don't Cry", "video": false, "vote_average": 7.3, "vote_count": 14, "popularity": 4.314}], "total_pages": 1, "total_results": 13}, "credits": {"cast": [{"cast_id": 2, "character": "Sarah Miles", "credit_id": "52fe4994c3a368484e132c1f", "gender": 1, "id": 20141, "name": "Deborah Kerr", "order": 0, "profile_path": "/snyKI73NycIaXjU4GyxDq92ZRo5.jpg"}, {"cast_id": 3, "character": "Maurice Bendrix", "credit_id": "52fe4994c3a368484e132c23", "gender": 2, "id": 37446, "name": "Van Johnson", "order": 1, "profile_path": "/fVhWeeytSzeasZzOWG0KXOhMsiF.jpg"}, {"cast_id": 4, "character": "Albert Parkis", "credit_id": "52fe4994c3a368484e132c27", "gender": 2, "id": 11859, "name": "John Mills", "order": 2, "profile_path": "/jMqhI1NeTwgdKsrj9vMshk1r5hP.jpg"}, {"cast_id": 5, "character": "Henry Miles", "credit_id": "52fe4994c3a368484e132c2b", "gender": 2, "id": 5, "name": "Peter Cushing", "order": 3, "profile_path": "/l0grZXcjqctESg7h6Jdp33pA3QG.jpg"}, {"cast_id": 6, "character": "Smythe", "credit_id": "52fe4994c3a368484e132c2f", "gender": 2, "id": 78940, "name": "Michael Goodliffe", "order": 4, "profile_path": "/mVLnHVX3VvDAk3UNBrBtxxPsVje.jpg"}, {"cast_id": 7, "character": "le p\u00e8re Crompton", "credit_id": "52fe4994c3a368484e132c33", "gender": 2, "id": 38999, "name": "Stephen Murray", "order": 5, "profile_path": "/ixPaDvILsMBTI2HsSQt4Mmxa0Vo.jpg"}, {"cast_id": 8, "character": "Savage", "credit_id": "52fe4994c3a368484e132c37", "gender": 2, "id": 115062, "name": "Charles Goldner", "order": 6, "profile_path": null}, {"cast_id": 9, "character": "Mme Bertram", "credit_id": "52fe4994c3a368484e132c3b", "gender": 1, "id": 88895, "name": "Nora Swinburne", "order": 7, "profile_path": "/cCzOzfmNtMGgxRgnUo2ciQZF1xC.jpg"}, {"cast_id": 10, "character": "le docteur Collingwood", "credit_id": "52fe4994c3a368484e132c3f", "gender": 2, "id": 127024, "name": "Frederick Leister", "order": 8, "profile_path": null}, {"cast_id": 11, "character": "la femme de m\u00e9nage", "credit_id": "52fe4994c3a368484e132c43", "gender": 0, "id": 583455, "name": "Mary Williams", "order": 9, "profile_path": null}], "crew": [{"credit_id": "52fe4994c3a368484e132c49", "department": "Writing", "gender": 2, "id": 15379, "job": "Novel", "name": "Graham Greene", "profile_path": "/cz2Nnw7YASKCOHB5B9cgHT7mZuH.jpg"}, {"credit_id": "52fe4994c3a368484e132c1b", "department": "Directing", "gender": 2, "id": 64114, "job": "Director", "name": "Edward Dmytryk", "profile_path": "/rEW1tLWUsWpSikOoY3WIzeEhVN9.jpg"}, {"credit_id": "52fe4994c3a368484e132c4f", "department": "Writing", "gender": 1, "id": 84237, "job": "Screenplay", "name": "Lenore J. Coffee", "profile_path": "/4izZTE5jXntDj7BX3HFVpNr1sRu.jpg"}, {"credit_id": "5c8fa8c50e0a26130258c19d", "department": "Camera", "gender": 2, "id": 2212837, "job": "Still Photographer", "name": "Laurie Ridley", "profile_path": null}]}}