{"adult": false, "backdrop_path": null, "belongs_to_collection": null, "budget": 0, "genres": [{"id": 37, "name": "Western"}], "homepage": null, "id": 78498, "imdb_id": "tt0028162", "original_language": "en", "original_title": "Rebellion", "overview": "In this drama, a Mexican woman attempts to live a peaceful life in California. Unfortunately, land-grabbers kill her father and begin harassing her. Desperate, she sends an impassioned plea for help to Washington, who sends her is special aide to mediate.", "popularity": 0.84, "poster_path": "/o4xbkhZ12GlUiO7LR6mg0wsSsdV.jpg", "production_companies": [], "production_countries": [{"iso_3166_1": "US", "name": "United States of America"}], "release_date": "1936-10-27", "revenue": 0, "runtime": 60, "spoken_languages": [{"iso_639_1": "en", "name": "English"}], "status": "Released", "tagline": "Cavalcade of Thrills and Romance", "title": "Rebellion", "video": false, "vote_average": 0.0, "vote_count": 0, "keywords": {"keywords": [{"id": 163127, "name": "mexican"}]}, "similar": {"page": 1, "results": [{"id": 966, "video": false, "vote_count": 921, "vote_average": 7.6, "title": "The Magnificent Seven", "release_date": "1960-10-22", "original_language": "en", "original_title": "The Magnificent Seven", "genre_ids": [37], "backdrop_path": "/oRSocDAAADYnCkI4jiUeRnlCnwG.jpg", "adult": false, "overview": "An oppressed Mexican peasant village hires seven gunfighters to help defend their homes.", "poster_path": "/7w3JmmyL8GpBvW6BusQfQCSm2h0.jpg", "popularity": 16.213}, {"id": 10733, "video": false, "vote_count": 178, "vote_average": 5.9, "title": "The Alamo", "release_date": "2004-04-07", "original_language": "en", "original_title": "The Alamo", "genre_ids": [36, 37, 10752], "backdrop_path": "/liNSvb0RHVnLiV4XOJdWYuY8VgO.jpg", "adult": false, "overview": "Based on the 1836 standoff between a group of Texan and Tejano men, led by Davy Crockett and Jim Bowie, and Mexican dictator Santa Anna's forces at the Alamo in San Antonio, Texas.", "poster_path": "/6BjQL97zeRnpJShJV5DQT9e9SE4.jpg", "popularity": 10.0}, {"id": 18688, "video": false, "vote_count": 16, "vote_average": 5.7, "title": "Charro!", "release_date": "1969-03-13", "original_language": "en", "original_title": "Charro!", "genre_ids": [28, 18, 37], "backdrop_path": "/fdDninhNXJQ0yImjadS9wEwglop.jpg", "adult": false, "overview": "Jess Wade is innocently accused of having stolen a cannon from the Mexican revolutionary forces. He tries to find the real culprits, a gang of criminals.", "poster_path": "/9kmv7S7GUDWkFEeIUhdkNPlFyYS.jpg", "popularity": 6.817}, {"adult": false, "backdrop_path": "/zRdK2OQ0BquK3mTrCu6AODiBtxi.jpg", "genre_ids": [18, 80, 10749], "id": 13703, "original_language": "en", "original_title": "Less than Zero", "overview": "A college freshman returns to Los Angeles for the holidays at his ex-girlfriend's request, but discovers that his former best friend has an out-of-control drug habit.", "poster_path": "/lhLLXxyjmRTQy2auxzCo6wqYNqM.jpg", "release_date": "1987-11-06", "title": "Less than Zero", "video": false, "vote_average": 6.4, "vote_count": 158, "popularity": 9.378}, {"id": 14881, "video": false, "vote_count": 152, "vote_average": 6.4, "title": "Joe Kidd", "release_date": "1972-07-14", "original_language": "en", "original_title": "Joe Kidd", "genre_ids": [37], "backdrop_path": "/rKSnMSc7312zD9pqCi1Nla8gBfl.jpg", "adult": false, "overview": "A band of Mexicans find their U. S. land claims denied and all the records destroyed in a courthouse fire. Their leader, Louis Chama, encourages them to use force to regain their land. A wealthy landowner wanting the same decides to hire a gang of killers with Joe Kidd to track Chama.", "poster_path": "/rLsoXLC2YpZ5B0OR1wTLv1i4jC3.jpg", "popularity": 11.454}, {"id": 2539, "video": false, "vote_count": 741, "vote_average": 5.9, "title": "Spanglish", "release_date": "2004-12-17", "original_language": "en", "original_title": "Spanglish", "genre_ids": [35], "backdrop_path": "/awcak1m6yW8393FkyeRdiiwRC7W.jpg", "adult": false, "overview": "Mexican immigrant and single mother Flor Moreno finds housekeeping work with Deborah and John Clasky, a well-off couple with two children of their own. When Flor admits she can't handle the schedule because of her daughter, Cristina, Deborah decides they should move into the Clasky home. Cultures clash and tensions run high as Flor and the Claskys struggle to share space while raising their children on their own, and very different, terms.", "poster_path": "/eXsj4d6kP5z1n9Pkk7rosX2TF9w.jpg", "popularity": 11.403}, {"id": 7873, "video": false, "vote_count": 347, "vote_average": 6.4, "title": "Harsh Times", "release_date": "2005-09-11", "original_language": "en", "original_title": "Harsh Times", "genre_ids": [28, 80, 18, 53], "backdrop_path": "/ooWqV1Tm9LbAbEAzTqhonI7StGO.jpg", "adult": false, "overview": "Jim Davis is an ex-Army Ranger who finds himself slipping back into his old life of petty crime after a job offer from the LAPD evaporates. His best friend is pressured by his girlfriend Sylvia to find a job, but Jim is more interested in hanging out and making cash from small heists, while trying to get a law enforcement job so he can marry his Mexican girlfriend.", "poster_path": "/bULoDSFMxJ0OnyrORPwT9844B9v.jpg", "popularity": 11.636}, {"id": 16662, "video": false, "vote_count": 70, "vote_average": 7.7, "title": "The Big Gundown", "release_date": "1966-11-29", "original_language": "it", "original_title": "La resa dei conti", "genre_ids": [37], "backdrop_path": "/dfGmMFRzZfURBHIeCkYTP8Ug7IF.jpg", "adult": false, "overview": "Unofficial lawman John Corbett hunts down Cuchillo Sanchez, a Mexican peasant accused of raping and killing a 12-year-old girl.", "poster_path": "/A38dV8xxuXetWzcSazrdk3wE8Pv.jpg", "popularity": 8.169}, {"id": 11209, "video": false, "vote_count": 166, "vote_average": 7.1, "title": "The Alamo", "release_date": "1960-10-23", "original_language": "en", "original_title": "The Alamo", "genre_ids": [37], "backdrop_path": "/leDO2O7HywKWZhk15feAQ3Gc37p.jpg", "adult": false, "overview": "The legendary true story of a small band of soldiers who sacrificed their lives in hopeless combat against a massive army in order to prevent a tyrant from smashing the new Republic of Texas.", "poster_path": "/dXT8g86t0x2SHWgCxQlhfKbPOWu.jpg", "popularity": 9.181}, {"id": 32617, "video": false, "vote_count": 49, "vote_average": 6.4, "title": "Bite the Bullet", "release_date": "1975-09-26", "original_language": "en", "original_title": "Bite the Bullet", "genre_ids": [28, 12, 37], "backdrop_path": "/7uVY8w2iSjURPyv7Q0Eb8vhaWZE.jpg", "adult": false, "overview": "At the beginning of the 20th century, a newspaper organizes an endurance horse race : 700 miles to run in a few days. 9 adventurers are competing, among them a woman, Miss Jones, a Mexican, an Englishman, a young cow-boy, an old one and two friends, Sam Clayton and Luke Matthews. All those individualists will learn to respect each other.", "poster_path": "/a5fYK94xQlvnegBTL5yULXYGYEF.jpg", "popularity": 7.37}, {"id": 1480, "video": false, "vote_count": 723, "vote_average": 7.8, "title": "Touch of Evil", "release_date": "1958-04-23", "original_language": "en", "original_title": "Touch of Evil", "genre_ids": [80, 53], "backdrop_path": "/pIWTZLpLfryQj4NrCY4ElI8Sk24.jpg", "adult": false, "overview": "When a car bomb explodes on the American side of the U.S./Mexico border, Mexican drug enforcement agent Miguel Vargas begins his investigation, along with American police captain Hank Quinlan. When Vargas begins to suspect that Quinlan and his shady partner, Menzies, are planting evidence to frame an innocent man, his investigations into their possible corruption quickly put himself and his new bride, Susie, in jeopardy.", "poster_path": "/1pvRgmfBaoMczIJBOi9gCOZ4FMC.jpg", "popularity": 11.022}, {"id": 43417, "video": false, "vote_count": 29, "vote_average": 5.1, "title": "The Magnificent Seven Ride!", "release_date": "1972-08-01", "original_language": "en", "original_title": "The Magnificent Seven Ride!", "genre_ids": [28, 37], "backdrop_path": "/gF90MAHL6wTMkH95CdnLt9Y3ank.jpg", "adult": false, "overview": "Marshal Chris Adams turns down a friend's request to help stop the depredations of a gang of Mexican bandits. When his wife is killed by bank robbers and his friend is killed capturing the last thief, Chris feels obligated to take up his friend's cause and recruits a writer and five prisoners to destroy the desperadoes.The last in the original series of four \"Magnificent Seven\" movies.", "poster_path": "/ii1CbRwGxHcL6aSEA7O6kHHUDYW.jpg", "popularity": 5.944}, {"id": 46757, "video": false, "vote_count": 28, "vote_average": 7.0, "title": "The Last Sunset", "release_date": "1961-06-06", "original_language": "en", "original_title": "The Last Sunset", "genre_ids": [37], "backdrop_path": "/3lMujfT9u2uBwGIurB749Vow9tU.jpg", "adult": false, "overview": "Brendan O'Malley arrives at the Mexican home of old flame Belle Breckenridge to find her married to a drunkard getting ready for a cattle drive to Texas. Hot on O'Malley's heels is lawman Dana Stribling who has a personal reason for getting him back into his jurisdiction. Both men join Breckenridge and his wife on the drive. As they near Texas tensions mount, not least because Stribling is starting to court Belle and O'Malley is increasingly drawn by her daughter Missy.", "poster_path": "/8NQUjYhoM1jKm5jr33OCowqXk2r.jpg", "popularity": 6.868}, {"id": 43114, "video": false, "vote_count": 27, "vote_average": 6.4, "title": "Buchanan Rides Alone", "release_date": "1958-08-01", "original_language": "en", "original_title": "Buchanan Rides Alone", "genre_ids": [28, 37], "backdrop_path": "/wsGzr6seSdtAlxmo0tZfydkbhAD.jpg", "adult": false, "overview": "A Texan pits a powerful family against itself to save a Mexican from hanging.", "poster_path": "/n3ZAvO78SHJJYJJjHgP7yz7j0go.jpg", "popularity": 4.161}, {"id": 56431, "video": false, "vote_count": 30, "vote_average": 6.4, "title": "A Pistol for Ringo", "release_date": "1965-05-12", "original_language": "it", "original_title": "Una pistola per Ringo", "genre_ids": [37], "backdrop_path": "/zfygBUiGruuoXb4n0Wt3eyFvV0G.jpg", "adult": false, "overview": "Giuliano Gemma stars as a cool, cocky mercenary enlisted by a sheriff to infiltrate a ruthless gang of outlaws. Ennio Morricone provided the score to this early spaghetti western hit.", "poster_path": "/cxTIJRaY5FgogIddyJYdLy4mLjU.jpg", "popularity": 5.297}, {"id": 63260, "video": false, "vote_count": 22, "vote_average": 7.0, "title": "The Return of Ringo", "release_date": "1965-12-08", "original_language": "it", "original_title": "Il ritorno di Ringo", "genre_ids": [37], "backdrop_path": "/1PBA18Kzg31npFPGUGc31thQQXw.jpg", "adult": false, "overview": "Once again billed as Montgomery Wood, Giuliano Gemma plays a civil war soldier who returns to his family land to find his family decimated, his property taken over by a family of Mexican bandits and his fiancee about to marry the Mexican gangster behind all this. Bent on revenge, he goes undercover disguised as a Mexican and discovers he has a daughter!", "poster_path": "/vnPieWbIi6T8MbdrAAPBj7zEiSc.jpg", "popularity": 4.196}, {"id": 79683, "video": false, "vote_count": 8, "vote_average": 3.8, "title": "Bad Man's River", "release_date": "1971-12-03", "original_language": "es", "original_title": "Bad Man's River", "genre_ids": [28, 37], "backdrop_path": "/enyRvLi12YAw6o9XejxzKIFTRhj.jpg", "adult": false, "overview": "Robber Roy King loses his wife, Alicia, to revolutionary Montero. Despite their rivalry they collaborate in an attempt to rob the Mexican government of one million dollars.", "poster_path": "/AvQXGOhwrcjmcLkHp1PRguHzABx.jpg", "popularity": 2.718}, {"adult": false, "backdrop_path": "/omkLvPSIBxJXiTutuk7WBb54AtW.jpg", "genre_ids": [18], "id": 86975, "original_language": "en", "original_title": "\u00a1Alambrista!", "overview": "After the birth of his first child, Roberto, a young Mexican man slips across the border into the United States. Seeking work to support his family back home, he finds that working hard is not enough.", "poster_path": "/qgzYHc5yxJHk3ZqFi1G1E6G75Ya.jpg", "release_date": "1977-10-16", "title": "Alambrista!", "video": false, "vote_average": 6.5, "vote_count": 6, "popularity": 2.208}, {"id": 122787, "video": false, "vote_count": 11, "vote_average": 6.9, "title": "Kill and Pray", "release_date": "1967-03-10", "original_language": "it", "original_title": "Requiescant", "genre_ids": [37], "backdrop_path": "/7R0Vrsj2Nw8I4t1xyRxJkfxCEQY.jpg", "adult": false, "overview": "Requiescant is a 1967 spaghetti western directed by Carlo Lizzani. After surviving his family being massacred, a young boy is taken in and raised by a preacher. Years later he comes face to face with the man that killed his family and he is tempted into back into violence.", "poster_path": "/bJPbJSfKN2ABRvtSplhpezYE93q.jpg", "popularity": 1.879}, {"adult": false, "backdrop_path": "/5mjKEiCW2CJxcAJ8sSczWL8RsVO.jpg", "genre_ids": [28, 10752, 37], "id": 60285, "original_language": "en", "original_title": "Alvarez Kelly", "overview": "In 1864, during the American Civil War, Mexican cattleman Alvarez Kelly supplies the Union with cattle until unexpected circumstances force him to change his customers.", "poster_path": "/6QDBoAEBCv9SmRLUKnM3Eoe7gXg.jpg", "release_date": "1966-10-06", "title": "Alvarez Kelly", "video": false, "vote_average": 6.3, "vote_count": 17, "popularity": 6.261}], "total_pages": 5, "total_results": 89}, "recommendations": {"page": 1, "results": [], "total_pages": 1, "total_results": 0}, "credits": {"cast": [{"cast_id": 1, "character": "Paula Castillo", "credit_id": "52fe49a4c3a368484e135d3d", "gender": 1, "id": 33741, "name": "Rita Hayworth", "order": 0, "profile_path": "/oG6UWxpq552LN5re0TJESUGP0K7.jpg"}, {"cast_id": 3, "character": "Captain John Carroll", "credit_id": "52fe49a4c3a368484e135d47", "gender": 2, "id": 65500, "name": "Tom Keene", "order": 1, "profile_path": "/kCzELnYTY6j3edahwonspDke0P9.jpg"}, {"cast_id": 4, "character": "Ricardo Castillo", "credit_id": "52fe49a4c3a368484e135d4b", "gender": 0, "id": 144387, "name": "Duncan Renaldo", "order": 2, "profile_path": "/pepgLXmkQGnnvSj2x9VsisAIIot.jpg"}, {"cast_id": 11, "character": "Harris", "credit_id": "52fe49a4c3a368484e135d63", "gender": 2, "id": 121412, "name": "William Royle", "order": 3, "profile_path": null}, {"cast_id": 6, "character": "Pablo", "credit_id": "52fe49a4c3a368484e135d4f", "gender": 2, "id": 9096, "name": "Gino Corrado", "order": 4, "profile_path": "/s9WKkWJFUNgbPhczUP4sD0OA4I4.jpg"}, {"cast_id": 7, "character": "Honeycutt", "credit_id": "52fe49a4c3a368484e135d53", "gender": 2, "id": 121224, "name": "Roger Gray", "order": 5, "profile_path": null}, {"cast_id": 8, "character": "Judge Moore", "credit_id": "52fe49a4c3a368484e135d57", "gender": 2, "id": 88653, "name": "Robert McKenzie", "order": 6, "profile_path": "/z61SqdfvuuCVAdjwfTM50rWadZ1.jpg"}, {"cast_id": 9, "character": "President Zachary Taylor", "credit_id": "52fe49a4c3a368484e135d5b", "gender": 0, "id": 141029, "name": "Allan Cavan", "order": 7, "profile_path": null}, {"cast_id": 10, "character": "Henchman Hank", "credit_id": "52fe49a4c3a368484e135d5f", "gender": 2, "id": 34837, "name": "Jack Ingram", "order": 8, "profile_path": "/vKbbGRsdXLtqWqqMoRf5jpXYTx5.jpg"}], "crew": [{"credit_id": "52fe49a4c3a368484e135d43", "department": "Directing", "gender": 1, "id": 120753, "job": "Director", "name": "Lynn Shores", "profile_path": null}]}}