{"adult": false, "backdrop_path": "/dLMdfXN9WYPfRdzfiFClDgTneJC.jpg", "belongs_to_collection": null, "budget": 0, "genres": [{"id": 80, "name": "Crime"}, {"id": 27, "name": "Horror"}], "homepage": null, "id": 79363, "imdb_id": "tt0047976", "original_language": "en", "original_title": "Dementia", "overview": "Shot entirely without dialogue and filled with suggestive violence and psycho-sexual imagery, it's like a skid row expressionist thriller following the nocturnal prowling of a young woman haunted by homicidal guilt.", "popularity": 5.3, "poster_path": "/e8Ggof2sZlTz42kH2amVMbWfcqA.jpg", "production_companies": [{"id": 14118, "logo_path": null, "name": "J.J. Parker Productions", "origin_country": ""}, {"id": 14119, "logo_path": null, "name": "H.K.F. Productions", "origin_country": ""}], "production_countries": [{"iso_3166_1": "US", "name": "United States of America"}], "release_date": "1955-12-22", "revenue": 0, "runtime": 56, "spoken_languages": [{"iso_639_1": "en", "name": "English"}], "status": "Released", "tagline": "Not ONE WORD is spoken on the screen!", "title": "Dementia", "video": false, "vote_average": 6.5, "vote_count": 27, "keywords": {"keywords": [{"id": 9693, "name": "female killer"}, {"id": 34117, "name": "cult film"}, {"id": 195402, "name": "film noir"}]}, "similar": {"page": 1, "results": [{"adult": false, "backdrop_path": "/1l77Gk2OK9hjRFze08El8Do3pT1.jpg", "genre_ids": [80, 9648, 53], "id": 996, "original_language": "en", "original_title": "Double Indemnity", "overview": "A rich woman and a calculating insurance agent plot to kill her unsuspecting husband after he signs a double indemnity policy.  Against a backdrop of distinctly Californian settings, the partners in crime plan the perfect murder to collect the insurance, which pays  double if the death is accidental.", "poster_path": "/nW0cCpfuGcR1JG7EinDbdL2Ijf2.jpg", "release_date": "1944-07-03", "title": "Double Indemnity", "video": false, "vote_average": 8.2, "vote_count": 856, "popularity": 12.834}, {"adult": false, "backdrop_path": "/gF7v48JI9Vf6bBVU5aykiPtcCub.jpg", "genre_ids": [80, 9648, 53], "id": 14638, "original_language": "en", "original_title": "The Killers", "overview": "Two hit men walk into a diner asking for a man called \"the Swede\". When the killers find the Swede, he's expecting them and doesn't put up a fight. Since the Swede had a life insurance policy, an investigator, on a hunch, decides to look into the murder. As the Swede's past is laid bare, it comes to light that he was in love with a beautiful woman who may have lured him into pulling off a bank robbery overseen by another man.", "poster_path": "/uXnuc6pW01s1MDwb6QwBWg2JQeX.jpg", "release_date": "1946-08-28", "title": "The Killers", "video": false, "vote_average": 7.4, "vote_count": 167, "popularity": 11.743}, {"id": 4638, "video": false, "vote_count": 4426, "vote_average": 7.5, "title": "Hot Fuzz", "release_date": "2007-02-14", "original_language": "en", "original_title": "Hot Fuzz", "genre_ids": [28, 35, 80], "backdrop_path": "/zuskekrfW3gj9ttXNVhfdHe5n22.jpg", "adult": false, "overview": "As a former London constable, Nicholas Angel finds it difficult to adapt to his new assignment in the sleepy British village of Sandford. Not only does he miss the excitement of the big city, but he also has a well-meaning oaf for a partner. However, when a series of grisly accidents rocks Sandford, Angel smells something rotten in the idyllic village.", "poster_path": "/5Jx6s6VXnunh8wCLgR0YgjwSgjh.jpg", "popularity": 25.234}, {"adult": false, "backdrop_path": "/7RRuRcGuWkZGuRyYugfXn0Fgrrr.jpg", "genre_ids": [28, 80, 18, 53], "id": 949, "original_language": "en", "original_title": "Heat", "overview": "Obsessive master thief, Neil McCauley leads a top-notch crew on various daring heists throughout Los Angeles while determined detective, Vincent Hanna pursues him without rest. Each man recognizes and respects the ability and the dedication of the other even though they are aware their cat-and-mouse game may end in violence.", "poster_path": "/6pmLVffM9jEYK7VqDJqPblMxfEY.jpg", "release_date": "1995-12-15", "title": "Heat", "video": false, "vote_average": 7.8, "vote_count": 3610, "popularity": 21.48}, {"id": 101, "video": false, "vote_count": 8645, "vote_average": 8.3, "title": "L\u00e9on: The Professional", "release_date": "1994-09-14", "original_language": "en", "original_title": "L\u00e9on: The Professional", "genre_ids": [28, 80, 18], "backdrop_path": "/dXQ7HILRK1Tg33RT64JwbQI7Osh.jpg", "adult": false, "overview": "L\u00e9on, the top hit man in New York, has earned a rep as an effective \"cleaner\". But when his next-door neighbors are wiped out by a loose-cannon DEA agent, he becomes the unwilling custodian of 12-year-old Mathilda. Before long, Mathilda's thoughts turn to revenge, and she considers following in L\u00e9on's footsteps.", "poster_path": "/gE8S02QUOhVnAmYu4tcrBlMTujz.jpg", "popularity": 42.005}, {"id": 30497, "video": false, "vote_count": 1430, "vote_average": 7.3, "title": "The Texas Chain Saw Massacre", "release_date": "1974-10-01", "original_language": "en", "original_title": "The Texas Chain Saw Massacre", "genre_ids": [27], "backdrop_path": "/sOw7TZzt3vRQXXCrwdspSHwCJDR.jpg", "adult": false, "overview": "Five friends visiting their grandfather's house in the country are hunted and terrorized by a chain-saw wielding killer and his family of grave-robbing cannibals.", "poster_path": "/9s8uSm5K1W0vhGPHv2icM6SFib8.jpg", "popularity": 14.242}, {"adult": false, "backdrop_path": "/tR1RXbnkSvZq0sgx0Gyh3GmgYoB.jpg", "genre_ids": [80, 18, 53], "id": 21734, "original_language": "en", "original_title": "Shadow of a Doubt", "overview": "A bored teen living in Santa Rosa, California, Charlotte \"Charlie\" Newton, is frustrated because nothing seems to be happening in her life and that of her family. Then, she receives wonderful news: her uncle (for whom she was named), Charlie Oakley, is arriving for a visit. But Uncle Charlie may not be the man he seems to be.", "poster_path": "/ptyWagbWE8jSGyV2tGEzAdVbRCj.jpg", "release_date": "1943-01-15", "title": "Shadow of a Doubt", "video": false, "vote_average": 7.7, "vote_count": 446, "popularity": 14.275}, {"adult": false, "backdrop_path": "/jRNqzZZwYIpiukkblMQ4G2Vc5p7.jpg", "genre_ids": [9648, 80, 53], "id": 963, "original_language": "en", "original_title": "The Maltese Falcon", "overview": "A private detective takes on a case that involves him with three eccentric criminals, a beautiful liar, and their quest for a priceless statuette.", "poster_path": "/jQilmbgbKtpbHM9hw9hgmqomJ9.jpg", "release_date": "1941-10-18", "title": "The Maltese Falcon", "video": false, "vote_average": 7.8, "vote_count": 838, "popularity": 14.575}, {"id": 762, "video": false, "vote_count": 3388, "vote_average": 7.8, "title": "Monty Python and the Holy Grail", "release_date": "1975-05-25", "original_language": "en", "original_title": "Monty Python and the Holy Grail", "genre_ids": [12, 35, 14], "backdrop_path": "/6fqmcCVci3cSBCgJw8NGXE4ST8G.jpg", "adult": false, "overview": "King Arthur, accompanied by his squire, recruits his Knights of the Round Table, including Sir Bedevere the Wise, Sir Lancelot the Brave, Sir Robin the Not-Quite-So-Brave-As-Sir-Lancelot and Sir Galahad the Pure. On the way, Arthur battles the Black Knight who, despite having had all his limbs chopped off, insists he can still fight. They reach Camelot, but Arthur decides not  to enter, as \"it is a silly place\".", "poster_path": "/8AVb7tyxZRsbKJNOTJHQZl7JYWO.jpg", "popularity": 25.889}, {"adult": false, "backdrop_path": "/9e5e7dJTMxQeF7zNx0CiJmxXE1I.jpg", "genre_ids": [27, 878, 53], "id": 11309, "original_language": "en", "original_title": "Hardware", "overview": "Mark 13 is a government-built killing machine programmed with artificial intelligence, able to repair and recharge itself from any energy source. Through a series of coincidences, the cyborg's head ends up in the home of a sculptress as a bizarre Christmas present from her boyfriend. Once inside its new home, the cyborg promptly reconstructs the rest of its body using a variety of household utensils and proceeds to go on a murderous rampage.", "poster_path": "/nsFm5xniViTVr1oVUpKmgvlAOEA.jpg", "release_date": "1990-09-14", "title": "Hardware", "video": false, "vote_average": 5.7, "vote_count": 145, "popularity": 11.259}, {"adult": false, "backdrop_path": "/20IgqkdFw5kuItqDCJtidSESP0t.jpg", "genre_ids": [27, 18], "id": 10066, "original_language": "en", "original_title": "House of Wax", "overview": "A group of unwitting teens are stranded near a strange wax museum and soon must fight to survive and keep from becoming the next exhibit.", "poster_path": "/uM1RebQywM5PPYsauayefpXGxVk.jpg", "release_date": "2005-04-30", "title": "House of Wax", "video": false, "vote_average": 5.7, "vote_count": 1531, "popularity": 21.972}, {"adult": false, "backdrop_path": "/8DkJrxEyRN8gTseEhajybpC5smK.jpg", "genre_ids": [27], "id": 10585, "original_language": "en", "original_title": "Child's Play", "overview": "A single mother gives her son a beloved doll for his birthday, only to discover that it is possessed by the soul of a serial killer.", "poster_path": "/dSX9i2buibfyKFRpK2kOe6rtl5R.jpg", "release_date": "1988-11-08", "title": "Child's Play", "video": false, "vote_average": 6.5, "vote_count": 1415, "popularity": 17.31}, {"adult": false, "backdrop_path": "/3dWSyYEdcmvNjzwIPy4sPHjdJpw.jpg", "genre_ids": [878, 27, 28], "id": 9348, "original_language": "en", "original_title": "Species", "overview": "In 1993, the Search for Extra Terrestrial Intelligence Project receives a transmission detailing an alien DNA structure, along with instructions on how to splice it with human DNA. The result is Sil, a sensual but deadly creature who can change from a beautiful woman to an armour-plated killing machine in the blink of an eye.", "poster_path": "/94P6kzKH8aPmQmPr9yZjgy7BtQQ.jpg", "release_date": "1995-07-07", "title": "Species", "video": false, "vote_average": 5.7, "vote_count": 798, "popularity": 20.837}, {"adult": false, "backdrop_path": "/8nvayG5l0urcjvvpszoECDqLWzD.jpg", "genre_ids": [18, 53, 80, 9648], "id": 186, "original_language": "en", "original_title": "Lucky Number Slevin", "overview": "Slevin is mistakenly put in the middle of a personal war between the city\u2019s biggest criminal bosses. Under constant watch, Slevin must try not to get killed by an infamous assassin and come up with an idea of how to get out of his current dilemma. A film with many twists and turns.", "poster_path": "/jtKq0EtothAzWlnRBBWGCA8uFuu.jpg", "release_date": "2006-02-24", "title": "Lucky Number Slevin", "video": false, "vote_average": 7.5, "vote_count": 2480, "popularity": 17.523}, {"adult": false, "backdrop_path": "/zfs9QuKkZL6ZCluGvjo5Pk49aMv.jpg", "genre_ids": [27, 9648, 53], "id": 16938, "original_language": "en", "original_title": "Black Christmas", "overview": "A sorority house is terrorized by a stranger who makes frightening phone calls and then murders the sorority sisters during Christmas break.", "poster_path": "/qqO98sdPgptFgCua3Z4uZDuPcmP.jpg", "release_date": "1974-10-11", "title": "Black Christmas", "video": false, "vote_average": 6.9, "vote_count": 307, "popularity": 12.31}, {"id": 521, "video": false, "vote_count": 1257, "vote_average": 8.0, "title": "Dial M for Murder", "release_date": "1954-05-29", "original_language": "en", "original_title": "Dial M for Murder", "genre_ids": [80, 18, 9648, 53], "backdrop_path": "/jVMlfESb0TJ29w8CUDDofEprMmn.jpg", "adult": false, "overview": "An ex-tennis pro carries out a plot to have his wife murdered after discovering she is having an affair, and assumes she will soon leave him for the other man anyway. When things go wrong, he improvises a new plan\u2014to frame her for murder instead.", "poster_path": "/xrpK1PyckNWmRxU4kZURfaCyboS.jpg", "popularity": 34.566}, {"id": 75780, "video": false, "vote_count": 4450, "vote_average": 6.4, "title": "Jack Reacher", "release_date": "2012-12-20", "original_language": "en", "original_title": "Jack Reacher", "genre_ids": [28, 80, 18, 53], "backdrop_path": "/ezXodpP429qK0Av89pVNlaXWJkQ.jpg", "adult": false, "overview": "When a gunman takes five lives with six shots, all evidence points to the suspect in custody. On interrogation, the suspect offers up a single note: \"Get Jack Reacher!\" So begins an extraordinary chase for the truth, pitting Jack Reacher against an unexpected enemy, with a skill for violence and a secret to keep.", "poster_path": "/mt0ELw83HIRgaKaDzhsDcIi0RnW.jpg", "popularity": 19.929}, {"adult": false, "backdrop_path": "/19qAk3bQZ6ulspbwhPw1A0bNpii.jpg", "genre_ids": [80, 27, 53], "id": 73861, "original_language": "sr", "original_title": "Srpski film", "overview": "Milos, a retired porn star, leads a normal family life trying to make ends meet. Presented with the opportunity of a lifetime to financially support his family for the rest of their lives, Milos must participate in one last mysterious film. From then on, Milos is drawn into a maelstrom of unbelievable cruelty and mayhem.", "poster_path": "/iB3ynCghwG63MrViBC6YyPzUIAn.jpg", "release_date": "2010-06-16", "title": "A Serbian Film", "video": false, "vote_average": 5.5, "vote_count": 898, "popularity": 15.06}, {"adult": false, "backdrop_path": "/jQR6de9dwOjvx91wC4tqpTlMqCD.jpg", "genre_ids": [53, 80, 18], "id": 109421, "original_language": "en", "original_title": "Side Effects", "overview": "A woman turns to prescription medication as a way of handling her anxiety concerning her husband's upcoming release from prison.", "poster_path": "/ttD69Yhh2BV1WVqr27NRbF8ubOW.jpg", "release_date": "2013-02-07", "title": "Side Effects", "video": false, "vote_average": 6.5, "vote_count": 2035, "popularity": 11.74}, {"adult": false, "backdrop_path": "/hm4vpIhBW75bTIDTurq2d4rLZy1.jpg", "genre_ids": [53, 18, 27], "id": 3511, "original_language": "en", "original_title": "The Broken", "overview": "The life of a successful radiologist spirals out of control when she sees the spitting image of herself driving down a London street. While attempting to uncover who the imposter could be, she stumbles into a terrifying mystery that her family and closest friends are somehow involved in, leaving her with no one to trust.", "poster_path": "/nGTUsccLUZhF9Bb5fjvL7KrogvC.jpg", "release_date": "2008-01-18", "title": "The Broken", "video": false, "vote_average": 5.5, "vote_count": 113, "popularity": 9.129}], "total_pages": 256, "total_results": 5106}, "recommendations": {"page": 1, "results": [{"adult": false, "backdrop_path": null, "genre_ids": [16], "id": 247295, "original_language": "en", "original_title": "Color Sequence", "overview": "One of Grant's most interesting and important films is Color Sequence (1943) which consists only of pure solid-colour frames that fade, mutate and flicker. He made the film as a research into colour rhythms and perceptual phenomena, and although it now appears not only visually exciting but also as a precedent for the work of younger film-makers like Paul Sharits, Grant himself found the film to be too disquieting when it was first screened (cf. the Film Exercises), and it received little further play until the 70s.", "poster_path": "/xv7EqgaUph7k8qQ1IwUre5Dho0L.jpg", "release_date": "1943-01-01", "title": "Color Sequence", "video": false, "vote_average": 4.4, "vote_count": 8, "popularity": 1.451}, {"adult": false, "backdrop_path": null, "genre_ids": [99], "id": 147016, "original_language": "en", "original_title": "Tacoma Narrows Bridge Collapse", "overview": "The collapse of the bridge was recorded on film by Barney Elliott, owner of a local camera shop. The film shows Leonard Coatsworth leaving the bridge after exiting his car. In 1998, The Tacoma Narrows Bridge Collapse was selected for preservation in the United States National Film Registry by the Library of Congress as being culturally, historically, or aesthetically significant. This footage is still shown to engineering, architecture, and physics students as a cautionary tale.Elliott's original films of the construction and collapse of the bridge were shot on 16 mm Kodachrome film, but most copies in circulation are in black and white because newsreels of the day copied the film onto 35 mm black-and-white stock. Most copies in circulation also show the bridge oscillating approximately 50% faster than real time, due to an assumption during conversion that the film was shot at 24 frames per second rather than the actual 16 fps. (Wikipedia)", "poster_path": "/bUm3KGM9RrAFKybu1HOxXRIEBSv.jpg", "release_date": "1940-12-31", "title": "Tacoma Narrows Bridge Collapse", "video": false, "vote_average": 7.0, "vote_count": 10, "popularity": 2.124}, {"adult": false, "backdrop_path": null, "genre_ids": [99, 35, 18], "id": 110275, "original_language": "en", "original_title": "I, an Actress", "overview": "An actress and a director run through a melodramatic scene, speaking to a mannequin.", "poster_path": "/irdMcW8ODt3imawgWtYF7oMQXDW.jpg", "release_date": "1977-12-09", "title": "I, an Actress", "video": false, "vote_average": 5.8, "vote_count": 12, "popularity": 1.58}, {"adult": false, "backdrop_path": "/2xpEZq550EZuoHa4B6YhwRiNFsP.jpg", "genre_ids": [80, 18, 9648], "id": 35543, "original_language": "en", "original_title": "The Great Flamarion", "overview": "A vaudevillian is tricked into murder by a bored wife.", "poster_path": "/uqXTTpp1em7ZAZnNgYO8sKDsKsT.jpg", "release_date": "1945-01-14", "title": "The Great Flamarion", "video": false, "vote_average": 6.5, "vote_count": 13, "popularity": 3.445}, {"adult": false, "backdrop_path": "/fEvNz7mP3QtgnJmixmxpe6uYuOx.jpg", "genre_ids": [], "id": 146693, "original_language": "en", "original_title": "Chinese Series", "overview": "Stan Brakhage's final film, made shortly before his death by wetting a filmstrip with saliva and using his fingernail to scratch marks into the emulsion.", "poster_path": "/kg4cKSmEOig3Cq19JyDtECbFoCT.jpg", "release_date": "2003-05-31", "title": "Chinese Series", "video": false, "vote_average": 4.7, "vote_count": 15, "popularity": 2.796}, {"adult": false, "backdrop_path": null, "genre_ids": [99, 35], "id": 49176, "original_language": "en", "original_title": "O Dreamland", "overview": "Lindsay Anderson's early documentary film of a British amusement park, the irony of its manufactured fun on full display.", "poster_path": "/s76JNaWjxF5w2Rd3V3E8N6Jn6Je.jpg", "release_date": "1953-01-01", "title": "O Dreamland", "video": false, "vote_average": 6.3, "vote_count": 11, "popularity": 2.228}, {"adult": false, "backdrop_path": null, "genre_ids": [], "id": 147612, "original_language": "de", "original_title": "Otmar Bauer Zeigt", "overview": "A man is drinking wine, pukes it up, and eats it. He repeats it for a while, until he starts to rub the vomit all over himself.", "poster_path": "/kCMKeGcYZoGW5i1flw7rhKKmsbC.jpg", "release_date": "1969-12-31", "title": "Otmar Bauer Presents", "video": false, "vote_average": 2.0, "vote_count": 7, "popularity": 1.092}, {"adult": false, "backdrop_path": null, "genre_ids": [99], "id": 147396, "original_language": "en", "original_title": "Terrible Teddy, the Grizzly King", "overview": "Our presidential hunter runs across the landscape and falls down in the snow, gets up with his rifle, and gazes upward at a treed animal which isn't in the camera's view. He fires a shot into the tree, then leaps on the ground to grab the fallen prey, a domestic cat, finishing it off with wild blows of his hunting knife while his companions, a photographer and a press agent, record the event that will be reported far and wide as a manly moment. Teddy then rides out of the forest followed by two companions afoot, never mind that they all originally arrived afoot. Perhaps it was funnier in its day than it is now, but apparently shooting cats was regarded as funny in those days. The larger point was to use a minor whimsy as a political criticism, in this case of Teddy Roosevelt's easy manipulations of the press. It was based on two frames of a political cartoon that had appeared in the paper a mere week before the film was made.", "poster_path": null, "release_date": "1901-12-31", "title": "Terrible Teddy, the Grizzly King", "video": false, "vote_average": 4.1, "vote_count": 9, "popularity": 1.4}, {"adult": false, "backdrop_path": null, "genre_ids": [], "id": 148664, "original_language": "en", "original_title": "Cologne: From the Diary of Ray and Esther", "overview": "An amateur documentary focused on the community of Cologne, Minnesota, circa 1939.", "poster_path": "/8U3jB21JZCK9QbzUgWNDK75Dp3I.jpg", "release_date": "1939-12-31", "title": "Cologne: From the Diary of Ray and Esther", "video": false, "vote_average": 5.3, "vote_count": 8, "popularity": 2.235}, {"adult": false, "backdrop_path": null, "genre_ids": [], "id": 154612, "original_language": "en", "original_title": "The Birth of Magellan: Cadenza I", "overview": "Hollis Frampton alludes to origins and creation as he cuts between a garden featuring a bride and groom and an 1902 film entitled \"A Little Piece of String.\"", "poster_path": "/hrg5cK5zh4b0tVkEfPTEfDq4Ds2.jpg", "release_date": "1977-12-31", "title": "The Birth of Magellan: Cadenza I", "video": false, "vote_average": 3.7, "vote_count": 9, "popularity": 2.008}, {"adult": false, "backdrop_path": null, "genre_ids": [], "id": 166711, "original_language": "en", "original_title": "Ingenivm Nobis Ipsa Pvella Fecit: Part I", "overview": "An experimental short by Hollis Frampton who films the female form during various activities.", "poster_path": "/cRuP0nNiGKoxQSBeb1s0mrcfNJ6.jpg", "release_date": "1975-01-01", "title": "Ingenivm Nobis Ipsa Pvella Fecit: Part I", "video": false, "vote_average": 4.6, "vote_count": 8, "popularity": 0.713}, {"adult": false, "backdrop_path": null, "genre_ids": [], "id": 48712, "original_language": "en", "original_title": "78 Tours", "overview": "A waltz played with an accordion starts a short story about the running time.", "poster_path": "/jY4uW1mF9BlwEnfgeCfT8Z9fDkc.jpg", "release_date": "1985-01-01", "title": "78 Tours", "video": false, "vote_average": 6.5, "vote_count": 14, "popularity": 1.96}, {"id": 126278, "video": false, "vote_count": 13, "vote_average": 5.7, "title": "Cuadecuc, Vampir", "release_date": "1972-05-05", "original_language": "ca", "original_title": "Cuadecuc, vampir", "genre_ids": [99, 27], "backdrop_path": "/9IyYrh7tcGlVscz5nTknYe8pbWX.jpg", "adult": false, "overview": "Initially a documentary about the making of Jess Franco\u2019s \u201cCount Dracula\u201d (a 1970 vampire movie starring Christopher Lee), \"Cuadecuc, Vampir\" presents \"an intervention\": an atmospheric, silent, black and white film-essay, serving as an alternative version of the original movie, showing grainy footage of the performers\u2013both in and out of their characters\u2013wandering through the Gothic sets and the natural locations; a ghostly narration between fiction and reality.", "poster_path": "/3uBR2pYLMjzKCNhzASreXyXvTWy.jpg", "popularity": 2.848}, {"adult": false, "backdrop_path": "/nf8qkUmcF2I0HGc8Lruw6JtY93.jpg", "genre_ids": [99], "id": 83232, "original_language": "en", "original_title": "Portrait of Jason", "overview": "Interview with Jason Holliday aka Aaron Payne. House-boy, would-be cabaret performer, and self-proclaimed hustler giving one man's gin-soaked, pill-popped view of what it was like to be coloured and gay in 1960's America.", "poster_path": "/rPrgUoAt4G8KNaPJ47HauKPCEDD.jpg", "release_date": "1967-09-29", "title": "Portrait of Jason", "video": false, "vote_average": 6.8, "vote_count": 14, "popularity": 2.924}, {"adult": false, "backdrop_path": "/5tfv0pRaGv7UV81gPsnoIbCQTyP.jpg", "genre_ids": [99], "id": 86282, "original_language": "zh", "original_title": "\u94c1\u897f\u533a", "overview": "A detailed look at the gradual decline of Shenyang\u2019s industrial Tiexi district, an area that was once a vibrant example of China\u2019s socialist economy. But industry is changing, and the factories of Tiexi are closing. Director Wang Bing introduces us to some of the workers affected by the closures, and to their families.", "poster_path": "/hRH0ToR9tgCtNpyzOpqzYv1G47W.jpg", "release_date": "2002-04-26", "title": "Tie Xi Qu: West of the Tracks", "video": false, "vote_average": 7.9, "vote_count": 11, "popularity": 2.787}, {"adult": false, "backdrop_path": null, "genre_ids": [], "id": 182099, "original_language": "en", "original_title": "21-87", "overview": "\"21-87 is a 1963 Canadian abstract film created by Arthur Lipsett that lasts 9 minutes and 33 seconds.  The short film, produced by the National Film Board of Canada, is a collage of snippets from discarded footage found by Lipsett in the editing room of the National Film Board (where he was employed as an animator), combined with his own black and white 16mm footage which he shot on the streets of Montreal and New York City, among other locations.\"", "poster_path": "/h1NpN9cw3FyB7YBDkxvCTIoPtuV.jpg", "release_date": "1963-04-24", "title": "21-87", "video": false, "vote_average": 7.2, "vote_count": 15, "popularity": 1.559}, {"adult": false, "backdrop_path": "/nfUcfKnUlPhNOo2r1ItG7zyCBl7.jpg", "genre_ids": [], "id": 47229, "original_language": "en", "original_title": "Scotch Tape", "overview": "Shot in 1959, Scotch Tape is Jack Smith's first film -- a joyous, three-minute romp, in color, using Peter Duchin's rhumba \"Carinhoso\" for its soundtrack. Three young men merrily bop through the wreckage of razed buildings at the site of what would become Lincoln Center. Apparently, Scotch Tape was never edited and, instead, was cut in the camera by Smith, combining long shots and close-ups while filming mostly from overhead. The title comes from a small strip of scotch tape that was accidentally stuck on the camera and so is visible in the lower-right corner of the frame throughout the film.", "poster_path": "/4VptI8RGySfhOUtfFi46WRPcuXO.jpg", "release_date": "1962-01-01", "title": "Scotch Tape", "video": false, "vote_average": 4.6, "vote_count": 11, "popularity": 1.865}, {"id": 224138, "video": false, "vote_count": 7, "vote_average": 3.4, "title": "Sodoma", "release_date": "1970-09-20", "original_language": "de", "original_title": "Sodoma", "genre_ids": [18], "backdrop_path": null, "adult": false, "overview": "The Austrian avant-gardist Otto Muehl may well be the most scandalous filmmaker to ever work in cinema, and Sodoma stands as his most famous work. This creation takes the experiments a bit further down the road.", "poster_path": "/qO7HSJngwq0HcTQ4ZnU5Lgi4k2A.jpg", "popularity": 0.838}, {"adult": false, "backdrop_path": null, "genre_ids": [], "id": 385624, "original_language": "en", "original_title": "Persian Series #2", "overview": "Multiple thrusts and then retractions of oranges, reds, blues, and the flickering, almost black, textural dissolves suggesting an amalgam approaching script.", "poster_path": "/nYfhHShGzcHwS7RqPEFqK4YZCVr.jpg", "release_date": "1999-01-02", "title": "Persian Series #2", "video": false, "vote_average": 5.6, "vote_count": 10, "popularity": 1.613}, {"adult": false, "backdrop_path": null, "genre_ids": [16], "id": 209752, "original_language": "en", "original_title": "69", "overview": "Robert Breer animation from 1970.  16mm, color, silent, using spray paint & stencils.", "poster_path": "/lj33kNS5OS21hxAp6rmhI7huTOB.jpg", "release_date": "1969-04-10", "title": "69", "video": false, "vote_average": 5.5, "vote_count": 13, "popularity": 2.07}], "total_pages": 2, "total_results": 40}, "credits": {"cast": [{"cast_id": 5, "character": "The Gamin", "credit_id": "52fe49cfc3a368484e141093", "gender": 1, "id": 586687, "name": "Adrienne Barrett", "order": 0, "profile_path": null}, {"cast_id": 7, "character": "Father", "credit_id": "52fe49cfc3a368484e14109d", "gender": 2, "id": 586688, "name": "Ben Roseman", "order": 1, "profile_path": null}, {"cast_id": 8, "character": "Rich Man", "credit_id": "52fe49cfc3a368484e1410a1", "gender": 2, "id": 98164, "name": "Bruno VeSota", "order": 2, "profile_path": "/aTdZjaPIr7qx3cJM9G1RIXZZ4kK.jpg"}, {"cast_id": 9, "character": "Butler", "credit_id": "52fe49cfc3a368484e1410a5", "gender": 2, "id": 586689, "name": "Ed Hinkle", "order": 3, "profile_path": null}, {"cast_id": 10, "character": "Evil One", "credit_id": "52fe49cfc3a368484e1410a9", "gender": 2, "id": 138231, "name": "Richard Barron", "order": 4, "profile_path": null}, {"cast_id": 11, "character": "Stoned Beatnik (uncredited)", "credit_id": "55813562c3a368165900129e", "gender": 2, "id": 10403, "name": "Shelley Berman", "order": 5, "profile_path": "/ka7bIOts2wVNqcdAvR8k24Z5d7h.jpg"}, {"cast_id": 12, "character": "Narrator (voice) (uncredited)", "credit_id": "5581357492514144aa00150e", "gender": 2, "id": 112884, "name": "Ed McMahon", "order": 6, "profile_path": "/jonzqeEynXQkfiyZTEYHD9Bgklk.jpg"}, {"cast_id": 13, "character": "Newsboy (uncredited)", "credit_id": "59cee6f79251412edb00937e", "gender": 2, "id": 97985, "name": "Angelo Rossitto", "order": 7, "profile_path": "/VY3ygib44431zOtUBEwlnCWJeK.jpg"}], "crew": [{"credit_id": "52fe49cfc3a368484e14107d", "department": "Directing", "gender": 2, "id": 177891, "job": "Director", "name": "John Parker", "profile_path": null}, {"credit_id": "52fe49cfc3a368484e141089", "department": "Production", "gender": 2, "id": 177891, "job": "Producer", "name": "John Parker", "profile_path": null}, {"credit_id": "52fe49cfc3a368484e14108f", "department": "Writing", "gender": 2, "id": 98164, "job": "Writer", "name": "Bruno VeSota", "profile_path": "/aTdZjaPIr7qx3cJM9G1RIXZZ4kK.jpg"}, {"credit_id": "52fe49cfc3a368484e141099", "department": "Sound", "gender": 2, "id": 89804, "job": "Music", "name": "George Antheil", "profile_path": "/iYjUzGvb01MV5YAYu6dxFgifO7y.jpg"}, {"credit_id": "5c31eecdc3a3682915ab4c27", "department": "Crew", "gender": 2, "id": 2206490, "job": "Special Effects", "name": "Albert Simpson", "profile_path": null}]}}