{"adult": false, "backdrop_path": null, "belongs_to_collection": null, "budget": 4000000, "genres": [{"id": 18, "name": "Drama"}, {"id": 28, "name": "Action"}, {"id": 53, "name": "Thriller"}, {"id": 878, "name": "Science Fiction"}], "homepage": null, "id": 79467, "imdb_id": "tt0265198", "original_language": "en", "original_title": "Gangland", "overview": "In post-apocalyptic Los Angeles, an evil pack of outlaws is systematically turning civilians into prisoners and slaves. Worse yet, the spread of a terrifying deadly flesh-eating virus threatens to destroy all of humanity. As good and evil ferociously battle for power and control, three heroes race against time to find the cure for the virus... before it's too late.", "popularity": 4.355, "poster_path": "/kBnhpbT3BmADGfocS9iCZTPP5cu.jpg", "production_companies": [{"id": 5480, "logo_path": null, "name": "Dominion Entertainment", "origin_country": ""}], "production_countries": [], "release_date": "2001-01-01", "revenue": 0, "runtime": 94, "spoken_languages": [{"iso_639_1": "en", "name": "English"}, {"iso_639_1": "de", "name": "Deutsch"}, {"iso_639_1": "ru", "name": "P\u0443\u0441\u0441\u043a\u0438\u0439"}], "status": "Released", "tagline": "It's survival of the baddest.", "title": "Gangland", "video": false, "vote_average": 5.0, "vote_count": 4, "keywords": {"keywords": [{"id": 4458, "name": "post-apocalyptic"}]}, "similar": {"page": 1, "results": [{"id": 6479, "video": false, "vote_count": 9810, "vote_average": 7.1, "title": "I Am Legend", "release_date": "2007-12-14", "original_language": "en", "original_title": "I Am Legend", "genre_ids": [28, 18, 27, 878, 53], "backdrop_path": "/u6Qg7TH7Oh1IFWCQSRr4htFFt0A.jpg", "adult": false, "overview": "Robert Neville is a scientist who was unable to stop the spread of the terrible virus that was incurable and man-made. Immune, Neville is now the last human survivor in what is left of New York City and perhaps the world. For three years, Neville has faithfully sent out daily radio messages, desperate to find any other survivors who might be out there. But he is not alone.", "poster_path": "/9skUuHTFtsJznuFPwmB17ZZvq09.jpg", "popularity": 24.782}, {"id": 110415, "video": false, "vote_count": 5358, "vote_average": 6.8, "title": "Snowpiercer", "release_date": "2013-08-01", "original_language": "ko", "original_title": "Snowpiercer", "genre_ids": [28, 18, 878], "backdrop_path": "/dUrRhiIb9sWckFsKmdNR39Ot1eG.jpg", "adult": false, "overview": "In a future where a failed global-warming experiment kills off most life on the planet, a class system evolves aboard the Snowpiercer, a train that travels around the globe via a perpetual-motion engine.", "poster_path": "/oP0ZWr6MsaQ1TV7xvnZJMKSfz0H.jpg", "popularity": 24.925}, {"id": 294254, "video": false, "vote_count": 6847, "vote_average": 6.6, "title": "Maze Runner: The Scorch Trials", "release_date": "2015-09-09", "original_language": "en", "original_title": "Maze Runner: The Scorch Trials", "genre_ids": [28, 878, 53], "backdrop_path": "/iapRFMGKvN9tsjqPlN7MIDTCezG.jpg", "adult": false, "overview": "Thomas and his fellow Gladers face their greatest challenge yet: searching for clues about the mysterious and powerful organization known as WCKD. Their journey takes them to the Scorch, a desolate landscape filled with unimaginable obstacles. Teaming up with resistance fighters, the Gladers take on WCKD\u2019s vastly superior forces and uncover its shocking plans for them all.", "poster_path": "/vlTPQANjLYTebzFJM1G4KeON0cb.jpg", "popularity": 24.153}, {"id": 76341, "video": false, "vote_count": 15488, "vote_average": 7.5, "title": "Mad Max: Fury Road", "release_date": "2015-05-13", "original_language": "en", "original_title": "Mad Max: Fury Road", "genre_ids": [28, 12, 878], "backdrop_path": "/tbhdm8UJAb4ViCTsulYFL3lxMCd.jpg", "adult": false, "overview": "An apocalyptic story set in the furthest reaches of our planet, in a stark desert landscape where humanity is broken, and most everyone is crazed fighting for the necessities of life. Within this world exist two rebels on the run who just might be able to restore order.", "poster_path": "/kqjL17yufvn9OVLyXYpvtyrFfak.jpg", "popularity": 35.824}, {"adult": false, "backdrop_path": "/etybioibi04QJK9xxn3Rv5NLuKs.jpg", "genre_ids": [12, 28, 53, 878], "id": 8810, "original_language": "en", "original_title": "Mad Max 2", "overview": "Max Rockatansky returns as the heroic loner who drives the dusty roads of a postapocalyptic Australian Outback in an unending search for gasoline. Arrayed against him and the other scraggly defendants of a fuel-depot encampment are the bizarre warriors commanded by the charismatic Lord Humungus, a violent leader whose scruples are as barren as the surrounding landscape.", "poster_path": "/tVaClEA7n0MxaY8sb81nHwh6XNW.jpg", "release_date": "1981-12-24", "title": "Mad Max 2", "video": false, "vote_average": 7.4, "vote_count": 1898, "popularity": 20.303}, {"id": 428078, "video": false, "vote_count": 2417, "vote_average": 6.1, "title": "Mortal Engines", "release_date": "2018-11-27", "original_language": "en", "original_title": "Mortal Engines", "genre_ids": [12, 14], "backdrop_path": "/rm2oMykm5nX6SzXFr7TGHkO6r8Z.jpg", "adult": false, "overview": "Many thousands of years in the future, Earth\u2019s cities roam the globe on huge wheels, devouring each other in a struggle for ever diminishing resources. On one of these massive traction cities, the old London, Tom Natsworthy has an unexpected encounter with a mysterious young woman from the wastelands who will change the course of his life forever.", "poster_path": "/gLhYg9NIvIPKVRTtvzCWnp1qJWG.jpg", "popularity": 37.843}, {"id": 9355, "video": false, "vote_count": 1488, "vote_average": 6.1, "title": "Mad Max Beyond Thunderdome", "release_date": "1985-06-29", "original_language": "en", "original_title": "Mad Max Beyond Thunderdome", "genre_ids": [28, 12, 878], "backdrop_path": "/r3MhvwPC8zFBAv8HL5WBtl3F8cn.jpg", "adult": false, "overview": "Mad Max becomes a pawn in a decadent oasis of a technological society, and when exiled, becomes the deliverer of a colony of children.", "poster_path": "/9ciqnBU2YlMtMrqNwRzhmaMeL9l.jpg", "popularity": 18.594}, {"id": 534, "video": false, "vote_count": 4112, "vote_average": 6.0, "title": "Terminator Salvation", "release_date": "2009-05-20", "original_language": "en", "original_title": "Terminator Salvation", "genre_ids": [28, 878, 53], "backdrop_path": "/mglXOOyXISvuIdLgvhU9oXn1Mi7.jpg", "adult": false, "overview": "All grown up in post-apocalyptic 2018, John Connor must lead the resistance of humans against the increasingly dominating militaristic robots. But when Marcus Wright appears, his existence confuses the mission as Connor tries to determine whether Wright has come from the future or the past -- and whether he's friend or foe.", "poster_path": "/gw6JhlekZgtKUFlDTezq3j5JEPK.jpg", "popularity": 34.351}, {"id": 263115, "video": false, "vote_count": 13396, "vote_average": 7.8, "title": "Logan", "release_date": "2017-02-28", "original_language": "en", "original_title": "Logan", "genre_ids": [28, 18, 878], "backdrop_path": "/yEv8c6i79vk06sZDC3Z9D8HQLVV.jpg", "adult": false, "overview": "In the near future, a weary Logan cares for an ailing Professor X in a hideout on the Mexican border. But Logan's attempts to hide from the world and his legacy are upended when a young mutant arrives, pursued by dark forces.", "poster_path": "/fnbjcRDYn6YviCcePDnGdyAkYsB.jpg", "popularity": 43.501}, {"id": 49049, "video": false, "vote_count": 3046, "vote_average": 6.7, "title": "Dredd", "release_date": "2012-09-07", "original_language": "en", "original_title": "Dredd", "genre_ids": [28, 878], "backdrop_path": "/kqKcID44nGtIxhhzmziAX65abRx.jpg", "adult": false, "overview": "In the future, America is a dystopian wasteland. The latest scourge is Ma-Ma, a prostitute-turned-drug pusher with a dangerous new drug and aims to take over the city. The only possibility of stopping her is an elite group of urban police called Judges, who combine the duties of judge, jury and executioner to deliver a brutal brand of swift justice. But even the top-ranking Judge, Dredd, discovers that taking down Ma-Ma isn\u2019t as easy as it seems in this explosive adaptation of the hugely popular comic series.", "poster_path": "/71fkYuMVMtdbREh9Mp3gTFmI8Bv.jpg", "popularity": 22.587}, {"id": 131631, "video": false, "vote_count": 10881, "vote_average": 6.8, "title": "The Hunger Games: Mockingjay - Part 1", "release_date": "2014-11-18", "original_language": "en", "original_title": "The Hunger Games: Mockingjay - Part 1", "genre_ids": [12, 878, 53], "backdrop_path": "/4PwyB0ErucIANzW24Kori71J6gU.jpg", "adult": false, "overview": "Katniss Everdeen reluctantly becomes the symbol of a mass rebellion against the autocratic Capitol.", "poster_path": "/gj282Pniaa78ZJfbaixyLXnXEDI.jpg", "popularity": 47.043}, {"id": 12244, "video": false, "vote_count": 2155, "vote_average": 6.7, "title": "9", "release_date": "2009-08-19", "original_language": "en", "original_title": "9", "genre_ids": [28, 12, 16, 878, 53], "backdrop_path": "/jTki4a30PUskfGtOFx6PgYr74H7.jpg", "adult": false, "overview": "When 9 first comes to life, he finds himself in a post-apocalyptic world. All humans are gone, and it is only by chance that he discovers a small community of others like him taking refuge from fearsome machines that roam the earth intent on their extinction. Despite being the neophyte of the group, 9 convinces the others that hiding will do them no good.", "poster_path": "/iGMOQt6R88ZuJRtlfpqWRa5268h.jpg", "popularity": 22.507}, {"id": 861, "video": false, "vote_count": 3195, "vote_average": 7.2, "title": "Total Recall", "release_date": "1990-06-01", "original_language": "en", "original_title": "Total Recall", "genre_ids": [28, 12, 878], "backdrop_path": "/qoYaqN9XXrdjKcviJeWVQNcotfK.jpg", "adult": false, "overview": "Construction worker Douglas Quaid discovers a memory chip in his brain during a virtual-reality trip. He also finds that his past has been invented to conceal a plot of planetary domination. Soon, he's off to Mars to find out who he is and who planted the chip.", "poster_path": "/ikYpJ0AjGBNnAYFnPJDUVIOcduR.jpg", "popularity": 33.12}, {"id": 198663, "video": false, "vote_count": 11444, "vote_average": 7.1, "title": "The Maze Runner", "release_date": "2014-09-10", "original_language": "en", "original_title": "The Maze Runner", "genre_ids": [28, 9648, 878, 53], "backdrop_path": "/lkOZcsXcOLZYeJ2YxJd3vSldvU4.jpg", "adult": false, "overview": "Set in a post-apocalyptic world, young Thomas is deposited in a community of boys after his memory is erased, soon learning they're all trapped in a maze that will require him to join forces with fellow \u201crunners\u201d for a shot at escape.", "poster_path": "/coss7RgL0NH6g4fC2s5atvf3dFO.jpg", "popularity": 51.629}, {"id": 280, "video": false, "vote_count": 7491, "vote_average": 8.0, "title": "Terminator 2: Judgment Day", "release_date": "1991-07-03", "original_language": "en", "original_title": "Terminator 2: Judgment Day", "genre_ids": [28, 878, 53], "backdrop_path": "/d9AqtruwS8nljKjL5aYzM42hQJr.jpg", "adult": false, "overview": "Nearly 10 years have passed since Sarah Connor was targeted for termination by a cyborg from the future. Now her son, John, the future leader of the resistance, is the target for a newer, more deadly terminator. Once again, the resistance has managed to send a protector back to attempt to save John and his mother Sarah.", "poster_path": "/2y4dmgWYRMYXdD1UyJVcn2HSd1D.jpg", "popularity": 53.05}, {"id": 63, "video": false, "vote_count": 4794, "vote_average": 7.6, "title": "Twelve Monkeys", "release_date": "1995-12-29", "original_language": "en", "original_title": "Twelve Monkeys", "genre_ids": [9648, 878, 53], "backdrop_path": "/6KXbhaxkgExC5EdDqAzRinhmoZ8.jpg", "adult": false, "overview": "In the year 2035, convict James Cole reluctantly volunteers to be sent back in time to discover the origin of a deadly virus that wiped out nearly all of the earth's population and forced the survivors into underground communities. But when Cole is mistakenly sent to 1990 instead of 1996, he's arrested and locked up in a mental hospital. There he meets psychiatrist Dr. Kathryn Railly, and patient Jeffrey Goines, the son of a famous virus expert, who may hold the key to the mysterious rogue group, the Army of the 12 Monkeys, thought to be responsible for unleashing the killer disease.", "poster_path": "/6Sj9wDu3YugthXsU0Vry5XFAZGg.jpg", "popularity": 26.239}, {"id": 119450, "video": false, "vote_count": 7618, "vote_average": 7.3, "title": "Dawn of the Planet of the Apes", "release_date": "2014-06-26", "original_language": "en", "original_title": "Dawn of the Planet of the Apes", "genre_ids": [28, 18, 878, 53], "backdrop_path": "/r3IsWMkIGO20NP3Zcm5HFqBW6w5.jpg", "adult": false, "overview": "A group of scientists in San Francisco struggle to stay alive in the aftermath of a plague that is wiping out humanity, while Caesar tries to maintain dominance over his community of intelligent apes.", "poster_path": "/2EUAUIu5lHFlkj5FRryohlH6CRO.jpg", "popularity": 39.855}, {"adult": false, "backdrop_path": "/7ZyiMee2s7kARJ0IvJOIgTyvmdp.jpg", "genre_ids": [12, 28, 53, 878], "id": 9659, "original_language": "en", "original_title": "Mad Max", "overview": "In a postapocalyptic future, jaded cop Max Rockatansky (Mel Gibson) is ready to retire. But his world is shattered when a malicious gang murders his family as an act of retaliation, forcing a devastated Max to hit the open road seeking vengeance. As he travels the Australian outback's empty stretches of highway, he tours the bloodstained battlegrounds ruled by marauding bikers who feed on violence.", "poster_path": "/5LrI4GiCSrChgkdskVZiwv643Kg.jpg", "release_date": "1979-04-12", "title": "Mad Max", "video": false, "vote_average": 6.7, "vote_count": 2361, "popularity": 25.21}, {"id": 5491, "video": false, "vote_count": 439, "vote_average": 3.0, "title": "Battlefield Earth", "release_date": "2000-05-10", "original_language": "en", "original_title": "Battlefield Earth", "genre_ids": [28, 878, 10752], "backdrop_path": "/p1Gezy3Q0PVK3q55dZi9mYYb0Ct.jpg", "adult": false, "overview": "In the year 3000, man is no match for the Psychlos, a greedy, manipulative race of aliens on a quest for ultimate profit. Led by the powerful Terl, the Psychlos are stripping Earth clean of its natural resources, using the broken remnants of humanity as slaves. What is left of the human race has descended into a near primitive state. After being captured, it is up to Tyler to save mankind.", "poster_path": "/wXCRuBHdJ5aTFQdsuGJFXNdo79T.jpg", "popularity": 10.504}, {"id": 9804, "video": false, "vote_count": 2063, "vote_average": 6.0, "title": "Waterworld", "release_date": "1995-07-28", "original_language": "en", "original_title": "Waterworld", "genre_ids": [28, 12, 878], "backdrop_path": "/2WZjxBC95ZVRqc0rxbV8a2NdPHt.jpg", "adult": false, "overview": "In a futuristic world where the polar ice caps have melted and made Earth a liquid planet, a beautiful barmaid rescues a mutant seafarer from a floating island prison. They escape, along with her young charge, Enola, and sail off aboard his ship.", "poster_path": "/9I0z3rM8gdIyjHBTIYniFXiwFOo.jpg", "popularity": 19.499}], "total_pages": 45, "total_results": 885}, "recommendations": {"page": 1, "results": [{"adult": false, "backdrop_path": "/35Dg69ZYggNSNbd3T9on08cYU3W.jpg", "genre_ids": [53, 9648], "id": 48251, "original_language": "en", "original_title": "The Triumph of Sherlock Holmes", "overview": "Holmes, retired to Sussex, is drawn into a last case when.arch enemy Moriarty arranges with an American gang to kill one John Douglas, a country gentleman with a mysterious past. Holmes' methods baffle Watson and Lestrade, but his results astonish them. In a long flashback, the victim's wife tells the story of the sinister Vermissa Valley.", "poster_path": "/l56AbHJ6ZW6RJA69yfIjeaTpvWQ.jpg", "release_date": "1935-03-24", "title": "The Triumph of Sherlock Holmes", "video": false, "vote_average": 4.8, "vote_count": 4, "popularity": 1.955}, {"adult": false, "backdrop_path": null, "genre_ids": [28, 53], "id": 122888, "original_language": "en", "original_title": "Moving Target", "overview": "Don \"The Dragon\" Wilson stars in this action drama as a tourist who, through no fault of his own, finds himself on the run from a gang of terrorists, international espionage agents, and the police. Accused of a murder he didn't commit, the man struggles to keep himself alive as he tries to clear his name and find the identity of the real killer. Moving Target also features Bill Murphy, Hilary Kavanagh, and Terry McMahon. ~ Mark Deming, Rovi", "poster_path": "/3TbIYZTP8Ycyu8JmbOZ3vouUsA5.jpg", "release_date": "2000-05-30", "title": "Moving Target", "video": false, "vote_average": 4.8, "vote_count": 4, "popularity": 2.156}, {"adult": false, "backdrop_path": null, "genre_ids": [16], "id": 164593, "original_language": "en", "original_title": "Murder Psalm", "overview": "A short film by Stan Brakhage.", "poster_path": "/ccHqmoRenFq0cZSnfyVNtMc8iWm.jpg", "release_date": "1980-01-01", "title": "Murder Psalm", "video": false, "vote_average": 6.3, "vote_count": 11, "popularity": 2.647}, {"adult": false, "backdrop_path": "/sCrwEaM0m8RYDWhwnUggc7s73VR.jpg", "genre_ids": [35, 878], "id": 64342, "original_language": "en", "original_title": "Lobster Man from Mars", "overview": "Young film student tries to sell his weird movie to a desperate film producer who is in need of a tax write-off. The producer screens the film \"Lobster Man From Mars\". What follows is one of the most bizarre and funny film within-a-film send-ups: Mars suffers from an air leakage, and send the dreaded Lobster Man to Earth to steal its air. The plot is foiled by a mad scientist, a girl, and an army colonel. The producer buys the movie, but it makes a huge profit and the producer is sent to jail, with the film student taking his place as the studio hot shot.", "poster_path": "/spvcL8xXZ0BWIqumbmOlHpOcAmE.jpg", "release_date": "1989-01-01", "title": "Lobster Man from Mars", "video": false, "vote_average": 5.7, "vote_count": 9, "popularity": 2.971}, {"adult": false, "backdrop_path": null, "genre_ids": [16], "id": 147603, "original_language": "en", "original_title": "UFOs", "overview": "UFOs involved developing special color filters used on an-optical bench in reshooting original rolls, but to heighten the color saturation exponentially, black frames were inter-edited so that the eyes\u2019 cones were constantly refreshed, the saturation never diminished, and there was a shift in the brain\u2019s alpha rhythm so that observers had conflicting reactions. A film breakthrough that literally created an individualized viewing experience.", "poster_path": "/rVYGnCTV14662wl1Om0QVCI4CC0.jpg", "release_date": "1971-01-01", "title": "UFOs", "video": false, "vote_average": 5.5, "vote_count": 12, "popularity": 1.596}, {"adult": false, "backdrop_path": "/cIQJ7lw2ARukVDI3GYqsCWtTp4C.jpg", "genre_ids": [28, 878, 53], "id": 68115, "original_language": "en", "original_title": "Terminal Justice", "overview": "In 2008 cybersex can only be surpassed by one thing: Cloned women, especially created for their clients. This puts Pamela Travis, a famous and much sought-after cybersex star in great danger - Dr. Vivyan, scientist and genius in the field of biotechnology wants her DNA to clone her for his many customers. Sergeant Bobby Chase is assigned to protect her, but can't prevent her from being kidnapped. In order to free Pamela, Chase has to risk his life in a deadly virtual reality game called \"Hellraiser\"", "poster_path": "/zDVUTCbBPQ2PyZ7tn2GFoWsravB.jpg", "release_date": "1996-04-01", "title": "Terminal Justice", "video": false, "vote_average": 5.0, "vote_count": 7, "popularity": 2.113}], "total_pages": 1, "total_results": 6}, "credits": {"cast": [{"cast_id": 1, "character": "Jared", "credit_id": "52fe49d4c3a368484e142253", "gender": 2, "id": 36055, "name": "Costas Mandylor", "order": 0, "profile_path": "/urGJrOnb6mEPmqZnkhwd0bXg2U5.jpg"}, {"cast_id": 2, "character": "Derek", "credit_id": "52fe49d4c3a368484e142257", "gender": 2, "id": 75312, "name": "Sasha Mitchell", "order": 1, "profile_path": "/caQ4WuNAPNeozlcLummEE2GLc5i.jpg"}, {"cast_id": 3, "character": "Alexis", "credit_id": "52fe49d4c3a368484e14225b", "gender": 1, "id": 69130, "name": "Kathleen Kinmont", "order": 2, "profile_path": "/4kM7flwBLWUxHYy3Sv5e7rcFgJ1.jpg"}, {"cast_id": 4, "character": "Lucifer", "credit_id": "52fe49d4c3a368484e14225f", "gender": 2, "id": 63934, "name": "Vincent Klyn", "order": 3, "profile_path": "/6ZCRstdYdMXeafMXfNRSTl9J7Fb.jpg"}, {"cast_id": 5, "character": "Dr. Adams", "credit_id": "52fe49d4c3a368484e142263", "gender": 2, "id": 29712, "name": "Tim Thomerson", "order": 4, "profile_path": "/bh8TYtiz09sSen5seoVPdcsZ9SF.jpg"}, {"cast_id": 6, "character": "Officer Dunn", "credit_id": "52fe49d4c3a368484e142267", "gender": 2, "id": 21411, "name": "Ice-T", "order": 5, "profile_path": "/2XsNifyKI37XBbBbZEH8P21god1.jpg"}, {"cast_id": 7, "character": "Officer Harris", "credit_id": "52fe49d4c3a368484e14226b", "gender": 2, "id": 35549, "name": "Coolio", "order": 6, "profile_path": "/kzxoKNAq2hyfC9jdlKL9uxyphUy.jpg"}, {"cast_id": 8, "character": "Mary Anne Adams", "credit_id": "52fe49d4c3a368484e14226f", "gender": 0, "id": 31185, "name": "Teri Austin", "order": 7, "profile_path": "/tHR51M7WqTQqUfAsXue18gwwtu0.jpg"}, {"cast_id": 9, "character": "Aniko", "credit_id": "52fe49d4c3a368484e142273", "gender": 1, "id": 177298, "name": "Joanna Bacalso", "order": 8, "profile_path": "/2rouoJXrrocPoWWCcjDK3z2vQZZ.jpg"}, {"cast_id": 10, "character": "Sarah", "credit_id": "52fe49d4c3a368484e142277", "gender": 1, "id": 131649, "name": "Jennifer Gareis", "order": 9, "profile_path": "/d0075n8H5X0kwM7OfTZSM5U30yb.jpg"}, {"cast_id": 11, "character": "Angie", "credit_id": "52fe49d4c3a368484e14227b", "gender": 1, "id": 7218, "name": "Kristanna Loken", "order": 10, "profile_path": "/rxeYONGXlnNYOn50KjjiwgLxiGX.jpg"}, {"cast_id": 12, "character": "Damien", "credit_id": "52fe49d4c3a368484e14227f", "gender": 2, "id": 112914, "name": "David DeFalco", "order": 11, "profile_path": null}, {"cast_id": 13, "character": "Hellion", "credit_id": "52fe49d4c3a368484e142283", "gender": 0, "id": 587232, "name": "Michael Feichtner", "order": 12, "profile_path": null}, {"cast_id": 14, "character": "Angel", "credit_id": "52fe49d4c3a368484e142287", "gender": 1, "id": 170491, "name": "Anastasia Sakelaris", "order": 13, "profile_path": null}, {"cast_id": 15, "character": "Gangreen", "credit_id": "52fe49d4c3a368484e14228b", "gender": 2, "id": 24968, "name": "Nils Allen Stewart", "order": 14, "profile_path": "/qeTM6yMFJeP9dhudYGAKduzaoGD.jpg"}, {"cast_id": 16, "character": "Elisha", "credit_id": "52fe49d4c3a368484e14228f", "gender": 0, "id": 587233, "name": "Michelle Villemaire", "order": 15, "profile_path": null}, {"cast_id": 18, "character": "Gina", "credit_id": "52fe49d4c3a368484e142293", "gender": 0, "id": 563653, "name": "Deidre Holland", "order": 16, "profile_path": "/7cGYx53oXEoyI7wMwkSk2LSrHKG.jpg"}, {"cast_id": 19, "character": "Isa", "credit_id": "52fe49d4c3a368484e142297", "gender": 1, "id": 46166, "name": "Isa Haller", "order": 17, "profile_path": "/boDupTLMhCnriBnSHA3AZF3cPQ.jpg"}, {"cast_id": 20, "character": "Roach", "credit_id": "52fe49d4c3a368484e14229b", "gender": 0, "id": 587234, "name": "Kevin Knotts", "order": 18, "profile_path": null}, {"cast_id": 21, "character": "Sgt. Richards", "credit_id": "52fe49d4c3a368484e14229f", "gender": 2, "id": 33321, "name": "Sam Jones", "order": 19, "profile_path": "/w0C7aONaeB6a5DqdzTa23TzcvPm.jpg"}, {"cast_id": 22, "character": "Officer Crowder", "credit_id": "52fe49d4c3a368484e1422a3", "gender": 0, "id": 151321, "name": "Jeanette O'Connor", "order": 20, "profile_path": "/1pOfw4NbSM8EgN5MF4Wydnb6GiB.jpg"}, {"cast_id": 23, "character": "Alison Adams", "credit_id": "52fe49d4c3a368484e1422a7", "gender": 1, "id": 181590, "name": "Kylee Cochran", "order": 21, "profile_path": null}, {"cast_id": 24, "character": "Newscaster", "credit_id": "52fe49d4c3a368484e1422ab", "gender": 0, "id": 149545, "name": "Mark Kriski", "order": 22, "profile_path": "/6qLxChCPgtRQOnmWycBKA26v91l.jpg"}, {"cast_id": 25, "character": "Slime", "credit_id": "52fe49d4c3a368484e1422af", "gender": 2, "id": 587235, "name": "Matthew Hurley", "order": 23, "profile_path": null}, {"cast_id": 26, "character": "Jonathan", "credit_id": "52fe49d4c3a368484e1422b3", "gender": 0, "id": 149826, "name": "Taylor Sutherland", "order": 24, "profile_path": null}, {"cast_id": 27, "character": "Fighter (uncredited)", "credit_id": "52fe49d4c3a368484e1422b7", "gender": 0, "id": 587236, "name": "Troy Aguayo", "order": 25, "profile_path": null}, {"cast_id": 28, "character": "Gang Member (uncredited)", "credit_id": "52fe49d4c3a368484e1422bb", "gender": 0, "id": 587237, "name": "Tang Nguyen", "order": 26, "profile_path": null}, {"cast_id": 29, "character": "Fighter (uncredited)", "credit_id": "52fe49d4c3a368484e1422bf", "gender": 2, "id": 6026, "name": "Ralph Rieckermann", "order": 27, "profile_path": null}, {"cast_id": 30, "character": "Ganglander (uncredited)", "credit_id": "52fe49d4c3a368484e1422c3", "gender": 0, "id": 112151, "name": "Michael R. Thayer", "order": 28, "profile_path": null}, {"cast_id": 32, "character": "Joey", "credit_id": "52fe49d4c3a368484e1422cd", "gender": 2, "id": 1215144, "name": "Victor Webster", "order": 29, "profile_path": "/c2yOkMhJnehLXcRxqTDDaX59US8.jpg"}], "crew": [{"credit_id": "52fe49d4c3a368484e1422c9", "department": "Directing", "gender": 2, "id": 112159, "job": "Director", "name": "Art Camacho", "profile_path": "/bthvmWThKWzm4xaQ6hRdw4iO27g.jpg"}]}}