{"adult": false, "backdrop_path": "/Vo7XKKGPtXzk7MibuZPndAsP1R.jpg", "belongs_to_collection": null, "budget": 0, "genres": [{"id": 28, "name": "Action"}, {"id": 80, "name": "Crime"}, {"id": 18, "name": "Drama"}, {"id": 53, "name": "Thriller"}], "homepage": "http://boywonderthemovie.com/", "id": 80188, "imdb_id": "tt1456060", "original_language": "en", "original_title": "Boy Wonder", "overview": "A young Brooklyn boy witnesses the brutal murder of his mother and grows up obsessed with finding her killer. Thus begins his life as a quiet, straight-A student by day and a self-appointed hero at night. But what is a real hero? And who decides what is right or wrong? As the boundaries blur, Sean's dual life wears on his psyche and his two worlds careen dangerously close to colliding. Like a graphic novel you can't put down, Boy Wonder challenges morality, distorting perceptions of what is right and what is justified, as it races to its shocking conclusion.", "popularity": 7.631, "poster_path": "/nVdZgKJZyn7nmPjhfVKnsMktudy.jpg", "production_companies": [{"id": 11048, "logo_path": null, "name": "Boy Wonder Films", "origin_country": ""}], "production_countries": [{"iso_3166_1": "US", "name": "United States of America"}], "release_date": "2010-08-11", "revenue": 0, "runtime": 93, "spoken_languages": [{"iso_639_1": "en", "name": "English"}], "status": "Released", "tagline": "Beware the Hero", "title": "Boy Wonder", "video": false, "vote_average": 6.6, "vote_count": 84, "keywords": {"keywords": [{"id": 549, "name": "prostitute"}, {"id": 1552, "name": "subway"}, {"id": 1667, "name": "pimp"}, {"id": 1849, "name": "homicide"}, {"id": 5707, "name": "childhood trauma"}, {"id": 7002, "name": "vigilante"}, {"id": 10155, "name": "steroids"}, {"id": 14819, "name": "violence"}, {"id": 15009, "name": "criminal"}, {"id": 156316, "name": "troubled teen"}, {"id": 188186, "name": "painted face"}, {"id": 208363, "name": "spouse abuse"}, {"id": 240119, "name": "father son relationship"}, {"id": 247268, "name": "boxing gym"}]}, "similar": {"page": 1, "results": [{"adult": false, "backdrop_path": "/scRw6gAoO3CfgQnZjHCh2ZgU4Z1.jpg", "genre_ids": [80, 18, 878, 53], "id": 281, "original_language": "en", "original_title": "Strange Days", "overview": "Set in the year 1999 during the last days of the old millennium, the movie tells the story of Lenny Nero, an ex-cop who now deals with data-discs containing recorded memories and emotions. One day he receives a disc which contains the memories of a murderer killing a prostitute. Lenny investigates and is pulled deeper and deeper in a whirl of blackmail, murder and rape. Will he survive and solve the case?", "poster_path": "/rXvy5hG9OeVmgnv9w4IhQxhqEKD.jpg", "release_date": "1995-10-13", "title": "Strange Days", "video": false, "vote_average": 7.0, "vote_count": 662, "popularity": 19.866}, {"id": 339692, "video": false, "vote_count": 1163, "vote_average": 6.9, "title": "Shot Caller", "release_date": "2017-07-13", "original_language": "en", "original_title": "Shot Caller", "genre_ids": [80, 18, 53], "backdrop_path": "/hehboYLXB3m90x9ybiBsupwuifL.jpg", "adult": false, "overview": "A newly-released prison gangster is forced by the leaders of his gang to orchestrate a major crime with a brutal rival gang on the streets of Southern California.", "poster_path": "/qLmLz2wtyYvmW8Ult3l2ngOnW8v.jpg", "popularity": 25.016}, {"id": 59967, "video": false, "vote_count": 7203, "vote_average": 6.8, "title": "Looper", "release_date": "2012-09-26", "original_language": "en", "original_title": "Looper", "genre_ids": [28, 878, 53], "backdrop_path": "/vuHG8VlYnvw4gUKtS7GY5kZol69.jpg", "adult": false, "overview": "In the futuristic action thriller Looper, time travel will be invented but it will be illegal and only available on the black market. When the mob wants to get rid of someone, they will send their target 30 years into the past where a looper, a hired gun, like Joe is waiting to mop up. Joe is getting rich and life is good until the day the mob decides to close the loop, sending back Joe's future self for assassination.", "poster_path": "/sNjL6SqErDBE8OUZlrDLkexfsCj.jpg", "popularity": 21.833}, {"adult": false, "backdrop_path": "/sDSwD63e0qfNE1YvH8aczFoSGTt.jpg", "genre_ids": [80, 18, 53], "id": 11826, "original_language": "en", "original_title": "Sexy Beast", "overview": "The idyllic life of retired safecracker Gal is put at risk when a psychotic gangster from his past arrives at his villa in southern Spain, intent on bringing him out of retirement for one last job.", "poster_path": "/rpo9njGpJVLPqRrdM6R7wIqiQ7K.jpg", "release_date": "2001-01-12", "title": "Sexy Beast", "video": false, "vote_average": 7.0, "vote_count": 391, "popularity": 10.199}, {"adult": false, "backdrop_path": "/fop31RWFi9sVL0xK5hAJGh7Fwkz.jpg", "genre_ids": [18, 80], "id": 261023, "original_language": "en", "original_title": "Black Mass", "overview": "The true story of Whitey Bulger, the brother of a state senator and the most infamous violent criminal in the history of South Boston, who became an FBI informant to take down a Mafia family invading his turf.", "poster_path": "/nSbpuyd2UySuW7kaoXzYUfes1Bl.jpg", "release_date": "2015-09-04", "title": "Black Mass", "video": false, "vote_average": 6.4, "vote_count": 2190, "popularity": 14.581}, {"id": 11033, "video": false, "vote_count": 358, "vote_average": 6.8, "title": "Dressed to Kill", "release_date": "1980-07-25", "original_language": "en", "original_title": "Dressed to Kill", "genre_ids": [27, 9648, 53], "backdrop_path": "/mtGByKUtyLVWXl8OjWFOicLHsFo.jpg", "adult": false, "overview": "A mysterious, tall, blonde woman wearing sunglasses murders one of a psychiatrist's patients, and now she's after the prostitute who witnessed it.", "poster_path": "/b9RHUexTE6MT5x6iZ2Wmq56H1cJ.jpg", "popularity": 16.237}, {"adult": false, "backdrop_path": "/7VtaXw0iT8L3GcCGb8aBZ2YYg8Z.jpg", "genre_ids": [80, 28, 53], "id": 49010, "original_language": "en", "original_title": "Hobo with a Shotgun", "overview": "A vigilante homeless man pulls into a new city and finds himself trapped in urban chaos, a city where crime rules and where the city's crime boss reigns. Seeing an urban landscape filled with armed robbers, corrupt cops, abused prostitutes and even a pedophile Santa, the Hobo goes about bringing justice to the city the best way he knows how - with a 20-gauge shotgun. Mayhem ensues when he tries to make things better for the future generation. Street justice will indeed prevail.", "poster_path": "/yyxsp2iCZpf1RVTNFMgIpOUyq93.jpg", "release_date": "2011-05-06", "title": "Hobo with a Shotgun", "video": false, "vote_average": 5.8, "vote_count": 318, "popularity": 8.845}, {"id": 25941, "video": false, "vote_count": 550, "vote_average": 6.8, "title": "Harry Brown", "release_date": "2009-11-11", "original_language": "en", "original_title": "Harry Brown", "genre_ids": [28, 80, 18, 53], "backdrop_path": "/szj3uqOGDu8Uwvwo0Si42BCxI04.jpg", "adult": false, "overview": "An elderly ex-serviceman and widower looks to avenge his best friend's murder by doling out his own form of justice.", "poster_path": "/68V1ClrCT7ik7UDiAkIDliRaAXf.jpg", "popularity": 12.462}, {"id": 398181, "video": false, "vote_count": 1301, "vote_average": 6.6, "title": "You Were Never Really Here", "release_date": "2017-11-08", "original_language": "en", "original_title": "You Were Never Really Here", "genre_ids": [53], "backdrop_path": "/h4Lk8Cgfvlzz0hcnSJBTAOwNDia.jpg", "adult": false, "overview": "A traumatised veteran, unafraid of violence, tracks down missing girls for a living. When a job spins out of control, Joe's nightmares overtake him as a conspiracy is uncovered leading to what may be his death trip or his awakening.", "poster_path": "/ktPbjD6nYg5NxmeTt72Iqaw5GD0.jpg", "popularity": 19.651}, {"id": 458594, "video": false, "vote_count": 983, "vote_average": 6.5, "title": "Peppermint", "release_date": "2018-09-06", "original_language": "en", "original_title": "Peppermint", "genre_ids": [28, 53], "backdrop_path": "/9krZX6T4EEs5eFpXgSi8jZkN48O.jpg", "adult": false, "overview": "A grieving mother transforms herself into a vigilante following the murders of her husband and daughter, eluding the authorities to deliver her own personal brand of justice.", "poster_path": "/jrzxS0vcbzIIay1sdYm0rgI2QfJ.jpg", "popularity": 25.2}, {"id": 442249, "video": false, "vote_count": 2156, "vote_average": 5.8, "title": "The First Purge", "release_date": "2018-07-04", "original_language": "en", "original_title": "The First Purge", "genre_ids": [28, 27, 878, 53], "backdrop_path": "/r4clWIxKeWoqrHspQP0XunuUmB7.jpg", "adult": false, "overview": "To push the crime rate below one percent for the rest of the year, the New Founding Fathers of America test a sociological theory that vents aggression for one night in one isolated community. But when the violence of oppressors meets the rage of the others, the contagion will explode from the trial-city borders and spread across the nation.", "poster_path": "/litjsBoiydO6JlO70uOX4N3WnNL.jpg", "popularity": 27.168}, {"adult": false, "backdrop_path": "/19qAk3bQZ6ulspbwhPw1A0bNpii.jpg", "genre_ids": [80, 27, 53], "id": 73861, "original_language": "sr", "original_title": "Srpski film", "overview": "Milos, a retired porn star, leads a normal family life trying to make ends meet. Presented with the opportunity of a lifetime to financially support his family for the rest of their lives, Milos must participate in one last mysterious film. From then on, Milos is drawn into a maelstrom of unbelievable cruelty and mayhem.", "poster_path": "/iB3ynCghwG63MrViBC6YyPzUIAn.jpg", "release_date": "2010-06-16", "title": "A Serbian Film", "video": false, "vote_average": 5.5, "vote_count": 898, "popularity": 15.06}, {"id": 681, "video": false, "vote_count": 1040, "vote_average": 6.4, "title": "Diamonds Are Forever", "release_date": "1971-12-13", "original_language": "en", "original_title": "Diamonds Are Forever", "genre_ids": [28, 12, 53], "backdrop_path": "/gIGLXXvsljHK1jdDNaIXsjhZnnH.jpg", "adult": false, "overview": "Diamonds are stolen only to be sold again in the international market. James Bond infiltrates a smuggling mission to find out who\u2019s guilty. The mission takes him to Las Vegas where Bond meets his archenemy Blofeld.", "poster_path": "/viPjZ3JCOahcfNCcVhiPExusJoZ.jpg", "popularity": 20.883}, {"id": 23483, "video": false, "vote_count": 8160, "vote_average": 7.1, "title": "Kick-Ass", "release_date": "2010-03-22", "original_language": "en", "original_title": "Kick-Ass", "genre_ids": [28, 80], "backdrop_path": "/ngPkB9K8ZpIjv8HpIC8ExqAfG6H.jpg", "adult": false, "overview": "Dave Lizewski is an unnoticed high school student and comic book fan who one day decides to become a super-hero, even though he has no powers, training or meaningful reason to do so.", "poster_path": "/gtfggr5n3ED1neoTqVYmsVCoSS.jpg", "popularity": 17.344}, {"adult": false, "backdrop_path": "/aJCEQFFXNcfg5YneJzTG15qzxF7.jpg", "genre_ids": [28, 53], "id": 1572, "original_language": "en", "original_title": "Die Hard: With a Vengeance", "overview": "New York detective John McClane is back and kicking bad-guy butt in the third installment of this action-packed series, which finds him teaming with civilian Zeus Carver to prevent the loss of innocent lives. McClane thought he'd seen it all, until a genius named Simon engages McClane, his new \"partner\" -- and his beloved city -- in a deadly game that demands their concentration.", "poster_path": "/ivpXGcsPZglyYrN65THWSD7JM3q.jpg", "release_date": "1995-05-19", "title": "Die Hard: With a Vengeance", "video": false, "vote_average": 7.1, "vote_count": 3600, "popularity": 29.93}, {"id": 156022, "video": false, "vote_count": 5466, "vote_average": 7.2, "title": "The Equalizer", "release_date": "2014-09-24", "original_language": "en", "original_title": "The Equalizer", "genre_ids": [28, 80, 53], "backdrop_path": "/vbl4ZVqelrrzJ16fdDOq9siWbpi.jpg", "adult": false, "overview": "McCall believes he has put his mysterious past behind him and dedicated himself to beginning a new, quiet life. But when he meets Teri, a young girl under the control of ultra-violent Russian gangsters, he can\u2019t stand idly by \u2013 he has to help her. Armed with hidden skills that allow him to serve vengeance against anyone who would brutalize the helpless, McCall comes out of his self-imposed retirement and finds his desire for justice reawakened. If someone has a problem, if the odds are stacked against them, if they have nowhere else to turn, McCall will help. He is The Equalizer.", "poster_path": "/2eQfjqlvPAxd9aLDs8DvsKLnfed.jpg", "popularity": 38.079}, {"adult": false, "backdrop_path": "/uQqQvmptJLPTcWDrZXn22p7j7s3.jpg", "genre_ids": [28, 80, 18, 53], "id": 395990, "original_language": "en", "original_title": "Death Wish", "overview": "A mild-mannered father is transformed into a killing machine after his family is torn apart by a violent act.", "poster_path": "/g0eEEZAqMf98ULQnoiORuazjOpn.jpg", "release_date": "2018-03-02", "title": "Death Wish", "video": false, "vote_average": 5.9, "vote_count": 1402, "popularity": 22.854}, {"adult": false, "backdrop_path": "/7pMlmyqitl0nqpEGOL3v8dEbu2K.jpg", "genre_ids": [28, 53, 27], "id": 341006, "original_language": "en", "original_title": "The Belko Experiment", "overview": "A group of eighty American workers are locked in their office and ordered by an unknown voice to participate in a twisted game.", "poster_path": "/faJK0dP3S92kQoKtO4LZMjy41kf.jpg", "release_date": "2016-03-17", "title": "The Belko Experiment", "video": false, "vote_average": 6.1, "vote_count": 852, "popularity": 11.208}, {"adult": false, "backdrop_path": "/a24i4Qw6qFTtkFLQsncv8WPwevj.jpg", "genre_ids": [53, 28, 80], "id": 345887, "original_language": "en", "original_title": "The Equalizer 2", "overview": "Robert McCall, who serves an unflinching justice for the exploited and oppressed, embarks on a relentless, globe-trotting quest for vengeance when a long-time girl friend is murdered.", "poster_path": "/cQvc9N6JiMVKqol3wcYrGshsIdZ.jpg", "release_date": "2018-07-19", "title": "The Equalizer 2", "video": false, "vote_average": 6.5, "vote_count": 2482, "popularity": 24.261}, {"adult": false, "backdrop_path": "/gVTTtYgKIBurNvkGiGC6735b8y.jpg", "genre_ids": [28, 80, 14], "id": 414, "original_language": "en", "original_title": "Batman Forever", "overview": "The Dark Knight of Gotham City confronts a dastardly duo: Two-Face and the Riddler. Formerly District Attorney Harvey Dent, Two-Face believes Batman caused the courtroom accident which left him disfigured on one side. And Edward Nygma, computer-genius and former employee of millionaire Bruce Wayne, is out to get the philanthropist; as The Riddler. Former circus acrobat Dick Grayson, his family killed by Two-Face, becomes Wayne's ward and Batman's new partner Robin.", "poster_path": "/eTMrHEhlFPHNxpqGwpGGTdAa0xV.jpg", "release_date": "1995-06-16", "title": "Batman Forever", "video": false, "vote_average": 5.3, "vote_count": 3091, "popularity": 17.157}], "total_pages": 26, "total_results": 509}, "recommendations": {"page": 1, "results": [{"adult": false, "backdrop_path": null, "genre_ids": [], "id": 107934, "original_language": "en", "original_title": "Blue Ridge", "overview": "Paranoid and unpredictable, J.T. lives a solitary life of used tires and decaying trailers. Despite his situation, J.T. wins the love of Sara, an innocent young girl left alone in the world after losing the last of her family.", "poster_path": "/e9zLgHMDbXrzK0s9DlETkli72JU.jpg", "release_date": "2012-06-07", "title": "Blue Ridge", "video": false, "vote_average": 5.7, "vote_count": 6, "popularity": 1.773}, {"adult": false, "backdrop_path": null, "genre_ids": [10402, 35], "id": 399786, "original_language": "en", "original_title": "Browsers", "overview": "Set in contemporary Manhattan, it follows four young people as they start their first jobs at a news website.", "poster_path": "/acSXZvo8KeigZyCBZ0CJtzoFsDZ.jpg", "release_date": "2013-04-19", "title": "Browsers", "video": false, "vote_average": 6.6, "vote_count": 7, "popularity": 4.415}, {"id": 58729, "video": false, "vote_count": 7, "vote_average": 2.9, "title": "The Bill Collector", "release_date": "2010-09-03", "original_language": "en", "original_title": "The Bill Collector", "genre_ids": [35, 18], "backdrop_path": "/QFCJgAQsvUjQtxeiru1pim2bMY.jpg", "adult": false, "overview": "Uncle Frankie (Danny Trejo) is not the kind of guy you want to meet in a dark alley. Especially when you owe him money and have been giving him the slip for a few years. Such is the fate of Lorenzo Adams (Gary Moore), a top bill collector at Lump Sum Collections. Uncle Frankie has tracked Lorenzo to Norfolk, Virginia and is coming to collect.", "poster_path": "/sj20OviDfEMZHYXaWdqDDal8ZH4.jpg", "popularity": 4.245}, {"id": 56179, "video": false, "vote_count": 22, "vote_average": 7.0, "title": "Triumph of the Spirit", "release_date": "1989-01-01", "original_language": "en", "original_title": "Triumph of the Spirit", "genre_ids": [18, 10752], "backdrop_path": "/fRdksi7TdI9yY2S2g2ldG4c2vqZ.jpg", "adult": false, "overview": "Fact based story about a former Greek Olympic boxer who was taken as a prisoner during World war II and placed in the Auschwitz prison camp. There he was permitted to survive as long as he fought for the amusement of his captors. His father and brother were also held as insurance that he would continue to fight.", "poster_path": "/dxaSARmpCiFOCaxwGvjYAXMYPE4.jpg", "popularity": 5.904}, {"adult": false, "backdrop_path": "/wr1YuO2VRIimOQYiMsJuu8ckHmv.jpg", "genre_ids": [28, 35, 27], "id": 63350, "original_language": "en", "original_title": "Father's Day", "overview": "Ahab, a man obsessed with exacting a brutal, violent revenge on the man who murdered his dad, joins John, an eager priest, and Twink, a hot-headed street hustler, on an epic quest to find and defeat this mythical monster known as Chris Fuchman AKA The Father's Day Killer.", "poster_path": "/vCRsXeAAj6nwf9kCt0e1wImalIU.jpg", "release_date": "2011-06-19", "title": "Father's Day", "video": false, "vote_average": 5.8, "vote_count": 41, "popularity": 4.839}, {"adult": false, "backdrop_path": "/ugjb5AyRecA4nECREHTMnAcU3TF.jpg", "genre_ids": [18], "id": 25297, "original_language": "en", "original_title": "Cannery Row", "overview": "A depressed section of Monterey, California is the backdrop for an offbeat romantic comedy about a pair of mismatched lovers. Doc is a lonely marine biologist and former baseball star. Suzy is a scrappy, abrasive drifter who can't even succeed as a prostitute. Add Cannery Row's band of resident drunken derelicts to the mix and fireworks result, though not the romantic kind.", "poster_path": "/efLkDkAHMCqFbHdoOa4Q3sv3ZEQ.jpg", "release_date": "1982-02-12", "title": "Cannery Row", "video": false, "vote_average": 6.1, "vote_count": 25, "popularity": 5.852}, {"adult": false, "backdrop_path": null, "genre_ids": [35, 878, 10751], "id": 22491, "original_language": "en", "original_title": "I'll Believe You", "overview": "Late-night radio host Dale Sweeney's usual line up of odd-ball, conspiracy-obsessed callers is interrupted by a panicked phone call in an indecipherable language. When FBI agents arrive investigating the call, Dale enlists his friends help to uncover what he hopes is the amazing identity of this first time caller.", "poster_path": "/sYnoU37ge1fEiQk3M8usuNgJmlp.jpg", "release_date": "2007-01-01", "title": "I'll Believe You", "video": false, "vote_average": 4.0, "vote_count": 5, "popularity": 1.323}, {"adult": false, "backdrop_path": "/cBpAMY6ZMHiTf0XCfDCS1c2wMAM.jpg", "genre_ids": [35, 18], "id": 59441, "original_language": "en", "original_title": "A Bag of Hammers", "overview": "Two misfit best friends incapable of growing up, whose direction is tested by an abandoned child, worn beyond his years; together they invent the family they've always needed.", "poster_path": "/iN4B5mry1uwf2Gnrvi71Pqujcd4.jpg", "release_date": "2011-03-12", "title": "A Bag of Hammers", "video": false, "vote_average": 6.3, "vote_count": 38, "popularity": 6.431}, {"adult": false, "backdrop_path": "/bNHpV5R1Jpg2XhNfdc7HbXKjmWM.jpg", "genre_ids": [27, 35], "id": 273651, "original_language": "en", "original_title": "America's Most Haunted", "overview": "Welcome to America's Most Haunted, the paranormal show that's not just trying to contact ghosts, they're here to kick ghosts out and send them back where they belong! But this time it's different. This time it's real. And if they can survive the night, they'll have the show of their lives.", "poster_path": "/dbzfe1p7wiub13kV5N0aqOKYGJ0.jpg", "release_date": "2013-05-08", "title": "America's Most Haunted", "video": false, "vote_average": 4.3, "vote_count": 11, "popularity": 3.328}, {"adult": false, "backdrop_path": "/x8VKsbVA98Sr8CLrWIu6qV78PPA.jpg", "genre_ids": [53, 18], "id": 244536, "original_language": "en", "original_title": "Hellion", "overview": "When motocross and heavy metal obsessed, 13-year-old Jacob's delinquent behavior forces CPS to place his little brother Wes with his aunt, Jacob and his emotionally absent father must finally take responsibility for their actions and each other in order to bring Wes home.", "poster_path": "/qGk8K5GEjlfbL8ZwaF3r5i3Bbtx.jpg", "release_date": "2014-06-13", "title": "Hellion", "video": false, "vote_average": 6.0, "vote_count": 72, "popularity": 7.3}, {"adult": false, "backdrop_path": "/qCsg3ZwSKESGLQBf9kujLCK5shq.jpg", "genre_ids": [18], "id": 58884, "original_language": "en", "original_title": "Sympathy for Delicious", "overview": "A newly paralyzed DJ gets more than he bargained for when he seeks out the world of faith healing.", "poster_path": "/26kKZWAm6FaDXKFi30qUdv8oxpv.jpg", "release_date": "2011-04-29", "title": "Sympathy for Delicious", "video": false, "vote_average": 6.2, "vote_count": 17, "popularity": 3.5}, {"adult": false, "backdrop_path": "/tkxASN5Bn4mZol4YswVdCTrXHyR.jpg", "genre_ids": [18, 53], "id": 51490, "original_language": "en", "original_title": "On the Inside", "overview": "A decent but troubled young man is sent to a psychiatric institution for the criminally insane and soon finds himself in a fight for his life battling ghosts inside his head and very real enemies all around him.", "poster_path": "/uGwiYHTm6QUp5b5sBJHM6E62iD2.jpg", "release_date": "2011-12-31", "title": "On the Inside", "video": false, "vote_average": 5.2, "vote_count": 24, "popularity": 4.904}, {"adult": false, "backdrop_path": "/vhGLTtysdYVU72th2RqLxzom8MM.jpg", "genre_ids": [27, 878], "id": 24796, "original_language": "en", "original_title": "Edges of Darkness", "overview": "Three interconnected tales of terror set against the backdrop of a zombie apocalypse.", "poster_path": "/eqfWGS14ySaZ1GNPpQ37Y7IEd1V.jpg", "release_date": "2009-01-01", "title": "Edges of Darkness", "video": false, "vote_average": 4.5, "vote_count": 7, "popularity": 1.837}, {"adult": false, "backdrop_path": "/xLi8dYtHAg5BV7EtNMBzbYuuKiH.jpg", "genre_ids": [35], "id": 168027, "original_language": "en", "original_title": "Freaky Deaky", "overview": "Set in 1974, a pair of '60s radicals rely on their bomb-making skills on their way to becoming capitalists.", "poster_path": "/oZXTGBRm2BF44l6S1DQmPh2HwCo.jpg", "release_date": "2012-04-22", "title": "Freaky Deaky", "video": false, "vote_average": 5.1, "vote_count": 31, "popularity": 6.581}, {"id": 5493, "video": false, "vote_count": 77, "vote_average": 6.7, "title": "Returner", "release_date": "2002-08-31", "original_language": "ja", "original_title": "\u30ea\u30bf\u30fc\u30ca\u30fc", "genre_ids": [28, 12, 878], "backdrop_path": "/sSEMIDGdgjeGaXhJYdMnYlIBzfW.jpg", "adult": false, "overview": "After an alien invasion threatens to annihilate the human race, a young Japanese girl, named Milly (Anne Suzuki), travels back in time from 2084 to October 2002, and enlists the reluctant aid of skilled Tokyo gunman, named Miyamoto (Takeshi Kaneshiro), to discover and prevent the start of the war. However, trouble ensues when the two protagonists are forced to deal with a Japanese mafia boss, named Mizoguchi (Goro Kishitani), who is somehow involved in the start of the war by keeping the first alien spaceship and its alien pilot captive, while our two heroes race against the clock to find a way to stop the oncoming destruction from the vengeance-seeking alien invasion fleet on its way to Earth.", "poster_path": "/b752fGnKgZREBwXWhHoiO2B34c.jpg", "popularity": 6.466}, {"adult": false, "backdrop_path": "/fYnVrbe7QEpl5keABXqQLxWTK17.jpg", "genre_ids": [35, 80, 18, 53], "id": 402270, "original_language": "en", "original_title": "Stressed to Kill", "overview": "After suffering a heart attack, Bill (Bill Oberst) takes his doctor's advice literally to eliminate the stresses from his life. The plan is working until his killings attract the attention of a psychotic cop (Armand Assante) who isn't sure whether he wants to arrest or join him.  Complications deepen when it becomes apparent to Bill that the biggest cause of stress in his life might be his wife.", "poster_path": "/h9ixCSbVdj75UEsp09rcMBKgfrW.jpg", "release_date": "2016-05-27", "title": "Stressed to Kill", "video": false, "vote_average": 7.3, "vote_count": 4, "popularity": 3.173}, {"adult": false, "backdrop_path": "/7zg5zLPtVvpxjyfZUf93B7MSe0U.jpg", "genre_ids": [], "id": 143942, "original_language": "en", "original_title": "Highway", "overview": "Two brothers embark on a journey in search of a mythical highway in Kentucky, which they believe will lead them to \"marijuana nirvana.\"", "poster_path": "/aTiT6kZnj7fIgJAeleNTphgT0gP.jpg", "release_date": "2012-09-09", "title": "Highway", "video": false, "vote_average": 2.7, "vote_count": 3, "popularity": 1.928}, {"adult": false, "backdrop_path": "/dHsDJsEYCcN1LwPj31hC0gfrmSH.jpg", "genre_ids": [18], "id": 25576, "original_language": "en", "original_title": "Love Is the Drug", "overview": "Jonah Brand (John Patrick Amedori) isn't necessarily the type of guy who would interest ultra-hot Sara Weller (Lizzy Caplan). But when she and her friends find out he works at a pharmacy, they charm him into their circle and gain his trust with manipulative fawning. Jonah knows he's playing with danger, but it's tough to resist the game. Daryl Hannah and D.J. Cotrona co-star in this grizzly tale of addiction and obsession.", "poster_path": "/Ah7ooXikJ9EikrwGOIfvc0doVHk.jpg", "release_date": "2006-10-06", "title": "Love Is the Drug", "video": false, "vote_average": 7.0, "vote_count": 5, "popularity": 5.534}, {"adult": false, "backdrop_path": "/mymlaX3Ws8EHgUVWo7PnYfY6dSU.jpg", "genre_ids": [53], "id": 105545, "original_language": "en", "original_title": "Scalene", "overview": "A perceptual thriller told from three points-of-view revolving around the rape of a female college student by a mentally handicapped man and his mother's subsequent revenge after his incarceration.", "poster_path": "/llsOSabxGmkTbYTAjdQuaABIW7R.jpg", "release_date": "2011-06-04", "title": "Scalene", "video": false, "vote_average": 4.9, "vote_count": 7, "popularity": 3.482}, {"id": 51995, "video": false, "vote_count": 41, "vote_average": 5.6, "title": "Salvation Boulevard", "release_date": "2011-07-15", "original_language": "en", "original_title": "Salvation Boulevard", "genre_ids": [28, 35, 18, 53], "backdrop_path": "/wDcMtqcFM1KP53BIKtN2lGne3eA.jpg", "adult": false, "overview": "Set in the world of mega-churches in which a former Deadhead-turned-born again-Christian finds himself on the run from fundamentalist members of his mega-church who will do anything to protect their larger-than-life pastor.", "poster_path": "/q8kPPcpPUGhdAOP5LYHDMKZBXYP.jpg", "popularity": 7.945}], "total_pages": 2, "total_results": 40}, "credits": {"cast": [{"cast_id": 3, "character": "Larry Childs", "credit_id": "52fe47ac9251416c91071ead", "gender": 2, "id": 785, "name": "James Russo", "order": 0, "profile_path": "/nubhNb5OUkzsrndD1BNqzp7MGyo.jpg"}, {"cast_id": 4, "character": "Mary Donovan", "credit_id": "52fe47ac9251416c91071eb1", "gender": 1, "id": 12547, "name": "Tracy Middendorf", "order": 1, "profile_path": "/4B4MJMiLM3bDsLbkIQOPwmCOGxf.jpg"}, {"cast_id": 5, "character": "Teresa Ames", "credit_id": "52fe47ac9251416c91071eb5", "gender": 1, "id": 81703, "name": "Zulay Henao", "order": 2, "profile_path": "/6iHWbkuHJpVp8wZTlJBnjfO8Kd9.jpg"}, {"cast_id": 6, "character": "Terry Donovan", "credit_id": "52fe47ac9251416c91071eb9", "gender": 2, "id": 32029, "name": "Bill Sage", "order": 3, "profile_path": "/2uQv1NMnGrqqhBMKTm5RBCKh7UV.jpg"}, {"cast_id": 7, "character": "Erin", "credit_id": "52fe47ac9251416c91071ebd", "gender": 1, "id": 171271, "name": "Roberta Wallach", "order": 4, "profile_path": "/r1J7aGycvH9PQlGPCjszM1CeGQp.jpg"}, {"cast_id": 8, "character": "Amanda", "credit_id": "52fe47ac9251416c91071ec1", "gender": 1, "id": 84424, "name": "Nicole Patrick", "order": 5, "profile_path": "/aV4InXJFf7M2NYoczFBPLZZnWu0.jpg"}, {"cast_id": 9, "character": "Lizzy", "credit_id": "52fe47ac9251416c91071ec5", "gender": 1, "id": 588972, "name": "Kether Donohue", "order": 6, "profile_path": "/v2wtqKngHKHzeASddJWpFShWVtq.jpg"}], "crew": [{"credit_id": "52fe47ac9251416c91071ecb", "department": "Writing", "gender": 2, "id": 181870, "job": "Screenplay", "name": "Michael Morrissey", "profile_path": null}, {"credit_id": "52fe47ac9251416c91071ea3", "department": "Directing", "gender": 2, "id": 181870, "job": "Director", "name": "Michael Morrissey", "profile_path": null}, {"credit_id": "52fe47ac9251416c91071ea9", "department": "Writing", "gender": 2, "id": 181870, "job": "Writer", "name": "Michael Morrissey", "profile_path": null}]}}