{"adult": false, "backdrop_path": "/enYuuAq0fDT0MkL4QMNmKqzpwtV.jpg", "belongs_to_collection": null, "budget": 0, "genres": [{"id": 10770, "name": "TV Movie"}, {"id": 18, "name": "Drama"}], "homepage": null, "id": 80221, "imdb_id": "tt0116527", "original_language": "en", "original_title": "Hidden in America", "overview": "Story of a man Bill Januson whose pride in being the head of his family won't let him accept help from his sick daughters doctor. He has to prove to his kids that even with the death of his wife and the loss of his job that they can and will survive. After hitting brick wall after brick wall comes a glimmer of hope.", "popularity": 2.423, "poster_path": "/gviT9PZRBOeWiim7z6CSK73ysoi.jpg", "production_companies": [{"id": 3559, "logo_path": null, "name": "Citadel Entertainment", "origin_country": "US"}], "production_countries": [{"iso_3166_1": "US", "name": "United States of America"}], "release_date": "1996-12-01", "revenue": 0, "runtime": 93, "spoken_languages": [{"iso_639_1": "en", "name": "English"}], "status": "Released", "tagline": "His pride cost him everything...", "title": "Hidden in America", "video": false, "vote_average": 7.7, "vote_count": 3, "keywords": {"keywords": [{"id": 13005, "name": "doctor"}, {"id": 181958, "name": "starving"}, {"id": 208673, "name": "starving child"}]}, "similar": {"page": 1, "results": [{"id": 40807, "video": false, "vote_count": 2336, "vote_average": 7.1, "title": "50/50", "release_date": "2011-09-30", "original_language": "en", "original_title": "50/50", "genre_ids": [35, 18], "backdrop_path": "/kGac26bIqfwm8eqbP1RjKP70brE.jpg", "adult": false, "overview": "Inspired by a true story, a comedy centered on a 27-year-old guy who learns of his cancer diagnosis, and his subsequent struggle to beat the disease.", "poster_path": "/uDKmnFHqE3rQ9r6ErQsOZWuzXN8.jpg", "popularity": 19.878}, {"id": 651, "video": false, "vote_count": 478, "vote_average": 7.1, "title": "M*A*S*H", "release_date": "1970-01-24", "original_language": "en", "original_title": "M*A*S*H", "genre_ids": [35, 18, 10752], "backdrop_path": "/l5YH6TCYi2mgZwXbDjF71iA9UBP.jpg", "adult": false, "overview": "The staff of a Korean War field hospital use humor and high jinks to keep their sanity in the face of the horror of war.", "poster_path": "/cscyvJ4nDgbqewrttPXZ5EYOdwa.jpg", "popularity": 12.777}, {"id": 797, "video": false, "vote_count": 884, "vote_average": 8.3, "title": "Persona", "release_date": "1966-10-18", "original_language": "sv", "original_title": "Persona", "genre_ids": [18], "backdrop_path": "/hqFN0gOmeXKmKP266CSjbHt9y05.jpg", "adult": false, "overview": "A young nurse, Alma, is put in charge of Elisabeth Vogler: an actress who is seemingly healthy in all respects, but will not talk. As they spend time together, Alma speaks to Elisabeth constantly, never receiving any answer. Alma eventually confesses her secrets to a seemingly sympathetic Elisabeth and finds that her own personality is being submerged into Elisabeth's persona.", "poster_path": "/cjAnlvCrp9ZY7atASUsxRrhve7o.jpg", "popularity": 14.237}, {"adult": false, "backdrop_path": "/mtJrV7i76PtXJMmWz3tu6dWav6n.jpg", "genre_ids": [18], "id": 510, "original_language": "en", "original_title": "One Flew Over the Cuckoo's Nest", "overview": "While serving time for insanity at a state mental hospital, implacable rabble-rouser, Randle Patrick McMurphy, inspires his fellow patients to rebel against the authoritarian rule of head nurse, Mildred Ratched.", "poster_path": "/2Sns5oMb356JNdBHgBETjIpRYy9.jpg", "release_date": "1975-11-18", "title": "One Flew Over the Cuckoo's Nest", "video": false, "vote_average": 8.4, "vote_count": 6161, "popularity": 27.973}, {"adult": false, "backdrop_path": "/etCh5pI9TPQEYlziKyawVIum5nw.jpg", "genre_ids": [35, 18], "id": 25269, "original_language": "en", "original_title": "Article 99", "overview": "Dr. Richard Sturgess leads a team of compassionate doctors at a veteran's hospital. Along with Drs. Morgan, Handleman and Van Dorn, he fights to deliver adequate care to needy veterans in the face of funding cuts and a corrupt administration. To succeed, the staff may have to bend the rules and circumvent the villainous \"Article 99,\" a bureaucratic loophole that prevents veterans from receiving the benefits they deserve.", "poster_path": "/qWc03JBCujqxblCUHztLxeNJFKj.jpg", "release_date": "1992-03-13", "title": "Article 99", "video": false, "vote_average": 5.9, "vote_count": 20, "popularity": 4.21}, {"id": 1903, "video": false, "vote_count": 2237, "vote_average": 6.8, "title": "Vanilla Sky", "release_date": "2001-12-10", "original_language": "en", "original_title": "Vanilla Sky", "genre_ids": [18, 14, 878, 53, 10749], "backdrop_path": "/6XwX3HzKhlBUbTy2qZx0THQOu2T.jpg", "adult": false, "overview": "David Aames has it all: wealth, good looks and gorgeous women on his arm. But just as he begins falling for the warmhearted Sofia, his face is horribly disfigured in a car accident. That's just the beginning of his troubles as the lines between illusion and reality, between life and death, are blurred.", "poster_path": "/ujMy9P4VczTW9YSpAM31uqdOMpz.jpg", "popularity": 16.046}, {"adult": false, "backdrop_path": "/bvbyidkMaBls1LTaIWYY6UmYTaL.jpg", "genre_ids": [28, 878], "id": 336843, "original_language": "en", "original_title": "Maze Runner: The Death Cure", "overview": "Thomas leads his group of escaped Gladers on their final and most dangerous mission yet. To save their friends, they must break into the legendary Last City, a WCKD-controlled labyrinth that may turn out to be the deadliest maze of all. Anyone who makes it out alive will get answers to the questions the Gladers have been asking since they first arrived in the maze.", "poster_path": "/2zYfzA3TBwrMC8tfFbpiTLODde0.jpg", "release_date": "2018-01-10", "title": "Maze Runner: The Death Cure", "video": false, "vote_average": 7.0, "vote_count": 4393, "popularity": 24.242}, {"id": 568091, "video": false, "vote_count": 751, "vote_average": 6.6, "title": "Fractured", "release_date": "2019-09-22", "original_language": "en", "original_title": "Fractured", "genre_ids": [53], "backdrop_path": "/3UnUxeEAGoZhjIW8X1HpEuDPngV.jpg", "adult": false, "overview": "Driving cross-country, Ray and his wife and daughter stop at a highway rest area where his daughter falls and breaks her arm. After a frantic rush to the hospital and a clash with the check-in nurse, Ray is finally able to get her to a doctor. While the wife and daughter go downstairs for an MRI, Ray, exhausted, passes out in a chair in the lobby. Upon waking up, they have no record or knowledge of Ray's family ever being checked in.", "poster_path": "/paZNRffT3kUckuRFKbeDBuX1YcZ.jpg", "popularity": 19.226}, {"adult": false, "backdrop_path": "/eTxgy8eROB5Ly7ZXKLukQoF6tKl.jpg", "genre_ids": [27, 878], "id": 11549, "original_language": "en", "original_title": "Invasion of the Body Snatchers", "overview": "A small-town doctor learns that the population of his community is being replaced by emotionless alien duplicates.", "poster_path": "/4oj0G2Zr6tQKBDOzKaLuefdeBsG.jpg", "release_date": "1956-02-05", "title": "Invasion of the Body Snatchers", "video": false, "vote_average": 7.5, "vote_count": 472, "popularity": 24.989}, {"id": 10312, "video": false, "vote_count": 1874, "vote_average": 7.2, "title": "Patch Adams", "release_date": "1998-12-25", "original_language": "en", "original_title": "Patch Adams", "genre_ids": [35, 18], "backdrop_path": "/9CtyPVGETuWUlqnNswo7R98xGgU.jpg", "adult": false, "overview": "Patch Adams is a doctor who doesn't look, act or think like any doctor you've met before. For Patch, humour is the best medicine and he's willing to do just anything to make his patients laugh\u2014even if it means risking his own career.", "poster_path": "/2T0Mj8gkTXgciedz8W5nsnjCHig.jpg", "popularity": 10.19}, {"adult": false, "backdrop_path": "/8ybSuxeEkFoMKMY9lkzzC4tBaI6.jpg", "genre_ids": [18], "id": 334541, "original_language": "en", "original_title": "Manchester by the Sea", "overview": "After his older brother passes away, Lee Chandler is forced to return home to care for his 16-year-old nephew. There he is compelled to deal with a tragic past that separated him from his family and the community where he was born and raised.", "poster_path": "/e8daDzP0vFOnGyKmve95Yv0D0io.jpg", "release_date": "2016-11-18", "title": "Manchester by the Sea", "video": false, "vote_average": 7.5, "vote_count": 3528, "popularity": 15.119}, {"adult": false, "backdrop_path": "/xhstSJACJF7QiO4zAsqAPXE1PbQ.jpg", "genre_ids": [18], "id": 306819, "original_language": "en", "original_title": "The Danish Girl", "overview": "When Gerda Wegener asks her husband Einar to fill in as a portrait model, Einar discovers the person she's meant to be and begins living her life as Lili Elbe. Having realized her true self and with Gerda's love and support, Lili embarks on a groundbreaking journey as a transgender pioneer.", "poster_path": "/seWQ6UKCrhGH0eP7dFZvmIBQtKF.jpg", "release_date": "2015-11-27", "title": "The Danish Girl", "video": false, "vote_average": 7.7, "vote_count": 4034, "popularity": 14.603}, {"id": 4922, "video": false, "vote_count": 7506, "vote_average": 7.5, "title": "The Curious Case of Benjamin Button", "release_date": "2008-12-25", "original_language": "en", "original_title": "The Curious Case of Benjamin Button", "genre_ids": [18, 14, 9648, 53, 10749], "backdrop_path": "/u4izHlsHk8jwalt5m7E2uzP8q9E.jpg", "adult": false, "overview": "Born under unusual circumstances, Benjamin Button springs into being as an elderly man in a New Orleans nursing home and ages in reverse. Twelve years after his birth, he meets Daisy, a child who flits in and out of his life as she grows up to be a dancer. Though he has all sorts of unusual adventures over the course of his life, it is his relationship with Daisy, and the hope that they will come together at the right time, that drives Benjamin forward.", "poster_path": "/gjMR102u5hPdIAWX7O2rim8ZWgA.jpg", "popularity": 29.019}, {"id": 264644, "video": false, "vote_count": 6078, "vote_average": 8.1, "title": "Room", "release_date": "2015-10-16", "original_language": "en", "original_title": "Room", "genre_ids": [18, 53], "backdrop_path": "/6Fi9Ta7m0wdmve2B2XpDdysxAGd.jpg", "adult": false, "overview": "Jack is a young boy of 5 years old who has lived all his life in one room. He believes everything within it are the only real things in the world. But what will happen when his Ma suddenly tells him that there are other things outside of Room?", "poster_path": "/eqFckcHuFCT1FrzLOAvXBb4jHwq.jpg", "popularity": 18.572}, {"id": 88, "video": false, "vote_count": 3464, "vote_average": 7.3, "title": "Dirty Dancing", "release_date": "1987-08-21", "original_language": "en", "original_title": "Dirty Dancing", "genre_ids": [18, 10402, 10749], "backdrop_path": "/ngDmpFRzNGr9XMtKchhBZjt4DLH.jpg", "adult": false, "overview": "Expecting the usual tedium that accompanies a summer in the Catskills with her family, 17-year-old Frances 'Baby' Houseman is surprised to find herself stepping into the shoes of a professional hoofer\u2014and unexpectedly falling in love.", "poster_path": "/jFoktPxTtabZfh9JeDy3F78g9w7.jpg", "popularity": 23.93}, {"id": 287904, "video": false, "vote_count": 117, "vote_average": 5.7, "title": "The Last Face", "release_date": "2016-05-20", "original_language": "en", "original_title": "The Last Face", "genre_ids": [18], "backdrop_path": "/5HoPEjUhVIqf1x4xMTdjwnAKSuV.jpg", "adult": false, "overview": "Miguel, a heroic Spanish doctor, puts himself in harm's way to deliver medical treatment to the victims of military uprisings in Africa.", "poster_path": "/kx4qydBEPFbVvxbEXUm0jNX0vU4.jpg", "popularity": 18.976}, {"adult": false, "backdrop_path": "/wcyLZBgMlUXi4CQ8IVAO31rqNih.jpg", "genre_ids": [18, 36, 53], "id": 1852, "original_language": "en", "original_title": "World Trade Center", "overview": "On September, 11th 2001, after the terrorist attack to the World Trade Center, the building collapses over the rescue team from the Port Authority Police Department. Will Jimeno and his sergeant John McLoughlin are found alive trapped under the wreckage while the rescue teams fight to save them.", "poster_path": "/hYbKIxMGqm0YaxGBYW52NbkYNAx.jpg", "release_date": "2006-08-09", "title": "World Trade Center", "video": false, "vote_average": 6.1, "vote_count": 883, "popularity": 19.632}, {"id": 567, "video": false, "vote_count": 3303, "vote_average": 8.3, "title": "Rear Window", "release_date": "1954-08-01", "original_language": "en", "original_title": "Rear Window", "genre_ids": [18, 9648, 53], "backdrop_path": "/8hknli2ljweYPkdEgl33vtJBf2U.jpg", "adult": false, "overview": "Professional photographer L.B. 'Jeff' Jeffries breaks his leg while getting an action shot at an auto race. Confined to his New York apartment, he spends his time looking out of the rear window observing the neighbors. When he begins to suspect that a man across the courtyard may have murdered his wife, Jeff enlists the help of his high society fashion-consultant girlfriend and his visiting nurse to investigate.", "poster_path": "/oXbT7vlLmZ76kWoHe5XJYuyJUgp.jpg", "popularity": 25.05}, {"id": 297, "video": false, "vote_count": 2536, "vote_average": 7.1, "title": "Meet Joe Black", "release_date": "1998-11-12", "original_language": "en", "original_title": "Meet Joe Black", "genre_ids": [18, 14, 10749], "backdrop_path": "/xYI72IVRK7MTQpENTdt4L20Aa2I.jpg", "adult": false, "overview": "When the grim reaper comes to collect the soul of megamogul Bill Parrish, he arrives with a proposition: Host him for a \"vacation\" among the living in trade for a few more days of existence. Parrish agrees, and using the pseudonym Joe Black, Death begins taking part in Parrish's daily agenda and falls in love with the man's daughter. Yet when Black's holiday is over, so is Parrish's life.", "poster_path": "/s5maEXmEsVZYUx6dWc11GhL0zww.jpg", "popularity": 20.214}, {"id": 9567, "video": false, "vote_count": 1086, "vote_average": 6.5, "title": "Tears of the Sun", "release_date": "2003-03-07", "original_language": "en", "original_title": "Tears of the Sun", "genre_ids": [28, 18, 10752], "backdrop_path": "/ldqbcQaNc8RyTekKaeMoV4HBDQB.jpg", "adult": false, "overview": "Navy SEAL Lieutenant A.K. Waters and his elite squadron of tactical specialists are forced to choose between their duty and their humanity, between following orders by ignoring the conflict that surrounds them, or finding the courage to follow their conscience and protect a group of innocent refugees. When the democratic government of Nigeria collapses and the country is taken over by a ruthless military dictator, Waters, a fiercely loyal and hardened veteran is dispatched on a routine mission to retrieve a Doctors Without Borders physician.", "poster_path": "/qEe7aE4PgZCwnVoxKe7YsTm3Smh.jpg", "popularity": 16.609}], "total_pages": 57, "total_results": 1124}, "recommendations": {"page": 1, "results": [], "total_pages": 1, "total_results": 0}, "credits": {"cast": [{"cast_id": 0, "character": "Bill Januson", "credit_id": "535213210e0a265614002673", "gender": 2, "id": 2222, "name": "Beau Bridges", "order": 1, "profile_path": "/xv6sDCHxHvBgCK4y96H32kxgcdr.jpg"}, {"cast_id": 1, "character": "Willa Januson", "credit_id": "5352132b0e0a2655fe0026e1", "gender": 1, "id": 20089, "name": "Jena Malone", "order": 2, "profile_path": "/1qmkanVCFr3ZaXcxSXVDO8andb0.jpg"}, {"cast_id": 2, "character": "Robbie Januson", "credit_id": "535213380e0a26561d0026a1", "gender": 2, "id": 999940, "name": "Shelton Dane", "order": 3, "profile_path": null}, {"cast_id": 3, "character": "Caroline Millerton", "credit_id": "535213450e0a2656110027b4", "gender": 1, "id": 941822, "name": "Allegra Denton", "order": 4, "profile_path": null}, {"cast_id": 4, "character": "Dr. Michael Millerton", "credit_id": "535213520e0a2655fe0026ef", "gender": 2, "id": 52374, "name": "Bruce Davison", "order": 5, "profile_path": "/kYFBIffblcsbLMITDZYHhVf5c9f.jpg"}, {"cast_id": 5, "character": "Dee Millerton", "credit_id": "535213610e0a2656030027a0", "gender": 1, "id": 2506, "name": "Alice Krige", "order": 6, "profile_path": "/kUuVEsfZNxXdlK2JQdTEGcfkoY3.jpg"}, {"cast_id": 6, "character": "Gus", "credit_id": "5352136d0e0a26560e002723", "gender": 1, "id": 3910, "name": "Frances McDormand", "order": 7, "profile_path": "/AskZbUslI8HkkbdmwyAXHjmQqPg.jpg"}, {"cast_id": 7, "character": "Vincent", "credit_id": "535213730e0a26561400267a", "gender": 2, "id": 1229, "name": "Jeff Bridges", "order": 8, "profile_path": "/xms1RAY6q7Lzp7wNeRCB0kzhucn.jpg"}, {"cast_id": 11, "character": "Caroline", "credit_id": "546b6e52c3a3680d7f001f6b", "gender": 1, "id": 941822, "name": "Allegra Denton", "order": 9, "profile_path": null}, {"cast_id": 12, "character": "Kenny", "credit_id": "546b6e88c3a3680d6c001dcb", "gender": 2, "id": 166518, "name": "Dan Petronijevic", "order": 10, "profile_path": "/bmBLmBedIioTlc798i1GsdqMeRp.jpg"}], "crew": [{"credit_id": "546b6e3f92514101e2001f4d", "department": "Writing", "gender": 0, "id": 16205, "job": "Writer", "name": "Michael De Guzman", "profile_path": null}, {"credit_id": "5bf1b7d50e0a26165d00c1b9", "department": "Camera", "gender": 2, "id": 43422, "job": "Director of Photography", "name": "James R. Bagdonas", "profile_path": "/xiEqsNlhxP1JsYmxumluiqEjR99.jpg"}, {"credit_id": "546b6e3492514101f2001fc9", "department": "Writing", "gender": 2, "id": 51844, "job": "Writer", "name": "Peter Silverman", "profile_path": null}, {"credit_id": "535213850e0a26560600258a", "department": "Directing", "gender": 2, "id": 51845, "job": "Director", "name": "Martin Bell", "profile_path": "/iDcZNf1opK4l8FReBPEFCAGvIEH.jpg"}]}}