{"adult": false, "backdrop_path": "/oPrfnLXH7oUzcUK1ChWvX99aRSb.jpg", "belongs_to_collection": null, "budget": 0, "genres": [{"id": 53, "name": "Thriller"}, {"id": 28, "name": "Action"}, {"id": 18, "name": "Drama"}], "homepage": null, "id": 80350, "imdb_id": "tt0114706", "original_language": "en", "original_title": "Tough and Deadly", "overview": "A private eye helps an amnesiac CIA agent elude mobsters who don't want him to regain his memory of their drug operation.", "popularity": 3.051, "poster_path": "/2NZiMx5PhtEgKFRnVzGkIWFdYRZ.jpg", "production_companies": [{"id": 16636, "logo_path": null, "name": "Shapiro-Glickenhaus Entertainment", "origin_country": ""}], "production_countries": [{"iso_3166_1": "US", "name": "United States of America"}], "release_date": "1995-02-14", "revenue": 0, "runtime": 92, "spoken_languages": [{"iso_639_1": "en", "name": "English"}], "status": "Released", "tagline": "Experts with fists and guns and not afraid to use them.", "title": "Tough and Deadly", "video": false, "vote_average": 5.9, "vote_count": 8, "keywords": {"keywords": [{"id": 591, "name": "cia"}, {"id": 1453, "name": "amnesia"}, {"id": 3391, "name": "drug smuggle"}]}, "similar": {"page": 1, "results": [{"id": 77, "video": false, "vote_count": 8682, "vote_average": 8.2, "title": "Memento", "release_date": "2000-10-11", "original_language": "en", "original_title": "Memento", "genre_ids": [9648, 53], "backdrop_path": "/q2CtXYjp9IlnfBcPktNkBPsuAEO.jpg", "adult": false, "overview": "Leonard Shelby is tracking down the man who raped and murdered his wife. The difficulty of locating his wife's killer, however, is compounded by the fact that he suffers from a rare, untreatable form of short-term memory loss. Although he can recall details of life before his accident, Leonard cannot remember what happened fifteen minutes ago, where he's going, or why.", "poster_path": "/fQMSaP88cf1nz4qwuNEEFtazuDM.jpg", "popularity": 23.818}, {"id": 324668, "video": false, "vote_count": 3841, "vote_average": 6.2, "title": "Jason Bourne", "release_date": "2016-07-27", "original_language": "en", "original_title": "Jason Bourne", "genre_ids": [28, 53], "backdrop_path": "/dtFiuavnsnl0krJAeSmGAOFAhw2.jpg", "adult": false, "overview": "The most dangerous former operative of the CIA is drawn out of hiding to uncover hidden truths about his past.", "poster_path": "/lFSSLTlFozwpaGlO31OoUeirBgQ.jpg", "popularity": 21.184}, {"id": 2501, "video": false, "vote_count": 5865, "vote_average": 7.4, "title": "The Bourne Identity", "release_date": "2002-06-14", "original_language": "en", "original_title": "The Bourne Identity", "genre_ids": [28, 18, 9648, 53], "backdrop_path": "/2Fr1vqBiDn8xRJM9elcplzHctTN.jpg", "adult": false, "overview": "Wounded to the brink of death and suffering from amnesia, Jason Bourne is rescued at sea by a fisherman. With nothing to go on but a Swiss bank account number, he starts to reconstruct his life, but finds that many people he encounters want him dead. However, Bourne realizes that he has the combat and mental skills of a world-class spy\u2014but who does he work for?", "poster_path": "/bXQIL36VQdzJ69lcjQR1WQzJqQR.jpg", "popularity": 25.563}, {"id": 484641, "video": false, "vote_count": 781, "vote_average": 6.5, "title": "Anna", "release_date": "2019-06-19", "original_language": "fr", "original_title": "Anna", "genre_ids": [28, 53], "backdrop_path": "/pIL9e5cN6RNugDCCLwn3stfb9HE.jpg", "adult": false, "overview": "Beneath Anna Poliatova's striking beauty lies a secret that will unleash her indelible strength and skill to become one of the world's most feared government assassins.", "poster_path": "/oZcISsiWY4LiKERTV2alu8RWYdq.jpg", "popularity": 39.118}, {"id": 72570, "video": false, "vote_count": 2649, "vote_average": 7.1, "title": "The Vow", "release_date": "2012-02-05", "original_language": "en", "original_title": "The Vow", "genre_ids": [18, 10749], "backdrop_path": "/cfp28CJU7Xak3MEjjIMkZLkTtIW.jpg", "adult": false, "overview": "Happy young married couple Paige and Leo are, well, happy. Then a car accident puts Paige into a life-threatening coma. Upon awakening she has lost the previous five years of memories, including those of her beloved Leo, her wedding, a confusing relationship with her parents, or the ending of her relationship with her ex-fiance. Despite these complications, Leo endeavors to win her heart again and rebuild their marriage.", "poster_path": "/qHNjcjKa6VHJsa0Eu0DHl2BaYw3.jpg", "popularity": 21.774}, {"adult": false, "backdrop_path": "/iVk4mVKwNE66JbBcoDwcYFvuUXM.jpg", "genre_ids": [18, 53], "id": 68734, "original_language": "en", "original_title": "Argo", "overview": "As the Iranian revolution reaches a boiling point, a CIA 'exfiltration' specialist concocts a risky plan to free six Americans who have found shelter at the home of the Canadian ambassador.", "poster_path": "/oai3xLBQHpIh18VJdRCcL7D0Yg0.jpg", "release_date": "2012-10-11", "title": "Argo", "video": false, "vote_average": 7.2, "vote_count": 5536, "popularity": 21.516}, {"id": 1903, "video": false, "vote_count": 2234, "vote_average": 6.8, "title": "Vanilla Sky", "release_date": "2001-12-10", "original_language": "en", "original_title": "Vanilla Sky", "genre_ids": [18, 14, 878, 53, 10749], "backdrop_path": "/6XwX3HzKhlBUbTy2qZx0THQOu2T.jpg", "adult": false, "overview": "David Aames has it all: wealth, good looks and gorgeous women on his arm. But just as he begins falling for the warmhearted Sofia, his face is horribly disfigured in a car accident. That's just the beginning of his troubles as the lines between illusion and reality, between life and death, are blurred.", "poster_path": "/ujMy9P4VczTW9YSpAM31uqdOMpz.jpg", "popularity": 14.632}, {"adult": false, "backdrop_path": "/8lgud5OJrjwFHbZPHtHjvs3mj2M.jpg", "genre_ids": [10749, 18], "id": 11364, "original_language": "en", "original_title": "Regarding Henry", "overview": "Respected lawyer, Henry Turner survives a convenience-store shooting only to find he has lost his memory, and has serious speech and mobility issues. After also losing his job\u2014where he no longer 'fits in'\u2014his loving wife and daughter give him all their love and support.", "poster_path": "/5QPj8QjOmPouGpikqs0T5suoccK.jpg", "release_date": "1991-07-10", "title": "Regarding Henry", "video": false, "vote_average": 6.6, "vote_count": 332, "popularity": 10.24}, {"id": 1247, "video": false, "vote_count": 597, "vote_average": 6.4, "title": "The Good Shepherd", "release_date": "2006-12-11", "original_language": "en", "original_title": "The Good Shepherd", "genre_ids": [18, 36, 53], "backdrop_path": "/3qvtPTzdeV5cJFBpJO56KFAkF4d.jpg", "adult": false, "overview": "Edward Wilson, the only witness to his father's suicide and member of the Skull and Bones Society while a student at Yale, is a morally upright young man who values honor and discretion, qualities that help him to be recruited for a career in the newly founded OSS. His dedication to his work does not come without a price though, leading him to sacrifice his ideals and eventually his family.", "poster_path": "/s2RYkRXrjUIyOlmzym37kpLTKRz.jpg", "popularity": 15.358}, {"adult": false, "backdrop_path": "/atDDJBJ9eUeXbySh6wFbUBIQlQ1.jpg", "genre_ids": [27, 53, 35], "id": 11284, "original_language": "en", "original_title": "Freddy's Dead: The Final Nightmare", "overview": "Just when you thought it was safe to sleep, Freddy Krueger returns in this sixth installment of the Nightmare on Elm Street films, as psychologist Maggie Burroughs, tormented by recurring nightmares, meets a patient with the same horrific dreams. Their quest for answers leads to a certain house on Elm Street -- where the nightmares become reality.", "poster_path": "/m4IFNmheHcjbLsVWbUq9TIpWL5S.jpg", "release_date": "1991-09-05", "title": "Freddy's Dead: The Final Nightmare", "video": false, "vote_average": 5.2, "vote_count": 627, "popularity": 17.882}, {"id": 254904, "video": false, "vote_count": 931, "vote_average": 6.1, "title": "The November Man", "release_date": "2014-08-27", "original_language": "en", "original_title": "The November Man", "genre_ids": [28, 80, 53], "backdrop_path": "/hSvpWAVXC781u5rOgI44799p2WL.jpg", "adult": false, "overview": "An ex- CIA operative is brought back in on a very personal mission and finds himself pitted against his former pupil in a deadly game involving high level CIA officials and the Russian president-elect.", "poster_path": "/lcg1bkriMVvc8m0jz5zk0yvzVTA.jpg", "popularity": 20.793}, {"id": 1051, "video": false, "vote_count": 854, "vote_average": 7.6, "title": "The French Connection", "release_date": "1971-10-09", "original_language": "en", "original_title": "The French Connection", "genre_ids": [28, 80, 53], "backdrop_path": "/hPlzjKzbO8KuCerm1lOxDtUjlHD.jpg", "adult": false, "overview": "Tough narcotics detective 'Popeye' Doyle is in hot pursuit of a suave French drug dealer who may be the key to a huge heroin-smuggling operation.", "poster_path": "/5XSGvIKl2yPvOkieFjc3rzLw7x0.jpg", "popularity": 14.703}, {"id": 38, "video": false, "vote_count": 8439, "vote_average": 8.1, "title": "Eternal Sunshine of the Spotless Mind", "release_date": "2004-03-19", "original_language": "en", "original_title": "Eternal Sunshine of the Spotless Mind", "genre_ids": [18, 878, 10749], "backdrop_path": "/1dXTsaFxHoF9cas08UjAqE8NqOW.jpg", "adult": false, "overview": "Joel Barish, heartbroken that his girlfriend underwent a procedure to erase him from her memory, decides to do the same. However, as he watches his memories of her fade away, he realises that he still loves her, and may be too late to correct his mistake.", "poster_path": "/7y3eYvTsGjxPYDtSnumCLIMDkrV.jpg", "popularity": 22.167}, {"id": 204922, "video": false, "vote_count": 1211, "vote_average": 6.5, "title": "Before I Go to Sleep", "release_date": "2014-09-03", "original_language": "en", "original_title": "Before I Go to Sleep", "genre_ids": [9648, 53], "backdrop_path": "/oP6t2PvX8DFcGyyCcWFQSP6s25W.jpg", "adult": false, "overview": "A woman wakes up every day, remembering nothing as a result of a traumatic accident in her past. One day, new terrifying truths emerge that force her to question everyone around her.", "poster_path": "/3UG2Pb122c7Va8MBtr1OHRB1YPh.jpg", "popularity": 23.113}, {"id": 300671, "video": false, "vote_count": 1700, "vote_average": 7.1, "title": "13 Hours: The Secret Soldiers of Benghazi", "release_date": "2016-01-13", "original_language": "en", "original_title": "13 Hours: The Secret Soldiers of Benghazi", "genre_ids": [28, 18, 36, 53, 10752], "backdrop_path": "/hY8myWhjSOUeeiPskhOfwwgaCwc.jpg", "adult": false, "overview": "An American Ambassador is killed during an attack at a U.S. compound in Libya as a security team struggles to make sense out of the chaos.", "poster_path": "/4gpW4MkRI0BB17GHOJzXq0WamDP.jpg", "popularity": 21.078}, {"id": 4552, "video": false, "vote_count": 496, "vote_average": 7.1, "title": "A Tale of Two Sisters", "release_date": "2003-06-13", "original_language": "ko", "original_title": "\uc7a5\ud654, \ud64d\ub828", "genre_ids": [18, 27, 9648], "backdrop_path": "/6iTvLcCrokveCoVynUobXm8n3uw.jpg", "adult": false, "overview": "A recently released patient from a mental institution returns home with her sister, only to face disturbing events between her stepmother and the ghosts haunting their house- all of which are connected to a dark past in the family's history.", "poster_path": "/8fmnXoIw3e3J7YSr8bzcPica4Dk.jpg", "popularity": 21.191}, {"id": 400535, "video": false, "vote_count": 1615, "vote_average": 6.7, "title": "Sicario: Day of the Soldado", "release_date": "2018-06-27", "original_language": "en", "original_title": "Sicario: Day of the Soldado", "genre_ids": [28, 80, 18, 53], "backdrop_path": "/13VjjUeJ6mcDUB36XRu4YFpYNSm.jpg", "adult": false, "overview": "Agent Matt Graver teams up with operative Alejandro Gillick to prevent Mexican drug cartels from smuggling terrorists across the United States border.", "poster_path": "/msqWSQkU403cQKjQHnWLnugv7EY.jpg", "popularity": 29.236}, {"id": 238713, "video": false, "vote_count": 4195, "vote_average": 6.8, "title": "Spy", "release_date": "2015-05-06", "original_language": "en", "original_title": "Spy", "genre_ids": [28, 35, 80], "backdrop_path": "/x5F6AIyqCjRMwqmF8NR98kU4VzH.jpg", "adult": false, "overview": "A desk-bound CIA analyst volunteers to go undercover to infiltrate the world of a deadly arms dealer, and prevent diabolical global disaster.", "poster_path": "/gCBw0AQDhlo0bNetkjsSRWzrxpW.jpg", "popularity": 17.209}, {"id": 1900, "video": false, "vote_count": 1100, "vote_average": 7.1, "title": "Traffic", "release_date": "2000-12-27", "original_language": "en", "original_title": "Traffic", "genre_ids": [80, 18, 53], "backdrop_path": "/ivAC8eZkzKoTf8EWQh7pkFD0AGS.jpg", "adult": false, "overview": "An exploration of the United States of America's war on drugs from multiple perspectives. For the new head of the Office of National Drug Control Policy, the war becomes personal when he discovers his well-educated daughter is abusing cocaine within their comfortable suburban home. In Mexico, a flawed, but noble policeman agrees to testify against a powerful general in league with a cartel, and in San Diego, a drug kingpin's sheltered trophy wife must learn her husband's ruthless business after he is arrested, endangering her luxurious lifestyle.", "poster_path": "/9qPLd5hdXIlrAyknVWK38eZyUMo.jpg", "popularity": 13.093}, {"adult": false, "backdrop_path": "/3amJMLyjx0rDbwhnKNG8d6gzDSV.jpg", "genre_ids": [53, 18], "id": 296098, "original_language": "en", "original_title": "Bridge of Spies", "overview": "During the Cold War, the Soviet Union captures U.S. pilot Francis Gary Powers after shooting down his U-2 spy plane. Sentenced to 10 years in prison, Powers' only hope is New York lawyer James Donovan, recruited by a CIA operative to negotiate his release. Donovan boards a plane to Berlin, hoping to win the young man's freedom through a prisoner exchange. If all goes well, the Russians would get Rudolf Abel, the convicted spy who Donovan defended in court.", "poster_path": "/xPCNA8zJxyyFKTj47QpvkXHukzB.jpg", "release_date": "2015-10-15", "title": "Bridge of Spies", "video": false, "vote_average": 7.2, "vote_count": 4664, "popularity": 19.268}], "total_pages": 29, "total_results": 578}, "recommendations": {"page": 1, "results": [{"adult": false, "backdrop_path": "/iKXW0vHT799Ro2ppfEi8ebAdj6J.jpg", "genre_ids": [28, 18], "id": 206612, "original_language": "en", "original_title": "Marked Man", "overview": "A jailed auto mechanic must run for his life after he witnesses the murder of a fellow inmate by two prison guards.", "poster_path": "/xRPeFaW2YjZn4RNmxOjHGC55EAX.jpg", "release_date": "1996-01-01", "title": "Marked Man", "video": false, "vote_average": 6.2, "vote_count": 3, "popularity": 3.725}, {"id": 30443, "video": false, "vote_count": 11, "vote_average": 5.6, "title": "Back in Action", "release_date": "1993-01-01", "original_language": "en", "original_title": "Back in Action", "genre_ids": [28, 80], "backdrop_path": "/5OKo9LcOmUWd2fyHeH2jNPKYRdR.jpg", "adult": false, "overview": "Two men have different motivations but the same goal when they team up and mount an assault on a powerful drug gang.", "poster_path": "/5jurCt1kmGPMKS0JjFm1CzZvsbK.jpg", "popularity": 4.063}, {"adult": false, "backdrop_path": null, "genre_ids": [], "id": 53061, "original_language": "en", "original_title": "The Expert", "overview": "It was a brutal murder that sent deranged psychopath Martin Kagan to prison. It was a naive deputy warden that granted him a stay of execution. Now, the police department's tactical defence instructor, John Lomax, wants revenge for his beloved sister's death.", "poster_path": "/1E6MbiCNVE5Aq3YuwyrKRF7p240.jpg", "release_date": "1995-08-15", "title": "The Expert", "video": false, "vote_average": 5.6, "vote_count": 5, "popularity": 2.977}, {"adult": false, "backdrop_path": "/kWEyXQspz56VvDn48bHnEcEsZYn.jpg", "genre_ids": [28, 10752], "id": 86251, "original_language": "it", "original_title": "Strike Commando", "overview": "While operating behind enemy lines, Sgt. Mike Ransom learns of a Russian presence in North Vietnam. Ordered to obtain proof of this discovery, Ransom returns to enemy territory but is captured and subjected to a variety of tortures. Eventually he escapes to continue his mission despite being hampered by a traitor in his own ranks.", "poster_path": "/yJ0fEQrDczgJ8519JCL3HfZmzL0.jpg", "release_date": "1987-08-26", "title": "Strike Commando", "video": false, "vote_average": 5.6, "vote_count": 10, "popularity": 2.54}, {"id": 80380, "video": false, "vote_count": 8, "vote_average": 4.8, "title": "Talons of the Eagle", "release_date": "1992-11-06", "original_language": "fr", "original_title": "Talons of the Eagle", "genre_ids": [28, 53], "backdrop_path": "/8qkNKBkEy8BDTcRIdHzU4ZkBpaG.jpg", "adult": false, "overview": "After 3 DEA agents are killed by crime boss Mr. Li (Hong), the DEA reluctantly calls in New York cop and martial arts expert Tyler Wilson (Blanks) and sends him undercover on assignment to Toronto to team up with Canadian vice cop Michael Reeds (Merhi). Wilson and Reeds must infiltrate Li's gang, so enter a martial arts tournament that Mr Li is known to attend to recruit talent.", "poster_path": "/tpKVe1DQgi2J1RCZz8xMfBguZh7.jpg", "popularity": 3.271}, {"adult": false, "backdrop_path": "/1YMXFEbTn3Q3dPVyrFSncDIDe4c.jpg", "genre_ids": [28, 12, 27], "id": 80653, "original_language": "it", "original_title": "Wild Beasts - Belve feroci", "overview": "PCP is unexplainably released into the Frankfurt water supply and sends the zoo inhabitants crazy. One evening after a malfunction of zoo security the gonzo critters rampage through the city eating and killing whatever they fancy, wreaking a night of bloody terror. It's up to regular Italian-trash whipping girl Lorraine De Selle and obnoxious Super Mario lookalike zookeeper John Aldrich to sort it out.", "poster_path": "/8aELvCFe3gBDACnXMX4uO1LL9mc.jpg", "release_date": "1984-02-15", "title": "WIld Beasts", "video": false, "vote_average": 5.3, "vote_count": 16, "popularity": 3.322}, {"id": 34750, "video": false, "vote_count": 15, "vote_average": 5.2, "title": "Raw Justice", "release_date": "1994-08-17", "original_language": "en", "original_title": "Raw Justice", "genre_ids": [28, 53], "backdrop_path": "/wiwI6QPuKwkMtQRNWjaYLpXSFiu.jpg", "adult": false, "overview": "The mayor of a small town hires a bounty hunter to find his daughter's killer, but it turns out to be a very dangerous job.", "poster_path": "/tijFjcSlOMuvb07NKEgnYi7JOL9.jpg", "popularity": 7.198}, {"adult": false, "backdrop_path": "/h5ii4h7cltHwP5BOA11QijfTXMD.jpg", "genre_ids": [28, 53], "id": 85673, "original_language": "en", "original_title": "TNT Jackson", "overview": "A woman encounters thugs and drug dealers after traveling to Hong Kong to search for her missing brother.", "poster_path": "/cGceZGj6w8ItCh0NSPr9FGPahzB.jpg", "release_date": "1974-06-08", "title": "TNT Jackson", "video": false, "vote_average": 5.4, "vote_count": 14, "popularity": 4.588}, {"adult": false, "backdrop_path": "/7Ue4YVczexh0BGvZLboBNB0ofwa.jpg", "genre_ids": [28, 53], "id": 81573, "original_language": "fr", "original_title": "Cyclone", "overview": "Rick has developed the ultimate motorcycle, the Cyclone. It is a $5 million bike equipped with rocket launchers and laser guns. Rick meets his fate and it is up to his girlfriend Teri to keep the Cyclone from falling into the wrong hands. Teri can trust no one but herself.", "poster_path": "/q2nCXufnqNYvCH5z4llu2UenKaS.jpg", "release_date": "1987-06-05", "title": "Cyclone", "video": false, "vote_average": 3.9, "vote_count": 15, "popularity": 5.768}, {"adult": false, "backdrop_path": "/i1PzCulnko45LyrKS98jOsTo1MS.jpg", "genre_ids": [28, 878], "id": 56172, "original_language": "fr", "original_title": "TC 2000", "overview": "Somewhere in the future the environmental overkill had come. Many people had died. The rich were able to build the underworld, the poor had to stay on the surface building gangs to survive. Jason Storm, an underworld guard gets knowledge of a conspiracy to kill all people on the surface. He needs to flee to the surface, and wins Sumai, a respected martial arts master, as his ally to stop the dirty plot.", "poster_path": "/2UAVom3DLwxQz0FH5iI5rPFWxRM.jpg", "release_date": "1993-08-18", "title": "TC 2000", "video": false, "vote_average": 5.0, "vote_count": 16, "popularity": 3.473}, {"adult": false, "backdrop_path": "/iiuwPIaqaCKWtpctCINhiBvxjs3.jpg", "genre_ids": [12, 18, 27], "id": 28676, "original_language": "it", "original_title": "Schiave bianche: violenza in Amazzonia", "overview": "A young woman seeks vengeance and finds love when her parents are killed in the Amazon and she is taken prisoner by an indigenous tribe of headhunters.", "poster_path": "/3JyXxD36qG4fDMhLX3VT1OqSVMV.jpg", "release_date": "1985-08-09", "title": "Amazonia: The Catherine Miles Story", "video": false, "vote_average": 4.5, "vote_count": 24, "popularity": 6.765}, {"id": 40661, "video": false, "vote_count": 27, "vote_average": 3.8, "title": "Kickboxer 5: The Redemption", "release_date": "1995-08-01", "original_language": "en", "original_title": "Kickboxer 5: The Redemption", "genre_ids": [28, 18, 53], "backdrop_path": "/nleDZjAoAbuYqbnO9jIidON8Trh.jpg", "adult": false, "overview": "Kickboxing champion Matt Reeves witnesses the murder of his friend Johnny. While investigating the crime, he learns that a Mr. Negaal in South Africa has founded a new kickboxing association and does not leave international champions much of a chance. Johnny had to pay with his life when he did not want to join. Neegal seems to kill everybody who is in his way especially David Sloan from the previous Kickboxer films. Matt is on his own now, but suddenly finds an unexpected ally.", "poster_path": "/tsmeaEPOH9Ru3guAmrRk7aaONfi.jpg", "popularity": 7.311}, {"adult": false, "backdrop_path": "/mGhRXTXqkbvNkiatILMJNM0LifC.jpg", "genre_ids": [18, 10402, 10749], "id": 22627, "original_language": "en", "original_title": "Pure Country", "overview": "Dusty Chandler (Strait) is a super star in the country music world, but his shows have the style of a '70s rock concert. One day he takes a walk - out of his overdone concerts to find his real country roots. He's helped and hindered by friends and staff, but pushes on in his search for a real music style as well as a real romance.", "poster_path": "/n3kkUVWqqr4mrO3PQVx5yWpehdO.jpg", "release_date": "1992-10-23", "title": "Pure Country", "video": false, "vote_average": 7.2, "vote_count": 32, "popularity": 7.046}], "total_pages": 1, "total_results": 13}, "credits": {"cast": [{"cast_id": 1001, "character": "Elmo Freech", "credit_id": "52fe47ba9251416c91073d21", "gender": 2, "id": 44240, "name": "Roddy Piper", "order": 0, "profile_path": "/e5u4cqQS1X0ow9PJdTECIGgm0Ii.jpg"}, {"cast_id": 1002, "character": "John Portland", "credit_id": "52fe47ba9251416c91073d25", "gender": 2, "id": 128191, "name": "Billy Blanks", "order": 1, "profile_path": "/g9HvNvwPQrTKcbWDAkHXdGmviZz.jpg"}, {"cast_id": 1003, "character": "Agent Norton", "credit_id": "52fe47ba9251416c91073d29", "gender": 2, "id": 66055, "name": "Richard Norton", "order": 2, "profile_path": "/yrNyqJ9vhTdtgKhlGhPMtEOySLy.jpg"}, {"cast_id": 1005, "character": "Winston Briggers", "credit_id": "52fe47ba9251416c91073d31", "gender": 2, "id": 14852, "name": "James Karen", "order": 4, "profile_path": "/1w2g6IbGpDsEnze2QubIGFKlZQt.jpg"}, {"cast_id": 1007, "character": "Cowboy", "credit_id": "5457e593c3a3683993000047", "gender": 2, "id": 62312, "name": "Gary Kasper", "order": 5, "profile_path": "/6FDArv288QpZRXZa8PB3mMaUSFi.jpg"}, {"cast_id": 1008, "character": "William Helms", "credit_id": "57b301be9251414e4d004d14", "gender": 0, "id": 1219474, "name": "Charles Kahlenberg", "order": 6, "profile_path": null}, {"cast_id": 1009, "character": "Milan", "credit_id": "58f1a80bc3a3682ea7001eea", "gender": 2, "id": 77150, "name": "Sal Landi", "order": 7, "profile_path": "/vbPLp5EYHK2gYmHjXCOaR0TznA0.jpg"}, {"cast_id": 1010, "character": "Trekkler", "credit_id": "58f1a8259251412fb5001f79", "gender": 2, "id": 56853, "name": "Phil Morris", "order": 8, "profile_path": "/k4qdKVAiWQ9lhttUviatyRBFWdO.jpg"}, {"cast_id": 1011, "character": "Maureen Peak", "credit_id": "58f1a82f9251412ff4001f28", "gender": 1, "id": 1541696, "name": "Lisa Stahl", "order": 9, "profile_path": "/eR25MIaSNsGFovIHeJNjVaT0izR.jpg"}, {"cast_id": 1012, "character": "Carl Weldon (as Brent Van Hoffman)", "credit_id": "58f1a8459251412fa9001f9e", "gender": 2, "id": 57358, "name": "Brant von Hoffman", "order": 10, "profile_path": "/hbHlNyKhCwAZ6We866OBN86Ibgv.jpg"}, {"cast_id": 1013, "character": "Prostitute", "credit_id": "58f1a84e9251412fc7001f8e", "gender": 1, "id": 104609, "name": "Lisa Comshaw", "order": 11, "profile_path": "/982CRJ8jOkxJlZTjibj5VBFrfbQ.jpg"}, {"cast_id": 1014, "character": "Briggers' Man", "credit_id": "58f1a85fc3a3682ede001ede", "gender": 2, "id": 1297931, "name": "Christopher Kriesa", "order": 12, "profile_path": "/x63NKyzA7smylyHk18T4HZSMRS7.jpg"}, {"cast_id": 1015, "character": "Alpha", "credit_id": "58f1a870c3a3682ede001ee4", "gender": 1, "id": 19257, "name": "Janet Jones", "order": 13, "profile_path": "/vtSxLHwrv0GHWFoVuVePrluMOXM.jpg"}], "crew": [{"credit_id": "52fe47ba9251416c91073d1d", "department": "Directing", "gender": 0, "id": 589306, "job": "Director", "name": "Steve Cohen", "profile_path": null}, {"credit_id": "5457e5770e0a26115b000032", "department": "Writing", "gender": 0, "id": 1381413, "job": "Writer", "name": "Otto C. Pozzo", "profile_path": null}]}}