{"adult": false, "backdrop_path": null, "belongs_to_collection": null, "budget": 0, "genres": [{"id": 28, "name": "Action"}, {"id": 12, "name": "Adventure"}, {"id": 53, "name": "Thriller"}], "homepage": null, "id": 80669, "imdb_id": "tt0076395", "original_language": "en", "original_title": "Missile X - Geheimauftrag Neutronenbombe", "overview": "An American intelligence agent travels to pre-Islamic Revolution Iran to try to thwart a power-mad European baron from using a stolen cruise missile to destroy an unspecific target in that country.", "popularity": 1.985, "poster_path": "/rLDEKottcpSi9yXCgs3RRuS6ymZ.jpg", "production_companies": [{"id": 1328, "logo_path": null, "name": "Eichberg-Film", "origin_country": "DE"}, {"id": 42120, "logo_path": null, "name": "Cine Lu.Ce.", "origin_country": ""}, {"id": 7863, "logo_path": null, "name": "Mundial Film", "origin_country": ""}, {"id": 119115, "logo_path": null, "name": "F.P.D.C.", "origin_country": ""}, {"id": 8938, "logo_path": null, "name": "Noble Production Inc.", "origin_country": ""}], "production_countries": [{"iso_3166_1": "ES", "name": "Spain"}, {"iso_3166_1": "DE", "name": "Germany"}, {"iso_3166_1": "IT", "name": "Italy"}, {"iso_3166_1": "IR", "name": "Iran"}, {"iso_3166_1": "US", "name": "United States of America"}], "release_date": "1978-01-01", "revenue": 0, "runtime": 88, "spoken_languages": [{"iso_639_1": "en", "name": "English"}, {"iso_639_1": "ru", "name": "P\u0443\u0441\u0441\u043a\u0438\u0439"}], "status": "Released", "tagline": "", "title": "Missile X: The Neutron Bomb Incident", "video": false, "vote_average": 3.7, "vote_count": 3, "keywords": {"keywords": [{"id": 258, "name": "bomb"}, {"id": 470, "name": "spy"}, {"id": 585, "name": "casino"}, {"id": 1422, "name": "boat"}, {"id": 11134, "name": "espionage"}]}, "similar": {"page": 1, "results": [{"adult": false, "backdrop_path": "/bqpGceqQuHbtnjEqUG9acSYIVIh.jpg", "genre_ids": [18, 53, 9648], "id": 49517, "original_language": "en", "original_title": "Tinker Tailor Soldier Spy", "overview": "In the bleak days of the Cold War, espionage veteran George Smiley is forced from semi-retirement to uncover a Soviet mole within his former colleagues at the heart of MI6.", "poster_path": "/2N3P730TYXEcNL0BO8WBuMc6yJz.jpg", "release_date": "2011-09-16", "title": "Tinker Tailor Soldier Spy", "video": false, "vote_average": 6.7, "vote_count": 1545, "popularity": 18.392}, {"adult": false, "backdrop_path": "/9QcYwm5af4JaUSOyuysVEYOyEXn.jpg", "genre_ids": [12, 28, 53], "id": 646, "original_language": "en", "original_title": "Dr. No", "overview": "In the film that launched the James Bond saga, Agent 007 battles mysterious Dr. No, a scientific genius bent on destroying the U.S. space program. As the countdown to disaster begins, Bond must go to Jamaica, where he encounters beautiful Honey Ryder, to confront a megalomaniacal villain in his massive island headquarters.", "poster_path": "/gRdfLVVf6FheOw6mw6wOsKhZG1l.jpg", "release_date": "1962-10-04", "title": "Dr. No", "video": false, "vote_average": 7.0, "vote_count": 1837, "popularity": 31.291}, {"adult": false, "backdrop_path": "/tjQHn6xW5BiB1RJ3OZIPDzIOSkF.jpg", "genre_ids": [12, 28, 53], "id": 954, "original_language": "en", "original_title": "Mission: Impossible", "overview": "When Ethan Hunt, the leader of a crack espionage team whose perilous operation has gone awry with no explanation, discovers that a mole has penetrated the CIA, he's surprised to learn that he's the No. 1 suspect. To clear his name, Hunt now must ferret out the real double agent and, in the process, even the score.", "poster_path": "/1PVKS17pIBFsIhgFws2uagPDNLW.jpg", "release_date": "1996-05-22", "title": "Mission: Impossible", "video": false, "vote_average": 6.9, "vote_count": 5216, "popularity": 25.737}, {"adult": false, "backdrop_path": "/1N4CeQyy3kh1pqmTGvMU090sCvh.jpg", "genre_ids": [12, 28, 53], "id": 253, "original_language": "en", "original_title": "Live and Let Die", "overview": "James Bond must investigate a mysterious murder case of a British agent in New Orleans. Soon he finds himself up against a gangster boss named Mr. Big.", "poster_path": "/p34OScaro2KdISrT4EMfeh1aS0E.jpg", "release_date": "1973-07-05", "title": "Live and Let Die", "video": false, "vote_average": 6.5, "vote_count": 992, "popularity": 18.177}, {"adult": false, "backdrop_path": "/vHLsgsvLtFWDlhBigKDRsYIC1p6.jpg", "genre_ids": [28, 9648, 53], "id": 27576, "original_language": "en", "original_title": "Salt", "overview": "As a CIA officer, Evelyn Salt swore an oath to duty, honor and country. Her loyalty will be tested when a defector accuses her of being a Russian spy. Salt goes on the run, using all her skills and years of experience as a covert operative to elude capture. Salt's efforts to prove her innocence only serve to cast doubt on her motives, as the hunt to uncover the truth behind her identity continues and the question remains: \"Who is Salt?\"", "poster_path": "/956xMjH4sPoqimqoLOP6AI19mjm.jpg", "release_date": "2010-07-21", "title": "Salt", "video": false, "vote_average": 6.3, "vote_count": 3533, "popularity": 20.188}, {"id": 213, "video": false, "vote_count": 2129, "vote_average": 8.0, "title": "North by Northwest", "release_date": "1959-07-07", "original_language": "en", "original_title": "North by Northwest", "genre_ids": [9648, 53], "backdrop_path": "/AplR1QRswlXiM65GoifX8sDadME.jpg", "adult": false, "overview": "Advertising man Roger Thornhill is mistaken for a spy, triggering a deadly cross-country chase.", "poster_path": "/aNV789h3oHm2pTHK5Bdq5RuiumZ.jpg", "popularity": 20.897}, {"id": 341013, "video": false, "vote_count": 4063, "vote_average": 6.3, "title": "Atomic Blonde", "release_date": "2017-07-26", "original_language": "en", "original_title": "Atomic Blonde", "genre_ids": [28, 9648, 53], "backdrop_path": "/g3hni0i9iAQ13jDGOFWavJFlojc.jpg", "adult": false, "overview": "An undercover MI6 agent is sent to Berlin during the Cold War to investigate the murder of a fellow agent and recover a missing list of double agents.", "poster_path": "/kV9R5h0Yct1kR8Hf8sJ1nX0Vz4x.jpg", "popularity": 28.364}, {"adult": false, "backdrop_path": "/oS1Ck6sbBnIReyactTdFlFF2Wkh.jpg", "genre_ids": [35, 28, 12], "id": 203801, "original_language": "en", "original_title": "The Man from U.N.C.L.E.", "overview": "At the height of the Cold War, a mysterious criminal organization plans to use nuclear weapons and technology to upset the fragile balance of power between the United States and Soviet Union. CIA agent Napoleon Solo and KGB agent Illya Kuryakin are forced to put aside their hostilities and work together to stop the evildoers in their tracks. The duo's only lead is the daughter of a missing German scientist, whom they must find soon to prevent a global catastrophe.", "poster_path": "/i9P3FU8z2Sd7jYRx6l1Iby0zP0o.jpg", "release_date": "2015-08-13", "title": "The Man from U.N.C.L.E.", "video": false, "vote_average": 7.1, "vote_count": 3844, "popularity": 20.194}, {"id": 47971, "video": false, "vote_count": 2661, "vote_average": 5.6, "title": "xXx: Return of Xander Cage", "release_date": "2017-01-13", "original_language": "en", "original_title": "xXx: Return of Xander Cage", "genre_ids": [28, 12, 80], "backdrop_path": "/zv4acOMTPoplVLKo4FaoqAseSDx.jpg", "adult": false, "overview": "Extreme athlete turned government operative Xander Cage comes out of self-imposed exile, thought to be long dead, and is set on a collision course with deadly alpha warrior Xiang and his team in a race to recover a sinister and seemingly unstoppable weapon known as Pandora's Box. Recruiting an all-new group of thrill-seeking cohorts, Xander finds himself enmeshed in a deadly conspiracy that points to collusion at the highest levels of world governments.", "poster_path": "/yNsdyNbQqaKN0TQxkHMws2KLTJ6.jpg", "popularity": 34.363}, {"id": 206647, "video": false, "vote_count": 7176, "vote_average": 6.4, "title": "Spectre", "release_date": "2015-10-26", "original_language": "en", "original_title": "Spectre", "genre_ids": [28, 12, 80], "backdrop_path": "/wVTYlkKPKrljJfugXN7UlLNjtuJ.jpg", "adult": false, "overview": "A cryptic message from Bond\u2019s past sends him on a trail to uncover a sinister organization. While M battles political forces to keep the secret service alive, Bond peels back the layers of deceit to reveal the terrible truth behind SPECTRE.", "poster_path": "/hE24GYddaxB9MVZl1CaiI86M3kp.jpg", "popularity": 38.086}, {"id": 681, "video": false, "vote_count": 1040, "vote_average": 6.4, "title": "Diamonds Are Forever", "release_date": "1971-12-13", "original_language": "en", "original_title": "Diamonds Are Forever", "genre_ids": [28, 12, 53], "backdrop_path": "/gIGLXXvsljHK1jdDNaIXsjhZnnH.jpg", "adult": false, "overview": "Diamonds are stolen only to be sold again in the international market. James Bond infiltrates a smuggling mission to find out who\u2019s guilty. The mission takes him to Las Vegas where Bond meets his archenemy Blofeld.", "poster_path": "/viPjZ3JCOahcfNCcVhiPExusJoZ.jpg", "popularity": 18.532}, {"adult": false, "backdrop_path": "/3amJMLyjx0rDbwhnKNG8d6gzDSV.jpg", "genre_ids": [53, 18], "id": 296098, "original_language": "en", "original_title": "Bridge of Spies", "overview": "During the Cold War, the Soviet Union captures U.S. pilot Francis Gary Powers after shooting down his U-2 spy plane. Sentenced to 10 years in prison, Powers' only hope is New York lawyer James Donovan, recruited by a CIA operative to negotiate his release. Donovan boards a plane to Berlin, hoping to win the young man's freedom through a prisoner exchange. If all goes well, the Russians would get Rudolf Abel, the convicted spy who Donovan defended in court.", "poster_path": "/xPCNA8zJxyyFKTj47QpvkXHukzB.jpg", "release_date": "2015-10-15", "title": "Bridge of Spies", "video": false, "vote_average": 7.2, "vote_count": 4667, "popularity": 20.65}, {"id": 36669, "video": false, "vote_count": 2045, "vote_average": 5.9, "title": "Die Another Day", "release_date": "2002-11-17", "original_language": "en", "original_title": "Die Another Day", "genre_ids": [28, 12, 53], "backdrop_path": "/3YQfmtpbiFCMHcXY3lJ7fGEcOL6.jpg", "adult": false, "overview": "Bond takes on a North Korean leader who undergoes DNA replacement procedures that allow him to assume different identities. American agent, Jinx Johnson assists Bond in his attempt to thwart the villain's plans to exploit a satellite that is powered by solar energy.", "poster_path": "/1iUZqUXS7x5FcGM5J0u01xuObWC.jpg", "popularity": 24.2}, {"id": 660, "video": false, "vote_count": 1117, "vote_average": 6.7, "title": "Thunderball", "release_date": "1965-12-15", "original_language": "en", "original_title": "Thunderball", "genre_ids": [28, 12, 53], "backdrop_path": "/qd0jrqxFLCKkNruPuJ7zXuQRpKG.jpg", "adult": false, "overview": "A criminal organization has obtained two nuclear bombs and are asking for a 100 million pound ransom in the form of diamonds in seven days or they will use the weapons. The secret service sends James Bond to the Bahamas to once again save the world.", "poster_path": "/sASN1VnJxWosdzp4mH40P47Xhhz.jpg", "popularity": 22.632}, {"id": 37724, "video": false, "vote_count": 11109, "vote_average": 7.1, "title": "Skyfall", "release_date": "2012-10-25", "original_language": "en", "original_title": "Skyfall", "genre_ids": [28, 12, 53], "backdrop_path": "/6bjRujKSnCVSrzC1qjmqfAyaiET.jpg", "adult": false, "overview": "When Bond's latest assignment goes gravely wrong and agents around the world are exposed, MI6 is attacked forcing M to relocate the agency. These events cause her authority and position to be challenged by Gareth Mallory, the new Chairman of the Intelligence and Security Committee. With MI6 now compromised from both inside and out, M is left with one ally she can trust: Bond. 007 takes to the shadows - aided only by field agent, Eve - following a trail to the mysterious Silva, whose lethal and hidden motives have yet to reveal themselves.", "poster_path": "/lQCkPLDxFONmgzrWLvq085v1g2d.jpg", "popularity": 34.013}, {"id": 37834, "video": false, "vote_count": 2737, "vote_average": 6.1, "title": "Knight and Day", "release_date": "2010-06-15", "original_language": "en", "original_title": "Knight and Day", "genre_ids": [28, 35], "backdrop_path": "/clq0YPDQYCql9ekC17YFklk8FwX.jpg", "adult": false, "overview": "A fugitive couple goes on a glamorous and sometimes deadly adventure where nothing and no one \u2013 even themselves \u2013 are what they seem. Amid shifting alliances and unexpected betrayals, they race across the globe, with their survival ultimately hinging on the battle of truth vs. trust.", "poster_path": "/aHEpzwXvMtIEMBE13tWXS5oHZ7d.jpg", "popularity": 17.619}, {"id": 207703, "video": false, "vote_count": 11141, "vote_average": 7.6, "title": "Kingsman: The Secret Service", "release_date": "2014-12-13", "original_language": "en", "original_title": "Kingsman: The Secret Service", "genre_ids": [28, 12, 35, 80], "backdrop_path": "/7McaexSsSTLD8V17UgaZAfI0Cu9.jpg", "adult": false, "overview": "The story of a super-secret spy organization that recruits an unrefined but promising street kid into the agency's ultra-competitive training program just as a global threat emerges from a twisted tech genius.", "poster_path": "/8x7ej0LnHdKUqilNNJXYOeyB6L9.jpg", "popularity": 26.232}, {"id": 36955, "video": false, "vote_count": 2202, "vote_average": 6.9, "title": "True Lies", "release_date": "1994-07-15", "original_language": "en", "original_title": "True Lies", "genre_ids": [28, 53], "backdrop_path": "/o2agns0LEqyEUCByMT8ViIOio7r.jpg", "adult": false, "overview": "A fearless, globe-trotting, terrorist-battling secret agent has his life turned upside down when he discovers his wife might be having an affair with a used car salesman while terrorists smuggle nuclear war heads into the United States.", "poster_path": "/mTAHr5h5i64hTLqo0cW2X2083Cx.jpg", "popularity": 25.06}, {"id": 691, "video": false, "vote_count": 939, "vote_average": 6.7, "title": "The Spy Who Loved Me", "release_date": "1977-07-07", "original_language": "en", "original_title": "The Spy Who Loved Me", "genre_ids": [28, 12, 53], "backdrop_path": "/2tCAEhE2rPONBmUOs4W73AlBWYg.jpg", "adult": false, "overview": "Russian and British submarines with nuclear missiles on board both vanish from sight without a trace. England and Russia both blame each other as James Bond tries to solve the riddle of the disappearing ships. But the KGB also has an agent on the case.", "poster_path": "/vYMgDqQDpqHDhz3enGkwBmTs7p7.jpg", "popularity": 16.084}, {"adult": false, "backdrop_path": "/zaGmoSackrRF7w6NieQ0FWY0M7k.jpg", "genre_ids": [28, 35, 9648], "id": 302699, "original_language": "en", "original_title": "Central Intelligence", "overview": "After he reunites with an old pal through Facebook, a mild-mannered accountant is lured into the world of international espionage.", "poster_path": "/9M5ibpQUjoVFjjnP2AdLcof4hAk.jpg", "release_date": "2016-06-15", "title": "Central Intelligence", "video": false, "vote_average": 6.3, "vote_count": 3490, "popularity": 15.246}], "total_pages": 67, "total_results": 1336}, "recommendations": {"page": 1, "results": [], "total_pages": 1, "total_results": 0}, "credits": {"cast": [{"cast_id": 4, "character": "Alec Franklin", "credit_id": "52fe47d49251416c9107704f", "gender": 2, "id": 9111, "name": "Peter Graves", "order": 0, "profile_path": "/95Zd5Vow7dSaJm7Oa7rM0ZthrwO.jpg"}, {"cast_id": 5, "character": "Baron Marchant (as Curt Jurgens)", "credit_id": "52fe47d49251416c91077053", "gender": 2, "id": 10459, "name": "Curd J\u00fcrgens", "order": 1, "profile_path": "/psFeEFYhy1tUn9y4vLxF9eSKMK9.jpg"}, {"cast_id": 6, "character": "Galina Fedorovna (as Karen Schubert)", "credit_id": "52fe47d49251416c91077057", "gender": 1, "id": 76493, "name": "Karin Schubert", "order": 2, "profile_path": "/iA16U6MMif1vTfG6Pzjpf1R20cc.jpg"}, {"cast_id": 7, "character": "Konstanine Senyonov", "credit_id": "52fe47d49251416c9107705b", "gender": 2, "id": 15975, "name": "Michael Dante", "order": 3, "profile_path": "/11Jb7NXav416WBnuUvK9YtsPNBq.jpg"}, {"cast_id": 8, "character": "Nina (as Tita Barker)", "credit_id": "52fe47d49251416c9107705f", "gender": 1, "id": 590116, "name": "Carmen G. Cervera", "order": 4, "profile_path": "/yhRnhdU7TnUydisHxtADmzDhvtf.jpg"}, {"cast_id": 9, "character": "Rigo", "credit_id": "52fe47d49251416c91077063", "gender": 2, "id": 72888, "name": "Frank Bra\u00f1a", "order": 5, "profile_path": "/pm3atvF3WIxv1RsVSLeie5YSKjy.jpg"}, {"cast_id": 11, "character": "", "credit_id": "52fe47d49251416c9107706b", "gender": 2, "id": 22531, "name": "Herbert Fux", "order": 7, "profile_path": "/eDIlDlMJ5n438aOPwmO1aTVGoNG.jpg"}, {"cast_id": 12, "character": "Leila", "credit_id": "52fe47d49251416c9107706f", "gender": 0, "id": 590117, "name": "Carla Marocco", "order": 8, "profile_path": null}, {"cast_id": 13, "character": "Stetson", "credit_id": "52fe47d49251416c91077073", "gender": 2, "id": 590118, "name": "Robert Avard Miller", "order": 9, "profile_path": null}, {"cast_id": 14, "character": "George", "credit_id": "52fe47d49251416c91077077", "gender": 2, "id": 49895, "name": "Aldo Sambrell", "order": 10, "profile_path": "/doSGQEp3BDSCDmbX8hlaTOoqXST.jpg"}, {"cast_id": 15, "character": "Toni Glanert", "credit_id": "52fe47d49251416c9107707b", "gender": 0, "id": 559868, "name": "Michael Tietz", "order": 11, "profile_path": null}, {"cast_id": 16, "character": "Professor Nikolaeff", "credit_id": "5cf1366e0e0a261e1bc9f736", "gender": 2, "id": 8516, "name": "John Carradine", "order": 12, "profile_path": "/cUlQO0vGGFoF3VZjzok8U276exY.jpg"}, {"cast_id": 17, "character": "Leila (as Pouri Banai)", "credit_id": "5cf13750c3a36827ab1e31a7", "gender": 1, "id": 1134581, "name": "Pouri Baneai", "order": 13, "profile_path": "/3KEPQ1sErnY79FKGkG1YtYYOUg2.jpg"}, {"cast_id": 18, "character": "Mendosa", "credit_id": "5cf1388f0e0a26752bcaafce", "gender": 2, "id": 119887, "name": "Mel Novak", "order": 14, "profile_path": "/19ivDfnye5gaOXvcy4i5O4VBhI6.jpg"}, {"cast_id": 19, "character": "Atwood", "credit_id": "5cf138b90e0a261e00c9f5a3", "gender": 0, "id": 1375070, "name": "Pat Johnson", "order": 15, "profile_path": null}, {"cast_id": 20, "character": "Hasan", "credit_id": "5cf138c80e0a2670bdcaa355", "gender": 0, "id": 2326105, "name": "Gil Hossian", "order": 16, "profile_path": null}, {"cast_id": 21, "character": "Iranian Dancer (as Tamara Elliott)", "credit_id": "5cf138d69251413921b87eef", "gender": 0, "id": 1580603, "name": "Tamara Elliot", "order": 17, "profile_path": null}, {"cast_id": 22, "character": "Masters", "credit_id": "5cf138e5c3a3685e7c2117b0", "gender": 0, "id": 153394, "name": "Walter Stocker", "order": 18, "profile_path": "/cyBossMBqCom41MddHGq65FUjch.jpg"}, {"cast_id": 23, "character": "Russian Scientist", "credit_id": "5cf138f70e0a2679e4ca9ffb", "gender": 2, "id": 74506, "name": "Curt Lowens", "order": 19, "profile_path": "/3UPPxKXP52sHpDcmPB9FZdA7ayP.jpg"}, {"cast_id": 24, "character": "Russian General", "credit_id": "5cf13902c3a3685e7c211868", "gender": 2, "id": 122008, "name": "Maurice Marsac", "order": 20, "profile_path": "/kaURxtL9D9YEXVW7ZZSnTlcSKx5.jpg"}, {"cast_id": 25, "character": "State Department Official", "credit_id": "5cf1390e9251411cdbb91a1c", "gender": 0, "id": 2326106, "name": "Michael Ivie", "order": 21, "profile_path": null}, {"cast_id": 26, "character": "Russian General 2", "credit_id": "5cf1391cc3a3685e7c2118a7", "gender": 0, "id": 2326108, "name": "George Briggs", "order": 22, "profile_path": null}, {"cast_id": 27, "character": "Mickey", "credit_id": "5cf139300e0a2619ccc9ff24", "gender": 0, "id": 175886, "name": "Peter Colt", "order": 23, "profile_path": null}, {"cast_id": 28, "character": "Casino Hostess (as Ursula Grim)", "credit_id": "5cf1394692514171fdb9310d", "gender": 1, "id": 2014575, "name": "\u00darsula Grin", "order": 24, "profile_path": null}, {"cast_id": 29, "character": "Officer (uncredited)", "credit_id": "5cf13959c3a36877581edb42", "gender": 0, "id": 136535, "name": "Alfie Martin", "order": 25, "profile_path": null}], "crew": [{"credit_id": "5cf13a0b9251413921b87ffb", "department": "Art", "gender": 2, "id": 21997, "job": "Production Design", "name": "Kurt Raab", "profile_path": "/wVtzUW8bi4Xmupsjoms369qjIKG.jpg"}, {"credit_id": "5cf13a170e0a2670bdcaa604", "department": "Art", "gender": 2, "id": 21997, "job": "Art Direction", "name": "Kurt Raab", "profile_path": "/wVtzUW8bi4Xmupsjoms369qjIKG.jpg"}, {"credit_id": "52fe47d49251416c9107703f", "department": "Directing", "gender": 2, "id": 27728, "job": "Director", "name": "Leslie H. Martinson", "profile_path": "/hNZjkyduFEkuiRpSA4ySafR44B2.jpg"}, {"credit_id": "5cf13a61c3a36827ab1e3710", "department": "Costume & Make-Up", "gender": 0, "id": 32773, "job": "Key Makeup Artist", "name": "Gino Zamprioli", "profile_path": null}, {"credit_id": "5cf13ab80e0a2679d3cab038", "department": "Sound", "gender": 2, "id": 75240, "job": "Sound Re-Recording Mixer", "name": "Gary Alexander", "profile_path": null}, {"credit_id": "5cf13b130e0a26752bcab2ad", "department": "Crew", "gender": 2, "id": 114628, "job": "Stunt Coordinator", "name": "Pat E. Johnson", "profile_path": null}, {"credit_id": "5cf139e00e0a2679d3caaf66", "department": "Production", "gender": 2, "id": 99116, "job": "Producer", "name": "Ted V. Mikels", "profile_path": "/lv6IqKZhWzIwwgsBAGI4DiIuIym.jpg"}, {"credit_id": "52fe47d49251416c91077045", "department": "Writing", "gender": 2, "id": 99116, "job": "Author", "name": "Ted V. Mikels", "profile_path": "/lv6IqKZhWzIwwgsBAGI4DiIuIym.jpg"}, {"credit_id": "5cf139ffc3a3682d1b1e2e6e", "department": "Editing", "gender": 0, "id": 100686, "job": "Editor", "name": "Antonio Gimeno", "profile_path": null}, {"credit_id": "5cf139ec0e0a264876caa5e7", "department": "Sound", "gender": 0, "id": 102161, "job": "Music", "name": "Alberto Baldan Bembo", "profile_path": null}, {"credit_id": "5cf13a6f0e0a261e1bc9fc9f", "department": "Production", "gender": 0, "id": 136535, "job": "Production Manager", "name": "Alfie Martin", "profile_path": null}, {"credit_id": "5cf13b07c3a3684bf01efff0", "department": "Crew", "gender": 0, "id": 225710, "job": "Special Effects", "name": "Dick Williams", "profile_path": null}, {"credit_id": "5cf139b09251413921b87f69", "department": "Production", "gender": 0, "id": 542659, "job": "Associate Producer", "name": "Amir Shervan", "profile_path": "/hoT5DOHwboEq0aIMoebNMJS0rAQ.jpg"}, {"credit_id": "52fe47d49251416c9107704b", "department": "Writing", "gender": 0, "id": 590115, "job": "Author", "name": "Clarke Reynolds", "profile_path": null}, {"credit_id": "5cf139bcc3a368735b2070c0", "department": "Production", "gender": 2, "id": 590118, "job": "Executive Producer", "name": "Robert Avard Miller", "profile_path": null}, {"credit_id": "5cf139f6925141392eb88aa6", "department": "Crew", "gender": 0, "id": 1062752, "job": "Cinematography", "name": "Claudio Catozzo", "profile_path": null}, {"credit_id": "5cf139c7c3a3682d1b1e2e35", "department": "Production", "gender": 0, "id": 1271844, "job": "Executive Producer", "name": "Elio Romano", "profile_path": null}, {"credit_id": "5cf1398f0e0a261e1bc9fb3a", "department": "Writing", "gender": 0, "id": 1271844, "job": "Writer", "name": "Elio Romano", "profile_path": null}, {"credit_id": "5cf13b290e0a26752bcab2c1", "department": "Crew", "gender": 0, "id": 1308538, "job": "Stunt Coordinator", "name": "Slavoljub Plav\u0161i\u0107 'Zvonce'", "profile_path": null}, {"credit_id": "5cf13a809251411cdbb91be0", "department": "Directing", "gender": 0, "id": 1350131, "job": "Assistant Director", "name": "Ali Akbar", "profile_path": null}, {"credit_id": "5cf13b8d92514138ccb89024", "department": "Editing", "gender": 0, "id": 1433643, "job": "Supervising Editor", "name": "Keith Stafford", "profile_path": null}, {"credit_id": "5cf13b6dc3a3685e7c211e22", "department": "Costume & Make-Up", "gender": 0, "id": 1548850, "job": "Wardrobe Supervisor", "name": "Heidi Wujek", "profile_path": null}, {"credit_id": "5cf13ac50e0a2679d3cab050", "department": "Sound", "gender": 0, "id": 1612788, "job": "Sound Mixer", "name": "Ed White", "profile_path": null}, {"credit_id": "5cf13b33c3a3682d1b1e3030", "department": "Camera", "gender": 0, "id": 1678216, "job": "Camera Operator", "name": "Paco Joan", "profile_path": null}, {"credit_id": "5cf13aeac3a36827ab1e37e6", "department": "Sound", "gender": 0, "id": 1679187, "job": "Sound Re-Recording Mixer", "name": "Don Minkler", "profile_path": null}, {"credit_id": "5cf13bb19251411cdbb91ebc", "department": "Directing", "gender": 0, "id": 1873260, "job": "Script Supervisor", "name": "Doreen Ross", "profile_path": null}, {"credit_id": "5cf139d20e0a2670bdcaa461", "department": "Production", "gender": 0, "id": 1875551, "job": "Producer", "name": "Ika Panajotovi\u0107", "profile_path": null}, {"credit_id": "5cf13bcf9251413921b882bd", "department": "Crew", "gender": 2, "id": 1882988, "job": "Transportation Captain", "name": "Gerhard Rupp", "profile_path": null}, {"credit_id": "5cf13b1e0e0a261e00c9f9bb", "department": "Crew", "gender": 0, "id": 1997734, "job": "Stunt Coordinator", "name": "Ratomir Pe\u0161i\u0107", "profile_path": null}, {"credit_id": "5cf139a3c3a368735b2070a2", "department": "Production", "gender": 0, "id": 2326108, "job": "Associate Producer", "name": "George Briggs", "profile_path": null}, {"credit_id": "5cf13a310e0a264876caa67b", "department": "Art", "gender": 0, "id": 2326111, "job": "Set Decoration", "name": "J. Weizdorfer", "profile_path": null}, {"credit_id": "5cf13a3ec3a368735b207133", "department": "Art", "gender": 0, "id": 2326112, "job": "Set Decoration", "name": "H. Yatroupolos", "profile_path": null}, {"credit_id": "5cf13a49925141392eb88b3b", "department": "Costume & Make-Up", "gender": 0, "id": 2326114, "job": "Costume Design", "name": "Franka Pagunicci", "profile_path": null}, {"credit_id": "5cf13a55c3a36877581edc48", "department": "Costume & Make-Up", "gender": 0, "id": 2326115, "job": "Makeup Artist", "name": "Sherry Vernon", "profile_path": null}, {"credit_id": "5cf13a8b0e0a2679e4caa1c5", "department": "Directing", "gender": 0, "id": 2326116, "job": "Assistant Director", "name": "Anvar Rais", "profile_path": null}, {"credit_id": "5cf13a95c3a3685e7c211d16", "department": "Art", "gender": 0, "id": 2326117, "job": "Props", "name": "Dan Linkmeyer", "profile_path": null}, {"credit_id": "5cf13aa292514171fdb932f4", "department": "Art", "gender": 0, "id": 2326118, "job": "Props", "name": "Tom Martins", "profile_path": null}, {"credit_id": "5cf13ad00e0a2619ccca0119", "department": "Sound", "gender": 0, "id": 2326119, "job": "Sound", "name": "Rene Delpire", "profile_path": null}, {"credit_id": "5cf13b419251411882b923db", "department": "Camera", "gender": 0, "id": 2326121, "job": "Assistant Camera", "name": "Danny Warnock", "profile_path": null}, {"credit_id": "5cf13b4bc3a3685e7c211de8", "department": "Lighting", "gender": 0, "id": 2326122, "job": "Electrician", "name": "Luciano Corbuti", "profile_path": null}, {"credit_id": "5cf13b780e0a2679d3cab164", "department": "Editing", "gender": 0, "id": 2326123, "job": "Assistant Editor", "name": "Rossana D'Antilo", "profile_path": null}, {"credit_id": "5cf13b9a92514141f2b9317e", "department": "Crew", "gender": 0, "id": 2326125, "job": "Choreographer", "name": "Ciga Despotivic", "profile_path": null}, {"credit_id": "5cf13ba492514138ccb89040", "department": "Directing", "gender": 0, "id": 2326126, "job": "Script Supervisor", "name": "Dolores Glanert", "profile_path": null}, {"credit_id": "5cf13bbd0e0a261e00c9fa57", "department": "Production", "gender": 0, "id": 2326127, "job": "Production Assistant", "name": "Dru Landers", "profile_path": null}]}}