{"adult": false, "backdrop_path": "/sI5k3LSq5GcNIFB7TFPrYCJ6Ij3.jpg", "belongs_to_collection": null, "budget": 0, "genres": [{"id": 28, "name": "Action"}, {"id": 80, "name": "Crime"}, {"id": 53, "name": "Thriller"}], "homepage": null, "id": 80755, "imdb_id": "tt0071225", "original_language": "en", "original_title": "The Black Godfather", "overview": "The heroes in The Black Godfather are members of an African-American criminal organization. Like Brando in The Godfather, they're not averse to robbery and murder, but they do draw the line at narcotics. When the Mafia infiltrates the 'hood with dangerous drugs, the Black Godfather (Rod Perry) orders his minions to put an end to this perfidy.", "popularity": 2.855, "poster_path": "/4B7wQFfKlcAS3QFL95iSnYcdlfJ.jpg", "production_companies": [{"id": 73768, "logo_path": null, "name": "Cougnar Productions", "origin_country": ""}], "production_countries": [{"iso_3166_1": "US", "name": "United States of America"}], "release_date": "1974-09-03", "revenue": 0, "runtime": 90, "spoken_languages": [{"iso_639_1": "en", "name": "English"}], "status": "Released", "tagline": "There's a new godfather in town...", "title": "The Black Godfather", "video": false, "vote_average": 5.3, "vote_count": 4, "keywords": {"keywords": [{"id": 7002, "name": "vigilante"}, {"id": 10601, "name": "blaxploitation"}]}, "similar": {"page": 1, "results": [{"id": 458594, "video": false, "vote_count": 983, "vote_average": 6.5, "title": "Peppermint", "release_date": "2018-09-06", "original_language": "en", "original_title": "Peppermint", "genre_ids": [28, 53], "backdrop_path": "/9krZX6T4EEs5eFpXgSi8jZkN48O.jpg", "adult": false, "overview": "A grieving mother transforms herself into a vigilante following the murders of her husband and daughter, eluding the authorities to deliver her own personal brand of justice.", "poster_path": "/jrzxS0vcbzIIay1sdYm0rgI2QfJ.jpg", "popularity": 25.2}, {"id": 155, "video": false, "vote_count": 20752, "vote_average": 8.4, "title": "The Dark Knight", "release_date": "2008-07-16", "original_language": "en", "original_title": "The Dark Knight", "genre_ids": [28, 80, 18, 53], "backdrop_path": "/hqkIcbrOHL86UncnHIsHVcVmzue.jpg", "adult": false, "overview": "Batman raises the stakes in his war on crime. With the help of Lt. Jim Gordon and District Attorney Harvey Dent, Batman sets out to dismantle the remaining criminal organizations that plague the streets. The partnership proves to be effective, but they soon find themselves prey to a reign of chaos unleashed by a rising criminal mastermind known to the terrified citizens of Gotham as the Joker.", "poster_path": "/pKKvCaL1TPTVtbI6EeliyND3api.jpg", "popularity": 54.288}, {"id": 156022, "video": false, "vote_count": 5466, "vote_average": 7.2, "title": "The Equalizer", "release_date": "2014-09-24", "original_language": "en", "original_title": "The Equalizer", "genre_ids": [28, 80, 53], "backdrop_path": "/vbl4ZVqelrrzJ16fdDOq9siWbpi.jpg", "adult": false, "overview": "McCall believes he has put his mysterious past behind him and dedicated himself to beginning a new, quiet life. But when he meets Teri, a young girl under the control of ultra-violent Russian gangsters, he can\u2019t stand idly by \u2013 he has to help her. Armed with hidden skills that allow him to serve vengeance against anyone who would brutalize the helpless, McCall comes out of his self-imposed retirement and finds his desire for justice reawakened. If someone has a problem, if the odds are stacked against them, if they have nowhere else to turn, McCall will help. He is The Equalizer.", "poster_path": "/2eQfjqlvPAxd9aLDs8DvsKLnfed.jpg", "popularity": 38.079}, {"adult": false, "backdrop_path": "/cLGKawjQ5tUJCuDyR0OnGYT4fyf.jpg", "genre_ids": [18, 53, 80], "id": 146233, "original_language": "en", "original_title": "Prisoners", "overview": "When Keller Dover's daughter and her friend go missing, he takes matters into his own hands as the police pursue multiple leads and the pressure mounts. But just how far will this desperate father go to protect his family?", "poster_path": "/yAhqW57pwMAsCgmZpM5zSIVQVTh.jpg", "release_date": "2013-09-18", "title": "Prisoners", "video": false, "vote_average": 8.0, "vote_count": 6408, "popularity": 22.476}, {"id": 272, "video": false, "vote_count": 13435, "vote_average": 7.6, "title": "Batman Begins", "release_date": "2005-06-10", "original_language": "en", "original_title": "Batman Begins", "genre_ids": [28, 80, 18], "backdrop_path": "/9myrRcegWGGp24mpVfkD4zhUfhi.jpg", "adult": false, "overview": "Driven by tragedy, billionaire Bruce Wayne dedicates his life to uncovering and defeating the corruption that plagues his home, Gotham City.  Unable to work within the system, he instead creates a new identity, a symbol of fear for the criminal underworld - The Batman.", "poster_path": "/dr6x4GyyegBWtinPBzipY02J2lV.jpg", "popularity": 47.039}, {"id": 49026, "video": false, "vote_count": 15147, "vote_average": 7.7, "title": "The Dark Knight Rises", "release_date": "2012-07-16", "original_language": "en", "original_title": "The Dark Knight Rises", "genre_ids": [28, 80, 18, 53], "backdrop_path": "/f6ljQGv7WnJuwBPty017oPWfqjx.jpg", "adult": false, "overview": "Following the death of District Attorney Harvey Dent, Batman assumes responsibility for Dent's crimes to protect the late attorney's reputation and is subsequently hunted by the Gotham City Police Department. Eight years later, Batman encounters the mysterious Selina Kyle and the villainous Bane, a new terrorist leader who overwhelms Gotham's finest. The Dark Knight resurfaces to protect a city that has branded him an enemy.", "poster_path": "/dEYnvnUfXrqvqeRSqvIEtmzhoA8.jpg", "popularity": 40.262}, {"id": 291805, "video": false, "vote_count": 7379, "vote_average": 6.8, "title": "Now You See Me 2", "release_date": "2016-06-02", "original_language": "en", "original_title": "Now You See Me 2", "genre_ids": [28, 35, 53], "backdrop_path": "/zrAO2OOa6s6dQMQ7zsUbDyIBrAP.jpg", "adult": false, "overview": "One year after outwitting the FBI and winning the public\u2019s adulation with their mind-bending spectacles, the Four Horsemen resurface only to find themselves face to face with a new enemy who enlists them to pull off their most dangerous heist yet.", "poster_path": "/hU0E130tsGdsYa4K9lc3Xrn5Wyt.jpg", "popularity": 23.97}, {"id": 209112, "video": false, "vote_count": 12701, "vote_average": 5.8, "title": "Batman v Superman: Dawn of Justice", "release_date": "2016-03-23", "original_language": "en", "original_title": "Batman v Superman: Dawn of Justice", "genre_ids": [28, 12, 14], "backdrop_path": "/vsjBeMPZtyB7yNsYY56XYxifaQZ.jpg", "adult": false, "overview": "Fearing the actions of a god-like Super Hero left unchecked, Gotham City\u2019s own formidable, forceful vigilante takes on Metropolis\u2019s most revered, modern-day savior, while the world wrestles with what sort of hero it really needs. And with Batman and Superman at war with one another, a new threat quickly arises, putting mankind in greater danger than it\u2019s ever known before.", "poster_path": "/cGOPbv9wA5gEejkUN892JrveARt.jpg", "popularity": 36.841}, {"id": 390051, "video": false, "vote_count": 419, "vote_average": 5.5, "title": "Aftermath", "release_date": "2017-02-28", "original_language": "en", "original_title": "Aftermath", "genre_ids": [18, 53], "backdrop_path": "/9HcXzYUnnwyFu9WSEM2IOxd2VhC.jpg", "adult": false, "overview": "A fatal plane crash changes the lives of Roman and Jake forever. Roman loses his wife and daughter in the accident, while Jake loses his mind\u2014as he happens to be the air traffic controller who failed to avert the nightmare. Rage and revenge engulfs Roman and Jake finds himself swamped with guilt and regret.", "poster_path": "/25oWTCGqIik4gUTMidx3L8DI4Bt.jpg", "popularity": 16.545}, {"id": 8867, "video": false, "vote_count": 259, "vote_average": 5.7, "title": "The Punisher", "release_date": "1989-10-05", "original_language": "en", "original_title": "The Punisher", "genre_ids": [28, 53], "backdrop_path": "/uVlIDxjubb3Trk18NhMCf7b3yiN.jpg", "adult": false, "overview": "The avenging angel of Marvel Comics fame comes brilliantly to life in this searing action-adventure thriller! Dolph Lundgren stars as Frank Castle, a veteran cop who loses his entire family to a mafia car bomb. Only his ex-partner believes Castle survived the blast to become THE PUNISHER ... a shadowy, invincible fighter against evil who lives for total revenge on his mob enemies.", "poster_path": "/9OjFAb9r21TNJIbbMVAZtbj3I60.jpg", "popularity": 19.066}, {"adult": false, "backdrop_path": "/brZ6uY49Htby7zzLB40IXhfbwH2.jpg", "genre_ids": [28, 53], "id": 467938, "original_language": "fr", "original_title": "Revenge", "overview": "Jen's romantic getaway with her wealthy (married) boyfriend is disrupted when his friends arrive for an impromptu hunting trip. Tension mounts at the house until the situation culminates in an unexpected way.", "poster_path": "/lDjY67pqcIoQCe0kK91TVgL14om.jpg", "release_date": "2018-02-07", "title": "Revenge", "video": false, "vote_average": 6.3, "vote_count": 850, "popularity": 17.085}, {"id": 14373, "video": false, "vote_count": 182, "vote_average": 6.1, "title": "Death Wish II", "release_date": "1982-02-20", "original_language": "en", "original_title": "Death Wish II", "genre_ids": [28, 80, 53], "backdrop_path": "/tunPGpLoGhECru6pxVEaQsn9Ffj.jpg", "adult": false, "overview": "Paul Kersey is again a vigilante trying to find five punks who murdered his housekeeper and daughter in Los Angeles.", "poster_path": "/2HCtaAqI7Jw9FzxRImG35gsNNZC.jpg", "popularity": 10.478}, {"id": 24873, "video": false, "vote_count": 157, "vote_average": 6.1, "title": "Death Wish 3", "release_date": "1985-11-01", "original_language": "en", "original_title": "Death Wish 3", "genre_ids": [28, 80, 18, 53], "backdrop_path": "/GqSEbUkXZiulvz0uaME8qTdkX0.jpg", "adult": false, "overview": "Architect/vigilante Paul Kersey arrives back in New York City and is forcibly recruited by a crooked police chief to fight street crime caused by a large gang terrorizing the neighborhoods.", "poster_path": "/ike0J7zLCOzfxgBfXExFObM5UYc.jpg", "popularity": 11.109}, {"adult": false, "backdrop_path": "/rxk3NRO06iN66SDLsC04aFaSyqr.jpg", "genre_ids": [16, 80, 28, 53], "id": 18881, "original_language": "ja", "original_title": "\u30ab\u30a4\u30c8", "overview": "Sawa may seem innocent and naive, but don\u2019t be fooled. She is a cold-blooded killer, and if you\u2019re on the wrong side of the law, you may be her next target. Not content to just watch as the imperfect justice system lets more and more criminals go loose every day, a detective decides to train the young Sawa to be his instrument of justice.", "poster_path": "/14ZAVenFZjCF3QFfNRYtMPKTZpP.jpg", "release_date": "1998-02-25", "title": "Kite", "video": false, "vote_average": 6.8, "vote_count": 43, "popularity": 15.172}, {"adult": false, "backdrop_path": "/2BLk25CMNl22IHqVJSAu3nkWoUj.jpg", "genre_ids": [28, 80, 53], "id": 26789, "original_language": "en", "original_title": "No Mercy", "overview": "An unconventional undercover Chicago cop and his partner are recruited to commit the murder of a New Orleans criminal kingpin.", "poster_path": "/iQozlPXgadwTvymHWH1mPWzM80a.jpg", "release_date": "1986-12-19", "title": "No Mercy", "video": false, "vote_average": 5.8, "vote_count": 71, "popularity": 9.053}, {"adult": false, "backdrop_path": "/ba1xpJs7whFNJj76IW6Wj5VVd66.jpg", "genre_ids": [53, 28, 80], "id": 22021, "original_language": "en", "original_title": "Coffy", "overview": "After her younger sister gets involved in drugs and is severely injured by contaminated heroin, a nurse sets out on a mission of vengeance and vigilante justice, killing drug dealers, pimps, and mobsters who cross her path.", "poster_path": "/6EpzAQslrM14r1Z6d1qwNp2KunN.jpg", "release_date": "1973-06-13", "title": "Coffy", "video": false, "vote_average": 7.0, "vote_count": 107, "popularity": 11.461}, {"adult": false, "backdrop_path": "/wCN0J4b51b02eiqOFS6pAuRKxcK.jpg", "genre_ids": [80, 18, 53], "id": 4413, "original_language": "en", "original_title": "The Brave One", "overview": "A woman struggles to recover from a brutal attack by setting out on a mission for revenge.", "poster_path": "/j2nSeTTFwZeCGzFDuJqebf0Hixb.jpg", "release_date": "2007-09-14", "title": "The Brave One", "video": false, "vote_average": 6.5, "vote_count": 486, "popularity": 12.551}, {"id": 19174, "video": false, "vote_count": 48, "vote_average": 6.5, "title": "Dolemite", "release_date": "1975-04-26", "original_language": "en", "original_title": "Dolemite", "genre_ids": [28, 35, 80], "backdrop_path": "/2XF7bs6rwvybvIRlLSJ25SWWY0A.jpg", "adult": false, "overview": "Dolemite is a pimp who was set up by Willie Greene and the cops, who have planted drugs, stolen furs, and guns in his trunk and got him sentenced to 20 years in jail. One day, Queen B and a warden planned to get him out of Jail and get Willie Green and Mitchell busted for what they did to him.", "poster_path": "/sAXm4DekviDqETxnxsTQM4druy5.jpg", "popularity": 4.643}, {"adult": false, "backdrop_path": "/kSTvteM3ekuoeO7u7GJtZQkZuom.jpg", "genre_ids": [28, 53, 80], "id": 1948, "original_language": "en", "original_title": "Crank", "overview": "Professional assassin Chev Chelios learns his rival has injected him with a poison that will kill him if his heart rate drops.", "poster_path": "/6RnD3Zfh0tO0cD2vroWyH0F98Ej.jpg", "release_date": "2006-08-31", "title": "Crank", "video": false, "vote_average": 6.6, "vote_count": 2119, "popularity": 24.741}, {"id": 77, "video": false, "vote_count": 8682, "vote_average": 8.2, "title": "Memento", "release_date": "2000-10-11", "original_language": "en", "original_title": "Memento", "genre_ids": [9648, 53], "backdrop_path": "/q2CtXYjp9IlnfBcPktNkBPsuAEO.jpg", "adult": false, "overview": "Leonard Shelby is tracking down the man who raped and murdered his wife. The difficulty of locating his wife's killer, however, is compounded by the fact that he suffers from a rare, untreatable form of short-term memory loss. Although he can recall details of life before his accident, Leonard cannot remember what happened fifteen minutes ago, where he's going, or why.", "poster_path": "/fQMSaP88cf1nz4qwuNEEFtazuDM.jpg", "popularity": 23.818}], "total_pages": 94, "total_results": 1876}, "recommendations": {"page": 1, "results": [], "total_pages": 1, "total_results": 0}, "credits": {"cast": [{"cast_id": 2, "character": "J. J.", "credit_id": "52fe47da9251416c91077e91", "gender": 2, "id": 156178, "name": "Rod Perry", "order": 0, "profile_path": "/dmrS3knjugxtIPW7DJDDoSYPmok.jpg"}, {"cast_id": 3, "character": "Diablo", "credit_id": "52fe47da9251416c91077e95", "gender": 0, "id": 152592, "name": "Damu King", "order": 1, "profile_path": "/7r23JSWNoOfnCNUqQOQ3evNVBvg.jpg"}, {"cast_id": 4, "character": "Tony Burton", "credit_id": "52fe47da9251416c91077e99", "gender": 2, "id": 160611, "name": "Don Chastain", "order": 2, "profile_path": "/a7IFBAsUKseDDZis7FX4YvAOaH8.jpg"}, {"cast_id": 5, "character": "Yvonne", "credit_id": "52fe47da9251416c91077e9d", "gender": 1, "id": 160522, "name": "Diane Sommerfield", "order": 3, "profile_path": null}, {"cast_id": 6, "character": "Nate", "credit_id": "52fe47da9251416c91077ea1", "gender": 2, "id": 590356, "name": "Jimmy Witherspoon", "order": 4, "profile_path": null}, {"cast_id": 7, "character": "Lt. Joe Sterling", "credit_id": "52fe47da9251416c91077ea5", "gender": 0, "id": 43867, "name": "Duncan McLeod", "order": 5, "profile_path": null}, {"cast_id": 8, "character": "Sonny Spyder Brown", "credit_id": "52fe47da9251416c91077ea9", "gender": 2, "id": 16504, "name": "Tony Burton", "order": 6, "profile_path": "/ue54hK217thXeQMzN4qUYXLImLd.jpg"}, {"cast_id": 9, "character": "Honey", "credit_id": "52fe47da9251416c91077ead", "gender": 0, "id": 590357, "name": "Anny Green", "order": 7, "profile_path": null}, {"cast_id": 10, "character": "Cockroach", "credit_id": "52fe47da9251416c91077eb1", "gender": 2, "id": 45501, "name": "John Alderman", "order": 8, "profile_path": "/8tY2tMpmvDPsGItv4hnQlv2NzkE.jpg"}, {"cast_id": 11, "character": "Junkie (as Betsy Finley)", "credit_id": "52fe47da9251416c91077eb5", "gender": 0, "id": 590358, "name": "Betsee Finlee", "order": 9, "profile_path": null}, {"cast_id": 12, "character": "", "credit_id": "52fe47da9251416c91077eb9", "gender": 0, "id": 590359, "name": "Ken Bell", "order": 10, "profile_path": null}, {"cast_id": 13, "character": "Winston", "credit_id": "52fe47da9251416c91077ebd", "gender": 0, "id": 178805, "name": "Cinque Attucks", "order": 11, "profile_path": null}, {"cast_id": 14, "character": "Newscaster", "credit_id": "52fe47da9251416c91077ec1", "gender": 0, "id": 183869, "name": "Tom Scott", "order": 12, "profile_path": null}, {"cast_id": 15, "character": "Danny", "credit_id": "52fe47da9251416c91077ec5", "gender": 0, "id": 590360, "name": "Ricardo Brown", "order": 13, "profile_path": null}, {"cast_id": 16, "character": "Mrs. Brown", "credit_id": "52fe47da9251416c91077ec9", "gender": 0, "id": 196066, "name": "Kathryn Jackson", "order": 14, "profile_path": null}], "crew": [{"credit_id": "52fe47da9251416c91077e8d", "department": "Directing", "gender": 0, "id": 166433, "job": "Director", "name": "John Evans", "profile_path": null}, {"credit_id": "56d461779251410bd1002b66", "department": "Writing", "gender": 0, "id": 166433, "job": "Writer", "name": "John Evans", "profile_path": null}]}}