{"adult": false, "backdrop_path": "/wYP9WPk6JKXacKIJzNwoyAqQG7Y.jpg", "belongs_to_collection": null, "budget": 0, "genres": [{"id": 18, "name": "Drama"}, {"id": 35, "name": "Comedy"}, {"id": 28, "name": "Action"}], "homepage": null, "id": 80984, "imdb_id": "tt0108006", "original_language": "en", "original_title": "Running Cool", "overview": "Bone and Bear, two rough and tough bikers ride out from Sturgis, SD. to the marshes of South Carolina to help out their \"bro\" Ironbutt Garrett, who's land is being eyed by the money-grubbing, domineering Calvin Hogg.", "popularity": 1.621, "poster_path": "/2UVQm3M9Ca91pOp9iv5Tdgq9nrg.jpg", "production_companies": [], "production_countries": [], "release_date": "1993-01-01", "revenue": 0, "runtime": 107, "spoken_languages": [], "status": "Released", "tagline": "They were the last thing this town wanted... But just what it needed.", "title": "Running Cool", "video": false, "vote_average": 5.5, "vote_count": 2, "keywords": {"keywords": [{"id": 6951, "name": "biker"}, {"id": 14735, "name": "motorcycle"}]}, "similar": {"page": 1, "results": [{"adult": false, "backdrop_path": "/7ZyiMee2s7kARJ0IvJOIgTyvmdp.jpg", "genre_ids": [12, 28, 53, 878], "id": 9659, "original_language": "en", "original_title": "Mad Max", "overview": "In a postapocalyptic future, jaded cop Max Rockatansky (Mel Gibson) is ready to retire. But his world is shattered when a malicious gang murders his family as an act of retaliation, forcing a devastated Max to hit the open road seeking vengeance. As he travels the Australian outback's empty stretches of highway, he tours the bloodstained battlegrounds ruled by marauding bikers who feed on violence.", "poster_path": "/5LrI4GiCSrChgkdskVZiwv643Kg.jpg", "release_date": "1979-04-12", "title": "Mad Max", "video": false, "vote_average": 6.7, "vote_count": 2363, "popularity": 25.432}, {"id": 71676, "video": false, "vote_count": 2238, "vote_average": 4.8, "title": "Ghost Rider: Spirit of Vengeance", "release_date": "2011-12-10", "original_language": "en", "original_title": "Ghost Rider: Spirit of Vengeance", "genre_ids": [28, 14, 53], "backdrop_path": "/9w9UtpeRPK797GzT7xQXuVRSUSj.jpg", "adult": false, "overview": "When the devil resurfaces with aims to take over the world in human form, Johnny Blaze reluctantly comes out of hiding to transform into the flame-spewing supernatural hero Ghost Rider -- and rescue a 10-year-old boy from an unsavory end.", "poster_path": "/tqwWzmp5ISh64SJbNKQ9fyItnDj.jpg", "popularity": 18.398}, {"id": 11199, "video": false, "vote_count": 1336, "vote_average": 5.8, "title": "Wild Hogs", "release_date": "2007-03-02", "original_language": "en", "original_title": "Wild Hogs", "genre_ids": [28, 12, 35], "backdrop_path": "/9tayGegNltU7dIwa6ZGFuEFofbP.jpg", "adult": false, "overview": "Restless and ready for adventure, four suburban bikers leave the safety of their subdivision and head out on the open road. But complications ensue when they cross paths with an intimidating band of New Mexico bikers known as the Del Fuegos.", "poster_path": "/7uxAapp2ZITmQmjdyodFgCAINAG.jpg", "popularity": 16.63}, {"adult": false, "backdrop_path": "/q9y3nnAAaQMjNHUYSlIypWeEo4F.jpg", "genre_ids": [18], "id": 9912, "original_language": "en", "original_title": "The World's Fastest Indian", "overview": "The life story of New Zealander Burt Munro, who spent years building a 1920 Indian motorcycle -- a bike which helped him set the land-speed world record at Utah's Bonneville Salt Flats in 1967.", "poster_path": "/h3xDXEEjppiyuRtMv6Cy5bcMTrG.jpg", "release_date": "2005-10-12", "title": "The World's Fastest Indian", "video": false, "vote_average": 7.5, "vote_count": 321, "popularity": 13.703}, {"adult": false, "backdrop_path": "/kSTvteM3ekuoeO7u7GJtZQkZuom.jpg", "genre_ids": [28, 53, 80], "id": 1948, "original_language": "en", "original_title": "Crank", "overview": "Professional assassin Chev Chelios learns his rival has injected him with a poison that will kill him if his heart rate drops.", "poster_path": "/6RnD3Zfh0tO0cD2vroWyH0F98Ej.jpg", "release_date": "2006-08-31", "title": "Crank", "video": false, "vote_average": 6.6, "vote_count": 2121, "popularity": 21.613}, {"adult": false, "backdrop_path": "/ysLIi9nzMbUqi4dQh3tqblUb27o.jpg", "genre_ids": [878, 28, 27, 53, 12, 14], "id": 36648, "original_language": "en", "original_title": "Blade: Trinity", "overview": "For years, Blade has fought against the vampires in the cover of the night. But now, after falling into the crosshairs of the FBI, he is forced out into the daylight, where he is driven to join forces with a clan of human vampire hunters he never knew existed\u2014The Nightstalkers. Together with Abigail and Hannibal, two deftly trained Nightstalkers, Blade follows a trail of blood to the ancient creature that is also hunting him\u2014the original vampire, Dracula.", "poster_path": "/4WinsdHQBdh5aTt7Bd7T7dbUXbb.jpg", "release_date": "2004-12-08", "title": "Blade: Trinity", "video": false, "vote_average": 5.8, "vote_count": 2278, "popularity": 19.358}, {"adult": false, "backdrop_path": "/nb70B4EXuoegiQ0C5N1fNVHIaYc.jpg", "genre_ids": [12, 18, 36, 53, 10752], "id": 5925, "original_language": "en", "original_title": "The Great Escape", "overview": "The Nazis, exasperated at the number of escapes from their prison camps by a relatively small number of Allied prisoners, relocates them to a high-security 'escape-proof' camp to sit out the remainder of the war. Undaunted, the prisoners plan one of the most ambitious escape attempts of World War II. Based on a true story.", "poster_path": "/qhy4HgUqhEbwQ1ekKTv7yEB3b0e.jpg", "release_date": "1963-06-20", "title": "The Great Escape", "video": false, "vote_average": 8.0, "vote_count": 1359, "popularity": 19.093}, {"adult": false, "backdrop_path": "/lHZ5H1jd4zVJYr1wfLKBdXYtZ17.jpg", "genre_ids": [12, 28, 53], "id": 714, "original_language": "en", "original_title": "Tomorrow Never Dies", "overview": "A deranged media mogul is staging international incidents to pit the world\u2019s superpowers against each other. Now 007 must take on this evil mastermind in an adrenaline-charged battle to end his reign of terror and prevent global pandemonium.", "poster_path": "/k3eI9q7ISgpDEu2CMwR2s6inJVp.jpg", "release_date": "1997-12-11", "title": "Tomorrow Never Dies", "video": false, "vote_average": 6.2, "vote_count": 1728, "popularity": 28.522}, {"adult": false, "backdrop_path": "/lnxiNlbStoBT4CDMqPAdprS5pwN.jpg", "genre_ids": [28, 53], "id": 1991, "original_language": "en", "original_title": "Death Proof", "overview": "Austin's hottest DJ, Jungle Julia, sets out into the night to unwind with her two friends Shanna and Arlene. Covertly tracking their moves is Stuntman Mike, a scarred rebel leering from behind the wheel of his muscle car, revving just feet away.", "poster_path": "/nyQBcpxqS4im2akQlWG9Y1oeM2V.jpg", "release_date": "2007-05-21", "title": "Death Proof", "video": false, "vote_average": 6.8, "vote_count": 2821, "popularity": 17.718}, {"id": 353081, "video": false, "vote_count": 4536, "vote_average": 7.3, "title": "Mission: Impossible - Fallout", "release_date": "2018-07-13", "original_language": "en", "original_title": "Mission: Impossible - Fallout", "genre_ids": [28, 12], "backdrop_path": "/aw4FOsWr2FY373nKSxbpNi3fz4F.jpg", "adult": false, "overview": "When an IMF mission ends badly, the world is faced with dire consequences. As Ethan Hunt takes it upon himself to fulfill his original briefing, the CIA begin to question his loyalty and his motives. The IMF team find themselves in a race against time, hunted by assassins while trying to prevent a global catastrophe.", "poster_path": "/AkJQpZp9WoNdj7pLYSj1L0RcMMN.jpg", "popularity": 47.921}, {"id": 2503, "video": false, "vote_count": 4835, "vote_average": 7.4, "title": "The Bourne Ultimatum", "release_date": "2007-08-03", "original_language": "en", "original_title": "The Bourne Ultimatum", "genre_ids": [28, 18, 9648, 53], "backdrop_path": "/6WpDOqkZFmhNJ0rwuLJiZVKlZi1.jpg", "adult": false, "overview": "Bourne is brought out of hiding once again by reporter Simon Ross who is trying to unveil Operation Blackbriar, an upgrade to Project Treadstone, in a series of newspaper columns. Information from the reporter stirs a new set of memories, and Bourne must finally uncover his dark past while dodging The Company's best efforts to eradicate him.", "poster_path": "/fHho6JYYY0nRcETWSoeI19iZsNF.jpg", "popularity": 16.034}, {"id": 1250, "video": false, "vote_count": 3587, "vote_average": 5.4, "title": "Ghost Rider", "release_date": "2007-02-16", "original_language": "en", "original_title": "Ghost Rider", "genre_ids": [28, 14, 27, 53], "backdrop_path": "/9cs9RuOS3A5YEh6r4opVrIGbiJy.jpg", "adult": false, "overview": "In order to save his dying father, young stunt cyclist Johnny Blaze sells his soul to Mephistopheles and sadly parts from the pure-hearted Roxanne Simpson, the love of his life. Years later, Johnny's path crosses again with Roxanne, now a go-getting reporter, and also with Mephistopheles, who offers to release Johnny's soul if Johnny becomes the fabled, fiery 'Ghost Rider'.", "poster_path": "/jnllnSq8u4d1oQPU7PsoAHD6bLU.jpg", "popularity": 43.677}, {"id": 699, "video": false, "vote_count": 908, "vote_average": 6.5, "title": "For Your Eyes Only", "release_date": "1981-06-23", "original_language": "en", "original_title": "For Your Eyes Only", "genre_ids": [28, 12, 53], "backdrop_path": "/hg8ecg8LrR8ChvZh4aMETNUraGA.jpg", "adult": false, "overview": "A British spy ship has sunk and on board was a hi-tech encryption device. James Bond is sent to find the device that holds British launching instructions before the enemy Soviets get to it first.", "poster_path": "/vpZZZ2eq8z4I6PSeGxR2UWNciGG.jpg", "popularity": 18.605}, {"id": 923, "video": false, "vote_count": 1067, "vote_average": 7.5, "title": "Dawn of the Dead", "release_date": "1978-09-02", "original_language": "en", "original_title": "Dawn of the Dead", "genre_ids": [27], "backdrop_path": "/vCD9mRgSY4HuoSowm8JO4tm2mhj.jpg", "adult": false, "overview": "During an ever-growing epidemic of zombies that have risen from the dead, two Philadelphia SWAT team members, a traffic reporter, and his television-executive girlfriend seek refuge in a secluded shopping mall.", "poster_path": "/yK8BmYEvd0IPpDXL6zzlTA2geDf.jpg", "popularity": 11.925}, {"adult": false, "backdrop_path": "/zWGAnbxjjwY3xFGuOeR26LGbBlG.jpg", "genre_ids": [27, 53], "id": 238636, "original_language": "en", "original_title": "The Purge: Anarchy", "overview": "One night per year, the government sanctions a 12-hour period in which citizens can commit any crime they wish -- including murder -- without fear of punishment or imprisonment. Leo, a sergeant who lost his son, plans a vigilante mission of revenge during the mayhem. However, instead of a death-dealing avenger, he becomes the unexpected protector of four innocent strangers who desperately need his help if they are to survive the night.", "poster_path": "/l1DRl40x2OWUoPP42v8fjKdS1Z3.jpg", "release_date": "2014-07-17", "title": "The Purge: Anarchy", "video": false, "vote_average": 6.6, "vote_count": 4145, "popularity": 36.766}, {"id": 473149, "video": false, "vote_count": 195, "vote_average": 5.9, "title": "Traffik", "release_date": "2018-04-20", "original_language": "en", "original_title": "Traffik", "genre_ids": [27, 53], "backdrop_path": "/wbk9VvJ8lkUF0ElpfRm3dFIzMJf.jpg", "adult": false, "overview": "A couple off for a romantic weekend in the mountains are accosted by a biker gang. Alone in the mountains, Brea and John must defend themselves against the gang, who will stop at nothing to protect their secrets.", "poster_path": "/e2Z466e9402RFP6wxRMfXYYiJHA.jpg", "popularity": 31.63}, {"id": 16290, "video": false, "vote_count": 736, "vote_average": 6.3, "title": "Jackass 3D", "release_date": "2010-10-15", "original_language": "en", "original_title": "Jackass 3D", "genre_ids": [28, 35, 99], "backdrop_path": "/9g907Zc9ezEF28TGyDcnMEpyzxz.jpg", "adult": false, "overview": "Jackass 3D is a 3-D film and the third movie of the Jackass series. It follows the same premise as the first two movies, as well as the TV series. It is a compilation of various pranks, stunts and skits. Before the movie begins, a brief introduction is made by Beavis and Butt-head explaining the 3D technology behind the movie. The intro features the cast lining up and then being attacked by various objects in slow-motion. The movie marks the 10th anniversary of the franchise, started in 2000.", "poster_path": "/5j9VFEVjYn0FtqZGqDcmMPYSVoY.jpg", "popularity": 18.349}, {"id": 460885, "video": false, "vote_count": 794, "vote_average": 6.2, "title": "Mandy", "release_date": "2018-09-13", "original_language": "en", "original_title": "Mandy", "genre_ids": [28, 14, 27, 9648, 53], "backdrop_path": "/mqbAmIiToU2R4VwZGgCqsfy6Yh4.jpg", "adult": false, "overview": "The Shadow Mountains, 1983. Red and Mandy lead a loving and peaceful existence; but when their pine-scented haven is savagely destroyed, Red is catapulted into a phantasmagoric journey filled with bloody vengeance and laced with fire.", "poster_path": "/m0yf7J7HsKeK6E81SMRcX8vx6mH.jpg", "popularity": 12.535}, {"id": 20526, "video": false, "vote_count": 4743, "vote_average": 6.4, "title": "TRON: Legacy", "release_date": "2010-12-10", "original_language": "en", "original_title": "TRON: Legacy", "genre_ids": [28, 12, 878], "backdrop_path": "/6hquJfTEM97bqMekCOPO50SLbzr.jpg", "adult": false, "overview": "Sam Flynn, the tech-savvy and daring son of Kevin Flynn, investigates his father's disappearance and is pulled into The Grid. With the help of a mysterious program named Quorra, Sam quests to stop evil dictator Clu from crossing into the real world.", "poster_path": "/vllvystwQjmXzy5OvBKnGl1JREF.jpg", "popularity": 25.716}, {"adult": false, "backdrop_path": "/7B3I7S9a4bLonbYw6XVcoDzW8RT.jpg", "genre_ids": [18, 10749], "id": 109689, "original_language": "es", "original_title": "Tengo ganas de ti", "overview": "Sequel to \"Three Steps Above Heaven\". The sexy Gin is the new love of Hache, but this can not forget his former girlfriend, so the love triangle is inevitable.", "poster_path": "/z13I3sWzOoKBDAEpJ7iK9bSznQn.jpg", "release_date": "2012-06-22", "title": "I Want You", "video": false, "vote_average": 6.7, "vote_count": 694, "popularity": 17.432}], "total_pages": 32, "total_results": 640}, "recommendations": {"page": 1, "results": [], "total_pages": 1, "total_results": 0}, "credits": {"cast": [{"cast_id": 1, "character": "Bone", "credit_id": "52fe47ee9251416c9107a751", "gender": 2, "id": 36218, "name": "Andrew Divoff", "order": 0, "profile_path": "/3ana0vJs5uLDXb6dSHvp5naKmcl.jpg"}, {"cast_id": 2, "character": "Blue Hogg", "credit_id": "52fe47ee9251416c9107a755", "gender": 0, "id": 590888, "name": "Tracy Sebastian", "order": 1, "profile_path": null}, {"cast_id": 3, "character": "Michele", "credit_id": "52fe47ee9251416c9107a759", "gender": 1, "id": 91332, "name": "Dedee Pfeiffer", "order": 2, "profile_path": "/9kgehqEvh92wzKzFpunMIckZTHf.jpg"}, {"cast_id": 4, "character": "Calvin Hogg", "credit_id": "52fe47ee9251416c9107a75d", "gender": 2, "id": 7675, "name": "Paul Gleason", "order": 3, "profile_path": "/TKFcITuV9vyTSZe55B8klclPor.jpg"}, {"cast_id": 5, "character": "Sheriff", "credit_id": "52fe47ee9251416c9107a761", "gender": 2, "id": 118130, "name": "Arlen Dean Snyder", "order": 4, "profile_path": "/odiWGU3I6q7I1vkBArpf30CLs5b.jpg"}, {"cast_id": 6, "character": "Bear", "credit_id": "52fe47ee9251416c9107a765", "gender": 0, "id": 214541, "name": "Bubba Baker", "order": 5, "profile_path": "/cOwoMbFEjxEtVxwS0weOXMcnNWo.jpg"}, {"cast_id": 7, "character": "Ironbutt Garrett", "credit_id": "52fe47ee9251416c9107a769", "gender": 2, "id": 16433, "name": "James Gammon", "order": 6, "profile_path": "/4oTidbjDQ8XU3LHot249SMlVLn4.jpg"}, {"cast_id": 8, "character": "Bubba", "credit_id": "52fe47ee9251416c9107a76d", "gender": 2, "id": 114454, "name": "BJ Davis", "order": 7, "profile_path": "/2pQ7B35DvNmxuh0Gek0C7wz1Ci9.jpg"}, {"cast_id": 11, "character": "Biker Chick", "credit_id": "5e13e8449020120015b94c3a", "gender": 1, "id": 1275809, "name": "Jan MacKenzie", "order": 8, "profile_path": null}], "crew": [{"credit_id": "52fe47ee9251416c9107a773", "department": "Directing", "gender": 0, "id": 45489, "job": "Director", "name": "Beverly Sebastian", "profile_path": null}, {"credit_id": "52fe47ee9251416c9107a779", "department": "Directing", "gender": 0, "id": 45491, "job": "Director", "name": "Ferd Sebastian", "profile_path": "/9LYTMpuj3dt3UpkMcXchbPwCCiz.jpg"}]}}