{"adult": false, "backdrop_path": "/9USOkbm3qu2bYwWMaymhVnKP3qR.jpg", "belongs_to_collection": null, "budget": 0, "genres": [{"id": 36, "name": "History"}, {"id": 18, "name": "Drama"}], "homepage": null, "id": 81004, "imdb_id": "tt0071242", "original_language": "it", "original_title": "Fatti di gente perbene", "overview": "Based on a true incident, this tells the story of a troubled young man who kills his sister's reactionary, violent and abusive husband and is eventually arrested for the murder. However, the dead husband happened to be a member of the Italian nobility, and the trial starts to turn into more of a prosecution of the defendant's socialist politics and the activities of his father, a well known liberal social reformer, than the actual crime itself.", "popularity": 1.538, "poster_path": "/u8j7P9KqhCqakihitLKmck7VmaS.jpg", "production_companies": [{"id": 10522, "logo_path": null, "name": "Lira Films", "origin_country": "FR"}, {"id": 64910, "logo_path": null, "name": "Filmarpa", "origin_country": ""}], "production_countries": [{"iso_3166_1": "FR", "name": "France"}, {"iso_3166_1": "IT", "name": "Italy"}], "release_date": "1974-09-28", "revenue": 0, "runtime": 115, "spoken_languages": [{"iso_639_1": "it", "name": "Italiano"}], "status": "Released", "tagline": "", "title": "The Murri Affair", "video": false, "vote_average": 6.0, "vote_count": 2, "keywords": {"keywords": [{"id": 924, "name": "italian"}]}, "similar": {"page": 1, "results": [{"id": 52345, "video": false, "vote_count": 221, "vote_average": 7.8, "title": "Lisbela and the Prisoner", "release_date": "2003-08-22", "original_language": "pt", "original_title": "Lisbela e o Prisioneiro", "genre_ids": [35, 10749], "backdrop_path": "/4KDlC0cZvR5LtszqjFhZcMzdiUD.jpg", "adult": false, "overview": "Lisbela is a young woman who loves going to the movies. Lel\u00e9u is a con man, going from town to town selling all sort of things and performing as master of ceremonies for some cheesy numbers, such as the woman who gets transformed into a gorilla. He gets involved with Linaura, a sexy and beautiful woman who happens to be the wife of the most frightening hitman of the place. The hitman finds out his wife's affair and goes after Lel\u00e9u, who has to leave in a hurry. In another town, he meets and falls instantly in love with Lisbela, who is engaged to Douglas, a hillbilly who tries hard to pass for a cosmopolitan Rio de Janeiro dweller.", "poster_path": "/9nlaRxQeYaMrVVANMppagFohCRP.jpg", "popularity": 1.042}, {"adult": false, "backdrop_path": "/yl0siKWmGjnBcuCEacKyW0vHsWq.jpg", "genre_ids": [10749, 18], "id": 409387, "original_language": "ko", "original_title": "\uc815\uc0ac : \uacb0\ud63c \ub9d0\uace0 \uc5f0\uc560", "overview": "\"Getting married is crazy! I only want to be in relationships!\" The life story of a woman who doesn't want to settle for one man. Her mom nags at her to get married, her superior grills her to bring results and her boyfriend turns out to be married. Soo-kyeong comforts herself with some spicy food. One lonely birthday, she ends up having sex with the chef of the spicy food restaurant. They fit well mentally and physically so they get closer but Soo-kyeong rejects the chef's marriage proposal. The chef gets married with someone else and asks her, \"I got married with someone else like you said. Now will you have a relationship with me?\"", "poster_path": "/4hiv07Quj8A7J8onCIAjNCy62Er.jpg", "release_date": "2016-04-19", "title": "Sex: A Relationship and Not Marriage", "video": false, "vote_average": 7.7, "vote_count": 3, "popularity": 11.678}, {"id": 50620, "video": false, "vote_count": 5631, "vote_average": 6.3, "title": "The Twilight Saga: Breaking Dawn - Part 2", "release_date": "2012-11-13", "original_language": "en", "original_title": "The Twilight Saga: Breaking Dawn - Part 2", "genre_ids": [12, 18, 14, 10749], "backdrop_path": "/xDWphxQqBfZJVlTrg6C0GQBSeUc.jpg", "adult": false, "overview": "After the birth of Renesmee, the Cullens gather other vampire clans in order to protect the child from a false allegation that puts the family in front of the Volturi.", "poster_path": "/kJQPygYB8aNEevZZHRifyYrAdU9.jpg", "popularity": 21.925}, {"id": 521, "video": false, "vote_count": 1257, "vote_average": 8.0, "title": "Dial M for Murder", "release_date": "1954-05-29", "original_language": "en", "original_title": "Dial M for Murder", "genre_ids": [80, 18, 9648, 53], "backdrop_path": "/jVMlfESb0TJ29w8CUDDofEprMmn.jpg", "adult": false, "overview": "An ex-tennis pro carries out a plot to have his wife murdered after discovering she is having an affair, and assumes she will soon leave him for the other man anyway. When things go wrong, he improvises a new plan\u2014to frame her for murder instead.", "poster_path": "/xrpK1PyckNWmRxU4kZURfaCyboS.jpg", "popularity": 28.336}, {"id": 75780, "video": false, "vote_count": 4451, "vote_average": 6.4, "title": "Jack Reacher", "release_date": "2012-12-20", "original_language": "en", "original_title": "Jack Reacher", "genre_ids": [28, 80, 18, 53], "backdrop_path": "/ezXodpP429qK0Av89pVNlaXWJkQ.jpg", "adult": false, "overview": "When a gunman takes five lives with six shots, all evidence points to the suspect in custody. On interrogation, the suspect offers up a single note: \"Get Jack Reacher!\" So begins an extraordinary chase for the truth, pitting Jack Reacher against an unexpected enemy, with a skill for violence and a secret to keep.", "poster_path": "/mt0ELw83HIRgaKaDzhsDcIi0RnW.jpg", "popularity": 15.945}, {"adult": false, "backdrop_path": "/98ahnrena4PwLth7HFYGLf9yssH.jpg", "genre_ids": [35, 18, 10749], "id": 22705, "original_language": "it", "original_title": "Tra(sgre)dire", "overview": "While scouting out apartments in London for her Venetian boyfriend, Carla rents an apartment that overlooks the Thames. There she meet the lesbian hyper-horny real estate agent Moira.", "poster_path": "/kZITrLEiTfzzJhtwtXhQUl3ImCQ.jpg", "release_date": "2000-01-28", "title": "Cheeky", "video": false, "vote_average": 5.7, "vote_count": 92, "popularity": 30.42}, {"id": 67308, "video": false, "vote_count": 44, "vote_average": 4.8, "title": "3-D Sex and Zen: Extreme Ecstasy", "release_date": "2011-04-14", "original_language": "cn", "original_title": "3D\u8089\u84b2\u5718\u4e4b\u6975\u6a02\u5bf6\u9451", "genre_ids": [12, 18, 10749], "backdrop_path": "/xHsqBcDy5VvV4MuI974HuIoRRQc.jpg", "adult": false, "overview": "Loosely based on a 17th century erotic Chinese story named The Carnal Prayer Mat, the story follows a young scholar named Yangsheng who gets married to the beautiful daughter of a local merchant. When their sex life proves unsatisfactory, Yangsheng leaves home and journeys to the Pavilion of Ultimate Bliss.", "poster_path": "/dEb0Kb0xmUuHmO1Dk4WKHuaw5Cw.jpg", "popularity": 27.871}, {"adult": false, "backdrop_path": "/6xKCYgH16UuwEGAyroLU6p8HLIn.jpg", "genre_ids": [18, 80], "id": 238, "original_language": "en", "original_title": "The Godfather", "overview": "Spanning the years 1945 to 1955, a chronicle of the fictional Italian-American Corleone crime family. When organized crime family patriarch, Vito Corleone barely survives an attempt on his life, his youngest son, Michael steps in to take care of the would-be killers, launching a campaign of bloody revenge.", "poster_path": "/rPdtLWNsZmAtoZl9PK7S2wE3qiS.jpg", "release_date": "1972-03-14", "title": "The Godfather", "video": false, "vote_average": 8.6, "vote_count": 11276, "popularity": 47.035}, {"id": 240, "video": false, "vote_count": 6634, "vote_average": 8.5, "title": "The Godfather: Part II", "release_date": "1974-12-20", "original_language": "en", "original_title": "The Godfather: Part II", "genre_ids": [80, 18], "backdrop_path": "/gLbBRyS7MBrmVUNce91Hmx9vzqI.jpg", "adult": false, "overview": "In the continuing saga of the Corleone crime family, a young Vito Corleone grows up in Sicily and in 1910s New York. In the 1950s, Michael Corleone attempts to expand the family business into Las Vegas, Hollywood and Cuba.", "poster_path": "/bVq65huQ8vHDd1a4Z37QtuyEvpA.jpg", "popularity": 30.089}, {"id": 9647, "video": false, "vote_count": 786, "vote_average": 6.9, "title": "Scrooged", "release_date": "1988-11-22", "original_language": "en", "original_title": "Scrooged", "genre_ids": [35, 18, 14], "backdrop_path": "/6xezVJoUp0cZUBQeIDpW6lFuhcd.jpg", "adult": false, "overview": "In this modern take on Charles Dickens' \"A Christmas Carol,\" Frank Cross (Bill Murray) is a wildly successful television executive whose cold ambition and curmudgeonly nature has driven away the love of his life, Claire Phillips (Karen Allen). But after firing a staff member, Eliot Loudermilk (Bobcat Goldthwait), on Christmas Eve, Frank is visited by a series of ghosts who give him a chance to re-evaluate his actions and right the wrongs of his past.", "poster_path": "/uO0znfB2ZzTXA1IS7jkrjNbpkYK.jpg", "popularity": 17.767}, {"adult": false, "backdrop_path": "/bRGtZsVj2Qq8r5CCsNYmQUPF4z4.jpg", "genre_ids": [80, 18, 878, 53], "id": 10559, "original_language": "en", "original_title": "Frequency", "overview": "When a rare phenomenon gives police officer John Sullivan the chance to speak to his father, 30 years in the past, he takes the opportunity to prevent his dad's tragic death.  After his actions inadvertently give rise to a series of brutal murders he and his father must find a way to fix the consequences of altering time.", "poster_path": "/n0QAAZmIaPPIShVkk8eiKwfGV9.jpg", "release_date": "2000-04-28", "title": "Frequency", "video": false, "vote_average": 7.1, "vote_count": 897, "popularity": 14.026}, {"id": 37247, "video": false, "vote_count": 1749, "vote_average": 7.7, "title": "The Graduate", "release_date": "1967-12-21", "original_language": "en", "original_title": "The Graduate", "genre_ids": [35, 18], "backdrop_path": "/sEWKMIlgUCCb2n5mT0Mf71DRKLR.jpg", "adult": false, "overview": "Benjamin, a recent college graduate very worried about his future, finds himself in a love triangle with an older woman and her daughter.", "poster_path": "/qtVvdSsm2hvau6ItLe4gWdFKe2M.jpg", "popularity": 15.847}, {"id": 272, "video": false, "vote_count": 13437, "vote_average": 7.6, "title": "Batman Begins", "release_date": "2005-06-10", "original_language": "en", "original_title": "Batman Begins", "genre_ids": [28, 80, 18], "backdrop_path": "/9myrRcegWGGp24mpVfkD4zhUfhi.jpg", "adult": false, "overview": "Driven by tragedy, billionaire Bruce Wayne dedicates his life to uncovering and defeating the corruption that plagues his home, Gotham City.  Unable to work within the system, he instead creates a new identity, a symbol of fear for the criminal underworld - The Batman.", "poster_path": "/dr6x4GyyegBWtinPBzipY02J2lV.jpg", "popularity": 54.458}, {"id": 210577, "video": false, "vote_count": 11617, "vote_average": 7.9, "title": "Gone Girl", "release_date": "2014-10-01", "original_language": "en", "original_title": "Gone Girl", "genre_ids": [18, 9648, 53], "backdrop_path": "/8ZNGBfGoN3uI5Akj5vEUDMxvmGO.jpg", "adult": false, "overview": "With his wife's disappearance having become the focus of an intense media circus, a man sees the spotlight turned on him when it's suspected that he may not be innocent.", "poster_path": "/gdiLTof3rbPDAmPaCf4g6op46bj.jpg", "popularity": 42.468}, {"adult": false, "backdrop_path": "/gt7HbwIA5xS1s8jrjy18t3Pfnvz.jpg", "genre_ids": [18], "id": 705, "original_language": "en", "original_title": "All About Eve", "overview": "From the moment she glimpses her idol at the stage door, Eve Harrington is determined to take the reins of power away from the great actress Margo Channing. Eve maneuvers her way into Margo's Broadway role, becomes a sensation and even causes turmoil in the lives of Margo's director boyfriend, her playwright and his wife. Only the cynical drama critic sees through Eve, admiring her audacity and perfect pattern of deceit.", "poster_path": "/6numIZH6uR3NlJgY9m7nGH0jhs.jpg", "release_date": "1950-10-06", "title": "All About Eve", "video": false, "vote_average": 8.2, "vote_count": 785, "popularity": 16.618}, {"adult": false, "backdrop_path": "/t52ImvH020yOvoEhH6sRzC6XoCj.jpg", "genre_ids": [18], "id": 406, "original_language": "fr", "original_title": "La Haine", "overview": "Aimlessly whiling away their days in the concrete environs of their dead-end suburbia, Vinz, Hubert, and Said - a Jew, African, and an Arab - give human faces to France's immigrant populations, their bristling resentment at their social marginalization slowly simmering until it reaches a climactic boiling point.", "poster_path": "/jTzBED0leGPwWDqNewye11qzJgd.jpg", "release_date": "1995-05-31", "title": "La Haine", "video": false, "vote_average": 8.0, "vote_count": 1734, "popularity": 16.874}, {"id": 1538, "video": false, "vote_count": 2891, "vote_average": 7.2, "title": "Collateral", "release_date": "2004-08-04", "original_language": "en", "original_title": "Collateral", "genre_ids": [80, 18, 53], "backdrop_path": "/hFcXrnmciPfIg8ZcXb1V7BeguF.jpg", "adult": false, "overview": "Cab driver Max picks up a man who offers him $600 to drive him around. But the promise of easy money sours when Max realizes his fare is an assassin.", "poster_path": "/fmkv2eRuYCTq7A5jzMBNgoNe1vA.jpg", "popularity": 22.701}, {"id": 372058, "video": false, "vote_count": 4878, "vote_average": 8.5, "title": "Your Name.", "release_date": "2016-08-26", "original_language": "ja", "original_title": "\u541b\u306e\u540d\u306f\u3002", "genre_ids": [16, 18, 10749], "backdrop_path": "/7OMAfDJikBxItZBIug0NJig5DHD.jpg", "adult": false, "overview": "High schoolers Mitsuha and Taki are complete strangers living separate lives. But one night, they suddenly switch places. Mitsuha wakes up in Taki\u2019s body, and he in hers. This bizarre occurrence continues to happen randomly, and the two must adjust their lives around each other.", "poster_path": "/xq1Ugd62d23K2knRUx6xxuALTZB.jpg", "popularity": 40.419}, {"id": 289, "video": false, "vote_count": 2866, "vote_average": 8.1, "title": "Casablanca", "release_date": "1942-01-23", "original_language": "en", "original_title": "Casablanca", "genre_ids": [18, 10749], "backdrop_path": "/5tE7iKSpBrc4z6LqF5kHutMm6KQ.jpg", "adult": false, "overview": "In Casablanca, Morocco in December 1941, a cynical American expatriate meets a former lover, with unforeseen complications.", "poster_path": "/wOBKAoUJZb5qTsWv5XXvVV2vUzz.jpg", "popularity": 21.116}, {"id": 947, "video": false, "vote_count": 1588, "vote_average": 8.0, "title": "Lawrence of Arabia", "release_date": "1962-12-10", "original_language": "en", "original_title": "Lawrence of Arabia", "genre_ids": [12, 18, 36, 10752], "backdrop_path": "/lENerYvUcfl9GlolqA1emj5gb4k.jpg", "adult": false, "overview": "The story of British officer T.E. Lawrence's mission to aid the Arab tribes in their revolt against the Ottoman Empire during the First World War. Lawrence becomes a flamboyant, messianic figure in the cause of Arab unity but his psychological instability threatens to undermine his achievements.", "poster_path": "/j21UXCOq0EbV8EPTtmPn1CGePfB.jpg", "popularity": 17.37}], "total_pages": 196, "total_results": 3916}, "recommendations": {"page": 1, "results": [], "total_pages": 1, "total_results": 0}, "credits": {"cast": [{"cast_id": 3, "character": "Linda Murri", "credit_id": "52fe47ef9251416c9107a9a1", "gender": 1, "id": 50, "name": "Catherine Deneuve", "order": 0, "profile_path": "/uWyxHLelec5SBEyE98NaSqvMUe2.jpg"}, {"cast_id": 4, "character": "Tullio Murri", "credit_id": "52fe47ef9251416c9107a9a5", "gender": 2, "id": 3753, "name": "Giancarlo Giannini", "order": 1, "profile_path": "/mQhczMQRP26B4LBsKA7ZUnzxMFN.jpg"}, {"cast_id": 5, "character": "Prof. Murri", "credit_id": "52fe47ef9251416c9107a9a9", "gender": 2, "id": 14821, "name": "Fernando Rey", "order": 2, "profile_path": "/dK8oBtRU5z8pA0LvMqh09leXQVc.jpg"}, {"cast_id": 6, "character": "Rosa Bonetti", "credit_id": "52fe47ef9251416c9107a9ad", "gender": 1, "id": 109142, "name": "Tina Aumont", "order": 3, "profile_path": "/dg8VhEYHh5QD1tDeILKivbng0LO.jpg"}, {"cast_id": 7, "character": "Francesco Bombardini", "credit_id": "5a1fee25925141032908f087", "gender": 2, "id": 4819, "name": "Paolo Bonacelli", "order": 4, "profile_path": "/7h2EJQ19m9pZCfyGEoXb8aEFIF2.jpg"}, {"cast_id": 8, "character": "Giannina Murri", "credit_id": "5a1fee3c92514103300889f6", "gender": 1, "id": 15136, "name": "Rina Morelli", "order": 5, "profile_path": "/z6SkcMn2DM58Kg9n7MCN1Pjxhn6.jpg"}, {"cast_id": 9, "character": "Tisa Borghi", "credit_id": "5a1fee52925141033908c0ea", "gender": 1, "id": 7710, "name": "Laura Betti", "order": 6, "profile_path": "/z1gRI0KcshCyTGBm10Hgp5FUslO.jpg"}, {"cast_id": 10, "character": "Pio Naldi", "credit_id": "5a1fee67c3a3680b9308cef5", "gender": 2, "id": 123910, "name": "Corrado Pani", "order": 7, "profile_path": "/mdUMFKjM50dG7K1QWXjpebdGdJM.jpg"}], "crew": [{"credit_id": "5a9ecdb5925141581e000cee", "department": "Sound", "gender": 2, "id": 1259, "job": "Original Music Composer", "name": "Ennio Morricone", "profile_path": "/tlntfyflyEHgJTFjqIgg8P8UIx9.jpg"}, {"credit_id": "5a1fef37c3a3680b9608c7a2", "department": "Costume & Make-Up", "gender": 1, "id": 1304, "job": "Costume Design", "name": "Gabriella Pescucci", "profile_path": "/Ab3ScBqsENKHAQFL1gOPG07XIqU.jpg"}, {"credit_id": "5a1fef1ec3a3680b9d08634e", "department": "Editing", "gender": 2, "id": 4670, "job": "Editor", "name": "Nino Baragli", "profile_path": null}, {"credit_id": "5a9ecdacc3a3680a19000d91", "department": "Camera", "gender": 2, "id": 26267, "job": "Director of Photography", "name": "Ennio Guarnieri", "profile_path": null}, {"credit_id": "52fe47ef9251416c9107a997", "department": "Directing", "gender": 2, "id": 227520, "job": "Director", "name": "Mauro Bolognini", "profile_path": "/A7UguXqU4FW5GPA0V3QTkQkSGJ3.jpg"}, {"credit_id": "5a1feee90e0a264cc108a545", "department": "Writing", "gender": 2, "id": 227520, "job": "Writer", "name": "Mauro Bolognini", "profile_path": "/A7UguXqU4FW5GPA0V3QTkQkSGJ3.jpg"}, {"credit_id": "5a1feedf9251410330088a88", "department": "Writing", "gender": 0, "id": 1052170, "job": "Writer", "name": "Sergio Bazzini", "profile_path": null}]}}