{"adult": false, "backdrop_path": "/qmasejGwjv01QB5SVi3DS7B2Poa.jpg", "belongs_to_collection": null, "budget": 0, "genres": [{"id": 27, "name": "Horror"}], "homepage": null, "id": 81437, "imdb_id": "tt0084272", "original_language": "en", "original_title": "The Love Butcher", "overview": "The twisted tale of Caleb, and his alter ego Lester. After being pushed around too far, Caleb transforms into Lester and returns to those who have wronged him.", "popularity": 1.44, "poster_path": "/aW8eoEajBxmvikzo5uozDo7jWIu.jpg", "production_companies": [], "production_countries": [], "release_date": "1975-12-01", "revenue": 0, "runtime": 85, "spoken_languages": [{"iso_639_1": "en", "name": "English"}], "status": "Released", "tagline": "He Wants More Than Your Love", "title": "The Love Butcher", "video": false, "vote_average": 6.0, "vote_count": 5, "keywords": {"keywords": [{"id": 233450, "name": "proto-slasher"}]}, "similar": {"page": 1, "results": [{"adult": false, "backdrop_path": "/1uTsElgkaNwU1onA8ypDVZpjQPf.jpg", "genre_ids": [27, 53], "id": 5486, "original_language": "it", "original_title": "Ecologia del delitto", "overview": "An elderly heiress is killed by her husband who wants control of her fortunes. What ensues is an all-out murder spree as relatives and friends attempt to reduce the inheritance playing field, complicated by some teenagers who decide to camp out in a dilapidated building on the estate.", "poster_path": "/5l3LNFzdF50lImSYHmTpGdRndM2.jpg", "release_date": "1971-08-08", "title": "A Bay of Blood", "video": false, "vote_average": 6.5, "vote_count": 154, "popularity": 9.806}, {"id": 18573, "video": false, "vote_count": 144, "vote_average": 6.9, "title": "House of Wax", "release_date": "1953-04-10", "original_language": "en", "original_title": "House of Wax", "genre_ids": [27, 9648], "backdrop_path": "/yDYaL4riAMFmMfKK0JGtQAHfhT7.jpg", "adult": false, "overview": "A New York sculptor who opens a wax museum to showcase the likenesses of famous historical figures runs into trouble with his business partner, who demands that the exhibits become more extreme in order to increase profits.", "poster_path": "/xHnnSZVhyXcUZvmTtVZqI4WIMYG.jpg", "popularity": 9.946}, {"adult": false, "backdrop_path": "/ps6WRI6dnGryN9a0xwiTaV8zwAo.jpg", "genre_ids": [18, 27, 53], "id": 29396, "original_language": "en", "original_title": "Strait-Jacket", "overview": "After a 20 year stay at an asylum for a double murder, a mother returns to her estranged daughter where suspicions arise about her behaviour.", "poster_path": "/5hpO535KjM7alLCtQpRjsMgTj8p.jpg", "release_date": "1964-01-19", "title": "Strait-Jacket", "video": false, "vote_average": 6.6, "vote_count": 50, "popularity": 6.513}, {"adult": false, "backdrop_path": "/jPQHiLRWj8nry3cvTaN4iDI8HnQ.jpg", "genre_ids": [27, 9648, 53], "id": 29394, "original_language": "en", "original_title": "Homicidal", "overview": "The story centers around a murderous scheme to collect a rich inheritance. The object of murder is Miriam Webster, who is to share in the inheritance with her half brother Warren, who lives with his childhood guardian Helga in the mansion where Warren and Mariam grew up. Confined to a wheelchair after recently suffering a stroke, Helga is cared for by her nurse Emily, a strange young woman who has formed a close bond with Warren.", "poster_path": "/vlZQlwdGJSRopkokReMPpqUNBjj.jpg", "release_date": "1961-07-26", "title": "Homicidal", "video": false, "vote_average": 6.1, "vote_count": 30, "popularity": 4.525}, {"id": 539, "video": false, "vote_count": 5674, "vote_average": 8.4, "title": "Psycho", "release_date": "1960-06-16", "original_language": "en", "original_title": "Psycho", "genre_ids": [18, 27, 53], "backdrop_path": "/3md49VBCeqY6MSNyAVY6d5eC6bA.jpg", "adult": false, "overview": "When larcenous real estate clerk Marion Crane goes on the lam with a wad of cash and hopes of starting a new life, she ends up at the notorious Bates Motel, where manager Norman Bates cares for his housebound mother. The place seems quirky, but fine\u2026 until Marion decides to take a shower.", "poster_path": "/81d8oyEFgj7FlxJqSDXWr8JH8kV.jpg", "popularity": 25.393}, {"id": 11974, "video": false, "vote_count": 611, "vote_average": 6.8, "title": "The 'Burbs", "release_date": "1989-02-17", "original_language": "en", "original_title": "The 'Burbs", "genre_ids": [35, 27, 53], "backdrop_path": "/yCOTJnV7I0UcusTycv5bGEDQ5ll.jpg", "adult": false, "overview": "When secretive new neighbors move in next door, suburbanite Ray Peterson and his friends let their paranoia get the best of them as they start to suspect the newcomers of evildoings and commence an investigation. But it's hardly how Ray, who much prefers drinking beer, reading his newspaper and watching a ball game on the tube expected to spend his vacation.", "poster_path": "/zPEECSo5ZOBr9oEmBLSVXcqndTO.jpg", "popularity": 13.086}, {"id": 26466, "video": false, "vote_count": 1225, "vote_average": 6.8, "title": "Triangle", "release_date": "2009-10-16", "original_language": "en", "original_title": "Triangle", "genre_ids": [27], "backdrop_path": "/cL1R5nz7BUVU3d2shLDTaDcU0Ga.jpg", "adult": false, "overview": "When Jess sets sail on a yacht with a group of friends, she cannot shake the feeling that there is something wrong. Her suspicions are realised when the yacht hits a storm and the group is forced to board a passing ocean liner to get to safety, a ship Jess is convinced she\u2019s been on before.", "poster_path": "/hjC00Wus7IoCywVTHt68W8QxcyW.jpg", "popularity": 17.447}, {"adult": false, "backdrop_path": "/kiOnPmm5P9hhvC6bhYvqvpgZGp.jpg", "genre_ids": [18, 27, 53], "id": 11804, "original_language": "en", "original_title": "White Noise", "overview": "An architect's desire to speak with his wife from beyond the grave using EVP (Electronic Voice Phenomenon), becomes an obsession with supernatural repercussions.", "poster_path": "/jilH5XTvUdF8vCo4aCWscctGG7V.jpg", "release_date": "2005-01-07", "title": "White Noise", "video": false, "vote_average": 5.6, "vote_count": 466, "popularity": 16.679}, {"id": 13207, "video": false, "vote_count": 1377, "vote_average": 5.8, "title": "Friday the 13th", "release_date": "2009-02-11", "original_language": "en", "original_title": "Friday the 13th", "genre_ids": [27], "backdrop_path": "/m7vZl6YTFIHm917fCBgNOb9c4Sp.jpg", "adult": false, "overview": "Ignoring the warnings of the locals, a group of teenage camp counselors takes on the job of reopening Camp Crystal Lake \u2014 on Friday the 13th no less, and raise the ire of Jason Voorhees, a masked, homicidal maniac.", "poster_path": "/vvv8MVGHIuGjtN3ZZmNlAKitsTo.jpg", "popularity": 16.947}, {"id": 10497, "video": false, "vote_count": 282, "vote_average": 7.0, "title": "Bitter Moon", "release_date": "1992-09-02", "original_language": "en", "original_title": "Bitter Moon", "genre_ids": [18, 53, 10749], "backdrop_path": "/aQEByvmVJHPcGXzdYYFJhSitaGW.jpg", "adult": false, "overview": "An embittered husband, paralyzed and in a wheelchair, buttonholes a complete stranger and begins to tell him the story of his marriage. The stranger would like to escape, but cannot. For one thing he grows fascinated by the story. For another he is mesmerized by the man's wife, who has perfected that trick of looking a man boldly in the eye until, by looking away, he concedes sexual supremacy.", "poster_path": "/hGvO7nzNc9S2qKaY2blBb3qHHkQ.jpg", "popularity": 15.264}, {"id": 10141, "video": false, "vote_count": 414, "vote_average": 7.1, "title": "Dirty Rotten Scoundrels", "release_date": "1988-12-14", "original_language": "en", "original_title": "Dirty Rotten Scoundrels", "genre_ids": [35, 80], "backdrop_path": "/coemYANmOCtpXE98qdXzQ0uqqG5.jpg", "adult": false, "overview": "Two con men try to settle their rivalry by betting on who can be the first to swindle a young American heiress out of $50,000.", "poster_path": "/fdwW9gwi50lmgPyv2teT2NCjElO.jpg", "popularity": 13.37}, {"id": 2604, "video": false, "vote_count": 844, "vote_average": 7.0, "title": "Born on the Fourth of July", "release_date": "1989-12-20", "original_language": "en", "original_title": "Born on the Fourth of July", "genre_ids": [18, 10752], "backdrop_path": "/t9MrNY0xM9U5JSe5vHN9z08UYty.jpg", "adult": false, "overview": "The biography of Ron Kovic. Paralyzed in the Vietnam war, he becomes an anti-war and pro-human rights political activist after feeling betrayed by the country he fought for.", "poster_path": "/iAUSzQNpxf9fX1EvhNbeguo6aVA.jpg", "popularity": 12.659}, {"id": 167032, "video": false, "vote_count": 802, "vote_average": 5.8, "title": "Curse of Chucky", "release_date": "2013-10-04", "original_language": "en", "original_title": "Curse of Chucky", "genre_ids": [27, 53], "backdrop_path": "/e95CLG02scalwpHgR0BSCUXWeE3.jpg", "adult": false, "overview": "After the passing of her mother, a young woman in a wheelchair since birth, is forced to deal with her sister, brother-in-law, niece and their nanny as they say their goodbyes to mother. When people start turning up dead, Nica discovers the culprit might be a strange doll she received a few days earlier.", "poster_path": "/qoFfZa6b9xsr1dJwdb6SCiw2KHs.jpg", "popularity": 16.411}, {"id": 36419, "video": false, "vote_count": 466, "vote_average": 5.7, "title": "After.Life", "release_date": "2009-11-07", "original_language": "en", "original_title": "After.Life", "genre_ids": [18, 27, 9648, 53], "backdrop_path": "/pg7W4YCvpoub573MZtV3Rmmz9fE.jpg", "adult": false, "overview": "Following a terrible car crash, a woman awakes to find an enigmatic mortician preparing her for burial.", "poster_path": "/8mtT1Hqp63s3DiGxZckxQj0Mioy.jpg", "popularity": 15.144}, {"id": 296096, "video": false, "vote_count": 6566, "vote_average": 7.7, "title": "Me Before You", "release_date": "2016-06-01", "original_language": "en", "original_title": "Me Before You", "genre_ids": [18, 10749], "backdrop_path": "/o4lxNwKJz8oq3R0kLOIsDlHbDhZ.jpg", "adult": false, "overview": "A small town girl is caught between dead-end jobs. A high-profile, successful man becomes wheelchair bound following an accident. The man decides his life is not worth living until the girl is hired for six months to be his new caretaker. Worlds apart and trapped together by circumstance, the two get off to a rocky start. But the girl becomes determined to prove to the man that life is worth living and as they embark on a series of adventures together, each finds their world changing in ways neither of them could begin to imagine.", "poster_path": "/oN5lELHH5Xheiy0YdhnY3JB4hx2.jpg", "popularity": 22.304}, {"adult": false, "backdrop_path": "/gCSyI1UiYIDm0Adr5slSr30B7jg.jpg", "genre_ids": [28, 12, 16, 14, 878], "id": 647, "original_language": "ja", "original_title": "Final Fantasy VII: Advent Children", "overview": "Two years have passed since the final battle with Sephiroth. Though Midgar, city of mako, city of prosperity, has been reduced to ruins, its people slowly but steadily walk the road to reconstruction. However, a mysterious illness called Geostigma torments them. With no cure in sight, it brings death to the afflicted, one after another, robbing the people of their fledgling hope.", "poster_path": "/udXX5MeEHEMDCKpww6NCjlwVAag.jpg", "release_date": "2005-07-14", "title": "Final Fantasy VII: Advent Children", "video": false, "vote_average": 6.8, "vote_count": 508, "popularity": 11.917}, {"id": 10222, "video": false, "vote_count": 561, "vote_average": 6.5, "title": "Kickboxer", "release_date": "1989-04-20", "original_language": "en", "original_title": "Kickboxer", "genre_ids": [28, 53], "backdrop_path": "/wEEKRZoRXh3FrIU0Hu5kc44lzwD.jpg", "adult": false, "overview": "If your enemy refuses to be humbled... Destroy him. Accompanied by his brother Kurt (Van Damme), American kickboxing champion Eric Sloane (Dennis Alexio), arrives in Thailand to defeat the Eastern warriors at their own sport. His opponent: ruthless fighter and Thai champion, Tong Po. Tong not only defeats Eric, he paralyzes him for life. Crazed with anger, Kurt vows revenge.", "poster_path": "/8kNEhA31mXwUOuFuBGaN0T5oQwU.jpg", "popularity": 13.742}, {"id": 29095, "video": false, "vote_count": 129, "vote_average": 5.9, "title": "Waxwork", "release_date": "1988-06-17", "original_language": "en", "original_title": "Waxwork", "genre_ids": [35, 27], "backdrop_path": "/x0sEJCg6UsLoGs8r9b4l8rp1oxe.jpg", "adult": false, "overview": "Wealthy slacker college student Mark, his new girlfriend Sarah, and their friends are invited to a special showing at a mysterious wax museum which displays 18 of the most evil men of all time. After his ex-girlfriend and another friend disappear, Mark becomes suspicious.", "poster_path": "/7FZoShrHzTcYW55779Iw4tlQ9MI.jpg", "popularity": 8.662}, {"id": 2841, "video": false, "vote_count": 660, "vote_average": 7.3, "title": "A Very Long Engagement", "release_date": "2004-10-26", "original_language": "fr", "original_title": "Un long dimanche de fian\u00e7ailles", "genre_ids": [18, 10749, 10752], "backdrop_path": "/pvSoTwy7GCpj4PE3O2XarCvB6ct.jpg", "adult": false, "overview": "In 1919, Mathilde was 19 years old. Two years earlier, her fianc\u00e9 Manech left for the front at the Somme. Like millions of others he was \"killed on the field of battle.\" It's written in black and white on the official notice. But Mathilde refuses to believe it. If Manech had died, she would know. She hangs on to her intuition as tightly as she would onto the last thread of hope linking her to her lover. A former sergeant tells her in vain that Manech died in the no man's land of a trench named Bingo Crepescule, in the company of four other men condemned to die for self-inflicted wounds. Her path ahead is full of obstacles but Mathilde is not frightened. Anything is possible to someone who is willing to challenge fate...", "poster_path": "/jtE7Xrj8KKnhGI3p2yCgwrtUCnd.jpg", "popularity": 10.84}, {"id": 13166, "video": false, "vote_count": 221, "vote_average": 4.5, "title": "Freddy Got Fingered", "release_date": "2001-04-18", "original_language": "en", "original_title": "Freddy Got Fingered", "genre_ids": [35], "backdrop_path": "/kQiiFY0f8tJmqX1QYZ2L5djzbKd.jpg", "adult": false, "overview": "An unemployed cartoonist moves back in with his parents and younger brother Freddy. When his parents demand he leave, he begins to spread rumors that his father is sexually abusing Freddy.", "poster_path": "/j9OW0LoLHxTokSssf1gGe5P1GUY.jpg", "popularity": 11.778}], "total_pages": 8, "total_results": 160}, "recommendations": {"page": 1, "results": [], "total_pages": 1, "total_results": 0}, "credits": {"cast": [{"cast_id": 6, "character": "Caleb / Lester", "credit_id": "58b2901292514177b4000d68", "gender": 2, "id": 1196292, "name": "James Lemp", "order": 0, "profile_path": null}, {"cast_id": 4, "character": "Flo", "credit_id": "52fe48129251416c9107f4df", "gender": 0, "id": 927793, "name": "Kay Neer", "order": 1, "profile_path": null}, {"cast_id": 5, "character": "Russell", "credit_id": "52fe48129251416c9107f4e3", "gender": 0, "id": 828952, "name": "Jeremiah Beecher", "order": 2, "profile_path": null}, {"cast_id": 7, "character": "Sheila", "credit_id": "58b29068c3a3685297000c76", "gender": 1, "id": 74682, "name": "Robin Sherwood", "order": 3, "profile_path": "/rORJGEQ1WZZ8HgdKOa0CGRYzE87.jpg"}, {"cast_id": 8, "character": "Don (as Edward Roehm)", "credit_id": "59d7a47e925141251f011d8b", "gender": 2, "id": 52616, "name": "Richard Kennedy", "order": 4, "profile_path": null}, {"cast_id": 9, "character": "Carl", "credit_id": "59d7a48f92514124cd011bf3", "gender": 0, "id": 1134865, "name": "Louis Ojena", "order": 5, "profile_path": null}, {"cast_id": 10, "character": "Lena", "credit_id": "59d7a49992514124c9011971", "gender": 1, "id": 159030, "name": "Marilyn Jones", "order": 6, "profile_path": "/12yPT8ccPWhz7amaDRra6VChQym.jpg"}, {"cast_id": 11, "character": "Minister (as John Stoglin)", "credit_id": "59d7a4b1c3a368623e0115a5", "gender": 2, "id": 177891, "name": "John Parker", "order": 7, "profile_path": null}], "crew": [{"credit_id": "52fe48129251416c9107f4d7", "department": "Directing", "gender": 2, "id": 104452, "job": "Director", "name": "Mikel Angel", "profile_path": null}, {"credit_id": "52fe48129251416c9107f4d1", "department": "Directing", "gender": 2, "id": 556913, "job": "Director", "name": "Don Jones", "profile_path": null}]}}