{"adult": false, "backdrop_path": "/xeSXteeXpraACfy8Y6LxeMjJGWt.jpg", "belongs_to_collection": null, "budget": 0, "genres": [{"id": 18, "name": "Drama"}, {"id": 12, "name": "Adventure"}, {"id": 10749, "name": "Romance"}], "homepage": null, "id": 81699, "imdb_id": "tt0049007", "original_language": "en", "original_title": "Bhowani Junction", "overview": "Anglo-Indian Victoria Jones seeks her true identity amid the chaos of the British withdrawal from India.", "popularity": 3.789, "poster_path": "/fuHxWvbkGqnRvKXDpdAJ9Mchzhp.jpg", "production_companies": [{"id": 21, "logo_path": "/mjofSXiHpG5t6KYmU4l4FrUhT7m.png", "name": "Metro-Goldwyn-Mayer", "origin_country": "US"}], "production_countries": [{"iso_3166_1": "US", "name": "United States of America"}, {"iso_3166_1": "GB", "name": "United Kingdom"}], "release_date": "1956-05-01", "revenue": 0, "runtime": 110, "spoken_languages": [{"iso_639_1": "en", "name": "English"}], "status": "Released", "tagline": "M-G-M's Drama Aflame With Love And Revolt!", "title": "Bhowani Junction", "video": false, "vote_average": 6.0, "vote_count": 12, "keywords": {"keywords": [{"id": 818, "name": "based on novel or book"}, {"id": 13008, "name": "train"}, {"id": 14636, "name": "india"}, {"id": 235774, "name": "british raj"}]}, "similar": {"page": 1, "results": [{"adult": false, "backdrop_path": "/kiWvoV78Cc3fUwkOHKzyBgVdrDD.jpg", "genre_ids": [37, 18, 12], "id": 281957, "original_language": "en", "original_title": "The Revenant", "overview": "In the 1820s, a frontiersman, Hugh Glass, sets out on a path of vengeance against those who left him for dead after a bear mauling.", "poster_path": "/oXUWEc5i3wYyFnL1Ycu8ppxxPvs.jpg", "release_date": "2015-12-25", "title": "The Revenant", "video": false, "vote_average": 7.5, "vote_count": 12122, "popularity": 30.491}, {"adult": false, "backdrop_path": "/2J283YNxKhxAqHeVegUJ5mzLfGb.jpg", "genre_ids": [80, 18, 9648], "id": 392044, "original_language": "en", "original_title": "Murder on the Orient Express", "overview": "Genius Belgian detective Hercule Poirot investigates the murder of an American tycoon aboard the Orient Express train.", "poster_path": "/iBlfxlw8qwtUS0R8YjIU7JtM6LM.jpg", "release_date": "2017-11-03", "title": "Murder on the Orient Express", "video": false, "vote_average": 6.7, "vote_count": 6044, "popularity": 24.868}, {"adult": false, "backdrop_path": "/sRJjliXA7ZqHCr7HCK0ZB83xxjr.jpg", "genre_ids": [12, 28, 878], "id": 101299, "original_language": "en", "original_title": "The Hunger Games: Catching Fire", "overview": "Katniss Everdeen has returned home safe after winning the 74th Annual Hunger Games along with fellow tribute Peeta Mellark. Winning means that they must turn around and leave their family and close friends, embarking on a \"Victor's Tour\" of the districts. Along the way Katniss senses that a rebellion is simmering, but the Capitol is still very much in control as President Snow prepares the 75th Annual Hunger Games (The Quarter Quell) - a competition that could change Panem forever.", "poster_path": "/Hn0KgefVEp0GkdTexS6gfKTMfi.jpg", "release_date": "2013-11-15", "title": "The Hunger Games: Catching Fire", "video": false, "vote_average": 7.4, "vote_count": 12024, "popularity": 30.047}, {"adult": false, "backdrop_path": "/wG34hjck71zUbWH8qtAA5WkJddl.jpg", "genre_ids": [12, 35, 10751, 14, 10749], "id": 2897, "original_language": "en", "original_title": "Around the World in Eighty Days", "overview": "Based on the famous book by Jules Verne the movie follows Phileas Fogg on his journey around the world. Which has to be completed within 80 days, a very short period for those days.", "poster_path": "/2vLu9eVefJ6WK3OJnlLQQE4lSw5.jpg", "release_date": "1956-10-17", "title": "Around the World in Eighty Days", "video": false, "vote_average": 6.6, "vote_count": 222, "popularity": 16.405}, {"adult": false, "backdrop_path": "/bvbyidkMaBls1LTaIWYY6UmYTaL.jpg", "genre_ids": [28, 878], "id": 336843, "original_language": "en", "original_title": "Maze Runner: The Death Cure", "overview": "Thomas leads his group of escaped Gladers on their final and most dangerous mission yet. To save their friends, they must break into the legendary Last City, a WCKD-controlled labyrinth that may turn out to be the deadliest maze of all. Anyone who makes it out alive will get answers to the questions the Gladers have been asking since they first arrived in the maze.", "poster_path": "/2zYfzA3TBwrMC8tfFbpiTLODde0.jpg", "release_date": "2018-01-10", "title": "Maze Runner: The Death Cure", "video": false, "vote_average": 7.0, "vote_count": 4393, "popularity": 24.242}, {"id": 844, "video": false, "vote_count": 393, "vote_average": 7.2, "title": "2046", "release_date": "2004-05-20", "original_language": "zh", "original_title": "2046", "genre_ids": [18, 14, 878, 10749], "backdrop_path": "/7qeDI4aMsqbZW5B4f2f3UMo6Vpr.jpg", "adult": false, "overview": "Women enter and exit a science fiction author's life, over the course of a few years, after the author loses the woman he considers his one true love.", "poster_path": "/orslhtqVBbI1n7RECP7Fkhuodph.jpg", "popularity": 10.779}, {"adult": false, "backdrop_path": "/dLAPTvBwEdP4h7a14isNc0HwmOj.jpg", "genre_ids": [18, 10749], "id": 250734, "original_language": "en", "original_title": "Far from the Madding Crowd", "overview": "Based on the literary classic by Thomas Hardy. Bathsheba Everdene, attracts three very different suitors: Gabriel Oak, a sheep farmer, captivated by her fetching willfulness; Frank Troy, a handsome and reckless Sergeant; and William Boldwood, a prosperous and mature bachelor. This timeless story of Bathsheba's choices and passions explores the nature of relationships and love \u2013 as well as the human ability to overcome hardships through resilience and perseverance.", "poster_path": "/6v1DEaO2TZzrqcaGohUf1K7BXkU.jpg", "release_date": "2015-04-23", "title": "Far from the Madding Crowd", "video": false, "vote_average": 7.0, "vote_count": 643, "popularity": 14.468}, {"id": 2454, "video": false, "vote_count": 3951, "vote_average": 6.5, "title": "The Chronicles of Narnia: Prince Caspian", "release_date": "2008-05-15", "original_language": "en", "original_title": "The Chronicles of Narnia: Prince Caspian", "genre_ids": [12, 14, 10751], "backdrop_path": "/eiET76GO3xECOic1rL8VcTLuy3L.jpg", "adult": false, "overview": "One year after their incredible adventures in the Lion, the Witch and the Wardrobe, Peter, Edmund, Lucy and Susan Pevensie return to Narnia to aid a young prince whose life has been threatened by the evil King Miraz. Now, with the help of a colorful cast of new characters, including Trufflehunter the badger and Nikabrik the dwarf, the Pevensie clan embarks on an incredible quest to ensure that Narnia is returned to its rightful heir.", "poster_path": "/kSSyzqw9C4wUggicG4D81XmptR1.jpg", "popularity": 20.084}, {"id": 50619, "video": false, "vote_count": 5591, "vote_average": 6.0, "title": "The Twilight Saga: Breaking Dawn - Part 1", "release_date": "2011-03-15", "original_language": "en", "original_title": "The Twilight Saga: Breaking Dawn - Part 1", "genre_ids": [12, 14, 10749], "backdrop_path": "/fwhRNjMmwqeGH35eQonSPmQs2ah.jpg", "adult": false, "overview": "The new found married bliss of Bella Swan and vampire Edward Cullen is cut short when a series of betrayals and misfortunes threatens to destroy their world.", "poster_path": "/dSSzv6JrlwS48pBeTNSswLJXOYF.jpg", "popularity": 21.972}, {"id": 2268, "video": false, "vote_count": 2949, "vote_average": 6.0, "title": "The Golden Compass", "release_date": "2007-12-04", "original_language": "en", "original_title": "The Golden Compass", "genre_ids": [12, 14], "backdrop_path": "/qUDa6F6qDp6zcQcw3yuR6Ysc77d.jpg", "adult": false, "overview": "After overhearing a shocking secret, precocious orphan Lyra Belacqua trades her carefree existence roaming the halls of Jordan College for an otherworldly adventure in the far North, unaware that it's part of her destiny.", "poster_path": "/97dPFOvgUb5Q8LjRNt8u6lbJSfp.jpg", "popularity": 16.624}, {"id": 75780, "video": false, "vote_count": 4450, "vote_average": 6.4, "title": "Jack Reacher", "release_date": "2012-12-20", "original_language": "en", "original_title": "Jack Reacher", "genre_ids": [28, 80, 18, 53], "backdrop_path": "/ezXodpP429qK0Av89pVNlaXWJkQ.jpg", "adult": false, "overview": "When a gunman takes five lives with six shots, all evidence points to the suspect in custody. On interrogation, the suspect offers up a single note: \"Get Jack Reacher!\" So begins an extraordinary chase for the truth, pitting Jack Reacher against an unexpected enemy, with a skill for violence and a secret to keep.", "poster_path": "/mt0ELw83HIRgaKaDzhsDcIi0RnW.jpg", "popularity": 19.929}, {"id": 76285, "video": false, "vote_count": 3421, "vote_average": 5.9, "title": "Percy Jackson: Sea of Monsters", "release_date": "2013-08-07", "original_language": "en", "original_title": "Percy Jackson: Sea of Monsters", "genre_ids": [12, 14, 10751], "backdrop_path": "/3NK02PLJSs01SY1hsXUAcqbG3WP.jpg", "adult": false, "overview": "In their quest to confront the ultimate evil, Percy and his friends battle swarms of mythical creatures to find the mythical Golden Fleece and to stop an ancient evil from rising.", "poster_path": "/k1bhUW7XM5X0yD3iewAEvloFBEo.jpg", "popularity": 23.749}, {"id": 466282, "video": false, "vote_count": 5265, "vote_average": 7.9, "title": "To All the Boys I've Loved Before", "release_date": "2018-08-16", "original_language": "en", "original_title": "To All the Boys I've Loved Before", "genre_ids": [35, 10749], "backdrop_path": "/uZTtVdOEIwPA6vwVRI3217DoPM.jpg", "adult": false, "overview": "Lara Jean's love life goes from imaginary to out of control when her secret letters to every boy she's ever fallen for are mysteriously mailed out.", "poster_path": "/hKHZhUbIyUAjcSrqJThFGYIR6kI.jpg", "popularity": 39.96}, {"adult": false, "backdrop_path": "/ncERp0UvXuImUeJcf27kEANcf1r.jpg", "genre_ids": [35, 10751, 10749], "id": 9880, "original_language": "en", "original_title": "The Princess Diaries", "overview": "A socially awkward but very bright 15-year-old girl being raised by a single mom discovers that she is the princess of a small European country because of the recent death of her long-absent father, who, unknown to her, was the crown prince of Genovia. She must make a choice between continuing the life of a San Francisco teen or stepping up to the throne.", "poster_path": "/sxpvHk286sXLJWcFrBMNIsXbYsd.jpg", "release_date": "2001-08-03", "title": "The Princess Diaries", "video": false, "vote_average": 6.8, "vote_count": 2861, "popularity": 32.167}, {"id": 454983, "video": false, "vote_count": 3905, "vote_average": 7.2, "title": "The Kissing Booth", "release_date": "2018-05-11", "original_language": "en", "original_title": "The Kissing Booth", "genre_ids": [35, 10749], "backdrop_path": "/xEKx7zPEjN6meomZ7OhV82Mm2jm.jpg", "adult": false, "overview": "When teenager Elle's first kiss leads to a forbidden romance with the hottest boy in high school, she risks her relationship with her best friend.", "poster_path": "/7Dktk2ST6aL8h9Oe5rpk903VLhx.jpg", "popularity": 31.203}, {"id": 169917, "video": false, "vote_count": 1811, "vote_average": 6.3, "title": "A Walk Among the Tombstones", "release_date": "2014-09-18", "original_language": "en", "original_title": "A Walk Among the Tombstones", "genre_ids": [80, 18, 9648, 53], "backdrop_path": "/e56QsaJy1weAUukiK2ZmIGVUALF.jpg", "adult": false, "overview": "Private investigator Matthew Scudder is hired by a drug kingpin to find out who kidnapped and murdered his wife.", "poster_path": "/xxe77USOk2tPnq7G4cL42gf1OxQ.jpg", "popularity": 26.185}, {"id": 123553, "video": false, "vote_count": 3198, "vote_average": 6.3, "title": "The Mortal Instruments: City of Bones", "release_date": "2013-08-21", "original_language": "en", "original_title": "The Mortal Instruments: City of Bones", "genre_ids": [28, 12, 18, 14, 9648, 10749], "backdrop_path": "/xIisiN3GxiOMpYQOYarzWlgpDNT.jpg", "adult": false, "overview": "In New York City, Clary Fray, a seemingly ordinary teenager, learns that she is descended from a line of Shadowhunters \u2014 half-angel warriors who protect humanity from evil forces. After her mother disappears, Clary joins forces with a group of Shadowhunters and enters Downworld, an alternate realm filled with demons, vampires, and a host of other creatures. Clary and her companions must find and protect an ancient cup that holds the key to her mother's future.", "poster_path": "/xOBuyMuqc5lDNfxz6ipFjrxd38X.jpg", "popularity": 23.503}, {"id": 272693, "video": false, "vote_count": 3247, "vote_average": 6.8, "title": "The DUFF", "release_date": "2015-02-20", "original_language": "en", "original_title": "The DUFF", "genre_ids": [35, 10749], "backdrop_path": "/awGZf5T1hflis9Z2KvRMhp798xU.jpg", "adult": false, "overview": "Bianca's universe turns upside down when she learns that her high school refers to her as a \u2018DUFF' (Designated Ugly Fat Friend). Hoping to erase that label, she enlists the help of a charming jock and her favorite teacher. Together they'll face the school's mean girl and remind everyone that we are all someone's DUFF\u2026 and that's totally fine.", "poster_path": "/dBBgPTCN5Zze4POXWVVpwf3wkra.jpg", "popularity": 14.151}, {"id": 68737, "video": false, "vote_count": 1669, "vote_average": 5.3, "title": "Seventh Son", "release_date": "2014-12-12", "original_language": "en", "original_title": "Seventh Son", "genre_ids": [12, 14], "backdrop_path": "/iAX8lPlDEeGHatw79k1LfGLbTi2.jpg", "adult": false, "overview": "John Gregory, who is a seventh son of a seventh son and also the local spook, has protected the country from witches, boggarts, ghouls and all manner of things that go bump in the night. However John is not young anymore, and has been seeking an apprentice to carry on his trade. Most have failed to survive. The last hope is a young farmer's son named Thomas Ward. Will he survive the training to become the spook that so many others couldn't?", "poster_path": "/zzfzErL8HIyNTRqBHqZAVvEKJ54.jpg", "popularity": 23.636}, {"adult": false, "backdrop_path": "/g6WT9zxATzTy9NVu2xwbxDAxvjd.jpg", "genre_ids": [28, 12, 878], "id": 157350, "original_language": "en", "original_title": "Divergent", "overview": "In a world divided into factions based on personality types, Tris learns that she's been classified as Divergent and won't fit in. When she discovers a plot to destroy Divergents, Tris and the mysterious Four must find out what makes Divergents dangerous before it's too late.", "poster_path": "/yTtx2ciqk4XdN1oKhMMDy3f5ue3.jpg", "release_date": "2014-03-14", "title": "Divergent", "video": false, "vote_average": 6.9, "vote_count": 8979, "popularity": 25.41}], "total_pages": 390, "total_results": 7796}, "recommendations": {"page": 1, "results": [{"adult": false, "backdrop_path": "/kSe9JQHaa5IVBrpLPror4KasDt2.jpg", "genre_ids": [18, 53], "id": 27212, "original_language": "en", "original_title": "A Bullet for Joey", "overview": "Raoul Leduc is a police inspector trailing a spy who plots to kidnap an important American atomic scientist. Joe Victor a gangster who is hired to carry out the abduction, balks when he learns what is at stake and helps Leduc out instead.", "poster_path": "/osVgi1exmfwGKXypGZU2HJqe1Pi.jpg", "release_date": "1955-04-15", "title": "A Bullet for Joey", "video": false, "vote_average": 5.4, "vote_count": 10, "popularity": 4.889}, {"adult": false, "backdrop_path": "/7DtEllV60uvhJjDbucFXTdMDSfH.jpg", "genre_ids": [10749, 18, 35], "id": 76703, "original_language": "fr", "original_title": "Quadrille", "overview": "", "poster_path": "/7vFKDh9azVIdO6X459KjZfpDzOE.jpg", "release_date": "1938-01-29", "title": "Quadrille", "video": false, "vote_average": 6.7, "vote_count": 5, "popularity": 3.353}, {"adult": false, "backdrop_path": "/zkX0NaobwV12UaiaHK0qg4VOucW.jpg", "genre_ids": [80, 12, 53, 27, 28], "id": 47410, "original_language": "en", "original_title": "Trapped", "overview": "A group of college students accidentally see a local redneck kill his wife. A deadly game of cat-and-mouse ensues, with the students trying to escape the area while the killer sets out to eliminate the witnesses who can tie him to the murder.", "poster_path": "/8wyokj9en0u1HZVY7f2Ubp4xgl9.jpg", "release_date": "1982-05-28", "title": "Trapped", "video": false, "vote_average": 4.8, "vote_count": 9, "popularity": 2.751}, {"adult": false, "backdrop_path": "/3DfmuvwUrUdOnCODzR10FZUIabR.jpg", "genre_ids": [18], "id": 138876, "original_language": "en", "original_title": "Station Six-Sahara", "overview": "A beautiful blonde (Carroll Baker) joins a small group of men running an oil station in the Sahara Desert and starts the emotions soaring.", "poster_path": "/qoNMZAcwIMruckaEE8F5wnpOLVT.jpg", "release_date": "1963-01-11", "title": "Station Six-Sahara", "video": false, "vote_average": 6.5, "vote_count": 5, "popularity": 1.02}, {"adult": false, "backdrop_path": "/4GmtpoFqNo86gh9kGzXneTk4Paj.jpg", "genre_ids": [18], "id": 100257, "original_language": "en", "original_title": "Quartet", "overview": "Somerset Maugham introduces four of his tales in this anthology film: \"The Facts of Life,\" \"The Alien Corn,\" \"The Kite,\" and \"The Colonel's Lady.\"", "poster_path": "/jWvwfb3lxsZMsplIWLR1JM6C4lE.jpg", "release_date": "1948-10-26", "title": "Quartet", "video": false, "vote_average": 6.1, "vote_count": 7, "popularity": 3.79}, {"adult": false, "backdrop_path": "/iyxUfvTBtMhDKBQiL9h1UijY2LO.jpg", "genre_ids": [99], "id": 513178, "original_language": "en", "original_title": "Welcome to Sodom", "overview": "A dark and sensuous film from a landfill in Ghana, where electronic waste from the West is being recycled. An unforgettable experience, told by the workers themselves.", "poster_path": "/1ui48yGC17OIKVFD7nNUFlEtjFI.jpg", "release_date": "2018-03-20", "title": "Welcome to Sodom", "video": false, "vote_average": 6.4, "vote_count": 8, "popularity": 1.9}, {"adult": false, "backdrop_path": "/44KwGEiXdknLV1Ai1a6wvEHhkMp.jpg", "genre_ids": [27], "id": 84924, "original_language": "en", "original_title": "Deadtime Stories 2", "overview": "An anthology of three horror stories presented by George A. Romero. In \"Gorge\" hikers are trapped in a cave-in must make a gruesome choice. In \"On Sabbath Hill,\" a woman is driven to suicide but remains to torment her lover. In \"Dust,\" a security guard is driven to murderous measures to use a strange dust that cures his wife's cancer.", "poster_path": "/n1vFwYcZ3K0KX3eRwMDrcYcPSrH.jpg", "release_date": "2011-09-20", "title": "Deadtime Stories 2", "video": false, "vote_average": 3.5, "vote_count": 11, "popularity": 2.751}, {"adult": false, "backdrop_path": "/w2FzRWiLvh20bFIft4RgTMmHlI7.jpg", "genre_ids": [37], "id": 110773, "original_language": "en", "original_title": "The Naked Dawn", "overview": "Santiago, a jolly modern bandito, has just lost his partner when he happens on the isolated farm of young Manuel and Maria Lopez...", "poster_path": "/e2DcsBRUmdD8ma3cfCqXfgWq6Xz.jpg", "release_date": "1955-11-02", "title": "The Naked Dawn", "video": false, "vote_average": 6.5, "vote_count": 6, "popularity": 4.449}, {"adult": false, "backdrop_path": "/ul71f159pUtzNxpGBTcbwYkSKV1.jpg", "genre_ids": [53, 27, 878], "id": 58807, "original_language": "en", "original_title": "Deadly Swarm", "overview": "Seeking out a cure for his wife's serious illness, scientist Dr. Schroeder (McCormack) heads deep into a forbidden jungle in Guatemala, trapping thousands of killer wasps. Working with secret military backing, it is Schroeder's contention that the venom from the wasp's stingers can be of great medicinal benefit. But when they try to illegally smuggle the wasps into the US, the truck they are on crashes and the wasps are set free to wreak havoc, making a direct path to a small unsuspecting town. It is up to an American entomologist Daniel Lang and a nosey writer Sandra Kern to stop these deadly wasps - as they lay eggs in their victims to hatch thousands more wasps - before it's too late.", "poster_path": "/kIPGT8iPB58FYZq46jYSI6EYEqw.jpg", "release_date": "2003-09-20", "title": "Deadly Swarm", "video": false, "vote_average": 2.8, "vote_count": 4, "popularity": 1.668}, {"adult": false, "backdrop_path": "/gGzvSSvR3PX1FF3JMQVIrV6dPDN.jpg", "genre_ids": [18, 28, 53], "id": 28661, "original_language": "en", "original_title": "World for Ransom", "overview": "Made by the same production set-up on the same lot that was producing the 1953-54 \"China Smith/Captain China\" TV series that starred Dan Duryea as soldier-of-fortune China Smith, using many of the same players that were regulars on the TV series. Director Aldrich went uncredited possibly because the film was a quickly-made but poor product.", "poster_path": "/uYhsV1D5qEzj4S29ZM3j9WvN4el.jpg", "release_date": "1954-01-31", "title": "World for Ransom", "video": false, "vote_average": 4.8, "vote_count": 8, "popularity": 3.392}, {"adult": false, "backdrop_path": "/bnI0Vq1cmAn7CKLixNYgfYr0DKM.jpg", "genre_ids": [80, 28], "id": 225405, "original_language": "en", "original_title": "Harrigan", "overview": "Amongst the desperation and fear growing in a crime ridden estate in northern England, one man becomes embroiled into saving what community life exists.", "poster_path": "/50AtQ9G1MSKsEr9jMfJwQ8fvVH9.jpg", "release_date": "2013-09-20", "title": "Harrigan", "video": false, "vote_average": 4.7, "vote_count": 5, "popularity": 4.137}, {"id": 90968, "video": false, "vote_count": 9, "vote_average": 5.4, "title": "Plymouth Adventure", "release_date": "1952-11-28", "original_language": "en", "original_title": "Plymouth Adventure", "genre_ids": [12, 18, 36], "backdrop_path": "/9CaSZQi7Fxz3trQCEykex4P8Sxo.jpg", "adult": false, "overview": "The story of the voyage of the \"Mayflower\" in its historic voyage across the Atlantic to the New World. The passenger list includes John Alden and Priscilla Mullins among those who made the 96-day storm-filled crossing. Along the way the Captain has an ill-starred romance with the wife of a religious fanatic that ends in a sudden, dramatic way off the coast of Cape Cod.", "poster_path": "/qmQguT13N46vHTJT1JXqEXVSCCb.jpg", "popularity": 4.646}, {"adult": false, "backdrop_path": "/mP3ZWTVzGwSg1wnIvGHXMqw0PgU.jpg", "genre_ids": [28, 18], "id": 40718, "original_language": "en", "original_title": "Wake of the Red Witch", "overview": "Captain Ralls fights Dutch shipping magnate Mayrant Sidneye for the woman he loves, Angelique Desaix, and for a fortune in gold aboard the Red Witch.", "poster_path": "/pAJTd8pAXIf1CjgrEz1YP7AFhmQ.jpg", "release_date": "1948-12-30", "title": "Wake of the Red Witch", "video": false, "vote_average": 5.4, "vote_count": 19, "popularity": 4.161}], "total_pages": 1, "total_results": 13}, "credits": {"cast": [{"cast_id": 1, "character": "Victoria Jones", "credit_id": "52fe48259251416c91081da3", "gender": 1, "id": 25787, "name": "Ava Gardner", "order": 0, "profile_path": "/tx4IH7GfcJQVg6wMTXxfVxX8AKY.jpg"}, {"cast_id": 2, "character": "Col. Rodney Savage", "credit_id": "52fe48259251416c91081da7", "gender": 2, "id": 41235, "name": "Stewart Granger", "order": 1, "profile_path": "/pZ7YT97vHeeEzo6iwHrr7cnXGmO.jpg"}, {"cast_id": 3, "character": "Patrick Taylor", "credit_id": "52fe48259251416c91081dab", "gender": 2, "id": 16898, "name": "Bill Travers", "order": 2, "profile_path": "/oepnDgU3anJvZCKMvfL10B8L9Jm.jpg"}, {"cast_id": 4, "character": "Surabhai", "credit_id": "52fe48259251416c91081daf", "gender": 2, "id": 135066, "name": "Abraham Sofaer", "order": 3, "profile_path": "/uCkrpe6pewrGhDYcuGivTNQXzxT.jpg"}, {"cast_id": 5, "character": "Ranjit Kasel", "credit_id": "52fe48259251416c91081db3", "gender": 2, "id": 30704, "name": "Francis Matthews", "order": 4, "profile_path": "/bafuzCvopwN9b4xLHK9JhuaZVAy.jpg"}, {"cast_id": 8, "character": "Ted Dunphy", "credit_id": "52fe48259251416c91081dc3", "gender": 2, "id": 12828, "name": "Alan Tilvern", "order": 5, "profile_path": "/8PQ6c0GCbuJ5T6dCjfX72gUtbTG.jpg"}, {"cast_id": 20, "character": "Govindaswami", "credit_id": "554aad8a925141469c000376", "gender": 2, "id": 67882, "name": "Marne Maitland", "order": 6, "profile_path": "/y8q7N1D28UmmwuRgt39X2fv6xTa.jpg"}, {"cast_id": 21, "character": "Ghanshyam", "credit_id": "554aad9c925141469c00037c", "gender": 2, "id": 109849, "name": "Peter Illing", "order": 7, "profile_path": "/gLhC9AkaQK32YUYuI0CsvQxwyDG.jpg"}], "crew": [{"credit_id": "554aaca392514146a5000361", "department": "Costume & Make-Up", "gender": 1, "id": 10011, "job": "Costume Design", "name": "Elizabeth Haffenden", "profile_path": null}, {"credit_id": "554aad4d92514146990003ae", "department": "Costume & Make-Up", "gender": 2, "id": 10014, "job": "Makeup Artist", "name": "Charles E. Parker", "profile_path": null}, {"credit_id": "554aac7992514146a2000355", "department": "Camera", "gender": 2, "id": 10079, "job": "Director of Photography", "name": "Freddie Young", "profile_path": "/zRQlkuze95cvNOm3MFqxEocvzwg.jpg"}, {"credit_id": "52fe48259251416c91081db9", "department": "Directing", "gender": 2, "id": 14674, "job": "Director", "name": "George Cukor", "profile_path": "/s6OKrb7REayEl3NHAQVJXvD9KrX.jpg"}, {"credit_id": "554aac68c3a3685e50000341", "department": "Editing", "gender": 0, "id": 15195, "job": "Editor", "name": "Frank Clarke", "profile_path": null}, {"credit_id": "554aabf1c3a3685e4e000303", "department": "Writing", "gender": 2, "id": 18741, "job": "Screenplay", "name": "Ivan Moffat", "profile_path": null}, {"credit_id": "554aac38c3a3685e5e000330", "department": "Editing", "gender": 2, "id": 22086, "job": "Editor", "name": "George Boemler", "profile_path": null}, {"credit_id": "554aacc092514146940002e2", "department": "Production", "gender": 2, "id": 30174, "job": "Producer", "name": "Pandro S. Berman", "profile_path": "/pOB0fbkzzKPUs5w9wd7aeFjjpuI.jpg"}, {"credit_id": "554aacfec3a3685e55000370", "department": "Art", "gender": 2, "id": 30526, "job": "Art Direction", "name": "Gene Allen", "profile_path": null}, {"credit_id": "554aad36c3a3685e5e000370", "department": "Art", "gender": 2, "id": 40356, "job": "Art Direction", "name": "John Howell", "profile_path": null}, {"credit_id": "554aabe5c3a3685e50000328", "department": "Writing", "gender": 1, "id": 70045, "job": "Screenplay", "name": "Sonya Levien", "profile_path": null}, {"credit_id": "554aac20c3a3685e4c000375", "department": "Writing", "gender": 0, "id": 1464411, "job": "Novel", "name": "John Masters", "profile_path": null}, {"credit_id": "5cea1cd69251416a3fba8832", "department": "Sound", "gender": 2, "id": 2316447, "job": "Sound Editor", "name": "Kendrick Kinney", "profile_path": null}, {"credit_id": "5ce54fa0925141479bbb3b1c", "department": "Sound", "gender": 2, "id": 2316448, "job": "Sound Editor", "name": "John Lipow", "profile_path": null}]}}