{"adult": false, "backdrop_path": "/1Ba4o1UtQCAODV29aPR2b5MfFo1.jpg", "belongs_to_collection": null, "budget": 75000, "genres": [{"id": 18, "name": "Drama"}, {"id": 28, "name": "Action"}, {"id": 80, "name": "Crime"}], "homepage": null, "id": 81720, "imdb_id": "tt0053850", "original_language": "en", "original_title": "Gangster Story", "overview": "Actor Walter Matthau directed his first and only feature film with the black-and-white crime drama Gangster Story. In an unusual noncomedic role, Matthau plays Jack Martin, a local gangster who wants to run his own crime syndicate in the neighborhood run by Earl Dawson (Bruce McFarlan). They eventually team up and plan a heist. Carol Grace plays the reform-minded girlfriend.", "popularity": 2.757, "poster_path": "/iZbKuaaXl8VS6ujHSysmv2mmXRs.jpg", "production_companies": [], "production_countries": [{"iso_3166_1": "US", "name": "United States of America"}], "release_date": "1959-12-01", "revenue": 0, "runtime": 65, "spoken_languages": [{"iso_639_1": "en", "name": "English"}], "status": "Released", "tagline": "Filmed where it actually happened... The true story of Jack Martin", "title": "Gangster Story", "video": false, "vote_average": 4.7, "vote_count": 7, "keywords": {"keywords": [{"id": 191845, "name": "bank heist"}]}, "similar": {"page": 1, "results": [{"adult": false, "backdrop_path": "/7RRuRcGuWkZGuRyYugfXn0Fgrrr.jpg", "genre_ids": [28, 80, 18, 53], "id": 949, "original_language": "en", "original_title": "Heat", "overview": "Obsessive master thief, Neil McCauley leads a top-notch crew on various daring heists throughout Los Angeles while determined detective, Vincent Hanna pursues him without rest. Each man recognizes and respects the ability and the dedication of the other even though they are aware their cat-and-mouse game may end in violence.", "poster_path": "/6pmLVffM9jEYK7VqDJqPblMxfEY.jpg", "release_date": "1995-12-15", "title": "Heat", "video": false, "vote_average": 7.8, "vote_count": 3615, "popularity": 21.973}, {"id": 339403, "video": false, "vote_count": 9210, "vote_average": 7.4, "title": "Baby Driver", "release_date": "2017-06-28", "original_language": "en", "original_title": "Baby Driver", "genre_ids": [28, 80], "backdrop_path": "/goCvLSUFz0p7k8R10Hv4CVh3EQv.jpg", "adult": false, "overview": "After being coerced into working for a crime boss, a young getaway driver finds himself taking part in a heist doomed to fail.", "poster_path": "/dN9LbVNNZFITwfaRjl4tmwGWkRg.jpg", "popularity": 27.195}, {"id": 449443, "video": false, "vote_count": 1469, "vote_average": 6.6, "title": "Den of Thieves", "release_date": "2018-01-18", "original_language": "en", "original_title": "Den of Thieves", "genre_ids": [28, 80, 53], "backdrop_path": "/s3FDBLH4qc1IcjexB05Qvbn3wxO.jpg", "adult": false, "overview": "A gritty crime saga which follows the lives of an elite unit of the LA County Sheriff\u2019s Dept. and the state\u2019s most successful bank robbery crew as the outlaws plan a seemingly impossible heist on the Federal Reserve Bank.", "poster_path": "/AfybH6GbGFw1F9bcETe2yu25mIE.jpg", "popularity": 30.821}, {"id": 353070, "video": false, "vote_count": 1507, "vote_average": 6.6, "title": "Going in Style", "release_date": "2017-04-06", "original_language": "en", "original_title": "Going in Style", "genre_ids": [35, 80], "backdrop_path": "/y6tKHt7iwcYwqckk3iOZV0vWKRM.jpg", "adult": false, "overview": "Desperate to pay the bills and come through for their loved ones, three lifelong pals risk it all by embarking on a daring bid to knock off the very bank that absconded with their money.", "poster_path": "/4nfWsdsJfO5srRZgxiWC9xHub0W.jpg", "popularity": 12.654}, {"id": 22907, "video": false, "vote_count": 686, "vote_average": 6.2, "title": "Takers", "release_date": "2010-08-26", "original_language": "en", "original_title": "Takers", "genre_ids": [28, 80, 18, 53], "backdrop_path": "/n6FokmbxhCWH0ad7i1lJzAbrZqK.jpg", "adult": false, "overview": "A seasoned team of bank robbers, including Gordon Jennings (Idris Elba), John Rahway (Paul Walker), A.J. (Hayden Christensen), and brothers Jake (Michael Ealy) and Jesse Attica (Chris Brown) successfully complete their latest heist and lead a life of luxury while planning their next job. When Ghost (Tip T.I. Harris), a former member of their team, is released from prison he convinces the group to strike an armored car carrying $20 million. As the \"Takers\" carefully plot out their strategy and draw nearer to exacting the grand heist, a reckless police officer (Matt Dillon) inches closer to apprehending the criminals.", "poster_path": "/zwepORN3ONa5qSLzmcZSPlpQxce.jpg", "popularity": 19.497}, {"id": 388, "video": false, "vote_count": 3231, "vote_average": 7.4, "title": "Inside Man", "release_date": "2006-03-23", "original_language": "en", "original_title": "Inside Man", "genre_ids": [80, 18, 53], "backdrop_path": "/6sLQFh6VFxU8nIkVaYg2yyJ6FL.jpg", "adult": false, "overview": "When an armed, masked gang enter a Manhattan bank, lock the doors and take hostages, the detective assigned to effect their release enters negotiations preoccupied with corruption charges he is facing.", "poster_path": "/z6wYRuvk1lf60R4SmWETfdUvGsm.jpg", "popularity": 23.439}, {"id": 429203, "video": false, "vote_count": 717, "vote_average": 6.3, "title": "The Old Man & the Gun", "release_date": "2018-09-27", "original_language": "en", "original_title": "The Old Man & the Gun", "genre_ids": [35, 80, 18], "backdrop_path": "/6X2YjjYcs8XyZRDmJAHNDlls7L4.jpg", "adult": false, "overview": "The true story of Forrest Tucker, from his audacious escape from San Quentin at the age of 70 to an unprecedented string of heists that confounded authorities and enchanted the public. Wrapped up in the pursuit are a detective, who becomes captivated with Forrest\u2019s commitment to his craft, and a woman, who loves him in spite of his chosen profession.", "poster_path": "/a4BfxRK8dBgbQqbRxPs8kmLd8LG.jpg", "popularity": 13.473}, {"id": 500919, "video": false, "vote_count": 203, "vote_average": 5.1, "title": "211", "release_date": "2018-06-01", "original_language": "en", "original_title": "211", "genre_ids": [28, 80, 18], "backdrop_path": "/7eTWQb475pM9H3NEOiUzGYASEx0.jpg", "adult": false, "overview": "Inspired by one of the longest and bloodiest real-life events in police history, Officer Mike Chandler and a young civilian passenger find themselves under-prepared and outgunned when fate puts them squarely in the crosshairs of a daring bank heist in progress by a fearless team of highly-trained and heavily-armed men.", "poster_path": "/81RColr4rau6DZ7z9eMsksokcfk.jpg", "popularity": 14.837}, {"id": 531593, "video": false, "vote_count": 111, "vote_average": 5.0, "title": "Reprisal", "release_date": "2018-08-31", "original_language": "en", "original_title": "Reprisal", "genre_ids": [28, 80, 53], "backdrop_path": "/2o5knHXrenSTk7vfVbxlKoJykSi.jpg", "adult": false, "overview": "Jacob, a bank manager haunted by a violent heist that took the life of a coworker, teams up with his ex-cop neighbor, James, to bring down the assailant. While the two men work together to figure out the thief\u2019s next move, Gabriel, the highly-trained criminal, is one step ahead. When Gabriel kidnaps Jacob\u2019s wife and daughter, Jacob barrels down a path of bloodshed that initiates an explosive counterattack and brings all three men to the breaking point.", "poster_path": "/qBsQUK5QSeZjRPLFUVgSGHxj2PI.jpg", "popularity": 14.726}, {"id": 146198, "video": false, "vote_count": 1322, "vote_average": 5.8, "title": "Triple 9", "release_date": "2016-02-19", "original_language": "en", "original_title": "Triple 9", "genre_ids": [28, 9648, 53], "backdrop_path": "/paT9Ovofjj30JvsDRyhFfjgUEfn.jpg", "adult": false, "overview": "A gang of criminals and corrupt cops plan the murder of a police officer in order to pull off their biggest heist yet across town.", "poster_path": "/36zbHT728v00HbbUBmrsOMu7Hde.jpg", "popularity": 15.265}, {"adult": false, "backdrop_path": "/7g8JUzwESKfhWspI4JA1U9EXG86.jpg", "genre_ids": [28, 80, 53], "id": 5916, "original_language": "en", "original_title": "The Getaway", "overview": "A recently released ex-con and his loyal wife go on the run after a heist goes awry.", "poster_path": "/cXOw808dj9934BYRpOb40UhkzKe.jpg", "release_date": "1972-09-20", "title": "The Getaway", "video": false, "vote_average": 7.1, "vote_count": 247, "popularity": 10.174}, {"id": 27331, "video": false, "vote_count": 105, "vote_average": 7.3, "title": "Charley Varrick", "release_date": "1973-09-19", "original_language": "en", "original_title": "Charley Varrick", "genre_ids": [80, 53], "backdrop_path": "/mxYlgpm0VJUrd5P9JDKpXFu19jf.jpg", "adult": false, "overview": "Charley Varrick robs a bank in a small town with his friends, but instead of obtaining a small amount of money, they discover they stole a very large amount of money belonging to the mob. Charley must now come up with a plan to not only evade the police but the mob as well.", "poster_path": "/qPG2VPNA72he1Kczm2yFmslPNZN.jpg", "popularity": 14.259}, {"id": 359412, "video": false, "vote_count": 302, "vote_average": 5.7, "title": "Marauders", "release_date": "2016-07-01", "original_language": "en", "original_title": "Marauders", "genre_ids": [28, 80, 53], "backdrop_path": "/p58HH6vw6c3O6aeg5YHoRP2kq0Z.jpg", "adult": false, "overview": "An untraceable group of elite bank robbers is chased by a suicidal FBI agent who uncovers a deeper purpose behind the robbery-homicides.", "poster_path": "/3iOYH67ZPflBMDMMkEv2tKRX4xe.jpg", "popularity": 14.751}, {"id": 44977, "video": false, "vote_count": 152, "vote_average": 5.9, "title": "Dhoom 3", "release_date": "2013-12-18", "original_language": "hi", "original_title": "\u0927\u0942\u092e \u0969", "genre_ids": [28, 53], "backdrop_path": "/scePYz4pXoex2ZsvHt9hNeIYQrJ.jpg", "adult": false, "overview": "To avenge his father's death, a circus entertainer trained in magic and acrobatics turns thief to take down a corrupt bank in Chicago. Two cops from Mumbai are assigned to the case.", "poster_path": "/gBD8ah141uDobay2PWLKU3PiNY4.jpg", "popularity": 6.555}, {"id": 433499, "video": false, "vote_count": 39, "vote_average": 6.4, "title": "Finding Steve McQueen", "release_date": "2019-03-15", "original_language": "en", "original_title": "Finding Steve McQueen", "genre_ids": [80, 10749], "backdrop_path": "/voFUDCuXSGiZvV0esx6uQqWBH8h.jpg", "adult": false, "overview": "In 1972, a gang of close-knit thieves from Youngstown, Ohio attempt to steal $30 million in illegal contributions. Based on the true story of the biggest bank heist in US history.", "poster_path": "/uhmNHWTVniHHYKTsWSvSir19K1z.jpg", "popularity": 8.321}, {"id": 42741, "video": false, "vote_count": 72, "vote_average": 6.8, "title": "Un Flic", "release_date": "1972-09-30", "original_language": "fr", "original_title": "Un Flic", "genre_ids": [28, 80, 53], "backdrop_path": "/jyitap97nXszBleMvsNtNqyfVI9.jpg", "adult": false, "overview": "Commissaire Edouard Coleman is a Paris police chief whose life investigating violent crimes has left him despondent. After beginning an affair with a beautiful but cold woman named Cathy, he befriends her boyfriend, Simon, a local nightclub owner. Unbeknownst to Edouard, however, Simon is also a ruthless bank robber and drug smuggler who is planning one final heist. Edouard is forced to pursue Simon after learning his true identity.", "poster_path": "/zem0JFFU0AYAlXU0rwHVLPotStq.jpg", "popularity": 6.009}, {"id": 9679, "video": false, "vote_count": 2590, "vote_average": 6.3, "title": "Gone in Sixty Seconds", "release_date": "2000-06-09", "original_language": "en", "original_title": "Gone in Sixty Seconds", "genre_ids": [28, 80, 53], "backdrop_path": "/uqd4cqpp6gbs6zG6izBUaCorgjv.jpg", "adult": false, "overview": "Upon learning that he has to come out of retirement to steal 50 cars in one night to save his brother Kip's life, former car thief Randall \"Memphis\" Raines enlists help from a few \"boost happy\" pals to accomplish a seemingly impossible feat. From countless car chases to relentless cops, the high-octane excitement builds as Randall swerves around more than a few roadblocks to keep Kip alive.", "poster_path": "/77TxKvRiX0c5JR6l4fxcN19prOy.jpg", "popularity": 20.394}, {"adult": false, "backdrop_path": "/e1QVZfHmKlqxlaTNLTP9ATshLqU.jpg", "genre_ids": [53, 28, 80, 9648], "id": 287948, "original_language": "en", "original_title": "The Transporter Refueled", "overview": "The fast-paced action movie is again set in the criminal underworld in France, where Frank Martin is known as The Transporter, because he is the best driver and mercenary money can buy. In this installment, he meets Anna and they attempt to take down a group of ruthless Russian human traffickers who also have kidnapped Frank\u2019s father.", "poster_path": "/zW7oC3tucYLzu77xNbPbYjXUN4o.jpg", "release_date": "2015-09-03", "title": "The Transporter Refueled", "video": false, "vote_average": 5.5, "vote_count": 903, "popularity": 16.643}, {"id": 401469, "video": false, "vote_count": 1260, "vote_average": 6.5, "title": "Widows", "release_date": "2018-11-06", "original_language": "en", "original_title": "Widows", "genre_ids": [80, 53], "backdrop_path": "/tkri1hMrb1FhWfb2bWpprsvq9Sd.jpg", "adult": false, "overview": "A police shootout leaves four thieves dead during an explosive armed robbery attempt in Chicago. Their widows have nothing in common except a debt left behind by their spouses' criminal activities. Hoping to forge a future on their own terms, they join forces to pull off a heist.", "poster_path": "/d31SGJSaX29ba5ZUbZcesGoDE7I.jpg", "popularity": 23.635}, {"adult": false, "backdrop_path": "/90kmxuSwU28dVy1ghVSHI4x1wb8.jpg", "genre_ids": [35, 18, 37], "id": 537996, "original_language": "en", "original_title": "The Ballad of Buster Scruggs", "overview": "Vignettes weaving together the stories of six individuals in the old West at the end of the Civil War. Following the tales of a sharp-shooting songster, a wannabe bank robber, two weary traveling performers, a lone gold prospector, a woman traveling the West to an uncertain future, and a motley crew of strangers undertaking a carriage ride.", "poster_path": "/voxl654m7p36y8FLu8oQD7dfwwK.jpg", "release_date": "2018-11-09", "title": "The Ballad of Buster Scruggs", "video": false, "vote_average": 7.2, "vote_count": 2072, "popularity": 15.524}], "total_pages": 23, "total_results": 459}, "recommendations": {"page": 1, "results": [{"id": 113225, "video": false, "vote_count": 3, "vote_average": 6.3, "title": "The Last Posse", "release_date": "1953-07-04", "original_language": "en", "original_title": "The Last Posse", "genre_ids": [37], "backdrop_path": "/3otPeExnPzVHWNIEXVFhQzURjkJ.jpg", "adult": false, "overview": "A posse's pursuit of bank robbers ends with loot missing and a sheriff (Broderick Crawford) wounded.", "poster_path": "/45JJlaahpDMvhYEGITvZLXJVvzS.jpg", "popularity": 2.283}, {"adult": false, "backdrop_path": "/6pvYXLDthf1D55w0dbN97XG7eCh.jpg", "genre_ids": [28, 80, 28], "id": 71910, "original_language": "en", "original_title": "Sitting Target", "overview": "Imprisoned Harry Lomart is a vicious, brute of a man and yet he is prepared to do his long jail term as he is confident that on his release his beautiful wife Pat will be waiting for him, but a visit from Pat brings him his worst nightmare.", "poster_path": "/yTpVk4x8GdVEpJ877DUs8SuZg1A.jpg", "release_date": "1972-06-19", "title": "Sitting Target", "video": false, "vote_average": 6.2, "vote_count": 11, "popularity": 3.892}, {"adult": false, "backdrop_path": "/d3SxkG9Zkiys4bmViucjjU6TzPx.jpg", "genre_ids": [35], "id": 14116, "original_language": "en", "original_title": "The Bulldog Breed", "overview": "Norman Puckle (Norman Wisdom), a well-meaning but clumsy grocer's assistant, can't seem to do anything right. After being rejected by Marlene, the love of his life, he attempts suicide, but can't even do that. He is saved from jumping off a cliff at 'Lover's Leap' by a Royal Navy petty officer. He persuades Puckle to join the Royal Navy, where he'll meet 'lots of girls'.  Life in the Navy proves not to be as rosy as it's been described, and Puckle fails at every task during basic training. But despite this, he's regarded by the Admiral in charge of a rocket project to be a 'typical average British sailor', and chosen to be the first man to fly into outer space in an experimental rocket.", "poster_path": "/l4tSVo5pIR4h5HcoNPstvaGGESw.jpg", "release_date": "1960-12-13", "title": "The Bulldog Breed", "video": false, "vote_average": 6.3, "vote_count": 8, "popularity": 3.548}, {"adult": false, "backdrop_path": "/mgdI767xetlp3IRmBcQK0oFLVIk.jpg", "genre_ids": [37, 53], "id": 82667, "original_language": "en", "original_title": "Five Bloody Graves", "overview": "A lone gunman hunts the fearsome Apache Satago across the plains of the Wild West. When Satago's marauders ambush a stagecoach, the gunman rides to the rescue of the trapped passengers and helps them in their last stand against the deadly Indians.", "poster_path": "/mfWKCG8rO3Au7NYKto8nd6nRh4Z.jpg", "release_date": "1969-10-31", "title": "Five Bloody Graves", "video": false, "vote_average": 3.0, "vote_count": 4, "popularity": 1.675}, {"id": 253351, "video": false, "vote_count": 3, "vote_average": 7.0, "title": "Della", "release_date": "1964-01-01", "original_language": "en", "original_title": "Della", "genre_ids": [18, 10770], "backdrop_path": "/vKzkkQI8gx6DYWriZG8nZGkTMHQ.jpg", "adult": false, "overview": "Della Chappell (Joan Crawford) is a very wealthy and incredibly reclusive woman. When a big company wants the land Della lives on, the town sends out Barney Stafford (Paul Burke) to talk to her. She invites Barney over to negotiate the proposal. Barney soon takes a liking to Della's equally reclusive daughter Jenny Chappell (Diane Baker). After spending some time with Jenny, he realizes that Della has a dark secret, one that keeps them from the outside world.", "poster_path": "/fVWP2S8iLjZKzeebjP4oez14mTT.jpg", "popularity": 1.457}, {"adult": false, "backdrop_path": "/27k0vXRHovZGe4uRwWXBgY8K3zi.jpg", "genre_ids": [], "id": 39485, "original_language": "en", "original_title": "Hotel Sahara", "overview": "World War II farce about the hotel of the title", "poster_path": "/A09hMB36Q5iun61Mmq3kOPljSOL.jpg", "release_date": "1951-12-31", "title": "Hotel Sahara", "video": false, "vote_average": 7.0, "vote_count": 3, "popularity": 1.96}, {"adult": false, "backdrop_path": "/28VfrH6gq2bNJgMWKTorOVuJYQM.jpg", "genre_ids": [35], "id": 170302, "original_language": "en", "original_title": "And the Same to You", "overview": "Dickie Dreadnought is the boxing-mad nephew of pious clergyman Reverend Sydney Mullet. To mollify his disapproving uncle, Dickie embarks on an elaborate plan to keep his budding boxing career a secret, with he and his tough-talking promoter Wally Burton both pretending to be devout 'men of the cloth'.", "poster_path": "/xaUKDgQlehmBKvjpbj9DlVc503K.jpg", "release_date": "1960-02-01", "title": "And the Same to You", "video": false, "vote_average": 6.4, "vote_count": 4, "popularity": 1.331}, {"adult": false, "backdrop_path": "/di92uzvfkoSjZnVvfqX5tDBnPop.jpg", "genre_ids": [35], "id": 177444, "original_language": "en", "original_title": "Sailor Beware", "overview": "Battle-axe Emma Hornett dominates her hen-pecked husband Henry, his meek sister Edie and daughter Shirley. Shirley is to marry young sailor Albert,raised in an orphanage,and he and best man Carnoustie stay with the Hornetts on the eve of the wedding, though Emma makes sure the stag night is a brief one. Next day Albert fails to show up for the wedding. He eventually turns up at the house and confides in the vicar that if family life is anything like the Hornetts he wants no part of it. When the Hornetts are told this Emma declares that she sees that has been a \"very wicked woman\" and will mend her ways but, as the young couple eventually marry and move into their own house , one wonders how long her change of heart will last.", "poster_path": "/rn8KLglemKsyDfau1GwPtBKCuPN.jpg", "release_date": "1956-01-01", "title": "Sailor Beware", "video": false, "vote_average": 7.8, "vote_count": 4, "popularity": 2.256}, {"adult": false, "backdrop_path": "/pV3vI1JitnuWUyhf77j4gJJCMAY.jpg", "genre_ids": [27, 53], "id": 117019, "original_language": "en", "original_title": "Ghost Ship", "overview": "Warned that it is haunted, a skeptical young couple buy a rundown yacht  and fix it up to be their home-on-the-sea, only to come slowly to realize it really is haunted..", "poster_path": "/xmS4NSr6j3sfQsTc52YecTeGtok.jpg", "release_date": "1952-10-01", "title": "Ghost Ship", "video": false, "vote_average": 4.8, "vote_count": 6, "popularity": 3.271}, {"adult": false, "backdrop_path": "/xnL1HMEd3zz6ryWZwtUcAmZWz4k.jpg", "genre_ids": [878], "id": 144676, "original_language": "en", "original_title": "Scorpio One", "overview": "Using ultra-advanced technology, scientists aboard Scorpio One have made a monumental discovery -- and paid for it with their lives. Now, with time and oxygen running out, Scorpio One is about to become ground zero for an explosive showdown high above the Earth, where the stakes are nothing less than the future of the world.", "poster_path": "/cQFDiCziXMwDjZxk4J6XrvTlIO.jpg", "release_date": "1998-01-01", "title": "Scorpio One", "video": false, "vote_average": 3.4, "vote_count": 5, "popularity": 3.362}, {"adult": false, "backdrop_path": "/cCgbUXnDyiOtPIayIv0EfiXQQup.jpg", "genre_ids": [18, 28, 53, 878], "id": 109757, "original_language": "en", "original_title": "This Is Not a Test", "overview": "A highway patrolman stops motorists on a highway after he hears news reports of a possible nuclear attack.", "poster_path": "/5SXG8pSUH8cgEa4sdxPhiRVixKP.jpg", "release_date": "1962-01-01", "title": "This Is Not a Test", "video": false, "vote_average": 5.3, "vote_count": 8, "popularity": 1.959}, {"adult": false, "backdrop_path": "/iosbLjvSdbQkm5fyfQq8guMrrRn.jpg", "genre_ids": [37], "id": 150677, "original_language": "it", "original_title": "Lo chiamavano King", "overview": "The Benson brothers, who are smuggling guns across the Mexican border, kill King's brother and rape his wife. King must stop their illegal activities, find who is behind them and gain revenge for his family.", "poster_path": "/lIx6orn9Vrm92GP3VDMp9rfPi9A.jpg", "release_date": "1971-05-18", "title": "His Name was King", "video": false, "vote_average": 5.8, "vote_count": 5, "popularity": 0.86}, {"id": 141822, "video": false, "vote_count": 5, "vote_average": 6.4, "title": "When Hell Broke Loose", "release_date": "1958-11-01", "original_language": "en", "original_title": "When Hell Broke Loose", "genre_ids": [18, 10752], "backdrop_path": "/SMNbPSYk6fnsMzeIb3FlY9owvL.jpg", "adult": false, "overview": "Near the end of the war in Germany, GI Steve Boland, a self-described \"sharp-operator\", meets a German girl, Ilsa, and they fall in love. Ilsa's brother Karl, whom she has not seen in three years, and his fellow Nazi Ludwig visit Ilsa. Karl proudly informs her that he and Ludwig are \"Werewolves\", a group of Nazi assassins parachuted behind Allied lines for the purpose of killing Allied High Command officers. She and Steve go to Army Intelligence with their information, where Steve is immediately arrested for being A.W.O.L. Captain Melton of Army G-2 intervenes on Steve's behalf, as G-2 has had a suspicion about the existence of the \"Werewolves\" but no concrete info before now.", "poster_path": "/yPXTBFLtx4WQnbfkstboCawRJsB.jpg", "popularity": 2.141}, {"adult": false, "backdrop_path": "/pSugLCnLgTdJzjZSfiiNdEBG6b4.jpg", "genre_ids": [10752], "id": 95083, "original_language": "en", "original_title": "Il dito nella piaga", "overview": "A twist of fate leads a recent Westpoint grad into being responsible for the execution of two fellow American GIs. The young lieutenant comes of age, and the two battle hardened veterans achieve a state of grace through acts of sacrifice.", "poster_path": "/31D52Jrd2nQa5IZNaBXfFkuWlD4.jpg", "release_date": "1969-08-10", "title": "Salt in the Wound", "video": false, "vote_average": 5.9, "vote_count": 5, "popularity": 2.811}, {"id": 59822, "video": false, "vote_count": 4, "vote_average": 6.3, "title": "The Big Wheel", "release_date": "1949-11-04", "original_language": "en", "original_title": "The Big Wheel", "genre_ids": [28, 18, 10749], "backdrop_path": "/ihKlAsFhGBvBvEQLSesDjadoju7.jpg", "adult": false, "overview": "The ambitious son of an accomplished race driver struggles to outrun his father's legacy and achieve his own successes.", "poster_path": "/fgY298kceQgmVOPoxYYXPiWBHxy.jpg", "popularity": 3.647}, {"adult": false, "backdrop_path": "/pSUzkvxV61srjdCgKDqAFqIBVLT.jpg", "genre_ids": [35], "id": 78089, "original_language": "en", "original_title": "Where Does It Hurt?", "overview": "In this classic hospital farce, Peter Sellers plays Dr. Albert T. Hopfnagel, a greedy, crooked hospital administrator who has perfected the art of bill padding, unnecessary surgery and kickbacks. Mistrusted by patients, and resented by other staffers, his assistant Alice can no longer endure his scams and plots to have him sent to prison - but not for long enough. Sellers again steals the show with an absurd and hilarious character study.", "poster_path": "/pFvs2wzd75cuNdxzkL0Vn4srnDP.jpg", "release_date": "1972-07-24", "title": "Where Does It Hurt?", "video": false, "vote_average": 5.6, "vote_count": 7, "popularity": 2.731}, {"adult": false, "backdrop_path": "/iLfDTUfWC0IX2l5XHbsP8rDX3YP.jpg", "genre_ids": [10751, 35], "id": 80546, "original_language": "en", "original_title": "The Secret Agent Club", "overview": "A secret agent masquerades as a toy-seller, successfully concealing his alter ego even from his young son until, on a daring mission, he is captured by an evil arms dealer, then it falls to his inexperienced offspring to save the day.", "poster_path": "/sYQvJneCaFfa7yoVGViIUUXqN2q.jpg", "release_date": "1996-08-16", "title": "The Secret Agent Club", "video": false, "vote_average": 3.7, "vote_count": 16, "popularity": 4.694}, {"adult": false, "backdrop_path": "/cmThswWY1cl2iWahtb5EOf1jrqo.jpg", "genre_ids": [53], "id": 50800, "original_language": "en", "original_title": "The Monkey's Paw", "overview": "A curio dealer sells a monkey's paw that can grant the possessor three wishes but warns that disaster will follow.", "poster_path": "/aze6UbbkmhiTzzwpNVaRwqlqx3Z.jpg", "release_date": "1948-06-01", "title": "The Monkey's Paw", "video": false, "vote_average": 5.7, "vote_count": 6, "popularity": 2.066}, {"id": 35692, "video": false, "vote_count": 8, "vote_average": 6.2, "title": "The Black Knight", "release_date": "1954-08-26", "original_language": "en", "original_title": "The Black Knight", "genre_ids": [28, 12], "backdrop_path": "/dtfNOb332IaJlQoShW6lvyDqmRq.jpg", "adult": false, "overview": "John (Alan Ladd), a blacksmith and swordsmith, is tutored at Camelot. As a commoner, he can't hope to win the hand of Lady Linet (Patricia Medina), daughter of the Earl of Yeoniland (Harry Andrews), so he creates a secret alternate identity as the Black Knight. In this new role, he is now able to help King Arthur when Saracens and Cornish men\u2014disguised as Vikings -- plot to take over the country.", "poster_path": "/2VxUB8HnY65bjB1XZ4xowymCuMq.jpg", "popularity": 4.928}, {"adult": false, "backdrop_path": "/qJILp7ud2jkSQ2PTfaj1qBA06V4.jpg", "genre_ids": [27, 878], "id": 41030, "original_language": "en", "original_title": "The Snow Creature", "overview": "A botanical expedition to the Himalayas captures a Yeti and brings it back alive to Los Angeles, where it escapes and runs amok, seeking food.", "poster_path": "/fvvfa8oE3G8CrdXrshWzWxPgEYE.jpg", "release_date": "1954-11-01", "title": "The Snow Creature", "video": false, "vote_average": 2.8, "vote_count": 10, "popularity": 2.432}], "total_pages": 2, "total_results": 40}, "credits": {"cast": [{"cast_id": 2, "character": "Jack Martin", "credit_id": "52fe48279251416c91082171", "gender": 2, "id": 6837, "name": "Walter Matthau", "order": 0, "profile_path": "/xJVkvprOnzP5Zdh5y63y8HHniDZ.jpg"}, {"cast_id": 3, "character": "Carol Logan, Librarian", "credit_id": "52fe48279251416c91082175", "gender": 1, "id": 246939, "name": "Carol Grace", "order": 1, "profile_path": null}, {"cast_id": 5, "character": "Earl J. Dawson", "credit_id": "52fe48279251416c9108217f", "gender": 2, "id": 1003567, "name": "Bruce MacFarlane", "order": 2, "profile_path": null}, {"cast_id": 6, "character": "Adolph (as Gerrett Wallberg)", "credit_id": "52fe48279251416c91082183", "gender": 0, "id": 1184610, "name": "Garry Walberg", "order": 3, "profile_path": "/1cAO4o8WkZgH3iKgdlS3uCUNVN6.jpg"}], "crew": [{"credit_id": "52fe48279251416c9108216d", "department": "Directing", "gender": 2, "id": 6837, "job": "Director", "name": "Walter Matthau", "profile_path": "/xJVkvprOnzP5Zdh5y63y8HHniDZ.jpg"}, {"credit_id": "52fe48279251416c9108217b", "department": "Writing", "gender": 0, "id": 1184609, "job": "Screenplay", "name": "Paul Purcell", "profile_path": null}, {"credit_id": "5dc1f119470ead00158ae927", "department": "Camera", "gender": 2, "id": 2449981, "job": "Director of Photography", "name": "Max Glenn", "profile_path": null}]}}