{"adult": false, "backdrop_path": "/xzg0jB7VULaLGA7g6SL8G2nbtnd.jpg", "belongs_to_collection": null, "budget": 0, "genres": [{"id": 18, "name": "Drama"}, {"id": 10749, "name": "Romance"}], "homepage": null, "id": 81825, "imdb_id": "tt0189467", "original_language": "it", "original_title": "Dedicato a una Stella", "overview": "Love story of a young woman Stella who is dying of leukemia. A man who is mistakenly taken as a family member at a hospital and is informed by a doctor the diagnosis of Stella. Stella cheerfully follows the man. He is reluctant at first but after some shaky moments it develops into a relationship. The two fall in love in the short period of time left to experience.", "popularity": 2.131, "poster_path": "/sQpPL2G71JKH3XL8rWKOGQiCkKx.jpg", "production_companies": [{"id": 1598, "logo_path": null, "name": "Nippon Herald Films", "origin_country": ""}, {"id": 84708, "logo_path": null, "name": "A-Esse Cinematografica", "origin_country": ""}], "production_countries": [{"iso_3166_1": "IT", "name": "Italy"}], "release_date": "1978-11-01", "revenue": 0, "runtime": 94, "spoken_languages": [{"iso_639_1": "it", "name": "Italiano"}], "status": "Released", "tagline": "", "title": "The Last Concert", "video": false, "vote_average": 10.0, "vote_count": 1, "keywords": {"keywords": [{"id": 8097, "name": "leukemia"}]}, "similar": {"page": 1, "results": [{"adult": false, "backdrop_path": "/pHM9Xr6ivOspDUWuprjaxgPbcB3.jpg", "genre_ids": [18, 80, 53], "id": 11975, "original_language": "en", "original_title": "The Rainmaker", "overview": "When Rudy Baylor, a young attorney with no clients, goes to work for a seedy ambulance chaser, he wants to help the parents of a terminally ill boy in their suit against an insurance company. But to take on corporate America, Rudy and a scrappy paralegal must open their own law firm.", "poster_path": "/cFM9TariJqLLiPb6OSsvTfQPTAd.jpg", "release_date": "1997-11-18", "title": "The Rainmaker", "video": false, "vote_average": 6.9, "vote_count": 489, "popularity": 13.572}, {"id": 9422, "video": false, "vote_count": 204, "vote_average": 6.3, "title": "A Civil Action", "release_date": "1998-12-25", "original_language": "en", "original_title": "A Civil Action", "genre_ids": [18], "backdrop_path": "/PIpkcbsE9IruwPBbTTDp1qrS5x.jpg", "adult": false, "overview": "Jan Schlickmann is a cynical lawyer who goes out to 'get rid of' a case, only to find out it is potentially worth millions. The case becomes his obsession, to the extent that he is willing to give up everything\u2014including his career and his clients' goals\u2014in order to continue the case against all odds.", "poster_path": "/81TGgmcObcfL6jcjPsU1n4n9THI.jpg", "popularity": 9.538}, {"id": 9458, "video": false, "vote_count": 111, "vote_average": 6.0, "title": "Desperate Measures", "release_date": "1998-01-30", "original_language": "en", "original_title": "Desperate Measures", "genre_ids": [28, 18, 53], "backdrop_path": "/xASMuSKqEtUSlFSPvBdXc8f6tT9.jpg", "adult": false, "overview": "San Francisco police officer Frank Connor is in a frantic search for a compatible bone marrow donor for his gravely ill son. There's only one catch the potential donor is convicted multiple murderer Peter McCabe who sees a trip to the hospital as the perfect opportunity to get what he wants most freedom. With McCabe's escape, the entire hospital becomes a battleground and Connor must pursue and, ironically, protect the deadly fugitive who is his son's only hope for survival.", "poster_path": "/NvkAJ4RERSSfztgqcRvGCXN508.jpg", "popularity": 8.877}, {"id": 9819, "video": false, "vote_count": 296, "vote_average": 6.7, "title": "Marvin's Room", "release_date": "1996-12-18", "original_language": "en", "original_title": "Marvin's Room", "genre_ids": [18], "backdrop_path": "/dXGjxSaKV02s1It9i0IF7HhVQ8l.jpg", "adult": false, "overview": "A leukemia patient attempts to end a 20-year feud with her sister to get her bone marrow.", "poster_path": "/lTHq1K5Y6EDRjxTBvReXHY6AKQ3.jpg", "popularity": 9.368}, {"adult": false, "backdrop_path": "/jrSo8OTeWZ0Ego7uOYS20syIZ5N.jpg", "genre_ids": [35, 18], "id": 308369, "original_language": "en", "original_title": "Me and Earl and the Dying Girl", "overview": "Greg is coasting through senior year of high school as anonymously as possible, avoiding social interactions like the plague while secretly making spirited, bizarre films with Earl, his only friend. But both his anonymity and friendship threaten to unravel when his mother forces him to befriend a classmate with leukemia.", "poster_path": "/4Zrvc5rddDSHD3JmfkzvAx82wuT.jpg", "release_date": "2015-06-12", "title": "Me and Earl and the Dying Girl", "video": false, "vote_average": 7.6, "vote_count": 1696, "popularity": 10.454}, {"adult": false, "backdrop_path": "/lfPKcPZWDJK38Y19EV4y8vSy00t.jpg", "genre_ids": [18, 35], "id": 8696, "original_language": "en", "original_title": "Calendar Girls", "overview": "Members of a Yorkshire branch of the Women's Institute cause controversy when they pose nude for a charity calendar.", "poster_path": "/iFJW7jAE7GVfoBJLNMwtNTAstQT.jpg", "release_date": "2003-09-02", "title": "Calendar Girls", "video": false, "vote_average": 6.6, "vote_count": 199, "popularity": 15.123}, {"adult": false, "backdrop_path": "/hZCFpyWSMul9zn7Bxs0rgRYjWH7.jpg", "genre_ids": [18, 53], "id": 11222, "original_language": "de", "original_title": "Der amerikanische Freund", "overview": "Tom Ripley, who deals in forged art, suggests a picture framer he knows would make a good hit man.", "poster_path": "/x8DO2kP5Znbog0WvefZPcHIHfWU.jpg", "release_date": "1977-06-26", "title": "The American Friend", "video": false, "vote_average": 7.1, "vote_count": 142, "popularity": 6.526}, {"adult": false, "backdrop_path": "/uHWqg4NpvOtiLN3yyr8jC9DJqwc.jpg", "genre_ids": [18], "id": 17893, "original_language": "es", "original_title": "Camino", "overview": "A religious organization interferes with the life of a terminally ill girl.", "poster_path": "/qSxyPiBU709CwzXJocnKEefngo9.jpg", "release_date": "2008-10-16", "title": "Camino", "video": false, "vote_average": 7.1, "vote_count": 86, "popularity": 6.152}, {"id": 69717, "video": false, "vote_count": 22, "vote_average": 7.3, "title": "Ways to Live Forever", "release_date": "2010-10-29", "original_language": "en", "original_title": "Ways to Live Forever", "genre_ids": [18, 10751], "backdrop_path": "/bc8d0uwp4fSaXV7JfNRxytDSgvR.jpg", "adult": false, "overview": "Sam loves facts. He wants to know about UFOs and horror movies and airships and ghosts and scientists, and how it feels to kiss a girl. And because he has leukemia he wants to know the facts about dying. Sam needs answers to the questions nobody will answer.", "poster_path": "/5rpOSNyHFzo8E45dpulgPicAS8t.jpg", "popularity": 3.907}, {"id": 306755, "video": false, "vote_count": 2, "vote_average": 6.0, "title": "Dirty Dealing", "release_date": "2018-06-19", "original_language": "en", "original_title": "Dirty Dealing", "genre_ids": [18], "backdrop_path": "/aZNzj2SPDVLSDSTDWwa2VPg7RNO.jpg", "adult": false, "overview": "A group of sexy blackjack dealers, The Sin Pit Pussycats, plot to rob a Vegas casino to get revenge against the shady owner who wronged them.", "poster_path": "/IMoEoMgF2eKdwf0AimIGkVpDrA.jpg", "popularity": 2.706}, {"id": 107774, "video": false, "vote_count": 8, "vote_average": 6.1, "title": "Pete 'n' Tillie", "release_date": "1972-12-17", "original_language": "en", "original_title": "Pete 'n' Tillie", "genre_ids": [35, 18, 10749], "backdrop_path": "/2dJyusaMWzFoEodHgGThQpypoxp.jpg", "adult": false, "overview": "A fun-loving bachelor woos and weds a secretary, but the bonds of this marriage aren't strong enough to stop his philandering from continuing.", "poster_path": "/k2tEUd65hV4RyCq6QZhNNbvhQmE.jpg", "popularity": 1.718}, {"adult": false, "backdrop_path": "/3AEEvtgJDexbLMpst9wUY6UYhgl.jpg", "genre_ids": [35, 18], "id": 11628, "original_language": "de", "original_title": "Solino", "overview": "The movie portrays the story of an Italian family emigrated in Germany in the 1970s. Romano (Gigi Savoia), the father, decides to open a pizzeria which, by mutual decision with the wife Rosa (Antonella Attili), will call Solino, leaving his sons Gigi and Giancarlo to work there. A hostile relationship comes to life between the father and his sons, which will end up in the escape of the boys from family.", "poster_path": "/38Oyp2p0oTbGmQZOXpMyBjKgthf.jpg", "release_date": "2002-09-23", "title": "Solino", "video": false, "vote_average": 7.1, "vote_count": 28, "popularity": 5.205}, {"adult": false, "backdrop_path": "/AmmAZbs1QMYYmstqeBf9gKBekLi.jpg", "genre_ids": [18], "id": 345928, "original_language": "en", "original_title": "Shovel Buddies", "overview": "A group of friends attempt to successfully complete a list of tasks assigned to them as the \"Shovel List\" by their dead friend.", "poster_path": "/6jAv7Xu05uf1HxpQVRAnWZnegNj.jpg", "release_date": "2016-10-11", "title": "Shovel Buddies", "video": false, "vote_average": 6.2, "vote_count": 19, "popularity": 5.026}, {"adult": false, "backdrop_path": "/2BH0t9FrtMmMcuLqpNCG5ZlSXh9.jpg", "genre_ids": [18, 10749], "id": 242250, "original_language": "nl", "original_title": "Hemel op Aarde", "overview": "Love is the Word is a moving, romantic and funny coming-of-age drama about the magic of first love and the misery of first lost, set in 1978: the year 'Grease' hit the big screen.", "poster_path": "/7vztHiG4IeQkjkPSfWZ5eOEz7kM.jpg", "release_date": "2013-12-19", "title": "Love is the Word", "video": false, "vote_average": 6.3, "vote_count": 9, "popularity": 2.601}, {"adult": false, "backdrop_path": null, "genre_ids": [10749, 18, 878], "id": 546144, "original_language": "en", "original_title": "Dito Lang Ako", "overview": "Everyday, Nelia waits outside a store in Timog hoping for Delfin--a man that she lost 40 years ago--to comeback. Unwilling to forget the romance that she spent with him, she recalls their tale set amid the timeless beauty of Quezon City in 1970s. Will Nelia be able to move on? Will Delfin's love transcend through time? As Nelia and Delfin's story unfolds, 'Dito Lang Ako' becomes more than just a recollection of a past romance, it is an achingly compassionate story of heartfelt passion, tender moments and most of all, unselfish love.", "poster_path": "/amvaS2sG3IfTZzk7OM1geKzApgl.jpg", "release_date": "2018-08-08", "title": "I Am Here", "video": false, "vote_average": 0.0, "vote_count": 0, "popularity": 0.754}, {"adult": false, "backdrop_path": "/pvwWctedYzx6rXN6RKgUMJcwru7.jpg", "genre_ids": [18, 10749], "id": 118202, "original_language": "cn", "original_title": "\u5929\u6daf\u6d77\u89d2", "overview": "Where is the end of the world? A rich girl diagnosed with leukemia wants to follow a sailor friend to St Kilda, Scotland to find out...but first she must search him out, who is missing.", "poster_path": "/ws8RCp9yuGgUHvneSqkuXWMQTXQ.jpg", "release_date": "1996-10-18", "title": "Lost and Found", "video": false, "vote_average": 6.5, "vote_count": 6, "popularity": 2.478}, {"adult": false, "backdrop_path": "/ewJU8TXK2an4ktpnt0pZcommaeP.jpg", "genre_ids": [18, 14, 27, 9648], "id": 79785, "original_language": "en", "original_title": "Harlequin", "overview": "In this modern-day version of the Rasputin story, David Hemmings plays an up-and-coming senator, Nick Rast, whose young son is terminally ill with leukaemia. A mysterious faith healer, Gregory Wolfe, appears and seems to cure the boy. Rast's wife Sandy falls in love with Wolfe, but the powerful interests behind Rast's career, represented by geriatric monster Doc Wheelan are less happy with events.", "poster_path": "/cpKPjzuACboHbH0BEJgPz4EaH6A.jpg", "release_date": "1980-03-28", "title": "Harlequin", "video": false, "vote_average": 6.3, "vote_count": 14, "popularity": 1.987}, {"adult": false, "backdrop_path": null, "genre_ids": [18], "id": 280309, "original_language": "it", "original_title": "L'ultima neve di primavera", "overview": "A 10-year-old boy starts to die of neglect when his widowed father spends too much time forsaking his parental duties in favour of playboy activities and a jet-set life-style.", "poster_path": "/kf9hc8TG9hf3zLE7zEHjG5Cpzqe.jpg", "release_date": "1973-12-20", "title": "The Last Snows of Spring", "video": false, "vote_average": 8.1, "vote_count": 6, "popularity": 2.181}, {"adult": false, "backdrop_path": null, "genre_ids": [10751, 16, 35, 18], "id": 133131, "original_language": "en", "original_title": "Why, Charlie Brown, Why?", "overview": "A new girl comes to the neighbourhood school and Linus is smitten with her. Unfortunately, she develops the symptoms of leukemia and must go to the hospital for cancer treatment. Linus and Charlie Brown help her through the traumas of chemotherapy as best they can while Snoopy plays at being the world's greatest doctor.", "poster_path": "/7d3e59Q8ZnNRySJkhmql96BBF3Q.jpg", "release_date": "1990-03-16", "title": "Why, Charlie Brown, Why?", "video": false, "vote_average": 6.2, "vote_count": 10, "popularity": 1.485}, {"adult": false, "backdrop_path": null, "genre_ids": [10770, 18], "id": 564179, "original_language": "en", "original_title": "Stones for Ibarra", "overview": "A couple moves to a small Mexican town called Ibarra. They help open a local mine which brings new life to the town and the local ways help the two of them find peace they were missing.", "poster_path": null, "release_date": "1988-01-29", "title": "Stones for Ibarra", "video": false, "vote_average": 0.0, "vote_count": 0, "popularity": 0.844}], "total_pages": 2, "total_results": 33}, "recommendations": {"page": 1, "results": [], "total_pages": 1, "total_results": 0}, "credits": {"cast": [{"cast_id": 3, "character": "Richard Lasky", "credit_id": "52fe482d9251416c91082f05", "gender": 2, "id": 20510, "name": "Richard Johnson", "order": 0, "profile_path": "/miDA5sN3ijfED6M4oRZ0NTdBfBR.jpg"}, {"cast_id": 2, "character": "Stella", "credit_id": "52fe482d9251416c91082f01", "gender": 1, "id": 137353, "name": "Pamela Villoresi", "order": 1, "profile_path": "/dpPVKxi8Q6iAm7uNWDxj4RRetUh.jpg"}, {"cast_id": 4, "character": "Simone, the landlady", "credit_id": "52fe482d9251416c91082f09", "gender": 0, "id": 592515, "name": "Maria Antonietta Beluzzi", "order": 2, "profile_path": "/cCyaX1vkXY6fKMioaz6BoWMg4vE.jpg"}, {"cast_id": 5, "character": "the doctor", "credit_id": "52fe482d9251416c91082f0d", "gender": 2, "id": 592516, "name": "Francesco D'Adda", "order": 3, "profile_path": "/qgIqtHCc54nLeTHlIiV9344X7oF.jpg"}, {"cast_id": 24, "character": "Doctor", "credit_id": "585c2e4792514149ef000663", "gender": 0, "id": 1726442, "name": "Leonardo Della Giovanna", "order": 4, "profile_path": null}, {"cast_id": 8, "character": "", "credit_id": "585c2b1992514149ef000425", "gender": 0, "id": 43236, "name": "Lucia D'Elia", "order": 5, "profile_path": null}, {"cast_id": 9, "character": "Doctor", "credit_id": "585c2b2592514149dc00045a", "gender": 0, "id": 1123153, "name": "Giorgio Gargiullo", "order": 6, "profile_path": null}, {"cast_id": 25, "character": "Simone's daughter", "credit_id": "585c2e6092514149da00073f", "gender": 0, "id": 1726444, "name": "Daniela Lattaioli", "order": 7, "profile_path": null}, {"cast_id": 26, "character": "", "credit_id": "585c2e7192514149da000751", "gender": 0, "id": 1726445, "name": "Emanuele Ruspoli", "order": 8, "profile_path": null}, {"cast_id": 10, "character": "Stella's brother", "credit_id": "585c2b59c3a3685429000458", "gender": 0, "id": 1725232, "name": "Mauro Curi", "order": 9, "profile_path": null}, {"cast_id": 11, "character": "Stella's father", "credit_id": "585c2b9b92514149ef000473", "gender": 0, "id": 29429, "name": "Riccardo Cucciolla", "order": 10, "profile_path": "/lPGoms1ouEite0sKp3guCdUdjEn.jpg"}], "crew": [{"credit_id": "585c2c9392514149e3000550", "department": "Camera", "gender": 0, "id": 27380, "job": "Director of Photography", "name": "Roberto D'Ettorre Piazzoli", "profile_path": null}, {"credit_id": "585c2c7f92514149e0000695", "department": "Sound", "gender": 2, "id": 29501, "job": "Original Music Composer", "name": "Stelvio Cipriani", "profile_path": "/lMk2Iwbq2RcvCZd9UJw0QtT74VZ.jpg"}, {"credit_id": "585c2c3792514149e60005b5", "department": "Costume & Make-Up", "gender": 0, "id": 31611, "job": "Makeup Artist", "name": "Pietro Tenoglio", "profile_path": null}, {"credit_id": "585c2be4c3a3685422000487", "department": "Writing", "gender": 2, "id": 88164, "job": "Screenplay", "name": "Luigi Cozzi", "profile_path": "/gGBQcEpcesOwKi2kA9lInvA3Vgw.jpg"}, {"credit_id": "52fe482d9251416c91082efd", "department": "Directing", "gender": 2, "id": 88164, "job": "Director", "name": "Luigi Cozzi", "profile_path": "/gGBQcEpcesOwKi2kA9lInvA3Vgw.jpg"}, {"credit_id": "585c2c70c3a36854100005eb", "department": "Editing", "gender": 0, "id": 592058, "job": "Editor", "name": "Angelo Curi", "profile_path": null}, {"credit_id": "585c2bf292514149dc0004da", "department": "Writing", "gender": 0, "id": 1091333, "job": "Screenplay", "name": "Daniele Del Giudice", "profile_path": null}, {"credit_id": "585c2bf892514149e30004e4", "department": "Writing", "gender": 0, "id": 1178048, "job": "Screenplay", "name": "Sonia Molteni", "profile_path": null}, {"credit_id": "585c2bdc92514149e6000578", "department": "Writing", "gender": 0, "id": 1178048, "job": "Story", "name": "Sonia Molteni", "profile_path": null}, {"credit_id": "585c2c45c3a368542000052c", "department": "Camera", "gender": 0, "id": 1298943, "job": "Still Photographer", "name": "Roberto Carnevali", "profile_path": null}, {"credit_id": "585c2cad92514149dc000562", "department": "Production", "gender": 2, "id": 1343811, "job": "Producer", "name": "Mario Cotone", "profile_path": "/2rlyo0XePZFxpZFYRaqfMwda46W.jpg"}, {"credit_id": "585c2c1592514149e30004f1", "department": "Directing", "gender": 0, "id": 1384107, "job": "Assistant Director", "name": "Elvira D'Amico", "profile_path": null}, {"credit_id": "585c2bebc3a3685410000591", "department": "Writing", "gender": 0, "id": 1726437, "job": "Screenplay", "name": "Michele Delle Aie", "profile_path": null}]}}