{"adult": false, "backdrop_path": "/5QSkGvfYyTiYIgsy3hGTWu5pKmH.jpg", "belongs_to_collection": null, "budget": 0, "genres": [{"id": 10749, "name": "Romance"}, {"id": 18, "name": "Drama"}, {"id": 10402, "name": "Music"}], "homepage": null, "id": 82178, "imdb_id": "tt0024685", "original_language": "en", "original_title": "Torch Singer", "overview": "When she can't support her illegitimate child, an abandoned young woman puts her up for adoption and pursues a career as a torch singer. Years later, she then searches for the gave up child.", "popularity": 2.489, "poster_path": "/8Avm0Clzqtwt798P2rRtGrkWeVp.jpg", "production_companies": [{"id": 4, "logo_path": "/fycMZt242LVjagMByZOLUGbCvv3.png", "name": "Paramount", "origin_country": "US"}], "production_countries": [{"iso_3166_1": "US", "name": "United States of America"}], "release_date": "1933-09-08", "revenue": 0, "runtime": 71, "spoken_languages": [{"iso_639_1": "en", "name": "English"}], "status": "Released", "tagline": "", "title": "Torch Singer", "video": false, "vote_average": 4.0, "vote_count": 2, "keywords": {"keywords": [{"id": 10229, "name": "singer"}, {"id": 156764, "name": "pre-code"}, {"id": 185201, "name": "illegitimate child"}]}, "similar": {"page": 1, "results": [{"id": 872, "video": false, "vote_count": 1617, "vote_average": 8.2, "title": "Singin' in the Rain", "release_date": "1952-04-10", "original_language": "en", "original_title": "Singin' in the Rain", "genre_ids": [35, 10402, 10749], "backdrop_path": "/amW1YWQvcP8slDyDp1R652aVQZ7.jpg", "adult": false, "overview": "In 1927 Hollywood, a silent film production company and cast make a difficult transition to sound.", "poster_path": "/s39odBPtyutGBnEfBIpdm0fpRwv.jpg", "popularity": 17.295}, {"id": 504608, "video": false, "vote_count": 1661, "vote_average": 7.4, "title": "Rocketman", "release_date": "2019-05-22", "original_language": "en", "original_title": "Rocketman", "genre_ids": [18, 10402], "backdrop_path": "/sZZJ42GrWKxSOfcrpI2TSFQa0AQ.jpg", "adult": false, "overview": "The story of Elton John's life, from his years as a prodigy at the Royal Academy of Music through his influential and enduring musical partnership with Bernie Taupin.", "poster_path": "/f4FF18ia7yTvHf2izNrHqBmgH8U.jpg", "popularity": 26.576}, {"id": 18126, "video": false, "vote_count": 1217, "vote_average": 6.4, "title": "Hannah Montana: The Movie", "release_date": "2009-04-10", "original_language": "en", "original_title": "Hannah Montana: The Movie", "genre_ids": [35, 18, 10402, 10749, 10751], "backdrop_path": "/ezx3NkXNqf2KnJCP6Nfj1bfCFut.jpg", "adult": false, "overview": "As Hannah Montana's popularity begins to take over her life, Miley Stewart, on the urging from her father takes a trip to her hometown of Crowley Corners, Tennessee to get some perspective on what matters in life the most.", "poster_path": "/8pwbnmvshHj2yYPYlyJ8K8Yzecy.jpg", "popularity": 12.479}, {"id": 2005, "video": false, "vote_count": 1806, "vote_average": 6.7, "title": "Sister Act", "release_date": "1992-05-28", "original_language": "en", "original_title": "Sister Act", "genre_ids": [35, 10402], "backdrop_path": "/oaLqlJxt8TJSjsdfMpSkLexZ4l5.jpg", "adult": false, "overview": "A Reno singer witnesses a mob murder and the cops stash her in a nunnery to protect her from the mob's hitmen. The mother superior does not trust her, and takes steps to limit her influence on the other nuns. Eventually the singer rescues the failing choir and begins helping with community projects, which gets her an interview on TV\u2014and identification by the mob.", "poster_path": "/7wQxLtybiUbtC6tsJh9htFEmqq3.jpg", "popularity": 16.674}, {"id": 10537, "video": false, "vote_count": 603, "vote_average": 6.9, "title": "The Doors", "release_date": "1991-03-01", "original_language": "en", "original_title": "The Doors", "genre_ids": [18, 10402], "backdrop_path": "/1rv5sW6Qs2YK2iOzIgwH3SJPIl1.jpg", "adult": false, "overview": "The story of the famous and influential 1960s rock band and its lead singer and composer, Jim Morrison.", "poster_path": "/9CkFrWAkg23YynYd2uJLyWznMZZ.jpg", "popularity": 14.573}, {"adult": false, "backdrop_path": "/wEo4UtBAWdB4aOmQ9wRjI1aS7Dt.jpg", "genre_ids": [35, 18], "id": 10098, "original_language": "en", "original_title": "The Kid", "overview": "A tramp cares for a boy after he's abandoned as a newborn by his mother. Later the mother has a change of heart and aches to be reunited with her son.", "poster_path": "/drgMcyTsySQBnUPGaBThCHGdlWT.jpg", "release_date": "1921-02-06", "title": "The Kid", "video": false, "vote_average": 8.3, "vote_count": 976, "popularity": 16.845}, {"id": 10545, "video": false, "vote_count": 3018, "vote_average": 7.0, "title": "The Hunchback of Notre Dame", "release_date": "1996-06-21", "original_language": "en", "original_title": "The Hunchback of Notre Dame", "genre_ids": [16, 18, 10751], "backdrop_path": "/oslaee3VX9kJAjVezbjZKlEJDzn.jpg", "adult": false, "overview": "When Quasimodo defies the evil Frollo and ventures out to the Festival of Fools, the cruel crowd jeers him. Rescued by fellow outcast the gypsy Esmeralda, Quasi soon finds himself battling to save the people and the city he loves.", "poster_path": "/r7V92gY3AMO6li17MmGTixAnFcv.jpg", "popularity": 28.041}, {"adult": false, "backdrop_path": "/ppDnBvf0f7vCZHRLtDjazpYHdTF.jpg", "genre_ids": [35, 10402, 10749], "id": 13368, "original_language": "en", "original_title": "White Christmas", "overview": "Two talented song-and-dance men team up after the war to become one of the hottest acts in show business. In time they befriend and become romantically involved with the beautiful Haynes sisters who comprise a sister act.", "poster_path": "/A5kBQsHKbIptxJyELEpHQJROCRj.jpg", "release_date": "1954-10-14", "title": "White Christmas", "video": false, "vote_average": 7.4, "vote_count": 250, "popularity": 10.494}, {"id": 407655, "video": false, "vote_count": 421, "vote_average": 6.8, "title": "A Cinderella Story: If the Shoe Fits", "release_date": "2016-08-02", "original_language": "en", "original_title": "A Cinderella Story: If the Shoe Fits", "genre_ids": [35, 14, 10402, 10751], "backdrop_path": "/svYzELCLW0NGVEuvNraA4W7Hmm9.jpg", "adult": false, "overview": "A contemporary musical version of the classic Cinderella story in which the servant step daughter hope to compete in a musical competition for a famous pop star.", "poster_path": "/prZSNnK5dkYcflsbdOsVVvqasZ5.jpg", "popularity": 23.748}, {"adult": false, "backdrop_path": "/3mhNnNmfCGrjyVEZhjWRVcjMOSi.jpg", "genre_ids": [14, 16, 10749, 10751], "id": 54113, "original_language": "en", "original_title": "The Swan Princess: Escape from Castle Mountain", "overview": "The first wedding anniversary of Princess Odette and Prince Derek is distracted by field fires set by Knuckles. His master Clavius, wants to conquer the world, and he needs to capture a giant orb to do that. Clavius kidnaps Queen Uberta and Odette with Derek have to save her.", "poster_path": "/oTEgvTpAIugS7OH6oIoVZkmV3C3.jpg", "release_date": "1997-01-01", "title": "The Swan Princess: Escape from Castle Mountain", "video": false, "vote_average": 6.0, "vote_count": 198, "popularity": 11.608}, {"id": 11887, "video": false, "vote_count": 2347, "vote_average": 6.5, "title": "High School Musical 3: Senior Year", "release_date": "2008-10-11", "original_language": "en", "original_title": "High School Musical 3: Senior Year", "genre_ids": [35, 18, 10402, 10749, 10751], "backdrop_path": "/daSGxGZL2nNjGZKkAF5ain3lmOx.jpg", "adult": false, "overview": "It's almost graduation day for high school seniors Troy, Gabriella, Sharpay, Chad, Ryan and Taylor \u2015 and the thought of heading off in separate directions after leaving East High has these Wildcats thinking they need to do something they'll remember forever. Together with the rest of the Wildcats, they stage a spring musical reflecting their hopes and fears about the future and their unforgettable experiences growing up together. But with graduation approaching and college plans in question, what will become of the dreams, romances, and friendships of East High's senior Wildcats?", "poster_path": "/ewZpH2QIfPQ0VIn9lPf7MHbLbl4.jpg", "popularity": 14.748}, {"id": 332562, "video": false, "vote_count": 7176, "vote_average": 7.5, "title": "A Star Is Born", "release_date": "2018-10-03", "original_language": "en", "original_title": "A Star Is Born", "genre_ids": [18, 10402, 10749], "backdrop_path": "/mnDvPokXpvsdPcWSjNRPhiiLOKu.jpg", "adult": false, "overview": "Seasoned musician Jackson Maine discovers \u2014 and falls in love with \u2014 struggling artist Ally. She has just about given up on her dream to make it big as a singer \u2014 until Jack coaxes her into the spotlight. But even as Ally's career takes off, the personal side of their relationship is breaking down, as Jack fights an ongoing battle with his own internal demons.", "poster_path": "/wrFpXMNBRj2PBiN4Z5kix51XaIZ.jpg", "popularity": 32.943}, {"adult": false, "backdrop_path": "/5x0VEeFCnWzRBwU23KycKQRqEhN.jpg", "genre_ids": [10402, 35], "id": 15157, "original_language": "en", "original_title": "Another Cinderella Story", "overview": "A guy who danced with what could be the girl of his dreams at a costume ball only has one hint at her identity: the Zune she left behind as she rushed home in order to make her curfew. And with a once-in-a-lifetime opportunity in front of him, he sets out to find his masked beauty.", "poster_path": "/fLdCKCfHT8A6bnWybBsQFjC4fCo.jpg", "release_date": "2008-09-16", "title": "Another Cinderella Story", "video": false, "vote_average": 6.6, "vote_count": 1120, "popularity": 16.339}, {"id": 313369, "video": false, "vote_count": 11057, "vote_average": 7.9, "title": "La La Land", "release_date": "2016-11-29", "original_language": "en", "original_title": "La La Land", "genre_ids": [35, 18, 10402, 10749], "backdrop_path": "/fp6X6yhgcxzxCpmM0EVC6V9B8XB.jpg", "adult": false, "overview": "Mia, an aspiring actress, serves lattes to movie stars in between auditions and Sebastian, a jazz musician, scrapes by playing cocktail party gigs in dingy bars, but as success mounts they are faced with decisions that begin to fray the fragile fabric of their love affair, and the dreams they worked so hard to maintain in each other threaten to rip them apart.", "poster_path": "/ylXCdC106IKiarftHkcacasaAcb.jpg", "popularity": 30.693}, {"id": 606117, "video": false, "vote_count": 256, "vote_average": 6.8, "title": "A Cinderella Story: Christmas Wish", "release_date": "2019-10-15", "original_language": "en", "original_title": "A Cinderella Story: Christmas Wish", "genre_ids": [35, 14, 10402, 10749], "backdrop_path": "/h3kzgUaUOamInX7nsALsFmlw4qX.jpg", "adult": false, "overview": "Kat is an aspiring singer-songwriter who dreams of making it big. However, her dreams are stalled by her reality: a conniving and cruel stepfamily  and a demoralizing job working as a singing elf at billionaire Terrence Wintergarden\u2019s Santa Land.", "poster_path": "/ozBX0u5caaJFli9AssqJmARb5R.jpg", "popularity": 25.37}, {"id": 3035, "video": false, "vote_count": 715, "vote_average": 7.5, "title": "Frankenstein", "release_date": "1931-11-21", "original_language": "en", "original_title": "Frankenstein", "genre_ids": [18, 27, 878], "backdrop_path": "/nwmG8pQQ1xFAPZruYNnrnld2KMC.jpg", "adult": false, "overview": "Dr Henry Frankenstein is obsessed with assembling a living being from parts of several exhumed corpses.", "poster_path": "/wB58wlBAr6484Wm6VyFDqSD8VOJ.jpg", "popularity": 25.919}, {"id": 15969, "video": false, "vote_count": 1085, "vote_average": 5.8, "title": "The Return of Jafar", "release_date": "1994-12-15", "original_language": "en", "original_title": "The Return of Jafar", "genre_ids": [12, 16, 10749, 10751], "backdrop_path": "/sLF3zgqfFC6Vev84h9aK4U88M2C.jpg", "adult": false, "overview": "The evil Jafar escapes from the magic lamp as an all-powerful genie, ready to plot his revenge against Aladdin. From battling elusive villains atop winged horses, to dodging flames inside an exploding lava pit, it's up to Aladdin - with Princess Jasmine and the outrageously funny Genie by his side - to save the kingdom once and for all.", "poster_path": "/sC4wDVBMPMxmn5JJqPalMOhQ35U.jpg", "popularity": 22.698}, {"adult": false, "backdrop_path": "/6bnI08rrGXRkngRqJWCMXDZuJ1j.jpg", "genre_ids": [35, 10402], "id": 254470, "original_language": "en", "original_title": "Pitch Perfect 2", "overview": "The Bellas are back, and they are better than ever. After being humiliated in front of none other than the President of the United States of America, the Bellas are taken out of the Aca-Circuit. In order to clear their name, and regain their status, the Bellas take on a seemingly impossible task: winning an international competition no American team has ever won. In order to accomplish this monumental task, they need to strengthen the bonds of friendship and sisterhood and blow away the competition with their amazing aca-magic! With all new friends and old rivals tagging along for the trip, the Bellas can hopefully accomplish their dreams.", "poster_path": "/qSjruLiFB4uqRtz2xheQPxG8uaB.jpg", "release_date": "2015-05-07", "title": "Pitch Perfect 2", "video": false, "vote_average": 6.8, "vote_count": 3898, "popularity": 27.354}, {"adult": false, "backdrop_path": "/9l5Nzo1qbEslfCu2NYWimpZ1Vkc.jpg", "genre_ids": [35, 10751, 14, 10749], "id": 4523, "original_language": "en", "original_title": "Enchanted", "overview": "The beautiful princess Giselle is banished by an evil queen from her magical, musical animated land and finds herself in the gritty reality of the streets of modern-day Manhattan. Shocked by this strange new environment that doesn't operate on a \"happily ever after\" basis, Giselle is now adrift in a chaotic world badly in need of enchantment. But when Giselle begins to fall in love with a charmingly flawed divorce lawyer who has come to her aid - even though she is already promised to a perfect fairy tale prince back home - she has to wonder: Can a storybook view of romance survive in the real world?", "poster_path": "/65EfHNQ6NCeAoRPNLRhTyLqNZmU.jpg", "release_date": "2007-11-20", "title": "Enchanted", "video": false, "vote_average": 6.7, "vote_count": 3505, "popularity": 22.541}, {"adult": false, "backdrop_path": "/h6NQoXBxD0uaIrpuk9FFV89vITT.jpg", "genre_ids": [10402, 35, 10751, 14, 18], "id": 10437, "original_language": "en", "original_title": "The Muppet Christmas Carol", "overview": "A retelling of the classic Dickens tale of Ebenezer Scrooge, miser extraordinaire. He is held accountable for his dastardly ways during night-time visitations by the Ghosts of Christmas Past, Present, and future.", "poster_path": "/fe4nLJkDNXhyuMnrZ60MfoSpPes.jpg", "release_date": "1992-12-10", "title": "The Muppet Christmas Carol", "video": false, "vote_average": 7.4, "vote_count": 497, "popularity": 10.24}], "total_pages": 196, "total_results": 3908}, "recommendations": {"page": 1, "results": [], "total_pages": 1, "total_results": 0}, "credits": {"cast": [{"cast_id": 1, "character": "Sally Trent, aka Mimi Benton", "credit_id": "52fe48429251416c91085e83", "gender": 1, "id": 30155, "name": "Claudette Colbert", "order": 0, "profile_path": "/xDp3nOs14KvJNWIXL860RDEQKgI.jpg"}, {"cast_id": 2, "character": "Tony Cummings", "credit_id": "52fe48429251416c91085e87", "gender": 2, "id": 83476, "name": "Ricardo Cortez", "order": 1, "profile_path": "/ztYv4178LAnIEPWgaZALprMWTEj.jpg"}, {"cast_id": 3, "character": "Michael 'Mike' Gardner", "credit_id": "52fe48429251416c91085e8b", "gender": 2, "id": 2125, "name": "David Manners", "order": 2, "profile_path": "/Q3BWV6cvANJcBq83WTaC48OuTL.jpg"}, {"cast_id": 4, "character": "Dora Nichols", "credit_id": "52fe48429251416c91085e8f", "gender": 1, "id": 742536, "name": "Lyda Roberti", "order": 3, "profile_path": "/dQoFeakuQSBsXCiiUcDSSeCrFCt.jpg"}, {"cast_id": 5, "character": "Andrew 'Juddy' Judson", "credit_id": "52fe48429251416c91085e93", "gender": 2, "id": 8517, "name": "Charley Grapewin", "order": 4, "profile_path": "/jUHnyU7byM0ajyrovvUXkWZnlAc.jpg"}, {"cast_id": 6, "character": "Harry, Radio Announcer", "credit_id": "52fe48429251416c91085e97", "gender": 2, "id": 1036952, "name": "Sam Godfrey", "order": 5, "profile_path": null}, {"cast_id": 7, "character": "Mother Angelica", "credit_id": "52fe48429251416c91085e9b", "gender": 1, "id": 94332, "name": "Florence Roberts", "order": 6, "profile_path": "/jJzGMGUGMLa1p9Y7DxvNbrHyZig.jpg"}, {"cast_id": 8, "character": "Mrs. Julia Judson", "credit_id": "52fe48429251416c91085e9f", "gender": 1, "id": 1033183, "name": "Virginia Hammond", "order": 7, "profile_path": "/vUpdaFPmabxykB0zatYPCwezFT.jpg"}, {"cast_id": 9, "character": "Agatha Alden", "credit_id": "52fe48429251416c91085ea3", "gender": 1, "id": 8232, "name": "Ethel Griffies", "order": 8, "profile_path": "/m3pXmGCIlccqKUi9ERM1aiBNhTw.jpg"}, {"cast_id": 28, "character": "Bobby, Dora's Baby at 1 Year", "credit_id": "5c9b86260e0a264cc3c71b06", "gender": 0, "id": 99370, "name": "Baby LeRoy", "order": 9, "profile_path": "/yJiPXBg5TX6keHrQezoIZH2cWXl.jpg"}, {"cast_id": 29, "character": "Carrie", "credit_id": "5c9b86490e0a261ba2c39cb1", "gender": 0, "id": 1290103, "name": "Mildred Washington", "order": 10, "profile_path": null}, {"cast_id": 30, "character": "Sally, Age 5", "credit_id": "5c9b86600e0a264cc3c71b63", "gender": 1, "id": 103015, "name": "Cora Sue Collins", "order": 11, "profile_path": "/ovPiFUzhpjsHBkgc2l2fJ0UG0qp.jpg"}, {"cast_id": 31, "character": "Miss Spaulding", "credit_id": "5c9b86700e0a2610e5c39c87", "gender": 1, "id": 34213, "name": "Helen Jerome Eddy", "order": 12, "profile_path": "/hp3DDgoCKwglMfRmklCS90UzQRd.jpg"}, {"cast_id": 32, "character": "Carlotti", "credit_id": "5c9b868a92514165b2f7baf0", "gender": 2, "id": 100595, "name": "Albert Conti", "order": 13, "profile_path": "/xJwAIJSS7Ic2VMZqhTRqj0LM3ag.jpg"}, {"cast_id": 33, "character": "Nightclub Patron", "credit_id": "5c9b869bc3a368349f39c685", "gender": 0, "id": 1422125, "name": "Jean Acker", "order": 14, "profile_path": "/sfN6pIGusrgAfYu23Tyu5Ouojbp.jpg"}, {"cast_id": 43, "character": "Nightclub Patron", "credit_id": "5c9b873a0e0a264ccec7107f", "gender": 1, "id": 1120784, "name": "Gladys Hulette", "order": 15, "profile_path": null}, {"cast_id": 47, "character": "Nightclub Patron", "credit_id": "5c9b87839251417760f7fa54", "gender": 2, "id": 88462, "name": "Dennis O'Keefe", "order": 16, "profile_path": "/uTu2E94CyTJuXnr8UWcVRzNkMqo.jpg"}, {"cast_id": 48, "character": "Nightclub Patron", "credit_id": "5c9b8794c3a36873193e24f2", "gender": 2, "id": 117584, "name": "Eddie Phillips", "order": 17, "profile_path": "/4YPjvFgp1fYjYlnyB8hJvl366FQ.jpg"}, {"cast_id": 49, "character": "Nightclub Patron", "credit_id": "5c9b87a392514165c1f7e3eb", "gender": 2, "id": 1186118, "name": "Ronald R. Rondell", "order": 18, "profile_path": null}, {"cast_id": 53, "character": "Nightclub Patron", "credit_id": "5c9b87eb92514165b2f7bc8a", "gender": 0, "id": 1269827, "name": "Florence Wix", "order": 19, "profile_path": "/9Aw4Wd70reDhu585NhTMOkwua3U.jpg"}, {"cast_id": 34, "character": "Woman in Sally's Apartment", "credit_id": "5c9b86acc3a368349f39c6be", "gender": 0, "id": 1765123, "name": "Bobbe Arnst", "order": 20, "profile_path": null}, {"cast_id": 52, "character": "Blonde in Sally's Apartment", "credit_id": "5c9b87db9251416e8ff7f3b9", "gender": 0, "id": 1018113, "name": "Toby Wing", "order": 21, "profile_path": "/sEKrEzME3Bqwd8WPEVh79hoxP9p.jpg"}, {"cast_id": 35, "character": "Taxi Driver", "credit_id": "5c9b86bcc3a3680bbd39b87b", "gender": 2, "id": 14453, "name": "James Burke", "order": 22, "profile_path": "/s01DJdyVjmF0f6fXIGzsDHjPVGs.jpg"}, {"cast_id": 36, "character": "Sobbing Girl", "credit_id": "5c9b86cac3a36841a341c635", "gender": 1, "id": 29761, "name": "Kathleen Burke", "order": 23, "profile_path": "/s8Yp7ByWW8toWVZlL7EswUFGVqp.jpg"}, {"cast_id": 37, "character": "Mr. Seymour", "credit_id": "5c9b86dfc3a3684bd23e17a7", "gender": 2, "id": 1075172, "name": "Davison Clark", "order": 24, "profile_path": "/lj3c9C80RZvFKTR3ToxnSDWv5M.jpg"}, {"cast_id": 38, "character": "Agatha Alden's Butler", "credit_id": "5c9b86f1c3a368351939d1f7", "gender": 2, "id": 1186117, "name": "Edward Cooper", "order": 25, "profile_path": null}, {"cast_id": 39, "character": "Jarrett", "credit_id": "5c9b86fe9251417760f7f9cb", "gender": 2, "id": 95729, "name": "William B. Davidson", "order": 26, "profile_path": "/6MmhkoDiuyoW7HxlJ6F42kPkm6J.jpg"}, {"cast_id": 40, "character": "Italian Diner", "credit_id": "5c9b870d9251411067f7f1e8", "gender": 1, "id": 1013177, "name": "Anna Demetrio", "order": 27, "profile_path": null}, {"cast_id": 41, "character": "Man in Radio Station", "credit_id": "5c9b871d0e0a264cd3c740ff", "gender": 2, "id": 121122, "name": "Lester Dorr", "order": 28, "profile_path": "/l6iPmfBJvMLyTTcZkJZ4MNx1WaJ.jpg"}, {"cast_id": 45, "character": "Doctor", "credit_id": "5c9b875dc3a3680bbd39b9a6", "gender": 2, "id": 30202, "name": "Edward LeSaint", "order": 29, "profile_path": "/vaD3RR3C5stmGbBSstay4sCktit.jpg"}, {"cast_id": 42, "character": "Head Nurse", "credit_id": "5c9b87290e0a267c85bf6688", "gender": 0, "id": 1058730, "name": "Grace Goodall", "order": 30, "profile_path": null}, {"cast_id": 44, "character": "Bass Fiddle Player", "credit_id": "5c9b87519251417760f7fa1d", "gender": 0, "id": 109724, "name": "Perc Launders", "order": 31, "profile_path": null}, {"cast_id": 46, "character": "Miss Thomas", "credit_id": "5c9b87719251417760f7fa2f", "gender": 1, "id": 1064924, "name": "Margaret Mann", "order": 32, "profile_path": "/vfTGdVh2LiTx47iq6M9MbzsArFK.jpg"}, {"cast_id": 50, "character": "Waiter in Bistro", "credit_id": "5c9b87b2c3a3686c9739715c", "gender": 2, "id": 116307, "name": "Harry Semels", "order": 33, "profile_path": null}, {"cast_id": 51, "character": "Mickey", "credit_id": "5c9b87c592514165c1f7e3fd", "gender": 0, "id": 1174043, "name": "Jerry Tucker", "order": 34, "profile_path": "/9ejFdaFxnSoJJp1f46B1OcafOSg.jpg"}], "crew": [{"credit_id": "563d50a69251417819005bc0", "department": "Costume & Make-Up", "gender": 2, "id": 7652, "job": "Costume Design", "name": "Travis Banton", "profile_path": "/hf1TZE9c0qvgaXmYK6kBWfZHYzz.jpg"}, {"credit_id": "55361d2ac3a368523e00648b", "department": "Camera", "gender": 2, "id": 9081, "job": "Director of Photography", "name": "Karl Struss", "profile_path": "/bWIt5hnn3pV0p3M8MQcVibT3M6C.jpg"}, {"credit_id": "5c9b85b10e0a2610e5c39bff", "department": "Sound", "gender": 2, "id": 9107, "job": "Sound Engineer", "name": "Harold Lewis", "profile_path": null}, {"credit_id": "5c9b858cc3a3686c97396f4b", "department": "Sound", "gender": 2, "id": 29276, "job": "Orchestrator", "name": "Howard Jackson", "profile_path": null}, {"credit_id": "5c9b85800e0a2671e1c3c10a", "department": "Sound", "gender": 2, "id": 30256, "job": "Orchestrator", "name": "John Leipold", "profile_path": "/cPgas8DKKw42OjS9Bbrr6uDCT4m.jpg"}, {"credit_id": "563d509d9251417819005bbe", "department": "Editing", "gender": 0, "id": 41144, "job": "Editor", "name": "Eda Warren", "profile_path": null}, {"credit_id": "563d5073c3a3681b4b026518", "department": "Writing", "gender": 1, "id": 84237, "job": "Screenplay", "name": "Lenore J. Coffee", "profile_path": "/4izZTE5jXntDj7BX3HFVpNr1sRu.jpg"}, {"credit_id": "52fe48429251416c91085ea9", "department": "Directing", "gender": 2, "id": 99667, "job": "Director", "name": "Alexander Hall", "profile_path": "/cI5plsrm2kfqalh3dDRPMun6pZW.jpg"}, {"credit_id": "5c9b85eb9251417760f7f836", "department": "Sound", "gender": 2, "id": 998190, "job": "Original Music Composer", "name": "Ralph Rainger", "profile_path": null}, {"credit_id": "563d507cc3a3681b5402aa02", "department": "Writing", "gender": 2, "id": 1091264, "job": "Screenplay", "name": "Lynn Starling", "profile_path": null}, {"credit_id": "5c9b85d4c3a36873193e22ff", "department": "Production", "gender": 0, "id": 1123079, "job": "Casting", "name": "Fred Schuessler", "profile_path": null}, {"credit_id": "563d5067c3a36862da00193d", "department": "Writing", "gender": 1, "id": 1129957, "job": "Story", "name": "Grace Perkins", "profile_path": null}, {"credit_id": "52fe48429251416c91085eaf", "department": "Directing", "gender": 0, "id": 1142378, "job": "Director", "name": "George Somnes", "profile_path": null}, {"credit_id": "58cef37bc3a36850e902677f", "department": "Production", "gender": 2, "id": 1780096, "job": "Producer", "name": "Albert Lewis", "profile_path": null}, {"credit_id": "5c9b859c0e0a264cc3c7199b", "department": "Production", "gender": 0, "id": 2004778, "job": "Casting Assistant", "name": "Dick Stockton", "profile_path": null}]}}