{"adult": false, "backdrop_path": "/bsaOy91bsjCKllu7UsDhtZfcFrL.jpg", "belongs_to_collection": null, "budget": 0, "genres": [{"id": 35, "name": "Comedy"}, {"id": 10749, "name": "Romance"}], "homepage": null, "id": 82239, "imdb_id": "tt0029165", "original_language": "en", "original_title": "Love Is News", "overview": "When a crafty reporter uses false pretenses to get a story out of heiress Tony Gateson, she turns the tables on him, telling the press that they are engaged. Suddenly he's front page news, every salesman is at his doorstep, and he loses his job. A series of misadventures ensues with him alternately back on his job and fired and her ex-fiance showing up. Can an heiress be a human being, and can a reporter get a scoop?", "popularity": 1.865, "poster_path": "/ixSebBNEKGMSbYT34nihYCDfOvA.jpg", "production_companies": [{"id": 25, "logo_path": "/qZCc1lty5FzX30aOCVRBLzaVmcp.png", "name": "20th Century Fox", "origin_country": "US"}], "production_countries": [{"iso_3166_1": "US", "name": "United States of America"}], "release_date": "1937-02-26", "revenue": 0, "runtime": 77, "spoken_languages": [{"iso_639_1": "en", "name": "English"}], "status": "Released", "tagline": "", "title": "Love Is News", "video": false, "vote_average": 7.3, "vote_count": 3, "keywords": {"keywords": [{"id": 12193, "name": "reporter"}, {"id": 41185, "name": "heiress"}, {"id": 155457, "name": "screwball comedy"}, {"id": 190261, "name": "scoop"}]}, "similar": {"page": 1, "results": [{"adult": false, "backdrop_path": "/yIj4Y2BXbjr8Qem6Ly8QJWt4PgL.jpg", "genre_ids": [35, 10749], "id": 31773, "original_language": "en", "original_title": "Libeled Lady", "overview": "When a major newspaper accuses wealthy socialite Connie Allenbury of being a home-wrecker, and she files a multi-million-dollar libel lawsuit, the publication's frazzled head editor, Warren Haggerty, must find a way to turn the tables on her. Soon Haggerty's harried fianc\u00e9e, Gladys Benton, and his dashing friend Bill Chandler are in on a scheme that aims to discredit Connie, with amusing and unexpected results.", "poster_path": "/kqFyuN4riFJz2JblUZZKYNiTt5p.jpg", "release_date": "1936-10-09", "title": "Libeled Lady", "video": false, "vote_average": 7.4, "vote_count": 45, "popularity": 6.659}, {"adult": false, "backdrop_path": "/oXKzUfG4HPl1e3b87eFWV8Lr07a.jpg", "genre_ids": [35], "id": 42814, "original_language": "en", "original_title": "The Front Page", "overview": "Hildy Johnson is an investigative reporter is looking for a bigger paycheck. When an accused murderer escapes from custody, Hildy sees an opportunity for the story of a lifetime. But when he finds the criminal, he learns that the man may not be guilty. With the help of his editor, Hildy attempts to hide the convict, uncover the conspiracy and write the scoop of his career.", "poster_path": "/jlWhGpS6YFgb9dANRLl5Z40Y8c2.jpg", "release_date": "1931-04-04", "title": "The Front Page", "video": false, "vote_average": 6.8, "vote_count": 23, "popularity": 5.615}, {"adult": false, "backdrop_path": "/wfFTStTBWo3zIciBW4Eob3sarSz.jpg", "genre_ids": [35, 10749], "id": 3078, "original_language": "en", "original_title": "It Happened One Night", "overview": "A renegade reporter and a crazy young heiress meet on a bus heading for New York, and end up stuck with each other when the bus leaves them behind at one of the stops.", "poster_path": "/k63JqnFvkIGWGhjsqRiksZw2OSs.jpg", "release_date": "1934-02-22", "title": "It Happened One Night", "video": false, "vote_average": 7.9, "vote_count": 563, "popularity": 13.497}, {"adult": false, "backdrop_path": "/zffzhr30v7nCHRcyfnVr8PmNLbM.jpg", "genre_ids": [10749, 35, 18], "id": 11355, "original_language": "en", "original_title": "Never Been Kissed", "overview": "Josie Geller, a baby-faced junior copywriter at the Chicago Sun-Times, must pose as a student at her former high school to research contemporary teenage culture. With the help of her brother, Rob, Josie infiltrates the inner circle of the most popular clique on campus. But she hits a major snag in her investigation -- not to mention her own failed love life -- when she falls for her dreamy English teacher, Sam Coulson.", "poster_path": "/1F9EAhEQxa0I5Pa5Z10hWIBFS3r.jpg", "release_date": "1999-04-09", "title": "Never Been Kissed", "video": false, "vote_average": 6.0, "vote_count": 855, "popularity": 17.41}, {"adult": false, "backdrop_path": "/gRY30dvyLhydkblpE0v3NiXt0Nj.jpg", "genre_ids": [35, 10749], "id": 6557, "original_language": "en", "original_title": "27 Dresses", "overview": "Altruistic Jane finds herself facing her worst nightmare as her younger sister announces her engagement to the man Jane secretly adores.", "poster_path": "/zzJtHNzi1D4CPwRlPHV1TRQNXD2.jpg", "release_date": "2008-01-10", "title": "27 Dresses", "video": false, "vote_average": 6.3, "vote_count": 2136, "popularity": 10.851}, {"adult": false, "backdrop_path": "/k9dJ6wKKg1Ye8XCGuNOtPoTpRn9.jpg", "genre_ids": [35, 18, 10749], "id": 24807, "original_language": "en", "original_title": "Mr. Deeds Goes to Town", "overview": "Longfellow Deeds lives in a small town, leading a small town kind of life. When a relative dies and leaves Deeds a fortune, Longfellow moves to the big city where he becomes an instant target for everyone. Deeds outwits them all until Babe Bennett comes along. When small-town boy meets big-city girl anything can, and does, happen.", "poster_path": "/nWPUslg7us6CUjm5XtsnsuuGmNr.jpg", "release_date": "1936-04-09", "title": "Mr. Deeds Goes to Town", "video": false, "vote_average": 7.6, "vote_count": 147, "popularity": 12.611}, {"id": 1949, "video": false, "vote_count": 5158, "vote_average": 7.5, "title": "Zodiac", "release_date": "2007-03-02", "original_language": "en", "original_title": "Zodiac", "genre_ids": [80, 18, 9648, 53], "backdrop_path": "/jP2htGBHE7vKq4MLeC75UeC0sZH.jpg", "adult": false, "overview": "The true story of the investigation of the \"Zodiac Killer\", a serial killer who terrified the San Francisco Bay Area, taunting police with his ciphers and letters. The case becomes an obsession for three men as their lives and careers are built and destroyed by the endless trail of clues.", "poster_path": "/bgLyOROfFQI3FqYL7jQbiaV8lkN.jpg", "popularity": 21.354}, {"id": 9008, "video": false, "vote_count": 950, "vote_average": 7.4, "title": "The Insider", "release_date": "1999-10-28", "original_language": "en", "original_title": "The Insider", "genre_ids": [18, 53], "backdrop_path": "/7oq51chQ7MW7RVKqhL4ivxhrwGf.jpg", "adult": false, "overview": "Tells the true story of a 60 Minutes television series expos\u00e9 of the tobacco industry, as seen through the eyes of a real tobacco executive, Jeffrey Wigand.", "poster_path": "/sYQsmMl4oG56NtFaNkDxuJhhODa.jpg", "popularity": 12.176}, {"adult": false, "backdrop_path": "/8ZIZJbPXCtnIG1rJpR57iFRyPTt.jpg", "genre_ids": [10749, 35], "id": 544, "original_language": "en", "original_title": "There's Something About Mary", "overview": "For Ted, prom night went about as bad as it\u2019s possible for any night to go. Thirteen years later, he finally gets another chance with his old prom date, only to run up against other suitors including the sleazy detective he hired to find her.", "poster_path": "/zD4ACYImREkDRk8PPiIXHDx4nZa.jpg", "release_date": "1998-07-15", "title": "There's Something About Mary", "video": false, "vote_average": 6.5, "vote_count": 3193, "popularity": 28.959}, {"adult": false, "backdrop_path": "/fAA0S3rM3o5Sp8TIdS0MvWOGsCQ.jpg", "genre_ids": [18, 10749], "id": 843, "original_language": "cn", "original_title": "\u82b1\u6a23\u5e74\u83ef", "overview": "Taking place in Hong Kong of 1962, a melancholy story about the love between a woman and a man who live in the same building and one day find out that their husband and wife had an affair with each other.", "poster_path": "/unOW3SxFxBdd7LMWjmRONdHWKPb.jpg", "release_date": "2000-05-22", "title": "In the Mood for Love", "video": false, "vote_average": 8.1, "vote_count": 962, "popularity": 15.474}, {"adult": false, "backdrop_path": "/npClMhFGn4XUkwu6coq5oKAEu6L.jpg", "genre_ids": [35, 10749, 18], "id": 634, "original_language": "en", "original_title": "Bridget Jones's Diary", "overview": "A chaotic Bridget Jones meets a snobbish lawyer, and he soon enters her world of imperfections.", "poster_path": "/ym6kjFFZg6boC0QHBVw6hqJLbxv.jpg", "release_date": "2001-04-13", "title": "Bridget Jones's Diary", "video": false, "vote_average": 6.7, "vote_count": 3079, "popularity": 16.678}, {"id": 1497, "video": false, "vote_count": 558, "vote_average": 6.0, "title": "Teenage Mutant Ninja Turtles II: The Secret of the Ooze", "release_date": "1991-03-22", "original_language": "en", "original_title": "Teenage Mutant Ninja Turtles II: The Secret of the Ooze", "genre_ids": [28, 12, 35, 878, 10751], "backdrop_path": "/kcBgrUeBjtDCEUcRfO9JfMtQ6BQ.jpg", "adult": false, "overview": "The Turtles and the Shredder battle once again, this time for the last cannister of the ooze that created the Turtles, which Shredder wants to create an army of new mutants.", "poster_path": "/HD4LtUw4Ono9tzgwWOhHpHcjkj.jpg", "popularity": 13.529}, {"id": 439, "video": false, "vote_count": 828, "vote_average": 8.1, "title": "La Dolce Vita", "release_date": "1960-02-05", "original_language": "it", "original_title": "La dolce vita", "genre_ids": [35, 18], "backdrop_path": "/b3ofp0vhkbKsrz2V44DimBRKkxf.jpg", "adult": false, "overview": "Episodic journey of an Italian journalist scouring Rome in search of love.", "poster_path": "/aU7WLwPVCOoonAPWOPBmZ8X0c3c.jpg", "popularity": 14.214}, {"adult": false, "backdrop_path": "/t3Oea7KbSpOvuqddMnlFtZ4WHn.jpg", "genre_ids": [18, 53, 36], "id": 314365, "original_language": "en", "original_title": "Spotlight", "overview": "In 2001, editor Marty Baron of The Boston Globe assigns a team of journalists to investigate allegations against John Geoghan, an unfrocked priest accused of molesting more than 80 boys. Led by editor Walter \"Robby\" Robinson, reporters Michael Rezendes, Matt Carroll and Sacha Pfeiffer interview victims and try to unseal sensitive documents. The reporters make it their mission to provide proof of a cover-up of sexual abuse within the Roman Catholic Church.", "poster_path": "/ngKxbvsn9Si5TYVJfi1EGAGwThU.jpg", "release_date": "2015-11-06", "title": "Spotlight", "video": false, "vote_average": 7.8, "vote_count": 5408, "popularity": 22.049}, {"id": 17578, "video": false, "vote_count": 3533, "vote_average": 6.8, "title": "The Adventures of Tintin", "release_date": "2011-10-25", "original_language": "en", "original_title": "The Adventures of Tintin", "genre_ids": [12, 16, 9648], "backdrop_path": "/m3xgF9JiTlfN1rO9hcvTd4PTIQy.jpg", "adult": false, "overview": "Intrepid young reporter, Tintin, and his loyal dog, Snowy, are thrust into a world of high adventure when they discover a ship carrying an explosive secret. As Tintin is drawn into a centuries-old mystery, Ivan Ivanovitch Sakharine suspects him of stealing a priceless treasure. Tintin and Snowy, with the help of salty, cantankerous Captain Haddock and bumbling detectives, Thompson and Thomson, travel half the world, one step ahead of their enemies, as Tintin endeavors to find the Unicorn, a sunken ship that may hold a vast fortune, but also an ancient curse.", "poster_path": "/3XOaHJARdZIXcd7sgJV24Txp3gf.jpg", "popularity": 19.171}, {"id": 338970, "video": false, "vote_count": 4947, "vote_average": 6.3, "title": "Tomb Raider", "release_date": "2018-03-05", "original_language": "en", "original_title": "Tomb Raider", "genre_ids": [28, 12, 14], "backdrop_path": "/bLJTjfbZ1c5zSNiAvGYs1Uc82ir.jpg", "adult": false, "overview": "Lara Croft, the fiercely independent daughter of a missing adventurer, must push herself beyond her limits when she finds herself on the island where her father disappeared.", "poster_path": "/3zrC5tUiR35rTz9stuIxnU1nUS5.jpg", "popularity": 26.469}, {"adult": false, "backdrop_path": "/zGutQCLUIQ5LakubDZtfM8s22eA.jpg", "genre_ids": [9648, 18], "id": 15, "original_language": "en", "original_title": "Citizen Kane", "overview": "Newspaper magnate, Charles Foster Kane is taken from his mother as a boy and made the ward of a rich industrialist. As a result, every well-meaning, tyrannical or self-destructive move he makes for the rest of his life appears in some way to be a reaction to that deeply wounding event.", "poster_path": "/sav0jxhqiH0bPr2vZFU0Kjt2nZL.jpg", "release_date": "1941-04-30", "title": "Citizen Kane", "video": false, "vote_average": 8.1, "vote_count": 2762, "popularity": 18.233}, {"id": 891, "video": false, "vote_count": 888, "vote_average": 7.8, "title": "All the President's Men", "release_date": "1976-04-04", "original_language": "en", "original_title": "All the President's Men", "genre_ids": [18, 36, 9648, 53], "backdrop_path": "/rqM0Uq57NNOpEx7BBk7FqBfGqzc.jpg", "adult": false, "overview": "In the run-up to the 1972 elections, Washington Post reporter Bob Woodward covers what seems to be a minor break-in at the Democratic Party National Headquarters. He is surprised to find top lawyers already on the defense case, and the discovery of names and addresses of Republican fund organizers on the accused further arouses his suspicions. After the editor of the Post runs with the story and assigns Woodward and Carl Bernstein to it, they find the trail leading higher and higher in the Republican Party\u2014and eventually into the White House itself.", "poster_path": "/jvXiGgWyBYDfQb44spH9JPTOmAZ.jpg", "popularity": 30.144}, {"id": 36643, "video": false, "vote_count": 1603, "vote_average": 6.2, "title": "The World Is Not Enough", "release_date": "1999-11-17", "original_language": "en", "original_title": "The World Is Not Enough", "genre_ids": [28, 12, 53], "backdrop_path": "/4xAb2zAe5Pmno928hBQqff4RVwr.jpg", "adult": false, "overview": "Greed, revenge, world dominance and high-tech terrorism \u2013 it's all in a day's work for Bond, who's on a mission to protect a beautiful oil heiress from a notorious terrorist. In a race against time that culminates in a dramatic submarine showdown, Bond works to defuse the international power struggle that has the world's oil supply hanging in the balance.", "poster_path": "/aPfALBxfgx2tsbTwRMR1MbNHSvn.jpg", "popularity": 24.669}, {"id": 38055, "video": false, "vote_count": 4058, "vote_average": 6.8, "title": "Megamind", "release_date": "2010-10-28", "original_language": "en", "original_title": "Megamind", "genre_ids": [28, 16, 35, 878, 10751], "backdrop_path": "/2NMbbt8PgSeXG49pm31ibhW8op6.jpg", "adult": false, "overview": "Bumbling supervillain Megamind finally defeats his nemesis, the superhero Metro Man. But without a hero, he loses all purpose and must find new meaning to his life.", "poster_path": "/mws4hcv746iKsTv81sY393LY4YI.jpg", "popularity": 20.759}], "total_pages": 31, "total_results": 606}, "recommendations": {"page": 1, "results": [], "total_pages": 1, "total_results": 0}, "credits": {"cast": [{"cast_id": 1, "character": "Steve Leyton", "credit_id": "52fe48469251416c910866e1", "gender": 2, "id": 10922, "name": "Tyrone Power", "order": 0, "profile_path": "/aLpInX9KhZQWnTcg9goiVDNCD7G.jpg"}, {"cast_id": 2, "character": "Tony Gateson", "credit_id": "52fe48469251416c910866e5", "gender": 1, "id": 85848, "name": "Loretta Young", "order": 1, "profile_path": "/g5IlFLATSLpINVlaoV8Ncce2RCA.jpg"}, {"cast_id": 3, "character": "Martin J. Canavan", "credit_id": "52fe48469251416c910866e9", "gender": 2, "id": 18156, "name": "Don Ameche", "order": 2, "profile_path": "/q4t9dds6jQuuqpMLvALbOqVJRFV.jpg"}, {"cast_id": 5, "character": "Count Andre de Guyon", "credit_id": "56f5ca55c3a3686a59000b44", "gender": 2, "id": 3361, "name": "George Sanders", "order": 3, "profile_path": "/6fvK8vUTgSMRvuw77PjjuIOMl6.jpg"}, {"cast_id": 6, "character": "Egbert Eggleston", "credit_id": "56f5ca7292514125d6000302", "gender": 2, "id": 3339, "name": "Elisha Cook Jr.", "order": 4, "profile_path": "/lM7n3Feg9t2mkcMUmdJ5fCi54wJ.jpg"}, {"cast_id": 23, "character": "Judge Hart", "credit_id": "575a4d929251411548000864", "gender": 2, "id": 2016, "name": "Slim Summerville", "order": 5, "profile_path": "/4EjFLKxKSUUjbRBLewRTXpfTrL1.jpg"}, {"cast_id": 24, "character": "Cyrus Jeffrey", "credit_id": "575a4d9a92514115450008e0", "gender": 2, "id": 100243, "name": "Dudley Digges", "order": 6, "profile_path": "/aZ8pIeHyJPIntOLFrucuqEgmHRY.jpg"}, {"cast_id": 25, "character": "Eddie Johnson", "credit_id": "575a4da3c3a3680b3500052e", "gender": 2, "id": 13819, "name": "Walter Catlett", "order": 7, "profile_path": "/Y5kIRVTNaKuMy8DyrFDP1kwOub.jpg"}, {"cast_id": 26, "character": "Lois Westcott", "credit_id": "575a4dab92514128780005e0", "gender": 1, "id": 120759, "name": "Pauline Moore", "order": 8, "profile_path": "/fMPLXs2TT0mBVIbg71zyv8y94Go.jpg"}, {"cast_id": 27, "character": "Mrs. Flaherty", "credit_id": "575a4db3c3a36805d800051f", "gender": 1, "id": 8515, "name": "Jane Darwell", "order": 9, "profile_path": "/geGrMcqxcFtMKKJO36OFpVwZFFW.jpg"}, {"cast_id": 28, "character": "Penrod", "credit_id": "575a4dba92514128a3000590", "gender": 2, "id": 120772, "name": "Stepin Fetchit", "order": 10, "profile_path": "/x4Y2jgR4d828bUaZOnZo8wWJzCQ.jpg"}, {"cast_id": 29, "character": "A.G. Findlay", "credit_id": "575a4dd092514128780005e8", "gender": 2, "id": 14658, "name": "Frank Conroy", "order": 11, "profile_path": "/qaRzzjKlMHBOUB5QGp6Tib0Y7Ad.jpg"}, {"cast_id": 30, "character": "Kenyon", "credit_id": "575a4dd792514128a3000596", "gender": 2, "id": 13361, "name": "Edwin Maxwell", "order": 12, "profile_path": "/8mLgclzsR9m7TOPDH2qgRAbsapi.jpg"}, {"cast_id": 31, "character": "Joe Brady", "credit_id": "575a4dfec3a3686ad8000891", "gender": 2, "id": 120544, "name": "Charles Williams", "order": 13, "profile_path": null}, {"cast_id": 32, "character": "Logan", "credit_id": "575a4e079251413153000426", "gender": 2, "id": 1046805, "name": "Julius Tannen", "order": 14, "profile_path": "/98ZI56IGsxBlbBnHA5apZEPJvkr.jpg"}, {"cast_id": 33, "character": "Mike Allegretti", "credit_id": "575a4e0fc3a3680b35000547", "gender": 2, "id": 106091, "name": "George Humbert", "order": 15, "profile_path": "/cVo8bxLicAiRuTdOurnnfW6TwAp.jpg"}, {"cast_id": 34, "character": "J.D. Jones", "credit_id": "575a4e17c3a3686ae200092d", "gender": 2, "id": 74877, "name": "Frederick Burton", "order": 16, "profile_path": "/qqId4FeR1kKokQYQQvgcC9bOQB2.jpg"}, {"cast_id": 35, "character": "Bevins", "credit_id": "575a4e20c3a3680ba8000558", "gender": 2, "id": 544585, "name": "Charles Coleman", "order": 17, "profile_path": "/an91KUlUCmPPrutfN95cGP7gyoK.jpg"}, {"cast_id": 36, "character": "Alvord", "credit_id": "575a4e2792514128780005f9", "gender": 0, "id": 30513, "name": "Paul McVey", "order": 18, "profile_path": "/j6lkbAjxQnNlYQMa2NuPQ7OTubF.jpg"}, {"cast_id": 37, "character": "Tessie", "credit_id": "575a4e2ec3a3681107000460", "gender": 0, "id": 1270995, "name": "Carol Tevis", "order": 19, "profile_path": null}, {"cast_id": 38, "character": "Motorcycle Officer (as Ed Deering)", "credit_id": "575a4e38c3a36807540005ba", "gender": 2, "id": 1240252, "name": "Edgar Dearing", "order": 20, "profile_path": "/aHjtlKqJc3aa555TBO2Ksj1F11w.jpg"}, {"cast_id": 39, "character": "Man Getting Marriage License (uncredited)", "credit_id": "575a4e429251411548000890", "gender": 2, "id": 98571, "name": "Eddie 'Rochester' Anderson", "order": 21, "profile_path": "/zHuKGgQyNUKSX5elFdef0lG9QoS.jpg"}, {"cast_id": 40, "character": "Tailor (uncredited)", "credit_id": "575a4e4bc3a3686ad80008a1", "gender": 2, "id": 590519, "name": "Sam Ash", "order": 22, "profile_path": "/9yWsQsSXQTTMcQIzpGjjyMDdT86.jpg"}, {"cast_id": 41, "character": "Airport Gateman (uncredited)", "credit_id": "575a4e539251411545000906", "gender": 0, "id": 1383133, "name": "Herbert Ashley", "order": 23, "profile_path": null}, {"cast_id": 42, "character": "'Babe' - Switchboard Operator (uncredited)", "credit_id": "575a4e5dc3a3680ba8000564", "gender": 1, "id": 104199, "name": "Lynn Bari", "order": 24, "profile_path": "/fCnt165PGsBJVdM6ISk63jIxb8P.jpg"}, {"cast_id": 43, "character": "Deputy (uncredited)", "credit_id": "575a4e669251412dc10004c7", "gender": 0, "id": 1271340, "name": "Jack Baxley", "order": 25, "profile_path": null}, {"cast_id": 44, "character": "Cop (uncredited)", "credit_id": "575a4e6e9251413153000435", "gender": 2, "id": 120818, "name": "Wade Boteler", "order": 26, "profile_path": "/tJ2pg6LHMPcmeO0UzcNmhesbJ6z.jpg"}, {"cast_id": 45, "character": "Cop (uncredited)", "credit_id": "575a4e76c3a3686ae200094d", "gender": 2, "id": 1081944, "name": "A.S. Byron", "order": 27, "profile_path": null}, {"cast_id": 46, "character": "Reporter (uncredited)", "credit_id": "575a4e7ec3a3680b35000557", "gender": 2, "id": 143822, "name": "Jack Byron", "order": 28, "profile_path": null}, {"cast_id": 47, "character": "Reporter (uncredited)", "credit_id": "575a4e869251412da400052e", "gender": 0, "id": 1417104, "name": "Sterling Campbell", "order": 29, "profile_path": null}, {"cast_id": 48, "character": "Cop (uncredited)", "credit_id": "575a4e8fc3a3680b3500055e", "gender": 2, "id": 120734, "name": "Eddy Chandler", "order": 30, "profile_path": "/xjGYGqXJYgp6U2omeUTdzxHoDAj.jpg"}, {"cast_id": 49, "character": "Newsman (uncredited) (unconfirmed)", "credit_id": "575a4e9792514115480008a6", "gender": 2, "id": 4072, "name": "Lon Chaney Jr.", "order": 31, "profile_path": "/cnuHF4xkziyAsS7IOCfpWbgdycu.jpg"}, {"cast_id": 50, "character": "Boardinghouse Beauty (uncredited)", "credit_id": "575a4ea09251412da4000535", "gender": 1, "id": 99467, "name": "Dorothy Christy", "order": 32, "profile_path": "/ru8BfsPEkMOSlEXju71I18b66ot.jpg"}, {"cast_id": 51, "character": "Print Shop Foreman (uncredited)", "credit_id": "575a4ea89251411545000917", "gender": 2, "id": 1075172, "name": "Davison Clark", "order": 33, "profile_path": "/lj3c9C80RZvFKTR3ToxnSDWv5M.jpg"}, {"cast_id": 52, "character": "Tony's Butler (uncredited)", "credit_id": "575a4eb0c3a3680ba8000578", "gender": 2, "id": 1186117, "name": "Edward Cooper", "order": 34, "profile_path": null}, {"cast_id": 53, "character": "Pilot (uncredited)", "credit_id": "575a4eb9c3a3681107000484", "gender": 2, "id": 1420472, "name": "Alan Davis", "order": 35, "profile_path": null}, {"cast_id": 54, "character": "Salesman (uncredited)", "credit_id": "575a4ec2c3a36807540005d3", "gender": 2, "id": 119543, "name": "Harry Depp", "order": 36, "profile_path": null}, {"cast_id": 55, "character": "Clerk (uncredited)", "credit_id": "575a4ec9925141287800061e", "gender": 2, "id": 265594, "name": "John Dilson", "order": 37, "profile_path": "/95uTOZlqtxp8rhNBQ2ngPpEkt0G.jpg"}, {"cast_id": 56, "character": "Salesman (uncredited)", "credit_id": "575a4ed1c3a3686ad50008c9", "gender": 2, "id": 121122, "name": "Lester Dorr", "order": 38, "profile_path": "/l6iPmfBJvMLyTTcZkJZ4MNx1WaJ.jpg"}, {"cast_id": 57, "character": "Tony's Chauffeur (uncredited)", "credit_id": "575a4ed992514128fa0005c7", "gender": 2, "id": 1422325, "name": "Art Dupuis", "order": 39, "profile_path": null}, {"cast_id": 58, "character": "Woman Wanting Steve's Autograph (uncredited)", "credit_id": "575a4ee5c3a3681107000496", "gender": 1, "id": 945877, "name": "Dot Farley", "order": 40, "profile_path": "/6FQ3lW5yiGWlO0kDhbJXefN7lYz.jpg"}, {"cast_id": 59, "character": "Reporter (uncredited)", "credit_id": "575a4f0ec3a36805d800054a", "gender": 0, "id": 1447693, "name": "Sid Fields", "order": 41, "profile_path": "/nw9uyYY7MQmbIVMrNJ4swgFuVbH.jpg"}], "crew": [{"credit_id": "572280c1c3a368766000016e", "department": "Writing", "gender": 0, "id": 3377, "job": "Screenplay", "name": "Harry Tugend", "profile_path": null}, {"credit_id": "575a4d3e92514131530003fc", "department": "Art", "gender": 2, "id": 4085, "job": "Art Direction", "name": "Rudolph Sternad", "profile_path": null}, {"credit_id": "575a4d55c3a3686ad8000879", "department": "Production", "gender": 2, "id": 8502, "job": "Production Supervisor", "name": "Darryl F. Zanuck", "profile_path": "/zItDFAPN2NgwXAPCjtGNQwVJoej.jpg"}, {"credit_id": "575a4d44c3a368110700042a", "department": "Art", "gender": 2, "id": 8508, "job": "Set Decoration", "name": "Thomas Little", "profile_path": null}, {"credit_id": "575a4d75c3a3680ba800053a", "department": "Sound", "gender": 0, "id": 8511, "job": "Sound", "name": "Roger Heman Sr.", "profile_path": null}, {"credit_id": "575a4d6dc3a3686ad5000886", "department": "Sound", "gender": 0, "id": 14651, "job": "Sound", "name": "Alfred Bruzlin", "profile_path": null}, {"credit_id": "572280ddc3a368759c000152", "department": "Writing", "gender": 2, "id": 33364, "job": "Story", "name": "Frederick Stephani", "profile_path": null}, {"credit_id": "52fe48469251416c910866ef", "department": "Directing", "gender": 2, "id": 74878, "job": "Director", "name": "Tay Garnett", "profile_path": "/rJ8BLFlddNDRIgIPcvxTaTuOitu.jpg"}, {"credit_id": "575a4d3792514128fa000577", "department": "Editing", "gender": 1, "id": 102784, "job": "Editor", "name": "Irene Morra", "profile_path": "/inRLo56CE2fulcI1E0sTEPrVKGs.jpg"}, {"credit_id": "575a4d1d92514131530003f5", "department": "Camera", "gender": 2, "id": 137885, "job": "Director of Photography", "name": "Ernest Palmer", "profile_path": null}, {"credit_id": "572280ca9251414d330004ee", "department": "Writing", "gender": 2, "id": 1043023, "job": "Screenplay", "name": "Jack Yellen", "profile_path": null}, {"credit_id": "572280d39251413ea3000641", "department": "Writing", "gender": 2, "id": 1144426, "job": "Story", "name": "William R. Lipman", "profile_path": null}, {"credit_id": "575a4cfc9251412da40004e5", "department": "Production", "gender": 2, "id": 1144570, "job": "Associate Producer", "name": "Earl Carroll", "profile_path": null}, {"credit_id": "575a4d4c92514128a300057d", "department": "Costume & Make-Up", "gender": 0, "id": 1355547, "job": "Costume Design", "name": "Royer", "profile_path": null}, {"credit_id": "575a4d65c3a3680754000595", "department": "Directing", "gender": 0, "id": 1372222, "job": "Assistant Director", "name": "Booth McCracken", "profile_path": null}, {"credit_id": "575a4d5d92514128780005ca", "department": "Production", "gender": 0, "id": 1535865, "job": "Production Manager", "name": "Ed Ebele", "profile_path": null}, {"credit_id": "575a4d0492514128780005a8", "department": "Production", "gender": 0, "id": 1633189, "job": "Associate Producer", "name": "Harold Wilson", "profile_path": null}]}}