{"adult": false, "backdrop_path": "/X7XmwPBoYyxpEgcsBs5kpxqZWr.jpg", "belongs_to_collection": null, "budget": 0, "genres": [{"id": 18, "name": "Drama"}], "homepage": null, "id": 82257, "imdb_id": "tt0023701", "original_language": "en", "original_title": "Winner Take All", "overview": "Overworked boxer Jim goes to a health ranch in New Mexico to recover where he falls in love with Peggy and her sickly son. Once recovered, Jim leaves to return to the ring. Can their romance survive the distance?", "popularity": 2.209, "poster_path": "/jSPXFXqj9ZeJWegETCvnfDPc6Zk.jpg", "production_companies": [{"id": 174, "logo_path": "/IuAlhI9eVC9Z8UQWOIDdWRKSEJ.png", "name": "Warner Bros. Pictures", "origin_country": "US"}], "production_countries": [{"iso_3166_1": "US", "name": "United States of America"}], "release_date": "1932-07-16", "revenue": 0, "runtime": 66, "spoken_languages": [{"iso_639_1": "en", "name": "English"}], "status": "Released", "tagline": "He knocks cupid for a row of hearts!", "title": "Winner Take All", "video": false, "vote_average": 6.0, "vote_count": 2, "keywords": {"keywords": [{"id": 1508, "name": "new mexico"}, {"id": 156764, "name": "pre-code"}, {"id": 190853, "name": "society woman"}, {"id": 209476, "name": "boxing"}]}, "similar": {"page": 1, "results": [{"id": 70, "video": false, "vote_count": 5415, "vote_average": 7.9, "title": "Million Dollar Baby", "release_date": "2004-12-15", "original_language": "en", "original_title": "Million Dollar Baby", "genre_ids": [18], "backdrop_path": "/7nGW4MhYQ7sJfp482XkrgqPYQ2S.jpg", "adult": false, "overview": "Despondent over a painful estrangement from his daughter, trainer Frankie Dunn isn't prepared for boxer Maggie Fitzgerald to enter his life. But Maggie's determined to go pro and to convince Dunn and his cohort to help her.", "poster_path": "/h4VZKi2Jt4VoBYJmtC4c3bO8KqM.jpg", "popularity": 22.24}, {"adult": false, "backdrop_path": "/xx9DyVNmehDJPrYGsy9AJgYzAtd.jpg", "genre_ids": [18], "id": 1367, "original_language": "en", "original_title": "Rocky II", "overview": "After Rocky goes the distance with champ Apollo Creed, both try to put the fight behind them and move on. Rocky settles down with Adrian but can't put his life together outside the ring, while Creed seeks a rematch to restore his reputation. Soon enough, the \"Master of Disaster\" and the \"Italian Stallion\" are set on a collision course for a climactic battle that is brutal and unforgettable.", "poster_path": "/fqJH7mI4dFANRay8qdJoGa7fK1k.jpg", "release_date": "1979-06-15", "title": "Rocky II", "video": false, "vote_average": 7.1, "vote_count": 2345, "popularity": 27.206}, {"id": 686, "video": false, "vote_count": 2422, "vote_average": 7.3, "title": "Contact", "release_date": "1997-07-11", "original_language": "en", "original_title": "Contact", "genre_ids": [18, 9648, 878], "backdrop_path": "/dBK75oCKuHVuJ9rSUnusIFbhocH.jpg", "adult": false, "overview": "Contact is a science fiction film about an encounter with alien intelligence. Based on the novel by Carl Sagan the film starred Jodie Foster as the one chosen scientist who must make some difficult decisions between her beliefs, the truth, and reality.", "poster_path": "/bCpMIywuNZeWt3i5UMLEIc0VSwM.jpg", "popularity": 21.581}, {"id": 307081, "video": false, "vote_count": 3699, "vote_average": 7.4, "title": "Southpaw", "release_date": "2015-03-24", "original_language": "en", "original_title": "Southpaw", "genre_ids": [28, 18], "backdrop_path": "/tTt1cdEEkKMJ1R4VBTe5vbE3bWO.jpg", "adult": false, "overview": "Billy \"The Great\" Hope, the reigning junior middleweight boxing champion, has an impressive career, a loving wife and daughter, and a lavish lifestyle. However, when tragedy strikes, Billy hits rock bottom, losing his family, his house and his manager. He soon finds an unlikely savior in Tick Willis, a former fighter who trains the city's toughest amateur boxers. With his future on the line, Hope fights to reclaim the trust of those he loves the most.", "poster_path": "/50d0XQQETSyg3bwBXhC7K33pKgc.jpg", "popularity": 24.057}, {"id": 3035, "video": false, "vote_count": 715, "vote_average": 7.5, "title": "Frankenstein", "release_date": "1931-11-21", "original_language": "en", "original_title": "Frankenstein", "genre_ids": [18, 27, 878], "backdrop_path": "/nwmG8pQQ1xFAPZruYNnrnld2KMC.jpg", "adult": false, "overview": "Dr Henry Frankenstein is obsessed with assembling a living being from parts of several exhumed corpses.", "poster_path": "/wB58wlBAr6484Wm6VyFDqSD8VOJ.jpg", "popularity": 24.454}, {"id": 1366, "video": false, "vote_count": 4244, "vote_average": 7.7, "title": "Rocky", "release_date": "1976-11-21", "original_language": "en", "original_title": "Rocky", "genre_ids": [18], "backdrop_path": "/2kkyt0FLROrXt41IgSdE7goCFNQ.jpg", "adult": false, "overview": "When world heavyweight boxing champion, Apollo Creed wants to give an unknown fighter a shot at the title as a publicity stunt, his handlers choose palooka Rocky Balboa, an uneducated collector for a Philadelphia loan shark. Rocky teams up with trainer  Mickey Goldmill to make the most of this once in a lifetime break.", "poster_path": "/9TUR3s1PMJHwDRbpm7PWQ0S7IRy.jpg", "popularity": 31.646}, {"id": 1375, "video": false, "vote_count": 1670, "vote_average": 5.6, "title": "Rocky V", "release_date": "1990-10-18", "original_language": "en", "original_title": "Rocky V", "genre_ids": [18], "backdrop_path": "/dr5pdEDOdCvelCQqP32UZubiSgE.jpg", "adult": false, "overview": "A lifetime of taking shots has ended Rocky\u2019s career, and a crooked accountant has left him broke. Inspired by the memory of his trainer, however, Rocky finds glory in training and takes on an up-and-coming boxer.", "poster_path": "/5P2RiuLt31mWyb6duww8qlAhs6G.jpg", "popularity": 22.518}, {"id": 312221, "video": false, "vote_count": 4400, "vote_average": 7.4, "title": "Creed", "release_date": "2015-11-25", "original_language": "en", "original_title": "Creed", "genre_ids": [18], "backdrop_path": "/fs2yhdSCzMVlNECrN84WuCkgXov.jpg", "adult": false, "overview": "The former World Heavyweight Champion Rocky Balboa serves as a trainer and mentor to Adonis Johnson, the son of his late friend and former rival Apollo Creed.", "poster_path": "/hKzhV274pkZBSpXfCjUyzbyYKLl.jpg", "popularity": 17.551}, {"id": 480530, "video": false, "vote_count": 2746, "vote_average": 6.8, "title": "Creed II", "release_date": "2018-11-21", "original_language": "en", "original_title": "Creed II", "genre_ids": [18], "backdrop_path": "/hZqx2JcZVjHSY2lMEMDC0XlObiw.jpg", "adult": false, "overview": "Between personal obligations and training for his next big fight against an opponent with ties to his family's past, Adonis Creed is up against the challenge of his life.", "poster_path": "/v3QyboWRoA4O9RbcsqH8tJMe8EB.jpg", "popularity": 22.97}, {"adult": false, "backdrop_path": "/43fnzmOMO5zOUFH3EzyuwSh87IS.jpg", "genre_ids": [18], "id": 45317, "original_language": "en", "original_title": "The Fighter", "overview": "The Fighter, is a drama about boxer \"Irish\" Micky Ward's unlikely road to the world light welterweight title. His Rocky-like rise was shepherded by half-brother Dicky, a boxer-turned-trainer who rebounded in life after nearly being KO'd by drugs and crime.", "poster_path": "/ytGIpdxYyvXwch5QILfquSTMA9f.jpg", "release_date": "2010-12-17", "title": "The Fighter", "video": false, "vote_average": 7.3, "vote_count": 2571, "popularity": 17.881}, {"adult": false, "backdrop_path": "/6qYptQG2ynJANbyjjYOt4fpHfxF.jpg", "genre_ids": [18], "id": 1371, "original_language": "en", "original_title": "Rocky III", "overview": "Now the world champion, Rocky Balboa is living in luxury and only fighting opponents who pose no threat to him in the ring, until Clubber Lang challenges him to a bout. After taking a pounding from Lang, the humbled champ turns to former bitter rival Apollo Creed for a rematch with Lang.", "poster_path": "/ns55NGqTDEEjcI9z2a9htA2cFtG.jpg", "release_date": "1982-05-28", "title": "Rocky III", "video": false, "vote_average": 6.8, "vote_count": 2156, "popularity": 25.559}, {"id": 1374, "video": false, "vote_count": 2312, "vote_average": 6.9, "title": "Rocky IV", "release_date": "1985-11-21", "original_language": "en", "original_title": "Rocky IV", "genre_ids": [18], "backdrop_path": "/uvbjTLZSxGehXWDo1ENyVuBrYie.jpg", "adult": false, "overview": "After iron man Drago, a highly intimidating 6-foot-5, 261-pound Soviet athlete, kills Apollo Creed in an exhibition match, Rocky comes to the heart of Russia for 15 pile-driving boxing rounds of revenge.", "poster_path": "/jmvpwgW5M2kduR9zB0q8qGFC4zM.jpg", "popularity": 23.829}, {"id": 559969, "video": false, "vote_count": 1863, "vote_average": 6.9, "title": "El Camino: A Breaking Bad Movie", "release_date": "2019-10-11", "original_language": "en", "original_title": "El Camino: A Breaking Bad Movie", "genre_ids": [28, 80, 18, 53], "backdrop_path": "/ijiE9WoGSwSzM16zTxvUneJ8RXc.jpg", "adult": false, "overview": "In the wake of his dramatic escape from captivity, Jesse Pinkman must come to terms with his past in order to forge some kind of future.", "poster_path": "/ePXuKdXZuJx8hHMNr2yM4jY2L7Z.jpg", "popularity": 54.011}, {"id": 508763, "video": false, "vote_count": 383, "vote_average": 6.7, "title": "A Dog's Way Home", "release_date": "2019-01-10", "original_language": "en", "original_title": "A Dog's Way Home", "genre_ids": [12, 18, 10751], "backdrop_path": "/w7MsyOpP003FYhsiTgVHa3rNsrz.jpg", "adult": false, "overview": "A Dog\u2019s Way Home chronicles the heartwarming adventure of Bella, a dog who embarks on an epic 400-mile journey home after she is separated from her beloved human.", "poster_path": "/pZn87R7gtmMCGGO8KeaAfZDhXLg.jpg", "popularity": 16.541}, {"id": 9945, "video": false, "vote_count": 533, "vote_average": 6.1, "title": "Vampires", "release_date": "1998-10-30", "original_language": "en", "original_title": "Vampires", "genre_ids": [28, 18, 14, 27, 53, 37], "backdrop_path": "/rFCx9xDNgywf1A5hsBbic0C0ihd.jpg", "adult": false, "overview": "The church enlists a team of vampire-hunters to hunt down and destroy a group of vampires searching for an ancient relic that will allow them to exist in sunlight.", "poster_path": "/qHGawU64MeGvtU86s6V0MA7MqFV.jpg", "popularity": 11.856}, {"id": 107, "video": false, "vote_count": 5247, "vote_average": 7.8, "title": "Snatch", "release_date": "2000-09-01", "original_language": "en", "original_title": "Snatch", "genre_ids": [80, 53], "backdrop_path": "/cNLZ7YGRikb4IsLblrzu86ndZPw.jpg", "adult": false, "overview": "The second film from British director Guy Ritchie. Snatch tells an obscure story similar to his first fast-paced crazy character-colliding filled film \u201cLock, Stock and Two Smoking Barrels.\u201d There are two overlapping stories here \u2013 one is the search for a stolen diamond, and the other about a boxing promoter who\u2019s having trouble with a psychotic gangster.", "poster_path": "/on9JlbGEccLsYkjeEph2Whm1DIp.jpg", "popularity": 25.36}, {"adult": false, "backdrop_path": "/t3N4QkppS7MiCX6DT0HWwdpxOOV.jpg", "genre_ids": [27, 53], "id": 9793, "original_language": "en", "original_title": "The Hills Have Eyes II", "overview": "A group of National Guard trainees find themselves battling against a vicious group of mutants on their last day of training in the desert.", "poster_path": "/7yKntBeRLuj95pRxnlnnRPqr1xd.jpg", "release_date": "2007-03-22", "title": "The Hills Have Eyes 2", "video": false, "vote_average": 5.2, "vote_count": 700, "popularity": 15.425}, {"id": 9792, "video": false, "vote_count": 1554, "vote_average": 6.3, "title": "The Hills Have Eyes", "release_date": "2006-03-10", "original_language": "en", "original_title": "The Hills Have Eyes", "genre_ids": [27, 53], "backdrop_path": "/7JmFtKtvgVD0zQ2xPQdUKtTXdeA.jpg", "adult": false, "overview": "Based on Wes Craven's 1977 suspenseful cult classic, The Hills Have Eyes is the story of a family road trip that goes terrifyingly awry when the travelers become stranded in a government atomic zone. Miles from nowhere, the Carter family soon realizes the seemingly uninhabited wasteland is actually the breeding ground of a blood-thirsty mutant family...and they are the prey.", "poster_path": "/hNuqY8h1oBGTnEQK75AH4IwuiPG.jpg", "popularity": 14.316}, {"id": 10195, "video": false, "vote_count": 13986, "vote_average": 6.7, "title": "Thor", "release_date": "2011-04-21", "original_language": "en", "original_title": "Thor", "genre_ids": [28, 12, 14], "backdrop_path": "/LvmmDZxkTDqp0DX7mUo621ahdX.jpg", "adult": false, "overview": "Against his father Odin's will, The Mighty Thor - a powerful but arrogant warrior god - recklessly reignites an ancient war. Thor is cast down to Earth and forced to live among humans as punishment. Once here, Thor learns what it takes to be a true hero when the most dangerous villain of his world sends the darkest forces of Asgard to invade Earth.", "poster_path": "/9zDwvsISU8bR15R2yN3kh1lfqve.jpg", "popularity": 38.177}, {"id": 680, "video": false, "vote_count": 17227, "vote_average": 8.5, "title": "Pulp Fiction", "release_date": "1994-09-10", "original_language": "en", "original_title": "Pulp Fiction", "genre_ids": [80, 53], "backdrop_path": "/suaEOtk1N1sgg2MTM7oZd2cfVp3.jpg", "adult": false, "overview": "A burger-loving hit man, his philosophical partner, a drug-addled gangster's moll and a washed-up boxer converge in this sprawling, comedic crime caper. Their adventures unfurl in three stories that ingeniously trip back and forth in time.", "poster_path": "/d5iIlFn5s0ImszYzBPb8JPIfbXD.jpg", "popularity": 43.597}], "total_pages": 74, "total_results": 1477}, "recommendations": {"page": 1, "results": [], "total_pages": 1, "total_results": 0}, "credits": {"cast": [{"cast_id": 1, "character": "Jim 'Jimmy' Kane", "credit_id": "52fe48479251416c91086aa7", "gender": 2, "id": 5788, "name": "James Cagney", "order": 0, "profile_path": "/ltNtoIKkh6zjjLxPTkw8EKYiQPi.jpg"}, {"cast_id": 2, "character": "Peggy Harmon", "credit_id": "52fe48479251416c91086aab", "gender": 1, "id": 927637, "name": "Marian Nixon", "order": 1, "profile_path": "/kL8eB79feecydVSsCImCYlyhXRp.jpg"}, {"cast_id": 3, "character": "Pop Slavin", "credit_id": "52fe48479251416c91086aaf", "gender": 2, "id": 30002, "name": "Guy Kibbee", "order": 2, "profile_path": "/pqWHnvlW3oDUTHl8KzgBeHJwgQ0.jpg"}, {"cast_id": 4, "character": "Dickie Harmon", "credit_id": "52fe48479251416c91086ab3", "gender": 2, "id": 10165, "name": "Dickie Moore", "order": 3, "profile_path": "/6FM8aoifzR8ByjqTH8mxy6wtkzE.jpg"}, {"cast_id": 5, "character": "Joan Gibson", "credit_id": "52fe48479251416c91086ab7", "gender": 1, "id": 95314, "name": "Virginia Bruce", "order": 4, "profile_path": "/zju54SWw786TSy1i26uOc4W7pYQ.jpg"}, {"cast_id": 6, "character": "Forbes, the etiquette teacher", "credit_id": "52fe48479251416c91086abb", "gender": 2, "id": 8240, "name": "Alan Mowbray", "order": 5, "profile_path": "/s49NhpPmbn9ZaADRTJJAgDADDZt.jpg"}, {"cast_id": 7, "character": "Ann, Joan's Friend", "credit_id": "52fe48479251416c91086abf", "gender": 1, "id": 85997, "name": "Esther Howard", "order": 6, "profile_path": "/v57CDLl7wDvTCtbXph6XjrysMxU.jpg"}, {"cast_id": 8, "character": "Rosebud, the Trainer", "credit_id": "52fe48479251416c91086ac3", "gender": 2, "id": 87825, "name": "Clarence Muse", "order": 7, "profile_path": "/2An9XGreUaKKT7lNw2qEmx7NKPt.jpg"}, {"cast_id": 9, "character": "Ben Isaacs", "credit_id": "52fe48479251416c91086ac7", "gender": 2, "id": 89102, "name": "Clarence Wilson", "order": 8, "profile_path": "/8FmVuzXQGZ94XmwFUaxf3oDYkY0.jpg"}, {"cast_id": 10, "character": "Legs Davis, Diamond Ring Seller", "credit_id": "52fe48479251416c91086acb", "gender": 2, "id": 101886, "name": "Ralf Harolde", "order": 9, "profile_path": "/9N0iTOicpCdka7ItICoyiJyIOLb.jpg"}, {"cast_id": 11, "character": "Roger Elliott", "credit_id": "52fe48479251416c91086acf", "gender": 2, "id": 655128, "name": "John Roche", "order": 10, "profile_path": "/9xwtTSlNdUGRYHoMWwjmot2C2Xf.jpg"}, {"cast_id": 16, "character": "Texas Guinan (archive footage) (uncredited)", "credit_id": "584a6733c3a368140e01de4e", "gender": 1, "id": 1024422, "name": "Texas Guinan", "order": 11, "profile_path": null}, {"cast_id": 17, "character": "Interne at Rosario Ranch (uncredited)", "credit_id": "584a6746c3a368141101c589", "gender": 2, "id": 88978, "name": "George \"Gabby\" Hayes", "order": 12, "profile_path": "/bW3k2dyTraxwWJTRB5UoUI8JD3H.jpg"}, {"cast_id": 18, "character": "Monty - Joan's Friend (uncredited)", "credit_id": "584a675dc3a368140a01dc8e", "gender": 2, "id": 120807, "name": "Allan Lane", "order": 13, "profile_path": "/vdQaLR580mMfzUy6lGLQO4obVPL.jpg"}], "crew": [{"credit_id": "597b43f1925141364e0114f9", "department": "Costume & Make-Up", "gender": 2, "id": 4127, "job": "Costume Design", "name": "Orry-Kelly", "profile_path": "/zDyC5sYHLtS5Kb3A1QDyoVKXLiL.jpg"}, {"credit_id": "597b43d6c3a368375a01207f", "department": "Sound", "gender": 2, "id": 13336, "job": "Original Music Composer", "name": "W. Franke Harling", "profile_path": null}, {"credit_id": "597b43eb925141363f011c6a", "department": "Art", "gender": 2, "id": 14448, "job": "Art Direction", "name": "Robert M. Haas", "profile_path": null}, {"credit_id": "5b2006ebc3a36813ab0022ee", "department": "Sound", "gender": 2, "id": 17915, "job": "Conductor", "name": "Leo F. Forbstein", "profile_path": "/m9spsGYn67INEUTmApbRZWtmxUd.jpg"}, {"credit_id": "597b43e3925141368101159a", "department": "Editing", "gender": 2, "id": 29997, "job": "Editor", "name": "Thomas Pratt", "profile_path": null}, {"credit_id": "564b53bf9251414dcb003a43", "department": "Writing", "gender": 2, "id": 74879, "job": "Adaptation", "name": "Robert Lord", "profile_path": null}, {"credit_id": "564b53d99251414dc400368c", "department": "Writing", "gender": 2, "id": 74880, "job": "Adaptation", "name": "Wilson Mizner", "profile_path": null}, {"credit_id": "52fe48479251416c91086ad5", "department": "Directing", "gender": 2, "id": 94218, "job": "Director", "name": "Roy Del Ruth", "profile_path": "/vm5P5O0qcLYqhdPXw17U4CkBEsV.jpg"}, {"credit_id": "597b43ce925141369a011809", "department": "Production", "gender": 2, "id": 94218, "job": "Producer", "name": "Roy Del Ruth", "profile_path": "/vm5P5O0qcLYqhdPXw17U4CkBEsV.jpg"}, {"credit_id": "597b43dd925141364a011752", "department": "Camera", "gender": 2, "id": 128358, "job": "Director of Photography", "name": "Robert Kurrle", "profile_path": "/t0IOdoDNT3Y894zYWlJJLetES7a.jpg"}, {"credit_id": "564b53b39251414dcd0038ee", "department": "Writing", "gender": 0, "id": 1281046, "job": "Story", "name": "Gerald Beaumont", "profile_path": null}]}}