{"adult": false, "backdrop_path": null, "belongs_to_collection": null, "budget": 0, "genres": [{"id": 12, "name": "Adventure"}, {"id": 37, "name": "Western"}, {"id": 28, "name": "Action"}], "homepage": "http://shootfirstandpray.com/", "id": 82313, "imdb_id": "tt0818226", "original_language": "en", "original_title": "Shoot First and Pray You Live (Because Luck Has Nothing to Do with It)", "overview": "Tale of vengeance -- outlaw style -- as Red Pierre hunts down legendary gunman Bob McGurk to avenge the murder of his Mother and Father", "popularity": 2.252, "poster_path": "/tIscMtizzgbXgS5clkQGFplQhe9.jpg", "production_companies": [{"id": 62411, "logo_path": null, "name": "aWounded Knee", "origin_country": ""}, {"id": 11227, "logo_path": null, "name": "HDNM Entertainment", "origin_country": ""}], "production_countries": [{"iso_3166_1": "US", "name": "United States of America"}], "release_date": "2008-12-04", "revenue": 0, "runtime": 110, "spoken_languages": [], "status": "Released", "tagline": "I Am Goin To  Kill You Dead", "title": "Shoot First And Pray You Live", "video": false, "vote_average": 4.5, "vote_count": 2, "keywords": {"keywords": [{"id": 9748, "name": "revenge"}]}, "similar": {"page": 1, "results": [{"adult": false, "backdrop_path": "/a24i4Qw6qFTtkFLQsncv8WPwevj.jpg", "genre_ids": [53, 28, 80], "id": 345887, "original_language": "en", "original_title": "The Equalizer 2", "overview": "Robert McCall, who serves an unflinching justice for the exploited and oppressed, embarks on a relentless, globe-trotting quest for vengeance when a long-time girl friend is murdered.", "poster_path": "/cQvc9N6JiMVKqol3wcYrGshsIdZ.jpg", "release_date": "2018-07-19", "title": "The Equalizer 2", "video": false, "vote_average": 6.5, "vote_count": 2483, "popularity": 21.271}, {"id": 37835, "video": false, "vote_count": 54, "vote_average": 5.7, "title": "The Exterminator", "release_date": "1980-09-10", "original_language": "en", "original_title": "The Exterminator", "genre_ids": [28, 80, 18, 53], "backdrop_path": "/7WlZBIMGjpWAiTKs6DAfuZtYots.jpg", "adult": false, "overview": "A man's best friend is killed on the streets of New York. The man (Robert Ginty) then transforms into a violent killer, turning New York into a great war zone and Christopher George is the only one to stop him.", "poster_path": "/5fPvIpNmZ71XiLNxZ2072b8wdqg.jpg", "popularity": 6.152}, {"id": 46957, "video": false, "vote_count": 6, "vote_average": 6.5, "title": "Intimate Confessions of a Chinese Courtesan", "release_date": "1972-07-09", "original_language": "zh", "original_title": "\u611b\u5974", "genre_ids": [28, 18], "backdrop_path": "/3y2BtcjEm4yhMystxeOh46u35dH.jpg", "adult": false, "overview": "18 year old Ainu (Lily Ho) is kidnapped and sold to a brothel. Her good looks and wild personality make her very popular with the lustful clients, but also draws the lesbian attentions of brothel madam Betty Tei Pei. Betty teaches Ainu the ways of lust and the ways of kung fu, and Ainu becomes more and more similar to her captor. But rage at her treatment is still burning inside her.", "poster_path": "/x9nmTjbAcxWL3WYGBhn22IhPQ6V.jpg", "popularity": 3.818}, {"adult": false, "backdrop_path": "/kiWvoV78Cc3fUwkOHKzyBgVdrDD.jpg", "genre_ids": [37, 18, 12], "id": 281957, "original_language": "en", "original_title": "The Revenant", "overview": "In the 1820s, a frontiersman, Hugh Glass, sets out on a path of vengeance against those who left him for dead after a bear mauling.", "poster_path": "/oXUWEc5i3wYyFnL1Ycu8ppxxPvs.jpg", "release_date": "2015-12-25", "title": "The Revenant", "video": false, "vote_average": 7.5, "vote_count": 12127, "popularity": 24.135}, {"id": 156022, "video": false, "vote_count": 5468, "vote_average": 7.2, "title": "The Equalizer", "release_date": "2014-09-24", "original_language": "en", "original_title": "The Equalizer", "genre_ids": [28, 80, 53], "backdrop_path": "/vbl4ZVqelrrzJ16fdDOq9siWbpi.jpg", "adult": false, "overview": "McCall believes he has put his mysterious past behind him and dedicated himself to beginning a new, quiet life. But when he meets Teri, a young girl under the control of ultra-violent Russian gangsters, he can\u2019t stand idly by \u2013 he has to help her. Armed with hidden skills that allow him to serve vengeance against anyone who would brutalize the helpless, McCall comes out of his self-imposed retirement and finds his desire for justice reawakened. If someone has a problem, if the odds are stacked against them, if they have nowhere else to turn, McCall will help. He is The Equalizer.", "poster_path": "/2eQfjqlvPAxd9aLDs8DvsKLnfed.jpg", "popularity": 39.578}, {"id": 458594, "video": false, "vote_count": 983, "vote_average": 6.5, "title": "Peppermint", "release_date": "2018-09-06", "original_language": "en", "original_title": "Peppermint", "genre_ids": [28, 53], "backdrop_path": "/9krZX6T4EEs5eFpXgSi8jZkN48O.jpg", "adult": false, "overview": "A grieving mother transforms herself into a vigilante following the murders of her husband and daughter, eluding the authorities to deliver her own personal brand of justice.", "poster_path": "/jrzxS0vcbzIIay1sdYm0rgI2QfJ.jpg", "popularity": 18.265}, {"adult": false, "backdrop_path": "/fy1C5tM9L39i7JF0iw6DIycOO1j.jpg", "genre_ids": [18, 28, 53], "id": 11713, "original_language": "zh", "original_title": "\u7cbe\u6b66\u9580", "overview": "Chen Zhen returns to the international compound of China only to learn of his beloved teacher's death. This is compounded by the continual racist harassment by the Japanese population in the area. Unlike his friends, he confronts it head on with his mastery of martial arts while investigating his teacher's murder.", "poster_path": "/ld1kAfLJTgpZVm3jwT58bTxmXl7.jpg", "release_date": "1972-03-22", "title": "Fist of Fury", "video": false, "vote_average": 7.4, "vote_count": 406, "popularity": 16.304}, {"adult": false, "backdrop_path": "/yuK3xiw7SRgsP5nDF7vqaYEyVE2.jpg", "genre_ids": [28, 80, 18], "id": 25473, "original_language": "en", "original_title": "Walking Tall", "overview": "Buford Pusser's a wrestler, whose wife wants him to settle down, so they go to his home town in Tennessee, where he plans to get into business with his father. But he is shocked to discover all sorts of graft and corruption going on. And when he is a victim of it and decides to strike back by running against the corrupt sheriff. And he wins and wages his own little war against them", "poster_path": "/tHa5TqyibLNOPbxR7cJ3Z1Bi1i0.jpg", "release_date": "1973-02-22", "title": "Walking Tall", "video": false, "vote_average": 6.7, "vote_count": 49, "popularity": 7.323}, {"adult": false, "backdrop_path": "/2BLk25CMNl22IHqVJSAu3nkWoUj.jpg", "genre_ids": [28, 80, 53], "id": 26789, "original_language": "en", "original_title": "No Mercy", "overview": "An unconventional undercover Chicago cop and his partner are recruited to commit the murder of a New Orleans criminal kingpin.", "poster_path": "/iQozlPXgadwTvymHWH1mPWzM80a.jpg", "release_date": "1986-12-19", "title": "No Mercy", "video": false, "vote_average": 5.8, "vote_count": 71, "popularity": 9.238}, {"id": 9470, "video": false, "vote_count": 1392, "vote_average": 7.3, "title": "Kung Fu Hustle", "release_date": "2004-02-10", "original_language": "cn", "original_title": "\u529f\u592b", "genre_ids": [28, 35, 80, 14], "backdrop_path": "/qpJWj6MI6VLRt9bGbJVZtmFvqWw.jpg", "adult": false, "overview": "Set in Canton, China in the 1940s, the story revolves in a town ruled by the Axe Gang, Sing who desperately wants to become a member. He stumbles into a slum ruled by eccentric landlords who turns out to be the greatest kung-fu masters in disguise. Sing's actions eventually cause the Axe Gang and the slumlords to engage in an explosive kung-fu battle. Only one side will win and only one hero will emerge as the greatest kung-fu master of all.", "poster_path": "/dZsfDrNLGWgsIUQL1vGhl8tbnqY.jpg", "popularity": 17.654}, {"id": 245891, "video": false, "vote_count": 11535, "vote_average": 7.2, "title": "John Wick", "release_date": "2014-10-22", "original_language": "en", "original_title": "John Wick", "genre_ids": [28, 53], "backdrop_path": "/iJlGxN0p1suzloBGvvBu3QSSlhT.jpg", "adult": false, "overview": "Ex-hitman John Wick comes out of retirement to track down the gangsters that took everything from him.", "poster_path": "/5vHssUeVe25bMrof1HyaPyWgaP.jpg", "popularity": 63.785}, {"id": 24, "video": false, "vote_count": 10676, "vote_average": 7.9, "title": "Kill Bill: Vol. 1", "release_date": "2003-10-10", "original_language": "en", "original_title": "Kill Bill: Vol. 1", "genre_ids": [28, 80], "backdrop_path": "/kkS8PKa8c134vXsj2fQkNqOaCXU.jpg", "adult": false, "overview": "An assassin is shot by her ruthless employer, Bill, and other members of their assassination circle \u2013 but she lives to plot her vengeance.", "poster_path": "/v7TaX8kXMXs5yFFGR41guUDNcnB.jpg", "popularity": 35.853}, {"adult": false, "backdrop_path": "/tBWZkKMcrWdrpkOAA84FBlzE2XK.jpg", "genre_ids": [12, 28, 53], "id": 9053, "original_language": "en", "original_title": "DOA: Dead or Alive", "overview": "Four beautiful rivals at an invitation-only martial-arts tournament join forces against a sinister threat. Princess Kasumi is an aristocratic warrior trained by martial-arts masters. Tina Armstrong is a wrestling superstar. Helena Douglas is an athlete with a tragic past. Christie Allen earns her keep as a thief and an assassin-for-hire.", "poster_path": "/lZ6vZka2M0jtH1khYWa8j73E275.jpg", "release_date": "2006-09-07", "title": "DOA: Dead or Alive", "video": false, "vote_average": 4.9, "vote_count": 415, "popularity": 15.433}, {"adult": false, "backdrop_path": "/39jfRKSZZlHxfrdZOsR4R80gVoc.jpg", "genre_ids": [18, 28], "id": 8456, "original_language": "en", "original_title": "Never Back Down", "overview": "Rebellious Jake Tyler is lured into an ultimate underground fight Scene at his new high school, after receiving threats to the safety of his friends and family Jake decides to seek the mentoring of a veteran fighter who trains him for one final no-holds-barred elimination fight with his nemesis and local martial arts champion Ryan McCarthy.", "poster_path": "/6vT35MJ67U3llfi6W7MbM5r2dav.jpg", "release_date": "2008-03-04", "title": "Never Back Down", "video": false, "vote_average": 6.6, "vote_count": 1246, "popularity": 14.955}, {"adult": false, "backdrop_path": "/lhQFkzpuGmCbFrLhloYdqwHIOK.jpg", "genre_ids": [28, 12, 80, 53], "id": 53426, "original_language": "en", "original_title": "The Evil That Men Do", "overview": "Professional killer Holland is forced out of retirement to break a Central American government's political torture ring when one of his friends, a Latin American journalist, is killed. The murderer, Doctor Clement Molloch, is the master sadist behind the political torture of innocent victims. Posing as a journalist, Holland lures Molloch out of his fortress-like headquarters by using his murdered friend's wife and daughter as bait. When Holland kidnaps Molloch's sister, the doctor is led on a wild chase that takes him to an abandoned opal mine where he finally comes face to face with Holland.", "poster_path": "/A9xpPlb46mgHNpETfFyDAFa3SlR.jpg", "release_date": "1984-03-14", "title": "The Evil That Men Do", "video": false, "vote_average": 6.3, "vote_count": 29, "popularity": 6.936}, {"id": 311, "video": false, "vote_count": 2595, "vote_average": 8.4, "title": "Once Upon a Time in America", "release_date": "1984-05-23", "original_language": "en", "original_title": "Once Upon a Time in America", "genre_ids": [80, 18], "backdrop_path": "/vnT6HzjLSDrAweHn9xWykb8Ii6T.jpg", "adult": false, "overview": "A former Prohibition-era Jewish gangster returns to the Lower East Side of Manhattan over thirty years later, where he once again must confront the ghosts and regrets of his old life.", "poster_path": "/x733R4ISI0RbKeHhVkXdTMFmTFr.jpg", "popularity": 22.233}, {"adult": false, "backdrop_path": "/pA64Ov7lDpwXBu33yq0KpmAOYJL.jpg", "genre_ids": [27, 53], "id": 357096, "original_language": "en", "original_title": "I Spit on Your Grave III: Vengeance is Mine", "overview": "Jennifer Hills is still tormented by the brutal sexual assault she endured years ago. She\u2019s changed identities and cities, reluctantly joining a support group where she begins to piece together a new life. But when her new friend\u2019s murderer goes free and the tales of serial rapists haunt her, Jennifer will hunt down the men responsible and do what the system won\u2019t \u2013 make them pay for their crimes in the most horrific ways imaginable. Only this time, no jury may be able to save her.", "poster_path": "/6SnOlgrUoC5jqmgcYIM5lde5zYq.jpg", "release_date": "2015-10-01", "title": "I Spit on Your Grave III: Vengeance is Mine", "video": false, "vote_average": 5.3, "vote_count": 437, "popularity": 20.815}, {"adult": false, "backdrop_path": "/ct2r3CqnA0KtMfib4AvfBU1W9M2.jpg", "genre_ids": [28, 80, 53], "id": 398175, "original_language": "en", "original_title": "Brawl in Cell Block 99", "overview": "After working as a drug courier and getting into a brutal shootout with police, a former boxer finds himself at the mercy of his enemies as they force him to instigate violent acts that turn the prison he resides in into a battleground.", "poster_path": "/lGgIQ10NJ3d0X0uFbbUN4pRrMFZ.jpg", "release_date": "2017-09-23", "title": "Brawl in Cell Block 99", "video": false, "vote_average": 6.8, "vote_count": 605, "popularity": 13.011}, {"adult": false, "backdrop_path": "/2AWa7xe0GIYNKY0t8oZUxKu68Rz.jpg", "genre_ids": [12, 18, 28], "id": 246, "original_language": "ja", "original_title": "\u5ea7\u982d\u5e02", "overview": "Zatoichi is a 19th century blind nomad who makes his living as a gambler and masseur. However, behind this humble facade, he is a master swordsman gifted with a lightning-fast draw and breathtaking precision. While wandering, Zatoichi discovers a remote mountain village at the mercy of Ginzo, a ruthless gang-leader. Ginzo disposes of anyone who gets in his way, especially after hiring the mighty samurai ronin, Hattori, as a bodyguard. After a raucous night of gambling in town, Zatoichi encounters a pair of geishas--as dangerous as they are beautiful--who've come to avenge their parents' murder. As the paths of these and other colorful characters intertwine, Ginzo's henchmen are soon after Zatoichi. With his legendary cane sword at his side, the stage is set for a riveting showdown.", "poster_path": "/xNFaRG30R3IiVFMgX8X8kAFGxCP.jpg", "release_date": "2003-09-06", "title": "Zatoichi", "video": false, "vote_average": 7.3, "vote_count": 417, "popularity": 10.708}, {"adult": false, "backdrop_path": "/brZ6uY49Htby7zzLB40IXhfbwH2.jpg", "genre_ids": [28, 53], "id": 467938, "original_language": "fr", "original_title": "Revenge", "overview": "Jen's romantic getaway with her wealthy (married) boyfriend is disrupted when his friends arrive for an impromptu hunting trip. Tension mounts at the house until the situation culminates in an unexpected way.", "poster_path": "/lDjY67pqcIoQCe0kK91TVgL14om.jpg", "release_date": "2018-02-07", "title": "Revenge", "video": false, "vote_average": 6.3, "vote_count": 850, "popularity": 15.837}], "total_pages": 419, "total_results": 8361}, "recommendations": {"page": 1, "results": [], "total_pages": 1, "total_results": 0}, "credits": {"cast": [{"cast_id": 2, "character": "Jim Boone", "credit_id": "52fe484a9251416c9108709b", "gender": 2, "id": 4735, "name": "John Doman", "order": 0, "profile_path": "/xfcSluMohRbnMySSlosFmlZyLLy.jpg"}, {"cast_id": 1, "character": "Mart Ryde", "credit_id": "52fe484a9251416c91087097", "gender": 2, "id": 84407, "name": "Jim Gaffigan", "order": 1, "profile_path": "/qWgrDUSX77Ay6XMX9lpI3cXiXKY.jpg"}, {"cast_id": 3, "character": "Red Pierre", "credit_id": "52fe484a9251416c9108709f", "gender": 2, "id": 212689, "name": "Jeff Hephner", "order": 2, "profile_path": "/bNnvbOCBS0LZAqdT1cW2UcrnRw2.jpg"}, {"cast_id": 4, "character": "Irene Melody", "credit_id": "52fe484a9251416c910870a3", "gender": 1, "id": 36810, "name": "Tamara Hope", "order": 3, "profile_path": "/9hHzaUAXsWTKltj8FF4oZMNSj2C.jpg"}, {"cast_id": 5, "character": "Black Gandil Morgan", "credit_id": "52fe484a9251416c910870a7", "gender": 2, "id": 14700, "name": "Richard Tyson", "order": 4, "profile_path": "/fiGyqTvujEfbeN4j7qWjsSYujlr.jpg"}, {"cast_id": 6, "character": "Dick Wilbur", "credit_id": "52fe484a9251416c910870ab", "gender": 2, "id": 152771, "name": "Clay Wilcox", "order": 5, "profile_path": null}, {"cast_id": 7, "character": "Jack Boone", "credit_id": "52fe484a9251416c910870af", "gender": 0, "id": 906406, "name": "Shannon Zeller", "order": 6, "profile_path": null}, {"cast_id": 8, "character": "Bob McGurk", "credit_id": "52fe484a9251416c910870b3", "gender": 2, "id": 785, "name": "James Russo", "order": 7, "profile_path": "/nubhNb5OUkzsrndD1BNqzp7MGyo.jpg"}, {"cast_id": 9, "character": "Garry Patterson", "credit_id": "52fe484a9251416c910870b7", "gender": 2, "id": 76543, "name": "Chris Browning", "order": 8, "profile_path": "/coja80Y3B1XJeCJpW6l1ReCH7Zh.jpg"}, {"cast_id": 10, "character": "Roderigo Venalez", "credit_id": "52fe484a9251416c910870bb", "gender": 0, "id": 36905, "name": "Fredrick Lopez", "order": 9, "profile_path": null}, {"cast_id": 11, "character": "Mac Hurley", "credit_id": "52fe484a9251416c910870bf", "gender": 2, "id": 616517, "name": "Stephen Payne", "order": 10, "profile_path": null}, {"cast_id": 12, "character": "Phil Branch", "credit_id": "52fe484a9251416c910870c3", "gender": 2, "id": 53969, "name": "Luce Rains", "order": 11, "profile_path": "/73XGMfjF278jbRweEUWG9fcIHjv.jpg"}, {"cast_id": 13, "character": "Sheriff H. A. Douglas (as Erick Bockemeier)", "credit_id": "52fe484a9251416c910870c7", "gender": 0, "id": 927751, "name": "Erik J. Bockemeier", "order": 12, "profile_path": null}, {"cast_id": 14, "character": "Evan Evans", "credit_id": "52fe484a9251416c910870cb", "gender": 0, "id": 927752, "name": "Art Usher", "order": 13, "profile_path": null}, {"cast_id": 15, "character": "The Barber", "credit_id": "52fe484a9251416c910870cf", "gender": 2, "id": 161591, "name": "Gregory Chase", "order": 14, "profile_path": "/gNdodev00CROpXuAh5EFmkWTVOo.jpg"}], "crew": [{"credit_id": "55e7bab2c3a3682c5f000e0a", "department": "Writing", "gender": 0, "id": 33027, "job": "Novel", "name": "Max Brand", "profile_path": null}, {"credit_id": "55e7ba91c3a3682c5d000e53", "department": "Directing", "gender": 2, "id": 564045, "job": "Director", "name": "Lance Doty", "profile_path": null}, {"credit_id": "55e7bace9251413e45000c6c", "department": "Writing", "gender": 2, "id": 564045, "job": "Writer", "name": "Lance Doty", "profile_path": null}]}}