{"adult": false, "backdrop_path": "/zOULw7JUXSEe9drN5WGKD7LIHCj.jpg", "belongs_to_collection": null, "budget": 0, "genres": [{"id": 18, "name": "Drama"}, {"id": 35, "name": "Comedy"}], "homepage": null, "id": 8267, "imdb_id": "tt0482901", "original_language": "es", "original_title": "El ba\u00f1o del Papa", "overview": "A small South American village is in a flurry over the Pope's 1988 visit.", "popularity": 1.731, "poster_path": "/kn2GWfyqYzlSLZYQpocO4LT01yE.jpg", "production_companies": [{"id": 345, "logo_path": null, "name": "O2 Filmes", "origin_country": "BR"}, {"id": 2357, "logo_path": null, "name": "Chaya Films", "origin_country": ""}, {"id": 2358, "logo_path": null, "name": "Laroux-Cin\u00e9", "origin_country": ""}], "production_countries": [{"iso_3166_1": "BR", "name": "Brazil"}, {"iso_3166_1": "FR", "name": "France"}, {"iso_3166_1": "UY", "name": "Uruguay"}], "release_date": "2007-05-21", "revenue": 0, "runtime": 90, "spoken_languages": [{"iso_639_1": "es", "name": "Espa\u00f1ol"}], "status": "Released", "tagline": "", "title": "The Pope's Toilet", "video": false, "vote_average": 7.1, "vote_count": 24, "keywords": {"keywords": [{"id": 717, "name": "pope"}, {"id": 7992, "name": "uruguay"}, {"id": 8008, "name": "pilgrim"}]}, "similar": {"page": 1, "results": [{"id": 17665, "video": false, "vote_count": 32, "vote_average": 7.2, "title": "The Shoes of the Fisherman", "release_date": "1968-11-14", "original_language": "en", "original_title": "The Shoes of the Fisherman", "genre_ids": [18], "backdrop_path": "/jY0sNjQfgQAZuP5ndMLzk8nomGZ.jpg", "adult": false, "overview": "Metropolitan Archbishop Lakota of L'viv,  freed after twenty years in the Soviet Gulag, travels to Rome where circumstances conspire to see him elevated to the Papacy.  Inspired by the life story of Ukrainian Catholic Cardinal Josyf Slipyj,", "poster_path": "/cU5iSOpxj8u5Dfzimezai6utc36.jpg", "popularity": 4.674}, {"id": 551332, "video": false, "vote_count": 769, "vote_average": 7.7, "title": "The Two Popes", "release_date": "2019-11-27", "original_language": "en", "original_title": "The Two Popes", "genre_ids": [35, 18, 36], "backdrop_path": "/mHz65gYQ3SmkQH3GKWSKWUkK5zW.jpg", "adult": false, "overview": "Frustrated with the direction of the church, Cardinal Bergoglio requests permission to retire in 2012 from Pope Benedict. Instead, facing scandal and self-doubt, the introspective Pope Benedict summons his harshest critic and future successor to Rome to reveal a secret that would shake the foundations of the Catholic Church.", "poster_path": "/4d4mTSfDIFIbUbMLUfaKodvxYXA.jpg", "popularity": 44.87}, {"id": 242, "video": false, "vote_count": 3305, "vote_average": 7.4, "title": "The Godfather: Part III", "release_date": "1990-12-24", "original_language": "en", "original_title": "The Godfather: Part III", "genre_ids": [80, 18, 53], "backdrop_path": "/dEuqTwwhfvk66jUKQa7bMqM5Cf7.jpg", "adult": false, "overview": "In the midst of trying to legitimize his business dealings in 1979 New York and Italy, aging mafia don, Michael Corleone seeks forgiveness for his sins while taking a young protege under his wing.", "poster_path": "/1hdm3Axw9LjITbApvAXBbqO58zE.jpg", "popularity": 25.754}, {"adult": false, "backdrop_path": "/yaF4JUgdNy3NKXVtptTkKawZtlB.jpg", "genre_ids": [18, 53, 27], "id": 48171, "original_language": "en", "original_title": "The Rite", "overview": "Seminary student Michael Kovak reluctantly attends exorcism school at the Vatican. While he\u2019s in Rome, Michael meets an unorthodox priest who introduces him to the darker side of his faith, uncovering the devil\u2019s reach even to one of the holiest places on Earth.", "poster_path": "/94jKSKAOfM3EU4bPsOPkVB9AOHT.jpg", "release_date": "2011-01-28", "title": "The Rite", "video": false, "vote_average": 6.0, "vote_count": 1111, "popularity": 12.398}, {"id": 7131, "video": false, "vote_count": 3394, "vote_average": 6.1, "title": "Van Helsing", "release_date": "2004-05-05", "original_language": "en", "original_title": "Van Helsing", "genre_ids": [28, 12, 27], "backdrop_path": "/sib4pGrwKQUbFRyHlhXv03HXoHj.jpg", "adult": false, "overview": "Famed monster slayer Gabriel Van Helsing is dispatched to Transylvania to assist the last of the Valerious bloodline in defeating Count Dracula. Anna Valerious reveals that Dracula has formed an unholy alliance with Dr. Frankenstein's monster and is hell-bent on exacting a centuries-old curse on her family.", "poster_path": "/s2OPT5CZsZBQYAIlO9Mv4AimHvV.jpg", "popularity": 26.162}, {"id": 956, "video": false, "vote_count": 3962, "vote_average": 6.6, "title": "Mission: Impossible III", "release_date": "2006-05-03", "original_language": "en", "original_title": "Mission: Impossible III", "genre_ids": [28, 12, 53], "backdrop_path": "/kOELgNnVt6EGCjtDXx85YUw6p8X.jpg", "adult": false, "overview": "Retired from active duty to train new IMF agents, Ethan Hunt is called back into action to confront sadistic arms dealer, Owen Davian. Hunt must try to protect his girlfriend while working with his new team to complete the mission.", "poster_path": "/qjy8ABAbWooV4jLG6UjzDHlv4RB.jpg", "popularity": 27.029}, {"id": 13448, "video": false, "vote_count": 4317, "vote_average": 6.6, "title": "Angels & Demons", "release_date": "2009-05-13", "original_language": "en", "original_title": "Angels & Demons", "genre_ids": [9648, 53], "backdrop_path": "/wjrTJhDQEqmmaEfbM2Qo8ibzvSS.jpg", "adult": false, "overview": "Harvard symbologist Robert Langdon is recruited by the Vatican to investigate the apparent return of the Illuminati - a secret, underground organization - after four cardinals are kidnapped on the night of the papal conclave.", "poster_path": "/grN4lETrHNejatQZFP2F2DAWMU4.jpg", "popularity": 21.758}, {"id": 179144, "video": false, "vote_count": 1725, "vote_average": 7.5, "title": "The Great Beauty", "release_date": "2013-05-21", "original_language": "it", "original_title": "La grande bellezza", "genre_ids": [18], "backdrop_path": "/BvJAJuAnIooQQGzRdFTY9Oy6Wj.jpg", "adult": false, "overview": "Jep Gambardella has seduced his way through the lavish nightlife of Rome for decades, but after his 65th birthday and a shock from the past, Jep looks past the nightclubs and parties to find a timeless landscape of absurd, exquisite beauty.", "poster_path": "/nDBRRkZgaGhJw91wdcUFYwWIbFF.jpg", "popularity": 15.865}, {"adult": false, "backdrop_path": "/jLnm1qrsZd2FiC016nOjsgiHsQ2.jpg", "genre_ids": [18, 36], "id": 9045, "original_language": "fr", "original_title": "Amen.", "overview": "Kurt Gerstein\u2014a member of the Institute for Hygiene of the Waffen-SS\u2014is horrified by what he sees in the death camps. he is then shocked to learn that the process he used to purify water for his troops by using Zyklon-B, is now used to kill people in gas chambers.", "poster_path": "/3uaiPsJgagOVWzRsDlH3TKdVHrw.jpg", "release_date": "2002-02-13", "title": "Amen.", "video": false, "vote_average": 7.0, "vote_count": 166, "popularity": 8.873}, {"adult": false, "backdrop_path": "/9oGJnPoW4kMtPKjSaHbU1S1i6s0.jpg", "genre_ids": [18, 99], "id": 362685, "original_language": "en", "original_title": "Leopard Vision Vol.1", "overview": "A journey into the very depths of the belly of the most influential and insidious organization in existence. See, as never before, how the Papacy plays a vital role in current events, and the final fulfillment of Bible prophecy.", "poster_path": "/9r0mVinW2f4LpOhWo3COZMIWR6m.jpg", "release_date": "2015-09-11", "title": "Leopard Vision Vol.1", "video": false, "vote_average": 10.0, "vote_count": 1, "popularity": 1.247}, {"id": 10307, "video": false, "vote_count": 534, "vote_average": 6.1, "title": "Stigmata", "release_date": "1999-09-10", "original_language": "en", "original_title": "Stigmata", "genre_ids": [27, 53], "backdrop_path": "/pX5YaBrCkc9OZmIaLIMWvzebWxw.jpg", "adult": false, "overview": "A young woman with no strong religious beliefs, Frankie Paige begins having strange and violent experiences, showing signs of the wounds that Jesus received when crucified. When the Vatican gets word of Frankie's situation, a high-ranking cardinal requests that the Rev. Andrew Kiernan investigate her case. Soon Kiernan realizes that very sinister forces are at work, and tries to rescue Frankie from the entity that is plaguing her.", "poster_path": "/23ld0uMga2AnnOP3iSHv40gDwsK.jpg", "popularity": 14.228}, {"id": 9292, "video": false, "vote_count": 498, "vote_average": 5.7, "title": "Hudson Hawk", "release_date": "1991-05-23", "original_language": "en", "original_title": "Hudson Hawk", "genre_ids": [28, 12, 35], "backdrop_path": "/2AIOznq5AUNkaXozAG75p1EkOjZ.jpg", "adult": false, "overview": "Eddie Hawkins, called Hudson Hawk has just been released from ten years of prison and is planning to spend the rest of his life honestly. But then the crazy Mayflower couple blackmail him to steal some of the works of Leonardo da Vinci. If he refuses, they threaten to kill his friend Tommy.", "poster_path": "/qzgs2VFSyRXiNv9lfrcA6VfMGsV.jpg", "popularity": 15.402}, {"id": 9503, "video": false, "vote_count": 210, "vote_average": 6.8, "title": "Pope Joan", "release_date": "2009-10-22", "original_language": "en", "original_title": "Die P\u00e4pstin", "genre_ids": [18], "backdrop_path": "/3ATX4tlD90ckVfe1QSx88Yb4FlM.jpg", "adult": false, "overview": "A 9th century woman of English extraction born in the German city of Ingelheim disguises herself as a man and rises through the Vatican ranks.", "poster_path": "/vra0oI4vbVGHgZ1INqeMsXKrN3W.jpg", "popularity": 10.719}, {"id": 874, "video": false, "vote_count": 195, "vote_average": 7.6, "title": "A Man for All Seasons", "release_date": "1966-12-12", "original_language": "en", "original_title": "A Man for All Seasons", "genre_ids": [18, 36], "backdrop_path": "/6GizkVdEzsKPcI3LAgZpDXqgEgw.jpg", "adult": false, "overview": "A depiction of the conflict between King Henry VIII of England and his Lord Chancellor, Sir Thomas More, who refuses to swear the Oath of Supremacy declaring Henry Supreme Head of the Church in England.", "poster_path": "/mLFfDCdSH6wetMIIbG08hg51PbD.jpg", "popularity": 8.754}, {"id": 16820, "video": false, "vote_count": 81, "vote_average": 5.9, "title": "F/X2", "release_date": "1991-04-16", "original_language": "en", "original_title": "F/X2", "genre_ids": [28, 12, 35, 53], "backdrop_path": "/9v2a9G98m8RJxr4EekFmnh9YYfJ.jpg", "adult": false, "overview": "F/X man Rollie Tyler is now a toymaker. Mike, the ex-husband of his girlfriend Kim, is a cop. He asks Rollie to help catch a killer. The operation goes well until some unknown man kills both the killer and Mike. Mike's boss, Silak says it was the killer who killed Mike but Rollie knows it wasn't. Obviously, Silak is involved with Mike's death, so he calls on Leo McCarthy, the cop from the last movie, who is now a P.I., for help and they discover it's not just Silak they have to worry about.", "poster_path": "/v44Ozx00NDrYYvvqI9fMVPHU0Gz.jpg", "popularity": 8.003}, {"adult": false, "backdrop_path": "/fAHiRloxmgoYAQajqbZHJfl51v4.jpg", "genre_ids": [12, 35, 18], "id": 59468, "original_language": "en", "original_title": "The Way", "overview": "When his son dies while hiking the famed Camino de Santiago pilgrimage route in the Pyrenees, Tom flies to France to claim the remains. Looking for insights into his estranged child\u2019s life, he decides to complete the 500-mile mountain trek to Spain. Tom soon joins up with other travelers and realizes they\u2019re all searching for something.", "poster_path": "/k2BroLReul6LIAzcO6rdmTmcKAP.jpg", "release_date": "2010-09-10", "title": "The Way", "video": false, "vote_average": 7.2, "vote_count": 305, "popularity": 8.78}, {"id": 24559, "video": false, "vote_count": 90, "vote_average": 6.6, "title": "Slaughterhouse-Five", "release_date": "1972-03-15", "original_language": "en", "original_title": "Slaughterhouse-Five", "genre_ids": [35, 18, 14, 878], "backdrop_path": "/2tOVz990Z7cg05Moc99O9zXXGxm.jpg", "adult": false, "overview": "\"Listen: Billie Pilgrim has come unstuck in time.\" Slaughterhouse-Five is an award-winning 1972 film adaptation of Kurt Vonnegut's novel of the same name. Director Hill faithfully renders for the screen Vonnegut's obsessive story of Pilgrim, who survives the 1945 firebombing of Dresden, then lives simultaneously in his past, present, and future.", "poster_path": "/td1iHSiMtHQWJSgTCVSaonJ6BQY.jpg", "popularity": 8.055}, {"adult": false, "backdrop_path": "/6bfozK0idW09vNdhssWIWqDGFkP.jpg", "genre_ids": [18], "id": 8832, "original_language": "it", "original_title": "Il Divo", "overview": "Italy, early nineties. Calm, clever and inscrutable, politician Giulio Andreotti has been synonymous with power for decades. He has survived to everything: electoral battles, terrorist massacres, loss of friends, slanderous accusations; but now certain repentant mobsters implicate him in the crimes of Cosa Nostra.", "poster_path": "/6Rb4Uel3gziuDEgJ71xfZelayVP.jpg", "release_date": "2008-05-28", "title": "Il Divo", "video": false, "vote_average": 7.7, "vote_count": 524, "popularity": 9.568}, {"id": 482712, "video": false, "vote_count": 73, "vote_average": 6.3, "title": "The Apparition", "release_date": "2018-02-14", "original_language": "fr", "original_title": "L'Apparition", "genre_ids": [18], "backdrop_path": "/y64dXLCrhAYYBLJYdpCYyi2ETIv.jpg", "adult": false, "overview": "Jacques Mayano, a French journalist who has lived a traumatic experience, is recruited by the Vatican to be part of a task force that must investigate the veracity of a supernatural apparition allegedly happened in a small French village.", "poster_path": "/l4TXhyNSipy6ZvkVI7BzzhYW675.jpg", "popularity": 4.863}, {"id": 9616, "video": false, "vote_count": 158, "vote_average": 5.0, "title": "The Order", "release_date": "2003-09-05", "original_language": "en", "original_title": "The Order", "genre_ids": [18, 14, 27, 9648, 53, 10749], "backdrop_path": "/rPSQSiTM5KiLxdlcoeTHjQ8FHKj.jpg", "adult": false, "overview": "For centuries, a secret Order of priests has existed within the Church. A renegade priest, Father Alex Bernier, is sent to Rome to investigate the mysterious death of one of the Order's most revered members. Following a series of strangely similar killings, Bernier launches an investigation that forces him to confront unimaginable evil.", "poster_path": "/rA4pObT4LkueerqbpIac5A7Ds3H.jpg", "popularity": 10.287}], "total_pages": 6, "total_results": 106}, "recommendations": {"page": 1, "results": [{"adult": false, "backdrop_path": "/6WyCHg1yluGVrQIgkDMhtohhZZJ.jpg", "genre_ids": [10752, 12, 28, 18], "id": 54797, "original_language": "en", "original_title": "Ill Met by Moonlight", "overview": "Led by British officers, partisans on Crete plan to kidnap the island's German commander and smuggle him to Cairo to embarrass the occupiers.", "poster_path": "/ln8JDBsduLCZhHLtEc7aQtdtTVy.jpg", "release_date": "1957-03-04", "title": "Ill Met by Moonlight", "video": false, "vote_average": 6.3, "vote_count": 12, "popularity": 3.62}, {"id": 31, "video": false, "vote_count": 8, "vote_average": 6.6, "title": "Stink Bomb", "release_date": "1995-12-23", "original_language": "ja", "original_title": "\u6700\u81ed\u5175\u5668", "genre_ids": [28, 16, 35], "backdrop_path": "/sNgRzlytizFuAtLp8mEw8Jy0OkN.jpg", "adult": false, "overview": "Tensai Okamura\u2019s animated action packed short story with lots of humorous elements in which a person transforms into a weapon of mass destruction without themselves being aware.", "poster_path": "/uqAB40iXwb0yGRHfI9xDqYR2A2p.jpg", "popularity": 6.056}, {"adult": false, "backdrop_path": "/5MG3iC4YL5HFUFLnYlSPfey9DDG.jpg", "genre_ids": [35], "id": 83015, "original_language": "en", "original_title": "The Happiest Days of Your Life", "overview": "Nutbourne College, an old established, all-boys, boarding school is told that another school is to be billeted with due to wartime restrictions. The shock is that it's an all-girls school that has been sent. The two head teachers are soon battling for the upper hand with each other and the Ministry. But a crisis (or two) forces them to work together.", "poster_path": "/wqFMQdWy5MSg50rCSGHKwFCSeXJ.jpg", "release_date": "1950-03-08", "title": "The Happiest Days of Your Life", "video": false, "vote_average": 6.7, "vote_count": 13, "popularity": 5.359}, {"adult": false, "backdrop_path": "/tLVbcYrpU1qkeHT4w4E3LaDoLfp.jpg", "genre_ids": [35, 10749], "id": 71655, "original_language": "es", "original_title": "Escuela de vagabundos", "overview": "Alberto Medina is a very famous composer and is on a field trip when his car runs out of gas and goes downhill. While looking for help, he finds the Valverdes' house and is welcome by Emilia, the mother of the family, who is known for giving shelter to tramps. The rest of the family disagrees, because the last one disappointed her. In a story of family situations, funny moments and jealousy, Alberto ends up earning everyone's respect and has a special connection with the oldest daughter, the beautiful Susana, and they fall in love.", "poster_path": "/7ZkyKNhqeY7pZIqvSbOumU4fFnm.jpg", "release_date": "1955-01-27", "title": "School for Tramps", "video": false, "vote_average": 5.5, "vote_count": 7, "popularity": 1.66}, {"adult": false, "backdrop_path": "/gbpBllNTkN60fUBTOgdquHCgpNH.jpg", "genre_ids": [35, 18, 10749], "id": 81523, "original_language": "es", "original_title": "La vida \u00fatil", "overview": "A movie-theater employee adjusts to a new life after the cinema he worked at for over 25 years is forced to shut down.", "poster_path": "/iwZ6uLj5gCydbE3cjSfQVjbA1dc.jpg", "release_date": "2010-08-13", "title": "A Useful Life", "video": false, "vote_average": 6.0, "vote_count": 11, "popularity": 2.185}, {"adult": false, "backdrop_path": "/jupflh4gY8lj1v7nVcLicuhGqcv.jpg", "genre_ids": [18, 10752], "id": 106266, "original_language": "es", "original_title": "\u00a1V\u00e1monos con Pancho Villa!", "overview": "The 1910 Mexican Revolution is on its way when six brave peasants, known as \"Los Leones de San Pablo\", decide to join Pancho Villa's army and help end the suffering in their community by assisting in the struggle. Together, they will endure the tragedies and hardships of a civil war.", "poster_path": "/s18i3eJUlVU4Q0FNOw5o6R9ihQW.jpg", "release_date": "1936-12-31", "title": "Let's Go with Pancho Villa", "video": false, "vote_average": 6.1, "vote_count": 8, "popularity": 2.377}, {"adult": false, "backdrop_path": "/nGcTAHMarHRoNkKVLxY8nhzmHFB.jpg", "genre_ids": [10402, 99], "id": 53871, "original_language": "en", "original_title": "Glastonbury", "overview": "Julien Temple's 2006 documentary film about the famous music festival from 1970 to 2005, featuring performances from artists such as David Bowie, Bjork, Blur, Oasis and Coldplay. The film is made up of footage shot by Temple at the festival in 2002, 2003, 2004 and 2005, as well as footage sent in by festival goers after a request on websites and newspapers for footage. Temple had initially only agreed to make a film of the 2002 festival after organiser Michael Eavis expressed concern that that would be the last year of the festival. Temple then realised that he wanted to make a film detailing the full history of the festival. The film also includes footage shot by Channel 4 and the BBC during their coverage of the festival since 1994. Text from Wikipedia.", "poster_path": "/5zaaqJwW0Ldfp3uaEWSqduEHB9g.jpg", "release_date": "2006-04-13", "title": "Glastonbury", "video": false, "vote_average": 6.3, "vote_count": 7, "popularity": 3.814}, {"adult": false, "backdrop_path": "/kYEoCQQd3bnDnzgpTo4IZij7k40.jpg", "genre_ids": [35, 10752], "id": 84109, "original_language": "en", "original_title": "Private's Progress", "overview": "Stanley Windrush has to interrupt his university education when he is called up towards the end of the war. He quickly proves himself not to be officer material, but befriends wily Private Percival Cox who knows exactly how all the scams work in the confused world of the British Army. And Stanley's brigadier War Office uncle seems to be up to something more than a bit shady too - and they are both soon working for him, behind the enemy lines.", "poster_path": "/sLSFCFMO771zMAjsO4wBsiT2jSg.jpg", "release_date": "1956-02-17", "title": "Private's Progress", "video": false, "vote_average": 6.6, "vote_count": 11, "popularity": 3.442}, {"adult": false, "backdrop_path": "/ynoUDUusK8hRGCNaCpp2XGPXbsI.jpg", "genre_ids": [18], "id": 49681, "original_language": "en", "original_title": "El abrazo partido", "overview": "In Buenos Aires, the twenty and something year old Jewish-Argentinean Ariel Makaroff has left the University of Architecture and spends his time wandering through the downtown gallery where his mother has a lingerie shop and his brother runs an importation business, trying to get his Polish passport and move to Europe. Ariel has never understood why his father left him when he was a baby to fight in the Yom Kippur War in 1973. When his father returns to Buenos Aires, Ariel discovers the reason why his father left his family", "poster_path": "/8jqsz7I2KZISAXLGKomNjU9bXb.jpg", "release_date": "2004-03-14", "title": "Lost Embrace", "video": false, "vote_average": 6.2, "vote_count": 17, "popularity": 1.758}, {"adult": false, "backdrop_path": "/7W74MINgsXVgy3axw1LiRLPXIzo.jpg", "genre_ids": [18, 10752], "id": 44559, "original_language": "en", "original_title": "Carve Her Name with Pride", "overview": "Violette Bushell is the daughter of an English father and a French mother, living in London in the early years of World War 2. She meets a handsome young French soldier in the park and takes him back for the family Bastille day celebrations. They fall in love, marry and have a baby girl when Violette Szabo receives the dreaded telegram informing her of his death in North Africa. Shortly afterwards, Violette is approached to join the SOE (Special Operations Executive). Should she stay and look after her baby or \"do her duty\" ?", "poster_path": "/eJaLvy8Alt3vSmgR2rbFa4hxoVa.jpg", "release_date": "1958-02-18", "title": "Carve Her Name with Pride", "video": false, "vote_average": 5.8, "vote_count": 13, "popularity": 5.829}], "total_pages": 1, "total_results": 10}, "credits": {"cast": [{"cast_id": 4, "character": "Beto", "credit_id": "52fe4499c3a36847f809f50f", "gender": 2, "id": 54190, "name": "C\u00e9sar Troncoso", "order": 0, "profile_path": "/lij06hzTTr4SEfO2cA6A2VGkRm3.jpg"}, {"cast_id": 5, "character": "Carmen", "credit_id": "52fe4499c3a36847f809f513", "gender": 0, "id": 54191, "name": "Virginia M\u00e9ndez", "order": 1, "profile_path": null}, {"cast_id": 6, "character": "Silvia", "credit_id": "52fe4499c3a36847f809f517", "gender": 0, "id": 54573, "name": "Virginia Ruiz", "order": 2, "profile_path": null}, {"cast_id": 7, "character": "Valvulina", "credit_id": "52fe4499c3a36847f809f51b", "gender": 0, "id": 54574, "name": "Mario Silva", "order": 3, "profile_path": null}, {"cast_id": 8, "character": "Nacente", "credit_id": "52fe4499c3a36847f809f51f", "gender": 0, "id": 54575, "name": "Jose Arce", "order": 4, "profile_path": null}, {"cast_id": 9, "character": "Tica", "credit_id": "52fe4499c3a36847f809f523", "gender": 0, "id": 54576, "name": "Henry De Leon", "order": 5, "profile_path": null}, {"cast_id": 10, "character": "Teresa", "credit_id": "52fe4499c3a36847f809f527", "gender": 0, "id": 54577, "name": "Rosario Dos Santos", "order": 6, "profile_path": null}, {"cast_id": 11, "character": "Meleyo", "credit_id": "52fe4499c3a36847f809f52b", "gender": 0, "id": 54578, "name": "Nelson Lence", "order": 7, "profile_path": null}, {"cast_id": 12, "character": "Tartamudo", "credit_id": "52fe4499c3a36847f809f52f", "gender": 0, "id": 54579, "name": "Hugo Blandamuro", "order": 8, "profile_path": null}], "crew": [{"credit_id": "52fe4499c3a36847f809f4ff", "department": "Directing", "gender": 2, "id": 8577, "job": "Director", "name": "C\u00e9sar Charlone", "profile_path": "/nFnz9F7opE01LRg5Fa4CPONoIe2.jpg"}, {"credit_id": "52fe4499c3a36847f809f505", "department": "Writing", "gender": 2, "id": 8577, "job": "Screenplay", "name": "C\u00e9sar Charlone", "profile_path": "/nFnz9F7opE01LRg5Fa4CPONoIe2.jpg"}, {"credit_id": "52fe4499c3a36847f809f50b", "department": "Camera", "gender": 2, "id": 8577, "job": "Director of Photography", "name": "C\u00e9sar Charlone", "profile_path": "/nFnz9F7opE01LRg5Fa4CPONoIe2.jpg"}, {"credit_id": "52fe4499c3a36847f809f535", "department": "Writing", "gender": 0, "id": 54580, "job": "Screenplay", "name": "Enrique Fern\u00e1ndez", "profile_path": null}, {"credit_id": "52fe4499c3a36847f809f53b", "department": "Editing", "gender": 2, "id": 54581, "job": "Editor", "name": "Gustavo Giani", "profile_path": null}, {"credit_id": "52fe4499c3a36847f809f541", "department": "Sound", "gender": 0, "id": 54582, "job": "Original Music Composer", "name": "Gabriel Casacuberta", "profile_path": null}, {"credit_id": "52fe4499c3a36847f809f547", "department": "Sound", "gender": 0, "id": 54583, "job": "Original Music Composer", "name": "Luciano Supervielle", "profile_path": null}]}}