{"adult": false, "backdrop_path": "/xYKxl8Bt7xm8nXi1UIkasZs1le1.jpg", "belongs_to_collection": null, "budget": 0, "genres": [{"id": 35, "name": "Comedy"}], "homepage": "", "id": 82768, "imdb_id": "tt0046674", "original_language": "es", "original_title": "Abajo el Tel\u00f3n", "overview": "Cantinflas, who owns a cleaning business, cleans the windows of the house of a famous French actress. While carrying out his work he observes how a man steals one of the famous actress necklaces, but he can only see his back.", "popularity": 1.033, "poster_path": "/4Os6W4IPWUKzwhMFx0GmhKjaZJ3.jpg", "production_companies": [{"id": 65192, "logo_path": null, "name": "Posa Films", "origin_country": ""}], "production_countries": [{"iso_3166_1": "MX", "name": "Mexico"}], "release_date": "1955-08-31", "revenue": 0, "runtime": 103, "spoken_languages": [{"iso_639_1": "es", "name": "Espa\u00f1ol"}], "status": "Released", "tagline": "", "title": "Abajo el Tel\u00f3n", "video": false, "vote_average": 5.0, "vote_count": 3, "keywords": {"keywords": [{"id": 642, "name": "robbery"}, {"id": 703, "name": "detective"}, {"id": 6149, "name": "police"}, {"id": 155331, "name": "jewel"}, {"id": 163110, "name": "theater"}, {"id": 210079, "name": "window washer"}]}, "similar": {"page": 1, "results": [{"id": 193893, "video": false, "vote_count": 1816, "vote_average": 6.3, "title": "Let's Be Cops", "release_date": "2014-08-13", "original_language": "en", "original_title": "Let's Be Cops", "genre_ids": [35], "backdrop_path": "/43GrPpAeBUOvOCZ8L1A3MLuDnkc.jpg", "adult": false, "overview": "It's the ultimate buddy cop movie except for one thing: they're not cops.  When two struggling pals dress as police officers for a costume party, they become neighborhood sensations.  But when these newly-minted \u201cheroes\u201d get tangled in a real life web of mobsters and dirty detectives, they must put their fake badges on the line.", "poster_path": "/ayYibwWAA9NxJPaD9GSybPShtvL.jpg", "popularity": 21.654}, {"adult": false, "backdrop_path": "/xBhRhY8KimSrPx6AMJXigpzlGQ2.jpg", "genre_ids": [28, 35, 80], "id": 96, "original_language": "en", "original_title": "Beverly Hills Cop II", "overview": "Axel heads for the land of sunshine and palm trees to find out who shot police Captain Andrew Bogomil. Thanks to a couple of old friends, Axel's investigation uncovers a series of robberies masterminded by a heartless weapons kingpin\u2014and the chase is on.", "poster_path": "/2y1z1baxKT0coTTRlnkI6McnR9f.jpg", "release_date": "1987-05-18", "title": "Beverly Hills Cop II", "video": false, "vote_average": 6.4, "vote_count": 1235, "popularity": 13.336}, {"id": 75780, "video": false, "vote_count": 4451, "vote_average": 6.4, "title": "Jack Reacher", "release_date": "2012-12-20", "original_language": "en", "original_title": "Jack Reacher", "genre_ids": [28, 80, 18, 53], "backdrop_path": "/ezXodpP429qK0Av89pVNlaXWJkQ.jpg", "adult": false, "overview": "When a gunman takes five lives with six shots, all evidence points to the suspect in custody. On interrogation, the suspect offers up a single note: \"Get Jack Reacher!\" So begins an extraordinary chase for the truth, pitting Jack Reacher against an unexpected enemy, with a skill for violence and a secret to keep.", "poster_path": "/mt0ELw83HIRgaKaDzhsDcIi0RnW.jpg", "popularity": 15.945}, {"id": 4771, "video": false, "vote_count": 2134, "vote_average": 7.3, "title": "Gone Baby Gone", "release_date": "2007-09-18", "original_language": "en", "original_title": "Gone Baby Gone", "genre_ids": [80, 18, 9648], "backdrop_path": "/sogh5NXPbKFajjYKBlfIBfCWgbq.jpg", "adult": false, "overview": "When 4 year old Amanda McCready disappears from her home and the police make little headway in solving the case, the girl's aunt, Beatrice McCready hires two private detectives, Patrick Kenzie and Angie Gennaro. The detectives freely admit that they have little experience with this type of case, but the family wants them for two reasons - they're not cops and they know the tough neighborhood in which they all live. As the case progresses, Kenzie and Gennaro face drug dealers, gangs and pedophiles. When they are about to solve the case, they are faced with a moral dilemma that tears them apart.", "poster_path": "/dXXMPxGiRegd7NNCtE5uchAKRAG.jpg", "popularity": 16.498}, {"adult": false, "backdrop_path": "/uUYCUbgI5VxsUflTMI4Y9L2Y6vb.jpg", "genre_ids": [80, 18, 53], "id": 11423, "original_language": "ko", "original_title": "\uc0b4\uc778\uc758 \ucd94\uc5b5", "overview": "1986 Gyunggi Province. The body of a young woman is found brutally raped and murdered. Two months later, a series of rapes and murders commences under similar circumstances. And in a country that had never known such crimes, the dark whispers about a serial murderer grow louder. A special task force is set up in the area, with two local detectives Park Doo-Man and Jo Young-Goo joined by a detective from Seoul who requested to be assigned to the case.", "poster_path": "/gawnVe9cFowdoDLo9Pok12NTw39.jpg", "release_date": "2003-05-02", "title": "Memories of Murder", "video": false, "vote_average": 8.1, "vote_count": 1093, "popularity": 13.452}, {"id": 44147, "video": false, "vote_count": 388, "vote_average": 6.4, "title": "Wild Target", "release_date": "2010-06-17", "original_language": "en", "original_title": "Wild Target", "genre_ids": [28, 35], "backdrop_path": "/aZBIoiZyqzohhGeYkroi08fBOMw.jpg", "adult": false, "overview": "Victor Maynard is a middle-aged, solitary assassin who lives to please his formidable mother, despite his own peerless reputation for lethal efficiency. His professional routine is interrupted when he finds himself drawn to one of his intended victims. After sparing her life, he unexpectedly acquires a young apprentice. Believing Victor to be a private detective, his two new companions tag along, while he attempts to thwart the murderous attentions of his unhappy client.", "poster_path": "/x1O8MOIY41fpKbCUt1I4sKeLwwr.jpg", "popularity": 9.256}, {"adult": false, "backdrop_path": "/t3OZS8yMs0NL4YgWWc04eXHTn1X.jpg", "genre_ids": [28, 80, 53], "id": 984, "original_language": "en", "original_title": "Dirty Harry", "overview": "When a madman dubbed 'Scorpio' terrorizes San Francisco, hard-nosed cop, Harry Callahan \u2013 famous for his take-no-prisoners approach to law enforcement \u2013 is tasked with hunting down the psychopath. Harry eventually collars Scorpio in the process of rescuing a kidnap victim, only to see him walk on technicalities. Now, the maverick detective is determined to nail the maniac himself.", "poster_path": "/2TADKc4GMMPdMrLXj0xJVgTvZJM.jpg", "release_date": "1971-12-21", "title": "Dirty Harry", "video": false, "vote_average": 7.5, "vote_count": 1173, "popularity": 18.839}, {"adult": false, "backdrop_path": "/bRGtZsVj2Qq8r5CCsNYmQUPF4z4.jpg", "genre_ids": [80, 18, 878, 53], "id": 10559, "original_language": "en", "original_title": "Frequency", "overview": "When a rare phenomenon gives police officer John Sullivan the chance to speak to his father, 30 years in the past, he takes the opportunity to prevent his dad's tragic death.  After his actions inadvertently give rise to a series of brutal murders he and his father must find a way to fix the consequences of altering time.", "poster_path": "/n0QAAZmIaPPIShVkk8eiKwfGV9.jpg", "release_date": "2000-04-28", "title": "Frequency", "video": false, "vote_average": 7.1, "vote_count": 897, "popularity": 14.026}, {"adult": false, "backdrop_path": "/aJCEQFFXNcfg5YneJzTG15qzxF7.jpg", "genre_ids": [28, 53], "id": 1572, "original_language": "en", "original_title": "Die Hard: With a Vengeance", "overview": "New York detective John McClane is back and kicking bad-guy butt in the third installment of this action-packed series, which finds him teaming with civilian Zeus Carver to prevent the loss of innocent lives. McClane thought he'd seen it all, until a genius named Simon engages McClane, his new \"partner\" -- and his beloved city -- in a deadly game that demands their concentration.", "poster_path": "/ivpXGcsPZglyYrN65THWSD7JM3q.jpg", "release_date": "1995-05-19", "title": "Die Hard: With a Vengeance", "video": false, "vote_average": 7.1, "vote_count": 3603, "popularity": 27.341}, {"adult": false, "backdrop_path": "/pA64Ov7lDpwXBu33yq0KpmAOYJL.jpg", "genre_ids": [27, 53], "id": 357096, "original_language": "en", "original_title": "I Spit on Your Grave III: Vengeance is Mine", "overview": "Jennifer Hills is still tormented by the brutal sexual assault she endured years ago. She\u2019s changed identities and cities, reluctantly joining a support group where she begins to piece together a new life. But when her new friend\u2019s murderer goes free and the tales of serial rapists haunt her, Jennifer will hunt down the men responsible and do what the system won\u2019t \u2013 make them pay for their crimes in the most horrific ways imaginable. Only this time, no jury may be able to save her.", "poster_path": "/6SnOlgrUoC5jqmgcYIM5lde5zYq.jpg", "release_date": "2015-10-01", "title": "I Spit on Your Grave III: Vengeance is Mine", "video": false, "vote_average": 5.3, "vote_count": 437, "popularity": 20.815}, {"id": 49524, "video": false, "vote_count": 2255, "vote_average": 5.6, "title": "R.I.P.D.", "release_date": "2013-07-18", "original_language": "en", "original_title": "R.I.P.D.", "genre_ids": [28, 35, 80, 14], "backdrop_path": "/5uj49MUgHpHGGYxImtqLNofvS5B.jpg", "adult": false, "overview": "A recently slain cop joins a team of undead police officers working for the Rest in Peace Department and tries to find the man who murdered him. Based on the comic by Peter M. Lenkov.", "poster_path": "/ldBBulVDkifYnT501PWXIvtCgmO.jpg", "popularity": 21.249}, {"adult": false, "backdrop_path": "/7QjoyyGdBV32x1sEh64dAnNjwg2.jpg", "genre_ids": [53, 35, 27], "id": 12521, "original_language": "en", "original_title": "Shocker", "overview": "After being sent to the electric chair, a serial killer uses electricity to come back from the dead and carry out his vengeance on the football player who turned him in to the police.", "poster_path": "/xEDmOhNGCKlWlS3mCiqLCVzBXVA.jpg", "release_date": "1989-10-27", "title": "Shocker", "video": false, "vote_average": 5.5, "vote_count": 176, "popularity": 10.495}, {"adult": false, "backdrop_path": "/v761yOHKO3p6Yr7LDCjud6tUL5G.jpg", "genre_ids": [28, 80, 53], "id": 10651, "original_language": "en", "original_title": "The Dead Pool", "overview": "Dirty Harry Callahan returns for his final film adventure. Together with his partner Al Quan, he must investigate the systematic murder of actors and musicians. By the time Harry learns that the murders are a part of a sick game to predict the deaths of celebrities before they happen, it may be too late...", "poster_path": "/9ZUSqox9lIxN4xaYBac2QXMFcZj.jpg", "release_date": "1988-07-12", "title": "The Dead Pool", "video": false, "vote_average": 6.4, "vote_count": 389, "popularity": 10.626}, {"adult": false, "backdrop_path": "/iLvqbCanH1liQ5VERCyCR31GkkL.jpg", "genre_ids": [35, 27, 878], "id": 15762, "original_language": "en", "original_title": "Night of the Creeps", "overview": "In 1959, an alien experiment crashes to earth and infects a fraternity member. They freeze the body, but in the modern day, two geeks pledging a fraternity accidentally thaw the corpse, which proceeds to infect the campus with parasites that transform their hosts into killer zombies.", "poster_path": "/A3s2tQGNb6mhlr1hPZeE5F8IUwp.jpg", "release_date": "1986-08-21", "title": "Night of the Creeps", "video": false, "vote_average": 6.6, "vote_count": 219, "popularity": 10.383}, {"adult": false, "backdrop_path": "/g1BfxcnplYEveGqS1ttfhdRBgbR.jpg", "genre_ids": [35, 53, 80], "id": 8012, "original_language": "en", "original_title": "Get Shorty", "overview": "Chili Palmer is a Miami mobster who gets sent by his boss, the psychopathic \"Bones\" Barboni, to collect a bad debt from Harry Zimm, a Hollywood producer who specializes in cheesy horror films. When Chili meets Harry's leading lady, the romantic sparks fly. After pitching his own life story as a movie idea, Chili learns that being a mobster and being a Hollywood producer really aren't all that different.", "poster_path": "/vWtDUUgQAsVyvRW4mE75LBgVm2e.jpg", "release_date": "1995-10-20", "title": "Get Shorty", "video": false, "vote_average": 6.5, "vote_count": 543, "popularity": 12.726}, {"id": 8090, "video": false, "vote_count": 448, "vote_average": 6.1, "title": "Untraceable", "release_date": "2008-01-22", "original_language": "en", "original_title": "Untraceable", "genre_ids": [9648, 53], "backdrop_path": "/eXuIPt9I1xuaVddlgzEQRC2EMnJ.jpg", "adult": false, "overview": "Special Agent Jennifer Marsh (Diane Lane) works in an elite division of the FBI dedicated to fighting cybercrime. She thinks she has seen it all, until a particularly sadistic criminal arises on the Internet. This tech-savvy killer posts live feeds of his crimes on his website; the more hits the site gets, the faster the victim dies. Marsh and her team must find the elusive killer before time runs out.", "poster_path": "/ySUwDRDEn01lKIMPQorpFCMLWqE.jpg", "popularity": 14.431}, {"id": 306, "video": false, "vote_count": 909, "vote_average": 5.8, "title": "Beverly Hills Cop III", "release_date": "1994-05-24", "original_language": "en", "original_title": "Beverly Hills Cop III", "genre_ids": [28, 35, 80], "backdrop_path": "/9En9020IPIGzVW4cgaqmSMCNNiw.jpg", "adult": false, "overview": "Back in sunny southern California and on the trail of two murderers, Axel Foley again teams up with LA cop Billy Rosewood. Soon, they discover that an amusement park is being used as a front for a massive counterfeiting ring \u2013 and it's run by the same gang that shot Billy's boss.", "poster_path": "/tw9gAhqQcBFX0X0XfVbWqUsmzoU.jpg", "popularity": 12.544}, {"adult": false, "backdrop_path": "/7RRuRcGuWkZGuRyYugfXn0Fgrrr.jpg", "genre_ids": [28, 80, 18, 53], "id": 949, "original_language": "en", "original_title": "Heat", "overview": "Obsessive master thief, Neil McCauley leads a top-notch crew on various daring heists throughout Los Angeles while determined detective, Vincent Hanna pursues him without rest. Each man recognizes and respects the ability and the dedication of the other even though they are aware their cat-and-mouse game may end in violence.", "poster_path": "/6pmLVffM9jEYK7VqDJqPblMxfEY.jpg", "release_date": "1995-12-15", "title": "Heat", "video": false, "vote_average": 7.8, "vote_count": 3615, "popularity": 21.973}, {"adult": false, "backdrop_path": "/uQqQvmptJLPTcWDrZXn22p7j7s3.jpg", "genre_ids": [28, 80, 18, 53], "id": 395990, "original_language": "en", "original_title": "Death Wish", "overview": "A mild-mannered father is transformed into a killing machine after his family is torn apart by a violent act.", "poster_path": "/g0eEEZAqMf98ULQnoiORuazjOpn.jpg", "release_date": "2018-03-02", "title": "Death Wish", "video": false, "vote_average": 5.9, "vote_count": 1402, "popularity": 18.853}, {"adult": false, "backdrop_path": "/2J283YNxKhxAqHeVegUJ5mzLfGb.jpg", "genre_ids": [80, 18, 9648], "id": 392044, "original_language": "en", "original_title": "Murder on the Orient Express", "overview": "Genius Belgian detective Hercule Poirot investigates the murder of an American tycoon aboard the Orient Express train.", "poster_path": "/iBlfxlw8qwtUS0R8YjIU7JtM6LM.jpg", "release_date": "2017-11-03", "title": "Murder on the Orient Express", "video": false, "vote_average": 6.7, "vote_count": 6050, "popularity": 27.701}], "total_pages": 54, "total_results": 1068}, "recommendations": {"page": 1, "results": [], "total_pages": 1, "total_results": 0}, "credits": {"cast": [{"cast_id": 1, "character": "Cantinflas", "credit_id": "52fe48749251416c9108cfb1", "gender": 2, "id": 29518, "name": "Cantinflas", "order": 0, "profile_path": "/jGPFk48OwwaX4VzDd0Ne9vcP6kC.jpg"}, {"cast_id": 4, "character": "Anita", "credit_id": "52fe48749251416c9108cfbb", "gender": 0, "id": 930757, "name": "Beatriz Saavedra", "order": 1, "profile_path": null}, {"cast_id": 5, "character": "Lulu Duval", "credit_id": "52fe48749251416c9108cfbf", "gender": 1, "id": 619148, "name": "Christiane Martel", "order": 2, "profile_path": "/epZzS5sEGGZLRZzxP5eLAXxyOYB.jpg"}, {"cast_id": 6, "character": "Asistente Cantinflas", "credit_id": "58557bcf92514175ad0360c6", "gender": 0, "id": 1582410, "name": "Alberto Catal\u00e1", "order": 3, "profile_path": null}, {"cast_id": 7, "character": "Jefe de Polic\u00eda", "credit_id": "58557be292514175ad0360d2", "gender": 2, "id": 105151, "name": "V\u00edctor Alcocer", "order": 4, "profile_path": null}, {"cast_id": 8, "character": "Actor en teatro", "credit_id": "58557bf492514146c9030919", "gender": 2, "id": 236257, "name": "Tito Novaro", "order": 5, "profile_path": "/xNURqzLYaL5jYZ3m0DqRshC7vb0.jpg"}, {"cast_id": 9, "character": "Secretaria", "credit_id": "58557c2ac3a36806a70343fe", "gender": 1, "id": 980513, "name": "Mar\u00eda Herrero", "order": 6, "profile_path": null}, {"cast_id": 10, "character": "Juli\u00e1n", "credit_id": "58557c50c3a368315003d4a0", "gender": 2, "id": 1027088, "name": "Alejandro Ciangherotti", "order": 7, "profile_path": "/Aoxxxku9R5jtVThRXdd5paIGuDZ.jpg"}, {"cast_id": 11, "character": "Jefe de banda criminal", "credit_id": "58557c6692514175ad03613e", "gender": 2, "id": 148381, "name": "Rafael Alcayde", "order": 8, "profile_path": "/nfmC9vllMMJ7HxUq6i8oW8sXqcz.jpg"}, {"cast_id": 12, "character": "Peralta", "credit_id": "58557c7892514175ad036147", "gender": 0, "id": 106088, "name": "Miguel Manzano", "order": 9, "profile_path": "/A3zHb2Nffm9S3BeYzWUF971vITS.jpg"}, {"cast_id": 13, "character": "Empleado teatro", "credit_id": "58557c8d9251416fa1041eb6", "gender": 0, "id": 1521169, "name": "Ernesto Finance", "order": 10, "profile_path": null}, {"cast_id": 14, "character": "(uncredited)", "credit_id": "58557ce59251416fa1041efb", "gender": 0, "id": 1623733, "name": "Armando Espinosa", "order": 11, "profile_path": null}, {"cast_id": 15, "character": "(uncredited)", "credit_id": "58557d2192514146c90309df", "gender": 2, "id": 223081, "name": "Jos\u00e9 Luis Aguirre", "order": 12, "profile_path": null}, {"cast_id": 16, "character": "(uncredited)", "credit_id": "58557d88c3a36827a503d708", "gender": 0, "id": 31227, "name": "Enrique Llanes", "order": 13, "profile_path": null}, {"cast_id": 17, "character": "(uncredited)", "credit_id": "58557df792514175ad036260", "gender": 0, "id": 1514313, "name": "Humberto Rodr\u00edguez", "order": 14, "profile_path": null}, {"cast_id": 18, "character": "(uncredited)", "credit_id": "58557e2cc3a3682f5803ff77", "gender": 0, "id": 1723922, "name": "Alfonso Torres", "order": 15, "profile_path": null}, {"cast_id": 19, "character": "Artista en teatro (uncredited)", "credit_id": "5855815fc3a368258c038ef5", "gender": 0, "id": 1040937, "name": "Eduardo Alcaraz", "order": 16, "profile_path": "/xPyfsX3ESSULGQXwdpgnj12xLj9.jpg"}, {"cast_id": 20, "character": "Detective de polic\u00eda (uncredited)", "credit_id": "5855819392514175ad03650a", "gender": 2, "id": 1156651, "name": "Jorge Arriaga", "order": 17, "profile_path": null}, {"cast_id": 21, "character": "Detective de polic\u00eda (uncredited)", "credit_id": "585581acc3a368258f03b3e0", "gender": 2, "id": 30306, "name": "Manuel Dond\u00e9", "order": 18, "profile_path": "/4FiB1QgRLBqHxZ5ypRGeU2DktbG.jpg"}, {"cast_id": 22, "character": "Empleado del teatro (uncredited)", "credit_id": "585581c8c3a368315003d85d", "gender": 2, "id": 223082, "name": "Armando Arriola", "order": 19, "profile_path": null}, {"cast_id": 23, "character": "Empleado del teatro (uncredited)", "credit_id": "585581e392514175ad03653e", "gender": 0, "id": 1368261, "name": "\u00c1ngel Di Stefani", "order": 20, "profile_path": null}, {"cast_id": 24, "character": "Empleado del teatro (uncredited)", "credit_id": "585582099251411a46043062", "gender": 0, "id": 1673664, "name": "Carlos Robles Gil", "order": 21, "profile_path": null}, {"cast_id": 25, "character": "Obdulio (uncredited)", "credit_id": "5855822a9251416f10043965", "gender": 2, "id": 942379, "name": "Le\u00f3n Barroso", "order": 22, "profile_path": null}, {"cast_id": 26, "character": "Se\u00f1or director de empresa (uncredited)", "credit_id": "58558253c3a3682fb804d101", "gender": 2, "id": 31599, "name": "Antonio Bravo", "order": 23, "profile_path": "/vVoDF1hmwQ61nZXi0q7Ws0YRg7H.jpg"}, {"cast_id": 27, "character": "Empresario (uncredited)", "credit_id": "5855827b9251416fa104233d", "gender": 0, "id": 185888, "name": "Nacho Contla", "order": 24, "profile_path": null}, {"cast_id": 28, "character": "Conductor m\u00fasica teatro (uncredited)", "credit_id": "585582ab92514175ad0365dd", "gender": 0, "id": 1176384, "name": "Julio Daneri", "order": 25, "profile_path": null}, {"cast_id": 29, "character": "Asesino miembro de la banda (uncredited)", "credit_id": "585582ca9251416f100439dc", "gender": 2, "id": 105134, "name": "Guillermo Hern\u00e1ndez", "order": 26, "profile_path": null}, {"cast_id": 30, "character": "Hombre en casa de juegos (uncredited)", "credit_id": "5855842092514146c9030e6b", "gender": 0, "id": 1098535, "name": "John Kelly", "order": 27, "profile_path": null}, {"cast_id": 31, "character": "Fritz (uncredited)", "credit_id": "58558437925141724d0178f7", "gender": 2, "id": 1077377, "name": "\u00d3scar Ortiz de Pinedo", "order": 28, "profile_path": "/p056PCrFToxUfrX5EHApPzDkz7V.jpg"}, {"cast_id": 32, "character": "Espectadora teatro (uncredited)", "credit_id": "58558451c3a368258c0390dc", "gender": 0, "id": 1641262, "name": "Mar\u00eda Valdealde", "order": 29, "profile_path": null}, {"cast_id": 33, "character": "Rubia en casa de juegos (uncredited)", "credit_id": "5855847fc3a36827a503dbff", "gender": 0, "id": 1544860, "name": "Christa von Humboldt", "order": 30, "profile_path": null}, {"cast_id": 41, "character": "Agente de polic\u00eda (uncredited)", "credit_id": "590371bc92514177f4001078", "gender": 0, "id": 1806120, "name": "Rafael Torres", "order": 31, "profile_path": null}], "crew": [{"credit_id": "52fe48749251416c9108cfb7", "department": "Directing", "gender": 2, "id": 125071, "job": "Director", "name": "Miguel M. Delgado", "profile_path": "/gTzLAooPwjr9yoXFOqiVULFu3zQ.jpg"}, {"credit_id": "585584aa925141724d01793c", "department": "Writing", "gender": 2, "id": 125072, "job": "Screenplay", "name": "Jaime Salvador", "profile_path": null}, {"credit_id": "585584cc9251416f63045b66", "department": "Production", "gender": 2, "id": 1623713, "job": "Producer", "name": "Jacques Gelman", "profile_path": null}, {"credit_id": "5855853ec3a3682f580403bc", "department": "Sound", "gender": 2, "id": 1723933, "job": "Original Music Composer", "name": "Federico Ruiz", "profile_path": null}, {"credit_id": "585585ca92514146c9030f6e", "department": "Camera", "gender": 0, "id": 1066366, "job": "Director of Photography", "name": "V\u00edctor Herrera", "profile_path": null}, {"credit_id": "585585dbc3a36806a7034aa8", "department": "Editing", "gender": 2, "id": 31220, "job": "Editor", "name": "Jorge Busto", "profile_path": null}, {"credit_id": "585585eb925141724d017a14", "department": "Art", "gender": 0, "id": 1043154, "job": "Production Design", "name": "Gunther Gerszo", "profile_path": null}, {"credit_id": "585586059251416f10043bd2", "department": "Sound", "gender": 0, "id": 1617783, "job": "Sound Editor", "name": "Antonio Bustos", "profile_path": null}]}}