{"adult": false, "backdrop_path": "/cC5kFpaG0HvqCQDl0sb6kCDZzr.jpg", "belongs_to_collection": null, "budget": 0, "genres": [{"id": 10752, "name": "War"}, {"id": 18, "name": "Drama"}, {"id": 10749, "name": "Romance"}], "homepage": null, "id": 82838, "imdb_id": "tt0049652", "original_language": "en", "original_title": "The Rack", "overview": "Captain Edward Hall returns to the USA after two years in a prison camp in the korean war. In the camp he was brainwashed and helped the Chinese convince the other prisoners that they were fighting an unjust war. When he comes back he is charged for collaboration with the enemy. Where does loyalty end in a prison camp, when the camp is a living hell?", "popularity": 3.761, "poster_path": "/raxh7gR1fj0owgdXQPS4wwjIEy.jpg", "production_companies": [{"id": 21, "logo_path": "/mjofSXiHpG5t6KYmU4l4FrUhT7m.png", "name": "Metro-Goldwyn-Mayer", "origin_country": "US"}], "production_countries": [], "release_date": "1956-11-02", "revenue": 0, "runtime": 100, "spoken_languages": [{"iso_639_1": "en", "name": "English"}], "status": "Released", "tagline": "Paul Newman, a wonderful new star!", "title": "The Rack", "video": false, "vote_average": 6.0, "vote_count": 7, "keywords": {"keywords": [{"id": 3264, "name": "korean war"}]}, "similar": {"page": 1, "results": [{"id": 407887, "video": false, "vote_count": 98, "vote_average": 5.9, "title": "Operation Chromite", "release_date": "2016-07-27", "original_language": "ko", "original_title": "\uc778\ucc9c\uc0c1\ub959\uc791\uc804", "genre_ids": [28, 18, 36, 10752], "backdrop_path": "/diSsXUQOb3DyIMMsacInuWWy2PE.jpg", "adult": false, "overview": "A squad of soldiers fight in the Korean War's crucial Battle of Incheon.", "poster_path": "/zAvlgJj0WgmYhv499bW6Xl8GObY.jpg", "popularity": 8.744}, {"id": 2440, "video": false, "vote_count": 260, "vote_average": 7.8, "title": "Joint Security Area", "release_date": "2000-09-09", "original_language": "ko", "original_title": "\uacf5\ub3d9\uacbd\ube44\uad6c\uc5ed JSA", "genre_ids": [28, 18, 53, 10752], "backdrop_path": "/dNx1OcIPrdPCbSZRjcvzyXUnSRS.jpg", "adult": false, "overview": "In the DMZ separating North and South Korea, two North Korean soldiers have been killed, supposedly by one South Korean soldier. But the 11 bullets found in the bodies, together with the 5 remaining bullets in the assassin's magazine clip, amount to 16 bullets for a gun that should normally hold 15 bullets. The investigating Swiss/Swedish team from the neutral countries overseeing the DMZ suspects that another, unknown party was involved - all of which points to some sort of cover up. The truth is much simpler and much more tragic.", "poster_path": "/iTB01AX6We1h8CAJql55dUyvSWq.jpg", "popularity": 10.651}, {"id": 11658, "video": false, "vote_count": 251, "vote_average": 7.7, "title": "Tae Guk Gi: The Brotherhood of War", "release_date": "2004-02-05", "original_language": "ko", "original_title": "\ud0dc\uadf9\uae30 \ud718\ub0a0\ub9ac\uba70", "genre_ids": [28, 12, 18, 36, 10752], "backdrop_path": "/66qO1fhZZsRE9qGCVSoeC8lGl0F.jpg", "adult": false, "overview": "When two brothers are forced to fight in the Korean War, the elder decides to take the riskiest missions if it will help shield the younger from battle.", "poster_path": "/1SEDI2qeNZgBK5XiJfKwWTmhZqC.jpg", "popularity": 11.912}, {"id": 10355, "video": false, "vote_count": 71, "vote_average": 6.1, "title": "Shiri", "release_date": "1999-02-13", "original_language": "ko", "original_title": "\uc26c\ub9ac", "genre_ids": [28, 12, 18, 53], "backdrop_path": "/v5s9UfzQZfnBg3inqRqYYRrJi9x.jpg", "adult": false, "overview": "North Korea's 8th Special Forces hijacks a shipment of CTX, a potent new liquid explosive, and threatens South Korea as part of a plot to re-unify the two countries.Ryu and Lee, special agents of O.P., South Korea's secret intelligence service, attempt to track down the terrorists and find the CTX. Meanwhile Hee, the 8th's ultra-bad female sniper, resurfaces to wreak havoc and haunt Ryu.", "poster_path": "/tzUQNjTT7DZt0KqISxECknx805r.jpg", "popularity": 13.111}, {"id": 472454, "video": false, "vote_count": 97, "vote_average": 8.3, "title": "Ayla: The Daughter of War", "release_date": "2017-10-27", "original_language": "tr", "original_title": "Ayla", "genre_ids": [18, 36, 10752], "backdrop_path": "/e6O7DpW5oCFicTK1Clr99Ufrceb.jpg", "adult": false, "overview": "In 1950, amidst the ravages of the Korean War, Sergeant S\u00fcleyman stumbles upon a a half-frozen little girl, with no parents and no help in sight. Frantic, scared and on the verge of death, this little girl captures the heart of S\u00fcleyman, who risks his own life to save her, smuggling her into his Army base and out of harms way. Not knowing her name and unable to communicate with her, S\u00fcleyman names her Ayla, in reminiscence of the moon on the fateful night during which they met. The two form an instantaneous and inseparable bond, and Ayla, almost effortlessly, brings an uncanny joy to the Turkish brigade in the grip of war. As the war comes to a close however, S\u00fcleyman's brigade is told that they will be returning home. S\u00fcleyman cannot bear abandoning Ayla, and does everything within his power to take her with him. After repeated failure, he is forced to give Ayla to an orphanage, but doesn't give up on the hope of one day reuniting with her. Will the two ever get back together?", "poster_path": "/ggtQgembIFKJcSSeuxJocOklasp.jpg", "popularity": 11.992}, {"id": 19644, "video": false, "vote_count": 40, "vote_average": 6.7, "title": "Silmido", "release_date": "2003-12-24", "original_language": "ko", "original_title": "\uc2e4\ubbf8\ub3c4", "genre_ids": [28, 18, 36], "backdrop_path": "/1czHp8q7T8vvVdQOrjmMy1oBGmm.jpg", "adult": false, "overview": "On 31 January 1968, 31 North Korean commandos infiltrated South Korea in a failed mission to assassinate President Park Chung-hee. In revenge, the South Korean military assembled a team of 31 criminals on the island of Silmido to kill Kim Il-sung for a suicide mission to redeem their honor, but was cancelled, leaving them frustrated. It is loosely based on a military uprising in the 1970s.", "poster_path": "/jwE6cVIoJ4JP397yMGfBBpHMJmF.jpg", "popularity": 6.155}, {"id": 72190, "video": false, "vote_count": 9915, "vote_average": 6.7, "title": "World War Z", "release_date": "2013-06-20", "original_language": "en", "original_title": "World War Z", "genre_ids": [28, 18, 27, 878, 53], "backdrop_path": "/xMOQVYLeIKBXenJ9KMeasj7S64y.jpg", "adult": false, "overview": "Life for former United Nations investigator Gerry Lane and his family seems content. Suddenly, the world is plagued by a mysterious infection turning whole human populations into rampaging mindless zombies. After barely escaping the chaos, Lane is persuaded to go on a mission to investigate this disease. What follows is a perilous trek around the world where Lane must brave horrific dangers and long odds to find answers before human civilization falls.", "poster_path": "/Ha5t0J21eyiq6Az1EXzx0iwsGH.jpg", "popularity": 29.165}, {"id": 651, "video": false, "vote_count": 478, "vote_average": 7.1, "title": "M*A*S*H", "release_date": "1970-01-24", "original_language": "en", "original_title": "M*A*S*H", "genre_ids": [35, 18, 10752], "backdrop_path": "/l5YH6TCYi2mgZwXbDjF71iA9UBP.jpg", "adult": false, "overview": "The staff of a Korean War field hospital use humor and high jinks to keep their sanity in the face of the horror of war.", "poster_path": "/cscyvJ4nDgbqewrttPXZ5EYOdwa.jpg", "popularity": 11.845}, {"adult": false, "backdrop_path": "/h51DdjaDD2aPu1fLHsmpJaaJinS.jpg", "genre_ids": [80, 18, 53], "id": 504172, "original_language": "en", "original_title": "The Mule", "overview": "Earl Stone, a man in his eighties, is broke, alone, and facing foreclosure of his business when he is offered a job that simply requires him to drive. Easy enough, but, unbeknownst to Earl, he's just signed on as a drug courier for a Mexican cartel. He does so well that his cargo increases exponentially, and Earl hit the radar of hard-charging DEA agent Colin Bates.", "poster_path": "/oeZh7yEz3PMnZLgBPhrafFHRbVz.jpg", "release_date": "2018-12-14", "title": "The Mule", "video": false, "vote_average": 6.6, "vote_count": 2385, "popularity": 26.133}, {"id": 496243, "video": false, "vote_count": 2626, "vote_average": 8.6, "title": "Parasite", "release_date": "2019-05-30", "original_language": "ko", "original_title": "\uae30\uc0dd\ucda9", "genre_ids": [35, 18, 53], "backdrop_path": "/TU9NIjwzjoKPwQHoHshkFcQUCG.jpg", "adult": false, "overview": "All unemployed, Ki-taek's family takes peculiar interest in the wealthy and glamorous Parks for their livelihood until they get entangled in an unexpected incident.", "poster_path": "/7IiTTgloJzvGI1TAYymCfbfl3vT.jpg", "popularity": 136.592}, {"adult": false, "backdrop_path": "/a4NvHk2ewwcQF0nIkbzdHfB8UiT.jpg", "genre_ids": [10752], "id": 79894, "original_language": "ko", "original_title": "\ub0a8\ubd80\uad70", "overview": "Reporter for a North Korean news service joins the partisans when the Americans and UN forces invade South Korea.", "poster_path": "/e07NlA2QHbU3zmwoLIGADto8SuE.jpg", "release_date": "1990-06-02", "title": "North Korean Partisan in South Korea", "video": false, "vote_average": 5.7, "vote_count": 3, "popularity": 1.824}, {"id": 1255, "video": false, "vote_count": 1116, "vote_average": 6.8, "title": "The Host", "release_date": "2006-07-27", "original_language": "ko", "original_title": "\uad34\ubb3c", "genre_ids": [18, 27, 878], "backdrop_path": "/9diyJ180qJP4PHlHYPvwEMrrqI8.jpg", "adult": false, "overview": "Gang-du is a dim-witted man working at his father's tiny snack bar near the Han River. Following the dumping of gallons of toxic waste in the river, a giant mutated squid-like appears and begins attacking the populace.  Gang-du's daughter Hyun-seo is snatched up by the creature and he and his family are taken into custody by the military, who fear a virus spread by the creature..  In detention, Gang-du receives a phone call from Hyun-seo, who is not dead, merely trapped in a sewer.  With his family to assist him, he sets off to find Hyun-seo.", "poster_path": "/wLe2XnBHv5jJWIv5URin7vyCHbd.jpg", "popularity": 24.171}, {"id": 567629, "video": false, "vote_count": 4, "vote_average": 7.3, "title": "Battle of Jangsari", "release_date": "2019-09-25", "original_language": "ko", "original_title": "\uc7a5\uc0ac\ub9ac: \uc78a\ud600\uc9c4 \uc601\uc6c5\ub4e4", "genre_ids": [28, 18, 10752], "backdrop_path": "/5Dm6jAygwwx4Dd254sMIQZ0jwox.jpg", "adult": false, "overview": "Based on a true story of Jangsari Landing Operation, 772 student soldiers \u2013 whose average age was 17 and who received just 2 weeks of boot camp training \u2013 were tossed into Korean War effort in order to pave the way for Incheon Landing Operation, which turned the tide of war.", "poster_path": "/8QRqXA3PBCEy91FICTlFSHYUfEF.jpg", "popularity": 19.222}, {"id": 982, "video": false, "vote_count": 320, "vote_average": 7.8, "title": "The Manchurian Candidate", "release_date": "1962-10-24", "original_language": "en", "original_title": "The Manchurian Candidate", "genre_ids": [18, 53], "backdrop_path": "/zEMzPzNzYACzN3UdDhbHCG3xZTb.jpg", "adult": false, "overview": "Near the end of the Korean War, a platoon of U.S. soldiers is captured by communists and brainwashed. Following the war, the platoon is returned home, and Sergeant Raymond Shaw is lauded as a hero by the rest of his platoon. However, the platoon commander, Captain Bennett Marco, finds himself plagued by strange nightmares and soon races to uncover a terrible plot.", "poster_path": "/h0mkK00GjBCJoBYm3yvPdkzlIyV.jpg", "popularity": 12.387}, {"id": 397567, "video": false, "vote_count": 142, "vote_average": 7.7, "title": "Along with the Gods: The Two Worlds", "release_date": "2017-12-14", "original_language": "ko", "original_title": "\uc2e0\uacfc\ud568\uaed8-\uc8c4\uc640 \ubc8c", "genre_ids": [28, 18, 14], "backdrop_path": "/wyv2Y9vXYJwJzF6cNVuVwVOsOUj.jpg", "adult": false, "overview": "Having died unexpectedly, firefighter Ja-hong is taken to the afterlife by 3 afterlife guardians. Only when he passes 7 trials over 49 days and proves he was innocent in human life, he\u2019s able to reincarnate, and his 3 afterlife guardians are by his side to defend him in trial.", "poster_path": "/gJSvIsI6oQfFim0PGyuuiCYfqKs.jpg", "popularity": 11.819}, {"adult": false, "backdrop_path": "/i4ifG2jrtqc9QpJrmr9afqU5KAg.jpg", "genre_ids": [10752, 35, 18], "id": 14968, "original_language": "ko", "original_title": "\uc6f0\ucef4 \ud22c \ub3d9\ub9c9\uace8", "overview": "Based on the long running play by Jang Jin, the story is set in Korea during the Korean War in 1950. Soldiers from both the North and South, as well as an American pilot, find themselves in a secluded and naively idealistic village, its residents unaware of the outside world, including the war.", "poster_path": "/5iGVw8AdnUJ3xNaZ5iipfsv2e5.jpg", "release_date": "2005-08-04", "title": "Welcome to Dongmakgol", "video": false, "vote_average": 7.5, "vote_count": 85, "popularity": 9.0}, {"id": 581387, "video": false, "vote_count": 6, "vote_average": 8.2, "title": "Ashfall", "release_date": "2019-12-19", "original_language": "ko", "original_title": "\ubc31\ub450\uc0b0", "genre_ids": [12, 18], "backdrop_path": "/4wKjEd6hDvZvkGCXKw6KjSmJwb1.jpg", "adult": false, "overview": "Stagnant since 1903, at an elevation of 9000', a volcano erupts on the mythical and majestic Baekdu Mountain.", "poster_path": "/cLSj1Brd2kQWtzj3JHUE4eGtPXx.jpg", "popularity": 5.504}, {"id": 566397, "video": false, "vote_count": 0, "vote_average": 0.0, "title": "The Man Standing Next", "release_date": "2020-01-22", "original_language": "ko", "original_title": "\ub0a8\uc0b0\uc758 \ubd80\uc7a5\ub4e4", "genre_ids": [28, 18], "backdrop_path": "/m0Zp6dlmjfpolhMWx6KHJvmFlOk.jpg", "adult": false, "overview": "In the 1970s, Korea is under the absolute control of the President Park who controls the KCIA, the organization with an edge over any branch of government. The director of KCIA, KIM Gyu-pyeong, is the seemingly most prospective second-in-command. In the midst of reign of fear, a former KCIA director, PARK Yong-gak who knows all about the government\u2019s obscure operations, exiles to the U.S. where the investigation of \u2018Koreagate\u2019 is underway. As the tension escalates, the stifling political maneuvering by the all second-in-command\u2019s unfolds.", "poster_path": "/irC14m9de5imarTX6br5op1xfqU.jpg", "popularity": 14.858}, {"adult": false, "backdrop_path": "/AkPViQtMLtiGPRfMTV05dLCZOPb.jpg", "genre_ids": [28, 18], "id": 238751, "original_language": "en", "original_title": "Best of the Best", "overview": "A team from the United States is going to compete against Korea in a Tae Kwon Do tournament. The team consists of fighters from all over the country--can they overcome their rivalry and work together to win?", "poster_path": "/uoG8bCZMX1hqrPEjBjwYLawsUKk.jpg", "release_date": "1989-11-10", "title": "Best of the Best", "video": false, "vote_average": 6.3, "vote_count": 101, "popularity": 10.681}, {"id": 160704, "video": false, "vote_count": 102, "vote_average": 6.8, "title": "The Berlin File", "release_date": "2013-01-30", "original_language": "ko", "original_title": "\ubca0\ub97c\ub9b0", "genre_ids": [28, 53], "backdrop_path": "/gV4xIKseHN8DZrDwrnNNnvD7gY9.jpg", "adult": false, "overview": "When an illicit arms deal goes bad, North Korean spy Pyo Jong-seong finds himself targeted not just by the South Koreans but also his own bosses.", "poster_path": "/d78ueVbtP8mymOhWsh3kxRAfWNy.jpg", "popularity": 15.105}], "total_pages": 9, "total_results": 170}, "recommendations": {"page": 1, "results": [{"adult": false, "backdrop_path": "/8aIYhraqEVZHYynCTrgPlA75VWx.jpg", "genre_ids": [10752, 18], "id": 78315, "original_language": "fr", "original_title": "The Cross of Lorraine", "overview": "French soldiers (Jean-Pierre Aumont, Gene Kelly) surrender to lying Nazis and are herded into a barbaric prison camp.", "poster_path": "/udyNreizse9W2cLrngEsWwRYjX4.jpg", "release_date": "1943-11-12", "title": "The Cross of Lorraine", "video": false, "vote_average": 6.0, "vote_count": 9, "popularity": 4.271}, {"adult": false, "backdrop_path": "/4Ea1otcpxsCWcEGGAQTrWxI2Y1R.jpg", "genre_ids": [9648], "id": 27256, "original_language": "en", "original_title": "The Woman in Question", "overview": "Director Anthony Asquith, working in the style of a Hitchcock whodunit, deftly moves between multiple points of view in this gritty look at life in a seaport town. Jean Kent stars as Agnes \"Astra\" Huston, a fortune teller at a run-down fair, who is found strangled in her bedroom. As the police question five suspects their interactions with her are shown in flashbacks from their point of view.", "poster_path": "/vN4bkACDLO3foJynEcTyJfOTvmJ.jpg", "release_date": "1950-10-03", "title": "The Woman in Question", "video": false, "vote_average": 5.8, "vote_count": 9, "popularity": 4.826}, {"adult": false, "backdrop_path": "/tgDYXpPreNl8pCPXsAwzR1z6XIG.jpg", "genre_ids": [18, 37], "id": 122884, "original_language": "en", "original_title": "Of Human Hearts", "overview": "This is a story about family relationships, set in the time before and during the American Civil War. Ethan Wilkins is a poor and honest man who ministers to the human soul, while his son Jason yearns to be a doctor, helping people in the earthly realm. It is a rich story about striving for excellence, the tension of father-son rebellion, and the love of a mother that can never die.", "poster_path": "/zttaAyrEkafbmuSXvybqK9szYnf.jpg", "release_date": "1938-02-11", "title": "Of Human Hearts", "video": false, "vote_average": 5.9, "vote_count": 9, "popularity": 3.454}, {"adult": false, "backdrop_path": "/v3mcFNGYpQpZggyVrFbzwMjgRqv.jpg", "genre_ids": [18, 10402, 10749], "id": 85677, "original_language": "en", "original_title": "The Constant Nymph", "overview": "The daughter of a musical mentor adores a promising composer, who is quite fond of the adolescent. When her father dies, an uncle arrives with his own grown daughter, who begins a romance with the composer which culminates in marriage but creates an emotional rivalry that affects the three.", "poster_path": "/nH85p9Nyk6dsGZda0XZ2GHkn8pd.jpg", "release_date": "1943-06-23", "title": "The Constant Nymph", "video": false, "vote_average": 5.6, "vote_count": 11, "popularity": 4.643}, {"adult": false, "backdrop_path": "/gSCppUY5bDen6VK7NFuecS83H0Q.jpg", "genre_ids": [18, 10749, 53, 10752], "id": 51791, "original_language": "en", "original_title": "The Adventures of Tartu", "overview": "British Captain Terence Stevenson (Robert Donat) accepts an assignment even more dangerous than his everyday job of defusing unexploded bombs. Fluent in Romanian and German and having studied chemical engineering, he is parachuted into Romania to assume the identity of Captain Jan Tartu, a member of the fascist Iron Guard. He makes his way to Czechoslovakia to steal the formula of a new Nazi poison gas and sabotage the factory where it is being manufactured.", "poster_path": "/noae2gOip0JdDQYEKpbIdFi9M4X.jpg", "release_date": "1943-10-01", "title": "The Adventures of Tartu", "video": false, "vote_average": 6.2, "vote_count": 9, "popularity": 3.272}, {"adult": false, "backdrop_path": "/82mz9Qh7DRalA3BPuKPiQwNpR0d.jpg", "genre_ids": [18, 10749, 36], "id": 106882, "original_language": "en", "original_title": "Kitty", "overview": "London, 1783: Kitty, a saucy wench of the slums, meets the painter Gainsborough by stealing his shoes. He paints her as an \"anonymous lady\" who excites the interest of his noble friends, notably penniless Sir Hugh Marcy, who schemes to pass Kitty off as a genuine lady (a formidable task) and marry her off for financial gain.", "poster_path": "/om3Hzn068On4RybNGnVQHCmUkGP.jpg", "release_date": "1945-10-16", "title": "Kitty", "video": false, "vote_average": 5.9, "vote_count": 7, "popularity": 2.508}], "total_pages": 1, "total_results": 6}, "credits": {"cast": [{"cast_id": 4, "character": "Capt. Edward W. Hall, Jr.", "credit_id": "52fe48789251416c9108d8b5", "gender": 2, "id": 3636, "name": "Paul Newman", "order": 0, "profile_path": "/86y3mhX7mBdUC9A5B0euU8kPWmp.jpg"}, {"cast_id": 5, "character": "Maj. Sam Moulton", "credit_id": "52fe48789251416c9108d8b9", "gender": 2, "id": 7683, "name": "Wendell Corey", "order": 1, "profile_path": "/uQ7NEKJjC6Wj00V2CoYMbCvRcSn.jpg"}, {"cast_id": 6, "character": "Col. Edward W. Hall, Sr.", "credit_id": "52fe48789251416c9108d8bd", "gender": 2, "id": 12308, "name": "Walter Pidgeon", "order": 2, "profile_path": "/6qSsi9m4eYD4QxLhei08DjpW3Ck.jpg"}, {"cast_id": 7, "character": "Lt. Col. Frank Wasnick", "credit_id": "52fe48789251416c9108d8c1", "gender": 2, "id": 8254, "name": "Edmond O'Brien", "order": 3, "profile_path": "/6qHu8P9ZEJ8zm7TCCvZmyrBx83T.jpg"}, {"cast_id": 8, "character": "Aggie Hall", "credit_id": "52fe48789251416c9108d8c5", "gender": 1, "id": 12309, "name": "Anne Francis", "order": 4, "profile_path": "/f6JaUHF5ByqIqc0EpCJpqkKVGgg.jpg"}, {"cast_id": 9, "character": "Capt. John R. Miller", "credit_id": "52fe48789251416c9108d8c9", "gender": 2, "id": 18391, "name": "Lee Marvin", "order": 5, "profile_path": "/1UdUtkWNbgU0pTolZKRkwLBLSUt.jpg"}, {"cast_id": 10, "character": "Caroline", "credit_id": "52fe48789251416c9108d8cd", "gender": 1, "id": 9599, "name": "Cloris Leachman", "order": 6, "profile_path": "/btosClScoBCcTjgv1ilIr9TaYvW.jpg"}, {"cast_id": 11, "character": "Col. Ira Hansen", "credit_id": "52fe48789251416c9108d8d1", "gender": 2, "id": 31260, "name": "Robert Burton", "order": 7, "profile_path": "/kmmkntCe9ovlOdda68mCrFSNZ75.jpg"}, {"cast_id": 12, "character": "Law Officer", "credit_id": "52fe48789251416c9108d8d5", "gender": 2, "id": 106506, "name": "Robert F. Simon", "order": 8, "profile_path": "/n1C81zYV3tMeyD4lgPOB9AabvRz.jpg"}, {"cast_id": 13, "character": "Court President", "credit_id": "52fe48789251416c9108d8d9", "gender": 2, "id": 110204, "name": "Trevor Bardette", "order": 9, "profile_path": "/lHJscOQmunxaih6bZgbT7XZfmrk.jpg"}, {"cast_id": 14, "character": "Sgt. Otto Pahnke", "credit_id": "52fe48789251416c9108d8dd", "gender": 2, "id": 2645, "name": "Adam Williams", "order": 10, "profile_path": "/eGdsCvVnd66A57JOEQ2SghzSBJi.jpg"}, {"cast_id": 15, "character": "Millard Chilson Cassidy", "credit_id": "52fe48789251416c9108d8e1", "gender": 2, "id": 40185, "name": "James Best", "order": 11, "profile_path": "/gEb11akJXaCYWF28RPPnTX5mnmC.jpg"}, {"cast_id": 16, "character": "Col. Dudley Smith", "credit_id": "52fe48789251416c9108d8e5", "gender": 2, "id": 19219, "name": "Fay Roope", "order": 12, "profile_path": "/ajDLbCvr4UZpwnxek2szKmJig2e.jpg"}, {"cast_id": 17, "character": "Maj. Byron Phillips", "credit_id": "52fe48789251416c9108d8e9", "gender": 2, "id": 16125, "name": "Barry Atwater", "order": 13, "profile_path": "/czd8UsGFo1o4QMF0idprEqpsxIn.jpg"}, {"cast_id": 18, "character": "Woman at Airfield", "credit_id": "590fee6ac3a36864fc029b9d", "gender": 1, "id": 4075, "name": "Eve McVeagh", "order": 14, "profile_path": "/y41JZxTVZDOtKBXk9uA7zOFdtzO.jpg"}], "crew": [{"credit_id": "52fe48789251416c9108d8ab", "department": "Writing", "gender": 2, "id": 2768, "job": "Writer", "name": "Stewart Stern", "profile_path": "/iFqID7oakonTiTUctndmK476FXW.jpg"}, {"credit_id": "598b8348c3a36817b4001a54", "department": "Sound", "gender": 2, "id": 4100, "job": "Original Music Composer", "name": "Adolph Deutsch", "profile_path": null}, {"credit_id": "598b886dc3a36817d0001eac", "department": "Editing", "gender": 2, "id": 7510, "job": "Editor", "name": "Harold F. Kress", "profile_path": null}, {"credit_id": "592c94b8c3a3680fab001d1a", "department": "Art", "gender": 2, "id": 9062, "job": "Art Direction", "name": "Cedric Gibbons", "profile_path": "/w8tc9iVH87Iu1KKFDZ9B99NhnBc.jpg"}, {"credit_id": "598b88909251413f510021dd", "department": "Art", "gender": 2, "id": 9063, "job": "Set Decoration", "name": "Edwin B. Willis", "profile_path": "/b4hSs5KLFXxSrvvA923VjdmywMl.jpg"}, {"credit_id": "52fe48789251416c9108d8b1", "department": "Writing", "gender": 2, "id": 13268, "job": "Teleplay", "name": "Rod Serling", "profile_path": "/b1uu9hQz3EE0hIDm4B6bl8KD93z.jpg"}, {"credit_id": "598b888ac3a36817ef001fd8", "department": "Art", "gender": 2, "id": 13974, "job": "Set Decoration", "name": "Fred M. MacLean", "profile_path": null}, {"credit_id": "598b834ec3a368180b001a68", "department": "Camera", "gender": 2, "id": 96427, "job": "Director of Photography", "name": "Paul Vogel", "profile_path": null}, {"credit_id": "52fe48789251416c9108d8a5", "department": "Directing", "gender": 2, "id": 55692, "job": "Director", "name": "Arnold Laven", "profile_path": "/lvKXxRX8PVyxRWFVsraflnaNYxi.jpg"}, {"credit_id": "598b88829251413f58002119", "department": "Art", "gender": 2, "id": 552346, "job": "Art Direction", "name": "Merrill Pye", "profile_path": "/mSXc4DfbM3iuwqmoQtEgOkTFoA5.jpg"}, {"credit_id": "598b8873c3a368181b0021d7", "department": "Editing", "gender": 0, "id": 1284604, "job": "Editor", "name": "Marshall Neilan Jr.", "profile_path": null}, {"credit_id": "598b833ec3a36817ef0019d3", "department": "Production", "gender": 0, "id": 1824617, "job": "Producer", "name": "Arthur M. Loew Jr.", "profile_path": null}]}}