{"adult": false, "backdrop_path": "/8fQoYvDzaxmq2AemetexMrT4pT5.jpg", "belongs_to_collection": null, "budget": 0, "genres": [{"id": 10749, "name": "Romance"}, {"id": 18, "name": "Drama"}], "homepage": "", "id": 83116, "imdb_id": "tt0042285", "original_language": "en", "original_title": "Bright Leaf", "overview": "Two tobacco growers battle for control of the cigarette market.", "popularity": 4.184, "poster_path": "/5zOfEXrE708xuiQclO3k3BEtsKg.jpg", "production_companies": [{"id": 174, "logo_path": "/IuAlhI9eVC9Z8UQWOIDdWRKSEJ.png", "name": "Warner Bros. Pictures", "origin_country": "US"}], "production_countries": [{"iso_3166_1": "US", "name": "United States of America"}], "release_date": "1950-06-16", "revenue": 0, "runtime": 110, "spoken_languages": [{"iso_639_1": "en", "name": "English"}], "status": "Released", "tagline": "", "title": "Bright Leaf", "video": false, "vote_average": 5.1, "vote_count": 7, "keywords": {"keywords": [{"id": 6357, "name": "tobacco"}]}, "similar": {"page": 1, "results": [{"id": 9388, "video": false, "vote_count": 1252, "vote_average": 7.2, "title": "Thank You for Smoking", "release_date": "2005-03-17", "original_language": "en", "original_title": "Thank You for Smoking", "genre_ids": [35, 18], "backdrop_path": "/D1VqMoYT4K2aFcywu3kGnycD6n.jpg", "adult": false, "overview": "Nick Naylor is a charismatic spin-doctor for Big Tobacco who'll fight to protect America's right to smoke -- even if it kills him -- while still remaining a role model for his 12-year old son. When he incurs the wrath of a senator bent on snuffing out cigarettes, Nick's powers of \"filtering the truth\" will be put to the test.", "poster_path": "/v8PKsbAGIvAhKbbRUjdQ3jgFD2S.jpg", "popularity": 10.472}, {"id": 883, "video": false, "vote_count": 474, "vote_average": 7.1, "title": "Coffee and Cigarettes", "release_date": "2003-09-05", "original_language": "en", "original_title": "Coffee and Cigarettes", "genre_ids": [35, 18], "backdrop_path": "/7e6eM6lqj8VB5IqPK57RuDJZXYt.jpg", "adult": false, "overview": "Coffee And Cigarettes is a collection of eleven films from cult director Jim Jarmusch. Each film hosts star studded cast of extremely unique individuals who all share the common activities of conversing while drinking coffee and smoking cigarettes.", "poster_path": "/4IZ9SR6quqjUTghphn0oTBjnQKi.jpg", "popularity": 11.613}, {"adult": false, "backdrop_path": "/6Yb9jgSzXbOLGIdw5Ab3VeY98DG.jpg", "genre_ids": [35, 18], "id": 10149, "original_language": "en", "original_title": "Smoke", "overview": "Writer Paul Benjamin is nearly hit by a bus when he leaves Auggie Wren's smoke shop. Stranger Rashid Cole  saves his life, and soon middle-aged Paul tells homeless Rashid that he wouldn't mind a short-term housemate. Still grieving over his wife's murder, Paul is moved by both Rashid's quest to reconnect with his father and Auggie's discovery that a woman who might be his daughter is about to give birth.", "poster_path": "/dku3aLprH3j1ilSsubW9Pbgfe0y.jpg", "release_date": "1995-06-09", "title": "Smoke", "video": false, "vote_average": 7.3, "vote_count": 231, "popularity": 8.695}, {"id": 5894, "video": false, "vote_count": 65, "vote_average": 6.9, "title": "Blue in the Face", "release_date": "1995-09-15", "original_language": "en", "original_title": "Blue in the Face", "genre_ids": [35], "backdrop_path": "/3gMl7dmHbA3SwnCbLeIUMKjdLy9.jpg", "adult": false, "overview": "Auggie runs a small tobacco shop in Brooklyn, New York. The whole neighborhood comes to visit him to buy cigarettes and have some small talk. During the movie Lou Reed tries to explain why he has to have a cut on his health insurance bill if he keeps smoking and Madonna acts as a Singing Telegram.", "poster_path": "/qa9yf3OlfXbYBb0af0mpawGB6TI.jpg", "popularity": 8.434}, {"adult": false, "backdrop_path": "/npClMhFGn4XUkwu6coq5oKAEu6L.jpg", "genre_ids": [35, 10749, 18], "id": 634, "original_language": "en", "original_title": "Bridget Jones's Diary", "overview": "A chaotic Bridget Jones meets a snobbish lawyer, and he soon enters her world of imperfections.", "poster_path": "/ym6kjFFZg6boC0QHBVw6hqJLbxv.jpg", "release_date": "2001-04-13", "title": "Bridget Jones's Diary", "video": false, "vote_average": 6.7, "vote_count": 3079, "popularity": 16.678}, {"id": 9008, "video": false, "vote_count": 950, "vote_average": 7.4, "title": "The Insider", "release_date": "1999-10-28", "original_language": "en", "original_title": "The Insider", "genre_ids": [18, 53], "backdrop_path": "/7oq51chQ7MW7RVKqhL4ivxhrwGf.jpg", "adult": false, "overview": "Tells the true story of a 60 Minutes television series expos\u00e9 of the tobacco industry, as seen through the eyes of a real tobacco executive, Jeffrey Wigand.", "poster_path": "/sYQsmMl4oG56NtFaNkDxuJhhODa.jpg", "popularity": 12.176}, {"adult": false, "backdrop_path": "/qmERQjNTQ8HhBi5dxwv8BNzrOX.jpg", "genre_ids": [18, 10749], "id": 38684, "original_language": "en", "original_title": "Jane Eyre", "overview": "After a bleak childhood, Jane Eyre goes out into the world to become a governess. As she lives happily in her new position at Thornfield Hall, she meet the dark, cold, and abrupt master of the house, Mr. Rochester. Jane and her employer grow close in friendship and she soon finds herself falling in love with him. Happiness seems to have found Jane at last, but could Mr. Rochester's terrible secret be about to destroy it forever?", "poster_path": "/oC7wvdrBA0RgbXaJZwcxsl1zKBR.jpg", "release_date": "2011-03-11", "title": "Jane Eyre", "video": false, "vote_average": 7.1, "vote_count": 854, "popularity": 11.425}, {"id": 273481, "video": false, "vote_count": 4907, "vote_average": 7.3, "title": "Sicario", "release_date": "2015-09-17", "original_language": "en", "original_title": "Sicario", "genre_ids": [28, 80, 53], "backdrop_path": "/zAHozevwbbsB2epEVpCkzqVccWW.jpg", "adult": false, "overview": "An idealistic FBI agent is enlisted by a government task force to aid in the escalating war against drugs at the border area between the U.S. and Mexico.", "poster_path": "/p2SdfGmQRaw8xhFbexlHL7srMM8.jpg", "popularity": 29.022}, {"adult": false, "backdrop_path": "/79p6lNdZX7XAKGZ8rxlDC8TU0C7.jpg", "genre_ids": [18, 80], "id": 269, "original_language": "fr", "original_title": "\u00c0 bout de souffle", "overview": "A young car thief kills a policeman and tries to persuade a girl to hide in Italy with him.", "poster_path": "/mBZ6BE7V9MCC7FzhAQPJl6K0634.jpg", "release_date": "1960-03-16", "title": "Breathless", "video": false, "vote_average": 7.8, "vote_count": 791, "popularity": 13.03}, {"id": 44706, "video": false, "vote_count": 235, "vote_average": 6.4, "title": "The Bet", "release_date": "1997-10-15", "original_language": "fr", "original_title": "Le Pari", "genre_ids": [35], "backdrop_path": "/oj2XT3p9LEpMhRTBhQONKmo2gmk.jpg", "adult": false, "overview": "Two rival \"brothers-in-law\" make a bet that they can stop smoking for 2 weeks. But, it's just not that easy...", "poster_path": "/wVo9fVQsH5TnWUTfNVTFR5JpZbb.jpg", "popularity": 6.428}, {"adult": false, "backdrop_path": "/en6RCcsjVPeuWBjIwne6eogHhrz.jpg", "genre_ids": [18], "id": 401104, "original_language": "en", "original_title": "To the Bone", "overview": "A young woman dealing with anorexia meets an unconventional doctor who challenges her to face her condition and embrace life.", "poster_path": "/rgPysl0uMpxllv43r4udHuRAhn4.jpg", "release_date": "2017-01-22", "title": "To the Bone", "video": false, "vote_average": 7.3, "vote_count": 2452, "popularity": 14.898}, {"id": 14412, "video": false, "vote_count": 264, "vote_average": 7.1, "title": "Body Heat", "release_date": "1981-08-28", "original_language": "en", "original_title": "Body Heat", "genre_ids": [80, 18, 9648, 53, 10749], "backdrop_path": "/5SvUBG8WfrumTghUABbSaarY21p.jpg", "adult": false, "overview": "In the midst of a searing Florida heat wave, a woman convinces her lover, a small-town lawyer, to murder her rich husband.", "poster_path": "/zjKyX72bNa6aSXZUvQpB223zDBe.jpg", "popularity": 14.861}, {"adult": false, "backdrop_path": "/w9vW3t6xyfLUoEa18dTBOWwkxZH.jpg", "genre_ids": [53, 18], "id": 36204, "original_language": "hi", "original_title": "No Smoking", "overview": "A heavily addicted smoker  is unprepared for the true price he must pay when he asks a guru's help to kick the habit.", "poster_path": "/reJRahEjVlMpbolmrRZRyKOcy3m.jpg", "release_date": "2007-10-26", "title": "No Smoking", "video": false, "vote_average": 6.8, "vote_count": 25, "popularity": 3.471}, {"id": 9667, "video": false, "vote_count": 834, "vote_average": 6.9, "title": "The Jacket", "release_date": "2005-03-04", "original_language": "en", "original_title": "The Jacket", "genre_ids": [18, 9648, 53], "backdrop_path": "/4y4jpkHGh10QPNWy1iClCUgF8rX.jpg", "adult": false, "overview": "A military veteran goes on a journey into the future, where he can foresee his death and is left with questions that could save his life and those he loves.", "poster_path": "/ts5hSSpgHEcPFpdfk6gmLLgx5k4.jpg", "popularity": 12.677}, {"id": 10189, "video": false, "vote_count": 2203, "vote_average": 6.6, "title": "Pineapple Express", "release_date": "2008-08-06", "original_language": "en", "original_title": "Pineapple Express", "genre_ids": [28, 35], "backdrop_path": "/8lIkPDvw4berZGOodXg3r4bNxaV.jpg", "adult": false, "overview": "A stoner and his dealer are forced to go on the run from the police after the pothead witnesses a cop commit a murder.", "poster_path": "/scEvOPl6ZJctQVnRWHvq0pP0DkM.jpg", "popularity": 13.056}, {"id": 9611, "video": false, "vote_count": 280, "vote_average": 6.1, "title": "Romy and Michele's High School Reunion", "release_date": "1997-04-25", "original_language": "en", "original_title": "Romy and Michele's High School Reunion", "genre_ids": [35], "backdrop_path": "/3A5tRj07cK0D5hsWeU5hOUo6iOr.jpg", "adult": false, "overview": "Two not-too-bright party girls reinvent themselves for their high school reunion. Armed with a borrowed Jaguar, new clothes and the story of their success as the inventors of Post-It notes, Romy and Michele descend on their alma mater, but their fa\u00e7ade crumbles quickly.", "poster_path": "/etg1pHDwJfWbr5XeOkVxErjBRld.jpg", "popularity": 12.126}, {"id": 9490, "video": false, "vote_count": 303, "vote_average": 6.4, "title": "Half Baked", "release_date": "1998-01-16", "original_language": "en", "original_title": "Half Baked", "genre_ids": [35, 80], "backdrop_path": "/crM2JAfK6ciZDtYEZ3WFbiwAFRE.jpg", "adult": false, "overview": "Three lovable party buds try to bail their friend out of jail. But just when the guys have mastered a plan, everything comes dangerously close to going up in smoke.", "poster_path": "/wSCuqYd2MXxhRE98cTH9Gz7DCGD.jpg", "popularity": 10.638}, {"id": 14864, "video": false, "vote_count": 92, "vote_average": 6.4, "title": "The Hot Spot", "release_date": "1990-10-12", "original_language": "en", "original_title": "The Hot Spot", "genre_ids": [80, 18, 53, 10749], "backdrop_path": "/yCGr6EzPwAm4mg5gVm4G5e3S7ei.jpg", "adult": false, "overview": "A loner moves in to a small Texas town, finds himself a job, and sets about plotting to rob the local bank.", "poster_path": "/iQCP69183K1QZo8bb23nkcLap3W.jpg", "popularity": 10.728}, {"id": 11455, "video": false, "vote_count": 318, "vote_average": 6.8, "title": "Up in Smoke", "release_date": "1978-01-01", "original_language": "en", "original_title": "Up in Smoke", "genre_ids": [35], "backdrop_path": "/taR61B5ngU73ZNyT23SOI2VCG3t.jpg", "adult": false, "overview": "An unemployed pot-smoking slacker and amateur drummer, Anthony Stoner ditches his strict parents and hits the road, eventually meeting kindred spirit Pedro de Pacas. While the drug-ingesting duo is soon arrested for possession of marijuana, Anthony and Pedro get released on a technicality, allowing them to continue their many misadventures and ultimately compete in a rock band contest, where they perform the raucous tune \"Earache My Eye.\"", "poster_path": "/cBbgz13sfqRMgu2neJYKAJ0xmx5.jpg", "popularity": 11.238}, {"id": 24197, "video": false, "vote_count": 70, "vote_average": 6.1, "title": "Mr. & Mrs. Smith", "release_date": "1941-01-31", "original_language": "en", "original_title": "Mr. & Mrs. Smith", "genre_ids": [35, 10749], "backdrop_path": "/qsJSHNoyasOY3P0xsKFKyAfPOjD.jpg", "adult": false, "overview": "Ann and David Smith are a happily married couple living in New York. One morning, Ann asks David if he had to do it over again, would he marry her? To her shock, he answers he wouldn't. Later that day, they both separately find out that, due to a complication when they married three years ago, they are in fact not legally married. Ann does not mention this to David, and thinks he will remarry her that very night after he takes her out to a romantic dinner. When this does not happen, she angrily kicks David out of their home.", "poster_path": "/lY3Jd8O8Oz6aMpasPFBzHASzLQd.jpg", "popularity": 7.623}], "total_pages": 5, "total_results": 83}, "recommendations": {"page": 1, "results": [{"id": 40578, "video": false, "vote_count": 24, "vote_average": 5.9, "title": "The Sea Chase", "release_date": "1955-06-04", "original_language": "en", "original_title": "The Sea Chase", "genre_ids": [10752], "backdrop_path": "/8w6CLJISZLLEqPbVAssblQ5vdgx.jpg", "adult": false, "overview": "As the Second World War breaks out, German freighter captain Karl Ehrlich is about to leave Sydney, Australia with his vessel, the Ergenstrasse. Ehrlich, an anti-Nazi but proud German, hopes to outrun or out-maneuver the British warship pursuing him. Aboard his vessel is Elsa Keller, a woman Ehrlich has been ordered to return to Germany safely along with whatever secrets she carries. When Ehrlich's fiercely Nazi chief officer Kirchner commits an atrocity, the British pursuit becomes deadly.", "poster_path": "/slnZPMaomoPogWfVxZMUOFlTOYN.jpg", "popularity": 4.562}], "total_pages": 1, "total_results": 1}, "credits": {"cast": [{"cast_id": 7, "character": "Brant Royle", "credit_id": "52fe488b9251416c91090393", "gender": 2, "id": 4068, "name": "Gary Cooper", "order": 0, "profile_path": "/zVUK71x5IoBaJ5H9dTgE2CRmLKy.jpg"}, {"cast_id": 8, "character": "Sonia Kovac", "credit_id": "52fe488b9251416c91090397", "gender": 1, "id": 7570, "name": "Lauren Bacall", "order": 1, "profile_path": "/kolRFeufmFpcdRJL6v44FHkqdbJ.jpg"}, {"cast_id": 9, "character": "Margaret Jane Singleton", "credit_id": "52fe488b9251416c9109039b", "gender": 1, "id": 1934, "name": "Patricia Neal", "order": 2, "profile_path": "/spdaTjYnm2TfYsOUYIM9zGdr4Ym.jpg"}, {"cast_id": 10, "character": "Chris Malley", "credit_id": "52fe488b9251416c9109039f", "gender": 2, "id": 2672, "name": "Jack Carson", "order": 3, "profile_path": "/zwo2rrylE7DAo4BQag82EN72QDz.jpg"}, {"cast_id": 11, "character": "Major Singleton", "credit_id": "52fe488b9251416c910903a3", "gender": 2, "id": 8841, "name": "Donald Crisp", "order": 4, "profile_path": "/vESX6aAjaZlEgHYncLE1y76BFtD.jpg"}, {"cast_id": 12, "character": "Rose", "credit_id": "52fe488b9251416c910903a7", "gender": 1, "id": 14450, "name": "Gladys George", "order": 5, "profile_path": "/2qzMYzWB90Z46NroCq82IYmrAig.jpg"}, {"cast_id": 13, "character": "Tabitha Singleton", "credit_id": "52fe488b9251416c910903ab", "gender": 1, "id": 83237, "name": "Elizabeth Patterson", "order": 6, "profile_path": "/8seWJt9xJlcVhmtku25uCHuxc5t.jpg"}, {"cast_id": 14, "character": "John Barton", "credit_id": "52fe488b9251416c910903af", "gender": 2, "id": 9596, "name": "Jeff Corey", "order": 7, "profile_path": "/qchQWDmKLhr6QRDIsUFyjezXXT.jpg"}, {"cast_id": 19, "character": "Calhoun - Lawyer", "credit_id": "5dd1f8fefd6fa10012803510", "gender": 2, "id": 11172, "name": "Taylor Holmes", "order": 8, "profile_path": "/dmdGm5SHP6gJDbbANZMHTrYM4Kn.jpg"}, {"cast_id": 20, "character": "Phillips", "credit_id": "5dd1f90857d3780018daa76c", "gender": 2, "id": 34277, "name": "Thurston Hall", "order": 9, "profile_path": "/kRjCgZ5ylQACboFkcgzdJhHxIX.jpg"}, {"cast_id": 21, "character": "Black Peddler (uncredited)", "credit_id": "5dd1f92057d3780018daa79c", "gender": 0, "id": 130487, "name": "James Adamson", "order": 10, "profile_path": null}, {"cast_id": 22, "character": "Poker Player (uncredited)", "credit_id": "5dd1f92a2866fa00188b0621", "gender": 2, "id": 113704, "name": "John Alvin", "order": 11, "profile_path": "/2CSAGmnWFTRwK6jmY2wjSdHmnJl.jpg"}, {"cast_id": 23, "character": "Fauntleroy (uncredited)", "credit_id": "5dd1f9342866fa00188b0634", "gender": 0, "id": 1127492, "name": "Shelby Bacon", "order": 12, "profile_path": null}, {"cast_id": 24, "character": "Man at Tobacco Auction (uncredited)", "credit_id": "5dd1f93e57d3780018daa7d2", "gender": 0, "id": 1550460, "name": "Walter Bacon", "order": 13, "profile_path": "/hOyCV8UMxkERWGLJuPa6pYEFPfE.jpg"}, {"cast_id": 25, "character": "Man in Hotel Bar (uncredited)", "credit_id": "5dd1f949b76cbb00117ce843", "gender": 2, "id": 27164, "name": "Frank Baker", "order": 14, "profile_path": "/fSYn9ESiVpuJtEuS67ttAGceEQW.jpg"}, {"cast_id": 26, "character": "Farmer (uncredited)", "credit_id": "5dd1f95357d3780018daa800", "gender": 2, "id": 31265, "name": "Marshall Bradford", "order": 15, "profile_path": null}, {"cast_id": 27, "character": "Queenie - Sonia's Maid (uncredited)", "credit_id": "5dd1f95efd6fa100188048f3", "gender": 1, "id": 2790, "name": "Marietta Canty", "order": 16, "profile_path": "/zOe9wEFzYQnmWw9yMWpyMke5drq.jpg"}, {"cast_id": 28, "character": "Tobacco Auctioneer (uncredited)", "credit_id": "5dd1f968356a710014ea20f2", "gender": 2, "id": 34286, "name": "Chick Chandler", "order": 17, "profile_path": "/c4ARz3iDt7kFJ1Oev1iHjGSGnt9.jpg"}, {"cast_id": 29, "character": "Cousin Pearl (uncredited)", "credit_id": "5dd1f97157d3780013da71cb", "gender": 0, "id": 2363791, "name": "Eileen Coghlan", "order": 18, "profile_path": null}, {"cast_id": 30, "character": "Member Tobacco Board of Directors (uncredited)", "credit_id": "5dd1f97db76cbb00167cd6cf", "gender": 2, "id": 1208020, "name": "James Conaty", "order": 19, "profile_path": null}, {"cast_id": 31, "character": "Official (uncredited)", "credit_id": "5dd1f987fd6fa1001880491e", "gender": 2, "id": 331924, "name": "Boyd Davis", "order": 20, "profile_path": null}, {"cast_id": 32, "character": "Bridesmaid (uncredited)", "credit_id": "5dd1f991fd6fa1001880492d", "gender": 0, "id": 2073400, "name": "Irmgard Dawson", "order": 21, "profile_path": null}, {"cast_id": 33, "character": "Theodora - Cousin (uncredited)", "credit_id": "5dd1f9a02866fa00158aeb7f", "gender": 0, "id": 1626306, "name": "Renee De Vaux", "order": 22, "profile_path": null}, {"cast_id": 34, "character": "Black Boy (uncredited)", "credit_id": "5dd1f9aa2866fa00138b35e5", "gender": 0, "id": 103105, "name": "Elzie Emanuel", "order": 23, "profile_path": null}, {"cast_id": 35, "character": "Man in Hotel Bar (uncredited)", "credit_id": "5dd1f9b6356a710017ea3018", "gender": 2, "id": 975597, "name": "Franklyn Farnum", "order": 24, "profile_path": "/273KbcYjCmFpDMUcFtNKf7hNTRV.jpg"}, {"cast_id": 36, "character": "Farmer (uncredited)", "credit_id": "5dd1f9c02866fa00158aebe2", "gender": 2, "id": 125842, "name": "Pat Flaherty", "order": 25, "profile_path": "/g1wNobJloszAtbnHe5E3kNQyCE8.jpg"}, {"cast_id": 37, "character": "Johnson (uncredited)", "credit_id": "5dd1f9c92866fa00158aec07", "gender": 2, "id": 120736, "name": "Sam Flint", "order": 26, "profile_path": "/6BZmlo6TKRYQORLq3VtaXW3Bmzn.jpg"}, {"cast_id": 38, "character": "Cousin Arthur - Piano Player (uncredited)", "credit_id": "5dd1f9d42866fa00158aec15", "gender": 2, "id": 119508, "name": "Pat Goldin", "order": 27, "profile_path": null}, {"cast_id": 39, "character": "Man at Tobacco Auction (uncredited)", "credit_id": "5dd1f9dd57d3780015dae79a", "gender": 2, "id": 120746, "name": "Dick Gordon", "order": 28, "profile_path": null}, {"cast_id": 40, "character": "Ellery (uncredited)", "credit_id": "5dd1f9e757d3780018daa8eb", "gender": 2, "id": 3347, "name": "James Griffith", "order": 29, "profile_path": "/yEciqxiaLsw7fUZo3yKaEs9mzdq.jpg"}, {"cast_id": 41, "character": "Tobacco Worker (uncredited)", "credit_id": "5dd1f9f22866fa00158aec93", "gender": 0, "id": 1276748, "name": "Chick Hannan", "order": 30, "profile_path": "/vnZJbg7DHmNySfPbzoEoJcSbwaM.jpg"}, {"cast_id": 42, "character": "Man in Store / Man at Tobacco Auction (uncredited)", "credit_id": "5dd1f9fbb76cbb00117ce9d3", "gender": 2, "id": 1216356, "name": "Sam Harris", "order": 31, "profile_path": null}, {"cast_id": 43, "character": "Tobacco Worker (uncredited)", "credit_id": "5dd1fa052866fa00188b0829", "gender": 0, "id": 1019293, "name": "Al Haskell", "order": 32, "profile_path": null}, {"cast_id": 44, "character": "Wedding Guest (uncredited)", "credit_id": "5dd1fa0fb76cbb00117cea24", "gender": 2, "id": 1990130, "name": "Ed Haskett", "order": 33, "profile_path": null}, {"cast_id": 45, "character": "Boy (uncredited)", "credit_id": "5dd1fa1db76cbb00117cea57", "gender": 0, "id": 2460952, "name": "Jessie Lee Hunt", "order": 34, "profile_path": null}, {"cast_id": 46, "character": "Grandpa (uncredited)", "credit_id": "5dd1fa29fd6fa1001280375b", "gender": 0, "id": 2375854, "name": "J. Louis Johnson", "order": 35, "profile_path": null}, {"cast_id": 47, "character": "Farmer's Son (uncredited)", "credit_id": "5dd1fa33b76cbb00167cd7dd", "gender": 2, "id": 138378, "name": "Pete Kellett", "order": 36, "profile_path": null}, {"cast_id": 48, "character": "Townsman (uncredited)", "credit_id": "5dd1fa3e356a710012ea1716", "gender": 2, "id": 1317628, "name": "Jack Kenny", "order": 37, "profile_path": "/5T5Z9ypMcNYit9vVf3l54FdfkvL.jpg"}, {"cast_id": 49, "character": "Farmer's Son (uncredited)", "credit_id": "5dd1fa4957d3780015dae88b", "gender": 0, "id": 1433453, "name": "Hubie Kerns", "order": 38, "profile_path": null}, {"cast_id": 50, "character": "Hopkins (uncredited)", "credit_id": "5dd1fa53b76cbb00117ceab2", "gender": 0, "id": 105507, "name": "Leslie Kimmell", "order": 39, "profile_path": null}, {"cast_id": 51, "character": "Clay (uncredited)", "credit_id": "5dd1fa5c57d3780015dae8d8", "gender": 2, "id": 120521, "name": "Lyle Latell", "order": 40, "profile_path": "/xirl72y8jQnvyBB0w8E0kydzjbU.jpg"}, {"cast_id": 52, "character": "Dressmaker (uncredited)", "credit_id": "5dd1fa66fd6fa100128037cc", "gender": 1, "id": 15942, "name": "Celia Lovsky", "order": 41, "profile_path": "/houYB0BFbDah7JxzBBpb48pyHft.jpg"}, {"cast_id": 53, "character": "Townsman (uncredited)", "credit_id": "5dd1fa7157d3780015dae947", "gender": 0, "id": 1198883, "name": "Merrill McCormick", "order": 42, "profile_path": null}, {"cast_id": 54, "character": "Pendleton (uncredited)", "credit_id": "5dd1fa7b57d3780015dae974", "gender": 2, "id": 130423, "name": "Charles Meredith", "order": 43, "profile_path": "/sPHFfu1qg2DvBQj7iYRhi1OebpW.jpg"}, {"cast_id": 55, "character": "Blacksmith (uncredited) (voice)", "credit_id": "5dd1fa8557d3780015dae984", "gender": 2, "id": 100944, "name": "Ralph Moody", "order": 44, "profile_path": "/7TAlilRZmRpU0cB2sEO7JmhkwMf.jpg"}, {"cast_id": 15, "character": "Cousin Louise (uncredited)", "credit_id": "52fe488b9251416c910903b3", "gender": 1, "id": 94199, "name": "Cleo Moore", "order": 45, "profile_path": "/ld6h7JoRQKh7H02ZempE0qzNgs8.jpg"}, {"cast_id": 56, "character": "Blacksmith (uncredited)", "credit_id": "5dd22302356a710017ea9b3a", "gender": 2, "id": 155618, "name": "Paul Newlan", "order": 46, "profile_path": "/3N7zo0QhvYeq8DnexEzHSfiQCYm.jpg"}, {"cast_id": 57, "character": "Hotel Clerk (uncredited)", "credit_id": "5dd2231057d3780018db02cc", "gender": 0, "id": 111194, "name": "Eddie Parks", "order": 47, "profile_path": "/gEoOGdX1Gn5ZNHIxzR0DAAq4GSz.jpg"}, {"cast_id": 58, "character": "Train Conductor (uncredited)", "credit_id": "5dd22327b39e3500188a064b", "gender": 2, "id": 13791, "name": "Edward Peil Sr.", "order": 48, "profile_path": "/9V0HC5JxvDlPSyai4SZ9HwhCGZa.jpg"}, {"cast_id": 59, "character": "Devers (uncredited)", "credit_id": "5dd22332356a710012ea5868", "gender": 2, "id": 115550, "name": "John Pickard", "order": 49, "profile_path": "/rUhld5l6uxr0nJEXCGFs6tQIeru.jpg"}, {"cast_id": 60, "character": "Man at Tobacco Auction (uncredited)", "credit_id": "5dd22344fd6fa10012809901", "gender": 2, "id": 1264978, "name": "Cap Somers", "order": 50, "profile_path": "/fIX6PxGkCHr3FbPRFu2Fbd8vYy9.jpg"}, {"cast_id": 61, "character": "Member Tobacco Board of Directors (uncredited)", "credit_id": "5dd2234e356a710017ea9bac", "gender": 2, "id": 1208035, "name": "Bert Stevens", "order": 51, "profile_path": "/hkjMwqpkbV8hU4Z9GIR6Ct9mzx5.jpg"}, {"cast_id": 62, "character": "Emily - Cousin (uncredited)", "credit_id": "5dd2235a57d3780018db0362", "gender": 1, "id": 83436, "name": "Nita Talbot", "order": 52, "profile_path": "/agvQPPZk7niCQZpJfgAo7NWp0CP.jpg"}, {"cast_id": 63, "character": "Townsman (uncredited)", "credit_id": "5dd2236457d3780018db0374", "gender": 0, "id": 1422281, "name": "Jack Tornek", "order": 53, "profile_path": null}, {"cast_id": 64, "character": "Bridesmaid (uncredited)", "credit_id": "5dd22370fd6fa1001880b041", "gender": 0, "id": 2461007, "name": "Kathryn Towne", "order": 54, "profile_path": null}, {"cast_id": 65, "character": "Accountant at Tobacco Auction (uncredited)", "credit_id": "5dd2237cfd6fa1001480b7a1", "gender": 2, "id": 176462, "name": "Felipe Turich", "order": 55, "profile_path": null}, {"cast_id": 66, "character": "Simon - Singleton's Butler (uncredited)", "credit_id": "5dd22386fd6fa1001880b060", "gender": 2, "id": 103107, "name": "Bill Walker", "order": 56, "profile_path": "/yHmvPGkSWsvnTTLYRDljb2WXF5H.jpg"}, {"cast_id": 67, "character": "Detective Curson (uncredited)", "credit_id": "5dd22396356a710014ea8b6d", "gender": 0, "id": 2461008, "name": "Kermit Whitfield", "order": 57, "profile_path": null}, {"cast_id": 68, "character": "Sheriff (uncredited)", "credit_id": "5dd223a0b76cbb00117d5daa", "gender": 0, "id": 1511232, "name": "Chalky Williams", "order": 58, "profile_path": null}, {"cast_id": 69, "character": "Peddler (uncredited)", "credit_id": "5dd223aa57d3780018db03e3", "gender": 0, "id": 1467478, "name": "Buck Woods", "order": 59, "profile_path": null}], "crew": [{"credit_id": "52fe488b9251416c91090371", "department": "Directing", "gender": 2, "id": 4109, "job": "Director", "name": "Michael Curtiz", "profile_path": "/3rQXKSKx1IV7Lg9LwPaJicQdAkC.jpg"}, {"credit_id": "52fe488b9251416c91090377", "department": "Production", "gender": 2, "id": 14446, "job": "Producer", "name": "Henry Blanke", "profile_path": null}, {"credit_id": "52fe488b9251416c9109037d", "department": "Writing", "gender": 2, "id": 31843, "job": "Writer", "name": "Ranald MacDougall", "profile_path": null}, {"credit_id": "52fe488b9251416c91090383", "department": "Sound", "gender": 2, "id": 26026, "job": "Original Music Composer", "name": "Victor Young", "profile_path": null}, {"credit_id": "52fe488b9251416c91090389", "department": "Camera", "gender": 2, "id": 70, "job": "Director of Photography", "name": "Karl Freund", "profile_path": "/radUQdNeGHtn7vhQOTnHBVPH2vE.jpg"}, {"credit_id": "52fe488b9251416c9109038f", "department": "Editing", "gender": 2, "id": 2761, "job": "Editor", "name": "Owen Marks", "profile_path": null}, {"credit_id": "5cc5837c0e0a2678a0ed6d2c", "department": "Crew", "gender": 2, "id": 2292699, "job": "Editorial Staff", "name": "David Curtiz", "profile_path": null}, {"credit_id": "5cc584680e0a264ef4ec77d9", "department": "Directing", "gender": 2, "id": 2292699, "job": "Second Unit Director", "name": "David Curtiz", "profile_path": null}, {"credit_id": "5cf52554c3a3681e951f5d67", "department": "Costume & Make-Up", "gender": 2, "id": 2326857, "job": "Makeup Artist", "name": "John Wallace", "profile_path": null}]}}