{"adult": false, "backdrop_path": null, "belongs_to_collection": null, "budget": 0, "genres": [{"id": 18, "name": "Drama"}, {"id": 35, "name": "Comedy"}], "homepage": null, "id": 83183, "imdb_id": "tt0098972", "original_language": "ja", "original_title": "\u3042\u3052\u307e\u3093", "overview": "The film stars two of Itami's regular actors, Nobuko Miyamoto as a geisha who brings luck to the men with whom she sleeps, and Masahiko Tsugawa as her unfaithful, sometimes partner. As well as showing her relationships with the man she loves and the men who employ her, it satirizes corruption and the influence of money in Japanese politics.", "popularity": 1.428, "poster_path": "/ctSzdPX3CrW1KmaLpnWvW23quCo.jpg", "production_companies": [{"id": 882, "logo_path": "/fRSWWjquvzcHjACbtF53utZFIll.png", "name": "Toho Company, Ltd.", "origin_country": "JP"}], "production_countries": [{"iso_3166_1": "JP", "name": "Japan"}], "release_date": "1990-06-02", "revenue": 0, "runtime": 114, "spoken_languages": [{"iso_639_1": "ja", "name": "\u65e5\u672c\u8a9e"}], "status": "Released", "tagline": "", "title": "Tales of a Golden Geisha", "video": false, "vote_average": 7.0, "vote_count": 3, "keywords": {"keywords": [{"id": 4342, "name": "geisha"}]}, "similar": {"page": 1, "results": [{"id": 46493, "video": false, "vote_count": 14, "vote_average": 7.4, "title": "Flowing", "release_date": "1956-11-20", "original_language": "ja", "original_title": "\u6d41\u308c\u308b", "genre_ids": [18], "backdrop_path": "/iafIdnnAjzx312j5WFQT8Ja3mQP.jpg", "adult": false, "overview": "Otsuta is running the geisha house Tsuta in Tokyo. Her business is heavily in debt. Her daughter Katsuyo doesn't see any future in her mothers trade in the late days of Geisha. But Otsuta will not give up. This film portraits the day time life of geisha when not entertaining customers.", "poster_path": "/cgf4Jmc8IqJydUO3p6IaDr7WYPQ.jpg", "popularity": 3.603}, {"adult": false, "backdrop_path": "/5yfyRZC7md9fWCopGkcblcHPfWC.jpg", "genre_ids": [18], "id": 36871, "original_language": "ja", "original_title": "\u6669\u83ca", "overview": "What is the life of a Geisha like once her beauty has faded and she has retired? Kin has saved her money, and has become a wealthy money-lender, spending her days cold-heartedly collecting debts. Even her best friends, Tomi, Nobu, and Tamae, who were her fellow Geisha, are now indebted to her. For all of them, the glamor of their young lives has passed; Tomi and Tamae have children, but their children have disappointed them. Kin has two former lovers who still pursue her; one she wants to see, and the other she doesn't. But even the one she remembers fondly, when he shows up, proves to be a disappointment.", "poster_path": "/urxbIYMznvPFC4UuQJ5FIbYn6W.jpg", "release_date": "1954-06-15", "title": "Late Chrysanthemums", "video": false, "vote_average": 7.2, "vote_count": 16, "popularity": 2.818}, {"id": 12531, "video": false, "vote_count": 91, "vote_average": 6.9, "title": "The Apartment", "release_date": "1996-07-27", "original_language": "fr", "original_title": "L'Appartement", "genre_ids": [18, 9648, 10749], "backdrop_path": "/64qyT8m4JQ6YODvXxtbHgKmXBX7.jpg", "adult": false, "overview": "A stylish suspense thriller that confounds the audience while presenting them with an extraordinary and elusive mystery. Max is a former playboy who has decided to settle down by marrying his current love, Muriel. However, during a business trip, Max catches a glimpse of the great lost love of his life, reviving his wanderlust and sending him off on a chase of the elusive Lisa, whom he had overheard suggesting to a friend that her lover, Daniel, had killed someone for her. Soon, Max is trying to unravel the mystery behind the suspicious death of Daniel's wife, which he hopes will lead him closer to Lisa.", "poster_path": "/1sqrQdQTn8jKLhUcPKfRVj639zA.jpg", "popularity": 19.17}, {"id": 513409, "video": false, "vote_count": 156, "vote_average": 5.8, "title": "Earthquake Bird", "release_date": "2019-11-01", "original_language": "en", "original_title": "Earthquake Bird", "genre_ids": [18, 9648, 53, 10749], "backdrop_path": "/n0Yk3pEix6EvMfcFxpTQKMUtl6V.jpg", "adult": false, "overview": "Tokyo, Japan, 1989. Lucy Fly, a foreigner who works as a translator, begins a passionate relationship with Teiji, a mysterious man obsessed with photography.", "poster_path": "/oyKnosHXQ7kkhlGwqsWOvn4RgKR.jpg", "popularity": 19.478}, {"id": 13398, "video": false, "vote_count": 410, "vote_average": 7.8, "title": "Tokyo Godfathers", "release_date": "2003-12-29", "original_language": "ja", "original_title": "\u6771\u4eac\u30b4\u30c3\u30c9\u30d5\u30a1\u30fc\u30b6\u30fc\u30ba", "genre_ids": [16, 18], "backdrop_path": "/fHJDbaPJvoyaVnIvoUFml3yndqY.jpg", "adult": false, "overview": "One Christmas Eve three people, a middle-aged alcoholic named Gin, a former drag queen Hana and a dependent runaway girl Miyuki, discover an abandoned newborn while looking through the garbage.", "poster_path": "/aY1q9dTGC8u8TUsAgnpJHsdAdJZ.jpg", "popularity": 12.369}, {"id": 505192, "video": false, "vote_count": 764, "vote_average": 8.0, "title": "Shoplifters", "release_date": "2018-06-02", "original_language": "ja", "original_title": "\u4e07\u5f15\u304d\u5bb6\u65cf", "genre_ids": [80, 18], "backdrop_path": "/xOpQ4jIQJ0HSUhVDixZA9yWqVBP.jpg", "adult": false, "overview": "After one of their shoplifting sessions, Osamu and his son come across a little girl in the freezing cold. At first reluctant to shelter the girl, Osamu\u2019s wife agrees to take care of her after learning of the hardships she faces. Although the family is poor, barely making enough money to survive through petty crime, they seem to live happily together until an unforeseen incident reveals hidden secrets, testing the bonds that unite them.", "poster_path": "/4nfRUOv3LX5zLn98WS1WqVBk9E9.jpg", "popularity": 13.188}, {"id": 568160, "video": false, "vote_count": 151, "vote_average": 7.9, "title": "Weathering with You", "release_date": "2019-07-19", "original_language": "ja", "original_title": "\u5929\u6c17\u306e\u5b50", "genre_ids": [16, 18, 14, 10749], "backdrop_path": "/ize3ZieqSy0TCWljmVoEiy8fSFS.jpg", "adult": false, "overview": "High school student Hodaka leaves his home on an isolated island and moves to Tokyo, but he immediately becomes broke. He lives his days in isolation, but finally finds a job as a writer for a shady occult magazine. After he starts his job, the weather has been rainy day after day. In a corner of the crowded and busy city, Hodaka meets a young woman named Hina. Due to certain circumstances, Hina and her younger brother live together, but have a cheerful and sturdy life. Hina also has a certain power: the power to stop the rain and clear the sky.", "poster_path": "/pVlNK3knUXatpxvSTioll7DgyQh.jpg", "popularity": 29.043}, {"adult": false, "backdrop_path": "/2AWa7xe0GIYNKY0t8oZUxKu68Rz.jpg", "genre_ids": [12, 18, 28], "id": 246, "original_language": "ja", "original_title": "\u5ea7\u982d\u5e02", "overview": "Zatoichi is a 19th century blind nomad who makes his living as a gambler and masseur. However, behind this humble facade, he is a master swordsman gifted with a lightning-fast draw and breathtaking precision. While wandering, Zatoichi discovers a remote mountain village at the mercy of Ginzo, a ruthless gang-leader. Ginzo disposes of anyone who gets in his way, especially after hiring the mighty samurai ronin, Hattori, as a bodyguard. After a raucous night of gambling in town, Zatoichi encounters a pair of geishas--as dangerous as they are beautiful--who've come to avenge their parents' murder. As the paths of these and other colorful characters intertwine, Ginzo's henchmen are soon after Zatoichi. With his legendary cane sword at his side, the stage is set for a riveting showdown.", "poster_path": "/xNFaRG30R3IiVFMgX8X8kAFGxCP.jpg", "release_date": "2003-09-06", "title": "Zatoichi", "video": false, "vote_average": 7.3, "vote_count": 417, "popularity": 10.708}, {"adult": false, "backdrop_path": null, "genre_ids": [99, 10749, 18], "id": 285317, "original_language": "en", "original_title": "Violated Paradise", "overview": "A modern geisha travels through Japan trying to find a job as entertainer, and ends up by finding love and a job as ama, a pearl diver.", "poster_path": "/ymlw4I1LPTP6F4bwdHENeRHqNIn.jpg", "release_date": "1963-06-07", "title": "Violated Paradise", "video": false, "vote_average": 6.5, "vote_count": 2, "popularity": 0.654}, {"adult": false, "backdrop_path": "/dwvLnqkbDSezEp66ulJsPcopnXT.jpg", "genre_ids": [18], "id": 118575, "original_language": "ja", "original_title": "\u9280\u5ea7\u5316\u7ca7", "overview": "Italy is usually cited as the anchor of the neo-realist movement in cinema, but Mikio Naruse's Ginza Cosmetics (1951) is a reminder that Japan had its own output equally rooted in realism. Set in Tokyo's Ginza district, this low-key, lyrical unassuming account of a few days in the life of a luckless geisha (Kinuyo Tanaka), as she struggles to make a living for herself and her young son, has few dramatic highs or artificial moments, but possesses a startlingly vivid power in its slice-of-life texture.", "poster_path": "/tL0cjZ4DkKCtR3iGL1v7wgEs5kl.jpg", "release_date": "1951-04-14", "title": "Ginza Cosmetics", "video": false, "vote_average": 5.3, "vote_count": 3, "popularity": 1.312}, {"id": 92950, "video": false, "vote_count": 3, "vote_average": 7.0, "title": "Wife! Be Like a Rose!", "release_date": "1935-08-15", "original_language": "ja", "original_title": "\u59bb\u3088\u8594\u8587\u306e\u3084\u3046\u306b", "genre_ids": [18], "backdrop_path": "/yhPTCPUObGreTePBKD6HQJTeXQm.jpg", "adult": false, "overview": "A Tokyo salary girl lives with very serious bluestocking haiku-writing mother. The salary girl seeks to marry the attendant dish but needs an absent father to act as the go-between...", "poster_path": "/qMir6gZHeaxt88KU9AHR2SftrlA.jpg", "popularity": 1.252}, {"adult": false, "backdrop_path": "/1EGJSlQsUxh6M1FfUEDby10mZ5q.jpg", "genre_ids": [10749, 16, 18, 10770], "id": 21057, "original_language": "ja", "original_title": "\u6d77\u304c\u304d\u3053\u3048\u308b", "overview": "At Kichij\u014dji Station, Tokyo, Taku Morisaki glimpses a familiar woman on the platform opposite boarding a train. Later, her photo falls from a shelf as he exits his apartment before flying to K\u014dchi Prefecture. Picking it up, he looks at it briefly before leaving. As the aeroplane takes off he narrates the events that brought her into his life...", "poster_path": "/wrb9I8zOVQ4Ij9dc66l3tYbjE1N.jpg", "release_date": "1993-05-05", "title": "Ocean Waves", "video": false, "vote_average": 6.5, "vote_count": 143, "popularity": 12.408}, {"id": 315011, "video": false, "vote_count": 400, "vote_average": 6.7, "title": "Shin Godzilla", "release_date": "2016-07-29", "original_language": "ja", "original_title": "\u30b7\u30f3\u30fb\u30b4\u30b8\u30e9", "genre_ids": [28, 27, 878], "backdrop_path": "/9nyToPG5mhfm4KiPGChu35jH9QZ.jpg", "adult": false, "overview": "When a massive, gilled monster emerges from the deep and tears through the city, the government scrambles to save its citizens.  A rag-tag team of volunteers cuts through a web of red tape to uncover the monster's weakness and its mysterious ties to a foreign superpower.  But time is not on their side - the greatest catastrophe to ever befall the world is about to evolve right before their very eyes.", "poster_path": "/8YWirGQidtZeSEmhqvQM5FrI6N1.jpg", "popularity": 11.942}, {"id": 2517, "video": false, "vote_count": 196, "vote_average": 8.1, "title": "Nobody Knows", "release_date": "2004-08-07", "original_language": "ja", "original_title": "\u8ab0\u3082\u77e5\u3089\u306a\u3044", "genre_ids": [18], "backdrop_path": "/dTL3unDQ9J3opvmjeSNC8MPUk5V.jpg", "adult": false, "overview": "In a small Tokyo apartment, twelve-year-old Akira must care for his younger siblings after their mother leaves them and shows no sign of returning.", "poster_path": "/17w7vuIbybqOvRj5Lq21gFGV6h7.jpg", "popularity": 8.362}, {"id": 30368, "video": false, "vote_count": 117, "vote_average": 7.6, "title": "Stray Dog", "release_date": "1949-10-17", "original_language": "ja", "original_title": "\u91ce\u826f\u72ac", "genre_ids": [80, 18, 53], "backdrop_path": "/pKeatSUHRrlcTmkAOQ9tvESbCCe.jpg", "adult": false, "overview": "A bad day gets worse for young detective Murakami when a pickpocket steals his gun on a hot, crowded bus. Desperate to right the wrong, he goes undercover, scavenging Tokyo\u2019s sweltering streets for the stray dog whose desperation has led him to a life of crime. With each step, cop and criminal\u2019s lives become more intertwined and the investigation becomes an examination of Murakami\u2019s own dark side.", "poster_path": "/riBzUgeYawBDi2q9PjARjHrQM7Z.jpg", "popularity": 10.841}, {"id": 5879, "video": false, "vote_count": 216, "vote_average": 6.5, "title": "In the Realm of the Senses", "release_date": "1976-05-15", "original_language": "ja", "original_title": "\u611b\u306e\u30b3\u30ea\u30fc\u30c0", "genre_ids": [18, 10749], "backdrop_path": "/pdTK37YRrMGXNQniCN5Y15rYi90.jpg", "adult": false, "overview": "Based on a true story set in pre-war Japan, a man and one of his servants begin a torrid affair. Their desire becomes a sexual obsession so strong that to intensify their ardor, they forsake all, even life itself.", "poster_path": "/ztLv3Co2uLZMV7YERWbPrTMUi03.jpg", "popularity": 14.035}, {"id": 35648, "video": false, "vote_count": 32, "vote_average": 6.5, "title": "Roujin Z", "release_date": "1991-09-14", "original_language": "ja", "original_title": "\u8001\u4ebaZ", "genre_ids": [16, 35, 18, 878], "backdrop_path": "/guBQq2yWWmZ0fVycPXm1jZZRM6L.jpg", "adult": false, "overview": "Mr. Takazawa, an elderly invalid who is cared for at his home by Haruko, a young nursing student, is chosen by the Japanese Ministry of Public Welfare to test the Z-001, a computerized hospital bed with robotic features that allegedly displays more efficiency and skills than any human nurse, but Haruko mistrusts a machine unable to consider human feelings.", "poster_path": "/reaDUMKXKekKp0e8UKggeQyymEi.jpg", "popularity": 7.276}, {"id": 18983, "video": false, "vote_count": 95, "vote_average": 6.5, "title": "Godzilla, King of the Monsters!", "release_date": "1956-04-27", "original_language": "en", "original_title": "Godzilla, King of the Monsters!", "genre_ids": [27, 878], "backdrop_path": "/5opq3usPVRkA4NK5zJw1FgUSl2D.jpg", "adult": false, "overview": "A 400-foot (122-meter) dinosaur-like beast, awoken from undersea hibernation off the Japanese coast by atomic-bomb testing, attacks Tokyo.", "poster_path": "/nqLKIsVfi5BW1KuIbe02pMEDXiU.jpg", "popularity": 10.835}, {"adult": false, "backdrop_path": "/o5HvaPVgaiUZeXFHSDZrQBSc7Ul.jpg", "genre_ids": [18, 28, 80, 53], "id": 45706, "original_language": "ja", "original_title": "\u6771\u4eac\u6d41\u308c\u8005", "overview": "After yakuza boss Kurata dissolves his own criminal empire, a rival kingpin offers a position to Kurata's top operative, Tetsuya \"Phoenix Tetsu\" Hondo. When the fiercely loyal Tetsu declines, Otsuka taps unstoppable Tatsuzo the \"Viper\", a ruthless gun-for-hire, to assassinate him. As the Viper trails his target through the countryside, the agile Phoenix Tetsu grows concerned that one of his former associates has betrayed him.", "poster_path": "/dkscSldTB6FGUMMLnInUfKYLfPR.jpg", "release_date": "1966-04-10", "title": "Tokyo Drifter", "video": false, "vote_average": 7.5, "vote_count": 74, "popularity": 9.939}, {"id": 1904, "video": false, "vote_count": 1481, "vote_average": 7.6, "title": "Memoirs of a Geisha", "release_date": "2005-12-06", "original_language": "en", "original_title": "Memoirs of a Geisha", "genre_ids": [36, 10749], "backdrop_path": "/mhEPV19vQsApRYgCIUu6tJJVUer.jpg", "adult": false, "overview": "A sweeping romantic epic set in Japan in the years before World War II, a penniless Japanese child is torn from her family to work as a maid in a geisha house.", "poster_path": "/e8FHAqAYpYQ7P3yHRIs4hwjvnSU.jpg", "popularity": 18.074}], "total_pages": 8, "total_results": 142}, "recommendations": {"page": 1, "results": [], "total_pages": 1, "total_results": 0}, "credits": {"cast": [{"cast_id": 1, "character": "Nayoko", "credit_id": "52fe488f9251416c91090c91", "gender": 1, "id": 70627, "name": "Nobuko Miyamoto", "order": 0, "profile_path": "/87cCQByNL6oQ6nYMJpthhKXIWo.jpg"}, {"cast_id": 2, "character": "Mondo Suzuki", "credit_id": "52fe488f9251416c91090c95", "gender": 2, "id": 551776, "name": "Masahiko Tsugawa", "order": 1, "profile_path": "/633dLRVqbMDgxqLy0LECRaFe4BB.jpg"}, {"cast_id": 3, "character": "Chichiiwa", "credit_id": "52fe488f9251416c91090c99", "gender": 0, "id": 142676, "name": "Hiroshi \u00d4k\u00f4chi", "order": 2, "profile_path": null}, {"cast_id": 4, "character": "Tamonin", "credit_id": "52fe48909251416c91090c9d", "gender": 2, "id": 82870, "name": "Ry\u016bnosuke Kaneda", "order": 3, "profile_path": null}, {"cast_id": 7, "character": "Eiko", "credit_id": "52fe48909251416c91090ca1", "gender": 0, "id": 553968, "name": "Mitsuko Ishii", "order": 4, "profile_path": null}, {"cast_id": 12, "character": "Chijiwa (uncredited)", "credit_id": "52fe48909251416c91090cb1", "gender": 2, "id": 237157, "name": "Hideji \u00d4taki", "order": 5, "profile_path": "/ehnqMNo67BkTHA0pU1DsGDRcmAC.jpg"}, {"cast_id": 14, "character": "", "credit_id": "5d3ebd6b21621b0012f3ee6e", "gender": 2, "id": 123379, "name": "Sh\u00f4go Shimada", "order": 7, "profile_path": "/nIg2gdgyBPPQhaHkjs5iIhNiKq0.jpg"}, {"cast_id": 15, "character": "", "credit_id": "5e2256548f26bc001175456f", "gender": 1, "id": 110300, "name": "Kin Sugai", "order": 8, "profile_path": "/w0OXsibm2sLfe9CVg9L6IJ8A7ep.jpg"}, {"cast_id": 16, "character": "", "credit_id": "5e225660cf4b8b0012f290e4", "gender": 0, "id": 1379323, "name": "Atsuko Ichinomiya", "order": 9, "profile_path": null}, {"cast_id": 17, "character": "", "credit_id": "5e22566a8f26bc00117545da", "gender": 0, "id": 590874, "name": "Kazuyo Mita", "order": 10, "profile_path": null}, {"cast_id": 18, "character": "", "credit_id": "5e225672397df0001699c3c0", "gender": 0, "id": 553968, "name": "Mitsuko Ishii", "order": 11, "profile_path": null}, {"cast_id": 19, "character": "", "credit_id": "5e22567a1bf2660016f7072f", "gender": 2, "id": 1248524, "name": "Yoriko D\u00f4guchi", "order": 12, "profile_path": "/5fTuDLpegSuo1Z09JZKh1pm0tzs.jpg"}, {"cast_id": 20, "character": "", "credit_id": "5e225685bfeb8b0013cfdfe3", "gender": 0, "id": 2042731, "name": "Maiko Minami", "order": 13, "profile_path": null}, {"cast_id": 21, "character": "", "credit_id": "5e22568e397df000129960d3", "gender": 0, "id": 554576, "name": "Fukumi Kuroda", "order": 14, "profile_path": "/6DbO20pVTiZg8pb4giAYkBCZgq8.jpg"}, {"cast_id": 22, "character": "", "credit_id": "5e2256988f26bc0011754655", "gender": 0, "id": 551772, "name": "Haruna Takase", "order": 15, "profile_path": null}, {"cast_id": 23, "character": "", "credit_id": "5e2256a2cf4b8b0012f29508", "gender": 0, "id": 142480, "name": "Tokuko Sugiyama", "order": 16, "profile_path": null}, {"cast_id": 24, "character": "", "credit_id": "5e2256b7bfeb8b0011cff629", "gender": 0, "id": 551769, "name": "Hiroko Seki", "order": 17, "profile_path": null}, {"cast_id": 25, "character": "", "credit_id": "5e2256c42811a10015a2c8a9", "gender": 0, "id": 1270079, "name": "Akari Uchida", "order": 18, "profile_path": null}, {"cast_id": 26, "character": "", "credit_id": "5e2256ce1bf2660016f7077f", "gender": 2, "id": 1198395, "name": "Yoshihiro Kat\u00f4", "order": 19, "profile_path": "/x12VRJhZIWFdlIjtd6QygBtDfyh.jpg"}, {"cast_id": 27, "character": "", "credit_id": "5e2256d88f26bc001574e2cd", "gender": 0, "id": 1978973, "name": "Mihoko Shibata", "order": 20, "profile_path": null}, {"cast_id": 28, "character": "", "credit_id": "5e2256eabfeb8b0015d01591", "gender": 2, "id": 106165, "name": "Eijir\u014d T\u014dno", "order": 21, "profile_path": "/p27Dd2L0rBEun5JwPYuXHmUQ9ok.jpg"}], "crew": [{"credit_id": "5e225796bfeb8b0015d01699", "department": "Production", "gender": 2, "id": 12234, "job": "Executive Producer", "name": "Nigel Sinclair", "profile_path": null}, {"credit_id": "5e2257a08f26bc001574e560", "department": "Sound", "gender": 0, "id": 58162, "job": "Music", "name": "Toshiyuki Honda", "profile_path": "/eXfuOKJHSBHGTbUsNLMjXe2qyKM.jpg"}, {"credit_id": "52fe48909251416c91090ca7", "department": "Directing", "gender": 2, "id": 69167, "job": "Director", "name": "Juzo Itami", "profile_path": "/358UEFKy8lBIgxjoGGSjwjYHTCT.jpg"}, {"credit_id": "5e22578bcf4b8b0012f29784", "department": "Production", "gender": 2, "id": 69167, "job": "Producer", "name": "Juzo Itami", "profile_path": "/358UEFKy8lBIgxjoGGSjwjYHTCT.jpg"}, {"credit_id": "52fe48909251416c91090cad", "department": "Writing", "gender": 2, "id": 69167, "job": "Writer", "name": "Juzo Itami", "profile_path": "/358UEFKy8lBIgxjoGGSjwjYHTCT.jpg"}, {"credit_id": "5e22577fbfeb8b0013cfe29b", "department": "Production", "gender": 0, "id": 70628, "job": "Producer", "name": "Seigo Hosogoe", "profile_path": null}, {"credit_id": "5e2257b42811a10017a315c8", "department": "Editing", "gender": 2, "id": 70632, "job": "Editor", "name": "Akira Suzuki", "profile_path": null}, {"credit_id": "5e2257be397df000129961d4", "department": "Costume & Make-Up", "gender": 0, "id": 553937, "job": "Makeup Artist", "name": "Etsuko Egawa", "profile_path": null}, {"credit_id": "5e2257cd1bf2660016f708ac", "department": "Sound", "gender": 0, "id": 1509190, "job": "Sound Designer", "name": "Masatoshi Sait\u00f4", "profile_path": null}, {"credit_id": "5e2257aacf4b8b0017f2729e", "department": "Camera", "gender": 0, "id": 2513184, "job": "Director of Photography", "name": "Zenko Yamazaki", "profile_path": null}]}}