{"adult": false, "backdrop_path": "/dMmFpi1G55rchJi56F24lasWTAZ.jpg", "belongs_to_collection": null, "budget": 0, "genres": [{"id": 18, "name": "Drama"}], "homepage": "http://www.mahleraufdercouch.de/", "id": 83209, "imdb_id": "tt1235537", "original_language": "de", "original_title": "Mahler auf der Couch", "overview": "Alma Mahler's affair with the young architect Walter Gropius sets in motion a marital drama that forces her husband Gustav Mahler to seek advice from Sigmund Freud.", "popularity": 1.4, "poster_path": "/1wlJ8UPkp1A1Gufk6uoVo1KJSw4.jpg", "production_companies": [], "production_countries": [{"iso_3166_1": "AT", "name": "Austria"}, {"iso_3166_1": "DE", "name": "Germany"}], "release_date": "2010-06-24", "revenue": 0, "runtime": 97, "spoken_languages": [{"iso_639_1": "de", "name": "Deutsch"}], "status": "Released", "tagline": "", "title": "Mahler on the Couch", "video": false, "vote_average": 7.0, "vote_count": 4, "keywords": {"keywords": [{"id": 1326, "name": "infidelity"}, {"id": 2833, "name": "psychoanalysis"}, {"id": 5565, "name": "biography"}, {"id": 6027, "name": "music"}]}, "similar": {"page": 1, "results": [{"id": 786, "video": false, "vote_count": 1485, "vote_average": 7.5, "title": "Almost Famous", "release_date": "2000-09-15", "original_language": "en", "original_title": "Almost Famous", "genre_ids": [18, 10402], "backdrop_path": "/zfucY8mxcrNeopFneyvyERZQah1.jpg", "adult": false, "overview": "In 1973, 15-year-old William Miller's unabashed love of music and aspiration to become a rock journalist lands him an assignment from Rolling Stone magazine to interview and tour with the up-and-coming band Stillwater\u2014fronted by lead guitar Russell Hammond, and lead singer Jeff Bebe.", "poster_path": "/9pNo92j6zSEAUB8pNmcJTkpnkBF.jpg", "popularity": 17.801}, {"adult": false, "backdrop_path": "/fk14EtkyfQP4j28OZCLRr7Zuz2t.jpg", "genre_ids": [18, 53], "id": 48231, "original_language": "en", "original_title": "A Dangerous Method", "overview": "Seduced by the challenge of an impossible case, the driven Dr. Carl Jung takes the unbalanced yet beautiful Sabina Spielrein as his patient. Jung\u2019s weapon is the method of his master, the renowned Sigmund Freud. Both men fall under Sabina\u2019s spell.", "poster_path": "/vKoP2wiyP71abIGxZ2oCmgnWG6K.jpg", "release_date": "2011-09-30", "title": "A Dangerous Method", "video": false, "vote_average": 6.3, "vote_count": 1182, "popularity": 17.689}, {"adult": false, "backdrop_path": "/urnGzQvP8fwWWGkn1k809KqIjbm.jpg", "genre_ids": [18], "id": 87093, "original_language": "en", "original_title": "Big Eyes", "overview": "The story of the awakening of painter, Margaret Keane, her phenomenal success in the 1950s, and the subsequent legal difficulties she had with her husband, who claimed credit for her works in the 1960s.", "poster_path": "/z2tqzprHojhgEGYKQepjU28oQg6.jpg", "release_date": "2014-12-24", "title": "Big Eyes", "video": false, "vote_average": 7.0, "vote_count": 2349, "popularity": 14.024}, {"id": 5915, "video": false, "vote_count": 6283, "vote_average": 7.8, "title": "Into the Wild", "release_date": "2007-09-11", "original_language": "en", "original_title": "Into the Wild", "genre_ids": [12, 18], "backdrop_path": "/9yJehIjvR7ULOLxeDJoth4kDDNe.jpg", "adult": false, "overview": "After graduating from Emory University in 1992, top student and athlete Christopher McCandless abandons his possessions, gives his entire $24,000 savings account to charity, and hitchhikes to Alaska to live in the wilderness.", "poster_path": "/lHyYgaocXR6KcJLxVmxZDj115hH.jpg", "popularity": 13.103}, {"id": 457799, "video": false, "vote_count": 1569, "vote_average": 7.0, "title": "Extremely Wicked, Shockingly Evil and Vile", "release_date": "2019-05-02", "original_language": "en", "original_title": "Extremely Wicked, Shockingly Evil and Vile", "genre_ids": [80, 18, 53], "backdrop_path": "/uRoA67sM5vvCI4cplxhl67BTPly.jpg", "adult": false, "overview": "A chronicle of the crimes of Ted Bundy, from the perspective of his longtime girlfriend, Elizabeth Kloepfer, who refused to believe the truth about him for years.", "poster_path": "/zSuJ3r5zr5T26tTxyygHhgkUAIM.jpg", "popularity": 20.961}, {"id": 396371, "video": false, "vote_count": 1968, "vote_average": 7.1, "title": "Molly's Game", "release_date": "2017-12-25", "original_language": "en", "original_title": "Molly's Game", "genre_ids": [80, 18], "backdrop_path": "/rHcBZ6ZKCe4FalWHyvBGsyMsh0k.jpg", "adult": false, "overview": "Molly Bloom, a young skier and former Olympic hopeful becomes a successful entrepreneur (and a target of an FBI investigation) when she establishes a high-stakes, international poker game.", "poster_path": "/in43bQ7k0ttr666IPP94IlbQbTR.jpg", "popularity": 18.118}, {"id": 369972, "video": false, "vote_count": 2999, "vote_average": 7.1, "title": "First Man", "release_date": "2018-10-11", "original_language": "en", "original_title": "First Man", "genre_ids": [18, 36], "backdrop_path": "/jrudoaXcoLyHRPdolyOGemXgPEs.jpg", "adult": false, "overview": "A look at the life of the astronaut, Neil Armstrong, and the legendary space mission that led him to become the first man to walk on the Moon on July 20, 1969.", "poster_path": "/i91mfvFcPPlaegcbOyjGgiWfZzh.jpg", "popularity": 33.506}, {"adult": false, "backdrop_path": "/jK3EAFk3GdOaQfUDCOiTujzMpwH.jpg", "genre_ids": [18], "id": 389015, "original_language": "en", "original_title": "I, Tonya", "overview": "Competitive ice skater Tonya Harding rises amongst the ranks at the U. S. Figure Skating Championships, but her future in the sport is thrown into doubt when her ex-husband intervenes.", "poster_path": "/6gNXwSHxaksR1PjVZRqNapmkgj3.jpg", "release_date": "2017-12-08", "title": "I, Tonya", "video": false, "vote_average": 7.5, "vote_count": 3327, "popularity": 19.513}, {"id": 318846, "video": false, "vote_count": 5226, "vote_average": 7.3, "title": "The Big Short", "release_date": "2015-12-11", "original_language": "en", "original_title": "The Big Short", "genre_ids": [35, 18], "backdrop_path": "/6UyMLbe0lAPqfZLtVllAwBNFIis.jpg", "adult": false, "overview": "The men who made millions from a global economic meltdown.", "poster_path": "/p11Ftd4VposrAzthkhF53ifYZRl.jpg", "popularity": 21.111}, {"id": 300671, "video": false, "vote_count": 1700, "vote_average": 7.1, "title": "13 Hours: The Secret Soldiers of Benghazi", "release_date": "2016-01-13", "original_language": "en", "original_title": "13 Hours: The Secret Soldiers of Benghazi", "genre_ids": [28, 18, 36, 53, 10752], "backdrop_path": "/hY8myWhjSOUeeiPskhOfwwgaCwc.jpg", "adult": false, "overview": "An American Ambassador is killed during an attack at a U.S. compound in Libya as a security team struggles to make sense out of the chaos.", "poster_path": "/4gpW4MkRI0BB17GHOJzXq0WamDP.jpg", "popularity": 21.078}, {"id": 6575, "video": false, "vote_count": 364, "vote_average": 6.6, "title": "Walk Hard: The Dewey Cox Story", "release_date": "2007-12-21", "original_language": "en", "original_title": "Walk Hard: The Dewey Cox Story", "genre_ids": [35, 18, 10402], "backdrop_path": "/y7EElGAn1tFE0Npmls7uvg4HPVj.jpg", "adult": false, "overview": "Following a childhood tragedy, Dewey Cox follows a long and winding road to music stardom. Dewey perseveres through changing musical styles, an addiction to nearly every drug known and bouts of uncontrollable rage.", "poster_path": "/2sc7qoLTqZC0nB2k1crwuVoKP6H.jpg", "popularity": 15.669}, {"id": 334543, "video": false, "vote_count": 4305, "vote_average": 8.1, "title": "Lion", "release_date": "2016-11-24", "original_language": "en", "original_title": "Lion", "genre_ids": [18], "backdrop_path": "/fgffluhvdOv79SkYaKrfRA0xkf4.jpg", "adult": false, "overview": "A five-year-old Indian boy gets lost on the streets of Calcutta, thousands of kilometers from home. He survives many challenges before being adopted by a couple in Australia; 25 years later, he sets out to find his lost family.", "poster_path": "/iBGRbLvg6kVc7wbS8wDdVHq6otm.jpg", "popularity": 36.395}, {"id": 424, "video": false, "vote_count": 8988, "vote_average": 8.6, "title": "Schindler's List", "release_date": "1993-11-30", "original_language": "en", "original_title": "Schindler's List", "genre_ids": [18, 36, 10752], "backdrop_path": "/cTNYRUTXkBgPH3wP3kmPUB5U6dA.jpg", "adult": false, "overview": "The true story of how businessman Oskar Schindler saved over a thousand Jewish lives from the Nazis while they worked as slaves in his factory during World War II.", "poster_path": "/yPisjyLweCl1tbgwgtzBCNCBle.jpg", "popularity": 25.457}, {"id": 424694, "video": false, "vote_count": 9721, "vote_average": 8.0, "title": "Bohemian Rhapsody", "release_date": "2018-10-24", "original_language": "en", "original_title": "Bohemian Rhapsody", "genre_ids": [18, 10402], "backdrop_path": "/93xA62uLd5CwMOAs37eQ7vPc1iV.jpg", "adult": false, "overview": "Singer Freddie Mercury, guitarist Brian May, drummer Roger Taylor and bass guitarist John Deacon take the music world by storm when they form the rock 'n' roll band Queen in 1970. Hit songs become instant classics. When Mercury's increasingly wild lifestyle starts to spiral out of control, Queen soon faces its greatest challenge yet \u2013 finding a way to keep the band together amid the success and excess.", "poster_path": "/lHu1wtNaczFPGFDTrjCSzeLPTKN.jpg", "popularity": 40.186}, {"adult": false, "backdrop_path": "/fJQ5kjLx4UdK05MC323Vlzwr6S8.jpg", "genre_ids": [35, 18, 36], "id": 140823, "original_language": "en", "original_title": "Saving Mr. Banks", "overview": "Author P.L. Travers travels from London to Hollywood as Walt Disney Pictures adapts her novel Mary Poppins for the big screen.", "poster_path": "/mvs3reS18RP6IhjLwwLeVtkoeg0.jpg", "release_date": "2013-11-16", "title": "Saving Mr. Banks", "video": false, "vote_average": 7.4, "vote_count": 2230, "popularity": 17.126}, {"id": 401847, "video": false, "vote_count": 664, "vote_average": 6.8, "title": "Can You Ever Forgive Me?", "release_date": "2018-10-19", "original_language": "en", "original_title": "Can You Ever Forgive Me?", "genre_ids": [35, 80, 18], "backdrop_path": "/shIOFWkjTn2NRvq5r4Mn2xLdZeJ.jpg", "adult": false, "overview": "When a bestselling celebrity biographer is no longer able to get published because she has fallen out of step with current tastes, she turns her art form to deception.", "poster_path": "/hPuZR2bFoV0kuBrA98exWyvTf40.jpg", "popularity": 18.675}, {"id": 316029, "video": false, "vote_count": 5849, "vote_average": 8.0, "title": "The Greatest Showman", "release_date": "2017-12-20", "original_language": "en", "original_title": "The Greatest Showman", "genre_ids": [18], "backdrop_path": "/zpq404Sk7qQ7N4x3xOeNgp74GtU.jpg", "adult": false, "overview": "The story of American showman P.T. Barnum, founder of the circus that became the famous traveling Ringling Bros. and Barnum & Bailey Circus.", "poster_path": "/b9CeobiihCx1uG1tpw8hXmpi7nm.jpg", "popularity": 33.03}, {"adult": false, "backdrop_path": "/43fnzmOMO5zOUFH3EzyuwSh87IS.jpg", "genre_ids": [18], "id": 45317, "original_language": "en", "original_title": "The Fighter", "overview": "The Fighter, is a drama about boxer \"Irish\" Micky Ward's unlikely road to the world light welterweight title. His Rocky-like rise was shepherded by half-brother Dicky, a boxer-turned-trainer who rebounded in life after nearly being KO'd by drugs and crime.", "poster_path": "/ytGIpdxYyvXwch5QILfquSTMA9f.jpg", "release_date": "2010-12-17", "title": "The Fighter", "video": false, "vote_average": 7.3, "vote_count": 2572, "popularity": 19.636}, {"adult": false, "backdrop_path": "/msOjpu9wigi6n1Xa51MeLcBue88.jpg", "genre_ids": [18, 36, 10752, 10749], "id": 468224, "original_language": "en", "original_title": "Tolkien", "overview": "England, early 20th century. The future writer and philologist John Ronald Reuel Tolkien (1892-1973) and three of his schoolmates create a strong bond between them as they share the same passion for literature and art, a true fellowship that strengthens as they grow up, but the outbreak of World War I threatens to shatter it.", "poster_path": "/A7eYO3t7oZQdfJj5KlJBI7GhT9H.jpg", "release_date": "2019-05-03", "title": "Tolkien", "video": false, "vote_average": 6.8, "vote_count": 450, "popularity": 13.09}, {"id": 399404, "video": false, "vote_count": 3039, "vote_average": 7.3, "title": "Darkest Hour", "release_date": "2017-11-22", "original_language": "en", "original_title": "Darkest Hour", "genre_ids": [18, 36], "backdrop_path": "/zXwFJMwvQcJFitP9GcHZvHAHGe8.jpg", "adult": false, "overview": "A thrilling and inspiring true story begins on the eve of World War II as, within days of becoming Prime Minister of Great Britain, Winston Churchill must face one of his most turbulent and defining trials: exploring a negotiated peace treaty with Nazi Germany, or standing firm to fight for the ideals, liberty and freedom of a nation. As the unstoppable Nazi forces roll across Western Europe and the threat of invasion is imminent, and with an unprepared public, a skeptical King, and his own party plotting against him, Churchill must withstand his darkest hour, rally a nation, and attempt to change the course of world history.", "poster_path": "/z0K8uoNbrYKkbaP7wIeadJ4BmSL.jpg", "popularity": 27.654}], "total_pages": 445, "total_results": 8887}, "recommendations": {"page": 1, "results": [], "total_pages": 1, "total_results": 0}, "credits": {"cast": [{"cast_id": 3, "character": "Gustav Mahler", "credit_id": "52fe48939251416c91091447", "gender": 2, "id": 23750, "name": "Johannes Silberschneider", "order": 0, "profile_path": "/wNoBsSTxoWuRYlr7o3zNI7AUdSf.jpg"}, {"cast_id": 4, "character": "Alma Mahler", "credit_id": "52fe48939251416c9109144b", "gender": 1, "id": 1079639, "name": "Barbara Romaner", "order": 1, "profile_path": "/vetUxh7IH2CaE5bv5D9HL6CUU6K.jpg"}, {"cast_id": 5, "character": "Sigmund Freud", "credit_id": "52fe48939251416c9109144f", "gender": 2, "id": 38459, "name": "Karl Markovics", "order": 2, "profile_path": "/9ryaqvn9VnqHE97stunzmyNEyaG.jpg"}, {"cast_id": 6, "character": "Walter Gropius", "credit_id": "52fe48939251416c91091453", "gender": 2, "id": 113999, "name": "Friedrich M\u00fccke", "order": 3, "profile_path": "/16ueh2HehCztkYjckbZaPt5Yb8b.jpg"}, {"cast_id": 7, "character": "Anna Sofie Schindler-Moll", "credit_id": "52fe48939251416c91091457", "gender": 1, "id": 10627, "name": "Eva Mattes", "order": 4, "profile_path": "/9qUzPuHrQ2DV64CycNJMUFq4YvB.jpg"}, {"cast_id": 8, "character": "Carl Moll", "credit_id": "52fe48939251416c9109145b", "gender": 2, "id": 16797, "name": "Karl Fischer", "order": 5, "profile_path": "/93b1fNVXKicTNGKwJEFtftwUege.jpg"}, {"cast_id": 9, "character": "Justine Mahler-Ros\u00e9", "credit_id": "52fe48939251416c9109145f", "gender": 1, "id": 36486, "name": "Lena Stolze", "order": 6, "profile_path": "/cquwrrIpr14j7Ri0psxHTCZMWkZ.jpg"}, {"cast_id": 10, "character": "Bruno Walter", "credit_id": "5919a363c3a3683fb6053755", "gender": 2, "id": 1221635, "name": "Michael Dangl", "order": 7, "profile_path": null}, {"cast_id": 11, "character": "Max Burckhard", "credit_id": "5a0a2626925141310f00a4d9", "gender": 2, "id": 1632907, "name": "Max Mayer", "order": 8, "profile_path": null}, {"cast_id": 12, "character": "Berta Zuckerkandl", "credit_id": "5aa0711d0e0a2641e001ad49", "gender": 1, "id": 1139352, "name": "Johanna Orsini-Rosenberg", "order": 9, "profile_path": null}], "crew": [{"credit_id": "52fe48939251416c9109143d", "department": "Directing", "gender": 2, "id": 32632, "job": "Director", "name": "Percy Adlon", "profile_path": "/dhcxBxW4PpRpkI5Act6qXshVdpI.jpg"}, {"credit_id": "52fe48939251416c91091443", "department": "Directing", "gender": 0, "id": 1028338, "job": "Director", "name": "Felix O. Adlon", "profile_path": null}]}}