{"adult": false, "backdrop_path": "/2RetW8Lzp902SSmYlmUIh7ZKqHX.jpg", "belongs_to_collection": null, "budget": 0, "genres": [{"id": 18, "name": "Drama"}, {"id": 10749, "name": "Romance"}], "homepage": null, "id": 83229, "imdb_id": "tt0092306", "original_language": "pt", "original_title": "\u00c0 Flor do Mar", "overview": "Laura Rossellini, a widow from Rome, vacations on the Algarve coast one hot summer. One day while sunbathing, she finds a wounded man named Robert drifting in the surf on a rubber raft. She takes him home, and, after he is revived, learns his story. As they talk, their mutual attraction grows, until a group of armed men suddenly arrives looking for Robert.", "popularity": 1.504, "poster_path": "/s2TML2N0AiJBWIMrQT7np5t5KdJ.jpg", "production_companies": [{"id": 23724, "logo_path": null, "name": "Instituto Portugu\u00eas de Cinema (IPC)", "origin_country": ""}], "production_countries": [{"iso_3166_1": "PT", "name": "Portugal"}], "release_date": "1986-10-02", "revenue": 0, "runtime": 143, "spoken_languages": [{"iso_639_1": "en", "name": "English"}, {"iso_639_1": "fr", "name": "Fran\u00e7ais"}, {"iso_639_1": "de", "name": "Deutsch"}, {"iso_639_1": "it", "name": "Italiano"}, {"iso_639_1": "pt", "name": "Portugu\u00eas"}], "status": "Released", "tagline": "", "title": "Hovering Over the Water", "video": false, "vote_average": 7.2, "vote_count": 7, "keywords": {"keywords": [{"id": 4129, "name": "widow"}, {"id": 6876, "name": "vacation"}]}, "similar": {"page": 1, "results": [{"adult": false, "backdrop_path": "/zQwWA1qMFsSuAVH7nVI04KegVpq.jpg", "genre_ids": [18, 10749], "id": 36731, "original_language": "en", "original_title": "The Roman Spring of Mrs. Stone", "overview": "Critics and the public say Karen Stone is too old -- as she approaches 50 -- for her role in a play she is about to take to Broadway. Her businessman husband, 20 years her senior, has been the angel for the play and gives her a way out: They are off to a holiday in Rome for his health. He suffers a fatal heart attack on the plane. Mrs. Stone stays in Rome. She leases a magnificent apartment with a view of the seven hills from the terrace. Then the contessa comes calling to introduce a young man named Paola to her. The contessa knows many presentable young men and lonely American widows.", "poster_path": "/wtrDkFd6px1Ya5asBKeu0kQ80Bl.jpg", "release_date": "1961-12-28", "title": "The Roman Spring of Mrs. Stone", "video": false, "vote_average": 7.4, "vote_count": 14, "popularity": 3.372}, {"adult": false, "backdrop_path": "/kOLz2b2s6K73twG2AlrPRV2ynNj.jpg", "genre_ids": [18, 10749], "id": 47724, "original_language": "en", "original_title": "Up at the Villa", "overview": "Superficial people are revealed and drastically changed by circumstance or luck in this a tale of death, seduction, blackmail and theft among British and Americans in Florence in the turbulent days just before World War II.", "poster_path": "/1WdR0dOb2ZhwyoqCN1owhqZ1M2I.jpg", "release_date": "2000-04-14", "title": "Up at the Villa", "video": false, "vote_average": 5.7, "vote_count": 13, "popularity": 3.727}, {"adult": false, "backdrop_path": "/4bHX7nAmjMiZO9eotJITyro0raw.jpg", "genre_ids": [18], "id": 376866, "original_language": "en", "original_title": "Jackie", "overview": "An account of the days of First Lady, Jacqueline Kennedy, in the immediate aftermath of John F. Kennedy's assassination in 1963.", "poster_path": "/iMkl2Akc1f4CSJCieVwczM4KjZR.jpg", "release_date": "2016-12-02", "title": "Jackie", "video": false, "vote_average": 6.5, "vote_count": 1554, "popularity": 12.598}, {"id": 484247, "video": false, "vote_count": 2294, "vote_average": 6.6, "title": "A Simple Favor", "release_date": "2018-08-29", "original_language": "en", "original_title": "A Simple Favor", "genre_ids": [35, 80, 18, 9648, 53], "backdrop_path": "/nb1s8r6MhDcPyMjx3sjw9rFsEP5.jpg", "adult": false, "overview": "Stephanie, a dedicated mother and popular vlogger, befriends Emily, a mysterious upper-class woman whose son Nicky attends the same school as Miles, Stephanie's son. When Emily asks her to pick Nicky up from school and then disappears, Stephanie undertakes an investigation that will dive deep into Emily's cloudy past.", "poster_path": "/aIYsjQM0piKc0ibPBCTWv3sqshj.jpg", "popularity": 19.481}, {"adult": false, "backdrop_path": "/8VyW7cJxsdnIfptbPjGCIX1StUe.jpg", "genre_ids": [10749, 18], "id": 1587, "original_language": "en", "original_title": "What's Eating Gilbert Grape", "overview": "Gilbert Grape is a small-town young man with a lot of responsibility. Chief among his concerns are his mother, who is so overweight that she can't leave the house, and his mentally impaired younger brother, Arnie, who has a knack for finding trouble. Settled into a job at a grocery store and an ongoing affair with local woman Betty Carver, Gilbert finally has his life shaken up by the free-spirited Becky.", "poster_path": "/jQLoOPwNxyILwDbdhn9DsfQz0Sg.jpg", "release_date": "1993-12-17", "title": "What's Eating Gilbert Grape", "video": false, "vote_average": 7.7, "vote_count": 2110, "popularity": 22.745}, {"adult": false, "backdrop_path": "/oZRsdp7H8ZIvo4ZH4IDOLpPjlMI.jpg", "genre_ids": [18, 27, 10402], "id": 13885, "original_language": "en", "original_title": "Sweeney Todd: The Demon Barber of Fleet Street", "overview": "The infamous story of Benjamin Barker, a.k.a Sweeney Todd, who sets up a barber shop down in London which is the basis for a sinister partnership with his fellow tenant, Mrs. Lovett. Based on the hit Broadway musical.", "poster_path": "/v2pOGxz1wi3plr9aT0zScH6Em4X.jpg", "release_date": "2007-12-20", "title": "Sweeney Todd: The Demon Barber of Fleet Street", "video": false, "vote_average": 7.1, "vote_count": 3603, "popularity": 23.858}, {"adult": false, "backdrop_path": "/fzoMp3OuwbvKTXosew49HwlQG65.jpg", "genre_ids": [18], "id": 254172, "original_language": "en", "original_title": "Fathers and Daughters", "overview": "A Pulitzer-winning writer grapples with being a widower and father after a mental breakdown, while, 27 years later, his grown daughter struggles to forge connections of her own.", "poster_path": "/fgzp7gGea27hN5d26mgKtZJQgX7.jpg", "release_date": "2015-10-01", "title": "Fathers and Daughters", "video": false, "vote_average": 7.2, "vote_count": 619, "popularity": 12.34}, {"adult": false, "backdrop_path": "/tR1RXbnkSvZq0sgx0Gyh3GmgYoB.jpg", "genre_ids": [80, 18, 53], "id": 21734, "original_language": "en", "original_title": "Shadow of a Doubt", "overview": "A bored teen living in Santa Rosa, California, Charlotte \"Charlie\" Newton, is frustrated because nothing seems to be happening in her life and that of her family. Then, she receives wonderful news: her uncle (for whom she was named), Charlie Oakley, is arriving for a visit. But Uncle Charlie may not be the man he seems to be.", "poster_path": "/ptyWagbWE8jSGyV2tGEzAdVbRCj.jpg", "release_date": "1943-01-15", "title": "Shadow of a Doubt", "video": false, "vote_average": 7.7, "vote_count": 446, "popularity": 14.275}, {"id": 80389, "video": false, "vote_count": 914, "vote_average": 6.5, "title": "Get the Gringo", "release_date": "2012-03-15", "original_language": "en", "original_title": "Get the Gringo", "genre_ids": [28, 80, 18, 53], "backdrop_path": "/ef76SZtJSZEplZ95uq5cWtaDnp1.jpg", "adult": false, "overview": "A career criminal (Gibson) nabbed by Mexican authorities is placed in a tough prison where he learns to survive with the help of a 9-year-old boy.", "poster_path": "/tHhJ5evvhy9G2g0NbkZHNeDz4UO.jpg", "popularity": 13.57}, {"id": 37257, "video": false, "vote_count": 588, "vote_average": 8.3, "title": "Witness for the Prosecution", "release_date": "1957-12-17", "original_language": "en", "original_title": "Witness for the Prosecution", "genre_ids": [80, 18, 9648], "backdrop_path": "/kazLzEofKKr7pBcvKw6VRtFnXRJ.jpg", "adult": false, "overview": "When Leonard Vole is arrested for the sensational murder of a rich, middle-aged widow, the famous Sir Wilfrid Robarts agrees to appear on his behalf. Sir Wilfrid, recovering from a near-fatal heart attack, is supposed to be on a diet of bland, civil suits\u2014but the lure of the criminal courts is too much for him, especially when the case is so difficult.", "poster_path": "/heY0CCUqN4DY3X30thssZkvWZwx.jpg", "popularity": 11.587}, {"id": 8461, "video": false, "vote_count": 1137, "vote_average": 6.5, "title": "Funny Games", "release_date": "2007-10-20", "original_language": "en", "original_title": "Funny Games", "genre_ids": [80, 18, 27, 53], "backdrop_path": "/x0IvYeF88qYoKkigRjJ9CiyfY6b.jpg", "adult": false, "overview": "When Ann, husband George, and son Georgie arrive at their holiday home they are visited by a pair of polite and seemingly pleasant young men. Armed with deceptively sweet smiles and some golf clubs, they proceed to terrorize and torture the tight-knit clan, giving them until the next day to survive.", "poster_path": "/eyYqrggNEJpoqulbyaDBW2ABjwO.jpg", "popularity": 14.742}, {"adult": false, "backdrop_path": "/g8G91vbvyUqnyFSlVruwiaZsUrn.jpg", "genre_ids": [18], "id": 458737, "original_language": "en", "original_title": "First Reformed", "overview": "A pastor of a small church in upstate New York starts to spiral out of control after a soul-shaking encounter with an unstable environmental activist and his pregnant wife.", "poster_path": "/p2UylV0hPefEuWPFMo1r56vu2nb.jpg", "release_date": "2018-05-18", "title": "First Reformed", "video": false, "vote_average": 7.0, "vote_count": 577, "popularity": 11.112}, {"id": 65916, "video": false, "vote_count": 5, "vote_average": 6.8, "title": "From Subway with Love", "release_date": "2005-04-14", "original_language": "cs", "original_title": "Rom\u00e1n pro \u017eeny", "genre_ids": [35, 10749], "backdrop_path": "/9wEfV38rZ5YZSw23g1Q2d20gWOp.jpg", "adult": false, "overview": "This romantic comedy presents a story of two women, twenty-year-old Laura, an editor at a woman\u2019s weekly, and her widowed mother, a translator-interpreter named Jana. The two of them tirelessly seek Mr. Right. Having once lived through an intense relationship with a \u2018typical\u2019 Czech man, Jana intentionally avoids Czech men. She searches for her dream foreigner while long-sufferingly warding off the tragicomic advances of her good-natured neighbor \u017demla. After several unsuccessful attempts, Laura falls in love with Oliver, a forty year old who works as an ad agency idea man. Little does she suspect that twenty years ago Oliver was Jana\u2019s true love\u2026", "poster_path": "/1XJzdZcVrx8UsUzsw6RzyGYWCv0.jpg", "popularity": 2.255}, {"id": 524247, "video": false, "vote_count": 168, "vote_average": 6.3, "title": "The Intruder", "release_date": "2019-05-03", "original_language": "en", "original_title": "The Intruder", "genre_ids": [18, 9648, 53], "backdrop_path": "/kyegg1r5oxRCZgqU7anHYD2TJap.jpg", "adult": false, "overview": "A psychological thriller about a young married couple who buys a beautiful Napa Valley house on several acres of land only to find that the man they bought it from refuses to let go of the property.", "poster_path": "/p9xKyetr0ihJ2K6HJMeXzc4IwEv.jpg", "popularity": 14.609}, {"adult": false, "backdrop_path": "/uBuMVTfwFKhSUOHM94tSFIZM4lm.jpg", "genre_ids": [35, 18], "id": 403, "original_language": "en", "original_title": "Driving Miss Daisy", "overview": "The story of an old Jewish widow named Daisy Werthan and her relationship with her black chauffeur Hoke. From an initial mere work relationship grew in 25 years a strong friendship between the two very different characters in a time when those types of relationships where shunned upon. Oscar winning tragic comedy with a star-studded cast and based on a play of the same name by Alfred Uhry.", "poster_path": "/iaCzvcY42HihFxQBTZCTKMpsI0P.jpg", "release_date": "1989-12-13", "title": "Driving Miss Daisy", "video": false, "vote_average": 7.3, "vote_count": 761, "popularity": 10.778}, {"id": 324807, "video": false, "vote_count": 427, "vote_average": 6.2, "title": "A Bigger Splash", "release_date": "2015-11-26", "original_language": "en", "original_title": "A Bigger Splash", "genre_ids": [80, 18, 9648, 53], "backdrop_path": "/nQ19ItLrQvLGDD3tcc6Cnt2TmDc.jpg", "adult": false, "overview": "An American couple, Paul and Marianne, spend their vacation in Italy and experiences trouble when the wife invites a former lover and his teenage daughter to visit, which leads to jealousy and dangerous sexual scenarios.", "poster_path": "/uMJhOiPpSuDFbJc5z6c8hD9h8CQ.jpg", "popularity": 13.313}, {"id": 802, "video": false, "vote_count": 1029, "vote_average": 7.4, "title": "Lolita", "release_date": "1962-06-13", "original_language": "en", "original_title": "Lolita", "genre_ids": [18, 10749], "backdrop_path": "/5N7Kl2ekPad4hY77liQxlO9vqMS.jpg", "adult": false, "overview": "Humbert Humbert is a middle-aged British novelist who is both appalled by and attracted to the vulgarity of American culture. When he comes to stay at the boarding house run by Charlotte Haze, he soon becomes obsessed with Lolita, the woman's teenaged daughter.", "poster_path": "/qec7MIvPSgqc1sQ5lPJhKCjJfjw.jpg", "popularity": 16.56}, {"id": 37786, "video": false, "vote_count": 906, "vote_average": 5.9, "title": "Sex and the City 2", "release_date": "2010-05-26", "original_language": "en", "original_title": "Sex and the City 2", "genre_ids": [35, 18, 10749], "backdrop_path": "/eTqhyet6Et1VPscpeFMozrfkKOD.jpg", "adult": false, "overview": "Carrie, Charlotte, and Miranda are all married now, but they're still up for a little fun in the sun. When Samantha gets the chance to visit one of the most extravagant vacation destinations on the planet and offers to bring them all along, they surmise that a women-only retreat may be the perfect excuse to eschew their responsibilities and remember what life was like before they decided to settle down.", "poster_path": "/pU8sKmxS5NorwjQc4OzW0zsoggA.jpg", "popularity": 13.04}, {"adult": false, "backdrop_path": "/aJBZSAmTyTFCQ6vYc2O9Tr4uLrS.jpg", "genre_ids": [35, 10749], "id": 12090, "original_language": "en", "original_title": "Just Married", "overview": "Tom Leezak and Sarah McNerney fall in love and plan to get married, despite opposition from Sarah's uptight, rich family. When they do get married, and get a chance to prove Sarah's family wrong, they go on a European honeymoon and run into disaster after disaster. They have to decide whether the honeymoon from hell and a few pre-marital mistakes are worth throwing away their love and marriage.", "poster_path": "/gDneQpVlwrotAx2GXju3OGt7Qgo.jpg", "release_date": "2003-01-09", "title": "Just Married", "video": false, "vote_average": 5.5, "vote_count": 767, "popularity": 13.225}, {"id": 2362, "video": false, "vote_count": 665, "vote_average": 6.8, "title": "Westworld", "release_date": "1973-11-21", "original_language": "en", "original_title": "Westworld", "genre_ids": [28, 12, 18, 27, 878, 53, 37], "backdrop_path": "/ut1svoui5yDO58PoSV7BC00udpj.jpg", "adult": false, "overview": "In a futuristic resort, wealthy patrons can visit recreations of different time periods and experience their wildest fantasies with life-like robots. But when Richard Benjamin opts for the wild west, he gets more than he bargained for when a gunslinger robot goes berserk.", "poster_path": "/cOJsaT8jEmG9s1MziVIPpHBRpQ7.jpg", "popularity": 14.485}], "total_pages": 21, "total_results": 420}, "recommendations": {"page": 1, "results": [{"adult": false, "backdrop_path": "/vK3FyVKMqaJNyFoOqkxQw7pzUv.jpg", "genre_ids": [18], "id": 49473, "original_language": "tr", "original_title": "Koza", "overview": "Koza (Cocoon) is a wordless, non-narrative succession of mystical, pastoral images. The three human characters are an old man, an old woman, and a young boy, who wander among the natural wonders and give the camera soulful looks.", "poster_path": "/rHzb7ivEhuzvRwbT7XtMw0ZDjg2.jpg", "release_date": "1995-05-01", "title": "Cocoon", "video": false, "vote_average": 6.3, "vote_count": 17, "popularity": 1.603}, {"adult": false, "backdrop_path": null, "genre_ids": [99], "id": 105581, "original_language": "ja", "original_title": "\u6771\u4eac1958", "overview": "Eight filmmakers collaborate with Teshigahara to bring a newsreel-style snapshot of Tokyo in 1957-58, when it had eight and a half million people and was the largest city in the world.", "poster_path": null, "release_date": "1958-04-24", "title": "Tokyo 1958", "video": false, "vote_average": 6.6, "vote_count": 7, "popularity": 2.223}, {"adult": false, "backdrop_path": "/amm4fPLPN9UVdKpYgq4pVvil6qr.jpg", "genre_ids": [18], "id": 105582, "original_language": "ja", "original_title": "Ako", "overview": "A day in the life of Ako, a 16 year old Japanese girl, and her friends and co-workers. An alarm clock wakes her in a dorm; she gets ready for work and travels to a large bakery. We see her with friends, chatting and laughing, as well as working. They go out, seven of them jammed in an old Pontiac: bowling, then to an amusement park, then driving around. Car trouble may put her at risk. Is she going to be okay?", "poster_path": "/ceZuvg7A03pGqEwOagbA2ng19LQ.jpg", "release_date": "1965-01-01", "title": "Ako", "video": false, "vote_average": 7.1, "vote_count": 8, "popularity": 1.513}, {"id": 59239, "video": false, "vote_count": 20, "vote_average": 7.3, "title": "The Cloud-Capped Star", "release_date": "1960-04-13", "original_language": "bn", "original_title": "\u09ae\u09c7\u0998\u09c7 \u09a2\u09be\u0995\u09be \u09a4\u09be\u09b0\u09be", "genre_ids": [18], "backdrop_path": "/bIXIVaFCuA1tSnctg6Vl5JzuSrC.jpg", "adult": false, "overview": "The tragic story of the beautiful daughter of a middle-class refugee family from East Pakistan. Neeta, the protagonist, sacrifices everything for her unappreciative family.", "poster_path": "/zHcp7d8yMlxSbPP43V1v9DJnRoU.jpg", "popularity": 3.802}, {"adult": false, "backdrop_path": "/5TyfUFEX48VenNoxJBMMb91qkka.jpg", "genre_ids": [18, 80], "id": 78450, "original_language": "zh", "original_title": "\u6050\u6016\u5206\u5b50", "overview": "The lives of a couple, an amateur photographer and an injured girl intertwine.", "poster_path": "/lGtPSH9Ggh8cbbU22IoiomfaJg4.jpg", "release_date": "1986-01-01", "title": "The Terrorizers", "video": false, "vote_average": 7.1, "vote_count": 30, "popularity": 4.47}, {"id": 90560, "video": false, "vote_count": 23, "vote_average": 7.5, "title": "Red Angel", "release_date": "1966-10-01", "original_language": "ja", "original_title": "\u8d64\u3044\u5929\u4f7f", "genre_ids": [18, 10752], "backdrop_path": "/prTocmBjccrFXmko4rKGCswfcxZ.jpg", "adult": false, "overview": "In 1939, Sakura Nishi is a young army nurse who is sent to the field hospitals in China during the Sino-Japanese war. She has to assist the surgeon Dr. Okabe with an incredible number of amputations. In the crowded wards, she gives sympathy to some of the soldiers, including sexually servicing one who has lost both arms and has no hope of returning home. She falls in love with Dr. Okabe, and follows him to the front, even though he is impotent from his morphine addiction", "poster_path": "/ci0WIBCFoIrtN3q1alk8KUW52n2.jpg", "popularity": 2.816}, {"id": 104901, "video": false, "vote_count": 7, "vote_average": 5.6, "title": "From the Notebook of...", "release_date": "2000-09-08", "original_language": "en", "original_title": "From the Notebook of...", "genre_ids": [99], "backdrop_path": "/1O5uSHfxed83l8iDGR0vQHPwBh4.jpg", "adult": false, "overview": "From the Notebook Of... was shot in Florence and takes as its point of departure Leonardo da Vinci's notebooks and Paul Val\u00e9ry's essay on da Vinci's process. These two elements suggest an implicit comparison between the treatment of space in Renaissance art and the moving image. The film marks a critical development in the artist's work in that he repeatedly employs a series of rapid pans and upward tilts along the city's buildings or facades, often integrating glimpses of his own face. As Beavers notes in his writing on the film, the camera movements are tied to the filmmakers' presence and suggests his investigative gaze.", "poster_path": "/zyxzHwHoyuxuV1qPhUkQ6z0z1hp.jpg", "popularity": 3.345}], "total_pages": 1, "total_results": 7}, "credits": {"cast": [{"cast_id": 2, "character": "Laura Rossellini", "credit_id": "565fbd1e925141791800149a", "gender": 1, "id": 56654, "name": "Laura Morante", "order": 0, "profile_path": "/AgidnVEP8Xpfph6B1RPes1bBjwx.jpg"}, {"cast_id": 3, "character": "Robert Jordan", "credit_id": "565fbd2e925141790a0015d7", "gender": 0, "id": 1544222, "name": "Philip J. Spinelli", "order": 1, "profile_path": null}, {"cast_id": 4, "character": "Sara", "credit_id": "565fbd37c3a36875f900192f", "gender": 0, "id": 536709, "name": "Manuela de Freitas", "order": 2, "profile_path": null}, {"cast_id": 5, "character": "Antoine", "credit_id": "565fbd42925141790f0015f3", "gender": 2, "id": 25062, "name": "Georges Claisse", "order": 3, "profile_path": "/aQKmG6aDPVgx8ltolX2HaMIYh4A.jpg"}, {"cast_id": 6, "character": "Rosa", "credit_id": "565fbd4cc3a36875f400150d", "gender": 1, "id": 588808, "name": "Teresa Villaverde", "order": 4, "profile_path": "/am7KxLVu2BAMsATYM83tZjQIlgL.jpg"}, {"cast_id": 7, "character": "Roberto", "credit_id": "565fbd5492514179180014aa", "gender": 0, "id": 1544223, "name": "S\u00e9rgio Antunes", "order": 5, "profile_path": null}, {"cast_id": 26, "character": "Maria", "credit_id": "5c4b54d50e0a263ccdd0f7ff", "gender": 1, "id": 2226178, "name": "Rita Figueiredo", "order": 6, "profile_path": null}, {"cast_id": 9, "character": "Senhora Am\u00e9lia", "credit_id": "565fbd6b925141790c001550", "gender": 0, "id": 1431879, "name": "Concei\u00e7\u00e3o Senna", "order": 7, "profile_path": null}, {"cast_id": 10, "character": "", "credit_id": "565fbd7892514122040007a9", "gender": 0, "id": 1544225, "name": "Haddy Moss", "order": 8, "profile_path": null}, {"cast_id": 11, "character": "", "credit_id": "565fbd7f9251417904001533", "gender": 0, "id": 1544226, "name": "Gerd Volkmar", "order": 9, "profile_path": null}, {"cast_id": 12, "character": "2nd Terrorist", "credit_id": "565fbd8ac3a36875ed001496", "gender": 0, "id": 1544227, "name": "Frederick Ooms", "order": 10, "profile_path": null}, {"cast_id": 13, "character": "Head Terrorist", "credit_id": "565fbd97c3a36875f100156f", "gender": 0, "id": 1544225, "name": "Haddy Moss", "order": 11, "profile_path": null}, {"cast_id": 14, "character": "1st Terrorist", "credit_id": "565fbd9cc3a36875ed00149b", "gender": 0, "id": 1544226, "name": "Gerd Volkmar", "order": 12, "profile_path": null}, {"cast_id": 15, "character": "Stavroguine", "credit_id": "565fbda992514122040007b8", "gender": 2, "id": 257772, "name": "Jo\u00e3o C\u00e9sar Monteiro", "order": 13, "profile_path": "/k35LrTkpgK4dLiDgOKSWt0ZyJ2b.jpg"}], "crew": [{"credit_id": "598826e2925141059d021f43", "department": "Sound", "gender": 0, "id": 22204, "job": "Sound Mixer", "name": "Jean-Fran\u00e7ois Auger", "profile_path": null}, {"credit_id": "5988268c9251413cfc02b7e2", "department": "Writing", "gender": 2, "id": 257772, "job": "Screenplay", "name": "Jo\u00e3o C\u00e9sar Monteiro", "profile_path": "/k35LrTkpgK4dLiDgOKSWt0ZyJ2b.jpg"}, {"credit_id": "52fe48949251416c910916bb", "department": "Directing", "gender": 2, "id": 257772, "job": "Director", "name": "Jo\u00e3o C\u00e9sar Monteiro", "profile_path": "/k35LrTkpgK4dLiDgOKSWt0ZyJ2b.jpg"}, {"credit_id": "59882695c3a3681e2a01b8c2", "department": "Production", "gender": 2, "id": 257772, "job": "Producer", "name": "Jo\u00e3o C\u00e9sar Monteiro", "profile_path": "/k35LrTkpgK4dLiDgOKSWt0ZyJ2b.jpg"}, {"credit_id": "598826f3c3a368371901e54b", "department": "Sound", "gender": 2, "id": 940810, "job": "Sound Designer", "name": "Joaquim Pinto", "profile_path": "/bJ8JGf7MV2Qyp13Dzq9ZsaOUerB.jpg"}, {"credit_id": "59882705c3a3681df001904d", "department": "Sound", "gender": 2, "id": 1037498, "job": "Foley", "name": "J\u00e9r\u00f4me L\u00e9vy", "profile_path": null}, {"credit_id": "598826a1925141528401bd76", "department": "Camera", "gender": 2, "id": 1112003, "job": "Director of Photography", "name": "Ac\u00e1cio de Almeida", "profile_path": "/yB1mU5Sj7CYKOtXTstMQ8MwWMx8.jpg"}, {"credit_id": "598826afc3a3683287029d90", "department": "Editing", "gender": 0, "id": 1281227, "job": "Editor", "name": "Manuela Viegas", "profile_path": null}, {"credit_id": "598826eac3a368375f0203e4", "department": "Sound", "gender": 2, "id": 1281664, "job": "Sound Designer", "name": "Vasco Pimentel", "profile_path": "/97gSl9dvcFTkWCxbvZP6By7SgaU.jpg"}, {"credit_id": "598826b7c3a3680d51024667", "department": "Editing", "gender": 0, "id": 1322547, "job": "Editor", "name": "Leonor Guterres", "profile_path": null}, {"credit_id": "598826c89251413d1802ba44", "department": "Editing", "gender": 0, "id": 1865040, "job": "Editor", "name": "Marina Carvalho", "profile_path": null}]}}