{"adult": false, "backdrop_path": "/gE5MpoMbLJ6A8ODMNTKUTvCQOsn.jpg", "belongs_to_collection": null, "budget": 0, "genres": [{"id": 18, "name": "Drama"}], "homepage": null, "id": 8343, "imdb_id": "tt0493395", "original_language": "en", "original_title": "Badland", "overview": "Jerry (Jamie Draven) was an idealist when he served in the first Gulf War. But when he was later deployed to Iraq, Jerry was an older man, a father of three and embittered by broken promises and unfulfilled desires. When Jerry returns from Iraq he has been transformed by horrors that cannot be forgiven. He lives a life of poverty, his children afraid of him and his wife, Nora (Vinessa Shaw), unsympathetic and unhappy. When Jerry discovers that Nora has betrayed him, his anger and despair drive him to commit an act so heinous and irreversible that nothing he had experienced in combat could have prepared him for.", "popularity": 5.872, "poster_path": "/qnziSm0PIWRssFSy3y4HtFC0kg5.jpg", "production_companies": [{"id": 2384, "logo_path": null, "name": "Badland Corporation", "origin_country": ""}], "production_countries": [{"iso_3166_1": "US", "name": "United States of America"}], "release_date": "2007-11-30", "revenue": 0, "runtime": 160, "spoken_languages": [{"iso_639_1": "en", "name": "English"}], "status": "Released", "tagline": "", "title": "Badland", "video": false, "vote_average": 7.0, "vote_count": 6, "keywords": {"keywords": [{"id": 378, "name": "prison"}, {"id": 1333, "name": "desperation"}, {"id": 2754, "name": "trauma"}, {"id": 3030, "name": "nightmare"}, {"id": 3588, "name": "navy"}, {"id": 4183, "name": "wife"}, {"id": 4580, "name": "van"}, {"id": 5599, "name": "epistaxis"}, {"id": 5939, "name": "iraq"}, {"id": 7158, "name": "war in afghanistan"}, {"id": 10508, "name": "teacher"}, {"id": 13065, "name": "soldier"}, {"id": 14837, "name": "rage"}, {"id": 18035, "name": "family"}]}, "similar": {"page": 1, "results": [{"id": 339692, "video": false, "vote_count": 1163, "vote_average": 6.9, "title": "Shot Caller", "release_date": "2017-07-13", "original_language": "en", "original_title": "Shot Caller", "genre_ids": [80, 18, 53], "backdrop_path": "/hehboYLXB3m90x9ybiBsupwuifL.jpg", "adult": false, "overview": "A newly-released prison gangster is forced by the leaders of his gang to orchestrate a major crime with a brutal rival gang on the streets of Southern California.", "poster_path": "/qLmLz2wtyYvmW8Ult3l2ngOnW8v.jpg", "popularity": 25.016}, {"id": 73, "video": false, "vote_count": 6716, "vote_average": 8.4, "title": "American History X", "release_date": "1998-10-30", "original_language": "en", "original_title": "American History X", "genre_ids": [18], "backdrop_path": "/i9A0UMFg1hI2kLyCCwnmSbpT2cd.jpg", "adult": false, "overview": "Derek Vineyard is paroled after serving 3 years in prison for killing two thugs who tried to break into/steal his truck. Through his brother, Danny Vineyard's narration, we learn that before going to prison, Derek was a skinhead and the leader of a violent white supremacist gang that committed acts of racial crime throughout L.A. and his actions greatly influenced Danny. Reformed and fresh out of prison, Derek severs contact with the gang and becomes determined to keep Danny from going down the same violent path as he did.", "poster_path": "/fXepRAYOx1qC3wju7XdDGx60775.jpg", "popularity": 26.132}, {"adult": false, "backdrop_path": "/5UhVmv70qTfy7YSf8r87kNXWxjK.jpg", "genre_ids": [18, 53, 9648], "id": 638, "original_language": "en", "original_title": "Lost Highway", "overview": "A tormented jazz musician finds himself lost in an enigmatic story involving murder, surveillance, gangsters, doppelgangers, and an impossible transformation inside a prison cell.", "poster_path": "/z6yhgEzGUJaBBgAxoyggRzwLnVM.jpg", "release_date": "1997-01-15", "title": "Lost Highway", "video": false, "vote_average": 7.6, "vote_count": 1277, "popularity": 16.545}, {"id": 12162, "video": false, "vote_count": 3372, "vote_average": 7.3, "title": "The Hurt Locker", "release_date": "2008-10-10", "original_language": "en", "original_title": "The Hurt Locker", "genre_ids": [18, 53, 10752], "backdrop_path": "/3iPnZOXR9mpcK8RwvAW7b7Axr8v.jpg", "adult": false, "overview": "Forced to play a dangerous game of cat-and-mouse in the chaos of war, an elite Army bomb squad unit must come together in a city where everyone is a potential enemy and every object could be a deadly bomb.", "poster_path": "/3ZEqU9Ykmn8zGDUwWnmTfHaaWRB.jpg", "popularity": 20.71}, {"id": 9373, "video": false, "vote_count": 1413, "vote_average": 6.1, "title": "The Texas Chainsaw Massacre", "release_date": "2003-05-21", "original_language": "en", "original_title": "The Texas Chainsaw Massacre", "genre_ids": [27], "backdrop_path": "/3rTsJ7tIC3LUSRr80PfeLbbCfBA.jpg", "adult": false, "overview": "After picking up a traumatized young hitchhiker, five friends find themselves stalked and hunted by a deformed chainsaw-wielding killer and his family of equally psychopathic killers.", "poster_path": "/gx7FCIOFGxqNyplF3t7qtmUv55g.jpg", "popularity": 17.769}, {"id": 348893, "video": false, "vote_count": 521, "vote_average": 6.2, "title": "Boyka: Undisputed IV", "release_date": "2016-08-01", "original_language": "en", "original_title": "Boyka: Undisputed IV", "genre_ids": [28, 80, 53], "backdrop_path": "/5dLLiR8IUT7T0r5HVcvRlItNWTn.jpg", "adult": false, "overview": "In the fourth installment of the fighting franchise, Boyka is shooting for the big leagues when an accidental death in the ring makes him question everything he stands for. When he finds out the wife of the man he accidentally killed is in trouble, Boyka offers to fight in a series of impossible battles to free her from a life of servitude", "poster_path": "/mWiqc87iTs1qujxm2Q0NRzGvWSN.jpg", "popularity": 32.403}, {"id": 4421, "video": false, "vote_count": 864, "vote_average": 6.3, "title": "G.I. Jane", "release_date": "1997-08-19", "original_language": "en", "original_title": "G.I. Jane", "genre_ids": [28, 18], "backdrop_path": "/b1x0SSMl4MEj0gbEBaVssp0FgqN.jpg", "adult": false, "overview": "A female Senator succeeds in enrolling a woman into Combined Reconnaissance Team training where everyone expects her to fail.", "poster_path": "/yf4zJg6ACAhH4fkHSdEDrBUuEyg.jpg", "popularity": 15.826}, {"id": 1247, "video": false, "vote_count": 597, "vote_average": 6.4, "title": "The Good Shepherd", "release_date": "2006-12-11", "original_language": "en", "original_title": "The Good Shepherd", "genre_ids": [18, 36, 53], "backdrop_path": "/3qvtPTzdeV5cJFBpJO56KFAkF4d.jpg", "adult": false, "overview": "Edward Wilson, the only witness to his father's suicide and member of the Skull and Bones Society while a student at Yale, is a morally upright young man who values honor and discretion, qualities that help him to be recruited for a career in the newly founded OSS. His dedication to his work does not come without a price though, leading him to sacrifice his ideals and eventually his family.", "poster_path": "/s2RYkRXrjUIyOlmzym37kpLTKRz.jpg", "popularity": 15.358}, {"adult": false, "backdrop_path": "/mJpepArAQPc14jprmaBEGbny2y8.jpg", "genre_ids": [28, 12, 35], "id": 6415, "original_language": "en", "original_title": "Three Kings", "overview": "A group of American soldiers stationed in Iraq at the end of the Gulf War find a map they believe will take them to a huge cache of stolen Kuwaiti gold hidden near their base, and they embark on a secret mission that's destined to change everything.", "poster_path": "/wvNga0QP6RWMRday7KgmTBbErwz.jpg", "release_date": "1999-09-27", "title": "Three Kings", "video": false, "vote_average": 6.6, "vote_count": 1173, "popularity": 17.939}, {"id": 164457, "video": false, "vote_count": 1185, "vote_average": 6.6, "title": "Out of the Furnace", "release_date": "2013-12-06", "original_language": "en", "original_title": "Out of the Furnace", "genre_ids": [80, 18, 53], "backdrop_path": "/nmd0rRg0IcNaJRCTgHqyyN0oIDv.jpg", "adult": false, "overview": "Two brothers live in the economically-depressed Rust Belt, when a cruel twist of fate lands one in prison. His brother is then lured into one of the most violent crime rings in the Northeast.", "poster_path": "/uzAdwkg8jJZaILUmhqMVup8gEyy.jpg", "popularity": 12.875}, {"id": 7859, "video": false, "vote_count": 467, "vote_average": 6.7, "title": "Half Nelson", "release_date": "2006-08-11", "original_language": "en", "original_title": "Half Nelson", "genre_ids": [18], "backdrop_path": "/aJjv8ilvaf7kmN4Fy0Q1d0Ga2pq.jpg", "adult": false, "overview": "Despite his dedication to the junior-high students who fill his classroom, idealistic teacher Dan Dunne leads a secret life of addiction that the majority of his students will never know. But things change when a troubled student Drey makes a startling discovery of his secret life, causing a tenuous bond between the two that could either end disastrously or provide a catalyst of hope.", "poster_path": "/eWkthzAl4NSEFlKHo3FU36O6NYk.jpg", "popularity": 8.017}, {"id": 405775, "video": false, "vote_count": 453, "vote_average": 6.1, "title": "The Wall", "release_date": "2017-05-12", "original_language": "en", "original_title": "The Wall", "genre_ids": [18, 53, 10752], "backdrop_path": "/eDw3ydtUpCE541mBFnEnSHyYuaH.jpg", "adult": false, "overview": "An American sniper and his spotter engage in a deadly cat-and-mouse game with an Iraqi sniper.", "poster_path": "/8POAZwZpp24l1IgKKM8ZRAQ2kid.jpg", "popularity": 12.711}, {"adult": false, "backdrop_path": "/4Go5HxldJxtoNAMEm1ZPkxG6ADl.jpg", "genre_ids": [27], "id": 441701, "original_language": "es", "original_title": "Ver\u00f3nica", "overview": "Madrid, June 1991. After celebrating a session of Ouija with her friends, Ver\u00f3nica is besieged by dangerous supernatural presences that threaten to harm her entire family.", "poster_path": "/jXcTF45BwAGVVfybWb3AlFqcuUc.jpg", "release_date": "2017-08-25", "title": "Veronica", "video": false, "vote_average": 6.1, "vote_count": 951, "popularity": 11.888}, {"id": 827, "video": false, "vote_count": 435, "vote_average": 7.9, "title": "Diabolique", "release_date": "1955-01-29", "original_language": "fr", "original_title": "Les Diaboliques", "genre_ids": [18, 27, 53], "backdrop_path": "/oMpX8thZFDVZNS4j240HYSMMvyg.jpg", "adult": false, "overview": "The cruel and abusive headmaster of a boarding school, Michel Delassalle, is murdered by an unlikely duo -- his meek wife and the mistress he brazenly flaunts. The women become increasingly unhinged by a series of odd occurrences after Delassalle's corpse mysteriously disappears.", "poster_path": "/mNaL2CFsABXJKmnst1V2X2Or3Go.jpg", "popularity": 8.84}, {"id": 35052, "video": false, "vote_count": 204, "vote_average": 6.7, "title": "Cracks", "release_date": "2009-12-04", "original_language": "en", "original_title": "Cracks", "genre_ids": [18, 9648, 53], "backdrop_path": "/6rWMFj9HrlJWzsLOCZJyl3HR6VJ.jpg", "adult": false, "overview": "Jealousy flares after the headmistress of an elite boarding school for girls becomes obsessed with a new student.", "poster_path": "/2zpNd8qPT9HyQMUT1uVwyXhmMjM.jpg", "popularity": 9.227}, {"adult": false, "backdrop_path": "/Vi5V1mr0fCAXpLs0QBbKaeylWc.jpg", "genre_ids": [18], "id": 44754, "original_language": "en", "original_title": "Margaret", "overview": "A young woman witnesses a bus accident, and is caught up in the aftermath, where the question of whether or not it was intentional affects many people's lives.", "poster_path": "/reXVqyRmZ8NhL1iRrfiEwC7h5Mk.jpg", "release_date": "2011-09-30", "title": "Margaret", "video": false, "vote_average": 6.3, "vote_count": 147, "popularity": 11.449}, {"adult": false, "backdrop_path": "/5f8IAI9pdtyF4ZIAWk7x6wyU9LE.jpg", "genre_ids": [18, 10752], "id": 24395, "original_language": "en", "original_title": "The Hill", "overview": "North Africa, World War II. British soldiers on the brink of collapse push beyond endurance to struggle up a brutal incline. It's not a military objective. It's The Hill, a manmade instrument of torture, a tower of sand seared by a white-hot sun. And the troops' tormentors are not the enemy, but their own comrades-at-arms.", "poster_path": "/y8hb5jLzSUk3FEdO0LuxMUOa15I.jpg", "release_date": "1965-06-17", "title": "The Hill", "video": false, "vote_average": 7.5, "vote_count": 88, "popularity": 6.197}, {"adult": false, "backdrop_path": "/bJgsq1Z5UCG3hAaP2Um5Mkmnbng.jpg", "genre_ids": [35, 10749], "id": 24405, "original_language": "en", "original_title": "Chasers", "overview": "Military men Rock Reilly and Eddie Devane are tasked with taking a prisoner, blonde bombshell Toni Johnson, on what becomes an unforgettable road trip. Toni, an enlistee who's in trouble for deserting her unit, soon proves that she's craftier than most inmates.", "poster_path": "/j8Q7pQ27hvH54wpxJzIuQgQCdro.jpg", "release_date": "1994-04-22", "title": "Chasers", "video": false, "vote_average": 5.1, "vote_count": 60, "popularity": 9.34}, {"id": 2355, "video": false, "vote_count": 606, "vote_average": 7.2, "title": "Reign Over Me", "release_date": "2007-03-23", "original_language": "en", "original_title": "Reign Over Me", "genre_ids": [18], "backdrop_path": "/bjMFRzGa8YwfRybKYxHz3arBo80.jpg", "adult": false, "overview": "A man who lost his family in the September 11 attack on New York City runs into his old college roommate. Rekindling the friendship is the one thing that appears able to help the man recover from his grief.", "poster_path": "/eF2y5Sqjz9M3IF06va6GxAq7UGU.jpg", "popularity": 12.13}, {"adult": false, "backdrop_path": "/AtxgS50gewNMgTsbS8M1NKaNIIb.jpg", "genre_ids": [35], "id": 87567, "original_language": "en", "original_title": "The Big Wedding", "overview": "To the amusement of their adult children and friends, long divorced couple Don and Ellie Griffin are once again forced to play the happy couple for the sake of their adopted son's wedding after his ultra conservative biological mother unexpectedly decides to fly halfway across the world to attend. With all of the wedding guests looking on, the Griffins are hilariously forced to confront their past, present and future - and hopefully avoid killing each other in the process.", "poster_path": "/bPYDvbXRrb5d4FFyn4kb93J8I4X.jpg", "release_date": "2013-04-25", "title": "The Big Wedding", "video": false, "vote_average": 5.8, "vote_count": 737, "popularity": 9.806}], "total_pages": 4, "total_results": 67}, "recommendations": {"page": 1, "results": [], "total_pages": 1, "total_results": 0}, "credits": {"cast": [{"cast_id": 7, "character": "Jerry", "credit_id": "52fe44a0c3a36847f80a0f01", "gender": 2, "id": 479, "name": "Jamie Draven", "order": 0, "profile_path": "/tC1EJV652XHWPDITZfKe1JrH7Ii.jpg"}, {"cast_id": 8, "character": "Celina", "credit_id": "52fe44a0c3a36847f80a0f05", "gender": 1, "id": 54633, "name": "Grace Fulton", "order": 1, "profile_path": "/koezvzP5M36j1XNaHkboeBnaN63.jpg"}, {"cast_id": 9, "character": "Nora", "credit_id": "52fe44a0c3a36847f80a0f09", "gender": 1, "id": 5025, "name": "Vinessa Shaw", "order": 2, "profile_path": "/jMEm0tSVH3ZSqj5iXrHUhz9oLpu.jpg"}, {"cast_id": 10, "character": "Max", "credit_id": "52fe44a0c3a36847f80a0f0d", "gender": 2, "id": 3977, "name": "Joe Morton", "order": 3, "profile_path": "/5adJxjbFX2GeuTTCNqc9dg4Twgx.jpg"}, {"cast_id": 11, "character": "Oli", "credit_id": "52fe44a0c3a36847f80a0f11", "gender": 1, "id": 54634, "name": "Chandra West", "order": 4, "profile_path": "/7iUjeknSaQZtbcy07k1vKMjQAFm.jpg"}, {"cast_id": 12, "character": "Louie", "credit_id": "52fe44a0c3a36847f80a0f15", "gender": 2, "id": 54635, "name": "Tom Carey", "order": 5, "profile_path": "/h4xTtwZKFuR0SJK4xfs1cHuuwNp.jpg"}, {"cast_id": 13, "character": "Sheriff Thomas Pellegrino", "credit_id": "52fe44a0c3a36847f80a0f19", "gender": 0, "id": 54636, "name": "Pete Seadon", "order": 6, "profile_path": "/uj6x8stsQJeFduRB2TqPTmTxw6H.jpg"}, {"cast_id": 14, "character": "Patrol Officer", "credit_id": "52fe44a0c3a36847f80a0f1d", "gender": 0, "id": 54637, "name": "Keith White", "order": 7, "profile_path": null}], "crew": [{"credit_id": "52fe44a0c3a36847f80a0edf", "department": "Camera", "gender": 2, "id": 2160, "job": "Director of Photography", "name": "Carlo Varini", "profile_path": null}, {"credit_id": "52fe44a0c3a36847f80a0ee5", "department": "Production", "gender": 0, "id": 54630, "job": "Producer", "name": "J\u00f6rg Neumann", "profile_path": null}, {"credit_id": "52fe44a0c3a36847f80a0eeb", "department": "Production", "gender": 0, "id": 54631, "job": "Producer", "name": "Olimpia Lucente", "profile_path": null}, {"credit_id": "52fe44a0c3a36847f80a0ef1", "department": "Production", "gender": 2, "id": 25297, "job": "Casting", "name": "Craig Campobasso", "profile_path": null}, {"credit_id": "52fe44a0c3a36847f80a0ef7", "department": "Production", "gender": 1, "id": 4673, "job": "Casting", "name": "Joy Todd", "profile_path": null}, {"credit_id": "52fe44a0c3a36847f80a0efd", "department": "Sound", "gender": 0, "id": 54632, "job": "Music", "name": "Ludek Drizhal", "profile_path": "/juJe1tUiryU2elSI55bIA3aDXwS.jpg"}, {"credit_id": "52fe44a0c3a36847f80a0f23", "department": "Directing", "gender": 0, "id": 54638, "job": "Director", "name": "Francesco Lucente", "profile_path": null}, {"credit_id": "52fe44a0c3a36847f80a0f29", "department": "Editing", "gender": 0, "id": 54638, "job": "Other", "name": "Francesco Lucente", "profile_path": null}, {"credit_id": "52fe44a0c3a36847f80a0f2f", "department": "Writing", "gender": 0, "id": 54638, "job": "Screenplay", "name": "Francesco Lucente", "profile_path": null}]}}