{"adult": false, "backdrop_path": "/tJVGNgbhoqNPUUbeGcKIMP0y1n3.jpg", "belongs_to_collection": null, "budget": 0, "genres": [{"id": 99, "name": "Documentary"}], "homepage": "http://www.ingredientsfilm.com", "id": 83653, "imdb_id": "tt1352720", "original_language": "en", "original_title": "Ingredients", "overview": "At the focal point of this movement, and of this film, are the farmers and chefs who are creating a truly sustainable food system. Their collaborative work has resulted in great tasting food and an explosion of consumer awareness about the benefits of eating local.  Attention being paid to the local food movement comes at a time when the failings of our current industrialized food system are becoming all too clear. For the first time in history, our children'\u0080\u0099s generation is expected to have a shorter lifespan than our own. The quality, taste and nutritional value of the food we eat has dropped sharply over the last fifty years. Shipped from ever-greater distances, we have literally lost sight of where our food comes from and in the process, we've lost a vital connection to our local community and to our health.", "popularity": 1.03, "poster_path": "/ia3Oa8FgoUyXpZ9TC9F5wGwcM8o.jpg", "production_companies": [{"id": 14443, "logo_path": null, "name": "Optic Nerve Productions", "origin_country": ""}], "production_countries": [{"iso_3166_1": "US", "name": "United States of America"}], "release_date": "2009-06-06", "revenue": 0, "runtime": 73, "spoken_languages": [{"iso_639_1": "en", "name": "English"}], "status": "Released", "tagline": "The local food movement takes root.", "title": "Ingredients", "video": false, "vote_average": 6.2, "vote_count": 3, "keywords": {"keywords": [{"id": 5890, "name": "community"}, {"id": 10637, "name": "food"}, {"id": 34244, "name": "organic agriculture"}, {"id": 40844, "name": "sustainable"}]}, "similar": {"page": 1, "results": [{"id": 18570, "video": false, "vote_count": 355, "vote_average": 7.4, "title": "Food, Inc.", "release_date": "2008-09-07", "original_language": "en", "original_title": "Food, Inc.", "genre_ids": [99], "backdrop_path": "/npq6sSmWFWulvKNdQaTkpxbSWW4.jpg", "adult": false, "overview": "Documentary filmmaker Robert Kenner examines how mammoth corporations have taken over all aspects of the food chain in the United States, from the farms where our food is grown to the chain restaurants and supermarkets where it's sold. Narrated by author and activist Eric Schlosser, the film features interviews with average Americans about their dietary habits, commentary from food experts like Michael Pollan and unsettling footage shot inside large-scale animal processing plants.", "poster_path": "/gWYCM3YVYwZQcpfye6biAlPy9Xt.jpg", "popularity": 10.704}, {"id": 22794, "video": false, "vote_count": 3655, "vote_average": 6.5, "title": "Cloudy with a Chance of Meatballs", "release_date": "2009-09-17", "original_language": "en", "original_title": "Cloudy with a Chance of Meatballs", "genre_ids": [16, 35, 10751], "backdrop_path": "/vYovS909jUV3wxms4DmHGjZ1lhw.jpg", "adult": false, "overview": "Inventor Flint Lockwood creates a machine that makes clouds rain food, enabling the down-and-out citizens of Chewandswallow to feed themselves. But when the falling food reaches gargantuan proportions, Flint must scramble to avert disaster. Can he regain control of the machine and put an end to the wild weather before the town is destroyed?", "poster_path": "/8GyuFxLh3PTaQDy3Vhk1gV3KU8Z.jpg", "popularity": 23.177}, {"id": 167073, "video": false, "vote_count": 2097, "vote_average": 7.3, "title": "Brooklyn", "release_date": "2015-10-20", "original_language": "en", "original_title": "Brooklyn", "genre_ids": [18, 10749], "backdrop_path": "/7fXKVIM8UQBvQ9aQOzFqThlq7eN.jpg", "adult": false, "overview": "In 1950s Ireland and New York, young Eilis Lacey has to choose between two men and two countries.", "poster_path": "/dRpkyrSDrEMFRZDeFJG4EupqUfR.jpg", "popularity": 12.966}, {"id": 334533, "video": false, "vote_count": 3919, "vote_average": 8.0, "title": "Captain Fantastic", "release_date": "2016-07-02", "original_language": "en", "original_title": "Captain Fantastic", "genre_ids": [12, 35, 18], "backdrop_path": "/hzp6irYITiJc5JUA1GZhmbE10pD.jpg", "adult": false, "overview": "A father living in the forests of the Pacific Northwest with his six young kids tries to assimilate back into society.", "poster_path": "/fnaGmGCWgGOQjCpM0TqKPZJ5x85.jpg", "popularity": 18.228}, {"id": 2062, "video": false, "vote_count": 10067, "vote_average": 7.7, "title": "Ratatouille", "release_date": "2007-06-22", "original_language": "en", "original_title": "Ratatouille", "genre_ids": [16, 35, 14, 10751], "backdrop_path": "/sFpGI08aeHIRKlLi9SxLyYrRyZ8.jpg", "adult": false, "overview": "A rat named Remy dreams of becoming a great French chef despite his family's wishes and the obvious problem of being a rat in a decidedly rodent-phobic profession. When fate places Remy in the sewers of Paris, he finds himself ideally situated beneath a restaurant made famous by his culinary hero, Auguste Gusteau. Despite the apparent dangers of being an unlikely - and certainly unwanted - visitor in the kitchen of a fine French restaurant, Remy's passion for cooking soon sets into motion a hilarious and exciting rat race that turns the culinary world of Paris upside down.", "poster_path": "/xVxxSYHAfrEbllyWFQG5df5nwH4.jpg", "popularity": 31.73}, {"adult": false, "backdrop_path": "/sbH9aJV7fqhRaazCSWuOwNDIf1m.jpg", "genre_ids": [35], "id": 212778, "original_language": "en", "original_title": "Chef", "overview": "When Chef Carl Casper suddenly quits his job at a prominent Los Angeles restaurant after refusing to compromise his creative integrity for its controlling owner, he is left to figure out what's next. Finding himself in Miami, he teams up with his ex-wife, his friend and his son to launch a food truck. Taking to the road, Chef Carl goes back to his roots to reignite his passion for the kitchen -- and zest for life and love.", "poster_path": "/dwweMX2MqYOYGg2Z2lZ8f6uopcg.jpg", "release_date": "2014-05-08", "title": "Chef", "video": false, "vote_average": 7.1, "vote_count": 1959, "popularity": 15.646}, {"id": 109451, "video": false, "vote_count": 1873, "vote_average": 6.4, "title": "Cloudy with a Chance of Meatballs 2", "release_date": "2013-09-26", "original_language": "en", "original_title": "Cloudy with a Chance of Meatballs 2", "genre_ids": [16, 35, 10751], "backdrop_path": "/qlAeyqhKUfX1f4FWVoFZcHEDCAL.jpg", "adult": false, "overview": "After the disastrous food storm in the first film, Flint and his friends are forced to leave the town. Flint accepts the invitation from his idol Chester V to join The Live Corp Company, which has been tasked to clean the island, and where the best inventors in the world create technologies for the betterment of mankind. When Flint discovers that his machine still operates and now creates mutant food beasts like living pickles, hungry tacodiles, shrimpanzees and apple pie-thons, he and his friends must return to save the world.", "poster_path": "/oZjluB568NJVtRrny4rpeApGuNi.jpg", "popularity": 23.838}, {"id": 1907, "video": false, "vote_count": 2626, "vote_average": 6.4, "title": "The Beach", "release_date": "2000-02-03", "original_language": "en", "original_title": "The Beach", "genre_ids": [12, 18, 53, 10749], "backdrop_path": "/uqseIBb0MH9dXic9RGmGaLvf56q.jpg", "adult": false, "overview": "Twenty-something Richard travels to Thailand and finds himself in possession of a strange map. Rumours state that it leads to a solitary beach paradise, a tropical bliss - excited and intrigued, he sets out to find it.", "poster_path": "/4VgPflOJMxlqOYpAqXCm5J6BkYm.jpg", "popularity": 17.559}, {"id": 282297, "video": false, "vote_count": 258, "vote_average": 7.9, "title": "Cowspiracy: The Sustainability Secret", "release_date": "2014-07-01", "original_language": "en", "original_title": "Cowspiracy: The Sustainability Secret", "genre_ids": [99], "backdrop_path": "/on3RvSQH6EihugnCcjl6QmDgPAF.jpg", "adult": false, "overview": "Follow the shocking, yet humorous, journey of an aspiring environmentalist, as he daringly seeks to find the real solution to the most pressing environmental issues and true path to sustainability.", "poster_path": "/yTJAP34YPAEMr8fCdpSiYbzcFTb.jpg", "popularity": 11.58}, {"id": 9472, "video": false, "vote_count": 2070, "vote_average": 6.2, "title": "DodgeBall: A True Underdog Story", "release_date": "2004-06-18", "original_language": "en", "original_title": "DodgeBall: A True Underdog Story", "genre_ids": [35], "backdrop_path": "/yM4k71Y6bEuVl7EX46OJ2fvyFHV.jpg", "adult": false, "overview": "When megalomaniacal White Goodman, the owner of a trendy, high-end fitness center, makes a move to take over the struggling local gym run by happy-go-lucky Pete La Fleur, there's only one way for La Fleur to fight back: dodgeball. Aided by a dodgeball guru and Goodman's attorney, La Fleur and his rag-tag team of underdogs launch a knock-down, drag-out battle in which the winner takes all.", "poster_path": "/c7biFO9cEl5hOSvZRMuuJohH5f3.jpg", "popularity": 21.78}, {"adult": false, "backdrop_path": "/etybioibi04QJK9xxn3Rv5NLuKs.jpg", "genre_ids": [12, 28, 53, 878], "id": 8810, "original_language": "en", "original_title": "Mad Max 2", "overview": "Max Rockatansky returns as the heroic loner who drives the dusty roads of a postapocalyptic Australian Outback in an unending search for gasoline. Arrayed against him and the other scraggly defendants of a fuel-depot encampment are the bizarre warriors commanded by the charismatic Lord Humungus, a violent leader whose scruples are as barren as the surrounding landscape.", "poster_path": "/tVaClEA7n0MxaY8sb81nHwh6XNW.jpg", "release_date": "1981-12-24", "title": "Mad Max 2", "video": false, "vote_average": 7.4, "vote_count": 1898, "popularity": 19.166}, {"adult": false, "backdrop_path": "/3GuYLuqn34guNrgUlZnXyLogD6u.jpg", "genre_ids": [35, 12, 10749], "id": 13523, "original_language": "en", "original_title": "Sex Drive", "overview": "A high school senior drives cross-country with his best friends to hook up with a babe he met online.", "poster_path": "/bwXrZy2xqsyDnno4z8AENEgVfsO.jpg", "release_date": "2008-10-16", "title": "Sex Drive", "video": false, "vote_average": 6.1, "vote_count": 646, "popularity": 12.037}, {"adult": false, "backdrop_path": "/zpF8ufiB9mG6IwctoD5ONRjXXv1.jpg", "genre_ids": [12, 16, 35, 14], "id": 223702, "original_language": "en", "original_title": "Sausage Party", "overview": "Frank leads a group of supermarket products on a quest to discover the truth about their existence and what really happens when they become chosen to leave the grocery store.", "poster_path": "/w90cORtNWQAd2k93aFlIBbpQYTC.jpg", "release_date": "2016-07-11", "title": "Sausage Party", "video": false, "vote_average": 5.6, "vote_count": 4639, "popularity": 21.034}, {"id": 811, "video": false, "vote_count": 289, "vote_average": 6.4, "title": "Silent Running", "release_date": "1972-03-09", "original_language": "en", "original_title": "Silent Running", "genre_ids": [12, 18, 878], "backdrop_path": "/yLxNGRQQov8osrNCGPmJzDomJ5f.jpg", "adult": false, "overview": "In a future Earth barren of all flora and fauna, the planet's ecosystems exist only in large pods attached to spacecraft. When word comes in that the pods are to be jettisoned into space and destroyed so that the spacecraft can be reused for commercial purposes, most of the crew of the Valley Forge rejoice at the prospect of going home. Not so for botanist Freeman Lowell who loves the forest and its creatures, so decides to take matters into his own hands to protect what he loves.", "poster_path": "/kyEljmcf7YYmp85BdZffqiuRLfV.jpg", "popularity": 9.047}, {"adult": false, "backdrop_path": "/9FeV0vtBphuHv8U6La4tEd2Qume.jpg", "genre_ids": [99], "id": 62323, "original_language": "en", "original_title": "Vanishing of the Bees", "overview": "This documentary takes a piercing investigative look at the economic, political and ecological implications of the worldwide disappearance of the honeybee. The film examines our current agricultural landscape and celebrates the ancient and sacred connection between man and the honeybee. The story highlights the positive changes that have resulted due to the tragic phenomenon known as \"Colony Collapse Disorder.\" To empower the audience, the documentary provides viewers with tangible solutions they can apply to their everyday lives. Vanishing of the Bees unfolds as a dramatic tale of science and mystery, illuminating this extraordinary crisis and its greater meaning about the relationship between humankind and Mother Earth. The bees have a message - but will we listen?", "poster_path": "/d19vTshdzXFJ3wHEy0FDO7U9g3X.jpg", "release_date": "2009-10-09", "title": "Vanishing of the Bees", "video": false, "vote_average": 7.1, "vote_count": 11, "popularity": 3.692}, {"id": 64288, "video": false, "vote_count": 87, "vote_average": 7.1, "title": "Forks Over Knives", "release_date": "2011-05-06", "original_language": "en", "original_title": "Forks Over Knives", "genre_ids": [99], "backdrop_path": "/cMvaL2ixyngQHNSdr9WIWneqDxH.jpg", "adult": false, "overview": "Examines the profound claim that most, if not all, of the degenerative diseases that afflict us can be controlled, or even reversed, by rejecting our present menu of animal-based and processed foods.", "poster_path": "/rNw4qSzEfpit4UJzoqUdAd0flhd.jpg", "popularity": 8.732}, {"id": 11323, "video": false, "vote_count": 513, "vote_average": 6.2, "title": "The Informant!", "release_date": "2009-09-18", "original_language": "en", "original_title": "The Informant!", "genre_ids": [35, 80, 18], "backdrop_path": "/e7CVA0d35oWcEzOCmw5DFsmnOBp.jpg", "adult": false, "overview": "A rising star at agri-industry giant Archer Daniels Midland (ADM), Mark Whitacre suddenly turns whistleblower. Even as he exposes his company\u2019s multi-national price-fixing conspiracy to the FBI, Whitacre envisions himself being hailed as a hero of the common man and handed a promotion.", "poster_path": "/qqcmJrzVx3Yx3IcBpqrgb2SK1Rx.jpg", "popularity": 9.165}, {"id": 463088, "video": false, "vote_count": 68, "vote_average": 7.4, "title": "The Game Changers", "release_date": "2019-09-16", "original_language": "en", "original_title": "The Game Changers", "genre_ids": [99], "backdrop_path": "/1qvFSpY0cFfhfuJza4hDzcGxypz.jpg", "adult": false, "overview": "From the UFC Octagon in Las Vegas and the anthropology lab at Dartmouth, to a strongman gym in Berlin and the bushlands of Zimbabwe, the world is introduced to elite athletes, special ops soldiers, visionary scientists, cultural icons, and everyday heroes\u2014each on a mission to create a seismic shift in the way we eat and live.", "poster_path": "/eufF3xEif5EZ1gTjdubw3KWh9xU.jpg", "popularity": 10.609}, {"id": 529982, "video": false, "vote_count": 62, "vote_average": 6.0, "title": "Asher", "release_date": "2018-12-07", "original_language": "en", "original_title": "Asher", "genre_ids": [28, 18, 53], "backdrop_path": "/rNg9Vfek4rR41ka7B6YlQDihFvF.jpg", "adult": false, "overview": "Asher is a former Mossad agent turned gun for hire, living an austere life in an ever-changing Brooklyn. Approaching the end of his career, he breaks the oath he took as a young man when he meets Sophie on a hit gone wrong. In order to have love in his life before it's too late, he must kill the man he was, for a chance at becoming the man he wants to be.", "poster_path": "/o5p4Ev49KVR4itGWy3OHyqnRsz8.jpg", "popularity": 7.834}, {"id": 293299, "video": false, "vote_count": 611, "vote_average": 8.0, "title": "Feast", "release_date": "2014-11-07", "original_language": "en", "original_title": "Feast", "genre_ids": [16, 35, 18, 10751], "backdrop_path": "/fCVPTB6VxfIy2xKGDLt9Ek5OJhm.jpg", "adult": false, "overview": "This Oscar-winning animated short film tells the story of one man's love life as seen through the eyes of his best friend and dog, Winston, and revealed bite by bite through the meals they share.", "poster_path": "/qJ9ouIj4wN24asvKTUSAcJnSfrT.jpg", "popularity": 13.168}], "total_pages": 19, "total_results": 365}, "recommendations": {"page": 1, "results": [], "total_pages": 1, "total_results": 0}, "credits": {"cast": [], "crew": [{"credit_id": "52fe48b09251416c91095165", "department": "Directing", "gender": 0, "id": 1173256, "job": "Director", "name": "Robert Bates", "profile_path": "/c4Cu3UZxXwix5dJv592L2kGmIOo.jpg"}]}}