{"adult": false, "backdrop_path": "/yRnEQRJc07w6ea1Le5eucjPdHvi.jpg", "belongs_to_collection": null, "budget": 0, "genres": [{"id": 99, "name": "Documentary"}, {"id": 18, "name": "Drama"}], "homepage": null, "id": 83732, "imdb_id": "tt1758576", "original_language": "en", "original_title": "Bombay Beach", "overview": "Bombay Beach is one of the poorest communities in southern California located on the shores of the Salton Sea, a man-made sea stranded in the middle of the Colorado desert that was once a beautiful vacation destination for the privileged and is now a pool of dead fish. Film director Alma Har'el tells the story of three protagonists. Together these portraits form a triptych of manhood in its various ages and guises...", "popularity": 3.052, "poster_path": "/troygtyJHxVblySx4vlozNTnP7.jpg", "production_companies": [], "production_countries": [{"iso_3166_1": "US", "name": "United States of America"}], "release_date": "2011-10-14", "revenue": 0, "runtime": 80, "spoken_languages": [{"iso_639_1": "en", "name": "English"}], "status": "Released", "tagline": "", "title": "Bombay Beach", "video": false, "vote_average": 6.4, "vote_count": 10, "keywords": {"keywords": [{"id": 4344, "name": "musical"}, {"id": 187056, "name": "woman director"}]}, "similar": {"page": 1, "results": [{"adult": false, "backdrop_path": "/rf6G51j0SZL0tP57I8gnqHTRFEr.jpg", "genre_ids": [35, 18, 10749], "id": 273153, "original_language": "fr", "original_title": "La belle saison", "overview": "In 1971, Carole and Delphine meet and fall in love in Paris. When Carole follows Delphine back to her family farm in Limousin, the two find lesbianism and feminism are not as easy in the countryside.", "poster_path": "/evvAkNMO5VJiy5qIo1Hu7fUfvVI.jpg", "release_date": "2015-08-19", "title": "Summertime", "video": false, "vote_average": 6.6, "vote_count": 162, "popularity": 15.434}, {"id": 9813, "video": false, "vote_count": 128, "vote_average": 6.1, "title": "The Quiet", "release_date": "2005-09-12", "original_language": "en", "original_title": "The Quiet", "genre_ids": [18, 53], "backdrop_path": "/6eyWAZA4CEidZW1xXnQ4vlYBXTP.jpg", "adult": false, "overview": "After her widowed father dies, deaf teenager Dot moves in with her godparents, Olivia and Paul Deer. The Deers' daughter, Nina, is openly hostile to Dot, but that does not prevent her from telling her secrets to her silent stepsister, including the fact that she wants to kill her lecherous father.", "poster_path": "/GEqIE9YlmygHVUfS64LW2cwAAM.jpg", "popularity": 13.948}, {"adult": false, "backdrop_path": "/gZeJziVigmRqbkEZwKAtSqlLQ6s.jpg", "genre_ids": [18, 10749], "id": 370663, "original_language": "en", "original_title": "Below Her Mouth", "overview": "An unexpected affair quickly escalates into a heart-stopping reality for two women whose passionate connection changes their lives forever.", "poster_path": "/nTGbq37hYLuNy7YgMg0gVLma0NS.jpg", "release_date": "2016-09-10", "title": "Below Her Mouth", "video": false, "vote_average": 6.2, "vote_count": 456, "popularity": 22.676}, {"adult": false, "backdrop_path": "/6tern9vOEwwmkDYC1vRCuO64z0C.jpg", "genre_ids": [10749, 18], "id": 475888, "original_language": "en", "original_title": "Tell It to the Bees", "overview": "Dr. Jean Markham returns to the town she left as a teenager to take over her late father's medical practice. When a school-yard scuffle lands Charlie in her surgery, she invites him to visit the hives in her garden and tell his secrets to the bees, as she once did. The new friendship between the boy and the bee keeper brings his mother Lydia into Jean's world.", "poster_path": "/Rj6zpHhMU1zFW3v28U4PSRSRgP.jpg", "release_date": "2019-05-03", "title": "Tell It to the Bees", "video": false, "vote_average": 6.4, "vote_count": 53, "popularity": 15.113}, {"adult": false, "backdrop_path": "/knczzNAjBXzSYkeWxoT1u9VNmjR.jpg", "genre_ids": [10749, 18], "id": 258480, "original_language": "en", "original_title": "Carol", "overview": "In 1950s New York, a department-store clerk who dreams of a better life falls for an older, married woman.", "poster_path": "/AbKa7ANxmui0Jmhh7gV7OSELKIL.jpg", "release_date": "2015-11-20", "title": "Carol", "video": false, "vote_average": 7.4, "vote_count": 2182, "popularity": 14.185}, {"id": 12763, "video": false, "vote_count": 415, "vote_average": 6.8, "title": "Take the Lead", "release_date": "2006-03-17", "original_language": "en", "original_title": "Take the Lead", "genre_ids": [35, 18, 10402], "backdrop_path": "/5Fe4gRms3einnXPm3OegXgkBlq0.jpg", "adult": false, "overview": "A former professional dancer volunteers to teach dance in the New York public school system and, while his background first clashes with his students' tastes, together they create a completely new style of dance. Based on the story of ballroom dancer, Pierre Dulane.", "poster_path": "/AuIO1Hg8Iof1XzLtb7VNqJ5YQkJ.jpg", "popularity": 13.322}, {"adult": false, "backdrop_path": "/dvQDRfv3qvfHNnVAR57ouVsuErf.jpg", "genre_ids": [10749, 18], "id": 28031, "original_language": "en", "original_title": "If These Walls Could Talk 2", "overview": "The stories of three lesbian couples -- who live in the same house at different periods of time -- who are at a crossroads in their lives. In 1961, Edith loses her lover, Abby, to a stroke. Linda and Amy struggle with feminist issues in 1972. And, in 2000, Kal and Fran try to have a baby with the help of sperm donor.", "poster_path": "/xs7ODbmYQXCDhvXNvz5tF17T59H.jpg", "release_date": "2000-03-05", "title": "If These Walls Could Talk 2", "video": false, "vote_average": 7.1, "vote_count": 55, "popularity": 8.062}, {"adult": false, "backdrop_path": "/cADbqsIoiDW7X3Myg9nz8eAuno5.jpg", "genre_ids": [18, 10749], "id": 10818, "original_language": "fr", "original_title": "Naissance des pieuvres", "overview": "Set during a sultry summer in a French suburb, Marie is desperate to join the local pool's synchronized swimming team, but is her interest solely for the sake of sport or for a chance to get close to Floriane, the bad girl of the team? Sciamma, and the two leads, capture the uncertainty of teenage sexuality with a sympathetic eye in this delicate drama of the angst of coming-of-age.", "poster_path": "/4jajELYrR4Xmv3CVoKnukRnALa2.jpg", "release_date": "2007-05-17", "title": "Water Lilies", "video": false, "vote_average": 6.1, "vote_count": 119, "popularity": 10.744}, {"adult": false, "backdrop_path": "/fZ8oFcREAr6wgWcXISGql0xyxjB.jpg", "genre_ids": [35, 18], "id": 39781, "original_language": "en", "original_title": "The Kids Are All Right", "overview": "Two women, Nic and Jules, brought a son and daughter into the world through artificial insemination. When one of their children reaches age, both kids go behind their mothers' backs to meet with the donor. Life becomes so much more interesting when the father, two mothers and children start to become attached to each other.", "poster_path": "/fPDeK4MmoGfi2X0oWZev7LrbMqM.jpg", "release_date": "2010-07-09", "title": "The Kids Are All Right", "video": false, "vote_average": 6.6, "vote_count": 923, "popularity": 12.703}, {"adult": false, "backdrop_path": "/txtRue33MaXv5HQpTiHPOmOcDxE.jpg", "genre_ids": [35, 10749], "id": 11631, "original_language": "en", "original_title": "Mamma Mia!", "overview": "An independent, single mother who owns a small hotel on a Greek island is about to marry off the spirited young daughter she's raised alone. But, the daughter has secretly invited three of her mother's ex-lovers in the hopes of finding her biological father.", "poster_path": "/gOm2iMMbC6EonrFzmSQ8xvCa4Ei.jpg", "release_date": "2008-07-02", "title": "Mamma Mia!", "video": false, "vote_average": 6.9, "vote_count": 4120, "popularity": 16.652}, {"adult": false, "backdrop_path": "/caLMOD3ZJ3V7qjlxDXrzlJfBLgD.jpg", "genre_ids": [18, 10749], "id": 20, "original_language": "en", "original_title": "My Life Without Me", "overview": "A Pedro Almodovar production in which a fatally ill mother with only two months to live creates a list of things she wants to do before she dies with out telling her family of her illness.", "poster_path": "/vVj92VBFUBzjqzLvBiPVVlJDp78.jpg", "release_date": "2003-03-07", "title": "My Life Without Me", "video": false, "vote_average": 6.1, "vote_count": 220, "popularity": 9.208}, {"id": 10545, "video": false, "vote_count": 3017, "vote_average": 7.0, "title": "The Hunchback of Notre Dame", "release_date": "1996-06-21", "original_language": "en", "original_title": "The Hunchback of Notre Dame", "genre_ids": [16, 18, 10751], "backdrop_path": "/oslaee3VX9kJAjVezbjZKlEJDzn.jpg", "adult": false, "overview": "When Quasimodo defies the evil Frollo and ventures out to the Festival of Fools, the cruel crowd jeers him. Rescued by fellow outcast the gypsy Esmeralda, Quasi soon finds himself battling to save the people and the city he loves.", "poster_path": "/r7V92gY3AMO6li17MmGTixAnFcv.jpg", "popularity": 34.935}, {"id": 313369, "video": false, "vote_count": 11057, "vote_average": 7.9, "title": "La La Land", "release_date": "2016-11-29", "original_language": "en", "original_title": "La La Land", "genre_ids": [35, 18, 10402, 10749], "backdrop_path": "/fp6X6yhgcxzxCpmM0EVC6V9B8XB.jpg", "adult": false, "overview": "Mia, an aspiring actress, serves lattes to movie stars in between auditions and Sebastian, a jazz musician, scrapes by playing cocktail party gigs in dingy bars, but as success mounts they are faced with decisions that begin to fray the fragile fabric of their love affair, and the dreams they worked so hard to maintain in each other threaten to rip them apart.", "poster_path": "/ylXCdC106IKiarftHkcacasaAcb.jpg", "popularity": 30.693}, {"adult": false, "backdrop_path": "/useuHJQ5HOoEWkAvEjL1FW1sUfe.jpg", "genre_ids": [18], "id": 376867, "original_language": "en", "original_title": "Moonlight", "overview": "The tender, heartbreaking story of a young man\u2019s struggle to find himself, told across three defining chapters in his life as he experiences the ecstasy, pain, and beauty of falling in love, while grappling with his own sexuality.", "poster_path": "/qAwFbszz0kRyTuXmMeKQZCX3Q2O.jpg", "release_date": "2016-10-21", "title": "Moonlight", "video": false, "vote_average": 7.4, "vote_count": 4406, "popularity": 27.348}, {"id": 9762, "video": false, "vote_count": 2460, "vote_average": 6.8, "title": "Step Up", "release_date": "2006-08-11", "original_language": "en", "original_title": "Step Up", "genre_ids": [80, 18, 10402, 10749], "backdrop_path": "/sKD3PfyP1u4tcoVQkpiAZqnx4H8.jpg", "adult": false, "overview": "Everyone deserves a chance to follow their dreams, but some people only get one shot. Tyler Gage is a rebel from the wrong side of Baltimore's tracks and the only thing that stands between him and an unfulfilled life are his dreams of one day making it out of there. Nora is a privileged ballet dancer attending Baltimore's ultra-elite Maryland School of the Arts", "poster_path": "/gyLww7ZlcwuzqvIwM1osR9Ioqtm.jpg", "popularity": 20.427}, {"id": 434714, "video": false, "vote_count": 32, "vote_average": 7.5, "title": "My Days of Mercy", "release_date": "2019-07-11", "original_language": "en", "original_title": "My Days of Mercy", "genre_ids": [18, 10749], "backdrop_path": "/7Lbzq33nMMIQtAfZAmSqG6ibLSg.jpg", "adult": false, "overview": "The daughter of a man on death row falls in love with a woman on the opposing side of her family's political cause.", "poster_path": "/adIPKAoKnKL9vCTkvfF4J9ZA7Ln.jpg", "popularity": 6.928}, {"adult": false, "backdrop_path": "/k8H7ye6Sab7OrDJoo8Qp5WFGHGk.jpg", "genre_ids": [35, 10749, 18], "id": 244264, "original_language": "en", "original_title": "Laggies", "overview": "Overeducated and underemployed, 28 year old Megan is in the throes of a quarterlife crisis. Squarely into adulthood with no career prospects, no particular motivation to think about her future and no one to relate to, Megan is comfortable lagging a few steps behind - while her friends check off milestones and celebrate their new grown-up status. When her high-school sweetheart proposes, Megan panics and- given an unexpected opportunity to escape for a week - hides out in the home of her new friend, 16-year old Annika and Annika's world-weary single dad Craig.", "poster_path": "/dNcoXoRC7JHiqbe7k5Ufo6syiPP.jpg", "release_date": "2014-09-25", "title": "Laggies", "video": false, "vote_average": 6.1, "vote_count": 787, "popularity": 9.883}, {"adult": false, "backdrop_path": "/npClMhFGn4XUkwu6coq5oKAEu6L.jpg", "genre_ids": [35, 10749, 18], "id": 634, "original_language": "en", "original_title": "Bridget Jones's Diary", "overview": "A chaotic Bridget Jones meets a snobbish lawyer, and he soon enters her world of imperfections.", "poster_path": "/ym6kjFFZg6boC0QHBVw6hqJLbxv.jpg", "release_date": "2001-04-13", "title": "Bridget Jones's Diary", "video": false, "vote_average": 6.7, "vote_count": 3079, "popularity": 16.678}, {"adult": false, "backdrop_path": "/ojn7IYKmMt8HXRd6oLwY5pLGLVc.jpg", "genre_ids": [18, 10749], "id": 9587, "original_language": "en", "original_title": "Little Women", "overview": "With their father away as a chaplain in the Civil War, Jo, Meg, Beth and Amy grow up with their mother in somewhat reduced circumstances. They are a close family who inevitably have their squabbles and tragedies. But the bond holds even when, later, male friends start to become a part of the household.", "poster_path": "/tD9YDE8pjtSvvKUpkmooE6YDSm8.jpg", "release_date": "1994-12-21", "title": "Little Women", "video": false, "vote_average": 7.2, "vote_count": 574, "popularity": 24.712}, {"id": 504608, "video": false, "vote_count": 1661, "vote_average": 7.4, "title": "Rocketman", "release_date": "2019-05-22", "original_language": "en", "original_title": "Rocketman", "genre_ids": [18, 10402], "backdrop_path": "/sZZJ42GrWKxSOfcrpI2TSFQa0AQ.jpg", "adult": false, "overview": "The story of Elton John's life, from his years as a prodigy at the Royal Academy of Music through his influential and enduring musical partnership with Bernie Taupin.", "poster_path": "/f4FF18ia7yTvHf2izNrHqBmgH8U.jpg", "popularity": 26.576}], "total_pages": 1452, "total_results": 29034}, "recommendations": {"page": 1, "results": [{"id": 68426, "video": false, "vote_count": 6, "vote_average": 5.7, "title": "Get Bruce!", "release_date": "1999-01-01", "original_language": "en", "original_title": "Get Bruce!", "genre_ids": [35, 99], "backdrop_path": "/zKtrbtusQAMh8yzwTMbXOMv0aSq.jpg", "adult": false, "overview": "Affectionate tribute to Bruce Vilanch, who writes material for celebrities who make public appearances, from Oscar hosts and award recipients to Presidents. We meet his mom and see photos of his childhood; in Chicago, he writes for the Tribune and then heads West. Whoopi Goldberg, Billy Crystal, Robin Williams, and Bette Midler talk with him and to the camera about working with Bruce, and we also watch Bruce help others prepare for Liz Taylor's 60th, Bill Clinton's 50th, and an AIDS awards banquet where the hirsute, rotund Vilanch lets his emotions show.", "poster_path": "/cNlcaP5N3owquZoieCm58cbl6tt.jpg", "popularity": 4.196}, {"adult": false, "backdrop_path": "/Aq8OAi9exLkX75pb7uJa49AwUGF.jpg", "genre_ids": [18], "id": 100017, "original_language": "de", "original_title": "Verfolgt", "overview": "Deals with the obsessive relationship between a confused teenager and an elder woman. Elsa Seifert successfully works as probation officer, but the relationship to her longtime companion is in trouble since their common daughter moved out. Then she gets to know Jan, a 16-years-old offender, who frankly offers to submit himself sexually to her. Although being shocked in the beginning, Elsa gets more and more attracted by the young man", "poster_path": "/9niCIIX0vGaiS7pPDkWYQEzUdNV.jpg", "release_date": "2006-08-06", "title": "Hounded", "video": false, "vote_average": 4.8, "vote_count": 9, "popularity": 10.524}, {"adult": false, "backdrop_path": null, "genre_ids": [99], "id": 94597, "original_language": "en", "original_title": "Paperboys", "overview": "Training his lens on a once ubiquitous but now fading slice of Americana, documentarian Mike Mills profiles six paperboys who call Stillwater, Minn., home. Featuring interviews and footage of the youngsters pedaling through their daily rounds, the film is a paradigm of America's changing face as adults assume a role formerly filled by pubescent entrepreneurs.", "poster_path": "/xYhxuDZGEzIABzXwQFFHt1kbANO.jpg", "release_date": "2001-01-01", "title": "Paperboys", "video": false, "vote_average": 6.1, "vote_count": 7, "popularity": 1.413}, {"adult": false, "backdrop_path": "/1cs2WNKOpkSMoIOfpYG3HS2Rq2G.jpg", "genre_ids": [18, 27], "id": 21714, "original_language": "en", "original_title": "Coven", "overview": "An alcohol/drug abuser re-examines his life until he nearly dies from an overdose. Then a friend convinces him to join a self-help group which turns out to be demonic.", "poster_path": "/nY0H5tVn0abNmdI4DgarMKLv3jS.jpg", "release_date": "2000-03-31", "title": "Coven", "video": false, "vote_average": 5.4, "vote_count": 10, "popularity": 3.038}, {"adult": false, "backdrop_path": null, "genre_ids": [12, 53, 27], "id": 419392, "original_language": "en", "original_title": "Snake Bite", "overview": "Four adventurous kids. One deadly snake. Ten quick minutes. Snake Bite.", "poster_path": "/yPamborc85f8Q8hlPjSwzJFmu2x.jpg", "release_date": "2016-03-15", "title": "Snake Bite", "video": false, "vote_average": 8.0, "vote_count": 6, "popularity": 1.692}], "total_pages": 1, "total_results": 5}, "credits": {"cast": [{"cast_id": 1010, "character": "", "credit_id": "52fe48ba9251416c910964ef", "gender": 0, "id": 930019, "name": "Benny Parrish", "order": 0, "profile_path": null}, {"cast_id": 1011, "character": "", "credit_id": "52fe48ba9251416c910964f3", "gender": 0, "id": 930020, "name": "Pamela Parrish", "order": 1, "profile_path": null}, {"cast_id": 1012, "character": "", "credit_id": "52fe48ba9251416c910964f7", "gender": 0, "id": 930022, "name": "Mike Parrish", "order": 2, "profile_path": null}, {"cast_id": 1013, "character": "", "credit_id": "52fe48ba9251416c910964fb", "gender": 0, "id": 930023, "name": "Doran \"Red\" Furgie", "order": 3, "profile_path": null}, {"cast_id": 1014, "character": "", "credit_id": "52fe48ba9251416c910964ff", "gender": 0, "id": 930025, "name": "Cedric Thompson", "order": 4, "profile_path": null}], "crew": [{"credit_id": "52fe48ba9251416c910964d9", "department": "Production", "gender": 2, "id": 52358, "job": "Producer", "name": "Boaz Yakin", "profile_path": "/4NL3F6iwVlwdWvBKue5H8OpZrp2.jpg"}, {"credit_id": "52fe48ba9251416c910964c1", "department": "Sound", "gender": 2, "id": 234274, "job": "Original Music Composer", "name": "Zach Condon", "profile_path": null}, {"credit_id": "55234a02c3a3683453004fde", "department": "Directing", "gender": 1, "id": 930012, "job": "Director", "name": "Alma Har'el", "profile_path": "/9cOho4Osnat9ZAWdtQl8KIv15nw.jpg"}, {"credit_id": "570fb5d392514108320001da", "department": "Camera", "gender": 1, "id": 930012, "job": "Director of Photography", "name": "Alma Har'el", "profile_path": "/9cOho4Osnat9ZAWdtQl8KIv15nw.jpg"}, {"credit_id": "552349cd9251416d4a0030ea", "department": "Editing", "gender": 1, "id": 930012, "job": "Editor", "name": "Alma Har'el", "profile_path": "/9cOho4Osnat9ZAWdtQl8KIv15nw.jpg"}, {"credit_id": "552349b99251415c7c007b14", "department": "Production", "gender": 1, "id": 930012, "job": "Producer", "name": "Alma Har'el", "profile_path": "/9cOho4Osnat9ZAWdtQl8KIv15nw.jpg"}, {"credit_id": "52fe48ba9251416c910964d3", "department": "Editing", "gender": 2, "id": 930015, "job": "Editor", "name": "Joe Lindquist", "profile_path": null}, {"credit_id": "52fe48ba9251416c910964df", "department": "Sound", "gender": 2, "id": 930016, "job": "Sound Designer", "name": "Dror Mohar", "profile_path": null}, {"credit_id": "54c0cd53c3a36878d00013c5", "department": "Sound", "gender": 2, "id": 930016, "job": "Supervising Sound Editor", "name": "Dror Mohar", "profile_path": null}, {"credit_id": "52fe48ba9251416c910964eb", "department": "Crew", "gender": 0, "id": 930018, "job": "Post Production Supervisor", "name": "Alex Hulsey", "profile_path": null}]}}