{"adult": false, "backdrop_path": "/c83EOd96uzpVx6wtKNqik0AZG7e.jpg", "belongs_to_collection": null, "budget": 0, "genres": [{"id": 16, "name": "Animation"}, {"id": 35, "name": "Comedy"}], "homepage": null, "id": 83747, "imdb_id": "tt0040190", "original_language": "en", "original_title": "Buccaneer Bunny", "overview": "Yosemite Sam as a pirate makes the mistake of trying to bury his treasure chest in Bugs' hole, and pays with the loss of his ship.", "popularity": 3.778, "poster_path": "/277vEPjE48RxCR267X9oyiC6vMu.jpg", "production_companies": [{"id": 174, "logo_path": "/IuAlhI9eVC9Z8UQWOIDdWRKSEJ.png", "name": "Warner Bros. Pictures", "origin_country": "US"}], "production_countries": [{"iso_3166_1": "US", "name": "United States of America"}], "release_date": "1948-05-08", "revenue": 0, "runtime": 7, "spoken_languages": [{"iso_639_1": "en", "name": "English"}, {"iso_639_1": "fr", "name": "Fran\u00e7ais"}], "status": "Released", "tagline": "", "title": "Buccaneer Bunny", "video": false, "vote_average": 7.1, "vote_count": 22, "keywords": {"keywords": [{"id": 6513, "name": "cartoon"}]}, "similar": {"page": 1, "results": [{"id": 53210, "video": false, "vote_count": 103, "vote_average": 8.2, "title": "Duck Amuck", "release_date": "1953-02-28", "original_language": "en", "original_title": "Duck Amuck", "genre_ids": [16, 35], "backdrop_path": "/3hJQ1ps5fijMO5Y5BnxiVWtbbyA.jpg", "adult": false, "overview": "The short-tempered Daffy Duck must improvise madly as the backgrounds, his costumes, the soundtrack, even his physical form, shifts and changes at the whim of the animator.", "poster_path": "/gRZYLCncLa2mzE59qY38McDlFdN.jpg", "popularity": 9.387}, {"id": 53217, "video": false, "vote_count": 90, "vote_average": 7.5, "title": "What's Opera, Doc?", "release_date": "1957-07-06", "original_language": "en", "original_title": "What's Opera, Doc?", "genre_ids": [16, 35, 10402], "backdrop_path": "/rXuNYO4Mzqq37we9cgr9qpElsLb.jpg", "adult": false, "overview": "Bugs is in drag as the Valkyrie Brunhilde who sits on an overwieght horse. \"She\" is pursued by Elmer playing the demigod \"Siegfried\".", "poster_path": "/hPALHY93ddJEuHebvjoPgZrPxtH.jpg", "popularity": 6.623}, {"adult": false, "backdrop_path": "/bCZ18msRssQCdS0jfxbq9FqtVcm.jpg", "genre_ids": [16, 10751, 35], "id": 53220, "original_language": "en", "original_title": "Rabbit Fire", "overview": "Daffy Duck and Bugs argue back and forth whether it is duck season or rabbit season. The object of their arguments is hunter Elmer Fudd.", "poster_path": "/2sK0wjqW9XtBNIsK16691MDTBkh.jpg", "release_date": "1951-05-19", "title": "Rabbit Fire", "video": false, "vote_average": 7.4, "vote_count": 61, "popularity": 6.556}, {"adult": false, "backdrop_path": "/kBTdPNTAzagAY6UiwY957KCDGuu.jpg", "genre_ids": [16, 35, 10751], "id": 2300, "original_language": "en", "original_title": "Space Jam", "overview": "Swackhammer, an evil alien theme park owner, needs a new attraction at Moron Mountain. When his gang, the Nerdlucks, heads to Earth to kidnap Bugs Bunny and the Looney Tunes, Bugs challenges them to a basketball game to determine their fate. The aliens agree, but they steal the powers of NBA basketball players, including Larry Bird and Charles Barkley -- so Bugs gets some help from superstar Michael Jordan.", "poster_path": "/xI9AwhOWtsbFlS8tYD2PXa80p7u.jpg", "release_date": "1996-11-15", "title": "Space Jam", "video": false, "vote_average": 6.7, "vote_count": 3180, "popularity": 17.288}, {"adult": false, "backdrop_path": "/2icw1NAYK5DWqPMBQfp1YyOELWb.jpg", "genre_ids": [16, 10751, 35], "id": 52954, "original_language": "en", "original_title": "Rabbit Seasoning", "overview": "The cartoon finds a row of signs saying it's rabbit season (\"If you're looking for fun, you don't need a reason. All you need is a gun, it's Rabbit Season!\"). Bugs Bunny and Daffy Duck again are arguing over which of them is \u201cin season\u201d (it is really Duck Season, as Daffy says in the beginning), while a befuddled Elmer Fudd tries to figure out which animal is telling the truth. Between using sneaky plays-on-words, and dressing himself in women's clothing (including a Lana Turner-style sweater), Bugs manages to escape unscathed, while Daffy repeatedly has his beak blown off, upside-down, and sideways by Elmer.", "poster_path": "/aonMaH4FXfqsg9sFH99t8lbmg9l.jpg", "release_date": "1952-09-20", "title": "Rabbit Seasoning", "video": false, "vote_average": 7.3, "vote_count": 74, "popularity": 6.228}, {"adult": false, "backdrop_path": "/mbHXq2pO3FjN0TSsh2DwJjWAzAW.jpg", "genre_ids": [10402, 16, 35, 10751], "id": 34463, "original_language": "en", "original_title": "Three Little Pigs", "overview": "The two pigs building houses of hay and sticks scoff at their brother, building the brick house. But when the wolf comes around and blows their houses down (after trickery like dressing as a foundling sheep fails), they run to their brother's house. And throughout, they sing the classic song, \"Who's Afraid of the Big Bad Wolf?\".", "poster_path": "/aPmSY3y4A2xMSkF24tdIfDQNKJy.jpg", "release_date": "1933-05-27", "title": "Three Little Pigs", "video": false, "vote_average": 6.8, "vote_count": 179, "popularity": 10.829}, {"adult": false, "backdrop_path": "/hBiZTHJFrMasobPU1Rscwns2kkI.jpg", "genre_ids": [16], "id": 34933, "original_language": "en", "original_title": "Bully for Bugs", "overview": "Bugs Bunny once again making that \"wrong turn at Albuquerque\" burrows into a bullring, where a magnificent bull is making short work of a toreador. The bull bucks Bugs out of the arena, prompting the bunny to declare \"Of course you realize, this means war!\" The deft Bugs' arsenal comes plenty packed, as he uses anvils, well-placed face slaps and the bull's horns as a slingshot. The bull fights back, using his horns as a shotgun barrel. The bull's comeback is short-lived; just after Bugs makes out his will, he lures the bull out of the arena, just in time to set up a rube-like device that leads to the bull's defeat.", "poster_path": "/lqLENKX6DKPyubKrlwhwj0jqYeJ.jpg", "release_date": "1953-08-08", "title": "Bully for Bugs", "video": false, "vote_average": 7.1, "vote_count": 39, "popularity": 4.557}, {"id": 856, "video": false, "vote_count": 3249, "vote_average": 7.4, "title": "Who Framed Roger Rabbit", "release_date": "1988-06-21", "original_language": "en", "original_title": "Who Framed Roger Rabbit", "genre_ids": [16, 35, 80, 14, 10751], "backdrop_path": "/9podqGmd36AJHO13HQIQHQZRTJC.jpg", "adult": false, "overview": "'Toon star Roger is worried that his wife Jessica is playing pattycake with someone else, so the studio hires detective Eddie Valiant to snoop on her. But the stakes are quickly raised when Marvin Acme is found dead and Roger is the prime suspect.", "poster_path": "/lYfRc57Kx9VgLZ48iulu0HKnM15.jpg", "popularity": 20.755}, {"adult": false, "backdrop_path": "/5OeY4U2rzePxWq2rkqMajUx2gz7.jpg", "genre_ids": [16, 10751, 12, 14, 10749], "id": 812, "original_language": "en", "original_title": "Aladdin", "overview": "Princess Jasmine grows tired of being forced to remain in the palace, so she sneaks out into the marketplace, in disguise, where she meets street-urchin Aladdin.  The couple falls in love, although Jasmine may only marry a prince.  After being thrown in jail, Aladdin becomes embroiled in a plot to find a mysterious lamp, with which the evil Jafar hopes to rule the land.", "poster_path": "/mjKozYRuHc9j7SmiXmbVmCiAM0A.jpg", "release_date": "1992-11-25", "title": "Aladdin", "video": false, "vote_average": 7.6, "vote_count": 7289, "popularity": 35.494}, {"id": 150540, "video": false, "vote_count": 13957, "vote_average": 7.9, "title": "Inside Out", "release_date": "2015-06-09", "original_language": "en", "original_title": "Inside Out", "genre_ids": [16, 35, 18, 10751], "backdrop_path": "/szytSpLAyBh3ULei3x663mAv5ZT.jpg", "adult": false, "overview": "Growing up can be a bumpy road, and it's no exception for Riley, who is uprooted from her Midwest life when her father starts a new job in San Francisco. Riley's guiding emotions\u2014 Joy, Fear, Anger, Disgust and Sadness\u2014live in Headquarters, the control centre inside Riley's mind, where they help advise her through everyday life and tries to keep things positive, but the emotions conflict on how best to navigate a new city, house and school.", "poster_path": "/aAmfIX3TT40zUHGcCKrlOZRKC7u.jpg", "popularity": 57.362}, {"id": 326359, "video": false, "vote_count": 1180, "vote_average": 6.8, "title": "Frozen Fever", "release_date": "2015-03-09", "original_language": "en", "original_title": "Frozen Fever", "genre_ids": [12, 16, 10751], "backdrop_path": "/ubioPGniCfDiASmYYpeJs5RRNaC.jpg", "adult": false, "overview": "On Anna's birthday, Elsa and Kristoff are determined to give her the best celebration ever, but Elsa's icy powers may put more than just the party at risk.", "poster_path": "/lKJiVPzsAO9IJ4LKWXZ8vkR2bg4.jpg", "popularity": 17.218}, {"id": 10258, "video": false, "vote_count": 148, "vote_average": 6.6, "title": "The Madagascar Penguins in a Christmas Caper", "release_date": "2005-09-23", "original_language": "en", "original_title": "The Madagascar Penguins in a Christmas Caper", "genre_ids": [16, 35, 10751], "backdrop_path": "/gdJ6j1hmt6dQgObWxDJAHUb58o6.jpg", "adult": false, "overview": "During the holiday season, when the animals of the Central Park Zoo are preparing for Christmas, Private, the youngest of the penguins notices that the Polar Bear is all alone. Assured that nobody should have to spend Christmas alone, Private goes into the city for some last-minute Christmas shopping. Along the way, he gets stuffed into a stocking", "poster_path": "/r8QtfGSjDaY6vICRVyYvZvTkjxc.jpg", "popularity": 13.032}, {"id": 14813, "video": false, "vote_count": 456, "vote_average": 7.6, "title": "Mickey's Christmas Carol", "release_date": "1983-10-19", "original_language": "en", "original_title": "Mickey's Christmas Carol", "genre_ids": [16, 10751], "backdrop_path": "/fDK3xeAcQfQ40ZUULgZshElkspa.jpg", "adult": false, "overview": "It is an adaptation of the Charles Dickens classic A Christmas Carol, featuring Scrooge McDuck as his namesake and inspiration Ebenezer Scrooge and Mickey Mouse as Bob Cratchit. This film was based on a 1972 audio musical entitled Disney's A Christmas Carol. It is a twenty-four minute animated short film produced by Walt Disney Productions as an accompaniment to a re-release of The Rescuers.", "poster_path": "/29iF1IiC3ZyJQ1kmTf4LD8p8oro.jpg", "popularity": 14.7}, {"id": 460793, "video": false, "vote_count": 933, "vote_average": 6.2, "title": "Olaf's Frozen Adventure", "release_date": "2017-10-27", "original_language": "en", "original_title": "Olaf's Frozen Adventure", "genre_ids": [12, 16, 35, 14, 10402, 10751], "backdrop_path": "/9K4QqQZg4TVXcxBGDiVY4Aey3Rn.jpg", "adult": false, "overview": "Olaf is on a mission to harness the best holiday traditions for Anna, Elsa, and Kristoff.", "poster_path": "/As8WTtxXs9e3cBit3ztTf7zoRmm.jpg", "popularity": 21.98}, {"id": 481084, "video": false, "vote_count": 449, "vote_average": 6.1, "title": "The Addams Family", "release_date": "2019-10-10", "original_language": "en", "original_title": "The Addams Family", "genre_ids": [16, 35, 14, 10751], "backdrop_path": "/ur4NTeFGZmQ6Hz5uEkAMgPI3WRg.jpg", "adult": false, "overview": "The Addams family's lives begin to unravel when they face-off against a treacherous, greedy crafty reality-TV host while also preparing for their extended family to arrive for a major celebration.", "poster_path": "/q1epO0eO8DWu8Vo8tPfvVlzW48T.jpg", "popularity": 41.447}, {"adult": false, "backdrop_path": null, "genre_ids": [], "id": 616262, "original_language": "ar", "original_title": "All Come From Dust", "overview": "A loop of edgeless bend. You were its doom, he was its bloom. You were its tomb, he was its womb. You were its gloom, he was its loom. For Heaven and Hell, were words made of fume.", "poster_path": null, "release_date": "2019-08-13", "title": "All Come From Dust", "video": false, "vote_average": 5.0, "vote_count": 1, "popularity": 0.6}, {"id": 621733, "video": false, "vote_count": 0, "vote_average": 0.0, "title": "A Trip to the Seaside", "release_date": "2019-08-30", "original_language": "en", "original_title": "A Trip to the Seaside", "genre_ids": [99], "backdrop_path": null, "adult": false, "overview": "Experimental short film on the excitement and rush of a day trip", "poster_path": "/AuZVhpoJ4jm2LWDhoJKfxQfhDAi.jpg", "popularity": 1.324}, {"id": 321612, "video": false, "vote_count": 11799, "vote_average": 6.9, "title": "Beauty and the Beast", "release_date": "2017-03-16", "original_language": "en", "original_title": "Beauty and the Beast", "genre_ids": [14, 10749, 10751], "backdrop_path": "/6aUWe0GSl69wMTSWWexsorMIvwU.jpg", "adult": false, "overview": "A live-action adaptation of Disney's version of the classic tale of a cursed prince and a beautiful young woman who helps him break the spell.", "poster_path": "/tWqifoYuwLETmmasnGHO7xBjEtt.jpg", "popularity": 47.679}, {"id": 654980, "video": false, "vote_count": 0, "vote_average": 0.0, "title": "Former Cult Member Hears Music For The First Time", "release_date": "2020-01-23", "original_language": "en", "original_title": "Former Cult Member Hears Music For The First Time", "genre_ids": [], "backdrop_path": null, "adult": false, "overview": "After a woman escapes the captivity of her abusive family, a magazine invites her to a journalistic experiment: to hear music for the first time.", "poster_path": "/85K8ODZp51Cl5OAivRyjN1MKTdy.jpg", "popularity": 18.403}, {"adult": false, "backdrop_path": "/5wjmYlNOIqepQYtSp4EPto09Rwi.jpg", "genre_ids": [16, 35], "id": 134103, "original_language": "en", "original_title": "Hair-Raising Hare", "overview": "A sneaker-wearing, hairy monster chases Bugs through a castle belonging to an evil scientist.", "poster_path": "/vHSuTYqaLiDw6754xQnKTW2OGC9.jpg", "release_date": "1946-05-25", "title": "Hair-Raising Hare", "video": false, "vote_average": 7.0, "vote_count": 44, "popularity": 4.781}], "total_pages": 558, "total_results": 11145}, "recommendations": {"page": 1, "results": [{"adult": false, "backdrop_path": "/2ryp5Qz4IYDsBrlxtRNCpOGpldz.jpg", "genre_ids": [16, 35], "id": 83679, "original_language": "en", "original_title": "Baby Bottleneck", "overview": "As the baby boom commences, and with the delivery service overworked, Porky and Daffy are placed in charge of a baby factory, where they help the stork keep up... until an unidentified egg comes off the assembly line.", "poster_path": "/AmesAhYiaMMPKUcFr9Hlpm6JZlN.jpg", "release_date": "1946-03-16", "title": "Baby Bottleneck", "video": false, "vote_average": 6.7, "vote_count": 17, "popularity": 3.956}, {"adult": false, "backdrop_path": "/x8jXsgy9XJmm8to1h0ZNX72pUts.jpg", "genre_ids": [16, 35, 10751, 878], "id": 88769, "original_language": "en", "original_title": "The Old Grey Hare", "overview": "Elmer wonders if he'll ever catch the rabbit; the voice of God takes him through a flash-forward to the year 2000. Elmer is equipped with a rocket-launcher rifle, but he's no smarter. He shoots Bugs, who shows him a photo album with baby pictures. We see a sequence of Bugs and Elmer as babies. Elderly Bugs digs his own grave and tricks Elmer into getting in.", "poster_path": "/39oYX5xJlf78mOO0R9J59N2KFd7.jpg", "release_date": "1944-10-28", "title": "The Old Grey Hare", "video": false, "vote_average": 7.3, "vote_count": 15, "popularity": 4.154}, {"adult": false, "backdrop_path": "/oRzzBZ2zpamDDGpOSCCHfL2nphB.jpg", "genre_ids": [16, 10751, 35], "id": 34929, "original_language": "en", "original_title": "Baseball Bugs", "overview": "A baseball game is going on in New York City, at the Polo Grounds (although the rooftop facade is more suggestive of Yankee Stadium), between the visiting \"Gas-House Gorillas\" and the home team, the \"Tea Totallers\". The game is not going well for the Tea Totallers, as the Gorillas, a bunch of oversized, roughneck players, are not only dominating the Tea Totallers, made up of old men, but intimidating the umpire by knocking him into the ground like a tent peg after an unpopular judgment. The Gorillas' home runs go screaming out of the ballpark (literally) and the batters form a conga line, with each hitter knocking a ball out.", "poster_path": "/6sVUeSueyiS7Rh36LApVeIaiAL2.jpg", "release_date": "1946-02-02", "title": "Baseball Bugs", "video": false, "vote_average": 6.8, "vote_count": 31, "popularity": 5.848}, {"adult": false, "backdrop_path": "/m5lzwIslDgNmvu0MTUiP5pqpAea.jpg", "genre_ids": [16, 10751, 35], "id": 83792, "original_language": "en", "original_title": "Hare Tonic", "overview": "Elmer brings Bugs home for dinner. To save himself, Bugs tricks Elmer into thinking there is a terrible outbreak of Rabbititus.", "poster_path": "/yiceqCPDPIbaUZ2ZR7bwss5lTE3.jpg", "release_date": "1945-11-10", "title": "Hare Tonic", "video": false, "vote_average": 6.8, "vote_count": 20, "popularity": 4.641}, {"id": 83675, "video": false, "vote_count": 16, "vote_average": 7.3, "title": "A Pest in the House", "release_date": "1947-08-02", "original_language": "en", "original_title": "A Pest in the House", "genre_ids": [16, 35], "backdrop_path": "/n9kQhz5q5DUOIxTRTsruE3yXqsX.jpg", "adult": false, "overview": "After a prologue about the labor shortage being so acute that some employers would hire anybody or anything, a very tired businessman needs some sleep and checks into a hotel run by Elmer Fudd.", "poster_path": "/vkNtdynFMxV2b8u9mRlpzZm78nZ.jpg", "popularity": 4.563}, {"id": 83813, "video": false, "vote_count": 20, "vote_average": 7.0, "title": "Kiss Me Cat", "release_date": "1953-02-21", "original_language": "en", "original_title": "Kiss Me Cat", "genre_ids": [16, 35, 10751], "backdrop_path": "/hnPN5thWjU0mLKqqiQD8OJPssW2.jpg", "adult": false, "overview": "Marc Antony must convince his owner that Pussyfoot is a great mouser to keep him in the house.", "poster_path": "/rp2kENpZugo7aO0VBUaM7uCqxj8.jpg", "popularity": 4.604}, {"id": 74914, "video": false, "vote_count": 34, "vote_average": 7.1, "title": "8 Ball Bunny", "release_date": "1950-07-08", "original_language": "en", "original_title": "8 Ball Bunny", "genre_ids": [16, 35, 10751], "backdrop_path": "/gY74E37lEl3sa6gO0ZTxjYw4lMp.jpg", "adult": false, "overview": "Bugs helps a penguin go home via New Orleans, Martinique, the Panama Canal and finally the South Pole. But the penguin's home is in New Jersey.", "poster_path": "/71WEqPrI52Zf7uxqla1Gf7M3uAQ.jpg", "popularity": 4.297}, {"adult": false, "backdrop_path": "/fVtMKyE04kCBUYb3MEsyeADJbvW.jpg", "genre_ids": [16, 10751, 35], "id": 83775, "original_language": "en", "original_title": "From A to Z-Z-Z-Z", "overview": "Ralph is a daydreamer... and he is quick to adapt his current surroundings into new, adventurous dreams.", "poster_path": "/ro3aeny3NTXhbFOSSfRpboFf3KY.jpg", "release_date": "1954-10-16", "title": "From A to Z-Z-Z-Z", "video": false, "vote_average": 6.1, "vote_count": 12, "popularity": 3.753}, {"adult": false, "backdrop_path": "/yrp5VA2rrtj4M58zXvomnybgQBn.jpg", "genre_ids": [16, 35], "id": 121159, "original_language": "en", "original_title": "Kitty Kornered", "overview": "Porky puts his cats out in the snow, but then they put him out and have a party. Expelling them again, Porky goes to bed, only to be terrorized by the felines' mock Martian invasion.", "poster_path": "/aGwE7TVrxE0PMCWLDQLdnfmrlVv.jpg", "release_date": "1946-06-08", "title": "Kitty Kornered", "video": false, "vote_average": 6.9, "vote_count": 18, "popularity": 5.317}, {"id": 83676, "video": false, "vote_count": 17, "vote_average": 7.0, "title": "A Tale of Two Kitties", "release_date": "1942-11-21", "original_language": "en", "original_title": "A Tale of Two Kitties", "genre_ids": [16, 35, 10751], "backdrop_path": "/oSnPy6xa0NbvqtQP4PuTNFexT7X.jpg", "adult": false, "overview": "Two alley cats, Babbitt and Catsello, decide to make a meal out of Orson as he sleeps in his nest atop a telephone pole. The gullible (and loud) Catsello is repeatedly gulled into trying to \"get the bird,\" earning a variety of thrashings from the casually murderous little canary. Catsello finally resorts to an air strike (with a pair of wooden boards for wings), but it's wartime, and Orson has the cat blasted out of the sky by anti-aircraft guns.", "poster_path": "/iUs72gvIRJ3PmZHw3x9hQeyMBWg.jpg", "popularity": 3.399}, {"id": 88601, "video": false, "vote_count": 27, "vote_average": 6.8, "title": "Rabbit Hood", "release_date": "1949-12-24", "original_language": "en", "original_title": "Rabbit Hood", "genre_ids": [16, 35, 10751], "backdrop_path": "/1b3wS2uTcZL4Rw44u2tzpGXVZN6.jpg", "adult": false, "overview": "While unwittingly trespassing in the royal gardens in search of carrots, Bugs runs afoul of the Sheriff of Nottingham, who tries to apprehend him for poaching. The royal grounds are, in fact, amply posted with \"No Poaching\" signs (one reads \"Not even an egg\"), but Bugs either didn't see or ignored them. Of course, Bugs sets out to endlessly turn the tables on the hapless sheriff, at one point talking him into building a six-room Tudor home in the middle of the King's gardens. The dueling pair are periodically interrupted by a fat, dopey Little John who proclaims, each time he appears, \"Don't you worry never fear, Robin Hood will soon be here\". In the end, the merriest of merry men does appear and it's...it's...oh, see it yourself. Bugs goes in disguise as the King, who then knights the Sheriff (\"Arise, Sir Loin of Beef...\").", "poster_path": "/qjOux6NCDeAcv5mmiqbLl6ATN3g.jpg", "popularity": 3.989}, {"id": 100393, "video": false, "vote_count": 15, "vote_average": 6.6, "title": "Back Alley Oproar", "release_date": "1948-03-25", "original_language": "en", "original_title": "Back Alley Oproar", "genre_ids": [16, 35, 10751], "backdrop_path": "/ck9v9EI0T8mausRXtSz4sX6pjpD.jpg", "adult": false, "overview": "Sylvester sings opera and popular tunes while standing on a back alley fence; Elmer, who wants to sleep, tries to thwart him.", "poster_path": "/fxnW48ZG6EhD6z7Svs0imYak9mQ.jpg", "popularity": 3.321}, {"id": 83790, "video": false, "vote_count": 25, "vote_average": 6.8, "title": "Haredevil Hare", "release_date": "1948-07-24", "original_language": "en", "original_title": "Haredevil Hare", "genre_ids": [16, 35, 878], "backdrop_path": "/bpwBlYojiZWO0xBxB3e2W1zBbMR.jpg", "adult": false, "overview": "Bugs is the test rabbit shot to the moon. There, he meets Commander X-2, who is intent on destroying the Earth with his Aludium Q-36 Explosive Space Modulator.", "poster_path": "/6rVLHBRR2U64Ifi4RVAS8D17SPb.jpg", "popularity": 4.243}, {"adult": false, "backdrop_path": "/oWtRgXQPxTtigoI8JYiQhVMEgu1.jpg", "genre_ids": [16, 10751, 35], "id": 84587, "original_language": "en", "original_title": "The Hasty Hare", "overview": "A fey little Martian, with his green dog-soldier, K-9, arrive on Earth with instructions to bring back an Earth creature. He chooses Bugs Bunny.", "poster_path": "/oJGSex58fx7bLR8MDgfD8akmQzV.jpg", "release_date": "1952-06-07", "title": "The Hasty Hare", "video": false, "vote_average": 6.4, "vote_count": 13, "popularity": 3.623}, {"id": 84594, "video": false, "vote_count": 26, "vote_average": 7.3, "title": "Scaredy Cat", "release_date": "1948-12-18", "original_language": "en", "original_title": "Scaredy Cat", "genre_ids": [16, 35, 27], "backdrop_path": "/ia5n7fpYWZHr33P6E8DEVL8ptrP.jpg", "adult": false, "overview": "Porky and Sylvester spend the night in an old dark house, whose horrors only Sylvester sees. His repeated attempts to save Porky from the ghoulish doings of the killer mice infesting the place only make the skeptical Porky all the more convinced of Sylvester's cowardice.", "poster_path": "/93HDeoljqxoeJLjDbI8e57sakDe.jpg", "popularity": 4.652}, {"adult": false, "backdrop_path": "/4FvqqSTElBMyEeWYC0vZpJnDvCC.jpg", "genre_ids": [16, 10751, 35], "id": 83760, "original_language": "en", "original_title": "Ducking the Devil", "overview": "Daffy tries to snare the escaped Tasmanian Devil for the $5000 reward offered by the city zoo.", "poster_path": null, "release_date": "1957-08-17", "title": "Ducking the Devil", "video": false, "vote_average": 6.2, "vote_count": 12, "popularity": 3.996}, {"id": 169669, "video": false, "vote_count": 11, "vote_average": 6.5, "title": "14 Carrot Rabbit", "release_date": "1952-03-15", "original_language": "en", "original_title": "14 Carrot Rabbit", "genre_ids": [16], "backdrop_path": null, "adult": false, "overview": "Yosemite Sam (as Chilikoot Sam) tries, unsuccessfully to steal gold from Bugs Bunny during the Yukon gold rush.", "poster_path": "/yzOsz3USbST6QgqnlAMkC6UJDWZ.jpg", "popularity": 2.827}, {"id": 83743, "video": false, "vote_count": 22, "vote_average": 7.0, "title": "Bewitched Bunny", "release_date": "1954-07-24", "original_language": "en", "original_title": "Bewitched Bunny", "genre_ids": [16, 35, 10751], "backdrop_path": "/rqIVxGKVkpRyF8g0bb6j731hkeB.jpg", "adult": false, "overview": "Bugs must rescue Hansel and Gretel from Witch Hazel's clutches.", "poster_path": "/ZhzYP6hfggzIvyQUwyYcs78qzH.jpg", "popularity": 4.943}, {"id": 74961, "video": false, "vote_count": 39, "vote_average": 7.0, "title": "Fast and Furry-ous", "release_date": "1949-09-17", "original_language": "en", "original_title": "Fast and Furry-ous", "genre_ids": [16, 35], "backdrop_path": "/5e9E6TovGRVfhrORFicgr5FWunY.jpg", "adult": false, "overview": "This was the debut for Wile E. Coyote and the Road Runner. It was also their only cartoon made in the 1940s. It set the template for the series, in which Wile E. Coyote (here given the ersatz Latin name Carnivorous Vulgaris) tries to catch Roadrunner (Accelleratii Incredibus) through many traps, plans and products, although in this first cartoon not all of the products are yet made by the Acme Corporation.", "poster_path": "/fyrMmLuMdsnJfQg3FyOniBBK1VG.jpg", "popularity": 5.226}, {"id": 83750, "video": false, "vote_count": 22, "vote_average": 6.7, "title": "Devil May Hare", "release_date": "1954-06-19", "original_language": "en", "original_title": "Devil May Hare", "genre_ids": [16, 35, 10751], "backdrop_path": "/bAxcgMD9Td7VWn73Wtez4IgZUZU.jpg", "adult": false, "overview": "The Tasmanian Devil is on the loose. Bugs offers to help him find his dinner.", "poster_path": "/aBx6AyA74GzZ2eSXPEeQbJddnVD.jpg", "popularity": 3.415}], "total_pages": 2, "total_results": 40}, "credits": {"cast": [{"cast_id": 2, "character": "Bugs Bunny, Yosemite Sam", "credit_id": "52fe48bc9251416c91096975", "gender": 2, "id": 33923, "name": "Mel Blanc", "order": 0, "profile_path": "/s3R5zsrL2Wwv1mtK65sAVNTNhTY.jpg"}], "crew": [{"credit_id": "5b720dd40e0a267ef81a9cdd", "department": "Editing", "gender": 2, "id": 149379, "job": "Editor", "name": "Treg Brown", "profile_path": null}, {"credit_id": "5b720de59251414054182dec", "department": "Sound", "gender": 2, "id": 149379, "job": "Sound Effects Editor", "name": "Treg Brown", "profile_path": null}, {"credit_id": "52fe48bc9251416c91096981", "department": "Writing", "gender": 2, "id": 362742, "job": "Story", "name": "Michael Maltese", "profile_path": "/6KVX3aN3696Ju01gg21xjD2GeMQ.jpg"}, {"credit_id": "52fe48bc9251416c91096987", "department": "Writing", "gender": 2, "id": 375782, "job": "Story", "name": "Tedd Pierce", "profile_path": "/ht68ljmTR1h1Z0sm3Wv99EiOnrz.jpg"}, {"credit_id": "52fe48bc9251416c9109698d", "department": "Production", "gender": 2, "id": 457819, "job": "Producer", "name": "Edward Selzer", "profile_path": null}, {"credit_id": "52fe48bc9251416c91096999", "department": "Visual Effects", "gender": 2, "id": 549358, "job": "Animation", "name": "Gerry Chiniquy", "profile_path": "/rBCRjs3nr9YdXGsvFphW9y9oM6s.jpg"}, {"credit_id": "52fe48bc9251416c9109699f", "department": "Sound", "gender": 2, "id": 551674, "job": "Original Music Composer", "name": "Carl W. Stalling", "profile_path": "/7w0TsnkpyHLIYsAyYFVbdIBj2RU.jpg"}, {"credit_id": "52fe48bc9251416c91096993", "department": "Visual Effects", "gender": 2, "id": 573775, "job": "Animation", "name": "Ken Champin", "profile_path": null}, {"credit_id": "52fe48bc9251416c9109697b", "department": "Directing", "gender": 2, "id": 930633, "job": "Director", "name": "Friz Freleng", "profile_path": "/tX70PYiimQLwTIFQp9n7z1qpNwk.jpg"}]}}