{"adult": false, "backdrop_path": null, "belongs_to_collection": null, "budget": 0, "genres": [{"id": 28, "name": "Action"}, {"id": 18, "name": "Drama"}], "homepage": null, "id": 83805, "imdb_id": "tt0071226", "original_language": "en", "original_title": "Black Samson", "overview": "Noble nightclub owner Samson does his best to keep his neighborhood clean of crime and drugs. When vicious mobster Johnny Nappa tries to muscle in on Samson's territory, Samson takes a brave stand against Nappa and his flunkies.", "popularity": 3.108, "poster_path": "/d0bB3Th5qwVSc9KOkle5EWAPuEG.jpg", "production_companies": [{"id": 18067, "logo_path": null, "name": "Omni Pictures", "origin_country": ""}], "production_countries": [{"iso_3166_1": "US", "name": "United States of America"}], "release_date": "1974-08-14", "revenue": 0, "runtime": 88, "spoken_languages": [{"iso_639_1": "en", "name": "English"}], "status": "Released", "tagline": "One brother's war against the Man.", "title": "Black Samson", "video": false, "vote_average": 6.1, "vote_count": 5, "keywords": {"keywords": [{"id": 2043, "name": "lion"}, {"id": 2334, "name": "nightclub"}, {"id": 10601, "name": "blaxploitation"}, {"id": 188933, "name": "bar fight"}]}, "similar": {"page": 1, "results": [{"id": 57586, "video": false, "vote_count": 128, "vote_average": 7.1, "title": "African Cats", "release_date": "2011-04-22", "original_language": "en", "original_title": "African Cats", "genre_ids": [12, 99], "backdrop_path": "/mFTlNXsPzny0geJLxdo3ddzFR1Q.jpg", "adult": false, "overview": "African Cats captures the real-life love, humor and determination of the majestic kings of the savanna. The story features Mara, an endearing lion cub who strives to grow up with her mother\u2019s strength, spirit and wisdom; Sita, a fearless cheetah and single mother of five mischievous newborns; and Fang, a proud leader of the pride who must defend his family from a once banished lion.", "poster_path": "/3exZKtP0r88MhP12HeTgp4uiVRu.jpg", "popularity": 14.12}, {"adult": false, "backdrop_path": "/kR48L1E3OLOkQcnlmpi5wDj7ZZt.jpg", "genre_ids": [80, 18], "id": 180863, "original_language": "en", "original_title": "T2 Trainspotting", "overview": "After 20 years abroad, Mark Renton returns to Scotland and reunites with his old friends Sick Boy, Spud and Begbie.", "poster_path": "/fbHXfr2N4pI2j7i9RLYiddjotBl.jpg", "release_date": "2017-01-27", "title": "T2 Trainspotting", "video": false, "vote_average": 7.0, "vote_count": 1916, "popularity": 12.925}, {"id": 269149, "video": false, "vote_count": 10906, "vote_average": 7.7, "title": "Zootopia", "release_date": "2016-02-11", "original_language": "en", "original_title": "Zootopia", "genre_ids": [12, 16, 35, 10751], "backdrop_path": "/mhdeE1yShHTaDbJVdWyTlzFvNkr.jpg", "adult": false, "overview": "Determined to prove herself, Officer Judy Hopps, the first bunny on Zootopia's police force, jumps at the chance to crack her first case - even if it means partnering with scam-artist fox Nick Wilde to solve the mystery.", "poster_path": "/sM33SANp9z6rXW8Itn7NnG1GOEs.jpg", "popularity": 63.21}, {"id": 9904, "video": false, "vote_count": 559, "vote_average": 5.3, "title": "The Wild", "release_date": "2006-03-06", "original_language": "en", "original_title": "The Wild", "genre_ids": [16, 10751], "backdrop_path": "/z8bCwHtKypfDoqChf41pKWR41Xb.jpg", "adult": false, "overview": "An adolescent lion is accidentally shipped from the New York Zoo to Africa. Now running free, his zoo pals must put aside their differences to help bring him back.", "poster_path": "/uxTtgh4tpSWVulXLCDqKU10cWXo.jpg", "popularity": 19.726}, {"id": 10527, "video": false, "vote_count": 4217, "vote_average": 6.4, "title": "Madagascar: Escape 2 Africa", "release_date": "2008-10-30", "original_language": "en", "original_title": "Madagascar: Escape 2 Africa", "genre_ids": [16, 35, 10751], "backdrop_path": "/anxiz37Z9FPKeuCsJcxViSWmPxg.jpg", "adult": false, "overview": "Alex, Marty, and other zoo animals find a way to escape from Madagascar when the penguins reassemble a wrecked airplane. The precariously repaired craft stays airborne just long enough to make it to the African continent. There the New Yorkers encounter members of their own species for the first time. Africa proves to be a wild place, but Alex and company wonder if it is better than their Central Park home.", "poster_path": "/9mohxwknsHcwFBSAAhoQXwFV5zn.jpg", "popularity": 21.514}, {"id": 9732, "video": false, "vote_count": 2662, "vote_average": 6.9, "title": "The Lion King II: Simba's Pride", "release_date": "1998-10-24", "original_language": "en", "original_title": "The Lion King II: Simba's Pride", "genre_ids": [12, 16, 10751], "backdrop_path": "/4LHPAe8CWFEz3jp4V3yKOQ7QXBz.jpg", "adult": false, "overview": "The circle of life continues for Simba, now fully grown and in his rightful place as the king of Pride Rock. Simba and Nala have given birth to a daughter, Kiara who's as rebellious as her father was. But Kiara drives her parents to distraction when she catches the eye of Kovu, the son of the evil lioness, Zira. Will Kovu steal Kiara's heart?", "poster_path": "/6YOBZYEkVxNzX7Sod7yChotUp5g.jpg", "popularity": 30.734}, {"adult": false, "backdrop_path": "/4T2EpBzG4VyqDijObJFjWse8RaH.jpg", "genre_ids": [12, 35, 10751, 10749], "id": 10603, "original_language": "en", "original_title": "George of the Jungle", "overview": "After Baby George survives a plane crash in the jungle, he is rescued and then adopted by a wise ape. Years later, grown-up George saves a US noble woman, Ursula Stanhope while she is on a safari\u2014and takes her to the jungle to live with him. While Ursula's lover continues his search for Ursula and the one who took her, George slowly learns the rules of human relationships.", "poster_path": "/wTvuMi6YlO6bVe2Ax5mEL1dbVYv.jpg", "release_date": "1997-07-15", "title": "George of the Jungle", "video": false, "vote_average": 5.4, "vote_count": 1149, "popularity": 15.381}, {"id": 420818, "video": false, "vote_count": 4263, "vote_average": 7.1, "title": "The Lion King", "release_date": "2019-07-12", "original_language": "en", "original_title": "The Lion King", "genre_ids": [12, 10751], "backdrop_path": "/nRXO2SnOA75OsWhNhXstHB8ZmI3.jpg", "adult": false, "overview": "Simba idolizes his father, King Mufasa, and takes to heart his own royal destiny. But not everyone in the kingdom celebrates the new cub's arrival. Scar, Mufasa's brother\u2014and former heir to the throne\u2014has plans of his own. The battle for Pride Rock is ravaged with betrayal, tragedy and drama, ultimately resulting in Simba's exile. With help from a curious pair of newfound friends, Simba will have to figure out how to grow up and take back what is rightfully his.", "poster_path": "/2bXbqYdUdNVa8VIWXVfclP2ICtT.jpg", "popularity": 63.363}, {"id": 11430, "video": false, "vote_count": 1850, "vote_average": 6.5, "title": "The Lion King 1\u00bd", "release_date": "2004-02-06", "original_language": "en", "original_title": "The Lion King 1\u00bd", "genre_ids": [16, 35, 10751], "backdrop_path": "/ycw3fFPYFDMTvSV0240WHQL8Vik.jpg", "adult": false, "overview": "Timon the meerkat and Pumbaa the warthog are best pals and the unsung heroes of the African savanna. This prequel to the smash Disney animated adventure takes you back -- way back -- before Simba's adventure began. You'll find out all about Timon and Pumbaa and tag along as they search for the perfect home and attempt to raise a rambunctious lion cub.", "poster_path": "/vDfaIoXTaQLUD5HVAv2hLIFKAcq.jpg", "popularity": 32.978}, {"id": 606, "video": false, "vote_count": 697, "vote_average": 7.3, "title": "Out of Africa", "release_date": "1985-12-20", "original_language": "en", "original_title": "Out of Africa", "genre_ids": [18, 36, 10749], "backdrop_path": "/uMPrCi5DA0kuIeZGjoE7FPGqETW.jpg", "adult": false, "overview": "Out of Africa tells the story of the life of Danish author Karen Blixen, who at the beginning of the 20th century moved to Africa to build a new life for herself. The film is based on the autobiographical novel by Karen Blixen from 1937.", "poster_path": "/gYNfg38sM4aSpxfC8gPkwg5UZHN.jpg", "popularity": 12.229}, {"id": 18513, "video": false, "vote_count": 39, "vote_average": 6.8, "title": "The Naked Prey", "release_date": "1965-06-01", "original_language": "en", "original_title": "The Naked Prey", "genre_ids": [28, 18, 53], "backdrop_path": "/6Y0t25qr35ShXZfr3DYwDDSdPyB.jpg", "adult": false, "overview": "A group of men are on safari. One of the party refuses to give a gift to a tribe they encounter. The tribe is offended, seizes the party, and one-by-one, kills all but one of the safari members in various creative and horrifying ways. The last surviving member is given \"The Lion's Chance\" by the tribal leader to be hunted down by a party of tribal warriors.", "poster_path": "/jnAClNX0E4SRLWusT7lJcuUrcnR.jpg", "popularity": 5.206}, {"id": 8393, "video": false, "vote_count": 509, "vote_average": 7.1, "title": "The Gods Must Be Crazy", "release_date": "1980-09-10", "original_language": "en", "original_title": "The Gods Must Be Crazy", "genre_ids": [28, 35], "backdrop_path": "/iVxo0Qy4FMIEF9LhBJtJwwvsuIU.jpg", "adult": false, "overview": "A Coca-Cola bottle dropped from an airplane raises havoc among a normally peaceful tribe of African bushmen who believe it to be a utensil of the gods.", "poster_path": "/yvD2BWOEM5N4S4f6Yj8IVVjoKQO.jpg", "popularity": 29.937}, {"id": 8587, "video": false, "vote_count": 11488, "vote_average": 8.2, "title": "The Lion King", "release_date": "1994-05-07", "original_language": "en", "original_title": "The Lion King", "genre_ids": [16, 18, 10751], "backdrop_path": "/2wW1hyNxpU36aNtNSHVhIOJccde.jpg", "adult": false, "overview": "A young lion prince is cast out of his pride by his cruel uncle, who claims he killed his father. While the uncle rules with an iron paw, the prince grows up beyond the Savannah, living by a philosophy: No worries for the rest of your days. But when his past comes to haunt him, the young prince must decide his fate: Will he remain an outcast or face his demons and become what he needs to be?", "poster_path": "/sKCr78MXSLixwmZ8DyJLrpMsd15.jpg", "popularity": 35.175}, {"id": 287904, "video": false, "vote_count": 117, "vote_average": 5.7, "title": "The Last Face", "release_date": "2016-05-20", "original_language": "en", "original_title": "The Last Face", "genre_ids": [18], "backdrop_path": "/5HoPEjUhVIqf1x4xMTdjwnAKSuV.jpg", "adult": false, "overview": "Miguel, a heroic Spanish doctor, puts himself in harm's way to deliver medical treatment to the victims of military uprisings in Africa.", "poster_path": "/kx4qydBEPFbVvxbEXUm0jNX0vU4.jpg", "popularity": 18.976}, {"adult": false, "backdrop_path": "/3WgaU6OjTlvjOhbq5C0UmKYQGoW.jpg", "genre_ids": [18, 10749], "id": 26338, "original_language": "fr", "original_title": "Romance", "overview": "Although deeply in love with her boyfriend - and indeed sleeping in the same bed with him - a schoolteacher cannot handle the almost complete lack of intimacy he will allow. Increasingly frustrated, she gradually finds her sexual appetites leading her into ever more risky situations, including a developing one with the headmaster.", "poster_path": "/lcDSXXnZok1qyv4TQ14iZ8g8OHf.jpg", "release_date": "1999-04-13", "title": "Romance", "video": false, "vote_average": 5.3, "vote_count": 101, "popularity": 15.928}, {"id": 627, "video": false, "vote_count": 6003, "vote_average": 8.0, "title": "Trainspotting", "release_date": "1996-02-23", "original_language": "en", "original_title": "Trainspotting", "genre_ids": [80, 18], "backdrop_path": "/Aw0z8bUhGljT0ots6udf1MTLEMi.jpg", "adult": false, "overview": "Mark Renton, deeply immersed in the Edinburgh drug scene, tries to clean up and get out, despite the allure of the drugs and influence of friends.", "poster_path": "/p1O3eFsdb0GEIYu87xlwV7P4jM1.jpg", "popularity": 38.614}, {"id": 37135, "video": false, "vote_count": 4091, "vote_average": 7.4, "title": "Tarzan", "release_date": "1999-06-18", "original_language": "en", "original_title": "Tarzan", "genre_ids": [12, 16, 18, 10751], "backdrop_path": "/hCpRqibOM0ouOiqL0HMqZOF8bYe.jpg", "adult": false, "overview": "Tarzan was a small orphan who was raised by an ape named Kala since he was a child. He believed that this was his family, but on an expedition Jane Porter is rescued by Tarzan. He then finds out that he's human. Now Tarzan must make the decision as to which family he should belong to...", "poster_path": "/y6k0qn4tcDfbnrjJ2BUnoZYmMBk.jpg", "popularity": 21.81}, {"id": 528888, "video": false, "vote_count": 352, "vote_average": 7.1, "title": "Dolemite Is My Name", "release_date": "2019-10-04", "original_language": "en", "original_title": "Dolemite Is My Name", "genre_ids": [35, 18, 36], "backdrop_path": "/8FuiFasbeFQj24Vqx6JqSCqj5lO.jpg", "adult": false, "overview": "The story of Rudy Ray Moore, who created the iconic big screen pimp character Dolemite in the 1970s.", "poster_path": "/uoAqJg7ZSmftnBGOkupU1ySZQU0.jpg", "popularity": 46.626}, {"id": 284054, "video": false, "vote_count": 14041, "vote_average": 7.4, "title": "Black Panther", "release_date": "2018-02-13", "original_language": "en", "original_title": "Black Panther", "genre_ids": [28, 12, 14, 878], "backdrop_path": "/6ELJEzQJ3Y45HczvreC3dg0GV5R.jpg", "adult": false, "overview": "King T'Challa returns home from America to the reclusive, technologically advanced African nation of Wakanda to serve as his country's new leader. However, T'Challa soon finds that he is challenged for the throne by factions within his own country as well as without. Using powers reserved to Wakandan kings, T'Challa assumes the Black Panther mantel to join with girlfriend Nakia, the queen-mother, his princess-kid sister, members of the Dora Milaje (the Wakandan 'special forces') and an American secret agent, to prevent Wakanda from being dragged into a world war.", "poster_path": "/uxzzxijgPIY7slzFvMotPv8wjKA.jpg", "popularity": 51.557}, {"id": 258489, "video": false, "vote_count": 4392, "vote_average": 5.8, "title": "The Legend of Tarzan", "release_date": "2016-06-29", "original_language": "en", "original_title": "The Legend of Tarzan", "genre_ids": [28, 12], "backdrop_path": "/d9H2nXfKslf6B1cm7UtPBKhtUgA.jpg", "adult": false, "overview": "Tarzan, having acclimated to life in London, is called back to his former home in the jungle to investigate the activities at a mining encampment.", "poster_path": "/6FxOPJ9Ysilpq0IgkrMJ7PubFhq.jpg", "popularity": 21.023}], "total_pages": 47, "total_results": 924}, "recommendations": {"page": 1, "results": [], "total_pages": 1, "total_results": 0}, "credits": {"cast": [{"cast_id": 4, "character": "Samson", "credit_id": "52fe48c19251416c91097483", "gender": 2, "id": 119717, "name": "Rockne Tarkington", "order": 0, "profile_path": "/1r3BdgbPh3yl9KLTdxwXexKDUCy.jpg"}, {"cast_id": 5, "character": "Johnny Nappa", "credit_id": "52fe48c19251416c91097487", "gender": 2, "id": 98102, "name": "William Smith", "order": 1, "profile_path": "/tWYurHQCqBdwgq7YAdaZ2AoRV0a.jpg"}, {"cast_id": 6, "character": "Tina", "credit_id": "52fe48c19251416c9109748b", "gender": 0, "id": 99843, "name": "Connie Strickland", "order": 2, "profile_path": null}, {"cast_id": 7, "character": "Leslie", "credit_id": "52fe48c19251416c9109748f", "gender": 1, "id": 89570, "name": "Carol Speed", "order": 3, "profile_path": "/cVdpcSNEhQR0Z9Qlg9hbLuW8tNU.jpg"}, {"cast_id": 8, "character": "Arthur", "credit_id": "5665dd0dc3a36806ae0007ef", "gender": 0, "id": 1546050, "name": "Michael Payne", "order": 4, "profile_path": null}, {"cast_id": 9, "character": "Harry", "credit_id": "582b7e2cc3a368360f049e50", "gender": 2, "id": 84978, "name": "Joe Tornatore", "order": 5, "profile_path": null}, {"cast_id": 10, "character": "Joseph Nappa", "credit_id": "582b7e35c3a3682358010272", "gender": 2, "id": 140177, "name": "Titos Vandis", "order": 6, "profile_path": "/LXcP5GMuCeOcNdxOVMlExUXqrg.jpg"}, {"cast_id": 11, "character": "Old Henry", "credit_id": "582b7e41c3a368360604aba0", "gender": 0, "id": 86371, "name": "Napoleon Whiting", "order": 7, "profile_path": "/sdHalZV8OGs0xS5ZKaW0a8EYwIC.jpg"}, {"cast_id": 12, "character": "Michael Briggs", "credit_id": "582b7e4b9251417b18047f4f", "gender": 2, "id": 45501, "name": "John Alderman", "order": 8, "profile_path": "/8tY2tMpmvDPsGItv4hnQlv2NzkE.jpg"}, {"cast_id": 13, "character": "Widow (as Tracy Ann King)", "credit_id": "582b7e5ac3a368623f023bed", "gender": 1, "id": 52615, "name": "Marilyn Joi", "order": 9, "profile_path": "/gNSt5ORLeL6431q7n65EmhjN20T.jpg"}], "crew": [{"credit_id": "52fe48c19251416c91097473", "department": "Directing", "gender": 2, "id": 21916, "job": "Director", "name": "Charles Bail", "profile_path": null}, {"credit_id": "52fe48c19251416c91097479", "department": "Writing", "gender": 0, "id": 99897, "job": "Story", "name": "Daniel Cady", "profile_path": null}, {"credit_id": "52fe48c19251416c9109747f", "department": "Writing", "gender": 0, "id": 1269306, "job": "Screenplay", "name": "Warren Hamilton Jr.", "profile_path": null}]}}