{"adult": false, "backdrop_path": "/sY5CvNawlE9De3bMALQ2M3bUj8B.jpg", "belongs_to_collection": null, "budget": 0, "genres": [{"id": 18, "name": "Drama"}, {"id": 10749, "name": "Romance"}], "homepage": null, "id": 8391, "imdb_id": "tt0114916", "original_language": "en", "original_title": "When Night Is Falling", "overview": "A prudish woman working on tenure as a literacy professor at a large urban university finds herself attracted to a free-spirited, liberal woman who works at a local carnival.", "popularity": 8.128, "poster_path": "/f9edMkT6bLXVvZICn47ARnQ1Iu5.jpg", "production_companies": [{"id": 2480, "logo_path": null, "name": "Alliance Communications Corporation", "origin_country": ""}], "production_countries": [{"iso_3166_1": "CA", "name": "Canada"}], "release_date": "1995-05-05", "revenue": 0, "runtime": 96, "spoken_languages": [{"iso_639_1": "en", "name": "English"}], "status": "Released", "tagline": "", "title": "When Night Is Falling", "video": false, "vote_average": 6.5, "vote_count": 31, "keywords": {"keywords": [{"id": 1992, "name": "professor"}, {"id": 158718, "name": "lgbt"}, {"id": 187056, "name": "woman director"}]}, "similar": {"page": 1, "results": [{"adult": false, "backdrop_path": "/gZeJziVigmRqbkEZwKAtSqlLQ6s.jpg", "genre_ids": [18, 10749], "id": 370663, "original_language": "en", "original_title": "Below Her Mouth", "overview": "An unexpected affair quickly escalates into a heart-stopping reality for two women whose passionate connection changes their lives forever.", "poster_path": "/nTGbq37hYLuNy7YgMg0gVLma0NS.jpg", "release_date": "2016-09-10", "title": "Below Her Mouth", "video": false, "vote_average": 6.2, "vote_count": 456, "popularity": 22.676}, {"adult": false, "backdrop_path": "/s12HEmmkJfI2mjltI61hGm5kubD.jpg", "genre_ids": [35, 18, 10749], "id": 20770, "original_language": "en", "original_title": "But I'm a Cheerleader", "overview": "Megan is an all-American girl. A cheerleader. She has a boyfriend. But Megan doesn't like kissing her boyfriend very much. And she's pretty touchy with her cheerleader friends. Her conservative parents worry that she must be a lesbian and send her off to \"sexual redirection\" school, where she must, with other lesbians and gays learn how to be straight.", "poster_path": "/eDGH7CHSdkrYcuUJV1e0WS9DlQL.jpg", "release_date": "1999-12-09", "title": "But I'm a Cheerleader", "video": false, "vote_average": 6.8, "vote_count": 246, "popularity": 10.067}, {"adult": false, "backdrop_path": "/qbrmEfBEcdrzHSAHgazJWmz3TSU.jpg", "genre_ids": [18], "id": 616229, "original_language": "en", "original_title": "The Male Gaze: The Heat of the Night", "overview": "When darkness falls, temperatures rise in these six stories about late night confessions, intimacy for sale, high speed hookups and full moon frissons. But when the sun comes up and reality reveals itself, will it have all been worth it?", "poster_path": "/e1gNLO829rkE73sBJ3aClZJHNXd.jpg", "release_date": "2019-07-15", "title": "The Male Gaze: The Heat of the Night", "video": false, "vote_average": 3.3, "vote_count": 3, "popularity": 13.056}, {"id": 449176, "video": false, "vote_count": 3690, "vote_average": 8.1, "title": "Love, Simon", "release_date": "2018-02-16", "original_language": "en", "original_title": "Love, Simon", "genre_ids": [35, 18, 10749], "backdrop_path": "/rqMEeajyzSF4PpJtdCB816Iz8Vr.jpg", "adult": false, "overview": "Everyone deserves a great love story. But for seventeen-year old Simon Spier it's a little more complicated: he's yet to tell his family or friends he's gay and he doesn't know the identity of the anonymous classmate he's fallen for online.", "poster_path": "/5YUYg5q7QfC4IoNwNUtiwdiYKPr.jpg", "popularity": 24.849}, {"adult": false, "backdrop_path": "/dvQDRfv3qvfHNnVAR57ouVsuErf.jpg", "genre_ids": [10749, 18], "id": 28031, "original_language": "en", "original_title": "If These Walls Could Talk 2", "overview": "The stories of three lesbian couples -- who live in the same house at different periods of time -- who are at a crossroads in their lives. In 1961, Edith loses her lover, Abby, to a stroke. Linda and Amy struggle with feminist issues in 1972. And, in 2000, Kal and Fran try to have a baby with the help of sperm donor.", "poster_path": "/xs7ODbmYQXCDhvXNvz5tF17T59H.jpg", "release_date": "2000-03-05", "title": "If These Walls Could Talk 2", "video": false, "vote_average": 7.1, "vote_count": 55, "popularity": 8.062}, {"adult": false, "backdrop_path": "/knczzNAjBXzSYkeWxoT1u9VNmjR.jpg", "genre_ids": [10749, 18], "id": 258480, "original_language": "en", "original_title": "Carol", "overview": "In 1950s New York, a department-store clerk who dreams of a better life falls for an older, married woman.", "poster_path": "/AbKa7ANxmui0Jmhh7gV7OSELKIL.jpg", "release_date": "2015-11-20", "title": "Carol", "video": false, "vote_average": 7.4, "vote_count": 2182, "popularity": 14.185}, {"adult": false, "backdrop_path": "/cADbqsIoiDW7X3Myg9nz8eAuno5.jpg", "genre_ids": [18, 10749], "id": 10818, "original_language": "fr", "original_title": "Naissance des pieuvres", "overview": "Set during a sultry summer in a French suburb, Marie is desperate to join the local pool's synchronized swimming team, but is her interest solely for the sake of sport or for a chance to get close to Floriane, the bad girl of the team? Sciamma, and the two leads, capture the uncertainty of teenage sexuality with a sympathetic eye in this delicate drama of the angst of coming-of-age.", "poster_path": "/4jajELYrR4Xmv3CVoKnukRnALa2.jpg", "release_date": "2007-05-17", "title": "Water Lilies", "video": false, "vote_average": 6.1, "vote_count": 119, "popularity": 10.744}, {"adult": false, "backdrop_path": "/fZ8oFcREAr6wgWcXISGql0xyxjB.jpg", "genre_ids": [35, 18], "id": 39781, "original_language": "en", "original_title": "The Kids Are All Right", "overview": "Two women, Nic and Jules, brought a son and daughter into the world through artificial insemination. When one of their children reaches age, both kids go behind their mothers' backs to meet with the donor. Life becomes so much more interesting when the father, two mothers and children start to become attached to each other.", "poster_path": "/fPDeK4MmoGfi2X0oWZev7LrbMqM.jpg", "release_date": "2010-07-09", "title": "The Kids Are All Right", "video": false, "vote_average": 6.6, "vote_count": 923, "popularity": 12.703}, {"adult": false, "backdrop_path": "/6VhtzImP1UvYkIAHS4L8yfmceOM.jpg", "genre_ids": [18], "id": 26280, "original_language": "fr", "original_title": "J'ai tu\u00e9 ma m\u00e8re", "overview": "Hubert, a brash 17-year-old, is confused and torn by a love-hate relationship with his mother that consumes him more and more each day. After distressing ordeals and tragic episodes, Hubert will find his mother on the banks of Saint Lawrence river, where he grew up, and where a murder will be committed: the murder of childhood.", "poster_path": "/cxb02CLALt9He1Dt0BIDKj9fdvM.jpg", "release_date": "2009-06-05", "title": "I Killed My Mother", "video": false, "vote_average": 7.7, "vote_count": 655, "popularity": 9.653}, {"adult": false, "backdrop_path": "/useuHJQ5HOoEWkAvEjL1FW1sUfe.jpg", "genre_ids": [18], "id": 376867, "original_language": "en", "original_title": "Moonlight", "overview": "The tender, heartbreaking story of a young man\u2019s struggle to find himself, told across three defining chapters in his life as he experiences the ecstasy, pain, and beauty of falling in love, while grappling with his own sexuality.", "poster_path": "/qAwFbszz0kRyTuXmMeKQZCX3Q2O.jpg", "release_date": "2016-10-21", "title": "Moonlight", "video": false, "vote_average": 7.4, "vote_count": 4406, "popularity": 27.348}, {"id": 424694, "video": false, "vote_count": 9721, "vote_average": 8.0, "title": "Bohemian Rhapsody", "release_date": "2018-10-24", "original_language": "en", "original_title": "Bohemian Rhapsody", "genre_ids": [18, 10402], "backdrop_path": "/93xA62uLd5CwMOAs37eQ7vPc1iV.jpg", "adult": false, "overview": "Singer Freddie Mercury, guitarist Brian May, drummer Roger Taylor and bass guitarist John Deacon take the music world by storm when they form the rock 'n' roll band Queen in 1970. Hit songs become instant classics. When Mercury's increasingly wild lifestyle starts to spiral out of control, Queen soon faces its greatest challenge yet \u2013 finding a way to keep the band together amid the success and excess.", "poster_path": "/lHu1wtNaczFPGFDTrjCSzeLPTKN.jpg", "popularity": 40.186}, {"id": 507076, "video": false, "vote_count": 629, "vote_average": 7.1, "title": "Climax", "release_date": "2018-09-19", "original_language": "fr", "original_title": "Climax", "genre_ids": [18, 27, 10402], "backdrop_path": "/v0sblc9A8eaE8EqDQ5Y6fELj4oB.jpg", "adult": false, "overview": "Young dancers gather in a remote and empty school building to rehearse on a cold and wintry night. The all-night celebration soon turns into a hallucinatory nightmare when they learn that their sangria is laced with LSD.", "poster_path": "/zQDqgzSdTGSDu4rDcQTq7TAttmy.jpg", "popularity": 15.582}, {"adult": false, "backdrop_path": "/tzqeuHWMFihFbiLGHdalPgAcSf6.jpg", "genre_ids": [18, 10749], "id": 18620, "original_language": "en", "original_title": "Go Fish", "overview": "Max is a trendy, pretty, young lesbian, who is having trouble finding love. A friend sets her up with Ely, whom Max likes, but Ely is frumpy, homely, and older. Nor do they have much in common. Can Max learn to look past the packaging?", "poster_path": "/qrEFYrwykaGsY8NULYuYLLI7zrM.jpg", "release_date": "1994-06-10", "title": "Go Fish", "video": false, "vote_average": 5.0, "vote_count": 11, "popularity": 2.626}, {"adult": false, "backdrop_path": "/6tern9vOEwwmkDYC1vRCuO64z0C.jpg", "genre_ids": [10749, 18], "id": 475888, "original_language": "en", "original_title": "Tell It to the Bees", "overview": "Dr. Jean Markham returns to the town she left as a teenager to take over her late father's medical practice. When a school-yard scuffle lands Charlie in her surgery, she invites him to visit the hives in her garden and tell his secrets to the bees, as she once did. The new friendship between the boy and the bee keeper brings his mother Lydia into Jean's world.", "poster_path": "/Rj6zpHhMU1zFW3v28U4PSRSRgP.jpg", "release_date": "2019-05-03", "title": "Tell It to the Bees", "video": false, "vote_average": 6.4, "vote_count": 53, "popularity": 15.113}, {"adult": false, "backdrop_path": "/xOGEw8iywxcFMolV6SF6YdTdJTb.jpg", "genre_ids": [10402, 10749], "id": 52371, "original_language": "nl", "original_title": "LelleBelle", "overview": "19-year old Belle practices playing the violin diligently, but is unable to impart her music with a sensitive undertone. Her life changes when she discovers that sexual desire stimulates passion in her music.", "poster_path": "/nJVPgIq3icZMQ26p5uWIFdUZJfL.jpg", "release_date": "2010-10-08", "title": "LelleBelle", "video": false, "vote_average": 4.7, "vote_count": 41, "popularity": 13.931}, {"adult": false, "backdrop_path": "/qs4P8THxjbMZYc9QuZvzN95KzBM.jpg", "genre_ids": [18, 53, 9648], "id": 184352, "original_language": "fr", "original_title": "Tom \u00e0 la ferme", "overview": "A young man travels to an isolated farm for his lover's funeral where he's quickly drawn into a twisted, sexually charged game by his lover's aggressive brother.", "poster_path": "/wS4oYOHEKva9sMLOHSr7tW19SaQ.jpg", "release_date": "2013-09-02", "title": "Tom at the Farm", "video": false, "vote_average": 6.9, "vote_count": 408, "popularity": 7.517}, {"id": 83542, "video": false, "vote_count": 4860, "vote_average": 6.8, "title": "Cloud Atlas", "release_date": "2012-10-26", "original_language": "en", "original_title": "Cloud Atlas", "genre_ids": [18, 878], "backdrop_path": "/2ZA03KiD4jePTNBTJjGGFTNQPMA.jpg", "adult": false, "overview": "A set of six nested stories spanning time between the 19th century and a distant post-apocalyptic future. Cloud Atlas explores how the actions and consequences of individual lives impact one another throughout the past, the present and the future. Action, mystery and romance weave through the story as one soul is shaped from a killer into a hero and a single act of kindness ripples across centuries to inspire a revolution in the distant future.  Based on the award winning novel by David Mitchell. Directed by Tom Tykwer and the Wachowskis.", "poster_path": "/8VNiyIp67ZxhpNgdrwACW0jgvP2.jpg", "popularity": 16.718}, {"id": 513, "video": false, "vote_count": 31, "vote_average": 6.8, "title": "Fire", "release_date": "1997-08-22", "original_language": "en", "original_title": "Fire", "genre_ids": [18, 10749], "backdrop_path": "/2U3hyiVzzhYzS6j9fcdVW4mO4Uk.jpg", "adult": false, "overview": "In a barren, arranged marriage to an amateur swami who seeks enlightenment through celibacy, Radha's life takes an irresistible turn when her beautiful young sister-in-law seeks to free herself from the confines of her own loveless marriage.", "poster_path": "/nhKFB7bPOv9gH93cu8l4tTc2ZO.jpg", "popularity": 4.942}, {"adult": false, "backdrop_path": "/8OfLHQTBRh6WSEB0ZnrpLxXRHdK.jpg", "genre_ids": [18], "id": 338189, "original_language": "fr", "original_title": "Juste la fin du monde", "overview": "Louis, a terminally ill writer, returns home after a long absence to tell his family that he is dying.", "poster_path": "/zD9TQOqZrgTjI7XfHPNjNSki7C0.jpg", "release_date": "2016-08-26", "title": "It's Only the End of the World", "video": false, "vote_average": 7.3, "vote_count": 979, "popularity": 11.34}, {"adult": false, "backdrop_path": "/baYbbMtKRDoDWYJeVWkbygAvAj8.jpg", "genre_ids": [18, 10749], "id": 31216, "original_language": "en", "original_title": "I Can't Think Straight", "overview": "I CAN'T THINK STRAIGHT is a 2007 romance movie about a London-based Jordanian of Palestinian descent, Tala, who is preparing for an elaborate wedding. A turn of events causes her to have an affair and subsequently fall in love with another woman, Leyla, a British Indian.", "poster_path": "/1kapga6rkM5wNuQBYw7sdE42CrA.jpg", "release_date": "2008-06-01", "title": "I Can't Think Straight", "video": false, "vote_average": 7.6, "vote_count": 109, "popularity": 8.749}], "total_pages": 1350, "total_results": 26992}, "recommendations": {"page": 1, "results": [{"adult": false, "backdrop_path": "/yakIZn9mIJFB2Y5l9V2Md751ga5.jpg", "genre_ids": [18], "id": 114931, "original_language": "de", "original_title": "Sonja", "overview": "Sonja is struggling to deal with her parent separation, and find her feelings for her best friend might not just be a phase.", "poster_path": "/4yPW4DnKddz1wpgfpcCrQv86J5J.jpg", "release_date": "2006-11-23", "title": "Sonja", "video": false, "vote_average": 4.8, "vote_count": 5, "popularity": 2.242}, {"adult": false, "backdrop_path": null, "genre_ids": [18], "id": 100626, "original_language": "en", "original_title": "Something to Live for: The Alison Gertz Story", "overview": "An AIDS-stricken woman becomes a leader in the struggle to educate people about the disease and its prevention.", "poster_path": "/3ovS9oXfoi3ZJCW9TJTRn0I6wXl.jpg", "release_date": "1992-03-26", "title": "Something to Live for: The Alison Gertz Story", "video": false, "vote_average": 4.3, "vote_count": 3, "popularity": 2.025}, {"adult": false, "backdrop_path": "/lN5nUJ8YOh2sUQpkcmH2t29ql4c.jpg", "genre_ids": [18], "id": 56774, "original_language": "en", "original_title": "Chutney Popcorn", "overview": "Reena is a young Indian American lesbian who lives and works in New York. Her sister Sarita, who is happily married, discovers that she is infertile. Reena offers to be a surrogate mother for her sister's baby, hoping to improve her relationship with their mother, who disapproves of Reena's sexual orientation. Reena has second thoughts when her girlfriend Lisa feels left out.", "poster_path": "/xJ6ZfrEMcg4swtsTl5gg6dFtw0D.jpg", "release_date": "2001-01-11", "title": "Chutney Popcorn", "video": false, "vote_average": 5.2, "vote_count": 7, "popularity": 2.524}, {"id": 43088, "video": false, "vote_count": 17, "vote_average": 7.0, "title": "Spider Lilies", "release_date": "2007-03-30", "original_language": "zh", "original_title": "\u523a\u9752", "genre_ids": [18, 10749], "backdrop_path": "/vRUl4dj64GJfQdhRyJWMCQ6bkML.jpg", "adult": false, "overview": "When Jade, a web-cam girl, visits Takeko's tattoo studio she becomes entranced with the image of the spider lily and with Takeko as well. In order to get closer to the object of her desire, Jade asks Takeko to give her the same lily tattoo, challenging Takeko's monastic existence and opening up memories which threaten to tear the two women apart.", "poster_path": "/heBEwl82EUJcsD2nmj2ZiAjX9Zg.jpg", "popularity": 8.11}, {"adult": false, "backdrop_path": "/oBk2xZ0Fle5zwfhXXQLtvRUx8vE.jpg", "genre_ids": [35, 18, 10749], "id": 20405, "original_language": "en", "original_title": "Puccini for Beginners", "overview": "When her inability to commit leads to a breakup with her girlfriend, opera-loving writer Allegra winds up in the bed of amiable professor Philip. He is so smitten with Allegra that he dumps his lover, Grace (Justin Kirk), and convinces Allegra to continue their affair. When Allegra meets Grace, sparks fly, and she begins a parallel romance, unaware that her new lover is the woman Philip left to be with her.", "poster_path": "/dUwPKvs03kYN0jskyZMVJOGmveO.jpg", "release_date": "2006-01-01", "title": "Puccini for Beginners", "video": false, "vote_average": 6.1, "vote_count": 17, "popularity": 5.528}, {"adult": false, "backdrop_path": "/i3tIMPgR3p18s7Qglxgv0SguxMD.jpg", "genre_ids": [28, 18, 53], "id": 37858, "original_language": "en", "original_title": "Bandaged", "overview": "Since his wife's death, Arthur, a peculiar and severe surgeon, cloisters his teen daughter Lucille inside a strange mansion. Desperate, Lucille tries to commit suicide and ends up with her face completely burned and bandaged. Arthur, with the assistance of his aunt, prepares a weird skin graft in order to give back Lucille a face, a face that resembles his beloved and deceased wife. To take care of her, the father then hires Joan, an attractive nurse with a somber past. Lucille and Joan start a forbidden and passionate love affair.", "poster_path": "/anEkv3PHmUN6m5njqRa5ZxlFtlf.jpg", "release_date": "2009-04-03", "title": "Bandaged", "video": false, "vote_average": 4.8, "vote_count": 6, "popularity": 3.645}, {"adult": false, "backdrop_path": "/zUKVh5XoZJ2MEXA0pD2sVSu0B4r.jpg", "genre_ids": [18, 10749], "id": 31421, "original_language": "en", "original_title": "The Gymnast", "overview": "The stunning Dreya Weber stars as a former top gymnast who discovers love and a new life path when she teams up with a dancer (played by former L.A. Lakers cheerleader Addie Yungmee) for an ambitious Las Vegas aerial act show.", "poster_path": "/op1PzHVWc5JjWvngE0vWzj89Amw.jpg", "release_date": "2006-04-11", "title": "The Gymnast", "video": false, "vote_average": 6.9, "vote_count": 18, "popularity": 6.417}, {"adult": false, "backdrop_path": "/nZ5TdByZNjjtxLo5s8QQc9HXlnE.jpg", "genre_ids": [35, 18], "id": 35065, "original_language": "en", "original_title": "Drool", "overview": "An abused wife's plan to escape her husband goes awry when she accidentally kills him, causing her to split on a cross-country drive with her best friend and his corpse in tow.", "poster_path": "/qQVbGDqvdOQvuBDheyBOBWLZ7Vk.jpg", "release_date": "2009-01-16", "title": "Drool", "video": false, "vote_average": 5.4, "vote_count": 11, "popularity": 3.221}, {"adult": false, "backdrop_path": "/qRgpjyqiTVYJVXOwLGdsxYjAfrA.jpg", "genre_ids": [10749, 35], "id": 21060, "original_language": "en", "original_title": "It's in the Water", "overview": "When hordes of gays and lesbians come out \"of the closet\" in the fictional town of Azalea Springs, Texas, intolerant residents go into a panic about the water supply.", "poster_path": "/aGWhJDIz4wrlcc4dNBa753jr4DB.jpg", "release_date": "1997-01-30", "title": "It's in the Water", "video": false, "vote_average": 6.7, "vote_count": 13, "popularity": 2.477}, {"adult": false, "backdrop_path": "/uy93B9f4jwNdfAw1MuO5rkb3QAF.jpg", "genre_ids": [10749, 18], "id": 106538, "original_language": "fr", "original_title": "Un amour de femme", "overview": "Jeanne attends the birthday party of a friend of her husband. There she meets a dancer named Marie and there is instant chemistry between them. Jeanne falls for Marie and they embark on an extramarital affair.", "poster_path": "/5raonV0MnlFJdJWa0WuxnalxCq8.jpg", "release_date": "2001-01-01", "title": "A Woman's Love", "video": false, "vote_average": 6.0, "vote_count": 19, "popularity": 2.808}, {"adult": false, "backdrop_path": "/baYbbMtKRDoDWYJeVWkbygAvAj8.jpg", "genre_ids": [18, 10749], "id": 31216, "original_language": "en", "original_title": "I Can't Think Straight", "overview": "I CAN'T THINK STRAIGHT is a 2007 romance movie about a London-based Jordanian of Palestinian descent, Tala, who is preparing for an elaborate wedding. A turn of events causes her to have an affair and subsequently fall in love with another woman, Leyla, a British Indian.", "poster_path": "/1kapga6rkM5wNuQBYw7sdE42CrA.jpg", "release_date": "2008-06-01", "title": "I Can't Think Straight", "video": false, "vote_average": 7.6, "vote_count": 109, "popularity": 8.749}, {"adult": false, "backdrop_path": "/w2ryGaFEegeP8Zrbr71ezKZbcaH.jpg", "genre_ids": [18, 10749], "id": 51736, "original_language": "en", "original_title": "Bloomington", "overview": "A former child actress attends college in search of independence and ends up becoming romantically involved with a female professor. Their relationship thrives until an opportunity to return to acting forces her to make life-altering decisions.", "poster_path": "/7NAlFsxC8cGZVfud6QJUHKXwGD8.jpg", "release_date": "2010-06-23", "title": "Bloomington", "video": false, "vote_average": 6.7, "vote_count": 71, "popularity": 13.812}, {"adult": false, "backdrop_path": "/tIFRPjIXQ3sYrmxbIeOu9K1JkUz.jpg", "genre_ids": [18, 10749], "id": 294, "original_language": "en", "original_title": "Desert Hearts", "overview": "The story of straight-edge literature professor Vivian who travels to Reno to get away from a relationship breakup when she falls in love with an attractive and unconventional girl named Cay.", "poster_path": "/b8JSmQSpYYJhctMtxNgqh0elENg.jpg", "release_date": "1985-10-01", "title": "Desert Hearts", "video": false, "vote_average": 7.3, "vote_count": 58, "popularity": 8.237}, {"adult": false, "backdrop_path": "/7lKgtShJ36LpSyixg138Rkq2qRD.jpg", "genre_ids": [18], "id": 31031, "original_language": "en", "original_title": "The World Unseen", "overview": "A drama centered on two women who engage in a dangerous relationship during South Africa's apartheid era.", "poster_path": "/mFVHLfOfHoM8rJh1hCr3ctdqp3I.jpg", "release_date": "2007-09-09", "title": "The World Unseen", "video": false, "vote_average": 7.7, "vote_count": 49, "popularity": 6.905}, {"adult": false, "backdrop_path": "/8sTTINYaiONsJg8ijJpLJ1GY18u.jpg", "genre_ids": [80], "id": 12800, "original_language": "en", "original_title": "Benzina", "overview": "Fiery, dark-haired Stella, an intense auto mechanic, and nervous, blonde Eleonora are young and in love. They operate a gas station peacefully, until Eleonora's mother appears and voices her disapproval of their romance.", "poster_path": "/94dK6qAKqny9HCAE7FWlF0NTeGt.jpg", "release_date": "2001-11-20", "title": "Gasoline", "video": false, "vote_average": 5.5, "vote_count": 9, "popularity": 3.39}, {"adult": false, "backdrop_path": "/fAPWdXiCTL8LDmLTnu7BNTiznm5.jpg", "genre_ids": [80, 14], "id": 197772, "original_language": "fr", "original_title": "L'Autre vie de Richard Kemp", "overview": "Inspector Richard Kemp never got around to putting the handcuffs around the Eardrum Slasher, a dangerous serial killer whose rampage began 20 years before. When H\u00e9l\u00e8ne, a psychologist, witnesses the Slasher\u2019s latest crime and offers to testify, Kemp falls in love with her at first sight. In a mysterious turn of event, Kemp is suddenly transported back in time to the site of the Eardrum Slasher\u2019s first murder, he realizes that this could provide a second chance to catch the killer...", "poster_path": "/qfA6JAOJBgxRK8qiF7LXJtMypmW.jpg", "release_date": "2013-06-05", "title": "Back in Crime", "video": false, "vote_average": 6.4, "vote_count": 24, "popularity": 5.685}, {"adult": false, "backdrop_path": "/i1cXl3X9vz6NIxFOk2mGARsHksL.jpg", "genre_ids": [18, 35, 10749], "id": 20085, "original_language": "en", "original_title": "Wedding Wars", "overview": "Gay people across the U.S. go on strike when a governor refuses to approve of gay marriages.", "poster_path": "/nD3AQBMWUcYlCHSsllb10r0WNLy.jpg", "release_date": "2006-12-11", "title": "Wedding Wars", "video": false, "vote_average": 6.0, "vote_count": 15, "popularity": 4.454}, {"adult": false, "backdrop_path": "/iZUzNSGSLQFzU5MV0HPlGp2dark.jpg", "genre_ids": [35, 10749], "id": 212927, "original_language": "en", "original_title": "Jamie and Jessie Are Not Together", "overview": "Jamie is moving in two weeks from Chicago to New York hoping to become a Broadway actress. Her best friend Jessica is bummed because she's not-so-secretly in love with Jamie. As moving day gets closer, Jessica tries to make Jamie jealous by dating other girls. But Jessica's plan backfires, in a way she could never imagine. Set in working class Chicago and infused with musical dance numbers, \"Jamie and Jessie are Not Together\" is a love letter to those gray areas of love and lust and to the young romances we will never forget.", "poster_path": "/y6PwMlU1zuGixnloVWhUq2sxDZF.jpg", "release_date": "2011-06-18", "title": "Jamie and Jessie Are Not Together", "video": false, "vote_average": 4.8, "vote_count": 7, "popularity": 2.438}, {"adult": false, "backdrop_path": "/l931Mtb3wZxtRCUeVK8acSh2Loc.jpg", "genre_ids": [18], "id": 56823, "original_language": "de", "original_title": "Fremde Haut", "overview": "Survival is not enough. Fariba Tabrizi has made it. Under peril of death she has fled from Iran. In Germany she has no alternative way of avoiding the threat of deportation other than to assume the identity of a deceased co-detainee. So what happens after a few month in which she has tried to come to terms with a situation which is actually an insufferable one for her? How does Fariba live not only in this external state of exile but also in an inner state of exile? The term \"in orbit\" is officially used by the UN to refer to asylum-seekers who find themselves orbiting around planet Earth because they can actually find legal domicile nowhere at all.", "poster_path": "/I9zdSIDMlbFOhS9pGnYwUAtIPf.jpg", "release_date": "2005-07-04", "title": "Unveiled", "video": false, "vote_average": 7.8, "vote_count": 8, "popularity": 1.885}], "total_pages": 1, "total_results": 19}, "credits": {"cast": [{"cast_id": 1, "character": "Camille Baker", "credit_id": "52fe44a4c3a36847f80a1e49", "gender": 1, "id": 54818, "name": "Pascale Bussi\u00e8res", "order": 0, "profile_path": "/vbfCShcj8n0eUOoKRCAGNh1auFY.jpg"}, {"cast_id": 2, "character": "Petra", "credit_id": "52fe44a4c3a36847f80a1e4d", "gender": 1, "id": 54819, "name": "Rachael Crawford", "order": 1, "profile_path": "/jM6bUiUh6cEaKs53Ytp2alcwlFy.jpg"}, {"cast_id": 11, "character": "Martin", "credit_id": "52fe44a5c3a36847f80a1e81", "gender": 2, "id": 15319, "name": "Henry Czerny", "order": 2, "profile_path": "/zOWZzRmliKf9032IOOq0a3jXhVv.jpg"}, {"cast_id": 12, "character": "Timothy", "credit_id": "52fe44a5c3a36847f80a1e85", "gender": 2, "id": 20173, "name": "Don McKellar", "order": 3, "profile_path": "/swGAgpDZ3qSsjqe2WXvbtIkLhpv.jpg"}], "crew": [{"credit_id": "52fe44a4c3a36847f80a1e53", "department": "Directing", "gender": 1, "id": 55439, "job": "Director", "name": "Patricia Rozema", "profile_path": "/s1lW8HDclRDEgOWrETAJ5eSGKda.jpg"}, {"credit_id": "52fe44a4c3a36847f80a1e59", "department": "Writing", "gender": 1, "id": 55439, "job": "Screenplay", "name": "Patricia Rozema", "profile_path": "/s1lW8HDclRDEgOWrETAJ5eSGKda.jpg"}, {"credit_id": "52fe44a4c3a36847f80a1e5f", "department": "Production", "gender": 0, "id": 55660, "job": "Producer", "name": "Barbara Tranter", "profile_path": null}, {"credit_id": "52fe44a4c3a36847f80a1e65", "department": "Production", "gender": 2, "id": 20182, "job": "Executive Producer", "name": "Robert Lantos", "profile_path": "/5zgnr7BdExuqKSPwzHYkyUHVJzv.jpg"}, {"credit_id": "52fe44a5c3a36847f80a1e6b", "department": "Sound", "gender": 1, "id": 39827, "job": "Original Music Composer", "name": "Lesley Barber", "profile_path": null}, {"credit_id": "52fe44a5c3a36847f80a1e71", "department": "Camera", "gender": 0, "id": 55661, "job": "Director of Photography", "name": "Douglas Koch", "profile_path": null}, {"credit_id": "52fe44a5c3a36847f80a1e77", "department": "Editing", "gender": 1, "id": 35332, "job": "Editor", "name": "Susan Shipton", "profile_path": null}, {"credit_id": "52fe44a5c3a36847f80a1e7d", "department": "Production", "gender": 1, "id": 7800, "job": "Casting", "name": "Deirdre Bowen", "profile_path": null}]}}