{"adult": false, "backdrop_path": "/kVR2EKYq5H2LaHLBepWmMrEhVP0.jpg", "belongs_to_collection": null, "budget": 0, "genres": [{"id": 28, "name": "Action"}, {"id": 35, "name": "Comedy"}], "homepage": "", "id": 84062, "imdb_id": "tt0072844", "original_language": "en", "original_title": "Darktown Strutters", "overview": "When a prominent abortion clinic owner goes missing along with a string of other black community leaders, her singing daughter and her fellow female biker gang members investigate.", "popularity": 4.728, "poster_path": "/5d51KQTvkdVtOhq7AoAIGcLZkx4.jpg", "production_companies": [{"id": 1950, "logo_path": null, "name": "New World Pictures", "origin_country": ""}], "production_countries": [{"iso_3166_1": "US", "name": "United States of America"}], "release_date": "1975-10-07", "revenue": 0, "runtime": 90, "spoken_languages": [{"iso_639_1": "en", "name": "English"}], "status": "Released", "tagline": "Super sisters on cycles - better move your butt when these ladies strut!", "title": "Darktown Strutters", "video": false, "vote_average": 4.8, "vote_count": 8, "keywords": {"keywords": [{"id": 456, "name": "mother"}, {"id": 549, "name": "prostitute"}, {"id": 780, "name": "kung fu"}, {"id": 1667, "name": "pimp"}, {"id": 4344, "name": "musical"}, {"id": 6951, "name": "biker"}, {"id": 9887, "name": "surrealism"}, {"id": 10601, "name": "blaxploitation"}, {"id": 10726, "name": "gang"}, {"id": 10941, "name": "disappearance"}, {"id": 12425, "name": "racism"}, {"id": 40870, "name": "race"}]}, "similar": {"page": 1, "results": [{"adult": false, "backdrop_path": "/90kmxuSwU28dVy1ghVSHI4x1wb8.jpg", "genre_ids": [35, 18, 37], "id": 537996, "original_language": "en", "original_title": "The Ballad of Buster Scruggs", "overview": "Vignettes weaving together the stories of six individuals in the old West at the end of the Civil War. Following the tales of a sharp-shooting songster, a wannabe bank robber, two weary traveling performers, a lone gold prospector, a woman traveling the West to an uncertain future, and a motley crew of strangers undertaking a carriage ride.", "poster_path": "/voxl654m7p36y8FLu8oQD7dfwwK.jpg", "release_date": "2018-11-09", "title": "The Ballad of Buster Scruggs", "video": false, "vote_average": 7.2, "vote_count": 2072, "popularity": 15.524}, {"adult": false, "backdrop_path": "/qYIag7ACS9todyiWyYQVG2PL0Iv.jpg", "genre_ids": [35], "id": 10607, "original_language": "en", "original_title": "Don't Be a Menace to South Central While Drinking Your Juice in the Hood", "overview": "When Ashtray (Shawn Wayans) moves to South Central L.A. to live with his father (who appears to be the same age he is) and grandmother (who likes to talk tough and smoke reefer), he falls in with his gang-banging cousin Loc Dog (Marlon Wayans), who along with the requisite pistols and Uzi carries a thermo-nuclear warhead for self-defense. Will Ashtray be able to keep living the straight life?", "poster_path": "/l6D9f9WbxdI4tyCmJGs56y8tQla.jpg", "release_date": "1996-01-12", "title": "Don't Be a Menace to South Central While Drinking Your Juice in the Hood", "video": false, "vote_average": 6.2, "vote_count": 410, "popularity": 20.216}, {"id": 12481, "video": false, "vote_count": 320, "vote_average": 7.3, "title": "The Big Boss", "release_date": "1971-10-02", "original_language": "zh", "original_title": "\u5510\u5c71\u5927\u5144", "genre_ids": [28], "backdrop_path": "/tzmHdegHSKVUwnJYvdMiolAWnWO.jpg", "adult": false, "overview": "Chen is a city boy who moves with his cousins to work at an ice factory. He does this with a family promise never to get involved in any fight. However, when members of his family begin disappearing after meeting the management of the factory, the resulting mystery and pressures force him to break that vow and take on the villainy of the Big Boss.", "poster_path": "/txmbBHN45wqWn4qrT9MPlDhuJCA.jpg", "popularity": 21.531}, {"adult": false, "backdrop_path": "/nfm6JCKUaM6dT0mATmShLY6cpmc.jpg", "genre_ids": [18, 10752], "id": 600, "original_language": "en", "original_title": "Full Metal Jacket", "overview": "A pragmatic U.S. Marine observes the dehumanizing effects the U.S.-Vietnam War has on his fellow recruits from their brutal boot camp training to the bloody street fighting in Hue.", "poster_path": "/29veIwD38rVL2qY74emXQw4y25H.jpg", "release_date": "1987-06-26", "title": "Full Metal Jacket", "video": false, "vote_average": 8.1, "vote_count": 5892, "popularity": 25.71}, {"id": 11360, "video": false, "vote_count": 3005, "vote_average": 6.9, "title": "Dumbo", "release_date": "1941-10-22", "original_language": "en", "original_title": "Dumbo", "genre_ids": [16, 10751], "backdrop_path": "/sa5vHfu5n4NFqZbVf2hzqGr6bim.jpg", "adult": false, "overview": "Dumbo is a baby elephant born with over-sized ears and a supreme lack of confidence. But thanks to his even more diminutive buddy Timothy the Mouse,  the pint-sized pachyderm learns to surmount all obstacles.", "poster_path": "/hKDdllslMtsU9JixAv5HR9biXlp.jpg", "popularity": 26.622}, {"adult": false, "backdrop_path": "/vZ7EVk7FaNEWYqlVWbFLHP8Z0LU.jpg", "genre_ids": [9648, 53, 27], "id": 419430, "original_language": "en", "original_title": "Get Out", "overview": "Chris and his girlfriend Rose go upstate to visit her parents for the weekend. At first, Chris reads the family's overly accommodating behavior as nervous attempts to deal with their daughter's interracial relationship, but as the weekend progresses, a series of increasingly disturbing discoveries lead him to a truth that he never could have imagined.", "poster_path": "/rdPGUJhadPg7FGFNzavib0iwTor.jpg", "release_date": "2017-02-24", "title": "Get Out", "video": false, "vote_average": 7.5, "vote_count": 10002, "popularity": 37.864}, {"adult": false, "backdrop_path": "/yr9ZWlNyR8Yz43q5gv2YZPt4Bbw.jpg", "genre_ids": [28, 53, 80], "id": 15092, "original_language": "en", "original_title": "Crank: High Voltage", "overview": "Chelios faces a Chinese mobster who has stolen his nearly indestructible heart and replaced it with a battery-powered ticker that requires regular jolts of electricity to keep working.", "poster_path": "/6WLcJkIwyycyUDDfZ5VWU1TcLwF.jpg", "release_date": "2009-04-16", "title": "Crank: High Voltage", "video": false, "vote_average": 5.9, "vote_count": 1587, "popularity": 17.969}, {"id": 277216, "video": false, "vote_count": 2188, "vote_average": 7.7, "title": "Straight Outta Compton", "release_date": "2015-08-13", "original_language": "en", "original_title": "Straight Outta Compton", "genre_ids": [18, 10402], "backdrop_path": "/fdDTA06o5e7MRXnTGAf4EygL2MJ.jpg", "adult": false, "overview": "In 1987, five young men, using brutally honest rhymes and hardcore beats, put their frustration and anger about life in the most dangerous place in America into the most powerful weapon they had: their music.  Taking us back to where it all began, Straight Outta Compton tells the true story of how these cultural rebels\u2014armed only with their lyrics, swagger, bravado and raw talent\u2014stood up to the authorities that meant to keep them down and formed the world\u2019s most dangerous group, N.W.A.  And as they spoke the truth that no one had before and exposed life in the hood, their voice ignited a social revolution that is still reverberating today.", "poster_path": "/X7S1RtotXOZNV7OlgCfh5VKZSB.jpg", "popularity": 21.041}, {"id": 17689, "video": false, "vote_count": 227, "vote_average": 6.7, "title": "The Gauntlet", "release_date": "1977-12-21", "original_language": "en", "original_title": "The Gauntlet", "genre_ids": [28, 80, 18, 53], "backdrop_path": "/AqLSm9sl2Oe46XvqhoRBhKI3wXi.jpg", "adult": false, "overview": "Phoenix cop Ben Shockley is well on his way to becoming a derelict when he is assigned to transport a witness named Gus Mally from Vegas. Mally turns out to be a belligerent prostitute with mob ties and incriminating information regarding a high-placed figure.", "poster_path": "/vojzvKay2QT2eGwvfGBkFfJQlcj.jpg", "popularity": 10.673}, {"adult": false, "backdrop_path": "/eJYh0ePAVWqFz1CooYPY8Akl6cH.jpg", "genre_ids": [80, 18, 10749], "id": 13199, "original_language": "en", "original_title": "American Me", "overview": "Edward J. Olmos made his directorial bow with the powerhouse crime saga American Me. Olmos stars as street-gang leader Santana, who during his 18 years in Folsom Prison rules over all the drug-and-murder activities behind bars. Upon his release, Santana goes back to his old neighborhood, intending to lead a peaceful, crime-free life. But his old gang buddies force him back into his old habits. The", "poster_path": "/1ZQQi5AQCo4ThYxHPy6bKIMOrLm.jpg", "release_date": "1992-03-13", "title": "American Me", "video": false, "vote_average": 7.3, "vote_count": 66, "popularity": 9.908}, {"id": 9702, "video": false, "vote_count": 191, "vote_average": 7.8, "title": "Bound by Honor", "release_date": "1993-02-05", "original_language": "en", "original_title": "Bound by Honor", "genre_ids": [28, 80, 18, 53], "backdrop_path": "/zQhFkQBMnzFxddwpUTDVdCzSgf9.jpg", "adult": false, "overview": "Based on the true life experiences of poet Jimmy Santiago Baca, the film focuses on half-brothers Paco and Cruz, and their bi-racial cousin Miklo. It opens in 1972, as the three are members of an East L.A. gang known as the \"Vatos Locos\", and the story focuses on how a violent crime and the influence of narcotics alter their lives. Miklo is incarcerated and sent to San Quentin, where he makes a \"home\" for himself. Cruz becomes an exceptional artist, but a heroin addiction overcomes him with tragic results. Paco becomes a cop and an enemy to his \"carnal\", Miklo.", "poster_path": "/ljWRROEZCLrBlSa4eWUBHq7zvnm.jpg", "popularity": 13.383}, {"id": 34647, "video": false, "vote_count": 897, "vote_average": 7.3, "title": "Enter the Void", "release_date": "2009-06-17", "original_language": "en", "original_title": "Enter the Void", "genre_ids": [18, 14], "backdrop_path": "/tb6rRzvBuVwGBYCED9VFu31c0XV.jpg", "adult": false, "overview": "This psychedelic tour of life after death is seen entirely from the point of view of Oscar, a young American drug dealer and addict living in Tokyo with his prostitute sister, Linda. When Oscar is killed by police during a bust gone bad, his spirit journeys from the past -- where he sees his parents before their deaths -- to the present -- where he witnesses his own autopsy -- and then to the future, where he looks out for his sister from beyond the grave.", "poster_path": "/AvD7oAOit8FZYG1fH2GA5SPLDst.jpg", "popularity": 10.929}, {"id": 2841, "video": false, "vote_count": 660, "vote_average": 7.3, "title": "A Very Long Engagement", "release_date": "2004-10-26", "original_language": "fr", "original_title": "Un long dimanche de fian\u00e7ailles", "genre_ids": [18, 10749, 10752], "backdrop_path": "/pvSoTwy7GCpj4PE3O2XarCvB6ct.jpg", "adult": false, "overview": "In 1919, Mathilde was 19 years old. Two years earlier, her fianc\u00e9 Manech left for the front at the Somme. Like millions of others he was \"killed on the field of battle.\" It's written in black and white on the official notice. But Mathilde refuses to believe it. If Manech had died, she would know. She hangs on to her intuition as tightly as she would onto the last thread of hope linking her to her lover. A former sergeant tells her in vain that Manech died in the no man's land of a trench named Bingo Crepescule, in the company of four other men condemned to die for self-inflicted wounds. Her path ahead is full of obstacles but Mathilde is not frightened. Anything is possible to someone who is willing to challenge fate...", "poster_path": "/jtE7Xrj8KKnhGI3p2yCgwrtUCnd.jpg", "popularity": 12.255}, {"adult": false, "backdrop_path": "/lmgRy2ccVSv8o10tuVKoYxAdNfK.jpg", "genre_ids": [16, 35, 18], "id": 32202, "original_language": "en", "original_title": "Hey Good Lookin'", "overview": "An outrageous, affectionate look at coming of age in the Eisenhower era in Brooklyn.", "poster_path": "/vjzz2rsEjzlKVx4Id9NC1JJmbKI.jpg", "release_date": "1982-10-01", "title": "Hey Good Lookin'", "video": false, "vote_average": 5.6, "vote_count": 15, "popularity": 4.228}, {"adult": false, "backdrop_path": "/7Ejq1r368kSSVDKcV70Xc3x8gRW.jpg", "genre_ids": [28, 18], "id": 12253, "original_language": "en", "original_title": "Biker Boyz", "overview": "A mythic motorcycle tale of father and son\", this is the story of Manuel Galloway, also known as \"the King of Cali\", the president of a motorcycle club whose members are all African-American men, mostly white-collar workers who exchange their suits and ties at night and on weekends for leather outfits and motorcycle helmets.", "poster_path": "/gd5Ow4lnjpIgCzDWZyXDvgheMe9.jpg", "release_date": "2003-01-31", "title": "Biker Boyz", "video": false, "vote_average": 5.4, "vote_count": 135, "popularity": 12.366}, {"id": 46435, "video": false, "vote_count": 65, "vote_average": 6.7, "title": "Topsy-Turvy", "release_date": "1999-09-03", "original_language": "en", "original_title": "Topsy-Turvy", "genre_ids": [35, 18, 10402], "backdrop_path": "/1Xv5vmtUKDlnDdbSlNVwUX9PU3P.jpg", "adult": false, "overview": "After their production \"Princess Ida\" meets with less-than-stunning reviews, the relationship between Gilbert and Sullivan is strained to breaking. Their friends and associates attempt to get the two to work together again, which opens the way to \"The Mikado,\" one of the duo's greatest successes.", "poster_path": "/mUDH3XjYO3AU1alLpWGtkXfU0LK.jpg", "popularity": 6.886}, {"id": 18191, "video": false, "vote_count": 89, "vote_average": 5.9, "title": "Edmond", "release_date": "2005-08-31", "original_language": "en", "original_title": "Edmond", "genre_ids": [18, 53], "backdrop_path": "/ndO7ztGhBdfTppqDJjzXcMrmysH.jpg", "adult": false, "overview": "Seemingly mild-mannered businessman Edmond Burke visits a fortuneteller and hears a remark that spurs him to leave his wife abruptly and seek what is missing from his life. Encounters with strangers and unsavory people weaken the barriers encompassing his long-suppressed rage, until Edmond explodes in violence.", "poster_path": "/bGBLs1iU8i4JrEtZ5XbJCkFp3c2.jpg", "popularity": 10.006}, {"adult": false, "backdrop_path": "/u03X6TLdDqiMOFpB6E2p3SlaUCg.jpg", "genre_ids": [18, 10749, 10402], "id": 45272, "original_language": "en", "original_title": "Country Strong", "overview": "Soon after the rising young singer-songwriter Beau Williams gets involved with a fallen, emotionally unstable country star Kelly Canter, the pair embark on a career resurrection tour helmed by her husband/manager James and featuring a beauty queen-turned-singer Chiles Stanton. Between concerts, romantic entanglements and old demons threaten to derail them all.", "poster_path": "/h6MuiDulqT5qJgOArQV7BrLSXHn.jpg", "release_date": "2010-12-22", "title": "Country Strong", "video": false, "vote_average": 6.2, "vote_count": 138, "popularity": 10.11}, {"id": 10539, "video": false, "vote_count": 747, "vote_average": 6.5, "title": "James and the Giant Peach", "release_date": "1996-04-12", "original_language": "en", "original_title": "James and the Giant Peach", "genre_ids": [12, 16, 14, 10751], "backdrop_path": "/9fjyAtWGkT83ni21OlcT8bJFvPk.jpg", "adult": false, "overview": "When the young orphan boy James spills a magic bag of crocodile tongues, he finds himself in possession of a giant peach that flies him away to strange lands.", "poster_path": "/kyAl5UfUtGJC1wHrPVieqKKCpn8.jpg", "popularity": 15.811}, {"id": 120605, "video": false, "vote_count": 216, "vote_average": 7.2, "title": "The Punisher: Dirty Laundry", "release_date": "2012-07-16", "original_language": "en", "original_title": "The Punisher: Dirty Laundry", "genre_ids": [28, 80, 18], "backdrop_path": "/qqOWRByB5p8dx2XDFXpjpGdkJnq.jpg", "adult": false, "overview": "Frank Castle is staying in a bad neighborhood, where he encounters a gang that terrorizes its residents.", "poster_path": "/5o5uPBWe0pYj7nHmE7V8yoNlLQb.jpg", "popularity": 10.942}], "total_pages": 5, "total_results": 83}, "recommendations": {"page": 1, "results": [{"id": 94055, "video": false, "vote_count": 6, "vote_average": 5.3, "title": "The Peace Killers", "release_date": "1971-09-29", "original_language": "en", "original_title": "The Peace Killers", "genre_ids": [28, 80, 18], "backdrop_path": null, "adult": false, "overview": "Siblings Kristy and Jeffrey are buying supplies at a remote desert gas station when some members of a biker gang come cruising in. The bikers recognize Kristy, who used to be the main squeeze of the gang's leader before she ran away. The pair get away, but the bikers find out that they're living in a nearby commune, and start making their battle plans to bring Kristy back.", "poster_path": "/rq4y3VQRQisVy3a2xygfquf8aHX.jpg", "popularity": 2.589}, {"adult": false, "backdrop_path": null, "genre_ids": [16, 35, 14, 10402], "id": 86527, "original_language": "en", "original_title": "The Wizard of Speed and Time", "overview": "In the original short film, a young man in a green wizard costume runs throughout America at super speed, much like the superhero The Flash. Along the way, he gives a pretty girl a swift lift to another city, gives golden stars to other women who want a trip themselves. He then slips on a banana peel and comically crashes into a film stage, which he then brings to life in magical ways.", "poster_path": "/umJAlJJTixW1duXXbTSL4USJeG8.jpg", "release_date": "1979-12-21", "title": "The Wizard of Speed and Time", "video": false, "vote_average": 5.8, "vote_count": 9, "popularity": 1.505}, {"id": 63317, "video": false, "vote_count": 11, "vote_average": 5.0, "title": "Poor Pretty Eddie", "release_date": "1975-06-01", "original_language": "en", "original_title": "Poor Pretty Eddie", "genre_ids": [18, 27], "backdrop_path": "/gtf17dGIjp9FSDFGSW3sbuewFJ2.jpg", "adult": false, "overview": "A wrong turn on a jazz singer's road trip results in her car breaking down near an isolated lodge run by a faded starlet and a young, homicidal Elvis impersonator.", "poster_path": "/2239tyzveOHEaxgGheANVxwBmVf.jpg", "popularity": 3.861}, {"adult": false, "backdrop_path": "/xWbxF1yenjRFBfZJ3EizqpjIe6.jpg", "genre_ids": [27, 53], "id": 40350, "original_language": "en", "original_title": "Fright", "overview": "Young babysitter Amanda arrives at the Lloyd residence to spend the evening looking after their young son. Soon after the Lloyds leave, a series of frightening occurrences in the gloomy old house have Amanda's nerves on edge. The real terror begins, however, when the child's biological father appears after recently escaping from a nearby mental institution.", "poster_path": "/pYYcENIqTjm9opxmbQFNUdccEI6.jpg", "release_date": "1971-09-18", "title": "Fright", "video": false, "vote_average": 6.3, "vote_count": 16, "popularity": 3.831}, {"id": 116445, "video": false, "vote_count": 11, "vote_average": 4.8, "title": "Wonder Women", "release_date": "1973-04-25", "original_language": "en", "original_title": "Wonder Women", "genre_ids": [28, 27, 878, 53], "backdrop_path": "/zvrRulRxDImoKiKqhTFGzQcpBqO.jpg", "adult": false, "overview": "Dr. Tsu is a brilliant surgeon with her own exotic island off the coast of Manila. Using her sexy, all-girl army of martial-arts experts, Tsu kidnaps some of the world's greatest athletes. She is able to transplant any body part, so she uses the athletes for spare parts to sell to the world's richest men. Mike Harber is a womanizing, wise-cracking insurance investigator for Lloyd's of London sent to Manila to investigate the disappearance of a jai-alai player, and becomes involved with Dr. Tsu's mad mission.", "poster_path": "/xUVIHlPKuaZHYBJtn05rTi1jg7p.jpg", "popularity": 4.618}], "total_pages": 1, "total_results": 5}, "credits": {"cast": [{"cast_id": 2, "character": "Syreena", "credit_id": "52fe48d59251416c91099be7", "gender": 1, "id": 111841, "name": "Trina Parks", "order": 0, "profile_path": "/cBo3cSX8jh5lfrm5iS1XQ3167z6.jpg"}, {"cast_id": 3, "character": "Carmen", "credit_id": "52fe48d59251416c91099beb", "gender": 0, "id": 1074619, "name": "Edna Richardson", "order": 1, "profile_path": null}, {"cast_id": 4, "character": "Miranda", "credit_id": "52fe48d59251416c91099bef", "gender": 0, "id": 1074620, "name": "Bettye Sweet", "order": 2, "profile_path": null}, {"cast_id": 5, "character": "Theda", "credit_id": "52fe48d59251416c91099bf3", "gender": 0, "id": 195130, "name": "Shirley Washington", "order": 3, "profile_path": null}, {"cast_id": 6, "character": "Mellow", "credit_id": "52fe48d59251416c91099bf7", "gender": 2, "id": 42156, "name": "Roger E. Mosley", "order": 4, "profile_path": "/dAQA1V6JeuvgFLpIVOFZhysbRSR.jpg"}, {"cast_id": 7, "character": "Wired", "credit_id": "52fe48d59251416c91099bfb", "gender": 0, "id": 141371, "name": "Christopher Joy", "order": 5, "profile_path": null}, {"cast_id": 9, "character": "V.D.", "credit_id": "52fe48d59251416c91099bff", "gender": 2, "id": 55206, "name": "DeWayne Jessie", "order": 6, "profile_path": "/rmxOhvzry0IFA3DZDroRHRrk2iV.jpg"}, {"cast_id": 10, "character": "Commander Cross", "credit_id": "52fe48d59251416c91099c03", "gender": 2, "id": 24319, "name": "Norman Bartold", "order": 7, "profile_path": "/vnYMtCkcP7dnQHQdjRGKlzpdyKB.jpg"}, {"cast_id": 11, "character": "Officer Tubbins", "credit_id": "52fe48d59251416c91099c07", "gender": 0, "id": 943879, "name": "Charles Knapp", "order": 8, "profile_path": "/pySATu1neWqZ3INnmdcLbGEhBbm.jpg"}, {"cast_id": 12, "character": "Officer Emmo", "credit_id": "52fe48d59251416c91099c0b", "gender": 2, "id": 158920, "name": "Edward Marshall", "order": 9, "profile_path": null}, {"cast_id": 13, "character": "Officer Hugo", "credit_id": "52fe48d59251416c91099c0f", "gender": 2, "id": 102441, "name": "Dick Miller", "order": 10, "profile_path": "/zyQXh8BkLg0DDo23pxJN2dy6Bqj.jpg"}, {"cast_id": 14, "character": "Officer Babel", "credit_id": "52fe48d59251416c91099c13", "gender": 2, "id": 101896, "name": "Milt Kogan", "order": 11, "profile_path": "/5TjTHSLCwzXNOaOa1NbEWztR83a.jpg"}, {"cast_id": 15, "character": "Flash", "credit_id": "52fe48d59251416c91099c17", "gender": 0, "id": 1074622, "name": "Gene Simms", "order": 12, "profile_path": null}, {"cast_id": 16, "character": "Philo Rasberry", "credit_id": "52fe48d59251416c91099c1b", "gender": 0, "id": 42181, "name": "Sam Laws", "order": 13, "profile_path": null}, {"cast_id": 17, "character": "Raunchy", "credit_id": "52fe48d59251416c91099c1f", "gender": 2, "id": 16936, "name": "Stan Shaw", "order": 14, "profile_path": "/2KUPUQQFmc8Zyzf16uaiYmVrNvX.jpg"}], "crew": [{"credit_id": "52fe48d59251416c91099be3", "department": "Directing", "gender": 2, "id": 32175, "job": "Director", "name": "William Witney", "profile_path": "/5VOLSc8My7Thp1tbfCjYUa7gQSJ.jpg"}, {"credit_id": "52fe48d59251416c91099c25", "department": "Writing", "gender": 0, "id": 58294, "job": "Screenplay", "name": "George Armitage", "profile_path": "/rsVlCNOHKLUyo2xrA1jUlQmUUdx.jpg"}]}}