{"adult": false, "backdrop_path": "/oLeQNdYfmDNqhqYU6QnULh1Xqfj.jpg", "belongs_to_collection": null, "budget": 0, "genres": [{"id": 9648, "name": "Mystery"}, {"id": 80, "name": "Crime"}, {"id": 18, "name": "Drama"}], "homepage": "", "id": 84117, "imdb_id": "tt0110392", "original_language": "en", "original_title": "Love Is a Gun", "overview": "A model causes an obsessed police photographer to lose his girlfriend and become a murder suspect.", "popularity": 3.189, "poster_path": "/zdR1EVDSUG0tBnJ1qHOokG3kkil.jpg", "production_companies": [{"id": 4063, "logo_path": null, "name": "Trimark Pictures", "origin_country": ""}, {"id": 25358, "logo_path": null, "name": "Krane Entertainment", "origin_country": ""}, {"id": 46458, "logo_path": null, "name": "Jonathan Krane Group", "origin_country": ""}], "production_countries": [{"iso_3166_1": "US", "name": "United States of America"}], "release_date": "1994-11-30", "revenue": 0, "runtime": 105, "spoken_languages": [{"iso_639_1": "en", "name": "English"}], "status": "Released", "tagline": "Love fades, but murder is forever.", "title": "Love Is a Gun", "video": false, "vote_average": 4.8, "vote_count": 2, "keywords": {"keywords": [{"id": 14783, "name": "false accusations"}]}, "similar": {"page": 1, "results": [{"id": 992, "video": false, "vote_count": 362, "vote_average": 8.2, "title": "Sherlock, Jr.", "release_date": "1924-04-19", "original_language": "en", "original_title": "Sherlock, Jr.", "genre_ids": [28, 35, 9648], "backdrop_path": "/l3RiIjaN1peXQ2lAwnpF33Xb5R0.jpg", "adult": false, "overview": "A film projectionist longs to be a detective, and puts his meagre skills to work when he is framed by a rival for stealing his girlfriend's father's pocketwatch.", "poster_path": "/1G9r3rqtbFAQuyWKOZm4Y5J5s7Q.jpg", "popularity": 12.82}, {"id": 11558, "video": false, "vote_count": 154, "vote_average": 6.7, "title": "Silver Streak", "release_date": "1976-12-03", "original_language": "en", "original_title": "Silver Streak", "genre_ids": [35, 80, 53, 10749], "backdrop_path": "/fpOVmEvq3ADu0RKpQLjXZOGGHqa.jpg", "adult": false, "overview": "A somewhat daffy book editor on a rail trip from Los Angeles to Chicago thinks that he sees a murdered man thrown from the train. When he can find no one who will believe him, he starts doing some investigating of his own. But all that accomplishes is to get the killer after him.", "poster_path": "/fNOh3ljmTonQ9kuICJhp02bXGDg.jpg", "popularity": 8.601}, {"id": 8326, "video": false, "vote_count": 763, "vote_average": 6.8, "title": "Holes", "release_date": "2003-04-18", "original_language": "en", "original_title": "Holes", "genre_ids": [12, 35, 18, 10751], "backdrop_path": "/4cWk8xSRj4Ahz2yeZRqQr2m67lH.jpg", "adult": false, "overview": "Stanley's family is cursed with bad luck. Unfairly sentenced to months of detention at Camp Green Lake, he and his campmates are forced by the warden to dig holes in order to build character. What they don't know is that they are digging holes in order to search for a lost treasure hidden somewhere in the camp.", "poster_path": "/88HeeiJ6Vgu329KCcFC4cEcicPr.jpg", "popularity": 9.843}, {"id": 10633, "video": false, "vote_count": 460, "vote_average": 7.8, "title": "In the Heat of the Night", "release_date": "1967-08-02", "original_language": "en", "original_title": "In the Heat of the Night", "genre_ids": [80, 18, 9648, 53], "backdrop_path": "/xY5sgU09cOsvEAgJZaYo2aOZEFi.jpg", "adult": false, "overview": "An African American detective is asked to investigate a murder in a racist southern town.", "poster_path": "/cC3kyApHMNSfvsF67421L5IiTbc.jpg", "popularity": 11.911}, {"id": 2457, "video": false, "vote_count": 165, "vote_average": 8.3, "title": "Children of Paradise", "release_date": "1945-03-15", "original_language": "fr", "original_title": "Les Enfants du Paradis", "genre_ids": [18, 10749], "backdrop_path": "/59kBgtfbhh1dalgjGvFhDL98jN.jpg", "adult": false, "overview": "Filmed during the German occupation, this French milestone centers around the theatrical life of a beautiful courtesan and the four men who love her. Voted the \u201cBest French Film in History\u201d by the French Film Academy in 1990.", "poster_path": "/yiy9stl1jjVhW44ypkWMFDT8Ix3.jpg", "popularity": 8.125}, {"id": 31965, "video": false, "vote_count": 93, "vote_average": 6.5, "title": "Witchfinder General", "release_date": "1968-05-17", "original_language": "en", "original_title": "Witchfinder General", "genre_ids": [18, 36, 27], "backdrop_path": "/aD3igsvGJqggWIZ9KUa5oPGGrXN.jpg", "adult": false, "overview": "England, 1645. The cruel civil war between Royalists and Parliamentarians that is ravaging the country causes an era of chaos and legal arbitrariness that allows unscrupulous men to profit by exploiting the absurd superstitions of the peasants; like Matthew Hopkins, a monster disguised as a man who wanders from town to town offering his services as a witch hunter\u2026", "poster_path": "/ra83NoGOZ9hWhQZCXqh6wQBgdkd.jpg", "popularity": 7.766}, {"adult": false, "backdrop_path": "/6wCnSjmGU2pNKnTo0rZvYQfqXkH.jpg", "genre_ids": [18, 53, 80, 9648], "id": 10795, "original_language": "fr", "original_title": "Ne le dis \u00e0 personne", "overview": "A man receives a mysterious e-mail appearing to be from his wife, who was murdered years earlier. As he frantically tries to find out whether she's alive, he finds himself being implicated in her death.", "poster_path": "/9caHoo7Acpc4GMfgBdNZIC6kVCb.jpg", "release_date": "2006-11-01", "title": "Tell No One", "video": false, "vote_average": 7.3, "vote_count": 738, "popularity": 8.8}, {"adult": false, "backdrop_path": "/daxBAOJzaCNq8uzUnQfYJ4MzUrA.jpg", "genre_ids": [18, 36], "id": 11594, "original_language": "fr", "original_title": "Notre-Dame de Paris", "overview": "Paris, 1482. Today is the festival of the fools, taking place like each year in the square outside Cathedral Notre Dame. Among jugglers and other entertainers, Esmeralda, a sensuous gypsy, performs a bewitching dance in front of delighted spectators. From up in a tower of the cathedral, Frollo, an alchemist, gazes at her lustfully. Later in the night, Frollo orders Quasimodo, the deformed bell ringer and his faithful servant, to kidnap Esmeralda. But when the ugly freak comes close to her is touched by the young woman's beauty...", "poster_path": "/zuczgWA9jdWgS9DfA5TnKX8exba.jpg", "release_date": "1956-12-19", "title": "The Hunchback of Notre Dame", "video": false, "vote_average": 6.7, "vote_count": 40, "popularity": 9.161}, {"id": 321620, "video": false, "vote_count": 15, "vote_average": 5.5, "title": "The Famous Five 4", "release_date": "2015-01-29", "original_language": "de", "original_title": "F\u00fcnf Freunde 4", "genre_ids": [12, 80, 53, 10751], "backdrop_path": "/hQP1mg6c67PamWJMn4rRZynM0L.jpg", "adult": false, "overview": "The famous five George, Julian, Dick, Anne and Timmy the dog are spending holidays together. But when they are invited by Berhard, father of Julian, Dick and Anne, to visit an egyptian exhibition they see a burglar. They have a look at the mummy the burglar was tempering with to find a golden amulet. The famous five decide to visit Egypt to hand over the amulet. When arriving in Egypt Bernhard is arrested because he's asserted he stole the amulet and replaced it with a fake. Now its up to the young detectives to solve the case and prove their fathers innocence.", "poster_path": "/41TtFrT3ZrW8Fxb3DWsLXrbBnwA.jpg", "popularity": 7.735}, {"id": 343611, "video": false, "vote_count": 3004, "vote_average": 5.6, "title": "Jack Reacher: Never Go Back", "release_date": "2016-10-19", "original_language": "en", "original_title": "Jack Reacher: Never Go Back", "genre_ids": [28, 53], "backdrop_path": "/nDS8rddEK74HfAwCC5CoT6Cwzlt.jpg", "adult": false, "overview": "Jack Reacher must uncover the truth behind a major government conspiracy in order to clear his name. On the run as a fugitive from the law, Reacher uncovers a potential secret from his past that could change his life forever.", "poster_path": "/IfB9hy4JH1eH6HEfIgIGORXi5h.jpg", "popularity": 16.273}, {"id": 23014, "video": false, "vote_count": 15, "vote_average": 5.4, "title": "Invisible Ghost", "release_date": "1941-04-25", "original_language": "en", "original_title": "Invisible Ghost", "genre_ids": [27, 9648, 53], "backdrop_path": "/9JbsMsgbeEWu5RevYm6a4XxR5s.jpg", "adult": false, "overview": "The town's leading citizen is a man victim of homicidal impulses beyond his control. He is being controlled by his wife who had left him for another man. She was involved in a car accident that has left her brain damaged and is kept in the basement, in secret, by Kessler's gardener.", "poster_path": "/hwaqOtvuDh6uMJqRE6YiYvybX5M.jpg", "popularity": 4.113}, {"id": 4970, "video": false, "vote_count": 1336, "vote_average": 6.0, "title": "Gothika", "release_date": "2003-11-21", "original_language": "en", "original_title": "Gothika", "genre_ids": [27, 53], "backdrop_path": "/vrUZrhCyTrw5MkQBD2AWyIAoGRS.jpg", "adult": false, "overview": "After a car crash, a criminal psychologist regains consciousness only to find that she's a patient in the same mental institution that currently employs her. It seems she's been accused of murdering her husband\u2014but she has no memory of committing the crime. As she tries to regain her memory and convince her co-workers of her innocence, a vengeful spirit uses her as an earthly pawn, which further convinces everyone of her guilt.", "poster_path": "/frSGNQcWx1ek8dCduFYCux1ho7n.jpg", "popularity": 13.651}, {"adult": false, "backdrop_path": "/g9kfPy6vWJMnGsHDZLB6RUEq90o.jpg", "genre_ids": [53, 18], "id": 22315, "original_language": "hi", "original_title": "Aitraaz", "overview": "Aitraaz revolves around the character Raj Malhotra (Akshay Kumar) a successful businessman who has everything going for him, including a lovely wife (Kareena Kapoor). Just when he thinks things can't get any better, Sonia (Priyanka Chopra) - his ex-girlfriend, now the boss's wife - walks back into his life - and she wants Raj at any cost.", "poster_path": "/9tVt6N7vgIFnf8g6NzaqfjkQObr.jpg", "release_date": "2004-11-12", "title": "Aitraaz", "video": false, "vote_average": 5.7, "vote_count": 28, "popularity": 3.63}, {"id": 637113, "video": false, "vote_count": 17, "vote_average": 9.5, "title": "Square One", "release_date": "2019-10-05", "original_language": "en", "original_title": "Square One", "genre_ids": [80, 99, 18], "backdrop_path": "/vX9FALAhEx3OyJN9mbHBMVaQNQA.jpg", "adult": false, "overview": "An investigation into the original 1993 Michael Jackson allegations brought by the Chandler family.", "poster_path": "/sVsAd5QoMbzEBt2U3WnzwAGD0dU.jpg", "popularity": 4.489}, {"adult": false, "backdrop_path": "/uynnXR6jS6hqkdb2agv4gLyfSBU.jpg", "genre_ids": [53, 80], "id": 25532, "original_language": "es", "original_title": "Cr\u00f3nica de una fuga", "overview": "The true story of four men who narrowly escaped death at the hands of Argentina's military death squads in 1977. Claudio Tamburrini is a goalie for a minor-league football team when he is abducted by members of the Argentine military police and taken to an unofficial detention center on the false suspicion that he is a terrorist. As he is tortured by intelligence agents looking for information he doesn't have, Tamburrini fully expects to be killed. After many sessions of brutal torture, Tamburrini and his fellow captives Guillermo and Tano are being readied for execution when, in a final desperate act, Tamburrini dives out a window during a rainstorm.", "poster_path": "/6HhXb4IF3dkViOkTanziTqabrQ7.jpg", "release_date": "2006-04-27", "title": "Chronicle of an Escape", "video": false, "vote_average": 6.7, "vote_count": 30, "popularity": 4.536}, {"adult": false, "backdrop_path": "/8aIYhraqEVZHYynCTrgPlA75VWx.jpg", "genre_ids": [10752, 18], "id": 78315, "original_language": "fr", "original_title": "The Cross of Lorraine", "overview": "French soldiers (Jean-Pierre Aumont, Gene Kelly) surrender to lying Nazis and are herded into a barbaric prison camp.", "poster_path": "/udyNreizse9W2cLrngEsWwRYjX4.jpg", "release_date": "1943-11-12", "title": "The Cross of Lorraine", "video": false, "vote_average": 6.0, "vote_count": 9, "popularity": 3.662}, {"adult": false, "backdrop_path": "/5eyfRHuHEAv66TciacfFD7HOs28.jpg", "genre_ids": [28, 80, 53], "id": 49325, "original_language": "nl", "original_title": "Lek", "overview": "Based on a book about an infamous real scandal in the Dutch crime scene, the film aims at exposing the horrors caused by corruption on both sides of the law. A rookie policeman is coerced into obtaining secret information from a childhood friend turned gangster. The childhood friend turns informant. But his revelations are hardly the most important \"leaks\" in the story. In fact, the new relationship between old friends goes all wrong, and the young policeman becomes increasingly involved in a deadly web of lies, crimes, treason, and revenge, all seemingly out of control.", "poster_path": "/vyXVY0RQqbs33HLdHk1dR5KvBWR.jpg", "release_date": "2000-07-15", "title": "Leak", "video": false, "vote_average": 6.7, "vote_count": 10, "popularity": 2.228}, {"adult": false, "backdrop_path": "/vunzdi1c3DqosAy6RXzmMkMfDSb.jpg", "genre_ids": [18, 10749], "id": 174945, "original_language": "en", "original_title": "Heart o' the Hills", "overview": "Family tensions in the Kentucky hills are inflamed by an outsider's dishonest scheme to exploit the area for its coal.", "poster_path": "/MtiWqffKlaqcsGyQpUz4lEvt35.jpg", "release_date": "1919-11-30", "title": "Heart o' the Hills", "video": false, "vote_average": 7.0, "vote_count": 4, "popularity": 2.882}, {"id": 112570, "video": false, "vote_count": 3, "vote_average": 7.0, "title": "Wanted", "release_date": "1967-03-22", "original_language": "en", "original_title": "Wanted", "genre_ids": [28, 18, 37, 10749], "backdrop_path": "/zCIDIjlLrxD4EjtfJVaFGV5Q3ou.jpg", "adult": false, "overview": "Giuliano Gemma, elected sheriff by his small town, is unjustly accused of murder and forced to flee. The man behind the false charge is a lurid figure who leads a band of cattle rustlers. Our hero tries to prove his innocence by getting rid of his enemies one by one. -From http://www.spaghetti-western.net", "poster_path": "/dBdq6Eosx85SuedXBYobi8utp9Z.jpg", "popularity": 1.795}, {"adult": false, "backdrop_path": null, "genre_ids": [99, 18], "id": 594342, "original_language": "pt", "original_title": "Sete anos em Maio", "overview": "One night seven years ago, Rafael came home after work and discovered that people he did not know had come looking for him. He immediately fled, without looking back. From that moment on, his life changed, as if that night had never ended. One evening, around an improvised fire near a factory, he decides to confide his journey to a stranger who had a similar experience, also marked by violence, addictions and misery. Rafael\u2019s intimate account meets the collective testimony of an entire nation oppressed by poverty, police repression and institutional corruption.", "poster_path": "/q0PFcvD12GHiYzgHK0TSFwEfkEf.jpg", "release_date": "2019-04-09", "title": "Seven Years in May", "video": false, "vote_average": 9.0, "vote_count": 2, "popularity": 0.84}], "total_pages": 3, "total_results": 48}, "recommendations": {"page": 1, "results": [], "total_pages": 1, "total_results": 0}, "credits": {"cast": [{"cast_id": 1, "character": "Jack Hart", "credit_id": "52fe48da9251416c9109a715", "gender": 2, "id": 21315, "name": "Eric Roberts", "order": 0, "profile_path": "/sZ6MiyrU6VWFavcArxOBhTMIyYq.jpg"}, {"cast_id": 2, "character": "Jean Starr", "credit_id": "52fe48da9251416c9109a719", "gender": 1, "id": 11164, "name": "Kelly Preston", "order": 1, "profile_path": "/kxTQVsfZkI3DdzBqutw4zZapRB.jpg"}, {"cast_id": 3, "character": "Frank Deacon", "credit_id": "52fe48da9251416c9109a71d", "gender": 2, "id": 8655, "name": "R. Lee Ermey", "order": 2, "profile_path": "/r8GBqFBjypLUP9VVqDqfZ7wYbSs.jpg"}, {"cast_id": 14, "character": "Isabel (as Eliza Garrett)", "credit_id": "52fe48db9251416c9109a75d", "gender": 1, "id": 55207, "name": "Eliza Roberts", "order": 3, "profile_path": "/twTgZzVk2hT4KHHfNQ7AnkCJ371.jpg"}, {"cast_id": 15, "character": "Al Kinder", "credit_id": "52fe48db9251416c9109a761", "gender": 2, "id": 105062, "name": "Joseph Sirola", "order": 4, "profile_path": "/nHjAfD0dZnZp5reNFl5RLVsJhYz.jpg"}, {"cast_id": 16, "character": "Jay Liebowitz", "credit_id": "52fe48db9251416c9109a765", "gender": 0, "id": 42316, "name": "John Toles-Bey", "order": 5, "profile_path": "/wVhPudoO2Y9iUGi7Je9LG0pAxzK.jpg"}, {"cast_id": 17, "character": "Boots Tynan", "credit_id": "52fe48db9251416c9109a769", "gender": 2, "id": 1240, "name": "Jack Kehler", "order": 6, "profile_path": "/huxiFLWgthatgaEIT4u36muUJMg.jpg"}, {"cast_id": 18, "character": "The Watchmaker", "credit_id": "52fe48db9251416c9109a76d", "gender": 2, "id": 154981, "name": "Harvey Vernon", "order": 7, "profile_path": null}, {"cast_id": 19, "character": "Woman Detective", "credit_id": "52fe48db9251416c9109a771", "gender": 0, "id": 172661, "name": "Joan Stuart Morris", "order": 8, "profile_path": null}, {"cast_id": 20, "character": "Dieter", "credit_id": "52fe48db9251416c9109a775", "gender": 0, "id": 1085041, "name": "Peter Pit", "order": 9, "profile_path": null}], "crew": [{"credit_id": "52fe48da9251416c9109a723", "department": "Directing", "gender": 2, "id": 1085033, "job": "Director", "name": "David Hartwell", "profile_path": null}, {"credit_id": "52fe48da9251416c9109a729", "department": "Writing", "gender": 0, "id": 1085034, "job": "Writer", "name": "David Hartwell", "profile_path": null}, {"credit_id": "52fe48da9251416c9109a72f", "department": "Production", "gender": 2, "id": 1056850, "job": "Producer", "name": "Daniel Zelik Berk", "profile_path": null}, {"credit_id": "52fe48da9251416c9109a735", "department": "Production", "gender": 2, "id": 14093, "job": "Executive Producer", "name": "Jonathan D. Krane", "profile_path": null}, {"credit_id": "52fe48da9251416c9109a741", "department": "Editing", "gender": 0, "id": 42120, "job": "Editor", "name": "Marc Grossman", "profile_path": null}, {"credit_id": "52fe48da9251416c9109a747", "department": "Production", "gender": 1, "id": 1081201, "job": "Casting", "name": "Betsy Fels", "profile_path": null}, {"credit_id": "52fe48da9251416c9109a74d", "department": "Art", "gender": 0, "id": 1085039, "job": "Art Direction", "name": "Cullin Robin", "profile_path": null}, {"credit_id": "52fe48db9251416c9109a753", "department": "Art", "gender": 0, "id": 174883, "job": "Set Decoration", "name": "Mary Helfrich", "profile_path": null}, {"credit_id": "52fe48db9251416c9109a759", "department": "Costume & Make-Up", "gender": 0, "id": 63460, "job": "Costume Design", "name": "Dorothy Amos", "profile_path": null}, {"credit_id": "58338336c3a36833a200097b", "department": "Camera", "gender": 0, "id": 67181, "job": "Director of Photography", "name": "Charlie Lieberman", "profile_path": null}]}}