{"adult": false, "backdrop_path": null, "belongs_to_collection": null, "budget": 0, "genres": [{"id": 36, "name": "History"}, {"id": 18, "name": "Drama"}], "homepage": null, "id": 8430, "imdb_id": "tt0077925", "original_language": "it", "original_title": "Il Messia", "overview": "Directed by Roberto Rossellini (his final film). Rossellini takes numerous liberties with the original source material, rearranging and omitting events at will, presenting everything in a low-key, highly undramatic fashion. The film begins in Old Testament times, allowing Rossellini to present the story of Jesus in its ancient, historic context. This clip shows the Last Supper, depicted Rossellini-style.", "popularity": 1.881, "poster_path": "/aMaTs0SHEn5rFn2VLaQTQysO55t.jpg", "production_companies": [{"id": 2489, "logo_path": null, "name": "Orizzonte 2000", "origin_country": ""}], "production_countries": [{"iso_3166_1": "IT", "name": "Italy"}], "release_date": "1975-10-24", "revenue": 0, "runtime": 140, "spoken_languages": [{"iso_639_1": "it", "name": "Italiano"}], "status": "Released", "tagline": "", "title": "The Messiah", "video": false, "vote_average": 6.1, "vote_count": 8, "keywords": {"keywords": [{"id": 3571, "name": "crucifixion"}, {"id": 3574, "name": "bethlehem"}, {"id": 3575, "name": "jerusalem"}, {"id": 194063, "name": "messiah"}]}, "similar": {"page": 1, "results": [{"adult": false, "backdrop_path": "/eWelH0cHonTsdP6ImrgilpbqdTK.jpg", "genre_ids": [18, 36], "id": 335778, "original_language": "en", "original_title": "Risen", "overview": "Clavius, a powerful Roman military tribune, and his aide, Lucius, are tasked with solving the mystery of what happened to Jesus in the weeks following the crucifixion, in order to disprove the rumors of a risen Messiah and prevent an uprising in Jerusalem.", "poster_path": "/uGZ1easTLqkNfDNHRLm5kvkfRw7.jpg", "release_date": "2016-02-18", "title": "Risen", "video": false, "vote_average": 5.9, "vote_count": 452, "popularity": 13.954}, {"id": 615, "video": false, "vote_count": 1934, "vote_average": 7.1, "title": "The Passion of the Christ", "release_date": "2004-02-25", "original_language": "en", "original_title": "The Passion of the Christ", "genre_ids": [18], "backdrop_path": "/clVnEHURb8Ot3twaLmf7N1lNym1.jpg", "adult": false, "overview": "A graphic portrayal of the last twelve hours of Jesus of Nazareth's life.", "poster_path": "/oFuLM1EaKhi1WNWiTjQ1HKIZ1Eg.jpg", "popularity": 21.645}, {"id": 235260, "video": false, "vote_count": 137, "vote_average": 6.4, "title": "Son of God", "release_date": "2014-02-28", "original_language": "en", "original_title": "Son of God", "genre_ids": [18], "backdrop_path": "/fabLQCBndX9Zfd3mX0RS1OjyqEX.jpg", "adult": false, "overview": "The life story of Jesus is told from his humble birth through his teachings, crucifixion and ultimate resurrection.", "poster_path": "/xyFaNh1IGdHEJbuLdba6a7GxLzP.jpg", "popularity": 11.437}, {"id": 11051, "video": false, "vote_count": 488, "vote_average": 7.3, "title": "The Last Temptation of Christ", "release_date": "1988-08-12", "original_language": "en", "original_title": "The Last Temptation of Christ", "genre_ids": [18], "backdrop_path": "/rBqdcQeM1h05YjF9rFtPWnNaDO2.jpg", "adult": false, "overview": "Jesus, a humble Judean carpenter beginning to see that he is the son of God, is drawn into revolutionary action against the Roman occupiers by Judas -- despite his protestations that love, not violence, is the path to salvation. The burden of being the savior of mankind torments Jesus throughout his life, leading him to doubt. As he is put to death on the cross, Jesus is tempted by visions of an ordinary life married to Mary Magdalene.", "poster_path": "/dutPJWBeQgdfjRqeKojqmyIdXFd.jpg", "popularity": 11.894}, {"id": 9946, "video": false, "vote_count": 932, "vote_average": 5.7, "title": "End of Days", "release_date": "1999-11-24", "original_language": "en", "original_title": "End of Days", "genre_ids": [28, 14, 27, 9648], "backdrop_path": "/q5KcZBMc4Vs5SQelnSdY3ICm56M.jpg", "adult": false, "overview": "On 28 December 1999, the citizens of New York City are getting ready for the turn of the millennium. However, the Devil decides to crash the party by coming to the city, inhabiting a man's body, and searching for his chosen bride\u2014a 20-year-old woman named Christine York. The world will end, and the only hope lies within an atheist named Jericho Cane.", "poster_path": "/bEIjH6GroeWaBkn6o7MVpMNbuyw.jpg", "popularity": 15.853}, {"id": 72190, "video": false, "vote_count": 9917, "vote_average": 6.7, "title": "World War Z", "release_date": "2013-06-20", "original_language": "en", "original_title": "World War Z", "genre_ids": [28, 18, 27, 878, 53], "backdrop_path": "/xMOQVYLeIKBXenJ9KMeasj7S64y.jpg", "adult": false, "overview": "Life for former United Nations investigator Gerry Lane and his family seems content. Suddenly, the world is plagued by a mysterious infection turning whole human populations into rampaging mindless zombies. After barely escaping the chaos, Lane is persuaded to go on a mission to investigate this disease. What follows is a perilous trek around the world where Lane must brave horrific dangers and long odds to find answers before human civilization falls.", "poster_path": "/Ha5t0J21eyiq6Az1EXzx0iwsGH.jpg", "popularity": 27.681}, {"id": 11416, "video": false, "vote_count": 688, "vote_average": 7.4, "title": "The Mission", "release_date": "1986-09-29", "original_language": "en", "original_title": "The Mission", "genre_ids": [28, 12, 18, 36], "backdrop_path": "/22GLW4Qgs7NycHLjsp8whRCuky4.jpg", "adult": false, "overview": "When a Spanish Jesuit goes into the South American wilderness to build a mission in the hope of converting the Indians of the region, a slave hunter is converted and joins his mission. When Spain sells the colony to Portugal, they are forced to defend all they have built against the Portugese aggressors.", "poster_path": "/oTU13XXz4WHisDWKX3X6dFWEjC0.jpg", "popularity": 11.33}, {"id": 474392, "video": false, "vote_count": 88, "vote_average": 5.3, "title": "Samson", "release_date": "2018-02-16", "original_language": "en", "original_title": "Samson", "genre_ids": [28, 12, 18], "backdrop_path": "/yR6952VuJ2OchliEj0vyRxFZiBT.jpg", "adult": false, "overview": "After losing the love of his life to a cruel Philistine prince, a young Hebrew with Supernatural strength defends his people, sacrificing everything to avenge his love, his people, and his God.", "poster_path": "/v7Zaj1IEzMMB7KzfglpxdXWB66u.jpg", "popularity": 12.004}, {"id": 147441, "video": false, "vote_count": 3122, "vote_average": 5.8, "title": "Exodus: Gods and Kings", "release_date": "2014-12-03", "original_language": "en", "original_title": "Exodus: Gods and Kings", "genre_ids": [28, 12, 18], "backdrop_path": "/hOOgtrByGgWfqGTTn5VL7jkLYXJ.jpg", "adult": false, "overview": "The defiant leader Moses rises up against the Egyptian Pharaoh Ramses, setting 400,000 slaves on a monumental journey of escape from Egypt and its terrifying cycle of deadly plagues.", "poster_path": "/ycDcPCpWM7hSdIR6tFkOzQPkve2.jpg", "popularity": 23.138}, {"id": 665, "video": false, "vote_count": 1332, "vote_average": 7.7, "title": "Ben-Hur", "release_date": "1959-12-26", "original_language": "en", "original_title": "Ben-Hur", "genre_ids": [12, 36], "backdrop_path": "/uOQPSUGG3ZHiDg9ecN8irQNZ4T1.jpg", "adult": false, "overview": "Judah Ben-Hur, a Palestinian Jew, is battling the Roman empire at the time of Christ. His actions send him and his family into slavery, but an inspirational encounter with Jesus changes everything. He finally meets his rival in a justly famous chariot race and rescues his suffering family.", "poster_path": "/m4WQ1dBIrEIHZNCoAjdpxwSKWyH.jpg", "popularity": 19.591}, {"id": 86834, "video": false, "vote_count": 4278, "vote_average": 5.6, "title": "Noah", "release_date": "2014-03-07", "original_language": "en", "original_title": "Noah", "genre_ids": [12, 18], "backdrop_path": "/jnoJgpITphPoqA3e7JnNC4mtAVX.jpg", "adult": false, "overview": "A man who suffers visions of an apocalyptic deluge takes measures to protect his family from the coming flood.", "poster_path": "/5wioUjzwr91fvq7ydunxK2CPSxi.jpg", "popularity": 16.558}, {"id": 324786, "video": false, "vote_count": 7336, "vote_average": 8.1, "title": "Hacksaw Ridge", "release_date": "2016-10-07", "original_language": "en", "original_title": "Hacksaw Ridge", "genre_ids": [18, 36, 10752], "backdrop_path": "/zBK4QZONMQXhcgaJv1YYTdCW7q9.jpg", "adult": false, "overview": "WWII American Army Medic Desmond T. Doss, who served during the Battle of Okinawa, refuses to kill people and becomes the first Conscientious Objector in American history to receive the Congressional Medal of Honor.", "poster_path": "/bndiUFfJxNd2fYx8XO610L9a07m.jpg", "popularity": 23.616}, {"adult": false, "backdrop_path": "/dAK3Sql45m1xyMzCm5LDa4Bmucx.jpg", "genre_ids": [878, 18], "id": 13363, "original_language": "en", "original_title": "The Man from Earth", "overview": "An impromptu goodbye party for Professor John Oldman becomes a mysterious interrogation after the retiring scholar reveals to his colleagues he never ages and has walked the earth for 14,000 years.", "poster_path": "/zYP2lBJ5GRV1HaIi4USqRl3phe.jpg", "release_date": "2007-06-10", "title": "The Man from Earth", "video": false, "vote_average": 7.7, "vote_count": 1237, "popularity": 15.764}, {"id": 947, "video": false, "vote_count": 1588, "vote_average": 8.0, "title": "Lawrence of Arabia", "release_date": "1962-12-10", "original_language": "en", "original_title": "Lawrence of Arabia", "genre_ids": [12, 18, 36, 10752], "backdrop_path": "/lENerYvUcfl9GlolqA1emj5gb4k.jpg", "adult": false, "overview": "The story of British officer T.E. Lawrence's mission to aid the Arab tribes in their revolt against the Ottoman Empire during the First World War. Lawrence becomes a flamboyant, messianic figure in the cause of Arab unity but his psychological instability threatens to undermine his achievements.", "poster_path": "/j21UXCOq0EbV8EPTtmPn1CGePfB.jpg", "popularity": 17.37}, {"id": 242, "video": false, "vote_count": 3308, "vote_average": 7.4, "title": "The Godfather: Part III", "release_date": "1990-12-24", "original_language": "en", "original_title": "The Godfather: Part III", "genre_ids": [80, 18, 53], "backdrop_path": "/dEuqTwwhfvk66jUKQa7bMqM5Cf7.jpg", "adult": false, "overview": "In the midst of trying to legitimize his business dealings in 1979 New York and Italy, aging mafia don, Michael Corleone seeks forgiveness for his sins while taking a young protege under his wing.", "poster_path": "/1hdm3Axw9LjITbApvAXBbqO58zE.jpg", "popularity": 27.213}, {"id": 310, "video": false, "vote_count": 6935, "vote_average": 6.6, "title": "Bruce Almighty", "release_date": "2003-05-23", "original_language": "en", "original_title": "Bruce Almighty", "genre_ids": [35, 14], "backdrop_path": "/bhEudqWbWsiEBdnl0kCIwFp5Hay.jpg", "adult": false, "overview": "Bruce Nolan toils as a 'human interest' television reporter in Buffalo, N.Y., but despite his high ratings and the love of his beautiful girlfriend, Bruce remains unfulfilled. At the end of the worst day in his life, he angrily ridicules God\u2014and the Almighty responds, endowing Bruce with all of His divine powers.", "poster_path": "/lgYKHifMMLT8OxYObMKa8b4STsr.jpg", "popularity": 33.956}, {"id": 591, "video": false, "vote_count": 5720, "vote_average": 6.7, "title": "The Da Vinci Code", "release_date": "2006-05-17", "original_language": "en", "original_title": "The Da Vinci Code", "genre_ids": [9648, 53], "backdrop_path": "/hcAMO4LF6G2hvsTpNgmY1kFj3jJ.jpg", "adult": false, "overview": "A murder in Paris\u2019 Louvre Museum and cryptic clues in some of Leonardo da Vinci\u2019s most famous paintings lead to the discovery of a religious mystery. For 2,000 years a secret society closely guards information that \u2014 should it come to light \u2014 could rock the very foundations of Christianity.", "poster_path": "/5IqaT3fza0Y9vKazjGwDGsNuuS8.jpg", "popularity": 28.373}, {"id": 16366, "video": false, "vote_count": 496, "vote_average": 6.4, "title": "Joseph: King of Dreams", "release_date": "2000-11-07", "original_language": "en", "original_title": "Joseph: King of Dreams", "genre_ids": [16, 10402, 10751], "backdrop_path": "/p5WF1vmFwTrdNlx6Z7mt5ksnG7W.jpg", "adult": false, "overview": "In this animated retelling of the story from the Bible's Book of Genesis, Joseph's gift of dream interpretation and his brilliantly colored coat inspires jealousy in his brothers.", "poster_path": "/dsL5nngGY8qTmXxtAamMUYVQDY3.jpg", "popularity": 18.451}, {"id": 841, "video": false, "vote_count": 1142, "vote_average": 6.4, "title": "Dune", "release_date": "1984-12-14", "original_language": "en", "original_title": "Dune", "genre_ids": [28, 12, 878], "backdrop_path": "/o5l7nvYLfisSndoOIbMxoUHfdNd.jpg", "adult": false, "overview": "In the year 10,191, the world is at war for control of the desert planet Dune\u2014the only place where the time-travel substance 'Spice' can be found. But when one leader gives up control, it's only so he can stage a coup with some unsavory characters.", "poster_path": "/wuiUqivUWiUySwhEvtdOqrlrLPn.jpg", "popularity": 21.395}, {"id": 603, "video": false, "vote_count": 15892, "vote_average": 8.1, "title": "The Matrix", "release_date": "1999-03-30", "original_language": "en", "original_title": "The Matrix", "genre_ids": [28, 878], "backdrop_path": "/icmmSD4vTTDKOq2vvdulafOGw93.jpg", "adult": false, "overview": "Set in the 22nd century, The Matrix tells the story of a computer hacker who joins a group of underground insurgents fighting the vast and powerful computers who now rule the earth.", "poster_path": "/gynBNzwyaHKtXqlEKKLioNkjKgN.jpg", "popularity": 37.396}], "total_pages": 26, "total_results": 504}, "recommendations": {"page": 1, "results": [{"id": 175956, "video": false, "vote_count": 6, "vote_average": 6.8, "title": "The Conviction", "release_date": "1991-02-28", "original_language": "it", "original_title": "La condanna", "genre_ids": [18], "backdrop_path": "/fofiyULh17S2fZrjXhmiuG1kklv.jpg", "adult": false, "overview": "A girl and her art professor get trapped inside a castle-museum after it closes at night. After a little resistance she agrees to have sex with him, but then she sues the professor for rape. The professor will have to prove his innocence.", "poster_path": "/1r0CTCpzFWDPIRLUyJjENixAEui.jpg", "popularity": 2.473}], "total_pages": 1, "total_results": 1}, "credits": {"cast": [{"cast_id": 4, "character": "Jesus", "credit_id": "52fe44a8c3a36847f80a29d7", "gender": 0, "id": 55795, "name": "Pier Maria Rossi", "order": 0, "profile_path": null}, {"cast_id": 5, "character": "Virgin Mary", "credit_id": "52fe44a8c3a36847f80a29db", "gender": 0, "id": 55796, "name": "Mita Ungaro", "order": 1, "profile_path": null}, {"cast_id": 6, "character": "John the Baptist", "credit_id": "52fe44a8c3a36847f80a29df", "gender": 0, "id": 55797, "name": "Carlos de Carvalho", "order": 2, "profile_path": null}, {"cast_id": 9, "character": "Saul", "credit_id": "52fe44a8c3a36847f80a29eb", "gender": 0, "id": 55799, "name": "Fausto Di Bella", "order": 3, "profile_path": null}, {"cast_id": 10, "character": "Samuel", "credit_id": "52fe44a8c3a36847f80a29ef", "gender": 2, "id": 649, "name": "Vernon Dobtcheff", "order": 4, "profile_path": "/lcPki2IDdmRvqiBbv2RUBfgm3IH.jpg"}, {"cast_id": 11, "character": "Maria Magdalena", "credit_id": "52fe44a8c3a36847f80a29f3", "gender": 0, "id": 55800, "name": "Antonella Fasano", "order": 5, "profile_path": null}, {"cast_id": 8, "character": "Pontius Pilate", "credit_id": "52fe44a8c3a36847f80a29e7", "gender": 2, "id": 39953, "name": "Jean Martin", "order": 6, "profile_path": "/f7J7ItHt6AHz8z2PQuWpdH0lCHz.jpg"}, {"cast_id": 13, "character": "Herodes Antipas", "credit_id": "5754a0fcc3a36867a00022e6", "gender": 2, "id": 240665, "name": "Toni Ucci", "order": 7, "profile_path": "/qOwxtC5epaYS2L7h8dCAs1sR6gZ.jpg"}, {"cast_id": 14, "character": "Herod the Great", "credit_id": "5754a111c3a36810520004c8", "gender": 2, "id": 11223, "name": "Vittorio Caprioli", "order": 8, "profile_path": "/9N1v5ihkkOcuH9gBIEtfItpXjHK.jpg"}, {"cast_id": 15, "character": "Adulteress", "credit_id": "5754a12792514126c7002192", "gender": 1, "id": 109142, "name": "Tina Aumont", "order": 9, "profile_path": "/dg8VhEYHh5QD1tDeILKivbng0LO.jpg"}, {"cast_id": 16, "character": "Herodias", "credit_id": "5754a13992514116e20013a9", "gender": 0, "id": 1007637, "name": "Flora Carabella", "order": 10, "profile_path": "/mKugNa6dt6iQioHkzmnpPmqx3lp.jpg"}, {"cast_id": 7, "character": "Joseph", "credit_id": "52fe44a8c3a36847f80a29e3", "gender": 0, "id": 55798, "name": "Yatsugi Khelil", "order": 11, "profile_path": null}, {"cast_id": 12, "character": "Roman guard", "credit_id": "52fe44a8c3a36847f80a29f7", "gender": 2, "id": 3774, "name": "Joshua Sinclair", "order": 12, "profile_path": "/o43987ZpGESRszlIbcbxzrYA29s.jpg"}], "crew": [{"credit_id": "52fe44a8c3a36847f80a29cd", "department": "Writing", "gender": 2, "id": 4410, "job": "Screenplay", "name": "Roberto Rossellini", "profile_path": "/u0wEQn45GT9ciDhOblvhDrSBmKC.jpg"}, {"credit_id": "52fe44a8c3a36847f80a29c7", "department": "Directing", "gender": 2, "id": 4410, "job": "Director", "name": "Roberto Rossellini", "profile_path": "/u0wEQn45GT9ciDhOblvhDrSBmKC.jpg"}, {"credit_id": "5754a22c925141338c00000e", "department": "Editing", "gender": 1, "id": 22472, "job": "Editor", "name": "Jolanda Benvenuti", "profile_path": "/adfOG36p9to0u8zLEDMihdqWmGe.jpg"}, {"credit_id": "5a1831c2925141032c01536e", "department": "Camera", "gender": 2, "id": 31854, "job": "Director of Photography", "name": "Mario Montuori", "profile_path": null}, {"credit_id": "5754a20a92514106fe000531", "department": "Sound", "gender": 2, "id": 33216, "job": "Music", "name": "Mario Nascimbene", "profile_path": null}, {"credit_id": "52fe44a8c3a36847f80a29d3", "department": "Writing", "gender": 1, "id": 55794, "job": "Screenplay", "name": "Silvia D'Amico Bendico", "profile_path": "/6n4iQpdSjJbFY9zUJg5gOfYSHQq.jpg"}, {"credit_id": "5754a1fa92514132f800001d", "department": "Production", "gender": 1, "id": 55794, "job": "Producer", "name": "Silvia D'Amico Bendico", "profile_path": "/6n4iQpdSjJbFY9zUJg5gOfYSHQq.jpg"}]}}