{"adult": false, "backdrop_path": "/h1okQrwwnGhemyvPAen0Bnt8SK4.jpg", "belongs_to_collection": null, "budget": 0, "genres": [{"id": 27, "name": "Horror"}, {"id": 35, "name": "Comedy"}, {"id": 878, "name": "Science Fiction"}], "homepage": null, "id": 8464, "imdb_id": "tt0159797", "original_language": "en", "original_title": "Top of the Food Chain", "overview": "An isolated Canadian town (populated by the weirdest group of people this side of Saturn) has seen its share of problems. First the nut factory closed, then the CATV antenna stopped broadcasting, and now something is gruesomely devouring the townsfolk! Can visiting atomic scientist (and expert on \"cool fusion\") Dr. Karel Lamonte solve the mystery before everyone disappears?", "popularity": 2.967, "poster_path": "/s4r5Nrc0coMB8YhPHjwDWOf2jee.jpg", "production_companies": [{"id": 73525, "logo_path": null, "name": "Space: The Imagination Station", "origin_country": ""}, {"id": 1203, "logo_path": null, "name": "The Ontario Film Development Corporation", "origin_country": ""}, {"id": 73524, "logo_path": null, "name": "Bedard/Lalonde Amusements", "origin_country": ""}], "production_countries": [{"iso_3166_1": "CA", "name": "Canada"}], "release_date": "1999-09-11", "revenue": 0, "runtime": 99, "spoken_languages": [{"iso_639_1": "en", "name": "English"}], "status": "Released", "tagline": "Something is eating the residents of Exceptional Vista!", "title": "Top of the Food Chain", "video": false, "vote_average": 5.1, "vote_count": 7, "keywords": {"keywords": [{"id": 1603, "name": "extraterrestrial technology"}, {"id": 3183, "name": "bisexuality"}, {"id": 4862, "name": "alien life-form"}, {"id": 6968, "name": "space invasion"}, {"id": 7490, "name": "hicktown"}, {"id": 33841, "name": "incest"}, {"id": 208048, "name": "cannibalism"}]}, "similar": {"page": 1, "results": [{"adult": false, "backdrop_path": "/gXUdQLbo6eqaTby2cEjFQW1jyVV.jpg", "genre_ids": [28, 53, 878], "id": 679, "original_language": "en", "original_title": "Aliens", "overview": "When Ripley's lifepod is found by a salvage crew over 50 years later, she finds that terra-formers are on the very planet they found the alien species. When the company sends a family of colonists out to investigate her story\u2014all contact is lost with the planet and colonists. They enlist Ripley and the colonial marines to return and search for answers.", "poster_path": "/nORMXEkYEbzkU5WkMWMgRDJwjSZ.jpg", "release_date": "1986-07-18", "title": "Aliens", "video": false, "vote_average": 7.9, "vote_count": 5586, "popularity": 35.13}, {"adult": false, "backdrop_path": "/tNpJuz8NEG0DsGG8SN0dL2kbCzs.jpg", "genre_ids": [878, 12, 10751, 14], "id": 601, "original_language": "en", "original_title": "E.T. the Extra-Terrestrial", "overview": "After a gentle alien becomes stranded on Earth, the being is discovered and befriended by a young boy named Elliott. Bringing the extraterrestrial into his suburban California house, Elliott introduces E.T., as the alien is dubbed, to his brother and his little sister, Gertie, and the children decide to keep its existence a secret. Soon, however, E.T. falls ill, resulting in government intervention and a dire situation for both Elliott and the alien.", "poster_path": "/8htLKK03TJjKZOXJgihZCu8v0P.jpg", "release_date": "1982-06-11", "title": "E.T. the Extra-Terrestrial", "video": false, "vote_average": 7.5, "vote_count": 7145, "popularity": 20.477}, {"id": 644, "video": false, "vote_count": 3854, "vote_average": 7.0, "title": "A.I. Artificial Intelligence", "release_date": "2001-06-29", "original_language": "en", "original_title": "A.I. Artificial Intelligence", "genre_ids": [12, 18, 878], "backdrop_path": "/idVdfyi51JtG7N5DPW6qeSankyV.jpg", "adult": false, "overview": "David, a robotic boy\u2014the first of his kind programmed to love\u2014is adopted as a test case by a Cybertronics employee and his wife. Though he gradually becomes their child, a series of unexpected circumstances make this life impossible for David. Without final acceptance by humans or machines, David embarks on a journey to discover where he truly belongs, uncovering a world in which the line between robot and machine is both vast and profoundly thin.", "poster_path": "/wnUAcUrMRGPPZUDroLeZhSjLkuu.jpg", "popularity": 27.294}, {"adult": false, "backdrop_path": "/xATZyEpnZ0Z0iO9z5K8RZsraGKI.jpg", "genre_ids": [878, 18], "id": 840, "original_language": "en", "original_title": "Close Encounters of the Third Kind", "overview": "After an encounter with UFOs, a line worker feels undeniably drawn to an isolated area in the wilderness where something spectacular is about to happen.", "poster_path": "/3Av8ZPiMrxFq9XiOjZl0tkoq9Oo.jpg", "release_date": "1977-11-16", "title": "Close Encounters of the Third Kind", "video": false, "vote_average": 7.4, "vote_count": 2288, "popularity": 32.396}, {"id": 126889, "video": false, "vote_count": 5385, "vote_average": 5.9, "title": "Alien: Covenant", "release_date": "2017-05-09", "original_language": "en", "original_title": "Alien: Covenant", "genre_ids": [27, 878, 53], "backdrop_path": "/6jajFcaY2YsfGQstJ5HaqZNVseX.jpg", "adult": false, "overview": "Bound for a remote planet on the far side of the galaxy, the crew of the colony ship 'Covenant' discovers what is thought to be an uncharted paradise, but is actually a dark, dangerous world\u2014which has a sole inhabitant: the 'synthetic', David, survivor of the doomed Prometheus expedition.", "poster_path": "/zecMELPbU5YMQpC81Z8ImaaXuf9.jpg", "popularity": 33.391}, {"id": 1091, "video": false, "vote_count": 3505, "vote_average": 8.0, "title": "The Thing", "release_date": "1982-06-25", "original_language": "en", "original_title": "The Thing", "genre_ids": [27, 9648, 878], "backdrop_path": "/7mdGrxp3ZL2OqNSrQ5LoYySi5MH.jpg", "adult": false, "overview": "Scientists in the Antarctic are confronted by a shape-shifting alien that assumes the appearance of the people it kills.", "poster_path": "/tzGY49kseSE9QAKk47uuDGwnSCu.jpg", "popularity": 21.518}, {"id": 10304, "video": false, "vote_count": 285, "vote_average": 3.9, "title": "Starship Troopers 2: Hero of the Federation", "release_date": "2004-04-20", "original_language": "en", "original_title": "Starship Troopers 2: Hero of the Federation", "genre_ids": [28, 12, 27, 878], "backdrop_path": "/elCm3CYwflEV6EaZdyf9zgS699i.jpg", "adult": false, "overview": "In the sequel to Paul Verhoeven's loved/reviled sci-fi film, a group of troopers taking refuge in an abandoned outpost after fighting alien bugs, failing to realize that more danger lays in wait.", "poster_path": "/xoQpKbnmGPuZub5NAPQq18hDEWA.jpg", "popularity": 17.28}, {"adult": false, "backdrop_path": "/6hBIRNqGhaFxMHLRyudhRJOJGHt.jpg", "genre_ids": [27, 53], "id": 13186, "original_language": "en", "original_title": "Wrong Turn 2: Dead End", "overview": "Retired military commander Colonel Dale Murphy hosts the simulated post-apocalyptic reality show where participants are challenged to survive a remote West Virginia wasteland. But the show turns into a nightmarish showdown when each realizes they are being hunted by an inbred family of cannibals determined to make them all dinner!", "poster_path": "/ftmiyfrTrqTi5Qod62nGRP9BGPn.jpg", "release_date": "2007-08-25", "title": "Wrong Turn 2: Dead End", "video": false, "vote_average": 5.7, "vote_count": 617, "popularity": 18.111}, {"adult": false, "backdrop_path": "/eC8TeqWgfyXi5gSkWwoRMh4Zd18.jpg", "genre_ids": [16, 10751], "id": 11544, "original_language": "en", "original_title": "Lilo & Stitch", "overview": "As Stitch, a runaway genetic experiment from a faraway planet, wreaks havoc on the Hawaiian Islands, he becomes the mischievous adopted alien \"puppy\" of an independent little girl named Lilo and learns about loyalty, friendship, and 'ohana, the Hawaiian tradition of family.", "poster_path": "/tVaEulzowKhMhDvHNNYb9rNEZPB.jpg", "release_date": "2002-06-21", "title": "Lilo & Stitch", "video": false, "vote_average": 7.4, "vote_count": 3479, "popularity": 21.231}, {"adult": false, "backdrop_path": "/e7cpUuhjkzuzss1CJHqEKpTNQqW.jpg", "genre_ids": [878, 10751, 35, 12, 16], "id": 16866, "original_language": "en", "original_title": "Planet 51", "overview": "When Earth astronaut Capt. Chuck Baker arrives on Planet 51 -- a world reminiscent of American suburbia circa 1950 -- he tries to avoid capture, recover his spaceship and make it home safely, all with the help of an empathetic little green being.", "poster_path": "/x7Itcg3ZdExKwdKguy73WPEqosW.jpg", "release_date": "2009-11-19", "title": "Planet 51", "video": false, "vote_average": 5.7, "vote_count": 1220, "popularity": 18.429}, {"id": 10516, "video": false, "vote_count": 318, "vote_average": 6.2, "title": "The Gendarme and the Creatures from Outer Space", "release_date": "1979-01-31", "original_language": "fr", "original_title": "Le Gendarme et les extra-terrestres", "genre_ids": [35, 878], "backdrop_path": "/uaf2sM4vnIH4zGwSJPs4SwubUrI.jpg", "adult": false, "overview": "The bungling inspector Cruchot (Fun\u00e8s) finds himself trying to save the residents of St. Tropez from some oil-drinking humanoid aliens. The only way to tell the aliens from the real people, besides their constant thirst for oil-products, is that they sound like empty garbage cans when you touch them. Chaos is ahead.", "poster_path": "/6hc9iSCJlBK4BmSLWYSGWvo9FAR.jpg", "popularity": 10.781}, {"id": 13122, "video": false, "vote_count": 292, "vote_average": 6.4, "title": "The People Under the Stairs", "release_date": "1991-11-01", "original_language": "en", "original_title": "The People Under the Stairs", "genre_ids": [35, 18, 27, 9648, 53], "backdrop_path": "/fzXbcA4z4qMkWstUZXIOCG2IPqO.jpg", "adult": false, "overview": "When young Poindexter \"Fool\" Williams breaks into the creepy, immense old home of his family's greedy and uncaring landlords, he uncovers a disturbing scenario underneath the stairs.", "poster_path": "/jQib0QxTFN8BDjpnQEeyLzfzlLU.jpg", "popularity": 10.399}, {"id": 259072, "video": false, "vote_count": 348, "vote_average": 4.8, "title": "Wrong Turn 6: Last Resort", "release_date": "2014-08-22", "original_language": "en", "original_title": "Wrong Turn 6: Last Resort", "genre_ids": [27], "backdrop_path": "/wdCnrC6is10zWqD3lqCe9LMz63o.jpg", "adult": false, "overview": "A sudden and mysterious inheritance brings Danny and his friends to Hobb Springs, a forgotten resort deep in the West Virginia hills. Hobb Springs is being looked after under the watchful care of Jackson and Sally, a socially awkward couple who introduce Danny to the long lost family he's never known. A clan by the name of Hillicker. But soon Danny learns his relatives have a different way of living, that for generations, the Hillickers have observed ancient traditions rooted in cannibalism and other taboo rituals.", "poster_path": "/n6bu9uvIQBTJEmWCGlifTToWxsu.jpg", "popularity": 14.611}, {"adult": false, "backdrop_path": "/sLn5HvFwLIL7Fof2Jj0JEeJSrGC.jpg", "genre_ids": [28, 878, 12, 53], "id": 34851, "original_language": "en", "original_title": "Predators", "overview": "A mercenary reluctantly leads a motley crew of warriors who soon come to realize they've been captured and deposited on an alien planet by an unknown nemesis. With the exception of a peculiar physician, they are all cold-blooded killers, convicts, death squad members... hunters who have now become the hunted.", "poster_path": "/gsnUhWMYLSD8VZS7nrMT9mj9BYr.jpg", "release_date": "2010-07-03", "title": "Predators", "video": false, "vote_average": 6.1, "vote_count": 2179, "popularity": 14.377}, {"adult": false, "backdrop_path": "/nmZrtjeP3j7lTDKlNv4ayhq6AYR.jpg", "genre_ids": [27], "id": 8689, "original_language": "it", "original_title": "Cannibal Holocaust", "overview": "A New York University professor returns from a rescue mission to the Amazon rainforest with the footage shot by a lost team of documentarians who were making a film about the area's local cannibal tribes.", "poster_path": "/r0VmAFHWAqlaraVg0krIEhDCPWH.jpg", "release_date": "1980-02-07", "title": "Cannibal Holocaust", "video": false, "vote_average": 6.1, "vote_count": 703, "popularity": 15.178}, {"adult": false, "backdrop_path": "/41c9Posihpr1acKmY1zfVle8yET.jpg", "genre_ids": [878, 18, 27, 9648], "id": 10153, "original_language": "en", "original_title": "Sphere", "overview": "The OSSA discovers a spacecraft thought to be at least 300 years old at the bottom of the ocean. Immediately following the discovery, they decide to send a team down to the depths of the ocean to study the space craft. They are the best of best, smart and logical, and the perfect choice to learn more about the spacecraft.", "poster_path": "/jrjzPjKnpJq99GPePKf64k7Fzqh.jpg", "release_date": "1998-02-13", "title": "Sphere", "video": false, "vote_average": 6.0, "vote_count": 879, "popularity": 13.105}, {"id": 10200, "video": false, "vote_count": 1946, "vote_average": 5.4, "title": "The Day the Earth Stood Still", "release_date": "2008-12-10", "original_language": "en", "original_title": "The Day the Earth Stood Still", "genre_ids": [18, 878, 53], "backdrop_path": "/bfRgom0djZB8z7qbtjM542j3xrT.jpg", "adult": false, "overview": "A representative of an alien race that went through drastic evolution to survive its own climate change, Klaatu comes to Earth to assess whether humanity can prevent the environmental damage they have inflicted on their own planet. When barred from speaking to the United Nations, he decides humankind shall be exterminated so the planet can survive.", "poster_path": "/7fNFk4EAGbuRFqrSJprgXEIX5Za.jpg", "popularity": 19.23}, {"id": 9612, "video": false, "vote_count": 461, "vote_average": 5.1, "title": "Coneheads", "release_date": "1993-07-23", "original_language": "en", "original_title": "Coneheads", "genre_ids": [35, 878, 10751], "backdrop_path": "/axWjhTUYwaXVWaaOxiXxOzaxpfJ.jpg", "adult": false, "overview": "With enormous cone-shaped heads, robotlike walks and an appetite for toilet paper, aliens Beldar and Prymatt don't exactly blend in with the population of Paramus, N.J. But for some reason, everyone believes them when they say they're from France.", "poster_path": "/9vuFI0xV1yZfsWr23evJlkRDL8j.jpg", "popularity": 15.632}, {"adult": false, "backdrop_path": "/frQ7WuW595dispaIW66SYmzKasG.jpg", "genre_ids": [10751, 878, 12], "id": 10122, "original_language": "en", "original_title": "Flight of the Navigator", "overview": "12-year-old David is accidentally knocked out in the forest near his home, but when he awakens eight years have passed. His family is overjoyed to have him back, but is just as perplexed as he is that he hasn't aged. When a NASA scientist discovers a UFO nearby, David gets the chance to unravel the mystery and recover the life he lost.", "poster_path": "/69kD2bpkwSadpN30JB9vJrlz8HW.jpg", "release_date": "1986-07-30", "title": "Flight of the Navigator", "video": false, "vote_average": 7.0, "vote_count": 399, "popularity": 13.925}, {"id": 11548, "video": false, "vote_count": 378, "vote_average": 6.5, "title": "*batteries not included", "release_date": "1987-12-18", "original_language": "en", "original_title": "*batteries not included", "genre_ids": [35, 14, 878, 10751], "backdrop_path": "/dg6euHvooHXQqgefeycmZoXGhWl.jpg", "adult": false, "overview": "In a soon to be demolished block of apartments, the residents resist the criminal methods used to force them to leave so a greedy tycoon can build his new skyscraper. When tiny mechanical aliens land for a recharge, they decide to stay and help out.", "poster_path": "/6N2HGV0KgCWVg41zAgAuBbwcE3e.jpg", "popularity": 12.926}], "total_pages": 4, "total_results": 77}, "recommendations": {"page": 1, "results": [{"adult": false, "backdrop_path": null, "genre_ids": [53, 27], "id": 286025, "original_language": "en", "original_title": "Antisocial Behavior", "overview": "How far would you go to confront the demons of your past? After twenty-something Joe plays a seemingly innocent drinking game at a party, he suffers a sudden violent blackout that awakens something sinister within. Much to his horror, they become more frequent in the coming days and bring with them visions of mind-numbing terror. As Joe questions his diminishing sanity, he is met with increasing physical pain that spawns balls of bloodstained flesh from his very body. He must trace his forgotten childhood to learn the savage truth that left him in an orphanage and why now it has returned to haunt him.", "poster_path": "/fVuWbxQCF3ulmRnVbc9wTSeh0r2.jpg", "release_date": "2014-01-17", "title": "Antisocial Behavior", "video": false, "vote_average": 3.8, "vote_count": 6, "popularity": 2.993}, {"adult": false, "backdrop_path": null, "genre_ids": [28, 80, 53, 27], "id": 416119, "original_language": "en", "original_title": "Blood Trap", "overview": "Six criminals are tasked with kidnapping a young for ransom, but when they get locked inside her mansion, what they find is not what they expected.", "poster_path": "/1YxHo1vNWcGHHBarKsPxZAMm53Y.jpg", "release_date": "2016-09-20", "title": "Blood Trap", "video": false, "vote_average": 3.7, "vote_count": 11, "popularity": 3.548}, {"adult": false, "backdrop_path": null, "genre_ids": [27, 53, 10770], "id": 111816, "original_language": "en", "original_title": "Bay Coven", "overview": "A young newlywed couple move into a remote village in middle America only to find a secret coven of witches who want them to join all the fun; or face the consequences.", "poster_path": "/aaS1qy0orvxm8YtJ96AGcor9oP9.jpg", "release_date": "1987-10-25", "title": "Bay Coven", "video": false, "vote_average": 3.7, "vote_count": 11, "popularity": 4.641}, {"id": 365083, "video": false, "vote_count": 14, "vote_average": 3.8, "title": "Harvest Lake", "release_date": "2016-01-01", "original_language": "en", "original_title": "Harvest Lake", "genre_ids": [27], "backdrop_path": "/nBZOmLj9Urzv1tLeW032Na08zM3.jpg", "adult": false, "overview": "Five friends fall under the seductive influence of a libidinous, otherworldly presence that threatens to change their lives forever in this strange and erotic new film from director Scott Schirmer (Found) and producer Brian K. Williams (Time to Kill). Starring Jason Crowe (Dead Moon Rising), Ellie Church (Headless), Tristan Risk (American Mary), Dan Nye (The Legend of Wasco), and Kevin Roach (The Confession of Fred Krueger), with special FX by The Clockwerk Creature Company.", "poster_path": "/fS0WqeZ9Sm4EXP62du9lWmPvtbd.jpg", "popularity": 4.289}, {"adult": false, "backdrop_path": "/zM3xSTv5DyzFODUOJFeAYZOy5TC.jpg", "genre_ids": [878, 27], "id": 300321, "original_language": "en", "original_title": "RWD", "overview": "Two men went searching for ghosts, but they found themselves instead...", "poster_path": "/earECTUygdwa69v1dZeALn0oHTH.jpg", "release_date": "2015-09-26", "title": "RWD", "video": false, "vote_average": 3.8, "vote_count": 14, "popularity": 4.54}, {"adult": false, "backdrop_path": "/5dwoTVh42SAmW6RD4Xx7ASgOCJs.jpg", "genre_ids": [27], "id": 21860, "original_language": "en", "original_title": "Born", "overview": "Mary Elizabeth goes to bed alone one night, still a twenty one year old virgin, and wakes up the next morning pregnant. Possessed by the demon fetus growing within her womb, Mary Elizabeth obeys her homicidal cravings to kill, for the sake of her unborn spawn. Mary Elizabeth's dark transformation is controlled by her unborn demon child's deadly evil cravings.", "poster_path": "/cukGR3vUDNkyDhSQG6ydYJx9144.jpg", "release_date": "2007-01-01", "title": "Born", "video": false, "vote_average": 3.4, "vote_count": 12, "popularity": 5.252}, {"adult": false, "backdrop_path": "/5cK5TU6djueGxYJjSu2ItBZms69.jpg", "genre_ids": [27, 35, 18], "id": 262088, "original_language": "en", "original_title": "Chocolate Strawberry Vanilla", "overview": "A black comedy/drama about a lonely ice-cream van driver, Warren Thompson, and his unhealthy obsession with television soap starlet, Katey George.", "poster_path": "/jfmYdWXjUOxLgss7MT3WSefpSAE.jpg", "release_date": "2013-11-24", "title": "Chocolate Strawberry Vanilla", "video": false, "vote_average": 5.8, "vote_count": 15, "popularity": 2.023}], "total_pages": 1, "total_results": 7}, "credits": {"cast": [{"cast_id": 4, "character": "Dr. Karel Lamonte", "credit_id": "52fe44abc3a36847f80a36a7", "gender": 2, "id": 55152, "name": "Campbell Scott", "order": 0, "profile_path": "/LpYIN2jh58sHaUFM2r3G4G0iE6.jpg"}, {"cast_id": 5, "character": "Sandy Fawkes", "credit_id": "52fe44abc3a36847f80a36ab", "gender": 1, "id": 55153, "name": "Fiona Loewi", "order": 1, "profile_path": "/V6F6CQtdT5dH5lMjCtwfcYJgMY.jpg"}, {"cast_id": 6, "character": "Guy Fawkes", "credit_id": "52fe44abc3a36847f80a36af", "gender": 2, "id": 16857, "name": "Tom Everett Scott", "order": 2, "profile_path": "/nVDihOvsSm7kmeyHLtAcEzrrSYC.jpg"}, {"cast_id": 7, "character": "Michel O'Shea", "credit_id": "52fe44abc3a36847f80a36b3", "gender": 2, "id": 44208, "name": "Nigel Bennett", "order": 3, "profile_path": "/wx1zmmpMi9luYFGzikSBIvwyDdR.jpg"}, {"cast_id": 8, "character": "Officer Gayle", "credit_id": "52fe44abc3a36847f80a36b7", "gender": 2, "id": 55154, "name": "Hardee T. Lineham", "order": 4, "profile_path": "/y8QwYCBCHbiwWs9sah33XaTT073.jpg"}, {"cast_id": 9, "character": "Deputy Dana", "credit_id": "52fe44abc3a36847f80a36bb", "gender": 2, "id": 4572, "name": "James Allodi", "order": 5, "profile_path": "/2CWfhSnCCfmzunTxZZAOpllkrCJ.jpg"}, {"cast_id": 10, "character": "Mayor Claire", "credit_id": "52fe44abc3a36847f80a36bf", "gender": 2, "id": 55155, "name": "Bernard Behrens", "order": 6, "profile_path": "/6ibwaHJ45ZExo1eyUIJrATKdio7.jpg"}], "crew": [{"credit_id": "56cb30469251412f74000145", "department": "Production", "gender": 1, "id": 7438, "job": "Casting", "name": "Eve Battaglia", "profile_path": null}, {"credit_id": "56cb30569251412f6c000168", "department": "Production", "gender": 0, "id": 35333, "job": "Casting", "name": "Marsha Chesley", "profile_path": null}, {"credit_id": "52fe44abc3a36847f80a3697", "department": "Directing", "gender": 0, "id": 55149, "job": "Director", "name": "John Paizs", "profile_path": "/fatY032RZZbfvOj5LQ5sIumcZ4o.jpg"}, {"credit_id": "52fe44abc3a36847f80a369d", "department": "Writing", "gender": 0, "id": 55150, "job": "Author", "name": "Phil Bedard", "profile_path": null}, {"credit_id": "52fe44abc3a36847f80a36a3", "department": "Writing", "gender": 0, "id": 55151, "job": "Author", "name": "Larry Lalonde", "profile_path": null}, {"credit_id": "56cb30e1c3a3684e4a00014e", "department": "Art", "gender": 0, "id": 63806, "job": "Construction Coordinator", "name": "Chris Irvine", "profile_path": null}, {"credit_id": "56cb30369251412f6900014f", "department": "Editing", "gender": 0, "id": 63932, "job": "Editor", "name": "Bert Kish", "profile_path": null}, {"credit_id": "56cb30279251412f6c000164", "department": "Camera", "gender": 0, "id": 65962, "job": "Director of Photography", "name": "Bill Wong", "profile_path": null}, {"credit_id": "56cb32b29251412f7d0001d9", "department": "Sound", "gender": 0, "id": 132609, "job": "Sound Re-Recording Mixer", "name": "Cory Mandel", "profile_path": null}, {"credit_id": "56cb3006c3a3684e27000140", "department": "Production", "gender": 1, "id": 697538, "job": "Producer", "name": "Jana Edelbaum", "profile_path": null}, {"credit_id": "56cb30669251412f7a000170", "department": "Art", "gender": 2, "id": 958414, "job": "Production Design", "name": "Rupert Lazarus", "profile_path": null}, {"credit_id": "56cb30f99251412f74000155", "department": "Visual Effects", "gender": 0, "id": 961445, "job": "Special Effects Supervisor", "name": "Brock Jolliffe", "profile_path": null}, {"credit_id": "56cb3123c3a3684e2700015d", "department": "Crew", "gender": 2, "id": 1000909, "job": "Digital Effects Supervisor", "name": "Doug Campbell", "profile_path": null}, {"credit_id": "5b16aa250e0a262dea01688e", "department": "Sound", "gender": 2, "id": 1027606, "job": "Sound Re-Recording Mixer", "name": "Steve Foster", "profile_path": null}, {"credit_id": "56cb2ff49251412f6e000146", "department": "Production", "gender": 0, "id": 1087475, "job": "Producer", "name": "Suzanne L. Berger", "profile_path": null}, {"credit_id": "56cb3087c3a3684e27000150", "department": "Art", "gender": 1, "id": 1321697, "job": "Set Decoration", "name": "Odetta Stoddard", "profile_path": null}, {"credit_id": "56cb32ee9251412f6c0001b4", "department": "Sound", "gender": 0, "id": 1338134, "job": "Foley", "name": "John Sievert", "profile_path": null}, {"credit_id": "56cb3264c3a3684e4a00018f", "department": "Sound", "gender": 0, "id": 1395689, "job": "Dolby Consultant", "name": "Tony V. Stevens", "profile_path": null}, {"credit_id": "56cb3163c3a3684e27000166", "department": "Camera", "gender": 0, "id": 1415129, "job": "Still Photographer", "name": "Sophie Giraud", "profile_path": null}, {"credit_id": "56cb30779251412f7d000190", "department": "Art", "gender": 2, "id": 1484709, "job": "Art Direction", "name": "Mark Kowalsky", "profile_path": null}, {"credit_id": "56cb32229251412f6c00019e", "department": "Crew", "gender": 2, "id": 1530192, "job": "Armorer", "name": "Charles Taylor", "profile_path": null}, {"credit_id": "56cb30159251412f6900014d", "department": "Sound", "gender": 0, "id": 1581499, "job": "Music", "name": "David Krystal", "profile_path": null}, {"credit_id": "56cb309a9251412f6e00015a", "department": "Costume & Make-Up", "gender": 0, "id": 1581500, "job": "Costume Design", "name": "Lisa Martin", "profile_path": null}, {"credit_id": "56cb30ba9251412f7400014c", "department": "Art", "gender": 0, "id": 1581501, "job": "Assistant Art Director", "name": "Kelly Groh", "profile_path": null}, {"credit_id": "56cb31b8c3a3684e25000195", "department": "Costume & Make-Up", "gender": 0, "id": 1581502, "job": "Assistant Costume Designer", "name": "Laura DiMarcantonio", "profile_path": null}, {"credit_id": "56cb314e9251412f74000163", "department": "Camera", "gender": 0, "id": 1581503, "job": "Steadicam Operator", "name": "Michael Fylyshtan", "profile_path": null}, {"credit_id": "56cb317b9251412f72000163", "department": "Lighting", "gender": 0, "id": 1581504, "job": "Gaffer", "name": "Tory Falkenberg", "profile_path": null}, {"credit_id": "56cb31969251412f74000176", "department": "Lighting", "gender": 0, "id": 1581506, "job": "Gaffer", "name": "Ben Sharp", "profile_path": null}, {"credit_id": "56cb31a39251412f77000158", "department": "Crew", "gender": 0, "id": 1581506, "job": "Second Unit Cinematographer", "name": "Ben Sharp", "profile_path": null}, {"credit_id": "56cb31369251412f72000154", "department": "Visual Effects", "gender": 0, "id": 1581509, "job": "Visual Effects Supervisor", "name": "Wayne Trickett", "profile_path": null}, {"credit_id": "56cb31d0c3a3684e4d0001ab", "department": "Sound", "gender": 2, "id": 1581511, "job": "Music Supervisor", "name": "Michael Perlmutter", "profile_path": null}, {"credit_id": "56cb31eac3a3684e35000175", "department": "Crew", "gender": 0, "id": 1581512, "job": "Choreographer", "name": "Linda Callow", "profile_path": null}, {"credit_id": "56cb31fec3a3684e4a00017d", "department": "Directing", "gender": 0, "id": 1581513, "job": "Script Supervisor", "name": "Nora McPhail", "profile_path": null}, {"credit_id": "56cb323b9251412f7d0001bd", "department": "Editing", "gender": 0, "id": 1581514, "job": "Dialogue Editor", "name": "Joe Mancuso", "profile_path": null}, {"credit_id": "56cb32969251412f69000186", "department": "Sound", "gender": 0, "id": 1581515, "job": "Sound Effects Editor", "name": "Dan Sexton", "profile_path": null}, {"credit_id": "56cb3315c3a3684e250001b3", "department": "Costume & Make-Up", "gender": 0, "id": 1581516, "job": "Makeup Artist", "name": "Karen McLachlan", "profile_path": null}]}}