{"adult": false, "backdrop_path": "/mSKVMxAktbe9uN3u93XsNJgpeBP.jpg", "belongs_to_collection": null, "budget": 0, "genres": [{"id": 35, "name": "Comedy"}], "homepage": null, "id": 84735, "imdb_id": "tt0083099", "original_language": "en", "original_title": "So Fine", "overview": "While trying to get his father out of a financial jam, a man comes up with an idea that turns into an unexpected overnight financial fashion success - the bottomless pants.", "popularity": 6.535, "poster_path": "/oBuNhORf8gEFGe9v483uJDRvO0X.jpg", "production_companies": [{"id": 174, "logo_path": "/IuAlhI9eVC9Z8UQWOIDdWRKSEJ.png", "name": "Warner Bros. Pictures", "origin_country": "US"}], "production_countries": [{"iso_3166_1": "US", "name": "United States of America"}], "release_date": "1981-09-25", "revenue": 0, "runtime": 90, "spoken_languages": [{"iso_639_1": "en", "name": "English"}], "status": "Released", "tagline": "A revealing comedy.", "title": "So Fine", "video": false, "vote_average": 5.6, "vote_count": 9, "keywords": {"keywords": [{"id": 9634, "name": "jeans"}, {"id": 10909, "name": "lawyer"}]}, "similar": {"page": 1, "results": [{"id": 1645, "video": false, "vote_count": 1049, "vote_average": 7.2, "title": "A Time to Kill", "release_date": "1996-07-24", "original_language": "en", "original_title": "A Time to Kill", "genre_ids": [80, 18, 53], "backdrop_path": "/b1cfBhhorGYNPbMVT6C9cHwxRr8.jpg", "adult": false, "overview": "A young lawyer defends a black man accused of murdering two men who raped his 10-year-old daughter, sparking a rebirth of the KKK.", "poster_path": "/1q2kU8NMGO446b0QAvVdY2v778x.jpg", "popularity": 17.855}, {"id": 93, "video": false, "vote_count": 414, "vote_average": 7.9, "title": "Anatomy of a Murder", "release_date": "1959-07-01", "original_language": "en", "original_title": "Anatomy of a Murder", "genre_ids": [80, 18, 9648, 53], "backdrop_path": "/aFfbSVwzXH5tCi5MQN0idkoFbk0.jpg", "adult": false, "overview": "The film pits a humble small-town lawyer against a hard-headed big city prosecutor. Emotions flare as a jealous army lieutenant pleads innocent to murdering the rapist of his seductive, beautiful wife.", "poster_path": "/rZ9QOB1ZqTjg9j0ftfur4AndoDa.jpg", "popularity": 16.077}, {"id": 396371, "video": false, "vote_count": 1968, "vote_average": 7.1, "title": "Molly's Game", "release_date": "2017-12-25", "original_language": "en", "original_title": "Molly's Game", "genre_ids": [80, 18], "backdrop_path": "/rHcBZ6ZKCe4FalWHyvBGsyMsh0k.jpg", "adult": false, "overview": "Molly Bloom, a young skier and former Olympic hopeful becomes a successful entrepreneur (and a target of an FBI investigation) when she establishes a high-stakes, international poker game.", "poster_path": "/in43bQ7k0ttr666IPP94IlbQbTR.jpg", "popularity": 18.118}, {"adult": false, "backdrop_path": "/eB43LYncKDJS3p5xYSUN9dUrL2A.jpg", "genre_ids": [18], "id": 205587, "original_language": "en", "original_title": "The Judge", "overview": "A successful lawyer returns to his hometown for his mother's funeral only to discover that his estranged father, the town's judge, is suspected of murder.", "poster_path": "/v6s65U6qisvxWgO3cNnreaaaite.jpg", "release_date": "2014-10-08", "title": "The Judge", "video": false, "vote_average": 7.3, "vote_count": 2562, "popularity": 16.888}, {"adult": false, "backdrop_path": "/pHM9Xr6ivOspDUWuprjaxgPbcB3.jpg", "genre_ids": [18, 80, 53], "id": 11975, "original_language": "en", "original_title": "The Rainmaker", "overview": "When Rudy Baylor, a young attorney with no clients, goes to work for a seedy ambulance chaser, he wants to help the parents of a terminally ill boy in their suit against an insurance company. But to take on corporate America, Rudy and a scrappy paralegal must open their own law firm.", "poster_path": "/cFM9TariJqLLiPb6OSsvTfQPTAd.jpg", "release_date": "1997-11-18", "title": "The Rainmaker", "video": false, "vote_average": 6.9, "vote_count": 488, "popularity": 19.137}, {"adult": false, "backdrop_path": "/xLIXVKahMdhdWL3fdWxKLPmgJ7S.jpg", "genre_ids": [80, 18, 10770], "id": 12219, "original_language": "en", "original_title": "12 Angry Men", "overview": "During the trial of a man accused of his father's murder, a lone juror takes a stand against the guilty verdict handed down by the others as a result of their preconceptions and prejudices.", "poster_path": "/ffPbzJWPUnextP5EP7SqYl3YBMY.jpg", "release_date": "1997-08-17", "title": "12 Angry Men", "video": false, "vote_average": 7.8, "vote_count": 139, "popularity": 10.727}, {"id": 389, "video": false, "vote_count": 4265, "vote_average": 8.4, "title": "12 Angry Men", "release_date": "1957-03-25", "original_language": "en", "original_title": "12 Angry Men", "genre_ids": [18], "backdrop_path": "/lH2Ga8OzjU1XlxJ73shOlPx6cRw.jpg", "adult": false, "overview": "The defense and the prosecution have rested and the jury is filing into the jury room to decide if a young Spanish-American is guilty or innocent of murdering his father. What begins as an open and shut case soon becomes a mini-drama of each of the jurors' prejudices and preconceptions about the trial, the accused, and each other.", "poster_path": "/3W0v956XxSG5xgm7LB6qu8ExYJ2.jpg", "popularity": 22.984}, {"id": 9800, "video": false, "vote_count": 2301, "vote_average": 7.7, "title": "Philadelphia", "release_date": "1993-12-22", "original_language": "en", "original_title": "Philadelphia", "genre_ids": [18], "backdrop_path": "/eRlkgrUeaX8LsVMjqN9f6YYw9Dw.jpg", "adult": false, "overview": "Two competing lawyers join forces to sue a prestigious law firm for AIDS discrimination. As their unlikely friendship develops their courage overcomes the prejudice and corruption of their powerful adversaries.", "poster_path": "/nE9DLSKHDmfG7FvYvDW437n8txq.jpg", "popularity": 14.464}, {"id": 11881, "video": false, "vote_count": 341, "vote_average": 7.4, "title": "Miracle on 34th Street", "release_date": "1947-06-11", "original_language": "en", "original_title": "Miracle on 34th Street", "genre_ids": [35, 18, 10751], "backdrop_path": "/i90947b0zLbH1P4qjAxqiQdRfiZ.jpg", "adult": false, "overview": "Kris Kringle, seemingly the embodiment of Santa Claus, is asked to portray the jolly old fellow at Macy's following his performance in the Thanksgiving Day parade. His portrayal is so complete that many begin to question if he truly is Santa Claus, while others question his sanity.", "poster_path": "/h8kkqroLwxvAHxWGIStEZaNd4wr.jpg", "popularity": 16.027}, {"id": 390043, "video": false, "vote_count": 3453, "vote_average": 6.8, "title": "The Hitman's Bodyguard", "release_date": "2017-08-16", "original_language": "en", "original_title": "The Hitman's Bodyguard", "genre_ids": [28, 35], "backdrop_path": "/7KsqfXDECZMryX1Rv4RKsT7SIjQ.jpg", "adult": false, "overview": "The world top bodyguard gets a new client, a hit man who must testify at the International Court of Justice. They must put their differences aside and work together to make it to the trial on time.", "poster_path": "/5CGjlz2vyBhW5xHW4eNOZIdgzYq.jpg", "popularity": 28.459}, {"id": 50348, "video": false, "vote_count": 1686, "vote_average": 7.1, "title": "The Lincoln Lawyer", "release_date": "2011-03-17", "original_language": "en", "original_title": "The Lincoln Lawyer", "genre_ids": [80, 18, 53], "backdrop_path": "/zxN5XhQKDT5GwlpZo7yKxDAJMyQ.jpg", "adult": false, "overview": "A lawyer conducts business from the back of his Lincoln town car while representing a high-profile client in Beverly Hills.", "poster_path": "/gOn8Ve9Yi8fxjRkmLr5BZoOc7KV.jpg", "popularity": 19.334}, {"id": 1908, "video": false, "vote_count": 186, "vote_average": 7.9, "title": "Inherit the Wind", "release_date": "1960-06-24", "original_language": "en", "original_title": "Inherit the Wind", "genre_ids": [18, 36], "backdrop_path": "/42T54EzgmhRzJKetN62fOvk0nBZ.jpg", "adult": false, "overview": "This gripping adaptation of the Jerome Lawrence-Robert E. Lee play examines an issue that still causes great controversy\u2014the role religion should play in the schools.", "poster_path": "/kf0kih7zkHhrIfsolnW87eHohJk.jpg", "popularity": 10.839}, {"id": 37257, "video": false, "vote_count": 588, "vote_average": 8.3, "title": "Witness for the Prosecution", "release_date": "1957-12-17", "original_language": "en", "original_title": "Witness for the Prosecution", "genre_ids": [80, 18, 9648], "backdrop_path": "/kazLzEofKKr7pBcvKw6VRtFnXRJ.jpg", "adult": false, "overview": "When Leonard Vole is arrested for the sensational murder of a rich, middle-aged widow, the famous Sir Wilfrid Robarts agrees to appear on his behalf. Sir Wilfrid, recovering from a near-fatal heart attack, is supposed to be on a diet of bland, civil suits\u2014but the lure of the criminal courts is too much for him, especially when the case is so difficult.", "poster_path": "/heY0CCUqN4DY3X30thssZkvWZwx.jpg", "popularity": 11.587}, {"id": 11560, "video": false, "vote_count": 384, "vote_average": 6.2, "title": "High Crimes", "release_date": "2002-04-05", "original_language": "en", "original_title": "High Crimes", "genre_ids": [80, 18, 9648, 53], "backdrop_path": "/e2Vu095kdsSxTxjJaz5sYH3eSYF.jpg", "adult": false, "overview": "A female attorney learns that her husband is really a marine officer awol for fifteen years and accused of murdering fifteen civilians in El Salvador. Believing her husband when he tells her that he's being framed as part of a U.S. Military cover-up, the attorney defends him in a military court.", "poster_path": "/adujr0eiutryiWmK8i0DPGTrOpU.jpg", "popularity": 12.468}, {"adult": false, "backdrop_path": "/t3Oea7KbSpOvuqddMnlFtZ4WHn.jpg", "genre_ids": [18, 53, 36], "id": 314365, "original_language": "en", "original_title": "Spotlight", "overview": "In 2001, editor Marty Baron of The Boston Globe assigns a team of journalists to investigate allegations against John Geoghan, an unfrocked priest accused of molesting more than 80 boys. Led by editor Walter \"Robby\" Robinson, reporters Michael Rezendes, Matt Carroll and Sacha Pfeiffer interview victims and try to unseal sensitive documents. The reporters make it their mission to provide proof of a cover-up of sexual abuse within the Roman Catholic Church.", "poster_path": "/ngKxbvsn9Si5TYVJfi1EGAGwThU.jpg", "release_date": "2015-11-06", "title": "Spotlight", "video": false, "vote_average": 7.8, "vote_count": 5408, "popularity": 22.049}, {"adult": false, "backdrop_path": "/rW5gI8SEO1qYbXGwRANYrKtMiQB.jpg", "genre_ids": [18], "id": 413362, "original_language": "en", "original_title": "Roman J. Israel, Esq.", "overview": "Hard-nosed liberal lawyer Roman J. Israel has been fighting the good fight forever while others take the credit. When his partner \u2013 the firm\u2019s frontman \u2013 has a heart attack, Israel suddenly takes on that role. He soon discovers some unsettling truths about the firm \u2013 truths that conflict with his values of helping the poor and dispossessed \u2013 and finds himself in an existential crisis that leads to extreme actions.", "poster_path": "/epTCHVcyLkT8Aqt08Ki3PWC2sUh.jpg", "release_date": "2017-11-17", "title": "Roman J. Israel, Esq.", "video": false, "vote_average": 6.3, "vote_count": 583, "popularity": 11.775}, {"id": 1878, "video": false, "vote_count": 2623, "vote_average": 7.2, "title": "Fear and Loathing in Las Vegas", "release_date": "1998-05-22", "original_language": "en", "original_title": "Fear and Loathing in Las Vegas", "genre_ids": [12, 35, 18], "backdrop_path": "/vtEKE4OFsnuIh37oo1arOMM2ELv.jpg", "adult": false, "overview": "Raoul Duke and his attorney Dr. Gonzo drive a red convertible across the Mojave desert to Las Vegas with a suitcase full of drugs to cover a motorcycle race. As their consumption of drugs increases at an alarming rate, the stoned duo trash their hotel room and fear legal repercussions. Duke begins to drive back to L.A., but after an odd run-in with a cop, he returns to Sin City and continues his wild drug binge.", "poster_path": "/u9ffgobMADj6GCafeImbov566j9.jpg", "popularity": 24.539}, {"id": 2978, "video": false, "vote_count": 2372, "vote_average": 6.4, "title": "Ghostbusters II", "release_date": "1989-06-16", "original_language": "en", "original_title": "Ghostbusters II", "genre_ids": [35, 14], "backdrop_path": "/tDlsTDtC15kJd4vrkQkxqoW4Pse.jpg", "adult": false, "overview": "Five years after they defeated Gozer, the Ghostbusters are out of business. When Dana begins to have ghost problems again, the boys come out of retirement to aid her and hopefully save New York City from a new paranormal threat.", "poster_path": "/4nN0EYNbOWHJ9UO39maO5Kvcdfa.jpg", "popularity": 20.367}, {"id": 5559, "video": false, "vote_count": 2864, "vote_average": 5.9, "title": "Bee Movie", "release_date": "2007-10-28", "original_language": "en", "original_title": "Bee Movie", "genre_ids": [12, 16, 35, 10751], "backdrop_path": "/2lBpQZevIJdL4vPrZ7Nnm7mrVlm.jpg", "adult": false, "overview": "Barry B. Benson, a bee who has just graduated from college, is disillusioned at his lone career choice: making honey. On a special trip outside the hive, Barry's life is saved by Vanessa, a florist in New York City. As their relationship blossoms, he discovers humans actually eat honey, and subsequently decides to sue us.", "poster_path": "/QhbOzpYfBOwrRiuTu9otPk919R.jpg", "popularity": 19.912}, {"adult": false, "backdrop_path": "/uCjCNaxLyLkcwBq4aOHOeiKKwPE.jpg", "genre_ids": [35, 10749, 80, 18, 9648], "id": 171274, "original_language": "en", "original_title": "Inherent Vice", "overview": "In Los Angeles at the turn of the 1970s, drug-fueled detective Larry \"Doc\" Sportello investigates the disappearance of an ex-girlfriend.", "poster_path": "/2fCg6FORkgRLpFIKlUg4gULIn1u.jpg", "release_date": "2014-12-25", "title": "Inherent Vice", "video": false, "vote_average": 6.6, "vote_count": 1534, "popularity": 25.677}], "total_pages": 35, "total_results": 691}, "recommendations": {"page": 1, "results": [{"adult": false, "backdrop_path": "/xrxuPxpjvmiOXGrtA0lo0AIivdG.jpg", "genre_ids": [35, 80, 28], "id": 80287, "original_language": "en", "original_title": "Rent-a-Cop", "overview": "A sex worker seeks protection from an ex-cop after a failed drug bust throws their lives into turmoil.", "poster_path": "/vCRkBrTPZzBJubcUnkxUsbhL7Ro.jpg", "release_date": "1987-11-28", "title": "Rent-a-Cop", "video": false, "vote_average": 5.3, "vote_count": 14, "popularity": 4.136}, {"adult": false, "backdrop_path": "/jMdvHyGtZQiUmXonPXTh5KjKs3F.jpg", "genre_ids": [35], "id": 52736, "original_language": "en", "original_title": "Hardbodies", "overview": "Three middle-aged daddies visit California to have a marvelous time at the beach. When they learn that a nice apartment and an expensive cabriolet isn't enough for them to score with the chicks, they employ a student to help them. At first he's as disgusted of them and his job as his girlfriend, but soon they find out how to use the situation to everyone's benefit.", "poster_path": "/fHODPfElVZqVzRn3kh4W78CWTcU.jpg", "release_date": "1984-05-04", "title": "Hardbodies", "video": false, "vote_average": 5.5, "vote_count": 26, "popularity": 9.11}], "total_pages": 1, "total_results": 2}, "credits": {"cast": [{"cast_id": 3, "character": "Bobby Fine", "credit_id": "52fe490b9251416c910a0f0b", "gender": 2, "id": 31070, "name": "Ryan O'Neal", "order": 0, "profile_path": "/fTqIq5voXV1hQd3Ol4VtnUWy7j2.jpg"}, {"cast_id": 4, "character": "Jack", "credit_id": "52fe490b9251416c910a0f0f", "gender": 2, "id": 5251, "name": "Jack Warden", "order": 1, "profile_path": "/7Pfj27pVjkQIu5HS85MlGdsl7MQ.jpg"}, {"cast_id": 5, "character": "Lira", "credit_id": "52fe490b9251416c910a0f13", "gender": 1, "id": 25810, "name": "Mariangela Melato", "order": 2, "profile_path": "/skpCWeBKIU1vwOxLGuIxl5VniQK.jpg"}, {"cast_id": 6, "character": "Eddie", "credit_id": "52fe490b9251416c910a0f17", "gender": 2, "id": 10460, "name": "Richard Kiel", "order": 3, "profile_path": "/wop4KV2ywl6gdYnCUs1OthtGylM.jpg"}, {"cast_id": 7, "character": "Chairman Lincoln", "credit_id": "52fe490b9251416c910a0f1b", "gender": 2, "id": 56266, "name": "Fred Gwynne", "order": 4, "profile_path": "/xwDhOItVPzmBDfPqNMPHSSdXOMj.jpg"}, {"cast_id": 21, "character": "Sam Schlotzman", "credit_id": "58338c49c3a36833a200135c", "gender": 2, "id": 50762, "name": "Mike Kellin", "order": 5, "profile_path": "/28LFcecwpDIMVIJUdzqko87popk.jpg"}, {"cast_id": 22, "character": "Professor McCarthy", "credit_id": "58338cb2c3a36833a2001407", "gender": 0, "id": 1217143, "name": "David Rounds", "order": 6, "profile_path": null}, {"cast_id": 23, "character": "Professor Yarnell", "credit_id": "58338ccac3a36833910011da", "gender": 0, "id": 1712343, "name": "Joel Stedman", "order": 7, "profile_path": null}, {"cast_id": 24, "character": "Sylvia", "credit_id": "58338cee92514127360014e2", "gender": 2, "id": 80542, "name": "Angela Pietropinto", "order": 8, "profile_path": "/99wTebbhv3z9W7O5Rr0XlqwvOLk.jpg"}, {"cast_id": 25, "character": "Jay Augustine", "credit_id": "58338d03c3a368338d00144f", "gender": 2, "id": 13938, "name": "Michael Lombard", "order": 9, "profile_path": "/p1F2ZLOxeRHx6JJYYAfrpbwfFx6.jpg"}, {"cast_id": 26, "character": "Associate of Mr. Eddie", "credit_id": "58338d36c3a368338d0014a4", "gender": 2, "id": 21385, "name": "Tony Sirico", "order": 10, "profile_path": "/4det5Vyk78ibAG4dHXvyLAxYXlQ.jpg"}, {"cast_id": 27, "character": "Asian Man #1", "credit_id": "58d5ec229251411f90036eb1", "gender": 2, "id": 20904, "name": "James Hong", "order": 11, "profile_path": "/8k4RrDRsqkvJDePU8ciMOOx5Zso.jpg"}, {"cast_id": 28, "character": "Receptionist", "credit_id": "58d5ec2f9251411f81036a5b", "gender": 1, "id": 9782, "name": "Tyra Ferrell", "order": 12, "profile_path": "/ehrlTSktNfShujcY3SaZyJYg2On.jpg"}, {"cast_id": 29, "character": "Jim Sterling", "credit_id": "58d5ec409251411faa0358db", "gender": 2, "id": 57082, "name": "John Stockwell", "order": 13, "profile_path": "/9AQo5W5T6vP6WTcDvHx1CbbiOzU.jpg"}, {"cast_id": 30, "character": "Nun", "credit_id": "58d5ec4b9251411fd5036729", "gender": 0, "id": 101612, "name": "Hyla Marrow", "order": 14, "profile_path": null}, {"cast_id": 31, "character": "Nun", "credit_id": "58d5ec57c3a368127c034948", "gender": 1, "id": 101609, "name": "Abigail Clayton", "order": 15, "profile_path": "/uCh377XsRN9naH4PmqwtaamLMiO.jpg"}, {"cast_id": 32, "character": "So Fine Dancer", "credit_id": "58d5ec7bc3a368124f035456", "gender": 1, "id": 103582, "name": "Terri Treas", "order": 16, "profile_path": "/4wIZe29qcOruk0sktvvGIhL56LX.jpg"}], "crew": [{"credit_id": "58338a74c3a368339d0010ff", "department": "Editing", "gender": 2, "id": 853, "job": "Editor", "name": "Alan Heim", "profile_path": "/61v52Sbu2XjJcf3lxkWunEdCXW0.jpg"}, {"credit_id": "58338a81c3a368339d001111", "department": "Sound", "gender": 2, "id": 1259, "job": "Original Music Composer", "name": "Ennio Morricone", "profile_path": "/tlntfyflyEHgJTFjqIgg8P8UIx9.jpg"}, {"credit_id": "58338a9dc3a368339d00115c", "department": "Production", "gender": 2, "id": 1530, "job": "Casting", "name": "Howard Feuer", "profile_path": null}, {"credit_id": "58338acbc3a368338d001094", "department": "Art", "gender": 2, "id": 4188, "job": "Set Decoration", "name": "Leslie Bloom", "profile_path": null}, {"credit_id": "5719523a92514177100001cb", "department": "Art", "gender": 2, "id": 23966, "job": "Production Design", "name": "Santo Loquasto", "profile_path": null}, {"credit_id": "5dfd4fdb8c7b0f0018fd4412", "department": "Crew", "gender": 0, "id": 24881, "job": "Choreographer", "name": "Grover Dale", "profile_path": null}, {"credit_id": "58338a91925141272f001152", "department": "Production", "gender": 2, "id": 31143, "job": "Producer", "name": "Mike Lobell", "profile_path": null}, {"credit_id": "52fe490b9251416c910a0f01", "department": "Writing", "gender": 2, "id": 41550, "job": "Screenplay", "name": "Andrew Bergman", "profile_path": "/gTx35MhqW8MlGv7JlYnCJQClebi.jpg"}, {"credit_id": "52fe490b9251416c910a0f07", "department": "Directing", "gender": 2, "id": 41550, "job": "Director", "name": "Andrew Bergman", "profile_path": "/gTx35MhqW8MlGv7JlYnCJQClebi.jpg"}, {"credit_id": "58338a179251412733001083", "department": "Camera", "gender": 2, "id": 104876, "job": "Director of Photography", "name": "James A. Contner", "profile_path": null}, {"credit_id": "58338bbac3a368338d00123a", "department": "Sound", "gender": 2, "id": 110274, "job": "Supervising Sound Editor", "name": "Michael Colgan", "profile_path": null}, {"credit_id": "58338b26925141273f0011dc", "department": "Camera", "gender": 1, "id": 589974, "job": "Still Photographer", "name": "Lorey Sebastian", "profile_path": null}, {"credit_id": "58338b6f9251412736001279", "department": "Crew", "gender": 0, "id": 1437861, "job": "Stunt Coordinator", "name": "Cliff Cudney", "profile_path": null}, {"credit_id": "58338b17925141272f001216", "department": "Directing", "gender": 1, "id": 1459591, "job": "Script Supervisor", "name": "Kay Chapin", "profile_path": null}, {"credit_id": "58338b89c3a36833a2001226", "department": "Sound", "gender": 0, "id": 1562587, "job": "Sound Mixer", "name": "Les Lazarowitz", "profile_path": null}, {"credit_id": "58338c0f925141273c001481", "department": "Sound", "gender": 0, "id": 1712341, "job": "Boom Operator", "name": "Vito L. Ilardi", "profile_path": null}]}}