{"adult": false, "backdrop_path": "/vfyF86BxADxuDjAA7NKYTc5ZfwE.jpg", "belongs_to_collection": null, "budget": 0, "genres": [{"id": 18, "name": "Drama"}, {"id": 27, "name": "Horror"}], "homepage": null, "id": 85032, "imdb_id": "tt1842532", "original_language": "ja", "original_title": "Kotoko", "overview": "A single mother (Cocco) becomes afflicted with double vision. Taking care of her newborn baby becomes a nightmare as the mother also becomes paranoid. The only time the mother doesn't see double is when she sings. She also finds solace in cutting herself, allowing her blood to drip free and able to feel alive. A terrifying nervous breakdown ensues. When things spiral out of control, her baby is taken away. She then rides a bus and sings to herself. A man (Shinya Tsukamoto) sitting nearby listens to her wonderful voice. He begins to stalk her. The man is an award winning novelist who has fallen in love with the woman. They begin a volatile relationship. The woman's paranoia a", "popularity": 4.394, "poster_path": "/c0oZUpUVJ3sMBbeyPqShaCdgQ1T.jpg", "production_companies": [{"id": 6853, "logo_path": null, "name": "Kaijyu Theater", "origin_country": ""}], "production_countries": [{"iso_3166_1": "JP", "name": "Japan"}], "release_date": "2011-11-26", "revenue": 0, "runtime": 91, "spoken_languages": [{"iso_639_1": "ja", "name": "\u65e5\u672c\u8a9e"}], "status": "Released", "tagline": "", "title": "Kotoko", "video": false, "vote_average": 7.1, "vote_count": 30, "keywords": {"keywords": [{"id": 14768, "name": "single mother"}, {"id": 41329, "name": "mental illness"}]}, "similar": {"page": 1, "results": [{"adult": false, "backdrop_path": "/z3s3TdRvEWC1TFrwtk0qhB7OdHh.jpg", "genre_ids": [27, 53], "id": 12662, "original_language": "en", "original_title": "Psycho III", "overview": "Norman Bates is still running his little motel, and he has kept the dressed skeleton he calls 'mother'. One day a nosey journalist comes to see him to ask questions about his past.", "poster_path": "/etiLhEebRnFExeb70COwqqeO8Kd.jpg", "release_date": "1986-04-02", "title": "Psycho III", "video": false, "vote_average": 5.6, "vote_count": 173, "popularity": 9.895}, {"id": 11602, "video": false, "vote_count": 214, "vote_average": 7.9, "title": "Through a Glass Darkly", "release_date": "1961-06-06", "original_language": "sv", "original_title": "S\u00e5som i en spegel", "genre_ids": [18], "backdrop_path": "/6xnzVL0pMdeIwjQKl348GLAQ268.jpg", "adult": false, "overview": "Karin hopes to recover from her recent stay at a mental hospital by spending the summer at her family's cottage on a tiny island. Her husband, Martin, cares for her but is frustrated by her physical withdrawal. Her younger brother, Minus, is confused by Karin's vulnerability and his own budding sexuality. Their father, David, cannot overcome his haughty remoteness. Beset by visions, Karin descends further into madness.", "poster_path": "/rYD30Fm4vAcBqk1kTsxHw1s8P29.jpg", "popularity": 8.985}, {"id": 421471, "video": false, "vote_count": 113, "vote_average": 6.5, "title": "Flower", "release_date": "2018-03-16", "original_language": "en", "original_title": "Flower", "genre_ids": [35, 18], "backdrop_path": "/ukMiXNB7rQ4zeVAL89CK0GnfOzU.jpg", "adult": false, "overview": "Rebellious, quick-witted Erica Vandross is a 17-year-old firecracker living with her single mom, Laurie, and her mom's new boyfriend, Bob, in L.A.'s San Fernando Valley. When Bob's mentally unbalanced son, Luke, arrives from rehab to live with the family, Erica finds her domestic and personal life overwhelmed. With Luke and her sidekicks Kala and Claudine in tow, Erica acts out by exposing a high school teacher's dark secret.", "poster_path": "/xYTI11qFnmx39LRhDOsGEabfqtp.jpg", "popularity": 7.491}, {"adult": false, "backdrop_path": "/i1DPN19CK8rTkwyMS9iy4D9iRAO.jpg", "genre_ids": [18], "id": 157851, "original_language": "en", "original_title": "Maps to the Stars", "overview": "Driven by an intense need for fame and validation, members of a dysfunctional Hollywood family are chasing celebrity, one another and the relentless ghosts of their pasts.", "poster_path": "/ciIFIMR78V9BMfLEylJGSwnlwm.jpg", "release_date": "2014-05-21", "title": "Maps to the Stars", "video": false, "vote_average": 6.1, "vote_count": 668, "popularity": 10.318}, {"adult": false, "backdrop_path": "/9PwUQZDHGPKsgbnoBl1Ah9zXWjk.jpg", "genre_ids": [18, 10749], "id": 453, "original_language": "en", "original_title": "A Beautiful Mind", "overview": "John Nash is a brilliant but asocial mathematician fighting schizophrenia. After he accepts secret work in cryptography, his life takes a turn for the nightmarish.", "poster_path": "/4SFqHDZ1NvWdysucWbgnYlobdxC.jpg", "release_date": "2001-12-11", "title": "A Beautiful Mind", "video": false, "vote_average": 7.8, "vote_count": 6096, "popularity": 20.049}, {"id": 11881, "video": false, "vote_count": 342, "vote_average": 7.4, "title": "Miracle on 34th Street", "release_date": "1947-06-11", "original_language": "en", "original_title": "Miracle on 34th Street", "genre_ids": [35, 18, 10751], "backdrop_path": "/i90947b0zLbH1P4qjAxqiQdRfiZ.jpg", "adult": false, "overview": "Kris Kringle, seemingly the embodiment of Santa Claus, is asked to portray the jolly old fellow at Macy's following his performance in the Thanksgiving Day parade. His portrayal is so complete that many begin to question if he truly is Santa Claus, while others question his sanity.", "poster_path": "/h8kkqroLwxvAHxWGIStEZaNd4wr.jpg", "popularity": 18.855}, {"adult": false, "backdrop_path": "/siRoJI12l4SbWye3wpIotM8OslV.jpg", "genre_ids": [18, 53], "id": 293768, "original_language": "en", "original_title": "Kidnap", "overview": "A mother (in her Minivan) stops at nothing to recover her kidnapped son.", "poster_path": "/fwdOX3PEZlOLXr9SMpgRnSmTVFp.jpg", "release_date": "2017-06-16", "title": "Kidnap", "video": false, "vote_average": 6.1, "vote_count": 846, "popularity": 21.554}, {"id": 381288, "video": false, "vote_count": 11449, "vote_average": 7.3, "title": "Split", "release_date": "2017-01-19", "original_language": "en", "original_title": "Split", "genre_ids": [27, 53], "backdrop_path": "/9pkZesKMnblFfKxEhQx45YQ2kIe.jpg", "adult": false, "overview": "Though Kevin has evidenced 23 personalities to his trusted psychiatrist, Dr. Fletcher, there remains one still submerged who is set to materialize and dominate all the others. Compelled to abduct three teenage girls led by the willful, observant Casey, Kevin reaches a war for survival among all of those contained within him \u2014 as well as everyone around him \u2014 as the walls between his compartments shatter apart.", "poster_path": "/rXMWOZiCt6eMX22jWuTOSdQ98bY.jpg", "popularity": 39.624}, {"id": 450465, "video": false, "vote_count": 4473, "vote_average": 6.5, "title": "Glass", "release_date": "2019-01-16", "original_language": "en", "original_title": "Glass", "genre_ids": [18, 878, 53], "backdrop_path": "/ngBFDOsx13sFXiMweDoL54XYknR.jpg", "adult": false, "overview": "In a series of escalating encounters, former security guard David Dunn uses his supernatural abilities to track Kevin Wendell Crumb, a disturbed man who has twenty-four personalities. Meanwhile, the shadowy presence of Elijah Price emerges as an orchestrator who holds secrets critical to both men.", "poster_path": "/svIDTNUoajS8dLEo7EosxvyAsgJ.jpg", "popularity": 44.676}, {"id": 8204, "video": false, "vote_count": 1537, "vote_average": 6.5, "title": "The Spiderwick Chronicles", "release_date": "2008-02-14", "original_language": "en", "original_title": "The Spiderwick Chronicles", "genre_ids": [12, 18, 14, 10751], "backdrop_path": "/2Uwv3eUDRJ9UcjN8AlSg4GDm6TN.jpg", "adult": false, "overview": "Upon moving into the run-down Spiderwick Estate with their mother, twin brothers Jared and Simon Grace, along with their sister Mallory, find themselves pulled into an alternate world full of faeries and other creatures.", "poster_path": "/nSLjsBDzwsIpQL534CNfAKidyAm.jpg", "popularity": 13.069}, {"id": 44214, "video": false, "vote_count": 9192, "vote_average": 7.6, "title": "Black Swan", "release_date": "2010-12-03", "original_language": "en", "original_title": "Black Swan", "genre_ids": [18, 27, 53], "backdrop_path": "/t8jFs6cOl1YVSfXXZivWtEb14tF.jpg", "adult": false, "overview": "A journey through the psyche of a young ballerina whose starring role as the duplicitous swan queen turns out to be a part for which she becomes frighteningly perfect.", "poster_path": "/dQ7uxvsVTspVIsqjfgQj8usJpwX.jpg", "popularity": 24.558}, {"adult": false, "backdrop_path": "/8VyW7cJxsdnIfptbPjGCIX1StUe.jpg", "genre_ids": [10749, 18], "id": 1587, "original_language": "en", "original_title": "What's Eating Gilbert Grape", "overview": "Gilbert Grape is a small-town young man with a lot of responsibility. Chief among his concerns are his mother, who is so overweight that she can't leave the house, and his mentally impaired younger brother, Arnie, who has a knack for finding trouble. Settled into a job at a grocery store and an ongoing affair with local woman Betty Carver, Gilbert finally has his life shaken up by the free-spirited Becky.", "poster_path": "/jQLoOPwNxyILwDbdhn9DsfQz0Sg.jpg", "release_date": "1993-12-17", "title": "What's Eating Gilbert Grape", "video": false, "vote_average": 7.7, "vote_count": 2113, "popularity": 20.762}, {"adult": false, "backdrop_path": "/slpgZisYNapLoN9FWXqDOC1ExbU.jpg", "genre_ids": [27, 9648, 53], "id": 259693, "original_language": "en", "original_title": "The Conjuring 2", "overview": "Lorraine and Ed Warren travel to north London to help a single mother raising four children alone in a house plagued by malicious spirits.", "poster_path": "/7GUzvvrb6hbOWl8l8YkaS4fgTDT.jpg", "release_date": "2016-05-13", "title": "The Conjuring 2", "video": false, "vote_average": 7.2, "vote_count": 4651, "popularity": 26.258}, {"id": 745, "video": false, "vote_count": 6957, "vote_average": 7.9, "title": "The Sixth Sense", "release_date": "1999-08-06", "original_language": "en", "original_title": "The Sixth Sense", "genre_ids": [18, 9648, 53], "backdrop_path": "/1X6F9OvfaWl6AGcCdqYl8icxG9z.jpg", "adult": false, "overview": "A psychological thriller about an eight year old boy named Cole Sear who believes he can see into the world of the dead. A child psychologist named Malcolm Crowe comes to Cole to help him deal with his problem, learning that he really can see ghosts of dead people.", "poster_path": "/imps263dHNe3SuoaAJORZyNTdDT.jpg", "popularity": 24.961}, {"id": 298312, "video": false, "vote_count": 2924, "vote_average": 6.2, "title": "The Visit", "release_date": "2015-09-10", "original_language": "en", "original_title": "The Visit", "genre_ids": [27, 9648, 53], "backdrop_path": "/gbJlEeALVGo7kx8bC2q4EFWX1Xy.jpg", "adult": false, "overview": "The terrifying story of a brother and sister who are sent to their grandparents' remote Pennsylvania farm for a weeklong trip. Once the children discover that the elderly couple is involved in something deeply disturbing, they see their chances of getting back home are growing smaller every day.", "poster_path": "/32tNtTEQ1vIOLm1hEOSFkVwJT5D.jpg", "popularity": 24.632}, {"id": 475557, "video": false, "vote_count": 8109, "vote_average": 8.3, "title": "Joker", "release_date": "2019-10-02", "original_language": "en", "original_title": "Joker", "genre_ids": [80, 18, 53], "backdrop_path": "/n6bUvigpRFqSwmPp1m2YADdbRBc.jpg", "adult": false, "overview": "During the 1980s, a failed stand-up comedian is driven insane and turns to a life of crime and chaos in Gotham City while becoming an infamous psychopathic crime figure.", "poster_path": "/udDclJoHjfjb8Ekgsd4FDteOkCU.jpg", "popularity": 231.13}, {"id": 1018, "video": false, "vote_count": 3312, "vote_average": 7.8, "title": "Mulholland Drive", "release_date": "2001-09-08", "original_language": "en", "original_title": "Mulholland Drive", "genre_ids": [18, 9648, 53], "backdrop_path": "/91KNvuQXrWq5vehtQpciCOiOyJe.jpg", "adult": false, "overview": "Blonde Betty Elms has only just arrived in Hollywood to become a movie star when she meets an enigmatic brunette with amnesia. Meanwhile, as the two set off to solve the second woman's identity, filmmaker Adam Kesher runs into ominous trouble while casting his latest project.", "poster_path": "/tVxGt7uffLVhIIcwuldXOMpFBPX.jpg", "popularity": 22.494}, {"adult": false, "backdrop_path": "/6SzDcMSnED0PXvg6dfzkNvkeCwr.jpg", "genre_ids": [18, 35, 10749], "id": 82693, "original_language": "en", "original_title": "Silver Linings Playbook", "overview": "After spending eight months in a mental institution, a former teacher moves back in with his parents and tries to reconcile with his ex-wife.", "poster_path": "/ilrZAV2klTB0FLxLb01bOp5pzD9.jpg", "release_date": "2012-09-08", "title": "Silver Linings Playbook", "video": false, "vote_average": 7.1, "vote_count": 8270, "popularity": 22.316}, {"id": 515001, "video": false, "vote_count": 576, "vote_average": 8.1, "title": "Jojo Rabbit", "release_date": "2019-10-18", "original_language": "en", "original_title": "Jojo Rabbit", "genre_ids": [35, 18, 10752], "backdrop_path": "/agoBZfL1q5G79SD0npArSlJn8BH.jpg", "adult": false, "overview": "A World War II satire that follows a lonely German boy whose world view is turned upside down when he discovers his single mother is hiding a young Jewish girl in their attic. Aided only by his idiotic imaginary friend, Adolf Hitler, Jojo must confront his blind nationalism.", "poster_path": "/7GsM4mtM0worCtIVeiQt28HieeN.jpg", "popularity": 81.75}, {"adult": false, "backdrop_path": "/5UhVmv70qTfy7YSf8r87kNXWxjK.jpg", "genre_ids": [18, 53, 9648], "id": 638, "original_language": "en", "original_title": "Lost Highway", "overview": "A tormented jazz musician finds himself lost in an enigmatic story involving murder, surveillance, gangsters, doppelgangers, and an impossible transformation inside a prison cell.", "poster_path": "/z6yhgEzGUJaBBgAxoyggRzwLnVM.jpg", "release_date": "1997-01-15", "title": "Lost Highway", "video": false, "vote_average": 7.6, "vote_count": 1279, "popularity": 17.633}], "total_pages": 23, "total_results": 442}, "recommendations": {"page": 1, "results": [{"adult": false, "backdrop_path": null, "genre_ids": [27], "id": 71057, "original_language": "ja", "original_title": "Eko Eko Azaraku", "overview": "Misa Kuroi is an adorable high-school girl who arrives at her new school when it is falling under an evil supernatural force. Trying to figure out who's behind the supernatural attack, Misa also has to deal with assumptions by her fellow classmates that believe she is the one behind it all. Misa and twelve other students are kept late after school hours one day to retake an exam. Then, after sunset, the entire school is deserted, and the students find themselves trapped inside and their teacher no where to be found. One by one, the thirteen students are picked up and disposed of in horrific and graphic fashion. It is up to Misa to try and gain the trust of her fellow students so that she can protect them and stop the evil before it's too late.", "poster_path": "/qamkPZw7u86jP5zEr4MK6Z7U5tP.jpg", "release_date": "1995-04-08", "title": "Eko Eko Azarak: Wizard of Darkness", "video": false, "vote_average": 5.2, "vote_count": 9, "popularity": 2.092}, {"adult": false, "backdrop_path": "/eLkOQ8VdQ0oyo8pzsT6CTb7uFdW.jpg", "genre_ids": [18], "id": 134769, "original_language": "zh", "original_title": "\u6d88\u5931\u6253\u770b", "overview": "A woman searches for her boyfriend who disappeared on New Year's day. She goes through his website he created missing.com/ing and encounters others along the way...", "poster_path": "/3aYvzCD2bNKBJRs5J6Il9w4s9dY.jpg", "release_date": "2011-04-29", "title": "Honey Pupu", "video": false, "vote_average": 5.3, "vote_count": 3, "popularity": 1.118}, {"adult": false, "backdrop_path": "/afhwKagnAYLk0W8gx5grXaKec4t.jpg", "genre_ids": [878, 28], "id": 83297, "original_language": "ja", "original_title": "\u72c2\u3044\u54b2\u304d\u30b5\u30f3\u30c0\u30fc\u30ed\u30fc\u30c9", "overview": "Visions of a bleak, post-apocalyptic urban wasteland strewn with twisted hunks of mechanical wreckage. A rasping electronic buzz on the soundtrack. These impressions kick-start into a jarring, rapid-fire sequence of chrome, neon and showers of sparks alongside the howl of roaring motors, as boys in black leather with Be-Bop High School quiffs ride menacingly out into the night in the theatrical debut from arguably the most important director to emerge from Japan during the 80s.  Completed by former punk musician Ishii for his film course graduation from Japan University in Tokyo, this raw-edged biker flick is a tour-de-force of automotive auto-eroticism. Originally shot on 16mm, Toei were so impressed by this violent counter-cultural kick-back against the anodyne fluff that typified early 80s cinema that they blew it up to 35mm for theatrical distribution.", "poster_path": "/pvreV9mywej4GBrp7mLcLZVejvL.jpg", "release_date": "1980-05-24", "title": "Crazy Thunder Road", "video": false, "vote_average": 6.5, "vote_count": 7, "popularity": 0.982}, {"adult": false, "backdrop_path": "/2pStNWQ3UeOktBMFziuirEHOA1c.jpg", "genre_ids": [18], "id": 125858, "original_language": "ja", "original_title": "Tokyo.sora", "overview": "Six women attempt to make it in current day Tokyo, living their everyday lives the best and worst they can. For them, every little moment becomes a ritual of the ordinary and the exciting, a balancing act for their dreams and hopes as the days perpetually tug on their heartstrings.", "poster_path": "/hVTGIJYk8znyhBLb7Hy7lMnEAsC.jpg", "release_date": "2002-10-26", "title": "Tokyo.sora", "video": false, "vote_average": 7.0, "vote_count": 7, "popularity": 1.96}, {"adult": false, "backdrop_path": "/jZwxSyjOQW9DM2ENmVM2thnfv6y.jpg", "genre_ids": [10749, 18], "id": 108646, "original_language": "zh", "original_title": "\u6cb3\u8c5a", "overview": "A woman leaves her cheating boyfriend and goes to a remote village in the Taiwaneese mountains to deliver a blowfish to a man who won it on an online auction. Immediately, a quiet and unusual relationship develops between the two.", "poster_path": "/vnHVu2Aylc89baDfN9DV7dLe5SF.jpg", "release_date": "2011-08-05", "title": "Blowfish", "video": false, "vote_average": 7.3, "vote_count": 3, "popularity": 1.802}, {"adult": false, "backdrop_path": "/mR5FREtw4dNety1aLQvPxzgt1ru.jpg", "genre_ids": [], "id": 126202, "original_language": "en", "original_title": "Untitled (For Marilyn)", "overview": "The film is officially untitled, but is referred to by the dedication that appears in place of a title card. It is dedicated to Marilyn Brakhage, the filmmaker's wife. Out of all the 350+ films that Stan Brakhage made, this was his personal favorite.", "poster_path": "/s6TXI7E7BhT4CN9k869j8t87K9w.jpg", "release_date": "1992-01-01", "title": "Untitled (For Marilyn)", "video": false, "vote_average": 5.1, "vote_count": 11, "popularity": 3.898}, {"adult": false, "backdrop_path": "/bJGCqVDsiLaVyzQ2voC63xXv4In.jpg", "genre_ids": [18, 28, 80], "id": 90351, "original_language": "ja", "original_title": "\u535a\u5f92\u5916\u4eba\u90e8\u968a", "overview": "A yakuza gang gets driven out of Yokohama by a big gang from Tokyo. They relocate to Okinawa to violently start over.", "poster_path": "/rMVleF0KfWxnGEPVcBSmteBTt1E.jpg", "release_date": "1971-01-12", "title": "Sympathy for the Underdog", "video": false, "vote_average": 6.9, "vote_count": 15, "popularity": 2.919}, {"adult": false, "backdrop_path": "/9KORzPOEOmw5BbyEMBwhPBkLsq9.jpg", "genre_ids": [28, 35, 18], "id": 93096, "original_language": "ja", "original_title": "\u30b9\u30de\u30b0\u30e9\u30fc\u3000\u304a\u307e\u3048\u306e\u672a\u6765\u3092\u904b\u3079", "overview": "To pay off his loan shark, failed actor Kinuta is forced to smuggle dead bodies -- and one live elite assassin -- in the middle of the night.", "poster_path": "/e9Pzzn0GXaQw6pyhnTyOKDufsF2.jpg", "release_date": "2011-10-22", "title": "Smuggler", "video": false, "vote_average": 6.7, "vote_count": 11, "popularity": 1.712}, {"adult": false, "backdrop_path": "/6Z0O90U6lLDcISlrkvcNT0G88ME.jpg", "genre_ids": [27], "id": 86569, "original_language": "en", "original_title": "Cannibal", "overview": "Max is agoraphobic and lives in a cabin in the middle of nowhere. One night, he finds a beautiful unconscious woman (Bianca). Her body is covered with blood.", "poster_path": "/b9karlT8IGIDiAr8HhcxeJ3bmz.jpg", "release_date": "2010-10-01", "title": "Cannibal", "video": false, "vote_average": 4.7, "vote_count": 6, "popularity": 1.319}, {"adult": false, "backdrop_path": null, "genre_ids": [18], "id": 79860, "original_language": "ja", "original_title": "\u93e1\u5fc3", "overview": "An actress suffers an identity crisis when she finds herself spirited away from the bustle of Tokyo to a tropical paradise. A visually stunning ode to the need for a spiritual and tranquil life.", "poster_path": "/4dLGkyXTkDfiejzhDnGQlFxZq0H.jpg", "release_date": "2005-03-30", "title": "Mirrored Mind", "video": false, "vote_average": 6.5, "vote_count": 6, "popularity": 1.44}, {"adult": false, "backdrop_path": "/1w8oTrWwfXt6CTJx3KqieaAOu35.jpg", "genre_ids": [18], "id": 8935, "original_language": "zh", "original_title": "\u505c\u8eca", "overview": "On Mother's Day in Taipei, Chen Mo makes a date for dinner with his wife, hoping to bring their estranged relationship back together. While buying a cake on his way home, a car unexpectedly double parks next to his car, preventing his exit.", "poster_path": "/7MJ563aC95ipvDNISsjBMARCi94.jpg", "release_date": "2008-05-23", "title": "Parking", "video": false, "vote_average": 7.3, "vote_count": 8, "popularity": 2.353}, {"id": 27671, "video": false, "vote_count": 7, "vote_average": 4.0, "title": "Pop Skull", "release_date": "2007-07-06", "original_language": "en", "original_title": "Pop Skull", "genre_ids": [27, 53], "backdrop_path": null, "adult": false, "overview": "Addled prescription drug addict Daniel finds himself unraveling further under the stress of a recent breakup. Worse yet, he lives in a house haunted by nightmarish events from the past, images of which torment him in terrifying dreams. This hallucinatory horror film leaps off the screen with its disturbingly vivid visuals.", "poster_path": "/t3pksjsHJAherUhrVO6mSkIcJtZ.jpg", "popularity": 2.769}, {"adult": false, "backdrop_path": "/9E5FQq2S9szZEfz4MHsjbomR5PF.jpg", "genre_ids": [28, 80], "id": 262650, "original_language": "ja", "original_title": "\u65b0\u5bbf\u30b9\u30ef\u30f3", "overview": "Shiratori Tatsuhiko works as a scout for Burst, a talent agency in Kabukich\u014d, Shinjuku's red light district. In a business where money means everything Tatsuhiko finds himself in a constant struggle between rival talent scouts and the yakuza.", "poster_path": "/qSR4oiGCAfnRTDnKYHvpPObwbGD.jpg", "release_date": "2015-05-30", "title": "Shinjuku Swan", "video": false, "vote_average": 5.9, "vote_count": 7, "popularity": 4.299}, {"id": 212839, "video": false, "vote_count": 12, "vote_average": 6.5, "title": "Soul", "release_date": "2013-08-30", "original_language": "zh", "original_title": "\u5931\u9b42", "genre_ids": [80, 18, 27, 53], "backdrop_path": "/3qThtaCKvqOH9w2uV3ZdaumHqyr.jpg", "adult": false, "overview": "A-Chuan, a quiet 30-year-old man working as a chef in a Japanese restaurant, collapses suddenly and is rushed to a hospital. His colleagues send him to his father, who resides in the mountains. While there, A-Chuan becomes immobile: he won\u2019t speak, eat or even go to the toilet on his own. One day his father returns from work only to find A-Chuan sitting in the corner with his daughter lying dead in a pool of blood. In an unfamiliar, eerily calm voice, A-Chuan says, \u201cI saw this body was empty, so I moved in.", "poster_path": "/82h7mIhBGB0XhT675mYzW47OG08.jpg", "popularity": 2.14}, {"adult": false, "backdrop_path": "/eUsGtdIwoP1GMQM0T1YrxpOziIi.jpg", "genre_ids": [18, 80], "id": 70193, "original_language": "ja", "original_title": "HAZARD", "overview": "Shin is a Japanese university student living a boring and meaningless life. One day, he spots a book titled Dangerous Ways to Walk the World, in which he finds a page written about hazards in New-York. Eager to get out, he jets off to New-York to find this inspiration.", "poster_path": "/tzZGfAHp30nQo5dxDsrPSvRorJf.jpg", "release_date": "2005-11-05", "title": "Hazard", "video": false, "vote_average": 7.1, "vote_count": 9, "popularity": 2.381}, {"adult": false, "backdrop_path": "/7uazC33e4WqjbYfFP4TZjgnT7PF.jpg", "genre_ids": [10752], "id": 283710, "original_language": "ja", "original_title": "\u91ce\u706b", "overview": "In the final days of World War II, occupying Japanese forces in the Philippines face resistance from the local population and the American offensive. The dwindling Japanese soldiers attempt to survive through the horrors of war.", "poster_path": "/JnLPMBZTg8tCpt5F54bNlLiwZA.jpg", "release_date": "2014-08-30", "title": "Fires on the Plain", "video": false, "vote_average": 6.1, "vote_count": 12, "popularity": 3.354}, {"adult": false, "backdrop_path": "/kHvF91IhYdVCawOnV2N3ZD9kSO2.jpg", "genre_ids": [], "id": 174737, "original_language": "zh", "original_title": "Ghost on Air", "overview": "DJ is haunted by the very stories he is telling will he find the truth before the haunting before it is too late?", "poster_path": "/m8zmuRPylsYZl5wrCabVV3vh0DQ.jpg", "release_date": "2012-05-17", "title": "Ghost on Air", "video": false, "vote_average": 4.6, "vote_count": 5, "popularity": 0.84}, {"adult": false, "backdrop_path": "/z3JtW0Z1gmTYhjwiEBnm7DPGDQA.jpg", "genre_ids": [35, 18], "id": 25659, "original_language": "ja", "original_title": "Zenzen daijobu", "overview": "Two listless brothers fall for the same girl.", "poster_path": "/qwRKBvGI256NHGTFNecfqYlbAyI.jpg", "release_date": "2008-01-26", "title": "Fine, Totally Fine", "video": false, "vote_average": 6.5, "vote_count": 10, "popularity": 2.03}, {"adult": false, "backdrop_path": null, "genre_ids": [18], "id": 148040, "original_language": "en", "original_title": "Blue Moses", "overview": "A meat enigma spoken in eternal language of director, con man, and magician. It\u2019s about the sham flesh that men create to dam the streaming of truth from their muscles and senses\u2026 a molecule of revelation in the shape of drama thrown off by the artist between Anticipation and Dog Star Man.", "poster_path": "/ytNyOcxZ2nR9tmE0E14TvIkwBcD.jpg", "release_date": "1962-12-31", "title": "Blue Moses", "video": false, "vote_average": 4.9, "vote_count": 10, "popularity": 2.111}, {"adult": false, "backdrop_path": "/ezC8I9xp3txMMHI4imQXeSlJPNU.jpg", "genre_ids": [18, 28], "id": 34216, "original_language": "zh", "original_title": "\u6230\u00b7\u9f13", "overview": "When Sid insults a powerful triad boss, his father sends him to Taiwan for safety. Bored and restless, he discovers a community of Zen drummers high in the hills, and joins up - a decision inspired by a pretty face that soon becomes a challenge.", "poster_path": "/p98BrdNHdh4OyD3bQuVSqc1nL0g.jpg", "release_date": "2007-08-09", "title": "The Drummer", "video": false, "vote_average": 7.1, "vote_count": 7, "popularity": 2.336}], "total_pages": 2, "total_results": 40}, "credits": {"cast": [{"cast_id": 1007, "character": "Seitaro Tanaka", "credit_id": "52fe49209251416c910a3805", "gender": 2, "id": 58608, "name": "Shinya Tsukamoto", "order": 0, "profile_path": "/bl8guH7tvIg4fOiNZFweBjb93Ik.jpg"}, {"cast_id": 1008, "character": "Kotoko", "credit_id": "52fe49209251416c910a3809", "gender": 1, "id": 132942, "name": "Cocco", "order": 1, "profile_path": "/3uENwGIoFPf60WwZ9a4Zcvyv55F.jpg"}, {"cast_id": 1010, "character": "", "credit_id": "553a3dfd9251413f5a003b61", "gender": 1, "id": 237168, "name": "Yuko Nakamura", "order": 2, "profile_path": "/bEX2MMTquCpyOtQ5M11xEKKN9Sz.jpg"}], "crew": [{"credit_id": "52fe49209251416c910a37fb", "department": "Directing", "gender": 2, "id": 58608, "job": "Director", "name": "Shinya Tsukamoto", "profile_path": "/bl8guH7tvIg4fOiNZFweBjb93Ik.jpg"}, {"credit_id": "5b2bfa8592514164ed007e43", "department": "Editing", "gender": 2, "id": 58608, "job": "Editor", "name": "Shinya Tsukamoto", "profile_path": "/bl8guH7tvIg4fOiNZFweBjb93Ik.jpg"}, {"credit_id": "52fe49209251416c910a380f", "department": "Production", "gender": 2, "id": 58608, "job": "Producer", "name": "Shinya Tsukamoto", "profile_path": "/bl8guH7tvIg4fOiNZFweBjb93Ik.jpg"}, {"credit_id": "52fe49209251416c910a3801", "department": "Writing", "gender": 2, "id": 58608, "job": "Writer", "name": "Shinya Tsukamoto", "profile_path": "/bl8guH7tvIg4fOiNZFweBjb93Ik.jpg"}, {"credit_id": "5b2bfaac925141651a008cbb", "department": "Crew", "gender": 2, "id": 58608, "job": "Cinematography", "name": "Shinya Tsukamoto", "profile_path": "/bl8guH7tvIg4fOiNZFweBjb93Ik.jpg"}, {"credit_id": "5be91dee0e0a263c0a039d98", "department": "Sound", "gender": 1, "id": 132942, "job": "Original Music Composer", "name": "Cocco", "profile_path": "/3uENwGIoFPf60WwZ9a4Zcvyv55F.jpg"}, {"credit_id": "59f5be31c3a3682fd501173a", "department": "Writing", "gender": 1, "id": 132942, "job": "Writer", "name": "Cocco", "profile_path": "/3uENwGIoFPf60WwZ9a4Zcvyv55F.jpg"}, {"credit_id": "5be91db30e0a263bf803a139", "department": "Crew", "gender": 0, "id": 237185, "job": "Cinematography", "name": "Satoshi Hayashi", "profile_path": null}, {"credit_id": "5be91e0d92514143ea038803", "department": "Sound", "gender": 0, "id": 2026796, "job": "Sound Designer", "name": "Masaya Kitada", "profile_path": null}]}}