{"adult": false, "backdrop_path": "/9gg71VxnkUjznSu1OshjRV2Z75H.jpg", "belongs_to_collection": null, "budget": 0, "genres": [{"id": 18, "name": "Drama"}], "homepage": null, "id": 85340, "imdb_id": "tt2023473", "original_language": "sv", "original_title": "En enkel till Antibes", "overview": "When George (Sven-Bertil Taube), a half-blind widower, learns that his children (Malin Morgan, Dan Ekborg) have conceived an elaborate plan to get their hands on his assets before he dies, he must confront his life choices. After catching his young home help Maria (Rebecca Ferguson's screen debut) red-handed in the act of stealing, George blackmails her into assisting him in a counterattack, triggering off a chain reaction in the family. George's children discover that he has a secret mistress in France.", "popularity": 1.041, "poster_path": "/l4aEsAjAKQC1fgBscp2DJD0d07s.jpg", "production_companies": [], "production_countries": [{"iso_3166_1": "SE", "name": "Sweden"}], "release_date": "2011-09-30", "revenue": 0, "runtime": 105, "spoken_languages": [{"iso_639_1": "sv", "name": "svenska"}], "status": "Released", "tagline": "", "title": "A One-Way Trip to Antibes", "video": false, "vote_average": 6.3, "vote_count": 3, "keywords": {"keywords": [{"id": 1227, "name": "cemetery"}, {"id": 12434, "name": "undertaker"}]}, "similar": {"page": 1, "results": [{"id": 1092, "video": false, "vote_count": 891, "vote_average": 8.0, "title": "The Third Man", "release_date": "1949-08-31", "original_language": "en", "original_title": "The Third Man", "genre_ids": [9648, 53], "backdrop_path": "/lrIuSWdC1LfKJZUnBX6axJxzZGe.jpg", "adult": false, "overview": "In postwar Vienna, Austria, Holly Martins, a writer of pulp Westerns, arrives penniless as a guest of his childhood chum Harry Lime, only to learn he has died. Martins develops a conspiracy theory after learning of a \"third man\" present at the time of Harry's death, running into interference from British officer Major Calloway, and falling head-over-heels for Harry's grief-stricken lover, Anna.", "poster_path": "/rO2Fq0AZZx9obs52KJdx4mRE8p5.jpg", "popularity": 14.387}, {"id": 458594, "video": false, "vote_count": 983, "vote_average": 6.5, "title": "Peppermint", "release_date": "2018-09-06", "original_language": "en", "original_title": "Peppermint", "genre_ids": [28, 53], "backdrop_path": "/9krZX6T4EEs5eFpXgSi8jZkN48O.jpg", "adult": false, "overview": "A grieving mother transforms herself into a vigilante following the murders of her husband and daughter, eluding the authorities to deliver her own personal brand of justice.", "poster_path": "/jrzxS0vcbzIIay1sdYm0rgI2QfJ.jpg", "popularity": 25.2}, {"adult": false, "backdrop_path": "/kwdmLQgWOmx9oXDpC6KwA2YJOFC.jpg", "genre_ids": [27], "id": 11601, "original_language": "en", "original_title": "Stir of Echoes", "overview": "After being hypnotized by his sister in law, Tom Witzky begins seeing haunting visions of a girl's ghost and a mystery begins to unfold around her.", "poster_path": "/tdsVfsvvkj9ygu0LIiFtpCgwg8h.jpg", "release_date": "1999-09-10", "title": "Stir of Echoes", "video": false, "vote_average": 6.6, "vote_count": 639, "popularity": 12.431}, {"id": 146015, "video": false, "vote_count": 598, "vote_average": 6.6, "title": "The Double", "release_date": "2014-04-04", "original_language": "en", "original_title": "The Double", "genre_ids": [18, 53], "backdrop_path": "/gSNqUnQSgYWxsFQ59xH077dW1Zx.jpg", "adult": false, "overview": "An awkward office drone becomes increasingly unhinged after a charismatic and confident look-alike takes a job at his workplace and seduces the woman he desires.", "poster_path": "/hN6bP9XWKHI8JhlZpk8ieF1lcyG.jpg", "popularity": 10.094}, {"adult": false, "backdrop_path": "/fLMv873bBAvrCtzeAbRVjb4Mi9Y.jpg", "genre_ids": [28, 53, 80], "id": 27582, "original_language": "en", "original_title": "The Mechanic", "overview": "Arthur Bishop is a 'mechanic' - an elite assassin with a strict code and unique talent for cleanly eliminating targets. It's a job that requires professional perfection and total detachment, and Bishop is the best in the business. But when he is ordered to take out his mentor and close friend Harry, Bishop is anything but detached.", "poster_path": "/eScKoGnjaUvGD2OkK3DImyzfVkt.jpg", "release_date": "2011-01-13", "title": "The Mechanic", "video": false, "vote_average": 6.3, "vote_count": 1857, "popularity": 20.52}, {"adult": false, "backdrop_path": "/4brEMzPazQE3hv3mogj6k1a29RP.jpg", "genre_ids": [10749, 14, 16], "id": 3933, "original_language": "en", "original_title": "Corpse Bride", "overview": "Set in a 19th-century european village, this stop-motion animation feature follows the story of Victor, a young man whisked away to the underworld and wed to a mysterious corpse bride, while his real bride Victoria waits bereft in the land of the living.", "poster_path": "/o9GbcdP7rOg2m1NyUnUR3ZwNcTE.jpg", "release_date": "2005-09-12", "title": "Corpse Bride", "video": false, "vote_average": 7.4, "vote_count": 4928, "popularity": 23.702}, {"id": 12103, "video": false, "vote_count": 469, "vote_average": 6.1, "title": "Don't Say a Word", "release_date": "2001-09-28", "original_language": "en", "original_title": "Don't Say a Word", "genre_ids": [53], "backdrop_path": "/AaOtoMzqWJPSNXPRKwbvqf6MbKo.jpg", "adult": false, "overview": "When the daughter of a psychiatrist is kidnapped, he's horrified to discover that the abductors' demand is that he break through to a post traumatic stress disorder suffering young woman who knows a secret..", "poster_path": "/qx3hgW9MqxsEEFjx4eSbpp1Fe2l.jpg", "popularity": 16.339}, {"adult": false, "backdrop_path": "/c7iSbhSffDkM2yf5cg3D91FuVga.jpg", "genre_ids": [9648, 10749, 53], "id": 426, "original_language": "en", "original_title": "Vertigo", "overview": "A retired San Francisco detective suffering from acrophobia investigates the strange activities of an old friend's wife, all the while becoming dangerously obsessed with her.", "poster_path": "/obhM86qyv8RsE69XSMTtT9FdE0b.jpg", "release_date": "1958-05-09", "title": "Vertigo", "video": false, "vote_average": 8.2, "vote_count": 2889, "popularity": 21.778}, {"id": 1246, "video": false, "vote_count": 1925, "vote_average": 6.7, "title": "Rocky Balboa", "release_date": "2006-12-20", "original_language": "en", "original_title": "Rocky Balboa", "genre_ids": [18], "backdrop_path": "/gcFhaI5IrKxvMs4TtvlHbYE4b0.jpg", "adult": false, "overview": "When he loses a highly publicized virtual boxing match to ex-champ Rocky Balboa, reigning heavyweight titleholder, Mason Dixon retaliates by challenging Rocky to a nationally televised, 10-round exhibition bout. To the surprise of his son and friends, Rocky agrees to come out of retirement and face an opponent who's faster, stronger and thirty years his junior.", "poster_path": "/n82AAPWnAafDAZjxkYK2rAPwk4A.jpg", "popularity": 19.171}, {"adult": false, "backdrop_path": "/h0jlcOISKcrVG4IE4p5IyZGrMhn.jpg", "genre_ids": [35, 80], "id": 212, "original_language": "en", "original_title": "Arsenic and Old Lace", "overview": "Mortimer Brewster, a newspaper drama critic, playwright and author known for his diatribes against marriage, suddenly falls in love and gets married;  but when he makes a quick trip home to tell his two maiden aunts, he finds out his aunts' hobby - killing lonely old men and burying them in the cellar!", "poster_path": "/sqfuyh9N0K8xHQFh5Lfj6W0rODs.jpg", "release_date": "1944-09-01", "title": "Arsenic and Old Lace", "video": false, "vote_average": 7.6, "vote_count": 442, "popularity": 15.626}, {"id": 10925, "video": false, "vote_count": 551, "vote_average": 7.3, "title": "The Return of the Living Dead", "release_date": "1985-04-25", "original_language": "en", "original_title": "The Return of the Living Dead", "genre_ids": [35, 27], "backdrop_path": "/jA34vdJCxOZUoi4khkfhq1pX3WG.jpg", "adult": false, "overview": "When a bumbling pair of employees at a medical supply warehouse accidentally release a deadly gas into the air, the vapors cause the dead to re-animate as they go on a rampage seeking their favorite food: brains!", "poster_path": "/1vydUitzC8W8W5oNevEArCltydJ.jpg", "popularity": 13.326}, {"id": 10225, "video": false, "vote_count": 517, "vote_average": 5.9, "title": "Friday the 13th Part VI: Jason Lives", "release_date": "1986-08-01", "original_language": "en", "original_title": "Friday the 13th Part VI: Jason Lives", "genre_ids": [27, 9648, 53], "backdrop_path": "/lxZxbLpg4JhGptq0CejbElATU98.jpg", "adult": false, "overview": "Determined to finish off the infamous killer Jason Voorhees once and for all, Tommy Jarvis and a friend exhume Jason\u2019s corpse in order to cremate him. Things go awry when Jason is instead resurrected, sparking a new chain of ruthlessly brutal murders. Now it\u2019s up to Tommy to stop the dark, devious and demented deaths that he unwittingly brought about.", "poster_path": "/527lL7kLmvxLXnMoaMrKashaC58.jpg", "popularity": 12.184}, {"adult": false, "backdrop_path": "/zwJFfKQdfiptK2GY6N8GkZFrAxJ.jpg", "genre_ids": [27, 53], "id": 7340, "original_language": "en", "original_title": "Carrie", "overview": "Carrie White, a shy and troubled teenage girl who is tormented by her high school peers and her fanatically religious mother, begins to use her powers of telekinesis to exact revenge upon them.", "poster_path": "/n9JxLthRHwTWwu5OjFHVplkVSUg.jpg", "release_date": "1976-11-03", "title": "Carrie", "video": false, "vote_average": 7.2, "vote_count": 2026, "popularity": 14.332}, {"adult": false, "backdrop_path": "/bhYsiT8V2yV4ZcnxxbIiJUKlRB2.jpg", "genre_ids": [18, 53, 80], "id": 12149, "original_language": "en", "original_title": "Frailty", "overview": "A man confesses to an FBI agent his family's story of how his religious fanatic father's visions lead to a series of murders to destroy supposed 'demons'.", "poster_path": "/z5EhMVaY7lVzNjYp8rK7Y3IJ11s.jpg", "release_date": "2001-11-17", "title": "Frailty", "video": false, "vote_average": 7.0, "vote_count": 630, "popularity": 14.279}, {"id": 791, "video": false, "vote_count": 376, "vote_average": 4.1, "title": "The Fog", "release_date": "2005-10-14", "original_language": "en", "original_title": "The Fog", "genre_ids": [27, 53], "backdrop_path": "/r9UetZlMpkr0DvEHNdk7hVclEA0.jpg", "adult": false, "overview": "Trapped within an eerie mist, the residents of Antonio Bay have become the unwitting victims of a horrifying vengeance. One hundred years earlier, a ship carrying lepers was purposely lured onto the rocky coastline and sank, drowning all aboard. Now they're back \u2013 long-dead mariners who've waited a century for their revenge.", "poster_path": "/qZ3Prt6jBvCWI08MsS9cPMM5lMi.jpg", "popularity": 11.522}, {"id": 37645, "video": false, "vote_count": 575, "vote_average": 6.5, "title": "22 Bullets", "release_date": "2010-03-23", "original_language": "fr", "original_title": "L'Immortel", "genre_ids": [28, 80, 53], "backdrop_path": "/mU8zfCOTbahNGH0ZBTCuNdX16gj.jpg", "adult": false, "overview": "Charly Mattei\u0308 has turned his back on his life as an outlaw. For the last three years, he's led a peaceful life devoting himself to his wife and two children. Then, one winter morning, he's left for dead in the parking garage in Marseille's Old Port, with 22 bullets in his body. Against all the odds, he doesn't die...", "poster_path": "/wTYZjPq4YA2wC99MdHZTFQuxFpd.jpg", "popularity": 12.785}, {"id": 41505, "video": false, "vote_count": 392, "vote_average": 5.9, "title": "Shelter", "release_date": "2010-03-27", "original_language": "en", "original_title": "Shelter", "genre_ids": [27, 9648, 53], "backdrop_path": "/lNZn3CW6SrJRwwiWiZ4aU3hel7F.jpg", "adult": false, "overview": "A female forensic psychiatrist discovers that all of one of her patient's multiple personalities are murder victims. She will have to find out what's happening before her time is finished.", "poster_path": "/iFtUI5KB83bXTk23kB2ldoOQX8z.jpg", "popularity": 13.465}, {"adult": false, "backdrop_path": "/jixekHe0lX093eZHUe5wqKM8SOR.jpg", "genre_ids": [27], "id": 10331, "original_language": "en", "original_title": "Night of the Living Dead", "overview": "A group of people try to survive an attack of bloodthirsty zombies while trapped in a rural Pennsylvania farmhouse.", "poster_path": "/faPfcZ181gWmCoMbal7bAXFPFh9.jpg", "release_date": "1968-10-01", "title": "Night of the Living Dead", "video": false, "vote_average": 7.7, "vote_count": 1188, "popularity": 15.31}, {"adult": false, "backdrop_path": "/58bRLKnNL2KR4V36ql5vuhbEayx.jpg", "genre_ids": [27, 9648, 53, 80], "id": 241257, "original_language": "en", "original_title": "Regression", "overview": "Minnesota, 1990. Detective Bruce Kenner investigates the case of young Angela, who accuses her father, John Gray, of an unspeakable crime. When John unexpectedly and without recollection admits guilt, renowned psychologist Dr. Raines is brought in to help him relive his memories and what they discover unmasks a horrifying nationwide mystery.", "poster_path": "/d1dtQQfJJWU31cGSFbfhyeLtsTm.jpg", "release_date": "2015-10-01", "title": "Regression", "video": false, "vote_average": 5.5, "vote_count": 1175, "popularity": 10.665}, {"adult": false, "backdrop_path": "/ipEenLpAyNJZUrzQHBw3fdurcm0.jpg", "genre_ids": [28, 878], "id": 10017, "original_language": "en", "original_title": "The Wraith", "overview": "Packard Walsh and his motorized gang control and terrorize an Arizona desert town where they force drivers to drag-race so they can 'win' their vehicles. After Walsh beats the decent teenager Jamie Hankins to death after finding him with his girlfriend, a mysterious power creates Jake Kesey, an extremely cool motor-biker who has a car which is invincible. Jake befriends Jamie's girlfriend Keri Johnson, takes Jamie's sweet brother Bill under his wing and manages what Sheriff Loomis couldn't; eliminate Packard's criminal gang the hard way...", "poster_path": "/agKajLCLtUNR5KH6lvmeg9LT1gD.jpg", "release_date": "1986-11-21", "title": "The Wraith", "video": false, "vote_average": 6.0, "vote_count": 178, "popularity": 12.984}], "total_pages": 8, "total_results": 158}, "recommendations": {"page": 1, "results": [], "total_pages": 1, "total_results": 0}, "credits": {"cast": [{"cast_id": 1, "character": "George", "credit_id": "52fe49359251416c910a620f", "gender": 2, "id": 87723, "name": "Sven-Bertil Taube", "order": 0, "profile_path": "/lSRHpbj6B1ctuovgrXwnje7gcYm.jpg"}, {"cast_id": 2, "character": "Maria", "credit_id": "52fe49359251416c910a6213", "gender": 1, "id": 933238, "name": "Rebecca Ferguson", "order": 1, "profile_path": "/dbIS4S32rrIJyEysx7huT6ZAmjN.jpg"}, {"cast_id": 3, "character": "Johan", "credit_id": "52fe49359251416c910a6217", "gender": 2, "id": 76383, "name": "Dan Ekborg", "order": 2, "profile_path": "/tzZ3tPOZBE0SPAVcHFgD6zL9Sjt.jpg"}, {"cast_id": 4, "character": "Susanne", "credit_id": "52fe49359251416c910a621b", "gender": 1, "id": 142683, "name": "Malin Morgan", "order": 3, "profile_path": "/vn3EOwkExseW3Ry4cPf0YCTfk4z.jpg"}, {"cast_id": 5, "character": "Mikaela", "credit_id": "52fe49359251416c910a621f", "gender": 1, "id": 933239, "name": "Marta Oldenburg", "order": 4, "profile_path": "/4JZcmny2HzeGIpeD95rNOSEkFz8.jpg"}, {"cast_id": 6, "character": "Tony", "credit_id": "52fe49359251416c910a6223", "gender": 2, "id": 57013, "name": "Torkel Petersson", "order": 5, "profile_path": "/45ma69FFviLqEWz4gpvpBthmBeX.jpg"}, {"cast_id": 7, "character": "Jim", "credit_id": "52fe49359251416c910a6227", "gender": 0, "id": 933240, "name": "Martin Sundbom", "order": 6, "profile_path": null}, {"cast_id": 8, "character": "Helena", "credit_id": "52fe49359251416c910a622b", "gender": 1, "id": 109284, "name": "Anita Wall", "order": 7, "profile_path": "/kIXZcdOF1wV5YsKC5Lxq0dBX2xq.jpg"}, {"cast_id": 9, "character": "Olof", "credit_id": "52fe49359251416c910a622f", "gender": 2, "id": 282449, "name": "Iwar Wiklander", "order": 8, "profile_path": "/s0EjghuTpefXlof3AvRDNZOkuzA.jpg"}, {"cast_id": 10, "character": "Daniel", "credit_id": "52fe49369251416c910a6233", "gender": 2, "id": 933241, "name": "Christopher Wollter", "order": 9, "profile_path": "/3GBkzBPh9ZhQGELdDgX5A5iesqX.jpg"}], "crew": [{"credit_id": "52fe49369251416c910a6239", "department": "Production", "gender": 0, "id": 72684, "job": "Producer", "name": "H\u00e5kan Bjerking", "profile_path": null}, {"credit_id": "52fe49369251416c910a6245", "department": "Directing", "gender": 0, "id": 252729, "job": "Director", "name": "Richard Hobert", "profile_path": "/kFD821HgJlYezYIUk6s0z0AOsCW.jpg"}, {"credit_id": "52fe49369251416c910a623f", "department": "Production", "gender": 0, "id": 252729, "job": "Producer", "name": "Richard Hobert", "profile_path": "/kFD821HgJlYezYIUk6s0z0AOsCW.jpg"}, {"credit_id": "52fe49369251416c910a624b", "department": "Writing", "gender": 0, "id": 252729, "job": "Writer", "name": "Richard Hobert", "profile_path": "/kFD821HgJlYezYIUk6s0z0AOsCW.jpg"}]}}