{"adult": false, "backdrop_path": "/r4ulQg5LPfemUleVVZNijH50Gk6.jpg", "belongs_to_collection": null, "budget": 0, "genres": [{"id": 80, "name": "Crime"}], "homepage": null, "id": 85367, "imdb_id": "tt0046514", "original_language": "en", "original_title": "Vice Squad", "overview": "A Los Angeles police captain (Edward G. Robinson) ties the case of a slain policeman to a bank robbery, all in a day.", "popularity": 2.855, "poster_path": "/xqLrdFzllruOHoov7CKtsoV6jJu.jpg", "production_companies": [{"id": 4629, "logo_path": null, "name": "Sequoia Pictures", "origin_country": ""}, {"id": 4213, "logo_path": null, "name": "Sol Lesser Productions", "origin_country": ""}], "production_countries": [{"iso_3166_1": "US", "name": "United States of America"}], "release_date": "1953-07-31", "revenue": 0, "runtime": 87, "spoken_languages": [{"iso_639_1": "en", "name": "English"}], "status": "Released", "tagline": "Holds you... like a gold diggin' woman!", "title": "Vice Squad", "video": false, "vote_average": 6.1, "vote_count": 7, "keywords": {"keywords": [{"id": 11034, "name": "b movie"}, {"id": 155545, "name": "vice squad"}, {"id": 195402, "name": "film noir"}]}, "similar": {"page": 1, "results": [{"adult": false, "backdrop_path": "/1l77Gk2OK9hjRFze08El8Do3pT1.jpg", "genre_ids": [80, 9648, 53], "id": 996, "original_language": "en", "original_title": "Double Indemnity", "overview": "A rich woman and a calculating insurance agent plot to kill her unsuspecting husband after he signs a double indemnity policy.  Against a backdrop of distinctly Californian settings, the partners in crime plan the perfect murder to collect the insurance, which pays  double if the death is accidental.", "poster_path": "/nW0cCpfuGcR1JG7EinDbdL2Ijf2.jpg", "release_date": "1944-07-03", "title": "Double Indemnity", "video": false, "vote_average": 8.2, "vote_count": 856, "popularity": 12.834}, {"adult": false, "backdrop_path": "/gF7v48JI9Vf6bBVU5aykiPtcCub.jpg", "genre_ids": [80, 9648, 53], "id": 14638, "original_language": "en", "original_title": "The Killers", "overview": "Two hit men walk into a diner asking for a man called \"the Swede\". When the killers find the Swede, he's expecting them and doesn't put up a fight. Since the Swede had a life insurance policy, an investigator, on a hunch, decides to look into the murder. As the Swede's past is laid bare, it comes to light that he was in love with a beautiful woman who may have lured him into pulling off a bank robbery overseen by another man.", "poster_path": "/uXnuc6pW01s1MDwb6QwBWg2JQeX.jpg", "release_date": "1946-08-28", "title": "The Killers", "video": false, "vote_average": 7.4, "vote_count": 167, "popularity": 11.743}, {"adult": false, "backdrop_path": "/tR1RXbnkSvZq0sgx0Gyh3GmgYoB.jpg", "genre_ids": [80, 18, 53], "id": 21734, "original_language": "en", "original_title": "Shadow of a Doubt", "overview": "A bored teen living in Santa Rosa, California, Charlotte \"Charlie\" Newton, is frustrated because nothing seems to be happening in her life and that of her family. Then, she receives wonderful news: her uncle (for whom she was named), Charlie Oakley, is arriving for a visit. But Uncle Charlie may not be the man he seems to be.", "poster_path": "/ptyWagbWE8jSGyV2tGEzAdVbRCj.jpg", "release_date": "1943-01-15", "title": "Shadow of a Doubt", "video": false, "vote_average": 7.7, "vote_count": 446, "popularity": 14.275}, {"adult": false, "backdrop_path": "/jRNqzZZwYIpiukkblMQ4G2Vc5p7.jpg", "genre_ids": [9648, 80, 53], "id": 963, "original_language": "en", "original_title": "The Maltese Falcon", "overview": "A private detective takes on a case that involves him with three eccentric criminals, a beautiful liar, and their quest for a priceless statuette.", "poster_path": "/jQilmbgbKtpbHM9hw9hgmqomJ9.jpg", "release_date": "1941-10-18", "title": "The Maltese Falcon", "video": false, "vote_average": 7.8, "vote_count": 838, "popularity": 14.575}, {"adult": false, "backdrop_path": "/8nvayG5l0urcjvvpszoECDqLWzD.jpg", "genre_ids": [18, 53, 80, 9648], "id": 186, "original_language": "en", "original_title": "Lucky Number Slevin", "overview": "Slevin is mistakenly put in the middle of a personal war between the city\u2019s biggest criminal bosses. Under constant watch, Slevin must try not to get killed by an infamous assassin and come up with an idea of how to get out of his current dilemma. A film with many twists and turns.", "poster_path": "/jtKq0EtothAzWlnRBBWGCA8uFuu.jpg", "release_date": "2006-02-24", "title": "Lucky Number Slevin", "video": false, "vote_average": 7.5, "vote_count": 2480, "popularity": 17.523}, {"id": 521, "video": false, "vote_count": 1257, "vote_average": 8.0, "title": "Dial M for Murder", "release_date": "1954-05-29", "original_language": "en", "original_title": "Dial M for Murder", "genre_ids": [80, 18, 9648, 53], "backdrop_path": "/jVMlfESb0TJ29w8CUDDofEprMmn.jpg", "adult": false, "overview": "An ex-tennis pro carries out a plot to have his wife murdered after discovering she is having an affair, and assumes she will soon leave him for the other man anyway. When things go wrong, he improvises a new plan\u2014to frame her for murder instead.", "poster_path": "/xrpK1PyckNWmRxU4kZURfaCyboS.jpg", "popularity": 34.566}, {"id": 75780, "video": false, "vote_count": 4450, "vote_average": 6.4, "title": "Jack Reacher", "release_date": "2012-12-20", "original_language": "en", "original_title": "Jack Reacher", "genre_ids": [28, 80, 18, 53], "backdrop_path": "/ezXodpP429qK0Av89pVNlaXWJkQ.jpg", "adult": false, "overview": "When a gunman takes five lives with six shots, all evidence points to the suspect in custody. On interrogation, the suspect offers up a single note: \"Get Jack Reacher!\" So begins an extraordinary chase for the truth, pitting Jack Reacher against an unexpected enemy, with a skill for violence and a secret to keep.", "poster_path": "/mt0ELw83HIRgaKaDzhsDcIi0RnW.jpg", "popularity": 19.929}, {"id": 311, "video": false, "vote_count": 2593, "vote_average": 8.4, "title": "Once Upon a Time in America", "release_date": "1984-05-23", "original_language": "en", "original_title": "Once Upon a Time in America", "genre_ids": [80, 18], "backdrop_path": "/vnT6HzjLSDrAweHn9xWykb8Ii6T.jpg", "adult": false, "overview": "A former Prohibition-era Jewish gangster returns to the Lower East Side of Manhattan over thirty years later, where he once again must confront the ghosts and regrets of his old life.", "poster_path": "/x733R4ISI0RbKeHhVkXdTMFmTFr.jpg", "popularity": 23.555}, {"id": 4638, "video": false, "vote_count": 4426, "vote_average": 7.5, "title": "Hot Fuzz", "release_date": "2007-02-14", "original_language": "en", "original_title": "Hot Fuzz", "genre_ids": [28, 35, 80], "backdrop_path": "/zuskekrfW3gj9ttXNVhfdHe5n22.jpg", "adult": false, "overview": "As a former London constable, Nicholas Angel finds it difficult to adapt to his new assignment in the sleepy British village of Sandford. Not only does he miss the excitement of the big city, but he also has a well-meaning oaf for a partner. However, when a series of grisly accidents rocks Sandford, Angel smells something rotten in the idyllic village.", "poster_path": "/5Jx6s6VXnunh8wCLgR0YgjwSgjh.jpg", "popularity": 25.234}, {"adult": false, "backdrop_path": "/7RRuRcGuWkZGuRyYugfXn0Fgrrr.jpg", "genre_ids": [28, 80, 18, 53], "id": 949, "original_language": "en", "original_title": "Heat", "overview": "Obsessive master thief, Neil McCauley leads a top-notch crew on various daring heists throughout Los Angeles while determined detective, Vincent Hanna pursues him without rest. Each man recognizes and respects the ability and the dedication of the other even though they are aware their cat-and-mouse game may end in violence.", "poster_path": "/6pmLVffM9jEYK7VqDJqPblMxfEY.jpg", "release_date": "1995-12-15", "title": "Heat", "video": false, "vote_average": 7.8, "vote_count": 3610, "popularity": 21.48}, {"adult": false, "backdrop_path": "/jQR6de9dwOjvx91wC4tqpTlMqCD.jpg", "genre_ids": [53, 80, 18], "id": 109421, "original_language": "en", "original_title": "Side Effects", "overview": "A woman turns to prescription medication as a way of handling her anxiety concerning her husband's upcoming release from prison.", "poster_path": "/ttD69Yhh2BV1WVqr27NRbF8ubOW.jpg", "release_date": "2013-02-07", "title": "Side Effects", "video": false, "vote_average": 6.5, "vote_count": 2035, "popularity": 11.74}, {"id": 169917, "video": false, "vote_count": 1811, "vote_average": 6.3, "title": "A Walk Among the Tombstones", "release_date": "2014-09-18", "original_language": "en", "original_title": "A Walk Among the Tombstones", "genre_ids": [80, 18, 9648, 53], "backdrop_path": "/e56QsaJy1weAUukiK2ZmIGVUALF.jpg", "adult": false, "overview": "Private investigator Matthew Scudder is hired by a drug kingpin to find out who kidnapped and murdered his wife.", "poster_path": "/xxe77USOk2tPnq7G4cL42gf1OxQ.jpg", "popularity": 26.185}, {"id": 339692, "video": false, "vote_count": 1163, "vote_average": 6.9, "title": "Shot Caller", "release_date": "2017-07-13", "original_language": "en", "original_title": "Shot Caller", "genre_ids": [80, 18, 53], "backdrop_path": "/hehboYLXB3m90x9ybiBsupwuifL.jpg", "adult": false, "overview": "A newly-released prison gangster is forced by the leaders of his gang to orchestrate a major crime with a brutal rival gang on the streets of Southern California.", "poster_path": "/qLmLz2wtyYvmW8Ult3l2ngOnW8v.jpg", "popularity": 25.016}, {"adult": false, "backdrop_path": "/19qAk3bQZ6ulspbwhPw1A0bNpii.jpg", "genre_ids": [80, 27, 53], "id": 73861, "original_language": "sr", "original_title": "Srpski film", "overview": "Milos, a retired porn star, leads a normal family life trying to make ends meet. Presented with the opportunity of a lifetime to financially support his family for the rest of their lives, Milos must participate in one last mysterious film. From then on, Milos is drawn into a maelstrom of unbelievable cruelty and mayhem.", "poster_path": "/iB3ynCghwG63MrViBC6YyPzUIAn.jpg", "release_date": "2010-06-16", "title": "A Serbian Film", "video": false, "vote_average": 5.5, "vote_count": 898, "popularity": 15.06}, {"id": 1949, "video": false, "vote_count": 5158, "vote_average": 7.5, "title": "Zodiac", "release_date": "2007-03-02", "original_language": "en", "original_title": "Zodiac", "genre_ids": [80, 18, 9648, 53], "backdrop_path": "/jP2htGBHE7vKq4MLeC75UeC0sZH.jpg", "adult": false, "overview": "The true story of the investigation of the \"Zodiac Killer\", a serial killer who terrified the San Francisco Bay Area, taunting police with his ciphers and letters. The case becomes an obsession for three men as their lives and careers are built and destroyed by the endless trail of clues.", "poster_path": "/bgLyOROfFQI3FqYL7jQbiaV8lkN.jpg", "popularity": 21.354}, {"adult": false, "backdrop_path": "/2J283YNxKhxAqHeVegUJ5mzLfGb.jpg", "genre_ids": [80, 18, 9648], "id": 392044, "original_language": "en", "original_title": "Murder on the Orient Express", "overview": "Genius Belgian detective Hercule Poirot investigates the murder of an American tycoon aboard the Orient Express train.", "poster_path": "/iBlfxlw8qwtUS0R8YjIU7JtM6LM.jpg", "release_date": "2017-11-03", "title": "Murder on the Orient Express", "video": false, "vote_average": 6.7, "vote_count": 6044, "popularity": 24.868}, {"id": 23483, "video": false, "vote_count": 8160, "vote_average": 7.1, "title": "Kick-Ass", "release_date": "2010-03-22", "original_language": "en", "original_title": "Kick-Ass", "genre_ids": [28, 80], "backdrop_path": "/ngPkB9K8ZpIjv8HpIC8ExqAfG6H.jpg", "adult": false, "overview": "Dave Lizewski is an unnoticed high school student and comic book fan who one day decides to become a super-hero, even though he has no powers, training or meaningful reason to do so.", "poster_path": "/gtfggr5n3ED1neoTqVYmsVCoSS.jpg", "popularity": 17.344}, {"adult": false, "backdrop_path": "/bRGtZsVj2Qq8r5CCsNYmQUPF4z4.jpg", "genre_ids": [80, 18, 878, 53], "id": 10559, "original_language": "en", "original_title": "Frequency", "overview": "When a rare phenomenon gives police officer John Sullivan the chance to speak to his father, 30 years in the past, he takes the opportunity to prevent his dad's tragic death.  After his actions inadvertently give rise to a series of brutal murders he and his father must find a way to fix the consequences of altering time.", "poster_path": "/n0QAAZmIaPPIShVkk8eiKwfGV9.jpg", "release_date": "2000-04-28", "title": "Frequency", "video": false, "vote_average": 7.1, "vote_count": 894, "popularity": 14.503}, {"adult": false, "backdrop_path": "/3uwyXMZN93PRkShUxvLrufwVAc2.jpg", "genre_ids": [80, 18, 27, 9648, 53], "id": 452507, "original_language": "en", "original_title": "1922", "overview": "A simple yet proud rancher conspires to murder his wife for financial gain, convincing his teenage son to participate.", "poster_path": "/q4FQOiSRhTLWulHl5Vpg37FMArH.jpg", "release_date": "2017-10-20", "title": "1922", "video": false, "vote_average": 5.9, "vote_count": 1489, "popularity": 10.541}, {"id": 273481, "video": false, "vote_count": 4907, "vote_average": 7.3, "title": "Sicario", "release_date": "2015-09-17", "original_language": "en", "original_title": "Sicario", "genre_ids": [28, 80, 53], "backdrop_path": "/zAHozevwbbsB2epEVpCkzqVccWW.jpg", "adult": false, "overview": "An idealistic FBI agent is enlisted by a government task force to aid in the escalating war against drugs at the border area between the U.S. and Mexico.", "poster_path": "/p2SdfGmQRaw8xhFbexlHL7srMM8.jpg", "popularity": 29.022}], "total_pages": 235, "total_results": 4689}, "recommendations": {"page": 1, "results": [{"adult": false, "backdrop_path": null, "genre_ids": [36, 10752], "id": 274961, "original_language": "de", "original_title": "Ohm Kr\u00fcger", "overview": "Ohm Kr\u00fcger (English: Uncle Kr\u00fcger) is a 1941 German biographical film directed by Hans Steinhoff and starring Emil Jannings, Lucie H\u00f6flich and Werner Hinz. It was one of a series of propaganda films produced in Nazi Germany attacking the British. The film depicts the life of the South African politician Paul Kruger and his eventual defeat by the British during the Boer War.  It was the first film to be awarded the 'Film of the Nation' award. It was re-released in 1944", "poster_path": "/yv1APe9VL3qzD5hsrBdBJXxyMxz.jpg", "release_date": "1941-01-02", "title": "Uncle Kruger", "video": false, "vote_average": 9.0, "vote_count": 4, "popularity": 2.321}, {"adult": false, "backdrop_path": null, "genre_ids": [9648, 18], "id": 417162, "original_language": "pt", "original_title": "Tr\u00eas Espelhos", "overview": "", "poster_path": "/mBQfWyW6kdxPDLBSMAQ8wDeRGr6.jpg", "release_date": "1947-10-01", "title": "Tr\u00eas Espelhos", "video": false, "vote_average": 7.5, "vote_count": 4, "popularity": 1.232}, {"adult": false, "backdrop_path": "/2ss6VL1P6prTj1mty3EkGEyzW1J.jpg", "genre_ids": [9648, 80], "id": 37085, "original_language": "en", "original_title": "Bury Me Dead", "overview": "Murder and obsession abound in this fast-paced mystery based on a radio play that begins with one of the most startling openings ever filmed! Directed by Bernard Vorhaus (The Spiritualist) and lensed by film noir\u2019s finest cinematographer, John Alton, this under-the radar gem stars June Lockhart, Cathy O\u2019Donnell and Hugh Beaumont. Produced at the now-legendary \u201cnoir factory\u201d of Eagle Lion Productions.", "poster_path": "/ZqXGzFSErw4qY5kMPTGGCe65U6.jpg", "release_date": "1947-10-18", "title": "Bury Me Dead", "video": false, "vote_average": 5.2, "vote_count": 5, "popularity": 3.729}], "total_pages": 1, "total_results": 3}, "credits": {"cast": [{"cast_id": 2, "character": "Capt. 'Barnie' Barnaby", "credit_id": "52fe49399251416c910a68b5", "gender": 2, "id": 13566, "name": "Edward G. Robinson", "order": 0, "profile_path": "/af1aBRi4UccaxtmDPWEtlfy1vXE.jpg"}, {"cast_id": 3, "character": "Mona Ross", "credit_id": "52fe49399251416c910a68b9", "gender": 1, "id": 14027, "name": "Paulette Goddard", "order": 1, "profile_path": "/8MuOzgtsI1PQUIlj2e2Y1UFLpTc.jpg"}, {"cast_id": 4, "character": "Ginny", "credit_id": "52fe49399251416c910a68bd", "gender": 1, "id": 89983, "name": "K. T. Stevens", "order": 2, "profile_path": "/fV0QHUYSbHIsIML5j6H2PA0SwOR.jpg"}, {"cast_id": 5, "character": "Jack Hartrampf", "credit_id": "52fe49399251416c910a68c1", "gender": 2, "id": 14975, "name": "Porter Hall", "order": 3, "profile_path": "/73hzC2AnpyFHOceuq4ZdUbsNQds.jpg"}, {"cast_id": 6, "character": "Marty Kusalich", "credit_id": "52fe49399251416c910a68c5", "gender": 2, "id": 2645, "name": "Adam Williams", "order": 4, "profile_path": "/eGdsCvVnd66A57JOEQ2SghzSBJi.jpg"}, {"cast_id": 7, "character": "Al Barkis", "credit_id": "52fe49399251416c910a68c9", "gender": 2, "id": 2651, "name": "Edward Binns", "order": 5, "profile_path": "/77FaXwoiEOkKCDXDfvvG65Sx788.jpg"}, {"cast_id": 8, "character": "Dwight Foreman", "credit_id": "52fe49399251416c910a68cd", "gender": 2, "id": 89834, "name": "Barry Kelley", "order": 6, "profile_path": "/q1t3gNvtx0A4pGHEGUJATuMIrwZ.jpg"}, {"cast_id": 9, "character": "Frankie Pierce", "credit_id": "52fe49399251416c910a68d1", "gender": 2, "id": 3343, "name": "Jay Adler", "order": 7, "profile_path": "/vBwdEXvk96OLlIiykTst6cgIl5y.jpg"}, {"cast_id": 10, "character": "Det. Lacey", "credit_id": "52fe49399251416c910a68d5", "gender": 2, "id": 93899, "name": "Harlan Warde", "order": 8, "profile_path": "/lsczdf6hnMLImwwJq4ndH5UaBz8.jpg"}, {"cast_id": 11, "character": "Carol Lawson", "credit_id": "52fe49399251416c910a68d9", "gender": 0, "id": 103102, "name": "Mary Ellen Kay", "order": 9, "profile_path": "/uKKJIQurxaYURt9wRcbITzhtyMO.jpg"}, {"cast_id": 12, "character": "Pete Monty", "credit_id": "52fe49399251416c910a68dd", "gender": 2, "id": 4078, "name": "Lee Van Cleef", "order": 10, "profile_path": "/oEEsdGCBjpyJyVZlx1X8PKvHe7S.jpg"}, {"cast_id": 18, "character": "Cop (uncredited)", "credit_id": "5832ddbf92514162d203851f", "gender": 2, "id": 14454, "name": "Murray Alper", "order": 11, "profile_path": "/gt2IIpoK6M8YVgmTrqV6A3dDz7j.jpg"}, {"cast_id": 19, "character": "Fred", "credit_id": "5cbb65139251417d39f6102b", "gender": 2, "id": 120215, "name": "Jack Carr", "order": 12, "profile_path": null}], "crew": [{"credit_id": "52fe49399251416c910a68f5", "department": "Camera", "gender": 2, "id": 14431, "job": "Director of Photography", "name": "Joseph F. Biroc", "profile_path": null}, {"credit_id": "52fe49399251416c910a68b1", "department": "Directing", "gender": 2, "id": 55692, "job": "Director", "name": "Arnold Laven", "profile_path": "/lvKXxRX8PVyxRWFVsraflnaNYxi.jpg"}, {"credit_id": "52fe49399251416c910a68ef", "department": "Sound", "gender": 2, "id": 55694, "job": "Original Music Composer", "name": "Herschel Burke Gilbert", "profile_path": null}, {"credit_id": "52fe49399251416c910a68e3", "department": "Writing", "gender": 0, "id": 70682, "job": "Screenplay", "name": "Lawrence Roman", "profile_path": null}, {"credit_id": "52fe49399251416c910a68e9", "department": "Writing", "gender": 0, "id": 144133, "job": "Novel", "name": "Leslie T. White", "profile_path": null}, {"credit_id": "52fe49399251416c910a68fb", "department": "Editing", "gender": 2, "id": 161267, "job": "Editor", "name": "Arthur H. Nadel", "profile_path": null}, {"credit_id": "5d18b911126ec3002110e4ea", "department": "Directing", "gender": 2, "id": 2348238, "job": "Second Assistant Director", "name": "James Lane", "profile_path": null}, {"credit_id": "5d2340416d4c97001078957c", "department": "Camera", "gender": 2, "id": 2355776, "job": "Still Photographer", "name": "Gaston Longet", "profile_path": null}]}}