{"adult": false, "backdrop_path": null, "belongs_to_collection": null, "budget": 0, "genres": [{"id": 18, "name": "Drama"}, {"id": 53, "name": "Thriller"}], "homepage": null, "id": 85393, "imdb_id": "tt0760506", "original_language": "ja", "original_title": "\u7d76\u5bfe\u6050\u6016 Booth \u30d6\u30fc\u30b9", "overview": "Shogo (Ryuta Sato), the arrogant and condescending star of a popular call-in radio-show must temporarily broadcast out of Studio 6, a creepy and dilapidated booth abandoned since its last DJ committed suicide several years ago. Suddenly, Shogo begins receiving disturbing calls, the voice on the line whispers \"Liar\" over and over. Is the joke on him, has someone discovered the truth about his sinister past, or has the curse of Studio 6 been unleashed again? In this Booth, all sins will be atoned for.", "popularity": 1.082, "poster_path": "/3B168t6NaokwoHUuS8hCz9LQYib.jpg", "production_companies": [{"id": 15309, "logo_path": null, "name": "PONY CANYON", "origin_country": "JP"}], "production_countries": [{"iso_3166_1": "JP", "name": "Japan"}], "release_date": "2005-11-05", "revenue": 0, "runtime": 73, "spoken_languages": [{"iso_639_1": "ja", "name": "\u65e5\u672c\u8a9e"}], "status": "Released", "tagline": "", "title": "The Booth", "video": false, "vote_average": 8.0, "vote_count": 4, "keywords": {"keywords": [{"id": 8087, "name": "horror"}]}, "similar": {"page": 1, "results": [{"id": 1923, "video": false, "vote_count": 970, "vote_average": 7.3, "title": "Twin Peaks: Fire Walk with Me", "release_date": "1992-06-03", "original_language": "en", "original_title": "Twin Peaks: Fire Walk with Me", "genre_ids": [18, 9648], "backdrop_path": "/bGyusx5LtsTLbyAq0ow1DrdE7K6.jpg", "adult": false, "overview": "In the questionable town of Deer Meadow, Washington, FBI Agent Desmond inexplicably disappears while hunting for the man who murdered a teen girl. The killer is never apprehended, and, after experiencing dark visions and supernatural encounters, Agent Dale Cooper chillingly predicts that the culprit will claim another life. Meanwhile, in the more cozy town of Twin Peaks, hedonistic beauty Laura Palmer hangs with lowlifes and seems destined for a grisly fate.", "poster_path": "/tOQekTHJmVCgfUYXTb6dLAu6l8W.jpg", "popularity": 13.017}, {"id": 587138, "video": false, "vote_count": 0, "vote_average": 0.0, "title": "Driven", "release_date": "2019-02-09", "original_language": "en", "original_title": "Driven", "genre_ids": [35, 27, 53], "backdrop_path": null, "adult": false, "overview": "Emerson Graham's nights as a cab driver are filled with annoyances and inconveniences, but until tonight, never attacks and disappearances. After picking up a mysterious passenger her evening goes from working a job to performing a quest as they must race against the clock to defeat a force of evil. The meter is running.", "poster_path": "/ca0URmLciw4rZgjWU6y2nOapyGU.jpg", "popularity": 2.366}, {"adult": false, "backdrop_path": "/20IgqkdFw5kuItqDCJtidSESP0t.jpg", "genre_ids": [27, 18], "id": 10066, "original_language": "en", "original_title": "House of Wax", "overview": "A group of unwitting teens are stranded near a strange wax museum and soon must fight to survive and keep from becoming the next exhibit.", "poster_path": "/uM1RebQywM5PPYsauayefpXGxVk.jpg", "release_date": "2005-04-30", "title": "House of Wax", "video": false, "vote_average": 5.7, "vote_count": 1532, "popularity": 16.398}, {"id": 521, "video": false, "vote_count": 1257, "vote_average": 8.0, "title": "Dial M for Murder", "release_date": "1954-05-29", "original_language": "en", "original_title": "Dial M for Murder", "genre_ids": [80, 18, 9648, 53], "backdrop_path": "/jVMlfESb0TJ29w8CUDDofEprMmn.jpg", "adult": false, "overview": "An ex-tennis pro carries out a plot to have his wife murdered after discovering she is having an affair, and assumes she will soon leave him for the other man anyway. When things go wrong, he improvises a new plan\u2014to frame her for murder instead.", "poster_path": "/xrpK1PyckNWmRxU4kZURfaCyboS.jpg", "popularity": 28.336}, {"adult": false, "backdrop_path": "/7RRuRcGuWkZGuRyYugfXn0Fgrrr.jpg", "genre_ids": [28, 80, 18, 53], "id": 949, "original_language": "en", "original_title": "Heat", "overview": "Obsessive master thief, Neil McCauley leads a top-notch crew on various daring heists throughout Los Angeles while determined detective, Vincent Hanna pursues him without rest. Each man recognizes and respects the ability and the dedication of the other even though they are aware their cat-and-mouse game may end in violence.", "poster_path": "/6pmLVffM9jEYK7VqDJqPblMxfEY.jpg", "release_date": "1995-12-15", "title": "Heat", "video": false, "vote_average": 7.8, "vote_count": 3615, "popularity": 21.973}, {"id": 458723, "video": false, "vote_count": 3227, "vote_average": 7.0, "title": "Us", "release_date": "2019-03-14", "original_language": "en", "original_title": "Us", "genre_ids": [27, 9648, 53], "backdrop_path": "/18qxSxzAUs7UjZ3dKCkxAOv0yb1.jpg", "adult": false, "overview": "Husband and wife Gabe and Adelaide Wilson take their kids to their beach house expecting to unplug and unwind with friends. But as night descends, their serenity turns to tension and chaos when some shocking visitors arrive uninvited.", "poster_path": "/ux2dU1jQ2ACIMShzB3yP93Udpzc.jpg", "popularity": 32.148}, {"adult": false, "backdrop_path": "/j7qWyikT1eKNezNKxqPkkC8lKz8.jpg", "genre_ids": [53], "id": 72784, "original_language": "en", "original_title": "The Loft", "overview": "For five men, the opportunity to share a penthouse in the city -- in which to carry on extramarital affairs -- is a dream come true, until the dead body of an unknown woman turns up. Realizing that her killer must be one of their group, the men are gripped by paranoia as each one suspects another. Friendships are tested, loyalties are questioned, and marriages crumble while fear and suspicion run rampant.", "poster_path": "/9hE6vesQoSREyvJha9z0g5OryHH.jpg", "release_date": "2014-10-14", "title": "The Loft", "video": false, "vote_average": 6.4, "vote_count": 837, "popularity": 19.836}, {"adult": false, "backdrop_path": "/o4psXh7IVD6GFKvBSHjHLzjL2lV.jpg", "genre_ids": [27, 53], "id": 10781, "original_language": "en", "original_title": "The Texas Chainsaw Massacre: The Beginning", "overview": "Chrissie and her friends set out on a road trip for a final fling before one is shipped off to Vietnam. Along the way, bikers harass the foursome and cause an accident that throws Chrissie from the vehicle. The lawman who arrives on the scene kills one of the bikers and brings Chrissie's friends to the Hewitt homestead, where young Leatherface is learning the tools of terror.", "poster_path": "/9elCJIG1TOJ0wew3JVx5ZMkHq5w.jpg", "release_date": "2006-10-06", "title": "The Texas Chainsaw Massacre: The Beginning", "video": false, "vote_average": 6.0, "vote_count": 936, "popularity": 19.211}, {"id": 282035, "video": false, "vote_count": 4849, "vote_average": 5.5, "title": "The Mummy", "release_date": "2017-06-06", "original_language": "en", "original_title": "The Mummy", "genre_ids": [28, 12, 14, 27, 53], "backdrop_path": "/5TC6gKrmtnoGE3c3lHeNPevkn4Z.jpg", "adult": false, "overview": "Though safely entombed in a crypt deep beneath the unforgiving desert, an ancient queen whose destiny was unjustly taken from her is awakened in our current day, bringing with her malevolence grown over millennia, and terrors that defy human comprehension.", "poster_path": "/zxkY8byBnCsXodEYpK8tmwEGXBI.jpg", "popularity": 22.059}, {"id": 448095, "video": false, "vote_count": 308, "vote_average": 6.8, "title": "I Still See You", "release_date": "2018-09-27", "original_language": "en", "original_title": "I Still See You", "genre_ids": [14, 53], "backdrop_path": "/7rqpB7coXaNvTVMWb5vL8qU0pBp.jpg", "adult": false, "overview": "A spellbinding and romantic supernatural thriller. Ten years after an apocalyptic event left the world haunted by ghosts, Roni receives a threatening message from beyond the grave. Joining forces with a mysterious classmate, Kirk, Roni descends into a shadow world that blurs the bounds of the living and the dead-and begins a desperate race against time to stop a cunning killer.", "poster_path": "/9fqzZs922V8OmwgO11Eqclof2mQ.jpg", "popularity": 16.612}, {"id": 1427, "video": false, "vote_count": 2511, "vote_average": 7.2, "title": "Perfume: The Story of a Murderer", "release_date": "2006-09-13", "original_language": "en", "original_title": "Perfume: The Story of a Murderer", "genre_ids": [80, 18, 14], "backdrop_path": "/3i8bJa5yvLZW2k4sg2Cd1Yy0a1x.jpg", "adult": false, "overview": "Jean-Baptiste Grenouille, born in the stench of 18th century Paris, develops a superior olfactory sense, which he uses to create the world's finest perfumes. However, his work takes a dark turn as he tries to preserve scents in the search for the ultimate perfume.", "poster_path": "/zC9JHS6NlkJKPYFxOOqBl7fQCjT.jpg", "popularity": 20.263}, {"adult": false, "backdrop_path": "/lx9eC0e98ZrdU0y55LrydS8CMMp.jpg", "genre_ids": [28, 12, 80, 18, 9648, 53], "id": 9631, "original_language": "en", "original_title": "The Negotiator", "overview": "The police try to arrest expert hostage negotiator Danny Roman, who insists he's being framed for his partner's murder in what he believes is an elaborate conspiracy. Thinking there's evidence in the Internal Affairs offices that might clear him, he takes everyone in the office hostage and demands that another well-known negotiator be brought in to handle the situation and secretly investigate the conspiracy.", "poster_path": "/u4LQDr6QB5i7dz3sMuP8u3EOd3D.jpg", "release_date": "1998-07-29", "title": "The Negotiator", "video": false, "vote_average": 7.0, "vote_count": 1082, "popularity": 18.49}, {"id": 1580, "video": false, "vote_count": 1268, "vote_average": 8.0, "title": "Rope", "release_date": "1948-08-26", "original_language": "en", "original_title": "Rope", "genre_ids": [80, 53], "backdrop_path": "/2RWBzG3DYGYmgbsazg3Fls0X02l.jpg", "adult": false, "overview": "Two men attempt to prove they committed the perfect crime by hosting a dinner party after strangling their former classmate to death.", "poster_path": "/tJlmMbaleBT8IwuidgI0ZvlLbWA.jpg", "popularity": 16.196}, {"adult": false, "backdrop_path": "/khzRw7ZDE3NIrYpe0RYyB864FPT.jpg", "genre_ids": [80, 28, 53], "id": 189, "original_language": "en", "original_title": "Sin City: A Dame to Kill For", "overview": "Some of Sin City's most hard-boiled citizens cross paths with a few of its more reviled inhabitants.", "poster_path": "/k80qKrJ0qQ6ocVo5N932stNSg6j.jpg", "release_date": "2014-08-20", "title": "Sin City: A Dame to Kill For", "video": false, "vote_average": 6.3, "vote_count": 2422, "popularity": 25.256}, {"id": 1645, "video": false, "vote_count": 1050, "vote_average": 7.2, "title": "A Time to Kill", "release_date": "1996-07-24", "original_language": "en", "original_title": "A Time to Kill", "genre_ids": [80, 18, 53], "backdrop_path": "/b1cfBhhorGYNPbMVT6C9cHwxRr8.jpg", "adult": false, "overview": "A young lawyer defends a black man accused of murdering two men who raped his 10-year-old daughter, sparking a rebirth of the KKK.", "poster_path": "/1q2kU8NMGO446b0QAvVdY2v778x.jpg", "popularity": 16.279}, {"id": 28355, "video": false, "vote_count": 1285, "vote_average": 6.2, "title": "Case 39", "release_date": "2009-08-13", "original_language": "en", "original_title": "Case 39", "genre_ids": [27, 9648, 53], "backdrop_path": "/luTLwjU4WpQR2zBxJAKdK1D7C8T.jpg", "adult": false, "overview": "In her many years as a social worker, Emily Jenkins believes she has seen it all, until she meets 10-year-old Lilith and the girl's cruel parents. Emily's worst fears are confirmed when the parents try to harm the child, and so Emily assumes custody of Lilith while she looks for a foster family. However, Emily soon finds that dark forces surround the seemingly innocent girl, and the more she tries to protect Lilith, the more horrors she encounters.", "poster_path": "/xSyj4F1UVtAXhqSGpNCZRaBsKAJ.jpg", "popularity": 14.324}, {"adult": false, "backdrop_path": "/4UIjazRJV5Q2D7gYg9NS1BGiFdU.jpg", "genre_ids": [80, 18, 53, 9648], "id": 1073, "original_language": "en", "original_title": "Arlington Road", "overview": "Threats from sinister foreign nationals aren't the only thing to fear. Bedraggled college professor Michael Faraday has been vexed (and increasingly paranoid) since his wife's accidental death in a botched FBI operation. But all that takes a backseat when a seemingly all-American couple set up house next door.", "poster_path": "/jMwDRI4qu5FrSAzf7BfNveuRVf9.jpg", "release_date": "1999-03-19", "title": "Arlington Road", "video": false, "vote_average": 7.1, "vote_count": 521, "popularity": 13.099}, {"id": 313922, "video": false, "vote_count": 1485, "vote_average": 6.8, "title": "Green Room", "release_date": "2016-04-15", "original_language": "en", "original_title": "Green Room", "genre_ids": [80, 27, 53], "backdrop_path": "/w5TW2cLJknpWRYjmyuwfsQ1jFDA.jpg", "adult": false, "overview": "A punk rock band becomes trapped in a secluded venue after finding a scene of violence. For what they saw, the band themselves become targets of violence from a gang of white power skinheads, who want to eliminate all evidence of the crime.", "poster_path": "/sTlPvjdQrrv5cLH410aMlSxqi0x.jpg", "popularity": 12.641}, {"adult": false, "backdrop_path": "/2zh06EWekQWzlxa4jpFKRuXEtgf.jpg", "genre_ids": [80, 18, 28, 53], "id": 9411, "original_language": "en", "original_title": "Fallen", "overview": "Homicide detective John Hobbes witnesses the execution of serial killer Edgar Reese. Soon after the execution the killings start again, and they are very similar to Reese's style.", "poster_path": "/v66GrbKcl1babq8BebUff0MI3m4.jpg", "release_date": "1998-01-16", "title": "Fallen", "video": false, "vote_average": 6.8, "vote_count": 674, "popularity": 15.448}, {"adult": false, "backdrop_path": "/qqdVRlVCvVWdmSBYrEHwQuC3GBd.jpg", "genre_ids": [27, 53], "id": 371608, "original_language": "en", "original_title": "The Strangers: Prey at Night", "overview": "A family\u2019s road trip takes a dangerous turn when they arrive at a secluded mobile home park to stay with some relatives and find it mysteriously deserted. Under the cover of darkness, three masked psychopaths pay them a visit to test the family\u2019s every limit as they struggle to survive.", "poster_path": "/vdxLpPsZkPZdFrREp7eSeSzcimj.jpg", "release_date": "2018-03-07", "title": "The Strangers: Prey at Night", "video": false, "vote_average": 5.4, "vote_count": 758, "popularity": 16.815}], "total_pages": 301, "total_results": 6013}, "recommendations": {"page": 1, "results": [{"adult": false, "backdrop_path": null, "genre_ids": [27], "id": 114196, "original_language": "en", "original_title": "Shirome", "overview": "Horror mockumentary about a school haunted by a wish-granting ghost that drags people off into hell if it deems their wish to be impure.", "poster_path": "/5d6tclD2m8SBpaFZ6N1UipiQ0Ok.jpg", "release_date": "2010-08-13", "title": "Shirome", "video": false, "vote_average": 4.6, "vote_count": 8, "popularity": 2.305}, {"adult": false, "backdrop_path": null, "genre_ids": [27, 53], "id": 40966, "original_language": "ja", "original_title": "\u7d76\u5bfe\u6050\u6016 Pray \u30d7\u30ec\u30a4", "overview": "Our story begins with two losers, Mitsuru and Maki, driving down the road with a drugged and kidnapped little girl in the back of their car. They owe lots of yen for drugs and a kidnapping scheme seemed to only possible way to get the money. The problem is, that when they call to make ransom demands, the people state that their daughter died a year ago, so who the hell do they have in their custody? The kidnappers are holed up in an old school, turns out it was the school that Mitsuru used to go to and it's now abandoned. Or, SEEMINGLY abandoned.", "poster_path": "/tGLbSF2LMIhIS7hi8E73PPN3ac6.jpg", "release_date": "2005-10-15", "title": "Pray", "video": false, "vote_average": 5.0, "vote_count": 7, "popularity": 1.822}, {"adult": false, "backdrop_path": "/906MJ0zgOOvkMyxwQvuFQODNm2n.jpg", "genre_ids": [27], "id": 118315, "original_language": "ja", "original_title": "Okaruto", "overview": "Koji Shiraishi is interested in strange indiscriminate murder at a sightseeing resort. He goes behind the camera to investigate the circumstances surrounding strange occurrences and interview the survivors.", "poster_path": "/kj3Dwg9Dr4buaNeWQuJGQyBnmO1.jpg", "release_date": "2009-02-28", "title": "Occult", "video": false, "vote_average": 6.7, "vote_count": 15, "popularity": 1.24}, {"adult": false, "backdrop_path": "/a95awAXYqM7FqBqMBgYB4PYOYqG.jpg", "genre_ids": [27, 14], "id": 225666, "original_language": "en", "original_title": "Karuto", "overview": "Three female idols appear on a television show to investigate an exorcism. An exorcist with psychic powers named Unsui claims that the show\u2019s subjects, the Kaneda family, are cursed by a demon that\u2019s too powerful for him to banish on his own, so he calls in a fellow exorcist to help. Soon, a reckless ghost hunter enters the fray as the three idols witness a series of terrifying events.", "poster_path": "/aRF9e7GYIZO9oNos54MPIcB0Zc9.jpg", "release_date": "2013-04-04", "title": "Cult", "video": false, "vote_average": 5.1, "vote_count": 17, "popularity": 2.935}], "total_pages": 1, "total_results": 4}, "credits": {"cast": [{"cast_id": 1, "character": "", "credit_id": "52fe493a9251416c910a6c05", "gender": 0, "id": 555020, "name": "Maiko Asano", "order": 0, "profile_path": null}, {"cast_id": 2, "character": "", "credit_id": "52fe493a9251416c910a6c09", "gender": 2, "id": 20341, "name": "Makoto Ashikawa", "order": 1, "profile_path": "/lOcFd8QSCXMHP727uPRQX2oFZ2b.jpg"}, {"cast_id": 3, "character": "Shogo", "credit_id": "52fe493a9251416c910a6c0d", "gender": 2, "id": 121797, "name": "Ryuta Sato", "order": 2, "profile_path": "/3ksWC53ryoLmNHsVCAVG7utuwME.jpg"}, {"cast_id": 6, "character": "", "credit_id": "569ff1ad92514137d600301e", "gender": 2, "id": 1014998, "name": "Masaki Miura", "order": 3, "profile_path": "/sMlpUfSwYMFoN8JGO9L2NxSRlLG.jpg"}, {"cast_id": 7, "character": "", "credit_id": "569ff1cfc3a36858c300a82b", "gender": 0, "id": 67089, "name": "Mai Takahashi", "order": 4, "profile_path": null}, {"cast_id": 8, "character": "", "credit_id": "569ff1eec3a36858cb009d31", "gender": 2, "id": 237359, "name": "Mansaku Ikeuchi", "order": 5, "profile_path": "/hEAhYQm02GKyBVfzj8P8c6Fgwig.jpg"}, {"cast_id": 9, "character": "", "credit_id": "569ff2079251415e5e00aa0f", "gender": 0, "id": 228075, "name": "Hijiri Kojima", "order": 6, "profile_path": "/3s6nAw7C37uJRtIuOtYWzD0Gplo.jpg"}], "crew": [{"credit_id": "52fe493a9251416c910a6c19", "department": "Directing", "gender": 2, "id": 71640, "job": "Director", "name": "Yoshihiro Nakamura", "profile_path": "/thBczkN1WMvrVh9TIYyPrFO5IH2.jpg"}, {"credit_id": "52fe493a9251416c910a6c13", "department": "Writing", "gender": 2, "id": 71640, "job": "Writer", "name": "Yoshihiro Nakamura", "profile_path": "/thBczkN1WMvrVh9TIYyPrFO5IH2.jpg"}, {"credit_id": "58a74ba39251417900000d4e", "department": "Sound", "gender": 0, "id": 1109006, "job": "Music", "name": "Ky\u00f4 Nakanishi", "profile_path": null}, {"credit_id": "58a74bcbc3a36850da000cf2", "department": "Production", "gender": 0, "id": 1716369, "job": "Executive Producer", "name": "Fumiaki Furuya", "profile_path": null}, {"credit_id": "58a74baf9251417936000cbe", "department": "Crew", "gender": 0, "id": 1759944, "job": "Cinematography", "name": "Akihiro Kawamura", "profile_path": null}, {"credit_id": "58a74bb9c3a36850d2000c73", "department": "Crew", "gender": 0, "id": 1759945, "job": "Cinematography", "name": "Nouaki Sasaki", "profile_path": null}, {"credit_id": "58a74be592514178fc000e07", "department": "Production", "gender": 0, "id": 1759946, "job": "Supervising Producer", "name": "Satoshi Komatsu", "profile_path": null}]}}