{"adult": false, "backdrop_path": "/ogtSEZ8Uwia2566CZ35K3EP9r1L.jpg", "belongs_to_collection": null, "budget": 1000000, "genres": [{"id": 35, "name": "Comedy"}], "homepage": "http://www.goffkellam.com/girlplay", "id": 85430, "imdb_id": "tt0416773", "original_language": "en", "original_title": "Girl Play", "overview": "Two real-life lesbian actresses meet by chance when they are cast as lovers in a local stage play, and end up actually falling in love. Robin, who is married to her girlfriend for half a dozen years, and Lacie, someone who never had a lasting relationship, are both cast to play lesbian lovers in a Los Angeles stage play. Innocently, the stage director, Gabriel runs the actresses through a series of rehearsals designed to \"bring out the intimacy\" in each performer. Soon the two women find themselves increasingly and undeniably attracted to each other and overcome with desire. They must ask themselves whether this relationship is manufactured, created for the sake of the \"girl play\", or is true love.", "popularity": 6.873, "poster_path": "/oEejxS9f8TslRSDSQYduFEaTlfC.jpg", "production_companies": [{"id": 39820, "logo_path": null, "name": "Goff-Kellam Productions", "origin_country": ""}], "production_countries": [{"iso_3166_1": "US", "name": "United States of America"}], "release_date": "2004-07-11", "revenue": 0, "runtime": 80, "spoken_languages": [{"iso_639_1": "en", "name": "English"}], "status": "Released", "tagline": "Two Women, One Love, Dozens Of Stories", "title": "Girl Play", "video": false, "vote_average": 6.3, "vote_count": 7, "keywords": {"keywords": [{"id": 9833, "name": "lesbian relationship"}, {"id": 187056, "name": "woman director"}]}, "similar": {"page": 1, "results": [{"adult": false, "backdrop_path": "/rf6G51j0SZL0tP57I8gnqHTRFEr.jpg", "genre_ids": [35, 18, 10749], "id": 273153, "original_language": "fr", "original_title": "La belle saison", "overview": "In 1971, Carole and Delphine meet and fall in love in Paris. When Carole follows Delphine back to her family farm in Limousin, the two find lesbianism and feminism are not as easy in the countryside.", "poster_path": "/evvAkNMO5VJiy5qIo1Hu7fUfvVI.jpg", "release_date": "2015-08-19", "title": "Summertime", "video": false, "vote_average": 6.6, "vote_count": 162, "popularity": 15.434}, {"adult": false, "backdrop_path": "/fZ8oFcREAr6wgWcXISGql0xyxjB.jpg", "genre_ids": [35, 18], "id": 39781, "original_language": "en", "original_title": "The Kids Are All Right", "overview": "Two women, Nic and Jules, brought a son and daughter into the world through artificial insemination. When one of their children reaches age, both kids go behind their mothers' backs to meet with the donor. Life becomes so much more interesting when the father, two mothers and children start to become attached to each other.", "poster_path": "/fPDeK4MmoGfi2X0oWZev7LrbMqM.jpg", "release_date": "2010-07-09", "title": "The Kids Are All Right", "video": false, "vote_average": 6.6, "vote_count": 923, "popularity": 12.703}, {"adult": false, "backdrop_path": "/s12HEmmkJfI2mjltI61hGm5kubD.jpg", "genre_ids": [35, 18, 10749], "id": 20770, "original_language": "en", "original_title": "But I'm a Cheerleader", "overview": "Megan is an all-American girl. A cheerleader. She has a boyfriend. But Megan doesn't like kissing her boyfriend very much. And she's pretty touchy with her cheerleader friends. Her conservative parents worry that she must be a lesbian and send her off to \"sexual redirection\" school, where she must, with other lesbians and gays learn how to be straight.", "poster_path": "/eDGH7CHSdkrYcuUJV1e0WS9DlQL.jpg", "release_date": "1999-12-09", "title": "But I'm a Cheerleader", "video": false, "vote_average": 6.8, "vote_count": 246, "popularity": 10.067}, {"adult": false, "backdrop_path": "/g3LYarEY9LjB28Ct2trwFN72gqZ.jpg", "genre_ids": [35], "id": 437557, "original_language": "en", "original_title": "Blockers", "overview": "When three parents discover their daughters\u2019 pact to lose their virginity at prom, they launch a covert one-night operation to stop the teens from sealing the deal.", "poster_path": "/uvlUQXg0AlpGzKukO11K7QtW3Yu.jpg", "release_date": "2018-03-14", "title": "Blockers", "video": false, "vote_average": 6.2, "vote_count": 1153, "popularity": 18.075}, {"adult": false, "backdrop_path": "/cADbqsIoiDW7X3Myg9nz8eAuno5.jpg", "genre_ids": [18, 10749], "id": 10818, "original_language": "fr", "original_title": "Naissance des pieuvres", "overview": "Set during a sultry summer in a French suburb, Marie is desperate to join the local pool's synchronized swimming team, but is her interest solely for the sake of sport or for a chance to get close to Floriane, the bad girl of the team? Sciamma, and the two leads, capture the uncertainty of teenage sexuality with a sympathetic eye in this delicate drama of the angst of coming-of-age.", "poster_path": "/4jajELYrR4Xmv3CVoKnukRnALa2.jpg", "release_date": "2007-05-17", "title": "Water Lilies", "video": false, "vote_average": 6.1, "vote_count": 119, "popularity": 10.744}, {"adult": false, "backdrop_path": "/gZeJziVigmRqbkEZwKAtSqlLQ6s.jpg", "genre_ids": [18, 10749], "id": 370663, "original_language": "en", "original_title": "Below Her Mouth", "overview": "An unexpected affair quickly escalates into a heart-stopping reality for two women whose passionate connection changes their lives forever.", "poster_path": "/nTGbq37hYLuNy7YgMg0gVLma0NS.jpg", "release_date": "2016-09-10", "title": "Below Her Mouth", "video": false, "vote_average": 6.2, "vote_count": 456, "popularity": 22.676}, {"adult": false, "backdrop_path": "/knczzNAjBXzSYkeWxoT1u9VNmjR.jpg", "genre_ids": [10749, 18], "id": 258480, "original_language": "en", "original_title": "Carol", "overview": "In 1950s New York, a department-store clerk who dreams of a better life falls for an older, married woman.", "poster_path": "/AbKa7ANxmui0Jmhh7gV7OSELKIL.jpg", "release_date": "2015-11-20", "title": "Carol", "video": false, "vote_average": 7.4, "vote_count": 2182, "popularity": 14.185}, {"id": 520172, "video": false, "vote_count": 0, "vote_average": 0.0, "title": "Happiest Season", "release_date": "2020-11-20", "original_language": "en", "original_title": "Happiest Season", "genre_ids": [35, 10749], "backdrop_path": null, "adult": false, "overview": "A young woman's plans to propose to her girlfriend while at her family's annual holiday party are upended when she discovers her partner hasn't yet come out to her conservative parents.", "poster_path": null, "popularity": 6.436}, {"id": 9813, "video": false, "vote_count": 128, "vote_average": 6.1, "title": "The Quiet", "release_date": "2005-09-12", "original_language": "en", "original_title": "The Quiet", "genre_ids": [18, 53], "backdrop_path": "/6eyWAZA4CEidZW1xXnQ4vlYBXTP.jpg", "adult": false, "overview": "After her widowed father dies, deaf teenager Dot moves in with her godparents, Olivia and Paul Deer. The Deers' daughter, Nina, is openly hostile to Dot, but that does not prevent her from telling her secrets to her silent stepsister, including the fact that she wants to kill her lecherous father.", "poster_path": "/GEqIE9YlmygHVUfS64LW2cwAAM.jpg", "popularity": 13.948}, {"id": 434714, "video": false, "vote_count": 32, "vote_average": 7.5, "title": "My Days of Mercy", "release_date": "2019-07-11", "original_language": "en", "original_title": "My Days of Mercy", "genre_ids": [18, 10749], "backdrop_path": "/7Lbzq33nMMIQtAfZAmSqG6ibLSg.jpg", "adult": false, "overview": "The daughter of a man on death row falls in love with a woman on the opposing side of her family's political cause.", "poster_path": "/adIPKAoKnKL9vCTkvfF4J9ZA7Ln.jpg", "popularity": 6.928}, {"id": 295151, "video": false, "vote_count": 539, "vote_average": 6.2, "title": "Let It Snow", "release_date": "2019-11-08", "original_language": "en", "original_title": "Let It Snow", "genre_ids": [35, 10749], "backdrop_path": "/4oSRQ03nJjl8sZAPgIXgi51XZva.jpg", "adult": false, "overview": "When a huge blizzard (that doesn't show signs of stopping) hits, Gracetown is completely snowed in. But even though it's cold outside, things are heating up inside, proving that Christmas is magical when it comes to love.", "poster_path": "/rEVu3E1OhMPJeCAn9a6QLyVhZDj.jpg", "popularity": 16.57}, {"adult": false, "backdrop_path": "/k8H7ye6Sab7OrDJoo8Qp5WFGHGk.jpg", "genre_ids": [35, 10749, 18], "id": 244264, "original_language": "en", "original_title": "Laggies", "overview": "Overeducated and underemployed, 28 year old Megan is in the throes of a quarterlife crisis. Squarely into adulthood with no career prospects, no particular motivation to think about her future and no one to relate to, Megan is comfortable lagging a few steps behind - while her friends check off milestones and celebrate their new grown-up status. When her high-school sweetheart proposes, Megan panics and- given an unexpected opportunity to escape for a week - hides out in the home of her new friend, 16-year old Annika and Annika's world-weary single dad Craig.", "poster_path": "/dNcoXoRC7JHiqbe7k5Ufo6syiPP.jpg", "release_date": "2014-09-25", "title": "Laggies", "video": false, "vote_average": 6.1, "vote_count": 787, "popularity": 9.883}, {"adult": false, "backdrop_path": "/txtRue33MaXv5HQpTiHPOmOcDxE.jpg", "genre_ids": [35, 10749], "id": 11631, "original_language": "en", "original_title": "Mamma Mia!", "overview": "An independent, single mother who owns a small hotel on a Greek island is about to marry off the spirited young daughter she's raised alone. But, the daughter has secretly invited three of her mother's ex-lovers in the hopes of finding her biological father.", "poster_path": "/gOm2iMMbC6EonrFzmSQ8xvCa4Ei.jpg", "release_date": "2008-07-02", "title": "Mamma Mia!", "video": false, "vote_average": 6.9, "vote_count": 4120, "popularity": 16.652}, {"adult": false, "backdrop_path": "/npClMhFGn4XUkwu6coq5oKAEu6L.jpg", "genre_ids": [35, 10749, 18], "id": 634, "original_language": "en", "original_title": "Bridget Jones's Diary", "overview": "A chaotic Bridget Jones meets a snobbish lawyer, and he soon enters her world of imperfections.", "poster_path": "/ym6kjFFZg6boC0QHBVw6hqJLbxv.jpg", "release_date": "2001-04-13", "title": "Bridget Jones's Diary", "video": false, "vote_average": 6.7, "vote_count": 3079, "popularity": 16.678}, {"adult": false, "backdrop_path": "/baYbbMtKRDoDWYJeVWkbygAvAj8.jpg", "genre_ids": [18, 10749], "id": 31216, "original_language": "en", "original_title": "I Can't Think Straight", "overview": "I CAN'T THINK STRAIGHT is a 2007 romance movie about a London-based Jordanian of Palestinian descent, Tala, who is preparing for an elaborate wedding. A turn of events causes her to have an affair and subsequently fall in love with another woman, Leyla, a British Indian.", "poster_path": "/1kapga6rkM5wNuQBYw7sdE42CrA.jpg", "release_date": "2008-06-01", "title": "I Can't Think Straight", "video": false, "vote_average": 7.6, "vote_count": 109, "popularity": 8.749}, {"adult": false, "backdrop_path": "/by0WtpJ5UNxOy6ytIfPPTasbRoB.jpg", "genre_ids": [28, 12, 35, 18, 10751, 10402, 10749], "id": 17130, "original_language": "en", "original_title": "Crossroads", "overview": "Three friends get together and bury a box making a pact to open it at midnight at their high school graduation. In the little town in Georgia that they live in, things soon change. One is little miss perfect, one is an engaged prom queen, and the other is a pregnant outcast. The night of graduation, they open the box and they strike up a conversation. All of a sudden, one brings up the topic of her going to Los Angeles for a record contract audition. They all decide to go together and they leave. With a little money, they set out on the road with a guy named Ben. When one of them tells the other a rumor that he might be a homicidal maniac they are all scared of him. When they reach LA, Lucy falls in love with Ben and against her father's wishes, she stays and she goes to the audition.", "poster_path": "/egIs4cWxn0iBErFKrQ7STckjj49.jpg", "release_date": "2002-02-15", "title": "Crossroads", "video": false, "vote_average": 5.0, "vote_count": 334, "popularity": 12.973}, {"adult": false, "backdrop_path": "/6tern9vOEwwmkDYC1vRCuO64z0C.jpg", "genre_ids": [10749, 18], "id": 475888, "original_language": "en", "original_title": "Tell It to the Bees", "overview": "Dr. Jean Markham returns to the town she left as a teenager to take over her late father's medical practice. When a school-yard scuffle lands Charlie in her surgery, she invites him to visit the hives in her garden and tell his secrets to the bees, as she once did. The new friendship between the boy and the bee keeper brings his mother Lydia into Jean's world.", "poster_path": "/Rj6zpHhMU1zFW3v28U4PSRSRgP.jpg", "release_date": "2019-05-03", "title": "Tell It to the Bees", "video": false, "vote_average": 6.4, "vote_count": 53, "popularity": 15.113}, {"adult": false, "backdrop_path": "/xOGEw8iywxcFMolV6SF6YdTdJTb.jpg", "genre_ids": [10402, 10749], "id": 52371, "original_language": "nl", "original_title": "LelleBelle", "overview": "19-year old Belle practices playing the violin diligently, but is unable to impart her music with a sensitive undertone. Her life changes when she discovers that sexual desire stimulates passion in her music.", "poster_path": "/nJVPgIq3icZMQ26p5uWIFdUZJfL.jpg", "release_date": "2010-10-08", "title": "LelleBelle", "video": false, "vote_average": 4.7, "vote_count": 41, "popularity": 13.931}, {"adult": false, "backdrop_path": "/uJTwAnWnbHZSUTCuouAbNaCHXEU.jpg", "genre_ids": [35, 10749], "id": 19316, "original_language": "en", "original_title": "Saving Face", "overview": "A Chinese-American lesbian and her traditionalist mother are reluctant to go public with secret loves that clash against cultural expectations.", "poster_path": "/7upctoAqpN7OkTUsIqD3EApv8fx.jpg", "release_date": "2004-09-12", "title": "Saving Face", "video": false, "vote_average": 7.2, "vote_count": 72, "popularity": 9.958}, {"adult": false, "backdrop_path": "/dvQDRfv3qvfHNnVAR57ouVsuErf.jpg", "genre_ids": [10749, 18], "id": 28031, "original_language": "en", "original_title": "If These Walls Could Talk 2", "overview": "The stories of three lesbian couples -- who live in the same house at different periods of time -- who are at a crossroads in their lives. In 1961, Edith loses her lover, Abby, to a stroke. Linda and Amy struggle with feminist issues in 1972. And, in 2000, Kal and Fran try to have a baby with the help of sperm donor.", "poster_path": "/xs7ODbmYQXCDhvXNvz5tF17T59H.jpg", "release_date": "2000-03-05", "title": "If These Walls Could Talk 2", "video": false, "vote_average": 7.1, "vote_count": 55, "popularity": 8.062}], "total_pages": 1331, "total_results": 26601}, "recommendations": {"page": 1, "results": [{"adult": false, "backdrop_path": null, "genre_ids": [18], "id": 192084, "original_language": "en", "original_title": "Froid comme l'\u00e9t\u00e9", "overview": "A female detective investigates the case of a young mother whose infant left behind has died.", "poster_path": "/mX7vd8nVl9DBi4JMczV9N031MLe.jpg", "release_date": "2002-10-02", "title": "Cold as Summer", "video": false, "vote_average": 5.5, "vote_count": 4, "popularity": 1.4}, {"adult": false, "backdrop_path": "/oeR7sJDlHIpYLEz5G0olRzLJsjx.jpg", "genre_ids": [10749, 18], "id": 125360, "original_language": "en", "original_title": "Julie Johnson", "overview": "A New Jersey housewife is dissatisfied with her everyday life because she is smarter than she or anyone else knows. While taking a computer class, Julie discovers her abilities and finds the courage to make dramatic life changes. This is a story of realizing one's potential and being willing to turn one's life upside down to take a chance on finding happiness. Claire, Julie's best friend, goes along with Julie's secret quest and eventually moves in with her. Both women are on a search to realize their dreams and come to terms with their love for each other.", "poster_path": "/3bYaqHgwFIR0wCbGPFlTcQVLMEr.jpg", "release_date": "2001-01-01", "title": "Julie Johnson", "video": false, "vote_average": 7.8, "vote_count": 6, "popularity": 3.563}, {"adult": false, "backdrop_path": null, "genre_ids": [18], "id": 123624, "original_language": "en", "original_title": "Die Jungfrauenmaschine", "overview": "A reporter who goes to San Francisco to write about romance has an affair with a stripper from an all-women's club.", "poster_path": "/iix6rMSQaDSgA6V6ePBitl9GJO0.jpg", "release_date": "1988-09-08", "title": "Virgin Machine", "video": false, "vote_average": 5.5, "vote_count": 4, "popularity": 2.74}, {"id": 53244, "video": false, "vote_count": 15, "vote_average": 6.5, "title": "Sex Is Comedy", "release_date": "2002-06-05", "original_language": "fr", "original_title": "Sex is Comedy", "genre_ids": [35, 18], "backdrop_path": "/50iGi9wTy2MzgVHKbibbUqnR6RE.jpg", "adult": false, "overview": "A director struggles with a difficult sex scene between a young actor and actress who can't stand one another. Aided by her loyal assistant, she is hell-bent on getting the scene right without compromise.", "poster_path": "/os2f4Ocpnkhed5QMxnY1rxcs0DI.jpg", "popularity": 3.402}, {"id": 43088, "video": false, "vote_count": 17, "vote_average": 7.0, "title": "Spider Lilies", "release_date": "2007-03-30", "original_language": "zh", "original_title": "\u523a\u9752", "genre_ids": [18, 10749], "backdrop_path": "/vRUl4dj64GJfQdhRyJWMCQ6bkML.jpg", "adult": false, "overview": "When Jade, a web-cam girl, visits Takeko's tattoo studio she becomes entranced with the image of the spider lily and with Takeko as well. In order to get closer to the object of her desire, Jade asks Takeko to give her the same lily tattoo, challenging Takeko's monastic existence and opening up memories which threaten to tear the two women apart.", "poster_path": "/heBEwl82EUJcsD2nmj2ZiAjX9Zg.jpg", "popularity": 8.11}], "total_pages": 1, "total_results": 5}, "credits": {"cast": [{"cast_id": 1000, "character": "Lacie", "credit_id": "52fe493f9251416c910a7221", "gender": 0, "id": 932045, "name": "Lacie Harmon", "order": 0, "profile_path": null}, {"cast_id": 1001, "character": "Robin", "credit_id": "52fe493f9251416c910a7225", "gender": 0, "id": 932046, "name": "Robin Greenspan", "order": 1, "profile_path": null}, {"cast_id": 1006, "character": "Robin's Mother", "credit_id": "547a1b73c3a36848e300070f", "gender": 1, "id": 9292, "name": "Mink Stole", "order": 2, "profile_path": "/ew1Ro2VvDR1YjaJAvO7ZjTNe7oK.jpg"}, {"cast_id": 1007, "character": "Gabriel", "credit_id": "5cef790b0e0a266a4dc9e992", "gender": 2, "id": 6844, "name": "Dom DeLuise", "order": 3, "profile_path": "/u1DOOocPOgaiCucbbbxPkdOTuo8.jpg"}, {"cast_id": 1008, "character": "", "credit_id": "5d581c784bc38b195427cb81", "gender": 1, "id": 2450, "name": "Lauren Maher", "order": 4, "profile_path": "/3OY2vOsRT5OnHANjWuWDkHseuR0.jpg"}], "crew": [{"credit_id": "52fe493f9251416c910a722b", "department": "Directing", "gender": 0, "id": 994163, "job": "Director", "name": "Lee Friedlander", "profile_path": null}, {"credit_id": "547a1b03c3a36803df000803", "department": "Writing", "gender": 0, "id": 932046, "job": "Writer", "name": "Robin Greenspan", "profile_path": null}, {"credit_id": "547a1b36c3a368054c0000b0", "department": "Writing", "gender": 0, "id": 932045, "job": "Writer", "name": "Lacie Harmon", "profile_path": null}, {"credit_id": "547a1b53c3a3685c42002a3e", "department": "Writing", "gender": 0, "id": 994163, "job": "Writer", "name": "Lee Friedlander", "profile_path": null}]}}