{"adult": false, "backdrop_path": "/aavs9NWibzbUmuYsEPc7cyit9i5.jpg", "belongs_to_collection": null, "budget": 0, "genres": [{"id": 18, "name": "Drama"}, {"id": 27, "name": "Horror"}, {"id": 878, "name": "Science Fiction"}], "homepage": null, "id": 85566, "imdb_id": "tt1403987", "original_language": "en", "original_title": "Rage", "overview": "A thirty something man who lives in a suburb just outside of Portland says goodbye to his beautiful and loving wife and heads into town. There he unintentionally provokes the wrath of a mysterious motorcyclist. The confrontation between the two, sets in motion a day long battle. Beginning in the form of harmless taunts then quickly escalating into something more serious and then into something unimaginable.", "popularity": 1.914, "poster_path": "/89Dk3xTEBVhayJzIJgfCsXpavIr.jpg", "production_companies": [], "production_countries": [], "release_date": "2010-05-01", "revenue": 0, "runtime": 85, "spoken_languages": [], "status": "Released", "tagline": "", "title": "Rage", "video": false, "vote_average": 5.0, "vote_count": 5, "keywords": {"keywords": [{"id": 6951, "name": "biker"}, {"id": 15295, "name": "confrontation"}]}, "similar": {"page": 1, "results": [{"adult": false, "backdrop_path": "/7ZyiMee2s7kARJ0IvJOIgTyvmdp.jpg", "genre_ids": [12, 28, 53, 878], "id": 9659, "original_language": "en", "original_title": "Mad Max", "overview": "In a postapocalyptic future, jaded cop Max Rockatansky (Mel Gibson) is ready to retire. But his world is shattered when a malicious gang murders his family as an act of retaliation, forcing a devastated Max to hit the open road seeking vengeance. As he travels the Australian outback's empty stretches of highway, he tours the bloodstained battlegrounds ruled by marauding bikers who feed on violence.", "poster_path": "/5LrI4GiCSrChgkdskVZiwv643Kg.jpg", "release_date": "1979-04-12", "title": "Mad Max", "video": false, "vote_average": 6.7, "vote_count": 2363, "popularity": 25.432}, {"adult": false, "backdrop_path": null, "genre_ids": [18, 28, 53], "id": 189260, "original_language": "en", "original_title": "Savages from Hell", "overview": "When the leader of a vicious motorcycle gang finds a farmworker's son flirting with his woman, he beats the boy senseless, then kidnaps the farmworker's daughter.", "poster_path": "/l5hloLDfqz0k3jJ1yZ6tIsBcmbq.jpg", "release_date": "1968-04-01", "title": "Savages from Hell", "video": false, "vote_average": 5.0, "vote_count": 2, "popularity": 1.021}, {"id": 923, "video": false, "vote_count": 1067, "vote_average": 7.5, "title": "Dawn of the Dead", "release_date": "1978-09-02", "original_language": "en", "original_title": "Dawn of the Dead", "genre_ids": [27], "backdrop_path": "/vCD9mRgSY4HuoSowm8JO4tm2mhj.jpg", "adult": false, "overview": "During an ever-growing epidemic of zombies that have risen from the dead, two Philadelphia SWAT team members, a traffic reporter, and his television-executive girlfriend seek refuge in a secluded shopping mall.", "poster_path": "/yK8BmYEvd0IPpDXL6zzlTA2geDf.jpg", "popularity": 11.925}, {"id": 17689, "video": false, "vote_count": 227, "vote_average": 6.7, "title": "The Gauntlet", "release_date": "1977-12-21", "original_language": "en", "original_title": "The Gauntlet", "genre_ids": [28, 80, 18, 53], "backdrop_path": "/AqLSm9sl2Oe46XvqhoRBhKI3wXi.jpg", "adult": false, "overview": "Phoenix cop Ben Shockley is well on his way to becoming a derelict when he is assigned to transport a witness named Gus Mally from Vegas. Mally turns out to be a belligerent prostitute with mob ties and incriminating information regarding a high-placed figure.", "poster_path": "/vojzvKay2QT2eGwvfGBkFfJQlcj.jpg", "popularity": 10.101}, {"id": 71676, "video": false, "vote_count": 2238, "vote_average": 4.8, "title": "Ghost Rider: Spirit of Vengeance", "release_date": "2011-12-10", "original_language": "en", "original_title": "Ghost Rider: Spirit of Vengeance", "genre_ids": [28, 14, 53], "backdrop_path": "/9w9UtpeRPK797GzT7xQXuVRSUSj.jpg", "adult": false, "overview": "When the devil resurfaces with aims to take over the world in human form, Johnny Blaze reluctantly comes out of hiding to transform into the flame-spewing supernatural hero Ghost Rider -- and rescue a 10-year-old boy from an unsavory end.", "poster_path": "/tqwWzmp5ISh64SJbNKQ9fyItnDj.jpg", "popularity": 18.398}, {"id": 11199, "video": false, "vote_count": 1336, "vote_average": 5.8, "title": "Wild Hogs", "release_date": "2007-03-02", "original_language": "en", "original_title": "Wild Hogs", "genre_ids": [28, 12, 35], "backdrop_path": "/9tayGegNltU7dIwa6ZGFuEFofbP.jpg", "adult": false, "overview": "Restless and ready for adventure, four suburban bikers leave the safety of their subdivision and head out on the open road. But complications ensue when they cross paths with an intimidating band of New Mexico bikers known as the Del Fuegos.", "poster_path": "/7uxAapp2ZITmQmjdyodFgCAINAG.jpg", "popularity": 16.63}, {"adult": false, "backdrop_path": "/ysLIi9nzMbUqi4dQh3tqblUb27o.jpg", "genre_ids": [878, 28, 27, 53, 12, 14], "id": 36648, "original_language": "en", "original_title": "Blade: Trinity", "overview": "For years, Blade has fought against the vampires in the cover of the night. But now, after falling into the crosshairs of the FBI, he is forced out into the daylight, where he is driven to join forces with a clan of human vampire hunters he never knew existed\u2014The Nightstalkers. Together with Abigail and Hannibal, two deftly trained Nightstalkers, Blade follows a trail of blood to the ancient creature that is also hunting him\u2014the original vampire, Dracula.", "poster_path": "/4WinsdHQBdh5aTt7Bd7T7dbUXbb.jpg", "release_date": "2004-12-08", "title": "Blade: Trinity", "video": false, "vote_average": 5.8, "vote_count": 2278, "popularity": 19.358}, {"adult": false, "backdrop_path": "/nb70B4EXuoegiQ0C5N1fNVHIaYc.jpg", "genre_ids": [12, 18, 36, 53, 10752], "id": 5925, "original_language": "en", "original_title": "The Great Escape", "overview": "The Nazis, exasperated at the number of escapes from their prison camps by a relatively small number of Allied prisoners, relocates them to a high-security 'escape-proof' camp to sit out the remainder of the war. Undaunted, the prisoners plan one of the most ambitious escape attempts of World War II. Based on a true story.", "poster_path": "/qhy4HgUqhEbwQ1ekKTv7yEB3b0e.jpg", "release_date": "1963-06-20", "title": "The Great Escape", "video": false, "vote_average": 8.0, "vote_count": 1359, "popularity": 19.093}, {"adult": false, "backdrop_path": "/zWGAnbxjjwY3xFGuOeR26LGbBlG.jpg", "genre_ids": [27, 53], "id": 238636, "original_language": "en", "original_title": "The Purge: Anarchy", "overview": "One night per year, the government sanctions a 12-hour period in which citizens can commit any crime they wish -- including murder -- without fear of punishment or imprisonment. Leo, a sergeant who lost his son, plans a vigilante mission of revenge during the mayhem. However, instead of a death-dealing avenger, he becomes the unexpected protector of four innocent strangers who desperately need his help if they are to survive the night.", "poster_path": "/l1DRl40x2OWUoPP42v8fjKdS1Z3.jpg", "release_date": "2014-07-17", "title": "The Purge: Anarchy", "video": false, "vote_average": 6.6, "vote_count": 4145, "popularity": 36.766}, {"id": 473149, "video": false, "vote_count": 195, "vote_average": 5.9, "title": "Traffik", "release_date": "2018-04-20", "original_language": "en", "original_title": "Traffik", "genre_ids": [27, 53], "backdrop_path": "/wbk9VvJ8lkUF0ElpfRm3dFIzMJf.jpg", "adult": false, "overview": "A couple off for a romantic weekend in the mountains are accosted by a biker gang. Alone in the mountains, Brea and John must defend themselves against the gang, who will stop at nothing to protect their secrets.", "poster_path": "/e2Z466e9402RFP6wxRMfXYYiJHA.jpg", "popularity": 31.63}, {"id": 2503, "video": false, "vote_count": 4835, "vote_average": 7.4, "title": "The Bourne Ultimatum", "release_date": "2007-08-03", "original_language": "en", "original_title": "The Bourne Ultimatum", "genre_ids": [28, 18, 9648, 53], "backdrop_path": "/6WpDOqkZFmhNJ0rwuLJiZVKlZi1.jpg", "adult": false, "overview": "Bourne is brought out of hiding once again by reporter Simon Ross who is trying to unveil Operation Blackbriar, an upgrade to Project Treadstone, in a series of newspaper columns. Information from the reporter stirs a new set of memories, and Bourne must finally uncover his dark past while dodging The Company's best efforts to eradicate him.", "poster_path": "/fHho6JYYY0nRcETWSoeI19iZsNF.jpg", "popularity": 16.034}, {"id": 460885, "video": false, "vote_count": 794, "vote_average": 6.2, "title": "Mandy", "release_date": "2018-09-13", "original_language": "en", "original_title": "Mandy", "genre_ids": [28, 14, 27, 9648, 53], "backdrop_path": "/mqbAmIiToU2R4VwZGgCqsfy6Yh4.jpg", "adult": false, "overview": "The Shadow Mountains, 1983. Red and Mandy lead a loving and peaceful existence; but when their pine-scented haven is savagely destroyed, Red is catapulted into a phantasmagoric journey filled with bloody vengeance and laced with fire.", "poster_path": "/m0yf7J7HsKeK6E81SMRcX8vx6mH.jpg", "popularity": 12.535}, {"id": 20526, "video": false, "vote_count": 4743, "vote_average": 6.4, "title": "TRON: Legacy", "release_date": "2010-12-10", "original_language": "en", "original_title": "TRON: Legacy", "genre_ids": [28, 12, 878], "backdrop_path": "/6hquJfTEM97bqMekCOPO50SLbzr.jpg", "adult": false, "overview": "Sam Flynn, the tech-savvy and daring son of Kevin Flynn, investigates his father's disappearance and is pulled into The Grid. With the help of a mysterious program named Quorra, Sam quests to stop evil dictator Clu from crossing into the real world.", "poster_path": "/vllvystwQjmXzy5OvBKnGl1JREF.jpg", "popularity": 25.716}, {"adult": false, "backdrop_path": "/kSTvteM3ekuoeO7u7GJtZQkZuom.jpg", "genre_ids": [28, 53, 80], "id": 1948, "original_language": "en", "original_title": "Crank", "overview": "Professional assassin Chev Chelios learns his rival has injected him with a poison that will kill him if his heart rate drops.", "poster_path": "/6RnD3Zfh0tO0cD2vroWyH0F98Ej.jpg", "release_date": "2006-08-31", "title": "Crank", "video": false, "vote_average": 6.6, "vote_count": 2121, "popularity": 21.613}, {"id": 353081, "video": false, "vote_count": 4536, "vote_average": 7.3, "title": "Mission: Impossible - Fallout", "release_date": "2018-07-13", "original_language": "en", "original_title": "Mission: Impossible - Fallout", "genre_ids": [28, 12], "backdrop_path": "/aw4FOsWr2FY373nKSxbpNi3fz4F.jpg", "adult": false, "overview": "When an IMF mission ends badly, the world is faced with dire consequences. As Ethan Hunt takes it upon himself to fulfill his original briefing, the CIA begin to question his loyalty and his motives. The IMF team find themselves in a race against time, hunted by assassins while trying to prevent a global catastrophe.", "poster_path": "/AkJQpZp9WoNdj7pLYSj1L0RcMMN.jpg", "popularity": 47.921}, {"adult": false, "backdrop_path": "/lHZ5H1jd4zVJYr1wfLKBdXYtZ17.jpg", "genre_ids": [12, 28, 53], "id": 714, "original_language": "en", "original_title": "Tomorrow Never Dies", "overview": "A deranged media mogul is staging international incidents to pit the world\u2019s superpowers against each other. Now 007 must take on this evil mastermind in an adrenaline-charged battle to end his reign of terror and prevent global pandemonium.", "poster_path": "/k3eI9q7ISgpDEu2CMwR2s6inJVp.jpg", "release_date": "1997-12-11", "title": "Tomorrow Never Dies", "video": false, "vote_average": 6.2, "vote_count": 1728, "popularity": 28.522}, {"id": 699, "video": false, "vote_count": 908, "vote_average": 6.5, "title": "For Your Eyes Only", "release_date": "1981-06-23", "original_language": "en", "original_title": "For Your Eyes Only", "genre_ids": [28, 12, 53], "backdrop_path": "/hg8ecg8LrR8ChvZh4aMETNUraGA.jpg", "adult": false, "overview": "A British spy ship has sunk and on board was a hi-tech encryption device. James Bond is sent to find the device that holds British launching instructions before the enemy Soviets get to it first.", "poster_path": "/vpZZZ2eq8z4I6PSeGxR2UWNciGG.jpg", "popularity": 18.605}, {"id": 28696, "video": false, "vote_count": 143, "vote_average": 6.8, "title": "The Wild One", "release_date": "1953-12-30", "original_language": "en", "original_title": "The Wild One", "genre_ids": [18], "backdrop_path": "/vyG6G5F4lcYe2qvI3tjWoskxXgZ.jpg", "adult": false, "overview": "The Black Rebels Motorcycle Club ride into the small California town of Wrightsville, eager to raise hell. Brooding gang leader Johnny Strabler takes a liking to Kathie, the daughter of the local watering hole as another club rolls into town.", "poster_path": "/8k8rBk6TS8qrzuyRgOBbDPhP1fR.jpg", "popularity": 10.484}, {"adult": false, "backdrop_path": "/A0gP8vufy0qj4XoyDCznykKGVRu.jpg", "genre_ids": [28, 12, 35], "id": 17169, "original_language": "en", "original_title": "Any Which Way You Can", "overview": "Philo takes part in a bare knuckle fight - as he does - to make some more money than he can earn from his car repair business. He decides to retire from fighting, but when the Mafia come along and arrange another fight, he is pushed into it. A motorcycle gang and an orangutan called Clyde all add to the 'fun'.", "poster_path": "/fGP1rB0MapjDyR0lCjYa6AhjQ1i.jpg", "release_date": "1980-12-17", "title": "Any Which Way You Can", "video": false, "vote_average": 6.0, "vote_count": 161, "popularity": 12.421}, {"adult": false, "backdrop_path": "/q9y3nnAAaQMjNHUYSlIypWeEo4F.jpg", "genre_ids": [18], "id": 9912, "original_language": "en", "original_title": "The World's Fastest Indian", "overview": "The life story of New Zealander Burt Munro, who spent years building a 1920 Indian motorcycle -- a bike which helped him set the land-speed world record at Utah's Bonneville Salt Flats in 1967.", "poster_path": "/h3xDXEEjppiyuRtMv6Cy5bcMTrG.jpg", "release_date": "2005-10-12", "title": "The World's Fastest Indian", "video": false, "vote_average": 7.5, "vote_count": 321, "popularity": 13.703}], "total_pages": 23, "total_results": 447}, "recommendations": {"page": 1, "results": [{"adult": false, "backdrop_path": "/AgCH0twhcyxdw7c0WyF9WXUEvfL.jpg", "genre_ids": [27], "id": 339087, "original_language": "en", "original_title": "World War Dead: Rise of the Fallen", "overview": "To celebrate the centenary of WW1, a TV Documentary team travels to the Somme to put together a ratings smash about new mysteries relating to the famous battle. However, what they unearth is far from a new story of those that died 100 years ago \u2013 but an army of the undead and a brand new war.", "poster_path": "/sM0Xzm2oO43xc3vZGKICBUXXCGk.jpg", "release_date": "2015-05-04", "title": "World War Dead: Rise of the Fallen", "video": false, "vote_average": 4.7, "vote_count": 6, "popularity": 3.115}, {"adult": false, "backdrop_path": "/qFDZo8hy99OfIA2Z6MiB59sdyTP.jpg", "genre_ids": [28, 80, 27], "id": 286491, "original_language": "fr", "original_title": "The Devil's Mile", "overview": "A relentlessly-paced hybrid of gritty crime thriller and Lovecraftian supernatural horror, \"The Devil's Mile\" follows a trio of kidnappers who take an ill-advised detour en route to deliver their hostages - two teenage girls - to their mysterious and powerful employer. When they accidentally kill one of the girls during a botched escape attempt, their simmering mistrust explodes into shocking violence. But what they thought was their worst case scenario is only the beginning, as they are engulfed by the hellish forces that haunt the road - a road they realize they may never escape. Now captors and captive must fight together to escape the monstrous forces pursuing them and somehow survive ...", "poster_path": "/5zvJE1UoTcft8h07sEolsSvdDsh.jpg", "release_date": "2014-07-26", "title": "The Devil's Mile", "video": false, "vote_average": 3.4, "vote_count": 6, "popularity": 1.15}, {"adult": false, "backdrop_path": null, "genre_ids": [27, 53], "id": 136801, "original_language": "en", "original_title": "Back from Hell", "overview": "When six pals escape the chaos of the city for a brief getaway, the manor home they rent in the countryside may not be so idyllic after all\u2026 The party mood soon sours as strange phenomenon begins. The group initially attempts to rationalize the occurrences, but they soon escalate into horrifying paranormal events and, ultimately, the apparent possession of Giorgio.  Desperate, the terrorized group pleads with the local priest to exorcise the unholy force. But its demonic powers may be more than he can handle\u2026 and a bigger menace than any of them could have imagined.", "poster_path": "/3sw4rcvGn5MAflsXfhWE9rYmFYN.jpg", "release_date": "2012-10-16", "title": "Back from Hell", "video": false, "vote_average": 3.5, "vote_count": 5, "popularity": 1.647}], "total_pages": 1, "total_results": 3}, "credits": {"cast": [{"cast_id": 6, "character": "Crystal Twist", "credit_id": "5305e994c3a36816bc1bd807", "gender": 1, "id": 972152, "name": "Audrey Walker", "order": 0, "profile_path": "/jsOTVgpSF4wZIXlVhrXYpoqNuib.jpg"}, {"cast_id": 11, "character": "Dennis Twist", "credit_id": "56b3e1e7925141532000173d", "gender": 2, "id": 965179, "name": "Rick Crawford", "order": 1, "profile_path": "/ArE7ISNRvckU21YElvarnkpW9ZA.jpg"}, {"cast_id": 8, "character": "Biker", "credit_id": "5305e9dcc3a3685a711a76d8", "gender": 2, "id": 969935, "name": "Chris Witherspoon", "order": 2, "profile_path": null}, {"cast_id": 9, "character": "Dana", "credit_id": "5305e9f8c3a3685a711aa3ad", "gender": 1, "id": 961944, "name": "Anna Lodej", "order": 3, "profile_path": null}, {"cast_id": 10, "character": "Stan", "credit_id": "5305ea0fc3a3685ab01c8803", "gender": 2, "id": 967488, "name": "Richard Topping", "order": 4, "profile_path": null}], "crew": [{"credit_id": "5305e8b5c3a3685a9e1d8295", "department": "Directing", "gender": 2, "id": 969935, "job": "Director", "name": "Chris Witherspoon", "profile_path": null}, {"credit_id": "5305e8cfc3a3685a6a1bac13", "department": "Writing", "gender": 2, "id": 969935, "job": "Writer", "name": "Chris Witherspoon", "profile_path": null}, {"credit_id": "5305e8f7c3a3685a941dda22", "department": "Production", "gender": 0, "id": 1294872, "job": "Producer", "name": "Darrell E. Smith", "profile_path": null}, {"credit_id": "5305e91cc3a3685ab01c362e", "department": "Production", "gender": 0, "id": 1294873, "job": "Producer", "name": "Shawn P Smith", "profile_path": null}, {"credit_id": "5305e938c3a3685a9e1d8ce1", "department": "Production", "gender": 2, "id": 969935, "job": "Producer", "name": "Chris Witherspoon", "profile_path": null}, {"credit_id": "5305e95fc3a3685a871eec9a", "department": "Production", "gender": 0, "id": 1294874, "job": "Casting", "name": "Richard L. Murry", "profile_path": null}, {"credit_id": "5b7585d8c3a368754b01372b", "department": "Camera", "gender": 2, "id": 969935, "job": "Director of Photography", "name": "Chris Witherspoon", "profile_path": null}, {"credit_id": "5b7585eec3a368754b01375d", "department": "Editing", "gender": 2, "id": 969935, "job": "Editor", "name": "Chris Witherspoon", "profile_path": null}, {"credit_id": "5b7586229251411da3013464", "department": "Camera", "gender": 0, "id": 2108674, "job": "Camera Operator", "name": "Karl Amdal", "profile_path": null}, {"credit_id": "5b75863e0e0a265c2a011c2b", "department": "Editing", "gender": 0, "id": 2108676, "job": "Online Editor", "name": "Chris Borges-Silva", "profile_path": null}]}}