{"adult": false, "backdrop_path": null, "belongs_to_collection": null, "budget": 0, "genres": [{"id": 35, "name": "Comedy"}], "homepage": null, "id": 85613, "imdb_id": "tt0025345", "original_language": "en", "original_title": "Kentucky Kernels", "overview": "The Great Elmer and Company, two out-of-work magicians, help lovelorn Jerry Bronson adopt Spanky Milford, to distract him. When Bronson makes up and elopes, the pair are stuck with the little boy. But Spanky inherits a Kentucky fortune, so they head south to Banesville, where the Milfords and Wakefields are conducting a bitter feud.", "popularity": 1.307, "poster_path": "/3XH4sdvZXt6TYsdpRwPLm2JM2na.jpg", "production_companies": [{"id": 6, "logo_path": "/n53F7K9scQWFXYbrCablqLKqJdp.png", "name": "RKO Radio Pictures", "origin_country": "US"}], "production_countries": [{"iso_3166_1": "US", "name": "United States of America"}], "release_date": "1934-11-02", "revenue": 0, "runtime": 75, "spoken_languages": [{"iso_639_1": "en", "name": "English"}], "status": "Released", "tagline": "", "title": "Kentucky Kernels", "video": false, "vote_average": 7.5, "vote_count": 2, "keywords": {"keywords": [{"id": 3291, "name": "kentucky"}, {"id": 9932, "name": "feud"}]}, "similar": {"page": 1, "results": [{"id": 658, "video": false, "vote_count": 1914, "vote_average": 7.4, "title": "Goldfinger", "release_date": "1964-09-17", "original_language": "en", "original_title": "Goldfinger", "genre_ids": [28, 12, 53], "backdrop_path": "/iyD72nJFBGbEIrpQjzdhE3wFxPL.jpg", "adult": false, "overview": "Special agent 007 comes face to face with one of the most notorious villains of all time, and now he must outwit and outgun the powerful tycoon to prevent him from cashing in on a devious scheme to raid Fort Knox -- and obliterate the world's economy.", "poster_path": "/vBNbFU3OS6okJIQBOos1aZXpy2Z.jpg", "popularity": 32.142}, {"adult": false, "backdrop_path": "/5mDCKKS7M8aUZKdShnCa7lLbzmH.jpg", "genre_ids": [16, 10751], "id": 62211, "original_language": "en", "original_title": "Monsters University", "overview": "A look at the relationship between Mike and Sulley during their days at Monsters University \u2014 when they weren't necessarily the best of friends.", "poster_path": "/a05xQU9huY3P5uurLcGGHmsf2Vh.jpg", "release_date": "2013-06-20", "title": "Monsters University", "video": false, "vote_average": 7.0, "vote_count": 6945, "popularity": 23.536}, {"id": 277216, "video": false, "vote_count": 2190, "vote_average": 7.7, "title": "Straight Outta Compton", "release_date": "2015-08-13", "original_language": "en", "original_title": "Straight Outta Compton", "genre_ids": [18, 10402], "backdrop_path": "/fdDTA06o5e7MRXnTGAf4EygL2MJ.jpg", "adult": false, "overview": "In 1987, five young men, using brutally honest rhymes and hardcore beats, put their frustration and anger about life in the most dangerous place in America into the most powerful weapon they had: their music.  Taking us back to where it all began, Straight Outta Compton tells the true story of how these cultural rebels\u2014armed only with their lyrics, swagger, bravado and raw talent\u2014stood up to the authorities that meant to keep them down and formed the world\u2019s most dangerous group, N.W.A.  And as they spoke the truth that no one had before and exposed life in the hood, their voice ignited a social revolution that is still reverberating today.", "poster_path": "/X7S1RtotXOZNV7OlgCfh5VKZSB.jpg", "popularity": 19.816}, {"id": 489931, "video": false, "vote_count": 432, "vote_average": 6.9, "title": "American Animals", "release_date": "2018-06-01", "original_language": "en", "original_title": "American Animals", "genre_ids": [80, 99, 18], "backdrop_path": "/3ccBOsbVpgwN9K5whd2UB9ACebG.jpg", "adult": false, "overview": "Lexington, Kentucky, 2004. Four young men attempt to execute one of the most audacious art heists in the history of the United States.", "poster_path": "/aLbdKxgxuOPvs6CTlmzoOQ4Yg3j.jpg", "popularity": 10.476}, {"adult": false, "backdrop_path": "/4tbUsrndxsHcHsJE3jGNxVtlZj3.jpg", "genre_ids": [35, 10749], "id": 701, "original_language": "en", "original_title": "Our Hospitality", "overview": "A man returns to his Appalachian homestead. On the trip, he falls for a young woman. The only problem is her family has vowed to kill every member of his family.", "poster_path": "/wgqSMFkFQEdwFFAdbhCRi91iwXT.jpg", "release_date": "1923-11-19", "title": "Our Hospitality", "video": false, "vote_average": 7.6, "vote_count": 116, "popularity": 9.365}, {"id": 12920, "video": false, "vote_count": 175, "vote_average": 6.5, "title": "Dreamer: Inspired By a True Story", "release_date": "2005-09-10", "original_language": "en", "original_title": "Dreamer: Inspired By a True Story", "genre_ids": [18, 10751], "backdrop_path": "/7TeuTbE4WfQ2ujijJAfTwiogIcn.jpg", "adult": false, "overview": "Ben Crane believes that a severely injured racehorse deserves another chance. He and his daughter Cale adopt the mare and save it from being sacrificed by the owner.", "poster_path": "/hVGeYxlMkjvnde0QSuloQragYNe.jpg", "popularity": 10.681}, {"id": 1725, "video": false, "vote_count": 963, "vote_average": 7.3, "title": "West Side Story", "release_date": "1961-10-18", "original_language": "en", "original_title": "West Side Story", "genre_ids": [80, 18, 10749], "backdrop_path": "/wgjArGrch7ezI5hGjaB1oj2yb2C.jpg", "adult": false, "overview": "In the slums of the upper West Side of Manhattan, New York, a gang of Polish-American teenagers called the Jets compete with a rival gang of recently immigrated Puerto Ricans, the Sharks, to \"own\" the neighborhood streets. Tensions are high between the gangs but two kids, one from each rival gang, fall in love leading to tragedy.", "poster_path": "/zRQhCSREdR9h4OzEVvwhdlZNZ6m.jpg", "popularity": 14.661}, {"id": 561362, "video": false, "vote_count": 69, "vote_average": 6.2, "title": "Rust Creek", "release_date": "2019-01-04", "original_language": "en", "original_title": "Rust Creek", "genre_ids": [18, 53], "backdrop_path": "/nII5jvAXXk3fFxqeaSEIkjT8czi.jpg", "adult": false, "overview": "When an overachieving college senior makes a wrong turn, her road trip becomes a life-changing fight for survival in rural Kentucky.", "poster_path": "/lrsPIRkKZWTKbd3C0sSj7a3lMES.jpg", "popularity": 6.763}, {"adult": false, "backdrop_path": "/7X9rSmY3VFqnqCnzehg7Bp5VYF5.jpg", "genre_ids": [18, 10402], "id": 16769, "original_language": "en", "original_title": "Coal Miner's Daughter", "overview": "Biography of Loretta Lynn, a country and western singer that came from poverty to fame.", "poster_path": "/6BR5fFV5szXogy1mHmNZyOOf8S6.jpg", "release_date": "1980-03-07", "title": "Coal Miner's Daughter", "video": false, "vote_average": 7.2, "vote_count": 128, "popularity": 13.303}, {"adult": false, "backdrop_path": "/t1sD8P4QhZWG5nbHhJ6NrVjq8aS.jpg", "genre_ids": [18, 10749], "id": 61280, "original_language": "en", "original_title": "The Turning Point", "overview": "When her daughter joins a ballet company, a former dancer is forced to confront her long-ago decision to give up the stage to have a family.", "poster_path": "/zszTHOHYeZlVhypRF4kYKssppfL.jpg", "release_date": "1977-11-14", "title": "The Turning Point", "video": false, "vote_average": 6.5, "vote_count": 25, "popularity": 5.325}, {"id": 32855, "video": false, "vote_count": 23, "vote_average": 5.6, "title": "In Country", "release_date": "1989-09-15", "original_language": "en", "original_title": "In Country", "genre_ids": [18], "backdrop_path": "/2w9Q5DKSd57t476hvVDxlXhvKdU.jpg", "adult": false, "overview": "Samantha Hughes, a teenaged Kentucky girl, never knew her father, who died in Vietnam before her birth. Samantha lives with her uncle Emmett, who also served in Vietnam. Emmett hangs around with Tom, Earl, and Pete, three other Vietnam vets who, like Emmett, all have problems of one kind or another that relate to their war experiences. Samantha becomes obsessed with finding out about her father.", "poster_path": "/rLyxWz5O2QfOBbqLDlloUHQyuru.jpg", "popularity": 4.128}, {"adult": false, "backdrop_path": "/zqXzRk8Q656tJqN3Zm80gyagBIe.jpg", "genre_ids": [35, 18, 37], "id": 109539, "original_language": "en", "original_title": "The Sun Shines Bright", "overview": "John Ford weaves three \"Judge Priest\" stories together to form a good- natured exploration of honour and small-town politics in the South around the turn of the century. Judge William Priest is involved variously in revealing the real identity of Lucy Lake, reliving his Civil War memories, preventing the lynching of a youth and contesting the elections with Yankee Horace K. Maydew.", "poster_path": "/pTjZf6bvH75nM6AvXc1CZbocPG0.jpg", "release_date": "1953-05-02", "title": "The Sun Shines Bright", "video": false, "vote_average": 6.4, "vote_count": 17, "popularity": 4.732}, {"id": 15266, "video": false, "vote_count": 28, "vote_average": 5.7, "title": "The Fighting Kentuckian", "release_date": "1949-09-15", "original_language": "en", "original_title": "The Fighting Kentuckian", "genre_ids": [12, 37], "backdrop_path": "/lxueaqFKKLZ7u4mHzrgqg0O8WXx.jpg", "adult": false, "overview": "John Breen (John Wayne), a Kentucky militiaman falls in love with French exile Fleurette De Marchand (Vera Ralston). He discovers a plot to steal the land that Fleurette's exiles plan to settle on and aims to foil it.", "poster_path": "/8g8lgyb9h9Iuj2u9ksnYGqqOWAg.jpg", "popularity": 5.261}, {"adult": false, "backdrop_path": "/y4OcAhJqpm4WN1F79Sh88JvOERO.jpg", "genre_ids": [35, 18], "id": 38314, "original_language": "en", "original_title": "92 in the Shade", "overview": "A young drifter returns to his home in Key West, Florida and attempts to open a fishing charter business, provoking a dangerous feud with a rival fishing sea captain.", "poster_path": "/i8qrxJqNKAFeRkewQwZ04ZOFiPW.jpg", "release_date": "1975-08-22", "title": "92 in the Shade", "video": false, "vote_average": 5.6, "vote_count": 4, "popularity": 1.999}, {"id": 42813, "video": false, "vote_count": 3, "vote_average": 5.3, "title": "The Painted Desert", "release_date": "1931-01-01", "original_language": "en", "original_title": "The Painted Desert", "genre_ids": [37], "backdrop_path": "/xYD3oESFwQmZB4HwgRcGyhUllkc.jpg", "adult": false, "overview": "Western pardners Jeff and Cash find a baby boy in an otherwise deserted emigrants' camp, and clash over which is to be \"father.\" They are still bitterly feuding years later when they own adjacent ranches. Bill, the foundling whom Cash has raised to young manhood, wants to end the feud and extends an olive branch toward Jeff, who now has a lovely daughter. But during a mining venture, the bitterness escalates. Is Bill to be set against his own adoptive father?", "poster_path": "/1urUkzdhHFIGMEhMtj8YgfqMQWo.jpg", "popularity": 3.41}, {"adult": false, "backdrop_path": "/hfvhS0JiVvAfGV2ZGGm0RGJa2jF.jpg", "genre_ids": [37], "id": 102379, "original_language": "en", "original_title": "Daniel Boone", "overview": "In 1775, Daniel Boone settles Kentucky, despite menacing Indians and renegade whites.", "poster_path": "/ya7aqTcITd4aDSMlQ4p8NcDGjlf.jpg", "release_date": "1936-10-16", "title": "Daniel Boone", "video": false, "vote_average": 4.2, "vote_count": 6, "popularity": 1.818}, {"adult": false, "backdrop_path": "/pVspyFNl8uE8jAoY3C973XkjTgB.jpg", "genre_ids": [99], "id": 33324, "original_language": "en", "original_title": "Harlan County U.S.A.", "overview": "This film documents the coal miners' strike against the Brookside Mine of the Eastover Mining Company in Harlan County, Kentucky in June, 1973. Eastovers refusal to sign a contract (when the miners joined with the United Mine Workers of America) led to the strike, which lasted more than a year and included violent battles between gun-toting company thugs/scabs and the picketing miners and their supportive women-folk. Director Barbara Kopple puts the strike into perspective by giving us some background on the historical plight of the miners and some history of the UMWA.", "poster_path": "/ellKxaweJC09DShpyvMESZZW9cO.jpg", "release_date": "1976-10-15", "title": "Harlan County U.S.A.", "video": false, "vote_average": 7.6, "vote_count": 41, "popularity": 5.226}, {"adult": false, "backdrop_path": null, "genre_ids": [35, 18, 10770], "id": 120634, "original_language": "en", "original_title": "Next Door", "overview": "Matt and Karen have inconsiderate neighbours whose lawn sprinkler drowns their flowers. A feud errupts and a series of tit-for-tat actions develop and escalate.", "poster_path": "/aHyRHiYHfm6HCRG1u2ElN2sVK9S.jpg", "release_date": "1994-09-04", "title": "Next Door", "video": false, "vote_average": 5.0, "vote_count": 4, "popularity": 2.869}, {"id": 502791, "video": false, "vote_count": 3, "vote_average": 5.7, "title": "Bullitt County", "release_date": "2018-10-26", "original_language": "en", "original_title": "Bullitt County", "genre_ids": [28, 18, 53], "backdrop_path": "/dlW7vdalAJPMKOwXEKxcfqO41xW.jpg", "adult": false, "overview": "An action/thriller set in 1977 about four friends who reunite for a bachelor party to hunt for buried Prohibition money on Kentucky's Bluegrass Bourbon Trail, only to become ripped apart by greed, corruption, and murder.", "poster_path": "/hHhM4qtEJohpbcE7N24qeqdig7B.jpg", "popularity": 1.956}, {"adult": false, "backdrop_path": "/9UpoMS4VmYuvZKZU1HaXU2q014Y.jpg", "genre_ids": [37, 28], "id": 109456, "original_language": "it", "original_title": "Per una bara piena di dollari", "overview": "There's a frontier feud on the border of Mexico. Outlaw Hagen's brothers have been killed by Nevada's Kid's family.", "poster_path": "/qFTF15aDT03IpoaCz0vd7fOI0h0.jpg", "release_date": "1971-04-01", "title": "Coffin Full of Dollars", "video": false, "vote_average": 5.1, "vote_count": 5, "popularity": 2.646}], "total_pages": 3, "total_results": 58}, "recommendations": {"page": 1, "results": [], "total_pages": 1, "total_results": 0}, "credits": {"cast": [{"cast_id": 2, "character": "Willie", "credit_id": "52fe494e9251416c910a92c3", "gender": 0, "id": 116255, "name": "Bert Wheeler", "order": 0, "profile_path": "/Q9Lh9Cg6H7tDRZzfijR0pUkbap.jpg"}, {"cast_id": 3, "character": "Elmer", "credit_id": "52fe494e9251416c910a92c7", "gender": 2, "id": 116256, "name": "Robert Woolsey", "order": 1, "profile_path": "/9zLR6mnVlyFxS1WO3NpcHwyQaZL.jpg"}, {"cast_id": 4, "character": "Gloria", "credit_id": "52fe494e9251416c910a92cb", "gender": 1, "id": 103498, "name": "Mary Carlisle", "order": 2, "profile_path": "/oNiqv8pjB86iWy9DR1PqRSOK0sF.jpg"}, {"cast_id": 5, "character": "Spanky (as 'Spanky' McFarland)", "credit_id": "52fe494e9251416c910a92cf", "gender": 2, "id": 31774, "name": "George McFarland", "order": 3, "profile_path": "/iJlQFdruBaApy9ktjfIMux8Zaft.jpg"}, {"cast_id": 6, "character": "Colonel Wakefield", "credit_id": "52fe494f9251416c910a92d3", "gender": 2, "id": 128324, "name": "Noah Beery", "order": 4, "profile_path": "/qmib8fQCWTBOsSEpCzjuawz3tgf.jpg"}, {"cast_id": 7, "character": "Aunt Hannah (as Lucille LaVerne)", "credit_id": "52fe494f9251416c910a92d7", "gender": 1, "id": 288940, "name": "Lucille La Verne", "order": 5, "profile_path": "/1kLj9WrPzUZMOyP3bgqxJX0ZkSm.jpg"}, {"cast_id": 11, "character": "Mrs. Baxter", "credit_id": "5674a4e892514179d7000cab", "gender": 1, "id": 10804, "name": "Margaret Dumont", "order": 6, "profile_path": "/2IkrEQUFSdymGCzLcrvxpBbZWST.jpg"}], "crew": [{"credit_id": "584f9495c3a36827a5004b33", "department": "Art", "gender": 2, "id": 11036, "job": "Art Direction", "name": "Van Nest Polglase", "profile_path": "/11wRR3ofmyXu33rjhlrwg74zpnJ.jpg"}, {"credit_id": "584f944f9251416fad004acd", "department": "Production", "gender": 2, "id": 3238, "job": "Executive Producer", "name": "Merian C. Cooper", "profile_path": "/cTAvZsPWnHUn5CIQC0dNxBsLDvf.jpg"}, {"credit_id": "584f946ec3a3683123004856", "department": "Sound", "gender": 2, "id": 4345, "job": "Original Music Composer", "name": "Roy Webb", "profile_path": null}, {"credit_id": "573f708ac3a3682768000987", "department": "Costume & Make-Up", "gender": 2, "id": 4352, "job": "Makeup Department Head", "name": "Mel Berns", "profile_path": "/OGT3K2ekiitrITzytByC3JSxf2.jpg"}, {"credit_id": "584f949dc3a36827a5004b3e", "department": "Art", "gender": 2, "id": 7338, "job": "Set Decoration", "name": "Darrell Silvera", "profile_path": null}, {"credit_id": "584f94a4c3a3682dfe0051be", "department": "Costume & Make-Up", "gender": 2, "id": 11491, "job": "Costume Design", "name": "Walter Plunkett", "profile_path": "/yKfswJpfffXoggkwC3eSDfaMD49.jpg"}, {"credit_id": "52fe494f9251416c910a92e3", "department": "Writing", "gender": 2, "id": 12924, "job": "Screenplay", "name": "Harry Ruby", "profile_path": null}, {"credit_id": "584f94679251416f10004bd7", "department": "Sound", "gender": 2, "id": 12924, "job": "Original Music Composer", "name": "Harry Ruby", "profile_path": null}, {"credit_id": "584f948e9251416fad004af1", "department": "Art", "gender": 2, "id": 13572, "job": "Art Direction", "name": "Perry Ferguson", "profile_path": null}, {"credit_id": "52fe494e9251416c910a92bf", "department": "Directing", "gender": 2, "id": 18738, "job": "Director", "name": "George Stevens", "profile_path": "/vKuUtXcGyuiwpznUMc1hwLMsKoq.jpg"}, {"credit_id": "52fe494f9251416c910a92e9", "department": "Writing", "gender": 2, "id": 18740, "job": "Screenplay", "name": "Fred Guiol", "profile_path": "/fZH63VQhC4ZRYxAWabktTvUsrff.jpg"}, {"credit_id": "52fe494f9251416c910a92dd", "department": "Writing", "gender": 2, "id": 30009, "job": "Screenplay", "name": "Bert Kalmar", "profile_path": null}, {"credit_id": "584f94779251416e48004e94", "department": "Camera", "gender": 2, "id": 89218, "job": "Director of Photography", "name": "Edward Cronjager", "profile_path": null}, {"credit_id": "584f945ec3a3682fb8005904", "department": "Production", "gender": 2, "id": 103945, "job": "Producer", "name": "Lee S. Marcus", "profile_path": null}, {"credit_id": "584f94579251416e48004e7c", "department": "Production", "gender": 2, "id": 1014034, "job": "Associate Producer", "name": "H.N. Swanson", "profile_path": null}, {"credit_id": "584f94809251416f63004de9", "department": "Editing", "gender": 2, "id": 1345303, "job": "Editor", "name": "James B. Morley", "profile_path": null}, {"credit_id": "584f9487c3a36827a5004b28", "department": "Production", "gender": 2, "id": 1722105, "job": "Casting", "name": "Rufus Le Maire", "profile_path": null}, {"credit_id": "5ca9831ec3a3683f5a60dbc7", "department": "Camera", "gender": 2, "id": 2282567, "job": "Grip", "name": "Ralph Wildman", "profile_path": null}, {"credit_id": "5d419311b87aec7f0f39ceee", "department": "Sound", "gender": 0, "id": 2372945, "job": "Foley Editor", "name": "Cecil Shephard", "profile_path": null}, {"credit_id": "5d41944cb87aec23a439ba84", "department": "Sound", "gender": 2, "id": 2372946, "job": "Sound Effects Editor", "name": "Kenneth C. Wesson", "profile_path": null}]}}