{"adult": false, "backdrop_path": "/hlFMjvU2K7AqCFwUfNXoJGUz4rH.jpg", "belongs_to_collection": null, "budget": 0, "genres": [{"id": 28, "name": "Action"}, {"id": 53, "name": "Thriller"}], "homepage": null, "id": 85676, "imdb_id": "tt0067100", "original_language": "en", "original_title": "Firecracker", "overview": "Femme fatale martial arts expert teaches the mafia a lesson.", "popularity": 3.667, "poster_path": "/lIdGgEgkRcdxqo4Tz78opvyVH5k.jpg", "production_companies": [], "production_countries": [{"iso_3166_1": "PH", "name": "Philippines"}, {"iso_3166_1": "US", "name": "United States of America"}], "release_date": "1981-05-01", "revenue": 0, "runtime": 77, "spoken_languages": [{"iso_639_1": "en", "name": "English"}], "status": "Released", "tagline": "She'll Blow You Away!", "title": "Firecracker", "video": false, "vote_average": 7.0, "vote_count": 4, "keywords": {"keywords": [{"id": 779, "name": "martial arts"}, {"id": 2660, "name": "strong woman"}, {"id": 34117, "name": "cult film"}]}, "similar": {"page": 1, "results": [{"id": 140300, "video": false, "vote_count": 3210, "vote_average": 6.7, "title": "Kung Fu Panda 3", "release_date": "2016-01-23", "original_language": "en", "original_title": "Kung Fu Panda 3", "genre_ids": [28, 12, 16, 35, 10751], "backdrop_path": "/eHWmEUP4fa7h1Fe7TXfTL7ncDl8.jpg", "adult": false, "overview": "Continuing his \"legendary adventures of awesomeness\", Po must face two hugely epic, but different threats: one supernatural and the other a little closer to his home.", "poster_path": "/MZFPacfKzgisnPoJIPEFZUXBBT.jpg", "popularity": 30.681}, {"id": 146, "video": false, "vote_count": 1771, "vote_average": 7.3, "title": "Crouching Tiger, Hidden Dragon", "release_date": "2000-07-06", "original_language": "zh", "original_title": "\u5367\u864e\u85cf\u9f99", "genre_ids": [28, 12, 18, 10749], "backdrop_path": "/dKenGLffFC9HwuxG4Sq7fJRkiFb.jpg", "adult": false, "overview": "Two warriors in pursuit of a stolen sword and a notorious fugitive are led to an impetuous, physically-skilled, teenage nobleman's daughter, who is at a crossroads in her life.", "poster_path": "/3yYPhffQRuy45HlNabFxNLyP9mg.jpg", "popularity": 20.102}, {"adult": false, "backdrop_path": "/wNm3hNJuOk117wEwuESKO8eCEAk.jpg", "genre_ids": [28], "id": 9461, "original_language": "en", "original_title": "Enter the Dragon", "overview": "A martial artist agrees to spy on a reclusive crime lord using his invitation to a tournament there as cover.", "poster_path": "/6C006cxfwjWYkBW4fM3xCMyr7Yg.jpg", "release_date": "1973-08-17", "title": "Enter the Dragon", "video": false, "vote_average": 7.4, "vote_count": 911, "popularity": 21.422}, {"adult": false, "backdrop_path": "/tBWZkKMcrWdrpkOAA84FBlzE2XK.jpg", "genre_ids": [12, 28, 53], "id": 9053, "original_language": "en", "original_title": "DOA: Dead or Alive", "overview": "Four beautiful rivals at an invitation-only martial-arts tournament join forces against a sinister threat. Princess Kasumi is an aristocratic warrior trained by martial-arts masters. Tina Armstrong is a wrestling superstar. Helena Douglas is an athlete with a tragic past. Christie Allen earns her keep as a thief and an assassin-for-hire.", "poster_path": "/lZ6vZka2M0jtH1khYWa8j73E275.jpg", "release_date": "2006-09-07", "title": "DOA: Dead or Alive", "video": false, "vote_average": 4.9, "vote_count": 415, "popularity": 15.433}, {"id": 11841, "video": false, "vote_count": 157, "vote_average": 7.6, "title": "The 36th Chamber of Shaolin", "release_date": "1978-02-02", "original_language": "cn", "original_title": "\u5c11\u6797\u4e09\u5341\u516d\u623f", "genre_ids": [28, 12], "backdrop_path": "/5YXoGdYF1pGv7NHypZWIVMvYl0O.jpg", "adult": false, "overview": "The anti-Ching patriots, under the guidance of Ho Kuang-han, have secretly set up their base in Canton, disguised as school masters. During a brutal Manchu attack, Lui manages to escape, and devotes himself to learning the martial arts in order to seek revenge.", "poster_path": "/hv29eb8g7iCDr0WgAcDdwZinuoY.jpg", "popularity": 13.558}, {"id": 9502, "video": false, "vote_count": 6771, "vote_average": 7.1, "title": "Kung Fu Panda", "release_date": "2008-06-04", "original_language": "en", "original_title": "Kung Fu Panda", "genre_ids": [12, 16, 35, 10751], "backdrop_path": "/pmLEmMLYCreFAxfdCt5uO1wDgSi.jpg", "adult": false, "overview": "When the Valley of Peace is threatened, lazy Po the panda discovers his destiny as the \"chosen one\" and trains to become a kung fu hero, but transforming the unsleek slacker into a brave warrior won't be easy. It's up to Master Shifu and the Furious Five -- Tigress, Crane, Mantis, Viper and Monkey -- to give it a try.", "poster_path": "/mk3UyyaLyXhgIhmLji25OUPXvGR.jpg", "popularity": 23.634}, {"id": 9470, "video": false, "vote_count": 1392, "vote_average": 7.3, "title": "Kung Fu Hustle", "release_date": "2004-02-10", "original_language": "cn", "original_title": "\u529f\u592b", "genre_ids": [28, 35, 80, 14], "backdrop_path": "/qpJWj6MI6VLRt9bGbJVZtmFvqWw.jpg", "adult": false, "overview": "Set in Canton, China in the 1940s, the story revolves in a town ruled by the Axe Gang, Sing who desperately wants to become a member. He stumbles into a slum ruled by eccentric landlords who turns out to be the greatest kung-fu masters in disguise. Sing's actions eventually cause the Axe Gang and the slumlords to engage in an explosive kung-fu battle. Only one side will win and only one hero will emerge as the greatest kung-fu master of all.", "poster_path": "/dZsfDrNLGWgsIUQL1vGhl8tbnqY.jpg", "popularity": 17.654}, {"adult": false, "backdrop_path": "/9DlrsXH9LOgPeuF6Hljmx8GQNlM.jpg", "genre_ids": [18, 28], "id": 7549, "original_language": "zh", "original_title": "\u970d\u5143\u7532", "overview": "Huo Yuan Jia became the most famous martial arts fighter in all of China at the turn of the 20th Century. Huo faced personal tragedy but ultimately fought his way out of darkness, defining the true spirit of martial arts and also inspiring his nation. The son of a great fighter who didn't wish for his child to follow in his footsteps, Huo resolves to teach himself how to fight - and win.", "poster_path": "/nPku02hVAFPsAd1pJr81OkdBidw.jpg", "release_date": "2006-01-26", "title": "Fearless", "video": false, "vote_average": 7.4, "vote_count": 648, "popularity": 12.897}, {"id": 24, "video": false, "vote_count": 10676, "vote_average": 7.9, "title": "Kill Bill: Vol. 1", "release_date": "2003-10-10", "original_language": "en", "original_title": "Kill Bill: Vol. 1", "genre_ids": [28, 80], "backdrop_path": "/kkS8PKa8c134vXsj2fQkNqOaCXU.jpg", "adult": false, "overview": "An assassin is shot by her ruthless employer, Bill, and other members of their assassination circle \u2013 but she lives to plot her vengeance.", "poster_path": "/v7TaX8kXMXs5yFFGR41guUDNcnB.jpg", "popularity": 35.853}, {"adult": false, "backdrop_path": "/913sS08HhcTQTwz7X567iR6DLHn.jpg", "genre_ids": [12, 28, 53], "id": 682, "original_language": "en", "original_title": "The Man with the Golden Gun", "overview": "A golden bullet has 007 engraved on it as it smashes into the secret service headquarters. The bullet came from the professional killer Scaramanga who has yet to miss a target and James Bond begins a mission to try and stop him.", "poster_path": "/7VSVgxAvA7IdTf8T6Oon1eaReeJ.jpg", "release_date": "1974-12-01", "title": "The Man with the Golden Gun", "video": false, "vote_average": 6.5, "vote_count": 996, "popularity": 17.905}, {"adult": false, "backdrop_path": "/xC9DRxpKgqJKDYLa9mkNa74eX4q.jpg", "genre_ids": [18, 12, 28, 36], "id": 79, "original_language": "zh", "original_title": "\u82f1\u96c4", "overview": "One man defeated three assassins who sought to murder the most powerful warlord in pre-unified China.", "poster_path": "/xkJnow23eDxwQXB0iIWAWkBF47y.jpg", "release_date": "2002-07-22", "title": "Hero", "video": false, "vote_average": 7.5, "vote_count": 1210, "popularity": 23.249}, {"id": 604, "video": false, "vote_count": 6344, "vote_average": 6.9, "title": "The Matrix Reloaded", "release_date": "2003-05-15", "original_language": "en", "original_title": "The Matrix Reloaded", "genre_ids": [28, 12, 878, 53], "backdrop_path": "/Fp3piEuHXxKnPBO5R0Wj4wjZHg.jpg", "adult": false, "overview": "Six months after the events depicted in The Matrix, Neo has proved to be a good omen for the free humans, as more and more humans are being freed from the matrix and brought to Zion, the one and only stronghold of the Resistance.  Neo himself has discovered his superpowers including super speed, ability to see the codes of the things inside the matrix and a certain degree of pre-cognition. But a nasty piece of news hits the human resistance: 250,000 machine sentinels are digging to Zion and would reach them in 72 hours. As Zion prepares for the ultimate war, Neo, Morpheus and Trinity are advised by the Oracle to find the Keymaker who would help them reach the Source.  Meanwhile Neo's recurrent dreams depicting Trinity's death have got him worried and as if it was not enough, Agent Smith has somehow escaped deletion, has become more powerful than before and has fixed Neo as his next target.", "poster_path": "/ezIurBz2fdUc68d98Fp9dRf5ihv.jpg", "popularity": 26.284}, {"id": 605, "video": false, "vote_count": 5698, "vote_average": 6.6, "title": "The Matrix Revolutions", "release_date": "2003-11-03", "original_language": "en", "original_title": "The Matrix Revolutions", "genre_ids": [28, 12, 878, 53], "backdrop_path": "/pdVHUsb2eEz9ALNTr6wfRJe5xVa.jpg", "adult": false, "overview": "The human city of Zion defends itself against the massive invasion of the machines as Neo fights to end the war at another front while also opposing the rogue Agent Smith.", "poster_path": "/sKogjhfs5q3azmpW7DFKKAeLEG8.jpg", "popularity": 22.724}, {"adult": false, "backdrop_path": "/3hYidDKVg4rsrkHQsbOKeqt6qkj.jpg", "genre_ids": [35, 28], "id": 19274, "original_language": "cn", "original_title": "\u7b11\u62f3\u602a\u62db", "overview": "Jackie Chan is a youngster, living in a remote vllage with his grandfather who teaches him Kong-Fu (naturally). He keeps getting into fights, even though his grandfather warns him not to show their Kong-Fu to others. Jackie, though, is tempted by some thugs he beat up to act as the master of a Kong-Fu school. This school's name apparently spreads far, as an old enemy of Jackie's grandfather (who t", "poster_path": "/ic5iTcB0HOfNCjQRV10SJ5oA4El.jpg", "release_date": "1979-02-17", "title": "Fearless Hyena", "video": false, "vote_average": 6.6, "vote_count": 59, "popularity": 12.832}, {"adult": false, "backdrop_path": "/ic450gLSYFUGb5Gxv39YXOqOGOP.jpg", "genre_ids": [28, 80, 53], "id": 11134, "original_language": "cn", "original_title": "\u8b66\u5bdf\u6545\u4e8b III\uff1a\u8d85\u7d1a\u8b66\u5bdf", "overview": "A Hong Kong detective teams up with his female Red Chinese counterpart to stop a Chinese drug czar.", "poster_path": "/sw94gRwWJf1O4uMFHmDyZNXJeIj.jpg", "release_date": "1992-07-04", "title": "Police Story 3: Super Cop", "video": false, "vote_average": 6.7, "vote_count": 210, "popularity": 11.796}, {"id": 6978, "video": false, "vote_count": 1526, "vote_average": 7.2, "title": "Big Trouble in Little China", "release_date": "1986-05-30", "original_language": "en", "original_title": "Big Trouble in Little China", "genre_ids": [28, 12, 35, 14], "backdrop_path": "/fE78fvLAlOiwQYksd11Q511tAXr.jpg", "adult": false, "overview": "When trucker Jack Burton agreed to take his friend, Wang Chi, to pick up his fiancee at the airport, he never expected to get involved in a supernatural battle between good and evil. Wang's fiancee has emerald green eyes, which make her a perfect target for immortal sorcerer Lo Pan and his three invincible cronies. Lo Pan must marry a girl with green eyes so he can regain his physical form.", "poster_path": "/yorjHTeWauQd81QeWoqMAHXAcCj.jpg", "popularity": 15.356}, {"id": 12721, "video": false, "vote_count": 210, "vote_average": 5.7, "title": "No Retreat, No Surrender", "release_date": "1986-05-02", "original_language": "en", "original_title": "No Retreat, No Surrender", "genre_ids": [28], "backdrop_path": "/h3k4ECYCjoFkIKpTqpWz1BZIREh.jpg", "adult": false, "overview": "Young Jason Stillwell (Kurt McKinney) moves with his parents to Seattle, where local bullies harass them without mercy. Jason's father Tom (Tim Baker) does not believe in violence, so the family takes it on the chin. One day Jason enrolls in a martial arts class and quietly rises in rank to be a major contender. His mettle is tested in an international match against Ivan, a Russian champion.", "poster_path": "/cOUvF7SgljMXevnQVLYWHpwxEh7.jpg", "popularity": 10.673}, {"id": 55292, "video": false, "vote_count": 176, "vote_average": 6.6, "title": "Shaolin", "release_date": "2011-01-20", "original_language": "cn", "original_title": "\u65b0\u5c11\u6797\u5bfa", "genre_ids": [28, 18], "backdrop_path": "/dmrIPxd5w69nJ5ZhHTQmH8QDGH2.jpg", "adult": false, "overview": "China is plunged into strife as feuding warlords try to expand their power by warring over neighboring lands. Fuelled by his success on the battlefield, young and arrogant Hao Jie sneers at Shaolin's masters when he beats one of them in a duel. But the pride comes before a fall. When his own family is wiped out by a rival warlord, Hao is forced to take refuge with the monks. As the civil unrest spreads and the people suffer, Hao and the Shaolin masters are forced to take a fiery stand against the evil warlords. They launch a daring plan or rescue and escape.", "poster_path": "/rcX06YbBYiiaBh4bjMS3fau0nuk.jpg", "popularity": 11.309}, {"adult": false, "backdrop_path": "/fLMv873bBAvrCtzeAbRVjb4Mi9Y.jpg", "genre_ids": [28, 53, 80], "id": 27582, "original_language": "en", "original_title": "The Mechanic", "overview": "Arthur Bishop is a 'mechanic' - an elite assassin with a strict code and unique talent for cleanly eliminating targets. It's a job that requires professional perfection and total detachment, and Bishop is the best in the business. But when he is ordered to take out his mentor and close friend Harry, Bishop is anything but detached.", "poster_path": "/eScKoGnjaUvGD2OkK3DImyzfVkt.jpg", "release_date": "2011-01-13", "title": "The Mechanic", "video": false, "vote_average": 6.3, "vote_count": 1857, "popularity": 20.52}, {"id": 485811, "video": false, "vote_count": 52, "vote_average": 4.4, "title": "Redcon-1", "release_date": "2018-09-07", "original_language": "en", "original_title": "Redcon-1", "genre_ids": [28, 27], "backdrop_path": "/palbhPOSYf2g1p18vWd91dDhZLM.jpg", "adult": false, "overview": "After a zombie apocalypse spreads from a London prison, the UK is brought to its knees. The spread of the virus is temporarily contained but, without a cure, it\u2019s only a matter of time before it breaks its boundaries and the biggest problem of all\u2026 any zombies with combat skills are now enhanced. With the South East of England quarantined from the rest of the world using fortified borders, intelligence finds that the scientist responsible for the outbreak is alive and well in London. With his recovery being the only hope of a cure, a squad of eight Special Forces soldiers is sent on a suicide mission to the city, now ruled by the undead, with a single task: get him out alive within 72 hours by any means necessary. What emerges is an unlikely pairing on a course to save humanity against ever-rising odds.", "poster_path": "/vVPrWngVJ2cfYAncBedQty69Dlf.jpg", "popularity": 10.184}], "total_pages": 106, "total_results": 2102}, "recommendations": {"page": 1, "results": [{"adult": false, "backdrop_path": "/2b6ozXooOpUSWpXsWLDii2S6v3x.jpg", "genre_ids": [28], "id": 54855, "original_language": "en", "original_title": "L.A. Streetfighters", "overview": "Tony is the new kid at school. He befriend gang leader Young, whose top rival is Chan. Tony is also dating Chan's sister, Lily. When Young and Tony are hired as personal security, they head to a private party run by a drug dealer. When Young steals the money from the dealer, two hitmen arrive and torture his gang. Young must fight them off but also face the wrath of Chan. Tony must help his new friend before it's too late.", "poster_path": "/uUTf7M0NWGglJh1TFrleABNUHT4.jpg", "release_date": "1985-03-23", "title": "L.A. Streetfighters", "video": false, "vote_average": 6.3, "vote_count": 6, "popularity": 2.762}], "total_pages": 1, "total_results": 1}, "credits": {"cast": [{"cast_id": 8, "character": "Susanne Carter", "credit_id": "52fe49549251416c910a9d71", "gender": 1, "id": 104333, "name": "Jillian Kesner", "order": 0, "profile_path": "/npA9EZhItjDwysb0sghJO4sp31V.jpg"}, {"cast_id": 9, "character": "Chuck Donner", "credit_id": "52fe49549251416c910a9d75", "gender": 2, "id": 129668, "name": "Darby Hinton", "order": 1, "profile_path": "/mK6iw7grDEdOBaf11a6U0lTBeAe.jpg"}, {"cast_id": 10, "character": "Rey", "credit_id": "52fe49549251416c910a9d79", "gender": 0, "id": 941614, "name": "Rey Malonzo", "order": 2, "profile_path": null}, {"cast_id": 11, "character": "Erik", "credit_id": "52fe49549251416c910a9d7d", "gender": 2, "id": 105081, "name": "Ken Metcalfe", "order": 3, "profile_path": null}, {"cast_id": 12, "character": "Pete", "credit_id": "52fe49549251416c910a9d81", "gender": 0, "id": 936504, "name": "Peter Cooper", "order": 4, "profile_path": null}, {"cast_id": 13, "character": "Japanese Karate fighter", "credit_id": "52fe49549251416c910a9d85", "gender": 0, "id": 1073850, "name": "Don Gordon Bell", "order": 5, "profile_path": null}, {"cast_id": 14, "character": "Malow", "credit_id": "52fe49549251416c910a9d89", "gender": 1, "id": 142963, "name": "Chanda Romero", "order": 6, "profile_path": "/lGLfXoOCTsQldsACwG8MUQVreL6.jpg"}, {"cast_id": 15, "character": "Tony", "credit_id": "52fe49549251416c910a9d8d", "gender": 2, "id": 237062, "name": "Tony Ferrer", "order": 7, "profile_path": null}, {"cast_id": 16, "character": "Grip", "credit_id": "52fe49549251416c910a9d91", "gender": 0, "id": 102644, "name": "Vic Diaz", "order": 8, "profile_path": "/9yQduPuXsW4tyf6ixAz9JONQv6S.jpg"}], "crew": [{"credit_id": "52fe49549251416c910a9d4f", "department": "Directing", "gender": 2, "id": 105084, "job": "Director", "name": "Cirio H. Santiago", "profile_path": "/kFo7Iw9tSiZgZoJ6nhknyOCXhi6.jpg"}, {"credit_id": "52fe49549251416c910a9d55", "department": "Writing", "gender": 2, "id": 105084, "job": "Story", "name": "Cirio H. Santiago", "profile_path": "/kFo7Iw9tSiZgZoJ6nhknyOCXhi6.jpg"}, {"credit_id": "52fe49549251416c910a9d5b", "department": "Crew", "gender": 0, "id": 127608, "job": "Additional Writing", "name": "Allan Holzman", "profile_path": null}, {"credit_id": "52fe49549251416c910a9d61", "department": "Writing", "gender": 2, "id": 105081, "job": "Story", "name": "Ken Metcalfe", "profile_path": null}, {"credit_id": "52fe49549251416c910a9d67", "department": "Writing", "gender": 2, "id": 105081, "job": "Screenplay", "name": "Ken Metcalfe", "profile_path": null}, {"credit_id": "52fe49549251416c910a9d6d", "department": "Writing", "gender": 2, "id": 105084, "job": "Screenplay", "name": "Cirio H. Santiago", "profile_path": "/kFo7Iw9tSiZgZoJ6nhknyOCXhi6.jpg"}, {"credit_id": "59ae04f5925141072304b2a2", "department": "Production", "gender": 0, "id": 1882327, "job": "Producer", "name": "Syed Kechik", "profile_path": null}, {"credit_id": "59ae0502c3a3682c48047564", "department": "Production", "gender": 0, "id": 1546817, "job": "Associate Producer", "name": "Ernesto C. Rojas", "profile_path": null}, {"credit_id": "59ae050fc3a3682c0a04cda7", "department": "Production", "gender": 2, "id": 105084, "job": "Executive Producer", "name": "Cirio H. Santiago", "profile_path": "/kFo7Iw9tSiZgZoJ6nhknyOCXhi6.jpg"}, {"credit_id": "59ae051bc3a3682c2204a12f", "department": "Sound", "gender": 0, "id": 1043019, "job": "Original Music Composer", "name": "Nonong Buencamino", "profile_path": null}, {"credit_id": "59ae0527c3a3682cc804d31b", "department": "Camera", "gender": 2, "id": 1089059, "job": "Director of Photography", "name": "Ricardo Remias", "profile_path": null}, {"credit_id": "59ae0532c3a3682c7c051571", "department": "Editing", "gender": 2, "id": 1324972, "job": "Editor", "name": "Gervacio Santos", "profile_path": null}, {"credit_id": "59ae053c925141070704bddd", "department": "Art", "gender": 2, "id": 1324973, "job": "Art Direction", "name": "Ben Otico", "profile_path": null}]}}