{"adult": false, "backdrop_path": null, "belongs_to_collection": null, "budget": 5000, "genres": [{"id": 27, "name": "Horror"}], "homepage": null, "id": 85973, "imdb_id": "tt0191121", "original_language": "en", "original_title": "Eyes of the Werewolf", "overview": "A laboratory accident leaves Rich blind and at the mercy of an unscrupulous surgeon who performs an accidental eye transplant. Unknown to everyone, including the doctor's band of organ-snatching murderers, the eyes were pulled from the sockets of a werewolf. All hell breaks loose when Rich, with the help of his horny nurse, a midget and a lesbian detective, tries to extract revenge during the next full moon.", "popularity": 1.618, "poster_path": "/p1qeO7aSiT9cAma07n0jgDfVig.jpg", "production_companies": [{"id": 4709, "logo_path": null, "name": "SNJ Productions", "origin_country": ""}], "production_countries": [{"iso_3166_1": "US", "name": "United States of America"}], "release_date": "1999-01-01", "revenue": 0, "runtime": 74, "spoken_languages": [{"iso_639_1": "en", "name": "English"}], "status": "Released", "tagline": "", "title": "Eyes of the Werewolf", "video": false, "vote_average": 4.5, "vote_count": 2, "keywords": {"keywords": [{"id": 12564, "name": "werewolf"}]}, "similar": {"page": 1, "results": [{"id": 13666, "video": false, "vote_count": 245, "vote_average": 7.1, "title": "The Wolf Man", "release_date": "1941-12-12", "original_language": "en", "original_title": "The Wolf Man", "genre_ids": [18, 27], "backdrop_path": "/zDPx4cDT89UFja5DEv7RWzTmJUv.jpg", "adult": false, "overview": "After his brother's death, Larry Talbot returns home to his father and the family estate. Events soon take a turn for the worse when Larry is bitten by a werewolf.", "poster_path": "/vG8fu5syTtQLzK1hQXyi3ugOPNF.jpg", "popularity": 11.92}, {"id": 29095, "video": false, "vote_count": 129, "vote_average": 5.9, "title": "Waxwork", "release_date": "1988-06-17", "original_language": "en", "original_title": "Waxwork", "genre_ids": [35, 27], "backdrop_path": "/x0sEJCg6UsLoGs8r9b4l8rp1oxe.jpg", "adult": false, "overview": "Wealthy slacker college student Mark, his new girlfriend Sarah, and their friends are invited to a special showing at a mysterious wax museum which displays 18 of the most evil men of all time. After his ex-girlfriend and another friend disappear, Mark becomes suspicious.", "poster_path": "/7FZoShrHzTcYW55779Iw4tlQ9MI.jpg", "popularity": 8.662}, {"id": 7131, "video": false, "vote_count": 3395, "vote_average": 6.1, "title": "Van Helsing", "release_date": "2004-05-05", "original_language": "en", "original_title": "Van Helsing", "genre_ids": [28, 12, 27], "backdrop_path": "/sib4pGrwKQUbFRyHlhXv03HXoHj.jpg", "adult": false, "overview": "Famed monster slayer Gabriel Van Helsing is dispatched to Transylvania to assist the last of the Valerious bloodline in defeating Count Dracula. Anna Valerious reveals that Dracula has formed an unholy alliance with Dr. Frankenstein's monster and is hell-bent on exacting a centuries-old curse on her family.", "poster_path": "/s2OPT5CZsZBQYAIlO9Mv4AimHvV.jpg", "popularity": 19.526}, {"id": 49017, "video": false, "vote_count": 4003, "vote_average": 6.3, "title": "Dracula Untold", "release_date": "2014-10-01", "original_language": "en", "original_title": "Dracula Untold", "genre_ids": [28, 18, 14, 27, 10752], "backdrop_path": "/gy5ItoprIPOT7Z1c2YhNhart39l.jpg", "adult": false, "overview": "Vlad Tepes is a great hero, but when he learns the Sultan is preparing for battle and needs to form an army of 1,000 boys, he vows to find a way to protect his family. Vlad turns to dark forces in order to get the power to destroy his enemies and agrees to go from hero to monster as he's turned into the mythological vampire, Dracula.", "poster_path": "/4oy4e0DP6LRwRszfx8NY8EYBj8V.jpg", "popularity": 32.104}, {"adult": false, "backdrop_path": "/99Z7mNsixJJTn10tHLCtu6XcY6E.jpg", "genre_ids": [53, 27], "id": 10577, "original_language": "en", "original_title": "Dracula 2000", "overview": "In the millenium version of this classic Gothic horror we find Abraham Van Helsing, who has tangled with Count Dracula in the past, working as an English antiques dealer. Simon is a vampire hunter in training under his apprenticeship.", "poster_path": "/6YF56U91zP1mQvle83KA1A7CPop.jpg", "release_date": "2000-12-22", "title": "Dracula 2000", "video": false, "vote_average": 4.7, "vote_count": 317, "popularity": 11.748}, {"id": 301846, "video": false, "vote_count": 238, "vote_average": 5.2, "title": "Howl", "release_date": "2015-10-01", "original_language": "en", "original_title": "Howl", "genre_ids": [27], "backdrop_path": "/f6zcd6ZVviZnCdjqdtZtWKTNDDM.jpg", "adult": false, "overview": "When passengers on a train are attacked by a creature, they must band together in order to survive until morning.", "poster_path": "/sGEOC8x0lXSlIV4hoIZjnOnze9e.jpg", "popularity": 11.373}, {"adult": false, "backdrop_path": "/yXjduDjZdoYo58eMG0yr19mhRiA.jpg", "genre_ids": [28, 16, 27], "id": 161337, "original_language": "en", "original_title": "Underworld: Endless War", "overview": "Underworld: Endless War is a collection of three short, anime-style tie-in stories-\u2014whose creation was supervised by Len Wiseman, director of the first 2 Underworld movies and producer of Underworld 3 &amp; 4--each tell a different story, and at different periods of history to highlight new events of the Underworld mythology. These stories also tell of what happened before the events in Underworld: Awakening", "poster_path": "/85NPnGHxkt1Ebz9uuU5blZW4KZE.jpg", "release_date": "2011-10-19", "title": "Underworld: Endless War", "video": true, "vote_average": 6.2, "vote_count": 58, "popularity": 10.358}, {"id": 814, "video": false, "vote_count": 1136, "vote_average": 7.3, "title": "An American Werewolf in London", "release_date": "1981-08-21", "original_language": "en", "original_title": "An American Werewolf in London", "genre_ids": [35, 27], "backdrop_path": "/lFiEdW3zVjR2Wujxu3yZLpL2N8n.jpg", "adult": false, "overview": "Two American tourists in England are attacked by a werewolf that none of the locals will admit exists.", "poster_path": "/a8doVE7sXezmIeAFyXJcI3hPna5.jpg", "popularity": 13.433}, {"id": 24021, "video": false, "vote_count": 5444, "vote_average": 6.1, "title": "The Twilight Saga: Eclipse", "release_date": "2010-06-23", "original_language": "en", "original_title": "The Twilight Saga: Eclipse", "genre_ids": [12, 18, 14, 10749], "backdrop_path": "/lKCZYVQQb7Agw6WR25WvQBFKJmK.jpg", "adult": false, "overview": "Bella once again finds herself surrounded by danger as Seattle is ravaged by a string of mysterious killings and a malicious vampire continues her quest for revenge. In the midst of it all, she is forced to choose between her love for Edward and her friendship with Jacob, knowing that her decision has the potential to ignite the ageless struggle between vampire and werewolf. With her graduation quickly approaching, Bella is confronted with the most important decision of her life.", "poster_path": "/sOpCY4by0bkEu9LbVXVCOpWWKzF.jpg", "popularity": 21.716}, {"id": 277, "video": false, "vote_count": 4160, "vote_average": 6.7, "title": "Underworld", "release_date": "2003-09-19", "original_language": "en", "original_title": "Underworld", "genre_ids": [28, 14, 53], "backdrop_path": "/cPhRPAJWK8BuuJqqf6PztzvOlnZ.jpg", "adult": false, "overview": "Vampires and werewolves have waged a nocturnal war against each other for centuries. But all bets are off when a female vampire warrior named Selene, who's famous for her strength and werewolf-hunting prowess, becomes smitten with a peace-loving male werewolf, Michael, who wants to end the war.", "poster_path": "/rdkxl5iXdpVU188cL1LLG3sy6z4.jpg", "popularity": 22.311}, {"id": 76492, "video": false, "vote_count": 5547, "vote_average": 6.9, "title": "Hotel Transylvania", "release_date": "2012-09-20", "original_language": "en", "original_title": "Hotel Transylvania", "genre_ids": [16, 35, 14, 10751], "backdrop_path": "/sETTal2HPPkUC3lWc27HL1AFu9C.jpg", "adult": false, "overview": "Welcome to Hotel Transylvania, Dracula's lavish five-stake resort, where monsters and their families can live it up and no humans are allowed. One special weekend, Dracula has invited all his best friends to celebrate his beloved daughter Mavis's 118th birthday. For Dracula catering to all of these legendary monsters is no problem but the party really starts when one ordinary guy stumbles into the hotel and changes everything!", "poster_path": "/9qugesYpAWHUpdrw2w8URSGkAPt.jpg", "popularity": 31.161}, {"id": 11797, "video": false, "vote_count": 595, "vote_average": 7.0, "title": "Fright Night", "release_date": "1985-08-02", "original_language": "en", "original_title": "Fright Night", "genre_ids": [27], "backdrop_path": "/v4wzMG8phQyPVlKTMUNt1i33GM5.jpg", "adult": false, "overview": "Nobody believes teenager Charley Brewster when he discovers that his suave new neighbor, Jerry Dandrige, is a vampire. So when the bloodsucker starts stalking Charley, he turns to has-been actor Peter Vincent, famed for portraying a ghoul hunter. Unfortunately for the would-be vampire slayers, Dandrige has set his sights on Charley's girlfriend.", "poster_path": "/jE0YbuFlmaZUWeVTyYNpzYXjIbn.jpg", "popularity": 12.298}, {"adult": false, "backdrop_path": "/iq87ubhAOKVr55QDAJsBlIXaFkm.jpg", "genre_ids": [27, 35], "id": 10012, "original_language": "en", "original_title": "Cursed", "overview": "A werewolf loose in Los Angeles changes the lives of three young adults, who, after being mauled by the beast, learn they must kill their attacker if they hope to change their fate to avoid becoming werewolves too.", "poster_path": "/pxNMDLvgk0XhYZHBeJ3i0t6p3Tl.jpg", "release_date": "2005-02-25", "title": "Cursed", "video": false, "vote_average": 5.3, "vote_count": 339, "popularity": 15.384}, {"id": 3103, "video": false, "vote_count": 57, "vote_average": 6.1, "title": "House of Frankenstein", "release_date": "1944-12-01", "original_language": "en", "original_title": "House of Frankenstein", "genre_ids": [27, 878], "backdrop_path": "/aZ2OVVFDDsOtdnvCjt5EbT1O0cw.jpg", "adult": false, "overview": "An evil scientist and a hunchback escape from prison and encounter Dracula, the Wolf Man and Frankenstein's Monster.", "poster_path": "/qzhYjNFri8KaaC0JGuFkWO4xmJH.jpg", "popularity": 9.565}, {"id": 346672, "video": false, "vote_count": 2460, "vote_average": 5.5, "title": "Underworld: Blood Wars", "release_date": "2016-11-24", "original_language": "en", "original_title": "Underworld: Blood Wars", "genre_ids": [28, 18, 14, 27], "backdrop_path": "/fXqGBlz4xtLZzo878sHUxtsVzpU.jpg", "adult": false, "overview": "Vampire death dealer Selene fends off brutal attacks from both the Lycan clan and the Vampire faction that betrayed her. With her only allies, David and his father Thomas, she must stop the eternal war between Lycans and Vampires, even if it means she has to make the ultimate sacrifice.", "poster_path": "/nHXiMnWUAUba2LZ0dFkNDVdvJ1o.jpg", "popularity": 23.524}, {"adult": false, "backdrop_path": "/ysLIi9nzMbUqi4dQh3tqblUb27o.jpg", "genre_ids": [878, 28, 27, 53, 12, 14], "id": 36648, "original_language": "en", "original_title": "Blade: Trinity", "overview": "For years, Blade has fought against the vampires in the cover of the night. But now, after falling into the crosshairs of the FBI, he is forced out into the daylight, where he is driven to join forces with a clan of human vampire hunters he never knew existed\u2014The Nightstalkers. Together with Abigail and Hannibal, two deftly trained Nightstalkers, Blade follows a trail of blood to the ancient creature that is also hunting him\u2014the original vampire, Dracula.", "poster_path": "/4WinsdHQBdh5aTt7Bd7T7dbUXbb.jpg", "release_date": "2004-12-08", "title": "Blade: Trinity", "video": false, "vote_average": 5.8, "vote_count": 2278, "popularity": 19.358}, {"id": 52520, "video": false, "vote_count": 2773, "vote_average": 6.2, "title": "Underworld: Awakening", "release_date": "2012-01-19", "original_language": "en", "original_title": "Underworld: Awakening", "genre_ids": [28, 14, 27], "backdrop_path": "/8iNsXY3LPsuT0gnUiTBMoNuRZI7.jpg", "adult": false, "overview": "Having escaped years of imprisonment, vampire warrioress Selene finds herself in a changed world where humans have discovered the existence of both Vampire and Lycan clans and are conducting an all-out war to eradicate both immortal species. Now Selene must battle the humans and a frightening new breed of super Lycans to ensure the death dealers' survival.", "poster_path": "/ayazc5fQ2YAw7vjaE1WGlJWtGX9.jpg", "popularity": 15.03}, {"adult": false, "backdrop_path": "/GRyynLqafMrLFMHqvfGdUweavA.jpg", "genre_ids": [27, 18, 14], "id": 628, "original_language": "en", "original_title": "Interview with the Vampire", "overview": "A vampire relates his epic life story of love, betrayal, loneliness, and dark hunger to an over-curious reporter.", "poster_path": "/hldXwwViSfHJS0kIJr07KBGmHJI.jpg", "release_date": "1994-11-11", "title": "Interview with the Vampire", "video": false, "vote_average": 7.3, "vote_count": 3231, "popularity": 21.064}, {"id": 6114, "video": false, "vote_count": 2611, "vote_average": 7.4, "title": "Dracula", "release_date": "1992-11-13", "original_language": "en", "original_title": "Dracula", "genre_ids": [27, 10749], "backdrop_path": "/hm2stwkNFAaXMEeetJS2RZ77zC1.jpg", "adult": false, "overview": "When Dracula leaves the captive Jonathan Harker and Transylvania for London in search of Mina Harker\u2014the reincarnation of Dracula's long-dead wife, Elisabeta\u2014obsessed vampire hunter Dr. Van Helsing sets out to end the madness.", "poster_path": "/ioHxm3D3JdSXR61LRhcVb8KdZOz.jpg", "popularity": 21.922}, {"id": 2907, "video": false, "vote_count": 2495, "vote_average": 7.0, "title": "The Addams Family", "release_date": "1991-11-22", "original_language": "en", "original_title": "The Addams Family", "genre_ids": [35, 14, 27], "backdrop_path": "/5ZVG87nRXvzTv8VXdcYE5GzLg4K.jpg", "adult": false, "overview": "When an evil doctor finds out Uncle Fester has been missing for 25 years, he introduces a fake Fester in an attempt to get the Addams family's money. Wednesday has some doubts about the new uncle Fester, but the fake uncle adapts very well to the strange family.", "poster_path": "/ajiQj0jbacMAmPxDU3fP9TeIfTi.jpg", "popularity": 23.376}], "total_pages": 61, "total_results": 1213}, "recommendations": {"page": 1, "results": [], "total_pages": 1, "total_results": 0}, "credits": {"cast": [{"cast_id": 2, "character": "Rich Stevens", "credit_id": "57de41f2c3a368141f007a98", "gender": 0, "id": 1681068, "name": "Mark Sawyer", "order": 0, "profile_path": null}, {"cast_id": 3, "character": "Sondra Gard", "credit_id": "57de41fe92514135dc00313f", "gender": 1, "id": 98678, "name": "Stephanie Beaton", "order": 1, "profile_path": "/ycVhx45fe7riYp65PRLoMWPQYXy.jpg"}, {"cast_id": 4, "character": "Siodmak", "credit_id": "57de4221c3a3680956002f5a", "gender": 0, "id": 1681069, "name": "Jason Clark", "order": 2, "profile_path": null}, {"cast_id": 5, "character": "Kass", "credit_id": "57de422d92514135dc00314b", "gender": 0, "id": 1681070, "name": "Eric Mestressat", "order": 3, "profile_path": null}, {"cast_id": 13, "character": "Lt. Justine Evers", "credit_id": "58e9d00ac3a36872af0678c2", "gender": 1, "id": 1030701, "name": "Tarri Markel", "order": 4, "profile_path": "/kQKH8yHmerNlLY1c0N4ipSotZSX.jpg"}, {"cast_id": 7, "character": "Dr. Atwill", "credit_id": "57de424dc3a3681308003173", "gender": 2, "id": 1175064, "name": "Tim Sullivan", "order": 5, "profile_path": null}, {"cast_id": 8, "character": "Rita Stevens", "credit_id": "57de426bc3a3681308003183", "gender": 0, "id": 98907, "name": "Deborah Huber", "order": 6, "profile_path": null}, {"cast_id": 9, "character": "Hunter", "credit_id": "57de42859251413d68002f07", "gender": 0, "id": 98670, "name": "Vinnie Bilancio", "order": 7, "profile_path": null}, {"cast_id": 10, "character": "Hunter", "credit_id": "57de428dc3a3682e18004b9e", "gender": 2, "id": 98712, "name": "Ron Ford", "order": 8, "profile_path": "/32NE2b0T0sBcNRkQz2qFkLn9afh.jpg"}], "crew": [{"credit_id": "57de42a39251417025004eef", "department": "Production", "gender": 2, "id": 98519, "job": "Producer", "name": "David S. Sterling", "profile_path": null}, {"credit_id": "57de41179251413d740030cc", "department": "Directing", "gender": 0, "id": 98680, "job": "Director", "name": "Jeff Leroy", "profile_path": null}, {"credit_id": "57de4149c3a3680956002f0b", "department": "Directing", "gender": 2, "id": 1175064, "job": "Director", "name": "Tim Sullivan", "profile_path": null}, {"credit_id": "57de42ae9251413da3002faf", "department": "Writing", "gender": 2, "id": 1175064, "job": "Writer", "name": "Tim Sullivan", "profile_path": null}]}}