{"adult": false, "backdrop_path": null, "belongs_to_collection": null, "budget": 0, "genres": [{"id": 28, "name": "Action"}, {"id": 12, "name": "Adventure"}, {"id": 18, "name": "Drama"}], "homepage": "", "id": 86230, "imdb_id": "tt0192993", "original_language": "tr", "original_title": "A\u00e7 Kurtlar", "overview": "Memed is a fugitive with a sole purpose to find and execute bandits in the mountains to avenge the death of his wife. One day he saves a woman from the hands of bandits\u2026", "popularity": 1.4, "poster_path": "/elZcM9xT8F9wurGRkBJMGCy2ona.jpg", "production_companies": [{"id": 71447, "logo_path": null, "name": "G\u00fcney Film", "origin_country": ""}], "production_countries": [{"iso_3166_1": "TR", "name": "Turkey"}], "release_date": "1969-01-01", "revenue": 0, "runtime": 85, "spoken_languages": [{"iso_639_1": "tr", "name": "T\u00fcrk\u00e7e"}], "status": "Released", "tagline": "", "title": "The Hungry Wolves", "video": false, "vote_average": 0.0, "vote_count": 0, "keywords": {"keywords": [{"id": 9748, "name": "revenge"}, {"id": 33344, "name": "bandit"}]}, "similar": {"page": 1, "results": [{"adult": false, "backdrop_path": "/a24i4Qw6qFTtkFLQsncv8WPwevj.jpg", "genre_ids": [53, 28, 80], "id": 345887, "original_language": "en", "original_title": "The Equalizer 2", "overview": "Robert McCall, who serves an unflinching justice for the exploited and oppressed, embarks on a relentless, globe-trotting quest for vengeance when a long-time girl friend is murdered.", "poster_path": "/cQvc9N6JiMVKqol3wcYrGshsIdZ.jpg", "release_date": "2018-07-19", "title": "The Equalizer 2", "video": false, "vote_average": 6.5, "vote_count": 2483, "popularity": 21.271}, {"id": 46957, "video": false, "vote_count": 6, "vote_average": 6.5, "title": "Intimate Confessions of a Chinese Courtesan", "release_date": "1972-07-09", "original_language": "zh", "original_title": "\u611b\u5974", "genre_ids": [28, 18], "backdrop_path": "/3y2BtcjEm4yhMystxeOh46u35dH.jpg", "adult": false, "overview": "18 year old Ainu (Lily Ho) is kidnapped and sold to a brothel. Her good looks and wild personality make her very popular with the lustful clients, but also draws the lesbian attentions of brothel madam Betty Tei Pei. Betty teaches Ainu the ways of lust and the ways of kung fu, and Ainu becomes more and more similar to her captor. But rage at her treatment is still burning inside her.", "poster_path": "/x9nmTjbAcxWL3WYGBhn22IhPQ6V.jpg", "popularity": 3.818}, {"adult": false, "backdrop_path": "/kiWvoV78Cc3fUwkOHKzyBgVdrDD.jpg", "genre_ids": [37, 18, 12], "id": 281957, "original_language": "en", "original_title": "The Revenant", "overview": "In the 1820s, a frontiersman, Hugh Glass, sets out on a path of vengeance against those who left him for dead after a bear mauling.", "poster_path": "/oXUWEc5i3wYyFnL1Ycu8ppxxPvs.jpg", "release_date": "2015-12-25", "title": "The Revenant", "video": false, "vote_average": 7.5, "vote_count": 12127, "popularity": 24.135}, {"id": 458594, "video": false, "vote_count": 983, "vote_average": 6.5, "title": "Peppermint", "release_date": "2018-09-06", "original_language": "en", "original_title": "Peppermint", "genre_ids": [28, 53], "backdrop_path": "/9krZX6T4EEs5eFpXgSi8jZkN48O.jpg", "adult": false, "overview": "A grieving mother transforms herself into a vigilante following the murders of her husband and daughter, eluding the authorities to deliver her own personal brand of justice.", "poster_path": "/jrzxS0vcbzIIay1sdYm0rgI2QfJ.jpg", "popularity": 18.265}, {"adult": false, "backdrop_path": "/rPfyX0pkmn8Ea4gh3DfsmzFUf05.jpg", "genre_ids": [18, 27, 80], "id": 74997, "original_language": "en", "original_title": "The Human Centipede 2 (Full Sequence)", "overview": "Inspired by the fictional Dr. Heiter, disturbed loner Martin dreams of creating a 12-person centipede and sets out to realize his sick fantasy.", "poster_path": "/kFtAdkCO0vXN2RWu2oMcR9GZ9Hi.jpg", "release_date": "2011-10-06", "title": "The Human Centipede 2 (Full Sequence)", "video": false, "vote_average": 4.5, "vote_count": 674, "popularity": 14.216}, {"adult": false, "backdrop_path": "/fy1C5tM9L39i7JF0iw6DIycOO1j.jpg", "genre_ids": [18, 28, 53], "id": 11713, "original_language": "zh", "original_title": "\u7cbe\u6b66\u9580", "overview": "Chen Zhen returns to the international compound of China only to learn of his beloved teacher's death. This is compounded by the continual racist harassment by the Japanese population in the area. Unlike his friends, he confronts it head on with his mastery of martial arts while investigating his teacher's murder.", "poster_path": "/ld1kAfLJTgpZVm3jwT58bTxmXl7.jpg", "release_date": "1972-03-22", "title": "Fist of Fury", "video": false, "vote_average": 7.4, "vote_count": 406, "popularity": 16.304}, {"adult": false, "backdrop_path": "/iZOgAvUt6q356da1sfYz1UalNO.jpg", "genre_ids": [80, 18, 10749, 53], "id": 3134, "original_language": "fr", "original_title": "Baise-moi", "overview": "Manu has lived a difficult life. Abused and violently raped, she sets off to find herself only to meet Nadine, a prostitute who has encountered one too many injustices in the world. Angry at the world, they embark on a twisted, rage-filled road trip. They choose to have sex when they please and kill when they need. Leaving a trail of mischief and dead bodies in their wake. Generating a media blitz and manhunt, soon everyone is out to capture the young fugitives.", "poster_path": "/sLvsIgWMH9bV1IZnZOzY5dXKUHe.jpg", "release_date": "2000-06-28", "title": "Baise-moi", "video": false, "vote_average": 4.3, "vote_count": 173, "popularity": 14.535}, {"adult": false, "backdrop_path": "/2BLk25CMNl22IHqVJSAu3nkWoUj.jpg", "genre_ids": [28, 80, 53], "id": 26789, "original_language": "en", "original_title": "No Mercy", "overview": "An unconventional undercover Chicago cop and his partner are recruited to commit the murder of a New Orleans criminal kingpin.", "poster_path": "/iQozlPXgadwTvymHWH1mPWzM80a.jpg", "release_date": "1986-12-19", "title": "No Mercy", "video": false, "vote_average": 5.8, "vote_count": 71, "popularity": 9.238}, {"id": 37835, "video": false, "vote_count": 54, "vote_average": 5.7, "title": "The Exterminator", "release_date": "1980-09-10", "original_language": "en", "original_title": "The Exterminator", "genre_ids": [28, 80, 18, 53], "backdrop_path": "/7WlZBIMGjpWAiTKs6DAfuZtYots.jpg", "adult": false, "overview": "A man's best friend is killed on the streets of New York. The man (Robert Ginty) then transforms into a violent killer, turning New York into a great war zone and Christopher George is the only one to stop him.", "poster_path": "/5fPvIpNmZ71XiLNxZ2072b8wdqg.jpg", "popularity": 6.152}, {"id": 311, "video": false, "vote_count": 2595, "vote_average": 8.4, "title": "Once Upon a Time in America", "release_date": "1984-05-23", "original_language": "en", "original_title": "Once Upon a Time in America", "genre_ids": [80, 18], "backdrop_path": "/vnT6HzjLSDrAweHn9xWykb8Ii6T.jpg", "adult": false, "overview": "A former Prohibition-era Jewish gangster returns to the Lower East Side of Manhattan over thirty years later, where he once again must confront the ghosts and regrets of his old life.", "poster_path": "/x733R4ISI0RbKeHhVkXdTMFmTFr.jpg", "popularity": 22.233}, {"id": 156022, "video": false, "vote_count": 5468, "vote_average": 7.2, "title": "The Equalizer", "release_date": "2014-09-24", "original_language": "en", "original_title": "The Equalizer", "genre_ids": [28, 80, 53], "backdrop_path": "/vbl4ZVqelrrzJ16fdDOq9siWbpi.jpg", "adult": false, "overview": "McCall believes he has put his mysterious past behind him and dedicated himself to beginning a new, quiet life. But when he meets Teri, a young girl under the control of ultra-violent Russian gangsters, he can\u2019t stand idly by \u2013 he has to help her. Armed with hidden skills that allow him to serve vengeance against anyone who would brutalize the helpless, McCall comes out of his self-imposed retirement and finds his desire for justice reawakened. If someone has a problem, if the odds are stacked against them, if they have nowhere else to turn, McCall will help. He is The Equalizer.", "poster_path": "/2eQfjqlvPAxd9aLDs8DvsKLnfed.jpg", "popularity": 39.578}, {"id": 24, "video": false, "vote_count": 10676, "vote_average": 7.9, "title": "Kill Bill: Vol. 1", "release_date": "2003-10-10", "original_language": "en", "original_title": "Kill Bill: Vol. 1", "genre_ids": [28, 80], "backdrop_path": "/kkS8PKa8c134vXsj2fQkNqOaCXU.jpg", "adult": false, "overview": "An assassin is shot by her ruthless employer, Bill, and other members of their assassination circle \u2013 but she lives to plot her vengeance.", "poster_path": "/v7TaX8kXMXs5yFFGR41guUDNcnB.jpg", "popularity": 35.853}, {"id": 395834, "video": false, "vote_count": 2755, "vote_average": 7.4, "title": "Wind River", "release_date": "2017-08-03", "original_language": "en", "original_title": "Wind River", "genre_ids": [80, 18, 9648, 53], "backdrop_path": "/6B8e784decj9vtKuNjbl9Fes2aZ.jpg", "adult": false, "overview": "An FBI agent teams with the town's veteran game tracker to investigate a murder that occurred on a Native American reservation.", "poster_path": "/pySivdR845Hom4u4T2WNkJxe6Ad.jpg", "popularity": 16.931}, {"adult": false, "backdrop_path": "/tBWZkKMcrWdrpkOAA84FBlzE2XK.jpg", "genre_ids": [12, 28, 53], "id": 9053, "original_language": "en", "original_title": "DOA: Dead or Alive", "overview": "Four beautiful rivals at an invitation-only martial-arts tournament join forces against a sinister threat. Princess Kasumi is an aristocratic warrior trained by martial-arts masters. Tina Armstrong is a wrestling superstar. Helena Douglas is an athlete with a tragic past. Christie Allen earns her keep as a thief and an assassin-for-hire.", "poster_path": "/lZ6vZka2M0jtH1khYWa8j73E275.jpg", "release_date": "2006-09-07", "title": "DOA: Dead or Alive", "video": false, "vote_average": 4.9, "vote_count": 415, "popularity": 15.433}, {"adult": false, "backdrop_path": "/39jfRKSZZlHxfrdZOsR4R80gVoc.jpg", "genre_ids": [18, 28], "id": 8456, "original_language": "en", "original_title": "Never Back Down", "overview": "Rebellious Jake Tyler is lured into an ultimate underground fight Scene at his new high school, after receiving threats to the safety of his friends and family Jake decides to seek the mentoring of a veteran fighter who trains him for one final no-holds-barred elimination fight with his nemesis and local martial arts champion Ryan McCarthy.", "poster_path": "/6vT35MJ67U3llfi6W7MbM5r2dav.jpg", "release_date": "2008-03-04", "title": "Never Back Down", "video": false, "vote_average": 6.6, "vote_count": 1246, "popularity": 14.955}, {"adult": false, "backdrop_path": "/pA64Ov7lDpwXBu33yq0KpmAOYJL.jpg", "genre_ids": [27, 53], "id": 357096, "original_language": "en", "original_title": "I Spit on Your Grave III: Vengeance is Mine", "overview": "Jennifer Hills is still tormented by the brutal sexual assault she endured years ago. She\u2019s changed identities and cities, reluctantly joining a support group where she begins to piece together a new life. But when her new friend\u2019s murderer goes free and the tales of serial rapists haunt her, Jennifer will hunt down the men responsible and do what the system won\u2019t \u2013 make them pay for their crimes in the most horrific ways imaginable. Only this time, no jury may be able to save her.", "poster_path": "/6SnOlgrUoC5jqmgcYIM5lde5zYq.jpg", "release_date": "2015-10-01", "title": "I Spit on Your Grave III: Vengeance is Mine", "video": false, "vote_average": 5.3, "vote_count": 437, "popularity": 20.815}, {"adult": false, "backdrop_path": "/ct2r3CqnA0KtMfib4AvfBU1W9M2.jpg", "genre_ids": [28, 80, 53], "id": 398175, "original_language": "en", "original_title": "Brawl in Cell Block 99", "overview": "After working as a drug courier and getting into a brutal shootout with police, a former boxer finds himself at the mercy of his enemies as they force him to instigate violent acts that turn the prison he resides in into a battleground.", "poster_path": "/lGgIQ10NJ3d0X0uFbbUN4pRrMFZ.jpg", "release_date": "2017-09-23", "title": "Brawl in Cell Block 99", "video": false, "vote_average": 6.8, "vote_count": 605, "popularity": 13.011}, {"id": 994, "video": false, "vote_count": 444, "vote_average": 7.2, "title": "Straw Dogs", "release_date": "1971-12-23", "original_language": "en", "original_title": "Straw Dogs", "genre_ids": [80, 18, 53], "backdrop_path": "/yL7uVOyvwZeP2U0zKIE3WQqoilA.jpg", "adult": false, "overview": "David Sumner, a mild-mannered academic from the United States, marries Amy, an Englishwoman. In order to escape a hectic stateside lifestyle, David and his wife relocate to the small town in rural Cornwall where Amy was raised. There, David is ostracized by the brutish men of the village, including Amy's old flame, Charlie. Eventually the taunts escalate, and two of the locals rape Amy. This sexual assault awakes a shockingly violent side of David.", "poster_path": "/yigkfHE1OhkxPPrjrV78Y9ibGEk.jpg", "popularity": 15.307}, {"adult": false, "backdrop_path": "/2AWa7xe0GIYNKY0t8oZUxKu68Rz.jpg", "genre_ids": [12, 18, 28], "id": 246, "original_language": "ja", "original_title": "\u5ea7\u982d\u5e02", "overview": "Zatoichi is a 19th century blind nomad who makes his living as a gambler and masseur. However, behind this humble facade, he is a master swordsman gifted with a lightning-fast draw and breathtaking precision. While wandering, Zatoichi discovers a remote mountain village at the mercy of Ginzo, a ruthless gang-leader. Ginzo disposes of anyone who gets in his way, especially after hiring the mighty samurai ronin, Hattori, as a bodyguard. After a raucous night of gambling in town, Zatoichi encounters a pair of geishas--as dangerous as they are beautiful--who've come to avenge their parents' murder. As the paths of these and other colorful characters intertwine, Ginzo's henchmen are soon after Zatoichi. With his legendary cane sword at his side, the stage is set for a riveting showdown.", "poster_path": "/xNFaRG30R3IiVFMgX8X8kAFGxCP.jpg", "release_date": "2003-09-06", "title": "Zatoichi", "video": false, "vote_average": 7.3, "vote_count": 417, "popularity": 10.708}, {"adult": false, "backdrop_path": "/uUYCUbgI5VxsUflTMI4Y9L2Y6vb.jpg", "genre_ids": [80, 18, 53], "id": 11423, "original_language": "ko", "original_title": "\uc0b4\uc778\uc758 \ucd94\uc5b5", "overview": "1986 Gyunggi Province. The body of a young woman is found brutally raped and murdered. Two months later, a series of rapes and murders commences under similar circumstances. And in a country that had never known such crimes, the dark whispers about a serial murderer grow louder. A special task force is set up in the area, with two local detectives Park Doo-Man and Jo Young-Goo joined by a detective from Seoul who requested to be assigned to the case.", "poster_path": "/gawnVe9cFowdoDLo9Pok12NTw39.jpg", "release_date": "2003-05-02", "title": "Memories of Murder", "video": false, "vote_average": 8.1, "vote_count": 1093, "popularity": 13.452}], "total_pages": 396, "total_results": 7911}, "recommendations": {"page": 1, "results": [], "total_pages": 1, "total_results": 0}, "credits": {"cast": [{"cast_id": 2, "character": "Ser\u00e7e Memet", "credit_id": "52fe49799251416c910ae6e7", "gender": 0, "id": 145352, "name": "Y\u0131lmaz G\u00fcney", "order": 0, "profile_path": "/uvvCvfKUSP29UYOd3nJAWYeMzqO.jpg"}, {"cast_id": 6, "character": "Memet's wife", "credit_id": "57011b7cc3a3686e7d005b33", "gender": 0, "id": 33555, "name": "Sevgi Can", "order": 1, "profile_path": null}, {"cast_id": 7, "character": "Kara Aziz", "credit_id": "57011bc492514122fa0000b4", "gender": 0, "id": 1280604, "name": "Hayati Hamzao\u011flu", "order": 2, "profile_path": "/vYuye7nTz7GLlxUmiaYORrVs7gM.jpg"}, {"cast_id": 8, "character": "", "credit_id": "57011bfc92514175690025e7", "gender": 0, "id": 1600362, "name": "T\u00fcrkan Agrali", "order": 3, "profile_path": null}, {"cast_id": 9, "character": "", "credit_id": "57011c0fc3a3686e92006200", "gender": 0, "id": 1600364, "name": "\u00c7etin Dagdelen", "order": 4, "profile_path": null}, {"cast_id": 10, "character": "", "credit_id": "57011ddbc3a3686e9e005558", "gender": 2, "id": 1078374, "name": "S\u0131rr\u0131 Elita\u015f", "order": 5, "profile_path": "/pNaxoZwtl8LnSLQhU9dYoWwcMfd.jpg"}, {"cast_id": 11, "character": "", "credit_id": "57011dfb9251417647003555", "gender": 0, "id": 584553, "name": "Savas Esici", "order": 6, "profile_path": null}, {"cast_id": 12, "character": "", "credit_id": "570121ac92514106c60041f6", "gender": 2, "id": 1202119, "name": "\u0130hsan Gedik", "order": 7, "profile_path": "/n0CT9AsL7dzDIzigoQZyKHUWkmI.jpg"}, {"cast_id": 13, "character": "", "credit_id": "570121d4925141454a000b43", "gender": 0, "id": 1600390, "name": "Enver G\u00fcney", "order": 8, "profile_path": null}, {"cast_id": 14, "character": "", "credit_id": "570121e3c3a3686e98005bb0", "gender": 0, "id": 1600391, "name": "Mine Hos", "order": 9, "profile_path": null}, {"cast_id": 15, "character": "", "credit_id": "570121f3925141454a000b4b", "gender": 2, "id": 54552, "name": "Bilal \u0130nci", "order": 10, "profile_path": "/8VGsfAre6VxaTrG85Qp4kivG3ad.jpg"}, {"cast_id": 17, "character": "", "credit_id": "57012229c3a3686e920062fc", "gender": 0, "id": 1600396, "name": "Ahmet Ko\u00e7", "order": 12, "profile_path": null}, {"cast_id": 18, "character": "", "credit_id": "5de9c13f11386c0016593ad8", "gender": 2, "id": 571444, "name": "Hakk\u0131 K\u0131van\u00e7", "order": 13, "profile_path": "/y1tQKJG3eZLSrwTweWDg61daOTn.jpg"}], "crew": [{"credit_id": "52fe49799251416c910ae6e3", "department": "Directing", "gender": 0, "id": 145352, "job": "Director", "name": "Y\u0131lmaz G\u00fcney", "profile_path": "/uvvCvfKUSP29UYOd3nJAWYeMzqO.jpg"}, {"credit_id": "57011ae592514176470034e6", "department": "Production", "gender": 0, "id": 145352, "job": "Producer", "name": "Y\u0131lmaz G\u00fcney", "profile_path": "/uvvCvfKUSP29UYOd3nJAWYeMzqO.jpg"}, {"credit_id": "57011accc3a3686e88005436", "department": "Writing", "gender": 0, "id": 145352, "job": "Writer", "name": "Y\u0131lmaz G\u00fcney", "profile_path": "/uvvCvfKUSP29UYOd3nJAWYeMzqO.jpg"}, {"credit_id": "57011b11c3a3686e84005b87", "department": "Camera", "gender": 0, "id": 1200606, "job": "Director of Photography", "name": "Ali Ugur", "profile_path": null}]}}