{"adult": false, "backdrop_path": null, "belongs_to_collection": null, "budget": 3000000, "genres": [{"id": 27, "name": "Horror"}], "homepage": null, "id": 86326, "imdb_id": "tt0098089", "original_language": "en", "original_title": "Phantom of the Mall: Eric's Revenge", "overview": "Eric owns a huge house and some greedy people want to build a mall over it. So they get someone to burn down his house. Eric is badly burned but not dead, and a year later the mall opens. What they don't realise is that Eric is living underneath the mall and he's very angry!", "popularity": 2.394, "poster_path": "/bQ6QvPhj5u33crGbeJdKTHn8H1p.jpg", "production_companies": [{"id": 21756, "logo_path": null, "name": "Fries Entertainment", "origin_country": ""}], "production_countries": [{"iso_3166_1": "US", "name": "United States of America"}], "release_date": "1989-12-01", "revenue": 0, "runtime": 91, "spoken_languages": [{"iso_639_1": "en", "name": "English"}], "status": "Released", "tagline": "Be nice to Eric. Or Eric won't be nice to you.", "title": "Phantom of the Mall: Eric's Revenge", "video": false, "vote_average": 3.8, "vote_count": 4, "keywords": {"keywords": [{"id": 8087, "name": "horror"}, {"id": 157690, "name": "mall"}, {"id": 233843, "name": "phantom of the opera"}]}, "similar": {"page": 1, "results": [{"id": 619265, "video": false, "vote_count": 0, "vote_average": 0.0, "title": "The Cabin House", "release_date": "2019-10-31", "original_language": "en", "original_title": "The Cabin House", "genre_ids": [27, 53], "backdrop_path": null, "adult": false, "overview": "A group of college friends rent a cabin in a remote part of town for a weekend getaway. A weekend getaway that quickly turns from a weekend of fun to a weekend of pure terror.", "poster_path": "/yJBg7i9qciw9gKknt97vrxZyYUS.jpg", "popularity": 1.818}, {"id": 542224, "video": false, "vote_count": 0, "vote_average": 0.0, "title": "Gretel & Hansel", "release_date": "2020-01-30", "original_language": "en", "original_title": "Gretel & Hansel", "genre_ids": [14, 27, 53], "backdrop_path": "/en1XAePgWqNSXb82luUMmo5u3cF.jpg", "adult": false, "overview": "A long time ago in a distant fairy tale countryside, a young girl leads her little brother into a dark wood in desperate search of food and work, only to stumble upon a nexus of terrifying evil.", "poster_path": "/5C8dpkagBhYyQpNCAVLgHOesgLM.jpg", "popularity": 18.277}, {"id": 587138, "video": false, "vote_count": 0, "vote_average": 0.0, "title": "Driven", "release_date": "2019-02-09", "original_language": "en", "original_title": "Driven", "genre_ids": [35, 27, 53], "backdrop_path": null, "adult": false, "overview": "Emerson Graham's nights as a cab driver are filled with annoyances and inconveniences, but until tonight, never attacks and disappearances. After picking up a mysterious passenger her evening goes from working a job to performing a quest as they must race against the clock to defeat a force of evil. The meter is running.", "poster_path": "/ca0URmLciw4rZgjWU6y2nOapyGU.jpg", "popularity": 3.765}, {"id": 61012, "video": false, "vote_count": 889, "vote_average": 5.2, "title": "Silent Hill: Revelation 3D", "release_date": "2012-10-10", "original_language": "en", "original_title": "Silent Hill: Revelation 3D", "genre_ids": [27, 9648, 53], "backdrop_path": "/hkfL4220Tf7LmAGq55wwRtu0GPr.jpg", "adult": false, "overview": "Heather Mason and her father have been on the run, always one step ahead of dangerous forces that she doesn't fully understand, Now on the eve of her 18th birthday, plagued by horrific nightmares and the disappearance of her father, Heather discovers she's not who she thinks she is. The revelation leads her deeper into a demonic world that threatens to trap her forever.", "poster_path": "/2CCTIpe69ekgpvyeZdVM7QinPmz.jpg", "popularity": 19.285}, {"id": 282035, "video": false, "vote_count": 4849, "vote_average": 5.5, "title": "The Mummy", "release_date": "2017-06-06", "original_language": "en", "original_title": "The Mummy", "genre_ids": [28, 12, 14, 27, 53], "backdrop_path": "/5TC6gKrmtnoGE3c3lHeNPevkn4Z.jpg", "adult": false, "overview": "Though safely entombed in a crypt deep beneath the unforgiving desert, an ancient queen whose destiny was unjustly taken from her is awakened in our current day, bringing with her malevolence grown over millennia, and terrors that defy human comprehension.", "poster_path": "/zxkY8byBnCsXodEYpK8tmwEGXBI.jpg", "popularity": 22.059}, {"id": 599975, "video": false, "vote_count": 185, "vote_average": 6.5, "title": "Countdown", "release_date": "2019-10-24", "original_language": "en", "original_title": "Countdown", "genre_ids": [27, 53], "backdrop_path": "/zETkzgle7c6wAeW11snnVUBp67S.jpg", "adult": false, "overview": "A young nurse downloads an app that tells her she only has three days to live. With time ticking away and a mysterious figure haunting her, she must find a way to save her life before time runs out.", "poster_path": "/qCDPKUMX5xrxxQY8XhGVCKO3fks.jpg", "popularity": 85.699}, {"id": 8840, "video": false, "vote_count": 1169, "vote_average": 6.5, "title": "DragonHeart", "release_date": "1996-05-31", "original_language": "en", "original_title": "DragonHeart", "genre_ids": [28, 12, 14], "backdrop_path": "/1VWsgfwm3cJ4vZnKEWxOj9cv7q.jpg", "adult": false, "overview": "In an ancient time when majestic fire-breathers soared through the skies, a knight named Bowen comes face to face and heart to heart with the last dragon on Earth, Draco. Taking up arms to suppress a tyrant king, Bowen soon realizes his task will be harder than he'd imagined: If he kills the king, Draco will die as well.", "poster_path": "/5bqI54aIyPDzPKkScwJprzbAsIi.jpg", "popularity": 17.182}, {"id": 49530, "video": false, "vote_count": 6907, "vote_average": 6.9, "title": "In Time", "release_date": "2011-10-27", "original_language": "en", "original_title": "In Time", "genre_ids": [28, 878, 53], "backdrop_path": "/cnGPiAd7D50YFcpt6HK7CwTUCew.jpg", "adult": false, "overview": "In the not-too-distant future the aging gene has been switched off. To avoid overpopulation, time has become the currency and the way people pay for luxuries and necessities. The rich can live forever, while the rest try to negotiate for their immortality. A poor young man who comes into a fortune of time, though too late to help his mother from dying. He ends up on the run from a corrupt police force known as 'time keepers'.", "poster_path": "/lnYuAr3QOPzvuEFlzpsRUq41IEy.jpg", "popularity": 24.14}, {"id": 339527, "video": false, "vote_count": 1390, "vote_average": 6.3, "title": "Solace", "release_date": "2015-09-03", "original_language": "en", "original_title": "Solace", "genre_ids": [80, 9648, 53], "backdrop_path": "/gv1vnLPKRuAnpql7A0g4APvRaR9.jpg", "adult": false, "overview": "A psychic doctor, John Clancy, works with an FBI special agent in search of a serial killer.", "poster_path": "/pbcXpZgem8kgr90RwIUNAbC2ite.jpg", "popularity": 14.353}, {"adult": false, "backdrop_path": "/bd6NQDFpUoqNWWJ8eBBip3SR2kP.jpg", "genre_ids": [53], "id": 574376, "original_language": "es", "original_title": "Quien a hierro mata", "overview": "Mario, an exemplary man, lives in a village on the Galician coast. In the old people\u2019s home, where he works as a nurse, everyone appreciates him. When the best known narco in the area, Antonio Pad\u00edn, recently released from prison, enters the residence, Mario tries to make Antonio feel at home.\r Now, Pad\u00edn\u00b4s two sons, Kike and To\u00f1o, are in charge of the family business. The failure of an operation will put Kike in jail and cause them to owe a large debt to a Colombian supplier. To\u00f1o will turn to the nurse to try to convince his father to assume the debt. But Mario has his own plans.", "poster_path": "/xG27BPvHm96YF78iVUcqVbj1BHH.jpg", "release_date": "2019-08-30", "title": "Eye for an Eye", "video": false, "vote_average": 6.7, "vote_count": 34, "popularity": 17.204}, {"adult": false, "backdrop_path": "/tcJIy7V4H8v9accnFAKyuKwAtQR.jpg", "genre_ids": [10749, 35, 80], "id": 1389, "original_language": "en", "original_title": "Out of Sight", "overview": "Meet Jack Foley, a smooth criminal who bends the law and is determined to make one last heist. Karen Sisco is a federal marshal who chooses all the right moves \u2026 and all the wrong guys. Now they're willing to risk it all to find out if there's more between them than just the law.", "poster_path": "/hSL2Ta4ErgAxPEOlkkxZmrTSAET.jpg", "release_date": "1998-06-26", "title": "Out of Sight", "video": false, "vote_average": 6.6, "vote_count": 611, "popularity": 16.444}, {"id": 1487, "video": false, "vote_count": 4489, "vote_average": 6.6, "title": "Hellboy", "release_date": "2004-04-02", "original_language": "en", "original_title": "Hellboy", "genre_ids": [28, 14], "backdrop_path": "/13DIK3beAoroeJSdrcYm66s6hal.jpg", "adult": false, "overview": "In the final days of World War II, the Nazis attempt to use black magic to aid their dying cause. The Allies raid the camp where the ceremony is taking place, but not before a demon\u2014Hellboy\u2014has already been conjured. Joining the Allied forces, Hellboy eventually grows to adulthood, serving the cause of good rather than evil.", "poster_path": "/buAYSdNVKMgNhdcuKHIwelSQxPe.jpg", "popularity": 29.399}, {"adult": false, "backdrop_path": "/o4lpqMqDQGx4RVorWzcHnSaDeRo.jpg", "genre_ids": [27], "id": 1690, "original_language": "en", "original_title": "Hostel", "overview": "Three backpackers head to a Slovakian city that promises to meet their hedonistic expectations, with no idea of the hell that awaits them.", "poster_path": "/zF3pEs1CUbjPgioxDH4h2MEHsWl.jpg", "release_date": "2006-01-06", "title": "Hostel", "video": false, "vote_average": 5.8, "vote_count": 2026, "popularity": 16.556}, {"adult": false, "backdrop_path": "/5mDCKKS7M8aUZKdShnCa7lLbzmH.jpg", "genre_ids": [16, 10751], "id": 62211, "original_language": "en", "original_title": "Monsters University", "overview": "A look at the relationship between Mike and Sulley during their days at Monsters University \u2014 when they weren't necessarily the best of friends.", "poster_path": "/a05xQU9huY3P5uurLcGGHmsf2Vh.jpg", "release_date": "2013-06-20", "title": "Monsters University", "video": false, "vote_average": 7.0, "vote_count": 6945, "popularity": 23.536}, {"id": 19994, "video": false, "vote_count": 1888, "vote_average": 5.4, "title": "Jennifer's Body", "release_date": "2009-09-18", "original_language": "en", "original_title": "Jennifer's Body", "genre_ids": [35, 27], "backdrop_path": "/aTmh5w201d86lt3juFk8tbK297Y.jpg", "adult": false, "overview": "A newly possessed cheerleader turns into a killer who specializes in offing her male classmates. Can her best friend put an end to the horror?", "poster_path": "/tdNlGoHmz77XQlBB21tL8qtxFHq.jpg", "popularity": 21.542}, {"adult": false, "backdrop_path": "/ukdawD1jq3IRzpoYE2x6GXOuX3c.jpg", "genre_ids": [27], "id": 211067, "original_language": "en", "original_title": "The Sacrament", "overview": "A fashion photographer is traveling to meet his sister at Eden Parish. Once there, his friends begin to film interviews with the Eden Parish inhabitants, all of whom speak of the commune in glowing terms. However, they soon discover that there is a sinister edge to the commune that belies the seemingly peaceful setting.", "poster_path": "/thdioQOYqqusDUfT6trgwMIoNaQ.jpg", "release_date": "2013-09-02", "title": "The Sacrament", "video": false, "vote_average": 5.7, "vote_count": 226, "popularity": 8.477}, {"id": 994, "video": false, "vote_count": 444, "vote_average": 7.2, "title": "Straw Dogs", "release_date": "1971-12-23", "original_language": "en", "original_title": "Straw Dogs", "genre_ids": [80, 18, 53], "backdrop_path": "/yL7uVOyvwZeP2U0zKIE3WQqoilA.jpg", "adult": false, "overview": "David Sumner, a mild-mannered academic from the United States, marries Amy, an Englishwoman. In order to escape a hectic stateside lifestyle, David and his wife relocate to the small town in rural Cornwall where Amy was raised. There, David is ostracized by the brutish men of the village, including Amy's old flame, Charlie. Eventually the taunts escalate, and two of the locals rape Amy. This sexual assault awakes a shockingly violent side of David.", "poster_path": "/yigkfHE1OhkxPPrjrV78Y9ibGEk.jpg", "popularity": 15.307}, {"adult": false, "backdrop_path": "/uZVs1cX00LBKcLMWrmCsZznCuGu.jpg", "genre_ids": [18, 27, 878], "id": 338676, "original_language": "en", "original_title": "Extinction", "overview": "And suddenly, overnight, the world came to a halt. Two men, two survivors, one kid, and hatred that separates them. A place forgotten by everyone, including the creatures that inhabit the Earth... until now.", "poster_path": "/xEoleA3nm71cE7wiu4IXfk7yH8K.jpg", "release_date": "2015-08-07", "title": "Extinction", "video": false, "vote_average": 5.7, "vote_count": 342, "popularity": 9.328}, {"id": 377264, "video": false, "vote_count": 916, "vote_average": 5.7, "title": "Morgan", "release_date": "2016-09-01", "original_language": "en", "original_title": "Morgan", "genre_ids": [27, 878, 53], "backdrop_path": "/jRRpMTpCsiq100A0lQWGQf1jrdE.jpg", "adult": false, "overview": "A corporate risk-management consultant must determine whether or not to terminate an artificial being's life that was made in a laboratory environment.", "poster_path": "/oY5YBkruSCh36kRTzB4W2Li70fj.jpg", "popularity": 11.478}, {"id": 167032, "video": false, "vote_count": 802, "vote_average": 5.8, "title": "Curse of Chucky", "release_date": "2013-10-04", "original_language": "en", "original_title": "Curse of Chucky", "genre_ids": [27, 53], "backdrop_path": "/e95CLG02scalwpHgR0BSCUXWeE3.jpg", "adult": false, "overview": "After the passing of her mother, a young woman in a wheelchair since birth, is forced to deal with her sister, brother-in-law, niece and their nanny as they say their goodbyes to mother. When people start turning up dead, Nica discovers the culprit might be a strange doll she received a few days earlier.", "poster_path": "/qoFfZa6b9xsr1dJwdb6SCiw2KHs.jpg", "popularity": 16.411}], "total_pages": 51, "total_results": 1016}, "recommendations": {"page": 1, "results": [], "total_pages": 1, "total_results": 0}, "credits": {"cast": [{"cast_id": 9, "character": "Eric Matthews", "credit_id": "57f05b6292514141db00af28", "gender": 2, "id": 939692, "name": "Derek Rydall", "order": 0, "profile_path": null}, {"cast_id": 12, "character": "Melody Austin", "credit_id": "57f05b8292514141db00af32", "gender": 1, "id": 157983, "name": "Kari Whitman", "order": 1, "profile_path": "/aU8ny5DiTtqx33C0nOFT8KTOogS.jpg"}, {"cast_id": 11, "character": "Peter Baldwin", "credit_id": "57f05b79925141592500783a", "gender": 0, "id": 20960, "name": "Rob Estes", "order": 2, "profile_path": "/7sF1WhiD0FVa7Pqt0ktrbyD020R.jpg"}, {"cast_id": 1, "character": "Buzz", "credit_id": "52fe49819251416c910af667", "gender": 2, "id": 64998, "name": "Pauly Shore", "order": 3, "profile_path": "/uI7ctTqSIlLL7nn6UqDdqqhGNVC.jpg"}, {"cast_id": 2, "character": "Mayor Karen Wilton", "credit_id": "52fe49819251416c910af66b", "gender": 1, "id": 14990, "name": "Morgan Fairchild", "order": 4, "profile_path": "/v0Fyz7tpk6M9DDrQWVkFh3TL75x.jpg"}, {"cast_id": 3, "character": "Acardi", "credit_id": "52fe49819251416c910af66f", "gender": 2, "id": 15070, "name": "Ken Foree", "order": 5, "profile_path": "/wGgcIcKwF4n8yLuaoAKtXoHAOZt.jpg"}, {"cast_id": 4, "character": "Salesgirl", "credit_id": "52fe49819251416c910af673", "gender": 1, "id": 53924, "name": "Kelly Rutherford", "order": 6, "profile_path": "/ih8lRdl0n990xk4D21FS8CBW0g5.jpg"}, {"cast_id": 10, "character": "Harv Posner", "credit_id": "57f05b6fc3a3683f200065f8", "gender": 2, "id": 1196540, "name": "Jonathan Goldsmith", "order": 7, "profile_path": "/dCOO6NtaRKFPEHwOqmLIGt3DoRR.jpg"}, {"cast_id": 13, "character": "Suzie", "credit_id": "57f05b8ac3a3683f7200682f", "gender": 1, "id": 155924, "name": "Kimber Sissons", "order": 8, "profile_path": "/haDmw3AvB4WVS2TkNpoiq40YIR4.jpg"}, {"cast_id": 17, "character": "Christopher Volker", "credit_id": "57f05bd79251415a3b007297", "gender": 2, "id": 44178, "name": "Gregory Scott Cummins", "order": 9, "profile_path": "/jU0FkHNoGP92vEIJqYrH2beKUoo.jpg"}, {"cast_id": 14, "character": "Justin", "credit_id": "57f05b9392514141df00b082", "gender": 2, "id": 64202, "name": "Tom Fridley", "order": 10, "profile_path": "/vzn8PJbG0fqnJ33sqgjZPhhfyfM.jpg"}, {"cast_id": 15, "character": "Devon", "credit_id": "57f05b9cc3a3683c0c0068f0", "gender": 2, "id": 1211987, "name": "John Walter Davis", "order": 11, "profile_path": "/8gCQk8JW6vynPPhhScryy0Ldvkx.jpg"}, {"cast_id": 51, "character": "Mr. Webster", "credit_id": "5d901f09109cd00019438581", "gender": 0, "id": 2421013, "name": "Gary McGurk", "order": 12, "profile_path": null}, {"cast_id": 52, "character": "Piano Man", "credit_id": "5d901f3779b3d4000f8d57e6", "gender": 0, "id": 152888, "name": "Dante D'Andre", "order": 13, "profile_path": null}, {"cast_id": 53, "character": "Security Guard", "credit_id": "5d901f58109cd0002143a4ef", "gender": 2, "id": 132054, "name": "Terrence Evans", "order": 14, "profile_path": "/jhEu0HyHPbFh3cbIoWGW95ubEK1.jpg"}, {"cast_id": 54, "character": "Reporter #1", "credit_id": "5d901fca79b3d400278dc7dc", "gender": 0, "id": 2421016, "name": "Jake Jacobs", "order": 15, "profile_path": null}, {"cast_id": 55, "character": "Reporter #2", "credit_id": "5d901fff172d7f002756a653", "gender": 0, "id": 2421017, "name": "Dick Hancock", "order": 16, "profile_path": null}, {"cast_id": 18, "character": "Melody (body double) (as Crysstin Dante)", "credit_id": "5c1aa7ed0e0a265f5f55966f", "gender": 1, "id": 937335, "name": "Crisstyn Dante", "order": 17, "profile_path": null}, {"cast_id": 16, "character": "Girl in Dressing Room (uncredited)", "credit_id": "57f05bc4c3a3683f20006615", "gender": 1, "id": 97621, "name": "Brinke Stevens", "order": 18, "profile_path": "/2Mf5I56C4OlH63WjFBzkF6V6bFm.jpg"}, {"cast_id": 56, "character": "Girl dancing w/ Buzz in nightclub (uncredited)", "credit_id": "5d902064172d7f000d575c0d", "gender": 2, "id": 1401262, "name": "Dick Hancock", "order": 19, "profile_path": null}], "crew": [{"credit_id": "5d901b55109cd00021439d64", "department": "Costume & Make-Up", "gender": 2, "id": 23788, "job": "Makeup Effects Designer", "name": "Matthew W. Mungle", "profile_path": "/tqWimllnrZzZdi5Bdw7Wlrs5nnl.jpg"}, {"credit_id": "5d901ba7172d7f0027569d29", "department": "Production", "gender": 0, "id": 34891, "job": "Unit Production Manager", "name": "Mike Johnson", "profile_path": "/tTt2lxSH3q8fxF6GYbvYpnXaq54.jpg"}, {"credit_id": "52fe49819251416c910af679", "department": "Directing", "gender": 2, "id": 39167, "job": "Director", "name": "Richard Friedman", "profile_path": null}, {"credit_id": "5d901bd266a7c300298a2fdb", "department": "Directing", "gender": 0, "id": 42692, "job": "Second Assistant Director", "name": "Richard Hench", "profile_path": null}, {"credit_id": "5d901992109cd0001943787b", "department": "Production", "gender": 2, "id": 48806, "job": "Executive Producer", "name": "Charles W. Fries", "profile_path": null}, {"credit_id": "5d9019c266a7c300298a2d67", "department": "Production", "gender": 0, "id": 147359, "job": "Producer", "name": "Thomas Fries", "profile_path": null}, {"credit_id": "52fe49819251416c910af67f", "department": "Writing", "gender": 2, "id": 383759, "job": "Writer", "name": "Scott J. Schneid", "profile_path": null}, {"credit_id": "52fe49819251416c910af685", "department": "Writing", "gender": 0, "id": 1162689, "job": "Writer", "name": "Frederick Urich", "profile_path": null}, {"credit_id": "5d9019e679b3d400178dc662", "department": "Production", "gender": 0, "id": 1186924, "job": "Associate Producer", "name": "Robert J. Koster", "profile_path": null}, {"credit_id": "5d901cef79b3d400278dbf3f", "department": "Sound", "gender": 0, "id": 1204836, "job": "ADR Editor", "name": "Val Kuklowsky", "profile_path": null}, {"credit_id": "550fc2f9c3a3683e7f0046e3", "department": "Writing", "gender": 2, "id": 1224549, "job": "Screenplay", "name": "Robert King", "profile_path": "/fCeDPxdYWQDkbFKvDFQr8Csyi8T.jpg"}, {"credit_id": "5d901b9279b3d4000f8d52ab", "department": "Production", "gender": 0, "id": 1242498, "job": "Executive In Charge Of Production", "name": "S. Bryan Hickox", "profile_path": null}, {"credit_id": "5d901a9879b3d400178dcc06", "department": "Production", "gender": 1, "id": 1282415, "job": "Casting", "name": "Rosemary Welden", "profile_path": null}, {"credit_id": "5d901c8c109cd00019437d24", "department": "Crew", "gender": 0, "id": 1287672, "job": "Special Effects Coordinator", "name": "Larry Fioritto", "profile_path": null}, {"credit_id": "5d901a33109cd00021439c49", "department": "Sound", "gender": 0, "id": 1317454, "job": "Music", "name": "Stacy Widelitz", "profile_path": null}, {"credit_id": "5d901a4a66a7c300298a2e01", "department": "Crew", "gender": 2, "id": 1323719, "job": "Cinematography", "name": "Harry Mathias", "profile_path": null}, {"credit_id": "5d901af479b3d4000f8d5193", "department": "Costume & Make-Up", "gender": 0, "id": 1325043, "job": "Costume Design", "name": "Judy B. Swartz", "profile_path": null}, {"credit_id": "5d901d2c172d7f000d575180", "department": "Sound", "gender": 0, "id": 1344255, "job": "Supervising Sound Editor", "name": "Anthony Milch", "profile_path": null}, {"credit_id": "5d901c4866a7c3000f8a379a", "department": "Crew", "gender": 0, "id": 1399991, "job": "Scenic Artist", "name": "Roger Dietz", "profile_path": null}, {"credit_id": "5d901a8a66a7c300198a3bb3", "department": "Editing", "gender": 0, "id": 1407824, "job": "Editor", "name": "Amy Tompkins", "profile_path": null}, {"credit_id": "5d901b0f109cd00021439d05", "department": "Costume & Make-Up", "gender": 0, "id": 1428127, "job": "Makeup Artist", "name": "Lynne K. Eagan", "profile_path": null}, {"credit_id": "5d901a5f109cd0002943f743", "department": "Editing", "gender": 0, "id": 1545535, "job": "Editor", "name": "Gregory F. Plotts", "profile_path": null}, {"credit_id": "5d901c1866a7c3000f8a36a0", "department": "Directing", "gender": 0, "id": 1806178, "job": "First Assistant Director", "name": "Steve Ray", "profile_path": null}, {"credit_id": "5d901c6c172d7f0027569fc4", "department": "Art", "gender": 0, "id": 1852732, "job": "Set Dresser", "name": "Audrey Stanzler", "profile_path": null}, {"credit_id": "5d901b3d172d7f0027569c0f", "department": "Costume & Make-Up", "gender": 0, "id": 1859465, "job": "Hair Designer", "name": "Roseanne McIlvane", "profile_path": null}, {"credit_id": "5d901c5879b3d4000f8d5381", "department": "Art", "gender": 0, "id": 2081402, "job": "Property Master", "name": "David Q. Quick", "profile_path": null}, {"credit_id": "5d901caf66a7c3000f8a3884", "department": "Crew", "gender": 0, "id": 2153877, "job": "Special Effects Technician", "name": "Joe Heffernan", "profile_path": null}, {"credit_id": "5d901a2179b3d400278dba22", "department": "Production", "gender": 0, "id": 2420998, "job": "Associate Producer", "name": "Paul Little", "profile_path": null}, {"credit_id": "5d901acf109cd0002943f830", "department": "Art", "gender": 0, "id": 2421001, "job": "Production Design", "name": "Gary T. New", "profile_path": null}, {"credit_id": "5d901ae279b3d4001f8e0f37", "department": "Art", "gender": 0, "id": 2421002, "job": "Set Decoration", "name": "Suzanne Shield-Polk", "profile_path": null}, {"credit_id": "5d901b6779b3d400178dcd5c", "department": "Costume & Make-Up", "gender": 0, "id": 2421003, "job": "Makeup Artist", "name": "Julie Socash", "profile_path": null}, {"credit_id": "5d901be866a7c300198a3d7a", "department": "Directing", "gender": 0, "id": 2421004, "job": "Second Second Assistant Director", "name": "Joseph R. Moeller", "profile_path": null}, {"credit_id": "5d901bf866a7c3000f8a35ff", "department": "Directing", "gender": 0, "id": 2421005, "job": "Second Second Assistant Director", "name": "Marshall Peck", "profile_path": null}, {"credit_id": "5d901c3a79b3d400178dcf70", "department": "Art", "gender": 0, "id": 2421006, "job": "Set Dresser", "name": "Stanton Chaney", "profile_path": null}, {"credit_id": "5d901cd9172d7f000d5750b6", "department": "Sound", "gender": 0, "id": 2421009, "job": "Sound Recordist", "name": "Ronnie Budwig", "profile_path": null}, {"credit_id": "5d901d1a66a7c300198a3f3d", "department": "Sound", "gender": 0, "id": 2421010, "job": "Boom Operator", "name": "Robert Maxfield", "profile_path": null}]}}