{"adult": false, "backdrop_path": "/nWLLMnlW5uy2Jx46I797AHAXzNp.jpg", "belongs_to_collection": null, "budget": 0, "genres": [{"id": 28, "name": "Action"}, {"id": 53, "name": "Thriller"}], "homepage": "http://www.crownintlpictures.com/ostitles.html", "id": 86501, "imdb_id": "tt0070752", "original_language": "en", "original_title": "Superchick", "overview": "Tara B. True is a flight attendant who makes a weekly swing through New York, Miami, and Los Angeles. In each city, she has a man: Edward, older and wealthy; Johnny, a beach bum with gambling debts; and, Davey, a rock musician on the cusp of success. Tara is a free spirit, faithful to each man in her own way, and so stunning that she dresses in a wig and ill-fitting uniform while she's working so men won't harass her constantly. The low-life whom Johnny is in debt to figures out a way to use Tara to help him execute a daring in-flight robbery. But will Tara stand by helplessly, or is superchick ready for action?", "popularity": 3.857, "poster_path": "/eZ850EYplyvesaPHxfoTtoYnB1R.jpg", "production_companies": [{"id": 1010, "logo_path": null, "name": "Marimark Productions", "origin_country": ""}, {"id": 1009, "logo_path": null, "name": "Crown International Pictures", "origin_country": ""}], "production_countries": [{"iso_3166_1": "US", "name": "United States of America"}], "release_date": "1973-09-01", "revenue": 0, "runtime": 94, "spoken_languages": [{"iso_639_1": "en", "name": "English"}], "status": "Released", "tagline": "Everything You Ever Wanted In A Woman And More... A Lot More!", "title": "Superchick", "video": false, "vote_average": 4.7, "vote_count": 8, "keywords": {"keywords": [{"id": 2080, "name": "stewardess"}, {"id": 2804, "name": "exploitation"}, {"id": 3436, "name": "karate"}, {"id": 10184, "name": "airplane hijacking"}, {"id": 34137, "name": "dungeon"}]}, "similar": {"page": 1, "results": [{"adult": false, "backdrop_path": "/lnxiNlbStoBT4CDMqPAdprS5pwN.jpg", "genre_ids": [28, 53], "id": 1991, "original_language": "en", "original_title": "Death Proof", "overview": "Austin's hottest DJ, Jungle Julia, sets out into the night to unwind with her two friends Shanna and Arlene. Covertly tracking their moves is Stuntman Mike, a scarred rebel leering from behind the wheel of his muscle car, revving just feet away.", "poster_path": "/nyQBcpxqS4im2akQlWG9Y1oeM2V.jpg", "release_date": "2007-05-21", "title": "Death Proof", "video": false, "vote_average": 6.8, "vote_count": 2821, "popularity": 17.718}, {"adult": false, "backdrop_path": "/913sS08HhcTQTwz7X567iR6DLHn.jpg", "genre_ids": [12, 28, 53], "id": 682, "original_language": "en", "original_title": "The Man with the Golden Gun", "overview": "A golden bullet has 007 engraved on it as it smashes into the secret service headquarters. The bullet came from the professional killer Scaramanga who has yet to miss a target and James Bond begins a mission to try and stop him.", "poster_path": "/7VSVgxAvA7IdTf8T6Oon1eaReeJ.jpg", "release_date": "1974-12-01", "title": "The Man with the Golden Gun", "video": false, "vote_average": 6.5, "vote_count": 996, "popularity": 17.905}, {"adult": false, "backdrop_path": "/tBWZkKMcrWdrpkOAA84FBlzE2XK.jpg", "genre_ids": [12, 28, 53], "id": 9053, "original_language": "en", "original_title": "DOA: Dead or Alive", "overview": "Four beautiful rivals at an invitation-only martial-arts tournament join forces against a sinister threat. Princess Kasumi is an aristocratic warrior trained by martial-arts masters. Tina Armstrong is a wrestling superstar. Helena Douglas is an athlete with a tragic past. Christie Allen earns her keep as a thief and an assassin-for-hire.", "poster_path": "/lZ6vZka2M0jtH1khYWa8j73E275.jpg", "release_date": "2006-09-07", "title": "DOA: Dead or Alive", "video": false, "vote_average": 4.9, "vote_count": 415, "popularity": 15.433}, {"id": 480001, "video": false, "vote_count": 154, "vote_average": 6.5, "title": "The Art of Self-Defense", "release_date": "2019-07-12", "original_language": "en", "original_title": "The Art of Self-Defense", "genre_ids": [35, 18], "backdrop_path": "/cUkpSTVt0iUbIVFDxvUGs747OMW.jpg", "adult": false, "overview": "Casey is attacked at random on the street and enlists in a local dojo led by a charismatic and mysterious Sensei in an effort to learn how to defend himself. What he uncovers is a sinister world of fraternity, violence and hypermasculinity and a woman fighting for her place in it.", "poster_path": "/bTq793Qwl3tCXb94zrDPAwppbsC.jpg", "popularity": 19.982}, {"id": 9470, "video": false, "vote_count": 1392, "vote_average": 7.3, "title": "Kung Fu Hustle", "release_date": "2004-02-10", "original_language": "cn", "original_title": "\u529f\u592b", "genre_ids": [28, 35, 80, 14], "backdrop_path": "/qpJWj6MI6VLRt9bGbJVZtmFvqWw.jpg", "adult": false, "overview": "Set in Canton, China in the 1940s, the story revolves in a town ruled by the Axe Gang, Sing who desperately wants to become a member. He stumbles into a slum ruled by eccentric landlords who turns out to be the greatest kung-fu masters in disguise. Sing's actions eventually cause the Axe Gang and the slumlords to engage in an explosive kung-fu battle. Only one side will win and only one hero will emerge as the greatest kung-fu master of all.", "poster_path": "/dZsfDrNLGWgsIUQL1vGhl8tbnqY.jpg", "popularity": 17.654}, {"adult": false, "backdrop_path": "/9DlrsXH9LOgPeuF6Hljmx8GQNlM.jpg", "genre_ids": [18, 28], "id": 7549, "original_language": "zh", "original_title": "\u970d\u5143\u7532", "overview": "Huo Yuan Jia became the most famous martial arts fighter in all of China at the turn of the 20th Century. Huo faced personal tragedy but ultimately fought his way out of darkness, defining the true spirit of martial arts and also inspiring his nation. The son of a great fighter who didn't wish for his child to follow in his footsteps, Huo resolves to teach himself how to fight - and win.", "poster_path": "/nPku02hVAFPsAd1pJr81OkdBidw.jpg", "release_date": "2006-01-26", "title": "Fearless", "video": false, "vote_average": 7.4, "vote_count": 648, "popularity": 12.897}, {"adult": false, "backdrop_path": "/fLMv873bBAvrCtzeAbRVjb4Mi9Y.jpg", "genre_ids": [28, 53, 80], "id": 27582, "original_language": "en", "original_title": "The Mechanic", "overview": "Arthur Bishop is a 'mechanic' - an elite assassin with a strict code and unique talent for cleanly eliminating targets. It's a job that requires professional perfection and total detachment, and Bishop is the best in the business. But when he is ordered to take out his mentor and close friend Harry, Bishop is anything but detached.", "poster_path": "/eScKoGnjaUvGD2OkK3DImyzfVkt.jpg", "release_date": "2011-01-13", "title": "The Mechanic", "video": false, "vote_average": 6.3, "vote_count": 1857, "popularity": 20.52}, {"id": 485811, "video": false, "vote_count": 52, "vote_average": 4.4, "title": "Redcon-1", "release_date": "2018-09-07", "original_language": "en", "original_title": "Redcon-1", "genre_ids": [28, 27], "backdrop_path": "/palbhPOSYf2g1p18vWd91dDhZLM.jpg", "adult": false, "overview": "After a zombie apocalypse spreads from a London prison, the UK is brought to its knees. The spread of the virus is temporarily contained but, without a cure, it\u2019s only a matter of time before it breaks its boundaries and the biggest problem of all\u2026 any zombies with combat skills are now enhanced. With the South East of England quarantined from the rest of the world using fortified borders, intelligence finds that the scientist responsible for the outbreak is alive and well in London. With his recovery being the only hope of a cure, a squad of eight Special Forces soldiers is sent on a suicide mission to the city, now ruled by the undead, with a single task: get him out alive within 72 hours by any means necessary. What emerges is an unlikely pairing on a course to save humanity against ever-rising odds.", "poster_path": "/vVPrWngVJ2cfYAncBedQty69Dlf.jpg", "popularity": 8.926}, {"adult": false, "backdrop_path": "/r3xsFBD1VTUusk393bBc7SsDUJe.jpg", "genre_ids": [80, 18, 53], "id": 553, "original_language": "en", "original_title": "Dogville", "overview": "A barren soundstage is stylishly utilized to create a minimalist small-town setting in which a mysterious woman named Grace hides from the criminals who pursue her. The town is two-faced and offers to harbor Grace as long as she can make it worth their effort, so Grace works hard under the employ of various townspeople to win their favor. Tensions flare, however, and Grace's status as a helpless outsider provokes vicious contempt and abuse from the citizens of Dogville.", "poster_path": "/g1xLrof2RVgtHBB4fLvR5Xr8l5x.jpg", "release_date": "2003-05-19", "title": "Dogville", "video": false, "vote_average": 7.8, "vote_count": 1359, "popularity": 16.355}, {"adult": false, "backdrop_path": "/2f8fkWSWOVcTlWforoVpsuaCiwI.jpg", "genre_ids": [53, 28], "id": 449985, "original_language": "en", "original_title": "Triple Threat", "overview": "A crime syndicate places a hit on a billionaire's daughter, making her the target of an elite assassin squad. A small band of down-and-out mercenaries protects her, fighting tooth and nail to stop the assassins from reaching their target.", "poster_path": "/cSpM3QxmoSLp4O1WAMQpUDcaB7R.jpg", "release_date": "2019-03-19", "title": "Triple Threat", "video": false, "vote_average": 5.5, "vote_count": 146, "popularity": 17.856}, {"id": 391757, "video": false, "vote_count": 185, "vote_average": 6.5, "title": "Never Back Down: No Surrender", "release_date": "2016-06-07", "original_language": "en", "original_title": "Never Back Down: No Surrender", "genre_ids": [28, 18], "backdrop_path": "/pzjnObK3uiHcKwiir9OPPWzbW8f.jpg", "adult": false, "overview": "Picking up after the events of Never Back Down 2, former MMA champion Case Walker is on the comeback trail to become champion once again.", "poster_path": "/dYNS4o4Q4DDLiKRAAvZ9KcrhHuy.jpg", "popularity": 16.224}, {"adult": false, "backdrop_path": "/9IfO3W1MUzDdpBqY1Ru6dzdJJld.jpg", "genre_ids": [18, 36, 10752, 28], "id": 2024, "original_language": "en", "original_title": "The Patriot", "overview": "After proving himself on the field of battle in the French and Indian War, Benjamin Martin wants nothing more to do with such things, preferring the simple life of a farmer. But when his son Gabriel enlists in the army to defend their new nation, America, against the British, Benjamin reluctantly returns to his old life to protect his son.", "poster_path": "/tgXOraQmKatqrVs2KMgnNn6QpO.jpg", "release_date": "2000-06-28", "title": "The Patriot", "video": false, "vote_average": 7.1, "vote_count": 2186, "popularity": 22.486}, {"id": 9335, "video": false, "vote_count": 2014, "vote_average": 6.3, "title": "Transporter 2", "release_date": "2005-08-02", "original_language": "en", "original_title": "Transporter 2", "genre_ids": [28, 80, 53], "backdrop_path": "/71NvWirONP0ZEBfVIdOb3D9GfQ3.jpg", "adult": false, "overview": "Professional driver Frank Martin is living in Miami, where he is temporarily filling in for a friend as the chauffeur for a government narcotics control policymaker and his family. The young boy in the family is targeted for kidnapping, and Frank immediately becomes involved in protecting the child and exposing the kidnappers.", "poster_path": "/bZKkwfQf4mHYlNbmViNjmAN60zY.jpg", "popularity": 24.24}, {"id": 140300, "video": false, "vote_count": 3210, "vote_average": 6.7, "title": "Kung Fu Panda 3", "release_date": "2016-01-23", "original_language": "en", "original_title": "Kung Fu Panda 3", "genre_ids": [28, 12, 16, 35, 10751], "backdrop_path": "/eHWmEUP4fa7h1Fe7TXfTL7ncDl8.jpg", "adult": false, "overview": "Continuing his \"legendary adventures of awesomeness\", Po must face two hugely epic, but different threats: one supernatural and the other a little closer to his home.", "poster_path": "/MZFPacfKzgisnPoJIPEFZUXBBT.jpg", "popularity": 29.466}, {"adult": false, "backdrop_path": "/51N8GQvpWKOxmq53UdkNRpBtXvg.jpg", "genre_ids": [28, 80, 53], "id": 2085, "original_language": "en", "original_title": "Romeo Must Die", "overview": "Two warring gang families (one African-American, the other Chinese) maneuver for bragging rights to the Oakland, California, docks. Hang Sing and Trish O'Day uncover a trail of deceit that leaves most of the warring factions dead \u2026 or worse!", "poster_path": "/pZuGxXuAFMIKilwMaDAHucCEaNt.jpg", "release_date": "2000-03-20", "title": "Romeo Must Die", "video": false, "vote_average": 6.0, "vote_count": 614, "popularity": 13.902}, {"id": 458156, "video": false, "vote_count": 3681, "vote_average": 7.1, "title": "John Wick: Chapter 3 - Parabellum", "release_date": "2019-05-15", "original_language": "en", "original_title": "John Wick: Chapter 3 - Parabellum", "genre_ids": [28, 80, 53], "backdrop_path": "/stemLQMLDrlpfIlZ5OjllOPT8QX.jpg", "adult": false, "overview": "Super-assassin John Wick returns with a $14 million price tag on his head and an army of bounty-hunting killers on his trail. After killing a member of the shadowy international assassin\u2019s guild, the High Table, John Wick is excommunicado, but the world\u2019s most ruthless hit men and women await his every turn.", "poster_path": "/ziEuG1essDuWuC5lpWUaw1uXY2O.jpg", "popularity": 57.095}, {"id": 1498, "video": false, "vote_count": 919, "vote_average": 6.6, "title": "Teenage Mutant Ninja Turtles", "release_date": "1990-03-30", "original_language": "en", "original_title": "Teenage Mutant Ninja Turtles", "genre_ids": [28, 12, 35, 878, 10751], "backdrop_path": "/PxZWmNlfpuU8A26ZrYzpLaOX9S.jpg", "adult": false, "overview": "A quartet of mutated humanoid turtles clash with an uprising criminal gang of ninjas", "poster_path": "/cok0SSxmD7fYeZj6l9XOr2mb0YL.jpg", "popularity": 16.055}, {"id": 9312, "video": false, "vote_count": 1039, "vote_average": 5.7, "title": "Mortal Kombat", "release_date": "1995-08-18", "original_language": "en", "original_title": "Mortal Kombat", "genre_ids": [28, 14], "backdrop_path": "/mOIvM0pQA7J9I0Caai0zTPxnE3f.jpg", "adult": false, "overview": "For nine generations an evil sorcerer has been victorious in hand-to-hand battle against his mortal enemies. If he wins a tenth Mortal Kombat tournament, desolation and evil will reign over the multiverse forever. To save Earth, three warriors must overcome seemingly insurmountable odds, their own inner demons, and superhuman foes in this action/adventure movie based on one of the most popular video games of all time.", "poster_path": "/aQarGLCGr9ueYuwh9EXz3DfeEd9.jpg", "popularity": 17.982}, {"adult": false, "backdrop_path": "/a24i4Qw6qFTtkFLQsncv8WPwevj.jpg", "genre_ids": [53, 28, 80], "id": 345887, "original_language": "en", "original_title": "The Equalizer 2", "overview": "Robert McCall, who serves an unflinching justice for the exploited and oppressed, embarks on a relentless, globe-trotting quest for vengeance when a long-time girl friend is murdered.", "poster_path": "/cQvc9N6JiMVKqol3wcYrGshsIdZ.jpg", "release_date": "2018-07-19", "title": "The Equalizer 2", "video": false, "vote_average": 6.5, "vote_count": 2482, "popularity": 24.261}, {"id": 24, "video": false, "vote_count": 10676, "vote_average": 7.9, "title": "Kill Bill: Vol. 1", "release_date": "2003-10-10", "original_language": "en", "original_title": "Kill Bill: Vol. 1", "genre_ids": [28, 80], "backdrop_path": "/kkS8PKa8c134vXsj2fQkNqOaCXU.jpg", "adult": false, "overview": "An assassin is shot by her ruthless employer, Bill, and other members of their assassination circle \u2013 but she lives to plot her vengeance.", "poster_path": "/v7TaX8kXMXs5yFFGR41guUDNcnB.jpg", "popularity": 35.853}], "total_pages": 108, "total_results": 2141}, "recommendations": {"page": 1, "results": [{"adult": false, "backdrop_path": "/gDjrOndKwnPKYHZuMaDX5P6ozAV.jpg", "genre_ids": [37], "id": 90342, "original_language": "it", "original_title": "Joe... cercati un posto per morire!", "overview": "An outcast Confederate soldier protects a woman from bandits trying to steal her gold mine.", "poster_path": "/awcHaWYt5MF1yDD7oNfvUtMiXpX.jpg", "release_date": "1968-09-21", "title": "Find a Place to Die", "video": false, "vote_average": 4.9, "vote_count": 4, "popularity": 2.525}, {"adult": false, "backdrop_path": "/gaZWWfrTJcSaQ3oxCyojglVP8vL.jpg", "genre_ids": [28, 27, 878, 35], "id": 324812, "original_language": "en", "original_title": "Alien Tampon", "overview": "When an unsuspecting student inserts a blood drenched alientampon and mutates into a murdering monster, a group of students unite their forces in order to confront her with weapons and courage.", "poster_path": "/5bwXpRWW13CAa2ou6gou2N8OV5R.jpg", "release_date": "2015-02-12", "title": "Alien Tampon", "video": false, "vote_average": 6.4, "vote_count": 5, "popularity": 2.092}, {"adult": false, "backdrop_path": "/iiuwPIaqaCKWtpctCINhiBvxjs3.jpg", "genre_ids": [12, 18, 27], "id": 28676, "original_language": "it", "original_title": "Schiave bianche: violenza in Amazzonia", "overview": "A young woman seeks vengeance and finds love when her parents are killed in the Amazon and she is taken prisoner by an indigenous tribe of headhunters.", "poster_path": "/3JyXxD36qG4fDMhLX3VT1OqSVMV.jpg", "release_date": "1985-08-09", "title": "Amazonia: The Catherine Miles Story", "video": false, "vote_average": 4.5, "vote_count": 24, "popularity": 8.485}, {"id": 47345, "video": false, "vote_count": 19, "vote_average": 5.0, "title": "She", "release_date": "1984-07-12", "original_language": "en", "original_title": "She", "genre_ids": [28, 12, 14], "backdrop_path": "/6EMJA9gEMRJtKl41ao4QMIuk9L5.jpg", "adult": false, "overview": "In a backward post-apocalyptic world, She aids two brothers' quest to rescue their kidnapped sister. Along the way, they battle orgiastic werewolves, a psychic communist, a tutu-wearing giant, a mad scientist, and gladiators before standing against the odds to defeat the evil Norks.", "poster_path": "/OhlAjrcIslX6kL882NqVSrGl6i.jpg", "popularity": 4.2}, {"adult": false, "backdrop_path": "/3cKxJznR0Jq34fCHXWCMxQ3tded.jpg", "genre_ids": [28, 12, 878, 14], "id": 86337, "original_language": "en", "original_title": "Gor", "overview": "American professor Tarl Cabot is transported via a magical ring to planet Gor, where he must help an oppressed country overthrow its evil king and his barbarian henchmen.", "poster_path": "/acXyv4FGpUssF3bBM6W6J8QpNgr.jpg", "release_date": "1987-05-08", "title": "Gor", "video": false, "vote_average": 3.6, "vote_count": 19, "popularity": 4.859}], "total_pages": 1, "total_results": 5}, "credits": {"cast": [{"cast_id": 4, "character": "Superchick", "credit_id": "52fe498a9251416c910b096d", "gender": 0, "id": 200343, "name": "Joyce Jillson", "order": 0, "profile_path": "/9nviUUJ1V0gHHVvDjM57OVHjSlb.jpg"}, {"cast_id": 7, "character": "Garrick", "credit_id": "52fe498a9251416c910b0979", "gender": 2, "id": 151579, "name": "Louis Quinn", "order": 1, "profile_path": "/jJrwbxMVGH4SQoqtsB33JwJwPpi.jpg"}, {"cast_id": 8, "character": "Ernest", "credit_id": "52fe498a9251416c910b097d", "gender": 0, "id": 1170139, "name": "Thomas Reardon", "order": 2, "profile_path": null}, {"cast_id": 6, "character": "Johnny", "credit_id": "52fe498a9251416c910b0975", "gender": 2, "id": 161297, "name": "Tony Young", "order": 3, "profile_path": "/qxAaXnfVKZH3jkMKj0XbrcGdCYd.jpg"}, {"cast_id": 9, "character": "Davy Charles", "credit_id": "52fe498a9251416c910b0981", "gender": 0, "id": 564536, "name": "Timothy Wayne Brown", "order": 4, "profile_path": null}, {"cast_id": 5, "character": "Igor Smith", "credit_id": "52fe498a9251416c910b0971", "gender": 2, "id": 8516, "name": "John Carradine", "order": 5, "profile_path": "/cUlQO0vGGFoF3VZjzok8U276exY.jpg"}, {"cast_id": 10, "character": "Mayday", "credit_id": "52fe498a9251416c910b0985", "gender": 1, "id": 41699, "name": "Uschi Digard", "order": 6, "profile_path": "/qQjXVpWgcHNnzXPPmlNWyd0V9kb.jpg"}, {"cast_id": 11, "character": "Sims", "credit_id": "57a8cfb2c3a36826e9007ea0", "gender": 2, "id": 1663345, "name": "Junero Jennings", "order": 7, "profile_path": null}, {"cast_id": 12, "character": "Pete", "credit_id": "57a91a18c3a36826e900a047", "gender": 0, "id": 1042689, "name": "Steve Drexel", "order": 8, "profile_path": null}, {"cast_id": 13, "character": "Marine", "credit_id": "57a91b03c3a368261700a50e", "gender": 2, "id": 152707, "name": "James Carroll Jordan", "order": 9, "profile_path": "/snfrJlQkBKO1y85PHJUMHeRslSj.jpg"}, {"cast_id": 14, "character": "Tommy Hooks", "credit_id": "5c14bb6bc3a36866c5367e71", "gender": 0, "id": 101439, "name": "Phil Hoover", "order": 10, "profile_path": null}, {"cast_id": 15, "character": "Co-Pilot", "credit_id": "5c14bb770e0a2603783c4cb9", "gender": 0, "id": 101462, "name": "Marland Proctor", "order": 11, "profile_path": "/iGmleeCkPMYX0ZdgRrYCjHKlRD.jpg"}, {"cast_id": 16, "character": "Party Girl (as Flo Gerrish)", "credit_id": "5c14bb8cc3a36866d8367aaa", "gender": 1, "id": 1364919, "name": "Flo Lawrence", "order": 12, "profile_path": "/7rVJ9aEXSGabhbqyfnTKe8PLncM.jpg"}, {"cast_id": 17, "character": "Lady on Boat (as Mary Gavin)", "credit_id": "5c14bb9b92514132c00a74f6", "gender": 1, "id": 33570, "name": "Candy Samples", "order": 13, "profile_path": "/bryDx9ylXTjOJ1rmtAIocN4NEUV.jpg"}, {"cast_id": 18, "character": "Nudie Producer", "credit_id": "5c14bbac0e0a26038b3c5005", "gender": 0, "id": 107089, "name": "Myron Griffith", "order": 14, "profile_path": null}, {"cast_id": 19, "character": "Dungeon Master on Movie Set (uncredited)", "credit_id": "5c14bbbc0e0a2603783c4cdd", "gender": 2, "id": 104588, "name": "Rick Cassidy", "order": 15, "profile_path": "/8VDsAi5SH8c3fM9gIcqHDfrKab2.jpg"}, {"cast_id": 20, "character": "Biker with Bandana (uncredited)", "credit_id": "5c14bbc80e0a2603823c5b94", "gender": 2, "id": 98082, "name": "Dan Haggerty", "order": 16, "profile_path": "/pnvQMpsSQsuy28gAZH1pzm4mm9Z.jpg"}], "crew": [{"credit_id": "52fe498a9251416c910b095d", "department": "Directing", "gender": 0, "id": 1081612, "job": "Director", "name": "Ed Forsyth", "profile_path": null}, {"credit_id": "52fe498a9251416c910b0963", "department": "Writing", "gender": 0, "id": 1060266, "job": "Screenplay", "name": "Gary Crutcher", "profile_path": null}, {"credit_id": "52fe498a9251416c910b0969", "department": "Writing", "gender": 0, "id": 13664, "job": "Story", "name": "John Burrows", "profile_path": null}]}}