{"adult": false, "backdrop_path": null, "belongs_to_collection": null, "budget": 5000, "genres": [{"id": 27, "name": "Horror"}], "homepage": null, "id": 86658, "imdb_id": "tt1777642", "original_language": "en", "original_title": "Zombie Christ", "overview": "Druids resurrect the partially mummified remains of Jesus. They force the zombified Christ to commit unspeakable acts as their sect prepares to rule a new age of mankind.", "popularity": 0.874, "poster_path": "/qX4gLUErOMR72kE2u4ZqzF7s12H.jpg", "production_companies": [], "production_countries": [], "release_date": "2010-10-27", "revenue": 0, "runtime": 100, "spoken_languages": [{"iso_639_1": "en", "name": "English"}], "status": "Released", "tagline": "The Most Blasphemous Story Ever Told", "title": "Zombie Christ", "video": false, "vote_average": 1.0, "vote_count": 1, "keywords": {"keywords": [{"id": 4062, "name": "skeleton"}, {"id": 6976, "name": "druid"}]}, "similar": {"page": 1, "results": [{"adult": false, "backdrop_path": "/5RPXs9g0sZ9Woo4pNLxdXdge7tc.jpg", "genre_ids": [14, 27, 35], "id": 766, "original_language": "en", "original_title": "Army of Darkness", "overview": "A man is accidentally transported to 1300 A.D., where he must battle an army of the dead and retrieve the Necronomicon so he can return home.", "poster_path": "/2eZKDIwLNnySbwqQtAaUz0kYDIL.jpg", "release_date": "1992-10-09", "title": "Army of Darkness", "video": false, "vote_average": 7.3, "vote_count": 1664, "popularity": 18.122}, {"id": 15856, "video": false, "vote_count": 223, "vote_average": 6.9, "title": "House on Haunted Hill", "release_date": "1959-02-17", "original_language": "en", "original_title": "House on Haunted Hill", "genre_ids": [27, 9648], "backdrop_path": "/21EJGcz5qtlkYrnntEFljXV1ABY.jpg", "adult": false, "overview": "Frederick Loren has invited five strangers to a party of a lifetime. He is offering each of them $10,000 if they can stay the night in a house. But the house is no ordinary house. This house has a reputation for murder. Frederick offers them each a gun for protection. They all arrived in a hearse and will either leave in it $10,000 richer or leave in it dead!", "poster_path": "/fnlPkYlVXrWUkQsVa8Y2tkFoPQq.jpg", "popularity": 8.668}, {"id": 76492, "video": false, "vote_count": 5547, "vote_average": 6.9, "title": "Hotel Transylvania", "release_date": "2012-09-20", "original_language": "en", "original_title": "Hotel Transylvania", "genre_ids": [16, 35, 14, 10751], "backdrop_path": "/sETTal2HPPkUC3lWc27HL1AFu9C.jpg", "adult": false, "overview": "Welcome to Hotel Transylvania, Dracula's lavish five-stake resort, where monsters and their families can live it up and no humans are allowed. One special weekend, Dracula has invited all his best friends to celebrate his beloved daughter Mavis's 118th birthday. For Dracula catering to all of these legendary monsters is no problem but the party really starts when one ordinary guy stumbles into the hotel and changes everything!", "poster_path": "/9qugesYpAWHUpdrw2w8URSGkAPt.jpg", "popularity": 31.161}, {"id": 87, "video": false, "vote_count": 5411, "vote_average": 7.2, "title": "Indiana Jones and the Temple of Doom", "release_date": "1984-05-23", "original_language": "en", "original_title": "Indiana Jones and the Temple of Doom", "genre_ids": [28, 12], "backdrop_path": "/mWuFDpOxXJpPxLM3p8f3w02pBb2.jpg", "adult": false, "overview": "After arriving in India, Indiana Jones is asked by a desperate village to find a mystical stone. He agrees \u2013 and stumbles upon a secret cult plotting a terrible plan in the catacombs of an ancient palace.", "poster_path": "/f2nTRKk2zGdUTE7tLJ5EGGSuKA6.jpg", "popularity": 25.521}, {"adult": false, "backdrop_path": "/4brEMzPazQE3hv3mogj6k1a29RP.jpg", "genre_ids": [10749, 14, 16], "id": 3933, "original_language": "en", "original_title": "Corpse Bride", "overview": "Set in a 19th-century european village, this stop-motion animation feature follows the story of Victor, a young man whisked away to the underworld and wed to a mysterious corpse bride, while his real bride Victoria waits bereft in the land of the living.", "poster_path": "/o9GbcdP7rOg2m1NyUnUR3ZwNcTE.jpg", "release_date": "2005-09-12", "title": "Corpse Bride", "video": false, "vote_average": 7.4, "vote_count": 4928, "popularity": 23.702}, {"id": 1593, "video": false, "vote_count": 6574, "vote_average": 6.5, "title": "Night at the Museum", "release_date": "2006-10-20", "original_language": "en", "original_title": "Night at the Museum", "genre_ids": [28, 12, 35, 14, 10751], "backdrop_path": "/fDuTrT0qJUgEJjexaZOce4kmO0V.jpg", "adult": false, "overview": "Chaos reigns at the natural history museum when night watchman Larry Daley accidentally stirs up an ancient curse, awakening Attila the Hun, an army of gladiators, a Tyrannosaurus rex and other exhibits.", "poster_path": "/NUbCSwy2EQ9Z6psUjPqr3WdVI2.jpg", "popularity": 19.76}, {"id": 4011, "video": false, "vote_count": 3507, "vote_average": 7.3, "title": "Beetlejuice", "release_date": "1988-02-29", "original_language": "en", "original_title": "Beetlejuice", "genre_ids": [35, 14], "backdrop_path": "/upAwc1kPQJU1ZWeMgEWV8Lp6CWb.jpg", "adult": false, "overview": "Thanks to an untimely demise via drowning, a young couple end up as poltergeists in their New England farmhouse, where they fail to meet the challenge of scaring away the insufferable new owners, who want to make drastic changes. In desperation, the undead newlyweds turn to an expert frightmeister, but he's got a diabolical agenda of his own.", "poster_path": "/gWnW7vxm8yr01TVLQhL4aI02orp.jpg", "popularity": 34.958}, {"id": 22, "video": false, "vote_count": 13524, "vote_average": 7.7, "title": "Pirates of the Caribbean: The Curse of the Black Pearl", "release_date": "2003-07-09", "original_language": "en", "original_title": "Pirates of the Caribbean: The Curse of the Black Pearl", "genre_ids": [28, 12, 14], "backdrop_path": "/8AUQ7YlJJA9C8kWk8P4YNHIcFDE.jpg", "adult": false, "overview": "Jack Sparrow, a freewheeling 18th-century pirate, quarrels with a rival pirate bent on pillaging Port Royal. When the governor's daughter is kidnapped, Sparrow decides to help the girl's love save her.", "poster_path": "/tkt9xR1kNX5R9rCebASKck44si2.jpg", "popularity": 49.826}, {"id": 354912, "video": false, "vote_count": 10129, "vote_average": 8.2, "title": "Coco", "release_date": "2017-10-27", "original_language": "en", "original_title": "Coco", "genre_ids": [12, 16, 35, 14, 10751], "backdrop_path": "/askg3SMvhqEl4OL52YuvdtY40Yb.jpg", "adult": false, "overview": "Despite his family\u2019s baffling generations-old ban on music, Miguel dreams of becoming an accomplished musician like his idol, Ernesto de la Cruz. Desperate to prove his talent, Miguel finds himself in the stunning and colorful Land of the Dead following a mysterious chain of events. Along the way, he meets charming trickster Hector, and together, they set off on an extraordinary journey to unlock the real story behind Miguel's family history.", "poster_path": "/eKi8dIrr8voobbaGzDpe8w0PVbC.jpg", "popularity": 37.991}, {"id": 9479, "video": false, "vote_count": 5316, "vote_average": 7.8, "title": "The Nightmare Before Christmas", "release_date": "1993-10-09", "original_language": "en", "original_title": "The Nightmare Before Christmas", "genre_ids": [16, 14, 10751], "backdrop_path": "/16lk65YfrDFIr6evkWRjSeOOSws.jpg", "adult": false, "overview": "Tired of scaring humans every October 31 with the same old bag of tricks, Jack Skellington, the spindly king of Halloween Town, kidnaps Santa Claus and plans to deliver shrunken heads and other ghoulish gifts to children on Christmas morning. But as Christmas approaches, Jack's rag-doll girlfriend, Sally, tries to foil his misguided plans.", "poster_path": "/6oxkO1VgKCq74fNILKAg6t2dVEt.jpg", "popularity": 18.951}, {"id": 71676, "video": false, "vote_count": 2238, "vote_average": 4.8, "title": "Ghost Rider: Spirit of Vengeance", "release_date": "2011-12-10", "original_language": "en", "original_title": "Ghost Rider: Spirit of Vengeance", "genre_ids": [28, 14, 53], "backdrop_path": "/9w9UtpeRPK797GzT7xQXuVRSUSj.jpg", "adult": false, "overview": "When the devil resurfaces with aims to take over the world in human form, Johnny Blaze reluctantly comes out of hiding to transform into the flame-spewing supernatural hero Ghost Rider -- and rescue a 10-year-old boy from an unsavory end.", "poster_path": "/tqwWzmp5ISh64SJbNKQ9fyItnDj.jpg", "popularity": 18.398}, {"id": 159824, "video": false, "vote_count": 3485, "vote_average": 6.7, "title": "Hotel Transylvania 2", "release_date": "2015-09-21", "original_language": "en", "original_title": "Hotel Transylvania 2", "genre_ids": [16, 35, 14, 10751], "backdrop_path": "/h3t4zZPteUPqyDBrmz5Z2zzGM61.jpg", "adult": false, "overview": "When the old-old-old-fashioned vampire Vlad arrives at the hotel for an impromptu family get-together, Hotel Transylvania is in for a collision of supernatural old-school and modern day cool.", "poster_path": "/cFQHMUmxaO3PEDo5lxuQC8MCRIH.jpg", "popularity": 22.909}, {"id": 24126, "video": false, "vote_count": 60, "vote_average": 5.1, "title": "Warlock: The Armageddon", "release_date": "1993-05-01", "original_language": "en", "original_title": "Warlock: The Armageddon", "genre_ids": [14, 27, 878], "backdrop_path": "/ferT0pPti60SCXbVNhrMvmFZGZ2.jpg", "adult": false, "overview": "Every six hundred years, a great evil has the opportunity to escape and unleash Armageddon. A group of five stones has the power to either free the evil, or banish it for another six hundred years. An order of Druids battles with a Warlock determined to unleash his father upon the world.", "poster_path": "/mvvrauRX0BRJVCUS9bSBKqBamjh.jpg", "popularity": 8.205}, {"id": 11380, "video": false, "vote_count": 74, "vote_average": 4.5, "title": "Bones", "release_date": "2001-10-24", "original_language": "en", "original_title": "Bones", "genre_ids": [28, 27, 53], "backdrop_path": "/sRjmc2Ubk8mHnLiPreM1o48IemM.jpg", "adult": false, "overview": "Over 20 years after his death by a gunshot, Jimmy Bones comes back as a ghost to wreak revenge on those who killed him and to clean up his neighborhood.", "poster_path": "/xl9Bxz9KQM537Aj7XmvrSvNDUcb.jpg", "popularity": 5.8}, {"adult": false, "backdrop_path": "/1S2y4Tj8UwH4g4kIj29liL2XwxM.jpg", "genre_ids": [28, 12, 14], "id": 300803, "original_language": "en", "original_title": "Dragonheart 3: The Sorcerer's Curse", "overview": "When aspiring knight Gareth goes in search of a fallen comet rumored to contain gold, he is shocked to instead find the dragon Drago. After Drago saves Gareth's life the two become intricately bonded, and must work together to defeat an evil sorcerer and stop his reign of terror. Along the way, Gareth learns the true meaning of being a knight in this fantasy action-adventure for the ages.", "poster_path": "/weZV8fBcCMDvU5PIQ19w4gPOChD.jpg", "release_date": "2015-02-24", "title": "Dragonheart 3: The Sorcerer's Curse", "video": false, "vote_average": 5.0, "vote_count": 133, "popularity": 13.897}, {"id": 11533, "video": false, "vote_count": 260, "vote_average": 7.1, "title": "Jason and the Argonauts", "release_date": "1963-06-19", "original_language": "en", "original_title": "Jason and the Argonauts", "genre_ids": [12, 14, 10751], "backdrop_path": "/zkBVUPzn7An2CUSS5lgp21fnbDv.jpg", "adult": false, "overview": "Jason, a fearless sailor and explorer, returns to his home land of Thessaly after a long voyage to claim his rightful throne. He learns, however, that he must first find the magical Golden Fleece. To do so, he must embark on an epic quest fraught with fantastic monsters and terrible perils.", "poster_path": "/oTvf290Awne5aAEgmPBabN3XVLU.jpg", "popularity": 11.41}, {"adult": false, "backdrop_path": "/v4xXLdfGfFa8rf6VZum6ScxuGqh.jpg", "genre_ids": [28, 14, 878, 12, 53], "id": 11649, "original_language": "en", "original_title": "Masters of the Universe", "overview": "The world of Eternia in the aftermath of Skeletor's war on Castle Grayskull, which he has won after seizing Grayskull and the surrounding city using a cosmic key developed by the locksmith Gwildor. The Sorceress is now Skeletor's prisoner and he begins to drain her life-force as he waits for the moon of Eternia to align with the Great Eye of the Universe that will bestow god-like power upon him.", "poster_path": "/jzU5dXnx4tVRIA9DJjR4b7LFsel.jpg", "release_date": "1987-08-07", "title": "Masters of the Universe", "video": false, "vote_average": 5.2, "vote_count": 377, "popularity": 10.486}, {"id": 34204, "video": false, "vote_count": 144, "vote_average": 6.0, "title": "Return to Halloweentown", "release_date": "2006-10-20", "original_language": "en", "original_title": "Return to Halloweentown", "genre_ids": [35, 14, 10751, 10770], "backdrop_path": "/fo3cUebOQw2Hd9Z6u3PzqLz051h.jpg", "adult": false, "overview": "As Halloweentown prepares to celebrate its 1,000th anniversary, Marnie Piper and her brother Dylan return to Witch University, where trouble is in session from the Sinister Sisters and from someone who's plotting to use Marnie's powers for evil.", "poster_path": "/nkdTmALLYBKK5jgoV4gk0NhDEWj.jpg", "popularity": 8.679}, {"id": 11625, "video": false, "vote_count": 316, "vote_average": 6.3, "title": "Asterix and the Big Fight", "release_date": "1989-10-03", "original_language": "fr", "original_title": "Ast\u00e9rix et le coup du menhir", "genre_ids": [12, 16, 35, 10751], "backdrop_path": "/qNCjH5xcW41LmNF4IJuw8Bp92i0.jpg", "adult": false, "overview": "Gaullish custom requires that a would-be chief must challenge and defeat another to become the leader of two tribes. Vitalstatistix is not perturbed because of Getafix's magic potion. Getafix, however has an accident and forgets how to make it. Then Vitalstatistix is suddenly challenged.", "poster_path": "/bXJ0wTCthDkVwTXiUJnoTDBkwiJ.jpg", "popularity": 11.76}, {"id": 42469, "video": false, "vote_count": 31, "vote_average": 6.1, "title": "The Creeping Flesh", "release_date": "1973-02-12", "original_language": "en", "original_title": "The Creeping Flesh", "genre_ids": [27, 878], "backdrop_path": "/8a0aUkMalV5y1yizi91fvzKqIQ7.jpg", "adult": false, "overview": "A scientist comes to believe that evil is a disease of the blood and that the flesh of a skeleton he has brought back from New Guinea contains it in a pure form. Convinced that his wife, a Folies Bergere dancer who went insane, manifested this evil he is terrified that it will be passed on to their daughter. He tries to use the skeleton's blood to immunise her against this eventuality, but his attempt has anything but the desired result.", "poster_path": "/kqrL2bfbPHw7bYALJzOgfuPXxZa.jpg", "popularity": 5.376}], "total_pages": 4, "total_results": 64}, "recommendations": {"page": 1, "results": [], "total_pages": 1, "total_results": 0}, "credits": {"cast": [{"cast_id": 2, "character": "Mary", "credit_id": "53d9a92ec3a3681ee5000af0", "gender": 1, "id": 1108730, "name": "Jessica Alexandra Green", "order": 1, "profile_path": "/mn7e5FjoJ8ugPCglM892NDpVeLy.jpg"}, {"cast_id": 3, "character": "Nun", "credit_id": "53d9a94bc3a3681ed9000c28", "gender": 0, "id": 142260, "name": "Jordana Leigh", "order": 2, "profile_path": null}, {"cast_id": 4, "character": "Mary Magdeline", "credit_id": "53d9a968c3a3681eee000b18", "gender": 0, "id": 1347939, "name": "Caitlin Burdi", "order": 3, "profile_path": null}, {"cast_id": 5, "character": "Cunilingless Girlfriend", "credit_id": "53d9a986c3a3681ed5000bcd", "gender": 0, "id": 142256, "name": "Taylor Trash", "order": 4, "profile_path": null}, {"cast_id": 6, "character": "Fisted Woman", "credit_id": "53d9a99fc3a3681ed9000c31", "gender": 0, "id": 142258, "name": "Kathy Rice", "order": 5, "profile_path": null}, {"cast_id": 7, "character": "Swimmer", "credit_id": "53d9a9c2c3a3681ee0000b98", "gender": 1, "id": 35621, "name": "Ruby LaRocca", "order": 6, "profile_path": "/bPPKusuhQTQyYBBUPiQp3u970GT.jpg"}], "crew": [{"credit_id": "53d9a8a9c3a3681ee0000b80", "department": "Directing", "gender": 2, "id": 99005, "job": "Director", "name": "Bill Zebub", "profile_path": "/edGgc7JgF6izdyql3dSXlJ9xNtF.jpg"}, {"credit_id": "53d9a8c4c3a3681eee000b00", "department": "Writing", "gender": 2, "id": 99005, "job": "Writer", "name": "Bill Zebub", "profile_path": "/edGgc7JgF6izdyql3dSXlJ9xNtF.jpg"}]}}