{"adult": false, "backdrop_path": "/cBN3mk5gsRhAt7sH2T38Bs6GwYJ.jpg", "belongs_to_collection": null, "budget": 0, "genres": [{"id": 28, "name": "Action"}, {"id": 35, "name": "Comedy"}], "homepage": null, "id": 87303, "imdb_id": "tt0071854", "original_language": "en", "original_title": "Moonrunners", "overview": "Grady and Bobby Lee run moonshine for Uncle Jesse, who prides himself on his old-school moonshining methods, and refuses to buckle in to the 'big business moonshine' of Jake, who controls these parts for New York mobsters", "popularity": 3.875, "poster_path": "/4nrgyJ3B3Knh9F6fEmmHuphTyOu.jpg", "production_companies": [], "production_countries": [], "release_date": "1975-05-14", "revenue": 0, "runtime": 110, "spoken_languages": [], "status": "Released", "tagline": "You take a load of 200 proof corn liquor through a Georgia roadblock at 100 miles an hour and if you ain't a dead man, you're a moonrunner.", "title": "Moonrunners", "video": false, "vote_average": 5.3, "vote_count": 4, "keywords": {"keywords": [{"id": 830, "name": "car race"}, {"id": 9193, "name": "whiskey"}, {"id": 33885, "name": "car"}, {"id": 155022, "name": "inspired the dukes of hazzard"}]}, "similar": {"page": 1, "results": [{"adult": false, "backdrop_path": "/ypyeMfKydpyuuTMdp36rMlkGDUL.jpg", "genre_ids": [28, 80, 53], "id": 168259, "original_language": "en", "original_title": "Furious 7", "overview": "Deckard Shaw seeks revenge against Dominic Toretto and his family for his comatose brother.", "poster_path": "/dCgm7efXDmiABSdWDHBDBx2jwmn.jpg", "release_date": "2015-04-01", "title": "Furious 7", "video": false, "vote_average": 7.3, "vote_count": 7044, "popularity": 28.011}, {"id": 920, "video": false, "vote_count": 8603, "vote_average": 6.7, "title": "Cars", "release_date": "2006-06-08", "original_language": "en", "original_title": "Cars", "genre_ids": [12, 16, 35, 10751], "backdrop_path": "/a1MlbLBk5Sy6YvMbSuKfwGlDVlb.jpg", "adult": false, "overview": "Lightning McQueen, a hotshot rookie race car driven to succeed, discovers that life is about the journey, not the finish line, when he finds himself unexpectedly detoured in the sleepy Route 66 town of Radiator Springs. On route across the country to the big Piston Cup Championship in California to compete against two seasoned pros, McQueen gets to know the town's offbeat characters.", "poster_path": "/jpfkzbIXgKZqCZAkEkFH2VYF63s.jpg", "popularity": 58.103}, {"adult": false, "backdrop_path": "/w41zFKYTsq4wf5QnQJWMXuzWl2F.jpg", "genre_ids": [18, 28], "id": 96721, "original_language": "en", "original_title": "Rush", "overview": "A biographical drama centered on the rivalry between Formula 1 drivers James Hunt and Niki Lauda during the 1976 Formula One motor-racing season.", "poster_path": "/cjEepHZOZAwmK6nAj5jis6HV75E.jpg", "release_date": "2013-09-02", "title": "Rush", "video": false, "vote_average": 7.7, "vote_count": 4276, "popularity": 17.673}, {"id": 10483, "video": false, "vote_count": 2255, "vote_average": 6.1, "title": "Death Race", "release_date": "2008-08-22", "original_language": "en", "original_title": "Death Race", "genre_ids": [28, 878, 53], "backdrop_path": "/m0JIsX9SLfHLxU1q6ud3ifJjXmC.jpg", "adult": false, "overview": "Terminal Island, New York: 2020. Overcrowding in the US penal system has reached a breaking point. Prisons have been turned over to a monolithic Weyland Corporation, which sees jails full of thugs as an opportunity for televised sport. Adrenalized inmates, a global audience hungry for violence and a spectacular, enclosed arena come together to form the 'Death Race', the biggest, most brutal event.", "poster_path": "/3dIZ049AxmvrvNiXKPc36YNum7g.jpg", "popularity": 19.876}, {"id": 401478, "video": false, "vote_count": 99, "vote_average": 5.6, "title": "Death Race: Beyond Anarchy", "release_date": "2018-10-02", "original_language": "en", "original_title": "Death Race: Beyond Anarchy", "genre_ids": [28, 878, 53], "backdrop_path": "/W8V8d9bjLZURgEGbIB5TC70yaj.jpg", "adult": false, "overview": "Black Ops specialist Connor Gibson infiltrates a maximum security prison to take down legendary driver Frankenstein in a violent and brutal car race.", "poster_path": "/1PrlKvPUbDQAqFQBCyyt68hLLl.jpg", "popularity": 26.141}, {"id": 136797, "video": false, "vote_count": 2605, "vote_average": 6.1, "title": "Need for Speed", "release_date": "2014-03-13", "original_language": "en", "original_title": "Need for Speed", "genre_ids": [28, 80, 18, 53], "backdrop_path": "/kiLEAfRQhs93r3tSsQFpD2EpbyR.jpg", "adult": false, "overview": "The film revolves around a local street-racer who partners with a rich and arrogant business associate, only to find himself framed by his colleague and sent to prison. After he gets out, he joins a New York-to-Los Angeles race to get revenge. But when the ex-partner learns of the scheme, he puts a massive bounty on the racer's head, forcing him to run a cross-country gauntlet of illegal racers in all manner of supercharged vehicles.", "poster_path": "/lN0mP3BNaKirkKl6FJ0yL0wmjSJ.jpg", "popularity": 18.669}, {"adult": false, "backdrop_path": "/pBgGl3GfVxs84T7ZniUAz5FMMNx.jpg", "genre_ids": [35, 10751, 12, 14, 10749], "id": 11451, "original_language": "en", "original_title": "Herbie Fully Loaded", "overview": "Maggie Peyton, the new owner of Number 53 - the free-wheelin' Volkswagen bug with a mind of its own - puts the car through its paces on the road to becoming a NASCAR competitor.", "poster_path": "/7lTfTZ8CDfXw09eAv3OOvsbCVgs.jpg", "release_date": "2005-06-22", "title": "Herbie Fully Loaded", "video": false, "vote_average": 5.3, "vote_count": 1347, "popularity": 14.041}, {"id": 587138, "video": false, "vote_count": 0, "vote_average": 0.0, "title": "Driven", "release_date": "2019-02-09", "original_language": "en", "original_title": "Driven", "genre_ids": [35, 27, 53], "backdrop_path": null, "adult": false, "overview": "Emerson Graham's nights as a cab driver are filled with annoyances and inconveniences, but until tonight, never attacks and disappearances. After picking up a mysterious passenger her evening goes from working a job to performing a quest as they must race against the clock to defeat a force of evil. The meter is running.", "poster_path": "/ca0URmLciw4rZgjWU6y2nOapyGU.jpg", "popularity": 2.366}, {"id": 4108, "video": false, "vote_count": 3155, "vote_average": 6.6, "title": "The Transporter", "release_date": "2002-10-02", "original_language": "en", "original_title": "The Transporter", "genre_ids": [28, 80, 53], "backdrop_path": "/poKaphSqmgC1vtUYGagzyU4KP2m.jpg", "adult": false, "overview": "Former Special Forces officer, Frank Martin will deliver anything to anyone for the right price, and his no-questions-asked policy puts him in high demand. But when he realizes his latest cargo is alive, it sets in motion a dangerous chain of events. The bound and gagged Lai is being smuggled to France by a shady American businessman, and Frank works to save her as his own illegal activities are uncovered by a French detective.", "poster_path": "/vD5plFV1ec9CSIsdlPe9icCDRTL.jpg", "popularity": 25.083}, {"id": 9679, "video": false, "vote_count": 2590, "vote_average": 6.3, "title": "Gone in Sixty Seconds", "release_date": "2000-06-09", "original_language": "en", "original_title": "Gone in Sixty Seconds", "genre_ids": [28, 80, 53], "backdrop_path": "/uqd4cqpp6gbs6zG6izBUaCorgjv.jpg", "adult": false, "overview": "Upon learning that he has to come out of retirement to steal 50 cars in one night to save his brother Kip's life, former car thief Randall \"Memphis\" Raines enlists help from a few \"boost happy\" pals to accomplish a seemingly impossible feat. From countless car chases to relentless cops, the high-octane excitement builds as Randall swerves around more than a few roadblocks to keep Kip alive.", "poster_path": "/77TxKvRiX0c5JR6l4fxcN19prOy.jpg", "popularity": 20.394}, {"id": 339403, "video": false, "vote_count": 9215, "vote_average": 7.4, "title": "Baby Driver", "release_date": "2017-06-28", "original_language": "en", "original_title": "Baby Driver", "genre_ids": [28, 80], "backdrop_path": "/goCvLSUFz0p7k8R10Hv4CVh3EQv.jpg", "adult": false, "overview": "After being coerced into working for a crime boss, a young getaway driver finds himself taking part in a heist doomed to fail.", "poster_path": "/dN9LbVNNZFITwfaRjl4tmwGWkRg.jpg", "popularity": 34.697}, {"id": 105, "video": false, "vote_count": 12168, "vote_average": 8.2, "title": "Back to the Future", "release_date": "1985-07-03", "original_language": "en", "original_title": "Back to the Future", "genre_ids": [12, 35, 878, 10751], "backdrop_path": "/x4N74cycZvKu5k3KDERJay4ajR3.jpg", "adult": false, "overview": "Eighties teenager Marty McFly is accidentally sent back in time to 1955, inadvertently disrupting his parents' first meeting and attracting his mother's romantic interest. Marty must repair the damage to history by rekindling his parents' romance and - with the help of his eccentric inventor friend Doc Brown - return to 1985.", "poster_path": "/pTpxQB1N0waaSc3OSn0e9oc8kx9.jpg", "popularity": 29.77}, {"id": 9714, "video": false, "vote_count": 1688, "vote_average": 5.2, "title": "Home Alone 3", "release_date": "1997-12-12", "original_language": "en", "original_title": "Home Alone 3", "genre_ids": [35, 10751], "backdrop_path": "/gt8Pe0H2kdm99yuHYDs8goKbTkn.jpg", "adult": false, "overview": "9-year-old Alex Pruitt is home alone with the chicken pox. Turns out, due to a mix-up among nefarious spies, Alex was given a toy car concealing a top-secret microchip. Now Alex must fend off the spies as they try break into his house to get it back.", "poster_path": "/z6ugEdjGuY4qcX1ymdV2CTVSvKN.jpg", "popularity": 20.25}, {"adult": false, "backdrop_path": "/e1QVZfHmKlqxlaTNLTP9ATshLqU.jpg", "genre_ids": [53, 28, 80, 9648], "id": 287948, "original_language": "en", "original_title": "The Transporter Refueled", "overview": "The fast-paced action movie is again set in the criminal underworld in France, where Frank Martin is known as The Transporter, because he is the best driver and mercenary money can buy. In this installment, he meets Anna and they attempt to take down a group of ruthless Russian human traffickers who also have kidnapped Frank\u2019s father.", "poster_path": "/zW7oC3tucYLzu77xNbPbYjXUN4o.jpg", "release_date": "2015-09-03", "title": "The Transporter Refueled", "video": false, "vote_average": 5.5, "vote_count": 903, "popularity": 15.506}, {"id": 49013, "video": false, "vote_count": 4530, "vote_average": 5.9, "title": "Cars 2", "release_date": "2011-06-11", "original_language": "en", "original_title": "Cars 2", "genre_ids": [12, 16, 35, 10751], "backdrop_path": "/jEcmZhtJkZQc6ta2vzBd9CU7GIx.jpg", "adult": false, "overview": "Star race car Lightning McQueen and his pal Mater head overseas to compete in the World Grand Prix race. But the road to the championship becomes rocky as Mater gets caught up in an intriguing adventure of his own: international espionage.", "poster_path": "/AblhtULOVtrkSnFxRPQ8gBemxw9.jpg", "popularity": 25.278}, {"id": 337339, "video": false, "vote_count": 6809, "vote_average": 6.9, "title": "The Fate of the Furious", "release_date": "2017-04-12", "original_language": "en", "original_title": "The Fate of the Furious", "genre_ids": [28, 80, 53], "backdrop_path": "/jzdnhRhG0dsuYorwvSqPqqnM1cV.jpg", "adult": false, "overview": "When a mysterious woman seduces Dom into the world of crime and a betrayal of those closest to him, the crew face trials that will test them as never before.", "poster_path": "/dImWM7GJqryWJO9LHa3XQ8DD5NH.jpg", "popularity": 24.034}, {"id": 165, "video": false, "vote_count": 7689, "vote_average": 7.7, "title": "Back to the Future Part II", "release_date": "1989-11-22", "original_language": "en", "original_title": "Back to the Future Part II", "genre_ids": [12, 35, 878, 10751], "backdrop_path": "/snLFUFzWUZCdYkAbhZlaGJxiY3I.jpg", "adult": false, "overview": "Marty and Doc are at it again in this wacky sequel to the 1985 blockbuster as the time-traveling duo head to 2015 to nip some McFly family woes in the bud. But things go awry thanks to bully Biff Tannen and a pesky sports almanac. In a last-ditch attempt to set things straight, Marty finds himself bound for 1955 and face to face with his teenage parents -- again.", "poster_path": "/k5dzvCQkXU2CAhLtlj9BHE7xmyK.jpg", "popularity": 18.286}, {"id": 818, "video": false, "vote_count": 1920, "vote_average": 5.9, "title": "Austin Powers in Goldmember", "release_date": "2002-07-26", "original_language": "en", "original_title": "Austin Powers in Goldmember", "genre_ids": [35, 80, 878], "backdrop_path": "/mzZraP6PV34eVjB8giKbKIMXVeW.jpg", "adult": false, "overview": "The world's most shagadelic spy continues his fight against Dr. Evil. This time, the diabolical doctor and his clone, Mini-Me, team up with a new foe -- '70s kingpin Goldmember. While pursuing the team of villains to stop them from world domination, Austin gets help from his dad and an old girlfriend.", "poster_path": "/tFR7dTbX5BsmoUwKHfa2cWoZbwK.jpg", "popularity": 23.167}, {"id": 955, "video": false, "vote_count": 3910, "vote_average": 6.1, "title": "Mission: Impossible II", "release_date": "2000-05-24", "original_language": "en", "original_title": "Mission: Impossible II", "genre_ids": [28, 12, 53], "backdrop_path": "/bDdVZNvxb670EMlZqeIy6RdyJ4V.jpg", "adult": false, "overview": "With computer genius Luther Stickell at his side and a beautiful thief on his mind, agent Ethan Hunt races across Australia and Spain to stop a former IMF agent from unleashing a genetically engineered biological weapon called Chimera. This mission, should Hunt choose to accept it, plunges him into the center of an international crisis of terrifying magnitude.", "poster_path": "/di800v3Racf2FQ1ObZ1dskgS0px.jpg", "popularity": 23.566}, {"id": 77950, "video": false, "vote_count": 1943, "vote_average": 6.1, "title": "Turbo", "release_date": "2013-07-11", "original_language": "en", "original_title": "Turbo", "genre_ids": [16, 10751], "backdrop_path": "/dvdKrICCKP8Uh1Xqkn60oQXnYer.jpg", "adult": false, "overview": "The tale of an ordinary garden snail who dreams of winning the Indy 500.", "poster_path": "/kajPlPUgobxci8ME5oqvzjN430q.jpg", "popularity": 17.728}], "total_pages": 22, "total_results": 427}, "recommendations": {"page": 1, "results": [{"id": 34732, "video": false, "vote_count": 24, "vote_average": 6.0, "title": "They Call Me Mister Tibbs!", "release_date": "1970-07-10", "original_language": "en", "original_title": "They Call Me Mister Tibbs!", "genre_ids": [28, 18, 53], "backdrop_path": "/v2Ou2n5C0K0C6tcKZ5ttueaAYyh.jpg", "adult": false, "overview": "A police detective's investigation of a prostitute's murder points to his best friend.", "poster_path": "/kugj3A4TGgye6mBmtqA16yD8LFk.jpg", "popularity": 5.401}, {"adult": false, "backdrop_path": "/8Aar67dVJwpqeAAPG6xK6JRY1k0.jpg", "genre_ids": [35, 27, 9648, 53], "id": 86182, "original_language": "en", "original_title": "The Cat and the Canary", "overview": "A group of potential heirs gather in a forbidding old house to learn which of them will inherit a fortune. Later, they learn that a flesh-rending maniac is loose.", "poster_path": "/nIMcBARAW6wVgdl6SDqMTOl6MsZ.jpg", "release_date": "1979-11-01", "title": "The Cat and the Canary", "video": false, "vote_average": 5.6, "vote_count": 22, "popularity": 3.021}, {"adult": false, "backdrop_path": "/uqJ6FMw8pCI4VK67yOz8EWQJql6.jpg", "genre_ids": [28, 18, 53], "id": 59201, "original_language": "en", "original_title": "Kinjite: Forbidden Subjects", "overview": "A Tokyo businessman (Hiroshi Hada), transferred to L.A, molests a teenage girl on a train. It turns out that the girl is the daughter of a vice cop. But in one of those plot twists that can only occur in the movies, the cop is assigned to find the businessman's own daughter who has been kidnapped and forced into a teen prostitution ring.", "poster_path": "/rTqTswNj2hHKrfMxECK3O7fRrIS.jpg", "release_date": "1989-02-03", "title": "Kinjite: Forbidden Subjects", "video": false, "vote_average": 5.1, "vote_count": 26, "popularity": 5.91}, {"id": 38450, "video": false, "vote_count": 22, "vote_average": 6.3, "title": "The Last Hard Men", "release_date": "1976-04-22", "original_language": "en", "original_title": "The Last Hard Men", "genre_ids": [37], "backdrop_path": "/mw57LkPtALElE1MizNSP1h3nsXB.jpg", "adult": false, "overview": "In the early 20th century, some convicts while on a road gang escape and one of the convicts is Zach Provo, a half Indian, who was sent to prison during the latter part of the 19th century. He escapes with 6 others to exact vengeance on Sam Burgade the lawman who not only captured him but was also responsible for the death of Provo's wife, at least in Provo's mind. Part of his plan is to kidnap Burgade's daughter, which prompts him to strap on his guns and go after him on horseback. Can Burgade who has been retired for sometime still have what it takes to track Provo down?", "poster_path": "/wlOsEUceksiMZKw4T0YM6LL47LP.jpg", "popularity": 4.012}], "total_pages": 1, "total_results": 4}, "credits": {"cast": [{"cast_id": 1, "character": "Grady Hagg", "credit_id": "52fe49bd9251416c910b734d", "gender": 2, "id": 30929, "name": "James Mitchum", "order": 0, "profile_path": "/t5XQDgrrc7ZzejQ3zsirlT9zbb7.jpg"}, {"cast_id": 2, "character": "Bobby Lee Hagg", "credit_id": "52fe49bd9251416c910b7351", "gender": 2, "id": 98203, "name": "Kiel Martin", "order": 1, "profile_path": "/jCoy69Dfew7nRUvnvyWVncqIjpf.jpg"}, {"cast_id": 3, "character": "Uncle Jesse Hagg", "credit_id": "52fe49bd9251416c910b7355", "gender": 2, "id": 50971, "name": "Arthur Hunnicutt", "order": 2, "profile_path": "/iqpMPCj3IMycWhsDgbuOxYgTVJk.jpg"}, {"cast_id": 4, "character": "The Balladeer", "credit_id": "52fe49bd9251416c910b7359", "gender": 2, "id": 111270, "name": "Waylon Jennings", "order": 3, "profile_path": "/suVItqAG4AUYrtGYeM3wn25A4oP.jpg"}, {"cast_id": 5, "character": "Precious, Jake Rainey's bartender", "credit_id": "52fe49bd9251416c910b735d", "gender": 2, "id": 31774, "name": "George McFarland", "order": 4, "profile_path": "/iJlQFdruBaApy9ktjfIMux8Zaft.jpg"}, {"cast_id": 6, "character": "Sheriff Roscoe Coltrane", "credit_id": "52fe49bd9251416c910b7361", "gender": 0, "id": 935035, "name": "Bruce Atkins", "order": 5, "profile_path": null}, {"cast_id": 7, "character": "Cooter Pettigrew", "credit_id": "52fe49bd9251416c910b7365", "gender": 2, "id": 935036, "name": "Bill Gribble", "order": 6, "profile_path": null}, {"cast_id": 10, "character": "Fred - Chicago Federal Agent", "credit_id": "5d9b7bdb35a61e0022233fd8", "gender": 2, "id": 157770, "name": "Ben Jones", "order": 7, "profile_path": "/oCAH7RQuhNMWGXyQYDeyKed2S42.jpg"}], "crew": [{"credit_id": "52fe49bd9251416c910b736b", "department": "Directing", "gender": 2, "id": 162284, "job": "Director", "name": "Gy Waldron", "profile_path": null}, {"credit_id": "52fe49bd9251416c910b7371", "department": "Writing", "gender": 2, "id": 162284, "job": "Writer", "name": "Gy Waldron", "profile_path": null}]}}