{"adult": false, "backdrop_path": "/x9RTFbrGtyFPKHwRsuRGMAWgUhj.jpg", "belongs_to_collection": null, "budget": 0, "genres": [{"id": 27, "name": "Horror"}, {"id": 28, "name": "Action"}, {"id": 53, "name": "Thriller"}], "homepage": null, "id": 87464, "imdb_id": "tt0069091", "original_language": "en", "original_title": "Piranha, Piranha", "overview": "Wildlife photographer Terry and her brother Art go to Venezuela for a photo shoot. They hire Jim Pendrake to guide them through the jungle. However, the trio run afoul of evil local hunter Caribe.", "popularity": 1.678, "poster_path": "/i0ZWqr3svKB14LtC44lJjRRF8uM.jpg", "production_companies": [], "production_countries": [], "release_date": "1972-01-01", "revenue": 0, "runtime": 90, "spoken_languages": [{"iso_639_1": "en", "name": "English"}], "status": "Released", "tagline": "", "title": "Piranha, Piranha", "video": false, "vote_average": 3.1, "vote_count": 4, "keywords": {"keywords": [{"id": 11034, "name": "b movie"}, {"id": 158045, "name": "piranha"}]}, "similar": {"page": 1, "results": [{"adult": false, "backdrop_path": "/rnU6qDK1vvcdHjgCDIOqScspoL4.jpg", "genre_ids": [53], "id": 29487, "original_language": "en", "original_title": "The Mark of the Whistler", "overview": "A drifter claims the money in an old bank account. Soon he finds himself the target of two men who turn out to be the sons of the man's old partner, who is now in prison because of a conflict with him over the money in that account.", "poster_path": "/8uHA35w7CcUipSEhHFB2LWVDIPJ.jpg", "release_date": "1944-10-09", "title": "The Mark of the Whistler", "video": false, "vote_average": 5.3, "vote_count": 5, "popularity": 4.073}, {"id": 9725, "video": false, "vote_count": 771, "vote_average": 6.0, "title": "Friday the 13th Part 2", "release_date": "1981-05-01", "original_language": "en", "original_title": "Friday the 13th Part 2", "genre_ids": [27, 53], "backdrop_path": "/wDmw9Nacka0oWj7hEIIEInP94Lx.jpg", "adult": false, "overview": "Five years after the horrible bloodbath at Camp Crystal Lake, it seems Jason Voorhees and his demented mother are in the past. Paul opens up a new camp close to the infamous site, ignoring warnings to stay away, and a sexually-charged group of counselors follow -- including child psychologist major Ginny. But Jason has been hiding out all this time, and now he's ready for revenge.", "poster_path": "/3c6uMXqFXO9G5RVdiPB76IK3FYM.jpg", "popularity": 14.489}, {"id": 1092, "video": false, "vote_count": 891, "vote_average": 8.0, "title": "The Third Man", "release_date": "1949-08-31", "original_language": "en", "original_title": "The Third Man", "genre_ids": [9648, 53], "backdrop_path": "/lrIuSWdC1LfKJZUnBX6axJxzZGe.jpg", "adult": false, "overview": "In postwar Vienna, Austria, Holly Martins, a writer of pulp Westerns, arrives penniless as a guest of his childhood chum Harry Lime, only to learn he has died. Martins develops a conspiracy theory after learning of a \"third man\" present at the time of Harry's death, running into interference from British officer Major Calloway, and falling head-over-heels for Harry's grief-stricken lover, Anna.", "poster_path": "/rO2Fq0AZZx9obs52KJdx4mRE8p5.jpg", "popularity": 14.387}, {"id": 43593, "video": false, "vote_count": 1173, "vote_average": 5.3, "title": "Piranha 3D", "release_date": "2010-08-20", "original_language": "en", "original_title": "Piranha 3D", "genre_ids": [35, 27], "backdrop_path": "/pX7Cpy6mIejuk1dWxJ1LwvZcVmt.jpg", "adult": false, "overview": "Each year the population of sleepy Lake Victoria, Arizona explodes from 5,000 to 50,000 residents for the annual Spring Break celebration. But then, an earthquake opens an underwater chasm, releasing an enormous swarm of ancient Piranha that have been dormant for thousands of years, now with a taste for human flesh. This year, there's something more to worry about than the usual hangovers and complaints from locals, a new type of terror is about to be cut loose on Lake Victoria.", "poster_path": "/q112cRpvz05fg8T2nXMhbH8yPPP.jpg", "popularity": 21.528}, {"id": 535581, "video": false, "vote_count": 865, "vote_average": 5.4, "title": "The Dead Don't Die", "release_date": "2019-05-15", "original_language": "en", "original_title": "The Dead Don't Die", "genre_ids": [35, 14, 27], "backdrop_path": "/cXyfAViYly0Lk2CVpEKgYbt9wKQ.jpg", "adult": false, "overview": "In a small peaceful town, zombies suddenly rise to terrorize the town. Now three bespectacled police officers and a strange Scottish morgue expert must band together to defeat the undead.", "poster_path": "/ndvOjo7Nfk8ULnFLMXthPzhI62L.jpg", "popularity": 17.307}, {"adult": false, "backdrop_path": "/c7iSbhSffDkM2yf5cg3D91FuVga.jpg", "genre_ids": [9648, 10749, 53], "id": 426, "original_language": "en", "original_title": "Vertigo", "overview": "A retired San Francisco detective suffering from acrophobia investigates the strange activities of an old friend's wife, all the while becoming dangerously obsessed with her.", "poster_path": "/obhM86qyv8RsE69XSMTtT9FdE0b.jpg", "release_date": "1958-05-09", "title": "Vertigo", "video": false, "vote_average": 8.2, "vote_count": 2889, "popularity": 21.778}, {"id": 289, "video": false, "vote_count": 2866, "vote_average": 8.1, "title": "Casablanca", "release_date": "1942-01-23", "original_language": "en", "original_title": "Casablanca", "genre_ids": [18, 10749], "backdrop_path": "/5tE7iKSpBrc4z6LqF5kHutMm6KQ.jpg", "adult": false, "overview": "In Casablanca, Morocco in December 1941, a cynical American expatriate meets a former lover, with unforeseen complications.", "poster_path": "/wOBKAoUJZb5qTsWv5XXvVV2vUzz.jpg", "popularity": 21.116}, {"adult": false, "backdrop_path": "/tR1RXbnkSvZq0sgx0Gyh3GmgYoB.jpg", "genre_ids": [80, 18, 53], "id": 21734, "original_language": "en", "original_title": "Shadow of a Doubt", "overview": "A bored teen living in Santa Rosa, California, Charlotte \"Charlie\" Newton, is frustrated because nothing seems to be happening in her life and that of her family. Then, she receives wonderful news: her uncle (for whom she was named), Charlie Oakley, is arriving for a visit. But Uncle Charlie may not be the man he seems to be.", "poster_path": "/ptyWagbWE8jSGyV2tGEzAdVbRCj.jpg", "release_date": "1943-01-15", "title": "Shadow of a Doubt", "video": false, "vote_average": 7.7, "vote_count": 448, "popularity": 12.942}, {"adult": false, "backdrop_path": "/jRNqzZZwYIpiukkblMQ4G2Vc5p7.jpg", "genre_ids": [9648, 80, 53], "id": 963, "original_language": "en", "original_title": "The Maltese Falcon", "overview": "A private detective takes on a case that involves him with three eccentric criminals, a beautiful liar, and their quest for a priceless statuette.", "poster_path": "/jQilmbgbKtpbHM9hw9hgmqomJ9.jpg", "release_date": "1941-10-18", "title": "The Maltese Falcon", "video": false, "vote_average": 7.8, "vote_count": 840, "popularity": 16.587}, {"id": 303, "video": false, "vote_count": 759, "vote_average": 7.9, "title": "Notorious", "release_date": "1946-08-15", "original_language": "en", "original_title": "Notorious", "genre_ids": [18, 53, 10749], "backdrop_path": "/b8WFk5jSQNju3SGptSOREo51qmE.jpg", "adult": false, "overview": "In order to help bring Nazis to justice, U.S. government agent T.R. Devlin recruits Alicia Huberman, the American daughter of a convicted German war criminal, as a spy. As they begin to fall for one another, Alicia is instructed to win the affections of Alexander Sebastian, a Nazi hiding out in Brazil. When Sebastian becomes serious about his relationship with Alicia, the stakes get higher, and Devlin must watch her slip further undercover.", "poster_path": "/vcdSvOr5NcY6alt0kBqDQlFC3Nk.jpg", "popularity": 12.953}, {"id": 599, "video": false, "vote_count": 1215, "vote_average": 8.4, "title": "Sunset Boulevard", "release_date": "1950-08-10", "original_language": "en", "original_title": "Sunset Boulevard", "genre_ids": [18], "backdrop_path": "/u44VbUuoP6OZYEBv2DRd7ShPTMp.jpg", "adult": false, "overview": "A hack screenwriter writes a screenplay for a former silent film star who has faded into Hollywood obscurity.", "poster_path": "/oFwzvRgfxJc0FUr2mwYTi10dk3G.jpg", "popularity": 15.201}, {"adult": false, "backdrop_path": "/1l77Gk2OK9hjRFze08El8Do3pT1.jpg", "genre_ids": [80, 9648, 53], "id": 996, "original_language": "en", "original_title": "Double Indemnity", "overview": "A rich woman and a calculating insurance agent plot to kill her unsuspecting husband after he signs a double indemnity policy.  Against a backdrop of distinctly Californian settings, the partners in crime plan the perfect murder to collect the insurance, which pays  double if the death is accidental.", "poster_path": "/nW0cCpfuGcR1JG7EinDbdL2Ijf2.jpg", "release_date": "1944-07-03", "title": "Double Indemnity", "video": false, "vote_average": 8.2, "vote_count": 858, "popularity": 14.326}, {"id": 223, "video": false, "vote_count": 763, "vote_average": 7.9, "title": "Rebecca", "release_date": "1940-03-23", "original_language": "en", "original_title": "Rebecca", "genre_ids": [18, 9648], "backdrop_path": "/ao0OWpQPMy3lagLwksWyciO6Iaj.jpg", "adult": false, "overview": "Story of a young woman who marries a fascinating widower only to find out that she must live in the shadow of his former wife, Rebecca, who died mysteriously several years earlier. The young wife must come to grips with the terrible secret of her handsome, cold husband, Max De Winter. She must also deal with the jealous, obsessed Mrs. Danvers, the housekeeper, who will not accept her as the mistress of the house.", "poster_path": "/3Gla0nxHboX3nxQzaU4SoqOtTjh.jpg", "popularity": 13.22}, {"id": 20367, "video": false, "vote_count": 137, "vote_average": 7.0, "title": "Detour", "release_date": "1945-11-30", "original_language": "en", "original_title": "Detour", "genre_ids": [80, 18], "backdrop_path": "/zGBo0eN3RKHmTWZvoF19HABfEQF.jpg", "adult": false, "overview": "Al Roberts, a New York nightclub pianist, hitch-hikes to Hollywood to meet his girlfriend Sue. The gambler he's riding with, Charles, unexpectedly dies. Afraid the police wouldn't believe the truth, Al takes the man's identity. In a gas station, he gives a lift to Vera, a woman that knew Charles and blackmails Al with tragic consequences.", "poster_path": "/1CFC9Ejg85a3skXtcTxRjhtmDlj.jpg", "popularity": 9.083}, {"id": 845, "video": false, "vote_count": 800, "vote_average": 7.8, "title": "Strangers on a Train", "release_date": "1951-06-18", "original_language": "en", "original_title": "Strangers on a Train", "genre_ids": [80, 53], "backdrop_path": "/3DL6BmslkyGHm70HXFNUwoYYIjb.jpg", "adult": false, "overview": "A psychotic socialite confronts a pro tennis star with a theory on how two complete strangers can get away with murder\u2014a theory that he plans to implement.", "poster_path": "/ihC083U7ef56Ui4x0P0dobojrZ1.jpg", "popularity": 11.979}, {"id": 877, "video": false, "vote_count": 222, "vote_average": 7.6, "title": "Scarface", "release_date": "1932-04-09", "original_language": "en", "original_title": "Scarface", "genre_ids": [28, 80, 18, 53], "backdrop_path": "/fX1DFPMZYsRG17BmMPJAKUaBZEz.jpg", "adult": false, "overview": "A murderous thug shoots his way to the top of the mobs while trying to protect his sister from the criminal life.", "poster_path": "/ai9WOjgNRXo42D0GJIIdi7toZ5x.jpg", "popularity": 11.666}, {"id": 678, "video": false, "vote_count": 234, "vote_average": 7.7, "title": "Out of the Past", "release_date": "1947-11-13", "original_language": "en", "original_title": "Out of the Past", "genre_ids": [9648, 53], "backdrop_path": "/7JFsV4qEQ6WVj3SJAC2ktnAyCMm.jpg", "adult": false, "overview": "Jeff Bailey seems to be a mundane gas station owner in remote Bridgeport, CA. He is dating local girl Ann Miller and lives a quiet life. But Jeff has a secret past, and when a mysterious stranger arrives in town, Jeff is forced to return to the dark world he had tried to escape.", "poster_path": "/6M1Qeuq0K5THG95S9nzvEIRHsyt.jpg", "popularity": 12.132}, {"id": 24831, "video": false, "vote_count": 275, "vote_average": 5.8, "title": "Piranha", "release_date": "1978-08-03", "original_language": "en", "original_title": "Piranha", "genre_ids": [35, 27, 878, 53], "backdrop_path": "/qtb0cimYnAhkKEuV4nvHgJV747q.jpg", "adult": false, "overview": "When flesh-eating piranhas are accidently released into a summer resort's rivers, the guests become their next meal.", "poster_path": "/eLQmgjJqt2e98wRDqIb1tn3Z8me.jpg", "popularity": 11.648}, {"adult": false, "backdrop_path": "/gF7v48JI9Vf6bBVU5aykiPtcCub.jpg", "genre_ids": [80, 9648, 53], "id": 14638, "original_language": "en", "original_title": "The Killers", "overview": "Two hit men walk into a diner asking for a man called \"the Swede\". When the killers find the Swede, he's expecting them and doesn't put up a fight. Since the Swede had a life insurance policy, an investigator, on a hunch, decides to look into the murder. As the Swede's past is laid bare, it comes to light that he was in love with a beautiful woman who may have lured him into pulling off a bank robbery overseen by another man.", "poster_path": "/uXnuc6pW01s1MDwb6QwBWg2JQeX.jpg", "release_date": "1946-08-28", "title": "The Killers", "video": false, "vote_average": 7.4, "vote_count": 167, "popularity": 11.012}, {"id": 94365, "video": false, "vote_count": 367, "vote_average": 3.7, "title": "The Human Centipede 3 (Final Sequence)", "release_date": "2015-05-22", "original_language": "en", "original_title": "The Human Centipede 3 (Final Sequence)", "genre_ids": [27], "backdrop_path": "/wmm6Ic2XFSZlusyf4kKxQ3EnDCy.jpg", "adult": false, "overview": "Taking inspiration from The Human Centipede films, the warden of a notorious and troubled prison looks to create a 500-person human centipede as a solution to his problems.", "poster_path": "/sxyl4KEFAMKzdui2gtRhWCtxmAx.jpg", "popularity": 17.752}], "total_pages": 58, "total_results": 1155}, "recommendations": {"page": 1, "results": [], "total_pages": 1, "total_results": 0}, "credits": {"cast": [{"cast_id": 2, "character": "Caribe", "credit_id": "52fe49c89251416c910b8797", "gender": 2, "id": 98102, "name": "William Smith", "order": 0, "profile_path": "/tWYurHQCqBdwgq7YAdaZ2AoRV0a.jpg"}, {"cast_id": 3, "character": "Jim Pendrake", "credit_id": "52fe49c89251416c910b879b", "gender": 2, "id": 94127, "name": "Peter Brown", "order": 1, "profile_path": "/A6q5Ozd59mgHZgOzytVhWx4gZdL.jpg"}, {"cast_id": 4, "character": "Terri Greene", "credit_id": "52fe49c89251416c910b879f", "gender": 2, "id": 161795, "name": "Ahna Capri", "order": 2, "profile_path": "/bntad5pyJhhvb4fUb4BygeewSvL.jpg"}, {"cast_id": 5, "character": "Art Greene", "credit_id": "52fe49c89251416c910b87a3", "gender": 2, "id": 105088, "name": "Tom Simcox", "order": 3, "profile_path": "/gyhQIkDWzy9MJb99xVnVbsdEQM7.jpg"}, {"cast_id": 6, "character": "Juan", "credit_id": "52fe49c89251416c910b87a7", "gender": 0, "id": 1076534, "name": "John Villegas", "order": 4, "profile_path": null}, {"cast_id": 7, "character": "Girl", "credit_id": "52fe49c89251416c910b87ab", "gender": 0, "id": 1076535, "name": "Julie Tecca", "order": 5, "profile_path": null}], "crew": [{"credit_id": "52fe49c89251416c910b87b1", "department": "Writing", "gender": 0, "id": 1076536, "job": "Screenplay", "name": "Richard Finder", "profile_path": null}, {"credit_id": "52fe49c89251416c910b87b7", "department": "Sound", "gender": 0, "id": 19475, "job": "Original Music Composer", "name": "Richard LaSalle", "profile_path": null}, {"credit_id": "52fe49c89251416c910b87bd", "department": "Directing", "gender": 0, "id": 1147581, "job": "Director", "name": "William Gibson", "profile_path": null}]}}