{"adult": false, "backdrop_path": "/3zuVJf4TMOCd75XnDPOCa3jAhrn.jpg", "belongs_to_collection": null, "budget": 0, "genres": [{"id": 18, "name": "Drama"}, {"id": 9648, "name": "Mystery"}, {"id": 53, "name": "Thriller"}, {"id": 10770, "name": "TV Movie"}], "homepage": "http://www.mylifetime.com/movies/secrets-of-eden", "id": 88318, "imdb_id": "tt2191805", "original_language": "en", "original_title": "Secrets of Eden", "overview": "Based on Chris Bohjalian\u2019s New York Times best-selling novel, \u201cSecrets of Eden\u201d centers on Stephen Drew, an adored small-town minister, and the brutal and sadistic murder-suicide of Alice and George Hayward, the town\u2019s most beloved parishioners. Dark secrets begin to surface.", "popularity": 3.997, "poster_path": "/jg3NwWcLRHjkK6XVHPQ3vuBzZH8.jpg", "production_companies": [{"id": 38870, "logo_path": null, "name": "Craig Anderson Productions", "origin_country": ""}], "production_countries": [{"iso_3166_1": "US", "name": "United States of America"}], "release_date": "2012-02-04", "revenue": 0, "runtime": 85, "spoken_languages": [{"iso_639_1": "en", "name": "English"}], "status": "Released", "tagline": "", "title": "Secrets of Eden", "video": false, "vote_average": 5.2, "vote_count": 9, "keywords": {"keywords": [{"id": 818, "name": "based on novel or book"}, {"id": 1415, "name": "small town"}, {"id": 1499, "name": "pastor"}, {"id": 3065, "name": "minister"}, {"id": 9826, "name": "murder"}, {"id": 161982, "name": "murder investigation"}, {"id": 187056, "name": "woman director"}]}, "similar": {"page": 1, "results": [{"adult": false, "backdrop_path": "/iZOgAvUt6q356da1sfYz1UalNO.jpg", "genre_ids": [80, 18, 10749, 53], "id": 3134, "original_language": "fr", "original_title": "Baise-moi", "overview": "Manu has lived a difficult life. Abused and violently raped, she sets off to find herself only to meet Nadine, a prostitute who has encountered one too many injustices in the world. Angry at the world, they embark on a twisted, rage-filled road trip. They choose to have sex when they please and kill when they need. Leaving a trail of mischief and dead bodies in their wake. Generating a media blitz and manhunt, soon everyone is out to capture the young fugitives.", "poster_path": "/sLvsIgWMH9bV1IZnZOzY5dXKUHe.jpg", "release_date": "2000-06-28", "title": "Baise-moi", "video": false, "vote_average": 4.3, "vote_count": 173, "popularity": 14.535}, {"adult": false, "backdrop_path": "/3naOwcmYNZfd80kC1OXmembjc8j.jpg", "genre_ids": [53, 28, 18], "id": 445954, "original_language": "en", "original_title": "Acts of Vengeance", "overview": "A fast-talking lawyer transforms his body and takes a vow of silence, not to be broken until he finds out who killed his wife and daughter and has his revenge.", "poster_path": "/r5o6vWPYOQs6bv91gQ8kQs2zQYl.jpg", "release_date": "2017-10-27", "title": "Acts of Vengeance", "video": false, "vote_average": 5.7, "vote_count": 234, "popularity": 17.934}, {"adult": false, "backdrop_path": "/61jXRAqQihmnIfViTChwkGHMXsT.jpg", "genre_ids": [27, 9648, 53], "id": 12619, "original_language": "en", "original_title": "Cherry Falls", "overview": "Cherry Falls is a quiet little town - until the night that a serial killer begins preying on its youth. After a third teen is found slain, the killer's modus operandi emerges: the victims were all virgins. Sheriff Marken is concerned for the safety of the teens in general and in particular his own daughter Jody, who is still a virgin...", "poster_path": "/9bw9yVBFyv3nMeVDR7gjzELAATh.jpg", "release_date": "2000-08-25", "title": "Cherry Falls", "video": false, "vote_average": 5.0, "vote_count": 133, "popularity": 9.535}, {"id": 4771, "video": false, "vote_count": 2134, "vote_average": 7.3, "title": "Gone Baby Gone", "release_date": "2007-09-18", "original_language": "en", "original_title": "Gone Baby Gone", "genre_ids": [80, 18, 9648], "backdrop_path": "/sogh5NXPbKFajjYKBlfIBfCWgbq.jpg", "adult": false, "overview": "When 4 year old Amanda McCready disappears from her home and the police make little headway in solving the case, the girl's aunt, Beatrice McCready hires two private detectives, Patrick Kenzie and Angie Gennaro. The detectives freely admit that they have little experience with this type of case, but the family wants them for two reasons - they're not cops and they know the tough neighborhood in which they all live. As the case progresses, Kenzie and Gennaro face drug dealers, gangs and pedophiles. When they are about to solve the case, they are faced with a moral dilemma that tears them apart.", "poster_path": "/dXXMPxGiRegd7NNCtE5uchAKRAG.jpg", "popularity": 16.498}, {"id": 994, "video": false, "vote_count": 444, "vote_average": 7.2, "title": "Straw Dogs", "release_date": "1971-12-23", "original_language": "en", "original_title": "Straw Dogs", "genre_ids": [80, 18, 53], "backdrop_path": "/yL7uVOyvwZeP2U0zKIE3WQqoilA.jpg", "adult": false, "overview": "David Sumner, a mild-mannered academic from the United States, marries Amy, an Englishwoman. In order to escape a hectic stateside lifestyle, David and his wife relocate to the small town in rural Cornwall where Amy was raised. There, David is ostracized by the brutish men of the village, including Amy's old flame, Charlie. Eventually the taunts escalate, and two of the locals rape Amy. This sexual assault awakes a shockingly violent side of David.", "poster_path": "/yigkfHE1OhkxPPrjrV78Y9ibGEk.jpg", "popularity": 15.307}, {"adult": false, "backdrop_path": "/kiWvoV78Cc3fUwkOHKzyBgVdrDD.jpg", "genre_ids": [37, 18, 12], "id": 281957, "original_language": "en", "original_title": "The Revenant", "overview": "In the 1820s, a frontiersman, Hugh Glass, sets out on a path of vengeance against those who left him for dead after a bear mauling.", "poster_path": "/oXUWEc5i3wYyFnL1Ycu8ppxxPvs.jpg", "release_date": "2015-12-25", "title": "The Revenant", "video": false, "vote_average": 7.5, "vote_count": 12122, "popularity": 30.491}, {"id": 400090, "video": false, "vote_count": 106, "vote_average": 7.3, "title": "The Nightingale", "release_date": "2019-08-02", "original_language": "en", "original_title": "The Nightingale", "genre_ids": [12, 18, 53], "backdrop_path": "/bwsANtJNaA5xDmxPp6z2JqEtfCI.jpg", "adult": false, "overview": "In 1825, Claire, a 21-year-old Irish convict, chases a British soldier through the rugged Tasmanian wilderness, bent on revenge for a terrible act of violence he committed against her family. She enlists the services of an Aboriginal tracker who is also marked by trauma from his own violence-filled past.", "poster_path": "/hWA8QwSM1kJYMoTANEPoqrqBapg.jpg", "popularity": 10.467}, {"id": 60670, "video": false, "vote_count": 765, "vote_average": 6.9, "title": "The Crimson Rivers", "release_date": "2000-09-26", "original_language": "fr", "original_title": "Les Rivi\u00e8res pourpres", "genre_ids": [80, 9648, 53], "backdrop_path": "/pXmMiqordTEbRTDNlKPnyielNVA.jpg", "adult": false, "overview": "Two French policemen, one investigating a grisly murder at a remote mountain college, the other working on the desecration of a young girl's grave by skinheads, are brought together by the clues from their respective cases. Soon after they start working together, more murders are committed, and the pair begin to discover just what dark secrets are behind the killings.", "poster_path": "/kkRgQST0bEdEgqpPZMGaUB1twsQ.jpg", "popularity": 11.569}, {"adult": false, "backdrop_path": "/scRw6gAoO3CfgQnZjHCh2ZgU4Z1.jpg", "genre_ids": [80, 18, 878, 53], "id": 281, "original_language": "en", "original_title": "Strange Days", "overview": "Set in the year 1999 during the last days of the old millennium, the movie tells the story of Lenny Nero, an ex-cop who now deals with data-discs containing recorded memories and emotions. One day he receives a disc which contains the memories of a murderer killing a prostitute. Lenny investigates and is pulled deeper and deeper in a whirl of blackmail, murder and rape. Will he survive and solve the case?", "poster_path": "/rXvy5hG9OeVmgnv9w4IhQxhqEKD.jpg", "release_date": "1995-10-13", "title": "Strange Days", "video": false, "vote_average": 7.0, "vote_count": 663, "popularity": 17.431}, {"id": 75780, "video": false, "vote_count": 4451, "vote_average": 6.4, "title": "Jack Reacher", "release_date": "2012-12-20", "original_language": "en", "original_title": "Jack Reacher", "genre_ids": [28, 80, 18, 53], "backdrop_path": "/ezXodpP429qK0Av89pVNlaXWJkQ.jpg", "adult": false, "overview": "When a gunman takes five lives with six shots, all evidence points to the suspect in custody. On interrogation, the suspect offers up a single note: \"Get Jack Reacher!\" So begins an extraordinary chase for the truth, pitting Jack Reacher against an unexpected enemy, with a skill for violence and a secret to keep.", "poster_path": "/mt0ELw83HIRgaKaDzhsDcIi0RnW.jpg", "popularity": 15.945}, {"id": 65754, "video": false, "vote_count": 4330, "vote_average": 7.3, "title": "The Girl with the Dragon Tattoo", "release_date": "2011-12-14", "original_language": "en", "original_title": "The Girl with the Dragon Tattoo", "genre_ids": [80, 18, 9648, 53], "backdrop_path": "/1fk2xS5hRkblBuag5JXZkmE8pg6.jpg", "adult": false, "overview": "This English-language adaptation of the Swedish novel by Stieg Larsson follows a disgraced journalist, Mikael Blomkvist, as he investigates the disappearance of a weary patriarch's niece from 40 years ago. He is aided by the pierced, tattooed, punk computer hacker named Lisbeth Salander. As they work together in the investigation, Blomkvist and Salander uncover immense corruption beyond anything they have ever imagined.", "poster_path": "/voxRWFTtagLiqnJQs9tWQLB0MN.jpg", "popularity": 27.09}, {"adult": false, "backdrop_path": "/arcpWGGnUkGkakOwZo7xfPsaz7h.jpg", "genre_ids": [9648, 53], "id": 2832, "original_language": "en", "original_title": "Identity", "overview": "Complete strangers stranded at a remote desert motel during a raging storm soon find themselves the target of a deranged murderer. As their numbers thin out, the travelers begin to turn on each other, as each tries to figure out who the killer is.", "poster_path": "/xSNSp2wmCUwFavxdkMF417hBc39.jpg", "release_date": "2003-04-25", "title": "Identity", "video": false, "vote_average": 7.2, "vote_count": 2091, "popularity": 19.629}, {"adult": false, "backdrop_path": "/2J283YNxKhxAqHeVegUJ5mzLfGb.jpg", "genre_ids": [80, 18, 9648], "id": 392044, "original_language": "en", "original_title": "Murder on the Orient Express", "overview": "Genius Belgian detective Hercule Poirot investigates the murder of an American tycoon aboard the Orient Express train.", "poster_path": "/iBlfxlw8qwtUS0R8YjIU7JtM6LM.jpg", "release_date": "2017-11-03", "title": "Murder on the Orient Express", "video": false, "vote_average": 6.7, "vote_count": 6044, "popularity": 24.868}, {"id": 395834, "video": false, "vote_count": 2754, "vote_average": 7.4, "title": "Wind River", "release_date": "2017-08-03", "original_language": "en", "original_title": "Wind River", "genre_ids": [80, 18, 9648, 53], "backdrop_path": "/6B8e784decj9vtKuNjbl9Fes2aZ.jpg", "adult": false, "overview": "An FBI agent teams with the town's veteran game tracker to investigate a murder that occurred on a Native American reservation.", "poster_path": "/pySivdR845Hom4u4T2WNkJxe6Ad.jpg", "popularity": 21.415}, {"adult": false, "backdrop_path": "/2Tawvc0JMmR9nBXD3nhBThTQP2X.jpg", "genre_ids": [53, 18, 80, 27], "id": 1359, "original_language": "en", "original_title": "American Psycho", "overview": "A wealthy New York investment banking executive hides his alternate psychopathic ego from his co-workers and friends as he escalates deeper into his illogical, gratuitous fantasies.", "poster_path": "/qXsylPM4Lr5397R3eHrfqHhTUNc.jpg", "release_date": "2000-04-13", "title": "American Psycho", "video": false, "vote_average": 7.4, "vote_count": 4915, "popularity": 21.511}, {"adult": false, "backdrop_path": "/tFm0uRDFh9SarRyQN1mZLWvxJvE.jpg", "genre_ids": [18, 53], "id": 8999, "original_language": "en", "original_title": "Derailed", "overview": "When two married business executives having an affair are blackmailed by a violent criminal, they are forced to turn the tables on him to save their families.", "poster_path": "/fWZK40LvrjJ2w7IBuuadJMdHgVK.jpg", "release_date": "2005-11-11", "title": "Derailed", "video": false, "vote_average": 6.3, "vote_count": 556, "popularity": 11.887}, {"adult": false, "backdrop_path": "/8cVSUI36ORfCJ6d4TP71wIrdD7h.jpg", "genre_ids": [18, 27], "id": 133805, "original_language": "en", "original_title": "Carrie", "overview": "A reimagining of the classic horror tale about Carrie White, a shy girl outcast by her peers and sheltered by her deeply religious mother, who unleashes telekinetic terror on her small town after being pushed too far at her senior prom.", "poster_path": "/j0999NYddCGcishJlxluDRQIn6k.jpg", "release_date": "2013-10-16", "title": "Carrie", "video": false, "vote_average": 5.9, "vote_count": 2914, "popularity": 15.756}, {"adult": false, "backdrop_path": "/a24i4Qw6qFTtkFLQsncv8WPwevj.jpg", "genre_ids": [53, 28, 80], "id": 345887, "original_language": "en", "original_title": "The Equalizer 2", "overview": "Robert McCall, who serves an unflinching justice for the exploited and oppressed, embarks on a relentless, globe-trotting quest for vengeance when a long-time girl friend is murdered.", "poster_path": "/cQvc9N6JiMVKqol3wcYrGshsIdZ.jpg", "release_date": "2018-07-19", "title": "The Equalizer 2", "video": false, "vote_average": 6.5, "vote_count": 2482, "popularity": 24.261}, {"adult": false, "backdrop_path": "/pA64Ov7lDpwXBu33yq0KpmAOYJL.jpg", "genre_ids": [27, 53], "id": 357096, "original_language": "en", "original_title": "I Spit on Your Grave III: Vengeance is Mine", "overview": "Jennifer Hills is still tormented by the brutal sexual assault she endured years ago. She\u2019s changed identities and cities, reluctantly joining a support group where she begins to piece together a new life. But when her new friend\u2019s murderer goes free and the tales of serial rapists haunt her, Jennifer will hunt down the men responsible and do what the system won\u2019t \u2013 make them pay for their crimes in the most horrific ways imaginable. Only this time, no jury may be able to save her.", "poster_path": "/6SnOlgrUoC5jqmgcYIM5lde5zYq.jpg", "release_date": "2015-10-01", "title": "I Spit on Your Grave III: Vengeance is Mine", "video": false, "vote_average": 5.3, "vote_count": 437, "popularity": 20.366}, {"id": 28355, "video": false, "vote_count": 1285, "vote_average": 6.2, "title": "Case 39", "release_date": "2009-08-13", "original_language": "en", "original_title": "Case 39", "genre_ids": [27, 9648, 53], "backdrop_path": "/luTLwjU4WpQR2zBxJAKdK1D7C8T.jpg", "adult": false, "overview": "In her many years as a social worker, Emily Jenkins believes she has seen it all, until she meets 10-year-old Lilith and the girl's cruel parents. Emily's worst fears are confirmed when the parents try to harm the child, and so Emily assumes custody of Lilith while she looks for a foster family. However, Emily soon finds that dark forces surround the seemingly innocent girl, and the more she tries to protect Lilith, the more horrors she encounters.", "poster_path": "/xSyj4F1UVtAXhqSGpNCZRaBsKAJ.jpg", "popularity": 14.324}], "total_pages": 95, "total_results": 1893}, "recommendations": {"page": 1, "results": [{"id": 50714, "video": false, "vote_count": 9, "vote_average": 4.8, "title": "Reflections", "release_date": "2008-06-24", "original_language": "de", "original_title": "Reflections", "genre_ids": [80, 53], "backdrop_path": "/chXTC5lzTlJ1ALyfNa0NFb5GNNk.jpg", "adult": false, "overview": "Europol Agent Tom Brindle is called to Barcelona, Spain, to track down the notorious serial killer known as Pygmalion. A set of fingerprints lead to a young, volatile soldier, Marco Soler. Agent Brindle arrests Marco and intensely interrogates him, convinced that he has his man. Marco has an airtight alibi though and further investigation of the suspect leads Agent Brindle to a shocking discovery.", "poster_path": "/fYEM4kadypHpgJ5SWPiuqw66zae.jpg", "popularity": 3.954}, {"id": 19520, "video": false, "vote_count": 7, "vote_average": 4.2, "title": "The Perfect Husband: The Laci Peterson Story", "release_date": "2004-01-01", "original_language": "en", "original_title": "The Perfect Husband: The Laci Peterson Story", "genre_ids": [18, 10770], "backdrop_path": null, "adult": false, "overview": "Dean Cain portrays Scott Peterson, the California man accused of murdering his 8 month pregnant wife, Laci. Based on a true story.", "poster_path": "/yjZ6oQ5nHfDwBxpieZ847Mrz9xJ.jpg", "popularity": 2.183}], "total_pages": 1, "total_results": 2}, "credits": {"cast": [{"cast_id": 4, "character": "Catherine Benicasa", "credit_id": "52fe49f09251416c910bdd21", "gender": 1, "id": 134531, "name": "Anna Gunn", "order": 0, "profile_path": "/6yLKtfYFWbJp5HAjvCecQCYlmqk.jpg"}, {"cast_id": 5, "character": "Pastor Drew", "credit_id": "52fe49f09251416c910bdd25", "gender": 2, "id": 32600, "name": "John Stamos", "order": 1, "profile_path": "/dvKCPbJLB8Uo6g8iYckaEG4Slid.jpg"}, {"cast_id": 8, "character": "Kate Hayward", "credit_id": "595337949251416914001f37", "gender": 1, "id": 1228351, "name": "Samantha Munro", "order": 2, "profile_path": "/3LDquhcvrqXo3n1hV7tHBRtRkvn.jpg"}, {"cast_id": 9, "character": "Tina McBradden", "credit_id": "5a084fccc3a3683344019d6b", "gender": 1, "id": 1228361, "name": "Jordan Todosey", "order": 3, "profile_path": "/ei5pU7s6VL6boZmQEeZzjzpgJnh.jpg"}, {"cast_id": 10, "character": "Emmet Walker", "credit_id": "5cd96ed8c3a36831dec396f2", "gender": 2, "id": 88702, "name": "J.P. Manoux", "order": 4, "profile_path": "/lLEfizV970QfahQSBssUvj8Exs7.jpg"}], "crew": [{"credit_id": "52fe49f09251416c910bdd1d", "department": "Writing", "gender": 1, "id": 936106, "job": "Writer", "name": "Anne Meredith", "profile_path": null}, {"credit_id": "52fe49f09251416c910bdd2b", "department": "Writing", "gender": 0, "id": 936107, "job": "Novel", "name": "Chris Bohjalian", "profile_path": null}, {"credit_id": "536125eac3a36852c60000a0", "department": "Directing", "gender": 1, "id": 1224653, "job": "Director", "name": "Tawnia McKiernan", "profile_path": "/2x4LQIDdCCyWHThfcttGGWhkidt.jpg"}, {"credit_id": "5e1e369d511d090016819b93", "department": "Production", "gender": 2, "id": 2510094, "job": "Line Producer", "name": "Greg Copeland", "profile_path": null}]}}