{"adult": false, "backdrop_path": null, "belongs_to_collection": null, "budget": 500000, "genres": [{"id": 80, "name": "Crime"}, {"id": 18, "name": "Drama"}], "homepage": null, "id": 88338, "imdb_id": "tt0088025", "original_language": "en", "original_title": "Running Hot", "overview": "A teen convicted of murdering his father escapes from authorities and heads for Arizona with a prostitute.", "popularity": 2.092, "poster_path": "/84RcFYcgsxzazDnnRdPNDlh3tC9.jpg", "production_companies": [{"id": 43462, "logo_path": null, "name": "Highroad", "origin_country": ""}], "production_countries": [{"iso_3166_1": "US", "name": "United States of America"}], "release_date": "1984-02-01", "revenue": 0, "runtime": 95, "spoken_languages": [{"iso_639_1": "en", "name": "English"}], "status": "Released", "tagline": "He had everything to gain... she had nothing to lose.", "title": "Running Hot", "video": false, "vote_average": 6.5, "vote_count": 2, "keywords": {"keywords": [{"id": 549, "name": "prostitute"}, {"id": 1859, "name": "arizona"}, {"id": 6149, "name": "police"}, {"id": 10685, "name": "escape"}, {"id": 13130, "name": "teenager"}]}, "similar": {"page": 1, "results": [{"adult": false, "backdrop_path": "/yIszPJawrrp6zcb62d7XJnaxAmw.jpg", "genre_ids": [18], "id": 13078, "original_language": "en", "original_title": "The Babysitters", "overview": "Seventeen-year-old Shirley is a good student who works as a babysitter in order to make money for college. One night Michael, a father Shirley works for, confesses he's unhappy with married life. Shirley has a crush on Michael, and seizes this moment to kiss him. Michael is so happy he presents Shirley with a big tip, which gives her an idea. Shirley plans to make extra money by setting up her teenage friends with other unhappy fathers.", "poster_path": "/nsrNUqGXI95unRKZEu8BJ584xWn.jpg", "release_date": "2007-09-11", "title": "The Babysitters", "video": false, "vote_average": 5.3, "vote_count": 153, "popularity": 15.673}, {"adult": false, "backdrop_path": "/a0UYovVNPVfWILYT7TzD10xBX3q.jpg", "genre_ids": [18, 53, 80, 9648], "id": 979, "original_language": "fr", "original_title": "Irr\u00e9versible", "overview": "Events over the course of one traumatic night in Paris unfold in reverse-chronological order as the beautiful Alex is brutally raped and beaten by a stranger in the underpass. Her boyfriend and ex-lover take matters into their own hands by hiring two criminals to help them find the rapist so that they can exact revenge. A simultaneously beautiful and terrible examination of the destructive nature of cause and effect, and how time destroys everything.", "poster_path": "/rxeDxo8FvZpLu6iplNpxdtAVnfu.jpg", "release_date": "2002-05-22", "title": "Irreversible", "video": false, "vote_average": 7.1, "vote_count": 1216, "popularity": 20.416}, {"adult": false, "backdrop_path": "/feZlULeOhSRLz23ZXUeDX3Dl2dS.jpg", "genre_ids": [80, 53, 9648], "id": 17494, "original_language": "en", "original_title": "Unlawful Entry", "overview": "After a break-in at their house, a couple gets help from one of the cops that answered their call. He helps them install the security system, and begins dropping by on short notice and unofficial patrol, and spends a lot of time discussing the couple's problems with the wife. The husband begins wondering if they're getting too much help.", "poster_path": "/sKUk1ca6gHaIopi8VqE8GoxJq6J.jpg", "release_date": "1992-06-26", "title": "Unlawful Entry", "video": false, "vote_average": 6.1, "vote_count": 121, "popularity": 10.241}, {"id": 39927, "video": false, "vote_count": 23, "vote_average": 6.1, "title": "Freeway II: Confessions of a Trickbaby", "release_date": "1999-09-10", "original_language": "en", "original_title": "Freeway II: Confessions of a Trickbaby", "genre_ids": [35, 80, 18, 53], "backdrop_path": "/6cgMfo7dhLkBQOc91O0tddkc2s9.jpg", "adult": false, "overview": "After escaping from jail, two teens flee to Tijuana and stay with one's childhood protector, a man masquerading as a nun.", "poster_path": "/5GDjVq3WhQRc7OlKb6QDQzxKdk7.jpg", "popularity": 4.841}, {"id": 4771, "video": false, "vote_count": 2134, "vote_average": 7.3, "title": "Gone Baby Gone", "release_date": "2007-09-18", "original_language": "en", "original_title": "Gone Baby Gone", "genre_ids": [80, 18, 9648], "backdrop_path": "/sogh5NXPbKFajjYKBlfIBfCWgbq.jpg", "adult": false, "overview": "When 4 year old Amanda McCready disappears from her home and the police make little headway in solving the case, the girl's aunt, Beatrice McCready hires two private detectives, Patrick Kenzie and Angie Gennaro. The detectives freely admit that they have little experience with this type of case, but the family wants them for two reasons - they're not cops and they know the tough neighborhood in which they all live. As the case progresses, Kenzie and Gennaro face drug dealers, gangs and pedophiles. When they are about to solve the case, they are faced with a moral dilemma that tears them apart.", "poster_path": "/dXXMPxGiRegd7NNCtE5uchAKRAG.jpg", "popularity": 16.498}, {"id": 1803, "video": false, "vote_count": 26, "vote_average": 6.3, "title": "Angel", "release_date": "1984-04-19", "original_language": "en", "original_title": "Angel", "genre_ids": [28, 80, 53], "backdrop_path": "/5m7zi5ndJludQeRAKK6j1FoZVUK.jpg", "adult": false, "overview": "15 year-old Molly is top of her high school class. But nobody suspects that the model pupil earns her money at night: as a prostitute on Sunset Blvd. The well-organized separation of her two lives is shattered when two of her friends are slain by a serial killer. She's the only eye witness and becomes a target herself.", "poster_path": "/3O7VwsGQdgqjChRxSZwPjjYND6m.jpg", "popularity": 8.543}, {"adult": false, "backdrop_path": "/8cVSUI36ORfCJ6d4TP71wIrdD7h.jpg", "genre_ids": [18, 27], "id": 133805, "original_language": "en", "original_title": "Carrie", "overview": "A reimagining of the classic horror tale about Carrie White, a shy girl outcast by her peers and sheltered by her deeply religious mother, who unleashes telekinetic terror on her small town after being pushed too far at her senior prom.", "poster_path": "/j0999NYddCGcishJlxluDRQIn6k.jpg", "release_date": "2013-10-16", "title": "Carrie", "video": false, "vote_average": 5.9, "vote_count": 2914, "popularity": 15.756}, {"adult": false, "backdrop_path": "/scRw6gAoO3CfgQnZjHCh2ZgU4Z1.jpg", "genre_ids": [80, 18, 878, 53], "id": 281, "original_language": "en", "original_title": "Strange Days", "overview": "Set in the year 1999 during the last days of the old millennium, the movie tells the story of Lenny Nero, an ex-cop who now deals with data-discs containing recorded memories and emotions. One day he receives a disc which contains the memories of a murderer killing a prostitute. Lenny investigates and is pulled deeper and deeper in a whirl of blackmail, murder and rape. Will he survive and solve the case?", "poster_path": "/rXvy5hG9OeVmgnv9w4IhQxhqEKD.jpg", "release_date": "1995-10-13", "title": "Strange Days", "video": false, "vote_average": 7.0, "vote_count": 663, "popularity": 17.431}, {"id": 317091, "video": false, "vote_count": 365, "vote_average": 5.2, "title": "November Criminals", "release_date": "2017-12-08", "original_language": "en", "original_title": "November Criminals", "genre_ids": [80, 18, 9648, 53], "backdrop_path": "/jUI42ShKFPy0oLZFXbXzXMEq9Zg.jpg", "adult": false, "overview": "When Addison investigates the murder of his friend Kevin with the help of Phoebe, they discover that the truth is darker than they had ever imagined.", "poster_path": "/m2JxGgarPvtemudLZ1CB6gLJeUb.jpg", "popularity": 12.871}, {"id": 339692, "video": false, "vote_count": 1163, "vote_average": 6.9, "title": "Shot Caller", "release_date": "2017-07-13", "original_language": "en", "original_title": "Shot Caller", "genre_ids": [80, 18, 53], "backdrop_path": "/hehboYLXB3m90x9ybiBsupwuifL.jpg", "adult": false, "overview": "A newly-released prison gangster is forced by the leaders of his gang to orchestrate a major crime with a brutal rival gang on the streets of Southern California.", "poster_path": "/qLmLz2wtyYvmW8Ult3l2ngOnW8v.jpg", "popularity": 25.016}, {"id": 23483, "video": false, "vote_count": 8165, "vote_average": 7.1, "title": "Kick-Ass", "release_date": "2010-03-22", "original_language": "en", "original_title": "Kick-Ass", "genre_ids": [28, 80], "backdrop_path": "/ngPkB9K8ZpIjv8HpIC8ExqAfG6H.jpg", "adult": false, "overview": "Dave Lizewski is an unnoticed high school student and comic book fan who one day decides to become a super-hero, even though he has no powers, training or meaningful reason to do so.", "poster_path": "/gtfggr5n3ED1neoTqVYmsVCoSS.jpg", "popularity": 24.282}, {"adult": false, "backdrop_path": "/by0WtpJ5UNxOy6ytIfPPTasbRoB.jpg", "genre_ids": [28, 12, 35, 18, 10751, 10402, 10749], "id": 17130, "original_language": "en", "original_title": "Crossroads", "overview": "Three friends get together and bury a box making a pact to open it at midnight at their high school graduation. In the little town in Georgia that they live in, things soon change. One is little miss perfect, one is an engaged prom queen, and the other is a pregnant outcast. The night of graduation, they open the box and they strike up a conversation. All of a sudden, one brings up the topic of her going to Los Angeles for a record contract audition. They all decide to go together and they leave. With a little money, they set out on the road with a guy named Ben. When one of them tells the other a rumor that he might be a homicidal maniac they are all scared of him. When they reach LA, Lucy falls in love with Ben and against her father's wishes, she stays and she goes to the audition.", "poster_path": "/egIs4cWxn0iBErFKrQ7STckjj49.jpg", "release_date": "2002-02-15", "title": "Crossroads", "video": false, "vote_average": 5.0, "vote_count": 334, "popularity": 14.197}, {"id": 157847, "video": false, "vote_count": 566, "vote_average": 6.6, "title": "Joe", "release_date": "2014-04-11", "original_language": "en", "original_title": "Joe", "genre_ids": [18], "backdrop_path": "/183Jzh007eOZRkrfIDAcpvhzKli.jpg", "adult": false, "overview": "The rough-hewn boss of a lumber crew courts trouble when he steps in to protect the youngest member of his team from an abusive father.", "poster_path": "/bvcLnoffCm67n7pZPVdJ6pluJsi.jpg", "popularity": 11.275}, {"adult": false, "backdrop_path": "/fop31RWFi9sVL0xK5hAJGh7Fwkz.jpg", "genre_ids": [18, 80], "id": 261023, "original_language": "en", "original_title": "Black Mass", "overview": "The true story of Whitey Bulger, the brother of a state senator and the most infamous violent criminal in the history of South Boston, who became an FBI informant to take down a Mafia family invading his turf.", "poster_path": "/nSbpuyd2UySuW7kaoXzYUfes1Bl.jpg", "release_date": "2015-09-04", "title": "Black Mass", "video": false, "vote_average": 6.4, "vote_count": 2190, "popularity": 14.581}, {"adult": false, "backdrop_path": "/dFyEwLUOeFolYsySpXIfGkhteiM.jpg", "genre_ids": [18, 35, 10752, 80, 53], "id": 9104, "original_language": "en", "original_title": "Buffalo Soldiers", "overview": "Set just before the fall of the Berlin Wall in 1989, Sgt. Ray Elwood is an American soldier stationed at a German army camp. A soldier because a judge gave him a choice between the army and jail, Ray spends much of his free time cooking cocaine for the MPs. When a soldier dies and a toxicology screen shows an alarming level of illegal narcotics, someone is sent in to investigate.", "poster_path": "/53vlXW4mVcSc9faIU5GonNuZtRZ.jpg", "release_date": "2001-09-08", "title": "Buffalo Soldiers", "video": false, "vote_average": 6.4, "vote_count": 150, "popularity": 10.117}, {"id": 1632, "video": false, "vote_count": 770, "vote_average": 7.6, "title": "Mississippi Burning", "release_date": "1988-12-08", "original_language": "en", "original_title": "Mississippi Burning", "genre_ids": [80, 18, 53], "backdrop_path": "/4ypwob4uxh0q1osOFq2Wh7zdopT.jpg", "adult": false, "overview": "Two FBI agents investigating the murder of civil rights workers during the 60s seek to breach the conspiracy of silence in a small Southern town where segregation divides black and white. The younger agent trained in FBI school runs up against the small town ways of his partner, a former sheriff.", "poster_path": "/uSukdUQwx0l4rRuMXNqugR1tu4n.jpg", "popularity": 16.862}, {"adult": false, "backdrop_path": "/gk67yS6cLpYEia8kSPcsSxFqpYA.jpg", "genre_ids": [10752, 12, 18, 10749], "id": 9093, "original_language": "en", "original_title": "The Four Feathers", "overview": "The story, set in 1875, follows a British officer (Heath Ledger) who resigns his post when he learns of his regiment's plan to ship out to the Sudan for the conflict with the Mahdi. His friends and fianc\u00e9e send him four white feathers which symbolize cowardice. To redeem his honor he disguises himself as an Arab and secretly saves the lives of those who branded him a coward.", "poster_path": "/1mr4V13SFK4En8f4ZdyBgnZmVar.jpg", "release_date": "2002-09-08", "title": "The Four Feathers", "video": false, "vote_average": 6.6, "vote_count": 286, "popularity": 9.715}, {"adult": false, "backdrop_path": "/8y3Y934raMH41NqytIAnbTIYcBY.jpg", "genre_ids": [18], "id": 8443, "original_language": "pt", "original_title": "Cidade Baixa", "overview": "Best friends Deco (L\u00e1zaro Ramos) and Naldinho (Wagner Moura) co-own a cargo boat in Brazil's Salvador de Bahia. They give a ride to a sultry prostitute named Karinna (Alice Braga), and soon both men fall prey to her considerable sexual charms, pushing the bonds of their friendship to the limit.", "poster_path": "/3cT7py8nOAVgh1FK6dRFHNlTkrU.jpg", "release_date": "2005-05-16", "title": "Lower City", "video": false, "vote_average": 6.3, "vote_count": 28, "popularity": 4.425}, {"adult": false, "backdrop_path": "/v761yOHKO3p6Yr7LDCjud6tUL5G.jpg", "genre_ids": [28, 80, 53], "id": 10651, "original_language": "en", "original_title": "The Dead Pool", "overview": "Dirty Harry Callahan returns for his final film adventure. Together with his partner Al Quan, he must investigate the systematic murder of actors and musicians. By the time Harry learns that the murders are a part of a sick game to predict the deaths of celebrities before they happen, it may be too late...", "poster_path": "/9ZUSqox9lIxN4xaYBac2QXMFcZj.jpg", "release_date": "1988-07-12", "title": "The Dead Pool", "video": false, "vote_average": 6.4, "vote_count": 389, "popularity": 10.626}, {"id": 18191, "video": false, "vote_count": 89, "vote_average": 5.9, "title": "Edmond", "release_date": "2005-08-31", "original_language": "en", "original_title": "Edmond", "genre_ids": [18, 53], "backdrop_path": "/ndO7ztGhBdfTppqDJjzXcMrmysH.jpg", "adult": false, "overview": "Seemingly mild-mannered businessman Edmond Burke visits a fortuneteller and hears a remark that spurs him to leave his wife abruptly and seek what is missing from his life. Encounters with strangers and unsavory people weaken the barriers encompassing his long-suppressed rage, until Edmond explodes in violence.", "poster_path": "/bGBLs1iU8i4JrEtZ5XbJCkFp3c2.jpg", "popularity": 9.673}], "total_pages": 459, "total_results": 9172}, "recommendations": {"page": 1, "results": [], "total_pages": 1, "total_results": 0}, "credits": {"cast": [{"cast_id": 5, "character": "Danny Hicks", "credit_id": "52fe49f19251416c910bded5", "gender": 2, "id": 7036, "name": "Eric Stoltz", "order": 0, "profile_path": "/fXaULtqnMDKsqT1to8vnLjSXe0w.jpg"}, {"cast_id": 6, "character": "Charlene Andrews", "credit_id": "52fe49f19251416c910bded9", "gender": 0, "id": 936141, "name": "Monica Carrico", "order": 1, "profile_path": null}, {"cast_id": 7, "character": "Officer Trent", "credit_id": "52fe49f19251416c910bdedd", "gender": 2, "id": 41406, "name": "Stuart Margolin", "order": 2, "profile_path": "/aPY5PDrURHBlZv45XXCvrijmjsx.jpg"}, {"cast_id": 8, "character": "Ross", "credit_id": "52fe49f19251416c910bdee1", "gender": 2, "id": 8954, "name": "Virgil Frye", "order": 3, "profile_path": "/ryJZmbNAFOOLREZUZ2XZlr3kP99.jpg"}, {"cast_id": 9, "character": "Tom Bond", "credit_id": "52fe49f19251416c910bdee5", "gender": 2, "id": 1272, "name": "Richard Bradford", "order": 4, "profile_path": "/oxLUtBUC5V0Uws7hvrBAwTBXQ38.jpg"}, {"cast_id": 10, "character": "Shane", "credit_id": "52fe49f19251416c910bdee9", "gender": 0, "id": 194429, "name": "Louise Baker", "order": 5, "profile_path": null}, {"cast_id": 11, "character": "Officer Berman", "credit_id": "52fe49f19251416c910bdeed", "gender": 2, "id": 165362, "name": "Joe George", "order": 6, "profile_path": null}, {"cast_id": 12, "character": "Angie", "credit_id": "52fe49f19251416c910bdef1", "gender": 0, "id": 936142, "name": "Laurel Patrick", "order": 7, "profile_path": null}, {"cast_id": 13, "character": "Jenny Hicks", "credit_id": "52fe49f19251416c910bdef5", "gender": 1, "id": 98583, "name": "Juliette Cummins", "order": 8, "profile_path": "/tyNl06JM26KmqUZ0erLIWHlDj3y.jpg"}, {"cast_id": 14, "character": "Charlene's Mother", "credit_id": "52fe49f19251416c910bdef9", "gender": 1, "id": 1212984, "name": "Lesley Woods", "order": 9, "profile_path": null}], "crew": [{"credit_id": "52fe49f19251416c910bdebf", "department": "Directing", "gender": 2, "id": 106491, "job": "Director", "name": "Mark Griffiths", "profile_path": null}, {"credit_id": "52fe49f19251416c910bdec5", "department": "Writing", "gender": 2, "id": 106491, "job": "Writer", "name": "Mark Griffiths", "profile_path": null}, {"credit_id": "52fe49f19251416c910bdecb", "department": "Production", "gender": 0, "id": 324904, "job": "Producer", "name": "David Calloway", "profile_path": null}, {"credit_id": "52fe49f19251416c910bded1", "department": "Production", "gender": 0, "id": 936140, "job": "Producer", "name": "Zachary Feuer", "profile_path": null}]}}