{"adult": false, "backdrop_path": null, "belongs_to_collection": null, "budget": 19000000, "genres": [{"id": 10402, "name": "Music"}, {"id": 18, "name": "Drama"}, {"id": 35, "name": "Comedy"}, {"id": 10749, "name": "Romance"}], "homepage": null, "id": 88451, "imdb_id": "tt0084931", "original_language": "en", "original_title": "Yes, Giorgio", "overview": "A famous opera singer, Giorgio Fini, loses his voice during an American tour. He goes to a female throat specialist, Pamela Taylor, whom he falls in love with.", "popularity": 3.856, "poster_path": "/6RB4rJzmnL0OnzkyVSBurhcwH9U.jpg", "production_companies": [{"id": 21, "logo_path": "/mjofSXiHpG5t6KYmU4l4FrUhT7m.png", "name": "Metro-Goldwyn-Mayer", "origin_country": "US"}], "production_countries": [{"iso_3166_1": "US", "name": "United States of America"}], "release_date": "1982-09-24", "revenue": 2279543, "runtime": 110, "spoken_languages": [{"iso_639_1": "en", "name": "English"}, {"iso_639_1": "it", "name": "Italiano"}], "status": "Released", "tagline": "", "title": "Yes, Giorgio", "video": false, "vote_average": 2.6, "vote_count": 5, "keywords": {"keywords": [{"id": 2199, "name": "opera"}, {"id": 4344, "name": "musical"}]}, "similar": {"page": 1, "results": [{"id": 872, "video": false, "vote_count": 1616, "vote_average": 8.2, "title": "Singin' in the Rain", "release_date": "1952-04-10", "original_language": "en", "original_title": "Singin' in the Rain", "genre_ids": [35, 10402, 10749], "backdrop_path": "/amW1YWQvcP8slDyDp1R652aVQZ7.jpg", "adult": false, "overview": "In 1927 Hollywood, a silent film production company and cast make a difficult transition to sound.", "poster_path": "/s39odBPtyutGBnEfBIpdm0fpRwv.jpg", "popularity": 20.625}, {"id": 279, "video": false, "vote_count": 2310, "vote_average": 8.0, "title": "Amadeus", "release_date": "1984-09-06", "original_language": "en", "original_title": "Amadeus", "genre_ids": [18, 36, 10402], "backdrop_path": "/6GMcKubg3KmrE8snLOCNAtsZWW2.jpg", "adult": false, "overview": "The incredible story of genius musician Wolfgang Amadeus Mozart, told in flashback by his peer and secret rival, Antonio Salieri\u2014now confined to an insane asylum.", "poster_path": "/flnoqdC38mbaulAeptjynOFO7yi.jpg", "popularity": 20.596}, {"id": 342473, "video": false, "vote_count": 1168, "vote_average": 7.1, "title": "Ballerina", "release_date": "2016-12-14", "original_language": "en", "original_title": "Ballerina", "genre_ids": [12, 16, 35, 10751], "backdrop_path": "/wlLdcK3Sm7zp0w1ZuVvnFlmcchM.jpg", "adult": false, "overview": "Set in 1879 Paris. An orphan girl dreams of becoming a ballerina and flees her rural Brittany for Paris, where she passes for someone else and accedes to the position of pupil at the Grand Opera house.", "poster_path": "/qBxMhcmNnFniuDAZTKEHcSgKtsn.jpg", "popularity": 25.032}, {"id": 194662, "video": false, "vote_count": 8616, "vote_average": 7.5, "title": "Birdman", "release_date": "2014-08-27", "original_language": "en", "original_title": "Birdman", "genre_ids": [35, 18], "backdrop_path": "/AsJVim0Hk3KbQPbfjyijfjqmaoZ.jpg", "adult": false, "overview": "A fading actor best known for his portrayal of a popular superhero attempts to mount a comeback by appearing in a Broadway play. As opening night approaches, his attempts to become more altruistic, rebuild his career, and reconnect with friends and family prove more difficult than expected.", "poster_path": "/rSZs93P0LLxqlVEbI001UKoeCQC.jpg", "popularity": 37.733}, {"adult": false, "backdrop_path": "/ppDnBvf0f7vCZHRLtDjazpYHdTF.jpg", "genre_ids": [35, 10402, 10749], "id": 13368, "original_language": "en", "original_title": "White Christmas", "overview": "Two talented song-and-dance men team up after the war to become one of the hottest acts in show business. In time they befriend and become romantically involved with the beautiful Haynes sisters who comprise a sister act.", "poster_path": "/A5kBQsHKbIptxJyELEpHQJROCRj.jpg", "release_date": "1954-10-14", "title": "White Christmas", "video": false, "vote_average": 7.4, "vote_count": 250, "popularity": 16.622}, {"id": 313369, "video": false, "vote_count": 11057, "vote_average": 7.9, "title": "La La Land", "release_date": "2016-11-29", "original_language": "en", "original_title": "La La Land", "genre_ids": [35, 18, 10402, 10749], "backdrop_path": "/fp6X6yhgcxzxCpmM0EVC6V9B8XB.jpg", "adult": false, "overview": "Mia, an aspiring actress, serves lattes to movie stars in between auditions and Sebastian, a jazz musician, scrapes by playing cocktail party gigs in dingy bars, but as success mounts they are faced with decisions that begin to fray the fragile fabric of their love affair, and the dreams they worked so hard to maintain in each other threaten to rip them apart.", "poster_path": "/ylXCdC106IKiarftHkcacasaAcb.jpg", "popularity": 30.693}, {"id": 606117, "video": false, "vote_count": 256, "vote_average": 6.8, "title": "A Cinderella Story: Christmas Wish", "release_date": "2019-10-15", "original_language": "en", "original_title": "A Cinderella Story: Christmas Wish", "genre_ids": [35, 14, 10402, 10749], "backdrop_path": "/h3kzgUaUOamInX7nsALsFmlw4qX.jpg", "adult": false, "overview": "Kat is an aspiring singer-songwriter who dreams of making it big. However, her dreams are stalled by her reality: a conniving and cruel stepfamily  and a demoralizing job working as a singing elf at billionaire Terrence Wintergarden\u2019s Santa Land.", "poster_path": "/ozBX0u5caaJFli9AssqJmARb5R.jpg", "popularity": 25.37}, {"adult": false, "backdrop_path": "/5x0VEeFCnWzRBwU23KycKQRqEhN.jpg", "genre_ids": [10402, 35], "id": 15157, "original_language": "en", "original_title": "Another Cinderella Story", "overview": "A guy who danced with what could be the girl of his dreams at a costume ball only has one hint at her identity: the Zune she left behind as she rushed home in order to make her curfew. And with a once-in-a-lifetime opportunity in front of him, he sets out to find his masked beauty.", "poster_path": "/fLdCKCfHT8A6bnWybBsQFjC4fCo.jpg", "release_date": "2008-09-16", "title": "Another Cinderella Story", "video": false, "vote_average": 6.6, "vote_count": 1120, "popularity": 22.24}, {"adult": false, "backdrop_path": "/3eAudH9hkkr451VoAZPLEQVy5wX.jpg", "genre_ids": [35, 18, 10402, 10749], "id": 6282, "original_language": "en", "original_title": "Coyote Ugly", "overview": "Graced with a velvet voice, 21-year-old Violet Sanford heads to New York to pursue her dream of becoming a songwriter only to find her aspirations sidelined by the accolades and notoriety she receives at her \"day\" job as a barmaid at Coyote Ugly. The \"Coyotes\" as they are affectionately called tantalize customers and the media alike with their outrageous antics, making Coyote Ugly the watering hole for guys on the prowl.", "poster_path": "/p3nIrS9rkdVmMmgKAWtGsmAnhGV.jpg", "release_date": "2000-07-30", "title": "Coyote Ugly", "video": false, "vote_average": 6.1, "vote_count": 1166, "popularity": 20.571}, {"id": 11887, "video": false, "vote_count": 2347, "vote_average": 6.5, "title": "High School Musical 3: Senior Year", "release_date": "2008-10-11", "original_language": "en", "original_title": "High School Musical 3: Senior Year", "genre_ids": [35, 18, 10402, 10749, 10751], "backdrop_path": "/daSGxGZL2nNjGZKkAF5ain3lmOx.jpg", "adult": false, "overview": "It's almost graduation day for high school seniors Troy, Gabriella, Sharpay, Chad, Ryan and Taylor \u2015 and the thought of heading off in separate directions after leaving East High has these Wildcats thinking they need to do something they'll remember forever. Together with the rest of the Wildcats, they stage a spring musical reflecting their hopes and fears about the future and their unforgettable experiences growing up together. But with graduation approaching and college plans in question, what will become of the dreams, romances, and friendships of East High's senior Wildcats?", "poster_path": "/ewZpH2QIfPQ0VIn9lPf7MHbLbl4.jpg", "popularity": 19.967}, {"id": 407655, "video": false, "vote_count": 421, "vote_average": 6.8, "title": "A Cinderella Story: If the Shoe Fits", "release_date": "2016-08-02", "original_language": "en", "original_title": "A Cinderella Story: If the Shoe Fits", "genre_ids": [35, 14, 10402, 10751], "backdrop_path": "/svYzELCLW0NGVEuvNraA4W7Hmm9.jpg", "adult": false, "overview": "A contemporary musical version of the classic Cinderella story in which the servant step daughter hope to compete in a musical competition for a famous pop star.", "poster_path": "/prZSNnK5dkYcflsbdOsVVvqasZ5.jpg", "popularity": 23.748}, {"adult": false, "backdrop_path": "/9l5Nzo1qbEslfCu2NYWimpZ1Vkc.jpg", "genre_ids": [35, 10751, 14, 10749], "id": 4523, "original_language": "en", "original_title": "Enchanted", "overview": "The beautiful princess Giselle is banished by an evil queen from her magical, musical animated land and finds herself in the gritty reality of the streets of modern-day Manhattan. Shocked by this strange new environment that doesn't operate on a \"happily ever after\" basis, Giselle is now adrift in a chaotic world badly in need of enchantment. But when Giselle begins to fall in love with a charmingly flawed divorce lawyer who has come to her aid - even though she is already promised to a perfect fairy tale prince back home - she has to wonder: Can a storybook view of romance survive in the real world?", "poster_path": "/65EfHNQ6NCeAoRPNLRhTyLqNZmU.jpg", "release_date": "2007-11-20", "title": "Enchanted", "video": false, "vote_average": 6.7, "vote_count": 3505, "popularity": 20.256}, {"adult": false, "backdrop_path": "/90kmxuSwU28dVy1ghVSHI4x1wb8.jpg", "genre_ids": [35, 18, 37], "id": 537996, "original_language": "en", "original_title": "The Ballad of Buster Scruggs", "overview": "Vignettes weaving together the stories of six individuals in the old West at the end of the Civil War. Following the tales of a sharp-shooting songster, a wannabe bank robber, two weary traveling performers, a lone gold prospector, a woman traveling the West to an uncertain future, and a motley crew of strangers undertaking a carriage ride.", "poster_path": "/voxl654m7p36y8FLu8oQD7dfwwK.jpg", "release_date": "2018-11-09", "title": "The Ballad of Buster Scruggs", "video": false, "vote_average": 7.2, "vote_count": 2072, "popularity": 15.524}, {"adult": false, "backdrop_path": "/3nG6BBIxgqbIM5p1iO61RyKzUkZ.jpg", "genre_ids": [16, 10751, 14, 12, 35, 10749], "id": 11970, "original_language": "en", "original_title": "Hercules", "overview": "Bestowed with superhuman strength, a young mortal named Hercules sets out to prove himself a hero in the eyes of his father, the great god Zeus. Along with his friends Pegasus, a flying horse, and Phil, a personal trainer, Hercules is tricked by the hilarious, hotheaded villain Hades, who's plotting to take over Mount Olympus!", "poster_path": "/eFlBFMAifj436QctX3akDkUnhlk.jpg", "release_date": "1997-06-20", "title": "Hercules", "video": false, "vote_average": 7.5, "vote_count": 4316, "popularity": 27.252}, {"id": 824, "video": false, "vote_count": 2858, "vote_average": 7.6, "title": "Moulin Rouge!", "release_date": "2001-03-09", "original_language": "en", "original_title": "Moulin Rouge!", "genre_ids": [18, 10749], "backdrop_path": "/ibXhTCxthtwhMj84XJq8W4KtQDt.jpg", "adult": false, "overview": "A celebration of love and creative inspiration takes place in the infamous, gaudy and glamorous Parisian nightclub, at the cusp of the 20th century. A young poet, who is plunged into the heady world of Moulin Rouge, begins a passionate affair with the club's most notorious and beautiful star.", "poster_path": "/xhuQz2yKPlWvMvvnf2u9RVkAQx6.jpg", "popularity": 19.418}, {"adult": false, "backdrop_path": "/h6NQoXBxD0uaIrpuk9FFV89vITT.jpg", "genre_ids": [10402, 35, 10751, 14, 18], "id": 10437, "original_language": "en", "original_title": "The Muppet Christmas Carol", "overview": "A retelling of the classic Dickens tale of Ebenezer Scrooge, miser extraordinaire. He is held accountable for his dastardly ways during night-time visitations by the Ghosts of Christmas Past, Present, and future.", "poster_path": "/fe4nLJkDNXhyuMnrZ60MfoSpPes.jpg", "release_date": "1992-12-10", "title": "The Muppet Christmas Carol", "video": false, "vote_average": 7.4, "vote_count": 497, "popularity": 13.269}, {"adult": false, "backdrop_path": "/bxPw6s61bG5Of19lp1E00n0dDWW.jpg", "genre_ids": [35, 18, 10751, 10402, 10770], "id": 10947, "original_language": "en", "original_title": "High School Musical", "overview": "Troy, the popular captain of the basketball team, and Gabriella, the brainy and beautiful member of the academic club, break all the rules of East High society when they secretly audition for the leads in the school's musical. As they reach for the stars and follow their dreams, everyone learns about acceptance, teamwork, and being yourself.", "poster_path": "/xMRBlTMMKDRJuK4IhwG5idrGHaS.jpg", "release_date": "2006-01-20", "title": "High School Musical", "video": false, "vote_average": 6.5, "vote_count": 2982, "popularity": 16.417}, {"adult": false, "backdrop_path": "/txtRue33MaXv5HQpTiHPOmOcDxE.jpg", "genre_ids": [35, 10749], "id": 11631, "original_language": "en", "original_title": "Mamma Mia!", "overview": "An independent, single mother who owns a small hotel on a Greek island is about to marry off the spirited young daughter she's raised alone. But, the daughter has secretly invited three of her mother's ex-lovers in the hopes of finding her biological father.", "poster_path": "/gOm2iMMbC6EonrFzmSQ8xvCa4Ei.jpg", "release_date": "2008-07-02", "title": "Mamma Mia!", "video": false, "vote_average": 6.9, "vote_count": 4120, "popularity": 16.652}, {"id": 420817, "video": false, "vote_count": 4662, "vote_average": 7.0, "title": "Aladdin", "release_date": "2019-05-22", "original_language": "en", "original_title": "Aladdin", "genre_ids": [12, 35, 14, 10749, 10751], "backdrop_path": "/rVqY0Bo4Npf6EIONUROxjYAJfmD.jpg", "adult": false, "overview": "A kindhearted street urchin named Aladdin embarks on a magical adventure after finding a lamp that releases a wisecracking genie while a power-hungry Grand Vizier vies for the same lamp that has the power to make their deepest wishes come true.", "poster_path": "/3iYQTLGoy7QnjcUYRJy4YrAgGvp.jpg", "popularity": 79.26}, {"id": 536869, "video": false, "vote_count": 154, "vote_average": 4.5, "title": "Cats", "release_date": "2019-12-19", "original_language": "en", "original_title": "Cats", "genre_ids": [35, 18, 14], "backdrop_path": "/4F8M02OjkfDIIBg36R5ZluLK2nU.jpg", "adult": false, "overview": "A tribe of cats called the Jellicles must decide yearly which one will ascend to the Heaviside Layer and come back to a new Jellicle life.", "poster_path": "/d6tfbsrZr4QPDHp7PlD0Z4ngIAs.jpg", "popularity": 29.011}], "total_pages": 185, "total_results": 3687}, "recommendations": {"page": 1, "results": [], "total_pages": 1, "total_results": 0}, "credits": {"cast": [{"cast_id": 1, "character": "Giorgio Fini", "credit_id": "52fe49f69251416c910be895", "gender": 2, "id": 141317, "name": "Luciano Pavarotti", "order": 0, "profile_path": "/daGUgvcYNUhRnrbsrlxae3d8KIA.jpg"}, {"cast_id": 2, "character": "Pamela Taylor", "credit_id": "52fe49f69251416c910be899", "gender": 1, "id": 21519, "name": "Kathryn Harrold", "order": 1, "profile_path": "/6TvQYnmEdEanDbJbBsSMy0UjXZY.jpg"}, {"cast_id": 5, "character": "Henry Pollack", "credit_id": "5800c55dc3a3686b0b004888", "gender": 2, "id": 11998, "name": "Eddie Albert", "order": 2, "profile_path": "/tScju2xZ42MpXqx5WSYKFtwzH8r.jpg"}, {"cast_id": 9, "character": "Sister Theresa", "credit_id": "5a4684c10e0a264f2907e611", "gender": 0, "id": 12005, "name": "Paola Borboni", "order": 3, "profile_path": "/rUALvkILtnGE4dZ9ywLt457K6vr.jpg"}, {"cast_id": 10, "character": "Kwan", "credit_id": "5a4684cc9251411f4f093a84", "gender": 2, "id": 20904, "name": "James Hong", "order": 4, "profile_path": "/8k4RrDRsqkvJDePU8ciMOOx5Zso.jpg"}, {"cast_id": 11, "character": "Mei Ling", "credit_id": "5a4684eec3a36858e007ac12", "gender": 1, "id": 156813, "name": "Beulah Quo", "order": 5, "profile_path": "/zQCGMOKa1g4e3QlOkuCLF26CiS.jpg"}, {"cast_id": 12, "character": "Dr. Barmen", "credit_id": "5a4684fb9251411fab099cdd", "gender": 2, "id": 111907, "name": "Norman Steinberg", "order": 6, "profile_path": null}, {"cast_id": 13, "character": "Ted Mullane", "credit_id": "5a46850a925141740306e921", "gender": 2, "id": 1336971, "name": "Rod Colbin", "order": 7, "profile_path": null}, {"cast_id": 14, "character": "Faye Kennedy", "credit_id": "5a46851a9251411fab099cfe", "gender": 0, "id": 1949975, "name": "Kathryn Fuller", "order": 8, "profile_path": null}, {"cast_id": 15, "character": "Dominic Giordano", "credit_id": "5a4685350e0a264fb908116f", "gender": 2, "id": 6769, "name": "Joseph Mascolo", "order": 9, "profile_path": "/b97KsvIgu2sXTfSO1556vfSGRKa.jpg"}, {"cast_id": 16, "character": "Francesca Giordano", "credit_id": "5a4685489251411fd5095f77", "gender": 0, "id": 143644, "name": "Karen Kondazian", "order": 10, "profile_path": null}], "crew": [{"credit_id": "54a8cea49251414d6700349a", "department": "Directing", "gender": 2, "id": 13265, "job": "Director", "name": "Franklin J. Schaffner", "profile_path": "/m04NRi0fxmE3xBZMwnIkpkjItBe.jpg"}, {"credit_id": "54a8ceb7c3a3680c21003bb4", "department": "Writing", "gender": 2, "id": 111907, "job": "Screenplay", "name": "Norman Steinberg", "profile_path": null}, {"credit_id": "5807dc759251415eb9003a3a", "department": "Sound", "gender": 0, "id": 39968, "job": "Original Music Composer", "name": "Michael J. Lewis", "profile_path": null}, {"credit_id": "5807dc7cc3a368121600372c", "department": "Camera", "gender": 2, "id": 19102, "job": "Director of Photography", "name": "Fred J. Koenekamp", "profile_path": "/yxTbBWproHj24o8yrTLEjtzlF9u.jpg"}, {"credit_id": "5807dc83c3a368123b003511", "department": "Editing", "gender": 0, "id": 71094, "job": "Editor", "name": "Michael F. Anderson", "profile_path": null}, {"credit_id": "5a46855f0e0a2620e0097f65", "department": "Production", "gender": 0, "id": 1482065, "job": "Producer", "name": "Peter Fetterman", "profile_path": null}, {"credit_id": "5a46856bc3a36859160794c3", "department": "Production", "gender": 0, "id": 224970, "job": "Associate Producer", "name": "Terry Carr", "profile_path": null}, {"credit_id": "5a4685760e0a262a29006ace", "department": "Production", "gender": 0, "id": 1434768, "job": "Executive Producer", "name": "Alain Bernheim", "profile_path": null}, {"credit_id": "5a4685810e0a262ad3006d15", "department": "Production", "gender": 0, "id": 1949976, "job": "Executive Producer", "name": "Herbert H. Breslin", "profile_path": null}, {"credit_id": "5a4685910e0a262a29006ae8", "department": "Writing", "gender": 0, "id": 1908191, "job": "Novel", "name": "Anne Piper", "profile_path": null}, {"credit_id": "5a4685a8c3a368588e06bd81", "department": "Production", "gender": 1, "id": 8426, "job": "Casting", "name": "Jennifer Shull", "profile_path": null}, {"credit_id": "5a4685c0c3a368586c073948", "department": "Art", "gender": 2, "id": 7512, "job": "Production Design", "name": "William J. Creber", "profile_path": null}, {"credit_id": "5a4685ca0e0a262a29006b43", "department": "Art", "gender": 0, "id": 14826, "job": "Set Decoration", "name": "James W. Payne", "profile_path": null}, {"credit_id": "5a4685d59251411f3e091d29", "department": "Costume & Make-Up", "gender": 1, "id": 7308, "job": "Costume Design", "name": "Rita Riggs", "profile_path": null}, {"credit_id": "5a4685e10e0a264fd207e4f0", "department": "Costume & Make-Up", "gender": 0, "id": 26986, "job": "Makeup Artist", "name": "Rick Sharp", "profile_path": null}, {"credit_id": "5a4685ec0e0a264fd207e4fb", "department": "Costume & Make-Up", "gender": 0, "id": 1331648, "job": "Hairstylist", "name": "Barbara Lorenz", "profile_path": null}]}}