{"adult": false, "backdrop_path": "/gvYwjboO8QrYppAkVW03zD5JKgY.jpg", "belongs_to_collection": null, "budget": 0, "genres": [{"id": 18, "name": "Drama"}], "homepage": null, "id": 88580, "imdb_id": "tt0061329", "original_language": "en", "original_title": "The Acid Eaters", "overview": "A group of office workers go every Friday afternoon to the White Pyramid, a 50-foot tower of LSD.", "popularity": 1.892, "poster_path": "/9wucCJ1KVqDDorZc0t9QY9R9gPn.jpg", "production_companies": [{"id": 38348, "logo_path": null, "name": "III Lions", "origin_country": ""}], "production_countries": [{"iso_3166_1": "US", "name": "United States of America"}], "release_date": "1968-02-01", "revenue": 0, "runtime": 62, "spoken_languages": [{"iso_639_1": "en", "name": "English"}], "status": "Released", "tagline": "An adult happening in psychedelic color!", "title": "The Acid Eaters", "video": false, "vote_average": 5.4, "vote_count": 5, "keywords": {"keywords": [{"id": 2804, "name": "exploitation"}, {"id": 5498, "name": "lsd"}, {"id": 14964, "name": "drugs"}, {"id": 184392, "name": "psychedelic"}]}, "similar": {"page": 1, "results": [{"adult": false, "backdrop_path": "/kR48L1E3OLOkQcnlmpi5wDj7ZZt.jpg", "genre_ids": [80, 18], "id": 180863, "original_language": "en", "original_title": "T2 Trainspotting", "overview": "After 20 years abroad, Mark Renton returns to Scotland and reunites with his old friends Sick Boy, Spud and Begbie.", "poster_path": "/fbHXfr2N4pI2j7i9RLYiddjotBl.jpg", "release_date": "2017-01-27", "title": "T2 Trainspotting", "video": false, "vote_average": 7.0, "vote_count": 1919, "popularity": 17.054}, {"adult": false, "backdrop_path": "/wSJySDCtO5CHYi1hiZBxf28XJLa.jpg", "genre_ids": [80, 18], "id": 20289, "original_language": "en", "original_title": "Rush", "overview": "Undercover cop Jim Raynor (Jason Patric) is a seasoned veteran. His partner, Kristen Cates (Jennifer Jason Leigh), is lacking in experience, but he thinks she's tough enough to work his next case with him: a deep cover assignment to bring down the notoriously hard-to-capture drug lord Gaines (Gregg Allman). While their relationship turns romantic during the assignment, they also turn into junkies, and will have to battle their own addictions if they want to bring down Gaines once and for all.", "poster_path": "/1euLGu3gg3eHmnhBZXAFN2x1pFG.jpg", "release_date": "1991-12-22", "title": "Rush", "video": false, "vote_average": 6.8, "vote_count": 64, "popularity": 8.653}, {"adult": false, "backdrop_path": "/yIszPJawrrp6zcb62d7XJnaxAmw.jpg", "genre_ids": [18], "id": 13078, "original_language": "en", "original_title": "The Babysitters", "overview": "Seventeen-year-old Shirley is a good student who works as a babysitter in order to make money for college. One night Michael, a father Shirley works for, confesses he's unhappy with married life. Shirley has a crush on Michael, and seizes this moment to kiss him. Michael is so happy he presents Shirley with a big tip, which gives her an idea. Shirley plans to make extra money by setting up her teenage friends with other unhappy fathers.", "poster_path": "/nsrNUqGXI95unRKZEu8BJ584xWn.jpg", "release_date": "2007-09-11", "title": "The Babysitters", "video": false, "vote_average": 5.3, "vote_count": 153, "popularity": 15.673}, {"id": 10537, "video": false, "vote_count": 603, "vote_average": 6.9, "title": "The Doors", "release_date": "1991-03-01", "original_language": "en", "original_title": "The Doors", "genre_ids": [18, 10402], "backdrop_path": "/1rv5sW6Qs2YK2iOzIgwH3SJPIl1.jpg", "adult": false, "overview": "The story of the famous and influential 1960s rock band and its lead singer and composer, Jim Morrison.", "poster_path": "/9CkFrWAkg23YynYd2uJLyWznMZZ.jpg", "popularity": 14.573}, {"adult": false, "backdrop_path": "/k66qUqJM7H2AXr7Iz94J3mQXigy.jpg", "genre_ids": [18, 80], "id": 10474, "original_language": "en", "original_title": "The Basketball Diaries", "overview": "Film adaptation of street tough Jim Carroll's epistle about his kaleidoscopic free fall into the harrowing world of drug addiction.", "poster_path": "/8BkedYL5LdpkyHc7JtuohMr8a9N.jpg", "release_date": "1995-04-21", "title": "The Basketball Diaries", "video": false, "vote_average": 7.3, "vote_count": 990, "popularity": 15.52}, {"adult": false, "backdrop_path": "/a0UYovVNPVfWILYT7TzD10xBX3q.jpg", "genre_ids": [18, 53, 80, 9648], "id": 979, "original_language": "fr", "original_title": "Irr\u00e9versible", "overview": "Events over the course of one traumatic night in Paris unfold in reverse-chronological order as the beautiful Alex is brutally raped and beaten by a stranger in the underpass. Her boyfriend and ex-lover take matters into their own hands by hiring two criminals to help them find the rapist so that they can exact revenge. A simultaneously beautiful and terrible examination of the destructive nature of cause and effect, and how time destroys everything.", "poster_path": "/rxeDxo8FvZpLu6iplNpxdtAVnfu.jpg", "release_date": "2002-05-22", "title": "Irreversible", "video": false, "vote_average": 7.1, "vote_count": 1216, "popularity": 20.416}, {"adult": false, "backdrop_path": "/LxmZLr6VHeibkq5DG0LvRKJWrX.jpg", "genre_ids": [80, 18], "id": 7457, "original_language": "en", "original_title": "Alpha Dog", "overview": "Johnny Truelove likes to see himself as tough. He's the son of an underworld figure and a drug dealer. Johnny also likes to get tough when things don't go his way. When Jake Mazursky fails to pay up for Johnny, things get worse for the Mazursky family, as Johnny and his 'gang' kidnap Jake's 15 year old brother and holds him hostage. Problem now is what to do with 'stolen boy?'", "poster_path": "/t9pirEsDxe102mSQGoDZWBbdcCD.jpg", "release_date": "2006-01-27", "title": "Alpha Dog", "video": false, "vote_average": 6.6, "vote_count": 803, "popularity": 14.506}, {"id": 796, "video": false, "vote_count": 1736, "vote_average": 6.6, "title": "Cruel Intentions", "release_date": "1999-03-05", "original_language": "en", "original_title": "Cruel Intentions", "genre_ids": [18, 10749], "backdrop_path": "/74OOkCoNbMb5bDg1AVXQxmGUTex.jpg", "adult": false, "overview": "Slaking a thirst for dangerous games, Kathryn challenges her stepbrother, Sebastian, to deflower their headmaster's daughter before the summer ends. If he succeeds, the prize is the chance to bed Kathryn. But if he loses, Kathryn will claim his most prized possession.", "poster_path": "/6RQu0J2u7viDa34Nn98sKaHv5jD.jpg", "popularity": 13.854}, {"adult": false, "backdrop_path": "/xbW1nnvCCs7eSjf9fTeB4sjbHU9.jpg", "genre_ids": [18], "id": 23949, "original_language": "en", "original_title": "Tape", "overview": "Three old high school friends meet in a Michigan motel room to dissect painful memories from their past.", "poster_path": "/oA9XBHIYFZY2FiYlC9fWtbMt9gG.jpg", "release_date": "2001-11-02", "title": "Tape", "video": false, "vote_average": 7.0, "vote_count": 108, "popularity": 8.788}, {"adult": false, "backdrop_path": "/rPfyX0pkmn8Ea4gh3DfsmzFUf05.jpg", "genre_ids": [18, 27, 80], "id": 74997, "original_language": "en", "original_title": "The Human Centipede 2 (Full Sequence)", "overview": "Inspired by the fictional Dr. Heiter, disturbed loner Martin dreams of creating a 12-person centipede and sets out to realize his sick fantasy.", "poster_path": "/kFtAdkCO0vXN2RWu2oMcR9GZ9Hi.jpg", "release_date": "2011-10-06", "title": "The Human Centipede 2 (Full Sequence)", "video": false, "vote_average": 4.5, "vote_count": 674, "popularity": 14.216}, {"adult": false, "backdrop_path": "/3YGy88nTV2e0wxZcKI1goiEN9oy.jpg", "genre_ids": [18, 10749], "id": 37636, "original_language": "en", "original_title": "High Art", "overview": "A young female intern at a small magazine company becomes involved with a drug-addicted lesbian photographer, both of whom seek to exploit each other for their respective careers, while slowly falling in love with each other.", "poster_path": "/qTg05RNJIvb9w4Z7XIcAZxuZmTn.jpg", "release_date": "1998-06-12", "title": "High Art", "video": false, "vote_average": 6.6, "vote_count": 61, "popularity": 7.422}, {"id": 263472, "video": false, "vote_count": 1669, "vote_average": 5.0, "title": "Knock Knock", "release_date": "2015-06-26", "original_language": "en", "original_title": "Knock Knock", "genre_ids": [18, 53], "backdrop_path": "/gJduaRau3X2oE3xkmjs1FufT2GE.jpg", "adult": false, "overview": "When a devoted husband and father is left home alone for the weekend, two stranded young women unexpectedly knock on his door for help. What starts out as a kind gesture results in a dangerous seduction and a deadly game of cat and mouse.", "poster_path": "/eynMtjBB1fXsB5vsQylVmsDLmvw.jpg", "popularity": 19.205}, {"id": 400535, "video": false, "vote_count": 1616, "vote_average": 6.7, "title": "Sicario: Day of the Soldado", "release_date": "2018-06-27", "original_language": "en", "original_title": "Sicario: Day of the Soldado", "genre_ids": [28, 80, 18, 53], "backdrop_path": "/13VjjUeJ6mcDUB36XRu4YFpYNSm.jpg", "adult": false, "overview": "Agent Matt Graver teams up with operative Alejandro Gillick to prevent Mexican drug cartels from smuggling terrorists across the United States border.", "poster_path": "/msqWSQkU403cQKjQHnWLnugv7EY.jpg", "popularity": 24.365}, {"id": 339692, "video": false, "vote_count": 1166, "vote_average": 6.9, "title": "Shot Caller", "release_date": "2017-07-13", "original_language": "en", "original_title": "Shot Caller", "genre_ids": [80, 18, 53], "backdrop_path": "/hehboYLXB3m90x9ybiBsupwuifL.jpg", "adult": false, "overview": "A newly-released prison gangster is forced by the leaders of his gang to orchestrate a major crime with a brutal rival gang on the streets of Southern California.", "poster_path": "/qLmLz2wtyYvmW8Ult3l2ngOnW8v.jpg", "popularity": 22.37}, {"adult": false, "backdrop_path": "/uC54rlRdLMZ46fnrz5SoVYleNyv.jpg", "genre_ids": [18], "id": 4995, "original_language": "en", "original_title": "Boogie Nights", "overview": "Set in 1977, back when sex was safe, pleasure was a business and business was booming, idealistic porn producer Jack Horner aspires to elevate his craft to an art form. Horner discovers Eddie Adams, a hot young talent working as a busboy in a nightclub, and welcomes him into the extended family of movie-makers, misfits and hangers-on that are always around. Adams' rise from nobody to a celebrity adult entertainer is meteoric, and soon the whole world seems to know his porn alter ego, \"Dirk Diggler\". Now, when disco and drugs are in vogue, fashion is in flux and the party never seems to stop, Adams' dreams of turning sex into stardom are about to collide with cold, hard reality.", "poster_path": "/gTq6MPt7SeMiJ2miHeMoNEZTz4p.jpg", "release_date": "1997-10-07", "title": "Boogie Nights", "video": false, "vote_average": 7.6, "vote_count": 1660, "popularity": 21.563}, {"id": 1878, "video": false, "vote_count": 2625, "vote_average": 7.2, "title": "Fear and Loathing in Las Vegas", "release_date": "1998-05-22", "original_language": "en", "original_title": "Fear and Loathing in Las Vegas", "genre_ids": [12, 35, 18], "backdrop_path": "/vtEKE4OFsnuIh37oo1arOMM2ELv.jpg", "adult": false, "overview": "Raoul Duke and his attorney Dr. Gonzo drive a red convertible across the Mojave desert to Las Vegas with a suitcase full of drugs to cover a motorcycle race. As their consumption of drugs increases at an alarming rate, the stoned duo trash their hotel room and fear legal repercussions. Duke begins to drive back to L.A., but after an odd run-in with a cop, he returns to Sin City and continues his wild drug binge.", "poster_path": "/u9ffgobMADj6GCafeImbov566j9.jpg", "popularity": 22.582}, {"id": 627, "video": false, "vote_count": 6006, "vote_average": 8.0, "title": "Trainspotting", "release_date": "1996-02-23", "original_language": "en", "original_title": "Trainspotting", "genre_ids": [80, 18], "backdrop_path": "/Aw0z8bUhGljT0ots6udf1MTLEMi.jpg", "adult": false, "overview": "Mark Renton, deeply immersed in the Edinburgh drug scene, tries to clean up and get out, despite the allure of the drugs and influence of friends.", "poster_path": "/p1O3eFsdb0GEIYu87xlwV7P4jM1.jpg", "popularity": 35.793}, {"id": 4771, "video": false, "vote_count": 2134, "vote_average": 7.3, "title": "Gone Baby Gone", "release_date": "2007-09-18", "original_language": "en", "original_title": "Gone Baby Gone", "genre_ids": [80, 18, 9648], "backdrop_path": "/sogh5NXPbKFajjYKBlfIBfCWgbq.jpg", "adult": false, "overview": "When 4 year old Amanda McCready disappears from her home and the police make little headway in solving the case, the girl's aunt, Beatrice McCready hires two private detectives, Patrick Kenzie and Angie Gennaro. The detectives freely admit that they have little experience with this type of case, but the family wants them for two reasons - they're not cops and they know the tough neighborhood in which they all live. As the case progresses, Kenzie and Gennaro face drug dealers, gangs and pedophiles. When they are about to solve the case, they are faced with a moral dilemma that tears them apart.", "poster_path": "/dXXMPxGiRegd7NNCtE5uchAKRAG.jpg", "popularity": 16.498}, {"id": 9605, "video": false, "vote_count": 278, "vote_average": 6.3, "title": "Single White Female", "release_date": "1992-08-14", "original_language": "en", "original_title": "Single White Female", "genre_ids": [18, 53], "backdrop_path": "/oIrAtnRnQYA2elOZAOMXzimymGy.jpg", "adult": false, "overview": "Attractive Manhattanite Allison Jones has it all: a handsome beau, a rent-controlled apartment, and a promising career as a fashion designer. When boyfriend Sam proves unfaithful, Allison strikes out on her own but must use the classifieds to seek out a roommate in order to keep her spacious digs.", "poster_path": "/3PH1tWrCAtAb7ws5BNYN9j0DnxN.jpg", "popularity": 10.139}, {"adult": false, "backdrop_path": "/lqL9EnG9okK0rcBl5a89qiCU9vO.jpg", "genre_ids": [18, 27, 53], "id": 17609, "original_language": "en", "original_title": "Antichrist", "overview": "A grieving couple retreats to their cabin 'Eden' in the woods, hoping to repair their broken hearts and troubled marriage. But nature takes its course and things go from bad to worse.", "poster_path": "/lY4Y9buUIZY17vpvL5dsBpbORo0.jpg", "release_date": "2009-05-18", "title": "Antichrist", "video": false, "vote_average": 6.6, "vote_count": 1410, "popularity": 17.567}], "total_pages": 209, "total_results": 4179}, "recommendations": {"page": 1, "results": [{"adult": false, "backdrop_path": "/gf9w1B02VpvKPjVjifMfB51NjTp.jpg", "genre_ids": [27, 878], "id": 65252, "original_language": "en", "original_title": "Breeders", "overview": "It's an invasion of the most personal and terrifying kind. When a meteorite crash lands onto a Boston college campus and an alien beast is released, only one man understands its mission to mate. From the depths of an all girls college, the grotesque monster stalks his prey in a cat-and-mouse chase until the final conflict where only one species can survive.", "poster_path": "/vpBu2LSFBUnvgWOeXuftQUC39wW.jpg", "release_date": "1997-08-09", "title": "Breeders", "video": false, "vote_average": 4.4, "vote_count": 12, "popularity": 2.915}, {"adult": false, "backdrop_path": "/1u7oIFCtVmdSrdp9p2yIUblToXs.jpg", "genre_ids": [27], "id": 56429, "original_language": "en", "original_title": "Up from the Depths", "overview": "A menacing shark-like predator attacks a Hawaiian tourist area in this low-budget creature feature. An uncredited Roger Corman served as executive producer.", "poster_path": "/iRHNRP7TGP9iQxPbVIRbq8zcoOl.jpg", "release_date": "1979-06-01", "title": "Up from the Depths", "video": false, "vote_average": 3.4, "vote_count": 10, "popularity": 3.638}, {"id": 53355, "video": false, "vote_count": 12, "vote_average": 4.9, "title": "Nightmare at Noon", "release_date": "1988-09-28", "original_language": "en", "original_title": "Nightmare at Noon", "genre_ids": [28, 27, 53], "backdrop_path": "/feKbd8Xly9pVR2psf0ZtoQ91wA0.jpg", "adult": false, "overview": "Scientists poison the water supply of a small town, turning the residents into homicidal maniacs who kill each other and anybody who passes through.", "poster_path": "/eSqiI4B3KlZHo4nS3xux4HylR7s.jpg", "popularity": 3.65}, {"id": 50767, "video": false, "vote_count": 15, "vote_average": 4.7, "title": "American Cyborg: Steel Warrior", "release_date": "1994-01-07", "original_language": "en", "original_title": "American Cyborg: Steel Warrior", "genre_ids": [28, 12, 878], "backdrop_path": "/78qft1CcZEqmjmkmITPImVGzhMc.jpg", "adult": false, "overview": "After the nuclear war people are sterile and ruled by the artifical intelligences they created in this violent world. The only woman who was able to give life to a child has to take the child through the dangerous city to the ship to save it. She is followed by an immortal killer robot through all the dangers, and only one guy tries to help her survive and protect her from the killing machine.", "poster_path": "/l08LowJTVZnFWywSa8q3TTXxRJI.jpg", "popularity": 3.514}, {"id": 27832, "video": false, "vote_count": 12, "vote_average": 3.4, "title": "The Corpse Grinders", "release_date": "1971-05-19", "original_language": "en", "original_title": "The Corpse Grinders", "genre_ids": [27], "backdrop_path": "/gjMHVOiCnGTNtFyOgp5cQf3epLy.jpg", "adult": false, "overview": "When the Lotus Cat Food Company finds itself in financial trouble, the owners decide to find a new, cheap source of meat -- the local graveyard. Only one problem -- soon cats develop a taste for human flesh, and tabbies are tearing out throats all over town.", "poster_path": "/b8SYbJuntm7BB7QauGpJAan03ey.jpg", "popularity": 4.43}, {"id": 38610, "video": false, "vote_count": 11, "vote_average": 5.1, "title": "Automatic", "release_date": "1995-04-08", "original_language": "en", "original_title": "Automatic", "genre_ids": [28, 27, 878, 53], "backdrop_path": "/iqOolh4tDioyCoH4CgKgMN1d3cR.jpg", "adult": false, "overview": "Robgen industries newest security system is \"The J Series Automatic\", an android model designed and programmed to protect humans from violent attacks. But one night, an Automatic named J269 discovers a Robgen executive trying to rape a female employee named Nora Rochester. While trying to stop the crime, he inadvertently kills the executive. At this point, J269 then calls Goddard Marx (his creator and a Robgen chairman) to inform him of the incident. Marx tells the android to stay there with Rochester until help arrives, but Marx is intent on sweeping the fiasco under the rug by sending mercenaries to eliminate both J269 and Rochester. Now the two are fugitives on the run from a para-military hit squad.", "poster_path": "/xZWETLWVQ4b9Xu2EruLxyBzXyoO.jpg", "popularity": 4.126}, {"adult": false, "backdrop_path": "/7MIl1sI4tjepwAyBrBFdXpPkgrS.jpg", "genre_ids": [28, 18, 80, 53], "id": 40507, "original_language": "en", "original_title": "Original Gangstas", "overview": "A violent street gang, the Rebels, rule the streets of Gary, Indiana. The Rebels shoot Marvin Bookman, a store-keeper, for giving the police information about a drive-by shooting they committed. Marvin's son, former NFL star John who created the Rebels, returns to Gary to be with his father and, with a little help from his friends, to destroy the Rebels his way.", "poster_path": "/uirrsTZmoPmscHZdyWz4tiXVqHE.jpg", "release_date": "1996-05-10", "title": "Original Gangstas", "video": false, "vote_average": 5.4, "vote_count": 14, "popularity": 3.588}], "total_pages": 1, "total_results": 7}, "credits": {"cast": [{"cast_id": 2, "character": "Ollie", "credit_id": "52fe49fb9251416c910bf40f", "gender": 2, "id": 112572, "name": "Ernie F. Orsatti", "order": 0, "profile_path": null}, {"cast_id": 3, "character": "Genna", "credit_id": "52fe49fb9251416c910bf413", "gender": 0, "id": 1078820, "name": "Judy Wood", "order": 1, "profile_path": null}, {"cast_id": 4, "character": "Artie / The Devil", "credit_id": "52fe49fb9251416c910bf417", "gender": 2, "id": 111489, "name": "Buck Kartalian", "order": 2, "profile_path": "/b74CafK0iSNHq1rqTKvbuwSrvdq.jpg"}, {"cast_id": 5, "character": "Chickie", "credit_id": "52fe49fb9251416c910bf41b", "gender": 1, "id": 45170, "name": "Pat Barrington", "order": 3, "profile_path": "/xQyxjk0RPZfRFWKzxPhNJgyYGkz.jpg"}, {"cast_id": 6, "character": "Girl", "credit_id": "52fe49fb9251416c910bf41f", "gender": 0, "id": 1078821, "name": "Sharon Carr", "order": 4, "profile_path": null}], "crew": [{"credit_id": "52fe49fb9251416c910bf40b", "department": "Directing", "gender": 2, "id": 105085, "job": "Director", "name": "Byron Mabe", "profile_path": "/mLUrcHMf0CH9NDAoHRm1pJvuQ8t.jpg"}, {"credit_id": "52fe49fb9251416c910bf425", "department": "Writing", "gender": 2, "id": 995608, "job": "Writer", "name": "Carl Monson", "profile_path": null}]}}