{"adult": false, "backdrop_path": "/pJ3sLH6Ejzhwt8kAfDWP9Ur9FUe.jpg", "belongs_to_collection": null, "budget": 0, "genres": [{"id": 28, "name": "Action"}, {"id": 80, "name": "Crime"}], "homepage": null, "id": 88941, "imdb_id": "tt0060951", "original_language": "en", "original_title": "A Scream in the Streets", "overview": "Two Los Angeles detectives are assigned to track down and arrest a brutal rapist-murderer terrorizing the city. Their job is complicated by the fact that the killer is able to avoid capture because he can pose as a woman.", "popularity": 2.728, "poster_path": "/gm75Z0jbxfx0rzwJ7LhVpyFhKEN.jpg", "production_companies": [{"id": 15346, "logo_path": null, "name": "Boxoffice International Pictures (BIP)", "origin_country": ""}], "production_countries": [{"iso_3166_1": "US", "name": "United States of America"}], "release_date": "1973-01-01", "revenue": 0, "runtime": 96, "spoken_languages": [{"iso_639_1": "en", "name": "English"}], "status": "Released", "tagline": "A City Ripped Apart by Sin and Lust!", "title": "A Scream in the Streets", "video": false, "vote_average": 6.0, "vote_count": 1, "keywords": {"keywords": [{"id": 572, "name": "sex"}, {"id": 9826, "name": "murder"}, {"id": 14819, "name": "violence"}, {"id": 158254, "name": "pantyhose"}]}, "similar": {"page": 1, "results": [{"adult": false, "backdrop_path": "/a0UYovVNPVfWILYT7TzD10xBX3q.jpg", "genre_ids": [18, 53, 80, 9648], "id": 979, "original_language": "fr", "original_title": "Irr\u00e9versible", "overview": "Events over the course of one traumatic night in Paris unfold in reverse-chronological order as the beautiful Alex is brutally raped and beaten by a stranger in the underpass. Her boyfriend and ex-lover take matters into their own hands by hiring two criminals to help them find the rapist so that they can exact revenge. A simultaneously beautiful and terrible examination of the destructive nature of cause and effect, and how time destroys everything.", "poster_path": "/rxeDxo8FvZpLu6iplNpxdtAVnfu.jpg", "release_date": "2002-05-22", "title": "Irreversible", "video": false, "vote_average": 7.1, "vote_count": 1216, "popularity": 20.416}, {"id": 4771, "video": false, "vote_count": 2134, "vote_average": 7.3, "title": "Gone Baby Gone", "release_date": "2007-09-18", "original_language": "en", "original_title": "Gone Baby Gone", "genre_ids": [80, 18, 9648], "backdrop_path": "/sogh5NXPbKFajjYKBlfIBfCWgbq.jpg", "adult": false, "overview": "When 4 year old Amanda McCready disappears from her home and the police make little headway in solving the case, the girl's aunt, Beatrice McCready hires two private detectives, Patrick Kenzie and Angie Gennaro. The detectives freely admit that they have little experience with this type of case, but the family wants them for two reasons - they're not cops and they know the tough neighborhood in which they all live. As the case progresses, Kenzie and Gennaro face drug dealers, gangs and pedophiles. When they are about to solve the case, they are faced with a moral dilemma that tears them apart.", "poster_path": "/dXXMPxGiRegd7NNCtE5uchAKRAG.jpg", "popularity": 16.498}, {"id": 15069, "video": false, "vote_count": 75, "vote_average": 5.4, "title": "W\u0394Z", "release_date": "2007-05-19", "original_language": "en", "original_title": "W\u0394Z", "genre_ids": [80, 18, 27, 53], "backdrop_path": "/nVwdXjnbfulc6cymFgOQJctpspr.jpg", "adult": false, "overview": "There is something horribly wrong with the bodies found in the dark city streets. Some are mutilated while others have the Price equation (w\u0394z = Cov (w,z) = \u03b2wzVz) carved into their flesh. Detective Eddie Argo and his new partner Helen Westcott unearth the meaning of the odd equation and realise each victim is being offered a gruesome choice: kill your loved ones, or be killed. Before long it becomes clear that the perpetrator has suffered a similar fate and is now coping by seeking a way to solve this philosophical dilemma.", "poster_path": "/8lPZ59iQRqUELprKuB0myy7u6Zm.jpg", "popularity": 7.935}, {"adult": false, "backdrop_path": "/3TCPWrxQkfon82xPNtmpweOSVJc.jpg", "genre_ids": [18, 80, 9648, 10749, 53], "id": 12150, "original_language": "en", "original_title": "Sea of Love", "overview": "Seen-it-all New York detective Frank Keller is unsettled - he has done twenty years on the force and could retire, and he hasn't come to terms with his wife leaving him for a colleague. Joining up with an officer from another part of town to investigate a series of murders linked by the lonely hearts columns he finds he is getting seriously and possibly dangerously involved with Helen, one of the main suspects.", "poster_path": "/7DkkTHIX3hUqvsRv5sDmJAkCfKK.jpg", "release_date": "1989-09-15", "title": "Sea of Love", "video": false, "vote_average": 6.7, "vote_count": 290, "popularity": 10.636}, {"adult": false, "backdrop_path": "/rPfyX0pkmn8Ea4gh3DfsmzFUf05.jpg", "genre_ids": [18, 27, 80], "id": 74997, "original_language": "en", "original_title": "The Human Centipede 2 (Full Sequence)", "overview": "Inspired by the fictional Dr. Heiter, disturbed loner Martin dreams of creating a 12-person centipede and sets out to realize his sick fantasy.", "poster_path": "/kFtAdkCO0vXN2RWu2oMcR9GZ9Hi.jpg", "release_date": "2011-10-06", "title": "The Human Centipede 2 (Full Sequence)", "video": false, "vote_average": 4.5, "vote_count": 674, "popularity": 14.216}, {"adult": false, "backdrop_path": "/t3OZS8yMs0NL4YgWWc04eXHTn1X.jpg", "genre_ids": [28, 80, 53], "id": 984, "original_language": "en", "original_title": "Dirty Harry", "overview": "When a madman dubbed 'Scorpio' terrorizes San Francisco, hard-nosed cop, Harry Callahan \u2013 famous for his take-no-prisoners approach to law enforcement \u2013 is tasked with hunting down the psychopath. Harry eventually collars Scorpio in the process of rescuing a kidnap victim, only to see him walk on technicalities. Now, the maverick detective is determined to nail the maniac himself.", "poster_path": "/2TADKc4GMMPdMrLXj0xJVgTvZJM.jpg", "release_date": "1971-12-21", "title": "Dirty Harry", "video": false, "vote_average": 7.5, "vote_count": 1173, "popularity": 18.839}, {"adult": false, "backdrop_path": "/a24i4Qw6qFTtkFLQsncv8WPwevj.jpg", "genre_ids": [53, 28, 80], "id": 345887, "original_language": "en", "original_title": "The Equalizer 2", "overview": "Robert McCall, who serves an unflinching justice for the exploited and oppressed, embarks on a relentless, globe-trotting quest for vengeance when a long-time girl friend is murdered.", "poster_path": "/cQvc9N6JiMVKqol3wcYrGshsIdZ.jpg", "release_date": "2018-07-19", "title": "The Equalizer 2", "video": false, "vote_average": 6.5, "vote_count": 2483, "popularity": 21.271}, {"adult": false, "backdrop_path": "/8UkJSL5hlwGh3uSC5tyoaqhHQh7.jpg", "genre_ids": [80, 18, 53], "id": 18587, "original_language": "en", "original_title": "10 to Midnight", "overview": "Based on the real-life Richard Speck murders. After his bizarre behavior results in rejection from countless women, Warren Stacy begins murdering women, always while he is naked, which minimizes any physical evidence left behind. Detective Leo Kessler is convinced of Stacy\u2019s guilt and, over the objections of his partner, plants evidence to get him behind bars. When Stacy is released on a technicality, he threatens to go after Kessler and his family, leaving Kessler to defend himself with little help from the police.", "poster_path": "/bJiLyz6g8vsFgJ5oAdMWlQAWY4T.jpg", "release_date": "1983-03-11", "title": "10 to Midnight", "video": false, "vote_average": 6.0, "vote_count": 73, "popularity": 9.514}, {"adult": false, "backdrop_path": "/3F37pERkV42zI9vX6d3kdCNX4Q8.jpg", "genre_ids": [28, 80, 53], "id": 50236, "original_language": "it", "original_title": "Milano odia: la polizia non pu\u00f2 sparare", "overview": "A psychotic small-time criminal realizes that the everyday robberies, rapes and murders he commits aren't profitable enough, so he figures to hit the big time by kidnapping the daughter of a rich man.", "poster_path": "/oJTCJWiLqRrMg8XBF3X49gWcZsb.jpg", "release_date": "1974-08-08", "title": "Milano odia: la polizia non pu\u00f2 sparare", "video": false, "vote_average": 6.9, "vote_count": 47, "popularity": 6.034}, {"adult": false, "backdrop_path": "/uUYCUbgI5VxsUflTMI4Y9L2Y6vb.jpg", "genre_ids": [80, 18, 53], "id": 11423, "original_language": "ko", "original_title": "\uc0b4\uc778\uc758 \ucd94\uc5b5", "overview": "1986 Gyunggi Province. The body of a young woman is found brutally raped and murdered. Two months later, a series of rapes and murders commences under similar circumstances. And in a country that had never known such crimes, the dark whispers about a serial murderer grow louder. A special task force is set up in the area, with two local detectives Park Doo-Man and Jo Young-Goo joined by a detective from Seoul who requested to be assigned to the case.", "poster_path": "/gawnVe9cFowdoDLo9Pok12NTw39.jpg", "release_date": "2003-05-02", "title": "Memories of Murder", "video": false, "vote_average": 8.1, "vote_count": 1093, "popularity": 13.452}, {"adult": false, "backdrop_path": "/v761yOHKO3p6Yr7LDCjud6tUL5G.jpg", "genre_ids": [28, 80, 53], "id": 10651, "original_language": "en", "original_title": "The Dead Pool", "overview": "Dirty Harry Callahan returns for his final film adventure. Together with his partner Al Quan, he must investigate the systematic murder of actors and musicians. By the time Harry learns that the murders are a part of a sick game to predict the deaths of celebrities before they happen, it may be too late...", "poster_path": "/9ZUSqox9lIxN4xaYBac2QXMFcZj.jpg", "release_date": "1988-07-12", "title": "The Dead Pool", "video": false, "vote_average": 6.4, "vote_count": 389, "popularity": 10.626}, {"adult": false, "backdrop_path": "/pA64Ov7lDpwXBu33yq0KpmAOYJL.jpg", "genre_ids": [27, 53], "id": 357096, "original_language": "en", "original_title": "I Spit on Your Grave III: Vengeance is Mine", "overview": "Jennifer Hills is still tormented by the brutal sexual assault she endured years ago. She\u2019s changed identities and cities, reluctantly joining a support group where she begins to piece together a new life. But when her new friend\u2019s murderer goes free and the tales of serial rapists haunt her, Jennifer will hunt down the men responsible and do what the system won\u2019t \u2013 make them pay for their crimes in the most horrific ways imaginable. Only this time, no jury may be able to save her.", "poster_path": "/6SnOlgrUoC5jqmgcYIM5lde5zYq.jpg", "release_date": "2015-10-01", "title": "I Spit on Your Grave III: Vengeance is Mine", "video": false, "vote_average": 5.3, "vote_count": 437, "popularity": 20.815}, {"id": 141733, "video": false, "vote_count": 77, "vote_average": 5.1, "title": "Cottage Country", "release_date": "2013-03-13", "original_language": "en", "original_title": "Cottage Country", "genre_ids": [28, 35, 80, 10749], "backdrop_path": "/7pI9Y6H4DIDKWsyRcMIouS3HEaB.jpg", "adult": false, "overview": "When Todd takes his girlfriend Cammie up to the family cottage for a reclusive proposal, the last thing he expected to be doing was dealing with was his slacker brother and his hippie girlfriend.  But in this comedy of errors, Todd and Cammie, have to deal with his accidentally murdered brother in order to live happily ever after.", "poster_path": "/nwvSeXIbAIzJWE7HagLjEkWVmNg.jpg", "popularity": 6.973}, {"adult": false, "backdrop_path": "/xdha8DvElblfBbNnkpGsF42lAyv.jpg", "genre_ids": [28, 80, 53], "id": 2749, "original_language": "en", "original_title": "15 Minutes", "overview": "When Eastern European criminals Oleg and Emil come to New York City to pick up their share of a heist score, Oleg steals a video camera and starts filming their activities, both legal and illegal. When they learn how the American media circus can make a remorseless killer look like the victim and make them rich, they target media-savvy NYPD Homicide Detective Eddie Flemming and media-naive FDNY Fire Marshal Jordy Warsaw, the cops investigating their murder and torching of their former criminal partner, filming everything to sell to the local tabloid TV show \"Top Story.\"", "poster_path": "/qqqleHV8y7NLKt7isSZAvOwVPH6.jpg", "release_date": "2001-03-01", "title": "15 Minutes", "video": false, "vote_average": 5.8, "vote_count": 372, "popularity": 14.636}, {"adult": false, "backdrop_path": "/scRw6gAoO3CfgQnZjHCh2ZgU4Z1.jpg", "genre_ids": [80, 18, 878, 53], "id": 281, "original_language": "en", "original_title": "Strange Days", "overview": "Set in the year 1999 during the last days of the old millennium, the movie tells the story of Lenny Nero, an ex-cop who now deals with data-discs containing recorded memories and emotions. One day he receives a disc which contains the memories of a murderer killing a prostitute. Lenny investigates and is pulled deeper and deeper in a whirl of blackmail, murder and rape. Will he survive and solve the case?", "poster_path": "/rXvy5hG9OeVmgnv9w4IhQxhqEKD.jpg", "release_date": "1995-10-13", "title": "Strange Days", "video": false, "vote_average": 7.0, "vote_count": 663, "popularity": 17.431}, {"adult": false, "backdrop_path": "/iNuvbrHGNtrUwlm48u4KnQhhMKp.jpg", "genre_ids": [80, 18, 53], "id": 26390, "original_language": "en", "original_title": "Brooklyn's Finest", "overview": "Enforcing the law within the notoriously rough Brownsville section of the city and especially within the Van Dyke housing projects is the NYPD's sixty-fifth precinct. Three police officers struggle with the sometimes fine line between right and wrong.", "poster_path": "/jKSBk0LtZgXxG56uvwiAtYf6ttF.jpg", "release_date": "2009-01-16", "title": "Brooklyn's Finest", "video": false, "vote_average": 6.4, "vote_count": 500, "popularity": 11.822}, {"id": 573, "video": false, "vote_count": 364, "vote_average": 7.1, "title": "Frenzy", "release_date": "1972-05-25", "original_language": "en", "original_title": "Frenzy", "genre_ids": [80, 27, 53], "backdrop_path": "/szCaGTZQEHlgrNdPryLAIg9WGFS.jpg", "adult": false, "overview": "After a serial killer strangles several women with a necktie, London police identify a suspect\u2014but he's the wrong man.", "poster_path": "/4SFvqrlSigAt9tnhXFSMyKeJWQk.jpg", "popularity": 11.634}, {"adult": false, "backdrop_path": "/feZlULeOhSRLz23ZXUeDX3Dl2dS.jpg", "genre_ids": [80, 53, 9648], "id": 17494, "original_language": "en", "original_title": "Unlawful Entry", "overview": "After a break-in at their house, a couple gets help from one of the cops that answered their call. He helps them install the security system, and begins dropping by on short notice and unofficial patrol, and spends a lot of time discussing the couple's problems with the wife. The husband begins wondering if they're getting too much help.", "poster_path": "/sKUk1ca6gHaIopi8VqE8GoxJq6J.jpg", "release_date": "1992-06-26", "title": "Unlawful Entry", "video": false, "vote_average": 6.1, "vote_count": 121, "popularity": 10.241}, {"adult": false, "backdrop_path": "/iZOgAvUt6q356da1sfYz1UalNO.jpg", "genre_ids": [80, 18, 10749, 53], "id": 3134, "original_language": "fr", "original_title": "Baise-moi", "overview": "Manu has lived a difficult life. Abused and violently raped, she sets off to find herself only to meet Nadine, a prostitute who has encountered one too many injustices in the world. Angry at the world, they embark on a twisted, rage-filled road trip. They choose to have sex when they please and kill when they need. Leaving a trail of mischief and dead bodies in their wake. Generating a media blitz and manhunt, soon everyone is out to capture the young fugitives.", "poster_path": "/sLvsIgWMH9bV1IZnZOzY5dXKUHe.jpg", "release_date": "2000-06-28", "title": "Baise-moi", "video": false, "vote_average": 4.3, "vote_count": 173, "popularity": 14.535}, {"id": 12143, "video": false, "vote_count": 376, "vote_average": 7.2, "title": "Bad Lieutenant", "release_date": "1992-09-16", "original_language": "en", "original_title": "Bad Lieutenant", "genre_ids": [80], "backdrop_path": "/dzHZPetromOHkB2cNONgFjcuvuE.jpg", "adult": false, "overview": "While investigating a young nun's rape, a corrupt New York City police detective, with a serious drug and gambling addiction, tries to change his ways and find forgiveness.", "poster_path": "/oe8VjWCKXktqA19T1ZWtaSn8rc2.jpg", "popularity": 11.572}], "total_pages": 500, "total_results": 9998}, "recommendations": {"page": 1, "results": [], "total_pages": 1, "total_results": 0}, "credits": {"cast": [{"cast_id": 5, "character": "Gail", "credit_id": "57150134925141387d005fcb", "gender": 1, "id": 1073192, "name": "Angela Carnon", "order": 1, "profile_path": "/q6GanApKQR1bAS1dre8ADtsRfcW.jpg"}, {"cast_id": 6, "character": "Officer Ed Haskell (as John Kirkpatric)", "credit_id": "5827e320c3a3680381019b59", "gender": 2, "id": 119854, "name": "Joshua Bryant", "order": 2, "profile_path": "/vrqljEgbLw5nZOHFQO2LOBxDUvH.jpg"}, {"cast_id": 7, "character": "Girl on Park Bench", "credit_id": "5827e3369251417b29022ea1", "gender": 1, "id": 101983, "name": "Linda York", "order": 3, "profile_path": null}, {"cast_id": 8, "character": "The Rapist", "credit_id": "5827e33ec3a3680381019b79", "gender": 0, "id": 104433, "name": "Con Covert", "order": 4, "profile_path": null}, {"cast_id": 9, "character": "Jenny the Dispatcher", "credit_id": "5827e3729251417b1d0225f0", "gender": 1, "id": 40430, "name": "Colleen Brennan", "order": 5, "profile_path": "/lVie2gankWtswC8ee0cZSWqUEvn.jpg"}, {"cast_id": 10, "character": "Vicki", "credit_id": "5827e37ac3a368360f024563", "gender": 1, "id": 101467, "name": "Sandy Dempsey", "order": 6, "profile_path": "/u0mfZU1ocq0tNNFoNAIVgkrTlNf.jpg"}, {"cast_id": 11, "character": "Susan Haskell", "credit_id": "5827e3839251417b23022523", "gender": 0, "id": 100159, "name": "Mady Maguire", "order": 7, "profile_path": null}, {"cast_id": 12, "character": "Mr. Heath", "credit_id": "5827e38c9251417b21022bc8", "gender": 2, "id": 104573, "name": "Norman Fields", "order": 8, "profile_path": null}, {"cast_id": 13, "character": "Karate Instructor", "credit_id": "5827e3999251417b2c022819", "gender": 2, "id": 51576, "name": "Chuck Norris", "order": 9, "profile_path": "/v37EfVIoKV4ooy1KE5z8BxsT6wU.jpg"}, {"cast_id": 14, "character": "Pot-Smoker Girl", "credit_id": "5827e3a3c3a3683604023a8f", "gender": 1, "id": 101465, "name": "Sandy Carey", "order": 10, "profile_path": "/slsE3zHDGxliU7oyNBvkRKYeDCf.jpg"}], "crew": [{"credit_id": "52fe4a099251416c910c11c5", "department": "Directing", "gender": 2, "id": 995608, "job": "Director", "name": "Carl Monson", "profile_path": null}, {"credit_id": "52fe4a099251416c910c11cb", "department": "Directing", "gender": 0, "id": 1074103, "job": "Director", "name": "Dwayne Avery", "profile_path": null}, {"credit_id": "52fe4a099251416c910c11d1", "department": "Directing", "gender": 0, "id": 253245, "job": "Director", "name": "Bethel Buckalew", "profile_path": null}, {"credit_id": "52fe4a099251416c910c11d7", "department": "Directing", "gender": 0, "id": 213610, "job": "Director", "name": "Harry H. Novak", "profile_path": null}]}}