{"adult": false, "backdrop_path": "/1ZkUTgzVVK4A0CBQFhtTfQRULeS.jpg", "belongs_to_collection": {"id": 415931, "name": "The Bowery Boys", "poster_path": "/q6sA4bzMT9cK7EEmXYwt7PNrL5h.jpg", "backdrop_path": "/foe3kuiJmg5AklhtD3skWbaTMf2.jpg"}, "budget": 0, "genres": [{"id": 18, "name": "Drama"}, {"id": 35, "name": "Comedy"}, {"id": 80, "name": "Crime"}], "homepage": null, "id": 89145, "imdb_id": "tt0040097", "original_language": "en", "original_title": "Angels' Alley", "overview": "Slip invites his cousin Jimmy to stay with his family after he is released from prison. However, Jimmy soon gets mixed up with an auto-theft ring.", "popularity": 0.6, "poster_path": "/aoN3u7vLyaWZP4FTfR3Bdp6pdQl.jpg", "production_companies": [{"id": 4395, "logo_path": null, "name": "Monogram Pictures", "origin_country": ""}], "production_countries": [{"iso_3166_1": "US", "name": "United States of America"}], "release_date": "1948-03-07", "revenue": 0, "runtime": null, "spoken_languages": [{"iso_639_1": "en", "name": "English"}], "status": "Released", "tagline": "TWO-FISTED DRAMA!", "title": "Angels' Alley", "video": false, "vote_average": 3.0, "vote_count": 1, "keywords": {"keywords": [{"id": 15090, "name": "police officer"}, {"id": 157892, "name": "warehouse"}]}, "similar": {"page": 1, "results": [{"id": 591101, "video": false, "vote_count": 3, "vote_average": 8.0, "title": "Mardaani 2", "release_date": "2019-12-12", "original_language": "hi", "original_title": "\u092e\u0930\u094d\u0926\u093e\u0928\u0940 2", "genre_ids": [28, 80, 53], "backdrop_path": "/rck8SUSUb3pJAEKYKctBQI5pkfS.jpg", "adult": false, "overview": "Officer Shivani Shivaji Roy is stationed at Kota where she goes against a ferocious serial killer who rapes and murders women.", "poster_path": "/vmWdyqGbAOSfqpE6l07wz1swzCr.jpg", "popularity": 3.779}, {"id": 500, "video": false, "vote_count": 8373, "vote_average": 8.2, "title": "Reservoir Dogs", "release_date": "1992-09-02", "original_language": "en", "original_title": "Reservoir Dogs", "genre_ids": [80, 53], "backdrop_path": "/fupyzBwFAn1PoeCXhp54bYVM2ER.jpg", "adult": false, "overview": "A botched robbery indicates a police informant, and the pressure mounts in the aftermath at a warehouse. Crime begets violence as the survivors -- veteran Mr. White, newcomer Mr. Orange, psychopathic parolee Mr. Blonde, bickering weasel Mr. Pink and Nice Guy Eddie -- unravel.", "poster_path": "/g7spS2Y4SZoQoC6Hn7zoqEqdYqR.jpg", "popularity": 33.825}, {"id": 38700, "video": false, "vote_count": 158, "vote_average": 6.7, "title": "Bad Boys for Life", "release_date": "2020-01-15", "original_language": "en", "original_title": "Bad Boys for Life", "genre_ids": [28, 80, 53], "backdrop_path": "/upUy2QhMZEmtypPW3PdieKLAHxh.jpg", "adult": false, "overview": "Marcus and Mike are forced to confront new threats, career changes, and midlife crises as they join the newly created elite team AMMO of the Miami police department to take down the ruthless Armando Armas, the vicious leader of a Miami drug cartel.", "poster_path": "/y95lQLnuNKdPAzw9F9Ab8kJ80c3.jpg", "popularity": 375.905}, {"adult": false, "backdrop_path": "/t52ImvH020yOvoEhH6sRzC6XoCj.jpg", "genre_ids": [18], "id": 406, "original_language": "fr", "original_title": "La Haine", "overview": "Aimlessly whiling away their days in the concrete environs of their dead-end suburbia, Vinz, Hubert, and Said - a Jew, African, and an Arab - give human faces to France's immigrant populations, their bristling resentment at their social marginalization slowly simmering until it reaches a climactic boiling point.", "poster_path": "/jTzBED0leGPwWDqNewye11qzJgd.jpg", "release_date": "1995-05-31", "title": "La Haine", "video": false, "vote_average": 8.0, "vote_count": 1734, "popularity": 16.874}, {"id": 434555, "video": false, "vote_count": 567, "vote_average": 5.2, "title": "The Possession of Hannah Grace", "release_date": "2018-11-29", "original_language": "en", "original_title": "The Possession of Hannah Grace", "genre_ids": [18, 27], "backdrop_path": "/7PlZbduXPMJ7SsTD8EOvUVJalmF.jpg", "adult": false, "overview": "When a cop who is just out of rehab takes the graveyard shift in a city hospital morgue, she faces a series of bizarre, violent events caused by an evil entity in one of the corpses.", "poster_path": "/hDDb0H0uJp2wjoJBbBHbKlYRbug.jpg", "popularity": 17.071}, {"adult": false, "backdrop_path": "/le2X3o9uopj1jMcMKFDKQ7MdBxb.jpg", "genre_ids": [28, 80, 9648], "id": 334521, "original_language": "en", "original_title": "Free Fire", "overview": "A crime drama set in 1970s Boston, about a gun sale which goes wrong.", "poster_path": "/cH7HT8MlNrRb1Tx3QD0Q3HC3pXN.jpg", "release_date": "2017-03-31", "title": "Free Fire", "video": false, "vote_average": 6.3, "vote_count": 609, "popularity": 10.233}, {"id": 2330, "video": false, "vote_count": 1343, "vote_average": 6.6, "title": "Taxi", "release_date": "1998-04-04", "original_language": "fr", "original_title": "Taxi", "genre_ids": [28, 35, 80], "backdrop_path": "/cqmmp6KLYKbzSJh2aTkWoNeAPOj.jpg", "adult": false, "overview": "In Marseilles (France), skilled pizza delivery boy Daniel who drives a scooter finally has his dreams come true. He gets a taxi license. Caught by the police for a huge speed infraction, he will help Emilien, a loser inspector who can't drive, on the track of German bank robbers, so he doesn't lose his license and his dream job.", "poster_path": "/13vrEB6T3DuDz26rWAUfHZV0eSm.jpg", "popularity": 19.236}, {"id": 12201, "video": false, "vote_count": 882, "vote_average": 6.3, "title": "Edge of Darkness", "release_date": "2010-01-28", "original_language": "en", "original_title": "Edge of Darkness", "genre_ids": [80, 18, 9648, 53], "backdrop_path": "/ksxr95M6fh2f2zgIlgGDDyfgOhC.jpg", "adult": false, "overview": "As a seasoned homicide detective, Thomas Craven has seen the bleakest side of humanity. But nothing prepares him for the toughest investigation of his life: the search for his only daughter Emma's killer. Now, he is on a personal mission to uncover the disturbing secrets surrounding her murder, including corporate corruption, government collusion and Emma's own mysterious life.", "poster_path": "/pvHjp1vEFmp5FquSCPQ2O95tIZJ.jpg", "popularity": 11.857}, {"id": 5549, "video": false, "vote_count": 922, "vote_average": 5.8, "title": "RoboCop 2", "release_date": "1990-06-22", "original_language": "en", "original_title": "RoboCop 2", "genre_ids": [28, 12, 80, 878, 53], "backdrop_path": "/pkuf3xajNzDPzAXtvGNNhs59XBL.jpg", "adult": false, "overview": "After a successful deployment of the Robocop Law Enforcement unit, OCP sees its goal of urban pacification come closer and closer, but as this develops, a new narcotic known as \"Nuke\" invades the streets led by God-delirious leader Cane. As this menace grows, it may prove to be too much for Murphy to handle. OCP tries to replicate the success of the first unit, but ends up with failed prototypes with suicidal issues... until Dr. Faxx, a scientist straying away from OCP's path, uses Cane as the new subject for the Robocop 2 project, a living God.", "poster_path": "/jHE1jOJQILXSPudL4h94NI3TRL.jpg", "popularity": 14.07}, {"adult": false, "backdrop_path": "/uUTpv96NPHwE7u11qwP8ErwTyoL.jpg", "genre_ids": [18, 80, 10402], "id": 16, "original_language": "en", "original_title": "Dancer in the Dark", "overview": "Selma, a Czech immigrant on the verge of blindness, struggles to make ends meet for herself and her son, who has inherited the same genetic disorder and will suffer the same fate without an expensive operation. When life gets too difficult, Selma learns to cope through her love of musicals, escaping life's troubles - even if just for a moment - by dreaming up little numbers to the rhythmic beats of her surroundings.", "poster_path": "/7xizDTz4Yj4IYm2ud4f6EfEXe5H.jpg", "release_date": "2000-05-17", "title": "Dancer in the Dark", "video": false, "vote_average": 7.9, "vote_count": 898, "popularity": 22.111}, {"id": 10925, "video": false, "vote_count": 551, "vote_average": 7.3, "title": "The Return of the Living Dead", "release_date": "1985-04-25", "original_language": "en", "original_title": "The Return of the Living Dead", "genre_ids": [35, 27], "backdrop_path": "/jA34vdJCxOZUoi4khkfhq1pX3WG.jpg", "adult": false, "overview": "When a bumbling pair of employees at a medical supply warehouse accidentally release a deadly gas into the air, the vapors cause the dead to re-animate as they go on a rampage seeking their favorite food: brains!", "poster_path": "/1vydUitzC8W8W5oNevEArCltydJ.jpg", "popularity": 13.326}, {"id": 663, "video": false, "vote_count": 2072, "vote_average": 6.1, "title": "Saw IV", "release_date": "2007-10-25", "original_language": "en", "original_title": "Saw IV", "genre_ids": [80, 27, 53], "backdrop_path": "/dUof53pTXTLlfw6svPhqdgma3WK.jpg", "adult": false, "overview": "Jigsaw and his apprentice Amanda are dead. Now, upon the news of Detective Kerry's murder, two seasoned FBI profilers, Agent Strahm and Agent Perez, arrive in the terrified community to assist the veteran Detective Hoffman in sifting through Jigsaw's latest grisly remains and piecing together the puzzle. However, when SWAT Commander Rigg is abducted and thrust into a game, the last officer untouched by Jigsaw has but ninety minutes to overcome a series of demented traps and save an old friend...or face the deadly consequences.", "poster_path": "/nNTIiTWWqq1pITf7JATWpg6GGVD.jpg", "popularity": 18.782}, {"adult": false, "backdrop_path": "/skki0rC8Fr7uWo1v0GDX7RQNQsn.jpg", "genre_ids": [28, 80, 18, 9648, 53], "id": 10388, "original_language": "en", "original_title": "The Limey", "overview": "The Limey follows Wilson, a tough English ex-con who travels to Los Angeles to avenge his daughter's death. Upon arrival, Wilson goes to task battling Valentine and an army of L.A.'s toughest criminals, hoping to find clues and piece together what happened. After surviving a near-death beating, getting thrown from a building and being chased down a dangerous mountain road, the Englishman decides to dole out some bodily harm of his own.", "poster_path": "/3WFYpRRP0sHc5XlWfUX7dv9mo5S.jpg", "release_date": "1999-05-15", "title": "The Limey", "video": false, "vote_average": 6.7, "vote_count": 188, "popularity": 7.718}, {"id": 90, "video": false, "vote_count": 2118, "vote_average": 7.1, "title": "Beverly Hills Cop", "release_date": "1984-11-29", "original_language": "en", "original_title": "Beverly Hills Cop", "genre_ids": [28, 35, 80], "backdrop_path": "/gmV4lsRAAtgdTysO3FwTxN8wevb.jpg", "adult": false, "overview": "Tough-talking Detroit cop Axel Foley heads to the rarified world of Beverly Hills in his beat-up Chevy Nova to investigate a friend's murder, but soon realizes he's stumbled onto something much more complicated. Bungling rookie detective, Billy Rosewood joins the fish-out-of-water Axel and shows him the West Los Angeles ropes.", "poster_path": "/eEm00B2qO4j4gGH9PDg8dHvyApD.jpg", "popularity": 26.934}, {"id": 168530, "video": false, "vote_count": 1392, "vote_average": 6.2, "title": "Ride Along", "release_date": "2014-01-07", "original_language": "en", "original_title": "Ride Along", "genre_ids": [28, 35], "backdrop_path": "/cRaD42r5Hte1D9Z24L6v0dtlYGj.jpg", "adult": false, "overview": "For the past two years, high-school security guard Ben has been trying to show decorated APD detective James that he's more than just a video-game junkie who's unworthy of James' sister, Angela. When Ben finally gets accepted into the academy, he thinks he's earned the seasoned policeman's respect and asks for his blessing to marry Angela. Knowing that a ride along will demonstrate if Ben has what it takes to take care of his sister, James invites him on a shift designed to scare the hell out of the trainee. But when the wild night leads them to the most notorious criminal in the city, James will find that his new partner's rapid-fire mouth is just as dangerous as the bullets speeding at it.", "poster_path": "/fLXPcxZ1fJjxqUg94FFb8wwM9YN.jpg", "popularity": 16.664}, {"id": 268920, "video": false, "vote_count": 1090, "vote_average": 5.6, "title": "Hot Pursuit", "release_date": "2015-05-08", "original_language": "en", "original_title": "Hot Pursuit", "genre_ids": [28, 35, 80], "backdrop_path": "/5YeCBUaIM041jN88w1QzNzPNyZp.jpg", "adult": false, "overview": "An uptight by-the-book cop must protect the widow of a drug boss from crooked cops and gunmen.", "poster_path": "/rQSebx3Ie1TL12TbHwFoVqRMU5r.jpg", "popularity": 9.9}, {"id": 524659, "video": false, "vote_count": 15, "vote_average": 6.3, "title": "Crown Vic", "release_date": "2019-11-08", "original_language": "en", "original_title": "Crown Vic", "genre_ids": [28, 80, 18, 53], "backdrop_path": "/dgOF7oQLVO2Ml6Be4zlaWHalepD.jpg", "adult": false, "overview": "One memorable night in the life of veteran patrol officer Ray Mandel and his trainee, ambitious rookie cop Nick Holland in the LAPD's Olympic Division. With two cop killers on the loose and hunting for more targets, Mandel and Holland must contend with a city about to boil over, as well as Jack VanZandt, an unhinged rogue cop out for payback running wild in their patrol zone.", "poster_path": "/81gBlr4KQnaEoXJP9ZGdBnTv4GY.jpg", "popularity": 11.131}, {"id": 486947, "video": false, "vote_count": 601, "vote_average": 7.3, "title": "The Guilty", "release_date": "2018-06-14", "original_language": "da", "original_title": "Den skyldige", "genre_ids": [80, 18, 53], "backdrop_path": "/wXZ2JmuQq58E9A4OcP9e8yeKFGR.jpg", "adult": false, "overview": "Police officer Asger Holm, demoted to desk work as an alarm dispatcher, answers a call from a panicked woman who claims to have been kidnapped. Confined to the police station and with the phone as his only tool, Asger races against time to get help and find her.", "poster_path": "/42QPG6p7oLcLd4LQOPeSTLhqfMx.jpg", "popularity": 9.697}, {"id": 11471, "video": false, "vote_count": 196, "vote_average": 7.5, "title": "A Better Tomorrow", "release_date": "1986-08-02", "original_language": "cn", "original_title": "\u82f1\u96c4\u672c\u8272", "genre_ids": [28, 80, 18], "adult": false, "overview": "A reforming ex-gangster tries to reconcile with his estranged policeman brother, but the ties to his former gang are difficult to break.", "poster_path": "/55lvNzpXvLgIXJJEmzisWFovkTO.jpg", "popularity": 12.03}, {"id": 323675, "video": false, "vote_count": 1017, "vote_average": 6.2, "title": "Ride Along 2", "release_date": "2016-01-14", "original_language": "en", "original_title": "Ride Along 2", "genre_ids": [28, 35], "backdrop_path": "/dtX3rNnjVSqaDiEXHzC78KiyIsc.jpg", "adult": false, "overview": "As his wedding day approaches, Ben heads to Miami with his soon-to-be brother-in-law James to bring down a drug dealer who's supplying the dealers of Atlanta with product.", "poster_path": "/A739odgY2FjoLvYLYdypUc6GpaY.jpg", "popularity": 11.235}], "total_pages": 11, "total_results": 209}, "recommendations": {"page": 1, "results": [], "total_pages": 1, "total_results": 0}, "credits": {"cast": [{"cast_id": 1, "character": "Terence 'Slip' Mahoney", "credit_id": "52fe4a0e9251416c910c1bf9", "gender": 2, "id": 89989, "name": "Leo Gorcey", "order": 0, "profile_path": "/ntzfWLKlvtMuem9knh5Omx6mkcP.jpg"}, {"cast_id": 2, "character": "Sach 'Turkey' Horace Debussy Jones", "credit_id": "52fe4a0e9251416c910c1bfd", "gender": 2, "id": 33024, "name": "Huntz Hall", "order": 1, "profile_path": "/wR3Rlmbwu5gfISwljC1Z0VRSvp4.jpg"}, {"cast_id": 3, "character": "Ricky Moreno", "credit_id": "52fe4a0e9251416c910c1c01", "gender": 2, "id": 89750, "name": "Gabriel Dell", "order": 2, "profile_path": "/bnVOoJxxzrgFxHsT1qhpwFUTbMF.jpg"}, {"cast_id": 5, "character": "Chuck", "credit_id": "52fe4a0e9251416c910c1c09", "gender": 0, "id": 120211, "name": "David Gorcey", "order": 4, "profile_path": "/dcwpRQn8y1x88LrvzclFJ0wUjzr.jpg"}, {"cast_id": 6, "character": "Chuck", "credit_id": "52fe4a0e9251416c910c1c0d", "gender": 2, "id": 67370, "name": "Frankie Darro", "order": 5, "profile_path": "/qyS85Cy29MPcWD2GKvMzjD10yhx.jpg"}, {"cast_id": 7, "character": "Tony 'Piggy' Locarno", "credit_id": "52fe4a0e9251416c910c1c11", "gender": 2, "id": 56924, "name": "Nestor Paiva", "order": 6, "profile_path": "/9QB3l3jN6npImyMvCHKWTMd7H8Y.jpg"}, {"cast_id": 8, "character": "Daisy Harris", "credit_id": "52fe4a0e9251416c910c1c15", "gender": 0, "id": 103908, "name": "Rosemary La Planche", "order": 7, "profile_path": "/tjqXozG2CPMMt1Bxk2IMAMEzh1T.jpg"}, {"cast_id": 10, "character": "Whitey", "credit_id": "564cc657c3a3686037007ace", "gender": 2, "id": 1263061, "name": "William Benedict", "order": 8, "profile_path": "/uOmA9EUJIW18nBZDvU06yhSQxcM.jpg"}], "crew": [{"credit_id": "52fe4a0e9251416c910c1c1b", "department": "Directing", "gender": 2, "id": 30833, "job": "Director", "name": "William Beaudine", "profile_path": "/krWEsV2QBljRm98l2DxtkCPHxjI.jpg"}, {"credit_id": "568fd034925141188f00241e", "department": "Writing", "gender": 0, "id": 120326, "job": "Screenplay", "name": "Edmond Seward", "profile_path": null}, {"credit_id": "568fd053c3a36832510023b4", "department": "Writing", "gender": 2, "id": 85996, "job": "Screenplay", "name": "Tim Ryan", "profile_path": "/1aLbG01i86jib8tATnC0DyJPrOC.jpg"}, {"credit_id": "568fd05ec3a3683244002499", "department": "Writing", "gender": 2, "id": 120191, "job": "Screenplay", "name": "Gerald Schnitzer", "profile_path": null}, {"credit_id": "5d08e200925141170cb9101c", "department": "Camera", "gender": 2, "id": 2070999, "job": "Grip", "name": "Harry Lewis", "profile_path": null}, {"credit_id": "5d1df33247c9fb0011dae778", "department": "Camera", "gender": 2, "id": 2353395, "job": "Camera Operator", "name": "Edward Kearns", "profile_path": null}]}}