{"adult": false, "backdrop_path": "/43qYai2EU9ewqEwuKRZTf6iPVGv.jpg", "belongs_to_collection": null, "budget": 0, "genres": [{"id": 99, "name": "Documentary"}], "homepage": "http://www.pezheadsthemovie.com", "id": 89322, "imdb_id": "tt0903003", "original_language": "en", "original_title": "PEZheads - The Movie", "overview": "PEZheads - The Movie is a documentary about PEZ\u00ae and PEZ\u00ae Collectors. It explores the phenomenon of PEZ\u00ae collecting through interviews with a variety of collectors and vendors, as well as visits to conventions, the PEZ factory, flea markets, and anywhere else we can find PEZ\u00ae.  This documentary highlights the fun and quirky aspects of the hobby, as well as the community and the friendships that develop around it. It explores the PEZ phenomonon from the viewpoint of non-collectors and collectors alike, as well as collectors' families and friends.", "popularity": 1.597, "poster_path": "/jZBxrwYPdiQkq9PHnruZfP7bm6g.jpg", "production_companies": [], "production_countries": [{"iso_3166_1": "US", "name": "United States of America"}], "release_date": "2006-10-31", "revenue": 0, "runtime": 74, "spoken_languages": [], "status": "Released", "tagline": "", "title": "PEZheads - The Movie", "video": false, "vote_average": 7.0, "vote_count": 1, "keywords": {"keywords": [{"id": 985, "name": "candy"}, {"id": 1740, "name": "pop culture"}, {"id": 4290, "name": "toy"}, {"id": 4295, "name": "collector"}, {"id": 182317, "name": "pez dispenser"}]}, "similar": {"page": 1, "results": [{"adult": false, "backdrop_path": "/5JqfbGd425PRS6BQ5MMfzT3g1Wy.jpg", "genre_ids": [99], "id": 15800, "original_language": "en", "original_title": "Trekkies", "overview": "A hilarious look at the universe's most fervent fans.", "poster_path": "/bXfxkQnoq9xDegq7dmJpJXSMRYf.jpg", "release_date": "1997-10-18", "title": "Trekkies", "video": false, "vote_average": 6.5, "vote_count": 32, "popularity": 6.37}, {"id": 91356, "video": false, "vote_count": 29, "vote_average": 6.7, "title": "Comic-Con Episode IV: A Fan's Hope", "release_date": "2011-09-10", "original_language": "en", "original_title": "Comic-Con Episode IV: A Fan's Hope", "genre_ids": [99], "backdrop_path": "/9jEhi26UTbZXn2QFzcYtiPyYkWB.jpg", "adult": false, "overview": "A behind-the-scenes look at San Diego Comic-Con, the world's largest comic book convention, and the fans who attend every year.", "poster_path": "/axltQJKHxolLfbGwuTKZZlLbBsZ.jpg", "popularity": 6.937}, {"adult": false, "backdrop_path": "/oJ5LIvOKpPZvYQOOqUsRXq02L7c.jpg", "genre_ids": [99, 10751], "id": 251471, "original_language": "en", "original_title": "A LEGO Brickumentary", "overview": "A look at the global culture and appeal of the LEGO building-block toys.", "poster_path": "/4cGnjZriMY3uv11gIrMhHT4CWHV.jpg", "release_date": "2014-11-09", "title": "A LEGO Brickumentary", "video": false, "vote_average": 6.0, "vote_count": 74, "popularity": 7.589}, {"adult": false, "backdrop_path": "/5EEuVgiPEJNLvFQc3FTgKYaveuW.jpg", "genre_ids": [99], "id": 81899, "original_language": "en", "original_title": "Trek Nation", "overview": "Trek Nation is a documentary film directed by Scott Colthorp examining the positive impact that Star Trek and creator Gene Roddenberry may have had on people's lives as seen through the eyes of his son, Eugene Roddenberry, Jr. (\"Rod\"). It includes interviews with castmembers and crew from all five Star Trek shows, as well as various fans and celebrities who were markedly influenced by the show while growing up. Rod Roddenberry also visits Skywalker Ranch to interview George Lucas on the influence that Star Trek had on him. Lucas shares how he had gone to Star Trek conventions prior to creating Star Wars.", "poster_path": "/aYmz4TgkCNXP72WgbmHAbmDuBKw.jpg", "release_date": "2011-11-30", "title": "Trek Nation", "video": false, "vote_average": 7.0, "vote_count": 14, "popularity": 4.942}, {"id": 13532, "video": false, "vote_count": 501, "vote_average": 6.1, "title": "Fanboys", "release_date": "2009-02-06", "original_language": "en", "original_title": "Fanboys", "genre_ids": [12, 35], "backdrop_path": "/89udmMtxl8AuQHYoFdSgB5e6xYs.jpg", "adult": false, "overview": "In 1999, Star Wars fanatics take a cross-country trip to George Lucas' Skywalker Ranch so their dying friend can see a screening of The Phantom Menace before its release.", "poster_path": "/ywI92p2x7D96nuEayGVOMll35SF.jpg", "popularity": 12.769}, {"adult": false, "backdrop_path": "/q59RIuLMNerJbCu87dWtZOEgZke.jpg", "genre_ids": [99], "id": 160220, "original_language": "en", "original_title": "Bronies: The Extremely Unexpected Adult Fans of My Little Pony", "overview": "A film profiling the unusual cross-demographic fandom of the ostensibly girl oriented television series \"My Little Pony: Friendship Is Magic\"", "poster_path": "/oEW5BXfVY6xYNfk1ClhaX4F0SgQ.jpg", "release_date": "2012-11-04", "title": "Bronies: The Extremely Unexpected Adult Fans of My Little Pony", "video": false, "vote_average": 5.2, "vote_count": 31, "popularity": 4.951}, {"adult": false, "backdrop_path": "/1AkmFnES2le6lekHRHhYtvQZD3Y.jpg", "genre_ids": [99], "id": 142988, "original_language": "en", "original_title": "Get a Life!", "overview": "An EPIX Original documentary directed by William Shatner, based on his hugely popular book, in which he examines the cultural phenomena of STAR TREK, its fan-following and his own role within it.", "poster_path": "/mitVL0RYWsy9YPMQimdzE9MEUP3.jpg", "release_date": "2012-07-28", "title": "Get a Life!", "video": false, "vote_average": 7.8, "vote_count": 4, "popularity": 1.917}, {"id": 494632, "video": false, "vote_count": 27, "vote_average": 6.6, "title": "Making Fun: The Story of Funko", "release_date": "2018-01-22", "original_language": "en", "original_title": "Making Fun: The Story of Funko", "genre_ids": [99], "backdrop_path": "/vl4xE0LZfBX7D5mY4WHsEmxNJJZ.jpg", "adult": false, "overview": "From a small garage in Redmond, Washington, to the furthest corners of the earth, Funko's story is one that is centered around the fans and the global community that arose from their unique passion - a story that spans twenty years full of joy, ambition, adversity, and... well... toys.", "poster_path": "/eFRat6UHOf79v0HAklnUBWsN2MT.jpg", "popularity": 5.385}, {"adult": false, "backdrop_path": null, "genre_ids": [99], "id": 256315, "original_language": "en", "original_title": "Cosplayers UK: The Movie", "overview": "A movie following a small selection of talented cos-players as they took part in May 2011 MCM Expo and showcased their costumes in the Masquerade.", "poster_path": "/j7msoTi6L3eQAbghnFhQC3jQDjL.jpg", "release_date": "2011-10-30", "title": "Cosplayers UK: The Movie", "video": false, "vote_average": 0.0, "vote_count": 0, "popularity": 0.6}, {"adult": false, "backdrop_path": null, "genre_ids": [99], "id": 258837, "original_language": "en", "original_title": "Fanalysis", "overview": "Actor/cult icon Bruce Campbell examines the world of fan conventions and what makes a fan into a fanatic.", "poster_path": "/sXHGXZOJNLSzpk0rzHgos9Kysqb.jpg", "release_date": "2002-03-05", "title": "Fanalysis", "video": false, "vote_average": 5.0, "vote_count": 3, "popularity": 1.079}, {"adult": false, "backdrop_path": "/xvlBU4OdK2S0YiGZsSgX7Tb5VRT.jpg", "genre_ids": [99], "id": 77597, "original_language": "en", "original_title": "The Achievers: The Story of the Lebowski Fans", "overview": "From the producers of Dogtown &amp; Z-Boys and Riding Giants comes \"The Achievers: The Story Of The Lebowski Fans\", the long-awaited documentary based on the fans of Joel and Ethan Cohen's THE BIG LEBOWSKI, the first cult film from the digital age.", "poster_path": "/lz9NegBwdVVx1E3CNA7wh3ue2AF.jpg", "release_date": "2009-10-26", "title": "The Achievers: The Story of the Lebowski Fans", "video": false, "vote_average": 5.7, "vote_count": 6, "popularity": 1.4}, {"adult": false, "backdrop_path": "/pQHSIcMb9NKjV3hvkUqYPqIyuLU.jpg", "genre_ids": [99], "id": 24703, "original_language": "en", "original_title": "Trekkies 2", "overview": "sequel to the 1997 documentary film Trekkies.", "poster_path": "/fO7ZdDAYUvivQs6QKW9zvvn9UtE.jpg", "release_date": "2004-04-20", "title": "Trekkies 2", "video": false, "vote_average": 6.7, "vote_count": 13, "popularity": 3.789}, {"id": 79462, "video": false, "vote_count": 5, "vote_average": 6.0, "title": "Candyman: The David Klein Story", "release_date": "2010-01-24", "original_language": "en", "original_title": "Candyman: The David Klein Story", "genre_ids": [99], "backdrop_path": "/mnQySjerVMrxZDowDQd7mx7Hn5g.jpg", "adult": false, "overview": "Candyman tells the amazing true story of David Klein, an eccentric candy inventor from LA, who came up with the concept of Jelly Belly\u00ae jellybeans. These colorful beans became a pop culture phenomenon, revolutionized the candy industry and were personally endorsed by Ronald Reagen. However, David's eccentric personality and peculiar sense of business led him to leave Jelly Belly just as it was about to explode and grow into a billion dollar enterprise. Is there room for eccentric genius in the modern corporate world? The film tells how Klein may have lost his beans, but kept his soul.", "poster_path": "/qXzq0gMgtz7KBc5Og2d6h0EqywA.jpg", "popularity": 3.014}, {"adult": false, "backdrop_path": "/sxOahZRr3oBTHZEfKCNP7BrYA2g.jpg", "genre_ids": [99], "id": 75311, "original_language": "en", "original_title": "The People vs. George Lucas", "overview": "The passion the original Star Wars trilogy inspires in its fans is unparalleled; but when it comes to George Lucas himself, many have found their ardor has cooled into a complicated love-hate relationship. This hilarious, heartfelt documentary delves deep into Lucas\u2019s cultural legacy, asking all the tough questions. Has Lucas betrayed his masterwork? Should he just have left the original trilogy alone? Is The Phantom Menace so bad it should carry a health warning? Utilizing interviews taken from over 600 hours of footage, and peppered with extraordinary Star Wars and Indiana Jones recreations lovingly immortalized in song, needlepoint, Lego, claymation, puppets and paper-m\u00e2ch\u00e9, above all this film asks the question: who truly owns that galaxy far, far away\u2014the man who created it, or the fans who worship it?", "poster_path": "/AtHiQoLWzbNk5iSJrAoDAf2YTrZ.jpg", "release_date": "2010-03-14", "title": "The People vs. George Lucas", "video": false, "vote_average": 6.4, "vote_count": 57, "popularity": 6.144}, {"adult": false, "backdrop_path": "/iOVThToL7UtdCQyRti0zrmmtPTJ.jpg", "genre_ids": [99], "id": 173484, "original_language": "en", "original_title": "Rewind This!", "overview": "Home video changed the world. The cultural and historical impact of the VHS tape was enormous. This film traces the ripples of that impact by examining the myriad aspects of society that were altered by the creation of videotape.", "poster_path": "/4GSiLwG1OXYRrztkmzHmEgBpKrQ.jpg", "release_date": "2013-08-27", "title": "Rewind This!", "video": false, "vote_average": 7.0, "vote_count": 37, "popularity": 6.021}, {"id": 253150, "video": false, "vote_count": 18, "vote_average": 6.7, "title": "Plastic Galaxy: The Story of Star Wars Toys", "release_date": "2014-01-14", "original_language": "en", "original_title": "Plastic Galaxy: The Story of Star Wars Toys", "genre_ids": [99], "backdrop_path": "/koXWaTPiOAbK9DsOIwIamxcAsQo.jpg", "adult": false, "overview": "Plastic Galaxy explores the ground breaking and breathtaking world of 'Star Wars' toys. Through interviews with former Kenner employees, experts, authors, and collectors, the documentary looks at the toys' history, influence, and the passions they elicit today.", "poster_path": "/p4XtRTZOHoDnCheNX1e1mruperF.jpg", "popularity": 4.983}, {"adult": false, "backdrop_path": "/jpK7Z19RDB1oZyQP52p3Yi5LLjr.jpg", "genre_ids": [99], "id": 276122, "original_language": "en", "original_title": "A Brony Tale", "overview": "Vancouver-based voice artist Ashleigh Ball has been the voice of numerous characters in classic cartoons such as Care Bears, Strawberry Shortcake, Cinderella and more. When Ashleigh was hired to voice Apple Jack and Rainbow Dash for Hasbro's fourth series to use the My Little Pony name - My Little Pony: Friendship Is Magic - she had no idea she would become an Internet phenomenon and major celebrity to a worldwide fan-base of grownups. Bronies are united by their belief in the show's philosophy. This documentary gives an inside view of the Pony fan-world, and an intimate look at the courage it takes to just be yourself...even when that means liking a little girls' cartoon.", "poster_path": "/ueKw9EKd2BULq2mOEMPeB87e36u.jpg", "release_date": "2014-07-08", "title": "A Brony Tale", "video": false, "vote_average": 5.8, "vote_count": 17, "popularity": 4.518}, {"adult": false, "backdrop_path": "/rk47cNWdb0L66eQahvr6p9dvZAh.jpg", "genre_ids": [99], "id": 329697, "original_language": "en", "original_title": "Raiders!: The Story of the Greatest Fan Film Ever Made", "overview": "In 1982, three 11 year-olds in Mississippi set out to remake their favorite film: Raiders of the Lost Ark. It took seven turbulent years that tested the limits of their friendship and nearly burned down their mother's house. By the end, they had completed every scene except one... the explosive airplane scene. 30 years later, they attempt to finally realize their childhood dream by building a replica of the 75 foot \"Flying Wing\" plane from Raiders in a mud pit in the backwoods of Mississippi... and then blow it up! This is the story behind the making of what is known as \"the greatest fan film ever made.\"", "poster_path": "/6qH6ZkqIPtMvETKSaWNnRNLV6Te.jpg", "release_date": "2015-03-14", "title": "Raiders!: The Story of the Greatest Fan Film Ever Made", "video": false, "vote_average": 7.2, "vote_count": 32, "popularity": 7.474}, {"adult": false, "backdrop_path": null, "genre_ids": [99], "id": 222403, "original_language": "en", "original_title": "Indyfans", "overview": "Amid the release of the fourth Indiana Jones movie, filmmaker Brandon Kleyla chronicles the fanaticism of the whip-carrying admirers and interviews various filmmakers, archaeologists and writers about the Indy franchise. Viewers learn why archaeologist Indiana Jones and his many adventures have spawned die-hard, convention-going fans for more than two decades.", "poster_path": "/czdRRvBK2VkLz1bzdd6KHqPwxAH.jpg", "release_date": "2008-04-01", "title": "Indyfans", "video": false, "vote_average": 0.0, "vote_count": 0, "popularity": 1.4}, {"adult": false, "backdrop_path": "/tvqOacgIVtrxW7G3WKrIjc4hU1W.jpg", "genre_ids": [99], "id": 35199, "original_language": "en", "original_title": "Wordplay", "overview": "From the masters who create the mind-bending diversions to the tense competition at the American Crossword Puzzle Tournament, Patrick Creadon's documentary reveals a fascinating look at a decidedly addictive pastime. Creadon captures New York Times editor Will Shortz at work, talks to celebrity solvers -- including Bill Clinton and Ken Burns -- and presents an intimate look at the national tournament and its competitors.", "poster_path": "/ydMzrQpwayNFPQi967rrrZlBBmC.jpg", "release_date": "2006-06-26", "title": "Wordplay", "video": false, "vote_average": 7.4, "vote_count": 25, "popularity": 5.554}], "total_pages": 10, "total_results": 183}, "recommendations": {"page": 1, "results": [], "total_pages": 1, "total_results": 0}, "credits": {"cast": [{"cast_id": 11, "character": "Himself", "credit_id": "5c8aa2730e0a264badc19904", "gender": 0, "id": 1147344, "name": "Chris Skeene", "order": 7, "profile_path": null}, {"cast_id": 12, "character": "Herself", "credit_id": "5c8aa2919251410ce2c37309", "gender": 0, "id": 1147345, "name": "Kendra Skeene", "order": 8, "profile_path": null}, {"cast_id": 13, "character": "Himself", "credit_id": "5c8aa29a9251414e8bc28b2a", "gender": 0, "id": 175739, "name": "Robby Takac", "order": 9, "profile_path": null}, {"cast_id": 14, "character": "Himself", "credit_id": "5c8aa2a60e0a267d05c39fcb", "gender": 0, "id": 2265274, "name": "Vinnie Fiorello", "order": 10, "profile_path": null}, {"cast_id": 15, "character": "Himself", "credit_id": "5c8aa2adc3a368216e0d3b46", "gender": 0, "id": 1147347, "name": "Joe Vittoria", "order": 11, "profile_path": null}, {"cast_id": 16, "character": "Himself", "credit_id": "5c8aa2b89251410cf7c354f2", "gender": 0, "id": 2265276, "name": "Shawn Peterson", "order": 12, "profile_path": null}, {"cast_id": 17, "character": "Himself", "credit_id": "5c8aa2ccc3a36864610e1b75", "gender": 0, "id": 2265279, "name": "David Emerson", "order": 13, "profile_path": null}, {"cast_id": 18, "character": "Himself", "credit_id": "5c8aa2d90e0a267d05c3a043", "gender": 0, "id": 2265280, "name": "Richie Belyski", "order": 14, "profile_path": null}, {"cast_id": 19, "character": "Himself", "credit_id": "5c8aa2df0e0a264badc199c4", "gender": 0, "id": 1147349, "name": "John LaSpina", "order": 15, "profile_path": null}, {"cast_id": 20, "character": "Himself", "credit_id": "5c8aa2e70e0a2642b5c1aa0f", "gender": 0, "id": 2265281, "name": "Joe Paravati", "order": 16, "profile_path": null}], "crew": [{"credit_id": "52fe4a149251416c910c28eb", "department": "Production", "gender": 0, "id": 1147344, "job": "Producer", "name": "Chris Skeene", "profile_path": null}, {"credit_id": "52fe4a159251416c910c28f1", "department": "Directing", "gender": 0, "id": 174197, "job": "Director", "name": "Chris Marshall", "profile_path": null}, {"credit_id": "52fe4a159251416c910c28f7", "department": "Production", "gender": 0, "id": 1147345, "job": "Producer", "name": "Kendra Skeene", "profile_path": null}, {"credit_id": "5c8aa3160e0a260cb1c3e6de", "department": "Production", "gender": 0, "id": 1184272, "job": "Producer", "name": "Christopher Marshall", "profile_path": null}, {"credit_id": "5c8aa3249251410ce2c3738a", "department": "Production", "gender": 0, "id": 1169770, "job": "Executive Producer", "name": "Nathaniel Thomas McGill", "profile_path": null}, {"credit_id": "5c8aa3559251410462c0947e", "department": "Production", "gender": 0, "id": 1795044, "job": "Executive Producer", "name": "Vincent Vittorio", "profile_path": null}, {"credit_id": "5c8aa36b0e0a267d08c3bb9d", "department": "Sound", "gender": 0, "id": 2265284, "job": "Music", "name": "Paul Chapman", "profile_path": null}, {"credit_id": "5c8aa379925141058ec0a135", "department": "Crew", "gender": 0, "id": 174197, "job": "Cinematography", "name": "Chris Marshall", "profile_path": null}, {"credit_id": "5c8aa38a9251410ceac38bdb", "department": "Editing", "gender": 0, "id": 2265285, "job": "Editor", "name": "Chris Marshall", "profile_path": null}, {"credit_id": "5c8aa3a49251410462c094d2", "department": "Visual Effects", "gender": 0, "id": 2265286, "job": "Animation", "name": "Christian Moore", "profile_path": null}, {"credit_id": "5c8aa3b19251410ccfc374f7", "department": "Visual Effects", "gender": 0, "id": 1147345, "job": "Visual Effects", "name": "Kendra Skeene", "profile_path": null}, {"credit_id": "5c8aa3bc925141058ec0a22e", "department": "Camera", "gender": 0, "id": 2265289, "job": "Camera Operator", "name": "Nathan Clinebelle", "profile_path": null}]}}