{"adult": false, "backdrop_path": "/rKlv5ZgqjoQks2NsJOAD3rJLHpD.jpg", "belongs_to_collection": null, "budget": 0, "genres": [{"id": 35, "name": "Comedy"}, {"id": 80, "name": "Crime"}, {"id": 10770, "name": "TV Movie"}], "homepage": null, "id": 89330, "imdb_id": "tt0177867", "original_language": "fi", "original_title": "Jari Tervon Poliisin poika", "overview": "", "popularity": 0.863, "poster_path": "/gaEJPprlpFlsh4XasNAQJIMKQI2.jpg", "production_companies": [{"id": 5975, "logo_path": "/vvjgoKygWWYZvYyidT3RmOCq5If.png", "name": "YLE", "origin_country": "FI"}], "production_countries": [{"iso_3166_1": "FI", "name": "Finland"}], "release_date": "1998-11-01", "revenue": 0, "runtime": 80, "spoken_languages": [{"iso_639_1": "fi", "name": "suomi"}], "status": "Released", "tagline": "", "title": "Poliisin poika", "video": false, "vote_average": 5.8, "vote_count": 4, "keywords": {"keywords": [{"id": 818, "name": "based on novel or book"}, {"id": 2492, "name": "bank robber"}, {"id": 2806, "name": "lapland"}, {"id": 3725, "name": "pregnancy"}, {"id": 6149, "name": "police"}, {"id": 15111, "name": "drinking"}, {"id": 159700, "name": "getaway"}]}, "similar": {"page": 1, "results": [{"id": 75780, "video": false, "vote_count": 4451, "vote_average": 6.4, "title": "Jack Reacher", "release_date": "2012-12-20", "original_language": "en", "original_title": "Jack Reacher", "genre_ids": [28, 80, 18, 53], "backdrop_path": "/ezXodpP429qK0Av89pVNlaXWJkQ.jpg", "adult": false, "overview": "When a gunman takes five lives with six shots, all evidence points to the suspect in custody. On interrogation, the suspect offers up a single note: \"Get Jack Reacher!\" So begins an extraordinary chase for the truth, pitting Jack Reacher against an unexpected enemy, with a skill for violence and a secret to keep.", "poster_path": "/mt0ELw83HIRgaKaDzhsDcIi0RnW.jpg", "popularity": 15.945}, {"id": 4771, "video": false, "vote_count": 2134, "vote_average": 7.3, "title": "Gone Baby Gone", "release_date": "2007-09-18", "original_language": "en", "original_title": "Gone Baby Gone", "genre_ids": [80, 18, 9648], "backdrop_path": "/sogh5NXPbKFajjYKBlfIBfCWgbq.jpg", "adult": false, "overview": "When 4 year old Amanda McCready disappears from her home and the police make little headway in solving the case, the girl's aunt, Beatrice McCready hires two private detectives, Patrick Kenzie and Angie Gennaro. The detectives freely admit that they have little experience with this type of case, but the family wants them for two reasons - they're not cops and they know the tough neighborhood in which they all live. As the case progresses, Kenzie and Gennaro face drug dealers, gangs and pedophiles. When they are about to solve the case, they are faced with a moral dilemma that tears them apart.", "poster_path": "/dXXMPxGiRegd7NNCtE5uchAKRAG.jpg", "popularity": 16.498}, {"id": 500919, "video": false, "vote_count": 203, "vote_average": 5.1, "title": "211", "release_date": "2018-06-01", "original_language": "en", "original_title": "211", "genre_ids": [28, 80, 18], "backdrop_path": "/7eTWQb475pM9H3NEOiUzGYASEx0.jpg", "adult": false, "overview": "Inspired by one of the longest and bloodiest real-life events in police history, Officer Mike Chandler and a young civilian passenger find themselves under-prepared and outgunned when fate puts them squarely in the crosshairs of a daring bank heist in progress by a fearless team of highly-trained and heavily-armed men.", "poster_path": "/81RColr4rau6DZ7z9eMsksokcfk.jpg", "popularity": 14.837}, {"id": 395841, "video": false, "vote_count": 507, "vote_average": 5.2, "title": "Hold the Dark", "release_date": "2018-09-22", "original_language": "en", "original_title": "Hold the Dark", "genre_ids": [80, 9648, 53], "backdrop_path": "/ejcwWvDNRSATxEuRNEjK01seIem.jpg", "adult": false, "overview": "In the grim Alaskan winter, a naturalist hunts for wolves blamed for killing a local boy, but he soon finds himself swept into a chilling mystery.", "poster_path": "/1etEySwZQnBJpzgplgadPi5y4PL.jpg", "popularity": 17.601}, {"id": 877, "video": false, "vote_count": 222, "vote_average": 7.6, "title": "Scarface", "release_date": "1932-04-09", "original_language": "en", "original_title": "Scarface", "genre_ids": [28, 80, 18, 53], "backdrop_path": "/fX1DFPMZYsRG17BmMPJAKUaBZEz.jpg", "adult": false, "overview": "A murderous thug shoots his way to the top of the mobs while trying to protect his sister from the criminal life.", "poster_path": "/ai9WOjgNRXo42D0GJIIdi7toZ5x.jpg", "popularity": 11.666}, {"adult": false, "backdrop_path": "/kiWvoV78Cc3fUwkOHKzyBgVdrDD.jpg", "genre_ids": [37, 18, 12], "id": 281957, "original_language": "en", "original_title": "The Revenant", "overview": "In the 1820s, a frontiersman, Hugh Glass, sets out on a path of vengeance against those who left him for dead after a bear mauling.", "poster_path": "/oXUWEc5i3wYyFnL1Ycu8ppxxPvs.jpg", "release_date": "2015-12-25", "title": "The Revenant", "video": false, "vote_average": 7.5, "vote_count": 12127, "popularity": 24.135}, {"adult": false, "backdrop_path": "/sRJjliXA7ZqHCr7HCK0ZB83xxjr.jpg", "genre_ids": [12, 28, 878], "id": 101299, "original_language": "en", "original_title": "The Hunger Games: Catching Fire", "overview": "Katniss Everdeen has returned home safe after winning the 74th Annual Hunger Games along with fellow tribute Peeta Mellark. Winning means that they must turn around and leave their family and close friends, embarking on a \"Victor's Tour\" of the districts. Along the way Katniss senses that a rebellion is simmering, but the Capitol is still very much in control as President Snow prepares the 75th Annual Hunger Games (The Quarter Quell) - a competition that could change Panem forever.", "poster_path": "/Hn0KgefVEp0GkdTexS6gfKTMfi.jpg", "release_date": "2013-11-15", "title": "The Hunger Games: Catching Fire", "video": false, "vote_average": 7.4, "vote_count": 12031, "popularity": 22.164}, {"adult": false, "backdrop_path": "/bvbyidkMaBls1LTaIWYY6UmYTaL.jpg", "genre_ids": [28, 878], "id": 336843, "original_language": "en", "original_title": "Maze Runner: The Death Cure", "overview": "Thomas leads his group of escaped Gladers on their final and most dangerous mission yet. To save their friends, they must break into the legendary Last City, a WCKD-controlled labyrinth that may turn out to be the deadliest maze of all. Anyone who makes it out alive will get answers to the questions the Gladers have been asking since they first arrived in the maze.", "poster_path": "/2zYfzA3TBwrMC8tfFbpiTLODde0.jpg", "release_date": "2018-01-10", "title": "Maze Runner: The Death Cure", "video": false, "vote_average": 7.0, "vote_count": 4393, "popularity": 24.242}, {"adult": false, "backdrop_path": "/3N0XNfknTOpGwYadltyDSszCZmZ.jpg", "genre_ids": [28, 878], "id": 2048, "original_language": "en", "original_title": "I, Robot", "overview": "In 2035, where robots are common-place and abide by the three laws of robotics, a techno-phobic cop investigates an apparent suicide. Suspecting that a robot may be responsible for the death, his investigation leads him to believe that humanity may be in danger.", "poster_path": "/2mkFzf168xJrV6Leqq0bjqOlJCK.jpg", "release_date": "2004-07-15", "title": "I, Robot", "video": false, "vote_average": 6.9, "vote_count": 7608, "popularity": 41.593}, {"adult": false, "backdrop_path": "/r3xsFBD1VTUusk393bBc7SsDUJe.jpg", "genre_ids": [80, 18, 53], "id": 553, "original_language": "en", "original_title": "Dogville", "overview": "A barren soundstage is stylishly utilized to create a minimalist small-town setting in which a mysterious woman named Grace hides from the criminals who pursue her. The town is two-faced and offers to harbor Grace as long as she can make it worth their effort, so Grace works hard under the employ of various townspeople to win their favor. Tensions flare, however, and Grace's status as a helpless outsider provokes vicious contempt and abuse from the citizens of Dogville.", "poster_path": "/g1xLrof2RVgtHBB4fLvR5Xr8l5x.jpg", "release_date": "2003-05-19", "title": "Dogville", "video": false, "vote_average": 7.8, "vote_count": 1359, "popularity": 16.355}, {"id": 454983, "video": false, "vote_count": 3905, "vote_average": 7.2, "title": "The Kissing Booth", "release_date": "2018-05-11", "original_language": "en", "original_title": "The Kissing Booth", "genre_ids": [35, 10749], "backdrop_path": "/xEKx7zPEjN6meomZ7OhV82Mm2jm.jpg", "adult": false, "overview": "When teenager Elle's first kiss leads to a forbidden romance with the hottest boy in high school, she risks her relationship with her best friend.", "poster_path": "/7Dktk2ST6aL8h9Oe5rpk903VLhx.jpg", "popularity": 31.203}, {"id": 466282, "video": false, "vote_count": 5265, "vote_average": 7.9, "title": "To All the Boys I've Loved Before", "release_date": "2018-08-16", "original_language": "en", "original_title": "To All the Boys I've Loved Before", "genre_ids": [35, 10749], "backdrop_path": "/uZTtVdOEIwPA6vwVRI3217DoPM.jpg", "adult": false, "overview": "Lara Jean's love life goes from imaginary to out of control when her secret letters to every boy she's ever fallen for are mysteriously mailed out.", "poster_path": "/hKHZhUbIyUAjcSrqJThFGYIR6kI.jpg", "popularity": 39.96}, {"id": 4638, "video": false, "vote_count": 4429, "vote_average": 7.5, "title": "Hot Fuzz", "release_date": "2007-02-14", "original_language": "en", "original_title": "Hot Fuzz", "genre_ids": [28, 35, 80], "backdrop_path": "/zuskekrfW3gj9ttXNVhfdHe5n22.jpg", "adult": false, "overview": "As a former London constable, Nicholas Angel finds it difficult to adapt to his new assignment in the sleepy British village of Sandford. Not only does he miss the excitement of the big city, but he also has a well-meaning oaf for a partner. However, when a series of grisly accidents rocks Sandford, Angel smells something rotten in the idyllic village.", "poster_path": "/5Jx6s6VXnunh8wCLgR0YgjwSgjh.jpg", "popularity": 22.387}, {"id": 1949, "video": false, "vote_count": 5165, "vote_average": 7.5, "title": "Zodiac", "release_date": "2007-03-02", "original_language": "en", "original_title": "Zodiac", "genre_ids": [80, 18, 9648, 53], "backdrop_path": "/jP2htGBHE7vKq4MLeC75UeC0sZH.jpg", "adult": false, "overview": "The true story of the investigation of the \"Zodiac Killer\", a serial killer who terrified the San Francisco Bay Area, taunting police with his ciphers and letters. The case becomes an obsession for three men as their lives and careers are built and destroyed by the endless trail of clues.", "poster_path": "/bgLyOROfFQI3FqYL7jQbiaV8lkN.jpg", "popularity": 24.455}, {"adult": false, "backdrop_path": "/ncERp0UvXuImUeJcf27kEANcf1r.jpg", "genre_ids": [35, 10751, 10749], "id": 9880, "original_language": "en", "original_title": "The Princess Diaries", "overview": "A socially awkward but very bright 15-year-old girl being raised by a single mom discovers that she is the princess of a small European country because of the recent death of her long-absent father, who, unknown to her, was the crown prince of Genovia. She must make a choice between continuing the life of a San Francisco teen or stepping up to the throne.", "poster_path": "/sxpvHk286sXLJWcFrBMNIsXbYsd.jpg", "release_date": "2001-08-03", "title": "The Princess Diaries", "video": false, "vote_average": 6.8, "vote_count": 2861, "popularity": 30.076}, {"id": 272693, "video": false, "vote_count": 3249, "vote_average": 6.8, "title": "The DUFF", "release_date": "2015-02-20", "original_language": "en", "original_title": "The DUFF", "genre_ids": [35, 10749], "backdrop_path": "/awGZf5T1hflis9Z2KvRMhp798xU.jpg", "adult": false, "overview": "Bianca's universe turns upside down when she learns that her high school refers to her as a \u2018DUFF' (Designated Ugly Fat Friend). Hoping to erase that label, she enlists the help of a charming jock and her favorite teacher. Together they'll face the school's mean girl and remind everyone that we are all someone's DUFF\u2026 and that's totally fine.", "poster_path": "/dBBgPTCN5Zze4POXWVVpwf3wkra.jpg", "popularity": 17.232}, {"id": 181283, "video": false, "vote_count": 988, "vote_average": 6.2, "title": "Child 44", "release_date": "2015-03-15", "original_language": "en", "original_title": "Child 44", "genre_ids": [80, 53], "backdrop_path": "/A2WK7mdiKHaxgE4hRyKuDIM4KGg.jpg", "adult": false, "overview": "Set in Stalin-era Soviet Union, a disgraced MGB agent is dispatched to investigate a series of child murders -- a case that begins to connect with the very top of party leadership.", "poster_path": "/nzXwfnBcsmREzHlem6fkStN1RUH.jpg", "popularity": 17.414}, {"adult": false, "backdrop_path": "/3uwyXMZN93PRkShUxvLrufwVAc2.jpg", "genre_ids": [80, 18, 27, 9648, 53], "id": 452507, "original_language": "en", "original_title": "1922", "overview": "A simple yet proud rancher conspires to murder his wife for financial gain, convincing his teenage son to participate.", "poster_path": "/q4FQOiSRhTLWulHl5Vpg37FMArH.jpg", "release_date": "2017-10-20", "title": "1922", "video": false, "vote_average": 5.9, "vote_count": 1489, "popularity": 10.541}, {"id": 449176, "video": false, "vote_count": 3690, "vote_average": 8.1, "title": "Love, Simon", "release_date": "2018-02-16", "original_language": "en", "original_title": "Love, Simon", "genre_ids": [35, 18, 10749], "backdrop_path": "/rqMEeajyzSF4PpJtdCB816Iz8Vr.jpg", "adult": false, "overview": "Everyone deserves a great love story. But for seventeen-year old Simon Spier it's a little more complicated: he's yet to tell his family or friends he's gay and he doesn't know the identity of the anonymous classmate he's fallen for online.", "poster_path": "/5YUYg5q7QfC4IoNwNUtiwdiYKPr.jpg", "popularity": 24.849}, {"id": 169917, "video": false, "vote_count": 1812, "vote_average": 6.3, "title": "A Walk Among the Tombstones", "release_date": "2014-09-18", "original_language": "en", "original_title": "A Walk Among the Tombstones", "genre_ids": [80, 18, 9648, 53], "backdrop_path": "/e56QsaJy1weAUukiK2ZmIGVUALF.jpg", "adult": false, "overview": "Private investigator Matthew Scudder is hired by a drug kingpin to find out who kidnapped and murdered his wife.", "poster_path": "/xxe77USOk2tPnq7G4cL42gf1OxQ.jpg", "popularity": 19.65}], "total_pages": 34, "total_results": 676}, "recommendations": {"page": 1, "results": [{"adult": false, "backdrop_path": "/6PmBBT9qGO8rnGcTOQ47D2Diy9Q.jpg", "genre_ids": [53, 9648], "id": 141971, "original_language": "fi", "original_title": "Blackout", "overview": "Recovering from a nail gun shot to the head and 13 months of coma, doctor Pekka Valinta starts to unravel the mystery of his past, still suffering from total amnesia.", "poster_path": "/loPWKCqJZCVQypEQvG5Nd2WH1gE.jpg", "release_date": "2008-12-26", "title": "Blackout", "video": false, "vote_average": 6.0, "vote_count": 4, "popularity": 1.24}, {"adult": false, "backdrop_path": "/amQwpanOijhp6HE0lX5dcn29Ek5.jpg", "genre_ids": [18], "id": 51190, "original_language": "fi", "original_title": "Sisko tahtoisin j\u00e4\u00e4d\u00e4", "overview": "Emilia is a teenager and a good girl, who never forgets her homework or her little sister, Elsa. Siiri is just one year older than Emilia but not at all like her. When Emilia and Siiri become friends, Emilia's life changes. Siiri encourages her to take a leap, shake the rules and leave princess dreams behind. These two will have fun together, but not only good times", "poster_path": "/mlAQCSqGR7Xrqeu5zwlWGNvqYWm.jpg", "release_date": "2010-08-13", "title": "Run Sister Run!", "video": false, "vote_average": 6.1, "vote_count": 10, "popularity": 1.414}, {"adult": false, "backdrop_path": "/k0TvJkQG0AfaSh1HN4fCJbmFbuH.jpg", "genre_ids": [], "id": 108762, "original_language": "en", "original_title": "Kotirauha", "overview": "Life for Sale is the story of one unlucky man's descent into disaster, a dramatic, human-destiny thriller with contemporary social undertones.", "poster_path": "/lJ1HwOAPY5RMUYeOTRhxFCWyBNR.jpg", "release_date": "2011-10-21", "title": "Life for Sale", "video": false, "vote_average": 7.0, "vote_count": 6, "popularity": 2.305}, {"adult": false, "backdrop_path": "/auf7Xpcut77JsAMWUd35Li7ROQV.jpg", "genre_ids": [18, 36], "id": 41142, "original_language": "en", "original_title": "T\u00e4\u00e4ll\u00e4 Pohjant\u00e4hden alla", "overview": "Based on the novel by V\u00e4in\u00f6 Linna, the story takes place during the time of the Finnish Civil War.", "poster_path": "/8MJux9RPVEwhbzRjk0l2znHnwni.jpg", "release_date": "2009-12-04", "title": "Under the North Star", "video": false, "vote_average": 6.6, "vote_count": 7, "popularity": 2.636}, {"adult": false, "backdrop_path": "/w9ojHNlo8nB5XlA5GhZptcIcDw0.jpg", "genre_ids": [18], "id": 102249, "original_language": "fi", "original_title": "Veturimiehet heiluttaa", "overview": "Veturimiehet heiluttaa on 4. syyskuuta 1992 ensi-iltansa saanut suomalainen elokuva. Elokuva on kuvattu suurimmaksi osaksi Porissa. Veturimiehet heiluttaa sai ensi-iltansa Ruotsissa 26. maaliskuuta 1993.", "poster_path": "/v1plgUtYD66SNiLiT94g1kS9yHK.jpg", "release_date": "1992-09-04", "title": "Goodbye Trainmen", "video": false, "vote_average": 7.0, "vote_count": 8, "popularity": 2.806}, {"adult": false, "backdrop_path": "/yt674mP1aOHoKyMApZjhqB6NrGH.jpg", "genre_ids": [18], "id": 73099, "original_language": "en", "original_title": "Elokuu", "overview": "Summer begins, Aku graduates high school and faces a great emptiness. As his girlfriend, parents and friends all leave the city, it looks to be the dullest summer ever. Everything changes at Midsummer when Aku meets Juli, a beautiful, strange and wild girl. Juli asks Aku for a ride to eastern Finland. Aku agrees \u2013 without any idea what he's getting himself into.", "poster_path": "/uFiJnKQ3kUjw70e5zuYXPUsFZRd.jpg", "release_date": "2011-04-01", "title": "August", "video": false, "vote_average": 5.7, "vote_count": 6, "popularity": 3.266}, {"adult": false, "backdrop_path": "/mRa0vvcsh1lVDuSQ6UaCN4KEXYl.jpg", "genre_ids": [35, 18], "id": 29007, "original_language": "fi", "original_title": "Haarautuvan rakkauden talo", "overview": "A sort of \"Divorce Finnish Style,\" Mika Kaurism\u00e4ki's rambunctious comedy, The House of Branching Love , recounts the breakup of a thirty-something professional couple - Juhani, a family therapist, and his wife, Tuula, a successful business trainer.", "poster_path": "/y8au9fWMhLYPjXbXZwnqCFgvobu.jpg", "release_date": "2009-08-21", "title": "The House of Branching Love", "video": false, "vote_average": 6.4, "vote_count": 11, "popularity": 2.446}, {"adult": false, "backdrop_path": "/qjLLpGtY3n09WqHbdIZgvvu3scV.jpg", "genre_ids": [28, 80, 18], "id": 25335, "original_language": "fi", "original_title": "R\u00f6\u00f6peri", "overview": "In the mid-1960s, three small-time Finnish bootleggers seize control of their Helsinki neighborhood's black-market liquor business.", "poster_path": "/sx5yjvIvEs1Xc0m9oGJhfHYoqKi.jpg", "release_date": "2009-01-09", "title": "Hellsinki", "video": false, "vote_average": 6.4, "vote_count": 24, "popularity": 2.995}], "total_pages": 1, "total_results": 8}, "credits": {"cast": [{"cast_id": 1, "character": "Trampas", "credit_id": "52fe4a159251416c910c2a17", "gender": 2, "id": 148388, "name": "Kai Lehtinen", "order": 0, "profile_path": "/oxklvZQrtyzZOhUkDOJs70PCwZL.jpg"}, {"cast_id": 2, "character": "Lepsu", "credit_id": "52fe4a159251416c910c2a1b", "gender": 0, "id": 992848, "name": "Ari-Ky\u00f6sti Seppo", "order": 1, "profile_path": null}, {"cast_id": 3, "character": "Voitto Kiimalainen", "credit_id": "52fe4a159251416c910c2a1f", "gender": 2, "id": 143126, "name": "Oiva Lohtander", "order": 2, "profile_path": "/6fYUqwMonFZE6YnJlHEoo6QlDx9.jpg"}, {"cast_id": 4, "character": "Jusse", "credit_id": "52fe4a159251416c910c2a23", "gender": 2, "id": 226954, "name": "Alain Azerot", "order": 3, "profile_path": null}, {"cast_id": 5, "character": "S\u00f6ss\u00f6koski", "credit_id": "52fe4a159251416c910c2a27", "gender": 2, "id": 89511, "name": "Pekka Huotari", "order": 4, "profile_path": "/stXHvMH86HKPitqqiarKNnVGVxI.jpg"}, {"cast_id": 6, "character": "Marjaana", "credit_id": "52fe4a159251416c910c2a2b", "gender": 1, "id": 992851, "name": "Maarit Peltomaa", "order": 5, "profile_path": "/iQqQCBzI7Cjy3FJzhdbvzf9ltmk.jpg"}, {"cast_id": 7, "character": "Jaakkola", "credit_id": "52fe4a159251416c910c2a2f", "gender": 2, "id": 148393, "name": "Juha Muje", "order": 6, "profile_path": "/4KKlvA5k5hGk6bHfZ4MSU935mYb.jpg"}, {"cast_id": 22, "character": "Sisko", "credit_id": "5c494a340e0a26494fce4398", "gender": 1, "id": 1934996, "name": "Mira Kivil\u00e4", "order": 7, "profile_path": null}, {"cast_id": 23, "character": "Paula", "credit_id": "5c494a3dc3a368477a8ac149", "gender": 0, "id": 1207779, "name": "Mia Raski", "order": 8, "profile_path": null}, {"cast_id": 24, "character": "Tarjoilija", "credit_id": "5c494a469251410e225521f3", "gender": 0, "id": 1207788, "name": "Heikki M\u00e4\u00e4tt\u00e4nen", "order": 9, "profile_path": null}, {"cast_id": 25, "character": "Kiimalaisen vaimo", "credit_id": "5c494a500e0a264962ce4fc2", "gender": 0, "id": 143131, "name": "Tuula Nyman", "order": 10, "profile_path": null}, {"cast_id": 26, "character": "Lyyti Porstua", "credit_id": "5c494a5a9251410e245563c8", "gender": 0, "id": 2225101, "name": "Aino Lehtim\u00e4ki", "order": 11, "profile_path": null}, {"cast_id": 27, "character": "Mies ruokamarketissa", "credit_id": "5c494a64c3a3686634869d37", "gender": 0, "id": 124291, "name": "Markku Maalismaa", "order": 12, "profile_path": null}, {"cast_id": 28, "character": "Kauppias V\u00e4h\u00e4-K\u00e4\u00e4kk\u00f6nen", "credit_id": "5c494a6fc3a368576a898f65", "gender": 2, "id": 1034493, "name": "Risto Aaltonen", "order": 13, "profile_path": null}, {"cast_id": 29, "character": "Rekkakuski", "credit_id": "5c494a799251410e22552224", "gender": 2, "id": 148385, "name": "Risto Salmi", "order": 14, "profile_path": "/boLLMMbKXtCpnhuymDUzV6iYCr0.jpg"}, {"cast_id": 30, "character": "Vanha Ollikainen", "credit_id": "5c494a830e0a264965ce4c3e", "gender": 2, "id": 1121477, "name": "Helge Herala", "order": 15, "profile_path": "/dKk5R8SRXE93x0szwpziaGGQfUn.jpg"}, {"cast_id": 31, "character": "Ollikainen", "credit_id": "5c494a8c0e0a26494fce43d2", "gender": 2, "id": 93004, "name": "Tommi Korpela", "order": 16, "profile_path": "/iGJ7vZCvYOBqmU2lXioSNj7jA9m.jpg"}, {"cast_id": 32, "character": "Allu", "credit_id": "5c494a9492514151a94fea29", "gender": 2, "id": 234126, "name": "Jari Pehkonen", "order": 17, "profile_path": null}, {"cast_id": 33, "character": "Pankkineiti", "credit_id": "5c494a9ec3a368478c8a8e75", "gender": 0, "id": 89516, "name": "Minna Koskela", "order": 18, "profile_path": null}, {"cast_id": 34, "character": "Mies kapakassa (uncredited)", "credit_id": "5c494aab0e0a26494dcdcb9c", "gender": 0, "id": 70470, "name": "J. Christoffer Slotte", "order": 19, "profile_path": null}], "crew": [{"credit_id": "52fe4a159251416c910c2a3b", "department": "Writing", "gender": 0, "id": 992854, "job": "Writer", "name": "Juha Karikoski", "profile_path": null}, {"credit_id": "5885fa4c925141323400856e", "department": "Writing", "gender": 2, "id": 992856, "job": "Novel", "name": "Jari Tervo", "profile_path": "/zRsWYDjzDrFovCgbO6kXAXVEYG4.jpg"}, {"credit_id": "535f5f36c3a3682273002807", "department": "Directing", "gender": 2, "id": 992858, "job": "Director", "name": "Tapio Piirainen", "profile_path": null}, {"credit_id": "5c4949f592514154484fe38f", "department": "Editing", "gender": 2, "id": 992858, "job": "Editor", "name": "Tapio Piirainen", "profile_path": null}, {"credit_id": "52fe4a159251416c910c2a47", "department": "Writing", "gender": 2, "id": 992858, "job": "Writer", "name": "Tapio Piirainen", "profile_path": null}, {"credit_id": "5c4949da0e0a264962ce4efe", "department": "Production", "gender": 0, "id": 1065700, "job": "Producer", "name": "Kari Kyr\u00f6nsepp\u00e4", "profile_path": null}, {"credit_id": "5c4949e20e0a26494fce4318", "department": "Sound", "gender": 0, "id": 2225096, "job": "Music", "name": "Pekka Marjanen", "profile_path": null}, {"credit_id": "5c4949eb92514151a94fe970", "department": "Camera", "gender": 0, "id": 2225097, "job": "Director of Photography", "name": "Raimo Heikkonen", "profile_path": null}, {"credit_id": "5c4949ffc3a36847828a6177", "department": "Art", "gender": 0, "id": 2225098, "job": "Art Direction", "name": "Lea Sipil\u00e4", "profile_path": null}, {"credit_id": "5c494a0892514151a94fe997", "department": "Costume & Make-Up", "gender": 0, "id": 2225099, "job": "Costume Design", "name": "Pentti Tillder", "profile_path": null}, {"credit_id": "5c494a12c3a36847778a5f92", "department": "Costume & Make-Up", "gender": 0, "id": 2225100, "job": "Makeup Artist", "name": "Kirsi Heinonen", "profile_path": null}]}}