{"adult": false, "backdrop_path": "/1PkjTNk3F8jrzBDynktVcR7smxw.jpg", "belongs_to_collection": null, "budget": 0, "genres": [{"id": 18, "name": "Drama"}], "homepage": null, "id": 89571, "imdb_id": "tt0083947", "original_language": "en", "original_title": "Five Days One Summer", "overview": "A 1930s Scottish doctor (Sean Connery) goes climbing in the Alps with an infatuated niece (Betsy Brantley) he passes off as his wife.", "popularity": 3.557, "poster_path": "/pAu8cdw7QExCFE6lpw0XPNk7FLA.jpg", "production_companies": [{"id": 7965, "logo_path": null, "name": "The Ladd Company", "origin_country": "US"}, {"id": 31235, "logo_path": null, "name": "Cable and Wireless Finance", "origin_country": ""}], "production_countries": [{"iso_3166_1": "US", "name": "United States of America"}], "release_date": "1982-11-12", "revenue": 0, "runtime": 96, "spoken_languages": [{"iso_639_1": "en", "name": "English"}], "status": "Released", "tagline": "An obsession, a love, a memory.", "title": "Five Days One Summer", "video": false, "vote_average": 6.0, "vote_count": 6, "keywords": {"keywords": [{"id": 160175, "name": "alps"}, {"id": 160176, "name": "swiss alps"}, {"id": 160177, "name": "mountaineering"}]}, "similar": {"page": 1, "results": [{"adult": false, "backdrop_path": "/xdLTJSjRU2c001amJwj3yNtsp1i.jpg", "genre_ids": [12, 18, 28], "id": 253412, "original_language": "en", "original_title": "Everest", "overview": "Inspired by the incredible events surrounding a treacherous attempt to reach the summit of the world's highest mountain, \"Everest\" documents the awe-inspiring journey of two different expeditions challenged beyond their limits by one of the fiercest snowstorms ever encountered by mankind. Their mettle tested by the harshest of elements found on the planet, the climbers will face nearly impossible obstacles as a lifelong obsession becomes a breathtaking struggle for survival.", "poster_path": "/t3ELL46AnqjS9djz1vEVh4MpKv0.jpg", "release_date": "2015-09-10", "title": "Everest", "video": false, "vote_average": 6.8, "vote_count": 3118, "popularity": 20.738}, {"id": 11678, "video": false, "vote_count": 550, "vote_average": 6.0, "title": "Vertical Limit", "release_date": "2000-12-08", "original_language": "en", "original_title": "Vertical Limit", "genre_ids": [28, 12, 53], "backdrop_path": "/jCpaC069FnQJJd9q6Jw8K1dHN6s.jpg", "adult": false, "overview": "Trapped near the summit of K2, the world's second-highest mountain, Annie Garrett radios to base camp for help. Brother Peter hears Annie's message and assembles a team to save her and her group before they succumb to K2's unforgiving elements. But, as Annie lays injured in an icy cavern, the rescuers face several terrifying events that could end the rescue attempt -- and their lives.", "poster_path": "/8AJXlbf29XIvMjwFvZ6zjMUvNvL.jpg", "popularity": 15.77}, {"adult": false, "backdrop_path": "/aQDjGrbD2YnBTq79mlJ4sVp8NLw.jpg", "genre_ids": [12, 18, 28, 36, 53], "id": 16436, "original_language": "de", "original_title": "Nordwand", "overview": "North Face tells the story of two German climbers Toni Kurz and Andreas Hinterstoisser and their attempt to scale the deadly North Face of the Eiger.", "poster_path": "/2gLak3Vo9VaoozwItLXZt2Elh68.jpg", "release_date": "2008-10-23", "title": "North Face", "video": false, "vote_average": 7.4, "vote_count": 147, "popularity": 9.473}, {"adult": false, "backdrop_path": "/ncEJzSUJrFEW1dcS8bJyy11O8rm.jpg", "genre_ids": [12, 99], "id": 318279, "original_language": "en", "original_title": "Meru", "overview": "Meru is the electrifying story of three elite American climbers\u2014Conrad Anker, Jimmy Chin, and Renan Ozturk\u2014bent on achieving the impossible.", "poster_path": "/ibDApPTfqYpiAk3W3Z98bhARsu7.jpg", "release_date": "2015-01-25", "title": "Meru", "video": false, "vote_average": 7.5, "vote_count": 132, "popularity": 11.896}, {"id": 11046, "video": false, "vote_count": 433, "vote_average": 7.6, "title": "Where Eagles Dare", "release_date": "1968-12-04", "original_language": "en", "original_title": "Where Eagles Dare", "genre_ids": [28, 12, 18, 36, 10752], "backdrop_path": "/aAFq5jVHV6RZpLcRXATskNBuEbM.jpg", "adult": false, "overview": "World War II is raging, and an American general has been captured and is being held hostage in the Schloss Adler, a Bavarian castle that's nearly impossible to breach. It's up to a group of skilled Allied soldiers to liberate the general before it's too late.", "poster_path": "/991u0tSWGTVXCYkgC6ftaGE4bkQ.jpg", "popularity": 16.468}, {"id": 44115, "video": false, "vote_count": 4926, "vote_average": 7.0, "title": "127 Hours", "release_date": "2010-11-05", "original_language": "en", "original_title": "127 Hours", "genre_ids": [12, 18, 53], "backdrop_path": "/eHUoB8NbvrvKp7KQMNgvc7yLpzM.jpg", "adult": false, "overview": "The true story of mountain climber Aron Ralston's remarkable adventure to save himself after a fallen boulder crashes on his arm and traps him in an isolated canyon in Utah.", "poster_path": "/c6Nu7UjhGCQtV16WXabqOQfikK6.jpg", "popularity": 19.039}, {"adult": false, "backdrop_path": "/nb70B4EXuoegiQ0C5N1fNVHIaYc.jpg", "genre_ids": [12, 18, 36, 53, 10752], "id": 5925, "original_language": "en", "original_title": "The Great Escape", "overview": "The Nazis, exasperated at the number of escapes from their prison camps by a relatively small number of Allied prisoners, relocates them to a high-security 'escape-proof' camp to sit out the remainder of the war. Undaunted, the prisoners plan one of the most ambitious escape attempts of World War II. Based on a true story.", "poster_path": "/qhy4HgUqhEbwQ1ekKTv7yEB3b0e.jpg", "release_date": "1963-06-20", "title": "The Great Escape", "video": false, "vote_average": 8.0, "vote_count": 1358, "popularity": 17.61}, {"adult": false, "backdrop_path": "/2J283YNxKhxAqHeVegUJ5mzLfGb.jpg", "genre_ids": [80, 18, 9648], "id": 392044, "original_language": "en", "original_title": "Murder on the Orient Express", "overview": "Genius Belgian detective Hercule Poirot investigates the murder of an American tycoon aboard the Orient Express train.", "poster_path": "/iBlfxlw8qwtUS0R8YjIU7JtM6LM.jpg", "release_date": "2017-11-03", "title": "Murder on the Orient Express", "video": false, "vote_average": 6.7, "vote_count": 6044, "popularity": 24.868}, {"id": 431580, "video": false, "vote_count": 407, "vote_average": 7.0, "title": "Abominable", "release_date": "2019-09-19", "original_language": "en", "original_title": "Abominable", "genre_ids": [12, 16, 35, 10751], "backdrop_path": "/tLCDKsXo6D84IVFanoElosSEKdp.jpg", "adult": false, "overview": "A group of misfits encounter a young Yeti named Everest, and they set off to reunite the magical creature with his family on the mountain of his namesake.", "poster_path": "/20djTLqppfBx5WYA67Y300S6aPD.jpg", "popularity": 36.495}, {"id": 365045, "video": false, "vote_count": 216, "vote_average": 7.1, "title": "Heidi", "release_date": "2015-12-10", "original_language": "de", "original_title": "Heidi", "genre_ids": [12, 10751], "backdrop_path": "/rhoMsU9RSmj3L0H1udhsSqrCck7.jpg", "adult": false, "overview": "Heidi, is an eight-year-old Swiss orphan who is given by her aunt to her mountain-dwelling grandfather. She is then stolen back by her aunt from her grandfather to live in the wealthy Sesemann household in Frankfurt, Germany as a companion to Klara, a sheltered, disabled girl in a wheelchair. Heidi is unhappy but makes the best of the situation, always longing for her grandfather.", "poster_path": "/lCSyFU5kp8LzruC5dwo7ce0fskT.jpg", "popularity": 11.904}, {"id": 668, "video": false, "vote_count": 896, "vote_average": 6.5, "title": "On Her Majesty's Secret Service", "release_date": "1969-12-12", "original_language": "en", "original_title": "On Her Majesty's Secret Service", "genre_ids": [28, 12, 53], "backdrop_path": "/o71ywQSmQ1hNPSLKJuCMyDTrL7K.jpg", "adult": false, "overview": "James Bond tracks his archnemesis, Ernst Blofeld, to a mountaintop retreat where he is training an army of beautiful, lethal women. Along the way, Bond falls for Italian contessa Tracy Draco, and marries her in order to get closer to Blofeld.", "poster_path": "/7mcqT56ES5U3wg26vQQuEnOaFSj.jpg", "popularity": 23.392}, {"adult": false, "backdrop_path": "/2V6bkuowuQaIULx1KkkoN7AwHDc.jpg", "genre_ids": [12, 18], "id": 94658, "original_language": "de", "original_title": "Der heilige Berg", "overview": "Leni Riefenstahl made her film debut in this \"mountain film\" by writer/director Arnold Fanck, and went on to appear in five more under his direction. In Der Heilige Berg she plays the professional dancer Diotima who finds herself the apex of a love triangle when she is pursued by two mountain climbers, Vigo (Ernst Petersen) and his unnamed older friend (Luis Trenker).", "poster_path": "/wcfuFS03OP5x1TASejMP05nQ84O.jpg", "release_date": "1926-11-01", "title": "The Holy Mountain", "video": false, "vote_average": 7.1, "vote_count": 9, "popularity": 4.008}, {"id": 9392, "video": false, "vote_count": 2084, "vote_average": 6.9, "title": "The Descent", "release_date": "2005-07-08", "original_language": "en", "original_title": "The Descent", "genre_ids": [12, 27], "backdrop_path": "/yiJonnQUW5luTsQy2KuUuOZqtjM.jpg", "adult": false, "overview": "After a tragic accident, six friends reunite for a caving expedition. Their adventure soon goes horribly wrong when a collapse traps them deep underground and they find themselves pursued by bloodthirsty creatures. As their friendships deteriorate, they find themselves in a desperate struggle to survive the creatures and each other.", "poster_path": "/ldzNyitGjBLjjOzLTaQyYDMVDF1.jpg", "popularity": 14.379}, {"id": 458, "video": false, "vote_count": 211, "vote_average": 7.2, "title": "Sissi: The Young Empress", "release_date": "1956-12-01", "original_language": "de", "original_title": "Sissi - Die junge Kaiserin", "genre_ids": [35, 18, 10749], "backdrop_path": "/4SPSm58I1fp2HmMRUZHgUgC8XS1.jpg", "adult": false, "overview": "Sissi is now the empress of Austria and attempts to learn etiquette. While she is busy being empress she also has to deal with her difficult new mother-in-law, while the arch-duchess Sophie is trying to tell the emperor how to rule and also Sissi how to be a mother.", "poster_path": "/xXD0HpgGzJejnjCCGAWd7Lpmg90.jpg", "popularity": 12.67}, {"adult": false, "backdrop_path": "/A7ovlrws4B7lXvkcC9iSRkypX02.jpg", "genre_ids": [27, 9648, 878, 53], "id": 340837, "original_language": "en", "original_title": "A Cure for Wellness", "overview": "An ambitious young executive is sent to retrieve his company's CEO from an idyllic but mysterious \"wellness center\" at a remote location in the Swiss Alps but soon suspects that the spa's miraculous treatments are not what they seem.", "poster_path": "/d4fXuJS3zZcAZfz2HYDtnwqtnwn.jpg", "release_date": "2017-02-15", "title": "A Cure for Wellness", "video": false, "vote_average": 6.2, "vote_count": 2310, "popularity": 16.556}, {"id": 15121, "video": false, "vote_count": 1851, "vote_average": 7.6, "title": "The Sound of Music", "release_date": "1965-03-02", "original_language": "en", "original_title": "The Sound of Music", "genre_ids": [18, 10402, 10749, 10751], "backdrop_path": "/iklnzA0qoNQbkusQAU90H99D6Ya.jpg", "adult": false, "overview": "A tomboyish postulant at an Austrian abbey becomes a governess in the home of a widowed naval captain with seven children, and brings a new love of life and music into the home.", "poster_path": "/abrreLo3zL2mvQEMbVIJJKZ2SxX.jpg", "popularity": 17.611}, {"adult": false, "backdrop_path": "/dvDRijp6EQhGRPFNym4WCINtW73.jpg", "genre_ids": [35, 9648, 10749, 53], "id": 4808, "original_language": "en", "original_title": "Charade", "overview": "After Regina Lampert falls for the dashing Peter Joshua on a skiing holiday in the French Alps, she discovers upon her return to Paris that her husband has been murdered. Soon, she and Peter are giving chase to three of her late husband's World War II cronies, Tex, Scobie and Gideon, who are after a quarter of a million dollars the quartet stole while behind enemy lines. But why does Peter keep changing his name?", "poster_path": "/dylvMaUZ1HQvYvVocfiKb5OovOc.jpg", "release_date": "1963-12-05", "title": "Charade", "video": false, "vote_average": 7.7, "vote_count": 633, "popularity": 13.25}, {"adult": false, "backdrop_path": "/oXj7C4IuTTtA2iR7hCYtGRy0BS1.jpg", "genre_ids": [12, 35, 18], "id": 232572, "original_language": "en", "original_title": "A Walk in the Woods", "overview": "After spending two decades in England, Bill Bryson returns to the U.S., where he decides the best way to connect with his homeland is to hike the Appalachian Trail with one of his oldest friends.", "poster_path": "/ksn8DLsROK4V542Zex9X6AmZL3A.jpg", "release_date": "2015-09-02", "title": "A Walk in the Woods", "video": false, "vote_average": 6.0, "vote_count": 434, "popularity": 14.213}, {"adult": false, "backdrop_path": "/fFOc75GSXsWzMKoekBMK4cu2kPY.jpg", "genre_ids": [12, 878], "id": 455839, "original_language": "en", "original_title": "Time Trap", "overview": "A group of students become trapped inside a mysterious cave where they discover time passes differently underground than on the surface.", "poster_path": "/3qIBGXM6oXOu3wBYH6QpamXdXuB.jpg", "release_date": "2017-05-19", "title": "Time Trap", "video": false, "vote_average": 6.2, "vote_count": 114, "popularity": 11.982}, {"id": 9350, "video": false, "vote_count": 1186, "vote_average": 6.3, "title": "Cliffhanger", "release_date": "1993-05-28", "original_language": "en", "original_title": "Cliffhanger", "genre_ids": [28, 12, 53], "backdrop_path": "/4h1QFFBl9BIZIYBmpG6okoCqQpm.jpg", "adult": false, "overview": "A year after losing his friend in a tragic 4,000-foot fall, former ranger Gabe Walker and his partner, Hal, are called to return to the same peak to rescue a group of stranded climbers, only to learn the climbers are actually thieving hijackers who are looking for boxes full of money.", "poster_path": "/8XefYka77ypAnPJvaVlfUGBBs4a.jpg", "popularity": 17.615}], "total_pages": 23, "total_results": 452}, "recommendations": {"page": 1, "results": [], "total_pages": 1, "total_results": 0}, "credits": {"cast": [{"cast_id": 2, "character": "Douglas Meredith", "credit_id": "52fe4a209251416c910c429d", "gender": 2, "id": 738, "name": "Sean Connery", "order": 0, "profile_path": "/ce84udJZ9QRSR44jxwK2apM3DM8.jpg"}, {"cast_id": 3, "character": "Kate", "credit_id": "52fe4a209251416c910c42a1", "gender": 1, "id": 12831, "name": "Betsy Brantley", "order": 1, "profile_path": "/sAJuozmEy1eoD84yeHPdCu50c3p.jpg"}, {"cast_id": 4, "character": "Johann Biari", "credit_id": "52fe4a209251416c910c42a5", "gender": 2, "id": 2192, "name": "Lambert Wilson", "order": 2, "profile_path": "/jFkr2kuFfpzS1plfOlNJ6kURV6O.jpg"}, {"cast_id": 5, "character": "Sarah Meredith", "credit_id": "52fe4a209251416c910c42a9", "gender": 1, "id": 192861, "name": "Jennifer Hilary", "order": 3, "profile_path": "/rt0XsT6C72wz71z97QjDta0G2Lu.jpg"}, {"cast_id": 6, "character": "Kate's Mother", "credit_id": "52fe4a209251416c910c42ad", "gender": 1, "id": 132719, "name": "Isabel Dean", "order": 4, "profile_path": "/b5OnyOCs09dv47LYkxW3L9AlE5v.jpg"}, {"cast_id": 7, "character": "Brendel", "credit_id": "52fe4a209251416c910c42b1", "gender": 2, "id": 27443, "name": "G\u00e9rard Buhr", "order": 5, "profile_path": "/wypCMZyhcrddkOxJkjVhoRGQTVt.jpg"}], "crew": [{"credit_id": "5c64933a9251412fbfff0c11", "department": "Production", "gender": 1, "id": 668, "job": "Casting", "name": "Mary Selway", "profile_path": "/9dP8WP2KF9TERPLQkaXDwzi3Tjc.jpg"}, {"credit_id": "5c6493729251412fbfff0c20", "department": "Art", "gender": 0, "id": 2190, "job": "Art Direction", "name": "G\u00e9rard Viard", "profile_path": null}, {"credit_id": "5c6492e29251412fc4fefcac", "department": "Editing", "gender": 2, "id": 2523, "job": "Editor", "name": "Stuart Baird", "profile_path": "/k7nLNZ0MYsPrKq5T3ZV7m9zwEGY.jpg"}, {"credit_id": "52fe4a209251416c910c4299", "department": "Directing", "gender": 2, "id": 4065, "job": "Director", "name": "Fred Zinnemann", "profile_path": "/w29Qt8Jc7pZd6jAX3901Y2V8yxQ.jpg"}, {"credit_id": "5c6492f0c3a368349fd5fa13", "department": "Production", "gender": 2, "id": 4065, "job": "Producer", "name": "Fred Zinnemann", "profile_path": "/w29Qt8Jc7pZd6jAX3901Y2V8yxQ.jpg"}, {"credit_id": "5c6493159251412fc4fefcb7", "department": "Sound", "gender": 2, "id": 7182, "job": "Music", "name": "Elmer Bernstein", "profile_path": "/fvFh7cgoR1ArwWo3t3DIRgbMjxT.jpg"}, {"credit_id": "5c64938b0e0a262fa196d509", "department": "Costume & Make-Up", "gender": 1, "id": 10198, "job": "Costume Design", "name": "Emma Porteous", "profile_path": null}, {"credit_id": "5c6493a19251417aa2fb5d6b", "department": "Costume & Make-Up", "gender": 2, "id": 10199, "job": "Makeup Artist", "name": "Peter Robb-King", "profile_path": null}, {"credit_id": "5c64932b0e0a266dac9a4f9b", "department": "Production", "gender": 1, "id": 10471, "job": "Casting", "name": "Margot Capelier", "profile_path": null}, {"credit_id": "5c64934ec3a3684fabda4cd3", "department": "Art", "gender": 0, "id": 10711, "job": "Art Direction", "name": "Kathrin Brunner", "profile_path": null}, {"credit_id": "5c6493979251417df4fb7eac", "department": "Costume & Make-Up", "gender": 0, "id": 14748, "job": "Makeup Supervisor", "name": "George Frost", "profile_path": null}, {"credit_id": "5c64931d0e0a26562796d9c9", "department": "Crew", "gender": 2, "id": 15131, "job": "Cinematography", "name": "Giuseppe Rotunno", "profile_path": "/g983MStUH43ah1clMdObvegANEj.jpg"}, {"credit_id": "5c649344c3a368745eda4bf5", "department": "Art", "gender": 0, "id": 19057, "job": "Production Design", "name": "Willy Holt", "profile_path": "/AqWmt5d4xeQoNhvjLuZENxCtf2R.jpg"}, {"credit_id": "5c6493570e0a262fa196d4d1", "department": "Art", "gender": 0, "id": 26872, "job": "Art Direction", "name": "Robert Cartwright", "profile_path": null}, {"credit_id": "5c64935fc3a3684f97da28c4", "department": "Art", "gender": 0, "id": 35836, "job": "Art Direction", "name": "Marc Fr\u00e9d\u00e9rix", "profile_path": null}, {"credit_id": "53ff5083c3a3684372000062", "department": "Writing", "gender": 0, "id": 67756, "job": "Writer", "name": "Michael Austin", "profile_path": null}, {"credit_id": "5c64930c0e0a26562796d9bb", "department": "Writing", "gender": 0, "id": 1357735, "job": "Short Story", "name": "Kay Boyle", "profile_path": null}, {"credit_id": "5c6493ab0e0a262fa196d542", "department": "Costume & Make-Up", "gender": 0, "id": 1529315, "job": "Special Effects Makeup Artist", "name": "Christopher Tucker", "profile_path": null}, {"credit_id": "5c6493699251417df4fb7e32", "department": "Art", "gender": 0, "id": 1652088, "job": "Art Direction", "name": "Don Dossett", "profile_path": null}, {"credit_id": "5c6492fd0e0a2625d196dece", "department": "Production", "gender": 0, "id": 1746809, "job": "Executive Producer", "name": "Peter Beale", "profile_path": null}, {"credit_id": "5c6493319251412fc4fefcc3", "department": "Production", "gender": 0, "id": 1837796, "job": "Casting", "name": "Anna Korda", "profile_path": null}, {"credit_id": "5c64937fc3a3681b7cda8ee4", "department": "Art", "gender": 0, "id": 2241928, "job": "Set Decoration", "name": "Daniel Nicolas Garbade", "profile_path": null}]}}