{"adult": false, "backdrop_path": "/8YeJg5wajGctJdBXa1FUBusZfZe.jpg", "belongs_to_collection": null, "budget": 0, "genres": [{"id": 53, "name": "Thriller"}], "homepage": null, "id": 89587, "imdb_id": "tt0382205", "original_language": "de", "original_title": "Occhi di cristallo", "overview": "While hunting a cultured, intelligent and vicious psychopath, Inspector Amaldi comes face to face with the physical and moral decay of his city as well as the ghosts of his own past.", "popularity": 2.653, "poster_path": "/g9SPDTrvDz46DOT8Qg3pRppOU9W.jpg", "production_companies": [{"id": 10102, "logo_path": "/b0g4aEM39p0PwbIiaU1Cg3ZZUAq.png", "name": "Cattleya", "origin_country": "IT"}], "production_countries": [{"iso_3166_1": "IT", "name": "Italy"}], "release_date": "2004-11-26", "revenue": 0, "runtime": 107, "spoken_languages": [{"iso_639_1": "it", "name": "Italiano"}], "status": "Released", "tagline": "", "title": "Eyes of Crystal", "video": false, "vote_average": 5.8, "vote_count": 23, "keywords": {"keywords": [{"id": 12570, "name": "whodunit"}]}, "similar": {"page": 1, "results": [{"adult": false, "backdrop_path": null, "genre_ids": [9648, 53, 27], "id": 29354, "original_language": "it", "original_title": "Il vizio ha le calze nere", "overview": "A woman dressed in black is murdering young women. The police question lawyer Anselmi for whom one of the girls worked as a secretary, and it turns out that all the victims were friends of lawyer's wife Leonora.", "poster_path": "/s2rGfrZomvJNAbIWQ3hPLWjwOTw.jpg", "release_date": "1975-10-03", "title": "Reflections in Black", "video": false, "vote_average": 6.1, "vote_count": 5, "popularity": 1.141}, {"id": 39436, "video": false, "vote_count": 106, "vote_average": 6.3, "title": "Sleepless", "release_date": "2001-01-05", "original_language": "it", "original_title": "Non ho sonno", "genre_ids": [80, 27, 9648, 53], "backdrop_path": "/vyXM2gMBPpTUsRF3XFp8LobErnF.jpg", "adult": false, "overview": "An elderly and retired police detective and a young amateur sleuth team up to find a serial killer whom has resumed a killing spree in Turin, Italy after a 17-year hiatus.", "poster_path": "/dw5g6gQgo0YPv94uo9MQxG73sZh.jpg", "popularity": 6.504}, {"id": 31624, "video": false, "vote_count": 68, "vote_average": 6.8, "title": "Torso", "release_date": "1973-01-04", "original_language": "it", "original_title": "I corpi presentano tracce di violenza carnale", "genre_ids": [27, 9648, 53], "backdrop_path": "/7NmmFxqxYoVqpX7zkUQt56bexqN.jpg", "adult": false, "overview": "A series of sex murders shock a college campus, and four beautiful young girlfriends head for the safety of an isolated country villa. But as they succumb to their own erotic desires, their weekend of pleasure becomes a vacation to dismember at the hands - and blade - of the lecherous maniac.", "poster_path": "/xDQUXVzCbOEJm485GTc5HbUvRz3.jpg", "popularity": 6.515}, {"id": 91256, "video": false, "vote_count": 11, "vote_average": 5.5, "title": "The Sister of Ursula", "release_date": "1978-10-18", "original_language": "it", "original_title": "La sorella di Ursula", "genre_ids": [18, 27, 53], "backdrop_path": "/c9oQNEZ2hKtI3ndx3GVZw9CMa6q.jpg", "adult": false, "overview": "While searching for their estranged mother, two beautiful sisters, Dagmar and Ursula, arrive at a luxurious seaside hotel. At the same time, a mysterious killer starts murdering promiscuous women in the area.", "poster_path": "/iIvZxR9okIOmXiDoeFZgeihaz9g.jpg", "popularity": 3.322}, {"adult": false, "backdrop_path": "/4GxUChvf9XxKIniwWOD6kw9ZF5.jpg", "genre_ids": [27, 9648, 53], "id": 40130, "original_language": "it", "original_title": "La dama rossa uccide sette volte", "overview": "In the film, an age-old family curse hits sisters Kitty and Franziska following the death of their grandfather Tobias.  Every hundred years, the legend goes, the bloodthirsty Red Queen returns and claims seven fresh victims.  Was Tobias just the first... and are Kitty and Franziska next?", "poster_path": "/q2ar65sjFsC8jhHCWeiY1YbSb3m.jpg", "release_date": "1972-08-18", "title": "The Red Queen Kills Seven Times", "video": false, "vote_average": 7.0, "vote_count": 33, "popularity": 3.704}, {"adult": false, "backdrop_path": "/4L1MSZo8dQ20x4AhBDKfDs1cOjs.jpg", "genre_ids": [27, 53], "id": 9728, "original_language": "en", "original_title": "Friday the 13th Part III", "overview": "An idyllic summer turns into a nightmare of unspeakable terror for yet another group of naive counselors. Ignoring Camp Crystal Lake's bloody legacy, one by one they fall victim to the maniacal Jason who stalks them at every turn.", "poster_path": "/5wg2NZyIhcMbIBAahBODXHyJ54S.jpg", "release_date": "1982-08-13", "title": "Friday the 13th Part III", "video": false, "vote_average": 5.8, "vote_count": 634, "popularity": 15.501}, {"id": 1949, "video": false, "vote_count": 5165, "vote_average": 7.5, "title": "Zodiac", "release_date": "2007-03-02", "original_language": "en", "original_title": "Zodiac", "genre_ids": [80, 18, 9648, 53], "backdrop_path": "/jP2htGBHE7vKq4MLeC75UeC0sZH.jpg", "adult": false, "overview": "The true story of the investigation of the \"Zodiac Killer\", a serial killer who terrified the San Francisco Bay Area, taunting police with his ciphers and letters. The case becomes an obsession for three men as their lives and careers are built and destroyed by the endless trail of clues.", "poster_path": "/bgLyOROfFQI3FqYL7jQbiaV8lkN.jpg", "popularity": 24.455}, {"id": 181283, "video": false, "vote_count": 988, "vote_average": 6.2, "title": "Child 44", "release_date": "2015-03-15", "original_language": "en", "original_title": "Child 44", "genre_ids": [80, 53], "backdrop_path": "/A2WK7mdiKHaxgE4hRyKuDIM4KGg.jpg", "adult": false, "overview": "Set in Stalin-era Soviet Union, a disgraced MGB agent is dispatched to investigate a series of child murders -- a case that begins to connect with the very top of party leadership.", "poster_path": "/nzXwfnBcsmREzHlem6fkStN1RUH.jpg", "popularity": 17.414}, {"adult": false, "backdrop_path": "/o4psXh7IVD6GFKvBSHjHLzjL2lV.jpg", "genre_ids": [27, 53], "id": 10781, "original_language": "en", "original_title": "The Texas Chainsaw Massacre: The Beginning", "overview": "Chrissie and her friends set out on a road trip for a final fling before one is shipped off to Vietnam. Along the way, bikers harass the foursome and cause an accident that throws Chrissie from the vehicle. The lawman who arrives on the scene kills one of the bikers and brings Chrissie's friends to the Hewitt homestead, where young Leatherface is learning the tools of terror.", "poster_path": "/9elCJIG1TOJ0wew3JVx5ZMkHq5w.jpg", "release_date": "2006-10-06", "title": "The Texas Chainsaw Massacre: The Beginning", "video": false, "vote_average": 6.0, "vote_count": 936, "popularity": 19.211}, {"adult": false, "backdrop_path": "/arcpWGGnUkGkakOwZo7xfPsaz7h.jpg", "genre_ids": [9648, 53], "id": 2832, "original_language": "en", "original_title": "Identity", "overview": "Complete strangers stranded at a remote desert motel during a raging storm soon find themselves the target of a deranged murderer. As their numbers thin out, the travelers begin to turn on each other, as each tries to figure out who the killer is.", "poster_path": "/xSNSp2wmCUwFavxdkMF417hBc39.jpg", "release_date": "2003-04-25", "title": "Identity", "video": false, "vote_average": 7.2, "vote_count": 2091, "popularity": 19.629}, {"adult": false, "backdrop_path": "/qqdVRlVCvVWdmSBYrEHwQuC3GBd.jpg", "genre_ids": [27, 53], "id": 371608, "original_language": "en", "original_title": "The Strangers: Prey at Night", "overview": "A family\u2019s road trip takes a dangerous turn when they arrive at a secluded mobile home park to stay with some relatives and find it mysteriously deserted. Under the cover of darkness, three masked psychopaths pay them a visit to test the family\u2019s every limit as they struggle to survive.", "poster_path": "/vdxLpPsZkPZdFrREp7eSeSzcimj.jpg", "release_date": "2018-03-07", "title": "The Strangers: Prey at Night", "video": false, "vote_average": 5.4, "vote_count": 758, "popularity": 16.815}, {"adult": false, "backdrop_path": "/oni8CXvEg56JhrfVdVUrQYOuhP0.jpg", "genre_ids": [80, 28, 53], "id": 55846, "original_language": "en", "original_title": "Blitz", "overview": "A tough, renegade cop with a gay sidekick is dispatched to take down a serial killer who has been targeting police officers.", "poster_path": "/woY0qY4DR6bPOQ7cBwyblePsYky.jpg", "release_date": "2011-05-20", "title": "Blitz", "video": false, "vote_average": 6.0, "vote_count": 862, "popularity": 18.232}, {"id": 10909, "video": false, "vote_count": 406, "vote_average": 6.7, "title": "Kalifornia", "release_date": "1993-09-01", "original_language": "en", "original_title": "Kalifornia", "genre_ids": [80, 53], "backdrop_path": "/ucfWS1l0mVHKOtgL8ew5Y10IZMM.jpg", "adult": false, "overview": "A journalist duo go on a tour of serial killer murder sites with two companions, unaware that one of them is a serial killer himself.", "poster_path": "/5MM64T2y1qrBchByhB4I8Vr7HY.jpg", "popularity": 11.623}, {"id": 8461, "video": false, "vote_count": 1137, "vote_average": 6.5, "title": "Funny Games", "release_date": "2007-10-20", "original_language": "en", "original_title": "Funny Games", "genre_ids": [80, 18, 27, 53], "backdrop_path": "/x0IvYeF88qYoKkigRjJ9CiyfY6b.jpg", "adult": false, "overview": "When Ann, husband George, and son Georgie arrive at their holiday home they are visited by a pair of polite and seemingly pleasant young men. Armed with deceptively sweet smiles and some golf clubs, they proceed to terrorize and torture the tight-knit clan, giving them until the next day to survive.", "poster_path": "/eyYqrggNEJpoqulbyaDBW2ABjwO.jpg", "popularity": 11.214}, {"id": 8090, "video": false, "vote_count": 448, "vote_average": 6.1, "title": "Untraceable", "release_date": "2008-01-22", "original_language": "en", "original_title": "Untraceable", "genre_ids": [9648, 53], "backdrop_path": "/eXuIPt9I1xuaVddlgzEQRC2EMnJ.jpg", "adult": false, "overview": "Special Agent Jennifer Marsh (Diane Lane) works in an elite division of the FBI dedicated to fighting cybercrime. She thinks she has seen it all, until a particularly sadistic criminal arises on the Internet. This tech-savvy killer posts live feeds of his crimes on his website; the more hits the site gets, the faster the victim dies. Marsh and her team must find the elusive killer before time runs out.", "poster_path": "/ySUwDRDEn01lKIMPQorpFCMLWqE.jpg", "popularity": 14.431}, {"adult": false, "backdrop_path": "/dQq32z4XmYIiK406tZhMhfxmnr.jpg", "genre_ids": [80, 53], "id": 158011, "original_language": "en", "original_title": "The Call", "overview": "Jordan Turner is an experienced 911 operator but when she makes an error in judgment and a call ends badly, Jordan is rattled and unsure if she can continue. But when teenager Casey Welson is abducted in the back of a man's car and calls 911, Jordan is the one called upon to use all of her experience, insights and quick thinking to help Casey escape, and not just to save her, but to make sure the man is brought to justice.", "poster_path": "/ekKVxnKeHEQiBznaEnj0VmK28bc.jpg", "release_date": "2013-03-14", "title": "The Call", "video": false, "vote_average": 6.7, "vote_count": 1918, "popularity": 12.863}, {"adult": false, "backdrop_path": "/xkmUSrBFYxzomsz5FLAPvxwMJr0.jpg", "genre_ids": [9648, 53, 80, 27], "id": 77029, "original_language": "it", "original_title": "La morte cammina con i tacchi alti", "overview": "Exotic dancer Nicole finds herself terrorized by a black-clad assailant determined on procuring her murdered father's stolen gems. Fleeing Paris in hopes of evading her knife-wielding pursuer, Nicole arrives in England only to discover that death stalks her at every corner.", "poster_path": "/107LxWmMYCh01Y7dYsWop7vBnx4.jpg", "release_date": "1971-11-19", "title": "Death Walks on High Heels", "video": false, "vote_average": 6.2, "vote_count": 20, "popularity": 2.372}, {"id": 369300, "video": false, "vote_count": 317, "vote_average": 6.0, "title": "The Limehouse Golem", "release_date": "2016-10-18", "original_language": "en", "original_title": "The Limehouse Golem", "genre_ids": [27, 9648, 53], "backdrop_path": "/jOsELWItMJOwqEXpUewV8zFH3eX.jpg", "adult": false, "overview": "A series of murders has shaken the community to the point where people believe that only a legendary creature from dark times \u2013 the mythical Golem \u2013 must be responsible.", "poster_path": "/u9NnEq4Be7hhwSvkNf6dOAD8ppi.jpg", "popularity": 13.502}, {"id": 470229, "video": false, "vote_count": 485, "vote_average": 6.7, "title": "Summer of 84", "release_date": "2018-08-10", "original_language": "en", "original_title": "Summer of 84", "genre_ids": [18, 27, 9648, 53], "backdrop_path": "/iEYDBciiuW68Q5bLCzkVBgKnfi7.jpg", "adult": false, "overview": "Summer is usually a time for fun and games, but some teens get much more danger than they bargained for after beginning to suspect their neighbor is a serial murderer.", "poster_path": "/qPitgXPCIFh23yCEjqnCZnfhBig.jpg", "popularity": 12.314}, {"adult": false, "backdrop_path": "/3TCPWrxQkfon82xPNtmpweOSVJc.jpg", "genre_ids": [18, 80, 9648, 10749, 53], "id": 12150, "original_language": "en", "original_title": "Sea of Love", "overview": "Seen-it-all New York detective Frank Keller is unsettled - he has done twenty years on the force and could retire, and he hasn't come to terms with his wife leaving him for a colleague. Joining up with an officer from another part of town to investigate a series of murders linked by the lonely hearts columns he finds he is getting seriously and possibly dangerously involved with Helen, one of the main suspects.", "poster_path": "/7DkkTHIX3hUqvsRv5sDmJAkCfKK.jpg", "release_date": "1989-09-15", "title": "Sea of Love", "video": false, "vote_average": 6.7, "vote_count": 290, "popularity": 10.636}], "total_pages": 216, "total_results": 4302}, "recommendations": {"page": 1, "results": [{"adult": false, "backdrop_path": "/m2TqWJoKAlIHqi8dxUQ1D1vzn1l.jpg", "genre_ids": [18, 10749], "id": 20724, "original_language": "it", "original_title": "La Vita Che Vorrei", "overview": "A relationship develops between seasoned actor Stefano and his young, ambitious co-star, Laura, when they are cast as the two leads in a film. Stefano must deal with his mounting jealousy when Laura's career begins to take off.", "poster_path": "/8d09nMEY4LYum5Sgizpd1qQaMe6.jpg", "release_date": "2004-10-01", "title": "The Life I Want", "video": false, "vote_average": 6.8, "vote_count": 7, "popularity": 1.33}, {"adult": false, "backdrop_path": "/z0TxakdnS2aahP97R571qD7cLik.jpg", "genre_ids": [18, 28, 53, 80, 9648], "id": 103299, "original_language": "en", "original_title": "Traces of Red", "overview": "Jack, a Palm Beach detective, becomes involved in a case of multiple murders. All the women can be linked to Jack in some way. Jack and his partner have no leads, but numerous suspects. The murders continue, along with anonymous letters from the killer.", "poster_path": "/2CAMutFQsJ659K8lB6YIqfGR7T3.jpg", "release_date": "1992-11-13", "title": "Traces of Red", "video": false, "vote_average": 6.0, "vote_count": 13, "popularity": 2.356}, {"adult": false, "backdrop_path": null, "genre_ids": [27, 80, 53], "id": 108079, "original_language": "it", "original_title": "Il mostro di Firenze", "overview": "A string of sex murders has been plaguing Florence for almost 15 years, in which a serial killer brutally murders couples who are sneaking \"a quickie\" in public areas. A writer who is doing research for a book about the crimes sets out to uncover the identity of the killer, aided by his beautiful girlfriend. Based on a true story.", "poster_path": "/pQhfFULnu0EiV2EvNMGAnCAqTuo.jpg", "release_date": "1986-04-09", "title": "The Monster of Florence", "video": false, "vote_average": 5.4, "vote_count": 7, "popularity": 2.63}, {"adult": false, "backdrop_path": "/A44ORrkOT2vdC20gC8UYlPHJCqT.jpg", "genre_ids": [35, 99], "id": 25048, "original_language": "en", "original_title": "Le Donk & Scor-zay-zee", "overview": "An improvised comedy, shot over five days by Shane Meadows, devised with and starring Paddy Considine. Rock roadie and failed musician, Le Donk has lived, loved and learned. Along the way he's lost a girlfriend but he has found a new sidekick in up-and-coming rap prodigy Scor-zay-zee. With Meadows' fly-on-the-wall crew in tow, Donk sets out to make Scor-zay-zee a star...", "poster_path": "/7Z8LRsK5lW3dYOVAev3NVpK0CGf.jpg", "release_date": "2009-10-09", "title": "Le Donk & Scor-zay-zee", "video": false, "vote_average": 5.5, "vote_count": 13, "popularity": 2.975}, {"adult": false, "backdrop_path": "/j1Ghvcd3fpiH8IsMdep5uAT03um.jpg", "genre_ids": [10770, 18], "id": 133557, "original_language": "en", "original_title": "The Girl", "overview": "Director Alfred Hitchcock is revered as one of the greatest creative minds in the history of cinema. Known for his psychological thrillers, Hitchcock\u2019s leading ladies were cool, beautiful and preferably blonde. One such actress was Tippi Hedren, an unknown fashion model given her big break when Hitchcock\u2019s wife saw her on a TV commercial. Brought to Universal Studios, Hedren was shocked when the director, at the peak of his career, quickly cast her to star in his next feature, 1963\u2019s The Birds. Little did Hedren know that as ambitious and terrifying as the production would be to shoot, the most daunting aspect of the film ended up coming from behind the camera.", "poster_path": "/3LKSvrDqOWGvbE3JPleBrQeo0jO.jpg", "release_date": "2012-10-22", "title": "The Girl", "video": false, "vote_average": 6.0, "vote_count": 55, "popularity": 6.154}, {"id": 48191, "video": false, "vote_count": 17, "vote_average": 7.4, "title": "Rubber's Lover", "release_date": "1996-09-28", "original_language": "ja", "original_title": "\u30e9\u30d0\u30fc\u30ba\u30fb\u30e9\u30d0\u30fc", "genre_ids": [27, 878], "backdrop_path": "/5Qg6vWKtQpun99pOQz0yzhpCcJa.jpg", "adult": false, "overview": "A powerful and secretive corporation is conducting underground psychic experiments utilizing Digital Direct Drive, otherwise known as DDD. While under the influence of the drug ether, the human subjects are outfitted in rubber suits and bombarded with DDD with extremely intense sound. Though the experiments are successful in unleashing psychic powers in the test subjects, the results are usually fatal. As a result, the corporation attempts to shut down the experiments against the wishes of Motomiya and Hitotsubashi who are in charge of the research. In a desperate attempt to salvage their work, the two researchers take over the lab and hold an innocent secretary hostage while they transform their fellow researcher into an ether addict and use him as the final human guinea pig for their experiments. The result has to be seen to be believed as his psychic powers are unleashed in a wave of ferocity that will leave you breathless.", "poster_path": "/geoHA5DJ5elNBGGhtqWbbNiO7o6.jpg", "popularity": 2.409}, {"adult": false, "backdrop_path": "/pmNfBya10deUmzRIcrkeVtTEAG1.jpg", "genre_ids": [18, 10749, 878], "id": 84643, "original_language": "en", "original_title": "Il raggio infernale", "overview": "Danger Death Ray, the funniest of the cheesy spy films that MST had fun with. Former Tarzan Gordon Scott sucks in his gut for this one. Professor Carmichael has developed a death ray \"for peaceful purposes only\" but a vague group of bad guys want it instead, so he's kidnapped by doughy guys and taken to their toy sub (via a toy helicopter)Bart Fargo must rescue him cause he's the only American spy who looks good in womanly sunglasses. Cool music accompanies him as he searches for Carmichael while he must deal with evil Abe Lincolns, a fey bad guy tuned friend of Fargo's and a couple of women who he must sleep with. In the end the ineffective bad guy gets killed, the professor and the death ray get rescued and Bart gets the woman. There's also a complex scene with a watch thrown in a pool which symbolizes the amount of time that was wasted on smart screen writing for the movie.", "poster_path": "/b1LHjeRiQXqjwYivGCZeMoNcN7j.jpg", "release_date": "1967-01-28", "title": "Danger!! Death Ray", "video": false, "vote_average": 2.8, "vote_count": 11, "popularity": 2.991}], "total_pages": 1, "total_results": 7}, "credits": {"cast": [{"cast_id": 1001, "character": "Amaldi", "credit_id": "52fe4a219251416c910c447b", "gender": 2, "id": 34491, "name": "Luigi Lo Cascio", "order": 0, "profile_path": "/8OLja0po5ViulvNaGcMwd9KbTx7.jpg"}, {"cast_id": 1002, "character": "Lucia", "credit_id": "52fe4a219251416c910c447f", "gender": 0, "id": 224982, "name": "Desislava Tenekedjieva", "order": 1, "profile_path": "/dbt9iuSJvWIRjrvFPeQrnnTknJU.jpg"}, {"cast_id": 1003, "character": "Ajaccio", "credit_id": "52fe4a219251416c910c4483", "gender": 2, "id": 24496, "name": "Sim\u00f3n Andreu", "order": 2, "profile_path": "/yLP9SQRjSxwqfmfXVDftEpDmDgs.jpg"}, {"cast_id": 1004, "character": "Frese", "credit_id": "545e1909c3a3685358005fb0", "gender": 0, "id": 16868, "name": "Jos\u00e9 \u00c1ngel Egido", "order": 3, "profile_path": "/l3ne3v9m2IeeEGykGZ9zVgPN6we.jpg"}, {"cast_id": 1007, "character": "Giuditta", "credit_id": "5872c3f59251410e65003368", "gender": 1, "id": 74942, "name": "Luc\u00eda Jim\u00e9nez", "order": 4, "profile_path": "/7Mmeor2AUpuw6pl6uQdX8M8YY4R.jpg"}], "crew": [{"credit_id": "52fe4a219251416c910c4477", "department": "Directing", "gender": 2, "id": 1014914, "job": "Director", "name": "Eros Puglielli", "profile_path": "/lA4sFsjAwa6VjgOGiubtnyIdcSh.jpg"}, {"credit_id": "5872c3509251410e73003164", "department": "Writing", "gender": 2, "id": 1014914, "job": "Writer", "name": "Eros Puglielli", "profile_path": "/lA4sFsjAwa6VjgOGiubtnyIdcSh.jpg"}, {"credit_id": "5872c3669251410e73003173", "department": "Writing", "gender": 2, "id": 4668, "job": "Writer", "name": "Franco Ferrini", "profile_path": "/7dd4eQdAD3Gd52jeEeW1TonotZi.jpg"}]}}