{"adult": false, "backdrop_path": "/esBsHmeBCjIc3HElmKs3KZfurqa.jpg", "belongs_to_collection": null, "budget": 0, "genres": [{"id": 35, "name": "Comedy"}, {"id": 18, "name": "Drama"}, {"id": 53, "name": "Thriller"}], "homepage": "", "id": 90079, "imdb_id": "tt0155671", "original_language": "en", "original_title": "Dirty O'Neil", "overview": "A police officer has very little work as there is virtually no crime in his small California town...until three hoodlums appear and rape a young woman.", "popularity": 1.397, "poster_path": "/AuJD09VJPeM9LcCcPHJMsbdpCMZ.jpg", "production_companies": [{"id": 18771, "logo_path": null, "name": "Metaphor Production", "origin_country": ""}], "production_countries": [{"iso_3166_1": "US", "name": "United States of America"}], "release_date": "1974-05-01", "revenue": 0, "runtime": 89, "spoken_languages": [{"iso_639_1": "en", "name": "English"}], "status": "Released", "tagline": "Women who make the kind of offer a Cop can't refuse! The public servant who serves ... and serves... and serves...", "title": "Dirty O'Neil", "video": false, "vote_average": 5.5, "vote_count": 2, "keywords": {"keywords": [{"id": 5572, "name": "fistfight"}, {"id": 11192, "name": "adult humor"}, {"id": 170827, "name": "sex comedy"}, {"id": 184352, "name": "rape and revenge"}]}, "similar": {"page": 1, "results": [{"adult": false, "backdrop_path": "/4AgJ8gbjyQ0xg4Q5wjZHu00HOn4.jpg", "genre_ids": [35], "id": 127746, "original_language": "it", "original_title": "La dottoressa ci sta col Colonnello", "overview": "Colonel Anacleto Punch, military doctor, falls in love with the beautiful and sensual South African Dr. Eve Russell, specializing in transplants. Thinking that his manhood is not adequate for the beautiful colleague, decides to do a transplant with the unsuspecting nurse prawn, that with women has always been successful. But the end result will not be as anticipated.", "poster_path": "/4FsXIBLdXcmuWAl9uHAcvN87lHR.jpg", "release_date": "1980-11-11", "title": "La dottoressa ci sta col Colonnello", "video": false, "vote_average": 5.1, "vote_count": 21, "popularity": 5.008}, {"adult": false, "backdrop_path": "/98ahnrena4PwLth7HFYGLf9yssH.jpg", "genre_ids": [35, 18, 10749], "id": 22705, "original_language": "it", "original_title": "Tra(sgre)dire", "overview": "While scouting out apartments in London for her Venetian boyfriend, Carla rents an apartment that overlooks the Thames. There she meet the lesbian hyper-horny real estate agent Moira.", "poster_path": "/kZITrLEiTfzzJhtwtXhQUl3ImCQ.jpg", "release_date": "2000-01-28", "title": "Cheeky", "video": false, "vote_average": 5.7, "vote_count": 92, "popularity": 30.42}, {"id": 2770, "video": false, "vote_count": 2941, "vote_average": 6.1, "title": "American Pie 2", "release_date": "2001-08-10", "original_language": "en", "original_title": "American Pie 2", "genre_ids": [35, 10749], "backdrop_path": "/1C1d3Tpesm8Vn3BRqsQZt0LfZcG.jpg", "adult": false, "overview": "The whole gang are back and as close as ever. They decide to get even closer by spending the summer together at a beach house. They decide to hold the biggest party ever to be seen, even if the preparation doesn't always go to plan. Especially when Stifler, Finch and Jim become more close to each other than they ever want to be and when Jim mistakes super glue for lubricant...", "poster_path": "/q4LNgUnRfltxzp3gf1MAGiK5LhV.jpg", "popularity": 20.359}, {"adult": false, "backdrop_path": "/vXT5Gw09k99o9XXqqxBPz9NKgsa.jpg", "genre_ids": [35, 12], "id": 9285, "original_language": "en", "original_title": "Road Trip", "overview": "Four friends take off on an 1800 mile road trip to retrieve an illicit tape mistakenly mailed to a girl friend.", "poster_path": "/DCoZVnHVvtKTYwfM00dfVRbfUQ.jpg", "release_date": "2000-05-19", "title": "Road Trip", "video": false, "vote_average": 6.0, "vote_count": 1018, "popularity": 20.323}, {"adult": false, "backdrop_path": "/nnRJ5fwbtLxHU4ii9X1REB7Utir.jpg", "genre_ids": [35], "id": 151027, "original_language": "it", "original_title": "La professoressa di scienze naturali", "overview": "When the local science teacher hurts herself during a failed experiment and ends up in hospital, she is replaced by young and sexy Stevania Marini. Barely out of school herself, Stefania finds herself the object of affection for several men, including a young baron and and even most of her male students. One of these, Andrea Balsamo is part of the family with whom Stefania is staying and as such has a stronger foothold than most of the other men in town", "poster_path": "/vxABWlbNeJP0L5jJhCJRstXbsD7.jpg", "release_date": "1976-08-10", "title": "School Days", "video": false, "vote_average": 3.8, "vote_count": 6, "popularity": 2.444}, {"adult": false, "backdrop_path": "/a0UYovVNPVfWILYT7TzD10xBX3q.jpg", "genre_ids": [18, 53, 80, 9648], "id": 979, "original_language": "fr", "original_title": "Irr\u00e9versible", "overview": "Events over the course of one traumatic night in Paris unfold in reverse-chronological order as the beautiful Alex is brutally raped and beaten by a stranger in the underpass. Her boyfriend and ex-lover take matters into their own hands by hiring two criminals to help them find the rapist so that they can exact revenge. A simultaneously beautiful and terrible examination of the destructive nature of cause and effect, and how time destroys everything.", "poster_path": "/rxeDxo8FvZpLu6iplNpxdtAVnfu.jpg", "release_date": "2002-05-22", "title": "Irreversible", "video": false, "vote_average": 7.1, "vote_count": 1216, "popularity": 20.416}, {"id": 9027, "video": false, "vote_count": 133, "vote_average": 5.2, "title": "The Guru", "release_date": "2002-08-21", "original_language": "en", "original_title": "The Guru", "genre_ids": [35, 10749], "backdrop_path": "/yTMI4fDST4PGujX3WnFat5PWS6D.jpg", "adult": false, "overview": "Bored with Bollywood movies but fascinated with their Hollywood counterparts from his youth, Ram dreams to become a singer and actor in America, the country where dreams are made. He is encouraged when his American-based close friend, Vijay Rao, comes for visit, and brags about driving a Mercedes and living in a penthouse.", "poster_path": "/kbqBlFIjxXkJCLHQxzq9nhTKubQ.jpg", "popularity": 8.248}, {"adult": false, "backdrop_path": "/r2b4rCQlaQ9eyhZhVukW8EnRW0c.jpg", "genre_ids": [35], "id": 55580, "original_language": "it", "original_title": "Fermo posta Tinto Brass", "overview": "This film is a series of letters, photos and video cassettes which women often send in to certain newspapers. By visualizing their story-telling (the name given by the psychologists to their fantasies) the film portrays the confessions, the secret longings, the adventures, recollections, dreams, desires and fantasies of these women. It is an open secret that most women dream of forbidden affairs, secret lovers and hasty encounters but when it comes down to it they lack the courage to pursue their dreams.", "poster_path": "/zC4QqXYwdOPS3LT9J0YPN3bcDxz.jpg", "release_date": "1995-08-30", "title": "P.O. Box Tinto Brass", "video": false, "vote_average": 5.2, "vote_count": 34, "popularity": 11.931}, {"adult": false, "backdrop_path": "/qPCI9SZmHXmeG6OK367r9GvkuGl.jpg", "genre_ids": [35, 10749], "id": 41280, "original_language": "en", "original_title": "Private Lessons", "overview": "Phillip Filmore is a naive, 15-year-old, preoccupied with sex, who develops a crush on Nicole Mallow, the new 30-something, French housekeeper and sitter to look after him when Phillip's father is out of town for the summer on a \"business\" trip. But Mr. Filmore's unscrupulous chauffeur, Lester Lewis, takes advantage of Phillip's crush on Nicole to hire her to seduce the youth, then draws her into a plot to fake her own death in a blackmail scheme aimed to drain Phillip's trust fund.", "poster_path": "/azdrerXeyr2Aofr7p9osEWnz05g.jpg", "release_date": "1981-08-21", "title": "Private Lessons", "video": false, "vote_average": 5.8, "vote_count": 37, "popularity": 24.872}, {"adult": false, "backdrop_path": "/tvTyRu9eKfymkje8d9VoWJEoyUv.jpg", "genre_ids": [18], "id": 53932, "original_language": "es", "original_title": "Las edades de Lul\u00fa", "overview": "Fifteen-year-old Lulu has never known any affection from her family. But when she goes to a rock concert with Pablo, a friend of the family, he introduces Lulu to her first sexual experience. Years later, Pablo and Lulu have married; Pablo has created a sheltered, private world for Lulu, into which nothing intrudes. However, Lulu tires of her cloistered existence, and begins hanging out in shady bars, looking for vicarious thrills and danger.", "poster_path": "/5PK5MAN84o0ESgzeW9euozOLIEe.jpg", "release_date": "1990-12-13", "title": "The Ages of Lulu", "video": false, "vote_average": 5.7, "vote_count": 64, "popularity": 24.141}, {"adult": false, "backdrop_path": "/kSTvteM3ekuoeO7u7GJtZQkZuom.jpg", "genre_ids": [28, 53, 80], "id": 1948, "original_language": "en", "original_title": "Crank", "overview": "Professional assassin Chev Chelios learns his rival has injected him with a poison that will kill him if his heart rate drops.", "poster_path": "/6RnD3Zfh0tO0cD2vroWyH0F98Ej.jpg", "release_date": "2006-08-31", "title": "Crank", "video": false, "vote_average": 6.6, "vote_count": 2121, "popularity": 21.613}, {"adult": false, "backdrop_path": "/bYbnlh6VXFRtcSX82UMDsBDLB5j.jpg", "genre_ids": [18, 10749], "id": 28468, "original_language": "it", "original_title": "La chiave", "overview": "After twenty years of marriage, art professor Nino Rolfe attempts to break down his wife Teresa's conventional modesty. Noticing her affection for their daughter's fianc\u00e9, Nino instigates her sexual interest in him as well. This sets off a chain of unexpected events and emotional complications, as Nino and his unpredictable fascist daughter find that they both enjoy being jealous.", "poster_path": "/e6g2geNLgFzMbriH6EvSJZD78nx.jpg", "release_date": "1983-10-18", "title": "The Key", "video": false, "vote_average": 5.0, "vote_count": 128, "popularity": 15.363}, {"id": 12531, "video": false, "vote_count": 91, "vote_average": 6.9, "title": "The Apartment", "release_date": "1996-07-27", "original_language": "fr", "original_title": "L'Appartement", "genre_ids": [18, 9648, 10749], "backdrop_path": "/64qyT8m4JQ6YODvXxtbHgKmXBX7.jpg", "adult": false, "overview": "A stylish suspense thriller that confounds the audience while presenting them with an extraordinary and elusive mystery. Max is a former playboy who has decided to settle down by marrying his current love, Muriel. However, during a business trip, Max catches a glimpse of the great lost love of his life, reviving his wanderlust and sending him off on a chase of the elusive Lisa, whom he had overheard suggesting to a friend that her lover, Daniel, had killed someone for her. Soon, Max is trying to unravel the mystery behind the suspicious death of Daniel's wife, which he hopes will lead him closer to Lisa.", "poster_path": "/1sqrQdQTn8jKLhUcPKfRVj639zA.jpg", "popularity": 19.17}, {"adult": false, "backdrop_path": "/a8xpxCnvqKyshdrDNFGs6oy4r8N.jpg", "genre_ids": [18, 10749], "id": 1278, "original_language": "en", "original_title": "The Dreamers", "overview": "A young American studying in Paris in 1968 strikes up a friendship with a French brother and sister. Set against the background of the '68 Paris student riots.", "poster_path": "/7ABcfmXQZeCXl5sNrDuLS1URMPN.jpg", "release_date": "2003-09-01", "title": "The Dreamers", "video": false, "vote_average": 7.2, "vote_count": 1671, "popularity": 15.849}, {"id": 2057, "video": false, "vote_count": 429, "vote_average": 5.9, "title": "Original Sin", "release_date": "2001-05-08", "original_language": "en", "original_title": "Original Sin", "genre_ids": [53], "backdrop_path": "/is3I5v8FwLiEWxaksfN8D4MLNGH.jpg", "adult": false, "overview": "A young man is plunged into a life of subterfuge, deceit and mistaken identity in pursuit of a femme fatale whose heart is never quite within his grasp", "poster_path": "/yGis1Mai4ivspEXdWtXLg0bZPkX.jpg", "popularity": 18.232}, {"adult": false, "backdrop_path": "/8FfD5WXHrJLx0r4expl9IIBMsOW.jpg", "genre_ids": [18, 9648], "id": 280960, "original_language": "pt", "original_title": "Catarina e os Outros", "overview": "Outside, the first sun rays break the dawn.  Sixteen years old Catarina can't fall asleep.  Inconsequently, in the big city adults are moved by desire...  Catarina found she is HIV positive. She wants to drag everyone else along.", "poster_path": "/swSEhrje6NDIqtxAqjBziCkXWU8.jpg", "release_date": "2011-03-01", "title": "Catarina and the others", "video": false, "vote_average": 4.5, "vote_count": 70, "popularity": 11.145}, {"adult": false, "backdrop_path": "/xC9cG6Wy6QbH2hoAx11xPPD995R.jpg", "genre_ids": [18, 10749], "id": 86331, "original_language": "fr", "original_title": "Q", "overview": "In a social context deteriorated by a countrywide economic crisis, the life of several people will be turned upside down after they meet Cecile, a character who symbolizes desire.", "poster_path": "/9Jg9s4yTEndNmy1SSXRF9jdxY9D.jpg", "release_date": "2011-09-14", "title": "Desire", "video": false, "vote_average": 4.6, "vote_count": 204, "popularity": 25.756}, {"id": 44214, "video": false, "vote_count": 9192, "vote_average": 7.6, "title": "Black Swan", "release_date": "2010-12-03", "original_language": "en", "original_title": "Black Swan", "genre_ids": [18, 27, 53], "backdrop_path": "/t8jFs6cOl1YVSfXXZivWtEb14tF.jpg", "adult": false, "overview": "A journey through the psyche of a young ballerina whose starring role as the duplicitous swan queen turns out to be a part for which she becomes frighteningly perfect.", "poster_path": "/dQ7uxvsVTspVIsqjfgQj8usJpwX.jpg", "popularity": 24.558}, {"id": 70006, "video": false, "vote_count": 288, "vote_average": 6.1, "title": "Never Back Down 2: The Beatdown", "release_date": "2011-09-13", "original_language": "en", "original_title": "Never Back Down 2: The Beatdown", "genre_ids": [28, 18], "backdrop_path": "/lSFqtjxMfAHa58TBDDBELKeq2DH.jpg", "adult": false, "overview": "Four fighters different backgrounds come together to train under an ex MMA rising star and then ultimately have to fight each other and the traitor in heir midst.", "poster_path": "/qeISu4rUk9l9sQTMs86fAoxSx8p.jpg", "popularity": 15.641}, {"id": 263472, "video": false, "vote_count": 1669, "vote_average": 5.0, "title": "Knock Knock", "release_date": "2015-06-26", "original_language": "en", "original_title": "Knock Knock", "genre_ids": [18, 53], "backdrop_path": "/gJduaRau3X2oE3xkmjs1FufT2GE.jpg", "adult": false, "overview": "When a devoted husband and father is left home alone for the weekend, two stranded young women unexpectedly knock on his door for help. What starts out as a kind gesture results in a dangerous seduction and a deadly game of cat and mouse.", "poster_path": "/eynMtjBB1fXsB5vsQylVmsDLmvw.jpg", "popularity": 19.205}], "total_pages": 105, "total_results": 2085}, "recommendations": {"page": 1, "results": [], "total_pages": 1, "total_results": 0}, "credits": {"cast": [{"cast_id": 4, "character": "Jimmy O'Neil", "credit_id": "52fe489a9251416c750ad689", "gender": 2, "id": 58495, "name": "Morgan Paull", "order": 0, "profile_path": "/k8EaOIcEWYrWknWyR4zfQbansPN.jpg"}, {"cast_id": 5, "character": "Lassiter", "credit_id": "52fe489a9251416c750ad68d", "gender": 2, "id": 15212, "name": "Art Metrano", "order": 1, "profile_path": "/3IPQYpit646GjHd1cjfgiqGFfIh.jpg"}, {"cast_id": 6, "character": "Lizzie", "credit_id": "52fe489a9251416c750ad691", "gender": 1, "id": 105077, "name": "Pat Anderson", "order": 2, "profile_path": null}, {"cast_id": 7, "character": "Ruby", "credit_id": "52fe489a9251416c750ad695", "gender": 1, "id": 40285, "name": "Jeane Manson", "order": 3, "profile_path": "/kqOWAdY369K6OJKQPtrJWgTLwCG.jpg"}, {"cast_id": 8, "character": "Vera", "credit_id": "52fe489a9251416c750ad699", "gender": 0, "id": 96917, "name": "Katie Saylor", "order": 4, "profile_path": null}, {"cast_id": 9, "character": "Lou", "credit_id": "52fe489a9251416c750ad69d", "gender": 0, "id": 1219273, "name": "Raymond O'Keefe", "order": 5, "profile_path": null}, {"cast_id": 10, "character": "Bennie", "credit_id": "52fe489a9251416c750ad6a1", "gender": 0, "id": 1219273, "name": "Raymond O'Keefe", "order": 6, "profile_path": null}, {"cast_id": 11, "character": "Al", "credit_id": "52fe489a9251416c750ad6a5", "gender": 0, "id": 1219273, "name": "Raymond O'Keefe", "order": 7, "profile_path": null}, {"cast_id": 12, "character": "Clyde", "credit_id": "52fe489a9251416c750ad6a9", "gender": 0, "id": 42181, "name": "Sam Laws", "order": 8, "profile_path": null}, {"cast_id": 13, "character": "Mrs. Crawford", "credit_id": "52fe489a9251416c750ad6ad", "gender": 1, "id": 107305, "name": "Liv Lindeland", "order": 9, "profile_path": "/zatCciIm3XkdoUyhWS5aXFZCl8n.jpg"}, {"cast_id": 14, "character": "Bobby", "credit_id": "52fe489a9251416c750ad6b1", "gender": 0, "id": 99842, "name": "Kitty Carl", "order": 10, "profile_path": null}, {"cast_id": 15, "character": "Mary", "credit_id": "52fe489a9251416c750ad6b5", "gender": 0, "id": 105074, "name": "Tara Strohmeier", "order": 11, "profile_path": "/oIWdzbsqzl1iZf7lYVkzBeRKWog.jpg"}, {"cast_id": 16, "character": "Helen", "credit_id": "52fe489a9251416c750ad6b9", "gender": 0, "id": 103770, "name": "Susan McIver", "order": 12, "profile_path": null}, {"cast_id": 17, "character": "Annie", "credit_id": "52fe489a9251416c750ad6bd", "gender": 1, "id": 119424, "name": "Ella Edwards", "order": 13, "profile_path": null}, {"cast_id": 18, "character": "Kyote Driver", "credit_id": "52fe489a9251416c750ad6c1", "gender": 1, "id": 119424, "name": "Ella Edwards", "order": 14, "profile_path": null}, {"cast_id": 19, "character": "Kyote Passenger", "credit_id": "52fe489a9251416c750ad6c5", "gender": 1, "id": 89567, "name": "Anitra Ford", "order": 15, "profile_path": "/u8RzMnhPYqzfgadSnFLqRxB8CQe.jpg"}, {"cast_id": 20, "character": "Lester Jones", "credit_id": "52fe489a9251416c750ad6c9", "gender": 2, "id": 191706, "name": "Leonard P. Geer", "order": 16, "profile_path": "/xDMmrP69PiKpi4oGYqI5SAsYCIO.jpg"}, {"cast_id": 21, "character": "Emily Jones", "credit_id": "52fe489b9251416c750ad6cd", "gender": 1, "id": 19337, "name": "Kate Murtagh", "order": 17, "profile_path": null}, {"cast_id": 22, "character": "Willard", "credit_id": "52fe489b9251416c750ad6d1", "gender": 2, "id": 162155, "name": "Douglas Dirkson", "order": 18, "profile_path": "/2B3vnOwgcQeT3HX9SyHFbbKMSU0.jpg"}, {"cast_id": 23, "character": "Hitchhiker", "credit_id": "52fe489b9251416c750ad6d5", "gender": 1, "id": 123529, "name": "June Fairchild", "order": 19, "profile_path": null}, {"cast_id": 24, "character": "Judy", "credit_id": "52fe489b9251416c750ad6d9", "gender": 0, "id": 106773, "name": "Crystin Sinclaire", "order": 20, "profile_path": "/sJWB43CASa4rMVqTrZBztPaeUg9.jpg"}, {"cast_id": 25, "character": "Craddock", "credit_id": "52fe489b9251416c750ad6dd", "gender": 2, "id": 141418, "name": "Billy Beck", "order": 21, "profile_path": null}, {"cast_id": 26, "character": "Old Bill", "credit_id": "52fe489b9251416c750ad6e1", "gender": 2, "id": 101765, "name": "John Steadman", "order": 22, "profile_path": "/vYdiXIeBAZ0UD79QJzyAWWwVXmc.jpg"}, {"cast_id": 27, "character": "Police Chief", "credit_id": "52fe489b9251416c750ad6e5", "gender": 2, "id": 103503, "name": "Milton Parsons", "order": 23, "profile_path": "/1CQzgiwMZe51CkoYXk0dkhruBDa.jpg"}], "crew": [{"credit_id": "52fe489a9251416c750ad679", "department": "Directing", "gender": 0, "id": 61243, "job": "Director", "name": "Leon Capetanos", "profile_path": null}, {"credit_id": "52fe489a9251416c750ad67f", "department": "Directing", "gender": 2, "id": 21819, "job": "Director", "name": "Lewis Teague", "profile_path": "/8S7HOgNIpqqa7CpkV5uMR4hMSvx.jpg"}, {"credit_id": "52fe489a9251416c750ad685", "department": "Writing", "gender": 0, "id": 61243, "job": "Writer", "name": "Leon Capetanos", "profile_path": null}]}}