{"adult": false, "backdrop_path": null, "belongs_to_collection": null, "budget": 0, "genres": [{"id": 28, "name": "Action"}, {"id": 53, "name": "Thriller"}, {"id": 10752, "name": "War"}], "homepage": null, "id": 91339, "imdb_id": "tt0107316", "original_language": "en", "original_title": "Kill Zone", "overview": "An American colonel will pay any price to defeat the Viet Cong. When his unauthorized fighting force in Cambodia is discovered, he becomes a one man army, fighting a war of his own for a cause he knows is just.", "popularity": 2.751, "poster_path": "/rQLh6596PXT4GthyIZ9g7RfMDLb.jpg", "production_companies": [], "production_countries": [{"iso_3166_1": "US", "name": "United States of America"}, {"iso_3166_1": "PH", "name": "Philippines"}], "release_date": "1993-01-01", "revenue": 0, "runtime": 81, "spoken_languages": [{"iso_639_1": "en", "name": "English"}], "status": "Released", "tagline": "Soldiers because they have to be. Heroes because they want to be.", "title": "Kill Zone", "video": false, "vote_average": 1.0, "vote_count": 1, "keywords": {"keywords": [{"id": 11034, "name": "b movie"}]}, "similar": {"page": 1, "results": [{"adult": false, "backdrop_path": "/rnU6qDK1vvcdHjgCDIOqScspoL4.jpg", "genre_ids": [53], "id": 29487, "original_language": "en", "original_title": "The Mark of the Whistler", "overview": "A drifter claims the money in an old bank account. Soon he finds himself the target of two men who turn out to be the sons of the man's old partner, who is now in prison because of a conflict with him over the money in that account.", "poster_path": "/8uHA35w7CcUipSEhHFB2LWVDIPJ.jpg", "release_date": "1944-10-09", "title": "The Mark of the Whistler", "video": false, "vote_average": 5.3, "vote_count": 5, "popularity": 2.762}, {"id": 28668, "video": false, "vote_count": 10, "vote_average": 5.8, "title": "The Whistler", "release_date": "1944-03-30", "original_language": "en", "original_title": "The Whistler", "genre_ids": [9648, 53], "backdrop_path": "/ppk1WoQcU4w5elCEr1RniV2eGkd.jpg", "adult": false, "overview": "The first in a series of movies based on the popular radio drama.", "poster_path": "/lEvfhYKd9S8VbWhccVocgzyhrUI.jpg", "popularity": 4.283}, {"id": 9725, "video": false, "vote_count": 771, "vote_average": 6.0, "title": "Friday the 13th Part 2", "release_date": "1981-05-01", "original_language": "en", "original_title": "Friday the 13th Part 2", "genre_ids": [27, 53], "backdrop_path": "/wDmw9Nacka0oWj7hEIIEInP94Lx.jpg", "adult": false, "overview": "Five years after the horrible bloodbath at Camp Crystal Lake, it seems Jason Voorhees and his demented mother are in the past. Paul opens up a new camp close to the infamous site, ignoring warnings to stay away, and a sexually-charged group of counselors follow -- including child psychologist major Ginny. But Jason has been hiding out all this time, and now he's ready for revenge.", "poster_path": "/3c6uMXqFXO9G5RVdiPB76IK3FYM.jpg", "popularity": 14.489}, {"id": 1092, "video": false, "vote_count": 891, "vote_average": 8.0, "title": "The Third Man", "release_date": "1949-08-31", "original_language": "en", "original_title": "The Third Man", "genre_ids": [9648, 53], "backdrop_path": "/lrIuSWdC1LfKJZUnBX6axJxzZGe.jpg", "adult": false, "overview": "In postwar Vienna, Austria, Holly Martins, a writer of pulp Westerns, arrives penniless as a guest of his childhood chum Harry Lime, only to learn he has died. Martins develops a conspiracy theory after learning of a \"third man\" present at the time of Harry's death, running into interference from British officer Major Calloway, and falling head-over-heels for Harry's grief-stricken lover, Anna.", "poster_path": "/rO2Fq0AZZx9obs52KJdx4mRE8p5.jpg", "popularity": 14.387}, {"adult": false, "backdrop_path": "/c7iSbhSffDkM2yf5cg3D91FuVga.jpg", "genre_ids": [9648, 10749, 53], "id": 426, "original_language": "en", "original_title": "Vertigo", "overview": "A retired San Francisco detective suffering from acrophobia investigates the strange activities of an old friend's wife, all the while becoming dangerously obsessed with her.", "poster_path": "/obhM86qyv8RsE69XSMTtT9FdE0b.jpg", "release_date": "1958-05-09", "title": "Vertigo", "video": false, "vote_average": 8.2, "vote_count": 2889, "popularity": 21.778}, {"adult": false, "backdrop_path": "/tR1RXbnkSvZq0sgx0Gyh3GmgYoB.jpg", "genre_ids": [80, 18, 53], "id": 21734, "original_language": "en", "original_title": "Shadow of a Doubt", "overview": "A bored teen living in Santa Rosa, California, Charlotte \"Charlie\" Newton, is frustrated because nothing seems to be happening in her life and that of her family. Then, she receives wonderful news: her uncle (for whom she was named), Charlie Oakley, is arriving for a visit. But Uncle Charlie may not be the man he seems to be.", "poster_path": "/ptyWagbWE8jSGyV2tGEzAdVbRCj.jpg", "release_date": "1943-01-15", "title": "Shadow of a Doubt", "video": false, "vote_average": 7.7, "vote_count": 448, "popularity": 12.942}, {"adult": false, "backdrop_path": "/7eFEalNWT8m0qHQQdWzVPMq4wC7.jpg", "genre_ids": [18, 53], "id": 29490, "original_language": "en", "original_title": "Voice of the Whistler", "overview": "A dying millionaire marries his nurse for companionship, only to experience a miracle cure.", "poster_path": "/AlkSETQDXbxFqaNIHoXLCXdA88H.jpg", "release_date": "1945-10-30", "title": "Voice of the Whistler", "video": false, "vote_average": 6.1, "vote_count": 6, "popularity": 3.488}, {"adult": false, "backdrop_path": "/jRNqzZZwYIpiukkblMQ4G2Vc5p7.jpg", "genre_ids": [9648, 80, 53], "id": 963, "original_language": "en", "original_title": "The Maltese Falcon", "overview": "A private detective takes on a case that involves him with three eccentric criminals, a beautiful liar, and their quest for a priceless statuette.", "poster_path": "/jQilmbgbKtpbHM9hw9hgmqomJ9.jpg", "release_date": "1941-10-18", "title": "The Maltese Falcon", "video": false, "vote_average": 7.8, "vote_count": 840, "popularity": 16.587}, {"id": 535581, "video": false, "vote_count": 869, "vote_average": 5.4, "title": "The Dead Don't Die", "release_date": "2019-05-15", "original_language": "en", "original_title": "The Dead Don't Die", "genre_ids": [35, 14, 27], "backdrop_path": "/cXyfAViYly0Lk2CVpEKgYbt9wKQ.jpg", "adult": false, "overview": "In a small peaceful town, zombies suddenly rise to terrorize the town. Now three bespectacled police officers and a strange Scottish morgue expert must band together to defeat the undead.", "poster_path": "/ndvOjo7Nfk8ULnFLMXthPzhI62L.jpg", "popularity": 18.817}, {"id": 289, "video": false, "vote_count": 2866, "vote_average": 8.1, "title": "Casablanca", "release_date": "1942-01-23", "original_language": "en", "original_title": "Casablanca", "genre_ids": [18, 10749], "backdrop_path": "/5tE7iKSpBrc4z6LqF5kHutMm6KQ.jpg", "adult": false, "overview": "In Casablanca, Morocco in December 1941, a cynical American expatriate meets a former lover, with unforeseen complications.", "poster_path": "/wOBKAoUJZb5qTsWv5XXvVV2vUzz.jpg", "popularity": 21.116}, {"id": 303, "video": false, "vote_count": 759, "vote_average": 7.9, "title": "Notorious", "release_date": "1946-08-15", "original_language": "en", "original_title": "Notorious", "genre_ids": [18, 53, 10749], "backdrop_path": "/b8WFk5jSQNju3SGptSOREo51qmE.jpg", "adult": false, "overview": "In order to help bring Nazis to justice, U.S. government agent T.R. Devlin recruits Alicia Huberman, the American daughter of a convicted German war criminal, as a spy. As they begin to fall for one another, Alicia is instructed to win the affections of Alexander Sebastian, a Nazi hiding out in Brazil. When Sebastian becomes serious about his relationship with Alicia, the stakes get higher, and Devlin must watch her slip further undercover.", "poster_path": "/vcdSvOr5NcY6alt0kBqDQlFC3Nk.jpg", "popularity": 12.953}, {"id": 599, "video": false, "vote_count": 1215, "vote_average": 8.4, "title": "Sunset Boulevard", "release_date": "1950-08-10", "original_language": "en", "original_title": "Sunset Boulevard", "genre_ids": [18], "backdrop_path": "/u44VbUuoP6OZYEBv2DRd7ShPTMp.jpg", "adult": false, "overview": "A hack screenwriter writes a screenplay for a former silent film star who has faded into Hollywood obscurity.", "poster_path": "/oFwzvRgfxJc0FUr2mwYTi10dk3G.jpg", "popularity": 15.201}, {"adult": false, "backdrop_path": "/1l77Gk2OK9hjRFze08El8Do3pT1.jpg", "genre_ids": [80, 9648, 53], "id": 996, "original_language": "en", "original_title": "Double Indemnity", "overview": "A rich woman and a calculating insurance agent plot to kill her unsuspecting husband after he signs a double indemnity policy.  Against a backdrop of distinctly Californian settings, the partners in crime plan the perfect murder to collect the insurance, which pays  double if the death is accidental.", "poster_path": "/nW0cCpfuGcR1JG7EinDbdL2Ijf2.jpg", "release_date": "1944-07-03", "title": "Double Indemnity", "video": false, "vote_average": 8.2, "vote_count": 858, "popularity": 14.326}, {"id": 20367, "video": false, "vote_count": 137, "vote_average": 7.0, "title": "Detour", "release_date": "1945-11-30", "original_language": "en", "original_title": "Detour", "genre_ids": [80, 18], "backdrop_path": "/zGBo0eN3RKHmTWZvoF19HABfEQF.jpg", "adult": false, "overview": "Al Roberts, a New York nightclub pianist, hitch-hikes to Hollywood to meet his girlfriend Sue. The gambler he's riding with, Charles, unexpectedly dies. Afraid the police wouldn't believe the truth, Al takes the man's identity. In a gas station, he gives a lift to Vera, a woman that knew Charles and blackmails Al with tragic consequences.", "poster_path": "/1CFC9Ejg85a3skXtcTxRjhtmDlj.jpg", "popularity": 9.083}, {"id": 223, "video": false, "vote_count": 763, "vote_average": 7.9, "title": "Rebecca", "release_date": "1940-03-23", "original_language": "en", "original_title": "Rebecca", "genre_ids": [18, 9648], "backdrop_path": "/ao0OWpQPMy3lagLwksWyciO6Iaj.jpg", "adult": false, "overview": "Story of a young woman who marries a fascinating widower only to find out that she must live in the shadow of his former wife, Rebecca, who died mysteriously several years earlier. The young wife must come to grips with the terrible secret of her handsome, cold husband, Max De Winter. She must also deal with the jealous, obsessed Mrs. Danvers, the housekeeper, who will not accept her as the mistress of the house.", "poster_path": "/3Gla0nxHboX3nxQzaU4SoqOtTjh.jpg", "popularity": 13.22}, {"id": 845, "video": false, "vote_count": 800, "vote_average": 7.8, "title": "Strangers on a Train", "release_date": "1951-06-18", "original_language": "en", "original_title": "Strangers on a Train", "genre_ids": [80, 53], "backdrop_path": "/3DL6BmslkyGHm70HXFNUwoYYIjb.jpg", "adult": false, "overview": "A psychotic socialite confronts a pro tennis star with a theory on how two complete strangers can get away with murder\u2014a theory that he plans to implement.", "poster_path": "/ihC083U7ef56Ui4x0P0dobojrZ1.jpg", "popularity": 11.979}, {"id": 877, "video": false, "vote_count": 222, "vote_average": 7.6, "title": "Scarface", "release_date": "1932-04-09", "original_language": "en", "original_title": "Scarface", "genre_ids": [28, 80, 18, 53], "backdrop_path": "/fX1DFPMZYsRG17BmMPJAKUaBZEz.jpg", "adult": false, "overview": "A murderous thug shoots his way to the top of the mobs while trying to protect his sister from the criminal life.", "poster_path": "/ai9WOjgNRXo42D0GJIIdi7toZ5x.jpg", "popularity": 11.666}, {"id": 678, "video": false, "vote_count": 234, "vote_average": 7.7, "title": "Out of the Past", "release_date": "1947-11-13", "original_language": "en", "original_title": "Out of the Past", "genre_ids": [9648, 53], "backdrop_path": "/7JFsV4qEQ6WVj3SJAC2ktnAyCMm.jpg", "adult": false, "overview": "Jeff Bailey seems to be a mundane gas station owner in remote Bridgeport, CA. He is dating local girl Ann Miller and lives a quiet life. But Jeff has a secret past, and when a mysterious stranger arrives in town, Jeff is forced to return to the dark world he had tried to escape.", "poster_path": "/6M1Qeuq0K5THG95S9nzvEIRHsyt.jpg", "popularity": 12.132}, {"adult": false, "backdrop_path": "/gF7v48JI9Vf6bBVU5aykiPtcCub.jpg", "genre_ids": [80, 9648, 53], "id": 14638, "original_language": "en", "original_title": "The Killers", "overview": "Two hit men walk into a diner asking for a man called \"the Swede\". When the killers find the Swede, he's expecting them and doesn't put up a fight. Since the Swede had a life insurance policy, an investigator, on a hunch, decides to look into the murder. As the Swede's past is laid bare, it comes to light that he was in love with a beautiful woman who may have lured him into pulling off a bank robbery overseen by another man.", "poster_path": "/uXnuc6pW01s1MDwb6QwBWg2JQeX.jpg", "release_date": "1946-08-28", "title": "The Killers", "video": false, "vote_average": 7.4, "vote_count": 167, "popularity": 11.012}, {"adult": false, "backdrop_path": "/tmsddF6G7vIbJ2Lg6DZDVbnhBxs.jpg", "genre_ids": [878, 9648, 18, 53, 10770], "id": 569547, "original_language": "en", "original_title": "Black Mirror: Bandersnatch", "overview": "In 1984, a young programmer begins to question reality as he adapts a dark fantasy novel into a video game. A mind-bending tale with multiple endings.", "poster_path": "/fR0VZ0VE598zl1lrYf7IfBqEwQ2.jpg", "release_date": "2018-12-28", "title": "Black Mirror: Bandersnatch", "video": false, "vote_average": 6.9, "vote_count": 2383, "popularity": 11.39}], "total_pages": 58, "total_results": 1142}, "recommendations": {"page": 1, "results": [], "total_pages": 1, "total_results": 0}, "credits": {"cast": [{"cast_id": 6, "character": "Col. Horace Wiggins", "credit_id": "52fe48ce9251416c750b3fcd", "gender": 2, "id": 141, "name": "David Carradine", "order": 0, "profile_path": "/u6C8DVrC9QgQEovlWLIBob8gvgZ.jpg"}, {"cast_id": 7, "character": "Sheriff", "credit_id": "52fe48ce9251416c750b3fd1", "gender": 2, "id": 939476, "name": "Tony Dorsett", "order": 1, "profile_path": null}, {"cast_id": 8, "character": "Capt. Jeff Holland", "credit_id": "52fe48ce9251416c750b3fd5", "gender": 2, "id": 177171, "name": "Rob Youngblood", "order": 2, "profile_path": null}, {"cast_id": 9, "character": "Lt. Lazaro", "credit_id": "52fe48ce9251416c750b3fd9", "gender": 2, "id": 140077, "name": "Vic Trevino", "order": 3, "profile_path": null}, {"cast_id": 10, "character": "Ropes", "credit_id": "52fe48cf9251416c750b3fdd", "gender": 2, "id": 936235, "name": "James Gregory Paolleli", "order": 4, "profile_path": "/zGnSBo52Ost1CjCVTiSxIDHZ7VE.jpg"}, {"cast_id": 11, "character": "Bloomquist", "credit_id": "52fe48cf9251416c750b3fe1", "gender": 0, "id": 939478, "name": "Geno Bolda", "order": 5, "profile_path": null}, {"cast_id": 12, "character": "Lewandowski", "credit_id": "52fe48cf9251416c750b3fe5", "gender": 0, "id": 939479, "name": "Jim Moss", "order": 6, "profile_path": null}, {"cast_id": 13, "character": "ASP", "credit_id": "52fe48cf9251416c750b3fe9", "gender": 0, "id": 939480, "name": "Francis Evaristo", "order": 7, "profile_path": null}, {"cast_id": 14, "character": "Medic", "credit_id": "52fe48cf9251416c750b3fed", "gender": 2, "id": 108055, "name": "Richard White", "order": 8, "profile_path": "/iiX9ytEkszJGOwcZ0qFVClfjzeJ.jpg"}, {"cast_id": 16, "character": "Intelligence Manager", "credit_id": "52fe48cf9251416c750b3ff7", "gender": 2, "id": 1084699, "name": "Bob Larson", "order": 9, "profile_path": null}, {"cast_id": 17, "character": "Waranya", "credit_id": "5d17fcca126ec3001b0ecb6b", "gender": 0, "id": 1004548, "name": "Vivian Velez", "order": 10, "profile_path": "/7ICfTmBMSlEc5smT4iSZ4bZL7I.jpg"}, {"cast_id": 18, "character": "Gen. Walter O'Neal", "credit_id": "5d17fcdd90fca3001cab9df5", "gender": 2, "id": 105081, "name": "Ken Metcalfe", "order": 11, "profile_path": null}, {"cast_id": 19, "character": "ARVN Capt. Tan Sau Thuy", "credit_id": "5d17fcf1126ec3001e0edc54", "gender": 0, "id": 1085215, "name": "Archie Adamos", "order": 12, "profile_path": "/tyBatZIpNYxNfWtp1Eko79XT6Jl.jpg"}], "crew": [{"credit_id": "52fe48cf9251416c750b3ff3", "department": "Production", "gender": 2, "id": 102429, "job": "Producer", "name": "Roger Corman", "profile_path": "/6rFtY1r1SolTbdhqGj3ZuTcjg8U.jpg"}, {"credit_id": "52fe48ce9251416c750b3fb7", "department": "Directing", "gender": 2, "id": 105084, "job": "Director", "name": "Cirio H. Santiago", "profile_path": "/kFo7Iw9tSiZgZoJ6nhknyOCXhi6.jpg"}, {"credit_id": "52fe48ce9251416c750b3fc9", "department": "Production", "gender": 2, "id": 105084, "job": "Producer", "name": "Cirio H. Santiago", "profile_path": "/kFo7Iw9tSiZgZoJ6nhknyOCXhi6.jpg"}, {"credit_id": "52fe48ce9251416c750b3fbd", "department": "Writing", "gender": 0, "id": 107319, "job": "Writer", "name": "Frederick Bailey", "profile_path": null}, {"credit_id": "52fe48ce9251416c750b3fc3", "department": "Production", "gender": 0, "id": 939473, "job": "Producer", "name": "Steven Rabiner", "profile_path": null}, {"credit_id": "5d17fd13126ec300210ee0da", "department": "Sound", "gender": 0, "id": 1043019, "job": "Music", "name": "Nonong Buencamino", "profile_path": null}, {"credit_id": "5d17fd3b90fca3001cab9f90", "department": "Art", "gender": 2, "id": 1324973, "job": "Production Design", "name": "Ben Otico", "profile_path": null}, {"credit_id": "5d17fd2d126ec3001e0edcc2", "department": "Editing", "gender": 0, "id": 2350978, "job": "Editor", "name": "Joseph Zucchero", "profile_path": null}]}}