{"adult": false, "backdrop_path": "/etMgl8se01hL6umH1DSgUhj5mNo.jpg", "belongs_to_collection": null, "budget": 0, "genres": [{"id": 18, "name": "Drama"}, {"id": 35, "name": "Comedy"}, {"id": 10749, "name": "Romance"}], "homepage": null, "id": 92251, "imdb_id": "tt0064324", "original_language": "fr", "original_title": "Les femmes", "overview": "Clara becomes a secretary who must cater to all the desires of the womanizing writer J\u00e9r\u00f4me, while he tries to write his memoirs.", "popularity": 1.965, "poster_path": "/11JQJh8YK8OLUQIhLV44guSl1Vb.jpg", "production_companies": [{"id": 10522, "logo_path": null, "name": "Lira Films", "origin_country": "FR"}, {"id": 1498, "logo_path": null, "name": "Ascot", "origin_country": ""}, {"id": 1499, "logo_path": null, "name": "Cineraid", "origin_country": ""}], "production_countries": [{"iso_3166_1": "FR", "name": "France"}, {"iso_3166_1": "IT", "name": "Italy"}], "release_date": "1969-11-07", "revenue": 0, "runtime": 86, "spoken_languages": [{"iso_639_1": "fr", "name": "Fran\u00e7ais"}], "status": "Released", "tagline": "", "title": "The Vixen", "video": false, "vote_average": 5.2, "vote_count": 5, "keywords": {"keywords": [{"id": 572, "name": "sex"}, {"id": 11677, "name": "secretary"}, {"id": 13008, "name": "train"}, {"id": 13028, "name": "writer"}]}, "similar": {"page": 1, "results": [{"adult": false, "backdrop_path": "/yIszPJawrrp6zcb62d7XJnaxAmw.jpg", "genre_ids": [18], "id": 13078, "original_language": "en", "original_title": "The Babysitters", "overview": "Seventeen-year-old Shirley is a good student who works as a babysitter in order to make money for college. One night Michael, a father Shirley works for, confesses he's unhappy with married life. Shirley has a crush on Michael, and seizes this moment to kiss him. Michael is so happy he presents Shirley with a big tip, which gives her an idea. Shirley plans to make extra money by setting up her teenage friends with other unhappy fathers.", "poster_path": "/nsrNUqGXI95unRKZEu8BJ584xWn.jpg", "release_date": "2007-09-11", "title": "The Babysitters", "video": false, "vote_average": 5.3, "vote_count": 153, "popularity": 16.136}, {"adult": false, "backdrop_path": "/tk6QB32plylH41eo2Pbv4sIVljO.jpg", "genre_ids": [18], "id": 50270, "original_language": "it", "original_title": "Paprika", "overview": "A young country girl comes to town and works in a brothel in order to help her fiance get the money to start his own business. \"Paprika\" is the name given to her by the madam.", "poster_path": "/6QthFTJvUheocw3fcKklnsMcGib.jpg", "release_date": "1991-02-13", "title": "Paprika", "video": false, "vote_average": 5.9, "vote_count": 81, "popularity": 20.02}, {"adult": false, "backdrop_path": "/a0UYovVNPVfWILYT7TzD10xBX3q.jpg", "genre_ids": [18, 53, 80, 9648], "id": 979, "original_language": "fr", "original_title": "Irr\u00e9versible", "overview": "Events over the course of one traumatic night in Paris unfold in reverse-chronological order as the beautiful Alex is brutally raped and beaten by a stranger in the underpass. Her boyfriend and ex-lover take matters into their own hands by hiring two criminals to help them find the rapist so that they can exact revenge. A simultaneously beautiful and terrible examination of the destructive nature of cause and effect, and how time destroys everything.", "poster_path": "/rxeDxo8FvZpLu6iplNpxdtAVnfu.jpg", "release_date": "2002-05-22", "title": "Irreversible", "video": false, "vote_average": 7.1, "vote_count": 1215, "popularity": 18.102}, {"adult": false, "backdrop_path": "/275ywEHPVfW47kJXiRDQgYM5ax9.jpg", "genre_ids": [18, 9648], "id": 9777, "original_language": "en", "original_title": "Proof", "overview": "Catherine is a woman in her late twenties who is strongly devoted to her father, Robert, a brilliant and well-known mathematician whose grip on reality is beginning to slip away. As Robert descends into madness, Catherine begins to wonder if she may have inherited her father\u2019s mental illness along with his mathematical genius. When Robert\u2019s work reveals a mathematical proof of potentially historic proportions, it sets off shock waves in more ways than one.", "poster_path": "/eGVCVdbUR4gaAKPk1P4mar91qSX.jpg", "release_date": "2005-09-05", "title": "Proof", "video": false, "vote_average": 6.4, "vote_count": 379, "popularity": 9.326}, {"adult": false, "backdrop_path": "/r2b4rCQlaQ9eyhZhVukW8EnRW0c.jpg", "genre_ids": [35], "id": 55580, "original_language": "it", "original_title": "Fermo posta Tinto Brass", "overview": "This film is a series of letters, photos and video cassettes which women often send in to certain newspapers. By visualizing their story-telling (the name given by the psychologists to their fantasies) the film portrays the confessions, the secret longings, the adventures, recollections, dreams, desires and fantasies of these women. It is an open secret that most women dream of forbidden affairs, secret lovers and hasty encounters but when it comes down to it they lack the courage to pursue their dreams.", "poster_path": "/zC4QqXYwdOPS3LT9J0YPN3bcDxz.jpg", "release_date": "1995-08-30", "title": "P.O. Box Tinto Brass", "video": false, "vote_average": 5.2, "vote_count": 34, "popularity": 14.399}, {"adult": false, "backdrop_path": "/tvTyRu9eKfymkje8d9VoWJEoyUv.jpg", "genre_ids": [18], "id": 53932, "original_language": "es", "original_title": "Las edades de Lul\u00fa", "overview": "Fifteen-year-old Lulu has never known any affection from her family. But when she goes to a rock concert with Pablo, a friend of the family, he introduces Lulu to her first sexual experience. Years later, Pablo and Lulu have married; Pablo has created a sheltered, private world for Lulu, into which nothing intrudes. However, Lulu tires of her cloistered existence, and begins hanging out in shady bars, looking for vicarious thrills and danger.", "poster_path": "/5PK5MAN84o0ESgzeW9euozOLIEe.jpg", "release_date": "1990-12-13", "title": "The Ages of Lulu", "video": false, "vote_average": 5.7, "vote_count": 64, "popularity": 23.137}, {"id": 12531, "video": false, "vote_count": 91, "vote_average": 6.9, "title": "The Apartment", "release_date": "1996-07-27", "original_language": "fr", "original_title": "L'Appartement", "genre_ids": [18, 9648, 10749], "backdrop_path": "/64qyT8m4JQ6YODvXxtbHgKmXBX7.jpg", "adult": false, "overview": "A stylish suspense thriller that confounds the audience while presenting them with an extraordinary and elusive mystery. Max is a former playboy who has decided to settle down by marrying his current love, Muriel. However, during a business trip, Max catches a glimpse of the great lost love of his life, reviving his wanderlust and sending him off on a chase of the elusive Lisa, whom he had overheard suggesting to a friend that her lover, Daniel, had killed someone for her. Soon, Max is trying to unravel the mystery behind the suspicious death of Daniel's wife, which he hopes will lead him closer to Lisa.", "poster_path": "/1sqrQdQTn8jKLhUcPKfRVj639zA.jpg", "popularity": 21.259}, {"adult": false, "backdrop_path": "/xC9cG6Wy6QbH2hoAx11xPPD995R.jpg", "genre_ids": [18, 10749], "id": 86331, "original_language": "fr", "original_title": "Q", "overview": "In a social context deteriorated by a countrywide economic crisis, the life of several people will be turned upside down after they meet Cecile, a character who symbolizes desire.", "poster_path": "/9Jg9s4yTEndNmy1SSXRF9jdxY9D.jpg", "release_date": "2011-09-14", "title": "Desire", "video": false, "vote_average": 4.7, "vote_count": 204, "popularity": 30.344}, {"adult": false, "backdrop_path": "/98ahnrena4PwLth7HFYGLf9yssH.jpg", "genre_ids": [35, 18, 10749], "id": 22705, "original_language": "it", "original_title": "Tra(sgre)dire", "overview": "While scouting out apartments in London for her Venetian boyfriend, Carla rents an apartment that overlooks the Thames. There she meet the lesbian hyper-horny real estate agent Moira.", "poster_path": "/kZITrLEiTfzzJhtwtXhQUl3ImCQ.jpg", "release_date": "2000-01-28", "title": "Cheeky", "video": false, "vote_average": 5.7, "vote_count": 92, "popularity": 32.727}, {"adult": false, "backdrop_path": "/bQW1TnxHlmkWof0vsALj4HBkoxj.jpg", "genre_ids": [18, 10749], "id": 51828, "original_language": "en", "original_title": "One Day", "overview": "A romantic comedy centered on Dexter and Emma, who first meet during their graduation in 1988 and proceed to keep in touch regularly. The film follows what they do on July 15 annually, usually doing something together.", "poster_path": "/xzOz17yC3K6SZWtWylXimcHUqpD.jpg", "release_date": "2011-03-02", "title": "One Day", "video": false, "vote_average": 7.2, "vote_count": 2342, "popularity": 15.269}, {"adult": false, "backdrop_path": "/uC54rlRdLMZ46fnrz5SoVYleNyv.jpg", "genre_ids": [18], "id": 4995, "original_language": "en", "original_title": "Boogie Nights", "overview": "Set in 1977, back when sex was safe, pleasure was a business and business was booming, idealistic porn producer Jack Horner aspires to elevate his craft to an art form. Horner discovers Eddie Adams, a hot young talent working as a busboy in a nightclub, and welcomes him into the extended family of movie-makers, misfits and hangers-on that are always around. Adams' rise from nobody to a celebrity adult entertainer is meteoric, and soon the whole world seems to know his porn alter ego, \"Dirk Diggler\". Now, when disco and drugs are in vogue, fashion is in flux and the party never seems to stop, Adams' dreams of turning sex into stardom are about to collide with cold, hard reality.", "poster_path": "/gTq6MPt7SeMiJ2miHeMoNEZTz4p.jpg", "release_date": "1997-10-07", "title": "Boogie Nights", "video": false, "vote_average": 7.6, "vote_count": 1659, "popularity": 21.748}, {"id": 2770, "video": false, "vote_count": 2941, "vote_average": 6.1, "title": "American Pie 2", "release_date": "2001-08-10", "original_language": "en", "original_title": "American Pie 2", "genre_ids": [35, 10749], "backdrop_path": "/1C1d3Tpesm8Vn3BRqsQZt0LfZcG.jpg", "adult": false, "overview": "The whole gang are back and as close as ever. They decide to get even closer by spending the summer together at a beach house. They decide to hold the biggest party ever to be seen, even if the preparation doesn't always go to plan. Especially when Stifler, Finch and Jim become more close to each other than they ever want to be and when Jim mistakes super glue for lubricant...", "poster_path": "/q4LNgUnRfltxzp3gf1MAGiK5LhV.jpg", "popularity": 22.387}, {"id": 10995, "video": false, "vote_count": 255, "vote_average": 6.6, "title": "The Lover", "release_date": "1992-02-22", "original_language": "fr", "original_title": "L'Amant", "genre_ids": [18, 10749], "backdrop_path": "/zRAgf1F0rRp0Tys8AnMWGBFJRZv.jpg", "adult": false, "overview": "A poor French teenage girl engages in an illicit affair with a wealthy Chinese heir in 1920s Saigon. For the first time in her young life she has control, and she wields it deftly over her besotted lover throughout a series of clandestine meetings and torrid encounters.", "poster_path": "/iey1UA4hav2cn60qGi1zgKxpPBl.jpg", "popularity": 12.739}, {"adult": false, "backdrop_path": "/s7dcAllZEVSrVIVMUVAUmwAxFmn.jpg", "genre_ids": [35], "id": 4247, "original_language": "en", "original_title": "Scary Movie", "overview": "Following on the heels of popular teen-scream horror movies, with uproarious comedy and biting satire. Marlon and Shawn Wayans, Shannon Elizabeth and Carmen Electra pitch in to skewer some of Hollywood's biggest blockbusters, including Scream, I Know What You Did Last Summer, The Matrix, American Pie and The Blair Witch Project.", "poster_path": "/bvVmVFBVQLytK1H4TJTFdnhvf4T.jpg", "release_date": "2000-07-07", "title": "Scary Movie", "video": false, "vote_average": 6.2, "vote_count": 3800, "popularity": 18.358}, {"adult": false, "backdrop_path": "/xOGEw8iywxcFMolV6SF6YdTdJTb.jpg", "genre_ids": [10402, 10749], "id": 52371, "original_language": "nl", "original_title": "LelleBelle", "overview": "19-year old Belle practices playing the violin diligently, but is unable to impart her music with a sensitive undertone. Her life changes when she discovers that sexual desire stimulates passion in her music.", "poster_path": "/nJVPgIq3icZMQ26p5uWIFdUZJfL.jpg", "release_date": "2010-10-08", "title": "LelleBelle", "video": false, "vote_average": 4.7, "vote_count": 41, "popularity": 13.931}, {"adult": false, "backdrop_path": "/vXT5Gw09k99o9XXqqxBPz9NKgsa.jpg", "genre_ids": [35, 12], "id": 9285, "original_language": "en", "original_title": "Road Trip", "overview": "Four friends take off on an 1800 mile road trip to retrieve an illicit tape mistakenly mailed to a girl friend.", "poster_path": "/DCoZVnHVvtKTYwfM00dfVRbfUQ.jpg", "release_date": "2000-05-19", "title": "Road Trip", "video": false, "vote_average": 6.0, "vote_count": 1017, "popularity": 15.814}, {"id": 319, "video": false, "vote_count": 1438, "vote_average": 7.5, "title": "True Romance", "release_date": "1993-09-09", "original_language": "en", "original_title": "True Romance", "genre_ids": [28, 80, 53, 10749], "backdrop_path": "/f0qqTEyVmmztypEMV3THRdnBjFj.jpg", "adult": false, "overview": "Clarence marries hooker Alabama, steals cocaine from her pimp, and tries to sell it in Hollywood, while the owners of the coke try to reclaim it.", "poster_path": "/xBO8R3CZfrJ9rrwrZoJ68PgJyAR.jpg", "popularity": 20.562}, {"id": 179144, "video": false, "vote_count": 1725, "vote_average": 7.5, "title": "The Great Beauty", "release_date": "2013-05-21", "original_language": "it", "original_title": "La grande bellezza", "genre_ids": [18], "backdrop_path": "/BvJAJuAnIooQQGzRdFTY9Oy6Wj.jpg", "adult": false, "overview": "Jep Gambardella has seduced his way through the lavish nightlife of Rome for decades, but after his 65th birthday and a shock from the past, Jep looks past the nightclubs and parties to find a timeless landscape of absurd, exquisite beauty.", "poster_path": "/nDBRRkZgaGhJw91wdcUFYwWIbFF.jpg", "popularity": 15.865}, {"id": 10537, "video": false, "vote_count": 603, "vote_average": 6.9, "title": "The Doors", "release_date": "1991-03-01", "original_language": "en", "original_title": "The Doors", "genre_ids": [18, 10402], "backdrop_path": "/1rv5sW6Qs2YK2iOzIgwH3SJPIl1.jpg", "adult": false, "overview": "The story of the famous and influential 1960s rock band and its lead singer and composer, Jim Morrison.", "poster_path": "/9CkFrWAkg23YynYd2uJLyWznMZZ.jpg", "popularity": 15.486}, {"id": 51876, "video": false, "vote_count": 6908, "vote_average": 7.2, "title": "Limitless", "release_date": "2011-03-08", "original_language": "en", "original_title": "Limitless", "genre_ids": [9648, 878, 53], "backdrop_path": "/9ISArgiVBdNLASKmvflRDMOYYMj.jpg", "adult": false, "overview": "A paranoia-fueled action thriller about an unsuccessful writer whose life is transformed by a top-secret \"smart drug\" that allows him to use 100% of his brain and become a perfect version of himself. His enhanced abilities soon attract shadowy forces that threaten his new life in this darkly comic and provocative film.", "poster_path": "/bQfOFEeXxi51ijQrbQY9qvMtYhZ.jpg", "popularity": 22.106}], "total_pages": 272, "total_results": 5440}, "recommendations": {"page": 1, "results": [], "total_pages": 1, "total_results": 0}, "credits": {"cast": [{"cast_id": 2, "character": "Clara", "credit_id": "52fe48f59251416c750b8d7d", "gender": 1, "id": 3783, "name": "Brigitte Bardot", "order": 0, "profile_path": "/3zQZJKE1TBXEi1khQlLI321KhHX.jpg"}, {"cast_id": 3, "character": "J\u00e9r\u00f4me", "credit_id": "52fe48f59251416c750b8d81", "gender": 2, "id": 15395, "name": "Maurice Ronet", "order": 1, "profile_path": "/89AUkh5mjmWPDQYaWNLZdsa4cV5.jpg"}, {"cast_id": 4, "character": "Marianne", "credit_id": "52fe48f59251416c750b8d85", "gender": 0, "id": 992822, "name": "Christina Holme", "order": 2, "profile_path": null}, {"cast_id": 5, "character": "H\u00e9l\u00e8ne", "credit_id": "52fe48f59251416c750b8d89", "gender": 1, "id": 24475, "name": "Anny Duperey", "order": 3, "profile_path": "/qu7goZBv9ETl8BbIagaCPzNwQ0O.jpg"}, {"cast_id": 6, "character": "l'\u00e9diteur", "credit_id": "52fe48f59251416c750b8d8d", "gender": 2, "id": 20795, "name": "Jean-Pierre Marielle", "order": 4, "profile_path": "/o97t34AsOoHWmFMVZZNOkCby8QL.jpg"}, {"cast_id": 7, "character": "Louise", "credit_id": "52fe48f59251416c750b8d91", "gender": 1, "id": 20798, "name": "Tanya Lopert", "order": 5, "profile_path": "/vFTWLlFjYqkzNEsY7R0pvGQT6XK.jpg"}, {"cast_id": 8, "character": "le maire", "credit_id": "52fe48f59251416c750b8d95", "gender": 0, "id": 992823, "name": "Honor\u00e9 Bostel", "order": 6, "profile_path": null}, {"cast_id": 9, "character": "le contr\u00f4leur des wagons-lits", "credit_id": "52fe48f59251416c750b8d99", "gender": 0, "id": 992824, "name": "Guy Michel", "order": 7, "profile_path": null}], "crew": [{"credit_id": "52fe48f59251416c750b8d79", "department": "Directing", "gender": 0, "id": 3582, "job": "Director", "name": "Jean Aurel", "profile_path": null}, {"credit_id": "547d23839251412d780041ec", "department": "Writing", "gender": 0, "id": 3582, "job": "Writer", "name": "Jean Aurel", "profile_path": null}, {"credit_id": "547d238f9251412d75003c31", "department": "Writing", "gender": 0, "id": 587347, "job": "Writer", "name": "C\u00e9cil Saint-Laurent", "profile_path": null}]}}