{"adult": false, "backdrop_path": "/tq72Ul3yItowhx83CQv744qD2mn.jpg", "belongs_to_collection": null, "budget": 0, "genres": [{"id": 99, "name": "Documentary"}], "homepage": null, "id": 92348, "imdb_id": "tt0284203", "original_language": "de", "original_title": "Im Spiegel der Maya Deren", "overview": "Documentary about the life of avant-garde filmmaker Maya Deren, who led the independent film movement of the 1940s.", "popularity": 2.334, "poster_path": "/y0WJn20Hn2JTEtCYDGwnq5U66fu.jpg", "production_companies": [{"id": 94, "logo_path": "/huC7HqorvUThGIrENrbcHmQVUA0.png", "name": "ARTE France Cin\u00e9ma", "origin_country": "FR"}, {"id": 28950, "logo_path": null, "name": "Dschoint Ventschr Filmproduktion AG", "origin_country": ""}, {"id": 10273, "logo_path": null, "name": "Filmfonds Wien", "origin_country": ""}, {"id": 66486, "logo_path": null, "name": "Navigator Film", "origin_country": ""}, {"id": 1410, "logo_path": null, "name": "Tag/Traum Filmproduktion", "origin_country": ""}, {"id": 11389, "logo_path": "/eKVLElq1XAbcCcwnVj89G9EXRGB.png", "name": "\u00d6sterreichisches Filminstitut", "origin_country": "AT"}], "production_countries": [{"iso_3166_1": "AT", "name": "Austria"}, {"iso_3166_1": "CZ", "name": "Czech Republic"}, {"iso_3166_1": "CH", "name": "Switzerland"}, {"iso_3166_1": "DE", "name": "Germany"}], "release_date": "2002-03-15", "revenue": 0, "runtime": 103, "spoken_languages": [{"iso_639_1": "en", "name": "English"}, {"iso_639_1": "fr", "name": "Fran\u00e7ais"}], "status": "Released", "tagline": "", "title": "In the Mirror of Maya Deren", "video": false, "vote_average": 7.6, "vote_count": 9, "keywords": {"keywords": [{"id": 2383, "name": "feminism"}, {"id": 187056, "name": "woman director"}]}, "similar": {"page": 1, "results": [{"id": 616584, "video": false, "vote_count": 92, "vote_average": 7.5, "title": "K-12", "release_date": "2019-09-05", "original_language": "en", "original_title": "K-12", "genre_ids": [14, 27, 10402], "backdrop_path": "/fSlfaF0Ydfr2SK6hOYHvDsb7a9Z.jpg", "adult": false, "overview": "Cry Baby, a strong and sensitive girl, is sent off to a disturbing sleepaway school that\u2019s hidden underneath a grandiose fa\u00e7ade. Luckily, she has a sweet and unapologetic best friend who sticks up for her when she gets bullied by the other students whose brains are under control by the Principal and his wicked staff. With the help of the magical friends they meet along the way, as well as an Angelic Spirit Guide, they are able to gain the strength they need to fight off the school\u2019s belligerent patriarchal conditioning.", "poster_path": "/nVi0yBBPj5Z96JgGWVIg94kv7bR.jpg", "popularity": 18.105}, {"adult": false, "backdrop_path": "/gZeJziVigmRqbkEZwKAtSqlLQ6s.jpg", "genre_ids": [18, 10749], "id": 370663, "original_language": "en", "original_title": "Below Her Mouth", "overview": "An unexpected affair quickly escalates into a heart-stopping reality for two women whose passionate connection changes their lives forever.", "poster_path": "/nTGbq37hYLuNy7YgMg0gVLma0NS.jpg", "release_date": "2016-09-10", "title": "Below Her Mouth", "video": false, "vote_average": 6.2, "vote_count": 456, "popularity": 22.676}, {"adult": false, "backdrop_path": "/6tern9vOEwwmkDYC1vRCuO64z0C.jpg", "genre_ids": [10749, 18], "id": 475888, "original_language": "en", "original_title": "Tell It to the Bees", "overview": "Dr. Jean Markham returns to the town she left as a teenager to take over her late father's medical practice. When a school-yard scuffle lands Charlie in her surgery, she invites him to visit the hives in her garden and tell his secrets to the bees, as she once did. The new friendship between the boy and the bee keeper brings his mother Lydia into Jean's world.", "poster_path": "/Rj6zpHhMU1zFW3v28U4PSRSRgP.jpg", "release_date": "2019-05-03", "title": "Tell It to the Bees", "video": false, "vote_average": 6.4, "vote_count": 53, "popularity": 15.113}, {"adult": false, "backdrop_path": "/dvQDRfv3qvfHNnVAR57ouVsuErf.jpg", "genre_ids": [10749, 18], "id": 28031, "original_language": "en", "original_title": "If These Walls Could Talk 2", "overview": "The stories of three lesbian couples -- who live in the same house at different periods of time -- who are at a crossroads in their lives. In 1961, Edith loses her lover, Abby, to a stroke. Linda and Amy struggle with feminist issues in 1972. And, in 2000, Kal and Fran try to have a baby with the help of sperm donor.", "poster_path": "/xs7ODbmYQXCDhvXNvz5tF17T59H.jpg", "release_date": "2000-03-05", "title": "If These Walls Could Talk 2", "video": false, "vote_average": 7.1, "vote_count": 55, "popularity": 8.062}, {"adult": false, "backdrop_path": "/rf6G51j0SZL0tP57I8gnqHTRFEr.jpg", "genre_ids": [35, 18, 10749], "id": 273153, "original_language": "fr", "original_title": "La belle saison", "overview": "In 1971, Carole and Delphine meet and fall in love in Paris. When Carole follows Delphine back to her family farm in Limousin, the two find lesbianism and feminism are not as easy in the countryside.", "poster_path": "/evvAkNMO5VJiy5qIo1Hu7fUfvVI.jpg", "release_date": "2015-08-19", "title": "Summertime", "video": false, "vote_average": 6.6, "vote_count": 162, "popularity": 15.434}, {"id": 9813, "video": false, "vote_count": 128, "vote_average": 6.1, "title": "The Quiet", "release_date": "2005-09-12", "original_language": "en", "original_title": "The Quiet", "genre_ids": [18, 53], "backdrop_path": "/6eyWAZA4CEidZW1xXnQ4vlYBXTP.jpg", "adult": false, "overview": "After her widowed father dies, deaf teenager Dot moves in with her godparents, Olivia and Paul Deer. The Deers' daughter, Nina, is openly hostile to Dot, but that does not prevent her from telling her secrets to her silent stepsister, including the fact that she wants to kill her lecherous father.", "poster_path": "/GEqIE9YlmygHVUfS64LW2cwAAM.jpg", "popularity": 13.948}, {"adult": false, "backdrop_path": "/6bnI08rrGXRkngRqJWCMXDZuJ1j.jpg", "genre_ids": [35, 10402], "id": 254470, "original_language": "en", "original_title": "Pitch Perfect 2", "overview": "The Bellas are back, and they are better than ever. After being humiliated in front of none other than the President of the United States of America, the Bellas are taken out of the Aca-Circuit. In order to clear their name, and regain their status, the Bellas take on a seemingly impossible task: winning an international competition no American team has ever won. In order to accomplish this monumental task, they need to strengthen the bonds of friendship and sisterhood and blow away the competition with their amazing aca-magic! With all new friends and old rivals tagging along for the trip, the Bellas can hopefully accomplish their dreams.", "poster_path": "/qSjruLiFB4uqRtz2xheQPxG8uaB.jpg", "release_date": "2015-05-07", "title": "Pitch Perfect 2", "video": false, "vote_average": 6.8, "vote_count": 3898, "popularity": 27.354}, {"id": 326359, "video": false, "vote_count": 1179, "vote_average": 6.8, "title": "Frozen Fever", "release_date": "2015-03-09", "original_language": "en", "original_title": "Frozen Fever", "genre_ids": [12, 16, 10751], "backdrop_path": "/ubioPGniCfDiASmYYpeJs5RRNaC.jpg", "adult": false, "overview": "On Anna's birthday, Elsa and Kristoff are determined to give her the best celebration ever, but Elsa's icy powers may put more than just the party at risk.", "poster_path": "/lKJiVPzsAO9IJ4LKWXZ8vkR2bg4.jpg", "popularity": 17.061}, {"id": 297762, "video": false, "vote_count": 13717, "vote_average": 7.3, "title": "Wonder Woman", "release_date": "2017-05-30", "original_language": "en", "original_title": "Wonder Woman", "genre_ids": [28, 12, 14], "backdrop_path": "/6iUNJZymJBMXXriQyFZfLAKnjO6.jpg", "adult": false, "overview": "An Amazon princess comes to the world of Man in the grips of the First World War to confront the forces of evil and bring an end to human conflict.", "poster_path": "/gfJGlDaHuWimErCr5Ql0I8x9QSy.jpg", "popularity": 41.8}, {"id": 434714, "video": false, "vote_count": 32, "vote_average": 7.5, "title": "My Days of Mercy", "release_date": "2019-07-11", "original_language": "en", "original_title": "My Days of Mercy", "genre_ids": [18, 10749], "backdrop_path": "/7Lbzq33nMMIQtAfZAmSqG6ibLSg.jpg", "adult": false, "overview": "The daughter of a man on death row falls in love with a woman on the opposing side of her family's political cause.", "poster_path": "/adIPKAoKnKL9vCTkvfF4J9ZA7Ln.jpg", "popularity": 6.928}, {"adult": false, "backdrop_path": "/xOGEw8iywxcFMolV6SF6YdTdJTb.jpg", "genre_ids": [10402, 10749], "id": 52371, "original_language": "nl", "original_title": "LelleBelle", "overview": "19-year old Belle practices playing the violin diligently, but is unable to impart her music with a sensitive undertone. Her life changes when she discovers that sexual desire stimulates passion in her music.", "poster_path": "/nJVPgIq3icZMQ26p5uWIFdUZJfL.jpg", "release_date": "2010-10-08", "title": "LelleBelle", "video": false, "vote_average": 4.7, "vote_count": 41, "popularity": 13.931}, {"id": 83542, "video": false, "vote_count": 4860, "vote_average": 6.8, "title": "Cloud Atlas", "release_date": "2012-10-26", "original_language": "en", "original_title": "Cloud Atlas", "genre_ids": [18, 878], "backdrop_path": "/2ZA03KiD4jePTNBTJjGGFTNQPMA.jpg", "adult": false, "overview": "A set of six nested stories spanning time between the 19th century and a distant post-apocalyptic future. Cloud Atlas explores how the actions and consequences of individual lives impact one another throughout the past, the present and the future. Action, mystery and romance weave through the story as one soul is shaped from a killer into a hero and a single act of kindness ripples across centuries to inspire a revolution in the distant future.  Based on the award winning novel by David Mitchell. Directed by Tom Tykwer and the Wachowskis.", "poster_path": "/8VNiyIp67ZxhpNgdrwACW0jgvP2.jpg", "popularity": 16.718}, {"id": 621733, "video": false, "vote_count": 0, "vote_average": 0.0, "title": "A Trip to the Seaside", "release_date": "2019-08-30", "original_language": "en", "original_title": "A Trip to the Seaside", "genre_ids": [99], "backdrop_path": null, "adult": false, "overview": "Experimental short film on the excitement and rush of a day trip", "poster_path": "/AuZVhpoJ4jm2LWDhoJKfxQfhDAi.jpg", "popularity": 1.324}, {"id": 653567, "video": false, "vote_count": 0, "vote_average": 0.0, "title": "Miss Americana", "release_date": "2020-01-23", "original_language": "en", "original_title": "Miss Americana", "genre_ids": [99], "backdrop_path": "/sKBaoiGW5JdPazIlwQlZeXeITXq.jpg", "adult": false, "overview": "A raw and emotionally revealing look at one of the most iconic artists of our time during a transformational period in her life as she learns to embrace her role not only as a songwriter and performer, but as a woman harnessing the full power of her voice.", "poster_path": "/fmHMmBl3VftWdLTy8E1mvWCgLe7.jpg", "popularity": 17.56}, {"adult": false, "backdrop_path": "/knczzNAjBXzSYkeWxoT1u9VNmjR.jpg", "genre_ids": [10749, 18], "id": 258480, "original_language": "en", "original_title": "Carol", "overview": "In 1950s New York, a department-store clerk who dreams of a better life falls for an older, married woman.", "poster_path": "/AbKa7ANxmui0Jmhh7gV7OSELKIL.jpg", "release_date": "2015-11-20", "title": "Carol", "video": false, "vote_average": 7.4, "vote_count": 2182, "popularity": 14.185}, {"adult": false, "backdrop_path": "/cADbqsIoiDW7X3Myg9nz8eAuno5.jpg", "genre_ids": [18, 10749], "id": 10818, "original_language": "fr", "original_title": "Naissance des pieuvres", "overview": "Set during a sultry summer in a French suburb, Marie is desperate to join the local pool's synchronized swimming team, but is her interest solely for the sake of sport or for a chance to get close to Floriane, the bad girl of the team? Sciamma, and the two leads, capture the uncertainty of teenage sexuality with a sympathetic eye in this delicate drama of the angst of coming-of-age.", "poster_path": "/4jajELYrR4Xmv3CVoKnukRnALa2.jpg", "release_date": "2007-05-17", "title": "Water Lilies", "video": false, "vote_average": 6.1, "vote_count": 119, "popularity": 10.744}, {"adult": false, "backdrop_path": "/fZ8oFcREAr6wgWcXISGql0xyxjB.jpg", "genre_ids": [35, 18], "id": 39781, "original_language": "en", "original_title": "The Kids Are All Right", "overview": "Two women, Nic and Jules, brought a son and daughter into the world through artificial insemination. When one of their children reaches age, both kids go behind their mothers' backs to meet with the donor. Life becomes so much more interesting when the father, two mothers and children start to become attached to each other.", "poster_path": "/fPDeK4MmoGfi2X0oWZev7LrbMqM.jpg", "release_date": "2010-07-09", "title": "The Kids Are All Right", "video": false, "vote_average": 6.6, "vote_count": 923, "popularity": 12.703}, {"adult": false, "backdrop_path": null, "genre_ids": [], "id": 616262, "original_language": "ar", "original_title": "All Come From Dust", "overview": "A loop of edgeless bend. You were its doom, he was its bloom. You were its tomb, he was its womb. You were its gloom, he was its loom. For Heaven and Hell, were words made of fume.", "poster_path": null, "release_date": "2019-08-13", "title": "All Come From Dust", "video": false, "vote_average": 5.0, "vote_count": 1, "popularity": 0.6}, {"id": 23398, "video": false, "vote_count": 1714, "vote_average": 5.5, "title": "Alvin and the Chipmunks: The Squeakquel", "release_date": "2009-12-21", "original_language": "en", "original_title": "Alvin and the Chipmunks: The Squeakquel", "genre_ids": [16, 35, 14, 10402, 10751], "backdrop_path": "/ukeQ5NshIaedd0s7qXED5aqPpZ5.jpg", "adult": false, "overview": "Pop sensations Alvin, Simon and Theodore end up in the care of Dave Seville's twenty-something nephew Toby. The boys must put aside music super stardom to return to school, and are tasked with saving the school's music program by winning the $25,000 prize in a battle of the bands. But the Chipmunks unexpectedly meet their match in three singing chipmunks known as The Chipettes - Brittany, Eleanor and Jeanette. Romantic and musical sparks are ignited when the Chipmunks and Chipettes square off.", "poster_path": "/8mdPqOga5fty15nXmaNcK1fsNMa.jpg", "popularity": 21.646}, {"adult": false, "backdrop_path": "/caLMOD3ZJ3V7qjlxDXrzlJfBLgD.jpg", "genre_ids": [18, 10749], "id": 20, "original_language": "en", "original_title": "My Life Without Me", "overview": "A Pedro Almodovar production in which a fatally ill mother with only two months to live creates a list of things she wants to do before she dies with out telling her family of her illness.", "poster_path": "/vVj92VBFUBzjqzLvBiPVVlJDp78.jpg", "release_date": "2003-03-07", "title": "My Life Without Me", "video": false, "vote_average": 6.1, "vote_count": 220, "popularity": 9.208}], "total_pages": 1403, "total_results": 28055}, "recommendations": {"page": 1, "results": [], "total_pages": 1, "total_results": 0}, "credits": {"cast": [{"cast_id": 1006, "character": "Herself", "credit_id": "52fe48f99251416c750b95e5", "gender": 1, "id": 96813, "name": "Maya Deren", "order": 0, "profile_path": "/wnya7w1xDdXZMpAnOoaaAyDDgRU.jpg"}, {"cast_id": 1002, "character": "Himself", "credit_id": "52fe48f99251416c750b95d5", "gender": 2, "id": 563461, "name": "Stan Brakhage", "order": 1, "profile_path": "/sAOHIoVBLzD0J3ljgAtLDw47Lo2.jpg"}, {"cast_id": 1011, "character": "Herself", "credit_id": "52fe48f99251416c750b95f9", "gender": 1, "id": 119864, "name": "Judith Malina", "order": 2, "profile_path": "/qOCwxL5hYhxdl0J1VJDh62mjLR6.jpg"}, {"cast_id": 1009, "character": "Himself", "credit_id": "52fe48f99251416c750b95f1", "gender": 2, "id": 96814, "name": "Alexander Hammid", "order": 3, "profile_path": "/pnjO14TtCG5TU3hB6Avv0AShHJ4.jpg"}, {"cast_id": 1004, "character": "Himself", "credit_id": "52fe48f99251416c750b95dd", "gender": 2, "id": 995587, "name": "Chao Li Chi", "order": 4, "profile_path": "/5lZxwvy3PXREMu9m1arB9Z3o9Sk.jpg"}, {"cast_id": 1003, "character": "Herself", "credit_id": "52fe48f99251416c750b95d9", "gender": 0, "id": 995586, "name": "Miriam Arsham", "order": 5, "profile_path": null}, {"cast_id": 1005, "character": "Herself", "credit_id": "52fe48f99251416c750b95e1", "gender": 0, "id": 995588, "name": "Rita Christiani", "order": 6, "profile_path": null}, {"cast_id": 1007, "character": "Herself", "credit_id": "52fe48f99251416c750b95e9", "gender": 0, "id": 545530, "name": "Katherine Dunham", "order": 7, "profile_path": null}, {"cast_id": 1008, "character": "Himself", "credit_id": "52fe48f99251416c750b95ed", "gender": 2, "id": 94237, "name": "Graeme Ferguson", "order": 8, "profile_path": null}, {"cast_id": 1010, "character": "Himself", "credit_id": "52fe48f99251416c750b95f5", "gender": 2, "id": 995589, "name": "Teiji Ito", "order": 9, "profile_path": "/7K3tasG0kpuIg88mWJ8NNp0IDKl.jpg"}, {"cast_id": 1020, "character": "Himself", "credit_id": "57f01c2f92514158d0005985", "gender": 2, "id": 1092208, "name": "Jonas Mekas", "order": 10, "profile_path": "/dbE0vpMn7bDZclzh0HkLrRrAsPu.jpg"}], "crew": [{"credit_id": "52fe48f99251416c750b961d", "department": "Production", "gender": 0, "id": 954640, "job": "Producer", "name": "Johannes Rosenberger", "profile_path": null}, {"credit_id": "52fe48f99251416c750b95cb", "department": "Directing", "gender": 0, "id": 995584, "job": "Director", "name": "Martina Kudl\u00e1cek", "profile_path": null}, {"credit_id": "52fe48f99251416c750b95d1", "department": "Writing", "gender": 0, "id": 995585, "job": "Writer", "name": "Martina Kudl\u00e1cek", "profile_path": null}, {"credit_id": "52fe48f99251416c750b960b", "department": "Sound", "gender": 2, "id": 1013860, "job": "Music", "name": "John Zorn", "profile_path": "/sH8Y7O9RQanQCB3YyqgHwynSzvy.jpg"}, {"credit_id": "52fe48f99251416c750b95ff", "department": "Production", "gender": 0, "id": 1113692, "job": "Producer", "name": "Johannes Holzhausen", "profile_path": null}, {"credit_id": "52fe48f99251416c750b9605", "department": "Production", "gender": 0, "id": 1113693, "job": "Producer", "name": "Thomas Korschil", "profile_path": null}, {"credit_id": "52fe48f99251416c750b9611", "department": "Crew", "gender": 0, "id": 1113694, "job": "Cinematography", "name": "Wolfgang Lehner", "profile_path": null}, {"credit_id": "52fe48f99251416c750b9617", "department": "Editing", "gender": 0, "id": 1113695, "job": "Editor", "name": "Henry Hills", "profile_path": null}, {"credit_id": "52fe48f99251416c750b9623", "department": "Production", "gender": 0, "id": 1113697, "job": "Producer", "name": "Constantin Wulff", "profile_path": null}, {"credit_id": "52fe48f99251416c750b9629", "department": "Sound", "gender": 0, "id": 1116883, "job": "Sound Designer", "name": "Carl Fuermann", "profile_path": null}]}}