{"adult": false, "backdrop_path": "/zs1tySTEbFe0EIqeWPJ2DQB0p3k.jpg", "belongs_to_collection": null, "budget": 0, "genres": [{"id": 18, "name": "Drama"}, {"id": 28, "name": "Action"}], "homepage": null, "id": 92750, "imdb_id": "tt0054788", "original_language": "it", "original_title": "David e Golia", "overview": "Orson Welles stars in this familiar Old Testament tale about the Philistines and the Israelites. When the Philistines attack, the Israelites are hopeless against the fierce giant Goliath and don't know what to do. King Saul takes the advice of the prophets and sends an adolescent shepherd, David, into battle to conquer the oversized Philistine. David is victorious and becomes the King of Israel.", "popularity": 1.911, "poster_path": "/iTnBlaRc6GmFAq3hcEYqGAqcfLv.jpg", "production_companies": [{"id": 107023, "logo_path": null, "name": "ANSA", "origin_country": ""}], "production_countries": [{"iso_3166_1": "IT", "name": "Italy"}], "release_date": "1960-01-22", "revenue": 0, "runtime": 92, "spoken_languages": [{"iso_639_1": "en", "name": "English"}, {"iso_639_1": "it", "name": "Italiano"}], "status": "Released", "tagline": "", "title": "David and Goliath", "video": false, "vote_average": 3.8, "vote_count": 5, "keywords": {"keywords": [{"id": 3036, "name": "bible"}]}, "similar": {"page": 1, "results": [{"adult": false, "backdrop_path": "/eWelH0cHonTsdP6ImrgilpbqdTK.jpg", "genre_ids": [18, 36], "id": 335778, "original_language": "en", "original_title": "Risen", "overview": "Clavius, a powerful Roman military tribune, and his aide, Lucius, are tasked with solving the mystery of what happened to Jesus in the weeks following the crucifixion, in order to disprove the rumors of a risen Messiah and prevent an uprising in Jerusalem.", "poster_path": "/uGZ1easTLqkNfDNHRLm5kvkfRw7.jpg", "release_date": "2016-02-18", "title": "Risen", "video": false, "vote_average": 5.9, "vote_count": 452, "popularity": 16.622}, {"id": 615, "video": false, "vote_count": 1934, "vote_average": 7.1, "title": "The Passion of the Christ", "release_date": "2004-02-25", "original_language": "en", "original_title": "The Passion of the Christ", "genre_ids": [18], "backdrop_path": "/clVnEHURb8Ot3twaLmf7N1lNym1.jpg", "adult": false, "overview": "A graphic portrayal of the last twelve hours of Jesus of Nazareth's life.", "poster_path": "/oFuLM1EaKhi1WNWiTjQ1HKIZ1Eg.jpg", "popularity": 21.645}, {"id": 235260, "video": false, "vote_count": 137, "vote_average": 6.4, "title": "Son of God", "release_date": "2014-02-28", "original_language": "en", "original_title": "Son of God", "genre_ids": [18], "backdrop_path": "/fabLQCBndX9Zfd3mX0RS1OjyqEX.jpg", "adult": false, "overview": "The life story of Jesus is told from his humble birth through his teachings, crucifixion and ultimate resurrection.", "poster_path": "/xyFaNh1IGdHEJbuLdba6a7GxLzP.jpg", "popularity": 16.198}, {"id": 147441, "video": false, "vote_count": 3120, "vote_average": 5.8, "title": "Exodus: Gods and Kings", "release_date": "2014-12-03", "original_language": "en", "original_title": "Exodus: Gods and Kings", "genre_ids": [28, 12, 18], "backdrop_path": "/hOOgtrByGgWfqGTTn5VL7jkLYXJ.jpg", "adult": false, "overview": "The defiant leader Moses rises up against the Egyptian Pharaoh Ramses, setting 400,000 slaves on a monumental journey of escape from Egypt and its terrifying cycle of deadly plagues.", "poster_path": "/ycDcPCpWM7hSdIR6tFkOzQPkve2.jpg", "popularity": 34.129}, {"id": 86834, "video": false, "vote_count": 4274, "vote_average": 5.6, "title": "Noah", "release_date": "2014-03-07", "original_language": "en", "original_title": "Noah", "genre_ids": [12, 18], "backdrop_path": "/jnoJgpITphPoqA3e7JnNC4mtAVX.jpg", "adult": false, "overview": "A man who suffers visions of an apocalyptic deluge takes measures to protect his family from the coming flood.", "poster_path": "/5wioUjzwr91fvq7ydunxK2CPSxi.jpg", "popularity": 13.337}, {"id": 9946, "video": false, "vote_count": 932, "vote_average": 5.7, "title": "End of Days", "release_date": "1999-11-24", "original_language": "en", "original_title": "End of Days", "genre_ids": [28, 14, 27, 9648], "backdrop_path": "/q5KcZBMc4Vs5SQelnSdY3ICm56M.jpg", "adult": false, "overview": "On 28 December 1999, the citizens of New York City are getting ready for the turn of the millennium. However, the Devil decides to crash the party by coming to the city, inhabiting a man's body, and searching for his chosen bride\u2014a 20-year-old woman named Christine York. The world will end, and the only hope lies within an atheist named Jericho Cane.", "poster_path": "/bEIjH6GroeWaBkn6o7MVpMNbuyw.jpg", "popularity": 15.853}, {"id": 11051, "video": false, "vote_count": 488, "vote_average": 7.3, "title": "The Last Temptation of Christ", "release_date": "1988-08-12", "original_language": "en", "original_title": "The Last Temptation of Christ", "genre_ids": [18], "backdrop_path": "/rBqdcQeM1h05YjF9rFtPWnNaDO2.jpg", "adult": false, "overview": "Jesus, a humble Judean carpenter beginning to see that he is the son of God, is drawn into revolutionary action against the Roman occupiers by Judas -- despite his protestations that love, not violence, is the path to salvation. The burden of being the savior of mankind torments Jesus throughout his life, leading him to doubt. As he is put to death on the cross, Jesus is tempted by visions of an ordinary life married to Mary Magdalene.", "poster_path": "/dutPJWBeQgdfjRqeKojqmyIdXFd.jpg", "popularity": 11.894}, {"adult": false, "backdrop_path": "/sO6AnUEirDnaxjy8dxaqYEKDxGi.jpg", "genre_ids": [18, 36], "id": 6844, "original_language": "en", "original_title": "The Ten Commandments", "overview": "Escaping death, a Hebrew infant is raised in a royal household to become a prince. Upon discovery of his true heritage, Moses embarks on a personal quest to reclaim his destiny as the leader and liberator of the Hebrew people.", "poster_path": "/loLrO3SfhHkN3o3fTHdx1vf9ZYf.jpg", "release_date": "1956-10-05", "title": "The Ten Commandments", "video": false, "vote_average": 7.6, "vote_count": 659, "popularity": 17.954}, {"id": 2525, "video": false, "vote_count": 55, "vote_average": 6.4, "title": "The Bible: In the Beginning...", "release_date": "1966-09-28", "original_language": "en", "original_title": "The Bible: In the Beginning...", "genre_ids": [18], "backdrop_path": "/kNYhdeLZPeeVLmwtw1iqSCO1zxe.jpg", "adult": false, "overview": "Extravagant production of the first part of the book of Genesis. Covers Adam and Eve, Noah and the Flood and Abraham and Isaac.", "poster_path": "/5Lp3sMtwMxcc2Azm4DDVyxWpHvr.jpg", "popularity": 13.278}, {"id": 11416, "video": false, "vote_count": 688, "vote_average": 7.4, "title": "The Mission", "release_date": "1986-09-29", "original_language": "en", "original_title": "The Mission", "genre_ids": [28, 12, 18, 36], "backdrop_path": "/22GLW4Qgs7NycHLjsp8whRCuky4.jpg", "adult": false, "overview": "When a Spanish Jesuit goes into the South American wilderness to build a mission in the hope of converting the Indians of the region, a slave hunter is converted and joins his mission. When Spain sells the colony to Portugal, they are forced to defend all they have built against the Portugese aggressors.", "poster_path": "/oTU13XXz4WHisDWKX3X6dFWEjC0.jpg", "popularity": 11.33}, {"id": 474392, "video": false, "vote_count": 88, "vote_average": 5.3, "title": "Samson", "release_date": "2018-02-16", "original_language": "en", "original_title": "Samson", "genre_ids": [28, 12, 18], "backdrop_path": "/yR6952VuJ2OchliEj0vyRxFZiBT.jpg", "adult": false, "overview": "After losing the love of his life to a cruel Philistine prince, a young Hebrew with Supernatural strength defends his people, sacrificing everything to avenge his love, his people, and his God.", "poster_path": "/v7Zaj1IEzMMB7KzfglpxdXWB66u.jpg", "popularity": 15.598}, {"id": 324786, "video": false, "vote_count": 7334, "vote_average": 8.1, "title": "Hacksaw Ridge", "release_date": "2016-10-07", "original_language": "en", "original_title": "Hacksaw Ridge", "genre_ids": [18, 36, 10752], "backdrop_path": "/zBK4QZONMQXhcgaJv1YYTdCW7q9.jpg", "adult": false, "overview": "WWII American Army Medic Desmond T. Doss, who served during the Battle of Okinawa, refuses to kill people and becomes the first Conscientious Objector in American history to receive the Congressional Medal of Honor.", "poster_path": "/bndiUFfJxNd2fYx8XO610L9a07m.jpg", "popularity": 26.345}, {"adult": false, "backdrop_path": "/dAK3Sql45m1xyMzCm5LDa4Bmucx.jpg", "genre_ids": [878, 18], "id": 13363, "original_language": "en", "original_title": "The Man from Earth", "overview": "An impromptu goodbye party for Professor John Oldman becomes a mysterious interrogation after the retiring scholar reveals to his colleagues he never ages and has walked the earth for 14,000 years.", "poster_path": "/zYP2lBJ5GRV1HaIi4USqRl3phe.jpg", "release_date": "2007-06-10", "title": "The Man from Earth", "video": false, "vote_average": 7.7, "vote_count": 1237, "popularity": 15.764}, {"id": 242, "video": false, "vote_count": 3308, "vote_average": 7.4, "title": "The Godfather: Part III", "release_date": "1990-12-24", "original_language": "en", "original_title": "The Godfather: Part III", "genre_ids": [80, 18, 53], "backdrop_path": "/dEuqTwwhfvk66jUKQa7bMqM5Cf7.jpg", "adult": false, "overview": "In the midst of trying to legitimize his business dealings in 1979 New York and Italy, aging mafia don, Michael Corleone seeks forgiveness for his sins while taking a young protege under his wing.", "poster_path": "/1hdm3Axw9LjITbApvAXBbqO58zE.jpg", "popularity": 27.213}, {"id": 310, "video": false, "vote_count": 6935, "vote_average": 6.6, "title": "Bruce Almighty", "release_date": "2003-05-23", "original_language": "en", "original_title": "Bruce Almighty", "genre_ids": [35, 14], "backdrop_path": "/bhEudqWbWsiEBdnl0kCIwFp5Hay.jpg", "adult": false, "overview": "Bruce Nolan toils as a 'human interest' television reporter in Buffalo, N.Y., but despite his high ratings and the love of his beautiful girlfriend, Bruce remains unfulfilled. At the end of the worst day in his life, he angrily ridicules God\u2014and the Almighty responds, endowing Bruce with all of His divine powers.", "poster_path": "/lgYKHifMMLT8OxYObMKa8b4STsr.jpg", "popularity": 33.956}, {"id": 591, "video": false, "vote_count": 5720, "vote_average": 6.7, "title": "The Da Vinci Code", "release_date": "2006-05-17", "original_language": "en", "original_title": "The Da Vinci Code", "genre_ids": [9648, 53], "backdrop_path": "/hcAMO4LF6G2hvsTpNgmY1kFj3jJ.jpg", "adult": false, "overview": "A murder in Paris\u2019 Louvre Museum and cryptic clues in some of Leonardo da Vinci\u2019s most famous paintings lead to the discovery of a religious mystery. For 2,000 years a secret society closely guards information that \u2014 should it come to light \u2014 could rock the very foundations of Christianity.", "poster_path": "/5IqaT3fza0Y9vKazjGwDGsNuuS8.jpg", "popularity": 28.373}, {"id": 16366, "video": false, "vote_count": 496, "vote_average": 6.4, "title": "Joseph: King of Dreams", "release_date": "2000-11-07", "original_language": "en", "original_title": "Joseph: King of Dreams", "genre_ids": [16, 10402, 10751], "backdrop_path": "/p5WF1vmFwTrdNlx6Z7mt5ksnG7W.jpg", "adult": false, "overview": "In this animated retelling of the story from the Bible's Book of Genesis, Joseph's gift of dream interpretation and his brilliantly colored coat inspires jealousy in his brothers.", "poster_path": "/dsL5nngGY8qTmXxtAamMUYVQDY3.jpg", "popularity": 18.451}, {"id": 5876, "video": false, "vote_count": 2784, "vote_average": 6.8, "title": "The Mist", "release_date": "2007-11-21", "original_language": "en", "original_title": "The Mist", "genre_ids": [27, 878, 53], "backdrop_path": "/slQnhKRIPkA2Cm5x6VvrOPXt4Qu.jpg", "adult": false, "overview": "After a violent storm, a dense cloud of mist envelops a small Maine town, trapping artist David Drayton and his five-year-old son in a local grocery store with other people. They soon discover that the mist conceals deadly horrors that threaten their lives, and worse, their sanity.", "poster_path": "/uYVheUBf8ITaocUP4Og9GXxOMIH.jpg", "popularity": 15.94}, {"adult": false, "backdrop_path": "/euAMcJLG26pW1kv4kPEtVEwwroQ.jpg", "genre_ids": [36], "id": 476968, "original_language": "en", "original_title": "Paul, Apostle of Christ", "overview": "Risking his life, Luke ventures to Rome to visit Paul -- the apostle who's bound in chains and held captive in Nero's darkest and bleakest prison cell. Haunted by the shadows of his past misdeeds, Paul wonders if he's been forgotten as he awaits his grisly execution. Before Paul's death, Luke resolves to write another book that details the birth of what will come to be known as the church.", "poster_path": "/2NUXG94dGMKYgJL1BkJGKynMb3l.jpg", "release_date": "2018-03-23", "title": "Paul, Apostle of Christ", "video": false, "vote_average": 7.0, "vote_count": 106, "popularity": 18.432}, {"id": 613080, "video": false, "vote_count": 135, "vote_average": 6.3, "title": "Il primo Natale", "release_date": "2019-12-12", "original_language": "it", "original_title": "Il primo Natale", "genre_ids": [35, 14], "backdrop_path": "/peLcUFheR5SFwCDoPMjkmjFuPuj.jpg", "adult": false, "overview": "", "poster_path": "/l7Oc34f8qIv3LvX6QxxtIX4Czcu.jpg", "popularity": 11.959}], "total_pages": 23, "total_results": 460}, "recommendations": {"page": 1, "results": [], "total_pages": 1, "total_results": 0}, "credits": {"cast": [{"cast_id": 1, "character": "Re Saul", "credit_id": "52fe490c9251416c750bbe5b", "gender": 2, "id": 40, "name": "Orson Welles", "order": 0, "profile_path": "/k7a0gp3HKWT5uBmfirM74vackiV.jpg"}, {"cast_id": 2, "character": "David", "credit_id": "52fe490c9251416c750bbe5f", "gender": 0, "id": 137356, "name": "Ivica Pajer", "order": 1, "profile_path": "/k4HoMm7YeJZqGLObaQms6vM7bWX.jpg"}, {"cast_id": 3, "character": "Samuele", "credit_id": "52fe490c9251416c750bbe63", "gender": 0, "id": 145238, "name": "Hilton Edwards", "order": 2, "profile_path": "/ufEMfrGCOOZ33CiQYNHb75oroWP.jpg"}, {"cast_id": 4, "character": "Abner", "credit_id": "52fe490c9251416c750bbe67", "gender": 2, "id": 14148, "name": "Massimo Serato", "order": 3, "profile_path": "/vQlY5M9F1KERGi5xr35ynderDMy.jpg"}, {"cast_id": 5, "character": "Merab", "credit_id": "57a338c79251416b97004e28", "gender": 1, "id": 25789, "name": "Eleonora Rossi Drago", "order": 4, "profile_path": "/cfZkDKktD7PWJ23PvQW4B14QhEi.jpg"}, {"cast_id": 6, "character": "Micol", "credit_id": "57a338d69251410a5f001ad6", "gender": 1, "id": 31990, "name": "Giulia Rubini", "order": 5, "profile_path": null}, {"cast_id": 16, "character": "Jonathan", "credit_id": "5c1e8448c3a3686ffce98474", "gender": 0, "id": 49898, "name": "Pierre Cressoy", "order": 6, "profile_path": "/qqNNkqs95ixohaTQVBXbpd4rsc9.jpg"}, {"cast_id": 17, "character": "Asrod, re dei Filistei", "credit_id": "5c1e8453c3a3681c34e95516", "gender": 2, "id": 52255, "name": "Furio Meniconi", "order": 7, "profile_path": "/qra3034q3EyuYW4zocDM4Zh2Qjk.jpg"}, {"cast_id": 18, "character": "Golia", "credit_id": "5c1e845dc3a3687001e97d40", "gender": 0, "id": 1162874, "name": "Aldo Pedinotti", "order": 8, "profile_path": null}, {"cast_id": 19, "character": "Cret", "credit_id": "5c1e846792514167fbbf518a", "gender": 2, "id": 544552, "name": "Dante Maggio", "order": 9, "profile_path": "/eGavc37w0LbjL2saGdpJauWYZLo.jpg"}, {"cast_id": 20, "character": "Benjamin Di Gaba", "credit_id": "5c1e84730e0a264ddeeb675c", "gender": 2, "id": 227983, "name": "Luigi Tosi", "order": 10, "profile_path": null}, {"cast_id": 21, "character": "Lazar", "credit_id": "5c1e847c92514167f1bf5cbd", "gender": 0, "id": 1281671, "name": "Umberto Fiz", "order": 11, "profile_path": null}, {"cast_id": 22, "character": "Huro", "credit_id": "5c1e84859251416801bf4bf0", "gender": 2, "id": 46546, "name": "Ugo Sasso", "order": 12, "profile_path": "/ujHNP9wHzrnS86ogIdbpibnUNek.jpg"}, {"cast_id": 23, "character": "madre di David", "credit_id": "5c1e848f9251416801bf4bf5", "gender": 0, "id": 994523, "name": "Emma Baron", "order": 13, "profile_path": "/tGZGpVyB2LAykQ70jkQZl7SfylD.jpg"}, {"cast_id": 24, "character": "", "credit_id": "5c1e84999251416801bf4bf8", "gender": 0, "id": 598779, "name": "Fabrizio Capucci", "order": 14, "profile_path": null}, {"cast_id": 25, "character": "", "credit_id": "5c1e84a30e0a264ddeeb6770", "gender": 0, "id": 56729, "name": "Carlo D'Angelo", "order": 15, "profile_path": "/e76T8eXNu6OZkvaTZZV8kyoNdlv.jpg"}, {"cast_id": 26, "character": "", "credit_id": "5c1e84aa0e0a264dedeb7647", "gender": 0, "id": 2199860, "name": "Ileana Danelli", "order": 16, "profile_path": null}, {"cast_id": 27, "character": "", "credit_id": "5c1e84b20e0a264dd8eb7367", "gender": 0, "id": 1435626, "name": "Carla Foscari", "order": 17, "profile_path": null}, {"cast_id": 28, "character": "", "credit_id": "5c1e84bac3a368700ee98e23", "gender": 0, "id": 1082661, "name": "Roberto Miali", "order": 18, "profile_path": null}, {"cast_id": 29, "character": "", "credit_id": "5c1e84c292514167fdbf4e56", "gender": 2, "id": 1441115, "name": "Renato Terra", "order": 19, "profile_path": "/r6rQ7QX4CmYvnrGfXMR74SJr8dX.jpg"}, {"cast_id": 30, "character": "", "credit_id": "5c1e84ca9251416805bf4e72", "gender": 2, "id": 31991, "name": "Gabriele Tinti", "order": 20, "profile_path": "/pl1PwEw7M55MaXnCpADCecJlmp9.jpg"}, {"cast_id": 31, "character": "", "credit_id": "5c1e84dd92514167efbf56d9", "gender": 0, "id": 1210864, "name": "Nadia Lara", "order": 21, "profile_path": null}, {"cast_id": 32, "character": "", "credit_id": "5c1e84e8c3a3686ff9e97c8c", "gender": 0, "id": 2199861, "name": "Marina Riccardi", "order": 22, "profile_path": null}, {"cast_id": 33, "character": "", "credit_id": "5c1e84f192514167efbf56de", "gender": 0, "id": 1209600, "name": "Simonetta Simeoni", "order": 23, "profile_path": null}], "crew": [{"credit_id": "59808ce6925141491d012780", "department": "Writing", "gender": 0, "id": 27853, "job": "Writer", "name": "Emimmo Salvi", "profile_path": null}, {"credit_id": "59808c90c3a36810b6010536", "department": "Directing", "gender": 2, "id": 41159, "job": "Director", "name": "Ferdinando Baldi", "profile_path": "/sGrEyFyhVVIeYCD06NQ6CVr9XOB.jpg"}, {"credit_id": "59808cc3c3a368109e011676", "department": "Writing", "gender": 0, "id": 52248, "job": "Writer", "name": "Umberto Scarpelli", "profile_path": null}, {"credit_id": "59808cdbc3a3681083011759", "department": "Writing", "gender": 0, "id": 52250, "job": "Writer", "name": "Ambrogio Molteni", "profile_path": null}, {"credit_id": "59808cf49251414921011dbf", "department": "Editing", "gender": 0, "id": 52258, "job": "Editor", "name": "Franco Fraticelli", "profile_path": null}, {"credit_id": "59808cce9251414929011ed2", "department": "Writing", "gender": 0, "id": 264477, "job": "Writer", "name": "Gino Mangini", "profile_path": null}, {"credit_id": "59808cacc3a3681047013825", "department": "Directing", "gender": 0, "id": 543939, "job": "Director", "name": "Richard Pottier", "profile_path": null}, {"credit_id": "59808d05c3a36810030122cd", "department": "Sound", "gender": 0, "id": 548188, "job": "Original Music Composer", "name": "Carlo Innocenzi", "profile_path": null}, {"credit_id": "59808cfdc3a3681083011785", "department": "Camera", "gender": 0, "id": 985182, "job": "Director of Photography", "name": "Bitto Albertini", "profile_path": null}]}}