{"adult": false, "backdrop_path": "/duWVpV4GmYDAMEJJVXEAZJiDQ1x.jpg", "belongs_to_collection": {"id": 165679, "name": "Girl's on Top Collection", "poster_path": "/aCmjvFfEMXDxP2dSCTRORXrmg2H.jpg", "backdrop_path": "/ysyPMmhgZ9Z4heU7vdUBP7L5zCl.jpg"}, "budget": 0, "genres": [{"id": 35, "name": "Comedy"}], "homepage": null, "id": 9337, "imdb_id": "tt0258827", "original_language": "de", "original_title": "M\u00e4dchen M\u00e4dchen!", "overview": "The adventures of three teenage girls - Inken, Vicky and Lena - and their quest to have their first orgasm.", "popularity": 6.152, "poster_path": "/aCmjvFfEMXDxP2dSCTRORXrmg2H.jpg", "production_companies": [{"id": 8987, "logo_path": null, "name": "Bayerischer Banken-Fonds", "origin_country": ""}, {"id": 7930, "logo_path": null, "name": "Olga Film GmbH", "origin_country": ""}], "production_countries": [{"iso_3166_1": "DE", "name": "Germany"}], "release_date": "2001-03-29", "revenue": 0, "runtime": 90, "spoken_languages": [{"iso_639_1": "de", "name": "Deutsch"}], "status": "Released", "tagline": "", "title": "Girls on Top", "video": false, "vote_average": 5.1, "vote_count": 34, "keywords": {"keywords": [{"id": 248, "name": "date"}, {"id": 738, "name": "sexuality"}, {"id": 1525, "name": "puberty"}, {"id": 3201, "name": "orgasm"}, {"id": 5605, "name": "volleyball"}, {"id": 8508, "name": "party"}, {"id": 10791, "name": "teenage crush"}, {"id": 10809, "name": "teenage girl"}, {"id": 13088, "name": "summer"}, {"id": 18046, "name": "internet chat"}, {"id": 188991, "name": "drunkenness"}]}, "similar": {"page": 1, "results": [{"id": 19913, "video": false, "vote_count": 6208, "vote_average": 7.2, "title": "(500) Days of Summer", "release_date": "2009-07-17", "original_language": "en", "original_title": "(500) Days of Summer", "genre_ids": [35, 18, 10749], "backdrop_path": "/yYw9cVdRJ4zzwxM2cTDXfT6JI6E.jpg", "adult": false, "overview": "Tom, greeting-card writer and hopeless romantic, is caught completely off-guard when his girlfriend, Summer, suddenly dumps him. He reflects on their 500 days together to try to figure out where their love affair went sour, and in doing so, Tom rediscovers his true passions in life.", "poster_path": "/5SjtNPD1bb182vzQccvEUpXHFjN.jpg", "popularity": 20.487}, {"id": 2770, "video": false, "vote_count": 2941, "vote_average": 6.1, "title": "American Pie 2", "release_date": "2001-08-10", "original_language": "en", "original_title": "American Pie 2", "genre_ids": [35, 10749], "backdrop_path": "/1C1d3Tpesm8Vn3BRqsQZt0LfZcG.jpg", "adult": false, "overview": "The whole gang are back and as close as ever. They decide to get even closer by spending the summer together at a beach house. They decide to hold the biggest party ever to be seen, even if the preparation doesn't always go to plan. Especially when Stifler, Finch and Jim become more close to each other than they ever want to be and when Jim mistakes super glue for lubricant...", "poster_path": "/q4LNgUnRfltxzp3gf1MAGiK5LhV.jpg", "popularity": 20.359}, {"adult": false, "backdrop_path": "/ecREZ3vYCqethftSDWK4we0X498.jpg", "genre_ids": [35, 18, 10749], "id": 4507, "original_language": "es", "original_title": "Jam\u00f3n, jam\u00f3n", "overview": "Jose Luis is an executive at his parents underwear factory where his girlfriend Sylvia works on the shop floor. When Sylvia becomes pregnant, Jose Luis promises her that he will marry her, most likely against the wishes of his parents. Jose Luis' mother is determined to break her son's engagement to a girl from a lower-class family, and hires Raul, a potential underwear model and would-be bullfighter to seduce Sylvia.", "poster_path": "/v5Fq01ZtYnA2Grxdd3g8CuGZARg.jpg", "release_date": "1992-09-03", "title": "Jamon Jamon", "video": false, "vote_average": 6.1, "vote_count": 143, "popularity": 13.381}, {"id": 466876, "video": false, "vote_count": 99, "vote_average": 6.1, "title": "Gnome Alone", "release_date": "2017-11-02", "original_language": "en", "original_title": "Gnome Alone", "genre_ids": [12, 16, 35, 14, 878, 10751], "backdrop_path": "/dUYaqvQQHzGXuxfIUygXVIh8F1l.jpg", "adult": false, "overview": "When Chloe discovers that her new home's garden gnomes are not what they seem, she must decide between the pursuit of a desired high school life and taking up the fight against the Troggs.", "poster_path": "/jWB0zhk1Rj1tIWUM98Wsh15gkiW.jpg", "popularity": 26.144}, {"id": 129139, "video": false, "vote_count": 623, "vote_average": 5.6, "title": "The To Do List", "release_date": "2013-07-24", "original_language": "en", "original_title": "The To Do List", "genre_ids": [35, 10749], "backdrop_path": "/mrxhYT4o5i0aSNIRPUEl19GqLjW.jpg", "adult": false, "overview": "Feeling pressured to become more sexually experienced before she goes to college, Brandy Klark makes a list of things to accomplish before hitting campus in the fall.", "poster_path": "/kcFuRIq7vVNkjcPcvNcdsT2Bgf9.jpg", "popularity": 10.443}, {"adult": false, "backdrop_path": "/xOGEw8iywxcFMolV6SF6YdTdJTb.jpg", "genre_ids": [10402, 10749], "id": 52371, "original_language": "nl", "original_title": "LelleBelle", "overview": "19-year old Belle practices playing the violin diligently, but is unable to impart her music with a sensitive undertone. Her life changes when she discovers that sexual desire stimulates passion in her music.", "poster_path": "/nJVPgIq3icZMQ26p5uWIFdUZJfL.jpg", "release_date": "2010-10-08", "title": "LelleBelle", "video": false, "vote_average": 4.7, "vote_count": 41, "popularity": 13.747}, {"adult": false, "backdrop_path": "/yQAsMzPv4WihBeD3CXEu3ogDkqj.jpg", "genre_ids": [35, 18], "id": 17899, "original_language": "es", "original_title": "Mentiras y gordas", "overview": "A youth group is preparing for what will be the summer of their life, including secrets, lies, sex, confusion, evenings and holidays.", "poster_path": "/bw9PUOLftsUHi04tCRblc1xgcYG.jpg", "release_date": "2009-03-27", "title": "Sex, Party and Lies", "video": false, "vote_average": 4.1, "vote_count": 77, "popularity": 17.93}, {"id": 301365, "video": false, "vote_count": 2290, "vote_average": 6.5, "title": "The Neon Demon", "release_date": "2016-06-08", "original_language": "en", "original_title": "The Neon Demon", "genre_ids": [27, 9648, 53], "backdrop_path": "/wwFP2C8zVRHWhtG9HRGhFImIcHm.jpg", "adult": false, "overview": "When aspiring model Jesse moves to Los Angeles, her youth and vitality are devoured by a group of beauty-obsessed women who will take any means necessary to get what she has.", "poster_path": "/pksGBk7yJqSuQ2F47S9eoqbtjWt.jpg", "popularity": 17.246}, {"id": 30018, "video": false, "vote_count": 432, "vote_average": 7.8, "title": "Mother", "release_date": "2009-05-28", "original_language": "ko", "original_title": "\ub9c8\ub354", "genre_ids": [80, 18, 9648, 53], "backdrop_path": "/qCWHkMFWaNjlE1QV3iy3iMaA1fD.jpg", "adult": false, "overview": "A mother lives quietly with her son. One day, a girl is brutally killed, and the boy is charged with the murder. Now, it's his mother's mission to prove him innocent.", "poster_path": "/mHdlmzflukTX2a2w6rwOkCix34v.jpg", "popularity": 12.417}, {"adult": false, "backdrop_path": "/3qFFHnFkULFJPY3ZRvRD0U2r6b8.jpg", "genre_ids": [18], "id": 1631, "original_language": "fr", "original_title": "Une vraie jeune fille", "overview": "Bored and restless, Alice spends much of her time lusting after Jim, a local sawmill worker. When not lusting after him, Alice fills the hours with such pursuits as writing her name on a mirror with vaginal secretions and wandering the fields with her underwear around her ankles. And, in true teenaged tradition, she spends a lot of time writing in her diary.", "poster_path": "/vmUxfIYlVzPBKIEvRcmqPzU6lB.jpg", "release_date": "1976-01-01", "title": "A Real Young Girl", "video": false, "vote_average": 5.4, "vote_count": 53, "popularity": 14.121}, {"adult": false, "backdrop_path": "/xfcb5Cq5pYrGcAxGjFQqKCPVOK3.jpg", "genre_ids": [35, 18, 10749], "id": 7326, "original_language": "en", "original_title": "Juno", "overview": "Faced with an unplanned pregnancy, an offbeat young woman makes an unusual decision regarding her unborn child.", "poster_path": "/eE64N6PYCSRW2mtQucfK2av5Wk2.jpg", "release_date": "2007-12-05", "title": "Juno", "video": false, "vote_average": 7.0, "vote_count": 4565, "popularity": 15.468}, {"adult": false, "backdrop_path": "/oI5OlPwuhxxHLYgM0y5tMpLf9N0.jpg", "genre_ids": [18, 35], "id": 9779, "original_language": "en", "original_title": "The Sisterhood of the Traveling Pants", "overview": "Four best friends (Tibby, Lena, Carmen &amp; Bridget) who buy a mysterious pair of pants that fits each of them, despite their differing sizes, and makes whoever wears them feel fabulous. When faced with the prospect of spending their first summer apart, the pals decide they'll swap the pants so that each girl in turn can enjoy the magic.", "poster_path": "/dRNSxq5OqxaBLdQwarG4xMmDLAr.jpg", "release_date": "2005-06-01", "title": "The Sisterhood of the Traveling Pants", "video": false, "vote_average": 6.5, "vote_count": 863, "popularity": 9.458}, {"adult": false, "backdrop_path": "/AhtlSh10L6hhkaAVF0Mz5OgHItg.jpg", "genre_ids": [18, 10749, 35, 10751], "id": 166, "original_language": "fr", "original_title": "La Boum", "overview": "LA BOUM is the story of a 13-year-old French girl dealing with moving to a new city and school in Paris, while at the same time her parents are getting a divorce.", "poster_path": "/1a7lRpHfOtmnvlbxLnt5mBk8RPA.jpg", "release_date": "1980-01-01", "title": "The Party", "video": false, "vote_average": 6.6, "vote_count": 655, "popularity": 11.471}, {"adult": false, "backdrop_path": "/8rjzuGxXaJRbj1ixZSA1Z1WNQZ4.jpg", "genre_ids": [35, 18], "id": 4255, "original_language": "en", "original_title": "The Party at Kitty and Stud's", "overview": "Kitty and Stud are lovers. They enjoy a robust sex-life, which includes fellatio and light S&M, specifically, Stud belt-whipping Kitty. Three women come over for a party and Stud services them, one after the other.", "poster_path": "/iwCJQRoEtNGTppUnKCb3ClVtVbl.jpg", "release_date": "1970-02-10", "title": "The Party at Kitty and Stud's", "video": false, "vote_average": 2.9, "vote_count": 35, "popularity": 10.508}, {"id": 13768, "video": false, "vote_count": 261, "vote_average": 6.5, "title": "Tuck Everlasting", "release_date": "2002-10-11", "original_language": "en", "original_title": "Tuck Everlasting", "genre_ids": [18, 14, 878, 10749, 10751], "backdrop_path": "/tTWIMWy7AQO2INqPPm5hZ44hBrs.jpg", "adult": false, "overview": "Natalie Babbitt's award winning book for children comes to the screen in a lavish adaptation from Walt Disney Pictures. Winnie Foster (Alexis Bledel) is a girl in her early teens growing up in the small rural town of Winesap in 1914. Winnie's parents (Victor Garber and Amy Irving) are loving but overprotective, and Winnie longs for a life of greater freedom and adventure.", "poster_path": "/dCHSBPTRvlR9i38Aja6cVHfhk4N.jpg", "popularity": 8.197}, {"id": 10190, "video": false, "vote_count": 79, "vote_average": 6.4, "title": "Towelhead", "release_date": "2008-09-12", "original_language": "en", "original_title": "Towelhead", "genre_ids": [18], "backdrop_path": "/9XDJgNj9YTniYwnzCL3oQN4CRwM.jpg", "adult": false, "overview": "A young Arab-American girl struggles with her sexual obsession, a bigoted Army reservist and her strict father during the Gulf War.", "poster_path": "/c0A6zaSbMNbN2eXnMWzx5baQbOt.jpg", "popularity": 9.944}, {"id": 352186, "video": false, "vote_count": 172, "vote_average": 6.4, "title": "Good Kids", "release_date": "2016-07-29", "original_language": "en", "original_title": "Good Kids", "genre_ids": [35], "backdrop_path": "/fQnUWu7Sle87lPPnXRUjSAgFG4o.jpg", "adult": false, "overview": "Four high school students look to redefine themselves after graduation.", "poster_path": "/9R3hZnqFNyFmG10qwKzaUntlUbg.jpg", "popularity": 13.257}, {"adult": false, "backdrop_path": "/da8Kj1bgPvL8Tf1PgkA70UwmYzh.jpg", "genre_ids": [35, 18, 10749], "id": 10938, "original_language": "en", "original_title": "Beautiful Thing", "overview": "Set during a long, hot summer on the Thamesmead Estate in Southeast London, three teenagers edge towards adulthood.", "poster_path": "/8z1ZkZoznIGLyx4xHEaQNZqG63D.jpg", "release_date": "1996-06-21", "title": "Beautiful Thing", "video": false, "vote_average": 7.5, "vote_count": 154, "popularity": 9.835}, {"adult": false, "backdrop_path": "/mjCTpAo0GIfK8tzt1YPJuy1dA9S.jpg", "genre_ids": [35, 18], "id": 342, "original_language": "de", "original_title": "Sommersturm", "overview": "Tobi and Achim, the pride of the local crew club, have been the best of friends for years and are convinced that nothing will ever stand in the way of their friendship. They look forward to the upcoming summer camp and the crew competition. Then the gay team from Berlin arrives and Tobi is totally confused. The evening before the races begin, the storm that breaks out is more than meteorlogical...", "poster_path": "/vvoOOEgSv2kKVxIqTZvFwtPp9eI.jpg", "release_date": "2004-09-02", "title": "Summer Storm", "video": false, "vote_average": 6.9, "vote_count": 109, "popularity": 9.046}, {"adult": false, "backdrop_path": "/tb4FhC5N6DjTOWlRyPtmvv3XigN.jpg", "genre_ids": [18, 35, 10749], "id": 26602, "original_language": "en", "original_title": "Summer Catch", "overview": "A coming-of-age romantic comedy set against the backdrop of the Cape Cod Baseball League. Local boy Ryan Dunne (Freddie Prinze Jr.), now a pitcher for Boston College, meets Tenley Parrish (Jessica Biel), the daughter of a wealthy couple who summer on the Cape. Ryan and Tenley fall in love, much to the chagrin of their families, while Ryan clings to one last hope of being discovered and signed to a pro baseball contract.", "poster_path": "/ik6vcNPcVb93uuMZHYXLnmOHVB5.jpg", "release_date": "2001-08-22", "title": "Summer Catch", "video": false, "vote_average": 5.3, "vote_count": 102, "popularity": 8.146}], "total_pages": 3, "total_results": 60}, "recommendations": {"page": 1, "results": [{"adult": false, "backdrop_path": "/x9MWr1g8tK7Vfk4Ng4LpJ6N8cCM.jpg", "genre_ids": [35], "id": 11179, "original_language": "de", "original_title": "M\u00e4dchen, M\u00e4dchen 2 - Loft oder Liebe", "overview": "M\u00e4dchen, M\u00e4dchen 2 \u2013 Loft oder Liebe (Girls On Top 2) is a German-language comedic film directed by Peter Gersina. The movie is the second movie about Inken (Diana Amft), and her friend Lena (Karoline Herfurth),who, having left their parents' homes decide to go in search of a flat of their own. The character Vicky from the first movie played by (Felicitas Woll) is not in this movie and a new friend Lucy (Jasmin Gerat) is an added character. They despair at the price of property in Munich and decide to try and find a rich man to help them in their exploits.", "poster_path": "/yU6tRKQ7Yu8ASTszY5VPFIKikTM.jpg", "release_date": "2004-06-17", "title": "Girls on Top 2", "video": false, "vote_average": 4.6, "vote_count": 24, "popularity": 5.571}, {"adult": false, "backdrop_path": null, "genre_ids": [], "id": 36920, "original_language": "de", "original_title": "Klassenfahrt - Geknutscht wird immer", "overview": "", "poster_path": "/rt2d8bXxZ8AyWjea2VM9QYrh0Vs.jpg", "release_date": "2004-10-27", "title": "The School Trip", "video": false, "vote_average": 5.0, "vote_count": 6, "popularity": 1.641}, {"id": 105130, "video": false, "vote_count": 10, "vote_average": 7.0, "title": "Dangan Runner", "release_date": "1996-11-09", "original_language": "ja", "original_title": "\u5f3e\u4e38\u30e9\u30f3\u30ca\u30fc", "genre_ids": [28, 35, 80], "backdrop_path": null, "adult": false, "overview": "An unemployed man trying to steal from a convenience store, and the store clerk catches him in the act... the thief runs away with the store-clerk right after him. All the while, the store clerk is in trouble with a low-rank yakuza. Along the chase for the thief, they catch the eye of the Yakuza who's been looking for the convenience store clerk", "poster_path": "/5KLAKmMHfPc8FkdN3qD1KaeCBqr.jpg", "popularity": 1.275}, {"adult": false, "backdrop_path": "/5HYGFO4r6FbjmhnCDCycNKQ9MD3.jpg", "genre_ids": [35, 18, 10749], "id": 38813, "original_language": "de", "original_title": "13 Semester", "overview": "When Momo leaves his small home town to go to university, he is full of enthusiasm and confidence, but slowly the pressures of study and campus living begin to grind him down. Half way through his course he finds himself at a crossroads with both his relationship and studies.", "poster_path": "/lsLbjnIXJ5iru19f4BGHEhWvlHU.jpg", "release_date": "2009-10-29", "title": "13 Semester", "video": false, "vote_average": 6.7, "vote_count": 23, "popularity": 3.003}, {"adult": false, "backdrop_path": "/2vcO7ZgW6qgrNaJD1GnEbGhUmTN.jpg", "genre_ids": [28, 18, 53], "id": 42584, "original_language": "en", "original_title": "The Last Ride", "overview": "After thirty years in prison, ex-con Ronnie recruits his grandson to exact revenge on Darryl, the cop who put him behind bars. Standing in their way is Ronnie's son, whom Darryl raised.", "poster_path": "/kUAzq5x2RXAfAsWUwlTUi8udIMA.jpg", "release_date": "2004-06-02", "title": "The Last Ride", "video": false, "vote_average": 3.6, "vote_count": 15, "popularity": 3.783}, {"adult": false, "backdrop_path": "/kODgYuptFhapX3XXKexUNntmg0q.jpg", "genre_ids": [35, 18], "id": 9375, "original_language": "de", "original_title": "Crazy", "overview": "Benjamin is a 16 year old half-side spastic with lousy grades in math, who switches to a boarding school to reach grammar school. Acclimatization to the new environment is difficult in the first place and he has to struggle with the various problems of coming of age, when he falls in love to the school's dream girl Malen.", "poster_path": "/8vIWEQEEaYbLUGoufnDbfFnRYfq.jpg", "release_date": "2000-06-07", "title": "Crazy", "video": false, "vote_average": 6.2, "vote_count": 43, "popularity": 4.319}], "total_pages": 1, "total_results": 6}, "credits": {"cast": [{"cast_id": 1, "character": "Inken", "credit_id": "52fe44e9c3a36847f80b1665", "gender": 1, "id": 57361, "name": "Diana Amft", "order": 0, "profile_path": "/vFE43lFMzpkR8efWfAigewflDZP.jpg"}, {"cast_id": 2, "character": "Lena", "credit_id": "52fe44e9c3a36847f80b1669", "gender": 1, "id": 17067, "name": "Karoline Herfurth", "order": 1, "profile_path": "/8HVqhIaLQA3MOTO88Ncn6VOCzdp.jpg"}, {"cast_id": 3, "character": "Victoria", "credit_id": "52fe44e9c3a36847f80b166d", "gender": 1, "id": 57362, "name": "Felicitas Woll", "order": 2, "profile_path": "/p1WdEvka8cAy3spwYKzg7zz8t8S.jpg"}, {"cast_id": 4, "character": "Nick", "credit_id": "52fe44e9c3a36847f80b1671", "gender": 2, "id": 36436, "name": "Andreas Christ", "order": 3, "profile_path": null}, {"cast_id": 5, "character": "Flin", "credit_id": "52fe44e9c3a36847f80b1675", "gender": 2, "id": 38773, "name": "Max Riemelt", "order": 4, "profile_path": "/yhpFOdbvA6x0abZztfqYBZcmzZO.jpg"}, {"cast_id": 22, "character": "Chayenne", "credit_id": "56758aeec3a368168b002db9", "gender": 1, "id": 210603, "name": "Arzu Bazman", "order": 5, "profile_path": "/nZO07Afsemh2YSpVmnP7jDQKteb.jpg"}, {"cast_id": 23, "character": "Tim", "credit_id": "56758afbc3a3681680002e7d", "gender": 0, "id": 445372, "name": "Frederic Welter", "order": 6, "profile_path": null}, {"cast_id": 6, "character": "Trainer Carsten", "credit_id": "52fe44e9c3a36847f80b1679", "gender": 2, "id": 4795, "name": "Florian Lukas", "order": 7, "profile_path": "/wuXTDkzGaediPleNsvYDOOfFwwY.jpg"}, {"cast_id": 21, "character": "Trainer von Chayennes Team", "credit_id": "53583c480e0a26067f0004e0", "gender": 2, "id": 38300, "name": "Henning Baum", "order": 8, "profile_path": "/e5CkswOQ3YVdH9nCoaouxOnUgxd.jpg"}, {"cast_id": 24, "character": "Dirk", "credit_id": "56758bf7c3a368167a003077", "gender": 0, "id": 222960, "name": "Martin Reinhold", "order": 9, "profile_path": null}, {"cast_id": 28, "character": "Sch\u00e4del", "credit_id": "56758eda92514179e1002fc5", "gender": 0, "id": 1551175, "name": "Max Richter", "order": 13, "profile_path": null}, {"cast_id": 29, "character": "Lenas Oma", "credit_id": "5c86fe790e0a2618885e56be", "gender": 1, "id": 49472, "name": "Elisabeth Scherer", "order": 14, "profile_path": null}], "crew": [{"credit_id": "52fe44e9c3a36847f80b16bb", "department": "Production", "gender": 1, "id": 3747, "job": "Producer", "name": "Molly von F\u00fcrstenberg", "profile_path": null}, {"credit_id": "52fe44e9c3a36847f80b16b5", "department": "Production", "gender": 2, "id": 3748, "job": "Producer", "name": "Harald K\u00fcgler", "profile_path": null}, {"credit_id": "52fe44e9c3a36847f80b1697", "department": "Writing", "gender": 2, "id": 17700, "job": "Author", "name": "Christian Z\u00fcbert", "profile_path": "/3E3TvkH67WMde0PUBJf5Pt8xxaP.jpg"}, {"credit_id": "52fe44e9c3a36847f80b16c1", "department": "Sound", "gender": 2, "id": 49303, "job": "Original Music Composer", "name": "Martin Probst", "profile_path": null}, {"credit_id": "52fe44e9c3a36847f80b16c7", "department": "Camera", "gender": 2, "id": 18090, "job": "Director of Photography", "name": "Axel Sand", "profile_path": null}, {"credit_id": "52fe44e9c3a36847f80b167f", "department": "Directing", "gender": 2, "id": 52961, "job": "Director", "name": "Dennis Gansel", "profile_path": "/uzuvvNapq1tZ5ROrdlYD18zkZZI.jpg"}, {"credit_id": "52fe44e9c3a36847f80b1685", "department": "Writing", "gender": 1, "id": 57363, "job": "Screenplay", "name": "Colette Burson", "profile_path": null}, {"credit_id": "52fe44e9c3a36847f80b168b", "department": "Writing", "gender": 1, "id": 57364, "job": "Author", "name": "Maggie Peren", "profile_path": null}, {"credit_id": "52fe44e9c3a36847f80b1691", "department": "Writing", "gender": 1, "id": 57365, "job": "Screenplay", "name": "Kate Robin", "profile_path": null}, {"credit_id": "52fe44e9c3a36847f80b169d", "department": "Production", "gender": 0, "id": 57366, "job": "Producer", "name": "Thomas Augsberger", "profile_path": null}, {"credit_id": "52fe44e9c3a36847f80b16a3", "department": "Production", "gender": 0, "id": 57367, "job": "Producer", "name": "Matthias Emcke", "profile_path": null}, {"credit_id": "52fe44e9c3a36847f80b16a9", "department": "Production", "gender": 0, "id": 57368, "job": "Executive Producer", "name": "Tina Fauvet", "profile_path": null}, {"credit_id": "52fe44e9c3a36847f80b16af", "department": "Production", "gender": 1, "id": 38471, "job": "Executive Producer", "name": "Viola J\u00e4ger", "profile_path": null}, {"credit_id": "52fe44e9c3a36847f80b16cd", "department": "Editing", "gender": 0, "id": 57369, "job": "Editor", "name": "Anne Christine Loewer", "profile_path": null}]}}