{"adult": false, "backdrop_path": "/vBJcG8KyAfH2RFD4DO6JAaZReOV.jpg", "belongs_to_collection": null, "budget": 0, "genres": [{"id": 18, "name": "Drama"}], "homepage": null, "id": 93669, "imdb_id": "tt0078152", "original_language": "fr", "original_title": "Les Rendez-vous d'Anna", "overview": "Anna is a film director whose job takes her all over western Europe. In each place she either already has some intimate connection, or readily makes one. People seem drawn to her, but inevitably insist on sharing their inmost secrets and discontents with her, despite her obvious and profound lack of interest in these revelations. This does not deter Anna from continuing to meet people, and she genuinely connects with them occasionally, as when she sees her mother briefly in Brussels.", "popularity": 3.43, "poster_path": "/lUBd7gMLBYMoNKUMZMEcLYsw4ds.jpg", "production_companies": [{"id": 10645, "logo_path": null, "name": "Paradise Films", "origin_country": ""}, {"id": 10647, "logo_path": null, "name": "Unit\u00e9 Trois", "origin_country": ""}, {"id": 4606, "logo_path": "/otZHbf1HmzLRQsZFSqJXkf8EHz7.png", "name": "ZDF", "origin_country": "DE"}, {"id": 10649, "logo_path": null, "name": "H\u00e9l\u00e8ne Films", "origin_country": ""}], "production_countries": [{"iso_3166_1": "BE", "name": "Belgium"}, {"iso_3166_1": "FR", "name": "France"}, {"iso_3166_1": "DE", "name": "Germany"}], "release_date": "1978-10-08", "revenue": 0, "runtime": 120, "spoken_languages": [{"iso_639_1": "fr", "name": "Fran\u00e7ais"}], "status": "Released", "tagline": "", "title": "The Meetings of Anna", "video": false, "vote_average": 7.5, "vote_count": 13, "keywords": {"keywords": [{"id": 180540, "name": "cologne germany"}, {"id": 187056, "name": "woman director"}]}, "similar": {"page": 1, "results": [{"adult": false, "backdrop_path": "/cADbqsIoiDW7X3Myg9nz8eAuno5.jpg", "genre_ids": [18, 10749], "id": 10818, "original_language": "fr", "original_title": "Naissance des pieuvres", "overview": "Set during a sultry summer in a French suburb, Marie is desperate to join the local pool's synchronized swimming team, but is her interest solely for the sake of sport or for a chance to get close to Floriane, the bad girl of the team? Sciamma, and the two leads, capture the uncertainty of teenage sexuality with a sympathetic eye in this delicate drama of the angst of coming-of-age.", "poster_path": "/4jajELYrR4Xmv3CVoKnukRnALa2.jpg", "release_date": "2007-05-17", "title": "Water Lilies", "video": false, "vote_average": 6.1, "vote_count": 119, "popularity": 10.744}, {"adult": false, "backdrop_path": "/gZeJziVigmRqbkEZwKAtSqlLQ6s.jpg", "genre_ids": [18, 10749], "id": 370663, "original_language": "en", "original_title": "Below Her Mouth", "overview": "An unexpected affair quickly escalates into a heart-stopping reality for two women whose passionate connection changes their lives forever.", "poster_path": "/nTGbq37hYLuNy7YgMg0gVLma0NS.jpg", "release_date": "2016-09-10", "title": "Below Her Mouth", "video": false, "vote_average": 6.2, "vote_count": 456, "popularity": 22.676}, {"adult": false, "backdrop_path": "/dvQDRfv3qvfHNnVAR57ouVsuErf.jpg", "genre_ids": [10749, 18], "id": 28031, "original_language": "en", "original_title": "If These Walls Could Talk 2", "overview": "The stories of three lesbian couples -- who live in the same house at different periods of time -- who are at a crossroads in their lives. In 1961, Edith loses her lover, Abby, to a stroke. Linda and Amy struggle with feminist issues in 1972. And, in 2000, Kal and Fran try to have a baby with the help of sperm donor.", "poster_path": "/xs7ODbmYQXCDhvXNvz5tF17T59H.jpg", "release_date": "2000-03-05", "title": "If These Walls Could Talk 2", "video": false, "vote_average": 7.1, "vote_count": 55, "popularity": 8.062}, {"adult": false, "backdrop_path": "/knczzNAjBXzSYkeWxoT1u9VNmjR.jpg", "genre_ids": [10749, 18], "id": 258480, "original_language": "en", "original_title": "Carol", "overview": "In 1950s New York, a department-store clerk who dreams of a better life falls for an older, married woman.", "poster_path": "/AbKa7ANxmui0Jmhh7gV7OSELKIL.jpg", "release_date": "2015-11-20", "title": "Carol", "video": false, "vote_average": 7.4, "vote_count": 2182, "popularity": 14.185}, {"adult": false, "backdrop_path": "/fZ8oFcREAr6wgWcXISGql0xyxjB.jpg", "genre_ids": [35, 18], "id": 39781, "original_language": "en", "original_title": "The Kids Are All Right", "overview": "Two women, Nic and Jules, brought a son and daughter into the world through artificial insemination. When one of their children reaches age, both kids go behind their mothers' backs to meet with the donor. Life becomes so much more interesting when the father, two mothers and children start to become attached to each other.", "poster_path": "/fPDeK4MmoGfi2X0oWZev7LrbMqM.jpg", "release_date": "2010-07-09", "title": "The Kids Are All Right", "video": false, "vote_average": 6.6, "vote_count": 923, "popularity": 12.703}, {"adult": false, "backdrop_path": "/rf6G51j0SZL0tP57I8gnqHTRFEr.jpg", "genre_ids": [35, 18, 10749], "id": 273153, "original_language": "fr", "original_title": "La belle saison", "overview": "In 1971, Carole and Delphine meet and fall in love in Paris. When Carole follows Delphine back to her family farm in Limousin, the two find lesbianism and feminism are not as easy in the countryside.", "poster_path": "/evvAkNMO5VJiy5qIo1Hu7fUfvVI.jpg", "release_date": "2015-08-19", "title": "Summertime", "video": false, "vote_average": 6.6, "vote_count": 162, "popularity": 15.434}, {"adult": false, "backdrop_path": "/s12HEmmkJfI2mjltI61hGm5kubD.jpg", "genre_ids": [35, 18, 10749], "id": 20770, "original_language": "en", "original_title": "But I'm a Cheerleader", "overview": "Megan is an all-American girl. A cheerleader. She has a boyfriend. But Megan doesn't like kissing her boyfriend very much. And she's pretty touchy with her cheerleader friends. Her conservative parents worry that she must be a lesbian and send her off to \"sexual redirection\" school, where she must, with other lesbians and gays learn how to be straight.", "poster_path": "/eDGH7CHSdkrYcuUJV1e0WS9DlQL.jpg", "release_date": "1999-12-09", "title": "But I'm a Cheerleader", "video": false, "vote_average": 6.8, "vote_count": 246, "popularity": 10.067}, {"id": 9813, "video": false, "vote_count": 128, "vote_average": 6.1, "title": "The Quiet", "release_date": "2005-09-12", "original_language": "en", "original_title": "The Quiet", "genre_ids": [18, 53], "backdrop_path": "/6eyWAZA4CEidZW1xXnQ4vlYBXTP.jpg", "adult": false, "overview": "After her widowed father dies, deaf teenager Dot moves in with her godparents, Olivia and Paul Deer. The Deers' daughter, Nina, is openly hostile to Dot, but that does not prevent her from telling her secrets to her silent stepsister, including the fact that she wants to kill her lecherous father.", "poster_path": "/GEqIE9YlmygHVUfS64LW2cwAAM.jpg", "popularity": 13.948}, {"adult": false, "backdrop_path": "/tzqeuHWMFihFbiLGHdalPgAcSf6.jpg", "genre_ids": [18, 10749], "id": 18620, "original_language": "en", "original_title": "Go Fish", "overview": "Max is a trendy, pretty, young lesbian, who is having trouble finding love. A friend sets her up with Ely, whom Max likes, but Ely is frumpy, homely, and older. Nor do they have much in common. Can Max learn to look past the packaging?", "poster_path": "/qrEFYrwykaGsY8NULYuYLLI7zrM.jpg", "release_date": "1994-06-10", "title": "Go Fish", "video": false, "vote_average": 5.0, "vote_count": 11, "popularity": 2.626}, {"adult": false, "backdrop_path": "/6tern9vOEwwmkDYC1vRCuO64z0C.jpg", "genre_ids": [10749, 18], "id": 475888, "original_language": "en", "original_title": "Tell It to the Bees", "overview": "Dr. Jean Markham returns to the town she left as a teenager to take over her late father's medical practice. When a school-yard scuffle lands Charlie in her surgery, she invites him to visit the hives in her garden and tell his secrets to the bees, as she once did. The new friendship between the boy and the bee keeper brings his mother Lydia into Jean's world.", "poster_path": "/Rj6zpHhMU1zFW3v28U4PSRSRgP.jpg", "release_date": "2019-05-03", "title": "Tell It to the Bees", "video": false, "vote_average": 6.4, "vote_count": 53, "popularity": 15.113}, {"adult": false, "backdrop_path": "/baYbbMtKRDoDWYJeVWkbygAvAj8.jpg", "genre_ids": [18, 10749], "id": 31216, "original_language": "en", "original_title": "I Can't Think Straight", "overview": "I CAN'T THINK STRAIGHT is a 2007 romance movie about a London-based Jordanian of Palestinian descent, Tala, who is preparing for an elaborate wedding. A turn of events causes her to have an affair and subsequently fall in love with another woman, Leyla, a British Indian.", "poster_path": "/1kapga6rkM5wNuQBYw7sdE42CrA.jpg", "release_date": "2008-06-01", "title": "I Can't Think Straight", "video": false, "vote_average": 7.6, "vote_count": 109, "popularity": 8.749}, {"adult": false, "backdrop_path": "/lI5h8KaoeObu4NMTwzeRuUHzRwD.jpg", "genre_ids": [18, 9648, 53], "id": 401898, "original_language": "no", "original_title": "Thelma", "overview": "A college student starts to experience extreme seizures. She soon learns that the violent episodes are a symptom of inexplicable abilities.", "poster_path": "/yzSfG8TLAqw7nMQh2lxirQkQpgs.jpg", "release_date": "2017-09-15", "title": "Thelma", "video": false, "vote_average": 7.1, "vote_count": 418, "popularity": 12.235}, {"adult": false, "backdrop_path": "/tIFRPjIXQ3sYrmxbIeOu9K1JkUz.jpg", "genre_ids": [18, 10749], "id": 294, "original_language": "en", "original_title": "Desert Hearts", "overview": "The story of straight-edge literature professor Vivian who travels to Reno to get away from a relationship breakup when she falls in love with an attractive and unconventional girl named Cay.", "poster_path": "/b8JSmQSpYYJhctMtxNgqh0elENg.jpg", "release_date": "1985-10-01", "title": "Desert Hearts", "video": false, "vote_average": 7.3, "vote_count": 58, "popularity": 8.237}, {"id": 2255, "video": false, "vote_count": 772, "vote_average": 6.8, "title": "Chasing Amy", "release_date": "1997-04-04", "original_language": "en", "original_title": "Chasing Amy", "genre_ids": [35, 18, 10749], "backdrop_path": "/doKYVK61Vb8J1KUjlb9dNWkQNp6.jpg", "adult": false, "overview": "Holden and Banky are comic book artists. Everything is going good for them until they meet Alyssa, also a comic book artist. Holden falls for her, but his hopes are crushed when he finds out she's a lesbian.", "poster_path": "/4vFJileWrCGaBeobCmF0tXpQCUb.jpg", "popularity": 11.325}, {"adult": false, "backdrop_path": "/hD8DQM72Xacg1d3mFqS0eN8vKYw.jpg", "genre_ids": [18], "id": 8272, "original_language": "en", "original_title": "The Savages", "overview": "A sister and brother face the realities of familial responsibility as they begin to care for their ailing father.", "poster_path": "/nY54gSmTOmSXlQpWDB7DWp4u8a7.jpg", "release_date": "2007-01-19", "title": "The Savages", "video": false, "vote_average": 6.9, "vote_count": 192, "popularity": 13.094}, {"adult": false, "backdrop_path": "/g3LYarEY9LjB28Ct2trwFN72gqZ.jpg", "genre_ids": [35], "id": 437557, "original_language": "en", "original_title": "Blockers", "overview": "When three parents discover their daughters\u2019 pact to lose their virginity at prom, they launch a covert one-night operation to stop the teens from sealing the deal.", "poster_path": "/uvlUQXg0AlpGzKukO11K7QtW3Yu.jpg", "release_date": "2018-03-14", "title": "Blockers", "video": false, "vote_average": 6.2, "vote_count": 1153, "popularity": 18.075}, {"adult": false, "backdrop_path": "/zBB1mzmqnUuSrlTuf0SFFlI1EoJ.jpg", "genre_ids": [18], "id": 244772, "original_language": "en", "original_title": "The Skeleton Twins", "overview": "Estranged twins Maggie and Milo coincidentally cheat death on the same day, prompting them to reunite and confront the reasons their lives went so wrong. As the twins' reunion reinvigorates them, they realize the key to fixing their lives may just lie in repairing their relationship.", "poster_path": "/vvmv1R2jDXJeeeyYcGg0ypXc2XK.jpg", "release_date": "2014-09-12", "title": "The Skeleton Twins", "video": false, "vote_average": 6.7, "vote_count": 416, "popularity": 9.821}, {"adult": false, "backdrop_path": "/3YGy88nTV2e0wxZcKI1goiEN9oy.jpg", "genre_ids": [18, 10749], "id": 37636, "original_language": "en", "original_title": "High Art", "overview": "A young female intern at a small magazine company becomes involved with a drug-addicted lesbian photographer, both of whom seek to exploit each other for their respective careers, while slowly falling in love with each other.", "poster_path": "/qTg05RNJIvb9w4Z7XIcAZxuZmTn.jpg", "release_date": "1998-06-12", "title": "High Art", "video": false, "vote_average": 6.6, "vote_count": 61, "popularity": 7.27}, {"adult": false, "backdrop_path": "/caLMOD3ZJ3V7qjlxDXrzlJfBLgD.jpg", "genre_ids": [18, 10749], "id": 20, "original_language": "en", "original_title": "My Life Without Me", "overview": "A Pedro Almodovar production in which a fatally ill mother with only two months to live creates a list of things she wants to do before she dies with out telling her family of her illness.", "poster_path": "/vVj92VBFUBzjqzLvBiPVVlJDp78.jpg", "release_date": "2003-03-07", "title": "My Life Without Me", "video": false, "vote_average": 6.1, "vote_count": 220, "popularity": 9.208}, {"id": 434714, "video": false, "vote_count": 32, "vote_average": 7.5, "title": "My Days of Mercy", "release_date": "2019-07-11", "original_language": "en", "original_title": "My Days of Mercy", "genre_ids": [18, 10749], "backdrop_path": "/7Lbzq33nMMIQtAfZAmSqG6ibLSg.jpg", "adult": false, "overview": "The daughter of a man on death row falls in love with a woman on the opposing side of her family's political cause.", "poster_path": "/adIPKAoKnKL9vCTkvfF4J9ZA7Ln.jpg", "popularity": 6.928}], "total_pages": 1446, "total_results": 28907}, "recommendations": {"page": 1, "results": [{"id": 255706, "video": false, "vote_count": 4, "vote_average": 6.8, "title": "Artemis' Knee", "release_date": "2008-06-07", "original_language": "fr", "original_title": "Le genou d'Art\u00e9mide", "genre_ids": [18], "backdrop_path": null, "adult": false, "overview": "Jean-Marie Straub's first film after the death of Dani\u00e8lle Huillet is a love poem to her. Le Genou d'Art\u00e9mide is based on Cesare Pavese's \"Dialogues of Leuco\", which had already been adapted by Straub et Huillet as Ces Rencontres Avec Eux (2006).", "poster_path": "/smBkUf74t4q03yv6NfTw9WRv1nE.jpg", "popularity": 1.417}, {"adult": false, "backdrop_path": "/aRddl8Fvyccq8qoiwDmr0j4iXxl.jpg", "genre_ids": [18], "id": 366828, "original_language": "es", "original_title": "Brutal Ardour", "overview": "Experimental film by Manuel Huerga.", "poster_path": "/xLLrTxRcoi4MYagtXy7l81SnPUK.jpg", "release_date": "1978-11-06", "title": "Brutal Ardour", "video": false, "vote_average": 9.0, "vote_count": 4, "popularity": 1.4}, {"adult": false, "backdrop_path": null, "genre_ids": [18], "id": 323563, "original_language": "fr", "original_title": "Dans le noir du temps", "overview": "Conceived as a reflection on the theme of time at the turn of the millennium, \"Dans le noir du temps\" functions as a Pandora\u2019s box which hides all the horrors of the world: the last moments of youth, fame, thoughts, memory, love, silence, history, fear, eternity and, of course, cinema.", "poster_path": "/sR0vtWrYsKYukaFPqC3JbZjCZOu.jpg", "release_date": "2001-12-31", "title": "In the Darkness of Time", "video": false, "vote_average": 6.8, "vote_count": 5, "popularity": 0.6}, {"adult": false, "backdrop_path": null, "genre_ids": [18], "id": 237422, "original_language": "de", "original_title": "Avetik", "overview": "Hovering between the realms of poetry and history, this stunningly photographed, elegiac work \u2013 shot mostly in long takes \u2013 mixes cryptic metaphor and fantastic symbolism to tell the story of Avetik, an Armenian filmmaker exiled in Berlin. In sensuous, lyric styling, Askarian employs dreamlike images to reflect the history of his homeland, tranquil childhood memories, images inspired by erotic medieval poetry, and autobiographical shades of his own exile in Germany.", "poster_path": "/cyc8sQev5snP1IrqbsmYylGhQss.jpg", "release_date": "1992-04-04", "title": "Avetik", "video": false, "vote_average": 8.7, "vote_count": 6, "popularity": 1.936}, {"adult": false, "backdrop_path": "/A37wxjHIy75UhpAi5K0p8iFRQgC.jpg", "genre_ids": [99], "id": 86814, "original_language": "fr", "original_title": "News from Home", "overview": "Chantal Akerman, the Belgian filmmaker, lives in New York. Filmed images of the City are accompanied by the texts of Chantal Akerman's loving mother back home in Brussels. The City comes more and more to the front while the words of the mother, read by Akerman herself, gradually fade away.", "poster_path": "/qRsIzvnBAvzYCz3v2EF2Y6cahHr.jpg", "release_date": "1980-03-27", "title": "News from Home", "video": false, "vote_average": 7.9, "vote_count": 16, "popularity": 2.034}, {"adult": false, "backdrop_path": null, "genre_ids": [99], "id": 149712, "original_language": "lt", "original_title": "Praejusios Dienos Atminimui", "overview": "The film is a day in the life that passes by, even if it seems neverending. In the morning the streets are alive with people, pedestrians and cars, with loud and exultant noise. Such sounds accompany the restless walk of a woman and her child across a dusty street, while Bartas\u2019 gaze wanders through many different perspectives.", "poster_path": "/veFKI3le4PZABal9TwKxVcGrA0K.jpg", "release_date": "1990-01-01", "title": "In Memory of the Day Passed By", "video": false, "vote_average": 7.7, "vote_count": 7, "popularity": 0.6}, {"adult": false, "backdrop_path": null, "genre_ids": [99], "id": 258870, "original_language": "en", "original_title": "Time and Tide", "overview": "Peter Hutton\u2019s meditation on the Hudson River.", "poster_path": "/5stEXBR1ZiYNpi96uxOEBBVJOJh.jpg", "release_date": "2000-11-01", "title": "Time and Tide", "video": false, "vote_average": 7.2, "vote_count": 6, "popularity": 0.854}, {"id": 104739, "video": false, "vote_count": 11, "vote_average": 7.1, "title": "From the East", "release_date": "1993-09-16", "original_language": "fr", "original_title": "D'Est", "genre_ids": [99], "backdrop_path": null, "adult": false, "overview": "Chantal Akerman retraces a journey from the end of summer to deepest winter, from East Germany, across Poland and the Baltics, to Moscow.", "poster_path": "/kbqith0CwuQS8Iyu7qwN97UxdVK.jpg", "popularity": 1.376}, {"adult": false, "backdrop_path": "/7luW3TgQfOSGHQSxdVQaENdTA0b.jpg", "genre_ids": [14, 16], "id": 175411, "original_language": "en", "original_title": "Dreams of the Rarebit Fiend: Bug Vaudeville", "overview": "After eating a cheesecake given to him by a kind-hearted lady, a hobo goes to sleep and has a bizarre dream in which insects are putting on a vaudeville show for him, with a grasshopper juggling an ant, a dancing daddy long-legs, etc.", "poster_path": "/j9DH1bJ6NVXKPEqjOpj0nUQj6nJ.jpg", "release_date": "1921-09-25", "title": "Dreams of the Rarebit Fiend: Bug Vaudeville", "video": false, "vote_average": 5.8, "vote_count": 9, "popularity": 1.243}, {"adult": false, "backdrop_path": "/psS2AwPl8Aat9Qn293319e4X9gF.jpg", "genre_ids": [18], "id": 87415, "original_language": "it", "original_title": "Dalla nube alla resistenza", "overview": "'Dalla nube alla resistenza (From the Cloud to the Resistance ) (1978), based on two works by Cesare Pavese, falls into the category of History Lessons and Too Early, Too Late as well. It, too, has two parts\u2014a twentieth-century text and a text regarding the myths of antiquity, each set in the appropriate landscape. Pavese's The Moon and the Bonfires looks back on the violent deaths of Italian anti-Fascist resistance fighters; Dialogues with Leuc\u00f2 is a series of dialogues between heroes and gods, connecting myth and history and returning to an ambiguous stage in the creation of distinctions, such as that between animal and human, which are fundamental to grammar and language itself. Such a juxtaposition of political engagement with profoundly contemplative issues such as myth, nature, and meaning points to the characters of Empedocles and Antigone in the H\u00f6lderlin films.'  (From \"Landscapes of resistance. The German Films of Dani\u00e8le Huillet and Jean-Marie Straub\" by Barton Byg)", "poster_path": "/sUSpabH18guLysFGzFEYNPxy4nw.jpg", "release_date": "1979-11-07", "title": "From the Clouds to the Resistance", "video": false, "vote_average": 4.9, "vote_count": 7, "popularity": 1.17}, {"id": 128846, "video": false, "vote_count": 11, "vote_average": 6.1, "title": "Not Reconciled", "release_date": "1965-07-04", "original_language": "de", "original_title": "Nicht vers\u00f6hnt oder Es hilft nur Gewalt wo Gewalt herrscht", "genre_ids": [18], "backdrop_path": "/emREjOlGNpPitgBIasasBUp4FMh.jpg", "adult": false, "overview": "Not Reconciled, the title of the Straubs\u2019 first feature-length film, is engraved on their work like an inscription. It is a story about the continuity and collapse of history, the power of suppression, and the terror of reconciliation; loyalty, treason and revenge. In a brave cinematic game, Heinrich B\u00f6ll\u2019s story Billiards at Half-Past Nine is split up into cracks, blocks, breaks and sudden turns, as the life story of a German family, covering numerous generations, is propelled forward. Terms such as \u201cinterwar period\u201d and \u201cpost-war period\u201d are blown up with a single cut, word or click of a billiard ball. Not Reconciled remains one of the most important German film of the past fifty years.", "poster_path": "/yf55EliFlzSUKsciMWtzs83F7wi.jpg", "popularity": 3.041}, {"adult": false, "backdrop_path": null, "genre_ids": [18], "id": 189654, "original_language": "de", "original_title": "M\u00fcnchen-Berlin Wanderung", "overview": "In 1927, motivated by a longing for freedom, Fischinger set off on a walking trip from Munich to Berlin. Covering the distance in nearly four weeks, he captured the country\u2019s hidden beauty. His voyage serves as a symbolical transition and underlines a belief that people are the same everywhere.", "poster_path": "/tpjVzgLswDWO64OX4bWFETIpIKd.jpg", "release_date": "1927-04-28", "title": "Walking from Munich to Berlin", "video": false, "vote_average": 7.0, "vote_count": 7, "popularity": 1.4}, {"adult": false, "backdrop_path": "/neqZew2pahZQGepq2oMLFDofkbk.jpg", "genre_ids": [99], "id": 131792, "original_language": "en", "original_title": "At Sea", "overview": "Three segments depicting the life cycle of a freighter boat.", "poster_path": "/kys23FFRsQuhltdYj6KcpG32XAt.jpg", "release_date": "2007-09-07", "title": "At Sea", "video": false, "vote_average": 7.8, "vote_count": 10, "popularity": 3.067}, {"adult": false, "backdrop_path": "/yXYUQfMPSNsvnqi7HU94GPdLfpE.jpg", "genre_ids": [18], "id": 53016, "original_language": "fr", "original_title": "Allemagne 90 neuf z\u00e9ro", "overview": "The supremely world-weary Lemmy Caution, last seen in Godard's \"Alphaville\" (France/1965), has several strange encounters while trying to make his way from the former East Germany to \"the west.\"", "poster_path": "/eEr9brJPFdWmmDVLnSpNkRvPVRX.jpg", "release_date": "1991-09-01", "title": "Germany Year 90 Nine Zero", "video": false, "vote_average": 7.3, "vote_count": 10, "popularity": 2.923}, {"adult": false, "backdrop_path": "/fLQYXmdICZc6uj3RTBKDfUNoJuy.jpg", "genre_ids": [18], "id": 63215, "original_language": "fr", "original_title": "Toute une nuit", "overview": "Following over two dozen different people in the almost wordless atmosphere of a dark night in a Brussels town, Akerman examines acceptance and rejection in the realm of romance.", "poster_path": "/oYNaxG6UD3qEbR716h3qfsjeDH1.jpg", "release_date": "1982-10-27", "title": "Toute une nuit", "video": false, "vote_average": 7.1, "vote_count": 7, "popularity": 0.917}, {"adult": false, "backdrop_path": "/2xqDyuMa53maDcnQJvd2m2Qmk4N.jpg", "genre_ids": [18], "id": 63659, "original_language": "fr", "original_title": "Agatha et les lectures illimit\u00e9es", "overview": "A man (Yann Andrea) and his sister (Bulle Ogier) meet at a seaside village to discuss their relationship.", "poster_path": "/sR3Gb9yQ6LtNr6Bd4s28tHsjPSG.jpg", "release_date": "1981-10-07", "title": "Agatha and the Limitless Readings", "video": false, "vote_average": 6.6, "vote_count": 8, "popularity": 2.336}, {"id": 149145, "video": false, "vote_count": 11, "vote_average": 7.4, "title": "Les Hautes Solitudes", "release_date": "1974-12-15", "original_language": "fr", "original_title": "Les Hautes Solitudes", "genre_ids": [99], "backdrop_path": "/9Dw3GZ1TZ01CVYjTx4JNn4WLN9r.jpg", "adult": false, "overview": "Biographical film about Jean Seberg, loosely based on Nietzsche's Anti-Christ.", "poster_path": "/sXx0T1UJXPlSdJZGo0Zd4xzAhTR.jpg", "popularity": 3.478}, {"id": 78117, "video": false, "vote_count": 18, "vote_average": 7.5, "title": "Eros + Massacre", "release_date": "1969-03-13", "original_language": "ja", "original_title": "\u30a8\u30ed\u30b9\uff0b\u8650\u6bba", "genre_ids": [18], "backdrop_path": "/zEPVHPVN72OMOAbngjDjkkPKQdJ.jpg", "adult": false, "overview": "Two interwoven stories. The first is a biography of anarchist Sakae Osugi which follows his relationship with three women in the 1920s. The second centers around two 1960s students researching Osugi's theories.", "poster_path": "/vbNDSmtMjbZnnfMchb5HKCSlOM1.jpg", "popularity": 3.746}, {"adult": false, "backdrop_path": null, "genre_ids": [99], "id": 238952, "original_language": "fr", "original_title": "Du c\u00f4t\u00e9 de la c\u00f4te", "overview": "Tongue-in-cheek look at the French Riviera, especially in summer when it overflows with tourists. Reviews its history and famous visitors; displays its faux-exotic buildings, its crowded beaches, its trees and monuments; and, pokes fun at the colors women wear and the vagaries of fashion. The film celebrates the use of \"Eden\" as a place name, suggesting that paradise comes to the coast after all are gone, perhaps only on a remote island beach.", "poster_path": "/fJKn2IEgvtOU7LwO7zNHkLDzc3m.jpg", "release_date": "1958-01-01", "title": "Along the Coast", "video": false, "vote_average": 7.8, "vote_count": 10, "popularity": 2.316}, {"adult": false, "backdrop_path": null, "genre_ids": [35, 16, 14], "id": 175485, "original_language": "en", "original_title": "Gertie on Tour", "overview": "Gertie the dinosaur has been brought into the modern world. Continually perplexed by her new surroundings, she begins to explore the new sights. But when she sleeps, she dreams of the way it used to be, in the days when the world was full of dinosaurs like herself.", "poster_path": "/24aBxZfXjbvMf4phx1qyadobq8c.jpg", "release_date": "1921-09-25", "title": "Gertie on Tour", "video": false, "vote_average": 5.3, "vote_count": 8, "popularity": 1.223}], "total_pages": 2, "total_results": 21}, "credits": {"cast": [{"cast_id": 3, "character": "Anna Silver", "credit_id": "52fe49399251416c750c1441", "gender": 1, "id": 9893, "name": "Aurore Cl\u00e9ment", "order": 0, "profile_path": "/i6p9msKzKG1P9I2QcCk3h3vuO5F.jpg"}, {"cast_id": 4, "character": "Heinrich Schneider", "credit_id": "52fe49399251416c750c1445", "gender": 2, "id": 32059, "name": "Helmut Griem", "order": 1, "profile_path": "/n0DrvSP1u6PP92LXV6ytf0zhQGW.jpg"}, {"cast_id": 5, "character": "Ida", "credit_id": "52fe49399251416c750c1449", "gender": 1, "id": 5963, "name": "Magali No\u00ebl", "order": 2, "profile_path": "/a0A6Pr0zuFv9bape0mdnzbu4iPJ.jpg"}, {"cast_id": 6, "character": "Hans", "credit_id": "52fe49399251416c750c144d", "gender": 2, "id": 169, "name": "Hanns Zischler", "order": 3, "profile_path": "/zlVtIH2P4cZLyftZZcfFo037N3t.jpg"}, {"cast_id": 8, "character": "Daniel", "credit_id": "52fe49399251416c750c1451", "gender": 2, "id": 19162, "name": "Jean-Pierre Cassel", "order": 4, "profile_path": "/yWIAIvRdx0omV9ZOUwLINzHKois.jpg"}, {"cast_id": 14, "character": "Anna mother", "credit_id": "52fe49399251416c750c1473", "gender": 1, "id": 20882, "name": "Lea Massari", "order": 5, "profile_path": "/ddz7aqdOO06RWWen3J5PP98n7f.jpg"}], "crew": [{"credit_id": "52fe49399251416c750c1437", "department": "Directing", "gender": 1, "id": 130030, "job": "Director", "name": "Chantal Akerman", "profile_path": "/AnQ5qy7X33w0QgKpTq5yVOfnBIs.jpg"}, {"credit_id": "52fe49399251416c750c143d", "department": "Writing", "gender": 1, "id": 130030, "job": "Writer", "name": "Chantal Akerman", "profile_path": "/AnQ5qy7X33w0QgKpTq5yVOfnBIs.jpg"}, {"credit_id": "52fe49399251416c750c1457", "department": "Production", "gender": 0, "id": 1093088, "job": "Producer", "name": "Alain Dahan", "profile_path": null}, {"credit_id": "52fe49399251416c750c145d", "department": "Production", "gender": 0, "id": 1093089, "job": "Producer", "name": "Maya Faber-Jansen", "profile_path": null}, {"credit_id": "52fe49399251416c750c1463", "department": "Production", "gender": 0, "id": 1093090, "job": "Producer", "name": "Emile Poppe", "profile_path": null}, {"credit_id": "52fe49399251416c750c146f", "department": "Editing", "gender": 0, "id": 17532, "job": "Editor", "name": "Francine Sandberg", "profile_path": null}, {"credit_id": "5759bc309251416b53000306", "department": "Camera", "gender": 0, "id": 34907, "job": "Director of Photography", "name": "Jean Penzer", "profile_path": null}]}}