{"adult": false, "backdrop_path": "/6h5G0owYWDztF0cz9p62M1t8A0b.jpg", "belongs_to_collection": null, "budget": 0, "genres": [{"id": 27, "name": "Horror"}], "homepage": null, "id": 93890, "imdb_id": "tt0054724", "original_language": "en", "original_title": "I Eat Your Skin", "overview": "A cancer researcher on a remote Caribbean island discovers that by treating the natives with snake venom he can turn them into bug-eyed zombies. Uninterested in this information, the unfortunate man is forced by his evil employer to create an army of the creatures in order to conquer the world.", "popularity": 2.363, "poster_path": "/mbBgHCs9gR6ba3oQ24FH0TZ2vbl.jpg", "production_companies": [{"id": 56111, "logo_path": null, "name": "Iselin-Tenney Productions Inc.", "origin_country": ""}], "production_countries": [{"iso_3166_1": "US", "name": "United States of America"}], "release_date": "1971-10-29", "revenue": 0, "runtime": 84, "spoken_languages": [{"iso_639_1": "en", "name": "English"}], "status": "Released", "tagline": "", "title": "I Eat Your Skin", "video": false, "vote_average": 3.2, "vote_count": 6, "keywords": {"keywords": [{"id": 11532, "name": "grindhouse"}, {"id": 12377, "name": "zombie"}, {"id": 215224, "name": "snake venom"}]}, "similar": {"page": 1, "results": [{"id": 6479, "video": false, "vote_count": 9817, "vote_average": 7.1, "title": "I Am Legend", "release_date": "2007-12-14", "original_language": "en", "original_title": "I Am Legend", "genre_ids": [28, 18, 27, 878, 53], "backdrop_path": "/u6Qg7TH7Oh1IFWCQSRr4htFFt0A.jpg", "adult": false, "overview": "Robert Neville is a scientist who was unable to stop the spread of the terrible virus that was incurable and man-made. Immune, Neville is now the last human survivor in what is left of New York City and perhaps the world. For three years, Neville has faithfully sent out daily radio messages, desperate to find any other survivors who might be out there. But he is not alone.", "poster_path": "/9skUuHTFtsJznuFPwmB17ZZvq09.jpg", "popularity": 29.22}, {"id": 10925, "video": false, "vote_count": 551, "vote_average": 7.3, "title": "The Return of the Living Dead", "release_date": "1985-04-25", "original_language": "en", "original_title": "The Return of the Living Dead", "genre_ids": [35, 27], "backdrop_path": "/jA34vdJCxOZUoi4khkfhq1pX3WG.jpg", "adult": false, "overview": "When a bumbling pair of employees at a medical supply warehouse accidentally release a deadly gas into the air, the vapors cause the dead to re-animate as they go on a rampage seeking their favorite food: brains!", "poster_path": "/1vydUitzC8W8W5oNevEArCltydJ.jpg", "popularity": 13.326}, {"id": 8408, "video": false, "vote_count": 568, "vote_average": 7.0, "title": "Day of the Dead", "release_date": "1985-07-19", "original_language": "en", "original_title": "Day of the Dead", "genre_ids": [27, 878], "backdrop_path": "/pWaXoU1aqD2KpMVLt4E9ZmKQXIk.jpg", "adult": false, "overview": "Trapped in a missile silo, a small team of scientists, civilians and trigger-happy soldiers battle desperately to ensure the survival of the human race. However, the tension inside the base is reaching a breaking point, and the zombies are gathering outside.", "poster_path": "/yJ2emwXWwQc6VHW3fO4GZr0hXBt.jpg", "popularity": 9.762}, {"adult": false, "backdrop_path": "/eHaGbnX2kukzcYGOpNF3YLPmOG5.jpg", "genre_ids": [27, 35], "id": 16281, "original_language": "en", "original_title": "Creepshow", "overview": "Inspired by the E.C. comics of the 1950s, George A. Romero and Stephen King bring five tales of terror to the screen.", "poster_path": "/hgKeTL416BPzLZntcsD1k7mNFRN.jpg", "release_date": "1982-11-12", "title": "Creepshow", "video": false, "vote_average": 6.8, "vote_count": 458, "popularity": 13.179}, {"id": 923, "video": false, "vote_count": 1067, "vote_average": 7.5, "title": "Dawn of the Dead", "release_date": "1978-09-02", "original_language": "en", "original_title": "Dawn of the Dead", "genre_ids": [27], "backdrop_path": "/vCD9mRgSY4HuoSowm8JO4tm2mhj.jpg", "adult": false, "overview": "During an ever-growing epidemic of zombies that have risen from the dead, two Philadelphia SWAT team members, a traffic reporter, and his television-executive girlfriend seek refuge in a secluded shopping mall.", "poster_path": "/yK8BmYEvd0IPpDXL6zzlTA2geDf.jpg", "popularity": 11.925}, {"id": 133121, "video": false, "vote_count": 360, "vote_average": 6.5, "title": "Resident Evil: Damnation", "release_date": "2012-09-25", "original_language": "en", "original_title": "Biohazard: Damnation", "genre_ids": [16, 27], "backdrop_path": "/6pRNDb0yStxlwhavn2ZqYRVFOJ5.jpg", "adult": false, "overview": "U.S. federal agent Leon S. Kennedy sneaks into the \"East Slavic Republic\" to verify rumors that Bio-Organic Weapons (BOWs) are being used in the country's civil war, which the U.S. and Russia are making preparations to jointly intervene in. Right after his infiltration, the U.S. government orders him to leave immediately. Determined to uncover the truth, Leon ignores the order and enters the battlefield to end the chain of tragedies caused by the BOWs.", "poster_path": "/hj2xHc35cEscP7oj6DqCK6IbNIC.jpg", "popularity": 16.091}, {"id": 294254, "video": false, "vote_count": 6849, "vote_average": 6.6, "title": "Maze Runner: The Scorch Trials", "release_date": "2015-09-09", "original_language": "en", "original_title": "Maze Runner: The Scorch Trials", "genre_ids": [28, 878, 53], "backdrop_path": "/iapRFMGKvN9tsjqPlN7MIDTCezG.jpg", "adult": false, "overview": "Thomas and his fellow Gladers face their greatest challenge yet: searching for clues about the mysterious and powerful organization known as WCKD. Their journey takes them to the Scorch, a desolate landscape filled with unimaginable obstacles. Teaming up with resistance fighters, the Gladers take on WCKD\u2019s vastly superior forces and uncover its shocking plans for them all.", "poster_path": "/vlTPQANjLYTebzFJM1G4KeON0cb.jpg", "popularity": 28.283}, {"id": 72190, "video": false, "vote_count": 9917, "vote_average": 6.7, "title": "World War Z", "release_date": "2013-06-20", "original_language": "en", "original_title": "World War Z", "genre_ids": [28, 18, 27, 878, 53], "backdrop_path": "/xMOQVYLeIKBXenJ9KMeasj7S64y.jpg", "adult": false, "overview": "Life for former United Nations investigator Gerry Lane and his family seems content. Suddenly, the world is plagued by a mysterious infection turning whole human populations into rampaging mindless zombies. After barely escaping the chaos, Lane is persuaded to go on a mission to investigate this disease. What follows is a perilous trek around the world where Lane must brave horrific dangers and long odds to find answers before human civilization falls.", "poster_path": "/Ha5t0J21eyiq6Az1EXzx0iwsGH.jpg", "popularity": 27.681}, {"id": 747, "video": false, "vote_count": 5110, "vote_average": 7.5, "title": "Shaun of the Dead", "release_date": "2004-04-09", "original_language": "en", "original_title": "Shaun of the Dead", "genre_ids": [35, 27], "backdrop_path": "/50mMiR0R1QclaAODTutwXBrReLJ.jpg", "adult": false, "overview": "Shaun lives a supremely uneventful life, which revolves around his girlfriend, his mother, and, above all, his local pub. This gentle routine is threatened when the dead return to life and make strenuous attempts to snack on ordinary Londoners.", "poster_path": "/2evlcGnsfdFWLb7geNlIjIewc0Q.jpg", "popularity": 25.866}, {"id": 126889, "video": false, "vote_count": 5389, "vote_average": 5.9, "title": "Alien: Covenant", "release_date": "2017-05-09", "original_language": "en", "original_title": "Alien: Covenant", "genre_ids": [27, 878, 53], "backdrop_path": "/6jajFcaY2YsfGQstJ5HaqZNVseX.jpg", "adult": false, "overview": "Bound for a remote planet on the far side of the galaxy, the crew of the colony ship 'Covenant' discovers what is thought to be an uncharted paradise, but is actually a dark, dangerous world\u2014which has a sole inhabitant: the 'synthetic', David, survivor of the doomed Prometheus expedition.", "poster_path": "/zecMELPbU5YMQpC81Z8ImaaXuf9.jpg", "popularity": 36.026}, {"id": 19908, "video": false, "vote_count": 7598, "vote_average": 7.2, "title": "Zombieland", "release_date": "2009-10-07", "original_language": "en", "original_title": "Zombieland", "genre_ids": [35, 27], "backdrop_path": "/lLgLFzSZduH9kBxrk6BvoHc1gg0.jpg", "adult": false, "overview": "Columbus has made a habit of running from what scares him. Tallahassee doesn't have fears. If he did, he'd kick their ever-living ass. In a world overrun by zombies, these two are perfectly evolved survivors. But now, they're about to stare down the most terrifying prospect of all: each other.", "poster_path": "/vUzzDpVrab1BOG3ogxhRGfLN94d.jpg", "popularity": 27.301}, {"id": 338967, "video": false, "vote_count": 1169, "vote_average": 7.0, "title": "Zombieland: Double Tap", "release_date": "2019-10-09", "original_language": "en", "original_title": "Zombieland: Double Tap", "genre_ids": [28, 35, 27], "backdrop_path": "/3ghImmHdp4RnC3UkL6hpLayclnb.jpg", "adult": false, "overview": "Columbus, Tallahassee, Wichita, and Little Rock move to the American heartland as they face off against evolved zombies, fellow survivors, and the growing pains of the snarky makeshift family.", "poster_path": "/dtRbVsUb5O12WWO54SRpiMtHKC0.jpg", "popularity": 66.191}, {"adult": false, "backdrop_path": "/5RPXs9g0sZ9Woo4pNLxdXdge7tc.jpg", "genre_ids": [14, 27, 35], "id": 766, "original_language": "en", "original_title": "Army of Darkness", "overview": "A man is accidentally transported to 1300 A.D., where he must battle an army of the dead and retrieve the Necronomicon so he can return home.", "poster_path": "/2eZKDIwLNnySbwqQtAaUz0kYDIL.jpg", "release_date": "1992-10-09", "title": "Army of Darkness", "video": false, "vote_average": 7.3, "vote_count": 1664, "popularity": 18.122}, {"adult": false, "backdrop_path": "/nESF8Tw4BYnDy8PUDkF5SLIlzTJ.jpg", "genre_ids": [27, 53, 878], "id": 170, "original_language": "en", "original_title": "28 Days Later", "overview": "Twenty-eight days after a killer virus was accidentally unleashed from a British research facility, a small group of London survivors are caught in a desperate struggle to protect themselves from the infected. Carried by animals and humans, the virus turns those it infects into homicidal maniacs -- and it's absolutely impossible to contain.", "poster_path": "/xaYdxi1PBEAYvqknvAmMPK5Eff3.jpg", "release_date": "2002-10-31", "title": "28 Days Later", "video": false, "vote_average": 7.2, "vote_count": 3665, "popularity": 19.311}, {"id": 485415, "video": false, "vote_count": 277, "vote_average": 4.1, "title": "Day of the Dead: Bloodline", "release_date": "2018-01-04", "original_language": "en", "original_title": "Day of the Dead: Bloodline", "genre_ids": [28, 27], "backdrop_path": "/1CKntz5l7oblq2RYligHHvY64sh.jpg", "adult": false, "overview": "In a world overrun by zombies, military personnel and survivalists live in an underground bunker while they seek a cure.", "poster_path": "/3jM4C1wJxHLWlF4tcSyyv6fnJPR.jpg", "popularity": 14.184}, {"adult": false, "backdrop_path": "/5CPIk2eE3Nk4UPwx5HCHKDdIiJs.jpg", "genre_ids": [35, 27, 878], "id": 11429, "original_language": "en", "original_title": "Beyond Re-Animator", "overview": "Once again tampering with mother nature to disastrous results, Dr. Herbert West continues his research while serving time in a maximum security prison for his previous exploits. West's limited prison-cell experiments are suddenly interrupted by the arrival of a new prison doctor and the brother of the girl who suffered from West's experiments 13 years earlier.", "poster_path": "/7K8odajc1QUaeOtD5XvlBiWzypQ.jpg", "release_date": "2003-04-04", "title": "Beyond Re-Animator", "video": false, "vote_average": 5.5, "vote_count": 124, "popularity": 10.121}, {"adult": false, "backdrop_path": "/pAD4FAkCERB3sDprJM4f5YaKL3v.jpg", "genre_ids": [27, 35], "id": 24935, "original_language": "en", "original_title": "Return of the Living Dead: Necropolis", "overview": "A group of teenagers who, in an attempt to rescue their friend from an evil corporation, end up releasing a horde of blood thirsty zombies.", "poster_path": "/wez633rPnd9x4xObQwRHmOOM5sE.jpg", "release_date": "2005-10-15", "title": "Return of the Living Dead: Necropolis", "video": false, "vote_average": 3.6, "vote_count": 56, "popularity": 7.853}, {"id": 1562, "video": false, "vote_count": 2400, "vote_average": 6.5, "title": "28 Weeks Later", "release_date": "2007-04-26", "original_language": "en", "original_title": "28 Weeks Later", "genre_ids": [27, 878, 53], "backdrop_path": "/q4GEKbi4ZO2lhZJg0Zr6kYNKQgm.jpg", "adult": false, "overview": "The inhabitants of the British Isles have lost their battle against the onslaught of disease, as the deadly rage virus has killed every citizen there. Six months later, a group of Americans dare to set foot on the isles, convinced the danger has come and gone. But it soon becomes all too clear that the scourge continues to live, waiting to pounce on its next victims.", "poster_path": "/bElOpwpp45BGMWrMBdZAy9j3Vx7.jpg", "popularity": 23.387}, {"adult": false, "backdrop_path": "/bvbyidkMaBls1LTaIWYY6UmYTaL.jpg", "genre_ids": [28, 878], "id": 336843, "original_language": "en", "original_title": "Maze Runner: The Death Cure", "overview": "Thomas leads his group of escaped Gladers on their final and most dangerous mission yet. To save their friends, they must break into the legendary Last City, a WCKD-controlled labyrinth that may turn out to be the deadliest maze of all. Anyone who makes it out alive will get answers to the questions the Gladers have been asking since they first arrived in the maze.", "poster_path": "/2zYfzA3TBwrMC8tfFbpiTLODde0.jpg", "release_date": "2018-01-10", "title": "Maze Runner: The Death Cure", "video": false, "vote_average": 7.0, "vote_count": 4396, "popularity": 25.259}, {"adult": false, "backdrop_path": "/lnxiNlbStoBT4CDMqPAdprS5pwN.jpg", "genre_ids": [28, 53], "id": 1991, "original_language": "en", "original_title": "Death Proof", "overview": "Austin's hottest DJ, Jungle Julia, sets out into the night to unwind with her two friends Shanna and Arlene. Covertly tracking their moves is Stuntman Mike, a scarred rebel leering from behind the wheel of his muscle car, revving just feet away.", "poster_path": "/nyQBcpxqS4im2akQlWG9Y1oeM2V.jpg", "release_date": "2007-05-21", "title": "Death Proof", "video": false, "vote_average": 6.8, "vote_count": 2821, "popularity": 17.718}], "total_pages": 76, "total_results": 1503}, "recommendations": {"page": 1, "results": [{"adult": false, "backdrop_path": null, "genre_ids": [27, 53], "id": 116602, "original_language": "en", "original_title": "The Fugue", "overview": "Nora Dunn is a struggling artist desperately trying to recover from a childhood trauma, but her life is turn upside down when she is haunted by the vision of a long dead childhood friend. Is the spirit a hallucination or a foreshadowing of something worse to come? It is up to Dan Tsang, a young police detective to solve the mystery and save Nora before it is too late!", "poster_path": "/nrqrOriGihLLQlSqa6Ols58U0TM.jpg", "release_date": "2009-02-10", "title": "The Fugue", "video": false, "vote_average": 2.7, "vote_count": 3, "popularity": 0.781}, {"adult": false, "backdrop_path": "/ug3igTwkJUAgfYdJJ9ggtt9cFK6.jpg", "genre_ids": [27], "id": 27881, "original_language": "en", "original_title": "Zombie Island Massacre", "overview": "Americans on vacation in the Caribbean take a tour of a nearby island at night and watch a local voodoo ritual. Soon after, they find themselves stranded on the island and under attack by unseen foes. One by one they meet violent ends.", "poster_path": "/kF4kYPL0KtfW4DJBRIcmeKDqSiy.jpg", "release_date": "1984-11-20", "title": "Zombie Island Massacre", "video": false, "vote_average": 3.0, "vote_count": 13, "popularity": 2.824}, {"adult": false, "backdrop_path": "/dwnfpkxIBAlsrMs5AvIEltgnNl8.jpg", "genre_ids": [27, 878, 14], "id": 53442, "original_language": "en", "original_title": "The Wizard of Mars", "overview": "In 1974, four astronauts, silver shoe-clad Dorothy, overweight Doc, goofy Charlie, and wooden Steve, crash land on Mars when taking readings, with only four days of supplies. They must try to survive on the surface, which is barren except for some canals with huge maggots with fins. After embarking through a golden igneous cavern, braving a storm and finding an unmanned Earth vessel, they discover a golden road which leads them to the unchanging ruins of what was once a beautiful Martian city. The Martians are modeled on the Flatheads of Oz, and their collective consciousness, the \"Wizard,\" forbids them to leave until they perform a very small task...", "poster_path": "/hFIJWeFT9p5hc3BhAA0LwYF31Q4.jpg", "release_date": "1965-01-01", "title": "The Wizard of Mars", "video": false, "vote_average": 2.6, "vote_count": 5, "popularity": 3.025}, {"id": 30299, "video": false, "vote_count": 12, "vote_average": 5.8, "title": "The 27th Day", "release_date": "1957-01-07", "original_language": "en", "original_title": "The 27th Day", "genre_ids": [878], "backdrop_path": "/nB90bIf5Ofo3XJZl4Jyr8JAjBJP.jpg", "adult": false, "overview": "Five individuals from five nations, including the \"Superpowers,\" USA, USSR, and China, suddenly find themselves on an alien spacecraft. An alien gives each a container holding capsules. No power on earth can open a given container except a mental command from the person to whom it is given. Each person has been provided with the power of life and death.", "poster_path": "/fPC3NigSRooHKMCuBcHixuFuf5O.jpg", "popularity": 3.045}, {"adult": false, "backdrop_path": "/n2FnPXqyiD0Z82fqI2f4dbb6Myi.jpg", "genre_ids": [27], "id": 156310, "original_language": "en", "original_title": "Wolfman", "overview": "A man finds out that his family has a werewolf curse put upon them.", "poster_path": "/6QDGUAQJDqVCsGAYpw5lu9Jmazy.jpg", "release_date": "1979-09-20", "title": "Wolfman", "video": false, "vote_average": 2.0, "vote_count": 7, "popularity": 2.148}, {"adult": false, "backdrop_path": null, "genre_ids": [27], "id": 65955, "original_language": "en", "original_title": "Ankle Biters", "overview": "Three feet tall! Two inch fangs!", "poster_path": "/urwilyShc9L8UD7VF93I7VG3FiJ.jpg", "release_date": "2003-02-04", "title": "Ankle Biters", "video": false, "vote_average": 1.0, "vote_count": 4, "popularity": 1.845}, {"id": 122677, "video": false, "vote_count": 6, "vote_average": 2.0, "title": "Blood of Ghastly Horror", "release_date": "1972-01-21", "original_language": "en", "original_title": "Blood of Ghastly Horror", "genre_ids": [27, 878], "backdrop_path": "/cyaBwtpExCktHVdff08Mjw3FVAG.jpg", "adult": false, "overview": "A mad scientist implants an electronic device into the brain of an injured soldier, which turns him into a psychotic killer.", "poster_path": "/eRHmpWVNiK28q1dWjPIbs1CnR75.jpg", "popularity": 3.021}, {"adult": false, "backdrop_path": null, "genre_ids": [35, 27], "id": 3144, "original_language": "en", "original_title": "Rock 'n' Roll Frankenstein", "overview": "No overview found.", "poster_path": "/50unAkIIuxX6wtCJO9cIXlAqBzO.jpg", "release_date": "1999-01-01", "title": "Rock 'n' Roll Frankenstein", "video": false, "vote_average": 4.3, "vote_count": 4, "popularity": 2.236}, {"adult": false, "backdrop_path": "/6ojZOdqm5q8YgmvLGhccFHueZnp.jpg", "genre_ids": [27, 878], "id": 77889, "original_language": "en", "original_title": "Brides of Blood", "overview": "Americans investigating the results of nuclear radiation discover a man-eating monster on a remote island.", "poster_path": "/9PqCLMhIMaOGizb8ZD0dZ7abnZx.jpg", "release_date": "1968-05-29", "title": "Brides of Blood", "video": false, "vote_average": 4.3, "vote_count": 7, "popularity": 5.151}, {"adult": false, "backdrop_path": "/7SZ1ltCQzHW6irIwjkcC57eDTv0.jpg", "genre_ids": [878], "id": 29065, "original_language": "en", "original_title": "War of the Satellites", "overview": "An \"unknown force\" declares war against planet Earth when the United Nations disobeys warnings to cease and desist in its attempts at assembling the first satellite in the atmosphere.", "poster_path": "/JLX9dig77zBKpsFggX8czhaC6o.jpg", "release_date": "1958-05-18", "title": "War of the Satellites", "video": false, "vote_average": 5.0, "vote_count": 11, "popularity": 3.872}, {"adult": false, "backdrop_path": null, "genre_ids": [878, 18], "id": 92806, "original_language": "en", "original_title": "Deadly Harvest", "overview": "Farmer struggles to keep food on the table, and regain his son who has joined a gang of marauding city-folk during the world's worst famine.", "poster_path": "/xfoSCf1pAN7E94yhlBpEGPPnr5n.jpg", "release_date": "1977-08-21", "title": "Deadly Harvest", "video": false, "vote_average": 3.8, "vote_count": 4, "popularity": 1.65}, {"id": 38261, "video": false, "vote_count": 8, "vote_average": 3.7, "title": "Voodoo Woman", "release_date": "1957-04-11", "original_language": "en", "original_title": "Voodoo Woman", "genre_ids": [27, 878], "backdrop_path": "/lfkvZrsePbr3Iu4eZ1O74cZe5Ex.jpg", "adult": false, "overview": "Deep in the jungles a mad scientist is using the natives' voodoo for his experiments to create an indestructible being to serve his will. When a party of gold seekers stumbles upon his village, the scientist realizes that Marilyn the expedition's evil leader is the perfect subject for his work.", "poster_path": "/sdDENtpyszCO8OZJPkZQXKVo9oc.jpg", "popularity": 3.231}, {"adult": false, "backdrop_path": null, "genre_ids": [27, 53], "id": 75555, "original_language": "en", "original_title": "The Fear", "overview": "A weekend of 'fear therapy' turns into a nightmare of terror when a mannequin comes to life. Only those with the courage to confront their demons will survive.", "poster_path": "/75n6huahUprQ6CsgCFb4tV6UBSP.jpg", "release_date": "1995-01-20", "title": "The Fear", "video": false, "vote_average": 3.8, "vote_count": 12, "popularity": 4.073}, {"id": 39932, "video": false, "vote_count": 9, "vote_average": 6.6, "title": "Hunter's Blood", "release_date": "1986-01-01", "original_language": "en", "original_title": "Hunter's Blood", "genre_ids": [28, 27], "backdrop_path": null, "adult": false, "overview": "Five \"city boys\" travel to the country to relax by doing some hunting, drinking Bud, and generally having good time. However, the local inbred backwoods psychos turn the hunters to be the hunted, and they need all the ammo and wits they have to get out of the woods alive.", "poster_path": "/kXKlUWNYKOyonascvi3F31Mw5Vc.jpg", "popularity": 3.491}, {"adult": false, "backdrop_path": "/eEim5aT034MXdLvjvXLUgAXomSK.jpg", "genre_ids": [27], "id": 100661, "original_language": "en", "original_title": "Terror Is a Man", "overview": "A mad scientist transforms a panther into a man-like creature that escapes and goes on a murderous rampage.", "poster_path": "/4msyuRptwbmngJezvZdPYtIWlhK.jpg", "release_date": "1959-11-01", "title": "Terror Is a Man", "video": false, "vote_average": 4.0, "vote_count": 9, "popularity": 1.957}, {"adult": false, "backdrop_path": null, "genre_ids": [99], "id": 116569, "original_language": "en", "original_title": "Vinyl", "overview": "Toronto filmmaker Alan Zweig analyzes the phenomenon of record collecting", "poster_path": "/oFBVKmtSQ0ksdQg4JA475CYCyuv.jpg", "release_date": "2000-08-01", "title": "Vinyl", "video": false, "vote_average": 7.7, "vote_count": 9, "popularity": 2.888}, {"adult": false, "backdrop_path": "/9ZxjwCx8ipMAi133wxDWxu4YeLG.jpg", "genre_ids": [27], "id": 78083, "original_language": "en", "original_title": "Boggy Creek", "overview": "Following the death of her father in a terrible accident, sweet, yet troubled Jennifer and her friends decide to check out her dad's cabin that's located in the deep woods of Boggy Creek, Texas. While staying at said cabin for a week, Jennifer and company run afoul of an evil and vicious monster of local legend that kills men and abducts women.", "poster_path": "/e7yNvKDKoYruqjElUiSTPBCjoyR.jpg", "release_date": "2010-01-01", "title": "Boggy Creek", "video": false, "vote_average": 3.4, "vote_count": 12, "popularity": 4.795}, {"adult": false, "backdrop_path": "/41lWHGWupPIy5EQS4Iwum8GTBsP.jpg", "genre_ids": [27], "id": 151193, "original_language": "en", "original_title": "Night Claws", "overview": "A small town is being terrorized by a killer Bigfoot. One that is blood thirsty, vicious and kills without warning and without discrimination. A scientist by the name of Sarah Evans (Leilani Sarelle) shows up to help the town's sheriff (Reb Brown) and his deputy girlfriend Roberta (Sherrie Rose) hunt this thing down and put an end to the killings. At the same time, Hunter Crawford (David Campbell) is a thug-like character who along with his two henchmen, is hunting the creature himself, for his own personal gain and he does not care who he has to go through to accomplish his goal.", "poster_path": "/8g0CI6kPmNfmSeKZdfyDv8wE4cL.jpg", "release_date": "2012-08-23", "title": "Night Claws", "video": false, "vote_average": 2.2, "vote_count": 8, "popularity": 4.129}, {"adult": false, "backdrop_path": "/vKF5Y5RhqENQxu4GOSj56NheBqe.jpg", "genre_ids": [80, 27, 878, 37], "id": 3149, "original_language": "en", "original_title": "Jesse James Meets Frankenstein's Daughter", "overview": "Dr. Frankenstein's Granddaughter Maria, and her brother assistant Rudolph, moved to the old west because the lightning storms there are more frequent and intense, which allows them to work on the experiments of their grandfather. But the experiments are failing and Rudolph's been secretly killing the corpses afterwards. Meanwhile, the Lopez family leaves the town because of the evil going on there", "poster_path": "/akJPtcDfRhX8yqUkn8bDxVjqeE6.jpg", "release_date": "1966-04-09", "title": "Jesse James Meets Frankenstein's Daughter", "video": false, "vote_average": 3.8, "vote_count": 11, "popularity": 4.063}, {"adult": false, "backdrop_path": null, "genre_ids": [27, 53], "id": 60781, "original_language": "en", "original_title": "The Landlady", "overview": "Melanie decides that one of her tenants would be perfect as her husband and decides to eliminate everyone who might interfere in her plans.", "poster_path": "/wua3sS1CO2A7iKLmmJ21lN9zRz0.jpg", "release_date": "1998-11-10", "title": "The Landlady", "video": false, "vote_average": 4.1, "vote_count": 9, "popularity": 1.261}], "total_pages": 2, "total_results": 38}, "credits": {"cast": [{"cast_id": 7, "character": "Jeannie Biladeau", "credit_id": "52fe49439251416c750c25fb", "gender": 1, "id": 935737, "name": "Heather Hewitt", "order": 0, "profile_path": "/bViEXGDNyQQUcZo8L4VcuQcNpJI.jpg"}, {"cast_id": 8, "character": "Coral Fairchild", "credit_id": "52fe49439251416c750c25ff", "gender": 0, "id": 1060546, "name": "Betty Hyatt Linton", "order": 1, "profile_path": null}, {"cast_id": 9, "character": "Duncan Fairchild", "credit_id": "52fe49439251416c750c2603", "gender": 0, "id": 1002305, "name": "Dan Stapleton", "order": 2, "profile_path": null}, {"cast_id": 10, "character": "Tom Harris", "credit_id": "52fe49439251416c750c2607", "gender": 2, "id": 1082396, "name": "William Joyce", "order": 3, "profile_path": "/i3jI9gL1rf6C7arbUnsWHuITAvI.jpg"}, {"cast_id": 12, "character": "Charles Bentley", "credit_id": "5bdb73980e0a2603ca0185cb", "gender": 2, "id": 30557, "name": "Walter Coy", "order": 4, "profile_path": "/scEs3MMVJA05wpbfOcQ5n5jAZdr.jpg"}], "crew": [{"credit_id": "5bdb740592514154070166e8", "department": "Editing", "gender": 0, "id": 30995, "job": "Editor", "name": "Lawrence C. Keating", "profile_path": null}, {"credit_id": "52fe49439251416c750c25df", "department": "Directing", "gender": 2, "id": 107463, "job": "Director", "name": "Del Tenney", "profile_path": "/auqht18cKWxOMwpO7kWaFi5zQH1.jpg"}, {"credit_id": "58f02383c3a3686b4d00622d", "department": "Production", "gender": 2, "id": 107463, "job": "Producer", "name": "Del Tenney", "profile_path": "/auqht18cKWxOMwpO7kWaFi5zQH1.jpg"}, {"credit_id": "52fe49439251416c750c25e5", "department": "Writing", "gender": 2, "id": 107463, "job": "Writer", "name": "Del Tenney", "profile_path": "/auqht18cKWxOMwpO7kWaFi5zQH1.jpg"}, {"credit_id": "52fe49439251416c750c25f1", "department": "Sound", "gender": 0, "id": 1060544, "job": "Original Music Composer", "name": "Lon E. Norman", "profile_path": null}, {"credit_id": "52fe49439251416c750c25f7", "department": "Camera", "gender": 0, "id": 1060545, "job": "Director of Photography", "name": "Fran\u00e7ois Farkas", "profile_path": null}, {"credit_id": "5bdb74190e0a2603ca01869a", "department": "Costume & Make-Up", "gender": 0, "id": 1400875, "job": "Makeup Artist", "name": "Guy Del Russo", "profile_path": null}, {"credit_id": "5bdb741092514153f5016d5a", "department": "Art", "gender": 0, "id": 2166556, "job": "Art Direction", "name": "Robert Verberkmoes", "profile_path": null}, {"credit_id": "5bdb742392514153fd0174f7", "department": "Production", "gender": 0, "id": 2166564, "job": "Casting", "name": "Doris Bernhardt", "profile_path": null}]}}