{"adult": false, "backdrop_path": "/sPENqwaGKDT2AfJJMN1e0hjbA66.jpg", "belongs_to_collection": null, "budget": 0, "genres": [{"id": 80, "name": "Crime"}, {"id": 35, "name": "Comedy"}], "homepage": null, "id": 94251, "imdb_id": "tt0034262", "original_language": "en", "original_title": "Tall, Dark and Handsome", "overview": "Robin Hoodish gangster in 1929 Chicago is an object of affection, kind to New York hood and bad to a bad crook.", "popularity": 1.73, "poster_path": "/hDd1F0hJCYcCwzSMolWljORG8ky.jpg", "production_companies": [{"id": 25, "logo_path": "/qZCc1lty5FzX30aOCVRBLzaVmcp.png", "name": "20th Century Fox", "origin_country": "US"}], "production_countries": [{"iso_3166_1": "US", "name": "United States of America"}], "release_date": "1941-01-24", "revenue": 0, "runtime": 78, "spoken_languages": [{"iso_639_1": "en", "name": "English"}], "status": "Released", "tagline": "What a man...He's a killer that doesn't kill", "title": "Tall, Dark and Handsome", "video": false, "vote_average": 5.3, "vote_count": 4, "keywords": {"keywords": [{"id": 3149, "name": "gangster"}, {"id": 163098, "name": "newspaper reporter"}, {"id": 193705, "name": "graft"}]}, "similar": {"page": 1, "results": [{"id": 877, "video": false, "vote_count": 222, "vote_average": 7.6, "title": "Scarface", "release_date": "1932-04-09", "original_language": "en", "original_title": "Scarface", "genre_ids": [28, 80, 18, 53], "backdrop_path": "/fX1DFPMZYsRG17BmMPJAKUaBZEz.jpg", "adult": false, "overview": "A murderous thug shoots his way to the top of the mobs while trying to protect his sister from the criminal life.", "poster_path": "/ai9WOjgNRXo42D0GJIIdi7toZ5x.jpg", "popularity": 11.666}, {"id": 156022, "video": false, "vote_count": 5468, "vote_average": 7.2, "title": "The Equalizer", "release_date": "2014-09-24", "original_language": "en", "original_title": "The Equalizer", "genre_ids": [28, 80, 53], "backdrop_path": "/vbl4ZVqelrrzJ16fdDOq9siWbpi.jpg", "adult": false, "overview": "McCall believes he has put his mysterious past behind him and dedicated himself to beginning a new, quiet life. But when he meets Teri, a young girl under the control of ultra-violent Russian gangsters, he can\u2019t stand idly by \u2013 he has to help her. Armed with hidden skills that allow him to serve vengeance against anyone who would brutalize the helpless, McCall comes out of his self-imposed retirement and finds his desire for justice reawakened. If someone has a problem, if the odds are stacked against them, if they have nowhere else to turn, McCall will help. He is The Equalizer.", "poster_path": "/2eQfjqlvPAxd9aLDs8DvsKLnfed.jpg", "popularity": 39.578}, {"id": 154400, "video": false, "vote_count": 1342, "vote_average": 6.7, "title": "The Drop", "release_date": "2014-09-12", "original_language": "en", "original_title": "The Drop", "genre_ids": [80, 18], "backdrop_path": "/lI7TD9Z9TsASnc3GxkLbBBpXCac.jpg", "adult": false, "overview": "Bob Saginowski finds himself at the center of a robbery gone awry and entwined in an investigation that digs deep into the neighborhood's past where friends, families, and foes all work together to make a living - no matter the cost.", "poster_path": "/lj8AMCjWx0jU93XajzUEOUUNKZF.jpg", "popularity": 24.66}, {"adult": false, "backdrop_path": "/sw7mordbZxgITU877yTpZCud90M.jpg", "genre_ids": [18, 80], "id": 769, "original_language": "en", "original_title": "GoodFellas", "overview": "The true story of Henry Hill, a half-Irish, half-Sicilian Brooklyn kid who is adopted by neighbourhood gangsters at an early age and climbs the ranks of a Mafia family under the guidance of Jimmy Conway.", "poster_path": "/pwpGfTImTGifEGgLb3s6LRPd4I6.jpg", "release_date": "1990-09-12", "title": "GoodFellas", "video": false, "vote_average": 8.4, "vote_count": 6559, "popularity": 36.135}, {"adult": false, "backdrop_path": "/v761yOHKO3p6Yr7LDCjud6tUL5G.jpg", "genre_ids": [28, 80, 53], "id": 10651, "original_language": "en", "original_title": "The Dead Pool", "overview": "Dirty Harry Callahan returns for his final film adventure. Together with his partner Al Quan, he must investigate the systematic murder of actors and musicians. By the time Harry learns that the murders are a part of a sick game to predict the deaths of celebrities before they happen, it may be too late...", "poster_path": "/9ZUSqox9lIxN4xaYBac2QXMFcZj.jpg", "release_date": "1988-07-12", "title": "The Dead Pool", "video": false, "vote_average": 6.4, "vote_count": 389, "popularity": 10.626}, {"id": 64689, "video": false, "vote_count": 1221, "vote_average": 6.0, "title": "Killing Them Softly", "release_date": "2012-07-30", "original_language": "en", "original_title": "Killing Them Softly", "genre_ids": [80, 53], "backdrop_path": "/jikIWGfMFq8YxYziXVFyqBI7e3o.jpg", "adult": false, "overview": "Jackie Cogan is an enforcer hired to restore order after three dumb guys rob a Mob protected card game, causing the local criminal economy to collapse.", "poster_path": "/b0BcZFItcgVdwJo0m2TgRDoOeu6.jpg", "popularity": 14.479}, {"adult": false, "backdrop_path": "/g1BfxcnplYEveGqS1ttfhdRBgbR.jpg", "genre_ids": [35, 53, 80], "id": 8012, "original_language": "en", "original_title": "Get Shorty", "overview": "Chili Palmer is a Miami mobster who gets sent by his boss, the psychopathic \"Bones\" Barboni, to collect a bad debt from Harry Zimm, a Hollywood producer who specializes in cheesy horror films. When Chili meets Harry's leading lady, the romantic sparks fly. After pitching his own life story as a movie idea, Chili learns that being a mobster and being a Hollywood producer really aren't all that different.", "poster_path": "/vWtDUUgQAsVyvRW4mE75LBgVm2e.jpg", "release_date": "1995-10-20", "title": "Get Shorty", "video": false, "vote_average": 6.5, "vote_count": 543, "popularity": 12.726}, {"id": 2069, "video": false, "vote_count": 1024, "vote_average": 6.4, "title": "The Whole Nine Yards", "release_date": "2000-02-18", "original_language": "en", "original_title": "The Whole Nine Yards", "genre_ids": [35, 80], "backdrop_path": "/vFvI2DPGV4TjYnsvkJtePas7wgz.jpg", "adult": false, "overview": "After a mobster agrees to cooperate with an FBI investigation in order to stay out of prison, he's relocated by the authorities to a life of suburban anonymity as part of a witness protection program. It's not long before a couple of his new neighbours figure out his true identity and come knocking to see if he'd be up for one more hit\u2014suburban style.", "poster_path": "/rnXnZrKipVb8v4mS2Oo6Ga2O0fg.jpg", "popularity": 22.041}, {"id": 9470, "video": false, "vote_count": 1392, "vote_average": 7.3, "title": "Kung Fu Hustle", "release_date": "2004-02-10", "original_language": "cn", "original_title": "\u529f\u592b", "genre_ids": [28, 35, 80, 14], "backdrop_path": "/qpJWj6MI6VLRt9bGbJVZtmFvqWw.jpg", "adult": false, "overview": "Set in Canton, China in the 1940s, the story revolves in a town ruled by the Axe Gang, Sing who desperately wants to become a member. He stumbles into a slum ruled by eccentric landlords who turns out to be the greatest kung-fu masters in disguise. Sing's actions eventually cause the Axe Gang and the slumlords to engage in an explosive kung-fu battle. Only one side will win and only one hero will emerge as the greatest kung-fu master of all.", "poster_path": "/dZsfDrNLGWgsIUQL1vGhl8tbnqY.jpg", "popularity": 17.654}, {"adult": false, "backdrop_path": "/8nvayG5l0urcjvvpszoECDqLWzD.jpg", "genre_ids": [18, 53, 80, 9648], "id": 186, "original_language": "en", "original_title": "Lucky Number Slevin", "overview": "Slevin is mistakenly put in the middle of a personal war between the city\u2019s biggest criminal bosses. Under constant watch, Slevin must try not to get killed by an infamous assassin and come up with an idea of how to get out of his current dilemma. A film with many twists and turns.", "poster_path": "/jtKq0EtothAzWlnRBBWGCA8uFuu.jpg", "release_date": "2006-02-24", "title": "Lucky Number Slevin", "video": false, "vote_average": 7.5, "vote_count": 2480, "popularity": 14.28}, {"id": 311, "video": false, "vote_count": 2595, "vote_average": 8.4, "title": "Once Upon a Time in America", "release_date": "1984-05-23", "original_language": "en", "original_title": "Once Upon a Time in America", "genre_ids": [80, 18], "backdrop_path": "/vnT6HzjLSDrAweHn9xWykb8Ii6T.jpg", "adult": false, "overview": "A former Prohibition-era Jewish gangster returns to the Lower East Side of Manhattan over thirty years later, where he once again must confront the ghosts and regrets of his old life.", "poster_path": "/x733R4ISI0RbKeHhVkXdTMFmTFr.jpg", "popularity": 22.233}, {"adult": false, "backdrop_path": "/51fjuzYoJKvGW43j32nBpWW6Tm1.jpg", "genre_ids": [28, 80, 18, 53], "id": 111, "original_language": "en", "original_title": "Scarface", "overview": "After getting a green card in exchange for assassinating a Cuban government official, Tony Montana stakes a claim on the drug trade in Miami. Viciously murdering anyone who stands in his way, Tony eventually becomes the biggest drug lord in the state, controlling nearly all the cocaine that comes through Miami. But increased pressure from the police, wars with Colombian drug cartels and his own drug-fueled paranoia serve to fuel the flames of his eventual downfall.", "poster_path": "/zr2p353wrd6j3wjLgDT4TcaestB.jpg", "release_date": "1983-12-08", "title": "Scarface", "video": false, "vote_average": 8.1, "vote_count": 6147, "popularity": 29.172}, {"adult": false, "backdrop_path": "/6xKCYgH16UuwEGAyroLU6p8HLIn.jpg", "genre_ids": [18, 80], "id": 238, "original_language": "en", "original_title": "The Godfather", "overview": "Spanning the years 1945 to 1955, a chronicle of the fictional Italian-American Corleone crime family. When organized crime family patriarch, Vito Corleone barely survives an attempt on his life, his youngest son, Michael steps in to take care of the would-be killers, launching a campaign of bloody revenge.", "poster_path": "/rPdtLWNsZmAtoZl9PK7S2wE3qiS.jpg", "release_date": "1972-03-14", "title": "The Godfather", "video": false, "vote_average": 8.6, "vote_count": 11276, "popularity": 47.035}, {"id": 1422, "video": false, "vote_count": 8816, "vote_average": 8.1, "title": "The Departed", "release_date": "2006-10-05", "original_language": "en", "original_title": "The Departed", "genre_ids": [80, 18, 53], "backdrop_path": "/8Od5zV7Q7zNOX0y9tyNgpTmoiGA.jpg", "adult": false, "overview": "To take down South Boston's Irish Mafia, the police send in one of their own to infiltrate the underworld, not realizing the syndicate has done likewise. While an undercover cop curries favor with the mob kingpin, a career criminal rises through the police ranks. But both sides soon discover there's a mole among them.", "poster_path": "/tGLO9zw5ZtCeyyEWgbYGgsFxC6i.jpg", "popularity": 25.529}, {"id": 398978, "video": false, "vote_count": 2192, "vote_average": 7.8, "title": "The Irishman", "release_date": "2019-11-01", "original_language": "en", "original_title": "The Irishman", "genre_ids": [80, 18, 36], "backdrop_path": "/iLLDiO4dbUfFEnRug8DuvFEl1NB.jpg", "adult": false, "overview": "Pennsylvania, 1956. Frank Sheeran, a war veteran of Irish origin who works as a truck driver, accidentally meets mobster Russell Bufalino. Once Frank becomes his trusted man, Bufalino sends him to Chicago with the task of helping Jimmy Hoffa, a powerful union leader related to organized crime, with whom Frank will maintain a close friendship for nearly twenty years.", "poster_path": "/mbm8k3GFhXS0ROd9AD1gqYbIFbM.jpg", "popularity": 71.608}, {"id": 400, "video": false, "vote_count": 185, "vote_average": 6.6, "title": "Things to Do in Denver When You're Dead", "release_date": "1995-12-01", "original_language": "en", "original_title": "Things to Do in Denver When You're Dead", "genre_ids": [80, 18], "backdrop_path": "/5iCxKe3zEPnrc1Y0R0m0YnFdaBO.jpg", "adult": false, "overview": "A mafia film in Tarantino style with a star-studded cast. Jimmy\u2019s \u201cThe Saint\u201d gangster career has finally ended. Yet now he finds him self doing favors for a wise godfather known as \u201cThe Man with the Plan.\u201d", "poster_path": "/ysKIolKO0376Nl5DV1fDAAPudEq.jpg", "popularity": 8.729}, {"id": 339103, "video": false, "vote_count": 327, "vote_average": 5.3, "title": "Gotti", "release_date": "2018-06-14", "original_language": "en", "original_title": "Gotti", "genre_ids": [80, 18, 36, 53], "backdrop_path": "/yp6JNRU4PQEeWAVbTKG2E8pYGiP.jpg", "adult": false, "overview": "John Gotti rises to the top of the New York underworld to become the boss of the Gambino crime family. His life takes a tumultuous turn as he faces tragedy, multiple trials and a prison sentence.", "poster_path": "/cUCX6B0FGTsHC5D8L2CF0gJrQCm.jpg", "popularity": 13.921}, {"adult": false, "backdrop_path": "/fop31RWFi9sVL0xK5hAJGh7Fwkz.jpg", "genre_ids": [18, 80], "id": 261023, "original_language": "en", "original_title": "Black Mass", "overview": "The true story of Whitey Bulger, the brother of a state senator and the most infamous violent criminal in the history of South Boston, who became an FBI informant to take down a Mafia family invading his turf.", "poster_path": "/nSbpuyd2UySuW7kaoXzYUfes1Bl.jpg", "release_date": "2015-09-04", "title": "Black Mass", "video": false, "vote_average": 6.4, "vote_count": 2192, "popularity": 16.347}, {"adult": false, "backdrop_path": "/j7hS3yybvvAd9V217IkZSOjkOvY.jpg", "genre_ids": [18, 28, 53, 80], "id": 832, "original_language": "de", "original_title": "M - Eine Stadt sucht einen M\u00f6rder", "overview": "In this classic German thriller, Hans Beckert, a serial killer who preys on children, becomes the focus of a massive Berlin police manhunt. Beckert's heinous crimes are so repellant and disruptive to city life that he is even targeted by others in the seedy underworld network. With both cops and criminals in pursuit, the murderer soon realizes that people are on his trail, sending him into a tense, panicked attempt to escape justice.", "poster_path": "/AqE126KXLcT3wwmeM3HtlKqyGze.jpg", "release_date": "1931-05-11", "title": "M", "video": false, "vote_average": 8.1, "vote_count": 999, "popularity": 13.997}, {"id": 324542, "video": false, "vote_count": 775, "vote_average": 5.8, "title": "Sleepless", "release_date": "2017-01-12", "original_language": "en", "original_title": "Sleepless", "genre_ids": [28, 80, 53], "backdrop_path": "/9VEOQvCnd8T8wILgyqjKgyhALw4.jpg", "adult": false, "overview": "Undercover Las Vegas police officer Vincent Downs, who has got a lot of enemies, is caught in a high stakes web of corrupt cops and the mob-controlled casino underground. When a heist goes wrong, a crew of homicidal gangsters gets T, Downs\u2019 teenage son. In one sleepless night, he will have to rescue his son T (who they got), evade an internal affairs investigation and bring the kidnappers to justice.", "poster_path": "/9WkUSY33MDPGmz0vtzbsfaxTHVa.jpg", "popularity": 14.627}], "total_pages": 121, "total_results": 2402}, "recommendations": {"page": 1, "results": [], "total_pages": 1, "total_results": 0}, "credits": {"cast": [{"cast_id": 2, "character": "J.J. \"Shep\" Morrison", "credit_id": "52fe49519251416c750c413f", "gender": 2, "id": 4355, "name": "Cesar Romero", "order": 0, "profile_path": "/yUvMGGVQHq17yfjHeF74lP5n1A.jpg"}, {"cast_id": 3, "character": "Judy Miller", "credit_id": "52fe49519251416c750c4143", "gender": 1, "id": 132493, "name": "Virginia Gilmore", "order": 1, "profile_path": "/m7KszRjblq6hZG2ACJMe34POyhc.jpg"}, {"cast_id": 5, "character": "Frosty Welch", "credit_id": "52fe49519251416c750c414b", "gender": 2, "id": 69951, "name": "Milton Berle", "order": 2, "profile_path": "/kVcyz4eVl1Z8jZYciuybdMqUPvo.jpg"}, {"cast_id": 4, "character": "Winnie Sage", "credit_id": "52fe49519251416c750c4147", "gender": 1, "id": 129521, "name": "Charlotte Greenwood", "order": 3, "profile_path": "/A68wgm2RkNRuBE61R3mcHAtCkwP.jpg"}, {"cast_id": 6, "character": "Pretty Willie Williams", "credit_id": "52fe49519251416c750c414f", "gender": 2, "id": 41750, "name": "Sheldon Leonard", "order": 4, "profile_path": "/tkz20WzQYKQDDOYkbFTsFVKmLWD.jpg"}, {"cast_id": 7, "character": "Detroit Harry Morrison Jr.", "credit_id": "52fe49519251416c750c4153", "gender": 2, "id": 133436, "name": "Stanley Clements", "order": 5, "profile_path": "/ycQbiaJwuYouJc2yX1kc4UIkdka.jpg"}, {"cast_id": 9, "character": "Puffy", "credit_id": "52fe49519251416c750c415b", "gender": 2, "id": 30238, "name": "Frank Jenks", "order": 6, "profile_path": "/8TnmuC9O20upcMTejYQz8GEkbsJ.jpg"}, {"cast_id": 12, "character": "Quentin", "credit_id": "52fe49519251416c750c4167", "gender": 2, "id": 141520, "name": "Barnett Parker", "order": 7, "profile_path": "/b0ISw7aMM8gBUz04IIrYMWar7po.jpg"}, {"cast_id": 10, "character": "Louie", "credit_id": "52fe49519251416c750c415f", "gender": 2, "id": 3140, "name": "Marc Lawrence", "order": 8, "profile_path": "/l9BsvMMq9db1eSbnTGia0ymp1mv.jpg"}, {"cast_id": 13, "character": "Biff Sage", "credit_id": "52fe49519251416c750c416b", "gender": 2, "id": 14664, "name": "Paul Hurst", "order": 9, "profile_path": "/yVgjaZvnrIJZ6jWzkkkPw3NKvRk.jpg"}, {"cast_id": 14, "character": "Chick", "credit_id": "52fe49519251416c750c416f", "gender": 2, "id": 119260, "name": "Frank Bruno", "order": 10, "profile_path": null}, {"cast_id": 11, "character": "Gunman", "credit_id": "52fe49519251416c750c4163", "gender": 2, "id": 16004, "name": "Anthony Caruso", "order": 11, "profile_path": "/d2p7VwnIAQKds9JHkz0yxSF6sIQ.jpg"}, {"cast_id": 8, "character": "Dawn", "credit_id": "52fe49519251416c750c4157", "gender": 1, "id": 85900, "name": "Marion Martin", "order": 12, "profile_path": "/ci5vfUjqZxm8y27tr1pMKHto7fi.jpg"}, {"cast_id": 15, "character": "Alfredo Herrera", "credit_id": "52fe49519251416c750c4173", "gender": 2, "id": 95054, "name": "Leon Belasco", "order": 13, "profile_path": "/f5zHwIwjSqsyWuia82cDUcocd6N.jpg"}, {"cast_id": 16, "character": "District Attorney", "credit_id": "52fe49519251416c750c4177", "gender": 2, "id": 13977, "name": "Charles D. Brown", "order": 14, "profile_path": "/tmJTiq9xHPa7vVEnE8t7wXMKbdD.jpg"}, {"cast_id": 17, "character": "Miitary Academy Commandant", "credit_id": "52fe49519251416c750c417b", "gender": 2, "id": 97007, "name": "Addison Richards", "order": 15, "profile_path": "/ztihdDQTNfW1ASDKkMUBGDlRonc.jpg"}, {"cast_id": 22, "character": "Joe Brady", "credit_id": "52fe49519251416c750c418b", "gender": 0, "id": 128641, "name": "George Watts", "order": 16, "profile_path": null}, {"cast_id": 23, "character": "Policeman in cigar store", "credit_id": "52fe49519251416c750c418f", "gender": 2, "id": 30196, "name": "Stanley Blystone", "order": 17, "profile_path": "/qmj0lbXABDGnYudwHmM94ZvKVsN.jpg"}, {"cast_id": 19, "character": "Snuggy", "credit_id": "52fe49519251416c750c4183", "gender": 0, "id": 1195993, "name": "Vickie Lester", "order": 18, "profile_path": "/emo3X11mlWxVfhvHweCvsTplE2K.jpg"}, {"cast_id": 18, "character": "Martha", "credit_id": "52fe49519251416c750c417f", "gender": 1, "id": 106584, "name": "Mary Treen", "order": 19, "profile_path": "/RpmccR2BYTJBTJ0wC0H7wvOI8g.jpg"}, {"cast_id": 20, "character": "Department Store Extra (uncredited)", "credit_id": "52fe49519251416c750c4187", "gender": 1, "id": 121323, "name": "Bess Flowers", "order": 20, "profile_path": "/akbW8jJl8GSXFpixFaobMOqvNv4.jpg"}], "crew": [{"credit_id": "5ca0357f0e0a26597bf9e841", "department": "Writing", "gender": 2, "id": 10003, "job": "Screenplay", "name": "Karl Tunberg", "profile_path": null}, {"credit_id": "52fe49519251416c750c413b", "department": "Directing", "gender": 2, "id": 87700, "job": "Director", "name": "H. Bruce Humberstone", "profile_path": "/mHdkYOkKMhIQgrcHmIglB8bwvzz.jpg"}, {"credit_id": "5ca0358a0e0a265980fa260e", "department": "Writing", "gender": 2, "id": 556858, "job": "Screenplay", "name": "Darrell Ware", "profile_path": null}]}}