{"adult": false, "backdrop_path": null, "belongs_to_collection": null, "budget": 37, "genres": [{"id": 18, "name": "Drama"}], "homepage": "", "id": 94643, "imdb_id": "tt0000498", "original_language": "en", "original_title": "Rescued by Rover", "overview": "A dog leads its master to his kidnapped baby.", "popularity": 2.171, "poster_path": "/m4yuuCmJKoTo9BPpjQvz3LuRs9H.jpg", "production_companies": [{"id": 24148, "logo_path": null, "name": "Hepworth", "origin_country": ""}], "production_countries": [{"iso_3166_1": "GB", "name": "United Kingdom"}], "release_date": "1905-07-03", "revenue": 0, "runtime": 7, "spoken_languages": [{"iso_639_1": "xx", "name": "No Language"}], "status": "Released", "tagline": "", "title": "Rescued by Rover", "video": false, "vote_average": 6.6, "vote_count": 16, "keywords": {"keywords": [{"id": 1930, "name": "kidnapping"}, {"id": 10084, "name": "rescue"}]}, "similar": {"page": 1, "results": [{"adult": false, "backdrop_path": "/bRGtZsVj2Qq8r5CCsNYmQUPF4z4.jpg", "genre_ids": [80, 18, 878, 53], "id": 10559, "original_language": "en", "original_title": "Frequency", "overview": "When a rare phenomenon gives police officer John Sullivan the chance to speak to his father, 30 years in the past, he takes the opportunity to prevent his dad's tragic death.  After his actions inadvertently give rise to a series of brutal murders he and his father must find a way to fix the consequences of altering time.", "poster_path": "/n0QAAZmIaPPIShVkk8eiKwfGV9.jpg", "release_date": "2000-04-28", "title": "Frequency", "video": false, "vote_average": 7.1, "vote_count": 897, "popularity": 14.026}, {"id": 2320, "video": false, "vote_count": 457, "vote_average": 6.2, "title": "Executive Decision", "release_date": "1996-03-15", "original_language": "en", "original_title": "Executive Decision", "genre_ids": [28, 12, 18, 53], "backdrop_path": "/bjVntRO9QkAwm1HzTfH1nn1nOpn.jpg", "adult": false, "overview": "Terrorists hijack a 747 inbound to Washington D.C., demanding the the release of their imprisoned leader. Intelligence expert David Grant (Kurt Russell) suspects another reason and he is soon the reluctant member of a special assault team that is assigned to intercept the plane and hijackers.", "poster_path": "/wmgkFuEr8bHRAgs1HS5U46Rzo0I.jpg", "popularity": 11.941}, {"adult": false, "backdrop_path": "/pdIoY6ZOqwbwPlTuDh83TbJ64xw.jpg", "genre_ids": [35, 18, 9648], "id": 270487, "original_language": "en", "original_title": "Hail, Caesar!", "overview": "When a Hollywood star mysteriously disappears in the middle of filming, the studio sends their \"fixer\" to get him back. Set in the 1950s, the story was inspired by the career of Eddie Mannix (1891\u20131963).", "poster_path": "/rzMYZYphL9qrbBClQq1Jc0zPMmY.jpg", "release_date": "2016-02-05", "title": "Hail, Caesar!", "video": false, "vote_average": 5.9, "vote_count": 2550, "popularity": 15.402}, {"adult": false, "backdrop_path": "/747dgDfL5d8esobk7h4odaOFhUq.jpg", "genre_ids": [80, 18, 53], "id": 275, "original_language": "en", "original_title": "Fargo", "overview": "Jerry, a small-town Minnesota car salesman is bursting at the seams with debt... but he's got a plan. He's going to hire two thugs to kidnap his wife in a scheme to collect a hefty ransom from his wealthy father-in-law. It's going to be a snap and nobody's going to get hurt... until people start dying. Enter Police Chief Marge, a coffee-drinking, parka-wearing - and extremely pregnant - investigator who'll stop at nothing to get her man. And if you think her small-time investigative skills will give the crooks a run for their ransom... you betcha!", "poster_path": "/pyEkyYgtyjOX1R9EYyUcgbK1sTn.jpg", "release_date": "1996-03-08", "title": "Fargo", "video": false, "vote_average": 7.9, "vote_count": 4327, "popularity": 30.674}, {"id": 52345, "video": false, "vote_count": 221, "vote_average": 7.8, "title": "Lisbela and the Prisoner", "release_date": "2003-08-22", "original_language": "pt", "original_title": "Lisbela e o Prisioneiro", "genre_ids": [35, 10749], "backdrop_path": "/4KDlC0cZvR5LtszqjFhZcMzdiUD.jpg", "adult": false, "overview": "Lisbela is a young woman who loves going to the movies. Lel\u00e9u is a con man, going from town to town selling all sort of things and performing as master of ceremonies for some cheesy numbers, such as the woman who gets transformed into a gorilla. He gets involved with Linaura, a sexy and beautiful woman who happens to be the wife of the most frightening hitman of the place. The hitman finds out his wife's affair and goes after Lel\u00e9u, who has to leave in a hurry. In another town, he meets and falls instantly in love with Lisbela, who is engaged to Douglas, a hillbilly who tries hard to pass for a cosmopolitan Rio de Janeiro dweller.", "poster_path": "/9nlaRxQeYaMrVVANMppagFohCRP.jpg", "popularity": 1.042}, {"adult": false, "backdrop_path": "/t3OZS8yMs0NL4YgWWc04eXHTn1X.jpg", "genre_ids": [28, 80, 53], "id": 984, "original_language": "en", "original_title": "Dirty Harry", "overview": "When a madman dubbed 'Scorpio' terrorizes San Francisco, hard-nosed cop, Harry Callahan \u2013 famous for his take-no-prisoners approach to law enforcement \u2013 is tasked with hunting down the psychopath. Harry eventually collars Scorpio in the process of rescuing a kidnap victim, only to see him walk on technicalities. Now, the maverick detective is determined to nail the maniac himself.", "poster_path": "/2TADKc4GMMPdMrLXj0xJVgTvZJM.jpg", "release_date": "1971-12-21", "title": "Dirty Harry", "video": false, "vote_average": 7.5, "vote_count": 1173, "popularity": 18.839}, {"id": 8681, "video": false, "vote_count": 7350, "vote_average": 7.3, "title": "Taken", "release_date": "2008-02-18", "original_language": "en", "original_title": "Taken", "genre_ids": [28, 53], "backdrop_path": "/lcqVBBirzzX520AyOK3k7kXBDJ6.jpg", "adult": false, "overview": "While vacationing with a friend in Paris, an American girl is kidnapped by a gang of human traffickers intent on selling her into forced prostitution. Working against the clock, her ex-spy father must pull out all the stops to save her. But with his best years possibly behind him, the job may be more than he can handle.", "poster_path": "/3zlffXmo7QpVBc17QIJWrRfasVr.jpg", "popularity": 24.243}, {"id": 373569, "video": false, "vote_count": 538, "vote_average": 5.3, "title": "Snatched", "release_date": "2017-05-03", "original_language": "en", "original_title": "Snatched", "genre_ids": [28, 35], "backdrop_path": "/rjMvrWdC1Dc3jW2Q8ymZTSPCV60.jpg", "adult": false, "overview": "When her boyfriend dumps Emily, a spontaneous woman in her 30s, she persuades her ultra-cautious mom to accompany her on a vacation to Ecuador. When these two very different women are trapped on this wild journey, their bond as mother and daughter is tested and strengthened while they attempt to navigate the jungle and escape.", "poster_path": "/gsleO1KultziWltEAngAEZkxQhf.jpg", "popularity": 12.514}, {"id": 446791, "video": false, "vote_count": 1347, "vote_average": 6.4, "title": "All the Money in the World", "release_date": "2017-12-21", "original_language": "en", "original_title": "All the Money in the World", "genre_ids": [80, 18, 9648, 53], "backdrop_path": "/toqEEh9gIKIxxaQmSGSOTT9MBqh.jpg", "adult": false, "overview": "The story of the kidnapping of 16-year-old John Paul Getty III and the desperate attempt by his devoted mother to convince his billionaire grandfather Jean Paul Getty to pay the ransom.", "poster_path": "/zig7XjXQ7aJhyy2KIGDGPPom4uJ.jpg", "popularity": 16.734}, {"id": 460885, "video": false, "vote_count": 794, "vote_average": 6.2, "title": "Mandy", "release_date": "2018-09-13", "original_language": "en", "original_title": "Mandy", "genre_ids": [28, 14, 27, 9648, 53], "backdrop_path": "/mqbAmIiToU2R4VwZGgCqsfy6Yh4.jpg", "adult": false, "overview": "The Shadow Mountains, 1983. Red and Mandy lead a loving and peaceful existence; but when their pine-scented haven is savagely destroyed, Red is catapulted into a phantasmagoric journey filled with bloody vengeance and laced with fire.", "poster_path": "/m0yf7J7HsKeK6E81SMRcX8vx6mH.jpg", "popularity": 12.535}, {"adult": false, "backdrop_path": "/yl0siKWmGjnBcuCEacKyW0vHsWq.jpg", "genre_ids": [10749, 18], "id": 409387, "original_language": "ko", "original_title": "\uc815\uc0ac : \uacb0\ud63c \ub9d0\uace0 \uc5f0\uc560", "overview": "\"Getting married is crazy! I only want to be in relationships!\" The life story of a woman who doesn't want to settle for one man. Her mom nags at her to get married, her superior grills her to bring results and her boyfriend turns out to be married. Soo-kyeong comforts herself with some spicy food. One lonely birthday, she ends up having sex with the chef of the spicy food restaurant. They fit well mentally and physically so they get closer but Soo-kyeong rejects the chef's marriage proposal. The chef gets married with someone else and asks her, \"I got married with someone else like you said. Now will you have a relationship with me?\"", "poster_path": "/4hiv07Quj8A7J8onCIAjNCy62Er.jpg", "release_date": "2016-04-19", "title": "Sex: A Relationship and Not Marriage", "video": false, "vote_average": 7.7, "vote_count": 3, "popularity": 11.678}, {"id": 50620, "video": false, "vote_count": 5631, "vote_average": 6.3, "title": "The Twilight Saga: Breaking Dawn - Part 2", "release_date": "2012-11-13", "original_language": "en", "original_title": "The Twilight Saga: Breaking Dawn - Part 2", "genre_ids": [12, 18, 14, 10749], "backdrop_path": "/xDWphxQqBfZJVlTrg6C0GQBSeUc.jpg", "adult": false, "overview": "After the birth of Renesmee, the Cullens gather other vampire clans in order to protect the child from a false allegation that puts the family in front of the Volturi.", "poster_path": "/kJQPygYB8aNEevZZHRifyYrAdU9.jpg", "popularity": 21.925}, {"adult": false, "backdrop_path": "/nfm6JCKUaM6dT0mATmShLY6cpmc.jpg", "genre_ids": [18, 10752], "id": 600, "original_language": "en", "original_title": "Full Metal Jacket", "overview": "A pragmatic U.S. Marine observes the dehumanizing effects the U.S.-Vietnam War has on his fellow recruits from their brutal boot camp training to the bloody street fighting in Hue.", "poster_path": "/29veIwD38rVL2qY74emXQw4y25H.jpg", "release_date": "1987-06-26", "title": "Full Metal Jacket", "video": false, "vote_average": 8.1, "vote_count": 5897, "popularity": 25.207}, {"id": 157336, "video": false, "vote_count": 20609, "vote_average": 8.3, "title": "Interstellar", "release_date": "2014-11-05", "original_language": "en", "original_title": "Interstellar", "genre_ids": [12, 18, 878], "backdrop_path": "/xu9zaAevzQ5nnrsXN6JcahLnG4i.jpg", "adult": false, "overview": "Interstellar chronicles the adventures of a group of explorers who make use of a newly discovered wormhole to surpass the limitations on human space travel and conquer the vast distances involved in an interstellar voyage.", "poster_path": "/nBNZadXqJSdt05SHLqgT0HuC5Gm.jpg", "popularity": 53.312}, {"id": 3131, "video": false, "vote_count": 3917, "vote_average": 7.3, "title": "Gangs of New York", "release_date": "2002-12-14", "original_language": "en", "original_title": "Gangs of New York", "genre_ids": [80, 18, 36], "backdrop_path": "/a2Aj5ksEo2HOUH3FbGyZCtaJM4C.jpg", "adult": false, "overview": "It's 1863. America was born in the streets. Amsterdam Vallon returns to the Five Points of America to seek vengeance against the psychotic gangland kingpin, Bill the Butcher, who murdered his father years earlier. With an eager pickpocket by his side and a whole new army, Vallon fights his way to seek vengeance on the Butcher and restore peace in the area.", "poster_path": "/lemqKtcCuAano5aqrzxYiKC8kkn.jpg", "popularity": 20.98}, {"id": 44115, "video": false, "vote_count": 4927, "vote_average": 7.0, "title": "127 Hours", "release_date": "2010-11-05", "original_language": "en", "original_title": "127 Hours", "genre_ids": [12, 18, 53], "backdrop_path": "/eHUoB8NbvrvKp7KQMNgvc7yLpzM.jpg", "adult": false, "overview": "The true story of mountain climber Aron Ralston's remarkable adventure to save himself after a fallen boulder crashes on his arm and traps him in an isolated canyon in Utah.", "poster_path": "/c6Nu7UjhGCQtV16WXabqOQfikK6.jpg", "popularity": 14.26}, {"adult": false, "backdrop_path": "/uQqQvmptJLPTcWDrZXn22p7j7s3.jpg", "genre_ids": [28, 80, 18, 53], "id": 395990, "original_language": "en", "original_title": "Death Wish", "overview": "A mild-mannered father is transformed into a killing machine after his family is torn apart by a violent act.", "poster_path": "/g0eEEZAqMf98ULQnoiORuazjOpn.jpg", "release_date": "2018-03-02", "title": "Death Wish", "video": false, "vote_average": 5.9, "vote_count": 1402, "popularity": 18.853}, {"id": 2026, "video": false, "vote_count": 956, "vote_average": 6.3, "title": "Hostage", "release_date": "2005-03-10", "original_language": "en", "original_title": "Hostage", "genre_ids": [80, 18, 9648, 53], "backdrop_path": "/chaAIPhuuWDu3NCv4ONmCKlR7Vp.jpg", "adult": false, "overview": "When a mafia accountant is taken hostage on his beat, a police officer \u2013 wracked by guilt from a prior stint as a negotiator \u2013 must negotiate the standoff, even as his own family is held captive by the mob.", "poster_path": "/simhaVNOea3uhRUM0gT8WdidEto.jpg", "popularity": 14.556}, {"id": 68718, "video": false, "vote_count": 17255, "vote_average": 8.1, "title": "Django Unchained", "release_date": "2012-12-25", "original_language": "en", "original_title": "Django Unchained", "genre_ids": [18, 37], "backdrop_path": "/qUcmEqnzIwlwZxSyTf3WliSfAjJ.jpg", "adult": false, "overview": "With the help of a German bounty hunter, a freed slave sets out to rescue his wife from a brutal Mississippi plantation owner.", "poster_path": "/eCt596Z4zkqxW5AHz1HEhGm1eif.jpg", "popularity": 39.475}, {"adult": false, "backdrop_path": "/siRoJI12l4SbWye3wpIotM8OslV.jpg", "genre_ids": [18, 53], "id": 293768, "original_language": "en", "original_title": "Kidnap", "overview": "A mother (in her Minivan) stops at nothing to recover her kidnapped son.", "poster_path": "/fwdOX3PEZlOLXr9SMpgRnSmTVFp.jpg", "release_date": "2017-06-16", "title": "Kidnap", "video": false, "vote_average": 6.1, "vote_count": 846, "popularity": 21.554}], "total_pages": 237, "total_results": 4738}, "recommendations": {"page": 1, "results": [{"adult": false, "backdrop_path": "/bkIGDHVM1QulCWM1DeKCef8K0RC.jpg", "genre_ids": [35], "id": 132377, "original_language": "en", "original_title": "Mary Jane's Mishap", "overview": "Mary Jane tries to light the oven. When she's unsuccessful, she plays around, getting black boot polish on her face. She mugs before a mirror. Then, it's back to work. When the stove still won't light, she pours in paraffin, winks at the camera, and lights a match. Kaboom! Is there any rest for the foolish, even in the grave?", "poster_path": "/wi8sxMp2kDVnleYl3o71NIDPh7q.jpg", "release_date": "1903-02-28", "title": "Mary Jane's Mishap", "video": false, "vote_average": 5.7, "vote_count": 17, "popularity": 2.463}, {"adult": false, "backdrop_path": null, "genre_ids": [18, 80], "id": 171430, "original_language": "en", "original_title": "Histoire d'un crime", "overview": "A convicted criminal dreams about his past the night before his execution.", "poster_path": "/8JHxOtWuDmu545orEAowQX1inF1.jpg", "release_date": "1901-04-30", "title": "History of a Crime", "video": false, "vote_average": 5.7, "vote_count": 15, "popularity": 2.024}, {"adult": false, "backdrop_path": null, "genre_ids": [18], "id": 190651, "original_language": "en", "original_title": "The Little Match Seller", "overview": "A short melodrama based on Hans Christian Andersen's harrowing tale. A poor little girl tries to sell matchsticks in the freezing December cold. She lights matches for some light and warmth. There are visions: a fireplace, dinner, a Christmas tree. She sees her dead mother, welcoming her.", "poster_path": "/a9X0Z7HDsQtyLt0mrv7iAD4vlPC.jpg", "release_date": "1902-12-24", "title": "The Little Match Seller", "video": false, "vote_average": 6.4, "vote_count": 7, "popularity": 2.502}, {"adult": false, "backdrop_path": null, "genre_ids": [35], "id": 179539, "original_language": "en", "original_title": "Ladies' Skirts Nailed to a Fence", "overview": "A century before Little Britain's Emily and Florence first assaulted our screens, a pair of equally unconvincing transvestites could be spotted in this short comedy. Our cross-dressing housewives are enjoying a gossip before they're abused by a couple of men. The film doesn't make clear why they deserve this attack, but an accompanying set of cards produced by the production company indicates that the ladies were engaged in a discussion about the then-pressing political issue of women's suffrage.", "poster_path": "/wi8sxMp2kDVnleYl3o71NIDPh7q.jpg", "release_date": "1899-01-01", "title": "Ladies' Skirts Nailed to a Fence", "video": false, "vote_average": 5.0, "vote_count": 6, "popularity": 0.802}, {"adult": false, "backdrop_path": null, "genre_ids": [18], "id": 193900, "original_language": "fr", "original_title": "Le myst\u00e8re des roches de Kador", "overview": "Count Fernand De Keramic plots against his niece in order to acquire her wealth to pay his debts.", "poster_path": "/ytgrpH76wVMm6btu2OHUgclFGcy.jpg", "release_date": "1912-12-01", "title": "The Mystery of the Rocks of Kador", "video": false, "vote_average": 6.5, "vote_count": 8, "popularity": 0.951}, {"adult": false, "backdrop_path": "/udfgJ3lmPWp6pDeH8DCpk1hkOZJ.jpg", "genre_ids": [99], "id": 189591, "original_language": "xx", "original_title": "Coney Island at Night", "overview": "A panorama of Coney Island, taken at night: the camera sweeps across the scene from a vantage point well above the area. It then moves in for closer views of Dreamland and Luna Park.", "poster_path": "/6Pq0mgT7CuG5TUKAbvLXLM9zYZm.jpg", "release_date": "1905-06-29", "title": "Coney Island at Night", "video": false, "vote_average": 6.1, "vote_count": 8, "popularity": 1.96}, {"adult": false, "backdrop_path": null, "genre_ids": [18, 36], "id": 120015, "original_language": "en", "original_title": "La Vie du Christ", "overview": "The stations of Christ's life are segmented into a series of performative tableaux.", "poster_path": "/901rvPkRUZs4mpIzP9iQf41TPdc.jpg", "release_date": "1906-01-01", "title": "The Birth, the Life, and the Death of Christ", "video": false, "vote_average": 5.8, "vote_count": 5, "popularity": 1.18}, {"adult": false, "backdrop_path": null, "genre_ids": [35], "id": 188934, "original_language": "fr", "original_title": "Max prend un bain", "overview": "On doctor's orders Max buys a new bathtub but things don't work out as planned.", "poster_path": "/5ra1cjJUoiCulvg5ALSdkzW4ojb.jpg", "release_date": "1910-10-22", "title": "Max Takes a Bath", "video": false, "vote_average": 6.3, "vote_count": 8, "popularity": 1.219}, {"adult": false, "backdrop_path": null, "genre_ids": [99], "id": 253983, "original_language": "it", "original_title": "Felice chi \u00e8 diverso", "overview": "The gay experience in 20th century Italy.", "poster_path": "/1BComGy3l7akRNem4XxroEGfGRy.jpg", "release_date": "2014-02-06", "title": "Happy to Be Different", "video": false, "vote_average": 6.7, "vote_count": 3, "popularity": 1.057}, {"adult": false, "backdrop_path": null, "genre_ids": [], "id": 196544, "original_language": "fr", "original_title": "Le pied de mouton", "overview": "\"Le Pied De Mouton\" is an adaptation of an old French stage play titled \"The Talisman\" written by Alphonse Martainville and C\u00e9sar Ribi\u00e9. The atmosphere is hilarious, oneiric and delicious. The film tells the story of Gusman and L\u00e9onora, two lovers who must deal with many spells and troubles in order to preserve their love. The tale is full of princes and princesses, damsels in distress, good witches and wicked lords and is an amazing piece of work.", "poster_path": "/65WmKlan68aDyzbO63dWoKCwAcr.jpg", "release_date": "1907-12-27", "title": "The Talisman", "video": false, "vote_average": 6.9, "vote_count": 5, "popularity": 0.84}, {"adult": false, "backdrop_path": null, "genre_ids": [18, 14], "id": 193890, "original_language": "en", "original_title": "Cendrillon ou La pantoufle merveilleuse", "overview": "Georges M\u00e9li\u00e8s's first attempt at Cinderella was in 1899. That film was extraordinary then for having multiple scenes and a semblance of a narrative; additionally, the use of dissolves as transitions in it influenced other filmmakers for years to do the same. M\u00e9li\u00e8s was the cinema world's preeminent leader then. By 1912, however, that was no longer the case; frankly, as evidenced by this feature, his style had become dated. Moreover, M\u00e9li\u00e8s had begun to adopt techniques from other filmmakers, such as direct cuts instead of dissolves, and there's even a match on action shot during the slipper trying-on scene.", "poster_path": "/1JBIx3Rv9PxiHgOd7RDlOOUiPXA.jpg", "release_date": "1912-11-01", "title": "Cinderella or The Glass Slipper", "video": false, "vote_average": 5.3, "vote_count": 8, "popularity": 0.82}, {"adult": false, "backdrop_path": null, "genre_ids": [], "id": 196541, "original_language": "en", "original_title": "A Little Girl Who Did Not Believe in Santa Claus", "overview": "A generous boy tries to help a girl who does not believe in Santa Claus because of her family's poverty.", "poster_path": "/st924AVFIY42C49aQumgss6JbwE.jpg", "release_date": "1907-12-16", "title": "A Little Girl Who Did Not Believe in Santa Claus", "video": false, "vote_average": 7.0, "vote_count": 5, "popularity": 0.849}, {"adult": false, "backdrop_path": null, "genre_ids": [35, 10751], "id": 191934, "original_language": "fr", "original_title": "Bout-de-Zan vole un \u00e9l\u00e9phant", "overview": "Bout de Zan is a very precocious young man! When the circus comes to town, he does what any kid might do in this situation--he steals the circus' elephant!!! Later, he sits on the curb with the elephant and begs coins off people--with a sign saying 'blind since birth'. I am not sure if this is supposed to mean the kid or the animal!", "poster_path": "/vKvDhJ7cVifVxkvBsDxAJYEYVTS.jpg", "release_date": "1913-05-02", "title": "Bout de Zan Steals an Elephant", "video": false, "vote_average": 6.4, "vote_count": 9, "popularity": 1.731}, {"adult": false, "backdrop_path": "/dXtXQzzv18CnXMPRM7Km8kaiV7X.jpg", "genre_ids": [18], "id": 36874, "original_language": "en", "original_title": "The Country Doctor", "overview": "While caring for his sick daughter, a doctor is called away to the sickbed of a neighbor. He finds the neighbor gravely ill, and ignores his wife's pleas to come home and care for his own daughter, who has taken a turn for the worse.", "poster_path": "/ikDuu293pOx3USJG7Y1McYMddjd.jpg", "release_date": "1909-07-08", "title": "The Country Doctor", "video": false, "vote_average": 6.2, "vote_count": 15, "popularity": 2.542}, {"adult": false, "backdrop_path": null, "genre_ids": [18], "id": 143801, "original_language": "en", "original_title": "The Sick Kitten", "overview": "A simple scene of two rather flamboyantly-dressed Edwardian children attempting to feed a spoonful of medicine to a sick kitten. The film is important for being one of the earliest films to cut to a close-up, then back again to the same medium shot as before.", "poster_path": "/jhwPJneWQGAra9d9tMxBKLbdCbc.jpg", "release_date": "1903-12-31", "title": "The Sick Kitten", "video": false, "vote_average": 5.3, "vote_count": 21, "popularity": 2.574}, {"adult": false, "backdrop_path": null, "genre_ids": [], "id": 114145, "original_language": "fr", "original_title": "Tunnel sous la manche ou Le cauchemar franco-anglais", "overview": "The plot follows King Edward VII and President Armand Falli\u00e8res dreaming of building a tunnel under the English Channel.", "poster_path": "/fJYs5UQwvfJOC3ioyZ8drHQYodI.jpg", "release_date": "1907-06-30", "title": "Tunneling the English Channel", "video": false, "vote_average": 6.8, "vote_count": 12, "popularity": 1.167}, {"adult": false, "backdrop_path": null, "genre_ids": [99], "id": 190707, "original_language": "en", "original_title": "Move On", "overview": "In certain sections of New York City large numbers of Jewish and Italian push-cart vendors congregate so closely along the sidewalks that they interfere with traffic. Policemen keep them moving. The picture shows how the frightened peddlers hurry away when a bluecoat appears. Some of the carts are piled high with fruits of all kinds, and it is interesting and amusing to see the expressions of combined fear and anxiety on the faces of the men as they hurry away; the fear of being arrested if they stand, and of losing some of their wares if the carts strike an obstruction in the street. Very fine photographically. (Edison film company catalog)", "poster_path": "/2uwmviASe2ahAPjP2Cg0kA7ipHt.jpg", "release_date": "1903-10-11", "title": "Move On", "video": false, "vote_average": 5.3, "vote_count": 4, "popularity": 1.074}, {"adult": false, "backdrop_path": null, "genre_ids": [99], "id": 195653, "original_language": "en", "original_title": "Scene from the Elevator Ascending Eiffel Tower", "overview": "\u201cA marvelously clear picture taken from the top of the elevator of the Eiffel Tower during going up and coming down of the car. This wonderful tower is 1,000 feet in height, and the picture produces a most sensational effect. As the camera leaves the ground and rises to the top of the tower, the enormous white city opens out to the view of the astonished spectator. Arriving at the top of the tower, a bird's eye view of the Exposition looking toward the Trocadero, and also toward the Palace of Electricity, is made, and the camera begins its descent. The entire trip is shown on a 200-foot film. 30.00. We furnish the ascent in 125 foot film.\u201d (Edison film catalog)", "poster_path": "/dxtWiUBLhGFwwMkQeE3tM3bnyHR.jpg", "release_date": "1900-08-21", "title": "Scene from the Elevator Ascending Eiffel Tower", "video": false, "vote_average": 6.5, "vote_count": 8, "popularity": 2.289}, {"adult": false, "backdrop_path": null, "genre_ids": [12], "id": 48600, "original_language": "en", "original_title": "Ali Baba et les quarante voleurs", "overview": "", "poster_path": "/wi8sxMp2kDVnleYl3o71NIDPh7q.jpg", "release_date": "1907-11-23", "title": "Ali Baba and the Forty Thieves", "video": false, "vote_average": 7.3, "vote_count": 4, "popularity": 1.062}, {"adult": false, "backdrop_path": null, "genre_ids": [], "id": 236711, "original_language": "en", "original_title": "The Autobiography of a 'Jeep'", "overview": "The invention and use of a jeep are described, from the viewpoint of one of the vehicles.", "poster_path": "/xDr4IQLYh8voW9GJPHuA6UCgyE4.jpg", "release_date": "1943-11-14", "title": "The Autobiography of a 'Jeep'", "video": false, "vote_average": 5.3, "vote_count": 4, "popularity": 0.611}], "total_pages": 2, "total_results": 40}, "credits": {"cast": [{"cast_id": 1003, "character": "Rover the dog", "credit_id": "54fec3a29251410e4b001349", "gender": 0, "id": 1223506, "name": "Blair", "order": 1, "profile_path": null}, {"cast_id": 1004, "character": "Nursemaid", "credit_id": "54fec3b7c3a36810a4001405", "gender": 0, "id": 125995, "name": "May Clark", "order": 2, "profile_path": null}, {"cast_id": 1005, "character": "The baby", "credit_id": "54fec3cd9251410e5a001237", "gender": 0, "id": 1223507, "name": "Barbara Hepworth", "order": 3, "profile_path": null}, {"cast_id": 1006, "character": "Harassed father", "credit_id": "54fec3dec3a368150c001195", "gender": 0, "id": 125992, "name": "Cecil M. Hepworth", "order": 4, "profile_path": "/744W1IdUw2VE8WFEXsu4UJ4hv1B.jpg"}, {"cast_id": 1007, "character": "Mother", "credit_id": "54fec3f19251410e5a00123a", "gender": 0, "id": 125996, "name": "Mrs. Hepworth", "order": 5, "profile_path": null}], "crew": [{"credit_id": "52fe49639251416c750c65a7", "department": "Directing", "gender": 0, "id": 125992, "job": "Director", "name": "Cecil M. Hepworth", "profile_path": "/744W1IdUw2VE8WFEXsu4UJ4hv1B.jpg"}, {"credit_id": "5dd59e2e3faba00015f501fa", "department": "Writing", "gender": 0, "id": 125996, "job": "Story", "name": "Mrs. Hepworth", "profile_path": null}, {"credit_id": "52fe49639251416c750c65a1", "department": "Directing", "gender": 0, "id": 1008306, "job": "Director", "name": "Lewin Fitzhamon", "profile_path": null}]}}