{"adult": false, "backdrop_path": "/xZFM6O5hVr7hVUU6pvvYVw0KCD9.jpg", "belongs_to_collection": null, "budget": 0, "genres": [{"id": 35, "name": "Comedy"}, {"id": 18, "name": "Drama"}], "homepage": null, "id": 9483, "imdb_id": "tt0388395", "original_language": "de", "original_title": "Schultze Gets the Blues", "overview": "Schultze is an accordion player and newly without work. When the local music club celebrates its 50th anniversary, his taste of music changes unexpectedly.", "popularity": 2.615, "poster_path": "/rOP9Ksc5nRmFCHemCNtOVGegb84.jpg", "production_companies": [{"id": 756, "logo_path": null, "name": "filmkombinat Nordost GmbH & Co. KG", "origin_country": ""}, {"id": 4606, "logo_path": "/otZHbf1HmzLRQsZFSqJXkf8EHz7.png", "name": "ZDF", "origin_country": "DE"}], "production_countries": [{"iso_3166_1": "DE", "name": "Germany"}], "release_date": "2003-09-02", "revenue": 0, "runtime": 114, "spoken_languages": [{"iso_639_1": "de", "name": "Deutsch"}, {"iso_639_1": "en", "name": "English"}, {"iso_639_1": "fr", "name": "Fran\u00e7ais"}], "status": "Released", "tagline": "It's never too late to re-tune your soul", "title": "Schultze Gets the Blues", "video": false, "vote_average": 6.8, "vote_count": 23, "keywords": {"keywords": [{"id": 531, "name": "southern usa"}, {"id": 4344, "name": "musical"}, {"id": 4948, "name": "retirement"}, {"id": 8826, "name": "polka"}]}, "similar": {"page": 1, "results": [{"adult": false, "backdrop_path": "/wGxK2uFowRXdyKcv8Gni7snK3yu.jpg", "genre_ids": [28, 12, 35], "id": 134, "original_language": "en", "original_title": "O Brother, Where Art Thou?", "overview": "In the deep south during the 1930s, three escaped convicts search for hidden treasure while a relentless lawman pursues them. On their journey they come across many comical characters and incredible situations. Based upon Homer's 'Odyssey'.", "poster_path": "/eIqSzq6j3yuxNmifiUOh6iTpG9N.jpg", "release_date": "2000-08-30", "title": "O Brother, Where Art Thou?", "video": false, "vote_average": 7.3, "vote_count": 2211, "popularity": 21.828}, {"id": 224141, "video": false, "vote_count": 3143, "vote_average": 5.7, "title": "Into the Woods", "release_date": "2014-12-24", "original_language": "en", "original_title": "Into the Woods", "genre_ids": [35, 14], "backdrop_path": "/lzJzB0QfkjpGCm9qUC4XpEIB6pm.jpg", "adult": false, "overview": "In a woods filled with magic and fairy tale characters, a baker and his wife set out to end the curse put on them by their neighbor, a spiteful witch.", "poster_path": "/5h91odPFNlBuJbRBj5N4MEBfXDE.jpg", "popularity": 28.397}, {"id": 872, "video": false, "vote_count": 1616, "vote_average": 8.2, "title": "Singin' in the Rain", "release_date": "1952-04-10", "original_language": "en", "original_title": "Singin' in the Rain", "genre_ids": [35, 10402, 10749], "backdrop_path": "/amW1YWQvcP8slDyDp1R652aVQZ7.jpg", "adult": false, "overview": "In 1927 Hollywood, a silent film production company and cast make a difficult transition to sound.", "poster_path": "/s39odBPtyutGBnEfBIpdm0fpRwv.jpg", "popularity": 20.625}, {"id": 504608, "video": false, "vote_count": 1661, "vote_average": 7.4, "title": "Rocketman", "release_date": "2019-05-22", "original_language": "en", "original_title": "Rocketman", "genre_ids": [18, 10402], "backdrop_path": "/sZZJ42GrWKxSOfcrpI2TSFQa0AQ.jpg", "adult": false, "overview": "The story of Elton John's life, from his years as a prodigy at the Royal Academy of Music through his influential and enduring musical partnership with Bernie Taupin.", "poster_path": "/f4FF18ia7yTvHf2izNrHqBmgH8U.jpg", "popularity": 26.576}, {"id": 18126, "video": false, "vote_count": 1217, "vote_average": 6.4, "title": "Hannah Montana: The Movie", "release_date": "2009-04-10", "original_language": "en", "original_title": "Hannah Montana: The Movie", "genre_ids": [35, 18, 10402, 10749, 10751], "backdrop_path": "/ezx3NkXNqf2KnJCP6Nfj1bfCFut.jpg", "adult": false, "overview": "As Hannah Montana's popularity begins to take over her life, Miley Stewart, on the urging from her father takes a trip to her hometown of Crowley Corners, Tennessee to get some perspective on what matters in life the most.", "poster_path": "/8pwbnmvshHj2yYPYlyJ8K8Yzecy.jpg", "popularity": 14.838}, {"id": 2005, "video": false, "vote_count": 1805, "vote_average": 6.7, "title": "Sister Act", "release_date": "1992-05-28", "original_language": "en", "original_title": "Sister Act", "genre_ids": [35, 10402], "backdrop_path": "/oaLqlJxt8TJSjsdfMpSkLexZ4l5.jpg", "adult": false, "overview": "A Reno singer witnesses a mob murder and the cops stash her in a nunnery to protect her from the mob's hitmen. The mother superior does not trust her, and takes steps to limit her influence on the other nuns. Eventually the singer rescues the failing choir and begins helping with community projects, which gets her an interview on TV\u2014and identification by the mob.", "poster_path": "/7wQxLtybiUbtC6tsJh9htFEmqq3.jpg", "popularity": 13.161}, {"id": 10537, "video": false, "vote_count": 603, "vote_average": 6.9, "title": "The Doors", "release_date": "1991-03-01", "original_language": "en", "original_title": "The Doors", "genre_ids": [18, 10402], "backdrop_path": "/1rv5sW6Qs2YK2iOzIgwH3SJPIl1.jpg", "adult": false, "overview": "The story of the famous and influential 1960s rock band and its lead singer and composer, Jim Morrison.", "poster_path": "/9CkFrWAkg23YynYd2uJLyWznMZZ.jpg", "popularity": 15.486}, {"id": 194662, "video": false, "vote_count": 8616, "vote_average": 7.5, "title": "Birdman", "release_date": "2014-08-27", "original_language": "en", "original_title": "Birdman", "genre_ids": [35, 18], "backdrop_path": "/AsJVim0Hk3KbQPbfjyijfjqmaoZ.jpg", "adult": false, "overview": "A fading actor best known for his portrayal of a popular superhero attempts to mount a comeback by appearing in a Broadway play. As opening night approaches, his attempts to become more altruistic, rebuild his career, and reconnect with friends and family prove more difficult than expected.", "poster_path": "/rSZs93P0LLxqlVEbI001UKoeCQC.jpg", "popularity": 37.733}, {"id": 10545, "video": false, "vote_count": 3017, "vote_average": 7.0, "title": "The Hunchback of Notre Dame", "release_date": "1996-06-21", "original_language": "en", "original_title": "The Hunchback of Notre Dame", "genre_ids": [16, 18, 10751], "backdrop_path": "/oslaee3VX9kJAjVezbjZKlEJDzn.jpg", "adult": false, "overview": "When Quasimodo defies the evil Frollo and ventures out to the Festival of Fools, the cruel crowd jeers him. Rescued by fellow outcast the gypsy Esmeralda, Quasi soon finds himself battling to save the people and the city he loves.", "poster_path": "/r7V92gY3AMO6li17MmGTixAnFcv.jpg", "popularity": 34.935}, {"adult": false, "backdrop_path": "/ppDnBvf0f7vCZHRLtDjazpYHdTF.jpg", "genre_ids": [35, 10402, 10749], "id": 13368, "original_language": "en", "original_title": "White Christmas", "overview": "Two talented song-and-dance men team up after the war to become one of the hottest acts in show business. In time they befriend and become romantically involved with the beautiful Haynes sisters who comprise a sister act.", "poster_path": "/A5kBQsHKbIptxJyELEpHQJROCRj.jpg", "release_date": "1954-10-14", "title": "White Christmas", "video": false, "vote_average": 7.4, "vote_count": 250, "popularity": 16.622}, {"id": 252, "video": false, "vote_count": 1835, "vote_average": 7.5, "title": "Willy Wonka & the Chocolate Factory", "release_date": "1971-06-29", "original_language": "en", "original_title": "Willy Wonka & the Chocolate Factory", "genre_ids": [35, 14, 10751], "backdrop_path": "/nyqiCFF3pjcdwG2KmOwvM6CCLKA.jpg", "adult": false, "overview": "Eccentric candy man Willy Wonka prompts a worldwide frenzy when he announces that golden tickets hidden inside five of his delicious candy bars will admit their lucky holders into his top-secret confectionary. But does Wonka have an agenda hidden amid a world of Oompa Loompas and chocolate rivers?", "poster_path": "/b94qXd1FcIwgzv0NYMUe2bjrzJR.jpg", "popularity": 18.34}, {"id": 407655, "video": false, "vote_count": 421, "vote_average": 6.8, "title": "A Cinderella Story: If the Shoe Fits", "release_date": "2016-08-02", "original_language": "en", "original_title": "A Cinderella Story: If the Shoe Fits", "genre_ids": [35, 14, 10402, 10751], "backdrop_path": "/svYzELCLW0NGVEuvNraA4W7Hmm9.jpg", "adult": false, "overview": "A contemporary musical version of the classic Cinderella story in which the servant step daughter hope to compete in a musical competition for a famous pop star.", "poster_path": "/prZSNnK5dkYcflsbdOsVVvqasZ5.jpg", "popularity": 23.748}, {"id": 11887, "video": false, "vote_count": 2347, "vote_average": 6.5, "title": "High School Musical 3: Senior Year", "release_date": "2008-10-11", "original_language": "en", "original_title": "High School Musical 3: Senior Year", "genre_ids": [35, 18, 10402, 10749, 10751], "backdrop_path": "/daSGxGZL2nNjGZKkAF5ain3lmOx.jpg", "adult": false, "overview": "It's almost graduation day for high school seniors Troy, Gabriella, Sharpay, Chad, Ryan and Taylor \u2015 and the thought of heading off in separate directions after leaving East High has these Wildcats thinking they need to do something they'll remember forever. Together with the rest of the Wildcats, they stage a spring musical reflecting their hopes and fears about the future and their unforgettable experiences growing up together. But with graduation approaching and college plans in question, what will become of the dreams, romances, and friendships of East High's senior Wildcats?", "poster_path": "/ewZpH2QIfPQ0VIn9lPf7MHbLbl4.jpg", "popularity": 19.967}, {"id": 332562, "video": false, "vote_count": 7176, "vote_average": 7.5, "title": "A Star Is Born", "release_date": "2018-10-03", "original_language": "en", "original_title": "A Star Is Born", "genre_ids": [18, 10402, 10749], "backdrop_path": "/mnDvPokXpvsdPcWSjNRPhiiLOKu.jpg", "adult": false, "overview": "Seasoned musician Jackson Maine discovers \u2014 and falls in love with \u2014 struggling artist Ally. She has just about given up on her dream to make it big as a singer \u2014 until Jack coaxes her into the spotlight. But even as Ally's career takes off, the personal side of their relationship is breaking down, as Jack fights an ongoing battle with his own internal demons.", "poster_path": "/wrFpXMNBRj2PBiN4Z5kix51XaIZ.jpg", "popularity": 32.943}, {"adult": false, "backdrop_path": "/5x0VEeFCnWzRBwU23KycKQRqEhN.jpg", "genre_ids": [10402, 35], "id": 15157, "original_language": "en", "original_title": "Another Cinderella Story", "overview": "A guy who danced with what could be the girl of his dreams at a costume ball only has one hint at her identity: the Zune she left behind as she rushed home in order to make her curfew. And with a once-in-a-lifetime opportunity in front of him, he sets out to find his masked beauty.", "poster_path": "/fLdCKCfHT8A6bnWybBsQFjC4fCo.jpg", "release_date": "2008-09-16", "title": "Another Cinderella Story", "video": false, "vote_average": 6.6, "vote_count": 1120, "popularity": 22.24}, {"id": 313369, "video": false, "vote_count": 11057, "vote_average": 7.9, "title": "La La Land", "release_date": "2016-11-29", "original_language": "en", "original_title": "La La Land", "genre_ids": [35, 18, 10402, 10749], "backdrop_path": "/fp6X6yhgcxzxCpmM0EVC6V9B8XB.jpg", "adult": false, "overview": "Mia, an aspiring actress, serves lattes to movie stars in between auditions and Sebastian, a jazz musician, scrapes by playing cocktail party gigs in dingy bars, but as success mounts they are faced with decisions that begin to fray the fragile fabric of their love affair, and the dreams they worked so hard to maintain in each other threaten to rip them apart.", "poster_path": "/ylXCdC106IKiarftHkcacasaAcb.jpg", "popularity": 30.693}, {"id": 606117, "video": false, "vote_count": 256, "vote_average": 6.8, "title": "A Cinderella Story: Christmas Wish", "release_date": "2019-10-15", "original_language": "en", "original_title": "A Cinderella Story: Christmas Wish", "genre_ids": [35, 14, 10402, 10749], "backdrop_path": "/h3kzgUaUOamInX7nsALsFmlw4qX.jpg", "adult": false, "overview": "Kat is an aspiring singer-songwriter who dreams of making it big. However, her dreams are stalled by her reality: a conniving and cruel stepfamily  and a demoralizing job working as a singing elf at billionaire Terrence Wintergarden\u2019s Santa Land.", "poster_path": "/ozBX0u5caaJFli9AssqJmARb5R.jpg", "popularity": 25.37}, {"adult": false, "backdrop_path": "/6bnI08rrGXRkngRqJWCMXDZuJ1j.jpg", "genre_ids": [35, 10402], "id": 254470, "original_language": "en", "original_title": "Pitch Perfect 2", "overview": "The Bellas are back, and they are better than ever. After being humiliated in front of none other than the President of the United States of America, the Bellas are taken out of the Aca-Circuit. In order to clear their name, and regain their status, the Bellas take on a seemingly impossible task: winning an international competition no American team has ever won. In order to accomplish this monumental task, they need to strengthen the bonds of friendship and sisterhood and blow away the competition with their amazing aca-magic! With all new friends and old rivals tagging along for the trip, the Bellas can hopefully accomplish their dreams.", "poster_path": "/qSjruLiFB4uqRtz2xheQPxG8uaB.jpg", "release_date": "2015-05-07", "title": "Pitch Perfect 2", "video": false, "vote_average": 6.8, "vote_count": 3898, "popularity": 27.354}, {"adult": false, "backdrop_path": "/9l5Nzo1qbEslfCu2NYWimpZ1Vkc.jpg", "genre_ids": [35, 10751, 14, 10749], "id": 4523, "original_language": "en", "original_title": "Enchanted", "overview": "The beautiful princess Giselle is banished by an evil queen from her magical, musical animated land and finds herself in the gritty reality of the streets of modern-day Manhattan. Shocked by this strange new environment that doesn't operate on a \"happily ever after\" basis, Giselle is now adrift in a chaotic world badly in need of enchantment. But when Giselle begins to fall in love with a charmingly flawed divorce lawyer who has come to her aid - even though she is already promised to a perfect fairy tale prince back home - she has to wonder: Can a storybook view of romance survive in the real world?", "poster_path": "/65EfHNQ6NCeAoRPNLRhTyLqNZmU.jpg", "release_date": "2007-11-20", "title": "Enchanted", "video": false, "vote_average": 6.7, "vote_count": 3505, "popularity": 20.256}, {"id": 433, "video": false, "vote_count": 2992, "vote_average": 7.6, "title": "Mary Poppins", "release_date": "1964-08-27", "original_language": "en", "original_title": "Mary Poppins", "genre_ids": [35, 14, 10751], "backdrop_path": "/7DbgR36Sct5gcyEAzoM8bqiTYUV.jpg", "adult": false, "overview": "A magical nanny employs music and adventure to help two neglected children become closer to their father.", "poster_path": "/ei8hhYCMfURfPOXKBnyl61be2iV.jpg", "popularity": 19.493}], "total_pages": 162, "total_results": 3234}, "recommendations": {"page": 1, "results": [{"adult": false, "backdrop_path": "/egx8J5Hxrnd5fbFdezt8XkyE8tg.jpg", "genre_ids": [18], "id": 12147, "original_language": "de", "original_title": "Fickende Fische", "overview": "16-year old Jan is absent-mindedly strolling through the streets when he's run over by roller-skating Nina. As fast as she has stormed into his life, however, she rushes off again. Nina is 15 years old and full of crazy ideas. She lives together with her brother, her father and his new girlfriend. Her mother isn't in touch much. That's why there is the unconventional Angel whose own daughter disappeared years ago and who is Nina's best friend and substitute mother.", "poster_path": "/uDTpTD6tafxnwxzwnUfPPTcRmfy.jpg", "release_date": "2002-08-15", "title": "Do Fish Do It?", "video": false, "vote_average": 5.6, "vote_count": 6, "popularity": 2.713}, {"adult": false, "backdrop_path": null, "genre_ids": [], "id": 220524, "original_language": "en", "original_title": "Black and White Trypps Number One", "overview": "\"A night sky fills with light shimmers and flecks, surface markings, heavenly bodies. It\u2019s an ocean, a well, a screen, a mirror, a portal. Blackness/void cluttered by growing ephemera. Dark reaches of outer and inner space gradually sifts through shards of granite and diamonds. The mind races as the material becomes greater and more frenetic, reaching a nearly audibly grinding pitch of excitement, flurry, and instantaneous infinity that ebbs at first and then maintains. Flashes of color emerge or are imagined. Chaotic flickering of dancing peasant girls and violently twisting astronaut helmets. Layers of sea slime over undulating life forms. Bonfires and celebration. Explosions, construction. Holocausts. Primordial ooze, modern civilization. Ages and seconds. Floating heads circle kaleidoscopic bursts of shiny beads. Everything everywhere twists, forces through, transforms into, overlaps everything else.\"  - JT Rogstad, The International Exposition (TIE)", "poster_path": "/cbInv987ZWvybXmdGX68xMUFWp2.jpg", "release_date": "2005-06-18", "title": "Black and White Trypps Number One", "video": false, "vote_average": 6.5, "vote_count": 4, "popularity": 0.6}, {"adult": false, "backdrop_path": null, "genre_ids": [99], "id": 41303, "original_language": "en", "original_title": "Unconstitutional: The War On Our Civil Liberties", "overview": "A documentary that investigates the ways in which the civil liberties of American citizens and immigrants have been rolled back since September 11 and the passing of the Patriot Act.", "poster_path": "/kGzYmKn05iRFVFpTgoMgY212ns1.jpg", "release_date": "2004-10-05", "title": "Unconstitutional: The War On Our Civil Liberties", "video": false, "vote_average": 6.2, "vote_count": 7, "popularity": 1.889}, {"adult": false, "backdrop_path": null, "genre_ids": [35, 16, 10751], "id": 236547, "original_language": "en", "original_title": "Scrub Me Mama with a Boogie Beat", "overview": "Lazy black folks in Lazy Town (Pop. 123\u00bd) are napping and attracting flies. They are so lethargic they even fight in slow motion. Then a riverboat arrives with a red hot mama on board. Faster than you can say \"Jim Crow\", she has everyone moving to a Harlem boogie beat, dancing, scrubbing clothes, and eating watermelon. As the boogie-woogie comes to a close, Mammy hoists her skirt. Her big bottom reads \"The End\".", "poster_path": "/v7Xc9Z98SWY30mYbtTt6v8WN8TM.jpg", "release_date": "1941-03-27", "title": "Scrub Me Mama with a Boogie Beat", "video": false, "vote_average": 4.9, "vote_count": 10, "popularity": 2.677}, {"adult": false, "backdrop_path": "/5IvFyyldPdbTADbj1UtPRTTXDKa.jpg", "genre_ids": [35, 18, 10749], "id": 36542, "original_language": "en", "original_title": "Mr. Right", "overview": "Louise thought she\u2019d met the man of her dreams. But it all went wrong when she introduced him to her gay friends... Harry hates being a TV producer and dreams of leaving his job to travel the world. He loves Alex, an aspiring actor who is struggling to create an identity for himself as a performer.", "poster_path": "/zW5gvPvWMaB49dW8zhKedvO2TFz.jpg", "release_date": "2009-07-13", "title": "Mr. Right", "video": false, "vote_average": 5.1, "vote_count": 6, "popularity": 4.41}, {"adult": false, "backdrop_path": "/nB2LWcQzZFwKX3ZTST0HG9NQMNT.jpg", "genre_ids": [99], "id": 97163, "original_language": "de", "original_title": "Eisenzeit", "overview": "documentary", "poster_path": "/wXuWAHyYk27KqNb6XiMIg1uso6r.jpg", "release_date": "1992-02-21", "title": "Eisenzeit", "video": false, "vote_average": 5.3, "vote_count": 5, "popularity": 0.807}, {"adult": false, "backdrop_path": "/4oBb6bl4yw5c0JTL20AgGfcNTa6.jpg", "genre_ids": [16, 12, 18], "id": 180685, "original_language": "en", "original_title": "Oh Willy...", "overview": "Forced to return to his naturist roots, Willy bungles his way into noble savagery.", "poster_path": "/mobiGW8dTIhh7NcwSQzpJ5gV2Ub.jpg", "release_date": "2013-04-03", "title": "Oh Willy...", "video": false, "vote_average": 6.3, "vote_count": 7, "popularity": 1.788}, {"adult": false, "backdrop_path": "/97Uz0e0hbL0zeBnfkvujuZSNg0s.jpg", "genre_ids": [99], "id": 40428, "original_language": "en", "original_title": "8: The Mormon Proposition", "overview": "Filmmaker and ex-Church of Jesus Christ of Latter-day Saints member Reed Cowan examines that church's nationwide efforts to prevent the legalization of gay marriage - including California's Proposition 8, which was passed by voters in 2008. Confidential church documents, statements by high-ranking church officials and other sources detail 30 years of efforts to turn back gay rights, particularly by the Mormon-sponsored National Organization for Marriage.", "poster_path": "/2gG1a2b0GlzaS2VBeY0vjNHmFY1.jpg", "release_date": "2010-01-01", "title": "8: The Mormon Proposition", "video": false, "vote_average": 6.2, "vote_count": 13, "popularity": 3.567}], "total_pages": 1, "total_results": 8}, "credits": {"cast": [{"cast_id": 1, "character": "Schultze", "credit_id": "52fe44fdc3a36847f80b6377", "gender": 2, "id": 36928, "name": "Horst Krause", "order": 0, "profile_path": "/9vaDekkQcPZubFhbmG1znr4cISK.jpg"}, {"cast_id": 2, "character": "J\u00fcrgen", "credit_id": "52fe44fdc3a36847f80b637b", "gender": 0, "id": 15381, "name": "Harald Warmbrunn", "order": 1, "profile_path": null}, {"cast_id": 3, "character": "Manfred", "credit_id": "52fe44fdc3a36847f80b637f", "gender": 2, "id": 19231, "name": "Karl-Fred M\u00fcller", "order": 2, "profile_path": "/huZiCpWf8YEAeYPolpHQarBgAMh.jpg"}, {"cast_id": 4, "character": "J\u00fcrgen's Wife", "credit_id": "52fe44fdc3a36847f80b6383", "gender": 0, "id": 57656, "name": "Ursula Schucht", "order": 3, "profile_path": null}, {"cast_id": 5, "character": "Manfred's Wife", "credit_id": "52fe44fdc3a36847f80b6387", "gender": 0, "id": 57657, "name": "Hannelore Schubert", "order": 4, "profile_path": null}, {"cast_id": 15, "character": "Seniorinne 1", "credit_id": "52fe44fdc3a36847f80b63c1", "gender": 1, "id": 27500, "name": "Marylu Poolman", "order": 5, "profile_path": null}, {"cast_id": 16, "character": "Seniorinne 2", "credit_id": "52fe44fdc3a36847f80b63c5", "gender": 0, "id": 225965, "name": "Ilse Holtmann", "order": 6, "profile_path": null}, {"cast_id": 17, "character": "Seniorinne 3", "credit_id": "52fe44fdc3a36847f80b63c9", "gender": 0, "id": 225966, "name": "Eva Bodnar", "order": 7, "profile_path": null}], "crew": [{"credit_id": "52fe44fdc3a36847f80b638d", "department": "Directing", "gender": 0, "id": 19236, "job": "Director", "name": "Michael Schorr", "profile_path": null}, {"credit_id": "52fe44fdc3a36847f80b6393", "department": "Writing", "gender": 0, "id": 19236, "job": "Author", "name": "Michael Schorr", "profile_path": null}, {"credit_id": "52fe44fdc3a36847f80b6399", "department": "Production", "gender": 0, "id": 57658, "job": "Producer", "name": "Jens K\u00f6rner", "profile_path": null}, {"credit_id": "52fe44fdc3a36847f80b639f", "department": "Production", "gender": 0, "id": 57659, "job": "Producer", "name": "Oliver Niemeier", "profile_path": null}, {"credit_id": "52fe44fdc3a36847f80b63a5", "department": "Production", "gender": 2, "id": 57660, "job": "Producer", "name": "Thomas Riedel", "profile_path": null}, {"credit_id": "52fe44fdc3a36847f80b63ab", "department": "Sound", "gender": 0, "id": 57661, "job": "Music", "name": "Dirk Niemeier", "profile_path": null}, {"credit_id": "52fe44fdc3a36847f80b63b1", "department": "Sound", "gender": 0, "id": 57662, "job": "Music", "name": "Thomas Wittenbecher", "profile_path": null}, {"credit_id": "52fe44fdc3a36847f80b63b7", "department": "Camera", "gender": 0, "id": 41300, "job": "Director of Photography", "name": "Axel Schneppat", "profile_path": null}, {"credit_id": "52fe44fdc3a36847f80b63bd", "department": "Editing", "gender": 0, "id": 19238, "job": "Editor", "name": "Tina Hillmann", "profile_path": null}]}}