{"adult": false, "backdrop_path": "/a2wgrmfBshtUaqwpD39TMcFCutU.jpg", "belongs_to_collection": null, "budget": 0, "genres": [{"id": 35, "name": "Comedy"}], "homepage": null, "id": 94836, "imdb_id": "tt0039456", "original_language": "en", "original_title": "Her Husband's Affairs", "overview": "Bill Weldon is an Ad man who craves his wife Margaret's approval of his work, instead he gets constructive (and on-target) feedback, which he hates. Things get really strange when Bill creates advertising for a wacky inventor's embalming fluid.", "popularity": 2.386, "poster_path": "/arBGR5i0BjeZIVl3trNEHxT3oSQ.jpg", "production_companies": [{"id": 13783, "logo_path": null, "name": "Cornell Pictures", "origin_country": ""}, {"id": 5, "logo_path": "/71BqEFAF4V3qjjMPCpLuyJFB9A.png", "name": "Columbia Pictures", "origin_country": "US"}], "production_countries": [{"iso_3166_1": "US", "name": "United States of America"}], "release_date": "1947-11-12", "revenue": 0, "runtime": 84, "spoken_languages": [{"iso_639_1": "en", "name": "English"}], "status": "Released", "tagline": "HAVE YOUR HEAD EXAMINED... to make sure you won't laugh it off when you screen Her Husband's Affairs", "title": "Her Husband's Affairs", "video": false, "vote_average": 6.0, "vote_count": 1, "keywords": {"keywords": [{"id": 12096, "name": "hair"}, {"id": 14760, "name": "scientist"}, {"id": 168750, "name": "advertising executive"}]}, "similar": {"page": 1, "results": [{"adult": false, "backdrop_path": "/108DrCir1YkVyhyxRP6ukB0dZpS.jpg", "genre_ids": [35], "id": 3034, "original_language": "en", "original_title": "Young Frankenstein", "overview": "A young neurosurgeon inherits the castle of his grandfather, the famous Dr. Victor von Frankenstein. In the castle he finds a funny hunchback, a pretty lab assistant and the elderly housekeeper. Young Frankenstein believes that the work of his grandfather was delusional, but when he discovers the book where the mad doctor described his reanimation experiment, he suddenly changes his mind.", "poster_path": "/tQJAWbIjvvqVKLLbIZHtwGw2HTf.jpg", "release_date": "1974-12-15", "title": "Young Frankenstein", "video": false, "vote_average": 7.9, "vote_count": 1843, "popularity": 21.622}, {"id": 3035, "video": false, "vote_count": 715, "vote_average": 7.5, "title": "Frankenstein", "release_date": "1931-11-21", "original_language": "en", "original_title": "Frankenstein", "genre_ids": [18, 27, 878], "backdrop_path": "/nwmG8pQQ1xFAPZruYNnrnld2KMC.jpg", "adult": false, "overview": "Dr Henry Frankenstein is obsessed with assembling a living being from parts of several exhumed corpses.", "poster_path": "/wB58wlBAr6484Wm6VyFDqSD8VOJ.jpg", "popularity": 25.919}, {"adult": false, "backdrop_path": "/oeGQCv7bRZKaDOxLFC8oqVRCnOd.jpg", "genre_ids": [878, 35, 27], "id": 1694, "original_language": "en", "original_title": "Re-Animator", "overview": "A dedicated student at a medical college and his girlfriend become involved in bizarre experiments centering around the re-animation of dead tissue when an odd new student arrives on campus.", "poster_path": "/hJnP2O0uTuh8HsR094WLTi3sQwc.jpg", "release_date": "1985-10-18", "title": "Re-Animator", "video": false, "vote_average": 7.1, "vote_count": 558, "popularity": 14.126}, {"adult": false, "backdrop_path": "/ccjSeVoh3ZPXoiFSkFmZZM1HmsC.jpg", "genre_ids": [27, 878, 53], "id": 9077, "original_language": "en", "original_title": "Tarantula", "overview": "A lone-wolf scientist sequestered in a mansion near a small desert town arouses the suspicion of the town's doctor when his lab assistant is found dead from a case of acromegaly which took only four days to develop.  As the doctor investigates, aided by the scientist's new, and very female, assistant, they discover that, far worse, something much larger and hungrier than it ever should be,  is devouring local cattle - and humans - in increasingly large quantities.", "poster_path": "/gPjlVSys2CJP1aQKXnhj4kKDxrB.jpg", "release_date": "1955-03-23", "title": "Tarantula", "video": false, "vote_average": 6.2, "vote_count": 107, "popularity": 11.612}, {"id": 19901, "video": false, "vote_count": 1109, "vote_average": 6.2, "title": "Daybreakers", "release_date": "2009-09-11", "original_language": "en", "original_title": "Daybreakers", "genre_ids": [28, 14, 27, 878], "backdrop_path": "/jjTK7kQS0LBU8GNZlUvlRK0dR1h.jpg", "adult": false, "overview": "In the year 2019, a plague has transformed almost every human into vampires. Faced with a dwindling blood supply, the fractured dominant race plots their survival; meanwhile, a researcher works with a covert band of vampires on a way to save humankind.", "poster_path": "/ilicCtkHIBb90PvTfXMeSeJ7b0o.jpg", "popularity": 19.939}, {"id": 9738, "video": false, "vote_count": 6166, "vote_average": 5.7, "title": "Fantastic Four", "release_date": "2005-06-29", "original_language": "en", "original_title": "Fantastic Four", "genre_ids": [28, 12, 14, 878], "backdrop_path": "/6RaH2Znu7dUQq7c8surf7hRp44f.jpg", "adult": false, "overview": "During a space voyage, four scientists are altered by cosmic rays: Reed Richards gains the ability to stretch his body; Sue Storm can become invisible; Johnny Storm controls fire; and Ben Grimm is turned into a super-strong \u2026 thing. Together, these \"Fantastic Four\" must now thwart the evil plans of Dr. Doom and save the world from certain destruction.", "poster_path": "/sYNOCHiWA9UDUHlPvRWztSo5hZV.jpg", "popularity": 24.557}, {"id": 1927, "video": false, "vote_count": 3507, "vote_average": 5.4, "title": "Hulk", "release_date": "2003-06-19", "original_language": "en", "original_title": "Hulk", "genre_ids": [28, 878], "backdrop_path": "/kVxquPLBzAIq2NmlbWjTsfZBFh5.jpg", "adult": false, "overview": "Bruce Banner, a genetics researcher with a tragic past, suffers massive radiation exposure in his laboratory that causes him to transform into a raging green monster when he gets angry.", "poster_path": "/ogCQV6mnLtCJuiiHtMB83jvSRfY.jpg", "popularity": 22.826}, {"id": 399055, "video": false, "vote_count": 8032, "vote_average": 7.2, "title": "The Shape of Water", "release_date": "2017-12-01", "original_language": "en", "original_title": "The Shape of Water", "genre_ids": [18, 14, 10749], "backdrop_path": "/rgyhSn3mINvkuy9iswZK0VLqQO3.jpg", "adult": false, "overview": "An other-worldly story, set against the backdrop of Cold War era America circa 1962, where a mute janitor working at a lab falls in love with an amphibious man being held captive there and devises a plan to help him escape.", "poster_path": "/k4FwHlMhuRR5BISY2Gm2QZHlH5Q.jpg", "popularity": 27.281}, {"id": 126889, "video": false, "vote_count": 5385, "vote_average": 5.9, "title": "Alien: Covenant", "release_date": "2017-05-09", "original_language": "en", "original_title": "Alien: Covenant", "genre_ids": [27, 878, 53], "backdrop_path": "/6jajFcaY2YsfGQstJ5HaqZNVseX.jpg", "adult": false, "overview": "Bound for a remote planet on the far side of the galaxy, the crew of the colony ship 'Covenant' discovers what is thought to be an uncharted paradise, but is actually a dark, dangerous world\u2014which has a sole inhabitant: the 'synthetic', David, survivor of the doomed Prometheus expedition.", "poster_path": "/zecMELPbU5YMQpC81Z8ImaaXuf9.jpg", "popularity": 33.391}, {"id": 10344, "video": false, "vote_count": 287, "vote_average": 5.3, "title": "The Fly II", "release_date": "1989-02-10", "original_language": "en", "original_title": "The Fly II", "genre_ids": [27, 878, 53], "backdrop_path": "/jk7lRH7mwFTA4RgRTN5fvoImLow.jpg", "adult": false, "overview": "Martin Brundle, born of the human/fly, is adopted by his father's place of employment (Bartok Inc.) while the employees simply wait for his mutant chromosomes to come out of their dormant state.", "poster_path": "/zoIWGWVMCbkmsVieP99br9ZC8yY.jpg", "popularity": 13.15}, {"id": 9426, "video": false, "vote_count": 2199, "vote_average": 7.3, "title": "The Fly", "release_date": "1986-08-15", "original_language": "en", "original_title": "The Fly", "genre_ids": [27, 878], "backdrop_path": "/bukhBqYdlcLxQBL1rVswewSka6R.jpg", "adult": false, "overview": "When Seth Brundle makes a huge scientific and technological breakthrough in teleportation, he decides to test it on himself. Unbeknownst to him, a common housefly manages to get inside the device and the two become one.", "poster_path": "/q49tjSe3O152t9QVwaradePGu7W.jpg", "popularity": 18.772}, {"adult": false, "backdrop_path": "/iLvqbCanH1liQ5VERCyCR31GkkL.jpg", "genre_ids": [35, 27, 878], "id": 15762, "original_language": "en", "original_title": "Night of the Creeps", "overview": "In 1959, an alien experiment crashes to earth and infects a fraternity member. They freeze the body, but in the modern day, two geeks pledging a fraternity accidentally thaw the corpse, which proceeds to infect the campus with parasites that transform their hosts into killer zombies.", "poster_path": "/A3s2tQGNb6mhlr1hPZeE5F8IUwp.jpg", "release_date": "1986-08-21", "title": "Night of the Creeps", "video": false, "vote_average": 6.6, "vote_count": 219, "popularity": 10.886}, {"id": 384521, "video": false, "vote_count": 1919, "vote_average": 5.6, "title": "The Cloverfield Paradox", "release_date": "2018-02-04", "original_language": "en", "original_title": "The Cloverfield Paradox", "genre_ids": [27, 9648, 878, 53], "backdrop_path": "/lX4jScWnurasu6Kxuqo9819mjM2.jpg", "adult": false, "overview": "Orbiting above a planet on the brink of war, scientists test a device to solve an energy crisis and end up face-to-face with a dark alternate reality.", "poster_path": "/dJe4s2h9hac0Fu3pQVV4OuWe8kU.jpg", "popularity": 16.874}, {"adult": false, "backdrop_path": "/wIP9NCL6x1fc5pmADRcCQMNzGjA.jpg", "genre_ids": [12, 27, 878], "id": 10973, "original_language": "en", "original_title": "Creature from the Black Lagoon", "overview": "A scientific expedition searching for fossils along the Amazon River discover a prehistoric Gill-Man in the legendary Black Lagoon. The explorers capture the mysterious creature, but it breaks free. The Gill-Man returns to kidnap the lovely Kay, fianc\u00e9e of one of the expedition, with whom it has fallen in love.", "poster_path": "/hQ3k0gAh2Hv2uqrMff0gqxZDJKy.jpg", "release_date": "1954-03-05", "title": "Creature from the Black Lagoon", "video": false, "vote_average": 6.8, "vote_count": 343, "popularity": 11.81}, {"id": 927, "video": false, "vote_count": 3740, "vote_average": 7.1, "title": "Gremlins", "release_date": "1984-06-07", "original_language": "en", "original_title": "Gremlins", "genre_ids": [35, 14, 27], "backdrop_path": "/xZ5SUO6YtIcSwRuKZhNLBfCJzpv.jpg", "adult": false, "overview": "When Billy Peltzer is given a strange but adorable pet named Gizmo for Christmas, he inadvertently breaks the three important rules of caring for a Mogwai, and unleashes a horde of mischievous gremlins on a small town.", "poster_path": "/atBZUwRpx60ZpzcM9yOB4E8nuY.jpg", "popularity": 29.69}, {"id": 98566, "video": false, "vote_count": 4594, "vote_average": 5.8, "title": "Teenage Mutant Ninja Turtles", "release_date": "2014-08-07", "original_language": "en", "original_title": "Teenage Mutant Ninja Turtles", "genre_ids": [28, 12, 35, 14, 878], "backdrop_path": "/OqCXGt5nl1cHPeotxCDvXLLe6p.jpg", "adult": false, "overview": "The city needs heroes. Darkness has settled over New York City as Shredder and his evil Foot Clan have an iron grip on everything from the police to the politicians. The future is grim until four unlikely outcast brothers rise from the sewers and discover their destiny as Teenage Mutant Ninja Turtles. The Turtles must work with fearless reporter April and her wise-cracking cameraman Vern Fenwick to save the city and unravel Shredder's diabolical plan.", "poster_path": "/oDL2ryJ0sV2bmjgshVgJb3qzvwp.jpg", "popularity": 33.716}, {"id": 109451, "video": false, "vote_count": 1872, "vote_average": 6.4, "title": "Cloudy with a Chance of Meatballs 2", "release_date": "2013-09-26", "original_language": "en", "original_title": "Cloudy with a Chance of Meatballs 2", "genre_ids": [16, 35, 10751], "backdrop_path": "/qlAeyqhKUfX1f4FWVoFZcHEDCAL.jpg", "adult": false, "overview": "After the disastrous food storm in the first film, Flint and his friends are forced to leave the town. Flint accepts the invitation from his idol Chester V to join The Live Corp Company, which has been tasked to clean the island, and where the best inventors in the world create technologies for the betterment of mankind. When Flint discovers that his machine still operates and now creates mutant food beasts like living pickles, hungry tacodiles, shrimpanzees and apple pie-thons, he and his friends must return to save the world.", "poster_path": "/oZjluB568NJVtRrny4rpeApGuNi.jpg", "popularity": 27.549}, {"id": 585, "video": false, "vote_count": 11852, "vote_average": 7.8, "title": "Monsters, Inc.", "release_date": "2001-11-01", "original_language": "en", "original_title": "Monsters, Inc.", "genre_ids": [16, 35, 10751], "backdrop_path": "/eKBUYeSgGVvztO2MZxD5YMcz6kv.jpg", "adult": false, "overview": "James Sullivan and Mike Wazowski are monsters, they earn their living scaring children and are the best in the business... even though they're more afraid of the children than they are of them. When a child accidentally enters their world, James and Mike suddenly find that kids are not to be afraid of and they uncover a conspiracy that could threaten all children across the world.", "poster_path": "/93Y9BGx8blzmZOPSoivkFfaifqU.jpg", "popularity": 36.435}, {"id": 928, "video": false, "vote_count": 1406, "vote_average": 6.4, "title": "Gremlins 2: The New Batch", "release_date": "1990-06-15", "original_language": "en", "original_title": "Gremlins 2: The New Batch", "genre_ids": [35, 14, 27], "backdrop_path": "/4GbP532VkFcOng4vBaF5VMjXR26.jpg", "adult": false, "overview": "Young sweethearts Billy and Kate move to the Big Apple, land jobs in a high-tech office park and soon reunite with the friendly and lovable Gizmo. But a series of accidents creates a whole new generation of Gremlins. The situation worsens when the devilish green creatures invade a top-secret laboratory and develop genetically altered powers, making them even harder to destroy!", "poster_path": "/mkWD9W27JYmQPbgcryPBdI2cF4r.jpg", "popularity": 17.163}, {"adult": false, "backdrop_path": "/1Y3ThCgBgGy0woQTUgjGxQmEByS.jpg", "genre_ids": [35], "id": 2294, "original_language": "en", "original_title": "Jay and Silent Bob Strike Back", "overview": "When Jay and Silent Bob learn that their comic-book alter egos, Bluntman and Chronic, have been sold to Hollywood as part of a big-screen movie that leaves them out of any royalties, the pair travels to Tinseltown to sabotage the production.", "poster_path": "/8xI9g6su8aKwg3Nk5qUnS025NyA.jpg", "release_date": "2001-08-22", "title": "Jay and Silent Bob Strike Back", "video": false, "vote_average": 6.4, "vote_count": 869, "popularity": 17.229}], "total_pages": 64, "total_results": 1261}, "recommendations": {"page": 1, "results": [], "total_pages": 1, "total_results": 0}, "credits": {"cast": [{"cast_id": 2, "character": "Margaret Weldon", "credit_id": "52fe496b9251416c750c7725", "gender": 1, "id": 40174, "name": "Lucille Ball", "order": 0, "profile_path": "/gcJ5Qwg9lcadvdCxC22AjFuJC4A.jpg"}, {"cast_id": 3, "character": "William Weldon", "credit_id": "52fe496b9251416c750c7729", "gender": 2, "id": 72059, "name": "Franchot Tone", "order": 1, "profile_path": "/140grYtawkKzF3ruaFjHVnlaUes.jpg"}, {"cast_id": 4, "character": "J.B. Cruikshank", "credit_id": "567321bb92514158ae000efb", "gender": 2, "id": 2437, "name": "Edward Everett Horton", "order": 2, "profile_path": "/yf4MoiK7wnb2dafruUvnVgtuxSN.jpg"}, {"cast_id": 5, "character": "Prof. Emil Glinka", "credit_id": "567321c892514163bc00336b", "gender": 2, "id": 121318, "name": "Mikhail Rasumny", "order": 3, "profile_path": "/xHAyvYSuiu2xfMnULr11ok7aij8.jpg"}, {"cast_id": 6, "character": "Peter Winterbottom", "credit_id": "567321d092514158ae000eff", "gender": 2, "id": 30234, "name": "Gene Lockhart", "order": 4, "profile_path": "/7IL5fx1mfhCiMAvYXSiY1Dj7yky.jpg"}, {"cast_id": 9, "character": "Mrs. Winterbottom", "credit_id": "5682d325c3a368227b00ab05", "gender": 1, "id": 88461, "name": "Nana Bryant", "order": 5, "profile_path": "/4TsrQXRRpO36BseB7BUTG0Op7hM.jpg"}, {"cast_id": 10, "character": "Gov. Fox", "credit_id": "5682d335c3a3684bcc01614d", "gender": 2, "id": 12502, "name": "Jonathan Hale", "order": 6, "profile_path": "/ajOXZDy3XsZkZ3OqsMBejg8BFXG.jpg"}, {"cast_id": 11, "character": "Dr. Frazee", "credit_id": "5682d344c3a3682abc00e7f9", "gender": 2, "id": 120816, "name": "Paul Stanton", "order": 7, "profile_path": "/hx1q7CnPwVVoCeXb9f5XxF9ybEN.jpg"}, {"cast_id": 12, "character": "Mrs. Josper", "credit_id": "5682d350c3a3684be90143f3", "gender": 0, "id": 84487, "name": "Mabel Paige", "order": 8, "profile_path": "/ePqMMi3KSOivmbVGb8zpB2txgoX.jpg"}, {"cast_id": 13, "character": "Vice President Starrett", "credit_id": "5682d35d925141133400c396", "gender": 2, "id": 133277, "name": "Frank Mayo", "order": 9, "profile_path": "/3eNNCBwqvJtS1aTqy77mxtIZ3y4.jpg"}, {"cast_id": 14, "character": "Vice President Beitler", "credit_id": "5682d36a9251414ecb006616", "gender": 2, "id": 30216, "name": "Pierre Watkin", "order": 10, "profile_path": "/s9Z72wx6hJ2BwG6feVC6s4TcWrb.jpg"}], "crew": [{"credit_id": "5682d313c3a3685f89000c16", "department": "Writing", "gender": 2, "id": 4358, "job": "Writer", "name": "Charles Lederer", "profile_path": null}, {"credit_id": "5682d30a925141133400c38a", "department": "Writing", "gender": 2, "id": 4341, "job": "Writer", "name": "Ben Hecht", "profile_path": "/is5faYjaFObagG3b8xgwocMkUcX.jpg"}, {"credit_id": "52fe496b9251416c750c7721", "department": "Directing", "gender": 2, "id": 117773, "job": "Director", "name": "S. Sylvan Simon", "profile_path": "/4SrnnvwsWAvAwvnZ2042DNkv8y1.jpg"}]}}