{"adult": false, "backdrop_path": "/7Qy8oKCNvcTauId4sHtw142I3WI.jpg", "belongs_to_collection": null, "budget": 0, "genres": [{"id": 18, "name": "Drama"}], "homepage": null, "id": 95018, "imdb_id": "tt0124707", "original_language": "en", "original_title": "The Hard Road", "overview": "A cautionary tale. At 17, Sherman Oaks high schooler Pam Banner has a baby out of wedlock. The baby is adopted, but Pam's too embarrassed to go back to school, so her dad gets her a job as the receptionist for a talent agent. A rock star takes her to a party, seduces and abandons her; that starts a spiral of partying, free love, and drug use. Pam becomes friends with Jeannie, a hooker who supports Jimmy, a useless druggie. Soon the three of them are living together, and Jimmy seems appealing to Pam. She's missing work more and more often, Jeannie wants out of the life, Jimmy is going through withdrawal, and Pam is in the middle of a maelstrom. Is there any exit for Pam?", "popularity": 0.949, "poster_path": "/pbt0ZVxQHtH4iX7jAYgNxJi2gno.jpg", "production_companies": [], "production_countries": [{"iso_3166_1": "US", "name": "United States of America"}], "release_date": "1970-01-01", "revenue": 0, "runtime": 85, "spoken_languages": [], "status": "Released", "tagline": "", "title": "The Hard Road", "video": false, "vote_average": 7.0, "vote_count": 1, "keywords": {"keywords": [{"id": 11532, "name": "grindhouse"}]}, "similar": {"page": 1, "results": [{"adult": false, "backdrop_path": "/lnxiNlbStoBT4CDMqPAdprS5pwN.jpg", "genre_ids": [28, 53], "id": 1991, "original_language": "en", "original_title": "Death Proof", "overview": "Austin's hottest DJ, Jungle Julia, sets out into the night to unwind with her two friends Shanna and Arlene. Covertly tracking their moves is Stuntman Mike, a scarred rebel leering from behind the wheel of his muscle car, revving just feet away.", "poster_path": "/nyQBcpxqS4im2akQlWG9Y1oeM2V.jpg", "release_date": "2007-05-21", "title": "Death Proof", "video": false, "vote_average": 6.8, "vote_count": 2821, "popularity": 17.718}, {"adult": false, "backdrop_path": "/yzoRgnZ0mj5U9KOfhd1RtSHGo0V.jpg", "genre_ids": [18], "id": 42732, "original_language": "en", "original_title": "Bad Girls Go to Hell", "overview": "After housewife Ellen is raped by the janitor she kills him and hits the road. She travels to the Big City where she is repeatedly used and abused. And when she finally finds a safe place to live her landlady's son turns out to be a detective, which threatens her newly found identity and peace of mind.", "poster_path": "/8b4C07i0guO2xcUFG368a09L8Tx.jpg", "release_date": "1965-12-24", "title": "Bad Girls Go to Hell", "video": false, "vote_average": 5.2, "vote_count": 8, "popularity": 2.689}, {"id": 108226, "video": false, "vote_count": 0, "vote_average": 0.0, "title": "Invitation to Ruin", "release_date": "1968-10-09", "original_language": "en", "original_title": "Invitation to Ruin", "genre_ids": [80, 18], "backdrop_path": null, "adult": false, "overview": "Pick-up artist Jerry Sloane is hired by mobster Ernie Pulaski to lure girls for his white slavery ring. Once Ernie gets his claws on them, the victims are turned over to mute Mama Lupo (she lost her tongue after tattling on some fellow schoolgirls), who tortures them in her dungeon and addicts them to heroin. Jerry unwisely falls for Ernie's daughter, resulting in a particularly painful, if appropriate, vengeance.", "poster_path": "/khtS2u0vdGe7AaZ6WazjjNDnWE2.jpg", "popularity": 1.103}, {"id": 13300, "video": false, "vote_count": 111, "vote_average": 5.6, "title": "Hell Ride", "release_date": "2008-08-08", "original_language": "en", "original_title": "Hell Ride", "genre_ids": [28, 53], "backdrop_path": "/jgemgAqvyFbsSLLE2BH16vgQDUn.jpg", "adult": false, "overview": "Hell Ride is a 2008 feature film from Larry Bishop being released under the \u201cQuentin Tarantino Presents\u201d banner. The film promises to be a blood and sex-soaked tale of motorcycle revenge and retribution.", "poster_path": "/zO3kXAJoyI8asGuQQWal4kFPcwY.jpg", "popularity": 9.68}, {"adult": false, "backdrop_path": "/dZ2aL3Zps768FxhxL6OKuiBFpO2.jpg", "genre_ids": [18], "id": 85671, "original_language": "en", "original_title": "Riot on 42nd St.", "overview": "Tough ex-con Glenn Barnes gets paroled from prison after serving a sentence for manslaughter. Glenn plans to reopen his old nightclub the Garage on 42nd Street. Vicious rival nightclub owner Farrell threatens to take drastic measures if Glenn goes through with his plan. After all the employees get massacred by Farrell's flunkies on opening night, Glenn reverts back to his brutish criminal ways to exact a harsh revenge on Farrell and his men.", "poster_path": "/vl8A15e3yHYyx6HLnA3l2o5o7nf.jpg", "release_date": "1987-01-01", "title": "Riot on 42nd St.", "video": false, "vote_average": 3.0, "vote_count": 2, "popularity": 0.704}, {"adult": false, "backdrop_path": "/r3xsFBD1VTUusk393bBc7SsDUJe.jpg", "genre_ids": [80, 18, 53], "id": 553, "original_language": "en", "original_title": "Dogville", "overview": "A barren soundstage is stylishly utilized to create a minimalist small-town setting in which a mysterious woman named Grace hides from the criminals who pursue her. The town is two-faced and offers to harbor Grace as long as she can make it worth their effort, so Grace works hard under the employ of various townspeople to win their favor. Tensions flare, however, and Grace's status as a helpless outsider provokes vicious contempt and abuse from the citizens of Dogville.", "poster_path": "/g1xLrof2RVgtHBB4fLvR5Xr8l5x.jpg", "release_date": "2003-05-19", "title": "Dogville", "video": false, "vote_average": 7.8, "vote_count": 1359, "popularity": 16.355}, {"adult": false, "backdrop_path": "/fmo48Lt8XtMWeHeXJzi5SbPCJud.jpg", "genre_ids": [18, 27, 80], "id": 1696, "original_language": "en", "original_title": "The Devil's Rejects", "overview": "The sequel to House of 1000 Corpses \u2013 the Firefly family are ambushed at their isolated home by Sheriff Wydell and a squad of armed men guns blazing \u2013 yet only Otis and his sister, Baby, manage to escape the barrage of bullets unharmed. Hiding out in a backwater motel, the wanted siblings wait to rendezvous with their errant father, Captain Spaulding, killing whoever happens to stand in their way.", "poster_path": "/fj4rrpUlBpFjPaJecpjID6yqacx.jpg", "release_date": "2005-07-22", "title": "The Devil's Rejects", "video": false, "vote_average": 6.7, "vote_count": 720, "popularity": 14.155}, {"id": 1955, "video": false, "vote_count": 1711, "vote_average": 8.1, "title": "The Elephant Man", "release_date": "1980-10-02", "original_language": "en", "original_title": "The Elephant Man", "genre_ids": [18, 36], "backdrop_path": "/rR479zn26lJp4vNxXKjfBVCHLAW.jpg", "adult": false, "overview": "A Victorian surgeon rescues a heavily disfigured man being mistreated by his \"owner\" as a side-show freak. Behind his monstrous fa\u00e7ade, there is revealed a person of great intelligence and sensitivity. Based on the true story of Joseph Merrick (called John Merrick in the film), a severely deformed man in 19th century London.", "poster_path": "/lDXJUmLQsViSKLbil2luD91l2kE.jpg", "popularity": 12.883}, {"adult": false, "backdrop_path": "/iPi9pntFEX2n3mGtihDsNzFXB2y.jpg", "genre_ids": [18], "id": 401789, "original_language": "en", "original_title": "8 Reels of Sewage", "overview": "Adult film editor, Belinda Brimhouse, quits working for her perverted boss, and tries to produce a movie on her own.", "poster_path": "/epZHBEmKkGeIYkFBHqcAeLD4XBG.jpg", "release_date": "2012-06-12", "title": "8 Reels of Sewage", "video": false, "vote_average": 6.0, "vote_count": 1, "popularity": 0.84}, {"adult": false, "backdrop_path": null, "genre_ids": [80, 18, 53], "id": 70693, "original_language": "en", "original_title": "Prostitutes Protective Society", "overview": "Madame Sue runs a successful Prostitute operation in the heart of NYC, and as it should happen, The Mob wants to get a piece of the action. Still, being the go ahead women they are, they decide to fight back and keep themselves independent of any outsider business influence.", "poster_path": "/xml1SeTyyEDipe7avH7COYOmjGm.jpg", "release_date": "1966-01-01", "title": "Prostitutes Protective Society", "video": false, "vote_average": 7.0, "vote_count": 1, "popularity": 1.012}, {"adult": false, "backdrop_path": "/rPfyX0pkmn8Ea4gh3DfsmzFUf05.jpg", "genre_ids": [18, 27, 80], "id": 74997, "original_language": "en", "original_title": "The Human Centipede 2 (Full Sequence)", "overview": "Inspired by the fictional Dr. Heiter, disturbed loner Martin dreams of creating a 12-person centipede and sets out to realize his sick fantasy.", "poster_path": "/kFtAdkCO0vXN2RWu2oMcR9GZ9Hi.jpg", "release_date": "2011-10-06", "title": "The Human Centipede 2 (Full Sequence)", "video": false, "vote_average": 4.5, "vote_count": 674, "popularity": 14.216}, {"id": 58244, "video": false, "vote_count": 1746, "vote_average": 6.2, "title": "Upside Down", "release_date": "2012-09-27", "original_language": "en", "original_title": "Upside Down", "genre_ids": [18, 14, 878, 10749], "backdrop_path": "/lENI4gPC3wRM0Ybh3CyYtvbePg.jpg", "adult": false, "overview": "In an alternate universe where twinned worlds have opposite gravities, a young man battles interplanetary prejudice and the laws of physics in his quest to reunite with the long-lost girl of his dreams in this visually stunning romantic adventure that poses the question: what if love was stronger than gravity?", "poster_path": "/jSPjz6sgbtGXvsKkAdb9Ucv8nUu.jpg", "popularity": 19.66}, {"adult": false, "backdrop_path": "/7ZyiMee2s7kARJ0IvJOIgTyvmdp.jpg", "genre_ids": [12, 28, 53, 878], "id": 9659, "original_language": "en", "original_title": "Mad Max", "overview": "In a postapocalyptic future, jaded cop Max Rockatansky (Mel Gibson) is ready to retire. But his world is shattered when a malicious gang murders his family as an act of retaliation, forcing a devastated Max to hit the open road seeking vengeance. As he travels the Australian outback's empty stretches of highway, he tours the bloodstained battlegrounds ruled by marauding bikers who feed on violence.", "poster_path": "/5LrI4GiCSrChgkdskVZiwv643Kg.jpg", "release_date": "1979-04-12", "title": "Mad Max", "video": false, "vote_average": 6.7, "vote_count": 2363, "popularity": 25.432}, {"adult": false, "backdrop_path": null, "genre_ids": [28, 27, 53], "id": 416217, "original_language": "en", "original_title": "Grindhouse Nightmares", "overview": "Welcome to the Grindhouse experience like it was meant to be, killer story lines and themes zig zig across the screen in Grind-O-Vision, a nonstop thrill ride of babes, guns, muscle cars, motorcycle shoot outs, rendezvous with the devil and much more. From \"Manhunt\" to \"Stripper with a Shotgun\", Grindhouse Nightmares is cinema exploitation at its best.", "poster_path": "/gmIthg2fPyduzaJ2BUQmrS0iAEr.jpg", "release_date": "2018-02-13", "title": "Grindhouse Nightmares", "video": false, "vote_average": 1.0, "vote_count": 1, "popularity": 3.145}, {"id": 50014, "video": false, "vote_count": 4392, "vote_average": 8.1, "title": "The Help", "release_date": "2011-08-09", "original_language": "en", "original_title": "The Help", "genre_ids": [18], "backdrop_path": "/dskiB6nk4VA9pmw20L9oN7I4tkO.jpg", "adult": false, "overview": "Aibileen Clark is a middle-aged African-American maid who has spent her life raising white children and has recently lost her only son; Minny Jackson is an African-American maid who has often offended her employers despite her family's struggles with money and her desperate need for jobs; and Eugenia \"Skeeter\" Phelan is a young white woman who has recently moved back home after graduating college to find out her childhood maid has mysteriously disappeared. These three stories intertwine to explain how life in Jackson, Mississippi revolves around \"the help\"; yet they are always kept at a certain distance because of racial lines.", "poster_path": "/6u85CuvnbrzWMhKbGk4Bm5RnO3V.jpg", "popularity": 15.78}, {"id": 16550, "video": false, "vote_count": 103, "vote_average": 6.6, "title": "Storytelling", "release_date": "2001-11-08", "original_language": "en", "original_title": "Storytelling", "genre_ids": [35, 18], "backdrop_path": "/ovN9gefpD32hwGkmCTeTdflG11r.jpg", "adult": false, "overview": "College and high school serve as the backdrop for two stories about dysfunction and personal turmoil.", "poster_path": "/aIYxm7jBgsje5sx9RoT2X5AYjkJ.jpg", "popularity": 7.301}, {"id": 1992, "video": false, "vote_count": 2033, "vote_average": 6.6, "title": "Planet Terror", "release_date": "2007-04-06", "original_language": "en", "original_title": "Planet Terror", "genre_ids": [28, 27, 53], "backdrop_path": "/a2zIKDg5QGFc2vzdaPXT7uZKipe.jpg", "adult": false, "overview": "Two doctors find their graveyard shift inundated with townspeople ravaged by sores. Among the wounded is Cherry, a dancer whose leg was ripped from her body. As the invalids quickly become enraged aggressors, Cherry and her ex-boyfriend Wray lead a team of accidental warriors into the night.", "poster_path": "/7Yjzttt0VfPphSsUg8vFUO9WaEt.jpg", "popularity": 18.01}, {"id": 31283, "video": false, "vote_count": 43, "vote_average": 6.4, "title": "Hannie Caulder", "release_date": "1971-11-08", "original_language": "en", "original_title": "Hannie Caulder", "genre_ids": [80, 18, 37], "backdrop_path": "/rC89AznH9NSJ18CpblkepM26wZS.jpg", "adult": false, "overview": "Hannie enlists the aid of bounty hunter Tom Price to teach her how to be a gunfighter so she can hunt down the 3 men who killed her husband and raped her.", "poster_path": "/yB4Spw3UEsoHLO6KuK4afCCZf7a.jpg", "popularity": 8.895}, {"adult": false, "backdrop_path": "/etybioibi04QJK9xxn3Rv5NLuKs.jpg", "genre_ids": [12, 28, 53, 878], "id": 8810, "original_language": "en", "original_title": "Mad Max 2", "overview": "Max Rockatansky returns as the heroic loner who drives the dusty roads of a postapocalyptic Australian Outback in an unending search for gasoline. Arrayed against him and the other scraggly defendants of a fuel-depot encampment are the bizarre warriors commanded by the charismatic Lord Humungus, a violent leader whose scruples are as barren as the surrounding landscape.", "poster_path": "/tVaClEA7n0MxaY8sb81nHwh6XNW.jpg", "release_date": "1981-12-24", "title": "Mad Max 2", "video": false, "vote_average": 7.4, "vote_count": 1898, "popularity": 19.166}, {"adult": false, "backdrop_path": "/jtG2sXcktyaXRZAutlgVmLoYNtk.jpg", "genre_ids": [99, 36], "id": 70862, "original_language": "en", "original_title": "American Grindhouse", "overview": "This documentary explores the hidden history of the American Exploitation Film. The movie digs deep into this often overlooked category of U.S. cinema and unearths the shameless and occasionally shocking origins of this popular entertainment.", "poster_path": "/8ZZ4KTOrOIRQqfFkeqf5ATnubpX.jpg", "release_date": "2011-02-04", "title": "American Grindhouse", "video": false, "vote_average": 6.9, "vote_count": 37, "popularity": 6.006}], "total_pages": 21, "total_results": 406}, "recommendations": {"page": 1, "results": [], "total_pages": 1, "total_results": 0}, "credits": {"cast": [{"cast_id": 1, "character": "Pamela Banner", "credit_id": "581a6b93c3a36808900004a1", "gender": 1, "id": 1183536, "name": "Connie Nelson", "order": 0, "profile_path": null}, {"cast_id": 20, "character": "Jimmy Devlin", "credit_id": "59b1f2a9c3a3681fcc03ae54", "gender": 2, "id": 45501, "name": "John Alderman", "order": 1, "profile_path": "/8tY2tMpmvDPsGItv4hnQlv2NzkE.jpg"}, {"cast_id": 3, "character": "Jeannie", "credit_id": "581a6bd6c3a368087900047f", "gender": 0, "id": 1596900, "name": "Catherine Howard", "order": 2, "profile_path": null}, {"cast_id": 19, "character": "Leo", "credit_id": "58fbbbd6c3a36879be013801", "gender": 2, "id": 45634, "name": "Gary Kent", "order": 3, "profile_path": "/7iTt5SdmuSBKgzfprYyuHDByvqn.jpg"}, {"cast_id": 11, "character": "Mrs. Banner", "credit_id": "58fbbaecc3a3687a15011a48", "gender": 1, "id": 76494, "name": "Liz Renay", "order": 4, "profile_path": "/c26KOUyGTFVNzupFTD85Pyg0kUI.jpg"}, {"cast_id": 5, "character": "Chad", "credit_id": "581a6c2092514120d900052a", "gender": 0, "id": 100294, "name": "William Bonner", "order": 5, "profile_path": null}, {"cast_id": 12, "character": "Prison Guard", "credit_id": "58fbbb00925141640b013353", "gender": 0, "id": 100295, "name": "Bruce Kimball", "order": 6, "profile_path": null}, {"cast_id": 13, "character": "Muffin", "credit_id": "58fbbb22c3a36879be01373b", "gender": 2, "id": 95839, "name": "R. Michael Stringer", "order": 7, "profile_path": null}, {"cast_id": 14, "character": "Bartender", "credit_id": "58fbbb3b925141640b01339b", "gender": 0, "id": 1199105, "name": "Alex Elliot", "order": 8, "profile_path": null}, {"cast_id": 7, "character": "Narrator (Voice)", "credit_id": "581a6cd6c3a3680890000528", "gender": 0, "id": 1090649, "name": "Byron Clark", "order": 9, "profile_path": null}, {"cast_id": 15, "character": "Police Sergeant (uncredited)", "credit_id": "58fbbb4e92514163f5013560", "gender": 2, "id": 30683, "name": "Gary Graver", "order": 10, "profile_path": "/hgxyf9QroD3VyKefTXt8ymxCP2t.jpg"}], "crew": [{"credit_id": "5849c7c592514119af017382", "department": "Directing", "gender": 2, "id": 30683, "job": "Director", "name": "Gary Graver", "profile_path": "/hgxyf9QroD3VyKefTXt8ymxCP2t.jpg"}, {"credit_id": "58fbbb6bc3a3687984013978", "department": "Camera", "gender": 2, "id": 30683, "job": "Director of Photography", "name": "Gary Graver", "profile_path": "/hgxyf9QroD3VyKefTXt8ymxCP2t.jpg"}, {"credit_id": "58fbbb76c3a36879be013788", "department": "Editing", "gender": 2, "id": 30683, "job": "Editor", "name": "Gary Graver", "profile_path": "/hgxyf9QroD3VyKefTXt8ymxCP2t.jpg"}, {"credit_id": "58fbbb83925141642801307a", "department": "Production", "gender": 2, "id": 45634, "job": "Production Manager", "name": "Gary Kent", "profile_path": "/7iTt5SdmuSBKgzfprYyuHDByvqn.jpg"}, {"credit_id": "581a6d1bc3a368087600056c", "department": "Sound", "gender": 2, "id": 129809, "job": "Music", "name": "Jaime Mendoza-Nava", "profile_path": null}, {"credit_id": "581a6c5ac3a36808790004b2", "department": "Writing", "gender": 0, "id": 1703203, "job": "Screenplay", "name": "Richard Stetson", "profile_path": null}, {"credit_id": "581a6d7192514120d90005a7", "department": "Production", "gender": 0, "id": 1703204, "job": "Producer", "name": "Ed DePriest", "profile_path": null}]}}