{"adult": false, "backdrop_path": "/6Z68rO4sogNfV8zsMwoxTM1GEED.jpg", "belongs_to_collection": null, "budget": 0, "genres": [{"id": 12, "name": "Adventure"}], "homepage": null, "id": 95029, "imdb_id": "tt0053903", "original_language": "en", "original_title": "The Hellfire Club", "overview": "Years after fleeing his ancestral home with his mother, Jason returns home to claim his birthright, only to find his way blocked by his evil cousin Thomas. In order to reclaim his title, Jason must do battle with his cousin, who calls upon the members of the deadly Hellfire Club to stop him.", "popularity": 3.394, "poster_path": "/94GJm7vrEnib3uQnPd9mHkoVA6E.jpg", "production_companies": [{"id": 45641, "logo_path": null, "name": "New World Productions", "origin_country": ""}], "production_countries": [{"iso_3166_1": "GB", "name": "United Kingdom"}], "release_date": "1961-02-03", "revenue": 0, "runtime": 90, "spoken_languages": [{"iso_639_1": "en", "name": "English"}], "status": "Released", "tagline": "A body was the membership card...", "title": "The Hellfire Club", "video": false, "vote_average": 0.0, "vote_count": 0, "keywords": {"keywords": [{"id": 4399, "name": "victim"}, {"id": 5493, "name": "relatives"}, {"id": 10084, "name": "rescue"}, {"id": 15017, "name": "danger"}, {"id": 210311, "name": "ancestral home"}]}, "similar": {"page": 1, "results": [{"id": 16314, "video": false, "vote_count": 231, "vote_average": 5.7, "title": "3 Ninjas", "release_date": "1992-08-07", "original_language": "en", "original_title": "3 Ninjas", "genre_ids": [28, 12, 35, 10751], "backdrop_path": "/yZjbReSRgTGf5IZPmwpecPgm1Z1.jpg", "adult": false, "overview": "Each year, three brothers Samuel, Jeffrey and Michael Douglas visits their Japanese grandfather, Mori Shintaro whom the boys affectionately refer to as Grandpa, for the summer. Mori is a highly skilled in the fields of Martial arts and Ninjutsu, and for years he has trained the boys in his techniques. After an organized crime ring proves to be too much for the FBI, it's time for the 3 brother NINJAS! To use their martial arts skills, they team up to battle the crime ring and outwit some very persistent kidnappers!", "poster_path": "/kJjhmLG9eJWVZrKimZ6kCrQ0urF.jpg", "popularity": 13.515}, {"id": 18885, "video": false, "vote_count": 136, "vote_average": 5.1, "title": "3 Ninjas Kick Back", "release_date": "1994-05-06", "original_language": "en", "original_title": "3 Ninjas Kick Back", "genre_ids": [28, 12, 35, 10751], "backdrop_path": "/pqXJs6YfUrRWbZegaHom4CZmKwz.jpg", "adult": false, "overview": "During a championship baseball match, the three brothers hear that their grandfather in Japan is in trouble, and head out to help him, conceding the match. When they arrive in Japan, they must use all their powers to defend him against his ancient enemy, who has returned to exact revenge.", "poster_path": "/paFMTv9IuZJaVkPZZvwtS5Ta5D9.jpg", "popularity": 12.902}, {"id": 40508, "video": false, "vote_count": 95, "vote_average": 4.9, "title": "3 Ninjas Knuckle Up", "release_date": "1995-04-07", "original_language": "en", "original_title": "3 Ninjas Knuckle Up", "genre_ids": [28, 12, 35, 10751], "backdrop_path": "/elgoI9xk6gEyqLgT7iyTwmYgLUF.jpg", "adult": false, "overview": "Rocky, Colt and TumTum must battle an evil wealthy toxic waste dumper in order to save a local Indian tribe and their friend Joe. The 3 Ninjas must help find Joe's father and find a secret disk that contains evidence that could stop the toxic landfill that is destroying the Indian community. However the town is owned by the rich man and he controls the police and even the mayor. They must fight a motorcycle gang and renegade cowboys in this non-stop ninja adventure.", "poster_path": "/bd9if2VRAxBrXxkhT28hXMiusY1.jpg", "popularity": 13.792}, {"id": 27205, "video": false, "vote_count": 24285, "vote_average": 8.3, "title": "Inception", "release_date": "2010-07-15", "original_language": "en", "original_title": "Inception", "genre_ids": [28, 12, 878], "backdrop_path": "/s2bT29y0ngXxxu2IA8AOzzXTRhd.jpg", "adult": false, "overview": "Cobb, a skilled thief who commits corporate espionage by infiltrating the subconscious of his targets is offered a chance to regain his old life as payment for a task considered to be impossible: \"inception\", the implantation of another person's idea into a target's subconscious.", "poster_path": "/qmDpIHrmpJINaRKAfWQfftjCdyi.jpg", "popularity": 56.971}, {"id": 68718, "video": false, "vote_count": 17255, "vote_average": 8.1, "title": "Django Unchained", "release_date": "2012-12-25", "original_language": "en", "original_title": "Django Unchained", "genre_ids": [18, 37], "backdrop_path": "/qUcmEqnzIwlwZxSyTf3WliSfAjJ.jpg", "adult": false, "overview": "With the help of a German bounty hunter, a freed slave sets out to rescue his wife from a brutal Mississippi plantation owner.", "poster_path": "/eCt596Z4zkqxW5AHz1HEhGm1eif.jpg", "popularity": 39.475}, {"id": 41446, "video": false, "vote_count": 1794, "vote_average": 6.2, "title": "Scream 4", "release_date": "2011-04-11", "original_language": "en", "original_title": "Scream 4", "genre_ids": [27, 9648], "backdrop_path": "/5VqyrIpMbnwXdZFcISmtKr3n75A.jpg", "adult": false, "overview": "Sidney Prescott, now the author of a self-help book, returns home to Woodsboro on the last stop of her book tour. There she reconnects with Sheriff Dewey and Gale, who are now married, as well as her cousin Jill and her Aunt Kate. Unfortunately, Sidney's appearance also brings about the return of Ghostface, putting Sidney, Gale, and Dewey, along with Jill, her friends, and the whole town of Woodsboro in danger.", "poster_path": "/g0YcSd5QpgGXOjg9tl0if0soOkE.jpg", "popularity": 21.915}, {"adult": false, "backdrop_path": "/w4w8CTEe4isWO2TzDSQ3MV3br9l.jpg", "genre_ids": [14, 35, 10751], "id": 8839, "original_language": "en", "original_title": "Casper", "overview": "Furious that her late father only willed her his gloomy-looking mansion rather than his millions, Carrigan Crittenden is ready to burn the place to the ground when she discovers a map to a treasure hidden in the house. But when she enters the rickety mansion to seek her claim, she is frightened away by a wicked wave of ghosts. Determined to get her hands on this hidden fortune, she hires afterlife therapist Dr. James Harvey to exorcise the ghosts from the mansion. Harvey and his daughter Kat move in, and soon Kat meets Casper, the ghost of a young boy who's \"the friendliest ghost you know.\" But not so friendly are Casper's uncles--Stretch, Fatso and Stinkie--who are determined to drive all \"fleshies\" away.", "poster_path": "/1WeumvndgPE3hopKQqXbCKO26oH.jpg", "release_date": "1995-05-26", "title": "Casper", "video": false, "vote_average": 6.2, "vote_count": 2788, "popularity": 25.596}, {"id": 37430, "video": false, "vote_count": 1122, "vote_average": 5.2, "title": "Conan the Barbarian", "release_date": "2011-08-17", "original_language": "en", "original_title": "Conan the Barbarian", "genre_ids": [28, 12, 14], "backdrop_path": "/381rd4LVvy6AkSB9tqHNu81ftyR.jpg", "adult": false, "overview": "A quest that begins as a personal vendetta for the fierce Cimmerian warrior soon turns into an epic battle against hulking rivals, horrific monsters, and impossible odds, as Conan (Jason Momoa) realizes he is the only hope of saving the great nations of Hyboria from an encroaching reign of supernatural evil.", "poster_path": "/fQ0lcaOpn2WozSnL5hfAhH6tYOA.jpg", "popularity": 20.99}, {"id": 157336, "video": false, "vote_count": 20609, "vote_average": 8.3, "title": "Interstellar", "release_date": "2014-11-05", "original_language": "en", "original_title": "Interstellar", "genre_ids": [12, 18, 878], "backdrop_path": "/xu9zaAevzQ5nnrsXN6JcahLnG4i.jpg", "adult": false, "overview": "Interstellar chronicles the adventures of a group of explorers who make use of a newly discovered wormhole to surpass the limitations on human space travel and conquer the vast distances involved in an interstellar voyage.", "poster_path": "/nBNZadXqJSdt05SHLqgT0HuC5Gm.jpg", "popularity": 53.312}, {"id": 44115, "video": false, "vote_count": 4927, "vote_average": 7.0, "title": "127 Hours", "release_date": "2010-11-05", "original_language": "en", "original_title": "127 Hours", "genre_ids": [12, 18, 53], "backdrop_path": "/eHUoB8NbvrvKp7KQMNgvc7yLpzM.jpg", "adult": false, "overview": "The true story of mountain climber Aron Ralston's remarkable adventure to save himself after a fallen boulder crashes on his arm and traps him in an isolated canyon in Utah.", "poster_path": "/c6Nu7UjhGCQtV16WXabqOQfikK6.jpg", "popularity": 14.26}, {"id": 105, "video": false, "vote_count": 12168, "vote_average": 8.2, "title": "Back to the Future", "release_date": "1985-07-03", "original_language": "en", "original_title": "Back to the Future", "genre_ids": [12, 35, 878, 10751], "backdrop_path": "/x4N74cycZvKu5k3KDERJay4ajR3.jpg", "adult": false, "overview": "Eighties teenager Marty McFly is accidentally sent back in time to 1955, inadvertently disrupting his parents' first meeting and attracting his mother's romantic interest. Marty must repair the damage to history by rekindling his parents' romance and - with the help of his eccentric inventor friend Doc Brown - return to 1985.", "poster_path": "/pTpxQB1N0waaSc3OSn0e9oc8kx9.jpg", "popularity": 29.77}, {"id": 205584, "video": false, "vote_count": 2544, "vote_average": 5.4, "title": "Gods of Egypt", "release_date": "2016-02-25", "original_language": "en", "original_title": "Gods of Egypt", "genre_ids": [28, 12, 14], "backdrop_path": "/xy74anT8ZGhUIGVoalnHrmRDHbQ.jpg", "adult": false, "overview": "A common thief joins a mythical god on a quest through Egypt.", "poster_path": "/uPqAW07bGoljf3cmT5gecdOvVol.jpg", "popularity": 24.848}, {"id": 72559, "video": false, "vote_count": 4091, "vote_average": 5.5, "title": "G.I. Joe: Retaliation", "release_date": "2013-03-26", "original_language": "en", "original_title": "G.I. Joe: Retaliation", "genre_ids": [28, 12, 878, 53], "backdrop_path": "/b9OVFl48ZV2oTLzACSwBpNrCUhJ.jpg", "adult": false, "overview": "Framed for crimes against the country, the G.I. Joe team is terminated by Presidential order. This forces the G.I. Joes into not only fighting their mortal enemy Cobra; they are forced to contend with threats from within the government that jeopardize their very existence.", "poster_path": "/iFWxbu2LLtfaWv6D1TSrY11huTe.jpg", "popularity": 23.132}, {"id": 879, "video": false, "vote_count": 3284, "vote_average": 6.9, "title": "Hook", "release_date": "1991-12-11", "original_language": "en", "original_title": "Hook", "genre_ids": [12, 35, 14, 10751], "backdrop_path": "/rAb7vx2UauhHUmrYhZVoQxXuz37.jpg", "adult": false, "overview": "The boy who wasn't supposed grow up\u2014Peter Pan\u2014does just that, becoming a soulless corporate lawyer whose workaholism could cost him his wife and kids. During his trip to see Granny Wendy in London, the vengeful Capt. Hook kidnaps Peter's kids and forces Peter to return to Neverland.", "poster_path": "/6plGuz8L3fvkuENB0G2ZpBz6kej.jpg", "popularity": 18.327}, {"id": 11153, "video": false, "vote_count": 759, "vote_average": 7.1, "title": "National Lampoon's Vacation", "release_date": "1983-07-28", "original_language": "en", "original_title": "National Lampoon's Vacation", "genre_ids": [12, 35], "backdrop_path": "/zcJxJVhvxNHJJ2J7Q7NhgO9nPUV.jpg", "adult": false, "overview": "Clark Griswold is on a quest to take his family on a quest to Walley World theme park for a vacation, but things don't go exactly as planned.", "poster_path": "/ySI88wO1IFyKGWpSKRTSPilE3t2.jpg", "popularity": 15.962}, {"id": 76341, "video": false, "vote_count": 15492, "vote_average": 7.5, "title": "Mad Max: Fury Road", "release_date": "2015-05-13", "original_language": "en", "original_title": "Mad Max: Fury Road", "genre_ids": [28, 12, 878], "backdrop_path": "/tbhdm8UJAb4ViCTsulYFL3lxMCd.jpg", "adult": false, "overview": "An apocalyptic story set in the furthest reaches of our planet, in a stark desert landscape where humanity is broken, and most everyone is crazed fighting for the necessities of life. Within this world exist two rebels on the run who just might be able to restore order.", "poster_path": "/kqjL17yufvn9OVLyXYpvtyrFfak.jpg", "popularity": 28.033}, {"id": 27578, "video": false, "vote_count": 5040, "vote_average": 6.1, "title": "The Expendables", "release_date": "2010-08-03", "original_language": "en", "original_title": "The Expendables", "genre_ids": [28, 12, 53], "backdrop_path": "/x5u73uBylbyCCnkzUGzt3uozqRp.jpg", "adult": false, "overview": "Barney Ross leads a band of highly skilled mercenaries including knife enthusiast Lee Christmas, a martial arts expert, heavy weapons specialist, demolitionist, and a loose-cannon sniper. When the group is commissioned by the mysterious Mr. Church to assassinate the dictator of a small South American island, Barney and Lee visit the remote locale to scout out their opposition and discover the true nature of the conflict engulfing the city.", "poster_path": "/4gLFKsalwRy0ONzfYaRsKr5wilK.jpg", "popularity": 29.509}, {"id": 605, "video": false, "vote_count": 5698, "vote_average": 6.6, "title": "The Matrix Revolutions", "release_date": "2003-11-03", "original_language": "en", "original_title": "The Matrix Revolutions", "genre_ids": [28, 12, 878, 53], "backdrop_path": "/pdVHUsb2eEz9ALNTr6wfRJe5xVa.jpg", "adult": false, "overview": "The human city of Zion defends itself against the massive invasion of the machines as Neo fights to end the war at another front while also opposing the rogue Agent Smith.", "poster_path": "/sKogjhfs5q3azmpW7DFKKAeLEG8.jpg", "popularity": 22.724}, {"id": 82702, "video": false, "vote_count": 6184, "vote_average": 7.7, "title": "How to Train Your Dragon 2", "release_date": "2014-06-09", "original_language": "en", "original_title": "How to Train Your Dragon 2", "genre_ids": [28, 12, 16, 35, 14, 10751], "backdrop_path": "/mrxKRSlf0iY0T2BLKpSSmu86X9t.jpg", "adult": false, "overview": "The thrilling second chapter of the epic How To Train Your Dragon trilogy brings back the fantastical world of Hiccup and Toothless five years later. While Astrid, Snotlout and the rest of the gang are challenging each other to dragon races (the island's new favorite contact sport), the now inseparable pair journey through the skies, charting unmapped territories and exploring new worlds. When one of their adventures leads to the discovery of a secret ice cave that is home to hundreds of new wild dragons and the mysterious Dragon Rider, the two friends find themselves at the center of a battle to protect the peace.", "poster_path": "/lRjOR4uclMQijUav4OjeZprlehu.jpg", "popularity": 28.611}, {"id": 1562, "video": false, "vote_count": 2400, "vote_average": 6.5, "title": "28 Weeks Later", "release_date": "2007-04-26", "original_language": "en", "original_title": "28 Weeks Later", "genre_ids": [27, 878, 53], "backdrop_path": "/q4GEKbi4ZO2lhZJg0Zr6kYNKQgm.jpg", "adult": false, "overview": "The inhabitants of the British Isles have lost their battle against the onslaught of disease, as the deadly rage virus has killed every citizen there. Six months later, a group of Americans dare to set foot on the isles, convinced the danger has come and gone. But it soon becomes all too clear that the scourge continues to live, waiting to pounce on its next victims.", "poster_path": "/bElOpwpp45BGMWrMBdZAy9j3Vx7.jpg", "popularity": 23.387}], "total_pages": 19, "total_results": 372}, "recommendations": {"page": 1, "results": [], "total_pages": 1, "total_results": 0}, "credits": {"cast": [{"cast_id": 4, "character": "Jason", "credit_id": "52fe49749251416c750c881b", "gender": 2, "id": 40159, "name": "Keith Michell", "order": 0, "profile_path": "/ooSt3msAL3TZwwOBtIif4YyLXWb.jpg"}, {"cast_id": 5, "character": "Isobel", "credit_id": "52fe49749251416c750c881f", "gender": 1, "id": 2265, "name": "Adrienne Corri", "order": 1, "profile_path": "/fEO6V3zvvyWpviIvEdJ8jSLkTL1.jpg"}, {"cast_id": 3, "character": "Merryweather", "credit_id": "52fe49749251416c750c8817", "gender": 2, "id": 5, "name": "Peter Cushing", "order": 2, "profile_path": "/l0grZXcjqctESg7h6Jdp33pA3QG.jpg"}, {"cast_id": 6, "character": "Thomas", "credit_id": "52fe49749251416c750c8823", "gender": 2, "id": 14955, "name": "Peter Arne", "order": 3, "profile_path": "/8TjMvQ45ElBduMbf0BfnbykNQsC.jpg"}, {"cast_id": 7, "character": "Yvonne", "credit_id": "52fe49749251416c750c8827", "gender": 1, "id": 35672, "name": "Kai Fischer", "order": 4, "profile_path": "/k6Ojh7tLS37LdtgUDjANs2a07Or.jpg"}, {"cast_id": 8, "character": "Timothy", "credit_id": "52fe49749251416c750c882b", "gender": 2, "id": 95125, "name": "David Lodge", "order": 5, "profile_path": "/bDpQN4iXuGRIhpFxmdkbBuLnTqQ.jpg"}, {"cast_id": 9, "character": "Martin", "credit_id": "52fe49749251416c750c882f", "gender": 2, "id": 84405, "name": "Bill Owen", "order": 6, "profile_path": "/y84nSLhqtvF50SjJL5czvrdcri5.jpg"}, {"cast_id": 10, "character": "Thomas as a Boy", "credit_id": "52fe49749251416c750c8833", "gender": 0, "id": 1137067, "name": "Rupert Osborne", "order": 7, "profile_path": null}, {"cast_id": 14, "character": "Judge", "credit_id": "54cf9decc3a3687f88008db3", "gender": 2, "id": 47395, "name": "Miles Malleson", "order": 8, "profile_path": "/5Zbh2FzelrTvyGAFfY2Mdeoi7Ps.jpg"}, {"cast_id": 15, "character": "Specialty Girl", "credit_id": "575a73a4c3a3686bcf000200", "gender": 1, "id": 1633210, "name": "Caron Gardner", "order": 9, "profile_path": "/56ta2ukt0NiVNcfWIBPoOO0CYX6.jpg"}, {"cast_id": 17, "character": "Lord Netherden", "credit_id": "5e0fce84663b8700138031dc", "gender": 2, "id": 14823, "name": "Andrew Faulds", "order": 10, "profile_path": "/7qf5Eiagx1hGsiuFsHfN5yRMo7T.jpg"}], "crew": [{"credit_id": "54cf9dbc9251415cb8007196", "department": "Writing", "gender": 2, "id": 30700, "job": "Screenplay", "name": "Jimmy Sangster", "profile_path": null}, {"credit_id": "54cf9db7925141475b008686", "department": "Writing", "gender": 2, "id": 30700, "job": "Story", "name": "Jimmy Sangster", "profile_path": null}, {"credit_id": "5b0303dec3a3684d95007ea4", "department": "Sound", "gender": 0, "id": 52219, "job": "Music", "name": "Clifton Parker", "profile_path": null}, {"credit_id": "52fe49749251416c750c880d", "department": "Directing", "gender": 2, "id": 61821, "job": "Director", "name": "Robert S. Baker", "profile_path": null}, {"credit_id": "52fe49749251416c750c8813", "department": "Directing", "gender": 2, "id": 133868, "job": "Director", "name": "Monty Berman", "profile_path": null}, {"credit_id": "54cf9dc5925141474b0087b7", "department": "Writing", "gender": 0, "id": 153183, "job": "Screenplay", "name": "Leon Griffiths", "profile_path": null}]}}