{"adult": false, "backdrop_path": "/hSzMUCPfaYhMsOIYVX6RbDn25a.jpg", "belongs_to_collection": null, "budget": 0, "genres": [{"id": 35, "name": "Comedy"}, {"id": 10402, "name": "Music"}], "homepage": null, "id": 95037, "imdb_id": "tt0034296", "original_language": "en", "original_title": "Time Out for Rhythm", "overview": "A producer (Rudy Vallee) and his partner clash over two women (Ann Miller, Rosemary Lane) in show business.", "popularity": 2.511, "poster_path": "/bqQ3R9sslVYCuhHpjmwpsMnuKDo.jpg", "production_companies": [{"id": 5, "logo_path": "/71BqEFAF4V3qjjMPCpLuyJFB9A.png", "name": "Columbia Pictures", "origin_country": "US"}], "production_countries": [{"iso_3166_1": "US", "name": "United States of America"}], "release_date": "1941-06-05", "revenue": 0, "runtime": 75, "spoken_languages": [{"iso_639_1": "en", "name": "English"}], "status": "Released", "tagline": "A Stage Show and Love Story Too Big for Any Stage... Only Screen could Bring Them To You!", "title": "Time Out for Rhythm", "video": false, "vote_average": 6.7, "vote_count": 3, "keywords": {"keywords": [{"id": 4344, "name": "musical"}, {"id": 4345, "name": "tap dancing"}, {"id": 10990, "name": "three stooges"}]}, "similar": {"page": 1, "results": [{"id": 224141, "video": false, "vote_count": 3144, "vote_average": 5.7, "title": "Into the Woods", "release_date": "2014-12-24", "original_language": "en", "original_title": "Into the Woods", "genre_ids": [35, 14], "backdrop_path": "/lzJzB0QfkjpGCm9qUC4XpEIB6pm.jpg", "adult": false, "overview": "In a woods filled with magic and fairy tale characters, a baker and his wife set out to end the curse put on them by their neighbor, a spiteful witch.", "poster_path": "/5h91odPFNlBuJbRBj5N4MEBfXDE.jpg", "popularity": 29.368}, {"id": 872, "video": false, "vote_count": 1617, "vote_average": 8.2, "title": "Singin' in the Rain", "release_date": "1952-04-10", "original_language": "en", "original_title": "Singin' in the Rain", "genre_ids": [35, 10402, 10749], "backdrop_path": "/amW1YWQvcP8slDyDp1R652aVQZ7.jpg", "adult": false, "overview": "In 1927 Hollywood, a silent film production company and cast make a difficult transition to sound.", "poster_path": "/s39odBPtyutGBnEfBIpdm0fpRwv.jpg", "popularity": 17.295}, {"id": 504608, "video": false, "vote_count": 1666, "vote_average": 7.4, "title": "Rocketman", "release_date": "2019-05-22", "original_language": "en", "original_title": "Rocketman", "genre_ids": [18, 10402], "backdrop_path": "/sZZJ42GrWKxSOfcrpI2TSFQa0AQ.jpg", "adult": false, "overview": "The story of Elton John's life, from his years as a prodigy at the Royal Academy of Music through his influential and enduring musical partnership with Bernie Taupin.", "poster_path": "/f4FF18ia7yTvHf2izNrHqBmgH8U.jpg", "popularity": 27.709}, {"id": 18126, "video": false, "vote_count": 1217, "vote_average": 6.4, "title": "Hannah Montana: The Movie", "release_date": "2009-04-10", "original_language": "en", "original_title": "Hannah Montana: The Movie", "genre_ids": [35, 18, 10402, 10749, 10751], "backdrop_path": "/ezx3NkXNqf2KnJCP6Nfj1bfCFut.jpg", "adult": false, "overview": "As Hannah Montana's popularity begins to take over her life, Miley Stewart, on the urging from her father takes a trip to her hometown of Crowley Corners, Tennessee to get some perspective on what matters in life the most.", "poster_path": "/8pwbnmvshHj2yYPYlyJ8K8Yzecy.jpg", "popularity": 12.479}, {"id": 2005, "video": false, "vote_count": 1806, "vote_average": 6.7, "title": "Sister Act", "release_date": "1992-05-28", "original_language": "en", "original_title": "Sister Act", "genre_ids": [35, 10402], "backdrop_path": "/oaLqlJxt8TJSjsdfMpSkLexZ4l5.jpg", "adult": false, "overview": "A Reno singer witnesses a mob murder and the cops stash her in a nunnery to protect her from the mob's hitmen. The mother superior does not trust her, and takes steps to limit her influence on the other nuns. Eventually the singer rescues the failing choir and begins helping with community projects, which gets her an interview on TV\u2014and identification by the mob.", "poster_path": "/7wQxLtybiUbtC6tsJh9htFEmqq3.jpg", "popularity": 16.674}, {"adult": false, "backdrop_path": "/69NfvNrpPI6bjj3Txp2cDsRZ5se.jpg", "genre_ids": [18, 10402, 10749], "id": 65203, "original_language": "en", "original_title": "The Broadway Melody", "overview": "Harriet and Queenie Mahoney, a vaudeville act, come to Broadway, where their friend Eddie Kerns needs them for his number in one of Francis Zanfield's shows. Eddie was in love with Harriet, but when he meets Queenie, he falls in love to her, but she is courted by Jock Warriner, a member of the New Yorker high society. It takes a while till Queenie recognizes, that she is for Jock nothing more than a toy, and it also takes a while till Harriet recognizes, that Eddie is in love with Queenie", "poster_path": "/dJxFUKiO7JTDBSUr4Nzct4iJikX.jpg", "release_date": "1929-02-08", "title": "The Broadway Melody", "video": false, "vote_average": 5.5, "vote_count": 51, "popularity": 5.006}, {"id": 10537, "video": false, "vote_count": 603, "vote_average": 6.9, "title": "The Doors", "release_date": "1991-03-01", "original_language": "en", "original_title": "The Doors", "genre_ids": [18, 10402], "backdrop_path": "/1rv5sW6Qs2YK2iOzIgwH3SJPIl1.jpg", "adult": false, "overview": "The story of the famous and influential 1960s rock band and its lead singer and composer, Jim Morrison.", "poster_path": "/9CkFrWAkg23YynYd2uJLyWznMZZ.jpg", "popularity": 14.573}, {"adult": false, "backdrop_path": "/58BOLbf2ShjhVVtT7twnUEeangh.jpg", "genre_ids": [18, 10402], "id": 3087, "original_language": "en", "original_title": "Yankee Doodle Dandy", "overview": "A film of the life of the renowned musical composer, playwright, actor, dancer and singer George M. Cohan.", "poster_path": "/cqLLIyJFjLr6jGOxWVEHG11WGzB.jpg", "release_date": "1942-05-29", "title": "Yankee Doodle Dandy", "video": false, "vote_average": 7.1, "vote_count": 99, "popularity": 11.616}, {"id": 194662, "video": false, "vote_count": 8621, "vote_average": 7.5, "title": "Birdman", "release_date": "2014-08-27", "original_language": "en", "original_title": "Birdman", "genre_ids": [35, 18], "backdrop_path": "/AsJVim0Hk3KbQPbfjyijfjqmaoZ.jpg", "adult": false, "overview": "A fading actor best known for his portrayal of a popular superhero attempts to mount a comeback by appearing in a Broadway play. As opening night approaches, his attempts to become more altruistic, rebuild his career, and reconnect with friends and family prove more difficult than expected.", "poster_path": "/rSZs93P0LLxqlVEbI001UKoeCQC.jpg", "popularity": 40.415}, {"id": 332562, "video": false, "vote_count": 7182, "vote_average": 7.5, "title": "A Star Is Born", "release_date": "2018-10-03", "original_language": "en", "original_title": "A Star Is Born", "genre_ids": [18, 10402, 10749], "backdrop_path": "/mnDvPokXpvsdPcWSjNRPhiiLOKu.jpg", "adult": false, "overview": "Seasoned musician Jackson Maine discovers \u2014 and falls in love with \u2014 struggling artist Ally. She has just about given up on her dream to make it big as a singer \u2014 until Jack coaxes her into the spotlight. But even as Ally's career takes off, the personal side of their relationship is breaking down, as Jack fights an ongoing battle with his own internal demons.", "poster_path": "/wrFpXMNBRj2PBiN4Z5kix51XaIZ.jpg", "popularity": 37.528}, {"adult": false, "backdrop_path": "/ppDnBvf0f7vCZHRLtDjazpYHdTF.jpg", "genre_ids": [35, 10402, 10749], "id": 13368, "original_language": "en", "original_title": "White Christmas", "overview": "Two talented song-and-dance men team up after the war to become one of the hottest acts in show business. In time they befriend and become romantically involved with the beautiful Haynes sisters who comprise a sister act.", "poster_path": "/A5kBQsHKbIptxJyELEpHQJROCRj.jpg", "release_date": "1954-10-14", "title": "White Christmas", "video": false, "vote_average": 7.4, "vote_count": 250, "popularity": 10.494}, {"adult": false, "backdrop_path": "/3eAudH9hkkr451VoAZPLEQVy5wX.jpg", "genre_ids": [35, 18, 10402, 10749], "id": 6282, "original_language": "en", "original_title": "Coyote Ugly", "overview": "Graced with a velvet voice, 21-year-old Violet Sanford heads to New York to pursue her dream of becoming a songwriter only to find her aspirations sidelined by the accolades and notoriety she receives at her \"day\" job as a barmaid at Coyote Ugly. The \"Coyotes\" as they are affectionately called tantalize customers and the media alike with their outrageous antics, making Coyote Ugly the watering hole for guys on the prowl.", "poster_path": "/p3nIrS9rkdVmMmgKAWtGsmAnhGV.jpg", "release_date": "2000-07-30", "title": "Coyote Ugly", "video": false, "vote_average": 6.1, "vote_count": 1167, "popularity": 19.287}, {"id": 407655, "video": false, "vote_count": 421, "vote_average": 6.8, "title": "A Cinderella Story: If the Shoe Fits", "release_date": "2016-08-02", "original_language": "en", "original_title": "A Cinderella Story: If the Shoe Fits", "genre_ids": [35, 14, 10402, 10751], "backdrop_path": "/svYzELCLW0NGVEuvNraA4W7Hmm9.jpg", "adult": false, "overview": "A contemporary musical version of the classic Cinderella story in which the servant step daughter hope to compete in a musical competition for a famous pop star.", "poster_path": "/prZSNnK5dkYcflsbdOsVVvqasZ5.jpg", "popularity": 19.825}, {"id": 11887, "video": false, "vote_count": 2347, "vote_average": 6.5, "title": "High School Musical 3: Senior Year", "release_date": "2008-10-11", "original_language": "en", "original_title": "High School Musical 3: Senior Year", "genre_ids": [35, 18, 10402, 10749, 10751], "backdrop_path": "/daSGxGZL2nNjGZKkAF5ain3lmOx.jpg", "adult": false, "overview": "It's almost graduation day for high school seniors Troy, Gabriella, Sharpay, Chad, Ryan and Taylor \u2015 and the thought of heading off in separate directions after leaving East High has these Wildcats thinking they need to do something they'll remember forever. Together with the rest of the Wildcats, they stage a spring musical reflecting their hopes and fears about the future and their unforgettable experiences growing up together. But with graduation approaching and college plans in question, what will become of the dreams, romances, and friendships of East High's senior Wildcats?", "poster_path": "/ewZpH2QIfPQ0VIn9lPf7MHbLbl4.jpg", "popularity": 14.748}, {"id": 252, "video": false, "vote_count": 1838, "vote_average": 7.5, "title": "Willy Wonka & the Chocolate Factory", "release_date": "1971-06-29", "original_language": "en", "original_title": "Willy Wonka & the Chocolate Factory", "genre_ids": [35, 14, 10751], "backdrop_path": "/nyqiCFF3pjcdwG2KmOwvM6CCLKA.jpg", "adult": false, "overview": "Eccentric candy man Willy Wonka prompts a worldwide frenzy when he announces that golden tickets hidden inside five of his delicious candy bars will admit their lucky holders into his top-secret confectionary. But does Wonka have an agenda hidden amid a world of Oompa Loompas and chocolate rivers?", "poster_path": "/b94qXd1FcIwgzv0NYMUe2bjrzJR.jpg", "popularity": 19.101}, {"adult": false, "backdrop_path": "/90kmxuSwU28dVy1ghVSHI4x1wb8.jpg", "genre_ids": [35, 18, 37], "id": 537996, "original_language": "en", "original_title": "The Ballad of Buster Scruggs", "overview": "Vignettes weaving together the stories of six individuals in the old West at the end of the Civil War. Following the tales of a sharp-shooting songster, a wannabe bank robber, two weary traveling performers, a lone gold prospector, a woman traveling the West to an uncertain future, and a motley crew of strangers undertaking a carriage ride.", "poster_path": "/voxl654m7p36y8FLu8oQD7dfwwK.jpg", "release_date": "2018-11-09", "title": "The Ballad of Buster Scruggs", "video": false, "vote_average": 7.2, "vote_count": 2074, "popularity": 13.969}, {"id": 506574, "video": false, "vote_count": 485, "vote_average": 7.8, "title": "Descendants 3", "release_date": "2019-08-09", "original_language": "en", "original_title": "Descendants 3", "genre_ids": [12, 10402, 10751, 10770], "backdrop_path": "/iBJCHz6wWgyxbDmUD2Wk5huxbwS.jpg", "adult": false, "overview": "The teenagers of Disney's most infamous villains return to the Isle of the Lost to recruit a new batch of villainous offspring to join them at Auradon Prep.", "poster_path": "/7IRy0iHdaS0JI3ng4ZYlk5gLSFn.jpg", "popularity": 34.0}, {"adult": false, "backdrop_path": "/6bnI08rrGXRkngRqJWCMXDZuJ1j.jpg", "genre_ids": [35, 10402], "id": 254470, "original_language": "en", "original_title": "Pitch Perfect 2", "overview": "The Bellas are back, and they are better than ever. After being humiliated in front of none other than the President of the United States of America, the Bellas are taken out of the Aca-Circuit. In order to clear their name, and regain their status, the Bellas take on a seemingly impossible task: winning an international competition no American team has ever won. In order to accomplish this monumental task, they need to strengthen the bonds of friendship and sisterhood and blow away the competition with their amazing aca-magic! With all new friends and old rivals tagging along for the trip, the Bellas can hopefully accomplish their dreams.", "poster_path": "/qSjruLiFB4uqRtz2xheQPxG8uaB.jpg", "release_date": "2015-05-07", "title": "Pitch Perfect 2", "video": false, "vote_average": 6.8, "vote_count": 3901, "popularity": 29.697}, {"adult": false, "backdrop_path": "/3nG6BBIxgqbIM5p1iO61RyKzUkZ.jpg", "genre_ids": [16, 10751, 14, 12, 35, 10749], "id": 11970, "original_language": "en", "original_title": "Hercules", "overview": "Bestowed with superhuman strength, a young mortal named Hercules sets out to prove himself a hero in the eyes of his father, the great god Zeus. Along with his friends Pegasus, a flying horse, and Phil, a personal trainer, Hercules is tricked by the hilarious, hotheaded villain Hades, who's plotting to take over Mount Olympus!", "poster_path": "/eFlBFMAifj436QctX3akDkUnhlk.jpg", "release_date": "1997-06-20", "title": "Hercules", "video": false, "vote_average": 7.5, "vote_count": 4318, "popularity": 23.839}, {"id": 703, "video": false, "vote_count": 2272, "vote_average": 7.8, "title": "Annie Hall", "release_date": "1977-04-19", "original_language": "en", "original_title": "Annie Hall", "genre_ids": [35, 18, 10749], "backdrop_path": "/8iNt5LGxpX9XeNWJgjx17xfTT7u.jpg", "adult": false, "overview": "New York comedian Alvy Singer falls in love with the ditsy Annie Hall.", "poster_path": "/bK9bLXwxWuXX5mbq75PZqjvAtfG.jpg", "popularity": 14.556}], "total_pages": 160, "total_results": 3192}, "recommendations": {"page": 1, "results": [{"adult": false, "backdrop_path": null, "genre_ids": [99], "id": 353399, "original_language": "en", "original_title": "Circus on Ice", "overview": "Based on the 40th Annual Carnival of the Toronto Skating Club.", "poster_path": "/pA9C5F0S4MmZIwJqAT1HPSP3j3D.jpg", "release_date": "1954-09-18", "title": "Circus on Ice", "video": false, "vote_average": 2.0, "vote_count": 6, "popularity": 1.4}, {"adult": false, "backdrop_path": "/gQQG9pse5nyMwCF5nobDotvHUJU.jpg", "genre_ids": [37, 35], "id": 173634, "original_language": "en", "original_title": "Rockin' In The Rockies", "overview": "Rancher Rusty Williams (Jay Kirby) is away at agricultural college, and leaves his spread in the hands of his older cousin Shorty (Moe Howard). Shorty wants to do more than run a ranch, however -- he wants to prospect for gold, but he has no money. He recruits a pair of partners in the guise of two runaway vagrants (Larry Fine, Curly Howard), and a pair of backers in two stranded singers (Mary Beth Hughes, Gladys Blake). But then Rusty shows up, and his four somewhat bumbling hired hands (who happen to be the performing group the Hoosier Hotshots) manage to compound Larry and Curly's deep ineptitude, and Rusty wants them all out of his hair. The story, such as it is, soon involves apparent rustling and the whole bunch's efforts (except Rusty) to audition for a Broadway producer (Tim Ryan), who is out west to take a rest from shows and performers.", "poster_path": "/di7kV3OttCJTkGl3smZQPn5T8yp.jpg", "release_date": "1945-04-17", "title": "Rockin' In The Rockies", "video": false, "vote_average": 6.0, "vote_count": 3, "popularity": 1.447}, {"adult": false, "backdrop_path": null, "genre_ids": [99], "id": 353413, "original_language": "en", "original_title": "Lunchroom Manners", "overview": "This short featuring \"Mr. Bungle\", a puppet, instructs children on how to best behave in a lunchroom situation.", "poster_path": "/utmYB0NF08clDAfpJS3kIIJXhIs.jpg", "release_date": "1960-08-07", "title": "Lunchroom Manners", "video": false, "vote_average": 2.8, "vote_count": 8, "popularity": 1.4}, {"adult": false, "backdrop_path": null, "genre_ids": [99, 27], "id": 86329, "original_language": "en", "original_title": "The S From Hell", "overview": "THE S FROM HELL is a short documentary-cum-horror film about the scariest corporate symbol in history - The 1964 Screen Gems logo, aka \u2018The S From Hell.\u2019 Built around interviews with survivors still traumatized from their childhood exposure to the logo after shows like Bewitched or The Monkees, the film brings their stories to life with animation, found footage, and dramatic reenactments.", "poster_path": "/eNfkiu6mxdMRHoHO0VGDqViyIec.jpg", "release_date": "2010-01-20", "title": "The S From Hell", "video": false, "vote_average": 6.0, "vote_count": 5, "popularity": 1.025}, {"adult": false, "backdrop_path": null, "genre_ids": [16, 10402], "id": 210826, "original_language": "en", "original_title": "Canada Vignettes: Log Driver's Waltz", "overview": "A short illustrating a traditional Canadian folk song about a woman's admiration for the agility for her boyfriend, the log driver.", "poster_path": "/pGLMKlpjYcExllu3wGD3Bp9cGLP.jpg", "release_date": "1979-01-01", "title": "Canada Vignettes: Log Driver's Waltz", "video": false, "vote_average": 7.5, "vote_count": 8, "popularity": 1.079}, {"adult": false, "backdrop_path": "/s4JnYgkLo6NfsiknF6tCDvOeBEr.jpg", "genre_ids": [14, 35, 878, 10749], "id": 19075, "original_language": "en", "original_title": "A Midsummer Night's Dream", "overview": "A film adaptation by Max Reinhardt of his popular stage productions of Shakespeare's comedy. Four young people escape Athens to a forest where the king and queen of the fairies are quarreling, while meanwhile a troupe of amateur actors rehearses a play. When the fairy Puck uses a magic flower to make people fall in love, the whole thing becomes a little bit confused...", "poster_path": "/jIdjacF7a1KTSWcheNEo6qFEY8K.jpg", "release_date": "1935-10-09", "title": "A Midsummer Night's Dream", "video": false, "vote_average": 6.6, "vote_count": 15, "popularity": 4.532}], "total_pages": 1, "total_results": 6}, "credits": {"cast": [{"cast_id": 4, "character": "Daniel 'Danny' Collins", "credit_id": "52fe49749251416c750c8897", "gender": 2, "id": 83452, "name": "Rudy Vallee", "order": 0, "profile_path": "/9UOy4lgEt3i9WYByuNXp8CCemro.jpg"}, {"cast_id": 5, "character": "Kitty Brown", "credit_id": "52fe49749251416c750c889b", "gender": 1, "id": 15008, "name": "Ann Miller", "order": 1, "profile_path": "/b2NSm6PsPXP9KyKts5ElUVOUoVe.jpg"}, {"cast_id": 6, "character": "Frances Lewis", "credit_id": "52fe49749251416c750c889f", "gender": 1, "id": 33021, "name": "Rosemary Lane", "order": 2, "profile_path": "/1zqL28UQdY7tU9BgYBTIhBE12qB.jpg"}, {"cast_id": 7, "character": "Off-Beat Davis", "credit_id": "52fe49749251416c750c88a3", "gender": 2, "id": 30005, "name": "Allen Jenkins", "order": 3, "profile_path": "/t2ZumhV1ztWifv0uJHLfSztdUsM.jpg"}, {"cast_id": 8, "character": "Joan", "credit_id": "52fe49749251416c750c88a7", "gender": 0, "id": 1130965, "name": "Joan Merrill", "order": 4, "profile_path": "/ld3wqJ8fFJ0ama5mHHfn55Snpnl.jpg"}, {"cast_id": 9, "character": "Mike Armstrong", "credit_id": "52fe49749251416c750c88ab", "gender": 2, "id": 111464, "name": "Richard Lane", "order": 5, "profile_path": "/fXoJBOosoQ3zDZPaTN01hKwTQ1h.jpg"}, {"cast_id": 10, "character": "James Anderson", "credit_id": "52fe49749251416c750c88af", "gender": 2, "id": 34505, "name": "Stanley Andrews", "order": 6, "profile_path": "/2EGXOfg1TnTdLz4rTayHDanfI1d.jpg"}, {"cast_id": 11, "character": "Stooge Moe", "credit_id": "52fe49749251416c750c88b3", "gender": 2, "id": 6777, "name": "Moe Howard", "order": 7, "profile_path": "/cbPeJ2fIRHEghTWbzeBVGsyyaY.jpg"}, {"cast_id": 12, "character": "Stooge Larry", "credit_id": "52fe49749251416c750c88b7", "gender": 2, "id": 89613, "name": "Larry Fine", "order": 8, "profile_path": "/6XnCgoRkWEVaFulFUZykMpCyDr9.jpg"}, {"cast_id": 13, "character": "Stooge Curly", "credit_id": "52fe49749251416c750c88bb", "gender": 2, "id": 89614, "name": "Curly Howard", "order": 9, "profile_path": "/yVhNdlDT8ERAYKUJ9Yh7wWXa7Z2.jpg"}, {"cast_id": 14, "character": "Brenda", "credit_id": "52fe49749251416c750c88bf", "gender": 0, "id": 1130966, "name": "Blanche Stewart", "order": 10, "profile_path": null}, {"cast_id": 15, "character": "Cobrina", "credit_id": "52fe49749251416c750c88c3", "gender": 1, "id": 1949, "name": "Elvia Allman", "order": 11, "profile_path": "/nHTxHcykh8mjEUq2xv7ce2KIzx.jpg"}], "crew": [{"credit_id": "52fe49749251416c750c8887", "department": "Directing", "gender": 2, "id": 91789, "job": "Director", "name": "Sidney Salkow", "profile_path": "/fWUNePRsd1STYmjuucTvjK0xcqz.jpg"}, {"credit_id": "52fe49749251416c750c888d", "department": "Writing", "gender": 2, "id": 85841, "job": "Screenplay", "name": "Edmund L. Hartmann", "profile_path": null}, {"credit_id": "52fe49749251416c750c8893", "department": "Writing", "gender": 0, "id": 1127491, "job": "Screenplay", "name": "Bert Lawrence", "profile_path": null}]}}