{"adult": false, "backdrop_path": null, "belongs_to_collection": null, "budget": 0, "genres": [{"id": 18, "name": "Drama"}, {"id": 9648, "name": "Mystery"}, {"id": 80, "name": "Crime"}], "homepage": null, "id": 95400, "imdb_id": "tt0105126", "original_language": "en", "original_title": "Perry Mason: The Case of the Reckless Romeo", "overview": "Sleazy talk show host Ted Mayne writes a tell-all book, which enrages and embarrasses several very prominent women. One of them, actress Roxanne Shield, loses her composure during an interview and winds up making a televised death threat. Of course, when Ted is murdered, she is arrested. Witnesses claim they saw Roxanne outside his apartment that night and police later find the murder weapon in her car. Renowned defence attorney Perry Mason accepts the challenge of defending her in court.", "popularity": 1.748, "poster_path": "/e7CUI63PPIooocA8zsnVSOMIuUI.jpg", "production_companies": [{"id": 56689, "logo_path": "/l97Fx8D6qNfrkC50mxVt5ONossk.png", "name": "Dean Hargrove Productions", "origin_country": "US"}, {"id": 56690, "logo_path": "/lRQ0Nk6PVNedjydMH0Oh22yAldy.png", "name": "Fred Silverman Company", "origin_country": "US"}, {"id": 12077, "logo_path": "/s6p5INYKlo6gD6RFXlm9ACA2VVj.png", "name": "Viacom Productions", "origin_country": "US"}], "production_countries": [{"iso_3166_1": "US", "name": "United States of America"}], "release_date": "1992-05-05", "revenue": 0, "runtime": 86, "spoken_languages": [{"iso_639_1": "en", "name": "English"}], "status": "Released", "tagline": "", "title": "Perry Mason: The Case of the Reckless Romeo", "video": false, "vote_average": 8.5, "vote_count": 2, "keywords": {"keywords": [{"id": 818, "name": "based on novel or book"}, {"id": 190901, "name": "perry mason"}]}, "similar": {"page": 1, "results": [{"adult": false, "backdrop_path": "/kiWvoV78Cc3fUwkOHKzyBgVdrDD.jpg", "genre_ids": [37, 18, 12], "id": 281957, "original_language": "en", "original_title": "The Revenant", "overview": "In the 1820s, a frontiersman, Hugh Glass, sets out on a path of vengeance against those who left him for dead after a bear mauling.", "poster_path": "/oXUWEc5i3wYyFnL1Ycu8ppxxPvs.jpg", "release_date": "2015-12-25", "title": "The Revenant", "video": false, "vote_average": 7.5, "vote_count": 12127, "popularity": 24.135}, {"adult": false, "backdrop_path": "/2J283YNxKhxAqHeVegUJ5mzLfGb.jpg", "genre_ids": [80, 18, 9648], "id": 392044, "original_language": "en", "original_title": "Murder on the Orient Express", "overview": "Genius Belgian detective Hercule Poirot investigates the murder of an American tycoon aboard the Orient Express train.", "poster_path": "/iBlfxlw8qwtUS0R8YjIU7JtM6LM.jpg", "release_date": "2017-11-03", "title": "Murder on the Orient Express", "video": false, "vote_average": 6.7, "vote_count": 6050, "popularity": 27.701}, {"adult": false, "backdrop_path": "/GRyynLqafMrLFMHqvfGdUweavA.jpg", "genre_ids": [27, 18, 14], "id": 628, "original_language": "en", "original_title": "Interview with the Vampire", "overview": "A vampire relates his epic life story of love, betrayal, loneliness, and dark hunger to an over-curious reporter.", "poster_path": "/hldXwwViSfHJS0kIJr07KBGmHJI.jpg", "release_date": "1994-11-11", "title": "Interview with the Vampire", "video": false, "vote_average": 7.3, "vote_count": 3231, "popularity": 21.064}, {"adult": false, "backdrop_path": "/hm8Gux0946IfeJ1PZwztOo6lVHH.jpg", "genre_ids": [18, 36, 35], "id": 450322, "original_language": "en", "original_title": "The Man Who Invented Christmas", "overview": "In 1843, despite the fact that Dickens is a successful writer, the failure of his latest book puts his career at a crossroads, until the moment when, struggling with inspiration and confronting reality with his childhood memories, a new character is born in the depths of his troubled mind; an old, lonely, embittered man, so vivid, so human, that a whole world grows around him, a story so inspiring that changed the meaning of Christmas forever.", "poster_path": "/xYCuRgEKynGurSEooxDa9pQPF7n.jpg", "release_date": "2017-10-12", "title": "The Man Who Invented Christmas", "video": false, "vote_average": 6.7, "vote_count": 395, "popularity": 12.264}, {"id": 656968, "video": false, "vote_count": 23, "vote_average": 7.0, "title": "A Christmas Carol", "release_date": "2019-12-19", "original_language": "en", "original_title": "A Christmas Carol", "genre_ids": [18, 14], "backdrop_path": "/ubLsCmv36zUUt2zxhFSowYFe5uF.jpg", "adult": false, "overview": "London, 1843. Ebenezer Scrooge, a bitter old man, despises the Christmas holiday. Over the course of Christmas Eve night he is visited by three ghosts to show him his past, present and future.", "poster_path": "/tKW48tnZKaHLBIxxgoAf9BIpyRv.jpg", "popularity": 7.061}, {"adult": false, "backdrop_path": "/sw7mordbZxgITU877yTpZCud90M.jpg", "genre_ids": [18, 80], "id": 769, "original_language": "en", "original_title": "GoodFellas", "overview": "The true story of Henry Hill, a half-Irish, half-Sicilian Brooklyn kid who is adopted by neighbourhood gangsters at an early age and climbs the ranks of a Mafia family under the guidance of Jimmy Conway.", "poster_path": "/pwpGfTImTGifEGgLb3s6LRPd4I6.jpg", "release_date": "1990-09-12", "title": "GoodFellas", "video": false, "vote_average": 8.4, "vote_count": 6559, "popularity": 36.135}, {"adult": false, "backdrop_path": "/fewP7EsMEnfqqcx4qYHKSKebwkF.jpg", "genre_ids": [28, 18, 36], "id": 2669, "original_language": "en", "original_title": "The Bounty", "overview": "The familiar story of Lieutenant Bligh, whose cruelty leads to a mutiny on his ship. This version follows both the efforts of Fletcher Christian to get his men beyond the reach of British retribution, and the epic voyage of Lieutenant Bligh to get his loyalists safely to East Timor in a tiny lifeboat.", "poster_path": "/hXFXIc6F4NXI5emWCKcUwqEPjIZ.jpg", "release_date": "1984-05-04", "title": "The Bounty", "video": false, "vote_average": 6.7, "vote_count": 246, "popularity": 10.539}, {"adult": false, "backdrop_path": "/oni8CXvEg56JhrfVdVUrQYOuhP0.jpg", "genre_ids": [80, 28, 53], "id": 55846, "original_language": "en", "original_title": "Blitz", "overview": "A tough, renegade cop with a gay sidekick is dispatched to take down a serial killer who has been targeting police officers.", "poster_path": "/woY0qY4DR6bPOQ7cBwyblePsYky.jpg", "release_date": "2011-05-20", "title": "Blitz", "video": false, "vote_average": 6.0, "vote_count": 862, "popularity": 18.232}, {"id": 399019, "video": false, "vote_count": 1322, "vote_average": 5.7, "title": "The Beguiled", "release_date": "2017-06-23", "original_language": "en", "original_title": "The Beguiled", "genre_ids": [18, 37], "backdrop_path": "/5jq7TjRzmvkJsa8bF3zWqxbPtmw.jpg", "adult": false, "overview": "During the Civil War, at a Southern girls\u2019 boarding school, young women take in an injured enemy soldier. As they provide refuge and tend to his wounds, the house is taken over with sexual tension and dangerous rivalries, and taboos are broken in an unexpected turn of events.", "poster_path": "/uQxfqFAqAvNK5b1wD11b2ycDAVg.jpg", "popularity": 12.812}, {"adult": false, "backdrop_path": "/jArl1j9sL2mYjRW23EaZKWAr2E8.jpg", "genre_ids": [18, 36], "id": 399121, "original_language": "fr", "original_title": "J\u2019accuse", "overview": "In 1894, French Captain Alfred Dreyfus is wrongfully convicted of treason and sentenced to life imprisonment at Devil's Island.", "poster_path": "/xMCJhioKlEBoWAJM9aCBKR8J3BT.jpg", "release_date": "2019-09-30", "title": "An Officer and a Spy", "video": false, "vote_average": 7.4, "vote_count": 278, "popularity": 12.331}, {"adult": false, "backdrop_path": "/8cVSUI36ORfCJ6d4TP71wIrdD7h.jpg", "genre_ids": [18, 27], "id": 133805, "original_language": "en", "original_title": "Carrie", "overview": "A reimagining of the classic horror tale about Carrie White, a shy girl outcast by her peers and sheltered by her deeply religious mother, who unleashes telekinetic terror on her small town after being pushed too far at her senior prom.", "poster_path": "/j0999NYddCGcishJlxluDRQIn6k.jpg", "release_date": "2013-10-16", "title": "Carrie", "video": false, "vote_average": 5.9, "vote_count": 2914, "popularity": 15.756}, {"adult": false, "backdrop_path": "/neSLpxwG5TWNzCPDUIZ9kbl2bOL.jpg", "genre_ids": [18, 53, 80], "id": 4836, "original_language": "en", "original_title": "Layer Cake", "overview": "When a seemingly straight-forward drug deal goes awry, XXXX has to break his die-hard rules and turn up the heat, not only to outwit the old regime and come out on top, but to save his own skin...", "poster_path": "/y6BzUkrx789OhVMDXZiBBVHu6OQ.jpg", "release_date": "2004-09-30", "title": "Layer Cake", "video": false, "vote_average": 7.0, "vote_count": 1028, "popularity": 19.131}, {"adult": false, "backdrop_path": "/sRJjliXA7ZqHCr7HCK0ZB83xxjr.jpg", "genre_ids": [12, 28, 878], "id": 101299, "original_language": "en", "original_title": "The Hunger Games: Catching Fire", "overview": "Katniss Everdeen has returned home safe after winning the 74th Annual Hunger Games along with fellow tribute Peeta Mellark. Winning means that they must turn around and leave their family and close friends, embarking on a \"Victor's Tour\" of the districts. Along the way Katniss senses that a rebellion is simmering, but the Capitol is still very much in control as President Snow prepares the 75th Annual Hunger Games (The Quarter Quell) - a competition that could change Panem forever.", "poster_path": "/Hn0KgefVEp0GkdTexS6gfKTMfi.jpg", "release_date": "2013-11-15", "title": "The Hunger Games: Catching Fire", "video": false, "vote_average": 7.4, "vote_count": 12031, "popularity": 22.164}, {"adult": false, "backdrop_path": "/bvbyidkMaBls1LTaIWYY6UmYTaL.jpg", "genre_ids": [28, 878], "id": 336843, "original_language": "en", "original_title": "Maze Runner: The Death Cure", "overview": "Thomas leads his group of escaped Gladers on their final and most dangerous mission yet. To save their friends, they must break into the legendary Last City, a WCKD-controlled labyrinth that may turn out to be the deadliest maze of all. Anyone who makes it out alive will get answers to the questions the Gladers have been asking since they first arrived in the maze.", "poster_path": "/2zYfzA3TBwrMC8tfFbpiTLODde0.jpg", "release_date": "2018-01-10", "title": "Maze Runner: The Death Cure", "video": false, "vote_average": 7.0, "vote_count": 4396, "popularity": 25.259}, {"id": 6114, "video": false, "vote_count": 2611, "vote_average": 7.4, "title": "Dracula", "release_date": "1992-11-13", "original_language": "en", "original_title": "Dracula", "genre_ids": [27, 10749], "backdrop_path": "/hm2stwkNFAaXMEeetJS2RZ77zC1.jpg", "adult": false, "overview": "When Dracula leaves the captive Jonathan Harker and Transylvania for London in search of Mina Harker\u2014the reincarnation of Dracula's long-dead wife, Elisabeta\u2014obsessed vampire hunter Dr. Van Helsing sets out to end the madness.", "poster_path": "/ioHxm3D3JdSXR61LRhcVb8KdZOz.jpg", "popularity": 21.922}, {"adult": false, "backdrop_path": "/20IgqkdFw5kuItqDCJtidSESP0t.jpg", "genre_ids": [27, 18], "id": 10066, "original_language": "en", "original_title": "House of Wax", "overview": "A group of unwitting teens are stranded near a strange wax museum and soon must fight to survive and keep from becoming the next exhibit.", "poster_path": "/uM1RebQywM5PPYsauayefpXGxVk.jpg", "release_date": "2005-04-30", "title": "House of Wax", "video": false, "vote_average": 5.7, "vote_count": 1532, "popularity": 16.398}, {"adult": false, "backdrop_path": "/dLAPTvBwEdP4h7a14isNc0HwmOj.jpg", "genre_ids": [18, 10749], "id": 250734, "original_language": "en", "original_title": "Far from the Madding Crowd", "overview": "Based on the literary classic by Thomas Hardy. Bathsheba Everdene, attracts three very different suitors: Gabriel Oak, a sheep farmer, captivated by her fetching willfulness; Frank Troy, a handsome and reckless Sergeant; and William Boldwood, a prosperous and mature bachelor. This timeless story of Bathsheba's choices and passions explores the nature of relationships and love \u2013 as well as the human ability to overcome hardships through resilience and perseverance.", "poster_path": "/6v1DEaO2TZzrqcaGohUf1K7BXkU.jpg", "release_date": "2015-04-23", "title": "Far from the Madding Crowd", "video": false, "vote_average": 7.0, "vote_count": 643, "popularity": 13.429}, {"id": 205775, "video": false, "vote_count": 2362, "vote_average": 6.6, "title": "In the Heart of the Sea", "release_date": "2015-11-20", "original_language": "en", "original_title": "In the Heart of the Sea", "genre_ids": [28, 12, 18, 36, 53], "backdrop_path": "/aZoZ0NglXgiBMToem9HhTAYYamw.jpg", "adult": false, "overview": "In the winter of 1820, the New England whaling ship Essex is assaulted by something no one could believe\u2014a whale of mammoth size and will, and an almost human sense of vengeance.", "poster_path": "/zVmWh0Zfg4UhbvdGI8LQrn1lQZJ.jpg", "popularity": 18.435}, {"id": 521, "video": false, "vote_count": 1257, "vote_average": 8.0, "title": "Dial M for Murder", "release_date": "1954-05-29", "original_language": "en", "original_title": "Dial M for Murder", "genre_ids": [80, 18, 9648, 53], "backdrop_path": "/jVMlfESb0TJ29w8CUDDofEprMmn.jpg", "adult": false, "overview": "An ex-tennis pro carries out a plot to have his wife murdered after discovering she is having an affair, and assumes she will soon leave him for the other man anyway. When things go wrong, he improvises a new plan\u2014to frame her for murder instead.", "poster_path": "/xrpK1PyckNWmRxU4kZURfaCyboS.jpg", "popularity": 28.336}, {"id": 457799, "video": false, "vote_count": 1572, "vote_average": 7.0, "title": "Extremely Wicked, Shockingly Evil and Vile", "release_date": "2019-05-02", "original_language": "en", "original_title": "Extremely Wicked, Shockingly Evil and Vile", "genre_ids": [80, 18, 53], "backdrop_path": "/uRoA67sM5vvCI4cplxhl67BTPly.jpg", "adult": false, "overview": "A chronicle of the crimes of Ted Bundy, from the perspective of his longtime girlfriend, Elizabeth Kloepfer, who refused to believe the truth about him for years.", "poster_path": "/zSuJ3r5zr5T26tTxyygHhgkUAIM.jpg", "popularity": 22.062}], "total_pages": 458, "total_results": 9148}, "recommendations": {"page": 1, "results": [], "total_pages": 1, "total_results": 0}, "credits": {"cast": [{"cast_id": 1, "character": "Perry Mason", "credit_id": "52fe49829251416c750ca537", "gender": 2, "id": 7685, "name": "Raymond Burr", "order": 0, "profile_path": "/Asn6aKAPshAUDnJN3OMLsBWCRwO.jpg"}, {"cast_id": 2, "character": "Della Street", "credit_id": "52fe49829251416c750ca53b", "gender": 1, "id": 109701, "name": "Barbara Hale", "order": 1, "profile_path": "/rXSq6M1Dr9JSfit4IhgBuUYIFqZ.jpg"}, {"cast_id": 5, "character": "Ken Malansky", "credit_id": "52fe49829251416c750ca545", "gender": 2, "id": 68527, "name": "William R. Moses", "order": 2, "profile_path": "/1CyxlUIlr94SClztZZxFZkV4bHQ.jpg"}, {"cast_id": 6, "character": "Ted Mayne", "credit_id": "52fe49829251416c750ca549", "gender": 0, "id": 1188972, "name": "Geraldo Rivera", "order": 3, "profile_path": null}, {"cast_id": 7, "character": "Charley Adams", "credit_id": "52fe49829251416c750ca54d", "gender": 1, "id": 60698, "name": "Tracy Nelson", "order": 4, "profile_path": "/fQJ2Y4knTWdGSdzT3YfXsu3YR5B.jpg"}, {"cast_id": 8, "character": "Brenda Kingsley", "credit_id": "52fe49829251416c750ca551", "gender": 1, "id": 23648, "name": "Priscilla Barnes", "order": 5, "profile_path": "/llDEiCLnmEm68b658dv29Bh2wtR.jpg"}, {"cast_id": 9, "character": "First Police Ofiicer", "credit_id": "5b302af2c3a3685714009373", "gender": 2, "id": 2071635, "name": "Dan Kopper", "order": 6, "profile_path": null}, {"cast_id": 10, "character": "Lt. Bill", "credit_id": "5b303e820e0a261bc90006d6", "gender": 2, "id": 1614235, "name": "Tupper Cullum", "order": 7, "profile_path": null}], "crew": [{"credit_id": "52fe49829251416c750ca541", "department": "Directing", "gender": 2, "id": 68359, "job": "Director", "name": "Christian I. Nyby II", "profile_path": null}, {"credit_id": "5b4b4c520e0a2645320236ac", "department": "Writing", "gender": 2, "id": 1235698, "job": "Novel", "name": "Erle Stanley Gardner", "profile_path": null}]}}