{"adult": false, "backdrop_path": "/2SU88D9k1AVawkHob8tcd5jIoF1.jpg", "belongs_to_collection": null, "budget": 0, "genres": [{"id": 37, "name": "Western"}], "homepage": null, "id": 95403, "imdb_id": "tt0060430", "original_language": "es", "original_title": "Las siete magn\u00edficas", "overview": "Seven women are the only survivors of an Apache attack on a wagon train. They must cross the desert on foot to escape the Indians who are hunting them.", "popularity": 2.832, "poster_path": "/TgEdGNUmmUzfSPVFlMlPmJmsB6.jpg", "production_companies": [{"id": 42577, "logo_path": null, "name": "Eurofilms", "origin_country": ""}, {"id": 61742, "logo_path": null, "name": "L.M. Films", "origin_country": ""}, {"id": 21342, "logo_path": null, "name": "Danny Films S.r.l.", "origin_country": ""}], "production_countries": [{"iso_3166_1": "ES", "name": "Spain"}, {"iso_3166_1": "LI", "name": "Liechtenstein"}, {"iso_3166_1": "AT", "name": "Austria"}, {"iso_3166_1": "IT", "name": "Italy"}], "release_date": "1966-09-26", "revenue": 0, "runtime": 104, "spoken_languages": [{"iso_639_1": "es", "name": "Espa\u00f1ol"}], "status": "Released", "tagline": "", "title": "Seven Vengeful Women", "video": false, "vote_average": 0.0, "vote_count": 0, "keywords": {"keywords": [{"id": 4616, "name": "apache"}]}, "similar": {"page": 1, "results": [{"id": 6529, "video": false, "vote_count": 84, "vote_average": 6.7, "title": "Hondo", "release_date": "1953-11-25", "original_language": "en", "original_title": "Hondo", "genre_ids": [37], "backdrop_path": "/fhHzIcjXXNdTqGxVN6yySfO3t2M.jpg", "adult": false, "overview": "Army despatch rider Hondo Lane discovers a woman and her son living in the midst of warring Apaches, and he becomes their protector.", "poster_path": "/xgdEI4FacNSZw4JLqDDwqs5sAeK.jpg", "popularity": 10.259}, {"id": 35588, "video": false, "vote_count": 76, "vote_average": 6.0, "title": "Geronimo: An American Legend", "release_date": "1993-12-10", "original_language": "en", "original_title": "Geronimo: An American Legend", "genre_ids": [36, 37], "backdrop_path": "/xLSNXg491vfuZnrvOYWNq55WAuW.jpg", "adult": false, "overview": "The Apache Indians have reluctantly agreed to settle on a US Government approved reservation. Not all the Apaches are able to adapt to the life of corn farmers. One in particular, Geronimo, is restless. Pushed over the edge by broken promises and necessary actions by the government, Geronimo and thirty or so other warriors form an attack team which humiliates the government by evading capture, whi", "poster_path": "/rmbeg5wHVjC68G00SKQ0xZQpZru.jpg", "popularity": 7.029}, {"adult": false, "backdrop_path": "/4WMJn9rMPi3YwhCabBuDzC24BqX.jpg", "genre_ids": [37], "id": 85848, "original_language": "it", "original_title": "Una donna chiamata Apache", "overview": "Tommy is an innocent cavalry officer who falls in love with a beautiful Apache woman after rescuing her from a nasty gun smuggler named Honest Jeremy. When Jeremy and his gang find Tommy, gruesome violence ensues.", "poster_path": "/73wzIKrmzECCFjDogMywKW1nm0x.jpg", "release_date": "1976-12-10", "title": "Apache Woman", "video": false, "vote_average": 6.3, "vote_count": 3, "popularity": 4.066}, {"adult": false, "backdrop_path": "/9DhBm5dFVQwWx6lsxFog5LLiF2u.jpg", "genre_ids": [37], "id": 3114, "original_language": "en", "original_title": "The Searchers", "overview": "As a Civil War veteran spends years searching for a young niece captured by Indians, his motivation becomes increasingly questionable.", "poster_path": "/jLBmgW0epNzJ1N9uzaVCjbyT94v.jpg", "release_date": "1956-03-13", "title": "The Searchers", "video": false, "vote_average": 7.8, "vote_count": 681, "popularity": 12.484}, {"adult": false, "backdrop_path": "/mwATaNN5AtPs1hDzPO27SA2heQA.jpg", "genre_ids": [28, 18, 37], "id": 42491, "original_language": "en", "original_title": "Ulzana's Raid", "overview": "Report reaches the US cavalry that the Apache leader Ulzana has left his reservation with a band of followers. A compassionate young officer, Lieutenant DeBuin, is given a small company to find him and bring him back; accompanying the troop is McIntosh, an experienced scout, and Ke-Ni-Tay, an Apache guide. Ulzana massacres, rapes and loots across the countryside; and as DeBuin encounters the remains of his victims, he is compelled to learn from McIntosh and to confront his own naivity and hidden prejudices.", "poster_path": "/dLtklx60ZVMgV2HUwRA7gacpyk9.jpg", "release_date": "1972-01-01", "title": "Ulzana's Raid", "video": false, "vote_average": 7.1, "vote_count": 58, "popularity": 7.655}, {"id": 196, "video": false, "vote_count": 6115, "vote_average": 7.4, "title": "Back to the Future Part III", "release_date": "1990-05-25", "original_language": "en", "original_title": "Back to the Future Part III", "genre_ids": [12, 35, 878], "backdrop_path": "/pP2a4MBQbIeZMbErBWMjxTT5Npb.jpg", "adult": false, "overview": "The final installment of the Back to the Future trilogy finds Marty digging the trusty DeLorean out of a mineshaft and looking for Doc in the Wild West of 1885. But when their time machine breaks down, the travelers are stranded in a land of spurs. More problems arise when Doc falls for pretty schoolteacher Clara Clayton, and Marty tangles with Buford Tannen.", "poster_path": "/6DmgPTZYaug7QNDjOhUDWyjOQDl.jpg", "popularity": 17.871}, {"id": 7085, "video": false, "vote_count": 47, "vote_average": 6.7, "title": "The Desperado Trail", "release_date": "1965-10-14", "original_language": "de", "original_title": "Winnetou III", "genre_ids": [12, 37], "backdrop_path": "/1A7xCGP6grAycRiMzNDawR6wPEy.jpg", "adult": false, "overview": "Rollins' gang wants to grab land by inciting the settlers in a war against the Indians but Winnetou and Old Shatterhand try to keep the peace, until Rollins frames Winnetou up for the murder of Jicarilla Chief's son.", "poster_path": "/1eQ64h3oxXBkIV2U0N6jnyGG0P7.jpg", "popularity": 6.779}, {"id": 327760, "video": false, "vote_count": 0, "vote_average": 0.0, "title": "Geronimo", "release_date": "1939-11-26", "original_language": "en", "original_title": "Geronimo", "genre_ids": [37], "backdrop_path": "/evjUSxPkCFrUuOSUsMF7Qv3Zb05.jpg", "adult": false, "overview": "The army's effort to capture Apache chief Geronimo, who is leading a band of warriors on a rampage of raiding and murder, is hampered by a feud between two officers--who are father and son.", "poster_path": "/5Ced2PaXmpzrYrMmYHTuzrf48rE.jpg", "popularity": 1.984}, {"id": 3686, "video": false, "vote_count": 47, "vote_average": 6.7, "title": "Last of the Renegades", "release_date": "1964-09-17", "original_language": "de", "original_title": "Winnetou II", "genre_ids": [12, 37], "backdrop_path": "/7oULA9JMQo8VTros3GC2o3984Bm.jpg", "adult": false, "overview": "Forester, a ruthless oil baron, wants to create a war between the native American tribes and the white men. Old Shatterhand, Winnetou and their sidekick Castlepool try to prevent this.", "poster_path": "/1VD5kjKKqha5LT3RuGHGgXhkZYK.jpg", "popularity": 7.39}, {"id": 8366, "video": false, "vote_count": 272, "vote_average": 6.9, "title": "Manitou's Shoe", "release_date": "2001-07-11", "original_language": "de", "original_title": "Der Schuh des Manitu", "genre_ids": [35, 37], "backdrop_path": "/a4LPY5nQD8MhFrNULzQkx3GQaGO.jpg", "adult": false, "overview": "Abahachi, Chief of the Apache Indians, and his blood brother Ranger maintain peace and justice in the Wild West. One day, Abahachi needs to take up a credit from the Shoshone Indians to finance his tribe's new saloon. Unfortunately Santa Maria, who sold the saloon, betrays Abahachi, takes the money and leaves. Soon, the Shoshones are on the warpath to get their money back, and Abahachi is forced to organize it quickly.", "poster_path": "/uBuo1AoDr5dLrMtdAZxdfnl8fiF.jpg", "popularity": 7.849}, {"adult": false, "backdrop_path": "/gaSEfjHqxhI6Q8LdYAgG1O7Pau0.jpg", "genre_ids": [12, 37], "id": 9347, "original_language": "de", "original_title": "Unter Geiern", "overview": "Frontier Hellcat was the fourth in a series of 1960s European westerns based on Karl May's \"Winnetou\" character. Stewart Granger takes over from Lex Barker in the leading \"Anglo\"-role of the mysterious maverick who wanders from town to town doing the \"Lone Ranger\" bit. The hellcat of the title is Elke Sommer, a tempestuous frontierswoman who reluctantly accepts Granger's help in attaining safe passage through the Rocky Mountains (\"played\" in this film by the Alps).", "poster_path": "/mTc5dgBjgnKFfpwTt1QhCnzPOvw.jpg", "release_date": "1964-12-08", "title": "Frontier Hellcat", "video": false, "vote_average": 6.2, "vote_count": 19, "popularity": 5.23}, {"id": 3685, "video": false, "vote_count": 55, "vote_average": 6.8, "title": "Apache Gold", "release_date": "1963-12-11", "original_language": "de", "original_title": "Winnetou 1", "genre_ids": [12, 37], "backdrop_path": "/q2qtUxCkJnHwLajYhWku0DhSJCl.jpg", "adult": false, "overview": "The construction of the Great Western Railroad creates heavy conflict between the railway company and neighboring Indian tribes. Worse, criminal gang leader Santer sets his eyes on a gold mine located on holy Indian land and influences the construction supervisor to re-rout the planned railroad straight through Apache land. Old Shatterhand, who works as a measurement technician, discovers the evil plan and searches contact with the Apaches in an effort to avert war.", "poster_path": "/44NQoPvMP2uZVjOPGeDo1JQoWFx.jpg", "popularity": 7.863}, {"adult": false, "backdrop_path": "/kiWvoV78Cc3fUwkOHKzyBgVdrDD.jpg", "genre_ids": [37, 18, 12], "id": 281957, "original_language": "en", "original_title": "The Revenant", "overview": "In the 1820s, a frontiersman, Hugh Glass, sets out on a path of vengeance against those who left him for dead after a bear mauling.", "poster_path": "/oXUWEc5i3wYyFnL1Ycu8ppxxPvs.jpg", "release_date": "2015-12-25", "title": "The Revenant", "video": false, "vote_average": 7.5, "vote_count": 12127, "popularity": 24.135}, {"id": 49849, "video": false, "vote_count": 3363, "vote_average": 5.5, "title": "Cowboys & Aliens", "release_date": "2011-07-29", "original_language": "en", "original_title": "Cowboys & Aliens", "genre_ids": [28, 878, 53, 37], "backdrop_path": "/gTDwoJBCu7scwYQoykIlLNpkCes.jpg", "adult": false, "overview": "A stranger stumbles into the desert town of Absolution with no memory of his past and a futuristic shackle around his wrist. With the help of mysterious beauty Ella and the iron-fisted Colonel Dolarhyde, he finds himself leading an unlikely posse of cowboys, outlaws, and Apache warriors against a common enemy from beyond this world in an epic showdown for survival.", "poster_path": "/9uZsGCP4rvOHVGCpMpYq5gNCuNI.jpg", "popularity": 21.609}, {"id": 223485, "video": false, "vote_count": 586, "vote_average": 6.6, "title": "Slow West", "release_date": "2015-04-16", "original_language": "en", "original_title": "Slow West", "genre_ids": [28, 18, 53, 37, 10749], "backdrop_path": "/9qF6lhj6X0ImH4iWGZs1uspXJI0.jpg", "adult": false, "overview": "In the Old West, a 17-year-old Scottish boy teams up with a mysterious gunman to find the woman with whom he is infatuated.", "poster_path": "/uZ9dBBn0GaEw0YIBvQd01Io3pho.jpg", "popularity": 10.467}, {"id": 10747, "video": false, "vote_count": 552, "vote_average": 7.5, "title": "The Outlaw Josey Wales", "release_date": "1976-06-30", "original_language": "en", "original_title": "The Outlaw Josey Wales", "genre_ids": [28, 12, 37], "backdrop_path": "/vkE1ROrP1gA5c1L31XZ8JR9QRMJ.jpg", "adult": false, "overview": "After avenging his family's brutal murder, Wales is pursued by a pack of soldiers. He prefers to travel alone, but ragtag outcasts are drawn to him - and Wales can't bring himself to leave them unprotected.", "poster_path": "/8HRmovHTe1FTiZ5GUM534izCNL2.jpg", "popularity": 14.041}, {"id": 12146, "video": false, "vote_count": 309, "vote_average": 6.3, "title": "The Missing", "release_date": "2003-11-26", "original_language": "en", "original_title": "The Missing", "genre_ids": [12, 53, 37], "backdrop_path": "/6YveStq0npJFRE8LqMb5jDhzr0t.jpg", "adult": false, "overview": "When rancher and single mother of two Maggie Gilkeson sees her teenage daughter, Lily, kidnapped by Apache rebels, she reluctantly accepts the help of her estranged father, Samuel, in tracking down the kidnappers. Along the way, the two must learn to reconcile the past and work together if they are going to have any hope of getting Lily back before she is taken over the border and forced to become a prostitute.", "poster_path": "/eAXh7In47DugzaN4VPI1T84USB6.jpg", "popularity": 11.946}, {"id": 40630, "video": false, "vote_count": 52, "vote_average": 6.5, "title": "Cheyenne Autumn", "release_date": "1964-10-03", "original_language": "en", "original_title": "Cheyenne Autumn", "genre_ids": [18, 37], "backdrop_path": "/wvDCtCCTjQ20xQirQBT8UwdydYN.jpg", "adult": false, "overview": "A reluctant cavalry Captain must track a defiant tribe of migrating Cheyennes.", "poster_path": "/wjFklBlg9np1Ppc0qxWAdxp3JOL.jpg", "popularity": 7.743}, {"id": 11897, "video": false, "vote_count": 192, "vote_average": 7.2, "title": "How the West Was Won", "release_date": "1962-11-01", "original_language": "en", "original_title": "How the West Was Won", "genre_ids": [37], "backdrop_path": "/rTLd4dIgEeM7QzifI2IYwDiFoo5.jpg", "adult": false, "overview": "The epic tale of the development of the American West from the 1830s through the Civil War to the end of the century, as seen through the eyes of one pioneer family.", "poster_path": "/ixbhzvECnuqCBYnF9J1mfVfLCPF.jpg", "popularity": 16.811}, {"id": 15846, "video": false, "vote_count": 98, "vote_average": 5.7, "title": "The Burrowers", "release_date": "2008-09-09", "original_language": "en", "original_title": "The Burrowers", "genre_ids": [28, 27, 37], "backdrop_path": "/ofEOYrUfaoG7LQeXwI5CFoMoiy3.jpg", "adult": false, "overview": "It is 1879 in the Dakota Territories, a band of men who set out to find and recover a family of settlers that has mysteriously vanished from their home. Expecting the offenders to be a band of fierce natives, but they soon discover that the real enemy stalks them from below.", "poster_path": "/fjTbwxK4T35QoFEH8XJv8vAfg9r.jpg", "popularity": 8.815}], "total_pages": 20, "total_results": 384}, "recommendations": {"page": 1, "results": [], "total_pages": 1, "total_results": 0}, "credits": {"cast": [{"cast_id": 1003, "character": "Ursula", "credit_id": "52fe49829251416c750ca5bf", "gender": 1, "id": 32152, "name": "Maria Perschy", "order": 0, "profile_path": "/dGTfS6yM7UV6Zv76leRFFnwelIJ.jpg"}, {"cast_id": 1005, "character": "Mary Ann", "credit_id": "52fe49829251416c750ca5c3", "gender": 1, "id": 10606, "name": "Anne Baxter", "order": 1, "profile_path": "/jOnJoazpO6q2vAVL37IQfzQbjav.jpg"}, {"cast_id": 1006, "character": "Gus Macintosh", "credit_id": "52fe49829251416c750ca5c7", "gender": 2, "id": 30830, "name": "Gustavo Rojo", "order": 2, "profile_path": "/zo8efxzDxMcU9yXcUYf9vaGXOQv.jpg"}, {"cast_id": 1008, "character": "Katy Grimaldi", "credit_id": "52fe49829251416c750ca5d1", "gender": 1, "id": 235350, "name": "Rossella Como", "order": 3, "profile_path": "/5BAy8HMnHxchMOqpvoaio2jyJn1.jpg"}, {"cast_id": 1015, "character": "Bridget", "credit_id": "53fc3a040e0a267a7500a0db", "gender": 1, "id": 37746, "name": "Christa Linder", "order": 4, "profile_path": "/6qrB0r3QcFnvkKPBuS6n6aMASBW.jpg"}, {"cast_id": 1009, "character": "Betty Grimaldi", "credit_id": "52fe49829251416c750ca5d5", "gender": 0, "id": 25790, "name": "Adriana Ambesi", "order": 5, "profile_path": "/qWvcQasRQZqJTRHVj9WnozOtL2T.jpg"}, {"cast_id": 1011, "character": "Pope", "credit_id": "52fe49829251416c750ca5dd", "gender": 2, "id": 996571, "name": "Luis Prendes", "order": 6, "profile_path": "/ie5Hu5Chv4GGtJiLgtNn0JrurDX.jpg"}, {"cast_id": 1012, "character": "Blanche", "credit_id": "52fe49829251416c750ca5e1", "gender": 1, "id": 106904, "name": "Mara Cruz", "order": 7, "profile_path": "/zIl7ULMsHJpbGn0jkfWdBaI9C5o.jpg"}, {"cast_id": 1013, "character": "Pilar", "credit_id": "52fe49829251416c750ca5e5", "gender": 0, "id": 71525, "name": "Perla Cristal", "order": 8, "profile_path": "/tfWOW5oQIhYDb6yXWW2nkz7LdK0.jpg"}, {"cast_id": 1014, "character": "Dorothy", "credit_id": "52fe49829251416c750ca5e9", "gender": 1, "id": 104065, "name": "Mar\u00eda Mahor", "order": 9, "profile_path": "/xQh2THNr3L46Kn2hrVEkLC2WQIZ.jpg"}], "crew": [{"credit_id": "5db38a184083b3001353781f", "department": "Crew", "gender": 0, "id": 25822, "job": "Cinematography", "name": "Marcello Gatti", "profile_path": null}, {"credit_id": "5db389c04083b300155361bb", "department": "Sound", "gender": 2, "id": 29389, "job": "Music", "name": "Carlo Savina", "profile_path": null}, {"credit_id": "56aa319792514159a50017af", "department": "Directing", "gender": 0, "id": 30821, "job": "Director", "name": "Sidney W. Pink", "profile_path": null}, {"credit_id": "5db389724b0c630014ebd744", "department": "Directing", "gender": 2, "id": 37716, "job": "Director", "name": "Rudolf Zehetgruber", "profile_path": null}, {"credit_id": "52fe49829251416c750ca5cd", "department": "Directing", "gender": 2, "id": 37742, "job": "Director", "name": "Gianfranco Parolini", "profile_path": "/zO4olF5fU4YfFxjoaeje8BsPJbb.jpg"}, {"credit_id": "5db389ac4083b3001853a8a0", "department": "Sound", "gender": 0, "id": 1905915, "job": "Music", "name": "Gerhard Froboess", "profile_path": null}]}}