{"adult": false, "backdrop_path": "/tYHhSxWsubBpfpOWBAOGGrhWlUF.jpg", "belongs_to_collection": null, "budget": 0, "genres": [{"id": 18, "name": "Drama"}], "homepage": "", "id": 95608, "imdb_id": "tt0460890", "original_language": "en", "original_title": "The Only Living Boy in New York", "overview": "When a young man learns that his overbearing father is having an affair, he tries to stop it, only to be seduced by the older woman as well.", "popularity": 9.425, "poster_path": "/8e6Q7N2qJ7utBrf6pyf3EiLADja.jpg", "production_companies": [{"id": 2570, "logo_path": null, "name": "Bona Fide Productions", "origin_country": ""}], "production_countries": [{"iso_3166_1": "US", "name": "United States of America"}], "release_date": "2017-07-27", "revenue": 2550321, "runtime": 88, "spoken_languages": [{"iso_639_1": "en", "name": "English"}], "status": "Released", "tagline": "", "title": "The Only Living Boy in New York", "video": false, "vote_average": 6.3, "vote_count": 139, "keywords": {"keywords": [{"id": 11869, "name": "mistress"}, {"id": 34094, "name": "extramarital affair"}, {"id": 168346, "name": "manhattan, new york city"}]}, "similar": {"page": 1, "results": [{"adult": false, "backdrop_path": "/fAA0S3rM3o5Sp8TIdS0MvWOGsCQ.jpg", "genre_ids": [18, 10749], "id": 843, "original_language": "cn", "original_title": "\u82b1\u6a23\u5e74\u83ef", "overview": "Taking place in Hong Kong of 1962, a melancholy story about the love between a woman and a man who live in the same building and one day find out that their husband and wife had an affair with each other.", "poster_path": "/unOW3SxFxBdd7LMWjmRONdHWKPb.jpg", "release_date": "2000-05-22", "title": "In the Mood for Love", "video": false, "vote_average": 8.1, "vote_count": 963, "popularity": 21.272}, {"adult": false, "backdrop_path": "/ecREZ3vYCqethftSDWK4we0X498.jpg", "genre_ids": [35, 18, 10749], "id": 4507, "original_language": "es", "original_title": "Jam\u00f3n, jam\u00f3n", "overview": "Jose Luis is an executive at his parents underwear factory where his girlfriend Sylvia works on the shop floor. When Sylvia becomes pregnant, Jose Luis promises her that he will marry her, most likely against the wishes of his parents. Jose Luis' mother is determined to break her son's engagement to a girl from a lower-class family, and hires Raul, a potential underwear model and would-be bullfighter to seduce Sylvia.", "poster_path": "/v5Fq01ZtYnA2Grxdd3g8CuGZARg.jpg", "release_date": "1992-09-03", "title": "Jamon Jamon", "video": false, "vote_average": 6.1, "vote_count": 143, "popularity": 13.381}, {"adult": false, "backdrop_path": "/Ao2bnJMmcFepMVw1BUay25tt7TM.jpg", "genre_ids": [18, 10749], "id": 1259, "original_language": "en", "original_title": "Notes on a Scandal", "overview": "A veteran high school teacher befriends a younger art teacher, who is having an affair with one of her 15-year-old students. However, her intentions with this new \"friend\" also go well beyond platonic friendship.", "poster_path": "/lXZa1mHZ8eD0VOpNaLfvM9tSpAj.jpg", "release_date": "2006-12-25", "title": "Notes on a Scandal", "video": false, "vote_average": 7.1, "vote_count": 463, "popularity": 12.753}, {"adult": false, "backdrop_path": "/qjm30F9hwJ6BNbsb7iOrrKwkY3n.jpg", "genre_ids": [35, 18, 10749], "id": 696, "original_language": "en", "original_title": "Manhattan", "overview": "Manhattan explores how the life of a middle-aged television writer dating a teenage girl is further complicated when he falls in love with his best friend's mistress.", "poster_path": "/k4eT3EvfxW1L9Wmt04UqJqCvCR6.jpg", "release_date": "1979-04-25", "title": "Manhattan", "video": false, "vote_average": 7.9, "vote_count": 1320, "popularity": 17.292}, {"adult": false, "backdrop_path": "/bYbnlh6VXFRtcSX82UMDsBDLB5j.jpg", "genre_ids": [18, 10749], "id": 28468, "original_language": "it", "original_title": "La chiave", "overview": "After twenty years of marriage, art professor Nino Rolfe attempts to break down his wife Teresa's conventional modesty. Noticing her affection for their daughter's fianc\u00e9, Nino instigates her sexual interest in him as well. This sets off a chain of unexpected events and emotional complications, as Nino and his unpredictable fascist daughter find that they both enjoy being jealous.", "poster_path": "/e6g2geNLgFzMbriH6EvSJZD78nx.jpg", "release_date": "1983-10-18", "title": "The Key", "video": false, "vote_average": 5.0, "vote_count": 128, "popularity": 15.363}, {"adult": false, "backdrop_path": "/zA1Tv2C2wXeDSWfn3S8XdElqDFG.jpg", "genre_ids": [35, 18], "id": 37265, "original_language": "it", "original_title": "Cos\u00ec fan tutte", "overview": "Diana is a Roman wife happily married to sympathetic Paolo but she is keen on playing benign games of seduction with other men while resisting the advances of chic lingerie shop owner Silvio. She narrates her adventures to Paolo in order to stimulate their otherwise monotonous sexual life. However, under the influence of her lesbian friend Antonietta and raunchy sister Nadia, Diana starts to move the ongoings further while Paolo is still prone to believing that events narrated by her are merely fantasies.", "poster_path": "/h5xsSUCkXCd0696K5A9hkmgaERE.jpg", "release_date": "1992-02-21", "title": "All Ladies Do It", "video": false, "vote_average": 4.2, "vote_count": 207, "popularity": 9.964}, {"id": 11368, "video": false, "vote_count": 624, "vote_average": 7.4, "title": "Blood Simple", "release_date": "1984-09-07", "original_language": "en", "original_title": "Blood Simple", "genre_ids": [80, 18, 53], "backdrop_path": "/o83uHWyhXgYm6YrMHUE1pqvZJDR.jpg", "adult": false, "overview": "The owner of a seedy small-town Texas bar discovers that one of his employees is having an affair with his wife. A chaotic chain of misunderstandings, lies and mischief ensues after he devises a plot to have them murdered.", "poster_path": "/xz1p33UMrcPPOGP1vzlRwLVR6k0.jpg", "popularity": 10.64}, {"adult": false, "backdrop_path": "/vVK04ayDtN2186jgkCtFjvw8IlN.jpg", "genre_ids": [18, 10749], "id": 4148, "original_language": "en", "original_title": "Revolutionary Road", "overview": "A young couple living in a Connecticut suburb during the mid-1950s struggle to come to terms with their personal problems while trying to raise their two children. Based on a novel by Richard Yates.", "poster_path": "/bnOK1lmdlqdy2HX6IgKx9TQD7Ax.jpg", "release_date": "2008-12-19", "title": "Revolutionary Road", "video": false, "vote_average": 6.9, "vote_count": 2092, "popularity": 19.466}, {"id": 340613, "video": false, "vote_count": 605, "vote_average": 7.2, "title": "The Wife", "release_date": "2018-08-02", "original_language": "en", "original_title": "The Wife", "genre_ids": [18], "backdrop_path": "/jvLrBlzdlJuDZtLunkCCd0eOXSm.jpg", "adult": false, "overview": "A wife questions her life choices as she travels to Stockholm with her husband, where he is slated to receive the Nobel Prize for Literature.", "poster_path": "/d4Qyuy0Ul549f6SOdUqGvIdYKD2.jpg", "popularity": 11.69}, {"id": 263472, "video": false, "vote_count": 1669, "vote_average": 5.0, "title": "Knock Knock", "release_date": "2015-06-26", "original_language": "en", "original_title": "Knock Knock", "genre_ids": [18, 53], "backdrop_path": "/gJduaRau3X2oE3xkmjs1FufT2GE.jpg", "adult": false, "overview": "When a devoted husband and father is left home alone for the weekend, two stranded young women unexpectedly knock on his door for help. What starts out as a kind gesture results in a dangerous seduction and a deadly game of cat and mouse.", "poster_path": "/eynMtjBB1fXsB5vsQylVmsDLmvw.jpg", "popularity": 19.205}, {"id": 14, "video": false, "vote_count": 7295, "vote_average": 8.0, "title": "American Beauty", "release_date": "1999-09-15", "original_language": "en", "original_title": "American Beauty", "genre_ids": [18], "backdrop_path": "/z5J18ByLeOZ68iORfMXmxeFuwyL.jpg", "adult": false, "overview": "Lester Burnham, a depressed suburban father in a mid-life crisis, decides to turn his hectic life around after developing an infatuation with his daughter's attractive friend.", "poster_path": "/or1MP8BZIAjqWYxPdPX724ydKar.jpg", "popularity": 28.789}, {"adult": false, "backdrop_path": "/eHhtUoazdml8CMvzWtpunIyqrZS.jpg", "genre_ids": [18, 53, 10749], "id": 884, "original_language": "en", "original_title": "Crash", "overview": "After getting into a serious car accident, a TV director discovers an underground sub-culture of scarred, omnisexual car-crash victims who use car accidents and the raw sexual energy they produce to try to rejuvenate his sex life with his wife.", "poster_path": "/4PDLGJsS5uVBQlYjLMZ7t85dU0P.jpg", "release_date": "1996-07-17", "title": "Crash", "video": false, "vote_average": 6.5, "vote_count": 438, "popularity": 14.59}, {"adult": false, "backdrop_path": "/npClMhFGn4XUkwu6coq5oKAEu6L.jpg", "genre_ids": [35, 10749, 18], "id": 634, "original_language": "en", "original_title": "Bridget Jones's Diary", "overview": "A chaotic Bridget Jones meets a snobbish lawyer, and he soon enters her world of imperfections.", "poster_path": "/ym6kjFFZg6boC0QHBVw6hqJLbxv.jpg", "release_date": "2001-04-13", "title": "Bridget Jones's Diary", "video": false, "vote_average": 6.7, "vote_count": 3080, "popularity": 19.453}, {"id": 9753, "video": false, "vote_count": 86, "vote_average": 4.4, "title": "Survival Island", "release_date": "2006-05-05", "original_language": "en", "original_title": "Three", "genre_ids": [12, 18, 27, 9648, 53], "backdrop_path": "/56Yi1X3Kn8Oo1l9avoVYycGgaKi.jpg", "adult": false, "overview": "After a yachting accident, a millionaire and his wife are shipwrecked on a desert island along with their former deckhand, Manuel.", "poster_path": "/dg5gHoU11VYT0vAv5Uon6SHeoDr.jpg", "popularity": 22.163}, {"adult": false, "backdrop_path": "/cdccKL6nLs21Ak27BWpryPrxqie.jpg", "genre_ids": [14, 18], "id": 422, "original_language": "it", "original_title": "8\u00bd", "overview": "Guido Anselmi, a film director, finds himself creatively barren at the peak of his career. Urged by his doctors to rest, Anselmi heads for a luxurious resort, but a sorry group gathers\u2014his producer, staff, actors, wife, mistress, and relatives\u2014each one begging him to get on with the show. In retreat from their dependency, he fantasizes about past women and dreams of his childhood.", "poster_path": "/5pQlc8dp5dXzWg1yM70DZrsDpOl.jpg", "release_date": "1963-02-14", "title": "8\u00bd", "video": false, "vote_average": 8.2, "vote_count": 1028, "popularity": 20.33}, {"adult": false, "backdrop_path": "/84kMxZoaw958LrBNqSQqxFJEDXI.jpg", "genre_ids": [18, 10749], "id": 27066, "original_language": "it", "original_title": "L'uomo che guarda", "overview": "At a college in Rome, a professor, nicknamed \"Dodo\" is in a deep depression. His stunningly beautiful wife has just left him for another man. Dodo wants her back very badly and has erotic daydreams about her. A beautiful young student in his class asks him for a ride home and seduces the lucky man, but still he wonders about his wife and her lover.", "poster_path": "/ndMErDbUC7lSiKoWeUfzdMs3OpV.jpg", "release_date": "1994-01-27", "title": "The Voyeur", "video": false, "vote_average": 4.4, "vote_count": 82, "popularity": 11.247}, {"id": 311667, "video": false, "vote_count": 222, "vote_average": 6.1, "title": "Manhattan Night", "release_date": "2016-05-20", "original_language": "en", "original_title": "Manhattan Night", "genre_ids": [18, 9648, 53], "backdrop_path": "/7lsJgVw4mGHU69ZEQlAFiL1Qee0.jpg", "adult": false, "overview": "Porter Wren is a Manhattan tabloid writer with an appetite for scandal. On the beat he sells murder, tragedy, and anything that passes for the truth. At home, he is a dedicated husband and father. But when Caroline, a seductive stranger asks him to dig into the unsolved murder of her filmmaker husband Simon, he is drawn into a very nasty case of sexual obsession and blackmail--one that threatens his job, his marriage, and his life.", "poster_path": "/s8VsHs12GKX8uKdjtuoUakYAEbQ.jpg", "popularity": 10.604}, {"adult": false, "backdrop_path": "/tMxCVvecIGr2mxpFt6XISKQTghD.jpg", "genre_ids": [18, 10749, 53], "id": 36630, "original_language": "en", "original_title": "Zandalee", "overview": "Bored with her marriage to burnt out poet turned corporate executive Thierry, Zandalee falls prey to an old friend of her husband, the manipulative and egotistical Johhny and becomes enmeshed in a sensual, passionate and destructive affair.", "poster_path": "/2htCUPJ6IsosO44lbN5XLfjDDhR.jpg", "release_date": "1991-05-09", "title": "Zandalee", "video": false, "vote_average": 4.2, "vote_count": 36, "popularity": 9.206}, {"adult": false, "backdrop_path": "/h39p97Pn0b55PV63PislftZslhk.jpg", "genre_ids": [35, 18, 10749], "id": 255, "original_language": "fr", "original_title": "Baisers vol\u00e9s", "overview": "The third in a series of films featuring Fran\u00e7ois Truffaut's alter-ego, Antoine Doinel, the story resumes with Antoine being discharged from military service. His sweetheart Christine's father lands Antoine a job as a security guard, which he promptly loses. Stumbling into a position assisting a private detective, Antoine falls for his employers' seductive wife, Fabienne, and finds that he must choose between the older woman and Christine.", "poster_path": "/5qHh1Vp2TOOX5IaTVt4wyT8OTnR.jpg", "release_date": "1968-09-04", "title": "Stolen Kisses", "video": false, "vote_average": 7.5, "vote_count": 143, "popularity": 9.145}, {"adult": false, "backdrop_path": "/pHWPhvJDuIU97O0zJKdDlGr6tFV.jpg", "genre_ids": [18, 10749], "id": 283227, "original_language": "en", "original_title": "A Little Chaos", "overview": "A landscape gardener is hired by famous architect Le N\u00f4tre to construct the grand gardens at the palace of Versailles. As the two work on the palace, they find themselves drawn to each other and are thrown into rivalries within the court of King Louis XIV.", "poster_path": "/8Q8q0oBI99tfw3x5ozoKEtHKvO0.jpg", "release_date": "2015-03-26", "title": "A Little Chaos", "video": false, "vote_average": 6.3, "vote_count": 439, "popularity": 9.378}], "total_pages": 101, "total_results": 2011}, "recommendations": {"page": 1, "results": [{"id": 619346, "video": false, "vote_count": 3, "vote_average": 6.7, "title": "Surviving Confession", "release_date": "2019-07-30", "original_language": "en", "original_title": "Surviving Confession", "genre_ids": [35, 18], "backdrop_path": "/annfO0XTqXN45ahWatCG0gVWjvd.jpg", "adult": false, "overview": "A disgruntled priest, conflicted with his faith, has his world turned upside down when an unlikely person enters his confessional.", "poster_path": "/yd4nBndLPUykLPfwia4YkSVfMPX.jpg", "popularity": 1.961}, {"adult": false, "backdrop_path": "/jG1zAAKOEYOJYjo0cAKUAWnphWU.jpg", "genre_ids": [35, 27], "id": 527948, "original_language": "en", "original_title": "Horror and Hamsters", "overview": "Twisted horror segments intertwined with cute, fluffy, family-friendly hamster videos. The filmmakers were so preoccupied with whether or not they could, they didn't stop to think if they should.", "poster_path": "/oTcpNaxrraxtYg6ybYZqqN4nQ8n.jpg", "release_date": "2018-06-02", "title": "Horror and Hamsters", "video": false, "vote_average": 7.0, "vote_count": 3, "popularity": 3.487}, {"adult": false, "backdrop_path": "/wXyw8XDC4UPnjZBbQjwDnjxPzC3.jpg", "genre_ids": [18, 80], "id": 497757, "original_language": "en", "original_title": "Break Night", "overview": "A lifetime hood has one night to repay a debt to an up and coming shot caller before he can leave town, all the while trying to duck a crooked P.O., a former partner with a grudge and a burned out Narc Cop, as well as do his best to win back the woman he left behind, who has spent her last few years paying a hard price for his mistakes.", "poster_path": "/4tChDcyjaSyfmCa0rd5P0ipoLNq.jpg", "release_date": "2018-01-10", "title": "Break Night", "video": false, "vote_average": 5.2, "vote_count": 5, "popularity": 2.57}, {"adult": false, "backdrop_path": "/tm8fCdBLj1FIYfVWwbUqlJlzbcP.jpg", "genre_ids": [35], "id": 510095, "original_language": "en", "original_title": "Baja", "overview": "Four 22 year-olds on a Mexican road trip seem bound for disaster until they, and their trip, are unexpectedly redeemed by a series of miraculous events.", "poster_path": "/9EVbnMh0YRZaarjW3tA7iexLDAc.jpg", "release_date": "2018-04-01", "title": "Baja", "video": false, "vote_average": 6.4, "vote_count": 7, "popularity": 3.745}, {"adult": false, "backdrop_path": "/kD9QnnGJTLsxc035IULudmj4vbL.jpg", "genre_ids": [18], "id": 479970, "original_language": "en", "original_title": "Butterfly Caught", "overview": "Three beautiful aspiring actresses embark on a mission to break into the competitive Los Angeles acting scene only to discover the road leading to stardom comes at a price.", "poster_path": "/92hgBg1aHIuNy7tod9PC40HmZtI.jpg", "release_date": "2017-10-06", "title": "Butterfly Caught", "video": false, "vote_average": 5.4, "vote_count": 9, "popularity": 5.449}, {"adult": false, "backdrop_path": "/uu2IU3OvGZPdp8daGvR1UV5Aw3s.jpg", "genre_ids": [80, 18, 28], "id": 507476, "original_language": "en", "original_title": "Agenda: Payback", "overview": "Steve Walsh is living the high life but it's a life built on the ruin of other people's dreams. Peter Farrell is a man with nothing left to lose and there is nothing more dangerous than a man seeking retribution.", "poster_path": "/kwBOHhJKZDgobOoNy9WLwV1bSG4.jpg", "release_date": "2018-02-23", "title": "Agenda: Payback", "video": false, "vote_average": 6.8, "vote_count": 4, "popularity": 4.225}, {"adult": false, "backdrop_path": "/g4iNzTMfOmdYqfgEHWcC8tT72V9.jpg", "genre_ids": [18], "id": 295196, "original_language": "en", "original_title": "Watercolor Postcards", "overview": "A Hollywood actress and a former NFL star strive to save a troubled Texas town while bonding over their shared love of a very special 10-year-old girl who has found herself alone in the world for the very first time.", "poster_path": "/xfYOzppjXIquT9maOzgXLdiGIKg.jpg", "release_date": "2013-01-01", "title": "Watercolor Postcards", "video": false, "vote_average": 6.7, "vote_count": 9, "popularity": 2.35}, {"adult": false, "backdrop_path": "/rkyZQedCsCLv10GW1UPqsZwZqIU.jpg", "genre_ids": [18, 10751, 53], "id": 482650, "original_language": "en", "original_title": "Cold November", "overview": "On the cusp of womanhood, 12-year-old Florence goes on her first deer hunt, a traditional rite-of- passage in her matriarchal family.", "poster_path": "/zbwYd2uujOJ4EGxt67Veg0E4Gde.jpg", "release_date": "2018-03-23", "title": "Cold November", "video": false, "vote_average": 6.9, "vote_count": 7, "popularity": 3.758}, {"adult": false, "backdrop_path": "/cCpxjjHUCoBJtwt0yPkVJnu6THg.jpg", "genre_ids": [53], "id": 524008, "original_language": "ru", "original_title": "The Chain", "overview": "When Mike finds out that he has he same neurological disease as his father, he decides to enter a chain of assisted suicides, which operates under one rule: if you want to die, you must kill someone first.", "poster_path": "/svDXf7TBrxf4dOXIRJWUbCxWYPv.jpg", "release_date": "2019-05-31", "title": "The Chain", "video": false, "vote_average": 6.0, "vote_count": 10, "popularity": 3.715}, {"adult": false, "backdrop_path": "/993h9NdPYRhVEyqbKM7tU60bsXq.jpg", "genre_ids": [35, 18], "id": 513568, "original_language": "en", "original_title": "Fishbowl California", "overview": "A man struggling to find purpose in life is enlightened by a drunk ailing widow.", "poster_path": "/oO6AWeWxaDvWmUfBtDBkj9ekgGy.jpg", "release_date": "2018-05-01", "title": "Fishbowl California", "video": false, "vote_average": 6.7, "vote_count": 11, "popularity": 4.268}, {"adult": false, "backdrop_path": "/iVwp3G9eaVofN2uPSOcP5kEw5eT.jpg", "genre_ids": [18, 35], "id": 274480, "original_language": "en", "original_title": "Among Ravens", "overview": "The story of a group of friends who reunite for their annual 4th of July weekend only to be confronted by Chad, a strange and beautiful nature photographer who begins to change their lives one by one.", "poster_path": "/6v976yjTa3Ppb2XjE8gzBBYJqax.jpg", "release_date": "2014-07-18", "title": "Among Ravens", "video": false, "vote_average": 5.4, "vote_count": 13, "popularity": 3.933}, {"adult": false, "backdrop_path": "/w6bL89ASEYXgivfXhZosLS3106o.jpg", "genre_ids": [18, 36, 10752], "id": 408483, "original_language": "fi", "original_title": "Ikitie", "overview": "Based on true events an epic story of one man's struggle for survival. Jussi Ketola, returns to Finland from the great depression struck America only to face growing political unrest. One summer night of 1930, nationalist thugs violently abduct Ketola from his home. Beaten and forced to walk the Eternal Road towards a foreign Soviet Russia, where cruelty seems to know no end, his only dream is to return to his family cost it what it may. Hope dies last.", "poster_path": "/mmbESGfcMAsS6MEI2Il966Ox1Xr.jpg", "release_date": "2017-09-15", "title": "The Eternal Road", "video": false, "vote_average": 7.5, "vote_count": 20, "popularity": 4.101}, {"adult": false, "backdrop_path": "/avY9OpKVnqTTYqmC3cp1YUcogFQ.jpg", "genre_ids": [18], "id": 115046, "original_language": "en", "original_title": "Black & White & Sex", "overview": "Prostitute. Hooker. Sex Worker. Whore. Candid and seductive, Angie is determined to set the record straight about sex. As she reveals herself, layer-by-layer, she also exposes the man who is interviewing her. Sometimes provocative and confronting, sometimes tender, poignant and sexy, Black &amp; White &amp; Sex takes you behind the scenes and into Angies very special world. There's a question here for every man and an answer for every woman. Anyone who pays is welcome - but leave your expectations at the door sex is never black and white. Written by Angie Winter", "poster_path": "/yPgBU01rwAEk1nCoJQUIlh781ud.jpg", "release_date": "2012-01-27", "title": "Black & White & Sex", "video": false, "vote_average": 6.1, "vote_count": 22, "popularity": 6.524}, {"adult": false, "backdrop_path": "/4X1N1Diiv1OsyvLuxAhzYmCTMCF.jpg", "genre_ids": [18, 53, 9648, 10749, 80], "id": 417809, "original_language": "en", "original_title": "Fatal Crossing", "overview": "When high-flying tech entrepreneur Carson Griffin believes himself guilty of killing a pedestrian while driving drunk, guilt and paranoia begin to unravel his life ahead of the launch of his new company as he plays a dangerous game of cat and mouse with June, the girlfriend of the deceased who is hell-bent on proving he is responsible.", "poster_path": "/nOuXSXTNX8x85wHky4Rphw4ry00.jpg", "release_date": "2017-11-19", "title": "Fatal Crossing", "video": false, "vote_average": 7.0, "vote_count": 3, "popularity": 3.021}, {"adult": false, "backdrop_path": "/poVt3f1dCG3J6UnczY9Otml7WvT.jpg", "genre_ids": [878], "id": 543140, "original_language": "en", "original_title": "The Capture", "overview": "A group of scientists perform an unethical experiment bending both space and time \u2013in the process they may have not only changed their lives but also the very fabric of the universe.", "poster_path": "/iVpoC6Kzg96S63rc1RWmNuV7DP3.jpg", "release_date": "2017-11-16", "title": "The Capture", "video": false, "vote_average": 6.4, "vote_count": 5, "popularity": 3.017}, {"id": 390059, "video": false, "vote_count": 81, "vote_average": 5.1, "title": "Permission", "release_date": "2018-02-09", "original_language": "en", "original_title": "Permission", "genre_ids": [35, 18, 10749], "backdrop_path": "/9XT13CpZWrnpcot8DCBupulkTVo.jpg", "adult": false, "overview": "A woman on the brink of a marriage proposal is told by a friend that she should date other men before spending the rest of her life with her boyfriend.", "poster_path": "/1YIGIS0Imzi5S2bbkjlQOhEJthS.jpg", "popularity": 7.845}, {"adult": false, "backdrop_path": "/aqaLrBJDT0CmpJvZWZ18LLJi32a.jpg", "genre_ids": [18, 36, 10402, 10749], "id": 42626, "original_language": "en", "original_title": "Isadora", "overview": "A biography of the dancer Isadora Duncan, the 1920s dancer who forever changed people's ideas of ballet. Her nude, semi-nude, and pro-Soviet dance projects as well as her attitudes on free love, debt, dress, and lifestyle shocked the public of her time.", "poster_path": "/iWrUIg85zNrbjt27FrKhTAdE9Wm.jpg", "release_date": "1968-09-14", "title": "Isadora", "video": false, "vote_average": 7.0, "vote_count": 14, "popularity": 3.859}, {"adult": false, "backdrop_path": "/7Q2oL7IqJYNJL7X4qcmFZolOk8K.jpg", "genre_ids": [35], "id": 373247, "original_language": "en", "original_title": "Down Under", "overview": "A black comedy set during the aftermath of the Cronulla riots, it is the story of two carloads of hotheads from both sides of the fight destined to collide.", "poster_path": "/iHhkhBSx3rcR5cmz41zOMYA0d9t.jpg", "release_date": "2016-08-11", "title": "Down Under", "video": false, "vote_average": 7.3, "vote_count": 13, "popularity": 3.238}, {"id": 524787, "video": false, "vote_count": 8, "vote_average": 5.2, "title": "The Russian Bride", "release_date": "2019-06-04", "original_language": "en", "original_title": "The Russian Bride", "genre_ids": [27, 53], "backdrop_path": "/Af1XwdR4l9XcljzhWZ1XZzoJY2N.jpg", "adult": false, "overview": "A Russian woman travels to America with her daughter to marry a reclusive billionaire, who turns out to be a psycho who sends their lives spiraling into a living hell.", "poster_path": "/45b2JGeU3PJTxlgdSOCSIYypdL3.jpg", "popularity": 5.261}, {"adult": false, "backdrop_path": "/mxA7R71misKEgz7kca9xC54YNIj.jpg", "genre_ids": [35, 18], "id": 191698, "original_language": "en", "original_title": "2 Jacks", "overview": "Jack Hussar is a legendary Hollywood director, whose persona commands respect and adoration from his fans. Can his son, Jack Jr. maintain his legacy?", "poster_path": "/q6EmDawN7SEcEjzLNZYojq6WEmd.jpg", "release_date": "2012-08-23", "title": "2 Jacks", "video": false, "vote_average": 5.9, "vote_count": 8, "popularity": 3.335}], "total_pages": 2, "total_results": 40}, "credits": {"cast": [{"cast_id": 4, "character": "Thomas Webb", "credit_id": "57fc3dc7c3a3681b45001f60", "gender": 2, "id": 1371041, "name": "Callum Turner", "order": 0, "profile_path": "/lv52BMOn2LOgR3ZkUinsv96ip5j.jpg"}, {"cast_id": 8, "character": "W.F. Gerald", "credit_id": "57fc3df092514119010022ea", "gender": 2, "id": 1229, "name": "Jeff Bridges", "order": 1, "profile_path": "/xms1RAY6q7Lzp7wNeRCB0kzhucn.jpg"}, {"cast_id": 5, "character": "Johanna", "credit_id": "57fc3dcfc3a3683a8f00d8cc", "gender": 1, "id": 3967, "name": "Kate Beckinsale", "order": 2, "profile_path": "/jlleQafwnW1j0mvxJLiqnNL2mYh.jpg"}, {"cast_id": 7, "character": "Ethan Webb", "credit_id": "57fc3de192514118710021e0", "gender": 2, "id": 517, "name": "Pierce Brosnan", "order": 3, "profile_path": "/1JXL0zrA26JjdoX8sqf57fJRDVM.jpg"}, {"cast_id": 10, "character": "Judith Webb", "credit_id": "594842e09251413ff4046921", "gender": 1, "id": 38024, "name": "Cynthia Nixon", "order": 4, "profile_path": "/nxOBg8AJ2kYLsGpTiDtwOT36uwE.jpg"}, {"cast_id": 6, "character": "Mimi Pastori", "credit_id": "57fc3ddac3a368440f003a79", "gender": 1, "id": 1253355, "name": "Kiersey Clemons", "order": 5, "profile_path": "/sOXELJHizB1cK0OzWRubGGg4l8S.jpg"}, {"cast_id": 14, "character": "George", "credit_id": "59d99ff4925141251f03739e", "gender": 2, "id": 15455, "name": "Tate Donovan", "order": 6, "profile_path": "/ioIZ55gaw9u7NIwmHYqIIIT7ksw.jpg"}, {"cast_id": 13, "character": "David", "credit_id": "599a8c5bc3a3683964010dbb", "gender": 2, "id": 12900, "name": "Wallace Shawn", "order": 7, "profile_path": "/oGE6JqPP2xH4tNORKNqxbNPYi7u.jpg"}, {"cast_id": 15, "character": "Barbara", "credit_id": "59d9a004c3a368623e03541f", "gender": 1, "id": 1137641, "name": "Anh Duong", "order": 8, "profile_path": "/5FDSxDmS6vJypjiDAdaYALPtK28.jpg"}, {"cast_id": 11, "character": "Anna", "credit_id": "594842fac3a368170f048970", "gender": 1, "id": 5578, "name": "Debi Mazar", "order": 9, "profile_path": "/8i1RkV4iIvTh6BXOgclylwZehEk.jpg"}, {"cast_id": 12, "character": "Ari", "credit_id": "59484313c3a36816e40454ca", "gender": 0, "id": 1474145, "name": "Ben Hollandsworth", "order": 10, "profile_path": null}, {"cast_id": 16, "character": "Irwin Sanders", "credit_id": "59d9a02292514124cd0369f0", "gender": 2, "id": 91831, "name": "John Bolger", "order": 11, "profile_path": null}, {"cast_id": 17, "character": "Uncle Buster", "credit_id": "59d9a07ac3a36861ec036065", "gender": 2, "id": 121718, "name": "Bill Camp", "order": 12, "profile_path": "/yNUJsgkJcJXi5CK3Pk77DmUU8G8.jpg"}, {"cast_id": 18, "character": "SoHo Patron/Woman on Subway", "credit_id": "5d2c93b5caab6d208695b790", "gender": 1, "id": 1653352, "name": "Faith Logan", "order": 13, "profile_path": "/c9sZ4TGDSIRQPEIGqUG23odJriS.jpg"}], "crew": [{"credit_id": "52fe498c9251416c750cb92b", "department": "Writing", "gender": 0, "id": 34050, "job": "Writer", "name": "Allan Loeb", "profile_path": "/IIDbXoCsge6tcHUwXOQjmpShcx.jpg"}, {"credit_id": "57fc3db19251415583003ae9", "department": "Directing", "gender": 2, "id": 87742, "job": "Director", "name": "Marc Webb", "profile_path": "/7uFlVK5BDTjk6IK9iBCmfrdaAs6.jpg"}]}}