{"adult": false, "backdrop_path": "/doQXzq3AmKevliPbU3um9YKESQT.jpg", "belongs_to_collection": null, "budget": 0, "genres": [{"id": 99, "name": "Documentary"}], "homepage": "http://www.brooklyncastle.com/", "id": 95808, "imdb_id": "tt1800266", "original_language": "en", "original_title": "Brooklyn Castle", "overview": "Brooklyn Castle is a documentary about I.S. 318 \u2013 an inner-city school where more than 65 percent of students are from homes with incomes below the federal poverty level \u2013 that also happens to have the best, most winning junior high school chess team in the country. (If Albert Einstein, who was rated 1800, were to join the team, he\u2019d only rank fifth best.) Chess has transformed the school from one cited in 2003 as a \u201cschool in need of improvement\u201d to one of New York City\u2019s best. But a series of recession-driven public school budget cuts now threaten to undermine those hard-won successes.", "popularity": 4.256, "poster_path": "/oVAgwODMnrAVEUDAYKs7Uz4F5fb.jpg", "production_companies": [{"id": 72757, "logo_path": null, "name": "Rescued Media", "origin_country": ""}], "production_countries": [{"iso_3166_1": "US", "name": "United States of America"}], "release_date": "2012-10-19", "revenue": 0, "runtime": 101, "spoken_languages": [{"iso_639_1": "en", "name": "English"}], "status": "Released", "tagline": "Imagine a school where the cool kids are the chess team. Welcome to I.S. 318", "title": "Brooklyn Castle", "video": false, "vote_average": 7.3, "vote_count": 12, "keywords": {"keywords": [{"id": 271, "name": "competition"}, {"id": 316, "name": "chess"}, {"id": 6278, "name": "scholarship"}, {"id": 12969, "name": "chess tournament"}, {"id": 158671, "name": "public school"}, {"id": 161155, "name": "kids"}, {"id": 161580, "name": "chess grandmaster"}, {"id": 187056, "name": "woman director"}]}, "similar": {"page": 1, "results": [{"adult": false, "backdrop_path": "/u23AswVE0zeHADnJZyLQaMquSfM.jpg", "genre_ids": [99, 10751], "id": 14358, "original_language": "en", "original_title": "Mad Hot Ballroom", "overview": "Eleven-year-old New York City public school kids journey into the world of ballroom dancing and reveal pieces of themselves and their world along the way. Told from their candid, sometimes hilarious perspectives, these kids are transformed, from reluctant participants to determined competitors, from typical urban kids to \"ladies and gentlemen,\" on their way to try to compete in the final citywide.", "poster_path": "/cVnBICXmyqlusz1iYvjvIOHxo5U.jpg", "release_date": "2005-05-13", "title": "Mad Hot Ballroom", "video": false, "vote_average": 7.0, "vote_count": 14, "popularity": 19.356}, {"id": 616584, "video": false, "vote_count": 92, "vote_average": 7.5, "title": "K-12", "release_date": "2019-09-05", "original_language": "en", "original_title": "K-12", "genre_ids": [14, 27, 10402], "backdrop_path": "/fSlfaF0Ydfr2SK6hOYHvDsb7a9Z.jpg", "adult": false, "overview": "Cry Baby, a strong and sensitive girl, is sent off to a disturbing sleepaway school that\u2019s hidden underneath a grandiose fa\u00e7ade. Luckily, she has a sweet and unapologetic best friend who sticks up for her when she gets bullied by the other students whose brains are under control by the Principal and his wicked staff. With the help of the magical friends they meet along the way, as well as an Angelic Spirit Guide, they are able to gain the strength they need to fight off the school\u2019s belligerent patriarchal conditioning.", "poster_path": "/nVi0yBBPj5Z96JgGWVIg94kv7bR.jpg", "popularity": 18.105}, {"id": 9813, "video": false, "vote_count": 128, "vote_average": 6.1, "title": "The Quiet", "release_date": "2005-09-12", "original_language": "en", "original_title": "The Quiet", "genre_ids": [18, 53], "backdrop_path": "/6eyWAZA4CEidZW1xXnQ4vlYBXTP.jpg", "adult": false, "overview": "After her widowed father dies, deaf teenager Dot moves in with her godparents, Olivia and Paul Deer. The Deers' daughter, Nina, is openly hostile to Dot, but that does not prevent her from telling her secrets to her silent stepsister, including the fact that she wants to kill her lecherous father.", "poster_path": "/GEqIE9YlmygHVUfS64LW2cwAAM.jpg", "popularity": 13.948}, {"adult": false, "backdrop_path": "/6bnI08rrGXRkngRqJWCMXDZuJ1j.jpg", "genre_ids": [35, 10402], "id": 254470, "original_language": "en", "original_title": "Pitch Perfect 2", "overview": "The Bellas are back, and they are better than ever. After being humiliated in front of none other than the President of the United States of America, the Bellas are taken out of the Aca-Circuit. In order to clear their name, and regain their status, the Bellas take on a seemingly impossible task: winning an international competition no American team has ever won. In order to accomplish this monumental task, they need to strengthen the bonds of friendship and sisterhood and blow away the competition with their amazing aca-magic! With all new friends and old rivals tagging along for the trip, the Bellas can hopefully accomplish their dreams.", "poster_path": "/qSjruLiFB4uqRtz2xheQPxG8uaB.jpg", "release_date": "2015-05-07", "title": "Pitch Perfect 2", "video": false, "vote_average": 6.8, "vote_count": 3898, "popularity": 27.354}, {"id": 326359, "video": false, "vote_count": 1179, "vote_average": 6.8, "title": "Frozen Fever", "release_date": "2015-03-09", "original_language": "en", "original_title": "Frozen Fever", "genre_ids": [12, 16, 10751], "backdrop_path": "/ubioPGniCfDiASmYYpeJs5RRNaC.jpg", "adult": false, "overview": "On Anna's birthday, Elsa and Kristoff are determined to give her the best celebration ever, but Elsa's icy powers may put more than just the party at risk.", "poster_path": "/lKJiVPzsAO9IJ4LKWXZ8vkR2bg4.jpg", "popularity": 17.061}, {"id": 297762, "video": false, "vote_count": 13717, "vote_average": 7.3, "title": "Wonder Woman", "release_date": "2017-05-30", "original_language": "en", "original_title": "Wonder Woman", "genre_ids": [28, 12, 14], "backdrop_path": "/6iUNJZymJBMXXriQyFZfLAKnjO6.jpg", "adult": false, "overview": "An Amazon princess comes to the world of Man in the grips of the First World War to confront the forces of evil and bring an end to human conflict.", "poster_path": "/gfJGlDaHuWimErCr5Ql0I8x9QSy.jpg", "popularity": 41.8}, {"adult": false, "backdrop_path": "/ePqwTIoJeKJwShMABMst5duBcw9.jpg", "genre_ids": [35, 10402, 10749], "id": 114150, "original_language": "en", "original_title": "Pitch Perfect", "overview": "College student Beca knows she does not want to be part of a clique, but that's exactly where she finds herself after arriving at her new school. Thrust in among mean gals, nice gals and just plain weird gals, Beca finds that the only thing they have in common is how well they sing together. She takes the women of the group out of their comfort zone of traditional arrangements and into a world of amazing harmonic combinations in a fight to the top of college music competitions.", "poster_path": "/cLUMPdwCV0Dxd3P1ZkCXe7bVImI.jpg", "release_date": "2012-09-28", "title": "Pitch Perfect", "video": false, "vote_average": 7.3, "vote_count": 4621, "popularity": 21.153}, {"adult": false, "backdrop_path": "/gRY30dvyLhydkblpE0v3NiXt0Nj.jpg", "genre_ids": [35, 10749], "id": 6557, "original_language": "en", "original_title": "27 Dresses", "overview": "Altruistic Jane finds herself facing her worst nightmare as her younger sister announces her engagement to the man Jane secretly adores.", "poster_path": "/zzJtHNzi1D4CPwRlPHV1TRQNXD2.jpg", "release_date": "2008-01-10", "title": "27 Dresses", "video": false, "vote_average": 6.3, "vote_count": 2136, "popularity": 10.851}, {"adult": false, "backdrop_path": "/pBgGl3GfVxs84T7ZniUAz5FMMNx.jpg", "genre_ids": [35, 10751, 12, 14, 10749], "id": 11451, "original_language": "en", "original_title": "Herbie Fully Loaded", "overview": "Maggie Peyton, the new owner of Number 53 - the free-wheelin' Volkswagen bug with a mind of its own - puts the car through its paces on the road to becoming a NASCAR competitor.", "poster_path": "/7lTfTZ8CDfXw09eAv3OOvsbCVgs.jpg", "release_date": "2005-06-22", "title": "Herbie Fully Loaded", "video": false, "vote_average": 5.3, "vote_count": 1347, "popularity": 16.927}, {"adult": false, "backdrop_path": "/rf6G51j0SZL0tP57I8gnqHTRFEr.jpg", "genre_ids": [35, 18, 10749], "id": 273153, "original_language": "fr", "original_title": "La belle saison", "overview": "In 1971, Carole and Delphine meet and fall in love in Paris. When Carole follows Delphine back to her family farm in Limousin, the two find lesbianism and feminism are not as easy in the countryside.", "poster_path": "/evvAkNMO5VJiy5qIo1Hu7fUfvVI.jpg", "release_date": "2015-08-19", "title": "Summertime", "video": false, "vote_average": 6.6, "vote_count": 162, "popularity": 15.434}, {"adult": false, "backdrop_path": "/cADbqsIoiDW7X3Myg9nz8eAuno5.jpg", "genre_ids": [18, 10749], "id": 10818, "original_language": "fr", "original_title": "Naissance des pieuvres", "overview": "Set during a sultry summer in a French suburb, Marie is desperate to join the local pool's synchronized swimming team, but is her interest solely for the sake of sport or for a chance to get close to Floriane, the bad girl of the team? Sciamma, and the two leads, capture the uncertainty of teenage sexuality with a sympathetic eye in this delicate drama of the angst of coming-of-age.", "poster_path": "/4jajELYrR4Xmv3CVoKnukRnALa2.jpg", "release_date": "2007-05-17", "title": "Water Lilies", "video": false, "vote_average": 6.1, "vote_count": 119, "popularity": 10.744}, {"adult": false, "backdrop_path": "/fZ8oFcREAr6wgWcXISGql0xyxjB.jpg", "genre_ids": [35, 18], "id": 39781, "original_language": "en", "original_title": "The Kids Are All Right", "overview": "Two women, Nic and Jules, brought a son and daughter into the world through artificial insemination. When one of their children reaches age, both kids go behind their mothers' backs to meet with the donor. Life becomes so much more interesting when the father, two mothers and children start to become attached to each other.", "poster_path": "/fPDeK4MmoGfi2X0oWZev7LrbMqM.jpg", "release_date": "2010-07-09", "title": "The Kids Are All Right", "video": false, "vote_average": 6.6, "vote_count": 923, "popularity": 12.703}, {"id": 4688, "video": false, "vote_count": 868, "vote_average": 7.2, "title": "Across the Universe", "release_date": "2007-09-14", "original_language": "en", "original_title": "Across the Universe", "genre_ids": [18, 14, 10749], "backdrop_path": "/1ZdfkJiul04VyAcN9WHqawMPlz6.jpg", "adult": false, "overview": "When young dockworker Jude leaves Liverpool to find his estranged father in America, he is swept up by the waves of change that are re-shaping the nation. Jude falls in love with Lucy, a rich but sheltered American girl who joins the growing anti-war movement in New York's Greenwich Village. As the body count in Vietnam rises, political tensions at home spiral out of control and the star-crossed lovers find themselves in a psychedelic world gone mad.", "poster_path": "/447c8Te3DXC46rQvDEixKGO4dS6.jpg", "popularity": 11.297}, {"adult": false, "backdrop_path": "/nriBinb7Y3Bm6LdbmOC0mFxSm8d.jpg", "genre_ids": [80, 18], "id": 226, "original_language": "en", "original_title": "Boys Don't Cry", "overview": "Female born, Teena Brandon adopts his male identity of Brandon Teena and attempts to find himself and love in Nebraska.", "poster_path": "/6bqIZTEuJnUrgnxcymciszvOz8J.jpg", "release_date": "1999-09-02", "title": "Boys Don't Cry", "video": false, "vote_average": 7.5, "vote_count": 718, "popularity": 12.137}, {"adult": false, "backdrop_path": "/4rHlXwRldJZDfdQhaOfNbWwwG11.jpg", "genre_ids": [18, 10402], "id": 10560, "original_language": "en", "original_title": "Center Stage", "overview": "A group of 12 teenagers from various backgrounds enroll at the American Ballet Academy in New York to make it as ballet dancers and each one deals with the problems and stress of training and getting ahead in the world of dance.", "poster_path": "/hCR9r2hE0woymx62pymQ0Bs4mk7.jpg", "release_date": "2000-05-12", "title": "Center Stage", "video": false, "vote_average": 6.9, "vote_count": 195, "popularity": 13.175}, {"adult": false, "backdrop_path": "/24JDK9dRRRzkBjHBsKQIGs7sBkj.jpg", "genre_ids": [53, 18], "id": 303858, "original_language": "en", "original_title": "Money Monster", "overview": "Financial TV host Lee Gates and his producer Patty are put in an extreme situation when an irate investor takes over their studio.", "poster_path": "/p7KDmC2beuKCCMO49L767OgwLQr.jpg", "release_date": "2016-05-12", "title": "Money Monster", "video": false, "vote_average": 6.4, "vote_count": 2031, "popularity": 13.066}, {"id": 317557, "video": false, "vote_count": 250, "vote_average": 7.1, "title": "Queen of Katwe", "release_date": "2016-09-23", "original_language": "en", "original_title": "Queen of Katwe", "genre_ids": [18], "backdrop_path": "/awZwLXuPAGZEARF3y18S3qWt5LH.jpg", "adult": false, "overview": "A young girl overcomes her disadvantaged upbringing in the slums of Uganda to become a Chess master.", "poster_path": "/8nIIoHuV1c8orDNCyTcHuDhoc4q.jpg", "popularity": 9.081}, {"id": 71688, "video": false, "vote_count": 1019, "vote_average": 6.4, "title": "The Iron Lady", "release_date": "2011-12-30", "original_language": "en", "original_title": "The Iron Lady", "genre_ids": [18, 36], "backdrop_path": "/dfM5XwQcw36HAnKhowEh5776MJl.jpg", "adult": false, "overview": "A look at the life of Margaret Thatcher, the former Prime Minister of the United Kingdom, with a focus on the price she paid for power.", "poster_path": "/e67tal4u66eFz8yGnJGTO5FYRxY.jpg", "popularity": 12.227}, {"id": 132, "video": false, "vote_count": 71, "vote_average": 7.6, "title": "Gimme Shelter", "release_date": "1970-12-06", "original_language": "en", "original_title": "Gimme Shelter", "genre_ids": [99, 10402], "backdrop_path": "/k74ezjZNmap2FpkxuO85NnWmcn.jpg", "adult": false, "overview": "The landmark documentary about the tragically ill-fated Rolling Stones free concert at Altamont Speedway on December 6, 1969. Only four months earlier, Woodstock defined the Love Generation; now it lay in ruins on a desolate racetrack six miles outside of San Francisco.", "poster_path": "/9cQ6TLG89Yv2EMKuxgLRvgLq5nK.jpg", "popularity": 6.261}, {"adult": false, "backdrop_path": "/dXQdfVXUOrGhby6yTk9yZEDKhhg.jpg", "genre_ids": [18], "id": 65229, "original_language": "fr", "original_title": "Tomboy", "overview": "A French family with two daughters, 10-year-old Laure and 6-year-old Jeanne, moves to a new neighborhood during the summer holidays. With her tomboy ways, Laure is immediately mistaken for a boy by the local kids and passes herself off as Micka\u00ebl.", "poster_path": "/q4bl7q32VmqWMPl5WWfCdu2UFSw.jpg", "release_date": "2011-04-20", "title": "Tomboy", "video": false, "vote_average": 7.2, "vote_count": 339, "popularity": 7.808}], "total_pages": 63, "total_results": 1251}, "recommendations": {"page": 1, "results": [{"adult": false, "backdrop_path": "/xZS4Xk7tIQbmzDUL2PeYyLp99bJ.jpg", "genre_ids": [99], "id": 189747, "original_language": "en", "original_title": "Free the Mind", "overview": "Brain scientist Professor Richard Davidson sets up his mind to conduct an unusual experiment: He will teach American war veterans and children meditation and yoga. Can veterans through meditation and yoga ease their pain and nervous system, find happiness and be more peaceful and get back to a life more like the one they had before the war?", "poster_path": "/va6UROu6SoWw8N0VYdnzpOhRxjL.jpg", "release_date": "2013-05-03", "title": "Free the Mind", "video": false, "vote_average": 6.9, "vote_count": 4, "popularity": 1.327}, {"adult": false, "backdrop_path": "/dsHNu3KPlHzHkJw7v6XkAk3vUF2.jpg", "genre_ids": [99], "id": 277582, "original_language": "en", "original_title": "Monk With a Camera", "overview": "Nicholas Vreeland walked away from a worldly life of privilege to become a Tibetan Buddhist monk. Grandson of legendary Vogue editor, Diana Vreeland, and trained by Irving Penn to become a photographer, Nicholas' life changed drastically upon meeting a Tibetan master, one of the teachers of the Dalai Lama. Soon thereafter, he gave up his glamorous life to live in a monastery in India, where he studied Buddhism for fourteen years. In an ironic twist of fate, Nicholas went back to photography to help his fellow monks rebuild their monastery. Recently, the Dalai Lama appointed Nicholas as Abbot of the monastery, making him the first Westerner in Tibetan Buddhist history, to attain such a highly regarded position.", "poster_path": "/2fU0ZE9IUPzP1autDA85E0Quz0T.jpg", "release_date": "2014-03-24", "title": "Monk With a Camera", "video": false, "vote_average": 7.9, "vote_count": 6, "popularity": 1.626}, {"adult": false, "backdrop_path": "/fXs7wQOVmEhQLr7vxNJokHsRtOd.jpg", "genre_ids": [35], "id": 434234, "original_language": "en", "original_title": "Hickey", "overview": "Brilliant but insecure, young Ryan has 24 hours to save the store he hates in order to win the heart of the girl he loves.", "poster_path": "/hMDfl03yLFLS4GXCJcBLlMKzrVT.jpg", "release_date": "2017-01-10", "title": "Hickey", "video": false, "vote_average": 4.0, "vote_count": 7, "popularity": 2.881}, {"adult": false, "backdrop_path": "/Ai6fPQkh7bUfdhiAiQjbFmiMub8.jpg", "genre_ids": [99], "id": 455151, "original_language": "en", "original_title": "The Future of Work and Death", "overview": "In this provocative documentary, worldwide experts in the fields of futurology, anthropology, neuroscience and philosophy consider the impact of technological advances on the two certainties of human life: work and death. Charting human developments from early man, past the Industrial Revolution, to the digital age and beyond, THE FUTURE OF WORK AND DEATH looks at the astonishing exponential rate at which mankind creates technologies to ease the process of living. As we embark on the next phase of our 'advancement' with automation and artificial intelligence driving the transformation from man to machine, the film gives a shockingly realistic look into the future of human life.", "poster_path": "/3W1DqMnh93sl1sSI3fW4455AwI2.jpg", "release_date": "2016-09-25", "title": "The Future of Work and Death", "video": false, "vote_average": 6.0, "vote_count": 4, "popularity": 2.826}, {"adult": false, "backdrop_path": "/nKiDJjhE1tZlo4AwP3xoenbzChQ.jpg", "genre_ids": [99], "id": 221800, "original_language": "en", "original_title": "Money for Nothing: Inside the Federal Reserve", "overview": "Nearly 100 years after its creation, the power of the U.S. Federal Reserve has never been greater. Markets and governments around the world hold their breath in anticipation of the Fed Chairman's every word. Yet the average person knows very little about the most powerful - and least understood - financial institution on earth. Narrated by Liev Schreiber, Money For Nothing is the first film to take viewers inside the Fed and reveal the impact of Fed policies - past, present, and future - on our lives. Join current and former Fed officials as they debate the critics, and each other, about the decisions that helped lead the global financial system to the brink of collapse in 2008. And why we might be headed there again.", "poster_path": "/l7wQk4uYOSLGYeLh3USAXxECrrm.jpg", "release_date": "2013-09-06", "title": "Money for Nothing: Inside the Federal Reserve", "video": false, "vote_average": 7.2, "vote_count": 9, "popularity": 4.466}, {"adult": false, "backdrop_path": "/2cuscmcWVQkjn5EBZdcepFbIOJX.jpg", "genre_ids": [18], "id": 127495, "original_language": "en", "original_title": "Graceland", "overview": "When a kidnapping goes wrong, a desperate father risks everything to save his daughter from the men who hold her captive.", "poster_path": "/8I1IakaKujeC4ThhFbIEpxpqn4C.jpg", "release_date": "2012-04-20", "title": "Graceland", "video": false, "vote_average": 6.2, "vote_count": 21, "popularity": 2.373}, {"adult": false, "backdrop_path": "/flhrlqUgbXkPYKzad7on9DeOdp2.jpg", "genre_ids": [18, 53], "id": 174344, "original_language": "en", "original_title": "Whitewash", "overview": "In the harsh, wintry woods of rural Quebec, Bruce (Thomas Haden Church), a down-on-his-luck snowplow operator, accidentally kills a man during a drunken night joyride. Stricken with panic, he hides the body and takes to the deep wilderness in hopes of outrunning both the authorities and his own conscience. But as both begin to close in, Bruce falls apart mentally and morally and mysteries unravel to reveal who he was before the accident, the truth behind his victim, and the circumstances that brought them together in a single moment.", "poster_path": "/aHMpTV0mX6zkjYr3HpdO2lK6vXD.jpg", "release_date": "2013-04-19", "title": "Whitewash", "video": false, "vote_average": 6.4, "vote_count": 14, "popularity": 3.434}, {"adult": false, "backdrop_path": "/s8Kg3og2fK3c3VNRX99lbb8TpW4.jpg", "genre_ids": [99], "id": 174352, "original_language": "en", "original_title": "Let the Fire Burn", "overview": "Jason Osder makes an impressive feature film debut through his unbiased and thorough account of the incidents leading up to and during the 1985 standoff between the extremist African-American organization MOVE and Philadelphia authorities. The dramatic clash claimed eleven lives and literally and figuratively devastated an entire community. Let the Fire Burn is a real-life Wild West story absent the luxury of identifying its heroes by the color of their hats.", "poster_path": "/v2QCsdQRFYPdrgGlWhpkAnZT8kq.jpg", "release_date": "2013-10-02", "title": "Let the Fire Burn", "video": false, "vote_average": 7.5, "vote_count": 11, "popularity": 3.771}, {"adult": false, "backdrop_path": "/r0MnA2AqIAUqAkWfsy2ZHsnMXFh.jpg", "genre_ids": [99], "id": 426546, "original_language": "en", "original_title": "Food Evolution", "overview": "As society tackles the problem of feeding our expanding population safely and sustainably, a schism has arisen between scientists and consumers, motivated by fear and distrust. Food Evolution, narrated by Neil deGrasse Tyson, explores the polarized debate surrounding GMOs. Looking at the real-world application of food science in the past and present, the film argues for sound science and open-mindedness in a culture that increasingly shows resistance to both.", "poster_path": "/gmQT2qvsRM1NUvVB8GfaBDoO88C.jpg", "release_date": "2017-06-23", "title": "Food Evolution", "video": false, "vote_average": 7.1, "vote_count": 7, "popularity": 2.835}, {"adult": false, "backdrop_path": "/sSB4gJJbrIffGKXe9Sx8dAIZVDh.jpg", "genre_ids": [99], "id": 292539, "original_language": "de", "original_title": "Food Chains", "overview": "", "poster_path": "/xVRQr6k68ne4ROUWsVd8WgS3vKC.jpg", "release_date": "2014-04-26", "title": "Food Chains", "video": false, "vote_average": 7.2, "vote_count": 10, "popularity": 1.5}, {"adult": false, "backdrop_path": "/ieWzXfEx3AU9QANrGkbqeXgLeNH.jpg", "genre_ids": [99], "id": 174349, "original_language": "en", "original_title": "Big Men", "overview": "For her latest industrial expos\u00e9, Rachel Boynton (Our Brand Is Crisis) gained unprecedented access to Africa's oil companies. The result is a gripping account of the costly personal tolls levied when American corporate interests pursue oil in places like Ghana and the Niger River Delta. Executive produced by Steven Shainberg and Brad Pitt, Big Men investigates the caustic blend of ambition, corruption and greed that threatens to exacerbate Africa\u2019s resource curse.", "poster_path": "/q5uKDMl1PXIeMoD10CTbXST7XoN.jpg", "release_date": "2014-03-14", "title": "Big Men", "video": false, "vote_average": 7.4, "vote_count": 12, "popularity": 2.621}], "total_pages": 1, "total_results": 11}, "credits": {"cast": [{"cast_id": 1013, "character": "Himself", "credit_id": "56b16b31c3a3687e18000dac", "gender": 0, "id": 1571866, "name": "John Galvin", "order": 2, "profile_path": null}, {"cast_id": 1014, "character": "Herself", "credit_id": "56b16b5cc3a36862090019df", "gender": 0, "id": 1571867, "name": "Elizabeth Vicary", "order": 3, "profile_path": null}, {"cast_id": 1015, "character": "Herself", "credit_id": "56b16b8fc3a368621b001a3b", "gender": 0, "id": 1571868, "name": "Rochelle Ballantyne", "order": 4, "profile_path": null}, {"cast_id": 1016, "character": "Himself", "credit_id": "56b16bcc9251412645000ecf", "gender": 0, "id": 1571869, "name": "Pobo Efekoro", "order": 5, "profile_path": null}, {"cast_id": 1017, "character": "Himself", "credit_id": "56b16c29c3a3686221001a8a", "gender": 0, "id": 1571870, "name": "Justus Williams", "order": 6, "profile_path": null}, {"cast_id": 1018, "character": "Himself", "credit_id": "56b16dcc92514126cc000ea7", "gender": 0, "id": 1571871, "name": "Alex Stripunsky", "order": 7, "profile_path": null}, {"cast_id": 1019, "character": "Himself", "credit_id": "56b16eb2c3a3686209001aa0", "gender": 0, "id": 1571872, "name": "James Stallings", "order": 8, "profile_path": null}, {"cast_id": 1020, "character": "Himself", "credit_id": "56b16ee79251411d67000f9f", "gender": 0, "id": 1571873, "name": "Maurice Ashley", "order": 9, "profile_path": null}, {"cast_id": 1021, "character": "Himself", "credit_id": "56b16f259251412645000f6e", "gender": 0, "id": 1571874, "name": "Alexis Paredes", "order": 10, "profile_path": null}, {"cast_id": 1022, "character": "Himself", "credit_id": "56b1703b925141268a000f5c", "gender": 0, "id": 1571879, "name": "Miron Sher", "order": 11, "profile_path": null}, {"cast_id": 1023, "character": "Himself", "credit_id": "56b170c7c3a3687e36000f9c", "gender": 0, "id": 1571881, "name": "Patrick Johnston", "order": 12, "profile_path": null}, {"cast_id": 1024, "character": "Himself", "credit_id": "56b1723892514126ba001058", "gender": 0, "id": 1571883, "name": "Fortunato Rubio", "order": 13, "profile_path": null}, {"cast_id": 1025, "character": "Himself", "credit_id": "56b174cbc3a3686221001c04", "gender": 0, "id": 1571884, "name": "James Black, Jr", "order": 14, "profile_path": null}], "crew": [{"credit_id": "52fe49959251416c750ccc87", "department": "Directing", "gender": 1, "id": 1039538, "job": "Director", "name": "Katie Dellamaggiore", "profile_path": null}, {"credit_id": "56b16816c3a3687e18000cef", "department": "Production", "gender": 1, "id": 1039538, "job": "Producer", "name": "Katie Dellamaggiore", "profile_path": null}, {"credit_id": "56b1682b9251412645000dfd", "department": "Production", "gender": 0, "id": 1571854, "job": "Producer", "name": "Nelson Dellamaggiore", "profile_path": null}, {"credit_id": "56b1685c925141268a000dc9", "department": "Production", "gender": 0, "id": 1571856, "job": "Executive Producer", "name": "Geoff Gibson", "profile_path": null}, {"credit_id": "56b16872c3a3686294000367", "department": "Production", "gender": 0, "id": 1571857, "job": "Executive Producer", "name": "Robert McLellan", "profile_path": null}, {"credit_id": "56b1689fc3a368621b00198b", "department": "Camera", "gender": 0, "id": 1018968, "job": "Director of Photography", "name": "Brian Schulz", "profile_path": null}, {"credit_id": "56b168c3c3a368629400037d", "department": "Production", "gender": 0, "id": 1018968, "job": "Producer", "name": "Brian Schulz", "profile_path": null}, {"credit_id": "56b16908925141268a000df4", "department": "Sound", "gender": 0, "id": 1571862, "job": "Original Music Composer", "name": "B. Satz", "profile_path": null}, {"credit_id": "56b1692dc3a368621b0019bb", "department": "Editing", "gender": 0, "id": 1571854, "job": "Editor", "name": "Nelson Dellamaggiore", "profile_path": null}, {"credit_id": "56b169dac3a3686221001a12", "department": "Art", "gender": 1, "id": 1002581, "job": "Art Direction", "name": "Katherine Kennedy", "profile_path": null}]}}