{"adult": false, "backdrop_path": "/oB7iCLR5u2SG4FzYEZruxTvMLaX.jpg", "belongs_to_collection": null, "budget": 0, "genres": [{"id": 37, "name": "Western"}], "homepage": null, "id": 96089, "imdb_id": "tt0058167", "original_language": "en", "original_title": "Guns of Diablo", "overview": "Bronson and Russell are up against some bad guys who run the town to which the pair have gone for supplies. Bronson runs into an old girl friend, Oliver, who is now married to his enemy Merlin. Bronson had long ago broken Merlin's arm, and now the man wants revenge.", "popularity": 3.951, "poster_path": "/rCMbw5LyS3xdGVtgj6UevU5A3fj.jpg", "production_companies": [{"id": 21, "logo_path": "/mjofSXiHpG5t6KYmU4l4FrUhT7m.png", "name": "Metro-Goldwyn-Mayer", "origin_country": "US"}], "production_countries": [{"iso_3166_1": "US", "name": "United States of America"}], "release_date": "1965-01-29", "revenue": 0, "runtime": 91, "spoken_languages": [{"iso_639_1": "en", "name": "English"}], "status": "Released", "tagline": "", "title": "Guns of Diablo", "video": false, "vote_average": 4.8, "vote_count": 4, "keywords": {"keywords": [{"id": 797, "name": "showdown"}, {"id": 10950, "name": "shootout"}]}, "similar": {"page": 1, "results": [{"adult": false, "backdrop_path": "/2p5rA1NRoyyAFfzdHl1Ab1RN3qr.jpg", "genre_ids": [80, 28, 878], "id": 9739, "original_language": "en", "original_title": "Demolition Man", "overview": "Simon Phoenix, a violent criminal cryogenically frozen in 1996, escapes during a parole hearing in 2032 in the utopia of San Angeles. Police are incapable of dealing with his violent ways and turn to his captor, who had also been cryogenically frozen after being wrongfully accused of killing 30 innocent people while apprehending Phoenix.", "poster_path": "/k0PN3Ho12cGGIVJW7SCS7apLYaP.jpg", "release_date": "1993-10-08", "title": "Demolition Man", "video": false, "vote_average": 6.5, "vote_count": 1913, "popularity": 16.803}, {"adult": false, "backdrop_path": "/e1svWjxTXMOmdgkVLSPHSfWv90R.jpg", "genre_ids": [28, 18, 53], "id": 2502, "original_language": "en", "original_title": "The Bourne Supremacy", "overview": "When a CIA operation to purchase classified Russian documents is blown by a rival agent, who then shows up in the sleepy seaside village where Bourne and Marie have been living. The pair run for their lives and Bourne, who promised retaliation should anyone from his former life attempt contact, is forced to once again take up his life as a trained assassin to survive.", "poster_path": "/jXwZgmqOtsqsXuB9oGhocOAegCM.jpg", "release_date": "2004-07-23", "title": "The Bourne Supremacy", "video": false, "vote_average": 7.3, "vote_count": 4750, "popularity": 17.814}, {"id": 288, "video": false, "vote_count": 710, "vote_average": 7.7, "title": "High Noon", "release_date": "1952-03-27", "original_language": "en", "original_title": "High Noon", "genre_ids": [37], "backdrop_path": "/6AH0BpiEaLz3NMTaBhqgHdA4YJ6.jpg", "adult": false, "overview": "Will Kane, the sheriff of a small town in New Mexico, learns a notorious outlaw he put in jail has been freed, and will be arriving on the noon train. Knowing the outlaw and his gang are coming to kill him, Kane is determined to stand his ground, so he gathers a posse from among the local townspeople.", "poster_path": "/nUSLv12qQWhHB60PqXDBRP1wmJa.jpg", "popularity": 13.26}, {"id": 306, "video": false, "vote_count": 909, "vote_average": 5.8, "title": "Beverly Hills Cop III", "release_date": "1994-05-24", "original_language": "en", "original_title": "Beverly Hills Cop III", "genre_ids": [28, 35, 80], "backdrop_path": "/9En9020IPIGzVW4cgaqmSMCNNiw.jpg", "adult": false, "overview": "Back in sunny southern California and on the trail of two murderers, Axel Foley again teams up with LA cop Billy Rosewood. Soon, they discover that an amusement park is being used as a front for a massive counterfeiting ring \u2013 and it's run by the same gang that shot Billy's boss.", "poster_path": "/tw9gAhqQcBFX0X0XfVbWqUsmzoU.jpg", "popularity": 12.544}, {"adult": false, "backdrop_path": "/aJCEQFFXNcfg5YneJzTG15qzxF7.jpg", "genre_ids": [28, 53], "id": 1572, "original_language": "en", "original_title": "Die Hard: With a Vengeance", "overview": "New York detective John McClane is back and kicking bad-guy butt in the third installment of this action-packed series, which finds him teaming with civilian Zeus Carver to prevent the loss of innocent lives. McClane thought he'd seen it all, until a genius named Simon engages McClane, his new \"partner\" -- and his beloved city -- in a deadly game that demands their concentration.", "poster_path": "/ivpXGcsPZglyYrN65THWSD7JM3q.jpg", "release_date": "1995-05-19", "title": "Die Hard: With a Vengeance", "video": false, "vote_average": 7.1, "vote_count": 3603, "popularity": 27.341}, {"id": 8961, "video": false, "vote_count": 2968, "vote_average": 6.5, "title": "Bad Boys II", "release_date": "2003-07-18", "original_language": "en", "original_title": "Bad Boys II", "genre_ids": [28, 12, 35, 80, 53], "backdrop_path": "/5xQVApmdUbBlCi1QzS8NwbCF0Ne.jpg", "adult": false, "overview": "Out-of-control, trash-talking buddy cops Marcus Burnett and Mike Lowrey of the Miami Narcotics Task Force reunite, and bullets fly, cars crash and laughs explode as they pursue a whacked-out drug lord from the streets of Miami to the barrios of Cuba. But the real fireworks result when Marcus discovers that playboy Mike is secretly romancing Marcus\u2019 sexy sister.", "poster_path": "/680X9apSqmAcebLg8evnnUeQNeI.jpg", "popularity": 37.123}, {"adult": false, "backdrop_path": "/xBhRhY8KimSrPx6AMJXigpzlGQ2.jpg", "genre_ids": [28, 35, 80], "id": 96, "original_language": "en", "original_title": "Beverly Hills Cop II", "overview": "Axel heads for the land of sunshine and palm trees to find out who shot police Captain Andrew Bogomil. Thanks to a couple of old friends, Axel's investigation uncovers a series of robberies masterminded by a heartless weapons kingpin\u2014and the chase is on.", "poster_path": "/2y1z1baxKT0coTTRlnkI6McnR9f.jpg", "release_date": "1987-05-18", "title": "Beverly Hills Cop II", "video": false, "vote_average": 6.4, "vote_count": 1235, "popularity": 13.336}, {"id": 9679, "video": false, "vote_count": 2590, "vote_average": 6.3, "title": "Gone in Sixty Seconds", "release_date": "2000-06-09", "original_language": "en", "original_title": "Gone in Sixty Seconds", "genre_ids": [28, 80, 53], "backdrop_path": "/uqd4cqpp6gbs6zG6izBUaCorgjv.jpg", "adult": false, "overview": "Upon learning that he has to come out of retirement to steal 50 cars in one night to save his brother Kip's life, former car thief Randall \"Memphis\" Raines enlists help from a few \"boost happy\" pals to accomplish a seemingly impossible feat. From countless car chases to relentless cops, the high-octane excitement builds as Randall swerves around more than a few roadblocks to keep Kip alive.", "poster_path": "/77TxKvRiX0c5JR6l4fxcN19prOy.jpg", "popularity": 20.394}, {"id": 2501, "video": false, "vote_count": 5867, "vote_average": 7.4, "title": "The Bourne Identity", "release_date": "2002-06-14", "original_language": "en", "original_title": "The Bourne Identity", "genre_ids": [28, 18, 9648, 53], "backdrop_path": "/2Fr1vqBiDn8xRJM9elcplzHctTN.jpg", "adult": false, "overview": "Wounded to the brink of death and suffering from amnesia, Jason Bourne is rescued at sea by a fisherman. With nothing to go on but a Swiss bank account number, he starts to reconstruct his life, but finds that many people he encounters want him dead. However, Bourne realizes that he has the combat and mental skills of a world-class spy\u2014but who does he work for?", "poster_path": "/bXQIL36VQdzJ69lcjQR1WQzJqQR.jpg", "popularity": 20.935}, {"adult": false, "backdrop_path": "/2jNSXfITbGYxxWLJOLTh9eAx3y8.jpg", "genre_ids": [28, 35, 80, 53], "id": 9737, "original_language": "en", "original_title": "Bad Boys", "overview": "Marcus Burnett is a hen-pecked family man. Mike Lowry is a foot-loose and fancy free ladies' man. Both are Miami policemen, and both have 72 hours to reclaim a consignment of drugs stolen from under their station's nose. To complicate matters, in order to get the assistance of the sole witness to a murder, they have to pretend to be each other.", "poster_path": "/x1ygBecKHfXX4M2kRhmFKWfWbJc.jpg", "release_date": "1995-04-07", "title": "Bad Boys", "video": false, "vote_average": 6.6, "vote_count": 3338, "popularity": 46.139}, {"adult": false, "backdrop_path": "/fgkgab4Rel0nOI3B3scHeNB4Mn6.jpg", "genre_ids": [28, 53], "id": 1573, "original_language": "en", "original_title": "Die Hard 2", "overview": "Off-duty cop John McClane is gripped with a feeling of d\u00e9j\u00e0 vu when, on a snowy Christmas Eve in the nation\u2019s capital, terrorists seize a major international airport, holding thousands of holiday travelers hostage. Renegade military commandos led by a murderous rogue officer plot to rescue a drug lord from justice and are prepared for every contingency except one: McClane\u2019s smart-mouthed heroics.", "poster_path": "/zSgL998DXaljsCmwQuwDM8Ak4rV.jpg", "release_date": "1990-07-02", "title": "Die Hard 2", "video": false, "vote_average": 6.8, "vote_count": 3296, "popularity": 23.858}, {"id": 2320, "video": false, "vote_count": 457, "vote_average": 6.2, "title": "Executive Decision", "release_date": "1996-03-15", "original_language": "en", "original_title": "Executive Decision", "genre_ids": [28, 12, 18, 53], "backdrop_path": "/bjVntRO9QkAwm1HzTfH1nn1nOpn.jpg", "adult": false, "overview": "Terrorists hijack a 747 inbound to Washington D.C., demanding the the release of their imprisoned leader. Intelligence expert David Grant (Kurt Russell) suspects another reason and he is soon the reluctant member of a special assault team that is assigned to intercept the plane and hijackers.", "poster_path": "/wmgkFuEr8bHRAgs1HS5U46Rzo0I.jpg", "popularity": 11.941}, {"adult": false, "backdrop_path": "/gxl0eDEu2IJkubxu6UL0UN7ieYb.jpg", "genre_ids": [28, 18, 9648, 53], "id": 9268, "original_language": "en", "original_title": "Eraser", "overview": "U.S. Marshall John Kruger erases the identities of people enrolled in the Witness Protection Program. His current assignment is to protect Lee Cullen, who's uncovered evidence that the weapons manufacturer she works for has been selling to terrorist groups. When Kruger discovers that there's a corrupt agent within the program, he must guard his own life while trying to protect Lee's.", "poster_path": "/bmOG5k07nrnS8T49NVPM1LnrOf1.jpg", "release_date": "1996-06-21", "title": "Eraser", "video": false, "vote_average": 5.9, "vote_count": 991, "popularity": 20.546}, {"id": 90, "video": false, "vote_count": 2118, "vote_average": 7.1, "title": "Beverly Hills Cop", "release_date": "1984-11-29", "original_language": "en", "original_title": "Beverly Hills Cop", "genre_ids": [28, 35, 80], "backdrop_path": "/gmV4lsRAAtgdTysO3FwTxN8wevb.jpg", "adult": false, "overview": "Tough-talking Detroit cop Axel Foley heads to the rarified world of Beverly Hills in his beat-up Chevy Nova to investigate a friend's murder, but soon realizes he's stumbled onto something much more complicated. Bungling rookie detective, Billy Rosewood joins the fish-out-of-water Axel and shows him the West Los Angeles ropes.", "poster_path": "/eEm00B2qO4j4gGH9PDg8dHvyApD.jpg", "popularity": 26.934}, {"adult": false, "backdrop_path": "/kSTvteM3ekuoeO7u7GJtZQkZuom.jpg", "genre_ids": [28, 53, 80], "id": 1948, "original_language": "en", "original_title": "Crank", "overview": "Professional assassin Chev Chelios learns his rival has injected him with a poison that will kill him if his heart rate drops.", "poster_path": "/6RnD3Zfh0tO0cD2vroWyH0F98Ej.jpg", "release_date": "2006-08-31", "title": "Crank", "video": false, "vote_average": 6.6, "vote_count": 2121, "popularity": 21.613}, {"id": 1701, "video": false, "vote_count": 2370, "vote_average": 6.7, "title": "Con Air", "release_date": "1997-06-01", "original_language": "en", "original_title": "Con Air", "genre_ids": [28, 80, 53], "backdrop_path": "/aX2mwtawBe2TD1csPBYvm03sx3a.jpg", "adult": false, "overview": "When the government puts all its rotten criminal eggs in one airborne basket, it's asking for trouble. Before you can say, \"Pass the barf bag,\" the crooks control the plane, led by creepy Cyrus \"The Virus\" Grissom. Watching his every move is the just-released Cameron Poe, who'd rather reunite with his family.", "poster_path": "/yhaOQ7xXw0PLHLvg1w0M9zlPdg6.jpg", "popularity": 27.211}, {"id": 400535, "video": false, "vote_count": 1615, "vote_average": 6.7, "title": "Sicario: Day of the Soldado", "release_date": "2018-06-27", "original_language": "en", "original_title": "Sicario: Day of the Soldado", "genre_ids": [28, 80, 18, 53], "backdrop_path": "/13VjjUeJ6mcDUB36XRu4YFpYNSm.jpg", "adult": false, "overview": "Agent Matt Graver teams up with operative Alejandro Gillick to prevent Mexican drug cartels from smuggling terrorists across the United States border.", "poster_path": "/msqWSQkU403cQKjQHnWLnugv7EY.jpg", "popularity": 29.236}, {"adult": false, "backdrop_path": "/siLeWQthKbUef4PKhR57BbReGnC.jpg", "genre_ids": [28, 80, 878, 53], "id": 754, "original_language": "en", "original_title": "Face/Off", "overview": "An antiterrorism agent goes under the knife to acquire the likeness of a terrorist and gather details about a bombing plot. When the terrorist escapes custody, he undergoes surgery to look like the agent so he can get close to the agent's family.", "poster_path": "/q1i8QHiHZ1cukG5iOxai8pydmoa.jpg", "release_date": "1997-06-27", "title": "Face/Off", "video": false, "vote_average": 6.9, "vote_count": 2963, "popularity": 22.412}, {"id": 2503, "video": false, "vote_count": 4835, "vote_average": 7.4, "title": "The Bourne Ultimatum", "release_date": "2007-08-03", "original_language": "en", "original_title": "The Bourne Ultimatum", "genre_ids": [28, 18, 9648, 53], "backdrop_path": "/6WpDOqkZFmhNJ0rwuLJiZVKlZi1.jpg", "adult": false, "overview": "Bourne is brought out of hiding once again by reporter Simon Ross who is trying to unveil Operation Blackbriar, an upgrade to Project Treadstone, in a series of newspaper columns. Information from the reporter stirs a new set of memories, and Bourne must finally uncover his dark past while dodging The Company's best efforts to eradicate him.", "poster_path": "/fHho6JYYY0nRcETWSoeI19iZsNF.jpg", "popularity": 16.034}, {"id": 8202, "video": false, "vote_count": 1237, "vote_average": 5.5, "title": "\u00c6on Flux", "release_date": "2005-11-30", "original_language": "en", "original_title": "\u00c6on Flux", "genre_ids": [28, 878], "backdrop_path": "/3c7e0IywQOmPKyVRPwNe2uys0MZ.jpg", "adult": false, "overview": "400 years into the future, disease has wiped out the majority of the world's population, except one walled city, Bregna, ruled by a congress of scientists. When \u00c6on Flux, the top operative in the underground 'Monican' rebellion, is sent on a mission to kill a government leader, she uncovers a world of secrets.", "poster_path": "/3rKw2QInyaACZ6wnqSg4nAXgKal.jpg", "popularity": 18.217}], "total_pages": 93, "total_results": 1842}, "recommendations": {"page": 1, "results": [], "total_pages": 1, "total_results": 0}, "credits": {"cast": [{"cast_id": 2, "character": "Linc Murdock", "credit_id": "52fe499f9251416c750ce0f3", "gender": 2, "id": 4960, "name": "Charles Bronson", "order": 0, "profile_path": "/q9wrezrLZoX1bPQsxryqCp95ryL.jpg"}, {"cast_id": 3, "character": "Maria Macklin", "credit_id": "52fe499f9251416c750ce0f7", "gender": 1, "id": 90520, "name": "Susan Oliver", "order": 1, "profile_path": "/uePe60APf8f0dBvxBxSe7IYL30N.jpg"}, {"cast_id": 4, "character": "Jamie McPheeters", "credit_id": "52fe499f9251416c750ce0fb", "gender": 2, "id": 6856, "name": "Kurt Russell", "order": 2, "profile_path": "/rlnFuNkisPpuypARI7QaGCmOY6V.jpg"}, {"cast_id": 15, "character": "Rance Macklin", "credit_id": "52fe499f9251416c750ce13b", "gender": 2, "id": 104625, "name": "Jan Merlin", "order": 3, "profile_path": "/sefUCxjME8nRlOaKh90UaBfC0CY.jpg"}, {"cast_id": 16, "character": "Ives", "credit_id": "52fe499f9251416c750ce13f", "gender": 2, "id": 5247, "name": "John Fiedler", "order": 4, "profile_path": "/wjhOLcxWaum0JIBIRMZaQQjrhQw.jpg"}, {"cast_id": 17, "character": "Mr. Knudsen", "credit_id": "52fe499f9251416c750ce143", "gender": 0, "id": 13298, "name": "Douglas Fowley", "order": 5, "profile_path": "/wMaqfPJaQgREAjP3QZKJ6oqanYk.jpg"}, {"cast_id": 18, "character": "Dan Macklin", "credit_id": "52fe499f9251416c750ce147", "gender": 2, "id": 30848, "name": "Rayford Barnes", "order": 6, "profile_path": "/2QXknVYA2ljsD2L9KnjDb2IncSI.jpg"}, {"cast_id": 19, "character": "Carey Macklin", "credit_id": "52fe499f9251416c750ce14b", "gender": 0, "id": 111593, "name": "Ron Hagerthy", "order": 7, "profile_path": "/7q9NZO6EBOmQo1SbiN8sKtDteQ4.jpg"}, {"cast_id": 20, "character": "Mendez", "credit_id": "52fe499f9251416c750ce14f", "gender": 2, "id": 151499, "name": "Robert Carricart", "order": 8, "profile_path": "/gPlhmRMEYDlFiMigtTZ7vLKJxY7.jpg"}, {"cast_id": 21, "character": "Ray Macklin", "credit_id": "52fe499f9251416c750ce153", "gender": 2, "id": 81182, "name": "Morris Ankrum", "order": 9, "profile_path": "/vbZl5cWCIK2Y6tpIPfv1nBFhgSl.jpg"}, {"cast_id": 22, "character": "Doctor McPheeters", "credit_id": "52fe499f9251416c750ce157", "gender": 2, "id": 91260, "name": "Russ Conway", "order": 10, "profile_path": "/9DVSgsiR43JwUeM8Y4XSDZURckf.jpg"}, {"cast_id": 23, "character": "Girard", "credit_id": "52fe499f9251416c750ce15b", "gender": 0, "id": 153482, "name": "Maurice Wells", "order": 11, "profile_path": null}, {"cast_id": 24, "character": "Bryce, Blacksmith", "credit_id": "52fe499f9251416c750ce15f", "gender": 2, "id": 161672, "name": "Mike De Anda", "order": 12, "profile_path": null}, {"cast_id": 25, "character": "Molly", "credit_id": "52fe499f9251416c750ce163", "gender": 1, "id": 113934, "name": "Susan Flannery", "order": 13, "profile_path": "/xIsRikjNrOPoKmBEk6Gk8L6gMYO.jpg"}], "crew": [{"credit_id": "52fe499f9251416c750ce119", "department": "Sound", "gender": 2, "id": 3375, "job": "Original Music Composer", "name": "Walter Scharf", "profile_path": null}, {"credit_id": "52fe499f9251416c750ce113", "department": "Sound", "gender": 2, "id": 5467, "job": "Original Music Composer", "name": "Leigh Harline", "profile_path": "/cE6Wt8ZoGfDfXjVcUgsi4TRb8ls.jpg"}, {"credit_id": "52fe499f9251416c750ce131", "department": "Art", "gender": 2, "id": 10604, "job": "Art Direction", "name": "George W. Davis", "profile_path": null}, {"credit_id": "52fe499f9251416c750ce137", "department": "Art", "gender": 2, "id": 12280, "job": "Art Direction", "name": "Addison Hehr", "profile_path": null}, {"credit_id": "52fe499f9251416c750ce11f", "department": "Sound", "gender": 0, "id": 29330, "job": "Original Music Composer", "name": "Harry Sukman", "profile_path": null}, {"credit_id": "52fe499f9251416c750ce10d", "department": "Production", "gender": 2, "id": 49064, "job": "Producer", "name": "Boris Ingster", "profile_path": null}, {"credit_id": "52fe499f9251416c750ce0ef", "department": "Directing", "gender": 2, "id": 68682, "job": "Director", "name": "Boris Sagal", "profile_path": null}, {"credit_id": "52fe499f9251416c750ce125", "department": "Camera", "gender": 0, "id": 89159, "job": "Director of Photography", "name": "John M. Nickolaus Jr.", "profile_path": null}, {"credit_id": "52fe499f9251416c750ce107", "department": "Writing", "gender": 0, "id": 129311, "job": "Screenplay", "name": "Berne Giler", "profile_path": null}, {"credit_id": "52fe499f9251416c750ce12b", "department": "Editing", "gender": 0, "id": 1113689, "job": "Editor", "name": "Harry Coswick", "profile_path": null}, {"credit_id": "52fe499f9251416c750ce101", "department": "Writing", "gender": 0, "id": 1123083, "job": "Novel", "name": "Robert Lewis Taylor", "profile_path": null}]}}