{"adult": false, "backdrop_path": "/4SpUBtPaUmdPShPCyNAJ3A7bc8A.jpg", "belongs_to_collection": null, "budget": 22361, "genres": [{"id": 35, "name": "Comedy"}, {"id": 27, "name": "Horror"}, {"id": 18, "name": "Drama"}], "homepage": "http://www.zombadings.com/index/", "id": 96239, "imdb_id": "tt1810861", "original_language": "tl", "original_title": "Zombadings 1: Patayin sa Shokot si Remington", "overview": "Remington lives in a small provincial town. He\u2019s a typical macho. During the day he works his ass off and at night he gets drunk to blow off steam. As a child Remington mercilessly harassed his homosexual neighbor until the man put a curse on him. One day Remington would turn gay. And it seems like the curse is slowly but surely working its magic. Remington is being forced out of a closet he never thought he\u2019d be in. First his body language turns pink, then the way he talks and finally his sexual preference. Poor Remington finds himself entangled in a confusing threesome with his best friend and girlfriend. In the meantime his mother, a police officer, tries to find the perpetrator of a series of murders in the city\u2019s gay and transsexual community. And the victims do not intend to remain under ground. They\u2019re coming out of their coffins, Gloria Gaynor style !", "popularity": 1.163, "poster_path": "/4C0Y9ZSYxWk91T1GxrGqP6jaGaG.jpg", "production_companies": [{"id": 59279, "logo_path": null, "name": "Origin8 Media", "origin_country": ""}, {"id": 58597, "logo_path": null, "name": "Post Manila", "origin_country": ""}, {"id": 59280, "logo_path": null, "name": "SQ Film Laboratories", "origin_country": ""}, {"id": 58596, "logo_path": null, "name": "Reality Entertainment", "origin_country": "PH"}], "production_countries": [{"iso_3166_1": "PH", "name": "Philippines"}], "release_date": "2011-08-31", "revenue": 721651, "runtime": 96, "spoken_languages": [{"iso_639_1": "tl", "name": ""}], "status": "Released", "tagline": "", "title": "Remington and the Curse of the Zombadings", "video": false, "vote_average": 5.4, "vote_count": 8, "keywords": {"keywords": [{"id": 6895, "name": "philippines"}]}, "similar": {"page": 1, "results": [{"id": 553100, "video": false, "vote_count": 13, "vote_average": 6.2, "title": "Wild and Free", "release_date": "2018-10-10", "original_language": "tl", "original_title": "Wild and Free", "genre_ids": [18], "backdrop_path": "/9v4nPAyVvtGONV5NtPkDHA9bczS.jpg", "adult": false, "overview": "Ellie and Jake fall in love, but struggle with their relationship when they discover an unexpected connection between their pasts.", "poster_path": "/AhDZQkocc4DQpkSY5dTOmqesqXn.jpg", "popularity": 25.359}, {"adult": false, "backdrop_path": null, "genre_ids": [27, 14], "id": 620413, "original_language": "tl", "original_title": "Sa Gabing Tanging Liwanag Ay Paniniwala", "overview": "The continuous disappearance of townsmen ignited the town captain to search the woods in order to find out who is behind the disappearances and where are the people being brought to. Upon his search, the town captain and his son came across a mysterious answer.", "poster_path": "/jngkUyvbdD5bxNKqoKuj1bVyFha.jpg", "release_date": "2019-08-03", "title": "Sa Gabing Tanging Liwanag Ay Paniniwala", "video": false, "vote_average": 0.0, "vote_count": 0, "popularity": 0.6}, {"id": 576235, "video": false, "vote_count": 0, "vote_average": 0.0, "title": "Elise", "release_date": "2019-02-06", "original_language": "tl", "original_title": "Elise", "genre_ids": [35, 10749], "backdrop_path": "/5yNJKAAV4Ab4DnjRXCVEqalROrC.jpg", "adult": false, "overview": "As their paths cross again several years later, Bert has a hard time acknowledging that he is still in love with Elise.", "poster_path": "/msKjsFkcc7qLJhekzWzpsgQjG8g.jpg", "popularity": 12.645}, {"id": 49040, "video": false, "vote_count": 3879, "vote_average": 6.1, "title": "The Bourne Legacy", "release_date": "2012-08-08", "original_language": "en", "original_title": "The Bourne Legacy", "genre_ids": [28, 53], "backdrop_path": "/gCdJYpX1TXGEZrEJl0mMTTpinMh.jpg", "adult": false, "overview": "New CIA operative Aaron Cross experiences life-or-death stakes that have been triggered by the previous actions of Jason Bourne.", "poster_path": "/qIJonjlSzU6LCJklS6CH3p5vLcQ.jpg", "popularity": 25.918}, {"adult": false, "backdrop_path": null, "genre_ids": [35, 80], "id": 565156, "original_language": "tl", "original_title": "Ang Pangarap Kong Holdap", "overview": "A group of friends set out a plan for a perfect crime.", "poster_path": "/iLubK0GqnQPq74OztLN3C0Pp9R0.jpg", "release_date": "2018-11-28", "title": "Ang Pangarap Kong Holdap", "video": false, "vote_average": 2.0, "vote_count": 1, "popularity": 9.457}, {"adult": false, "backdrop_path": "/34xYArXhdaFiYp0zppC7Dk7m5zW.jpg", "genre_ids": [53, 80, 18, 9648], "id": 183026, "original_language": "en", "original_title": "Rigodon", "overview": "A heartbroken young woman begins a sexual relationship with a struggling artista, not knowing that her new beau is already married. As the truth comes out, obsession and jealousy bring pain into all their lives.", "poster_path": "/kwPyz2Oa7IcjRsm6bJlOQSgsh63.jpg", "release_date": "2012-11-21", "title": "Rigodon", "video": false, "vote_average": 6.7, "vote_count": 8, "popularity": 11.449}, {"adult": false, "backdrop_path": "/gT8pjzyprU8zwwJan8Y9enSUmyo.jpg", "genre_ids": [35, 10749], "id": 548789, "original_language": "tl", "original_title": "The Hopeful Romantic", "overview": "Jess, a bellboy working at The Manila Hotel, is gifted an all-expenses paid stay at the hotel's most expensive suite. And during his stay, he encounters Veronica, a professional golddigger. Jess keeps up the illusion of being a rich guest of the hotel, hoping to get Veronica to fall in love with him before he has to tell her the truth.", "poster_path": "/23WBe0eWfARtbsZIUmVbgA0CGg7.jpg", "release_date": "2018-09-12", "title": "The Hopeful Romantic", "video": false, "vote_average": 3.0, "vote_count": 4, "popularity": 12.686}, {"adult": false, "backdrop_path": "/n4yqgEw0uUu8erfouZ1ORSpBTAH.jpg", "genre_ids": [10752, 18, 36], "id": 403357, "original_language": "es", "original_title": "1898: los \u00faltimos de Filipinas", "overview": "The Philippines, 1898. Fifty Spanish soldiers arrive in the small village of Baler to rebuild an outpost. Although the war against the Filipinos and their American allies is almost lost, as is the Spanish Empire, the garrison will endure a cruel siege for eleven months. They will be the last to surrender.", "poster_path": "/q2CbFRigH5qz8v68Q5GbadSMcOz.jpg", "release_date": "2016-12-02", "title": "1898: Our Last Men in the Philippines", "video": false, "vote_average": 6.5, "vote_count": 80, "popularity": 11.596}, {"adult": false, "backdrop_path": "/5oFqUQDyUxHarGKBITc3l8upu6F.jpg", "genre_ids": [18, 10749], "id": 369927, "original_language": "en", "original_title": "A Second Chance", "overview": "In the continuation of Popoy and Basha\u2019s love story from \u201cOne More Chance,\u201d we find the couple walking down the aisle and vowing to love each other \u201cforever and ever.\u201d \u201cA Second Chance\u201d explores realities and intricacies and Popoy and Basha\u2019s married life. We find Popoy as a failed achiever, struggling to keep his business and self-esteem intact, while Basha has given up so much in her life to keep their marriage together.", "poster_path": "/2q20s3mfjjkTCEwKIbxm8m4pGeM.jpg", "release_date": "2015-11-25", "title": "A Second Chance", "video": false, "vote_average": 7.2, "vote_count": 8, "popularity": 2.445}, {"adult": false, "backdrop_path": "/jYZ415g5qBx0ea4ZgriNeWH0Tl7.jpg", "genre_ids": [28, 35, 10749], "id": 9660, "original_language": "en", "original_title": "Operation Petticoat", "overview": "A World War II submarine commander finds himself stuck with a decrepit sub, a con-man executive officer, and a group of army nurses.", "poster_path": "/emhiXStVB3HoE2MtYVRzTNOgOMn.jpg", "release_date": "1959-12-05", "title": "Operation Petticoat", "video": false, "vote_average": 7.1, "vote_count": 142, "popularity": 9.097}, {"id": 4539, "video": false, "vote_count": 148, "vote_average": 8.0, "title": "Hearts of Darkness: A Filmmaker's Apocalypse", "release_date": "1991-09-06", "original_language": "en", "original_title": "Hearts of Darkness: A Filmmaker's Apocalypse", "genre_ids": [99], "backdrop_path": "/mQ6GJtc5xZpNQpVhAfoeZZbrzJO.jpg", "adult": false, "overview": "A chronicle of the production problems \u2014 including bad weather, actors' health, war near the filming locations, and more \u2014 which plagued the filming of Apocalypse Now, increasing costs and nearly destroying the life and career of Francis Ford Coppola.", "poster_path": "/iQLXcATpUxrRdEzxoDqzCgYllnT.jpg", "popularity": 8.639}, {"adult": false, "backdrop_path": "/2HYvAhyrIaYG2AcdyAZX4FWIZo2.jpg", "genre_ids": [10749, 18], "id": 134380, "original_language": "en", "original_title": "The Mistress", "overview": "A young woman is torn between the affections of her two lovers. One is a young bachelor who brings passion into her life. The other is a married man who has kept her as his mistress for years. Architect JD has a chip on his shoulder about his father Rico never really accepting him as his son. Seamstress Sari struggles to take care of her family. The two meet by chance, and JD aggressively pursues Saris affections. Though the two are clearly a good match, there is a problem standing in the way of their bliss: Sari is the mistress of JDs father. Against his better judgment, JD continues to court Sari even after finding out this difficult fact. He hides his true identity as Ricos son, and fights to win Saris heart.", "poster_path": "/1tB0ClfLmo9kAijLvHzSCR65DUh.jpg", "release_date": "2012-09-21", "title": "The Mistress", "video": false, "vote_average": 6.4, "vote_count": 7, "popularity": 3.776}, {"adult": false, "backdrop_path": "/oxfN2hOLhMPCuDdG68f3wAV7uIu.jpg", "genre_ids": [80, 18, 10749], "id": 18311, "original_language": "cn", "original_title": "\u963f\u98db\u6b63\u50b3", "overview": "Yuddy, a Hong Kong playboy known for breaking girls' hearts, tries to find solace and the truth after discovering the woman who raised him isn't his mother.", "poster_path": "/8GxQZTt3WNke0TqKGCBuTmTxMu8.jpg", "release_date": "1990-12-15", "title": "Days of Being Wild", "video": false, "vote_average": 7.4, "vote_count": 172, "popularity": 13.451}, {"adult": false, "backdrop_path": "/hsEm5oI9y1ImrVrSnjhjINlXjqy.jpg", "genre_ids": [80, 53, 27, 28], "id": 373786, "original_language": "en", "original_title": "Nilalang", "overview": "Nilalang tackles the underbelly of corrupt Philippine cops with the Japanese 'Yakuza' and its links to a centuries\u2019 old curse that may be responsible for the spate of serial killings happening in Manila.", "poster_path": "/hEfxu9VHXpSWipolwTgTLVAgBIt.jpg", "release_date": "2015-12-25", "title": "Creatures", "video": false, "vote_average": 8.0, "vote_count": 2, "popularity": 3.616}, {"adult": false, "backdrop_path": null, "genre_ids": [99, 10402], "id": 635872, "original_language": "tl", "original_title": "ICYMI: I See Me", "overview": "A music documentary on MNL48, a franchise of the highly successful Japanese idol group, AKB48. The film looks into the girls as they perform within a music subculture that tries to get a foothold in a market of an overtly critical audience.", "poster_path": "/dDx99h6KtrGMjAV2pskUJigBbEY.jpg", "release_date": "2019-10-21", "title": "ICYMI: I See Me", "video": false, "vote_average": 0.0, "vote_count": 0, "popularity": 0.909}, {"id": 19096, "video": false, "vote_count": 26, "vote_average": 6.1, "title": "Back to Bataan", "release_date": "1945-05-30", "original_language": "en", "original_title": "Back to Bataan", "genre_ids": [28, 18, 10752], "backdrop_path": "/6FRB0D9SJ2vZitrXuRuwCJMWT2W.jpg", "adult": false, "overview": "An Army colonel leads a guerrilla campaign against the Japanese in the Philippines.", "poster_path": "/nfoHUCIXIzKX1AhkWOXEmCKmHzI.jpg", "popularity": 5.712}, {"adult": false, "backdrop_path": null, "genre_ids": [18], "id": 352273, "original_language": "en", "original_title": "Tubero", "overview": "A young plumber gets drawn into several affairs, his lack of control pushing him into dangerous situations.", "poster_path": "/AhGO3GklxxxeztdBnskWuibvfan.jpg", "release_date": "2011-05-25", "title": "Tubero", "video": false, "vote_average": 8.5, "vote_count": 1, "popularity": 3.375}, {"adult": false, "backdrop_path": "/3pVJIuV4xPDNIMIv5ZsJPtTV67x.jpg", "genre_ids": [18, 28, 10752], "id": 31935, "original_language": "en", "original_title": "Too Late the Hero", "overview": "A WWII film set on a Pacific island. Japanese and allied forces occupy different parts of the island. When a group of British soldiers are sent on a mission behind enemy lines, things don't go exactly to plan. This film differs in that some of the 'heroes' are very reluctant, but they come good when they are pursued by the Japanese who are determined to prevent them returning to base.", "poster_path": "/gshAXlNmSpgJwll5Zi65N5TnGpO.jpg", "release_date": "1970-05-20", "title": "Too Late the Hero", "video": false, "vote_average": 6.4, "vote_count": 37, "popularity": 8.227}, {"adult": false, "backdrop_path": "/8FtzdLyAL7P1y2S1HnmOlNr9bUX.jpg", "genre_ids": [35, 10749], "id": 461438, "original_language": "tl", "original_title": "Can We Still Be Friends?", "overview": "Digs a no fuss, no frills kind of guy and idealistic achiever Sam who are friends turned lovers turned exes. Their relationship as a couple lasted for almost eight years until they both decided on an amicable breakup.", "poster_path": "/rUlMsLiL1iUvqE8YYwog0KPz6sV.jpg", "release_date": "2017-06-14", "title": "Can We Still Be Friends?", "video": false, "vote_average": 6.2, "vote_count": 175, "popularity": 6.212}, {"adult": false, "backdrop_path": "/9yytl7scc1qxDWKtJmdVK2FS4nq.jpg", "genre_ids": [18, 35, 10749], "id": 52800, "original_language": "tl", "original_title": "A Very Special Love", "overview": "Laida Magtalas is a modern-day Belle who works hard to provide for her family while hoping that someday she will meet her prince charming and that they will live happily ever after together. That would-be prince charming is none other than \"Miggy\", the youngest member of the Montenegro clan \u2014 a well established family in the business world. Moony Laida's desire to finally meet Miggy leads her to apply as an Editorial Assistant at his newly launched men\u2019s magazine, \"Bachelor\". In spite of the fact that a relationship with Miggy may prove to be a long shot, Laida revels working in such close proximity with the man of her dreams.", "poster_path": "/eggMe506MiKRzDKuY1yAO71sUGY.jpg", "release_date": "2008-08-03", "title": "A Very Special Love", "video": false, "vote_average": 7.3, "vote_count": 3, "popularity": 3.904}], "total_pages": 81, "total_results": 1620}, "recommendations": {"page": 1, "results": [{"adult": false, "backdrop_path": "/y84dqI1OZPMQicwyLsIf24z1TJb.jpg", "genre_ids": [35], "id": 83272, "original_language": "tl", "original_title": "Ang Babae sa Septic Tank", "overview": "The story of Mila, a mother from the slums, who out of desperation to survive, has sold her child to a pedophile.", "poster_path": "/b3quVgAO6Rmx5vOOmhROljZ0NaV.jpg", "release_date": "2011-08-03", "title": "The Woman in the Septic Tank", "video": false, "vote_average": 7.2, "vote_count": 6, "popularity": 1.443}], "total_pages": 1, "total_results": 1}, "credits": {"cast": [{"cast_id": 12, "character": "Remington", "credit_id": "55b3c03cc3a368246c00c2f3", "gender": 0, "id": 1238047, "name": "Martin Escudero", "order": 0, "profile_path": "/97ME16CnnlxzO2ESrQshXZaXk1i.jpg"}, {"cast_id": 3, "character": "Hannah", "credit_id": "52fe49a99251416c750cf35d", "gender": 0, "id": 1008402, "name": "Lauren Young", "order": 1, "profile_path": "/4547qBnfCiEQvhoLtsplI8qVR3V.jpg"}, {"cast_id": 4, "character": "Jigs", "credit_id": "52fe49a99251416c750cf361", "gender": 0, "id": 1008403, "name": "Kerbie Zamora", "order": 2, "profile_path": null}, {"cast_id": 5, "character": "Pops", "credit_id": "52fe49a99251416c750cf365", "gender": 0, "id": 591025, "name": "Roderick Paulate", "order": 3, "profile_path": "/mBIuPrjGivfVq7hEfhwfQdCqrtJ.jpg"}, {"cast_id": 6, "character": "Fe", "credit_id": "52fe49a99251416c750cf369", "gender": 1, "id": 1082061, "name": "Janice de Belen", "order": 4, "profile_path": "/qIeiAVmW5pxPKfJDoELDXrym1Lv.jpg"}, {"cast_id": 7, "character": "Mrs. Montano", "credit_id": "52fe49a99251416c750cf36d", "gender": 0, "id": 238157, "name": "Eugene Domingo", "order": 5, "profile_path": "/nr6mIC6OqKBmRKWM5HVa28P50oY.jpg"}, {"cast_id": 8, "character": "Ed", "credit_id": "52fe49a99251416c750cf371", "gender": 2, "id": 934089, "name": "John Regala", "order": 6, "profile_path": "/1iHA7stR9pdmtD9zTIjAhU2vs2N.jpg"}, {"cast_id": 11, "character": "Albularya", "credit_id": "559cec1a9251414204000fdc", "gender": 1, "id": 88941, "name": "Marian Rivera", "order": 7, "profile_path": "/kULJI53lm0wWzVtakHBOq0zgOny.jpg"}, {"cast_id": 26, "character": "Mimi", "credit_id": "56473a14c3a368260800346d", "gender": 0, "id": 1076722, "name": "Mailes Kanapi", "order": 8, "profile_path": "/usLx4no6i9DMiT6Dfkih559LUlo.jpg"}, {"cast_id": 14, "character": "Georgia", "credit_id": "55b3c1559251411e14012b33", "gender": 0, "id": 1490342, "name": "Nar Cabico", "order": 9, "profile_path": null}, {"cast_id": 15, "character": "Suarez", "credit_id": "55b3c1649251411e180121c7", "gender": 0, "id": 1185022, "name": "Daniel Fernando", "order": 10, "profile_path": null}, {"cast_id": 16, "character": "Serge", "credit_id": "55b3c20c9251411e0f01287f", "gender": 0, "id": 1326670, "name": "Leandro Baldemor", "order": 11, "profile_path": null}, {"cast_id": 17, "character": "Mayor", "credit_id": "55b3c21dc3a36830020123a8", "gender": 0, "id": 1043278, "name": "Odette Khan", "order": 12, "profile_path": "/932UGJNlrGiAqtRKl92qKPOb2lb.jpg"}, {"cast_id": 18, "character": "Ernesto Manansala", "credit_id": "55b3c22cc3a3682ff9011321", "gender": 0, "id": 1097518, "name": "Nicco Manalo", "order": 13, "profile_path": "/pS9SKwMx62Yq9KFUcgUbaT0yNb1.jpg"}, {"cast_id": 19, "character": "Seraphim - Popss page boy / apprentice sorcerer", "credit_id": "55b3c23ac3a3682ff40150c9", "gender": 0, "id": 1457349, "name": "Daniel Medrana", "order": 14, "profile_path": null}, {"cast_id": 20, "character": "Berting", "credit_id": "55b3c249925141736400474f", "gender": 0, "id": 223849, "name": "Ward Luarca", "order": 15, "profile_path": null}, {"cast_id": 21, "character": "Beauty Pageant Emcee", "credit_id": "55b3c2619251411e0f012888", "gender": 2, "id": 140418, "name": "Bayani Agbayani", "order": 16, "profile_path": "/vLDzg52zJPrNiATmW4aHFV2aOT9.jpg"}, {"cast_id": 23, "character": "Priest", "credit_id": "55b3c392925141788b004bbf", "gender": 0, "id": 1059362, "name": "Jess Evardone", "order": 17, "profile_path": "/cugsjN8ptIjpEU5fxfxa1lvz2dH.jpg"}, {"cast_id": 24, "character": "Gaydar (voice)", "credit_id": "55b3c4229251411e14012b8b", "gender": 0, "id": 1040546, "name": "Emmanuel Dela Cruz", "order": 18, "profile_path": null}, {"cast_id": 25, "character": "Pahiyas Contestant", "credit_id": "55b3c46b925141788b004bf5", "gender": 0, "id": 1384870, "name": "Sunshine Teodoro", "order": 19, "profile_path": null}], "crew": [{"credit_id": "52fe49a99251416c750cf355", "department": "Directing", "gender": 0, "id": 147540, "job": "Director", "name": "Jade Castro", "profile_path": null}, {"credit_id": "52fe49a99251416c750cf377", "department": "Writing", "gender": 0, "id": 576198, "job": "Screenplay", "name": "Michiko Yamamoto", "profile_path": null}, {"credit_id": "52fe49a99251416c750cf37d", "department": "Writing", "gender": 0, "id": 1040545, "job": "Screenplay", "name": "Raymond Lee", "profile_path": null}]}}